<?xml version="1.0" encoding="UTF-8" standalone="no"?>
<!-- Created with CurveBenchmark -->
<svg
	xmlns:dc="http://purl.org/dc/elements/1.1/"
	xmlns:cc="http://creativecommons.org/ns#"
	xmlns:rdf="http://www.w3.org/1999/02/22-rdf-syntax-ns#"
	xmlns:svg="http://www.w3.org/2000/svg"
	xmlns="http://www.w3.org/2000/svg"
	xmlns:sodipodi="http://sodipodi.sourceforge.net/DTD/sodipodi-0.dtd"
	xmlns:inkscape="http://www.inkscape.org/namespaces/inkscape"
	width="1000"
	height="1000"
	id="svg2"
	version="1.1"
	sodipodi:docname="open-curves/crawl-oc1.txt">
<defs
	id="defs4" />
<metadata
	id="metadata7">
	<rdf:RDF>
		<cc:Work
			rdf:about="">
			<dc:format>image/svg+xml</dc:format>
			<dc:type
				rdf:resource="http://purl.org/dc/dcmitype/StillImage" />
			<dc:title></dc:title>
		</cc:Work>
	</rdf:RDF>
</metadata>
<g
	inkscape:label="Layer 1"
	inkscape:groupmode="layer"
	id="layer1">
	<path style="fill:none;stroke:red;stroke-width:1px;stroke-linecap:butt;stroke-linejoin:miter;stroke-opacity:1" d="M 56.7087,761.302 61.043,703.711 z" id="boundary" inkscape:connector-curvature="0" />
	<path style="fill:none;stroke:red;stroke-width:1px;stroke-linecap:butt;stroke-linejoin:miter;stroke-opacity:1" d="M 61.043,703.711 30.3045,646.618 z" id="boundary" inkscape:connector-curvature="0" />
	<path style="fill:none;stroke:red;stroke-width:1px;stroke-linecap:butt;stroke-linejoin:miter;stroke-opacity:1" d="M 30.3045,646.618 8.08517,535.471 z" id="boundary" inkscape:connector-curvature="0" />
	<path style="fill:none;stroke:red;stroke-width:1px;stroke-linecap:butt;stroke-linejoin:miter;stroke-opacity:1" d="M 8.08517,535.471 4,402.753 z" id="boundary" inkscape:connector-curvature="0" />
	<path style="fill:none;stroke:red;stroke-width:1px;stroke-linecap:butt;stroke-linejoin:miter;stroke-opacity:1" d="M 4,402.753 6.09241,255.139 z" id="boundary" inkscape:connector-curvature="0" />
	<path style="fill:none;stroke:red;stroke-width:1px;stroke-linecap:butt;stroke-linejoin:miter;stroke-opacity:1" d="M 6.09241,255.139 20.3905,147.629 z" id="boundary" inkscape:connector-curvature="0" />
	<path style="fill:none;stroke:red;stroke-width:1px;stroke-linecap:butt;stroke-linejoin:miter;stroke-opacity:1" d="M 20.3905,147.629 41.6633,55.5629 z" id="boundary" inkscape:connector-curvature="0" />
	<path style="fill:none;stroke:red;stroke-width:1px;stroke-linecap:butt;stroke-linejoin:miter;stroke-opacity:1" d="M 41.6633,55.5629 113.154,16.8534 z" id="boundary" inkscape:connector-curvature="0" />
	<path style="fill:none;stroke:red;stroke-width:1px;stroke-linecap:butt;stroke-linejoin:miter;stroke-opacity:1" d="M 113.154,16.8534 219.966,24.2266 z" id="boundary" inkscape:connector-curvature="0" />
	<path style="fill:none;stroke:red;stroke-width:1px;stroke-linecap:butt;stroke-linejoin:miter;stroke-opacity:1" d="M 219.966,24.2266 370.769,69.313 z" id="boundary" inkscape:connector-curvature="0" />
	<path style="fill:none;stroke:red;stroke-width:1px;stroke-linecap:butt;stroke-linejoin:miter;stroke-opacity:1" d="M 370.769,69.313 396.725,136.569 z" id="boundary" inkscape:connector-curvature="0" />
	<path style="fill:none;stroke:red;stroke-width:1px;stroke-linecap:butt;stroke-linejoin:miter;stroke-opacity:1" d="M 396.725,136.569 422.531,245.225 z" id="boundary" inkscape:connector-curvature="0" />
	<path style="fill:none;stroke:red;stroke-width:1px;stroke-linecap:butt;stroke-linejoin:miter;stroke-opacity:1" d="M 422.531,245.225 431.897,343.817 z" id="boundary" inkscape:connector-curvature="0" />
	<path style="fill:none;stroke:red;stroke-width:1px;stroke-linecap:butt;stroke-linejoin:miter;stroke-opacity:1" d="M 431.897,343.817 487.844,396.177 z" id="boundary" inkscape:connector-curvature="0" />
	<path style="fill:none;stroke:red;stroke-width:1px;stroke-linecap:butt;stroke-linejoin:miter;stroke-opacity:1" d="M 487.844,396.177 599.439,407.984 z" id="boundary" inkscape:connector-curvature="0" />
	<path style="fill:none;stroke:red;stroke-width:1px;stroke-linecap:butt;stroke-linejoin:miter;stroke-opacity:1" d="M 599.439,407.984 706.55,360.257 z" id="boundary" inkscape:connector-curvature="0" />
	<path style="fill:none;stroke:red;stroke-width:1px;stroke-linecap:butt;stroke-linejoin:miter;stroke-opacity:1" d="M 706.55,360.257 726.428,266.547 z" id="boundary" inkscape:connector-curvature="0" />
	<path style="fill:none;stroke:red;stroke-width:1px;stroke-linecap:butt;stroke-linejoin:miter;stroke-opacity:1" d="M 726.428,266.547 712.877,159.984 z" id="boundary" inkscape:connector-curvature="0" />
	<path style="fill:none;stroke:red;stroke-width:1px;stroke-linecap:butt;stroke-linejoin:miter;stroke-opacity:1" d="M 712.877,159.984 707.049,63.235 z" id="boundary" inkscape:connector-curvature="0" />
	<path style="fill:none;stroke:red;stroke-width:1px;stroke-linecap:butt;stroke-linejoin:miter;stroke-opacity:1" d="M 707.049,63.235 761.85,16.3552 z" id="boundary" inkscape:connector-curvature="0" />
	<path style="fill:none;stroke:red;stroke-width:1px;stroke-linecap:butt;stroke-linejoin:miter;stroke-opacity:1" d="M 761.85,16.3552 840.514,4 z" id="boundary" inkscape:connector-curvature="0" />
	<path style="fill:none;stroke:red;stroke-width:1px;stroke-linecap:butt;stroke-linejoin:miter;stroke-opacity:1" d="M 840.514,4 919.727,33.4431 z" id="boundary" inkscape:connector-curvature="0" />
	<path style="fill:none;stroke:red;stroke-width:1px;stroke-linecap:butt;stroke-linejoin:miter;stroke-opacity:1" d="M 919.727,33.4431 981.054,153.956 z" id="boundary" inkscape:connector-curvature="0" />
	<path style="fill:none;stroke:red;stroke-width:1px;stroke-linecap:butt;stroke-linejoin:miter;stroke-opacity:1" d="M 981.054,153.956 988.527,228.037 z" id="boundary" inkscape:connector-curvature="0" />
	<path style="fill:none;stroke:red;stroke-width:1px;stroke-linecap:butt;stroke-linejoin:miter;stroke-opacity:1" d="M 988.527,228.037 982.549,311.384 z" id="boundary" inkscape:connector-curvature="0" />
	<path style="fill:none;stroke:red;stroke-width:1px;stroke-linecap:butt;stroke-linejoin:miter;stroke-opacity:1" d="M 982.549,311.384 994.755,461.141 z" id="boundary" inkscape:connector-curvature="0" />
	<path style="fill:none;stroke:red;stroke-width:1px;stroke-linecap:butt;stroke-linejoin:miter;stroke-opacity:1" d="M 994.755,461.141 996,616.427 z" id="boundary" inkscape:connector-curvature="0" />
	<path style="fill:none;stroke:red;stroke-width:1px;stroke-linecap:butt;stroke-linejoin:miter;stroke-opacity:1" d="M 996,616.427 965.112,684.53 z" id="boundary" inkscape:connector-curvature="0" />
	<path style="fill:none;stroke:red;stroke-width:1px;stroke-linecap:butt;stroke-linejoin:miter;stroke-opacity:1" d="M 965.112,684.53 957.739,750.242 z" id="boundary" inkscape:connector-curvature="0" />
	<circle cx="6.09241" cy="255.139" r="4" fill="#0" id="circle0"/>
	<circle cx="4" cy="402.753" r="4" fill="#0" id="circle1"/>
	<circle cx="8.08517" cy="535.471" r="4" fill="#0" id="circle2"/>
	<circle cx="20.3905" cy="147.629" r="4" fill="#0" id="circle3"/>
	<circle cx="41.6633" cy="55.5629" r="4" fill="#0" id="circle4"/>
	<circle cx="370.769" cy="69.313" r="4" fill="#0" id="circle5"/>
	<circle cx="431.897" cy="343.817" r="4" fill="#0" id="circle6"/>
	<circle cx="487.844" cy="396.177" r="4" fill="#0" id="circle7"/>
	<circle cx="599.439" cy="407.984" r="4" fill="#0" id="circle8"/>
	<circle cx="707.049" cy="63.235" r="4" fill="#0" id="circle9"/>
	<circle cx="706.55" cy="360.257" r="4" fill="#0" id="circle10"/>
	<circle cx="712.877" cy="159.984" r="4" fill="#0" id="circle11"/>
	<circle cx="726.428" cy="266.547" r="4" fill="#0" id="circle12"/>
	<circle cx="761.85" cy="16.3552" r="4" fill="#0" id="circle13"/>
	<circle cx="957.739" cy="750.242" r="4" fill="#0" id="circle14"/>
	<circle cx="965.112" cy="684.53" r="4" fill="#0" id="circle15"/>
	<circle cx="982.549" cy="311.384" r="4" fill="#0" id="circle16"/>
	<circle cx="981.054" cy="153.956" r="4" fill="#0" id="circle17"/>
	<circle cx="988.527" cy="228.037" r="4" fill="#0" id="circle18"/>
	<circle cx="994.755" cy="461.141" r="4" fill="#0" id="circle19"/>
	<circle cx="996" cy="616.427" r="4" fill="#0" id="circle20"/>
	<circle cx="113.154" cy="16.8534" r="4" fill="#0" id="circle21"/>
	<circle cx="840.514" cy="4" r="4" fill="#0" id="circle22"/>
	<circle cx="919.727" cy="33.4431" r="4" fill="#0" id="circle23"/>
	<circle cx="422.531" cy="245.225" r="4" fill="#0" id="circle24"/>
	<circle cx="396.725" cy="136.569" r="4" fill="#0" id="circle25"/>
	<circle cx="219.966" cy="24.2266" r="4" fill="#0" id="circle26"/>
	<circle cx="30.3045" cy="646.618" r="4" fill="#0" id="circle27"/>
	<circle cx="61.043" cy="703.711" r="4" fill="#0" id="circle28"/>
	<circle cx="56.7087" cy="761.302" r="4" fill="#0" id="circle29"/>
	</g>
</svg>