<?xml version="1.0" encoding="UTF-8" standalone="no"?>
<!-- Created with CurveBenchmark -->
<svg
	xmlns:dc="http://purl.org/dc/elements/1.1/"
	xmlns:cc="http://creativecommons.org/ns#"
	xmlns:rdf="http://www.w3.org/1999/02/22-rdf-syntax-ns#"
	xmlns:svg="http://www.w3.org/2000/svg"
	xmlns="http://www.w3.org/2000/svg"
	xmlns:sodipodi="http://sodipodi.sourceforge.net/DTD/sodipodi-0.dtd"
	xmlns:inkscape="http://www.inkscape.org/namespaces/inkscape"
	width="1000"
	height="1000"
	id="svg2"
	version="1.1"
	sodipodi:docname="open-curves/vicur-oc4.txt">
<defs
	id="defs4" />
<metadata
	id="metadata7">
	<rdf:RDF>
		<cc:Work
			rdf:about="">
			<dc:format>image/svg+xml</dc:format>
			<dc:type
				rdf:resource="http://purl.org/dc/dcmitype/StillImage" />
			<dc:title></dc:title>
		</cc:Work>
	</rdf:RDF>
</metadata>
<g
	inkscape:label="Layer 1"
	inkscape:groupmode="layer"
	id="layer1">
	<path style="fill:none;stroke:red;stroke-width:1px;stroke-linecap:butt;stroke-linejoin:miter;stroke-opacity:1" d="M 4,402.231 29.0385,300.002 z" id="boundary" inkscape:connector-curvature="0" />
	<path style="fill:none;stroke:red;stroke-width:1px;stroke-linecap:butt;stroke-linejoin:miter;stroke-opacity:1" d="M 4,402.231 130.385,420.902 z" id="boundary" inkscape:connector-curvature="0" />
	<path style="fill:none;stroke:red;stroke-width:1px;stroke-linecap:butt;stroke-linejoin:miter;stroke-opacity:1" d="M 29.0385,300.002 74.3462,226.365 z" id="boundary" inkscape:connector-curvature="0" />
	<path style="fill:none;stroke:red;stroke-width:1px;stroke-linecap:butt;stroke-linejoin:miter;stroke-opacity:1" d="M 74.3462,226.365 116.077,199.944 z" id="boundary" inkscape:connector-curvature="0" />
	<path style="fill:none;stroke:red;stroke-width:1px;stroke-linecap:butt;stroke-linejoin:miter;stroke-opacity:1" d="M 116.077,199.944 159,229.346 z" id="boundary" inkscape:connector-curvature="0" />
	<path style="fill:none;stroke:red;stroke-width:1px;stroke-linecap:butt;stroke-linejoin:miter;stroke-opacity:1" d="M 159,229.346 162.577,275.846 z" id="boundary" inkscape:connector-curvature="0" />
	<path style="fill:none;stroke:red;stroke-width:1px;stroke-linecap:butt;stroke-linejoin:miter;stroke-opacity:1" d="M 162.577,275.846 144.692,342.615 z" id="boundary" inkscape:connector-curvature="0" />
	<path style="fill:none;stroke:red;stroke-width:1px;stroke-linecap:butt;stroke-linejoin:miter;stroke-opacity:1" d="M 130.385,420.902 191.192,460.654 z" id="boundary" inkscape:connector-curvature="0" />
	<path style="fill:none;stroke:red;stroke-width:1px;stroke-linecap:butt;stroke-linejoin:miter;stroke-opacity:1" d="M 191.192,460.654 4,517.479 z" id="boundary" inkscape:connector-curvature="0" />
	<path style="fill:none;stroke:red;stroke-width:1px;stroke-linecap:butt;stroke-linejoin:miter;stroke-opacity:1" d="M 225.769,418.923 256.769,473.364 z" id="boundary" inkscape:connector-curvature="0" />
	<path style="fill:none;stroke:red;stroke-width:1px;stroke-linecap:butt;stroke-linejoin:miter;stroke-opacity:1" d="M 225.769,418.923 237.692,349.769 z" id="boundary" inkscape:connector-curvature="0" />
	<path style="fill:none;stroke:red;stroke-width:1px;stroke-linecap:butt;stroke-linejoin:miter;stroke-opacity:1" d="M 256.769,473.364 312.808,544.115 z" id="boundary" inkscape:connector-curvature="0" />
	<path style="fill:none;stroke:red;stroke-width:1px;stroke-linecap:butt;stroke-linejoin:miter;stroke-opacity:1" d="M 312.808,544.115 327.115,595.981 z" id="boundary" inkscape:connector-curvature="0" />
	<path style="fill:none;stroke:red;stroke-width:1px;stroke-linecap:butt;stroke-linejoin:miter;stroke-opacity:1" d="M 383.154,407 446.346,406.714 z" id="boundary" inkscape:connector-curvature="0" />
	<path style="fill:none;stroke:red;stroke-width:1px;stroke-linecap:butt;stroke-linejoin:miter;stroke-opacity:1" d="M 383.154,407 361.692,345 z" id="boundary" inkscape:connector-curvature="0" />
	<path style="fill:none;stroke:red;stroke-width:1px;stroke-linecap:butt;stroke-linejoin:miter;stroke-opacity:1" d="M 446.346,406.714 507.154,328.308 z" id="boundary" inkscape:connector-curvature="0" />
	<path style="fill:none;stroke:red;stroke-width:1px;stroke-linecap:butt;stroke-linejoin:miter;stroke-opacity:1" d="M 507.154,328.308 514.308,249.615 z" id="boundary" inkscape:connector-curvature="0" />
	<path style="fill:none;stroke:red;stroke-width:1px;stroke-linecap:butt;stroke-linejoin:miter;stroke-opacity:1" d="M 514.308,249.615 509.538,191.192 z" id="boundary" inkscape:connector-curvature="0" />
	<path style="fill:none;stroke:red;stroke-width:1px;stroke-linecap:butt;stroke-linejoin:miter;stroke-opacity:1" d="M 509.538,191.192 521.462,137.538 z" id="boundary" inkscape:connector-curvature="0" />
	<path style="fill:none;stroke:red;stroke-width:1px;stroke-linecap:butt;stroke-linejoin:miter;stroke-opacity:1" d="M 521.462,137.538 538.154,75.5385 z" id="boundary" inkscape:connector-curvature="0" />
	<path style="fill:none;stroke:red;stroke-width:1px;stroke-linecap:butt;stroke-linejoin:miter;stroke-opacity:1" d="M 538.154,75.5385 577.5,32.6154 z" id="boundary" inkscape:connector-curvature="0" />
	<path style="fill:none;stroke:red;stroke-width:1px;stroke-linecap:butt;stroke-linejoin:miter;stroke-opacity:1" d="M 577.5,32.6154 631.154,32.6154 z" id="boundary" inkscape:connector-curvature="0" />
	<path style="fill:none;stroke:red;stroke-width:1px;stroke-linecap:butt;stroke-linejoin:miter;stroke-opacity:1" d="M 631.154,32.6154 652.615,120.846 z" id="boundary" inkscape:connector-curvature="0" />
	<path style="fill:none;stroke:red;stroke-width:1px;stroke-linecap:butt;stroke-linejoin:miter;stroke-opacity:1" d="M 652.615,120.846 652.615,198.346 z" id="boundary" inkscape:connector-curvature="0" />
	<path style="fill:none;stroke:red;stroke-width:1px;stroke-linecap:butt;stroke-linejoin:miter;stroke-opacity:1" d="M 652.615,198.346 647.846,311.615 z" id="boundary" inkscape:connector-curvature="0" />
	<path style="fill:none;stroke:red;stroke-width:1px;stroke-linecap:butt;stroke-linejoin:miter;stroke-opacity:1" d="M 647.846,311.615 640.692,364.077 z" id="boundary" inkscape:connector-curvature="0" />
	<path style="fill:none;stroke:red;stroke-width:1px;stroke-linecap:butt;stroke-linejoin:miter;stroke-opacity:1" d="M 640.692,364.077 621.615,423.692 z" id="boundary" inkscape:connector-curvature="0" />
	<path style="fill:none;stroke:red;stroke-width:1px;stroke-linecap:butt;stroke-linejoin:miter;stroke-opacity:1" d="M 621.615,423.692 597.078,493.585 z" id="boundary" inkscape:connector-curvature="0" />
	<path style="fill:none;stroke:red;stroke-width:1px;stroke-linecap:butt;stroke-linejoin:miter;stroke-opacity:1" d="M 597.078,493.585 631.154,512.71 z" id="boundary" inkscape:connector-curvature="0" />
	<path style="fill:none;stroke:red;stroke-width:1px;stroke-linecap:butt;stroke-linejoin:miter;stroke-opacity:1" d="M 631.154,512.71 664.538,496.018 z" id="boundary" inkscape:connector-curvature="0" />
	<path style="fill:none;stroke:red;stroke-width:1px;stroke-linecap:butt;stroke-linejoin:miter;stroke-opacity:1" d="M 664.538,496.018 686,465.828 z" id="boundary" inkscape:connector-curvature="0" />
	<path style="fill:none;stroke:red;stroke-width:1px;stroke-linecap:butt;stroke-linejoin:miter;stroke-opacity:1" d="M 686,465.828 711.038,430.56 z" id="boundary" inkscape:connector-curvature="0" />
	<path style="fill:none;stroke:red;stroke-width:1px;stroke-linecap:butt;stroke-linejoin:miter;stroke-opacity:1" d="M 711.038,430.56 732.5,370.945 z" id="boundary" inkscape:connector-curvature="0" />
	<path style="fill:none;stroke:red;stroke-width:1px;stroke-linecap:butt;stroke-linejoin:miter;stroke-opacity:1" d="M 732.5,370.945 752.769,330.692 z" id="boundary" inkscape:connector-curvature="0" />
	<path style="fill:none;stroke:red;stroke-width:1px;stroke-linecap:butt;stroke-linejoin:miter;stroke-opacity:1" d="M 752.769,330.692 790.923,292.538 z" id="boundary" inkscape:connector-curvature="0" />
	<path style="fill:none;stroke:red;stroke-width:1px;stroke-linecap:butt;stroke-linejoin:miter;stroke-opacity:1" d="M 790.923,292.538 846.962,295.233 z" id="boundary" inkscape:connector-curvature="0" />
	<path style="fill:none;stroke:red;stroke-width:1px;stroke-linecap:butt;stroke-linejoin:miter;stroke-opacity:1" d="M 846.962,295.233 856.5,368.56 z" id="boundary" inkscape:connector-curvature="0" />
	<path style="fill:none;stroke:red;stroke-width:1px;stroke-linecap:butt;stroke-linejoin:miter;stroke-opacity:1" d="M 856.5,368.56 771.846,490.056 z" id="boundary" inkscape:connector-curvature="0" />
	<path style="fill:none;stroke:red;stroke-width:1px;stroke-linecap:butt;stroke-linejoin:miter;stroke-opacity:1" d="M 771.846,490.056 730.115,567.365 z" id="boundary" inkscape:connector-curvature="0" />
	<path style="fill:none;stroke:red;stroke-width:1px;stroke-linecap:butt;stroke-linejoin:miter;stroke-opacity:1" d="M 730.115,567.365 676.462,662.154 z" id="boundary" inkscape:connector-curvature="0" />
	<path style="fill:none;stroke:red;stroke-width:1px;stroke-linecap:butt;stroke-linejoin:miter;stroke-opacity:1" d="M 676.462,662.154 643.077,714.21 z" id="boundary" inkscape:connector-curvature="0" />
	<path style="fill:none;stroke:red;stroke-width:1px;stroke-linecap:butt;stroke-linejoin:miter;stroke-opacity:1" d="M 643.077,714.21 564.385,811.192 z" id="boundary" inkscape:connector-curvature="0" />
	<path style="fill:none;stroke:red;stroke-width:1px;stroke-linecap:butt;stroke-linejoin:miter;stroke-opacity:1" d="M 564.385,811.192 509.538,888.692 z" id="boundary" inkscape:connector-curvature="0" />
	<path style="fill:none;stroke:red;stroke-width:1px;stroke-linecap:butt;stroke-linejoin:miter;stroke-opacity:1" d="M 509.538,888.692 467.808,996 z" id="boundary" inkscape:connector-curvature="0" />
	<path style="fill:none;stroke:red;stroke-width:1px;stroke-linecap:butt;stroke-linejoin:miter;stroke-opacity:1" d="M 409.385,905.385 467.808,996 z" id="boundary" inkscape:connector-curvature="0" />
	<path style="fill:none;stroke:red;stroke-width:1px;stroke-linecap:butt;stroke-linejoin:miter;stroke-opacity:1" d="M 132.769,941.154 128,815.556 z" id="boundary" inkscape:connector-curvature="0" />
	<path style="fill:none;stroke:red;stroke-width:1px;stroke-linecap:butt;stroke-linejoin:miter;stroke-opacity:1" d="M 128,815.556 69.5769,673.481 z" id="boundary" inkscape:connector-curvature="0" />
	<path style="fill:none;stroke:red;stroke-width:1px;stroke-linecap:butt;stroke-linejoin:miter;stroke-opacity:1" d="M 69.5769,673.481 4,517.479 z" id="boundary" inkscape:connector-curvature="0" />
	<path style="fill:none;stroke:red;stroke-width:1px;stroke-linecap:butt;stroke-linejoin:miter;stroke-opacity:1" d="M 237.692,349.769 249.615,285.385 z" id="boundary" inkscape:connector-curvature="0" />
	<path style="fill:none;stroke:red;stroke-width:1px;stroke-linecap:butt;stroke-linejoin:miter;stroke-opacity:1" d="M 249.615,285.385 252,235.308 z" id="boundary" inkscape:connector-curvature="0" />
	<path style="fill:none;stroke:red;stroke-width:1px;stroke-linecap:butt;stroke-linejoin:miter;stroke-opacity:1" d="M 252,235.308 256.769,194.364 z" id="boundary" inkscape:connector-curvature="0" />
	<path style="fill:none;stroke:red;stroke-width:1px;stroke-linecap:butt;stroke-linejoin:miter;stroke-opacity:1" d="M 256.769,194.364 261.538,132.364 z" id="boundary" inkscape:connector-curvature="0" />
	<path style="fill:none;stroke:red;stroke-width:1px;stroke-linecap:butt;stroke-linejoin:miter;stroke-opacity:1" d="M 261.538,132.364 287.769,66 z" id="boundary" inkscape:connector-curvature="0" />
	<path style="fill:none;stroke:red;stroke-width:1px;stroke-linecap:butt;stroke-linejoin:miter;stroke-opacity:1" d="M 287.769,66 333.077,4 z" id="boundary" inkscape:connector-curvature="0" />
	<path style="fill:none;stroke:red;stroke-width:1px;stroke-linecap:butt;stroke-linejoin:miter;stroke-opacity:1" d="M 333.077,4 366.462,8.76923 z" id="boundary" inkscape:connector-curvature="0" />
	<path style="fill:none;stroke:red;stroke-width:1px;stroke-linecap:butt;stroke-linejoin:miter;stroke-opacity:1" d="M 366.462,8.76923 387.923,89.8462 z" id="boundary" inkscape:connector-curvature="0" />
	<path style="fill:none;stroke:red;stroke-width:1px;stroke-linecap:butt;stroke-linejoin:miter;stroke-opacity:1" d="M 387.923,89.8462 387.923,160.979 z" id="boundary" inkscape:connector-curvature="0" />
	<path style="fill:none;stroke:red;stroke-width:1px;stroke-linecap:butt;stroke-linejoin:miter;stroke-opacity:1" d="M 387.923,160.979 364.077,259.154 z" id="boundary" inkscape:connector-curvature="0" />
	<path style="fill:none;stroke:red;stroke-width:1px;stroke-linecap:butt;stroke-linejoin:miter;stroke-opacity:1" d="M 364.077,259.154 361.692,345 z" id="boundary" inkscape:connector-curvature="0" />
	<circle cx="4" cy="402.231" r="4" fill="#0" id="circle0"/>
	<circle cx="29.0385" cy="300.002" r="4" fill="#0" id="circle1"/>
	<circle cx="74.3462" cy="226.365" r="4" fill="#0" id="circle2"/>
	<circle cx="116.077" cy="199.944" r="4" fill="#0" id="circle3"/>
	<circle cx="159" cy="229.346" r="4" fill="#0" id="circle4"/>
	<circle cx="162.577" cy="275.846" r="4" fill="#0" id="circle5"/>
	<circle cx="144.692" cy="342.615" r="4" fill="#0" id="circle6"/>
	<circle cx="130.385" cy="420.902" r="4" fill="#0" id="circle7"/>
	<circle cx="191.192" cy="460.654" r="4" fill="#0" id="circle8"/>
	<circle cx="225.769" cy="418.923" r="4" fill="#0" id="circle9"/>
	<circle cx="256.769" cy="473.364" r="4" fill="#0" id="circle10"/>
	<circle cx="312.808" cy="544.115" r="4" fill="#0" id="circle11"/>
	<circle cx="327.115" cy="595.981" r="4" fill="#0" id="circle12"/>
	<circle cx="383.154" cy="407" r="4" fill="#0" id="circle13"/>
	<circle cx="446.346" cy="406.714" r="4" fill="#0" id="circle14"/>
	<circle cx="507.154" cy="328.308" r="4" fill="#0" id="circle15"/>
	<circle cx="514.308" cy="249.615" r="4" fill="#0" id="circle16"/>
	<circle cx="509.538" cy="191.192" r="4" fill="#0" id="circle17"/>
	<circle cx="521.462" cy="137.538" r="4" fill="#0" id="circle18"/>
	<circle cx="538.154" cy="75.5385" r="4" fill="#0" id="circle19"/>
	<circle cx="577.5" cy="32.6154" r="4" fill="#0" id="circle20"/>
	<circle cx="631.154" cy="32.6154" r="4" fill="#0" id="circle21"/>
	<circle cx="652.615" cy="120.846" r="4" fill="#0" id="circle22"/>
	<circle cx="652.615" cy="198.346" r="4" fill="#0" id="circle23"/>
	<circle cx="647.846" cy="311.615" r="4" fill="#0" id="circle24"/>
	<circle cx="640.692" cy="364.077" r="4" fill="#0" id="circle25"/>
	<circle cx="621.615" cy="423.692" r="4" fill="#0" id="circle26"/>
	<circle cx="597.078" cy="493.585" r="4" fill="#0" id="circle27"/>
	<circle cx="631.154" cy="512.71" r="4" fill="#0" id="circle28"/>
	<circle cx="664.538" cy="496.018" r="4" fill="#0" id="circle29"/>
	<circle cx="686" cy="465.828" r="4" fill="#0" id="circle30"/>
	<circle cx="711.038" cy="430.56" r="4" fill="#0" id="circle31"/>
	<circle cx="732.5" cy="370.945" r="4" fill="#0" id="circle32"/>
	<circle cx="752.769" cy="330.692" r="4" fill="#0" id="circle33"/>
	<circle cx="790.923" cy="292.538" r="4" fill="#0" id="circle34"/>
	<circle cx="846.962" cy="295.233" r="4" fill="#0" id="circle35"/>
	<circle cx="856.5" cy="368.56" r="4" fill="#0" id="circle36"/>
	<circle cx="771.846" cy="490.056" r="4" fill="#0" id="circle37"/>
	<circle cx="730.115" cy="567.365" r="4" fill="#0" id="circle38"/>
	<circle cx="676.462" cy="662.154" r="4" fill="#0" id="circle39"/>
	<circle cx="643.077" cy="714.21" r="4" fill="#0" id="circle40"/>
	<circle cx="564.385" cy="811.192" r="4" fill="#0" id="circle41"/>
	<circle cx="509.538" cy="888.692" r="4" fill="#0" id="circle42"/>
	<circle cx="409.385" cy="905.385" r="4" fill="#0" id="circle43"/>
	<circle cx="467.808" cy="996" r="4" fill="#0" id="circle44"/>
	<circle cx="132.769" cy="941.154" r="4" fill="#0" id="circle45"/>
	<circle cx="128" cy="815.556" r="4" fill="#0" id="circle46"/>
	<circle cx="69.5769" cy="673.481" r="4" fill="#0" id="circle47"/>
	<circle cx="4" cy="517.479" r="4" fill="#0" id="circle48"/>
	<circle cx="237.692" cy="349.769" r="4" fill="#0" id="circle49"/>
	<circle cx="249.615" cy="285.385" r="4" fill="#0" id="circle50"/>
	<circle cx="252" cy="235.308" r="4" fill="#0" id="circle51"/>
	<circle cx="256.769" cy="194.364" r="4" fill="#0" id="circle52"/>
	<circle cx="261.538" cy="132.364" r="4" fill="#0" id="circle53"/>
	<circle cx="287.769" cy="66" r="4" fill="#0" id="circle54"/>
	<circle cx="333.077" cy="4" r="4" fill="#0" id="circle55"/>
	<circle cx="366.462" cy="8.76923" r="4" fill="#0" id="circle56"/>
	<circle cx="387.923" cy="89.8462" r="4" fill="#0" id="circle57"/>
	<circle cx="387.923" cy="160.979" r="4" fill="#0" id="circle58"/>
	<circle cx="364.077" cy="259.154" r="4" fill="#0" id="circle59"/>
	<circle cx="361.692" cy="345" r="4" fill="#0" id="circle60"/>
	<circle cx="868.423" cy="65.7138" r="4" fill="#0" id="circle61"/>
	</g>
</svg>