<?xml version="1.0" encoding="UTF-8" standalone="no"?>
<!-- Created with CurveBenchmark -->
<svg
	xmlns:dc="http://purl.org/dc/elements/1.1/"
	xmlns:cc="http://creativecommons.org/ns#"
	xmlns:rdf="http://www.w3.org/1999/02/22-rdf-syntax-ns#"
	xmlns:svg="http://www.w3.org/2000/svg"
	xmlns="http://www.w3.org/2000/svg"
	xmlns:sodipodi="http://sodipodi.sourceforge.net/DTD/sodipodi-0.dtd"
	xmlns:inkscape="http://www.inkscape.org/namespaces/inkscape"
	width="1000"
	height="1000"
	id="svg2"
	version="1.1"
	sodipodi:docname="open-curves/vicur-oc2.txt">
<defs
	id="defs4" />
<metadata
	id="metadata7">
	<rdf:RDF>
		<cc:Work
			rdf:about="">
			<dc:format>image/svg+xml</dc:format>
			<dc:type
				rdf:resource="http://purl.org/dc/dcmitype/StillImage" />
			<dc:title></dc:title>
		</cc:Work>
	</rdf:RDF>
</metadata>
<g
	inkscape:label="Layer 1"
	inkscape:groupmode="layer"
	id="layer1">
	<path style="fill:none;stroke:red;stroke-width:1px;stroke-linecap:butt;stroke-linejoin:miter;stroke-opacity:1" d="M 4,727.817 8.39554,625.94 z" id="boundary" inkscape:connector-curvature="0" />
	<path style="fill:none;stroke:red;stroke-width:1px;stroke-linecap:butt;stroke-linejoin:miter;stroke-opacity:1" d="M 4,727.817 4.61204,827.134 z" id="boundary" inkscape:connector-curvature="0" />
	<path style="fill:none;stroke:red;stroke-width:1px;stroke-linecap:butt;stroke-linejoin:miter;stroke-opacity:1" d="M 6.89326,218.602 7.39402,319.477 z" id="boundary" inkscape:connector-curvature="0" />
	<path style="fill:none;stroke:red;stroke-width:1px;stroke-linecap:butt;stroke-linejoin:miter;stroke-opacity:1" d="M 6.89326,218.602 12.5685,114.278 z" id="boundary" inkscape:connector-curvature="0" />
	<path style="fill:none;stroke:red;stroke-width:1px;stroke-linecap:butt;stroke-linejoin:miter;stroke-opacity:1" d="M 7.39402,319.477 7.89478,425.582 z" id="boundary" inkscape:connector-curvature="0" />
	<path style="fill:none;stroke:red;stroke-width:1px;stroke-linecap:butt;stroke-linejoin:miter;stroke-opacity:1" d="M 7.89478,425.582 4.61204,522.005 z" id="boundary" inkscape:connector-curvature="0" />
	<path style="fill:none;stroke:red;stroke-width:1px;stroke-linecap:butt;stroke-linejoin:miter;stroke-opacity:1" d="M 8.39554,625.94 4.61204,522.005 z" id="boundary" inkscape:connector-curvature="0" />
	<path style="fill:none;stroke:red;stroke-width:1px;stroke-linecap:butt;stroke-linejoin:miter;stroke-opacity:1" d="M 13.9595,13.9039 12.5685,114.278 z" id="boundary" inkscape:connector-curvature="0" />
	<path style="fill:none;stroke:red;stroke-width:1px;stroke-linecap:butt;stroke-linejoin:miter;stroke-opacity:1" d="M 347.798,701.499 352.527,601.236 z" id="boundary" inkscape:connector-curvature="0" />
	<path style="fill:none;stroke:red;stroke-width:1px;stroke-linecap:butt;stroke-linejoin:miter;stroke-opacity:1" d="M 352.527,601.236 358.926,501.419 z" id="boundary" inkscape:connector-curvature="0" />
	<path style="fill:none;stroke:red;stroke-width:1px;stroke-linecap:butt;stroke-linejoin:miter;stroke-opacity:1" d="M 358.926,204.414 357.423,303.119 z" id="boundary" inkscape:connector-curvature="0" />
	<path style="fill:none;stroke:red;stroke-width:1px;stroke-linecap:butt;stroke-linejoin:miter;stroke-opacity:1" d="M 358.926,204.414 359.426,102.76 z" id="boundary" inkscape:connector-curvature="0" />
	<path style="fill:none;stroke:red;stroke-width:1px;stroke-linecap:butt;stroke-linejoin:miter;stroke-opacity:1" d="M 357.423,303.119 357.535,409.279 z" id="boundary" inkscape:connector-curvature="0" />
	<path style="fill:none;stroke:red;stroke-width:1px;stroke-linecap:butt;stroke-linejoin:miter;stroke-opacity:1" d="M 357.535,409.279 358.926,501.419 z" id="boundary" inkscape:connector-curvature="0" />
	<path style="fill:none;stroke:red;stroke-width:1px;stroke-linecap:butt;stroke-linejoin:miter;stroke-opacity:1" d="M 364.49,4 359.426,102.76 z" id="boundary" inkscape:connector-curvature="0" />
	<path style="fill:none;stroke:red;stroke-width:1px;stroke-linecap:butt;stroke-linejoin:miter;stroke-opacity:1" d="M 686.699,416.457 687.2,514.605 z" id="boundary" inkscape:connector-curvature="0" />
	<path style="fill:none;stroke:red;stroke-width:1px;stroke-linecap:butt;stroke-linejoin:miter;stroke-opacity:1" d="M 686.699,416.457 691.762,309.684 z" id="boundary" inkscape:connector-curvature="0" />
	<path style="fill:none;stroke:red;stroke-width:1px;stroke-linecap:butt;stroke-linejoin:miter;stroke-opacity:1" d="M 687.2,514.605 685.809,612.309 z" id="boundary" inkscape:connector-curvature="0" />
	<path style="fill:none;stroke:red;stroke-width:1px;stroke-linecap:butt;stroke-linejoin:miter;stroke-opacity:1" d="M 692.764,7.67222 691.373,110.216 z" id="boundary" inkscape:connector-curvature="0" />
	<path style="fill:none;stroke:red;stroke-width:1px;stroke-linecap:butt;stroke-linejoin:miter;stroke-opacity:1" d="M 691.373,110.216 692.207,213.873 z" id="boundary" inkscape:connector-curvature="0" />
	<path style="fill:none;stroke:red;stroke-width:1px;stroke-linecap:butt;stroke-linejoin:miter;stroke-opacity:1" d="M 692.207,213.873 691.762,309.684 z" id="boundary" inkscape:connector-curvature="0" />
	<path style="fill:none;stroke:red;stroke-width:1px;stroke-linecap:butt;stroke-linejoin:miter;stroke-opacity:1" d="M 993.218,222.553 992.717,320.757 z" id="boundary" inkscape:connector-curvature="0" />
	<path style="fill:none;stroke:red;stroke-width:1px;stroke-linecap:butt;stroke-linejoin:miter;stroke-opacity:1" d="M 993.218,222.553 995.221,119.174 z" id="boundary" inkscape:connector-curvature="0" />
	<path style="fill:none;stroke:red;stroke-width:1px;stroke-linecap:butt;stroke-linejoin:miter;stroke-opacity:1" d="M 992.717,320.757 991.827,432.982 z" id="boundary" inkscape:connector-curvature="0" />
	<path style="fill:none;stroke:red;stroke-width:1px;stroke-linecap:butt;stroke-linejoin:miter;stroke-opacity:1" d="M 991.827,432.982 990.547,539.198 z" id="boundary" inkscape:connector-curvature="0" />
	<path style="fill:none;stroke:red;stroke-width:1px;stroke-linecap:butt;stroke-linejoin:miter;stroke-opacity:1" d="M 996,18.6332 995.221,119.174 z" id="boundary" inkscape:connector-curvature="0" />
	<circle cx="4" cy="727.817" r="4" fill="#0" id="circle0"/>
	<circle cx="6.89326" cy="218.602" r="4" fill="#0" id="circle1"/>
	<circle cx="7.39402" cy="319.477" r="4" fill="#0" id="circle2"/>
	<circle cx="7.89478" cy="425.582" r="4" fill="#0" id="circle3"/>
	<circle cx="8.39554" cy="625.94" r="4" fill="#0" id="circle4"/>
	<circle cx="13.9595" cy="13.9039" r="4" fill="#0" id="circle5"/>
	<circle cx="12.5685" cy="114.278" r="4" fill="#0" id="circle6"/>
	<circle cx="347.798" cy="701.499" r="4" fill="#0" id="circle7"/>
	<circle cx="352.527" cy="601.236" r="4" fill="#0" id="circle8"/>
	<circle cx="358.926" cy="204.414" r="4" fill="#0" id="circle9"/>
	<circle cx="357.423" cy="303.119" r="4" fill="#0" id="circle10"/>
	<circle cx="357.535" cy="409.279" r="4" fill="#0" id="circle11"/>
	<circle cx="358.926" cy="501.419" r="4" fill="#0" id="circle12"/>
	<circle cx="364.49" cy="4" r="4" fill="#0" id="circle13"/>
	<circle cx="359.426" cy="102.76" r="4" fill="#0" id="circle14"/>
	<circle cx="686.699" cy="416.457" r="4" fill="#0" id="circle15"/>
	<circle cx="687.2" cy="514.605" r="4" fill="#0" id="circle16"/>
	<circle cx="685.809" cy="612.309" r="4" fill="#0" id="circle17"/>
	<circle cx="692.764" cy="7.67222" r="4" fill="#0" id="circle18"/>
	<circle cx="691.373" cy="110.216" r="4" fill="#0" id="circle19"/>
	<circle cx="692.207" cy="213.873" r="4" fill="#0" id="circle20"/>
	<circle cx="691.762" cy="309.684" r="4" fill="#0" id="circle21"/>
	<circle cx="993.218" cy="222.553" r="4" fill="#0" id="circle22"/>
	<circle cx="992.717" cy="320.757" r="4" fill="#0" id="circle23"/>
	<circle cx="991.827" cy="432.982" r="4" fill="#0" id="circle24"/>
	<circle cx="996" cy="18.6332" r="4" fill="#0" id="circle25"/>
	<circle cx="995.221" cy="119.174" r="4" fill="#0" id="circle26"/>
	<circle cx="990.547" cy="539.198" r="4" fill="#0" id="circle27"/>
	<circle cx="4.61204" cy="522.005" r="4" fill="#0" id="circle28"/>
	<circle cx="4.61204" cy="827.134" r="4" fill="#0" id="circle29"/>
	</g>
</svg>