<?xml version="1.0" encoding="UTF-8" standalone="no"?>
<!-- Created with CurveBenchmark -->
<svg
	xmlns:dc="http://purl.org/dc/elements/1.1/"
	xmlns:cc="http://creativecommons.org/ns#"
	xmlns:rdf="http://www.w3.org/1999/02/22-rdf-syntax-ns#"
	xmlns:svg="http://www.w3.org/2000/svg"
	xmlns="http://www.w3.org/2000/svg"
	xmlns:sodipodi="http://sodipodi.sourceforge.net/DTD/sodipodi-0.dtd"
	xmlns:inkscape="http://www.inkscape.org/namespaces/inkscape"
	width="1000"
	height="1000"
	id="svg2"
	version="1.1"
	sodipodi:docname="manifold/ccrust-Bone15.png.txt">
<defs
	id="defs4" />
<metadata
	id="metadata7">
	<rdf:RDF>
		<cc:Work
			rdf:about="">
			<dc:format>image/svg+xml</dc:format>
			<dc:type
				rdf:resource="http://purl.org/dc/dcmitype/StillImage" />
			<dc:title></dc:title>
		</cc:Work>
	</rdf:RDF>
</metadata>
<g
	inkscape:label="Layer 1"
	inkscape:groupmode="layer"
	id="layer1">
	<path style="fill:none;stroke:red;stroke-width:1px;stroke-linecap:butt;stroke-linejoin:miter;stroke-opacity:1" d="M 203.754,621.884 217.297,608.341 z" id="boundary" inkscape:connector-curvature="0" />
	<path style="fill:none;stroke:red;stroke-width:1px;stroke-linecap:butt;stroke-linejoin:miter;stroke-opacity:1" d="M 203.754,621.884 188.519,630.348 z" id="boundary" inkscape:connector-curvature="0" />
	<path style="fill:none;stroke:red;stroke-width:1px;stroke-linecap:butt;stroke-linejoin:miter;stroke-opacity:1" d="M 174.976,642.198 188.519,630.348 z" id="boundary" inkscape:connector-curvature="0" />
	<path style="fill:none;stroke:red;stroke-width:1px;stroke-linecap:butt;stroke-linejoin:miter;stroke-opacity:1" d="M 163.126,655.741 174.976,642.198 z" id="boundary" inkscape:connector-curvature="0" />
	<path style="fill:none;stroke:red;stroke-width:1px;stroke-linecap:butt;stroke-linejoin:miter;stroke-opacity:1" d="M 256.232,571.099 268.082,557.556 z" id="boundary" inkscape:connector-curvature="0" />
	<path style="fill:none;stroke:red;stroke-width:1px;stroke-linecap:butt;stroke-linejoin:miter;stroke-opacity:1" d="M 256.232,571.099 242.689,582.949 z" id="boundary" inkscape:connector-curvature="0" />
	<path style="fill:none;stroke:red;stroke-width:1px;stroke-linecap:butt;stroke-linejoin:miter;stroke-opacity:1" d="M 230.84,596.491 242.689,582.949 z" id="boundary" inkscape:connector-curvature="0" />
	<path style="fill:none;stroke:red;stroke-width:1px;stroke-linecap:butt;stroke-linejoin:miter;stroke-opacity:1" d="M 230.84,596.491 217.297,608.341 z" id="boundary" inkscape:connector-curvature="0" />
	<path style="fill:none;stroke:red;stroke-width:1px;stroke-linecap:butt;stroke-linejoin:miter;stroke-opacity:1" d="M 86.9488,731.918 98.7986,718.375 z" id="boundary" inkscape:connector-curvature="0" />
	<path style="fill:none;stroke:red;stroke-width:1px;stroke-linecap:butt;stroke-linejoin:miter;stroke-opacity:1" d="M 44.628,765.775 56.4778,752.232 z" id="boundary" inkscape:connector-curvature="0" />
	<path style="fill:none;stroke:red;stroke-width:1px;stroke-linecap:butt;stroke-linejoin:miter;stroke-opacity:1" d="M 56.4778,752.232 73.4061,743.768 z" id="boundary" inkscape:connector-curvature="0" />
	<path style="fill:none;stroke:red;stroke-width:1px;stroke-linecap:butt;stroke-linejoin:miter;stroke-opacity:1" d="M 86.9488,731.918 73.4061,743.768 z" id="boundary" inkscape:connector-curvature="0" />
	<path style="fill:none;stroke:red;stroke-width:1px;stroke-linecap:butt;stroke-linejoin:miter;stroke-opacity:1" d="M 137.734,681.133 149.584,667.59 z" id="boundary" inkscape:connector-curvature="0" />
	<path style="fill:none;stroke:red;stroke-width:1px;stroke-linecap:butt;stroke-linejoin:miter;stroke-opacity:1" d="M 163.126,655.741 149.584,667.59 z" id="boundary" inkscape:connector-curvature="0" />
	<path style="fill:none;stroke:red;stroke-width:1px;stroke-linecap:butt;stroke-linejoin:miter;stroke-opacity:1" d="M 112.341,706.526 124.191,692.983 z" id="boundary" inkscape:connector-curvature="0" />
	<path style="fill:none;stroke:red;stroke-width:1px;stroke-linecap:butt;stroke-linejoin:miter;stroke-opacity:1" d="M 112.341,706.526 98.7986,718.375 z" id="boundary" inkscape:connector-curvature="0" />
	<path style="fill:none;stroke:red;stroke-width:1px;stroke-linecap:butt;stroke-linejoin:miter;stroke-opacity:1" d="M 137.734,681.133 124.191,692.983 z" id="boundary" inkscape:connector-curvature="0" />
	<path style="fill:none;stroke:red;stroke-width:1px;stroke-linecap:butt;stroke-linejoin:miter;stroke-opacity:1" d="M 332.41,494.922 347.645,486.457 z" id="boundary" inkscape:connector-curvature="0" />
	<path style="fill:none;stroke:red;stroke-width:1px;stroke-linecap:butt;stroke-linejoin:miter;stroke-opacity:1" d="M 356.109,469.529 347.645,486.457 z" id="boundary" inkscape:connector-curvature="0" />
	<path style="fill:none;stroke:red;stroke-width:1px;stroke-linecap:butt;stroke-linejoin:miter;stroke-opacity:1" d="M 307.017,520.314 318.867,506.771 z" id="boundary" inkscape:connector-curvature="0" />
	<path style="fill:none;stroke:red;stroke-width:1px;stroke-linecap:butt;stroke-linejoin:miter;stroke-opacity:1" d="M 318.867,506.771 332.41,494.922 z" id="boundary" inkscape:connector-curvature="0" />
	<path style="fill:none;stroke:red;stroke-width:1px;stroke-linecap:butt;stroke-linejoin:miter;stroke-opacity:1" d="M 384.887,373.038 376.423,398.43 z" id="boundary" inkscape:connector-curvature="0" />
	<path style="fill:none;stroke:red;stroke-width:1px;stroke-linecap:butt;stroke-linejoin:miter;stroke-opacity:1" d="M 376.423,398.43 367.959,415.358 z" id="boundary" inkscape:connector-curvature="0" />
	<path style="fill:none;stroke:red;stroke-width:1px;stroke-linecap:butt;stroke-linejoin:miter;stroke-opacity:1" d="M 367.959,415.358 367.959,432.287 z" id="boundary" inkscape:connector-curvature="0" />
	<path style="fill:none;stroke:red;stroke-width:1px;stroke-linecap:butt;stroke-linejoin:miter;stroke-opacity:1" d="M 367.959,449.215 367.959,432.287 z" id="boundary" inkscape:connector-curvature="0" />
	<path style="fill:none;stroke:red;stroke-width:1px;stroke-linecap:butt;stroke-linejoin:miter;stroke-opacity:1" d="M 367.959,449.215 356.109,469.529 z" id="boundary" inkscape:connector-curvature="0" />
	<path style="fill:none;stroke:red;stroke-width:1px;stroke-linecap:butt;stroke-linejoin:miter;stroke-opacity:1" d="M 386.58,615.113 378.116,632.041 z" id="boundary" inkscape:connector-curvature="0" />
	<path style="fill:none;stroke:red;stroke-width:1px;stroke-linecap:butt;stroke-linejoin:miter;stroke-opacity:1" d="M 307.017,520.314 293.474,532.164 z" id="boundary" inkscape:connector-curvature="0" />
	<path style="fill:none;stroke:red;stroke-width:1px;stroke-linecap:butt;stroke-linejoin:miter;stroke-opacity:1" d="M 268.082,557.556 281.625,545.706 z" id="boundary" inkscape:connector-curvature="0" />
	<path style="fill:none;stroke:red;stroke-width:1px;stroke-linecap:butt;stroke-linejoin:miter;stroke-opacity:1" d="M 344.259,725.147 335.795,750.539 z" id="boundary" inkscape:connector-curvature="0" />
	<path style="fill:none;stroke:red;stroke-width:1px;stroke-linecap:butt;stroke-linejoin:miter;stroke-opacity:1" d="M 281.625,545.706 293.474,532.164 z" id="boundary" inkscape:connector-curvature="0" />
	<path style="fill:none;stroke:red;stroke-width:1px;stroke-linecap:butt;stroke-linejoin:miter;stroke-opacity:1" d="M 369.652,657.433 378.116,632.041 z" id="boundary" inkscape:connector-curvature="0" />
	<path style="fill:none;stroke:red;stroke-width:1px;stroke-linecap:butt;stroke-linejoin:miter;stroke-opacity:1" d="M 369.652,657.433 361.188,682.826 z" id="boundary" inkscape:connector-curvature="0" />
	<path style="fill:none;stroke:red;stroke-width:1px;stroke-linecap:butt;stroke-linejoin:miter;stroke-opacity:1" d="M 344.259,725.147 352.724,699.754 z" id="boundary" inkscape:connector-curvature="0" />
	<path style="fill:none;stroke:red;stroke-width:1px;stroke-linecap:butt;stroke-linejoin:miter;stroke-opacity:1" d="M 352.724,699.754 361.188,682.826 z" id="boundary" inkscape:connector-curvature="0" />
	<path style="fill:none;stroke:red;stroke-width:1px;stroke-linecap:butt;stroke-linejoin:miter;stroke-opacity:1" d="M 335.795,750.539 327.331,767.468 z" id="boundary" inkscape:connector-curvature="0" />
	<path style="fill:none;stroke:red;stroke-width:1px;stroke-linecap:butt;stroke-linejoin:miter;stroke-opacity:1" d="M 12.4642,853.802 4,838.567 z" id="boundary" inkscape:connector-curvature="0" />
	<path style="fill:none;stroke:red;stroke-width:1px;stroke-linecap:butt;stroke-linejoin:miter;stroke-opacity:1" d="M 4,838.567 4,821.638 z" id="boundary" inkscape:connector-curvature="0" />
	<path style="fill:none;stroke:red;stroke-width:1px;stroke-linecap:butt;stroke-linejoin:miter;stroke-opacity:1" d="M 4,821.638 4,804.71 z" id="boundary" inkscape:connector-curvature="0" />
	<path style="fill:none;stroke:red;stroke-width:1px;stroke-linecap:butt;stroke-linejoin:miter;stroke-opacity:1" d="M 4,804.71 17.5427,791.167 z" id="boundary" inkscape:connector-curvature="0" />
	<path style="fill:none;stroke:red;stroke-width:1px;stroke-linecap:butt;stroke-linejoin:miter;stroke-opacity:1" d="M 44.628,765.775 31.0853,777.625 z" id="boundary" inkscape:connector-curvature="0" />
	<path style="fill:none;stroke:red;stroke-width:1px;stroke-linecap:butt;stroke-linejoin:miter;stroke-opacity:1" d="M 20.9283,869.038 12.4642,853.802 z" id="boundary" inkscape:connector-curvature="0" />
	<path style="fill:none;stroke:red;stroke-width:1px;stroke-linecap:butt;stroke-linejoin:miter;stroke-opacity:1" d="M 31.0853,882.58 20.9283,869.038 z" id="boundary" inkscape:connector-curvature="0" />
	<path style="fill:none;stroke:red;stroke-width:1px;stroke-linecap:butt;stroke-linejoin:miter;stroke-opacity:1" d="M 17.5427,791.167 31.0853,777.625 z" id="boundary" inkscape:connector-curvature="0" />
	<path style="fill:none;stroke:red;stroke-width:1px;stroke-linecap:butt;stroke-linejoin:miter;stroke-opacity:1" d="M 44.628,894.43 61.5563,894.43 z" id="boundary" inkscape:connector-curvature="0" />
	<path style="fill:none;stroke:red;stroke-width:1px;stroke-linecap:butt;stroke-linejoin:miter;stroke-opacity:1" d="M 44.628,894.43 31.0853,882.58 z" id="boundary" inkscape:connector-curvature="0" />
	<path style="fill:none;stroke:red;stroke-width:1px;stroke-linecap:butt;stroke-linejoin:miter;stroke-opacity:1" d="M 88.6416,923.208 80.1775,940.137 z" id="boundary" inkscape:connector-curvature="0" />
	<path style="fill:none;stroke:red;stroke-width:1px;stroke-linecap:butt;stroke-linejoin:miter;stroke-opacity:1" d="M 61.5563,894.43 78.4846,894.43 z" id="boundary" inkscape:connector-curvature="0" />
	<path style="fill:none;stroke:red;stroke-width:1px;stroke-linecap:butt;stroke-linejoin:miter;stroke-opacity:1" d="M 80.1775,940.137 88.6416,955.372 z" id="boundary" inkscape:connector-curvature="0" />
	<path style="fill:none;stroke:red;stroke-width:1px;stroke-linecap:butt;stroke-linejoin:miter;stroke-opacity:1" d="M 88.6416,923.208 93.7201,902.894 z" id="boundary" inkscape:connector-curvature="0" />
	<path style="fill:none;stroke:red;stroke-width:1px;stroke-linecap:butt;stroke-linejoin:miter;stroke-opacity:1" d="M 78.4846,894.43 93.7201,902.894 z" id="boundary" inkscape:connector-curvature="0" />
	<path style="fill:none;stroke:red;stroke-width:1px;stroke-linecap:butt;stroke-linejoin:miter;stroke-opacity:1" d="M 100.491,968.915 88.6416,955.372 z" id="boundary" inkscape:connector-curvature="0" />
	<path style="fill:none;stroke:red;stroke-width:1px;stroke-linecap:butt;stroke-linejoin:miter;stroke-opacity:1" d="M 117.42,975.686 100.491,968.915 z" id="boundary" inkscape:connector-curvature="0" />
	<path style="fill:none;stroke:red;stroke-width:1px;stroke-linecap:butt;stroke-linejoin:miter;stroke-opacity:1" d="M 117.42,975.686 132.655,984.15 z" id="boundary" inkscape:connector-curvature="0" />
	<path style="fill:none;stroke:red;stroke-width:1px;stroke-linecap:butt;stroke-linejoin:miter;stroke-opacity:1" d="M 281.625,882.58 290.089,865.652 z" id="boundary" inkscape:connector-curvature="0" />
	<path style="fill:none;stroke:red;stroke-width:1px;stroke-linecap:butt;stroke-linejoin:miter;stroke-opacity:1" d="M 290.089,865.652 301.939,852.109 z" id="boundary" inkscape:connector-curvature="0" />
	<path style="fill:none;stroke:red;stroke-width:1px;stroke-linecap:butt;stroke-linejoin:miter;stroke-opacity:1" d="M 264.696,916.437 273.16,899.509 z" id="boundary" inkscape:connector-curvature="0" />
	<path style="fill:none;stroke:red;stroke-width:1px;stroke-linecap:butt;stroke-linejoin:miter;stroke-opacity:1" d="M 273.16,899.509 281.625,882.58 z" id="boundary" inkscape:connector-curvature="0" />
	<path style="fill:none;stroke:red;stroke-width:1px;stroke-linecap:butt;stroke-linejoin:miter;stroke-opacity:1" d="M 318.867,792.86 327.331,767.468 z" id="boundary" inkscape:connector-curvature="0" />
	<path style="fill:none;stroke:red;stroke-width:1px;stroke-linecap:butt;stroke-linejoin:miter;stroke-opacity:1" d="M 310.403,818.253 301.939,835.181 z" id="boundary" inkscape:connector-curvature="0" />
	<path style="fill:none;stroke:red;stroke-width:1px;stroke-linecap:butt;stroke-linejoin:miter;stroke-opacity:1" d="M 301.939,852.109 301.939,835.181 z" id="boundary" inkscape:connector-curvature="0" />
	<path style="fill:none;stroke:red;stroke-width:1px;stroke-linecap:butt;stroke-linejoin:miter;stroke-opacity:1" d="M 310.403,818.253 318.867,792.86 z" id="boundary" inkscape:connector-curvature="0" />
	<path style="fill:none;stroke:red;stroke-width:1px;stroke-linecap:butt;stroke-linejoin:miter;stroke-opacity:1" d="M 256.232,933.365 264.696,916.437 z" id="boundary" inkscape:connector-curvature="0" />
	<path style="fill:none;stroke:red;stroke-width:1px;stroke-linecap:butt;stroke-linejoin:miter;stroke-opacity:1" d="M 195.29,977.379 181.747,987.536 z" id="boundary" inkscape:connector-curvature="0" />
	<path style="fill:none;stroke:red;stroke-width:1px;stroke-linecap:butt;stroke-linejoin:miter;stroke-opacity:1" d="M 149.584,990.922 132.655,984.15 z" id="boundary" inkscape:connector-curvature="0" />
	<path style="fill:none;stroke:red;stroke-width:1px;stroke-linecap:butt;stroke-linejoin:miter;stroke-opacity:1" d="M 166.512,996 149.584,990.922 z" id="boundary" inkscape:connector-curvature="0" />
	<path style="fill:none;stroke:red;stroke-width:1px;stroke-linecap:butt;stroke-linejoin:miter;stroke-opacity:1" d="M 181.747,987.536 166.512,996 z" id="boundary" inkscape:connector-curvature="0" />
	<path style="fill:none;stroke:red;stroke-width:1px;stroke-linecap:butt;stroke-linejoin:miter;stroke-opacity:1" d="M 242.689,945.215 225.761,953.679 z" id="boundary" inkscape:connector-curvature="0" />
	<path style="fill:none;stroke:red;stroke-width:1px;stroke-linecap:butt;stroke-linejoin:miter;stroke-opacity:1" d="M 195.29,977.379 208.833,962.143 z" id="boundary" inkscape:connector-curvature="0" />
	<path style="fill:none;stroke:red;stroke-width:1px;stroke-linecap:butt;stroke-linejoin:miter;stroke-opacity:1" d="M 208.833,962.143 225.761,953.679 z" id="boundary" inkscape:connector-curvature="0" />
	<path style="fill:none;stroke:red;stroke-width:1px;stroke-linecap:butt;stroke-linejoin:miter;stroke-opacity:1" d="M 256.232,933.365 242.689,945.215 z" id="boundary" inkscape:connector-curvature="0" />
	<path style="fill:none;stroke:red;stroke-width:1px;stroke-linecap:butt;stroke-linejoin:miter;stroke-opacity:1" d="M 547.399,15.8498 564.328,7.38567 z" id="boundary" inkscape:connector-curvature="0" />
	<path style="fill:none;stroke:red;stroke-width:1px;stroke-linecap:butt;stroke-linejoin:miter;stroke-opacity:1" d="M 525.392,46.3208 533.857,29.3925 z" id="boundary" inkscape:connector-curvature="0" />
	<path style="fill:none;stroke:red;stroke-width:1px;stroke-linecap:butt;stroke-linejoin:miter;stroke-opacity:1" d="M 533.857,29.3925 547.399,15.8498 z" id="boundary" inkscape:connector-curvature="0" />
	<path style="fill:none;stroke:red;stroke-width:1px;stroke-linecap:butt;stroke-linejoin:miter;stroke-opacity:1" d="M 564.328,7.38567 581.256,4 z" id="boundary" inkscape:connector-curvature="0" />
	<path style="fill:none;stroke:red;stroke-width:1px;stroke-linecap:butt;stroke-linejoin:miter;stroke-opacity:1" d="M 581.256,4 598.184,4 z" id="boundary" inkscape:connector-curvature="0" />
	<path style="fill:none;stroke:red;stroke-width:1px;stroke-linecap:butt;stroke-linejoin:miter;stroke-opacity:1" d="M 598.184,4 615.113,4 z" id="boundary" inkscape:connector-curvature="0" />
	<path style="fill:none;stroke:red;stroke-width:1px;stroke-linecap:butt;stroke-linejoin:miter;stroke-opacity:1" d="M 516.928,63.2491 525.392,46.3208 z" id="boundary" inkscape:connector-curvature="0" />
	<path style="fill:none;stroke:red;stroke-width:1px;stroke-linecap:butt;stroke-linejoin:miter;stroke-opacity:1" d="M 615.113,4 632.041,4 z" id="boundary" inkscape:connector-curvature="0" />
	<path style="fill:none;stroke:red;stroke-width:1px;stroke-linecap:butt;stroke-linejoin:miter;stroke-opacity:1" d="M 452.601,178.362 461.065,152.969 z" id="boundary" inkscape:connector-curvature="0" />
	<path style="fill:none;stroke:red;stroke-width:1px;stroke-linecap:butt;stroke-linejoin:miter;stroke-opacity:1" d="M 452.601,178.362 444.137,195.29 z" id="boundary" inkscape:connector-curvature="0" />
	<path style="fill:none;stroke:red;stroke-width:1px;stroke-linecap:butt;stroke-linejoin:miter;stroke-opacity:1" d="M 435.672,220.683 444.137,195.29 z" id="boundary" inkscape:connector-curvature="0" />
	<path style="fill:none;stroke:red;stroke-width:1px;stroke-linecap:butt;stroke-linejoin:miter;stroke-opacity:1" d="M 503.386,76.7918 516.928,63.2491 z" id="boundary" inkscape:connector-curvature="0" />
	<path style="fill:none;stroke:red;stroke-width:1px;stroke-linecap:butt;stroke-linejoin:miter;stroke-opacity:1" d="M 494.922,93.7201 503.386,76.7918 z" id="boundary" inkscape:connector-curvature="0" />
	<path style="fill:none;stroke:red;stroke-width:1px;stroke-linecap:butt;stroke-linejoin:miter;stroke-opacity:1" d="M 494.922,93.7201 483.072,122.498 z" id="boundary" inkscape:connector-curvature="0" />
	<path style="fill:none;stroke:red;stroke-width:1px;stroke-linecap:butt;stroke-linejoin:miter;stroke-opacity:1" d="M 483.072,122.498 469.529,136.041 z" id="boundary" inkscape:connector-curvature="0" />
	<path style="fill:none;stroke:red;stroke-width:1px;stroke-linecap:butt;stroke-linejoin:miter;stroke-opacity:1" d="M 461.065,152.969 469.529,136.041 z" id="boundary" inkscape:connector-curvature="0" />
	<path style="fill:none;stroke:red;stroke-width:1px;stroke-linecap:butt;stroke-linejoin:miter;stroke-opacity:1" d="M 632.041,4 648.969,4 z" id="boundary" inkscape:connector-curvature="0" />
	<path style="fill:none;stroke:red;stroke-width:1px;stroke-linecap:butt;stroke-linejoin:miter;stroke-opacity:1" d="M 648.969,4 662.512,14.157 z" id="boundary" inkscape:connector-curvature="0" />
	<path style="fill:none;stroke:red;stroke-width:1px;stroke-linecap:butt;stroke-linejoin:miter;stroke-opacity:1" d="M 674.362,27.6997 662.512,14.157 z" id="boundary" inkscape:connector-curvature="0" />
	<path style="fill:none;stroke:red;stroke-width:1px;stroke-linecap:butt;stroke-linejoin:miter;stroke-opacity:1" d="M 682.826,42.9352 682.826,59.8635 z" id="boundary" inkscape:connector-curvature="0" />
	<path style="fill:none;stroke:red;stroke-width:1px;stroke-linecap:butt;stroke-linejoin:miter;stroke-opacity:1" d="M 674.362,27.6997 682.826,42.9352 z" id="boundary" inkscape:connector-curvature="0" />
	<path style="fill:none;stroke:red;stroke-width:1px;stroke-linecap:butt;stroke-linejoin:miter;stroke-opacity:1" d="M 691.29,75.099 708.218,80.1775 z" id="boundary" inkscape:connector-curvature="0" />
	<path style="fill:none;stroke:red;stroke-width:1px;stroke-linecap:butt;stroke-linejoin:miter;stroke-opacity:1" d="M 691.29,75.099 682.826,59.8635 z" id="boundary" inkscape:connector-curvature="0" />
	<path style="fill:none;stroke:red;stroke-width:1px;stroke-linecap:butt;stroke-linejoin:miter;stroke-opacity:1" d="M 725.147,80.1775 742.075,80.1775 z" id="boundary" inkscape:connector-curvature="0" />
	<path style="fill:none;stroke:red;stroke-width:1px;stroke-linecap:butt;stroke-linejoin:miter;stroke-opacity:1" d="M 742.075,80.1775 757.311,88.6416 z" id="boundary" inkscape:connector-curvature="0" />
	<path style="fill:none;stroke:red;stroke-width:1px;stroke-linecap:butt;stroke-linejoin:miter;stroke-opacity:1" d="M 725.147,80.1775 708.218,80.1775 z" id="boundary" inkscape:connector-curvature="0" />
	<path style="fill:none;stroke:red;stroke-width:1px;stroke-linecap:butt;stroke-linejoin:miter;stroke-opacity:1" d="M 770.853,98.7986 757.311,88.6416 z" id="boundary" inkscape:connector-curvature="0" />
	<path style="fill:none;stroke:red;stroke-width:1px;stroke-linecap:butt;stroke-linejoin:miter;stroke-opacity:1" d="M 770.853,98.7986 784.396,110.648 z" id="boundary" inkscape:connector-curvature="0" />
	<path style="fill:none;stroke:red;stroke-width:1px;stroke-linecap:butt;stroke-linejoin:miter;stroke-opacity:1" d="M 784.396,110.648 784.396,127.577 z" id="boundary" inkscape:connector-curvature="0" />
	<path style="fill:none;stroke:red;stroke-width:1px;stroke-linecap:butt;stroke-linejoin:miter;stroke-opacity:1" d="M 784.396,127.577 792.86,142.812 z" id="boundary" inkscape:connector-curvature="0" />
	<path style="fill:none;stroke:red;stroke-width:1px;stroke-linecap:butt;stroke-linejoin:miter;stroke-opacity:1" d="M 792.86,142.812 801.324,158.048 z" id="boundary" inkscape:connector-curvature="0" />
	<path style="fill:none;stroke:red;stroke-width:1px;stroke-linecap:butt;stroke-linejoin:miter;stroke-opacity:1" d="M 804.71,174.976 801.324,200.369 z" id="boundary" inkscape:connector-curvature="0" />
	<path style="fill:none;stroke:red;stroke-width:1px;stroke-linecap:butt;stroke-linejoin:miter;stroke-opacity:1" d="M 801.324,200.369 789.474,213.911 z" id="boundary" inkscape:connector-curvature="0" />
	<path style="fill:none;stroke:red;stroke-width:1px;stroke-linecap:butt;stroke-linejoin:miter;stroke-opacity:1" d="M 801.324,158.048 804.71,174.976 z" id="boundary" inkscape:connector-curvature="0" />
	<path style="fill:none;stroke:red;stroke-width:1px;stroke-linecap:butt;stroke-linejoin:miter;stroke-opacity:1" d="M 789.474,213.911 775.932,225.761 z" id="boundary" inkscape:connector-curvature="0" />
	<path style="fill:none;stroke:red;stroke-width:1px;stroke-linecap:butt;stroke-linejoin:miter;stroke-opacity:1" d="M 764.082,247.768 775.932,225.761 z" id="boundary" inkscape:connector-curvature="0" />
	<path style="fill:none;stroke:red;stroke-width:1px;stroke-linecap:butt;stroke-linejoin:miter;stroke-opacity:1" d="M 418.744,263.003 418.744,279.932 z" id="boundary" inkscape:connector-curvature="0" />
	<path style="fill:none;stroke:red;stroke-width:1px;stroke-linecap:butt;stroke-linejoin:miter;stroke-opacity:1" d="M 418.744,279.932 410.28,305.324 z" id="boundary" inkscape:connector-curvature="0" />
	<path style="fill:none;stroke:red;stroke-width:1px;stroke-linecap:butt;stroke-linejoin:miter;stroke-opacity:1" d="M 410.28,305.324 401.816,330.717 z" id="boundary" inkscape:connector-curvature="0" />
	<path style="fill:none;stroke:red;stroke-width:1px;stroke-linecap:butt;stroke-linejoin:miter;stroke-opacity:1" d="M 527.085,442.444 513.543,454.294 z" id="boundary" inkscape:connector-curvature="0" />
	<path style="fill:none;stroke:red;stroke-width:1px;stroke-linecap:butt;stroke-linejoin:miter;stroke-opacity:1" d="M 393.352,356.109 384.887,373.038 z" id="boundary" inkscape:connector-curvature="0" />
	<path style="fill:none;stroke:red;stroke-width:1px;stroke-linecap:butt;stroke-linejoin:miter;stroke-opacity:1" d="M 401.816,330.717 393.352,356.109 z" id="boundary" inkscape:connector-curvature="0" />
	<path style="fill:none;stroke:red;stroke-width:1px;stroke-linecap:butt;stroke-linejoin:miter;stroke-opacity:1" d="M 418.744,263.003 427.208,246.075 z" id="boundary" inkscape:connector-curvature="0" />
	<path style="fill:none;stroke:red;stroke-width:1px;stroke-linecap:butt;stroke-linejoin:miter;stroke-opacity:1" d="M 500,469.529 486.457,479.686 z" id="boundary" inkscape:connector-curvature="0" />
	<path style="fill:none;stroke:red;stroke-width:1px;stroke-linecap:butt;stroke-linejoin:miter;stroke-opacity:1" d="M 513.543,454.294 500,469.529 z" id="boundary" inkscape:connector-curvature="0" />
	<path style="fill:none;stroke:red;stroke-width:1px;stroke-linecap:butt;stroke-linejoin:miter;stroke-opacity:1" d="M 435.672,220.683 427.208,246.075 z" id="boundary" inkscape:connector-curvature="0" />
	<path style="fill:none;stroke:red;stroke-width:1px;stroke-linecap:butt;stroke-linejoin:miter;stroke-opacity:1" d="M 486.457,479.686 471.222,488.15 z" id="boundary" inkscape:connector-curvature="0" />
	<path style="fill:none;stroke:red;stroke-width:1px;stroke-linecap:butt;stroke-linejoin:miter;stroke-opacity:1" d="M 403.509,572.792 417.051,560.942 z" id="boundary" inkscape:connector-curvature="0" />
	<path style="fill:none;stroke:red;stroke-width:1px;stroke-linecap:butt;stroke-linejoin:miter;stroke-opacity:1" d="M 395.044,589.72 403.509,572.792 z" id="boundary" inkscape:connector-curvature="0" />
	<path style="fill:none;stroke:red;stroke-width:1px;stroke-linecap:butt;stroke-linejoin:miter;stroke-opacity:1" d="M 425.515,544.014 417.051,560.942 z" id="boundary" inkscape:connector-curvature="0" />
	<path style="fill:none;stroke:red;stroke-width:1px;stroke-linecap:butt;stroke-linejoin:miter;stroke-opacity:1" d="M 386.58,615.113 395.044,589.72 z" id="boundary" inkscape:connector-curvature="0" />
	<path style="fill:none;stroke:red;stroke-width:1px;stroke-linecap:butt;stroke-linejoin:miter;stroke-opacity:1" d="M 459.372,501.693 471.222,488.15 z" id="boundary" inkscape:connector-curvature="0" />
	<path style="fill:none;stroke:red;stroke-width:1px;stroke-linecap:butt;stroke-linejoin:miter;stroke-opacity:1" d="M 459.372,501.693 442.444,510.157 z" id="boundary" inkscape:connector-curvature="0" />
	<path style="fill:none;stroke:red;stroke-width:1px;stroke-linecap:butt;stroke-linejoin:miter;stroke-opacity:1" d="M 425.515,544.014 433.98,527.085 z" id="boundary" inkscape:connector-curvature="0" />
	<path style="fill:none;stroke:red;stroke-width:1px;stroke-linecap:butt;stroke-linejoin:miter;stroke-opacity:1" d="M 433.98,527.085 442.444,510.157 z" id="boundary" inkscape:connector-curvature="0" />
	<path style="fill:none;stroke:red;stroke-width:1px;stroke-linecap:butt;stroke-linejoin:miter;stroke-opacity:1" d="M 679.44,315.481 691.29,301.939 z" id="boundary" inkscape:connector-curvature="0" />
	<path style="fill:none;stroke:red;stroke-width:1px;stroke-linecap:butt;stroke-linejoin:miter;stroke-opacity:1" d="M 691.29,301.939 708.218,293.474 z" id="boundary" inkscape:connector-curvature="0" />
	<path style="fill:none;stroke:red;stroke-width:1px;stroke-linecap:butt;stroke-linejoin:miter;stroke-opacity:1" d="M 679.44,315.481 665.898,327.331 z" id="boundary" inkscape:connector-curvature="0" />
	<path style="fill:none;stroke:red;stroke-width:1px;stroke-linecap:butt;stroke-linejoin:miter;stroke-opacity:1" d="M 654.048,340.874 665.898,327.331 z" id="boundary" inkscape:connector-curvature="0" />
	<path style="fill:none;stroke:red;stroke-width:1px;stroke-linecap:butt;stroke-linejoin:miter;stroke-opacity:1" d="M 750.539,259.618 764.082,247.768 z" id="boundary" inkscape:connector-curvature="0" />
	<path style="fill:none;stroke:red;stroke-width:1px;stroke-linecap:butt;stroke-linejoin:miter;stroke-opacity:1" d="M 738.689,273.16 750.539,259.618 z" id="boundary" inkscape:connector-curvature="0" />
	<path style="fill:none;stroke:red;stroke-width:1px;stroke-linecap:butt;stroke-linejoin:miter;stroke-opacity:1" d="M 738.689,273.16 725.147,285.01 z" id="boundary" inkscape:connector-curvature="0" />
	<path style="fill:none;stroke:red;stroke-width:1px;stroke-linecap:butt;stroke-linejoin:miter;stroke-opacity:1" d="M 725.147,285.01 708.218,293.474 z" id="boundary" inkscape:connector-curvature="0" />
	<path style="fill:none;stroke:red;stroke-width:1px;stroke-linecap:butt;stroke-linejoin:miter;stroke-opacity:1" d="M 640.505,352.724 654.048,340.874 z" id="boundary" inkscape:connector-curvature="0" />
	<path style="fill:none;stroke:red;stroke-width:1px;stroke-linecap:butt;stroke-linejoin:miter;stroke-opacity:1" d="M 554.171,420.437 538.935,428.901 z" id="boundary" inkscape:connector-curvature="0" />
	<path style="fill:none;stroke:red;stroke-width:1px;stroke-linecap:butt;stroke-linejoin:miter;stroke-opacity:1" d="M 527.085,442.444 538.935,428.901 z" id="boundary" inkscape:connector-curvature="0" />
	<path style="fill:none;stroke:red;stroke-width:1px;stroke-linecap:butt;stroke-linejoin:miter;stroke-opacity:1" d="M 554.171,420.437 567.713,410.28 z" id="boundary" inkscape:connector-curvature="0" />
	<path style="fill:none;stroke:red;stroke-width:1px;stroke-linecap:butt;stroke-linejoin:miter;stroke-opacity:1" d="M 567.713,410.28 584.642,401.816 z" id="boundary" inkscape:connector-curvature="0" />
	<path style="fill:none;stroke:red;stroke-width:1px;stroke-linecap:butt;stroke-linejoin:miter;stroke-opacity:1" d="M 623.577,361.188 640.505,352.724 z" id="boundary" inkscape:connector-curvature="0" />
	<path style="fill:none;stroke:red;stroke-width:1px;stroke-linecap:butt;stroke-linejoin:miter;stroke-opacity:1" d="M 611.727,374.73 623.577,361.188 z" id="boundary" inkscape:connector-curvature="0" />
	<path style="fill:none;stroke:red;stroke-width:1px;stroke-linecap:butt;stroke-linejoin:miter;stroke-opacity:1" d="M 584.642,401.816 598.184,386.58 z" id="boundary" inkscape:connector-curvature="0" />
	<path style="fill:none;stroke:red;stroke-width:1px;stroke-linecap:butt;stroke-linejoin:miter;stroke-opacity:1" d="M 598.184,386.58 611.727,374.73 z" id="boundary" inkscape:connector-curvature="0" />
	<circle cx="4" cy="804.71" r="4" fill="#0" id="circle0"/>
	<circle cx="4" cy="821.638" r="4" fill="#0" id="circle1"/>
	<circle cx="4" cy="838.567" r="4" fill="#0" id="circle2"/>
	<circle cx="12.4642" cy="853.802" r="4" fill="#0" id="circle3"/>
	<circle cx="17.5427" cy="791.167" r="4" fill="#0" id="circle4"/>
	<circle cx="20.9283" cy="869.038" r="4" fill="#0" id="circle5"/>
	<circle cx="31.0853" cy="777.625" r="4" fill="#0" id="circle6"/>
	<circle cx="31.0853" cy="882.58" r="4" fill="#0" id="circle7"/>
	<circle cx="44.628" cy="765.775" r="4" fill="#0" id="circle8"/>
	<circle cx="44.628" cy="894.43" r="4" fill="#0" id="circle9"/>
	<circle cx="56.4778" cy="752.232" r="4" fill="#0" id="circle10"/>
	<circle cx="61.5563" cy="894.43" r="4" fill="#0" id="circle11"/>
	<circle cx="73.4061" cy="743.768" r="4" fill="#0" id="circle12"/>
	<circle cx="78.4846" cy="894.43" r="4" fill="#0" id="circle13"/>
	<circle cx="80.1775" cy="940.137" r="4" fill="#0" id="circle14"/>
	<circle cx="86.9488" cy="731.918" r="4" fill="#0" id="circle15"/>
	<circle cx="88.6416" cy="923.208" r="4" fill="#0" id="circle16"/>
	<circle cx="88.6416" cy="955.372" r="4" fill="#0" id="circle17"/>
	<circle cx="93.7201" cy="902.894" r="4" fill="#0" id="circle18"/>
	<circle cx="98.7986" cy="718.375" r="4" fill="#0" id="circle19"/>
	<circle cx="100.491" cy="968.915" r="4" fill="#0" id="circle20"/>
	<circle cx="112.341" cy="706.526" r="4" fill="#0" id="circle21"/>
	<circle cx="117.42" cy="975.686" r="4" fill="#0" id="circle22"/>
	<circle cx="124.191" cy="692.983" r="4" fill="#0" id="circle23"/>
	<circle cx="132.655" cy="984.15" r="4" fill="#0" id="circle24"/>
	<circle cx="137.734" cy="681.133" r="4" fill="#0" id="circle25"/>
	<circle cx="149.584" cy="667.59" r="4" fill="#0" id="circle26"/>
	<circle cx="149.584" cy="990.922" r="4" fill="#0" id="circle27"/>
	<circle cx="163.126" cy="655.741" r="4" fill="#0" id="circle28"/>
	<circle cx="166.512" cy="996" r="4" fill="#0" id="circle29"/>
	<circle cx="174.976" cy="642.198" r="4" fill="#0" id="circle30"/>
	<circle cx="181.747" cy="987.536" r="4" fill="#0" id="circle31"/>
	<circle cx="188.519" cy="630.348" r="4" fill="#0" id="circle32"/>
	<circle cx="195.29" cy="977.379" r="4" fill="#0" id="circle33"/>
	<circle cx="203.754" cy="621.884" r="4" fill="#0" id="circle34"/>
	<circle cx="208.833" cy="962.143" r="4" fill="#0" id="circle35"/>
	<circle cx="217.297" cy="608.341" r="4" fill="#0" id="circle36"/>
	<circle cx="225.761" cy="953.679" r="4" fill="#0" id="circle37"/>
	<circle cx="230.84" cy="596.491" r="4" fill="#0" id="circle38"/>
	<circle cx="242.689" cy="582.949" r="4" fill="#0" id="circle39"/>
	<circle cx="242.689" cy="945.215" r="4" fill="#0" id="circle40"/>
	<circle cx="256.232" cy="571.099" r="4" fill="#0" id="circle41"/>
	<circle cx="256.232" cy="933.365" r="4" fill="#0" id="circle42"/>
	<circle cx="264.696" cy="916.437" r="4" fill="#0" id="circle43"/>
	<circle cx="268.082" cy="557.556" r="4" fill="#0" id="circle44"/>
	<circle cx="273.16" cy="899.509" r="4" fill="#0" id="circle45"/>
	<circle cx="281.625" cy="545.706" r="4" fill="#0" id="circle46"/>
	<circle cx="281.625" cy="882.58" r="4" fill="#0" id="circle47"/>
	<circle cx="290.089" cy="865.652" r="4" fill="#0" id="circle48"/>
	<circle cx="293.474" cy="532.164" r="4" fill="#0" id="circle49"/>
	<circle cx="301.939" cy="835.181" r="4" fill="#0" id="circle50"/>
	<circle cx="301.939" cy="852.109" r="4" fill="#0" id="circle51"/>
	<circle cx="307.017" cy="520.314" r="4" fill="#0" id="circle52"/>
	<circle cx="310.403" cy="818.253" r="4" fill="#0" id="circle53"/>
	<circle cx="318.867" cy="506.771" r="4" fill="#0" id="circle54"/>
	<circle cx="318.867" cy="792.86" r="4" fill="#0" id="circle55"/>
	<circle cx="327.331" cy="767.468" r="4" fill="#0" id="circle56"/>
	<circle cx="332.41" cy="494.922" r="4" fill="#0" id="circle57"/>
	<circle cx="335.795" cy="750.539" r="4" fill="#0" id="circle58"/>
	<circle cx="344.259" cy="725.147" r="4" fill="#0" id="circle59"/>
	<circle cx="347.645" cy="486.457" r="4" fill="#0" id="circle60"/>
	<circle cx="352.724" cy="699.754" r="4" fill="#0" id="circle61"/>
	<circle cx="356.109" cy="469.529" r="4" fill="#0" id="circle62"/>
	<circle cx="361.188" cy="682.826" r="4" fill="#0" id="circle63"/>
	<circle cx="367.959" cy="415.358" r="4" fill="#0" id="circle64"/>
	<circle cx="367.959" cy="432.287" r="4" fill="#0" id="circle65"/>
	<circle cx="367.959" cy="449.215" r="4" fill="#0" id="circle66"/>
	<circle cx="369.652" cy="657.433" r="4" fill="#0" id="circle67"/>
	<circle cx="376.423" cy="398.43" r="4" fill="#0" id="circle68"/>
	<circle cx="378.116" cy="632.041" r="4" fill="#0" id="circle69"/>
	<circle cx="384.887" cy="373.038" r="4" fill="#0" id="circle70"/>
	<circle cx="386.58" cy="615.113" r="4" fill="#0" id="circle71"/>
	<circle cx="393.352" cy="356.109" r="4" fill="#0" id="circle72"/>
	<circle cx="395.044" cy="589.72" r="4" fill="#0" id="circle73"/>
	<circle cx="401.816" cy="330.717" r="4" fill="#0" id="circle74"/>
	<circle cx="403.509" cy="572.792" r="4" fill="#0" id="circle75"/>
	<circle cx="410.28" cy="305.324" r="4" fill="#0" id="circle76"/>
	<circle cx="417.051" cy="560.942" r="4" fill="#0" id="circle77"/>
	<circle cx="418.744" cy="263.003" r="4" fill="#0" id="circle78"/>
	<circle cx="418.744" cy="279.932" r="4" fill="#0" id="circle79"/>
	<circle cx="425.515" cy="544.014" r="4" fill="#0" id="circle80"/>
	<circle cx="427.208" cy="246.075" r="4" fill="#0" id="circle81"/>
	<circle cx="433.98" cy="527.085" r="4" fill="#0" id="circle82"/>
	<circle cx="435.672" cy="220.683" r="4" fill="#0" id="circle83"/>
	<circle cx="442.444" cy="510.157" r="4" fill="#0" id="circle84"/>
	<circle cx="444.137" cy="195.29" r="4" fill="#0" id="circle85"/>
	<circle cx="452.601" cy="178.362" r="4" fill="#0" id="circle86"/>
	<circle cx="459.372" cy="501.693" r="4" fill="#0" id="circle87"/>
	<circle cx="461.065" cy="152.969" r="4" fill="#0" id="circle88"/>
	<circle cx="469.529" cy="136.041" r="4" fill="#0" id="circle89"/>
	<circle cx="471.222" cy="488.15" r="4" fill="#0" id="circle90"/>
	<circle cx="483.072" cy="122.498" r="4" fill="#0" id="circle91"/>
	<circle cx="486.457" cy="479.686" r="4" fill="#0" id="circle92"/>
	<circle cx="494.922" cy="93.7201" r="4" fill="#0" id="circle93"/>
	<circle cx="500" cy="469.529" r="4" fill="#0" id="circle94"/>
	<circle cx="503.386" cy="76.7918" r="4" fill="#0" id="circle95"/>
	<circle cx="513.543" cy="454.294" r="4" fill="#0" id="circle96"/>
	<circle cx="516.928" cy="63.2491" r="4" fill="#0" id="circle97"/>
	<circle cx="525.392" cy="46.3208" r="4" fill="#0" id="circle98"/>
	<circle cx="527.085" cy="442.444" r="4" fill="#0" id="circle99"/>
	<circle cx="533.857" cy="29.3925" r="4" fill="#0" id="circle100"/>
	<circle cx="538.935" cy="428.901" r="4" fill="#0" id="circle101"/>
	<circle cx="547.399" cy="15.8498" r="4" fill="#0" id="circle102"/>
	<circle cx="554.171" cy="420.437" r="4" fill="#0" id="circle103"/>
	<circle cx="564.328" cy="7.38567" r="4" fill="#0" id="circle104"/>
	<circle cx="567.713" cy="410.28" r="4" fill="#0" id="circle105"/>
	<circle cx="581.256" cy="4" r="4" fill="#0" id="circle106"/>
	<circle cx="584.642" cy="401.816" r="4" fill="#0" id="circle107"/>
	<circle cx="598.184" cy="4" r="4" fill="#0" id="circle108"/>
	<circle cx="598.184" cy="386.58" r="4" fill="#0" id="circle109"/>
	<circle cx="611.727" cy="374.73" r="4" fill="#0" id="circle110"/>
	<circle cx="615.113" cy="4" r="4" fill="#0" id="circle111"/>
	<circle cx="623.577" cy="361.188" r="4" fill="#0" id="circle112"/>
	<circle cx="632.041" cy="4" r="4" fill="#0" id="circle113"/>
	<circle cx="640.505" cy="352.724" r="4" fill="#0" id="circle114"/>
	<circle cx="648.969" cy="4" r="4" fill="#0" id="circle115"/>
	<circle cx="654.048" cy="340.874" r="4" fill="#0" id="circle116"/>
	<circle cx="662.512" cy="14.157" r="4" fill="#0" id="circle117"/>
	<circle cx="665.898" cy="327.331" r="4" fill="#0" id="circle118"/>
	<circle cx="674.362" cy="27.6997" r="4" fill="#0" id="circle119"/>
	<circle cx="679.44" cy="315.481" r="4" fill="#0" id="circle120"/>
	<circle cx="682.826" cy="42.9352" r="4" fill="#0" id="circle121"/>
	<circle cx="682.826" cy="59.8635" r="4" fill="#0" id="circle122"/>
	<circle cx="691.29" cy="75.099" r="4" fill="#0" id="circle123"/>
	<circle cx="691.29" cy="301.939" r="4" fill="#0" id="circle124"/>
	<circle cx="708.218" cy="80.1775" r="4" fill="#0" id="circle125"/>
	<circle cx="708.218" cy="293.474" r="4" fill="#0" id="circle126"/>
	<circle cx="725.147" cy="80.1775" r="4" fill="#0" id="circle127"/>
	<circle cx="725.147" cy="285.01" r="4" fill="#0" id="circle128"/>
	<circle cx="738.689" cy="273.16" r="4" fill="#0" id="circle129"/>
	<circle cx="742.075" cy="80.1775" r="4" fill="#0" id="circle130"/>
	<circle cx="750.539" cy="259.618" r="4" fill="#0" id="circle131"/>
	<circle cx="757.311" cy="88.6416" r="4" fill="#0" id="circle132"/>
	<circle cx="764.082" cy="247.768" r="4" fill="#0" id="circle133"/>
	<circle cx="770.853" cy="98.7986" r="4" fill="#0" id="circle134"/>
	<circle cx="775.932" cy="225.761" r="4" fill="#0" id="circle135"/>
	<circle cx="784.396" cy="110.648" r="4" fill="#0" id="circle136"/>
	<circle cx="784.396" cy="127.577" r="4" fill="#0" id="circle137"/>
	<circle cx="789.474" cy="213.911" r="4" fill="#0" id="circle138"/>
	<circle cx="792.86" cy="142.812" r="4" fill="#0" id="circle139"/>
	<circle cx="801.324" cy="158.048" r="4" fill="#0" id="circle140"/>
	<circle cx="801.324" cy="200.369" r="4" fill="#0" id="circle141"/>
	<circle cx="804.71" cy="174.976" r="4" fill="#0" id="circle142"/>
	</g>
</svg>