<?xml version="1.0" encoding="UTF-8" standalone="no"?>
<!-- Created with CurveBenchmark -->
<svg
	xmlns:dc="http://purl.org/dc/elements/1.1/"
	xmlns:cc="http://creativecommons.org/ns#"
	xmlns:rdf="http://www.w3.org/1999/02/22-rdf-syntax-ns#"
	xmlns:svg="http://www.w3.org/2000/svg"
	xmlns="http://www.w3.org/2000/svg"
	xmlns:sodipodi="http://sodipodi.sourceforge.net/DTD/sodipodi-0.dtd"
	xmlns:inkscape="http://www.inkscape.org/namespaces/inkscape"
	width="1000"
	height="1000"
	id="svg2"
	version="1.1"
	sodipodi:docname="manifold/ccrust-flatfish28.png.txt">
<defs
	id="defs4" />
<metadata
	id="metadata7">
	<rdf:RDF>
		<cc:Work
			rdf:about="">
			<dc:format>image/svg+xml</dc:format>
			<dc:type
				rdf:resource="http://purl.org/dc/dcmitype/StillImage" />
			<dc:title></dc:title>
		</cc:Work>
	</rdf:RDF>
</metadata>
<g
	inkscape:label="Layer 1"
	inkscape:groupmode="layer"
	id="layer1">
	<path style="fill:none;stroke:red;stroke-width:1px;stroke-linecap:butt;stroke-linejoin:miter;stroke-opacity:1" d="M 126.39,160.208 113.506,173.091 z" id="boundary" inkscape:connector-curvature="0" />
	<path style="fill:none;stroke:red;stroke-width:1px;stroke-linecap:butt;stroke-linejoin:miter;stroke-opacity:1" d="M 113.506,173.091 97.4026,173.091 z" id="boundary" inkscape:connector-curvature="0" />
	<path style="fill:none;stroke:red;stroke-width:1px;stroke-linecap:butt;stroke-linejoin:miter;stroke-opacity:1" d="M 139.273,148.935 126.39,160.208 z" id="boundary" inkscape:connector-curvature="0" />
	<path style="fill:none;stroke:red;stroke-width:1px;stroke-linecap:butt;stroke-linejoin:miter;stroke-opacity:1" d="M 73.2468,205.299 84.5195,185.974 z" id="boundary" inkscape:connector-curvature="0" />
	<path style="fill:none;stroke:red;stroke-width:1px;stroke-linecap:butt;stroke-linejoin:miter;stroke-opacity:1" d="M 73.2468,205.299 60.3636,218.182 z" id="boundary" inkscape:connector-curvature="0" />
	<path style="fill:none;stroke:red;stroke-width:1px;stroke-linecap:butt;stroke-linejoin:miter;stroke-opacity:1" d="M 84.5195,185.974 97.4026,173.091 z" id="boundary" inkscape:connector-curvature="0" />
	<path style="fill:none;stroke:red;stroke-width:1px;stroke-linecap:butt;stroke-linejoin:miter;stroke-opacity:1" d="M 200.468,94.1818 192.416,108.675 z" id="boundary" inkscape:connector-curvature="0" />
	<path style="fill:none;stroke:red;stroke-width:1px;stroke-linecap:butt;stroke-linejoin:miter;stroke-opacity:1" d="M 192.416,108.675 177.922,116.727 z" id="boundary" inkscape:connector-curvature="0" />
	<path style="fill:none;stroke:red;stroke-width:1px;stroke-linecap:butt;stroke-linejoin:miter;stroke-opacity:1" d="M 177.922,116.727 163.429,124.779 z" id="boundary" inkscape:connector-curvature="0" />
	<path style="fill:none;stroke:red;stroke-width:1px;stroke-linecap:butt;stroke-linejoin:miter;stroke-opacity:1" d="M 200.468,94.1818 216.571,86.1299 z" id="boundary" inkscape:connector-curvature="0" />
	<path style="fill:none;stroke:red;stroke-width:1px;stroke-linecap:butt;stroke-linejoin:miter;stroke-opacity:1" d="M 150.545,136.052 163.429,124.779 z" id="boundary" inkscape:connector-curvature="0" />
	<path style="fill:none;stroke:red;stroke-width:1px;stroke-linecap:butt;stroke-linejoin:miter;stroke-opacity:1" d="M 150.545,136.052 139.273,148.935 z" id="boundary" inkscape:connector-curvature="0" />
	<path style="fill:none;stroke:red;stroke-width:1px;stroke-linecap:butt;stroke-linejoin:miter;stroke-opacity:1" d="M 16.8831,277.766 20.1039,293.87 z" id="boundary" inkscape:connector-curvature="0" />
	<path style="fill:none;stroke:red;stroke-width:1px;stroke-linecap:butt;stroke-linejoin:miter;stroke-opacity:1" d="M 20.1039,293.87 4,290.649 z" id="boundary" inkscape:connector-curvature="0" />
	<path style="fill:none;stroke:red;stroke-width:1px;stroke-linecap:butt;stroke-linejoin:miter;stroke-opacity:1" d="M 28.1558,258.442 16.8831,277.766 z" id="boundary" inkscape:connector-curvature="0" />
	<path style="fill:none;stroke:red;stroke-width:1px;stroke-linecap:butt;stroke-linejoin:miter;stroke-opacity:1" d="M 4,306.753 4,290.649 z" id="boundary" inkscape:connector-curvature="0" />
	<path style="fill:none;stroke:red;stroke-width:1px;stroke-linecap:butt;stroke-linejoin:miter;stroke-opacity:1" d="M 12.0519,321.247 4,306.753 z" id="boundary" inkscape:connector-curvature="0" />
	<path style="fill:none;stroke:red;stroke-width:1px;stroke-linecap:butt;stroke-linejoin:miter;stroke-opacity:1" d="M 23.3247,334.13 12.0519,321.247 z" id="boundary" inkscape:connector-curvature="0" />
	<path style="fill:none;stroke:red;stroke-width:1px;stroke-linecap:butt;stroke-linejoin:miter;stroke-opacity:1" d="M 23.3247,334.13 28.1558,350.234 z" id="boundary" inkscape:connector-curvature="0" />
	<path style="fill:none;stroke:red;stroke-width:1px;stroke-linecap:butt;stroke-linejoin:miter;stroke-opacity:1" d="M 44.2597,250.39 52.3117,234.286 z" id="boundary" inkscape:connector-curvature="0" />
	<path style="fill:none;stroke:red;stroke-width:1px;stroke-linecap:butt;stroke-linejoin:miter;stroke-opacity:1" d="M 44.2597,250.39 28.1558,258.442 z" id="boundary" inkscape:connector-curvature="0" />
	<path style="fill:none;stroke:red;stroke-width:1px;stroke-linecap:butt;stroke-linejoin:miter;stroke-opacity:1" d="M 60.3636,218.182 52.3117,234.286 z" id="boundary" inkscape:connector-curvature="0" />
	<path style="fill:none;stroke:red;stroke-width:1px;stroke-linecap:butt;stroke-linejoin:miter;stroke-opacity:1" d="M 31.3766,366.338 28.1558,350.234 z" id="boundary" inkscape:connector-curvature="0" />
	<path style="fill:none;stroke:red;stroke-width:1px;stroke-linecap:butt;stroke-linejoin:miter;stroke-opacity:1" d="M 47.4805,372.779 31.3766,366.338 z" id="boundary" inkscape:connector-curvature="0" />
	<path style="fill:none;stroke:red;stroke-width:1px;stroke-linecap:butt;stroke-linejoin:miter;stroke-opacity:1" d="M 332.519,12.0519 348.623,12.0519 z" id="boundary" inkscape:connector-curvature="0" />
	<path style="fill:none;stroke:red;stroke-width:1px;stroke-linecap:butt;stroke-linejoin:miter;stroke-opacity:1" d="M 318.026,20.1039 332.519,12.0519 z" id="boundary" inkscape:connector-curvature="0" />
	<path style="fill:none;stroke:red;stroke-width:1px;stroke-linecap:butt;stroke-linejoin:miter;stroke-opacity:1" d="M 318.026,20.1039 301.922,20.1039 z" id="boundary" inkscape:connector-curvature="0" />
	<path style="fill:none;stroke:red;stroke-width:1px;stroke-linecap:butt;stroke-linejoin:miter;stroke-opacity:1" d="M 348.623,12.0519 364.727,12.0519 z" id="boundary" inkscape:connector-curvature="0" />
	<path style="fill:none;stroke:red;stroke-width:1px;stroke-linecap:butt;stroke-linejoin:miter;stroke-opacity:1" d="M 396.935,12.0519 380.831,12.0519 z" id="boundary" inkscape:connector-curvature="0" />
	<path style="fill:none;stroke:red;stroke-width:1px;stroke-linecap:butt;stroke-linejoin:miter;stroke-opacity:1" d="M 380.831,12.0519 364.727,12.0519 z" id="boundary" inkscape:connector-curvature="0" />
	<path style="fill:none;stroke:red;stroke-width:1px;stroke-linecap:butt;stroke-linejoin:miter;stroke-opacity:1" d="M 427.532,4 413.039,12.0519 z" id="boundary" inkscape:connector-curvature="0" />
	<path style="fill:none;stroke:red;stroke-width:1px;stroke-linecap:butt;stroke-linejoin:miter;stroke-opacity:1" d="M 413.039,12.0519 396.935,12.0519 z" id="boundary" inkscape:connector-curvature="0" />
	<path style="fill:none;stroke:red;stroke-width:1px;stroke-linecap:butt;stroke-linejoin:miter;stroke-opacity:1" d="M 427.532,4 438.805,16.8831 z" id="boundary" inkscape:connector-curvature="0" />
	<path style="fill:none;stroke:red;stroke-width:1px;stroke-linecap:butt;stroke-linejoin:miter;stroke-opacity:1" d="M 454.909,15.2727 438.805,16.8831 z" id="boundary" inkscape:connector-curvature="0" />
	<path style="fill:none;stroke:red;stroke-width:1px;stroke-linecap:butt;stroke-linejoin:miter;stroke-opacity:1" d="M 454.909,15.2727 464.571,28.1558 z" id="boundary" inkscape:connector-curvature="0" />
	<path style="fill:none;stroke:red;stroke-width:1px;stroke-linecap:butt;stroke-linejoin:miter;stroke-opacity:1" d="M 285.818,24.9351 271.325,44.2597 z" id="boundary" inkscape:connector-curvature="0" />
	<path style="fill:none;stroke:red;stroke-width:1px;stroke-linecap:butt;stroke-linejoin:miter;stroke-opacity:1" d="M 271.325,44.2597 255.221,47.4805 z" id="boundary" inkscape:connector-curvature="0" />
	<path style="fill:none;stroke:red;stroke-width:1px;stroke-linecap:butt;stroke-linejoin:miter;stroke-opacity:1" d="M 285.818,24.9351 301.922,20.1039 z" id="boundary" inkscape:connector-curvature="0" />
	<path style="fill:none;stroke:red;stroke-width:1px;stroke-linecap:butt;stroke-linejoin:miter;stroke-opacity:1" d="M 242.338,60.3636 255.221,47.4805 z" id="boundary" inkscape:connector-curvature="0" />
	<path style="fill:none;stroke:red;stroke-width:1px;stroke-linecap:butt;stroke-linejoin:miter;stroke-opacity:1" d="M 216.571,86.1299 229.455,73.2468 z" id="boundary" inkscape:connector-curvature="0" />
	<path style="fill:none;stroke:red;stroke-width:1px;stroke-linecap:butt;stroke-linejoin:miter;stroke-opacity:1" d="M 242.338,60.3636 229.455,73.2468 z" id="boundary" inkscape:connector-curvature="0" />
	<path style="fill:none;stroke:red;stroke-width:1px;stroke-linecap:butt;stroke-linejoin:miter;stroke-opacity:1" d="M 464.571,28.1558 480.675,24.9351 z" id="boundary" inkscape:connector-curvature="0" />
	<path style="fill:none;stroke:red;stroke-width:1px;stroke-linecap:butt;stroke-linejoin:miter;stroke-opacity:1" d="M 480.675,24.9351 493.558,36.2078 z" id="boundary" inkscape:connector-curvature="0" />
	<path style="fill:none;stroke:red;stroke-width:1px;stroke-linecap:butt;stroke-linejoin:miter;stroke-opacity:1" d="M 508.052,28.1558 493.558,36.2078 z" id="boundary" inkscape:connector-curvature="0" />
	<path style="fill:none;stroke:red;stroke-width:1px;stroke-linecap:butt;stroke-linejoin:miter;stroke-opacity:1" d="M 508.052,28.1558 522.545,36.2078 z" id="boundary" inkscape:connector-curvature="0" />
	<path style="fill:none;stroke:red;stroke-width:1px;stroke-linecap:butt;stroke-linejoin:miter;stroke-opacity:1" d="M 538.649,36.2078 522.545,36.2078 z" id="boundary" inkscape:connector-curvature="0" />
	<path style="fill:none;stroke:red;stroke-width:1px;stroke-linecap:butt;stroke-linejoin:miter;stroke-opacity:1" d="M 554.753,36.2078 538.649,36.2078 z" id="boundary" inkscape:connector-curvature="0" />
	<path style="fill:none;stroke:red;stroke-width:1px;stroke-linecap:butt;stroke-linejoin:miter;stroke-opacity:1" d="M 60.3636,384.052 70.026,396.935 z" id="boundary" inkscape:connector-curvature="0" />
	<path style="fill:none;stroke:red;stroke-width:1px;stroke-linecap:butt;stroke-linejoin:miter;stroke-opacity:1" d="M 60.3636,384.052 47.4805,372.779 z" id="boundary" inkscape:connector-curvature="0" />
	<path style="fill:none;stroke:red;stroke-width:1px;stroke-linecap:butt;stroke-linejoin:miter;stroke-opacity:1" d="M 70.026,396.935 86.1299,400.156 z" id="boundary" inkscape:connector-curvature="0" />
	<path style="fill:none;stroke:red;stroke-width:1px;stroke-linecap:butt;stroke-linejoin:miter;stroke-opacity:1" d="M 86.1299,400.156 100.623,408.208 z" id="boundary" inkscape:connector-curvature="0" />
	<path style="fill:none;stroke:red;stroke-width:1px;stroke-linecap:butt;stroke-linejoin:miter;stroke-opacity:1" d="M 100.623,408.208 105.455,424.312 z" id="boundary" inkscape:connector-curvature="0" />
	<path style="fill:none;stroke:red;stroke-width:1px;stroke-linecap:butt;stroke-linejoin:miter;stroke-opacity:1" d="M 105.455,424.312 121.558,430.753 z" id="boundary" inkscape:connector-curvature="0" />
	<path style="fill:none;stroke:red;stroke-width:1px;stroke-linecap:butt;stroke-linejoin:miter;stroke-opacity:1" d="M 121.558,430.753 136.052,438.805 z" id="boundary" inkscape:connector-curvature="0" />
	<path style="fill:none;stroke:red;stroke-width:1px;stroke-linecap:butt;stroke-linejoin:miter;stroke-opacity:1" d="M 165.039,456.519 174.701,469.403 z" id="boundary" inkscape:connector-curvature="0" />
	<path style="fill:none;stroke:red;stroke-width:1px;stroke-linecap:butt;stroke-linejoin:miter;stroke-opacity:1" d="M 165.039,456.519 152.156,445.247 z" id="boundary" inkscape:connector-curvature="0" />
	<path style="fill:none;stroke:red;stroke-width:1px;stroke-linecap:butt;stroke-linejoin:miter;stroke-opacity:1" d="M 190.805,475.844 174.701,469.403 z" id="boundary" inkscape:connector-curvature="0" />
	<path style="fill:none;stroke:red;stroke-width:1px;stroke-linecap:butt;stroke-linejoin:miter;stroke-opacity:1" d="M 136.052,438.805 152.156,445.247 z" id="boundary" inkscape:connector-curvature="0" />
	<path style="fill:none;stroke:red;stroke-width:1px;stroke-linecap:butt;stroke-linejoin:miter;stroke-opacity:1" d="M 221.403,488.727 205.299,483.896 z" id="boundary" inkscape:connector-curvature="0" />
	<path style="fill:none;stroke:red;stroke-width:1px;stroke-linecap:butt;stroke-linejoin:miter;stroke-opacity:1" d="M 205.299,483.896 190.805,475.844 z" id="boundary" inkscape:connector-curvature="0" />
	<path style="fill:none;stroke:red;stroke-width:1px;stroke-linecap:butt;stroke-linejoin:miter;stroke-opacity:1" d="M 221.403,488.727 226.234,504.831 z" id="boundary" inkscape:connector-curvature="0" />
	<path style="fill:none;stroke:red;stroke-width:1px;stroke-linecap:butt;stroke-linejoin:miter;stroke-opacity:1" d="M 226.234,504.831 237.506,517.714 z" id="boundary" inkscape:connector-curvature="0" />
	<path style="fill:none;stroke:red;stroke-width:1px;stroke-linecap:butt;stroke-linejoin:miter;stroke-opacity:1" d="M 237.506,517.714 237.506,533.818 z" id="boundary" inkscape:connector-curvature="0" />
	<path style="fill:none;stroke:red;stroke-width:1px;stroke-linecap:butt;stroke-linejoin:miter;stroke-opacity:1" d="M 237.506,533.818 239.117,549.922 z" id="boundary" inkscape:connector-curvature="0" />
	<path style="fill:none;stroke:red;stroke-width:1px;stroke-linecap:butt;stroke-linejoin:miter;stroke-opacity:1" d="M 239.117,549.922 252,561.195 z" id="boundary" inkscape:connector-curvature="0" />
	<path style="fill:none;stroke:red;stroke-width:1px;stroke-linecap:butt;stroke-linejoin:miter;stroke-opacity:1" d="M 252,561.195 253.61,577.299 z" id="boundary" inkscape:connector-curvature="0" />
	<path style="fill:none;stroke:red;stroke-width:1px;stroke-linecap:butt;stroke-linejoin:miter;stroke-opacity:1" d="M 253.61,577.299 253.61,593.403 z" id="boundary" inkscape:connector-curvature="0" />
	<path style="fill:none;stroke:red;stroke-width:1px;stroke-linecap:butt;stroke-linejoin:miter;stroke-opacity:1" d="M 253.61,593.403 268.104,601.455 z" id="boundary" inkscape:connector-curvature="0" />
	<path style="fill:none;stroke:red;stroke-width:1px;stroke-linecap:butt;stroke-linejoin:miter;stroke-opacity:1" d="M 268.104,601.455 274.545,617.558 z" id="boundary" inkscape:connector-curvature="0" />
	<path style="fill:none;stroke:red;stroke-width:1px;stroke-linecap:butt;stroke-linejoin:miter;stroke-opacity:1" d="M 290.649,615.948 274.545,617.558 z" id="boundary" inkscape:connector-curvature="0" />
	<path style="fill:none;stroke:red;stroke-width:1px;stroke-linecap:butt;stroke-linejoin:miter;stroke-opacity:1" d="M 311.584,520.935 327.688,524.156 z" id="boundary" inkscape:connector-curvature="0" />
	<path style="fill:none;stroke:red;stroke-width:1px;stroke-linecap:butt;stroke-linejoin:miter;stroke-opacity:1" d="M 311.584,537.039 311.584,520.935 z" id="boundary" inkscape:connector-curvature="0" />
	<path style="fill:none;stroke:red;stroke-width:1px;stroke-linecap:butt;stroke-linejoin:miter;stroke-opacity:1" d="M 303.532,553.143 311.584,537.039 z" id="boundary" inkscape:connector-curvature="0" />
	<path style="fill:none;stroke:red;stroke-width:1px;stroke-linecap:butt;stroke-linejoin:miter;stroke-opacity:1" d="M 303.532,577.299 303.532,553.143 z" id="boundary" inkscape:connector-curvature="0" />
	<path style="fill:none;stroke:red;stroke-width:1px;stroke-linecap:butt;stroke-linejoin:miter;stroke-opacity:1" d="M 303.532,577.299 298.701,599.844 z" id="boundary" inkscape:connector-curvature="0" />
	<path style="fill:none;stroke:red;stroke-width:1px;stroke-linecap:butt;stroke-linejoin:miter;stroke-opacity:1" d="M 327.688,524.156 342.182,532.208 z" id="boundary" inkscape:connector-curvature="0" />
	<path style="fill:none;stroke:red;stroke-width:1px;stroke-linecap:butt;stroke-linejoin:miter;stroke-opacity:1" d="M 342.182,532.208 350.234,546.701 z" id="boundary" inkscape:connector-curvature="0" />
	<path style="fill:none;stroke:red;stroke-width:1px;stroke-linecap:butt;stroke-linejoin:miter;stroke-opacity:1" d="M 358.286,561.195 350.234,546.701 z" id="boundary" inkscape:connector-curvature="0" />
	<path style="fill:none;stroke:red;stroke-width:1px;stroke-linecap:butt;stroke-linejoin:miter;stroke-opacity:1" d="M 395.325,593.403 380.831,585.351 z" id="boundary" inkscape:connector-curvature="0" />
	<path style="fill:none;stroke:red;stroke-width:1px;stroke-linecap:butt;stroke-linejoin:miter;stroke-opacity:1" d="M 380.831,585.351 367.948,574.078 z" id="boundary" inkscape:connector-curvature="0" />
	<path style="fill:none;stroke:red;stroke-width:1px;stroke-linecap:butt;stroke-linejoin:miter;stroke-opacity:1" d="M 367.948,574.078 358.286,561.195 z" id="boundary" inkscape:connector-curvature="0" />
	<path style="fill:none;stroke:red;stroke-width:1px;stroke-linecap:butt;stroke-linejoin:miter;stroke-opacity:1" d="M 290.649,615.948 298.701,599.844 z" id="boundary" inkscape:connector-curvature="0" />
	<path style="fill:none;stroke:red;stroke-width:1px;stroke-linecap:butt;stroke-linejoin:miter;stroke-opacity:1" d="M 395.325,593.403 409.818,601.455 z" id="boundary" inkscape:connector-curvature="0" />
	<path style="fill:none;stroke:red;stroke-width:1px;stroke-linecap:butt;stroke-linejoin:miter;stroke-opacity:1" d="M 425.922,606.286 409.818,601.455 z" id="boundary" inkscape:connector-curvature="0" />
	<path style="fill:none;stroke:red;stroke-width:1px;stroke-linecap:butt;stroke-linejoin:miter;stroke-opacity:1" d="M 425.922,606.286 438.805,617.558 z" id="boundary" inkscape:connector-curvature="0" />
	<path style="fill:none;stroke:red;stroke-width:1px;stroke-linecap:butt;stroke-linejoin:miter;stroke-opacity:1" d="M 454.909,617.558 438.805,617.558 z" id="boundary" inkscape:connector-curvature="0" />
	<path style="fill:none;stroke:red;stroke-width:1px;stroke-linecap:butt;stroke-linejoin:miter;stroke-opacity:1" d="M 471.013,617.558 454.909,617.558 z" id="boundary" inkscape:connector-curvature="0" />
	<path style="fill:none;stroke:red;stroke-width:1px;stroke-linecap:butt;stroke-linejoin:miter;stroke-opacity:1" d="M 487.117,617.558 471.013,617.558 z" id="boundary" inkscape:connector-curvature="0" />
	<path style="fill:none;stroke:red;stroke-width:1px;stroke-linecap:butt;stroke-linejoin:miter;stroke-opacity:1" d="M 519.325,617.558 503.221,617.558 z" id="boundary" inkscape:connector-curvature="0" />
	<path style="fill:none;stroke:red;stroke-width:1px;stroke-linecap:butt;stroke-linejoin:miter;stroke-opacity:1" d="M 535.429,617.558 519.325,617.558 z" id="boundary" inkscape:connector-curvature="0" />
	<path style="fill:none;stroke:red;stroke-width:1px;stroke-linecap:butt;stroke-linejoin:miter;stroke-opacity:1" d="M 503.221,617.558 487.117,617.558 z" id="boundary" inkscape:connector-curvature="0" />
	<path style="fill:none;stroke:red;stroke-width:1px;stroke-linecap:butt;stroke-linejoin:miter;stroke-opacity:1" d="M 566.026,609.506 551.532,617.558 z" id="boundary" inkscape:connector-curvature="0" />
	<path style="fill:none;stroke:red;stroke-width:1px;stroke-linecap:butt;stroke-linejoin:miter;stroke-opacity:1" d="M 551.532,617.558 535.429,617.558 z" id="boundary" inkscape:connector-curvature="0" />
	<path style="fill:none;stroke:red;stroke-width:1px;stroke-linecap:butt;stroke-linejoin:miter;stroke-opacity:1" d="M 569.247,44.2597 583.74,52.3117 z" id="boundary" inkscape:connector-curvature="0" />
	<path style="fill:none;stroke:red;stroke-width:1px;stroke-linecap:butt;stroke-linejoin:miter;stroke-opacity:1" d="M 569.247,44.2597 554.753,36.2078 z" id="boundary" inkscape:connector-curvature="0" />
	<path style="fill:none;stroke:red;stroke-width:1px;stroke-linecap:butt;stroke-linejoin:miter;stroke-opacity:1" d="M 598.234,60.3636 612.727,68.4156 z" id="boundary" inkscape:connector-curvature="0" />
	<path style="fill:none;stroke:red;stroke-width:1px;stroke-linecap:butt;stroke-linejoin:miter;stroke-opacity:1" d="M 598.234,60.3636 583.74,52.3117 z" id="boundary" inkscape:connector-curvature="0" />
	<path style="fill:none;stroke:red;stroke-width:1px;stroke-linecap:butt;stroke-linejoin:miter;stroke-opacity:1" d="M 628.831,68.4156 612.727,68.4156 z" id="boundary" inkscape:connector-curvature="0" />
	<path style="fill:none;stroke:red;stroke-width:1px;stroke-linecap:butt;stroke-linejoin:miter;stroke-opacity:1" d="M 667.481,100.623 652.987,92.5714 z" id="boundary" inkscape:connector-curvature="0" />
	<path style="fill:none;stroke:red;stroke-width:1px;stroke-linecap:butt;stroke-linejoin:miter;stroke-opacity:1" d="M 652.987,92.5714 640.104,81.2987 z" id="boundary" inkscape:connector-curvature="0" />
	<path style="fill:none;stroke:red;stroke-width:1px;stroke-linecap:butt;stroke-linejoin:miter;stroke-opacity:1" d="M 640.104,81.2987 628.831,68.4156 z" id="boundary" inkscape:connector-curvature="0" />
	<path style="fill:none;stroke:red;stroke-width:1px;stroke-linecap:butt;stroke-linejoin:miter;stroke-opacity:1" d="M 667.481,100.623 681.974,108.675 z" id="boundary" inkscape:connector-curvature="0" />
	<path style="fill:none;stroke:red;stroke-width:1px;stroke-linecap:butt;stroke-linejoin:miter;stroke-opacity:1" d="M 694.857,118.338 681.974,108.675 z" id="boundary" inkscape:connector-curvature="0" />
	<path style="fill:none;stroke:red;stroke-width:1px;stroke-linecap:butt;stroke-linejoin:miter;stroke-opacity:1" d="M 694.857,118.338 701.299,134.442 z" id="boundary" inkscape:connector-curvature="0" />
	<path style="fill:none;stroke:red;stroke-width:1px;stroke-linecap:butt;stroke-linejoin:miter;stroke-opacity:1" d="M 714.182,145.714 701.299,134.442 z" id="boundary" inkscape:connector-curvature="0" />
	<path style="fill:none;stroke:red;stroke-width:1px;stroke-linecap:butt;stroke-linejoin:miter;stroke-opacity:1" d="M 728.675,153.766 714.182,145.714 z" id="boundary" inkscape:connector-curvature="0" />
	<path style="fill:none;stroke:red;stroke-width:1px;stroke-linecap:butt;stroke-linejoin:miter;stroke-opacity:1" d="M 722.234,319.636 722.234,303.532 z" id="boundary" inkscape:connector-curvature="0" />
	<path style="fill:none;stroke:red;stroke-width:1px;stroke-linecap:butt;stroke-linejoin:miter;stroke-opacity:1" d="M 738.338,326.078 722.234,319.636 z" id="boundary" inkscape:connector-curvature="0" />
	<path style="fill:none;stroke:red;stroke-width:1px;stroke-linecap:butt;stroke-linejoin:miter;stroke-opacity:1" d="M 735.117,292.26 722.234,303.532 z" id="boundary" inkscape:connector-curvature="0" />
	<path style="fill:none;stroke:red;stroke-width:1px;stroke-linecap:butt;stroke-linejoin:miter;stroke-opacity:1" d="M 728.675,153.766 736.727,168.26 z" id="boundary" inkscape:connector-curvature="0" />
	<path style="fill:none;stroke:red;stroke-width:1px;stroke-linecap:butt;stroke-linejoin:miter;stroke-opacity:1" d="M 748,197.247 738.338,184.364 z" id="boundary" inkscape:connector-curvature="0" />
	<path style="fill:none;stroke:red;stroke-width:1px;stroke-linecap:butt;stroke-linejoin:miter;stroke-opacity:1" d="M 738.338,184.364 736.727,168.26 z" id="boundary" inkscape:connector-curvature="0" />
	<path style="fill:none;stroke:red;stroke-width:1px;stroke-linecap:butt;stroke-linejoin:miter;stroke-opacity:1" d="M 760.883,208.519 748,197.247 z" id="boundary" inkscape:connector-curvature="0" />
	<path style="fill:none;stroke:red;stroke-width:1px;stroke-linecap:butt;stroke-linejoin:miter;stroke-opacity:1" d="M 746.39,279.377 735.117,292.26 z" id="boundary" inkscape:connector-curvature="0" />
	<path style="fill:none;stroke:red;stroke-width:1px;stroke-linecap:butt;stroke-linejoin:miter;stroke-opacity:1" d="M 762.494,240.727 759.273,268.104 z" id="boundary" inkscape:connector-curvature="0" />
	<path style="fill:none;stroke:red;stroke-width:1px;stroke-linecap:butt;stroke-linejoin:miter;stroke-opacity:1" d="M 759.273,268.104 746.39,279.377 z" id="boundary" inkscape:connector-curvature="0" />
	<path style="fill:none;stroke:red;stroke-width:1px;stroke-linecap:butt;stroke-linejoin:miter;stroke-opacity:1" d="M 760.883,208.519 762.494,224.623 z" id="boundary" inkscape:connector-curvature="0" />
	<path style="fill:none;stroke:red;stroke-width:1px;stroke-linecap:butt;stroke-linejoin:miter;stroke-opacity:1" d="M 875.221,240.727 863.948,253.61 z" id="boundary" inkscape:connector-curvature="0" />
	<path style="fill:none;stroke:red;stroke-width:1px;stroke-linecap:butt;stroke-linejoin:miter;stroke-opacity:1" d="M 762.494,240.727 762.494,224.623 z" id="boundary" inkscape:connector-curvature="0" />
	<path style="fill:none;stroke:red;stroke-width:1px;stroke-linecap:butt;stroke-linejoin:miter;stroke-opacity:1" d="M 905.818,226.234 891.325,237.506 z" id="boundary" inkscape:connector-curvature="0" />
	<path style="fill:none;stroke:red;stroke-width:1px;stroke-linecap:butt;stroke-linejoin:miter;stroke-opacity:1" d="M 891.325,237.506 875.221,240.727 z" id="boundary" inkscape:connector-curvature="0" />
	<path style="fill:none;stroke:red;stroke-width:1px;stroke-linecap:butt;stroke-linejoin:miter;stroke-opacity:1" d="M 938.026,221.403 952.519,213.351 z" id="boundary" inkscape:connector-curvature="0" />
	<path style="fill:none;stroke:red;stroke-width:1px;stroke-linecap:butt;stroke-linejoin:miter;stroke-opacity:1" d="M 968.623,213.351 952.519,213.351 z" id="boundary" inkscape:connector-curvature="0" />
	<path style="fill:none;stroke:red;stroke-width:1px;stroke-linecap:butt;stroke-linejoin:miter;stroke-opacity:1" d="M 984.727,213.351 968.623,213.351 z" id="boundary" inkscape:connector-curvature="0" />
	<path style="fill:none;stroke:red;stroke-width:1px;stroke-linecap:butt;stroke-linejoin:miter;stroke-opacity:1" d="M 921.922,221.403 938.026,221.403 z" id="boundary" inkscape:connector-curvature="0" />
	<path style="fill:none;stroke:red;stroke-width:1px;stroke-linecap:butt;stroke-linejoin:miter;stroke-opacity:1" d="M 905.818,226.234 921.922,221.403 z" id="boundary" inkscape:connector-curvature="0" />
	<path style="fill:none;stroke:red;stroke-width:1px;stroke-linecap:butt;stroke-linejoin:miter;stroke-opacity:1" d="M 984.727,213.351 996,226.234 z" id="boundary" inkscape:connector-curvature="0" />
	<path style="fill:none;stroke:red;stroke-width:1px;stroke-linecap:butt;stroke-linejoin:miter;stroke-opacity:1" d="M 996,226.234 984.727,243.948 z" id="boundary" inkscape:connector-curvature="0" />
	<path style="fill:none;stroke:red;stroke-width:1px;stroke-linecap:butt;stroke-linejoin:miter;stroke-opacity:1" d="M 839.792,277.766 826.909,289.039 z" id="boundary" inkscape:connector-curvature="0" />
	<path style="fill:none;stroke:red;stroke-width:1px;stroke-linecap:butt;stroke-linejoin:miter;stroke-opacity:1" d="M 826.909,289.039 810.805,297.091 z" id="boundary" inkscape:connector-curvature="0" />
	<path style="fill:none;stroke:red;stroke-width:1px;stroke-linecap:butt;stroke-linejoin:miter;stroke-opacity:1" d="M 839.792,277.766 851.065,264.883 z" id="boundary" inkscape:connector-curvature="0" />
	<path style="fill:none;stroke:red;stroke-width:1px;stroke-linecap:butt;stroke-linejoin:miter;stroke-opacity:1" d="M 810.805,297.091 802.753,313.195 z" id="boundary" inkscape:connector-curvature="0" />
	<path style="fill:none;stroke:red;stroke-width:1px;stroke-linecap:butt;stroke-linejoin:miter;stroke-opacity:1" d="M 802.753,313.195 786.649,321.247 z" id="boundary" inkscape:connector-curvature="0" />
	<path style="fill:none;stroke:red;stroke-width:1px;stroke-linecap:butt;stroke-linejoin:miter;stroke-opacity:1" d="M 976.675,260.052 968.623,276.156 z" id="boundary" inkscape:connector-curvature="0" />
	<path style="fill:none;stroke:red;stroke-width:1px;stroke-linecap:butt;stroke-linejoin:miter;stroke-opacity:1" d="M 984.727,243.948 976.675,260.052 z" id="boundary" inkscape:connector-curvature="0" />
	<path style="fill:none;stroke:red;stroke-width:1px;stroke-linecap:butt;stroke-linejoin:miter;stroke-opacity:1" d="M 955.74,287.429 968.623,276.156 z" id="boundary" inkscape:connector-curvature="0" />
	<path style="fill:none;stroke:red;stroke-width:1px;stroke-linecap:butt;stroke-linejoin:miter;stroke-opacity:1" d="M 955.74,303.532 955.74,287.429 z" id="boundary" inkscape:connector-curvature="0" />
	<path style="fill:none;stroke:red;stroke-width:1px;stroke-linecap:butt;stroke-linejoin:miter;stroke-opacity:1" d="M 851.065,264.883 863.948,253.61 z" id="boundary" inkscape:connector-curvature="0" />
	<path style="fill:none;stroke:red;stroke-width:1px;stroke-linecap:butt;stroke-linejoin:miter;stroke-opacity:1" d="M 955.74,303.532 947.688,327.688 z" id="boundary" inkscape:connector-curvature="0" />
	<path style="fill:none;stroke:red;stroke-width:1px;stroke-linecap:butt;stroke-linejoin:miter;stroke-opacity:1" d="M 786.649,321.247 770.545,326.078 z" id="boundary" inkscape:connector-curvature="0" />
	<path style="fill:none;stroke:red;stroke-width:1px;stroke-linecap:butt;stroke-linejoin:miter;stroke-opacity:1" d="M 706.13,424.312 720.623,416.26 z" id="boundary" inkscape:connector-curvature="0" />
	<path style="fill:none;stroke:red;stroke-width:1px;stroke-linecap:butt;stroke-linejoin:miter;stroke-opacity:1" d="M 706.13,440.416 706.13,424.312 z" id="boundary" inkscape:connector-curvature="0" />
	<path style="fill:none;stroke:red;stroke-width:1px;stroke-linecap:butt;stroke-linejoin:miter;stroke-opacity:1" d="M 714.182,454.909 706.13,440.416 z" id="boundary" inkscape:connector-curvature="0" />
	<path style="fill:none;stroke:red;stroke-width:1px;stroke-linecap:butt;stroke-linejoin:miter;stroke-opacity:1" d="M 727.065,464.571 714.182,454.909 z" id="boundary" inkscape:connector-curvature="0" />
	<path style="fill:none;stroke:red;stroke-width:1px;stroke-linecap:butt;stroke-linejoin:miter;stroke-opacity:1" d="M 720.623,416.26 736.727,416.26 z" id="boundary" inkscape:connector-curvature="0" />
	<path style="fill:none;stroke:red;stroke-width:1px;stroke-linecap:butt;stroke-linejoin:miter;stroke-opacity:1" d="M 751.221,424.312 736.727,416.26 z" id="boundary" inkscape:connector-curvature="0" />
	<path style="fill:none;stroke:red;stroke-width:1px;stroke-linecap:butt;stroke-linejoin:miter;stroke-opacity:1" d="M 738.338,326.078 754.442,326.078 z" id="boundary" inkscape:connector-curvature="0" />
	<path style="fill:none;stroke:red;stroke-width:1px;stroke-linecap:butt;stroke-linejoin:miter;stroke-opacity:1" d="M 738.338,477.455 727.065,464.571 z" id="boundary" inkscape:connector-curvature="0" />
	<path style="fill:none;stroke:red;stroke-width:1px;stroke-linecap:butt;stroke-linejoin:miter;stroke-opacity:1" d="M 738.338,493.558 730.286,512.883 z" id="boundary" inkscape:connector-curvature="0" />
	<path style="fill:none;stroke:red;stroke-width:1px;stroke-linecap:butt;stroke-linejoin:miter;stroke-opacity:1" d="M 738.338,477.455 738.338,493.558 z" id="boundary" inkscape:connector-curvature="0" />
	<path style="fill:none;stroke:red;stroke-width:1px;stroke-linecap:butt;stroke-linejoin:miter;stroke-opacity:1" d="M 727.065,533.818 730.286,512.883 z" id="boundary" inkscape:connector-curvature="0" />
	<path style="fill:none;stroke:red;stroke-width:1px;stroke-linecap:butt;stroke-linejoin:miter;stroke-opacity:1" d="M 751.221,424.312 765.714,432.364 z" id="boundary" inkscape:connector-curvature="0" />
	<path style="fill:none;stroke:red;stroke-width:1px;stroke-linecap:butt;stroke-linejoin:miter;stroke-opacity:1" d="M 612.727,601.455 596.623,601.455 z" id="boundary" inkscape:connector-curvature="0" />
	<path style="fill:none;stroke:red;stroke-width:1px;stroke-linecap:butt;stroke-linejoin:miter;stroke-opacity:1" d="M 628.831,599.844 641.714,585.351 z" id="boundary" inkscape:connector-curvature="0" />
	<path style="fill:none;stroke:red;stroke-width:1px;stroke-linecap:butt;stroke-linejoin:miter;stroke-opacity:1" d="M 641.714,585.351 656.208,577.299 z" id="boundary" inkscape:connector-curvature="0" />
	<path style="fill:none;stroke:red;stroke-width:1px;stroke-linecap:butt;stroke-linejoin:miter;stroke-opacity:1" d="M 628.831,599.844 612.727,601.455 z" id="boundary" inkscape:connector-curvature="0" />
	<path style="fill:none;stroke:red;stroke-width:1px;stroke-linecap:butt;stroke-linejoin:miter;stroke-opacity:1" d="M 596.623,601.455 582.13,609.506 z" id="boundary" inkscape:connector-curvature="0" />
	<path style="fill:none;stroke:red;stroke-width:1px;stroke-linecap:butt;stroke-linejoin:miter;stroke-opacity:1" d="M 582.13,609.506 566.026,609.506 z" id="boundary" inkscape:connector-curvature="0" />
	<path style="fill:none;stroke:red;stroke-width:1px;stroke-linecap:butt;stroke-linejoin:miter;stroke-opacity:1" d="M 701.299,559.584 714.182,545.091 z" id="boundary" inkscape:connector-curvature="0" />
	<path style="fill:none;stroke:red;stroke-width:1px;stroke-linecap:butt;stroke-linejoin:miter;stroke-opacity:1" d="M 714.182,545.091 727.065,533.818 z" id="boundary" inkscape:connector-curvature="0" />
	<path style="fill:none;stroke:red;stroke-width:1px;stroke-linecap:butt;stroke-linejoin:miter;stroke-opacity:1" d="M 701.299,559.584 685.195,561.195 z" id="boundary" inkscape:connector-curvature="0" />
	<path style="fill:none;stroke:red;stroke-width:1px;stroke-linecap:butt;stroke-linejoin:miter;stroke-opacity:1" d="M 685.195,561.195 672.312,572.468 z" id="boundary" inkscape:connector-curvature="0" />
	<path style="fill:none;stroke:red;stroke-width:1px;stroke-linecap:butt;stroke-linejoin:miter;stroke-opacity:1" d="M 672.312,572.468 656.208,577.299 z" id="boundary" inkscape:connector-curvature="0" />
	<path style="fill:none;stroke:red;stroke-width:1px;stroke-linecap:butt;stroke-linejoin:miter;stroke-opacity:1" d="M 770.545,326.078 754.442,326.078 z" id="boundary" inkscape:connector-curvature="0" />
	<path style="fill:none;stroke:red;stroke-width:1px;stroke-linecap:butt;stroke-linejoin:miter;stroke-opacity:1" d="M 939.636,351.844 939.636,367.948 z" id="boundary" inkscape:connector-curvature="0" />
	<path style="fill:none;stroke:red;stroke-width:1px;stroke-linecap:butt;stroke-linejoin:miter;stroke-opacity:1" d="M 796.312,437.195 780.208,440.416 z" id="boundary" inkscape:connector-curvature="0" />
	<path style="fill:none;stroke:red;stroke-width:1px;stroke-linecap:butt;stroke-linejoin:miter;stroke-opacity:1" d="M 780.208,440.416 765.714,432.364 z" id="boundary" inkscape:connector-curvature="0" />
	<path style="fill:none;stroke:red;stroke-width:1px;stroke-linecap:butt;stroke-linejoin:miter;stroke-opacity:1" d="M 796.312,437.195 810.805,445.247 z" id="boundary" inkscape:connector-curvature="0" />
	<path style="fill:none;stroke:red;stroke-width:1px;stroke-linecap:butt;stroke-linejoin:miter;stroke-opacity:1" d="M 939.636,384.052 939.636,367.948 z" id="boundary" inkscape:connector-curvature="0" />
	<path style="fill:none;stroke:red;stroke-width:1px;stroke-linecap:butt;stroke-linejoin:miter;stroke-opacity:1" d="M 939.636,351.844 947.688,327.688 z" id="boundary" inkscape:connector-curvature="0" />
	<path style="fill:none;stroke:red;stroke-width:1px;stroke-linecap:butt;stroke-linejoin:miter;stroke-opacity:1" d="M 955.74,427.532 942.857,416.26 z" id="boundary" inkscape:connector-curvature="0" />
	<path style="fill:none;stroke:red;stroke-width:1px;stroke-linecap:butt;stroke-linejoin:miter;stroke-opacity:1" d="M 942.857,416.26 939.636,400.156 z" id="boundary" inkscape:connector-curvature="0" />
	<path style="fill:none;stroke:red;stroke-width:1px;stroke-linecap:butt;stroke-linejoin:miter;stroke-opacity:1" d="M 939.636,400.156 939.636,384.052 z" id="boundary" inkscape:connector-curvature="0" />
	<path style="fill:none;stroke:red;stroke-width:1px;stroke-linecap:butt;stroke-linejoin:miter;stroke-opacity:1" d="M 963.792,442.026 955.74,427.532 z" id="boundary" inkscape:connector-curvature="0" />
	<path style="fill:none;stroke:red;stroke-width:1px;stroke-linecap:butt;stroke-linejoin:miter;stroke-opacity:1" d="M 843.013,456.519 826.909,451.688 z" id="boundary" inkscape:connector-curvature="0" />
	<path style="fill:none;stroke:red;stroke-width:1px;stroke-linecap:butt;stroke-linejoin:miter;stroke-opacity:1" d="M 826.909,451.688 810.805,445.247 z" id="boundary" inkscape:connector-curvature="0" />
	<path style="fill:none;stroke:red;stroke-width:1px;stroke-linecap:butt;stroke-linejoin:miter;stroke-opacity:1" d="M 843.013,456.519 857.506,464.571 z" id="boundary" inkscape:connector-curvature="0" />
	<path style="fill:none;stroke:red;stroke-width:1px;stroke-linecap:butt;stroke-linejoin:miter;stroke-opacity:1" d="M 888.104,472.623 872,472.623 z" id="boundary" inkscape:connector-curvature="0" />
	<path style="fill:none;stroke:red;stroke-width:1px;stroke-linecap:butt;stroke-linejoin:miter;stroke-opacity:1" d="M 872,472.623 857.506,464.571 z" id="boundary" inkscape:connector-curvature="0" />
	<path style="fill:none;stroke:red;stroke-width:1px;stroke-linecap:butt;stroke-linejoin:miter;stroke-opacity:1" d="M 904.208,472.623 888.104,472.623 z" id="boundary" inkscape:connector-curvature="0" />
	<path style="fill:none;stroke:red;stroke-width:1px;stroke-linecap:butt;stroke-linejoin:miter;stroke-opacity:1" d="M 965.403,472.623 963.792,442.026 z" id="boundary" inkscape:connector-curvature="0" />
	<path style="fill:none;stroke:red;stroke-width:1px;stroke-linecap:butt;stroke-linejoin:miter;stroke-opacity:1" d="M 965.403,472.623 950.909,480.675 z" id="boundary" inkscape:connector-curvature="0" />
	<path style="fill:none;stroke:red;stroke-width:1px;stroke-linecap:butt;stroke-linejoin:miter;stroke-opacity:1" d="M 918.701,480.675 934.805,480.675 z" id="boundary" inkscape:connector-curvature="0" />
	<path style="fill:none;stroke:red;stroke-width:1px;stroke-linecap:butt;stroke-linejoin:miter;stroke-opacity:1" d="M 918.701,480.675 904.208,472.623 z" id="boundary" inkscape:connector-curvature="0" />
	<path style="fill:none;stroke:red;stroke-width:1px;stroke-linecap:butt;stroke-linejoin:miter;stroke-opacity:1" d="M 950.909,480.675 934.805,480.675 z" id="boundary" inkscape:connector-curvature="0" />
	<circle cx="4" cy="290.649" r="4" fill="#0" id="circle0"/>
	<circle cx="4" cy="306.753" r="4" fill="#0" id="circle1"/>
	<circle cx="12.0519" cy="321.247" r="4" fill="#0" id="circle2"/>
	<circle cx="16.8831" cy="277.766" r="4" fill="#0" id="circle3"/>
	<circle cx="20.1039" cy="293.87" r="4" fill="#0" id="circle4"/>
	<circle cx="23.3247" cy="334.13" r="4" fill="#0" id="circle5"/>
	<circle cx="28.1558" cy="258.442" r="4" fill="#0" id="circle6"/>
	<circle cx="28.1558" cy="350.234" r="4" fill="#0" id="circle7"/>
	<circle cx="31.3766" cy="366.338" r="4" fill="#0" id="circle8"/>
	<circle cx="44.2597" cy="250.39" r="4" fill="#0" id="circle9"/>
	<circle cx="47.4805" cy="372.779" r="4" fill="#0" id="circle10"/>
	<circle cx="52.3117" cy="234.286" r="4" fill="#0" id="circle11"/>
	<circle cx="60.3636" cy="218.182" r="4" fill="#0" id="circle12"/>
	<circle cx="60.3636" cy="384.052" r="4" fill="#0" id="circle13"/>
	<circle cx="70.026" cy="396.935" r="4" fill="#0" id="circle14"/>
	<circle cx="73.2468" cy="205.299" r="4" fill="#0" id="circle15"/>
	<circle cx="84.5195" cy="185.974" r="4" fill="#0" id="circle16"/>
	<circle cx="86.1299" cy="400.156" r="4" fill="#0" id="circle17"/>
	<circle cx="97.4026" cy="173.091" r="4" fill="#0" id="circle18"/>
	<circle cx="100.623" cy="408.208" r="4" fill="#0" id="circle19"/>
	<circle cx="105.455" cy="424.312" r="4" fill="#0" id="circle20"/>
	<circle cx="113.506" cy="173.091" r="4" fill="#0" id="circle21"/>
	<circle cx="121.558" cy="430.753" r="4" fill="#0" id="circle22"/>
	<circle cx="126.39" cy="160.208" r="4" fill="#0" id="circle23"/>
	<circle cx="136.052" cy="438.805" r="4" fill="#0" id="circle24"/>
	<circle cx="139.273" cy="148.935" r="4" fill="#0" id="circle25"/>
	<circle cx="150.545" cy="136.052" r="4" fill="#0" id="circle26"/>
	<circle cx="152.156" cy="445.247" r="4" fill="#0" id="circle27"/>
	<circle cx="163.429" cy="124.779" r="4" fill="#0" id="circle28"/>
	<circle cx="165.039" cy="456.519" r="4" fill="#0" id="circle29"/>
	<circle cx="174.701" cy="469.403" r="4" fill="#0" id="circle30"/>
	<circle cx="177.922" cy="116.727" r="4" fill="#0" id="circle31"/>
	<circle cx="190.805" cy="475.844" r="4" fill="#0" id="circle32"/>
	<circle cx="192.416" cy="108.675" r="4" fill="#0" id="circle33"/>
	<circle cx="200.468" cy="94.1818" r="4" fill="#0" id="circle34"/>
	<circle cx="205.299" cy="483.896" r="4" fill="#0" id="circle35"/>
	<circle cx="216.571" cy="86.1299" r="4" fill="#0" id="circle36"/>
	<circle cx="221.403" cy="488.727" r="4" fill="#0" id="circle37"/>
	<circle cx="226.234" cy="504.831" r="4" fill="#0" id="circle38"/>
	<circle cx="229.455" cy="73.2468" r="4" fill="#0" id="circle39"/>
	<circle cx="237.506" cy="517.714" r="4" fill="#0" id="circle40"/>
	<circle cx="237.506" cy="533.818" r="4" fill="#0" id="circle41"/>
	<circle cx="239.117" cy="549.922" r="4" fill="#0" id="circle42"/>
	<circle cx="242.338" cy="60.3636" r="4" fill="#0" id="circle43"/>
	<circle cx="252" cy="561.195" r="4" fill="#0" id="circle44"/>
	<circle cx="253.61" cy="577.299" r="4" fill="#0" id="circle45"/>
	<circle cx="253.61" cy="593.403" r="4" fill="#0" id="circle46"/>
	<circle cx="255.221" cy="47.4805" r="4" fill="#0" id="circle47"/>
	<circle cx="268.104" cy="601.455" r="4" fill="#0" id="circle48"/>
	<circle cx="271.325" cy="44.2597" r="4" fill="#0" id="circle49"/>
	<circle cx="274.545" cy="617.558" r="4" fill="#0" id="circle50"/>
	<circle cx="285.818" cy="24.9351" r="4" fill="#0" id="circle51"/>
	<circle cx="290.649" cy="615.948" r="4" fill="#0" id="circle52"/>
	<circle cx="298.701" cy="599.844" r="4" fill="#0" id="circle53"/>
	<circle cx="301.922" cy="20.1039" r="4" fill="#0" id="circle54"/>
	<circle cx="303.532" cy="553.143" r="4" fill="#0" id="circle55"/>
	<circle cx="303.532" cy="577.299" r="4" fill="#0" id="circle56"/>
	<circle cx="311.584" cy="520.935" r="4" fill="#0" id="circle57"/>
	<circle cx="311.584" cy="537.039" r="4" fill="#0" id="circle58"/>
	<circle cx="318.026" cy="20.1039" r="4" fill="#0" id="circle59"/>
	<circle cx="327.688" cy="524.156" r="4" fill="#0" id="circle60"/>
	<circle cx="332.519" cy="12.0519" r="4" fill="#0" id="circle61"/>
	<circle cx="342.182" cy="532.208" r="4" fill="#0" id="circle62"/>
	<circle cx="348.623" cy="12.0519" r="4" fill="#0" id="circle63"/>
	<circle cx="350.234" cy="546.701" r="4" fill="#0" id="circle64"/>
	<circle cx="358.286" cy="561.195" r="4" fill="#0" id="circle65"/>
	<circle cx="364.727" cy="12.0519" r="4" fill="#0" id="circle66"/>
	<circle cx="367.948" cy="574.078" r="4" fill="#0" id="circle67"/>
	<circle cx="380.831" cy="12.0519" r="4" fill="#0" id="circle68"/>
	<circle cx="380.831" cy="585.351" r="4" fill="#0" id="circle69"/>
	<circle cx="395.325" cy="593.403" r="4" fill="#0" id="circle70"/>
	<circle cx="396.935" cy="12.0519" r="4" fill="#0" id="circle71"/>
	<circle cx="409.818" cy="601.455" r="4" fill="#0" id="circle72"/>
	<circle cx="413.039" cy="12.0519" r="4" fill="#0" id="circle73"/>
	<circle cx="425.922" cy="606.286" r="4" fill="#0" id="circle74"/>
	<circle cx="427.532" cy="4" r="4" fill="#0" id="circle75"/>
	<circle cx="438.805" cy="16.8831" r="4" fill="#0" id="circle76"/>
	<circle cx="438.805" cy="617.558" r="4" fill="#0" id="circle77"/>
	<circle cx="454.909" cy="15.2727" r="4" fill="#0" id="circle78"/>
	<circle cx="454.909" cy="617.558" r="4" fill="#0" id="circle79"/>
	<circle cx="464.571" cy="28.1558" r="4" fill="#0" id="circle80"/>
	<circle cx="471.013" cy="617.558" r="4" fill="#0" id="circle81"/>
	<circle cx="480.675" cy="24.9351" r="4" fill="#0" id="circle82"/>
	<circle cx="487.117" cy="617.558" r="4" fill="#0" id="circle83"/>
	<circle cx="493.558" cy="36.2078" r="4" fill="#0" id="circle84"/>
	<circle cx="503.221" cy="617.558" r="4" fill="#0" id="circle85"/>
	<circle cx="508.052" cy="28.1558" r="4" fill="#0" id="circle86"/>
	<circle cx="519.325" cy="617.558" r="4" fill="#0" id="circle87"/>
	<circle cx="522.545" cy="36.2078" r="4" fill="#0" id="circle88"/>
	<circle cx="535.429" cy="617.558" r="4" fill="#0" id="circle89"/>
	<circle cx="538.649" cy="36.2078" r="4" fill="#0" id="circle90"/>
	<circle cx="551.532" cy="617.558" r="4" fill="#0" id="circle91"/>
	<circle cx="554.753" cy="36.2078" r="4" fill="#0" id="circle92"/>
	<circle cx="566.026" cy="609.506" r="4" fill="#0" id="circle93"/>
	<circle cx="569.247" cy="44.2597" r="4" fill="#0" id="circle94"/>
	<circle cx="582.13" cy="609.506" r="4" fill="#0" id="circle95"/>
	<circle cx="583.74" cy="52.3117" r="4" fill="#0" id="circle96"/>
	<circle cx="596.623" cy="601.455" r="4" fill="#0" id="circle97"/>
	<circle cx="598.234" cy="60.3636" r="4" fill="#0" id="circle98"/>
	<circle cx="612.727" cy="68.4156" r="4" fill="#0" id="circle99"/>
	<circle cx="612.727" cy="601.455" r="4" fill="#0" id="circle100"/>
	<circle cx="628.831" cy="68.4156" r="4" fill="#0" id="circle101"/>
	<circle cx="628.831" cy="599.844" r="4" fill="#0" id="circle102"/>
	<circle cx="640.104" cy="81.2987" r="4" fill="#0" id="circle103"/>
	<circle cx="641.714" cy="585.351" r="4" fill="#0" id="circle104"/>
	<circle cx="652.987" cy="92.5714" r="4" fill="#0" id="circle105"/>
	<circle cx="656.208" cy="577.299" r="4" fill="#0" id="circle106"/>
	<circle cx="667.481" cy="100.623" r="4" fill="#0" id="circle107"/>
	<circle cx="672.312" cy="572.468" r="4" fill="#0" id="circle108"/>
	<circle cx="681.974" cy="108.675" r="4" fill="#0" id="circle109"/>
	<circle cx="685.195" cy="561.195" r="4" fill="#0" id="circle110"/>
	<circle cx="694.857" cy="118.338" r="4" fill="#0" id="circle111"/>
	<circle cx="701.299" cy="134.442" r="4" fill="#0" id="circle112"/>
	<circle cx="701.299" cy="559.584" r="4" fill="#0" id="circle113"/>
	<circle cx="706.13" cy="424.312" r="4" fill="#0" id="circle114"/>
	<circle cx="706.13" cy="440.416" r="4" fill="#0" id="circle115"/>
	<circle cx="714.182" cy="145.714" r="4" fill="#0" id="circle116"/>
	<circle cx="714.182" cy="454.909" r="4" fill="#0" id="circle117"/>
	<circle cx="714.182" cy="545.091" r="4" fill="#0" id="circle118"/>
	<circle cx="720.623" cy="416.26" r="4" fill="#0" id="circle119"/>
	<circle cx="722.234" cy="303.532" r="4" fill="#0" id="circle120"/>
	<circle cx="722.234" cy="319.636" r="4" fill="#0" id="circle121"/>
	<circle cx="727.065" cy="464.571" r="4" fill="#0" id="circle122"/>
	<circle cx="727.065" cy="533.818" r="4" fill="#0" id="circle123"/>
	<circle cx="728.675" cy="153.766" r="4" fill="#0" id="circle124"/>
	<circle cx="730.286" cy="512.883" r="4" fill="#0" id="circle125"/>
	<circle cx="735.117" cy="292.26" r="4" fill="#0" id="circle126"/>
	<circle cx="736.727" cy="168.26" r="4" fill="#0" id="circle127"/>
	<circle cx="736.727" cy="416.26" r="4" fill="#0" id="circle128"/>
	<circle cx="738.338" cy="184.364" r="4" fill="#0" id="circle129"/>
	<circle cx="738.338" cy="326.078" r="4" fill="#0" id="circle130"/>
	<circle cx="738.338" cy="477.455" r="4" fill="#0" id="circle131"/>
	<circle cx="738.338" cy="493.558" r="4" fill="#0" id="circle132"/>
	<circle cx="746.39" cy="279.377" r="4" fill="#0" id="circle133"/>
	<circle cx="748" cy="197.247" r="4" fill="#0" id="circle134"/>
	<circle cx="751.221" cy="424.312" r="4" fill="#0" id="circle135"/>
	<circle cx="754.442" cy="326.078" r="4" fill="#0" id="circle136"/>
	<circle cx="759.273" cy="268.104" r="4" fill="#0" id="circle137"/>
	<circle cx="760.883" cy="208.519" r="4" fill="#0" id="circle138"/>
	<circle cx="762.494" cy="224.623" r="4" fill="#0" id="circle139"/>
	<circle cx="762.494" cy="240.727" r="4" fill="#0" id="circle140"/>
	<circle cx="765.714" cy="432.364" r="4" fill="#0" id="circle141"/>
	<circle cx="770.545" cy="326.078" r="4" fill="#0" id="circle142"/>
	<circle cx="780.208" cy="440.416" r="4" fill="#0" id="circle143"/>
	<circle cx="786.649" cy="321.247" r="4" fill="#0" id="circle144"/>
	<circle cx="796.312" cy="437.195" r="4" fill="#0" id="circle145"/>
	<circle cx="802.753" cy="313.195" r="4" fill="#0" id="circle146"/>
	<circle cx="810.805" cy="297.091" r="4" fill="#0" id="circle147"/>
	<circle cx="810.805" cy="445.247" r="4" fill="#0" id="circle148"/>
	<circle cx="826.909" cy="289.039" r="4" fill="#0" id="circle149"/>
	<circle cx="826.909" cy="451.688" r="4" fill="#0" id="circle150"/>
	<circle cx="839.792" cy="277.766" r="4" fill="#0" id="circle151"/>
	<circle cx="843.013" cy="456.519" r="4" fill="#0" id="circle152"/>
	<circle cx="851.065" cy="264.883" r="4" fill="#0" id="circle153"/>
	<circle cx="857.506" cy="464.571" r="4" fill="#0" id="circle154"/>
	<circle cx="863.948" cy="253.61" r="4" fill="#0" id="circle155"/>
	<circle cx="872" cy="472.623" r="4" fill="#0" id="circle156"/>
	<circle cx="875.221" cy="240.727" r="4" fill="#0" id="circle157"/>
	<circle cx="888.104" cy="472.623" r="4" fill="#0" id="circle158"/>
	<circle cx="891.325" cy="237.506" r="4" fill="#0" id="circle159"/>
	<circle cx="904.208" cy="472.623" r="4" fill="#0" id="circle160"/>
	<circle cx="905.818" cy="226.234" r="4" fill="#0" id="circle161"/>
	<circle cx="918.701" cy="480.675" r="4" fill="#0" id="circle162"/>
	<circle cx="921.922" cy="221.403" r="4" fill="#0" id="circle163"/>
	<circle cx="934.805" cy="480.675" r="4" fill="#0" id="circle164"/>
	<circle cx="938.026" cy="221.403" r="4" fill="#0" id="circle165"/>
	<circle cx="939.636" cy="351.844" r="4" fill="#0" id="circle166"/>
	<circle cx="939.636" cy="367.948" r="4" fill="#0" id="circle167"/>
	<circle cx="939.636" cy="384.052" r="4" fill="#0" id="circle168"/>
	<circle cx="939.636" cy="400.156" r="4" fill="#0" id="circle169"/>
	<circle cx="942.857" cy="416.26" r="4" fill="#0" id="circle170"/>
	<circle cx="947.688" cy="327.688" r="4" fill="#0" id="circle171"/>
	<circle cx="950.909" cy="480.675" r="4" fill="#0" id="circle172"/>
	<circle cx="952.519" cy="213.351" r="4" fill="#0" id="circle173"/>
	<circle cx="955.74" cy="287.429" r="4" fill="#0" id="circle174"/>
	<circle cx="955.74" cy="303.532" r="4" fill="#0" id="circle175"/>
	<circle cx="955.74" cy="427.532" r="4" fill="#0" id="circle176"/>
	<circle cx="963.792" cy="442.026" r="4" fill="#0" id="circle177"/>
	<circle cx="965.403" cy="472.623" r="4" fill="#0" id="circle178"/>
	<circle cx="968.623" cy="213.351" r="4" fill="#0" id="circle179"/>
	<circle cx="968.623" cy="276.156" r="4" fill="#0" id="circle180"/>
	<circle cx="976.675" cy="260.052" r="4" fill="#0" id="circle181"/>
	<circle cx="984.727" cy="213.351" r="4" fill="#0" id="circle182"/>
	<circle cx="984.727" cy="243.948" r="4" fill="#0" id="circle183"/>
	<circle cx="996" cy="226.234" r="4" fill="#0" id="circle184"/>
	</g>
</svg>