<?xml version="1.0" encoding="UTF-8" standalone="no"?>
<!-- Created with CurveBenchmark -->
<svg
	xmlns:dc="http://purl.org/dc/elements/1.1/"
	xmlns:cc="http://creativecommons.org/ns#"
	xmlns:rdf="http://www.w3.org/1999/02/22-rdf-syntax-ns#"
	xmlns:svg="http://www.w3.org/2000/svg"
	xmlns="http://www.w3.org/2000/svg"
	xmlns:sodipodi="http://sodipodi.sourceforge.net/DTD/sodipodi-0.dtd"
	xmlns:inkscape="http://www.inkscape.org/namespaces/inkscape"
	width="1000"
	height="1000"
	id="svg2"
	version="1.1"
	sodipodi:docname="manifold/ccrust-bird025.png.txt">
<defs
	id="defs4" />
<metadata
	id="metadata7">
	<rdf:RDF>
		<cc:Work
			rdf:about="">
			<dc:format>image/svg+xml</dc:format>
			<dc:type
				rdf:resource="http://purl.org/dc/dcmitype/StillImage" />
			<dc:title></dc:title>
		</cc:Work>
	</rdf:RDF>
</metadata>
<g
	inkscape:label="Layer 1"
	inkscape:groupmode="layer"
	id="layer1">
	<path style="fill:none;stroke:red;stroke-width:1px;stroke-linecap:butt;stroke-linejoin:miter;stroke-opacity:1" d="M 39.0118,319.106 58.4627,284.094 z" id="boundary" inkscape:connector-curvature="0" />
	<path style="fill:none;stroke:red;stroke-width:1px;stroke-linecap:butt;stroke-linejoin:miter;stroke-opacity:1" d="M 167.388,151.827 144.047,182.949 z" id="boundary" inkscape:connector-curvature="0" />
	<path style="fill:none;stroke:red;stroke-width:1px;stroke-linecap:butt;stroke-linejoin:miter;stroke-opacity:1" d="M 144.047,182.949 112.925,214.071 z" id="boundary" inkscape:connector-curvature="0" />
	<path style="fill:none;stroke:red;stroke-width:1px;stroke-linecap:butt;stroke-linejoin:miter;stroke-opacity:1" d="M 112.925,214.071 81.8039,245.192 z" id="boundary" inkscape:connector-curvature="0" />
	<path style="fill:none;stroke:red;stroke-width:1px;stroke-linecap:butt;stroke-linejoin:miter;stroke-opacity:1" d="M 58.4627,284.094 81.8039,245.192 z" id="boundary" inkscape:connector-curvature="0" />
	<path style="fill:none;stroke:red;stroke-width:1px;stroke-linecap:butt;stroke-linejoin:miter;stroke-opacity:1" d="M 23.451,428.031 4,393.02 z" id="boundary" inkscape:connector-curvature="0" />
	<path style="fill:none;stroke:red;stroke-width:1px;stroke-linecap:butt;stroke-linejoin:miter;stroke-opacity:1" d="M 62.3529,431.922 23.451,428.031 z" id="boundary" inkscape:connector-curvature="0" />
	<path style="fill:none;stroke:red;stroke-width:1px;stroke-linecap:butt;stroke-linejoin:miter;stroke-opacity:1" d="M 4,393.02 19.5608,354.118 z" id="boundary" inkscape:connector-curvature="0" />
	<path style="fill:none;stroke:red;stroke-width:1px;stroke-linecap:butt;stroke-linejoin:miter;stroke-opacity:1" d="M 62.3529,431.922 101.255,420.251 z" id="boundary" inkscape:connector-curvature="0" />
	<path style="fill:none;stroke:red;stroke-width:1px;stroke-linecap:butt;stroke-linejoin:miter;stroke-opacity:1" d="M 101.255,420.251 140.157,431.922 z" id="boundary" inkscape:connector-curvature="0" />
	<path style="fill:none;stroke:red;stroke-width:1px;stroke-linecap:butt;stroke-linejoin:miter;stroke-opacity:1" d="M 19.5608,354.118 39.0118,319.106 z" id="boundary" inkscape:connector-curvature="0" />
	<path style="fill:none;stroke:red;stroke-width:1px;stroke-linecap:butt;stroke-linejoin:miter;stroke-opacity:1" d="M 260.753,66.2431 291.875,42.902 z" id="boundary" inkscape:connector-curvature="0" />
	<path style="fill:none;stroke:red;stroke-width:1px;stroke-linecap:butt;stroke-linejoin:miter;stroke-opacity:1" d="M 291.875,42.902 330.776,27.3412 z" id="boundary" inkscape:connector-curvature="0" />
	<path style="fill:none;stroke:red;stroke-width:1px;stroke-linecap:butt;stroke-linejoin:miter;stroke-opacity:1" d="M 330.776,27.3412 369.678,11.7804 z" id="boundary" inkscape:connector-curvature="0" />
	<path style="fill:none;stroke:red;stroke-width:1px;stroke-linecap:butt;stroke-linejoin:miter;stroke-opacity:1" d="M 369.678,11.7804 408.58,4 z" id="boundary" inkscape:connector-curvature="0" />
	<path style="fill:none;stroke:red;stroke-width:1px;stroke-linecap:butt;stroke-linejoin:miter;stroke-opacity:1" d="M 198.51,120.706 229.631,89.5843 z" id="boundary" inkscape:connector-curvature="0" />
	<path style="fill:none;stroke:red;stroke-width:1px;stroke-linecap:butt;stroke-linejoin:miter;stroke-opacity:1" d="M 167.388,151.827 198.51,120.706 z" id="boundary" inkscape:connector-curvature="0" />
	<path style="fill:none;stroke:red;stroke-width:1px;stroke-linecap:butt;stroke-linejoin:miter;stroke-opacity:1" d="M 287.984,377.459 326.886,365.788 z" id="boundary" inkscape:connector-curvature="0" />
	<path style="fill:none;stroke:red;stroke-width:1px;stroke-linecap:butt;stroke-linejoin:miter;stroke-opacity:1" d="M 326.886,365.788 346.337,400.8 z" id="boundary" inkscape:connector-curvature="0" />
	<path style="fill:none;stroke:red;stroke-width:1px;stroke-linecap:butt;stroke-linejoin:miter;stroke-opacity:1" d="M 217.961,416.361 256.863,404.69 z" id="boundary" inkscape:connector-curvature="0" />
	<path style="fill:none;stroke:red;stroke-width:1px;stroke-linecap:butt;stroke-linejoin:miter;stroke-opacity:1" d="M 256.863,404.69 287.984,377.459 z" id="boundary" inkscape:connector-curvature="0" />
	<path style="fill:none;stroke:red;stroke-width:1px;stroke-linecap:butt;stroke-linejoin:miter;stroke-opacity:1" d="M 229.631,89.5843 260.753,66.2431 z" id="boundary" inkscape:connector-curvature="0" />
	<path style="fill:none;stroke:red;stroke-width:1px;stroke-linecap:butt;stroke-linejoin:miter;stroke-opacity:1" d="M 217.961,416.361 179.059,431.922 z" id="boundary" inkscape:connector-curvature="0" />
	<path style="fill:none;stroke:red;stroke-width:1px;stroke-linecap:butt;stroke-linejoin:miter;stroke-opacity:1" d="M 179.059,431.922 140.157,431.922 z" id="boundary" inkscape:connector-curvature="0" />
	<path style="fill:none;stroke:red;stroke-width:1px;stroke-linecap:butt;stroke-linejoin:miter;stroke-opacity:1" d="M 346.337,439.702 346.337,400.8 z" id="boundary" inkscape:connector-curvature="0" />
	<path style="fill:none;stroke:red;stroke-width:1px;stroke-linecap:butt;stroke-linejoin:miter;stroke-opacity:1" d="M 346.337,478.604 346.337,517.506 z" id="boundary" inkscape:connector-curvature="0" />
	<path style="fill:none;stroke:red;stroke-width:1px;stroke-linecap:butt;stroke-linejoin:miter;stroke-opacity:1" d="M 346.337,439.702 346.337,478.604 z" id="boundary" inkscape:connector-curvature="0" />
	<path style="fill:none;stroke:red;stroke-width:1px;stroke-linecap:butt;stroke-linejoin:miter;stroke-opacity:1" d="M 466.933,494.165 451.373,556.408 z" id="boundary" inkscape:connector-curvature="0" />
	<path style="fill:none;stroke:red;stroke-width:1px;stroke-linecap:butt;stroke-linejoin:miter;stroke-opacity:1" d="M 346.337,517.506 346.337,556.408 z" id="boundary" inkscape:connector-curvature="0" />
	<path style="fill:none;stroke:red;stroke-width:1px;stroke-linecap:butt;stroke-linejoin:miter;stroke-opacity:1" d="M 346.337,595.31 346.337,556.408 z" id="boundary" inkscape:connector-curvature="0" />
	<path style="fill:none;stroke:red;stroke-width:1px;stroke-linecap:butt;stroke-linejoin:miter;stroke-opacity:1" d="M 346.337,634.212 346.337,595.31 z" id="boundary" inkscape:connector-curvature="0" />
	<path style="fill:none;stroke:red;stroke-width:1px;stroke-linecap:butt;stroke-linejoin:miter;stroke-opacity:1" d="M 346.337,634.212 346.337,673.114 z" id="boundary" inkscape:connector-curvature="0" />
	<path style="fill:none;stroke:red;stroke-width:1px;stroke-linecap:butt;stroke-linejoin:miter;stroke-opacity:1" d="M 346.337,712.016 346.337,673.114 z" id="boundary" inkscape:connector-curvature="0" />
	<path style="fill:none;stroke:red;stroke-width:1px;stroke-linecap:butt;stroke-linejoin:miter;stroke-opacity:1" d="M 354.118,750.918 346.337,712.016 z" id="boundary" inkscape:connector-curvature="0" />
	<path style="fill:none;stroke:red;stroke-width:1px;stroke-linecap:butt;stroke-linejoin:miter;stroke-opacity:1" d="M 354.118,750.918 361.898,789.82 z" id="boundary" inkscape:connector-curvature="0" />
	<path style="fill:none;stroke:red;stroke-width:1px;stroke-linecap:butt;stroke-linejoin:miter;stroke-opacity:1" d="M 361.898,789.82 361.898,828.722 z" id="boundary" inkscape:connector-curvature="0" />
	<path style="fill:none;stroke:red;stroke-width:1px;stroke-linecap:butt;stroke-linejoin:miter;stroke-opacity:1" d="M 361.898,828.722 369.678,867.624 z" id="boundary" inkscape:connector-curvature="0" />
	<path style="fill:none;stroke:red;stroke-width:1px;stroke-linecap:butt;stroke-linejoin:miter;stroke-opacity:1" d="M 435.812,665.333 435.812,704.235 z" id="boundary" inkscape:connector-curvature="0" />
	<path style="fill:none;stroke:red;stroke-width:1px;stroke-linecap:butt;stroke-linejoin:miter;stroke-opacity:1" d="M 435.812,665.333 435.812,626.431 z" id="boundary" inkscape:connector-curvature="0" />
	<path style="fill:none;stroke:red;stroke-width:1px;stroke-linecap:butt;stroke-linejoin:miter;stroke-opacity:1" d="M 435.812,626.431 451.373,556.408 z" id="boundary" inkscape:connector-curvature="0" />
	<path style="fill:none;stroke:red;stroke-width:1px;stroke-linecap:butt;stroke-linejoin:miter;stroke-opacity:1" d="M 443.592,743.137 435.812,704.235 z" id="boundary" inkscape:connector-curvature="0" />
	<path style="fill:none;stroke:red;stroke-width:1px;stroke-linecap:butt;stroke-linejoin:miter;stroke-opacity:1" d="M 443.592,782.039 443.592,743.137 z" id="boundary" inkscape:connector-curvature="0" />
	<path style="fill:none;stroke:red;stroke-width:1px;stroke-linecap:butt;stroke-linejoin:miter;stroke-opacity:1" d="M 451.373,820.941 443.592,782.039 z" id="boundary" inkscape:connector-curvature="0" />
	<path style="fill:none;stroke:red;stroke-width:1px;stroke-linecap:butt;stroke-linejoin:miter;stroke-opacity:1" d="M 369.678,867.624 377.459,906.525 z" id="boundary" inkscape:connector-curvature="0" />
	<path style="fill:none;stroke:red;stroke-width:1px;stroke-linecap:butt;stroke-linejoin:miter;stroke-opacity:1" d="M 377.459,906.525 377.459,945.427 z" id="boundary" inkscape:connector-curvature="0" />
	<path style="fill:none;stroke:red;stroke-width:1px;stroke-linecap:butt;stroke-linejoin:miter;stroke-opacity:1" d="M 459.153,859.843 451.373,820.941 z" id="boundary" inkscape:connector-curvature="0" />
	<path style="fill:none;stroke:red;stroke-width:1px;stroke-linecap:butt;stroke-linejoin:miter;stroke-opacity:1" d="M 385.239,984.329 377.459,945.427 z" id="boundary" inkscape:connector-curvature="0" />
	<path style="fill:none;stroke:red;stroke-width:1px;stroke-linecap:butt;stroke-linejoin:miter;stroke-opacity:1" d="M 424.141,996 385.239,984.329 z" id="boundary" inkscape:connector-curvature="0" />
	<path style="fill:none;stroke:red;stroke-width:1px;stroke-linecap:butt;stroke-linejoin:miter;stroke-opacity:1" d="M 459.153,859.843 466.933,898.745 z" id="boundary" inkscape:connector-curvature="0" />
	<path style="fill:none;stroke:red;stroke-width:1px;stroke-linecap:butt;stroke-linejoin:miter;stroke-opacity:1" d="M 408.58,4 447.482,4 z" id="boundary" inkscape:connector-curvature="0" />
	<path style="fill:none;stroke:red;stroke-width:1px;stroke-linecap:butt;stroke-linejoin:miter;stroke-opacity:1" d="M 486.384,4 525.286,15.6706 z" id="boundary" inkscape:connector-curvature="0" />
	<path style="fill:none;stroke:red;stroke-width:1px;stroke-linecap:butt;stroke-linejoin:miter;stroke-opacity:1" d="M 564.188,27.3412 525.286,15.6706 z" id="boundary" inkscape:connector-curvature="0" />
	<path style="fill:none;stroke:red;stroke-width:1px;stroke-linecap:butt;stroke-linejoin:miter;stroke-opacity:1" d="M 630.322,74.0235 599.2,46.7922 z" id="boundary" inkscape:connector-curvature="0" />
	<path style="fill:none;stroke:red;stroke-width:1px;stroke-linecap:butt;stroke-linejoin:miter;stroke-opacity:1" d="M 766.478,74.0235 727.576,89.5843 z" id="boundary" inkscape:connector-curvature="0" />
	<path style="fill:none;stroke:red;stroke-width:1px;stroke-linecap:butt;stroke-linejoin:miter;stroke-opacity:1" d="M 727.576,89.5843 696.455,120.706 z" id="boundary" inkscape:connector-curvature="0" />
	<path style="fill:none;stroke:red;stroke-width:1px;stroke-linecap:butt;stroke-linejoin:miter;stroke-opacity:1" d="M 564.188,27.3412 599.2,46.7922 z" id="boundary" inkscape:connector-curvature="0" />
	<path style="fill:none;stroke:red;stroke-width:1px;stroke-linecap:butt;stroke-linejoin:miter;stroke-opacity:1" d="M 630.322,74.0235 645.882,112.925 z" id="boundary" inkscape:connector-curvature="0" />
	<path style="fill:none;stroke:red;stroke-width:1px;stroke-linecap:butt;stroke-linejoin:miter;stroke-opacity:1" d="M 591.42,245.192 556.408,225.741 z" id="boundary" inkscape:connector-curvature="0" />
	<path style="fill:none;stroke:red;stroke-width:1px;stroke-linecap:butt;stroke-linejoin:miter;stroke-opacity:1" d="M 645.882,112.925 661.443,151.827 z" id="boundary" inkscape:connector-curvature="0" />
	<path style="fill:none;stroke:red;stroke-width:1px;stroke-linecap:butt;stroke-linejoin:miter;stroke-opacity:1" d="M 525.286,256.863 556.408,225.741 z" id="boundary" inkscape:connector-curvature="0" />
	<path style="fill:none;stroke:red;stroke-width:1px;stroke-linecap:butt;stroke-linejoin:miter;stroke-opacity:1" d="M 754.808,190.729 754.808,229.631 z" id="boundary" inkscape:connector-curvature="0" />
	<path style="fill:none;stroke:red;stroke-width:1px;stroke-linecap:butt;stroke-linejoin:miter;stroke-opacity:1" d="M 766.478,74.0235 805.38,74.0235 z" id="boundary" inkscape:connector-curvature="0" />
	<path style="fill:none;stroke:red;stroke-width:1px;stroke-linecap:butt;stroke-linejoin:miter;stroke-opacity:1" d="M 844.282,81.8039 805.38,74.0235 z" id="boundary" inkscape:connector-curvature="0" />
	<path style="fill:none;stroke:red;stroke-width:1px;stroke-linecap:butt;stroke-linejoin:miter;stroke-opacity:1" d="M 879.294,101.255 902.635,132.376 z" id="boundary" inkscape:connector-curvature="0" />
	<path style="fill:none;stroke:red;stroke-width:1px;stroke-linecap:butt;stroke-linejoin:miter;stroke-opacity:1" d="M 910.416,171.278 902.635,132.376 z" id="boundary" inkscape:connector-curvature="0" />
	<path style="fill:none;stroke:red;stroke-width:1px;stroke-linecap:butt;stroke-linejoin:miter;stroke-opacity:1" d="M 933.757,202.4 910.416,171.278 z" id="boundary" inkscape:connector-curvature="0" />
	<path style="fill:none;stroke:red;stroke-width:1px;stroke-linecap:butt;stroke-linejoin:miter;stroke-opacity:1" d="M 844.282,81.8039 879.294,101.255 z" id="boundary" inkscape:connector-curvature="0" />
	<path style="fill:none;stroke:red;stroke-width:1px;stroke-linecap:butt;stroke-linejoin:miter;stroke-opacity:1" d="M 793.71,186.839 824.831,210.18 z" id="boundary" inkscape:connector-curvature="0" />
	<path style="fill:none;stroke:red;stroke-width:1px;stroke-linecap:butt;stroke-linejoin:miter;stroke-opacity:1" d="M 754.808,190.729 793.71,186.839 z" id="boundary" inkscape:connector-curvature="0" />
	<path style="fill:none;stroke:red;stroke-width:1px;stroke-linecap:butt;stroke-linejoin:miter;stroke-opacity:1" d="M 762.588,268.533 754.808,229.631 z" id="boundary" inkscape:connector-curvature="0" />
	<path style="fill:none;stroke:red;stroke-width:1px;stroke-linecap:butt;stroke-linejoin:miter;stroke-opacity:1" d="M 894.855,249.082 863.733,225.741 z" id="boundary" inkscape:connector-curvature="0" />
	<path style="fill:none;stroke:red;stroke-width:1px;stroke-linecap:butt;stroke-linejoin:miter;stroke-opacity:1" d="M 863.733,225.741 824.831,210.18 z" id="boundary" inkscape:connector-curvature="0" />
	<path style="fill:none;stroke:red;stroke-width:1px;stroke-linecap:butt;stroke-linejoin:miter;stroke-opacity:1" d="M 925.976,272.424 894.855,249.082 z" id="boundary" inkscape:connector-curvature="0" />
	<path style="fill:none;stroke:red;stroke-width:1px;stroke-linecap:butt;stroke-linejoin:miter;stroke-opacity:1" d="M 933.757,202.4 957.098,233.522 z" id="boundary" inkscape:connector-curvature="0" />
	<path style="fill:none;stroke:red;stroke-width:1px;stroke-linecap:butt;stroke-linejoin:miter;stroke-opacity:1" d="M 595.31,284.094 591.42,245.192 z" id="boundary" inkscape:connector-curvature="0" />
	<path style="fill:none;stroke:red;stroke-width:1px;stroke-linecap:butt;stroke-linejoin:miter;stroke-opacity:1" d="M 980.439,264.643 957.098,233.522 z" id="boundary" inkscape:connector-curvature="0" />
	<path style="fill:none;stroke:red;stroke-width:1px;stroke-linecap:butt;stroke-linejoin:miter;stroke-opacity:1" d="M 482.494,431.922 466.933,494.165 z" id="boundary" inkscape:connector-curvature="0" />
	<path style="fill:none;stroke:red;stroke-width:1px;stroke-linecap:butt;stroke-linejoin:miter;stroke-opacity:1" d="M 490.275,385.239 482.494,431.922 z" id="boundary" inkscape:connector-curvature="0" />
	<path style="fill:none;stroke:red;stroke-width:1px;stroke-linecap:butt;stroke-linejoin:miter;stroke-opacity:1" d="M 498.055,338.557 505.835,291.875 z" id="boundary" inkscape:connector-curvature="0" />
	<path style="fill:none;stroke:red;stroke-width:1px;stroke-linecap:butt;stroke-linejoin:miter;stroke-opacity:1" d="M 498.055,338.557 490.275,385.239 z" id="boundary" inkscape:connector-curvature="0" />
	<path style="fill:none;stroke:red;stroke-width:1px;stroke-linecap:butt;stroke-linejoin:miter;stroke-opacity:1" d="M 525.286,256.863 505.835,291.875 z" id="boundary" inkscape:connector-curvature="0" />
	<path style="fill:none;stroke:red;stroke-width:1px;stroke-linecap:butt;stroke-linejoin:miter;stroke-opacity:1" d="M 463.043,996 424.141,996 z" id="boundary" inkscape:connector-curvature="0" />
	<path style="fill:none;stroke:red;stroke-width:1px;stroke-linecap:butt;stroke-linejoin:miter;stroke-opacity:1" d="M 466.933,898.745 466.933,937.647 z" id="boundary" inkscape:connector-curvature="0" />
	<path style="fill:none;stroke:red;stroke-width:1px;stroke-linecap:butt;stroke-linejoin:miter;stroke-opacity:1" d="M 505.835,945.427 466.933,937.647 z" id="boundary" inkscape:connector-curvature="0" />
	<path style="fill:none;stroke:red;stroke-width:1px;stroke-linecap:butt;stroke-linejoin:miter;stroke-opacity:1" d="M 540.847,988.22 501.945,996 z" id="boundary" inkscape:connector-curvature="0" />
	<path style="fill:none;stroke:red;stroke-width:1px;stroke-linecap:butt;stroke-linejoin:miter;stroke-opacity:1" d="M 501.945,996 463.043,996 z" id="boundary" inkscape:connector-curvature="0" />
	<path style="fill:none;stroke:red;stroke-width:1px;stroke-linecap:butt;stroke-linejoin:miter;stroke-opacity:1" d="M 762.588,268.533 754.808,307.435 z" id="boundary" inkscape:connector-curvature="0" />
	<path style="fill:none;stroke:red;stroke-width:1px;stroke-linecap:butt;stroke-linejoin:miter;stroke-opacity:1" d="M 603.09,322.996 595.31,284.094 z" id="boundary" inkscape:connector-curvature="0" />
	<path style="fill:none;stroke:red;stroke-width:1px;stroke-linecap:butt;stroke-linejoin:miter;stroke-opacity:1" d="M 980.439,264.643 957.098,295.765 z" id="boundary" inkscape:connector-curvature="0" />
	<path style="fill:none;stroke:red;stroke-width:1px;stroke-linecap:butt;stroke-linejoin:miter;stroke-opacity:1" d="M 957.098,295.765 925.976,272.424 z" id="boundary" inkscape:connector-curvature="0" />
	<path style="fill:none;stroke:red;stroke-width:1px;stroke-linecap:butt;stroke-linejoin:miter;stroke-opacity:1" d="M 735.357,350.227 754.808,307.435 z" id="boundary" inkscape:connector-curvature="0" />
	<path style="fill:none;stroke:red;stroke-width:1px;stroke-linecap:butt;stroke-linejoin:miter;stroke-opacity:1" d="M 603.09,322.996 626.431,354.118 z" id="boundary" inkscape:connector-curvature="0" />
	<path style="fill:none;stroke:red;stroke-width:1px;stroke-linecap:butt;stroke-linejoin:miter;stroke-opacity:1" d="M 626.431,354.118 661.443,373.569 z" id="boundary" inkscape:connector-curvature="0" />
	<path style="fill:none;stroke:red;stroke-width:1px;stroke-linecap:butt;stroke-linejoin:miter;stroke-opacity:1" d="M 700.345,369.678 661.443,373.569 z" id="boundary" inkscape:connector-curvature="0" />
	<path style="fill:none;stroke:red;stroke-width:1px;stroke-linecap:butt;stroke-linejoin:miter;stroke-opacity:1" d="M 700.345,369.678 735.357,350.227 z" id="boundary" inkscape:connector-curvature="0" />
	<path style="fill:none;stroke:red;stroke-width:1px;stroke-linecap:butt;stroke-linejoin:miter;stroke-opacity:1" d="M 447.482,4 486.384,4 z" id="boundary" inkscape:connector-curvature="0" />
	<circle cx="4" cy="393.02" r="4" fill="#0" id="circle0"/>
	<circle cx="19.5608" cy="354.118" r="4" fill="#0" id="circle1"/>
	<circle cx="23.451" cy="428.031" r="4" fill="#0" id="circle2"/>
	<circle cx="39.0118" cy="319.106" r="4" fill="#0" id="circle3"/>
	<circle cx="58.4627" cy="284.094" r="4" fill="#0" id="circle4"/>
	<circle cx="62.3529" cy="431.922" r="4" fill="#0" id="circle5"/>
	<circle cx="81.8039" cy="245.192" r="4" fill="#0" id="circle6"/>
	<circle cx="101.255" cy="420.251" r="4" fill="#0" id="circle7"/>
	<circle cx="112.925" cy="214.071" r="4" fill="#0" id="circle8"/>
	<circle cx="140.157" cy="431.922" r="4" fill="#0" id="circle9"/>
	<circle cx="144.047" cy="182.949" r="4" fill="#0" id="circle10"/>
	<circle cx="167.388" cy="151.827" r="4" fill="#0" id="circle11"/>
	<circle cx="179.059" cy="431.922" r="4" fill="#0" id="circle12"/>
	<circle cx="198.51" cy="120.706" r="4" fill="#0" id="circle13"/>
	<circle cx="217.961" cy="416.361" r="4" fill="#0" id="circle14"/>
	<circle cx="229.631" cy="89.5843" r="4" fill="#0" id="circle15"/>
	<circle cx="256.863" cy="404.69" r="4" fill="#0" id="circle16"/>
	<circle cx="260.753" cy="66.2431" r="4" fill="#0" id="circle17"/>
	<circle cx="287.984" cy="377.459" r="4" fill="#0" id="circle18"/>
	<circle cx="291.875" cy="42.902" r="4" fill="#0" id="circle19"/>
	<circle cx="326.886" cy="365.788" r="4" fill="#0" id="circle20"/>
	<circle cx="330.776" cy="27.3412" r="4" fill="#0" id="circle21"/>
	<circle cx="346.337" cy="400.8" r="4" fill="#0" id="circle22"/>
	<circle cx="346.337" cy="439.702" r="4" fill="#0" id="circle23"/>
	<circle cx="346.337" cy="478.604" r="4" fill="#0" id="circle24"/>
	<circle cx="346.337" cy="517.506" r="4" fill="#0" id="circle25"/>
	<circle cx="346.337" cy="556.408" r="4" fill="#0" id="circle26"/>
	<circle cx="346.337" cy="595.31" r="4" fill="#0" id="circle27"/>
	<circle cx="346.337" cy="634.212" r="4" fill="#0" id="circle28"/>
	<circle cx="346.337" cy="673.114" r="4" fill="#0" id="circle29"/>
	<circle cx="346.337" cy="712.016" r="4" fill="#0" id="circle30"/>
	<circle cx="354.118" cy="750.918" r="4" fill="#0" id="circle31"/>
	<circle cx="361.898" cy="789.82" r="4" fill="#0" id="circle32"/>
	<circle cx="361.898" cy="828.722" r="4" fill="#0" id="circle33"/>
	<circle cx="369.678" cy="11.7804" r="4" fill="#0" id="circle34"/>
	<circle cx="369.678" cy="867.624" r="4" fill="#0" id="circle35"/>
	<circle cx="377.459" cy="906.525" r="4" fill="#0" id="circle36"/>
	<circle cx="377.459" cy="945.427" r="4" fill="#0" id="circle37"/>
	<circle cx="385.239" cy="984.329" r="4" fill="#0" id="circle38"/>
	<circle cx="408.58" cy="4" r="4" fill="#0" id="circle39"/>
	<circle cx="424.141" cy="996" r="4" fill="#0" id="circle40"/>
	<circle cx="435.812" cy="626.431" r="4" fill="#0" id="circle41"/>
	<circle cx="435.812" cy="665.333" r="4" fill="#0" id="circle42"/>
	<circle cx="435.812" cy="704.235" r="4" fill="#0" id="circle43"/>
	<circle cx="443.592" cy="743.137" r="4" fill="#0" id="circle44"/>
	<circle cx="443.592" cy="782.039" r="4" fill="#0" id="circle45"/>
	<circle cx="447.482" cy="4" r="4" fill="#0" id="circle46"/>
	<circle cx="451.373" cy="556.408" r="4" fill="#0" id="circle47"/>
	<circle cx="451.373" cy="820.941" r="4" fill="#0" id="circle48"/>
	<circle cx="459.153" cy="859.843" r="4" fill="#0" id="circle49"/>
	<circle cx="463.043" cy="996" r="4" fill="#0" id="circle50"/>
	<circle cx="466.933" cy="494.165" r="4" fill="#0" id="circle51"/>
	<circle cx="466.933" cy="898.745" r="4" fill="#0" id="circle52"/>
	<circle cx="466.933" cy="937.647" r="4" fill="#0" id="circle53"/>
	<circle cx="482.494" cy="431.922" r="4" fill="#0" id="circle54"/>
	<circle cx="486.384" cy="4" r="4" fill="#0" id="circle55"/>
	<circle cx="490.275" cy="385.239" r="4" fill="#0" id="circle56"/>
	<circle cx="498.055" cy="338.557" r="4" fill="#0" id="circle57"/>
	<circle cx="501.945" cy="996" r="4" fill="#0" id="circle58"/>
	<circle cx="505.835" cy="291.875" r="4" fill="#0" id="circle59"/>
	<circle cx="505.835" cy="945.427" r="4" fill="#0" id="circle60"/>
	<circle cx="525.286" cy="15.6706" r="4" fill="#0" id="circle61"/>
	<circle cx="525.286" cy="256.863" r="4" fill="#0" id="circle62"/>
	<circle cx="540.847" cy="988.22" r="4" fill="#0" id="circle63"/>
	<circle cx="556.408" cy="225.741" r="4" fill="#0" id="circle64"/>
	<circle cx="560.298" cy="953.208" r="4" fill="#0" id="circle65"/>
	<circle cx="564.188" cy="27.3412" r="4" fill="#0" id="circle66"/>
	<circle cx="579.749" cy="988.22" r="4" fill="#0" id="circle67"/>
	<circle cx="591.42" cy="245.192" r="4" fill="#0" id="circle68"/>
	<circle cx="595.31" cy="284.094" r="4" fill="#0" id="circle69"/>
	<circle cx="599.2" cy="46.7922" r="4" fill="#0" id="circle70"/>
	<circle cx="603.09" cy="322.996" r="4" fill="#0" id="circle71"/>
	<circle cx="626.431" cy="354.118" r="4" fill="#0" id="circle72"/>
	<circle cx="630.322" cy="74.0235" r="4" fill="#0" id="circle73"/>
	<circle cx="645.882" cy="112.925" r="4" fill="#0" id="circle74"/>
	<circle cx="661.443" cy="151.827" r="4" fill="#0" id="circle75"/>
	<circle cx="661.443" cy="373.569" r="4" fill="#0" id="circle76"/>
	<circle cx="696.455" cy="120.706" r="4" fill="#0" id="circle77"/>
	<circle cx="700.345" cy="369.678" r="4" fill="#0" id="circle78"/>
	<circle cx="727.576" cy="89.5843" r="4" fill="#0" id="circle79"/>
	<circle cx="735.357" cy="350.227" r="4" fill="#0" id="circle80"/>
	<circle cx="754.808" cy="190.729" r="4" fill="#0" id="circle81"/>
	<circle cx="754.808" cy="229.631" r="4" fill="#0" id="circle82"/>
	<circle cx="754.808" cy="307.435" r="4" fill="#0" id="circle83"/>
	<circle cx="762.588" cy="268.533" r="4" fill="#0" id="circle84"/>
	<circle cx="766.478" cy="74.0235" r="4" fill="#0" id="circle85"/>
	<circle cx="793.71" cy="186.839" r="4" fill="#0" id="circle86"/>
	<circle cx="805.38" cy="74.0235" r="4" fill="#0" id="circle87"/>
	<circle cx="824.831" cy="210.18" r="4" fill="#0" id="circle88"/>
	<circle cx="844.282" cy="81.8039" r="4" fill="#0" id="circle89"/>
	<circle cx="863.733" cy="225.741" r="4" fill="#0" id="circle90"/>
	<circle cx="879.294" cy="101.255" r="4" fill="#0" id="circle91"/>
	<circle cx="894.855" cy="249.082" r="4" fill="#0" id="circle92"/>
	<circle cx="902.635" cy="132.376" r="4" fill="#0" id="circle93"/>
	<circle cx="910.416" cy="171.278" r="4" fill="#0" id="circle94"/>
	<circle cx="925.976" cy="272.424" r="4" fill="#0" id="circle95"/>
	<circle cx="933.757" cy="202.4" r="4" fill="#0" id="circle96"/>
	<circle cx="957.098" cy="233.522" r="4" fill="#0" id="circle97"/>
	<circle cx="957.098" cy="295.765" r="4" fill="#0" id="circle98"/>
	<circle cx="980.439" cy="264.643" r="4" fill="#0" id="circle99"/>
	</g>
</svg>