<?xml version="1.0" encoding="UTF-8" standalone="no"?>
<!-- Created with CurveBenchmark -->
<svg
	xmlns:dc="http://purl.org/dc/elements/1.1/"
	xmlns:cc="http://creativecommons.org/ns#"
	xmlns:rdf="http://www.w3.org/1999/02/22-rdf-syntax-ns#"
	xmlns:svg="http://www.w3.org/2000/svg"
	xmlns="http://www.w3.org/2000/svg"
	xmlns:sodipodi="http://sodipodi.sourceforge.net/DTD/sodipodi-0.dtd"
	xmlns:inkscape="http://www.inkscape.org/namespaces/inkscape"
	width="1000"
	height="1000"
	id="svg2"
	version="1.1"
	sodipodi:docname="manifold/ccrust-harrierocc4.png.txt">
<defs
	id="defs4" />
<metadata
	id="metadata7">
	<rdf:RDF>
		<cc:Work
			rdf:about="">
			<dc:format>image/svg+xml</dc:format>
			<dc:type
				rdf:resource="http://purl.org/dc/dcmitype/StillImage" />
			<dc:title></dc:title>
		</cc:Work>
	</rdf:RDF>
</metadata>
<g
	inkscape:label="Layer 1"
	inkscape:groupmode="layer"
	id="layer1">
	<path style="fill:none;stroke:red;stroke-width:1px;stroke-linecap:butt;stroke-linejoin:miter;stroke-opacity:1" d="M 140.634,284.755 155.608,269.781 z" id="boundary" inkscape:connector-curvature="0" />
	<path style="fill:none;stroke:red;stroke-width:1px;stroke-linecap:butt;stroke-linejoin:miter;stroke-opacity:1" d="M 172.453,352.136 155.608,342.777 z" id="boundary" inkscape:connector-curvature="0" />
	<path style="fill:none;stroke:red;stroke-width:1px;stroke-linecap:butt;stroke-linejoin:miter;stroke-opacity:1" d="M 125.66,299.728 125.66,318.445 z" id="boundary" inkscape:connector-curvature="0" />
	<path style="fill:none;stroke:red;stroke-width:1px;stroke-linecap:butt;stroke-linejoin:miter;stroke-opacity:1" d="M 140.634,331.547 125.66,318.445 z" id="boundary" inkscape:connector-curvature="0" />
	<path style="fill:none;stroke:red;stroke-width:1px;stroke-linecap:butt;stroke-linejoin:miter;stroke-opacity:1" d="M 140.634,331.547 155.608,342.777 z" id="boundary" inkscape:connector-curvature="0" />
	<path style="fill:none;stroke:red;stroke-width:1px;stroke-linecap:butt;stroke-linejoin:miter;stroke-opacity:1" d="M 125.66,299.728 140.634,284.755 z" id="boundary" inkscape:connector-curvature="0" />
	<path style="fill:none;stroke:red;stroke-width:1px;stroke-linecap:butt;stroke-linejoin:miter;stroke-opacity:1" d="M 155.608,269.781 170.581,256.679 z" id="boundary" inkscape:connector-curvature="0" />
	<path style="fill:none;stroke:red;stroke-width:1px;stroke-linecap:butt;stroke-linejoin:miter;stroke-opacity:1" d="M 170.581,256.679 189.298,256.679 z" id="boundary" inkscape:connector-curvature="0" />
	<path style="fill:none;stroke:red;stroke-width:1px;stroke-linecap:butt;stroke-linejoin:miter;stroke-opacity:1" d="M 189.298,256.679 208.015,256.679 z" id="boundary" inkscape:connector-curvature="0" />
	<path style="fill:none;stroke:red;stroke-width:1px;stroke-linecap:butt;stroke-linejoin:miter;stroke-opacity:1" d="M 243.577,247.321 226.732,256.679 z" id="boundary" inkscape:connector-curvature="0" />
	<path style="fill:none;stroke:red;stroke-width:1px;stroke-linecap:butt;stroke-linejoin:miter;stroke-opacity:1" d="M 226.732,256.679 208.015,256.679 z" id="boundary" inkscape:connector-curvature="0" />
	<path style="fill:none;stroke:red;stroke-width:1px;stroke-linecap:butt;stroke-linejoin:miter;stroke-opacity:1" d="M 172.453,352.136 189.298,361.494 z" id="boundary" inkscape:connector-curvature="0" />
	<path style="fill:none;stroke:red;stroke-width:1px;stroke-linecap:butt;stroke-linejoin:miter;stroke-opacity:1" d="M 189.298,361.494 202.4,376.468 z" id="boundary" inkscape:connector-curvature="0" />
	<path style="fill:none;stroke:red;stroke-width:1px;stroke-linecap:butt;stroke-linejoin:miter;stroke-opacity:1" d="M 221.117,380.211 202.4,376.468 z" id="boundary" inkscape:connector-curvature="0" />
	<path style="fill:none;stroke:red;stroke-width:1px;stroke-linecap:butt;stroke-linejoin:miter;stroke-opacity:1" d="M 22.717,631.019 41.434,631.019 z" id="boundary" inkscape:connector-curvature="0" />
	<path style="fill:none;stroke:red;stroke-width:1px;stroke-linecap:butt;stroke-linejoin:miter;stroke-opacity:1" d="M 60.1509,631.019 41.434,631.019 z" id="boundary" inkscape:connector-curvature="0" />
	<path style="fill:none;stroke:red;stroke-width:1px;stroke-linecap:butt;stroke-linejoin:miter;stroke-opacity:1" d="M 32.0755,664.709 18.9736,649.736 z" id="boundary" inkscape:connector-curvature="0" />
	<path style="fill:none;stroke:red;stroke-width:1px;stroke-linecap:butt;stroke-linejoin:miter;stroke-opacity:1" d="M 60.1509,631.019 78.8679,631.019 z" id="boundary" inkscape:connector-curvature="0" />
	<path style="fill:none;stroke:red;stroke-width:1px;stroke-linecap:butt;stroke-linejoin:miter;stroke-opacity:1" d="M 97.5849,631.019 78.8679,631.019 z" id="boundary" inkscape:connector-curvature="0" />
	<path style="fill:none;stroke:red;stroke-width:1px;stroke-linecap:butt;stroke-linejoin:miter;stroke-opacity:1" d="M 97.5849,631.019 112.558,642.249 z" id="boundary" inkscape:connector-curvature="0" />
	<path style="fill:none;stroke:red;stroke-width:1px;stroke-linecap:butt;stroke-linejoin:miter;stroke-opacity:1" d="M 221.117,380.211 237.962,389.57 z" id="boundary" inkscape:connector-curvature="0" />
	<path style="fill:none;stroke:red;stroke-width:1px;stroke-linecap:butt;stroke-linejoin:miter;stroke-opacity:1" d="M 237.962,389.57 249.192,404.543 z" id="boundary" inkscape:connector-curvature="0" />
	<path style="fill:none;stroke:red;stroke-width:1px;stroke-linecap:butt;stroke-linejoin:miter;stroke-opacity:1" d="M 264.166,417.645 252.936,443.849 z" id="boundary" inkscape:connector-curvature="0" />
	<path style="fill:none;stroke:red;stroke-width:1px;stroke-linecap:butt;stroke-linejoin:miter;stroke-opacity:1" d="M 249.192,404.543 264.166,417.645 z" id="boundary" inkscape:connector-curvature="0" />
	<path style="fill:none;stroke:red;stroke-width:1px;stroke-linecap:butt;stroke-linejoin:miter;stroke-opacity:1" d="M 252.936,443.849 237.962,458.823 z" id="boundary" inkscape:connector-curvature="0" />
	<path style="fill:none;stroke:red;stroke-width:1px;stroke-linecap:butt;stroke-linejoin:miter;stroke-opacity:1" d="M 144.377,664.709 127.532,655.351 z" id="boundary" inkscape:connector-curvature="0" />
	<path style="fill:none;stroke:red;stroke-width:1px;stroke-linecap:butt;stroke-linejoin:miter;stroke-opacity:1" d="M 127.532,655.351 112.558,642.249 z" id="boundary" inkscape:connector-curvature="0" />
	<path style="fill:none;stroke:red;stroke-width:1px;stroke-linecap:butt;stroke-linejoin:miter;stroke-opacity:1" d="M 247.321,475.668 237.962,458.823 z" id="boundary" inkscape:connector-curvature="0" />
	<path style="fill:none;stroke:red;stroke-width:1px;stroke-linecap:butt;stroke-linejoin:miter;stroke-opacity:1" d="M 247.321,475.668 260.423,490.642 z" id="boundary" inkscape:connector-curvature="0" />
	<path style="fill:none;stroke:red;stroke-width:1px;stroke-linecap:butt;stroke-linejoin:miter;stroke-opacity:1" d="M 267.909,249.192 243.577,247.321 z" id="boundary" inkscape:connector-curvature="0" />
	<path style="fill:none;stroke:red;stroke-width:1px;stroke-linecap:butt;stroke-linejoin:miter;stroke-opacity:1" d="M 277.268,230.475 267.909,249.192 z" id="boundary" inkscape:connector-curvature="0" />
	<path style="fill:none;stroke:red;stroke-width:1px;stroke-linecap:butt;stroke-linejoin:miter;stroke-opacity:1" d="M 327.804,237.962 312.83,252.936 z" id="boundary" inkscape:connector-curvature="0" />
	<path style="fill:none;stroke:red;stroke-width:1px;stroke-linecap:butt;stroke-linejoin:miter;stroke-opacity:1" d="M 277.268,266.038 295.985,266.038 z" id="boundary" inkscape:connector-curvature="0" />
	<path style="fill:none;stroke:red;stroke-width:1px;stroke-linecap:butt;stroke-linejoin:miter;stroke-opacity:1" d="M 277.268,266.038 267.909,249.192 z" id="boundary" inkscape:connector-curvature="0" />
	<path style="fill:none;stroke:red;stroke-width:1px;stroke-linecap:butt;stroke-linejoin:miter;stroke-opacity:1" d="M 312.83,252.936 295.985,266.038 z" id="boundary" inkscape:connector-curvature="0" />
	<path style="fill:none;stroke:red;stroke-width:1px;stroke-linecap:butt;stroke-linejoin:miter;stroke-opacity:1" d="M 342.777,249.192 346.521,267.909 z" id="boundary" inkscape:connector-curvature="0" />
	<path style="fill:none;stroke:red;stroke-width:1px;stroke-linecap:butt;stroke-linejoin:miter;stroke-opacity:1" d="M 440.106,219.245 430.747,237.962 z" id="boundary" inkscape:connector-curvature="0" />
	<path style="fill:none;stroke:red;stroke-width:1px;stroke-linecap:butt;stroke-linejoin:miter;stroke-opacity:1" d="M 402.672,275.396 415.774,252.936 z" id="boundary" inkscape:connector-curvature="0" />
	<path style="fill:none;stroke:red;stroke-width:1px;stroke-linecap:butt;stroke-linejoin:miter;stroke-opacity:1" d="M 430.747,237.962 415.774,252.936 z" id="boundary" inkscape:connector-curvature="0" />
	<path style="fill:none;stroke:red;stroke-width:1px;stroke-linecap:butt;stroke-linejoin:miter;stroke-opacity:1" d="M 342.777,249.192 327.804,237.962 z" id="boundary" inkscape:connector-curvature="0" />
	<path style="fill:none;stroke:red;stroke-width:1px;stroke-linecap:butt;stroke-linejoin:miter;stroke-opacity:1" d="M 346.521,267.909 365.238,275.396 z" id="boundary" inkscape:connector-curvature="0" />
	<path style="fill:none;stroke:red;stroke-width:1px;stroke-linecap:butt;stroke-linejoin:miter;stroke-opacity:1" d="M 365.238,275.396 383.955,275.396 z" id="boundary" inkscape:connector-curvature="0" />
	<path style="fill:none;stroke:red;stroke-width:1px;stroke-linecap:butt;stroke-linejoin:miter;stroke-opacity:1" d="M 402.672,275.396 383.955,275.396 z" id="boundary" inkscape:connector-curvature="0" />
	<path style="fill:none;stroke:red;stroke-width:1px;stroke-linecap:butt;stroke-linejoin:miter;stroke-opacity:1" d="M 260.423,490.642 275.396,501.872 z" id="boundary" inkscape:connector-curvature="0" />
	<path style="fill:none;stroke:red;stroke-width:1px;stroke-linecap:butt;stroke-linejoin:miter;stroke-opacity:1" d="M 294.113,496.257 275.396,501.872 z" id="boundary" inkscape:connector-curvature="0" />
	<path style="fill:none;stroke:red;stroke-width:1px;stroke-linecap:butt;stroke-linejoin:miter;stroke-opacity:1" d="M 305.343,473.796 294.113,496.257 z" id="boundary" inkscape:connector-curvature="0" />
	<path style="fill:none;stroke:red;stroke-width:1px;stroke-linecap:butt;stroke-linejoin:miter;stroke-opacity:1" d="M 327.804,565.509 312.83,580.483 z" id="boundary" inkscape:connector-curvature="0" />
	<path style="fill:none;stroke:red;stroke-width:1px;stroke-linecap:butt;stroke-linejoin:miter;stroke-opacity:1" d="M 281.011,640.377 294.113,617.917 z" id="boundary" inkscape:connector-curvature="0" />
	<path style="fill:none;stroke:red;stroke-width:1px;stroke-linecap:butt;stroke-linejoin:miter;stroke-opacity:1" d="M 309.087,602.943 312.83,580.483 z" id="boundary" inkscape:connector-curvature="0" />
	<path style="fill:none;stroke:red;stroke-width:1px;stroke-linecap:butt;stroke-linejoin:miter;stroke-opacity:1" d="M 309.087,602.943 294.113,617.917 z" id="boundary" inkscape:connector-curvature="0" />
	<path style="fill:none;stroke:red;stroke-width:1px;stroke-linecap:butt;stroke-linejoin:miter;stroke-opacity:1" d="M 305.343,473.796 324.06,477.54 z" id="boundary" inkscape:connector-curvature="0" />
	<path style="fill:none;stroke:red;stroke-width:1px;stroke-linecap:butt;stroke-linejoin:miter;stroke-opacity:1" d="M 337.162,492.513 324.06,477.54 z" id="boundary" inkscape:connector-curvature="0" />
	<path style="fill:none;stroke:red;stroke-width:1px;stroke-linecap:butt;stroke-linejoin:miter;stroke-opacity:1" d="M 350.264,507.487 350.264,526.204 z" id="boundary" inkscape:connector-curvature="0" />
	<path style="fill:none;stroke:red;stroke-width:1px;stroke-linecap:butt;stroke-linejoin:miter;stroke-opacity:1" d="M 337.162,492.513 350.264,507.487 z" id="boundary" inkscape:connector-curvature="0" />
	<path style="fill:none;stroke:red;stroke-width:1px;stroke-linecap:butt;stroke-linejoin:miter;stroke-opacity:1" d="M 432.619,632.891 413.902,638.506 z" id="boundary" inkscape:connector-curvature="0" />
	<path style="fill:none;stroke:red;stroke-width:1px;stroke-linecap:butt;stroke-linejoin:miter;stroke-opacity:1" d="M 350.264,526.204 337.162,546.792 z" id="boundary" inkscape:connector-curvature="0" />
	<path style="fill:none;stroke:red;stroke-width:1px;stroke-linecap:butt;stroke-linejoin:miter;stroke-opacity:1" d="M 327.804,565.509 337.162,546.792 z" id="boundary" inkscape:connector-curvature="0" />
	<path style="fill:none;stroke:red;stroke-width:1px;stroke-linecap:butt;stroke-linejoin:miter;stroke-opacity:1" d="M 380.211,660.966 395.185,647.864 z" id="boundary" inkscape:connector-curvature="0" />
	<path style="fill:none;stroke:red;stroke-width:1px;stroke-linecap:butt;stroke-linejoin:miter;stroke-opacity:1" d="M 413.902,638.506 395.185,647.864 z" id="boundary" inkscape:connector-curvature="0" />
	<path style="fill:none;stroke:red;stroke-width:1px;stroke-linecap:butt;stroke-linejoin:miter;stroke-opacity:1" d="M 32.0755,664.709 47.0491,677.811 z" id="boundary" inkscape:connector-curvature="0" />
	<path style="fill:none;stroke:red;stroke-width:1px;stroke-linecap:butt;stroke-linejoin:miter;stroke-opacity:1" d="M 91.9698,733.962 75.1245,724.604 z" id="boundary" inkscape:connector-curvature="0" />
	<path style="fill:none;stroke:red;stroke-width:1px;stroke-linecap:butt;stroke-linejoin:miter;stroke-opacity:1" d="M 47.0491,677.811 60.1509,692.785 z" id="boundary" inkscape:connector-curvature="0" />
	<path style="fill:none;stroke:red;stroke-width:1px;stroke-linecap:butt;stroke-linejoin:miter;stroke-opacity:1" d="M 60.1509,692.785 60.1509,711.502 z" id="boundary" inkscape:connector-curvature="0" />
	<path style="fill:none;stroke:red;stroke-width:1px;stroke-linecap:butt;stroke-linejoin:miter;stroke-opacity:1" d="M 60.1509,711.502 75.1245,724.604 z" id="boundary" inkscape:connector-curvature="0" />
	<path style="fill:none;stroke:red;stroke-width:1px;stroke-linecap:butt;stroke-linejoin:miter;stroke-opacity:1" d="M 106.943,745.192 91.9698,733.962 z" id="boundary" inkscape:connector-curvature="0" />
	<path style="fill:none;stroke:red;stroke-width:1px;stroke-linecap:butt;stroke-linejoin:miter;stroke-opacity:1" d="M 144.377,664.709 159.351,677.811 z" id="boundary" inkscape:connector-curvature="0" />
	<path style="fill:none;stroke:red;stroke-width:1px;stroke-linecap:butt;stroke-linejoin:miter;stroke-opacity:1" d="M 176.196,687.17 159.351,677.811 z" id="boundary" inkscape:connector-curvature="0" />
	<path style="fill:none;stroke:red;stroke-width:1px;stroke-linecap:butt;stroke-linejoin:miter;stroke-opacity:1" d="M 123.789,754.551 106.943,745.192 z" id="boundary" inkscape:connector-curvature="0" />
	<path style="fill:none;stroke:red;stroke-width:1px;stroke-linecap:butt;stroke-linejoin:miter;stroke-opacity:1" d="M 176.196,687.17 193.042,696.528 z" id="boundary" inkscape:connector-curvature="0" />
	<path style="fill:none;stroke:red;stroke-width:1px;stroke-linecap:butt;stroke-linejoin:miter;stroke-opacity:1" d="M 211.758,696.528 193.042,696.528 z" id="boundary" inkscape:connector-curvature="0" />
	<path style="fill:none;stroke:red;stroke-width:1px;stroke-linecap:butt;stroke-linejoin:miter;stroke-opacity:1" d="M 247.321,687.17 230.475,696.528 z" id="boundary" inkscape:connector-curvature="0" />
	<path style="fill:none;stroke:red;stroke-width:1px;stroke-linecap:butt;stroke-linejoin:miter;stroke-opacity:1" d="M 230.475,696.528 211.758,696.528 z" id="boundary" inkscape:connector-curvature="0" />
	<path style="fill:none;stroke:red;stroke-width:1px;stroke-linecap:butt;stroke-linejoin:miter;stroke-opacity:1" d="M 258.551,672.196 247.321,687.17 z" id="boundary" inkscape:connector-curvature="0" />
	<path style="fill:none;stroke:red;stroke-width:1px;stroke-linecap:butt;stroke-linejoin:miter;stroke-opacity:1" d="M 155.608,777.011 136.891,769.525 z" id="boundary" inkscape:connector-curvature="0" />
	<path style="fill:none;stroke:red;stroke-width:1px;stroke-linecap:butt;stroke-linejoin:miter;stroke-opacity:1" d="M 136.891,769.525 123.789,754.551 z" id="boundary" inkscape:connector-curvature="0" />
	<path style="fill:none;stroke:red;stroke-width:1px;stroke-linecap:butt;stroke-linejoin:miter;stroke-opacity:1" d="M 155.608,777.011 163.094,795.728 z" id="boundary" inkscape:connector-curvature="0" />
	<path style="fill:none;stroke:red;stroke-width:1px;stroke-linecap:butt;stroke-linejoin:miter;stroke-opacity:1" d="M 144.377,833.162 144.377,851.879 z" id="boundary" inkscape:connector-curvature="0" />
	<path style="fill:none;stroke:red;stroke-width:1px;stroke-linecap:butt;stroke-linejoin:miter;stroke-opacity:1" d="M 163.094,857.494 144.377,851.879 z" id="boundary" inkscape:connector-curvature="0" />
	<path style="fill:none;stroke:red;stroke-width:1px;stroke-linecap:butt;stroke-linejoin:miter;stroke-opacity:1" d="M 159.351,818.189 163.094,795.728 z" id="boundary" inkscape:connector-curvature="0" />
	<path style="fill:none;stroke:red;stroke-width:1px;stroke-linecap:butt;stroke-linejoin:miter;stroke-opacity:1" d="M 159.351,818.189 144.377,833.162 z" id="boundary" inkscape:connector-curvature="0" />
	<path style="fill:none;stroke:red;stroke-width:1px;stroke-linecap:butt;stroke-linejoin:miter;stroke-opacity:1" d="M 159.351,818.189 174.325,838.777 z" id="boundary" inkscape:connector-curvature="0" />
	<path style="fill:none;stroke:red;stroke-width:1px;stroke-linecap:butt;stroke-linejoin:miter;stroke-opacity:1" d="M 174.325,838.777 191.17,829.419 z" id="boundary" inkscape:connector-curvature="0" />
	<path style="fill:none;stroke:red;stroke-width:1px;stroke-linecap:butt;stroke-linejoin:miter;stroke-opacity:1" d="M 209.887,829.419 221.117,844.392 z" id="boundary" inkscape:connector-curvature="0" />
	<path style="fill:none;stroke:red;stroke-width:1px;stroke-linecap:butt;stroke-linejoin:miter;stroke-opacity:1" d="M 191.17,829.419 209.887,829.419 z" id="boundary" inkscape:connector-curvature="0" />
	<path style="fill:none;stroke:red;stroke-width:1px;stroke-linecap:butt;stroke-linejoin:miter;stroke-opacity:1" d="M 236.091,857.494 221.117,844.392 z" id="boundary" inkscape:connector-curvature="0" />
	<path style="fill:none;stroke:red;stroke-width:1px;stroke-linecap:butt;stroke-linejoin:miter;stroke-opacity:1" d="M 163.094,857.494 174.325,838.777 z" id="boundary" inkscape:connector-curvature="0" />
	<path style="fill:none;stroke:red;stroke-width:1px;stroke-linecap:butt;stroke-linejoin:miter;stroke-opacity:1" d="M 236.091,857.494 243.577,876.211 z" id="boundary" inkscape:connector-curvature="0" />
	<path style="fill:none;stroke:red;stroke-width:1px;stroke-linecap:butt;stroke-linejoin:miter;stroke-opacity:1" d="M 243.577,876.211 258.551,889.313 z" id="boundary" inkscape:connector-curvature="0" />
	<path style="fill:none;stroke:red;stroke-width:1px;stroke-linecap:butt;stroke-linejoin:miter;stroke-opacity:1" d="M 320.317,713.374 310.958,732.091 z" id="boundary" inkscape:connector-curvature="0" />
	<path style="fill:none;stroke:red;stroke-width:1px;stroke-linecap:butt;stroke-linejoin:miter;stroke-opacity:1" d="M 333.419,698.4 320.317,713.374 z" id="boundary" inkscape:connector-curvature="0" />
	<path style="fill:none;stroke:red;stroke-width:1px;stroke-linecap:butt;stroke-linejoin:miter;stroke-opacity:1" d="M 310.958,732.091 295.985,745.192 z" id="boundary" inkscape:connector-curvature="0" />
	<path style="fill:none;stroke:red;stroke-width:1px;stroke-linecap:butt;stroke-linejoin:miter;stroke-opacity:1" d="M 295.985,745.192 299.728,763.909 z" id="boundary" inkscape:connector-curvature="0" />
	<path style="fill:none;stroke:red;stroke-width:1px;stroke-linecap:butt;stroke-linejoin:miter;stroke-opacity:1" d="M 305.343,782.626 309.087,801.343 z" id="boundary" inkscape:connector-curvature="0" />
	<path style="fill:none;stroke:red;stroke-width:1px;stroke-linecap:butt;stroke-linejoin:miter;stroke-opacity:1" d="M 324.06,814.445 309.087,801.343 z" id="boundary" inkscape:connector-curvature="0" />
	<path style="fill:none;stroke:red;stroke-width:1px;stroke-linecap:butt;stroke-linejoin:miter;stroke-opacity:1" d="M 305.343,782.626 299.728,763.909 z" id="boundary" inkscape:connector-curvature="0" />
	<path style="fill:none;stroke:red;stroke-width:1px;stroke-linecap:butt;stroke-linejoin:miter;stroke-opacity:1" d="M 273.525,659.094 281.011,640.377 z" id="boundary" inkscape:connector-curvature="0" />
	<path style="fill:none;stroke:red;stroke-width:1px;stroke-linecap:butt;stroke-linejoin:miter;stroke-opacity:1" d="M 383.955,864.981 368.981,851.879 z" id="boundary" inkscape:connector-curvature="0" />
	<path style="fill:none;stroke:red;stroke-width:1px;stroke-linecap:butt;stroke-linejoin:miter;stroke-opacity:1" d="M 352.136,689.042 333.419,698.4 z" id="boundary" inkscape:connector-curvature="0" />
	<path style="fill:none;stroke:red;stroke-width:1px;stroke-linecap:butt;stroke-linejoin:miter;stroke-opacity:1" d="M 367.109,675.94 352.136,689.042 z" id="boundary" inkscape:connector-curvature="0" />
	<path style="fill:none;stroke:red;stroke-width:1px;stroke-linecap:butt;stroke-linejoin:miter;stroke-opacity:1" d="M 324.06,814.445 337.162,829.419 z" id="boundary" inkscape:connector-curvature="0" />
	<path style="fill:none;stroke:red;stroke-width:1px;stroke-linecap:butt;stroke-linejoin:miter;stroke-opacity:1" d="M 352.136,842.521 368.981,851.879 z" id="boundary" inkscape:connector-curvature="0" />
	<path style="fill:none;stroke:red;stroke-width:1px;stroke-linecap:butt;stroke-linejoin:miter;stroke-opacity:1" d="M 352.136,842.521 337.162,829.419 z" id="boundary" inkscape:connector-curvature="0" />
	<path style="fill:none;stroke:red;stroke-width:1px;stroke-linecap:butt;stroke-linejoin:miter;stroke-opacity:1" d="M 367.109,675.94 380.211,660.966 z" id="boundary" inkscape:connector-curvature="0" />
	<path style="fill:none;stroke:red;stroke-width:1px;stroke-linecap:butt;stroke-linejoin:miter;stroke-opacity:1" d="M 271.653,904.287 258.551,889.313 z" id="boundary" inkscape:connector-curvature="0" />
	<path style="fill:none;stroke:red;stroke-width:1px;stroke-linecap:butt;stroke-linejoin:miter;stroke-opacity:1" d="M 271.653,904.287 281.011,921.132 z" id="boundary" inkscape:connector-curvature="0" />
	<path style="fill:none;stroke:red;stroke-width:1px;stroke-linecap:butt;stroke-linejoin:miter;stroke-opacity:1" d="M 295.985,932.362 314.702,932.362 z" id="boundary" inkscape:connector-curvature="0" />
	<path style="fill:none;stroke:red;stroke-width:1px;stroke-linecap:butt;stroke-linejoin:miter;stroke-opacity:1" d="M 314.702,932.362 331.547,941.721 z" id="boundary" inkscape:connector-curvature="0" />
	<path style="fill:none;stroke:red;stroke-width:1px;stroke-linecap:butt;stroke-linejoin:miter;stroke-opacity:1" d="M 295.985,932.362 281.011,921.132 z" id="boundary" inkscape:connector-curvature="0" />
	<path style="fill:none;stroke:red;stroke-width:1px;stroke-linecap:butt;stroke-linejoin:miter;stroke-opacity:1" d="M 331.547,941.721 342.777,956.694 z" id="boundary" inkscape:connector-curvature="0" />
	<path style="fill:none;stroke:red;stroke-width:1px;stroke-linecap:butt;stroke-linejoin:miter;stroke-opacity:1" d="M 357.751,969.796 342.777,956.694 z" id="boundary" inkscape:connector-curvature="0" />
	<path style="fill:none;stroke:red;stroke-width:1px;stroke-linecap:butt;stroke-linejoin:miter;stroke-opacity:1" d="M 357.751,969.796 370.853,984.77 z" id="boundary" inkscape:connector-curvature="0" />
	<path style="fill:none;stroke:red;stroke-width:1px;stroke-linecap:butt;stroke-linejoin:miter;stroke-opacity:1" d="M 370.853,984.77 385.826,996 z" id="boundary" inkscape:connector-curvature="0" />
	<path style="fill:none;stroke:red;stroke-width:1px;stroke-linecap:butt;stroke-linejoin:miter;stroke-opacity:1" d="M 397.057,879.955 412.03,893.057 z" id="boundary" inkscape:connector-curvature="0" />
	<path style="fill:none;stroke:red;stroke-width:1px;stroke-linecap:butt;stroke-linejoin:miter;stroke-opacity:1" d="M 412.03,893.057 428.875,902.415 z" id="boundary" inkscape:connector-curvature="0" />
	<path style="fill:none;stroke:red;stroke-width:1px;stroke-linecap:butt;stroke-linejoin:miter;stroke-opacity:1" d="M 385.826,996 398.928,979.155 z" id="boundary" inkscape:connector-curvature="0" />
	<path style="fill:none;stroke:red;stroke-width:1px;stroke-linecap:butt;stroke-linejoin:miter;stroke-opacity:1" d="M 398.928,979.155 413.902,966.053 z" id="boundary" inkscape:connector-curvature="0" />
	<path style="fill:none;stroke:red;stroke-width:1px;stroke-linecap:butt;stroke-linejoin:miter;stroke-opacity:1" d="M 413.902,966.053 423.26,947.336 z" id="boundary" inkscape:connector-curvature="0" />
	<path style="fill:none;stroke:red;stroke-width:1px;stroke-linecap:butt;stroke-linejoin:miter;stroke-opacity:1" d="M 423.26,947.336 436.362,932.362 z" id="boundary" inkscape:connector-curvature="0" />
	<path style="fill:none;stroke:red;stroke-width:1px;stroke-linecap:butt;stroke-linejoin:miter;stroke-opacity:1" d="M 428.875,902.415 436.362,932.362 z" id="boundary" inkscape:connector-curvature="0" />
	<path style="fill:none;stroke:red;stroke-width:1px;stroke-linecap:butt;stroke-linejoin:miter;stroke-opacity:1" d="M 383.955,864.981 397.057,879.955 z" id="boundary" inkscape:connector-curvature="0" />
	<path style="fill:none;stroke:red;stroke-width:1px;stroke-linecap:butt;stroke-linejoin:miter;stroke-opacity:1" d="M 258.551,672.196 273.525,659.094 z" id="boundary" inkscape:connector-curvature="0" />
	<path style="fill:none;stroke:red;stroke-width:1px;stroke-linecap:butt;stroke-linejoin:miter;stroke-opacity:1" d="M 501.872,166.838 516.845,153.736 z" id="boundary" inkscape:connector-curvature="0" />
	<path style="fill:none;stroke:red;stroke-width:1px;stroke-linecap:butt;stroke-linejoin:miter;stroke-opacity:1" d="M 516.845,153.736 533.691,163.094 z" id="boundary" inkscape:connector-curvature="0" />
	<path style="fill:none;stroke:red;stroke-width:1px;stroke-linecap:butt;stroke-linejoin:miter;stroke-opacity:1" d="M 501.872,166.838 483.155,176.196 z" id="boundary" inkscape:connector-curvature="0" />
	<path style="fill:none;stroke:red;stroke-width:1px;stroke-linecap:butt;stroke-linejoin:miter;stroke-opacity:1" d="M 533.691,163.094 535.562,181.811 z" id="boundary" inkscape:connector-curvature="0" />
	<path style="fill:none;stroke:red;stroke-width:1px;stroke-linecap:butt;stroke-linejoin:miter;stroke-opacity:1" d="M 470.053,191.17 483.155,176.196 z" id="boundary" inkscape:connector-curvature="0" />
	<path style="fill:none;stroke:red;stroke-width:1px;stroke-linecap:butt;stroke-linejoin:miter;stroke-opacity:1" d="M 470.053,191.17 455.079,204.272 z" id="boundary" inkscape:connector-curvature="0" />
	<path style="fill:none;stroke:red;stroke-width:1px;stroke-linecap:butt;stroke-linejoin:miter;stroke-opacity:1" d="M 526.204,198.657 535.562,181.811 z" id="boundary" inkscape:connector-curvature="0" />
	<path style="fill:none;stroke:red;stroke-width:1px;stroke-linecap:butt;stroke-linejoin:miter;stroke-opacity:1" d="M 526.204,198.657 511.23,211.758 z" id="boundary" inkscape:connector-curvature="0" />
	<path style="fill:none;stroke:red;stroke-width:1px;stroke-linecap:butt;stroke-linejoin:miter;stroke-opacity:1" d="M 638.506,153.736 655.351,144.377 z" id="boundary" inkscape:connector-curvature="0" />
	<path style="fill:none;stroke:red;stroke-width:1px;stroke-linecap:butt;stroke-linejoin:miter;stroke-opacity:1" d="M 655.351,144.377 672.196,153.736 z" id="boundary" inkscape:connector-curvature="0" />
	<path style="fill:none;stroke:red;stroke-width:1px;stroke-linecap:butt;stroke-linejoin:miter;stroke-opacity:1" d="M 623.532,166.838 638.506,153.736 z" id="boundary" inkscape:connector-curvature="0" />
	<path style="fill:none;stroke:red;stroke-width:1px;stroke-linecap:butt;stroke-linejoin:miter;stroke-opacity:1" d="M 722.732,144.377 707.758,157.479 z" id="boundary" inkscape:connector-curvature="0" />
	<path style="fill:none;stroke:red;stroke-width:1px;stroke-linecap:butt;stroke-linejoin:miter;stroke-opacity:1" d="M 689.042,163.094 672.196,153.736 z" id="boundary" inkscape:connector-curvature="0" />
	<path style="fill:none;stroke:red;stroke-width:1px;stroke-linecap:butt;stroke-linejoin:miter;stroke-opacity:1" d="M 707.758,157.479 689.042,163.094 z" id="boundary" inkscape:connector-curvature="0" />
	<path style="fill:none;stroke:red;stroke-width:1px;stroke-linecap:butt;stroke-linejoin:miter;stroke-opacity:1" d="M 601.072,200.528 608.558,181.811 z" id="boundary" inkscape:connector-curvature="0" />
	<path style="fill:none;stroke:red;stroke-width:1px;stroke-linecap:butt;stroke-linejoin:miter;stroke-opacity:1" d="M 608.558,181.811 623.532,166.838 z" id="boundary" inkscape:connector-curvature="0" />
	<path style="fill:none;stroke:red;stroke-width:1px;stroke-linecap:butt;stroke-linejoin:miter;stroke-opacity:1" d="M 601.072,200.528 586.098,213.63 z" id="boundary" inkscape:connector-curvature="0" />
	<path style="fill:none;stroke:red;stroke-width:1px;stroke-linecap:butt;stroke-linejoin:miter;stroke-opacity:1" d="M 440.106,219.245 455.079,204.272 z" id="boundary" inkscape:connector-curvature="0" />
	<path style="fill:none;stroke:red;stroke-width:1px;stroke-linecap:butt;stroke-linejoin:miter;stroke-opacity:1" d="M 501.872,230.475 488.77,254.808 z" id="boundary" inkscape:connector-curvature="0" />
	<path style="fill:none;stroke:red;stroke-width:1px;stroke-linecap:butt;stroke-linejoin:miter;stroke-opacity:1" d="M 473.796,267.909 477.54,286.626 z" id="boundary" inkscape:connector-curvature="0" />
	<path style="fill:none;stroke:red;stroke-width:1px;stroke-linecap:butt;stroke-linejoin:miter;stroke-opacity:1" d="M 473.796,267.909 488.77,254.808 z" id="boundary" inkscape:connector-curvature="0" />
	<path style="fill:none;stroke:red;stroke-width:1px;stroke-linecap:butt;stroke-linejoin:miter;stroke-opacity:1" d="M 496.257,294.113 477.54,286.626 z" id="boundary" inkscape:connector-curvature="0" />
	<path style="fill:none;stroke:red;stroke-width:1px;stroke-linecap:butt;stroke-linejoin:miter;stroke-opacity:1" d="M 514.974,284.755 496.257,294.113 z" id="boundary" inkscape:connector-curvature="0" />
	<path style="fill:none;stroke:red;stroke-width:1px;stroke-linecap:butt;stroke-linejoin:miter;stroke-opacity:1" d="M 561.766,247.321 544.921,256.679 z" id="boundary" inkscape:connector-curvature="0" />
	<path style="fill:none;stroke:red;stroke-width:1px;stroke-linecap:butt;stroke-linejoin:miter;stroke-opacity:1" d="M 576.74,232.347 586.098,213.63 z" id="boundary" inkscape:connector-curvature="0" />
	<path style="fill:none;stroke:red;stroke-width:1px;stroke-linecap:butt;stroke-linejoin:miter;stroke-opacity:1" d="M 576.74,232.347 561.766,247.321 z" id="boundary" inkscape:connector-curvature="0" />
	<path style="fill:none;stroke:red;stroke-width:1px;stroke-linecap:butt;stroke-linejoin:miter;stroke-opacity:1" d="M 511.23,211.758 501.872,230.475 z" id="boundary" inkscape:connector-curvature="0" />
	<path style="fill:none;stroke:red;stroke-width:1px;stroke-linecap:butt;stroke-linejoin:miter;stroke-opacity:1" d="M 514.974,284.755 529.947,269.781 z" id="boundary" inkscape:connector-curvature="0" />
	<path style="fill:none;stroke:red;stroke-width:1px;stroke-linecap:butt;stroke-linejoin:miter;stroke-opacity:1" d="M 529.947,269.781 544.921,256.679 z" id="boundary" inkscape:connector-curvature="0" />
	<path style="fill:none;stroke:red;stroke-width:1px;stroke-linecap:butt;stroke-linejoin:miter;stroke-opacity:1" d="M 722.732,348.392 707.758,361.494 z" id="boundary" inkscape:connector-curvature="0" />
	<path style="fill:none;stroke:red;stroke-width:1px;stroke-linecap:butt;stroke-linejoin:miter;stroke-opacity:1" d="M 707.758,361.494 698.4,380.211 z" id="boundary" inkscape:connector-curvature="0" />
	<path style="fill:none;stroke:red;stroke-width:1px;stroke-linecap:butt;stroke-linejoin:miter;stroke-opacity:1" d="M 801.343,54.5358 810.702,35.8189 z" id="boundary" inkscape:connector-curvature="0" />
	<path style="fill:none;stroke:red;stroke-width:1px;stroke-linecap:butt;stroke-linejoin:miter;stroke-opacity:1" d="M 810.702,35.8189 829.419,26.4604 z" id="boundary" inkscape:connector-curvature="0" />
	<path style="fill:none;stroke:red;stroke-width:1px;stroke-linecap:butt;stroke-linejoin:miter;stroke-opacity:1" d="M 801.343,54.5358 788.242,69.5094 z" id="boundary" inkscape:connector-curvature="0" />
	<path style="fill:none;stroke:red;stroke-width:1px;stroke-linecap:butt;stroke-linejoin:miter;stroke-opacity:1" d="M 844.392,13.3585 829.419,26.4604 z" id="boundary" inkscape:connector-curvature="0" />
	<path style="fill:none;stroke:red;stroke-width:1px;stroke-linecap:butt;stroke-linejoin:miter;stroke-opacity:1" d="M 750.808,116.302 758.294,97.5849 z" id="boundary" inkscape:connector-curvature="0" />
	<path style="fill:none;stroke:red;stroke-width:1px;stroke-linecap:butt;stroke-linejoin:miter;stroke-opacity:1" d="M 750.808,116.302 735.834,129.404 z" id="boundary" inkscape:connector-curvature="0" />
	<path style="fill:none;stroke:red;stroke-width:1px;stroke-linecap:butt;stroke-linejoin:miter;stroke-opacity:1" d="M 758.294,97.5849 773.268,82.6113 z" id="boundary" inkscape:connector-curvature="0" />
	<path style="fill:none;stroke:red;stroke-width:1px;stroke-linecap:butt;stroke-linejoin:miter;stroke-opacity:1" d="M 788.242,69.5094 773.268,82.6113 z" id="boundary" inkscape:connector-curvature="0" />
	<path style="fill:none;stroke:red;stroke-width:1px;stroke-linecap:butt;stroke-linejoin:miter;stroke-opacity:1" d="M 844.392,13.3585 861.238,4 z" id="boundary" inkscape:connector-curvature="0" />
	<path style="fill:none;stroke:red;stroke-width:1px;stroke-linecap:butt;stroke-linejoin:miter;stroke-opacity:1" d="M 861.238,4 879.955,4 z" id="boundary" inkscape:connector-curvature="0" />
	<path style="fill:none;stroke:red;stroke-width:1px;stroke-linecap:butt;stroke-linejoin:miter;stroke-opacity:1" d="M 891.185,30.2038 876.211,43.3057 z" id="boundary" inkscape:connector-curvature="0" />
	<path style="fill:none;stroke:red;stroke-width:1px;stroke-linecap:butt;stroke-linejoin:miter;stroke-opacity:1" d="M 879.955,4 891.185,30.2038 z" id="boundary" inkscape:connector-curvature="0" />
	<path style="fill:none;stroke:red;stroke-width:1px;stroke-linecap:butt;stroke-linejoin:miter;stroke-opacity:1" d="M 835.034,142.506 844.392,123.789 z" id="boundary" inkscape:connector-curvature="0" />
	<path style="fill:none;stroke:red;stroke-width:1px;stroke-linecap:butt;stroke-linejoin:miter;stroke-opacity:1" d="M 857.494,99.4566 844.392,123.789 z" id="boundary" inkscape:connector-curvature="0" />
	<path style="fill:none;stroke:red;stroke-width:1px;stroke-linecap:butt;stroke-linejoin:miter;stroke-opacity:1" d="M 866.853,71.3811 876.211,43.3057 z" id="boundary" inkscape:connector-curvature="0" />
	<path style="fill:none;stroke:red;stroke-width:1px;stroke-linecap:butt;stroke-linejoin:miter;stroke-opacity:1" d="M 866.853,71.3811 857.494,99.4566 z" id="boundary" inkscape:connector-curvature="0" />
	<path style="fill:none;stroke:red;stroke-width:1px;stroke-linecap:butt;stroke-linejoin:miter;stroke-opacity:1" d="M 778.883,198.657 763.909,211.758 z" id="boundary" inkscape:connector-curvature="0" />
	<path style="fill:none;stroke:red;stroke-width:1px;stroke-linecap:butt;stroke-linejoin:miter;stroke-opacity:1" d="M 735.834,129.404 722.732,144.377 z" id="boundary" inkscape:connector-curvature="0" />
	<path style="fill:none;stroke:red;stroke-width:1px;stroke-linecap:butt;stroke-linejoin:miter;stroke-opacity:1" d="M 763.909,211.758 767.653,230.475 z" id="boundary" inkscape:connector-curvature="0" />
	<path style="fill:none;stroke:red;stroke-width:1px;stroke-linecap:butt;stroke-linejoin:miter;stroke-opacity:1" d="M 722.732,348.392 735.834,333.419 z" id="boundary" inkscape:connector-curvature="0" />
	<path style="fill:none;stroke:red;stroke-width:1px;stroke-linecap:butt;stroke-linejoin:miter;stroke-opacity:1" d="M 750.808,320.317 763.909,305.343 z" id="boundary" inkscape:connector-curvature="0" />
	<path style="fill:none;stroke:red;stroke-width:1px;stroke-linecap:butt;stroke-linejoin:miter;stroke-opacity:1" d="M 750.808,320.317 735.834,333.419 z" id="boundary" inkscape:connector-curvature="0" />
	<path style="fill:none;stroke:red;stroke-width:1px;stroke-linecap:butt;stroke-linejoin:miter;stroke-opacity:1" d="M 773.268,286.626 763.909,305.343 z" id="boundary" inkscape:connector-curvature="0" />
	<path style="fill:none;stroke:red;stroke-width:1px;stroke-linecap:butt;stroke-linejoin:miter;stroke-opacity:1" d="M 791.985,183.683 806.958,170.581 z" id="boundary" inkscape:connector-curvature="0" />
	<path style="fill:none;stroke:red;stroke-width:1px;stroke-linecap:butt;stroke-linejoin:miter;stroke-opacity:1" d="M 806.958,170.581 820.06,155.608 z" id="boundary" inkscape:connector-curvature="0" />
	<path style="fill:none;stroke:red;stroke-width:1px;stroke-linecap:butt;stroke-linejoin:miter;stroke-opacity:1" d="M 820.06,155.608 835.034,142.506 z" id="boundary" inkscape:connector-curvature="0" />
	<path style="fill:none;stroke:red;stroke-width:1px;stroke-linecap:butt;stroke-linejoin:miter;stroke-opacity:1" d="M 777.011,247.321 782.626,266.038 z" id="boundary" inkscape:connector-curvature="0" />
	<path style="fill:none;stroke:red;stroke-width:1px;stroke-linecap:butt;stroke-linejoin:miter;stroke-opacity:1" d="M 782.626,266.038 773.268,286.626 z" id="boundary" inkscape:connector-curvature="0" />
	<path style="fill:none;stroke:red;stroke-width:1px;stroke-linecap:butt;stroke-linejoin:miter;stroke-opacity:1" d="M 767.653,230.475 777.011,247.321 z" id="boundary" inkscape:connector-curvature="0" />
	<path style="fill:none;stroke:red;stroke-width:1px;stroke-linecap:butt;stroke-linejoin:miter;stroke-opacity:1" d="M 778.883,198.657 791.985,183.683 z" id="boundary" inkscape:connector-curvature="0" />
	<path style="fill:none;stroke:red;stroke-width:1px;stroke-linecap:butt;stroke-linejoin:miter;stroke-opacity:1" d="M 451.336,632.891 432.619,632.891 z" id="boundary" inkscape:connector-curvature="0" />
	<path style="fill:none;stroke:red;stroke-width:1px;stroke-linecap:butt;stroke-linejoin:miter;stroke-opacity:1" d="M 470.053,632.891 451.336,632.891 z" id="boundary" inkscape:connector-curvature="0" />
	<path style="fill:none;stroke:red;stroke-width:1px;stroke-linecap:butt;stroke-linejoin:miter;stroke-opacity:1" d="M 471.925,651.608 471.925,670.325 z" id="boundary" inkscape:connector-curvature="0" />
	<path style="fill:none;stroke:red;stroke-width:1px;stroke-linecap:butt;stroke-linejoin:miter;stroke-opacity:1" d="M 471.925,651.608 470.053,632.891 z" id="boundary" inkscape:connector-curvature="0" />
	<path style="fill:none;stroke:red;stroke-width:1px;stroke-linecap:butt;stroke-linejoin:miter;stroke-opacity:1" d="M 471.925,670.325 477.54,689.042 z" id="boundary" inkscape:connector-curvature="0" />
	<path style="fill:none;stroke:red;stroke-width:1px;stroke-linecap:butt;stroke-linejoin:miter;stroke-opacity:1" d="M 492.513,702.143 477.54,689.042 z" id="boundary" inkscape:connector-curvature="0" />
	<path style="fill:none;stroke:red;stroke-width:1px;stroke-linecap:butt;stroke-linejoin:miter;stroke-opacity:1" d="M 720.86,397.057 705.887,412.03 z" id="boundary" inkscape:connector-curvature="0" />
	<path style="fill:none;stroke:red;stroke-width:1px;stroke-linecap:butt;stroke-linejoin:miter;stroke-opacity:1" d="M 713.374,488.77 698.4,501.872 z" id="boundary" inkscape:connector-curvature="0" />
	<path style="fill:none;stroke:red;stroke-width:1px;stroke-linecap:butt;stroke-linejoin:miter;stroke-opacity:1" d="M 689.042,520.589 689.042,539.306 z" id="boundary" inkscape:connector-curvature="0" />
	<path style="fill:none;stroke:red;stroke-width:1px;stroke-linecap:butt;stroke-linejoin:miter;stroke-opacity:1" d="M 707.758,565.509 689.042,558.023 z" id="boundary" inkscape:connector-curvature="0" />
	<path style="fill:none;stroke:red;stroke-width:1px;stroke-linecap:butt;stroke-linejoin:miter;stroke-opacity:1" d="M 689.042,558.023 689.042,539.306 z" id="boundary" inkscape:connector-curvature="0" />
	<path style="fill:none;stroke:red;stroke-width:1px;stroke-linecap:butt;stroke-linejoin:miter;stroke-opacity:1" d="M 698.4,501.872 689.042,520.589 z" id="boundary" inkscape:connector-curvature="0" />
	<path style="fill:none;stroke:red;stroke-width:1px;stroke-linecap:butt;stroke-linejoin:miter;stroke-opacity:1" d="M 529.947,698.4 511.23,707.758 z" id="boundary" inkscape:connector-curvature="0" />
	<path style="fill:none;stroke:red;stroke-width:1px;stroke-linecap:butt;stroke-linejoin:miter;stroke-opacity:1" d="M 511.23,707.758 492.513,702.143 z" id="boundary" inkscape:connector-curvature="0" />
	<path style="fill:none;stroke:red;stroke-width:1px;stroke-linecap:butt;stroke-linejoin:miter;stroke-opacity:1" d="M 529.947,698.4 546.792,689.042 z" id="boundary" inkscape:connector-curvature="0" />
	<path style="fill:none;stroke:red;stroke-width:1px;stroke-linecap:butt;stroke-linejoin:miter;stroke-opacity:1" d="M 565.509,689.042 546.792,689.042 z" id="boundary" inkscape:connector-curvature="0" />
	<path style="fill:none;stroke:red;stroke-width:1px;stroke-linecap:butt;stroke-linejoin:miter;stroke-opacity:1" d="M 565.509,689.042 576.74,704.015 z" id="boundary" inkscape:connector-curvature="0" />
	<path style="fill:none;stroke:red;stroke-width:1px;stroke-linecap:butt;stroke-linejoin:miter;stroke-opacity:1" d="M 591.713,717.117 576.74,704.015 z" id="boundary" inkscape:connector-curvature="0" />
	<path style="fill:none;stroke:red;stroke-width:1px;stroke-linecap:butt;stroke-linejoin:miter;stroke-opacity:1" d="M 591.713,717.117 604.815,732.091 z" id="boundary" inkscape:connector-curvature="0" />
	<path style="fill:none;stroke:red;stroke-width:1px;stroke-linecap:butt;stroke-linejoin:miter;stroke-opacity:1" d="M 604.815,732.091 614.174,748.936 z" id="boundary" inkscape:connector-curvature="0" />
	<path style="fill:none;stroke:red;stroke-width:1px;stroke-linecap:butt;stroke-linejoin:miter;stroke-opacity:1" d="M 631.019,758.294 614.174,748.936 z" id="boundary" inkscape:connector-curvature="0" />
	<path style="fill:none;stroke:red;stroke-width:1px;stroke-linecap:butt;stroke-linejoin:miter;stroke-opacity:1" d="M 631.019,758.294 640.377,775.14 z" id="boundary" inkscape:connector-curvature="0" />
	<path style="fill:none;stroke:red;stroke-width:1px;stroke-linecap:butt;stroke-linejoin:miter;stroke-opacity:1" d="M 649.736,791.985 640.377,775.14 z" id="boundary" inkscape:connector-curvature="0" />
	<path style="fill:none;stroke:red;stroke-width:1px;stroke-linecap:butt;stroke-linejoin:miter;stroke-opacity:1" d="M 660.966,806.958 649.736,791.985 z" id="boundary" inkscape:connector-curvature="0" />
	<path style="fill:none;stroke:red;stroke-width:1px;stroke-linecap:butt;stroke-linejoin:miter;stroke-opacity:1" d="M 679.683,810.702 660.966,806.958 z" id="boundary" inkscape:connector-curvature="0" />
	<path style="fill:none;stroke:red;stroke-width:1px;stroke-linecap:butt;stroke-linejoin:miter;stroke-opacity:1" d="M 679.683,810.702 698.4,801.343 z" id="boundary" inkscape:connector-curvature="0" />
	<path style="fill:none;stroke:red;stroke-width:1px;stroke-linecap:butt;stroke-linejoin:miter;stroke-opacity:1" d="M 713.374,788.242 698.4,801.343 z" id="boundary" inkscape:connector-curvature="0" />
	<path style="fill:none;stroke:red;stroke-width:1px;stroke-linecap:butt;stroke-linejoin:miter;stroke-opacity:1" d="M 726.475,473.796 713.374,488.77 z" id="boundary" inkscape:connector-curvature="0" />
	<path style="fill:none;stroke:red;stroke-width:1px;stroke-linecap:butt;stroke-linejoin:miter;stroke-opacity:1" d="M 741.449,460.694 726.475,473.796 z" id="boundary" inkscape:connector-curvature="0" />
	<path style="fill:none;stroke:red;stroke-width:1px;stroke-linecap:butt;stroke-linejoin:miter;stroke-opacity:1" d="M 717.117,595.457 707.758,614.174 z" id="boundary" inkscape:connector-curvature="0" />
	<path style="fill:none;stroke:red;stroke-width:1px;stroke-linecap:butt;stroke-linejoin:miter;stroke-opacity:1" d="M 732.091,582.355 717.117,595.457 z" id="boundary" inkscape:connector-curvature="0" />
	<path style="fill:none;stroke:red;stroke-width:1px;stroke-linecap:butt;stroke-linejoin:miter;stroke-opacity:1" d="M 726.475,559.894 732.091,582.355 z" id="boundary" inkscape:connector-curvature="0" />
	<path style="fill:none;stroke:red;stroke-width:1px;stroke-linecap:butt;stroke-linejoin:miter;stroke-opacity:1" d="M 707.758,565.509 726.475,559.894 z" id="boundary" inkscape:connector-curvature="0" />
	<path style="fill:none;stroke:red;stroke-width:1px;stroke-linecap:butt;stroke-linejoin:miter;stroke-opacity:1" d="M 739.577,387.698 756.423,378.34 z" id="boundary" inkscape:connector-curvature="0" />
	<path style="fill:none;stroke:red;stroke-width:1px;stroke-linecap:butt;stroke-linejoin:miter;stroke-opacity:1" d="M 773.268,368.981 782.626,389.57 z" id="boundary" inkscape:connector-curvature="0" />
	<path style="fill:none;stroke:red;stroke-width:1px;stroke-linecap:butt;stroke-linejoin:miter;stroke-opacity:1" d="M 756.423,378.34 773.268,368.981 z" id="boundary" inkscape:connector-curvature="0" />
	<path style="fill:none;stroke:red;stroke-width:1px;stroke-linecap:butt;stroke-linejoin:miter;stroke-opacity:1" d="M 739.577,387.698 720.86,397.057 z" id="boundary" inkscape:connector-curvature="0" />
	<path style="fill:none;stroke:red;stroke-width:1px;stroke-linecap:butt;stroke-linejoin:miter;stroke-opacity:1" d="M 782.626,389.57 773.268,408.287 z" id="boundary" inkscape:connector-curvature="0" />
	<path style="fill:none;stroke:red;stroke-width:1px;stroke-linecap:butt;stroke-linejoin:miter;stroke-opacity:1" d="M 754.551,445.721 741.449,460.694 z" id="boundary" inkscape:connector-curvature="0" />
	<path style="fill:none;stroke:red;stroke-width:1px;stroke-linecap:butt;stroke-linejoin:miter;stroke-opacity:1" d="M 754.551,445.721 763.909,427.004 z" id="boundary" inkscape:connector-curvature="0" />
	<path style="fill:none;stroke:red;stroke-width:1px;stroke-linecap:butt;stroke-linejoin:miter;stroke-opacity:1" d="M 773.268,408.287 763.909,427.004 z" id="boundary" inkscape:connector-curvature="0" />
	<path style="fill:none;stroke:red;stroke-width:1px;stroke-linecap:butt;stroke-linejoin:miter;stroke-opacity:1" d="M 707.758,614.174 707.758,632.891 z" id="boundary" inkscape:connector-curvature="0" />
	<path style="fill:none;stroke:red;stroke-width:1px;stroke-linecap:butt;stroke-linejoin:miter;stroke-opacity:1" d="M 717.117,649.736 707.758,632.891 z" id="boundary" inkscape:connector-curvature="0" />
	<path style="fill:none;stroke:red;stroke-width:1px;stroke-linecap:butt;stroke-linejoin:miter;stroke-opacity:1" d="M 735.834,644.121 717.117,649.736 z" id="boundary" inkscape:connector-curvature="0" />
	<path style="fill:none;stroke:red;stroke-width:1px;stroke-linecap:butt;stroke-linejoin:miter;stroke-opacity:1" d="M 741.449,675.94 726.475,689.042 z" id="boundary" inkscape:connector-curvature="0" />
	<path style="fill:none;stroke:red;stroke-width:1px;stroke-linecap:butt;stroke-linejoin:miter;stroke-opacity:1" d="M 726.475,689.042 726.475,707.758 z" id="boundary" inkscape:connector-curvature="0" />
	<path style="fill:none;stroke:red;stroke-width:1px;stroke-linecap:butt;stroke-linejoin:miter;stroke-opacity:1" d="M 726.475,726.475 726.475,745.192 z" id="boundary" inkscape:connector-curvature="0" />
	<path style="fill:none;stroke:red;stroke-width:1px;stroke-linecap:butt;stroke-linejoin:miter;stroke-opacity:1" d="M 726.475,707.758 726.475,726.475 z" id="boundary" inkscape:connector-curvature="0" />
	<path style="fill:none;stroke:red;stroke-width:1px;stroke-linecap:butt;stroke-linejoin:miter;stroke-opacity:1" d="M 726.475,745.192 726.475,763.909 z" id="boundary" inkscape:connector-curvature="0" />
	<path style="fill:none;stroke:red;stroke-width:1px;stroke-linecap:butt;stroke-linejoin:miter;stroke-opacity:1" d="M 726.475,763.909 713.374,788.242 z" id="boundary" inkscape:connector-curvature="0" />
	<path style="fill:none;stroke:red;stroke-width:1px;stroke-linecap:butt;stroke-linejoin:miter;stroke-opacity:1" d="M 769.525,629.147 750.808,631.019 z" id="boundary" inkscape:connector-curvature="0" />
	<path style="fill:none;stroke:red;stroke-width:1px;stroke-linecap:butt;stroke-linejoin:miter;stroke-opacity:1" d="M 750.808,631.019 735.834,644.121 z" id="boundary" inkscape:connector-curvature="0" />
	<path style="fill:none;stroke:red;stroke-width:1px;stroke-linecap:butt;stroke-linejoin:miter;stroke-opacity:1" d="M 758.294,612.302 775.14,602.943 z" id="boundary" inkscape:connector-curvature="0" />
	<path style="fill:none;stroke:red;stroke-width:1px;stroke-linecap:butt;stroke-linejoin:miter;stroke-opacity:1" d="M 741.449,675.94 750.808,657.223 z" id="boundary" inkscape:connector-curvature="0" />
	<path style="fill:none;stroke:red;stroke-width:1px;stroke-linecap:butt;stroke-linejoin:miter;stroke-opacity:1" d="M 735.834,644.121 750.808,657.223 z" id="boundary" inkscape:connector-curvature="0" />
	<circle cx="4" cy="636.634" r="4" fill="#0" id="circle0"/>
	<circle cx="18.9736" cy="649.736" r="4" fill="#0" id="circle1"/>
	<circle cx="22.717" cy="631.019" r="4" fill="#0" id="circle2"/>
	<circle cx="32.0755" cy="664.709" r="4" fill="#0" id="circle3"/>
	<circle cx="41.434" cy="631.019" r="4" fill="#0" id="circle4"/>
	<circle cx="47.0491" cy="677.811" r="4" fill="#0" id="circle5"/>
	<circle cx="60.1509" cy="631.019" r="4" fill="#0" id="circle6"/>
	<circle cx="60.1509" cy="692.785" r="4" fill="#0" id="circle7"/>
	<circle cx="60.1509" cy="711.502" r="4" fill="#0" id="circle8"/>
	<circle cx="75.1245" cy="724.604" r="4" fill="#0" id="circle9"/>
	<circle cx="78.8679" cy="631.019" r="4" fill="#0" id="circle10"/>
	<circle cx="91.9698" cy="733.962" r="4" fill="#0" id="circle11"/>
	<circle cx="97.5849" cy="631.019" r="4" fill="#0" id="circle12"/>
	<circle cx="106.943" cy="745.192" r="4" fill="#0" id="circle13"/>
	<circle cx="112.558" cy="642.249" r="4" fill="#0" id="circle14"/>
	<circle cx="123.789" cy="754.551" r="4" fill="#0" id="circle15"/>
	<circle cx="125.66" cy="299.728" r="4" fill="#0" id="circle16"/>
	<circle cx="125.66" cy="318.445" r="4" fill="#0" id="circle17"/>
	<circle cx="127.532" cy="655.351" r="4" fill="#0" id="circle18"/>
	<circle cx="136.891" cy="769.525" r="4" fill="#0" id="circle19"/>
	<circle cx="140.634" cy="284.755" r="4" fill="#0" id="circle20"/>
	<circle cx="140.634" cy="331.547" r="4" fill="#0" id="circle21"/>
	<circle cx="144.377" cy="664.709" r="4" fill="#0" id="circle22"/>
	<circle cx="144.377" cy="833.162" r="4" fill="#0" id="circle23"/>
	<circle cx="144.377" cy="851.879" r="4" fill="#0" id="circle24"/>
	<circle cx="155.608" cy="269.781" r="4" fill="#0" id="circle25"/>
	<circle cx="155.608" cy="342.777" r="4" fill="#0" id="circle26"/>
	<circle cx="155.608" cy="777.011" r="4" fill="#0" id="circle27"/>
	<circle cx="159.351" cy="677.811" r="4" fill="#0" id="circle28"/>
	<circle cx="159.351" cy="818.189" r="4" fill="#0" id="circle29"/>
	<circle cx="163.094" cy="795.728" r="4" fill="#0" id="circle30"/>
	<circle cx="163.094" cy="857.494" r="4" fill="#0" id="circle31"/>
	<circle cx="170.581" cy="256.679" r="4" fill="#0" id="circle32"/>
	<circle cx="172.453" cy="352.136" r="4" fill="#0" id="circle33"/>
	<circle cx="174.325" cy="838.777" r="4" fill="#0" id="circle34"/>
	<circle cx="176.196" cy="687.17" r="4" fill="#0" id="circle35"/>
	<circle cx="189.298" cy="256.679" r="4" fill="#0" id="circle36"/>
	<circle cx="189.298" cy="361.494" r="4" fill="#0" id="circle37"/>
	<circle cx="191.17" cy="829.419" r="4" fill="#0" id="circle38"/>
	<circle cx="193.042" cy="696.528" r="4" fill="#0" id="circle39"/>
	<circle cx="202.4" cy="376.468" r="4" fill="#0" id="circle40"/>
	<circle cx="208.015" cy="256.679" r="4" fill="#0" id="circle41"/>
	<circle cx="209.887" cy="829.419" r="4" fill="#0" id="circle42"/>
	<circle cx="211.758" cy="696.528" r="4" fill="#0" id="circle43"/>
	<circle cx="221.117" cy="380.211" r="4" fill="#0" id="circle44"/>
	<circle cx="221.117" cy="844.392" r="4" fill="#0" id="circle45"/>
	<circle cx="226.732" cy="256.679" r="4" fill="#0" id="circle46"/>
	<circle cx="230.475" cy="696.528" r="4" fill="#0" id="circle47"/>
	<circle cx="236.091" cy="857.494" r="4" fill="#0" id="circle48"/>
	<circle cx="237.962" cy="389.57" r="4" fill="#0" id="circle49"/>
	<circle cx="237.962" cy="458.823" r="4" fill="#0" id="circle50"/>
	<circle cx="243.577" cy="247.321" r="4" fill="#0" id="circle51"/>
	<circle cx="243.577" cy="876.211" r="4" fill="#0" id="circle52"/>
	<circle cx="247.321" cy="475.668" r="4" fill="#0" id="circle53"/>
	<circle cx="247.321" cy="687.17" r="4" fill="#0" id="circle54"/>
	<circle cx="249.192" cy="404.543" r="4" fill="#0" id="circle55"/>
	<circle cx="252.936" cy="443.849" r="4" fill="#0" id="circle56"/>
	<circle cx="256.679" cy="224.86" r="4" fill="#0" id="circle57"/>
	<circle cx="258.551" cy="672.196" r="4" fill="#0" id="circle58"/>
	<circle cx="258.551" cy="889.313" r="4" fill="#0" id="circle59"/>
	<circle cx="260.423" cy="490.642" r="4" fill="#0" id="circle60"/>
	<circle cx="264.166" cy="417.645" r="4" fill="#0" id="circle61"/>
	<circle cx="267.909" cy="249.192" r="4" fill="#0" id="circle62"/>
	<circle cx="271.653" cy="209.887" r="4" fill="#0" id="circle63"/>
	<circle cx="271.653" cy="904.287" r="4" fill="#0" id="circle64"/>
	<circle cx="273.525" cy="659.094" r="4" fill="#0" id="circle65"/>
	<circle cx="275.396" cy="501.872" r="4" fill="#0" id="circle66"/>
	<circle cx="277.268" cy="230.475" r="4" fill="#0" id="circle67"/>
	<circle cx="277.268" cy="266.038" r="4" fill="#0" id="circle68"/>
	<circle cx="281.011" cy="640.377" r="4" fill="#0" id="circle69"/>
	<circle cx="281.011" cy="921.132" r="4" fill="#0" id="circle70"/>
	<circle cx="294.113" cy="496.257" r="4" fill="#0" id="circle71"/>
	<circle cx="294.113" cy="617.917" r="4" fill="#0" id="circle72"/>
	<circle cx="295.985" cy="266.038" r="4" fill="#0" id="circle73"/>
	<circle cx="295.985" cy="745.192" r="4" fill="#0" id="circle74"/>
	<circle cx="295.985" cy="932.362" r="4" fill="#0" id="circle75"/>
	<circle cx="299.728" cy="763.909" r="4" fill="#0" id="circle76"/>
	<circle cx="305.343" cy="473.796" r="4" fill="#0" id="circle77"/>
	<circle cx="305.343" cy="782.626" r="4" fill="#0" id="circle78"/>
	<circle cx="309.087" cy="602.943" r="4" fill="#0" id="circle79"/>
	<circle cx="309.087" cy="801.343" r="4" fill="#0" id="circle80"/>
	<circle cx="310.958" cy="732.091" r="4" fill="#0" id="circle81"/>
	<circle cx="312.83" cy="252.936" r="4" fill="#0" id="circle82"/>
	<circle cx="312.83" cy="580.483" r="4" fill="#0" id="circle83"/>
	<circle cx="314.702" cy="932.362" r="4" fill="#0" id="circle84"/>
	<circle cx="320.317" cy="713.374" r="4" fill="#0" id="circle85"/>
	<circle cx="324.06" cy="477.54" r="4" fill="#0" id="circle86"/>
	<circle cx="324.06" cy="814.445" r="4" fill="#0" id="circle87"/>
	<circle cx="327.804" cy="237.962" r="4" fill="#0" id="circle88"/>
	<circle cx="327.804" cy="565.509" r="4" fill="#0" id="circle89"/>
	<circle cx="331.547" cy="941.721" r="4" fill="#0" id="circle90"/>
	<circle cx="333.419" cy="698.4" r="4" fill="#0" id="circle91"/>
	<circle cx="337.162" cy="492.513" r="4" fill="#0" id="circle92"/>
	<circle cx="337.162" cy="546.792" r="4" fill="#0" id="circle93"/>
	<circle cx="337.162" cy="829.419" r="4" fill="#0" id="circle94"/>
	<circle cx="342.777" cy="249.192" r="4" fill="#0" id="circle95"/>
	<circle cx="342.777" cy="956.694" r="4" fill="#0" id="circle96"/>
	<circle cx="346.521" cy="267.909" r="4" fill="#0" id="circle97"/>
	<circle cx="350.264" cy="507.487" r="4" fill="#0" id="circle98"/>
	<circle cx="350.264" cy="526.204" r="4" fill="#0" id="circle99"/>
	<circle cx="352.136" cy="689.042" r="4" fill="#0" id="circle100"/>
	<circle cx="352.136" cy="842.521" r="4" fill="#0" id="circle101"/>
	<circle cx="357.751" cy="969.796" r="4" fill="#0" id="circle102"/>
	<circle cx="365.238" cy="275.396" r="4" fill="#0" id="circle103"/>
	<circle cx="367.109" cy="675.94" r="4" fill="#0" id="circle104"/>
	<circle cx="368.981" cy="851.879" r="4" fill="#0" id="circle105"/>
	<circle cx="370.853" cy="984.77" r="4" fill="#0" id="circle106"/>
	<circle cx="380.211" cy="660.966" r="4" fill="#0" id="circle107"/>
	<circle cx="383.955" cy="275.396" r="4" fill="#0" id="circle108"/>
	<circle cx="383.955" cy="864.981" r="4" fill="#0" id="circle109"/>
	<circle cx="385.826" cy="996" r="4" fill="#0" id="circle110"/>
	<circle cx="395.185" cy="647.864" r="4" fill="#0" id="circle111"/>
	<circle cx="397.057" cy="879.955" r="4" fill="#0" id="circle112"/>
	<circle cx="398.928" cy="979.155" r="4" fill="#0" id="circle113"/>
	<circle cx="402.672" cy="275.396" r="4" fill="#0" id="circle114"/>
	<circle cx="412.03" cy="893.057" r="4" fill="#0" id="circle115"/>
	<circle cx="413.902" cy="638.506" r="4" fill="#0" id="circle116"/>
	<circle cx="413.902" cy="966.053" r="4" fill="#0" id="circle117"/>
	<circle cx="415.774" cy="252.936" r="4" fill="#0" id="circle118"/>
	<circle cx="423.26" cy="947.336" r="4" fill="#0" id="circle119"/>
	<circle cx="428.875" cy="902.415" r="4" fill="#0" id="circle120"/>
	<circle cx="430.747" cy="237.962" r="4" fill="#0" id="circle121"/>
	<circle cx="432.619" cy="632.891" r="4" fill="#0" id="circle122"/>
	<circle cx="436.362" cy="932.362" r="4" fill="#0" id="circle123"/>
	<circle cx="440.106" cy="219.245" r="4" fill="#0" id="circle124"/>
	<circle cx="451.336" cy="632.891" r="4" fill="#0" id="circle125"/>
	<circle cx="455.079" cy="204.272" r="4" fill="#0" id="circle126"/>
	<circle cx="470.053" cy="191.17" r="4" fill="#0" id="circle127"/>
	<circle cx="470.053" cy="632.891" r="4" fill="#0" id="circle128"/>
	<circle cx="471.925" cy="651.608" r="4" fill="#0" id="circle129"/>
	<circle cx="471.925" cy="670.325" r="4" fill="#0" id="circle130"/>
	<circle cx="473.796" cy="267.909" r="4" fill="#0" id="circle131"/>
	<circle cx="477.54" cy="286.626" r="4" fill="#0" id="circle132"/>
	<circle cx="477.54" cy="689.042" r="4" fill="#0" id="circle133"/>
	<circle cx="483.155" cy="176.196" r="4" fill="#0" id="circle134"/>
	<circle cx="488.77" cy="254.808" r="4" fill="#0" id="circle135"/>
	<circle cx="492.513" cy="702.143" r="4" fill="#0" id="circle136"/>
	<circle cx="496.257" cy="294.113" r="4" fill="#0" id="circle137"/>
	<circle cx="501.872" cy="166.838" r="4" fill="#0" id="circle138"/>
	<circle cx="501.872" cy="230.475" r="4" fill="#0" id="circle139"/>
	<circle cx="511.23" cy="211.758" r="4" fill="#0" id="circle140"/>
	<circle cx="511.23" cy="707.758" r="4" fill="#0" id="circle141"/>
	<circle cx="514.974" cy="284.755" r="4" fill="#0" id="circle142"/>
	<circle cx="516.845" cy="153.736" r="4" fill="#0" id="circle143"/>
	<circle cx="526.204" cy="198.657" r="4" fill="#0" id="circle144"/>
	<circle cx="529.947" cy="269.781" r="4" fill="#0" id="circle145"/>
	<circle cx="529.947" cy="698.4" r="4" fill="#0" id="circle146"/>
	<circle cx="533.691" cy="163.094" r="4" fill="#0" id="circle147"/>
	<circle cx="535.562" cy="181.811" r="4" fill="#0" id="circle148"/>
	<circle cx="544.921" cy="256.679" r="4" fill="#0" id="circle149"/>
	<circle cx="546.792" cy="689.042" r="4" fill="#0" id="circle150"/>
	<circle cx="561.766" cy="247.321" r="4" fill="#0" id="circle151"/>
	<circle cx="565.509" cy="689.042" r="4" fill="#0" id="circle152"/>
	<circle cx="576.74" cy="232.347" r="4" fill="#0" id="circle153"/>
	<circle cx="576.74" cy="704.015" r="4" fill="#0" id="circle154"/>
	<circle cx="586.098" cy="213.63" r="4" fill="#0" id="circle155"/>
	<circle cx="591.713" cy="717.117" r="4" fill="#0" id="circle156"/>
	<circle cx="601.072" cy="200.528" r="4" fill="#0" id="circle157"/>
	<circle cx="604.815" cy="732.091" r="4" fill="#0" id="circle158"/>
	<circle cx="608.558" cy="181.811" r="4" fill="#0" id="circle159"/>
	<circle cx="614.174" cy="748.936" r="4" fill="#0" id="circle160"/>
	<circle cx="623.532" cy="166.838" r="4" fill="#0" id="circle161"/>
	<circle cx="631.019" cy="758.294" r="4" fill="#0" id="circle162"/>
	<circle cx="638.506" cy="153.736" r="4" fill="#0" id="circle163"/>
	<circle cx="640.377" cy="775.14" r="4" fill="#0" id="circle164"/>
	<circle cx="649.736" cy="791.985" r="4" fill="#0" id="circle165"/>
	<circle cx="655.351" cy="144.377" r="4" fill="#0" id="circle166"/>
	<circle cx="660.966" cy="806.958" r="4" fill="#0" id="circle167"/>
	<circle cx="670.325" cy="417.645" r="4" fill="#0" id="circle168"/>
	<circle cx="672.196" cy="153.736" r="4" fill="#0" id="circle169"/>
	<circle cx="679.683" cy="810.702" r="4" fill="#0" id="circle170"/>
	<circle cx="685.298" cy="404.543" r="4" fill="#0" id="circle171"/>
	<circle cx="689.042" cy="163.094" r="4" fill="#0" id="circle172"/>
	<circle cx="689.042" cy="425.132" r="4" fill="#0" id="circle173"/>
	<circle cx="689.042" cy="520.589" r="4" fill="#0" id="circle174"/>
	<circle cx="689.042" cy="539.306" r="4" fill="#0" id="circle175"/>
	<circle cx="689.042" cy="558.023" r="4" fill="#0" id="circle176"/>
	<circle cx="698.4" cy="380.211" r="4" fill="#0" id="circle177"/>
	<circle cx="698.4" cy="501.872" r="4" fill="#0" id="circle178"/>
	<circle cx="698.4" cy="801.343" r="4" fill="#0" id="circle179"/>
	<circle cx="705.887" cy="412.03" r="4" fill="#0" id="circle180"/>
	<circle cx="707.758" cy="157.479" r="4" fill="#0" id="circle181"/>
	<circle cx="707.758" cy="361.494" r="4" fill="#0" id="circle182"/>
	<circle cx="707.758" cy="565.509" r="4" fill="#0" id="circle183"/>
	<circle cx="707.758" cy="614.174" r="4" fill="#0" id="circle184"/>
	<circle cx="707.758" cy="632.891" r="4" fill="#0" id="circle185"/>
	<circle cx="713.374" cy="488.77" r="4" fill="#0" id="circle186"/>
	<circle cx="713.374" cy="788.242" r="4" fill="#0" id="circle187"/>
	<circle cx="717.117" cy="595.457" r="4" fill="#0" id="circle188"/>
	<circle cx="717.117" cy="649.736" r="4" fill="#0" id="circle189"/>
	<circle cx="720.86" cy="397.057" r="4" fill="#0" id="circle190"/>
	<circle cx="722.732" cy="144.377" r="4" fill="#0" id="circle191"/>
	<circle cx="722.732" cy="348.392" r="4" fill="#0" id="circle192"/>
	<circle cx="726.475" cy="473.796" r="4" fill="#0" id="circle193"/>
	<circle cx="726.475" cy="559.894" r="4" fill="#0" id="circle194"/>
	<circle cx="726.475" cy="689.042" r="4" fill="#0" id="circle195"/>
	<circle cx="726.475" cy="707.758" r="4" fill="#0" id="circle196"/>
	<circle cx="726.475" cy="726.475" r="4" fill="#0" id="circle197"/>
	<circle cx="726.475" cy="745.192" r="4" fill="#0" id="circle198"/>
	<circle cx="726.475" cy="763.909" r="4" fill="#0" id="circle199"/>
	<circle cx="732.091" cy="582.355" r="4" fill="#0" id="circle200"/>
	<circle cx="735.834" cy="129.404" r="4" fill="#0" id="circle201"/>
	<circle cx="735.834" cy="333.419" r="4" fill="#0" id="circle202"/>
	<circle cx="735.834" cy="644.121" r="4" fill="#0" id="circle203"/>
	<circle cx="739.577" cy="387.698" r="4" fill="#0" id="circle204"/>
	<circle cx="741.449" cy="460.694" r="4" fill="#0" id="circle205"/>
	<circle cx="741.449" cy="675.94" r="4" fill="#0" id="circle206"/>
	<circle cx="750.808" cy="116.302" r="4" fill="#0" id="circle207"/>
	<circle cx="750.808" cy="320.317" r="4" fill="#0" id="circle208"/>
	<circle cx="750.808" cy="631.019" r="4" fill="#0" id="circle209"/>
	<circle cx="750.808" cy="657.223" r="4" fill="#0" id="circle210"/>
	<circle cx="754.551" cy="445.721" r="4" fill="#0" id="circle211"/>
	<circle cx="756.423" cy="378.34" r="4" fill="#0" id="circle212"/>
	<circle cx="758.294" cy="97.5849" r="4" fill="#0" id="circle213"/>
	<circle cx="758.294" cy="612.302" r="4" fill="#0" id="circle214"/>
	<circle cx="763.909" cy="211.758" r="4" fill="#0" id="circle215"/>
	<circle cx="763.909" cy="305.343" r="4" fill="#0" id="circle216"/>
	<circle cx="763.909" cy="427.004" r="4" fill="#0" id="circle217"/>
	<circle cx="767.653" cy="230.475" r="4" fill="#0" id="circle218"/>
	<circle cx="769.525" cy="629.147" r="4" fill="#0" id="circle219"/>
	<circle cx="773.268" cy="82.6113" r="4" fill="#0" id="circle220"/>
	<circle cx="773.268" cy="286.626" r="4" fill="#0" id="circle221"/>
	<circle cx="773.268" cy="368.981" r="4" fill="#0" id="circle222"/>
	<circle cx="773.268" cy="408.287" r="4" fill="#0" id="circle223"/>
	<circle cx="775.14" cy="602.943" r="4" fill="#0" id="circle224"/>
	<circle cx="777.011" cy="247.321" r="4" fill="#0" id="circle225"/>
	<circle cx="778.883" cy="198.657" r="4" fill="#0" id="circle226"/>
	<circle cx="782.626" cy="266.038" r="4" fill="#0" id="circle227"/>
	<circle cx="782.626" cy="389.57" r="4" fill="#0" id="circle228"/>
	<circle cx="788.242" cy="69.5094" r="4" fill="#0" id="circle229"/>
	<circle cx="791.985" cy="183.683" r="4" fill="#0" id="circle230"/>
	<circle cx="801.343" cy="54.5358" r="4" fill="#0" id="circle231"/>
	<circle cx="806.958" cy="170.581" r="4" fill="#0" id="circle232"/>
	<circle cx="810.702" cy="35.8189" r="4" fill="#0" id="circle233"/>
	<circle cx="820.06" cy="155.608" r="4" fill="#0" id="circle234"/>
	<circle cx="829.419" cy="26.4604" r="4" fill="#0" id="circle235"/>
	<circle cx="835.034" cy="142.506" r="4" fill="#0" id="circle236"/>
	<circle cx="844.392" cy="13.3585" r="4" fill="#0" id="circle237"/>
	<circle cx="844.392" cy="123.789" r="4" fill="#0" id="circle238"/>
	<circle cx="857.494" cy="99.4566" r="4" fill="#0" id="circle239"/>
	<circle cx="861.238" cy="4" r="4" fill="#0" id="circle240"/>
	<circle cx="866.853" cy="71.3811" r="4" fill="#0" id="circle241"/>
	<circle cx="876.211" cy="43.3057" r="4" fill="#0" id="circle242"/>
	<circle cx="879.955" cy="4" r="4" fill="#0" id="circle243"/>
	<circle cx="891.185" cy="30.2038" r="4" fill="#0" id="circle244"/>
	</g>
</svg>