<?xml version="1.0" encoding="UTF-8" standalone="no"?>
<!-- Created with CurveBenchmark -->
<svg
	xmlns:dc="http://purl.org/dc/elements/1.1/"
	xmlns:cc="http://creativecommons.org/ns#"
	xmlns:rdf="http://www.w3.org/1999/02/22-rdf-syntax-ns#"
	xmlns:svg="http://www.w3.org/2000/svg"
	xmlns="http://www.w3.org/2000/svg"
	xmlns:sodipodi="http://sodipodi.sourceforge.net/DTD/sodipodi-0.dtd"
	xmlns:inkscape="http://www.inkscape.org/namespaces/inkscape"
	width="1000"
	height="1000"
	id="svg2"
	version="1.1"
	sodipodi:docname="manifold/ccrust-fish000.png.txt">
<defs
	id="defs4" />
<metadata
	id="metadata7">
	<rdf:RDF>
		<cc:Work
			rdf:about="">
			<dc:format>image/svg+xml</dc:format>
			<dc:type
				rdf:resource="http://purl.org/dc/dcmitype/StillImage" />
			<dc:title></dc:title>
		</cc:Work>
	</rdf:RDF>
</metadata>
<g
	inkscape:label="Layer 1"
	inkscape:groupmode="layer"
	id="layer1">
	<path style="fill:none;stroke:red;stroke-width:1px;stroke-linecap:butt;stroke-linejoin:miter;stroke-opacity:1" d="M 104.559,153.479 131.737,142.608 z" id="boundary" inkscape:connector-curvature="0" />
	<path style="fill:none;stroke:red;stroke-width:1px;stroke-linecap:butt;stroke-linejoin:miter;stroke-opacity:1" d="M 158.915,131.737 131.737,142.608 z" id="boundary" inkscape:connector-curvature="0" />
	<path style="fill:none;stroke:red;stroke-width:1px;stroke-linecap:butt;stroke-linejoin:miter;stroke-opacity:1" d="M 158.915,131.737 186.093,120.866 z" id="boundary" inkscape:connector-curvature="0" />
	<path style="fill:none;stroke:red;stroke-width:1px;stroke-linecap:butt;stroke-linejoin:miter;stroke-opacity:1" d="M 213.271,112.712 186.093,120.866 z" id="boundary" inkscape:connector-curvature="0" />
	<path style="fill:none;stroke:red;stroke-width:1px;stroke-linecap:butt;stroke-linejoin:miter;stroke-opacity:1" d="M 240.449,104.559 213.271,112.712 z" id="boundary" inkscape:connector-curvature="0" />
	<path style="fill:none;stroke:red;stroke-width:1px;stroke-linecap:butt;stroke-linejoin:miter;stroke-opacity:1" d="M 4,205.118 25.7425,188.811 z" id="boundary" inkscape:connector-curvature="0" />
	<path style="fill:none;stroke:red;stroke-width:1px;stroke-linecap:butt;stroke-linejoin:miter;stroke-opacity:1" d="M 17.589,229.578 4,205.118 z" id="boundary" inkscape:connector-curvature="0" />
	<path style="fill:none;stroke:red;stroke-width:1px;stroke-linecap:butt;stroke-linejoin:miter;stroke-opacity:1" d="M 39.3315,245.885 17.589,229.578 z" id="boundary" inkscape:connector-curvature="0" />
	<path style="fill:none;stroke:red;stroke-width:1px;stroke-linecap:butt;stroke-linejoin:miter;stroke-opacity:1" d="M 25.7425,188.811 50.2027,175.222 z" id="boundary" inkscape:connector-curvature="0" />
	<path style="fill:none;stroke:red;stroke-width:1px;stroke-linecap:butt;stroke-linejoin:miter;stroke-opacity:1" d="M 77.3808,164.351 50.2027,175.222 z" id="boundary" inkscape:connector-curvature="0" />
	<path style="fill:none;stroke:red;stroke-width:1px;stroke-linecap:butt;stroke-linejoin:miter;stroke-opacity:1" d="M 104.559,153.479 77.3808,164.351 z" id="boundary" inkscape:connector-curvature="0" />
	<path style="fill:none;stroke:red;stroke-width:1px;stroke-linecap:butt;stroke-linejoin:miter;stroke-opacity:1" d="M 324.701,36.6137 338.29,12.1534 z" id="boundary" inkscape:connector-curvature="0" />
	<path style="fill:none;stroke:red;stroke-width:1px;stroke-linecap:butt;stroke-linejoin:miter;stroke-opacity:1" d="M 338.29,12.1534 365.468,9.43562 z" id="boundary" inkscape:connector-curvature="0" />
	<path style="fill:none;stroke:red;stroke-width:1px;stroke-linecap:butt;stroke-linejoin:miter;stroke-opacity:1" d="M 392.647,4 365.468,9.43562 z" id="boundary" inkscape:connector-curvature="0" />
	<path style="fill:none;stroke:red;stroke-width:1px;stroke-linecap:butt;stroke-linejoin:miter;stroke-opacity:1" d="M 392.647,4 419.825,14.8712 z" id="boundary" inkscape:connector-curvature="0" />
	<path style="fill:none;stroke:red;stroke-width:1px;stroke-linecap:butt;stroke-linejoin:miter;stroke-opacity:1" d="M 447.003,25.7425 419.825,14.8712 z" id="boundary" inkscape:connector-curvature="0" />
	<path style="fill:none;stroke:red;stroke-width:1px;stroke-linecap:butt;stroke-linejoin:miter;stroke-opacity:1" d="M 297.523,47.4849 294.805,93.6877 z" id="boundary" inkscape:connector-curvature="0" />
	<path style="fill:none;stroke:red;stroke-width:1px;stroke-linecap:butt;stroke-linejoin:miter;stroke-opacity:1" d="M 294.805,93.6877 267.627,99.1233 z" id="boundary" inkscape:connector-curvature="0" />
	<path style="fill:none;stroke:red;stroke-width:1px;stroke-linecap:butt;stroke-linejoin:miter;stroke-opacity:1" d="M 267.627,99.1233 240.449,104.559 z" id="boundary" inkscape:connector-curvature="0" />
	<path style="fill:none;stroke:red;stroke-width:1px;stroke-linecap:butt;stroke-linejoin:miter;stroke-opacity:1" d="M 297.523,47.4849 324.701,36.6137 z" id="boundary" inkscape:connector-curvature="0" />
	<path style="fill:none;stroke:red;stroke-width:1px;stroke-linecap:butt;stroke-linejoin:miter;stroke-opacity:1" d="M 447.003,25.7425 474.181,36.6137 z" id="boundary" inkscape:connector-curvature="0" />
	<path style="fill:none;stroke:red;stroke-width:1px;stroke-linecap:butt;stroke-linejoin:miter;stroke-opacity:1" d="M 501.359,47.4849 474.181,36.6137 z" id="boundary" inkscape:connector-curvature="0" />
	<path style="fill:none;stroke:red;stroke-width:1px;stroke-linecap:butt;stroke-linejoin:miter;stroke-opacity:1" d="M 39.3315,245.885 58.3562,267.627 z" id="boundary" inkscape:connector-curvature="0" />
	<path style="fill:none;stroke:red;stroke-width:1px;stroke-linecap:butt;stroke-linejoin:miter;stroke-opacity:1" d="M 80.0986,286.652 58.3562,267.627 z" id="boundary" inkscape:connector-curvature="0" />
	<path style="fill:none;stroke:red;stroke-width:1px;stroke-linecap:butt;stroke-linejoin:miter;stroke-opacity:1" d="M 104.559,300.241 80.0986,286.652 z" id="boundary" inkscape:connector-curvature="0" />
	<path style="fill:none;stroke:red;stroke-width:1px;stroke-linecap:butt;stroke-linejoin:miter;stroke-opacity:1" d="M 104.559,300.241 131.737,311.112 z" id="boundary" inkscape:connector-curvature="0" />
	<path style="fill:none;stroke:red;stroke-width:1px;stroke-linecap:butt;stroke-linejoin:miter;stroke-opacity:1" d="M 158.915,321.984 186.093,332.855 z" id="boundary" inkscape:connector-curvature="0" />
	<path style="fill:none;stroke:red;stroke-width:1px;stroke-linecap:butt;stroke-linejoin:miter;stroke-opacity:1" d="M 213.271,343.726 186.093,332.855 z" id="boundary" inkscape:connector-curvature="0" />
	<path style="fill:none;stroke:red;stroke-width:1px;stroke-linecap:butt;stroke-linejoin:miter;stroke-opacity:1" d="M 240.449,349.162 267.627,354.597 z" id="boundary" inkscape:connector-curvature="0" />
	<path style="fill:none;stroke:red;stroke-width:1px;stroke-linecap:butt;stroke-linejoin:miter;stroke-opacity:1" d="M 240.449,349.162 213.271,343.726 z" id="boundary" inkscape:connector-curvature="0" />
	<path style="fill:none;stroke:red;stroke-width:1px;stroke-linecap:butt;stroke-linejoin:miter;stroke-opacity:1" d="M 267.627,354.597 294.805,360.033 z" id="boundary" inkscape:connector-curvature="0" />
	<path style="fill:none;stroke:red;stroke-width:1px;stroke-linecap:butt;stroke-linejoin:miter;stroke-opacity:1" d="M 294.805,360.033 308.395,384.493 z" id="boundary" inkscape:connector-curvature="0" />
	<path style="fill:none;stroke:red;stroke-width:1px;stroke-linecap:butt;stroke-linejoin:miter;stroke-opacity:1" d="M 158.915,321.984 131.737,311.112 z" id="boundary" inkscape:connector-curvature="0" />
	<path style="fill:none;stroke:red;stroke-width:1px;stroke-linecap:butt;stroke-linejoin:miter;stroke-opacity:1" d="M 324.701,406.236 308.395,384.493 z" id="boundary" inkscape:connector-curvature="0" />
	<path style="fill:none;stroke:red;stroke-width:1px;stroke-linecap:butt;stroke-linejoin:miter;stroke-opacity:1" d="M 436.132,376.34 427.978,349.162 z" id="boundary" inkscape:connector-curvature="0" />
	<path style="fill:none;stroke:red;stroke-width:1px;stroke-linecap:butt;stroke-linejoin:miter;stroke-opacity:1" d="M 427.978,349.162 455.156,349.162 z" id="boundary" inkscape:connector-curvature="0" />
	<path style="fill:none;stroke:red;stroke-width:1px;stroke-linecap:butt;stroke-linejoin:miter;stroke-opacity:1" d="M 433.414,408.953 436.132,376.34 z" id="boundary" inkscape:connector-curvature="0" />
	<path style="fill:none;stroke:red;stroke-width:1px;stroke-linecap:butt;stroke-linejoin:miter;stroke-opacity:1" d="M 482.334,343.726 455.156,349.162 z" id="boundary" inkscape:connector-curvature="0" />
	<path style="fill:none;stroke:red;stroke-width:1px;stroke-linecap:butt;stroke-linejoin:miter;stroke-opacity:1" d="M 482.334,343.726 509.512,343.726 z" id="boundary" inkscape:connector-curvature="0" />
	<path style="fill:none;stroke:red;stroke-width:1px;stroke-linecap:butt;stroke-linejoin:miter;stroke-opacity:1" d="M 368.186,441.567 343.726,427.978 z" id="boundary" inkscape:connector-curvature="0" />
	<path style="fill:none;stroke:red;stroke-width:1px;stroke-linecap:butt;stroke-linejoin:miter;stroke-opacity:1" d="M 343.726,427.978 324.701,406.236 z" id="boundary" inkscape:connector-curvature="0" />
	<path style="fill:none;stroke:red;stroke-width:1px;stroke-linecap:butt;stroke-linejoin:miter;stroke-opacity:1" d="M 419.825,433.414 395.364,452.438 z" id="boundary" inkscape:connector-curvature="0" />
	<path style="fill:none;stroke:red;stroke-width:1px;stroke-linecap:butt;stroke-linejoin:miter;stroke-opacity:1" d="M 395.364,452.438 368.186,441.567 z" id="boundary" inkscape:connector-curvature="0" />
	<path style="fill:none;stroke:red;stroke-width:1px;stroke-linecap:butt;stroke-linejoin:miter;stroke-opacity:1" d="M 433.414,408.953 419.825,433.414 z" id="boundary" inkscape:connector-curvature="0" />
	<path style="fill:none;stroke:red;stroke-width:1px;stroke-linecap:butt;stroke-linejoin:miter;stroke-opacity:1" d="M 509.512,343.726 536.69,343.726 z" id="boundary" inkscape:connector-curvature="0" />
	<path style="fill:none;stroke:red;stroke-width:1px;stroke-linecap:butt;stroke-linejoin:miter;stroke-opacity:1" d="M 547.562,80.0986 572.022,93.6877 z" id="boundary" inkscape:connector-curvature="0" />
	<path style="fill:none;stroke:red;stroke-width:1px;stroke-linecap:butt;stroke-linejoin:miter;stroke-opacity:1" d="M 547.562,80.0986 528.537,58.3562 z" id="boundary" inkscape:connector-curvature="0" />
	<path style="fill:none;stroke:red;stroke-width:1px;stroke-linecap:butt;stroke-linejoin:miter;stroke-opacity:1" d="M 626.378,85.5342 653.556,74.663 z" id="boundary" inkscape:connector-curvature="0" />
	<path style="fill:none;stroke:red;stroke-width:1px;stroke-linecap:butt;stroke-linejoin:miter;stroke-opacity:1" d="M 528.537,58.3562 501.359,47.4849 z" id="boundary" inkscape:connector-curvature="0" />
	<path style="fill:none;stroke:red;stroke-width:1px;stroke-linecap:butt;stroke-linejoin:miter;stroke-opacity:1" d="M 653.556,74.663 680.734,74.663 z" id="boundary" inkscape:connector-curvature="0" />
	<path style="fill:none;stroke:red;stroke-width:1px;stroke-linecap:butt;stroke-linejoin:miter;stroke-opacity:1" d="M 680.734,74.663 702.477,90.9699 z" id="boundary" inkscape:connector-curvature="0" />
	<path style="fill:none;stroke:red;stroke-width:1px;stroke-linecap:butt;stroke-linejoin:miter;stroke-opacity:1" d="M 626.378,85.5342 599.2,93.6877 z" id="boundary" inkscape:connector-curvature="0" />
	<path style="fill:none;stroke:red;stroke-width:1px;stroke-linecap:butt;stroke-linejoin:miter;stroke-opacity:1" d="M 599.2,93.6877 572.022,93.6877 z" id="boundary" inkscape:connector-curvature="0" />
	<path style="fill:none;stroke:red;stroke-width:1px;stroke-linecap:butt;stroke-linejoin:miter;stroke-opacity:1" d="M 702.477,90.9699 724.219,107.277 z" id="boundary" inkscape:connector-curvature="0" />
	<path style="fill:none;stroke:red;stroke-width:1px;stroke-linecap:butt;stroke-linejoin:miter;stroke-opacity:1" d="M 724.219,107.277 745.962,123.584 z" id="boundary" inkscape:connector-curvature="0" />
	<path style="fill:none;stroke:red;stroke-width:1px;stroke-linecap:butt;stroke-linejoin:miter;stroke-opacity:1" d="M 764.986,145.326 745.962,123.584 z" id="boundary" inkscape:connector-curvature="0" />
	<path style="fill:none;stroke:red;stroke-width:1px;stroke-linecap:butt;stroke-linejoin:miter;stroke-opacity:1" d="M 862.827,156.197 887.288,142.608 z" id="boundary" inkscape:connector-curvature="0" />
	<path style="fill:none;stroke:red;stroke-width:1px;stroke-linecap:butt;stroke-linejoin:miter;stroke-opacity:1" d="M 862.827,156.197 835.649,167.068 z" id="boundary" inkscape:connector-curvature="0" />
	<path style="fill:none;stroke:red;stroke-width:1px;stroke-linecap:butt;stroke-linejoin:miter;stroke-opacity:1" d="M 887.288,142.608 914.466,131.737 z" id="boundary" inkscape:connector-curvature="0" />
	<path style="fill:none;stroke:red;stroke-width:1px;stroke-linecap:butt;stroke-linejoin:miter;stroke-opacity:1" d="M 941.644,123.584 968.822,118.148 z" id="boundary" inkscape:connector-curvature="0" />
	<path style="fill:none;stroke:red;stroke-width:1px;stroke-linecap:butt;stroke-linejoin:miter;stroke-opacity:1" d="M 914.466,131.737 941.644,123.584 z" id="boundary" inkscape:connector-curvature="0" />
	<path style="fill:none;stroke:red;stroke-width:1px;stroke-linecap:butt;stroke-linejoin:miter;stroke-opacity:1" d="M 968.822,118.148 996,123.584 z" id="boundary" inkscape:connector-curvature="0" />
	<path style="fill:none;stroke:red;stroke-width:1px;stroke-linecap:butt;stroke-linejoin:miter;stroke-opacity:1" d="M 996,123.584 985.129,156.197 z" id="boundary" inkscape:connector-curvature="0" />
	<path style="fill:none;stroke:red;stroke-width:1px;stroke-linecap:butt;stroke-linejoin:miter;stroke-opacity:1" d="M 835.649,167.068 808.471,177.94 z" id="boundary" inkscape:connector-curvature="0" />
	<path style="fill:none;stroke:red;stroke-width:1px;stroke-linecap:butt;stroke-linejoin:miter;stroke-opacity:1" d="M 808.471,177.94 781.293,167.068 z" id="boundary" inkscape:connector-curvature="0" />
	<path style="fill:none;stroke:red;stroke-width:1px;stroke-linecap:butt;stroke-linejoin:miter;stroke-opacity:1" d="M 781.293,167.068 764.986,145.326 z" id="boundary" inkscape:connector-curvature="0" />
	<path style="fill:none;stroke:red;stroke-width:1px;stroke-linecap:butt;stroke-linejoin:miter;stroke-opacity:1" d="M 974.258,188.811 985.129,156.197 z" id="boundary" inkscape:connector-curvature="0" />
	<path style="fill:none;stroke:red;stroke-width:1px;stroke-linecap:butt;stroke-linejoin:miter;stroke-opacity:1" d="M 974.258,215.989 974.258,188.811 z" id="boundary" inkscape:connector-curvature="0" />
	<path style="fill:none;stroke:red;stroke-width:1px;stroke-linecap:butt;stroke-linejoin:miter;stroke-opacity:1" d="M 563.868,343.726 536.69,343.726 z" id="boundary" inkscape:connector-curvature="0" />
	<path style="fill:none;stroke:red;stroke-width:1px;stroke-linecap:butt;stroke-linejoin:miter;stroke-opacity:1" d="M 591.047,338.29 563.868,343.726 z" id="boundary" inkscape:connector-curvature="0" />
	<path style="fill:none;stroke:red;stroke-width:1px;stroke-linecap:butt;stroke-linejoin:miter;stroke-opacity:1" d="M 645.403,343.726 618.225,338.29 z" id="boundary" inkscape:connector-curvature="0" />
	<path style="fill:none;stroke:red;stroke-width:1px;stroke-linecap:butt;stroke-linejoin:miter;stroke-opacity:1" d="M 618.225,338.29 591.047,338.29 z" id="boundary" inkscape:connector-curvature="0" />
	<path style="fill:none;stroke:red;stroke-width:1px;stroke-linecap:butt;stroke-linejoin:miter;stroke-opacity:1" d="M 778.575,270.345 778.575,297.523 z" id="boundary" inkscape:connector-curvature="0" />
	<path style="fill:none;stroke:red;stroke-width:1px;stroke-linecap:butt;stroke-linejoin:miter;stroke-opacity:1" d="M 778.575,297.523 767.704,324.701 z" id="boundary" inkscape:connector-curvature="0" />
	<path style="fill:none;stroke:red;stroke-width:1px;stroke-linecap:butt;stroke-linejoin:miter;stroke-opacity:1" d="M 645.403,343.726 672.581,354.597 z" id="boundary" inkscape:connector-curvature="0" />
	<path style="fill:none;stroke:red;stroke-width:1px;stroke-linecap:butt;stroke-linejoin:miter;stroke-opacity:1" d="M 672.581,354.597 699.759,360.033 z" id="boundary" inkscape:connector-curvature="0" />
	<path style="fill:none;stroke:red;stroke-width:1px;stroke-linecap:butt;stroke-linejoin:miter;stroke-opacity:1" d="M 726.937,360.033 699.759,360.033 z" id="boundary" inkscape:connector-curvature="0" />
	<path style="fill:none;stroke:red;stroke-width:1px;stroke-linecap:butt;stroke-linejoin:miter;stroke-opacity:1" d="M 726.937,360.033 754.115,349.162 z" id="boundary" inkscape:connector-curvature="0" />
	<path style="fill:none;stroke:red;stroke-width:1px;stroke-linecap:butt;stroke-linejoin:miter;stroke-opacity:1" d="M 767.704,324.701 754.115,349.162 z" id="boundary" inkscape:connector-curvature="0" />
	<path style="fill:none;stroke:red;stroke-width:1px;stroke-linecap:butt;stroke-linejoin:miter;stroke-opacity:1" d="M 805.753,267.627 832.932,278.499 z" id="boundary" inkscape:connector-curvature="0" />
	<path style="fill:none;stroke:red;stroke-width:1px;stroke-linecap:butt;stroke-linejoin:miter;stroke-opacity:1" d="M 778.575,270.345 805.753,267.627 z" id="boundary" inkscape:connector-curvature="0" />
	<path style="fill:none;stroke:red;stroke-width:1px;stroke-linecap:butt;stroke-linejoin:miter;stroke-opacity:1" d="M 832.932,278.499 857.392,292.088 z" id="boundary" inkscape:connector-curvature="0" />
	<path style="fill:none;stroke:red;stroke-width:1px;stroke-linecap:butt;stroke-linejoin:miter;stroke-opacity:1" d="M 881.852,305.677 857.392,292.088 z" id="boundary" inkscape:connector-curvature="0" />
	<path style="fill:none;stroke:red;stroke-width:1px;stroke-linecap:butt;stroke-linejoin:miter;stroke-opacity:1" d="M 979.693,270.345 974.258,243.167 z" id="boundary" inkscape:connector-curvature="0" />
	<path style="fill:none;stroke:red;stroke-width:1px;stroke-linecap:butt;stroke-linejoin:miter;stroke-opacity:1" d="M 974.258,243.167 974.258,215.989 z" id="boundary" inkscape:connector-curvature="0" />
	<path style="fill:none;stroke:red;stroke-width:1px;stroke-linecap:butt;stroke-linejoin:miter;stroke-opacity:1" d="M 881.852,305.677 909.03,316.548 z" id="boundary" inkscape:connector-curvature="0" />
	<path style="fill:none;stroke:red;stroke-width:1px;stroke-linecap:butt;stroke-linejoin:miter;stroke-opacity:1" d="M 936.208,327.419 909.03,316.548 z" id="boundary" inkscape:connector-curvature="0" />
	<path style="fill:none;stroke:red;stroke-width:1px;stroke-linecap:butt;stroke-linejoin:miter;stroke-opacity:1" d="M 985.129,297.523 990.564,324.701 z" id="boundary" inkscape:connector-curvature="0" />
	<path style="fill:none;stroke:red;stroke-width:1px;stroke-linecap:butt;stroke-linejoin:miter;stroke-opacity:1" d="M 990.564,324.701 963.386,332.855 z" id="boundary" inkscape:connector-curvature="0" />
	<path style="fill:none;stroke:red;stroke-width:1px;stroke-linecap:butt;stroke-linejoin:miter;stroke-opacity:1" d="M 963.386,332.855 936.208,327.419 z" id="boundary" inkscape:connector-curvature="0" />
	<path style="fill:none;stroke:red;stroke-width:1px;stroke-linecap:butt;stroke-linejoin:miter;stroke-opacity:1" d="M 979.693,270.345 985.129,297.523 z" id="boundary" inkscape:connector-curvature="0" />
	<circle cx="4" cy="205.118" r="4" fill="#0" id="circle0"/>
	<circle cx="17.589" cy="229.578" r="4" fill="#0" id="circle1"/>
	<circle cx="25.7425" cy="188.811" r="4" fill="#0" id="circle2"/>
	<circle cx="39.3315" cy="245.885" r="4" fill="#0" id="circle3"/>
	<circle cx="50.2027" cy="175.222" r="4" fill="#0" id="circle4"/>
	<circle cx="58.3562" cy="267.627" r="4" fill="#0" id="circle5"/>
	<circle cx="77.3808" cy="164.351" r="4" fill="#0" id="circle6"/>
	<circle cx="80.0986" cy="286.652" r="4" fill="#0" id="circle7"/>
	<circle cx="104.559" cy="153.479" r="4" fill="#0" id="circle8"/>
	<circle cx="104.559" cy="300.241" r="4" fill="#0" id="circle9"/>
	<circle cx="131.737" cy="142.608" r="4" fill="#0" id="circle10"/>
	<circle cx="131.737" cy="311.112" r="4" fill="#0" id="circle11"/>
	<circle cx="158.915" cy="131.737" r="4" fill="#0" id="circle12"/>
	<circle cx="158.915" cy="321.984" r="4" fill="#0" id="circle13"/>
	<circle cx="186.093" cy="120.866" r="4" fill="#0" id="circle14"/>
	<circle cx="186.093" cy="332.855" r="4" fill="#0" id="circle15"/>
	<circle cx="213.271" cy="112.712" r="4" fill="#0" id="circle16"/>
	<circle cx="213.271" cy="343.726" r="4" fill="#0" id="circle17"/>
	<circle cx="240.449" cy="104.559" r="4" fill="#0" id="circle18"/>
	<circle cx="240.449" cy="349.162" r="4" fill="#0" id="circle19"/>
	<circle cx="267.627" cy="99.1233" r="4" fill="#0" id="circle20"/>
	<circle cx="267.627" cy="354.597" r="4" fill="#0" id="circle21"/>
	<circle cx="294.805" cy="93.6877" r="4" fill="#0" id="circle22"/>
	<circle cx="294.805" cy="360.033" r="4" fill="#0" id="circle23"/>
	<circle cx="297.523" cy="47.4849" r="4" fill="#0" id="circle24"/>
	<circle cx="308.395" cy="384.493" r="4" fill="#0" id="circle25"/>
	<circle cx="324.701" cy="36.6137" r="4" fill="#0" id="circle26"/>
	<circle cx="324.701" cy="406.236" r="4" fill="#0" id="circle27"/>
	<circle cx="338.29" cy="12.1534" r="4" fill="#0" id="circle28"/>
	<circle cx="343.726" cy="427.978" r="4" fill="#0" id="circle29"/>
	<circle cx="365.468" cy="9.43562" r="4" fill="#0" id="circle30"/>
	<circle cx="368.186" cy="441.567" r="4" fill="#0" id="circle31"/>
	<circle cx="392.647" cy="4" r="4" fill="#0" id="circle32"/>
	<circle cx="395.364" cy="452.438" r="4" fill="#0" id="circle33"/>
	<circle cx="419.825" cy="14.8712" r="4" fill="#0" id="circle34"/>
	<circle cx="419.825" cy="433.414" r="4" fill="#0" id="circle35"/>
	<circle cx="427.978" cy="349.162" r="4" fill="#0" id="circle36"/>
	<circle cx="433.414" cy="408.953" r="4" fill="#0" id="circle37"/>
	<circle cx="436.132" cy="376.34" r="4" fill="#0" id="circle38"/>
	<circle cx="447.003" cy="25.7425" r="4" fill="#0" id="circle39"/>
	<circle cx="455.156" cy="349.162" r="4" fill="#0" id="circle40"/>
	<circle cx="474.181" cy="36.6137" r="4" fill="#0" id="circle41"/>
	<circle cx="482.334" cy="343.726" r="4" fill="#0" id="circle42"/>
	<circle cx="501.359" cy="47.4849" r="4" fill="#0" id="circle43"/>
	<circle cx="509.512" cy="343.726" r="4" fill="#0" id="circle44"/>
	<circle cx="528.537" cy="58.3562" r="4" fill="#0" id="circle45"/>
	<circle cx="536.69" cy="343.726" r="4" fill="#0" id="circle46"/>
	<circle cx="547.562" cy="80.0986" r="4" fill="#0" id="circle47"/>
	<circle cx="563.868" cy="343.726" r="4" fill="#0" id="circle48"/>
	<circle cx="572.022" cy="93.6877" r="4" fill="#0" id="circle49"/>
	<circle cx="591.047" cy="338.29" r="4" fill="#0" id="circle50"/>
	<circle cx="599.2" cy="93.6877" r="4" fill="#0" id="circle51"/>
	<circle cx="618.225" cy="338.29" r="4" fill="#0" id="circle52"/>
	<circle cx="626.378" cy="85.5342" r="4" fill="#0" id="circle53"/>
	<circle cx="645.403" cy="343.726" r="4" fill="#0" id="circle54"/>
	<circle cx="653.556" cy="74.663" r="4" fill="#0" id="circle55"/>
	<circle cx="672.581" cy="354.597" r="4" fill="#0" id="circle56"/>
	<circle cx="680.734" cy="74.663" r="4" fill="#0" id="circle57"/>
	<circle cx="699.759" cy="360.033" r="4" fill="#0" id="circle58"/>
	<circle cx="702.477" cy="90.9699" r="4" fill="#0" id="circle59"/>
	<circle cx="724.219" cy="107.277" r="4" fill="#0" id="circle60"/>
	<circle cx="726.937" cy="360.033" r="4" fill="#0" id="circle61"/>
	<circle cx="745.962" cy="123.584" r="4" fill="#0" id="circle62"/>
	<circle cx="754.115" cy="349.162" r="4" fill="#0" id="circle63"/>
	<circle cx="764.986" cy="145.326" r="4" fill="#0" id="circle64"/>
	<circle cx="767.704" cy="324.701" r="4" fill="#0" id="circle65"/>
	<circle cx="778.575" cy="270.345" r="4" fill="#0" id="circle66"/>
	<circle cx="778.575" cy="297.523" r="4" fill="#0" id="circle67"/>
	<circle cx="781.293" cy="167.068" r="4" fill="#0" id="circle68"/>
	<circle cx="805.753" cy="267.627" r="4" fill="#0" id="circle69"/>
	<circle cx="808.471" cy="177.94" r="4" fill="#0" id="circle70"/>
	<circle cx="832.932" cy="278.499" r="4" fill="#0" id="circle71"/>
	<circle cx="835.649" cy="167.068" r="4" fill="#0" id="circle72"/>
	<circle cx="857.392" cy="292.088" r="4" fill="#0" id="circle73"/>
	<circle cx="862.827" cy="156.197" r="4" fill="#0" id="circle74"/>
	<circle cx="881.852" cy="305.677" r="4" fill="#0" id="circle75"/>
	<circle cx="887.288" cy="142.608" r="4" fill="#0" id="circle76"/>
	<circle cx="909.03" cy="316.548" r="4" fill="#0" id="circle77"/>
	<circle cx="914.466" cy="131.737" r="4" fill="#0" id="circle78"/>
	<circle cx="936.208" cy="327.419" r="4" fill="#0" id="circle79"/>
	<circle cx="941.644" cy="123.584" r="4" fill="#0" id="circle80"/>
	<circle cx="963.386" cy="332.855" r="4" fill="#0" id="circle81"/>
	<circle cx="968.822" cy="118.148" r="4" fill="#0" id="circle82"/>
	<circle cx="974.258" cy="188.811" r="4" fill="#0" id="circle83"/>
	<circle cx="974.258" cy="215.989" r="4" fill="#0" id="circle84"/>
	<circle cx="974.258" cy="243.167" r="4" fill="#0" id="circle85"/>
	<circle cx="979.693" cy="270.345" r="4" fill="#0" id="circle86"/>
	<circle cx="985.129" cy="156.197" r="4" fill="#0" id="circle87"/>
	<circle cx="985.129" cy="297.523" r="4" fill="#0" id="circle88"/>
	<circle cx="990.564" cy="324.701" r="4" fill="#0" id="circle89"/>
	<circle cx="996" cy="123.584" r="4" fill="#0" id="circle90"/>
	</g>
</svg>