<?xml version="1.0" encoding="UTF-8" standalone="no"?>
<!-- Created with CurveBenchmark -->
<svg
	xmlns:dc="http://purl.org/dc/elements/1.1/"
	xmlns:cc="http://creativecommons.org/ns#"
	xmlns:rdf="http://www.w3.org/1999/02/22-rdf-syntax-ns#"
	xmlns:svg="http://www.w3.org/2000/svg"
	xmlns="http://www.w3.org/2000/svg"
	xmlns:sodipodi="http://sodipodi.sourceforge.net/DTD/sodipodi-0.dtd"
	xmlns:inkscape="http://www.inkscape.org/namespaces/inkscape"
	width="1000"
	height="1000"
	id="svg2"
	version="1.1"
	sodipodi:docname="manifold/ccrust-cow1.png.txt">
<defs
	id="defs4" />
<metadata
	id="metadata7">
	<rdf:RDF>
		<cc:Work
			rdf:about="">
			<dc:format>image/svg+xml</dc:format>
			<dc:type
				rdf:resource="http://purl.org/dc/dcmitype/StillImage" />
			<dc:title></dc:title>
		</cc:Work>
	</rdf:RDF>
</metadata>
<g
	inkscape:label="Layer 1"
	inkscape:groupmode="layer"
	id="layer1">
	<path style="fill:none;stroke:red;stroke-width:1px;stroke-linecap:butt;stroke-linejoin:miter;stroke-opacity:1" d="M 63.4012,57.4611 53.501,39.6407 z" id="boundary" inkscape:connector-curvature="0" />
	<path style="fill:none;stroke:red;stroke-width:1px;stroke-linecap:butt;stroke-linejoin:miter;stroke-opacity:1" d="M 53.501,39.6407 73.3014,33.7006 z" id="boundary" inkscape:connector-curvature="0" />
	<path style="fill:none;stroke:red;stroke-width:1px;stroke-linecap:butt;stroke-linejoin:miter;stroke-opacity:1" d="M 112.902,43.6008 93.1018,37.6607 z" id="boundary" inkscape:connector-curvature="0" />
	<path style="fill:none;stroke:red;stroke-width:1px;stroke-linecap:butt;stroke-linejoin:miter;stroke-opacity:1" d="M 73.3014,33.7006 93.1018,37.6607 z" id="boundary" inkscape:connector-curvature="0" />
	<path style="fill:none;stroke:red;stroke-width:1px;stroke-linecap:butt;stroke-linejoin:miter;stroke-opacity:1" d="M 77.2615,73.3014 63.4012,57.4611 z" id="boundary" inkscape:connector-curvature="0" />
	<path style="fill:none;stroke:red;stroke-width:1px;stroke-linecap:butt;stroke-linejoin:miter;stroke-opacity:1" d="M 93.1018,85.1816 77.2615,73.3014 z" id="boundary" inkscape:connector-curvature="0" />
	<path style="fill:none;stroke:red;stroke-width:1px;stroke-linecap:butt;stroke-linejoin:miter;stroke-opacity:1" d="M 112.902,43.6008 132.703,43.6008 z" id="boundary" inkscape:connector-curvature="0" />
	<path style="fill:none;stroke:red;stroke-width:1px;stroke-linecap:butt;stroke-linejoin:miter;stroke-opacity:1" d="M 170.323,53.501 150.523,53.501 z" id="boundary" inkscape:connector-curvature="0" />
	<path style="fill:none;stroke:red;stroke-width:1px;stroke-linecap:butt;stroke-linejoin:miter;stroke-opacity:1" d="M 132.703,43.6008 150.523,53.501 z" id="boundary" inkscape:connector-curvature="0" />
	<path style="fill:none;stroke:red;stroke-width:1px;stroke-linecap:butt;stroke-linejoin:miter;stroke-opacity:1" d="M 83.2016,148.543 93.1018,118.842 z" id="boundary" inkscape:connector-curvature="0" />
	<path style="fill:none;stroke:red;stroke-width:1px;stroke-linecap:butt;stroke-linejoin:miter;stroke-opacity:1" d="M 93.1018,118.842 108.942,103.002 z" id="boundary" inkscape:connector-curvature="0" />
	<path style="fill:none;stroke:red;stroke-width:1px;stroke-linecap:butt;stroke-linejoin:miter;stroke-opacity:1" d="M 108.942,103.002 118.842,85.1816 z" id="boundary" inkscape:connector-curvature="0" />
	<path style="fill:none;stroke:red;stroke-width:1px;stroke-linecap:butt;stroke-linejoin:miter;stroke-opacity:1" d="M 4,217.844 19.8403,202.004 z" id="boundary" inkscape:connector-curvature="0" />
	<path style="fill:none;stroke:red;stroke-width:1px;stroke-linecap:butt;stroke-linejoin:miter;stroke-opacity:1" d="M 19.8403,202.004 39.6407,202.004 z" id="boundary" inkscape:connector-curvature="0" />
	<path style="fill:none;stroke:red;stroke-width:1px;stroke-linecap:butt;stroke-linejoin:miter;stroke-opacity:1" d="M 55.481,186.164 39.6407,202.004 z" id="boundary" inkscape:connector-curvature="0" />
	<path style="fill:none;stroke:red;stroke-width:1px;stroke-linecap:butt;stroke-linejoin:miter;stroke-opacity:1" d="M 4,237.645 4,217.844 z" id="boundary" inkscape:connector-curvature="0" />
	<path style="fill:none;stroke:red;stroke-width:1px;stroke-linecap:butt;stroke-linejoin:miter;stroke-opacity:1" d="M 4,257.445 4,237.645 z" id="boundary" inkscape:connector-curvature="0" />
	<path style="fill:none;stroke:red;stroke-width:1px;stroke-linecap:butt;stroke-linejoin:miter;stroke-opacity:1" d="M 13.9002,275.265 33.7006,283.186 z" id="boundary" inkscape:connector-curvature="0" />
	<path style="fill:none;stroke:red;stroke-width:1px;stroke-linecap:butt;stroke-linejoin:miter;stroke-opacity:1" d="M 33.7006,283.186 45.5808,299.026 z" id="boundary" inkscape:connector-curvature="0" />
	<path style="fill:none;stroke:red;stroke-width:1px;stroke-linecap:butt;stroke-linejoin:miter;stroke-opacity:1" d="M 13.9002,275.265 4,257.445 z" id="boundary" inkscape:connector-curvature="0" />
	<path style="fill:none;stroke:red;stroke-width:1px;stroke-linecap:butt;stroke-linejoin:miter;stroke-opacity:1" d="M 83.2016,148.543 71.3214,172.303 z" id="boundary" inkscape:connector-curvature="0" />
	<path style="fill:none;stroke:red;stroke-width:1px;stroke-linecap:butt;stroke-linejoin:miter;stroke-opacity:1" d="M 71.3214,172.303 55.481,186.164 z" id="boundary" inkscape:connector-curvature="0" />
	<path style="fill:none;stroke:red;stroke-width:1px;stroke-linecap:butt;stroke-linejoin:miter;stroke-opacity:1" d="M 124.782,302.986 104.982,302.986 z" id="boundary" inkscape:connector-curvature="0" />
	<path style="fill:none;stroke:red;stroke-width:1px;stroke-linecap:butt;stroke-linejoin:miter;stroke-opacity:1" d="M 45.5808,299.026 65.3812,302.986 z" id="boundary" inkscape:connector-curvature="0" />
	<path style="fill:none;stroke:red;stroke-width:1px;stroke-linecap:butt;stroke-linejoin:miter;stroke-opacity:1" d="M 85.1816,302.986 104.982,302.986 z" id="boundary" inkscape:connector-curvature="0" />
	<path style="fill:none;stroke:red;stroke-width:1px;stroke-linecap:butt;stroke-linejoin:miter;stroke-opacity:1" d="M 85.1816,302.986 65.3812,302.986 z" id="boundary" inkscape:connector-curvature="0" />
	<path style="fill:none;stroke:red;stroke-width:1px;stroke-linecap:butt;stroke-linejoin:miter;stroke-opacity:1" d="M 170.323,53.501 190.124,53.501 z" id="boundary" inkscape:connector-curvature="0" />
	<path style="fill:none;stroke:red;stroke-width:1px;stroke-linecap:butt;stroke-linejoin:miter;stroke-opacity:1" d="M 192.104,4 211.904,4 z" id="boundary" inkscape:connector-curvature="0" />
	<path style="fill:none;stroke:red;stroke-width:1px;stroke-linecap:butt;stroke-linejoin:miter;stroke-opacity:1" d="M 196.064,23.8004 192.104,4 z" id="boundary" inkscape:connector-curvature="0" />
	<path style="fill:none;stroke:red;stroke-width:1px;stroke-linecap:butt;stroke-linejoin:miter;stroke-opacity:1" d="M 211.904,4 231.705,4 z" id="boundary" inkscape:connector-curvature="0" />
	<path style="fill:none;stroke:red;stroke-width:1px;stroke-linecap:butt;stroke-linejoin:miter;stroke-opacity:1" d="M 196.064,23.8004 207.944,43.6008 z" id="boundary" inkscape:connector-curvature="0" />
	<path style="fill:none;stroke:red;stroke-width:1px;stroke-linecap:butt;stroke-linejoin:miter;stroke-opacity:1" d="M 207.944,43.6008 190.124,53.501 z" id="boundary" inkscape:connector-curvature="0" />
	<path style="fill:none;stroke:red;stroke-width:1px;stroke-linecap:butt;stroke-linejoin:miter;stroke-opacity:1" d="M 172.303,9.94012 192.104,4 z" id="boundary" inkscape:connector-curvature="0" />
	<path style="fill:none;stroke:red;stroke-width:1px;stroke-linecap:butt;stroke-linejoin:miter;stroke-opacity:1" d="M 231.705,4 251.505,4 z" id="boundary" inkscape:connector-curvature="0" />
	<path style="fill:none;stroke:red;stroke-width:1px;stroke-linecap:butt;stroke-linejoin:miter;stroke-opacity:1" d="M 251.505,4 271.305,7.96008 z" id="boundary" inkscape:connector-curvature="0" />
	<path style="fill:none;stroke:red;stroke-width:1px;stroke-linecap:butt;stroke-linejoin:miter;stroke-opacity:1" d="M 271.305,7.96008 283.186,23.8004 z" id="boundary" inkscape:connector-curvature="0" />
	<path style="fill:none;stroke:red;stroke-width:1px;stroke-linecap:butt;stroke-linejoin:miter;stroke-opacity:1" d="M 283.186,23.8004 293.086,41.6208 z" id="boundary" inkscape:connector-curvature="0" />
	<path style="fill:none;stroke:red;stroke-width:1px;stroke-linecap:butt;stroke-linejoin:miter;stroke-opacity:1" d="M 293.086,41.6208 308.926,53.501 z" id="boundary" inkscape:connector-curvature="0" />
	<path style="fill:none;stroke:red;stroke-width:1px;stroke-linecap:butt;stroke-linejoin:miter;stroke-opacity:1" d="M 326.747,43.6008 308.926,53.501 z" id="boundary" inkscape:connector-curvature="0" />
	<path style="fill:none;stroke:red;stroke-width:1px;stroke-linecap:butt;stroke-linejoin:miter;stroke-opacity:1" d="M 346.547,43.6008 326.747,43.6008 z" id="boundary" inkscape:connector-curvature="0" />
	<path style="fill:none;stroke:red;stroke-width:1px;stroke-linecap:butt;stroke-linejoin:miter;stroke-opacity:1" d="M 362.387,85.1816 358.427,110.922 z" id="boundary" inkscape:connector-curvature="0" />
	<path style="fill:none;stroke:red;stroke-width:1px;stroke-linecap:butt;stroke-linejoin:miter;stroke-opacity:1" d="M 358.427,110.922 342.587,124.782 z" id="boundary" inkscape:connector-curvature="0" />
	<path style="fill:none;stroke:red;stroke-width:1px;stroke-linecap:butt;stroke-linejoin:miter;stroke-opacity:1" d="M 358.427,136.663 342.587,124.782 z" id="boundary" inkscape:connector-curvature="0" />
	<path style="fill:none;stroke:red;stroke-width:1px;stroke-linecap:butt;stroke-linejoin:miter;stroke-opacity:1" d="M 378.228,144.583 398.028,152.503 z" id="boundary" inkscape:connector-curvature="0" />
	<path style="fill:none;stroke:red;stroke-width:1px;stroke-linecap:butt;stroke-linejoin:miter;stroke-opacity:1" d="M 378.228,144.583 358.427,136.663 z" id="boundary" inkscape:connector-curvature="0" />
	<path style="fill:none;stroke:red;stroke-width:1px;stroke-linecap:butt;stroke-linejoin:miter;stroke-opacity:1" d="M 362.387,85.1816 364.367,53.501 z" id="boundary" inkscape:connector-curvature="0" />
	<path style="fill:none;stroke:red;stroke-width:1px;stroke-linecap:butt;stroke-linejoin:miter;stroke-opacity:1" d="M 346.547,43.6008 364.367,53.501 z" id="boundary" inkscape:connector-curvature="0" />
	<path style="fill:none;stroke:red;stroke-width:1px;stroke-linecap:butt;stroke-linejoin:miter;stroke-opacity:1" d="M 415.848,162.403 435.649,162.403 z" id="boundary" inkscape:connector-curvature="0" />
	<path style="fill:none;stroke:red;stroke-width:1px;stroke-linecap:butt;stroke-linejoin:miter;stroke-opacity:1" d="M 415.848,162.403 398.028,152.503 z" id="boundary" inkscape:connector-curvature="0" />
	<path style="fill:none;stroke:red;stroke-width:1px;stroke-linecap:butt;stroke-linejoin:miter;stroke-opacity:1" d="M 455.449,162.403 435.649,162.403 z" id="boundary" inkscape:connector-curvature="0" />
	<path style="fill:none;stroke:red;stroke-width:1px;stroke-linecap:butt;stroke-linejoin:miter;stroke-opacity:1" d="M 475.25,162.403 495.05,162.403 z" id="boundary" inkscape:connector-curvature="0" />
	<path style="fill:none;stroke:red;stroke-width:1px;stroke-linecap:butt;stroke-linejoin:miter;stroke-opacity:1" d="M 495.05,162.403 512.87,172.303 z" id="boundary" inkscape:connector-curvature="0" />
	<path style="fill:none;stroke:red;stroke-width:1px;stroke-linecap:butt;stroke-linejoin:miter;stroke-opacity:1" d="M 532.671,172.303 512.87,172.303 z" id="boundary" inkscape:connector-curvature="0" />
	<path style="fill:none;stroke:red;stroke-width:1px;stroke-linecap:butt;stroke-linejoin:miter;stroke-opacity:1" d="M 552.471,172.303 532.671,172.303 z" id="boundary" inkscape:connector-curvature="0" />
	<path style="fill:none;stroke:red;stroke-width:1px;stroke-linecap:butt;stroke-linejoin:miter;stroke-opacity:1" d="M 455.449,162.403 475.25,162.403 z" id="boundary" inkscape:connector-curvature="0" />
	<path style="fill:none;stroke:red;stroke-width:1px;stroke-linecap:butt;stroke-linejoin:miter;stroke-opacity:1" d="M 162.403,312.886 142.603,312.886 z" id="boundary" inkscape:connector-curvature="0" />
	<path style="fill:none;stroke:red;stroke-width:1px;stroke-linecap:butt;stroke-linejoin:miter;stroke-opacity:1" d="M 142.603,312.886 124.782,302.986 z" id="boundary" inkscape:connector-curvature="0" />
	<path style="fill:none;stroke:red;stroke-width:1px;stroke-linecap:butt;stroke-linejoin:miter;stroke-opacity:1" d="M 182.204,312.886 200.024,322.786 z" id="boundary" inkscape:connector-curvature="0" />
	<path style="fill:none;stroke:red;stroke-width:1px;stroke-linecap:butt;stroke-linejoin:miter;stroke-opacity:1" d="M 162.403,312.886 182.204,312.886 z" id="boundary" inkscape:connector-curvature="0" />
	<path style="fill:none;stroke:red;stroke-width:1px;stroke-linecap:butt;stroke-linejoin:miter;stroke-opacity:1" d="M 219.824,322.786 200.024,322.786 z" id="boundary" inkscape:connector-curvature="0" />
	<path style="fill:none;stroke:red;stroke-width:1px;stroke-linecap:butt;stroke-linejoin:miter;stroke-opacity:1" d="M 237.645,332.687 219.824,322.786 z" id="boundary" inkscape:connector-curvature="0" />
	<path style="fill:none;stroke:red;stroke-width:1px;stroke-linecap:butt;stroke-linejoin:miter;stroke-opacity:1" d="M 237.645,332.687 247.545,350.507 z" id="boundary" inkscape:connector-curvature="0" />
	<path style="fill:none;stroke:red;stroke-width:1px;stroke-linecap:butt;stroke-linejoin:miter;stroke-opacity:1" d="M 247.545,350.507 261.405,366.347 z" id="boundary" inkscape:connector-curvature="0" />
	<path style="fill:none;stroke:red;stroke-width:1px;stroke-linecap:butt;stroke-linejoin:miter;stroke-opacity:1" d="M 261.405,366.347 271.305,384.168 z" id="boundary" inkscape:connector-curvature="0" />
	<path style="fill:none;stroke:red;stroke-width:1px;stroke-linecap:butt;stroke-linejoin:miter;stroke-opacity:1" d="M 285.166,400.008 271.305,384.168 z" id="boundary" inkscape:connector-curvature="0" />
	<path style="fill:none;stroke:red;stroke-width:1px;stroke-linecap:butt;stroke-linejoin:miter;stroke-opacity:1" d="M 295.066,417.828 302.986,437.629 z" id="boundary" inkscape:connector-curvature="0" />
	<path style="fill:none;stroke:red;stroke-width:1px;stroke-linecap:butt;stroke-linejoin:miter;stroke-opacity:1" d="M 295.066,417.828 285.166,400.008 z" id="boundary" inkscape:connector-curvature="0" />
	<path style="fill:none;stroke:red;stroke-width:1px;stroke-linecap:butt;stroke-linejoin:miter;stroke-opacity:1" d="M 318.826,451.489 302.986,437.629 z" id="boundary" inkscape:connector-curvature="0" />
	<path style="fill:none;stroke:red;stroke-width:1px;stroke-linecap:butt;stroke-linejoin:miter;stroke-opacity:1" d="M 318.826,451.489 326.747,471.289 z" id="boundary" inkscape:connector-curvature="0" />
	<path style="fill:none;stroke:red;stroke-width:1px;stroke-linecap:butt;stroke-linejoin:miter;stroke-opacity:1" d="M 350.507,504.95 336.647,489.11 z" id="boundary" inkscape:connector-curvature="0" />
	<path style="fill:none;stroke:red;stroke-width:1px;stroke-linecap:butt;stroke-linejoin:miter;stroke-opacity:1" d="M 336.647,489.11 326.747,471.289 z" id="boundary" inkscape:connector-curvature="0" />
	<path style="fill:none;stroke:red;stroke-width:1px;stroke-linecap:butt;stroke-linejoin:miter;stroke-opacity:1" d="M 350.507,504.95 350.507,524.75 z" id="boundary" inkscape:connector-curvature="0" />
	<path style="fill:none;stroke:red;stroke-width:1px;stroke-linecap:butt;stroke-linejoin:miter;stroke-opacity:1" d="M 350.507,524.75 360.407,542.571 z" id="boundary" inkscape:connector-curvature="0" />
	<path style="fill:none;stroke:red;stroke-width:1px;stroke-linecap:butt;stroke-linejoin:miter;stroke-opacity:1" d="M 360.407,542.571 360.407,562.371 z" id="boundary" inkscape:connector-curvature="0" />
	<path style="fill:none;stroke:red;stroke-width:1px;stroke-linecap:butt;stroke-linejoin:miter;stroke-opacity:1" d="M 360.407,562.371 370.307,580.192 z" id="boundary" inkscape:connector-curvature="0" />
	<path style="fill:none;stroke:red;stroke-width:1px;stroke-linecap:butt;stroke-linejoin:miter;stroke-opacity:1" d="M 400.008,605.932 382.188,596.032 z" id="boundary" inkscape:connector-curvature="0" />
	<path style="fill:none;stroke:red;stroke-width:1px;stroke-linecap:butt;stroke-linejoin:miter;stroke-opacity:1" d="M 382.188,596.032 370.307,580.192 z" id="boundary" inkscape:connector-curvature="0" />
	<path style="fill:none;stroke:red;stroke-width:1px;stroke-linecap:butt;stroke-linejoin:miter;stroke-opacity:1" d="M 392.088,827.697 372.287,827.697 z" id="boundary" inkscape:connector-curvature="0" />
	<path style="fill:none;stroke:red;stroke-width:1px;stroke-linecap:butt;stroke-linejoin:miter;stroke-opacity:1" d="M 372.287,827.697 360.407,811.856 z" id="boundary" inkscape:connector-curvature="0" />
	<path style="fill:none;stroke:red;stroke-width:1px;stroke-linecap:butt;stroke-linejoin:miter;stroke-opacity:1" d="M 360.407,811.856 376.248,796.016 z" id="boundary" inkscape:connector-curvature="0" />
	<path style="fill:none;stroke:red;stroke-width:1px;stroke-linecap:butt;stroke-linejoin:miter;stroke-opacity:1" d="M 411.888,827.697 392.088,827.697 z" id="boundary" inkscape:connector-curvature="0" />
	<path style="fill:none;stroke:red;stroke-width:1px;stroke-linecap:butt;stroke-linejoin:miter;stroke-opacity:1" d="M 376.248,796.016 386.148,776.216 z" id="boundary" inkscape:connector-curvature="0" />
	<path style="fill:none;stroke:red;stroke-width:1px;stroke-linecap:butt;stroke-linejoin:miter;stroke-opacity:1" d="M 400.008,605.932 400.008,625.733 z" id="boundary" inkscape:connector-curvature="0" />
	<path style="fill:none;stroke:red;stroke-width:1px;stroke-linecap:butt;stroke-linejoin:miter;stroke-opacity:1" d="M 400.008,742.555 386.148,776.216 z" id="boundary" inkscape:connector-curvature="0" />
	<path style="fill:none;stroke:red;stroke-width:1px;stroke-linecap:butt;stroke-linejoin:miter;stroke-opacity:1" d="M 400.008,645.533 400.008,625.733 z" id="boundary" inkscape:connector-curvature="0" />
	<path style="fill:none;stroke:red;stroke-width:1px;stroke-linecap:butt;stroke-linejoin:miter;stroke-opacity:1" d="M 409.908,663.353 400.008,645.533 z" id="boundary" inkscape:connector-curvature="0" />
	<path style="fill:none;stroke:red;stroke-width:1px;stroke-linecap:butt;stroke-linejoin:miter;stroke-opacity:1" d="M 409.908,663.353 409.908,683.154 z" id="boundary" inkscape:connector-curvature="0" />
	<path style="fill:none;stroke:red;stroke-width:1px;stroke-linecap:butt;stroke-linejoin:miter;stroke-opacity:1" d="M 451.489,689.094 461.389,659.393 z" id="boundary" inkscape:connector-curvature="0" />
	<path style="fill:none;stroke:red;stroke-width:1px;stroke-linecap:butt;stroke-linejoin:miter;stroke-opacity:1" d="M 461.389,639.593 461.389,659.393 z" id="boundary" inkscape:connector-curvature="0" />
	<path style="fill:none;stroke:red;stroke-width:1px;stroke-linecap:butt;stroke-linejoin:miter;stroke-opacity:1" d="M 409.908,702.954 409.908,683.154 z" id="boundary" inkscape:connector-curvature="0" />
	<path style="fill:none;stroke:red;stroke-width:1px;stroke-linecap:butt;stroke-linejoin:miter;stroke-opacity:1" d="M 471.289,599.992 491.09,599.992 z" id="boundary" inkscape:connector-curvature="0" />
	<path style="fill:none;stroke:red;stroke-width:1px;stroke-linecap:butt;stroke-linejoin:miter;stroke-opacity:1" d="M 471.289,619.792 471.289,599.992 z" id="boundary" inkscape:connector-curvature="0" />
	<path style="fill:none;stroke:red;stroke-width:1px;stroke-linecap:butt;stroke-linejoin:miter;stroke-opacity:1" d="M 510.89,599.992 491.09,599.992 z" id="boundary" inkscape:connector-curvature="0" />
	<path style="fill:none;stroke:red;stroke-width:1px;stroke-linecap:butt;stroke-linejoin:miter;stroke-opacity:1" d="M 510.89,599.992 528.711,609.892 z" id="boundary" inkscape:connector-curvature="0" />
	<path style="fill:none;stroke:red;stroke-width:1px;stroke-linecap:butt;stroke-linejoin:miter;stroke-opacity:1" d="M 528.711,609.892 534.651,629.693 z" id="boundary" inkscape:connector-curvature="0" />
	<path style="fill:none;stroke:red;stroke-width:1px;stroke-linecap:butt;stroke-linejoin:miter;stroke-opacity:1" d="M 534.651,629.693 538.611,649.493 z" id="boundary" inkscape:connector-curvature="0" />
	<path style="fill:none;stroke:red;stroke-width:1px;stroke-linecap:butt;stroke-linejoin:miter;stroke-opacity:1" d="M 461.389,639.593 471.289,619.792 z" id="boundary" inkscape:connector-curvature="0" />
	<path style="fill:none;stroke:red;stroke-width:1px;stroke-linecap:butt;stroke-linejoin:miter;stroke-opacity:1" d="M 451.489,708.894 451.489,689.094 z" id="boundary" inkscape:connector-curvature="0" />
	<path style="fill:none;stroke:red;stroke-width:1px;stroke-linecap:butt;stroke-linejoin:miter;stroke-opacity:1" d="M 409.908,702.954 409.908,722.754 z" id="boundary" inkscape:connector-curvature="0" />
	<path style="fill:none;stroke:red;stroke-width:1px;stroke-linecap:butt;stroke-linejoin:miter;stroke-opacity:1" d="M 409.908,722.754 400.008,742.555 z" id="boundary" inkscape:connector-curvature="0" />
	<path style="fill:none;stroke:red;stroke-width:1px;stroke-linecap:butt;stroke-linejoin:miter;stroke-opacity:1" d="M 451.489,748.495 441.589,778.196 z" id="boundary" inkscape:connector-curvature="0" />
	<path style="fill:none;stroke:red;stroke-width:1px;stroke-linecap:butt;stroke-linejoin:miter;stroke-opacity:1" d="M 411.888,827.697 431.689,827.697 z" id="boundary" inkscape:connector-curvature="0" />
	<path style="fill:none;stroke:red;stroke-width:1px;stroke-linecap:butt;stroke-linejoin:miter;stroke-opacity:1" d="M 441.589,797.996 431.689,827.697 z" id="boundary" inkscape:connector-curvature="0" />
	<path style="fill:none;stroke:red;stroke-width:1px;stroke-linecap:butt;stroke-linejoin:miter;stroke-opacity:1" d="M 441.589,797.996 441.589,778.196 z" id="boundary" inkscape:connector-curvature="0" />
	<path style="fill:none;stroke:red;stroke-width:1px;stroke-linecap:butt;stroke-linejoin:miter;stroke-opacity:1" d="M 451.489,708.894 451.489,728.695 z" id="boundary" inkscape:connector-curvature="0" />
	<path style="fill:none;stroke:red;stroke-width:1px;stroke-linecap:butt;stroke-linejoin:miter;stroke-opacity:1" d="M 451.489,748.495 451.489,728.695 z" id="boundary" inkscape:connector-curvature="0" />
	<path style="fill:none;stroke:red;stroke-width:1px;stroke-linecap:butt;stroke-linejoin:miter;stroke-opacity:1" d="M 548.511,748.495 538.611,782.156 z" id="boundary" inkscape:connector-curvature="0" />
	<path style="fill:none;stroke:red;stroke-width:1px;stroke-linecap:butt;stroke-linejoin:miter;stroke-opacity:1" d="M 518.81,831.657 518.81,851.457 z" id="boundary" inkscape:connector-curvature="0" />
	<path style="fill:none;stroke:red;stroke-width:1px;stroke-linecap:butt;stroke-linejoin:miter;stroke-opacity:1" d="M 538.611,857.397 518.81,851.457 z" id="boundary" inkscape:connector-curvature="0" />
	<path style="fill:none;stroke:red;stroke-width:1px;stroke-linecap:butt;stroke-linejoin:miter;stroke-opacity:1" d="M 518.81,831.657 528.711,801.956 z" id="boundary" inkscape:connector-curvature="0" />
	<path style="fill:none;stroke:red;stroke-width:1px;stroke-linecap:butt;stroke-linejoin:miter;stroke-opacity:1" d="M 538.611,782.156 528.711,801.956 z" id="boundary" inkscape:connector-curvature="0" />
	<path style="fill:none;stroke:red;stroke-width:1px;stroke-linecap:butt;stroke-linejoin:miter;stroke-opacity:1" d="M 538.611,649.493 544.551,669.293 z" id="boundary" inkscape:connector-curvature="0" />
	<path style="fill:none;stroke:red;stroke-width:1px;stroke-linecap:butt;stroke-linejoin:miter;stroke-opacity:1" d="M 552.471,172.303 572.271,172.303 z" id="boundary" inkscape:connector-curvature="0" />
	<path style="fill:none;stroke:red;stroke-width:1px;stroke-linecap:butt;stroke-linejoin:miter;stroke-opacity:1" d="M 592.072,172.303 572.271,172.303 z" id="boundary" inkscape:connector-curvature="0" />
	<path style="fill:none;stroke:red;stroke-width:1px;stroke-linecap:butt;stroke-linejoin:miter;stroke-opacity:1" d="M 592.072,172.303 609.892,182.204 z" id="boundary" inkscape:connector-curvature="0" />
	<path style="fill:none;stroke:red;stroke-width:1px;stroke-linecap:butt;stroke-linejoin:miter;stroke-opacity:1" d="M 609.892,182.204 629.693,182.204 z" id="boundary" inkscape:connector-curvature="0" />
	<path style="fill:none;stroke:red;stroke-width:1px;stroke-linecap:butt;stroke-linejoin:miter;stroke-opacity:1" d="M 726.715,172.303 706.914,172.303 z" id="boundary" inkscape:connector-curvature="0" />
	<path style="fill:none;stroke:red;stroke-width:1px;stroke-linecap:butt;stroke-linejoin:miter;stroke-opacity:1" d="M 649.493,182.204 629.693,182.204 z" id="boundary" inkscape:connector-curvature="0" />
	<path style="fill:none;stroke:red;stroke-width:1px;stroke-linecap:butt;stroke-linejoin:miter;stroke-opacity:1" d="M 689.094,182.204 706.914,172.303 z" id="boundary" inkscape:connector-curvature="0" />
	<path style="fill:none;stroke:red;stroke-width:1px;stroke-linecap:butt;stroke-linejoin:miter;stroke-opacity:1" d="M 823.737,162.403 803.936,162.403 z" id="boundary" inkscape:connector-curvature="0" />
	<path style="fill:none;stroke:red;stroke-width:1px;stroke-linecap:butt;stroke-linejoin:miter;stroke-opacity:1" d="M 861.357,152.503 843.537,162.403 z" id="boundary" inkscape:connector-curvature="0" />
	<path style="fill:none;stroke:red;stroke-width:1px;stroke-linecap:butt;stroke-linejoin:miter;stroke-opacity:1" d="M 843.537,162.403 823.737,162.403 z" id="boundary" inkscape:connector-curvature="0" />
	<path style="fill:none;stroke:red;stroke-width:1px;stroke-linecap:butt;stroke-linejoin:miter;stroke-opacity:1" d="M 786.116,172.303 803.936,162.403 z" id="boundary" inkscape:connector-curvature="0" />
	<path style="fill:none;stroke:red;stroke-width:1px;stroke-linecap:butt;stroke-linejoin:miter;stroke-opacity:1" d="M 726.715,172.303 746.515,172.303 z" id="boundary" inkscape:connector-curvature="0" />
	<path style="fill:none;stroke:red;stroke-width:1px;stroke-linecap:butt;stroke-linejoin:miter;stroke-opacity:1" d="M 766.315,172.303 746.515,172.303 z" id="boundary" inkscape:connector-curvature="0" />
	<path style="fill:none;stroke:red;stroke-width:1px;stroke-linecap:butt;stroke-linejoin:miter;stroke-opacity:1" d="M 766.315,172.303 786.116,172.303 z" id="boundary" inkscape:connector-curvature="0" />
	<path style="fill:none;stroke:red;stroke-width:1px;stroke-linecap:butt;stroke-linejoin:miter;stroke-opacity:1" d="M 629.693,590.092 609.892,590.092 z" id="boundary" inkscape:connector-curvature="0" />
	<path style="fill:none;stroke:red;stroke-width:1px;stroke-linecap:butt;stroke-linejoin:miter;stroke-opacity:1" d="M 669.293,182.204 649.493,182.204 z" id="boundary" inkscape:connector-curvature="0" />
	<path style="fill:none;stroke:red;stroke-width:1px;stroke-linecap:butt;stroke-linejoin:miter;stroke-opacity:1" d="M 629.693,590.092 649.493,590.092 z" id="boundary" inkscape:connector-curvature="0" />
	<path style="fill:none;stroke:red;stroke-width:1px;stroke-linecap:butt;stroke-linejoin:miter;stroke-opacity:1" d="M 667.313,599.992 685.134,590.092 z" id="boundary" inkscape:connector-curvature="0" />
	<path style="fill:none;stroke:red;stroke-width:1px;stroke-linecap:butt;stroke-linejoin:miter;stroke-opacity:1" d="M 685.134,590.092 704.934,590.092 z" id="boundary" inkscape:connector-curvature="0" />
	<path style="fill:none;stroke:red;stroke-width:1px;stroke-linecap:butt;stroke-linejoin:miter;stroke-opacity:1" d="M 667.313,599.992 649.493,590.092 z" id="boundary" inkscape:connector-curvature="0" />
	<path style="fill:none;stroke:red;stroke-width:1px;stroke-linecap:butt;stroke-linejoin:miter;stroke-opacity:1" d="M 609.892,609.892 609.892,590.092 z" id="boundary" inkscape:connector-curvature="0" />
	<path style="fill:none;stroke:red;stroke-width:1px;stroke-linecap:butt;stroke-linejoin:miter;stroke-opacity:1" d="M 669.293,182.204 689.094,182.204 z" id="boundary" inkscape:connector-curvature="0" />
	<path style="fill:none;stroke:red;stroke-width:1px;stroke-linecap:butt;stroke-linejoin:miter;stroke-opacity:1" d="M 724.735,590.092 704.934,590.092 z" id="boundary" inkscape:connector-curvature="0" />
	<path style="fill:none;stroke:red;stroke-width:1px;stroke-linecap:butt;stroke-linejoin:miter;stroke-opacity:1" d="M 724.735,590.092 744.535,590.092 z" id="boundary" inkscape:connector-curvature="0" />
	<path style="fill:none;stroke:red;stroke-width:1px;stroke-linecap:butt;stroke-linejoin:miter;stroke-opacity:1" d="M 744.535,590.092 758.395,605.932 z" id="boundary" inkscape:connector-curvature="0" />
	<path style="fill:none;stroke:red;stroke-width:1px;stroke-linecap:butt;stroke-linejoin:miter;stroke-opacity:1" d="M 875.218,590.092 893.038,599.992 z" id="boundary" inkscape:connector-curvature="0" />
	<path style="fill:none;stroke:red;stroke-width:1px;stroke-linecap:butt;stroke-linejoin:miter;stroke-opacity:1" d="M 861.357,152.503 879.178,162.403 z" id="boundary" inkscape:connector-curvature="0" />
	<path style="fill:none;stroke:red;stroke-width:1px;stroke-linecap:butt;stroke-linejoin:miter;stroke-opacity:1" d="M 916.798,178.244 896.998,172.303 z" id="boundary" inkscape:connector-curvature="0" />
	<path style="fill:none;stroke:red;stroke-width:1px;stroke-linecap:butt;stroke-linejoin:miter;stroke-opacity:1" d="M 896.998,172.303 879.178,162.403 z" id="boundary" inkscape:connector-curvature="0" />
	<path style="fill:none;stroke:red;stroke-width:1px;stroke-linecap:butt;stroke-linejoin:miter;stroke-opacity:1" d="M 944.519,205.964 946.499,225.764 z" id="boundary" inkscape:connector-curvature="0" />
	<path style="fill:none;stroke:red;stroke-width:1px;stroke-linecap:butt;stroke-linejoin:miter;stroke-opacity:1" d="M 956.399,243.585 946.499,225.764 z" id="boundary" inkscape:connector-curvature="0" />
	<path style="fill:none;stroke:red;stroke-width:1px;stroke-linecap:butt;stroke-linejoin:miter;stroke-opacity:1" d="M 916.798,178.244 934.619,188.144 z" id="boundary" inkscape:connector-curvature="0" />
	<path style="fill:none;stroke:red;stroke-width:1px;stroke-linecap:butt;stroke-linejoin:miter;stroke-opacity:1" d="M 934.619,188.144 944.519,205.964 z" id="boundary" inkscape:connector-curvature="0" />
	<path style="fill:none;stroke:red;stroke-width:1px;stroke-linecap:butt;stroke-linejoin:miter;stroke-opacity:1" d="M 956.399,243.585 956.399,263.385 z" id="boundary" inkscape:connector-curvature="0" />
	<path style="fill:none;stroke:red;stroke-width:1px;stroke-linecap:butt;stroke-linejoin:miter;stroke-opacity:1" d="M 960.359,283.186 956.399,263.385 z" id="boundary" inkscape:connector-curvature="0" />
	<path style="fill:none;stroke:red;stroke-width:1px;stroke-linecap:butt;stroke-linejoin:miter;stroke-opacity:1" d="M 966.299,302.986 960.359,283.186 z" id="boundary" inkscape:connector-curvature="0" />
	<path style="fill:none;stroke:red;stroke-width:1px;stroke-linecap:butt;stroke-linejoin:miter;stroke-opacity:1" d="M 966.299,302.986 966.299,322.786 z" id="boundary" inkscape:connector-curvature="0" />
	<path style="fill:none;stroke:red;stroke-width:1px;stroke-linecap:butt;stroke-linejoin:miter;stroke-opacity:1" d="M 966.299,322.786 966.299,342.587 z" id="boundary" inkscape:connector-curvature="0" />
	<path style="fill:none;stroke:red;stroke-width:1px;stroke-linecap:butt;stroke-linejoin:miter;stroke-opacity:1" d="M 966.299,362.387 966.299,382.188 z" id="boundary" inkscape:connector-curvature="0" />
	<path style="fill:none;stroke:red;stroke-width:1px;stroke-linecap:butt;stroke-linejoin:miter;stroke-opacity:1" d="M 976.2,400.008 966.299,382.188 z" id="boundary" inkscape:connector-curvature="0" />
	<path style="fill:none;stroke:red;stroke-width:1px;stroke-linecap:butt;stroke-linejoin:miter;stroke-opacity:1" d="M 966.299,362.387 966.299,342.587 z" id="boundary" inkscape:connector-curvature="0" />
	<path style="fill:none;stroke:red;stroke-width:1px;stroke-linecap:butt;stroke-linejoin:miter;stroke-opacity:1" d="M 966.299,461.389 966.299,481.19 z" id="boundary" inkscape:connector-curvature="0" />
	<path style="fill:none;stroke:red;stroke-width:1px;stroke-linecap:butt;stroke-linejoin:miter;stroke-opacity:1" d="M 966.299,461.389 966.299,441.589 z" id="boundary" inkscape:connector-curvature="0" />
	<path style="fill:none;stroke:red;stroke-width:1px;stroke-linecap:butt;stroke-linejoin:miter;stroke-opacity:1" d="M 966.299,441.589 976.2,419.808 z" id="boundary" inkscape:connector-curvature="0" />
	<path style="fill:none;stroke:red;stroke-width:1px;stroke-linecap:butt;stroke-linejoin:miter;stroke-opacity:1" d="M 966.299,481.19 966.299,500.99 z" id="boundary" inkscape:connector-curvature="0" />
	<path style="fill:none;stroke:red;stroke-width:1px;stroke-linecap:butt;stroke-linejoin:miter;stroke-opacity:1" d="M 906.898,580.192 924.719,570.291 z" id="boundary" inkscape:connector-curvature="0" />
	<path style="fill:none;stroke:red;stroke-width:1px;stroke-linecap:butt;stroke-linejoin:miter;stroke-opacity:1" d="M 924.719,570.291 930.659,590.092 z" id="boundary" inkscape:connector-curvature="0" />
	<path style="fill:none;stroke:red;stroke-width:1px;stroke-linecap:butt;stroke-linejoin:miter;stroke-opacity:1" d="M 966.299,500.99 970.259,520.79 z" id="boundary" inkscape:connector-curvature="0" />
	<path style="fill:none;stroke:red;stroke-width:1px;stroke-linecap:butt;stroke-linejoin:miter;stroke-opacity:1" d="M 906.898,580.192 893.038,599.992 z" id="boundary" inkscape:connector-curvature="0" />
	<path style="fill:none;stroke:red;stroke-width:1px;stroke-linecap:butt;stroke-linejoin:miter;stroke-opacity:1" d="M 976.2,419.808 976.2,400.008 z" id="boundary" inkscape:connector-curvature="0" />
	<path style="fill:none;stroke:red;stroke-width:1px;stroke-linecap:butt;stroke-linejoin:miter;stroke-opacity:1" d="M 986.1,558.411 986.1,578.212 z" id="boundary" inkscape:connector-curvature="0" />
	<path style="fill:none;stroke:red;stroke-width:1px;stroke-linecap:butt;stroke-linejoin:miter;stroke-opacity:1" d="M 986.1,558.411 976.2,540.591 z" id="boundary" inkscape:connector-curvature="0" />
	<path style="fill:none;stroke:red;stroke-width:1px;stroke-linecap:butt;stroke-linejoin:miter;stroke-opacity:1" d="M 976.2,540.591 970.259,520.79 z" id="boundary" inkscape:connector-curvature="0" />
	<path style="fill:none;stroke:red;stroke-width:1px;stroke-linecap:butt;stroke-linejoin:miter;stroke-opacity:1" d="M 944.519,605.932 930.659,590.092 z" id="boundary" inkscape:connector-curvature="0" />
	<path style="fill:none;stroke:red;stroke-width:1px;stroke-linecap:butt;stroke-linejoin:miter;stroke-opacity:1" d="M 986.1,598.012 986.1,578.212 z" id="boundary" inkscape:connector-curvature="0" />
	<path style="fill:none;stroke:red;stroke-width:1px;stroke-linecap:butt;stroke-linejoin:miter;stroke-opacity:1" d="M 599.992,659.393 599.992,679.194 z" id="boundary" inkscape:connector-curvature="0" />
	<path style="fill:none;stroke:red;stroke-width:1px;stroke-linecap:butt;stroke-linejoin:miter;stroke-opacity:1" d="M 599.992,659.393 609.892,629.693 z" id="boundary" inkscape:connector-curvature="0" />
	<path style="fill:none;stroke:red;stroke-width:1px;stroke-linecap:butt;stroke-linejoin:miter;stroke-opacity:1" d="M 548.511,689.094 544.551,669.293 z" id="boundary" inkscape:connector-curvature="0" />
	<path style="fill:none;stroke:red;stroke-width:1px;stroke-linecap:butt;stroke-linejoin:miter;stroke-opacity:1" d="M 548.511,689.094 548.511,708.894 z" id="boundary" inkscape:connector-curvature="0" />
	<path style="fill:none;stroke:red;stroke-width:1px;stroke-linecap:butt;stroke-linejoin:miter;stroke-opacity:1" d="M 599.992,698.994 599.992,718.794 z" id="boundary" inkscape:connector-curvature="0" />
	<path style="fill:none;stroke:red;stroke-width:1px;stroke-linecap:butt;stroke-linejoin:miter;stroke-opacity:1" d="M 599.992,679.194 599.992,698.994 z" id="boundary" inkscape:connector-curvature="0" />
	<path style="fill:none;stroke:red;stroke-width:1px;stroke-linecap:butt;stroke-linejoin:miter;stroke-opacity:1" d="M 548.511,728.695 548.511,708.894 z" id="boundary" inkscape:connector-curvature="0" />
	<path style="fill:none;stroke:red;stroke-width:1px;stroke-linecap:butt;stroke-linejoin:miter;stroke-opacity:1" d="M 609.892,629.693 609.892,609.892 z" id="boundary" inkscape:connector-curvature="0" />
	<path style="fill:none;stroke:red;stroke-width:1px;stroke-linecap:butt;stroke-linejoin:miter;stroke-opacity:1" d="M 778.196,609.892 758.395,605.932 z" id="boundary" inkscape:connector-curvature="0" />
	<path style="fill:none;stroke:red;stroke-width:1px;stroke-linecap:butt;stroke-linejoin:miter;stroke-opacity:1" d="M 766.315,693.054 756.415,712.854 z" id="boundary" inkscape:connector-curvature="0" />
	<path style="fill:none;stroke:red;stroke-width:1px;stroke-linecap:butt;stroke-linejoin:miter;stroke-opacity:1" d="M 786.116,649.493 782.156,677.214 z" id="boundary" inkscape:connector-curvature="0" />
	<path style="fill:none;stroke:red;stroke-width:1px;stroke-linecap:butt;stroke-linejoin:miter;stroke-opacity:1" d="M 782.156,677.214 766.315,693.054 z" id="boundary" inkscape:connector-curvature="0" />
	<path style="fill:none;stroke:red;stroke-width:1px;stroke-linecap:butt;stroke-linejoin:miter;stroke-opacity:1" d="M 778.196,609.892 786.116,629.693 z" id="boundary" inkscape:connector-curvature="0" />
	<path style="fill:none;stroke:red;stroke-width:1px;stroke-linecap:butt;stroke-linejoin:miter;stroke-opacity:1" d="M 756.415,712.854 746.515,732.655 z" id="boundary" inkscape:connector-curvature="0" />
	<path style="fill:none;stroke:red;stroke-width:1px;stroke-linecap:butt;stroke-linejoin:miter;stroke-opacity:1" d="M 548.511,748.495 548.511,728.695 z" id="boundary" inkscape:connector-curvature="0" />
	<path style="fill:none;stroke:red;stroke-width:1px;stroke-linecap:butt;stroke-linejoin:miter;stroke-opacity:1" d="M 599.992,718.794 599.992,738.595 z" id="boundary" inkscape:connector-curvature="0" />
	<path style="fill:none;stroke:red;stroke-width:1px;stroke-linecap:butt;stroke-linejoin:miter;stroke-opacity:1" d="M 599.992,797.996 599.992,817.796 z" id="boundary" inkscape:connector-curvature="0" />
	<path style="fill:none;stroke:red;stroke-width:1px;stroke-linecap:butt;stroke-linejoin:miter;stroke-opacity:1" d="M 558.411,857.397 538.611,857.397 z" id="boundary" inkscape:connector-curvature="0" />
	<path style="fill:none;stroke:red;stroke-width:1px;stroke-linecap:butt;stroke-linejoin:miter;stroke-opacity:1" d="M 578.212,857.397 598.012,851.457 z" id="boundary" inkscape:connector-curvature="0" />
	<path style="fill:none;stroke:red;stroke-width:1px;stroke-linecap:butt;stroke-linejoin:miter;stroke-opacity:1" d="M 578.212,857.397 558.411,857.397 z" id="boundary" inkscape:connector-curvature="0" />
	<path style="fill:none;stroke:red;stroke-width:1px;stroke-linecap:butt;stroke-linejoin:miter;stroke-opacity:1" d="M 599.992,817.796 598.012,851.457 z" id="boundary" inkscape:connector-curvature="0" />
	<path style="fill:none;stroke:red;stroke-width:1px;stroke-linecap:butt;stroke-linejoin:miter;stroke-opacity:1" d="M 599.992,738.595 599.992,758.395 z" id="boundary" inkscape:connector-curvature="0" />
	<path style="fill:none;stroke:red;stroke-width:1px;stroke-linecap:butt;stroke-linejoin:miter;stroke-opacity:1" d="M 758.395,748.495 746.515,732.655 z" id="boundary" inkscape:connector-curvature="0" />
	<path style="fill:none;stroke:red;stroke-width:1px;stroke-linecap:butt;stroke-linejoin:miter;stroke-opacity:1" d="M 778.196,748.495 758.395,748.495 z" id="boundary" inkscape:connector-curvature="0" />
	<path style="fill:none;stroke:red;stroke-width:1px;stroke-linecap:butt;stroke-linejoin:miter;stroke-opacity:1" d="M 599.992,758.395 599.992,778.196 z" id="boundary" inkscape:connector-curvature="0" />
	<path style="fill:none;stroke:red;stroke-width:1px;stroke-linecap:butt;stroke-linejoin:miter;stroke-opacity:1" d="M 599.992,797.996 599.992,778.196 z" id="boundary" inkscape:connector-curvature="0" />
	<path style="fill:none;stroke:red;stroke-width:1px;stroke-linecap:butt;stroke-linejoin:miter;stroke-opacity:1" d="M 778.196,748.495 797.996,748.495 z" id="boundary" inkscape:connector-curvature="0" />
	<path style="fill:none;stroke:red;stroke-width:1px;stroke-linecap:butt;stroke-linejoin:miter;stroke-opacity:1" d="M 786.116,629.693 786.116,649.493 z" id="boundary" inkscape:connector-curvature="0" />
	<path style="fill:none;stroke:red;stroke-width:1px;stroke-linecap:butt;stroke-linejoin:miter;stroke-opacity:1" d="M 827.697,639.593 827.697,659.393 z" id="boundary" inkscape:connector-curvature="0" />
	<path style="fill:none;stroke:red;stroke-width:1px;stroke-linecap:butt;stroke-linejoin:miter;stroke-opacity:1" d="M 827.697,639.593 843.537,625.733 z" id="boundary" inkscape:connector-curvature="0" />
	<path style="fill:none;stroke:red;stroke-width:1px;stroke-linecap:butt;stroke-linejoin:miter;stroke-opacity:1" d="M 827.697,659.393 827.697,679.194 z" id="boundary" inkscape:connector-curvature="0" />
	<path style="fill:none;stroke:red;stroke-width:1px;stroke-linecap:butt;stroke-linejoin:miter;stroke-opacity:1" d="M 944.519,605.932 944.519,625.733 z" id="boundary" inkscape:connector-curvature="0" />
	<path style="fill:none;stroke:red;stroke-width:1px;stroke-linecap:butt;stroke-linejoin:miter;stroke-opacity:1" d="M 857.397,599.992 843.537,625.733 z" id="boundary" inkscape:connector-curvature="0" />
	<path style="fill:none;stroke:red;stroke-width:1px;stroke-linecap:butt;stroke-linejoin:miter;stroke-opacity:1" d="M 986.1,617.812 986.1,637.613 z" id="boundary" inkscape:connector-curvature="0" />
	<path style="fill:none;stroke:red;stroke-width:1px;stroke-linecap:butt;stroke-linejoin:miter;stroke-opacity:1" d="M 944.519,645.533 944.519,625.733 z" id="boundary" inkscape:connector-curvature="0" />
	<path style="fill:none;stroke:red;stroke-width:1px;stroke-linecap:butt;stroke-linejoin:miter;stroke-opacity:1" d="M 944.519,645.533 944.519,665.333 z" id="boundary" inkscape:connector-curvature="0" />
	<path style="fill:none;stroke:red;stroke-width:1px;stroke-linecap:butt;stroke-linejoin:miter;stroke-opacity:1" d="M 944.519,685.134 944.519,665.333 z" id="boundary" inkscape:connector-curvature="0" />
	<path style="fill:none;stroke:red;stroke-width:1px;stroke-linecap:butt;stroke-linejoin:miter;stroke-opacity:1" d="M 996,675.234 986.1,657.413 z" id="boundary" inkscape:connector-curvature="0" />
	<path style="fill:none;stroke:red;stroke-width:1px;stroke-linecap:butt;stroke-linejoin:miter;stroke-opacity:1" d="M 986.1,657.413 986.1,637.613 z" id="boundary" inkscape:connector-curvature="0" />
	<path style="fill:none;stroke:red;stroke-width:1px;stroke-linecap:butt;stroke-linejoin:miter;stroke-opacity:1" d="M 986.1,617.812 986.1,598.012 z" id="boundary" inkscape:connector-curvature="0" />
	<path style="fill:none;stroke:red;stroke-width:1px;stroke-linecap:butt;stroke-linejoin:miter;stroke-opacity:1" d="M 817.796,698.994 827.697,679.194 z" id="boundary" inkscape:connector-curvature="0" />
	<path style="fill:none;stroke:red;stroke-width:1px;stroke-linecap:butt;stroke-linejoin:miter;stroke-opacity:1" d="M 797.996,748.495 813.836,734.635 z" id="boundary" inkscape:connector-curvature="0" />
	<path style="fill:none;stroke:red;stroke-width:1px;stroke-linecap:butt;stroke-linejoin:miter;stroke-opacity:1" d="M 934.619,722.754 934.619,742.555 z" id="boundary" inkscape:connector-curvature="0" />
	<path style="fill:none;stroke:red;stroke-width:1px;stroke-linecap:butt;stroke-linejoin:miter;stroke-opacity:1" d="M 813.836,734.635 817.796,698.994 z" id="boundary" inkscape:connector-curvature="0" />
	<path style="fill:none;stroke:red;stroke-width:1px;stroke-linecap:butt;stroke-linejoin:miter;stroke-opacity:1" d="M 934.619,742.555 944.519,760.375 z" id="boundary" inkscape:connector-curvature="0" />
	<path style="fill:none;stroke:red;stroke-width:1px;stroke-linecap:butt;stroke-linejoin:miter;stroke-opacity:1" d="M 944.519,685.134 944.519,704.934 z" id="boundary" inkscape:connector-curvature="0" />
	<path style="fill:none;stroke:red;stroke-width:1px;stroke-linecap:butt;stroke-linejoin:miter;stroke-opacity:1" d="M 944.519,704.934 934.619,722.754 z" id="boundary" inkscape:connector-curvature="0" />
	<path style="fill:none;stroke:red;stroke-width:1px;stroke-linecap:butt;stroke-linejoin:miter;stroke-opacity:1" d="M 996,695.034 996,714.834 z" id="boundary" inkscape:connector-curvature="0" />
	<path style="fill:none;stroke:red;stroke-width:1px;stroke-linecap:butt;stroke-linejoin:miter;stroke-opacity:1" d="M 996,714.834 996,734.635 z" id="boundary" inkscape:connector-curvature="0" />
	<path style="fill:none;stroke:red;stroke-width:1px;stroke-linecap:butt;stroke-linejoin:miter;stroke-opacity:1" d="M 944.519,760.375 964.319,768.295 z" id="boundary" inkscape:connector-curvature="0" />
	<path style="fill:none;stroke:red;stroke-width:1px;stroke-linecap:butt;stroke-linejoin:miter;stroke-opacity:1" d="M 996,734.635 984.12,768.295 z" id="boundary" inkscape:connector-curvature="0" />
	<path style="fill:none;stroke:red;stroke-width:1px;stroke-linecap:butt;stroke-linejoin:miter;stroke-opacity:1" d="M 984.12,768.295 964.319,768.295 z" id="boundary" inkscape:connector-curvature="0" />
	<path style="fill:none;stroke:red;stroke-width:1px;stroke-linecap:butt;stroke-linejoin:miter;stroke-opacity:1" d="M 996,675.234 996,695.034 z" id="boundary" inkscape:connector-curvature="0" />
	<circle cx="4" cy="217.844" r="4" fill="#0" id="circle0"/>
	<circle cx="4" cy="237.645" r="4" fill="#0" id="circle1"/>
	<circle cx="4" cy="257.445" r="4" fill="#0" id="circle2"/>
	<circle cx="13.9002" cy="275.265" r="4" fill="#0" id="circle3"/>
	<circle cx="19.8403" cy="202.004" r="4" fill="#0" id="circle4"/>
	<circle cx="33.7006" cy="283.186" r="4" fill="#0" id="circle5"/>
	<circle cx="39.6407" cy="202.004" r="4" fill="#0" id="circle6"/>
	<circle cx="45.5808" cy="299.026" r="4" fill="#0" id="circle7"/>
	<circle cx="53.501" cy="39.6407" r="4" fill="#0" id="circle8"/>
	<circle cx="55.481" cy="186.164" r="4" fill="#0" id="circle9"/>
	<circle cx="63.4012" cy="57.4611" r="4" fill="#0" id="circle10"/>
	<circle cx="65.3812" cy="302.986" r="4" fill="#0" id="circle11"/>
	<circle cx="71.3214" cy="172.303" r="4" fill="#0" id="circle12"/>
	<circle cx="73.3014" cy="33.7006" r="4" fill="#0" id="circle13"/>
	<circle cx="77.2615" cy="73.3014" r="4" fill="#0" id="circle14"/>
	<circle cx="83.2016" cy="148.543" r="4" fill="#0" id="circle15"/>
	<circle cx="85.1816" cy="302.986" r="4" fill="#0" id="circle16"/>
	<circle cx="93.1018" cy="37.6607" r="4" fill="#0" id="circle17"/>
	<circle cx="93.1018" cy="85.1816" r="4" fill="#0" id="circle18"/>
	<circle cx="93.1018" cy="118.842" r="4" fill="#0" id="circle19"/>
	<circle cx="104.982" cy="302.986" r="4" fill="#0" id="circle20"/>
	<circle cx="108.942" cy="103.002" r="4" fill="#0" id="circle21"/>
	<circle cx="112.902" cy="43.6008" r="4" fill="#0" id="circle22"/>
	<circle cx="118.842" cy="85.1816" r="4" fill="#0" id="circle23"/>
	<circle cx="124.782" cy="302.986" r="4" fill="#0" id="circle24"/>
	<circle cx="132.703" cy="43.6008" r="4" fill="#0" id="circle25"/>
	<circle cx="142.603" cy="312.886" r="4" fill="#0" id="circle26"/>
	<circle cx="150.523" cy="53.501" r="4" fill="#0" id="circle27"/>
	<circle cx="162.403" cy="312.886" r="4" fill="#0" id="circle28"/>
	<circle cx="170.323" cy="53.501" r="4" fill="#0" id="circle29"/>
	<circle cx="172.303" cy="9.94012" r="4" fill="#0" id="circle30"/>
	<circle cx="182.204" cy="312.886" r="4" fill="#0" id="circle31"/>
	<circle cx="190.124" cy="53.501" r="4" fill="#0" id="circle32"/>
	<circle cx="192.104" cy="4" r="4" fill="#0" id="circle33"/>
	<circle cx="196.064" cy="23.8004" r="4" fill="#0" id="circle34"/>
	<circle cx="200.024" cy="322.786" r="4" fill="#0" id="circle35"/>
	<circle cx="207.944" cy="43.6008" r="4" fill="#0" id="circle36"/>
	<circle cx="211.904" cy="4" r="4" fill="#0" id="circle37"/>
	<circle cx="219.824" cy="322.786" r="4" fill="#0" id="circle38"/>
	<circle cx="231.705" cy="4" r="4" fill="#0" id="circle39"/>
	<circle cx="237.645" cy="332.687" r="4" fill="#0" id="circle40"/>
	<circle cx="247.545" cy="350.507" r="4" fill="#0" id="circle41"/>
	<circle cx="251.505" cy="4" r="4" fill="#0" id="circle42"/>
	<circle cx="261.405" cy="366.347" r="4" fill="#0" id="circle43"/>
	<circle cx="271.305" cy="7.96008" r="4" fill="#0" id="circle44"/>
	<circle cx="271.305" cy="384.168" r="4" fill="#0" id="circle45"/>
	<circle cx="283.186" cy="23.8004" r="4" fill="#0" id="circle46"/>
	<circle cx="285.166" cy="400.008" r="4" fill="#0" id="circle47"/>
	<circle cx="293.086" cy="41.6208" r="4" fill="#0" id="circle48"/>
	<circle cx="295.066" cy="417.828" r="4" fill="#0" id="circle49"/>
	<circle cx="302.986" cy="437.629" r="4" fill="#0" id="circle50"/>
	<circle cx="308.926" cy="53.501" r="4" fill="#0" id="circle51"/>
	<circle cx="318.826" cy="451.489" r="4" fill="#0" id="circle52"/>
	<circle cx="326.747" cy="43.6008" r="4" fill="#0" id="circle53"/>
	<circle cx="326.747" cy="471.289" r="4" fill="#0" id="circle54"/>
	<circle cx="336.647" cy="489.11" r="4" fill="#0" id="circle55"/>
	<circle cx="342.587" cy="124.782" r="4" fill="#0" id="circle56"/>
	<circle cx="346.547" cy="43.6008" r="4" fill="#0" id="circle57"/>
	<circle cx="350.507" cy="504.95" r="4" fill="#0" id="circle58"/>
	<circle cx="350.507" cy="524.75" r="4" fill="#0" id="circle59"/>
	<circle cx="358.427" cy="110.922" r="4" fill="#0" id="circle60"/>
	<circle cx="358.427" cy="136.663" r="4" fill="#0" id="circle61"/>
	<circle cx="360.407" cy="542.571" r="4" fill="#0" id="circle62"/>
	<circle cx="360.407" cy="562.371" r="4" fill="#0" id="circle63"/>
	<circle cx="360.407" cy="811.856" r="4" fill="#0" id="circle64"/>
	<circle cx="362.387" cy="85.1816" r="4" fill="#0" id="circle65"/>
	<circle cx="364.367" cy="53.501" r="4" fill="#0" id="circle66"/>
	<circle cx="370.307" cy="580.192" r="4" fill="#0" id="circle67"/>
	<circle cx="372.287" cy="827.697" r="4" fill="#0" id="circle68"/>
	<circle cx="376.248" cy="796.016" r="4" fill="#0" id="circle69"/>
	<circle cx="378.228" cy="144.583" r="4" fill="#0" id="circle70"/>
	<circle cx="382.188" cy="596.032" r="4" fill="#0" id="circle71"/>
	<circle cx="386.148" cy="776.216" r="4" fill="#0" id="circle72"/>
	<circle cx="392.088" cy="827.697" r="4" fill="#0" id="circle73"/>
	<circle cx="398.028" cy="152.503" r="4" fill="#0" id="circle74"/>
	<circle cx="400.008" cy="605.932" r="4" fill="#0" id="circle75"/>
	<circle cx="400.008" cy="625.733" r="4" fill="#0" id="circle76"/>
	<circle cx="400.008" cy="645.533" r="4" fill="#0" id="circle77"/>
	<circle cx="400.008" cy="742.555" r="4" fill="#0" id="circle78"/>
	<circle cx="409.908" cy="663.353" r="4" fill="#0" id="circle79"/>
	<circle cx="409.908" cy="683.154" r="4" fill="#0" id="circle80"/>
	<circle cx="409.908" cy="702.954" r="4" fill="#0" id="circle81"/>
	<circle cx="409.908" cy="722.754" r="4" fill="#0" id="circle82"/>
	<circle cx="411.888" cy="827.697" r="4" fill="#0" id="circle83"/>
	<circle cx="415.848" cy="162.403" r="4" fill="#0" id="circle84"/>
	<circle cx="431.689" cy="827.697" r="4" fill="#0" id="circle85"/>
	<circle cx="435.649" cy="162.403" r="4" fill="#0" id="circle86"/>
	<circle cx="441.589" cy="778.196" r="4" fill="#0" id="circle87"/>
	<circle cx="441.589" cy="797.996" r="4" fill="#0" id="circle88"/>
	<circle cx="451.489" cy="689.094" r="4" fill="#0" id="circle89"/>
	<circle cx="451.489" cy="708.894" r="4" fill="#0" id="circle90"/>
	<circle cx="451.489" cy="728.695" r="4" fill="#0" id="circle91"/>
	<circle cx="451.489" cy="748.495" r="4" fill="#0" id="circle92"/>
	<circle cx="455.449" cy="162.403" r="4" fill="#0" id="circle93"/>
	<circle cx="461.389" cy="639.593" r="4" fill="#0" id="circle94"/>
	<circle cx="461.389" cy="659.393" r="4" fill="#0" id="circle95"/>
	<circle cx="471.289" cy="599.992" r="4" fill="#0" id="circle96"/>
	<circle cx="471.289" cy="619.792" r="4" fill="#0" id="circle97"/>
	<circle cx="475.25" cy="162.403" r="4" fill="#0" id="circle98"/>
	<circle cx="491.09" cy="599.992" r="4" fill="#0" id="circle99"/>
	<circle cx="495.05" cy="162.403" r="4" fill="#0" id="circle100"/>
	<circle cx="510.89" cy="599.992" r="4" fill="#0" id="circle101"/>
	<circle cx="512.87" cy="172.303" r="4" fill="#0" id="circle102"/>
	<circle cx="518.81" cy="831.657" r="4" fill="#0" id="circle103"/>
	<circle cx="518.81" cy="851.457" r="4" fill="#0" id="circle104"/>
	<circle cx="528.711" cy="609.892" r="4" fill="#0" id="circle105"/>
	<circle cx="528.711" cy="801.956" r="4" fill="#0" id="circle106"/>
	<circle cx="532.671" cy="172.303" r="4" fill="#0" id="circle107"/>
	<circle cx="534.651" cy="629.693" r="4" fill="#0" id="circle108"/>
	<circle cx="538.611" cy="649.493" r="4" fill="#0" id="circle109"/>
	<circle cx="538.611" cy="782.156" r="4" fill="#0" id="circle110"/>
	<circle cx="538.611" cy="857.397" r="4" fill="#0" id="circle111"/>
	<circle cx="544.551" cy="669.293" r="4" fill="#0" id="circle112"/>
	<circle cx="548.511" cy="689.094" r="4" fill="#0" id="circle113"/>
	<circle cx="548.511" cy="708.894" r="4" fill="#0" id="circle114"/>
	<circle cx="548.511" cy="728.695" r="4" fill="#0" id="circle115"/>
	<circle cx="548.511" cy="748.495" r="4" fill="#0" id="circle116"/>
	<circle cx="552.471" cy="172.303" r="4" fill="#0" id="circle117"/>
	<circle cx="558.411" cy="857.397" r="4" fill="#0" id="circle118"/>
	<circle cx="572.271" cy="172.303" r="4" fill="#0" id="circle119"/>
	<circle cx="578.212" cy="857.397" r="4" fill="#0" id="circle120"/>
	<circle cx="592.072" cy="172.303" r="4" fill="#0" id="circle121"/>
	<circle cx="598.012" cy="851.457" r="4" fill="#0" id="circle122"/>
	<circle cx="599.992" cy="659.393" r="4" fill="#0" id="circle123"/>
	<circle cx="599.992" cy="679.194" r="4" fill="#0" id="circle124"/>
	<circle cx="599.992" cy="698.994" r="4" fill="#0" id="circle125"/>
	<circle cx="599.992" cy="718.794" r="4" fill="#0" id="circle126"/>
	<circle cx="599.992" cy="738.595" r="4" fill="#0" id="circle127"/>
	<circle cx="599.992" cy="758.395" r="4" fill="#0" id="circle128"/>
	<circle cx="599.992" cy="778.196" r="4" fill="#0" id="circle129"/>
	<circle cx="599.992" cy="797.996" r="4" fill="#0" id="circle130"/>
	<circle cx="599.992" cy="817.796" r="4" fill="#0" id="circle131"/>
	<circle cx="609.892" cy="182.204" r="4" fill="#0" id="circle132"/>
	<circle cx="609.892" cy="590.092" r="4" fill="#0" id="circle133"/>
	<circle cx="609.892" cy="609.892" r="4" fill="#0" id="circle134"/>
	<circle cx="609.892" cy="629.693" r="4" fill="#0" id="circle135"/>
	<circle cx="629.693" cy="182.204" r="4" fill="#0" id="circle136"/>
	<circle cx="629.693" cy="590.092" r="4" fill="#0" id="circle137"/>
	<circle cx="649.493" cy="182.204" r="4" fill="#0" id="circle138"/>
	<circle cx="649.493" cy="590.092" r="4" fill="#0" id="circle139"/>
	<circle cx="667.313" cy="599.992" r="4" fill="#0" id="circle140"/>
	<circle cx="669.293" cy="182.204" r="4" fill="#0" id="circle141"/>
	<circle cx="685.134" cy="590.092" r="4" fill="#0" id="circle142"/>
	<circle cx="689.094" cy="182.204" r="4" fill="#0" id="circle143"/>
	<circle cx="704.934" cy="590.092" r="4" fill="#0" id="circle144"/>
	<circle cx="706.914" cy="172.303" r="4" fill="#0" id="circle145"/>
	<circle cx="724.735" cy="590.092" r="4" fill="#0" id="circle146"/>
	<circle cx="726.715" cy="172.303" r="4" fill="#0" id="circle147"/>
	<circle cx="744.535" cy="590.092" r="4" fill="#0" id="circle148"/>
	<circle cx="746.515" cy="172.303" r="4" fill="#0" id="circle149"/>
	<circle cx="746.515" cy="732.655" r="4" fill="#0" id="circle150"/>
	<circle cx="756.415" cy="712.854" r="4" fill="#0" id="circle151"/>
	<circle cx="758.395" cy="605.932" r="4" fill="#0" id="circle152"/>
	<circle cx="758.395" cy="748.495" r="4" fill="#0" id="circle153"/>
	<circle cx="766.315" cy="172.303" r="4" fill="#0" id="circle154"/>
	<circle cx="766.315" cy="693.054" r="4" fill="#0" id="circle155"/>
	<circle cx="778.196" cy="609.892" r="4" fill="#0" id="circle156"/>
	<circle cx="778.196" cy="748.495" r="4" fill="#0" id="circle157"/>
	<circle cx="782.156" cy="677.214" r="4" fill="#0" id="circle158"/>
	<circle cx="786.116" cy="172.303" r="4" fill="#0" id="circle159"/>
	<circle cx="786.116" cy="629.693" r="4" fill="#0" id="circle160"/>
	<circle cx="786.116" cy="649.493" r="4" fill="#0" id="circle161"/>
	<circle cx="797.996" cy="748.495" r="4" fill="#0" id="circle162"/>
	<circle cx="803.936" cy="162.403" r="4" fill="#0" id="circle163"/>
	<circle cx="813.836" cy="734.635" r="4" fill="#0" id="circle164"/>
	<circle cx="817.796" cy="698.994" r="4" fill="#0" id="circle165"/>
	<circle cx="823.737" cy="162.403" r="4" fill="#0" id="circle166"/>
	<circle cx="827.697" cy="639.593" r="4" fill="#0" id="circle167"/>
	<circle cx="827.697" cy="659.393" r="4" fill="#0" id="circle168"/>
	<circle cx="827.697" cy="679.194" r="4" fill="#0" id="circle169"/>
	<circle cx="843.537" cy="162.403" r="4" fill="#0" id="circle170"/>
	<circle cx="843.537" cy="625.733" r="4" fill="#0" id="circle171"/>
	<circle cx="857.397" cy="580.192" r="4" fill="#0" id="circle172"/>
	<circle cx="857.397" cy="599.992" r="4" fill="#0" id="circle173"/>
	<circle cx="861.357" cy="152.503" r="4" fill="#0" id="circle174"/>
	<circle cx="875.218" cy="590.092" r="4" fill="#0" id="circle175"/>
	<circle cx="879.178" cy="162.403" r="4" fill="#0" id="circle176"/>
	<circle cx="893.038" cy="599.992" r="4" fill="#0" id="circle177"/>
	<circle cx="896.998" cy="172.303" r="4" fill="#0" id="circle178"/>
	<circle cx="906.898" cy="580.192" r="4" fill="#0" id="circle179"/>
	<circle cx="916.798" cy="178.244" r="4" fill="#0" id="circle180"/>
	<circle cx="924.719" cy="570.291" r="4" fill="#0" id="circle181"/>
	<circle cx="930.659" cy="590.092" r="4" fill="#0" id="circle182"/>
	<circle cx="934.619" cy="188.144" r="4" fill="#0" id="circle183"/>
	<circle cx="934.619" cy="722.754" r="4" fill="#0" id="circle184"/>
	<circle cx="934.619" cy="742.555" r="4" fill="#0" id="circle185"/>
	<circle cx="944.519" cy="205.964" r="4" fill="#0" id="circle186"/>
	<circle cx="944.519" cy="605.932" r="4" fill="#0" id="circle187"/>
	<circle cx="944.519" cy="625.733" r="4" fill="#0" id="circle188"/>
	<circle cx="944.519" cy="645.533" r="4" fill="#0" id="circle189"/>
	<circle cx="944.519" cy="665.333" r="4" fill="#0" id="circle190"/>
	<circle cx="944.519" cy="685.134" r="4" fill="#0" id="circle191"/>
	<circle cx="944.519" cy="704.934" r="4" fill="#0" id="circle192"/>
	<circle cx="944.519" cy="760.375" r="4" fill="#0" id="circle193"/>
	<circle cx="946.499" cy="225.764" r="4" fill="#0" id="circle194"/>
	<circle cx="956.399" cy="243.585" r="4" fill="#0" id="circle195"/>
	<circle cx="956.399" cy="263.385" r="4" fill="#0" id="circle196"/>
	<circle cx="960.359" cy="283.186" r="4" fill="#0" id="circle197"/>
	<circle cx="964.319" cy="768.295" r="4" fill="#0" id="circle198"/>
	<circle cx="966.299" cy="302.986" r="4" fill="#0" id="circle199"/>
	<circle cx="966.299" cy="322.786" r="4" fill="#0" id="circle200"/>
	<circle cx="966.299" cy="342.587" r="4" fill="#0" id="circle201"/>
	<circle cx="966.299" cy="362.387" r="4" fill="#0" id="circle202"/>
	<circle cx="966.299" cy="382.188" r="4" fill="#0" id="circle203"/>
	<circle cx="966.299" cy="441.589" r="4" fill="#0" id="circle204"/>
	<circle cx="966.299" cy="461.389" r="4" fill="#0" id="circle205"/>
	<circle cx="966.299" cy="481.19" r="4" fill="#0" id="circle206"/>
	<circle cx="966.299" cy="500.99" r="4" fill="#0" id="circle207"/>
	<circle cx="970.259" cy="520.79" r="4" fill="#0" id="circle208"/>
	<circle cx="976.2" cy="400.008" r="4" fill="#0" id="circle209"/>
	<circle cx="976.2" cy="419.808" r="4" fill="#0" id="circle210"/>
	<circle cx="976.2" cy="540.591" r="4" fill="#0" id="circle211"/>
	<circle cx="984.12" cy="768.295" r="4" fill="#0" id="circle212"/>
	<circle cx="986.1" cy="558.411" r="4" fill="#0" id="circle213"/>
	<circle cx="986.1" cy="578.212" r="4" fill="#0" id="circle214"/>
	<circle cx="986.1" cy="598.012" r="4" fill="#0" id="circle215"/>
	<circle cx="986.1" cy="617.812" r="4" fill="#0" id="circle216"/>
	<circle cx="986.1" cy="637.613" r="4" fill="#0" id="circle217"/>
	<circle cx="986.1" cy="657.413" r="4" fill="#0" id="circle218"/>
	<circle cx="996" cy="675.234" r="4" fill="#0" id="circle219"/>
	<circle cx="996" cy="695.034" r="4" fill="#0" id="circle220"/>
	<circle cx="996" cy="714.834" r="4" fill="#0" id="circle221"/>
	<circle cx="996" cy="734.635" r="4" fill="#0" id="circle222"/>
	</g>
</svg>