<?xml version="1.0" encoding="UTF-8" standalone="no"?>
<!-- Created with CurveBenchmark -->
<svg
	xmlns:dc="http://purl.org/dc/elements/1.1/"
	xmlns:cc="http://creativecommons.org/ns#"
	xmlns:rdf="http://www.w3.org/1999/02/22-rdf-syntax-ns#"
	xmlns:svg="http://www.w3.org/2000/svg"
	xmlns="http://www.w3.org/2000/svg"
	xmlns:sodipodi="http://sodipodi.sourceforge.net/DTD/sodipodi-0.dtd"
	xmlns:inkscape="http://www.inkscape.org/namespaces/inkscape"
	width="1000"
	height="1000"
	id="svg2"
	version="1.1"
	sodipodi:docname="manifold/ccrust-fish315.png.txt">
<defs
	id="defs4" />
<metadata
	id="metadata7">
	<rdf:RDF>
		<cc:Work
			rdf:about="">
			<dc:format>image/svg+xml</dc:format>
			<dc:type
				rdf:resource="http://purl.org/dc/dcmitype/StillImage" />
			<dc:title></dc:title>
		</cc:Work>
	</rdf:RDF>
</metadata>
<g
	inkscape:label="Layer 1"
	inkscape:groupmode="layer"
	id="layer1">
	<path style="fill:none;stroke:red;stroke-width:1px;stroke-linecap:butt;stroke-linejoin:miter;stroke-opacity:1" d="M 65.7588,235.595 96.6381,204.716 z" id="boundary" inkscape:connector-curvature="0" />
	<path style="fill:none;stroke:red;stroke-width:1px;stroke-linecap:butt;stroke-linejoin:miter;stroke-opacity:1" d="M 96.6381,204.716 135.237,189.276 z" id="boundary" inkscape:connector-curvature="0" />
	<path style="fill:none;stroke:red;stroke-width:1px;stroke-linecap:butt;stroke-linejoin:miter;stroke-opacity:1" d="M 135.237,189.276 173.837,181.556 z" id="boundary" inkscape:connector-curvature="0" />
	<path style="fill:none;stroke:red;stroke-width:1px;stroke-linecap:butt;stroke-linejoin:miter;stroke-opacity:1" d="M 208.576,162.257 173.837,181.556 z" id="boundary" inkscape:connector-curvature="0" />
	<path style="fill:none;stroke:red;stroke-width:1px;stroke-linecap:butt;stroke-linejoin:miter;stroke-opacity:1" d="M 11.7198,328.233 4,289.634 z" id="boundary" inkscape:connector-curvature="0" />
	<path style="fill:none;stroke:red;stroke-width:1px;stroke-linecap:butt;stroke-linejoin:miter;stroke-opacity:1" d="M 4,289.634 34.8794,258.755 z" id="boundary" inkscape:connector-curvature="0" />
	<path style="fill:none;stroke:red;stroke-width:1px;stroke-linecap:butt;stroke-linejoin:miter;stroke-opacity:1" d="M 34.8794,258.755 65.7588,235.595 z" id="boundary" inkscape:connector-curvature="0" />
	<path style="fill:none;stroke:red;stroke-width:1px;stroke-linecap:butt;stroke-linejoin:miter;stroke-opacity:1" d="M 58.0389,389.992 34.8794,359.113 z" id="boundary" inkscape:connector-curvature="0" />
	<path style="fill:none;stroke:red;stroke-width:1px;stroke-linecap:butt;stroke-linejoin:miter;stroke-opacity:1" d="M 34.8794,359.113 11.7198,328.233 z" id="boundary" inkscape:connector-curvature="0" />
	<path style="fill:none;stroke:red;stroke-width:1px;stroke-linecap:butt;stroke-linejoin:miter;stroke-opacity:1" d="M 335.953,42.5992 351.393,4 z" id="boundary" inkscape:connector-curvature="0" />
	<path style="fill:none;stroke:red;stroke-width:1px;stroke-linecap:butt;stroke-linejoin:miter;stroke-opacity:1" d="M 351.393,4 389.992,11.7198 z" id="boundary" inkscape:connector-curvature="0" />
	<path style="fill:none;stroke:red;stroke-width:1px;stroke-linecap:butt;stroke-linejoin:miter;stroke-opacity:1" d="M 335.953,42.5992 305.074,73.4786 z" id="boundary" inkscape:connector-curvature="0" />
	<path style="fill:none;stroke:red;stroke-width:1px;stroke-linecap:butt;stroke-linejoin:miter;stroke-opacity:1" d="M 389.992,11.7198 428.591,27.1595 z" id="boundary" inkscape:connector-curvature="0" />
	<path style="fill:none;stroke:red;stroke-width:1px;stroke-linecap:butt;stroke-linejoin:miter;stroke-opacity:1" d="M 428.591,27.1595 463.331,46.4591 z" id="boundary" inkscape:connector-curvature="0" />
	<path style="fill:none;stroke:red;stroke-width:1px;stroke-linecap:butt;stroke-linejoin:miter;stroke-opacity:1" d="M 208.576,162.257 247.175,150.677 z" id="boundary" inkscape:connector-curvature="0" />
	<path style="fill:none;stroke:red;stroke-width:1px;stroke-linecap:butt;stroke-linejoin:miter;stroke-opacity:1" d="M 285.774,139.097 247.175,150.677 z" id="boundary" inkscape:connector-curvature="0" />
	<path style="fill:none;stroke:red;stroke-width:1px;stroke-linecap:butt;stroke-linejoin:miter;stroke-opacity:1" d="M 305.074,73.4786 285.774,139.097 z" id="boundary" inkscape:connector-curvature="0" />
	<path style="fill:none;stroke:red;stroke-width:1px;stroke-linecap:butt;stroke-linejoin:miter;stroke-opacity:1" d="M 463.331,46.4591 494.21,69.6187 z" id="boundary" inkscape:connector-curvature="0" />
	<path style="fill:none;stroke:red;stroke-width:1px;stroke-linecap:butt;stroke-linejoin:miter;stroke-opacity:1" d="M 532.809,81.1984 494.21,69.6187 z" id="boundary" inkscape:connector-curvature="0" />
	<path style="fill:none;stroke:red;stroke-width:1px;stroke-linecap:butt;stroke-linejoin:miter;stroke-opacity:1" d="M 85.0584,420.872 58.0389,389.992 z" id="boundary" inkscape:connector-curvature="0" />
	<path style="fill:none;stroke:red;stroke-width:1px;stroke-linecap:butt;stroke-linejoin:miter;stroke-opacity:1" d="M 119.798,440.171 85.0584,420.872 z" id="boundary" inkscape:connector-curvature="0" />
	<path style="fill:none;stroke:red;stroke-width:1px;stroke-linecap:butt;stroke-linejoin:miter;stroke-opacity:1" d="M 119.798,440.171 158.397,451.751 z" id="boundary" inkscape:connector-curvature="0" />
	<path style="fill:none;stroke:red;stroke-width:1px;stroke-linecap:butt;stroke-linejoin:miter;stroke-opacity:1" d="M 158.397,451.751 193.136,471.051 z" id="boundary" inkscape:connector-curvature="0" />
	<path style="fill:none;stroke:red;stroke-width:1px;stroke-linecap:butt;stroke-linejoin:miter;stroke-opacity:1" d="M 231.735,486.49 193.136,471.051 z" id="boundary" inkscape:connector-curvature="0" />
	<path style="fill:none;stroke:red;stroke-width:1px;stroke-linecap:butt;stroke-linejoin:miter;stroke-opacity:1" d="M 278.054,582.988 266.475,544.389 z" id="boundary" inkscape:connector-curvature="0" />
	<path style="fill:none;stroke:red;stroke-width:1px;stroke-linecap:butt;stroke-linejoin:miter;stroke-opacity:1" d="M 266.475,544.389 266.475,505.79 z" id="boundary" inkscape:connector-curvature="0" />
	<path style="fill:none;stroke:red;stroke-width:1px;stroke-linecap:butt;stroke-linejoin:miter;stroke-opacity:1" d="M 231.735,486.49 266.475,505.79 z" id="boundary" inkscape:connector-curvature="0" />
	<path style="fill:none;stroke:red;stroke-width:1px;stroke-linecap:butt;stroke-linejoin:miter;stroke-opacity:1" d="M 278.054,582.988 297.354,617.728 z" id="boundary" inkscape:connector-curvature="0" />
	<path style="fill:none;stroke:red;stroke-width:1px;stroke-linecap:butt;stroke-linejoin:miter;stroke-opacity:1" d="M 389.992,571.409 420.872,594.568 z" id="boundary" inkscape:connector-curvature="0" />
	<path style="fill:none;stroke:red;stroke-width:1px;stroke-linecap:butt;stroke-linejoin:miter;stroke-opacity:1" d="M 366.833,602.288 389.992,571.409 z" id="boundary" inkscape:connector-curvature="0" />
	<path style="fill:none;stroke:red;stroke-width:1px;stroke-linecap:butt;stroke-linejoin:miter;stroke-opacity:1" d="M 509.65,563.689 494.21,525.089 z" id="boundary" inkscape:connector-curvature="0" />
	<path style="fill:none;stroke:red;stroke-width:1px;stroke-linecap:butt;stroke-linejoin:miter;stroke-opacity:1" d="M 482.63,486.49 521.23,478.77 z" id="boundary" inkscape:connector-curvature="0" />
	<path style="fill:none;stroke:red;stroke-width:1px;stroke-linecap:butt;stroke-linejoin:miter;stroke-opacity:1" d="M 494.21,525.089 482.63,486.49 z" id="boundary" inkscape:connector-curvature="0" />
	<path style="fill:none;stroke:red;stroke-width:1px;stroke-linecap:butt;stroke-linejoin:miter;stroke-opacity:1" d="M 451.751,617.728 420.872,594.568 z" id="boundary" inkscape:connector-curvature="0" />
	<path style="fill:none;stroke:red;stroke-width:1px;stroke-linecap:butt;stroke-linejoin:miter;stroke-opacity:1" d="M 335.953,625.447 297.354,617.728 z" id="boundary" inkscape:connector-curvature="0" />
	<path style="fill:none;stroke:red;stroke-width:1px;stroke-linecap:butt;stroke-linejoin:miter;stroke-opacity:1" d="M 451.751,617.728 490.35,625.447 z" id="boundary" inkscape:connector-curvature="0" />
	<path style="fill:none;stroke:red;stroke-width:1px;stroke-linecap:butt;stroke-linejoin:miter;stroke-opacity:1" d="M 509.65,563.689 490.35,625.447 z" id="boundary" inkscape:connector-curvature="0" />
	<path style="fill:none;stroke:red;stroke-width:1px;stroke-linecap:butt;stroke-linejoin:miter;stroke-opacity:1" d="M 335.953,625.447 366.833,602.288 z" id="boundary" inkscape:connector-curvature="0" />
	<path style="fill:none;stroke:red;stroke-width:1px;stroke-linecap:butt;stroke-linejoin:miter;stroke-opacity:1" d="M 559.829,112.078 582.988,142.957 z" id="boundary" inkscape:connector-curvature="0" />
	<path style="fill:none;stroke:red;stroke-width:1px;stroke-linecap:butt;stroke-linejoin:miter;stroke-opacity:1" d="M 559.829,112.078 532.809,81.1984 z" id="boundary" inkscape:connector-curvature="0" />
	<path style="fill:none;stroke:red;stroke-width:1px;stroke-linecap:butt;stroke-linejoin:miter;stroke-opacity:1" d="M 652.467,104.358 617.728,123.658 z" id="boundary" inkscape:connector-curvature="0" />
	<path style="fill:none;stroke:red;stroke-width:1px;stroke-linecap:butt;stroke-linejoin:miter;stroke-opacity:1" d="M 691.066,112.078 652.467,104.358 z" id="boundary" inkscape:connector-curvature="0" />
	<path style="fill:none;stroke:red;stroke-width:1px;stroke-linecap:butt;stroke-linejoin:miter;stroke-opacity:1" d="M 582.988,142.957 617.728,123.658 z" id="boundary" inkscape:connector-curvature="0" />
	<path style="fill:none;stroke:red;stroke-width:1px;stroke-linecap:butt;stroke-linejoin:miter;stroke-opacity:1" d="M 748.965,169.977 772.125,200.856 z" id="boundary" inkscape:connector-curvature="0" />
	<path style="fill:none;stroke:red;stroke-width:1px;stroke-linecap:butt;stroke-linejoin:miter;stroke-opacity:1" d="M 748.965,169.977 721.946,139.097 z" id="boundary" inkscape:connector-curvature="0" />
	<path style="fill:none;stroke:red;stroke-width:1px;stroke-linecap:butt;stroke-linejoin:miter;stroke-opacity:1" d="M 691.066,112.078 721.946,139.097 z" id="boundary" inkscape:connector-curvature="0" />
	<path style="fill:none;stroke:red;stroke-width:1px;stroke-linecap:butt;stroke-linejoin:miter;stroke-opacity:1" d="M 772.125,200.856 787.564,239.455 z" id="boundary" inkscape:connector-curvature="0" />
	<path style="fill:none;stroke:red;stroke-width:1px;stroke-linecap:butt;stroke-linejoin:miter;stroke-opacity:1" d="M 860.903,220.156 891.782,196.996 z" id="boundary" inkscape:connector-curvature="0" />
	<path style="fill:none;stroke:red;stroke-width:1px;stroke-linecap:butt;stroke-linejoin:miter;stroke-opacity:1" d="M 860.903,220.156 826.163,239.455 z" id="boundary" inkscape:connector-curvature="0" />
	<path style="fill:none;stroke:red;stroke-width:1px;stroke-linecap:butt;stroke-linejoin:miter;stroke-opacity:1" d="M 891.782,196.996 930.381,181.556 z" id="boundary" inkscape:connector-curvature="0" />
	<path style="fill:none;stroke:red;stroke-width:1px;stroke-linecap:butt;stroke-linejoin:miter;stroke-opacity:1" d="M 968.981,166.117 930.381,181.556 z" id="boundary" inkscape:connector-curvature="0" />
	<path style="fill:none;stroke:red;stroke-width:1px;stroke-linecap:butt;stroke-linejoin:miter;stroke-opacity:1" d="M 968.981,166.117 988.28,220.156 z" id="boundary" inkscape:connector-curvature="0" />
	<path style="fill:none;stroke:red;stroke-width:1px;stroke-linecap:butt;stroke-linejoin:miter;stroke-opacity:1" d="M 787.564,239.455 826.163,239.455 z" id="boundary" inkscape:connector-curvature="0" />
	<path style="fill:none;stroke:red;stroke-width:1px;stroke-linecap:butt;stroke-linejoin:miter;stroke-opacity:1" d="M 980.56,258.755 988.28,220.156 z" id="boundary" inkscape:connector-curvature="0" />
	<path style="fill:none;stroke:red;stroke-width:1px;stroke-linecap:butt;stroke-linejoin:miter;stroke-opacity:1" d="M 980.56,297.354 980.56,258.755 z" id="boundary" inkscape:connector-curvature="0" />
	<path style="fill:none;stroke:red;stroke-width:1px;stroke-linecap:butt;stroke-linejoin:miter;stroke-opacity:1" d="M 637.027,474.911 598.428,478.77 z" id="boundary" inkscape:connector-curvature="0" />
	<path style="fill:none;stroke:red;stroke-width:1px;stroke-linecap:butt;stroke-linejoin:miter;stroke-opacity:1" d="M 559.829,478.77 521.23,478.77 z" id="boundary" inkscape:connector-curvature="0" />
	<path style="fill:none;stroke:red;stroke-width:1px;stroke-linecap:butt;stroke-linejoin:miter;stroke-opacity:1" d="M 787.564,382.272 787.564,420.872 z" id="boundary" inkscape:connector-curvature="0" />
	<path style="fill:none;stroke:red;stroke-width:1px;stroke-linecap:butt;stroke-linejoin:miter;stroke-opacity:1" d="M 671.767,494.21 637.027,474.911 z" id="boundary" inkscape:connector-curvature="0" />
	<path style="fill:none;stroke:red;stroke-width:1px;stroke-linecap:butt;stroke-linejoin:miter;stroke-opacity:1" d="M 787.564,420.872 772.125,459.471 z" id="boundary" inkscape:connector-curvature="0" />
	<path style="fill:none;stroke:red;stroke-width:1px;stroke-linecap:butt;stroke-linejoin:miter;stroke-opacity:1" d="M 598.428,478.77 559.829,478.77 z" id="boundary" inkscape:connector-curvature="0" />
	<path style="fill:none;stroke:red;stroke-width:1px;stroke-linecap:butt;stroke-linejoin:miter;stroke-opacity:1" d="M 710.366,501.93 671.767,494.21 z" id="boundary" inkscape:connector-curvature="0" />
	<path style="fill:none;stroke:red;stroke-width:1px;stroke-linecap:butt;stroke-linejoin:miter;stroke-opacity:1" d="M 710.366,501.93 748.965,501.93 z" id="boundary" inkscape:connector-curvature="0" />
	<path style="fill:none;stroke:red;stroke-width:1px;stroke-linecap:butt;stroke-linejoin:miter;stroke-opacity:1" d="M 772.125,459.471 748.965,501.93 z" id="boundary" inkscape:connector-curvature="0" />
	<path style="fill:none;stroke:red;stroke-width:1px;stroke-linecap:butt;stroke-linejoin:miter;stroke-opacity:1" d="M 826.163,386.132 857.043,409.292 z" id="boundary" inkscape:connector-curvature="0" />
	<path style="fill:none;stroke:red;stroke-width:1px;stroke-linecap:butt;stroke-linejoin:miter;stroke-opacity:1" d="M 988.28,413.152 980.56,374.553 z" id="boundary" inkscape:connector-curvature="0" />
	<path style="fill:none;stroke:red;stroke-width:1px;stroke-linecap:butt;stroke-linejoin:miter;stroke-opacity:1" d="M 980.56,374.553 980.56,335.953 z" id="boundary" inkscape:connector-curvature="0" />
	<path style="fill:none;stroke:red;stroke-width:1px;stroke-linecap:butt;stroke-linejoin:miter;stroke-opacity:1" d="M 980.56,335.953 980.56,297.354 z" id="boundary" inkscape:connector-curvature="0" />
	<path style="fill:none;stroke:red;stroke-width:1px;stroke-linecap:butt;stroke-linejoin:miter;stroke-opacity:1" d="M 887.922,432.451 857.043,409.292 z" id="boundary" inkscape:connector-curvature="0" />
	<path style="fill:none;stroke:red;stroke-width:1px;stroke-linecap:butt;stroke-linejoin:miter;stroke-opacity:1" d="M 826.163,386.132 787.564,382.272 z" id="boundary" inkscape:connector-curvature="0" />
	<path style="fill:none;stroke:red;stroke-width:1px;stroke-linecap:butt;stroke-linejoin:miter;stroke-opacity:1" d="M 887.922,432.451 918.802,455.611 z" id="boundary" inkscape:connector-curvature="0" />
	<path style="fill:none;stroke:red;stroke-width:1px;stroke-linecap:butt;stroke-linejoin:miter;stroke-opacity:1" d="M 957.401,463.331 918.802,455.611 z" id="boundary" inkscape:connector-curvature="0" />
	<path style="fill:none;stroke:red;stroke-width:1px;stroke-linecap:butt;stroke-linejoin:miter;stroke-opacity:1" d="M 957.401,463.331 996,451.751 z" id="boundary" inkscape:connector-curvature="0" />
	<path style="fill:none;stroke:red;stroke-width:1px;stroke-linecap:butt;stroke-linejoin:miter;stroke-opacity:1" d="M 988.28,413.152 996,451.751 z" id="boundary" inkscape:connector-curvature="0" />
	<circle cx="4" cy="289.634" r="4" fill="#0" id="circle0"/>
	<circle cx="11.7198" cy="328.233" r="4" fill="#0" id="circle1"/>
	<circle cx="34.8794" cy="258.755" r="4" fill="#0" id="circle2"/>
	<circle cx="34.8794" cy="359.113" r="4" fill="#0" id="circle3"/>
	<circle cx="58.0389" cy="389.992" r="4" fill="#0" id="circle4"/>
	<circle cx="65.7588" cy="235.595" r="4" fill="#0" id="circle5"/>
	<circle cx="85.0584" cy="420.872" r="4" fill="#0" id="circle6"/>
	<circle cx="96.6381" cy="204.716" r="4" fill="#0" id="circle7"/>
	<circle cx="119.798" cy="440.171" r="4" fill="#0" id="circle8"/>
	<circle cx="135.237" cy="189.276" r="4" fill="#0" id="circle9"/>
	<circle cx="158.397" cy="451.751" r="4" fill="#0" id="circle10"/>
	<circle cx="173.837" cy="181.556" r="4" fill="#0" id="circle11"/>
	<circle cx="193.136" cy="471.051" r="4" fill="#0" id="circle12"/>
	<circle cx="208.576" cy="162.257" r="4" fill="#0" id="circle13"/>
	<circle cx="231.735" cy="486.49" r="4" fill="#0" id="circle14"/>
	<circle cx="247.175" cy="150.677" r="4" fill="#0" id="circle15"/>
	<circle cx="266.475" cy="505.79" r="4" fill="#0" id="circle16"/>
	<circle cx="266.475" cy="544.389" r="4" fill="#0" id="circle17"/>
	<circle cx="278.054" cy="582.988" r="4" fill="#0" id="circle18"/>
	<circle cx="285.774" cy="139.097" r="4" fill="#0" id="circle19"/>
	<circle cx="297.354" cy="617.728" r="4" fill="#0" id="circle20"/>
	<circle cx="305.074" cy="73.4786" r="4" fill="#0" id="circle21"/>
	<circle cx="335.953" cy="42.5992" r="4" fill="#0" id="circle22"/>
	<circle cx="335.953" cy="625.447" r="4" fill="#0" id="circle23"/>
	<circle cx="351.393" cy="4" r="4" fill="#0" id="circle24"/>
	<circle cx="366.833" cy="602.288" r="4" fill="#0" id="circle25"/>
	<circle cx="389.992" cy="11.7198" r="4" fill="#0" id="circle26"/>
	<circle cx="389.992" cy="571.409" r="4" fill="#0" id="circle27"/>
	<circle cx="420.872" cy="594.568" r="4" fill="#0" id="circle28"/>
	<circle cx="428.591" cy="27.1595" r="4" fill="#0" id="circle29"/>
	<circle cx="451.751" cy="617.728" r="4" fill="#0" id="circle30"/>
	<circle cx="463.331" cy="46.4591" r="4" fill="#0" id="circle31"/>
	<circle cx="482.63" cy="486.49" r="4" fill="#0" id="circle32"/>
	<circle cx="490.35" cy="625.447" r="4" fill="#0" id="circle33"/>
	<circle cx="494.21" cy="69.6187" r="4" fill="#0" id="circle34"/>
	<circle cx="494.21" cy="525.089" r="4" fill="#0" id="circle35"/>
	<circle cx="509.65" cy="563.689" r="4" fill="#0" id="circle36"/>
	<circle cx="521.23" cy="478.77" r="4" fill="#0" id="circle37"/>
	<circle cx="532.809" cy="81.1984" r="4" fill="#0" id="circle38"/>
	<circle cx="559.829" cy="112.078" r="4" fill="#0" id="circle39"/>
	<circle cx="559.829" cy="478.77" r="4" fill="#0" id="circle40"/>
	<circle cx="582.988" cy="142.957" r="4" fill="#0" id="circle41"/>
	<circle cx="598.428" cy="478.77" r="4" fill="#0" id="circle42"/>
	<circle cx="617.728" cy="123.658" r="4" fill="#0" id="circle43"/>
	<circle cx="637.027" cy="474.911" r="4" fill="#0" id="circle44"/>
	<circle cx="652.467" cy="104.358" r="4" fill="#0" id="circle45"/>
	<circle cx="671.767" cy="494.21" r="4" fill="#0" id="circle46"/>
	<circle cx="691.066" cy="112.078" r="4" fill="#0" id="circle47"/>
	<circle cx="710.366" cy="501.93" r="4" fill="#0" id="circle48"/>
	<circle cx="721.946" cy="139.097" r="4" fill="#0" id="circle49"/>
	<circle cx="748.965" cy="169.977" r="4" fill="#0" id="circle50"/>
	<circle cx="748.965" cy="501.93" r="4" fill="#0" id="circle51"/>
	<circle cx="772.125" cy="200.856" r="4" fill="#0" id="circle52"/>
	<circle cx="772.125" cy="459.471" r="4" fill="#0" id="circle53"/>
	<circle cx="787.564" cy="239.455" r="4" fill="#0" id="circle54"/>
	<circle cx="787.564" cy="382.272" r="4" fill="#0" id="circle55"/>
	<circle cx="787.564" cy="420.872" r="4" fill="#0" id="circle56"/>
	<circle cx="826.163" cy="239.455" r="4" fill="#0" id="circle57"/>
	<circle cx="826.163" cy="386.132" r="4" fill="#0" id="circle58"/>
	<circle cx="857.043" cy="409.292" r="4" fill="#0" id="circle59"/>
	<circle cx="860.903" cy="220.156" r="4" fill="#0" id="circle60"/>
	<circle cx="887.922" cy="432.451" r="4" fill="#0" id="circle61"/>
	<circle cx="891.782" cy="196.996" r="4" fill="#0" id="circle62"/>
	<circle cx="918.802" cy="455.611" r="4" fill="#0" id="circle63"/>
	<circle cx="930.381" cy="181.556" r="4" fill="#0" id="circle64"/>
	<circle cx="957.401" cy="463.331" r="4" fill="#0" id="circle65"/>
	<circle cx="968.981" cy="166.117" r="4" fill="#0" id="circle66"/>
	<circle cx="980.56" cy="258.755" r="4" fill="#0" id="circle67"/>
	<circle cx="980.56" cy="297.354" r="4" fill="#0" id="circle68"/>
	<circle cx="980.56" cy="335.953" r="4" fill="#0" id="circle69"/>
	<circle cx="980.56" cy="374.553" r="4" fill="#0" id="circle70"/>
	<circle cx="988.28" cy="220.156" r="4" fill="#0" id="circle71"/>
	<circle cx="988.28" cy="413.152" r="4" fill="#0" id="circle72"/>
	<circle cx="996" cy="451.751" r="4" fill="#0" id="circle73"/>
	</g>
</svg>