<?xml version="1.0" encoding="UTF-8" standalone="no"?>
<!-- Created with CurveBenchmark -->
<svg
	xmlns:dc="http://purl.org/dc/elements/1.1/"
	xmlns:cc="http://creativecommons.org/ns#"
	xmlns:rdf="http://www.w3.org/1999/02/22-rdf-syntax-ns#"
	xmlns:svg="http://www.w3.org/2000/svg"
	xmlns="http://www.w3.org/2000/svg"
	xmlns:sodipodi="http://sodipodi.sourceforge.net/DTD/sodipodi-0.dtd"
	xmlns:inkscape="http://www.inkscape.org/namespaces/inkscape"
	width="1000"
	height="1000"
	id="svg2"
	version="1.1"
	sodipodi:docname="manifold/ccrust-tree-19.png.txt">
<defs
	id="defs4" />
<metadata
	id="metadata7">
	<rdf:RDF>
		<cc:Work
			rdf:about="">
			<dc:format>image/svg+xml</dc:format>
			<dc:type
				rdf:resource="http://purl.org/dc/dcmitype/StillImage" />
			<dc:title></dc:title>
		</cc:Work>
	</rdf:RDF>
</metadata>
<g
	inkscape:label="Layer 1"
	inkscape:groupmode="layer"
	id="layer1">
	<path style="fill:none;stroke:red;stroke-width:1px;stroke-linecap:butt;stroke-linejoin:miter;stroke-opacity:1" d="M 80.5849,317.548 80.5849,326.558 z" id="boundary" inkscape:connector-curvature="0" />
	<path style="fill:none;stroke:red;stroke-width:1px;stroke-linecap:butt;stroke-linejoin:miter;stroke-opacity:1" d="M 80.5849,326.558 76.0799,335.568 z" id="boundary" inkscape:connector-curvature="0" />
	<path style="fill:none;stroke:red;stroke-width:1px;stroke-linecap:butt;stroke-linejoin:miter;stroke-opacity:1" d="M 80.5849,317.548 85.0899,304.033 z" id="boundary" inkscape:connector-curvature="0" />
	<path style="fill:none;stroke:red;stroke-width:1px;stroke-linecap:butt;stroke-linejoin:miter;stroke-opacity:1" d="M 76.0799,344.578 76.0799,335.568 z" id="boundary" inkscape:connector-curvature="0" />
	<path style="fill:none;stroke:red;stroke-width:1px;stroke-linecap:butt;stroke-linejoin:miter;stroke-opacity:1" d="M 76.0799,344.578 76.0799,353.588 z" id="boundary" inkscape:connector-curvature="0" />
	<path style="fill:none;stroke:red;stroke-width:1px;stroke-linecap:butt;stroke-linejoin:miter;stroke-opacity:1" d="M 76.0799,362.598 76.0799,371.608 z" id="boundary" inkscape:connector-curvature="0" />
	<path style="fill:none;stroke:red;stroke-width:1px;stroke-linecap:butt;stroke-linejoin:miter;stroke-opacity:1" d="M 83.2879,377.915 76.0799,371.608 z" id="boundary" inkscape:connector-curvature="0" />
	<path style="fill:none;stroke:red;stroke-width:1px;stroke-linecap:butt;stroke-linejoin:miter;stroke-opacity:1" d="M 76.0799,362.598 76.0799,353.588 z" id="boundary" inkscape:connector-curvature="0" />
	<path style="fill:none;stroke:red;stroke-width:1px;stroke-linecap:butt;stroke-linejoin:miter;stroke-opacity:1" d="M 89.5949,286.013 89.5949,295.023 z" id="boundary" inkscape:connector-curvature="0" />
	<path style="fill:none;stroke:red;stroke-width:1px;stroke-linecap:butt;stroke-linejoin:miter;stroke-opacity:1" d="M 89.5949,295.023 85.0899,304.033 z" id="boundary" inkscape:connector-curvature="0" />
	<path style="fill:none;stroke:red;stroke-width:1px;stroke-linecap:butt;stroke-linejoin:miter;stroke-opacity:1" d="M 89.5949,286.013 94.0999,277.003 z" id="boundary" inkscape:connector-curvature="0" />
	<path style="fill:none;stroke:red;stroke-width:1px;stroke-linecap:butt;stroke-linejoin:miter;stroke-opacity:1" d="M 83.2879,377.915 90.4959,383.321 z" id="boundary" inkscape:connector-curvature="0" />
	<path style="fill:none;stroke:red;stroke-width:1px;stroke-linecap:butt;stroke-linejoin:miter;stroke-opacity:1" d="M 90.4959,383.321 89.5949,398.638 z" id="boundary" inkscape:connector-curvature="0" />
	<path style="fill:none;stroke:red;stroke-width:1px;stroke-linecap:butt;stroke-linejoin:miter;stroke-opacity:1" d="M 89.5949,407.648 89.5949,398.638 z" id="boundary" inkscape:connector-curvature="0" />
	<path style="fill:none;stroke:red;stroke-width:1px;stroke-linecap:butt;stroke-linejoin:miter;stroke-opacity:1" d="M 94.0999,267.993 94.0999,277.003 z" id="boundary" inkscape:connector-curvature="0" />
	<path style="fill:none;stroke:red;stroke-width:1px;stroke-linecap:butt;stroke-linejoin:miter;stroke-opacity:1" d="M 89.5949,407.648 85.0899,416.658 z" id="boundary" inkscape:connector-curvature="0" />
	<path style="fill:none;stroke:red;stroke-width:1px;stroke-linecap:butt;stroke-linejoin:miter;stroke-opacity:1" d="M 67.0699,497.748 67.0699,506.757 z" id="boundary" inkscape:connector-curvature="0" />
	<path style="fill:none;stroke:red;stroke-width:1px;stroke-linecap:butt;stroke-linejoin:miter;stroke-opacity:1" d="M 67.0699,506.757 62.5649,515.767 z" id="boundary" inkscape:connector-curvature="0" />
	<path style="fill:none;stroke:red;stroke-width:1px;stroke-linecap:butt;stroke-linejoin:miter;stroke-opacity:1" d="M 67.0699,497.748 71.5749,484.233 z" id="boundary" inkscape:connector-curvature="0" />
	<path style="fill:none;stroke:red;stroke-width:1px;stroke-linecap:butt;stroke-linejoin:miter;stroke-opacity:1" d="M 62.5649,524.777 62.5649,515.767 z" id="boundary" inkscape:connector-curvature="0" />
	<path style="fill:none;stroke:red;stroke-width:1px;stroke-linecap:butt;stroke-linejoin:miter;stroke-opacity:1" d="M 58.0599,533.787 58.0599,542.797 z" id="boundary" inkscape:connector-curvature="0" />
	<path style="fill:none;stroke:red;stroke-width:1px;stroke-linecap:butt;stroke-linejoin:miter;stroke-opacity:1" d="M 58.0599,542.797 53.555,556.312 z" id="boundary" inkscape:connector-curvature="0" />
	<path style="fill:none;stroke:red;stroke-width:1px;stroke-linecap:butt;stroke-linejoin:miter;stroke-opacity:1" d="M 58.0599,533.787 62.5649,524.777 z" id="boundary" inkscape:connector-curvature="0" />
	<path style="fill:none;stroke:red;stroke-width:1px;stroke-linecap:butt;stroke-linejoin:miter;stroke-opacity:1" d="M 53.555,565.322 53.555,556.312 z" id="boundary" inkscape:connector-curvature="0" />
	<path style="fill:none;stroke:red;stroke-width:1px;stroke-linecap:butt;stroke-linejoin:miter;stroke-opacity:1" d="M 80.5849,439.183 80.5849,448.193 z" id="boundary" inkscape:connector-curvature="0" />
	<path style="fill:none;stroke:red;stroke-width:1px;stroke-linecap:butt;stroke-linejoin:miter;stroke-opacity:1" d="M 80.5849,439.183 85.0899,425.668 z" id="boundary" inkscape:connector-curvature="0" />
	<path style="fill:none;stroke:red;stroke-width:1px;stroke-linecap:butt;stroke-linejoin:miter;stroke-opacity:1" d="M 85.0899,416.658 85.0899,425.668 z" id="boundary" inkscape:connector-curvature="0" />
	<path style="fill:none;stroke:red;stroke-width:1px;stroke-linecap:butt;stroke-linejoin:miter;stroke-opacity:1" d="M 80.5849,457.203 80.5849,448.193 z" id="boundary" inkscape:connector-curvature="0" />
	<path style="fill:none;stroke:red;stroke-width:1px;stroke-linecap:butt;stroke-linejoin:miter;stroke-opacity:1" d="M 76.0799,466.213 76.0799,475.223 z" id="boundary" inkscape:connector-curvature="0" />
	<path style="fill:none;stroke:red;stroke-width:1px;stroke-linecap:butt;stroke-linejoin:miter;stroke-opacity:1" d="M 76.0799,475.223 71.5749,484.233 z" id="boundary" inkscape:connector-curvature="0" />
	<path style="fill:none;stroke:red;stroke-width:1px;stroke-linecap:butt;stroke-linejoin:miter;stroke-opacity:1" d="M 76.0799,466.213 80.5849,457.203 z" id="boundary" inkscape:connector-curvature="0" />
	<path style="fill:none;stroke:red;stroke-width:1px;stroke-linecap:butt;stroke-linejoin:miter;stroke-opacity:1" d="M 130.14,60.7629 130.14,69.7729 z" id="boundary" inkscape:connector-curvature="0" />
	<path style="fill:none;stroke:red;stroke-width:1px;stroke-linecap:butt;stroke-linejoin:miter;stroke-opacity:1" d="M 130.14,78.7829 130.14,69.7729 z" id="boundary" inkscape:connector-curvature="0" />
	<path style="fill:none;stroke:red;stroke-width:1px;stroke-linecap:butt;stroke-linejoin:miter;stroke-opacity:1" d="M 125.635,110.318 125.635,119.328 z" id="boundary" inkscape:connector-curvature="0" />
	<path style="fill:none;stroke:red;stroke-width:1px;stroke-linecap:butt;stroke-linejoin:miter;stroke-opacity:1" d="M 125.635,119.328 121.13,128.338 z" id="boundary" inkscape:connector-curvature="0" />
	<path style="fill:none;stroke:red;stroke-width:1px;stroke-linecap:butt;stroke-linejoin:miter;stroke-opacity:1" d="M 130.14,87.7929 130.14,96.8029 z" id="boundary" inkscape:connector-curvature="0" />
	<path style="fill:none;stroke:red;stroke-width:1px;stroke-linecap:butt;stroke-linejoin:miter;stroke-opacity:1" d="M 130.14,96.8029 125.635,110.318 z" id="boundary" inkscape:connector-curvature="0" />
	<path style="fill:none;stroke:red;stroke-width:1px;stroke-linecap:butt;stroke-linejoin:miter;stroke-opacity:1" d="M 130.14,78.7829 130.14,87.7929 z" id="boundary" inkscape:connector-curvature="0" />
	<path style="fill:none;stroke:red;stroke-width:1px;stroke-linecap:butt;stroke-linejoin:miter;stroke-opacity:1" d="M 139.15,11.208 146.358,4 z" id="boundary" inkscape:connector-curvature="0" />
	<path style="fill:none;stroke:red;stroke-width:1px;stroke-linecap:butt;stroke-linejoin:miter;stroke-opacity:1" d="M 146.358,4 153.566,9.40599 z" id="boundary" inkscape:connector-curvature="0" />
	<path style="fill:none;stroke:red;stroke-width:1px;stroke-linecap:butt;stroke-linejoin:miter;stroke-opacity:1" d="M 153.566,9.40599 153.566,18.416 z" id="boundary" inkscape:connector-curvature="0" />
	<path style="fill:none;stroke:red;stroke-width:1px;stroke-linecap:butt;stroke-linejoin:miter;stroke-opacity:1" d="M 139.15,20.218 139.15,11.208 z" id="boundary" inkscape:connector-curvature="0" />
	<path style="fill:none;stroke:red;stroke-width:1px;stroke-linecap:butt;stroke-linejoin:miter;stroke-opacity:1" d="M 134.645,29.228 134.645,38.238 z" id="boundary" inkscape:connector-curvature="0" />
	<path style="fill:none;stroke:red;stroke-width:1px;stroke-linecap:butt;stroke-linejoin:miter;stroke-opacity:1" d="M 134.645,29.228 139.15,20.218 z" id="boundary" inkscape:connector-curvature="0" />
	<path style="fill:none;stroke:red;stroke-width:1px;stroke-linecap:butt;stroke-linejoin:miter;stroke-opacity:1" d="M 134.645,47.248 134.645,38.238 z" id="boundary" inkscape:connector-curvature="0" />
	<path style="fill:none;stroke:red;stroke-width:1px;stroke-linecap:butt;stroke-linejoin:miter;stroke-opacity:1" d="M 134.645,47.248 130.14,60.7629 z" id="boundary" inkscape:connector-curvature="0" />
	<path style="fill:none;stroke:red;stroke-width:1px;stroke-linecap:butt;stroke-linejoin:miter;stroke-opacity:1" d="M 107.615,195.913 107.615,204.923 z" id="boundary" inkscape:connector-curvature="0" />
	<path style="fill:none;stroke:red;stroke-width:1px;stroke-linecap:butt;stroke-linejoin:miter;stroke-opacity:1" d="M 107.615,195.913 112.12,186.903 z" id="boundary" inkscape:connector-curvature="0" />
	<path style="fill:none;stroke:red;stroke-width:1px;stroke-linecap:butt;stroke-linejoin:miter;stroke-opacity:1" d="M 103.11,236.458 103.11,227.448 z" id="boundary" inkscape:connector-curvature="0" />
	<path style="fill:none;stroke:red;stroke-width:1px;stroke-linecap:butt;stroke-linejoin:miter;stroke-opacity:1" d="M 103.11,227.448 107.615,213.933 z" id="boundary" inkscape:connector-curvature="0" />
	<path style="fill:none;stroke:red;stroke-width:1px;stroke-linecap:butt;stroke-linejoin:miter;stroke-opacity:1" d="M 94.0999,267.993 98.6049,254.478 z" id="boundary" inkscape:connector-curvature="0" />
	<path style="fill:none;stroke:red;stroke-width:1px;stroke-linecap:butt;stroke-linejoin:miter;stroke-opacity:1" d="M 98.6049,245.468 98.6049,254.478 z" id="boundary" inkscape:connector-curvature="0" />
	<path style="fill:none;stroke:red;stroke-width:1px;stroke-linecap:butt;stroke-linejoin:miter;stroke-opacity:1" d="M 98.6049,245.468 103.11,236.458 z" id="boundary" inkscape:connector-curvature="0" />
	<path style="fill:none;stroke:red;stroke-width:1px;stroke-linecap:butt;stroke-linejoin:miter;stroke-opacity:1" d="M 107.615,204.923 107.615,213.933 z" id="boundary" inkscape:connector-curvature="0" />
	<path style="fill:none;stroke:red;stroke-width:1px;stroke-linecap:butt;stroke-linejoin:miter;stroke-opacity:1" d="M 121.13,128.338 121.13,137.348 z" id="boundary" inkscape:connector-curvature="0" />
	<path style="fill:none;stroke:red;stroke-width:1px;stroke-linecap:butt;stroke-linejoin:miter;stroke-opacity:1" d="M 121.13,137.348 121.13,146.358 z" id="boundary" inkscape:connector-curvature="0" />
	<path style="fill:none;stroke:red;stroke-width:1px;stroke-linecap:butt;stroke-linejoin:miter;stroke-opacity:1" d="M 121.13,146.358 116.625,159.873 z" id="boundary" inkscape:connector-curvature="0" />
	<path style="fill:none;stroke:red;stroke-width:1px;stroke-linecap:butt;stroke-linejoin:miter;stroke-opacity:1" d="M 116.625,168.883 116.625,159.873 z" id="boundary" inkscape:connector-curvature="0" />
	<path style="fill:none;stroke:red;stroke-width:1px;stroke-linecap:butt;stroke-linejoin:miter;stroke-opacity:1" d="M 112.12,177.893 112.12,186.903 z" id="boundary" inkscape:connector-curvature="0" />
	<path style="fill:none;stroke:red;stroke-width:1px;stroke-linecap:butt;stroke-linejoin:miter;stroke-opacity:1" d="M 112.12,177.893 116.625,168.883 z" id="boundary" inkscape:connector-curvature="0" />
	<path style="fill:none;stroke:red;stroke-width:1px;stroke-linecap:butt;stroke-linejoin:miter;stroke-opacity:1" d="M 31.03,619.382 31.03,628.392 z" id="boundary" inkscape:connector-curvature="0" />
	<path style="fill:none;stroke:red;stroke-width:1px;stroke-linecap:butt;stroke-linejoin:miter;stroke-opacity:1" d="M 31.03,619.382 35.535,610.372 z" id="boundary" inkscape:connector-curvature="0" />
	<path style="fill:none;stroke:red;stroke-width:1px;stroke-linecap:butt;stroke-linejoin:miter;stroke-opacity:1" d="M 31.03,637.402 31.03,628.392 z" id="boundary" inkscape:connector-curvature="0" />
	<path style="fill:none;stroke:red;stroke-width:1px;stroke-linecap:butt;stroke-linejoin:miter;stroke-opacity:1" d="M 38.238,643.709 31.03,637.402 z" id="boundary" inkscape:connector-curvature="0" />
	<path style="fill:none;stroke:red;stroke-width:1px;stroke-linecap:butt;stroke-linejoin:miter;stroke-opacity:1" d="M 26.525,736.512 26.525,745.522 z" id="boundary" inkscape:connector-curvature="0" />
	<path style="fill:none;stroke:red;stroke-width:1px;stroke-linecap:butt;stroke-linejoin:miter;stroke-opacity:1" d="M 26.525,745.522 22.02,754.532 z" id="boundary" inkscape:connector-curvature="0" />
	<path style="fill:none;stroke:red;stroke-width:1px;stroke-linecap:butt;stroke-linejoin:miter;stroke-opacity:1" d="M 26.525,736.512 31.03,722.997 z" id="boundary" inkscape:connector-curvature="0" />
	<path style="fill:none;stroke:red;stroke-width:1px;stroke-linecap:butt;stroke-linejoin:miter;stroke-opacity:1" d="M 31.03,713.987 31.03,722.997 z" id="boundary" inkscape:connector-curvature="0" />
	<path style="fill:none;stroke:red;stroke-width:1px;stroke-linecap:butt;stroke-linejoin:miter;stroke-opacity:1" d="M 31.03,713.987 35.535,704.977 z" id="boundary" inkscape:connector-curvature="0" />
	<path style="fill:none;stroke:red;stroke-width:1px;stroke-linecap:butt;stroke-linejoin:miter;stroke-opacity:1" d="M 45.446,649.115 38.238,643.709 z" id="boundary" inkscape:connector-curvature="0" />
	<path style="fill:none;stroke:red;stroke-width:1px;stroke-linecap:butt;stroke-linejoin:miter;stroke-opacity:1" d="M 40.04,592.352 40.04,601.362 z" id="boundary" inkscape:connector-curvature="0" />
	<path style="fill:none;stroke:red;stroke-width:1px;stroke-linecap:butt;stroke-linejoin:miter;stroke-opacity:1" d="M 40.04,601.362 35.535,610.372 z" id="boundary" inkscape:connector-curvature="0" />
	<path style="fill:none;stroke:red;stroke-width:1px;stroke-linecap:butt;stroke-linejoin:miter;stroke-opacity:1" d="M 35.535,695.967 35.535,704.977 z" id="boundary" inkscape:connector-curvature="0" />
	<path style="fill:none;stroke:red;stroke-width:1px;stroke-linecap:butt;stroke-linejoin:miter;stroke-opacity:1" d="M 35.535,695.967 40.04,686.957 z" id="boundary" inkscape:connector-curvature="0" />
	<path style="fill:none;stroke:red;stroke-width:1px;stroke-linecap:butt;stroke-linejoin:miter;stroke-opacity:1" d="M 40.04,686.957 44.545,677.947 z" id="boundary" inkscape:connector-curvature="0" />
	<path style="fill:none;stroke:red;stroke-width:1px;stroke-linecap:butt;stroke-linejoin:miter;stroke-opacity:1" d="M 40.04,592.352 47.248,585.144 z" id="boundary" inkscape:connector-curvature="0" />
	<path style="fill:none;stroke:red;stroke-width:1px;stroke-linecap:butt;stroke-linejoin:miter;stroke-opacity:1" d="M 8.505,804.087 8.505,813.097 z" id="boundary" inkscape:connector-curvature="0" />
	<path style="fill:none;stroke:red;stroke-width:1px;stroke-linecap:butt;stroke-linejoin:miter;stroke-opacity:1" d="M 8.505,813.097 4,822.107 z" id="boundary" inkscape:connector-curvature="0" />
	<path style="fill:none;stroke:red;stroke-width:1px;stroke-linecap:butt;stroke-linejoin:miter;stroke-opacity:1" d="M 4,831.117 4,822.107 z" id="boundary" inkscape:connector-curvature="0" />
	<path style="fill:none;stroke:red;stroke-width:1px;stroke-linecap:butt;stroke-linejoin:miter;stroke-opacity:1" d="M 4,849.137 11.208,855.444 z" id="boundary" inkscape:connector-curvature="0" />
	<path style="fill:none;stroke:red;stroke-width:1px;stroke-linecap:butt;stroke-linejoin:miter;stroke-opacity:1" d="M 4,849.137 4,840.127 z" id="boundary" inkscape:connector-curvature="0" />
	<path style="fill:none;stroke:red;stroke-width:1px;stroke-linecap:butt;stroke-linejoin:miter;stroke-opacity:1" d="M 4,840.127 4,831.117 z" id="boundary" inkscape:connector-curvature="0" />
	<path style="fill:none;stroke:red;stroke-width:1px;stroke-linecap:butt;stroke-linejoin:miter;stroke-opacity:1" d="M 8.505,804.087 13.01,795.077 z" id="boundary" inkscape:connector-curvature="0" />
	<path style="fill:none;stroke:red;stroke-width:1px;stroke-linecap:butt;stroke-linejoin:miter;stroke-opacity:1" d="M 17.515,772.552 17.515,781.562 z" id="boundary" inkscape:connector-curvature="0" />
	<path style="fill:none;stroke:red;stroke-width:1px;stroke-linecap:butt;stroke-linejoin:miter;stroke-opacity:1" d="M 17.515,781.562 13.01,795.077 z" id="boundary" inkscape:connector-curvature="0" />
	<path style="fill:none;stroke:red;stroke-width:1px;stroke-linecap:butt;stroke-linejoin:miter;stroke-opacity:1" d="M 17.515,772.552 22.02,763.542 z" id="boundary" inkscape:connector-curvature="0" />
	<path style="fill:none;stroke:red;stroke-width:1px;stroke-linecap:butt;stroke-linejoin:miter;stroke-opacity:1" d="M 22.02,754.532 22.02,763.542 z" id="boundary" inkscape:connector-curvature="0" />
	<path style="fill:none;stroke:red;stroke-width:1px;stroke-linecap:butt;stroke-linejoin:miter;stroke-opacity:1" d="M 45.446,860.85 36.436,860.85 z" id="boundary" inkscape:connector-curvature="0" />
	<path style="fill:none;stroke:red;stroke-width:1px;stroke-linecap:butt;stroke-linejoin:miter;stroke-opacity:1" d="M 27.426,860.85 18.416,860.85 z" id="boundary" inkscape:connector-curvature="0" />
	<path style="fill:none;stroke:red;stroke-width:1px;stroke-linecap:butt;stroke-linejoin:miter;stroke-opacity:1" d="M 18.416,860.85 11.208,855.444 z" id="boundary" inkscape:connector-curvature="0" />
	<path style="fill:none;stroke:red;stroke-width:1px;stroke-linecap:butt;stroke-linejoin:miter;stroke-opacity:1" d="M 27.426,860.85 36.436,860.85 z" id="boundary" inkscape:connector-curvature="0" />
	<path style="fill:none;stroke:red;stroke-width:1px;stroke-linecap:butt;stroke-linejoin:miter;stroke-opacity:1" d="M 47.248,585.144 49.05,574.332 z" id="boundary" inkscape:connector-curvature="0" />
	<path style="fill:none;stroke:red;stroke-width:1px;stroke-linecap:butt;stroke-linejoin:miter;stroke-opacity:1" d="M 49.05,574.332 53.555,565.322 z" id="boundary" inkscape:connector-curvature="0" />
	<path style="fill:none;stroke:red;stroke-width:1px;stroke-linecap:butt;stroke-linejoin:miter;stroke-opacity:1" d="M 45.446,649.115 49.05,659.927 z" id="boundary" inkscape:connector-curvature="0" />
	<path style="fill:none;stroke:red;stroke-width:1px;stroke-linecap:butt;stroke-linejoin:miter;stroke-opacity:1" d="M 49.05,668.937 44.545,677.947 z" id="boundary" inkscape:connector-curvature="0" />
	<path style="fill:none;stroke:red;stroke-width:1px;stroke-linecap:butt;stroke-linejoin:miter;stroke-opacity:1" d="M 49.05,659.927 49.05,668.937 z" id="boundary" inkscape:connector-curvature="0" />
	<path style="fill:none;stroke:red;stroke-width:1px;stroke-linecap:butt;stroke-linejoin:miter;stroke-opacity:1" d="M 54.4559,860.85 45.446,860.85 z" id="boundary" inkscape:connector-curvature="0" />
	<path style="fill:none;stroke:red;stroke-width:1px;stroke-linecap:butt;stroke-linejoin:miter;stroke-opacity:1" d="M 54.4559,860.85 63.4659,860.85 z" id="boundary" inkscape:connector-curvature="0" />
	<path style="fill:none;stroke:red;stroke-width:1px;stroke-linecap:butt;stroke-linejoin:miter;stroke-opacity:1" d="M 72.4759,860.85 81.4859,860.85 z" id="boundary" inkscape:connector-curvature="0" />
	<path style="fill:none;stroke:red;stroke-width:1px;stroke-linecap:butt;stroke-linejoin:miter;stroke-opacity:1" d="M 72.4759,860.85 63.4659,860.85 z" id="boundary" inkscape:connector-curvature="0" />
	<path style="fill:none;stroke:red;stroke-width:1px;stroke-linecap:butt;stroke-linejoin:miter;stroke-opacity:1" d="M 90.4959,862.652 98.6049,867.157 z" id="boundary" inkscape:connector-curvature="0" />
	<path style="fill:none;stroke:red;stroke-width:1px;stroke-linecap:butt;stroke-linejoin:miter;stroke-opacity:1" d="M 81.4859,860.85 90.4959,862.652 z" id="boundary" inkscape:connector-curvature="0" />
	<path style="fill:none;stroke:red;stroke-width:1px;stroke-linecap:butt;stroke-linejoin:miter;stroke-opacity:1" d="M 107.615,869.86 116.625,869.86 z" id="boundary" inkscape:connector-curvature="0" />
	<path style="fill:none;stroke:red;stroke-width:1px;stroke-linecap:butt;stroke-linejoin:miter;stroke-opacity:1" d="M 116.625,869.86 116.625,878.87 z" id="boundary" inkscape:connector-curvature="0" />
	<path style="fill:none;stroke:red;stroke-width:1px;stroke-linecap:butt;stroke-linejoin:miter;stroke-opacity:1" d="M 107.615,869.86 98.6049,867.157 z" id="boundary" inkscape:connector-curvature="0" />
	<path style="fill:none;stroke:red;stroke-width:1px;stroke-linecap:butt;stroke-linejoin:miter;stroke-opacity:1" d="M 116.625,878.87 121.13,886.979 z" id="boundary" inkscape:connector-curvature="0" />
	<path style="fill:none;stroke:red;stroke-width:1px;stroke-linecap:butt;stroke-linejoin:miter;stroke-opacity:1" d="M 121.13,886.979 121.13,895.989 z" id="boundary" inkscape:connector-curvature="0" />
	<path style="fill:none;stroke:red;stroke-width:1px;stroke-linecap:butt;stroke-linejoin:miter;stroke-opacity:1" d="M 121.13,895.989 121.13,904.999 z" id="boundary" inkscape:connector-curvature="0" />
	<path style="fill:none;stroke:red;stroke-width:1px;stroke-linecap:butt;stroke-linejoin:miter;stroke-opacity:1" d="M 121.13,914.009 121.13,904.999 z" id="boundary" inkscape:connector-curvature="0" />
	<path style="fill:none;stroke:red;stroke-width:1px;stroke-linecap:butt;stroke-linejoin:miter;stroke-opacity:1" d="M 121.13,914.009 121.13,923.019 z" id="boundary" inkscape:connector-curvature="0" />
	<path style="fill:none;stroke:red;stroke-width:1px;stroke-linecap:butt;stroke-linejoin:miter;stroke-opacity:1" d="M 121.13,932.029 121.13,923.019 z" id="boundary" inkscape:connector-curvature="0" />
	<path style="fill:none;stroke:red;stroke-width:1px;stroke-linecap:butt;stroke-linejoin:miter;stroke-opacity:1" d="M 121.13,932.029 121.13,941.039 z" id="boundary" inkscape:connector-curvature="0" />
	<path style="fill:none;stroke:red;stroke-width:1px;stroke-linecap:butt;stroke-linejoin:miter;stroke-opacity:1" d="M 121.13,950.049 121.13,941.039 z" id="boundary" inkscape:connector-curvature="0" />
	<path style="fill:none;stroke:red;stroke-width:1px;stroke-linecap:butt;stroke-linejoin:miter;stroke-opacity:1" d="M 121.13,950.049 121.13,959.059 z" id="boundary" inkscape:connector-curvature="0" />
	<path style="fill:none;stroke:red;stroke-width:1px;stroke-linecap:butt;stroke-linejoin:miter;stroke-opacity:1" d="M 121.13,968.069 121.13,959.059 z" id="boundary" inkscape:connector-curvature="0" />
	<path style="fill:none;stroke:red;stroke-width:1px;stroke-linecap:butt;stroke-linejoin:miter;stroke-opacity:1" d="M 121.13,968.069 121.13,977.079 z" id="boundary" inkscape:connector-curvature="0" />
	<path style="fill:none;stroke:red;stroke-width:1px;stroke-linecap:butt;stroke-linejoin:miter;stroke-opacity:1" d="M 122.932,986.089 121.13,977.079 z" id="boundary" inkscape:connector-curvature="0" />
	<path style="fill:none;stroke:red;stroke-width:1px;stroke-linecap:butt;stroke-linejoin:miter;stroke-opacity:1" d="M 130.14,991.495 122.932,986.089 z" id="boundary" inkscape:connector-curvature="0" />
	<path style="fill:none;stroke:red;stroke-width:1px;stroke-linecap:butt;stroke-linejoin:miter;stroke-opacity:1" d="M 155.368,990.594 147.259,996 z" id="boundary" inkscape:connector-curvature="0" />
	<path style="fill:none;stroke:red;stroke-width:1px;stroke-linecap:butt;stroke-linejoin:miter;stroke-opacity:1" d="M 147.259,996 138.249,996 z" id="boundary" inkscape:connector-curvature="0" />
	<path style="fill:none;stroke:red;stroke-width:1px;stroke-linecap:butt;stroke-linejoin:miter;stroke-opacity:1" d="M 138.249,996 130.14,991.495 z" id="boundary" inkscape:connector-curvature="0" />
	<path style="fill:none;stroke:red;stroke-width:1px;stroke-linecap:butt;stroke-linejoin:miter;stroke-opacity:1" d="M 153.566,18.416 153.566,27.426 z" id="boundary" inkscape:connector-curvature="0" />
	<path style="fill:none;stroke:red;stroke-width:1px;stroke-linecap:butt;stroke-linejoin:miter;stroke-opacity:1" d="M 153.566,27.426 153.566,36.436 z" id="boundary" inkscape:connector-curvature="0" />
	<path style="fill:none;stroke:red;stroke-width:1px;stroke-linecap:butt;stroke-linejoin:miter;stroke-opacity:1" d="M 153.566,45.446 153.566,36.436 z" id="boundary" inkscape:connector-curvature="0" />
	<path style="fill:none;stroke:red;stroke-width:1px;stroke-linecap:butt;stroke-linejoin:miter;stroke-opacity:1" d="M 155.368,54.4559 153.566,45.446 z" id="boundary" inkscape:connector-curvature="0" />
	<path style="fill:none;stroke:red;stroke-width:1px;stroke-linecap:butt;stroke-linejoin:miter;stroke-opacity:1" d="M 158.071,63.4659 158.071,72.4759 z" id="boundary" inkscape:connector-curvature="0" />
	<path style="fill:none;stroke:red;stroke-width:1px;stroke-linecap:butt;stroke-linejoin:miter;stroke-opacity:1" d="M 158.071,63.4659 155.368,54.4559 z" id="boundary" inkscape:connector-curvature="0" />
	<path style="fill:none;stroke:red;stroke-width:1px;stroke-linecap:butt;stroke-linejoin:miter;stroke-opacity:1" d="M 158.071,72.4759 158.071,81.4859 z" id="boundary" inkscape:connector-curvature="0" />
	<path style="fill:none;stroke:red;stroke-width:1px;stroke-linecap:butt;stroke-linejoin:miter;stroke-opacity:1" d="M 158.071,81.4859 158.071,90.4959 z" id="boundary" inkscape:connector-curvature="0" />
	<path style="fill:none;stroke:red;stroke-width:1px;stroke-linecap:butt;stroke-linejoin:miter;stroke-opacity:1" d="M 158.071,90.4959 158.071,99.5059 z" id="boundary" inkscape:connector-curvature="0" />
	<path style="fill:none;stroke:red;stroke-width:1px;stroke-linecap:butt;stroke-linejoin:miter;stroke-opacity:1" d="M 162.576,107.615 158.071,99.5059 z" id="boundary" inkscape:connector-curvature="0" />
	<path style="fill:none;stroke:red;stroke-width:1px;stroke-linecap:butt;stroke-linejoin:miter;stroke-opacity:1" d="M 162.576,107.615 162.576,116.625 z" id="boundary" inkscape:connector-curvature="0" />
	<path style="fill:none;stroke:red;stroke-width:1px;stroke-linecap:butt;stroke-linejoin:miter;stroke-opacity:1" d="M 167.081,124.734 162.576,116.625 z" id="boundary" inkscape:connector-curvature="0" />
	<path style="fill:none;stroke:red;stroke-width:1px;stroke-linecap:butt;stroke-linejoin:miter;stroke-opacity:1" d="M 167.081,124.734 167.081,133.744 z" id="boundary" inkscape:connector-curvature="0" />
	<path style="fill:none;stroke:red;stroke-width:1px;stroke-linecap:butt;stroke-linejoin:miter;stroke-opacity:1" d="M 167.081,142.754 171.586,150.863 z" id="boundary" inkscape:connector-curvature="0" />
	<path style="fill:none;stroke:red;stroke-width:1px;stroke-linecap:butt;stroke-linejoin:miter;stroke-opacity:1" d="M 171.586,150.863 171.586,159.873 z" id="boundary" inkscape:connector-curvature="0" />
	<path style="fill:none;stroke:red;stroke-width:1px;stroke-linecap:butt;stroke-linejoin:miter;stroke-opacity:1" d="M 167.081,142.754 167.081,133.744 z" id="boundary" inkscape:connector-curvature="0" />
	<path style="fill:none;stroke:red;stroke-width:1px;stroke-linecap:butt;stroke-linejoin:miter;stroke-opacity:1" d="M 176.091,176.992 171.586,168.883 z" id="boundary" inkscape:connector-curvature="0" />
	<path style="fill:none;stroke:red;stroke-width:1px;stroke-linecap:butt;stroke-linejoin:miter;stroke-opacity:1" d="M 171.586,168.883 171.586,159.873 z" id="boundary" inkscape:connector-curvature="0" />
	<path style="fill:none;stroke:red;stroke-width:1px;stroke-linecap:butt;stroke-linejoin:miter;stroke-opacity:1" d="M 176.091,176.992 176.091,186.002 z" id="boundary" inkscape:connector-curvature="0" />
	<path style="fill:none;stroke:red;stroke-width:1px;stroke-linecap:butt;stroke-linejoin:miter;stroke-opacity:1" d="M 178.794,195.012 180.596,204.022 z" id="boundary" inkscape:connector-curvature="0" />
	<path style="fill:none;stroke:red;stroke-width:1px;stroke-linecap:butt;stroke-linejoin:miter;stroke-opacity:1" d="M 178.794,195.012 176.091,186.002 z" id="boundary" inkscape:connector-curvature="0" />
	<path style="fill:none;stroke:red;stroke-width:1px;stroke-linecap:butt;stroke-linejoin:miter;stroke-opacity:1" d="M 180.596,204.022 180.596,213.032 z" id="boundary" inkscape:connector-curvature="0" />
	<path style="fill:none;stroke:red;stroke-width:1px;stroke-linecap:butt;stroke-linejoin:miter;stroke-opacity:1" d="M 180.596,213.032 180.596,222.042 z" id="boundary" inkscape:connector-curvature="0" />
	<path style="fill:none;stroke:red;stroke-width:1px;stroke-linecap:butt;stroke-linejoin:miter;stroke-opacity:1" d="M 183.299,231.052 185.101,240.062 z" id="boundary" inkscape:connector-curvature="0" />
	<path style="fill:none;stroke:red;stroke-width:1px;stroke-linecap:butt;stroke-linejoin:miter;stroke-opacity:1" d="M 183.299,231.052 180.596,222.042 z" id="boundary" inkscape:connector-curvature="0" />
	<path style="fill:none;stroke:red;stroke-width:1px;stroke-linecap:butt;stroke-linejoin:miter;stroke-opacity:1" d="M 185.101,240.062 185.101,249.072 z" id="boundary" inkscape:connector-curvature="0" />
	<path style="fill:none;stroke:red;stroke-width:1px;stroke-linecap:butt;stroke-linejoin:miter;stroke-opacity:1" d="M 185.101,249.072 185.101,258.082 z" id="boundary" inkscape:connector-curvature="0" />
	<path style="fill:none;stroke:red;stroke-width:1px;stroke-linecap:butt;stroke-linejoin:miter;stroke-opacity:1" d="M 180.596,401.341 180.596,410.351 z" id="boundary" inkscape:connector-curvature="0" />
	<path style="fill:none;stroke:red;stroke-width:1px;stroke-linecap:butt;stroke-linejoin:miter;stroke-opacity:1" d="M 180.596,401.341 189.606,401.341 z" id="boundary" inkscape:connector-curvature="0" />
	<path style="fill:none;stroke:red;stroke-width:1px;stroke-linecap:butt;stroke-linejoin:miter;stroke-opacity:1" d="M 185.101,267.092 185.101,258.082 z" id="boundary" inkscape:connector-curvature="0" />
	<path style="fill:none;stroke:red;stroke-width:1px;stroke-linecap:butt;stroke-linejoin:miter;stroke-opacity:1" d="M 185.101,267.092 185.101,276.102 z" id="boundary" inkscape:connector-curvature="0" />
	<path style="fill:none;stroke:red;stroke-width:1px;stroke-linecap:butt;stroke-linejoin:miter;stroke-opacity:1" d="M 185.101,276.102 189.606,284.211 z" id="boundary" inkscape:connector-curvature="0" />
	<path style="fill:none;stroke:red;stroke-width:1px;stroke-linecap:butt;stroke-linejoin:miter;stroke-opacity:1" d="M 189.606,284.211 191.408,293.221 z" id="boundary" inkscape:connector-curvature="0" />
	<path style="fill:none;stroke:red;stroke-width:1px;stroke-linecap:butt;stroke-linejoin:miter;stroke-opacity:1" d="M 198.616,310.34 198.616,319.35 z" id="boundary" inkscape:connector-curvature="0" />
	<path style="fill:none;stroke:red;stroke-width:1px;stroke-linecap:butt;stroke-linejoin:miter;stroke-opacity:1" d="M 194.111,302.231 198.616,310.34 z" id="boundary" inkscape:connector-curvature="0" />
	<path style="fill:none;stroke:red;stroke-width:1px;stroke-linecap:butt;stroke-linejoin:miter;stroke-opacity:1" d="M 196.814,395.034 189.606,401.341 z" id="boundary" inkscape:connector-curvature="0" />
	<path style="fill:none;stroke:red;stroke-width:1px;stroke-linecap:butt;stroke-linejoin:miter;stroke-opacity:1" d="M 194.111,302.231 191.408,293.221 z" id="boundary" inkscape:connector-curvature="0" />
	<path style="fill:none;stroke:red;stroke-width:1px;stroke-linecap:butt;stroke-linejoin:miter;stroke-opacity:1" d="M 185.101,418.46 180.596,410.351 z" id="boundary" inkscape:connector-curvature="0" />
	<path style="fill:none;stroke:red;stroke-width:1px;stroke-linecap:butt;stroke-linejoin:miter;stroke-opacity:1" d="M 198.616,319.35 198.616,328.36 z" id="boundary" inkscape:connector-curvature="0" />
	<path style="fill:none;stroke:red;stroke-width:1px;stroke-linecap:butt;stroke-linejoin:miter;stroke-opacity:1" d="M 198.616,337.37 203.121,345.479 z" id="boundary" inkscape:connector-curvature="0" />
	<path style="fill:none;stroke:red;stroke-width:1px;stroke-linecap:butt;stroke-linejoin:miter;stroke-opacity:1" d="M 203.121,345.479 203.121,354.489 z" id="boundary" inkscape:connector-curvature="0" />
	<path style="fill:none;stroke:red;stroke-width:1px;stroke-linecap:butt;stroke-linejoin:miter;stroke-opacity:1" d="M 198.616,337.37 198.616,328.36 z" id="boundary" inkscape:connector-curvature="0" />
	<path style="fill:none;stroke:red;stroke-width:1px;stroke-linecap:butt;stroke-linejoin:miter;stroke-opacity:1" d="M 203.121,354.489 203.121,363.499 z" id="boundary" inkscape:connector-curvature="0" />
	<path style="fill:none;stroke:red;stroke-width:1px;stroke-linecap:butt;stroke-linejoin:miter;stroke-opacity:1" d="M 203.121,372.509 203.121,363.499 z" id="boundary" inkscape:connector-curvature="0" />
	<path style="fill:none;stroke:red;stroke-width:1px;stroke-linecap:butt;stroke-linejoin:miter;stroke-opacity:1" d="M 203.121,381.519 196.814,395.034 z" id="boundary" inkscape:connector-curvature="0" />
	<path style="fill:none;stroke:red;stroke-width:1px;stroke-linecap:butt;stroke-linejoin:miter;stroke-opacity:1" d="M 203.121,381.519 203.121,372.509 z" id="boundary" inkscape:connector-curvature="0" />
	<path style="fill:none;stroke:red;stroke-width:1px;stroke-linecap:butt;stroke-linejoin:miter;stroke-opacity:1" d="M 189.606,435.579 185.101,427.47 z" id="boundary" inkscape:connector-curvature="0" />
	<path style="fill:none;stroke:red;stroke-width:1px;stroke-linecap:butt;stroke-linejoin:miter;stroke-opacity:1" d="M 185.101,427.47 185.101,418.46 z" id="boundary" inkscape:connector-curvature="0" />
	<path style="fill:none;stroke:red;stroke-width:1px;stroke-linecap:butt;stroke-linejoin:miter;stroke-opacity:1" d="M 189.606,435.579 189.606,444.589 z" id="boundary" inkscape:connector-curvature="0" />
	<path style="fill:none;stroke:red;stroke-width:1px;stroke-linecap:butt;stroke-linejoin:miter;stroke-opacity:1" d="M 189.606,444.589 194.111,452.698 z" id="boundary" inkscape:connector-curvature="0" />
	<path style="fill:none;stroke:red;stroke-width:1px;stroke-linecap:butt;stroke-linejoin:miter;stroke-opacity:1" d="M 194.111,452.698 194.111,461.708 z" id="boundary" inkscape:connector-curvature="0" />
	<path style="fill:none;stroke:red;stroke-width:1px;stroke-linecap:butt;stroke-linejoin:miter;stroke-opacity:1" d="M 194.111,461.708 194.111,470.718 z" id="boundary" inkscape:connector-curvature="0" />
	<path style="fill:none;stroke:red;stroke-width:1px;stroke-linecap:butt;stroke-linejoin:miter;stroke-opacity:1" d="M 194.111,470.718 194.111,479.728 z" id="boundary" inkscape:connector-curvature="0" />
	<path style="fill:none;stroke:red;stroke-width:1px;stroke-linecap:butt;stroke-linejoin:miter;stroke-opacity:1" d="M 194.111,479.728 198.616,487.837 z" id="boundary" inkscape:connector-curvature="0" />
	<path style="fill:none;stroke:red;stroke-width:1px;stroke-linecap:butt;stroke-linejoin:miter;stroke-opacity:1" d="M 198.616,487.837 198.616,496.847 z" id="boundary" inkscape:connector-curvature="0" />
	<path style="fill:none;stroke:red;stroke-width:1px;stroke-linecap:butt;stroke-linejoin:miter;stroke-opacity:1" d="M 198.616,496.847 203.121,504.955 z" id="boundary" inkscape:connector-curvature="0" />
	<path style="fill:none;stroke:red;stroke-width:1px;stroke-linecap:butt;stroke-linejoin:miter;stroke-opacity:1" d="M 203.121,504.955 203.121,513.965 z" id="boundary" inkscape:connector-curvature="0" />
	<path style="fill:none;stroke:red;stroke-width:1px;stroke-linecap:butt;stroke-linejoin:miter;stroke-opacity:1" d="M 203.121,513.965 204.923,522.975 z" id="boundary" inkscape:connector-curvature="0" />
	<path style="fill:none;stroke:red;stroke-width:1px;stroke-linecap:butt;stroke-linejoin:miter;stroke-opacity:1" d="M 207.626,531.985 209.428,540.995 z" id="boundary" inkscape:connector-curvature="0" />
	<path style="fill:none;stroke:red;stroke-width:1px;stroke-linecap:butt;stroke-linejoin:miter;stroke-opacity:1" d="M 207.626,531.985 204.923,522.975 z" id="boundary" inkscape:connector-curvature="0" />
	<path style="fill:none;stroke:red;stroke-width:1px;stroke-linecap:butt;stroke-linejoin:miter;stroke-opacity:1" d="M 209.428,540.995 212.131,550.005 z" id="boundary" inkscape:connector-curvature="0" />
	<path style="fill:none;stroke:red;stroke-width:1px;stroke-linecap:butt;stroke-linejoin:miter;stroke-opacity:1" d="M 213.933,559.015 216.636,568.025 z" id="boundary" inkscape:connector-curvature="0" />
	<path style="fill:none;stroke:red;stroke-width:1px;stroke-linecap:butt;stroke-linejoin:miter;stroke-opacity:1" d="M 180.596,874.365 171.586,874.365 z" id="boundary" inkscape:connector-curvature="0" />
	<path style="fill:none;stroke:red;stroke-width:1px;stroke-linecap:butt;stroke-linejoin:miter;stroke-opacity:1" d="M 213.933,559.015 212.131,550.005 z" id="boundary" inkscape:connector-curvature="0" />
	<path style="fill:none;stroke:red;stroke-width:1px;stroke-linecap:butt;stroke-linejoin:miter;stroke-opacity:1" d="M 215.735,869.86 206.725,869.86 z" id="boundary" inkscape:connector-curvature="0" />
	<path style="fill:none;stroke:red;stroke-width:1px;stroke-linecap:butt;stroke-linejoin:miter;stroke-opacity:1" d="M 223.844,865.355 215.735,869.86 z" id="boundary" inkscape:connector-curvature="0" />
	<path style="fill:none;stroke:red;stroke-width:1px;stroke-linecap:butt;stroke-linejoin:miter;stroke-opacity:1" d="M 162.576,874.365 171.586,874.365 z" id="boundary" inkscape:connector-curvature="0" />
	<path style="fill:none;stroke:red;stroke-width:1px;stroke-linecap:butt;stroke-linejoin:miter;stroke-opacity:1" d="M 162.576,883.375 162.576,874.365 z" id="boundary" inkscape:connector-curvature="0" />
	<path style="fill:none;stroke:red;stroke-width:1px;stroke-linecap:butt;stroke-linejoin:miter;stroke-opacity:1" d="M 198.616,874.365 206.725,869.86 z" id="boundary" inkscape:connector-curvature="0" />
	<path style="fill:none;stroke:red;stroke-width:1px;stroke-linecap:butt;stroke-linejoin:miter;stroke-opacity:1" d="M 189.606,874.365 180.596,874.365 z" id="boundary" inkscape:connector-curvature="0" />
	<path style="fill:none;stroke:red;stroke-width:1px;stroke-linecap:butt;stroke-linejoin:miter;stroke-opacity:1" d="M 221.141,685.155 221.141,694.165 z" id="boundary" inkscape:connector-curvature="0" />
	<path style="fill:none;stroke:red;stroke-width:1px;stroke-linecap:butt;stroke-linejoin:miter;stroke-opacity:1" d="M 216.636,568.025 221.141,576.134 z" id="boundary" inkscape:connector-curvature="0" />
	<path style="fill:none;stroke:red;stroke-width:1px;stroke-linecap:butt;stroke-linejoin:miter;stroke-opacity:1" d="M 221.141,576.134 221.141,585.144 z" id="boundary" inkscape:connector-curvature="0" />
	<path style="fill:none;stroke:red;stroke-width:1px;stroke-linecap:butt;stroke-linejoin:miter;stroke-opacity:1" d="M 221.141,585.144 221.141,594.154 z" id="boundary" inkscape:connector-curvature="0" />
	<path style="fill:none;stroke:red;stroke-width:1px;stroke-linecap:butt;stroke-linejoin:miter;stroke-opacity:1" d="M 225.646,602.263 221.141,594.154 z" id="boundary" inkscape:connector-curvature="0" />
	<path style="fill:none;stroke:red;stroke-width:1px;stroke-linecap:butt;stroke-linejoin:miter;stroke-opacity:1" d="M 221.141,685.155 230.151,685.155 z" id="boundary" inkscape:connector-curvature="0" />
	<path style="fill:none;stroke:red;stroke-width:1px;stroke-linecap:butt;stroke-linejoin:miter;stroke-opacity:1" d="M 225.646,602.263 225.646,611.273 z" id="boundary" inkscape:connector-curvature="0" />
	<path style="fill:none;stroke:red;stroke-width:1px;stroke-linecap:butt;stroke-linejoin:miter;stroke-opacity:1" d="M 162.576,892.385 162.576,901.395 z" id="boundary" inkscape:connector-curvature="0" />
	<path style="fill:none;stroke:red;stroke-width:1px;stroke-linecap:butt;stroke-linejoin:miter;stroke-opacity:1" d="M 162.576,892.385 162.576,883.375 z" id="boundary" inkscape:connector-curvature="0" />
	<path style="fill:none;stroke:red;stroke-width:1px;stroke-linecap:butt;stroke-linejoin:miter;stroke-opacity:1" d="M 162.576,901.395 162.576,910.405 z" id="boundary" inkscape:connector-curvature="0" />
	<path style="fill:none;stroke:red;stroke-width:1px;stroke-linecap:butt;stroke-linejoin:miter;stroke-opacity:1" d="M 162.576,919.415 162.576,928.425 z" id="boundary" inkscape:connector-curvature="0" />
	<path style="fill:none;stroke:red;stroke-width:1px;stroke-linecap:butt;stroke-linejoin:miter;stroke-opacity:1" d="M 162.576,910.405 162.576,919.415 z" id="boundary" inkscape:connector-curvature="0" />
	<path style="fill:none;stroke:red;stroke-width:1px;stroke-linecap:butt;stroke-linejoin:miter;stroke-opacity:1" d="M 162.576,928.425 162.576,937.435 z" id="boundary" inkscape:connector-curvature="0" />
	<path style="fill:none;stroke:red;stroke-width:1px;stroke-linecap:butt;stroke-linejoin:miter;stroke-opacity:1" d="M 162.576,937.435 162.576,946.445 z" id="boundary" inkscape:connector-curvature="0" />
	<path style="fill:none;stroke:red;stroke-width:1px;stroke-linecap:butt;stroke-linejoin:miter;stroke-opacity:1" d="M 162.576,946.445 162.576,955.455 z" id="boundary" inkscape:connector-curvature="0" />
	<path style="fill:none;stroke:red;stroke-width:1px;stroke-linecap:butt;stroke-linejoin:miter;stroke-opacity:1" d="M 198.616,874.365 189.606,874.365 z" id="boundary" inkscape:connector-curvature="0" />
	<path style="fill:none;stroke:red;stroke-width:1px;stroke-linecap:butt;stroke-linejoin:miter;stroke-opacity:1" d="M 162.576,964.465 162.576,973.475 z" id="boundary" inkscape:connector-curvature="0" />
	<path style="fill:none;stroke:red;stroke-width:1px;stroke-linecap:butt;stroke-linejoin:miter;stroke-opacity:1" d="M 162.576,973.475 162.576,982.485 z" id="boundary" inkscape:connector-curvature="0" />
	<path style="fill:none;stroke:red;stroke-width:1px;stroke-linecap:butt;stroke-linejoin:miter;stroke-opacity:1" d="M 162.576,982.485 155.368,990.594 z" id="boundary" inkscape:connector-curvature="0" />
	<path style="fill:none;stroke:red;stroke-width:1px;stroke-linecap:butt;stroke-linejoin:miter;stroke-opacity:1" d="M 162.576,964.465 162.576,955.455 z" id="boundary" inkscape:connector-curvature="0" />
	<path style="fill:none;stroke:red;stroke-width:1px;stroke-linecap:butt;stroke-linejoin:miter;stroke-opacity:1" d="M 223.844,865.355 232.854,865.355 z" id="boundary" inkscape:connector-curvature="0" />
	<path style="fill:none;stroke:red;stroke-width:1px;stroke-linecap:butt;stroke-linejoin:miter;stroke-opacity:1" d="M 230.151,619.382 233.755,628.392 z" id="boundary" inkscape:connector-curvature="0" />
	<path style="fill:none;stroke:red;stroke-width:1px;stroke-linecap:butt;stroke-linejoin:miter;stroke-opacity:1" d="M 230.151,619.382 225.646,611.273 z" id="boundary" inkscape:connector-curvature="0" />
	<path style="fill:none;stroke:red;stroke-width:1px;stroke-linecap:butt;stroke-linejoin:miter;stroke-opacity:1" d="M 238.26,636.501 233.755,628.392 z" id="boundary" inkscape:connector-curvature="0" />
	<path style="fill:none;stroke:red;stroke-width:1px;stroke-linecap:butt;stroke-linejoin:miter;stroke-opacity:1" d="M 230.151,710.383 225.646,702.274 z" id="boundary" inkscape:connector-curvature="0" />
	<path style="fill:none;stroke:red;stroke-width:1px;stroke-linecap:butt;stroke-linejoin:miter;stroke-opacity:1" d="M 225.646,702.274 221.141,694.165 z" id="boundary" inkscape:connector-curvature="0" />
	<path style="fill:none;stroke:red;stroke-width:1px;stroke-linecap:butt;stroke-linejoin:miter;stroke-opacity:1" d="M 230.151,710.383 230.151,719.393 z" id="boundary" inkscape:connector-curvature="0" />
	<path style="fill:none;stroke:red;stroke-width:1px;stroke-linecap:butt;stroke-linejoin:miter;stroke-opacity:1" d="M 234.656,727.502 230.151,719.393 z" id="boundary" inkscape:connector-curvature="0" />
	<path style="fill:none;stroke:red;stroke-width:1px;stroke-linecap:butt;stroke-linejoin:miter;stroke-opacity:1" d="M 230.151,685.155 237.359,678.848 z" id="boundary" inkscape:connector-curvature="0" />
	<path style="fill:none;stroke:red;stroke-width:1px;stroke-linecap:butt;stroke-linejoin:miter;stroke-opacity:1" d="M 239.161,645.511 241.864,654.521 z" id="boundary" inkscape:connector-curvature="0" />
	<path style="fill:none;stroke:red;stroke-width:1px;stroke-linecap:butt;stroke-linejoin:miter;stroke-opacity:1" d="M 241.864,654.521 243.666,663.531 z" id="boundary" inkscape:connector-curvature="0" />
	<path style="fill:none;stroke:red;stroke-width:1px;stroke-linecap:butt;stroke-linejoin:miter;stroke-opacity:1" d="M 239.161,645.511 238.26,636.501 z" id="boundary" inkscape:connector-curvature="0" />
	<path style="fill:none;stroke:red;stroke-width:1px;stroke-linecap:butt;stroke-linejoin:miter;stroke-opacity:1" d="M 243.666,663.531 237.359,678.848 z" id="boundary" inkscape:connector-curvature="0" />
	<path style="fill:none;stroke:red;stroke-width:1px;stroke-linecap:butt;stroke-linejoin:miter;stroke-opacity:1" d="M 238.26,736.512 234.656,727.502 z" id="boundary" inkscape:connector-curvature="0" />
	<path style="fill:none;stroke:red;stroke-width:1px;stroke-linecap:butt;stroke-linejoin:miter;stroke-opacity:1" d="M 238.26,736.512 239.161,745.522 z" id="boundary" inkscape:connector-curvature="0" />
	<path style="fill:none;stroke:red;stroke-width:1px;stroke-linecap:butt;stroke-linejoin:miter;stroke-opacity:1" d="M 239.161,745.522 239.161,754.532 z" id="boundary" inkscape:connector-curvature="0" />
	<path style="fill:none;stroke:red;stroke-width:1px;stroke-linecap:butt;stroke-linejoin:miter;stroke-opacity:1" d="M 239.161,754.532 243.666,762.641 z" id="boundary" inkscape:connector-curvature="0" />
	<path style="fill:none;stroke:red;stroke-width:1px;stroke-linecap:butt;stroke-linejoin:miter;stroke-opacity:1" d="M 243.666,762.641 243.666,771.651 z" id="boundary" inkscape:connector-curvature="0" />
	<path style="fill:none;stroke:red;stroke-width:1px;stroke-linecap:butt;stroke-linejoin:miter;stroke-opacity:1" d="M 243.666,771.651 248.171,779.76 z" id="boundary" inkscape:connector-curvature="0" />
	<path style="fill:none;stroke:red;stroke-width:1px;stroke-linecap:butt;stroke-linejoin:miter;stroke-opacity:1" d="M 248.171,779.76 248.171,788.77 z" id="boundary" inkscape:connector-curvature="0" />
	<path style="fill:none;stroke:red;stroke-width:1px;stroke-linecap:butt;stroke-linejoin:miter;stroke-opacity:1" d="M 232.854,865.355 240.963,860.85 z" id="boundary" inkscape:connector-curvature="0" />
	<path style="fill:none;stroke:red;stroke-width:1px;stroke-linecap:butt;stroke-linejoin:miter;stroke-opacity:1" d="M 249.072,856.345 240.963,860.85 z" id="boundary" inkscape:connector-curvature="0" />
	<path style="fill:none;stroke:red;stroke-width:1px;stroke-linecap:butt;stroke-linejoin:miter;stroke-opacity:1" d="M 252.676,796.879 248.171,788.77 z" id="boundary" inkscape:connector-curvature="0" />
	<path style="fill:none;stroke:red;stroke-width:1px;stroke-linecap:butt;stroke-linejoin:miter;stroke-opacity:1" d="M 252.676,796.879 252.676,805.889 z" id="boundary" inkscape:connector-curvature="0" />
	<path style="fill:none;stroke:red;stroke-width:1px;stroke-linecap:butt;stroke-linejoin:miter;stroke-opacity:1" d="M 252.676,814.899 259.884,820.305 z" id="boundary" inkscape:connector-curvature="0" />
	<path style="fill:none;stroke:red;stroke-width:1px;stroke-linecap:butt;stroke-linejoin:miter;stroke-opacity:1" d="M 252.676,814.899 252.676,805.889 z" id="boundary" inkscape:connector-curvature="0" />
	<path style="fill:none;stroke:red;stroke-width:1px;stroke-linecap:butt;stroke-linejoin:miter;stroke-opacity:1" d="M 266.191,827.513 259.884,820.305 z" id="boundary" inkscape:connector-curvature="0" />
	<path style="fill:none;stroke:red;stroke-width:1px;stroke-linecap:butt;stroke-linejoin:miter;stroke-opacity:1" d="M 257.181,851.84 264.389,845.533 z" id="boundary" inkscape:connector-curvature="0" />
	<path style="fill:none;stroke:red;stroke-width:1px;stroke-linecap:butt;stroke-linejoin:miter;stroke-opacity:1" d="M 266.191,836.523 264.389,845.533 z" id="boundary" inkscape:connector-curvature="0" />
	<path style="fill:none;stroke:red;stroke-width:1px;stroke-linecap:butt;stroke-linejoin:miter;stroke-opacity:1" d="M 266.191,827.513 266.191,836.523 z" id="boundary" inkscape:connector-curvature="0" />
	<path style="fill:none;stroke:red;stroke-width:1px;stroke-linecap:butt;stroke-linejoin:miter;stroke-opacity:1" d="M 257.181,851.84 249.072,856.345 z" id="boundary" inkscape:connector-curvature="0" />
	<circle cx="4" cy="822.107" r="4" fill="#0" id="circle0"/>
	<circle cx="4" cy="831.117" r="4" fill="#0" id="circle1"/>
	<circle cx="4" cy="840.127" r="4" fill="#0" id="circle2"/>
	<circle cx="4" cy="849.137" r="4" fill="#0" id="circle3"/>
	<circle cx="8.505" cy="804.087" r="4" fill="#0" id="circle4"/>
	<circle cx="8.505" cy="813.097" r="4" fill="#0" id="circle5"/>
	<circle cx="11.208" cy="855.444" r="4" fill="#0" id="circle6"/>
	<circle cx="13.01" cy="795.077" r="4" fill="#0" id="circle7"/>
	<circle cx="17.515" cy="772.552" r="4" fill="#0" id="circle8"/>
	<circle cx="17.515" cy="781.562" r="4" fill="#0" id="circle9"/>
	<circle cx="18.416" cy="860.85" r="4" fill="#0" id="circle10"/>
	<circle cx="22.02" cy="754.532" r="4" fill="#0" id="circle11"/>
	<circle cx="22.02" cy="763.542" r="4" fill="#0" id="circle12"/>
	<circle cx="26.525" cy="736.512" r="4" fill="#0" id="circle13"/>
	<circle cx="26.525" cy="745.522" r="4" fill="#0" id="circle14"/>
	<circle cx="27.426" cy="860.85" r="4" fill="#0" id="circle15"/>
	<circle cx="31.03" cy="619.382" r="4" fill="#0" id="circle16"/>
	<circle cx="31.03" cy="628.392" r="4" fill="#0" id="circle17"/>
	<circle cx="31.03" cy="637.402" r="4" fill="#0" id="circle18"/>
	<circle cx="31.03" cy="713.987" r="4" fill="#0" id="circle19"/>
	<circle cx="31.03" cy="722.997" r="4" fill="#0" id="circle20"/>
	<circle cx="35.535" cy="610.372" r="4" fill="#0" id="circle21"/>
	<circle cx="35.535" cy="695.967" r="4" fill="#0" id="circle22"/>
	<circle cx="35.535" cy="704.977" r="4" fill="#0" id="circle23"/>
	<circle cx="36.436" cy="860.85" r="4" fill="#0" id="circle24"/>
	<circle cx="38.238" cy="643.709" r="4" fill="#0" id="circle25"/>
	<circle cx="40.04" cy="592.352" r="4" fill="#0" id="circle26"/>
	<circle cx="40.04" cy="601.362" r="4" fill="#0" id="circle27"/>
	<circle cx="40.04" cy="686.957" r="4" fill="#0" id="circle28"/>
	<circle cx="44.545" cy="677.947" r="4" fill="#0" id="circle29"/>
	<circle cx="45.446" cy="649.115" r="4" fill="#0" id="circle30"/>
	<circle cx="45.446" cy="860.85" r="4" fill="#0" id="circle31"/>
	<circle cx="47.248" cy="585.144" r="4" fill="#0" id="circle32"/>
	<circle cx="49.05" cy="574.332" r="4" fill="#0" id="circle33"/>
	<circle cx="49.05" cy="659.927" r="4" fill="#0" id="circle34"/>
	<circle cx="49.05" cy="668.937" r="4" fill="#0" id="circle35"/>
	<circle cx="53.555" cy="556.312" r="4" fill="#0" id="circle36"/>
	<circle cx="53.555" cy="565.322" r="4" fill="#0" id="circle37"/>
	<circle cx="54.4559" cy="860.85" r="4" fill="#0" id="circle38"/>
	<circle cx="58.0599" cy="533.787" r="4" fill="#0" id="circle39"/>
	<circle cx="58.0599" cy="542.797" r="4" fill="#0" id="circle40"/>
	<circle cx="62.5649" cy="515.767" r="4" fill="#0" id="circle41"/>
	<circle cx="62.5649" cy="524.777" r="4" fill="#0" id="circle42"/>
	<circle cx="63.4659" cy="860.85" r="4" fill="#0" id="circle43"/>
	<circle cx="67.0699" cy="497.748" r="4" fill="#0" id="circle44"/>
	<circle cx="67.0699" cy="506.757" r="4" fill="#0" id="circle45"/>
	<circle cx="71.5749" cy="484.233" r="4" fill="#0" id="circle46"/>
	<circle cx="72.4759" cy="860.85" r="4" fill="#0" id="circle47"/>
	<circle cx="76.0799" cy="335.568" r="4" fill="#0" id="circle48"/>
	<circle cx="76.0799" cy="344.578" r="4" fill="#0" id="circle49"/>
	<circle cx="76.0799" cy="353.588" r="4" fill="#0" id="circle50"/>
	<circle cx="76.0799" cy="362.598" r="4" fill="#0" id="circle51"/>
	<circle cx="76.0799" cy="371.608" r="4" fill="#0" id="circle52"/>
	<circle cx="76.0799" cy="466.213" r="4" fill="#0" id="circle53"/>
	<circle cx="76.0799" cy="475.223" r="4" fill="#0" id="circle54"/>
	<circle cx="80.5849" cy="317.548" r="4" fill="#0" id="circle55"/>
	<circle cx="80.5849" cy="326.558" r="4" fill="#0" id="circle56"/>
	<circle cx="80.5849" cy="439.183" r="4" fill="#0" id="circle57"/>
	<circle cx="80.5849" cy="448.193" r="4" fill="#0" id="circle58"/>
	<circle cx="80.5849" cy="457.203" r="4" fill="#0" id="circle59"/>
	<circle cx="81.4859" cy="860.85" r="4" fill="#0" id="circle60"/>
	<circle cx="83.2879" cy="377.915" r="4" fill="#0" id="circle61"/>
	<circle cx="85.0899" cy="304.033" r="4" fill="#0" id="circle62"/>
	<circle cx="85.0899" cy="416.658" r="4" fill="#0" id="circle63"/>
	<circle cx="85.0899" cy="425.668" r="4" fill="#0" id="circle64"/>
	<circle cx="89.5949" cy="286.013" r="4" fill="#0" id="circle65"/>
	<circle cx="89.5949" cy="295.023" r="4" fill="#0" id="circle66"/>
	<circle cx="89.5949" cy="398.638" r="4" fill="#0" id="circle67"/>
	<circle cx="89.5949" cy="407.648" r="4" fill="#0" id="circle68"/>
	<circle cx="90.4959" cy="383.321" r="4" fill="#0" id="circle69"/>
	<circle cx="90.4959" cy="862.652" r="4" fill="#0" id="circle70"/>
	<circle cx="94.0999" cy="267.993" r="4" fill="#0" id="circle71"/>
	<circle cx="94.0999" cy="277.003" r="4" fill="#0" id="circle72"/>
	<circle cx="98.6049" cy="245.468" r="4" fill="#0" id="circle73"/>
	<circle cx="98.6049" cy="254.478" r="4" fill="#0" id="circle74"/>
	<circle cx="98.6049" cy="867.157" r="4" fill="#0" id="circle75"/>
	<circle cx="103.11" cy="227.448" r="4" fill="#0" id="circle76"/>
	<circle cx="103.11" cy="236.458" r="4" fill="#0" id="circle77"/>
	<circle cx="107.615" cy="195.913" r="4" fill="#0" id="circle78"/>
	<circle cx="107.615" cy="204.923" r="4" fill="#0" id="circle79"/>
	<circle cx="107.615" cy="213.933" r="4" fill="#0" id="circle80"/>
	<circle cx="107.615" cy="869.86" r="4" fill="#0" id="circle81"/>
	<circle cx="112.12" cy="177.893" r="4" fill="#0" id="circle82"/>
	<circle cx="112.12" cy="186.903" r="4" fill="#0" id="circle83"/>
	<circle cx="116.625" cy="159.873" r="4" fill="#0" id="circle84"/>
	<circle cx="116.625" cy="168.883" r="4" fill="#0" id="circle85"/>
	<circle cx="116.625" cy="869.86" r="4" fill="#0" id="circle86"/>
	<circle cx="116.625" cy="878.87" r="4" fill="#0" id="circle87"/>
	<circle cx="121.13" cy="128.338" r="4" fill="#0" id="circle88"/>
	<circle cx="121.13" cy="137.348" r="4" fill="#0" id="circle89"/>
	<circle cx="121.13" cy="146.358" r="4" fill="#0" id="circle90"/>
	<circle cx="121.13" cy="886.979" r="4" fill="#0" id="circle91"/>
	<circle cx="121.13" cy="895.989" r="4" fill="#0" id="circle92"/>
	<circle cx="121.13" cy="904.999" r="4" fill="#0" id="circle93"/>
	<circle cx="121.13" cy="914.009" r="4" fill="#0" id="circle94"/>
	<circle cx="121.13" cy="923.019" r="4" fill="#0" id="circle95"/>
	<circle cx="121.13" cy="932.029" r="4" fill="#0" id="circle96"/>
	<circle cx="121.13" cy="941.039" r="4" fill="#0" id="circle97"/>
	<circle cx="121.13" cy="950.049" r="4" fill="#0" id="circle98"/>
	<circle cx="121.13" cy="959.059" r="4" fill="#0" id="circle99"/>
	<circle cx="121.13" cy="968.069" r="4" fill="#0" id="circle100"/>
	<circle cx="121.13" cy="977.079" r="4" fill="#0" id="circle101"/>
	<circle cx="122.932" cy="986.089" r="4" fill="#0" id="circle102"/>
	<circle cx="125.635" cy="110.318" r="4" fill="#0" id="circle103"/>
	<circle cx="125.635" cy="119.328" r="4" fill="#0" id="circle104"/>
	<circle cx="130.14" cy="60.7629" r="4" fill="#0" id="circle105"/>
	<circle cx="130.14" cy="69.7729" r="4" fill="#0" id="circle106"/>
	<circle cx="130.14" cy="78.7829" r="4" fill="#0" id="circle107"/>
	<circle cx="130.14" cy="87.7929" r="4" fill="#0" id="circle108"/>
	<circle cx="130.14" cy="96.8029" r="4" fill="#0" id="circle109"/>
	<circle cx="130.14" cy="991.495" r="4" fill="#0" id="circle110"/>
	<circle cx="134.645" cy="29.228" r="4" fill="#0" id="circle111"/>
	<circle cx="134.645" cy="38.238" r="4" fill="#0" id="circle112"/>
	<circle cx="134.645" cy="47.248" r="4" fill="#0" id="circle113"/>
	<circle cx="138.249" cy="996" r="4" fill="#0" id="circle114"/>
	<circle cx="139.15" cy="11.208" r="4" fill="#0" id="circle115"/>
	<circle cx="139.15" cy="20.218" r="4" fill="#0" id="circle116"/>
	<circle cx="146.358" cy="4" r="4" fill="#0" id="circle117"/>
	<circle cx="147.259" cy="996" r="4" fill="#0" id="circle118"/>
	<circle cx="153.566" cy="9.40599" r="4" fill="#0" id="circle119"/>
	<circle cx="153.566" cy="18.416" r="4" fill="#0" id="circle120"/>
	<circle cx="153.566" cy="27.426" r="4" fill="#0" id="circle121"/>
	<circle cx="153.566" cy="36.436" r="4" fill="#0" id="circle122"/>
	<circle cx="153.566" cy="45.446" r="4" fill="#0" id="circle123"/>
	<circle cx="155.368" cy="54.4559" r="4" fill="#0" id="circle124"/>
	<circle cx="155.368" cy="990.594" r="4" fill="#0" id="circle125"/>
	<circle cx="158.071" cy="63.4659" r="4" fill="#0" id="circle126"/>
	<circle cx="158.071" cy="72.4759" r="4" fill="#0" id="circle127"/>
	<circle cx="158.071" cy="81.4859" r="4" fill="#0" id="circle128"/>
	<circle cx="158.071" cy="90.4959" r="4" fill="#0" id="circle129"/>
	<circle cx="158.071" cy="99.5059" r="4" fill="#0" id="circle130"/>
	<circle cx="162.576" cy="107.615" r="4" fill="#0" id="circle131"/>
	<circle cx="162.576" cy="116.625" r="4" fill="#0" id="circle132"/>
	<circle cx="162.576" cy="874.365" r="4" fill="#0" id="circle133"/>
	<circle cx="162.576" cy="883.375" r="4" fill="#0" id="circle134"/>
	<circle cx="162.576" cy="892.385" r="4" fill="#0" id="circle135"/>
	<circle cx="162.576" cy="901.395" r="4" fill="#0" id="circle136"/>
	<circle cx="162.576" cy="910.405" r="4" fill="#0" id="circle137"/>
	<circle cx="162.576" cy="919.415" r="4" fill="#0" id="circle138"/>
	<circle cx="162.576" cy="928.425" r="4" fill="#0" id="circle139"/>
	<circle cx="162.576" cy="937.435" r="4" fill="#0" id="circle140"/>
	<circle cx="162.576" cy="946.445" r="4" fill="#0" id="circle141"/>
	<circle cx="162.576" cy="955.455" r="4" fill="#0" id="circle142"/>
	<circle cx="162.576" cy="964.465" r="4" fill="#0" id="circle143"/>
	<circle cx="162.576" cy="973.475" r="4" fill="#0" id="circle144"/>
	<circle cx="162.576" cy="982.485" r="4" fill="#0" id="circle145"/>
	<circle cx="167.081" cy="124.734" r="4" fill="#0" id="circle146"/>
	<circle cx="167.081" cy="133.744" r="4" fill="#0" id="circle147"/>
	<circle cx="167.081" cy="142.754" r="4" fill="#0" id="circle148"/>
	<circle cx="171.586" cy="150.863" r="4" fill="#0" id="circle149"/>
	<circle cx="171.586" cy="159.873" r="4" fill="#0" id="circle150"/>
	<circle cx="171.586" cy="168.883" r="4" fill="#0" id="circle151"/>
	<circle cx="171.586" cy="874.365" r="4" fill="#0" id="circle152"/>
	<circle cx="176.091" cy="176.992" r="4" fill="#0" id="circle153"/>
	<circle cx="176.091" cy="186.002" r="4" fill="#0" id="circle154"/>
	<circle cx="178.794" cy="195.012" r="4" fill="#0" id="circle155"/>
	<circle cx="180.596" cy="204.022" r="4" fill="#0" id="circle156"/>
	<circle cx="180.596" cy="213.032" r="4" fill="#0" id="circle157"/>
	<circle cx="180.596" cy="222.042" r="4" fill="#0" id="circle158"/>
	<circle cx="180.596" cy="401.341" r="4" fill="#0" id="circle159"/>
	<circle cx="180.596" cy="410.351" r="4" fill="#0" id="circle160"/>
	<circle cx="180.596" cy="874.365" r="4" fill="#0" id="circle161"/>
	<circle cx="183.299" cy="231.052" r="4" fill="#0" id="circle162"/>
	<circle cx="185.101" cy="240.062" r="4" fill="#0" id="circle163"/>
	<circle cx="185.101" cy="249.072" r="4" fill="#0" id="circle164"/>
	<circle cx="185.101" cy="258.082" r="4" fill="#0" id="circle165"/>
	<circle cx="185.101" cy="267.092" r="4" fill="#0" id="circle166"/>
	<circle cx="185.101" cy="276.102" r="4" fill="#0" id="circle167"/>
	<circle cx="185.101" cy="418.46" r="4" fill="#0" id="circle168"/>
	<circle cx="185.101" cy="427.47" r="4" fill="#0" id="circle169"/>
	<circle cx="189.606" cy="284.211" r="4" fill="#0" id="circle170"/>
	<circle cx="189.606" cy="401.341" r="4" fill="#0" id="circle171"/>
	<circle cx="189.606" cy="435.579" r="4" fill="#0" id="circle172"/>
	<circle cx="189.606" cy="444.589" r="4" fill="#0" id="circle173"/>
	<circle cx="189.606" cy="874.365" r="4" fill="#0" id="circle174"/>
	<circle cx="191.408" cy="293.221" r="4" fill="#0" id="circle175"/>
	<circle cx="194.111" cy="302.231" r="4" fill="#0" id="circle176"/>
	<circle cx="194.111" cy="452.698" r="4" fill="#0" id="circle177"/>
	<circle cx="194.111" cy="461.708" r="4" fill="#0" id="circle178"/>
	<circle cx="194.111" cy="470.718" r="4" fill="#0" id="circle179"/>
	<circle cx="194.111" cy="479.728" r="4" fill="#0" id="circle180"/>
	<circle cx="196.814" cy="395.034" r="4" fill="#0" id="circle181"/>
	<circle cx="198.616" cy="310.34" r="4" fill="#0" id="circle182"/>
	<circle cx="198.616" cy="319.35" r="4" fill="#0" id="circle183"/>
	<circle cx="198.616" cy="328.36" r="4" fill="#0" id="circle184"/>
	<circle cx="198.616" cy="337.37" r="4" fill="#0" id="circle185"/>
	<circle cx="198.616" cy="487.837" r="4" fill="#0" id="circle186"/>
	<circle cx="198.616" cy="496.847" r="4" fill="#0" id="circle187"/>
	<circle cx="198.616" cy="874.365" r="4" fill="#0" id="circle188"/>
	<circle cx="203.121" cy="345.479" r="4" fill="#0" id="circle189"/>
	<circle cx="203.121" cy="354.489" r="4" fill="#0" id="circle190"/>
	<circle cx="203.121" cy="363.499" r="4" fill="#0" id="circle191"/>
	<circle cx="203.121" cy="372.509" r="4" fill="#0" id="circle192"/>
	<circle cx="203.121" cy="381.519" r="4" fill="#0" id="circle193"/>
	<circle cx="203.121" cy="504.955" r="4" fill="#0" id="circle194"/>
	<circle cx="203.121" cy="513.965" r="4" fill="#0" id="circle195"/>
	<circle cx="204.923" cy="522.975" r="4" fill="#0" id="circle196"/>
	<circle cx="206.725" cy="869.86" r="4" fill="#0" id="circle197"/>
	<circle cx="207.626" cy="531.985" r="4" fill="#0" id="circle198"/>
	<circle cx="209.428" cy="540.995" r="4" fill="#0" id="circle199"/>
	<circle cx="212.131" cy="550.005" r="4" fill="#0" id="circle200"/>
	<circle cx="213.933" cy="559.015" r="4" fill="#0" id="circle201"/>
	<circle cx="215.735" cy="869.86" r="4" fill="#0" id="circle202"/>
	<circle cx="216.636" cy="568.025" r="4" fill="#0" id="circle203"/>
	<circle cx="221.141" cy="576.134" r="4" fill="#0" id="circle204"/>
	<circle cx="221.141" cy="585.144" r="4" fill="#0" id="circle205"/>
	<circle cx="221.141" cy="594.154" r="4" fill="#0" id="circle206"/>
	<circle cx="221.141" cy="685.155" r="4" fill="#0" id="circle207"/>
	<circle cx="221.141" cy="694.165" r="4" fill="#0" id="circle208"/>
	<circle cx="223.844" cy="865.355" r="4" fill="#0" id="circle209"/>
	<circle cx="225.646" cy="602.263" r="4" fill="#0" id="circle210"/>
	<circle cx="225.646" cy="611.273" r="4" fill="#0" id="circle211"/>
	<circle cx="225.646" cy="702.274" r="4" fill="#0" id="circle212"/>
	<circle cx="230.151" cy="619.382" r="4" fill="#0" id="circle213"/>
	<circle cx="230.151" cy="685.155" r="4" fill="#0" id="circle214"/>
	<circle cx="230.151" cy="710.383" r="4" fill="#0" id="circle215"/>
	<circle cx="230.151" cy="719.393" r="4" fill="#0" id="circle216"/>
	<circle cx="232.854" cy="865.355" r="4" fill="#0" id="circle217"/>
	<circle cx="233.755" cy="628.392" r="4" fill="#0" id="circle218"/>
	<circle cx="234.656" cy="727.502" r="4" fill="#0" id="circle219"/>
	<circle cx="237.359" cy="678.848" r="4" fill="#0" id="circle220"/>
	<circle cx="238.26" cy="636.501" r="4" fill="#0" id="circle221"/>
	<circle cx="238.26" cy="736.512" r="4" fill="#0" id="circle222"/>
	<circle cx="239.161" cy="645.511" r="4" fill="#0" id="circle223"/>
	<circle cx="239.161" cy="745.522" r="4" fill="#0" id="circle224"/>
	<circle cx="239.161" cy="754.532" r="4" fill="#0" id="circle225"/>
	<circle cx="240.963" cy="860.85" r="4" fill="#0" id="circle226"/>
	<circle cx="241.864" cy="654.521" r="4" fill="#0" id="circle227"/>
	<circle cx="243.666" cy="663.531" r="4" fill="#0" id="circle228"/>
	<circle cx="243.666" cy="762.641" r="4" fill="#0" id="circle229"/>
	<circle cx="243.666" cy="771.651" r="4" fill="#0" id="circle230"/>
	<circle cx="248.171" cy="779.76" r="4" fill="#0" id="circle231"/>
	<circle cx="248.171" cy="788.77" r="4" fill="#0" id="circle232"/>
	<circle cx="249.072" cy="856.345" r="4" fill="#0" id="circle233"/>
	<circle cx="252.676" cy="796.879" r="4" fill="#0" id="circle234"/>
	<circle cx="252.676" cy="805.889" r="4" fill="#0" id="circle235"/>
	<circle cx="252.676" cy="814.899" r="4" fill="#0" id="circle236"/>
	<circle cx="257.181" cy="851.84" r="4" fill="#0" id="circle237"/>
	<circle cx="259.884" cy="820.305" r="4" fill="#0" id="circle238"/>
	<circle cx="264.389" cy="845.533" r="4" fill="#0" id="circle239"/>
	<circle cx="266.191" cy="827.513" r="4" fill="#0" id="circle240"/>
	<circle cx="266.191" cy="836.523" r="4" fill="#0" id="circle241"/>
	</g>
</svg>