<?xml version="1.0" encoding="UTF-8" standalone="no"?>
<!-- Created with CurveBenchmark -->
<svg
	xmlns:dc="http://purl.org/dc/elements/1.1/"
	xmlns:cc="http://creativecommons.org/ns#"
	xmlns:rdf="http://www.w3.org/1999/02/22-rdf-syntax-ns#"
	xmlns:svg="http://www.w3.org/2000/svg"
	xmlns="http://www.w3.org/2000/svg"
	xmlns:sodipodi="http://sodipodi.sourceforge.net/DTD/sodipodi-0.dtd"
	xmlns:inkscape="http://www.inkscape.org/namespaces/inkscape"
	width="1000"
	height="1000"
	id="svg2"
	version="1.1"
	sodipodi:docname="manifold/ccrust-bird29.png.txt">
<defs
	id="defs4" />
<metadata
	id="metadata7">
	<rdf:RDF>
		<cc:Work
			rdf:about="">
			<dc:format>image/svg+xml</dc:format>
			<dc:type
				rdf:resource="http://purl.org/dc/dcmitype/StillImage" />
			<dc:title></dc:title>
		</cc:Work>
	</rdf:RDF>
</metadata>
<g
	inkscape:label="Layer 1"
	inkscape:groupmode="layer"
	id="layer1">
	<path style="fill:none;stroke:red;stroke-width:1px;stroke-linecap:butt;stroke-linejoin:miter;stroke-opacity:1" d="M 15.01,277.048 26.02,273.745 z" id="boundary" inkscape:connector-curvature="0" />
	<path style="fill:none;stroke:red;stroke-width:1px;stroke-linecap:butt;stroke-linejoin:miter;stroke-opacity:1" d="M 26.02,273.745 37.03,273.745 z" id="boundary" inkscape:connector-curvature="0" />
	<path style="fill:none;stroke:red;stroke-width:1px;stroke-linecap:butt;stroke-linejoin:miter;stroke-opacity:1" d="M 48.04,273.745 37.03,273.745 z" id="boundary" inkscape:connector-curvature="0" />
	<path style="fill:none;stroke:red;stroke-width:1px;stroke-linecap:butt;stroke-linejoin:miter;stroke-opacity:1" d="M 4,282.553 9.50499,292.462 z" id="boundary" inkscape:connector-curvature="0" />
	<path style="fill:none;stroke:red;stroke-width:1px;stroke-linecap:butt;stroke-linejoin:miter;stroke-opacity:1" d="M 4,282.553 15.01,277.048 z" id="boundary" inkscape:connector-curvature="0" />
	<path style="fill:none;stroke:red;stroke-width:1px;stroke-linecap:butt;stroke-linejoin:miter;stroke-opacity:1" d="M 30.424,302.371 20.515,296.866 z" id="boundary" inkscape:connector-curvature="0" />
	<path style="fill:none;stroke:red;stroke-width:1px;stroke-linecap:butt;stroke-linejoin:miter;stroke-opacity:1" d="M 20.515,296.866 9.50499,292.462 z" id="boundary" inkscape:connector-curvature="0" />
	<path style="fill:none;stroke:red;stroke-width:1px;stroke-linecap:butt;stroke-linejoin:miter;stroke-opacity:1" d="M 30.424,302.371 41.434,302.371 z" id="boundary" inkscape:connector-curvature="0" />
	<path style="fill:none;stroke:red;stroke-width:1px;stroke-linecap:butt;stroke-linejoin:miter;stroke-opacity:1" d="M 41.434,302.371 51.343,307.876 z" id="boundary" inkscape:connector-curvature="0" />
	<path style="fill:none;stroke:red;stroke-width:1px;stroke-linecap:butt;stroke-linejoin:miter;stroke-opacity:1" d="M 48.04,273.745 59.0499,273.745 z" id="boundary" inkscape:connector-curvature="0" />
	<path style="fill:none;stroke:red;stroke-width:1px;stroke-linecap:butt;stroke-linejoin:miter;stroke-opacity:1" d="M 78.8679,262.735 87.6759,253.927 z" id="boundary" inkscape:connector-curvature="0" />
	<path style="fill:none;stroke:red;stroke-width:1px;stroke-linecap:butt;stroke-linejoin:miter;stroke-opacity:1" d="M 87.6759,253.927 98.6859,248.422 z" id="boundary" inkscape:connector-curvature="0" />
	<path style="fill:none;stroke:red;stroke-width:1px;stroke-linecap:butt;stroke-linejoin:miter;stroke-opacity:1" d="M 98.6859,248.422 109.696,246.22 z" id="boundary" inkscape:connector-curvature="0" />
	<path style="fill:none;stroke:red;stroke-width:1px;stroke-linecap:butt;stroke-linejoin:miter;stroke-opacity:1" d="M 120.706,246.22 109.696,246.22 z" id="boundary" inkscape:connector-curvature="0" />
	<path style="fill:none;stroke:red;stroke-width:1px;stroke-linecap:butt;stroke-linejoin:miter;stroke-opacity:1" d="M 59.0499,273.745 70.0599,271.543 z" id="boundary" inkscape:connector-curvature="0" />
	<path style="fill:none;stroke:red;stroke-width:1px;stroke-linecap:butt;stroke-linejoin:miter;stroke-opacity:1" d="M 64.5549,326.593 60.1509,315.583 z" id="boundary" inkscape:connector-curvature="0" />
	<path style="fill:none;stroke:red;stroke-width:1px;stroke-linecap:butt;stroke-linejoin:miter;stroke-opacity:1" d="M 60.1509,315.583 51.343,307.876 z" id="boundary" inkscape:connector-curvature="0" />
	<path style="fill:none;stroke:red;stroke-width:1px;stroke-linecap:butt;stroke-linejoin:miter;stroke-opacity:1" d="M 78.8679,262.735 70.0599,271.543 z" id="boundary" inkscape:connector-curvature="0" />
	<path style="fill:none;stroke:red;stroke-width:1px;stroke-linecap:butt;stroke-linejoin:miter;stroke-opacity:1" d="M 70.0599,336.502 75.5649,346.411 z" id="boundary" inkscape:connector-curvature="0" />
	<path style="fill:none;stroke:red;stroke-width:1px;stroke-linecap:butt;stroke-linejoin:miter;stroke-opacity:1" d="M 70.0599,336.502 64.5549,326.593 z" id="boundary" inkscape:connector-curvature="0" />
	<path style="fill:none;stroke:red;stroke-width:1px;stroke-linecap:butt;stroke-linejoin:miter;stroke-opacity:1" d="M 75.5649,346.411 81.0699,356.32 z" id="boundary" inkscape:connector-curvature="0" />
	<path style="fill:none;stroke:red;stroke-width:1px;stroke-linecap:butt;stroke-linejoin:miter;stroke-opacity:1" d="M 86.5749,366.229 86.5749,377.239 z" id="boundary" inkscape:connector-curvature="0" />
	<path style="fill:none;stroke:red;stroke-width:1px;stroke-linecap:butt;stroke-linejoin:miter;stroke-opacity:1" d="M 81.0699,356.32 86.5749,366.229 z" id="boundary" inkscape:connector-curvature="0" />
	<path style="fill:none;stroke:red;stroke-width:1px;stroke-linecap:butt;stroke-linejoin:miter;stroke-opacity:1" d="M 86.5749,388.249 86.5749,377.239 z" id="boundary" inkscape:connector-curvature="0" />
	<path style="fill:none;stroke:red;stroke-width:1px;stroke-linecap:butt;stroke-linejoin:miter;stroke-opacity:1" d="M 86.5749,388.249 86.5749,399.259 z" id="boundary" inkscape:connector-curvature="0" />
	<path style="fill:none;stroke:red;stroke-width:1px;stroke-linecap:butt;stroke-linejoin:miter;stroke-opacity:1" d="M 86.5749,410.269 86.5749,399.259 z" id="boundary" inkscape:connector-curvature="0" />
	<path style="fill:none;stroke:red;stroke-width:1px;stroke-linecap:butt;stroke-linejoin:miter;stroke-opacity:1" d="M 92.0799,420.178 86.5749,410.269 z" id="boundary" inkscape:connector-curvature="0" />
	<path style="fill:none;stroke:red;stroke-width:1px;stroke-linecap:butt;stroke-linejoin:miter;stroke-opacity:1" d="M 92.0799,420.178 92.0799,431.188 z" id="boundary" inkscape:connector-curvature="0" />
	<path style="fill:none;stroke:red;stroke-width:1px;stroke-linecap:butt;stroke-linejoin:miter;stroke-opacity:1" d="M 92.0799,442.198 97.5849,452.107 z" id="boundary" inkscape:connector-curvature="0" />
	<path style="fill:none;stroke:red;stroke-width:1px;stroke-linecap:butt;stroke-linejoin:miter;stroke-opacity:1" d="M 92.0799,442.198 92.0799,431.188 z" id="boundary" inkscape:connector-curvature="0" />
	<path style="fill:none;stroke:red;stroke-width:1px;stroke-linecap:butt;stroke-linejoin:miter;stroke-opacity:1" d="M 103.09,462.016 97.5849,452.107 z" id="boundary" inkscape:connector-curvature="0" />
	<path style="fill:none;stroke:red;stroke-width:1px;stroke-linecap:butt;stroke-linejoin:miter;stroke-opacity:1" d="M 103.09,462.016 106.393,473.026 z" id="boundary" inkscape:connector-curvature="0" />
	<path style="fill:none;stroke:red;stroke-width:1px;stroke-linecap:butt;stroke-linejoin:miter;stroke-opacity:1" d="M 130.615,495.046 119.605,491.743 z" id="boundary" inkscape:connector-curvature="0" />
	<path style="fill:none;stroke:red;stroke-width:1px;stroke-linecap:butt;stroke-linejoin:miter;stroke-opacity:1" d="M 119.605,491.743 111.898,482.935 z" id="boundary" inkscape:connector-curvature="0" />
	<path style="fill:none;stroke:red;stroke-width:1px;stroke-linecap:butt;stroke-linejoin:miter;stroke-opacity:1" d="M 111.898,482.935 106.393,473.026 z" id="boundary" inkscape:connector-curvature="0" />
	<path style="fill:none;stroke:red;stroke-width:1px;stroke-linecap:butt;stroke-linejoin:miter;stroke-opacity:1" d="M 130.615,495.046 137.221,503.853 z" id="boundary" inkscape:connector-curvature="0" />
	<path style="fill:none;stroke:red;stroke-width:1px;stroke-linecap:butt;stroke-linejoin:miter;stroke-opacity:1" d="M 120.706,246.22 131.716,246.22 z" id="boundary" inkscape:connector-curvature="0" />
	<path style="fill:none;stroke:red;stroke-width:1px;stroke-linecap:butt;stroke-linejoin:miter;stroke-opacity:1" d="M 131.716,246.22 142.726,246.22 z" id="boundary" inkscape:connector-curvature="0" />
	<path style="fill:none;stroke:red;stroke-width:1px;stroke-linecap:butt;stroke-linejoin:miter;stroke-opacity:1" d="M 142.726,246.22 152.635,251.725 z" id="boundary" inkscape:connector-curvature="0" />
	<path style="fill:none;stroke:red;stroke-width:1px;stroke-linecap:butt;stroke-linejoin:miter;stroke-opacity:1" d="M 152.635,251.725 162.544,257.23 z" id="boundary" inkscape:connector-curvature="0" />
	<path style="fill:none;stroke:red;stroke-width:1px;stroke-linecap:butt;stroke-linejoin:miter;stroke-opacity:1" d="M 173.554,258.331 162.544,257.23 z" id="boundary" inkscape:connector-curvature="0" />
	<path style="fill:none;stroke:red;stroke-width:1px;stroke-linecap:butt;stroke-linejoin:miter;stroke-opacity:1" d="M 173.554,258.331 181.261,267.139 z" id="boundary" inkscape:connector-curvature="0" />
	<path style="fill:none;stroke:red;stroke-width:1px;stroke-linecap:butt;stroke-linejoin:miter;stroke-opacity:1" d="M 192.271,271.543 181.261,267.139 z" id="boundary" inkscape:connector-curvature="0" />
	<path style="fill:none;stroke:red;stroke-width:1px;stroke-linecap:butt;stroke-linejoin:miter;stroke-opacity:1" d="M 203.281,291.361 196.675,282.553 z" id="boundary" inkscape:connector-curvature="0" />
	<path style="fill:none;stroke:red;stroke-width:1px;stroke-linecap:butt;stroke-linejoin:miter;stroke-opacity:1" d="M 196.675,282.553 192.271,271.543 z" id="boundary" inkscape:connector-curvature="0" />
	<path style="fill:none;stroke:red;stroke-width:1px;stroke-linecap:butt;stroke-linejoin:miter;stroke-opacity:1" d="M 203.281,291.361 208.786,301.27 z" id="boundary" inkscape:connector-curvature="0" />
	<path style="fill:none;stroke:red;stroke-width:1px;stroke-linecap:butt;stroke-linejoin:miter;stroke-opacity:1" d="M 208.786,301.27 217.594,307.876 z" id="boundary" inkscape:connector-curvature="0" />
	<path style="fill:none;stroke:red;stroke-width:1px;stroke-linecap:butt;stroke-linejoin:miter;stroke-opacity:1" d="M 217.594,307.876 225.301,316.684 z" id="boundary" inkscape:connector-curvature="0" />
	<path style="fill:none;stroke:red;stroke-width:1px;stroke-linecap:butt;stroke-linejoin:miter;stroke-opacity:1" d="M 225.301,316.684 236.311,317.785 z" id="boundary" inkscape:connector-curvature="0" />
	<path style="fill:none;stroke:red;stroke-width:1px;stroke-linecap:butt;stroke-linejoin:miter;stroke-opacity:1" d="M 236.311,317.785 246.22,323.29 z" id="boundary" inkscape:connector-curvature="0" />
	<path style="fill:none;stroke:red;stroke-width:1px;stroke-linecap:butt;stroke-linejoin:miter;stroke-opacity:1" d="M 246.22,323.29 255.028,329.896 z" id="boundary" inkscape:connector-curvature="0" />
	<path style="fill:none;stroke:red;stroke-width:1px;stroke-linecap:butt;stroke-linejoin:miter;stroke-opacity:1" d="M 266.038,334.3 255.028,329.896 z" id="boundary" inkscape:connector-curvature="0" />
	<path style="fill:none;stroke:red;stroke-width:1px;stroke-linecap:butt;stroke-linejoin:miter;stroke-opacity:1" d="M 266.038,334.3 275.947,339.805 z" id="boundary" inkscape:connector-curvature="0" />
	<path style="fill:none;stroke:red;stroke-width:1px;stroke-linecap:butt;stroke-linejoin:miter;stroke-opacity:1" d="M 295.765,350.815 285.856,345.31 z" id="boundary" inkscape:connector-curvature="0" />
	<path style="fill:none;stroke:red;stroke-width:1px;stroke-linecap:butt;stroke-linejoin:miter;stroke-opacity:1" d="M 275.947,339.805 285.856,345.31 z" id="boundary" inkscape:connector-curvature="0" />
	<path style="fill:none;stroke:red;stroke-width:1px;stroke-linecap:butt;stroke-linejoin:miter;stroke-opacity:1" d="M 137.221,503.853 148.231,508.257 z" id="boundary" inkscape:connector-curvature="0" />
	<path style="fill:none;stroke:red;stroke-width:1px;stroke-linecap:butt;stroke-linejoin:miter;stroke-opacity:1" d="M 148.231,508.257 155.938,517.065 z" id="boundary" inkscape:connector-curvature="0" />
	<path style="fill:none;stroke:red;stroke-width:1px;stroke-linecap:butt;stroke-linejoin:miter;stroke-opacity:1" d="M 304.573,357.421 295.765,350.815 z" id="boundary" inkscape:connector-curvature="0" />
	<path style="fill:none;stroke:red;stroke-width:1px;stroke-linecap:butt;stroke-linejoin:miter;stroke-opacity:1" d="M 315.583,361.825 304.573,357.421 z" id="boundary" inkscape:connector-curvature="0" />
	<path style="fill:none;stroke:red;stroke-width:1px;stroke-linecap:butt;stroke-linejoin:miter;stroke-opacity:1" d="M 155.938,517.065 165.847,522.57 z" id="boundary" inkscape:connector-curvature="0" />
	<path style="fill:none;stroke:red;stroke-width:1px;stroke-linecap:butt;stroke-linejoin:miter;stroke-opacity:1" d="M 195.574,539.085 185.665,533.58 z" id="boundary" inkscape:connector-curvature="0" />
	<path style="fill:none;stroke:red;stroke-width:1px;stroke-linecap:butt;stroke-linejoin:miter;stroke-opacity:1" d="M 185.665,533.58 176.857,525.873 z" id="boundary" inkscape:connector-curvature="0" />
	<path style="fill:none;stroke:red;stroke-width:1px;stroke-linecap:butt;stroke-linejoin:miter;stroke-opacity:1" d="M 165.847,522.57 176.857,525.873 z" id="boundary" inkscape:connector-curvature="0" />
	<path style="fill:none;stroke:red;stroke-width:1px;stroke-linecap:butt;stroke-linejoin:miter;stroke-opacity:1" d="M 346.411,376.138 335.401,372.835 z" id="boundary" inkscape:connector-curvature="0" />
	<path style="fill:none;stroke:red;stroke-width:1px;stroke-linecap:butt;stroke-linejoin:miter;stroke-opacity:1" d="M 335.401,372.835 325.492,367.33 z" id="boundary" inkscape:connector-curvature="0" />
	<path style="fill:none;stroke:red;stroke-width:1px;stroke-linecap:butt;stroke-linejoin:miter;stroke-opacity:1" d="M 387.148,367.33 377.239,372.835 z" id="boundary" inkscape:connector-curvature="0" />
	<path style="fill:none;stroke:red;stroke-width:1px;stroke-linecap:butt;stroke-linejoin:miter;stroke-opacity:1" d="M 377.239,372.835 367.33,378.34 z" id="boundary" inkscape:connector-curvature="0" />
	<path style="fill:none;stroke:red;stroke-width:1px;stroke-linecap:butt;stroke-linejoin:miter;stroke-opacity:1" d="M 346.411,376.138 356.32,381.643 z" id="boundary" inkscape:connector-curvature="0" />
	<path style="fill:none;stroke:red;stroke-width:1px;stroke-linecap:butt;stroke-linejoin:miter;stroke-opacity:1" d="M 325.492,367.33 315.583,361.825 z" id="boundary" inkscape:connector-curvature="0" />
	<path style="fill:none;stroke:red;stroke-width:1px;stroke-linecap:butt;stroke-linejoin:miter;stroke-opacity:1" d="M 344.209,542.388 355.219,536.883 z" id="boundary" inkscape:connector-curvature="0" />
	<path style="fill:none;stroke:red;stroke-width:1px;stroke-linecap:butt;stroke-linejoin:miter;stroke-opacity:1" d="M 355.219,536.883 366.229,539.085 z" id="boundary" inkscape:connector-curvature="0" />
	<path style="fill:none;stroke:red;stroke-width:1px;stroke-linecap:butt;stroke-linejoin:miter;stroke-opacity:1" d="M 367.33,378.34 356.32,381.643 z" id="boundary" inkscape:connector-curvature="0" />
	<path style="fill:none;stroke:red;stroke-width:1px;stroke-linecap:butt;stroke-linejoin:miter;stroke-opacity:1" d="M 335.401,550.095 344.209,542.388 z" id="boundary" inkscape:connector-curvature="0" />
	<path style="fill:none;stroke:red;stroke-width:1px;stroke-linecap:butt;stroke-linejoin:miter;stroke-opacity:1" d="M 205.483,544.59 215.392,550.095 z" id="boundary" inkscape:connector-curvature="0" />
	<path style="fill:none;stroke:red;stroke-width:1px;stroke-linecap:butt;stroke-linejoin:miter;stroke-opacity:1" d="M 226.402,550.095 215.392,550.095 z" id="boundary" inkscape:connector-curvature="0" />
	<path style="fill:none;stroke:red;stroke-width:1px;stroke-linecap:butt;stroke-linejoin:miter;stroke-opacity:1" d="M 217.594,626.064 225.301,617.256 z" id="boundary" inkscape:connector-curvature="0" />
	<path style="fill:none;stroke:red;stroke-width:1px;stroke-linecap:butt;stroke-linejoin:miter;stroke-opacity:1" d="M 234.109,609.549 225.301,617.256 z" id="boundary" inkscape:connector-curvature="0" />
	<path style="fill:none;stroke:red;stroke-width:1px;stroke-linecap:butt;stroke-linejoin:miter;stroke-opacity:1" d="M 205.483,544.59 195.574,539.085 z" id="boundary" inkscape:connector-curvature="0" />
	<path style="fill:none;stroke:red;stroke-width:1px;stroke-linecap:butt;stroke-linejoin:miter;stroke-opacity:1" d="M 201.079,642.579 208.786,633.771 z" id="boundary" inkscape:connector-curvature="0" />
	<path style="fill:none;stroke:red;stroke-width:1px;stroke-linecap:butt;stroke-linejoin:miter;stroke-opacity:1" d="M 228.604,641.478 219.796,649.185 z" id="boundary" inkscape:connector-curvature="0" />
	<path style="fill:none;stroke:red;stroke-width:1px;stroke-linecap:butt;stroke-linejoin:miter;stroke-opacity:1" d="M 236.311,632.67 228.604,641.478 z" id="boundary" inkscape:connector-curvature="0" />
	<path style="fill:none;stroke:red;stroke-width:1px;stroke-linecap:butt;stroke-linejoin:miter;stroke-opacity:1" d="M 208.786,633.771 217.594,626.064 z" id="boundary" inkscape:connector-curvature="0" />
	<path style="fill:none;stroke:red;stroke-width:1px;stroke-linecap:butt;stroke-linejoin:miter;stroke-opacity:1" d="M 219.796,649.185 212.089,663.498 z" id="boundary" inkscape:connector-curvature="0" />
	<path style="fill:none;stroke:red;stroke-width:1px;stroke-linecap:butt;stroke-linejoin:miter;stroke-opacity:1" d="M 226.402,550.095 236.311,555.6 z" id="boundary" inkscape:connector-curvature="0" />
	<path style="fill:none;stroke:red;stroke-width:1px;stroke-linecap:butt;stroke-linejoin:miter;stroke-opacity:1" d="M 251.725,568.812 246.22,585.327 z" id="boundary" inkscape:connector-curvature="0" />
	<path style="fill:none;stroke:red;stroke-width:1px;stroke-linecap:butt;stroke-linejoin:miter;stroke-opacity:1" d="M 247.321,557.802 251.725,568.812 z" id="boundary" inkscape:connector-curvature="0" />
	<path style="fill:none;stroke:red;stroke-width:1px;stroke-linecap:butt;stroke-linejoin:miter;stroke-opacity:1" d="M 236.311,555.6 247.321,557.802 z" id="boundary" inkscape:connector-curvature="0" />
	<path style="fill:none;stroke:red;stroke-width:1px;stroke-linecap:butt;stroke-linejoin:miter;stroke-opacity:1" d="M 241.816,600.741 246.22,585.327 z" id="boundary" inkscape:connector-curvature="0" />
	<path style="fill:none;stroke:red;stroke-width:1px;stroke-linecap:butt;stroke-linejoin:miter;stroke-opacity:1" d="M 245.119,624.963 236.311,632.67 z" id="boundary" inkscape:connector-curvature="0" />
	<path style="fill:none;stroke:red;stroke-width:1px;stroke-linecap:butt;stroke-linejoin:miter;stroke-opacity:1" d="M 252.826,616.155 245.119,624.963 z" id="boundary" inkscape:connector-curvature="0" />
	<path style="fill:none;stroke:red;stroke-width:1px;stroke-linecap:butt;stroke-linejoin:miter;stroke-opacity:1" d="M 263.836,610.65 252.826,616.155 z" id="boundary" inkscape:connector-curvature="0" />
	<path style="fill:none;stroke:red;stroke-width:1px;stroke-linecap:butt;stroke-linejoin:miter;stroke-opacity:1" d="M 272.644,659.094 262.735,664.599 z" id="boundary" inkscape:connector-curvature="0" />
	<path style="fill:none;stroke:red;stroke-width:1px;stroke-linecap:butt;stroke-linejoin:miter;stroke-opacity:1" d="M 234.109,609.549 241.816,600.741 z" id="boundary" inkscape:connector-curvature="0" />
	<path style="fill:none;stroke:red;stroke-width:1px;stroke-linecap:butt;stroke-linejoin:miter;stroke-opacity:1" d="M 150.433,664.599 159.241,655.791 z" id="boundary" inkscape:connector-curvature="0" />
	<path style="fill:none;stroke:red;stroke-width:1px;stroke-linecap:butt;stroke-linejoin:miter;stroke-opacity:1" d="M 159.241,655.791 170.251,653.589 z" id="boundary" inkscape:connector-curvature="0" />
	<path style="fill:none;stroke:red;stroke-width:1px;stroke-linecap:butt;stroke-linejoin:miter;stroke-opacity:1" d="M 181.261,653.589 170.251,653.589 z" id="boundary" inkscape:connector-curvature="0" />
	<path style="fill:none;stroke:red;stroke-width:1px;stroke-linecap:butt;stroke-linejoin:miter;stroke-opacity:1" d="M 182.362,682.215 172.453,687.72 z" id="boundary" inkscape:connector-curvature="0" />
	<path style="fill:none;stroke:red;stroke-width:1px;stroke-linecap:butt;stroke-linejoin:miter;stroke-opacity:1" d="M 141.625,673.407 141.625,684.417 z" id="boundary" inkscape:connector-curvature="0" />
	<path style="fill:none;stroke:red;stroke-width:1px;stroke-linecap:butt;stroke-linejoin:miter;stroke-opacity:1" d="M 152.635,687.72 141.625,684.417 z" id="boundary" inkscape:connector-curvature="0" />
	<path style="fill:none;stroke:red;stroke-width:1px;stroke-linecap:butt;stroke-linejoin:miter;stroke-opacity:1" d="M 172.453,687.72 162.544,693.225 z" id="boundary" inkscape:connector-curvature="0" />
	<path style="fill:none;stroke:red;stroke-width:1px;stroke-linecap:butt;stroke-linejoin:miter;stroke-opacity:1" d="M 162.544,693.225 152.635,687.72 z" id="boundary" inkscape:connector-curvature="0" />
	<path style="fill:none;stroke:red;stroke-width:1px;stroke-linecap:butt;stroke-linejoin:miter;stroke-opacity:1" d="M 141.625,673.407 150.433,664.599 z" id="boundary" inkscape:connector-curvature="0" />
	<path style="fill:none;stroke:red;stroke-width:1px;stroke-linecap:butt;stroke-linejoin:miter;stroke-opacity:1" d="M 203.281,671.205 193.372,682.215 z" id="boundary" inkscape:connector-curvature="0" />
	<path style="fill:none;stroke:red;stroke-width:1px;stroke-linecap:butt;stroke-linejoin:miter;stroke-opacity:1" d="M 212.089,663.498 203.281,671.205 z" id="boundary" inkscape:connector-curvature="0" />
	<path style="fill:none;stroke:red;stroke-width:1px;stroke-linecap:butt;stroke-linejoin:miter;stroke-opacity:1" d="M 192.271,650.286 201.079,642.579 z" id="boundary" inkscape:connector-curvature="0" />
	<path style="fill:none;stroke:red;stroke-width:1px;stroke-linecap:butt;stroke-linejoin:miter;stroke-opacity:1" d="M 251.725,667.902 262.735,664.599 z" id="boundary" inkscape:connector-curvature="0" />
	<path style="fill:none;stroke:red;stroke-width:1px;stroke-linecap:butt;stroke-linejoin:miter;stroke-opacity:1" d="M 193.372,682.215 182.362,682.215 z" id="boundary" inkscape:connector-curvature="0" />
	<path style="fill:none;stroke:red;stroke-width:1px;stroke-linecap:butt;stroke-linejoin:miter;stroke-opacity:1" d="M 249.523,681.114 240.715,673.407 z" id="boundary" inkscape:connector-curvature="0" />
	<path style="fill:none;stroke:red;stroke-width:1px;stroke-linecap:butt;stroke-linejoin:miter;stroke-opacity:1" d="M 259.432,686.619 249.523,681.114 z" id="boundary" inkscape:connector-curvature="0" />
	<path style="fill:none;stroke:red;stroke-width:1px;stroke-linecap:butt;stroke-linejoin:miter;stroke-opacity:1" d="M 270.442,687.72 259.432,686.619 z" id="boundary" inkscape:connector-curvature="0" />
	<path style="fill:none;stroke:red;stroke-width:1px;stroke-linecap:butt;stroke-linejoin:miter;stroke-opacity:1" d="M 181.261,653.589 192.271,650.286 z" id="boundary" inkscape:connector-curvature="0" />
	<path style="fill:none;stroke:red;stroke-width:1px;stroke-linecap:butt;stroke-linejoin:miter;stroke-opacity:1" d="M 274.846,566.61 285.856,561.105 z" id="boundary" inkscape:connector-curvature="0" />
	<path style="fill:none;stroke:red;stroke-width:1px;stroke-linecap:butt;stroke-linejoin:miter;stroke-opacity:1" d="M 285.856,561.105 295.765,566.61 z" id="boundary" inkscape:connector-curvature="0" />
	<path style="fill:none;stroke:red;stroke-width:1px;stroke-linecap:butt;stroke-linejoin:miter;stroke-opacity:1" d="M 269.341,577.62 274.846,566.61 z" id="boundary" inkscape:connector-curvature="0" />
	<path style="fill:none;stroke:red;stroke-width:1px;stroke-linecap:butt;stroke-linejoin:miter;stroke-opacity:1" d="M 307.876,585.327 301.27,576.519 z" id="boundary" inkscape:connector-curvature="0" />
	<path style="fill:none;stroke:red;stroke-width:1px;stroke-linecap:butt;stroke-linejoin:miter;stroke-opacity:1" d="M 295.765,566.61 301.27,576.519 z" id="boundary" inkscape:connector-curvature="0" />
	<path style="fill:none;stroke:red;stroke-width:1px;stroke-linecap:butt;stroke-linejoin:miter;stroke-opacity:1" d="M 269.341,588.63 269.341,599.64 z" id="boundary" inkscape:connector-curvature="0" />
	<path style="fill:none;stroke:red;stroke-width:1px;stroke-linecap:butt;stroke-linejoin:miter;stroke-opacity:1" d="M 269.341,577.62 269.341,588.63 z" id="boundary" inkscape:connector-curvature="0" />
	<path style="fill:none;stroke:red;stroke-width:1px;stroke-linecap:butt;stroke-linejoin:miter;stroke-opacity:1" d="M 263.836,610.65 269.341,599.64 z" id="boundary" inkscape:connector-curvature="0" />
	<path style="fill:none;stroke:red;stroke-width:1px;stroke-linecap:butt;stroke-linejoin:miter;stroke-opacity:1" d="M 307.876,585.327 312.28,596.337 z" id="boundary" inkscape:connector-curvature="0" />
	<path style="fill:none;stroke:red;stroke-width:1px;stroke-linecap:butt;stroke-linejoin:miter;stroke-opacity:1" d="M 318.886,561.105 324.391,550.095 z" id="boundary" inkscape:connector-curvature="0" />
	<path style="fill:none;stroke:red;stroke-width:1px;stroke-linecap:butt;stroke-linejoin:miter;stroke-opacity:1" d="M 324.391,550.095 335.401,550.095 z" id="boundary" inkscape:connector-curvature="0" />
	<path style="fill:none;stroke:red;stroke-width:1px;stroke-linecap:butt;stroke-linejoin:miter;stroke-opacity:1" d="M 329.896,580.923 324.391,571.014 z" id="boundary" inkscape:connector-curvature="0" />
	<path style="fill:none;stroke:red;stroke-width:1px;stroke-linecap:butt;stroke-linejoin:miter;stroke-opacity:1" d="M 324.391,571.014 318.886,561.105 z" id="boundary" inkscape:connector-curvature="0" />
	<path style="fill:none;stroke:red;stroke-width:1px;stroke-linecap:butt;stroke-linejoin:miter;stroke-opacity:1" d="M 312.28,596.337 312.28,607.347 z" id="boundary" inkscape:connector-curvature="0" />
	<path style="fill:none;stroke:red;stroke-width:1px;stroke-linecap:butt;stroke-linejoin:miter;stroke-opacity:1" d="M 329.896,591.933 312.28,596.337 z" id="boundary" inkscape:connector-curvature="0" />
	<path style="fill:none;stroke:red;stroke-width:1px;stroke-linecap:butt;stroke-linejoin:miter;stroke-opacity:1" d="M 329.896,591.933 329.896,580.923 z" id="boundary" inkscape:connector-curvature="0" />
	<path style="fill:none;stroke:red;stroke-width:1px;stroke-linecap:butt;stroke-linejoin:miter;stroke-opacity:1" d="M 329.896,591.933 329.896,610.65 z" id="boundary" inkscape:connector-curvature="0" />
	<path style="fill:none;stroke:red;stroke-width:1px;stroke-linecap:butt;stroke-linejoin:miter;stroke-opacity:1" d="M 312.28,607.347 306.775,618.357 z" id="boundary" inkscape:connector-curvature="0" />
	<path style="fill:none;stroke:red;stroke-width:1px;stroke-linecap:butt;stroke-linejoin:miter;stroke-opacity:1" d="M 329.896,610.65 324.391,621.66 z" id="boundary" inkscape:connector-curvature="0" />
	<path style="fill:none;stroke:red;stroke-width:1px;stroke-linecap:butt;stroke-linejoin:miter;stroke-opacity:1" d="M 291.361,650.286 283.654,659.094 z" id="boundary" inkscape:connector-curvature="0" />
	<path style="fill:none;stroke:red;stroke-width:1px;stroke-linecap:butt;stroke-linejoin:miter;stroke-opacity:1" d="M 283.654,659.094 272.644,659.094 z" id="boundary" inkscape:connector-curvature="0" />
	<path style="fill:none;stroke:red;stroke-width:1px;stroke-linecap:butt;stroke-linejoin:miter;stroke-opacity:1" d="M 304.573,631.569 300.169,642.579 z" id="boundary" inkscape:connector-curvature="0" />
	<path style="fill:none;stroke:red;stroke-width:1px;stroke-linecap:butt;stroke-linejoin:miter;stroke-opacity:1" d="M 291.361,650.286 300.169,642.579 z" id="boundary" inkscape:connector-curvature="0" />
	<path style="fill:none;stroke:red;stroke-width:1px;stroke-linecap:butt;stroke-linejoin:miter;stroke-opacity:1" d="M 270.442,687.72 281.452,687.72 z" id="boundary" inkscape:connector-curvature="0" />
	<path style="fill:none;stroke:red;stroke-width:1px;stroke-linecap:butt;stroke-linejoin:miter;stroke-opacity:1" d="M 302.371,691.023 292.462,685.518 z" id="boundary" inkscape:connector-curvature="0" />
	<path style="fill:none;stroke:red;stroke-width:1px;stroke-linecap:butt;stroke-linejoin:miter;stroke-opacity:1" d="M 281.452,687.72 292.462,685.518 z" id="boundary" inkscape:connector-curvature="0" />
	<path style="fill:none;stroke:red;stroke-width:1px;stroke-linecap:butt;stroke-linejoin:miter;stroke-opacity:1" d="M 302.371,691.023 313.381,693.225 z" id="boundary" inkscape:connector-curvature="0" />
	<path style="fill:none;stroke:red;stroke-width:1px;stroke-linecap:butt;stroke-linejoin:miter;stroke-opacity:1" d="M 313.381,643.68 313.381,654.69 z" id="boundary" inkscape:connector-curvature="0" />
	<path style="fill:none;stroke:red;stroke-width:1px;stroke-linecap:butt;stroke-linejoin:miter;stroke-opacity:1" d="M 318.886,632.67 313.381,643.68 z" id="boundary" inkscape:connector-curvature="0" />
	<path style="fill:none;stroke:red;stroke-width:1px;stroke-linecap:butt;stroke-linejoin:miter;stroke-opacity:1" d="M 324.391,621.66 318.886,632.67 z" id="boundary" inkscape:connector-curvature="0" />
	<path style="fill:none;stroke:red;stroke-width:1px;stroke-linecap:butt;stroke-linejoin:miter;stroke-opacity:1" d="M 313.381,654.69 315.583,665.7 z" id="boundary" inkscape:connector-curvature="0" />
	<path style="fill:none;stroke:red;stroke-width:1px;stroke-linecap:butt;stroke-linejoin:miter;stroke-opacity:1" d="M 315.583,665.7 321.088,675.609 z" id="boundary" inkscape:connector-curvature="0" />
	<path style="fill:none;stroke:red;stroke-width:1px;stroke-linecap:butt;stroke-linejoin:miter;stroke-opacity:1" d="M 321.088,675.609 330.997,681.114 z" id="boundary" inkscape:connector-curvature="0" />
	<path style="fill:none;stroke:red;stroke-width:1px;stroke-linecap:butt;stroke-linejoin:miter;stroke-opacity:1" d="M 330.997,681.114 324.391,693.225 z" id="boundary" inkscape:connector-curvature="0" />
	<path style="fill:none;stroke:red;stroke-width:1px;stroke-linecap:butt;stroke-linejoin:miter;stroke-opacity:1" d="M 324.391,693.225 313.381,693.225 z" id="boundary" inkscape:connector-curvature="0" />
	<path style="fill:none;stroke:red;stroke-width:1px;stroke-linecap:butt;stroke-linejoin:miter;stroke-opacity:1" d="M 304.573,631.569 306.775,618.357 z" id="boundary" inkscape:connector-curvature="0" />
	<path style="fill:none;stroke:red;stroke-width:1px;stroke-linecap:butt;stroke-linejoin:miter;stroke-opacity:1" d="M 366.229,539.085 377.239,539.085 z" id="boundary" inkscape:connector-curvature="0" />
	<path style="fill:none;stroke:red;stroke-width:1px;stroke-linecap:butt;stroke-linejoin:miter;stroke-opacity:1" d="M 764.79,209.887 773.598,202.18 z" id="boundary" inkscape:connector-curvature="0" />
	<path style="fill:none;stroke:red;stroke-width:1px;stroke-linecap:butt;stroke-linejoin:miter;stroke-opacity:1" d="M 783.507,196.675 792.315,187.867 z" id="boundary" inkscape:connector-curvature="0" />
	<path style="fill:none;stroke:red;stroke-width:1px;stroke-linecap:butt;stroke-linejoin:miter;stroke-opacity:1" d="M 783.507,196.675 773.598,202.18 z" id="boundary" inkscape:connector-curvature="0" />
	<path style="fill:none;stroke:red;stroke-width:1px;stroke-linecap:butt;stroke-linejoin:miter;stroke-opacity:1" d="M 801.123,180.16 792.315,187.867 z" id="boundary" inkscape:connector-curvature="0" />
	<path style="fill:none;stroke:red;stroke-width:1px;stroke-linecap:butt;stroke-linejoin:miter;stroke-opacity:1" d="M 755.982,218.695 764.79,209.887 z" id="boundary" inkscape:connector-curvature="0" />
	<path style="fill:none;stroke:red;stroke-width:1px;stroke-linecap:butt;stroke-linejoin:miter;stroke-opacity:1" d="M 717.447,246.22 728.457,240.715 z" id="boundary" inkscape:connector-curvature="0" />
	<path style="fill:none;stroke:red;stroke-width:1px;stroke-linecap:butt;stroke-linejoin:miter;stroke-opacity:1" d="M 737.265,231.907 728.457,240.715 z" id="boundary" inkscape:connector-curvature="0" />
	<path style="fill:none;stroke:red;stroke-width:1px;stroke-linecap:butt;stroke-linejoin:miter;stroke-opacity:1" d="M 737.265,231.907 746.073,224.2 z" id="boundary" inkscape:connector-curvature="0" />
	<path style="fill:none;stroke:red;stroke-width:1px;stroke-linecap:butt;stroke-linejoin:miter;stroke-opacity:1" d="M 755.982,218.695 746.073,224.2 z" id="boundary" inkscape:connector-curvature="0" />
	<path style="fill:none;stroke:red;stroke-width:1px;stroke-linecap:butt;stroke-linejoin:miter;stroke-opacity:1" d="M 822.042,169.15 833.052,163.645 z" id="boundary" inkscape:connector-curvature="0" />
	<path style="fill:none;stroke:red;stroke-width:1px;stroke-linecap:butt;stroke-linejoin:miter;stroke-opacity:1" d="M 842.961,158.14 833.052,163.645 z" id="boundary" inkscape:connector-curvature="0" />
	<path style="fill:none;stroke:red;stroke-width:1px;stroke-linecap:butt;stroke-linejoin:miter;stroke-opacity:1" d="M 851.769,150.433 842.961,158.14 z" id="boundary" inkscape:connector-curvature="0" />
	<path style="fill:none;stroke:red;stroke-width:1px;stroke-linecap:butt;stroke-linejoin:miter;stroke-opacity:1" d="M 860.577,141.625 851.769,150.433 z" id="boundary" inkscape:connector-curvature="0" />
	<path style="fill:none;stroke:red;stroke-width:1px;stroke-linecap:butt;stroke-linejoin:miter;stroke-opacity:1" d="M 801.123,180.16 811.032,174.655 z" id="boundary" inkscape:connector-curvature="0" />
	<path style="fill:none;stroke:red;stroke-width:1px;stroke-linecap:butt;stroke-linejoin:miter;stroke-opacity:1" d="M 822.042,169.15 811.032,174.655 z" id="boundary" inkscape:connector-curvature="0" />
	<path style="fill:none;stroke:red;stroke-width:1px;stroke-linecap:butt;stroke-linejoin:miter;stroke-opacity:1" d="M 858.375,236.311 850.668,245.119 z" id="boundary" inkscape:connector-curvature="0" />
	<path style="fill:none;stroke:red;stroke-width:1px;stroke-linecap:butt;stroke-linejoin:miter;stroke-opacity:1" d="M 867.183,228.604 858.375,236.311 z" id="boundary" inkscape:connector-curvature="0" />
	<path style="fill:none;stroke:red;stroke-width:1px;stroke-linecap:butt;stroke-linejoin:miter;stroke-opacity:1" d="M 717.447,246.22 707.538,251.725 z" id="boundary" inkscape:connector-curvature="0" />
	<path style="fill:none;stroke:red;stroke-width:1px;stroke-linecap:butt;stroke-linejoin:miter;stroke-opacity:1" d="M 850.668,245.119 841.86,252.826 z" id="boundary" inkscape:connector-curvature="0" />
	<path style="fill:none;stroke:red;stroke-width:1px;stroke-linecap:butt;stroke-linejoin:miter;stroke-opacity:1" d="M 662.397,290.26 671.205,281.452 z" id="boundary" inkscape:connector-curvature="0" />
	<path style="fill:none;stroke:red;stroke-width:1px;stroke-linecap:butt;stroke-linejoin:miter;stroke-opacity:1" d="M 662.397,290.26 652.488,295.765 z" id="boundary" inkscape:connector-curvature="0" />
	<path style="fill:none;stroke:red;stroke-width:1px;stroke-linecap:butt;stroke-linejoin:miter;stroke-opacity:1" d="M 671.205,281.452 680.013,273.745 z" id="boundary" inkscape:connector-curvature="0" />
	<path style="fill:none;stroke:red;stroke-width:1px;stroke-linecap:butt;stroke-linejoin:miter;stroke-opacity:1" d="M 689.922,268.24 680.013,273.745 z" id="boundary" inkscape:connector-curvature="0" />
	<path style="fill:none;stroke:red;stroke-width:1px;stroke-linecap:butt;stroke-linejoin:miter;stroke-opacity:1" d="M 698.73,259.432 689.922,268.24 z" id="boundary" inkscape:connector-curvature="0" />
	<path style="fill:none;stroke:red;stroke-width:1px;stroke-linecap:butt;stroke-linejoin:miter;stroke-opacity:1" d="M 612.852,317.785 623.862,317.785 z" id="boundary" inkscape:connector-curvature="0" />
	<path style="fill:none;stroke:red;stroke-width:1px;stroke-linecap:butt;stroke-linejoin:miter;stroke-opacity:1" d="M 602.943,323.29 612.852,317.785 z" id="boundary" inkscape:connector-curvature="0" />
	<path style="fill:none;stroke:red;stroke-width:1px;stroke-linecap:butt;stroke-linejoin:miter;stroke-opacity:1" d="M 632.67,308.977 623.862,317.785 z" id="boundary" inkscape:connector-curvature="0" />
	<path style="fill:none;stroke:red;stroke-width:1px;stroke-linecap:butt;stroke-linejoin:miter;stroke-opacity:1" d="M 652.488,295.765 643.68,303.472 z" id="boundary" inkscape:connector-curvature="0" />
	<path style="fill:none;stroke:red;stroke-width:1px;stroke-linecap:butt;stroke-linejoin:miter;stroke-opacity:1" d="M 643.68,303.472 632.67,308.977 z" id="boundary" inkscape:connector-curvature="0" />
	<path style="fill:none;stroke:red;stroke-width:1px;stroke-linecap:butt;stroke-linejoin:miter;stroke-opacity:1" d="M 698.73,259.432 707.538,251.725 z" id="boundary" inkscape:connector-curvature="0" />
	<path style="fill:none;stroke:red;stroke-width:1px;stroke-linecap:butt;stroke-linejoin:miter;stroke-opacity:1" d="M 825.345,269.341 817.638,278.149 z" id="boundary" inkscape:connector-curvature="0" />
	<path style="fill:none;stroke:red;stroke-width:1px;stroke-linecap:butt;stroke-linejoin:miter;stroke-opacity:1" d="M 834.153,261.634 825.345,269.341 z" id="boundary" inkscape:connector-curvature="0" />
	<path style="fill:none;stroke:red;stroke-width:1px;stroke-linecap:butt;stroke-linejoin:miter;stroke-opacity:1" d="M 834.153,261.634 841.86,252.826 z" id="boundary" inkscape:connector-curvature="0" />
	<path style="fill:none;stroke:red;stroke-width:1px;stroke-linecap:butt;stroke-linejoin:miter;stroke-opacity:1" d="M 817.638,278.149 812.133,289.159 z" id="boundary" inkscape:connector-curvature="0" />
	<path style="fill:none;stroke:red;stroke-width:1px;stroke-linecap:butt;stroke-linejoin:miter;stroke-opacity:1" d="M 786.81,313.381 797.82,307.876 z" id="boundary" inkscape:connector-curvature="0" />
	<path style="fill:none;stroke:red;stroke-width:1px;stroke-linecap:butt;stroke-linejoin:miter;stroke-opacity:1" d="M 806.628,300.169 812.133,289.159 z" id="boundary" inkscape:connector-curvature="0" />
	<path style="fill:none;stroke:red;stroke-width:1px;stroke-linecap:butt;stroke-linejoin:miter;stroke-opacity:1" d="M 806.628,300.169 797.82,307.876 z" id="boundary" inkscape:connector-curvature="0" />
	<path style="fill:none;stroke:red;stroke-width:1px;stroke-linecap:butt;stroke-linejoin:miter;stroke-opacity:1" d="M 786.81,313.381 776.901,318.886 z" id="boundary" inkscape:connector-curvature="0" />
	<path style="fill:none;stroke:red;stroke-width:1px;stroke-linecap:butt;stroke-linejoin:miter;stroke-opacity:1" d="M 934.344,67.8579 939.849,56.8479 z" id="boundary" inkscape:connector-curvature="0" />
	<path style="fill:none;stroke:red;stroke-width:1px;stroke-linecap:butt;stroke-linejoin:miter;stroke-opacity:1" d="M 948.657,48.04 939.849,56.8479 z" id="boundary" inkscape:connector-curvature="0" />
	<path style="fill:none;stroke:red;stroke-width:1px;stroke-linecap:butt;stroke-linejoin:miter;stroke-opacity:1" d="M 956.364,29.323 948.657,48.04 z" id="boundary" inkscape:connector-curvature="0" />
	<path style="fill:none;stroke:red;stroke-width:1px;stroke-linecap:butt;stroke-linejoin:miter;stroke-opacity:1" d="M 961.869,18.313 956.364,29.323 z" id="boundary" inkscape:connector-curvature="0" />
	<path style="fill:none;stroke:red;stroke-width:1px;stroke-linecap:butt;stroke-linejoin:miter;stroke-opacity:1" d="M 910.122,92.0799 920.031,86.5749 z" id="boundary" inkscape:connector-curvature="0" />
	<path style="fill:none;stroke:red;stroke-width:1px;stroke-linecap:butt;stroke-linejoin:miter;stroke-opacity:1" d="M 928.839,78.8679 934.344,67.8579 z" id="boundary" inkscape:connector-curvature="0" />
	<path style="fill:none;stroke:red;stroke-width:1px;stroke-linecap:butt;stroke-linejoin:miter;stroke-opacity:1" d="M 928.839,78.8679 920.031,86.5749 z" id="boundary" inkscape:connector-curvature="0" />
	<path style="fill:none;stroke:red;stroke-width:1px;stroke-linecap:butt;stroke-linejoin:miter;stroke-opacity:1" d="M 973.98,82.1709 966.273,96.4839 z" id="boundary" inkscape:connector-curvature="0" />
	<path style="fill:none;stroke:red;stroke-width:1px;stroke-linecap:butt;stroke-linejoin:miter;stroke-opacity:1" d="M 966.273,96.4839 957.465,104.191 z" id="boundary" inkscape:connector-curvature="0" />
	<path style="fill:none;stroke:red;stroke-width:1px;stroke-linecap:butt;stroke-linejoin:miter;stroke-opacity:1" d="M 910.122,92.0799 900.213,97.5849 z" id="boundary" inkscape:connector-curvature="0" />
	<path style="fill:none;stroke:red;stroke-width:1px;stroke-linecap:butt;stroke-linejoin:miter;stroke-opacity:1" d="M 970.677,9.50499 981.687,4 z" id="boundary" inkscape:connector-curvature="0" />
	<path style="fill:none;stroke:red;stroke-width:1px;stroke-linecap:butt;stroke-linejoin:miter;stroke-opacity:1" d="M 981.687,4 984.99,15.01 z" id="boundary" inkscape:connector-curvature="0" />
	<path style="fill:none;stroke:red;stroke-width:1px;stroke-linecap:butt;stroke-linejoin:miter;stroke-opacity:1" d="M 984.99,15.01 984.99,26.02 z" id="boundary" inkscape:connector-curvature="0" />
	<path style="fill:none;stroke:red;stroke-width:1px;stroke-linecap:butt;stroke-linejoin:miter;stroke-opacity:1" d="M 993.798,32.626 984.99,26.02 z" id="boundary" inkscape:connector-curvature="0" />
	<path style="fill:none;stroke:red;stroke-width:1px;stroke-linecap:butt;stroke-linejoin:miter;stroke-opacity:1" d="M 984.99,71.1609 993.798,63.4539 z" id="boundary" inkscape:connector-curvature="0" />
	<path style="fill:none;stroke:red;stroke-width:1px;stroke-linecap:butt;stroke-linejoin:miter;stroke-opacity:1" d="M 984.99,71.1609 973.98,82.1709 z" id="boundary" inkscape:connector-curvature="0" />
	<path style="fill:none;stroke:red;stroke-width:1px;stroke-linecap:butt;stroke-linejoin:miter;stroke-opacity:1" d="M 996,43.636 993.798,63.4539 z" id="boundary" inkscape:connector-curvature="0" />
	<path style="fill:none;stroke:red;stroke-width:1px;stroke-linecap:butt;stroke-linejoin:miter;stroke-opacity:1" d="M 993.798,32.626 996,43.636 z" id="boundary" inkscape:connector-curvature="0" />
	<path style="fill:none;stroke:red;stroke-width:1px;stroke-linecap:butt;stroke-linejoin:miter;stroke-opacity:1" d="M 961.869,18.313 970.677,9.50499 z" id="boundary" inkscape:connector-curvature="0" />
	<path style="fill:none;stroke:red;stroke-width:1px;stroke-linecap:butt;stroke-linejoin:miter;stroke-opacity:1" d="M 869.385,132.817 874.89,121.807 z" id="boundary" inkscape:connector-curvature="0" />
	<path style="fill:none;stroke:red;stroke-width:1px;stroke-linecap:butt;stroke-linejoin:miter;stroke-opacity:1" d="M 869.385,132.817 860.577,141.625 z" id="boundary" inkscape:connector-curvature="0" />
	<path style="fill:none;stroke:red;stroke-width:1px;stroke-linecap:butt;stroke-linejoin:miter;stroke-opacity:1" d="M 896.91,175.756 891.405,192.271 z" id="boundary" inkscape:connector-curvature="0" />
	<path style="fill:none;stroke:red;stroke-width:1px;stroke-linecap:butt;stroke-linejoin:miter;stroke-opacity:1" d="M 891.405,105.292 883.698,114.1 z" id="boundary" inkscape:connector-curvature="0" />
	<path style="fill:none;stroke:red;stroke-width:1px;stroke-linecap:butt;stroke-linejoin:miter;stroke-opacity:1" d="M 883.698,114.1 874.89,121.807 z" id="boundary" inkscape:connector-curvature="0" />
	<path style="fill:none;stroke:red;stroke-width:1px;stroke-linecap:butt;stroke-linejoin:miter;stroke-opacity:1" d="M 867.183,228.604 874.89,219.796 z" id="boundary" inkscape:connector-curvature="0" />
	<path style="fill:none;stroke:red;stroke-width:1px;stroke-linecap:butt;stroke-linejoin:miter;stroke-opacity:1" d="M 874.89,219.796 883.698,212.089 z" id="boundary" inkscape:connector-curvature="0" />
	<path style="fill:none;stroke:red;stroke-width:1px;stroke-linecap:butt;stroke-linejoin:miter;stroke-opacity:1" d="M 891.405,192.271 891.405,203.281 z" id="boundary" inkscape:connector-curvature="0" />
	<path style="fill:none;stroke:red;stroke-width:1px;stroke-linecap:butt;stroke-linejoin:miter;stroke-opacity:1" d="M 891.405,203.281 883.698,212.089 z" id="boundary" inkscape:connector-curvature="0" />
	<path style="fill:none;stroke:red;stroke-width:1px;stroke-linecap:butt;stroke-linejoin:miter;stroke-opacity:1" d="M 935.445,131.716 927.738,140.524 z" id="boundary" inkscape:connector-curvature="0" />
	<path style="fill:none;stroke:red;stroke-width:1px;stroke-linecap:butt;stroke-linejoin:miter;stroke-opacity:1" d="M 944.253,124.009 935.445,131.716 z" id="boundary" inkscape:connector-curvature="0" />
	<path style="fill:none;stroke:red;stroke-width:1px;stroke-linecap:butt;stroke-linejoin:miter;stroke-opacity:1" d="M 951.96,115.201 944.253,124.009 z" id="boundary" inkscape:connector-curvature="0" />
	<path style="fill:none;stroke:red;stroke-width:1px;stroke-linecap:butt;stroke-linejoin:miter;stroke-opacity:1" d="M 951.96,115.201 957.465,104.191 z" id="boundary" inkscape:connector-curvature="0" />
	<path style="fill:none;stroke:red;stroke-width:1px;stroke-linecap:butt;stroke-linejoin:miter;stroke-opacity:1" d="M 896.91,175.756 902.415,164.746 z" id="boundary" inkscape:connector-curvature="0" />
	<path style="fill:none;stroke:red;stroke-width:1px;stroke-linecap:butt;stroke-linejoin:miter;stroke-opacity:1" d="M 902.415,164.746 911.223,157.039 z" id="boundary" inkscape:connector-curvature="0" />
	<path style="fill:none;stroke:red;stroke-width:1px;stroke-linecap:butt;stroke-linejoin:miter;stroke-opacity:1" d="M 911.223,157.039 918.93,148.231 z" id="boundary" inkscape:connector-curvature="0" />
	<path style="fill:none;stroke:red;stroke-width:1px;stroke-linecap:butt;stroke-linejoin:miter;stroke-opacity:1" d="M 918.93,148.231 927.738,140.524 z" id="boundary" inkscape:connector-curvature="0" />
	<path style="fill:none;stroke:red;stroke-width:1px;stroke-linecap:butt;stroke-linejoin:miter;stroke-opacity:1" d="M 891.405,105.292 900.213,97.5849 z" id="boundary" inkscape:connector-curvature="0" />
	<path style="fill:none;stroke:red;stroke-width:1px;stroke-linecap:butt;stroke-linejoin:miter;stroke-opacity:1" d="M 398.158,367.33 387.148,367.33 z" id="boundary" inkscape:connector-curvature="0" />
	<path style="fill:none;stroke:red;stroke-width:1px;stroke-linecap:butt;stroke-linejoin:miter;stroke-opacity:1" d="M 420.178,367.33 409.168,367.33 z" id="boundary" inkscape:connector-curvature="0" />
	<path style="fill:none;stroke:red;stroke-width:1px;stroke-linecap:butt;stroke-linejoin:miter;stroke-opacity:1" d="M 409.168,367.33 398.158,367.33 z" id="boundary" inkscape:connector-curvature="0" />
	<path style="fill:none;stroke:red;stroke-width:1px;stroke-linecap:butt;stroke-linejoin:miter;stroke-opacity:1" d="M 420.178,367.33 431.188,367.33 z" id="boundary" inkscape:connector-curvature="0" />
	<path style="fill:none;stroke:red;stroke-width:1px;stroke-linecap:butt;stroke-linejoin:miter;stroke-opacity:1" d="M 466.42,469.723 455.41,473.026 z" id="boundary" inkscape:connector-curvature="0" />
	<path style="fill:none;stroke:red;stroke-width:1px;stroke-linecap:butt;stroke-linejoin:miter;stroke-opacity:1" d="M 455.41,473.026 444.4,473.026 z" id="boundary" inkscape:connector-curvature="0" />
	<path style="fill:none;stroke:red;stroke-width:1px;stroke-linecap:butt;stroke-linejoin:miter;stroke-opacity:1" d="M 431.188,367.33 442.198,367.33 z" id="boundary" inkscape:connector-curvature="0" />
	<path style="fill:none;stroke:red;stroke-width:1px;stroke-linecap:butt;stroke-linejoin:miter;stroke-opacity:1" d="M 453.208,361.825 442.198,367.33 z" id="boundary" inkscape:connector-curvature="0" />
	<path style="fill:none;stroke:red;stroke-width:1px;stroke-linecap:butt;stroke-linejoin:miter;stroke-opacity:1" d="M 453.208,361.825 464.218,361.825 z" id="boundary" inkscape:connector-curvature="0" />
	<path style="fill:none;stroke:red;stroke-width:1px;stroke-linecap:butt;stroke-linejoin:miter;stroke-opacity:1" d="M 444.4,473.026 434.491,478.531 z" id="boundary" inkscape:connector-curvature="0" />
	<path style="fill:none;stroke:red;stroke-width:1px;stroke-linecap:butt;stroke-linejoin:miter;stroke-opacity:1" d="M 475.228,361.825 464.218,361.825 z" id="boundary" inkscape:connector-curvature="0" />
	<path style="fill:none;stroke:red;stroke-width:1px;stroke-linecap:butt;stroke-linejoin:miter;stroke-opacity:1" d="M 486.238,356.32 475.228,361.825 z" id="boundary" inkscape:connector-curvature="0" />
	<path style="fill:none;stroke:red;stroke-width:1px;stroke-linecap:butt;stroke-linejoin:miter;stroke-opacity:1" d="M 510.459,467.521 499.45,467.521 z" id="boundary" inkscape:connector-curvature="0" />
	<path style="fill:none;stroke:red;stroke-width:1px;stroke-linecap:butt;stroke-linejoin:miter;stroke-opacity:1" d="M 507.156,350.815 497.248,356.32 z" id="boundary" inkscape:connector-curvature="0" />
	<path style="fill:none;stroke:red;stroke-width:1px;stroke-linecap:butt;stroke-linejoin:miter;stroke-opacity:1" d="M 497.248,356.32 486.238,356.32 z" id="boundary" inkscape:connector-curvature="0" />
	<path style="fill:none;stroke:red;stroke-width:1px;stroke-linecap:butt;stroke-linejoin:miter;stroke-opacity:1" d="M 477.43,467.521 466.42,469.723 z" id="boundary" inkscape:connector-curvature="0" />
	<path style="fill:none;stroke:red;stroke-width:1px;stroke-linecap:butt;stroke-linejoin:miter;stroke-opacity:1" d="M 488.44,467.521 477.43,467.521 z" id="boundary" inkscape:connector-curvature="0" />
	<path style="fill:none;stroke:red;stroke-width:1px;stroke-linecap:butt;stroke-linejoin:miter;stroke-opacity:1" d="M 499.45,467.521 488.44,467.521 z" id="boundary" inkscape:connector-curvature="0" />
	<path style="fill:none;stroke:red;stroke-width:1px;stroke-linecap:butt;stroke-linejoin:miter;stroke-opacity:1" d="M 507.156,350.815 518.166,350.815 z" id="boundary" inkscape:connector-curvature="0" />
	<path style="fill:none;stroke:red;stroke-width:1px;stroke-linecap:butt;stroke-linejoin:miter;stroke-opacity:1" d="M 384.946,528.075 394.855,522.57 z" id="boundary" inkscape:connector-curvature="0" />
	<path style="fill:none;stroke:red;stroke-width:1px;stroke-linecap:butt;stroke-linejoin:miter;stroke-opacity:1" d="M 394.855,522.57 404.764,528.075 z" id="boundary" inkscape:connector-curvature="0" />
	<path style="fill:none;stroke:red;stroke-width:1px;stroke-linecap:butt;stroke-linejoin:miter;stroke-opacity:1" d="M 434.491,478.531 439.996,488.44 z" id="boundary" inkscape:connector-curvature="0" />
	<path style="fill:none;stroke:red;stroke-width:1px;stroke-linecap:butt;stroke-linejoin:miter;stroke-opacity:1" d="M 404.764,528.075 415.774,528.075 z" id="boundary" inkscape:connector-curvature="0" />
	<path style="fill:none;stroke:red;stroke-width:1px;stroke-linecap:butt;stroke-linejoin:miter;stroke-opacity:1" d="M 377.239,539.085 384.946,528.075 z" id="boundary" inkscape:connector-curvature="0" />
	<path style="fill:none;stroke:red;stroke-width:1px;stroke-linecap:butt;stroke-linejoin:miter;stroke-opacity:1" d="M 415.774,528.075 426.784,528.075 z" id="boundary" inkscape:connector-curvature="0" />
	<path style="fill:none;stroke:red;stroke-width:1px;stroke-linecap:butt;stroke-linejoin:miter;stroke-opacity:1" d="M 437.794,528.075 426.784,528.075 z" id="boundary" inkscape:connector-curvature="0" />
	<path style="fill:none;stroke:red;stroke-width:1px;stroke-linecap:butt;stroke-linejoin:miter;stroke-opacity:1" d="M 437.794,528.075 448.804,528.075 z" id="boundary" inkscape:connector-curvature="0" />
	<path style="fill:none;stroke:red;stroke-width:1px;stroke-linecap:butt;stroke-linejoin:miter;stroke-opacity:1" d="M 451.006,488.44 460.915,493.945 z" id="boundary" inkscape:connector-curvature="0" />
	<path style="fill:none;stroke:red;stroke-width:1px;stroke-linecap:butt;stroke-linejoin:miter;stroke-opacity:1" d="M 470.824,499.45 481.834,500.55 z" id="boundary" inkscape:connector-curvature="0" />
	<path style="fill:none;stroke:red;stroke-width:1px;stroke-linecap:butt;stroke-linejoin:miter;stroke-opacity:1" d="M 470.824,499.45 460.915,493.945 z" id="boundary" inkscape:connector-curvature="0" />
	<path style="fill:none;stroke:red;stroke-width:1px;stroke-linecap:butt;stroke-linejoin:miter;stroke-opacity:1" d="M 489.541,509.358 481.834,500.55 z" id="boundary" inkscape:connector-curvature="0" />
	<path style="fill:none;stroke:red;stroke-width:1px;stroke-linecap:butt;stroke-linejoin:miter;stroke-opacity:1" d="M 451.006,488.44 439.996,488.44 z" id="boundary" inkscape:connector-curvature="0" />
	<path style="fill:none;stroke:red;stroke-width:1px;stroke-linecap:butt;stroke-linejoin:miter;stroke-opacity:1" d="M 448.804,528.075 459.814,528.075 z" id="boundary" inkscape:connector-curvature="0" />
	<path style="fill:none;stroke:red;stroke-width:1px;stroke-linecap:butt;stroke-linejoin:miter;stroke-opacity:1" d="M 481.834,528.075 470.824,528.075 z" id="boundary" inkscape:connector-curvature="0" />
	<path style="fill:none;stroke:red;stroke-width:1px;stroke-linecap:butt;stroke-linejoin:miter;stroke-opacity:1" d="M 470.824,528.075 459.814,528.075 z" id="boundary" inkscape:connector-curvature="0" />
	<path style="fill:none;stroke:red;stroke-width:1px;stroke-linecap:butt;stroke-linejoin:miter;stroke-opacity:1" d="M 489.541,509.358 491.743,521.469 z" id="boundary" inkscape:connector-curvature="0" />
	<path style="fill:none;stroke:red;stroke-width:1px;stroke-linecap:butt;stroke-linejoin:miter;stroke-opacity:1" d="M 491.743,521.469 481.834,528.075 z" id="boundary" inkscape:connector-curvature="0" />
	<path style="fill:none;stroke:red;stroke-width:1px;stroke-linecap:butt;stroke-linejoin:miter;stroke-opacity:1" d="M 571.014,337.603 582.024,332.098 z" id="boundary" inkscape:connector-curvature="0" />
	<path style="fill:none;stroke:red;stroke-width:1px;stroke-linecap:butt;stroke-linejoin:miter;stroke-opacity:1" d="M 571.014,337.603 560.004,339.805 z" id="boundary" inkscape:connector-curvature="0" />
	<path style="fill:none;stroke:red;stroke-width:1px;stroke-linecap:butt;stroke-linejoin:miter;stroke-opacity:1" d="M 593.034,328.795 602.943,323.29 z" id="boundary" inkscape:connector-curvature="0" />
	<path style="fill:none;stroke:red;stroke-width:1px;stroke-linecap:butt;stroke-linejoin:miter;stroke-opacity:1" d="M 593.034,328.795 582.024,332.098 z" id="boundary" inkscape:connector-curvature="0" />
	<path style="fill:none;stroke:red;stroke-width:1px;stroke-linecap:butt;stroke-linejoin:miter;stroke-opacity:1" d="M 518.166,350.815 528.075,345.31 z" id="boundary" inkscape:connector-curvature="0" />
	<path style="fill:none;stroke:red;stroke-width:1px;stroke-linecap:butt;stroke-linejoin:miter;stroke-opacity:1" d="M 528.075,345.31 539.085,345.31 z" id="boundary" inkscape:connector-curvature="0" />
	<path style="fill:none;stroke:red;stroke-width:1px;stroke-linecap:butt;stroke-linejoin:miter;stroke-opacity:1" d="M 539.085,345.31 548.994,339.805 z" id="boundary" inkscape:connector-curvature="0" />
	<path style="fill:none;stroke:red;stroke-width:1px;stroke-linecap:butt;stroke-linejoin:miter;stroke-opacity:1" d="M 548.994,339.805 560.004,339.805 z" id="boundary" inkscape:connector-curvature="0" />
	<path style="fill:none;stroke:red;stroke-width:1px;stroke-linecap:butt;stroke-linejoin:miter;stroke-opacity:1" d="M 747.174,335.401 757.083,329.896 z" id="boundary" inkscape:connector-curvature="0" />
	<path style="fill:none;stroke:red;stroke-width:1px;stroke-linecap:butt;stroke-linejoin:miter;stroke-opacity:1" d="M 747.174,335.401 737.265,340.906 z" id="boundary" inkscape:connector-curvature="0" />
	<path style="fill:none;stroke:red;stroke-width:1px;stroke-linecap:butt;stroke-linejoin:miter;stroke-opacity:1" d="M 766.992,324.391 776.901,318.886 z" id="boundary" inkscape:connector-curvature="0" />
	<path style="fill:none;stroke:red;stroke-width:1px;stroke-linecap:butt;stroke-linejoin:miter;stroke-opacity:1" d="M 766.992,324.391 757.083,329.896 z" id="boundary" inkscape:connector-curvature="0" />
	<path style="fill:none;stroke:red;stroke-width:1px;stroke-linecap:butt;stroke-linejoin:miter;stroke-opacity:1" d="M 704.235,379.441 715.245,373.936 z" id="boundary" inkscape:connector-curvature="0" />
	<path style="fill:none;stroke:red;stroke-width:1px;stroke-linecap:butt;stroke-linejoin:miter;stroke-opacity:1" d="M 694.326,384.946 704.235,379.441 z" id="boundary" inkscape:connector-curvature="0" />
	<path style="fill:none;stroke:red;stroke-width:1px;stroke-linecap:butt;stroke-linejoin:miter;stroke-opacity:1" d="M 729.558,355.219 737.265,340.906 z" id="boundary" inkscape:connector-curvature="0" />
	<path style="fill:none;stroke:red;stroke-width:1px;stroke-linecap:butt;stroke-linejoin:miter;stroke-opacity:1" d="M 729.558,355.219 724.053,366.229 z" id="boundary" inkscape:connector-curvature="0" />
	<path style="fill:none;stroke:red;stroke-width:1px;stroke-linecap:butt;stroke-linejoin:miter;stroke-opacity:1" d="M 724.053,366.229 715.245,373.936 z" id="boundary" inkscape:connector-curvature="0" />
	<path style="fill:none;stroke:red;stroke-width:1px;stroke-linecap:butt;stroke-linejoin:miter;stroke-opacity:1" d="M 694.326,384.946 684.417,390.451 z" id="boundary" inkscape:connector-curvature="0" />
	<path style="fill:none;stroke:red;stroke-width:1px;stroke-linecap:butt;stroke-linejoin:miter;stroke-opacity:1" d="M 563.307,456.511 574.317,455.41 z" id="boundary" inkscape:connector-curvature="0" />
	<path style="fill:none;stroke:red;stroke-width:1px;stroke-linecap:butt;stroke-linejoin:miter;stroke-opacity:1" d="M 553.398,462.016 563.307,456.511 z" id="boundary" inkscape:connector-curvature="0" />
	<path style="fill:none;stroke:red;stroke-width:1px;stroke-linecap:butt;stroke-linejoin:miter;stroke-opacity:1" d="M 583.125,445.501 574.317,455.41 z" id="boundary" inkscape:connector-curvature="0" />
	<path style="fill:none;stroke:red;stroke-width:1px;stroke-linecap:butt;stroke-linejoin:miter;stroke-opacity:1" d="M 583.125,445.501 594.135,439.996 z" id="boundary" inkscape:connector-curvature="0" />
	<path style="fill:none;stroke:red;stroke-width:1px;stroke-linecap:butt;stroke-linejoin:miter;stroke-opacity:1" d="M 510.459,467.521 521.469,467.521 z" id="boundary" inkscape:connector-curvature="0" />
	<path style="fill:none;stroke:red;stroke-width:1px;stroke-linecap:butt;stroke-linejoin:miter;stroke-opacity:1" d="M 531.378,462.016 521.469,467.521 z" id="boundary" inkscape:connector-curvature="0" />
	<path style="fill:none;stroke:red;stroke-width:1px;stroke-linecap:butt;stroke-linejoin:miter;stroke-opacity:1" d="M 531.378,462.016 542.388,462.016 z" id="boundary" inkscape:connector-curvature="0" />
	<path style="fill:none;stroke:red;stroke-width:1px;stroke-linecap:butt;stroke-linejoin:miter;stroke-opacity:1" d="M 553.398,462.016 542.388,462.016 z" id="boundary" inkscape:connector-curvature="0" />
	<path style="fill:none;stroke:red;stroke-width:1px;stroke-linecap:butt;stroke-linejoin:miter;stroke-opacity:1" d="M 642.579,412.471 651.387,405.865 z" id="boundary" inkscape:connector-curvature="0" />
	<path style="fill:none;stroke:red;stroke-width:1px;stroke-linecap:butt;stroke-linejoin:miter;stroke-opacity:1" d="M 651.387,405.865 662.397,400.36 z" id="boundary" inkscape:connector-curvature="0" />
	<path style="fill:none;stroke:red;stroke-width:1px;stroke-linecap:butt;stroke-linejoin:miter;stroke-opacity:1" d="M 673.407,394.855 662.397,400.36 z" id="boundary" inkscape:connector-curvature="0" />
	<path style="fill:none;stroke:red;stroke-width:1px;stroke-linecap:butt;stroke-linejoin:miter;stroke-opacity:1" d="M 673.407,394.855 684.417,390.451 z" id="boundary" inkscape:connector-curvature="0" />
	<path style="fill:none;stroke:red;stroke-width:1px;stroke-linecap:butt;stroke-linejoin:miter;stroke-opacity:1" d="M 604.044,434.491 615.054,434.491 z" id="boundary" inkscape:connector-curvature="0" />
	<path style="fill:none;stroke:red;stroke-width:1px;stroke-linecap:butt;stroke-linejoin:miter;stroke-opacity:1" d="M 594.135,439.996 604.044,434.491 z" id="boundary" inkscape:connector-curvature="0" />
	<path style="fill:none;stroke:red;stroke-width:1px;stroke-linecap:butt;stroke-linejoin:miter;stroke-opacity:1" d="M 623.862,427.885 615.054,434.491 z" id="boundary" inkscape:connector-curvature="0" />
	<path style="fill:none;stroke:red;stroke-width:1px;stroke-linecap:butt;stroke-linejoin:miter;stroke-opacity:1" d="M 623.862,427.885 632.67,417.976 z" id="boundary" inkscape:connector-curvature="0" />
	<path style="fill:none;stroke:red;stroke-width:1px;stroke-linecap:butt;stroke-linejoin:miter;stroke-opacity:1" d="M 632.67,417.976 642.579,412.471 z" id="boundary" inkscape:connector-curvature="0" />
	<circle cx="4" cy="282.553" r="4" fill="#0" id="circle0"/>
	<circle cx="9.50499" cy="292.462" r="4" fill="#0" id="circle1"/>
	<circle cx="15.01" cy="277.048" r="4" fill="#0" id="circle2"/>
	<circle cx="20.515" cy="296.866" r="4" fill="#0" id="circle3"/>
	<circle cx="26.02" cy="273.745" r="4" fill="#0" id="circle4"/>
	<circle cx="30.424" cy="302.371" r="4" fill="#0" id="circle5"/>
	<circle cx="37.03" cy="273.745" r="4" fill="#0" id="circle6"/>
	<circle cx="41.434" cy="302.371" r="4" fill="#0" id="circle7"/>
	<circle cx="48.04" cy="273.745" r="4" fill="#0" id="circle8"/>
	<circle cx="51.343" cy="307.876" r="4" fill="#0" id="circle9"/>
	<circle cx="59.0499" cy="273.745" r="4" fill="#0" id="circle10"/>
	<circle cx="60.1509" cy="315.583" r="4" fill="#0" id="circle11"/>
	<circle cx="64.5549" cy="326.593" r="4" fill="#0" id="circle12"/>
	<circle cx="70.0599" cy="271.543" r="4" fill="#0" id="circle13"/>
	<circle cx="70.0599" cy="336.502" r="4" fill="#0" id="circle14"/>
	<circle cx="75.5649" cy="346.411" r="4" fill="#0" id="circle15"/>
	<circle cx="78.8679" cy="262.735" r="4" fill="#0" id="circle16"/>
	<circle cx="81.0699" cy="356.32" r="4" fill="#0" id="circle17"/>
	<circle cx="86.5749" cy="366.229" r="4" fill="#0" id="circle18"/>
	<circle cx="86.5749" cy="377.239" r="4" fill="#0" id="circle19"/>
	<circle cx="86.5749" cy="388.249" r="4" fill="#0" id="circle20"/>
	<circle cx="86.5749" cy="399.259" r="4" fill="#0" id="circle21"/>
	<circle cx="86.5749" cy="410.269" r="4" fill="#0" id="circle22"/>
	<circle cx="87.6759" cy="253.927" r="4" fill="#0" id="circle23"/>
	<circle cx="92.0799" cy="420.178" r="4" fill="#0" id="circle24"/>
	<circle cx="92.0799" cy="431.188" r="4" fill="#0" id="circle25"/>
	<circle cx="92.0799" cy="442.198" r="4" fill="#0" id="circle26"/>
	<circle cx="97.5849" cy="452.107" r="4" fill="#0" id="circle27"/>
	<circle cx="98.6859" cy="248.422" r="4" fill="#0" id="circle28"/>
	<circle cx="103.09" cy="462.016" r="4" fill="#0" id="circle29"/>
	<circle cx="106.393" cy="473.026" r="4" fill="#0" id="circle30"/>
	<circle cx="109.696" cy="246.22" r="4" fill="#0" id="circle31"/>
	<circle cx="111.898" cy="482.935" r="4" fill="#0" id="circle32"/>
	<circle cx="119.605" cy="491.743" r="4" fill="#0" id="circle33"/>
	<circle cx="120.706" cy="246.22" r="4" fill="#0" id="circle34"/>
	<circle cx="130.615" cy="495.046" r="4" fill="#0" id="circle35"/>
	<circle cx="131.716" cy="246.22" r="4" fill="#0" id="circle36"/>
	<circle cx="137.221" cy="503.853" r="4" fill="#0" id="circle37"/>
	<circle cx="141.625" cy="673.407" r="4" fill="#0" id="circle38"/>
	<circle cx="141.625" cy="684.417" r="4" fill="#0" id="circle39"/>
	<circle cx="142.726" cy="246.22" r="4" fill="#0" id="circle40"/>
	<circle cx="148.231" cy="508.257" r="4" fill="#0" id="circle41"/>
	<circle cx="150.433" cy="664.599" r="4" fill="#0" id="circle42"/>
	<circle cx="152.635" cy="251.725" r="4" fill="#0" id="circle43"/>
	<circle cx="152.635" cy="687.72" r="4" fill="#0" id="circle44"/>
	<circle cx="155.938" cy="517.065" r="4" fill="#0" id="circle45"/>
	<circle cx="159.241" cy="655.791" r="4" fill="#0" id="circle46"/>
	<circle cx="162.544" cy="257.23" r="4" fill="#0" id="circle47"/>
	<circle cx="162.544" cy="693.225" r="4" fill="#0" id="circle48"/>
	<circle cx="165.847" cy="522.57" r="4" fill="#0" id="circle49"/>
	<circle cx="170.251" cy="653.589" r="4" fill="#0" id="circle50"/>
	<circle cx="172.453" cy="687.72" r="4" fill="#0" id="circle51"/>
	<circle cx="173.554" cy="258.331" r="4" fill="#0" id="circle52"/>
	<circle cx="176.857" cy="525.873" r="4" fill="#0" id="circle53"/>
	<circle cx="181.261" cy="267.139" r="4" fill="#0" id="circle54"/>
	<circle cx="181.261" cy="653.589" r="4" fill="#0" id="circle55"/>
	<circle cx="182.362" cy="682.215" r="4" fill="#0" id="circle56"/>
	<circle cx="185.665" cy="533.58" r="4" fill="#0" id="circle57"/>
	<circle cx="192.271" cy="271.543" r="4" fill="#0" id="circle58"/>
	<circle cx="192.271" cy="650.286" r="4" fill="#0" id="circle59"/>
	<circle cx="193.372" cy="682.215" r="4" fill="#0" id="circle60"/>
	<circle cx="195.574" cy="539.085" r="4" fill="#0" id="circle61"/>
	<circle cx="196.675" cy="282.553" r="4" fill="#0" id="circle62"/>
	<circle cx="201.079" cy="642.579" r="4" fill="#0" id="circle63"/>
	<circle cx="203.281" cy="291.361" r="4" fill="#0" id="circle64"/>
	<circle cx="203.281" cy="671.205" r="4" fill="#0" id="circle65"/>
	<circle cx="205.483" cy="544.59" r="4" fill="#0" id="circle66"/>
	<circle cx="208.786" cy="301.27" r="4" fill="#0" id="circle67"/>
	<circle cx="208.786" cy="633.771" r="4" fill="#0" id="circle68"/>
	<circle cx="212.089" cy="663.498" r="4" fill="#0" id="circle69"/>
	<circle cx="215.392" cy="550.095" r="4" fill="#0" id="circle70"/>
	<circle cx="217.594" cy="307.876" r="4" fill="#0" id="circle71"/>
	<circle cx="217.594" cy="626.064" r="4" fill="#0" id="circle72"/>
	<circle cx="219.796" cy="649.185" r="4" fill="#0" id="circle73"/>
	<circle cx="225.301" cy="316.684" r="4" fill="#0" id="circle74"/>
	<circle cx="225.301" cy="617.256" r="4" fill="#0" id="circle75"/>
	<circle cx="226.402" cy="550.095" r="4" fill="#0" id="circle76"/>
	<circle cx="228.604" cy="641.478" r="4" fill="#0" id="circle77"/>
	<circle cx="234.109" cy="609.549" r="4" fill="#0" id="circle78"/>
	<circle cx="236.311" cy="317.785" r="4" fill="#0" id="circle79"/>
	<circle cx="236.311" cy="555.6" r="4" fill="#0" id="circle80"/>
	<circle cx="236.311" cy="632.67" r="4" fill="#0" id="circle81"/>
	<circle cx="240.715" cy="673.407" r="4" fill="#0" id="circle82"/>
	<circle cx="241.816" cy="600.741" r="4" fill="#0" id="circle83"/>
	<circle cx="245.119" cy="624.963" r="4" fill="#0" id="circle84"/>
	<circle cx="246.22" cy="323.29" r="4" fill="#0" id="circle85"/>
	<circle cx="246.22" cy="585.327" r="4" fill="#0" id="circle86"/>
	<circle cx="247.321" cy="557.802" r="4" fill="#0" id="circle87"/>
	<circle cx="249.523" cy="681.114" r="4" fill="#0" id="circle88"/>
	<circle cx="251.725" cy="568.812" r="4" fill="#0" id="circle89"/>
	<circle cx="251.725" cy="667.902" r="4" fill="#0" id="circle90"/>
	<circle cx="252.826" cy="616.155" r="4" fill="#0" id="circle91"/>
	<circle cx="255.028" cy="329.896" r="4" fill="#0" id="circle92"/>
	<circle cx="259.432" cy="686.619" r="4" fill="#0" id="circle93"/>
	<circle cx="262.735" cy="664.599" r="4" fill="#0" id="circle94"/>
	<circle cx="263.836" cy="610.65" r="4" fill="#0" id="circle95"/>
	<circle cx="266.038" cy="334.3" r="4" fill="#0" id="circle96"/>
	<circle cx="269.341" cy="577.62" r="4" fill="#0" id="circle97"/>
	<circle cx="269.341" cy="588.63" r="4" fill="#0" id="circle98"/>
	<circle cx="269.341" cy="599.64" r="4" fill="#0" id="circle99"/>
	<circle cx="270.442" cy="687.72" r="4" fill="#0" id="circle100"/>
	<circle cx="272.644" cy="659.094" r="4" fill="#0" id="circle101"/>
	<circle cx="274.846" cy="566.61" r="4" fill="#0" id="circle102"/>
	<circle cx="275.947" cy="339.805" r="4" fill="#0" id="circle103"/>
	<circle cx="281.452" cy="687.72" r="4" fill="#0" id="circle104"/>
	<circle cx="283.654" cy="659.094" r="4" fill="#0" id="circle105"/>
	<circle cx="285.856" cy="345.31" r="4" fill="#0" id="circle106"/>
	<circle cx="285.856" cy="561.105" r="4" fill="#0" id="circle107"/>
	<circle cx="291.361" cy="650.286" r="4" fill="#0" id="circle108"/>
	<circle cx="292.462" cy="685.518" r="4" fill="#0" id="circle109"/>
	<circle cx="295.765" cy="350.815" r="4" fill="#0" id="circle110"/>
	<circle cx="295.765" cy="566.61" r="4" fill="#0" id="circle111"/>
	<circle cx="300.169" cy="642.579" r="4" fill="#0" id="circle112"/>
	<circle cx="301.27" cy="576.519" r="4" fill="#0" id="circle113"/>
	<circle cx="302.371" cy="691.023" r="4" fill="#0" id="circle114"/>
	<circle cx="304.573" cy="357.421" r="4" fill="#0" id="circle115"/>
	<circle cx="304.573" cy="631.569" r="4" fill="#0" id="circle116"/>
	<circle cx="306.775" cy="618.357" r="4" fill="#0" id="circle117"/>
	<circle cx="307.876" cy="585.327" r="4" fill="#0" id="circle118"/>
	<circle cx="312.28" cy="596.337" r="4" fill="#0" id="circle119"/>
	<circle cx="312.28" cy="607.347" r="4" fill="#0" id="circle120"/>
	<circle cx="313.381" cy="643.68" r="4" fill="#0" id="circle121"/>
	<circle cx="313.381" cy="654.69" r="4" fill="#0" id="circle122"/>
	<circle cx="313.381" cy="693.225" r="4" fill="#0" id="circle123"/>
	<circle cx="315.583" cy="361.825" r="4" fill="#0" id="circle124"/>
	<circle cx="315.583" cy="665.7" r="4" fill="#0" id="circle125"/>
	<circle cx="318.886" cy="561.105" r="4" fill="#0" id="circle126"/>
	<circle cx="318.886" cy="632.67" r="4" fill="#0" id="circle127"/>
	<circle cx="321.088" cy="675.609" r="4" fill="#0" id="circle128"/>
	<circle cx="324.391" cy="550.095" r="4" fill="#0" id="circle129"/>
	<circle cx="324.391" cy="571.014" r="4" fill="#0" id="circle130"/>
	<circle cx="324.391" cy="621.66" r="4" fill="#0" id="circle131"/>
	<circle cx="324.391" cy="693.225" r="4" fill="#0" id="circle132"/>
	<circle cx="325.492" cy="367.33" r="4" fill="#0" id="circle133"/>
	<circle cx="329.896" cy="580.923" r="4" fill="#0" id="circle134"/>
	<circle cx="329.896" cy="591.933" r="4" fill="#0" id="circle135"/>
	<circle cx="329.896" cy="610.65" r="4" fill="#0" id="circle136"/>
	<circle cx="330.997" cy="681.114" r="4" fill="#0" id="circle137"/>
	<circle cx="335.401" cy="372.835" r="4" fill="#0" id="circle138"/>
	<circle cx="335.401" cy="550.095" r="4" fill="#0" id="circle139"/>
	<circle cx="344.209" cy="542.388" r="4" fill="#0" id="circle140"/>
	<circle cx="346.411" cy="376.138" r="4" fill="#0" id="circle141"/>
	<circle cx="355.219" cy="536.883" r="4" fill="#0" id="circle142"/>
	<circle cx="356.32" cy="381.643" r="4" fill="#0" id="circle143"/>
	<circle cx="366.229" cy="539.085" r="4" fill="#0" id="circle144"/>
	<circle cx="367.33" cy="378.34" r="4" fill="#0" id="circle145"/>
	<circle cx="377.239" cy="372.835" r="4" fill="#0" id="circle146"/>
	<circle cx="377.239" cy="539.085" r="4" fill="#0" id="circle147"/>
	<circle cx="384.946" cy="528.075" r="4" fill="#0" id="circle148"/>
	<circle cx="387.148" cy="367.33" r="4" fill="#0" id="circle149"/>
	<circle cx="394.855" cy="522.57" r="4" fill="#0" id="circle150"/>
	<circle cx="398.158" cy="367.33" r="4" fill="#0" id="circle151"/>
	<circle cx="404.764" cy="528.075" r="4" fill="#0" id="circle152"/>
	<circle cx="409.168" cy="367.33" r="4" fill="#0" id="circle153"/>
	<circle cx="415.774" cy="528.075" r="4" fill="#0" id="circle154"/>
	<circle cx="420.178" cy="367.33" r="4" fill="#0" id="circle155"/>
	<circle cx="426.784" cy="528.075" r="4" fill="#0" id="circle156"/>
	<circle cx="431.188" cy="367.33" r="4" fill="#0" id="circle157"/>
	<circle cx="434.491" cy="478.531" r="4" fill="#0" id="circle158"/>
	<circle cx="437.794" cy="528.075" r="4" fill="#0" id="circle159"/>
	<circle cx="439.996" cy="488.44" r="4" fill="#0" id="circle160"/>
	<circle cx="442.198" cy="367.33" r="4" fill="#0" id="circle161"/>
	<circle cx="444.4" cy="473.026" r="4" fill="#0" id="circle162"/>
	<circle cx="448.804" cy="528.075" r="4" fill="#0" id="circle163"/>
	<circle cx="451.006" cy="488.44" r="4" fill="#0" id="circle164"/>
	<circle cx="453.208" cy="361.825" r="4" fill="#0" id="circle165"/>
	<circle cx="455.41" cy="473.026" r="4" fill="#0" id="circle166"/>
	<circle cx="459.814" cy="528.075" r="4" fill="#0" id="circle167"/>
	<circle cx="460.915" cy="493.945" r="4" fill="#0" id="circle168"/>
	<circle cx="464.218" cy="361.825" r="4" fill="#0" id="circle169"/>
	<circle cx="466.42" cy="469.723" r="4" fill="#0" id="circle170"/>
	<circle cx="470.824" cy="499.45" r="4" fill="#0" id="circle171"/>
	<circle cx="470.824" cy="528.075" r="4" fill="#0" id="circle172"/>
	<circle cx="475.228" cy="361.825" r="4" fill="#0" id="circle173"/>
	<circle cx="477.43" cy="467.521" r="4" fill="#0" id="circle174"/>
	<circle cx="481.834" cy="500.55" r="4" fill="#0" id="circle175"/>
	<circle cx="481.834" cy="528.075" r="4" fill="#0" id="circle176"/>
	<circle cx="486.238" cy="356.32" r="4" fill="#0" id="circle177"/>
	<circle cx="488.44" cy="467.521" r="4" fill="#0" id="circle178"/>
	<circle cx="489.541" cy="509.358" r="4" fill="#0" id="circle179"/>
	<circle cx="491.743" cy="521.469" r="4" fill="#0" id="circle180"/>
	<circle cx="497.248" cy="356.32" r="4" fill="#0" id="circle181"/>
	<circle cx="499.45" cy="467.521" r="4" fill="#0" id="circle182"/>
	<circle cx="507.156" cy="350.815" r="4" fill="#0" id="circle183"/>
	<circle cx="510.459" cy="467.521" r="4" fill="#0" id="circle184"/>
	<circle cx="518.166" cy="350.815" r="4" fill="#0" id="circle185"/>
	<circle cx="521.469" cy="467.521" r="4" fill="#0" id="circle186"/>
	<circle cx="528.075" cy="345.31" r="4" fill="#0" id="circle187"/>
	<circle cx="531.378" cy="462.016" r="4" fill="#0" id="circle188"/>
	<circle cx="539.085" cy="345.31" r="4" fill="#0" id="circle189"/>
	<circle cx="542.388" cy="462.016" r="4" fill="#0" id="circle190"/>
	<circle cx="548.994" cy="339.805" r="4" fill="#0" id="circle191"/>
	<circle cx="553.398" cy="462.016" r="4" fill="#0" id="circle192"/>
	<circle cx="560.004" cy="339.805" r="4" fill="#0" id="circle193"/>
	<circle cx="563.307" cy="456.511" r="4" fill="#0" id="circle194"/>
	<circle cx="571.014" cy="337.603" r="4" fill="#0" id="circle195"/>
	<circle cx="574.317" cy="455.41" r="4" fill="#0" id="circle196"/>
	<circle cx="582.024" cy="332.098" r="4" fill="#0" id="circle197"/>
	<circle cx="583.125" cy="445.501" r="4" fill="#0" id="circle198"/>
	<circle cx="593.034" cy="328.795" r="4" fill="#0" id="circle199"/>
	<circle cx="594.135" cy="439.996" r="4" fill="#0" id="circle200"/>
	<circle cx="602.943" cy="323.29" r="4" fill="#0" id="circle201"/>
	<circle cx="604.044" cy="434.491" r="4" fill="#0" id="circle202"/>
	<circle cx="612.852" cy="317.785" r="4" fill="#0" id="circle203"/>
	<circle cx="615.054" cy="434.491" r="4" fill="#0" id="circle204"/>
	<circle cx="623.862" cy="317.785" r="4" fill="#0" id="circle205"/>
	<circle cx="623.862" cy="427.885" r="4" fill="#0" id="circle206"/>
	<circle cx="632.67" cy="308.977" r="4" fill="#0" id="circle207"/>
	<circle cx="632.67" cy="417.976" r="4" fill="#0" id="circle208"/>
	<circle cx="642.579" cy="412.471" r="4" fill="#0" id="circle209"/>
	<circle cx="643.68" cy="303.472" r="4" fill="#0" id="circle210"/>
	<circle cx="651.387" cy="405.865" r="4" fill="#0" id="circle211"/>
	<circle cx="652.488" cy="295.765" r="4" fill="#0" id="circle212"/>
	<circle cx="662.397" cy="290.26" r="4" fill="#0" id="circle213"/>
	<circle cx="662.397" cy="400.36" r="4" fill="#0" id="circle214"/>
	<circle cx="671.205" cy="281.452" r="4" fill="#0" id="circle215"/>
	<circle cx="673.407" cy="394.855" r="4" fill="#0" id="circle216"/>
	<circle cx="680.013" cy="273.745" r="4" fill="#0" id="circle217"/>
	<circle cx="684.417" cy="390.451" r="4" fill="#0" id="circle218"/>
	<circle cx="689.922" cy="268.24" r="4" fill="#0" id="circle219"/>
	<circle cx="694.326" cy="384.946" r="4" fill="#0" id="circle220"/>
	<circle cx="698.73" cy="259.432" r="4" fill="#0" id="circle221"/>
	<circle cx="704.235" cy="379.441" r="4" fill="#0" id="circle222"/>
	<circle cx="707.538" cy="251.725" r="4" fill="#0" id="circle223"/>
	<circle cx="715.245" cy="373.936" r="4" fill="#0" id="circle224"/>
	<circle cx="717.447" cy="246.22" r="4" fill="#0" id="circle225"/>
	<circle cx="724.053" cy="366.229" r="4" fill="#0" id="circle226"/>
	<circle cx="728.457" cy="240.715" r="4" fill="#0" id="circle227"/>
	<circle cx="729.558" cy="355.219" r="4" fill="#0" id="circle228"/>
	<circle cx="737.265" cy="231.907" r="4" fill="#0" id="circle229"/>
	<circle cx="737.265" cy="340.906" r="4" fill="#0" id="circle230"/>
	<circle cx="746.073" cy="224.2" r="4" fill="#0" id="circle231"/>
	<circle cx="747.174" cy="335.401" r="4" fill="#0" id="circle232"/>
	<circle cx="755.982" cy="218.695" r="4" fill="#0" id="circle233"/>
	<circle cx="757.083" cy="329.896" r="4" fill="#0" id="circle234"/>
	<circle cx="764.79" cy="209.887" r="4" fill="#0" id="circle235"/>
	<circle cx="766.992" cy="324.391" r="4" fill="#0" id="circle236"/>
	<circle cx="773.598" cy="202.18" r="4" fill="#0" id="circle237"/>
	<circle cx="776.901" cy="318.886" r="4" fill="#0" id="circle238"/>
	<circle cx="783.507" cy="196.675" r="4" fill="#0" id="circle239"/>
	<circle cx="786.81" cy="313.381" r="4" fill="#0" id="circle240"/>
	<circle cx="792.315" cy="187.867" r="4" fill="#0" id="circle241"/>
	<circle cx="797.82" cy="307.876" r="4" fill="#0" id="circle242"/>
	<circle cx="801.123" cy="180.16" r="4" fill="#0" id="circle243"/>
	<circle cx="806.628" cy="300.169" r="4" fill="#0" id="circle244"/>
	<circle cx="811.032" cy="174.655" r="4" fill="#0" id="circle245"/>
	<circle cx="812.133" cy="289.159" r="4" fill="#0" id="circle246"/>
	<circle cx="817.638" cy="278.149" r="4" fill="#0" id="circle247"/>
	<circle cx="822.042" cy="169.15" r="4" fill="#0" id="circle248"/>
	<circle cx="825.345" cy="269.341" r="4" fill="#0" id="circle249"/>
	<circle cx="833.052" cy="163.645" r="4" fill="#0" id="circle250"/>
	<circle cx="834.153" cy="261.634" r="4" fill="#0" id="circle251"/>
	<circle cx="841.86" cy="252.826" r="4" fill="#0" id="circle252"/>
	<circle cx="842.961" cy="158.14" r="4" fill="#0" id="circle253"/>
	<circle cx="850.668" cy="245.119" r="4" fill="#0" id="circle254"/>
	<circle cx="851.769" cy="150.433" r="4" fill="#0" id="circle255"/>
	<circle cx="858.375" cy="236.311" r="4" fill="#0" id="circle256"/>
	<circle cx="860.577" cy="141.625" r="4" fill="#0" id="circle257"/>
	<circle cx="867.183" cy="228.604" r="4" fill="#0" id="circle258"/>
	<circle cx="869.385" cy="132.817" r="4" fill="#0" id="circle259"/>
	<circle cx="874.89" cy="121.807" r="4" fill="#0" id="circle260"/>
	<circle cx="874.89" cy="219.796" r="4" fill="#0" id="circle261"/>
	<circle cx="883.698" cy="114.1" r="4" fill="#0" id="circle262"/>
	<circle cx="883.698" cy="212.089" r="4" fill="#0" id="circle263"/>
	<circle cx="891.405" cy="105.292" r="4" fill="#0" id="circle264"/>
	<circle cx="891.405" cy="192.271" r="4" fill="#0" id="circle265"/>
	<circle cx="891.405" cy="203.281" r="4" fill="#0" id="circle266"/>
	<circle cx="896.91" cy="175.756" r="4" fill="#0" id="circle267"/>
	<circle cx="900.213" cy="97.5849" r="4" fill="#0" id="circle268"/>
	<circle cx="902.415" cy="164.746" r="4" fill="#0" id="circle269"/>
	<circle cx="910.122" cy="92.0799" r="4" fill="#0" id="circle270"/>
	<circle cx="911.223" cy="157.039" r="4" fill="#0" id="circle271"/>
	<circle cx="918.93" cy="148.231" r="4" fill="#0" id="circle272"/>
	<circle cx="920.031" cy="86.5749" r="4" fill="#0" id="circle273"/>
	<circle cx="927.738" cy="140.524" r="4" fill="#0" id="circle274"/>
	<circle cx="928.839" cy="78.8679" r="4" fill="#0" id="circle275"/>
	<circle cx="934.344" cy="67.8579" r="4" fill="#0" id="circle276"/>
	<circle cx="935.445" cy="131.716" r="4" fill="#0" id="circle277"/>
	<circle cx="939.849" cy="56.8479" r="4" fill="#0" id="circle278"/>
	<circle cx="944.253" cy="124.009" r="4" fill="#0" id="circle279"/>
	<circle cx="948.657" cy="48.04" r="4" fill="#0" id="circle280"/>
	<circle cx="951.96" cy="115.201" r="4" fill="#0" id="circle281"/>
	<circle cx="956.364" cy="29.323" r="4" fill="#0" id="circle282"/>
	<circle cx="957.465" cy="104.191" r="4" fill="#0" id="circle283"/>
	<circle cx="961.869" cy="18.313" r="4" fill="#0" id="circle284"/>
	<circle cx="966.273" cy="96.4839" r="4" fill="#0" id="circle285"/>
	<circle cx="970.677" cy="9.50499" r="4" fill="#0" id="circle286"/>
	<circle cx="973.98" cy="82.1709" r="4" fill="#0" id="circle287"/>
	<circle cx="981.687" cy="4" r="4" fill="#0" id="circle288"/>
	<circle cx="984.99" cy="15.01" r="4" fill="#0" id="circle289"/>
	<circle cx="984.99" cy="26.02" r="4" fill="#0" id="circle290"/>
	<circle cx="984.99" cy="71.1609" r="4" fill="#0" id="circle291"/>
	<circle cx="993.798" cy="32.626" r="4" fill="#0" id="circle292"/>
	<circle cx="993.798" cy="63.4539" r="4" fill="#0" id="circle293"/>
	<circle cx="996" cy="43.636" r="4" fill="#0" id="circle294"/>
	</g>
</svg>