<?xml version="1.0" encoding="UTF-8" standalone="no"?>
<!-- Created with CurveBenchmark -->
<svg
	xmlns:dc="http://purl.org/dc/elements/1.1/"
	xmlns:cc="http://creativecommons.org/ns#"
	xmlns:rdf="http://www.w3.org/1999/02/22-rdf-syntax-ns#"
	xmlns:svg="http://www.w3.org/2000/svg"
	xmlns="http://www.w3.org/2000/svg"
	xmlns:sodipodi="http://sodipodi.sourceforge.net/DTD/sodipodi-0.dtd"
	xmlns:inkscape="http://www.inkscape.org/namespaces/inkscape"
	width="1000"
	height="1000"
	id="svg2"
	version="1.1"
	sodipodi:docname="manifold/ccrust-Misk09.png.txt">
<defs
	id="defs4" />
<metadata
	id="metadata7">
	<rdf:RDF>
		<cc:Work
			rdf:about="">
			<dc:format>image/svg+xml</dc:format>
			<dc:type
				rdf:resource="http://purl.org/dc/dcmitype/StillImage" />
			<dc:title></dc:title>
		</cc:Work>
	</rdf:RDF>
</metadata>
<g
	inkscape:label="Layer 1"
	inkscape:groupmode="layer"
	id="layer1">
	<path style="fill:none;stroke:red;stroke-width:1px;stroke-linecap:butt;stroke-linejoin:miter;stroke-opacity:1" d="M 4,200.733 17.3378,187.395 z" id="boundary" inkscape:connector-curvature="0" />
	<path style="fill:none;stroke:red;stroke-width:1px;stroke-linecap:butt;stroke-linejoin:miter;stroke-opacity:1" d="M 12.3361,215.738 4,200.733 z" id="boundary" inkscape:connector-curvature="0" />
	<path style="fill:none;stroke:red;stroke-width:1px;stroke-linecap:butt;stroke-linejoin:miter;stroke-opacity:1" d="M 17.3378,187.395 30.6756,174.057 z" id="boundary" inkscape:connector-curvature="0" />
	<path style="fill:none;stroke:red;stroke-width:1px;stroke-linecap:butt;stroke-linejoin:miter;stroke-opacity:1" d="M 35.6773,239.079 20.6723,230.743 z" id="boundary" inkscape:connector-curvature="0" />
	<path style="fill:none;stroke:red;stroke-width:1px;stroke-linecap:butt;stroke-linejoin:miter;stroke-opacity:1" d="M 20.6723,230.743 12.3361,215.738 z" id="boundary" inkscape:connector-curvature="0" />
	<path style="fill:none;stroke:red;stroke-width:1px;stroke-linecap:butt;stroke-linejoin:miter;stroke-opacity:1" d="M 35.6773,239.079 47.3479,252.417 z" id="boundary" inkscape:connector-curvature="0" />
	<path style="fill:none;stroke:red;stroke-width:1px;stroke-linecap:butt;stroke-linejoin:miter;stroke-opacity:1" d="M 122.373,99.0319 110.703,112.37 z" id="boundary" inkscape:connector-curvature="0" />
	<path style="fill:none;stroke:red;stroke-width:1px;stroke-linecap:butt;stroke-linejoin:miter;stroke-opacity:1" d="M 110.703,112.37 97.3647,124.04 z" id="boundary" inkscape:connector-curvature="0" />
	<path style="fill:none;stroke:red;stroke-width:1px;stroke-linecap:butt;stroke-linejoin:miter;stroke-opacity:1" d="M 85.6941,137.378 97.3647,124.04 z" id="boundary" inkscape:connector-curvature="0" />
	<path style="fill:none;stroke:red;stroke-width:1px;stroke-linecap:butt;stroke-linejoin:miter;stroke-opacity:1" d="M 44.0134,162.387 60.6857,162.387 z" id="boundary" inkscape:connector-curvature="0" />
	<path style="fill:none;stroke:red;stroke-width:1px;stroke-linecap:butt;stroke-linejoin:miter;stroke-opacity:1" d="M 30.6756,174.057 44.0134,162.387 z" id="boundary" inkscape:connector-curvature="0" />
	<path style="fill:none;stroke:red;stroke-width:1px;stroke-linecap:butt;stroke-linejoin:miter;stroke-opacity:1" d="M 72.3563,149.049 60.6857,162.387 z" id="boundary" inkscape:connector-curvature="0" />
	<path style="fill:none;stroke:red;stroke-width:1px;stroke-linecap:butt;stroke-linejoin:miter;stroke-opacity:1" d="M 85.6941,137.378 72.3563,149.049 z" id="boundary" inkscape:connector-curvature="0" />
	<path style="fill:none;stroke:red;stroke-width:1px;stroke-linecap:butt;stroke-linejoin:miter;stroke-opacity:1" d="M 47.3479,252.417 60.6857,264.087 z" id="boundary" inkscape:connector-curvature="0" />
	<path style="fill:none;stroke:red;stroke-width:1px;stroke-linecap:butt;stroke-linejoin:miter;stroke-opacity:1" d="M 60.6857,264.087 72.3563,277.425 z" id="boundary" inkscape:connector-curvature="0" />
	<path style="fill:none;stroke:red;stroke-width:1px;stroke-linecap:butt;stroke-linejoin:miter;stroke-opacity:1" d="M 85.6941,289.096 97.3647,302.434 z" id="boundary" inkscape:connector-curvature="0" />
	<path style="fill:none;stroke:red;stroke-width:1px;stroke-linecap:butt;stroke-linejoin:miter;stroke-opacity:1" d="M 97.3647,302.434 105.701,317.439 z" id="boundary" inkscape:connector-curvature="0" />
	<path style="fill:none;stroke:red;stroke-width:1px;stroke-linecap:butt;stroke-linejoin:miter;stroke-opacity:1" d="M 105.701,317.439 112.37,334.111 z" id="boundary" inkscape:connector-curvature="0" />
	<path style="fill:none;stroke:red;stroke-width:1px;stroke-linecap:butt;stroke-linejoin:miter;stroke-opacity:1" d="M 120.706,349.116 112.37,334.111 z" id="boundary" inkscape:connector-curvature="0" />
	<path style="fill:none;stroke:red;stroke-width:1px;stroke-linecap:butt;stroke-linejoin:miter;stroke-opacity:1" d="M 72.3563,277.425 85.6941,289.096 z" id="boundary" inkscape:connector-curvature="0" />
	<path style="fill:none;stroke:red;stroke-width:1px;stroke-linecap:butt;stroke-linejoin:miter;stroke-opacity:1" d="M 120.706,349.116 129.042,364.121 z" id="boundary" inkscape:connector-curvature="0" />
	<path style="fill:none;stroke:red;stroke-width:1px;stroke-linecap:butt;stroke-linejoin:miter;stroke-opacity:1" d="M 129.042,364.121 129.042,380.793 z" id="boundary" inkscape:connector-curvature="0" />
	<path style="fill:none;stroke:red;stroke-width:1px;stroke-linecap:butt;stroke-linejoin:miter;stroke-opacity:1" d="M 129.042,380.793 129.042,397.466 z" id="boundary" inkscape:connector-curvature="0" />
	<path style="fill:none;stroke:red;stroke-width:1px;stroke-linecap:butt;stroke-linejoin:miter;stroke-opacity:1" d="M 120.706,484.161 120.706,500.834 z" id="boundary" inkscape:connector-curvature="0" />
	<path style="fill:none;stroke:red;stroke-width:1px;stroke-linecap:butt;stroke-linejoin:miter;stroke-opacity:1" d="M 120.706,500.834 112.37,517.506 z" id="boundary" inkscape:connector-curvature="0" />
	<path style="fill:none;stroke:red;stroke-width:1px;stroke-linecap:butt;stroke-linejoin:miter;stroke-opacity:1" d="M 129.042,397.466 129.042,417.472 z" id="boundary" inkscape:connector-curvature="0" />
	<path style="fill:none;stroke:red;stroke-width:1px;stroke-linecap:butt;stroke-linejoin:miter;stroke-opacity:1" d="M 120.706,484.161 129.042,459.153 z" id="boundary" inkscape:connector-curvature="0" />
	<path style="fill:none;stroke:red;stroke-width:1px;stroke-linecap:butt;stroke-linejoin:miter;stroke-opacity:1" d="M 109.035,537.513 112.37,517.506 z" id="boundary" inkscape:connector-curvature="0" />
	<path style="fill:none;stroke:red;stroke-width:1px;stroke-linecap:butt;stroke-linejoin:miter;stroke-opacity:1" d="M 122.373,99.0319 139.045,90.6958 z" id="boundary" inkscape:connector-curvature="0" />
	<path style="fill:none;stroke:red;stroke-width:1px;stroke-linecap:butt;stroke-linejoin:miter;stroke-opacity:1" d="M 314.104,4 330.776,4 z" id="boundary" inkscape:connector-curvature="0" />
	<path style="fill:none;stroke:red;stroke-width:1px;stroke-linecap:butt;stroke-linejoin:miter;stroke-opacity:1" d="M 297.432,7.33445 314.104,4 z" id="boundary" inkscape:connector-curvature="0" />
	<path style="fill:none;stroke:red;stroke-width:1px;stroke-linecap:butt;stroke-linejoin:miter;stroke-opacity:1" d="M 330.776,4 347.449,4 z" id="boundary" inkscape:connector-curvature="0" />
	<path style="fill:none;stroke:red;stroke-width:1px;stroke-linecap:butt;stroke-linejoin:miter;stroke-opacity:1" d="M 247.415,24.0067 264.087,15.6706 z" id="boundary" inkscape:connector-curvature="0" />
	<path style="fill:none;stroke:red;stroke-width:1px;stroke-linecap:butt;stroke-linejoin:miter;stroke-opacity:1" d="M 280.76,7.33445 297.432,7.33445 z" id="boundary" inkscape:connector-curvature="0" />
	<path style="fill:none;stroke:red;stroke-width:1px;stroke-linecap:butt;stroke-linejoin:miter;stroke-opacity:1" d="M 264.087,15.6706 280.76,7.33445 z" id="boundary" inkscape:connector-curvature="0" />
	<path style="fill:none;stroke:red;stroke-width:1px;stroke-linecap:butt;stroke-linejoin:miter;stroke-opacity:1" d="M 230.743,32.3429 247.415,24.0067 z" id="boundary" inkscape:connector-curvature="0" />
	<path style="fill:none;stroke:red;stroke-width:1px;stroke-linecap:butt;stroke-linejoin:miter;stroke-opacity:1" d="M 364.121,4 380.793,4 z" id="boundary" inkscape:connector-curvature="0" />
	<path style="fill:none;stroke:red;stroke-width:1px;stroke-linecap:butt;stroke-linejoin:miter;stroke-opacity:1" d="M 380.793,4 397.466,4 z" id="boundary" inkscape:connector-curvature="0" />
	<path style="fill:none;stroke:red;stroke-width:1px;stroke-linecap:butt;stroke-linejoin:miter;stroke-opacity:1" d="M 397.466,4 412.471,12.3361 z" id="boundary" inkscape:connector-curvature="0" />
	<path style="fill:none;stroke:red;stroke-width:1px;stroke-linecap:butt;stroke-linejoin:miter;stroke-opacity:1" d="M 412.471,12.3361 429.143,12.3361 z" id="boundary" inkscape:connector-curvature="0" />
	<path style="fill:none;stroke:red;stroke-width:1px;stroke-linecap:butt;stroke-linejoin:miter;stroke-opacity:1" d="M 429.143,12.3361 445.815,15.6706 z" id="boundary" inkscape:connector-curvature="0" />
	<path style="fill:none;stroke:red;stroke-width:1px;stroke-linecap:butt;stroke-linejoin:miter;stroke-opacity:1" d="M 462.487,20.6723 445.815,15.6706 z" id="boundary" inkscape:connector-curvature="0" />
	<path style="fill:none;stroke:red;stroke-width:1px;stroke-linecap:butt;stroke-linejoin:miter;stroke-opacity:1" d="M 347.449,4 364.121,4 z" id="boundary" inkscape:connector-curvature="0" />
	<path style="fill:none;stroke:red;stroke-width:1px;stroke-linecap:butt;stroke-linejoin:miter;stroke-opacity:1" d="M 462.487,20.6723 475.825,30.6756 z" id="boundary" inkscape:connector-curvature="0" />
	<path style="fill:none;stroke:red;stroke-width:1px;stroke-linecap:butt;stroke-linejoin:miter;stroke-opacity:1" d="M 180.726,57.3513 167.388,70.6891 z" id="boundary" inkscape:connector-curvature="0" />
	<path style="fill:none;stroke:red;stroke-width:1px;stroke-linecap:butt;stroke-linejoin:miter;stroke-opacity:1" d="M 167.388,70.6891 152.383,79.0252 z" id="boundary" inkscape:connector-curvature="0" />
	<path style="fill:none;stroke:red;stroke-width:1px;stroke-linecap:butt;stroke-linejoin:miter;stroke-opacity:1" d="M 214.071,40.679 230.743,32.3429 z" id="boundary" inkscape:connector-curvature="0" />
	<path style="fill:none;stroke:red;stroke-width:1px;stroke-linecap:butt;stroke-linejoin:miter;stroke-opacity:1" d="M 139.045,90.6958 152.383,79.0252 z" id="boundary" inkscape:connector-curvature="0" />
	<path style="fill:none;stroke:red;stroke-width:1px;stroke-linecap:butt;stroke-linejoin:miter;stroke-opacity:1" d="M 129.042,417.472 129.042,434.145 z" id="boundary" inkscape:connector-curvature="0" />
	<path style="fill:none;stroke:red;stroke-width:1px;stroke-linecap:butt;stroke-linejoin:miter;stroke-opacity:1" d="M 129.042,459.153 129.042,434.145 z" id="boundary" inkscape:connector-curvature="0" />
	<path style="fill:none;stroke:red;stroke-width:1px;stroke-linecap:butt;stroke-linejoin:miter;stroke-opacity:1" d="M 180.726,57.3513 197.398,49.0151 z" id="boundary" inkscape:connector-curvature="0" />
	<path style="fill:none;stroke:red;stroke-width:1px;stroke-linecap:butt;stroke-linejoin:miter;stroke-opacity:1" d="M 492.497,29.0084 475.825,30.6756 z" id="boundary" inkscape:connector-curvature="0" />
	<path style="fill:none;stroke:red;stroke-width:1px;stroke-linecap:butt;stroke-linejoin:miter;stroke-opacity:1" d="M 492.497,29.0084 504.168,42.3462 z" id="boundary" inkscape:connector-curvature="0" />
	<path style="fill:none;stroke:red;stroke-width:1px;stroke-linecap:butt;stroke-linejoin:miter;stroke-opacity:1" d="M 512.504,530.844 495.832,530.844 z" id="boundary" inkscape:connector-curvature="0" />
	<path style="fill:none;stroke:red;stroke-width:1px;stroke-linecap:butt;stroke-linejoin:miter;stroke-opacity:1" d="M 197.398,49.0151 214.071,40.679 z" id="boundary" inkscape:connector-curvature="0" />
	<path style="fill:none;stroke:red;stroke-width:1px;stroke-linecap:butt;stroke-linejoin:miter;stroke-opacity:1" d="M 37.3445,684.229 45.6807,659.22 z" id="boundary" inkscape:connector-curvature="0" />
	<path style="fill:none;stroke:red;stroke-width:1px;stroke-linecap:butt;stroke-linejoin:miter;stroke-opacity:1" d="M 54.0168,634.212 45.6807,659.22 z" id="boundary" inkscape:connector-curvature="0" />
	<path style="fill:none;stroke:red;stroke-width:1px;stroke-linecap:butt;stroke-linejoin:miter;stroke-opacity:1" d="M 37.3445,700.901 45.6807,715.906 z" id="boundary" inkscape:connector-curvature="0" />
	<path style="fill:none;stroke:red;stroke-width:1px;stroke-linecap:butt;stroke-linejoin:miter;stroke-opacity:1" d="M 45.6807,715.906 45.6807,732.578 z" id="boundary" inkscape:connector-curvature="0" />
	<path style="fill:none;stroke:red;stroke-width:1px;stroke-linecap:butt;stroke-linejoin:miter;stroke-opacity:1" d="M 37.3445,700.901 37.3445,684.229 z" id="boundary" inkscape:connector-curvature="0" />
	<path style="fill:none;stroke:red;stroke-width:1px;stroke-linecap:butt;stroke-linejoin:miter;stroke-opacity:1" d="M 54.0168,747.583 45.6807,732.578 z" id="boundary" inkscape:connector-curvature="0" />
	<path style="fill:none;stroke:red;stroke-width:1px;stroke-linecap:butt;stroke-linejoin:miter;stroke-opacity:1" d="M 84.0269,587.529 92.363,570.857 z" id="boundary" inkscape:connector-curvature="0" />
	<path style="fill:none;stroke:red;stroke-width:1px;stroke-linecap:butt;stroke-linejoin:miter;stroke-opacity:1" d="M 100.699,554.185 92.363,570.857 z" id="boundary" inkscape:connector-curvature="0" />
	<path style="fill:none;stroke:red;stroke-width:1px;stroke-linecap:butt;stroke-linejoin:miter;stroke-opacity:1" d="M 54.0168,634.212 62.3529,617.539 z" id="boundary" inkscape:connector-curvature="0" />
	<path style="fill:none;stroke:red;stroke-width:1px;stroke-linecap:butt;stroke-linejoin:miter;stroke-opacity:1" d="M 62.3529,617.539 75.6908,604.202 z" id="boundary" inkscape:connector-curvature="0" />
	<path style="fill:none;stroke:red;stroke-width:1px;stroke-linecap:butt;stroke-linejoin:miter;stroke-opacity:1" d="M 84.0269,587.529 75.6908,604.202 z" id="boundary" inkscape:connector-curvature="0" />
	<path style="fill:none;stroke:red;stroke-width:1px;stroke-linecap:butt;stroke-linejoin:miter;stroke-opacity:1" d="M 109.035,537.513 100.699,554.185 z" id="boundary" inkscape:connector-curvature="0" />
	<path style="fill:none;stroke:red;stroke-width:1px;stroke-linecap:butt;stroke-linejoin:miter;stroke-opacity:1" d="M 70.6891,777.593 62.3529,762.588 z" id="boundary" inkscape:connector-curvature="0" />
	<path style="fill:none;stroke:red;stroke-width:1px;stroke-linecap:butt;stroke-linejoin:miter;stroke-opacity:1" d="M 87.3613,780.928 70.6891,777.593 z" id="boundary" inkscape:connector-curvature="0" />
	<path style="fill:none;stroke:red;stroke-width:1px;stroke-linecap:butt;stroke-linejoin:miter;stroke-opacity:1" d="M 62.3529,762.588 54.0168,747.583 z" id="boundary" inkscape:connector-curvature="0" />
	<path style="fill:none;stroke:red;stroke-width:1px;stroke-linecap:butt;stroke-linejoin:miter;stroke-opacity:1" d="M 104.034,775.926 87.3613,780.928 z" id="boundary" inkscape:connector-curvature="0" />
	<path style="fill:none;stroke:red;stroke-width:1px;stroke-linecap:butt;stroke-linejoin:miter;stroke-opacity:1" d="M 104.034,775.926 120.706,780.928 z" id="boundary" inkscape:connector-curvature="0" />
	<path style="fill:none;stroke:red;stroke-width:1px;stroke-linecap:butt;stroke-linejoin:miter;stroke-opacity:1" d="M 137.378,780.928 142.38,797.6 z" id="boundary" inkscape:connector-curvature="0" />
	<path style="fill:none;stroke:red;stroke-width:1px;stroke-linecap:butt;stroke-linejoin:miter;stroke-opacity:1" d="M 120.706,780.928 137.378,780.928 z" id="boundary" inkscape:connector-curvature="0" />
	<path style="fill:none;stroke:red;stroke-width:1px;stroke-linecap:butt;stroke-linejoin:miter;stroke-opacity:1" d="M 155.718,809.271 142.38,797.6 z" id="boundary" inkscape:connector-curvature="0" />
	<path style="fill:none;stroke:red;stroke-width:1px;stroke-linecap:butt;stroke-linejoin:miter;stroke-opacity:1" d="M 170.723,840.948 162.387,825.943 z" id="boundary" inkscape:connector-curvature="0" />
	<path style="fill:none;stroke:red;stroke-width:1px;stroke-linecap:butt;stroke-linejoin:miter;stroke-opacity:1" d="M 162.387,825.943 155.718,809.271 z" id="boundary" inkscape:connector-curvature="0" />
	<path style="fill:none;stroke:red;stroke-width:1px;stroke-linecap:butt;stroke-linejoin:miter;stroke-opacity:1" d="M 179.059,855.953 189.062,869.291 z" id="boundary" inkscape:connector-curvature="0" />
	<path style="fill:none;stroke:red;stroke-width:1px;stroke-linecap:butt;stroke-linejoin:miter;stroke-opacity:1" d="M 189.062,869.291 197.398,884.296 z" id="boundary" inkscape:connector-curvature="0" />
	<path style="fill:none;stroke:red;stroke-width:1px;stroke-linecap:butt;stroke-linejoin:miter;stroke-opacity:1" d="M 179.059,855.953 170.723,840.948 z" id="boundary" inkscape:connector-curvature="0" />
	<path style="fill:none;stroke:red;stroke-width:1px;stroke-linecap:butt;stroke-linejoin:miter;stroke-opacity:1" d="M 197.398,884.296 209.069,897.634 z" id="boundary" inkscape:connector-curvature="0" />
	<path style="fill:none;stroke:red;stroke-width:1px;stroke-linecap:butt;stroke-linejoin:miter;stroke-opacity:1" d="M 224.074,905.97 209.069,897.634 z" id="boundary" inkscape:connector-curvature="0" />
	<path style="fill:none;stroke:red;stroke-width:1px;stroke-linecap:butt;stroke-linejoin:miter;stroke-opacity:1" d="M 464.155,589.197 472.491,604.202 z" id="boundary" inkscape:connector-curvature="0" />
	<path style="fill:none;stroke:red;stroke-width:1px;stroke-linecap:butt;stroke-linejoin:miter;stroke-opacity:1" d="M 464.155,572.524 464.155,589.197 z" id="boundary" inkscape:connector-curvature="0" />
	<path style="fill:none;stroke:red;stroke-width:1px;stroke-linecap:butt;stroke-linejoin:miter;stroke-opacity:1" d="M 272.424,914.306 255.751,914.306 z" id="boundary" inkscape:connector-curvature="0" />
	<path style="fill:none;stroke:red;stroke-width:1px;stroke-linecap:butt;stroke-linejoin:miter;stroke-opacity:1" d="M 239.079,914.306 255.751,914.306 z" id="boundary" inkscape:connector-curvature="0" />
	<path style="fill:none;stroke:red;stroke-width:1px;stroke-linecap:butt;stroke-linejoin:miter;stroke-opacity:1" d="M 239.079,914.306 224.074,905.97 z" id="boundary" inkscape:connector-curvature="0" />
	<path style="fill:none;stroke:red;stroke-width:1px;stroke-linecap:butt;stroke-linejoin:miter;stroke-opacity:1" d="M 272.424,914.306 287.429,922.642 z" id="boundary" inkscape:connector-curvature="0" />
	<path style="fill:none;stroke:red;stroke-width:1px;stroke-linecap:butt;stroke-linejoin:miter;stroke-opacity:1" d="M 287.429,922.642 302.434,930.978 z" id="boundary" inkscape:connector-curvature="0" />
	<path style="fill:none;stroke:red;stroke-width:1px;stroke-linecap:butt;stroke-linejoin:miter;stroke-opacity:1" d="M 472.491,604.202 480.827,619.207 z" id="boundary" inkscape:connector-curvature="0" />
	<path style="fill:none;stroke:red;stroke-width:1px;stroke-linecap:butt;stroke-linejoin:miter;stroke-opacity:1" d="M 472.491,555.852 485.829,544.182 z" id="boundary" inkscape:connector-curvature="0" />
	<path style="fill:none;stroke:red;stroke-width:1px;stroke-linecap:butt;stroke-linejoin:miter;stroke-opacity:1" d="M 472.491,555.852 464.155,572.524 z" id="boundary" inkscape:connector-curvature="0" />
	<path style="fill:none;stroke:red;stroke-width:1px;stroke-linecap:butt;stroke-linejoin:miter;stroke-opacity:1" d="M 495.832,530.844 485.829,544.182 z" id="boundary" inkscape:connector-curvature="0" />
	<path style="fill:none;stroke:red;stroke-width:1px;stroke-linecap:butt;stroke-linejoin:miter;stroke-opacity:1" d="M 497.499,625.876 480.827,619.207 z" id="boundary" inkscape:connector-curvature="0" />
	<path style="fill:none;stroke:red;stroke-width:1px;stroke-linecap:butt;stroke-linejoin:miter;stroke-opacity:1" d="M 512.504,634.212 497.499,625.876 z" id="boundary" inkscape:connector-curvature="0" />
	<path style="fill:none;stroke:red;stroke-width:1px;stroke-linecap:butt;stroke-linejoin:miter;stroke-opacity:1" d="M 512.504,530.844 529.176,530.844 z" id="boundary" inkscape:connector-curvature="0" />
	<path style="fill:none;stroke:red;stroke-width:1px;stroke-linecap:butt;stroke-linejoin:miter;stroke-opacity:1" d="M 302.434,930.978 319.106,930.978 z" id="boundary" inkscape:connector-curvature="0" />
	<path style="fill:none;stroke:red;stroke-width:1px;stroke-linecap:butt;stroke-linejoin:miter;stroke-opacity:1" d="M 319.106,930.978 334.111,939.314 z" id="boundary" inkscape:connector-curvature="0" />
	<path style="fill:none;stroke:red;stroke-width:1px;stroke-linecap:butt;stroke-linejoin:miter;stroke-opacity:1" d="M 334.111,939.314 349.116,947.65 z" id="boundary" inkscape:connector-curvature="0" />
	<path style="fill:none;stroke:red;stroke-width:1px;stroke-linecap:butt;stroke-linejoin:miter;stroke-opacity:1" d="M 349.116,947.65 364.121,955.987 z" id="boundary" inkscape:connector-curvature="0" />
	<path style="fill:none;stroke:red;stroke-width:1px;stroke-linecap:butt;stroke-linejoin:miter;stroke-opacity:1" d="M 380.793,959.321 364.121,955.987 z" id="boundary" inkscape:connector-curvature="0" />
	<path style="fill:none;stroke:red;stroke-width:1px;stroke-linecap:butt;stroke-linejoin:miter;stroke-opacity:1" d="M 380.793,959.321 397.466,964.323 z" id="boundary" inkscape:connector-curvature="0" />
	<path style="fill:none;stroke:red;stroke-width:1px;stroke-linecap:butt;stroke-linejoin:miter;stroke-opacity:1" d="M 397.466,964.323 412.471,972.659 z" id="boundary" inkscape:connector-curvature="0" />
	<path style="fill:none;stroke:red;stroke-width:1px;stroke-linecap:butt;stroke-linejoin:miter;stroke-opacity:1" d="M 412.471,972.659 427.476,980.995 z" id="boundary" inkscape:connector-curvature="0" />
	<path style="fill:none;stroke:red;stroke-width:1px;stroke-linecap:butt;stroke-linejoin:miter;stroke-opacity:1" d="M 442.481,989.331 427.476,980.995 z" id="boundary" inkscape:connector-curvature="0" />
	<path style="fill:none;stroke:red;stroke-width:1px;stroke-linecap:butt;stroke-linejoin:miter;stroke-opacity:1" d="M 459.153,989.331 442.481,989.331 z" id="boundary" inkscape:connector-curvature="0" />
	<path style="fill:none;stroke:red;stroke-width:1px;stroke-linecap:butt;stroke-linejoin:miter;stroke-opacity:1" d="M 459.153,989.331 475.825,996 z" id="boundary" inkscape:connector-curvature="0" />
	<path style="fill:none;stroke:red;stroke-width:1px;stroke-linecap:butt;stroke-linejoin:miter;stroke-opacity:1" d="M 492.497,989.331 475.825,996 z" id="boundary" inkscape:connector-curvature="0" />
	<path style="fill:none;stroke:red;stroke-width:1px;stroke-linecap:butt;stroke-linejoin:miter;stroke-opacity:1" d="M 492.497,989.331 509.17,996 z" id="boundary" inkscape:connector-curvature="0" />
	<path style="fill:none;stroke:red;stroke-width:1px;stroke-linecap:butt;stroke-linejoin:miter;stroke-opacity:1" d="M 525.842,989.331 509.17,996 z" id="boundary" inkscape:connector-curvature="0" />
	<path style="fill:none;stroke:red;stroke-width:1px;stroke-linecap:butt;stroke-linejoin:miter;stroke-opacity:1" d="M 512.504,634.212 525.842,645.882 z" id="boundary" inkscape:connector-curvature="0" />
	<path style="fill:none;stroke:red;stroke-width:1px;stroke-linecap:butt;stroke-linejoin:miter;stroke-opacity:1" d="M 504.168,42.3462 517.506,54.0168 z" id="boundary" inkscape:connector-curvature="0" />
	<path style="fill:none;stroke:red;stroke-width:1px;stroke-linecap:butt;stroke-linejoin:miter;stroke-opacity:1" d="M 517.506,54.0168 532.511,62.3529 z" id="boundary" inkscape:connector-curvature="0" />
	<path style="fill:none;stroke:red;stroke-width:1px;stroke-linecap:butt;stroke-linejoin:miter;stroke-opacity:1" d="M 532.511,62.3529 545.849,74.0235 z" id="boundary" inkscape:connector-curvature="0" />
	<path style="fill:none;stroke:red;stroke-width:1px;stroke-linecap:butt;stroke-linejoin:miter;stroke-opacity:1" d="M 545.849,74.0235 555.852,87.3613 z" id="boundary" inkscape:connector-curvature="0" />
	<path style="fill:none;stroke:red;stroke-width:1px;stroke-linecap:butt;stroke-linejoin:miter;stroke-opacity:1" d="M 555.852,87.3613 572.524,92.363 z" id="boundary" inkscape:connector-curvature="0" />
	<path style="fill:none;stroke:red;stroke-width:1px;stroke-linecap:butt;stroke-linejoin:miter;stroke-opacity:1" d="M 572.524,92.363 584.195,105.701 z" id="boundary" inkscape:connector-curvature="0" />
	<path style="fill:none;stroke:red;stroke-width:1px;stroke-linecap:butt;stroke-linejoin:miter;stroke-opacity:1" d="M 597.533,117.371 584.195,105.701 z" id="boundary" inkscape:connector-curvature="0" />
	<path style="fill:none;stroke:red;stroke-width:1px;stroke-linecap:butt;stroke-linejoin:miter;stroke-opacity:1" d="M 625.876,137.378 609.203,130.709 z" id="boundary" inkscape:connector-curvature="0" />
	<path style="fill:none;stroke:red;stroke-width:1px;stroke-linecap:butt;stroke-linejoin:miter;stroke-opacity:1" d="M 609.203,130.709 597.533,117.371 z" id="boundary" inkscape:connector-curvature="0" />
	<path style="fill:none;stroke:red;stroke-width:1px;stroke-linecap:butt;stroke-linejoin:miter;stroke-opacity:1" d="M 625.876,137.378 640.881,145.714 z" id="boundary" inkscape:connector-curvature="0" />
	<path style="fill:none;stroke:red;stroke-width:1px;stroke-linecap:butt;stroke-linejoin:miter;stroke-opacity:1" d="M 672.558,154.05 655.886,154.05 z" id="boundary" inkscape:connector-curvature="0" />
	<path style="fill:none;stroke:red;stroke-width:1px;stroke-linecap:butt;stroke-linejoin:miter;stroke-opacity:1" d="M 655.886,154.05 640.881,145.714 z" id="boundary" inkscape:connector-curvature="0" />
	<path style="fill:none;stroke:red;stroke-width:1px;stroke-linecap:butt;stroke-linejoin:miter;stroke-opacity:1" d="M 689.23,154.05 705.903,150.716 z" id="boundary" inkscape:connector-curvature="0" />
	<path style="fill:none;stroke:red;stroke-width:1px;stroke-linecap:butt;stroke-linejoin:miter;stroke-opacity:1" d="M 722.575,145.714 705.903,150.716 z" id="boundary" inkscape:connector-curvature="0" />
	<path style="fill:none;stroke:red;stroke-width:1px;stroke-linecap:butt;stroke-linejoin:miter;stroke-opacity:1" d="M 529.176,530.844 545.849,530.844 z" id="boundary" inkscape:connector-curvature="0" />
	<path style="fill:none;stroke:red;stroke-width:1px;stroke-linecap:butt;stroke-linejoin:miter;stroke-opacity:1" d="M 545.849,530.844 560.854,539.18 z" id="boundary" inkscape:connector-curvature="0" />
	<path style="fill:none;stroke:red;stroke-width:1px;stroke-linecap:butt;stroke-linejoin:miter;stroke-opacity:1" d="M 560.854,539.18 575.859,547.516 z" id="boundary" inkscape:connector-curvature="0" />
	<path style="fill:none;stroke:red;stroke-width:1px;stroke-linecap:butt;stroke-linejoin:miter;stroke-opacity:1" d="M 575.859,547.516 590.864,555.852 z" id="boundary" inkscape:connector-curvature="0" />
	<path style="fill:none;stroke:red;stroke-width:1px;stroke-linecap:butt;stroke-linejoin:miter;stroke-opacity:1" d="M 590.864,555.852 604.202,565.855 z" id="boundary" inkscape:connector-curvature="0" />
	<path style="fill:none;stroke:red;stroke-width:1px;stroke-linecap:butt;stroke-linejoin:miter;stroke-opacity:1" d="M 615.872,579.193 604.202,565.855 z" id="boundary" inkscape:connector-curvature="0" />
	<path style="fill:none;stroke:red;stroke-width:1px;stroke-linecap:butt;stroke-linejoin:miter;stroke-opacity:1" d="M 689.23,154.05 672.558,154.05 z" id="boundary" inkscape:connector-curvature="0" />
	<path style="fill:none;stroke:red;stroke-width:1px;stroke-linecap:butt;stroke-linejoin:miter;stroke-opacity:1" d="M 729.244,430.81 714.239,439.146 z" id="boundary" inkscape:connector-curvature="0" />
	<path style="fill:none;stroke:red;stroke-width:1px;stroke-linecap:butt;stroke-linejoin:miter;stroke-opacity:1" d="M 705.903,454.151 705.903,470.824 z" id="boundary" inkscape:connector-curvature="0" />
	<path style="fill:none;stroke:red;stroke-width:1px;stroke-linecap:butt;stroke-linejoin:miter;stroke-opacity:1" d="M 714.239,485.829 705.903,470.824 z" id="boundary" inkscape:connector-curvature="0" />
	<path style="fill:none;stroke:red;stroke-width:1px;stroke-linecap:butt;stroke-linejoin:miter;stroke-opacity:1" d="M 714.239,485.829 722.575,500.834 z" id="boundary" inkscape:connector-curvature="0" />
	<path style="fill:none;stroke:red;stroke-width:1px;stroke-linecap:butt;stroke-linejoin:miter;stroke-opacity:1" d="M 780.928,205.734 772.592,222.407 z" id="boundary" inkscape:connector-curvature="0" />
	<path style="fill:none;stroke:red;stroke-width:1px;stroke-linecap:butt;stroke-linejoin:miter;stroke-opacity:1" d="M 755.919,142.38 739.247,145.714 z" id="boundary" inkscape:connector-curvature="0" />
	<path style="fill:none;stroke:red;stroke-width:1px;stroke-linecap:butt;stroke-linejoin:miter;stroke-opacity:1" d="M 739.247,145.714 722.575,145.714 z" id="boundary" inkscape:connector-curvature="0" />
	<path style="fill:none;stroke:red;stroke-width:1px;stroke-linecap:butt;stroke-linejoin:miter;stroke-opacity:1" d="M 772.592,142.38 755.919,142.38 z" id="boundary" inkscape:connector-curvature="0" />
	<path style="fill:none;stroke:red;stroke-width:1px;stroke-linecap:butt;stroke-linejoin:miter;stroke-opacity:1" d="M 755.919,255.751 764.255,239.079 z" id="boundary" inkscape:connector-curvature="0" />
	<path style="fill:none;stroke:red;stroke-width:1px;stroke-linecap:butt;stroke-linejoin:miter;stroke-opacity:1" d="M 764.255,270.756 755.919,255.751 z" id="boundary" inkscape:connector-curvature="0" />
	<path style="fill:none;stroke:red;stroke-width:1px;stroke-linecap:butt;stroke-linejoin:miter;stroke-opacity:1" d="M 764.255,239.079 772.592,222.407 z" id="boundary" inkscape:connector-curvature="0" />
	<path style="fill:none;stroke:red;stroke-width:1px;stroke-linecap:butt;stroke-linejoin:miter;stroke-opacity:1" d="M 764.255,270.756 772.592,285.761 z" id="boundary" inkscape:connector-curvature="0" />
	<path style="fill:none;stroke:red;stroke-width:1px;stroke-linecap:butt;stroke-linejoin:miter;stroke-opacity:1" d="M 795.933,159.052 789.264,180.726 z" id="boundary" inkscape:connector-curvature="0" />
	<path style="fill:none;stroke:red;stroke-width:1px;stroke-linecap:butt;stroke-linejoin:miter;stroke-opacity:1" d="M 809.271,320.773 800.934,305.768 z" id="boundary" inkscape:connector-curvature="0" />
	<path style="fill:none;stroke:red;stroke-width:1px;stroke-linecap:butt;stroke-linejoin:miter;stroke-opacity:1" d="M 789.264,180.726 780.928,205.734 z" id="boundary" inkscape:connector-curvature="0" />
	<path style="fill:none;stroke:red;stroke-width:1px;stroke-linecap:butt;stroke-linejoin:miter;stroke-opacity:1" d="M 789.264,292.43 772.592,285.761 z" id="boundary" inkscape:connector-curvature="0" />
	<path style="fill:none;stroke:red;stroke-width:1px;stroke-linecap:butt;stroke-linejoin:miter;stroke-opacity:1" d="M 789.264,292.43 800.934,305.768 z" id="boundary" inkscape:connector-curvature="0" />
	<path style="fill:none;stroke:red;stroke-width:1px;stroke-linecap:butt;stroke-linejoin:miter;stroke-opacity:1" d="M 772.592,142.38 789.264,142.38 z" id="boundary" inkscape:connector-curvature="0" />
	<path style="fill:none;stroke:red;stroke-width:1px;stroke-linecap:butt;stroke-linejoin:miter;stroke-opacity:1" d="M 789.264,142.38 795.933,159.052 z" id="boundary" inkscape:connector-curvature="0" />
	<path style="fill:none;stroke:red;stroke-width:1px;stroke-linecap:butt;stroke-linejoin:miter;stroke-opacity:1" d="M 729.244,430.81 742.582,420.807 z" id="boundary" inkscape:connector-curvature="0" />
	<path style="fill:none;stroke:red;stroke-width:1px;stroke-linecap:butt;stroke-linejoin:miter;stroke-opacity:1" d="M 759.254,412.471 742.582,420.807 z" id="boundary" inkscape:connector-curvature="0" />
	<path style="fill:none;stroke:red;stroke-width:1px;stroke-linecap:butt;stroke-linejoin:miter;stroke-opacity:1" d="M 772.592,397.466 759.254,412.471 z" id="boundary" inkscape:connector-curvature="0" />
	<path style="fill:none;stroke:red;stroke-width:1px;stroke-linecap:butt;stroke-linejoin:miter;stroke-opacity:1" d="M 722.575,500.834 734.245,514.171 z" id="boundary" inkscape:connector-curvature="0" />
	<path style="fill:none;stroke:red;stroke-width:1px;stroke-linecap:butt;stroke-linejoin:miter;stroke-opacity:1" d="M 734.245,514.171 742.582,529.176 z" id="boundary" inkscape:connector-curvature="0" />
	<path style="fill:none;stroke:red;stroke-width:1px;stroke-linecap:butt;stroke-linejoin:miter;stroke-opacity:1" d="M 754.252,542.514 742.582,529.176 z" id="boundary" inkscape:connector-curvature="0" />
	<path style="fill:none;stroke:red;stroke-width:1px;stroke-linecap:butt;stroke-linejoin:miter;stroke-opacity:1" d="M 629.21,589.197 615.872,579.193 z" id="boundary" inkscape:connector-curvature="0" />
	<path style="fill:none;stroke:red;stroke-width:1px;stroke-linecap:butt;stroke-linejoin:miter;stroke-opacity:1" d="M 767.59,554.185 754.252,542.514 z" id="boundary" inkscape:connector-curvature="0" />
	<path style="fill:none;stroke:red;stroke-width:1px;stroke-linecap:butt;stroke-linejoin:miter;stroke-opacity:1" d="M 805.936,347.449 802.602,369.123 z" id="boundary" inkscape:connector-curvature="0" />
	<path style="fill:none;stroke:red;stroke-width:1px;stroke-linecap:butt;stroke-linejoin:miter;stroke-opacity:1" d="M 802.602,369.123 789.264,380.793 z" id="boundary" inkscape:connector-curvature="0" />
	<path style="fill:none;stroke:red;stroke-width:1px;stroke-linecap:butt;stroke-linejoin:miter;stroke-opacity:1" d="M 779.261,567.523 767.59,554.185 z" id="boundary" inkscape:connector-curvature="0" />
	<path style="fill:none;stroke:red;stroke-width:1px;stroke-linecap:butt;stroke-linejoin:miter;stroke-opacity:1" d="M 772.592,397.466 789.264,380.793 z" id="boundary" inkscape:connector-curvature="0" />
	<path style="fill:none;stroke:red;stroke-width:1px;stroke-linecap:butt;stroke-linejoin:miter;stroke-opacity:1" d="M 792.598,579.193 779.261,567.523 z" id="boundary" inkscape:connector-curvature="0" />
	<path style="fill:none;stroke:red;stroke-width:1px;stroke-linecap:butt;stroke-linejoin:miter;stroke-opacity:1" d="M 805.936,347.449 809.271,320.773 z" id="boundary" inkscape:connector-curvature="0" />
	<path style="fill:none;stroke:red;stroke-width:1px;stroke-linecap:butt;stroke-linejoin:miter;stroke-opacity:1" d="M 525.842,645.882 540.847,654.218 z" id="boundary" inkscape:connector-curvature="0" />
	<path style="fill:none;stroke:red;stroke-width:1px;stroke-linecap:butt;stroke-linejoin:miter;stroke-opacity:1" d="M 540.847,654.218 547.516,670.891 z" id="boundary" inkscape:connector-curvature="0" />
	<path style="fill:none;stroke:red;stroke-width:1px;stroke-linecap:butt;stroke-linejoin:miter;stroke-opacity:1" d="M 564.188,675.892 547.516,670.891 z" id="boundary" inkscape:connector-curvature="0" />
	<path style="fill:none;stroke:red;stroke-width:1px;stroke-linecap:butt;stroke-linejoin:miter;stroke-opacity:1" d="M 592.531,695.899 577.526,687.563 z" id="boundary" inkscape:connector-curvature="0" />
	<path style="fill:none;stroke:red;stroke-width:1px;stroke-linecap:butt;stroke-linejoin:miter;stroke-opacity:1" d="M 577.526,687.563 564.188,675.892 z" id="boundary" inkscape:connector-curvature="0" />
	<path style="fill:none;stroke:red;stroke-width:1px;stroke-linecap:butt;stroke-linejoin:miter;stroke-opacity:1" d="M 592.531,695.899 604.202,709.237 z" id="boundary" inkscape:connector-curvature="0" />
	<path style="fill:none;stroke:red;stroke-width:1px;stroke-linecap:butt;stroke-linejoin:miter;stroke-opacity:1" d="M 639.213,602.534 629.21,589.197 z" id="boundary" inkscape:connector-curvature="0" />
	<path style="fill:none;stroke:red;stroke-width:1px;stroke-linecap:butt;stroke-linejoin:miter;stroke-opacity:1" d="M 664.222,627.543 652.551,614.205 z" id="boundary" inkscape:connector-curvature="0" />
	<path style="fill:none;stroke:red;stroke-width:1px;stroke-linecap:butt;stroke-linejoin:miter;stroke-opacity:1" d="M 639.213,602.534 652.551,614.205 z" id="boundary" inkscape:connector-curvature="0" />
	<path style="fill:none;stroke:red;stroke-width:1px;stroke-linecap:butt;stroke-linejoin:miter;stroke-opacity:1" d="M 617.539,720.908 604.202,709.237 z" id="boundary" inkscape:connector-curvature="0" />
	<path style="fill:none;stroke:red;stroke-width:1px;stroke-linecap:butt;stroke-linejoin:miter;stroke-opacity:1" d="M 664.222,627.543 677.56,639.213 z" id="boundary" inkscape:connector-curvature="0" />
	<path style="fill:none;stroke:red;stroke-width:1px;stroke-linecap:butt;stroke-linejoin:miter;stroke-opacity:1" d="M 630.877,730.911 617.539,720.908 z" id="boundary" inkscape:connector-curvature="0" />
	<path style="fill:none;stroke:red;stroke-width:1px;stroke-linecap:butt;stroke-linejoin:miter;stroke-opacity:1" d="M 589.197,972.659 605.869,964.323 z" id="boundary" inkscape:connector-curvature="0" />
	<path style="fill:none;stroke:red;stroke-width:1px;stroke-linecap:butt;stroke-linejoin:miter;stroke-opacity:1" d="M 605.869,964.323 622.541,964.323 z" id="boundary" inkscape:connector-curvature="0" />
	<path style="fill:none;stroke:red;stroke-width:1px;stroke-linecap:butt;stroke-linejoin:miter;stroke-opacity:1" d="M 637.546,955.987 622.541,964.323 z" id="boundary" inkscape:connector-curvature="0" />
	<path style="fill:none;stroke:red;stroke-width:1px;stroke-linecap:butt;stroke-linejoin:miter;stroke-opacity:1" d="M 574.192,980.995 589.197,972.659 z" id="boundary" inkscape:connector-curvature="0" />
	<path style="fill:none;stroke:red;stroke-width:1px;stroke-linecap:butt;stroke-linejoin:miter;stroke-opacity:1" d="M 525.842,989.331 542.514,989.331 z" id="boundary" inkscape:connector-curvature="0" />
	<path style="fill:none;stroke:red;stroke-width:1px;stroke-linecap:butt;stroke-linejoin:miter;stroke-opacity:1" d="M 557.519,980.995 542.514,989.331 z" id="boundary" inkscape:connector-curvature="0" />
	<path style="fill:none;stroke:red;stroke-width:1px;stroke-linecap:butt;stroke-linejoin:miter;stroke-opacity:1" d="M 557.519,980.995 574.192,980.995 z" id="boundary" inkscape:connector-curvature="0" />
	<path style="fill:none;stroke:red;stroke-width:1px;stroke-linecap:butt;stroke-linejoin:miter;stroke-opacity:1" d="M 655.886,750.918 639.213,745.916 z" id="boundary" inkscape:connector-curvature="0" />
	<path style="fill:none;stroke:red;stroke-width:1px;stroke-linecap:butt;stroke-linejoin:miter;stroke-opacity:1" d="M 639.213,745.916 630.877,730.911 z" id="boundary" inkscape:connector-curvature="0" />
	<path style="fill:none;stroke:red;stroke-width:1px;stroke-linecap:butt;stroke-linejoin:miter;stroke-opacity:1" d="M 655.886,750.918 667.556,764.255 z" id="boundary" inkscape:connector-curvature="0" />
	<path style="fill:none;stroke:red;stroke-width:1px;stroke-linecap:butt;stroke-linejoin:miter;stroke-opacity:1" d="M 637.546,955.987 652.551,947.65 z" id="boundary" inkscape:connector-curvature="0" />
	<path style="fill:none;stroke:red;stroke-width:1px;stroke-linecap:butt;stroke-linejoin:miter;stroke-opacity:1" d="M 667.556,939.314 652.551,947.65 z" id="boundary" inkscape:connector-curvature="0" />
	<path style="fill:none;stroke:red;stroke-width:1px;stroke-linecap:butt;stroke-linejoin:miter;stroke-opacity:1" d="M 667.556,764.255 680.894,775.926 z" id="boundary" inkscape:connector-curvature="0" />
	<path style="fill:none;stroke:red;stroke-width:1px;stroke-linecap:butt;stroke-linejoin:miter;stroke-opacity:1" d="M 667.556,939.314 684.229,937.647 z" id="boundary" inkscape:connector-curvature="0" />
	<path style="fill:none;stroke:red;stroke-width:1px;stroke-linecap:butt;stroke-linejoin:miter;stroke-opacity:1" d="M 677.56,639.213 689.23,652.551 z" id="boundary" inkscape:connector-curvature="0" />
	<path style="fill:none;stroke:red;stroke-width:1px;stroke-linecap:butt;stroke-linejoin:miter;stroke-opacity:1" d="M 702.568,664.222 714.239,677.56 z" id="boundary" inkscape:connector-curvature="0" />
	<path style="fill:none;stroke:red;stroke-width:1px;stroke-linecap:butt;stroke-linejoin:miter;stroke-opacity:1" d="M 730.911,684.229 714.239,677.56 z" id="boundary" inkscape:connector-curvature="0" />
	<path style="fill:none;stroke:red;stroke-width:1px;stroke-linecap:butt;stroke-linejoin:miter;stroke-opacity:1" d="M 730.911,684.229 742.582,697.566 z" id="boundary" inkscape:connector-curvature="0" />
	<path style="fill:none;stroke:red;stroke-width:1px;stroke-linecap:butt;stroke-linejoin:miter;stroke-opacity:1" d="M 757.587,705.903 742.582,697.566 z" id="boundary" inkscape:connector-curvature="0" />
	<path style="fill:none;stroke:red;stroke-width:1px;stroke-linecap:butt;stroke-linejoin:miter;stroke-opacity:1" d="M 789.264,705.903 772.592,714.239 z" id="boundary" inkscape:connector-curvature="0" />
	<path style="fill:none;stroke:red;stroke-width:1px;stroke-linecap:butt;stroke-linejoin:miter;stroke-opacity:1" d="M 772.592,714.239 757.587,705.903 z" id="boundary" inkscape:connector-curvature="0" />
	<path style="fill:none;stroke:red;stroke-width:1px;stroke-linecap:butt;stroke-linejoin:miter;stroke-opacity:1" d="M 702.568,664.222 689.23,652.551 z" id="boundary" inkscape:connector-curvature="0" />
	<path style="fill:none;stroke:red;stroke-width:1px;stroke-linecap:butt;stroke-linejoin:miter;stroke-opacity:1" d="M 805.936,610.871 797.6,595.866 z" id="boundary" inkscape:connector-curvature="0" />
	<path style="fill:none;stroke:red;stroke-width:1px;stroke-linecap:butt;stroke-linejoin:miter;stroke-opacity:1" d="M 797.6,595.866 792.598,579.193 z" id="boundary" inkscape:connector-curvature="0" />
	<path style="fill:none;stroke:red;stroke-width:1px;stroke-linecap:butt;stroke-linejoin:miter;stroke-opacity:1" d="M 805.936,610.871 805.936,630.877 z" id="boundary" inkscape:connector-curvature="0" />
	<path style="fill:none;stroke:red;stroke-width:1px;stroke-linecap:butt;stroke-linejoin:miter;stroke-opacity:1" d="M 805.936,630.877 805.936,655.886 z" id="boundary" inkscape:connector-curvature="0" />
	<path style="fill:none;stroke:red;stroke-width:1px;stroke-linecap:butt;stroke-linejoin:miter;stroke-opacity:1" d="M 805.936,697.566 789.264,705.903 z" id="boundary" inkscape:connector-curvature="0" />
	<path style="fill:none;stroke:red;stroke-width:1px;stroke-linecap:butt;stroke-linejoin:miter;stroke-opacity:1" d="M 805.936,680.894 805.936,697.566 z" id="boundary" inkscape:connector-curvature="0" />
	<path style="fill:none;stroke:red;stroke-width:1px;stroke-linecap:butt;stroke-linejoin:miter;stroke-opacity:1" d="M 805.936,680.894 805.936,655.886 z" id="boundary" inkscape:connector-curvature="0" />
	<path style="fill:none;stroke:red;stroke-width:1px;stroke-linecap:butt;stroke-linejoin:miter;stroke-opacity:1" d="M 705.903,800.934 692.565,789.264 z" id="boundary" inkscape:connector-curvature="0" />
	<path style="fill:none;stroke:red;stroke-width:1px;stroke-linecap:butt;stroke-linejoin:miter;stroke-opacity:1" d="M 692.565,789.264 680.894,775.926 z" id="boundary" inkscape:connector-curvature="0" />
	<path style="fill:none;stroke:red;stroke-width:1px;stroke-linecap:butt;stroke-linejoin:miter;stroke-opacity:1" d="M 684.229,937.647 697.566,922.642 z" id="boundary" inkscape:connector-curvature="0" />
	<path style="fill:none;stroke:red;stroke-width:1px;stroke-linecap:butt;stroke-linejoin:miter;stroke-opacity:1" d="M 697.566,922.642 714.239,914.306 z" id="boundary" inkscape:connector-curvature="0" />
	<path style="fill:none;stroke:red;stroke-width:1px;stroke-linecap:butt;stroke-linejoin:miter;stroke-opacity:1" d="M 717.573,814.272 730.911,825.943 z" id="boundary" inkscape:connector-curvature="0" />
	<path style="fill:none;stroke:red;stroke-width:1px;stroke-linecap:butt;stroke-linejoin:miter;stroke-opacity:1" d="M 705.903,800.934 717.573,814.272 z" id="boundary" inkscape:connector-curvature="0" />
	<path style="fill:none;stroke:red;stroke-width:1px;stroke-linecap:butt;stroke-linejoin:miter;stroke-opacity:1" d="M 714.239,914.306 730.911,905.97 z" id="boundary" inkscape:connector-curvature="0" />
	<path style="fill:none;stroke:red;stroke-width:1px;stroke-linecap:butt;stroke-linejoin:miter;stroke-opacity:1" d="M 742.582,839.281 730.911,825.943 z" id="boundary" inkscape:connector-curvature="0" />
	<path style="fill:none;stroke:red;stroke-width:1px;stroke-linecap:butt;stroke-linejoin:miter;stroke-opacity:1" d="M 730.911,905.97 747.583,897.634 z" id="boundary" inkscape:connector-curvature="0" />
	<path style="fill:none;stroke:red;stroke-width:1px;stroke-linecap:butt;stroke-linejoin:miter;stroke-opacity:1" d="M 755.919,870.958 747.583,897.634 z" id="boundary" inkscape:connector-curvature="0" />
	<path style="fill:none;stroke:red;stroke-width:1px;stroke-linecap:butt;stroke-linejoin:miter;stroke-opacity:1" d="M 750.918,854.286 755.919,870.958 z" id="boundary" inkscape:connector-curvature="0" />
	<path style="fill:none;stroke:red;stroke-width:1px;stroke-linecap:butt;stroke-linejoin:miter;stroke-opacity:1" d="M 750.918,854.286 742.582,839.281 z" id="boundary" inkscape:connector-curvature="0" />
	<circle cx="4" cy="200.733" r="4" fill="#0" id="circle0"/>
	<circle cx="12.3361" cy="215.738" r="4" fill="#0" id="circle1"/>
	<circle cx="17.3378" cy="187.395" r="4" fill="#0" id="circle2"/>
	<circle cx="20.6723" cy="230.743" r="4" fill="#0" id="circle3"/>
	<circle cx="30.6756" cy="174.057" r="4" fill="#0" id="circle4"/>
	<circle cx="35.6773" cy="239.079" r="4" fill="#0" id="circle5"/>
	<circle cx="37.3445" cy="684.229" r="4" fill="#0" id="circle6"/>
	<circle cx="37.3445" cy="700.901" r="4" fill="#0" id="circle7"/>
	<circle cx="44.0134" cy="162.387" r="4" fill="#0" id="circle8"/>
	<circle cx="45.6807" cy="659.22" r="4" fill="#0" id="circle9"/>
	<circle cx="45.6807" cy="715.906" r="4" fill="#0" id="circle10"/>
	<circle cx="45.6807" cy="732.578" r="4" fill="#0" id="circle11"/>
	<circle cx="47.3479" cy="252.417" r="4" fill="#0" id="circle12"/>
	<circle cx="54.0168" cy="634.212" r="4" fill="#0" id="circle13"/>
	<circle cx="54.0168" cy="747.583" r="4" fill="#0" id="circle14"/>
	<circle cx="60.6857" cy="162.387" r="4" fill="#0" id="circle15"/>
	<circle cx="60.6857" cy="264.087" r="4" fill="#0" id="circle16"/>
	<circle cx="62.3529" cy="617.539" r="4" fill="#0" id="circle17"/>
	<circle cx="62.3529" cy="762.588" r="4" fill="#0" id="circle18"/>
	<circle cx="70.6891" cy="777.593" r="4" fill="#0" id="circle19"/>
	<circle cx="72.3563" cy="149.049" r="4" fill="#0" id="circle20"/>
	<circle cx="72.3563" cy="277.425" r="4" fill="#0" id="circle21"/>
	<circle cx="75.6908" cy="604.202" r="4" fill="#0" id="circle22"/>
	<circle cx="84.0269" cy="587.529" r="4" fill="#0" id="circle23"/>
	<circle cx="85.6941" cy="137.378" r="4" fill="#0" id="circle24"/>
	<circle cx="85.6941" cy="289.096" r="4" fill="#0" id="circle25"/>
	<circle cx="87.3613" cy="780.928" r="4" fill="#0" id="circle26"/>
	<circle cx="92.363" cy="570.857" r="4" fill="#0" id="circle27"/>
	<circle cx="97.3647" cy="124.04" r="4" fill="#0" id="circle28"/>
	<circle cx="97.3647" cy="302.434" r="4" fill="#0" id="circle29"/>
	<circle cx="100.699" cy="554.185" r="4" fill="#0" id="circle30"/>
	<circle cx="104.034" cy="775.926" r="4" fill="#0" id="circle31"/>
	<circle cx="105.701" cy="317.439" r="4" fill="#0" id="circle32"/>
	<circle cx="109.035" cy="537.513" r="4" fill="#0" id="circle33"/>
	<circle cx="110.703" cy="112.37" r="4" fill="#0" id="circle34"/>
	<circle cx="112.37" cy="334.111" r="4" fill="#0" id="circle35"/>
	<circle cx="112.37" cy="517.506" r="4" fill="#0" id="circle36"/>
	<circle cx="120.706" cy="349.116" r="4" fill="#0" id="circle37"/>
	<circle cx="120.706" cy="484.161" r="4" fill="#0" id="circle38"/>
	<circle cx="120.706" cy="500.834" r="4" fill="#0" id="circle39"/>
	<circle cx="120.706" cy="780.928" r="4" fill="#0" id="circle40"/>
	<circle cx="122.373" cy="99.0319" r="4" fill="#0" id="circle41"/>
	<circle cx="129.042" cy="364.121" r="4" fill="#0" id="circle42"/>
	<circle cx="129.042" cy="380.793" r="4" fill="#0" id="circle43"/>
	<circle cx="129.042" cy="397.466" r="4" fill="#0" id="circle44"/>
	<circle cx="129.042" cy="417.472" r="4" fill="#0" id="circle45"/>
	<circle cx="129.042" cy="434.145" r="4" fill="#0" id="circle46"/>
	<circle cx="129.042" cy="459.153" r="4" fill="#0" id="circle47"/>
	<circle cx="137.378" cy="780.928" r="4" fill="#0" id="circle48"/>
	<circle cx="139.045" cy="90.6958" r="4" fill="#0" id="circle49"/>
	<circle cx="142.38" cy="797.6" r="4" fill="#0" id="circle50"/>
	<circle cx="152.383" cy="79.0252" r="4" fill="#0" id="circle51"/>
	<circle cx="155.718" cy="809.271" r="4" fill="#0" id="circle52"/>
	<circle cx="162.387" cy="825.943" r="4" fill="#0" id="circle53"/>
	<circle cx="167.388" cy="70.6891" r="4" fill="#0" id="circle54"/>
	<circle cx="170.723" cy="840.948" r="4" fill="#0" id="circle55"/>
	<circle cx="179.059" cy="855.953" r="4" fill="#0" id="circle56"/>
	<circle cx="180.726" cy="57.3513" r="4" fill="#0" id="circle57"/>
	<circle cx="189.062" cy="869.291" r="4" fill="#0" id="circle58"/>
	<circle cx="197.398" cy="49.0151" r="4" fill="#0" id="circle59"/>
	<circle cx="197.398" cy="884.296" r="4" fill="#0" id="circle60"/>
	<circle cx="209.069" cy="897.634" r="4" fill="#0" id="circle61"/>
	<circle cx="214.071" cy="40.679" r="4" fill="#0" id="circle62"/>
	<circle cx="224.074" cy="905.97" r="4" fill="#0" id="circle63"/>
	<circle cx="230.743" cy="32.3429" r="4" fill="#0" id="circle64"/>
	<circle cx="239.079" cy="914.306" r="4" fill="#0" id="circle65"/>
	<circle cx="247.415" cy="24.0067" r="4" fill="#0" id="circle66"/>
	<circle cx="255.751" cy="914.306" r="4" fill="#0" id="circle67"/>
	<circle cx="264.087" cy="15.6706" r="4" fill="#0" id="circle68"/>
	<circle cx="272.424" cy="914.306" r="4" fill="#0" id="circle69"/>
	<circle cx="280.76" cy="7.33445" r="4" fill="#0" id="circle70"/>
	<circle cx="287.429" cy="922.642" r="4" fill="#0" id="circle71"/>
	<circle cx="297.432" cy="7.33445" r="4" fill="#0" id="circle72"/>
	<circle cx="302.434" cy="930.978" r="4" fill="#0" id="circle73"/>
	<circle cx="314.104" cy="4" r="4" fill="#0" id="circle74"/>
	<circle cx="319.106" cy="930.978" r="4" fill="#0" id="circle75"/>
	<circle cx="330.776" cy="4" r="4" fill="#0" id="circle76"/>
	<circle cx="334.111" cy="939.314" r="4" fill="#0" id="circle77"/>
	<circle cx="347.449" cy="4" r="4" fill="#0" id="circle78"/>
	<circle cx="349.116" cy="947.65" r="4" fill="#0" id="circle79"/>
	<circle cx="364.121" cy="4" r="4" fill="#0" id="circle80"/>
	<circle cx="364.121" cy="955.987" r="4" fill="#0" id="circle81"/>
	<circle cx="380.793" cy="4" r="4" fill="#0" id="circle82"/>
	<circle cx="380.793" cy="959.321" r="4" fill="#0" id="circle83"/>
	<circle cx="397.466" cy="4" r="4" fill="#0" id="circle84"/>
	<circle cx="397.466" cy="964.323" r="4" fill="#0" id="circle85"/>
	<circle cx="412.471" cy="12.3361" r="4" fill="#0" id="circle86"/>
	<circle cx="412.471" cy="972.659" r="4" fill="#0" id="circle87"/>
	<circle cx="427.476" cy="980.995" r="4" fill="#0" id="circle88"/>
	<circle cx="429.143" cy="12.3361" r="4" fill="#0" id="circle89"/>
	<circle cx="442.481" cy="989.331" r="4" fill="#0" id="circle90"/>
	<circle cx="445.815" cy="15.6706" r="4" fill="#0" id="circle91"/>
	<circle cx="459.153" cy="989.331" r="4" fill="#0" id="circle92"/>
	<circle cx="462.487" cy="20.6723" r="4" fill="#0" id="circle93"/>
	<circle cx="464.155" cy="572.524" r="4" fill="#0" id="circle94"/>
	<circle cx="464.155" cy="589.197" r="4" fill="#0" id="circle95"/>
	<circle cx="472.491" cy="555.852" r="4" fill="#0" id="circle96"/>
	<circle cx="472.491" cy="604.202" r="4" fill="#0" id="circle97"/>
	<circle cx="475.825" cy="30.6756" r="4" fill="#0" id="circle98"/>
	<circle cx="475.825" cy="996" r="4" fill="#0" id="circle99"/>
	<circle cx="480.827" cy="619.207" r="4" fill="#0" id="circle100"/>
	<circle cx="485.829" cy="544.182" r="4" fill="#0" id="circle101"/>
	<circle cx="492.497" cy="29.0084" r="4" fill="#0" id="circle102"/>
	<circle cx="492.497" cy="989.331" r="4" fill="#0" id="circle103"/>
	<circle cx="495.832" cy="530.844" r="4" fill="#0" id="circle104"/>
	<circle cx="497.499" cy="625.876" r="4" fill="#0" id="circle105"/>
	<circle cx="504.168" cy="42.3462" r="4" fill="#0" id="circle106"/>
	<circle cx="509.17" cy="996" r="4" fill="#0" id="circle107"/>
	<circle cx="512.504" cy="530.844" r="4" fill="#0" id="circle108"/>
	<circle cx="512.504" cy="634.212" r="4" fill="#0" id="circle109"/>
	<circle cx="517.506" cy="54.0168" r="4" fill="#0" id="circle110"/>
	<circle cx="525.842" cy="645.882" r="4" fill="#0" id="circle111"/>
	<circle cx="525.842" cy="989.331" r="4" fill="#0" id="circle112"/>
	<circle cx="529.176" cy="530.844" r="4" fill="#0" id="circle113"/>
	<circle cx="532.511" cy="62.3529" r="4" fill="#0" id="circle114"/>
	<circle cx="540.847" cy="654.218" r="4" fill="#0" id="circle115"/>
	<circle cx="542.514" cy="989.331" r="4" fill="#0" id="circle116"/>
	<circle cx="545.849" cy="74.0235" r="4" fill="#0" id="circle117"/>
	<circle cx="545.849" cy="530.844" r="4" fill="#0" id="circle118"/>
	<circle cx="547.516" cy="670.891" r="4" fill="#0" id="circle119"/>
	<circle cx="555.852" cy="87.3613" r="4" fill="#0" id="circle120"/>
	<circle cx="557.519" cy="980.995" r="4" fill="#0" id="circle121"/>
	<circle cx="560.854" cy="539.18" r="4" fill="#0" id="circle122"/>
	<circle cx="564.188" cy="675.892" r="4" fill="#0" id="circle123"/>
	<circle cx="572.524" cy="92.363" r="4" fill="#0" id="circle124"/>
	<circle cx="574.192" cy="980.995" r="4" fill="#0" id="circle125"/>
	<circle cx="575.859" cy="547.516" r="4" fill="#0" id="circle126"/>
	<circle cx="577.526" cy="687.563" r="4" fill="#0" id="circle127"/>
	<circle cx="584.195" cy="105.701" r="4" fill="#0" id="circle128"/>
	<circle cx="589.197" cy="972.659" r="4" fill="#0" id="circle129"/>
	<circle cx="590.864" cy="555.852" r="4" fill="#0" id="circle130"/>
	<circle cx="592.531" cy="695.899" r="4" fill="#0" id="circle131"/>
	<circle cx="597.533" cy="117.371" r="4" fill="#0" id="circle132"/>
	<circle cx="604.202" cy="565.855" r="4" fill="#0" id="circle133"/>
	<circle cx="604.202" cy="709.237" r="4" fill="#0" id="circle134"/>
	<circle cx="605.869" cy="964.323" r="4" fill="#0" id="circle135"/>
	<circle cx="609.203" cy="130.709" r="4" fill="#0" id="circle136"/>
	<circle cx="615.872" cy="579.193" r="4" fill="#0" id="circle137"/>
	<circle cx="617.539" cy="720.908" r="4" fill="#0" id="circle138"/>
	<circle cx="622.541" cy="964.323" r="4" fill="#0" id="circle139"/>
	<circle cx="625.876" cy="137.378" r="4" fill="#0" id="circle140"/>
	<circle cx="629.21" cy="589.197" r="4" fill="#0" id="circle141"/>
	<circle cx="630.877" cy="730.911" r="4" fill="#0" id="circle142"/>
	<circle cx="637.546" cy="955.987" r="4" fill="#0" id="circle143"/>
	<circle cx="639.213" cy="602.534" r="4" fill="#0" id="circle144"/>
	<circle cx="639.213" cy="745.916" r="4" fill="#0" id="circle145"/>
	<circle cx="640.881" cy="145.714" r="4" fill="#0" id="circle146"/>
	<circle cx="652.551" cy="614.205" r="4" fill="#0" id="circle147"/>
	<circle cx="652.551" cy="947.65" r="4" fill="#0" id="circle148"/>
	<circle cx="655.886" cy="154.05" r="4" fill="#0" id="circle149"/>
	<circle cx="655.886" cy="750.918" r="4" fill="#0" id="circle150"/>
	<circle cx="664.222" cy="627.543" r="4" fill="#0" id="circle151"/>
	<circle cx="667.556" cy="764.255" r="4" fill="#0" id="circle152"/>
	<circle cx="667.556" cy="939.314" r="4" fill="#0" id="circle153"/>
	<circle cx="672.558" cy="154.05" r="4" fill="#0" id="circle154"/>
	<circle cx="677.56" cy="639.213" r="4" fill="#0" id="circle155"/>
	<circle cx="680.894" cy="775.926" r="4" fill="#0" id="circle156"/>
	<circle cx="684.229" cy="937.647" r="4" fill="#0" id="circle157"/>
	<circle cx="689.23" cy="154.05" r="4" fill="#0" id="circle158"/>
	<circle cx="689.23" cy="652.551" r="4" fill="#0" id="circle159"/>
	<circle cx="692.565" cy="789.264" r="4" fill="#0" id="circle160"/>
	<circle cx="697.566" cy="439.146" r="4" fill="#0" id="circle161"/>
	<circle cx="697.566" cy="922.642" r="4" fill="#0" id="circle162"/>
	<circle cx="702.568" cy="664.222" r="4" fill="#0" id="circle163"/>
	<circle cx="705.903" cy="150.716" r="4" fill="#0" id="circle164"/>
	<circle cx="705.903" cy="454.151" r="4" fill="#0" id="circle165"/>
	<circle cx="705.903" cy="470.824" r="4" fill="#0" id="circle166"/>
	<circle cx="705.903" cy="800.934" r="4" fill="#0" id="circle167"/>
	<circle cx="714.239" cy="439.146" r="4" fill="#0" id="circle168"/>
	<circle cx="714.239" cy="485.829" r="4" fill="#0" id="circle169"/>
	<circle cx="714.239" cy="677.56" r="4" fill="#0" id="circle170"/>
	<circle cx="714.239" cy="914.306" r="4" fill="#0" id="circle171"/>
	<circle cx="717.573" cy="814.272" r="4" fill="#0" id="circle172"/>
	<circle cx="722.575" cy="145.714" r="4" fill="#0" id="circle173"/>
	<circle cx="722.575" cy="500.834" r="4" fill="#0" id="circle174"/>
	<circle cx="729.244" cy="430.81" r="4" fill="#0" id="circle175"/>
	<circle cx="730.911" cy="684.229" r="4" fill="#0" id="circle176"/>
	<circle cx="730.911" cy="825.943" r="4" fill="#0" id="circle177"/>
	<circle cx="730.911" cy="905.97" r="4" fill="#0" id="circle178"/>
	<circle cx="734.245" cy="514.171" r="4" fill="#0" id="circle179"/>
	<circle cx="739.247" cy="145.714" r="4" fill="#0" id="circle180"/>
	<circle cx="742.582" cy="420.807" r="4" fill="#0" id="circle181"/>
	<circle cx="742.582" cy="529.176" r="4" fill="#0" id="circle182"/>
	<circle cx="742.582" cy="697.566" r="4" fill="#0" id="circle183"/>
	<circle cx="742.582" cy="839.281" r="4" fill="#0" id="circle184"/>
	<circle cx="747.583" cy="897.634" r="4" fill="#0" id="circle185"/>
	<circle cx="750.918" cy="854.286" r="4" fill="#0" id="circle186"/>
	<circle cx="754.252" cy="542.514" r="4" fill="#0" id="circle187"/>
	<circle cx="755.919" cy="142.38" r="4" fill="#0" id="circle188"/>
	<circle cx="755.919" cy="255.751" r="4" fill="#0" id="circle189"/>
	<circle cx="755.919" cy="870.958" r="4" fill="#0" id="circle190"/>
	<circle cx="757.587" cy="705.903" r="4" fill="#0" id="circle191"/>
	<circle cx="759.254" cy="412.471" r="4" fill="#0" id="circle192"/>
	<circle cx="764.255" cy="239.079" r="4" fill="#0" id="circle193"/>
	<circle cx="764.255" cy="270.756" r="4" fill="#0" id="circle194"/>
	<circle cx="767.59" cy="554.185" r="4" fill="#0" id="circle195"/>
	<circle cx="772.592" cy="142.38" r="4" fill="#0" id="circle196"/>
	<circle cx="772.592" cy="222.407" r="4" fill="#0" id="circle197"/>
	<circle cx="772.592" cy="285.761" r="4" fill="#0" id="circle198"/>
	<circle cx="772.592" cy="397.466" r="4" fill="#0" id="circle199"/>
	<circle cx="772.592" cy="714.239" r="4" fill="#0" id="circle200"/>
	<circle cx="779.261" cy="567.523" r="4" fill="#0" id="circle201"/>
	<circle cx="780.928" cy="205.734" r="4" fill="#0" id="circle202"/>
	<circle cx="789.264" cy="142.38" r="4" fill="#0" id="circle203"/>
	<circle cx="789.264" cy="180.726" r="4" fill="#0" id="circle204"/>
	<circle cx="789.264" cy="292.43" r="4" fill="#0" id="circle205"/>
	<circle cx="789.264" cy="380.793" r="4" fill="#0" id="circle206"/>
	<circle cx="789.264" cy="705.903" r="4" fill="#0" id="circle207"/>
	<circle cx="792.598" cy="579.193" r="4" fill="#0" id="circle208"/>
	<circle cx="795.933" cy="159.052" r="4" fill="#0" id="circle209"/>
	<circle cx="797.6" cy="595.866" r="4" fill="#0" id="circle210"/>
	<circle cx="800.934" cy="305.768" r="4" fill="#0" id="circle211"/>
	<circle cx="802.602" cy="369.123" r="4" fill="#0" id="circle212"/>
	<circle cx="805.936" cy="347.449" r="4" fill="#0" id="circle213"/>
	<circle cx="805.936" cy="610.871" r="4" fill="#0" id="circle214"/>
	<circle cx="805.936" cy="630.877" r="4" fill="#0" id="circle215"/>
	<circle cx="805.936" cy="655.886" r="4" fill="#0" id="circle216"/>
	<circle cx="805.936" cy="680.894" r="4" fill="#0" id="circle217"/>
	<circle cx="805.936" cy="697.566" r="4" fill="#0" id="circle218"/>
	<circle cx="809.271" cy="320.773" r="4" fill="#0" id="circle219"/>
	</g>
</svg>