<?xml version="1.0" encoding="UTF-8" standalone="no"?>
<!-- Created with CurveBenchmark -->
<svg
	xmlns:dc="http://purl.org/dc/elements/1.1/"
	xmlns:cc="http://creativecommons.org/ns#"
	xmlns:rdf="http://www.w3.org/1999/02/22-rdf-syntax-ns#"
	xmlns:svg="http://www.w3.org/2000/svg"
	xmlns="http://www.w3.org/2000/svg"
	xmlns:sodipodi="http://sodipodi.sourceforge.net/DTD/sodipodi-0.dtd"
	xmlns:inkscape="http://www.inkscape.org/namespaces/inkscape"
	width="1000"
	height="1000"
	id="svg2"
	version="1.1"
	sodipodi:docname="manifold/ccrust-tool44.png.txt">
<defs
	id="defs4" />
<metadata
	id="metadata7">
	<rdf:RDF>
		<cc:Work
			rdf:about="">
			<dc:format>image/svg+xml</dc:format>
			<dc:type
				rdf:resource="http://purl.org/dc/dcmitype/StillImage" />
			<dc:title></dc:title>
		</cc:Work>
	</rdf:RDF>
</metadata>
<g
	inkscape:label="Layer 1"
	inkscape:groupmode="layer"
	id="layer1">
	<path style="fill:none;stroke:red;stroke-width:1px;stroke-linecap:butt;stroke-linejoin:miter;stroke-opacity:1" d="M 27.9758,33.9698 54.9486,18.9849 z" id="boundary" inkscape:connector-curvature="0" />
	<path style="fill:none;stroke:red;stroke-width:1px;stroke-linecap:butt;stroke-linejoin:miter;stroke-opacity:1" d="M 81.9215,4 111.891,4 z" id="boundary" inkscape:connector-curvature="0" />
	<path style="fill:none;stroke:red;stroke-width:1px;stroke-linecap:butt;stroke-linejoin:miter;stroke-opacity:1" d="M 141.861,12.9909 111.891,4 z" id="boundary" inkscape:connector-curvature="0" />
	<path style="fill:none;stroke:red;stroke-width:1px;stroke-linecap:butt;stroke-linejoin:miter;stroke-opacity:1" d="M 171.831,18.9849 141.861,12.9909 z" id="boundary" inkscape:connector-curvature="0" />
	<path style="fill:none;stroke:red;stroke-width:1px;stroke-linecap:butt;stroke-linejoin:miter;stroke-opacity:1" d="M 54.9486,18.9849 81.9215,4 z" id="boundary" inkscape:connector-curvature="0" />
	<path style="fill:none;stroke:red;stroke-width:1px;stroke-linecap:butt;stroke-linejoin:miter;stroke-opacity:1" d="M 4,57.9456 21.9819,81.9215 z" id="boundary" inkscape:connector-curvature="0" />
	<path style="fill:none;stroke:red;stroke-width:1px;stroke-linecap:butt;stroke-linejoin:miter;stroke-opacity:1" d="M 4,57.9456 27.9758,33.9698 z" id="boundary" inkscape:connector-curvature="0" />
	<path style="fill:none;stroke:red;stroke-width:1px;stroke-linecap:butt;stroke-linejoin:miter;stroke-opacity:1" d="M 51.9517,81.9215 81.9215,81.9215 z" id="boundary" inkscape:connector-curvature="0" />
	<path style="fill:none;stroke:red;stroke-width:1px;stroke-linecap:butt;stroke-linejoin:miter;stroke-opacity:1" d="M 51.9517,81.9215 21.9819,81.9215 z" id="boundary" inkscape:connector-curvature="0" />
	<path style="fill:none;stroke:red;stroke-width:1px;stroke-linecap:butt;stroke-linejoin:miter;stroke-opacity:1" d="M 108.894,96.9063 81.9215,81.9215 z" id="boundary" inkscape:connector-curvature="0" />
	<path style="fill:none;stroke:red;stroke-width:1px;stroke-linecap:butt;stroke-linejoin:miter;stroke-opacity:1" d="M 198.804,33.9698 222.779,51.9517 z" id="boundary" inkscape:connector-curvature="0" />
	<path style="fill:none;stroke:red;stroke-width:1px;stroke-linecap:butt;stroke-linejoin:miter;stroke-opacity:1" d="M 198.804,33.9698 171.831,18.9849 z" id="boundary" inkscape:connector-curvature="0" />
	<path style="fill:none;stroke:red;stroke-width:1px;stroke-linecap:butt;stroke-linejoin:miter;stroke-opacity:1" d="M 276.725,78.9245 246.755,72.9305 z" id="boundary" inkscape:connector-curvature="0" />
	<path style="fill:none;stroke:red;stroke-width:1px;stroke-linecap:butt;stroke-linejoin:miter;stroke-opacity:1" d="M 246.755,72.9305 222.779,51.9517 z" id="boundary" inkscape:connector-curvature="0" />
	<path style="fill:none;stroke:red;stroke-width:1px;stroke-linecap:butt;stroke-linejoin:miter;stroke-opacity:1" d="M 276.725,78.9245 306.695,87.9154 z" id="boundary" inkscape:connector-curvature="0" />
	<path style="fill:none;stroke:red;stroke-width:1px;stroke-linecap:butt;stroke-linejoin:miter;stroke-opacity:1" d="M 336.665,93.9094 306.695,87.9154 z" id="boundary" inkscape:connector-curvature="0" />
	<path style="fill:none;stroke:red;stroke-width:1px;stroke-linecap:butt;stroke-linejoin:miter;stroke-opacity:1" d="M 366.634,93.9094 336.665,93.9094 z" id="boundary" inkscape:connector-curvature="0" />
	<path style="fill:none;stroke:red;stroke-width:1px;stroke-linecap:butt;stroke-linejoin:miter;stroke-opacity:1" d="M 456.544,108.894 426.574,108.894 z" id="boundary" inkscape:connector-curvature="0" />
	<path style="fill:none;stroke:red;stroke-width:1px;stroke-linecap:butt;stroke-linejoin:miter;stroke-opacity:1" d="M 426.574,108.894 396.604,102.9 z" id="boundary" inkscape:connector-curvature="0" />
	<path style="fill:none;stroke:red;stroke-width:1px;stroke-linecap:butt;stroke-linejoin:miter;stroke-opacity:1" d="M 396.604,102.9 366.634,93.9094 z" id="boundary" inkscape:connector-curvature="0" />
	<path style="fill:none;stroke:red;stroke-width:1px;stroke-linecap:butt;stroke-linejoin:miter;stroke-opacity:1" d="M 105.897,138.864 108.894,96.9063 z" id="boundary" inkscape:connector-curvature="0" />
	<path style="fill:none;stroke:red;stroke-width:1px;stroke-linecap:butt;stroke-linejoin:miter;stroke-opacity:1" d="M 42.9607,183.819 63.9396,207.795 z" id="boundary" inkscape:connector-curvature="0" />
	<path style="fill:none;stroke:red;stroke-width:1px;stroke-linecap:butt;stroke-linejoin:miter;stroke-opacity:1" d="M 48.9547,153.849 75.9275,138.864 z" id="boundary" inkscape:connector-curvature="0" />
	<path style="fill:none;stroke:red;stroke-width:1px;stroke-linecap:butt;stroke-linejoin:miter;stroke-opacity:1" d="M 105.897,138.864 75.9275,138.864 z" id="boundary" inkscape:connector-curvature="0" />
	<path style="fill:none;stroke:red;stroke-width:1px;stroke-linecap:butt;stroke-linejoin:miter;stroke-opacity:1" d="M 63.9396,207.795 93.9094,216.785 z" id="boundary" inkscape:connector-curvature="0" />
	<path style="fill:none;stroke:red;stroke-width:1px;stroke-linecap:butt;stroke-linejoin:miter;stroke-opacity:1" d="M 150.852,261.74 123.879,246.755 z" id="boundary" inkscape:connector-curvature="0" />
	<path style="fill:none;stroke:red;stroke-width:1px;stroke-linecap:butt;stroke-linejoin:miter;stroke-opacity:1" d="M 123.879,246.755 123.879,216.785 z" id="boundary" inkscape:connector-curvature="0" />
	<path style="fill:none;stroke:red;stroke-width:1px;stroke-linecap:butt;stroke-linejoin:miter;stroke-opacity:1" d="M 93.9094,216.785 123.879,216.785 z" id="boundary" inkscape:connector-curvature="0" />
	<path style="fill:none;stroke:red;stroke-width:1px;stroke-linecap:butt;stroke-linejoin:miter;stroke-opacity:1" d="M 246.755,216.785 276.725,216.785 z" id="boundary" inkscape:connector-curvature="0" />
	<path style="fill:none;stroke:red;stroke-width:1px;stroke-linecap:butt;stroke-linejoin:miter;stroke-opacity:1" d="M 231.77,246.755 246.755,216.785 z" id="boundary" inkscape:connector-curvature="0" />
	<path style="fill:none;stroke:red;stroke-width:1px;stroke-linecap:butt;stroke-linejoin:miter;stroke-opacity:1" d="M 306.695,216.785 333.668,201.801 z" id="boundary" inkscape:connector-curvature="0" />
	<path style="fill:none;stroke:red;stroke-width:1px;stroke-linecap:butt;stroke-linejoin:miter;stroke-opacity:1" d="M 333.668,201.801 363.637,201.801 z" id="boundary" inkscape:connector-curvature="0" />
	<path style="fill:none;stroke:red;stroke-width:1px;stroke-linecap:butt;stroke-linejoin:miter;stroke-opacity:1" d="M 306.695,216.785 276.725,216.785 z" id="boundary" inkscape:connector-curvature="0" />
	<path style="fill:none;stroke:red;stroke-width:1px;stroke-linecap:butt;stroke-linejoin:miter;stroke-opacity:1" d="M 363.637,201.801 390.61,216.785 z" id="boundary" inkscape:connector-curvature="0" />
	<path style="fill:none;stroke:red;stroke-width:1px;stroke-linecap:butt;stroke-linejoin:miter;stroke-opacity:1" d="M 177.825,276.725 204.798,261.74 z" id="boundary" inkscape:connector-curvature="0" />
	<path style="fill:none;stroke:red;stroke-width:1px;stroke-linecap:butt;stroke-linejoin:miter;stroke-opacity:1" d="M 177.825,276.725 150.852,261.74 z" id="boundary" inkscape:connector-curvature="0" />
	<path style="fill:none;stroke:red;stroke-width:1px;stroke-linecap:butt;stroke-linejoin:miter;stroke-opacity:1" d="M 204.798,261.74 231.77,246.755 z" id="boundary" inkscape:connector-curvature="0" />
	<path style="fill:none;stroke:red;stroke-width:1px;stroke-linecap:butt;stroke-linejoin:miter;stroke-opacity:1" d="M 390.61,216.785 420.58,216.785 z" id="boundary" inkscape:connector-curvature="0" />
	<path style="fill:none;stroke:red;stroke-width:1px;stroke-linecap:butt;stroke-linejoin:miter;stroke-opacity:1" d="M 450.55,216.785 420.58,216.785 z" id="boundary" inkscape:connector-curvature="0" />
	<path style="fill:none;stroke:red;stroke-width:1px;stroke-linecap:butt;stroke-linejoin:miter;stroke-opacity:1" d="M 456.544,108.894 486.514,117.885 z" id="boundary" inkscape:connector-curvature="0" />
	<path style="fill:none;stroke:red;stroke-width:1px;stroke-linecap:butt;stroke-linejoin:miter;stroke-opacity:1" d="M 516.483,123.879 486.514,117.885 z" id="boundary" inkscape:connector-curvature="0" />
	<path style="fill:none;stroke:red;stroke-width:1px;stroke-linecap:butt;stroke-linejoin:miter;stroke-opacity:1" d="M 576.423,138.864 546.453,132.87 z" id="boundary" inkscape:connector-curvature="0" />
	<path style="fill:none;stroke:red;stroke-width:1px;stroke-linecap:butt;stroke-linejoin:miter;stroke-opacity:1" d="M 546.453,132.87 516.483,123.879 z" id="boundary" inkscape:connector-curvature="0" />
	<path style="fill:none;stroke:red;stroke-width:1px;stroke-linecap:butt;stroke-linejoin:miter;stroke-opacity:1" d="M 450.55,216.785 480.52,216.785 z" id="boundary" inkscape:connector-curvature="0" />
	<path style="fill:none;stroke:red;stroke-width:1px;stroke-linecap:butt;stroke-linejoin:miter;stroke-opacity:1" d="M 510.489,216.785 537.462,231.77 z" id="boundary" inkscape:connector-curvature="0" />
	<path style="fill:none;stroke:red;stroke-width:1px;stroke-linecap:butt;stroke-linejoin:miter;stroke-opacity:1" d="M 480.52,216.785 510.489,216.785 z" id="boundary" inkscape:connector-curvature="0" />
	<path style="fill:none;stroke:red;stroke-width:1px;stroke-linecap:butt;stroke-linejoin:miter;stroke-opacity:1" d="M 564.435,246.755 537.462,231.77 z" id="boundary" inkscape:connector-curvature="0" />
	<path style="fill:none;stroke:red;stroke-width:1px;stroke-linecap:butt;stroke-linejoin:miter;stroke-opacity:1" d="M 564.435,246.755 591.408,261.74 z" id="boundary" inkscape:connector-curvature="0" />
	<path style="fill:none;stroke:red;stroke-width:1px;stroke-linecap:butt;stroke-linejoin:miter;stroke-opacity:1" d="M 576.423,138.864 603.396,153.849 z" id="boundary" inkscape:connector-curvature="0" />
	<path style="fill:none;stroke:red;stroke-width:1px;stroke-linecap:butt;stroke-linejoin:miter;stroke-opacity:1" d="M 603.396,153.849 633.366,153.849 z" id="boundary" inkscape:connector-curvature="0" />
	<path style="fill:none;stroke:red;stroke-width:1px;stroke-linecap:butt;stroke-linejoin:miter;stroke-opacity:1" d="M 711.287,183.819 681.317,183.819 z" id="boundary" inkscape:connector-curvature="0" />
	<path style="fill:none;stroke:red;stroke-width:1px;stroke-linecap:butt;stroke-linejoin:miter;stroke-opacity:1" d="M 681.317,183.819 663.335,159.843 z" id="boundary" inkscape:connector-curvature="0" />
	<path style="fill:none;stroke:red;stroke-width:1px;stroke-linecap:butt;stroke-linejoin:miter;stroke-opacity:1" d="M 633.366,153.849 663.335,159.843 z" id="boundary" inkscape:connector-curvature="0" />
	<path style="fill:none;stroke:red;stroke-width:1px;stroke-linecap:butt;stroke-linejoin:miter;stroke-opacity:1" d="M 711.287,183.819 738.26,198.804 z" id="boundary" inkscape:connector-curvature="0" />
	<path style="fill:none;stroke:red;stroke-width:1px;stroke-linecap:butt;stroke-linejoin:miter;stroke-opacity:1" d="M 765.233,213.789 738.26,198.804 z" id="boundary" inkscape:connector-curvature="0" />
	<path style="fill:none;stroke:red;stroke-width:1px;stroke-linecap:butt;stroke-linejoin:miter;stroke-opacity:1" d="M 795.202,213.789 765.233,213.789 z" id="boundary" inkscape:connector-curvature="0" />
	<path style="fill:none;stroke:red;stroke-width:1px;stroke-linecap:butt;stroke-linejoin:miter;stroke-opacity:1" d="M 852.145,228.773 822.175,228.773 z" id="boundary" inkscape:connector-curvature="0" />
	<path style="fill:none;stroke:red;stroke-width:1px;stroke-linecap:butt;stroke-linejoin:miter;stroke-opacity:1" d="M 822.175,228.773 795.202,213.789 z" id="boundary" inkscape:connector-curvature="0" />
	<path style="fill:none;stroke:red;stroke-width:1px;stroke-linecap:butt;stroke-linejoin:miter;stroke-opacity:1" d="M 852.145,228.773 873.124,252.749 z" id="boundary" inkscape:connector-curvature="0" />
	<path style="fill:none;stroke:red;stroke-width:1px;stroke-linecap:butt;stroke-linejoin:miter;stroke-opacity:1" d="M 591.408,261.74 618.381,276.725 z" id="boundary" inkscape:connector-curvature="0" />
	<path style="fill:none;stroke:red;stroke-width:1px;stroke-linecap:butt;stroke-linejoin:miter;stroke-opacity:1" d="M 675.323,291.71 648.35,276.725 z" id="boundary" inkscape:connector-curvature="0" />
	<path style="fill:none;stroke:red;stroke-width:1px;stroke-linecap:butt;stroke-linejoin:miter;stroke-opacity:1" d="M 705.293,291.71 675.323,291.71 z" id="boundary" inkscape:connector-curvature="0" />
	<path style="fill:none;stroke:red;stroke-width:1px;stroke-linecap:butt;stroke-linejoin:miter;stroke-opacity:1" d="M 705.293,291.71 732.266,306.695 z" id="boundary" inkscape:connector-curvature="0" />
	<path style="fill:none;stroke:red;stroke-width:1px;stroke-linecap:butt;stroke-linejoin:miter;stroke-opacity:1" d="M 618.381,276.725 648.35,276.725 z" id="boundary" inkscape:connector-curvature="0" />
	<path style="fill:none;stroke:red;stroke-width:1px;stroke-linecap:butt;stroke-linejoin:miter;stroke-opacity:1" d="M 732.266,306.695 762.236,318.683 z" id="boundary" inkscape:connector-curvature="0" />
	<path style="fill:none;stroke:red;stroke-width:1px;stroke-linecap:butt;stroke-linejoin:miter;stroke-opacity:1" d="M 792.205,321.68 762.236,318.683 z" id="boundary" inkscape:connector-curvature="0" />
	<path style="fill:none;stroke:red;stroke-width:1px;stroke-linecap:butt;stroke-linejoin:miter;stroke-opacity:1" d="M 849.148,336.665 819.178,336.665 z" id="boundary" inkscape:connector-curvature="0" />
	<path style="fill:none;stroke:red;stroke-width:1px;stroke-linecap:butt;stroke-linejoin:miter;stroke-opacity:1" d="M 819.178,336.665 792.205,321.68 z" id="boundary" inkscape:connector-curvature="0" />
	<path style="fill:none;stroke:red;stroke-width:1px;stroke-linecap:butt;stroke-linejoin:miter;stroke-opacity:1" d="M 849.148,336.665 873.124,354.647 z" id="boundary" inkscape:connector-curvature="0" />
	<path style="fill:none;stroke:red;stroke-width:1px;stroke-linecap:butt;stroke-linejoin:miter;stroke-opacity:1" d="M 903.094,258.743 873.124,252.749 z" id="boundary" inkscape:connector-curvature="0" />
	<path style="fill:none;stroke:red;stroke-width:1px;stroke-linecap:butt;stroke-linejoin:miter;stroke-opacity:1" d="M 930.066,273.728 960.036,273.728 z" id="boundary" inkscape:connector-curvature="0" />
	<path style="fill:none;stroke:red;stroke-width:1px;stroke-linecap:butt;stroke-linejoin:miter;stroke-opacity:1" d="M 960.036,273.728 981.015,297.704 z" id="boundary" inkscape:connector-curvature="0" />
	<path style="fill:none;stroke:red;stroke-width:1px;stroke-linecap:butt;stroke-linejoin:miter;stroke-opacity:1" d="M 930.066,273.728 903.094,258.743 z" id="boundary" inkscape:connector-curvature="0" />
	<path style="fill:none;stroke:red;stroke-width:1px;stroke-linecap:butt;stroke-linejoin:miter;stroke-opacity:1" d="M 873.124,354.647 903.094,366.634 z" id="boundary" inkscape:connector-curvature="0" />
	<path style="fill:none;stroke:red;stroke-width:1px;stroke-linecap:butt;stroke-linejoin:miter;stroke-opacity:1" d="M 903.094,366.634 930.066,381.619 z" id="boundary" inkscape:connector-curvature="0" />
	<path style="fill:none;stroke:red;stroke-width:1px;stroke-linecap:butt;stroke-linejoin:miter;stroke-opacity:1" d="M 930.066,381.619 957.039,396.604 z" id="boundary" inkscape:connector-curvature="0" />
	<path style="fill:none;stroke:red;stroke-width:1px;stroke-linecap:butt;stroke-linejoin:miter;stroke-opacity:1" d="M 978.018,372.628 957.039,396.604 z" id="boundary" inkscape:connector-curvature="0" />
	<path style="fill:none;stroke:red;stroke-width:1px;stroke-linecap:butt;stroke-linejoin:miter;stroke-opacity:1" d="M 981.015,297.704 996,324.677 z" id="boundary" inkscape:connector-curvature="0" />
	<path style="fill:none;stroke:red;stroke-width:1px;stroke-linecap:butt;stroke-linejoin:miter;stroke-opacity:1" d="M 996,324.677 978.018,372.628 z" id="boundary" inkscape:connector-curvature="0" />
	<circle cx="4" cy="57.9456" r="4" fill="#0" id="circle0"/>
	<circle cx="18.9849" cy="162.84" r="4" fill="#0" id="circle1"/>
	<circle cx="21.9819" cy="81.9215" r="4" fill="#0" id="circle2"/>
	<circle cx="27.9758" cy="33.9698" r="4" fill="#0" id="circle3"/>
	<circle cx="42.9607" cy="183.819" r="4" fill="#0" id="circle4"/>
	<circle cx="48.9547" cy="153.849" r="4" fill="#0" id="circle5"/>
	<circle cx="51.9517" cy="81.9215" r="4" fill="#0" id="circle6"/>
	<circle cx="54.9486" cy="18.9849" r="4" fill="#0" id="circle7"/>
	<circle cx="63.9396" cy="207.795" r="4" fill="#0" id="circle8"/>
	<circle cx="75.9275" cy="138.864" r="4" fill="#0" id="circle9"/>
	<circle cx="81.9215" cy="4" r="4" fill="#0" id="circle10"/>
	<circle cx="81.9215" cy="81.9215" r="4" fill="#0" id="circle11"/>
	<circle cx="93.9094" cy="216.785" r="4" fill="#0" id="circle12"/>
	<circle cx="105.897" cy="138.864" r="4" fill="#0" id="circle13"/>
	<circle cx="108.894" cy="96.9063" r="4" fill="#0" id="circle14"/>
	<circle cx="111.891" cy="4" r="4" fill="#0" id="circle15"/>
	<circle cx="123.879" cy="216.785" r="4" fill="#0" id="circle16"/>
	<circle cx="123.879" cy="246.755" r="4" fill="#0" id="circle17"/>
	<circle cx="141.861" cy="12.9909" r="4" fill="#0" id="circle18"/>
	<circle cx="150.852" cy="261.74" r="4" fill="#0" id="circle19"/>
	<circle cx="171.831" cy="18.9849" r="4" fill="#0" id="circle20"/>
	<circle cx="177.825" cy="276.725" r="4" fill="#0" id="circle21"/>
	<circle cx="198.804" cy="33.9698" r="4" fill="#0" id="circle22"/>
	<circle cx="204.798" cy="261.74" r="4" fill="#0" id="circle23"/>
	<circle cx="222.779" cy="51.9517" r="4" fill="#0" id="circle24"/>
	<circle cx="231.77" cy="246.755" r="4" fill="#0" id="circle25"/>
	<circle cx="246.755" cy="72.9305" r="4" fill="#0" id="circle26"/>
	<circle cx="246.755" cy="216.785" r="4" fill="#0" id="circle27"/>
	<circle cx="276.725" cy="78.9245" r="4" fill="#0" id="circle28"/>
	<circle cx="276.725" cy="216.785" r="4" fill="#0" id="circle29"/>
	<circle cx="306.695" cy="87.9154" r="4" fill="#0" id="circle30"/>
	<circle cx="306.695" cy="216.785" r="4" fill="#0" id="circle31"/>
	<circle cx="333.668" cy="201.801" r="4" fill="#0" id="circle32"/>
	<circle cx="336.665" cy="93.9094" r="4" fill="#0" id="circle33"/>
	<circle cx="363.637" cy="201.801" r="4" fill="#0" id="circle34"/>
	<circle cx="366.634" cy="93.9094" r="4" fill="#0" id="circle35"/>
	<circle cx="390.61" cy="216.785" r="4" fill="#0" id="circle36"/>
	<circle cx="396.604" cy="102.9" r="4" fill="#0" id="circle37"/>
	<circle cx="420.58" cy="216.785" r="4" fill="#0" id="circle38"/>
	<circle cx="426.574" cy="108.894" r="4" fill="#0" id="circle39"/>
	<circle cx="450.55" cy="216.785" r="4" fill="#0" id="circle40"/>
	<circle cx="456.544" cy="108.894" r="4" fill="#0" id="circle41"/>
	<circle cx="480.52" cy="216.785" r="4" fill="#0" id="circle42"/>
	<circle cx="486.514" cy="117.885" r="4" fill="#0" id="circle43"/>
	<circle cx="510.489" cy="216.785" r="4" fill="#0" id="circle44"/>
	<circle cx="516.483" cy="123.879" r="4" fill="#0" id="circle45"/>
	<circle cx="537.462" cy="231.77" r="4" fill="#0" id="circle46"/>
	<circle cx="546.453" cy="132.87" r="4" fill="#0" id="circle47"/>
	<circle cx="564.435" cy="246.755" r="4" fill="#0" id="circle48"/>
	<circle cx="576.423" cy="138.864" r="4" fill="#0" id="circle49"/>
	<circle cx="591.408" cy="261.74" r="4" fill="#0" id="circle50"/>
	<circle cx="603.396" cy="153.849" r="4" fill="#0" id="circle51"/>
	<circle cx="618.381" cy="276.725" r="4" fill="#0" id="circle52"/>
	<circle cx="633.366" cy="153.849" r="4" fill="#0" id="circle53"/>
	<circle cx="648.35" cy="276.725" r="4" fill="#0" id="circle54"/>
	<circle cx="663.335" cy="159.843" r="4" fill="#0" id="circle55"/>
	<circle cx="675.323" cy="291.71" r="4" fill="#0" id="circle56"/>
	<circle cx="681.317" cy="183.819" r="4" fill="#0" id="circle57"/>
	<circle cx="705.293" cy="291.71" r="4" fill="#0" id="circle58"/>
	<circle cx="711.287" cy="183.819" r="4" fill="#0" id="circle59"/>
	<circle cx="732.266" cy="306.695" r="4" fill="#0" id="circle60"/>
	<circle cx="738.26" cy="198.804" r="4" fill="#0" id="circle61"/>
	<circle cx="762.236" cy="318.683" r="4" fill="#0" id="circle62"/>
	<circle cx="765.233" cy="213.789" r="4" fill="#0" id="circle63"/>
	<circle cx="792.205" cy="321.68" r="4" fill="#0" id="circle64"/>
	<circle cx="795.202" cy="213.789" r="4" fill="#0" id="circle65"/>
	<circle cx="819.178" cy="336.665" r="4" fill="#0" id="circle66"/>
	<circle cx="822.175" cy="228.773" r="4" fill="#0" id="circle67"/>
	<circle cx="849.148" cy="336.665" r="4" fill="#0" id="circle68"/>
	<circle cx="852.145" cy="228.773" r="4" fill="#0" id="circle69"/>
	<circle cx="873.124" cy="252.749" r="4" fill="#0" id="circle70"/>
	<circle cx="873.124" cy="354.647" r="4" fill="#0" id="circle71"/>
	<circle cx="903.094" cy="258.743" r="4" fill="#0" id="circle72"/>
	<circle cx="903.094" cy="366.634" r="4" fill="#0" id="circle73"/>
	<circle cx="930.066" cy="273.728" r="4" fill="#0" id="circle74"/>
	<circle cx="930.066" cy="381.619" r="4" fill="#0" id="circle75"/>
	<circle cx="957.039" cy="396.604" r="4" fill="#0" id="circle76"/>
	<circle cx="960.036" cy="273.728" r="4" fill="#0" id="circle77"/>
	<circle cx="978.018" cy="372.628" r="4" fill="#0" id="circle78"/>
	<circle cx="981.015" cy="297.704" r="4" fill="#0" id="circle79"/>
	<circle cx="996" cy="324.677" r="4" fill="#0" id="circle80"/>
	</g>
</svg>