<?xml version="1.0" encoding="UTF-8" standalone="no"?>
<!-- Created with CurveBenchmark -->
<svg
	xmlns:dc="http://purl.org/dc/elements/1.1/"
	xmlns:cc="http://creativecommons.org/ns#"
	xmlns:rdf="http://www.w3.org/1999/02/22-rdf-syntax-ns#"
	xmlns:svg="http://www.w3.org/2000/svg"
	xmlns="http://www.w3.org/2000/svg"
	xmlns:sodipodi="http://sodipodi.sourceforge.net/DTD/sodipodi-0.dtd"
	xmlns:inkscape="http://www.inkscape.org/namespaces/inkscape"
	width="1000"
	height="1000"
	id="svg2"
	version="1.1"
	sodipodi:docname="manifold/ccrust-dino10.png.txt">
<defs
	id="defs4" />
<metadata
	id="metadata7">
	<rdf:RDF>
		<cc:Work
			rdf:about="">
			<dc:format>image/svg+xml</dc:format>
			<dc:type
				rdf:resource="http://purl.org/dc/dcmitype/StillImage" />
			<dc:title></dc:title>
		</cc:Work>
	</rdf:RDF>
</metadata>
<g
	inkscape:label="Layer 1"
	inkscape:groupmode="layer"
	id="layer1">
	<path style="fill:none;stroke:red;stroke-width:1px;stroke-linecap:butt;stroke-linejoin:miter;stroke-opacity:1" d="M 123.159,45.7057 123.159,60.6006 z" id="boundary" inkscape:connector-curvature="0" />
	<path style="fill:none;stroke:red;stroke-width:1px;stroke-linecap:butt;stroke-linejoin:miter;stroke-opacity:1" d="M 123.159,45.7057 135.075,33.7898 z" id="boundary" inkscape:connector-curvature="0" />
	<path style="fill:none;stroke:red;stroke-width:1px;stroke-linecap:butt;stroke-linejoin:miter;stroke-opacity:1" d="M 138.054,79.964 123.159,75.4955 z" id="boundary" inkscape:connector-curvature="0" />
	<path style="fill:none;stroke:red;stroke-width:1px;stroke-linecap:butt;stroke-linejoin:miter;stroke-opacity:1" d="M 123.159,75.4955 123.159,60.6006 z" id="boundary" inkscape:connector-curvature="0" />
	<path style="fill:none;stroke:red;stroke-width:1px;stroke-linecap:butt;stroke-linejoin:miter;stroke-opacity:1" d="M 145.502,15.9159 135.075,33.7898 z" id="boundary" inkscape:connector-curvature="0" />
	<path style="fill:none;stroke:red;stroke-width:1px;stroke-linecap:butt;stroke-linejoin:miter;stroke-opacity:1" d="M 44.2162,264.661 59.1111,264.661 z" id="boundary" inkscape:connector-curvature="0" />
	<path style="fill:none;stroke:red;stroke-width:1px;stroke-linecap:butt;stroke-linejoin:miter;stroke-opacity:1" d="M 74.006,264.661 59.1111,264.661 z" id="boundary" inkscape:connector-curvature="0" />
	<path style="fill:none;stroke:red;stroke-width:1px;stroke-linecap:butt;stroke-linejoin:miter;stroke-opacity:1" d="M 149.97,93.3694 138.054,105.285 z" id="boundary" inkscape:connector-curvature="0" />
	<path style="fill:none;stroke:red;stroke-width:1px;stroke-linecap:butt;stroke-linejoin:miter;stroke-opacity:1" d="M 138.054,105.285 145.502,118.691 z" id="boundary" inkscape:connector-curvature="0" />
	<path style="fill:none;stroke:red;stroke-width:1px;stroke-linecap:butt;stroke-linejoin:miter;stroke-opacity:1" d="M 145.502,15.9159 160.396,11.4474 z" id="boundary" inkscape:connector-curvature="0" />
	<path style="fill:none;stroke:red;stroke-width:1px;stroke-linecap:butt;stroke-linejoin:miter;stroke-opacity:1" d="M 149.97,93.3694 157.417,79.964 z" id="boundary" inkscape:connector-curvature="0" />
	<path style="fill:none;stroke:red;stroke-width:1px;stroke-linecap:butt;stroke-linejoin:miter;stroke-opacity:1" d="M 190.186,4 175.291,8.46847 z" id="boundary" inkscape:connector-curvature="0" />
	<path style="fill:none;stroke:red;stroke-width:1px;stroke-linecap:butt;stroke-linejoin:miter;stroke-opacity:1" d="M 175.291,8.46847 160.396,11.4474 z" id="boundary" inkscape:connector-curvature="0" />
	<path style="fill:none;stroke:red;stroke-width:1px;stroke-linecap:butt;stroke-linejoin:miter;stroke-opacity:1" d="M 160.396,124.649 145.502,118.691 z" id="boundary" inkscape:connector-curvature="0" />
	<path style="fill:none;stroke:red;stroke-width:1px;stroke-linecap:butt;stroke-linejoin:miter;stroke-opacity:1" d="M 175.291,124.649 190.186,124.649 z" id="boundary" inkscape:connector-curvature="0" />
	<path style="fill:none;stroke:red;stroke-width:1px;stroke-linecap:butt;stroke-linejoin:miter;stroke-opacity:1" d="M 190.186,124.649 203.592,132.096 z" id="boundary" inkscape:connector-curvature="0" />
	<path style="fill:none;stroke:red;stroke-width:1px;stroke-linecap:butt;stroke-linejoin:miter;stroke-opacity:1" d="M 175.291,124.649 160.396,124.649 z" id="boundary" inkscape:connector-curvature="0" />
	<path style="fill:none;stroke:red;stroke-width:1px;stroke-linecap:butt;stroke-linejoin:miter;stroke-opacity:1" d="M 190.186,4 205.081,4 z" id="boundary" inkscape:connector-curvature="0" />
	<path style="fill:none;stroke:red;stroke-width:1px;stroke-linecap:butt;stroke-linejoin:miter;stroke-opacity:1" d="M 18.8949,288.492 4,284.024 z" id="boundary" inkscape:connector-curvature="0" />
	<path style="fill:none;stroke:red;stroke-width:1px;stroke-linecap:butt;stroke-linejoin:miter;stroke-opacity:1" d="M 27.8318,300.408 18.8949,288.492 z" id="boundary" inkscape:connector-curvature="0" />
	<path style="fill:none;stroke:red;stroke-width:1px;stroke-linecap:butt;stroke-linejoin:miter;stroke-opacity:1" d="M 15.9159,272.108 30.8108,272.108 z" id="boundary" inkscape:connector-curvature="0" />
	<path style="fill:none;stroke:red;stroke-width:1px;stroke-linecap:butt;stroke-linejoin:miter;stroke-opacity:1" d="M 74.006,264.661 87.4114,272.108 z" id="boundary" inkscape:connector-curvature="0" />
	<path style="fill:none;stroke:red;stroke-width:1px;stroke-linecap:butt;stroke-linejoin:miter;stroke-opacity:1" d="M 30.8108,272.108 44.2162,264.661 z" id="boundary" inkscape:connector-curvature="0" />
	<path style="fill:none;stroke:red;stroke-width:1px;stroke-linecap:butt;stroke-linejoin:miter;stroke-opacity:1" d="M 27.8318,300.408 42.7267,303.387 z" id="boundary" inkscape:connector-curvature="0" />
	<path style="fill:none;stroke:red;stroke-width:1px;stroke-linecap:butt;stroke-linejoin:miter;stroke-opacity:1" d="M 42.7267,303.387 56.1321,310.835 z" id="boundary" inkscape:connector-curvature="0" />
	<path style="fill:none;stroke:red;stroke-width:1px;stroke-linecap:butt;stroke-linejoin:miter;stroke-opacity:1" d="M 69.5375,318.282 56.1321,310.835 z" id="boundary" inkscape:connector-curvature="0" />
	<path style="fill:none;stroke:red;stroke-width:1px;stroke-linecap:butt;stroke-linejoin:miter;stroke-opacity:1" d="M 69.5375,318.282 84.4324,318.282 z" id="boundary" inkscape:connector-curvature="0" />
	<path style="fill:none;stroke:red;stroke-width:1px;stroke-linecap:butt;stroke-linejoin:miter;stroke-opacity:1" d="M 84.4324,318.282 97.8378,325.73 z" id="boundary" inkscape:connector-curvature="0" />
	<path style="fill:none;stroke:red;stroke-width:1px;stroke-linecap:butt;stroke-linejoin:miter;stroke-opacity:1" d="M 87.4114,272.108 102.306,272.108 z" id="boundary" inkscape:connector-curvature="0" />
	<path style="fill:none;stroke:red;stroke-width:1px;stroke-linecap:butt;stroke-linejoin:miter;stroke-opacity:1" d="M 115.712,279.556 102.306,272.108 z" id="boundary" inkscape:connector-curvature="0" />
	<path style="fill:none;stroke:red;stroke-width:1px;stroke-linecap:butt;stroke-linejoin:miter;stroke-opacity:1" d="M 129.117,287.003 142.523,294.45 z" id="boundary" inkscape:connector-curvature="0" />
	<path style="fill:none;stroke:red;stroke-width:1px;stroke-linecap:butt;stroke-linejoin:miter;stroke-opacity:1" d="M 155.928,301.898 142.523,294.45 z" id="boundary" inkscape:connector-curvature="0" />
	<path style="fill:none;stroke:red;stroke-width:1px;stroke-linecap:butt;stroke-linejoin:miter;stroke-opacity:1" d="M 129.117,287.003 115.712,279.556 z" id="boundary" inkscape:connector-curvature="0" />
	<path style="fill:none;stroke:red;stroke-width:1px;stroke-linecap:butt;stroke-linejoin:miter;stroke-opacity:1" d="M 112.733,331.688 97.8378,325.73 z" id="boundary" inkscape:connector-curvature="0" />
	<path style="fill:none;stroke:red;stroke-width:1px;stroke-linecap:butt;stroke-linejoin:miter;stroke-opacity:1" d="M 167.844,312.324 181.249,319.772 z" id="boundary" inkscape:connector-curvature="0" />
	<path style="fill:none;stroke:red;stroke-width:1px;stroke-linecap:butt;stroke-linejoin:miter;stroke-opacity:1" d="M 206.571,331.688 191.676,331.688 z" id="boundary" inkscape:connector-curvature="0" />
	<path style="fill:none;stroke:red;stroke-width:1px;stroke-linecap:butt;stroke-linejoin:miter;stroke-opacity:1" d="M 191.676,331.688 181.249,319.772 z" id="boundary" inkscape:connector-curvature="0" />
	<path style="fill:none;stroke:red;stroke-width:1px;stroke-linecap:butt;stroke-linejoin:miter;stroke-opacity:1" d="M 155.928,301.898 167.844,312.324 z" id="boundary" inkscape:connector-curvature="0" />
	<path style="fill:none;stroke:red;stroke-width:1px;stroke-linecap:butt;stroke-linejoin:miter;stroke-opacity:1" d="M 123.159,343.604 112.733,331.688 z" id="boundary" inkscape:connector-curvature="0" />
	<path style="fill:none;stroke:red;stroke-width:1px;stroke-linecap:butt;stroke-linejoin:miter;stroke-opacity:1" d="M 203.592,132.096 214.018,144.012 z" id="boundary" inkscape:connector-curvature="0" />
	<path style="fill:none;stroke:red;stroke-width:1px;stroke-linecap:butt;stroke-linejoin:miter;stroke-opacity:1" d="M 219.976,4 234.871,6.97898 z" id="boundary" inkscape:connector-curvature="0" />
	<path style="fill:none;stroke:red;stroke-width:1px;stroke-linecap:butt;stroke-linejoin:miter;stroke-opacity:1" d="M 264.661,14.4264 249.766,11.4474 z" id="boundary" inkscape:connector-curvature="0" />
	<path style="fill:none;stroke:red;stroke-width:1px;stroke-linecap:butt;stroke-linejoin:miter;stroke-opacity:1" d="M 249.766,11.4474 234.871,6.97898 z" id="boundary" inkscape:connector-curvature="0" />
	<path style="fill:none;stroke:red;stroke-width:1px;stroke-linecap:butt;stroke-linejoin:miter;stroke-opacity:1" d="M 214.018,144.012 225.934,154.438 z" id="boundary" inkscape:connector-curvature="0" />
	<path style="fill:none;stroke:red;stroke-width:1px;stroke-linecap:butt;stroke-linejoin:miter;stroke-opacity:1" d="M 225.934,154.438 231.892,169.333 z" id="boundary" inkscape:connector-curvature="0" />
	<path style="fill:none;stroke:red;stroke-width:1px;stroke-linecap:butt;stroke-linejoin:miter;stroke-opacity:1" d="M 288.492,33.7898 300.408,42.7267 z" id="boundary" inkscape:connector-curvature="0" />
	<path style="fill:none;stroke:red;stroke-width:1px;stroke-linecap:butt;stroke-linejoin:miter;stroke-opacity:1" d="M 288.492,33.7898 278.066,21.8739 z" id="boundary" inkscape:connector-curvature="0" />
	<path style="fill:none;stroke:red;stroke-width:1px;stroke-linecap:butt;stroke-linejoin:miter;stroke-opacity:1" d="M 300.408,42.7267 310.835,54.6426 z" id="boundary" inkscape:connector-curvature="0" />
	<path style="fill:none;stroke:red;stroke-width:1px;stroke-linecap:butt;stroke-linejoin:miter;stroke-opacity:1" d="M 264.661,14.4264 278.066,21.8739 z" id="boundary" inkscape:connector-curvature="0" />
	<path style="fill:none;stroke:red;stroke-width:1px;stroke-linecap:butt;stroke-linejoin:miter;stroke-opacity:1" d="M 231.892,169.333 234.871,184.228 z" id="boundary" inkscape:connector-curvature="0" />
	<path style="fill:none;stroke:red;stroke-width:1px;stroke-linecap:butt;stroke-linejoin:miter;stroke-opacity:1" d="M 322.751,65.0691 310.835,54.6426 z" id="boundary" inkscape:connector-curvature="0" />
	<path style="fill:none;stroke:red;stroke-width:1px;stroke-linecap:butt;stroke-linejoin:miter;stroke-opacity:1" d="M 328.709,79.964 333.177,94.8589 z" id="boundary" inkscape:connector-curvature="0" />
	<path style="fill:none;stroke:red;stroke-width:1px;stroke-linecap:butt;stroke-linejoin:miter;stroke-opacity:1" d="M 340.625,108.264 333.177,94.8589 z" id="boundary" inkscape:connector-curvature="0" />
	<path style="fill:none;stroke:red;stroke-width:1px;stroke-linecap:butt;stroke-linejoin:miter;stroke-opacity:1" d="M 322.751,65.0691 328.709,79.964 z" id="boundary" inkscape:connector-curvature="0" />
	<path style="fill:none;stroke:red;stroke-width:1px;stroke-linecap:butt;stroke-linejoin:miter;stroke-opacity:1" d="M 340.625,108.264 340.625,123.159 z" id="boundary" inkscape:connector-curvature="0" />
	<path style="fill:none;stroke:red;stroke-width:1px;stroke-linecap:butt;stroke-linejoin:miter;stroke-opacity:1" d="M 340.625,138.054 340.625,152.949 z" id="boundary" inkscape:connector-curvature="0" />
	<path style="fill:none;stroke:red;stroke-width:1px;stroke-linecap:butt;stroke-linejoin:miter;stroke-opacity:1" d="M 340.625,167.844 340.625,152.949 z" id="boundary" inkscape:connector-curvature="0" />
	<path style="fill:none;stroke:red;stroke-width:1px;stroke-linecap:butt;stroke-linejoin:miter;stroke-opacity:1" d="M 348.072,181.249 340.625,167.844 z" id="boundary" inkscape:connector-curvature="0" />
	<path style="fill:none;stroke:red;stroke-width:1px;stroke-linecap:butt;stroke-linejoin:miter;stroke-opacity:1" d="M 340.625,138.054 340.625,123.159 z" id="boundary" inkscape:connector-curvature="0" />
	<path style="fill:none;stroke:red;stroke-width:1px;stroke-linecap:butt;stroke-linejoin:miter;stroke-opacity:1" d="M 234.871,184.228 242.318,197.634 z" id="boundary" inkscape:connector-curvature="0" />
	<path style="fill:none;stroke:red;stroke-width:1px;stroke-linecap:butt;stroke-linejoin:miter;stroke-opacity:1" d="M 242.318,197.634 245.297,212.529 z" id="boundary" inkscape:connector-curvature="0" />
	<path style="fill:none;stroke:red;stroke-width:1px;stroke-linecap:butt;stroke-linejoin:miter;stroke-opacity:1" d="M 245.297,212.529 249.766,227.423 z" id="boundary" inkscape:connector-curvature="0" />
	<path style="fill:none;stroke:red;stroke-width:1px;stroke-linecap:butt;stroke-linejoin:miter;stroke-opacity:1" d="M 249.766,227.423 249.766,242.318 z" id="boundary" inkscape:connector-curvature="0" />
	<path style="fill:none;stroke:red;stroke-width:1px;stroke-linecap:butt;stroke-linejoin:miter;stroke-opacity:1" d="M 249.766,242.318 249.766,257.213 z" id="boundary" inkscape:connector-curvature="0" />
	<path style="fill:none;stroke:red;stroke-width:1px;stroke-linecap:butt;stroke-linejoin:miter;stroke-opacity:1" d="M 219.976,321.261 234.871,313.814 z" id="boundary" inkscape:connector-curvature="0" />
	<path style="fill:none;stroke:red;stroke-width:1px;stroke-linecap:butt;stroke-linejoin:miter;stroke-opacity:1" d="M 242.318,291.471 234.871,313.814 z" id="boundary" inkscape:connector-curvature="0" />
	<path style="fill:none;stroke:red;stroke-width:1px;stroke-linecap:butt;stroke-linejoin:miter;stroke-opacity:1" d="M 249.766,257.213 249.766,272.108 z" id="boundary" inkscape:connector-curvature="0" />
	<path style="fill:none;stroke:red;stroke-width:1px;stroke-linecap:butt;stroke-linejoin:miter;stroke-opacity:1" d="M 249.766,272.108 242.318,291.471 z" id="boundary" inkscape:connector-curvature="0" />
	<path style="fill:none;stroke:red;stroke-width:1px;stroke-linecap:butt;stroke-linejoin:miter;stroke-opacity:1" d="M 348.072,181.249 355.52,194.655 z" id="boundary" inkscape:connector-curvature="0" />
	<path style="fill:none;stroke:red;stroke-width:1px;stroke-linecap:butt;stroke-linejoin:miter;stroke-opacity:1" d="M 376.372,215.508 389.778,222.955 z" id="boundary" inkscape:connector-curvature="0" />
	<path style="fill:none;stroke:red;stroke-width:1px;stroke-linecap:butt;stroke-linejoin:miter;stroke-opacity:1" d="M 376.372,215.508 362.967,208.06 z" id="boundary" inkscape:connector-curvature="0" />
	<path style="fill:none;stroke:red;stroke-width:1px;stroke-linecap:butt;stroke-linejoin:miter;stroke-opacity:1" d="M 362.967,208.06 355.52,194.655 z" id="boundary" inkscape:connector-curvature="0" />
	<path style="fill:none;stroke:red;stroke-width:1px;stroke-linecap:butt;stroke-linejoin:miter;stroke-opacity:1" d="M 429.994,246.787 415.099,240.829 z" id="boundary" inkscape:connector-curvature="0" />
	<path style="fill:none;stroke:red;stroke-width:1px;stroke-linecap:butt;stroke-linejoin:miter;stroke-opacity:1" d="M 415.099,240.829 404.673,228.913 z" id="boundary" inkscape:connector-curvature="0" />
	<path style="fill:none;stroke:red;stroke-width:1px;stroke-linecap:butt;stroke-linejoin:miter;stroke-opacity:1" d="M 404.673,228.913 389.778,222.955 z" id="boundary" inkscape:connector-curvature="0" />
	<path style="fill:none;stroke:red;stroke-width:1px;stroke-linecap:butt;stroke-linejoin:miter;stroke-opacity:1" d="M 429.994,246.787 440.42,258.703 z" id="boundary" inkscape:connector-curvature="0" />
	<path style="fill:none;stroke:red;stroke-width:1px;stroke-linecap:butt;stroke-linejoin:miter;stroke-opacity:1" d="M 458.294,284.024 447.868,272.108 z" id="boundary" inkscape:connector-curvature="0" />
	<path style="fill:none;stroke:red;stroke-width:1px;stroke-linecap:butt;stroke-linejoin:miter;stroke-opacity:1" d="M 447.868,272.108 440.42,258.703 z" id="boundary" inkscape:connector-curvature="0" />
	<path style="fill:none;stroke:red;stroke-width:1px;stroke-linecap:butt;stroke-linejoin:miter;stroke-opacity:1" d="M 470.21,294.45 458.294,284.024 z" id="boundary" inkscape:connector-curvature="0" />
	<path style="fill:none;stroke:red;stroke-width:1px;stroke-linecap:butt;stroke-linejoin:miter;stroke-opacity:1" d="M 219.976,321.261 206.571,331.688 z" id="boundary" inkscape:connector-curvature="0" />
	<path style="fill:none;stroke:red;stroke-width:1px;stroke-linecap:butt;stroke-linejoin:miter;stroke-opacity:1" d="M 205.081,4 219.976,4 z" id="boundary" inkscape:connector-curvature="0" />
	<path style="fill:none;stroke:red;stroke-width:1px;stroke-linecap:butt;stroke-linejoin:miter;stroke-opacity:1" d="M 123.159,343.604 135.075,354.03 z" id="boundary" inkscape:connector-curvature="0" />
	<path style="fill:none;stroke:red;stroke-width:1px;stroke-linecap:butt;stroke-linejoin:miter;stroke-opacity:1" d="M 135.075,354.03 145.502,365.946 z" id="boundary" inkscape:connector-curvature="0" />
	<path style="fill:none;stroke:red;stroke-width:1px;stroke-linecap:butt;stroke-linejoin:miter;stroke-opacity:1" d="M 157.417,376.372 145.502,365.946 z" id="boundary" inkscape:connector-curvature="0" />
	<path style="fill:none;stroke:red;stroke-width:1px;stroke-linecap:butt;stroke-linejoin:miter;stroke-opacity:1" d="M 170.823,383.82 157.417,376.372 z" id="boundary" inkscape:connector-curvature="0" />
	<path style="fill:none;stroke:red;stroke-width:1px;stroke-linecap:butt;stroke-linejoin:miter;stroke-opacity:1" d="M 182.739,392.757 170.823,383.82 z" id="boundary" inkscape:connector-curvature="0" />
	<path style="fill:none;stroke:red;stroke-width:1px;stroke-linecap:butt;stroke-linejoin:miter;stroke-opacity:1" d="M 197.634,392.757 182.739,392.757 z" id="boundary" inkscape:connector-curvature="0" />
	<path style="fill:none;stroke:red;stroke-width:1px;stroke-linecap:butt;stroke-linejoin:miter;stroke-opacity:1" d="M 225.934,400.204 211.039,400.204 z" id="boundary" inkscape:connector-curvature="0" />
	<path style="fill:none;stroke:red;stroke-width:1px;stroke-linecap:butt;stroke-linejoin:miter;stroke-opacity:1" d="M 211.039,400.204 197.634,392.757 z" id="boundary" inkscape:connector-curvature="0" />
	<path style="fill:none;stroke:red;stroke-width:1px;stroke-linecap:butt;stroke-linejoin:miter;stroke-opacity:1" d="M 240.829,397.225 225.934,400.204 z" id="boundary" inkscape:connector-curvature="0" />
	<path style="fill:none;stroke:red;stroke-width:1px;stroke-linecap:butt;stroke-linejoin:miter;stroke-opacity:1" d="M 240.829,397.225 255.724,389.778 z" id="boundary" inkscape:connector-curvature="0" />
	<path style="fill:none;stroke:red;stroke-width:1px;stroke-linecap:butt;stroke-linejoin:miter;stroke-opacity:1" d="M 279.556,385.309 288.492,397.225 z" id="boundary" inkscape:connector-curvature="0" />
	<path style="fill:none;stroke:red;stroke-width:1px;stroke-linecap:butt;stroke-linejoin:miter;stroke-opacity:1" d="M 255.724,389.778 266.15,377.862 z" id="boundary" inkscape:connector-curvature="0" />
	<path style="fill:none;stroke:red;stroke-width:1px;stroke-linecap:butt;stroke-linejoin:miter;stroke-opacity:1" d="M 266.15,377.862 279.556,385.309 z" id="boundary" inkscape:connector-curvature="0" />
	<path style="fill:none;stroke:red;stroke-width:1px;stroke-linecap:butt;stroke-linejoin:miter;stroke-opacity:1" d="M 228.913,428.505 243.808,428.505 z" id="boundary" inkscape:connector-curvature="0" />
	<path style="fill:none;stroke:red;stroke-width:1px;stroke-linecap:butt;stroke-linejoin:miter;stroke-opacity:1" d="M 258.703,424.036 273.598,421.057 z" id="boundary" inkscape:connector-curvature="0" />
	<path style="fill:none;stroke:red;stroke-width:1px;stroke-linecap:butt;stroke-linejoin:miter;stroke-opacity:1" d="M 258.703,424.036 243.808,428.505 z" id="boundary" inkscape:connector-curvature="0" />
	<path style="fill:none;stroke:red;stroke-width:1px;stroke-linecap:butt;stroke-linejoin:miter;stroke-opacity:1" d="M 288.492,421.057 273.598,421.057 z" id="boundary" inkscape:connector-curvature="0" />
	<path style="fill:none;stroke:red;stroke-width:1px;stroke-linecap:butt;stroke-linejoin:miter;stroke-opacity:1" d="M 228.913,428.505 214.018,431.483 z" id="boundary" inkscape:connector-curvature="0" />
	<path style="fill:none;stroke:red;stroke-width:1px;stroke-linecap:butt;stroke-linejoin:miter;stroke-opacity:1" d="M 175.291,455.315 175.291,477.658 z" id="boundary" inkscape:connector-curvature="0" />
	<path style="fill:none;stroke:red;stroke-width:1px;stroke-linecap:butt;stroke-linejoin:miter;stroke-opacity:1" d="M 214.018,431.483 202.102,443.399 z" id="boundary" inkscape:connector-curvature="0" />
	<path style="fill:none;stroke:red;stroke-width:1px;stroke-linecap:butt;stroke-linejoin:miter;stroke-opacity:1" d="M 202.102,443.399 187.207,443.399 z" id="boundary" inkscape:connector-curvature="0" />
	<path style="fill:none;stroke:red;stroke-width:1px;stroke-linecap:butt;stroke-linejoin:miter;stroke-opacity:1" d="M 175.291,455.315 187.207,443.399 z" id="boundary" inkscape:connector-curvature="0" />
	<path style="fill:none;stroke:red;stroke-width:1px;stroke-linecap:butt;stroke-linejoin:miter;stroke-opacity:1" d="M 184.228,489.574 199.123,492.553 z" id="boundary" inkscape:connector-curvature="0" />
	<path style="fill:none;stroke:red;stroke-width:1px;stroke-linecap:butt;stroke-linejoin:miter;stroke-opacity:1" d="M 199.123,492.553 212.529,500 z" id="boundary" inkscape:connector-curvature="0" />
	<path style="fill:none;stroke:red;stroke-width:1px;stroke-linecap:butt;stroke-linejoin:miter;stroke-opacity:1" d="M 184.228,489.574 175.291,477.658 z" id="boundary" inkscape:connector-curvature="0" />
	<path style="fill:none;stroke:red;stroke-width:1px;stroke-linecap:butt;stroke-linejoin:miter;stroke-opacity:1" d="M 240.829,497.021 227.423,504.468 z" id="boundary" inkscape:connector-curvature="0" />
	<path style="fill:none;stroke:red;stroke-width:1px;stroke-linecap:butt;stroke-linejoin:miter;stroke-opacity:1" d="M 227.423,504.468 212.529,500 z" id="boundary" inkscape:connector-curvature="0" />
	<path style="fill:none;stroke:red;stroke-width:1px;stroke-linecap:butt;stroke-linejoin:miter;stroke-opacity:1" d="M 282.535,482.126 267.64,482.126 z" id="boundary" inkscape:connector-curvature="0" />
	<path style="fill:none;stroke:red;stroke-width:1px;stroke-linecap:butt;stroke-linejoin:miter;stroke-opacity:1" d="M 295.94,474.679 282.535,482.126 z" id="boundary" inkscape:connector-curvature="0" />
	<path style="fill:none;stroke:red;stroke-width:1px;stroke-linecap:butt;stroke-linejoin:miter;stroke-opacity:1" d="M 267.64,482.126 254.234,489.574 z" id="boundary" inkscape:connector-curvature="0" />
	<path style="fill:none;stroke:red;stroke-width:1px;stroke-linecap:butt;stroke-linejoin:miter;stroke-opacity:1" d="M 310.835,474.679 325.73,467.231 z" id="boundary" inkscape:connector-curvature="0" />
	<path style="fill:none;stroke:red;stroke-width:1px;stroke-linecap:butt;stroke-linejoin:miter;stroke-opacity:1" d="M 325.73,467.231 339.135,474.679 z" id="boundary" inkscape:connector-curvature="0" />
	<path style="fill:none;stroke:red;stroke-width:1px;stroke-linecap:butt;stroke-linejoin:miter;stroke-opacity:1" d="M 310.835,474.679 295.94,474.679 z" id="boundary" inkscape:connector-curvature="0" />
	<path style="fill:none;stroke:red;stroke-width:1px;stroke-linecap:butt;stroke-linejoin:miter;stroke-opacity:1" d="M 336.156,934.931 324.24,946.847 z" id="boundary" inkscape:connector-curvature="0" />
	<path style="fill:none;stroke:red;stroke-width:1px;stroke-linecap:butt;stroke-linejoin:miter;stroke-opacity:1" d="M 240.829,497.021 254.234,489.574 z" id="boundary" inkscape:connector-curvature="0" />
	<path style="fill:none;stroke:red;stroke-width:1px;stroke-linecap:butt;stroke-linejoin:miter;stroke-opacity:1" d="M 348.072,958.763 333.177,958.763 z" id="boundary" inkscape:connector-curvature="0" />
	<path style="fill:none;stroke:red;stroke-width:1px;stroke-linecap:butt;stroke-linejoin:miter;stroke-opacity:1" d="M 333.177,958.763 324.24,946.847 z" id="boundary" inkscape:connector-curvature="0" />
	<path style="fill:none;stroke:red;stroke-width:1px;stroke-linecap:butt;stroke-linejoin:miter;stroke-opacity:1" d="M 348.072,958.763 361.477,966.21 z" id="boundary" inkscape:connector-curvature="0" />
	<path style="fill:none;stroke:red;stroke-width:1px;stroke-linecap:butt;stroke-linejoin:miter;stroke-opacity:1" d="M 336.156,934.931 351.051,934.931 z" id="boundary" inkscape:connector-curvature="0" />
	<path style="fill:none;stroke:red;stroke-width:1px;stroke-linecap:butt;stroke-linejoin:miter;stroke-opacity:1" d="M 358.498,497.021 370.414,507.447 z" id="boundary" inkscape:connector-curvature="0" />
	<path style="fill:none;stroke:red;stroke-width:1px;stroke-linecap:butt;stroke-linejoin:miter;stroke-opacity:1" d="M 358.498,497.021 352.541,482.126 z" id="boundary" inkscape:connector-curvature="0" />
	<path style="fill:none;stroke:red;stroke-width:1px;stroke-linecap:butt;stroke-linejoin:miter;stroke-opacity:1" d="M 376.372,656.396 368.925,671.291 z" id="boundary" inkscape:connector-curvature="0" />
	<path style="fill:none;stroke:red;stroke-width:1px;stroke-linecap:butt;stroke-linejoin:miter;stroke-opacity:1" d="M 383.82,641.502 376.372,656.396 z" id="boundary" inkscape:connector-curvature="0" />
	<path style="fill:none;stroke:red;stroke-width:1px;stroke-linecap:butt;stroke-linejoin:miter;stroke-opacity:1" d="M 370.414,507.447 380.841,519.363 z" id="boundary" inkscape:connector-curvature="0" />
	<path style="fill:none;stroke:red;stroke-width:1px;stroke-linecap:butt;stroke-linejoin:miter;stroke-opacity:1" d="M 368.925,686.186 368.925,671.291 z" id="boundary" inkscape:connector-curvature="0" />
	<path style="fill:none;stroke:red;stroke-width:1px;stroke-linecap:butt;stroke-linejoin:miter;stroke-opacity:1" d="M 368.925,686.186 368.925,701.081 z" id="boundary" inkscape:connector-curvature="0" />
	<path style="fill:none;stroke:red;stroke-width:1px;stroke-linecap:butt;stroke-linejoin:miter;stroke-opacity:1" d="M 376.372,714.486 368.925,701.081 z" id="boundary" inkscape:connector-curvature="0" />
	<path style="fill:none;stroke:red;stroke-width:1px;stroke-linecap:butt;stroke-linejoin:miter;stroke-opacity:1" d="M 376.372,714.486 376.372,729.381 z" id="boundary" inkscape:connector-curvature="0" />
	<path style="fill:none;stroke:red;stroke-width:1px;stroke-linecap:butt;stroke-linejoin:miter;stroke-opacity:1" d="M 376.372,744.276 376.372,729.381 z" id="boundary" inkscape:connector-curvature="0" />
	<path style="fill:none;stroke:red;stroke-width:1px;stroke-linecap:butt;stroke-linejoin:miter;stroke-opacity:1" d="M 383.82,757.682 376.372,744.276 z" id="boundary" inkscape:connector-curvature="0" />
	<path style="fill:none;stroke:red;stroke-width:1px;stroke-linecap:butt;stroke-linejoin:miter;stroke-opacity:1" d="M 380.841,519.363 391.267,531.279 z" id="boundary" inkscape:connector-curvature="0" />
	<path style="fill:none;stroke:red;stroke-width:1px;stroke-linecap:butt;stroke-linejoin:miter;stroke-opacity:1" d="M 391.267,531.279 398.715,544.685 z" id="boundary" inkscape:connector-curvature="0" />
	<path style="fill:none;stroke:red;stroke-width:1px;stroke-linecap:butt;stroke-linejoin:miter;stroke-opacity:1" d="M 406.162,558.09 398.715,544.685 z" id="boundary" inkscape:connector-curvature="0" />
	<path style="fill:none;stroke:red;stroke-width:1px;stroke-linecap:butt;stroke-linejoin:miter;stroke-opacity:1" d="M 413.61,571.495 406.162,558.09 z" id="boundary" inkscape:connector-curvature="0" />
	<path style="fill:none;stroke:red;stroke-width:1px;stroke-linecap:butt;stroke-linejoin:miter;stroke-opacity:1" d="M 413.61,571.495 410.631,592.348 z" id="boundary" inkscape:connector-curvature="0" />
	<path style="fill:none;stroke:red;stroke-width:1px;stroke-linecap:butt;stroke-linejoin:miter;stroke-opacity:1" d="M 403.183,607.243 391.267,619.159 z" id="boundary" inkscape:connector-curvature="0" />
	<path style="fill:none;stroke:red;stroke-width:1px;stroke-linecap:butt;stroke-linejoin:miter;stroke-opacity:1" d="M 410.631,592.348 403.183,607.243 z" id="boundary" inkscape:connector-curvature="0" />
	<path style="fill:none;stroke:red;stroke-width:1px;stroke-linecap:butt;stroke-linejoin:miter;stroke-opacity:1" d="M 383.82,641.502 391.267,619.159 z" id="boundary" inkscape:connector-curvature="0" />
	<path style="fill:none;stroke:red;stroke-width:1px;stroke-linecap:butt;stroke-linejoin:miter;stroke-opacity:1" d="M 352.541,482.126 339.135,474.679 z" id="boundary" inkscape:connector-curvature="0" />
	<path style="fill:none;stroke:red;stroke-width:1px;stroke-linecap:butt;stroke-linejoin:miter;stroke-opacity:1" d="M 383.82,757.682 383.82,772.577 z" id="boundary" inkscape:connector-curvature="0" />
	<path style="fill:none;stroke:red;stroke-width:1px;stroke-linecap:butt;stroke-linejoin:miter;stroke-opacity:1" d="M 380.841,920.036 365.946,927.483 z" id="boundary" inkscape:connector-curvature="0" />
	<path style="fill:none;stroke:red;stroke-width:1px;stroke-linecap:butt;stroke-linejoin:miter;stroke-opacity:1" d="M 391.267,902.162 380.841,920.036 z" id="boundary" inkscape:connector-curvature="0" />
	<path style="fill:none;stroke:red;stroke-width:1px;stroke-linecap:butt;stroke-linejoin:miter;stroke-opacity:1" d="M 398.715,799.387 391.267,785.982 z" id="boundary" inkscape:connector-curvature="0" />
	<path style="fill:none;stroke:red;stroke-width:1px;stroke-linecap:butt;stroke-linejoin:miter;stroke-opacity:1" d="M 391.267,785.982 383.82,772.577 z" id="boundary" inkscape:connector-curvature="0" />
	<path style="fill:none;stroke:red;stroke-width:1px;stroke-linecap:butt;stroke-linejoin:miter;stroke-opacity:1" d="M 406.162,961.742 391.267,966.21 z" id="boundary" inkscape:connector-curvature="0" />
	<path style="fill:none;stroke:red;stroke-width:1px;stroke-linecap:butt;stroke-linejoin:miter;stroke-opacity:1" d="M 351.051,934.931 365.946,927.483 z" id="boundary" inkscape:connector-curvature="0" />
	<path style="fill:none;stroke:red;stroke-width:1px;stroke-linecap:butt;stroke-linejoin:miter;stroke-opacity:1" d="M 391.267,966.21 376.372,966.21 z" id="boundary" inkscape:connector-curvature="0" />
	<path style="fill:none;stroke:red;stroke-width:1px;stroke-linecap:butt;stroke-linejoin:miter;stroke-opacity:1" d="M 376.372,966.21 361.477,966.21 z" id="boundary" inkscape:connector-curvature="0" />
	<path style="fill:none;stroke:red;stroke-width:1px;stroke-linecap:butt;stroke-linejoin:miter;stroke-opacity:1" d="M 398.715,799.387 400.204,814.282 z" id="boundary" inkscape:connector-curvature="0" />
	<path style="fill:none;stroke:red;stroke-width:1px;stroke-linecap:butt;stroke-linejoin:miter;stroke-opacity:1" d="M 400.204,814.282 406.162,829.177 z" id="boundary" inkscape:connector-curvature="0" />
	<path style="fill:none;stroke:red;stroke-width:1px;stroke-linecap:butt;stroke-linejoin:miter;stroke-opacity:1" d="M 406.162,829.177 406.162,844.072 z" id="boundary" inkscape:connector-curvature="0" />
	<path style="fill:none;stroke:red;stroke-width:1px;stroke-linecap:butt;stroke-linejoin:miter;stroke-opacity:1" d="M 398.715,887.267 391.267,902.162 z" id="boundary" inkscape:connector-curvature="0" />
	<path style="fill:none;stroke:red;stroke-width:1px;stroke-linecap:butt;stroke-linejoin:miter;stroke-opacity:1" d="M 406.162,873.862 406.162,858.967 z" id="boundary" inkscape:connector-curvature="0" />
	<path style="fill:none;stroke:red;stroke-width:1px;stroke-linecap:butt;stroke-linejoin:miter;stroke-opacity:1" d="M 406.162,858.967 406.162,844.072 z" id="boundary" inkscape:connector-curvature="0" />
	<path style="fill:none;stroke:red;stroke-width:1px;stroke-linecap:butt;stroke-linejoin:miter;stroke-opacity:1" d="M 406.162,873.862 398.715,887.267 z" id="boundary" inkscape:connector-curvature="0" />
	<path style="fill:none;stroke:red;stroke-width:1px;stroke-linecap:butt;stroke-linejoin:miter;stroke-opacity:1" d="M 421.057,958.763 406.162,961.742 z" id="boundary" inkscape:connector-curvature="0" />
	<path style="fill:none;stroke:red;stroke-width:1px;stroke-linecap:butt;stroke-linejoin:miter;stroke-opacity:1" d="M 440.42,934.931 432.973,949.826 z" id="boundary" inkscape:connector-curvature="0" />
	<path style="fill:none;stroke:red;stroke-width:1px;stroke-linecap:butt;stroke-linejoin:miter;stroke-opacity:1" d="M 432.973,949.826 421.057,958.763 z" id="boundary" inkscape:connector-curvature="0" />
	<path style="fill:none;stroke:red;stroke-width:1px;stroke-linecap:butt;stroke-linejoin:miter;stroke-opacity:1" d="M 452.336,914.078 440.42,934.931 z" id="boundary" inkscape:connector-curvature="0" />
	<path style="fill:none;stroke:red;stroke-width:1px;stroke-linecap:butt;stroke-linejoin:miter;stroke-opacity:1" d="M 452.336,914.078 464.252,903.652 z" id="boundary" inkscape:connector-curvature="0" />
	<path style="fill:none;stroke:red;stroke-width:1px;stroke-linecap:butt;stroke-linejoin:miter;stroke-opacity:1" d="M 480.637,306.366 492.553,316.793 z" id="boundary" inkscape:connector-curvature="0" />
	<path style="fill:none;stroke:red;stroke-width:1px;stroke-linecap:butt;stroke-linejoin:miter;stroke-opacity:1" d="M 480.637,306.366 470.21,294.45 z" id="boundary" inkscape:connector-curvature="0" />
	<path style="fill:none;stroke:red;stroke-width:1px;stroke-linecap:butt;stroke-linejoin:miter;stroke-opacity:1" d="M 492.553,316.793 505.958,324.24 z" id="boundary" inkscape:connector-curvature="0" />
	<path style="fill:none;stroke:red;stroke-width:1px;stroke-linecap:butt;stroke-linejoin:miter;stroke-opacity:1" d="M 505.958,324.24 517.874,334.667 z" id="boundary" inkscape:connector-curvature="0" />
	<path style="fill:none;stroke:red;stroke-width:1px;stroke-linecap:butt;stroke-linejoin:miter;stroke-opacity:1" d="M 517.874,334.667 526.811,346.583 z" id="boundary" inkscape:connector-curvature="0" />
	<path style="fill:none;stroke:red;stroke-width:1px;stroke-linecap:butt;stroke-linejoin:miter;stroke-opacity:1" d="M 526.811,346.583 540.216,354.03 z" id="boundary" inkscape:connector-curvature="0" />
	<path style="fill:none;stroke:red;stroke-width:1px;stroke-linecap:butt;stroke-linejoin:miter;stroke-opacity:1" d="M 552.132,362.967 564.048,373.393 z" id="boundary" inkscape:connector-curvature="0" />
	<path style="fill:none;stroke:red;stroke-width:1px;stroke-linecap:butt;stroke-linejoin:miter;stroke-opacity:1" d="M 564.048,373.393 571.495,386.799 z" id="boundary" inkscape:connector-curvature="0" />
	<path style="fill:none;stroke:red;stroke-width:1px;stroke-linecap:butt;stroke-linejoin:miter;stroke-opacity:1" d="M 540.216,354.03 552.132,362.967 z" id="boundary" inkscape:connector-curvature="0" />
	<path style="fill:none;stroke:red;stroke-width:1px;stroke-linecap:butt;stroke-linejoin:miter;stroke-opacity:1" d="M 571.495,386.799 578.943,400.204 z" id="boundary" inkscape:connector-curvature="0" />
	<path style="fill:none;stroke:red;stroke-width:1px;stroke-linecap:butt;stroke-linejoin:miter;stroke-opacity:1" d="M 578.943,400.204 586.39,413.61 z" id="boundary" inkscape:connector-curvature="0" />
	<path style="fill:none;stroke:red;stroke-width:1px;stroke-linecap:butt;stroke-linejoin:miter;stroke-opacity:1" d="M 601.285,418.078 586.39,413.61 z" id="boundary" inkscape:connector-curvature="0" />
	<path style="fill:none;stroke:red;stroke-width:1px;stroke-linecap:butt;stroke-linejoin:miter;stroke-opacity:1" d="M 622.138,438.931 608.733,431.483 z" id="boundary" inkscape:connector-curvature="0" />
	<path style="fill:none;stroke:red;stroke-width:1px;stroke-linecap:butt;stroke-linejoin:miter;stroke-opacity:1" d="M 608.733,431.483 601.285,418.078 z" id="boundary" inkscape:connector-curvature="0" />
	<path style="fill:none;stroke:red;stroke-width:1px;stroke-linecap:butt;stroke-linejoin:miter;stroke-opacity:1" d="M 622.138,438.931 628.096,453.826 z" id="boundary" inkscape:connector-curvature="0" />
	<path style="fill:none;stroke:red;stroke-width:1px;stroke-linecap:butt;stroke-linejoin:miter;stroke-opacity:1" d="M 628.096,453.826 638.523,465.742 z" id="boundary" inkscape:connector-curvature="0" />
	<path style="fill:none;stroke:red;stroke-width:1px;stroke-linecap:butt;stroke-linejoin:miter;stroke-opacity:1" d="M 638.523,465.742 645.97,479.147 z" id="boundary" inkscape:connector-curvature="0" />
	<path style="fill:none;stroke:red;stroke-width:1px;stroke-linecap:butt;stroke-linejoin:miter;stroke-opacity:1" d="M 645.97,479.147 653.417,492.553 z" id="boundary" inkscape:connector-curvature="0" />
	<path style="fill:none;stroke:red;stroke-width:1px;stroke-linecap:butt;stroke-linejoin:miter;stroke-opacity:1" d="M 660.865,505.958 653.417,492.553 z" id="boundary" inkscape:connector-curvature="0" />
	<path style="fill:none;stroke:red;stroke-width:1px;stroke-linecap:butt;stroke-linejoin:miter;stroke-opacity:1" d="M 474.679,727.892 474.679,712.997 z" id="boundary" inkscape:connector-curvature="0" />
	<path style="fill:none;stroke:red;stroke-width:1px;stroke-linecap:butt;stroke-linejoin:miter;stroke-opacity:1" d="M 474.679,712.997 486.595,702.571 z" id="boundary" inkscape:connector-curvature="0" />
	<path style="fill:none;stroke:red;stroke-width:1px;stroke-linecap:butt;stroke-linejoin:miter;stroke-opacity:1" d="M 510.426,698.102 514.895,712.997 z" id="boundary" inkscape:connector-curvature="0" />
	<path style="fill:none;stroke:red;stroke-width:1px;stroke-linecap:butt;stroke-linejoin:miter;stroke-opacity:1" d="M 510.426,698.102 497.021,690.655 z" id="boundary" inkscape:connector-curvature="0" />
	<path style="fill:none;stroke:red;stroke-width:1px;stroke-linecap:butt;stroke-linejoin:miter;stroke-opacity:1" d="M 522.342,726.402 514.895,712.997 z" id="boundary" inkscape:connector-curvature="0" />
	<path style="fill:none;stroke:red;stroke-width:1px;stroke-linecap:butt;stroke-linejoin:miter;stroke-opacity:1" d="M 486.595,702.571 497.021,690.655 z" id="boundary" inkscape:connector-curvature="0" />
	<path style="fill:none;stroke:red;stroke-width:1px;stroke-linecap:butt;stroke-linejoin:miter;stroke-opacity:1" d="M 474.679,727.892 474.679,742.787 z" id="boundary" inkscape:connector-curvature="0" />
	<path style="fill:none;stroke:red;stroke-width:1px;stroke-linecap:butt;stroke-linejoin:miter;stroke-opacity:1" d="M 474.679,757.682 474.679,772.577 z" id="boundary" inkscape:connector-curvature="0" />
	<path style="fill:none;stroke:red;stroke-width:1px;stroke-linecap:butt;stroke-linejoin:miter;stroke-opacity:1" d="M 474.679,787.471 474.679,772.577 z" id="boundary" inkscape:connector-curvature="0" />
	<path style="fill:none;stroke:red;stroke-width:1px;stroke-linecap:butt;stroke-linejoin:miter;stroke-opacity:1" d="M 474.679,757.682 474.679,742.787 z" id="boundary" inkscape:connector-curvature="0" />
	<path style="fill:none;stroke:red;stroke-width:1px;stroke-linecap:butt;stroke-linejoin:miter;stroke-opacity:1" d="M 522.342,726.402 528.3,741.297 z" id="boundary" inkscape:connector-curvature="0" />
	<path style="fill:none;stroke:red;stroke-width:1px;stroke-linecap:butt;stroke-linejoin:miter;stroke-opacity:1" d="M 540.216,750.234 528.3,741.297 z" id="boundary" inkscape:connector-curvature="0" />
	<path style="fill:none;stroke:red;stroke-width:1px;stroke-linecap:butt;stroke-linejoin:miter;stroke-opacity:1" d="M 675.76,532.769 683.207,546.174 z" id="boundary" inkscape:connector-curvature="0" />
	<path style="fill:none;stroke:red;stroke-width:1px;stroke-linecap:butt;stroke-linejoin:miter;stroke-opacity:1" d="M 675.76,532.769 668.312,519.363 z" id="boundary" inkscape:connector-curvature="0" />
	<path style="fill:none;stroke:red;stroke-width:1px;stroke-linecap:butt;stroke-linejoin:miter;stroke-opacity:1" d="M 561.069,772.577 549.153,762.15 z" id="boundary" inkscape:connector-curvature="0" />
	<path style="fill:none;stroke:red;stroke-width:1px;stroke-linecap:butt;stroke-linejoin:miter;stroke-opacity:1" d="M 549.153,762.15 540.216,750.234 z" id="boundary" inkscape:connector-curvature="0" />
	<path style="fill:none;stroke:red;stroke-width:1px;stroke-linecap:butt;stroke-linejoin:miter;stroke-opacity:1" d="M 583.411,794.919 571.495,784.492 z" id="boundary" inkscape:connector-curvature="0" />
	<path style="fill:none;stroke:red;stroke-width:1px;stroke-linecap:butt;stroke-linejoin:miter;stroke-opacity:1" d="M 571.495,784.492 561.069,772.577 z" id="boundary" inkscape:connector-curvature="0" />
	<path style="fill:none;stroke:red;stroke-width:1px;stroke-linecap:butt;stroke-linejoin:miter;stroke-opacity:1" d="M 675.76,785.982 668.312,772.577 z" id="boundary" inkscape:connector-curvature="0" />
	<path style="fill:none;stroke:red;stroke-width:1px;stroke-linecap:butt;stroke-linejoin:miter;stroke-opacity:1" d="M 474.679,802.366 474.679,787.471 z" id="boundary" inkscape:connector-curvature="0" />
	<path style="fill:none;stroke:red;stroke-width:1px;stroke-linecap:butt;stroke-linejoin:miter;stroke-opacity:1" d="M 683.207,546.174 690.655,559.58 z" id="boundary" inkscape:connector-curvature="0" />
	<path style="fill:none;stroke:red;stroke-width:1px;stroke-linecap:butt;stroke-linejoin:miter;stroke-opacity:1" d="M 660.865,505.958 668.312,519.363 z" id="boundary" inkscape:connector-curvature="0" />
	<path style="fill:none;stroke:red;stroke-width:1px;stroke-linecap:butt;stroke-linejoin:miter;stroke-opacity:1" d="M 690.655,559.58 696.613,574.474 z" id="boundary" inkscape:connector-curvature="0" />
	<path style="fill:none;stroke:red;stroke-width:1px;stroke-linecap:butt;stroke-linejoin:miter;stroke-opacity:1" d="M 708.529,584.901 696.613,574.474 z" id="boundary" inkscape:connector-curvature="0" />
	<path style="fill:none;stroke:red;stroke-width:1px;stroke-linecap:butt;stroke-linejoin:miter;stroke-opacity:1" d="M 718.955,596.817 727.892,608.733 z" id="boundary" inkscape:connector-curvature="0" />
	<path style="fill:none;stroke:red;stroke-width:1px;stroke-linecap:butt;stroke-linejoin:miter;stroke-opacity:1" d="M 708.529,584.901 718.955,596.817 z" id="boundary" inkscape:connector-curvature="0" />
	<path style="fill:none;stroke:red;stroke-width:1px;stroke-linecap:butt;stroke-linejoin:miter;stroke-opacity:1" d="M 727.892,608.733 735.339,622.138 z" id="boundary" inkscape:connector-curvature="0" />
	<path style="fill:none;stroke:red;stroke-width:1px;stroke-linecap:butt;stroke-linejoin:miter;stroke-opacity:1" d="M 735.339,622.138 742.787,635.544 z" id="boundary" inkscape:connector-curvature="0" />
	<path style="fill:none;stroke:red;stroke-width:1px;stroke-linecap:butt;stroke-linejoin:miter;stroke-opacity:1" d="M 750.234,648.949 757.682,662.354 z" id="boundary" inkscape:connector-curvature="0" />
	<path style="fill:none;stroke:red;stroke-width:1px;stroke-linecap:butt;stroke-linejoin:miter;stroke-opacity:1" d="M 765.129,675.76 757.682,662.354 z" id="boundary" inkscape:connector-curvature="0" />
	<path style="fill:none;stroke:red;stroke-width:1px;stroke-linecap:butt;stroke-linejoin:miter;stroke-opacity:1" d="M 750.234,648.949 742.787,635.544 z" id="boundary" inkscape:connector-curvature="0" />
	<path style="fill:none;stroke:red;stroke-width:1px;stroke-linecap:butt;stroke-linejoin:miter;stroke-opacity:1" d="M 765.129,675.76 772.577,689.165 z" id="boundary" inkscape:connector-curvature="0" />
	<path style="fill:none;stroke:red;stroke-width:1px;stroke-linecap:butt;stroke-linejoin:miter;stroke-opacity:1" d="M 780.024,702.571 772.577,689.165 z" id="boundary" inkscape:connector-curvature="0" />
	<path style="fill:none;stroke:red;stroke-width:1px;stroke-linecap:butt;stroke-linejoin:miter;stroke-opacity:1" d="M 866.414,690.655 851.52,689.165 z" id="boundary" inkscape:connector-curvature="0" />
	<path style="fill:none;stroke:red;stroke-width:1px;stroke-linecap:butt;stroke-linejoin:miter;stroke-opacity:1" d="M 851.52,689.165 838.114,681.718 z" id="boundary" inkscape:connector-curvature="0" />
	<path style="fill:none;stroke:red;stroke-width:1px;stroke-linecap:butt;stroke-linejoin:miter;stroke-opacity:1" d="M 787.471,715.976 780.024,702.571 z" id="boundary" inkscape:connector-curvature="0" />
	<path style="fill:none;stroke:red;stroke-width:1px;stroke-linecap:butt;stroke-linejoin:miter;stroke-opacity:1" d="M 881.309,696.613 875.351,712.997 z" id="boundary" inkscape:connector-curvature="0" />
	<path style="fill:none;stroke:red;stroke-width:1px;stroke-linecap:butt;stroke-linejoin:miter;stroke-opacity:1" d="M 866.414,690.655 881.309,696.613 z" id="boundary" inkscape:connector-curvature="0" />
	<path style="fill:none;stroke:red;stroke-width:1px;stroke-linecap:butt;stroke-linejoin:miter;stroke-opacity:1" d="M 847.051,705.55 835.135,696.613 z" id="boundary" inkscape:connector-curvature="0" />
	<path style="fill:none;stroke:red;stroke-width:1px;stroke-linecap:butt;stroke-linejoin:miter;stroke-opacity:1" d="M 881.309,696.613 894.715,704.06 z" id="boundary" inkscape:connector-curvature="0" />
	<path style="fill:none;stroke:red;stroke-width:1px;stroke-linecap:butt;stroke-linejoin:miter;stroke-opacity:1" d="M 860.456,712.997 847.051,705.55 z" id="boundary" inkscape:connector-curvature="0" />
	<path style="fill:none;stroke:red;stroke-width:1px;stroke-linecap:butt;stroke-linejoin:miter;stroke-opacity:1" d="M 793.429,730.871 787.471,715.976 z" id="boundary" inkscape:connector-curvature="0" />
	<path style="fill:none;stroke:red;stroke-width:1px;stroke-linecap:butt;stroke-linejoin:miter;stroke-opacity:1" d="M 875.351,712.997 888.757,720.444 z" id="boundary" inkscape:connector-curvature="0" />
	<path style="fill:none;stroke:red;stroke-width:1px;stroke-linecap:butt;stroke-linejoin:miter;stroke-opacity:1" d="M 860.456,712.997 875.351,712.997 z" id="boundary" inkscape:connector-curvature="0" />
	<path style="fill:none;stroke:red;stroke-width:1px;stroke-linecap:butt;stroke-linejoin:miter;stroke-opacity:1" d="M 894.715,704.06 888.757,720.444 z" id="boundary" inkscape:connector-curvature="0" />
	<path style="fill:none;stroke:red;stroke-width:1px;stroke-linecap:butt;stroke-linejoin:miter;stroke-opacity:1" d="M 902.162,727.892 888.757,720.444 z" id="boundary" inkscape:connector-curvature="0" />
	<path style="fill:none;stroke:red;stroke-width:1px;stroke-linecap:butt;stroke-linejoin:miter;stroke-opacity:1" d="M 908.12,711.508 902.162,727.892 z" id="boundary" inkscape:connector-curvature="0" />
	<path style="fill:none;stroke:red;stroke-width:1px;stroke-linecap:butt;stroke-linejoin:miter;stroke-opacity:1" d="M 793.429,730.871 794.919,745.766 z" id="boundary" inkscape:connector-curvature="0" />
	<path style="fill:none;stroke:red;stroke-width:1px;stroke-linecap:butt;stroke-linejoin:miter;stroke-opacity:1" d="M 802.366,759.171 809.814,772.577 z" id="boundary" inkscape:connector-curvature="0" />
	<path style="fill:none;stroke:red;stroke-width:1px;stroke-linecap:butt;stroke-linejoin:miter;stroke-opacity:1" d="M 809.814,772.577 812.793,787.471 z" id="boundary" inkscape:connector-curvature="0" />
	<path style="fill:none;stroke:red;stroke-width:1px;stroke-linecap:butt;stroke-linejoin:miter;stroke-opacity:1" d="M 802.366,759.171 794.919,745.766 z" id="boundary" inkscape:connector-curvature="0" />
	<path style="fill:none;stroke:red;stroke-width:1px;stroke-linecap:butt;stroke-linejoin:miter;stroke-opacity:1" d="M 820.24,800.877 812.793,787.471 z" id="boundary" inkscape:connector-curvature="0" />
	<path style="fill:none;stroke:red;stroke-width:1px;stroke-linecap:butt;stroke-linejoin:miter;stroke-opacity:1" d="M 902.162,727.892 909.61,741.297 z" id="boundary" inkscape:connector-curvature="0" />
	<path style="fill:none;stroke:red;stroke-width:1px;stroke-linecap:butt;stroke-linejoin:miter;stroke-opacity:1" d="M 908.12,711.508 921.526,718.955 z" id="boundary" inkscape:connector-curvature="0" />
	<path style="fill:none;stroke:red;stroke-width:1px;stroke-linecap:butt;stroke-linejoin:miter;stroke-opacity:1" d="M 920.036,753.213 909.61,741.297 z" id="boundary" inkscape:connector-curvature="0" />
	<path style="fill:none;stroke:red;stroke-width:1px;stroke-linecap:butt;stroke-linejoin:miter;stroke-opacity:1" d="M 933.441,727.892 921.526,718.955 z" id="boundary" inkscape:connector-curvature="0" />
	<path style="fill:none;stroke:red;stroke-width:1px;stroke-linecap:butt;stroke-linejoin:miter;stroke-opacity:1" d="M 943.868,739.808 933.441,727.892 z" id="boundary" inkscape:connector-curvature="0" />
	<path style="fill:none;stroke:red;stroke-width:1px;stroke-linecap:butt;stroke-linejoin:miter;stroke-opacity:1" d="M 955.784,750.234 943.868,739.808 z" id="boundary" inkscape:connector-curvature="0" />
	<path style="fill:none;stroke:red;stroke-width:1px;stroke-linecap:butt;stroke-linejoin:miter;stroke-opacity:1" d="M 908.12,711.508 894.715,704.06 z" id="boundary" inkscape:connector-curvature="0" />
	<path style="fill:none;stroke:red;stroke-width:1px;stroke-linecap:butt;stroke-linejoin:miter;stroke-opacity:1" d="M 920.036,753.213 927.483,766.619 z" id="boundary" inkscape:connector-curvature="0" />
	<path style="fill:none;stroke:red;stroke-width:1px;stroke-linecap:butt;stroke-linejoin:miter;stroke-opacity:1" d="M 927.483,766.619 927.483,781.514 z" id="boundary" inkscape:connector-curvature="0" />
	<path style="fill:none;stroke:red;stroke-width:1px;stroke-linecap:butt;stroke-linejoin:miter;stroke-opacity:1" d="M 961.742,765.129 966.21,780.024 z" id="boundary" inkscape:connector-curvature="0" />
	<path style="fill:none;stroke:red;stroke-width:1px;stroke-linecap:butt;stroke-linejoin:miter;stroke-opacity:1" d="M 955.784,750.234 961.742,765.129 z" id="boundary" inkscape:connector-curvature="0" />
	<path style="fill:none;stroke:red;stroke-width:1px;stroke-linecap:butt;stroke-linejoin:miter;stroke-opacity:1" d="M 934.931,794.919 927.483,781.514 z" id="boundary" inkscape:connector-curvature="0" />
	<path style="fill:none;stroke:red;stroke-width:1px;stroke-linecap:butt;stroke-linejoin:miter;stroke-opacity:1" d="M 474.679,817.261 474.679,832.156 z" id="boundary" inkscape:connector-curvature="0" />
	<path style="fill:none;stroke:red;stroke-width:1px;stroke-linecap:butt;stroke-linejoin:miter;stroke-opacity:1" d="M 474.679,817.261 474.679,802.366 z" id="boundary" inkscape:connector-curvature="0" />
	<path style="fill:none;stroke:red;stroke-width:1px;stroke-linecap:butt;stroke-linejoin:miter;stroke-opacity:1" d="M 608.733,812.793 593.838,806.835 z" id="boundary" inkscape:connector-curvature="0" />
	<path style="fill:none;stroke:red;stroke-width:1px;stroke-linecap:butt;stroke-linejoin:miter;stroke-opacity:1" d="M 593.838,806.835 583.411,794.919 z" id="boundary" inkscape:connector-curvature="0" />
	<path style="fill:none;stroke:red;stroke-width:1px;stroke-linecap:butt;stroke-linejoin:miter;stroke-opacity:1" d="M 608.733,812.793 619.159,824.709 z" id="boundary" inkscape:connector-curvature="0" />
	<path style="fill:none;stroke:red;stroke-width:1px;stroke-linecap:butt;stroke-linejoin:miter;stroke-opacity:1" d="M 474.679,847.051 474.679,861.946 z" id="boundary" inkscape:connector-curvature="0" />
	<path style="fill:none;stroke:red;stroke-width:1px;stroke-linecap:butt;stroke-linejoin:miter;stroke-opacity:1" d="M 474.679,847.051 474.679,832.156 z" id="boundary" inkscape:connector-curvature="0" />
	<path style="fill:none;stroke:red;stroke-width:1px;stroke-linecap:butt;stroke-linejoin:miter;stroke-opacity:1" d="M 631.075,835.135 619.159,824.709 z" id="boundary" inkscape:connector-curvature="0" />
	<path style="fill:none;stroke:red;stroke-width:1px;stroke-linecap:butt;stroke-linejoin:miter;stroke-opacity:1" d="M 631.075,835.135 637.033,850.03 z" id="boundary" inkscape:connector-curvature="0" />
	<path style="fill:none;stroke:red;stroke-width:1px;stroke-linecap:butt;stroke-linejoin:miter;stroke-opacity:1" d="M 474.679,861.946 467.231,884.288 z" id="boundary" inkscape:connector-curvature="0" />
	<path style="fill:none;stroke:red;stroke-width:1px;stroke-linecap:butt;stroke-linejoin:miter;stroke-opacity:1" d="M 683.207,799.387 698.102,797.898 z" id="boundary" inkscape:connector-curvature="0" />
	<path style="fill:none;stroke:red;stroke-width:1px;stroke-linecap:butt;stroke-linejoin:miter;stroke-opacity:1" d="M 690.655,812.793 705.55,812.793 z" id="boundary" inkscape:connector-curvature="0" />
	<path style="fill:none;stroke:red;stroke-width:1px;stroke-linecap:butt;stroke-linejoin:miter;stroke-opacity:1" d="M 704.06,841.093 696.613,827.688 z" id="boundary" inkscape:connector-curvature="0" />
	<path style="fill:none;stroke:red;stroke-width:1px;stroke-linecap:butt;stroke-linejoin:miter;stroke-opacity:1" d="M 675.76,785.982 683.207,799.387 z" id="boundary" inkscape:connector-curvature="0" />
	<path style="fill:none;stroke:red;stroke-width:1px;stroke-linecap:butt;stroke-linejoin:miter;stroke-opacity:1" d="M 644.48,863.435 637.033,850.03 z" id="boundary" inkscape:connector-curvature="0" />
	<path style="fill:none;stroke:red;stroke-width:1px;stroke-linecap:butt;stroke-linejoin:miter;stroke-opacity:1" d="M 705.55,855.988 705.55,870.883 z" id="boundary" inkscape:connector-curvature="0" />
	<path style="fill:none;stroke:red;stroke-width:1px;stroke-linecap:butt;stroke-linejoin:miter;stroke-opacity:1" d="M 705.55,855.988 704.06,841.093 z" id="boundary" inkscape:connector-curvature="0" />
	<path style="fill:none;stroke:red;stroke-width:1px;stroke-linecap:butt;stroke-linejoin:miter;stroke-opacity:1" d="M 644.48,863.435 637.033,887.267 z" id="boundary" inkscape:connector-curvature="0" />
	<path style="fill:none;stroke:red;stroke-width:1px;stroke-linecap:butt;stroke-linejoin:miter;stroke-opacity:1" d="M 705.55,812.793 715.976,824.709 z" id="boundary" inkscape:connector-curvature="0" />
	<path style="fill:none;stroke:red;stroke-width:1px;stroke-linecap:butt;stroke-linejoin:miter;stroke-opacity:1" d="M 705.55,870.883 705.55,885.778 z" id="boundary" inkscape:connector-curvature="0" />
	<path style="fill:none;stroke:red;stroke-width:1px;stroke-linecap:butt;stroke-linejoin:miter;stroke-opacity:1" d="M 464.252,903.652 467.231,884.288 z" id="boundary" inkscape:connector-curvature="0" />
	<path style="fill:none;stroke:red;stroke-width:1px;stroke-linecap:butt;stroke-linejoin:miter;stroke-opacity:1" d="M 626.607,957.273 611.712,957.273 z" id="boundary" inkscape:connector-curvature="0" />
	<path style="fill:none;stroke:red;stroke-width:1px;stroke-linecap:butt;stroke-linejoin:miter;stroke-opacity:1" d="M 629.586,917.057 629.586,931.952 z" id="boundary" inkscape:connector-curvature="0" />
	<path style="fill:none;stroke:red;stroke-width:1px;stroke-linecap:butt;stroke-linejoin:miter;stroke-opacity:1" d="M 584.901,976.637 596.817,987.063 z" id="boundary" inkscape:connector-curvature="0" />
	<path style="fill:none;stroke:red;stroke-width:1px;stroke-linecap:butt;stroke-linejoin:miter;stroke-opacity:1" d="M 622.138,988.553 608.733,996 z" id="boundary" inkscape:connector-curvature="0" />
	<path style="fill:none;stroke:red;stroke-width:1px;stroke-linecap:butt;stroke-linejoin:miter;stroke-opacity:1" d="M 608.733,996 596.817,987.063 z" id="boundary" inkscape:connector-curvature="0" />
	<path style="fill:none;stroke:red;stroke-width:1px;stroke-linecap:butt;stroke-linejoin:miter;stroke-opacity:1" d="M 599.796,969.189 611.712,957.273 z" id="boundary" inkscape:connector-curvature="0" />
	<path style="fill:none;stroke:red;stroke-width:1px;stroke-linecap:butt;stroke-linejoin:miter;stroke-opacity:1" d="M 622.138,988.553 637.033,988.553 z" id="boundary" inkscape:connector-curvature="0" />
	<path style="fill:none;stroke:red;stroke-width:1px;stroke-linecap:butt;stroke-linejoin:miter;stroke-opacity:1" d="M 629.586,917.057 637.033,902.162 z" id="boundary" inkscape:connector-curvature="0" />
	<path style="fill:none;stroke:red;stroke-width:1px;stroke-linecap:butt;stroke-linejoin:miter;stroke-opacity:1" d="M 637.033,887.267 637.033,902.162 z" id="boundary" inkscape:connector-curvature="0" />
	<path style="fill:none;stroke:red;stroke-width:1px;stroke-linecap:butt;stroke-linejoin:miter;stroke-opacity:1" d="M 637.033,945.357 629.586,931.952 z" id="boundary" inkscape:connector-curvature="0" />
	<path style="fill:none;stroke:red;stroke-width:1px;stroke-linecap:butt;stroke-linejoin:miter;stroke-opacity:1" d="M 626.607,957.273 637.033,945.357 z" id="boundary" inkscape:connector-curvature="0" />
	<path style="fill:none;stroke:red;stroke-width:1px;stroke-linecap:butt;stroke-linejoin:miter;stroke-opacity:1" d="M 665.333,993.021 650.438,996 z" id="boundary" inkscape:connector-curvature="0" />
	<path style="fill:none;stroke:red;stroke-width:1px;stroke-linecap:butt;stroke-linejoin:miter;stroke-opacity:1" d="M 650.438,996 637.033,988.553 z" id="boundary" inkscape:connector-curvature="0" />
	<path style="fill:none;stroke:red;stroke-width:1px;stroke-linecap:butt;stroke-linejoin:miter;stroke-opacity:1" d="M 680.228,988.553 690.655,973.658 z" id="boundary" inkscape:connector-curvature="0" />
	<path style="fill:none;stroke:red;stroke-width:1px;stroke-linecap:butt;stroke-linejoin:miter;stroke-opacity:1" d="M 690.655,973.658 702.571,963.231 z" id="boundary" inkscape:connector-curvature="0" />
	<path style="fill:none;stroke:red;stroke-width:1px;stroke-linecap:butt;stroke-linejoin:miter;stroke-opacity:1" d="M 680.228,988.553 665.333,993.021 z" id="boundary" inkscape:connector-curvature="0" />
	<path style="fill:none;stroke:red;stroke-width:1px;stroke-linecap:butt;stroke-linejoin:miter;stroke-opacity:1" d="M 705.55,945.357 702.571,963.231 z" id="boundary" inkscape:connector-curvature="0" />
	<path style="fill:none;stroke:red;stroke-width:1px;stroke-linecap:butt;stroke-linejoin:miter;stroke-opacity:1" d="M 705.55,885.778 705.55,900.673 z" id="boundary" inkscape:connector-curvature="0" />
	<path style="fill:none;stroke:red;stroke-width:1px;stroke-linecap:butt;stroke-linejoin:miter;stroke-opacity:1" d="M 723.423,838.114 733.85,850.03 z" id="boundary" inkscape:connector-curvature="0" />
	<path style="fill:none;stroke:red;stroke-width:1px;stroke-linecap:butt;stroke-linejoin:miter;stroke-opacity:1" d="M 723.423,838.114 715.976,824.709 z" id="boundary" inkscape:connector-curvature="0" />
	<path style="fill:none;stroke:red;stroke-width:1px;stroke-linecap:butt;stroke-linejoin:miter;stroke-opacity:1" d="M 844.072,839.604 832.156,829.177 z" id="boundary" inkscape:connector-curvature="0" />
	<path style="fill:none;stroke:red;stroke-width:1px;stroke-linecap:butt;stroke-linejoin:miter;stroke-opacity:1" d="M 832.156,829.177 824.709,815.772 z" id="boundary" inkscape:connector-curvature="0" />
	<path style="fill:none;stroke:red;stroke-width:1px;stroke-linecap:butt;stroke-linejoin:miter;stroke-opacity:1" d="M 824.709,815.772 820.24,800.877 z" id="boundary" inkscape:connector-curvature="0" />
	<path style="fill:none;stroke:red;stroke-width:1px;stroke-linecap:butt;stroke-linejoin:miter;stroke-opacity:1" d="M 756.192,872.372 745.766,860.456 z" id="boundary" inkscape:connector-curvature="0" />
	<path style="fill:none;stroke:red;stroke-width:1px;stroke-linecap:butt;stroke-linejoin:miter;stroke-opacity:1" d="M 745.766,860.456 733.85,850.03 z" id="boundary" inkscape:connector-curvature="0" />
	<path style="fill:none;stroke:red;stroke-width:1px;stroke-linecap:butt;stroke-linejoin:miter;stroke-opacity:1" d="M 844.072,839.604 858.967,845.562 z" id="boundary" inkscape:connector-curvature="0" />
	<path style="fill:none;stroke:red;stroke-width:1px;stroke-linecap:butt;stroke-linejoin:miter;stroke-opacity:1" d="M 887.267,853.009 872.372,853.009 z" id="boundary" inkscape:connector-curvature="0" />
	<path style="fill:none;stroke:red;stroke-width:1px;stroke-linecap:butt;stroke-linejoin:miter;stroke-opacity:1" d="M 872.372,853.009 858.967,845.562 z" id="boundary" inkscape:connector-curvature="0" />
	<path style="fill:none;stroke:red;stroke-width:1px;stroke-linecap:butt;stroke-linejoin:miter;stroke-opacity:1" d="M 927.483,812.793 934.931,794.919 z" id="boundary" inkscape:connector-curvature="0" />
	<path style="fill:none;stroke:red;stroke-width:1px;stroke-linecap:butt;stroke-linejoin:miter;stroke-opacity:1" d="M 966.21,794.919 966.21,809.814 z" id="boundary" inkscape:connector-curvature="0" />
	<path style="fill:none;stroke:red;stroke-width:1px;stroke-linecap:butt;stroke-linejoin:miter;stroke-opacity:1" d="M 966.21,809.814 966.21,824.709 z" id="boundary" inkscape:connector-curvature="0" />
	<path style="fill:none;stroke:red;stroke-width:1px;stroke-linecap:butt;stroke-linejoin:miter;stroke-opacity:1" d="M 966.21,780.024 966.21,794.919 z" id="boundary" inkscape:connector-curvature="0" />
	<path style="fill:none;stroke:red;stroke-width:1px;stroke-linecap:butt;stroke-linejoin:miter;stroke-opacity:1" d="M 925.994,830.667 927.483,812.793 z" id="boundary" inkscape:connector-curvature="0" />
	<path style="fill:none;stroke:red;stroke-width:1px;stroke-linecap:butt;stroke-linejoin:miter;stroke-opacity:1" d="M 902.162,853.009 887.267,853.009 z" id="boundary" inkscape:connector-curvature="0" />
	<path style="fill:none;stroke:red;stroke-width:1px;stroke-linecap:butt;stroke-linejoin:miter;stroke-opacity:1" d="M 914.078,841.093 902.162,853.009 z" id="boundary" inkscape:connector-curvature="0" />
	<path style="fill:none;stroke:red;stroke-width:1px;stroke-linecap:butt;stroke-linejoin:miter;stroke-opacity:1" d="M 914.078,841.093 925.994,830.667 z" id="boundary" inkscape:connector-curvature="0" />
	<path style="fill:none;stroke:red;stroke-width:1px;stroke-linecap:butt;stroke-linejoin:miter;stroke-opacity:1" d="M 966.21,824.709 966.21,839.604 z" id="boundary" inkscape:connector-curvature="0" />
	<path style="fill:none;stroke:red;stroke-width:1px;stroke-linecap:butt;stroke-linejoin:miter;stroke-opacity:1" d="M 966.21,839.604 958.763,861.946 z" id="boundary" inkscape:connector-curvature="0" />
	<path style="fill:none;stroke:red;stroke-width:1px;stroke-linecap:butt;stroke-linejoin:miter;stroke-opacity:1" d="M 756.192,872.372 768.108,882.799 z" id="boundary" inkscape:connector-curvature="0" />
	<path style="fill:none;stroke:red;stroke-width:1px;stroke-linecap:butt;stroke-linejoin:miter;stroke-opacity:1" d="M 793.429,899.183 778.535,894.715 z" id="boundary" inkscape:connector-curvature="0" />
	<path style="fill:none;stroke:red;stroke-width:1px;stroke-linecap:butt;stroke-linejoin:miter;stroke-opacity:1" d="M 778.535,894.715 768.108,882.799 z" id="boundary" inkscape:connector-curvature="0" />
	<path style="fill:none;stroke:red;stroke-width:1px;stroke-linecap:butt;stroke-linejoin:miter;stroke-opacity:1" d="M 705.55,915.568 705.55,900.673 z" id="boundary" inkscape:connector-curvature="0" />
	<path style="fill:none;stroke:red;stroke-width:1px;stroke-linecap:butt;stroke-linejoin:miter;stroke-opacity:1" d="M 806.835,906.631 793.429,899.183 z" id="boundary" inkscape:connector-curvature="0" />
	<path style="fill:none;stroke:red;stroke-width:1px;stroke-linecap:butt;stroke-linejoin:miter;stroke-opacity:1" d="M 705.55,915.568 705.55,930.462 z" id="boundary" inkscape:connector-curvature="0" />
	<path style="fill:none;stroke:red;stroke-width:1px;stroke-linecap:butt;stroke-linejoin:miter;stroke-opacity:1" d="M 806.835,906.631 820.24,914.078 z" id="boundary" inkscape:connector-curvature="0" />
	<path style="fill:none;stroke:red;stroke-width:1px;stroke-linecap:butt;stroke-linejoin:miter;stroke-opacity:1" d="M 705.55,945.357 705.55,930.462 z" id="boundary" inkscape:connector-curvature="0" />
	<path style="fill:none;stroke:red;stroke-width:1px;stroke-linecap:butt;stroke-linejoin:miter;stroke-opacity:1" d="M 835.135,914.078 820.24,914.078 z" id="boundary" inkscape:connector-curvature="0" />
	<path style="fill:none;stroke:red;stroke-width:1px;stroke-linecap:butt;stroke-linejoin:miter;stroke-opacity:1" d="M 921.526,906.631 936.42,899.183 z" id="boundary" inkscape:connector-curvature="0" />
	<path style="fill:none;stroke:red;stroke-width:1px;stroke-linecap:butt;stroke-linejoin:miter;stroke-opacity:1" d="M 943.868,884.288 936.42,899.183 z" id="boundary" inkscape:connector-curvature="0" />
	<path style="fill:none;stroke:red;stroke-width:1px;stroke-linecap:butt;stroke-linejoin:miter;stroke-opacity:1" d="M 958.763,861.946 958.763,876.841 z" id="boundary" inkscape:connector-curvature="0" />
	<path style="fill:none;stroke:red;stroke-width:1px;stroke-linecap:butt;stroke-linejoin:miter;stroke-opacity:1" d="M 958.763,876.841 943.868,884.288 z" id="boundary" inkscape:connector-curvature="0" />
	<path style="fill:none;stroke:red;stroke-width:1px;stroke-linecap:butt;stroke-linejoin:miter;stroke-opacity:1" d="M 921.526,906.631 906.631,914.078 z" id="boundary" inkscape:connector-curvature="0" />
	<path style="fill:none;stroke:red;stroke-width:1px;stroke-linecap:butt;stroke-linejoin:miter;stroke-opacity:1" d="M 863.435,921.526 848.541,921.526 z" id="boundary" inkscape:connector-curvature="0" />
	<path style="fill:none;stroke:red;stroke-width:1px;stroke-linecap:butt;stroke-linejoin:miter;stroke-opacity:1" d="M 848.541,921.526 835.135,914.078 z" id="boundary" inkscape:connector-curvature="0" />
	<path style="fill:none;stroke:red;stroke-width:1px;stroke-linecap:butt;stroke-linejoin:miter;stroke-opacity:1" d="M 906.631,914.078 893.225,921.526 z" id="boundary" inkscape:connector-curvature="0" />
	<path style="fill:none;stroke:red;stroke-width:1px;stroke-linecap:butt;stroke-linejoin:miter;stroke-opacity:1" d="M 893.225,921.526 878.33,921.526 z" id="boundary" inkscape:connector-curvature="0" />
	<path style="fill:none;stroke:red;stroke-width:1px;stroke-linecap:butt;stroke-linejoin:miter;stroke-opacity:1" d="M 878.33,921.526 863.435,921.526 z" id="boundary" inkscape:connector-curvature="0" />
	<circle cx="4" cy="284.024" r="4" fill="#0" id="circle0"/>
	<circle cx="15.9159" cy="272.108" r="4" fill="#0" id="circle1"/>
	<circle cx="18.8949" cy="288.492" r="4" fill="#0" id="circle2"/>
	<circle cx="27.8318" cy="300.408" r="4" fill="#0" id="circle3"/>
	<circle cx="30.8108" cy="272.108" r="4" fill="#0" id="circle4"/>
	<circle cx="42.7267" cy="303.387" r="4" fill="#0" id="circle5"/>
	<circle cx="44.2162" cy="264.661" r="4" fill="#0" id="circle6"/>
	<circle cx="56.1321" cy="310.835" r="4" fill="#0" id="circle7"/>
	<circle cx="59.1111" cy="264.661" r="4" fill="#0" id="circle8"/>
	<circle cx="69.5375" cy="318.282" r="4" fill="#0" id="circle9"/>
	<circle cx="74.006" cy="264.661" r="4" fill="#0" id="circle10"/>
	<circle cx="84.4324" cy="318.282" r="4" fill="#0" id="circle11"/>
	<circle cx="87.4114" cy="272.108" r="4" fill="#0" id="circle12"/>
	<circle cx="97.8378" cy="325.73" r="4" fill="#0" id="circle13"/>
	<circle cx="102.306" cy="272.108" r="4" fill="#0" id="circle14"/>
	<circle cx="112.733" cy="331.688" r="4" fill="#0" id="circle15"/>
	<circle cx="115.712" cy="279.556" r="4" fill="#0" id="circle16"/>
	<circle cx="123.159" cy="45.7057" r="4" fill="#0" id="circle17"/>
	<circle cx="123.159" cy="60.6006" r="4" fill="#0" id="circle18"/>
	<circle cx="123.159" cy="75.4955" r="4" fill="#0" id="circle19"/>
	<circle cx="123.159" cy="343.604" r="4" fill="#0" id="circle20"/>
	<circle cx="129.117" cy="287.003" r="4" fill="#0" id="circle21"/>
	<circle cx="135.075" cy="33.7898" r="4" fill="#0" id="circle22"/>
	<circle cx="135.075" cy="354.03" r="4" fill="#0" id="circle23"/>
	<circle cx="138.054" cy="79.964" r="4" fill="#0" id="circle24"/>
	<circle cx="138.054" cy="105.285" r="4" fill="#0" id="circle25"/>
	<circle cx="142.523" cy="294.45" r="4" fill="#0" id="circle26"/>
	<circle cx="145.502" cy="15.9159" r="4" fill="#0" id="circle27"/>
	<circle cx="145.502" cy="118.691" r="4" fill="#0" id="circle28"/>
	<circle cx="145.502" cy="365.946" r="4" fill="#0" id="circle29"/>
	<circle cx="149.97" cy="93.3694" r="4" fill="#0" id="circle30"/>
	<circle cx="155.928" cy="301.898" r="4" fill="#0" id="circle31"/>
	<circle cx="157.417" cy="79.964" r="4" fill="#0" id="circle32"/>
	<circle cx="157.417" cy="376.372" r="4" fill="#0" id="circle33"/>
	<circle cx="160.396" cy="11.4474" r="4" fill="#0" id="circle34"/>
	<circle cx="160.396" cy="124.649" r="4" fill="#0" id="circle35"/>
	<circle cx="167.844" cy="312.324" r="4" fill="#0" id="circle36"/>
	<circle cx="170.823" cy="383.82" r="4" fill="#0" id="circle37"/>
	<circle cx="175.291" cy="8.46847" r="4" fill="#0" id="circle38"/>
	<circle cx="175.291" cy="124.649" r="4" fill="#0" id="circle39"/>
	<circle cx="175.291" cy="455.315" r="4" fill="#0" id="circle40"/>
	<circle cx="175.291" cy="477.658" r="4" fill="#0" id="circle41"/>
	<circle cx="181.249" cy="319.772" r="4" fill="#0" id="circle42"/>
	<circle cx="182.739" cy="392.757" r="4" fill="#0" id="circle43"/>
	<circle cx="184.228" cy="489.574" r="4" fill="#0" id="circle44"/>
	<circle cx="187.207" cy="443.399" r="4" fill="#0" id="circle45"/>
	<circle cx="190.186" cy="4" r="4" fill="#0" id="circle46"/>
	<circle cx="190.186" cy="124.649" r="4" fill="#0" id="circle47"/>
	<circle cx="191.676" cy="331.688" r="4" fill="#0" id="circle48"/>
	<circle cx="197.634" cy="392.757" r="4" fill="#0" id="circle49"/>
	<circle cx="199.123" cy="492.553" r="4" fill="#0" id="circle50"/>
	<circle cx="202.102" cy="443.399" r="4" fill="#0" id="circle51"/>
	<circle cx="203.592" cy="132.096" r="4" fill="#0" id="circle52"/>
	<circle cx="205.081" cy="4" r="4" fill="#0" id="circle53"/>
	<circle cx="206.571" cy="331.688" r="4" fill="#0" id="circle54"/>
	<circle cx="211.039" cy="400.204" r="4" fill="#0" id="circle55"/>
	<circle cx="212.529" cy="500" r="4" fill="#0" id="circle56"/>
	<circle cx="214.018" cy="144.012" r="4" fill="#0" id="circle57"/>
	<circle cx="214.018" cy="431.483" r="4" fill="#0" id="circle58"/>
	<circle cx="219.976" cy="4" r="4" fill="#0" id="circle59"/>
	<circle cx="219.976" cy="321.261" r="4" fill="#0" id="circle60"/>
	<circle cx="225.934" cy="154.438" r="4" fill="#0" id="circle61"/>
	<circle cx="225.934" cy="400.204" r="4" fill="#0" id="circle62"/>
	<circle cx="227.423" cy="504.468" r="4" fill="#0" id="circle63"/>
	<circle cx="228.913" cy="428.505" r="4" fill="#0" id="circle64"/>
	<circle cx="231.892" cy="169.333" r="4" fill="#0" id="circle65"/>
	<circle cx="234.871" cy="6.97898" r="4" fill="#0" id="circle66"/>
	<circle cx="234.871" cy="184.228" r="4" fill="#0" id="circle67"/>
	<circle cx="234.871" cy="313.814" r="4" fill="#0" id="circle68"/>
	<circle cx="240.829" cy="397.225" r="4" fill="#0" id="circle69"/>
	<circle cx="240.829" cy="497.021" r="4" fill="#0" id="circle70"/>
	<circle cx="242.318" cy="197.634" r="4" fill="#0" id="circle71"/>
	<circle cx="242.318" cy="291.471" r="4" fill="#0" id="circle72"/>
	<circle cx="243.808" cy="428.505" r="4" fill="#0" id="circle73"/>
	<circle cx="245.297" cy="212.529" r="4" fill="#0" id="circle74"/>
	<circle cx="249.766" cy="11.4474" r="4" fill="#0" id="circle75"/>
	<circle cx="249.766" cy="227.423" r="4" fill="#0" id="circle76"/>
	<circle cx="249.766" cy="242.318" r="4" fill="#0" id="circle77"/>
	<circle cx="249.766" cy="257.213" r="4" fill="#0" id="circle78"/>
	<circle cx="249.766" cy="272.108" r="4" fill="#0" id="circle79"/>
	<circle cx="254.234" cy="489.574" r="4" fill="#0" id="circle80"/>
	<circle cx="255.724" cy="389.778" r="4" fill="#0" id="circle81"/>
	<circle cx="258.703" cy="424.036" r="4" fill="#0" id="circle82"/>
	<circle cx="264.661" cy="14.4264" r="4" fill="#0" id="circle83"/>
	<circle cx="266.15" cy="377.862" r="4" fill="#0" id="circle84"/>
	<circle cx="267.64" cy="482.126" r="4" fill="#0" id="circle85"/>
	<circle cx="273.598" cy="421.057" r="4" fill="#0" id="circle86"/>
	<circle cx="278.066" cy="21.8739" r="4" fill="#0" id="circle87"/>
	<circle cx="279.556" cy="385.309" r="4" fill="#0" id="circle88"/>
	<circle cx="282.535" cy="482.126" r="4" fill="#0" id="circle89"/>
	<circle cx="288.492" cy="33.7898" r="4" fill="#0" id="circle90"/>
	<circle cx="288.492" cy="397.225" r="4" fill="#0" id="circle91"/>
	<circle cx="288.492" cy="421.057" r="4" fill="#0" id="circle92"/>
	<circle cx="295.94" cy="474.679" r="4" fill="#0" id="circle93"/>
	<circle cx="300.408" cy="42.7267" r="4" fill="#0" id="circle94"/>
	<circle cx="310.835" cy="54.6426" r="4" fill="#0" id="circle95"/>
	<circle cx="310.835" cy="474.679" r="4" fill="#0" id="circle96"/>
	<circle cx="322.751" cy="65.0691" r="4" fill="#0" id="circle97"/>
	<circle cx="324.24" cy="946.847" r="4" fill="#0" id="circle98"/>
	<circle cx="325.73" cy="467.231" r="4" fill="#0" id="circle99"/>
	<circle cx="328.709" cy="79.964" r="4" fill="#0" id="circle100"/>
	<circle cx="333.177" cy="94.8589" r="4" fill="#0" id="circle101"/>
	<circle cx="333.177" cy="958.763" r="4" fill="#0" id="circle102"/>
	<circle cx="336.156" cy="934.931" r="4" fill="#0" id="circle103"/>
	<circle cx="339.135" cy="474.679" r="4" fill="#0" id="circle104"/>
	<circle cx="340.625" cy="108.264" r="4" fill="#0" id="circle105"/>
	<circle cx="340.625" cy="123.159" r="4" fill="#0" id="circle106"/>
	<circle cx="340.625" cy="138.054" r="4" fill="#0" id="circle107"/>
	<circle cx="340.625" cy="152.949" r="4" fill="#0" id="circle108"/>
	<circle cx="340.625" cy="167.844" r="4" fill="#0" id="circle109"/>
	<circle cx="348.072" cy="181.249" r="4" fill="#0" id="circle110"/>
	<circle cx="348.072" cy="958.763" r="4" fill="#0" id="circle111"/>
	<circle cx="351.051" cy="934.931" r="4" fill="#0" id="circle112"/>
	<circle cx="352.541" cy="482.126" r="4" fill="#0" id="circle113"/>
	<circle cx="355.52" cy="194.655" r="4" fill="#0" id="circle114"/>
	<circle cx="358.498" cy="497.021" r="4" fill="#0" id="circle115"/>
	<circle cx="361.477" cy="966.21" r="4" fill="#0" id="circle116"/>
	<circle cx="362.967" cy="208.06" r="4" fill="#0" id="circle117"/>
	<circle cx="365.946" cy="927.483" r="4" fill="#0" id="circle118"/>
	<circle cx="368.925" cy="671.291" r="4" fill="#0" id="circle119"/>
	<circle cx="368.925" cy="686.186" r="4" fill="#0" id="circle120"/>
	<circle cx="368.925" cy="701.081" r="4" fill="#0" id="circle121"/>
	<circle cx="370.414" cy="507.447" r="4" fill="#0" id="circle122"/>
	<circle cx="376.372" cy="215.508" r="4" fill="#0" id="circle123"/>
	<circle cx="376.372" cy="656.396" r="4" fill="#0" id="circle124"/>
	<circle cx="376.372" cy="714.486" r="4" fill="#0" id="circle125"/>
	<circle cx="376.372" cy="729.381" r="4" fill="#0" id="circle126"/>
	<circle cx="376.372" cy="744.276" r="4" fill="#0" id="circle127"/>
	<circle cx="376.372" cy="966.21" r="4" fill="#0" id="circle128"/>
	<circle cx="380.841" cy="519.363" r="4" fill="#0" id="circle129"/>
	<circle cx="380.841" cy="920.036" r="4" fill="#0" id="circle130"/>
	<circle cx="383.82" cy="641.502" r="4" fill="#0" id="circle131"/>
	<circle cx="383.82" cy="757.682" r="4" fill="#0" id="circle132"/>
	<circle cx="383.82" cy="772.577" r="4" fill="#0" id="circle133"/>
	<circle cx="389.778" cy="222.955" r="4" fill="#0" id="circle134"/>
	<circle cx="391.267" cy="531.279" r="4" fill="#0" id="circle135"/>
	<circle cx="391.267" cy="619.159" r="4" fill="#0" id="circle136"/>
	<circle cx="391.267" cy="785.982" r="4" fill="#0" id="circle137"/>
	<circle cx="391.267" cy="902.162" r="4" fill="#0" id="circle138"/>
	<circle cx="391.267" cy="966.21" r="4" fill="#0" id="circle139"/>
	<circle cx="398.715" cy="544.685" r="4" fill="#0" id="circle140"/>
	<circle cx="398.715" cy="799.387" r="4" fill="#0" id="circle141"/>
	<circle cx="398.715" cy="887.267" r="4" fill="#0" id="circle142"/>
	<circle cx="400.204" cy="814.282" r="4" fill="#0" id="circle143"/>
	<circle cx="403.183" cy="607.243" r="4" fill="#0" id="circle144"/>
	<circle cx="404.673" cy="228.913" r="4" fill="#0" id="circle145"/>
	<circle cx="406.162" cy="558.09" r="4" fill="#0" id="circle146"/>
	<circle cx="406.162" cy="829.177" r="4" fill="#0" id="circle147"/>
	<circle cx="406.162" cy="844.072" r="4" fill="#0" id="circle148"/>
	<circle cx="406.162" cy="858.967" r="4" fill="#0" id="circle149"/>
	<circle cx="406.162" cy="873.862" r="4" fill="#0" id="circle150"/>
	<circle cx="406.162" cy="961.742" r="4" fill="#0" id="circle151"/>
	<circle cx="410.631" cy="592.348" r="4" fill="#0" id="circle152"/>
	<circle cx="413.61" cy="571.495" r="4" fill="#0" id="circle153"/>
	<circle cx="415.099" cy="240.829" r="4" fill="#0" id="circle154"/>
	<circle cx="421.057" cy="958.763" r="4" fill="#0" id="circle155"/>
	<circle cx="429.994" cy="246.787" r="4" fill="#0" id="circle156"/>
	<circle cx="432.973" cy="949.826" r="4" fill="#0" id="circle157"/>
	<circle cx="440.42" cy="258.703" r="4" fill="#0" id="circle158"/>
	<circle cx="440.42" cy="934.931" r="4" fill="#0" id="circle159"/>
	<circle cx="447.868" cy="272.108" r="4" fill="#0" id="circle160"/>
	<circle cx="452.336" cy="914.078" r="4" fill="#0" id="circle161"/>
	<circle cx="458.294" cy="284.024" r="4" fill="#0" id="circle162"/>
	<circle cx="464.252" cy="903.652" r="4" fill="#0" id="circle163"/>
	<circle cx="467.231" cy="884.288" r="4" fill="#0" id="circle164"/>
	<circle cx="470.21" cy="294.45" r="4" fill="#0" id="circle165"/>
	<circle cx="474.679" cy="712.997" r="4" fill="#0" id="circle166"/>
	<circle cx="474.679" cy="727.892" r="4" fill="#0" id="circle167"/>
	<circle cx="474.679" cy="742.787" r="4" fill="#0" id="circle168"/>
	<circle cx="474.679" cy="757.682" r="4" fill="#0" id="circle169"/>
	<circle cx="474.679" cy="772.577" r="4" fill="#0" id="circle170"/>
	<circle cx="474.679" cy="787.471" r="4" fill="#0" id="circle171"/>
	<circle cx="474.679" cy="802.366" r="4" fill="#0" id="circle172"/>
	<circle cx="474.679" cy="817.261" r="4" fill="#0" id="circle173"/>
	<circle cx="474.679" cy="832.156" r="4" fill="#0" id="circle174"/>
	<circle cx="474.679" cy="847.051" r="4" fill="#0" id="circle175"/>
	<circle cx="474.679" cy="861.946" r="4" fill="#0" id="circle176"/>
	<circle cx="480.637" cy="306.366" r="4" fill="#0" id="circle177"/>
	<circle cx="486.595" cy="702.571" r="4" fill="#0" id="circle178"/>
	<circle cx="492.553" cy="316.793" r="4" fill="#0" id="circle179"/>
	<circle cx="497.021" cy="690.655" r="4" fill="#0" id="circle180"/>
	<circle cx="505.958" cy="324.24" r="4" fill="#0" id="circle181"/>
	<circle cx="510.426" cy="698.102" r="4" fill="#0" id="circle182"/>
	<circle cx="514.895" cy="712.997" r="4" fill="#0" id="circle183"/>
	<circle cx="517.874" cy="334.667" r="4" fill="#0" id="circle184"/>
	<circle cx="522.342" cy="726.402" r="4" fill="#0" id="circle185"/>
	<circle cx="526.811" cy="346.583" r="4" fill="#0" id="circle186"/>
	<circle cx="528.3" cy="741.297" r="4" fill="#0" id="circle187"/>
	<circle cx="540.216" cy="354.03" r="4" fill="#0" id="circle188"/>
	<circle cx="540.216" cy="750.234" r="4" fill="#0" id="circle189"/>
	<circle cx="549.153" cy="762.15" r="4" fill="#0" id="circle190"/>
	<circle cx="552.132" cy="362.967" r="4" fill="#0" id="circle191"/>
	<circle cx="561.069" cy="772.577" r="4" fill="#0" id="circle192"/>
	<circle cx="564.048" cy="373.393" r="4" fill="#0" id="circle193"/>
	<circle cx="571.495" cy="386.799" r="4" fill="#0" id="circle194"/>
	<circle cx="571.495" cy="784.492" r="4" fill="#0" id="circle195"/>
	<circle cx="578.943" cy="400.204" r="4" fill="#0" id="circle196"/>
	<circle cx="583.411" cy="794.919" r="4" fill="#0" id="circle197"/>
	<circle cx="584.901" cy="976.637" r="4" fill="#0" id="circle198"/>
	<circle cx="586.39" cy="413.61" r="4" fill="#0" id="circle199"/>
	<circle cx="593.838" cy="806.835" r="4" fill="#0" id="circle200"/>
	<circle cx="596.817" cy="987.063" r="4" fill="#0" id="circle201"/>
	<circle cx="599.796" cy="969.189" r="4" fill="#0" id="circle202"/>
	<circle cx="601.285" cy="418.078" r="4" fill="#0" id="circle203"/>
	<circle cx="608.733" cy="431.483" r="4" fill="#0" id="circle204"/>
	<circle cx="608.733" cy="812.793" r="4" fill="#0" id="circle205"/>
	<circle cx="608.733" cy="996" r="4" fill="#0" id="circle206"/>
	<circle cx="611.712" cy="957.273" r="4" fill="#0" id="circle207"/>
	<circle cx="619.159" cy="824.709" r="4" fill="#0" id="circle208"/>
	<circle cx="622.138" cy="438.931" r="4" fill="#0" id="circle209"/>
	<circle cx="622.138" cy="988.553" r="4" fill="#0" id="circle210"/>
	<circle cx="626.607" cy="957.273" r="4" fill="#0" id="circle211"/>
	<circle cx="628.096" cy="453.826" r="4" fill="#0" id="circle212"/>
	<circle cx="629.586" cy="917.057" r="4" fill="#0" id="circle213"/>
	<circle cx="629.586" cy="931.952" r="4" fill="#0" id="circle214"/>
	<circle cx="631.075" cy="835.135" r="4" fill="#0" id="circle215"/>
	<circle cx="637.033" cy="850.03" r="4" fill="#0" id="circle216"/>
	<circle cx="637.033" cy="887.267" r="4" fill="#0" id="circle217"/>
	<circle cx="637.033" cy="902.162" r="4" fill="#0" id="circle218"/>
	<circle cx="637.033" cy="945.357" r="4" fill="#0" id="circle219"/>
	<circle cx="637.033" cy="988.553" r="4" fill="#0" id="circle220"/>
	<circle cx="638.523" cy="465.742" r="4" fill="#0" id="circle221"/>
	<circle cx="644.48" cy="863.435" r="4" fill="#0" id="circle222"/>
	<circle cx="645.97" cy="479.147" r="4" fill="#0" id="circle223"/>
	<circle cx="650.438" cy="996" r="4" fill="#0" id="circle224"/>
	<circle cx="653.417" cy="492.553" r="4" fill="#0" id="circle225"/>
	<circle cx="660.865" cy="505.958" r="4" fill="#0" id="circle226"/>
	<circle cx="665.333" cy="993.021" r="4" fill="#0" id="circle227"/>
	<circle cx="668.312" cy="519.363" r="4" fill="#0" id="circle228"/>
	<circle cx="668.312" cy="772.577" r="4" fill="#0" id="circle229"/>
	<circle cx="675.76" cy="532.769" r="4" fill="#0" id="circle230"/>
	<circle cx="675.76" cy="785.982" r="4" fill="#0" id="circle231"/>
	<circle cx="680.228" cy="988.553" r="4" fill="#0" id="circle232"/>
	<circle cx="683.207" cy="546.174" r="4" fill="#0" id="circle233"/>
	<circle cx="683.207" cy="799.387" r="4" fill="#0" id="circle234"/>
	<circle cx="690.655" cy="559.58" r="4" fill="#0" id="circle235"/>
	<circle cx="690.655" cy="812.793" r="4" fill="#0" id="circle236"/>
	<circle cx="690.655" cy="973.658" r="4" fill="#0" id="circle237"/>
	<circle cx="696.613" cy="574.474" r="4" fill="#0" id="circle238"/>
	<circle cx="696.613" cy="827.688" r="4" fill="#0" id="circle239"/>
	<circle cx="698.102" cy="797.898" r="4" fill="#0" id="circle240"/>
	<circle cx="702.571" cy="963.231" r="4" fill="#0" id="circle241"/>
	<circle cx="704.06" cy="841.093" r="4" fill="#0" id="circle242"/>
	<circle cx="705.55" cy="812.793" r="4" fill="#0" id="circle243"/>
	<circle cx="705.55" cy="855.988" r="4" fill="#0" id="circle244"/>
	<circle cx="705.55" cy="870.883" r="4" fill="#0" id="circle245"/>
	<circle cx="705.55" cy="885.778" r="4" fill="#0" id="circle246"/>
	<circle cx="705.55" cy="900.673" r="4" fill="#0" id="circle247"/>
	<circle cx="705.55" cy="915.568" r="4" fill="#0" id="circle248"/>
	<circle cx="705.55" cy="930.462" r="4" fill="#0" id="circle249"/>
	<circle cx="705.55" cy="945.357" r="4" fill="#0" id="circle250"/>
	<circle cx="708.529" cy="584.901" r="4" fill="#0" id="circle251"/>
	<circle cx="715.976" cy="824.709" r="4" fill="#0" id="circle252"/>
	<circle cx="718.955" cy="596.817" r="4" fill="#0" id="circle253"/>
	<circle cx="723.423" cy="838.114" r="4" fill="#0" id="circle254"/>
	<circle cx="727.892" cy="608.733" r="4" fill="#0" id="circle255"/>
	<circle cx="733.85" cy="850.03" r="4" fill="#0" id="circle256"/>
	<circle cx="735.339" cy="622.138" r="4" fill="#0" id="circle257"/>
	<circle cx="742.787" cy="635.544" r="4" fill="#0" id="circle258"/>
	<circle cx="745.766" cy="860.456" r="4" fill="#0" id="circle259"/>
	<circle cx="750.234" cy="648.949" r="4" fill="#0" id="circle260"/>
	<circle cx="756.192" cy="872.372" r="4" fill="#0" id="circle261"/>
	<circle cx="757.682" cy="662.354" r="4" fill="#0" id="circle262"/>
	<circle cx="765.129" cy="675.76" r="4" fill="#0" id="circle263"/>
	<circle cx="768.108" cy="882.799" r="4" fill="#0" id="circle264"/>
	<circle cx="772.577" cy="689.165" r="4" fill="#0" id="circle265"/>
	<circle cx="778.535" cy="894.715" r="4" fill="#0" id="circle266"/>
	<circle cx="780.024" cy="702.571" r="4" fill="#0" id="circle267"/>
	<circle cx="787.471" cy="715.976" r="4" fill="#0" id="circle268"/>
	<circle cx="793.429" cy="730.871" r="4" fill="#0" id="circle269"/>
	<circle cx="793.429" cy="899.183" r="4" fill="#0" id="circle270"/>
	<circle cx="794.919" cy="745.766" r="4" fill="#0" id="circle271"/>
	<circle cx="802.366" cy="759.171" r="4" fill="#0" id="circle272"/>
	<circle cx="806.835" cy="906.631" r="4" fill="#0" id="circle273"/>
	<circle cx="809.814" cy="772.577" r="4" fill="#0" id="circle274"/>
	<circle cx="812.793" cy="787.471" r="4" fill="#0" id="circle275"/>
	<circle cx="820.24" cy="800.877" r="4" fill="#0" id="circle276"/>
	<circle cx="820.24" cy="914.078" r="4" fill="#0" id="circle277"/>
	<circle cx="823.219" cy="686.186" r="4" fill="#0" id="circle278"/>
	<circle cx="824.709" cy="815.772" r="4" fill="#0" id="circle279"/>
	<circle cx="832.156" cy="829.177" r="4" fill="#0" id="circle280"/>
	<circle cx="835.135" cy="696.613" r="4" fill="#0" id="circle281"/>
	<circle cx="835.135" cy="914.078" r="4" fill="#0" id="circle282"/>
	<circle cx="838.114" cy="681.718" r="4" fill="#0" id="circle283"/>
	<circle cx="844.072" cy="839.604" r="4" fill="#0" id="circle284"/>
	<circle cx="847.051" cy="705.55" r="4" fill="#0" id="circle285"/>
	<circle cx="848.541" cy="921.526" r="4" fill="#0" id="circle286"/>
	<circle cx="851.52" cy="689.165" r="4" fill="#0" id="circle287"/>
	<circle cx="858.967" cy="845.562" r="4" fill="#0" id="circle288"/>
	<circle cx="860.456" cy="712.997" r="4" fill="#0" id="circle289"/>
	<circle cx="863.435" cy="921.526" r="4" fill="#0" id="circle290"/>
	<circle cx="866.414" cy="690.655" r="4" fill="#0" id="circle291"/>
	<circle cx="872.372" cy="853.009" r="4" fill="#0" id="circle292"/>
	<circle cx="875.351" cy="712.997" r="4" fill="#0" id="circle293"/>
	<circle cx="878.33" cy="921.526" r="4" fill="#0" id="circle294"/>
	<circle cx="881.309" cy="696.613" r="4" fill="#0" id="circle295"/>
	<circle cx="887.267" cy="853.009" r="4" fill="#0" id="circle296"/>
	<circle cx="888.757" cy="720.444" r="4" fill="#0" id="circle297"/>
	<circle cx="893.225" cy="921.526" r="4" fill="#0" id="circle298"/>
	<circle cx="894.715" cy="704.06" r="4" fill="#0" id="circle299"/>
	<circle cx="902.162" cy="727.892" r="4" fill="#0" id="circle300"/>
	<circle cx="902.162" cy="853.009" r="4" fill="#0" id="circle301"/>
	<circle cx="906.631" cy="914.078" r="4" fill="#0" id="circle302"/>
	<circle cx="908.12" cy="711.508" r="4" fill="#0" id="circle303"/>
	<circle cx="909.61" cy="741.297" r="4" fill="#0" id="circle304"/>
	<circle cx="914.078" cy="841.093" r="4" fill="#0" id="circle305"/>
	<circle cx="920.036" cy="753.213" r="4" fill="#0" id="circle306"/>
	<circle cx="921.526" cy="718.955" r="4" fill="#0" id="circle307"/>
	<circle cx="921.526" cy="906.631" r="4" fill="#0" id="circle308"/>
	<circle cx="925.994" cy="830.667" r="4" fill="#0" id="circle309"/>
	<circle cx="927.483" cy="766.619" r="4" fill="#0" id="circle310"/>
	<circle cx="927.483" cy="781.514" r="4" fill="#0" id="circle311"/>
	<circle cx="927.483" cy="812.793" r="4" fill="#0" id="circle312"/>
	<circle cx="933.441" cy="727.892" r="4" fill="#0" id="circle313"/>
	<circle cx="934.931" cy="794.919" r="4" fill="#0" id="circle314"/>
	<circle cx="936.42" cy="899.183" r="4" fill="#0" id="circle315"/>
	<circle cx="943.868" cy="739.808" r="4" fill="#0" id="circle316"/>
	<circle cx="943.868" cy="884.288" r="4" fill="#0" id="circle317"/>
	<circle cx="955.784" cy="750.234" r="4" fill="#0" id="circle318"/>
	<circle cx="958.763" cy="861.946" r="4" fill="#0" id="circle319"/>
	<circle cx="958.763" cy="876.841" r="4" fill="#0" id="circle320"/>
	<circle cx="961.742" cy="765.129" r="4" fill="#0" id="circle321"/>
	<circle cx="966.21" cy="780.024" r="4" fill="#0" id="circle322"/>
	<circle cx="966.21" cy="794.919" r="4" fill="#0" id="circle323"/>
	<circle cx="966.21" cy="809.814" r="4" fill="#0" id="circle324"/>
	<circle cx="966.21" cy="824.709" r="4" fill="#0" id="circle325"/>
	<circle cx="966.21" cy="839.604" r="4" fill="#0" id="circle326"/>
	</g>
</svg>