<?xml version="1.0" encoding="UTF-8" standalone="no"?>
<!-- Created with CurveBenchmark -->
<svg
	xmlns:dc="http://purl.org/dc/elements/1.1/"
	xmlns:cc="http://creativecommons.org/ns#"
	xmlns:rdf="http://www.w3.org/1999/02/22-rdf-syntax-ns#"
	xmlns:svg="http://www.w3.org/2000/svg"
	xmlns="http://www.w3.org/2000/svg"
	xmlns:sodipodi="http://sodipodi.sourceforge.net/DTD/sodipodi-0.dtd"
	xmlns:inkscape="http://www.inkscape.org/namespaces/inkscape"
	width="1000"
	height="1000"
	id="svg2"
	version="1.1"
	sodipodi:docname="manifold/ccrust-carriage20.png.txt">
<defs
	id="defs4" />
<metadata
	id="metadata7">
	<rdf:RDF>
		<cc:Work
			rdf:about="">
			<dc:format>image/svg+xml</dc:format>
			<dc:type
				rdf:resource="http://purl.org/dc/dcmitype/StillImage" />
			<dc:title></dc:title>
		</cc:Work>
	</rdf:RDF>
</metadata>
<g
	inkscape:label="Layer 1"
	inkscape:groupmode="layer"
	id="layer1">
	<path style="fill:none;stroke:red;stroke-width:1px;stroke-linecap:butt;stroke-linejoin:miter;stroke-opacity:1" d="M 37.2886,75.5705 45.6107,58.9262 z" id="boundary" inkscape:connector-curvature="0" />
	<path style="fill:none;stroke:red;stroke-width:1px;stroke-linecap:butt;stroke-linejoin:miter;stroke-opacity:1" d="M 45.6107,58.9262 62.255,50.604 z" id="boundary" inkscape:connector-curvature="0" />
	<path style="fill:none;stroke:red;stroke-width:1px;stroke-linecap:butt;stroke-linejoin:miter;stroke-opacity:1" d="M 17.3154,112.188 20.6443,83.8926 z" id="boundary" inkscape:connector-curvature="0" />
	<path style="fill:none;stroke:red;stroke-width:1px;stroke-linecap:butt;stroke-linejoin:miter;stroke-opacity:1" d="M 20.6443,83.8926 37.2886,75.5705 z" id="boundary" inkscape:connector-curvature="0" />
	<path style="fill:none;stroke:red;stroke-width:1px;stroke-linecap:butt;stroke-linejoin:miter;stroke-opacity:1" d="M 17.3154,112.188 4,125.503 z" id="boundary" inkscape:connector-curvature="0" />
	<path style="fill:none;stroke:red;stroke-width:1px;stroke-linecap:butt;stroke-linejoin:miter;stroke-opacity:1" d="M 62.255,50.604 78.8993,45.6107 z" id="boundary" inkscape:connector-curvature="0" />
	<path style="fill:none;stroke:red;stroke-width:1px;stroke-linecap:butt;stroke-linejoin:miter;stroke-opacity:1" d="M 78.8993,45.6107 93.8792,53.9329 z" id="boundary" inkscape:connector-curvature="0" />
	<path style="fill:none;stroke:red;stroke-width:1px;stroke-linecap:butt;stroke-linejoin:miter;stroke-opacity:1" d="M 93.8792,53.9329 108.859,62.255 z" id="boundary" inkscape:connector-curvature="0" />
	<path style="fill:none;stroke:red;stroke-width:1px;stroke-linecap:butt;stroke-linejoin:miter;stroke-opacity:1" d="M 123.839,70.5772 108.859,62.255 z" id="boundary" inkscape:connector-curvature="0" />
	<path style="fill:none;stroke:red;stroke-width:1px;stroke-linecap:butt;stroke-linejoin:miter;stroke-opacity:1" d="M 123.839,70.5772 130.497,87.2215 z" id="boundary" inkscape:connector-curvature="0" />
	<path style="fill:none;stroke:red;stroke-width:1px;stroke-linecap:butt;stroke-linejoin:miter;stroke-opacity:1" d="M 95.5436,130.497 80.5638,122.174 z" id="boundary" inkscape:connector-curvature="0" />
	<path style="fill:none;stroke:red;stroke-width:1px;stroke-linecap:butt;stroke-linejoin:miter;stroke-opacity:1" d="M 147.141,92.2148 130.497,87.2215 z" id="boundary" inkscape:connector-curvature="0" />
	<path style="fill:none;stroke:red;stroke-width:1px;stroke-linecap:butt;stroke-linejoin:miter;stroke-opacity:1" d="M 80.5638,122.174 63.9195,130.497 z" id="boundary" inkscape:connector-curvature="0" />
	<path style="fill:none;stroke:red;stroke-width:1px;stroke-linecap:butt;stroke-linejoin:miter;stroke-opacity:1" d="M 63.9195,130.497 47.2752,147.141 z" id="boundary" inkscape:connector-curvature="0" />
	<path style="fill:none;stroke:red;stroke-width:1px;stroke-linecap:butt;stroke-linejoin:miter;stroke-opacity:1" d="M 95.5436,130.497 95.5436,147.141 z" id="boundary" inkscape:connector-curvature="0" />
	<path style="fill:none;stroke:red;stroke-width:1px;stroke-linecap:butt;stroke-linejoin:miter;stroke-opacity:1" d="M 17.3154,137.154 4,125.503 z" id="boundary" inkscape:connector-curvature="0" />
	<path style="fill:none;stroke:red;stroke-width:1px;stroke-linecap:butt;stroke-linejoin:miter;stroke-opacity:1" d="M 30.6309,147.141 17.3154,137.154 z" id="boundary" inkscape:connector-curvature="0" />
	<path style="fill:none;stroke:red;stroke-width:1px;stroke-linecap:butt;stroke-linejoin:miter;stroke-opacity:1" d="M 47.2752,147.141 30.6309,147.141 z" id="boundary" inkscape:connector-curvature="0" />
	<path style="fill:none;stroke:red;stroke-width:1px;stroke-linecap:butt;stroke-linejoin:miter;stroke-opacity:1" d="M 100.537,163.785 103.866,180.43 z" id="boundary" inkscape:connector-curvature="0" />
	<path style="fill:none;stroke:red;stroke-width:1px;stroke-linecap:butt;stroke-linejoin:miter;stroke-opacity:1" d="M 112.188,195.409 103.866,180.43 z" id="boundary" inkscape:connector-curvature="0" />
	<path style="fill:none;stroke:red;stroke-width:1px;stroke-linecap:butt;stroke-linejoin:miter;stroke-opacity:1" d="M 112.188,195.409 112.188,212.054 z" id="boundary" inkscape:connector-curvature="0" />
	<path style="fill:none;stroke:red;stroke-width:1px;stroke-linecap:butt;stroke-linejoin:miter;stroke-opacity:1" d="M 112.188,245.342 112.188,228.698 z" id="boundary" inkscape:connector-curvature="0" />
	<path style="fill:none;stroke:red;stroke-width:1px;stroke-linecap:butt;stroke-linejoin:miter;stroke-opacity:1" d="M 112.188,228.698 112.188,212.054 z" id="boundary" inkscape:connector-curvature="0" />
	<path style="fill:none;stroke:red;stroke-width:1px;stroke-linecap:butt;stroke-linejoin:miter;stroke-opacity:1" d="M 100.537,163.785 95.5436,147.141 z" id="boundary" inkscape:connector-curvature="0" />
	<path style="fill:none;stroke:red;stroke-width:1px;stroke-linecap:butt;stroke-linejoin:miter;stroke-opacity:1" d="M 112.188,245.342 100.537,261.987 z" id="boundary" inkscape:connector-curvature="0" />
	<path style="fill:none;stroke:red;stroke-width:1px;stroke-linecap:butt;stroke-linejoin:miter;stroke-opacity:1" d="M 147.141,92.2148 158.792,105.53 z" id="boundary" inkscape:connector-curvature="0" />
	<path style="fill:none;stroke:red;stroke-width:1px;stroke-linecap:butt;stroke-linejoin:miter;stroke-opacity:1" d="M 158.792,105.53 172.107,117.181 z" id="boundary" inkscape:connector-curvature="0" />
	<path style="fill:none;stroke:red;stroke-width:1px;stroke-linecap:butt;stroke-linejoin:miter;stroke-opacity:1" d="M 185.423,128.832 172.107,117.181 z" id="boundary" inkscape:connector-curvature="0" />
	<path style="fill:none;stroke:red;stroke-width:1px;stroke-linecap:butt;stroke-linejoin:miter;stroke-opacity:1" d="M 202.067,130.497 185.423,128.832 z" id="boundary" inkscape:connector-curvature="0" />
	<path style="fill:none;stroke:red;stroke-width:1px;stroke-linecap:butt;stroke-linejoin:miter;stroke-opacity:1" d="M 235.356,137.154 218.711,137.154 z" id="boundary" inkscape:connector-curvature="0" />
	<path style="fill:none;stroke:red;stroke-width:1px;stroke-linecap:butt;stroke-linejoin:miter;stroke-opacity:1" d="M 218.711,137.154 202.067,130.497 z" id="boundary" inkscape:connector-curvature="0" />
	<path style="fill:none;stroke:red;stroke-width:1px;stroke-linecap:butt;stroke-linejoin:miter;stroke-opacity:1" d="M 252,137.154 268.644,137.154 z" id="boundary" inkscape:connector-curvature="0" />
	<path style="fill:none;stroke:red;stroke-width:1px;stroke-linecap:butt;stroke-linejoin:miter;stroke-opacity:1" d="M 252,137.154 235.356,137.154 z" id="boundary" inkscape:connector-curvature="0" />
	<path style="fill:none;stroke:red;stroke-width:1px;stroke-linecap:butt;stroke-linejoin:miter;stroke-opacity:1" d="M 268.644,137.154 285.289,137.154 z" id="boundary" inkscape:connector-curvature="0" />
	<path style="fill:none;stroke:red;stroke-width:1px;stroke-linecap:butt;stroke-linejoin:miter;stroke-opacity:1" d="M 301.933,137.154 318.577,137.154 z" id="boundary" inkscape:connector-curvature="0" />
	<path style="fill:none;stroke:red;stroke-width:1px;stroke-linecap:butt;stroke-linejoin:miter;stroke-opacity:1" d="M 301.933,137.154 285.289,137.154 z" id="boundary" inkscape:connector-curvature="0" />
	<path style="fill:none;stroke:red;stroke-width:1px;stroke-linecap:butt;stroke-linejoin:miter;stroke-opacity:1" d="M 335.221,138.819 318.577,137.154 z" id="boundary" inkscape:connector-curvature="0" />
	<path style="fill:none;stroke:red;stroke-width:1px;stroke-linecap:butt;stroke-linejoin:miter;stroke-opacity:1" d="M 335.221,138.819 351.866,145.477 z" id="boundary" inkscape:connector-curvature="0" />
	<path style="fill:none;stroke:red;stroke-width:1px;stroke-linecap:butt;stroke-linejoin:miter;stroke-opacity:1" d="M 351.866,145.477 368.51,145.477 z" id="boundary" inkscape:connector-curvature="0" />
	<path style="fill:none;stroke:red;stroke-width:1px;stroke-linecap:butt;stroke-linejoin:miter;stroke-opacity:1" d="M 368.51,145.477 383.49,153.799 z" id="boundary" inkscape:connector-curvature="0" />
	<path style="fill:none;stroke:red;stroke-width:1px;stroke-linecap:butt;stroke-linejoin:miter;stroke-opacity:1" d="M 396.805,163.785 405.128,178.765 z" id="boundary" inkscape:connector-curvature="0" />
	<path style="fill:none;stroke:red;stroke-width:1px;stroke-linecap:butt;stroke-linejoin:miter;stroke-opacity:1" d="M 405.128,178.765 405.128,195.409 z" id="boundary" inkscape:connector-curvature="0" />
	<path style="fill:none;stroke:red;stroke-width:1px;stroke-linecap:butt;stroke-linejoin:miter;stroke-opacity:1" d="M 413.45,210.389 405.128,195.409 z" id="boundary" inkscape:connector-curvature="0" />
	<path style="fill:none;stroke:red;stroke-width:1px;stroke-linecap:butt;stroke-linejoin:miter;stroke-opacity:1" d="M 383.49,153.799 396.805,163.785 z" id="boundary" inkscape:connector-curvature="0" />
	<path style="fill:none;stroke:red;stroke-width:1px;stroke-linecap:butt;stroke-linejoin:miter;stroke-opacity:1" d="M 488.349,212.054 473.369,220.376 z" id="boundary" inkscape:connector-curvature="0" />
	<path style="fill:none;stroke:red;stroke-width:1px;stroke-linecap:butt;stroke-linejoin:miter;stroke-opacity:1" d="M 473.369,220.376 456.725,220.376 z" id="boundary" inkscape:connector-curvature="0" />
	<path style="fill:none;stroke:red;stroke-width:1px;stroke-linecap:butt;stroke-linejoin:miter;stroke-opacity:1" d="M 456.725,220.376 441.745,228.698 z" id="boundary" inkscape:connector-curvature="0" />
	<path style="fill:none;stroke:red;stroke-width:1px;stroke-linecap:butt;stroke-linejoin:miter;stroke-opacity:1" d="M 426.765,237.02 413.45,227.034 z" id="boundary" inkscape:connector-curvature="0" />
	<path style="fill:none;stroke:red;stroke-width:1px;stroke-linecap:butt;stroke-linejoin:miter;stroke-opacity:1" d="M 441.745,228.698 426.765,237.02 z" id="boundary" inkscape:connector-curvature="0" />
	<path style="fill:none;stroke:red;stroke-width:1px;stroke-linecap:butt;stroke-linejoin:miter;stroke-opacity:1" d="M 413.45,227.034 413.45,210.389 z" id="boundary" inkscape:connector-curvature="0" />
	<path style="fill:none;stroke:red;stroke-width:1px;stroke-linecap:butt;stroke-linejoin:miter;stroke-opacity:1" d="M 160.456,268.644 143.812,276.966 z" id="boundary" inkscape:connector-curvature="0" />
	<path style="fill:none;stroke:red;stroke-width:1px;stroke-linecap:butt;stroke-linejoin:miter;stroke-opacity:1" d="M 130.497,288.617 143.812,276.966 z" id="boundary" inkscape:connector-curvature="0" />
	<path style="fill:none;stroke:red;stroke-width:1px;stroke-linecap:butt;stroke-linejoin:miter;stroke-opacity:1" d="M 78.8993,291.946 92.2148,278.631 z" id="boundary" inkscape:connector-curvature="0" />
	<path style="fill:none;stroke:red;stroke-width:1px;stroke-linecap:butt;stroke-linejoin:miter;stroke-opacity:1" d="M 100.537,261.987 92.2148,278.631 z" id="boundary" inkscape:connector-curvature="0" />
	<path style="fill:none;stroke:red;stroke-width:1px;stroke-linecap:butt;stroke-linejoin:miter;stroke-opacity:1" d="M 130.497,288.617 122.174,305.262 z" id="boundary" inkscape:connector-curvature="0" />
	<path style="fill:none;stroke:red;stroke-width:1px;stroke-linecap:butt;stroke-linejoin:miter;stroke-opacity:1" d="M 192.081,255.329 208.725,255.329 z" id="boundary" inkscape:connector-curvature="0" />
	<path style="fill:none;stroke:red;stroke-width:1px;stroke-linecap:butt;stroke-linejoin:miter;stroke-opacity:1" d="M 177.101,263.651 192.081,255.329 z" id="boundary" inkscape:connector-curvature="0" />
	<path style="fill:none;stroke:red;stroke-width:1px;stroke-linecap:butt;stroke-linejoin:miter;stroke-opacity:1" d="M 225.369,255.329 208.725,255.329 z" id="boundary" inkscape:connector-curvature="0" />
	<path style="fill:none;stroke:red;stroke-width:1px;stroke-linecap:butt;stroke-linejoin:miter;stroke-opacity:1" d="M 258.658,255.329 242.013,255.329 z" id="boundary" inkscape:connector-curvature="0" />
	<path style="fill:none;stroke:red;stroke-width:1px;stroke-linecap:butt;stroke-linejoin:miter;stroke-opacity:1" d="M 160.456,268.644 177.101,263.651 z" id="boundary" inkscape:connector-curvature="0" />
	<path style="fill:none;stroke:red;stroke-width:1px;stroke-linecap:butt;stroke-linejoin:miter;stroke-opacity:1" d="M 242.013,255.329 225.369,255.329 z" id="boundary" inkscape:connector-curvature="0" />
	<path style="fill:none;stroke:red;stroke-width:1px;stroke-linecap:butt;stroke-linejoin:miter;stroke-opacity:1" d="M 70.5772,341.879 70.5772,325.235 z" id="boundary" inkscape:connector-curvature="0" />
	<path style="fill:none;stroke:red;stroke-width:1px;stroke-linecap:butt;stroke-linejoin:miter;stroke-opacity:1" d="M 78.8993,308.591 70.5772,325.235 z" id="boundary" inkscape:connector-curvature="0" />
	<path style="fill:none;stroke:red;stroke-width:1px;stroke-linecap:butt;stroke-linejoin:miter;stroke-opacity:1" d="M 78.8993,291.946 78.8993,308.591 z" id="boundary" inkscape:connector-curvature="0" />
	<path style="fill:none;stroke:red;stroke-width:1px;stroke-linecap:butt;stroke-linejoin:miter;stroke-opacity:1" d="M 62.255,358.523 70.5772,341.879 z" id="boundary" inkscape:connector-curvature="0" />
	<path style="fill:none;stroke:red;stroke-width:1px;stroke-linecap:butt;stroke-linejoin:miter;stroke-opacity:1" d="M 70.5772,390.148 62.255,375.168 z" id="boundary" inkscape:connector-curvature="0" />
	<path style="fill:none;stroke:red;stroke-width:1px;stroke-linecap:butt;stroke-linejoin:miter;stroke-opacity:1" d="M 62.255,375.168 62.255,358.523 z" id="boundary" inkscape:connector-curvature="0" />
	<path style="fill:none;stroke:red;stroke-width:1px;stroke-linecap:butt;stroke-linejoin:miter;stroke-opacity:1" d="M 122.174,321.906 122.174,338.55 z" id="boundary" inkscape:connector-curvature="0" />
	<path style="fill:none;stroke:red;stroke-width:1px;stroke-linecap:butt;stroke-linejoin:miter;stroke-opacity:1" d="M 122.174,321.906 122.174,305.262 z" id="boundary" inkscape:connector-curvature="0" />
	<path style="fill:none;stroke:red;stroke-width:1px;stroke-linecap:butt;stroke-linejoin:miter;stroke-opacity:1" d="M 122.174,338.55 120.51,366.846 z" id="boundary" inkscape:connector-curvature="0" />
	<path style="fill:none;stroke:red;stroke-width:1px;stroke-linecap:butt;stroke-linejoin:miter;stroke-opacity:1" d="M 82.2282,403.463 98.8725,396.805 z" id="boundary" inkscape:connector-curvature="0" />
	<path style="fill:none;stroke:red;stroke-width:1px;stroke-linecap:butt;stroke-linejoin:miter;stroke-opacity:1" d="M 82.2282,403.463 70.5772,390.148 z" id="boundary" inkscape:connector-curvature="0" />
	<path style="fill:none;stroke:red;stroke-width:1px;stroke-linecap:butt;stroke-linejoin:miter;stroke-opacity:1" d="M 112.188,383.49 120.51,366.846 z" id="boundary" inkscape:connector-curvature="0" />
	<path style="fill:none;stroke:red;stroke-width:1px;stroke-linecap:butt;stroke-linejoin:miter;stroke-opacity:1" d="M 112.188,383.49 98.8725,396.805 z" id="boundary" inkscape:connector-curvature="0" />
	<path style="fill:none;stroke:red;stroke-width:1px;stroke-linecap:butt;stroke-linejoin:miter;stroke-opacity:1" d="M 363.517,280.295 346.872,288.617 z" id="boundary" inkscape:connector-curvature="0" />
	<path style="fill:none;stroke:red;stroke-width:1px;stroke-linecap:butt;stroke-linejoin:miter;stroke-opacity:1" d="M 286.953,275.302 275.302,261.987 z" id="boundary" inkscape:connector-curvature="0" />
	<path style="fill:none;stroke:red;stroke-width:1px;stroke-linecap:butt;stroke-linejoin:miter;stroke-opacity:1" d="M 295.275,290.282 286.953,275.302 z" id="boundary" inkscape:connector-curvature="0" />
	<path style="fill:none;stroke:red;stroke-width:1px;stroke-linecap:butt;stroke-linejoin:miter;stroke-opacity:1" d="M 295.275,306.926 295.275,290.282 z" id="boundary" inkscape:connector-curvature="0" />
	<path style="fill:none;stroke:red;stroke-width:1px;stroke-linecap:butt;stroke-linejoin:miter;stroke-opacity:1" d="M 346.872,288.617 346.872,305.262 z" id="boundary" inkscape:connector-curvature="0" />
	<path style="fill:none;stroke:red;stroke-width:1px;stroke-linecap:butt;stroke-linejoin:miter;stroke-opacity:1" d="M 346.872,305.262 346.872,321.906 z" id="boundary" inkscape:connector-curvature="0" />
	<path style="fill:none;stroke:red;stroke-width:1px;stroke-linecap:butt;stroke-linejoin:miter;stroke-opacity:1" d="M 295.275,306.926 286.953,325.235 z" id="boundary" inkscape:connector-curvature="0" />
	<path style="fill:none;stroke:red;stroke-width:1px;stroke-linecap:butt;stroke-linejoin:miter;stroke-opacity:1" d="M 380.161,280.295 363.517,280.295 z" id="boundary" inkscape:connector-curvature="0" />
	<path style="fill:none;stroke:red;stroke-width:1px;stroke-linecap:butt;stroke-linejoin:miter;stroke-opacity:1" d="M 380.161,280.295 396.805,283.624 z" id="boundary" inkscape:connector-curvature="0" />
	<path style="fill:none;stroke:red;stroke-width:1px;stroke-linecap:butt;stroke-linejoin:miter;stroke-opacity:1" d="M 396.805,283.624 408.456,296.94 z" id="boundary" inkscape:connector-curvature="0" />
	<path style="fill:none;stroke:red;stroke-width:1px;stroke-linecap:butt;stroke-linejoin:miter;stroke-opacity:1" d="M 420.107,310.255 408.456,296.94 z" id="boundary" inkscape:connector-curvature="0" />
	<path style="fill:none;stroke:red;stroke-width:1px;stroke-linecap:butt;stroke-linejoin:miter;stroke-opacity:1" d="M 420.107,310.255 411.785,325.235 z" id="boundary" inkscape:connector-curvature="0" />
	<path style="fill:none;stroke:red;stroke-width:1px;stroke-linecap:butt;stroke-linejoin:miter;stroke-opacity:1" d="M 275.302,261.987 258.658,255.329 z" id="boundary" inkscape:connector-curvature="0" />
	<path style="fill:none;stroke:red;stroke-width:1px;stroke-linecap:butt;stroke-linejoin:miter;stroke-opacity:1" d="M 346.872,321.906 338.55,338.55 z" id="boundary" inkscape:connector-curvature="0" />
	<path style="fill:none;stroke:red;stroke-width:1px;stroke-linecap:butt;stroke-linejoin:miter;stroke-opacity:1" d="M 286.953,341.879 286.953,325.235 z" id="boundary" inkscape:connector-curvature="0" />
	<path style="fill:none;stroke:red;stroke-width:1px;stroke-linecap:butt;stroke-linejoin:miter;stroke-opacity:1" d="M 295.275,356.859 286.953,341.879 z" id="boundary" inkscape:connector-curvature="0" />
	<path style="fill:none;stroke:red;stroke-width:1px;stroke-linecap:butt;stroke-linejoin:miter;stroke-opacity:1" d="M 311.919,363.517 295.275,356.859 z" id="boundary" inkscape:connector-curvature="0" />
	<path style="fill:none;stroke:red;stroke-width:1px;stroke-linecap:butt;stroke-linejoin:miter;stroke-opacity:1" d="M 338.55,338.55 328.564,366.846 z" id="boundary" inkscape:connector-curvature="0" />
	<path style="fill:none;stroke:red;stroke-width:1px;stroke-linecap:butt;stroke-linejoin:miter;stroke-opacity:1" d="M 328.564,366.846 311.919,363.517 z" id="boundary" inkscape:connector-curvature="0" />
	<path style="fill:none;stroke:red;stroke-width:1px;stroke-linecap:butt;stroke-linejoin:miter;stroke-opacity:1" d="M 411.785,325.235 425.101,336.886 z" id="boundary" inkscape:connector-curvature="0" />
	<path style="fill:none;stroke:red;stroke-width:1px;stroke-linecap:butt;stroke-linejoin:miter;stroke-opacity:1" d="M 425.101,336.886 428.43,353.53 z" id="boundary" inkscape:connector-curvature="0" />
	<path style="fill:none;stroke:red;stroke-width:1px;stroke-linecap:butt;stroke-linejoin:miter;stroke-opacity:1" d="M 428.43,353.53 431.758,370.174 z" id="boundary" inkscape:connector-curvature="0" />
	<path style="fill:none;stroke:red;stroke-width:1px;stroke-linecap:butt;stroke-linejoin:miter;stroke-opacity:1" d="M 431.758,370.174 445.074,380.161 z" id="boundary" inkscape:connector-curvature="0" />
	<path style="fill:none;stroke:red;stroke-width:1px;stroke-linecap:butt;stroke-linejoin:miter;stroke-opacity:1" d="M 461.718,380.161 476.698,388.483 z" id="boundary" inkscape:connector-curvature="0" />
	<path style="fill:none;stroke:red;stroke-width:1px;stroke-linecap:butt;stroke-linejoin:miter;stroke-opacity:1" d="M 445.074,380.161 461.718,380.161 z" id="boundary" inkscape:connector-curvature="0" />
	<path style="fill:none;stroke:red;stroke-width:1px;stroke-linecap:butt;stroke-linejoin:miter;stroke-opacity:1" d="M 493.342,388.483 476.698,388.483 z" id="boundary" inkscape:connector-curvature="0" />
	<path style="fill:none;stroke:red;stroke-width:1px;stroke-linecap:butt;stroke-linejoin:miter;stroke-opacity:1" d="M 544.94,50.604 544.94,33.9597 z" id="boundary" inkscape:connector-curvature="0" />
	<path style="fill:none;stroke:red;stroke-width:1px;stroke-linecap:butt;stroke-linejoin:miter;stroke-opacity:1" d="M 553.262,17.3154 544.94,33.9597 z" id="boundary" inkscape:connector-curvature="0" />
	<path style="fill:none;stroke:red;stroke-width:1px;stroke-linecap:butt;stroke-linejoin:miter;stroke-opacity:1" d="M 566.577,4 553.262,17.3154 z" id="boundary" inkscape:connector-curvature="0" />
	<path style="fill:none;stroke:red;stroke-width:1px;stroke-linecap:butt;stroke-linejoin:miter;stroke-opacity:1" d="M 544.94,50.604 544.94,67.2483 z" id="boundary" inkscape:connector-curvature="0" />
	<path style="fill:none;stroke:red;stroke-width:1px;stroke-linecap:butt;stroke-linejoin:miter;stroke-opacity:1" d="M 544.94,83.8926 544.94,67.2483 z" id="boundary" inkscape:connector-curvature="0" />
	<path style="fill:none;stroke:red;stroke-width:1px;stroke-linecap:butt;stroke-linejoin:miter;stroke-opacity:1" d="M 566.577,4 579.893,13.9866 z" id="boundary" inkscape:connector-curvature="0" />
	<path style="fill:none;stroke:red;stroke-width:1px;stroke-linecap:butt;stroke-linejoin:miter;stroke-opacity:1" d="M 588.215,28.9664 588.215,45.6107 z" id="boundary" inkscape:connector-curvature="0" />
	<path style="fill:none;stroke:red;stroke-width:1px;stroke-linecap:butt;stroke-linejoin:miter;stroke-opacity:1" d="M 588.215,28.9664 579.893,13.9866 z" id="boundary" inkscape:connector-curvature="0" />
	<path style="fill:none;stroke:red;stroke-width:1px;stroke-linecap:butt;stroke-linejoin:miter;stroke-opacity:1" d="M 601.53,55.5973 588.215,45.6107 z" id="boundary" inkscape:connector-curvature="0" />
	<path style="fill:none;stroke:red;stroke-width:1px;stroke-linecap:butt;stroke-linejoin:miter;stroke-opacity:1" d="M 613.181,95.5436 604.859,80.5638 z" id="boundary" inkscape:connector-curvature="0" />
	<path style="fill:none;stroke:red;stroke-width:1px;stroke-linecap:butt;stroke-linejoin:miter;stroke-opacity:1" d="M 604.859,80.5638 601.53,55.5973 z" id="boundary" inkscape:connector-curvature="0" />
	<path style="fill:none;stroke:red;stroke-width:1px;stroke-linecap:butt;stroke-linejoin:miter;stroke-opacity:1" d="M 621.503,110.523 613.181,95.5436 z" id="boundary" inkscape:connector-curvature="0" />
	<path style="fill:none;stroke:red;stroke-width:1px;stroke-linecap:butt;stroke-linejoin:miter;stroke-opacity:1" d="M 544.94,100.537 544.94,83.8926 z" id="boundary" inkscape:connector-curvature="0" />
	<path style="fill:none;stroke:red;stroke-width:1px;stroke-linecap:butt;stroke-linejoin:miter;stroke-opacity:1" d="M 503.329,142.148 516.644,128.832 z" id="boundary" inkscape:connector-curvature="0" />
	<path style="fill:none;stroke:red;stroke-width:1px;stroke-linecap:butt;stroke-linejoin:miter;stroke-opacity:1" d="M 503.329,158.792 503.329,142.148 z" id="boundary" inkscape:connector-curvature="0" />
	<path style="fill:none;stroke:red;stroke-width:1px;stroke-linecap:butt;stroke-linejoin:miter;stroke-opacity:1" d="M 529.96,115.517 516.644,128.832 z" id="boundary" inkscape:connector-curvature="0" />
	<path style="fill:none;stroke:red;stroke-width:1px;stroke-linecap:butt;stroke-linejoin:miter;stroke-opacity:1" d="M 503.329,192.081 488.349,212.054 z" id="boundary" inkscape:connector-curvature="0" />
	<path style="fill:none;stroke:red;stroke-width:1px;stroke-linecap:butt;stroke-linejoin:miter;stroke-opacity:1" d="M 503.329,175.436 503.329,192.081 z" id="boundary" inkscape:connector-curvature="0" />
	<path style="fill:none;stroke:red;stroke-width:1px;stroke-linecap:butt;stroke-linejoin:miter;stroke-opacity:1" d="M 503.329,175.436 503.329,158.792 z" id="boundary" inkscape:connector-curvature="0" />
	<path style="fill:none;stroke:red;stroke-width:1px;stroke-linecap:butt;stroke-linejoin:miter;stroke-opacity:1" d="M 629.826,125.503 621.503,110.523 z" id="boundary" inkscape:connector-curvature="0" />
	<path style="fill:none;stroke:red;stroke-width:1px;stroke-linecap:butt;stroke-linejoin:miter;stroke-opacity:1" d="M 629.826,125.503 629.826,142.148 z" id="boundary" inkscape:connector-curvature="0" />
	<path style="fill:none;stroke:red;stroke-width:1px;stroke-linecap:butt;stroke-linejoin:miter;stroke-opacity:1" d="M 629.826,142.148 629.826,158.792 z" id="boundary" inkscape:connector-curvature="0" />
	<path style="fill:none;stroke:red;stroke-width:1px;stroke-linecap:butt;stroke-linejoin:miter;stroke-opacity:1" d="M 629.826,175.436 629.826,192.081 z" id="boundary" inkscape:connector-curvature="0" />
	<path style="fill:none;stroke:red;stroke-width:1px;stroke-linecap:butt;stroke-linejoin:miter;stroke-opacity:1" d="M 629.826,175.436 629.826,158.792 z" id="boundary" inkscape:connector-curvature="0" />
	<path style="fill:none;stroke:red;stroke-width:1px;stroke-linecap:butt;stroke-linejoin:miter;stroke-opacity:1" d="M 529.96,115.517 544.94,100.537 z" id="boundary" inkscape:connector-curvature="0" />
	<path style="fill:none;stroke:red;stroke-width:1px;stroke-linecap:butt;stroke-linejoin:miter;stroke-opacity:1" d="M 629.826,192.081 629.826,208.725 z" id="boundary" inkscape:connector-curvature="0" />
	<path style="fill:none;stroke:red;stroke-width:1px;stroke-linecap:butt;stroke-linejoin:miter;stroke-opacity:1" d="M 794.604,83.8926 807.919,70.5772 z" id="boundary" inkscape:connector-curvature="0" />
	<path style="fill:none;stroke:red;stroke-width:1px;stroke-linecap:butt;stroke-linejoin:miter;stroke-opacity:1" d="M 802.926,98.8725 794.604,83.8926 z" id="boundary" inkscape:connector-curvature="0" />
	<path style="fill:none;stroke:red;stroke-width:1px;stroke-linecap:butt;stroke-linejoin:miter;stroke-opacity:1" d="M 807.919,70.5772 824.564,70.5772 z" id="boundary" inkscape:connector-curvature="0" />
	<path style="fill:none;stroke:red;stroke-width:1px;stroke-linecap:butt;stroke-linejoin:miter;stroke-opacity:1" d="M 802.926,98.8725 791.275,112.188 z" id="boundary" inkscape:connector-curvature="0" />
	<path style="fill:none;stroke:red;stroke-width:1px;stroke-linecap:butt;stroke-linejoin:miter;stroke-opacity:1" d="M 757.987,128.832 774.631,120.51 z" id="boundary" inkscape:connector-curvature="0" />
	<path style="fill:none;stroke:red;stroke-width:1px;stroke-linecap:butt;stroke-linejoin:miter;stroke-opacity:1" d="M 791.275,112.188 774.631,120.51 z" id="boundary" inkscape:connector-curvature="0" />
	<path style="fill:none;stroke:red;stroke-width:1px;stroke-linecap:butt;stroke-linejoin:miter;stroke-opacity:1" d="M 757.987,128.832 741.342,137.154 z" id="boundary" inkscape:connector-curvature="0" />
	<path style="fill:none;stroke:red;stroke-width:1px;stroke-linecap:butt;stroke-linejoin:miter;stroke-opacity:1" d="M 824.564,70.5772 841.208,70.5772 z" id="boundary" inkscape:connector-curvature="0" />
	<path style="fill:none;stroke:red;stroke-width:1px;stroke-linecap:butt;stroke-linejoin:miter;stroke-opacity:1" d="M 841.208,70.5772 846.201,87.2215 z" id="boundary" inkscape:connector-curvature="0" />
	<path style="fill:none;stroke:red;stroke-width:1px;stroke-linecap:butt;stroke-linejoin:miter;stroke-opacity:1" d="M 846.201,87.2215 854.523,102.201 z" id="boundary" inkscape:connector-curvature="0" />
	<path style="fill:none;stroke:red;stroke-width:1px;stroke-linecap:butt;stroke-linejoin:miter;stroke-opacity:1" d="M 854.523,102.201 871.168,108.859 z" id="boundary" inkscape:connector-curvature="0" />
	<path style="fill:none;stroke:red;stroke-width:1px;stroke-linecap:butt;stroke-linejoin:miter;stroke-opacity:1" d="M 871.168,108.859 871.168,125.503 z" id="boundary" inkscape:connector-curvature="0" />
	<path style="fill:none;stroke:red;stroke-width:1px;stroke-linecap:butt;stroke-linejoin:miter;stroke-opacity:1" d="M 884.483,137.154 871.168,125.503 z" id="boundary" inkscape:connector-curvature="0" />
	<path style="fill:none;stroke:red;stroke-width:1px;stroke-linecap:butt;stroke-linejoin:miter;stroke-opacity:1" d="M 708.054,153.799 724.698,145.477 z" id="boundary" inkscape:connector-curvature="0" />
	<path style="fill:none;stroke:red;stroke-width:1px;stroke-linecap:butt;stroke-linejoin:miter;stroke-opacity:1" d="M 741.342,137.154 724.698,145.477 z" id="boundary" inkscape:connector-curvature="0" />
	<path style="fill:none;stroke:red;stroke-width:1px;stroke-linecap:butt;stroke-linejoin:miter;stroke-opacity:1" d="M 678.094,175.436 691.409,162.121 z" id="boundary" inkscape:connector-curvature="0" />
	<path style="fill:none;stroke:red;stroke-width:1px;stroke-linecap:butt;stroke-linejoin:miter;stroke-opacity:1" d="M 678.094,192.081 678.094,175.436 z" id="boundary" inkscape:connector-curvature="0" />
	<path style="fill:none;stroke:red;stroke-width:1px;stroke-linecap:butt;stroke-linejoin:miter;stroke-opacity:1" d="M 691.409,162.121 708.054,153.799 z" id="boundary" inkscape:connector-curvature="0" />
	<path style="fill:none;stroke:red;stroke-width:1px;stroke-linecap:butt;stroke-linejoin:miter;stroke-opacity:1" d="M 916.107,137.154 899.463,145.477 z" id="boundary" inkscape:connector-curvature="0" />
	<path style="fill:none;stroke:red;stroke-width:1px;stroke-linecap:butt;stroke-linejoin:miter;stroke-opacity:1" d="M 899.463,145.477 884.483,137.154 z" id="boundary" inkscape:connector-curvature="0" />
	<path style="fill:none;stroke:red;stroke-width:1px;stroke-linecap:butt;stroke-linejoin:miter;stroke-opacity:1" d="M 916.107,137.154 931.087,145.477 z" id="boundary" inkscape:connector-curvature="0" />
	<path style="fill:none;stroke:red;stroke-width:1px;stroke-linecap:butt;stroke-linejoin:miter;stroke-opacity:1" d="M 931.087,145.477 944.403,157.128 z" id="boundary" inkscape:connector-curvature="0" />
	<path style="fill:none;stroke:red;stroke-width:1px;stroke-linecap:butt;stroke-linejoin:miter;stroke-opacity:1" d="M 944.403,157.128 946.067,173.772 z" id="boundary" inkscape:connector-curvature="0" />
	<path style="fill:none;stroke:red;stroke-width:1px;stroke-linecap:butt;stroke-linejoin:miter;stroke-opacity:1" d="M 946.067,173.772 946.067,190.416 z" id="boundary" inkscape:connector-curvature="0" />
	<path style="fill:none;stroke:red;stroke-width:1px;stroke-linecap:butt;stroke-linejoin:miter;stroke-opacity:1" d="M 946.067,190.416 937.745,213.718 z" id="boundary" inkscape:connector-curvature="0" />
	<path style="fill:none;stroke:red;stroke-width:1px;stroke-linecap:butt;stroke-linejoin:miter;stroke-opacity:1" d="M 604.859,321.906 588.215,321.906 z" id="boundary" inkscape:connector-curvature="0" />
	<path style="fill:none;stroke:red;stroke-width:1px;stroke-linecap:butt;stroke-linejoin:miter;stroke-opacity:1" d="M 646.47,212.054 629.826,208.725 z" id="boundary" inkscape:connector-curvature="0" />
	<path style="fill:none;stroke:red;stroke-width:1px;stroke-linecap:butt;stroke-linejoin:miter;stroke-opacity:1" d="M 604.859,321.906 621.503,321.906 z" id="boundary" inkscape:connector-curvature="0" />
	<path style="fill:none;stroke:red;stroke-width:1px;stroke-linecap:butt;stroke-linejoin:miter;stroke-opacity:1" d="M 638.148,321.906 621.503,321.906 z" id="boundary" inkscape:connector-curvature="0" />
	<path style="fill:none;stroke:red;stroke-width:1px;stroke-linecap:butt;stroke-linejoin:miter;stroke-opacity:1" d="M 654.792,321.906 638.148,321.906 z" id="boundary" inkscape:connector-curvature="0" />
	<path style="fill:none;stroke:red;stroke-width:1px;stroke-linecap:butt;stroke-linejoin:miter;stroke-opacity:1" d="M 579.893,346.872 588.215,321.906 z" id="boundary" inkscape:connector-curvature="0" />
	<path style="fill:none;stroke:red;stroke-width:1px;stroke-linecap:butt;stroke-linejoin:miter;stroke-opacity:1" d="M 671.436,321.906 654.792,321.906 z" id="boundary" inkscape:connector-curvature="0" />
	<path style="fill:none;stroke:red;stroke-width:1px;stroke-linecap:butt;stroke-linejoin:miter;stroke-opacity:1" d="M 646.47,212.054 663.114,212.054 z" id="boundary" inkscape:connector-curvature="0" />
	<path style="fill:none;stroke:red;stroke-width:1px;stroke-linecap:butt;stroke-linejoin:miter;stroke-opacity:1" d="M 663.114,212.054 678.094,192.081 z" id="boundary" inkscape:connector-curvature="0" />
	<path style="fill:none;stroke:red;stroke-width:1px;stroke-linecap:butt;stroke-linejoin:miter;stroke-opacity:1" d="M 671.436,321.906 688.081,321.906 z" id="boundary" inkscape:connector-curvature="0" />
	<path style="fill:none;stroke:red;stroke-width:1px;stroke-linecap:butt;stroke-linejoin:miter;stroke-opacity:1" d="M 704.725,321.906 688.081,321.906 z" id="boundary" inkscape:connector-curvature="0" />
	<path style="fill:none;stroke:red;stroke-width:1px;stroke-linecap:butt;stroke-linejoin:miter;stroke-opacity:1" d="M 721.369,313.584 704.725,321.906 z" id="boundary" inkscape:connector-curvature="0" />
	<path style="fill:none;stroke:red;stroke-width:1px;stroke-linecap:butt;stroke-linejoin:miter;stroke-opacity:1" d="M 721.369,313.584 736.349,321.906 z" id="boundary" inkscape:connector-curvature="0" />
	<path style="fill:none;stroke:red;stroke-width:1px;stroke-linecap:butt;stroke-linejoin:miter;stroke-opacity:1" d="M 554.926,388.483 568.242,376.832 z" id="boundary" inkscape:connector-curvature="0" />
	<path style="fill:none;stroke:red;stroke-width:1px;stroke-linecap:butt;stroke-linejoin:miter;stroke-opacity:1" d="M 541.611,403.463 554.926,388.483 z" id="boundary" inkscape:connector-curvature="0" />
	<path style="fill:none;stroke:red;stroke-width:1px;stroke-linecap:butt;stroke-linejoin:miter;stroke-opacity:1" d="M 508.322,396.805 524.966,396.805 z" id="boundary" inkscape:connector-curvature="0" />
	<path style="fill:none;stroke:red;stroke-width:1px;stroke-linecap:butt;stroke-linejoin:miter;stroke-opacity:1" d="M 524.966,396.805 541.611,403.463 z" id="boundary" inkscape:connector-curvature="0" />
	<path style="fill:none;stroke:red;stroke-width:1px;stroke-linecap:butt;stroke-linejoin:miter;stroke-opacity:1" d="M 508.322,396.805 493.342,388.483 z" id="boundary" inkscape:connector-curvature="0" />
	<path style="fill:none;stroke:red;stroke-width:1px;stroke-linecap:butt;stroke-linejoin:miter;stroke-opacity:1" d="M 736.349,321.906 752.993,321.906 z" id="boundary" inkscape:connector-curvature="0" />
	<path style="fill:none;stroke:red;stroke-width:1px;stroke-linecap:butt;stroke-linejoin:miter;stroke-opacity:1" d="M 752.993,321.906 762.98,335.221 z" id="boundary" inkscape:connector-curvature="0" />
	<path style="fill:none;stroke:red;stroke-width:1px;stroke-linecap:butt;stroke-linejoin:miter;stroke-opacity:1" d="M 776.295,346.872 762.98,335.221 z" id="boundary" inkscape:connector-curvature="0" />
	<path style="fill:none;stroke:red;stroke-width:1px;stroke-linecap:butt;stroke-linejoin:miter;stroke-opacity:1" d="M 579.893,346.872 579.893,363.517 z" id="boundary" inkscape:connector-curvature="0" />
	<path style="fill:none;stroke:red;stroke-width:1px;stroke-linecap:butt;stroke-linejoin:miter;stroke-opacity:1" d="M 579.893,363.517 568.242,376.832 z" id="boundary" inkscape:connector-curvature="0" />
	<path style="fill:none;stroke:red;stroke-width:1px;stroke-linecap:butt;stroke-linejoin:miter;stroke-opacity:1" d="M 777.96,363.517 776.295,346.872 z" id="boundary" inkscape:connector-curvature="0" />
	<path style="fill:none;stroke:red;stroke-width:1px;stroke-linecap:butt;stroke-linejoin:miter;stroke-opacity:1" d="M 786.282,378.497 777.96,363.517 z" id="boundary" inkscape:connector-curvature="0" />
	<path style="fill:none;stroke:red;stroke-width:1px;stroke-linecap:butt;stroke-linejoin:miter;stroke-opacity:1" d="M 937.745,213.718 946.067,228.698 z" id="boundary" inkscape:connector-curvature="0" />
	<path style="fill:none;stroke:red;stroke-width:1px;stroke-linecap:butt;stroke-linejoin:miter;stroke-opacity:1" d="M 946.067,228.698 946.067,245.342 z" id="boundary" inkscape:connector-curvature="0" />
	<path style="fill:none;stroke:red;stroke-width:1px;stroke-linecap:butt;stroke-linejoin:miter;stroke-opacity:1" d="M 974.362,263.651 961.047,253.664 z" id="boundary" inkscape:connector-curvature="0" />
	<path style="fill:none;stroke:red;stroke-width:1px;stroke-linecap:butt;stroke-linejoin:miter;stroke-opacity:1" d="M 961.047,253.664 946.067,245.342 z" id="boundary" inkscape:connector-curvature="0" />
	<path style="fill:none;stroke:red;stroke-width:1px;stroke-linecap:butt;stroke-linejoin:miter;stroke-opacity:1" d="M 982.685,278.631 987.678,295.275 z" id="boundary" inkscape:connector-curvature="0" />
	<path style="fill:none;stroke:red;stroke-width:1px;stroke-linecap:butt;stroke-linejoin:miter;stroke-opacity:1" d="M 982.685,278.631 974.362,263.651 z" id="boundary" inkscape:connector-curvature="0" />
	<path style="fill:none;stroke:red;stroke-width:1px;stroke-linecap:butt;stroke-linejoin:miter;stroke-opacity:1" d="M 996,310.255 987.678,295.275 z" id="boundary" inkscape:connector-curvature="0" />
	<path style="fill:none;stroke:red;stroke-width:1px;stroke-linecap:butt;stroke-linejoin:miter;stroke-opacity:1" d="M 987.678,330.228 987.678,346.872 z" id="boundary" inkscape:connector-curvature="0" />
	<path style="fill:none;stroke:red;stroke-width:1px;stroke-linecap:butt;stroke-linejoin:miter;stroke-opacity:1" d="M 987.678,330.228 996,310.255 z" id="boundary" inkscape:connector-curvature="0" />
	<path style="fill:none;stroke:red;stroke-width:1px;stroke-linecap:butt;stroke-linejoin:miter;stroke-opacity:1" d="M 987.678,363.517 987.678,346.872 z" id="boundary" inkscape:connector-curvature="0" />
	<path style="fill:none;stroke:red;stroke-width:1px;stroke-linecap:butt;stroke-linejoin:miter;stroke-opacity:1" d="M 987.678,363.517 971.034,371.839 z" id="boundary" inkscape:connector-curvature="0" />
	<path style="fill:none;stroke:red;stroke-width:1px;stroke-linecap:butt;stroke-linejoin:miter;stroke-opacity:1" d="M 962.711,388.483 971.034,371.839 z" id="boundary" inkscape:connector-curvature="0" />
	<path style="fill:none;stroke:red;stroke-width:1px;stroke-linecap:butt;stroke-linejoin:miter;stroke-opacity:1" d="M 822.899,413.45 807.919,405.128 z" id="boundary" inkscape:connector-curvature="0" />
	<path style="fill:none;stroke:red;stroke-width:1px;stroke-linecap:butt;stroke-linejoin:miter;stroke-opacity:1" d="M 807.919,405.128 796.268,391.812 z" id="boundary" inkscape:connector-curvature="0" />
	<path style="fill:none;stroke:red;stroke-width:1px;stroke-linecap:butt;stroke-linejoin:miter;stroke-opacity:1" d="M 836.215,423.436 822.899,413.45 z" id="boundary" inkscape:connector-curvature="0" />
	<path style="fill:none;stroke:red;stroke-width:1px;stroke-linecap:butt;stroke-linejoin:miter;stroke-opacity:1" d="M 864.51,435.087 847.866,436.752 z" id="boundary" inkscape:connector-curvature="0" />
	<path style="fill:none;stroke:red;stroke-width:1px;stroke-linecap:butt;stroke-linejoin:miter;stroke-opacity:1" d="M 847.866,436.752 836.215,423.436 z" id="boundary" inkscape:connector-curvature="0" />
	<path style="fill:none;stroke:red;stroke-width:1px;stroke-linecap:butt;stroke-linejoin:miter;stroke-opacity:1" d="M 796.268,391.812 786.282,378.497 z" id="boundary" inkscape:connector-curvature="0" />
	<path style="fill:none;stroke:red;stroke-width:1px;stroke-linecap:butt;stroke-linejoin:miter;stroke-opacity:1" d="M 962.711,388.483 954.389,413.45 z" id="boundary" inkscape:connector-curvature="0" />
	<path style="fill:none;stroke:red;stroke-width:1px;stroke-linecap:butt;stroke-linejoin:miter;stroke-opacity:1" d="M 954.389,413.45 942.738,435.087 z" id="boundary" inkscape:connector-curvature="0" />
	<path style="fill:none;stroke:red;stroke-width:1px;stroke-linecap:butt;stroke-linejoin:miter;stroke-opacity:1" d="M 881.154,438.416 896.134,446.738 z" id="boundary" inkscape:connector-curvature="0" />
	<path style="fill:none;stroke:red;stroke-width:1px;stroke-linecap:butt;stroke-linejoin:miter;stroke-opacity:1" d="M 864.51,435.087 881.154,438.416 z" id="boundary" inkscape:connector-curvature="0" />
	<path style="fill:none;stroke:red;stroke-width:1px;stroke-linecap:butt;stroke-linejoin:miter;stroke-opacity:1" d="M 912.779,446.738 896.134,446.738 z" id="boundary" inkscape:connector-curvature="0" />
	<path style="fill:none;stroke:red;stroke-width:1px;stroke-linecap:butt;stroke-linejoin:miter;stroke-opacity:1" d="M 942.738,435.087 929.423,446.738 z" id="boundary" inkscape:connector-curvature="0" />
	<path style="fill:none;stroke:red;stroke-width:1px;stroke-linecap:butt;stroke-linejoin:miter;stroke-opacity:1" d="M 929.423,446.738 912.779,446.738 z" id="boundary" inkscape:connector-curvature="0" />
	<circle cx="4" cy="125.503" r="4" fill="#0" id="circle0"/>
	<circle cx="17.3154" cy="112.188" r="4" fill="#0" id="circle1"/>
	<circle cx="17.3154" cy="137.154" r="4" fill="#0" id="circle2"/>
	<circle cx="20.6443" cy="83.8926" r="4" fill="#0" id="circle3"/>
	<circle cx="30.6309" cy="147.141" r="4" fill="#0" id="circle4"/>
	<circle cx="37.2886" cy="75.5705" r="4" fill="#0" id="circle5"/>
	<circle cx="45.6107" cy="58.9262" r="4" fill="#0" id="circle6"/>
	<circle cx="47.2752" cy="147.141" r="4" fill="#0" id="circle7"/>
	<circle cx="62.255" cy="50.604" r="4" fill="#0" id="circle8"/>
	<circle cx="62.255" cy="358.523" r="4" fill="#0" id="circle9"/>
	<circle cx="62.255" cy="375.168" r="4" fill="#0" id="circle10"/>
	<circle cx="63.9195" cy="130.497" r="4" fill="#0" id="circle11"/>
	<circle cx="70.5772" cy="325.235" r="4" fill="#0" id="circle12"/>
	<circle cx="70.5772" cy="341.879" r="4" fill="#0" id="circle13"/>
	<circle cx="70.5772" cy="390.148" r="4" fill="#0" id="circle14"/>
	<circle cx="78.8993" cy="45.6107" r="4" fill="#0" id="circle15"/>
	<circle cx="78.8993" cy="291.946" r="4" fill="#0" id="circle16"/>
	<circle cx="78.8993" cy="308.591" r="4" fill="#0" id="circle17"/>
	<circle cx="80.5638" cy="122.174" r="4" fill="#0" id="circle18"/>
	<circle cx="82.2282" cy="403.463" r="4" fill="#0" id="circle19"/>
	<circle cx="92.2148" cy="278.631" r="4" fill="#0" id="circle20"/>
	<circle cx="93.8792" cy="53.9329" r="4" fill="#0" id="circle21"/>
	<circle cx="95.5436" cy="130.497" r="4" fill="#0" id="circle22"/>
	<circle cx="95.5436" cy="147.141" r="4" fill="#0" id="circle23"/>
	<circle cx="98.8725" cy="396.805" r="4" fill="#0" id="circle24"/>
	<circle cx="100.537" cy="163.785" r="4" fill="#0" id="circle25"/>
	<circle cx="100.537" cy="261.987" r="4" fill="#0" id="circle26"/>
	<circle cx="103.866" cy="180.43" r="4" fill="#0" id="circle27"/>
	<circle cx="108.859" cy="62.255" r="4" fill="#0" id="circle28"/>
	<circle cx="112.188" cy="195.409" r="4" fill="#0" id="circle29"/>
	<circle cx="112.188" cy="212.054" r="4" fill="#0" id="circle30"/>
	<circle cx="112.188" cy="228.698" r="4" fill="#0" id="circle31"/>
	<circle cx="112.188" cy="245.342" r="4" fill="#0" id="circle32"/>
	<circle cx="112.188" cy="383.49" r="4" fill="#0" id="circle33"/>
	<circle cx="120.51" cy="366.846" r="4" fill="#0" id="circle34"/>
	<circle cx="122.174" cy="305.262" r="4" fill="#0" id="circle35"/>
	<circle cx="122.174" cy="321.906" r="4" fill="#0" id="circle36"/>
	<circle cx="122.174" cy="338.55" r="4" fill="#0" id="circle37"/>
	<circle cx="123.839" cy="70.5772" r="4" fill="#0" id="circle38"/>
	<circle cx="130.497" cy="87.2215" r="4" fill="#0" id="circle39"/>
	<circle cx="130.497" cy="288.617" r="4" fill="#0" id="circle40"/>
	<circle cx="143.812" cy="276.966" r="4" fill="#0" id="circle41"/>
	<circle cx="147.141" cy="92.2148" r="4" fill="#0" id="circle42"/>
	<circle cx="158.792" cy="105.53" r="4" fill="#0" id="circle43"/>
	<circle cx="160.456" cy="268.644" r="4" fill="#0" id="circle44"/>
	<circle cx="172.107" cy="117.181" r="4" fill="#0" id="circle45"/>
	<circle cx="177.101" cy="263.651" r="4" fill="#0" id="circle46"/>
	<circle cx="185.423" cy="128.832" r="4" fill="#0" id="circle47"/>
	<circle cx="192.081" cy="255.329" r="4" fill="#0" id="circle48"/>
	<circle cx="202.067" cy="130.497" r="4" fill="#0" id="circle49"/>
	<circle cx="208.725" cy="255.329" r="4" fill="#0" id="circle50"/>
	<circle cx="218.711" cy="137.154" r="4" fill="#0" id="circle51"/>
	<circle cx="225.369" cy="255.329" r="4" fill="#0" id="circle52"/>
	<circle cx="235.356" cy="137.154" r="4" fill="#0" id="circle53"/>
	<circle cx="242.013" cy="255.329" r="4" fill="#0" id="circle54"/>
	<circle cx="252" cy="137.154" r="4" fill="#0" id="circle55"/>
	<circle cx="258.658" cy="255.329" r="4" fill="#0" id="circle56"/>
	<circle cx="268.644" cy="137.154" r="4" fill="#0" id="circle57"/>
	<circle cx="275.302" cy="261.987" r="4" fill="#0" id="circle58"/>
	<circle cx="285.289" cy="137.154" r="4" fill="#0" id="circle59"/>
	<circle cx="286.953" cy="275.302" r="4" fill="#0" id="circle60"/>
	<circle cx="286.953" cy="325.235" r="4" fill="#0" id="circle61"/>
	<circle cx="286.953" cy="341.879" r="4" fill="#0" id="circle62"/>
	<circle cx="295.275" cy="290.282" r="4" fill="#0" id="circle63"/>
	<circle cx="295.275" cy="306.926" r="4" fill="#0" id="circle64"/>
	<circle cx="295.275" cy="356.859" r="4" fill="#0" id="circle65"/>
	<circle cx="301.933" cy="137.154" r="4" fill="#0" id="circle66"/>
	<circle cx="311.919" cy="363.517" r="4" fill="#0" id="circle67"/>
	<circle cx="318.577" cy="137.154" r="4" fill="#0" id="circle68"/>
	<circle cx="328.564" cy="366.846" r="4" fill="#0" id="circle69"/>
	<circle cx="335.221" cy="138.819" r="4" fill="#0" id="circle70"/>
	<circle cx="338.55" cy="338.55" r="4" fill="#0" id="circle71"/>
	<circle cx="346.872" cy="288.617" r="4" fill="#0" id="circle72"/>
	<circle cx="346.872" cy="305.262" r="4" fill="#0" id="circle73"/>
	<circle cx="346.872" cy="321.906" r="4" fill="#0" id="circle74"/>
	<circle cx="351.866" cy="145.477" r="4" fill="#0" id="circle75"/>
	<circle cx="363.517" cy="280.295" r="4" fill="#0" id="circle76"/>
	<circle cx="368.51" cy="145.477" r="4" fill="#0" id="circle77"/>
	<circle cx="380.161" cy="280.295" r="4" fill="#0" id="circle78"/>
	<circle cx="383.49" cy="153.799" r="4" fill="#0" id="circle79"/>
	<circle cx="396.805" cy="163.785" r="4" fill="#0" id="circle80"/>
	<circle cx="396.805" cy="283.624" r="4" fill="#0" id="circle81"/>
	<circle cx="405.128" cy="178.765" r="4" fill="#0" id="circle82"/>
	<circle cx="405.128" cy="195.409" r="4" fill="#0" id="circle83"/>
	<circle cx="408.456" cy="296.94" r="4" fill="#0" id="circle84"/>
	<circle cx="411.785" cy="325.235" r="4" fill="#0" id="circle85"/>
	<circle cx="413.45" cy="210.389" r="4" fill="#0" id="circle86"/>
	<circle cx="413.45" cy="227.034" r="4" fill="#0" id="circle87"/>
	<circle cx="420.107" cy="310.255" r="4" fill="#0" id="circle88"/>
	<circle cx="425.101" cy="336.886" r="4" fill="#0" id="circle89"/>
	<circle cx="426.765" cy="237.02" r="4" fill="#0" id="circle90"/>
	<circle cx="428.43" cy="353.53" r="4" fill="#0" id="circle91"/>
	<circle cx="431.758" cy="370.174" r="4" fill="#0" id="circle92"/>
	<circle cx="441.745" cy="228.698" r="4" fill="#0" id="circle93"/>
	<circle cx="445.074" cy="380.161" r="4" fill="#0" id="circle94"/>
	<circle cx="456.725" cy="220.376" r="4" fill="#0" id="circle95"/>
	<circle cx="461.718" cy="380.161" r="4" fill="#0" id="circle96"/>
	<circle cx="473.369" cy="220.376" r="4" fill="#0" id="circle97"/>
	<circle cx="476.698" cy="388.483" r="4" fill="#0" id="circle98"/>
	<circle cx="488.349" cy="212.054" r="4" fill="#0" id="circle99"/>
	<circle cx="493.342" cy="388.483" r="4" fill="#0" id="circle100"/>
	<circle cx="503.329" cy="142.148" r="4" fill="#0" id="circle101"/>
	<circle cx="503.329" cy="158.792" r="4" fill="#0" id="circle102"/>
	<circle cx="503.329" cy="175.436" r="4" fill="#0" id="circle103"/>
	<circle cx="503.329" cy="192.081" r="4" fill="#0" id="circle104"/>
	<circle cx="508.322" cy="396.805" r="4" fill="#0" id="circle105"/>
	<circle cx="516.644" cy="128.832" r="4" fill="#0" id="circle106"/>
	<circle cx="524.966" cy="396.805" r="4" fill="#0" id="circle107"/>
	<circle cx="529.96" cy="115.517" r="4" fill="#0" id="circle108"/>
	<circle cx="541.611" cy="403.463" r="4" fill="#0" id="circle109"/>
	<circle cx="544.94" cy="33.9597" r="4" fill="#0" id="circle110"/>
	<circle cx="544.94" cy="50.604" r="4" fill="#0" id="circle111"/>
	<circle cx="544.94" cy="67.2483" r="4" fill="#0" id="circle112"/>
	<circle cx="544.94" cy="83.8926" r="4" fill="#0" id="circle113"/>
	<circle cx="544.94" cy="100.537" r="4" fill="#0" id="circle114"/>
	<circle cx="553.262" cy="17.3154" r="4" fill="#0" id="circle115"/>
	<circle cx="554.926" cy="388.483" r="4" fill="#0" id="circle116"/>
	<circle cx="566.577" cy="4" r="4" fill="#0" id="circle117"/>
	<circle cx="568.242" cy="376.832" r="4" fill="#0" id="circle118"/>
	<circle cx="579.893" cy="13.9866" r="4" fill="#0" id="circle119"/>
	<circle cx="579.893" cy="346.872" r="4" fill="#0" id="circle120"/>
	<circle cx="579.893" cy="363.517" r="4" fill="#0" id="circle121"/>
	<circle cx="588.215" cy="28.9664" r="4" fill="#0" id="circle122"/>
	<circle cx="588.215" cy="45.6107" r="4" fill="#0" id="circle123"/>
	<circle cx="588.215" cy="321.906" r="4" fill="#0" id="circle124"/>
	<circle cx="601.53" cy="55.5973" r="4" fill="#0" id="circle125"/>
	<circle cx="604.859" cy="80.5638" r="4" fill="#0" id="circle126"/>
	<circle cx="604.859" cy="321.906" r="4" fill="#0" id="circle127"/>
	<circle cx="613.181" cy="95.5436" r="4" fill="#0" id="circle128"/>
	<circle cx="621.503" cy="110.523" r="4" fill="#0" id="circle129"/>
	<circle cx="621.503" cy="321.906" r="4" fill="#0" id="circle130"/>
	<circle cx="629.826" cy="125.503" r="4" fill="#0" id="circle131"/>
	<circle cx="629.826" cy="142.148" r="4" fill="#0" id="circle132"/>
	<circle cx="629.826" cy="158.792" r="4" fill="#0" id="circle133"/>
	<circle cx="629.826" cy="175.436" r="4" fill="#0" id="circle134"/>
	<circle cx="629.826" cy="192.081" r="4" fill="#0" id="circle135"/>
	<circle cx="629.826" cy="208.725" r="4" fill="#0" id="circle136"/>
	<circle cx="638.148" cy="321.906" r="4" fill="#0" id="circle137"/>
	<circle cx="646.47" cy="212.054" r="4" fill="#0" id="circle138"/>
	<circle cx="654.792" cy="321.906" r="4" fill="#0" id="circle139"/>
	<circle cx="663.114" cy="212.054" r="4" fill="#0" id="circle140"/>
	<circle cx="671.436" cy="321.906" r="4" fill="#0" id="circle141"/>
	<circle cx="678.094" cy="175.436" r="4" fill="#0" id="circle142"/>
	<circle cx="678.094" cy="192.081" r="4" fill="#0" id="circle143"/>
	<circle cx="688.081" cy="321.906" r="4" fill="#0" id="circle144"/>
	<circle cx="691.409" cy="162.121" r="4" fill="#0" id="circle145"/>
	<circle cx="704.725" cy="321.906" r="4" fill="#0" id="circle146"/>
	<circle cx="708.054" cy="153.799" r="4" fill="#0" id="circle147"/>
	<circle cx="721.369" cy="313.584" r="4" fill="#0" id="circle148"/>
	<circle cx="724.698" cy="145.477" r="4" fill="#0" id="circle149"/>
	<circle cx="736.349" cy="321.906" r="4" fill="#0" id="circle150"/>
	<circle cx="741.342" cy="137.154" r="4" fill="#0" id="circle151"/>
	<circle cx="752.993" cy="321.906" r="4" fill="#0" id="circle152"/>
	<circle cx="757.987" cy="128.832" r="4" fill="#0" id="circle153"/>
	<circle cx="762.98" cy="335.221" r="4" fill="#0" id="circle154"/>
	<circle cx="774.631" cy="120.51" r="4" fill="#0" id="circle155"/>
	<circle cx="776.295" cy="346.872" r="4" fill="#0" id="circle156"/>
	<circle cx="777.96" cy="363.517" r="4" fill="#0" id="circle157"/>
	<circle cx="786.282" cy="378.497" r="4" fill="#0" id="circle158"/>
	<circle cx="791.275" cy="112.188" r="4" fill="#0" id="circle159"/>
	<circle cx="794.604" cy="83.8926" r="4" fill="#0" id="circle160"/>
	<circle cx="796.268" cy="391.812" r="4" fill="#0" id="circle161"/>
	<circle cx="802.926" cy="98.8725" r="4" fill="#0" id="circle162"/>
	<circle cx="807.919" cy="70.5772" r="4" fill="#0" id="circle163"/>
	<circle cx="807.919" cy="405.128" r="4" fill="#0" id="circle164"/>
	<circle cx="822.899" cy="413.45" r="4" fill="#0" id="circle165"/>
	<circle cx="824.564" cy="70.5772" r="4" fill="#0" id="circle166"/>
	<circle cx="836.215" cy="423.436" r="4" fill="#0" id="circle167"/>
	<circle cx="841.208" cy="70.5772" r="4" fill="#0" id="circle168"/>
	<circle cx="846.201" cy="87.2215" r="4" fill="#0" id="circle169"/>
	<circle cx="847.866" cy="436.752" r="4" fill="#0" id="circle170"/>
	<circle cx="854.523" cy="102.201" r="4" fill="#0" id="circle171"/>
	<circle cx="864.51" cy="435.087" r="4" fill="#0" id="circle172"/>
	<circle cx="871.168" cy="108.859" r="4" fill="#0" id="circle173"/>
	<circle cx="871.168" cy="125.503" r="4" fill="#0" id="circle174"/>
	<circle cx="881.154" cy="438.416" r="4" fill="#0" id="circle175"/>
	<circle cx="884.483" cy="137.154" r="4" fill="#0" id="circle176"/>
	<circle cx="896.134" cy="446.738" r="4" fill="#0" id="circle177"/>
	<circle cx="899.463" cy="145.477" r="4" fill="#0" id="circle178"/>
	<circle cx="912.779" cy="446.738" r="4" fill="#0" id="circle179"/>
	<circle cx="916.107" cy="137.154" r="4" fill="#0" id="circle180"/>
	<circle cx="929.423" cy="446.738" r="4" fill="#0" id="circle181"/>
	<circle cx="931.087" cy="145.477" r="4" fill="#0" id="circle182"/>
	<circle cx="937.745" cy="213.718" r="4" fill="#0" id="circle183"/>
	<circle cx="942.738" cy="435.087" r="4" fill="#0" id="circle184"/>
	<circle cx="944.403" cy="157.128" r="4" fill="#0" id="circle185"/>
	<circle cx="946.067" cy="173.772" r="4" fill="#0" id="circle186"/>
	<circle cx="946.067" cy="190.416" r="4" fill="#0" id="circle187"/>
	<circle cx="946.067" cy="228.698" r="4" fill="#0" id="circle188"/>
	<circle cx="946.067" cy="245.342" r="4" fill="#0" id="circle189"/>
	<circle cx="954.389" cy="413.45" r="4" fill="#0" id="circle190"/>
	<circle cx="961.047" cy="253.664" r="4" fill="#0" id="circle191"/>
	<circle cx="962.711" cy="388.483" r="4" fill="#0" id="circle192"/>
	<circle cx="971.034" cy="371.839" r="4" fill="#0" id="circle193"/>
	<circle cx="974.362" cy="263.651" r="4" fill="#0" id="circle194"/>
	<circle cx="982.685" cy="278.631" r="4" fill="#0" id="circle195"/>
	<circle cx="987.678" cy="295.275" r="4" fill="#0" id="circle196"/>
	<circle cx="987.678" cy="330.228" r="4" fill="#0" id="circle197"/>
	<circle cx="987.678" cy="346.872" r="4" fill="#0" id="circle198"/>
	<circle cx="987.678" cy="363.517" r="4" fill="#0" id="circle199"/>
	<circle cx="996" cy="310.255" r="4" fill="#0" id="circle200"/>
	</g>
</svg>