<?xml version="1.0" encoding="UTF-8" standalone="no"?>
<!-- Created with CurveBenchmark -->
<svg
	xmlns:dc="http://purl.org/dc/elements/1.1/"
	xmlns:cc="http://creativecommons.org/ns#"
	xmlns:rdf="http://www.w3.org/1999/02/22-rdf-syntax-ns#"
	xmlns:svg="http://www.w3.org/2000/svg"
	xmlns="http://www.w3.org/2000/svg"
	xmlns:sodipodi="http://sodipodi.sourceforge.net/DTD/sodipodi-0.dtd"
	xmlns:inkscape="http://www.inkscape.org/namespaces/inkscape"
	width="1000"
	height="1000"
	id="svg2"
	version="1.1"
	sodipodi:docname="manifold/ccrust-hammer150.png.txt">
<defs
	id="defs4" />
<metadata
	id="metadata7">
	<rdf:RDF>
		<cc:Work
			rdf:about="">
			<dc:format>image/svg+xml</dc:format>
			<dc:type
				rdf:resource="http://purl.org/dc/dcmitype/StillImage" />
			<dc:title></dc:title>
		</cc:Work>
	</rdf:RDF>
</metadata>
<g
	inkscape:label="Layer 1"
	inkscape:groupmode="layer"
	id="layer1">
	<path style="fill:none;stroke:red;stroke-width:1px;stroke-linecap:butt;stroke-linejoin:miter;stroke-opacity:1" d="M 4,27.0029 21.2522,4 z" id="boundary" inkscape:connector-curvature="0" />
	<path style="fill:none;stroke:red;stroke-width:1px;stroke-linecap:butt;stroke-linejoin:miter;stroke-opacity:1" d="M 21.2522,4 50.0058,4 z" id="boundary" inkscape:connector-curvature="0" />
	<path style="fill:none;stroke:red;stroke-width:1px;stroke-linecap:butt;stroke-linejoin:miter;stroke-opacity:1" d="M 107.513,15.5014 78.7594,15.5014 z" id="boundary" inkscape:connector-curvature="0" />
	<path style="fill:none;stroke:red;stroke-width:1px;stroke-linecap:butt;stroke-linejoin:miter;stroke-opacity:1" d="M 78.7594,15.5014 50.0058,4 z" id="boundary" inkscape:connector-curvature="0" />
	<path style="fill:none;stroke:red;stroke-width:1px;stroke-linecap:butt;stroke-linejoin:miter;stroke-opacity:1" d="M 136.267,4 107.513,15.5014 z" id="boundary" inkscape:connector-curvature="0" />
	<path style="fill:none;stroke:red;stroke-width:1px;stroke-linecap:butt;stroke-linejoin:miter;stroke-opacity:1" d="M 4,55.7565 4,27.0029 z" id="boundary" inkscape:connector-curvature="0" />
	<path style="fill:none;stroke:red;stroke-width:1px;stroke-linecap:butt;stroke-linejoin:miter;stroke-opacity:1" d="M 73.0087,75.8841 47.1304,93.1362 z" id="boundary" inkscape:connector-curvature="0" />
	<path style="fill:none;stroke:red;stroke-width:1px;stroke-linecap:butt;stroke-linejoin:miter;stroke-opacity:1" d="M 47.1304,93.1362 18.3768,81.6348 z" id="boundary" inkscape:connector-curvature="0" />
	<path style="fill:none;stroke:red;stroke-width:1px;stroke-linecap:butt;stroke-linejoin:miter;stroke-opacity:1" d="M 18.3768,81.6348 4,55.7565 z" id="boundary" inkscape:connector-curvature="0" />
	<path style="fill:none;stroke:red;stroke-width:1px;stroke-linecap:butt;stroke-linejoin:miter;stroke-opacity:1" d="M 73.0087,75.8841 101.762,75.8841 z" id="boundary" inkscape:connector-curvature="0" />
	<path style="fill:none;stroke:red;stroke-width:1px;stroke-linecap:butt;stroke-linejoin:miter;stroke-opacity:1" d="M 101.762,75.8841 113.264,104.638 z" id="boundary" inkscape:connector-curvature="0" />
	<path style="fill:none;stroke:red;stroke-width:1px;stroke-linecap:butt;stroke-linejoin:miter;stroke-opacity:1" d="M 113.264,104.638 113.264,133.391 z" id="boundary" inkscape:connector-curvature="0" />
	<path style="fill:none;stroke:red;stroke-width:1px;stroke-linecap:butt;stroke-linejoin:miter;stroke-opacity:1" d="M 124.765,162.145 113.264,133.391 z" id="boundary" inkscape:connector-curvature="0" />
	<path style="fill:none;stroke:red;stroke-width:1px;stroke-linecap:butt;stroke-linejoin:miter;stroke-opacity:1" d="M 136.267,4 165.02,4 z" id="boundary" inkscape:connector-curvature="0" />
	<path style="fill:none;stroke:red;stroke-width:1px;stroke-linecap:butt;stroke-linejoin:miter;stroke-opacity:1" d="M 165.02,4 193.774,4 z" id="boundary" inkscape:connector-curvature="0" />
	<path style="fill:none;stroke:red;stroke-width:1px;stroke-linecap:butt;stroke-linejoin:miter;stroke-opacity:1" d="M 124.765,162.145 136.267,190.899 z" id="boundary" inkscape:connector-curvature="0" />
	<path style="fill:none;stroke:red;stroke-width:1px;stroke-linecap:butt;stroke-linejoin:miter;stroke-opacity:1" d="M 142.017,219.652 136.267,190.899 z" id="boundary" inkscape:connector-curvature="0" />
	<path style="fill:none;stroke:red;stroke-width:1px;stroke-linecap:butt;stroke-linejoin:miter;stroke-opacity:1" d="M 142.017,219.652 142.017,248.406 z" id="boundary" inkscape:connector-curvature="0" />
	<path style="fill:none;stroke:red;stroke-width:1px;stroke-linecap:butt;stroke-linejoin:miter;stroke-opacity:1" d="M 142.017,277.159 142.017,248.406 z" id="boundary" inkscape:connector-curvature="0" />
	<path style="fill:none;stroke:red;stroke-width:1px;stroke-linecap:butt;stroke-linejoin:miter;stroke-opacity:1" d="M 147.768,305.913 142.017,277.159 z" id="boundary" inkscape:connector-curvature="0" />
	<path style="fill:none;stroke:red;stroke-width:1px;stroke-linecap:butt;stroke-linejoin:miter;stroke-opacity:1" d="M 147.768,334.667 142.017,389.299 z" id="boundary" inkscape:connector-curvature="0" />
	<path style="fill:none;stroke:red;stroke-width:1px;stroke-linecap:butt;stroke-linejoin:miter;stroke-opacity:1" d="M 147.768,305.913 147.768,334.667 z" id="boundary" inkscape:connector-curvature="0" />
	<path style="fill:none;stroke:red;stroke-width:1px;stroke-linecap:butt;stroke-linejoin:miter;stroke-opacity:1" d="M 142.017,418.052 142.017,389.299 z" id="boundary" inkscape:connector-curvature="0" />
	<path style="fill:none;stroke:red;stroke-width:1px;stroke-linecap:butt;stroke-linejoin:miter;stroke-opacity:1" d="M 113.264,619.328 113.264,648.081 z" id="boundary" inkscape:connector-curvature="0" />
	<path style="fill:none;stroke:red;stroke-width:1px;stroke-linecap:butt;stroke-linejoin:miter;stroke-opacity:1" d="M 113.264,619.328 113.264,590.574 z" id="boundary" inkscape:connector-curvature="0" />
	<path style="fill:none;stroke:red;stroke-width:1px;stroke-linecap:butt;stroke-linejoin:miter;stroke-opacity:1" d="M 113.264,676.835 113.264,705.588 z" id="boundary" inkscape:connector-curvature="0" />
	<path style="fill:none;stroke:red;stroke-width:1px;stroke-linecap:butt;stroke-linejoin:miter;stroke-opacity:1" d="M 113.264,734.342 113.264,705.588 z" id="boundary" inkscape:connector-curvature="0" />
	<path style="fill:none;stroke:red;stroke-width:1px;stroke-linecap:butt;stroke-linejoin:miter;stroke-opacity:1" d="M 113.264,648.081 113.264,676.835 z" id="boundary" inkscape:connector-curvature="0" />
	<path style="fill:none;stroke:red;stroke-width:1px;stroke-linecap:butt;stroke-linejoin:miter;stroke-opacity:1" d="M 136.267,996 107.513,987.374 z" id="boundary" inkscape:connector-curvature="0" />
	<path style="fill:none;stroke:red;stroke-width:1px;stroke-linecap:butt;stroke-linejoin:miter;stroke-opacity:1" d="M 107.513,987.374 107.513,958.62 z" id="boundary" inkscape:connector-curvature="0" />
	<path style="fill:none;stroke:red;stroke-width:1px;stroke-linecap:butt;stroke-linejoin:miter;stroke-opacity:1" d="M 113.264,734.342 113.264,763.096 z" id="boundary" inkscape:connector-curvature="0" />
	<path style="fill:none;stroke:red;stroke-width:1px;stroke-linecap:butt;stroke-linejoin:miter;stroke-opacity:1" d="M 113.264,763.096 113.264,791.849 z" id="boundary" inkscape:connector-curvature="0" />
	<path style="fill:none;stroke:red;stroke-width:1px;stroke-linecap:butt;stroke-linejoin:miter;stroke-opacity:1" d="M 113.264,820.603 113.264,791.849 z" id="boundary" inkscape:connector-curvature="0" />
	<path style="fill:none;stroke:red;stroke-width:1px;stroke-linecap:butt;stroke-linejoin:miter;stroke-opacity:1" d="M 113.264,849.357 113.264,820.603 z" id="boundary" inkscape:connector-curvature="0" />
	<path style="fill:none;stroke:red;stroke-width:1px;stroke-linecap:butt;stroke-linejoin:miter;stroke-opacity:1" d="M 119.014,504.313 119.014,533.067 z" id="boundary" inkscape:connector-curvature="0" />
	<path style="fill:none;stroke:red;stroke-width:1px;stroke-linecap:butt;stroke-linejoin:miter;stroke-opacity:1" d="M 119.014,504.313 119.014,475.559 z" id="boundary" inkscape:connector-curvature="0" />
	<path style="fill:none;stroke:red;stroke-width:1px;stroke-linecap:butt;stroke-linejoin:miter;stroke-opacity:1" d="M 119.014,475.559 133.391,449.681 z" id="boundary" inkscape:connector-curvature="0" />
	<path style="fill:none;stroke:red;stroke-width:1px;stroke-linecap:butt;stroke-linejoin:miter;stroke-opacity:1" d="M 119.014,561.82 113.264,590.574 z" id="boundary" inkscape:connector-curvature="0" />
	<path style="fill:none;stroke:red;stroke-width:1px;stroke-linecap:butt;stroke-linejoin:miter;stroke-opacity:1" d="M 119.014,533.067 119.014,561.82 z" id="boundary" inkscape:connector-curvature="0" />
	<path style="fill:none;stroke:red;stroke-width:1px;stroke-linecap:butt;stroke-linejoin:miter;stroke-opacity:1" d="M 142.017,418.052 133.391,449.681 z" id="boundary" inkscape:connector-curvature="0" />
	<path style="fill:none;stroke:red;stroke-width:1px;stroke-linecap:butt;stroke-linejoin:miter;stroke-opacity:1" d="M 113.264,849.357 113.264,878.11 z" id="boundary" inkscape:connector-curvature="0" />
	<path style="fill:none;stroke:red;stroke-width:1px;stroke-linecap:butt;stroke-linejoin:miter;stroke-opacity:1" d="M 113.264,906.864 113.264,878.11 z" id="boundary" inkscape:connector-curvature="0" />
	<path style="fill:none;stroke:red;stroke-width:1px;stroke-linecap:butt;stroke-linejoin:miter;stroke-opacity:1" d="M 113.264,906.864 107.513,958.62 z" id="boundary" inkscape:connector-curvature="0" />
	<path style="fill:none;stroke:red;stroke-width:1px;stroke-linecap:butt;stroke-linejoin:miter;stroke-opacity:1" d="M 165.02,996 136.267,996 z" id="boundary" inkscape:connector-curvature="0" />
	<path style="fill:none;stroke:red;stroke-width:1px;stroke-linecap:butt;stroke-linejoin:miter;stroke-opacity:1" d="M 193.774,996 165.02,996 z" id="boundary" inkscape:connector-curvature="0" />
	<path style="fill:none;stroke:red;stroke-width:1px;stroke-linecap:butt;stroke-linejoin:miter;stroke-opacity:1" d="M 231.154,188.023 225.403,216.777 z" id="boundary" inkscape:connector-curvature="0" />
	<path style="fill:none;stroke:red;stroke-width:1px;stroke-linecap:butt;stroke-linejoin:miter;stroke-opacity:1" d="M 242.655,159.27 231.154,188.023 z" id="boundary" inkscape:connector-curvature="0" />
	<path style="fill:none;stroke:red;stroke-width:1px;stroke-linecap:butt;stroke-linejoin:miter;stroke-opacity:1" d="M 222.528,4 251.281,4 z" id="boundary" inkscape:connector-curvature="0" />
	<path style="fill:none;stroke:red;stroke-width:1px;stroke-linecap:butt;stroke-linejoin:miter;stroke-opacity:1" d="M 251.281,4 277.159,18.3768 z" id="boundary" inkscape:connector-curvature="0" />
	<path style="fill:none;stroke:red;stroke-width:1px;stroke-linecap:butt;stroke-linejoin:miter;stroke-opacity:1" d="M 219.652,308.788 219.652,337.542 z" id="boundary" inkscape:connector-curvature="0" />
	<path style="fill:none;stroke:red;stroke-width:1px;stroke-linecap:butt;stroke-linejoin:miter;stroke-opacity:1" d="M 225.403,395.049 219.652,366.296 z" id="boundary" inkscape:connector-curvature="0" />
	<path style="fill:none;stroke:red;stroke-width:1px;stroke-linecap:butt;stroke-linejoin:miter;stroke-opacity:1" d="M 219.652,366.296 219.652,337.542 z" id="boundary" inkscape:connector-curvature="0" />
	<path style="fill:none;stroke:red;stroke-width:1px;stroke-linecap:butt;stroke-linejoin:miter;stroke-opacity:1" d="M 225.403,245.53 225.403,274.284 z" id="boundary" inkscape:connector-curvature="0" />
	<path style="fill:none;stroke:red;stroke-width:1px;stroke-linecap:butt;stroke-linejoin:miter;stroke-opacity:1" d="M 225.403,245.53 225.403,216.777 z" id="boundary" inkscape:connector-curvature="0" />
	<path style="fill:none;stroke:red;stroke-width:1px;stroke-linecap:butt;stroke-linejoin:miter;stroke-opacity:1" d="M 225.403,274.284 219.652,308.788 z" id="boundary" inkscape:connector-curvature="0" />
	<path style="fill:none;stroke:red;stroke-width:1px;stroke-linecap:butt;stroke-linejoin:miter;stroke-opacity:1" d="M 254.157,124.765 242.655,159.27 z" id="boundary" inkscape:connector-curvature="0" />
	<path style="fill:none;stroke:red;stroke-width:1px;stroke-linecap:butt;stroke-linejoin:miter;stroke-opacity:1" d="M 193.774,4 222.528,4 z" id="boundary" inkscape:connector-curvature="0" />
	<path style="fill:none;stroke:red;stroke-width:1px;stroke-linecap:butt;stroke-linejoin:miter;stroke-opacity:1" d="M 300.162,35.629 323.165,55.7565 z" id="boundary" inkscape:connector-curvature="0" />
	<path style="fill:none;stroke:red;stroke-width:1px;stroke-linecap:butt;stroke-linejoin:miter;stroke-opacity:1" d="M 323.165,55.7565 340.417,78.7594 z" id="boundary" inkscape:connector-curvature="0" />
	<path style="fill:none;stroke:red;stroke-width:1px;stroke-linecap:butt;stroke-linejoin:miter;stroke-opacity:1" d="M 303.038,130.516 280.035,110.388 z" id="boundary" inkscape:connector-curvature="0" />
	<path style="fill:none;stroke:red;stroke-width:1px;stroke-linecap:butt;stroke-linejoin:miter;stroke-opacity:1" d="M 340.417,78.7594 357.67,101.762 z" id="boundary" inkscape:connector-curvature="0" />
	<path style="fill:none;stroke:red;stroke-width:1px;stroke-linecap:butt;stroke-linejoin:miter;stroke-opacity:1" d="M 303.038,130.516 317.414,156.394 z" id="boundary" inkscape:connector-curvature="0" />
	<path style="fill:none;stroke:red;stroke-width:1px;stroke-linecap:butt;stroke-linejoin:miter;stroke-opacity:1" d="M 317.414,156.394 334.667,179.397 z" id="boundary" inkscape:connector-curvature="0" />
	<path style="fill:none;stroke:red;stroke-width:1px;stroke-linecap:butt;stroke-linejoin:miter;stroke-opacity:1" d="M 369.171,130.516 363.42,179.397 z" id="boundary" inkscape:connector-curvature="0" />
	<path style="fill:none;stroke:red;stroke-width:1px;stroke-linecap:butt;stroke-linejoin:miter;stroke-opacity:1" d="M 363.42,179.397 334.667,179.397 z" id="boundary" inkscape:connector-curvature="0" />
	<path style="fill:none;stroke:red;stroke-width:1px;stroke-linecap:butt;stroke-linejoin:miter;stroke-opacity:1" d="M 357.67,101.762 369.171,130.516 z" id="boundary" inkscape:connector-curvature="0" />
	<path style="fill:none;stroke:red;stroke-width:1px;stroke-linecap:butt;stroke-linejoin:miter;stroke-opacity:1" d="M 277.159,18.3768 300.162,35.629 z" id="boundary" inkscape:connector-curvature="0" />
	<path style="fill:none;stroke:red;stroke-width:1px;stroke-linecap:butt;stroke-linejoin:miter;stroke-opacity:1" d="M 225.403,423.803 234.029,452.557 z" id="boundary" inkscape:connector-curvature="0" />
	<path style="fill:none;stroke:red;stroke-width:1px;stroke-linecap:butt;stroke-linejoin:miter;stroke-opacity:1" d="M 225.403,423.803 225.403,395.049 z" id="boundary" inkscape:connector-curvature="0" />
	<path style="fill:none;stroke:red;stroke-width:1px;stroke-linecap:butt;stroke-linejoin:miter;stroke-opacity:1" d="M 234.029,452.557 248.406,478.435 z" id="boundary" inkscape:connector-curvature="0" />
	<path style="fill:none;stroke:red;stroke-width:1px;stroke-linecap:butt;stroke-linejoin:miter;stroke-opacity:1" d="M 248.406,478.435 248.406,507.188 z" id="boundary" inkscape:connector-curvature="0" />
	<path style="fill:none;stroke:red;stroke-width:1px;stroke-linecap:butt;stroke-linejoin:miter;stroke-opacity:1" d="M 248.406,507.188 248.406,535.942 z" id="boundary" inkscape:connector-curvature="0" />
	<path style="fill:none;stroke:red;stroke-width:1px;stroke-linecap:butt;stroke-linejoin:miter;stroke-opacity:1" d="M 259.907,967.246 251.281,996 z" id="boundary" inkscape:connector-curvature="0" />
	<path style="fill:none;stroke:red;stroke-width:1px;stroke-linecap:butt;stroke-linejoin:miter;stroke-opacity:1" d="M 251.281,996 222.528,996 z" id="boundary" inkscape:connector-curvature="0" />
	<path style="fill:none;stroke:red;stroke-width:1px;stroke-linecap:butt;stroke-linejoin:miter;stroke-opacity:1" d="M 248.406,535.942 254.157,564.696 z" id="boundary" inkscape:connector-curvature="0" />
	<path style="fill:none;stroke:red;stroke-width:1px;stroke-linecap:butt;stroke-linejoin:miter;stroke-opacity:1" d="M 254.157,708.464 254.157,737.217 z" id="boundary" inkscape:connector-curvature="0" />
	<path style="fill:none;stroke:red;stroke-width:1px;stroke-linecap:butt;stroke-linejoin:miter;stroke-opacity:1" d="M 254.157,564.696 254.157,593.449 z" id="boundary" inkscape:connector-curvature="0" />
	<path style="fill:none;stroke:red;stroke-width:1px;stroke-linecap:butt;stroke-linejoin:miter;stroke-opacity:1" d="M 254.157,622.203 254.157,593.449 z" id="boundary" inkscape:connector-curvature="0" />
	<path style="fill:none;stroke:red;stroke-width:1px;stroke-linecap:butt;stroke-linejoin:miter;stroke-opacity:1" d="M 254.157,622.203 254.157,650.957 z" id="boundary" inkscape:connector-curvature="0" />
	<path style="fill:none;stroke:red;stroke-width:1px;stroke-linecap:butt;stroke-linejoin:miter;stroke-opacity:1" d="M 254.157,650.957 254.157,679.71 z" id="boundary" inkscape:connector-curvature="0" />
	<path style="fill:none;stroke:red;stroke-width:1px;stroke-linecap:butt;stroke-linejoin:miter;stroke-opacity:1" d="M 254.157,708.464 254.157,679.71 z" id="boundary" inkscape:connector-curvature="0" />
	<path style="fill:none;stroke:red;stroke-width:1px;stroke-linecap:butt;stroke-linejoin:miter;stroke-opacity:1" d="M 254.157,765.971 254.157,794.725 z" id="boundary" inkscape:connector-curvature="0" />
	<path style="fill:none;stroke:red;stroke-width:1px;stroke-linecap:butt;stroke-linejoin:miter;stroke-opacity:1" d="M 254.157,765.971 254.157,737.217 z" id="boundary" inkscape:connector-curvature="0" />
	<path style="fill:none;stroke:red;stroke-width:1px;stroke-linecap:butt;stroke-linejoin:miter;stroke-opacity:1" d="M 254.157,794.725 254.157,823.478 z" id="boundary" inkscape:connector-curvature="0" />
	<path style="fill:none;stroke:red;stroke-width:1px;stroke-linecap:butt;stroke-linejoin:miter;stroke-opacity:1" d="M 254.157,852.232 254.157,880.986 z" id="boundary" inkscape:connector-curvature="0" />
	<path style="fill:none;stroke:red;stroke-width:1px;stroke-linecap:butt;stroke-linejoin:miter;stroke-opacity:1" d="M 254.157,852.232 254.157,823.478 z" id="boundary" inkscape:connector-curvature="0" />
	<path style="fill:none;stroke:red;stroke-width:1px;stroke-linecap:butt;stroke-linejoin:miter;stroke-opacity:1" d="M 254.157,880.986 254.157,909.739 z" id="boundary" inkscape:connector-curvature="0" />
	<path style="fill:none;stroke:red;stroke-width:1px;stroke-linecap:butt;stroke-linejoin:miter;stroke-opacity:1" d="M 259.907,967.246 254.157,938.493 z" id="boundary" inkscape:connector-curvature="0" />
	<path style="fill:none;stroke:red;stroke-width:1px;stroke-linecap:butt;stroke-linejoin:miter;stroke-opacity:1" d="M 254.157,938.493 254.157,909.739 z" id="boundary" inkscape:connector-curvature="0" />
	<path style="fill:none;stroke:red;stroke-width:1px;stroke-linecap:butt;stroke-linejoin:miter;stroke-opacity:1" d="M 222.528,996 193.774,996 z" id="boundary" inkscape:connector-curvature="0" />
	<circle cx="4" cy="27.0029" r="4" fill="#0" id="circle0"/>
	<circle cx="4" cy="55.7565" r="4" fill="#0" id="circle1"/>
	<circle cx="18.3768" cy="81.6348" r="4" fill="#0" id="circle2"/>
	<circle cx="21.2522" cy="4" r="4" fill="#0" id="circle3"/>
	<circle cx="47.1304" cy="93.1362" r="4" fill="#0" id="circle4"/>
	<circle cx="50.0058" cy="4" r="4" fill="#0" id="circle5"/>
	<circle cx="73.0087" cy="75.8841" r="4" fill="#0" id="circle6"/>
	<circle cx="78.7594" cy="15.5014" r="4" fill="#0" id="circle7"/>
	<circle cx="101.762" cy="75.8841" r="4" fill="#0" id="circle8"/>
	<circle cx="107.513" cy="15.5014" r="4" fill="#0" id="circle9"/>
	<circle cx="107.513" cy="958.62" r="4" fill="#0" id="circle10"/>
	<circle cx="107.513" cy="987.374" r="4" fill="#0" id="circle11"/>
	<circle cx="113.264" cy="104.638" r="4" fill="#0" id="circle12"/>
	<circle cx="113.264" cy="133.391" r="4" fill="#0" id="circle13"/>
	<circle cx="113.264" cy="590.574" r="4" fill="#0" id="circle14"/>
	<circle cx="113.264" cy="619.328" r="4" fill="#0" id="circle15"/>
	<circle cx="113.264" cy="648.081" r="4" fill="#0" id="circle16"/>
	<circle cx="113.264" cy="676.835" r="4" fill="#0" id="circle17"/>
	<circle cx="113.264" cy="705.588" r="4" fill="#0" id="circle18"/>
	<circle cx="113.264" cy="734.342" r="4" fill="#0" id="circle19"/>
	<circle cx="113.264" cy="763.096" r="4" fill="#0" id="circle20"/>
	<circle cx="113.264" cy="791.849" r="4" fill="#0" id="circle21"/>
	<circle cx="113.264" cy="820.603" r="4" fill="#0" id="circle22"/>
	<circle cx="113.264" cy="849.357" r="4" fill="#0" id="circle23"/>
	<circle cx="113.264" cy="878.11" r="4" fill="#0" id="circle24"/>
	<circle cx="113.264" cy="906.864" r="4" fill="#0" id="circle25"/>
	<circle cx="119.014" cy="475.559" r="4" fill="#0" id="circle26"/>
	<circle cx="119.014" cy="504.313" r="4" fill="#0" id="circle27"/>
	<circle cx="119.014" cy="533.067" r="4" fill="#0" id="circle28"/>
	<circle cx="119.014" cy="561.82" r="4" fill="#0" id="circle29"/>
	<circle cx="124.765" cy="162.145" r="4" fill="#0" id="circle30"/>
	<circle cx="133.391" cy="449.681" r="4" fill="#0" id="circle31"/>
	<circle cx="136.267" cy="4" r="4" fill="#0" id="circle32"/>
	<circle cx="136.267" cy="190.899" r="4" fill="#0" id="circle33"/>
	<circle cx="136.267" cy="996" r="4" fill="#0" id="circle34"/>
	<circle cx="142.017" cy="219.652" r="4" fill="#0" id="circle35"/>
	<circle cx="142.017" cy="248.406" r="4" fill="#0" id="circle36"/>
	<circle cx="142.017" cy="277.159" r="4" fill="#0" id="circle37"/>
	<circle cx="142.017" cy="389.299" r="4" fill="#0" id="circle38"/>
	<circle cx="142.017" cy="418.052" r="4" fill="#0" id="circle39"/>
	<circle cx="147.768" cy="305.913" r="4" fill="#0" id="circle40"/>
	<circle cx="147.768" cy="334.667" r="4" fill="#0" id="circle41"/>
	<circle cx="165.02" cy="4" r="4" fill="#0" id="circle42"/>
	<circle cx="165.02" cy="996" r="4" fill="#0" id="circle43"/>
	<circle cx="193.774" cy="4" r="4" fill="#0" id="circle44"/>
	<circle cx="193.774" cy="996" r="4" fill="#0" id="circle45"/>
	<circle cx="219.652" cy="308.788" r="4" fill="#0" id="circle46"/>
	<circle cx="219.652" cy="337.542" r="4" fill="#0" id="circle47"/>
	<circle cx="219.652" cy="366.296" r="4" fill="#0" id="circle48"/>
	<circle cx="222.528" cy="4" r="4" fill="#0" id="circle49"/>
	<circle cx="222.528" cy="996" r="4" fill="#0" id="circle50"/>
	<circle cx="225.403" cy="216.777" r="4" fill="#0" id="circle51"/>
	<circle cx="225.403" cy="245.53" r="4" fill="#0" id="circle52"/>
	<circle cx="225.403" cy="274.284" r="4" fill="#0" id="circle53"/>
	<circle cx="225.403" cy="395.049" r="4" fill="#0" id="circle54"/>
	<circle cx="225.403" cy="423.803" r="4" fill="#0" id="circle55"/>
	<circle cx="231.154" cy="188.023" r="4" fill="#0" id="circle56"/>
	<circle cx="234.029" cy="452.557" r="4" fill="#0" id="circle57"/>
	<circle cx="242.655" cy="159.27" r="4" fill="#0" id="circle58"/>
	<circle cx="248.406" cy="478.435" r="4" fill="#0" id="circle59"/>
	<circle cx="248.406" cy="507.188" r="4" fill="#0" id="circle60"/>
	<circle cx="248.406" cy="535.942" r="4" fill="#0" id="circle61"/>
	<circle cx="251.281" cy="4" r="4" fill="#0" id="circle62"/>
	<circle cx="251.281" cy="996" r="4" fill="#0" id="circle63"/>
	<circle cx="254.157" cy="96.0116" r="4" fill="#0" id="circle64"/>
	<circle cx="254.157" cy="124.765" r="4" fill="#0" id="circle65"/>
	<circle cx="254.157" cy="564.696" r="4" fill="#0" id="circle66"/>
	<circle cx="254.157" cy="593.449" r="4" fill="#0" id="circle67"/>
	<circle cx="254.157" cy="622.203" r="4" fill="#0" id="circle68"/>
	<circle cx="254.157" cy="650.957" r="4" fill="#0" id="circle69"/>
	<circle cx="254.157" cy="679.71" r="4" fill="#0" id="circle70"/>
	<circle cx="254.157" cy="708.464" r="4" fill="#0" id="circle71"/>
	<circle cx="254.157" cy="737.217" r="4" fill="#0" id="circle72"/>
	<circle cx="254.157" cy="765.971" r="4" fill="#0" id="circle73"/>
	<circle cx="254.157" cy="794.725" r="4" fill="#0" id="circle74"/>
	<circle cx="254.157" cy="823.478" r="4" fill="#0" id="circle75"/>
	<circle cx="254.157" cy="852.232" r="4" fill="#0" id="circle76"/>
	<circle cx="254.157" cy="880.986" r="4" fill="#0" id="circle77"/>
	<circle cx="254.157" cy="909.739" r="4" fill="#0" id="circle78"/>
	<circle cx="254.157" cy="938.493" r="4" fill="#0" id="circle79"/>
	<circle cx="259.907" cy="967.246" r="4" fill="#0" id="circle80"/>
	<circle cx="277.159" cy="18.3768" r="4" fill="#0" id="circle81"/>
	<circle cx="280.035" cy="110.388" r="4" fill="#0" id="circle82"/>
	<circle cx="300.162" cy="35.629" r="4" fill="#0" id="circle83"/>
	<circle cx="303.038" cy="130.516" r="4" fill="#0" id="circle84"/>
	<circle cx="317.414" cy="156.394" r="4" fill="#0" id="circle85"/>
	<circle cx="323.165" cy="55.7565" r="4" fill="#0" id="circle86"/>
	<circle cx="334.667" cy="179.397" r="4" fill="#0" id="circle87"/>
	<circle cx="340.417" cy="78.7594" r="4" fill="#0" id="circle88"/>
	<circle cx="357.67" cy="101.762" r="4" fill="#0" id="circle89"/>
	<circle cx="363.42" cy="179.397" r="4" fill="#0" id="circle90"/>
	<circle cx="369.171" cy="130.516" r="4" fill="#0" id="circle91"/>
	</g>
</svg>