<?xml version="1.0" encoding="UTF-8" standalone="no"?>
<!-- Created with CurveBenchmark -->
<svg
	xmlns:dc="http://purl.org/dc/elements/1.1/"
	xmlns:cc="http://creativecommons.org/ns#"
	xmlns:rdf="http://www.w3.org/1999/02/22-rdf-syntax-ns#"
	xmlns:svg="http://www.w3.org/2000/svg"
	xmlns="http://www.w3.org/2000/svg"
	xmlns:sodipodi="http://sodipodi.sourceforge.net/DTD/sodipodi-0.dtd"
	xmlns:inkscape="http://www.inkscape.org/namespaces/inkscape"
	width="1000"
	height="1000"
	id="svg2"
	version="1.1"
	sodipodi:docname="manifold/ccrust-bird19.png.txt">
<defs
	id="defs4" />
<metadata
	id="metadata7">
	<rdf:RDF>
		<cc:Work
			rdf:about="">
			<dc:format>image/svg+xml</dc:format>
			<dc:type
				rdf:resource="http://purl.org/dc/dcmitype/StillImage" />
			<dc:title></dc:title>
		</cc:Work>
	</rdf:RDF>
</metadata>
<g
	inkscape:label="Layer 1"
	inkscape:groupmode="layer"
	id="layer1">
	<path style="fill:none;stroke:red;stroke-width:1px;stroke-linecap:butt;stroke-linejoin:miter;stroke-opacity:1" d="M 27.7059,71.4706 45.9412,62.3529 z" id="boundary" inkscape:connector-curvature="0" />
	<path style="fill:none;stroke:red;stroke-width:1px;stroke-linecap:butt;stroke-linejoin:miter;stroke-opacity:1" d="M 60.5294,47.7647 45.9412,62.3529 z" id="boundary" inkscape:connector-curvature="0" />
	<path style="fill:none;stroke:red;stroke-width:1px;stroke-linecap:butt;stroke-linejoin:miter;stroke-opacity:1" d="M 4,113.412 13.1176,86.0588 z" id="boundary" inkscape:connector-curvature="0" />
	<path style="fill:none;stroke:red;stroke-width:1px;stroke-linecap:butt;stroke-linejoin:miter;stroke-opacity:1" d="M 13.1176,86.0588 27.7059,71.4706 z" id="boundary" inkscape:connector-curvature="0" />
	<path style="fill:none;stroke:red;stroke-width:1px;stroke-linecap:butt;stroke-linejoin:miter;stroke-opacity:1" d="M 75.1176,35 60.5294,47.7647 z" id="boundary" inkscape:connector-curvature="0" />
	<path style="fill:none;stroke:red;stroke-width:1px;stroke-linecap:butt;stroke-linejoin:miter;stroke-opacity:1" d="M 75.1176,35 91.5294,25.8824 z" id="boundary" inkscape:connector-curvature="0" />
	<path style="fill:none;stroke:red;stroke-width:1px;stroke-linecap:butt;stroke-linejoin:miter;stroke-opacity:1" d="M 106.118,11.2941 91.5294,25.8824 z" id="boundary" inkscape:connector-curvature="0" />
	<path style="fill:none;stroke:red;stroke-width:1px;stroke-linecap:butt;stroke-linejoin:miter;stroke-opacity:1" d="M 91.5294,126.176 73.2941,126.176 z" id="boundary" inkscape:connector-curvature="0" />
	<path style="fill:none;stroke:red;stroke-width:1px;stroke-linecap:butt;stroke-linejoin:miter;stroke-opacity:1" d="M 109.765,126.176 91.5294,126.176 z" id="boundary" inkscape:connector-curvature="0" />
	<path style="fill:none;stroke:red;stroke-width:1px;stroke-linecap:butt;stroke-linejoin:miter;stroke-opacity:1" d="M 73.2941,126.176 55.0588,135.294 z" id="boundary" inkscape:connector-curvature="0" />
	<path style="fill:none;stroke:red;stroke-width:1px;stroke-linecap:butt;stroke-linejoin:miter;stroke-opacity:1" d="M 36.8235,144.412 18.5882,144.412 z" id="boundary" inkscape:connector-curvature="0" />
	<path style="fill:none;stroke:red;stroke-width:1px;stroke-linecap:butt;stroke-linejoin:miter;stroke-opacity:1" d="M 55.0588,135.294 36.8235,144.412 z" id="boundary" inkscape:connector-curvature="0" />
	<path style="fill:none;stroke:red;stroke-width:1px;stroke-linecap:butt;stroke-linejoin:miter;stroke-opacity:1" d="M 18.5882,144.412 4,131.647 z" id="boundary" inkscape:connector-curvature="0" />
	<path style="fill:none;stroke:red;stroke-width:1px;stroke-linecap:butt;stroke-linejoin:miter;stroke-opacity:1" d="M 4,131.647 4,113.412 z" id="boundary" inkscape:connector-curvature="0" />
	<path style="fill:none;stroke:red;stroke-width:1px;stroke-linecap:butt;stroke-linejoin:miter;stroke-opacity:1" d="M 122.529,140.765 122.529,159 z" id="boundary" inkscape:connector-curvature="0" />
	<path style="fill:none;stroke:red;stroke-width:1px;stroke-linecap:butt;stroke-linejoin:miter;stroke-opacity:1" d="M 122.529,140.765 109.765,126.176 z" id="boundary" inkscape:connector-curvature="0" />
	<path style="fill:none;stroke:red;stroke-width:1px;stroke-linecap:butt;stroke-linejoin:miter;stroke-opacity:1" d="M 122.529,159 122.529,177.235 z" id="boundary" inkscape:connector-curvature="0" />
	<path style="fill:none;stroke:red;stroke-width:1px;stroke-linecap:butt;stroke-linejoin:miter;stroke-opacity:1" d="M 113.412,231.941 113.412,213.706 z" id="boundary" inkscape:connector-curvature="0" />
	<path style="fill:none;stroke:red;stroke-width:1px;stroke-linecap:butt;stroke-linejoin:miter;stroke-opacity:1" d="M 113.412,213.706 122.529,195.471 z" id="boundary" inkscape:connector-curvature="0" />
	<path style="fill:none;stroke:red;stroke-width:1px;stroke-linecap:butt;stroke-linejoin:miter;stroke-opacity:1" d="M 122.529,177.235 122.529,195.471 z" id="boundary" inkscape:connector-curvature="0" />
	<path style="fill:none;stroke:red;stroke-width:1px;stroke-linecap:butt;stroke-linejoin:miter;stroke-opacity:1" d="M 113.412,231.941 104.294,250.176 z" id="boundary" inkscape:connector-curvature="0" />
	<path style="fill:none;stroke:red;stroke-width:1px;stroke-linecap:butt;stroke-linejoin:miter;stroke-opacity:1" d="M 104.294,268.412 104.294,250.176 z" id="boundary" inkscape:connector-curvature="0" />
	<path style="fill:none;stroke:red;stroke-width:1px;stroke-linecap:butt;stroke-linejoin:miter;stroke-opacity:1" d="M 106.118,11.2941 124.353,7.64706 z" id="boundary" inkscape:connector-curvature="0" />
	<path style="fill:none;stroke:red;stroke-width:1px;stroke-linecap:butt;stroke-linejoin:miter;stroke-opacity:1" d="M 142.588,4 160.824,4 z" id="boundary" inkscape:connector-curvature="0" />
	<path style="fill:none;stroke:red;stroke-width:1px;stroke-linecap:butt;stroke-linejoin:miter;stroke-opacity:1" d="M 160.824,4 179.059,4 z" id="boundary" inkscape:connector-curvature="0" />
	<path style="fill:none;stroke:red;stroke-width:1px;stroke-linecap:butt;stroke-linejoin:miter;stroke-opacity:1" d="M 197.294,7.64706 213.706,16.7647 z" id="boundary" inkscape:connector-curvature="0" />
	<path style="fill:none;stroke:red;stroke-width:1px;stroke-linecap:butt;stroke-linejoin:miter;stroke-opacity:1" d="M 179.059,4 197.294,7.64706 z" id="boundary" inkscape:connector-curvature="0" />
	<path style="fill:none;stroke:red;stroke-width:1px;stroke-linecap:butt;stroke-linejoin:miter;stroke-opacity:1" d="M 228.294,27.7059 213.706,16.7647 z" id="boundary" inkscape:connector-curvature="0" />
	<path style="fill:none;stroke:red;stroke-width:1px;stroke-linecap:butt;stroke-linejoin:miter;stroke-opacity:1" d="M 242.882,40.4706 228.294,27.7059 z" id="boundary" inkscape:connector-curvature="0" />
	<path style="fill:none;stroke:red;stroke-width:1px;stroke-linecap:butt;stroke-linejoin:miter;stroke-opacity:1" d="M 242.882,40.4706 250.176,58.7059 z" id="boundary" inkscape:connector-curvature="0" />
	<path style="fill:none;stroke:red;stroke-width:1px;stroke-linecap:butt;stroke-linejoin:miter;stroke-opacity:1" d="M 250.176,58.7059 261.118,73.2941 z" id="boundary" inkscape:connector-curvature="0" />
	<path style="fill:none;stroke:red;stroke-width:1px;stroke-linecap:butt;stroke-linejoin:miter;stroke-opacity:1" d="M 261.118,73.2941 264.765,91.5294 z" id="boundary" inkscape:connector-curvature="0" />
	<path style="fill:none;stroke:red;stroke-width:1px;stroke-linecap:butt;stroke-linejoin:miter;stroke-opacity:1" d="M 270.235,109.765 264.765,91.5294 z" id="boundary" inkscape:connector-curvature="0" />
	<path style="fill:none;stroke:red;stroke-width:1px;stroke-linecap:butt;stroke-linejoin:miter;stroke-opacity:1" d="M 270.235,128 270.235,155.353 z" id="boundary" inkscape:connector-curvature="0" />
	<path style="fill:none;stroke:red;stroke-width:1px;stroke-linecap:butt;stroke-linejoin:miter;stroke-opacity:1" d="M 270.235,128 270.235,109.765 z" id="boundary" inkscape:connector-curvature="0" />
	<path style="fill:none;stroke:red;stroke-width:1px;stroke-linecap:butt;stroke-linejoin:miter;stroke-opacity:1" d="M 279.353,171.765 270.235,155.353 z" id="boundary" inkscape:connector-curvature="0" />
	<path style="fill:none;stroke:red;stroke-width:1px;stroke-linecap:butt;stroke-linejoin:miter;stroke-opacity:1" d="M 279.353,171.765 279.353,190 z" id="boundary" inkscape:connector-curvature="0" />
	<path style="fill:none;stroke:red;stroke-width:1px;stroke-linecap:butt;stroke-linejoin:miter;stroke-opacity:1" d="M 279.353,190 288.471,206.412 z" id="boundary" inkscape:connector-curvature="0" />
	<path style="fill:none;stroke:red;stroke-width:1px;stroke-linecap:butt;stroke-linejoin:miter;stroke-opacity:1" d="M 297.588,222.824 288.471,206.412 z" id="boundary" inkscape:connector-curvature="0" />
	<path style="fill:none;stroke:red;stroke-width:1px;stroke-linecap:butt;stroke-linejoin:miter;stroke-opacity:1" d="M 310.353,237.412 297.588,222.824 z" id="boundary" inkscape:connector-curvature="0" />
	<path style="fill:none;stroke:red;stroke-width:1px;stroke-linecap:butt;stroke-linejoin:miter;stroke-opacity:1" d="M 310.353,237.412 324.941,250.176 z" id="boundary" inkscape:connector-curvature="0" />
	<path style="fill:none;stroke:red;stroke-width:1px;stroke-linecap:butt;stroke-linejoin:miter;stroke-opacity:1" d="M 355.941,272.059 337.706,264.765 z" id="boundary" inkscape:connector-curvature="0" />
	<path style="fill:none;stroke:red;stroke-width:1px;stroke-linecap:butt;stroke-linejoin:miter;stroke-opacity:1" d="M 337.706,264.765 324.941,250.176 z" id="boundary" inkscape:connector-curvature="0" />
	<path style="fill:none;stroke:red;stroke-width:1px;stroke-linecap:butt;stroke-linejoin:miter;stroke-opacity:1" d="M 124.353,7.64706 142.588,4 z" id="boundary" inkscape:connector-curvature="0" />
	<path style="fill:none;stroke:red;stroke-width:1px;stroke-linecap:butt;stroke-linejoin:miter;stroke-opacity:1" d="M 95.1765,295.765 95.1765,314 z" id="boundary" inkscape:connector-curvature="0" />
	<path style="fill:none;stroke:red;stroke-width:1px;stroke-linecap:butt;stroke-linejoin:miter;stroke-opacity:1" d="M 95.1765,295.765 104.294,268.412 z" id="boundary" inkscape:connector-curvature="0" />
	<path style="fill:none;stroke:red;stroke-width:1px;stroke-linecap:butt;stroke-linejoin:miter;stroke-opacity:1" d="M 95.1765,332.235 95.1765,350.471 z" id="boundary" inkscape:connector-curvature="0" />
	<path style="fill:none;stroke:red;stroke-width:1px;stroke-linecap:butt;stroke-linejoin:miter;stroke-opacity:1" d="M 95.1765,368.706 95.1765,350.471 z" id="boundary" inkscape:connector-curvature="0" />
	<path style="fill:none;stroke:red;stroke-width:1px;stroke-linecap:butt;stroke-linejoin:miter;stroke-opacity:1" d="M 95.1765,332.235 95.1765,314 z" id="boundary" inkscape:connector-curvature="0" />
	<path style="fill:none;stroke:red;stroke-width:1px;stroke-linecap:butt;stroke-linejoin:miter;stroke-opacity:1" d="M 95.1765,386.941 95.1765,368.706 z" id="boundary" inkscape:connector-curvature="0" />
	<path style="fill:none;stroke:red;stroke-width:1px;stroke-linecap:butt;stroke-linejoin:miter;stroke-opacity:1" d="M 95.1765,405.176 104.294,421.588 z" id="boundary" inkscape:connector-curvature="0" />
	<path style="fill:none;stroke:red;stroke-width:1px;stroke-linecap:butt;stroke-linejoin:miter;stroke-opacity:1" d="M 104.294,421.588 104.294,439.824 z" id="boundary" inkscape:connector-curvature="0" />
	<path style="fill:none;stroke:red;stroke-width:1px;stroke-linecap:butt;stroke-linejoin:miter;stroke-opacity:1" d="M 95.1765,405.176 95.1765,386.941 z" id="boundary" inkscape:connector-curvature="0" />
	<path style="fill:none;stroke:red;stroke-width:1px;stroke-linecap:butt;stroke-linejoin:miter;stroke-opacity:1" d="M 113.412,456.235 104.294,439.824 z" id="boundary" inkscape:connector-curvature="0" />
	<path style="fill:none;stroke:red;stroke-width:1px;stroke-linecap:butt;stroke-linejoin:miter;stroke-opacity:1" d="M 113.412,456.235 122.529,472.647 z" id="boundary" inkscape:connector-curvature="0" />
	<path style="fill:none;stroke:red;stroke-width:1px;stroke-linecap:butt;stroke-linejoin:miter;stroke-opacity:1" d="M 131.647,489.059 122.529,472.647 z" id="boundary" inkscape:connector-curvature="0" />
	<path style="fill:none;stroke:red;stroke-width:1px;stroke-linecap:butt;stroke-linejoin:miter;stroke-opacity:1" d="M 155.353,518.235 140.765,505.471 z" id="boundary" inkscape:connector-curvature="0" />
	<path style="fill:none;stroke:red;stroke-width:1px;stroke-linecap:butt;stroke-linejoin:miter;stroke-opacity:1" d="M 140.765,505.471 131.647,489.059 z" id="boundary" inkscape:connector-curvature="0" />
	<path style="fill:none;stroke:red;stroke-width:1px;stroke-linecap:butt;stroke-linejoin:miter;stroke-opacity:1" d="M 155.353,518.235 168.118,532.824 z" id="boundary" inkscape:connector-curvature="0" />
	<path style="fill:none;stroke:red;stroke-width:1px;stroke-linecap:butt;stroke-linejoin:miter;stroke-opacity:1" d="M 168.118,532.824 182.706,545.588 z" id="boundary" inkscape:connector-curvature="0" />
	<path style="fill:none;stroke:red;stroke-width:1px;stroke-linecap:butt;stroke-linejoin:miter;stroke-opacity:1" d="M 182.706,545.588 190,563.824 z" id="boundary" inkscape:connector-curvature="0" />
	<path style="fill:none;stroke:red;stroke-width:1px;stroke-linecap:butt;stroke-linejoin:miter;stroke-opacity:1" d="M 208.235,571.118 190,563.824 z" id="boundary" inkscape:connector-curvature="0" />
	<path style="fill:none;stroke:red;stroke-width:1px;stroke-linecap:butt;stroke-linejoin:miter;stroke-opacity:1" d="M 239.235,593 222.824,583.882 z" id="boundary" inkscape:connector-curvature="0" />
	<path style="fill:none;stroke:red;stroke-width:1px;stroke-linecap:butt;stroke-linejoin:miter;stroke-opacity:1" d="M 222.824,583.882 208.235,571.118 z" id="boundary" inkscape:connector-curvature="0" />
	<path style="fill:none;stroke:red;stroke-width:1px;stroke-linecap:butt;stroke-linejoin:miter;stroke-opacity:1" d="M 239.235,593 252,607.588 z" id="boundary" inkscape:connector-curvature="0" />
	<path style="fill:none;stroke:red;stroke-width:1px;stroke-linecap:butt;stroke-linejoin:miter;stroke-opacity:1" d="M 252,607.588 266.588,620.353 z" id="boundary" inkscape:connector-curvature="0" />
	<path style="fill:none;stroke:red;stroke-width:1px;stroke-linecap:butt;stroke-linejoin:miter;stroke-opacity:1" d="M 283,629.471 266.588,620.353 z" id="boundary" inkscape:connector-curvature="0" />
	<path style="fill:none;stroke:red;stroke-width:1px;stroke-linecap:butt;stroke-linejoin:miter;stroke-opacity:1" d="M 319.471,638.588 301.235,636.765 z" id="boundary" inkscape:connector-curvature="0" />
	<path style="fill:none;stroke:red;stroke-width:1px;stroke-linecap:butt;stroke-linejoin:miter;stroke-opacity:1" d="M 301.235,636.765 283,629.471 z" id="boundary" inkscape:connector-curvature="0" />
	<path style="fill:none;stroke:red;stroke-width:1px;stroke-linecap:butt;stroke-linejoin:miter;stroke-opacity:1" d="M 355.941,647.706 337.706,645.882 z" id="boundary" inkscape:connector-curvature="0" />
	<path style="fill:none;stroke:red;stroke-width:1px;stroke-linecap:butt;stroke-linejoin:miter;stroke-opacity:1" d="M 337.706,645.882 319.471,638.588 z" id="boundary" inkscape:connector-curvature="0" />
	<path style="fill:none;stroke:red;stroke-width:1px;stroke-linecap:butt;stroke-linejoin:miter;stroke-opacity:1" d="M 359.588,665.941 355.941,647.706 z" id="boundary" inkscape:connector-curvature="0" />
	<path style="fill:none;stroke:red;stroke-width:1px;stroke-linecap:butt;stroke-linejoin:miter;stroke-opacity:1" d="M 359.588,665.941 355.941,691.471 z" id="boundary" inkscape:connector-curvature="0" />
	<path style="fill:none;stroke:red;stroke-width:1px;stroke-linecap:butt;stroke-linejoin:miter;stroke-opacity:1" d="M 355.941,691.471 337.706,700.588 z" id="boundary" inkscape:connector-curvature="0" />
	<path style="fill:none;stroke:red;stroke-width:1px;stroke-linecap:butt;stroke-linejoin:miter;stroke-opacity:1" d="M 337.706,700.588 319.471,709.706 z" id="boundary" inkscape:connector-curvature="0" />
	<path style="fill:none;stroke:red;stroke-width:1px;stroke-linecap:butt;stroke-linejoin:miter;stroke-opacity:1" d="M 283,755.294 268.412,742.529 z" id="boundary" inkscape:connector-curvature="0" />
	<path style="fill:none;stroke:red;stroke-width:1px;stroke-linecap:butt;stroke-linejoin:miter;stroke-opacity:1" d="M 268.412,742.529 268.412,724.294 z" id="boundary" inkscape:connector-curvature="0" />
	<path style="fill:none;stroke:red;stroke-width:1px;stroke-linecap:butt;stroke-linejoin:miter;stroke-opacity:1" d="M 288.471,729.765 306.706,729.765 z" id="boundary" inkscape:connector-curvature="0" />
	<path style="fill:none;stroke:red;stroke-width:1px;stroke-linecap:butt;stroke-linejoin:miter;stroke-opacity:1" d="M 283,709.706 301.235,709.706 z" id="boundary" inkscape:connector-curvature="0" />
	<path style="fill:none;stroke:red;stroke-width:1px;stroke-linecap:butt;stroke-linejoin:miter;stroke-opacity:1" d="M 301.235,709.706 319.471,709.706 z" id="boundary" inkscape:connector-curvature="0" />
	<path style="fill:none;stroke:red;stroke-width:1px;stroke-linecap:butt;stroke-linejoin:miter;stroke-opacity:1" d="M 324.941,733.412 306.706,729.765 z" id="boundary" inkscape:connector-curvature="0" />
	<path style="fill:none;stroke:red;stroke-width:1px;stroke-linecap:butt;stroke-linejoin:miter;stroke-opacity:1" d="M 343.176,738.882 324.941,733.412 z" id="boundary" inkscape:connector-curvature="0" />
	<path style="fill:none;stroke:red;stroke-width:1px;stroke-linecap:butt;stroke-linejoin:miter;stroke-opacity:1" d="M 343.176,738.882 361.412,738.882 z" id="boundary" inkscape:connector-curvature="0" />
	<path style="fill:none;stroke:red;stroke-width:1px;stroke-linecap:butt;stroke-linejoin:miter;stroke-opacity:1" d="M 355.941,272.059 368.706,286.647 z" id="boundary" inkscape:connector-curvature="0" />
	<path style="fill:none;stroke:red;stroke-width:1px;stroke-linecap:butt;stroke-linejoin:miter;stroke-opacity:1" d="M 368.706,286.647 386.941,293.941 z" id="boundary" inkscape:connector-curvature="0" />
	<path style="fill:none;stroke:red;stroke-width:1px;stroke-linecap:butt;stroke-linejoin:miter;stroke-opacity:1" d="M 386.941,293.941 403.353,303.059 z" id="boundary" inkscape:connector-curvature="0" />
	<path style="fill:none;stroke:red;stroke-width:1px;stroke-linecap:butt;stroke-linejoin:miter;stroke-opacity:1" d="M 421.588,310.353 403.353,303.059 z" id="boundary" inkscape:connector-curvature="0" />
	<path style="fill:none;stroke:red;stroke-width:1px;stroke-linecap:butt;stroke-linejoin:miter;stroke-opacity:1" d="M 421.588,310.353 439.824,317.647 z" id="boundary" inkscape:connector-curvature="0" />
	<path style="fill:none;stroke:red;stroke-width:1px;stroke-linecap:butt;stroke-linejoin:miter;stroke-opacity:1" d="M 439.824,317.647 456.235,326.765 z" id="boundary" inkscape:connector-curvature="0" />
	<path style="fill:none;stroke:red;stroke-width:1px;stroke-linecap:butt;stroke-linejoin:miter;stroke-opacity:1" d="M 456.235,326.765 472.647,335.882 z" id="boundary" inkscape:connector-curvature="0" />
	<path style="fill:none;stroke:red;stroke-width:1px;stroke-linecap:butt;stroke-linejoin:miter;stroke-opacity:1" d="M 490.882,337.706 472.647,335.882 z" id="boundary" inkscape:connector-curvature="0" />
	<path style="fill:none;stroke:red;stroke-width:1px;stroke-linecap:butt;stroke-linejoin:miter;stroke-opacity:1" d="M 509.118,345 525.529,354.118 z" id="boundary" inkscape:connector-curvature="0" />
	<path style="fill:none;stroke:red;stroke-width:1px;stroke-linecap:butt;stroke-linejoin:miter;stroke-opacity:1" d="M 509.118,345 490.882,337.706 z" id="boundary" inkscape:connector-curvature="0" />
	<path style="fill:none;stroke:red;stroke-width:1px;stroke-linecap:butt;stroke-linejoin:miter;stroke-opacity:1" d="M 525.529,354.118 541.941,363.235 z" id="boundary" inkscape:connector-curvature="0" />
	<path style="fill:none;stroke:red;stroke-width:1px;stroke-linecap:butt;stroke-linejoin:miter;stroke-opacity:1" d="M 558.353,372.353 541.941,363.235 z" id="boundary" inkscape:connector-curvature="0" />
	<path style="fill:none;stroke:red;stroke-width:1px;stroke-linecap:butt;stroke-linejoin:miter;stroke-opacity:1" d="M 609.412,390.588 591.176,390.588 z" id="boundary" inkscape:connector-curvature="0" />
	<path style="fill:none;stroke:red;stroke-width:1px;stroke-linecap:butt;stroke-linejoin:miter;stroke-opacity:1" d="M 591.176,390.588 574.765,381.471 z" id="boundary" inkscape:connector-curvature="0" />
	<path style="fill:none;stroke:red;stroke-width:1px;stroke-linecap:butt;stroke-linejoin:miter;stroke-opacity:1" d="M 574.765,381.471 558.353,372.353 z" id="boundary" inkscape:connector-curvature="0" />
	<path style="fill:none;stroke:red;stroke-width:1px;stroke-linecap:butt;stroke-linejoin:miter;stroke-opacity:1" d="M 609.412,390.588 625.824,399.706 z" id="boundary" inkscape:connector-curvature="0" />
	<path style="fill:none;stroke:red;stroke-width:1px;stroke-linecap:butt;stroke-linejoin:miter;stroke-opacity:1" d="M 625.824,399.706 644.059,405.176 z" id="boundary" inkscape:connector-curvature="0" />
	<path style="fill:none;stroke:red;stroke-width:1px;stroke-linecap:butt;stroke-linejoin:miter;stroke-opacity:1" d="M 644.059,405.176 658.647,417.941 z" id="boundary" inkscape:connector-curvature="0" />
	<path style="fill:none;stroke:red;stroke-width:1px;stroke-linecap:butt;stroke-linejoin:miter;stroke-opacity:1" d="M 676.882,417.941 658.647,417.941 z" id="boundary" inkscape:connector-curvature="0" />
	<path style="fill:none;stroke:red;stroke-width:1px;stroke-linecap:butt;stroke-linejoin:miter;stroke-opacity:1" d="M 711.529,427.059 693.294,427.059 z" id="boundary" inkscape:connector-curvature="0" />
	<path style="fill:none;stroke:red;stroke-width:1px;stroke-linecap:butt;stroke-linejoin:miter;stroke-opacity:1" d="M 693.294,427.059 676.882,417.941 z" id="boundary" inkscape:connector-curvature="0" />
	<path style="fill:none;stroke:red;stroke-width:1px;stroke-linecap:butt;stroke-linejoin:miter;stroke-opacity:1" d="M 729.765,427.059 711.529,427.059 z" id="boundary" inkscape:connector-curvature="0" />
	<path style="fill:none;stroke:red;stroke-width:1px;stroke-linecap:butt;stroke-linejoin:miter;stroke-opacity:1" d="M 729.765,427.059 748,427.059 z" id="boundary" inkscape:connector-curvature="0" />
	<path style="fill:none;stroke:red;stroke-width:1px;stroke-linecap:butt;stroke-linejoin:miter;stroke-opacity:1" d="M 800.882,436.176 782.647,436.176 z" id="boundary" inkscape:connector-curvature="0" />
	<path style="fill:none;stroke:red;stroke-width:1px;stroke-linecap:butt;stroke-linejoin:miter;stroke-opacity:1" d="M 782.647,436.176 766.235,427.059 z" id="boundary" inkscape:connector-curvature="0" />
	<path style="fill:none;stroke:red;stroke-width:1px;stroke-linecap:butt;stroke-linejoin:miter;stroke-opacity:1" d="M 819.118,436.176 800.882,436.176 z" id="boundary" inkscape:connector-curvature="0" />
	<path style="fill:none;stroke:red;stroke-width:1px;stroke-linecap:butt;stroke-linejoin:miter;stroke-opacity:1" d="M 748,427.059 766.235,427.059 z" id="boundary" inkscape:connector-curvature="0" />
	<path style="fill:none;stroke:red;stroke-width:1px;stroke-linecap:butt;stroke-linejoin:miter;stroke-opacity:1" d="M 819.118,436.176 837.353,436.176 z" id="boundary" inkscape:connector-curvature="0" />
	<path style="fill:none;stroke:red;stroke-width:1px;stroke-linecap:butt;stroke-linejoin:miter;stroke-opacity:1" d="M 855.588,436.176 837.353,436.176 z" id="boundary" inkscape:connector-curvature="0" />
	<path style="fill:none;stroke:red;stroke-width:1px;stroke-linecap:butt;stroke-linejoin:miter;stroke-opacity:1" d="M 873.824,436.176 892.059,436.176 z" id="boundary" inkscape:connector-curvature="0" />
	<path style="fill:none;stroke:red;stroke-width:1px;stroke-linecap:butt;stroke-linejoin:miter;stroke-opacity:1" d="M 892.059,436.176 910.294,436.176 z" id="boundary" inkscape:connector-curvature="0" />
	<path style="fill:none;stroke:red;stroke-width:1px;stroke-linecap:butt;stroke-linejoin:miter;stroke-opacity:1" d="M 910.294,436.176 926.706,445.294 z" id="boundary" inkscape:connector-curvature="0" />
	<path style="fill:none;stroke:red;stroke-width:1px;stroke-linecap:butt;stroke-linejoin:miter;stroke-opacity:1" d="M 873.824,436.176 855.588,436.176 z" id="boundary" inkscape:connector-curvature="0" />
	<path style="fill:none;stroke:red;stroke-width:1px;stroke-linecap:butt;stroke-linejoin:miter;stroke-opacity:1" d="M 926.706,445.294 944.941,441.647 z" id="boundary" inkscape:connector-curvature="0" />
	<path style="fill:none;stroke:red;stroke-width:1px;stroke-linecap:butt;stroke-linejoin:miter;stroke-opacity:1" d="M 944.941,441.647 959.529,452.588 z" id="boundary" inkscape:connector-curvature="0" />
	<path style="fill:none;stroke:red;stroke-width:1px;stroke-linecap:butt;stroke-linejoin:miter;stroke-opacity:1" d="M 977.765,483.588 963.176,472.647 z" id="boundary" inkscape:connector-curvature="0" />
	<path style="fill:none;stroke:red;stroke-width:1px;stroke-linecap:butt;stroke-linejoin:miter;stroke-opacity:1" d="M 977.765,483.588 981.412,501.824 z" id="boundary" inkscape:connector-curvature="0" />
	<path style="fill:none;stroke:red;stroke-width:1px;stroke-linecap:butt;stroke-linejoin:miter;stroke-opacity:1" d="M 981.412,501.824 963.176,501.824 z" id="boundary" inkscape:connector-curvature="0" />
	<path style="fill:none;stroke:red;stroke-width:1px;stroke-linecap:butt;stroke-linejoin:miter;stroke-opacity:1" d="M 996,563.824 990.529,545.588 z" id="boundary" inkscape:connector-curvature="0" />
	<path style="fill:none;stroke:red;stroke-width:1px;stroke-linecap:butt;stroke-linejoin:miter;stroke-opacity:1" d="M 966.824,520.059 963.176,501.824 z" id="boundary" inkscape:connector-curvature="0" />
	<path style="fill:none;stroke:red;stroke-width:1px;stroke-linecap:butt;stroke-linejoin:miter;stroke-opacity:1" d="M 966.824,520.059 985.059,527.353 z" id="boundary" inkscape:connector-curvature="0" />
	<path style="fill:none;stroke:red;stroke-width:1px;stroke-linecap:butt;stroke-linejoin:miter;stroke-opacity:1" d="M 985.059,527.353 990.529,545.588 z" id="boundary" inkscape:connector-curvature="0" />
	<path style="fill:none;stroke:red;stroke-width:1px;stroke-linecap:butt;stroke-linejoin:miter;stroke-opacity:1" d="M 549.235,625.824 567.471,625.824 z" id="boundary" inkscape:connector-curvature="0" />
	<path style="fill:none;stroke:red;stroke-width:1px;stroke-linecap:butt;stroke-linejoin:miter;stroke-opacity:1" d="M 534.647,638.588 549.235,625.824 z" id="boundary" inkscape:connector-curvature="0" />
	<path style="fill:none;stroke:red;stroke-width:1px;stroke-linecap:butt;stroke-linejoin:miter;stroke-opacity:1" d="M 578.412,611.235 567.471,625.824 z" id="boundary" inkscape:connector-curvature="0" />
	<path style="fill:none;stroke:red;stroke-width:1px;stroke-linecap:butt;stroke-linejoin:miter;stroke-opacity:1" d="M 534.647,638.588 518.235,647.706 z" id="boundary" inkscape:connector-curvature="0" />
	<path style="fill:none;stroke:red;stroke-width:1px;stroke-linecap:butt;stroke-linejoin:miter;stroke-opacity:1" d="M 518.235,647.706 500,647.706 z" id="boundary" inkscape:connector-curvature="0" />
	<path style="fill:none;stroke:red;stroke-width:1px;stroke-linecap:butt;stroke-linejoin:miter;stroke-opacity:1" d="M 611.235,591.176 629.471,582.059 z" id="boundary" inkscape:connector-curvature="0" />
	<path style="fill:none;stroke:red;stroke-width:1px;stroke-linecap:butt;stroke-linejoin:miter;stroke-opacity:1" d="M 594.824,602.118 578.412,611.235 z" id="boundary" inkscape:connector-curvature="0" />
	<path style="fill:none;stroke:red;stroke-width:1px;stroke-linecap:butt;stroke-linejoin:miter;stroke-opacity:1" d="M 594.824,602.118 611.235,591.176 z" id="boundary" inkscape:connector-curvature="0" />
	<path style="fill:none;stroke:red;stroke-width:1px;stroke-linecap:butt;stroke-linejoin:miter;stroke-opacity:1" d="M 430.706,647.706 412.471,653.176 z" id="boundary" inkscape:connector-curvature="0" />
	<path style="fill:none;stroke:red;stroke-width:1px;stroke-linecap:butt;stroke-linejoin:miter;stroke-opacity:1" d="M 388.765,711.529 388.765,684.176 z" id="boundary" inkscape:connector-curvature="0" />
	<path style="fill:none;stroke:red;stroke-width:1px;stroke-linecap:butt;stroke-linejoin:miter;stroke-opacity:1" d="M 397.882,665.941 388.765,684.176 z" id="boundary" inkscape:connector-curvature="0" />
	<path style="fill:none;stroke:red;stroke-width:1px;stroke-linecap:butt;stroke-linejoin:miter;stroke-opacity:1" d="M 388.765,711.529 397.882,727.941 z" id="boundary" inkscape:connector-curvature="0" />
	<path style="fill:none;stroke:red;stroke-width:1px;stroke-linecap:butt;stroke-linejoin:miter;stroke-opacity:1" d="M 379.647,738.882 361.412,738.882 z" id="boundary" inkscape:connector-curvature="0" />
	<path style="fill:none;stroke:red;stroke-width:1px;stroke-linecap:butt;stroke-linejoin:miter;stroke-opacity:1" d="M 397.882,727.941 399.706,746.176 z" id="boundary" inkscape:connector-curvature="0" />
	<path style="fill:none;stroke:red;stroke-width:1px;stroke-linecap:butt;stroke-linejoin:miter;stroke-opacity:1" d="M 430.706,647.706 447.118,656.824 z" id="boundary" inkscape:connector-curvature="0" />
	<path style="fill:none;stroke:red;stroke-width:1px;stroke-linecap:butt;stroke-linejoin:miter;stroke-opacity:1" d="M 483.588,656.824 500,647.706 z" id="boundary" inkscape:connector-curvature="0" />
	<path style="fill:none;stroke:red;stroke-width:1px;stroke-linecap:butt;stroke-linejoin:miter;stroke-opacity:1" d="M 465.353,656.824 447.118,656.824 z" id="boundary" inkscape:connector-curvature="0" />
	<path style="fill:none;stroke:red;stroke-width:1px;stroke-linecap:butt;stroke-linejoin:miter;stroke-opacity:1" d="M 465.353,656.824 483.588,656.824 z" id="boundary" inkscape:connector-curvature="0" />
	<path style="fill:none;stroke:red;stroke-width:1px;stroke-linecap:butt;stroke-linejoin:miter;stroke-opacity:1" d="M 397.882,665.941 412.471,653.176 z" id="boundary" inkscape:connector-curvature="0" />
	<path style="fill:none;stroke:red;stroke-width:1px;stroke-linecap:butt;stroke-linejoin:miter;stroke-opacity:1" d="M 629.471,582.059 647.706,574.765 z" id="boundary" inkscape:connector-curvature="0" />
	<path style="fill:none;stroke:red;stroke-width:1px;stroke-linecap:butt;stroke-linejoin:miter;stroke-opacity:1" d="M 647.706,574.765 665.941,574.765 z" id="boundary" inkscape:connector-curvature="0" />
	<path style="fill:none;stroke:red;stroke-width:1px;stroke-linecap:butt;stroke-linejoin:miter;stroke-opacity:1" d="M 684.176,574.765 665.941,574.765 z" id="boundary" inkscape:connector-curvature="0" />
	<path style="fill:none;stroke:red;stroke-width:1px;stroke-linecap:butt;stroke-linejoin:miter;stroke-opacity:1" d="M 702.412,574.765 720.647,574.765 z" id="boundary" inkscape:connector-curvature="0" />
	<path style="fill:none;stroke:red;stroke-width:1px;stroke-linecap:butt;stroke-linejoin:miter;stroke-opacity:1" d="M 720.647,574.765 737.059,583.882 z" id="boundary" inkscape:connector-curvature="0" />
	<path style="fill:none;stroke:red;stroke-width:1px;stroke-linecap:butt;stroke-linejoin:miter;stroke-opacity:1" d="M 684.176,574.765 702.412,574.765 z" id="boundary" inkscape:connector-curvature="0" />
	<path style="fill:none;stroke:red;stroke-width:1px;stroke-linecap:butt;stroke-linejoin:miter;stroke-opacity:1" d="M 737.059,583.882 755.294,589.353 z" id="boundary" inkscape:connector-curvature="0" />
	<path style="fill:none;stroke:red;stroke-width:1px;stroke-linecap:butt;stroke-linejoin:miter;stroke-opacity:1" d="M 773.529,593 755.294,589.353 z" id="boundary" inkscape:connector-curvature="0" />
	<path style="fill:none;stroke:red;stroke-width:1px;stroke-linecap:butt;stroke-linejoin:miter;stroke-opacity:1" d="M 981.412,574.765 996,563.824 z" id="boundary" inkscape:connector-curvature="0" />
	<path style="fill:none;stroke:red;stroke-width:1px;stroke-linecap:butt;stroke-linejoin:miter;stroke-opacity:1" d="M 968.647,616.706 972.294,591.176 z" id="boundary" inkscape:connector-curvature="0" />
	<path style="fill:none;stroke:red;stroke-width:1px;stroke-linecap:butt;stroke-linejoin:miter;stroke-opacity:1" d="M 773.529,593 789.941,602.118 z" id="boundary" inkscape:connector-curvature="0" />
	<path style="fill:none;stroke:red;stroke-width:1px;stroke-linecap:butt;stroke-linejoin:miter;stroke-opacity:1" d="M 789.941,602.118 808.176,605.765 z" id="boundary" inkscape:connector-curvature="0" />
	<path style="fill:none;stroke:red;stroke-width:1px;stroke-linecap:butt;stroke-linejoin:miter;stroke-opacity:1" d="M 808.176,605.765 824.588,614.882 z" id="boundary" inkscape:connector-curvature="0" />
	<path style="fill:none;stroke:red;stroke-width:1px;stroke-linecap:butt;stroke-linejoin:miter;stroke-opacity:1" d="M 861.059,620.353 842.824,620.353 z" id="boundary" inkscape:connector-curvature="0" />
	<path style="fill:none;stroke:red;stroke-width:1px;stroke-linecap:butt;stroke-linejoin:miter;stroke-opacity:1" d="M 842.824,620.353 824.588,614.882 z" id="boundary" inkscape:connector-curvature="0" />
	<path style="fill:none;stroke:red;stroke-width:1px;stroke-linecap:butt;stroke-linejoin:miter;stroke-opacity:1" d="M 932.176,625.824 913.941,629.471 z" id="boundary" inkscape:connector-curvature="0" />
	<path style="fill:none;stroke:red;stroke-width:1px;stroke-linecap:butt;stroke-linejoin:miter;stroke-opacity:1" d="M 879.294,620.353 861.059,620.353 z" id="boundary" inkscape:connector-curvature="0" />
	<path style="fill:none;stroke:red;stroke-width:1px;stroke-linecap:butt;stroke-linejoin:miter;stroke-opacity:1" d="M 950.412,625.824 932.176,625.824 z" id="boundary" inkscape:connector-curvature="0" />
	<path style="fill:none;stroke:red;stroke-width:1px;stroke-linecap:butt;stroke-linejoin:miter;stroke-opacity:1" d="M 913.941,629.471 895.706,629.471 z" id="boundary" inkscape:connector-curvature="0" />
	<path style="fill:none;stroke:red;stroke-width:1px;stroke-linecap:butt;stroke-linejoin:miter;stroke-opacity:1" d="M 895.706,629.471 879.294,620.353 z" id="boundary" inkscape:connector-curvature="0" />
	<path style="fill:none;stroke:red;stroke-width:1px;stroke-linecap:butt;stroke-linejoin:miter;stroke-opacity:1" d="M 968.647,616.706 950.412,625.824 z" id="boundary" inkscape:connector-curvature="0" />
	<circle cx="4" cy="113.412" r="4" fill="#0" id="circle0"/>
	<circle cx="4" cy="131.647" r="4" fill="#0" id="circle1"/>
	<circle cx="13.1176" cy="86.0588" r="4" fill="#0" id="circle2"/>
	<circle cx="18.5882" cy="144.412" r="4" fill="#0" id="circle3"/>
	<circle cx="27.7059" cy="71.4706" r="4" fill="#0" id="circle4"/>
	<circle cx="36.8235" cy="144.412" r="4" fill="#0" id="circle5"/>
	<circle cx="45.9412" cy="62.3529" r="4" fill="#0" id="circle6"/>
	<circle cx="55.0588" cy="135.294" r="4" fill="#0" id="circle7"/>
	<circle cx="60.5294" cy="47.7647" r="4" fill="#0" id="circle8"/>
	<circle cx="73.2941" cy="126.176" r="4" fill="#0" id="circle9"/>
	<circle cx="75.1176" cy="35" r="4" fill="#0" id="circle10"/>
	<circle cx="91.5294" cy="25.8824" r="4" fill="#0" id="circle11"/>
	<circle cx="91.5294" cy="126.176" r="4" fill="#0" id="circle12"/>
	<circle cx="95.1765" cy="295.765" r="4" fill="#0" id="circle13"/>
	<circle cx="95.1765" cy="314" r="4" fill="#0" id="circle14"/>
	<circle cx="95.1765" cy="332.235" r="4" fill="#0" id="circle15"/>
	<circle cx="95.1765" cy="350.471" r="4" fill="#0" id="circle16"/>
	<circle cx="95.1765" cy="368.706" r="4" fill="#0" id="circle17"/>
	<circle cx="95.1765" cy="386.941" r="4" fill="#0" id="circle18"/>
	<circle cx="95.1765" cy="405.176" r="4" fill="#0" id="circle19"/>
	<circle cx="104.294" cy="250.176" r="4" fill="#0" id="circle20"/>
	<circle cx="104.294" cy="268.412" r="4" fill="#0" id="circle21"/>
	<circle cx="104.294" cy="421.588" r="4" fill="#0" id="circle22"/>
	<circle cx="104.294" cy="439.824" r="4" fill="#0" id="circle23"/>
	<circle cx="106.118" cy="11.2941" r="4" fill="#0" id="circle24"/>
	<circle cx="109.765" cy="126.176" r="4" fill="#0" id="circle25"/>
	<circle cx="113.412" cy="213.706" r="4" fill="#0" id="circle26"/>
	<circle cx="113.412" cy="231.941" r="4" fill="#0" id="circle27"/>
	<circle cx="113.412" cy="456.235" r="4" fill="#0" id="circle28"/>
	<circle cx="122.529" cy="140.765" r="4" fill="#0" id="circle29"/>
	<circle cx="122.529" cy="159" r="4" fill="#0" id="circle30"/>
	<circle cx="122.529" cy="177.235" r="4" fill="#0" id="circle31"/>
	<circle cx="122.529" cy="195.471" r="4" fill="#0" id="circle32"/>
	<circle cx="122.529" cy="472.647" r="4" fill="#0" id="circle33"/>
	<circle cx="124.353" cy="7.64706" r="4" fill="#0" id="circle34"/>
	<circle cx="131.647" cy="489.059" r="4" fill="#0" id="circle35"/>
	<circle cx="140.765" cy="505.471" r="4" fill="#0" id="circle36"/>
	<circle cx="142.588" cy="4" r="4" fill="#0" id="circle37"/>
	<circle cx="155.353" cy="518.235" r="4" fill="#0" id="circle38"/>
	<circle cx="160.824" cy="4" r="4" fill="#0" id="circle39"/>
	<circle cx="168.118" cy="532.824" r="4" fill="#0" id="circle40"/>
	<circle cx="179.059" cy="4" r="4" fill="#0" id="circle41"/>
	<circle cx="182.706" cy="545.588" r="4" fill="#0" id="circle42"/>
	<circle cx="190" cy="563.824" r="4" fill="#0" id="circle43"/>
	<circle cx="197.294" cy="7.64706" r="4" fill="#0" id="circle44"/>
	<circle cx="208.235" cy="571.118" r="4" fill="#0" id="circle45"/>
	<circle cx="213.706" cy="16.7647" r="4" fill="#0" id="circle46"/>
	<circle cx="222.824" cy="583.882" r="4" fill="#0" id="circle47"/>
	<circle cx="228.294" cy="27.7059" r="4" fill="#0" id="circle48"/>
	<circle cx="239.235" cy="593" r="4" fill="#0" id="circle49"/>
	<circle cx="242.882" cy="40.4706" r="4" fill="#0" id="circle50"/>
	<circle cx="250.176" cy="58.7059" r="4" fill="#0" id="circle51"/>
	<circle cx="252" cy="607.588" r="4" fill="#0" id="circle52"/>
	<circle cx="261.118" cy="73.2941" r="4" fill="#0" id="circle53"/>
	<circle cx="264.765" cy="91.5294" r="4" fill="#0" id="circle54"/>
	<circle cx="266.588" cy="620.353" r="4" fill="#0" id="circle55"/>
	<circle cx="268.412" cy="724.294" r="4" fill="#0" id="circle56"/>
	<circle cx="268.412" cy="742.529" r="4" fill="#0" id="circle57"/>
	<circle cx="270.235" cy="109.765" r="4" fill="#0" id="circle58"/>
	<circle cx="270.235" cy="128" r="4" fill="#0" id="circle59"/>
	<circle cx="270.235" cy="155.353" r="4" fill="#0" id="circle60"/>
	<circle cx="279.353" cy="171.765" r="4" fill="#0" id="circle61"/>
	<circle cx="279.353" cy="190" r="4" fill="#0" id="circle62"/>
	<circle cx="283" cy="629.471" r="4" fill="#0" id="circle63"/>
	<circle cx="283" cy="709.706" r="4" fill="#0" id="circle64"/>
	<circle cx="283" cy="755.294" r="4" fill="#0" id="circle65"/>
	<circle cx="288.471" cy="206.412" r="4" fill="#0" id="circle66"/>
	<circle cx="288.471" cy="729.765" r="4" fill="#0" id="circle67"/>
	<circle cx="297.588" cy="222.824" r="4" fill="#0" id="circle68"/>
	<circle cx="301.235" cy="636.765" r="4" fill="#0" id="circle69"/>
	<circle cx="301.235" cy="709.706" r="4" fill="#0" id="circle70"/>
	<circle cx="306.706" cy="729.765" r="4" fill="#0" id="circle71"/>
	<circle cx="310.353" cy="237.412" r="4" fill="#0" id="circle72"/>
	<circle cx="319.471" cy="638.588" r="4" fill="#0" id="circle73"/>
	<circle cx="319.471" cy="709.706" r="4" fill="#0" id="circle74"/>
	<circle cx="324.941" cy="250.176" r="4" fill="#0" id="circle75"/>
	<circle cx="324.941" cy="733.412" r="4" fill="#0" id="circle76"/>
	<circle cx="337.706" cy="264.765" r="4" fill="#0" id="circle77"/>
	<circle cx="337.706" cy="645.882" r="4" fill="#0" id="circle78"/>
	<circle cx="337.706" cy="700.588" r="4" fill="#0" id="circle79"/>
	<circle cx="343.176" cy="738.882" r="4" fill="#0" id="circle80"/>
	<circle cx="355.941" cy="272.059" r="4" fill="#0" id="circle81"/>
	<circle cx="355.941" cy="647.706" r="4" fill="#0" id="circle82"/>
	<circle cx="355.941" cy="691.471" r="4" fill="#0" id="circle83"/>
	<circle cx="359.588" cy="665.941" r="4" fill="#0" id="circle84"/>
	<circle cx="361.412" cy="738.882" r="4" fill="#0" id="circle85"/>
	<circle cx="368.706" cy="286.647" r="4" fill="#0" id="circle86"/>
	<circle cx="379.647" cy="738.882" r="4" fill="#0" id="circle87"/>
	<circle cx="386.941" cy="293.941" r="4" fill="#0" id="circle88"/>
	<circle cx="388.765" cy="684.176" r="4" fill="#0" id="circle89"/>
	<circle cx="388.765" cy="711.529" r="4" fill="#0" id="circle90"/>
	<circle cx="397.882" cy="665.941" r="4" fill="#0" id="circle91"/>
	<circle cx="397.882" cy="727.941" r="4" fill="#0" id="circle92"/>
	<circle cx="399.706" cy="746.176" r="4" fill="#0" id="circle93"/>
	<circle cx="403.353" cy="303.059" r="4" fill="#0" id="circle94"/>
	<circle cx="412.471" cy="653.176" r="4" fill="#0" id="circle95"/>
	<circle cx="421.588" cy="310.353" r="4" fill="#0" id="circle96"/>
	<circle cx="430.706" cy="647.706" r="4" fill="#0" id="circle97"/>
	<circle cx="439.824" cy="317.647" r="4" fill="#0" id="circle98"/>
	<circle cx="447.118" cy="656.824" r="4" fill="#0" id="circle99"/>
	<circle cx="456.235" cy="326.765" r="4" fill="#0" id="circle100"/>
	<circle cx="465.353" cy="656.824" r="4" fill="#0" id="circle101"/>
	<circle cx="472.647" cy="335.882" r="4" fill="#0" id="circle102"/>
	<circle cx="483.588" cy="656.824" r="4" fill="#0" id="circle103"/>
	<circle cx="490.882" cy="337.706" r="4" fill="#0" id="circle104"/>
	<circle cx="500" cy="647.706" r="4" fill="#0" id="circle105"/>
	<circle cx="509.118" cy="345" r="4" fill="#0" id="circle106"/>
	<circle cx="518.235" cy="647.706" r="4" fill="#0" id="circle107"/>
	<circle cx="525.529" cy="354.118" r="4" fill="#0" id="circle108"/>
	<circle cx="534.647" cy="638.588" r="4" fill="#0" id="circle109"/>
	<circle cx="541.941" cy="363.235" r="4" fill="#0" id="circle110"/>
	<circle cx="549.235" cy="625.824" r="4" fill="#0" id="circle111"/>
	<circle cx="558.353" cy="372.353" r="4" fill="#0" id="circle112"/>
	<circle cx="567.471" cy="625.824" r="4" fill="#0" id="circle113"/>
	<circle cx="574.765" cy="381.471" r="4" fill="#0" id="circle114"/>
	<circle cx="578.412" cy="611.235" r="4" fill="#0" id="circle115"/>
	<circle cx="591.176" cy="390.588" r="4" fill="#0" id="circle116"/>
	<circle cx="594.824" cy="602.118" r="4" fill="#0" id="circle117"/>
	<circle cx="609.412" cy="390.588" r="4" fill="#0" id="circle118"/>
	<circle cx="611.235" cy="591.176" r="4" fill="#0" id="circle119"/>
	<circle cx="625.824" cy="399.706" r="4" fill="#0" id="circle120"/>
	<circle cx="629.471" cy="582.059" r="4" fill="#0" id="circle121"/>
	<circle cx="644.059" cy="405.176" r="4" fill="#0" id="circle122"/>
	<circle cx="647.706" cy="574.765" r="4" fill="#0" id="circle123"/>
	<circle cx="658.647" cy="417.941" r="4" fill="#0" id="circle124"/>
	<circle cx="665.941" cy="574.765" r="4" fill="#0" id="circle125"/>
	<circle cx="676.882" cy="417.941" r="4" fill="#0" id="circle126"/>
	<circle cx="684.176" cy="574.765" r="4" fill="#0" id="circle127"/>
	<circle cx="693.294" cy="427.059" r="4" fill="#0" id="circle128"/>
	<circle cx="702.412" cy="574.765" r="4" fill="#0" id="circle129"/>
	<circle cx="711.529" cy="427.059" r="4" fill="#0" id="circle130"/>
	<circle cx="720.647" cy="574.765" r="4" fill="#0" id="circle131"/>
	<circle cx="729.765" cy="427.059" r="4" fill="#0" id="circle132"/>
	<circle cx="737.059" cy="583.882" r="4" fill="#0" id="circle133"/>
	<circle cx="748" cy="427.059" r="4" fill="#0" id="circle134"/>
	<circle cx="755.294" cy="589.353" r="4" fill="#0" id="circle135"/>
	<circle cx="766.235" cy="427.059" r="4" fill="#0" id="circle136"/>
	<circle cx="773.529" cy="593" r="4" fill="#0" id="circle137"/>
	<circle cx="782.647" cy="436.176" r="4" fill="#0" id="circle138"/>
	<circle cx="789.941" cy="602.118" r="4" fill="#0" id="circle139"/>
	<circle cx="800.882" cy="436.176" r="4" fill="#0" id="circle140"/>
	<circle cx="808.176" cy="605.765" r="4" fill="#0" id="circle141"/>
	<circle cx="819.118" cy="436.176" r="4" fill="#0" id="circle142"/>
	<circle cx="824.588" cy="614.882" r="4" fill="#0" id="circle143"/>
	<circle cx="837.353" cy="436.176" r="4" fill="#0" id="circle144"/>
	<circle cx="842.824" cy="620.353" r="4" fill="#0" id="circle145"/>
	<circle cx="855.588" cy="436.176" r="4" fill="#0" id="circle146"/>
	<circle cx="861.059" cy="620.353" r="4" fill="#0" id="circle147"/>
	<circle cx="873.824" cy="436.176" r="4" fill="#0" id="circle148"/>
	<circle cx="879.294" cy="620.353" r="4" fill="#0" id="circle149"/>
	<circle cx="892.059" cy="436.176" r="4" fill="#0" id="circle150"/>
	<circle cx="895.706" cy="629.471" r="4" fill="#0" id="circle151"/>
	<circle cx="910.294" cy="436.176" r="4" fill="#0" id="circle152"/>
	<circle cx="913.941" cy="629.471" r="4" fill="#0" id="circle153"/>
	<circle cx="926.706" cy="445.294" r="4" fill="#0" id="circle154"/>
	<circle cx="932.176" cy="625.824" r="4" fill="#0" id="circle155"/>
	<circle cx="944.941" cy="441.647" r="4" fill="#0" id="circle156"/>
	<circle cx="944.941" cy="465.353" r="4" fill="#0" id="circle157"/>
	<circle cx="950.412" cy="625.824" r="4" fill="#0" id="circle158"/>
	<circle cx="959.529" cy="452.588" r="4" fill="#0" id="circle159"/>
	<circle cx="963.176" cy="472.647" r="4" fill="#0" id="circle160"/>
	<circle cx="963.176" cy="501.824" r="4" fill="#0" id="circle161"/>
	<circle cx="963.176" cy="574.765" r="4" fill="#0" id="circle162"/>
	<circle cx="966.824" cy="520.059" r="4" fill="#0" id="circle163"/>
	<circle cx="968.647" cy="616.706" r="4" fill="#0" id="circle164"/>
	<circle cx="972.294" cy="591.176" r="4" fill="#0" id="circle165"/>
	<circle cx="977.765" cy="483.588" r="4" fill="#0" id="circle166"/>
	<circle cx="981.412" cy="501.824" r="4" fill="#0" id="circle167"/>
	<circle cx="981.412" cy="574.765" r="4" fill="#0" id="circle168"/>
	<circle cx="985.059" cy="527.353" r="4" fill="#0" id="circle169"/>
	<circle cx="990.529" cy="545.588" r="4" fill="#0" id="circle170"/>
	<circle cx="996" cy="563.824" r="4" fill="#0" id="circle171"/>
	</g>
</svg>