<?xml version="1.0" encoding="UTF-8" standalone="no"?>
<!-- Created with CurveBenchmark -->
<svg
	xmlns:dc="http://purl.org/dc/elements/1.1/"
	xmlns:cc="http://creativecommons.org/ns#"
	xmlns:rdf="http://www.w3.org/1999/02/22-rdf-syntax-ns#"
	xmlns:svg="http://www.w3.org/2000/svg"
	xmlns="http://www.w3.org/2000/svg"
	xmlns:sodipodi="http://sodipodi.sourceforge.net/DTD/sodipodi-0.dtd"
	xmlns:inkscape="http://www.inkscape.org/namespaces/inkscape"
	width="1000"
	height="1000"
	id="svg2"
	version="1.1"
	sodipodi:docname="manifold/ccrust-hammer335.png.txt">
<defs
	id="defs4" />
<metadata
	id="metadata7">
	<rdf:RDF>
		<cc:Work
			rdf:about="">
			<dc:format>image/svg+xml</dc:format>
			<dc:type
				rdf:resource="http://purl.org/dc/dcmitype/StillImage" />
			<dc:title></dc:title>
		</cc:Work>
	</rdf:RDF>
</metadata>
<g
	inkscape:label="Layer 1"
	inkscape:groupmode="layer"
	id="layer1">
	<path style="fill:none;stroke:red;stroke-width:1px;stroke-linecap:butt;stroke-linejoin:miter;stroke-opacity:1" d="M 29.8783,98.887 47.1304,75.8841 z" id="boundary" inkscape:connector-curvature="0" />
	<path style="fill:none;stroke:red;stroke-width:1px;stroke-linecap:butt;stroke-linejoin:miter;stroke-opacity:1" d="M 64.3826,52.8812 87.3855,29.8783 z" id="boundary" inkscape:connector-curvature="0" />
	<path style="fill:none;stroke:red;stroke-width:1px;stroke-linecap:butt;stroke-linejoin:miter;stroke-opacity:1" d="M 87.3855,29.8783 110.388,12.6261 z" id="boundary" inkscape:connector-curvature="0" />
	<path style="fill:none;stroke:red;stroke-width:1px;stroke-linecap:butt;stroke-linejoin:miter;stroke-opacity:1" d="M 47.1304,75.8841 64.3826,52.8812 z" id="boundary" inkscape:connector-curvature="0" />
	<path style="fill:none;stroke:red;stroke-width:1px;stroke-linecap:butt;stroke-linejoin:miter;stroke-opacity:1" d="M 107.513,98.887 84.5101,116.139 z" id="boundary" inkscape:connector-curvature="0" />
	<path style="fill:none;stroke:red;stroke-width:1px;stroke-linecap:butt;stroke-linejoin:miter;stroke-opacity:1" d="M 27.0029,179.397 4,159.27 z" id="boundary" inkscape:connector-curvature="0" />
	<path style="fill:none;stroke:red;stroke-width:1px;stroke-linecap:butt;stroke-linejoin:miter;stroke-opacity:1" d="M 52.8812,165.02 27.0029,179.397 z" id="boundary" inkscape:connector-curvature="0" />
	<path style="fill:none;stroke:red;stroke-width:1px;stroke-linecap:butt;stroke-linejoin:miter;stroke-opacity:1" d="M 4,159.27 15.5014,124.765 z" id="boundary" inkscape:connector-curvature="0" />
	<path style="fill:none;stroke:red;stroke-width:1px;stroke-linecap:butt;stroke-linejoin:miter;stroke-opacity:1" d="M 67.258,139.142 84.5101,116.139 z" id="boundary" inkscape:connector-curvature="0" />
	<path style="fill:none;stroke:red;stroke-width:1px;stroke-linecap:butt;stroke-linejoin:miter;stroke-opacity:1" d="M 67.258,139.142 52.8812,165.02 z" id="boundary" inkscape:connector-curvature="0" />
	<path style="fill:none;stroke:red;stroke-width:1px;stroke-linecap:butt;stroke-linejoin:miter;stroke-opacity:1" d="M 15.5014,124.765 29.8783,98.887 z" id="boundary" inkscape:connector-curvature="0" />
	<path style="fill:none;stroke:red;stroke-width:1px;stroke-linecap:butt;stroke-linejoin:miter;stroke-opacity:1" d="M 107.513,98.887 133.391,113.264 z" id="boundary" inkscape:connector-curvature="0" />
	<path style="fill:none;stroke:red;stroke-width:1px;stroke-linecap:butt;stroke-linejoin:miter;stroke-opacity:1" d="M 133.391,113.264 136.267,142.017 z" id="boundary" inkscape:connector-curvature="0" />
	<path style="fill:none;stroke:red;stroke-width:1px;stroke-linecap:butt;stroke-linejoin:miter;stroke-opacity:1" d="M 147.768,170.771 136.267,142.017 z" id="boundary" inkscape:connector-curvature="0" />
	<path style="fill:none;stroke:red;stroke-width:1px;stroke-linecap:butt;stroke-linejoin:miter;stroke-opacity:1" d="M 139.142,4 167.896,4 z" id="boundary" inkscape:connector-curvature="0" />
	<path style="fill:none;stroke:red;stroke-width:1px;stroke-linecap:butt;stroke-linejoin:miter;stroke-opacity:1" d="M 156.394,199.525 159.27,228.278 z" id="boundary" inkscape:connector-curvature="0" />
	<path style="fill:none;stroke:red;stroke-width:1px;stroke-linecap:butt;stroke-linejoin:miter;stroke-opacity:1" d="M 156.394,199.525 147.768,170.771 z" id="boundary" inkscape:connector-curvature="0" />
	<path style="fill:none;stroke:red;stroke-width:1px;stroke-linecap:butt;stroke-linejoin:miter;stroke-opacity:1" d="M 165.02,257.032 159.27,228.278 z" id="boundary" inkscape:connector-curvature="0" />
	<path style="fill:none;stroke:red;stroke-width:1px;stroke-linecap:butt;stroke-linejoin:miter;stroke-opacity:1" d="M 165.02,257.032 165.02,285.786 z" id="boundary" inkscape:connector-curvature="0" />
	<path style="fill:none;stroke:red;stroke-width:1px;stroke-linecap:butt;stroke-linejoin:miter;stroke-opacity:1" d="M 165.02,314.539 165.02,285.786 z" id="boundary" inkscape:connector-curvature="0" />
	<path style="fill:none;stroke:red;stroke-width:1px;stroke-linecap:butt;stroke-linejoin:miter;stroke-opacity:1" d="M 165.02,343.293 165.02,314.539 z" id="boundary" inkscape:connector-curvature="0" />
	<path style="fill:none;stroke:red;stroke-width:1px;stroke-linecap:butt;stroke-linejoin:miter;stroke-opacity:1" d="M 110.388,12.6261 139.142,4 z" id="boundary" inkscape:connector-curvature="0" />
	<path style="fill:none;stroke:red;stroke-width:1px;stroke-linecap:butt;stroke-linejoin:miter;stroke-opacity:1" d="M 136.267,510.064 136.267,538.817 z" id="boundary" inkscape:connector-curvature="0" />
	<path style="fill:none;stroke:red;stroke-width:1px;stroke-linecap:butt;stroke-linejoin:miter;stroke-opacity:1" d="M 136.267,510.064 136.267,481.31 z" id="boundary" inkscape:connector-curvature="0" />
	<path style="fill:none;stroke:red;stroke-width:1px;stroke-linecap:butt;stroke-linejoin:miter;stroke-opacity:1" d="M 136.267,481.31 150.643,455.432 z" id="boundary" inkscape:connector-curvature="0" />
	<path style="fill:none;stroke:red;stroke-width:1px;stroke-linecap:butt;stroke-linejoin:miter;stroke-opacity:1" d="M 136.267,567.571 136.267,596.325 z" id="boundary" inkscape:connector-curvature="0" />
	<path style="fill:none;stroke:red;stroke-width:1px;stroke-linecap:butt;stroke-linejoin:miter;stroke-opacity:1" d="M 136.267,567.571 136.267,538.817 z" id="boundary" inkscape:connector-curvature="0" />
	<path style="fill:none;stroke:red;stroke-width:1px;stroke-linecap:butt;stroke-linejoin:miter;stroke-opacity:1" d="M 136.267,596.325 136.267,625.078 z" id="boundary" inkscape:connector-curvature="0" />
	<path style="fill:none;stroke:red;stroke-width:1px;stroke-linecap:butt;stroke-linejoin:miter;stroke-opacity:1" d="M 153.519,996 124.765,993.125 z" id="boundary" inkscape:connector-curvature="0" />
	<path style="fill:none;stroke:red;stroke-width:1px;stroke-linecap:butt;stroke-linejoin:miter;stroke-opacity:1" d="M 124.765,993.125 124.765,964.371 z" id="boundary" inkscape:connector-curvature="0" />
	<path style="fill:none;stroke:red;stroke-width:1px;stroke-linecap:butt;stroke-linejoin:miter;stroke-opacity:1" d="M 130.516,849.357 130.516,878.11 z" id="boundary" inkscape:connector-curvature="0" />
	<path style="fill:none;stroke:red;stroke-width:1px;stroke-linecap:butt;stroke-linejoin:miter;stroke-opacity:1" d="M 130.516,878.11 130.516,906.864 z" id="boundary" inkscape:connector-curvature="0" />
	<path style="fill:none;stroke:red;stroke-width:1px;stroke-linecap:butt;stroke-linejoin:miter;stroke-opacity:1" d="M 130.516,935.617 130.516,906.864 z" id="boundary" inkscape:connector-curvature="0" />
	<path style="fill:none;stroke:red;stroke-width:1px;stroke-linecap:butt;stroke-linejoin:miter;stroke-opacity:1" d="M 182.272,996 153.519,996 z" id="boundary" inkscape:connector-curvature="0" />
	<path style="fill:none;stroke:red;stroke-width:1px;stroke-linecap:butt;stroke-linejoin:miter;stroke-opacity:1" d="M 130.516,935.617 124.765,964.371 z" id="boundary" inkscape:connector-curvature="0" />
	<path style="fill:none;stroke:red;stroke-width:1px;stroke-linecap:butt;stroke-linejoin:miter;stroke-opacity:1" d="M 136.267,625.078 136.267,653.832 z" id="boundary" inkscape:connector-curvature="0" />
	<path style="fill:none;stroke:red;stroke-width:1px;stroke-linecap:butt;stroke-linejoin:miter;stroke-opacity:1" d="M 136.267,653.832 136.267,682.586 z" id="boundary" inkscape:connector-curvature="0" />
	<path style="fill:none;stroke:red;stroke-width:1px;stroke-linecap:butt;stroke-linejoin:miter;stroke-opacity:1" d="M 159.27,423.803 150.643,455.432 z" id="boundary" inkscape:connector-curvature="0" />
	<path style="fill:none;stroke:red;stroke-width:1px;stroke-linecap:butt;stroke-linejoin:miter;stroke-opacity:1" d="M 165.02,372.046 165.02,343.293 z" id="boundary" inkscape:connector-curvature="0" />
	<path style="fill:none;stroke:red;stroke-width:1px;stroke-linecap:butt;stroke-linejoin:miter;stroke-opacity:1" d="M 165.02,372.046 159.27,423.803 z" id="boundary" inkscape:connector-curvature="0" />
	<path style="fill:none;stroke:red;stroke-width:1px;stroke-linecap:butt;stroke-linejoin:miter;stroke-opacity:1" d="M 136.267,711.339 136.267,740.093 z" id="boundary" inkscape:connector-curvature="0" />
	<path style="fill:none;stroke:red;stroke-width:1px;stroke-linecap:butt;stroke-linejoin:miter;stroke-opacity:1" d="M 136.267,711.339 136.267,682.586 z" id="boundary" inkscape:connector-curvature="0" />
	<path style="fill:none;stroke:red;stroke-width:1px;stroke-linecap:butt;stroke-linejoin:miter;stroke-opacity:1" d="M 130.516,849.357 136.267,797.6 z" id="boundary" inkscape:connector-curvature="0" />
	<path style="fill:none;stroke:red;stroke-width:1px;stroke-linecap:butt;stroke-linejoin:miter;stroke-opacity:1" d="M 136.267,797.6 136.267,768.846 z" id="boundary" inkscape:connector-curvature="0" />
	<path style="fill:none;stroke:red;stroke-width:1px;stroke-linecap:butt;stroke-linejoin:miter;stroke-opacity:1" d="M 136.267,768.846 136.267,740.093 z" id="boundary" inkscape:connector-curvature="0" />
	<path style="fill:none;stroke:red;stroke-width:1px;stroke-linecap:butt;stroke-linejoin:miter;stroke-opacity:1" d="M 167.896,4 196.649,4 z" id="boundary" inkscape:connector-curvature="0" />
	<path style="fill:none;stroke:red;stroke-width:1px;stroke-linecap:butt;stroke-linejoin:miter;stroke-opacity:1" d="M 259.907,159.27 248.406,193.774 z" id="boundary" inkscape:connector-curvature="0" />
	<path style="fill:none;stroke:red;stroke-width:1px;stroke-linecap:butt;stroke-linejoin:miter;stroke-opacity:1" d="M 248.406,193.774 242.655,234.029 z" id="boundary" inkscape:connector-curvature="0" />
	<path style="fill:none;stroke:red;stroke-width:1px;stroke-linecap:butt;stroke-linejoin:miter;stroke-opacity:1" d="M 196.649,4 225.403,4 z" id="boundary" inkscape:connector-curvature="0" />
	<path style="fill:none;stroke:red;stroke-width:1px;stroke-linecap:butt;stroke-linejoin:miter;stroke-opacity:1" d="M 242.655,262.783 242.655,234.029 z" id="boundary" inkscape:connector-curvature="0" />
	<path style="fill:none;stroke:red;stroke-width:1px;stroke-linecap:butt;stroke-linejoin:miter;stroke-opacity:1" d="M 242.655,262.783 242.655,291.536 z" id="boundary" inkscape:connector-curvature="0" />
	<path style="fill:none;stroke:red;stroke-width:1px;stroke-linecap:butt;stroke-linejoin:miter;stroke-opacity:1" d="M 242.655,320.29 242.655,291.536 z" id="boundary" inkscape:connector-curvature="0" />
	<path style="fill:none;stroke:red;stroke-width:1px;stroke-linecap:butt;stroke-linejoin:miter;stroke-opacity:1" d="M 242.655,349.043 242.655,377.797 z" id="boundary" inkscape:connector-curvature="0" />
	<path style="fill:none;stroke:red;stroke-width:1px;stroke-linecap:butt;stroke-linejoin:miter;stroke-opacity:1" d="M 248.406,435.304 242.655,406.551 z" id="boundary" inkscape:connector-curvature="0" />
	<path style="fill:none;stroke:red;stroke-width:1px;stroke-linecap:butt;stroke-linejoin:miter;stroke-opacity:1" d="M 242.655,406.551 242.655,377.797 z" id="boundary" inkscape:connector-curvature="0" />
	<path style="fill:none;stroke:red;stroke-width:1px;stroke-linecap:butt;stroke-linejoin:miter;stroke-opacity:1" d="M 242.655,349.043 242.655,320.29 z" id="boundary" inkscape:connector-curvature="0" />
	<path style="fill:none;stroke:red;stroke-width:1px;stroke-linecap:butt;stroke-linejoin:miter;stroke-opacity:1" d="M 225.403,4 254.157,4 z" id="boundary" inkscape:connector-curvature="0" />
	<path style="fill:none;stroke:red;stroke-width:1px;stroke-linecap:butt;stroke-linejoin:miter;stroke-opacity:1" d="M 340.417,4 311.664,15.5014 z" id="boundary" inkscape:connector-curvature="0" />
	<path style="fill:none;stroke:red;stroke-width:1px;stroke-linecap:butt;stroke-linejoin:miter;stroke-opacity:1" d="M 311.664,15.5014 282.91,15.5014 z" id="boundary" inkscape:connector-curvature="0" />
	<path style="fill:none;stroke:red;stroke-width:1px;stroke-linecap:butt;stroke-linejoin:miter;stroke-opacity:1" d="M 282.91,15.5014 254.157,4 z" id="boundary" inkscape:connector-curvature="0" />
	<path style="fill:none;stroke:red;stroke-width:1px;stroke-linecap:butt;stroke-linejoin:miter;stroke-opacity:1" d="M 386.423,27.0029 380.672,73.0087 z" id="boundary" inkscape:connector-curvature="0" />
	<path style="fill:none;stroke:red;stroke-width:1px;stroke-linecap:butt;stroke-linejoin:miter;stroke-opacity:1" d="M 340.417,4 369.171,4 z" id="boundary" inkscape:connector-curvature="0" />
	<path style="fill:none;stroke:red;stroke-width:1px;stroke-linecap:butt;stroke-linejoin:miter;stroke-opacity:1" d="M 369.171,4 386.423,27.0029 z" id="boundary" inkscape:connector-curvature="0" />
	<path style="fill:none;stroke:red;stroke-width:1px;stroke-linecap:butt;stroke-linejoin:miter;stroke-opacity:1" d="M 271.409,124.765 259.907,159.27 z" id="boundary" inkscape:connector-curvature="0" />
	<path style="fill:none;stroke:red;stroke-width:1px;stroke-linecap:butt;stroke-linejoin:miter;stroke-opacity:1" d="M 271.409,96.0116 271.409,124.765 z" id="boundary" inkscape:connector-curvature="0" />
	<path style="fill:none;stroke:red;stroke-width:1px;stroke-linecap:butt;stroke-linejoin:miter;stroke-opacity:1" d="M 323.165,81.6348 351.919,93.1362 z" id="boundary" inkscape:connector-curvature="0" />
	<path style="fill:none;stroke:red;stroke-width:1px;stroke-linecap:butt;stroke-linejoin:miter;stroke-opacity:1" d="M 323.165,81.6348 294.412,75.8841 z" id="boundary" inkscape:connector-curvature="0" />
	<path style="fill:none;stroke:red;stroke-width:1px;stroke-linecap:butt;stroke-linejoin:miter;stroke-opacity:1" d="M 380.672,73.0087 351.919,93.1362 z" id="boundary" inkscape:connector-curvature="0" />
	<path style="fill:none;stroke:red;stroke-width:1px;stroke-linecap:butt;stroke-linejoin:miter;stroke-opacity:1" d="M 271.409,96.0116 294.412,75.8841 z" id="boundary" inkscape:connector-curvature="0" />
	<path style="fill:none;stroke:red;stroke-width:1px;stroke-linecap:butt;stroke-linejoin:miter;stroke-opacity:1" d="M 257.032,464.058 265.658,492.812 z" id="boundary" inkscape:connector-curvature="0" />
	<path style="fill:none;stroke:red;stroke-width:1px;stroke-linecap:butt;stroke-linejoin:miter;stroke-opacity:1" d="M 257.032,464.058 248.406,435.304 z" id="boundary" inkscape:connector-curvature="0" />
	<path style="fill:none;stroke:red;stroke-width:1px;stroke-linecap:butt;stroke-linejoin:miter;stroke-opacity:1" d="M 271.409,521.565 271.409,550.319 z" id="boundary" inkscape:connector-curvature="0" />
	<path style="fill:none;stroke:red;stroke-width:1px;stroke-linecap:butt;stroke-linejoin:miter;stroke-opacity:1" d="M 271.409,521.565 265.658,492.812 z" id="boundary" inkscape:connector-curvature="0" />
	<path style="fill:none;stroke:red;stroke-width:1px;stroke-linecap:butt;stroke-linejoin:miter;stroke-opacity:1" d="M 271.409,550.319 271.409,579.072 z" id="boundary" inkscape:connector-curvature="0" />
	<path style="fill:none;stroke:red;stroke-width:1px;stroke-linecap:butt;stroke-linejoin:miter;stroke-opacity:1" d="M 211.026,996 182.272,996 z" id="boundary" inkscape:connector-curvature="0" />
	<path style="fill:none;stroke:red;stroke-width:1px;stroke-linecap:butt;stroke-linejoin:miter;stroke-opacity:1" d="M 239.78,996 211.026,996 z" id="boundary" inkscape:connector-curvature="0" />
	<path style="fill:none;stroke:red;stroke-width:1px;stroke-linecap:butt;stroke-linejoin:miter;stroke-opacity:1" d="M 268.533,996 239.78,996 z" id="boundary" inkscape:connector-curvature="0" />
	<path style="fill:none;stroke:red;stroke-width:1px;stroke-linecap:butt;stroke-linejoin:miter;stroke-opacity:1" d="M 277.159,952.87 268.533,996 z" id="boundary" inkscape:connector-curvature="0" />
	<path style="fill:none;stroke:red;stroke-width:1px;stroke-linecap:butt;stroke-linejoin:miter;stroke-opacity:1" d="M 271.409,636.58 271.409,665.333 z" id="boundary" inkscape:connector-curvature="0" />
	<path style="fill:none;stroke:red;stroke-width:1px;stroke-linecap:butt;stroke-linejoin:miter;stroke-opacity:1" d="M 271.409,607.826 271.409,579.072 z" id="boundary" inkscape:connector-curvature="0" />
	<path style="fill:none;stroke:red;stroke-width:1px;stroke-linecap:butt;stroke-linejoin:miter;stroke-opacity:1" d="M 271.409,607.826 271.409,636.58 z" id="boundary" inkscape:connector-curvature="0" />
	<path style="fill:none;stroke:red;stroke-width:1px;stroke-linecap:butt;stroke-linejoin:miter;stroke-opacity:1" d="M 271.409,665.333 271.409,694.087 z" id="boundary" inkscape:connector-curvature="0" />
	<path style="fill:none;stroke:red;stroke-width:1px;stroke-linecap:butt;stroke-linejoin:miter;stroke-opacity:1" d="M 271.409,694.087 271.409,722.841 z" id="boundary" inkscape:connector-curvature="0" />
	<path style="fill:none;stroke:red;stroke-width:1px;stroke-linecap:butt;stroke-linejoin:miter;stroke-opacity:1" d="M 271.409,751.594 271.409,780.348 z" id="boundary" inkscape:connector-curvature="0" />
	<path style="fill:none;stroke:red;stroke-width:1px;stroke-linecap:butt;stroke-linejoin:miter;stroke-opacity:1" d="M 271.409,751.594 271.409,722.841 z" id="boundary" inkscape:connector-curvature="0" />
	<path style="fill:none;stroke:red;stroke-width:1px;stroke-linecap:butt;stroke-linejoin:miter;stroke-opacity:1" d="M 271.409,780.348 271.409,809.101 z" id="boundary" inkscape:connector-curvature="0" />
	<path style="fill:none;stroke:red;stroke-width:1px;stroke-linecap:butt;stroke-linejoin:miter;stroke-opacity:1" d="M 271.409,837.855 271.409,866.609 z" id="boundary" inkscape:connector-curvature="0" />
	<path style="fill:none;stroke:red;stroke-width:1px;stroke-linecap:butt;stroke-linejoin:miter;stroke-opacity:1" d="M 271.409,837.855 271.409,809.101 z" id="boundary" inkscape:connector-curvature="0" />
	<path style="fill:none;stroke:red;stroke-width:1px;stroke-linecap:butt;stroke-linejoin:miter;stroke-opacity:1" d="M 271.409,866.609 271.409,895.362 z" id="boundary" inkscape:connector-curvature="0" />
	<path style="fill:none;stroke:red;stroke-width:1px;stroke-linecap:butt;stroke-linejoin:miter;stroke-opacity:1" d="M 277.159,924.116 277.159,952.87 z" id="boundary" inkscape:connector-curvature="0" />
	<path style="fill:none;stroke:red;stroke-width:1px;stroke-linecap:butt;stroke-linejoin:miter;stroke-opacity:1" d="M 277.159,924.116 271.409,895.362 z" id="boundary" inkscape:connector-curvature="0" />
	<circle cx="4" cy="159.27" r="4" fill="#0" id="circle0"/>
	<circle cx="15.5014" cy="124.765" r="4" fill="#0" id="circle1"/>
	<circle cx="27.0029" cy="179.397" r="4" fill="#0" id="circle2"/>
	<circle cx="29.8783" cy="98.887" r="4" fill="#0" id="circle3"/>
	<circle cx="47.1304" cy="75.8841" r="4" fill="#0" id="circle4"/>
	<circle cx="52.8812" cy="165.02" r="4" fill="#0" id="circle5"/>
	<circle cx="64.3826" cy="52.8812" r="4" fill="#0" id="circle6"/>
	<circle cx="67.258" cy="139.142" r="4" fill="#0" id="circle7"/>
	<circle cx="84.5101" cy="116.139" r="4" fill="#0" id="circle8"/>
	<circle cx="87.3855" cy="29.8783" r="4" fill="#0" id="circle9"/>
	<circle cx="107.513" cy="98.887" r="4" fill="#0" id="circle10"/>
	<circle cx="110.388" cy="12.6261" r="4" fill="#0" id="circle11"/>
	<circle cx="124.765" cy="964.371" r="4" fill="#0" id="circle12"/>
	<circle cx="124.765" cy="993.125" r="4" fill="#0" id="circle13"/>
	<circle cx="130.516" cy="849.357" r="4" fill="#0" id="circle14"/>
	<circle cx="130.516" cy="878.11" r="4" fill="#0" id="circle15"/>
	<circle cx="130.516" cy="906.864" r="4" fill="#0" id="circle16"/>
	<circle cx="130.516" cy="935.617" r="4" fill="#0" id="circle17"/>
	<circle cx="133.391" cy="113.264" r="4" fill="#0" id="circle18"/>
	<circle cx="136.267" cy="142.017" r="4" fill="#0" id="circle19"/>
	<circle cx="136.267" cy="481.31" r="4" fill="#0" id="circle20"/>
	<circle cx="136.267" cy="510.064" r="4" fill="#0" id="circle21"/>
	<circle cx="136.267" cy="538.817" r="4" fill="#0" id="circle22"/>
	<circle cx="136.267" cy="567.571" r="4" fill="#0" id="circle23"/>
	<circle cx="136.267" cy="596.325" r="4" fill="#0" id="circle24"/>
	<circle cx="136.267" cy="625.078" r="4" fill="#0" id="circle25"/>
	<circle cx="136.267" cy="653.832" r="4" fill="#0" id="circle26"/>
	<circle cx="136.267" cy="682.586" r="4" fill="#0" id="circle27"/>
	<circle cx="136.267" cy="711.339" r="4" fill="#0" id="circle28"/>
	<circle cx="136.267" cy="740.093" r="4" fill="#0" id="circle29"/>
	<circle cx="136.267" cy="768.846" r="4" fill="#0" id="circle30"/>
	<circle cx="136.267" cy="797.6" r="4" fill="#0" id="circle31"/>
	<circle cx="139.142" cy="4" r="4" fill="#0" id="circle32"/>
	<circle cx="147.768" cy="170.771" r="4" fill="#0" id="circle33"/>
	<circle cx="150.643" cy="455.432" r="4" fill="#0" id="circle34"/>
	<circle cx="153.519" cy="996" r="4" fill="#0" id="circle35"/>
	<circle cx="156.394" cy="199.525" r="4" fill="#0" id="circle36"/>
	<circle cx="159.27" cy="228.278" r="4" fill="#0" id="circle37"/>
	<circle cx="159.27" cy="423.803" r="4" fill="#0" id="circle38"/>
	<circle cx="165.02" cy="257.032" r="4" fill="#0" id="circle39"/>
	<circle cx="165.02" cy="285.786" r="4" fill="#0" id="circle40"/>
	<circle cx="165.02" cy="314.539" r="4" fill="#0" id="circle41"/>
	<circle cx="165.02" cy="343.293" r="4" fill="#0" id="circle42"/>
	<circle cx="165.02" cy="372.046" r="4" fill="#0" id="circle43"/>
	<circle cx="167.896" cy="4" r="4" fill="#0" id="circle44"/>
	<circle cx="182.272" cy="996" r="4" fill="#0" id="circle45"/>
	<circle cx="196.649" cy="4" r="4" fill="#0" id="circle46"/>
	<circle cx="211.026" cy="996" r="4" fill="#0" id="circle47"/>
	<circle cx="225.403" cy="4" r="4" fill="#0" id="circle48"/>
	<circle cx="239.78" cy="996" r="4" fill="#0" id="circle49"/>
	<circle cx="242.655" cy="234.029" r="4" fill="#0" id="circle50"/>
	<circle cx="242.655" cy="262.783" r="4" fill="#0" id="circle51"/>
	<circle cx="242.655" cy="291.536" r="4" fill="#0" id="circle52"/>
	<circle cx="242.655" cy="320.29" r="4" fill="#0" id="circle53"/>
	<circle cx="242.655" cy="349.043" r="4" fill="#0" id="circle54"/>
	<circle cx="242.655" cy="377.797" r="4" fill="#0" id="circle55"/>
	<circle cx="242.655" cy="406.551" r="4" fill="#0" id="circle56"/>
	<circle cx="248.406" cy="193.774" r="4" fill="#0" id="circle57"/>
	<circle cx="248.406" cy="435.304" r="4" fill="#0" id="circle58"/>
	<circle cx="254.157" cy="4" r="4" fill="#0" id="circle59"/>
	<circle cx="257.032" cy="464.058" r="4" fill="#0" id="circle60"/>
	<circle cx="259.907" cy="159.27" r="4" fill="#0" id="circle61"/>
	<circle cx="265.658" cy="492.812" r="4" fill="#0" id="circle62"/>
	<circle cx="268.533" cy="996" r="4" fill="#0" id="circle63"/>
	<circle cx="271.409" cy="96.0116" r="4" fill="#0" id="circle64"/>
	<circle cx="271.409" cy="124.765" r="4" fill="#0" id="circle65"/>
	<circle cx="271.409" cy="521.565" r="4" fill="#0" id="circle66"/>
	<circle cx="271.409" cy="550.319" r="4" fill="#0" id="circle67"/>
	<circle cx="271.409" cy="579.072" r="4" fill="#0" id="circle68"/>
	<circle cx="271.409" cy="607.826" r="4" fill="#0" id="circle69"/>
	<circle cx="271.409" cy="636.58" r="4" fill="#0" id="circle70"/>
	<circle cx="271.409" cy="665.333" r="4" fill="#0" id="circle71"/>
	<circle cx="271.409" cy="694.087" r="4" fill="#0" id="circle72"/>
	<circle cx="271.409" cy="722.841" r="4" fill="#0" id="circle73"/>
	<circle cx="271.409" cy="751.594" r="4" fill="#0" id="circle74"/>
	<circle cx="271.409" cy="780.348" r="4" fill="#0" id="circle75"/>
	<circle cx="271.409" cy="809.101" r="4" fill="#0" id="circle76"/>
	<circle cx="271.409" cy="837.855" r="4" fill="#0" id="circle77"/>
	<circle cx="271.409" cy="866.609" r="4" fill="#0" id="circle78"/>
	<circle cx="271.409" cy="895.362" r="4" fill="#0" id="circle79"/>
	<circle cx="277.159" cy="924.116" r="4" fill="#0" id="circle80"/>
	<circle cx="277.159" cy="952.87" r="4" fill="#0" id="circle81"/>
	<circle cx="282.91" cy="15.5014" r="4" fill="#0" id="circle82"/>
	<circle cx="294.412" cy="75.8841" r="4" fill="#0" id="circle83"/>
	<circle cx="311.664" cy="15.5014" r="4" fill="#0" id="circle84"/>
	<circle cx="323.165" cy="81.6348" r="4" fill="#0" id="circle85"/>
	<circle cx="340.417" cy="4" r="4" fill="#0" id="circle86"/>
	<circle cx="351.919" cy="93.1362" r="4" fill="#0" id="circle87"/>
	<circle cx="369.171" cy="4" r="4" fill="#0" id="circle88"/>
	<circle cx="380.672" cy="73.0087" r="4" fill="#0" id="circle89"/>
	<circle cx="386.423" cy="27.0029" r="4" fill="#0" id="circle90"/>
	</g>
</svg>