<?xml version="1.0" encoding="UTF-8" standalone="no"?>
<!-- Created with CurveBenchmark -->
<svg
	xmlns:dc="http://purl.org/dc/elements/1.1/"
	xmlns:cc="http://creativecommons.org/ns#"
	xmlns:rdf="http://www.w3.org/1999/02/22-rdf-syntax-ns#"
	xmlns:svg="http://www.w3.org/2000/svg"
	xmlns="http://www.w3.org/2000/svg"
	xmlns:sodipodi="http://sodipodi.sourceforge.net/DTD/sodipodi-0.dtd"
	xmlns:inkscape="http://www.inkscape.org/namespaces/inkscape"
	width="1000"
	height="1000"
	id="svg2"
	version="1.1"
	sodipodi:docname="manifold/ccrust-sink085.png.txt">
<defs
	id="defs4" />
<metadata
	id="metadata7">
	<rdf:RDF>
		<cc:Work
			rdf:about="">
			<dc:format>image/svg+xml</dc:format>
			<dc:type
				rdf:resource="http://purl.org/dc/dcmitype/StillImage" />
			<dc:title></dc:title>
		</cc:Work>
	</rdf:RDF>
</metadata>
<g
	inkscape:label="Layer 1"
	inkscape:groupmode="layer"
	id="layer1">
	<path style="fill:none;stroke:red;stroke-width:1px;stroke-linecap:butt;stroke-linejoin:miter;stroke-opacity:1" d="M 13.678,216.917 13.678,168.527 z" id="boundary" inkscape:connector-curvature="0" />
	<path style="fill:none;stroke:red;stroke-width:1px;stroke-linecap:butt;stroke-linejoin:miter;stroke-opacity:1" d="M 13.678,168.527 62.0683,168.527 z" id="boundary" inkscape:connector-curvature="0" />
	<path style="fill:none;stroke:red;stroke-width:1px;stroke-linecap:butt;stroke-linejoin:miter;stroke-opacity:1" d="M 62.0683,168.527 110.459,168.527 z" id="boundary" inkscape:connector-curvature="0" />
	<path style="fill:none;stroke:red;stroke-width:1px;stroke-linecap:butt;stroke-linejoin:miter;stroke-opacity:1" d="M 158.849,173.366 110.459,168.527 z" id="boundary" inkscape:connector-curvature="0" />
	<path style="fill:none;stroke:red;stroke-width:1px;stroke-linecap:butt;stroke-linejoin:miter;stroke-opacity:1" d="M 124.976,318.537 76.5854,318.537 z" id="boundary" inkscape:connector-curvature="0" />
	<path style="fill:none;stroke:red;stroke-width:1px;stroke-linecap:butt;stroke-linejoin:miter;stroke-opacity:1" d="M 4,274.985 13.678,216.917 z" id="boundary" inkscape:connector-curvature="0" />
	<path style="fill:none;stroke:red;stroke-width:1px;stroke-linecap:butt;stroke-linejoin:miter;stroke-opacity:1" d="M 28.1951,318.537 76.5854,318.537 z" id="boundary" inkscape:connector-curvature="0" />
	<path style="fill:none;stroke:red;stroke-width:1px;stroke-linecap:butt;stroke-linejoin:miter;stroke-opacity:1" d="M 28.1951,318.537 4,274.985 z" id="boundary" inkscape:connector-curvature="0" />
	<path style="fill:none;stroke:red;stroke-width:1px;stroke-linecap:butt;stroke-linejoin:miter;stroke-opacity:1" d="M 304.02,62.0683 328.215,18.5171 z" id="boundary" inkscape:connector-curvature="0" />
	<path style="fill:none;stroke:red;stroke-width:1px;stroke-linecap:butt;stroke-linejoin:miter;stroke-opacity:1" d="M 207.239,178.205 158.849,173.366 z" id="boundary" inkscape:connector-curvature="0" />
	<path style="fill:none;stroke:red;stroke-width:1px;stroke-linecap:butt;stroke-linejoin:miter;stroke-opacity:1" d="M 376.605,4 381.444,52.3902 z" id="boundary" inkscape:connector-curvature="0" />
	<path style="fill:none;stroke:red;stroke-width:1px;stroke-linecap:butt;stroke-linejoin:miter;stroke-opacity:1" d="M 328.215,18.5171 376.605,4 z" id="boundary" inkscape:connector-curvature="0" />
	<path style="fill:none;stroke:red;stroke-width:1px;stroke-linecap:butt;stroke-linejoin:miter;stroke-opacity:1" d="M 405.639,95.9415 381.444,52.3902 z" id="boundary" inkscape:connector-curvature="0" />
	<path style="fill:none;stroke:red;stroke-width:1px;stroke-linecap:butt;stroke-linejoin:miter;stroke-opacity:1" d="M 304.02,110.459 304.02,62.0683 z" id="boundary" inkscape:connector-curvature="0" />
	<path style="fill:none;stroke:red;stroke-width:1px;stroke-linecap:butt;stroke-linejoin:miter;stroke-opacity:1" d="M 255.629,178.205 207.239,178.205 z" id="boundary" inkscape:connector-curvature="0" />
	<path style="fill:none;stroke:red;stroke-width:1px;stroke-linecap:butt;stroke-linejoin:miter;stroke-opacity:1" d="M 352.41,178.205 304.02,158.849 z" id="boundary" inkscape:connector-curvature="0" />
	<path style="fill:none;stroke:red;stroke-width:1px;stroke-linecap:butt;stroke-linejoin:miter;stroke-opacity:1" d="M 304.02,158.849 304.02,110.459 z" id="boundary" inkscape:connector-curvature="0" />
	<path style="fill:none;stroke:red;stroke-width:1px;stroke-linecap:butt;stroke-linejoin:miter;stroke-opacity:1" d="M 255.629,178.205 304.02,158.849 z" id="boundary" inkscape:connector-curvature="0" />
	<path style="fill:none;stroke:red;stroke-width:1px;stroke-linecap:butt;stroke-linejoin:miter;stroke-opacity:1" d="M 352.41,178.205 400.8,178.205 z" id="boundary" inkscape:connector-curvature="0" />
	<path style="fill:none;stroke:red;stroke-width:1px;stroke-linecap:butt;stroke-linejoin:miter;stroke-opacity:1" d="M 124.976,318.537 173.366,318.537 z" id="boundary" inkscape:connector-curvature="0" />
	<path style="fill:none;stroke:red;stroke-width:1px;stroke-linecap:butt;stroke-linejoin:miter;stroke-opacity:1" d="M 173.366,318.537 212.078,347.571 z" id="boundary" inkscape:connector-curvature="0" />
	<path style="fill:none;stroke:red;stroke-width:1px;stroke-linecap:butt;stroke-linejoin:miter;stroke-opacity:1" d="M 212.078,347.571 241.112,386.283 z" id="boundary" inkscape:connector-curvature="0" />
	<path style="fill:none;stroke:red;stroke-width:1px;stroke-linecap:butt;stroke-linejoin:miter;stroke-opacity:1" d="M 241.112,386.283 274.985,424.995 z" id="boundary" inkscape:connector-curvature="0" />
	<path style="fill:none;stroke:red;stroke-width:1px;stroke-linecap:butt;stroke-linejoin:miter;stroke-opacity:1" d="M 323.376,444.351 274.985,424.995 z" id="boundary" inkscape:connector-curvature="0" />
	<path style="fill:none;stroke:red;stroke-width:1px;stroke-linecap:butt;stroke-linejoin:miter;stroke-opacity:1" d="M 333.054,942.771 333.054,991.161 z" id="boundary" inkscape:connector-curvature="0" />
	<path style="fill:none;stroke:red;stroke-width:1px;stroke-linecap:butt;stroke-linejoin:miter;stroke-opacity:1" d="M 381.444,996 333.054,991.161 z" id="boundary" inkscape:connector-curvature="0" />
	<path style="fill:none;stroke:red;stroke-width:1px;stroke-linecap:butt;stroke-linejoin:miter;stroke-opacity:1" d="M 381.444,502.42 381.444,550.81 z" id="boundary" inkscape:connector-curvature="0" />
	<path style="fill:none;stroke:red;stroke-width:1px;stroke-linecap:butt;stroke-linejoin:miter;stroke-opacity:1" d="M 381.444,502.42 371.766,454.029 z" id="boundary" inkscape:connector-curvature="0" />
	<path style="fill:none;stroke:red;stroke-width:1px;stroke-linecap:butt;stroke-linejoin:miter;stroke-opacity:1" d="M 381.444,550.81 381.444,599.2 z" id="boundary" inkscape:connector-curvature="0" />
	<path style="fill:none;stroke:red;stroke-width:1px;stroke-linecap:butt;stroke-linejoin:miter;stroke-opacity:1" d="M 381.444,599.2 381.444,647.59 z" id="boundary" inkscape:connector-curvature="0" />
	<path style="fill:none;stroke:red;stroke-width:1px;stroke-linecap:butt;stroke-linejoin:miter;stroke-opacity:1" d="M 381.444,695.98 381.444,744.371 z" id="boundary" inkscape:connector-curvature="0" />
	<path style="fill:none;stroke:red;stroke-width:1px;stroke-linecap:butt;stroke-linejoin:miter;stroke-opacity:1" d="M 381.444,647.59 381.444,695.98 z" id="boundary" inkscape:connector-curvature="0" />
	<path style="fill:none;stroke:red;stroke-width:1px;stroke-linecap:butt;stroke-linejoin:miter;stroke-opacity:1" d="M 381.444,744.371 381.444,792.761 z" id="boundary" inkscape:connector-curvature="0" />
	<path style="fill:none;stroke:red;stroke-width:1px;stroke-linecap:butt;stroke-linejoin:miter;stroke-opacity:1" d="M 362.088,894.38 333.054,942.771 z" id="boundary" inkscape:connector-curvature="0" />
	<path style="fill:none;stroke:red;stroke-width:1px;stroke-linecap:butt;stroke-linejoin:miter;stroke-opacity:1" d="M 381.444,792.761 381.444,841.151 z" id="boundary" inkscape:connector-curvature="0" />
	<path style="fill:none;stroke:red;stroke-width:1px;stroke-linecap:butt;stroke-linejoin:miter;stroke-opacity:1" d="M 381.444,841.151 362.088,894.38 z" id="boundary" inkscape:connector-curvature="0" />
	<path style="fill:none;stroke:red;stroke-width:1px;stroke-linecap:butt;stroke-linejoin:miter;stroke-opacity:1" d="M 323.376,444.351 371.766,454.029 z" id="boundary" inkscape:connector-curvature="0" />
	<path style="fill:none;stroke:red;stroke-width:1px;stroke-linecap:butt;stroke-linejoin:miter;stroke-opacity:1" d="M 449.19,168.527 400.8,178.205 z" id="boundary" inkscape:connector-curvature="0" />
	<path style="fill:none;stroke:red;stroke-width:1px;stroke-linecap:butt;stroke-linejoin:miter;stroke-opacity:1" d="M 497.58,168.527 449.19,168.527 z" id="boundary" inkscape:connector-curvature="0" />
	<path style="fill:none;stroke:red;stroke-width:1px;stroke-linecap:butt;stroke-linejoin:miter;stroke-opacity:1" d="M 497.58,168.527 545.971,168.527 z" id="boundary" inkscape:connector-curvature="0" />
	<path style="fill:none;stroke:red;stroke-width:1px;stroke-linecap:butt;stroke-linejoin:miter;stroke-opacity:1" d="M 545.971,168.527 594.361,168.527 z" id="boundary" inkscape:connector-curvature="0" />
	<path style="fill:none;stroke:red;stroke-width:1px;stroke-linecap:butt;stroke-linejoin:miter;stroke-opacity:1" d="M 599.2,400.8 637.912,352.41 z" id="boundary" inkscape:connector-curvature="0" />
	<path style="fill:none;stroke:red;stroke-width:1px;stroke-linecap:butt;stroke-linejoin:miter;stroke-opacity:1" d="M 599.2,400.8 560.488,429.834 z" id="boundary" inkscape:connector-curvature="0" />
	<path style="fill:none;stroke:red;stroke-width:1px;stroke-linecap:butt;stroke-linejoin:miter;stroke-opacity:1" d="M 671.785,207.239 686.302,255.629 z" id="boundary" inkscape:connector-curvature="0" />
	<path style="fill:none;stroke:red;stroke-width:1px;stroke-linecap:butt;stroke-linejoin:miter;stroke-opacity:1" d="M 783.083,265.307 734.693,265.307 z" id="boundary" inkscape:connector-curvature="0" />
	<path style="fill:none;stroke:red;stroke-width:1px;stroke-linecap:butt;stroke-linejoin:miter;stroke-opacity:1" d="M 686.302,255.629 734.693,265.307 z" id="boundary" inkscape:connector-curvature="0" />
	<path style="fill:none;stroke:red;stroke-width:1px;stroke-linecap:butt;stroke-linejoin:miter;stroke-opacity:1" d="M 734.693,265.307 725.015,318.537 z" id="boundary" inkscape:connector-curvature="0" />
	<path style="fill:none;stroke:red;stroke-width:1px;stroke-linecap:butt;stroke-linejoin:miter;stroke-opacity:1" d="M 671.785,207.239 642.751,168.527 z" id="boundary" inkscape:connector-curvature="0" />
	<path style="fill:none;stroke:red;stroke-width:1px;stroke-linecap:butt;stroke-linejoin:miter;stroke-opacity:1" d="M 676.624,318.537 637.912,352.41 z" id="boundary" inkscape:connector-curvature="0" />
	<path style="fill:none;stroke:red;stroke-width:1px;stroke-linecap:butt;stroke-linejoin:miter;stroke-opacity:1" d="M 676.624,318.537 725.015,318.537 z" id="boundary" inkscape:connector-curvature="0" />
	<path style="fill:none;stroke:red;stroke-width:1px;stroke-linecap:butt;stroke-linejoin:miter;stroke-opacity:1" d="M 783.083,265.307 821.795,294.341 z" id="boundary" inkscape:connector-curvature="0" />
	<path style="fill:none;stroke:red;stroke-width:1px;stroke-linecap:butt;stroke-linejoin:miter;stroke-opacity:1" d="M 773.405,318.537 725.015,318.537 z" id="boundary" inkscape:connector-curvature="0" />
	<path style="fill:none;stroke:red;stroke-width:1px;stroke-linecap:butt;stroke-linejoin:miter;stroke-opacity:1" d="M 594.361,168.527 642.751,168.527 z" id="boundary" inkscape:connector-curvature="0" />
	<path style="fill:none;stroke:red;stroke-width:1px;stroke-linecap:butt;stroke-linejoin:miter;stroke-opacity:1" d="M 560.488,478.224 560.488,526.615 z" id="boundary" inkscape:connector-curvature="0" />
	<path style="fill:none;stroke:red;stroke-width:1px;stroke-linecap:butt;stroke-linejoin:miter;stroke-opacity:1" d="M 560.488,478.224 560.488,429.834 z" id="boundary" inkscape:connector-curvature="0" />
	<path style="fill:none;stroke:red;stroke-width:1px;stroke-linecap:butt;stroke-linejoin:miter;stroke-opacity:1" d="M 560.488,526.615 560.488,575.005 z" id="boundary" inkscape:connector-curvature="0" />
	<path style="fill:none;stroke:red;stroke-width:1px;stroke-linecap:butt;stroke-linejoin:miter;stroke-opacity:1" d="M 429.834,996 381.444,996 z" id="boundary" inkscape:connector-curvature="0" />
	<path style="fill:none;stroke:red;stroke-width:1px;stroke-linecap:butt;stroke-linejoin:miter;stroke-opacity:1" d="M 526.615,996 478.224,996 z" id="boundary" inkscape:connector-curvature="0" />
	<path style="fill:none;stroke:red;stroke-width:1px;stroke-linecap:butt;stroke-linejoin:miter;stroke-opacity:1" d="M 478.224,996 429.834,996 z" id="boundary" inkscape:connector-curvature="0" />
	<path style="fill:none;stroke:red;stroke-width:1px;stroke-linecap:butt;stroke-linejoin:miter;stroke-opacity:1" d="M 550.81,845.99 565.327,894.38 z" id="boundary" inkscape:connector-curvature="0" />
	<path style="fill:none;stroke:red;stroke-width:1px;stroke-linecap:butt;stroke-linejoin:miter;stroke-opacity:1" d="M 560.488,575.005 560.488,623.395 z" id="boundary" inkscape:connector-curvature="0" />
	<path style="fill:none;stroke:red;stroke-width:1px;stroke-linecap:butt;stroke-linejoin:miter;stroke-opacity:1" d="M 560.488,671.785 560.488,720.176 z" id="boundary" inkscape:connector-curvature="0" />
	<path style="fill:none;stroke:red;stroke-width:1px;stroke-linecap:butt;stroke-linejoin:miter;stroke-opacity:1" d="M 560.488,671.785 560.488,623.395 z" id="boundary" inkscape:connector-curvature="0" />
	<path style="fill:none;stroke:red;stroke-width:1px;stroke-linecap:butt;stroke-linejoin:miter;stroke-opacity:1" d="M 560.488,768.566 550.81,845.99 z" id="boundary" inkscape:connector-curvature="0" />
	<path style="fill:none;stroke:red;stroke-width:1px;stroke-linecap:butt;stroke-linejoin:miter;stroke-opacity:1" d="M 560.488,768.566 560.488,720.176 z" id="boundary" inkscape:connector-curvature="0" />
	<path style="fill:none;stroke:red;stroke-width:1px;stroke-linecap:butt;stroke-linejoin:miter;stroke-opacity:1" d="M 589.522,937.932 575.005,996 z" id="boundary" inkscape:connector-curvature="0" />
	<path style="fill:none;stroke:red;stroke-width:1px;stroke-linecap:butt;stroke-linejoin:miter;stroke-opacity:1" d="M 575.005,996 526.615,996 z" id="boundary" inkscape:connector-curvature="0" />
	<path style="fill:none;stroke:red;stroke-width:1px;stroke-linecap:butt;stroke-linejoin:miter;stroke-opacity:1" d="M 589.522,937.932 565.327,894.38 z" id="boundary" inkscape:connector-curvature="0" />
	<circle cx="4" cy="274.985" r="4" fill="#0" id="circle0"/>
	<circle cx="13.678" cy="168.527" r="4" fill="#0" id="circle1"/>
	<circle cx="13.678" cy="216.917" r="4" fill="#0" id="circle2"/>
	<circle cx="28.1951" cy="318.537" r="4" fill="#0" id="circle3"/>
	<circle cx="62.0683" cy="168.527" r="4" fill="#0" id="circle4"/>
	<circle cx="76.5854" cy="318.537" r="4" fill="#0" id="circle5"/>
	<circle cx="110.459" cy="168.527" r="4" fill="#0" id="circle6"/>
	<circle cx="124.976" cy="318.537" r="4" fill="#0" id="circle7"/>
	<circle cx="158.849" cy="173.366" r="4" fill="#0" id="circle8"/>
	<circle cx="173.366" cy="318.537" r="4" fill="#0" id="circle9"/>
	<circle cx="207.239" cy="178.205" r="4" fill="#0" id="circle10"/>
	<circle cx="212.078" cy="347.571" r="4" fill="#0" id="circle11"/>
	<circle cx="241.112" cy="386.283" r="4" fill="#0" id="circle12"/>
	<circle cx="255.629" cy="178.205" r="4" fill="#0" id="circle13"/>
	<circle cx="274.985" cy="424.995" r="4" fill="#0" id="circle14"/>
	<circle cx="304.02" cy="62.0683" r="4" fill="#0" id="circle15"/>
	<circle cx="304.02" cy="110.459" r="4" fill="#0" id="circle16"/>
	<circle cx="304.02" cy="158.849" r="4" fill="#0" id="circle17"/>
	<circle cx="323.376" cy="444.351" r="4" fill="#0" id="circle18"/>
	<circle cx="328.215" cy="18.5171" r="4" fill="#0" id="circle19"/>
	<circle cx="333.054" cy="942.771" r="4" fill="#0" id="circle20"/>
	<circle cx="333.054" cy="991.161" r="4" fill="#0" id="circle21"/>
	<circle cx="352.41" cy="178.205" r="4" fill="#0" id="circle22"/>
	<circle cx="362.088" cy="894.38" r="4" fill="#0" id="circle23"/>
	<circle cx="371.766" cy="454.029" r="4" fill="#0" id="circle24"/>
	<circle cx="376.605" cy="4" r="4" fill="#0" id="circle25"/>
	<circle cx="381.444" cy="52.3902" r="4" fill="#0" id="circle26"/>
	<circle cx="381.444" cy="502.42" r="4" fill="#0" id="circle27"/>
	<circle cx="381.444" cy="550.81" r="4" fill="#0" id="circle28"/>
	<circle cx="381.444" cy="599.2" r="4" fill="#0" id="circle29"/>
	<circle cx="381.444" cy="647.59" r="4" fill="#0" id="circle30"/>
	<circle cx="381.444" cy="695.98" r="4" fill="#0" id="circle31"/>
	<circle cx="381.444" cy="744.371" r="4" fill="#0" id="circle32"/>
	<circle cx="381.444" cy="792.761" r="4" fill="#0" id="circle33"/>
	<circle cx="381.444" cy="841.151" r="4" fill="#0" id="circle34"/>
	<circle cx="381.444" cy="996" r="4" fill="#0" id="circle35"/>
	<circle cx="400.8" cy="178.205" r="4" fill="#0" id="circle36"/>
	<circle cx="405.639" cy="95.9415" r="4" fill="#0" id="circle37"/>
	<circle cx="429.834" cy="996" r="4" fill="#0" id="circle38"/>
	<circle cx="449.19" cy="168.527" r="4" fill="#0" id="circle39"/>
	<circle cx="478.224" cy="996" r="4" fill="#0" id="circle40"/>
	<circle cx="497.58" cy="168.527" r="4" fill="#0" id="circle41"/>
	<circle cx="526.615" cy="996" r="4" fill="#0" id="circle42"/>
	<circle cx="545.971" cy="168.527" r="4" fill="#0" id="circle43"/>
	<circle cx="550.81" cy="845.99" r="4" fill="#0" id="circle44"/>
	<circle cx="560.488" cy="429.834" r="4" fill="#0" id="circle45"/>
	<circle cx="560.488" cy="478.224" r="4" fill="#0" id="circle46"/>
	<circle cx="560.488" cy="526.615" r="4" fill="#0" id="circle47"/>
	<circle cx="560.488" cy="575.005" r="4" fill="#0" id="circle48"/>
	<circle cx="560.488" cy="623.395" r="4" fill="#0" id="circle49"/>
	<circle cx="560.488" cy="671.785" r="4" fill="#0" id="circle50"/>
	<circle cx="560.488" cy="720.176" r="4" fill="#0" id="circle51"/>
	<circle cx="560.488" cy="768.566" r="4" fill="#0" id="circle52"/>
	<circle cx="565.327" cy="894.38" r="4" fill="#0" id="circle53"/>
	<circle cx="575.005" cy="996" r="4" fill="#0" id="circle54"/>
	<circle cx="589.522" cy="937.932" r="4" fill="#0" id="circle55"/>
	<circle cx="594.361" cy="168.527" r="4" fill="#0" id="circle56"/>
	<circle cx="599.2" cy="400.8" r="4" fill="#0" id="circle57"/>
	<circle cx="637.912" cy="352.41" r="4" fill="#0" id="circle58"/>
	<circle cx="642.751" cy="168.527" r="4" fill="#0" id="circle59"/>
	<circle cx="671.785" cy="207.239" r="4" fill="#0" id="circle60"/>
	<circle cx="676.624" cy="318.537" r="4" fill="#0" id="circle61"/>
	<circle cx="686.302" cy="255.629" r="4" fill="#0" id="circle62"/>
	<circle cx="725.015" cy="318.537" r="4" fill="#0" id="circle63"/>
	<circle cx="734.693" cy="265.307" r="4" fill="#0" id="circle64"/>
	<circle cx="773.405" cy="318.537" r="4" fill="#0" id="circle65"/>
	<circle cx="783.083" cy="265.307" r="4" fill="#0" id="circle66"/>
	<circle cx="821.795" cy="294.341" r="4" fill="#0" id="circle67"/>
	</g>
</svg>