<?xml version="1.0" encoding="UTF-8" standalone="no"?>
<!-- Created with CurveBenchmark -->
<svg
	xmlns:dc="http://purl.org/dc/elements/1.1/"
	xmlns:cc="http://creativecommons.org/ns#"
	xmlns:rdf="http://www.w3.org/1999/02/22-rdf-syntax-ns#"
	xmlns:svg="http://www.w3.org/2000/svg"
	xmlns="http://www.w3.org/2000/svg"
	xmlns:sodipodi="http://sodipodi.sourceforge.net/DTD/sodipodi-0.dtd"
	xmlns:inkscape="http://www.inkscape.org/namespaces/inkscape"
	width="1000"
	height="1000"
	id="svg2"
	version="1.1"
	sodipodi:docname="manifold/ccrust-apple-1.png.txt">
<defs
	id="defs4" />
<metadata
	id="metadata7">
	<rdf:RDF>
		<cc:Work
			rdf:about="">
			<dc:format>image/svg+xml</dc:format>
			<dc:type
				rdf:resource="http://purl.org/dc/dcmitype/StillImage" />
			<dc:title></dc:title>
		</cc:Work>
	</rdf:RDF>
</metadata>
<g
	inkscape:label="Layer 1"
	inkscape:groupmode="layer"
	id="layer1">
	<path style="fill:none;stroke:red;stroke-width:1px;stroke-linecap:butt;stroke-linejoin:miter;stroke-opacity:1" d="M 224.758,199.394 234.152,194.697 z" id="boundary" inkscape:connector-curvature="0" />
	<path style="fill:none;stroke:red;stroke-width:1px;stroke-linecap:butt;stroke-linejoin:miter;stroke-opacity:1" d="M 261.394,182.485 252.939,187.182 z" id="boundary" inkscape:connector-curvature="0" />
	<path style="fill:none;stroke:red;stroke-width:1px;stroke-linecap:butt;stroke-linejoin:miter;stroke-opacity:1" d="M 252.939,187.182 243.545,190 z" id="boundary" inkscape:connector-curvature="0" />
	<path style="fill:none;stroke:red;stroke-width:1px;stroke-linecap:butt;stroke-linejoin:miter;stroke-opacity:1" d="M 234.152,194.697 243.545,190 z" id="boundary" inkscape:connector-curvature="0" />
	<path style="fill:none;stroke:red;stroke-width:1px;stroke-linecap:butt;stroke-linejoin:miter;stroke-opacity:1" d="M 174.03,231.333 181.545,224.758 z" id="boundary" inkscape:connector-curvature="0" />
	<path style="fill:none;stroke:red;stroke-width:1px;stroke-linecap:butt;stroke-linejoin:miter;stroke-opacity:1" d="M 181.545,224.758 190,220.061 z" id="boundary" inkscape:connector-curvature="0" />
	<path style="fill:none;stroke:red;stroke-width:1px;stroke-linecap:butt;stroke-linejoin:miter;stroke-opacity:1" d="M 166.515,238.848 174.03,231.333 z" id="boundary" inkscape:connector-curvature="0" />
	<path style="fill:none;stroke:red;stroke-width:1px;stroke-linecap:butt;stroke-linejoin:miter;stroke-opacity:1" d="M 215.364,204.091 206.909,210.667 z" id="boundary" inkscape:connector-curvature="0" />
	<path style="fill:none;stroke:red;stroke-width:1px;stroke-linecap:butt;stroke-linejoin:miter;stroke-opacity:1" d="M 206.909,210.667 198.455,215.364 z" id="boundary" inkscape:connector-curvature="0" />
	<path style="fill:none;stroke:red;stroke-width:1px;stroke-linecap:butt;stroke-linejoin:miter;stroke-opacity:1" d="M 198.455,215.364 190,220.061 z" id="boundary" inkscape:connector-curvature="0" />
	<path style="fill:none;stroke:red;stroke-width:1px;stroke-linecap:butt;stroke-linejoin:miter;stroke-opacity:1" d="M 215.364,204.091 224.758,199.394 z" id="boundary" inkscape:connector-curvature="0" />
	<path style="fill:none;stroke:red;stroke-width:1px;stroke-linecap:butt;stroke-linejoin:miter;stroke-opacity:1" d="M 261.394,182.485 270.788,182.485 z" id="boundary" inkscape:connector-curvature="0" />
	<path style="fill:none;stroke:red;stroke-width:1px;stroke-linecap:butt;stroke-linejoin:miter;stroke-opacity:1" d="M 324.333,163.697 333.727,163.697 z" id="boundary" inkscape:connector-curvature="0" />
	<path style="fill:none;stroke:red;stroke-width:1px;stroke-linecap:butt;stroke-linejoin:miter;stroke-opacity:1" d="M 315.879,168.394 324.333,163.697 z" id="boundary" inkscape:connector-curvature="0" />
	<path style="fill:none;stroke:red;stroke-width:1px;stroke-linecap:butt;stroke-linejoin:miter;stroke-opacity:1" d="M 343.121,163.697 352.515,160.879 z" id="boundary" inkscape:connector-curvature="0" />
	<path style="fill:none;stroke:red;stroke-width:1px;stroke-linecap:butt;stroke-linejoin:miter;stroke-opacity:1" d="M 343.121,163.697 333.727,163.697 z" id="boundary" inkscape:connector-curvature="0" />
	<path style="fill:none;stroke:red;stroke-width:1px;stroke-linecap:butt;stroke-linejoin:miter;stroke-opacity:1" d="M 361.909,159 352.515,160.879 z" id="boundary" inkscape:connector-curvature="0" />
	<path style="fill:none;stroke:red;stroke-width:1px;stroke-linecap:butt;stroke-linejoin:miter;stroke-opacity:1" d="M 270.788,182.485 279.242,177.788 z" id="boundary" inkscape:connector-curvature="0" />
	<path style="fill:none;stroke:red;stroke-width:1px;stroke-linecap:butt;stroke-linejoin:miter;stroke-opacity:1" d="M 288.636,173.091 279.242,177.788 z" id="boundary" inkscape:connector-curvature="0" />
	<path style="fill:none;stroke:red;stroke-width:1px;stroke-linecap:butt;stroke-linejoin:miter;stroke-opacity:1" d="M 288.636,173.091 298.03,173.091 z" id="boundary" inkscape:connector-curvature="0" />
	<path style="fill:none;stroke:red;stroke-width:1px;stroke-linecap:butt;stroke-linejoin:miter;stroke-opacity:1" d="M 298.03,173.091 306.485,168.394 z" id="boundary" inkscape:connector-curvature="0" />
	<path style="fill:none;stroke:red;stroke-width:1px;stroke-linecap:butt;stroke-linejoin:miter;stroke-opacity:1" d="M 306.485,168.394 315.879,168.394 z" id="boundary" inkscape:connector-curvature="0" />
	<path style="fill:none;stroke:red;stroke-width:1px;stroke-linecap:butt;stroke-linejoin:miter;stroke-opacity:1" d="M 63.1818,356.273 67.8788,346.879 z" id="boundary" inkscape:connector-curvature="0" />
	<path style="fill:none;stroke:red;stroke-width:1px;stroke-linecap:butt;stroke-linejoin:miter;stroke-opacity:1" d="M 63.1818,356.273 55.6667,363.788 z" id="boundary" inkscape:connector-curvature="0" />
	<path style="fill:none;stroke:red;stroke-width:1px;stroke-linecap:butt;stroke-linejoin:miter;stroke-opacity:1" d="M 72.5758,337.485 79.1515,326.212 z" id="boundary" inkscape:connector-curvature="0" />
	<path style="fill:none;stroke:red;stroke-width:1px;stroke-linecap:butt;stroke-linejoin:miter;stroke-opacity:1" d="M 79.1515,326.212 86.6667,318.697 z" id="boundary" inkscape:connector-curvature="0" />
	<path style="fill:none;stroke:red;stroke-width:1px;stroke-linecap:butt;stroke-linejoin:miter;stroke-opacity:1" d="M 93.2424,307.424 86.6667,318.697 z" id="boundary" inkscape:connector-curvature="0" />
	<path style="fill:none;stroke:red;stroke-width:1px;stroke-linecap:butt;stroke-linejoin:miter;stroke-opacity:1" d="M 67.8788,346.879 72.5758,337.485 z" id="boundary" inkscape:connector-curvature="0" />
	<path style="fill:none;stroke:red;stroke-width:1px;stroke-linecap:butt;stroke-linejoin:miter;stroke-opacity:1" d="M 41.5758,391.97 36.8788,406.061 z" id="boundary" inkscape:connector-curvature="0" />
	<path style="fill:none;stroke:red;stroke-width:1px;stroke-linecap:butt;stroke-linejoin:miter;stroke-opacity:1" d="M 36.8788,406.061 32.1818,415.455 z" id="boundary" inkscape:connector-curvature="0" />
	<path style="fill:none;stroke:red;stroke-width:1px;stroke-linecap:butt;stroke-linejoin:miter;stroke-opacity:1" d="M 41.5758,391.97 46.2727,382.576 z" id="boundary" inkscape:connector-curvature="0" />
	<path style="fill:none;stroke:red;stroke-width:1px;stroke-linecap:butt;stroke-linejoin:miter;stroke-opacity:1" d="M 46.2727,382.576 50.9697,373.182 z" id="boundary" inkscape:connector-curvature="0" />
	<path style="fill:none;stroke:red;stroke-width:1px;stroke-linecap:butt;stroke-linejoin:miter;stroke-opacity:1" d="M 50.9697,373.182 55.6667,363.788 z" id="boundary" inkscape:connector-curvature="0" />
	<path style="fill:none;stroke:red;stroke-width:1px;stroke-linecap:butt;stroke-linejoin:miter;stroke-opacity:1" d="M 129.879,271.727 136.455,264.212 z" id="boundary" inkscape:connector-curvature="0" />
	<path style="fill:none;stroke:red;stroke-width:1px;stroke-linecap:butt;stroke-linejoin:miter;stroke-opacity:1" d="M 136.455,264.212 143.97,257.636 z" id="boundary" inkscape:connector-curvature="0" />
	<path style="fill:none;stroke:red;stroke-width:1px;stroke-linecap:butt;stroke-linejoin:miter;stroke-opacity:1" d="M 150.545,250.121 143.97,257.636 z" id="boundary" inkscape:connector-curvature="0" />
	<path style="fill:none;stroke:red;stroke-width:1px;stroke-linecap:butt;stroke-linejoin:miter;stroke-opacity:1" d="M 150.545,250.121 158.061,243.545 z" id="boundary" inkscape:connector-curvature="0" />
	<path style="fill:none;stroke:red;stroke-width:1px;stroke-linecap:butt;stroke-linejoin:miter;stroke-opacity:1" d="M 158.061,243.545 166.515,238.848 z" id="boundary" inkscape:connector-curvature="0" />
	<path style="fill:none;stroke:red;stroke-width:1px;stroke-linecap:butt;stroke-linejoin:miter;stroke-opacity:1" d="M 100.758,299.909 108.273,292.394 z" id="boundary" inkscape:connector-curvature="0" />
	<path style="fill:none;stroke:red;stroke-width:1px;stroke-linecap:butt;stroke-linejoin:miter;stroke-opacity:1" d="M 100.758,299.909 93.2424,307.424 z" id="boundary" inkscape:connector-curvature="0" />
	<path style="fill:none;stroke:red;stroke-width:1px;stroke-linecap:butt;stroke-linejoin:miter;stroke-opacity:1" d="M 108.273,292.394 115.788,285.818 z" id="boundary" inkscape:connector-curvature="0" />
	<path style="fill:none;stroke:red;stroke-width:1px;stroke-linecap:butt;stroke-linejoin:miter;stroke-opacity:1" d="M 115.788,285.818 122.364,278.303 z" id="boundary" inkscape:connector-curvature="0" />
	<path style="fill:none;stroke:red;stroke-width:1px;stroke-linecap:butt;stroke-linejoin:miter;stroke-opacity:1" d="M 122.364,278.303 129.879,271.727 z" id="boundary" inkscape:connector-curvature="0" />
	<path style="fill:none;stroke:red;stroke-width:1px;stroke-linecap:butt;stroke-linejoin:miter;stroke-opacity:1" d="M 27.4848,429.545 32.1818,415.455 z" id="boundary" inkscape:connector-curvature="0" />
	<path style="fill:none;stroke:red;stroke-width:1px;stroke-linecap:butt;stroke-linejoin:miter;stroke-opacity:1" d="M 361.909,159 371.303,159 z" id="boundary" inkscape:connector-curvature="0" />
	<path style="fill:none;stroke:red;stroke-width:1px;stroke-linecap:butt;stroke-linejoin:miter;stroke-opacity:1" d="M 365.667,6.81818 365.667,16.2121 z" id="boundary" inkscape:connector-curvature="0" />
	<path style="fill:none;stroke:red;stroke-width:1px;stroke-linecap:butt;stroke-linejoin:miter;stroke-opacity:1" d="M 365.667,6.81818 375.061,4 z" id="boundary" inkscape:connector-curvature="0" />
	<path style="fill:none;stroke:red;stroke-width:1px;stroke-linecap:butt;stroke-linejoin:miter;stroke-opacity:1" d="M 375.061,4 384.455,5.87879 z" id="boundary" inkscape:connector-curvature="0" />
	<path style="fill:none;stroke:red;stroke-width:1px;stroke-linecap:butt;stroke-linejoin:miter;stroke-opacity:1" d="M 394.788,21.8485 390.091,13.3939 z" id="boundary" inkscape:connector-curvature="0" />
	<path style="fill:none;stroke:red;stroke-width:1px;stroke-linecap:butt;stroke-linejoin:miter;stroke-opacity:1" d="M 370.364,24.6667 365.667,16.2121 z" id="boundary" inkscape:connector-curvature="0" />
	<path style="fill:none;stroke:red;stroke-width:1px;stroke-linecap:butt;stroke-linejoin:miter;stroke-opacity:1" d="M 384.455,5.87879 390.091,13.3939 z" id="boundary" inkscape:connector-curvature="0" />
	<path style="fill:none;stroke:red;stroke-width:1px;stroke-linecap:butt;stroke-linejoin:miter;stroke-opacity:1" d="M 375.061,33.1212 379.758,41.5758 z" id="boundary" inkscape:connector-curvature="0" />
	<path style="fill:none;stroke:red;stroke-width:1px;stroke-linecap:butt;stroke-linejoin:miter;stroke-opacity:1" d="M 375.061,33.1212 370.364,24.6667 z" id="boundary" inkscape:connector-curvature="0" />
	<path style="fill:none;stroke:red;stroke-width:1px;stroke-linecap:butt;stroke-linejoin:miter;stroke-opacity:1" d="M 379.758,41.5758 385.394,49.0909 z" id="boundary" inkscape:connector-curvature="0" />
	<path style="fill:none;stroke:red;stroke-width:1px;stroke-linecap:butt;stroke-linejoin:miter;stroke-opacity:1" d="M 391.97,56.6061 385.394,49.0909 z" id="boundary" inkscape:connector-curvature="0" />
	<path style="fill:none;stroke:red;stroke-width:1px;stroke-linecap:butt;stroke-linejoin:miter;stroke-opacity:1" d="M 394.788,21.8485 399.485,30.303 z" id="boundary" inkscape:connector-curvature="0" />
	<path style="fill:none;stroke:red;stroke-width:1px;stroke-linecap:butt;stroke-linejoin:miter;stroke-opacity:1" d="M 391.97,56.6061 396.667,65.0606 z" id="boundary" inkscape:connector-curvature="0" />
	<path style="fill:none;stroke:red;stroke-width:1px;stroke-linecap:butt;stroke-linejoin:miter;stroke-opacity:1" d="M 403.242,39.697 407.939,48.1515 z" id="boundary" inkscape:connector-curvature="0" />
	<path style="fill:none;stroke:red;stroke-width:1px;stroke-linecap:butt;stroke-linejoin:miter;stroke-opacity:1" d="M 421.091,61.303 413.576,55.6667 z" id="boundary" inkscape:connector-curvature="0" />
	<path style="fill:none;stroke:red;stroke-width:1px;stroke-linecap:butt;stroke-linejoin:miter;stroke-opacity:1" d="M 413.576,55.6667 407.939,48.1515 z" id="boundary" inkscape:connector-curvature="0" />
	<path style="fill:none;stroke:red;stroke-width:1px;stroke-linecap:butt;stroke-linejoin:miter;stroke-opacity:1" d="M 403.242,39.697 399.485,30.303 z" id="boundary" inkscape:connector-curvature="0" />
	<path style="fill:none;stroke:red;stroke-width:1px;stroke-linecap:butt;stroke-linejoin:miter;stroke-opacity:1" d="M 407.939,80.0909 400.424,74.4545 z" id="boundary" inkscape:connector-curvature="0" />
	<path style="fill:none;stroke:red;stroke-width:1px;stroke-linecap:butt;stroke-linejoin:miter;stroke-opacity:1" d="M 400.424,74.4545 396.667,65.0606 z" id="boundary" inkscape:connector-curvature="0" />
	<path style="fill:none;stroke:red;stroke-width:1px;stroke-linecap:butt;stroke-linejoin:miter;stroke-opacity:1" d="M 407.939,80.0909 413.576,87.6061 z" id="boundary" inkscape:connector-curvature="0" />
	<path style="fill:none;stroke:red;stroke-width:1px;stroke-linecap:butt;stroke-linejoin:miter;stroke-opacity:1" d="M 424.848,70.697 432.364,77.2727 z" id="boundary" inkscape:connector-curvature="0" />
	<path style="fill:none;stroke:red;stroke-width:1px;stroke-linecap:butt;stroke-linejoin:miter;stroke-opacity:1" d="M 424.848,70.697 421.091,61.303 z" id="boundary" inkscape:connector-curvature="0" />
	<path style="fill:none;stroke:red;stroke-width:1px;stroke-linecap:butt;stroke-linejoin:miter;stroke-opacity:1" d="M 442.697,93.2424 437.061,85.7273 z" id="boundary" inkscape:connector-curvature="0" />
	<path style="fill:none;stroke:red;stroke-width:1px;stroke-linecap:butt;stroke-linejoin:miter;stroke-opacity:1" d="M 432.364,77.2727 437.061,85.7273 z" id="boundary" inkscape:connector-curvature="0" />
	<path style="fill:none;stroke:red;stroke-width:1px;stroke-linecap:butt;stroke-linejoin:miter;stroke-opacity:1" d="M 380.697,159 371.303,159 z" id="boundary" inkscape:connector-curvature="0" />
	<path style="fill:none;stroke:red;stroke-width:1px;stroke-linecap:butt;stroke-linejoin:miter;stroke-opacity:1" d="M 424.848,103.576 418.273,96.0606 z" id="boundary" inkscape:connector-curvature="0" />
	<path style="fill:none;stroke:red;stroke-width:1px;stroke-linecap:butt;stroke-linejoin:miter;stroke-opacity:1" d="M 432.364,110.152 424.848,103.576 z" id="boundary" inkscape:connector-curvature="0" />
	<path style="fill:none;stroke:red;stroke-width:1px;stroke-linecap:butt;stroke-linejoin:miter;stroke-opacity:1" d="M 413.576,87.6061 418.273,96.0606 z" id="boundary" inkscape:connector-curvature="0" />
	<path style="fill:none;stroke:red;stroke-width:1px;stroke-linecap:butt;stroke-linejoin:miter;stroke-opacity:1" d="M 390.091,159 380.697,159 z" id="boundary" inkscape:connector-curvature="0" />
	<path style="fill:none;stroke:red;stroke-width:1px;stroke-linecap:butt;stroke-linejoin:miter;stroke-opacity:1" d="M 399.485,159 390.091,159 z" id="boundary" inkscape:connector-curvature="0" />
	<path style="fill:none;stroke:red;stroke-width:1px;stroke-linecap:butt;stroke-linejoin:miter;stroke-opacity:1" d="M 408.879,159 418.273,159 z" id="boundary" inkscape:connector-curvature="0" />
	<path style="fill:none;stroke:red;stroke-width:1px;stroke-linecap:butt;stroke-linejoin:miter;stroke-opacity:1" d="M 427.667,159 418.273,159 z" id="boundary" inkscape:connector-curvature="0" />
	<path style="fill:none;stroke:red;stroke-width:1px;stroke-linecap:butt;stroke-linejoin:miter;stroke-opacity:1" d="M 427.667,159 436.121,163.697 z" id="boundary" inkscape:connector-curvature="0" />
	<path style="fill:none;stroke:red;stroke-width:1px;stroke-linecap:butt;stroke-linejoin:miter;stroke-opacity:1" d="M 408.879,159 399.485,159 z" id="boundary" inkscape:connector-curvature="0" />
	<path style="fill:none;stroke:red;stroke-width:1px;stroke-linecap:butt;stroke-linejoin:miter;stroke-opacity:1" d="M 432.364,110.152 438.939,117.667 z" id="boundary" inkscape:connector-curvature="0" />
	<path style="fill:none;stroke:red;stroke-width:1px;stroke-linecap:butt;stroke-linejoin:miter;stroke-opacity:1" d="M 442.697,93.2424 450.212,99.8182 z" id="boundary" inkscape:connector-curvature="0" />
	<path style="fill:none;stroke:red;stroke-width:1px;stroke-linecap:butt;stroke-linejoin:miter;stroke-opacity:1" d="M 443.636,126.121 438.939,117.667 z" id="boundary" inkscape:connector-curvature="0" />
	<path style="fill:none;stroke:red;stroke-width:1px;stroke-linecap:butt;stroke-linejoin:miter;stroke-opacity:1" d="M 450.212,99.8182 459.606,100.758 z" id="boundary" inkscape:connector-curvature="0" />
	<path style="fill:none;stroke:red;stroke-width:1px;stroke-linecap:butt;stroke-linejoin:miter;stroke-opacity:1" d="M 467.121,93.2424 459.606,100.758 z" id="boundary" inkscape:connector-curvature="0" />
	<path style="fill:none;stroke:red;stroke-width:1px;stroke-linecap:butt;stroke-linejoin:miter;stroke-opacity:1" d="M 445.515,135.515 443.636,126.121 z" id="boundary" inkscape:connector-curvature="0" />
	<path style="fill:none;stroke:red;stroke-width:1px;stroke-linecap:butt;stroke-linejoin:miter;stroke-opacity:1" d="M 445.515,163.697 436.121,163.697 z" id="boundary" inkscape:connector-curvature="0" />
	<path style="fill:none;stroke:red;stroke-width:1px;stroke-linecap:butt;stroke-linejoin:miter;stroke-opacity:1" d="M 445.515,135.515 450.212,143.97 z" id="boundary" inkscape:connector-curvature="0" />
	<path style="fill:none;stroke:red;stroke-width:1px;stroke-linecap:butt;stroke-linejoin:miter;stroke-opacity:1" d="M 454.909,152.424 454.909,161.818 z" id="boundary" inkscape:connector-curvature="0" />
	<path style="fill:none;stroke:red;stroke-width:1px;stroke-linecap:butt;stroke-linejoin:miter;stroke-opacity:1" d="M 454.909,161.818 445.515,163.697 z" id="boundary" inkscape:connector-curvature="0" />
	<path style="fill:none;stroke:red;stroke-width:1px;stroke-linecap:butt;stroke-linejoin:miter;stroke-opacity:1" d="M 454.909,152.424 450.212,143.97 z" id="boundary" inkscape:connector-curvature="0" />
	<path style="fill:none;stroke:red;stroke-width:1px;stroke-linecap:butt;stroke-linejoin:miter;stroke-opacity:1" d="M 4,542.273 4,532.879 z" id="boundary" inkscape:connector-curvature="0" />
	<path style="fill:none;stroke:red;stroke-width:1px;stroke-linecap:butt;stroke-linejoin:miter;stroke-opacity:1" d="M 4,532.879 8.69697,518.788 z" id="boundary" inkscape:connector-curvature="0" />
	<path style="fill:none;stroke:red;stroke-width:1px;stroke-linecap:butt;stroke-linejoin:miter;stroke-opacity:1" d="M 4,561.061 4,551.667 z" id="boundary" inkscape:connector-curvature="0" />
	<path style="fill:none;stroke:red;stroke-width:1px;stroke-linecap:butt;stroke-linejoin:miter;stroke-opacity:1" d="M 4,551.667 4,542.273 z" id="boundary" inkscape:connector-curvature="0" />
	<path style="fill:none;stroke:red;stroke-width:1px;stroke-linecap:butt;stroke-linejoin:miter;stroke-opacity:1" d="M 4,570.455 4,561.061 z" id="boundary" inkscape:connector-curvature="0" />
	<path style="fill:none;stroke:red;stroke-width:1px;stroke-linecap:butt;stroke-linejoin:miter;stroke-opacity:1" d="M 4,579.848 4,570.455 z" id="boundary" inkscape:connector-curvature="0" />
	<path style="fill:none;stroke:red;stroke-width:1px;stroke-linecap:butt;stroke-linejoin:miter;stroke-opacity:1" d="M 4,589.242 4,579.848 z" id="boundary" inkscape:connector-curvature="0" />
	<path style="fill:none;stroke:red;stroke-width:1px;stroke-linecap:butt;stroke-linejoin:miter;stroke-opacity:1" d="M 4,608.03 4,598.636 z" id="boundary" inkscape:connector-curvature="0" />
	<path style="fill:none;stroke:red;stroke-width:1px;stroke-linecap:butt;stroke-linejoin:miter;stroke-opacity:1" d="M 8.69697,625.879 4,617.424 z" id="boundary" inkscape:connector-curvature="0" />
	<path style="fill:none;stroke:red;stroke-width:1px;stroke-linecap:butt;stroke-linejoin:miter;stroke-opacity:1" d="M 4,617.424 4,608.03 z" id="boundary" inkscape:connector-curvature="0" />
	<path style="fill:none;stroke:red;stroke-width:1px;stroke-linecap:butt;stroke-linejoin:miter;stroke-opacity:1" d="M 4,598.636 4,589.242 z" id="boundary" inkscape:connector-curvature="0" />
	<path style="fill:none;stroke:red;stroke-width:1px;stroke-linecap:butt;stroke-linejoin:miter;stroke-opacity:1" d="M 8.69697,500 8.69697,509.394 z" id="boundary" inkscape:connector-curvature="0" />
	<path style="fill:none;stroke:red;stroke-width:1px;stroke-linecap:butt;stroke-linejoin:miter;stroke-opacity:1" d="M 18.0909,457.727 18.0909,467.121 z" id="boundary" inkscape:connector-curvature="0" />
	<path style="fill:none;stroke:red;stroke-width:1px;stroke-linecap:butt;stroke-linejoin:miter;stroke-opacity:1" d="M 18.0909,467.121 13.3939,476.515 z" id="boundary" inkscape:connector-curvature="0" />
	<path style="fill:none;stroke:red;stroke-width:1px;stroke-linecap:butt;stroke-linejoin:miter;stroke-opacity:1" d="M 22.7879,443.636 27.4848,429.545 z" id="boundary" inkscape:connector-curvature="0" />
	<path style="fill:none;stroke:red;stroke-width:1px;stroke-linecap:butt;stroke-linejoin:miter;stroke-opacity:1" d="M 18.0909,457.727 22.7879,443.636 z" id="boundary" inkscape:connector-curvature="0" />
	<path style="fill:none;stroke:red;stroke-width:1px;stroke-linecap:butt;stroke-linejoin:miter;stroke-opacity:1" d="M 13.3939,485.909 13.3939,476.515 z" id="boundary" inkscape:connector-curvature="0" />
	<path style="fill:none;stroke:red;stroke-width:1px;stroke-linecap:butt;stroke-linejoin:miter;stroke-opacity:1" d="M 8.69697,509.394 8.69697,518.788 z" id="boundary" inkscape:connector-curvature="0" />
	<path style="fill:none;stroke:red;stroke-width:1px;stroke-linecap:butt;stroke-linejoin:miter;stroke-opacity:1" d="M 8.69697,635.273 8.69697,625.879 z" id="boundary" inkscape:connector-curvature="0" />
	<path style="fill:none;stroke:red;stroke-width:1px;stroke-linecap:butt;stroke-linejoin:miter;stroke-opacity:1" d="M 8.69697,644.667 8.69697,635.273 z" id="boundary" inkscape:connector-curvature="0" />
	<path style="fill:none;stroke:red;stroke-width:1px;stroke-linecap:butt;stroke-linejoin:miter;stroke-opacity:1" d="M 13.3939,653.121 8.69697,644.667 z" id="boundary" inkscape:connector-curvature="0" />
	<path style="fill:none;stroke:red;stroke-width:1px;stroke-linecap:butt;stroke-linejoin:miter;stroke-opacity:1" d="M 8.69697,500 13.3939,485.909 z" id="boundary" inkscape:connector-curvature="0" />
	<path style="fill:none;stroke:red;stroke-width:1px;stroke-linecap:butt;stroke-linejoin:miter;stroke-opacity:1" d="M 13.3939,653.121 13.3939,662.515 z" id="boundary" inkscape:connector-curvature="0" />
	<path style="fill:none;stroke:red;stroke-width:1px;stroke-linecap:butt;stroke-linejoin:miter;stroke-opacity:1" d="M 13.3939,671.909 18.0909,680.364 z" id="boundary" inkscape:connector-curvature="0" />
	<path style="fill:none;stroke:red;stroke-width:1px;stroke-linecap:butt;stroke-linejoin:miter;stroke-opacity:1" d="M 18.0909,680.364 18.0909,689.758 z" id="boundary" inkscape:connector-curvature="0" />
	<path style="fill:none;stroke:red;stroke-width:1px;stroke-linecap:butt;stroke-linejoin:miter;stroke-opacity:1" d="M 13.3939,671.909 13.3939,662.515 z" id="boundary" inkscape:connector-curvature="0" />
	<path style="fill:none;stroke:red;stroke-width:1px;stroke-linecap:butt;stroke-linejoin:miter;stroke-opacity:1" d="M 22.7879,698.212 18.0909,689.758 z" id="boundary" inkscape:connector-curvature="0" />
	<path style="fill:none;stroke:red;stroke-width:1px;stroke-linecap:butt;stroke-linejoin:miter;stroke-opacity:1" d="M 27.4848,717 23.7273,707.606 z" id="boundary" inkscape:connector-curvature="0" />
	<path style="fill:none;stroke:red;stroke-width:1px;stroke-linecap:butt;stroke-linejoin:miter;stroke-opacity:1" d="M 23.7273,707.606 22.7879,698.212 z" id="boundary" inkscape:connector-curvature="0" />
	<path style="fill:none;stroke:red;stroke-width:1px;stroke-linecap:butt;stroke-linejoin:miter;stroke-opacity:1" d="M 32.1818,725.455 27.4848,717 z" id="boundary" inkscape:connector-curvature="0" />
	<path style="fill:none;stroke:red;stroke-width:1px;stroke-linecap:butt;stroke-linejoin:miter;stroke-opacity:1" d="M 36.8788,743.303 32.1818,734.848 z" id="boundary" inkscape:connector-curvature="0" />
	<path style="fill:none;stroke:red;stroke-width:1px;stroke-linecap:butt;stroke-linejoin:miter;stroke-opacity:1" d="M 32.1818,734.848 32.1818,725.455 z" id="boundary" inkscape:connector-curvature="0" />
	<path style="fill:none;stroke:red;stroke-width:1px;stroke-linecap:butt;stroke-linejoin:miter;stroke-opacity:1" d="M 41.5758,751.758 36.8788,743.303 z" id="boundary" inkscape:connector-curvature="0" />
	<path style="fill:none;stroke:red;stroke-width:1px;stroke-linecap:butt;stroke-linejoin:miter;stroke-opacity:1" d="M 41.5758,751.758 44.3939,761.152 z" id="boundary" inkscape:connector-curvature="0" />
	<path style="fill:none;stroke:red;stroke-width:1px;stroke-linecap:butt;stroke-linejoin:miter;stroke-opacity:1" d="M 49.0909,769.606 44.3939,761.152 z" id="boundary" inkscape:connector-curvature="0" />
	<path style="fill:none;stroke:red;stroke-width:1px;stroke-linecap:butt;stroke-linejoin:miter;stroke-opacity:1" d="M 65.0606,794.03 57.5455,787.455 z" id="boundary" inkscape:connector-curvature="0" />
	<path style="fill:none;stroke:red;stroke-width:1px;stroke-linecap:butt;stroke-linejoin:miter;stroke-opacity:1" d="M 57.5455,787.455 52.8485,779 z" id="boundary" inkscape:connector-curvature="0" />
	<path style="fill:none;stroke:red;stroke-width:1px;stroke-linecap:butt;stroke-linejoin:miter;stroke-opacity:1" d="M 52.8485,779 49.0909,769.606 z" id="boundary" inkscape:connector-curvature="0" />
	<path style="fill:none;stroke:red;stroke-width:1px;stroke-linecap:butt;stroke-linejoin:miter;stroke-opacity:1" d="M 72.5758,811.879 67.8788,803.424 z" id="boundary" inkscape:connector-curvature="0" />
	<path style="fill:none;stroke:red;stroke-width:1px;stroke-linecap:butt;stroke-linejoin:miter;stroke-opacity:1" d="M 67.8788,803.424 65.0606,794.03 z" id="boundary" inkscape:connector-curvature="0" />
	<path style="fill:none;stroke:red;stroke-width:1px;stroke-linecap:butt;stroke-linejoin:miter;stroke-opacity:1" d="M 79.1515,819.394 72.5758,811.879 z" id="boundary" inkscape:connector-curvature="0" />
	<path style="fill:none;stroke:red;stroke-width:1px;stroke-linecap:butt;stroke-linejoin:miter;stroke-opacity:1" d="M 90.4242,835.364 83.8485,827.848 z" id="boundary" inkscape:connector-curvature="0" />
	<path style="fill:none;stroke:red;stroke-width:1px;stroke-linecap:butt;stroke-linejoin:miter;stroke-opacity:1" d="M 83.8485,827.848 79.1515,819.394 z" id="boundary" inkscape:connector-curvature="0" />
	<path style="fill:none;stroke:red;stroke-width:1px;stroke-linecap:butt;stroke-linejoin:miter;stroke-opacity:1" d="M 90.4242,835.364 95.1212,843.818 z" id="boundary" inkscape:connector-curvature="0" />
	<path style="fill:none;stroke:red;stroke-width:1px;stroke-linecap:butt;stroke-linejoin:miter;stroke-opacity:1" d="M 95.1212,843.818 102.636,850.394 z" id="boundary" inkscape:connector-curvature="0" />
	<path style="fill:none;stroke:red;stroke-width:1px;stroke-linecap:butt;stroke-linejoin:miter;stroke-opacity:1" d="M 102.636,850.394 108.273,857.909 z" id="boundary" inkscape:connector-curvature="0" />
	<path style="fill:none;stroke:red;stroke-width:1px;stroke-linecap:butt;stroke-linejoin:miter;stroke-opacity:1" d="M 108.273,857.909 115.788,864.485 z" id="boundary" inkscape:connector-curvature="0" />
	<path style="fill:none;stroke:red;stroke-width:1px;stroke-linecap:butt;stroke-linejoin:miter;stroke-opacity:1" d="M 115.788,864.485 122.364,872 z" id="boundary" inkscape:connector-curvature="0" />
	<path style="fill:none;stroke:red;stroke-width:1px;stroke-linecap:butt;stroke-linejoin:miter;stroke-opacity:1" d="M 129.879,878.576 122.364,872 z" id="boundary" inkscape:connector-curvature="0" />
	<path style="fill:none;stroke:red;stroke-width:1px;stroke-linecap:butt;stroke-linejoin:miter;stroke-opacity:1" d="M 143.97,892.667 136.455,886.091 z" id="boundary" inkscape:connector-curvature="0" />
	<path style="fill:none;stroke:red;stroke-width:1px;stroke-linecap:butt;stroke-linejoin:miter;stroke-opacity:1" d="M 136.455,886.091 129.879,878.576 z" id="boundary" inkscape:connector-curvature="0" />
	<path style="fill:none;stroke:red;stroke-width:1px;stroke-linecap:butt;stroke-linejoin:miter;stroke-opacity:1" d="M 143.97,892.667 150.545,900.182 z" id="boundary" inkscape:connector-curvature="0" />
	<path style="fill:none;stroke:red;stroke-width:1px;stroke-linecap:butt;stroke-linejoin:miter;stroke-opacity:1" d="M 166.515,911.455 158.061,906.758 z" id="boundary" inkscape:connector-curvature="0" />
	<path style="fill:none;stroke:red;stroke-width:1px;stroke-linecap:butt;stroke-linejoin:miter;stroke-opacity:1" d="M 158.061,906.758 150.545,900.182 z" id="boundary" inkscape:connector-curvature="0" />
	<path style="fill:none;stroke:red;stroke-width:1px;stroke-linecap:butt;stroke-linejoin:miter;stroke-opacity:1" d="M 166.515,911.455 174.03,918.03 z" id="boundary" inkscape:connector-curvature="0" />
	<path style="fill:none;stroke:red;stroke-width:1px;stroke-linecap:butt;stroke-linejoin:miter;stroke-opacity:1" d="M 174.03,918.03 180.606,925.545 z" id="boundary" inkscape:connector-curvature="0" />
	<path style="fill:none;stroke:red;stroke-width:1px;stroke-linecap:butt;stroke-linejoin:miter;stroke-opacity:1" d="M 190,929.303 180.606,925.545 z" id="boundary" inkscape:connector-curvature="0" />
	<path style="fill:none;stroke:red;stroke-width:1px;stroke-linecap:butt;stroke-linejoin:miter;stroke-opacity:1" d="M 205.97,939.636 197.515,934.939 z" id="boundary" inkscape:connector-curvature="0" />
	<path style="fill:none;stroke:red;stroke-width:1px;stroke-linecap:butt;stroke-linejoin:miter;stroke-opacity:1" d="M 197.515,934.939 190,929.303 z" id="boundary" inkscape:connector-curvature="0" />
	<path style="fill:none;stroke:red;stroke-width:1px;stroke-linecap:butt;stroke-linejoin:miter;stroke-opacity:1" d="M 214.424,944.333 205.97,939.636 z" id="boundary" inkscape:connector-curvature="0" />
	<path style="fill:none;stroke:red;stroke-width:1px;stroke-linecap:butt;stroke-linejoin:miter;stroke-opacity:1" d="M 222.879,949.03 214.424,944.333 z" id="boundary" inkscape:connector-curvature="0" />
	<path style="fill:none;stroke:red;stroke-width:1px;stroke-linecap:butt;stroke-linejoin:miter;stroke-opacity:1" d="M 231.333,953.727 222.879,949.03 z" id="boundary" inkscape:connector-curvature="0" />
	<path style="fill:none;stroke:red;stroke-width:1px;stroke-linecap:butt;stroke-linejoin:miter;stroke-opacity:1" d="M 257.636,963.121 248.242,963.121 z" id="boundary" inkscape:connector-curvature="0" />
	<path style="fill:none;stroke:red;stroke-width:1px;stroke-linecap:butt;stroke-linejoin:miter;stroke-opacity:1" d="M 248.242,963.121 239.788,958.424 z" id="boundary" inkscape:connector-curvature="0" />
	<path style="fill:none;stroke:red;stroke-width:1px;stroke-linecap:butt;stroke-linejoin:miter;stroke-opacity:1" d="M 239.788,958.424 231.333,953.727 z" id="boundary" inkscape:connector-curvature="0" />
	<path style="fill:none;stroke:red;stroke-width:1px;stroke-linecap:butt;stroke-linejoin:miter;stroke-opacity:1" d="M 257.636,963.121 266.091,967.818 z" id="boundary" inkscape:connector-curvature="0" />
	<path style="fill:none;stroke:red;stroke-width:1px;stroke-linecap:butt;stroke-linejoin:miter;stroke-opacity:1" d="M 266.091,967.818 274.545,972.515 z" id="boundary" inkscape:connector-curvature="0" />
	<path style="fill:none;stroke:red;stroke-width:1px;stroke-linecap:butt;stroke-linejoin:miter;stroke-opacity:1" d="M 283.939,972.515 274.545,972.515 z" id="boundary" inkscape:connector-curvature="0" />
	<path style="fill:none;stroke:red;stroke-width:1px;stroke-linecap:butt;stroke-linejoin:miter;stroke-opacity:1" d="M 301.788,980.03 292.394,977.212 z" id="boundary" inkscape:connector-curvature="0" />
	<path style="fill:none;stroke:red;stroke-width:1px;stroke-linecap:butt;stroke-linejoin:miter;stroke-opacity:1" d="M 292.394,977.212 283.939,972.515 z" id="boundary" inkscape:connector-curvature="0" />
	<path style="fill:none;stroke:red;stroke-width:1px;stroke-linecap:butt;stroke-linejoin:miter;stroke-opacity:1" d="M 311.182,981.909 301.788,980.03 z" id="boundary" inkscape:connector-curvature="0" />
	<path style="fill:none;stroke:red;stroke-width:1px;stroke-linecap:butt;stroke-linejoin:miter;stroke-opacity:1" d="M 339.364,986.606 329.97,986.606 z" id="boundary" inkscape:connector-curvature="0" />
	<path style="fill:none;stroke:red;stroke-width:1px;stroke-linecap:butt;stroke-linejoin:miter;stroke-opacity:1" d="M 329.97,986.606 320.576,984.727 z" id="boundary" inkscape:connector-curvature="0" />
	<path style="fill:none;stroke:red;stroke-width:1px;stroke-linecap:butt;stroke-linejoin:miter;stroke-opacity:1" d="M 320.576,984.727 311.182,981.909 z" id="boundary" inkscape:connector-curvature="0" />
	<path style="fill:none;stroke:red;stroke-width:1px;stroke-linecap:butt;stroke-linejoin:miter;stroke-opacity:1" d="M 339.364,986.606 348.758,986.606 z" id="boundary" inkscape:connector-curvature="0" />
	<path style="fill:none;stroke:red;stroke-width:1px;stroke-linecap:butt;stroke-linejoin:miter;stroke-opacity:1" d="M 348.758,986.606 357.212,991.303 z" id="boundary" inkscape:connector-curvature="0" />
	<path style="fill:none;stroke:red;stroke-width:1px;stroke-linecap:butt;stroke-linejoin:miter;stroke-opacity:1" d="M 366.606,991.303 357.212,991.303 z" id="boundary" inkscape:connector-curvature="0" />
	<path style="fill:none;stroke:red;stroke-width:1px;stroke-linecap:butt;stroke-linejoin:miter;stroke-opacity:1" d="M 366.606,991.303 376,991.303 z" id="boundary" inkscape:connector-curvature="0" />
	<path style="fill:none;stroke:red;stroke-width:1px;stroke-linecap:butt;stroke-linejoin:miter;stroke-opacity:1" d="M 394.788,991.303 385.394,991.303 z" id="boundary" inkscape:connector-curvature="0" />
	<path style="fill:none;stroke:red;stroke-width:1px;stroke-linecap:butt;stroke-linejoin:miter;stroke-opacity:1" d="M 385.394,991.303 376,991.303 z" id="boundary" inkscape:connector-curvature="0" />
	<path style="fill:none;stroke:red;stroke-width:1px;stroke-linecap:butt;stroke-linejoin:miter;stroke-opacity:1" d="M 404.182,991.303 394.788,991.303 z" id="boundary" inkscape:connector-curvature="0" />
	<path style="fill:none;stroke:red;stroke-width:1px;stroke-linecap:butt;stroke-linejoin:miter;stroke-opacity:1" d="M 404.182,991.303 413.576,991.303 z" id="boundary" inkscape:connector-curvature="0" />
	<path style="fill:none;stroke:red;stroke-width:1px;stroke-linecap:butt;stroke-linejoin:miter;stroke-opacity:1" d="M 422.97,991.303 413.576,991.303 z" id="boundary" inkscape:connector-curvature="0" />
	<path style="fill:none;stroke:red;stroke-width:1px;stroke-linecap:butt;stroke-linejoin:miter;stroke-opacity:1" d="M 432.364,986.606 422.97,991.303 z" id="boundary" inkscape:connector-curvature="0" />
	<path style="fill:none;stroke:red;stroke-width:1px;stroke-linecap:butt;stroke-linejoin:miter;stroke-opacity:1" d="M 440.818,991.303 450.212,991.303 z" id="boundary" inkscape:connector-curvature="0" />
	<path style="fill:none;stroke:red;stroke-width:1px;stroke-linecap:butt;stroke-linejoin:miter;stroke-opacity:1" d="M 440.818,991.303 432.364,986.606 z" id="boundary" inkscape:connector-curvature="0" />
	<path style="fill:none;stroke:red;stroke-width:1px;stroke-linecap:butt;stroke-linejoin:miter;stroke-opacity:1" d="M 459.606,991.303 450.212,991.303 z" id="boundary" inkscape:connector-curvature="0" />
	<path style="fill:none;stroke:red;stroke-width:1px;stroke-linecap:butt;stroke-linejoin:miter;stroke-opacity:1" d="M 469,991.303 459.606,991.303 z" id="boundary" inkscape:connector-curvature="0" />
	<path style="fill:none;stroke:red;stroke-width:1px;stroke-linecap:butt;stroke-linejoin:miter;stroke-opacity:1" d="M 502.818,48.1515 510.333,41.5758 z" id="boundary" inkscape:connector-curvature="0" />
	<path style="fill:none;stroke:red;stroke-width:1px;stroke-linecap:butt;stroke-linejoin:miter;stroke-opacity:1" d="M 518.788,36.8788 510.333,41.5758 z" id="boundary" inkscape:connector-curvature="0" />
	<path style="fill:none;stroke:red;stroke-width:1px;stroke-linecap:butt;stroke-linejoin:miter;stroke-opacity:1" d="M 527.242,32.1818 535.697,27.4848 z" id="boundary" inkscape:connector-curvature="0" />
	<path style="fill:none;stroke:red;stroke-width:1px;stroke-linecap:butt;stroke-linejoin:miter;stroke-opacity:1" d="M 545.091,24.6667 535.697,27.4848 z" id="boundary" inkscape:connector-curvature="0" />
	<path style="fill:none;stroke:red;stroke-width:1px;stroke-linecap:butt;stroke-linejoin:miter;stroke-opacity:1" d="M 527.242,32.1818 518.788,36.8788 z" id="boundary" inkscape:connector-curvature="0" />
	<path style="fill:none;stroke:red;stroke-width:1px;stroke-linecap:butt;stroke-linejoin:miter;stroke-opacity:1" d="M 467.121,93.2424 474.636,85.7273 z" id="boundary" inkscape:connector-curvature="0" />
	<path style="fill:none;stroke:red;stroke-width:1px;stroke-linecap:butt;stroke-linejoin:miter;stroke-opacity:1" d="M 482.152,79.1515 474.636,85.7273 z" id="boundary" inkscape:connector-curvature="0" />
	<path style="fill:none;stroke:red;stroke-width:1px;stroke-linecap:butt;stroke-linejoin:miter;stroke-opacity:1" d="M 487.788,63.1818 482.152,79.1515 z" id="boundary" inkscape:connector-curvature="0" />
	<path style="fill:none;stroke:red;stroke-width:1px;stroke-linecap:butt;stroke-linejoin:miter;stroke-opacity:1" d="M 487.788,63.1818 495.303,55.6667 z" id="boundary" inkscape:connector-curvature="0" />
	<path style="fill:none;stroke:red;stroke-width:1px;stroke-linecap:butt;stroke-linejoin:miter;stroke-opacity:1" d="M 502.818,48.1515 495.303,55.6667 z" id="boundary" inkscape:connector-curvature="0" />
	<path style="fill:none;stroke:red;stroke-width:1px;stroke-linecap:butt;stroke-linejoin:miter;stroke-opacity:1" d="M 554.485,22.7879 563.879,22.7879 z" id="boundary" inkscape:connector-curvature="0" />
	<path style="fill:none;stroke:red;stroke-width:1px;stroke-linecap:butt;stroke-linejoin:miter;stroke-opacity:1" d="M 573.273,22.7879 582.667,22.7879 z" id="boundary" inkscape:connector-curvature="0" />
	<path style="fill:none;stroke:red;stroke-width:1px;stroke-linecap:butt;stroke-linejoin:miter;stroke-opacity:1" d="M 592.061,22.7879 582.667,22.7879 z" id="boundary" inkscape:connector-curvature="0" />
	<path style="fill:none;stroke:red;stroke-width:1px;stroke-linecap:butt;stroke-linejoin:miter;stroke-opacity:1" d="M 573.273,22.7879 563.879,22.7879 z" id="boundary" inkscape:connector-curvature="0" />
	<path style="fill:none;stroke:red;stroke-width:1px;stroke-linecap:butt;stroke-linejoin:miter;stroke-opacity:1" d="M 592.061,84.7879 582.667,84.7879 z" id="boundary" inkscape:connector-curvature="0" />
	<path style="fill:none;stroke:red;stroke-width:1px;stroke-linecap:butt;stroke-linejoin:miter;stroke-opacity:1" d="M 601.455,80.0909 592.061,84.7879 z" id="boundary" inkscape:connector-curvature="0" />
	<path style="fill:none;stroke:red;stroke-width:1px;stroke-linecap:butt;stroke-linejoin:miter;stroke-opacity:1" d="M 592.061,22.7879 601.455,22.7879 z" id="boundary" inkscape:connector-curvature="0" />
	<path style="fill:none;stroke:red;stroke-width:1px;stroke-linecap:butt;stroke-linejoin:miter;stroke-opacity:1" d="M 582.667,84.7879 575.152,93.2424 z" id="boundary" inkscape:connector-curvature="0" />
	<path style="fill:none;stroke:red;stroke-width:1px;stroke-linecap:butt;stroke-linejoin:miter;stroke-opacity:1" d="M 609.909,75.3939 601.455,80.0909 z" id="boundary" inkscape:connector-curvature="0" />
	<path style="fill:none;stroke:red;stroke-width:1px;stroke-linecap:butt;stroke-linejoin:miter;stroke-opacity:1" d="M 601.455,22.7879 610.848,22.7879 z" id="boundary" inkscape:connector-curvature="0" />
	<path style="fill:none;stroke:red;stroke-width:1px;stroke-linecap:butt;stroke-linejoin:miter;stroke-opacity:1" d="M 610.848,22.7879 620.242,25.6061 z" id="boundary" inkscape:connector-curvature="0" />
	<path style="fill:none;stroke:red;stroke-width:1px;stroke-linecap:butt;stroke-linejoin:miter;stroke-opacity:1" d="M 545.091,24.6667 554.485,22.7879 z" id="boundary" inkscape:connector-curvature="0" />
	<path style="fill:none;stroke:red;stroke-width:1px;stroke-linecap:butt;stroke-linejoin:miter;stroke-opacity:1" d="M 515.03,143.97 519.727,134.576 z" id="boundary" inkscape:connector-curvature="0" />
	<path style="fill:none;stroke:red;stroke-width:1px;stroke-linecap:butt;stroke-linejoin:miter;stroke-opacity:1" d="M 515.03,143.97 507.515,150.545 z" id="boundary" inkscape:connector-curvature="0" />
	<path style="fill:none;stroke:red;stroke-width:1px;stroke-linecap:butt;stroke-linejoin:miter;stroke-opacity:1" d="M 533.818,120.485 526.303,127.061 z" id="boundary" inkscape:connector-curvature="0" />
	<path style="fill:none;stroke:red;stroke-width:1px;stroke-linecap:butt;stroke-linejoin:miter;stroke-opacity:1" d="M 540.394,112.97 533.818,120.485 z" id="boundary" inkscape:connector-curvature="0" />
	<path style="fill:none;stroke:red;stroke-width:1px;stroke-linecap:butt;stroke-linejoin:miter;stroke-opacity:1" d="M 519.727,134.576 526.303,127.061 z" id="boundary" inkscape:connector-curvature="0" />
	<path style="fill:none;stroke:red;stroke-width:1px;stroke-linecap:butt;stroke-linejoin:miter;stroke-opacity:1" d="M 549.788,166.515 540.394,163.697 z" id="boundary" inkscape:connector-curvature="0" />
	<path style="fill:none;stroke:red;stroke-width:1px;stroke-linecap:butt;stroke-linejoin:miter;stroke-opacity:1" d="M 502.818,159.939 507.515,150.545 z" id="boundary" inkscape:connector-curvature="0" />
	<path style="fill:none;stroke:red;stroke-width:1px;stroke-linecap:butt;stroke-linejoin:miter;stroke-opacity:1" d="M 512.212,163.697 502.818,159.939 z" id="boundary" inkscape:connector-curvature="0" />
	<path style="fill:none;stroke:red;stroke-width:1px;stroke-linecap:butt;stroke-linejoin:miter;stroke-opacity:1" d="M 521.606,163.697 512.212,163.697 z" id="boundary" inkscape:connector-curvature="0" />
	<path style="fill:none;stroke:red;stroke-width:1px;stroke-linecap:butt;stroke-linejoin:miter;stroke-opacity:1" d="M 521.606,163.697 531,163.697 z" id="boundary" inkscape:connector-curvature="0" />
	<path style="fill:none;stroke:red;stroke-width:1px;stroke-linecap:butt;stroke-linejoin:miter;stroke-opacity:1" d="M 531,163.697 540.394,163.697 z" id="boundary" inkscape:connector-curvature="0" />
	<path style="fill:none;stroke:red;stroke-width:1px;stroke-linecap:butt;stroke-linejoin:miter;stroke-opacity:1" d="M 540.394,112.97 549.788,108.273 z" id="boundary" inkscape:connector-curvature="0" />
	<path style="fill:none;stroke:red;stroke-width:1px;stroke-linecap:butt;stroke-linejoin:miter;stroke-opacity:1" d="M 559.182,168.394 549.788,166.515 z" id="boundary" inkscape:connector-curvature="0" />
	<path style="fill:none;stroke:red;stroke-width:1px;stroke-linecap:butt;stroke-linejoin:miter;stroke-opacity:1" d="M 567.636,98.8788 559.182,103.576 z" id="boundary" inkscape:connector-curvature="0" />
	<path style="fill:none;stroke:red;stroke-width:1px;stroke-linecap:butt;stroke-linejoin:miter;stroke-opacity:1" d="M 559.182,103.576 549.788,108.273 z" id="boundary" inkscape:connector-curvature="0" />
	<path style="fill:none;stroke:red;stroke-width:1px;stroke-linecap:butt;stroke-linejoin:miter;stroke-opacity:1" d="M 567.636,98.8788 575.152,93.2424 z" id="boundary" inkscape:connector-curvature="0" />
	<path style="fill:none;stroke:red;stroke-width:1px;stroke-linecap:butt;stroke-linejoin:miter;stroke-opacity:1" d="M 559.182,168.394 568.576,168.394 z" id="boundary" inkscape:connector-curvature="0" />
	<path style="fill:none;stroke:red;stroke-width:1px;stroke-linecap:butt;stroke-linejoin:miter;stroke-opacity:1" d="M 577.97,168.394 568.576,168.394 z" id="boundary" inkscape:connector-curvature="0" />
	<path style="fill:none;stroke:red;stroke-width:1px;stroke-linecap:butt;stroke-linejoin:miter;stroke-opacity:1" d="M 577.97,168.394 586.424,173.091 z" id="boundary" inkscape:connector-curvature="0" />
	<path style="fill:none;stroke:red;stroke-width:1px;stroke-linecap:butt;stroke-linejoin:miter;stroke-opacity:1" d="M 586.424,173.091 595.818,173.091 z" id="boundary" inkscape:connector-curvature="0" />
	<path style="fill:none;stroke:red;stroke-width:1px;stroke-linecap:butt;stroke-linejoin:miter;stroke-opacity:1" d="M 595.818,173.091 604.273,177.788 z" id="boundary" inkscape:connector-curvature="0" />
	<path style="fill:none;stroke:red;stroke-width:1px;stroke-linecap:butt;stroke-linejoin:miter;stroke-opacity:1" d="M 613.667,177.788 604.273,177.788 z" id="boundary" inkscape:connector-curvature="0" />
	<path style="fill:none;stroke:red;stroke-width:1px;stroke-linecap:butt;stroke-linejoin:miter;stroke-opacity:1" d="M 609.909,75.3939 619.303,75.3939 z" id="boundary" inkscape:connector-curvature="0" />
	<path style="fill:none;stroke:red;stroke-width:1px;stroke-linecap:butt;stroke-linejoin:miter;stroke-opacity:1" d="M 627.758,70.697 619.303,75.3939 z" id="boundary" inkscape:connector-curvature="0" />
	<path style="fill:none;stroke:red;stroke-width:1px;stroke-linecap:butt;stroke-linejoin:miter;stroke-opacity:1" d="M 620.242,25.6061 629.636,27.4848 z" id="boundary" inkscape:connector-curvature="0" />
	<path style="fill:none;stroke:red;stroke-width:1px;stroke-linecap:butt;stroke-linejoin:miter;stroke-opacity:1" d="M 629.636,27.4848 639.03,30.303 z" id="boundary" inkscape:connector-curvature="0" />
	<path style="fill:none;stroke:red;stroke-width:1px;stroke-linecap:butt;stroke-linejoin:miter;stroke-opacity:1" d="M 639.03,30.303 645.606,37.8182 z" id="boundary" inkscape:connector-curvature="0" />
	<path style="fill:none;stroke:red;stroke-width:1px;stroke-linecap:butt;stroke-linejoin:miter;stroke-opacity:1" d="M 653.121,44.3939 645.606,37.8182 z" id="boundary" inkscape:connector-curvature="0" />
	<path style="fill:none;stroke:red;stroke-width:1px;stroke-linecap:butt;stroke-linejoin:miter;stroke-opacity:1" d="M 637.152,70.697 627.758,70.697 z" id="boundary" inkscape:connector-curvature="0" />
	<path style="fill:none;stroke:red;stroke-width:1px;stroke-linecap:butt;stroke-linejoin:miter;stroke-opacity:1" d="M 645.606,65.0606 637.152,70.697 z" id="boundary" inkscape:connector-curvature="0" />
	<path style="fill:none;stroke:red;stroke-width:1px;stroke-linecap:butt;stroke-linejoin:miter;stroke-opacity:1" d="M 622.121,182.485 613.667,177.788 z" id="boundary" inkscape:connector-curvature="0" />
	<path style="fill:none;stroke:red;stroke-width:1px;stroke-linecap:butt;stroke-linejoin:miter;stroke-opacity:1" d="M 631.515,182.485 622.121,182.485 z" id="boundary" inkscape:connector-curvature="0" />
	<path style="fill:none;stroke:red;stroke-width:1px;stroke-linecap:butt;stroke-linejoin:miter;stroke-opacity:1" d="M 639.97,187.182 631.515,182.485 z" id="boundary" inkscape:connector-curvature="0" />
	<path style="fill:none;stroke:red;stroke-width:1px;stroke-linecap:butt;stroke-linejoin:miter;stroke-opacity:1" d="M 639.97,187.182 648.424,191.879 z" id="boundary" inkscape:connector-curvature="0" />
	<path style="fill:none;stroke:red;stroke-width:1px;stroke-linecap:butt;stroke-linejoin:miter;stroke-opacity:1" d="M 657.818,194.697 648.424,191.879 z" id="boundary" inkscape:connector-curvature="0" />
	<path style="fill:none;stroke:red;stroke-width:1px;stroke-linecap:butt;stroke-linejoin:miter;stroke-opacity:1" d="M 645.606,65.0606 653.121,53.7879 z" id="boundary" inkscape:connector-curvature="0" />
	<path style="fill:none;stroke:red;stroke-width:1px;stroke-linecap:butt;stroke-linejoin:miter;stroke-opacity:1" d="M 653.121,44.3939 653.121,53.7879 z" id="boundary" inkscape:connector-curvature="0" />
	<path style="fill:none;stroke:red;stroke-width:1px;stroke-linecap:butt;stroke-linejoin:miter;stroke-opacity:1" d="M 657.818,194.697 666.273,199.394 z" id="boundary" inkscape:connector-curvature="0" />
	<path style="fill:none;stroke:red;stroke-width:1px;stroke-linecap:butt;stroke-linejoin:miter;stroke-opacity:1" d="M 666.273,199.394 675.667,203.152 z" id="boundary" inkscape:connector-curvature="0" />
	<path style="fill:none;stroke:red;stroke-width:1px;stroke-linecap:butt;stroke-linejoin:miter;stroke-opacity:1" d="M 675.667,203.152 684.121,207.848 z" id="boundary" inkscape:connector-curvature="0" />
	<path style="fill:none;stroke:red;stroke-width:1px;stroke-linecap:butt;stroke-linejoin:miter;stroke-opacity:1" d="M 693.515,211.606 684.121,207.848 z" id="boundary" inkscape:connector-curvature="0" />
	<path style="fill:none;stroke:red;stroke-width:1px;stroke-linecap:butt;stroke-linejoin:miter;stroke-opacity:1" d="M 693.515,211.606 701.97,216.303 z" id="boundary" inkscape:connector-curvature="0" />
	<path style="fill:none;stroke:red;stroke-width:1px;stroke-linecap:butt;stroke-linejoin:miter;stroke-opacity:1" d="M 701.97,216.303 709.485,222.879 z" id="boundary" inkscape:connector-curvature="0" />
	<path style="fill:none;stroke:red;stroke-width:1px;stroke-linecap:butt;stroke-linejoin:miter;stroke-opacity:1" d="M 717.939,227.576 709.485,222.879 z" id="boundary" inkscape:connector-curvature="0" />
	<path style="fill:none;stroke:red;stroke-width:1px;stroke-linecap:butt;stroke-linejoin:miter;stroke-opacity:1" d="M 725.455,234.152 717.939,227.576 z" id="boundary" inkscape:connector-curvature="0" />
	<path style="fill:none;stroke:red;stroke-width:1px;stroke-linecap:butt;stroke-linejoin:miter;stroke-opacity:1" d="M 733.909,238.848 725.455,234.152 z" id="boundary" inkscape:connector-curvature="0" />
	<path style="fill:none;stroke:red;stroke-width:1px;stroke-linecap:butt;stroke-linejoin:miter;stroke-opacity:1" d="M 749.879,250.121 741.424,245.424 z" id="boundary" inkscape:connector-curvature="0" />
	<path style="fill:none;stroke:red;stroke-width:1px;stroke-linecap:butt;stroke-linejoin:miter;stroke-opacity:1" d="M 741.424,245.424 733.909,238.848 z" id="boundary" inkscape:connector-curvature="0" />
	<path style="fill:none;stroke:red;stroke-width:1px;stroke-linecap:butt;stroke-linejoin:miter;stroke-opacity:1" d="M 749.879,250.121 756.455,257.636 z" id="boundary" inkscape:connector-curvature="0" />
	<path style="fill:none;stroke:red;stroke-width:1px;stroke-linecap:butt;stroke-linejoin:miter;stroke-opacity:1" d="M 756.455,257.636 763.97,263.273 z" id="boundary" inkscape:connector-curvature="0" />
	<path style="fill:none;stroke:red;stroke-width:1px;stroke-linecap:butt;stroke-linejoin:miter;stroke-opacity:1" d="M 763.97,263.273 770.545,270.788 z" id="boundary" inkscape:connector-curvature="0" />
	<path style="fill:none;stroke:red;stroke-width:1px;stroke-linecap:butt;stroke-linejoin:miter;stroke-opacity:1" d="M 778.061,277.364 770.545,270.788 z" id="boundary" inkscape:connector-curvature="0" />
	<path style="fill:none;stroke:red;stroke-width:1px;stroke-linecap:butt;stroke-linejoin:miter;stroke-opacity:1" d="M 792.152,291.455 784.636,284.879 z" id="boundary" inkscape:connector-curvature="0" />
	<path style="fill:none;stroke:red;stroke-width:1px;stroke-linecap:butt;stroke-linejoin:miter;stroke-opacity:1" d="M 784.636,284.879 778.061,277.364 z" id="boundary" inkscape:connector-curvature="0" />
	<path style="fill:none;stroke:red;stroke-width:1px;stroke-linecap:butt;stroke-linejoin:miter;stroke-opacity:1" d="M 792.152,291.455 798.727,298.97 z" id="boundary" inkscape:connector-curvature="0" />
	<path style="fill:none;stroke:red;stroke-width:1px;stroke-linecap:butt;stroke-linejoin:miter;stroke-opacity:1" d="M 798.727,298.97 806.242,305.545 z" id="boundary" inkscape:connector-curvature="0" />
	<path style="fill:none;stroke:red;stroke-width:1px;stroke-linecap:butt;stroke-linejoin:miter;stroke-opacity:1" d="M 806.242,305.545 810,314.939 z" id="boundary" inkscape:connector-curvature="0" />
	<path style="fill:none;stroke:red;stroke-width:1px;stroke-linecap:butt;stroke-linejoin:miter;stroke-opacity:1" d="M 810,314.939 817.515,321.515 z" id="boundary" inkscape:connector-curvature="0" />
	<path style="fill:none;stroke:red;stroke-width:1px;stroke-linecap:butt;stroke-linejoin:miter;stroke-opacity:1" d="M 817.515,321.515 822.212,329.97 z" id="boundary" inkscape:connector-curvature="0" />
	<path style="fill:none;stroke:red;stroke-width:1px;stroke-linecap:butt;stroke-linejoin:miter;stroke-opacity:1" d="M 827.848,337.485 822.212,329.97 z" id="boundary" inkscape:connector-curvature="0" />
	<path style="fill:none;stroke:red;stroke-width:1px;stroke-linecap:butt;stroke-linejoin:miter;stroke-opacity:1" d="M 839.121,352.515 831.606,346.879 z" id="boundary" inkscape:connector-curvature="0" />
	<path style="fill:none;stroke:red;stroke-width:1px;stroke-linecap:butt;stroke-linejoin:miter;stroke-opacity:1" d="M 831.606,346.879 827.848,337.485 z" id="boundary" inkscape:connector-curvature="0" />
	<path style="fill:none;stroke:red;stroke-width:1px;stroke-linecap:butt;stroke-linejoin:miter;stroke-opacity:1" d="M 839.121,352.515 842.879,361.909 z" id="boundary" inkscape:connector-curvature="0" />
	<path style="fill:none;stroke:red;stroke-width:1px;stroke-linecap:butt;stroke-linejoin:miter;stroke-opacity:1" d="M 842.879,361.909 847.576,370.364 z" id="boundary" inkscape:connector-curvature="0" />
	<path style="fill:none;stroke:red;stroke-width:1px;stroke-linecap:butt;stroke-linejoin:miter;stroke-opacity:1" d="M 847.576,370.364 850.394,379.758 z" id="boundary" inkscape:connector-curvature="0" />
	<path style="fill:none;stroke:red;stroke-width:1px;stroke-linecap:butt;stroke-linejoin:miter;stroke-opacity:1" d="M 855.091,388.212 850.394,379.758 z" id="boundary" inkscape:connector-curvature="0" />
	<path style="fill:none;stroke:red;stroke-width:1px;stroke-linecap:butt;stroke-linejoin:miter;stroke-opacity:1" d="M 720.758,929.303 730.152,924.606 z" id="boundary" inkscape:connector-curvature="0" />
	<path style="fill:none;stroke:red;stroke-width:1px;stroke-linecap:butt;stroke-linejoin:miter;stroke-opacity:1" d="M 713.242,934.939 720.758,929.303 z" id="boundary" inkscape:connector-curvature="0" />
	<path style="fill:none;stroke:red;stroke-width:1px;stroke-linecap:butt;stroke-linejoin:miter;stroke-opacity:1" d="M 737.667,916.152 730.152,924.606 z" id="boundary" inkscape:connector-curvature="0" />
	<path style="fill:none;stroke:red;stroke-width:1px;stroke-linecap:butt;stroke-linejoin:miter;stroke-opacity:1" d="M 761.152,897.364 753.636,905.818 z" id="boundary" inkscape:connector-curvature="0" />
	<path style="fill:none;stroke:red;stroke-width:1px;stroke-linecap:butt;stroke-linejoin:miter;stroke-opacity:1" d="M 753.636,905.818 746.121,911.455 z" id="boundary" inkscape:connector-curvature="0" />
	<path style="fill:none;stroke:red;stroke-width:1px;stroke-linecap:butt;stroke-linejoin:miter;stroke-opacity:1" d="M 746.121,911.455 737.667,916.152 z" id="boundary" inkscape:connector-curvature="0" />
	<path style="fill:none;stroke:red;stroke-width:1px;stroke-linecap:butt;stroke-linejoin:miter;stroke-opacity:1" d="M 670.03,958.424 678.485,953.727 z" id="boundary" inkscape:connector-curvature="0" />
	<path style="fill:none;stroke:red;stroke-width:1px;stroke-linecap:butt;stroke-linejoin:miter;stroke-opacity:1" d="M 695.394,944.333 686.939,949.03 z" id="boundary" inkscape:connector-curvature="0" />
	<path style="fill:none;stroke:red;stroke-width:1px;stroke-linecap:butt;stroke-linejoin:miter;stroke-opacity:1" d="M 678.485,953.727 686.939,949.03 z" id="boundary" inkscape:connector-curvature="0" />
	<path style="fill:none;stroke:red;stroke-width:1px;stroke-linecap:butt;stroke-linejoin:miter;stroke-opacity:1" d="M 704.788,939.636 695.394,944.333 z" id="boundary" inkscape:connector-curvature="0" />
	<path style="fill:none;stroke:red;stroke-width:1px;stroke-linecap:butt;stroke-linejoin:miter;stroke-opacity:1" d="M 713.242,934.939 704.788,939.636 z" id="boundary" inkscape:connector-curvature="0" />
	<path style="fill:none;stroke:red;stroke-width:1px;stroke-linecap:butt;stroke-linejoin:miter;stroke-opacity:1" d="M 661.576,963.121 670.03,958.424 z" id="boundary" inkscape:connector-curvature="0" />
	<path style="fill:none;stroke:red;stroke-width:1px;stroke-linecap:butt;stroke-linejoin:miter;stroke-opacity:1" d="M 803.424,855.091 808.121,845.697 z" id="boundary" inkscape:connector-curvature="0" />
	<path style="fill:none;stroke:red;stroke-width:1px;stroke-linecap:butt;stroke-linejoin:miter;stroke-opacity:1" d="M 808.121,845.697 815.636,839.121 z" id="boundary" inkscape:connector-curvature="0" />
	<path style="fill:none;stroke:red;stroke-width:1px;stroke-linecap:butt;stroke-linejoin:miter;stroke-opacity:1" d="M 803.424,855.091 796.848,862.606 z" id="boundary" inkscape:connector-curvature="0" />
	<path style="fill:none;stroke:red;stroke-width:1px;stroke-linecap:butt;stroke-linejoin:miter;stroke-opacity:1" d="M 815.636,839.121 822.212,826.909 z" id="boundary" inkscape:connector-curvature="0" />
	<path style="fill:none;stroke:red;stroke-width:1px;stroke-linecap:butt;stroke-linejoin:miter;stroke-opacity:1" d="M 822.212,826.909 829.727,820.333 z" id="boundary" inkscape:connector-curvature="0" />
	<path style="fill:none;stroke:red;stroke-width:1px;stroke-linecap:butt;stroke-linejoin:miter;stroke-opacity:1" d="M 834.424,810.939 829.727,820.333 z" id="boundary" inkscape:connector-curvature="0" />
	<path style="fill:none;stroke:red;stroke-width:1px;stroke-linecap:butt;stroke-linejoin:miter;stroke-opacity:1" d="M 775.242,883.273 768.667,890.788 z" id="boundary" inkscape:connector-curvature="0" />
	<path style="fill:none;stroke:red;stroke-width:1px;stroke-linecap:butt;stroke-linejoin:miter;stroke-opacity:1" d="M 768.667,890.788 761.152,897.364 z" id="boundary" inkscape:connector-curvature="0" />
	<path style="fill:none;stroke:red;stroke-width:1px;stroke-linecap:butt;stroke-linejoin:miter;stroke-opacity:1" d="M 775.242,883.273 782.758,876.697 z" id="boundary" inkscape:connector-curvature="0" />
	<path style="fill:none;stroke:red;stroke-width:1px;stroke-linecap:butt;stroke-linejoin:miter;stroke-opacity:1" d="M 782.758,876.697 789.333,869.182 z" id="boundary" inkscape:connector-curvature="0" />
	<path style="fill:none;stroke:red;stroke-width:1px;stroke-linecap:butt;stroke-linejoin:miter;stroke-opacity:1" d="M 789.333,869.182 796.848,862.606 z" id="boundary" inkscape:connector-curvature="0" />
	<path style="fill:none;stroke:red;stroke-width:1px;stroke-linecap:butt;stroke-linejoin:miter;stroke-opacity:1" d="M 469,991.303 477.455,996 z" id="boundary" inkscape:connector-curvature="0" />
	<path style="fill:none;stroke:red;stroke-width:1px;stroke-linecap:butt;stroke-linejoin:miter;stroke-opacity:1" d="M 486.848,996 477.455,996 z" id="boundary" inkscape:connector-curvature="0" />
	<path style="fill:none;stroke:red;stroke-width:1px;stroke-linecap:butt;stroke-linejoin:miter;stroke-opacity:1" d="M 496.242,996 486.848,996 z" id="boundary" inkscape:connector-curvature="0" />
	<path style="fill:none;stroke:red;stroke-width:1px;stroke-linecap:butt;stroke-linejoin:miter;stroke-opacity:1" d="M 561.061,991.303 551.667,991.303 z" id="boundary" inkscape:connector-curvature="0" />
	<path style="fill:none;stroke:red;stroke-width:1px;stroke-linecap:butt;stroke-linejoin:miter;stroke-opacity:1" d="M 543.212,996 551.667,991.303 z" id="boundary" inkscape:connector-curvature="0" />
	<path style="fill:none;stroke:red;stroke-width:1px;stroke-linecap:butt;stroke-linejoin:miter;stroke-opacity:1" d="M 505.636,996 496.242,996 z" id="boundary" inkscape:connector-curvature="0" />
	<path style="fill:none;stroke:red;stroke-width:1px;stroke-linecap:butt;stroke-linejoin:miter;stroke-opacity:1" d="M 515.03,996 505.636,996 z" id="boundary" inkscape:connector-curvature="0" />
	<path style="fill:none;stroke:red;stroke-width:1px;stroke-linecap:butt;stroke-linejoin:miter;stroke-opacity:1" d="M 533.818,996 524.424,996 z" id="boundary" inkscape:connector-curvature="0" />
	<path style="fill:none;stroke:red;stroke-width:1px;stroke-linecap:butt;stroke-linejoin:miter;stroke-opacity:1" d="M 543.212,996 533.818,996 z" id="boundary" inkscape:connector-curvature="0" />
	<path style="fill:none;stroke:red;stroke-width:1px;stroke-linecap:butt;stroke-linejoin:miter;stroke-opacity:1" d="M 524.424,996 515.03,996 z" id="boundary" inkscape:connector-curvature="0" />
	<path style="fill:none;stroke:red;stroke-width:1px;stroke-linecap:butt;stroke-linejoin:miter;stroke-opacity:1" d="M 561.061,991.303 570.455,991.303 z" id="boundary" inkscape:connector-curvature="0" />
	<path style="fill:none;stroke:red;stroke-width:1px;stroke-linecap:butt;stroke-linejoin:miter;stroke-opacity:1" d="M 626.818,977.212 635.273,972.515 z" id="boundary" inkscape:connector-curvature="0" />
	<path style="fill:none;stroke:red;stroke-width:1px;stroke-linecap:butt;stroke-linejoin:miter;stroke-opacity:1" d="M 661.576,963.121 653.121,967.818 z" id="boundary" inkscape:connector-curvature="0" />
	<path style="fill:none;stroke:red;stroke-width:1px;stroke-linecap:butt;stroke-linejoin:miter;stroke-opacity:1" d="M 653.121,967.818 643.727,967.818 z" id="boundary" inkscape:connector-curvature="0" />
	<path style="fill:none;stroke:red;stroke-width:1px;stroke-linecap:butt;stroke-linejoin:miter;stroke-opacity:1" d="M 635.273,972.515 643.727,967.818 z" id="boundary" inkscape:connector-curvature="0" />
	<path style="fill:none;stroke:red;stroke-width:1px;stroke-linecap:butt;stroke-linejoin:miter;stroke-opacity:1" d="M 617.424,980.97 626.818,977.212 z" id="boundary" inkscape:connector-curvature="0" />
	<path style="fill:none;stroke:red;stroke-width:1px;stroke-linecap:butt;stroke-linejoin:miter;stroke-opacity:1" d="M 589.242,986.606 579.848,990.364 z" id="boundary" inkscape:connector-curvature="0" />
	<path style="fill:none;stroke:red;stroke-width:1px;stroke-linecap:butt;stroke-linejoin:miter;stroke-opacity:1" d="M 579.848,990.364 570.455,991.303 z" id="boundary" inkscape:connector-curvature="0" />
	<path style="fill:none;stroke:red;stroke-width:1px;stroke-linecap:butt;stroke-linejoin:miter;stroke-opacity:1" d="M 589.242,986.606 598.636,985.667 z" id="boundary" inkscape:connector-curvature="0" />
	<path style="fill:none;stroke:red;stroke-width:1px;stroke-linecap:butt;stroke-linejoin:miter;stroke-opacity:1" d="M 598.636,985.667 608.03,981.909 z" id="boundary" inkscape:connector-curvature="0" />
	<path style="fill:none;stroke:red;stroke-width:1px;stroke-linecap:butt;stroke-linejoin:miter;stroke-opacity:1" d="M 608.03,981.909 617.424,980.97 z" id="boundary" inkscape:connector-curvature="0" />
	<path style="fill:none;stroke:red;stroke-width:1px;stroke-linecap:butt;stroke-linejoin:miter;stroke-opacity:1" d="M 855.091,388.212 859.788,396.667 z" id="boundary" inkscape:connector-curvature="0" />
	<path style="fill:none;stroke:red;stroke-width:1px;stroke-linecap:butt;stroke-linejoin:miter;stroke-opacity:1" d="M 864.485,405.121 869.182,413.576 z" id="boundary" inkscape:connector-curvature="0" />
	<path style="fill:none;stroke:red;stroke-width:1px;stroke-linecap:butt;stroke-linejoin:miter;stroke-opacity:1" d="M 873.879,422.03 869.182,413.576 z" id="boundary" inkscape:connector-curvature="0" />
	<path style="fill:none;stroke:red;stroke-width:1px;stroke-linecap:butt;stroke-linejoin:miter;stroke-opacity:1" d="M 873.879,422.03 873.879,431.424 z" id="boundary" inkscape:connector-curvature="0" />
	<path style="fill:none;stroke:red;stroke-width:1px;stroke-linecap:butt;stroke-linejoin:miter;stroke-opacity:1" d="M 864.485,405.121 859.788,396.667 z" id="boundary" inkscape:connector-curvature="0" />
	<path style="fill:none;stroke:red;stroke-width:1px;stroke-linecap:butt;stroke-linejoin:miter;stroke-opacity:1" d="M 873.879,431.424 878.576,439.879 z" id="boundary" inkscape:connector-curvature="0" />
	<path style="fill:none;stroke:red;stroke-width:1px;stroke-linecap:butt;stroke-linejoin:miter;stroke-opacity:1" d="M 883.273,448.333 878.576,439.879 z" id="boundary" inkscape:connector-curvature="0" />
	<path style="fill:none;stroke:red;stroke-width:1px;stroke-linecap:butt;stroke-linejoin:miter;stroke-opacity:1" d="M 883.273,448.333 883.273,457.727 z" id="boundary" inkscape:connector-curvature="0" />
	<path style="fill:none;stroke:red;stroke-width:1px;stroke-linecap:butt;stroke-linejoin:miter;stroke-opacity:1" d="M 883.273,457.727 887.97,466.182 z" id="boundary" inkscape:connector-curvature="0" />
	<path style="fill:none;stroke:red;stroke-width:1px;stroke-linecap:butt;stroke-linejoin:miter;stroke-opacity:1" d="M 887.97,466.182 887.97,475.576 z" id="boundary" inkscape:connector-curvature="0" />
	<path style="fill:none;stroke:red;stroke-width:1px;stroke-linecap:butt;stroke-linejoin:miter;stroke-opacity:1" d="M 892.667,484.03 887.97,475.576 z" id="boundary" inkscape:connector-curvature="0" />
	<path style="fill:none;stroke:red;stroke-width:1px;stroke-linecap:butt;stroke-linejoin:miter;stroke-opacity:1" d="M 892.667,484.03 892.667,493.424 z" id="boundary" inkscape:connector-curvature="0" />
	<path style="fill:none;stroke:red;stroke-width:1px;stroke-linecap:butt;stroke-linejoin:miter;stroke-opacity:1" d="M 894.545,502.818 892.667,493.424 z" id="boundary" inkscape:connector-curvature="0" />
	<path style="fill:none;stroke:red;stroke-width:1px;stroke-linecap:butt;stroke-linejoin:miter;stroke-opacity:1" d="M 894.545,502.818 897.364,512.212 z" id="boundary" inkscape:connector-curvature="0" />
	<path style="fill:none;stroke:red;stroke-width:1px;stroke-linecap:butt;stroke-linejoin:miter;stroke-opacity:1" d="M 897.364,512.212 897.364,521.606 z" id="boundary" inkscape:connector-curvature="0" />
	<path style="fill:none;stroke:red;stroke-width:1px;stroke-linecap:butt;stroke-linejoin:miter;stroke-opacity:1" d="M 897.364,521.606 897.364,531 z" id="boundary" inkscape:connector-curvature="0" />
	<path style="fill:none;stroke:red;stroke-width:1px;stroke-linecap:butt;stroke-linejoin:miter;stroke-opacity:1" d="M 897.364,531 902.061,539.455 z" id="boundary" inkscape:connector-curvature="0" />
	<path style="fill:none;stroke:red;stroke-width:1px;stroke-linecap:butt;stroke-linejoin:miter;stroke-opacity:1" d="M 902.061,539.455 902.061,548.848 z" id="boundary" inkscape:connector-curvature="0" />
	<path style="fill:none;stroke:red;stroke-width:1px;stroke-linecap:butt;stroke-linejoin:miter;stroke-opacity:1" d="M 902.061,548.848 902.061,558.242 z" id="boundary" inkscape:connector-curvature="0" />
	<path style="fill:none;stroke:red;stroke-width:1px;stroke-linecap:butt;stroke-linejoin:miter;stroke-opacity:1" d="M 902.061,558.242 902.061,567.636 z" id="boundary" inkscape:connector-curvature="0" />
	<path style="fill:none;stroke:red;stroke-width:1px;stroke-linecap:butt;stroke-linejoin:miter;stroke-opacity:1" d="M 902.061,567.636 902.061,577.03 z" id="boundary" inkscape:connector-curvature="0" />
	<path style="fill:none;stroke:red;stroke-width:1px;stroke-linecap:butt;stroke-linejoin:miter;stroke-opacity:1" d="M 869.182,742.364 864.485,751.758 z" id="boundary" inkscape:connector-curvature="0" />
	<path style="fill:none;stroke:red;stroke-width:1px;stroke-linecap:butt;stroke-linejoin:miter;stroke-opacity:1" d="M 873.879,728.273 869.182,742.364 z" id="boundary" inkscape:connector-curvature="0" />
	<path style="fill:none;stroke:red;stroke-width:1px;stroke-linecap:butt;stroke-linejoin:miter;stroke-opacity:1" d="M 873.879,728.273 878.576,714.182 z" id="boundary" inkscape:connector-curvature="0" />
	<path style="fill:none;stroke:red;stroke-width:1px;stroke-linecap:butt;stroke-linejoin:miter;stroke-opacity:1" d="M 883.273,700.091 878.576,714.182 z" id="boundary" inkscape:connector-curvature="0" />
	<path style="fill:none;stroke:red;stroke-width:1px;stroke-linecap:butt;stroke-linejoin:miter;stroke-opacity:1" d="M 883.273,700.091 887.97,690.697 z" id="boundary" inkscape:connector-curvature="0" />
	<path style="fill:none;stroke:red;stroke-width:1px;stroke-linecap:butt;stroke-linejoin:miter;stroke-opacity:1" d="M 864.485,751.758 859.788,761.152 z" id="boundary" inkscape:connector-curvature="0" />
	<path style="fill:none;stroke:red;stroke-width:1px;stroke-linecap:butt;stroke-linejoin:miter;stroke-opacity:1" d="M 841,798.727 834.424,810.939 z" id="boundary" inkscape:connector-curvature="0" />
	<path style="fill:none;stroke:red;stroke-width:1px;stroke-linecap:butt;stroke-linejoin:miter;stroke-opacity:1" d="M 850.394,779.939 845.697,789.333 z" id="boundary" inkscape:connector-curvature="0" />
	<path style="fill:none;stroke:red;stroke-width:1px;stroke-linecap:butt;stroke-linejoin:miter;stroke-opacity:1" d="M 855.091,770.545 850.394,779.939 z" id="boundary" inkscape:connector-curvature="0" />
	<path style="fill:none;stroke:red;stroke-width:1px;stroke-linecap:butt;stroke-linejoin:miter;stroke-opacity:1" d="M 859.788,761.152 855.091,770.545 z" id="boundary" inkscape:connector-curvature="0" />
	<path style="fill:none;stroke:red;stroke-width:1px;stroke-linecap:butt;stroke-linejoin:miter;stroke-opacity:1" d="M 845.697,789.333 841,798.727 z" id="boundary" inkscape:connector-curvature="0" />
	<path style="fill:none;stroke:red;stroke-width:1px;stroke-linecap:butt;stroke-linejoin:miter;stroke-opacity:1" d="M 902.061,586.424 902.061,595.818 z" id="boundary" inkscape:connector-curvature="0" />
	<path style="fill:none;stroke:red;stroke-width:1px;stroke-linecap:butt;stroke-linejoin:miter;stroke-opacity:1" d="M 902.061,595.818 902.061,605.212 z" id="boundary" inkscape:connector-curvature="0" />
	<path style="fill:none;stroke:red;stroke-width:1px;stroke-linecap:butt;stroke-linejoin:miter;stroke-opacity:1" d="M 902.061,605.212 902.061,614.606 z" id="boundary" inkscape:connector-curvature="0" />
	<path style="fill:none;stroke:red;stroke-width:1px;stroke-linecap:butt;stroke-linejoin:miter;stroke-opacity:1" d="M 902.061,614.606 897.364,624.939 z" id="boundary" inkscape:connector-curvature="0" />
	<path style="fill:none;stroke:red;stroke-width:1px;stroke-linecap:butt;stroke-linejoin:miter;stroke-opacity:1" d="M 897.364,634.333 897.364,624.939 z" id="boundary" inkscape:connector-curvature="0" />
	<path style="fill:none;stroke:red;stroke-width:1px;stroke-linecap:butt;stroke-linejoin:miter;stroke-opacity:1" d="M 887.97,690.697 887.97,681.303 z" id="boundary" inkscape:connector-curvature="0" />
	<path style="fill:none;stroke:red;stroke-width:1px;stroke-linecap:butt;stroke-linejoin:miter;stroke-opacity:1" d="M 887.97,681.303 892.667,667.212 z" id="boundary" inkscape:connector-curvature="0" />
	<path style="fill:none;stroke:red;stroke-width:1px;stroke-linecap:butt;stroke-linejoin:miter;stroke-opacity:1" d="M 892.667,657.818 892.667,667.212 z" id="boundary" inkscape:connector-curvature="0" />
	<path style="fill:none;stroke:red;stroke-width:1px;stroke-linecap:butt;stroke-linejoin:miter;stroke-opacity:1" d="M 892.667,657.818 897.364,643.727 z" id="boundary" inkscape:connector-curvature="0" />
	<path style="fill:none;stroke:red;stroke-width:1px;stroke-linecap:butt;stroke-linejoin:miter;stroke-opacity:1" d="M 897.364,634.333 897.364,643.727 z" id="boundary" inkscape:connector-curvature="0" />
	<path style="fill:none;stroke:red;stroke-width:1px;stroke-linecap:butt;stroke-linejoin:miter;stroke-opacity:1" d="M 902.061,577.03 902.061,586.424 z" id="boundary" inkscape:connector-curvature="0" />
	<circle cx="4" cy="532.879" r="4" fill="#0" id="circle0"/>
	<circle cx="4" cy="542.273" r="4" fill="#0" id="circle1"/>
	<circle cx="4" cy="551.667" r="4" fill="#0" id="circle2"/>
	<circle cx="4" cy="561.061" r="4" fill="#0" id="circle3"/>
	<circle cx="4" cy="570.455" r="4" fill="#0" id="circle4"/>
	<circle cx="4" cy="579.848" r="4" fill="#0" id="circle5"/>
	<circle cx="4" cy="589.242" r="4" fill="#0" id="circle6"/>
	<circle cx="4" cy="598.636" r="4" fill="#0" id="circle7"/>
	<circle cx="4" cy="608.03" r="4" fill="#0" id="circle8"/>
	<circle cx="4" cy="617.424" r="4" fill="#0" id="circle9"/>
	<circle cx="8.69697" cy="500" r="4" fill="#0" id="circle10"/>
	<circle cx="8.69697" cy="509.394" r="4" fill="#0" id="circle11"/>
	<circle cx="8.69697" cy="518.788" r="4" fill="#0" id="circle12"/>
	<circle cx="8.69697" cy="625.879" r="4" fill="#0" id="circle13"/>
	<circle cx="8.69697" cy="635.273" r="4" fill="#0" id="circle14"/>
	<circle cx="8.69697" cy="644.667" r="4" fill="#0" id="circle15"/>
	<circle cx="13.3939" cy="476.515" r="4" fill="#0" id="circle16"/>
	<circle cx="13.3939" cy="485.909" r="4" fill="#0" id="circle17"/>
	<circle cx="13.3939" cy="653.121" r="4" fill="#0" id="circle18"/>
	<circle cx="13.3939" cy="662.515" r="4" fill="#0" id="circle19"/>
	<circle cx="13.3939" cy="671.909" r="4" fill="#0" id="circle20"/>
	<circle cx="18.0909" cy="457.727" r="4" fill="#0" id="circle21"/>
	<circle cx="18.0909" cy="467.121" r="4" fill="#0" id="circle22"/>
	<circle cx="18.0909" cy="680.364" r="4" fill="#0" id="circle23"/>
	<circle cx="18.0909" cy="689.758" r="4" fill="#0" id="circle24"/>
	<circle cx="22.7879" cy="443.636" r="4" fill="#0" id="circle25"/>
	<circle cx="22.7879" cy="698.212" r="4" fill="#0" id="circle26"/>
	<circle cx="23.7273" cy="707.606" r="4" fill="#0" id="circle27"/>
	<circle cx="27.4848" cy="429.545" r="4" fill="#0" id="circle28"/>
	<circle cx="27.4848" cy="717" r="4" fill="#0" id="circle29"/>
	<circle cx="32.1818" cy="415.455" r="4" fill="#0" id="circle30"/>
	<circle cx="32.1818" cy="725.455" r="4" fill="#0" id="circle31"/>
	<circle cx="32.1818" cy="734.848" r="4" fill="#0" id="circle32"/>
	<circle cx="36.8788" cy="406.061" r="4" fill="#0" id="circle33"/>
	<circle cx="36.8788" cy="743.303" r="4" fill="#0" id="circle34"/>
	<circle cx="41.5758" cy="391.97" r="4" fill="#0" id="circle35"/>
	<circle cx="41.5758" cy="751.758" r="4" fill="#0" id="circle36"/>
	<circle cx="44.3939" cy="761.152" r="4" fill="#0" id="circle37"/>
	<circle cx="46.2727" cy="382.576" r="4" fill="#0" id="circle38"/>
	<circle cx="49.0909" cy="769.606" r="4" fill="#0" id="circle39"/>
	<circle cx="50.9697" cy="373.182" r="4" fill="#0" id="circle40"/>
	<circle cx="52.8485" cy="779" r="4" fill="#0" id="circle41"/>
	<circle cx="55.6667" cy="363.788" r="4" fill="#0" id="circle42"/>
	<circle cx="57.5455" cy="787.455" r="4" fill="#0" id="circle43"/>
	<circle cx="63.1818" cy="356.273" r="4" fill="#0" id="circle44"/>
	<circle cx="65.0606" cy="794.03" r="4" fill="#0" id="circle45"/>
	<circle cx="67.8788" cy="346.879" r="4" fill="#0" id="circle46"/>
	<circle cx="67.8788" cy="803.424" r="4" fill="#0" id="circle47"/>
	<circle cx="72.5758" cy="337.485" r="4" fill="#0" id="circle48"/>
	<circle cx="72.5758" cy="811.879" r="4" fill="#0" id="circle49"/>
	<circle cx="79.1515" cy="326.212" r="4" fill="#0" id="circle50"/>
	<circle cx="79.1515" cy="819.394" r="4" fill="#0" id="circle51"/>
	<circle cx="83.8485" cy="827.848" r="4" fill="#0" id="circle52"/>
	<circle cx="86.6667" cy="318.697" r="4" fill="#0" id="circle53"/>
	<circle cx="90.4242" cy="835.364" r="4" fill="#0" id="circle54"/>
	<circle cx="93.2424" cy="307.424" r="4" fill="#0" id="circle55"/>
	<circle cx="95.1212" cy="843.818" r="4" fill="#0" id="circle56"/>
	<circle cx="100.758" cy="299.909" r="4" fill="#0" id="circle57"/>
	<circle cx="102.636" cy="850.394" r="4" fill="#0" id="circle58"/>
	<circle cx="108.273" cy="292.394" r="4" fill="#0" id="circle59"/>
	<circle cx="108.273" cy="857.909" r="4" fill="#0" id="circle60"/>
	<circle cx="115.788" cy="285.818" r="4" fill="#0" id="circle61"/>
	<circle cx="115.788" cy="864.485" r="4" fill="#0" id="circle62"/>
	<circle cx="122.364" cy="278.303" r="4" fill="#0" id="circle63"/>
	<circle cx="122.364" cy="872" r="4" fill="#0" id="circle64"/>
	<circle cx="129.879" cy="271.727" r="4" fill="#0" id="circle65"/>
	<circle cx="129.879" cy="878.576" r="4" fill="#0" id="circle66"/>
	<circle cx="136.455" cy="264.212" r="4" fill="#0" id="circle67"/>
	<circle cx="136.455" cy="886.091" r="4" fill="#0" id="circle68"/>
	<circle cx="143.97" cy="257.636" r="4" fill="#0" id="circle69"/>
	<circle cx="143.97" cy="892.667" r="4" fill="#0" id="circle70"/>
	<circle cx="150.545" cy="250.121" r="4" fill="#0" id="circle71"/>
	<circle cx="150.545" cy="900.182" r="4" fill="#0" id="circle72"/>
	<circle cx="158.061" cy="243.545" r="4" fill="#0" id="circle73"/>
	<circle cx="158.061" cy="906.758" r="4" fill="#0" id="circle74"/>
	<circle cx="166.515" cy="238.848" r="4" fill="#0" id="circle75"/>
	<circle cx="166.515" cy="911.455" r="4" fill="#0" id="circle76"/>
	<circle cx="174.03" cy="231.333" r="4" fill="#0" id="circle77"/>
	<circle cx="174.03" cy="918.03" r="4" fill="#0" id="circle78"/>
	<circle cx="180.606" cy="925.545" r="4" fill="#0" id="circle79"/>
	<circle cx="181.545" cy="224.758" r="4" fill="#0" id="circle80"/>
	<circle cx="190" cy="220.061" r="4" fill="#0" id="circle81"/>
	<circle cx="190" cy="929.303" r="4" fill="#0" id="circle82"/>
	<circle cx="197.515" cy="934.939" r="4" fill="#0" id="circle83"/>
	<circle cx="198.455" cy="215.364" r="4" fill="#0" id="circle84"/>
	<circle cx="205.97" cy="939.636" r="4" fill="#0" id="circle85"/>
	<circle cx="206.909" cy="210.667" r="4" fill="#0" id="circle86"/>
	<circle cx="214.424" cy="944.333" r="4" fill="#0" id="circle87"/>
	<circle cx="215.364" cy="204.091" r="4" fill="#0" id="circle88"/>
	<circle cx="222.879" cy="949.03" r="4" fill="#0" id="circle89"/>
	<circle cx="224.758" cy="199.394" r="4" fill="#0" id="circle90"/>
	<circle cx="231.333" cy="953.727" r="4" fill="#0" id="circle91"/>
	<circle cx="234.152" cy="194.697" r="4" fill="#0" id="circle92"/>
	<circle cx="239.788" cy="958.424" r="4" fill="#0" id="circle93"/>
	<circle cx="243.545" cy="190" r="4" fill="#0" id="circle94"/>
	<circle cx="248.242" cy="963.121" r="4" fill="#0" id="circle95"/>
	<circle cx="252.939" cy="187.182" r="4" fill="#0" id="circle96"/>
	<circle cx="257.636" cy="963.121" r="4" fill="#0" id="circle97"/>
	<circle cx="261.394" cy="182.485" r="4" fill="#0" id="circle98"/>
	<circle cx="266.091" cy="967.818" r="4" fill="#0" id="circle99"/>
	<circle cx="270.788" cy="182.485" r="4" fill="#0" id="circle100"/>
	<circle cx="274.545" cy="972.515" r="4" fill="#0" id="circle101"/>
	<circle cx="279.242" cy="177.788" r="4" fill="#0" id="circle102"/>
	<circle cx="283.939" cy="972.515" r="4" fill="#0" id="circle103"/>
	<circle cx="288.636" cy="173.091" r="4" fill="#0" id="circle104"/>
	<circle cx="292.394" cy="977.212" r="4" fill="#0" id="circle105"/>
	<circle cx="298.03" cy="173.091" r="4" fill="#0" id="circle106"/>
	<circle cx="301.788" cy="980.03" r="4" fill="#0" id="circle107"/>
	<circle cx="306.485" cy="168.394" r="4" fill="#0" id="circle108"/>
	<circle cx="311.182" cy="981.909" r="4" fill="#0" id="circle109"/>
	<circle cx="315.879" cy="168.394" r="4" fill="#0" id="circle110"/>
	<circle cx="320.576" cy="984.727" r="4" fill="#0" id="circle111"/>
	<circle cx="324.333" cy="163.697" r="4" fill="#0" id="circle112"/>
	<circle cx="329.97" cy="986.606" r="4" fill="#0" id="circle113"/>
	<circle cx="333.727" cy="163.697" r="4" fill="#0" id="circle114"/>
	<circle cx="339.364" cy="986.606" r="4" fill="#0" id="circle115"/>
	<circle cx="343.121" cy="163.697" r="4" fill="#0" id="circle116"/>
	<circle cx="348.758" cy="986.606" r="4" fill="#0" id="circle117"/>
	<circle cx="352.515" cy="160.879" r="4" fill="#0" id="circle118"/>
	<circle cx="357.212" cy="991.303" r="4" fill="#0" id="circle119"/>
	<circle cx="361.909" cy="159" r="4" fill="#0" id="circle120"/>
	<circle cx="365.667" cy="6.81818" r="4" fill="#0" id="circle121"/>
	<circle cx="365.667" cy="16.2121" r="4" fill="#0" id="circle122"/>
	<circle cx="366.606" cy="991.303" r="4" fill="#0" id="circle123"/>
	<circle cx="370.364" cy="24.6667" r="4" fill="#0" id="circle124"/>
	<circle cx="371.303" cy="159" r="4" fill="#0" id="circle125"/>
	<circle cx="375.061" cy="4" r="4" fill="#0" id="circle126"/>
	<circle cx="375.061" cy="33.1212" r="4" fill="#0" id="circle127"/>
	<circle cx="376" cy="991.303" r="4" fill="#0" id="circle128"/>
	<circle cx="379.758" cy="41.5758" r="4" fill="#0" id="circle129"/>
	<circle cx="380.697" cy="159" r="4" fill="#0" id="circle130"/>
	<circle cx="384.455" cy="5.87879" r="4" fill="#0" id="circle131"/>
	<circle cx="385.394" cy="49.0909" r="4" fill="#0" id="circle132"/>
	<circle cx="385.394" cy="991.303" r="4" fill="#0" id="circle133"/>
	<circle cx="390.091" cy="13.3939" r="4" fill="#0" id="circle134"/>
	<circle cx="390.091" cy="159" r="4" fill="#0" id="circle135"/>
	<circle cx="391.97" cy="56.6061" r="4" fill="#0" id="circle136"/>
	<circle cx="394.788" cy="21.8485" r="4" fill="#0" id="circle137"/>
	<circle cx="394.788" cy="991.303" r="4" fill="#0" id="circle138"/>
	<circle cx="396.667" cy="65.0606" r="4" fill="#0" id="circle139"/>
	<circle cx="399.485" cy="30.303" r="4" fill="#0" id="circle140"/>
	<circle cx="399.485" cy="159" r="4" fill="#0" id="circle141"/>
	<circle cx="400.424" cy="74.4545" r="4" fill="#0" id="circle142"/>
	<circle cx="403.242" cy="39.697" r="4" fill="#0" id="circle143"/>
	<circle cx="404.182" cy="991.303" r="4" fill="#0" id="circle144"/>
	<circle cx="407.939" cy="48.1515" r="4" fill="#0" id="circle145"/>
	<circle cx="407.939" cy="80.0909" r="4" fill="#0" id="circle146"/>
	<circle cx="408.879" cy="159" r="4" fill="#0" id="circle147"/>
	<circle cx="413.576" cy="55.6667" r="4" fill="#0" id="circle148"/>
	<circle cx="413.576" cy="87.6061" r="4" fill="#0" id="circle149"/>
	<circle cx="413.576" cy="991.303" r="4" fill="#0" id="circle150"/>
	<circle cx="418.273" cy="96.0606" r="4" fill="#0" id="circle151"/>
	<circle cx="418.273" cy="159" r="4" fill="#0" id="circle152"/>
	<circle cx="421.091" cy="61.303" r="4" fill="#0" id="circle153"/>
	<circle cx="422.97" cy="991.303" r="4" fill="#0" id="circle154"/>
	<circle cx="424.848" cy="70.697" r="4" fill="#0" id="circle155"/>
	<circle cx="424.848" cy="103.576" r="4" fill="#0" id="circle156"/>
	<circle cx="427.667" cy="159" r="4" fill="#0" id="circle157"/>
	<circle cx="432.364" cy="77.2727" r="4" fill="#0" id="circle158"/>
	<circle cx="432.364" cy="110.152" r="4" fill="#0" id="circle159"/>
	<circle cx="432.364" cy="986.606" r="4" fill="#0" id="circle160"/>
	<circle cx="436.121" cy="163.697" r="4" fill="#0" id="circle161"/>
	<circle cx="437.061" cy="85.7273" r="4" fill="#0" id="circle162"/>
	<circle cx="438.939" cy="117.667" r="4" fill="#0" id="circle163"/>
	<circle cx="440.818" cy="991.303" r="4" fill="#0" id="circle164"/>
	<circle cx="442.697" cy="93.2424" r="4" fill="#0" id="circle165"/>
	<circle cx="443.636" cy="126.121" r="4" fill="#0" id="circle166"/>
	<circle cx="445.515" cy="135.515" r="4" fill="#0" id="circle167"/>
	<circle cx="445.515" cy="163.697" r="4" fill="#0" id="circle168"/>
	<circle cx="450.212" cy="99.8182" r="4" fill="#0" id="circle169"/>
	<circle cx="450.212" cy="143.97" r="4" fill="#0" id="circle170"/>
	<circle cx="450.212" cy="991.303" r="4" fill="#0" id="circle171"/>
	<circle cx="454.909" cy="152.424" r="4" fill="#0" id="circle172"/>
	<circle cx="454.909" cy="161.818" r="4" fill="#0" id="circle173"/>
	<circle cx="459.606" cy="100.758" r="4" fill="#0" id="circle174"/>
	<circle cx="459.606" cy="991.303" r="4" fill="#0" id="circle175"/>
	<circle cx="467.121" cy="93.2424" r="4" fill="#0" id="circle176"/>
	<circle cx="469" cy="991.303" r="4" fill="#0" id="circle177"/>
	<circle cx="474.636" cy="85.7273" r="4" fill="#0" id="circle178"/>
	<circle cx="477.455" cy="996" r="4" fill="#0" id="circle179"/>
	<circle cx="482.152" cy="79.1515" r="4" fill="#0" id="circle180"/>
	<circle cx="486.848" cy="996" r="4" fill="#0" id="circle181"/>
	<circle cx="487.788" cy="63.1818" r="4" fill="#0" id="circle182"/>
	<circle cx="495.303" cy="55.6667" r="4" fill="#0" id="circle183"/>
	<circle cx="496.242" cy="996" r="4" fill="#0" id="circle184"/>
	<circle cx="502.818" cy="48.1515" r="4" fill="#0" id="circle185"/>
	<circle cx="502.818" cy="159.939" r="4" fill="#0" id="circle186"/>
	<circle cx="505.636" cy="996" r="4" fill="#0" id="circle187"/>
	<circle cx="507.515" cy="150.545" r="4" fill="#0" id="circle188"/>
	<circle cx="510.333" cy="41.5758" r="4" fill="#0" id="circle189"/>
	<circle cx="512.212" cy="163.697" r="4" fill="#0" id="circle190"/>
	<circle cx="515.03" cy="143.97" r="4" fill="#0" id="circle191"/>
	<circle cx="515.03" cy="996" r="4" fill="#0" id="circle192"/>
	<circle cx="518.788" cy="36.8788" r="4" fill="#0" id="circle193"/>
	<circle cx="519.727" cy="134.576" r="4" fill="#0" id="circle194"/>
	<circle cx="521.606" cy="163.697" r="4" fill="#0" id="circle195"/>
	<circle cx="524.424" cy="996" r="4" fill="#0" id="circle196"/>
	<circle cx="526.303" cy="127.061" r="4" fill="#0" id="circle197"/>
	<circle cx="527.242" cy="32.1818" r="4" fill="#0" id="circle198"/>
	<circle cx="531" cy="163.697" r="4" fill="#0" id="circle199"/>
	<circle cx="533.818" cy="120.485" r="4" fill="#0" id="circle200"/>
	<circle cx="533.818" cy="996" r="4" fill="#0" id="circle201"/>
	<circle cx="535.697" cy="27.4848" r="4" fill="#0" id="circle202"/>
	<circle cx="540.394" cy="112.97" r="4" fill="#0" id="circle203"/>
	<circle cx="540.394" cy="163.697" r="4" fill="#0" id="circle204"/>
	<circle cx="543.212" cy="996" r="4" fill="#0" id="circle205"/>
	<circle cx="545.091" cy="24.6667" r="4" fill="#0" id="circle206"/>
	<circle cx="549.788" cy="108.273" r="4" fill="#0" id="circle207"/>
	<circle cx="549.788" cy="166.515" r="4" fill="#0" id="circle208"/>
	<circle cx="551.667" cy="991.303" r="4" fill="#0" id="circle209"/>
	<circle cx="554.485" cy="22.7879" r="4" fill="#0" id="circle210"/>
	<circle cx="559.182" cy="103.576" r="4" fill="#0" id="circle211"/>
	<circle cx="559.182" cy="168.394" r="4" fill="#0" id="circle212"/>
	<circle cx="561.061" cy="991.303" r="4" fill="#0" id="circle213"/>
	<circle cx="563.879" cy="22.7879" r="4" fill="#0" id="circle214"/>
	<circle cx="567.636" cy="98.8788" r="4" fill="#0" id="circle215"/>
	<circle cx="568.576" cy="168.394" r="4" fill="#0" id="circle216"/>
	<circle cx="570.455" cy="991.303" r="4" fill="#0" id="circle217"/>
	<circle cx="573.273" cy="22.7879" r="4" fill="#0" id="circle218"/>
	<circle cx="575.152" cy="93.2424" r="4" fill="#0" id="circle219"/>
	<circle cx="577.97" cy="168.394" r="4" fill="#0" id="circle220"/>
	<circle cx="579.848" cy="990.364" r="4" fill="#0" id="circle221"/>
	<circle cx="582.667" cy="22.7879" r="4" fill="#0" id="circle222"/>
	<circle cx="582.667" cy="84.7879" r="4" fill="#0" id="circle223"/>
	<circle cx="586.424" cy="173.091" r="4" fill="#0" id="circle224"/>
	<circle cx="589.242" cy="986.606" r="4" fill="#0" id="circle225"/>
	<circle cx="592.061" cy="22.7879" r="4" fill="#0" id="circle226"/>
	<circle cx="592.061" cy="84.7879" r="4" fill="#0" id="circle227"/>
	<circle cx="595.818" cy="173.091" r="4" fill="#0" id="circle228"/>
	<circle cx="598.636" cy="985.667" r="4" fill="#0" id="circle229"/>
	<circle cx="601.455" cy="22.7879" r="4" fill="#0" id="circle230"/>
	<circle cx="601.455" cy="80.0909" r="4" fill="#0" id="circle231"/>
	<circle cx="604.273" cy="177.788" r="4" fill="#0" id="circle232"/>
	<circle cx="608.03" cy="981.909" r="4" fill="#0" id="circle233"/>
	<circle cx="609.909" cy="75.3939" r="4" fill="#0" id="circle234"/>
	<circle cx="610.848" cy="22.7879" r="4" fill="#0" id="circle235"/>
	<circle cx="613.667" cy="177.788" r="4" fill="#0" id="circle236"/>
	<circle cx="617.424" cy="980.97" r="4" fill="#0" id="circle237"/>
	<circle cx="619.303" cy="75.3939" r="4" fill="#0" id="circle238"/>
	<circle cx="620.242" cy="25.6061" r="4" fill="#0" id="circle239"/>
	<circle cx="622.121" cy="182.485" r="4" fill="#0" id="circle240"/>
	<circle cx="626.818" cy="977.212" r="4" fill="#0" id="circle241"/>
	<circle cx="627.758" cy="70.697" r="4" fill="#0" id="circle242"/>
	<circle cx="629.636" cy="27.4848" r="4" fill="#0" id="circle243"/>
	<circle cx="631.515" cy="182.485" r="4" fill="#0" id="circle244"/>
	<circle cx="635.273" cy="972.515" r="4" fill="#0" id="circle245"/>
	<circle cx="637.152" cy="70.697" r="4" fill="#0" id="circle246"/>
	<circle cx="639.03" cy="30.303" r="4" fill="#0" id="circle247"/>
	<circle cx="639.97" cy="187.182" r="4" fill="#0" id="circle248"/>
	<circle cx="643.727" cy="967.818" r="4" fill="#0" id="circle249"/>
	<circle cx="645.606" cy="37.8182" r="4" fill="#0" id="circle250"/>
	<circle cx="645.606" cy="65.0606" r="4" fill="#0" id="circle251"/>
	<circle cx="648.424" cy="191.879" r="4" fill="#0" id="circle252"/>
	<circle cx="653.121" cy="44.3939" r="4" fill="#0" id="circle253"/>
	<circle cx="653.121" cy="53.7879" r="4" fill="#0" id="circle254"/>
	<circle cx="653.121" cy="967.818" r="4" fill="#0" id="circle255"/>
	<circle cx="657.818" cy="194.697" r="4" fill="#0" id="circle256"/>
	<circle cx="661.576" cy="963.121" r="4" fill="#0" id="circle257"/>
	<circle cx="666.273" cy="199.394" r="4" fill="#0" id="circle258"/>
	<circle cx="670.03" cy="958.424" r="4" fill="#0" id="circle259"/>
	<circle cx="675.667" cy="203.152" r="4" fill="#0" id="circle260"/>
	<circle cx="678.485" cy="953.727" r="4" fill="#0" id="circle261"/>
	<circle cx="684.121" cy="207.848" r="4" fill="#0" id="circle262"/>
	<circle cx="686.939" cy="949.03" r="4" fill="#0" id="circle263"/>
	<circle cx="693.515" cy="211.606" r="4" fill="#0" id="circle264"/>
	<circle cx="695.394" cy="944.333" r="4" fill="#0" id="circle265"/>
	<circle cx="701.97" cy="216.303" r="4" fill="#0" id="circle266"/>
	<circle cx="704.788" cy="939.636" r="4" fill="#0" id="circle267"/>
	<circle cx="709.485" cy="222.879" r="4" fill="#0" id="circle268"/>
	<circle cx="713.242" cy="934.939" r="4" fill="#0" id="circle269"/>
	<circle cx="717.939" cy="227.576" r="4" fill="#0" id="circle270"/>
	<circle cx="720.758" cy="929.303" r="4" fill="#0" id="circle271"/>
	<circle cx="725.455" cy="234.152" r="4" fill="#0" id="circle272"/>
	<circle cx="730.152" cy="924.606" r="4" fill="#0" id="circle273"/>
	<circle cx="733.909" cy="238.848" r="4" fill="#0" id="circle274"/>
	<circle cx="737.667" cy="916.152" r="4" fill="#0" id="circle275"/>
	<circle cx="741.424" cy="245.424" r="4" fill="#0" id="circle276"/>
	<circle cx="746.121" cy="911.455" r="4" fill="#0" id="circle277"/>
	<circle cx="749.879" cy="250.121" r="4" fill="#0" id="circle278"/>
	<circle cx="753.636" cy="905.818" r="4" fill="#0" id="circle279"/>
	<circle cx="756.455" cy="257.636" r="4" fill="#0" id="circle280"/>
	<circle cx="761.152" cy="897.364" r="4" fill="#0" id="circle281"/>
	<circle cx="763.97" cy="263.273" r="4" fill="#0" id="circle282"/>
	<circle cx="768.667" cy="890.788" r="4" fill="#0" id="circle283"/>
	<circle cx="770.545" cy="270.788" r="4" fill="#0" id="circle284"/>
	<circle cx="775.242" cy="883.273" r="4" fill="#0" id="circle285"/>
	<circle cx="778.061" cy="277.364" r="4" fill="#0" id="circle286"/>
	<circle cx="782.758" cy="876.697" r="4" fill="#0" id="circle287"/>
	<circle cx="784.636" cy="284.879" r="4" fill="#0" id="circle288"/>
	<circle cx="789.333" cy="869.182" r="4" fill="#0" id="circle289"/>
	<circle cx="792.152" cy="291.455" r="4" fill="#0" id="circle290"/>
	<circle cx="796.848" cy="862.606" r="4" fill="#0" id="circle291"/>
	<circle cx="798.727" cy="298.97" r="4" fill="#0" id="circle292"/>
	<circle cx="803.424" cy="855.091" r="4" fill="#0" id="circle293"/>
	<circle cx="806.242" cy="305.545" r="4" fill="#0" id="circle294"/>
	<circle cx="808.121" cy="845.697" r="4" fill="#0" id="circle295"/>
	<circle cx="810" cy="314.939" r="4" fill="#0" id="circle296"/>
	<circle cx="815.636" cy="839.121" r="4" fill="#0" id="circle297"/>
	<circle cx="817.515" cy="321.515" r="4" fill="#0" id="circle298"/>
	<circle cx="822.212" cy="329.97" r="4" fill="#0" id="circle299"/>
	<circle cx="822.212" cy="826.909" r="4" fill="#0" id="circle300"/>
	<circle cx="827.848" cy="337.485" r="4" fill="#0" id="circle301"/>
	<circle cx="829.727" cy="820.333" r="4" fill="#0" id="circle302"/>
	<circle cx="831.606" cy="346.879" r="4" fill="#0" id="circle303"/>
	<circle cx="834.424" cy="810.939" r="4" fill="#0" id="circle304"/>
	<circle cx="839.121" cy="352.515" r="4" fill="#0" id="circle305"/>
	<circle cx="841" cy="798.727" r="4" fill="#0" id="circle306"/>
	<circle cx="842.879" cy="361.909" r="4" fill="#0" id="circle307"/>
	<circle cx="845.697" cy="789.333" r="4" fill="#0" id="circle308"/>
	<circle cx="847.576" cy="370.364" r="4" fill="#0" id="circle309"/>
	<circle cx="850.394" cy="379.758" r="4" fill="#0" id="circle310"/>
	<circle cx="850.394" cy="779.939" r="4" fill="#0" id="circle311"/>
	<circle cx="855.091" cy="388.212" r="4" fill="#0" id="circle312"/>
	<circle cx="855.091" cy="770.545" r="4" fill="#0" id="circle313"/>
	<circle cx="859.788" cy="396.667" r="4" fill="#0" id="circle314"/>
	<circle cx="859.788" cy="761.152" r="4" fill="#0" id="circle315"/>
	<circle cx="864.485" cy="405.121" r="4" fill="#0" id="circle316"/>
	<circle cx="864.485" cy="751.758" r="4" fill="#0" id="circle317"/>
	<circle cx="869.182" cy="413.576" r="4" fill="#0" id="circle318"/>
	<circle cx="869.182" cy="742.364" r="4" fill="#0" id="circle319"/>
	<circle cx="873.879" cy="422.03" r="4" fill="#0" id="circle320"/>
	<circle cx="873.879" cy="431.424" r="4" fill="#0" id="circle321"/>
	<circle cx="873.879" cy="728.273" r="4" fill="#0" id="circle322"/>
	<circle cx="878.576" cy="439.879" r="4" fill="#0" id="circle323"/>
	<circle cx="878.576" cy="714.182" r="4" fill="#0" id="circle324"/>
	<circle cx="883.273" cy="448.333" r="4" fill="#0" id="circle325"/>
	<circle cx="883.273" cy="457.727" r="4" fill="#0" id="circle326"/>
	<circle cx="883.273" cy="700.091" r="4" fill="#0" id="circle327"/>
	<circle cx="887.97" cy="466.182" r="4" fill="#0" id="circle328"/>
	<circle cx="887.97" cy="475.576" r="4" fill="#0" id="circle329"/>
	<circle cx="887.97" cy="681.303" r="4" fill="#0" id="circle330"/>
	<circle cx="887.97" cy="690.697" r="4" fill="#0" id="circle331"/>
	<circle cx="892.667" cy="484.03" r="4" fill="#0" id="circle332"/>
	<circle cx="892.667" cy="493.424" r="4" fill="#0" id="circle333"/>
	<circle cx="892.667" cy="657.818" r="4" fill="#0" id="circle334"/>
	<circle cx="892.667" cy="667.212" r="4" fill="#0" id="circle335"/>
	<circle cx="894.545" cy="502.818" r="4" fill="#0" id="circle336"/>
	<circle cx="897.364" cy="512.212" r="4" fill="#0" id="circle337"/>
	<circle cx="897.364" cy="521.606" r="4" fill="#0" id="circle338"/>
	<circle cx="897.364" cy="531" r="4" fill="#0" id="circle339"/>
	<circle cx="897.364" cy="624.939" r="4" fill="#0" id="circle340"/>
	<circle cx="897.364" cy="634.333" r="4" fill="#0" id="circle341"/>
	<circle cx="897.364" cy="643.727" r="4" fill="#0" id="circle342"/>
	<circle cx="902.061" cy="539.455" r="4" fill="#0" id="circle343"/>
	<circle cx="902.061" cy="548.848" r="4" fill="#0" id="circle344"/>
	<circle cx="902.061" cy="558.242" r="4" fill="#0" id="circle345"/>
	<circle cx="902.061" cy="567.636" r="4" fill="#0" id="circle346"/>
	<circle cx="902.061" cy="577.03" r="4" fill="#0" id="circle347"/>
	<circle cx="902.061" cy="586.424" r="4" fill="#0" id="circle348"/>
	<circle cx="902.061" cy="595.818" r="4" fill="#0" id="circle349"/>
	<circle cx="902.061" cy="605.212" r="4" fill="#0" id="circle350"/>
	<circle cx="902.061" cy="614.606" r="4" fill="#0" id="circle351"/>
	</g>
</svg>