<?xml version="1.0" encoding="UTF-8" standalone="no"?>
<!-- Created with CurveBenchmark -->
<svg
	xmlns:dc="http://purl.org/dc/elements/1.1/"
	xmlns:cc="http://creativecommons.org/ns#"
	xmlns:rdf="http://www.w3.org/1999/02/22-rdf-syntax-ns#"
	xmlns:svg="http://www.w3.org/2000/svg"
	xmlns="http://www.w3.org/2000/svg"
	xmlns:sodipodi="http://sodipodi.sourceforge.net/DTD/sodipodi-0.dtd"
	xmlns:inkscape="http://www.inkscape.org/namespaces/inkscape"
	width="1000"
	height="1000"
	id="svg2"
	version="1.1"
	sodipodi:docname="manifold/ccrust-stef19.png.txt">
<defs
	id="defs4" />
<metadata
	id="metadata7">
	<rdf:RDF>
		<cc:Work
			rdf:about="">
			<dc:format>image/svg+xml</dc:format>
			<dc:type
				rdf:resource="http://purl.org/dc/dcmitype/StillImage" />
			<dc:title></dc:title>
		</cc:Work>
	</rdf:RDF>
</metadata>
<g
	inkscape:label="Layer 1"
	inkscape:groupmode="layer"
	id="layer1">
	<path style="fill:none;stroke:red;stroke-width:1px;stroke-linecap:butt;stroke-linejoin:miter;stroke-opacity:1" d="M 68.5553,31.974 85.7701,14.7592 z" id="boundary" inkscape:connector-curvature="0" />
	<path style="fill:none;stroke:red;stroke-width:1px;stroke-linecap:butt;stroke-linejoin:miter;stroke-opacity:1" d="M 57.7961,75.0108 57.7961,53.4924 z" id="boundary" inkscape:connector-curvature="0" />
	<path style="fill:none;stroke:red;stroke-width:1px;stroke-linecap:butt;stroke-linejoin:miter;stroke-opacity:1" d="M 68.5553,94.3774 57.7961,75.0108 z" id="boundary" inkscape:connector-curvature="0" />
	<path style="fill:none;stroke:red;stroke-width:1px;stroke-linecap:butt;stroke-linejoin:miter;stroke-opacity:1" d="M 57.7961,53.4924 68.5553,31.974 z" id="boundary" inkscape:connector-curvature="0" />
	<path style="fill:none;stroke:red;stroke-width:1px;stroke-linecap:butt;stroke-linejoin:miter;stroke-opacity:1" d="M 85.7701,14.7592 107.289,4 z" id="boundary" inkscape:connector-curvature="0" />
	<path style="fill:none;stroke:red;stroke-width:1px;stroke-linecap:butt;stroke-linejoin:miter;stroke-opacity:1" d="M 128.807,4 148.174,14.7592 z" id="boundary" inkscape:connector-curvature="0" />
	<path style="fill:none;stroke:red;stroke-width:1px;stroke-linecap:butt;stroke-linejoin:miter;stroke-opacity:1" d="M 107.289,4 128.807,4 z" id="boundary" inkscape:connector-curvature="0" />
	<path style="fill:none;stroke:red;stroke-width:1px;stroke-linecap:butt;stroke-linejoin:miter;stroke-opacity:1" d="M 167.54,25.5184 189.059,31.974 z" id="boundary" inkscape:connector-curvature="0" />
	<path style="fill:none;stroke:red;stroke-width:1px;stroke-linecap:butt;stroke-linejoin:miter;stroke-opacity:1" d="M 189.059,31.974 206.273,47.0369 z" id="boundary" inkscape:connector-curvature="0" />
	<path style="fill:none;stroke:red;stroke-width:1px;stroke-linecap:butt;stroke-linejoin:miter;stroke-opacity:1" d="M 167.54,25.5184 148.174,14.7592 z" id="boundary" inkscape:connector-curvature="0" />
	<path style="fill:none;stroke:red;stroke-width:1px;stroke-linecap:butt;stroke-linejoin:miter;stroke-opacity:1" d="M 68.5553,94.3774 68.5553,118.048 z" id="boundary" inkscape:connector-curvature="0" />
	<path style="fill:none;stroke:red;stroke-width:1px;stroke-linecap:butt;stroke-linejoin:miter;stroke-opacity:1" d="M 79.3145,137.414 68.5553,118.048 z" id="boundary" inkscape:connector-curvature="0" />
	<path style="fill:none;stroke:red;stroke-width:1px;stroke-linecap:butt;stroke-linejoin:miter;stroke-opacity:1" d="M 94.3774,154.629 79.3145,137.414 z" id="boundary" inkscape:connector-curvature="0" />
	<path style="fill:none;stroke:red;stroke-width:1px;stroke-linecap:butt;stroke-linejoin:miter;stroke-opacity:1" d="M 94.3774,154.629 111.592,167.54 z" id="boundary" inkscape:connector-curvature="0" />
	<path style="fill:none;stroke:red;stroke-width:1px;stroke-linecap:butt;stroke-linejoin:miter;stroke-opacity:1" d="M 130.959,178.299 150.325,189.059 z" id="boundary" inkscape:connector-curvature="0" />
	<path style="fill:none;stroke:red;stroke-width:1px;stroke-linecap:butt;stroke-linejoin:miter;stroke-opacity:1" d="M 150.325,189.059 161.085,208.425 z" id="boundary" inkscape:connector-curvature="0" />
	<path style="fill:none;stroke:red;stroke-width:1px;stroke-linecap:butt;stroke-linejoin:miter;stroke-opacity:1" d="M 130.959,178.299 111.592,167.54 z" id="boundary" inkscape:connector-curvature="0" />
	<path style="fill:none;stroke:red;stroke-width:1px;stroke-linecap:butt;stroke-linejoin:miter;stroke-opacity:1" d="M 176.148,225.64 161.085,208.425 z" id="boundary" inkscape:connector-curvature="0" />
	<path style="fill:none;stroke:red;stroke-width:1px;stroke-linecap:butt;stroke-linejoin:miter;stroke-opacity:1" d="M 176.148,225.64 193.362,240.703 z" id="boundary" inkscape:connector-curvature="0" />
	<path style="fill:none;stroke:red;stroke-width:1px;stroke-linecap:butt;stroke-linejoin:miter;stroke-opacity:1" d="M 208.425,257.918 193.362,240.703 z" id="boundary" inkscape:connector-curvature="0" />
	<path style="fill:none;stroke:red;stroke-width:1px;stroke-linecap:butt;stroke-linejoin:miter;stroke-opacity:1" d="M 208.425,257.918 219.184,277.284 z" id="boundary" inkscape:connector-curvature="0" />
	<path style="fill:none;stroke:red;stroke-width:1px;stroke-linecap:butt;stroke-linejoin:miter;stroke-opacity:1" d="M 206.273,47.0369 221.336,64.2516 z" id="boundary" inkscape:connector-curvature="0" />
	<path style="fill:none;stroke:red;stroke-width:1px;stroke-linecap:butt;stroke-linejoin:miter;stroke-opacity:1" d="M 242.855,57.7961 221.336,64.2516 z" id="boundary" inkscape:connector-curvature="0" />
	<path style="fill:none;stroke:red;stroke-width:1px;stroke-linecap:butt;stroke-linejoin:miter;stroke-opacity:1" d="M 249.31,307.41 229.944,296.651 z" id="boundary" inkscape:connector-curvature="0" />
	<path style="fill:none;stroke:red;stroke-width:1px;stroke-linecap:butt;stroke-linejoin:miter;stroke-opacity:1" d="M 229.944,296.651 219.184,277.284 z" id="boundary" inkscape:connector-curvature="0" />
	<path style="fill:none;stroke:red;stroke-width:1px;stroke-linecap:butt;stroke-linejoin:miter;stroke-opacity:1" d="M 242.855,57.7961 262.221,68.5553 z" id="boundary" inkscape:connector-curvature="0" />
	<path style="fill:none;stroke:red;stroke-width:1px;stroke-linecap:butt;stroke-linejoin:miter;stroke-opacity:1" d="M 262.221,68.5553 283.74,68.5553 z" id="boundary" inkscape:connector-curvature="0" />
	<path style="fill:none;stroke:red;stroke-width:1px;stroke-linecap:butt;stroke-linejoin:miter;stroke-opacity:1" d="M 283.74,68.5553 303.106,79.3145 z" id="boundary" inkscape:connector-curvature="0" />
	<path style="fill:none;stroke:red;stroke-width:1px;stroke-linecap:butt;stroke-linejoin:miter;stroke-opacity:1" d="M 322.473,90.0738 341.839,100.833 z" id="boundary" inkscape:connector-curvature="0" />
	<path style="fill:none;stroke:red;stroke-width:1px;stroke-linecap:butt;stroke-linejoin:miter;stroke-opacity:1" d="M 322.473,90.0738 303.106,79.3145 z" id="boundary" inkscape:connector-curvature="0" />
	<path style="fill:none;stroke:red;stroke-width:1px;stroke-linecap:butt;stroke-linejoin:miter;stroke-opacity:1" d="M 268.677,318.169 249.31,307.41 z" id="boundary" inkscape:connector-curvature="0" />
	<path style="fill:none;stroke:red;stroke-width:1px;stroke-linecap:butt;stroke-linejoin:miter;stroke-opacity:1" d="M 268.677,318.169 285.892,333.232 z" id="boundary" inkscape:connector-curvature="0" />
	<path style="fill:none;stroke:red;stroke-width:1px;stroke-linecap:butt;stroke-linejoin:miter;stroke-opacity:1" d="M 305.258,343.991 285.892,333.232 z" id="boundary" inkscape:connector-curvature="0" />
	<path style="fill:none;stroke:red;stroke-width:1px;stroke-linecap:butt;stroke-linejoin:miter;stroke-opacity:1" d="M 251.462,505.38 272.98,483.861 z" id="boundary" inkscape:connector-curvature="0" />
	<path style="fill:none;stroke:red;stroke-width:1px;stroke-linecap:butt;stroke-linejoin:miter;stroke-opacity:1" d="M 251.462,526.898 251.462,505.38 z" id="boundary" inkscape:connector-curvature="0" />
	<path style="fill:none;stroke:red;stroke-width:1px;stroke-linecap:butt;stroke-linejoin:miter;stroke-opacity:1" d="M 296.651,554.872 251.462,526.898 z" id="boundary" inkscape:connector-curvature="0" />
	<path style="fill:none;stroke:red;stroke-width:1px;stroke-linecap:butt;stroke-linejoin:miter;stroke-opacity:1" d="M 294.499,462.343 272.98,483.861 z" id="boundary" inkscape:connector-curvature="0" />
	<path style="fill:none;stroke:red;stroke-width:1px;stroke-linecap:butt;stroke-linejoin:miter;stroke-opacity:1" d="M 305.258,343.991 322.473,359.054 z" id="boundary" inkscape:connector-curvature="0" />
	<path style="fill:none;stroke:red;stroke-width:1px;stroke-linecap:butt;stroke-linejoin:miter;stroke-opacity:1" d="M 322.473,359.054 326.777,380.573 z" id="boundary" inkscape:connector-curvature="0" />
	<path style="fill:none;stroke:red;stroke-width:1px;stroke-linecap:butt;stroke-linejoin:miter;stroke-opacity:1" d="M 326.777,380.573 326.777,402.091 z" id="boundary" inkscape:connector-curvature="0" />
	<path style="fill:none;stroke:red;stroke-width:1px;stroke-linecap:butt;stroke-linejoin:miter;stroke-opacity:1" d="M 326.777,402.091 316.017,440.824 z" id="boundary" inkscape:connector-curvature="0" />
	<path style="fill:none;stroke:red;stroke-width:1px;stroke-linecap:butt;stroke-linejoin:miter;stroke-opacity:1" d="M 316.017,440.824 294.499,462.343 z" id="boundary" inkscape:connector-curvature="0" />
	<path style="fill:none;stroke:red;stroke-width:1px;stroke-linecap:butt;stroke-linejoin:miter;stroke-opacity:1" d="M 251.462,526.898 229.944,537.657 z" id="boundary" inkscape:connector-curvature="0" />
	<path style="fill:none;stroke:red;stroke-width:1px;stroke-linecap:butt;stroke-linejoin:miter;stroke-opacity:1" d="M 55.6443,757.145 77.1627,757.145 z" id="boundary" inkscape:connector-curvature="0" />
	<path style="fill:none;stroke:red;stroke-width:1px;stroke-linecap:butt;stroke-linejoin:miter;stroke-opacity:1" d="M 36.2777,767.905 55.6443,757.145 z" id="boundary" inkscape:connector-curvature="0" />
	<path style="fill:none;stroke:red;stroke-width:1px;stroke-linecap:butt;stroke-linejoin:miter;stroke-opacity:1" d="M 14.7592,774.36 36.2777,767.905 z" id="boundary" inkscape:connector-curvature="0" />
	<path style="fill:none;stroke:red;stroke-width:1px;stroke-linecap:butt;stroke-linejoin:miter;stroke-opacity:1" d="M 77.1627,757.145 98.6811,757.145 z" id="boundary" inkscape:connector-curvature="0" />
	<path style="fill:none;stroke:red;stroke-width:1px;stroke-linecap:butt;stroke-linejoin:miter;stroke-opacity:1" d="M 111.592,720.564 98.6811,757.145 z" id="boundary" inkscape:connector-curvature="0" />
	<path style="fill:none;stroke:red;stroke-width:1px;stroke-linecap:butt;stroke-linejoin:miter;stroke-opacity:1" d="M 133.111,677.527 143.87,656.009 z" id="boundary" inkscape:connector-curvature="0" />
	<path style="fill:none;stroke:red;stroke-width:1px;stroke-linecap:butt;stroke-linejoin:miter;stroke-opacity:1" d="M 161.085,638.794 143.87,656.009 z" id="boundary" inkscape:connector-curvature="0" />
	<path style="fill:none;stroke:red;stroke-width:1px;stroke-linecap:butt;stroke-linejoin:miter;stroke-opacity:1" d="M 133.111,677.527 128.807,703.349 z" id="boundary" inkscape:connector-curvature="0" />
	<path style="fill:none;stroke:red;stroke-width:1px;stroke-linecap:butt;stroke-linejoin:miter;stroke-opacity:1" d="M 128.807,703.349 111.592,720.564 z" id="boundary" inkscape:connector-curvature="0" />
	<path style="fill:none;stroke:red;stroke-width:1px;stroke-linecap:butt;stroke-linejoin:miter;stroke-opacity:1" d="M 25.5184,834.612 14.7592,815.245 z" id="boundary" inkscape:connector-curvature="0" />
	<path style="fill:none;stroke:red;stroke-width:1px;stroke-linecap:butt;stroke-linejoin:miter;stroke-opacity:1" d="M 49.1887,871.193 36.2777,853.978 z" id="boundary" inkscape:connector-curvature="0" />
	<path style="fill:none;stroke:red;stroke-width:1px;stroke-linecap:butt;stroke-linejoin:miter;stroke-opacity:1" d="M 36.2777,853.978 25.5184,834.612 z" id="boundary" inkscape:connector-curvature="0" />
	<path style="fill:none;stroke:red;stroke-width:1px;stroke-linecap:butt;stroke-linejoin:miter;stroke-opacity:1" d="M 4,795.879 14.7592,774.36 z" id="boundary" inkscape:connector-curvature="0" />
	<path style="fill:none;stroke:red;stroke-width:1px;stroke-linecap:butt;stroke-linejoin:miter;stroke-opacity:1" d="M 14.7592,815.245 4,795.879 z" id="boundary" inkscape:connector-curvature="0" />
	<path style="fill:none;stroke:red;stroke-width:1px;stroke-linecap:butt;stroke-linejoin:miter;stroke-opacity:1" d="M 64.2516,888.408 49.1887,871.193 z" id="boundary" inkscape:connector-curvature="0" />
	<path style="fill:none;stroke:red;stroke-width:1px;stroke-linecap:butt;stroke-linejoin:miter;stroke-opacity:1" d="M 156.781,866.889 161.085,888.408 z" id="boundary" inkscape:connector-curvature="0" />
	<path style="fill:none;stroke:red;stroke-width:1px;stroke-linecap:butt;stroke-linejoin:miter;stroke-opacity:1" d="M 161.085,888.408 139.566,897.015 z" id="boundary" inkscape:connector-curvature="0" />
	<path style="fill:none;stroke:red;stroke-width:1px;stroke-linecap:butt;stroke-linejoin:miter;stroke-opacity:1" d="M 81.4664,903.471 64.2516,888.408 z" id="boundary" inkscape:connector-curvature="0" />
	<path style="fill:none;stroke:red;stroke-width:1px;stroke-linecap:butt;stroke-linejoin:miter;stroke-opacity:1" d="M 122.351,909.926 100.833,914.23 z" id="boundary" inkscape:connector-curvature="0" />
	<path style="fill:none;stroke:red;stroke-width:1px;stroke-linecap:butt;stroke-linejoin:miter;stroke-opacity:1" d="M 100.833,914.23 81.4664,903.471 z" id="boundary" inkscape:connector-curvature="0" />
	<path style="fill:none;stroke:red;stroke-width:1px;stroke-linecap:butt;stroke-linejoin:miter;stroke-opacity:1" d="M 139.566,897.015 122.351,909.926 z" id="boundary" inkscape:connector-curvature="0" />
	<path style="fill:none;stroke:red;stroke-width:1px;stroke-linecap:butt;stroke-linejoin:miter;stroke-opacity:1" d="M 208.425,559.176 229.944,537.657 z" id="boundary" inkscape:connector-curvature="0" />
	<path style="fill:none;stroke:red;stroke-width:1px;stroke-linecap:butt;stroke-linejoin:miter;stroke-opacity:1" d="M 208.425,580.694 208.425,559.176 z" id="boundary" inkscape:connector-curvature="0" />
	<path style="fill:none;stroke:red;stroke-width:1px;stroke-linecap:butt;stroke-linejoin:miter;stroke-opacity:1" d="M 178.299,621.579 186.907,591.453 z" id="boundary" inkscape:connector-curvature="0" />
	<path style="fill:none;stroke:red;stroke-width:1px;stroke-linecap:butt;stroke-linejoin:miter;stroke-opacity:1" d="M 186.907,591.453 208.425,580.694 z" id="boundary" inkscape:connector-curvature="0" />
	<path style="fill:none;stroke:red;stroke-width:1px;stroke-linecap:butt;stroke-linejoin:miter;stroke-opacity:1" d="M 178.299,621.579 161.085,638.794 z" id="boundary" inkscape:connector-curvature="0" />
	<path style="fill:none;stroke:red;stroke-width:1px;stroke-linecap:butt;stroke-linejoin:miter;stroke-opacity:1" d="M 296.651,554.872 318.169,554.872 z" id="boundary" inkscape:connector-curvature="0" />
	<path style="fill:none;stroke:red;stroke-width:1px;stroke-linecap:butt;stroke-linejoin:miter;stroke-opacity:1" d="M 296.651,576.39 296.651,554.872 z" id="boundary" inkscape:connector-curvature="0" />
	<path style="fill:none;stroke:red;stroke-width:1px;stroke-linecap:butt;stroke-linejoin:miter;stroke-opacity:1" d="M 285.892,608.668 296.651,576.39 z" id="boundary" inkscape:connector-curvature="0" />
	<path style="fill:none;stroke:red;stroke-width:1px;stroke-linecap:butt;stroke-linejoin:miter;stroke-opacity:1" d="M 318.169,554.872 339.688,554.872 z" id="boundary" inkscape:connector-curvature="0" />
	<path style="fill:none;stroke:red;stroke-width:1px;stroke-linecap:butt;stroke-linejoin:miter;stroke-opacity:1" d="M 275.132,630.187 285.892,608.668 z" id="boundary" inkscape:connector-curvature="0" />
	<path style="fill:none;stroke:red;stroke-width:1px;stroke-linecap:butt;stroke-linejoin:miter;stroke-opacity:1" d="M 361.206,544.113 339.688,554.872 z" id="boundary" inkscape:connector-curvature="0" />
	<path style="fill:none;stroke:red;stroke-width:1px;stroke-linecap:butt;stroke-linejoin:miter;stroke-opacity:1" d="M 199.818,759.297 189.059,791.575 z" id="boundary" inkscape:connector-curvature="0" />
	<path style="fill:none;stroke:red;stroke-width:1px;stroke-linecap:butt;stroke-linejoin:miter;stroke-opacity:1" d="M 156.781,866.889 173.996,851.826 z" id="boundary" inkscape:connector-curvature="0" />
	<path style="fill:none;stroke:red;stroke-width:1px;stroke-linecap:butt;stroke-linejoin:miter;stroke-opacity:1" d="M 178.299,823.852 173.996,851.826 z" id="boundary" inkscape:connector-curvature="0" />
	<path style="fill:none;stroke:red;stroke-width:1px;stroke-linecap:butt;stroke-linejoin:miter;stroke-opacity:1" d="M 178.299,823.852 189.059,791.575 z" id="boundary" inkscape:connector-curvature="0" />
	<path style="fill:none;stroke:red;stroke-width:1px;stroke-linecap:butt;stroke-linejoin:miter;stroke-opacity:1" d="M 253.614,673.223 264.373,651.705 z" id="boundary" inkscape:connector-curvature="0" />
	<path style="fill:none;stroke:red;stroke-width:1px;stroke-linecap:butt;stroke-linejoin:miter;stroke-opacity:1" d="M 253.614,673.223 238.551,701.197 z" id="boundary" inkscape:connector-curvature="0" />
	<path style="fill:none;stroke:red;stroke-width:1px;stroke-linecap:butt;stroke-linejoin:miter;stroke-opacity:1" d="M 264.373,651.705 275.132,630.187 z" id="boundary" inkscape:connector-curvature="0" />
	<path style="fill:none;stroke:red;stroke-width:1px;stroke-linecap:butt;stroke-linejoin:miter;stroke-opacity:1" d="M 227.792,722.716 210.577,737.779 z" id="boundary" inkscape:connector-curvature="0" />
	<path style="fill:none;stroke:red;stroke-width:1px;stroke-linecap:butt;stroke-linejoin:miter;stroke-opacity:1" d="M 238.551,701.197 227.792,722.716 z" id="boundary" inkscape:connector-curvature="0" />
	<path style="fill:none;stroke:red;stroke-width:1px;stroke-linecap:butt;stroke-linejoin:miter;stroke-opacity:1" d="M 199.818,759.297 210.577,737.779 z" id="boundary" inkscape:connector-curvature="0" />
	<path style="fill:none;stroke:red;stroke-width:1px;stroke-linecap:butt;stroke-linejoin:miter;stroke-opacity:1" d="M 341.839,100.833 361.206,111.592 z" id="boundary" inkscape:connector-curvature="0" />
	<path style="fill:none;stroke:red;stroke-width:1px;stroke-linecap:butt;stroke-linejoin:miter;stroke-opacity:1" d="M 361.206,111.592 382.725,118.048 z" id="boundary" inkscape:connector-curvature="0" />
	<path style="fill:none;stroke:red;stroke-width:1px;stroke-linecap:butt;stroke-linejoin:miter;stroke-opacity:1" d="M 382.725,118.048 397.787,135.262 z" id="boundary" inkscape:connector-curvature="0" />
	<path style="fill:none;stroke:red;stroke-width:1px;stroke-linecap:butt;stroke-linejoin:miter;stroke-opacity:1" d="M 430.065,154.629 408.547,154.629 z" id="boundary" inkscape:connector-curvature="0" />
	<path style="fill:none;stroke:red;stroke-width:1px;stroke-linecap:butt;stroke-linejoin:miter;stroke-opacity:1" d="M 408.547,154.629 397.787,135.262 z" id="boundary" inkscape:connector-curvature="0" />
	<path style="fill:none;stroke:red;stroke-width:1px;stroke-linecap:butt;stroke-linejoin:miter;stroke-opacity:1" d="M 430.065,154.629 449.432,165.388 z" id="boundary" inkscape:connector-curvature="0" />
	<path style="fill:none;stroke:red;stroke-width:1px;stroke-linecap:butt;stroke-linejoin:miter;stroke-opacity:1" d="M 466.646,180.451 479.557,197.666 z" id="boundary" inkscape:connector-curvature="0" />
	<path style="fill:none;stroke:red;stroke-width:1px;stroke-linecap:butt;stroke-linejoin:miter;stroke-opacity:1" d="M 466.646,180.451 449.432,165.388 z" id="boundary" inkscape:connector-curvature="0" />
	<path style="fill:none;stroke:red;stroke-width:1px;stroke-linecap:butt;stroke-linejoin:miter;stroke-opacity:1" d="M 479.557,197.666 498.924,208.425 z" id="boundary" inkscape:connector-curvature="0" />
	<path style="fill:none;stroke:red;stroke-width:1px;stroke-linecap:butt;stroke-linejoin:miter;stroke-opacity:1" d="M 516.139,221.336 498.924,208.425 z" id="boundary" inkscape:connector-curvature="0" />
	<path style="fill:none;stroke:red;stroke-width:1px;stroke-linecap:butt;stroke-linejoin:miter;stroke-opacity:1" d="M 516.139,221.336 526.898,240.703 z" id="boundary" inkscape:connector-curvature="0" />
	<path style="fill:none;stroke:red;stroke-width:1px;stroke-linecap:butt;stroke-linejoin:miter;stroke-opacity:1" d="M 404.243,544.113 423.61,533.354 z" id="boundary" inkscape:connector-curvature="0" />
	<path style="fill:none;stroke:red;stroke-width:1px;stroke-linecap:butt;stroke-linejoin:miter;stroke-opacity:1" d="M 445.128,526.898 423.61,533.354 z" id="boundary" inkscape:connector-curvature="0" />
	<path style="fill:none;stroke:red;stroke-width:1px;stroke-linecap:butt;stroke-linejoin:miter;stroke-opacity:1" d="M 382.725,544.113 404.243,544.113 z" id="boundary" inkscape:connector-curvature="0" />
	<path style="fill:none;stroke:red;stroke-width:1px;stroke-linecap:butt;stroke-linejoin:miter;stroke-opacity:1" d="M 382.725,544.113 361.206,544.113 z" id="boundary" inkscape:connector-curvature="0" />
	<path style="fill:none;stroke:red;stroke-width:1px;stroke-linecap:butt;stroke-linejoin:miter;stroke-opacity:1" d="M 445.128,526.898 466.646,533.354 z" id="boundary" inkscape:connector-curvature="0" />
	<path style="fill:none;stroke:red;stroke-width:1px;stroke-linecap:butt;stroke-linejoin:miter;stroke-opacity:1" d="M 488.165,533.354 466.646,533.354 z" id="boundary" inkscape:connector-curvature="0" />
	<path style="fill:none;stroke:red;stroke-width:1px;stroke-linecap:butt;stroke-linejoin:miter;stroke-opacity:1" d="M 488.165,569.935 509.683,576.39 z" id="boundary" inkscape:connector-curvature="0" />
	<path style="fill:none;stroke:red;stroke-width:1px;stroke-linecap:butt;stroke-linejoin:miter;stroke-opacity:1" d="M 509.683,576.39 516.139,597.909 z" id="boundary" inkscape:connector-curvature="0" />
	<path style="fill:none;stroke:red;stroke-width:1px;stroke-linecap:butt;stroke-linejoin:miter;stroke-opacity:1" d="M 526.898,240.703 533.354,264.373 z" id="boundary" inkscape:connector-curvature="0" />
	<path style="fill:none;stroke:red;stroke-width:1px;stroke-linecap:butt;stroke-linejoin:miter;stroke-opacity:1" d="M 516.139,597.909 526.898,617.275 z" id="boundary" inkscape:connector-curvature="0" />
	<path style="fill:none;stroke:red;stroke-width:1px;stroke-linecap:butt;stroke-linejoin:miter;stroke-opacity:1" d="M 533.354,296.651 533.354,264.373 z" id="boundary" inkscape:connector-curvature="0" />
	<path style="fill:none;stroke:red;stroke-width:1px;stroke-linecap:butt;stroke-linejoin:miter;stroke-opacity:1" d="M 554.872,305.258 533.354,296.651 z" id="boundary" inkscape:connector-curvature="0" />
	<path style="fill:none;stroke:red;stroke-width:1px;stroke-linecap:butt;stroke-linejoin:miter;stroke-opacity:1" d="M 554.872,305.258 572.087,318.169 z" id="boundary" inkscape:connector-curvature="0" />
	<path style="fill:none;stroke:red;stroke-width:1px;stroke-linecap:butt;stroke-linejoin:miter;stroke-opacity:1" d="M 587.15,335.384 572.087,318.169 z" id="boundary" inkscape:connector-curvature="0" />
	<path style="fill:none;stroke:red;stroke-width:1px;stroke-linecap:butt;stroke-linejoin:miter;stroke-opacity:1" d="M 587.15,335.384 587.15,356.902 z" id="boundary" inkscape:connector-curvature="0" />
	<path style="fill:none;stroke:red;stroke-width:1px;stroke-linecap:butt;stroke-linejoin:miter;stroke-opacity:1" d="M 587.15,356.902 604.364,371.965 z" id="boundary" inkscape:connector-curvature="0" />
	<path style="fill:none;stroke:red;stroke-width:1px;stroke-linecap:butt;stroke-linejoin:miter;stroke-opacity:1" d="M 604.364,371.965 608.668,393.484 z" id="boundary" inkscape:connector-curvature="0" />
	<path style="fill:none;stroke:red;stroke-width:1px;stroke-linecap:butt;stroke-linejoin:miter;stroke-opacity:1" d="M 608.668,393.484 619.427,412.85 z" id="boundary" inkscape:connector-curvature="0" />
	<path style="fill:none;stroke:red;stroke-width:1px;stroke-linecap:butt;stroke-linejoin:miter;stroke-opacity:1" d="M 619.427,412.85 619.427,434.369 z" id="boundary" inkscape:connector-curvature="0" />
	<path style="fill:none;stroke:red;stroke-width:1px;stroke-linecap:butt;stroke-linejoin:miter;stroke-opacity:1" d="M 630.187,453.735 619.427,434.369 z" id="boundary" inkscape:connector-curvature="0" />
	<path style="fill:none;stroke:red;stroke-width:1px;stroke-linecap:butt;stroke-linejoin:miter;stroke-opacity:1" d="M 630.187,475.254 630.187,496.772 z" id="boundary" inkscape:connector-curvature="0" />
	<path style="fill:none;stroke:red;stroke-width:1px;stroke-linecap:butt;stroke-linejoin:miter;stroke-opacity:1" d="M 630.187,518.291 630.187,539.809 z" id="boundary" inkscape:connector-curvature="0" />
	<path style="fill:none;stroke:red;stroke-width:1px;stroke-linecap:butt;stroke-linejoin:miter;stroke-opacity:1" d="M 630.187,496.772 630.187,518.291 z" id="boundary" inkscape:connector-curvature="0" />
	<path style="fill:none;stroke:red;stroke-width:1px;stroke-linecap:butt;stroke-linejoin:miter;stroke-opacity:1" d="M 630.187,539.809 630.187,561.328 z" id="boundary" inkscape:connector-curvature="0" />
	<path style="fill:none;stroke:red;stroke-width:1px;stroke-linecap:butt;stroke-linejoin:miter;stroke-opacity:1" d="M 703.349,617.275 683.983,606.516 z" id="boundary" inkscape:connector-curvature="0" />
	<path style="fill:none;stroke:red;stroke-width:1px;stroke-linecap:butt;stroke-linejoin:miter;stroke-opacity:1" d="M 630.187,453.735 630.187,475.254 z" id="boundary" inkscape:connector-curvature="0" />
	<path style="fill:none;stroke:red;stroke-width:1px;stroke-linecap:butt;stroke-linejoin:miter;stroke-opacity:1" d="M 630.187,561.328 630.187,582.846 z" id="boundary" inkscape:connector-curvature="0" />
	<path style="fill:none;stroke:red;stroke-width:1px;stroke-linecap:butt;stroke-linejoin:miter;stroke-opacity:1" d="M 662.464,606.516 640.946,602.213 z" id="boundary" inkscape:connector-curvature="0" />
	<path style="fill:none;stroke:red;stroke-width:1px;stroke-linecap:butt;stroke-linejoin:miter;stroke-opacity:1" d="M 640.946,602.213 630.187,582.846 z" id="boundary" inkscape:connector-curvature="0" />
	<path style="fill:none;stroke:red;stroke-width:1px;stroke-linecap:butt;stroke-linejoin:miter;stroke-opacity:1" d="M 683.983,606.516 662.464,606.516 z" id="boundary" inkscape:connector-curvature="0" />
	<path style="fill:none;stroke:red;stroke-width:1px;stroke-linecap:butt;stroke-linejoin:miter;stroke-opacity:1" d="M 541.961,634.49 526.898,617.275 z" id="boundary" inkscape:connector-curvature="0" />
	<path style="fill:none;stroke:red;stroke-width:1px;stroke-linecap:butt;stroke-linejoin:miter;stroke-opacity:1" d="M 554.872,651.705 576.39,656.009 z" id="boundary" inkscape:connector-curvature="0" />
	<path style="fill:none;stroke:red;stroke-width:1px;stroke-linecap:butt;stroke-linejoin:miter;stroke-opacity:1" d="M 554.872,651.705 541.961,634.49 z" id="boundary" inkscape:connector-curvature="0" />
	<path style="fill:none;stroke:red;stroke-width:1px;stroke-linecap:butt;stroke-linejoin:miter;stroke-opacity:1" d="M 597.909,662.464 576.39,656.009 z" id="boundary" inkscape:connector-curvature="0" />
	<path style="fill:none;stroke:red;stroke-width:1px;stroke-linecap:butt;stroke-linejoin:miter;stroke-opacity:1" d="M 617.275,673.223 597.909,662.464 z" id="boundary" inkscape:connector-curvature="0" />
	<path style="fill:none;stroke:red;stroke-width:1px;stroke-linecap:butt;stroke-linejoin:miter;stroke-opacity:1" d="M 703.349,617.275 720.564,630.187 z" id="boundary" inkscape:connector-curvature="0" />
	<path style="fill:none;stroke:red;stroke-width:1px;stroke-linecap:butt;stroke-linejoin:miter;stroke-opacity:1" d="M 737.779,645.249 720.564,630.187 z" id="boundary" inkscape:connector-curvature="0" />
	<path style="fill:none;stroke:red;stroke-width:1px;stroke-linecap:butt;stroke-linejoin:miter;stroke-opacity:1" d="M 759.297,649.553 737.779,645.249 z" id="boundary" inkscape:connector-curvature="0" />
	<path style="fill:none;stroke:red;stroke-width:1px;stroke-linecap:butt;stroke-linejoin:miter;stroke-opacity:1" d="M 780.816,649.553 759.297,649.553 z" id="boundary" inkscape:connector-curvature="0" />
	<path style="fill:none;stroke:red;stroke-width:1px;stroke-linecap:butt;stroke-linejoin:miter;stroke-opacity:1" d="M 802.334,649.553 780.816,649.553 z" id="boundary" inkscape:connector-curvature="0" />
	<path style="fill:none;stroke:red;stroke-width:1px;stroke-linecap:butt;stroke-linejoin:miter;stroke-opacity:1" d="M 617.275,673.223 630.187,690.438 z" id="boundary" inkscape:connector-curvature="0" />
	<path style="fill:none;stroke:red;stroke-width:1px;stroke-linecap:butt;stroke-linejoin:miter;stroke-opacity:1" d="M 688.286,716.26 666.768,716.26 z" id="boundary" inkscape:connector-curvature="0" />
	<path style="fill:none;stroke:red;stroke-width:1px;stroke-linecap:butt;stroke-linejoin:miter;stroke-opacity:1" d="M 666.768,716.26 647.401,705.501 z" id="boundary" inkscape:connector-curvature="0" />
	<path style="fill:none;stroke:red;stroke-width:1px;stroke-linecap:butt;stroke-linejoin:miter;stroke-opacity:1" d="M 647.401,705.501 630.187,690.438 z" id="boundary" inkscape:connector-curvature="0" />
	<path style="fill:none;stroke:red;stroke-width:1px;stroke-linecap:butt;stroke-linejoin:miter;stroke-opacity:1" d="M 731.323,724.868 709.805,716.26 z" id="boundary" inkscape:connector-curvature="0" />
	<path style="fill:none;stroke:red;stroke-width:1px;stroke-linecap:butt;stroke-linejoin:miter;stroke-opacity:1" d="M 752.842,727.02 731.323,724.868 z" id="boundary" inkscape:connector-curvature="0" />
	<path style="fill:none;stroke:red;stroke-width:1px;stroke-linecap:butt;stroke-linejoin:miter;stroke-opacity:1" d="M 688.286,716.26 709.805,716.26 z" id="boundary" inkscape:connector-curvature="0" />
	<path style="fill:none;stroke:red;stroke-width:1px;stroke-linecap:butt;stroke-linejoin:miter;stroke-opacity:1" d="M 774.36,727.02 795.879,727.02 z" id="boundary" inkscape:connector-curvature="0" />
	<path style="fill:none;stroke:red;stroke-width:1px;stroke-linecap:butt;stroke-linejoin:miter;stroke-opacity:1" d="M 774.36,727.02 752.842,727.02 z" id="boundary" inkscape:connector-curvature="0" />
	<path style="fill:none;stroke:red;stroke-width:1px;stroke-linecap:butt;stroke-linejoin:miter;stroke-opacity:1" d="M 795.879,727.02 817.397,727.02 z" id="boundary" inkscape:connector-curvature="0" />
	<path style="fill:none;stroke:red;stroke-width:1px;stroke-linecap:butt;stroke-linejoin:miter;stroke-opacity:1" d="M 817.397,727.02 838.915,735.627 z" id="boundary" inkscape:connector-curvature="0" />
	<path style="fill:none;stroke:red;stroke-width:1px;stroke-linecap:butt;stroke-linejoin:miter;stroke-opacity:1" d="M 802.334,649.553 823.852,649.553 z" id="boundary" inkscape:connector-curvature="0" />
	<path style="fill:none;stroke:red;stroke-width:1px;stroke-linecap:butt;stroke-linejoin:miter;stroke-opacity:1" d="M 866.889,649.553 888.408,649.553 z" id="boundary" inkscape:connector-curvature="0" />
	<path style="fill:none;stroke:red;stroke-width:1px;stroke-linecap:butt;stroke-linejoin:miter;stroke-opacity:1" d="M 866.889,649.553 845.371,649.553 z" id="boundary" inkscape:connector-curvature="0" />
	<path style="fill:none;stroke:red;stroke-width:1px;stroke-linecap:butt;stroke-linejoin:miter;stroke-opacity:1" d="M 888.408,649.553 909.926,649.553 z" id="boundary" inkscape:connector-curvature="0" />
	<path style="fill:none;stroke:red;stroke-width:1px;stroke-linecap:butt;stroke-linejoin:miter;stroke-opacity:1" d="M 845.371,649.553 823.852,649.553 z" id="boundary" inkscape:connector-curvature="0" />
	<path style="fill:none;stroke:red;stroke-width:1px;stroke-linecap:butt;stroke-linejoin:miter;stroke-opacity:1" d="M 931.445,649.553 952.963,649.553 z" id="boundary" inkscape:connector-curvature="0" />
	<path style="fill:none;stroke:red;stroke-width:1px;stroke-linecap:butt;stroke-linejoin:miter;stroke-opacity:1" d="M 931.445,649.553 909.926,649.553 z" id="boundary" inkscape:connector-curvature="0" />
	<path style="fill:none;stroke:red;stroke-width:1px;stroke-linecap:butt;stroke-linejoin:miter;stroke-opacity:1" d="M 952.963,649.553 974.482,656.009 z" id="boundary" inkscape:connector-curvature="0" />
	<path style="fill:none;stroke:red;stroke-width:1px;stroke-linecap:butt;stroke-linejoin:miter;stroke-opacity:1" d="M 974.482,656.009 989.544,673.223 z" id="boundary" inkscape:connector-curvature="0" />
	<path style="fill:none;stroke:red;stroke-width:1px;stroke-linecap:butt;stroke-linejoin:miter;stroke-opacity:1" d="M 989.544,673.223 996,694.742 z" id="boundary" inkscape:connector-curvature="0" />
	<path style="fill:none;stroke:red;stroke-width:1px;stroke-linecap:butt;stroke-linejoin:miter;stroke-opacity:1" d="M 996,694.742 985.241,716.26 z" id="boundary" inkscape:connector-curvature="0" />
	<path style="fill:none;stroke:red;stroke-width:1px;stroke-linecap:butt;stroke-linejoin:miter;stroke-opacity:1" d="M 838.915,735.627 860.434,737.779 z" id="boundary" inkscape:connector-curvature="0" />
	<path style="fill:none;stroke:red;stroke-width:1px;stroke-linecap:butt;stroke-linejoin:miter;stroke-opacity:1" d="M 897.015,763.601 907.774,785.119 z" id="boundary" inkscape:connector-curvature="0" />
	<path style="fill:none;stroke:red;stroke-width:1px;stroke-linecap:butt;stroke-linejoin:miter;stroke-opacity:1" d="M 897.015,763.601 881.952,746.386 z" id="boundary" inkscape:connector-curvature="0" />
	<path style="fill:none;stroke:red;stroke-width:1px;stroke-linecap:butt;stroke-linejoin:miter;stroke-opacity:1" d="M 860.434,737.779 881.952,746.386 z" id="boundary" inkscape:connector-curvature="0" />
	<path style="fill:none;stroke:red;stroke-width:1px;stroke-linecap:butt;stroke-linejoin:miter;stroke-opacity:1" d="M 907.774,785.119 924.989,800.182 z" id="boundary" inkscape:connector-curvature="0" />
	<path style="fill:none;stroke:red;stroke-width:1px;stroke-linecap:butt;stroke-linejoin:miter;stroke-opacity:1" d="M 983.089,752.842 972.33,774.36 z" id="boundary" inkscape:connector-curvature="0" />
	<path style="fill:none;stroke:red;stroke-width:1px;stroke-linecap:butt;stroke-linejoin:miter;stroke-opacity:1" d="M 983.089,752.842 985.241,716.26 z" id="boundary" inkscape:connector-curvature="0" />
	<path style="fill:none;stroke:red;stroke-width:1px;stroke-linecap:butt;stroke-linejoin:miter;stroke-opacity:1" d="M 961.57,795.879 944.356,810.941 z" id="boundary" inkscape:connector-curvature="0" />
	<path style="fill:none;stroke:red;stroke-width:1px;stroke-linecap:butt;stroke-linejoin:miter;stroke-opacity:1" d="M 944.356,810.941 924.989,800.182 z" id="boundary" inkscape:connector-curvature="0" />
	<path style="fill:none;stroke:red;stroke-width:1px;stroke-linecap:butt;stroke-linejoin:miter;stroke-opacity:1" d="M 972.33,774.36 961.57,795.879 z" id="boundary" inkscape:connector-curvature="0" />
	<circle cx="4" cy="795.879" r="4" fill="#0" id="circle0"/>
	<circle cx="14.7592" cy="774.36" r="4" fill="#0" id="circle1"/>
	<circle cx="14.7592" cy="815.245" r="4" fill="#0" id="circle2"/>
	<circle cx="25.5184" cy="834.612" r="4" fill="#0" id="circle3"/>
	<circle cx="36.2777" cy="767.905" r="4" fill="#0" id="circle4"/>
	<circle cx="36.2777" cy="853.978" r="4" fill="#0" id="circle5"/>
	<circle cx="49.1887" cy="871.193" r="4" fill="#0" id="circle6"/>
	<circle cx="55.6443" cy="757.145" r="4" fill="#0" id="circle7"/>
	<circle cx="57.7961" cy="53.4924" r="4" fill="#0" id="circle8"/>
	<circle cx="57.7961" cy="75.0108" r="4" fill="#0" id="circle9"/>
	<circle cx="64.2516" cy="888.408" r="4" fill="#0" id="circle10"/>
	<circle cx="68.5553" cy="31.974" r="4" fill="#0" id="circle11"/>
	<circle cx="68.5553" cy="94.3774" r="4" fill="#0" id="circle12"/>
	<circle cx="68.5553" cy="118.048" r="4" fill="#0" id="circle13"/>
	<circle cx="77.1627" cy="757.145" r="4" fill="#0" id="circle14"/>
	<circle cx="79.3145" cy="137.414" r="4" fill="#0" id="circle15"/>
	<circle cx="81.4664" cy="903.471" r="4" fill="#0" id="circle16"/>
	<circle cx="85.7701" cy="14.7592" r="4" fill="#0" id="circle17"/>
	<circle cx="94.3774" cy="154.629" r="4" fill="#0" id="circle18"/>
	<circle cx="98.6811" cy="757.145" r="4" fill="#0" id="circle19"/>
	<circle cx="100.833" cy="914.23" r="4" fill="#0" id="circle20"/>
	<circle cx="107.289" cy="4" r="4" fill="#0" id="circle21"/>
	<circle cx="111.592" cy="167.54" r="4" fill="#0" id="circle22"/>
	<circle cx="111.592" cy="720.564" r="4" fill="#0" id="circle23"/>
	<circle cx="122.351" cy="909.926" r="4" fill="#0" id="circle24"/>
	<circle cx="128.807" cy="4" r="4" fill="#0" id="circle25"/>
	<circle cx="128.807" cy="703.349" r="4" fill="#0" id="circle26"/>
	<circle cx="130.959" cy="178.299" r="4" fill="#0" id="circle27"/>
	<circle cx="133.111" cy="677.527" r="4" fill="#0" id="circle28"/>
	<circle cx="139.566" cy="897.015" r="4" fill="#0" id="circle29"/>
	<circle cx="143.87" cy="656.009" r="4" fill="#0" id="circle30"/>
	<circle cx="148.174" cy="14.7592" r="4" fill="#0" id="circle31"/>
	<circle cx="150.325" cy="189.059" r="4" fill="#0" id="circle32"/>
	<circle cx="156.781" cy="866.889" r="4" fill="#0" id="circle33"/>
	<circle cx="161.085" cy="208.425" r="4" fill="#0" id="circle34"/>
	<circle cx="161.085" cy="638.794" r="4" fill="#0" id="circle35"/>
	<circle cx="161.085" cy="888.408" r="4" fill="#0" id="circle36"/>
	<circle cx="167.54" cy="25.5184" r="4" fill="#0" id="circle37"/>
	<circle cx="173.996" cy="851.826" r="4" fill="#0" id="circle38"/>
	<circle cx="176.148" cy="225.64" r="4" fill="#0" id="circle39"/>
	<circle cx="178.299" cy="621.579" r="4" fill="#0" id="circle40"/>
	<circle cx="178.299" cy="823.852" r="4" fill="#0" id="circle41"/>
	<circle cx="186.907" cy="591.453" r="4" fill="#0" id="circle42"/>
	<circle cx="189.059" cy="31.974" r="4" fill="#0" id="circle43"/>
	<circle cx="189.059" cy="791.575" r="4" fill="#0" id="circle44"/>
	<circle cx="193.362" cy="240.703" r="4" fill="#0" id="circle45"/>
	<circle cx="199.818" cy="759.297" r="4" fill="#0" id="circle46"/>
	<circle cx="206.273" cy="47.0369" r="4" fill="#0" id="circle47"/>
	<circle cx="208.425" cy="257.918" r="4" fill="#0" id="circle48"/>
	<circle cx="208.425" cy="559.176" r="4" fill="#0" id="circle49"/>
	<circle cx="208.425" cy="580.694" r="4" fill="#0" id="circle50"/>
	<circle cx="210.577" cy="737.779" r="4" fill="#0" id="circle51"/>
	<circle cx="219.184" cy="277.284" r="4" fill="#0" id="circle52"/>
	<circle cx="221.336" cy="64.2516" r="4" fill="#0" id="circle53"/>
	<circle cx="227.792" cy="722.716" r="4" fill="#0" id="circle54"/>
	<circle cx="229.944" cy="296.651" r="4" fill="#0" id="circle55"/>
	<circle cx="229.944" cy="537.657" r="4" fill="#0" id="circle56"/>
	<circle cx="238.551" cy="701.197" r="4" fill="#0" id="circle57"/>
	<circle cx="242.855" cy="57.7961" r="4" fill="#0" id="circle58"/>
	<circle cx="249.31" cy="307.41" r="4" fill="#0" id="circle59"/>
	<circle cx="251.462" cy="505.38" r="4" fill="#0" id="circle60"/>
	<circle cx="251.462" cy="526.898" r="4" fill="#0" id="circle61"/>
	<circle cx="253.614" cy="673.223" r="4" fill="#0" id="circle62"/>
	<circle cx="262.221" cy="68.5553" r="4" fill="#0" id="circle63"/>
	<circle cx="264.373" cy="651.705" r="4" fill="#0" id="circle64"/>
	<circle cx="268.677" cy="318.169" r="4" fill="#0" id="circle65"/>
	<circle cx="272.98" cy="483.861" r="4" fill="#0" id="circle66"/>
	<circle cx="275.132" cy="630.187" r="4" fill="#0" id="circle67"/>
	<circle cx="283.74" cy="68.5553" r="4" fill="#0" id="circle68"/>
	<circle cx="285.892" cy="333.232" r="4" fill="#0" id="circle69"/>
	<circle cx="285.892" cy="608.668" r="4" fill="#0" id="circle70"/>
	<circle cx="294.499" cy="462.343" r="4" fill="#0" id="circle71"/>
	<circle cx="296.651" cy="554.872" r="4" fill="#0" id="circle72"/>
	<circle cx="296.651" cy="576.39" r="4" fill="#0" id="circle73"/>
	<circle cx="303.106" cy="79.3145" r="4" fill="#0" id="circle74"/>
	<circle cx="305.258" cy="343.991" r="4" fill="#0" id="circle75"/>
	<circle cx="316.017" cy="440.824" r="4" fill="#0" id="circle76"/>
	<circle cx="318.169" cy="554.872" r="4" fill="#0" id="circle77"/>
	<circle cx="322.473" cy="90.0738" r="4" fill="#0" id="circle78"/>
	<circle cx="322.473" cy="359.054" r="4" fill="#0" id="circle79"/>
	<circle cx="326.777" cy="380.573" r="4" fill="#0" id="circle80"/>
	<circle cx="326.777" cy="402.091" r="4" fill="#0" id="circle81"/>
	<circle cx="339.688" cy="554.872" r="4" fill="#0" id="circle82"/>
	<circle cx="341.839" cy="100.833" r="4" fill="#0" id="circle83"/>
	<circle cx="361.206" cy="111.592" r="4" fill="#0" id="circle84"/>
	<circle cx="361.206" cy="544.113" r="4" fill="#0" id="circle85"/>
	<circle cx="382.725" cy="118.048" r="4" fill="#0" id="circle86"/>
	<circle cx="382.725" cy="544.113" r="4" fill="#0" id="circle87"/>
	<circle cx="397.787" cy="135.262" r="4" fill="#0" id="circle88"/>
	<circle cx="404.243" cy="544.113" r="4" fill="#0" id="circle89"/>
	<circle cx="408.547" cy="154.629" r="4" fill="#0" id="circle90"/>
	<circle cx="423.61" cy="533.354" r="4" fill="#0" id="circle91"/>
	<circle cx="430.065" cy="154.629" r="4" fill="#0" id="circle92"/>
	<circle cx="445.128" cy="526.898" r="4" fill="#0" id="circle93"/>
	<circle cx="449.432" cy="165.388" r="4" fill="#0" id="circle94"/>
	<circle cx="466.646" cy="180.451" r="4" fill="#0" id="circle95"/>
	<circle cx="466.646" cy="533.354" r="4" fill="#0" id="circle96"/>
	<circle cx="479.557" cy="197.666" r="4" fill="#0" id="circle97"/>
	<circle cx="488.165" cy="533.354" r="4" fill="#0" id="circle98"/>
	<circle cx="488.165" cy="569.935" r="4" fill="#0" id="circle99"/>
	<circle cx="498.924" cy="208.425" r="4" fill="#0" id="circle100"/>
	<circle cx="509.683" cy="576.39" r="4" fill="#0" id="circle101"/>
	<circle cx="516.139" cy="221.336" r="4" fill="#0" id="circle102"/>
	<circle cx="516.139" cy="597.909" r="4" fill="#0" id="circle103"/>
	<circle cx="526.898" cy="240.703" r="4" fill="#0" id="circle104"/>
	<circle cx="526.898" cy="617.275" r="4" fill="#0" id="circle105"/>
	<circle cx="533.354" cy="264.373" r="4" fill="#0" id="circle106"/>
	<circle cx="533.354" cy="296.651" r="4" fill="#0" id="circle107"/>
	<circle cx="541.961" cy="634.49" r="4" fill="#0" id="circle108"/>
	<circle cx="554.872" cy="305.258" r="4" fill="#0" id="circle109"/>
	<circle cx="554.872" cy="651.705" r="4" fill="#0" id="circle110"/>
	<circle cx="572.087" cy="318.169" r="4" fill="#0" id="circle111"/>
	<circle cx="576.39" cy="656.009" r="4" fill="#0" id="circle112"/>
	<circle cx="587.15" cy="335.384" r="4" fill="#0" id="circle113"/>
	<circle cx="587.15" cy="356.902" r="4" fill="#0" id="circle114"/>
	<circle cx="597.909" cy="662.464" r="4" fill="#0" id="circle115"/>
	<circle cx="604.364" cy="371.965" r="4" fill="#0" id="circle116"/>
	<circle cx="608.668" cy="393.484" r="4" fill="#0" id="circle117"/>
	<circle cx="617.275" cy="673.223" r="4" fill="#0" id="circle118"/>
	<circle cx="619.427" cy="412.85" r="4" fill="#0" id="circle119"/>
	<circle cx="619.427" cy="434.369" r="4" fill="#0" id="circle120"/>
	<circle cx="630.187" cy="453.735" r="4" fill="#0" id="circle121"/>
	<circle cx="630.187" cy="475.254" r="4" fill="#0" id="circle122"/>
	<circle cx="630.187" cy="496.772" r="4" fill="#0" id="circle123"/>
	<circle cx="630.187" cy="518.291" r="4" fill="#0" id="circle124"/>
	<circle cx="630.187" cy="539.809" r="4" fill="#0" id="circle125"/>
	<circle cx="630.187" cy="561.328" r="4" fill="#0" id="circle126"/>
	<circle cx="630.187" cy="582.846" r="4" fill="#0" id="circle127"/>
	<circle cx="630.187" cy="690.438" r="4" fill="#0" id="circle128"/>
	<circle cx="640.946" cy="602.213" r="4" fill="#0" id="circle129"/>
	<circle cx="647.401" cy="705.501" r="4" fill="#0" id="circle130"/>
	<circle cx="662.464" cy="606.516" r="4" fill="#0" id="circle131"/>
	<circle cx="666.768" cy="716.26" r="4" fill="#0" id="circle132"/>
	<circle cx="683.983" cy="606.516" r="4" fill="#0" id="circle133"/>
	<circle cx="688.286" cy="716.26" r="4" fill="#0" id="circle134"/>
	<circle cx="703.349" cy="617.275" r="4" fill="#0" id="circle135"/>
	<circle cx="709.805" cy="716.26" r="4" fill="#0" id="circle136"/>
	<circle cx="720.564" cy="630.187" r="4" fill="#0" id="circle137"/>
	<circle cx="731.323" cy="724.868" r="4" fill="#0" id="circle138"/>
	<circle cx="737.779" cy="645.249" r="4" fill="#0" id="circle139"/>
	<circle cx="752.842" cy="727.02" r="4" fill="#0" id="circle140"/>
	<circle cx="759.297" cy="649.553" r="4" fill="#0" id="circle141"/>
	<circle cx="774.36" cy="727.02" r="4" fill="#0" id="circle142"/>
	<circle cx="780.816" cy="649.553" r="4" fill="#0" id="circle143"/>
	<circle cx="795.879" cy="727.02" r="4" fill="#0" id="circle144"/>
	<circle cx="802.334" cy="649.553" r="4" fill="#0" id="circle145"/>
	<circle cx="817.397" cy="727.02" r="4" fill="#0" id="circle146"/>
	<circle cx="823.852" cy="649.553" r="4" fill="#0" id="circle147"/>
	<circle cx="838.915" cy="735.627" r="4" fill="#0" id="circle148"/>
	<circle cx="845.371" cy="649.553" r="4" fill="#0" id="circle149"/>
	<circle cx="860.434" cy="737.779" r="4" fill="#0" id="circle150"/>
	<circle cx="866.889" cy="649.553" r="4" fill="#0" id="circle151"/>
	<circle cx="881.952" cy="746.386" r="4" fill="#0" id="circle152"/>
	<circle cx="888.408" cy="649.553" r="4" fill="#0" id="circle153"/>
	<circle cx="897.015" cy="763.601" r="4" fill="#0" id="circle154"/>
	<circle cx="907.774" cy="785.119" r="4" fill="#0" id="circle155"/>
	<circle cx="909.926" cy="649.553" r="4" fill="#0" id="circle156"/>
	<circle cx="924.989" cy="800.182" r="4" fill="#0" id="circle157"/>
	<circle cx="931.445" cy="649.553" r="4" fill="#0" id="circle158"/>
	<circle cx="944.356" cy="810.941" r="4" fill="#0" id="circle159"/>
	<circle cx="952.963" cy="649.553" r="4" fill="#0" id="circle160"/>
	<circle cx="961.57" cy="795.879" r="4" fill="#0" id="circle161"/>
	<circle cx="972.33" cy="774.36" r="4" fill="#0" id="circle162"/>
	<circle cx="974.482" cy="656.009" r="4" fill="#0" id="circle163"/>
	<circle cx="983.089" cy="752.842" r="4" fill="#0" id="circle164"/>
	<circle cx="985.241" cy="716.26" r="4" fill="#0" id="circle165"/>
	<circle cx="989.544" cy="673.223" r="4" fill="#0" id="circle166"/>
	<circle cx="996" cy="694.742" r="4" fill="#0" id="circle167"/>
	</g>
</svg>