<?xml version="1.0" encoding="UTF-8" standalone="no"?>
<!-- Created with CurveBenchmark -->
<svg
	xmlns:dc="http://purl.org/dc/elements/1.1/"
	xmlns:cc="http://creativecommons.org/ns#"
	xmlns:rdf="http://www.w3.org/1999/02/22-rdf-syntax-ns#"
	xmlns:svg="http://www.w3.org/2000/svg"
	xmlns="http://www.w3.org/2000/svg"
	xmlns:sodipodi="http://sodipodi.sourceforge.net/DTD/sodipodi-0.dtd"
	xmlns:inkscape="http://www.inkscape.org/namespaces/inkscape"
	width="1000"
	height="1000"
	id="svg2"
	version="1.1"
	sodipodi:docname="manifold/ccrust-classic08.png.txt">
<defs
	id="defs4" />
<metadata
	id="metadata7">
	<rdf:RDF>
		<cc:Work
			rdf:about="">
			<dc:format>image/svg+xml</dc:format>
			<dc:type
				rdf:resource="http://purl.org/dc/dcmitype/StillImage" />
			<dc:title></dc:title>
		</cc:Work>
	</rdf:RDF>
</metadata>
<g
	inkscape:label="Layer 1"
	inkscape:groupmode="layer"
	id="layer1">
	<path style="fill:none;stroke:red;stroke-width:1px;stroke-linecap:butt;stroke-linejoin:miter;stroke-opacity:1" d="M 132.355,79.1793 150.691,77.3457 z" id="boundary" inkscape:connector-curvature="0" />
	<path style="fill:none;stroke:red;stroke-width:1px;stroke-linecap:butt;stroke-linejoin:miter;stroke-opacity:1" d="M 150.691,77.3457 161.693,92.0148 z" id="boundary" inkscape:connector-curvature="0" />
	<path style="fill:none;stroke:red;stroke-width:1px;stroke-linecap:butt;stroke-linejoin:miter;stroke-opacity:1" d="M 161.693,92.0148 180.03,92.0148 z" id="boundary" inkscape:connector-curvature="0" />
	<path style="fill:none;stroke:red;stroke-width:1px;stroke-linecap:butt;stroke-linejoin:miter;stroke-opacity:1" d="M 198.366,92.0148 180.03,92.0148 z" id="boundary" inkscape:connector-curvature="0" />
	<path style="fill:none;stroke:red;stroke-width:1px;stroke-linecap:butt;stroke-linejoin:miter;stroke-opacity:1" d="M 119.519,110.351 132.355,79.1793 z" id="boundary" inkscape:connector-curvature="0" />
	<path style="fill:none;stroke:red;stroke-width:1px;stroke-linecap:butt;stroke-linejoin:miter;stroke-opacity:1" d="M 216.702,92.0148 198.366,92.0148 z" id="boundary" inkscape:connector-curvature="0" />
	<path style="fill:none;stroke:red;stroke-width:1px;stroke-linecap:butt;stroke-linejoin:miter;stroke-opacity:1" d="M 216.702,92.0148 235.039,92.0148 z" id="boundary" inkscape:connector-curvature="0" />
	<path style="fill:none;stroke:red;stroke-width:1px;stroke-linecap:butt;stroke-linejoin:miter;stroke-opacity:1" d="M 253.375,92.0148 235.039,92.0148 z" id="boundary" inkscape:connector-curvature="0" />
	<path style="fill:none;stroke:red;stroke-width:1px;stroke-linecap:butt;stroke-linejoin:miter;stroke-opacity:1" d="M 31.5046,189.198 46.1738,174.529 z" id="boundary" inkscape:connector-curvature="0" />
	<path style="fill:none;stroke:red;stroke-width:1px;stroke-linecap:butt;stroke-linejoin:miter;stroke-opacity:1" d="M 60.8429,159.86 46.1738,174.529 z" id="boundary" inkscape:connector-curvature="0" />
	<path style="fill:none;stroke:red;stroke-width:1px;stroke-linecap:butt;stroke-linejoin:miter;stroke-opacity:1" d="M 40.6728,213.035 22.3364,207.534 z" id="boundary" inkscape:connector-curvature="0" />
	<path style="fill:none;stroke:red;stroke-width:1px;stroke-linecap:butt;stroke-linejoin:miter;stroke-opacity:1" d="M 22.3364,207.534 31.5046,189.198 z" id="boundary" inkscape:connector-curvature="0" />
	<path style="fill:none;stroke:red;stroke-width:1px;stroke-linecap:butt;stroke-linejoin:miter;stroke-opacity:1" d="M 119.519,110.351 110.351,128.688 z" id="boundary" inkscape:connector-curvature="0" />
	<path style="fill:none;stroke:red;stroke-width:1px;stroke-linecap:butt;stroke-linejoin:miter;stroke-opacity:1" d="M 110.351,128.688 92.0148,128.688 z" id="boundary" inkscape:connector-curvature="0" />
	<path style="fill:none;stroke:red;stroke-width:1px;stroke-linecap:butt;stroke-linejoin:miter;stroke-opacity:1" d="M 60.8429,159.86 77.3457,143.357 z" id="boundary" inkscape:connector-curvature="0" />
	<path style="fill:none;stroke:red;stroke-width:1px;stroke-linecap:butt;stroke-linejoin:miter;stroke-opacity:1" d="M 77.3457,143.357 92.0148,128.688 z" id="boundary" inkscape:connector-curvature="0" />
	<path style="fill:none;stroke:red;stroke-width:1px;stroke-linecap:butt;stroke-linejoin:miter;stroke-opacity:1" d="M 416.569,24.1701 403.734,38.8392 z" id="boundary" inkscape:connector-curvature="0" />
	<path style="fill:none;stroke:red;stroke-width:1px;stroke-linecap:butt;stroke-linejoin:miter;stroke-opacity:1" d="M 403.734,38.8392 389.065,27.8373 z" id="boundary" inkscape:connector-curvature="0" />
	<path style="fill:none;stroke:red;stroke-width:1px;stroke-linecap:butt;stroke-linejoin:miter;stroke-opacity:1" d="M 434.906,18.6691 416.569,24.1701 z" id="boundary" inkscape:connector-curvature="0" />
	<path style="fill:none;stroke:red;stroke-width:1px;stroke-linecap:butt;stroke-linejoin:miter;stroke-opacity:1" d="M 370.728,33.3383 389.065,27.8373 z" id="boundary" inkscape:connector-curvature="0" />
	<path style="fill:none;stroke:red;stroke-width:1px;stroke-linecap:butt;stroke-linejoin:miter;stroke-opacity:1" d="M 416.569,53.5083 403.734,38.8392 z" id="boundary" inkscape:connector-curvature="0" />
	<path style="fill:none;stroke:red;stroke-width:1px;stroke-linecap:butt;stroke-linejoin:miter;stroke-opacity:1" d="M 471.579,15.0018 453.242,18.6691 z" id="boundary" inkscape:connector-curvature="0" />
	<path style="fill:none;stroke:red;stroke-width:1px;stroke-linecap:butt;stroke-linejoin:miter;stroke-opacity:1" d="M 453.242,18.6691 434.906,18.6691 z" id="boundary" inkscape:connector-curvature="0" />
	<path style="fill:none;stroke:red;stroke-width:1px;stroke-linecap:butt;stroke-linejoin:miter;stroke-opacity:1" d="M 411.068,75.512 416.569,53.5083 z" id="boundary" inkscape:connector-curvature="0" />
	<path style="fill:none;stroke:red;stroke-width:1px;stroke-linecap:butt;stroke-linejoin:miter;stroke-opacity:1" d="M 253.375,92.0148 271.712,92.0148 z" id="boundary" inkscape:connector-curvature="0" />
	<path style="fill:none;stroke:red;stroke-width:1px;stroke-linecap:butt;stroke-linejoin:miter;stroke-opacity:1" d="M 290.048,92.0148 271.712,92.0148 z" id="boundary" inkscape:connector-curvature="0" />
	<path style="fill:none;stroke:red;stroke-width:1px;stroke-linecap:butt;stroke-linejoin:miter;stroke-opacity:1" d="M 290.048,92.0148 308.384,92.0148 z" id="boundary" inkscape:connector-curvature="0" />
	<path style="fill:none;stroke:red;stroke-width:1px;stroke-linecap:butt;stroke-linejoin:miter;stroke-opacity:1" d="M 326.721,92.0148 308.384,92.0148 z" id="boundary" inkscape:connector-curvature="0" />
	<path style="fill:none;stroke:red;stroke-width:1px;stroke-linecap:butt;stroke-linejoin:miter;stroke-opacity:1" d="M 363.394,92.0148 345.057,92.0148 z" id="boundary" inkscape:connector-curvature="0" />
	<path style="fill:none;stroke:red;stroke-width:1px;stroke-linecap:butt;stroke-linejoin:miter;stroke-opacity:1" d="M 345.057,92.0148 326.721,92.0148 z" id="boundary" inkscape:connector-curvature="0" />
	<path style="fill:none;stroke:red;stroke-width:1px;stroke-linecap:butt;stroke-linejoin:miter;stroke-opacity:1" d="M 381.73,92.0148 363.394,92.0148 z" id="boundary" inkscape:connector-curvature="0" />
	<path style="fill:none;stroke:red;stroke-width:1px;stroke-linecap:butt;stroke-linejoin:miter;stroke-opacity:1" d="M 400.067,92.0148 381.73,92.0148 z" id="boundary" inkscape:connector-curvature="0" />
	<path style="fill:none;stroke:red;stroke-width:1px;stroke-linecap:butt;stroke-linejoin:miter;stroke-opacity:1" d="M 411.068,75.512 400.067,92.0148 z" id="boundary" inkscape:connector-curvature="0" />
	<path style="fill:none;stroke:red;stroke-width:1px;stroke-linecap:butt;stroke-linejoin:miter;stroke-opacity:1" d="M 506.418,304.717 488.081,304.717 z" id="boundary" inkscape:connector-curvature="0" />
	<path style="fill:none;stroke:red;stroke-width:1px;stroke-linecap:butt;stroke-linejoin:miter;stroke-opacity:1" d="M 13.1682,225.871 31.5046,229.538 z" id="boundary" inkscape:connector-curvature="0" />
	<path style="fill:none;stroke:red;stroke-width:1px;stroke-linecap:butt;stroke-linejoin:miter;stroke-opacity:1" d="M 4,253.375 13.1682,225.871 z" id="boundary" inkscape:connector-curvature="0" />
	<path style="fill:none;stroke:red;stroke-width:1px;stroke-linecap:butt;stroke-linejoin:miter;stroke-opacity:1" d="M 13.1682,225.871 22.3364,207.534 z" id="boundary" inkscape:connector-curvature="0" />
	<path style="fill:none;stroke:red;stroke-width:1px;stroke-linecap:butt;stroke-linejoin:miter;stroke-opacity:1" d="M 4,253.375 18.6691,266.211 z" id="boundary" inkscape:connector-curvature="0" />
	<path style="fill:none;stroke:red;stroke-width:1px;stroke-linecap:butt;stroke-linejoin:miter;stroke-opacity:1" d="M 37.0055,266.211 18.6691,266.211 z" id="boundary" inkscape:connector-curvature="0" />
	<path style="fill:none;stroke:red;stroke-width:1px;stroke-linecap:butt;stroke-linejoin:miter;stroke-opacity:1" d="M 44.3401,284.547 37.0055,266.211 z" id="boundary" inkscape:connector-curvature="0" />
	<path style="fill:none;stroke:red;stroke-width:1px;stroke-linecap:butt;stroke-linejoin:miter;stroke-opacity:1" d="M 31.5046,229.538 40.6728,213.035 z" id="boundary" inkscape:connector-curvature="0" />
	<path style="fill:none;stroke:red;stroke-width:1px;stroke-linecap:butt;stroke-linejoin:miter;stroke-opacity:1" d="M 44.3401,284.547 53.5083,301.05 z" id="boundary" inkscape:connector-curvature="0" />
	<path style="fill:none;stroke:red;stroke-width:1px;stroke-linecap:butt;stroke-linejoin:miter;stroke-opacity:1" d="M 68.1774,313.885 53.5083,301.05 z" id="boundary" inkscape:connector-curvature="0" />
	<path style="fill:none;stroke:red;stroke-width:1px;stroke-linecap:butt;stroke-linejoin:miter;stroke-opacity:1" d="M 84.6802,323.054 68.1774,313.885 z" id="boundary" inkscape:connector-curvature="0" />
	<path style="fill:none;stroke:red;stroke-width:1px;stroke-linecap:butt;stroke-linejoin:miter;stroke-opacity:1" d="M 101.183,332.222 119.519,332.222 z" id="boundary" inkscape:connector-curvature="0" />
	<path style="fill:none;stroke:red;stroke-width:1px;stroke-linecap:butt;stroke-linejoin:miter;stroke-opacity:1" d="M 119.519,332.222 136.022,341.39 z" id="boundary" inkscape:connector-curvature="0" />
	<path style="fill:none;stroke:red;stroke-width:1px;stroke-linecap:butt;stroke-linejoin:miter;stroke-opacity:1" d="M 101.183,332.222 84.6802,323.054 z" id="boundary" inkscape:connector-curvature="0" />
	<path style="fill:none;stroke:red;stroke-width:1px;stroke-linecap:butt;stroke-linejoin:miter;stroke-opacity:1" d="M 136.022,341.39 152.525,350.558 z" id="boundary" inkscape:connector-curvature="0" />
	<path style="fill:none;stroke:red;stroke-width:1px;stroke-linecap:butt;stroke-linejoin:miter;stroke-opacity:1" d="M 170.861,350.558 152.525,350.558 z" id="boundary" inkscape:connector-curvature="0" />
	<path style="fill:none;stroke:red;stroke-width:1px;stroke-linecap:butt;stroke-linejoin:miter;stroke-opacity:1" d="M 170.861,350.558 189.198,350.558 z" id="boundary" inkscape:connector-curvature="0" />
	<path style="fill:none;stroke:red;stroke-width:1px;stroke-linecap:butt;stroke-linejoin:miter;stroke-opacity:1" d="M 205.701,341.39 189.198,350.558 z" id="boundary" inkscape:connector-curvature="0" />
	<path style="fill:none;stroke:red;stroke-width:1px;stroke-linecap:butt;stroke-linejoin:miter;stroke-opacity:1" d="M 269.878,295.549 288.214,295.549 z" id="boundary" inkscape:connector-curvature="0" />
	<path style="fill:none;stroke:red;stroke-width:1px;stroke-linecap:butt;stroke-linejoin:miter;stroke-opacity:1" d="M 253.375,304.717 269.878,295.549 z" id="boundary" inkscape:connector-curvature="0" />
	<path style="fill:none;stroke:red;stroke-width:1px;stroke-linecap:butt;stroke-linejoin:miter;stroke-opacity:1" d="M 306.551,295.549 324.887,295.549 z" id="boundary" inkscape:connector-curvature="0" />
	<path style="fill:none;stroke:red;stroke-width:1px;stroke-linecap:butt;stroke-linejoin:miter;stroke-opacity:1" d="M 306.551,295.549 288.214,295.549 z" id="boundary" inkscape:connector-curvature="0" />
	<path style="fill:none;stroke:red;stroke-width:1px;stroke-linecap:butt;stroke-linejoin:miter;stroke-opacity:1" d="M 343.224,295.549 361.56,295.549 z" id="boundary" inkscape:connector-curvature="0" />
	<path style="fill:none;stroke:red;stroke-width:1px;stroke-linecap:butt;stroke-linejoin:miter;stroke-opacity:1" d="M 343.224,295.549 324.887,295.549 z" id="boundary" inkscape:connector-curvature="0" />
	<path style="fill:none;stroke:red;stroke-width:1px;stroke-linecap:butt;stroke-linejoin:miter;stroke-opacity:1" d="M 379.896,295.549 398.233,295.549 z" id="boundary" inkscape:connector-curvature="0" />
	<path style="fill:none;stroke:red;stroke-width:1px;stroke-linecap:butt;stroke-linejoin:miter;stroke-opacity:1" d="M 379.896,295.549 361.56,295.549 z" id="boundary" inkscape:connector-curvature="0" />
	<path style="fill:none;stroke:red;stroke-width:1px;stroke-linecap:butt;stroke-linejoin:miter;stroke-opacity:1" d="M 238.706,321.22 253.375,304.717 z" id="boundary" inkscape:connector-curvature="0" />
	<path style="fill:none;stroke:red;stroke-width:1px;stroke-linecap:butt;stroke-linejoin:miter;stroke-opacity:1" d="M 224.037,335.889 205.701,341.39 z" id="boundary" inkscape:connector-curvature="0" />
	<path style="fill:none;stroke:red;stroke-width:1px;stroke-linecap:butt;stroke-linejoin:miter;stroke-opacity:1" d="M 238.706,321.22 224.037,335.889 z" id="boundary" inkscape:connector-curvature="0" />
	<path style="fill:none;stroke:red;stroke-width:1px;stroke-linecap:butt;stroke-linejoin:miter;stroke-opacity:1" d="M 451.409,301.05 433.072,304.717 z" id="boundary" inkscape:connector-curvature="0" />
	<path style="fill:none;stroke:red;stroke-width:1px;stroke-linecap:butt;stroke-linejoin:miter;stroke-opacity:1" d="M 433.072,304.717 416.569,295.549 z" id="boundary" inkscape:connector-curvature="0" />
	<path style="fill:none;stroke:red;stroke-width:1px;stroke-linecap:butt;stroke-linejoin:miter;stroke-opacity:1" d="M 451.409,301.05 469.745,304.717 z" id="boundary" inkscape:connector-curvature="0" />
	<path style="fill:none;stroke:red;stroke-width:1px;stroke-linecap:butt;stroke-linejoin:miter;stroke-opacity:1" d="M 488.081,304.717 469.745,304.717 z" id="boundary" inkscape:connector-curvature="0" />
	<path style="fill:none;stroke:red;stroke-width:1px;stroke-linecap:butt;stroke-linejoin:miter;stroke-opacity:1" d="M 416.569,295.549 398.233,295.549 z" id="boundary" inkscape:connector-curvature="0" />
	<path style="fill:none;stroke:red;stroke-width:1px;stroke-linecap:butt;stroke-linejoin:miter;stroke-opacity:1" d="M 471.579,15.0018 489.915,15.0018 z" id="boundary" inkscape:connector-curvature="0" />
	<path style="fill:none;stroke:red;stroke-width:1px;stroke-linecap:butt;stroke-linejoin:miter;stroke-opacity:1" d="M 544.924,5.83364 563.261,5.83364 z" id="boundary" inkscape:connector-curvature="0" />
	<path style="fill:none;stroke:red;stroke-width:1px;stroke-linecap:butt;stroke-linejoin:miter;stroke-opacity:1" d="M 526.588,9.50092 544.924,5.83364 z" id="boundary" inkscape:connector-curvature="0" />
	<path style="fill:none;stroke:red;stroke-width:1px;stroke-linecap:butt;stroke-linejoin:miter;stroke-opacity:1" d="M 563.261,5.83364 581.597,5.83364 z" id="boundary" inkscape:connector-curvature="0" />
	<path style="fill:none;stroke:red;stroke-width:1px;stroke-linecap:butt;stroke-linejoin:miter;stroke-opacity:1" d="M 599.933,5.83364 581.597,5.83364 z" id="boundary" inkscape:connector-curvature="0" />
	<path style="fill:none;stroke:red;stroke-width:1px;stroke-linecap:butt;stroke-linejoin:miter;stroke-opacity:1" d="M 599.933,5.83364 618.27,5.83364 z" id="boundary" inkscape:connector-curvature="0" />
	<path style="fill:none;stroke:red;stroke-width:1px;stroke-linecap:butt;stroke-linejoin:miter;stroke-opacity:1" d="M 636.606,5.83364 618.27,5.83364 z" id="boundary" inkscape:connector-curvature="0" />
	<path style="fill:none;stroke:red;stroke-width:1px;stroke-linecap:butt;stroke-linejoin:miter;stroke-opacity:1" d="M 636.606,5.83364 654.943,5.83364 z" id="boundary" inkscape:connector-curvature="0" />
	<path style="fill:none;stroke:red;stroke-width:1px;stroke-linecap:butt;stroke-linejoin:miter;stroke-opacity:1" d="M 673.279,5.83364 654.943,5.83364 z" id="boundary" inkscape:connector-curvature="0" />
	<path style="fill:none;stroke:red;stroke-width:1px;stroke-linecap:butt;stroke-linejoin:miter;stroke-opacity:1" d="M 526.588,9.50092 508.251,9.50092 z" id="boundary" inkscape:connector-curvature="0" />
	<path style="fill:none;stroke:red;stroke-width:1px;stroke-linecap:butt;stroke-linejoin:miter;stroke-opacity:1" d="M 489.915,15.0018 508.251,9.50092 z" id="boundary" inkscape:connector-curvature="0" />
	<path style="fill:none;stroke:red;stroke-width:1px;stroke-linecap:butt;stroke-linejoin:miter;stroke-opacity:1" d="M 673.279,5.83364 691.616,5.83364 z" id="boundary" inkscape:connector-curvature="0" />
	<path style="fill:none;stroke:red;stroke-width:1px;stroke-linecap:butt;stroke-linejoin:miter;stroke-opacity:1" d="M 691.616,5.83364 709.952,5.83364 z" id="boundary" inkscape:connector-curvature="0" />
	<path style="fill:none;stroke:red;stroke-width:1px;stroke-linecap:butt;stroke-linejoin:miter;stroke-opacity:1" d="M 728.288,5.83364 709.952,5.83364 z" id="boundary" inkscape:connector-curvature="0" />
	<path style="fill:none;stroke:red;stroke-width:1px;stroke-linecap:butt;stroke-linejoin:miter;stroke-opacity:1" d="M 728.288,5.83364 746.625,5.83364 z" id="boundary" inkscape:connector-curvature="0" />
	<path style="fill:none;stroke:red;stroke-width:1px;stroke-linecap:butt;stroke-linejoin:miter;stroke-opacity:1" d="M 764.961,5.83364 746.625,5.83364 z" id="boundary" inkscape:connector-curvature="0" />
	<path style="fill:none;stroke:red;stroke-width:1px;stroke-linecap:butt;stroke-linejoin:miter;stroke-opacity:1" d="M 801.634,9.50092 783.298,5.83364 z" id="boundary" inkscape:connector-curvature="0" />
	<path style="fill:none;stroke:red;stroke-width:1px;stroke-linecap:butt;stroke-linejoin:miter;stroke-opacity:1" d="M 783.298,5.83364 764.961,5.83364 z" id="boundary" inkscape:connector-curvature="0" />
	<path style="fill:none;stroke:red;stroke-width:1px;stroke-linecap:butt;stroke-linejoin:miter;stroke-opacity:1" d="M 801.634,9.50092 819.97,9.50092 z" id="boundary" inkscape:connector-curvature="0" />
	<path style="fill:none;stroke:red;stroke-width:1px;stroke-linecap:butt;stroke-linejoin:miter;stroke-opacity:1" d="M 838.307,4 819.97,9.50092 z" id="boundary" inkscape:connector-curvature="0" />
	<path style="fill:none;stroke:red;stroke-width:1px;stroke-linecap:butt;stroke-linejoin:miter;stroke-opacity:1" d="M 838.307,4 856.643,9.50092 z" id="boundary" inkscape:connector-curvature="0" />
	<path style="fill:none;stroke:red;stroke-width:1px;stroke-linecap:butt;stroke-linejoin:miter;stroke-opacity:1" d="M 856.643,9.50092 874.98,9.50092 z" id="boundary" inkscape:connector-curvature="0" />
	<path style="fill:none;stroke:red;stroke-width:1px;stroke-linecap:butt;stroke-linejoin:miter;stroke-opacity:1" d="M 874.98,9.50092 891.482,18.6691 z" id="boundary" inkscape:connector-curvature="0" />
	<path style="fill:none;stroke:red;stroke-width:1px;stroke-linecap:butt;stroke-linejoin:miter;stroke-opacity:1" d="M 891.482,18.6691 909.819,18.6691 z" id="boundary" inkscape:connector-curvature="0" />
	<path style="fill:none;stroke:red;stroke-width:1px;stroke-linecap:butt;stroke-linejoin:miter;stroke-opacity:1" d="M 931.823,46.1738 931.823,64.5102 z" id="boundary" inkscape:connector-curvature="0" />
	<path style="fill:none;stroke:red;stroke-width:1px;stroke-linecap:butt;stroke-linejoin:miter;stroke-opacity:1" d="M 931.823,64.5102 931.823,82.8466 z" id="boundary" inkscape:connector-curvature="0" />
	<path style="fill:none;stroke:red;stroke-width:1px;stroke-linecap:butt;stroke-linejoin:miter;stroke-opacity:1" d="M 983.165,159.86 966.662,150.691 z" id="boundary" inkscape:connector-curvature="0" />
	<path style="fill:none;stroke:red;stroke-width:1px;stroke-linecap:butt;stroke-linejoin:miter;stroke-opacity:1" d="M 931.823,82.8466 931.823,101.183 z" id="boundary" inkscape:connector-curvature="0" />
	<path style="fill:none;stroke:red;stroke-width:1px;stroke-linecap:butt;stroke-linejoin:miter;stroke-opacity:1" d="M 931.823,101.183 931.823,119.519 z" id="boundary" inkscape:connector-curvature="0" />
	<path style="fill:none;stroke:red;stroke-width:1px;stroke-linecap:butt;stroke-linejoin:miter;stroke-opacity:1" d="M 948.325,147.024 931.823,137.856 z" id="boundary" inkscape:connector-curvature="0" />
	<path style="fill:none;stroke:red;stroke-width:1px;stroke-linecap:butt;stroke-linejoin:miter;stroke-opacity:1" d="M 931.823,137.856 931.823,119.519 z" id="boundary" inkscape:connector-curvature="0" />
	<path style="fill:none;stroke:red;stroke-width:1px;stroke-linecap:butt;stroke-linejoin:miter;stroke-opacity:1" d="M 966.662,150.691 948.325,147.024 z" id="boundary" inkscape:connector-curvature="0" />
	<path style="fill:none;stroke:red;stroke-width:1px;stroke-linecap:butt;stroke-linejoin:miter;stroke-opacity:1" d="M 931.823,46.1738 926.322,27.8373 z" id="boundary" inkscape:connector-curvature="0" />
	<path style="fill:none;stroke:red;stroke-width:1px;stroke-linecap:butt;stroke-linejoin:miter;stroke-opacity:1" d="M 909.819,18.6691 926.322,27.8373 z" id="boundary" inkscape:connector-curvature="0" />
	<path style="fill:none;stroke:red;stroke-width:1px;stroke-linecap:butt;stroke-linejoin:miter;stroke-opacity:1" d="M 506.418,304.717 524.754,304.717 z" id="boundary" inkscape:connector-curvature="0" />
	<path style="fill:none;stroke:red;stroke-width:1px;stroke-linecap:butt;stroke-linejoin:miter;stroke-opacity:1" d="M 543.091,304.717 561.427,304.717 z" id="boundary" inkscape:connector-curvature="0" />
	<path style="fill:none;stroke:red;stroke-width:1px;stroke-linecap:butt;stroke-linejoin:miter;stroke-opacity:1" d="M 543.091,304.717 524.754,304.717 z" id="boundary" inkscape:connector-curvature="0" />
	<path style="fill:none;stroke:red;stroke-width:1px;stroke-linecap:butt;stroke-linejoin:miter;stroke-opacity:1" d="M 579.763,304.717 598.1,304.717 z" id="boundary" inkscape:connector-curvature="0" />
	<path style="fill:none;stroke:red;stroke-width:1px;stroke-linecap:butt;stroke-linejoin:miter;stroke-opacity:1" d="M 616.436,304.717 634.773,304.717 z" id="boundary" inkscape:connector-curvature="0" />
	<path style="fill:none;stroke:red;stroke-width:1px;stroke-linecap:butt;stroke-linejoin:miter;stroke-opacity:1" d="M 616.436,304.717 598.1,304.717 z" id="boundary" inkscape:connector-curvature="0" />
	<path style="fill:none;stroke:red;stroke-width:1px;stroke-linecap:butt;stroke-linejoin:miter;stroke-opacity:1" d="M 579.763,304.717 561.427,304.717 z" id="boundary" inkscape:connector-curvature="0" />
	<path style="fill:none;stroke:red;stroke-width:1px;stroke-linecap:butt;stroke-linejoin:miter;stroke-opacity:1" d="M 653.109,304.717 671.445,304.717 z" id="boundary" inkscape:connector-curvature="0" />
	<path style="fill:none;stroke:red;stroke-width:1px;stroke-linecap:butt;stroke-linejoin:miter;stroke-opacity:1" d="M 689.782,304.717 706.285,313.885 z" id="boundary" inkscape:connector-curvature="0" />
	<path style="fill:none;stroke:red;stroke-width:1px;stroke-linecap:butt;stroke-linejoin:miter;stroke-opacity:1" d="M 671.445,304.717 689.782,304.717 z" id="boundary" inkscape:connector-curvature="0" />
	<path style="fill:none;stroke:red;stroke-width:1px;stroke-linecap:butt;stroke-linejoin:miter;stroke-opacity:1" d="M 706.285,313.885 720.954,326.721 z" id="boundary" inkscape:connector-curvature="0" />
	<path style="fill:none;stroke:red;stroke-width:1px;stroke-linecap:butt;stroke-linejoin:miter;stroke-opacity:1" d="M 720.954,326.721 739.29,332.222 z" id="boundary" inkscape:connector-curvature="0" />
	<path style="fill:none;stroke:red;stroke-width:1px;stroke-linecap:butt;stroke-linejoin:miter;stroke-opacity:1" d="M 757.627,335.889 775.963,335.889 z" id="boundary" inkscape:connector-curvature="0" />
	<path style="fill:none;stroke:red;stroke-width:1px;stroke-linecap:butt;stroke-linejoin:miter;stroke-opacity:1" d="M 775.963,335.889 792.466,345.057 z" id="boundary" inkscape:connector-curvature="0" />
	<path style="fill:none;stroke:red;stroke-width:1px;stroke-linecap:butt;stroke-linejoin:miter;stroke-opacity:1" d="M 757.627,335.889 739.29,332.222 z" id="boundary" inkscape:connector-curvature="0" />
	<path style="fill:none;stroke:red;stroke-width:1px;stroke-linecap:butt;stroke-linejoin:miter;stroke-opacity:1" d="M 810.802,350.558 792.466,345.057 z" id="boundary" inkscape:connector-curvature="0" />
	<path style="fill:none;stroke:red;stroke-width:1px;stroke-linecap:butt;stroke-linejoin:miter;stroke-opacity:1" d="M 634.773,304.717 653.109,304.717 z" id="boundary" inkscape:connector-curvature="0" />
	<path style="fill:none;stroke:red;stroke-width:1px;stroke-linecap:butt;stroke-linejoin:miter;stroke-opacity:1" d="M 996,203.867 996,231.372 z" id="boundary" inkscape:connector-curvature="0" />
	<path style="fill:none;stroke:red;stroke-width:1px;stroke-linecap:butt;stroke-linejoin:miter;stroke-opacity:1" d="M 992.333,176.362 983.165,159.86 z" id="boundary" inkscape:connector-curvature="0" />
	<path style="fill:none;stroke:red;stroke-width:1px;stroke-linecap:butt;stroke-linejoin:miter;stroke-opacity:1" d="M 962.994,295.549 979.497,286.381 z" id="boundary" inkscape:connector-curvature="0" />
	<path style="fill:none;stroke:red;stroke-width:1px;stroke-linecap:butt;stroke-linejoin:miter;stroke-opacity:1" d="M 992.333,176.362 996,203.867 z" id="boundary" inkscape:connector-curvature="0" />
	<path style="fill:none;stroke:red;stroke-width:1px;stroke-linecap:butt;stroke-linejoin:miter;stroke-opacity:1" d="M 996,231.372 996,249.708 z" id="boundary" inkscape:connector-curvature="0" />
	<path style="fill:none;stroke:red;stroke-width:1px;stroke-linecap:butt;stroke-linejoin:miter;stroke-opacity:1" d="M 994.166,271.712 979.497,286.381 z" id="boundary" inkscape:connector-curvature="0" />
	<path style="fill:none;stroke:red;stroke-width:1px;stroke-linecap:butt;stroke-linejoin:miter;stroke-opacity:1" d="M 996,249.708 994.166,271.712 z" id="boundary" inkscape:connector-curvature="0" />
	<path style="fill:none;stroke:red;stroke-width:1px;stroke-linecap:butt;stroke-linejoin:miter;stroke-opacity:1" d="M 810.802,350.558 829.139,354.226 z" id="boundary" inkscape:connector-curvature="0" />
	<path style="fill:none;stroke:red;stroke-width:1px;stroke-linecap:butt;stroke-linejoin:miter;stroke-opacity:1" d="M 847.475,354.226 829.139,354.226 z" id="boundary" inkscape:connector-curvature="0" />
	<path style="fill:none;stroke:red;stroke-width:1px;stroke-linecap:butt;stroke-linejoin:miter;stroke-opacity:1" d="M 880.481,341.39 865.811,354.226 z" id="boundary" inkscape:connector-curvature="0" />
	<path style="fill:none;stroke:red;stroke-width:1px;stroke-linecap:butt;stroke-linejoin:miter;stroke-opacity:1" d="M 865.811,354.226 847.475,354.226 z" id="boundary" inkscape:connector-curvature="0" />
	<path style="fill:none;stroke:red;stroke-width:1px;stroke-linecap:butt;stroke-linejoin:miter;stroke-opacity:1" d="M 928.155,304.717 946.492,304.717 z" id="boundary" inkscape:connector-curvature="0" />
	<path style="fill:none;stroke:red;stroke-width:1px;stroke-linecap:butt;stroke-linejoin:miter;stroke-opacity:1" d="M 962.994,295.549 946.492,304.717 z" id="boundary" inkscape:connector-curvature="0" />
	<path style="fill:none;stroke:red;stroke-width:1px;stroke-linecap:butt;stroke-linejoin:miter;stroke-opacity:1" d="M 895.15,323.054 909.819,310.218 z" id="boundary" inkscape:connector-curvature="0" />
	<path style="fill:none;stroke:red;stroke-width:1px;stroke-linecap:butt;stroke-linejoin:miter;stroke-opacity:1" d="M 909.819,310.218 928.155,304.717 z" id="boundary" inkscape:connector-curvature="0" />
	<path style="fill:none;stroke:red;stroke-width:1px;stroke-linecap:butt;stroke-linejoin:miter;stroke-opacity:1" d="M 895.15,323.054 880.481,341.39 z" id="boundary" inkscape:connector-curvature="0" />
	<circle cx="4" cy="253.375" r="4" fill="#0" id="circle0"/>
	<circle cx="13.1682" cy="225.871" r="4" fill="#0" id="circle1"/>
	<circle cx="18.6691" cy="266.211" r="4" fill="#0" id="circle2"/>
	<circle cx="22.3364" cy="207.534" r="4" fill="#0" id="circle3"/>
	<circle cx="31.5046" cy="189.198" r="4" fill="#0" id="circle4"/>
	<circle cx="31.5046" cy="229.538" r="4" fill="#0" id="circle5"/>
	<circle cx="37.0055" cy="266.211" r="4" fill="#0" id="circle6"/>
	<circle cx="40.6728" cy="213.035" r="4" fill="#0" id="circle7"/>
	<circle cx="44.3401" cy="284.547" r="4" fill="#0" id="circle8"/>
	<circle cx="46.1738" cy="174.529" r="4" fill="#0" id="circle9"/>
	<circle cx="53.5083" cy="301.05" r="4" fill="#0" id="circle10"/>
	<circle cx="60.8429" cy="159.86" r="4" fill="#0" id="circle11"/>
	<circle cx="68.1774" cy="313.885" r="4" fill="#0" id="circle12"/>
	<circle cx="77.3457" cy="143.357" r="4" fill="#0" id="circle13"/>
	<circle cx="84.6802" cy="323.054" r="4" fill="#0" id="circle14"/>
	<circle cx="92.0148" cy="128.688" r="4" fill="#0" id="circle15"/>
	<circle cx="101.183" cy="332.222" r="4" fill="#0" id="circle16"/>
	<circle cx="110.351" cy="128.688" r="4" fill="#0" id="circle17"/>
	<circle cx="119.519" cy="110.351" r="4" fill="#0" id="circle18"/>
	<circle cx="119.519" cy="332.222" r="4" fill="#0" id="circle19"/>
	<circle cx="132.355" cy="79.1793" r="4" fill="#0" id="circle20"/>
	<circle cx="136.022" cy="341.39" r="4" fill="#0" id="circle21"/>
	<circle cx="150.691" cy="77.3457" r="4" fill="#0" id="circle22"/>
	<circle cx="152.525" cy="350.558" r="4" fill="#0" id="circle23"/>
	<circle cx="161.693" cy="92.0148" r="4" fill="#0" id="circle24"/>
	<circle cx="170.861" cy="350.558" r="4" fill="#0" id="circle25"/>
	<circle cx="180.03" cy="92.0148" r="4" fill="#0" id="circle26"/>
	<circle cx="189.198" cy="350.558" r="4" fill="#0" id="circle27"/>
	<circle cx="198.366" cy="92.0148" r="4" fill="#0" id="circle28"/>
	<circle cx="205.701" cy="341.39" r="4" fill="#0" id="circle29"/>
	<circle cx="216.702" cy="92.0148" r="4" fill="#0" id="circle30"/>
	<circle cx="224.037" cy="335.889" r="4" fill="#0" id="circle31"/>
	<circle cx="235.039" cy="92.0148" r="4" fill="#0" id="circle32"/>
	<circle cx="238.706" cy="321.22" r="4" fill="#0" id="circle33"/>
	<circle cx="253.375" cy="92.0148" r="4" fill="#0" id="circle34"/>
	<circle cx="253.375" cy="304.717" r="4" fill="#0" id="circle35"/>
	<circle cx="269.878" cy="295.549" r="4" fill="#0" id="circle36"/>
	<circle cx="271.712" cy="92.0148" r="4" fill="#0" id="circle37"/>
	<circle cx="288.214" cy="295.549" r="4" fill="#0" id="circle38"/>
	<circle cx="290.048" cy="92.0148" r="4" fill="#0" id="circle39"/>
	<circle cx="306.551" cy="295.549" r="4" fill="#0" id="circle40"/>
	<circle cx="308.384" cy="92.0148" r="4" fill="#0" id="circle41"/>
	<circle cx="324.887" cy="295.549" r="4" fill="#0" id="circle42"/>
	<circle cx="326.721" cy="92.0148" r="4" fill="#0" id="circle43"/>
	<circle cx="343.224" cy="295.549" r="4" fill="#0" id="circle44"/>
	<circle cx="345.057" cy="92.0148" r="4" fill="#0" id="circle45"/>
	<circle cx="361.56" cy="295.549" r="4" fill="#0" id="circle46"/>
	<circle cx="363.394" cy="92.0148" r="4" fill="#0" id="circle47"/>
	<circle cx="370.728" cy="33.3383" r="4" fill="#0" id="circle48"/>
	<circle cx="379.896" cy="295.549" r="4" fill="#0" id="circle49"/>
	<circle cx="381.73" cy="92.0148" r="4" fill="#0" id="circle50"/>
	<circle cx="389.065" cy="27.8373" r="4" fill="#0" id="circle51"/>
	<circle cx="398.233" cy="295.549" r="4" fill="#0" id="circle52"/>
	<circle cx="400.067" cy="92.0148" r="4" fill="#0" id="circle53"/>
	<circle cx="403.734" cy="38.8392" r="4" fill="#0" id="circle54"/>
	<circle cx="411.068" cy="75.512" r="4" fill="#0" id="circle55"/>
	<circle cx="416.569" cy="24.1701" r="4" fill="#0" id="circle56"/>
	<circle cx="416.569" cy="53.5083" r="4" fill="#0" id="circle57"/>
	<circle cx="416.569" cy="295.549" r="4" fill="#0" id="circle58"/>
	<circle cx="433.072" cy="304.717" r="4" fill="#0" id="circle59"/>
	<circle cx="434.906" cy="18.6691" r="4" fill="#0" id="circle60"/>
	<circle cx="451.409" cy="301.05" r="4" fill="#0" id="circle61"/>
	<circle cx="453.242" cy="18.6691" r="4" fill="#0" id="circle62"/>
	<circle cx="469.745" cy="304.717" r="4" fill="#0" id="circle63"/>
	<circle cx="471.579" cy="15.0018" r="4" fill="#0" id="circle64"/>
	<circle cx="488.081" cy="304.717" r="4" fill="#0" id="circle65"/>
	<circle cx="489.915" cy="15.0018" r="4" fill="#0" id="circle66"/>
	<circle cx="506.418" cy="304.717" r="4" fill="#0" id="circle67"/>
	<circle cx="508.251" cy="9.50092" r="4" fill="#0" id="circle68"/>
	<circle cx="524.754" cy="304.717" r="4" fill="#0" id="circle69"/>
	<circle cx="526.588" cy="9.50092" r="4" fill="#0" id="circle70"/>
	<circle cx="543.091" cy="304.717" r="4" fill="#0" id="circle71"/>
	<circle cx="544.924" cy="5.83364" r="4" fill="#0" id="circle72"/>
	<circle cx="561.427" cy="304.717" r="4" fill="#0" id="circle73"/>
	<circle cx="563.261" cy="5.83364" r="4" fill="#0" id="circle74"/>
	<circle cx="579.763" cy="304.717" r="4" fill="#0" id="circle75"/>
	<circle cx="581.597" cy="5.83364" r="4" fill="#0" id="circle76"/>
	<circle cx="598.1" cy="304.717" r="4" fill="#0" id="circle77"/>
	<circle cx="599.933" cy="5.83364" r="4" fill="#0" id="circle78"/>
	<circle cx="616.436" cy="304.717" r="4" fill="#0" id="circle79"/>
	<circle cx="618.27" cy="5.83364" r="4" fill="#0" id="circle80"/>
	<circle cx="634.773" cy="304.717" r="4" fill="#0" id="circle81"/>
	<circle cx="636.606" cy="5.83364" r="4" fill="#0" id="circle82"/>
	<circle cx="653.109" cy="304.717" r="4" fill="#0" id="circle83"/>
	<circle cx="654.943" cy="5.83364" r="4" fill="#0" id="circle84"/>
	<circle cx="671.445" cy="304.717" r="4" fill="#0" id="circle85"/>
	<circle cx="673.279" cy="5.83364" r="4" fill="#0" id="circle86"/>
	<circle cx="689.782" cy="304.717" r="4" fill="#0" id="circle87"/>
	<circle cx="691.616" cy="5.83364" r="4" fill="#0" id="circle88"/>
	<circle cx="706.285" cy="313.885" r="4" fill="#0" id="circle89"/>
	<circle cx="709.952" cy="5.83364" r="4" fill="#0" id="circle90"/>
	<circle cx="720.954" cy="326.721" r="4" fill="#0" id="circle91"/>
	<circle cx="728.288" cy="5.83364" r="4" fill="#0" id="circle92"/>
	<circle cx="739.29" cy="332.222" r="4" fill="#0" id="circle93"/>
	<circle cx="746.625" cy="5.83364" r="4" fill="#0" id="circle94"/>
	<circle cx="757.627" cy="335.889" r="4" fill="#0" id="circle95"/>
	<circle cx="764.961" cy="5.83364" r="4" fill="#0" id="circle96"/>
	<circle cx="775.963" cy="335.889" r="4" fill="#0" id="circle97"/>
	<circle cx="783.298" cy="5.83364" r="4" fill="#0" id="circle98"/>
	<circle cx="792.466" cy="345.057" r="4" fill="#0" id="circle99"/>
	<circle cx="801.634" cy="9.50092" r="4" fill="#0" id="circle100"/>
	<circle cx="810.802" cy="350.558" r="4" fill="#0" id="circle101"/>
	<circle cx="819.97" cy="9.50092" r="4" fill="#0" id="circle102"/>
	<circle cx="829.139" cy="354.226" r="4" fill="#0" id="circle103"/>
	<circle cx="838.307" cy="4" r="4" fill="#0" id="circle104"/>
	<circle cx="847.475" cy="354.226" r="4" fill="#0" id="circle105"/>
	<circle cx="856.643" cy="9.50092" r="4" fill="#0" id="circle106"/>
	<circle cx="865.811" cy="354.226" r="4" fill="#0" id="circle107"/>
	<circle cx="874.98" cy="9.50092" r="4" fill="#0" id="circle108"/>
	<circle cx="880.481" cy="341.39" r="4" fill="#0" id="circle109"/>
	<circle cx="891.482" cy="18.6691" r="4" fill="#0" id="circle110"/>
	<circle cx="895.15" cy="323.054" r="4" fill="#0" id="circle111"/>
	<circle cx="909.819" cy="18.6691" r="4" fill="#0" id="circle112"/>
	<circle cx="909.819" cy="310.218" r="4" fill="#0" id="circle113"/>
	<circle cx="926.322" cy="27.8373" r="4" fill="#0" id="circle114"/>
	<circle cx="928.155" cy="304.717" r="4" fill="#0" id="circle115"/>
	<circle cx="931.823" cy="46.1738" r="4" fill="#0" id="circle116"/>
	<circle cx="931.823" cy="64.5102" r="4" fill="#0" id="circle117"/>
	<circle cx="931.823" cy="82.8466" r="4" fill="#0" id="circle118"/>
	<circle cx="931.823" cy="101.183" r="4" fill="#0" id="circle119"/>
	<circle cx="931.823" cy="119.519" r="4" fill="#0" id="circle120"/>
	<circle cx="931.823" cy="137.856" r="4" fill="#0" id="circle121"/>
	<circle cx="946.492" cy="304.717" r="4" fill="#0" id="circle122"/>
	<circle cx="948.325" cy="147.024" r="4" fill="#0" id="circle123"/>
	<circle cx="962.994" cy="295.549" r="4" fill="#0" id="circle124"/>
	<circle cx="966.662" cy="150.691" r="4" fill="#0" id="circle125"/>
	<circle cx="979.497" cy="286.381" r="4" fill="#0" id="circle126"/>
	<circle cx="983.165" cy="159.86" r="4" fill="#0" id="circle127"/>
	<circle cx="992.333" cy="176.362" r="4" fill="#0" id="circle128"/>
	<circle cx="994.166" cy="271.712" r="4" fill="#0" id="circle129"/>
	<circle cx="996" cy="203.867" r="4" fill="#0" id="circle130"/>
	<circle cx="996" cy="231.372" r="4" fill="#0" id="circle131"/>
	<circle cx="996" cy="249.708" r="4" fill="#0" id="circle132"/>
	</g>
</svg>