<?xml version="1.0" encoding="UTF-8" standalone="no"?>
<!-- Created with CurveBenchmark -->
<svg
	xmlns:dc="http://purl.org/dc/elements/1.1/"
	xmlns:cc="http://creativecommons.org/ns#"
	xmlns:rdf="http://www.w3.org/1999/02/22-rdf-syntax-ns#"
	xmlns:svg="http://www.w3.org/2000/svg"
	xmlns="http://www.w3.org/2000/svg"
	xmlns:sodipodi="http://sodipodi.sourceforge.net/DTD/sodipodi-0.dtd"
	xmlns:inkscape="http://www.inkscape.org/namespaces/inkscape"
	width="1000"
	height="1000"
	id="svg2"
	version="1.1"
	sodipodi:docname="manifold/ccrust-bonefishesocc4.png.txt">
<defs
	id="defs4" />
<metadata
	id="metadata7">
	<rdf:RDF>
		<cc:Work
			rdf:about="">
			<dc:format>image/svg+xml</dc:format>
			<dc:type
				rdf:resource="http://purl.org/dc/dcmitype/StillImage" />
			<dc:title></dc:title>
		</cc:Work>
	</rdf:RDF>
</metadata>
<g
	inkscape:label="Layer 1"
	inkscape:groupmode="layer"
	id="layer1">
	<path style="fill:none;stroke:red;stroke-width:1px;stroke-linecap:butt;stroke-linejoin:miter;stroke-opacity:1" d="M 58.5055,103.927 40.337,103.927 z" id="boundary" inkscape:connector-curvature="0" />
	<path style="fill:none;stroke:red;stroke-width:1px;stroke-linecap:butt;stroke-linejoin:miter;stroke-opacity:1" d="M 58.5055,103.927 74.8571,113.011 z" id="boundary" inkscape:connector-curvature="0" />
	<path style="fill:none;stroke:red;stroke-width:1px;stroke-linecap:butt;stroke-linejoin:miter;stroke-opacity:1" d="M 22.1685,109.377 40.337,103.927 z" id="boundary" inkscape:connector-curvature="0" />
	<path style="fill:none;stroke:red;stroke-width:1px;stroke-linecap:butt;stroke-linejoin:miter;stroke-opacity:1" d="M 149.348,45.7875 140.264,73.0403 z" id="boundary" inkscape:connector-curvature="0" />
	<path style="fill:none;stroke:red;stroke-width:1px;stroke-linecap:butt;stroke-linejoin:miter;stroke-opacity:1" d="M 91.2088,103.927 74.8571,113.011 z" id="boundary" inkscape:connector-curvature="0" />
	<path style="fill:none;stroke:red;stroke-width:1px;stroke-linecap:butt;stroke-linejoin:miter;stroke-opacity:1" d="M 140.264,73.0403 140.264,91.2088 z" id="boundary" inkscape:connector-curvature="0" />
	<path style="fill:none;stroke:red;stroke-width:1px;stroke-linecap:butt;stroke-linejoin:miter;stroke-opacity:1" d="M 149.348,27.619 149.348,9.45055 z" id="boundary" inkscape:connector-curvature="0" />
	<path style="fill:none;stroke:red;stroke-width:1px;stroke-linecap:butt;stroke-linejoin:miter;stroke-opacity:1" d="M 149.348,9.45055 167.516,4 z" id="boundary" inkscape:connector-curvature="0" />
	<path style="fill:none;stroke:red;stroke-width:1px;stroke-linecap:butt;stroke-linejoin:miter;stroke-opacity:1" d="M 167.516,4 185.685,4 z" id="boundary" inkscape:connector-curvature="0" />
	<path style="fill:none;stroke:red;stroke-width:1px;stroke-linecap:butt;stroke-linejoin:miter;stroke-opacity:1" d="M 149.348,27.619 149.348,45.7875 z" id="boundary" inkscape:connector-curvature="0" />
	<path style="fill:none;stroke:red;stroke-width:1px;stroke-linecap:butt;stroke-linejoin:miter;stroke-opacity:1" d="M 185.685,4 202.037,13.0842 z" id="boundary" inkscape:connector-curvature="0" />
	<path style="fill:none;stroke:red;stroke-width:1px;stroke-linecap:butt;stroke-linejoin:miter;stroke-opacity:1" d="M 22.1685,109.377 4,118.462 z" id="boundary" inkscape:connector-curvature="0" />
	<path style="fill:none;stroke:red;stroke-width:1px;stroke-linecap:butt;stroke-linejoin:miter;stroke-opacity:1" d="M 107.56,113.011 91.2088,103.927 z" id="boundary" inkscape:connector-curvature="0" />
	<path style="fill:none;stroke:red;stroke-width:1px;stroke-linecap:butt;stroke-linejoin:miter;stroke-opacity:1" d="M 13.0842,171.15 4,154.799 z" id="boundary" inkscape:connector-curvature="0" />
	<path style="fill:none;stroke:red;stroke-width:1px;stroke-linecap:butt;stroke-linejoin:miter;stroke-opacity:1" d="M 4,154.799 4,136.63 z" id="boundary" inkscape:connector-curvature="0" />
	<path style="fill:none;stroke:red;stroke-width:1px;stroke-linecap:butt;stroke-linejoin:miter;stroke-opacity:1" d="M 25.8022,185.685 13.0842,171.15 z" id="boundary" inkscape:connector-curvature="0" />
	<path style="fill:none;stroke:red;stroke-width:1px;stroke-linecap:butt;stroke-linejoin:miter;stroke-opacity:1" d="M 4,136.63 4,118.462 z" id="boundary" inkscape:connector-curvature="0" />
	<path style="fill:none;stroke:red;stroke-width:1px;stroke-linecap:butt;stroke-linejoin:miter;stroke-opacity:1" d="M 125.729,113.011 107.56,113.011 z" id="boundary" inkscape:connector-curvature="0" />
	<path style="fill:none;stroke:red;stroke-width:1px;stroke-linecap:butt;stroke-linejoin:miter;stroke-opacity:1" d="M 140.264,91.2088 125.729,113.011 z" id="boundary" inkscape:connector-curvature="0" />
	<path style="fill:none;stroke:red;stroke-width:1px;stroke-linecap:butt;stroke-linejoin:miter;stroke-opacity:1" d="M 69.4066,218.388 51.2381,211.121 z" id="boundary" inkscape:connector-curvature="0" />
	<path style="fill:none;stroke:red;stroke-width:1px;stroke-linecap:butt;stroke-linejoin:miter;stroke-opacity:1" d="M 51.2381,211.121 40.337,196.586 z" id="boundary" inkscape:connector-curvature="0" />
	<path style="fill:none;stroke:red;stroke-width:1px;stroke-linecap:butt;stroke-linejoin:miter;stroke-opacity:1" d="M 69.4066,218.388 82.1245,232.923 z" id="boundary" inkscape:connector-curvature="0" />
	<path style="fill:none;stroke:red;stroke-width:1px;stroke-linecap:butt;stroke-linejoin:miter;stroke-opacity:1" d="M 25.8022,185.685 40.337,196.586 z" id="boundary" inkscape:connector-curvature="0" />
	<path style="fill:none;stroke:red;stroke-width:1px;stroke-linecap:butt;stroke-linejoin:miter;stroke-opacity:1" d="M 202.037,13.0842 220.205,13.0842 z" id="boundary" inkscape:connector-curvature="0" />
	<path style="fill:none;stroke:red;stroke-width:1px;stroke-linecap:butt;stroke-linejoin:miter;stroke-opacity:1" d="M 238.374,13.0842 256.542,14.9011 z" id="boundary" inkscape:connector-curvature="0" />
	<path style="fill:none;stroke:red;stroke-width:1px;stroke-linecap:butt;stroke-linejoin:miter;stroke-opacity:1" d="M 256.542,14.9011 260.176,33.0696 z" id="boundary" inkscape:connector-curvature="0" />
	<path style="fill:none;stroke:red;stroke-width:1px;stroke-linecap:butt;stroke-linejoin:miter;stroke-opacity:1" d="M 220.205,13.0842 238.374,13.0842 z" id="boundary" inkscape:connector-curvature="0" />
	<path style="fill:none;stroke:red;stroke-width:1px;stroke-linecap:butt;stroke-linejoin:miter;stroke-opacity:1" d="M 260.176,33.0696 260.176,51.2381 z" id="boundary" inkscape:connector-curvature="0" />
	<path style="fill:none;stroke:red;stroke-width:1px;stroke-linecap:butt;stroke-linejoin:miter;stroke-opacity:1" d="M 263.81,87.5751 260.176,69.4066 z" id="boundary" inkscape:connector-curvature="0" />
	<path style="fill:none;stroke:red;stroke-width:1px;stroke-linecap:butt;stroke-linejoin:miter;stroke-opacity:1" d="M 260.176,69.4066 260.176,51.2381 z" id="boundary" inkscape:connector-curvature="0" />
	<path style="fill:none;stroke:red;stroke-width:1px;stroke-linecap:butt;stroke-linejoin:miter;stroke-opacity:1" d="M 269.26,105.744 263.81,87.5751 z" id="boundary" inkscape:connector-curvature="0" />
	<path style="fill:none;stroke:red;stroke-width:1px;stroke-linecap:butt;stroke-linejoin:miter;stroke-opacity:1" d="M 269.26,105.744 269.26,123.912 z" id="boundary" inkscape:connector-curvature="0" />
	<path style="fill:none;stroke:red;stroke-width:1px;stroke-linecap:butt;stroke-linejoin:miter;stroke-opacity:1" d="M 269.26,142.081 269.26,123.912 z" id="boundary" inkscape:connector-curvature="0" />
	<path style="fill:none;stroke:red;stroke-width:1px;stroke-linecap:butt;stroke-linejoin:miter;stroke-opacity:1" d="M 283.795,152.982 269.26,142.081 z" id="boundary" inkscape:connector-curvature="0" />
	<path style="fill:none;stroke:red;stroke-width:1px;stroke-linecap:butt;stroke-linejoin:miter;stroke-opacity:1" d="M 283.795,152.982 301.963,160.249 z" id="boundary" inkscape:connector-curvature="0" />
	<path style="fill:none;stroke:red;stroke-width:1px;stroke-linecap:butt;stroke-linejoin:miter;stroke-opacity:1" d="M 301.963,160.249 320.132,167.516 z" id="boundary" inkscape:connector-curvature="0" />
	<path style="fill:none;stroke:red;stroke-width:1px;stroke-linecap:butt;stroke-linejoin:miter;stroke-opacity:1" d="M 336.484,176.601 320.132,167.516 z" id="boundary" inkscape:connector-curvature="0" />
	<path style="fill:none;stroke:red;stroke-width:1px;stroke-linecap:butt;stroke-linejoin:miter;stroke-opacity:1" d="M 352.835,185.685 336.484,176.601 z" id="boundary" inkscape:connector-curvature="0" />
	<path style="fill:none;stroke:red;stroke-width:1px;stroke-linecap:butt;stroke-linejoin:miter;stroke-opacity:1" d="M 369.187,194.769 385.538,203.853 z" id="boundary" inkscape:connector-curvature="0" />
	<path style="fill:none;stroke:red;stroke-width:1px;stroke-linecap:butt;stroke-linejoin:miter;stroke-opacity:1" d="M 400.073,214.755 385.538,203.853 z" id="boundary" inkscape:connector-curvature="0" />
	<path style="fill:none;stroke:red;stroke-width:1px;stroke-linecap:butt;stroke-linejoin:miter;stroke-opacity:1" d="M 418.242,222.022 400.073,214.755 z" id="boundary" inkscape:connector-curvature="0" />
	<path style="fill:none;stroke:red;stroke-width:1px;stroke-linecap:butt;stroke-linejoin:miter;stroke-opacity:1" d="M 352.835,185.685 369.187,194.769 z" id="boundary" inkscape:connector-curvature="0" />
	<path style="fill:none;stroke:red;stroke-width:1px;stroke-linecap:butt;stroke-linejoin:miter;stroke-opacity:1" d="M 470.93,222.022 452.762,223.839 z" id="boundary" inkscape:connector-curvature="0" />
	<path style="fill:none;stroke:red;stroke-width:1px;stroke-linecap:butt;stroke-linejoin:miter;stroke-opacity:1" d="M 489.099,214.755 470.93,222.022 z" id="boundary" inkscape:connector-curvature="0" />
	<path style="fill:none;stroke:red;stroke-width:1px;stroke-linecap:butt;stroke-linejoin:miter;stroke-opacity:1" d="M 434.593,231.106 452.762,223.839 z" id="boundary" inkscape:connector-curvature="0" />
	<path style="fill:none;stroke:red;stroke-width:1px;stroke-linecap:butt;stroke-linejoin:miter;stroke-opacity:1" d="M 434.593,231.106 418.242,222.022 z" id="boundary" inkscape:connector-curvature="0" />
	<path style="fill:none;stroke:red;stroke-width:1px;stroke-linecap:butt;stroke-linejoin:miter;stroke-opacity:1" d="M 82.1245,232.923 96.6593,245.641 z" id="boundary" inkscape:connector-curvature="0" />
	<path style="fill:none;stroke:red;stroke-width:1px;stroke-linecap:butt;stroke-linejoin:miter;stroke-opacity:1" d="M 96.6593,245.641 109.377,260.176 z" id="boundary" inkscape:connector-curvature="0" />
	<path style="fill:none;stroke:red;stroke-width:1px;stroke-linecap:butt;stroke-linejoin:miter;stroke-opacity:1" d="M 123.912,272.894 109.377,260.176 z" id="boundary" inkscape:connector-curvature="0" />
	<path style="fill:none;stroke:red;stroke-width:1px;stroke-linecap:butt;stroke-linejoin:miter;stroke-opacity:1" d="M 123.912,272.894 136.63,287.429 z" id="boundary" inkscape:connector-curvature="0" />
	<path style="fill:none;stroke:red;stroke-width:1px;stroke-linecap:butt;stroke-linejoin:miter;stroke-opacity:1" d="M 136.63,287.429 140.264,305.597 z" id="boundary" inkscape:connector-curvature="0" />
	<path style="fill:none;stroke:red;stroke-width:1px;stroke-linecap:butt;stroke-linejoin:miter;stroke-opacity:1" d="M 140.264,305.597 140.264,323.766 z" id="boundary" inkscape:connector-curvature="0" />
	<path style="fill:none;stroke:red;stroke-width:1px;stroke-linecap:butt;stroke-linejoin:miter;stroke-opacity:1" d="M 140.264,354.652 140.264,323.766 z" id="boundary" inkscape:connector-curvature="0" />
	<path style="fill:none;stroke:red;stroke-width:1px;stroke-linecap:butt;stroke-linejoin:miter;stroke-opacity:1" d="M 140.264,390.989 140.264,372.821 z" id="boundary" inkscape:connector-curvature="0" />
	<path style="fill:none;stroke:red;stroke-width:1px;stroke-linecap:butt;stroke-linejoin:miter;stroke-opacity:1" d="M 149.348,407.341 140.264,390.989 z" id="boundary" inkscape:connector-curvature="0" />
	<path style="fill:none;stroke:red;stroke-width:1px;stroke-linecap:butt;stroke-linejoin:miter;stroke-opacity:1" d="M 140.264,372.821 140.264,354.652 z" id="boundary" inkscape:connector-curvature="0" />
	<path style="fill:none;stroke:red;stroke-width:1px;stroke-linecap:butt;stroke-linejoin:miter;stroke-opacity:1" d="M 149.348,407.341 149.348,425.509 z" id="boundary" inkscape:connector-curvature="0" />
	<path style="fill:none;stroke:red;stroke-width:1px;stroke-linecap:butt;stroke-linejoin:miter;stroke-opacity:1" d="M 149.348,443.678 149.348,425.509 z" id="boundary" inkscape:connector-curvature="0" />
	<path style="fill:none;stroke:red;stroke-width:1px;stroke-linecap:butt;stroke-linejoin:miter;stroke-opacity:1" d="M 176.601,478.198 158.432,478.198 z" id="boundary" inkscape:connector-curvature="0" />
	<path style="fill:none;stroke:red;stroke-width:1px;stroke-linecap:butt;stroke-linejoin:miter;stroke-opacity:1" d="M 158.432,478.198 149.348,461.846 z" id="boundary" inkscape:connector-curvature="0" />
	<path style="fill:none;stroke:red;stroke-width:1px;stroke-linecap:butt;stroke-linejoin:miter;stroke-opacity:1" d="M 149.348,461.846 149.348,443.678 z" id="boundary" inkscape:connector-curvature="0" />
	<path style="fill:none;stroke:red;stroke-width:1px;stroke-linecap:butt;stroke-linejoin:miter;stroke-opacity:1" d="M 249.275,469.114 231.106,469.114 z" id="boundary" inkscape:connector-curvature="0" />
	<path style="fill:none;stroke:red;stroke-width:1px;stroke-linecap:butt;stroke-linejoin:miter;stroke-opacity:1" d="M 249.275,469.114 267.443,463.663 z" id="boundary" inkscape:connector-curvature="0" />
	<path style="fill:none;stroke:red;stroke-width:1px;stroke-linecap:butt;stroke-linejoin:miter;stroke-opacity:1" d="M 212.938,472.747 231.106,469.114 z" id="boundary" inkscape:connector-curvature="0" />
	<path style="fill:none;stroke:red;stroke-width:1px;stroke-linecap:butt;stroke-linejoin:miter;stroke-opacity:1" d="M 194.769,478.198 176.601,478.198 z" id="boundary" inkscape:connector-curvature="0" />
	<path style="fill:none;stroke:red;stroke-width:1px;stroke-linecap:butt;stroke-linejoin:miter;stroke-opacity:1" d="M 212.938,472.747 194.769,478.198 z" id="boundary" inkscape:connector-curvature="0" />
	<path style="fill:none;stroke:red;stroke-width:1px;stroke-linecap:butt;stroke-linejoin:miter;stroke-opacity:1" d="M 269.26,441.861 267.443,463.663 z" id="boundary" inkscape:connector-curvature="0" />
	<path style="fill:none;stroke:red;stroke-width:1px;stroke-linecap:butt;stroke-linejoin:miter;stroke-opacity:1" d="M 269.26,423.692 269.26,405.524 z" id="boundary" inkscape:connector-curvature="0" />
	<path style="fill:none;stroke:red;stroke-width:1px;stroke-linecap:butt;stroke-linejoin:miter;stroke-opacity:1" d="M 269.26,441.861 269.26,423.692 z" id="boundary" inkscape:connector-curvature="0" />
	<path style="fill:none;stroke:red;stroke-width:1px;stroke-linecap:butt;stroke-linejoin:miter;stroke-opacity:1" d="M 285.612,396.44 301.963,405.524 z" id="boundary" inkscape:connector-curvature="0" />
	<path style="fill:none;stroke:red;stroke-width:1px;stroke-linecap:butt;stroke-linejoin:miter;stroke-opacity:1" d="M 301.963,405.524 314.681,420.059 z" id="boundary" inkscape:connector-curvature="0" />
	<path style="fill:none;stroke:red;stroke-width:1px;stroke-linecap:butt;stroke-linejoin:miter;stroke-opacity:1" d="M 332.85,427.326 314.681,420.059 z" id="boundary" inkscape:connector-curvature="0" />
	<path style="fill:none;stroke:red;stroke-width:1px;stroke-linecap:butt;stroke-linejoin:miter;stroke-opacity:1" d="M 349.201,436.41 332.85,427.326 z" id="boundary" inkscape:connector-curvature="0" />
	<path style="fill:none;stroke:red;stroke-width:1px;stroke-linecap:butt;stroke-linejoin:miter;stroke-opacity:1" d="M 380.088,458.212 363.736,449.128 z" id="boundary" inkscape:connector-curvature="0" />
	<path style="fill:none;stroke:red;stroke-width:1px;stroke-linecap:butt;stroke-linejoin:miter;stroke-opacity:1" d="M 363.736,449.128 349.201,436.41 z" id="boundary" inkscape:connector-curvature="0" />
	<path style="fill:none;stroke:red;stroke-width:1px;stroke-linecap:butt;stroke-linejoin:miter;stroke-opacity:1" d="M 398.256,465.48 380.088,458.212 z" id="boundary" inkscape:connector-curvature="0" />
	<path style="fill:none;stroke:red;stroke-width:1px;stroke-linecap:butt;stroke-linejoin:miter;stroke-opacity:1" d="M 403.707,483.648 403.707,501.817 z" id="boundary" inkscape:connector-curvature="0" />
	<path style="fill:none;stroke:red;stroke-width:1px;stroke-linecap:butt;stroke-linejoin:miter;stroke-opacity:1" d="M 496.366,523.619 478.198,532.703 z" id="boundary" inkscape:connector-curvature="0" />
	<path style="fill:none;stroke:red;stroke-width:1px;stroke-linecap:butt;stroke-linejoin:miter;stroke-opacity:1" d="M 403.707,501.817 403.707,519.985 z" id="boundary" inkscape:connector-curvature="0" />
	<path style="fill:none;stroke:red;stroke-width:1px;stroke-linecap:butt;stroke-linejoin:miter;stroke-opacity:1" d="M 403.707,538.154 403.707,519.985 z" id="boundary" inkscape:connector-curvature="0" />
	<path style="fill:none;stroke:red;stroke-width:1px;stroke-linecap:butt;stroke-linejoin:miter;stroke-opacity:1" d="M 398.256,465.48 403.707,483.648 z" id="boundary" inkscape:connector-curvature="0" />
	<path style="fill:none;stroke:red;stroke-width:1px;stroke-linecap:butt;stroke-linejoin:miter;stroke-opacity:1" d="M 467.297,554.505 452.762,569.04 z" id="boundary" inkscape:connector-curvature="0" />
	<path style="fill:none;stroke:red;stroke-width:1px;stroke-linecap:butt;stroke-linejoin:miter;stroke-opacity:1" d="M 478.198,532.703 467.297,554.505 z" id="boundary" inkscape:connector-curvature="0" />
	<path style="fill:none;stroke:red;stroke-width:1px;stroke-linecap:butt;stroke-linejoin:miter;stroke-opacity:1" d="M 420.059,569.04 405.524,556.322 z" id="boundary" inkscape:connector-curvature="0" />
	<path style="fill:none;stroke:red;stroke-width:1px;stroke-linecap:butt;stroke-linejoin:miter;stroke-opacity:1" d="M 405.524,556.322 403.707,538.154 z" id="boundary" inkscape:connector-curvature="0" />
	<path style="fill:none;stroke:red;stroke-width:1px;stroke-linecap:butt;stroke-linejoin:miter;stroke-opacity:1" d="M 452.762,569.04 436.41,578.125 z" id="boundary" inkscape:connector-curvature="0" />
	<path style="fill:none;stroke:red;stroke-width:1px;stroke-linecap:butt;stroke-linejoin:miter;stroke-opacity:1" d="M 436.41,578.125 420.059,569.04 z" id="boundary" inkscape:connector-curvature="0" />
	<path style="fill:none;stroke:red;stroke-width:1px;stroke-linecap:butt;stroke-linejoin:miter;stroke-opacity:1" d="M 523.619,203.853 541.788,203.853 z" id="boundary" inkscape:connector-curvature="0" />
	<path style="fill:none;stroke:red;stroke-width:1px;stroke-linecap:butt;stroke-linejoin:miter;stroke-opacity:1" d="M 507.267,212.938 523.619,203.853 z" id="boundary" inkscape:connector-curvature="0" />
	<path style="fill:none;stroke:red;stroke-width:1px;stroke-linecap:butt;stroke-linejoin:miter;stroke-opacity:1" d="M 507.267,212.938 489.099,214.755 z" id="boundary" inkscape:connector-curvature="0" />
	<path style="fill:none;stroke:red;stroke-width:1px;stroke-linecap:butt;stroke-linejoin:miter;stroke-opacity:1" d="M 541.788,203.853 559.956,203.853 z" id="boundary" inkscape:connector-curvature="0" />
	<path style="fill:none;stroke:red;stroke-width:1px;stroke-linecap:butt;stroke-linejoin:miter;stroke-opacity:1" d="M 576.308,194.769 559.956,203.853 z" id="boundary" inkscape:connector-curvature="0" />
	<path style="fill:none;stroke:red;stroke-width:1px;stroke-linecap:butt;stroke-linejoin:miter;stroke-opacity:1" d="M 610.828,205.67 592.659,203.853 z" id="boundary" inkscape:connector-curvature="0" />
	<path style="fill:none;stroke:red;stroke-width:1px;stroke-linecap:butt;stroke-linejoin:miter;stroke-opacity:1" d="M 592.659,203.853 576.308,194.769 z" id="boundary" inkscape:connector-curvature="0" />
	<path style="fill:none;stroke:red;stroke-width:1px;stroke-linecap:butt;stroke-linejoin:miter;stroke-opacity:1" d="M 610.828,205.67 614.462,223.839 z" id="boundary" inkscape:connector-curvature="0" />
	<path style="fill:none;stroke:red;stroke-width:1px;stroke-linecap:butt;stroke-linejoin:miter;stroke-opacity:1" d="M 605.377,242.007 614.462,223.839 z" id="boundary" inkscape:connector-curvature="0" />
	<path style="fill:none;stroke:red;stroke-width:1px;stroke-linecap:butt;stroke-linejoin:miter;stroke-opacity:1" d="M 605.377,260.176 605.377,242.007 z" id="boundary" inkscape:connector-curvature="0" />
	<path style="fill:none;stroke:red;stroke-width:1px;stroke-linecap:butt;stroke-linejoin:miter;stroke-opacity:1" d="M 605.377,260.176 596.293,278.344 z" id="boundary" inkscape:connector-curvature="0" />
	<path style="fill:none;stroke:red;stroke-width:1px;stroke-linecap:butt;stroke-linejoin:miter;stroke-opacity:1" d="M 596.293,296.513 596.293,314.681 z" id="boundary" inkscape:connector-curvature="0" />
	<path style="fill:none;stroke:red;stroke-width:1px;stroke-linecap:butt;stroke-linejoin:miter;stroke-opacity:1" d="M 596.293,296.513 596.293,278.344 z" id="boundary" inkscape:connector-curvature="0" />
	<path style="fill:none;stroke:red;stroke-width:1px;stroke-linecap:butt;stroke-linejoin:miter;stroke-opacity:1" d="M 512.718,532.703 496.366,523.619 z" id="boundary" inkscape:connector-curvature="0" />
	<path style="fill:none;stroke:red;stroke-width:1px;stroke-linecap:butt;stroke-linejoin:miter;stroke-opacity:1" d="M 596.293,314.681 596.293,332.85 z" id="boundary" inkscape:connector-curvature="0" />
	<path style="fill:none;stroke:red;stroke-width:1px;stroke-linecap:butt;stroke-linejoin:miter;stroke-opacity:1" d="M 596.293,332.85 596.293,351.018 z" id="boundary" inkscape:connector-curvature="0" />
	<path style="fill:none;stroke:red;stroke-width:1px;stroke-linecap:butt;stroke-linejoin:miter;stroke-opacity:1" d="M 512.718,532.703 529.07,541.788 z" id="boundary" inkscape:connector-curvature="0" />
	<path style="fill:none;stroke:red;stroke-width:1px;stroke-linecap:butt;stroke-linejoin:miter;stroke-opacity:1" d="M 609.011,385.538 599.927,369.187 z" id="boundary" inkscape:connector-curvature="0" />
	<path style="fill:none;stroke:red;stroke-width:1px;stroke-linecap:butt;stroke-linejoin:miter;stroke-opacity:1" d="M 599.927,369.187 596.293,351.018 z" id="boundary" inkscape:connector-curvature="0" />
	<path style="fill:none;stroke:red;stroke-width:1px;stroke-linecap:butt;stroke-linejoin:miter;stroke-opacity:1" d="M 621.729,400.073 632.63,414.608 z" id="boundary" inkscape:connector-curvature="0" />
	<path style="fill:none;stroke:red;stroke-width:1px;stroke-linecap:butt;stroke-linejoin:miter;stroke-opacity:1" d="M 621.729,400.073 609.011,385.538 z" id="boundary" inkscape:connector-curvature="0" />
	<path style="fill:none;stroke:red;stroke-width:1px;stroke-linecap:butt;stroke-linejoin:miter;stroke-opacity:1" d="M 641.714,430.96 659.883,436.41 z" id="boundary" inkscape:connector-curvature="0" />
	<path style="fill:none;stroke:red;stroke-width:1px;stroke-linecap:butt;stroke-linejoin:miter;stroke-opacity:1" d="M 659.883,436.41 668.967,452.762 z" id="boundary" inkscape:connector-curvature="0" />
	<path style="fill:none;stroke:red;stroke-width:1px;stroke-linecap:butt;stroke-linejoin:miter;stroke-opacity:1" d="M 641.714,430.96 632.63,414.608 z" id="boundary" inkscape:connector-curvature="0" />
	<path style="fill:none;stroke:red;stroke-width:1px;stroke-linecap:butt;stroke-linejoin:miter;stroke-opacity:1" d="M 694.403,480.015 679.868,467.297 z" id="boundary" inkscape:connector-curvature="0" />
	<path style="fill:none;stroke:red;stroke-width:1px;stroke-linecap:butt;stroke-linejoin:miter;stroke-opacity:1" d="M 679.868,467.297 668.967,452.762 z" id="boundary" inkscape:connector-curvature="0" />
	<path style="fill:none;stroke:red;stroke-width:1px;stroke-linecap:butt;stroke-linejoin:miter;stroke-opacity:1" d="M 719.839,505.451 705.304,494.549 z" id="boundary" inkscape:connector-curvature="0" />
	<path style="fill:none;stroke:red;stroke-width:1px;stroke-linecap:butt;stroke-linejoin:miter;stroke-opacity:1" d="M 705.304,494.549 694.403,480.015 z" id="boundary" inkscape:connector-curvature="0" />
	<path style="fill:none;stroke:red;stroke-width:1px;stroke-linecap:butt;stroke-linejoin:miter;stroke-opacity:1" d="M 736.19,514.535 719.839,505.451 z" id="boundary" inkscape:connector-curvature="0" />
	<path style="fill:none;stroke:red;stroke-width:1px;stroke-linecap:butt;stroke-linejoin:miter;stroke-opacity:1" d="M 750.725,527.253 736.19,514.535 z" id="boundary" inkscape:connector-curvature="0" />
	<path style="fill:none;stroke:red;stroke-width:1px;stroke-linecap:butt;stroke-linejoin:miter;stroke-opacity:1" d="M 803.414,536.337 821.582,530.886 z" id="boundary" inkscape:connector-curvature="0" />
	<path style="fill:none;stroke:red;stroke-width:1px;stroke-linecap:butt;stroke-linejoin:miter;stroke-opacity:1" d="M 839.751,530.886 821.582,530.886 z" id="boundary" inkscape:connector-curvature="0" />
	<path style="fill:none;stroke:red;stroke-width:1px;stroke-linecap:butt;stroke-linejoin:miter;stroke-opacity:1" d="M 857.919,530.886 839.751,530.886 z" id="boundary" inkscape:connector-curvature="0" />
	<path style="fill:none;stroke:red;stroke-width:1px;stroke-linecap:butt;stroke-linejoin:miter;stroke-opacity:1" d="M 803.414,536.337 785.245,539.971 z" id="boundary" inkscape:connector-curvature="0" />
	<path style="fill:none;stroke:red;stroke-width:1px;stroke-linecap:butt;stroke-linejoin:miter;stroke-opacity:1" d="M 785.245,539.971 767.077,536.337 z" id="boundary" inkscape:connector-curvature="0" />
	<path style="fill:none;stroke:red;stroke-width:1px;stroke-linecap:butt;stroke-linejoin:miter;stroke-opacity:1" d="M 767.077,536.337 750.725,527.253 z" id="boundary" inkscape:connector-curvature="0" />
	<path style="fill:none;stroke:red;stroke-width:1px;stroke-linecap:butt;stroke-linejoin:miter;stroke-opacity:1" d="M 857.919,530.886 876.088,530.886 z" id="boundary" inkscape:connector-curvature="0" />
	<path style="fill:none;stroke:red;stroke-width:1px;stroke-linecap:butt;stroke-linejoin:miter;stroke-opacity:1" d="M 894.256,530.886 912.425,530.886 z" id="boundary" inkscape:connector-curvature="0" />
	<path style="fill:none;stroke:red;stroke-width:1px;stroke-linecap:butt;stroke-linejoin:miter;stroke-opacity:1" d="M 894.256,530.886 876.088,530.886 z" id="boundary" inkscape:connector-curvature="0" />
	<path style="fill:none;stroke:red;stroke-width:1px;stroke-linecap:butt;stroke-linejoin:miter;stroke-opacity:1" d="M 912.425,530.886 930.593,530.886 z" id="boundary" inkscape:connector-curvature="0" />
	<path style="fill:none;stroke:red;stroke-width:1px;stroke-linecap:butt;stroke-linejoin:miter;stroke-opacity:1" d="M 948.762,530.886 966.93,530.886 z" id="boundary" inkscape:connector-curvature="0" />
	<path style="fill:none;stroke:red;stroke-width:1px;stroke-linecap:butt;stroke-linejoin:miter;stroke-opacity:1" d="M 948.762,530.886 930.593,530.886 z" id="boundary" inkscape:connector-curvature="0" />
	<path style="fill:none;stroke:red;stroke-width:1px;stroke-linecap:butt;stroke-linejoin:miter;stroke-opacity:1" d="M 966.93,530.886 985.099,534.52 z" id="boundary" inkscape:connector-curvature="0" />
	<path style="fill:none;stroke:red;stroke-width:1px;stroke-linecap:butt;stroke-linejoin:miter;stroke-opacity:1" d="M 545.421,550.872 529.07,541.788 z" id="boundary" inkscape:connector-curvature="0" />
	<path style="fill:none;stroke:red;stroke-width:1px;stroke-linecap:butt;stroke-linejoin:miter;stroke-opacity:1" d="M 579.941,567.223 563.59,558.139 z" id="boundary" inkscape:connector-curvature="0" />
	<path style="fill:none;stroke:red;stroke-width:1px;stroke-linecap:butt;stroke-linejoin:miter;stroke-opacity:1" d="M 701.67,614.462 683.502,619.912 z" id="boundary" inkscape:connector-curvature="0" />
	<path style="fill:none;stroke:red;stroke-width:1px;stroke-linecap:butt;stroke-linejoin:miter;stroke-opacity:1" d="M 579.941,567.223 598.11,574.491 z" id="boundary" inkscape:connector-curvature="0" />
	<path style="fill:none;stroke:red;stroke-width:1px;stroke-linecap:butt;stroke-linejoin:miter;stroke-opacity:1" d="M 545.421,550.872 563.59,558.139 z" id="boundary" inkscape:connector-curvature="0" />
	<path style="fill:none;stroke:red;stroke-width:1px;stroke-linecap:butt;stroke-linejoin:miter;stroke-opacity:1" d="M 612.645,605.377 612.645,587.209 z" id="boundary" inkscape:connector-curvature="0" />
	<path style="fill:none;stroke:red;stroke-width:1px;stroke-linecap:butt;stroke-linejoin:miter;stroke-opacity:1" d="M 612.645,587.209 598.11,574.491 z" id="boundary" inkscape:connector-curvature="0" />
	<path style="fill:none;stroke:red;stroke-width:1px;stroke-linecap:butt;stroke-linejoin:miter;stroke-opacity:1" d="M 683.502,619.912 668.967,632.63 z" id="boundary" inkscape:connector-curvature="0" />
	<path style="fill:none;stroke:red;stroke-width:1px;stroke-linecap:butt;stroke-linejoin:miter;stroke-opacity:1" d="M 623.546,638.081 612.645,623.546 z" id="boundary" inkscape:connector-curvature="0" />
	<path style="fill:none;stroke:red;stroke-width:1px;stroke-linecap:butt;stroke-linejoin:miter;stroke-opacity:1" d="M 612.645,623.546 612.645,605.377 z" id="boundary" inkscape:connector-curvature="0" />
	<path style="fill:none;stroke:red;stroke-width:1px;stroke-linecap:butt;stroke-linejoin:miter;stroke-opacity:1" d="M 701.67,614.462 718.022,623.546 z" id="boundary" inkscape:connector-curvature="0" />
	<path style="fill:none;stroke:red;stroke-width:1px;stroke-linecap:butt;stroke-linejoin:miter;stroke-opacity:1" d="M 718.022,623.546 727.106,639.897 z" id="boundary" inkscape:connector-curvature="0" />
	<path style="fill:none;stroke:red;stroke-width:1px;stroke-linecap:butt;stroke-linejoin:miter;stroke-opacity:1" d="M 668.967,632.63 656.249,647.165 z" id="boundary" inkscape:connector-curvature="0" />
	<path style="fill:none;stroke:red;stroke-width:1px;stroke-linecap:butt;stroke-linejoin:miter;stroke-opacity:1" d="M 638.081,650.799 656.249,647.165 z" id="boundary" inkscape:connector-curvature="0" />
	<path style="fill:none;stroke:red;stroke-width:1px;stroke-linecap:butt;stroke-linejoin:miter;stroke-opacity:1" d="M 638.081,650.799 623.546,638.081 z" id="boundary" inkscape:connector-curvature="0" />
	<path style="fill:none;stroke:red;stroke-width:1px;stroke-linecap:butt;stroke-linejoin:miter;stroke-opacity:1" d="M 727.106,639.897 734.374,658.066 z" id="boundary" inkscape:connector-curvature="0" />
	<path style="fill:none;stroke:red;stroke-width:1px;stroke-linecap:butt;stroke-linejoin:miter;stroke-opacity:1" d="M 748.908,692.586 739.824,676.234 z" id="boundary" inkscape:connector-curvature="0" />
	<path style="fill:none;stroke:red;stroke-width:1px;stroke-linecap:butt;stroke-linejoin:miter;stroke-opacity:1" d="M 739.824,676.234 734.374,658.066 z" id="boundary" inkscape:connector-curvature="0" />
	<path style="fill:none;stroke:red;stroke-width:1px;stroke-linecap:butt;stroke-linejoin:miter;stroke-opacity:1" d="M 748.908,692.586 748.908,710.755 z" id="boundary" inkscape:connector-curvature="0" />
	<path style="fill:none;stroke:red;stroke-width:1px;stroke-linecap:butt;stroke-linejoin:miter;stroke-opacity:1" d="M 748.908,710.755 757.993,727.106 z" id="boundary" inkscape:connector-curvature="0" />
	<path style="fill:none;stroke:red;stroke-width:1px;stroke-linecap:butt;stroke-linejoin:miter;stroke-opacity:1" d="M 757.993,727.106 757.993,745.275 z" id="boundary" inkscape:connector-curvature="0" />
	<path style="fill:none;stroke:red;stroke-width:1px;stroke-linecap:butt;stroke-linejoin:miter;stroke-opacity:1" d="M 757.993,745.275 767.077,761.626 z" id="boundary" inkscape:connector-curvature="0" />
	<path style="fill:none;stroke:red;stroke-width:1px;stroke-linecap:butt;stroke-linejoin:miter;stroke-opacity:1" d="M 883.355,601.744 865.187,605.377 z" id="boundary" inkscape:connector-curvature="0" />
	<path style="fill:none;stroke:red;stroke-width:1px;stroke-linecap:butt;stroke-linejoin:miter;stroke-opacity:1" d="M 823.399,641.714 832.484,623.546 z" id="boundary" inkscape:connector-curvature="0" />
	<path style="fill:none;stroke:red;stroke-width:1px;stroke-linecap:butt;stroke-linejoin:miter;stroke-opacity:1" d="M 832.484,623.546 848.835,614.462 z" id="boundary" inkscape:connector-curvature="0" />
	<path style="fill:none;stroke:red;stroke-width:1px;stroke-linecap:butt;stroke-linejoin:miter;stroke-opacity:1" d="M 848.835,614.462 865.187,605.377 z" id="boundary" inkscape:connector-curvature="0" />
	<path style="fill:none;stroke:red;stroke-width:1px;stroke-linecap:butt;stroke-linejoin:miter;stroke-opacity:1" d="M 883.355,601.744 901.524,596.293 z" id="boundary" inkscape:connector-curvature="0" />
	<path style="fill:none;stroke:red;stroke-width:1px;stroke-linecap:butt;stroke-linejoin:miter;stroke-opacity:1" d="M 990.549,567.223 972.381,576.308 z" id="boundary" inkscape:connector-curvature="0" />
	<path style="fill:none;stroke:red;stroke-width:1px;stroke-linecap:butt;stroke-linejoin:miter;stroke-opacity:1" d="M 972.381,576.308 954.212,578.125 z" id="boundary" inkscape:connector-curvature="0" />
	<path style="fill:none;stroke:red;stroke-width:1px;stroke-linecap:butt;stroke-linejoin:miter;stroke-opacity:1" d="M 937.861,587.209 919.692,592.659 z" id="boundary" inkscape:connector-curvature="0" />
	<path style="fill:none;stroke:red;stroke-width:1px;stroke-linecap:butt;stroke-linejoin:miter;stroke-opacity:1" d="M 919.692,592.659 901.524,596.293 z" id="boundary" inkscape:connector-curvature="0" />
	<path style="fill:none;stroke:red;stroke-width:1px;stroke-linecap:butt;stroke-linejoin:miter;stroke-opacity:1" d="M 937.861,587.209 954.212,578.125 z" id="boundary" inkscape:connector-curvature="0" />
	<path style="fill:none;stroke:red;stroke-width:1px;stroke-linecap:butt;stroke-linejoin:miter;stroke-opacity:1" d="M 767.077,761.626 776.161,777.978 z" id="boundary" inkscape:connector-curvature="0" />
	<path style="fill:none;stroke:red;stroke-width:1px;stroke-linecap:butt;stroke-linejoin:miter;stroke-opacity:1" d="M 776.161,777.978 781.612,796.147 z" id="boundary" inkscape:connector-curvature="0" />
	<path style="fill:none;stroke:red;stroke-width:1px;stroke-linecap:butt;stroke-linejoin:miter;stroke-opacity:1" d="M 814.315,750.725 808.864,785.245 z" id="boundary" inkscape:connector-curvature="0" />
	<path style="fill:none;stroke:red;stroke-width:1px;stroke-linecap:butt;stroke-linejoin:miter;stroke-opacity:1" d="M 808.864,785.245 799.78,803.414 z" id="boundary" inkscape:connector-curvature="0" />
	<path style="fill:none;stroke:red;stroke-width:1px;stroke-linecap:butt;stroke-linejoin:miter;stroke-opacity:1" d="M 799.78,803.414 781.612,796.147 z" id="boundary" inkscape:connector-curvature="0" />
	<path style="fill:none;stroke:red;stroke-width:1px;stroke-linecap:butt;stroke-linejoin:miter;stroke-opacity:1" d="M 814.315,668.967 823.399,641.714 z" id="boundary" inkscape:connector-curvature="0" />
	<path style="fill:none;stroke:red;stroke-width:1px;stroke-linecap:butt;stroke-linejoin:miter;stroke-opacity:1" d="M 817.949,687.136 814.315,668.967 z" id="boundary" inkscape:connector-curvature="0" />
	<path style="fill:none;stroke:red;stroke-width:1px;stroke-linecap:butt;stroke-linejoin:miter;stroke-opacity:1" d="M 814.315,732.557 823.399,705.304 z" id="boundary" inkscape:connector-curvature="0" />
	<path style="fill:none;stroke:red;stroke-width:1px;stroke-linecap:butt;stroke-linejoin:miter;stroke-opacity:1" d="M 814.315,750.725 814.315,732.557 z" id="boundary" inkscape:connector-curvature="0" />
	<path style="fill:none;stroke:red;stroke-width:1px;stroke-linecap:butt;stroke-linejoin:miter;stroke-opacity:1" d="M 823.399,705.304 817.949,687.136 z" id="boundary" inkscape:connector-curvature="0" />
	<path style="fill:none;stroke:red;stroke-width:1px;stroke-linecap:butt;stroke-linejoin:miter;stroke-opacity:1" d="M 985.099,534.52 996,549.055 z" id="boundary" inkscape:connector-curvature="0" />
	<path style="fill:none;stroke:red;stroke-width:1px;stroke-linecap:butt;stroke-linejoin:miter;stroke-opacity:1" d="M 996,549.055 990.549,567.223 z" id="boundary" inkscape:connector-curvature="0" />
	<circle cx="4" cy="118.462" r="4" fill="#0" id="circle0"/>
	<circle cx="4" cy="136.63" r="4" fill="#0" id="circle1"/>
	<circle cx="4" cy="154.799" r="4" fill="#0" id="circle2"/>
	<circle cx="13.0842" cy="171.15" r="4" fill="#0" id="circle3"/>
	<circle cx="22.1685" cy="109.377" r="4" fill="#0" id="circle4"/>
	<circle cx="25.8022" cy="185.685" r="4" fill="#0" id="circle5"/>
	<circle cx="40.337" cy="103.927" r="4" fill="#0" id="circle6"/>
	<circle cx="40.337" cy="196.586" r="4" fill="#0" id="circle7"/>
	<circle cx="51.2381" cy="211.121" r="4" fill="#0" id="circle8"/>
	<circle cx="58.5055" cy="103.927" r="4" fill="#0" id="circle9"/>
	<circle cx="69.4066" cy="218.388" r="4" fill="#0" id="circle10"/>
	<circle cx="74.8571" cy="113.011" r="4" fill="#0" id="circle11"/>
	<circle cx="82.1245" cy="232.923" r="4" fill="#0" id="circle12"/>
	<circle cx="91.2088" cy="103.927" r="4" fill="#0" id="circle13"/>
	<circle cx="96.6593" cy="245.641" r="4" fill="#0" id="circle14"/>
	<circle cx="107.56" cy="113.011" r="4" fill="#0" id="circle15"/>
	<circle cx="109.377" cy="260.176" r="4" fill="#0" id="circle16"/>
	<circle cx="123.912" cy="272.894" r="4" fill="#0" id="circle17"/>
	<circle cx="125.729" cy="113.011" r="4" fill="#0" id="circle18"/>
	<circle cx="136.63" cy="287.429" r="4" fill="#0" id="circle19"/>
	<circle cx="140.264" cy="73.0403" r="4" fill="#0" id="circle20"/>
	<circle cx="140.264" cy="91.2088" r="4" fill="#0" id="circle21"/>
	<circle cx="140.264" cy="305.597" r="4" fill="#0" id="circle22"/>
	<circle cx="140.264" cy="323.766" r="4" fill="#0" id="circle23"/>
	<circle cx="140.264" cy="354.652" r="4" fill="#0" id="circle24"/>
	<circle cx="140.264" cy="372.821" r="4" fill="#0" id="circle25"/>
	<circle cx="140.264" cy="390.989" r="4" fill="#0" id="circle26"/>
	<circle cx="149.348" cy="9.45055" r="4" fill="#0" id="circle27"/>
	<circle cx="149.348" cy="27.619" r="4" fill="#0" id="circle28"/>
	<circle cx="149.348" cy="45.7875" r="4" fill="#0" id="circle29"/>
	<circle cx="149.348" cy="407.341" r="4" fill="#0" id="circle30"/>
	<circle cx="149.348" cy="425.509" r="4" fill="#0" id="circle31"/>
	<circle cx="149.348" cy="443.678" r="4" fill="#0" id="circle32"/>
	<circle cx="149.348" cy="461.846" r="4" fill="#0" id="circle33"/>
	<circle cx="158.432" cy="478.198" r="4" fill="#0" id="circle34"/>
	<circle cx="167.516" cy="4" r="4" fill="#0" id="circle35"/>
	<circle cx="176.601" cy="478.198" r="4" fill="#0" id="circle36"/>
	<circle cx="185.685" cy="4" r="4" fill="#0" id="circle37"/>
	<circle cx="194.769" cy="478.198" r="4" fill="#0" id="circle38"/>
	<circle cx="202.037" cy="13.0842" r="4" fill="#0" id="circle39"/>
	<circle cx="212.938" cy="472.747" r="4" fill="#0" id="circle40"/>
	<circle cx="220.205" cy="13.0842" r="4" fill="#0" id="circle41"/>
	<circle cx="231.106" cy="469.114" r="4" fill="#0" id="circle42"/>
	<circle cx="238.374" cy="13.0842" r="4" fill="#0" id="circle43"/>
	<circle cx="249.275" cy="469.114" r="4" fill="#0" id="circle44"/>
	<circle cx="256.542" cy="14.9011" r="4" fill="#0" id="circle45"/>
	<circle cx="260.176" cy="33.0696" r="4" fill="#0" id="circle46"/>
	<circle cx="260.176" cy="51.2381" r="4" fill="#0" id="circle47"/>
	<circle cx="260.176" cy="69.4066" r="4" fill="#0" id="circle48"/>
	<circle cx="263.81" cy="87.5751" r="4" fill="#0" id="circle49"/>
	<circle cx="267.443" cy="463.663" r="4" fill="#0" id="circle50"/>
	<circle cx="269.26" cy="105.744" r="4" fill="#0" id="circle51"/>
	<circle cx="269.26" cy="123.912" r="4" fill="#0" id="circle52"/>
	<circle cx="269.26" cy="142.081" r="4" fill="#0" id="circle53"/>
	<circle cx="269.26" cy="387.355" r="4" fill="#0" id="circle54"/>
	<circle cx="269.26" cy="405.524" r="4" fill="#0" id="circle55"/>
	<circle cx="269.26" cy="423.692" r="4" fill="#0" id="circle56"/>
	<circle cx="269.26" cy="441.861" r="4" fill="#0" id="circle57"/>
	<circle cx="283.795" cy="152.982" r="4" fill="#0" id="circle58"/>
	<circle cx="285.612" cy="396.44" r="4" fill="#0" id="circle59"/>
	<circle cx="301.963" cy="160.249" r="4" fill="#0" id="circle60"/>
	<circle cx="301.963" cy="405.524" r="4" fill="#0" id="circle61"/>
	<circle cx="314.681" cy="420.059" r="4" fill="#0" id="circle62"/>
	<circle cx="320.132" cy="167.516" r="4" fill="#0" id="circle63"/>
	<circle cx="332.85" cy="427.326" r="4" fill="#0" id="circle64"/>
	<circle cx="336.484" cy="176.601" r="4" fill="#0" id="circle65"/>
	<circle cx="349.201" cy="436.41" r="4" fill="#0" id="circle66"/>
	<circle cx="352.835" cy="185.685" r="4" fill="#0" id="circle67"/>
	<circle cx="363.736" cy="449.128" r="4" fill="#0" id="circle68"/>
	<circle cx="369.187" cy="194.769" r="4" fill="#0" id="circle69"/>
	<circle cx="380.088" cy="458.212" r="4" fill="#0" id="circle70"/>
	<circle cx="385.538" cy="203.853" r="4" fill="#0" id="circle71"/>
	<circle cx="398.256" cy="465.48" r="4" fill="#0" id="circle72"/>
	<circle cx="400.073" cy="214.755" r="4" fill="#0" id="circle73"/>
	<circle cx="403.707" cy="483.648" r="4" fill="#0" id="circle74"/>
	<circle cx="403.707" cy="501.817" r="4" fill="#0" id="circle75"/>
	<circle cx="403.707" cy="519.985" r="4" fill="#0" id="circle76"/>
	<circle cx="403.707" cy="538.154" r="4" fill="#0" id="circle77"/>
	<circle cx="405.524" cy="556.322" r="4" fill="#0" id="circle78"/>
	<circle cx="418.242" cy="222.022" r="4" fill="#0" id="circle79"/>
	<circle cx="420.059" cy="569.04" r="4" fill="#0" id="circle80"/>
	<circle cx="434.593" cy="231.106" r="4" fill="#0" id="circle81"/>
	<circle cx="436.41" cy="578.125" r="4" fill="#0" id="circle82"/>
	<circle cx="452.762" cy="223.839" r="4" fill="#0" id="circle83"/>
	<circle cx="452.762" cy="569.04" r="4" fill="#0" id="circle84"/>
	<circle cx="467.297" cy="554.505" r="4" fill="#0" id="circle85"/>
	<circle cx="470.93" cy="222.022" r="4" fill="#0" id="circle86"/>
	<circle cx="478.198" cy="532.703" r="4" fill="#0" id="circle87"/>
	<circle cx="489.099" cy="214.755" r="4" fill="#0" id="circle88"/>
	<circle cx="496.366" cy="523.619" r="4" fill="#0" id="circle89"/>
	<circle cx="507.267" cy="212.938" r="4" fill="#0" id="circle90"/>
	<circle cx="512.718" cy="532.703" r="4" fill="#0" id="circle91"/>
	<circle cx="523.619" cy="203.853" r="4" fill="#0" id="circle92"/>
	<circle cx="529.07" cy="541.788" r="4" fill="#0" id="circle93"/>
	<circle cx="541.788" cy="203.853" r="4" fill="#0" id="circle94"/>
	<circle cx="545.421" cy="550.872" r="4" fill="#0" id="circle95"/>
	<circle cx="559.956" cy="203.853" r="4" fill="#0" id="circle96"/>
	<circle cx="563.59" cy="558.139" r="4" fill="#0" id="circle97"/>
	<circle cx="576.308" cy="194.769" r="4" fill="#0" id="circle98"/>
	<circle cx="579.941" cy="567.223" r="4" fill="#0" id="circle99"/>
	<circle cx="592.659" cy="203.853" r="4" fill="#0" id="circle100"/>
	<circle cx="596.293" cy="278.344" r="4" fill="#0" id="circle101"/>
	<circle cx="596.293" cy="296.513" r="4" fill="#0" id="circle102"/>
	<circle cx="596.293" cy="314.681" r="4" fill="#0" id="circle103"/>
	<circle cx="596.293" cy="332.85" r="4" fill="#0" id="circle104"/>
	<circle cx="596.293" cy="351.018" r="4" fill="#0" id="circle105"/>
	<circle cx="598.11" cy="574.491" r="4" fill="#0" id="circle106"/>
	<circle cx="599.927" cy="369.187" r="4" fill="#0" id="circle107"/>
	<circle cx="605.377" cy="242.007" r="4" fill="#0" id="circle108"/>
	<circle cx="605.377" cy="260.176" r="4" fill="#0" id="circle109"/>
	<circle cx="609.011" cy="385.538" r="4" fill="#0" id="circle110"/>
	<circle cx="610.828" cy="205.67" r="4" fill="#0" id="circle111"/>
	<circle cx="612.645" cy="587.209" r="4" fill="#0" id="circle112"/>
	<circle cx="612.645" cy="605.377" r="4" fill="#0" id="circle113"/>
	<circle cx="612.645" cy="623.546" r="4" fill="#0" id="circle114"/>
	<circle cx="614.462" cy="223.839" r="4" fill="#0" id="circle115"/>
	<circle cx="621.729" cy="400.073" r="4" fill="#0" id="circle116"/>
	<circle cx="623.546" cy="638.081" r="4" fill="#0" id="circle117"/>
	<circle cx="632.63" cy="414.608" r="4" fill="#0" id="circle118"/>
	<circle cx="638.081" cy="650.799" r="4" fill="#0" id="circle119"/>
	<circle cx="641.714" cy="430.96" r="4" fill="#0" id="circle120"/>
	<circle cx="656.249" cy="647.165" r="4" fill="#0" id="circle121"/>
	<circle cx="659.883" cy="436.41" r="4" fill="#0" id="circle122"/>
	<circle cx="668.967" cy="452.762" r="4" fill="#0" id="circle123"/>
	<circle cx="668.967" cy="632.63" r="4" fill="#0" id="circle124"/>
	<circle cx="679.868" cy="467.297" r="4" fill="#0" id="circle125"/>
	<circle cx="683.502" cy="619.912" r="4" fill="#0" id="circle126"/>
	<circle cx="694.403" cy="480.015" r="4" fill="#0" id="circle127"/>
	<circle cx="701.67" cy="614.462" r="4" fill="#0" id="circle128"/>
	<circle cx="705.304" cy="494.549" r="4" fill="#0" id="circle129"/>
	<circle cx="718.022" cy="623.546" r="4" fill="#0" id="circle130"/>
	<circle cx="719.839" cy="505.451" r="4" fill="#0" id="circle131"/>
	<circle cx="727.106" cy="639.897" r="4" fill="#0" id="circle132"/>
	<circle cx="734.374" cy="658.066" r="4" fill="#0" id="circle133"/>
	<circle cx="736.19" cy="514.535" r="4" fill="#0" id="circle134"/>
	<circle cx="739.824" cy="676.234" r="4" fill="#0" id="circle135"/>
	<circle cx="748.908" cy="692.586" r="4" fill="#0" id="circle136"/>
	<circle cx="748.908" cy="710.755" r="4" fill="#0" id="circle137"/>
	<circle cx="750.725" cy="527.253" r="4" fill="#0" id="circle138"/>
	<circle cx="757.993" cy="727.106" r="4" fill="#0" id="circle139"/>
	<circle cx="757.993" cy="745.275" r="4" fill="#0" id="circle140"/>
	<circle cx="767.077" cy="536.337" r="4" fill="#0" id="circle141"/>
	<circle cx="767.077" cy="761.626" r="4" fill="#0" id="circle142"/>
	<circle cx="776.161" cy="777.978" r="4" fill="#0" id="circle143"/>
	<circle cx="781.612" cy="796.147" r="4" fill="#0" id="circle144"/>
	<circle cx="785.245" cy="539.971" r="4" fill="#0" id="circle145"/>
	<circle cx="799.78" cy="803.414" r="4" fill="#0" id="circle146"/>
	<circle cx="803.414" cy="536.337" r="4" fill="#0" id="circle147"/>
	<circle cx="808.864" cy="785.245" r="4" fill="#0" id="circle148"/>
	<circle cx="814.315" cy="668.967" r="4" fill="#0" id="circle149"/>
	<circle cx="814.315" cy="732.557" r="4" fill="#0" id="circle150"/>
	<circle cx="814.315" cy="750.725" r="4" fill="#0" id="circle151"/>
	<circle cx="817.949" cy="687.136" r="4" fill="#0" id="circle152"/>
	<circle cx="821.582" cy="530.886" r="4" fill="#0" id="circle153"/>
	<circle cx="823.399" cy="641.714" r="4" fill="#0" id="circle154"/>
	<circle cx="823.399" cy="705.304" r="4" fill="#0" id="circle155"/>
	<circle cx="832.484" cy="623.546" r="4" fill="#0" id="circle156"/>
	<circle cx="839.751" cy="530.886" r="4" fill="#0" id="circle157"/>
	<circle cx="848.835" cy="614.462" r="4" fill="#0" id="circle158"/>
	<circle cx="857.919" cy="530.886" r="4" fill="#0" id="circle159"/>
	<circle cx="865.187" cy="605.377" r="4" fill="#0" id="circle160"/>
	<circle cx="876.088" cy="530.886" r="4" fill="#0" id="circle161"/>
	<circle cx="883.355" cy="601.744" r="4" fill="#0" id="circle162"/>
	<circle cx="894.256" cy="530.886" r="4" fill="#0" id="circle163"/>
	<circle cx="901.524" cy="596.293" r="4" fill="#0" id="circle164"/>
	<circle cx="912.425" cy="530.886" r="4" fill="#0" id="circle165"/>
	<circle cx="919.692" cy="592.659" r="4" fill="#0" id="circle166"/>
	<circle cx="930.593" cy="530.886" r="4" fill="#0" id="circle167"/>
	<circle cx="937.861" cy="587.209" r="4" fill="#0" id="circle168"/>
	<circle cx="948.762" cy="530.886" r="4" fill="#0" id="circle169"/>
	<circle cx="954.212" cy="578.125" r="4" fill="#0" id="circle170"/>
	<circle cx="966.93" cy="530.886" r="4" fill="#0" id="circle171"/>
	<circle cx="972.381" cy="576.308" r="4" fill="#0" id="circle172"/>
	<circle cx="985.099" cy="534.52" r="4" fill="#0" id="circle173"/>
	<circle cx="990.549" cy="567.223" r="4" fill="#0" id="circle174"/>
	<circle cx="996" cy="549.055" r="4" fill="#0" id="circle175"/>
	</g>
</svg>