<?xml version="1.0" encoding="UTF-8" standalone="no"?>
<!-- Created with CurveBenchmark -->
<svg
	xmlns:dc="http://purl.org/dc/elements/1.1/"
	xmlns:cc="http://creativecommons.org/ns#"
	xmlns:rdf="http://www.w3.org/1999/02/22-rdf-syntax-ns#"
	xmlns:svg="http://www.w3.org/2000/svg"
	xmlns="http://www.w3.org/2000/svg"
	xmlns:sodipodi="http://sodipodi.sourceforge.net/DTD/sodipodi-0.dtd"
	xmlns:inkscape="http://www.inkscape.org/namespaces/inkscape"
	width="1000"
	height="1000"
	id="svg2"
	version="1.1"
	sodipodi:docname="manifold/ccrust-brick-08.png.txt">
<defs
	id="defs4" />
<metadata
	id="metadata7">
	<rdf:RDF>
		<cc:Work
			rdf:about="">
			<dc:format>image/svg+xml</dc:format>
			<dc:type
				rdf:resource="http://purl.org/dc/dcmitype/StillImage" />
			<dc:title></dc:title>
		</cc:Work>
	</rdf:RDF>
</metadata>
<g
	inkscape:label="Layer 1"
	inkscape:groupmode="layer"
	id="layer1">
	<path style="fill:none;stroke:red;stroke-width:1px;stroke-linecap:butt;stroke-linejoin:miter;stroke-opacity:1" d="M 112.5,13.6875 122.188,13.6875 z" id="boundary" inkscape:connector-curvature="0" />
	<path style="fill:none;stroke:red;stroke-width:1px;stroke-linecap:butt;stroke-linejoin:miter;stroke-opacity:1" d="M 103.781,18.5312 112.5,13.6875 z" id="boundary" inkscape:connector-curvature="0" />
	<path style="fill:none;stroke:red;stroke-width:1px;stroke-linecap:butt;stroke-linejoin:miter;stroke-opacity:1" d="M 131.875,13.6875 122.188,13.6875 z" id="boundary" inkscape:connector-curvature="0" />
	<path style="fill:none;stroke:red;stroke-width:1px;stroke-linecap:butt;stroke-linejoin:miter;stroke-opacity:1" d="M 91.1875,35.9688 91.1875,45.6562 z" id="boundary" inkscape:connector-curvature="0" />
	<path style="fill:none;stroke:red;stroke-width:1px;stroke-linecap:butt;stroke-linejoin:miter;stroke-opacity:1" d="M 91.1875,35.9688 96.0312,26.2812 z" id="boundary" inkscape:connector-curvature="0" />
	<path style="fill:none;stroke:red;stroke-width:1px;stroke-linecap:butt;stroke-linejoin:miter;stroke-opacity:1" d="M 96.0312,26.2812 103.781,18.5312 z" id="boundary" inkscape:connector-curvature="0" />
	<path style="fill:none;stroke:red;stroke-width:1px;stroke-linecap:butt;stroke-linejoin:miter;stroke-opacity:1" d="M 91.1875,55.3438 91.1875,45.6562 z" id="boundary" inkscape:connector-curvature="0" />
	<path style="fill:none;stroke:red;stroke-width:1px;stroke-linecap:butt;stroke-linejoin:miter;stroke-opacity:1" d="M 180.312,8.84375 190,8.84375 z" id="boundary" inkscape:connector-curvature="0" />
	<path style="fill:none;stroke:red;stroke-width:1px;stroke-linecap:butt;stroke-linejoin:miter;stroke-opacity:1" d="M 199.688,4.96875 190,8.84375 z" id="boundary" inkscape:connector-curvature="0" />
	<path style="fill:none;stroke:red;stroke-width:1px;stroke-linecap:butt;stroke-linejoin:miter;stroke-opacity:1" d="M 199.688,4.96875 209.375,4 z" id="boundary" inkscape:connector-curvature="0" />
	<path style="fill:none;stroke:red;stroke-width:1px;stroke-linecap:butt;stroke-linejoin:miter;stroke-opacity:1" d="M 180.312,8.84375 170.625,9.8125 z" id="boundary" inkscape:connector-curvature="0" />
	<path style="fill:none;stroke:red;stroke-width:1px;stroke-linecap:butt;stroke-linejoin:miter;stroke-opacity:1" d="M 131.875,13.6875 141.562,13.6875 z" id="boundary" inkscape:connector-curvature="0" />
	<path style="fill:none;stroke:red;stroke-width:1px;stroke-linecap:butt;stroke-linejoin:miter;stroke-opacity:1" d="M 151.25,13.6875 141.562,13.6875 z" id="boundary" inkscape:connector-curvature="0" />
	<path style="fill:none;stroke:red;stroke-width:1px;stroke-linecap:butt;stroke-linejoin:miter;stroke-opacity:1" d="M 160.938,13.6875 170.625,9.8125 z" id="boundary" inkscape:connector-curvature="0" />
	<path style="fill:none;stroke:red;stroke-width:1px;stroke-linecap:butt;stroke-linejoin:miter;stroke-opacity:1" d="M 160.938,13.6875 151.25,13.6875 z" id="boundary" inkscape:connector-curvature="0" />
	<path style="fill:none;stroke:red;stroke-width:1px;stroke-linecap:butt;stroke-linejoin:miter;stroke-opacity:1" d="M 50.5,154.156 58.25,146.406 z" id="boundary" inkscape:connector-curvature="0" />
	<path style="fill:none;stroke:red;stroke-width:1px;stroke-linecap:butt;stroke-linejoin:miter;stroke-opacity:1" d="M 58.25,146.406 67.9375,141.562 z" id="boundary" inkscape:connector-curvature="0" />
	<path style="fill:none;stroke:red;stroke-width:1px;stroke-linecap:butt;stroke-linejoin:miter;stroke-opacity:1" d="M 50.5,154.156 41.7812,159 z" id="boundary" inkscape:connector-curvature="0" />
	<path style="fill:none;stroke:red;stroke-width:1px;stroke-linecap:butt;stroke-linejoin:miter;stroke-opacity:1" d="M 67.9375,141.562 75.6875,134.781 z" id="boundary" inkscape:connector-curvature="0" />
	<path style="fill:none;stroke:red;stroke-width:1px;stroke-linecap:butt;stroke-linejoin:miter;stroke-opacity:1" d="M 19.5,180.312 27.25,173.531 z" id="boundary" inkscape:connector-curvature="0" />
	<path style="fill:none;stroke:red;stroke-width:1px;stroke-linecap:butt;stroke-linejoin:miter;stroke-opacity:1" d="M 34.0312,165.781 27.25,173.531 z" id="boundary" inkscape:connector-curvature="0" />
	<path style="fill:none;stroke:red;stroke-width:1px;stroke-linecap:butt;stroke-linejoin:miter;stroke-opacity:1" d="M 34.0312,165.781 41.7812,159 z" id="boundary" inkscape:connector-curvature="0" />
	<path style="fill:none;stroke:red;stroke-width:1px;stroke-linecap:butt;stroke-linejoin:miter;stroke-opacity:1" d="M 91.1875,65.0312 91.1875,74.7188 z" id="boundary" inkscape:connector-curvature="0" />
	<path style="fill:none;stroke:red;stroke-width:1px;stroke-linecap:butt;stroke-linejoin:miter;stroke-opacity:1" d="M 91.1875,65.0312 91.1875,55.3438 z" id="boundary" inkscape:connector-curvature="0" />
	<path style="fill:none;stroke:red;stroke-width:1px;stroke-linecap:butt;stroke-linejoin:miter;stroke-opacity:1" d="M 91.1875,84.4062 91.1875,94.0938 z" id="boundary" inkscape:connector-curvature="0" />
	<path style="fill:none;stroke:red;stroke-width:1px;stroke-linecap:butt;stroke-linejoin:miter;stroke-opacity:1" d="M 91.1875,84.4062 91.1875,74.7188 z" id="boundary" inkscape:connector-curvature="0" />
	<path style="fill:none;stroke:red;stroke-width:1px;stroke-linecap:butt;stroke-linejoin:miter;stroke-opacity:1" d="M 82.4688,127.031 90.2188,120.25 z" id="boundary" inkscape:connector-curvature="0" />
	<path style="fill:none;stroke:red;stroke-width:1px;stroke-linecap:butt;stroke-linejoin:miter;stroke-opacity:1" d="M 75.6875,134.781 82.4688,127.031 z" id="boundary" inkscape:connector-curvature="0" />
	<path style="fill:none;stroke:red;stroke-width:1px;stroke-linecap:butt;stroke-linejoin:miter;stroke-opacity:1" d="M 91.1875,103.781 90.2188,120.25 z" id="boundary" inkscape:connector-curvature="0" />
	<path style="fill:none;stroke:red;stroke-width:1px;stroke-linecap:butt;stroke-linejoin:miter;stroke-opacity:1" d="M 91.1875,94.0938 91.1875,103.781 z" id="boundary" inkscape:connector-curvature="0" />
	<path style="fill:none;stroke:red;stroke-width:1px;stroke-linecap:butt;stroke-linejoin:miter;stroke-opacity:1" d="M 209.375,4 219.062,4 z" id="boundary" inkscape:connector-curvature="0" />
	<path style="fill:none;stroke:red;stroke-width:1px;stroke-linecap:butt;stroke-linejoin:miter;stroke-opacity:1" d="M 19.5,180.312 11.75,188.062 z" id="boundary" inkscape:connector-curvature="0" />
	<path style="fill:none;stroke:red;stroke-width:1px;stroke-linecap:butt;stroke-linejoin:miter;stroke-opacity:1" d="M 219.062,4 228.75,4 z" id="boundary" inkscape:connector-curvature="0" />
	<path style="fill:none;stroke:red;stroke-width:1px;stroke-linecap:butt;stroke-linejoin:miter;stroke-opacity:1" d="M 238.438,4 247.156,8.84375 z" id="boundary" inkscape:connector-curvature="0" />
	<path style="fill:none;stroke:red;stroke-width:1px;stroke-linecap:butt;stroke-linejoin:miter;stroke-opacity:1" d="M 228.75,4 238.438,4 z" id="boundary" inkscape:connector-curvature="0" />
	<path style="fill:none;stroke:red;stroke-width:1px;stroke-linecap:butt;stroke-linejoin:miter;stroke-opacity:1" d="M 247.156,8.84375 254.906,14.6562 z" id="boundary" inkscape:connector-curvature="0" />
	<path style="fill:none;stroke:red;stroke-width:1px;stroke-linecap:butt;stroke-linejoin:miter;stroke-opacity:1" d="M 254.906,14.6562 261.688,22.4062 z" id="boundary" inkscape:connector-curvature="0" />
	<path style="fill:none;stroke:red;stroke-width:1px;stroke-linecap:butt;stroke-linejoin:miter;stroke-opacity:1" d="M 271.375,26.2812 261.688,22.4062 z" id="boundary" inkscape:connector-curvature="0" />
	<path style="fill:none;stroke:red;stroke-width:1px;stroke-linecap:butt;stroke-linejoin:miter;stroke-opacity:1" d="M 271.375,26.2812 280.094,31.125 z" id="boundary" inkscape:connector-curvature="0" />
	<path style="fill:none;stroke:red;stroke-width:1px;stroke-linecap:butt;stroke-linejoin:miter;stroke-opacity:1" d="M 289.781,35 280.094,31.125 z" id="boundary" inkscape:connector-curvature="0" />
	<path style="fill:none;stroke:red;stroke-width:1px;stroke-linecap:butt;stroke-linejoin:miter;stroke-opacity:1" d="M 289.781,35 299.469,37.9062 z" id="boundary" inkscape:connector-curvature="0" />
	<path style="fill:none;stroke:red;stroke-width:1px;stroke-linecap:butt;stroke-linejoin:miter;stroke-opacity:1" d="M 299.469,37.9062 308.188,42.75 z" id="boundary" inkscape:connector-curvature="0" />
	<path style="fill:none;stroke:red;stroke-width:1px;stroke-linecap:butt;stroke-linejoin:miter;stroke-opacity:1" d="M 316.906,47.5938 308.188,42.75 z" id="boundary" inkscape:connector-curvature="0" />
	<path style="fill:none;stroke:red;stroke-width:1px;stroke-linecap:butt;stroke-linejoin:miter;stroke-opacity:1" d="M 326.594,47.5938 316.906,47.5938 z" id="boundary" inkscape:connector-curvature="0" />
	<path style="fill:none;stroke:red;stroke-width:1px;stroke-linecap:butt;stroke-linejoin:miter;stroke-opacity:1" d="M 326.594,47.5938 335.312,52.4375 z" id="boundary" inkscape:connector-curvature="0" />
	<path style="fill:none;stroke:red;stroke-width:1px;stroke-linecap:butt;stroke-linejoin:miter;stroke-opacity:1" d="M 345,52.4375 335.312,52.4375 z" id="boundary" inkscape:connector-curvature="0" />
	<path style="fill:none;stroke:red;stroke-width:1px;stroke-linecap:butt;stroke-linejoin:miter;stroke-opacity:1" d="M 345,52.4375 354.688,52.4375 z" id="boundary" inkscape:connector-curvature="0" />
	<path style="fill:none;stroke:red;stroke-width:1px;stroke-linecap:butt;stroke-linejoin:miter;stroke-opacity:1" d="M 354.688,52.4375 363.406,57.2812 z" id="boundary" inkscape:connector-curvature="0" />
	<path style="fill:none;stroke:red;stroke-width:1px;stroke-linecap:butt;stroke-linejoin:miter;stroke-opacity:1" d="M 363.406,57.2812 373.094,57.2812 z" id="boundary" inkscape:connector-curvature="0" />
	<path style="fill:none;stroke:red;stroke-width:1px;stroke-linecap:butt;stroke-linejoin:miter;stroke-opacity:1" d="M 373.094,57.2812 382.781,60.1875 z" id="boundary" inkscape:connector-curvature="0" />
	<path style="fill:none;stroke:red;stroke-width:1px;stroke-linecap:butt;stroke-linejoin:miter;stroke-opacity:1" d="M 402.156,62.125 392.469,62.125 z" id="boundary" inkscape:connector-curvature="0" />
	<path style="fill:none;stroke:red;stroke-width:1px;stroke-linecap:butt;stroke-linejoin:miter;stroke-opacity:1" d="M 392.469,62.125 382.781,60.1875 z" id="boundary" inkscape:connector-curvature="0" />
	<path style="fill:none;stroke:red;stroke-width:1px;stroke-linecap:butt;stroke-linejoin:miter;stroke-opacity:1" d="M 411.844,62.125 402.156,62.125 z" id="boundary" inkscape:connector-curvature="0" />
	<path style="fill:none;stroke:red;stroke-width:1px;stroke-linecap:butt;stroke-linejoin:miter;stroke-opacity:1" d="M 411.844,62.125 421.531,62.125 z" id="boundary" inkscape:connector-curvature="0" />
	<path style="fill:none;stroke:red;stroke-width:1px;stroke-linecap:butt;stroke-linejoin:miter;stroke-opacity:1" d="M 431.219,62.125 421.531,62.125 z" id="boundary" inkscape:connector-curvature="0" />
	<path style="fill:none;stroke:red;stroke-width:1px;stroke-linecap:butt;stroke-linejoin:miter;stroke-opacity:1" d="M 431.219,62.125 440.906,62.125 z" id="boundary" inkscape:connector-curvature="0" />
	<path style="fill:none;stroke:red;stroke-width:1px;stroke-linecap:butt;stroke-linejoin:miter;stroke-opacity:1" d="M 450.594,62.125 460.281,62.125 z" id="boundary" inkscape:connector-curvature="0" />
	<path style="fill:none;stroke:red;stroke-width:1px;stroke-linecap:butt;stroke-linejoin:miter;stroke-opacity:1" d="M 450.594,62.125 440.906,62.125 z" id="boundary" inkscape:connector-curvature="0" />
	<path style="fill:none;stroke:red;stroke-width:1px;stroke-linecap:butt;stroke-linejoin:miter;stroke-opacity:1" d="M 469.969,62.125 479.656,62.125 z" id="boundary" inkscape:connector-curvature="0" />
	<path style="fill:none;stroke:red;stroke-width:1px;stroke-linecap:butt;stroke-linejoin:miter;stroke-opacity:1" d="M 489.344,62.125 499.031,62.125 z" id="boundary" inkscape:connector-curvature="0" />
	<path style="fill:none;stroke:red;stroke-width:1px;stroke-linecap:butt;stroke-linejoin:miter;stroke-opacity:1" d="M 489.344,62.125 479.656,62.125 z" id="boundary" inkscape:connector-curvature="0" />
	<path style="fill:none;stroke:red;stroke-width:1px;stroke-linecap:butt;stroke-linejoin:miter;stroke-opacity:1" d="M 469.969,62.125 460.281,62.125 z" id="boundary" inkscape:connector-curvature="0" />
	<path style="fill:none;stroke:red;stroke-width:1px;stroke-linecap:butt;stroke-linejoin:miter;stroke-opacity:1" d="M 508.719,62.125 499.031,62.125 z" id="boundary" inkscape:connector-curvature="0" />
	<path style="fill:none;stroke:red;stroke-width:1px;stroke-linecap:butt;stroke-linejoin:miter;stroke-opacity:1" d="M 518.406,62.125 508.719,62.125 z" id="boundary" inkscape:connector-curvature="0" />
	<path style="fill:none;stroke:red;stroke-width:1px;stroke-linecap:butt;stroke-linejoin:miter;stroke-opacity:1" d="M 4,205.5 4,195.812 z" id="boundary" inkscape:connector-curvature="0" />
	<path style="fill:none;stroke:red;stroke-width:1px;stroke-linecap:butt;stroke-linejoin:miter;stroke-opacity:1" d="M 4,195.812 11.75,188.062 z" id="boundary" inkscape:connector-curvature="0" />
	<path style="fill:none;stroke:red;stroke-width:1px;stroke-linecap:butt;stroke-linejoin:miter;stroke-opacity:1" d="M 4,215.188 4,205.5 z" id="boundary" inkscape:connector-curvature="0" />
	<path style="fill:none;stroke:red;stroke-width:1px;stroke-linecap:butt;stroke-linejoin:miter;stroke-opacity:1" d="M 4,234.562 4,224.875 z" id="boundary" inkscape:connector-curvature="0" />
	<path style="fill:none;stroke:red;stroke-width:1px;stroke-linecap:butt;stroke-linejoin:miter;stroke-opacity:1" d="M 4,253.938 4,244.25 z" id="boundary" inkscape:connector-curvature="0" />
	<path style="fill:none;stroke:red;stroke-width:1px;stroke-linecap:butt;stroke-linejoin:miter;stroke-opacity:1" d="M 8.84375,262.656 4,253.938 z" id="boundary" inkscape:connector-curvature="0" />
	<path style="fill:none;stroke:red;stroke-width:1px;stroke-linecap:butt;stroke-linejoin:miter;stroke-opacity:1" d="M 4,244.25 4,234.562 z" id="boundary" inkscape:connector-curvature="0" />
	<path style="fill:none;stroke:red;stroke-width:1px;stroke-linecap:butt;stroke-linejoin:miter;stroke-opacity:1" d="M 4,224.875 4,215.188 z" id="boundary" inkscape:connector-curvature="0" />
	<path style="fill:none;stroke:red;stroke-width:1px;stroke-linecap:butt;stroke-linejoin:miter;stroke-opacity:1" d="M 15.625,270.406 25.3125,271.375 z" id="boundary" inkscape:connector-curvature="0" />
	<path style="fill:none;stroke:red;stroke-width:1px;stroke-linecap:butt;stroke-linejoin:miter;stroke-opacity:1" d="M 15.625,270.406 8.84375,262.656 z" id="boundary" inkscape:connector-curvature="0" />
	<path style="fill:none;stroke:red;stroke-width:1px;stroke-linecap:butt;stroke-linejoin:miter;stroke-opacity:1" d="M 35,271.375 25.3125,271.375 z" id="boundary" inkscape:connector-curvature="0" />
	<path style="fill:none;stroke:red;stroke-width:1px;stroke-linecap:butt;stroke-linejoin:miter;stroke-opacity:1" d="M 35,271.375 44.6875,271.375 z" id="boundary" inkscape:connector-curvature="0" />
	<path style="fill:none;stroke:red;stroke-width:1px;stroke-linecap:butt;stroke-linejoin:miter;stroke-opacity:1" d="M 54.375,271.375 64.0625,271.375 z" id="boundary" inkscape:connector-curvature="0" />
	<path style="fill:none;stroke:red;stroke-width:1px;stroke-linecap:butt;stroke-linejoin:miter;stroke-opacity:1" d="M 54.375,271.375 44.6875,271.375 z" id="boundary" inkscape:connector-curvature="0" />
	<path style="fill:none;stroke:red;stroke-width:1px;stroke-linecap:butt;stroke-linejoin:miter;stroke-opacity:1" d="M 73.75,271.375 83.4375,271.375 z" id="boundary" inkscape:connector-curvature="0" />
	<path style="fill:none;stroke:red;stroke-width:1px;stroke-linecap:butt;stroke-linejoin:miter;stroke-opacity:1" d="M 73.75,271.375 64.0625,271.375 z" id="boundary" inkscape:connector-curvature="0" />
	<path style="fill:none;stroke:red;stroke-width:1px;stroke-linecap:butt;stroke-linejoin:miter;stroke-opacity:1" d="M 93.125,271.375 102.812,271.375 z" id="boundary" inkscape:connector-curvature="0" />
	<path style="fill:none;stroke:red;stroke-width:1px;stroke-linecap:butt;stroke-linejoin:miter;stroke-opacity:1" d="M 93.125,271.375 83.4375,271.375 z" id="boundary" inkscape:connector-curvature="0" />
	<path style="fill:none;stroke:red;stroke-width:1px;stroke-linecap:butt;stroke-linejoin:miter;stroke-opacity:1" d="M 112.5,271.375 122.188,271.375 z" id="boundary" inkscape:connector-curvature="0" />
	<path style="fill:none;stroke:red;stroke-width:1px;stroke-linecap:butt;stroke-linejoin:miter;stroke-opacity:1" d="M 112.5,271.375 102.812,271.375 z" id="boundary" inkscape:connector-curvature="0" />
	<path style="fill:none;stroke:red;stroke-width:1px;stroke-linecap:butt;stroke-linejoin:miter;stroke-opacity:1" d="M 131.875,271.375 141.562,271.375 z" id="boundary" inkscape:connector-curvature="0" />
	<path style="fill:none;stroke:red;stroke-width:1px;stroke-linecap:butt;stroke-linejoin:miter;stroke-opacity:1" d="M 131.875,271.375 122.188,271.375 z" id="boundary" inkscape:connector-curvature="0" />
	<path style="fill:none;stroke:red;stroke-width:1px;stroke-linecap:butt;stroke-linejoin:miter;stroke-opacity:1" d="M 151.25,271.375 160.938,271.375 z" id="boundary" inkscape:connector-curvature="0" />
	<path style="fill:none;stroke:red;stroke-width:1px;stroke-linecap:butt;stroke-linejoin:miter;stroke-opacity:1" d="M 151.25,271.375 141.562,271.375 z" id="boundary" inkscape:connector-curvature="0" />
	<path style="fill:none;stroke:red;stroke-width:1px;stroke-linecap:butt;stroke-linejoin:miter;stroke-opacity:1" d="M 170.625,271.375 180.312,271.375 z" id="boundary" inkscape:connector-curvature="0" />
	<path style="fill:none;stroke:red;stroke-width:1px;stroke-linecap:butt;stroke-linejoin:miter;stroke-opacity:1" d="M 170.625,271.375 160.938,271.375 z" id="boundary" inkscape:connector-curvature="0" />
	<path style="fill:none;stroke:red;stroke-width:1px;stroke-linecap:butt;stroke-linejoin:miter;stroke-opacity:1" d="M 190,271.375 199.688,271.375 z" id="boundary" inkscape:connector-curvature="0" />
	<path style="fill:none;stroke:red;stroke-width:1px;stroke-linecap:butt;stroke-linejoin:miter;stroke-opacity:1" d="M 190,271.375 180.312,271.375 z" id="boundary" inkscape:connector-curvature="0" />
	<path style="fill:none;stroke:red;stroke-width:1px;stroke-linecap:butt;stroke-linejoin:miter;stroke-opacity:1" d="M 209.375,274.281 217.125,281.062 z" id="boundary" inkscape:connector-curvature="0" />
	<path style="fill:none;stroke:red;stroke-width:1px;stroke-linecap:butt;stroke-linejoin:miter;stroke-opacity:1" d="M 199.688,271.375 209.375,274.281 z" id="boundary" inkscape:connector-curvature="0" />
	<path style="fill:none;stroke:red;stroke-width:1px;stroke-linecap:butt;stroke-linejoin:miter;stroke-opacity:1" d="M 217.125,281.062 222.938,288.812 z" id="boundary" inkscape:connector-curvature="0" />
	<path style="fill:none;stroke:red;stroke-width:1px;stroke-linecap:butt;stroke-linejoin:miter;stroke-opacity:1" d="M 222.938,288.812 230.688,295.594 z" id="boundary" inkscape:connector-curvature="0" />
	<path style="fill:none;stroke:red;stroke-width:1px;stroke-linecap:butt;stroke-linejoin:miter;stroke-opacity:1" d="M 230.688,295.594 237.469,303.344 z" id="boundary" inkscape:connector-curvature="0" />
	<path style="fill:none;stroke:red;stroke-width:1px;stroke-linecap:butt;stroke-linejoin:miter;stroke-opacity:1" d="M 237.469,303.344 245.219,310.125 z" id="boundary" inkscape:connector-curvature="0" />
	<path style="fill:none;stroke:red;stroke-width:1px;stroke-linecap:butt;stroke-linejoin:miter;stroke-opacity:1" d="M 245.219,310.125 249.094,319.812 z" id="boundary" inkscape:connector-curvature="0" />
	<path style="fill:none;stroke:red;stroke-width:1px;stroke-linecap:butt;stroke-linejoin:miter;stroke-opacity:1" d="M 249.094,319.812 257.812,324.656 z" id="boundary" inkscape:connector-curvature="0" />
	<path style="fill:none;stroke:red;stroke-width:1px;stroke-linecap:butt;stroke-linejoin:miter;stroke-opacity:1" d="M 352.75,334.344 343.062,334.344 z" id="boundary" inkscape:connector-curvature="0" />
	<path style="fill:none;stroke:red;stroke-width:1px;stroke-linecap:butt;stroke-linejoin:miter;stroke-opacity:1" d="M 266.531,329.5 257.812,324.656 z" id="boundary" inkscape:connector-curvature="0" />
	<path style="fill:none;stroke:red;stroke-width:1px;stroke-linecap:butt;stroke-linejoin:miter;stroke-opacity:1" d="M 362.438,334.344 352.75,334.344 z" id="boundary" inkscape:connector-curvature="0" />
	<path style="fill:none;stroke:red;stroke-width:1px;stroke-linecap:butt;stroke-linejoin:miter;stroke-opacity:1" d="M 467.062,319.812 476.75,319.812 z" id="boundary" inkscape:connector-curvature="0" />
	<path style="fill:none;stroke:red;stroke-width:1px;stroke-linecap:butt;stroke-linejoin:miter;stroke-opacity:1" d="M 458.344,324.656 467.062,319.812 z" id="boundary" inkscape:connector-curvature="0" />
	<path style="fill:none;stroke:red;stroke-width:1px;stroke-linecap:butt;stroke-linejoin:miter;stroke-opacity:1" d="M 486.438,319.812 496.125,319.812 z" id="boundary" inkscape:connector-curvature="0" />
	<path style="fill:none;stroke:red;stroke-width:1px;stroke-linecap:butt;stroke-linejoin:miter;stroke-opacity:1" d="M 476.75,319.812 486.438,319.812 z" id="boundary" inkscape:connector-curvature="0" />
	<path style="fill:none;stroke:red;stroke-width:1px;stroke-linecap:butt;stroke-linejoin:miter;stroke-opacity:1" d="M 420.562,329.5 410.875,329.5 z" id="boundary" inkscape:connector-curvature="0" />
	<path style="fill:none;stroke:red;stroke-width:1px;stroke-linecap:butt;stroke-linejoin:miter;stroke-opacity:1" d="M 448.656,324.656 438.969,324.656 z" id="boundary" inkscape:connector-curvature="0" />
	<path style="fill:none;stroke:red;stroke-width:1px;stroke-linecap:butt;stroke-linejoin:miter;stroke-opacity:1" d="M 458.344,324.656 448.656,324.656 z" id="boundary" inkscape:connector-curvature="0" />
	<path style="fill:none;stroke:red;stroke-width:1px;stroke-linecap:butt;stroke-linejoin:miter;stroke-opacity:1" d="M 496.125,319.812 505.812,319.812 z" id="boundary" inkscape:connector-curvature="0" />
	<path style="fill:none;stroke:red;stroke-width:1px;stroke-linecap:butt;stroke-linejoin:miter;stroke-opacity:1" d="M 430.25,329.5 438.969,324.656 z" id="boundary" inkscape:connector-curvature="0" />
	<path style="fill:none;stroke:red;stroke-width:1px;stroke-linecap:butt;stroke-linejoin:miter;stroke-opacity:1" d="M 410.875,329.5 401.188,331.438 z" id="boundary" inkscape:connector-curvature="0" />
	<path style="fill:none;stroke:red;stroke-width:1px;stroke-linecap:butt;stroke-linejoin:miter;stroke-opacity:1" d="M 275.25,334.344 284.938,334.344 z" id="boundary" inkscape:connector-curvature="0" />
	<path style="fill:none;stroke:red;stroke-width:1px;stroke-linecap:butt;stroke-linejoin:miter;stroke-opacity:1" d="M 275.25,334.344 266.531,329.5 z" id="boundary" inkscape:connector-curvature="0" />
	<path style="fill:none;stroke:red;stroke-width:1px;stroke-linecap:butt;stroke-linejoin:miter;stroke-opacity:1" d="M 294.625,334.344 304.312,334.344 z" id="boundary" inkscape:connector-curvature="0" />
	<path style="fill:none;stroke:red;stroke-width:1px;stroke-linecap:butt;stroke-linejoin:miter;stroke-opacity:1" d="M 294.625,334.344 284.938,334.344 z" id="boundary" inkscape:connector-curvature="0" />
	<path style="fill:none;stroke:red;stroke-width:1px;stroke-linecap:butt;stroke-linejoin:miter;stroke-opacity:1" d="M 314,334.344 323.688,334.344 z" id="boundary" inkscape:connector-curvature="0" />
	<path style="fill:none;stroke:red;stroke-width:1px;stroke-linecap:butt;stroke-linejoin:miter;stroke-opacity:1" d="M 333.375,334.344 343.062,334.344 z" id="boundary" inkscape:connector-curvature="0" />
	<path style="fill:none;stroke:red;stroke-width:1px;stroke-linecap:butt;stroke-linejoin:miter;stroke-opacity:1" d="M 323.688,334.344 333.375,334.344 z" id="boundary" inkscape:connector-curvature="0" />
	<path style="fill:none;stroke:red;stroke-width:1px;stroke-linecap:butt;stroke-linejoin:miter;stroke-opacity:1" d="M 314,334.344 304.312,334.344 z" id="boundary" inkscape:connector-curvature="0" />
	<path style="fill:none;stroke:red;stroke-width:1px;stroke-linecap:butt;stroke-linejoin:miter;stroke-opacity:1" d="M 391.5,334.344 401.188,331.438 z" id="boundary" inkscape:connector-curvature="0" />
	<path style="fill:none;stroke:red;stroke-width:1px;stroke-linecap:butt;stroke-linejoin:miter;stroke-opacity:1" d="M 430.25,329.5 420.562,329.5 z" id="boundary" inkscape:connector-curvature="0" />
	<path style="fill:none;stroke:red;stroke-width:1px;stroke-linecap:butt;stroke-linejoin:miter;stroke-opacity:1" d="M 362.438,334.344 372.125,334.344 z" id="boundary" inkscape:connector-curvature="0" />
	<path style="fill:none;stroke:red;stroke-width:1px;stroke-linecap:butt;stroke-linejoin:miter;stroke-opacity:1" d="M 381.812,334.344 391.5,334.344 z" id="boundary" inkscape:connector-curvature="0" />
	<path style="fill:none;stroke:red;stroke-width:1px;stroke-linecap:butt;stroke-linejoin:miter;stroke-opacity:1" d="M 381.812,334.344 372.125,334.344 z" id="boundary" inkscape:connector-curvature="0" />
	<path style="fill:none;stroke:red;stroke-width:1px;stroke-linecap:butt;stroke-linejoin:miter;stroke-opacity:1" d="M 505.812,319.812 515.5,319.812 z" id="boundary" inkscape:connector-curvature="0" />
	<path style="fill:none;stroke:red;stroke-width:1px;stroke-linecap:butt;stroke-linejoin:miter;stroke-opacity:1" d="M 652.094,52.4375 642.406,52.4375 z" id="boundary" inkscape:connector-curvature="0" />
	<path style="fill:none;stroke:red;stroke-width:1px;stroke-linecap:butt;stroke-linejoin:miter;stroke-opacity:1" d="M 680.188,47.5938 670.5,47.5938 z" id="boundary" inkscape:connector-curvature="0" />
	<path style="fill:none;stroke:red;stroke-width:1px;stroke-linecap:butt;stroke-linejoin:miter;stroke-opacity:1" d="M 661.781,52.4375 670.5,47.5938 z" id="boundary" inkscape:connector-curvature="0" />
	<path style="fill:none;stroke:red;stroke-width:1px;stroke-linecap:butt;stroke-linejoin:miter;stroke-opacity:1" d="M 624,57.2812 633.688,57.2812 z" id="boundary" inkscape:connector-curvature="0" />
	<path style="fill:none;stroke:red;stroke-width:1px;stroke-linecap:butt;stroke-linejoin:miter;stroke-opacity:1" d="M 615.281,62.125 624,57.2812 z" id="boundary" inkscape:connector-curvature="0" />
	<path style="fill:none;stroke:red;stroke-width:1px;stroke-linecap:butt;stroke-linejoin:miter;stroke-opacity:1" d="M 642.406,52.4375 633.688,57.2812 z" id="boundary" inkscape:connector-curvature="0" />
	<path style="fill:none;stroke:red;stroke-width:1px;stroke-linecap:butt;stroke-linejoin:miter;stroke-opacity:1" d="M 652.094,52.4375 661.781,52.4375 z" id="boundary" inkscape:connector-curvature="0" />
	<path style="fill:none;stroke:red;stroke-width:1px;stroke-linecap:butt;stroke-linejoin:miter;stroke-opacity:1" d="M 680.188,47.5938 689.875,47.5938 z" id="boundary" inkscape:connector-curvature="0" />
	<path style="fill:none;stroke:red;stroke-width:1px;stroke-linecap:butt;stroke-linejoin:miter;stroke-opacity:1" d="M 699.562,42.75 709.25,42.75 z" id="boundary" inkscape:connector-curvature="0" />
	<path style="fill:none;stroke:red;stroke-width:1px;stroke-linecap:butt;stroke-linejoin:miter;stroke-opacity:1" d="M 689.875,47.5938 699.562,42.75 z" id="boundary" inkscape:connector-curvature="0" />
	<path style="fill:none;stroke:red;stroke-width:1px;stroke-linecap:butt;stroke-linejoin:miter;stroke-opacity:1" d="M 718.938,42.75 728.625,42.75 z" id="boundary" inkscape:connector-curvature="0" />
	<path style="fill:none;stroke:red;stroke-width:1px;stroke-linecap:butt;stroke-linejoin:miter;stroke-opacity:1" d="M 718.938,42.75 709.25,42.75 z" id="boundary" inkscape:connector-curvature="0" />
	<path style="fill:none;stroke:red;stroke-width:1px;stroke-linecap:butt;stroke-linejoin:miter;stroke-opacity:1" d="M 728.625,42.75 738.312,42.75 z" id="boundary" inkscape:connector-curvature="0" />
	<path style="fill:none;stroke:red;stroke-width:1px;stroke-linecap:butt;stroke-linejoin:miter;stroke-opacity:1" d="M 738.312,42.75 747.031,47.5938 z" id="boundary" inkscape:connector-curvature="0" />
	<path style="fill:none;stroke:red;stroke-width:1px;stroke-linecap:butt;stroke-linejoin:miter;stroke-opacity:1" d="M 747.031,47.5938 754.781,54.375 z" id="boundary" inkscape:connector-curvature="0" />
	<path style="fill:none;stroke:red;stroke-width:1px;stroke-linecap:butt;stroke-linejoin:miter;stroke-opacity:1" d="M 763.5,59.2188 754.781,54.375 z" id="boundary" inkscape:connector-curvature="0" />
	<path style="fill:none;stroke:red;stroke-width:1px;stroke-linecap:butt;stroke-linejoin:miter;stroke-opacity:1" d="M 518.406,62.125 528.094,62.125 z" id="boundary" inkscape:connector-curvature="0" />
	<path style="fill:none;stroke:red;stroke-width:1px;stroke-linecap:butt;stroke-linejoin:miter;stroke-opacity:1" d="M 537.781,62.125 547.469,62.125 z" id="boundary" inkscape:connector-curvature="0" />
	<path style="fill:none;stroke:red;stroke-width:1px;stroke-linecap:butt;stroke-linejoin:miter;stroke-opacity:1" d="M 537.781,62.125 528.094,62.125 z" id="boundary" inkscape:connector-curvature="0" />
	<path style="fill:none;stroke:red;stroke-width:1px;stroke-linecap:butt;stroke-linejoin:miter;stroke-opacity:1" d="M 557.156,62.125 566.844,62.125 z" id="boundary" inkscape:connector-curvature="0" />
	<path style="fill:none;stroke:red;stroke-width:1px;stroke-linecap:butt;stroke-linejoin:miter;stroke-opacity:1" d="M 576.531,62.125 586.219,62.125 z" id="boundary" inkscape:connector-curvature="0" />
	<path style="fill:none;stroke:red;stroke-width:1px;stroke-linecap:butt;stroke-linejoin:miter;stroke-opacity:1" d="M 576.531,62.125 566.844,62.125 z" id="boundary" inkscape:connector-curvature="0" />
	<path style="fill:none;stroke:red;stroke-width:1px;stroke-linecap:butt;stroke-linejoin:miter;stroke-opacity:1" d="M 557.156,62.125 547.469,62.125 z" id="boundary" inkscape:connector-curvature="0" />
	<path style="fill:none;stroke:red;stroke-width:1px;stroke-linecap:butt;stroke-linejoin:miter;stroke-opacity:1" d="M 595.906,62.125 605.594,62.125 z" id="boundary" inkscape:connector-curvature="0" />
	<path style="fill:none;stroke:red;stroke-width:1px;stroke-linecap:butt;stroke-linejoin:miter;stroke-opacity:1" d="M 615.281,62.125 605.594,62.125 z" id="boundary" inkscape:connector-curvature="0" />
	<path style="fill:none;stroke:red;stroke-width:1px;stroke-linecap:butt;stroke-linejoin:miter;stroke-opacity:1" d="M 595.906,62.125 586.219,62.125 z" id="boundary" inkscape:connector-curvature="0" />
	<path style="fill:none;stroke:red;stroke-width:1px;stroke-linecap:butt;stroke-linejoin:miter;stroke-opacity:1" d="M 770.281,66.9688 779,71.8125 z" id="boundary" inkscape:connector-curvature="0" />
	<path style="fill:none;stroke:red;stroke-width:1px;stroke-linecap:butt;stroke-linejoin:miter;stroke-opacity:1" d="M 770.281,66.9688 763.5,59.2188 z" id="boundary" inkscape:connector-curvature="0" />
	<path style="fill:none;stroke:red;stroke-width:1px;stroke-linecap:butt;stroke-linejoin:miter;stroke-opacity:1" d="M 806.125,81.5 796.438,81.5 z" id="boundary" inkscape:connector-curvature="0" />
	<path style="fill:none;stroke:red;stroke-width:1px;stroke-linecap:butt;stroke-linejoin:miter;stroke-opacity:1" d="M 796.438,81.5 787.719,76.6562 z" id="boundary" inkscape:connector-curvature="0" />
	<path style="fill:none;stroke:red;stroke-width:1px;stroke-linecap:butt;stroke-linejoin:miter;stroke-opacity:1" d="M 787.719,76.6562 779,71.8125 z" id="boundary" inkscape:connector-curvature="0" />
	<path style="fill:none;stroke:red;stroke-width:1px;stroke-linecap:butt;stroke-linejoin:miter;stroke-opacity:1" d="M 814.844,86.3438 806.125,81.5 z" id="boundary" inkscape:connector-curvature="0" />
	<path style="fill:none;stroke:red;stroke-width:1px;stroke-linecap:butt;stroke-linejoin:miter;stroke-opacity:1" d="M 824.531,86.3438 814.844,86.3438 z" id="boundary" inkscape:connector-curvature="0" />
	<path style="fill:none;stroke:red;stroke-width:1px;stroke-linecap:butt;stroke-linejoin:miter;stroke-opacity:1" d="M 824.531,86.3438 834.219,86.3438 z" id="boundary" inkscape:connector-curvature="0" />
	<path style="fill:none;stroke:red;stroke-width:1px;stroke-linecap:butt;stroke-linejoin:miter;stroke-opacity:1" d="M 843.906,86.3438 834.219,86.3438 z" id="boundary" inkscape:connector-curvature="0" />
	<path style="fill:none;stroke:red;stroke-width:1px;stroke-linecap:butt;stroke-linejoin:miter;stroke-opacity:1" d="M 843.906,86.3438 853.594,86.3438 z" id="boundary" inkscape:connector-curvature="0" />
	<path style="fill:none;stroke:red;stroke-width:1px;stroke-linecap:butt;stroke-linejoin:miter;stroke-opacity:1" d="M 863.281,86.3438 872.969,86.3438 z" id="boundary" inkscape:connector-curvature="0" />
	<path style="fill:none;stroke:red;stroke-width:1px;stroke-linecap:butt;stroke-linejoin:miter;stroke-opacity:1" d="M 853.594,86.3438 863.281,86.3438 z" id="boundary" inkscape:connector-curvature="0" />
	<path style="fill:none;stroke:red;stroke-width:1px;stroke-linecap:butt;stroke-linejoin:miter;stroke-opacity:1" d="M 931.094,81.5 940.781,77.625 z" id="boundary" inkscape:connector-curvature="0" />
	<path style="fill:none;stroke:red;stroke-width:1px;stroke-linecap:butt;stroke-linejoin:miter;stroke-opacity:1" d="M 931.094,81.5 921.406,82.4688 z" id="boundary" inkscape:connector-curvature="0" />
	<path style="fill:none;stroke:red;stroke-width:1px;stroke-linecap:butt;stroke-linejoin:miter;stroke-opacity:1" d="M 950.469,76.6562 959.188,81.5 z" id="boundary" inkscape:connector-curvature="0" />
	<path style="fill:none;stroke:red;stroke-width:1px;stroke-linecap:butt;stroke-linejoin:miter;stroke-opacity:1" d="M 940.781,77.625 950.469,76.6562 z" id="boundary" inkscape:connector-curvature="0" />
	<path style="fill:none;stroke:red;stroke-width:1px;stroke-linecap:butt;stroke-linejoin:miter;stroke-opacity:1" d="M 911.719,86.3438 921.406,82.4688 z" id="boundary" inkscape:connector-curvature="0" />
	<path style="fill:none;stroke:red;stroke-width:1px;stroke-linecap:butt;stroke-linejoin:miter;stroke-opacity:1" d="M 882.656,86.3438 892.344,86.3438 z" id="boundary" inkscape:connector-curvature="0" />
	<path style="fill:none;stroke:red;stroke-width:1px;stroke-linecap:butt;stroke-linejoin:miter;stroke-opacity:1" d="M 911.719,86.3438 902.031,86.3438 z" id="boundary" inkscape:connector-curvature="0" />
	<path style="fill:none;stroke:red;stroke-width:1px;stroke-linecap:butt;stroke-linejoin:miter;stroke-opacity:1" d="M 902.031,86.3438 892.344,86.3438 z" id="boundary" inkscape:connector-curvature="0" />
	<path style="fill:none;stroke:red;stroke-width:1px;stroke-linecap:butt;stroke-linejoin:miter;stroke-opacity:1" d="M 882.656,86.3438 872.969,86.3438 z" id="boundary" inkscape:connector-curvature="0" />
	<path style="fill:none;stroke:red;stroke-width:1px;stroke-linecap:butt;stroke-linejoin:miter;stroke-opacity:1" d="M 968.875,97 970.812,106.688 z" id="boundary" inkscape:connector-curvature="0" />
	<path style="fill:none;stroke:red;stroke-width:1px;stroke-linecap:butt;stroke-linejoin:miter;stroke-opacity:1" d="M 959.188,81.5 966.938,87.3125 z" id="boundary" inkscape:connector-curvature="0" />
	<path style="fill:none;stroke:red;stroke-width:1px;stroke-linecap:butt;stroke-linejoin:miter;stroke-opacity:1" d="M 966.938,87.3125 968.875,97 z" id="boundary" inkscape:connector-curvature="0" />
	<path style="fill:none;stroke:red;stroke-width:1px;stroke-linecap:butt;stroke-linejoin:miter;stroke-opacity:1" d="M 975.656,115.406 970.812,106.688 z" id="boundary" inkscape:connector-curvature="0" />
	<path style="fill:none;stroke:red;stroke-width:1px;stroke-linecap:butt;stroke-linejoin:miter;stroke-opacity:1" d="M 975.656,115.406 978.562,125.094 z" id="boundary" inkscape:connector-curvature="0" />
	<path style="fill:none;stroke:red;stroke-width:1px;stroke-linecap:butt;stroke-linejoin:miter;stroke-opacity:1" d="M 981.469,208.406 972.75,213.25 z" id="boundary" inkscape:connector-curvature="0" />
	<path style="fill:none;stroke:red;stroke-width:1px;stroke-linecap:butt;stroke-linejoin:miter;stroke-opacity:1" d="M 978.562,125.094 983.406,133.812 z" id="boundary" inkscape:connector-curvature="0" />
	<path style="fill:none;stroke:red;stroke-width:1px;stroke-linecap:butt;stroke-linejoin:miter;stroke-opacity:1" d="M 983.406,133.812 988.25,142.531 z" id="boundary" inkscape:connector-curvature="0" />
	<path style="fill:none;stroke:red;stroke-width:1px;stroke-linecap:butt;stroke-linejoin:miter;stroke-opacity:1" d="M 993.094,151.25 993.094,160.938 z" id="boundary" inkscape:connector-curvature="0" />
	<path style="fill:none;stroke:red;stroke-width:1px;stroke-linecap:butt;stroke-linejoin:miter;stroke-opacity:1" d="M 988.25,142.531 993.094,151.25 z" id="boundary" inkscape:connector-curvature="0" />
	<path style="fill:none;stroke:red;stroke-width:1px;stroke-linecap:butt;stroke-linejoin:miter;stroke-opacity:1" d="M 993.094,160.938 993.094,170.625 z" id="boundary" inkscape:connector-curvature="0" />
	<path style="fill:none;stroke:red;stroke-width:1px;stroke-linecap:butt;stroke-linejoin:miter;stroke-opacity:1" d="M 996,180.312 995.031,192.906 z" id="boundary" inkscape:connector-curvature="0" />
	<path style="fill:none;stroke:red;stroke-width:1px;stroke-linecap:butt;stroke-linejoin:miter;stroke-opacity:1" d="M 993.094,170.625 996,180.312 z" id="boundary" inkscape:connector-curvature="0" />
	<path style="fill:none;stroke:red;stroke-width:1px;stroke-linecap:butt;stroke-linejoin:miter;stroke-opacity:1" d="M 995.031,192.906 990.188,202.594 z" id="boundary" inkscape:connector-curvature="0" />
	<path style="fill:none;stroke:red;stroke-width:1px;stroke-linecap:butt;stroke-linejoin:miter;stroke-opacity:1" d="M 990.188,202.594 981.469,208.406 z" id="boundary" inkscape:connector-curvature="0" />
	<path style="fill:none;stroke:red;stroke-width:1px;stroke-linecap:butt;stroke-linejoin:miter;stroke-opacity:1" d="M 972.75,213.25 964.031,218.094 z" id="boundary" inkscape:connector-curvature="0" />
	<path style="fill:none;stroke:red;stroke-width:1px;stroke-linecap:butt;stroke-linejoin:miter;stroke-opacity:1" d="M 515.5,319.812 525.188,319.812 z" id="boundary" inkscape:connector-curvature="0" />
	<path style="fill:none;stroke:red;stroke-width:1px;stroke-linecap:butt;stroke-linejoin:miter;stroke-opacity:1" d="M 534.875,319.812 525.188,319.812 z" id="boundary" inkscape:connector-curvature="0" />
	<path style="fill:none;stroke:red;stroke-width:1px;stroke-linecap:butt;stroke-linejoin:miter;stroke-opacity:1" d="M 544.562,319.812 554.25,319.812 z" id="boundary" inkscape:connector-curvature="0" />
	<path style="fill:none;stroke:red;stroke-width:1px;stroke-linecap:butt;stroke-linejoin:miter;stroke-opacity:1" d="M 563.938,319.812 573.625,319.812 z" id="boundary" inkscape:connector-curvature="0" />
	<path style="fill:none;stroke:red;stroke-width:1px;stroke-linecap:butt;stroke-linejoin:miter;stroke-opacity:1" d="M 563.938,319.812 554.25,319.812 z" id="boundary" inkscape:connector-curvature="0" />
	<path style="fill:none;stroke:red;stroke-width:1px;stroke-linecap:butt;stroke-linejoin:miter;stroke-opacity:1" d="M 544.562,319.812 534.875,319.812 z" id="boundary" inkscape:connector-curvature="0" />
	<path style="fill:none;stroke:red;stroke-width:1px;stroke-linecap:butt;stroke-linejoin:miter;stroke-opacity:1" d="M 583.312,319.812 593,319.812 z" id="boundary" inkscape:connector-curvature="0" />
	<path style="fill:none;stroke:red;stroke-width:1px;stroke-linecap:butt;stroke-linejoin:miter;stroke-opacity:1" d="M 602.688,319.812 612.375,319.812 z" id="boundary" inkscape:connector-curvature="0" />
	<path style="fill:none;stroke:red;stroke-width:1px;stroke-linecap:butt;stroke-linejoin:miter;stroke-opacity:1" d="M 602.688,319.812 593,319.812 z" id="boundary" inkscape:connector-curvature="0" />
	<path style="fill:none;stroke:red;stroke-width:1px;stroke-linecap:butt;stroke-linejoin:miter;stroke-opacity:1" d="M 622.062,319.812 631.75,319.812 z" id="boundary" inkscape:connector-curvature="0" />
	<path style="fill:none;stroke:red;stroke-width:1px;stroke-linecap:butt;stroke-linejoin:miter;stroke-opacity:1" d="M 641.438,319.812 651.125,323.688 z" id="boundary" inkscape:connector-curvature="0" />
	<path style="fill:none;stroke:red;stroke-width:1px;stroke-linecap:butt;stroke-linejoin:miter;stroke-opacity:1" d="M 631.75,319.812 641.438,319.812 z" id="boundary" inkscape:connector-curvature="0" />
	<path style="fill:none;stroke:red;stroke-width:1px;stroke-linecap:butt;stroke-linejoin:miter;stroke-opacity:1" d="M 612.375,319.812 622.062,319.812 z" id="boundary" inkscape:connector-curvature="0" />
	<path style="fill:none;stroke:red;stroke-width:1px;stroke-linecap:butt;stroke-linejoin:miter;stroke-opacity:1" d="M 573.625,319.812 583.312,319.812 z" id="boundary" inkscape:connector-curvature="0" />
	<path style="fill:none;stroke:red;stroke-width:1px;stroke-linecap:butt;stroke-linejoin:miter;stroke-opacity:1" d="M 651.125,323.688 658.875,329.5 z" id="boundary" inkscape:connector-curvature="0" />
	<path style="fill:none;stroke:red;stroke-width:1px;stroke-linecap:butt;stroke-linejoin:miter;stroke-opacity:1" d="M 658.875,329.5 667.594,334.344 z" id="boundary" inkscape:connector-curvature="0" />
	<path style="fill:none;stroke:red;stroke-width:1px;stroke-linecap:butt;stroke-linejoin:miter;stroke-opacity:1" d="M 676.312,339.188 683.094,346.938 z" id="boundary" inkscape:connector-curvature="0" />
	<path style="fill:none;stroke:red;stroke-width:1px;stroke-linecap:butt;stroke-linejoin:miter;stroke-opacity:1" d="M 667.594,334.344 676.312,339.188 z" id="boundary" inkscape:connector-curvature="0" />
	<path style="fill:none;stroke:red;stroke-width:1px;stroke-linecap:butt;stroke-linejoin:miter;stroke-opacity:1" d="M 690.844,353.719 683.094,346.938 z" id="boundary" inkscape:connector-curvature="0" />
	<path style="fill:none;stroke:red;stroke-width:1px;stroke-linecap:butt;stroke-linejoin:miter;stroke-opacity:1" d="M 690.844,353.719 694.719,363.406 z" id="boundary" inkscape:connector-curvature="0" />
	<path style="fill:none;stroke:red;stroke-width:1px;stroke-linecap:butt;stroke-linejoin:miter;stroke-opacity:1" d="M 703.438,368.25 694.719,363.406 z" id="boundary" inkscape:connector-curvature="0" />
	<path style="fill:none;stroke:red;stroke-width:1px;stroke-linecap:butt;stroke-linejoin:miter;stroke-opacity:1" d="M 703.438,368.25 711.188,374.062 z" id="boundary" inkscape:connector-curvature="0" />
	<path style="fill:none;stroke:red;stroke-width:1px;stroke-linecap:butt;stroke-linejoin:miter;stroke-opacity:1" d="M 720.875,377.938 711.188,374.062 z" id="boundary" inkscape:connector-curvature="0" />
	<path style="fill:none;stroke:red;stroke-width:1px;stroke-linecap:butt;stroke-linejoin:miter;stroke-opacity:1" d="M 720.875,377.938 726.688,385.688 z" id="boundary" inkscape:connector-curvature="0" />
	<path style="fill:none;stroke:red;stroke-width:1px;stroke-linecap:butt;stroke-linejoin:miter;stroke-opacity:1" d="M 736.375,389.562 726.688,385.688 z" id="boundary" inkscape:connector-curvature="0" />
	<path style="fill:none;stroke:red;stroke-width:1px;stroke-linecap:butt;stroke-linejoin:miter;stroke-opacity:1" d="M 736.375,389.562 745.094,394.406 z" id="boundary" inkscape:connector-curvature="0" />
	<path style="fill:none;stroke:red;stroke-width:1px;stroke-linecap:butt;stroke-linejoin:miter;stroke-opacity:1" d="M 764.469,397.312 754.781,397.312 z" id="boundary" inkscape:connector-curvature="0" />
	<path style="fill:none;stroke:red;stroke-width:1px;stroke-linecap:butt;stroke-linejoin:miter;stroke-opacity:1" d="M 754.781,397.312 745.094,394.406 z" id="boundary" inkscape:connector-curvature="0" />
	<path style="fill:none;stroke:red;stroke-width:1px;stroke-linecap:butt;stroke-linejoin:miter;stroke-opacity:1" d="M 783.844,397.312 774.156,397.312 z" id="boundary" inkscape:connector-curvature="0" />
	<path style="fill:none;stroke:red;stroke-width:1px;stroke-linecap:butt;stroke-linejoin:miter;stroke-opacity:1" d="M 774.156,397.312 764.469,397.312 z" id="boundary" inkscape:connector-curvature="0" />
	<path style="fill:none;stroke:red;stroke-width:1px;stroke-linecap:butt;stroke-linejoin:miter;stroke-opacity:1" d="M 915.594,271.375 915.594,281.062 z" id="boundary" inkscape:connector-curvature="0" />
	<path style="fill:none;stroke:red;stroke-width:1px;stroke-linecap:butt;stroke-linejoin:miter;stroke-opacity:1" d="M 915.594,271.375 923.344,264.594 z" id="boundary" inkscape:connector-curvature="0" />
	<path style="fill:none;stroke:red;stroke-width:1px;stroke-linecap:butt;stroke-linejoin:miter;stroke-opacity:1" d="M 915.594,290.75 915.594,281.062 z" id="boundary" inkscape:connector-curvature="0" />
	<path style="fill:none;stroke:red;stroke-width:1px;stroke-linecap:butt;stroke-linejoin:miter;stroke-opacity:1" d="M 928.188,254.906 923.344,264.594 z" id="boundary" inkscape:connector-curvature="0" />
	<path style="fill:none;stroke:red;stroke-width:1px;stroke-linecap:butt;stroke-linejoin:miter;stroke-opacity:1" d="M 917.531,300.438 922.375,309.156 z" id="boundary" inkscape:connector-curvature="0" />
	<path style="fill:none;stroke:red;stroke-width:1px;stroke-linecap:butt;stroke-linejoin:miter;stroke-opacity:1" d="M 917.531,300.438 915.594,290.75 z" id="boundary" inkscape:connector-curvature="0" />
	<path style="fill:none;stroke:red;stroke-width:1px;stroke-linecap:butt;stroke-linejoin:miter;stroke-opacity:1" d="M 925.281,318.844 925.281,328.531 z" id="boundary" inkscape:connector-curvature="0" />
	<path style="fill:none;stroke:red;stroke-width:1px;stroke-linecap:butt;stroke-linejoin:miter;stroke-opacity:1" d="M 922.375,309.156 925.281,318.844 z" id="boundary" inkscape:connector-curvature="0" />
	<path style="fill:none;stroke:red;stroke-width:1px;stroke-linecap:butt;stroke-linejoin:miter;stroke-opacity:1" d="M 942.719,240.375 949.5,232.625 z" id="boundary" inkscape:connector-curvature="0" />
	<path style="fill:none;stroke:red;stroke-width:1px;stroke-linecap:butt;stroke-linejoin:miter;stroke-opacity:1" d="M 949.5,232.625 958.219,227.781 z" id="boundary" inkscape:connector-curvature="0" />
	<path style="fill:none;stroke:red;stroke-width:1px;stroke-linecap:butt;stroke-linejoin:miter;stroke-opacity:1" d="M 942.719,240.375 934.969,247.156 z" id="boundary" inkscape:connector-curvature="0" />
	<path style="fill:none;stroke:red;stroke-width:1px;stroke-linecap:butt;stroke-linejoin:miter;stroke-opacity:1" d="M 958.219,227.781 964.031,218.094 z" id="boundary" inkscape:connector-curvature="0" />
	<path style="fill:none;stroke:red;stroke-width:1px;stroke-linecap:butt;stroke-linejoin:miter;stroke-opacity:1" d="M 925.281,328.531 925.281,338.219 z" id="boundary" inkscape:connector-curvature="0" />
	<path style="fill:none;stroke:red;stroke-width:1px;stroke-linecap:butt;stroke-linejoin:miter;stroke-opacity:1" d="M 928.188,254.906 934.969,247.156 z" id="boundary" inkscape:connector-curvature="0" />
	<path style="fill:none;stroke:red;stroke-width:1px;stroke-linecap:butt;stroke-linejoin:miter;stroke-opacity:1" d="M 925.281,347.906 925.281,338.219 z" id="boundary" inkscape:connector-curvature="0" />
	<path style="fill:none;stroke:red;stroke-width:1px;stroke-linecap:butt;stroke-linejoin:miter;stroke-opacity:1" d="M 793.531,397.312 783.844,397.312 z" id="boundary" inkscape:connector-curvature="0" />
	<path style="fill:none;stroke:red;stroke-width:1px;stroke-linecap:butt;stroke-linejoin:miter;stroke-opacity:1" d="M 803.219,397.312 793.531,397.312 z" id="boundary" inkscape:connector-curvature="0" />
	<path style="fill:none;stroke:red;stroke-width:1px;stroke-linecap:butt;stroke-linejoin:miter;stroke-opacity:1" d="M 822.594,397.312 812.906,397.312 z" id="boundary" inkscape:connector-curvature="0" />
	<path style="fill:none;stroke:red;stroke-width:1px;stroke-linecap:butt;stroke-linejoin:miter;stroke-opacity:1" d="M 812.906,397.312 803.219,397.312 z" id="boundary" inkscape:connector-curvature="0" />
	<path style="fill:none;stroke:red;stroke-width:1px;stroke-linecap:butt;stroke-linejoin:miter;stroke-opacity:1" d="M 841.969,397.312 832.281,397.312 z" id="boundary" inkscape:connector-curvature="0" />
	<path style="fill:none;stroke:red;stroke-width:1px;stroke-linecap:butt;stroke-linejoin:miter;stroke-opacity:1" d="M 861.344,397.312 851.656,397.312 z" id="boundary" inkscape:connector-curvature="0" />
	<path style="fill:none;stroke:red;stroke-width:1px;stroke-linecap:butt;stroke-linejoin:miter;stroke-opacity:1" d="M 851.656,397.312 841.969,397.312 z" id="boundary" inkscape:connector-curvature="0" />
	<path style="fill:none;stroke:red;stroke-width:1px;stroke-linecap:butt;stroke-linejoin:miter;stroke-opacity:1" d="M 832.281,397.312 822.594,397.312 z" id="boundary" inkscape:connector-curvature="0" />
	<path style="fill:none;stroke:red;stroke-width:1px;stroke-linecap:butt;stroke-linejoin:miter;stroke-opacity:1" d="M 916.562,382.781 907.844,387.625 z" id="boundary" inkscape:connector-curvature="0" />
	<path style="fill:none;stroke:red;stroke-width:1px;stroke-linecap:butt;stroke-linejoin:miter;stroke-opacity:1" d="M 925.281,357.594 925.281,347.906 z" id="boundary" inkscape:connector-curvature="0" />
	<path style="fill:none;stroke:red;stroke-width:1px;stroke-linecap:butt;stroke-linejoin:miter;stroke-opacity:1" d="M 925.281,357.594 924.312,375.031 z" id="boundary" inkscape:connector-curvature="0" />
	<path style="fill:none;stroke:red;stroke-width:1px;stroke-linecap:butt;stroke-linejoin:miter;stroke-opacity:1" d="M 924.312,375.031 916.562,382.781 z" id="boundary" inkscape:connector-curvature="0" />
	<path style="fill:none;stroke:red;stroke-width:1px;stroke-linecap:butt;stroke-linejoin:miter;stroke-opacity:1" d="M 871.031,397.312 879.75,392.469 z" id="boundary" inkscape:connector-curvature="0" />
	<path style="fill:none;stroke:red;stroke-width:1px;stroke-linecap:butt;stroke-linejoin:miter;stroke-opacity:1" d="M 879.75,392.469 889.438,392.469 z" id="boundary" inkscape:connector-curvature="0" />
	<path style="fill:none;stroke:red;stroke-width:1px;stroke-linecap:butt;stroke-linejoin:miter;stroke-opacity:1" d="M 871.031,397.312 861.344,397.312 z" id="boundary" inkscape:connector-curvature="0" />
	<path style="fill:none;stroke:red;stroke-width:1px;stroke-linecap:butt;stroke-linejoin:miter;stroke-opacity:1" d="M 889.438,392.469 899.125,392.469 z" id="boundary" inkscape:connector-curvature="0" />
	<path style="fill:none;stroke:red;stroke-width:1px;stroke-linecap:butt;stroke-linejoin:miter;stroke-opacity:1" d="M 907.844,387.625 899.125,392.469 z" id="boundary" inkscape:connector-curvature="0" />
	<circle cx="4" cy="195.812" r="4" fill="#0" id="circle0"/>
	<circle cx="4" cy="205.5" r="4" fill="#0" id="circle1"/>
	<circle cx="4" cy="215.188" r="4" fill="#0" id="circle2"/>
	<circle cx="4" cy="224.875" r="4" fill="#0" id="circle3"/>
	<circle cx="4" cy="234.562" r="4" fill="#0" id="circle4"/>
	<circle cx="4" cy="244.25" r="4" fill="#0" id="circle5"/>
	<circle cx="4" cy="253.938" r="4" fill="#0" id="circle6"/>
	<circle cx="8.84375" cy="262.656" r="4" fill="#0" id="circle7"/>
	<circle cx="11.75" cy="188.062" r="4" fill="#0" id="circle8"/>
	<circle cx="15.625" cy="270.406" r="4" fill="#0" id="circle9"/>
	<circle cx="19.5" cy="180.312" r="4" fill="#0" id="circle10"/>
	<circle cx="25.3125" cy="271.375" r="4" fill="#0" id="circle11"/>
	<circle cx="27.25" cy="173.531" r="4" fill="#0" id="circle12"/>
	<circle cx="34.0312" cy="165.781" r="4" fill="#0" id="circle13"/>
	<circle cx="35" cy="271.375" r="4" fill="#0" id="circle14"/>
	<circle cx="41.7812" cy="159" r="4" fill="#0" id="circle15"/>
	<circle cx="44.6875" cy="271.375" r="4" fill="#0" id="circle16"/>
	<circle cx="50.5" cy="154.156" r="4" fill="#0" id="circle17"/>
	<circle cx="54.375" cy="271.375" r="4" fill="#0" id="circle18"/>
	<circle cx="58.25" cy="146.406" r="4" fill="#0" id="circle19"/>
	<circle cx="64.0625" cy="271.375" r="4" fill="#0" id="circle20"/>
	<circle cx="67.9375" cy="141.562" r="4" fill="#0" id="circle21"/>
	<circle cx="73.75" cy="271.375" r="4" fill="#0" id="circle22"/>
	<circle cx="75.6875" cy="134.781" r="4" fill="#0" id="circle23"/>
	<circle cx="82.4688" cy="127.031" r="4" fill="#0" id="circle24"/>
	<circle cx="83.4375" cy="271.375" r="4" fill="#0" id="circle25"/>
	<circle cx="90.2188" cy="120.25" r="4" fill="#0" id="circle26"/>
	<circle cx="91.1875" cy="35.9688" r="4" fill="#0" id="circle27"/>
	<circle cx="91.1875" cy="45.6562" r="4" fill="#0" id="circle28"/>
	<circle cx="91.1875" cy="55.3438" r="4" fill="#0" id="circle29"/>
	<circle cx="91.1875" cy="65.0312" r="4" fill="#0" id="circle30"/>
	<circle cx="91.1875" cy="74.7188" r="4" fill="#0" id="circle31"/>
	<circle cx="91.1875" cy="84.4062" r="4" fill="#0" id="circle32"/>
	<circle cx="91.1875" cy="94.0938" r="4" fill="#0" id="circle33"/>
	<circle cx="91.1875" cy="103.781" r="4" fill="#0" id="circle34"/>
	<circle cx="93.125" cy="271.375" r="4" fill="#0" id="circle35"/>
	<circle cx="96.0312" cy="26.2812" r="4" fill="#0" id="circle36"/>
	<circle cx="102.812" cy="271.375" r="4" fill="#0" id="circle37"/>
	<circle cx="103.781" cy="18.5312" r="4" fill="#0" id="circle38"/>
	<circle cx="112.5" cy="13.6875" r="4" fill="#0" id="circle39"/>
	<circle cx="112.5" cy="271.375" r="4" fill="#0" id="circle40"/>
	<circle cx="122.188" cy="13.6875" r="4" fill="#0" id="circle41"/>
	<circle cx="122.188" cy="271.375" r="4" fill="#0" id="circle42"/>
	<circle cx="131.875" cy="13.6875" r="4" fill="#0" id="circle43"/>
	<circle cx="131.875" cy="271.375" r="4" fill="#0" id="circle44"/>
	<circle cx="141.562" cy="13.6875" r="4" fill="#0" id="circle45"/>
	<circle cx="141.562" cy="271.375" r="4" fill="#0" id="circle46"/>
	<circle cx="151.25" cy="13.6875" r="4" fill="#0" id="circle47"/>
	<circle cx="151.25" cy="271.375" r="4" fill="#0" id="circle48"/>
	<circle cx="160.938" cy="13.6875" r="4" fill="#0" id="circle49"/>
	<circle cx="160.938" cy="271.375" r="4" fill="#0" id="circle50"/>
	<circle cx="170.625" cy="9.8125" r="4" fill="#0" id="circle51"/>
	<circle cx="170.625" cy="271.375" r="4" fill="#0" id="circle52"/>
	<circle cx="180.312" cy="8.84375" r="4" fill="#0" id="circle53"/>
	<circle cx="180.312" cy="271.375" r="4" fill="#0" id="circle54"/>
	<circle cx="190" cy="8.84375" r="4" fill="#0" id="circle55"/>
	<circle cx="190" cy="271.375" r="4" fill="#0" id="circle56"/>
	<circle cx="199.688" cy="4.96875" r="4" fill="#0" id="circle57"/>
	<circle cx="199.688" cy="271.375" r="4" fill="#0" id="circle58"/>
	<circle cx="209.375" cy="4" r="4" fill="#0" id="circle59"/>
	<circle cx="209.375" cy="274.281" r="4" fill="#0" id="circle60"/>
	<circle cx="217.125" cy="281.062" r="4" fill="#0" id="circle61"/>
	<circle cx="219.062" cy="4" r="4" fill="#0" id="circle62"/>
	<circle cx="222.938" cy="288.812" r="4" fill="#0" id="circle63"/>
	<circle cx="228.75" cy="4" r="4" fill="#0" id="circle64"/>
	<circle cx="230.688" cy="295.594" r="4" fill="#0" id="circle65"/>
	<circle cx="237.469" cy="303.344" r="4" fill="#0" id="circle66"/>
	<circle cx="238.438" cy="4" r="4" fill="#0" id="circle67"/>
	<circle cx="245.219" cy="310.125" r="4" fill="#0" id="circle68"/>
	<circle cx="247.156" cy="8.84375" r="4" fill="#0" id="circle69"/>
	<circle cx="249.094" cy="319.812" r="4" fill="#0" id="circle70"/>
	<circle cx="254.906" cy="14.6562" r="4" fill="#0" id="circle71"/>
	<circle cx="257.812" cy="324.656" r="4" fill="#0" id="circle72"/>
	<circle cx="261.688" cy="22.4062" r="4" fill="#0" id="circle73"/>
	<circle cx="266.531" cy="329.5" r="4" fill="#0" id="circle74"/>
	<circle cx="271.375" cy="26.2812" r="4" fill="#0" id="circle75"/>
	<circle cx="275.25" cy="334.344" r="4" fill="#0" id="circle76"/>
	<circle cx="280.094" cy="31.125" r="4" fill="#0" id="circle77"/>
	<circle cx="284.938" cy="334.344" r="4" fill="#0" id="circle78"/>
	<circle cx="289.781" cy="35" r="4" fill="#0" id="circle79"/>
	<circle cx="294.625" cy="334.344" r="4" fill="#0" id="circle80"/>
	<circle cx="299.469" cy="37.9062" r="4" fill="#0" id="circle81"/>
	<circle cx="304.312" cy="334.344" r="4" fill="#0" id="circle82"/>
	<circle cx="308.188" cy="42.75" r="4" fill="#0" id="circle83"/>
	<circle cx="314" cy="334.344" r="4" fill="#0" id="circle84"/>
	<circle cx="316.906" cy="47.5938" r="4" fill="#0" id="circle85"/>
	<circle cx="323.688" cy="334.344" r="4" fill="#0" id="circle86"/>
	<circle cx="326.594" cy="47.5938" r="4" fill="#0" id="circle87"/>
	<circle cx="333.375" cy="334.344" r="4" fill="#0" id="circle88"/>
	<circle cx="335.312" cy="52.4375" r="4" fill="#0" id="circle89"/>
	<circle cx="343.062" cy="334.344" r="4" fill="#0" id="circle90"/>
	<circle cx="345" cy="52.4375" r="4" fill="#0" id="circle91"/>
	<circle cx="352.75" cy="334.344" r="4" fill="#0" id="circle92"/>
	<circle cx="354.688" cy="52.4375" r="4" fill="#0" id="circle93"/>
	<circle cx="362.438" cy="334.344" r="4" fill="#0" id="circle94"/>
	<circle cx="363.406" cy="57.2812" r="4" fill="#0" id="circle95"/>
	<circle cx="372.125" cy="334.344" r="4" fill="#0" id="circle96"/>
	<circle cx="373.094" cy="57.2812" r="4" fill="#0" id="circle97"/>
	<circle cx="381.812" cy="334.344" r="4" fill="#0" id="circle98"/>
	<circle cx="382.781" cy="60.1875" r="4" fill="#0" id="circle99"/>
	<circle cx="391.5" cy="334.344" r="4" fill="#0" id="circle100"/>
	<circle cx="392.469" cy="62.125" r="4" fill="#0" id="circle101"/>
	<circle cx="401.188" cy="331.438" r="4" fill="#0" id="circle102"/>
	<circle cx="402.156" cy="62.125" r="4" fill="#0" id="circle103"/>
	<circle cx="410.875" cy="329.5" r="4" fill="#0" id="circle104"/>
	<circle cx="411.844" cy="62.125" r="4" fill="#0" id="circle105"/>
	<circle cx="420.562" cy="329.5" r="4" fill="#0" id="circle106"/>
	<circle cx="421.531" cy="62.125" r="4" fill="#0" id="circle107"/>
	<circle cx="430.25" cy="329.5" r="4" fill="#0" id="circle108"/>
	<circle cx="431.219" cy="62.125" r="4" fill="#0" id="circle109"/>
	<circle cx="438.969" cy="324.656" r="4" fill="#0" id="circle110"/>
	<circle cx="440.906" cy="62.125" r="4" fill="#0" id="circle111"/>
	<circle cx="448.656" cy="324.656" r="4" fill="#0" id="circle112"/>
	<circle cx="450.594" cy="62.125" r="4" fill="#0" id="circle113"/>
	<circle cx="458.344" cy="324.656" r="4" fill="#0" id="circle114"/>
	<circle cx="460.281" cy="62.125" r="4" fill="#0" id="circle115"/>
	<circle cx="467.062" cy="319.812" r="4" fill="#0" id="circle116"/>
	<circle cx="469.969" cy="62.125" r="4" fill="#0" id="circle117"/>
	<circle cx="476.75" cy="319.812" r="4" fill="#0" id="circle118"/>
	<circle cx="479.656" cy="62.125" r="4" fill="#0" id="circle119"/>
	<circle cx="486.438" cy="319.812" r="4" fill="#0" id="circle120"/>
	<circle cx="489.344" cy="62.125" r="4" fill="#0" id="circle121"/>
	<circle cx="496.125" cy="319.812" r="4" fill="#0" id="circle122"/>
	<circle cx="499.031" cy="62.125" r="4" fill="#0" id="circle123"/>
	<circle cx="505.812" cy="319.812" r="4" fill="#0" id="circle124"/>
	<circle cx="508.719" cy="62.125" r="4" fill="#0" id="circle125"/>
	<circle cx="515.5" cy="319.812" r="4" fill="#0" id="circle126"/>
	<circle cx="518.406" cy="62.125" r="4" fill="#0" id="circle127"/>
	<circle cx="525.188" cy="319.812" r="4" fill="#0" id="circle128"/>
	<circle cx="528.094" cy="62.125" r="4" fill="#0" id="circle129"/>
	<circle cx="534.875" cy="319.812" r="4" fill="#0" id="circle130"/>
	<circle cx="537.781" cy="62.125" r="4" fill="#0" id="circle131"/>
	<circle cx="544.562" cy="319.812" r="4" fill="#0" id="circle132"/>
	<circle cx="547.469" cy="62.125" r="4" fill="#0" id="circle133"/>
	<circle cx="554.25" cy="319.812" r="4" fill="#0" id="circle134"/>
	<circle cx="557.156" cy="62.125" r="4" fill="#0" id="circle135"/>
	<circle cx="563.938" cy="319.812" r="4" fill="#0" id="circle136"/>
	<circle cx="566.844" cy="62.125" r="4" fill="#0" id="circle137"/>
	<circle cx="573.625" cy="319.812" r="4" fill="#0" id="circle138"/>
	<circle cx="576.531" cy="62.125" r="4" fill="#0" id="circle139"/>
	<circle cx="583.312" cy="319.812" r="4" fill="#0" id="circle140"/>
	<circle cx="586.219" cy="62.125" r="4" fill="#0" id="circle141"/>
	<circle cx="593" cy="319.812" r="4" fill="#0" id="circle142"/>
	<circle cx="595.906" cy="62.125" r="4" fill="#0" id="circle143"/>
	<circle cx="602.688" cy="319.812" r="4" fill="#0" id="circle144"/>
	<circle cx="605.594" cy="62.125" r="4" fill="#0" id="circle145"/>
	<circle cx="612.375" cy="319.812" r="4" fill="#0" id="circle146"/>
	<circle cx="615.281" cy="62.125" r="4" fill="#0" id="circle147"/>
	<circle cx="622.062" cy="319.812" r="4" fill="#0" id="circle148"/>
	<circle cx="624" cy="57.2812" r="4" fill="#0" id="circle149"/>
	<circle cx="631.75" cy="319.812" r="4" fill="#0" id="circle150"/>
	<circle cx="633.688" cy="57.2812" r="4" fill="#0" id="circle151"/>
	<circle cx="641.438" cy="319.812" r="4" fill="#0" id="circle152"/>
	<circle cx="642.406" cy="52.4375" r="4" fill="#0" id="circle153"/>
	<circle cx="651.125" cy="323.688" r="4" fill="#0" id="circle154"/>
	<circle cx="652.094" cy="52.4375" r="4" fill="#0" id="circle155"/>
	<circle cx="658.875" cy="329.5" r="4" fill="#0" id="circle156"/>
	<circle cx="661.781" cy="52.4375" r="4" fill="#0" id="circle157"/>
	<circle cx="667.594" cy="334.344" r="4" fill="#0" id="circle158"/>
	<circle cx="670.5" cy="47.5938" r="4" fill="#0" id="circle159"/>
	<circle cx="676.312" cy="339.188" r="4" fill="#0" id="circle160"/>
	<circle cx="680.188" cy="47.5938" r="4" fill="#0" id="circle161"/>
	<circle cx="683.094" cy="346.938" r="4" fill="#0" id="circle162"/>
	<circle cx="689.875" cy="47.5938" r="4" fill="#0" id="circle163"/>
	<circle cx="690.844" cy="353.719" r="4" fill="#0" id="circle164"/>
	<circle cx="694.719" cy="363.406" r="4" fill="#0" id="circle165"/>
	<circle cx="699.562" cy="42.75" r="4" fill="#0" id="circle166"/>
	<circle cx="703.438" cy="368.25" r="4" fill="#0" id="circle167"/>
	<circle cx="709.25" cy="42.75" r="4" fill="#0" id="circle168"/>
	<circle cx="711.188" cy="374.062" r="4" fill="#0" id="circle169"/>
	<circle cx="718.938" cy="42.75" r="4" fill="#0" id="circle170"/>
	<circle cx="720.875" cy="377.938" r="4" fill="#0" id="circle171"/>
	<circle cx="726.688" cy="385.688" r="4" fill="#0" id="circle172"/>
	<circle cx="728.625" cy="42.75" r="4" fill="#0" id="circle173"/>
	<circle cx="736.375" cy="389.562" r="4" fill="#0" id="circle174"/>
	<circle cx="738.312" cy="42.75" r="4" fill="#0" id="circle175"/>
	<circle cx="745.094" cy="394.406" r="4" fill="#0" id="circle176"/>
	<circle cx="747.031" cy="47.5938" r="4" fill="#0" id="circle177"/>
	<circle cx="754.781" cy="54.375" r="4" fill="#0" id="circle178"/>
	<circle cx="754.781" cy="397.312" r="4" fill="#0" id="circle179"/>
	<circle cx="763.5" cy="59.2188" r="4" fill="#0" id="circle180"/>
	<circle cx="764.469" cy="397.312" r="4" fill="#0" id="circle181"/>
	<circle cx="770.281" cy="66.9688" r="4" fill="#0" id="circle182"/>
	<circle cx="774.156" cy="397.312" r="4" fill="#0" id="circle183"/>
	<circle cx="779" cy="71.8125" r="4" fill="#0" id="circle184"/>
	<circle cx="783.844" cy="397.312" r="4" fill="#0" id="circle185"/>
	<circle cx="787.719" cy="76.6562" r="4" fill="#0" id="circle186"/>
	<circle cx="793.531" cy="397.312" r="4" fill="#0" id="circle187"/>
	<circle cx="796.438" cy="81.5" r="4" fill="#0" id="circle188"/>
	<circle cx="803.219" cy="397.312" r="4" fill="#0" id="circle189"/>
	<circle cx="806.125" cy="81.5" r="4" fill="#0" id="circle190"/>
	<circle cx="812.906" cy="397.312" r="4" fill="#0" id="circle191"/>
	<circle cx="814.844" cy="86.3438" r="4" fill="#0" id="circle192"/>
	<circle cx="822.594" cy="397.312" r="4" fill="#0" id="circle193"/>
	<circle cx="824.531" cy="86.3438" r="4" fill="#0" id="circle194"/>
	<circle cx="832.281" cy="397.312" r="4" fill="#0" id="circle195"/>
	<circle cx="834.219" cy="86.3438" r="4" fill="#0" id="circle196"/>
	<circle cx="841.969" cy="397.312" r="4" fill="#0" id="circle197"/>
	<circle cx="843.906" cy="86.3438" r="4" fill="#0" id="circle198"/>
	<circle cx="851.656" cy="397.312" r="4" fill="#0" id="circle199"/>
	<circle cx="853.594" cy="86.3438" r="4" fill="#0" id="circle200"/>
	<circle cx="861.344" cy="397.312" r="4" fill="#0" id="circle201"/>
	<circle cx="863.281" cy="86.3438" r="4" fill="#0" id="circle202"/>
	<circle cx="871.031" cy="397.312" r="4" fill="#0" id="circle203"/>
	<circle cx="872.969" cy="86.3438" r="4" fill="#0" id="circle204"/>
	<circle cx="879.75" cy="392.469" r="4" fill="#0" id="circle205"/>
	<circle cx="882.656" cy="86.3438" r="4" fill="#0" id="circle206"/>
	<circle cx="889.438" cy="392.469" r="4" fill="#0" id="circle207"/>
	<circle cx="892.344" cy="86.3438" r="4" fill="#0" id="circle208"/>
	<circle cx="899.125" cy="392.469" r="4" fill="#0" id="circle209"/>
	<circle cx="902.031" cy="86.3438" r="4" fill="#0" id="circle210"/>
	<circle cx="907.844" cy="387.625" r="4" fill="#0" id="circle211"/>
	<circle cx="911.719" cy="86.3438" r="4" fill="#0" id="circle212"/>
	<circle cx="915.594" cy="271.375" r="4" fill="#0" id="circle213"/>
	<circle cx="915.594" cy="281.062" r="4" fill="#0" id="circle214"/>
	<circle cx="915.594" cy="290.75" r="4" fill="#0" id="circle215"/>
	<circle cx="916.562" cy="382.781" r="4" fill="#0" id="circle216"/>
	<circle cx="917.531" cy="300.438" r="4" fill="#0" id="circle217"/>
	<circle cx="921.406" cy="82.4688" r="4" fill="#0" id="circle218"/>
	<circle cx="922.375" cy="309.156" r="4" fill="#0" id="circle219"/>
	<circle cx="923.344" cy="264.594" r="4" fill="#0" id="circle220"/>
	<circle cx="924.312" cy="375.031" r="4" fill="#0" id="circle221"/>
	<circle cx="925.281" cy="318.844" r="4" fill="#0" id="circle222"/>
	<circle cx="925.281" cy="328.531" r="4" fill="#0" id="circle223"/>
	<circle cx="925.281" cy="338.219" r="4" fill="#0" id="circle224"/>
	<circle cx="925.281" cy="347.906" r="4" fill="#0" id="circle225"/>
	<circle cx="925.281" cy="357.594" r="4" fill="#0" id="circle226"/>
	<circle cx="928.188" cy="254.906" r="4" fill="#0" id="circle227"/>
	<circle cx="931.094" cy="81.5" r="4" fill="#0" id="circle228"/>
	<circle cx="934.969" cy="247.156" r="4" fill="#0" id="circle229"/>
	<circle cx="940.781" cy="77.625" r="4" fill="#0" id="circle230"/>
	<circle cx="942.719" cy="240.375" r="4" fill="#0" id="circle231"/>
	<circle cx="949.5" cy="232.625" r="4" fill="#0" id="circle232"/>
	<circle cx="950.469" cy="76.6562" r="4" fill="#0" id="circle233"/>
	<circle cx="958.219" cy="227.781" r="4" fill="#0" id="circle234"/>
	<circle cx="959.188" cy="81.5" r="4" fill="#0" id="circle235"/>
	<circle cx="964.031" cy="218.094" r="4" fill="#0" id="circle236"/>
	<circle cx="966.938" cy="87.3125" r="4" fill="#0" id="circle237"/>
	<circle cx="968.875" cy="97" r="4" fill="#0" id="circle238"/>
	<circle cx="970.812" cy="106.688" r="4" fill="#0" id="circle239"/>
	<circle cx="972.75" cy="213.25" r="4" fill="#0" id="circle240"/>
	<circle cx="975.656" cy="115.406" r="4" fill="#0" id="circle241"/>
	<circle cx="978.562" cy="125.094" r="4" fill="#0" id="circle242"/>
	<circle cx="981.469" cy="208.406" r="4" fill="#0" id="circle243"/>
	<circle cx="983.406" cy="133.812" r="4" fill="#0" id="circle244"/>
	<circle cx="988.25" cy="142.531" r="4" fill="#0" id="circle245"/>
	<circle cx="990.188" cy="202.594" r="4" fill="#0" id="circle246"/>
	<circle cx="993.094" cy="151.25" r="4" fill="#0" id="circle247"/>
	<circle cx="993.094" cy="160.938" r="4" fill="#0" id="circle248"/>
	<circle cx="993.094" cy="170.625" r="4" fill="#0" id="circle249"/>
	<circle cx="995.031" cy="192.906" r="4" fill="#0" id="circle250"/>
	<circle cx="996" cy="180.312" r="4" fill="#0" id="circle251"/>
	</g>
</svg>