<?xml version="1.0" encoding="UTF-8" standalone="no"?>
<!-- Created with CurveBenchmark -->
<svg
	xmlns:dc="http://purl.org/dc/elements/1.1/"
	xmlns:cc="http://creativecommons.org/ns#"
	xmlns:rdf="http://www.w3.org/1999/02/22-rdf-syntax-ns#"
	xmlns:svg="http://www.w3.org/2000/svg"
	xmlns="http://www.w3.org/2000/svg"
	xmlns:sodipodi="http://sodipodi.sourceforge.net/DTD/sodipodi-0.dtd"
	xmlns:inkscape="http://www.inkscape.org/namespaces/inkscape"
	width="1000"
	height="1000"
	id="svg2"
	version="1.1"
	sodipodi:docname="manifold/ccrust-car-11.png.txt">
<defs
	id="defs4" />
<metadata
	id="metadata7">
	<rdf:RDF>
		<cc:Work
			rdf:about="">
			<dc:format>image/svg+xml</dc:format>
			<dc:type
				rdf:resource="http://purl.org/dc/dcmitype/StillImage" />
			<dc:title></dc:title>
		</cc:Work>
	</rdf:RDF>
</metadata>
<g
	inkscape:label="Layer 1"
	inkscape:groupmode="layer"
	id="layer1">
	<path style="fill:none;stroke:red;stroke-width:1px;stroke-linecap:butt;stroke-linejoin:miter;stroke-opacity:1" d="M 164.034,186.291 153.436,189.47 z" id="boundary" inkscape:connector-curvature="0" />
	<path style="fill:none;stroke:red;stroke-width:1px;stroke-linecap:butt;stroke-linejoin:miter;stroke-opacity:1" d="M 153.436,189.47 142.838,189.47 z" id="boundary" inkscape:connector-curvature="0" />
	<path style="fill:none;stroke:red;stroke-width:1px;stroke-linecap:butt;stroke-linejoin:miter;stroke-opacity:1" d="M 174.632,184.171 164.034,186.291 z" id="boundary" inkscape:connector-curvature="0" />
	<path style="fill:none;stroke:red;stroke-width:1px;stroke-linecap:butt;stroke-linejoin:miter;stroke-opacity:1" d="M 132.239,191.59 142.838,189.47 z" id="boundary" inkscape:connector-curvature="0" />
	<path style="fill:none;stroke:red;stroke-width:1px;stroke-linecap:butt;stroke-linejoin:miter;stroke-opacity:1" d="M 90.906,205.368 100.444,200.068 z" id="boundary" inkscape:connector-curvature="0" />
	<path style="fill:none;stroke:red;stroke-width:1px;stroke-linecap:butt;stroke-linejoin:miter;stroke-opacity:1" d="M 100.444,200.068 111.043,196.889 z" id="boundary" inkscape:connector-curvature="0" />
	<path style="fill:none;stroke:red;stroke-width:1px;stroke-linecap:butt;stroke-linejoin:miter;stroke-opacity:1" d="M 121.641,194.769 132.239,191.59 z" id="boundary" inkscape:connector-curvature="0" />
	<path style="fill:none;stroke:red;stroke-width:1px;stroke-linecap:butt;stroke-linejoin:miter;stroke-opacity:1" d="M 121.641,194.769 111.043,196.889 z" id="boundary" inkscape:connector-curvature="0" />
	<path style="fill:none;stroke:red;stroke-width:1px;stroke-linecap:butt;stroke-linejoin:miter;stroke-opacity:1" d="M 217.026,178.872 227.624,178.872 z" id="boundary" inkscape:connector-curvature="0" />
	<path style="fill:none;stroke:red;stroke-width:1px;stroke-linecap:butt;stroke-linejoin:miter;stroke-opacity:1" d="M 206.427,180.991 217.026,178.872 z" id="boundary" inkscape:connector-curvature="0" />
	<path style="fill:none;stroke:red;stroke-width:1px;stroke-linecap:butt;stroke-linejoin:miter;stroke-opacity:1" d="M 247.761,173.573 238.222,178.872 z" id="boundary" inkscape:connector-curvature="0" />
	<path style="fill:none;stroke:red;stroke-width:1px;stroke-linecap:butt;stroke-linejoin:miter;stroke-opacity:1" d="M 238.222,178.872 227.624,178.872 z" id="boundary" inkscape:connector-curvature="0" />
	<path style="fill:none;stroke:red;stroke-width:1px;stroke-linecap:butt;stroke-linejoin:miter;stroke-opacity:1" d="M 174.632,184.171 185.231,184.171 z" id="boundary" inkscape:connector-curvature="0" />
	<path style="fill:none;stroke:red;stroke-width:1px;stroke-linecap:butt;stroke-linejoin:miter;stroke-opacity:1" d="M 195.829,184.171 206.427,180.991 z" id="boundary" inkscape:connector-curvature="0" />
	<path style="fill:none;stroke:red;stroke-width:1px;stroke-linecap:butt;stroke-linejoin:miter;stroke-opacity:1" d="M 195.829,184.171 185.231,184.171 z" id="boundary" inkscape:connector-curvature="0" />
	<path style="fill:none;stroke:red;stroke-width:1px;stroke-linecap:butt;stroke-linejoin:miter;stroke-opacity:1" d="M 9.29915,260.479 4,250.94 z" id="boundary" inkscape:connector-curvature="0" />
	<path style="fill:none;stroke:red;stroke-width:1px;stroke-linecap:butt;stroke-linejoin:miter;stroke-opacity:1" d="M 4,250.94 4,240.342 z" id="boundary" inkscape:connector-curvature="0" />
	<path style="fill:none;stroke:red;stroke-width:1px;stroke-linecap:butt;stroke-linejoin:miter;stroke-opacity:1" d="M 4,240.342 9.29915,229.744 z" id="boundary" inkscape:connector-curvature="0" />
	<path style="fill:none;stroke:red;stroke-width:1px;stroke-linecap:butt;stroke-linejoin:miter;stroke-opacity:1" d="M 9.29915,229.744 17.7778,221.265 z" id="boundary" inkscape:connector-curvature="0" />
	<path style="fill:none;stroke:red;stroke-width:1px;stroke-linecap:butt;stroke-linejoin:miter;stroke-opacity:1" d="M 9.29915,260.479 9.29915,271.077 z" id="boundary" inkscape:connector-curvature="0" />
	<path style="fill:none;stroke:red;stroke-width:1px;stroke-linecap:butt;stroke-linejoin:miter;stroke-opacity:1" d="M 9.29915,281.675 14.5983,291.214 z" id="boundary" inkscape:connector-curvature="0" />
	<path style="fill:none;stroke:red;stroke-width:1px;stroke-linecap:butt;stroke-linejoin:miter;stroke-opacity:1" d="M 9.29915,281.675 9.29915,271.077 z" id="boundary" inkscape:connector-curvature="0" />
	<path style="fill:none;stroke:red;stroke-width:1px;stroke-linecap:butt;stroke-linejoin:miter;stroke-opacity:1" d="M 17.7778,221.265 28.3761,215.966 z" id="boundary" inkscape:connector-curvature="0" />
	<path style="fill:none;stroke:red;stroke-width:1px;stroke-linecap:butt;stroke-linejoin:miter;stroke-opacity:1" d="M 59.1111,205.368 69.7094,205.368 z" id="boundary" inkscape:connector-curvature="0" />
	<path style="fill:none;stroke:red;stroke-width:1px;stroke-linecap:butt;stroke-linejoin:miter;stroke-opacity:1" d="M 49.5726,210.667 59.1111,205.368 z" id="boundary" inkscape:connector-curvature="0" />
	<path style="fill:none;stroke:red;stroke-width:1px;stroke-linecap:butt;stroke-linejoin:miter;stroke-opacity:1" d="M 80.3077,205.368 90.906,205.368 z" id="boundary" inkscape:connector-curvature="0" />
	<path style="fill:none;stroke:red;stroke-width:1px;stroke-linecap:butt;stroke-linejoin:miter;stroke-opacity:1" d="M 80.3077,205.368 69.7094,205.368 z" id="boundary" inkscape:connector-curvature="0" />
	<path style="fill:none;stroke:red;stroke-width:1px;stroke-linecap:butt;stroke-linejoin:miter;stroke-opacity:1" d="M 19.8974,300.752 14.5983,291.214 z" id="boundary" inkscape:connector-curvature="0" />
	<path style="fill:none;stroke:red;stroke-width:1px;stroke-linecap:butt;stroke-linejoin:miter;stroke-opacity:1" d="M 38.9744,210.667 49.5726,210.667 z" id="boundary" inkscape:connector-curvature="0" />
	<path style="fill:none;stroke:red;stroke-width:1px;stroke-linecap:butt;stroke-linejoin:miter;stroke-opacity:1" d="M 28.3761,215.966 38.9744,210.667 z" id="boundary" inkscape:connector-curvature="0" />
	<path style="fill:none;stroke:red;stroke-width:1px;stroke-linecap:butt;stroke-linejoin:miter;stroke-opacity:1" d="M 19.8974,311.35 19.8974,300.752 z" id="boundary" inkscape:connector-curvature="0" />
	<path style="fill:none;stroke:red;stroke-width:1px;stroke-linecap:butt;stroke-linejoin:miter;stroke-opacity:1" d="M 247.761,173.573 258.359,173.573 z" id="boundary" inkscape:connector-curvature="0" />
	<path style="fill:none;stroke:red;stroke-width:1px;stroke-linecap:butt;stroke-linejoin:miter;stroke-opacity:1" d="M 388.718,104.684 378.12,104.684 z" id="boundary" inkscape:connector-curvature="0" />
	<path style="fill:none;stroke:red;stroke-width:1px;stroke-linecap:butt;stroke-linejoin:miter;stroke-opacity:1" d="M 378.12,104.684 367.521,104.684 z" id="boundary" inkscape:connector-curvature="0" />
	<path style="fill:none;stroke:red;stroke-width:1px;stroke-linecap:butt;stroke-linejoin:miter;stroke-opacity:1" d="M 449.128,54.8718 443.829,70.7692 z" id="boundary" inkscape:connector-curvature="0" />
	<path style="fill:none;stroke:red;stroke-width:1px;stroke-linecap:butt;stroke-linejoin:miter;stroke-opacity:1" d="M 357.983,109.983 367.521,104.684 z" id="boundary" inkscape:connector-curvature="0" />
	<path style="fill:none;stroke:red;stroke-width:1px;stroke-linecap:butt;stroke-linejoin:miter;stroke-opacity:1" d="M 399.316,104.684 408.855,109.983 z" id="boundary" inkscape:connector-curvature="0" />
	<path style="fill:none;stroke:red;stroke-width:1px;stroke-linecap:butt;stroke-linejoin:miter;stroke-opacity:1" d="M 388.718,104.684 399.316,104.684 z" id="boundary" inkscape:connector-curvature="0" />
	<path style="fill:none;stroke:red;stroke-width:1px;stroke-linecap:butt;stroke-linejoin:miter;stroke-opacity:1" d="M 443.829,70.7692 443.829,81.3675 z" id="boundary" inkscape:connector-curvature="0" />
	<path style="fill:none;stroke:red;stroke-width:1px;stroke-linecap:butt;stroke-linejoin:miter;stroke-opacity:1" d="M 454.427,44.2735 462.906,35.7949 z" id="boundary" inkscape:connector-curvature="0" />
	<path style="fill:none;stroke:red;stroke-width:1px;stroke-linecap:butt;stroke-linejoin:miter;stroke-opacity:1" d="M 449.128,54.8718 454.427,44.2735 z" id="boundary" inkscape:connector-curvature="0" />
	<path style="fill:none;stroke:red;stroke-width:1px;stroke-linecap:butt;stroke-linejoin:miter;stroke-opacity:1" d="M 468.205,25.1966 462.906,35.7949 z" id="boundary" inkscape:connector-curvature="0" />
	<path style="fill:none;stroke:red;stroke-width:1px;stroke-linecap:butt;stroke-linejoin:miter;stroke-opacity:1" d="M 473.504,14.5983 468.205,25.1966 z" id="boundary" inkscape:connector-curvature="0" />
	<path style="fill:none;stroke:red;stroke-width:1px;stroke-linecap:butt;stroke-linejoin:miter;stroke-opacity:1" d="M 443.829,81.3675 443.829,91.9658 z" id="boundary" inkscape:connector-curvature="0" />
	<path style="fill:none;stroke:red;stroke-width:1px;stroke-linecap:butt;stroke-linejoin:miter;stroke-opacity:1" d="M 443.829,102.564 443.829,91.9658 z" id="boundary" inkscape:connector-curvature="0" />
	<path style="fill:none;stroke:red;stroke-width:1px;stroke-linecap:butt;stroke-linejoin:miter;stroke-opacity:1" d="M 418.393,115.282 408.855,109.983 z" id="boundary" inkscape:connector-curvature="0" />
	<path style="fill:none;stroke:red;stroke-width:1px;stroke-linecap:butt;stroke-linejoin:miter;stroke-opacity:1" d="M 439.59,122.701 443.829,102.564 z" id="boundary" inkscape:connector-curvature="0" />
	<path style="fill:none;stroke:red;stroke-width:1px;stroke-linecap:butt;stroke-linejoin:miter;stroke-opacity:1" d="M 357.983,109.983 348.444,115.282 z" id="boundary" inkscape:connector-curvature="0" />
	<path style="fill:none;stroke:red;stroke-width:1px;stroke-linecap:butt;stroke-linejoin:miter;stroke-opacity:1" d="M 292.274,141.778 302.872,141.778 z" id="boundary" inkscape:connector-curvature="0" />
	<path style="fill:none;stroke:red;stroke-width:1px;stroke-linecap:butt;stroke-linejoin:miter;stroke-opacity:1" d="M 282.735,147.077 292.274,141.778 z" id="boundary" inkscape:connector-curvature="0" />
	<path style="fill:none;stroke:red;stroke-width:1px;stroke-linecap:butt;stroke-linejoin:miter;stroke-opacity:1" d="M 313.47,141.778 324.068,137.538 z" id="boundary" inkscape:connector-curvature="0" />
	<path style="fill:none;stroke:red;stroke-width:1px;stroke-linecap:butt;stroke-linejoin:miter;stroke-opacity:1" d="M 313.47,141.778 302.872,141.778 z" id="boundary" inkscape:connector-curvature="0" />
	<path style="fill:none;stroke:red;stroke-width:1px;stroke-linecap:butt;stroke-linejoin:miter;stroke-opacity:1" d="M 258.359,173.573 268.957,173.573 z" id="boundary" inkscape:connector-curvature="0" />
	<path style="fill:none;stroke:red;stroke-width:1px;stroke-linecap:butt;stroke-linejoin:miter;stroke-opacity:1" d="M 274.256,155.556 268.957,173.573 z" id="boundary" inkscape:connector-curvature="0" />
	<path style="fill:none;stroke:red;stroke-width:1px;stroke-linecap:butt;stroke-linejoin:miter;stroke-opacity:1" d="M 274.256,155.556 282.735,147.077 z" id="boundary" inkscape:connector-curvature="0" />
	<path style="fill:none;stroke:red;stroke-width:1px;stroke-linecap:butt;stroke-linejoin:miter;stroke-opacity:1" d="M 334.667,132.239 339.966,121.641 z" id="boundary" inkscape:connector-curvature="0" />
	<path style="fill:none;stroke:red;stroke-width:1px;stroke-linecap:butt;stroke-linejoin:miter;stroke-opacity:1" d="M 339.966,121.641 348.444,115.282 z" id="boundary" inkscape:connector-curvature="0" />
	<path style="fill:none;stroke:red;stroke-width:1px;stroke-linecap:butt;stroke-linejoin:miter;stroke-opacity:1" d="M 418.393,115.282 423.692,124.821 z" id="boundary" inkscape:connector-curvature="0" />
	<path style="fill:none;stroke:red;stroke-width:1px;stroke-linecap:butt;stroke-linejoin:miter;stroke-opacity:1" d="M 423.692,124.821 423.692,135.419 z" id="boundary" inkscape:connector-curvature="0" />
	<path style="fill:none;stroke:red;stroke-width:1px;stroke-linecap:butt;stroke-linejoin:miter;stroke-opacity:1" d="M 434.291,133.299 423.692,135.419 z" id="boundary" inkscape:connector-curvature="0" />
	<path style="fill:none;stroke:red;stroke-width:1px;stroke-linecap:butt;stroke-linejoin:miter;stroke-opacity:1" d="M 439.59,122.701 434.291,133.299 z" id="boundary" inkscape:connector-curvature="0" />
	<path style="fill:none;stroke:red;stroke-width:1px;stroke-linecap:butt;stroke-linejoin:miter;stroke-opacity:1" d="M 324.068,137.538 334.667,132.239 z" id="boundary" inkscape:connector-curvature="0" />
	<path style="fill:none;stroke:red;stroke-width:1px;stroke-linecap:butt;stroke-linejoin:miter;stroke-opacity:1" d="M 483.043,9.29915 473.504,14.5983 z" id="boundary" inkscape:connector-curvature="0" />
	<path style="fill:none;stroke:red;stroke-width:1px;stroke-linecap:butt;stroke-linejoin:miter;stroke-opacity:1" d="M 19.8974,311.35 19.8974,321.949 z" id="boundary" inkscape:connector-curvature="0" />
	<path style="fill:none;stroke:red;stroke-width:1px;stroke-linecap:butt;stroke-linejoin:miter;stroke-opacity:1" d="M 19.8974,343.145 19.8974,332.547 z" id="boundary" inkscape:connector-curvature="0" />
	<path style="fill:none;stroke:red;stroke-width:1px;stroke-linecap:butt;stroke-linejoin:miter;stroke-opacity:1" d="M 19.8974,321.949 19.8974,332.547 z" id="boundary" inkscape:connector-curvature="0" />
	<path style="fill:none;stroke:red;stroke-width:1px;stroke-linecap:butt;stroke-linejoin:miter;stroke-opacity:1" d="M 19.8974,343.145 19.8974,353.744 z" id="boundary" inkscape:connector-curvature="0" />
	<path style="fill:none;stroke:red;stroke-width:1px;stroke-linecap:butt;stroke-linejoin:miter;stroke-opacity:1" d="M 22.0171,374.94 19.8974,364.342 z" id="boundary" inkscape:connector-curvature="0" />
	<path style="fill:none;stroke:red;stroke-width:1px;stroke-linecap:butt;stroke-linejoin:miter;stroke-opacity:1" d="M 19.8974,364.342 19.8974,353.744 z" id="boundary" inkscape:connector-curvature="0" />
	<path style="fill:none;stroke:red;stroke-width:1px;stroke-linecap:butt;stroke-linejoin:miter;stroke-opacity:1" d="M 25.1966,385.538 30.4957,395.077 z" id="boundary" inkscape:connector-curvature="0" />
	<path style="fill:none;stroke:red;stroke-width:1px;stroke-linecap:butt;stroke-linejoin:miter;stroke-opacity:1" d="M 25.1966,385.538 22.0171,374.94 z" id="boundary" inkscape:connector-curvature="0" />
	<path style="fill:none;stroke:red;stroke-width:1px;stroke-linecap:butt;stroke-linejoin:miter;stroke-opacity:1" d="M 35.7949,404.615 41.094,414.154 z" id="boundary" inkscape:connector-curvature="0" />
	<path style="fill:none;stroke:red;stroke-width:1px;stroke-linecap:butt;stroke-linejoin:miter;stroke-opacity:1" d="M 35.7949,404.615 30.4957,395.077 z" id="boundary" inkscape:connector-curvature="0" />
	<path style="fill:none;stroke:red;stroke-width:1px;stroke-linecap:butt;stroke-linejoin:miter;stroke-opacity:1" d="M 46.3932,423.692 46.3932,434.291 z" id="boundary" inkscape:connector-curvature="0" />
	<path style="fill:none;stroke:red;stroke-width:1px;stroke-linecap:butt;stroke-linejoin:miter;stroke-opacity:1" d="M 41.094,414.154 46.3932,423.692 z" id="boundary" inkscape:connector-curvature="0" />
	<path style="fill:none;stroke:red;stroke-width:1px;stroke-linecap:butt;stroke-linejoin:miter;stroke-opacity:1" d="M 46.3932,444.889 51.6923,454.427 z" id="boundary" inkscape:connector-curvature="0" />
	<path style="fill:none;stroke:red;stroke-width:1px;stroke-linecap:butt;stroke-linejoin:miter;stroke-opacity:1" d="M 51.6923,454.427 53.812,465.026 z" id="boundary" inkscape:connector-curvature="0" />
	<path style="fill:none;stroke:red;stroke-width:1px;stroke-linecap:butt;stroke-linejoin:miter;stroke-opacity:1" d="M 46.3932,444.889 46.3932,434.291 z" id="boundary" inkscape:connector-curvature="0" />
	<path style="fill:none;stroke:red;stroke-width:1px;stroke-linecap:butt;stroke-linejoin:miter;stroke-opacity:1" d="M 68.6496,479.863 59.1111,474.564 z" id="boundary" inkscape:connector-curvature="0" />
	<path style="fill:none;stroke:red;stroke-width:1px;stroke-linecap:butt;stroke-linejoin:miter;stroke-opacity:1" d="M 59.1111,474.564 53.812,465.026 z" id="boundary" inkscape:connector-curvature="0" />
	<path style="fill:none;stroke:red;stroke-width:1px;stroke-linecap:butt;stroke-linejoin:miter;stroke-opacity:1" d="M 111.043,476.684 119.521,469.265 z" id="boundary" inkscape:connector-curvature="0" />
	<path style="fill:none;stroke:red;stroke-width:1px;stroke-linecap:butt;stroke-linejoin:miter;stroke-opacity:1" d="M 89.8462,481.983 79.2479,481.983 z" id="boundary" inkscape:connector-curvature="0" />
	<path style="fill:none;stroke:red;stroke-width:1px;stroke-linecap:butt;stroke-linejoin:miter;stroke-opacity:1" d="M 121.641,455.487 119.521,469.265 z" id="boundary" inkscape:connector-curvature="0" />
	<path style="fill:none;stroke:red;stroke-width:1px;stroke-linecap:butt;stroke-linejoin:miter;stroke-opacity:1" d="M 79.2479,481.983 68.6496,479.863 z" id="boundary" inkscape:connector-curvature="0" />
	<path style="fill:none;stroke:red;stroke-width:1px;stroke-linecap:butt;stroke-linejoin:miter;stroke-opacity:1" d="M 89.8462,481.983 100.444,481.983 z" id="boundary" inkscape:connector-curvature="0" />
	<path style="fill:none;stroke:red;stroke-width:1px;stroke-linecap:butt;stroke-linejoin:miter;stroke-opacity:1" d="M 111.043,476.684 100.444,481.983 z" id="boundary" inkscape:connector-curvature="0" />
	<path style="fill:none;stroke:red;stroke-width:1px;stroke-linecap:butt;stroke-linejoin:miter;stroke-opacity:1" d="M 121.641,455.487 132.239,455.487 z" id="boundary" inkscape:connector-curvature="0" />
	<path style="fill:none;stroke:red;stroke-width:1px;stroke-linecap:butt;stroke-linejoin:miter;stroke-opacity:1" d="M 142.838,455.487 153.436,455.487 z" id="boundary" inkscape:connector-curvature="0" />
	<path style="fill:none;stroke:red;stroke-width:1px;stroke-linecap:butt;stroke-linejoin:miter;stroke-opacity:1" d="M 142.838,455.487 132.239,455.487 z" id="boundary" inkscape:connector-curvature="0" />
	<path style="fill:none;stroke:red;stroke-width:1px;stroke-linecap:butt;stroke-linejoin:miter;stroke-opacity:1" d="M 164.034,455.487 174.632,455.487 z" id="boundary" inkscape:connector-curvature="0" />
	<path style="fill:none;stroke:red;stroke-width:1px;stroke-linecap:butt;stroke-linejoin:miter;stroke-opacity:1" d="M 164.034,455.487 153.436,455.487 z" id="boundary" inkscape:connector-curvature="0" />
	<path style="fill:none;stroke:red;stroke-width:1px;stroke-linecap:butt;stroke-linejoin:miter;stroke-opacity:1" d="M 185.231,455.487 195.829,455.487 z" id="boundary" inkscape:connector-curvature="0" />
	<path style="fill:none;stroke:red;stroke-width:1px;stroke-linecap:butt;stroke-linejoin:miter;stroke-opacity:1" d="M 185.231,455.487 174.632,455.487 z" id="boundary" inkscape:connector-curvature="0" />
	<path style="fill:none;stroke:red;stroke-width:1px;stroke-linecap:butt;stroke-linejoin:miter;stroke-opacity:1" d="M 195.829,455.487 206.427,455.487 z" id="boundary" inkscape:connector-curvature="0" />
	<path style="fill:none;stroke:red;stroke-width:1px;stroke-linecap:butt;stroke-linejoin:miter;stroke-opacity:1" d="M 362.222,427.932 372.821,422.632 z" id="boundary" inkscape:connector-curvature="0" />
	<path style="fill:none;stroke:red;stroke-width:1px;stroke-linecap:butt;stroke-linejoin:miter;stroke-opacity:1" d="M 381.299,413.094 372.821,422.632 z" id="boundary" inkscape:connector-curvature="0" />
	<path style="fill:none;stroke:red;stroke-width:1px;stroke-linecap:butt;stroke-linejoin:miter;stroke-opacity:1" d="M 381.299,413.094 390.838,407.795 z" id="boundary" inkscape:connector-curvature="0" />
	<path style="fill:none;stroke:red;stroke-width:1px;stroke-linecap:butt;stroke-linejoin:miter;stroke-opacity:1" d="M 390.838,407.795 401.436,407.795 z" id="boundary" inkscape:connector-curvature="0" />
	<path style="fill:none;stroke:red;stroke-width:1px;stroke-linecap:butt;stroke-linejoin:miter;stroke-opacity:1" d="M 321.949,444.889 311.35,444.889 z" id="boundary" inkscape:connector-curvature="0" />
	<path style="fill:none;stroke:red;stroke-width:1px;stroke-linecap:butt;stroke-linejoin:miter;stroke-opacity:1" d="M 331.487,439.59 321.949,444.889 z" id="boundary" inkscape:connector-curvature="0" />
	<path style="fill:none;stroke:red;stroke-width:1px;stroke-linecap:butt;stroke-linejoin:miter;stroke-opacity:1" d="M 341.026,434.291 331.487,439.59 z" id="boundary" inkscape:connector-curvature="0" />
	<path style="fill:none;stroke:red;stroke-width:1px;stroke-linecap:butt;stroke-linejoin:miter;stroke-opacity:1" d="M 341.026,434.291 351.624,433.231 z" id="boundary" inkscape:connector-curvature="0" />
	<path style="fill:none;stroke:red;stroke-width:1px;stroke-linecap:butt;stroke-linejoin:miter;stroke-opacity:1" d="M 362.222,427.932 351.624,433.231 z" id="boundary" inkscape:connector-curvature="0" />
	<path style="fill:none;stroke:red;stroke-width:1px;stroke-linecap:butt;stroke-linejoin:miter;stroke-opacity:1" d="M 422.632,407.795 433.231,407.795 z" id="boundary" inkscape:connector-curvature="0" />
	<path style="fill:none;stroke:red;stroke-width:1px;stroke-linecap:butt;stroke-linejoin:miter;stroke-opacity:1" d="M 422.632,407.795 412.034,407.795 z" id="boundary" inkscape:connector-curvature="0" />
	<path style="fill:none;stroke:red;stroke-width:1px;stroke-linecap:butt;stroke-linejoin:miter;stroke-opacity:1" d="M 412.034,407.795 401.436,407.795 z" id="boundary" inkscape:connector-curvature="0" />
	<path style="fill:none;stroke:red;stroke-width:1px;stroke-linecap:butt;stroke-linejoin:miter;stroke-opacity:1" d="M 449.128,417.333 449.128,427.932 z" id="boundary" inkscape:connector-curvature="0" />
	<path style="fill:none;stroke:red;stroke-width:1px;stroke-linecap:butt;stroke-linejoin:miter;stroke-opacity:1" d="M 449.128,417.333 443.829,407.795 z" id="boundary" inkscape:connector-curvature="0" />
	<path style="fill:none;stroke:red;stroke-width:1px;stroke-linecap:butt;stroke-linejoin:miter;stroke-opacity:1" d="M 449.128,427.932 454.427,437.47 z" id="boundary" inkscape:connector-curvature="0" />
	<path style="fill:none;stroke:red;stroke-width:1px;stroke-linecap:butt;stroke-linejoin:miter;stroke-opacity:1" d="M 459.726,447.009 454.427,437.47 z" id="boundary" inkscape:connector-curvature="0" />
	<path style="fill:none;stroke:red;stroke-width:1px;stroke-linecap:butt;stroke-linejoin:miter;stroke-opacity:1" d="M 433.231,407.795 443.829,407.795 z" id="boundary" inkscape:connector-curvature="0" />
	<path style="fill:none;stroke:red;stroke-width:1px;stroke-linecap:butt;stroke-linejoin:miter;stroke-opacity:1" d="M 217.026,455.487 227.624,455.487 z" id="boundary" inkscape:connector-curvature="0" />
	<path style="fill:none;stroke:red;stroke-width:1px;stroke-linecap:butt;stroke-linejoin:miter;stroke-opacity:1" d="M 238.222,455.487 227.624,455.487 z" id="boundary" inkscape:connector-curvature="0" />
	<path style="fill:none;stroke:red;stroke-width:1px;stroke-linecap:butt;stroke-linejoin:miter;stroke-opacity:1" d="M 217.026,455.487 206.427,455.487 z" id="boundary" inkscape:connector-curvature="0" />
	<path style="fill:none;stroke:red;stroke-width:1px;stroke-linecap:butt;stroke-linejoin:miter;stroke-opacity:1" d="M 248.821,455.487 259.419,455.487 z" id="boundary" inkscape:connector-curvature="0" />
	<path style="fill:none;stroke:red;stroke-width:1px;stroke-linecap:butt;stroke-linejoin:miter;stroke-opacity:1" d="M 248.821,455.487 238.222,455.487 z" id="boundary" inkscape:connector-curvature="0" />
	<path style="fill:none;stroke:red;stroke-width:1px;stroke-linecap:butt;stroke-linejoin:miter;stroke-opacity:1" d="M 270.017,455.487 259.419,455.487 z" id="boundary" inkscape:connector-curvature="0" />
	<path style="fill:none;stroke:red;stroke-width:1px;stroke-linecap:butt;stroke-linejoin:miter;stroke-opacity:1" d="M 280.615,450.188 270.017,455.487 z" id="boundary" inkscape:connector-curvature="0" />
	<path style="fill:none;stroke:red;stroke-width:1px;stroke-linecap:butt;stroke-linejoin:miter;stroke-opacity:1" d="M 280.615,450.188 291.214,450.188 z" id="boundary" inkscape:connector-curvature="0" />
	<path style="fill:none;stroke:red;stroke-width:1px;stroke-linecap:butt;stroke-linejoin:miter;stroke-opacity:1" d="M 311.35,444.889 301.812,450.188 z" id="boundary" inkscape:connector-curvature="0" />
	<path style="fill:none;stroke:red;stroke-width:1px;stroke-linecap:butt;stroke-linejoin:miter;stroke-opacity:1" d="M 301.812,450.188 291.214,450.188 z" id="boundary" inkscape:connector-curvature="0" />
	<path style="fill:none;stroke:red;stroke-width:1px;stroke-linecap:butt;stroke-linejoin:miter;stroke-opacity:1" d="M 459.726,447.009 465.026,456.547 z" id="boundary" inkscape:connector-curvature="0" />
	<path style="fill:none;stroke:red;stroke-width:1px;stroke-linecap:butt;stroke-linejoin:miter;stroke-opacity:1" d="M 465.026,456.547 470.325,466.085 z" id="boundary" inkscape:connector-curvature="0" />
	<path style="fill:none;stroke:red;stroke-width:1px;stroke-linecap:butt;stroke-linejoin:miter;stroke-opacity:1" d="M 475.624,475.624 477.744,486.222 z" id="boundary" inkscape:connector-curvature="0" />
	<path style="fill:none;stroke:red;stroke-width:1px;stroke-linecap:butt;stroke-linejoin:miter;stroke-opacity:1" d="M 470.325,466.085 475.624,475.624 z" id="boundary" inkscape:connector-curvature="0" />
	<path style="fill:none;stroke:red;stroke-width:1px;stroke-linecap:butt;stroke-linejoin:miter;stroke-opacity:1" d="M 486.222,492.581 477.744,486.222 z" id="boundary" inkscape:connector-curvature="0" />
	<path style="fill:none;stroke:red;stroke-width:1px;stroke-linecap:butt;stroke-linejoin:miter;stroke-opacity:1" d="M 492.581,4 503.179,4 z" id="boundary" inkscape:connector-curvature="0" />
	<path style="fill:none;stroke:red;stroke-width:1px;stroke-linecap:butt;stroke-linejoin:miter;stroke-opacity:1" d="M 483.043,9.29915 492.581,4 z" id="boundary" inkscape:connector-curvature="0" />
	<path style="fill:none;stroke:red;stroke-width:1px;stroke-linecap:butt;stroke-linejoin:miter;stroke-opacity:1" d="M 503.179,4 513.778,4 z" id="boundary" inkscape:connector-curvature="0" />
	<path style="fill:none;stroke:red;stroke-width:1px;stroke-linecap:butt;stroke-linejoin:miter;stroke-opacity:1" d="M 524.376,4 534.974,4 z" id="boundary" inkscape:connector-curvature="0" />
	<path style="fill:none;stroke:red;stroke-width:1px;stroke-linecap:butt;stroke-linejoin:miter;stroke-opacity:1" d="M 545.573,4 556.171,4 z" id="boundary" inkscape:connector-curvature="0" />
	<path style="fill:none;stroke:red;stroke-width:1px;stroke-linecap:butt;stroke-linejoin:miter;stroke-opacity:1" d="M 534.974,4 545.573,4 z" id="boundary" inkscape:connector-curvature="0" />
	<path style="fill:none;stroke:red;stroke-width:1px;stroke-linecap:butt;stroke-linejoin:miter;stroke-opacity:1" d="M 513.778,4 524.376,4 z" id="boundary" inkscape:connector-curvature="0" />
	<path style="fill:none;stroke:red;stroke-width:1px;stroke-linecap:butt;stroke-linejoin:miter;stroke-opacity:1" d="M 577.368,4 587.966,4 z" id="boundary" inkscape:connector-curvature="0" />
	<path style="fill:none;stroke:red;stroke-width:1px;stroke-linecap:butt;stroke-linejoin:miter;stroke-opacity:1" d="M 598.564,4 609.162,4 z" id="boundary" inkscape:connector-curvature="0" />
	<path style="fill:none;stroke:red;stroke-width:1px;stroke-linecap:butt;stroke-linejoin:miter;stroke-opacity:1" d="M 587.966,4 598.564,4 z" id="boundary" inkscape:connector-curvature="0" />
	<path style="fill:none;stroke:red;stroke-width:1px;stroke-linecap:butt;stroke-linejoin:miter;stroke-opacity:1" d="M 609.162,4 619.761,4 z" id="boundary" inkscape:connector-curvature="0" />
	<path style="fill:none;stroke:red;stroke-width:1px;stroke-linecap:butt;stroke-linejoin:miter;stroke-opacity:1" d="M 630.359,4 640.957,4 z" id="boundary" inkscape:connector-curvature="0" />
	<path style="fill:none;stroke:red;stroke-width:1px;stroke-linecap:butt;stroke-linejoin:miter;stroke-opacity:1" d="M 619.761,4 630.359,4 z" id="boundary" inkscape:connector-curvature="0" />
	<path style="fill:none;stroke:red;stroke-width:1px;stroke-linecap:butt;stroke-linejoin:miter;stroke-opacity:1" d="M 566.769,4 577.368,4 z" id="boundary" inkscape:connector-curvature="0" />
	<path style="fill:none;stroke:red;stroke-width:1px;stroke-linecap:butt;stroke-linejoin:miter;stroke-opacity:1" d="M 651.556,4 662.154,4 z" id="boundary" inkscape:connector-curvature="0" />
	<path style="fill:none;stroke:red;stroke-width:1px;stroke-linecap:butt;stroke-linejoin:miter;stroke-opacity:1" d="M 672.752,4 683.35,4 z" id="boundary" inkscape:connector-curvature="0" />
	<path style="fill:none;stroke:red;stroke-width:1px;stroke-linecap:butt;stroke-linejoin:miter;stroke-opacity:1" d="M 683.35,4 693.949,7.17949 z" id="boundary" inkscape:connector-curvature="0" />
	<path style="fill:none;stroke:red;stroke-width:1px;stroke-linecap:butt;stroke-linejoin:miter;stroke-opacity:1" d="M 662.154,4 672.752,4 z" id="boundary" inkscape:connector-curvature="0" />
	<path style="fill:none;stroke:red;stroke-width:1px;stroke-linecap:butt;stroke-linejoin:miter;stroke-opacity:1" d="M 556.171,4 566.769,4 z" id="boundary" inkscape:connector-curvature="0" />
	<path style="fill:none;stroke:red;stroke-width:1px;stroke-linecap:butt;stroke-linejoin:miter;stroke-opacity:1" d="M 704.547,9.29915 715.145,9.29915 z" id="boundary" inkscape:connector-curvature="0" />
	<path style="fill:none;stroke:red;stroke-width:1px;stroke-linecap:butt;stroke-linejoin:miter;stroke-opacity:1" d="M 715.145,9.29915 724.684,14.5983 z" id="boundary" inkscape:connector-curvature="0" />
	<path style="fill:none;stroke:red;stroke-width:1px;stroke-linecap:butt;stroke-linejoin:miter;stroke-opacity:1" d="M 704.547,9.29915 693.949,7.17949 z" id="boundary" inkscape:connector-curvature="0" />
	<path style="fill:none;stroke:red;stroke-width:1px;stroke-linecap:butt;stroke-linejoin:miter;stroke-opacity:1" d="M 640.957,4 651.556,4 z" id="boundary" inkscape:connector-curvature="0" />
	<path style="fill:none;stroke:red;stroke-width:1px;stroke-linecap:butt;stroke-linejoin:miter;stroke-opacity:1" d="M 724.684,14.5983 735.282,14.5983 z" id="boundary" inkscape:connector-curvature="0" />
	<path style="fill:none;stroke:red;stroke-width:1px;stroke-linecap:butt;stroke-linejoin:miter;stroke-opacity:1" d="M 735.282,14.5983 744.821,19.8974 z" id="boundary" inkscape:connector-curvature="0" />
	<path style="fill:none;stroke:red;stroke-width:1px;stroke-linecap:butt;stroke-linejoin:miter;stroke-opacity:1" d="M 744.821,19.8974 754.359,25.1966 z" id="boundary" inkscape:connector-curvature="0" />
	<path style="fill:none;stroke:red;stroke-width:1px;stroke-linecap:butt;stroke-linejoin:miter;stroke-opacity:1" d="M 754.359,25.1966 761.778,33.6752 z" id="boundary" inkscape:connector-curvature="0" />
	<path style="fill:none;stroke:red;stroke-width:1px;stroke-linecap:butt;stroke-linejoin:miter;stroke-opacity:1" d="M 768.137,42.1538 761.778,33.6752 z" id="boundary" inkscape:connector-curvature="0" />
	<path style="fill:none;stroke:red;stroke-width:1px;stroke-linecap:butt;stroke-linejoin:miter;stroke-opacity:1" d="M 768.137,42.1538 773.436,51.6923 z" id="boundary" inkscape:connector-curvature="0" />
	<path style="fill:none;stroke:red;stroke-width:1px;stroke-linecap:butt;stroke-linejoin:miter;stroke-opacity:1" d="M 778.735,61.2308 773.436,51.6923 z" id="boundary" inkscape:connector-curvature="0" />
	<path style="fill:none;stroke:red;stroke-width:1px;stroke-linecap:butt;stroke-linejoin:miter;stroke-opacity:1" d="M 778.735,61.2308 778.735,71.8291 z" id="boundary" inkscape:connector-curvature="0" />
	<path style="fill:none;stroke:red;stroke-width:1px;stroke-linecap:butt;stroke-linejoin:miter;stroke-opacity:1" d="M 778.735,71.8291 778.735,82.4274 z" id="boundary" inkscape:connector-curvature="0" />
	<path style="fill:none;stroke:red;stroke-width:1px;stroke-linecap:butt;stroke-linejoin:miter;stroke-opacity:1" d="M 778.735,93.0256 778.735,82.4274 z" id="boundary" inkscape:connector-curvature="0" />
	<path style="fill:none;stroke:red;stroke-width:1px;stroke-linecap:butt;stroke-linejoin:miter;stroke-opacity:1" d="M 778.735,93.0256 778.735,103.624 z" id="boundary" inkscape:connector-curvature="0" />
	<path style="fill:none;stroke:red;stroke-width:1px;stroke-linecap:butt;stroke-linejoin:miter;stroke-opacity:1" d="M 809.47,144.957 799.932,139.658 z" id="boundary" inkscape:connector-curvature="0" />
	<path style="fill:none;stroke:red;stroke-width:1px;stroke-linecap:butt;stroke-linejoin:miter;stroke-opacity:1" d="M 778.735,114.222 784.034,123.761 z" id="boundary" inkscape:connector-curvature="0" />
	<path style="fill:none;stroke:red;stroke-width:1px;stroke-linecap:butt;stroke-linejoin:miter;stroke-opacity:1" d="M 778.735,114.222 778.735,103.624 z" id="boundary" inkscape:connector-curvature="0" />
	<path style="fill:none;stroke:red;stroke-width:1px;stroke-linecap:butt;stroke-linejoin:miter;stroke-opacity:1" d="M 784.034,123.761 791.453,132.239 z" id="boundary" inkscape:connector-curvature="0" />
	<path style="fill:none;stroke:red;stroke-width:1px;stroke-linecap:butt;stroke-linejoin:miter;stroke-opacity:1" d="M 799.932,139.658 791.453,132.239 z" id="boundary" inkscape:connector-curvature="0" />
	<path style="fill:none;stroke:red;stroke-width:1px;stroke-linecap:butt;stroke-linejoin:miter;stroke-opacity:1" d="M 809.47,144.957 820.068,149.197 z" id="boundary" inkscape:connector-curvature="0" />
	<path style="fill:none;stroke:red;stroke-width:1px;stroke-linecap:butt;stroke-linejoin:miter;stroke-opacity:1" d="M 820.068,149.197 826.427,157.675 z" id="boundary" inkscape:connector-curvature="0" />
	<path style="fill:none;stroke:red;stroke-width:1px;stroke-linecap:butt;stroke-linejoin:miter;stroke-opacity:1" d="M 826.427,157.675 837.026,157.675 z" id="boundary" inkscape:connector-curvature="0" />
	<path style="fill:none;stroke:red;stroke-width:1px;stroke-linecap:butt;stroke-linejoin:miter;stroke-opacity:1" d="M 847.624,157.675 837.026,157.675 z" id="boundary" inkscape:connector-curvature="0" />
	<path style="fill:none;stroke:red;stroke-width:1px;stroke-linecap:butt;stroke-linejoin:miter;stroke-opacity:1" d="M 847.624,157.675 858.222,157.675 z" id="boundary" inkscape:connector-curvature="0" />
	<path style="fill:none;stroke:red;stroke-width:1px;stroke-linecap:butt;stroke-linejoin:miter;stroke-opacity:1" d="M 868.821,157.675 879.419,157.675 z" id="boundary" inkscape:connector-curvature="0" />
	<path style="fill:none;stroke:red;stroke-width:1px;stroke-linecap:butt;stroke-linejoin:miter;stroke-opacity:1" d="M 868.821,157.675 858.222,157.675 z" id="boundary" inkscape:connector-curvature="0" />
	<path style="fill:none;stroke:red;stroke-width:1px;stroke-linecap:butt;stroke-linejoin:miter;stroke-opacity:1" d="M 890.017,157.675 900.615,157.675 z" id="boundary" inkscape:connector-curvature="0" />
	<path style="fill:none;stroke:red;stroke-width:1px;stroke-linecap:butt;stroke-linejoin:miter;stroke-opacity:1" d="M 890.017,157.675 879.419,157.675 z" id="boundary" inkscape:connector-curvature="0" />
	<path style="fill:none;stroke:red;stroke-width:1px;stroke-linecap:butt;stroke-linejoin:miter;stroke-opacity:1" d="M 911.214,157.675 921.812,157.675 z" id="boundary" inkscape:connector-curvature="0" />
	<path style="fill:none;stroke:red;stroke-width:1px;stroke-linecap:butt;stroke-linejoin:miter;stroke-opacity:1" d="M 921.812,157.675 932.41,160.855 z" id="boundary" inkscape:connector-curvature="0" />
	<path style="fill:none;stroke:red;stroke-width:1px;stroke-linecap:butt;stroke-linejoin:miter;stroke-opacity:1" d="M 911.214,157.675 900.615,157.675 z" id="boundary" inkscape:connector-curvature="0" />
	<path style="fill:none;stroke:red;stroke-width:1px;stroke-linecap:butt;stroke-linejoin:miter;stroke-opacity:1" d="M 932.41,160.855 941.949,166.154 z" id="boundary" inkscape:connector-curvature="0" />
	<path style="fill:none;stroke:red;stroke-width:1px;stroke-linecap:butt;stroke-linejoin:miter;stroke-opacity:1" d="M 952.547,168.274 941.949,166.154 z" id="boundary" inkscape:connector-curvature="0" />
	<path style="fill:none;stroke:red;stroke-width:1px;stroke-linecap:butt;stroke-linejoin:miter;stroke-opacity:1" d="M 952.547,168.274 962.085,173.573 z" id="boundary" inkscape:connector-curvature="0" />
	<path style="fill:none;stroke:red;stroke-width:1px;stroke-linecap:butt;stroke-linejoin:miter;stroke-opacity:1" d="M 979.043,187.35 984.342,196.889 z" id="boundary" inkscape:connector-curvature="0" />
	<path style="fill:none;stroke:red;stroke-width:1px;stroke-linecap:butt;stroke-linejoin:miter;stroke-opacity:1" d="M 984.342,196.889 988.581,207.487 z" id="boundary" inkscape:connector-curvature="0" />
	<path style="fill:none;stroke:red;stroke-width:1px;stroke-linecap:butt;stroke-linejoin:miter;stroke-opacity:1" d="M 996,215.966 988.581,207.487 z" id="boundary" inkscape:connector-curvature="0" />
	<path style="fill:none;stroke:red;stroke-width:1px;stroke-linecap:butt;stroke-linejoin:miter;stroke-opacity:1" d="M 996,215.966 996,227.624 z" id="boundary" inkscape:connector-curvature="0" />
	<path style="fill:none;stroke:red;stroke-width:1px;stroke-linecap:butt;stroke-linejoin:miter;stroke-opacity:1" d="M 996,238.222 996,248.821 z" id="boundary" inkscape:connector-curvature="0" />
	<path style="fill:none;stroke:red;stroke-width:1px;stroke-linecap:butt;stroke-linejoin:miter;stroke-opacity:1" d="M 996,227.624 996,238.222 z" id="boundary" inkscape:connector-curvature="0" />
	<path style="fill:none;stroke:red;stroke-width:1px;stroke-linecap:butt;stroke-linejoin:miter;stroke-opacity:1" d="M 971.624,178.872 979.043,187.35 z" id="boundary" inkscape:connector-curvature="0" />
	<path style="fill:none;stroke:red;stroke-width:1px;stroke-linecap:butt;stroke-linejoin:miter;stroke-opacity:1" d="M 962.085,173.573 971.624,178.872 z" id="boundary" inkscape:connector-curvature="0" />
	<path style="fill:none;stroke:red;stroke-width:1px;stroke-linecap:butt;stroke-linejoin:miter;stroke-opacity:1" d="M 587.966,418.393 598.564,418.393 z" id="boundary" inkscape:connector-curvature="0" />
	<path style="fill:none;stroke:red;stroke-width:1px;stroke-linecap:butt;stroke-linejoin:miter;stroke-opacity:1" d="M 582.667,434.291 587.966,418.393 z" id="boundary" inkscape:connector-curvature="0" />
	<path style="fill:none;stroke:red;stroke-width:1px;stroke-linecap:butt;stroke-linejoin:miter;stroke-opacity:1" d="M 609.162,418.393 598.564,418.393 z" id="boundary" inkscape:connector-curvature="0" />
	<path style="fill:none;stroke:red;stroke-width:1px;stroke-linecap:butt;stroke-linejoin:miter;stroke-opacity:1" d="M 619.761,418.393 630.359,418.393 z" id="boundary" inkscape:connector-curvature="0" />
	<path style="fill:none;stroke:red;stroke-width:1px;stroke-linecap:butt;stroke-linejoin:miter;stroke-opacity:1" d="M 640.957,418.393 651.556,418.393 z" id="boundary" inkscape:connector-curvature="0" />
	<path style="fill:none;stroke:red;stroke-width:1px;stroke-linecap:butt;stroke-linejoin:miter;stroke-opacity:1" d="M 640.957,418.393 630.359,418.393 z" id="boundary" inkscape:connector-curvature="0" />
	<path style="fill:none;stroke:red;stroke-width:1px;stroke-linecap:butt;stroke-linejoin:miter;stroke-opacity:1" d="M 619.761,418.393 609.162,418.393 z" id="boundary" inkscape:connector-curvature="0" />
	<path style="fill:none;stroke:red;stroke-width:1px;stroke-linecap:butt;stroke-linejoin:miter;stroke-opacity:1" d="M 662.154,418.393 672.752,418.393 z" id="boundary" inkscape:connector-curvature="0" />
	<path style="fill:none;stroke:red;stroke-width:1px;stroke-linecap:butt;stroke-linejoin:miter;stroke-opacity:1" d="M 683.35,418.393 693.949,418.393 z" id="boundary" inkscape:connector-curvature="0" />
	<path style="fill:none;stroke:red;stroke-width:1px;stroke-linecap:butt;stroke-linejoin:miter;stroke-opacity:1" d="M 683.35,418.393 672.752,418.393 z" id="boundary" inkscape:connector-curvature="0" />
	<path style="fill:none;stroke:red;stroke-width:1px;stroke-linecap:butt;stroke-linejoin:miter;stroke-opacity:1" d="M 693.949,418.393 704.547,418.393 z" id="boundary" inkscape:connector-curvature="0" />
	<path style="fill:none;stroke:red;stroke-width:1px;stroke-linecap:butt;stroke-linejoin:miter;stroke-opacity:1" d="M 715.145,418.393 704.547,418.393 z" id="boundary" inkscape:connector-curvature="0" />
	<path style="fill:none;stroke:red;stroke-width:1px;stroke-linecap:butt;stroke-linejoin:miter;stroke-opacity:1" d="M 725.744,418.393 736.342,418.393 z" id="boundary" inkscape:connector-curvature="0" />
	<path style="fill:none;stroke:red;stroke-width:1px;stroke-linecap:butt;stroke-linejoin:miter;stroke-opacity:1" d="M 725.744,418.393 715.145,418.393 z" id="boundary" inkscape:connector-curvature="0" />
	<path style="fill:none;stroke:red;stroke-width:1px;stroke-linecap:butt;stroke-linejoin:miter;stroke-opacity:1" d="M 662.154,418.393 651.556,418.393 z" id="boundary" inkscape:connector-curvature="0" />
	<path style="fill:none;stroke:red;stroke-width:1px;stroke-linecap:butt;stroke-linejoin:miter;stroke-opacity:1" d="M 516.957,495.761 506.359,497.88 z" id="boundary" inkscape:connector-curvature="0" />
	<path style="fill:none;stroke:red;stroke-width:1px;stroke-linecap:butt;stroke-linejoin:miter;stroke-opacity:1" d="M 537.094,487.282 527.556,492.581 z" id="boundary" inkscape:connector-curvature="0" />
	<path style="fill:none;stroke:red;stroke-width:1px;stroke-linecap:butt;stroke-linejoin:miter;stroke-opacity:1" d="M 546.632,481.983 555.111,473.504 z" id="boundary" inkscape:connector-curvature="0" />
	<path style="fill:none;stroke:red;stroke-width:1px;stroke-linecap:butt;stroke-linejoin:miter;stroke-opacity:1" d="M 546.632,481.983 537.094,487.282 z" id="boundary" inkscape:connector-curvature="0" />
	<path style="fill:none;stroke:red;stroke-width:1px;stroke-linecap:butt;stroke-linejoin:miter;stroke-opacity:1" d="M 495.761,497.88 486.222,492.581 z" id="boundary" inkscape:connector-curvature="0" />
	<path style="fill:none;stroke:red;stroke-width:1px;stroke-linecap:butt;stroke-linejoin:miter;stroke-opacity:1" d="M 506.359,497.88 495.761,497.88 z" id="boundary" inkscape:connector-curvature="0" />
	<path style="fill:none;stroke:red;stroke-width:1px;stroke-linecap:butt;stroke-linejoin:miter;stroke-opacity:1" d="M 516.957,495.761 527.556,492.581 z" id="boundary" inkscape:connector-curvature="0" />
	<path style="fill:none;stroke:red;stroke-width:1px;stroke-linecap:butt;stroke-linejoin:miter;stroke-opacity:1" d="M 746.94,418.393 757.538,418.393 z" id="boundary" inkscape:connector-curvature="0" />
	<path style="fill:none;stroke:red;stroke-width:1px;stroke-linecap:butt;stroke-linejoin:miter;stroke-opacity:1" d="M 768.137,418.393 777.675,423.692 z" id="boundary" inkscape:connector-curvature="0" />
	<path style="fill:none;stroke:red;stroke-width:1px;stroke-linecap:butt;stroke-linejoin:miter;stroke-opacity:1" d="M 757.538,418.393 768.137,418.393 z" id="boundary" inkscape:connector-curvature="0" />
	<path style="fill:none;stroke:red;stroke-width:1px;stroke-linecap:butt;stroke-linejoin:miter;stroke-opacity:1" d="M 788.274,423.692 777.675,423.692 z" id="boundary" inkscape:connector-curvature="0" />
	<path style="fill:none;stroke:red;stroke-width:1px;stroke-linecap:butt;stroke-linejoin:miter;stroke-opacity:1" d="M 563.59,465.026 572.068,455.487 z" id="boundary" inkscape:connector-curvature="0" />
	<path style="fill:none;stroke:red;stroke-width:1px;stroke-linecap:butt;stroke-linejoin:miter;stroke-opacity:1" d="M 577.368,444.889 572.068,455.487 z" id="boundary" inkscape:connector-curvature="0" />
	<path style="fill:none;stroke:red;stroke-width:1px;stroke-linecap:butt;stroke-linejoin:miter;stroke-opacity:1" d="M 577.368,444.889 582.667,434.291 z" id="boundary" inkscape:connector-curvature="0" />
	<path style="fill:none;stroke:red;stroke-width:1px;stroke-linecap:butt;stroke-linejoin:miter;stroke-opacity:1" d="M 563.59,465.026 555.111,473.504 z" id="boundary" inkscape:connector-curvature="0" />
	<path style="fill:none;stroke:red;stroke-width:1px;stroke-linecap:butt;stroke-linejoin:miter;stroke-opacity:1" d="M 736.342,418.393 746.94,418.393 z" id="boundary" inkscape:connector-curvature="0" />
	<path style="fill:none;stroke:red;stroke-width:1px;stroke-linecap:butt;stroke-linejoin:miter;stroke-opacity:1" d="M 930.291,376 939.829,370.701 z" id="boundary" inkscape:connector-curvature="0" />
	<path style="fill:none;stroke:red;stroke-width:1px;stroke-linecap:butt;stroke-linejoin:miter;stroke-opacity:1" d="M 958.906,360.103 949.368,365.402 z" id="boundary" inkscape:connector-curvature="0" />
	<path style="fill:none;stroke:red;stroke-width:1px;stroke-linecap:butt;stroke-linejoin:miter;stroke-opacity:1" d="M 958.906,360.103 967.385,352.684 z" id="boundary" inkscape:connector-curvature="0" />
	<path style="fill:none;stroke:red;stroke-width:1px;stroke-linecap:butt;stroke-linejoin:miter;stroke-opacity:1" d="M 972.684,342.085 967.385,352.684 z" id="boundary" inkscape:connector-curvature="0" />
	<path style="fill:none;stroke:red;stroke-width:1px;stroke-linecap:butt;stroke-linejoin:miter;stroke-opacity:1" d="M 949.368,365.402 939.829,370.701 z" id="boundary" inkscape:connector-curvature="0" />
	<path style="fill:none;stroke:red;stroke-width:1px;stroke-linecap:butt;stroke-linejoin:miter;stroke-opacity:1" d="M 911.214,386.598 911.214,397.197 z" id="boundary" inkscape:connector-curvature="0" />
	<path style="fill:none;stroke:red;stroke-width:1px;stroke-linecap:butt;stroke-linejoin:miter;stroke-opacity:1" d="M 911.214,386.598 920.752,381.299 z" id="boundary" inkscape:connector-curvature="0" />
	<path style="fill:none;stroke:red;stroke-width:1px;stroke-linecap:butt;stroke-linejoin:miter;stroke-opacity:1" d="M 911.214,407.795 911.214,397.197 z" id="boundary" inkscape:connector-curvature="0" />
	<path style="fill:none;stroke:red;stroke-width:1px;stroke-linecap:butt;stroke-linejoin:miter;stroke-opacity:1" d="M 930.291,376 920.752,381.299 z" id="boundary" inkscape:connector-curvature="0" />
	<path style="fill:none;stroke:red;stroke-width:1px;stroke-linecap:butt;stroke-linejoin:miter;stroke-opacity:1" d="M 985.402,307.111 985.402,296.513 z" id="boundary" inkscape:connector-curvature="0" />
	<path style="fill:none;stroke:red;stroke-width:1px;stroke-linecap:butt;stroke-linejoin:miter;stroke-opacity:1" d="M 985.402,296.513 990.701,280.615 z" id="boundary" inkscape:connector-curvature="0" />
	<path style="fill:none;stroke:red;stroke-width:1px;stroke-linecap:butt;stroke-linejoin:miter;stroke-opacity:1" d="M 996,259.419 996,270.017 z" id="boundary" inkscape:connector-curvature="0" />
	<path style="fill:none;stroke:red;stroke-width:1px;stroke-linecap:butt;stroke-linejoin:miter;stroke-opacity:1" d="M 996,270.017 990.701,280.615 z" id="boundary" inkscape:connector-curvature="0" />
	<path style="fill:none;stroke:red;stroke-width:1px;stroke-linecap:butt;stroke-linejoin:miter;stroke-opacity:1" d="M 977.983,331.487 972.684,342.085 z" id="boundary" inkscape:connector-curvature="0" />
	<path style="fill:none;stroke:red;stroke-width:1px;stroke-linecap:butt;stroke-linejoin:miter;stroke-opacity:1" d="M 980.103,317.709 977.983,331.487 z" id="boundary" inkscape:connector-curvature="0" />
	<path style="fill:none;stroke:red;stroke-width:1px;stroke-linecap:butt;stroke-linejoin:miter;stroke-opacity:1" d="M 980.103,317.709 985.402,307.111 z" id="boundary" inkscape:connector-curvature="0" />
	<path style="fill:none;stroke:red;stroke-width:1px;stroke-linecap:butt;stroke-linejoin:miter;stroke-opacity:1" d="M 788.274,423.692 798.872,423.692 z" id="boundary" inkscape:connector-curvature="0" />
	<path style="fill:none;stroke:red;stroke-width:1px;stroke-linecap:butt;stroke-linejoin:miter;stroke-opacity:1" d="M 798.872,423.692 804.171,433.231 z" id="boundary" inkscape:connector-curvature="0" />
	<path style="fill:none;stroke:red;stroke-width:1px;stroke-linecap:butt;stroke-linejoin:miter;stroke-opacity:1" d="M 804.171,433.231 809.47,442.769 z" id="boundary" inkscape:connector-curvature="0" />
	<path style="fill:none;stroke:red;stroke-width:1px;stroke-linecap:butt;stroke-linejoin:miter;stroke-opacity:1" d="M 809.47,442.769 814.769,452.308 z" id="boundary" inkscape:connector-curvature="0" />
	<path style="fill:none;stroke:red;stroke-width:1px;stroke-linecap:butt;stroke-linejoin:miter;stroke-opacity:1" d="M 814.769,452.308 823.248,459.726 z" id="boundary" inkscape:connector-curvature="0" />
	<path style="fill:none;stroke:red;stroke-width:1px;stroke-linecap:butt;stroke-linejoin:miter;stroke-opacity:1" d="M 832.786,465.026 843.385,460.786 z" id="boundary" inkscape:connector-curvature="0" />
	<path style="fill:none;stroke:red;stroke-width:1px;stroke-linecap:butt;stroke-linejoin:miter;stroke-opacity:1" d="M 843.385,460.786 853.983,460.786 z" id="boundary" inkscape:connector-curvature="0" />
	<path style="fill:none;stroke:red;stroke-width:1px;stroke-linecap:butt;stroke-linejoin:miter;stroke-opacity:1" d="M 832.786,465.026 823.248,459.726 z" id="boundary" inkscape:connector-curvature="0" />
	<path style="fill:none;stroke:red;stroke-width:1px;stroke-linecap:butt;stroke-linejoin:miter;stroke-opacity:1" d="M 890.017,434.291 900.615,428.991 z" id="boundary" inkscape:connector-curvature="0" />
	<path style="fill:none;stroke:red;stroke-width:1px;stroke-linecap:butt;stroke-linejoin:miter;stroke-opacity:1" d="M 881.538,443.829 890.017,434.291 z" id="boundary" inkscape:connector-curvature="0" />
	<path style="fill:none;stroke:red;stroke-width:1px;stroke-linecap:butt;stroke-linejoin:miter;stroke-opacity:1" d="M 909.094,421.573 911.214,407.795 z" id="boundary" inkscape:connector-curvature="0" />
	<path style="fill:none;stroke:red;stroke-width:1px;stroke-linecap:butt;stroke-linejoin:miter;stroke-opacity:1" d="M 909.094,421.573 900.615,428.991 z" id="boundary" inkscape:connector-curvature="0" />
	<path style="fill:none;stroke:red;stroke-width:1px;stroke-linecap:butt;stroke-linejoin:miter;stroke-opacity:1" d="M 863.521,455.487 853.983,460.786 z" id="boundary" inkscape:connector-curvature="0" />
	<path style="fill:none;stroke:red;stroke-width:1px;stroke-linecap:butt;stroke-linejoin:miter;stroke-opacity:1" d="M 873.06,450.188 863.521,455.487 z" id="boundary" inkscape:connector-curvature="0" />
	<path style="fill:none;stroke:red;stroke-width:1px;stroke-linecap:butt;stroke-linejoin:miter;stroke-opacity:1" d="M 881.538,443.829 873.06,450.188 z" id="boundary" inkscape:connector-curvature="0" />
	<path style="fill:none;stroke:red;stroke-width:1px;stroke-linecap:butt;stroke-linejoin:miter;stroke-opacity:1" d="M 996,248.821 996,259.419 z" id="boundary" inkscape:connector-curvature="0" />
	<circle cx="4" cy="240.342" r="4" fill="#0" id="circle0"/>
	<circle cx="4" cy="250.94" r="4" fill="#0" id="circle1"/>
	<circle cx="9.29915" cy="229.744" r="4" fill="#0" id="circle2"/>
	<circle cx="9.29915" cy="260.479" r="4" fill="#0" id="circle3"/>
	<circle cx="9.29915" cy="271.077" r="4" fill="#0" id="circle4"/>
	<circle cx="9.29915" cy="281.675" r="4" fill="#0" id="circle5"/>
	<circle cx="14.5983" cy="291.214" r="4" fill="#0" id="circle6"/>
	<circle cx="17.7778" cy="221.265" r="4" fill="#0" id="circle7"/>
	<circle cx="19.8974" cy="300.752" r="4" fill="#0" id="circle8"/>
	<circle cx="19.8974" cy="311.35" r="4" fill="#0" id="circle9"/>
	<circle cx="19.8974" cy="321.949" r="4" fill="#0" id="circle10"/>
	<circle cx="19.8974" cy="332.547" r="4" fill="#0" id="circle11"/>
	<circle cx="19.8974" cy="343.145" r="4" fill="#0" id="circle12"/>
	<circle cx="19.8974" cy="353.744" r="4" fill="#0" id="circle13"/>
	<circle cx="19.8974" cy="364.342" r="4" fill="#0" id="circle14"/>
	<circle cx="22.0171" cy="374.94" r="4" fill="#0" id="circle15"/>
	<circle cx="25.1966" cy="385.538" r="4" fill="#0" id="circle16"/>
	<circle cx="28.3761" cy="215.966" r="4" fill="#0" id="circle17"/>
	<circle cx="30.4957" cy="395.077" r="4" fill="#0" id="circle18"/>
	<circle cx="35.7949" cy="404.615" r="4" fill="#0" id="circle19"/>
	<circle cx="38.9744" cy="210.667" r="4" fill="#0" id="circle20"/>
	<circle cx="41.094" cy="414.154" r="4" fill="#0" id="circle21"/>
	<circle cx="46.3932" cy="423.692" r="4" fill="#0" id="circle22"/>
	<circle cx="46.3932" cy="434.291" r="4" fill="#0" id="circle23"/>
	<circle cx="46.3932" cy="444.889" r="4" fill="#0" id="circle24"/>
	<circle cx="49.5726" cy="210.667" r="4" fill="#0" id="circle25"/>
	<circle cx="51.6923" cy="454.427" r="4" fill="#0" id="circle26"/>
	<circle cx="53.812" cy="465.026" r="4" fill="#0" id="circle27"/>
	<circle cx="59.1111" cy="205.368" r="4" fill="#0" id="circle28"/>
	<circle cx="59.1111" cy="474.564" r="4" fill="#0" id="circle29"/>
	<circle cx="68.6496" cy="479.863" r="4" fill="#0" id="circle30"/>
	<circle cx="69.7094" cy="205.368" r="4" fill="#0" id="circle31"/>
	<circle cx="79.2479" cy="481.983" r="4" fill="#0" id="circle32"/>
	<circle cx="80.3077" cy="205.368" r="4" fill="#0" id="circle33"/>
	<circle cx="89.8462" cy="481.983" r="4" fill="#0" id="circle34"/>
	<circle cx="90.906" cy="205.368" r="4" fill="#0" id="circle35"/>
	<circle cx="100.444" cy="200.068" r="4" fill="#0" id="circle36"/>
	<circle cx="100.444" cy="481.983" r="4" fill="#0" id="circle37"/>
	<circle cx="111.043" cy="196.889" r="4" fill="#0" id="circle38"/>
	<circle cx="111.043" cy="476.684" r="4" fill="#0" id="circle39"/>
	<circle cx="119.521" cy="469.265" r="4" fill="#0" id="circle40"/>
	<circle cx="121.641" cy="194.769" r="4" fill="#0" id="circle41"/>
	<circle cx="121.641" cy="455.487" r="4" fill="#0" id="circle42"/>
	<circle cx="132.239" cy="191.59" r="4" fill="#0" id="circle43"/>
	<circle cx="132.239" cy="455.487" r="4" fill="#0" id="circle44"/>
	<circle cx="142.838" cy="189.47" r="4" fill="#0" id="circle45"/>
	<circle cx="142.838" cy="455.487" r="4" fill="#0" id="circle46"/>
	<circle cx="153.436" cy="189.47" r="4" fill="#0" id="circle47"/>
	<circle cx="153.436" cy="455.487" r="4" fill="#0" id="circle48"/>
	<circle cx="164.034" cy="186.291" r="4" fill="#0" id="circle49"/>
	<circle cx="164.034" cy="455.487" r="4" fill="#0" id="circle50"/>
	<circle cx="174.632" cy="184.171" r="4" fill="#0" id="circle51"/>
	<circle cx="174.632" cy="455.487" r="4" fill="#0" id="circle52"/>
	<circle cx="185.231" cy="184.171" r="4" fill="#0" id="circle53"/>
	<circle cx="185.231" cy="455.487" r="4" fill="#0" id="circle54"/>
	<circle cx="195.829" cy="184.171" r="4" fill="#0" id="circle55"/>
	<circle cx="195.829" cy="455.487" r="4" fill="#0" id="circle56"/>
	<circle cx="206.427" cy="180.991" r="4" fill="#0" id="circle57"/>
	<circle cx="206.427" cy="455.487" r="4" fill="#0" id="circle58"/>
	<circle cx="217.026" cy="178.872" r="4" fill="#0" id="circle59"/>
	<circle cx="217.026" cy="455.487" r="4" fill="#0" id="circle60"/>
	<circle cx="227.624" cy="178.872" r="4" fill="#0" id="circle61"/>
	<circle cx="227.624" cy="455.487" r="4" fill="#0" id="circle62"/>
	<circle cx="238.222" cy="178.872" r="4" fill="#0" id="circle63"/>
	<circle cx="238.222" cy="455.487" r="4" fill="#0" id="circle64"/>
	<circle cx="247.761" cy="173.573" r="4" fill="#0" id="circle65"/>
	<circle cx="248.821" cy="455.487" r="4" fill="#0" id="circle66"/>
	<circle cx="258.359" cy="173.573" r="4" fill="#0" id="circle67"/>
	<circle cx="259.419" cy="455.487" r="4" fill="#0" id="circle68"/>
	<circle cx="268.957" cy="173.573" r="4" fill="#0" id="circle69"/>
	<circle cx="270.017" cy="455.487" r="4" fill="#0" id="circle70"/>
	<circle cx="274.256" cy="155.556" r="4" fill="#0" id="circle71"/>
	<circle cx="280.615" cy="450.188" r="4" fill="#0" id="circle72"/>
	<circle cx="282.735" cy="147.077" r="4" fill="#0" id="circle73"/>
	<circle cx="291.214" cy="450.188" r="4" fill="#0" id="circle74"/>
	<circle cx="292.274" cy="141.778" r="4" fill="#0" id="circle75"/>
	<circle cx="301.812" cy="450.188" r="4" fill="#0" id="circle76"/>
	<circle cx="302.872" cy="141.778" r="4" fill="#0" id="circle77"/>
	<circle cx="311.35" cy="444.889" r="4" fill="#0" id="circle78"/>
	<circle cx="313.47" cy="141.778" r="4" fill="#0" id="circle79"/>
	<circle cx="321.949" cy="444.889" r="4" fill="#0" id="circle80"/>
	<circle cx="324.068" cy="137.538" r="4" fill="#0" id="circle81"/>
	<circle cx="331.487" cy="439.59" r="4" fill="#0" id="circle82"/>
	<circle cx="334.667" cy="132.239" r="4" fill="#0" id="circle83"/>
	<circle cx="339.966" cy="121.641" r="4" fill="#0" id="circle84"/>
	<circle cx="341.026" cy="434.291" r="4" fill="#0" id="circle85"/>
	<circle cx="348.444" cy="115.282" r="4" fill="#0" id="circle86"/>
	<circle cx="351.624" cy="433.231" r="4" fill="#0" id="circle87"/>
	<circle cx="357.983" cy="109.983" r="4" fill="#0" id="circle88"/>
	<circle cx="362.222" cy="427.932" r="4" fill="#0" id="circle89"/>
	<circle cx="367.521" cy="104.684" r="4" fill="#0" id="circle90"/>
	<circle cx="372.821" cy="422.632" r="4" fill="#0" id="circle91"/>
	<circle cx="378.12" cy="104.684" r="4" fill="#0" id="circle92"/>
	<circle cx="381.299" cy="413.094" r="4" fill="#0" id="circle93"/>
	<circle cx="388.718" cy="104.684" r="4" fill="#0" id="circle94"/>
	<circle cx="390.838" cy="407.795" r="4" fill="#0" id="circle95"/>
	<circle cx="399.316" cy="104.684" r="4" fill="#0" id="circle96"/>
	<circle cx="401.436" cy="407.795" r="4" fill="#0" id="circle97"/>
	<circle cx="408.855" cy="109.983" r="4" fill="#0" id="circle98"/>
	<circle cx="412.034" cy="407.795" r="4" fill="#0" id="circle99"/>
	<circle cx="418.393" cy="115.282" r="4" fill="#0" id="circle100"/>
	<circle cx="422.632" cy="407.795" r="4" fill="#0" id="circle101"/>
	<circle cx="423.692" cy="124.821" r="4" fill="#0" id="circle102"/>
	<circle cx="423.692" cy="135.419" r="4" fill="#0" id="circle103"/>
	<circle cx="433.231" cy="407.795" r="4" fill="#0" id="circle104"/>
	<circle cx="434.291" cy="133.299" r="4" fill="#0" id="circle105"/>
	<circle cx="439.59" cy="122.701" r="4" fill="#0" id="circle106"/>
	<circle cx="443.829" cy="70.7692" r="4" fill="#0" id="circle107"/>
	<circle cx="443.829" cy="81.3675" r="4" fill="#0" id="circle108"/>
	<circle cx="443.829" cy="91.9658" r="4" fill="#0" id="circle109"/>
	<circle cx="443.829" cy="102.564" r="4" fill="#0" id="circle110"/>
	<circle cx="443.829" cy="407.795" r="4" fill="#0" id="circle111"/>
	<circle cx="449.128" cy="54.8718" r="4" fill="#0" id="circle112"/>
	<circle cx="449.128" cy="417.333" r="4" fill="#0" id="circle113"/>
	<circle cx="449.128" cy="427.932" r="4" fill="#0" id="circle114"/>
	<circle cx="454.427" cy="44.2735" r="4" fill="#0" id="circle115"/>
	<circle cx="454.427" cy="437.47" r="4" fill="#0" id="circle116"/>
	<circle cx="459.726" cy="447.009" r="4" fill="#0" id="circle117"/>
	<circle cx="462.906" cy="35.7949" r="4" fill="#0" id="circle118"/>
	<circle cx="465.026" cy="456.547" r="4" fill="#0" id="circle119"/>
	<circle cx="468.205" cy="25.1966" r="4" fill="#0" id="circle120"/>
	<circle cx="470.325" cy="466.085" r="4" fill="#0" id="circle121"/>
	<circle cx="473.504" cy="14.5983" r="4" fill="#0" id="circle122"/>
	<circle cx="475.624" cy="475.624" r="4" fill="#0" id="circle123"/>
	<circle cx="477.744" cy="486.222" r="4" fill="#0" id="circle124"/>
	<circle cx="483.043" cy="9.29915" r="4" fill="#0" id="circle125"/>
	<circle cx="486.222" cy="492.581" r="4" fill="#0" id="circle126"/>
	<circle cx="492.581" cy="4" r="4" fill="#0" id="circle127"/>
	<circle cx="495.761" cy="497.88" r="4" fill="#0" id="circle128"/>
	<circle cx="503.179" cy="4" r="4" fill="#0" id="circle129"/>
	<circle cx="506.359" cy="497.88" r="4" fill="#0" id="circle130"/>
	<circle cx="513.778" cy="4" r="4" fill="#0" id="circle131"/>
	<circle cx="516.957" cy="495.761" r="4" fill="#0" id="circle132"/>
	<circle cx="524.376" cy="4" r="4" fill="#0" id="circle133"/>
	<circle cx="527.556" cy="492.581" r="4" fill="#0" id="circle134"/>
	<circle cx="534.974" cy="4" r="4" fill="#0" id="circle135"/>
	<circle cx="537.094" cy="487.282" r="4" fill="#0" id="circle136"/>
	<circle cx="545.573" cy="4" r="4" fill="#0" id="circle137"/>
	<circle cx="546.632" cy="481.983" r="4" fill="#0" id="circle138"/>
	<circle cx="555.111" cy="473.504" r="4" fill="#0" id="circle139"/>
	<circle cx="556.171" cy="4" r="4" fill="#0" id="circle140"/>
	<circle cx="563.59" cy="465.026" r="4" fill="#0" id="circle141"/>
	<circle cx="566.769" cy="4" r="4" fill="#0" id="circle142"/>
	<circle cx="572.068" cy="455.487" r="4" fill="#0" id="circle143"/>
	<circle cx="577.368" cy="4" r="4" fill="#0" id="circle144"/>
	<circle cx="577.368" cy="444.889" r="4" fill="#0" id="circle145"/>
	<circle cx="582.667" cy="434.291" r="4" fill="#0" id="circle146"/>
	<circle cx="587.966" cy="4" r="4" fill="#0" id="circle147"/>
	<circle cx="587.966" cy="418.393" r="4" fill="#0" id="circle148"/>
	<circle cx="598.564" cy="4" r="4" fill="#0" id="circle149"/>
	<circle cx="598.564" cy="418.393" r="4" fill="#0" id="circle150"/>
	<circle cx="609.162" cy="4" r="4" fill="#0" id="circle151"/>
	<circle cx="609.162" cy="418.393" r="4" fill="#0" id="circle152"/>
	<circle cx="619.761" cy="4" r="4" fill="#0" id="circle153"/>
	<circle cx="619.761" cy="418.393" r="4" fill="#0" id="circle154"/>
	<circle cx="630.359" cy="4" r="4" fill="#0" id="circle155"/>
	<circle cx="630.359" cy="418.393" r="4" fill="#0" id="circle156"/>
	<circle cx="640.957" cy="4" r="4" fill="#0" id="circle157"/>
	<circle cx="640.957" cy="418.393" r="4" fill="#0" id="circle158"/>
	<circle cx="651.556" cy="4" r="4" fill="#0" id="circle159"/>
	<circle cx="651.556" cy="418.393" r="4" fill="#0" id="circle160"/>
	<circle cx="662.154" cy="4" r="4" fill="#0" id="circle161"/>
	<circle cx="662.154" cy="418.393" r="4" fill="#0" id="circle162"/>
	<circle cx="672.752" cy="4" r="4" fill="#0" id="circle163"/>
	<circle cx="672.752" cy="418.393" r="4" fill="#0" id="circle164"/>
	<circle cx="683.35" cy="4" r="4" fill="#0" id="circle165"/>
	<circle cx="683.35" cy="418.393" r="4" fill="#0" id="circle166"/>
	<circle cx="693.949" cy="7.17949" r="4" fill="#0" id="circle167"/>
	<circle cx="693.949" cy="418.393" r="4" fill="#0" id="circle168"/>
	<circle cx="704.547" cy="9.29915" r="4" fill="#0" id="circle169"/>
	<circle cx="704.547" cy="418.393" r="4" fill="#0" id="circle170"/>
	<circle cx="715.145" cy="9.29915" r="4" fill="#0" id="circle171"/>
	<circle cx="715.145" cy="418.393" r="4" fill="#0" id="circle172"/>
	<circle cx="724.684" cy="14.5983" r="4" fill="#0" id="circle173"/>
	<circle cx="725.744" cy="418.393" r="4" fill="#0" id="circle174"/>
	<circle cx="735.282" cy="14.5983" r="4" fill="#0" id="circle175"/>
	<circle cx="736.342" cy="418.393" r="4" fill="#0" id="circle176"/>
	<circle cx="744.821" cy="19.8974" r="4" fill="#0" id="circle177"/>
	<circle cx="746.94" cy="418.393" r="4" fill="#0" id="circle178"/>
	<circle cx="754.359" cy="25.1966" r="4" fill="#0" id="circle179"/>
	<circle cx="757.538" cy="418.393" r="4" fill="#0" id="circle180"/>
	<circle cx="761.778" cy="33.6752" r="4" fill="#0" id="circle181"/>
	<circle cx="768.137" cy="42.1538" r="4" fill="#0" id="circle182"/>
	<circle cx="768.137" cy="418.393" r="4" fill="#0" id="circle183"/>
	<circle cx="773.436" cy="51.6923" r="4" fill="#0" id="circle184"/>
	<circle cx="777.675" cy="423.692" r="4" fill="#0" id="circle185"/>
	<circle cx="778.735" cy="61.2308" r="4" fill="#0" id="circle186"/>
	<circle cx="778.735" cy="71.8291" r="4" fill="#0" id="circle187"/>
	<circle cx="778.735" cy="82.4274" r="4" fill="#0" id="circle188"/>
	<circle cx="778.735" cy="93.0256" r="4" fill="#0" id="circle189"/>
	<circle cx="778.735" cy="103.624" r="4" fill="#0" id="circle190"/>
	<circle cx="778.735" cy="114.222" r="4" fill="#0" id="circle191"/>
	<circle cx="784.034" cy="123.761" r="4" fill="#0" id="circle192"/>
	<circle cx="788.274" cy="423.692" r="4" fill="#0" id="circle193"/>
	<circle cx="791.453" cy="132.239" r="4" fill="#0" id="circle194"/>
	<circle cx="798.872" cy="423.692" r="4" fill="#0" id="circle195"/>
	<circle cx="799.932" cy="139.658" r="4" fill="#0" id="circle196"/>
	<circle cx="804.171" cy="433.231" r="4" fill="#0" id="circle197"/>
	<circle cx="809.47" cy="144.957" r="4" fill="#0" id="circle198"/>
	<circle cx="809.47" cy="442.769" r="4" fill="#0" id="circle199"/>
	<circle cx="814.769" cy="452.308" r="4" fill="#0" id="circle200"/>
	<circle cx="820.068" cy="149.197" r="4" fill="#0" id="circle201"/>
	<circle cx="823.248" cy="459.726" r="4" fill="#0" id="circle202"/>
	<circle cx="826.427" cy="157.675" r="4" fill="#0" id="circle203"/>
	<circle cx="832.786" cy="465.026" r="4" fill="#0" id="circle204"/>
	<circle cx="837.026" cy="157.675" r="4" fill="#0" id="circle205"/>
	<circle cx="843.385" cy="460.786" r="4" fill="#0" id="circle206"/>
	<circle cx="847.624" cy="157.675" r="4" fill="#0" id="circle207"/>
	<circle cx="853.983" cy="460.786" r="4" fill="#0" id="circle208"/>
	<circle cx="858.222" cy="157.675" r="4" fill="#0" id="circle209"/>
	<circle cx="863.521" cy="455.487" r="4" fill="#0" id="circle210"/>
	<circle cx="868.821" cy="157.675" r="4" fill="#0" id="circle211"/>
	<circle cx="873.06" cy="450.188" r="4" fill="#0" id="circle212"/>
	<circle cx="879.419" cy="157.675" r="4" fill="#0" id="circle213"/>
	<circle cx="881.538" cy="443.829" r="4" fill="#0" id="circle214"/>
	<circle cx="890.017" cy="157.675" r="4" fill="#0" id="circle215"/>
	<circle cx="890.017" cy="434.291" r="4" fill="#0" id="circle216"/>
	<circle cx="900.615" cy="157.675" r="4" fill="#0" id="circle217"/>
	<circle cx="900.615" cy="428.991" r="4" fill="#0" id="circle218"/>
	<circle cx="909.094" cy="421.573" r="4" fill="#0" id="circle219"/>
	<circle cx="911.214" cy="157.675" r="4" fill="#0" id="circle220"/>
	<circle cx="911.214" cy="386.598" r="4" fill="#0" id="circle221"/>
	<circle cx="911.214" cy="397.197" r="4" fill="#0" id="circle222"/>
	<circle cx="911.214" cy="407.795" r="4" fill="#0" id="circle223"/>
	<circle cx="920.752" cy="381.299" r="4" fill="#0" id="circle224"/>
	<circle cx="921.812" cy="157.675" r="4" fill="#0" id="circle225"/>
	<circle cx="930.291" cy="376" r="4" fill="#0" id="circle226"/>
	<circle cx="932.41" cy="160.855" r="4" fill="#0" id="circle227"/>
	<circle cx="939.829" cy="370.701" r="4" fill="#0" id="circle228"/>
	<circle cx="941.949" cy="166.154" r="4" fill="#0" id="circle229"/>
	<circle cx="949.368" cy="365.402" r="4" fill="#0" id="circle230"/>
	<circle cx="952.547" cy="168.274" r="4" fill="#0" id="circle231"/>
	<circle cx="958.906" cy="360.103" r="4" fill="#0" id="circle232"/>
	<circle cx="962.085" cy="173.573" r="4" fill="#0" id="circle233"/>
	<circle cx="967.385" cy="352.684" r="4" fill="#0" id="circle234"/>
	<circle cx="971.624" cy="178.872" r="4" fill="#0" id="circle235"/>
	<circle cx="972.684" cy="342.085" r="4" fill="#0" id="circle236"/>
	<circle cx="977.983" cy="331.487" r="4" fill="#0" id="circle237"/>
	<circle cx="979.043" cy="187.35" r="4" fill="#0" id="circle238"/>
	<circle cx="980.103" cy="317.709" r="4" fill="#0" id="circle239"/>
	<circle cx="984.342" cy="196.889" r="4" fill="#0" id="circle240"/>
	<circle cx="985.402" cy="296.513" r="4" fill="#0" id="circle241"/>
	<circle cx="985.402" cy="307.111" r="4" fill="#0" id="circle242"/>
	<circle cx="988.581" cy="207.487" r="4" fill="#0" id="circle243"/>
	<circle cx="990.701" cy="280.615" r="4" fill="#0" id="circle244"/>
	<circle cx="996" cy="215.966" r="4" fill="#0" id="circle245"/>
	<circle cx="996" cy="227.624" r="4" fill="#0" id="circle246"/>
	<circle cx="996" cy="238.222" r="4" fill="#0" id="circle247"/>
	<circle cx="996" cy="248.821" r="4" fill="#0" id="circle248"/>
	<circle cx="996" cy="259.419" r="4" fill="#0" id="circle249"/>
	<circle cx="996" cy="270.017" r="4" fill="#0" id="circle250"/>
	</g>
</svg>