<?xml version="1.0" encoding="UTF-8" standalone="no"?>
<!-- Created with CurveBenchmark -->
<svg
	xmlns:dc="http://purl.org/dc/elements/1.1/"
	xmlns:cc="http://creativecommons.org/ns#"
	xmlns:rdf="http://www.w3.org/1999/02/22-rdf-syntax-ns#"
	xmlns:svg="http://www.w3.org/2000/svg"
	xmlns="http://www.w3.org/2000/svg"
	xmlns:sodipodi="http://sodipodi.sourceforge.net/DTD/sodipodi-0.dtd"
	xmlns:inkscape="http://www.inkscape.org/namespaces/inkscape"
	width="1000"
	height="1000"
	id="svg2"
	version="1.1"
	sodipodi:docname="manifold/ccrust-mgen2cp.png.txt">
<defs
	id="defs4" />
<metadata
	id="metadata7">
	<rdf:RDF>
		<cc:Work
			rdf:about="">
			<dc:format>image/svg+xml</dc:format>
			<dc:type
				rdf:resource="http://purl.org/dc/dcmitype/StillImage" />
			<dc:title></dc:title>
		</cc:Work>
	</rdf:RDF>
</metadata>
<g
	inkscape:label="Layer 1"
	inkscape:groupmode="layer"
	id="layer1">
	<path style="fill:none;stroke:red;stroke-width:1px;stroke-linecap:butt;stroke-linejoin:miter;stroke-opacity:1" d="M 83.2016,69.3413 99.0419,53.501 z" id="boundary" inkscape:connector-curvature="0" />
	<path style="fill:none;stroke:red;stroke-width:1px;stroke-linecap:butt;stroke-linejoin:miter;stroke-opacity:1" d="M 93.1018,87.1617 83.2016,69.3413 z" id="boundary" inkscape:connector-curvature="0" />
	<path style="fill:none;stroke:red;stroke-width:1px;stroke-linecap:butt;stroke-linejoin:miter;stroke-opacity:1" d="M 93.1018,87.1617 106.962,103.002 z" id="boundary" inkscape:connector-curvature="0" />
	<path style="fill:none;stroke:red;stroke-width:1px;stroke-linecap:butt;stroke-linejoin:miter;stroke-opacity:1" d="M 106.962,103.002 116.862,120.822 z" id="boundary" inkscape:connector-curvature="0" />
	<path style="fill:none;stroke:red;stroke-width:1px;stroke-linecap:butt;stroke-linejoin:miter;stroke-opacity:1" d="M 99.0419,53.501 118.842,53.501 z" id="boundary" inkscape:connector-curvature="0" />
	<path style="fill:none;stroke:red;stroke-width:1px;stroke-linecap:butt;stroke-linejoin:miter;stroke-opacity:1" d="M 136.663,63.4012 152.503,77.2615 z" id="boundary" inkscape:connector-curvature="0" />
	<path style="fill:none;stroke:red;stroke-width:1px;stroke-linecap:butt;stroke-linejoin:miter;stroke-opacity:1" d="M 136.663,63.4012 118.842,53.501 z" id="boundary" inkscape:connector-curvature="0" />
	<path style="fill:none;stroke:red;stroke-width:1px;stroke-linecap:butt;stroke-linejoin:miter;stroke-opacity:1" d="M 132.703,134.683 116.862,120.822 z" id="boundary" inkscape:connector-curvature="0" />
	<path style="fill:none;stroke:red;stroke-width:1px;stroke-linecap:butt;stroke-linejoin:miter;stroke-opacity:1" d="M 152.503,77.2615 164.383,93.1018 z" id="boundary" inkscape:connector-curvature="0" />
	<path style="fill:none;stroke:red;stroke-width:1px;stroke-linecap:butt;stroke-linejoin:miter;stroke-opacity:1" d="M 144.583,150.523 132.703,134.683 z" id="boundary" inkscape:connector-curvature="0" />
	<path style="fill:none;stroke:red;stroke-width:1px;stroke-linecap:butt;stroke-linejoin:miter;stroke-opacity:1" d="M 112.902,237.645 132.703,231.705 z" id="boundary" inkscape:connector-curvature="0" />
	<path style="fill:none;stroke:red;stroke-width:1px;stroke-linecap:butt;stroke-linejoin:miter;stroke-opacity:1" d="M 122.802,255.465 112.902,237.645 z" id="boundary" inkscape:connector-curvature="0" />
	<path style="fill:none;stroke:red;stroke-width:1px;stroke-linecap:butt;stroke-linejoin:miter;stroke-opacity:1" d="M 122.802,255.465 132.703,273.285 z" id="boundary" inkscape:connector-curvature="0" />
	<path style="fill:none;stroke:red;stroke-width:1px;stroke-linecap:butt;stroke-linejoin:miter;stroke-opacity:1" d="M 132.703,273.285 138.643,293.086 z" id="boundary" inkscape:connector-curvature="0" />
	<path style="fill:none;stroke:red;stroke-width:1px;stroke-linecap:butt;stroke-linejoin:miter;stroke-opacity:1" d="M 154.483,306.946 138.643,293.086 z" id="boundary" inkscape:connector-curvature="0" />
	<path style="fill:none;stroke:red;stroke-width:1px;stroke-linecap:butt;stroke-linejoin:miter;stroke-opacity:1" d="M 132.703,231.705 152.503,231.705 z" id="boundary" inkscape:connector-curvature="0" />
	<path style="fill:none;stroke:red;stroke-width:1px;stroke-linecap:butt;stroke-linejoin:miter;stroke-opacity:1" d="M 160.423,164.383 144.583,150.523 z" id="boundary" inkscape:connector-curvature="0" />
	<path style="fill:none;stroke:red;stroke-width:1px;stroke-linecap:butt;stroke-linejoin:miter;stroke-opacity:1" d="M 172.303,231.705 152.503,231.705 z" id="boundary" inkscape:connector-curvature="0" />
	<path style="fill:none;stroke:red;stroke-width:1px;stroke-linecap:butt;stroke-linejoin:miter;stroke-opacity:1" d="M 162.403,326.747 154.483,306.946 z" id="boundary" inkscape:connector-curvature="0" />
	<path style="fill:none;stroke:red;stroke-width:1px;stroke-linecap:butt;stroke-linejoin:miter;stroke-opacity:1" d="M 182.204,332.687 162.403,326.747 z" id="boundary" inkscape:connector-curvature="0" />
	<path style="fill:none;stroke:red;stroke-width:1px;stroke-linecap:butt;stroke-linejoin:miter;stroke-opacity:1" d="M 172.303,231.705 192.104,231.705 z" id="boundary" inkscape:connector-curvature="0" />
	<path style="fill:none;stroke:red;stroke-width:1px;stroke-linecap:butt;stroke-linejoin:miter;stroke-opacity:1" d="M 160.423,164.383 178.244,174.283 z" id="boundary" inkscape:connector-curvature="0" />
	<path style="fill:none;stroke:red;stroke-width:1px;stroke-linecap:butt;stroke-linejoin:miter;stroke-opacity:1" d="M 164.383,93.1018 180.224,104.982 z" id="boundary" inkscape:connector-curvature="0" />
	<path style="fill:none;stroke:red;stroke-width:1px;stroke-linecap:butt;stroke-linejoin:miter;stroke-opacity:1" d="M 257.445,103.002 271.305,79.2415 z" id="boundary" inkscape:connector-curvature="0" />
	<path style="fill:none;stroke:red;stroke-width:1px;stroke-linecap:butt;stroke-linejoin:miter;stroke-opacity:1" d="M 257.445,103.002 241.605,118.842 z" id="boundary" inkscape:connector-curvature="0" />
	<path style="fill:none;stroke:red;stroke-width:1px;stroke-linecap:butt;stroke-linejoin:miter;stroke-opacity:1" d="M 229.725,142.603 241.605,118.842 z" id="boundary" inkscape:connector-curvature="0" />
	<path style="fill:none;stroke:red;stroke-width:1px;stroke-linecap:butt;stroke-linejoin:miter;stroke-opacity:1" d="M 194.084,120.822 180.224,104.982 z" id="boundary" inkscape:connector-curvature="0" />
	<path style="fill:none;stroke:red;stroke-width:1px;stroke-linecap:butt;stroke-linejoin:miter;stroke-opacity:1" d="M 271.305,79.2415 287.146,63.4012 z" id="boundary" inkscape:connector-curvature="0" />
	<path style="fill:none;stroke:red;stroke-width:1px;stroke-linecap:butt;stroke-linejoin:miter;stroke-opacity:1" d="M 287.146,63.4012 304.966,53.501 z" id="boundary" inkscape:connector-curvature="0" />
	<path style="fill:none;stroke:red;stroke-width:1px;stroke-linecap:butt;stroke-linejoin:miter;stroke-opacity:1" d="M 378.228,13.9002 360.407,23.8004 z" id="boundary" inkscape:connector-curvature="0" />
	<path style="fill:none;stroke:red;stroke-width:1px;stroke-linecap:butt;stroke-linejoin:miter;stroke-opacity:1" d="M 360.407,23.8004 340.607,29.7405 z" id="boundary" inkscape:connector-curvature="0" />
	<path style="fill:none;stroke:red;stroke-width:1px;stroke-linecap:butt;stroke-linejoin:miter;stroke-opacity:1" d="M 340.607,29.7405 322.786,43.6008 z" id="boundary" inkscape:connector-curvature="0" />
	<path style="fill:none;stroke:red;stroke-width:1px;stroke-linecap:butt;stroke-linejoin:miter;stroke-opacity:1" d="M 322.786,43.6008 304.966,53.501 z" id="boundary" inkscape:connector-curvature="0" />
	<path style="fill:none;stroke:red;stroke-width:1px;stroke-linecap:butt;stroke-linejoin:miter;stroke-opacity:1" d="M 396.048,4 378.228,13.9002 z" id="boundary" inkscape:connector-curvature="0" />
	<path style="fill:none;stroke:red;stroke-width:1px;stroke-linecap:butt;stroke-linejoin:miter;stroke-opacity:1" d="M 182.204,332.687 198.044,360.407 z" id="boundary" inkscape:connector-curvature="0" />
	<path style="fill:none;stroke:red;stroke-width:1px;stroke-linecap:butt;stroke-linejoin:miter;stroke-opacity:1" d="M 198.044,360.407 182.204,376.248 z" id="boundary" inkscape:connector-curvature="0" />
	<path style="fill:none;stroke:red;stroke-width:1px;stroke-linecap:butt;stroke-linejoin:miter;stroke-opacity:1" d="M 192.104,231.705 209.924,221.804 z" id="boundary" inkscape:connector-curvature="0" />
	<path style="fill:none;stroke:red;stroke-width:1px;stroke-linecap:butt;stroke-linejoin:miter;stroke-opacity:1" d="M 194.084,120.822 209.924,134.683 z" id="boundary" inkscape:connector-curvature="0" />
	<path style="fill:none;stroke:red;stroke-width:1px;stroke-linecap:butt;stroke-linejoin:miter;stroke-opacity:1" d="M 178.244,174.283 196.064,184.184 z" id="boundary" inkscape:connector-curvature="0" />
	<path style="fill:none;stroke:red;stroke-width:1px;stroke-linecap:butt;stroke-linejoin:miter;stroke-opacity:1" d="M 209.924,134.683 229.725,142.603 z" id="boundary" inkscape:connector-curvature="0" />
	<path style="fill:none;stroke:red;stroke-width:1px;stroke-linecap:butt;stroke-linejoin:miter;stroke-opacity:1" d="M 213.884,194.084 196.064,184.184 z" id="boundary" inkscape:connector-curvature="0" />
	<path style="fill:none;stroke:red;stroke-width:1px;stroke-linecap:butt;stroke-linejoin:miter;stroke-opacity:1" d="M 213.884,194.084 209.924,221.804 z" id="boundary" inkscape:connector-curvature="0" />
	<path style="fill:none;stroke:red;stroke-width:1px;stroke-linecap:butt;stroke-linejoin:miter;stroke-opacity:1" d="M 168.343,400.008 182.204,376.248 z" id="boundary" inkscape:connector-curvature="0" />
	<path style="fill:none;stroke:red;stroke-width:1px;stroke-linecap:butt;stroke-linejoin:miter;stroke-opacity:1" d="M 85.1816,552.471 104.982,542.571 z" id="boundary" inkscape:connector-curvature="0" />
	<path style="fill:none;stroke:red;stroke-width:1px;stroke-linecap:butt;stroke-linejoin:miter;stroke-opacity:1" d="M 124.782,538.611 104.982,542.571 z" id="boundary" inkscape:connector-curvature="0" />
	<path style="fill:none;stroke:red;stroke-width:1px;stroke-linecap:butt;stroke-linejoin:miter;stroke-opacity:1" d="M 132.703,504.95 124.782,538.611 z" id="boundary" inkscape:connector-curvature="0" />
	<path style="fill:none;stroke:red;stroke-width:1px;stroke-linecap:butt;stroke-linejoin:miter;stroke-opacity:1" d="M 49.5409,578.212 65.3812,562.371 z" id="boundary" inkscape:connector-curvature="0" />
	<path style="fill:none;stroke:red;stroke-width:1px;stroke-linecap:butt;stroke-linejoin:miter;stroke-opacity:1" d="M 85.1816,552.471 65.3812,562.371 z" id="boundary" inkscape:connector-curvature="0" />
	<path style="fill:none;stroke:red;stroke-width:1px;stroke-linecap:butt;stroke-linejoin:miter;stroke-opacity:1" d="M 142.603,435.649 158.443,419.808 z" id="boundary" inkscape:connector-curvature="0" />
	<path style="fill:none;stroke:red;stroke-width:1px;stroke-linecap:butt;stroke-linejoin:miter;stroke-opacity:1" d="M 132.703,465.349 142.603,435.649 z" id="boundary" inkscape:connector-curvature="0" />
	<path style="fill:none;stroke:red;stroke-width:1px;stroke-linecap:butt;stroke-linejoin:miter;stroke-opacity:1" d="M 168.343,400.008 158.443,419.808 z" id="boundary" inkscape:connector-curvature="0" />
	<path style="fill:none;stroke:red;stroke-width:1px;stroke-linecap:butt;stroke-linejoin:miter;stroke-opacity:1" d="M 132.703,465.349 132.703,485.15 z" id="boundary" inkscape:connector-curvature="0" />
	<path style="fill:none;stroke:red;stroke-width:1px;stroke-linecap:butt;stroke-linejoin:miter;stroke-opacity:1" d="M 132.703,504.95 132.703,485.15 z" id="boundary" inkscape:connector-curvature="0" />
	<path style="fill:none;stroke:red;stroke-width:1px;stroke-linecap:butt;stroke-linejoin:miter;stroke-opacity:1" d="M 49.5409,578.212 33.7006,594.052 z" id="boundary" inkscape:connector-curvature="0" />
	<path style="fill:none;stroke:red;stroke-width:1px;stroke-linecap:butt;stroke-linejoin:miter;stroke-opacity:1" d="M 13.9002,613.852 33.7006,594.052 z" id="boundary" inkscape:connector-curvature="0" />
	<path style="fill:none;stroke:red;stroke-width:1px;stroke-linecap:butt;stroke-linejoin:miter;stroke-opacity:1" d="M 19.8403,647.513 4,633.653 z" id="boundary" inkscape:connector-curvature="0" />
	<path style="fill:none;stroke:red;stroke-width:1px;stroke-linecap:butt;stroke-linejoin:miter;stroke-opacity:1" d="M 4,633.653 13.9002,613.852 z" id="boundary" inkscape:connector-curvature="0" />
	<path style="fill:none;stroke:red;stroke-width:1px;stroke-linecap:butt;stroke-linejoin:miter;stroke-opacity:1" d="M 37.6607,657.413 19.8403,647.513 z" id="boundary" inkscape:connector-curvature="0" />
	<path style="fill:none;stroke:red;stroke-width:1px;stroke-linecap:butt;stroke-linejoin:miter;stroke-opacity:1" d="M 37.6607,657.413 53.501,669.293 z" id="boundary" inkscape:connector-curvature="0" />
	<path style="fill:none;stroke:red;stroke-width:1px;stroke-linecap:butt;stroke-linejoin:miter;stroke-opacity:1" d="M 91.1218,679.194 71.3214,679.194 z" id="boundary" inkscape:connector-curvature="0" />
	<path style="fill:none;stroke:red;stroke-width:1px;stroke-linecap:butt;stroke-linejoin:miter;stroke-opacity:1" d="M 71.3214,679.194 53.501,669.293 z" id="boundary" inkscape:connector-curvature="0" />
	<path style="fill:none;stroke:red;stroke-width:1px;stroke-linecap:butt;stroke-linejoin:miter;stroke-opacity:1" d="M 91.1218,679.194 108.942,689.094 z" id="boundary" inkscape:connector-curvature="0" />
	<path style="fill:none;stroke:red;stroke-width:1px;stroke-linecap:butt;stroke-linejoin:miter;stroke-opacity:1" d="M 108.942,689.094 128.743,689.094 z" id="boundary" inkscape:connector-curvature="0" />
	<path style="fill:none;stroke:red;stroke-width:1px;stroke-linecap:butt;stroke-linejoin:miter;stroke-opacity:1" d="M 128.743,689.094 146.563,698.994 z" id="boundary" inkscape:connector-curvature="0" />
	<path style="fill:none;stroke:red;stroke-width:1px;stroke-linecap:butt;stroke-linejoin:miter;stroke-opacity:1" d="M 166.363,698.994 146.563,698.994 z" id="boundary" inkscape:connector-curvature="0" />
	<path style="fill:none;stroke:red;stroke-width:1px;stroke-linecap:butt;stroke-linejoin:miter;stroke-opacity:1" d="M 182.204,710.874 166.363,698.994 z" id="boundary" inkscape:connector-curvature="0" />
	<path style="fill:none;stroke:red;stroke-width:1px;stroke-linecap:butt;stroke-linejoin:miter;stroke-opacity:1" d="M 196.064,726.715 205.964,744.535 z" id="boundary" inkscape:connector-curvature="0" />
	<path style="fill:none;stroke:red;stroke-width:1px;stroke-linecap:butt;stroke-linejoin:miter;stroke-opacity:1" d="M 196.064,726.715 182.204,710.874 z" id="boundary" inkscape:connector-curvature="0" />
	<path style="fill:none;stroke:red;stroke-width:1px;stroke-linecap:butt;stroke-linejoin:miter;stroke-opacity:1" d="M 205.964,744.535 211.904,772.255 z" id="boundary" inkscape:connector-curvature="0" />
	<path style="fill:none;stroke:red;stroke-width:1px;stroke-linecap:butt;stroke-linejoin:miter;stroke-opacity:1" d="M 211.904,772.255 211.904,792.056 z" id="boundary" inkscape:connector-curvature="0" />
	<path style="fill:none;stroke:red;stroke-width:1px;stroke-linecap:butt;stroke-linejoin:miter;stroke-opacity:1" d="M 211.904,811.856 211.904,831.657 z" id="boundary" inkscape:connector-curvature="0" />
	<path style="fill:none;stroke:red;stroke-width:1px;stroke-linecap:butt;stroke-linejoin:miter;stroke-opacity:1" d="M 211.904,851.457 211.904,831.657 z" id="boundary" inkscape:connector-curvature="0" />
	<path style="fill:none;stroke:red;stroke-width:1px;stroke-linecap:butt;stroke-linejoin:miter;stroke-opacity:1" d="M 221.804,869.277 211.904,851.457 z" id="boundary" inkscape:connector-curvature="0" />
	<path style="fill:none;stroke:red;stroke-width:1px;stroke-linecap:butt;stroke-linejoin:miter;stroke-opacity:1" d="M 211.904,811.856 211.904,792.056 z" id="boundary" inkscape:connector-curvature="0" />
	<path style="fill:none;stroke:red;stroke-width:1px;stroke-linecap:butt;stroke-linejoin:miter;stroke-opacity:1" d="M 221.804,869.277 231.705,887.098 z" id="boundary" inkscape:connector-curvature="0" />
	<path style="fill:none;stroke:red;stroke-width:1px;stroke-linecap:butt;stroke-linejoin:miter;stroke-opacity:1" d="M 231.705,887.098 237.645,906.898 z" id="boundary" inkscape:connector-curvature="0" />
	<path style="fill:none;stroke:red;stroke-width:1px;stroke-linecap:butt;stroke-linejoin:miter;stroke-opacity:1" d="M 237.645,906.898 253.485,920.758 z" id="boundary" inkscape:connector-curvature="0" />
	<path style="fill:none;stroke:red;stroke-width:1px;stroke-linecap:butt;stroke-linejoin:miter;stroke-opacity:1" d="M 253.485,920.758 261.405,940.559 z" id="boundary" inkscape:connector-curvature="0" />
	<path style="fill:none;stroke:red;stroke-width:1px;stroke-linecap:butt;stroke-linejoin:miter;stroke-opacity:1" d="M 281.206,946.499 261.405,940.559 z" id="boundary" inkscape:connector-curvature="0" />
	<path style="fill:none;stroke:red;stroke-width:1px;stroke-linecap:butt;stroke-linejoin:miter;stroke-opacity:1" d="M 312.886,970.259 293.086,962.339 z" id="boundary" inkscape:connector-curvature="0" />
	<path style="fill:none;stroke:red;stroke-width:1px;stroke-linecap:butt;stroke-linejoin:miter;stroke-opacity:1" d="M 293.086,962.339 281.206,946.499 z" id="boundary" inkscape:connector-curvature="0" />
	<path style="fill:none;stroke:red;stroke-width:1px;stroke-linecap:butt;stroke-linejoin:miter;stroke-opacity:1" d="M 312.886,970.259 330.707,980.16 z" id="boundary" inkscape:connector-curvature="0" />
	<path style="fill:none;stroke:red;stroke-width:1px;stroke-linecap:butt;stroke-linejoin:miter;stroke-opacity:1" d="M 330.707,980.16 350.507,976.2 z" id="boundary" inkscape:connector-curvature="0" />
	<path style="fill:none;stroke:red;stroke-width:1px;stroke-linecap:butt;stroke-linejoin:miter;stroke-opacity:1" d="M 350.507,976.2 368.327,986.1 z" id="boundary" inkscape:connector-curvature="0" />
	<path style="fill:none;stroke:red;stroke-width:1px;stroke-linecap:butt;stroke-linejoin:miter;stroke-opacity:1" d="M 368.327,986.1 386.148,996 z" id="boundary" inkscape:connector-curvature="0" />
	<path style="fill:none;stroke:red;stroke-width:1px;stroke-linecap:butt;stroke-linejoin:miter;stroke-opacity:1" d="M 415.848,4 435.649,4 z" id="boundary" inkscape:connector-curvature="0" />
	<path style="fill:none;stroke:red;stroke-width:1px;stroke-linecap:butt;stroke-linejoin:miter;stroke-opacity:1" d="M 435.649,4 455.449,4 z" id="boundary" inkscape:connector-curvature="0" />
	<path style="fill:none;stroke:red;stroke-width:1px;stroke-linecap:butt;stroke-linejoin:miter;stroke-opacity:1" d="M 455.449,4 475.25,4 z" id="boundary" inkscape:connector-curvature="0" />
	<path style="fill:none;stroke:red;stroke-width:1px;stroke-linecap:butt;stroke-linejoin:miter;stroke-opacity:1" d="M 495.05,4 512.87,13.9002 z" id="boundary" inkscape:connector-curvature="0" />
	<path style="fill:none;stroke:red;stroke-width:1px;stroke-linecap:butt;stroke-linejoin:miter;stroke-opacity:1" d="M 475.25,4 495.05,4 z" id="boundary" inkscape:connector-curvature="0" />
	<path style="fill:none;stroke:red;stroke-width:1px;stroke-linecap:butt;stroke-linejoin:miter;stroke-opacity:1" d="M 530.691,23.8004 550.491,29.7405 z" id="boundary" inkscape:connector-curvature="0" />
	<path style="fill:none;stroke:red;stroke-width:1px;stroke-linecap:butt;stroke-linejoin:miter;stroke-opacity:1" d="M 550.491,29.7405 568.311,39.6407 z" id="boundary" inkscape:connector-curvature="0" />
	<path style="fill:none;stroke:red;stroke-width:1px;stroke-linecap:butt;stroke-linejoin:miter;stroke-opacity:1" d="M 530.691,23.8004 512.87,13.9002 z" id="boundary" inkscape:connector-curvature="0" />
	<path style="fill:none;stroke:red;stroke-width:1px;stroke-linecap:butt;stroke-linejoin:miter;stroke-opacity:1" d="M 568.311,39.6407 584.152,53.501 z" id="boundary" inkscape:connector-curvature="0" />
	<path style="fill:none;stroke:red;stroke-width:1px;stroke-linecap:butt;stroke-linejoin:miter;stroke-opacity:1" d="M 584.152,53.501 601.972,63.4012 z" id="boundary" inkscape:connector-curvature="0" />
	<path style="fill:none;stroke:red;stroke-width:1px;stroke-linecap:butt;stroke-linejoin:miter;stroke-opacity:1" d="M 601.972,63.4012 609.892,83.2016 z" id="boundary" inkscape:connector-curvature="0" />
	<path style="fill:none;stroke:red;stroke-width:1px;stroke-linecap:butt;stroke-linejoin:miter;stroke-opacity:1" d="M 609.892,83.2016 625.733,95.0818 z" id="boundary" inkscape:connector-curvature="0" />
	<path style="fill:none;stroke:red;stroke-width:1px;stroke-linecap:butt;stroke-linejoin:miter;stroke-opacity:1" d="M 625.733,95.0818 633.653,114.882 z" id="boundary" inkscape:connector-curvature="0" />
	<path style="fill:none;stroke:red;stroke-width:1px;stroke-linecap:butt;stroke-linejoin:miter;stroke-opacity:1" d="M 643.553,132.703 633.653,114.882 z" id="boundary" inkscape:connector-curvature="0" />
	<path style="fill:none;stroke:red;stroke-width:1px;stroke-linecap:butt;stroke-linejoin:miter;stroke-opacity:1" d="M 643.553,132.703 649.493,152.503 z" id="boundary" inkscape:connector-curvature="0" />
	<path style="fill:none;stroke:red;stroke-width:1px;stroke-linecap:butt;stroke-linejoin:miter;stroke-opacity:1" d="M 649.493,152.503 649.493,172.303 z" id="boundary" inkscape:connector-curvature="0" />
	<path style="fill:none;stroke:red;stroke-width:1px;stroke-linecap:butt;stroke-linejoin:miter;stroke-opacity:1" d="M 659.393,190.124 649.493,172.303 z" id="boundary" inkscape:connector-curvature="0" />
	<path style="fill:none;stroke:red;stroke-width:1px;stroke-linecap:butt;stroke-linejoin:miter;stroke-opacity:1" d="M 659.393,190.124 659.393,209.924 z" id="boundary" inkscape:connector-curvature="0" />
	<path style="fill:none;stroke:red;stroke-width:1px;stroke-linecap:butt;stroke-linejoin:miter;stroke-opacity:1" d="M 659.393,209.924 669.293,227.745 z" id="boundary" inkscape:connector-curvature="0" />
	<path style="fill:none;stroke:red;stroke-width:1px;stroke-linecap:butt;stroke-linejoin:miter;stroke-opacity:1" d="M 657.413,283.186 639.593,293.086 z" id="boundary" inkscape:connector-curvature="0" />
	<path style="fill:none;stroke:red;stroke-width:1px;stroke-linecap:butt;stroke-linejoin:miter;stroke-opacity:1" d="M 744.535,211.904 762.355,202.004 z" id="boundary" inkscape:connector-curvature="0" />
	<path style="fill:none;stroke:red;stroke-width:1px;stroke-linecap:butt;stroke-linejoin:miter;stroke-opacity:1" d="M 744.535,211.904 728.695,225.764 z" id="boundary" inkscape:connector-curvature="0" />
	<path style="fill:none;stroke:red;stroke-width:1px;stroke-linecap:butt;stroke-linejoin:miter;stroke-opacity:1" d="M 728.695,225.764 708.894,225.764 z" id="boundary" inkscape:connector-curvature="0" />
	<path style="fill:none;stroke:red;stroke-width:1px;stroke-linecap:butt;stroke-linejoin:miter;stroke-opacity:1" d="M 762.355,202.004 782.156,192.104 z" id="boundary" inkscape:connector-curvature="0" />
	<path style="fill:none;stroke:red;stroke-width:1px;stroke-linecap:butt;stroke-linejoin:miter;stroke-opacity:1" d="M 801.956,182.204 821.756,182.204 z" id="boundary" inkscape:connector-curvature="0" />
	<path style="fill:none;stroke:red;stroke-width:1px;stroke-linecap:butt;stroke-linejoin:miter;stroke-opacity:1" d="M 857.397,203.984 837.597,213.884 z" id="boundary" inkscape:connector-curvature="0" />
	<path style="fill:none;stroke:red;stroke-width:1px;stroke-linecap:butt;stroke-linejoin:miter;stroke-opacity:1" d="M 821.756,182.204 841.557,182.204 z" id="boundary" inkscape:connector-curvature="0" />
	<path style="fill:none;stroke:red;stroke-width:1px;stroke-linecap:butt;stroke-linejoin:miter;stroke-opacity:1" d="M 825.717,233.685 837.597,213.884 z" id="boundary" inkscape:connector-curvature="0" />
	<path style="fill:none;stroke:red;stroke-width:1px;stroke-linecap:butt;stroke-linejoin:miter;stroke-opacity:1" d="M 782.156,192.104 801.956,182.204 z" id="boundary" inkscape:connector-curvature="0" />
	<path style="fill:none;stroke:red;stroke-width:1px;stroke-linecap:butt;stroke-linejoin:miter;stroke-opacity:1" d="M 708.894,225.764 689.094,231.705 z" id="boundary" inkscape:connector-curvature="0" />
	<path style="fill:none;stroke:red;stroke-width:1px;stroke-linecap:butt;stroke-linejoin:miter;stroke-opacity:1" d="M 669.293,227.745 689.094,231.705 z" id="boundary" inkscape:connector-curvature="0" />
	<path style="fill:none;stroke:red;stroke-width:1px;stroke-linecap:butt;stroke-linejoin:miter;stroke-opacity:1" d="M 677.214,283.186 697.014,283.186 z" id="boundary" inkscape:connector-curvature="0" />
	<path style="fill:none;stroke:red;stroke-width:1px;stroke-linecap:butt;stroke-linejoin:miter;stroke-opacity:1" d="M 716.814,283.186 697.014,283.186 z" id="boundary" inkscape:connector-curvature="0" />
	<path style="fill:none;stroke:red;stroke-width:1px;stroke-linecap:butt;stroke-linejoin:miter;stroke-opacity:1" d="M 677.214,283.186 657.413,283.186 z" id="boundary" inkscape:connector-curvature="0" />
	<path style="fill:none;stroke:red;stroke-width:1px;stroke-linecap:butt;stroke-linejoin:miter;stroke-opacity:1" d="M 790.076,253.485 807.896,243.585 z" id="boundary" inkscape:connector-curvature="0" />
	<path style="fill:none;stroke:red;stroke-width:1px;stroke-linecap:butt;stroke-linejoin:miter;stroke-opacity:1" d="M 790.076,253.485 772.255,263.385 z" id="boundary" inkscape:connector-curvature="0" />
	<path style="fill:none;stroke:red;stroke-width:1px;stroke-linecap:butt;stroke-linejoin:miter;stroke-opacity:1" d="M 807.896,243.585 825.717,233.685 z" id="boundary" inkscape:connector-curvature="0" />
	<path style="fill:none;stroke:red;stroke-width:1px;stroke-linecap:butt;stroke-linejoin:miter;stroke-opacity:1" d="M 736.615,283.186 754.435,273.285 z" id="boundary" inkscape:connector-curvature="0" />
	<path style="fill:none;stroke:red;stroke-width:1px;stroke-linecap:butt;stroke-linejoin:miter;stroke-opacity:1" d="M 736.615,283.186 716.814,283.186 z" id="boundary" inkscape:connector-curvature="0" />
	<path style="fill:none;stroke:red;stroke-width:1px;stroke-linecap:butt;stroke-linejoin:miter;stroke-opacity:1" d="M 754.435,273.285 772.255,263.385 z" id="boundary" inkscape:connector-curvature="0" />
	<path style="fill:none;stroke:red;stroke-width:1px;stroke-linecap:butt;stroke-linejoin:miter;stroke-opacity:1" d="M 639.593,837.597 629.693,867.297 z" id="boundary" inkscape:connector-curvature="0" />
	<path style="fill:none;stroke:red;stroke-width:1px;stroke-linecap:butt;stroke-linejoin:miter;stroke-opacity:1" d="M 629.693,867.297 615.832,883.138 z" id="boundary" inkscape:connector-curvature="0" />
	<path style="fill:none;stroke:red;stroke-width:1px;stroke-linecap:butt;stroke-linejoin:miter;stroke-opacity:1" d="M 615.832,883.138 605.932,902.938 z" id="boundary" inkscape:connector-curvature="0" />
	<path style="fill:none;stroke:red;stroke-width:1px;stroke-linecap:butt;stroke-linejoin:miter;stroke-opacity:1" d="M 605.932,902.938 590.092,916.798 z" id="boundary" inkscape:connector-curvature="0" />
	<path style="fill:none;stroke:red;stroke-width:1px;stroke-linecap:butt;stroke-linejoin:miter;stroke-opacity:1" d="M 574.251,934.619 590.092,916.798 z" id="boundary" inkscape:connector-curvature="0" />
	<path style="fill:none;stroke:red;stroke-width:1px;stroke-linecap:butt;stroke-linejoin:miter;stroke-opacity:1" d="M 649.493,748.495 649.493,778.196 z" id="boundary" inkscape:connector-curvature="0" />
	<path style="fill:none;stroke:red;stroke-width:1px;stroke-linecap:butt;stroke-linejoin:miter;stroke-opacity:1" d="M 659.393,698.994 649.493,718.794 z" id="boundary" inkscape:connector-curvature="0" />
	<path style="fill:none;stroke:red;stroke-width:1px;stroke-linecap:butt;stroke-linejoin:miter;stroke-opacity:1" d="M 649.493,778.196 649.493,797.996 z" id="boundary" inkscape:connector-curvature="0" />
	<path style="fill:none;stroke:red;stroke-width:1px;stroke-linecap:butt;stroke-linejoin:miter;stroke-opacity:1" d="M 649.493,748.495 649.493,718.794 z" id="boundary" inkscape:connector-curvature="0" />
	<path style="fill:none;stroke:red;stroke-width:1px;stroke-linecap:butt;stroke-linejoin:miter;stroke-opacity:1" d="M 643.553,312.886 639.593,293.086 z" id="boundary" inkscape:connector-curvature="0" />
	<path style="fill:none;stroke:red;stroke-width:1px;stroke-linecap:butt;stroke-linejoin:miter;stroke-opacity:1" d="M 639.593,837.597 649.493,817.796 z" id="boundary" inkscape:connector-curvature="0" />
	<path style="fill:none;stroke:red;stroke-width:1px;stroke-linecap:butt;stroke-linejoin:miter;stroke-opacity:1" d="M 445.549,986.1 465.349,986.1 z" id="boundary" inkscape:connector-curvature="0" />
	<path style="fill:none;stroke:red;stroke-width:1px;stroke-linecap:butt;stroke-linejoin:miter;stroke-opacity:1" d="M 425.749,994.02 445.549,986.1 z" id="boundary" inkscape:connector-curvature="0" />
	<path style="fill:none;stroke:red;stroke-width:1px;stroke-linecap:butt;stroke-linejoin:miter;stroke-opacity:1" d="M 483.17,976.2 465.349,986.1 z" id="boundary" inkscape:connector-curvature="0" />
	<path style="fill:none;stroke:red;stroke-width:1px;stroke-linecap:butt;stroke-linejoin:miter;stroke-opacity:1" d="M 386.148,996 405.948,994.02 z" id="boundary" inkscape:connector-curvature="0" />
	<path style="fill:none;stroke:red;stroke-width:1px;stroke-linecap:butt;stroke-linejoin:miter;stroke-opacity:1" d="M 405.948,994.02 425.749,994.02 z" id="boundary" inkscape:connector-curvature="0" />
	<path style="fill:none;stroke:red;stroke-width:1px;stroke-linecap:butt;stroke-linejoin:miter;stroke-opacity:1" d="M 538.611,956.399 554.451,944.519 z" id="boundary" inkscape:connector-curvature="0" />
	<path style="fill:none;stroke:red;stroke-width:1px;stroke-linecap:butt;stroke-linejoin:miter;stroke-opacity:1" d="M 554.451,944.519 574.251,934.619 z" id="boundary" inkscape:connector-curvature="0" />
	<path style="fill:none;stroke:red;stroke-width:1px;stroke-linecap:butt;stroke-linejoin:miter;stroke-opacity:1" d="M 520.79,966.299 502.97,976.2 z" id="boundary" inkscape:connector-curvature="0" />
	<path style="fill:none;stroke:red;stroke-width:1px;stroke-linecap:butt;stroke-linejoin:miter;stroke-opacity:1" d="M 502.97,976.2 483.17,976.2 z" id="boundary" inkscape:connector-curvature="0" />
	<path style="fill:none;stroke:red;stroke-width:1px;stroke-linecap:butt;stroke-linejoin:miter;stroke-opacity:1" d="M 538.611,956.399 520.79,966.299 z" id="boundary" inkscape:connector-curvature="0" />
	<path style="fill:none;stroke:red;stroke-width:1px;stroke-linecap:butt;stroke-linejoin:miter;stroke-opacity:1" d="M 673.253,342.587 659.393,326.747 z" id="boundary" inkscape:connector-curvature="0" />
	<path style="fill:none;stroke:red;stroke-width:1px;stroke-linecap:butt;stroke-linejoin:miter;stroke-opacity:1" d="M 689.094,356.447 698.994,374.267 z" id="boundary" inkscape:connector-curvature="0" />
	<path style="fill:none;stroke:red;stroke-width:1px;stroke-linecap:butt;stroke-linejoin:miter;stroke-opacity:1" d="M 673.253,342.587 689.094,356.447 z" id="boundary" inkscape:connector-curvature="0" />
	<path style="fill:none;stroke:red;stroke-width:1px;stroke-linecap:butt;stroke-linejoin:miter;stroke-opacity:1" d="M 708.894,392.088 698.994,374.267 z" id="boundary" inkscape:connector-curvature="0" />
	<path style="fill:none;stroke:red;stroke-width:1px;stroke-linecap:butt;stroke-linejoin:miter;stroke-opacity:1" d="M 659.393,326.747 643.553,312.886 z" id="boundary" inkscape:connector-curvature="0" />
	<path style="fill:none;stroke:red;stroke-width:1px;stroke-linecap:butt;stroke-linejoin:miter;stroke-opacity:1" d="M 718.794,409.908 728.695,427.729 z" id="boundary" inkscape:connector-curvature="0" />
	<path style="fill:none;stroke:red;stroke-width:1px;stroke-linecap:butt;stroke-linejoin:miter;stroke-opacity:1" d="M 728.695,427.729 718.794,461.389 z" id="boundary" inkscape:connector-curvature="0" />
	<path style="fill:none;stroke:red;stroke-width:1px;stroke-linecap:butt;stroke-linejoin:miter;stroke-opacity:1" d="M 718.794,481.19 718.794,461.389 z" id="boundary" inkscape:connector-curvature="0" />
	<path style="fill:none;stroke:red;stroke-width:1px;stroke-linecap:butt;stroke-linejoin:miter;stroke-opacity:1" d="M 718.794,500.99 718.794,481.19 z" id="boundary" inkscape:connector-curvature="0" />
	<path style="fill:none;stroke:red;stroke-width:1px;stroke-linecap:butt;stroke-linejoin:miter;stroke-opacity:1" d="M 708.894,392.088 718.794,409.908 z" id="boundary" inkscape:connector-curvature="0" />
	<path style="fill:none;stroke:red;stroke-width:1px;stroke-linecap:butt;stroke-linejoin:miter;stroke-opacity:1" d="M 718.794,500.99 708.894,530.691 z" id="boundary" inkscape:connector-curvature="0" />
	<path style="fill:none;stroke:red;stroke-width:1px;stroke-linecap:butt;stroke-linejoin:miter;stroke-opacity:1" d="M 679.194,659.393 669.293,679.194 z" id="boundary" inkscape:connector-curvature="0" />
	<path style="fill:none;stroke:red;stroke-width:1px;stroke-linecap:butt;stroke-linejoin:miter;stroke-opacity:1" d="M 689.094,629.693 679.194,659.393 z" id="boundary" inkscape:connector-curvature="0" />
	<path style="fill:none;stroke:red;stroke-width:1px;stroke-linecap:butt;stroke-linejoin:miter;stroke-opacity:1" d="M 659.393,698.994 669.293,679.194 z" id="boundary" inkscape:connector-curvature="0" />
	<path style="fill:none;stroke:red;stroke-width:1px;stroke-linecap:butt;stroke-linejoin:miter;stroke-opacity:1" d="M 649.493,817.796 649.493,797.996 z" id="boundary" inkscape:connector-curvature="0" />
	<path style="fill:none;stroke:red;stroke-width:1px;stroke-linecap:butt;stroke-linejoin:miter;stroke-opacity:1" d="M 708.894,530.691 708.894,550.491 z" id="boundary" inkscape:connector-curvature="0" />
	<path style="fill:none;stroke:red;stroke-width:1px;stroke-linecap:butt;stroke-linejoin:miter;stroke-opacity:1" d="M 708.894,570.291 708.894,550.491 z" id="boundary" inkscape:connector-curvature="0" />
	<path style="fill:none;stroke:red;stroke-width:1px;stroke-linecap:butt;stroke-linejoin:miter;stroke-opacity:1" d="M 708.894,570.291 698.994,590.092 z" id="boundary" inkscape:connector-curvature="0" />
	<path style="fill:none;stroke:red;stroke-width:1px;stroke-linecap:butt;stroke-linejoin:miter;stroke-opacity:1" d="M 698.994,590.092 698.994,609.892 z" id="boundary" inkscape:connector-curvature="0" />
	<path style="fill:none;stroke:red;stroke-width:1px;stroke-linecap:butt;stroke-linejoin:miter;stroke-opacity:1" d="M 698.994,609.892 689.094,629.693 z" id="boundary" inkscape:connector-curvature="0" />
	<path style="fill:none;stroke:red;stroke-width:1px;stroke-linecap:butt;stroke-linejoin:miter;stroke-opacity:1" d="M 396.048,4 415.848,4 z" id="boundary" inkscape:connector-curvature="0" />
	<circle cx="4" cy="633.653" r="4" fill="#0" id="circle0"/>
	<circle cx="13.9002" cy="613.852" r="4" fill="#0" id="circle1"/>
	<circle cx="19.8403" cy="647.513" r="4" fill="#0" id="circle2"/>
	<circle cx="33.7006" cy="594.052" r="4" fill="#0" id="circle3"/>
	<circle cx="37.6607" cy="657.413" r="4" fill="#0" id="circle4"/>
	<circle cx="49.5409" cy="578.212" r="4" fill="#0" id="circle5"/>
	<circle cx="53.501" cy="669.293" r="4" fill="#0" id="circle6"/>
	<circle cx="65.3812" cy="562.371" r="4" fill="#0" id="circle7"/>
	<circle cx="71.3214" cy="679.194" r="4" fill="#0" id="circle8"/>
	<circle cx="83.2016" cy="69.3413" r="4" fill="#0" id="circle9"/>
	<circle cx="85.1816" cy="552.471" r="4" fill="#0" id="circle10"/>
	<circle cx="91.1218" cy="679.194" r="4" fill="#0" id="circle11"/>
	<circle cx="93.1018" cy="87.1617" r="4" fill="#0" id="circle12"/>
	<circle cx="99.0419" cy="53.501" r="4" fill="#0" id="circle13"/>
	<circle cx="104.982" cy="542.571" r="4" fill="#0" id="circle14"/>
	<circle cx="106.962" cy="103.002" r="4" fill="#0" id="circle15"/>
	<circle cx="108.942" cy="689.094" r="4" fill="#0" id="circle16"/>
	<circle cx="112.902" cy="237.645" r="4" fill="#0" id="circle17"/>
	<circle cx="116.862" cy="120.822" r="4" fill="#0" id="circle18"/>
	<circle cx="118.842" cy="53.501" r="4" fill="#0" id="circle19"/>
	<circle cx="122.802" cy="255.465" r="4" fill="#0" id="circle20"/>
	<circle cx="124.782" cy="538.611" r="4" fill="#0" id="circle21"/>
	<circle cx="128.743" cy="689.094" r="4" fill="#0" id="circle22"/>
	<circle cx="132.703" cy="134.683" r="4" fill="#0" id="circle23"/>
	<circle cx="132.703" cy="231.705" r="4" fill="#0" id="circle24"/>
	<circle cx="132.703" cy="273.285" r="4" fill="#0" id="circle25"/>
	<circle cx="132.703" cy="465.349" r="4" fill="#0" id="circle26"/>
	<circle cx="132.703" cy="485.15" r="4" fill="#0" id="circle27"/>
	<circle cx="132.703" cy="504.95" r="4" fill="#0" id="circle28"/>
	<circle cx="136.663" cy="63.4012" r="4" fill="#0" id="circle29"/>
	<circle cx="138.643" cy="293.086" r="4" fill="#0" id="circle30"/>
	<circle cx="142.603" cy="435.649" r="4" fill="#0" id="circle31"/>
	<circle cx="144.583" cy="150.523" r="4" fill="#0" id="circle32"/>
	<circle cx="146.563" cy="698.994" r="4" fill="#0" id="circle33"/>
	<circle cx="152.503" cy="77.2615" r="4" fill="#0" id="circle34"/>
	<circle cx="152.503" cy="231.705" r="4" fill="#0" id="circle35"/>
	<circle cx="154.483" cy="306.946" r="4" fill="#0" id="circle36"/>
	<circle cx="158.443" cy="419.808" r="4" fill="#0" id="circle37"/>
	<circle cx="160.423" cy="164.383" r="4" fill="#0" id="circle38"/>
	<circle cx="162.403" cy="326.747" r="4" fill="#0" id="circle39"/>
	<circle cx="164.383" cy="93.1018" r="4" fill="#0" id="circle40"/>
	<circle cx="166.363" cy="698.994" r="4" fill="#0" id="circle41"/>
	<circle cx="168.343" cy="400.008" r="4" fill="#0" id="circle42"/>
	<circle cx="172.303" cy="231.705" r="4" fill="#0" id="circle43"/>
	<circle cx="178.244" cy="174.283" r="4" fill="#0" id="circle44"/>
	<circle cx="180.224" cy="104.982" r="4" fill="#0" id="circle45"/>
	<circle cx="182.204" cy="332.687" r="4" fill="#0" id="circle46"/>
	<circle cx="182.204" cy="376.248" r="4" fill="#0" id="circle47"/>
	<circle cx="182.204" cy="710.874" r="4" fill="#0" id="circle48"/>
	<circle cx="192.104" cy="231.705" r="4" fill="#0" id="circle49"/>
	<circle cx="194.084" cy="120.822" r="4" fill="#0" id="circle50"/>
	<circle cx="196.064" cy="184.184" r="4" fill="#0" id="circle51"/>
	<circle cx="196.064" cy="726.715" r="4" fill="#0" id="circle52"/>
	<circle cx="198.044" cy="360.407" r="4" fill="#0" id="circle53"/>
	<circle cx="205.964" cy="744.535" r="4" fill="#0" id="circle54"/>
	<circle cx="209.924" cy="134.683" r="4" fill="#0" id="circle55"/>
	<circle cx="209.924" cy="221.804" r="4" fill="#0" id="circle56"/>
	<circle cx="211.904" cy="772.255" r="4" fill="#0" id="circle57"/>
	<circle cx="211.904" cy="792.056" r="4" fill="#0" id="circle58"/>
	<circle cx="211.904" cy="811.856" r="4" fill="#0" id="circle59"/>
	<circle cx="211.904" cy="831.657" r="4" fill="#0" id="circle60"/>
	<circle cx="211.904" cy="851.457" r="4" fill="#0" id="circle61"/>
	<circle cx="213.884" cy="194.084" r="4" fill="#0" id="circle62"/>
	<circle cx="221.804" cy="869.277" r="4" fill="#0" id="circle63"/>
	<circle cx="229.725" cy="142.603" r="4" fill="#0" id="circle64"/>
	<circle cx="231.705" cy="887.098" r="4" fill="#0" id="circle65"/>
	<circle cx="237.645" cy="906.898" r="4" fill="#0" id="circle66"/>
	<circle cx="241.605" cy="118.842" r="4" fill="#0" id="circle67"/>
	<circle cx="253.485" cy="920.758" r="4" fill="#0" id="circle68"/>
	<circle cx="257.445" cy="103.002" r="4" fill="#0" id="circle69"/>
	<circle cx="261.405" cy="940.559" r="4" fill="#0" id="circle70"/>
	<circle cx="271.305" cy="79.2415" r="4" fill="#0" id="circle71"/>
	<circle cx="281.206" cy="946.499" r="4" fill="#0" id="circle72"/>
	<circle cx="287.146" cy="63.4012" r="4" fill="#0" id="circle73"/>
	<circle cx="293.086" cy="962.339" r="4" fill="#0" id="circle74"/>
	<circle cx="304.966" cy="53.501" r="4" fill="#0" id="circle75"/>
	<circle cx="312.886" cy="970.259" r="4" fill="#0" id="circle76"/>
	<circle cx="322.786" cy="43.6008" r="4" fill="#0" id="circle77"/>
	<circle cx="330.707" cy="980.16" r="4" fill="#0" id="circle78"/>
	<circle cx="340.607" cy="29.7405" r="4" fill="#0" id="circle79"/>
	<circle cx="350.507" cy="976.2" r="4" fill="#0" id="circle80"/>
	<circle cx="360.407" cy="23.8004" r="4" fill="#0" id="circle81"/>
	<circle cx="368.327" cy="986.1" r="4" fill="#0" id="circle82"/>
	<circle cx="378.228" cy="13.9002" r="4" fill="#0" id="circle83"/>
	<circle cx="386.148" cy="996" r="4" fill="#0" id="circle84"/>
	<circle cx="396.048" cy="4" r="4" fill="#0" id="circle85"/>
	<circle cx="405.948" cy="994.02" r="4" fill="#0" id="circle86"/>
	<circle cx="415.848" cy="4" r="4" fill="#0" id="circle87"/>
	<circle cx="425.749" cy="994.02" r="4" fill="#0" id="circle88"/>
	<circle cx="435.649" cy="4" r="4" fill="#0" id="circle89"/>
	<circle cx="445.549" cy="986.1" r="4" fill="#0" id="circle90"/>
	<circle cx="455.449" cy="4" r="4" fill="#0" id="circle91"/>
	<circle cx="465.349" cy="986.1" r="4" fill="#0" id="circle92"/>
	<circle cx="475.25" cy="4" r="4" fill="#0" id="circle93"/>
	<circle cx="483.17" cy="976.2" r="4" fill="#0" id="circle94"/>
	<circle cx="495.05" cy="4" r="4" fill="#0" id="circle95"/>
	<circle cx="502.97" cy="976.2" r="4" fill="#0" id="circle96"/>
	<circle cx="512.87" cy="13.9002" r="4" fill="#0" id="circle97"/>
	<circle cx="520.79" cy="966.299" r="4" fill="#0" id="circle98"/>
	<circle cx="530.691" cy="23.8004" r="4" fill="#0" id="circle99"/>
	<circle cx="538.611" cy="956.399" r="4" fill="#0" id="circle100"/>
	<circle cx="550.491" cy="29.7405" r="4" fill="#0" id="circle101"/>
	<circle cx="554.451" cy="944.519" r="4" fill="#0" id="circle102"/>
	<circle cx="568.311" cy="39.6407" r="4" fill="#0" id="circle103"/>
	<circle cx="574.251" cy="934.619" r="4" fill="#0" id="circle104"/>
	<circle cx="584.152" cy="53.501" r="4" fill="#0" id="circle105"/>
	<circle cx="590.092" cy="916.798" r="4" fill="#0" id="circle106"/>
	<circle cx="601.972" cy="63.4012" r="4" fill="#0" id="circle107"/>
	<circle cx="605.932" cy="902.938" r="4" fill="#0" id="circle108"/>
	<circle cx="609.892" cy="83.2016" r="4" fill="#0" id="circle109"/>
	<circle cx="615.832" cy="883.138" r="4" fill="#0" id="circle110"/>
	<circle cx="625.733" cy="95.0818" r="4" fill="#0" id="circle111"/>
	<circle cx="629.693" cy="867.297" r="4" fill="#0" id="circle112"/>
	<circle cx="633.653" cy="114.882" r="4" fill="#0" id="circle113"/>
	<circle cx="639.593" cy="293.086" r="4" fill="#0" id="circle114"/>
	<circle cx="639.593" cy="837.597" r="4" fill="#0" id="circle115"/>
	<circle cx="643.553" cy="132.703" r="4" fill="#0" id="circle116"/>
	<circle cx="643.553" cy="312.886" r="4" fill="#0" id="circle117"/>
	<circle cx="649.493" cy="152.503" r="4" fill="#0" id="circle118"/>
	<circle cx="649.493" cy="172.303" r="4" fill="#0" id="circle119"/>
	<circle cx="649.493" cy="718.794" r="4" fill="#0" id="circle120"/>
	<circle cx="649.493" cy="748.495" r="4" fill="#0" id="circle121"/>
	<circle cx="649.493" cy="778.196" r="4" fill="#0" id="circle122"/>
	<circle cx="649.493" cy="797.996" r="4" fill="#0" id="circle123"/>
	<circle cx="649.493" cy="817.796" r="4" fill="#0" id="circle124"/>
	<circle cx="657.413" cy="283.186" r="4" fill="#0" id="circle125"/>
	<circle cx="659.393" cy="190.124" r="4" fill="#0" id="circle126"/>
	<circle cx="659.393" cy="209.924" r="4" fill="#0" id="circle127"/>
	<circle cx="659.393" cy="326.747" r="4" fill="#0" id="circle128"/>
	<circle cx="659.393" cy="698.994" r="4" fill="#0" id="circle129"/>
	<circle cx="669.293" cy="227.745" r="4" fill="#0" id="circle130"/>
	<circle cx="669.293" cy="679.194" r="4" fill="#0" id="circle131"/>
	<circle cx="673.253" cy="342.587" r="4" fill="#0" id="circle132"/>
	<circle cx="677.214" cy="283.186" r="4" fill="#0" id="circle133"/>
	<circle cx="679.194" cy="659.393" r="4" fill="#0" id="circle134"/>
	<circle cx="689.094" cy="231.705" r="4" fill="#0" id="circle135"/>
	<circle cx="689.094" cy="356.447" r="4" fill="#0" id="circle136"/>
	<circle cx="689.094" cy="629.693" r="4" fill="#0" id="circle137"/>
	<circle cx="697.014" cy="283.186" r="4" fill="#0" id="circle138"/>
	<circle cx="698.994" cy="374.267" r="4" fill="#0" id="circle139"/>
	<circle cx="698.994" cy="590.092" r="4" fill="#0" id="circle140"/>
	<circle cx="698.994" cy="609.892" r="4" fill="#0" id="circle141"/>
	<circle cx="708.894" cy="225.764" r="4" fill="#0" id="circle142"/>
	<circle cx="708.894" cy="392.088" r="4" fill="#0" id="circle143"/>
	<circle cx="708.894" cy="530.691" r="4" fill="#0" id="circle144"/>
	<circle cx="708.894" cy="550.491" r="4" fill="#0" id="circle145"/>
	<circle cx="708.894" cy="570.291" r="4" fill="#0" id="circle146"/>
	<circle cx="716.814" cy="283.186" r="4" fill="#0" id="circle147"/>
	<circle cx="718.794" cy="409.908" r="4" fill="#0" id="circle148"/>
	<circle cx="718.794" cy="461.389" r="4" fill="#0" id="circle149"/>
	<circle cx="718.794" cy="481.19" r="4" fill="#0" id="circle150"/>
	<circle cx="718.794" cy="500.99" r="4" fill="#0" id="circle151"/>
	<circle cx="728.695" cy="225.764" r="4" fill="#0" id="circle152"/>
	<circle cx="728.695" cy="427.729" r="4" fill="#0" id="circle153"/>
	<circle cx="736.615" cy="283.186" r="4" fill="#0" id="circle154"/>
	<circle cx="744.535" cy="211.904" r="4" fill="#0" id="circle155"/>
	<circle cx="754.435" cy="273.285" r="4" fill="#0" id="circle156"/>
	<circle cx="762.355" cy="202.004" r="4" fill="#0" id="circle157"/>
	<circle cx="772.255" cy="263.385" r="4" fill="#0" id="circle158"/>
	<circle cx="782.156" cy="192.104" r="4" fill="#0" id="circle159"/>
	<circle cx="790.076" cy="253.485" r="4" fill="#0" id="circle160"/>
	<circle cx="801.956" cy="182.204" r="4" fill="#0" id="circle161"/>
	<circle cx="807.896" cy="243.585" r="4" fill="#0" id="circle162"/>
	<circle cx="821.756" cy="182.204" r="4" fill="#0" id="circle163"/>
	<circle cx="825.717" cy="233.685" r="4" fill="#0" id="circle164"/>
	<circle cx="837.597" cy="213.884" r="4" fill="#0" id="circle165"/>
	<circle cx="841.557" cy="182.204" r="4" fill="#0" id="circle166"/>
	<circle cx="857.397" cy="203.984" r="4" fill="#0" id="circle167"/>
	</g>
</svg>