<?xml version="1.0" encoding="UTF-8" standalone="no"?>
<!-- Created with CurveBenchmark -->
<svg
	xmlns:dc="http://purl.org/dc/elements/1.1/"
	xmlns:cc="http://creativecommons.org/ns#"
	xmlns:rdf="http://www.w3.org/1999/02/22-rdf-syntax-ns#"
	xmlns:svg="http://www.w3.org/2000/svg"
	xmlns="http://www.w3.org/2000/svg"
	xmlns:sodipodi="http://sodipodi.sourceforge.net/DTD/sodipodi-0.dtd"
	xmlns:inkscape="http://www.inkscape.org/namespaces/inkscape"
	width="1000"
	height="1000"
	id="svg2"
	version="1.1"
	sodipodi:docname="manifold/ccrust-bird16.png.txt">
<defs
	id="defs4" />
<metadata
	id="metadata7">
	<rdf:RDF>
		<cc:Work
			rdf:about="">
			<dc:format>image/svg+xml</dc:format>
			<dc:type
				rdf:resource="http://purl.org/dc/dcmitype/StillImage" />
			<dc:title></dc:title>
		</cc:Work>
	</rdf:RDF>
</metadata>
<g
	inkscape:label="Layer 1"
	inkscape:groupmode="layer"
	id="layer1">
	<path style="fill:none;stroke:red;stroke-width:1px;stroke-linecap:butt;stroke-linejoin:miter;stroke-opacity:1" d="M 18.6691,95.6821 27.8373,77.3457 z" id="boundary" inkscape:connector-curvature="0" />
	<path style="fill:none;stroke:red;stroke-width:1px;stroke-linecap:butt;stroke-linejoin:miter;stroke-opacity:1" d="M 13.1682,126.854 4,110.351 z" id="boundary" inkscape:connector-curvature="0" />
	<path style="fill:none;stroke:red;stroke-width:1px;stroke-linecap:butt;stroke-linejoin:miter;stroke-opacity:1" d="M 4,110.351 18.6691,95.6821 z" id="boundary" inkscape:connector-curvature="0" />
	<path style="fill:none;stroke:red;stroke-width:1px;stroke-linecap:butt;stroke-linejoin:miter;stroke-opacity:1" d="M 49.841,125.02 31.5046,125.02 z" id="boundary" inkscape:connector-curvature="0" />
	<path style="fill:none;stroke:red;stroke-width:1px;stroke-linecap:butt;stroke-linejoin:miter;stroke-opacity:1" d="M 31.5046,125.02 13.1682,126.854 z" id="boundary" inkscape:connector-curvature="0" />
	<path style="fill:none;stroke:red;stroke-width:1px;stroke-linecap:butt;stroke-linejoin:miter;stroke-opacity:1" d="M 27.8373,77.3457 42.5065,62.6765 z" id="boundary" inkscape:connector-curvature="0" />
	<path style="fill:none;stroke:red;stroke-width:1px;stroke-linecap:butt;stroke-linejoin:miter;stroke-opacity:1" d="M 84.6802,22.3364 101.183,13.1682 z" id="boundary" inkscape:connector-curvature="0" />
	<path style="fill:none;stroke:red;stroke-width:1px;stroke-linecap:butt;stroke-linejoin:miter;stroke-opacity:1" d="M 70.0111,35.1719 84.6802,22.3364 z" id="boundary" inkscape:connector-curvature="0" />
	<path style="fill:none;stroke:red;stroke-width:1px;stroke-linecap:butt;stroke-linejoin:miter;stroke-opacity:1" d="M 70.0111,35.1719 57.1756,49.841 z" id="boundary" inkscape:connector-curvature="0" />
	<path style="fill:none;stroke:red;stroke-width:1px;stroke-linecap:butt;stroke-linejoin:miter;stroke-opacity:1" d="M 57.1756,49.841 42.5065,62.6765 z" id="boundary" inkscape:connector-curvature="0" />
	<path style="fill:none;stroke:red;stroke-width:1px;stroke-linecap:butt;stroke-linejoin:miter;stroke-opacity:1" d="M 104.85,183.697 104.85,211.201 z" id="boundary" inkscape:connector-curvature="0" />
	<path style="fill:none;stroke:red;stroke-width:1px;stroke-linecap:butt;stroke-linejoin:miter;stroke-opacity:1" d="M 68.1774,125.02 49.841,125.02 z" id="boundary" inkscape:connector-curvature="0" />
	<path style="fill:none;stroke:red;stroke-width:1px;stroke-linecap:butt;stroke-linejoin:miter;stroke-opacity:1" d="M 104.85,211.201 95.6821,238.706 z" id="boundary" inkscape:connector-curvature="0" />
	<path style="fill:none;stroke:red;stroke-width:1px;stroke-linecap:butt;stroke-linejoin:miter;stroke-opacity:1" d="M 68.1774,125.02 86.5139,125.02 z" id="boundary" inkscape:connector-curvature="0" />
	<path style="fill:none;stroke:red;stroke-width:1px;stroke-linecap:butt;stroke-linejoin:miter;stroke-opacity:1" d="M 104.85,156.192 104.85,183.697 z" id="boundary" inkscape:connector-curvature="0" />
	<path style="fill:none;stroke:red;stroke-width:1px;stroke-linecap:butt;stroke-linejoin:miter;stroke-opacity:1" d="M 104.85,156.192 103.017,134.189 z" id="boundary" inkscape:connector-curvature="0" />
	<path style="fill:none;stroke:red;stroke-width:1px;stroke-linecap:butt;stroke-linejoin:miter;stroke-opacity:1" d="M 95.6821,257.043 95.6821,238.706 z" id="boundary" inkscape:connector-curvature="0" />
	<path style="fill:none;stroke:red;stroke-width:1px;stroke-linecap:butt;stroke-linejoin:miter;stroke-opacity:1" d="M 86.5139,125.02 103.017,134.189 z" id="boundary" inkscape:connector-curvature="0" />
	<path style="fill:none;stroke:red;stroke-width:1px;stroke-linecap:butt;stroke-linejoin:miter;stroke-opacity:1" d="M 95.6821,257.043 86.5139,284.547 z" id="boundary" inkscape:connector-curvature="0" />
	<path style="fill:none;stroke:red;stroke-width:1px;stroke-linecap:butt;stroke-linejoin:miter;stroke-opacity:1" d="M 101.183,13.1682 119.519,4 z" id="boundary" inkscape:connector-curvature="0" />
	<path style="fill:none;stroke:red;stroke-width:1px;stroke-linecap:butt;stroke-linejoin:miter;stroke-opacity:1" d="M 119.519,4 137.856,4 z" id="boundary" inkscape:connector-curvature="0" />
	<path style="fill:none;stroke:red;stroke-width:1px;stroke-linecap:butt;stroke-linejoin:miter;stroke-opacity:1" d="M 137.856,4 156.192,4 z" id="boundary" inkscape:connector-curvature="0" />
	<path style="fill:none;stroke:red;stroke-width:1px;stroke-linecap:butt;stroke-linejoin:miter;stroke-opacity:1" d="M 156.192,4 172.695,13.1682 z" id="boundary" inkscape:connector-curvature="0" />
	<path style="fill:none;stroke:red;stroke-width:1px;stroke-linecap:butt;stroke-linejoin:miter;stroke-opacity:1" d="M 172.695,13.1682 191.031,13.1682 z" id="boundary" inkscape:connector-curvature="0" />
	<path style="fill:none;stroke:red;stroke-width:1px;stroke-linecap:butt;stroke-linejoin:miter;stroke-opacity:1" d="M 191.031,13.1682 207.534,22.3364 z" id="boundary" inkscape:connector-curvature="0" />
	<path style="fill:none;stroke:red;stroke-width:1px;stroke-linecap:butt;stroke-linejoin:miter;stroke-opacity:1" d="M 235.039,46.1738 224.037,31.5046 z" id="boundary" inkscape:connector-curvature="0" />
	<path style="fill:none;stroke:red;stroke-width:1px;stroke-linecap:butt;stroke-linejoin:miter;stroke-opacity:1" d="M 251.542,55.342 235.039,46.1738 z" id="boundary" inkscape:connector-curvature="0" />
	<path style="fill:none;stroke:red;stroke-width:1px;stroke-linecap:butt;stroke-linejoin:miter;stroke-opacity:1" d="M 266.211,88.3475 253.375,73.6784 z" id="boundary" inkscape:connector-curvature="0" />
	<path style="fill:none;stroke:red;stroke-width:1px;stroke-linecap:butt;stroke-linejoin:miter;stroke-opacity:1" d="M 253.375,73.6784 251.542,55.342 z" id="boundary" inkscape:connector-curvature="0" />
	<path style="fill:none;stroke:red;stroke-width:1px;stroke-linecap:butt;stroke-linejoin:miter;stroke-opacity:1" d="M 207.534,22.3364 224.037,31.5046 z" id="boundary" inkscape:connector-curvature="0" />
	<path style="fill:none;stroke:red;stroke-width:1px;stroke-linecap:butt;stroke-linejoin:miter;stroke-opacity:1" d="M 262.543,125.02 271.712,106.684 z" id="boundary" inkscape:connector-curvature="0" />
	<path style="fill:none;stroke:red;stroke-width:1px;stroke-linecap:butt;stroke-linejoin:miter;stroke-opacity:1" d="M 271.712,141.523 262.543,125.02 z" id="boundary" inkscape:connector-curvature="0" />
	<path style="fill:none;stroke:red;stroke-width:1px;stroke-linecap:butt;stroke-linejoin:miter;stroke-opacity:1" d="M 266.211,88.3475 271.712,106.684 z" id="boundary" inkscape:connector-curvature="0" />
	<path style="fill:none;stroke:red;stroke-width:1px;stroke-linecap:butt;stroke-linejoin:miter;stroke-opacity:1" d="M 271.712,141.523 271.712,159.86 z" id="boundary" inkscape:connector-curvature="0" />
	<path style="fill:none;stroke:red;stroke-width:1px;stroke-linecap:butt;stroke-linejoin:miter;stroke-opacity:1" d="M 271.712,178.196 271.712,159.86 z" id="boundary" inkscape:connector-curvature="0" />
	<path style="fill:none;stroke:red;stroke-width:1px;stroke-linecap:butt;stroke-linejoin:miter;stroke-opacity:1" d="M 280.88,194.699 271.712,178.196 z" id="boundary" inkscape:connector-curvature="0" />
	<path style="fill:none;stroke:red;stroke-width:1px;stroke-linecap:butt;stroke-linejoin:miter;stroke-opacity:1" d="M 280.88,194.699 290.048,211.201 z" id="boundary" inkscape:connector-curvature="0" />
	<path style="fill:none;stroke:red;stroke-width:1px;stroke-linecap:butt;stroke-linejoin:miter;stroke-opacity:1" d="M 290.048,211.201 290.048,229.538 z" id="boundary" inkscape:connector-curvature="0" />
	<path style="fill:none;stroke:red;stroke-width:1px;stroke-linecap:butt;stroke-linejoin:miter;stroke-opacity:1" d="M 290.048,229.538 302.884,244.207 z" id="boundary" inkscape:connector-curvature="0" />
	<path style="fill:none;stroke:red;stroke-width:1px;stroke-linecap:butt;stroke-linejoin:miter;stroke-opacity:1" d="M 302.884,244.207 312.052,260.71 z" id="boundary" inkscape:connector-curvature="0" />
	<path style="fill:none;stroke:red;stroke-width:1px;stroke-linecap:butt;stroke-linejoin:miter;stroke-opacity:1" d="M 324.887,275.379 312.052,260.71 z" id="boundary" inkscape:connector-curvature="0" />
	<path style="fill:none;stroke:red;stroke-width:1px;stroke-linecap:butt;stroke-linejoin:miter;stroke-opacity:1" d="M 77.3457,339.556 77.3457,357.893 z" id="boundary" inkscape:connector-curvature="0" />
	<path style="fill:none;stroke:red;stroke-width:1px;stroke-linecap:butt;stroke-linejoin:miter;stroke-opacity:1" d="M 77.3457,339.556 86.5139,321.22 z" id="boundary" inkscape:connector-curvature="0" />
	<path style="fill:none;stroke:red;stroke-width:1px;stroke-linecap:butt;stroke-linejoin:miter;stroke-opacity:1" d="M 77.3457,376.229 77.3457,403.734 z" id="boundary" inkscape:connector-curvature="0" />
	<path style="fill:none;stroke:red;stroke-width:1px;stroke-linecap:butt;stroke-linejoin:miter;stroke-opacity:1" d="M 95.6821,473.412 86.5139,456.909 z" id="boundary" inkscape:connector-curvature="0" />
	<path style="fill:none;stroke:red;stroke-width:1px;stroke-linecap:butt;stroke-linejoin:miter;stroke-opacity:1" d="M 77.3457,422.07 77.3457,403.734 z" id="boundary" inkscape:connector-curvature="0" />
	<path style="fill:none;stroke:red;stroke-width:1px;stroke-linecap:butt;stroke-linejoin:miter;stroke-opacity:1" d="M 77.3457,376.229 77.3457,357.893 z" id="boundary" inkscape:connector-curvature="0" />
	<path style="fill:none;stroke:red;stroke-width:1px;stroke-linecap:butt;stroke-linejoin:miter;stroke-opacity:1" d="M 86.5139,302.884 86.5139,321.22 z" id="boundary" inkscape:connector-curvature="0" />
	<path style="fill:none;stroke:red;stroke-width:1px;stroke-linecap:butt;stroke-linejoin:miter;stroke-opacity:1" d="M 86.5139,456.909 77.3457,440.407 z" id="boundary" inkscape:connector-curvature="0" />
	<path style="fill:none;stroke:red;stroke-width:1px;stroke-linecap:butt;stroke-linejoin:miter;stroke-opacity:1" d="M 77.3457,440.407 77.3457,422.07 z" id="boundary" inkscape:connector-curvature="0" />
	<path style="fill:none;stroke:red;stroke-width:1px;stroke-linecap:butt;stroke-linejoin:miter;stroke-opacity:1" d="M 86.5139,284.547 86.5139,302.884 z" id="boundary" inkscape:connector-curvature="0" />
	<path style="fill:none;stroke:red;stroke-width:1px;stroke-linecap:butt;stroke-linejoin:miter;stroke-opacity:1" d="M 95.6821,473.412 95.6821,491.749 z" id="boundary" inkscape:connector-curvature="0" />
	<path style="fill:none;stroke:red;stroke-width:1px;stroke-linecap:butt;stroke-linejoin:miter;stroke-opacity:1" d="M 106.684,506.418 95.6821,491.749 z" id="boundary" inkscape:connector-curvature="0" />
	<path style="fill:none;stroke:red;stroke-width:1px;stroke-linecap:butt;stroke-linejoin:miter;stroke-opacity:1" d="M 128.688,537.59 115.852,522.921 z" id="boundary" inkscape:connector-curvature="0" />
	<path style="fill:none;stroke:red;stroke-width:1px;stroke-linecap:butt;stroke-linejoin:miter;stroke-opacity:1" d="M 115.852,522.921 106.684,506.418 z" id="boundary" inkscape:connector-curvature="0" />
	<path style="fill:none;stroke:red;stroke-width:1px;stroke-linecap:butt;stroke-linejoin:miter;stroke-opacity:1" d="M 128.688,537.59 137.856,554.092 z" id="boundary" inkscape:connector-curvature="0" />
	<path style="fill:none;stroke:red;stroke-width:1px;stroke-linecap:butt;stroke-linejoin:miter;stroke-opacity:1" d="M 137.856,554.092 150.691,568.762 z" id="boundary" inkscape:connector-curvature="0" />
	<path style="fill:none;stroke:red;stroke-width:1px;stroke-linecap:butt;stroke-linejoin:miter;stroke-opacity:1" d="M 169.028,574.262 150.691,568.762 z" id="boundary" inkscape:connector-curvature="0" />
	<path style="fill:none;stroke:red;stroke-width:1px;stroke-linecap:butt;stroke-linejoin:miter;stroke-opacity:1" d="M 198.366,596.266 180.03,588.932 z" id="boundary" inkscape:connector-curvature="0" />
	<path style="fill:none;stroke:red;stroke-width:1px;stroke-linecap:butt;stroke-linejoin:miter;stroke-opacity:1" d="M 180.03,588.932 169.028,574.262 z" id="boundary" inkscape:connector-curvature="0" />
	<path style="fill:none;stroke:red;stroke-width:1px;stroke-linecap:butt;stroke-linejoin:miter;stroke-opacity:1" d="M 214.869,605.434 233.205,610.935 z" id="boundary" inkscape:connector-curvature="0" />
	<path style="fill:none;stroke:red;stroke-width:1px;stroke-linecap:butt;stroke-linejoin:miter;stroke-opacity:1" d="M 214.869,605.434 198.366,596.266 z" id="boundary" inkscape:connector-curvature="0" />
	<path style="fill:none;stroke:red;stroke-width:1px;stroke-linecap:butt;stroke-linejoin:miter;stroke-opacity:1" d="M 302.884,636.606 284.547,636.606 z" id="boundary" inkscape:connector-curvature="0" />
	<path style="fill:none;stroke:red;stroke-width:1px;stroke-linecap:butt;stroke-linejoin:miter;stroke-opacity:1" d="M 284.547,636.606 266.211,629.272 z" id="boundary" inkscape:connector-curvature="0" />
	<path style="fill:none;stroke:red;stroke-width:1px;stroke-linecap:butt;stroke-linejoin:miter;stroke-opacity:1" d="M 266.211,629.272 249.708,620.104 z" id="boundary" inkscape:connector-curvature="0" />
	<path style="fill:none;stroke:red;stroke-width:1px;stroke-linecap:butt;stroke-linejoin:miter;stroke-opacity:1" d="M 233.205,610.935 249.708,620.104 z" id="boundary" inkscape:connector-curvature="0" />
	<path style="fill:none;stroke:red;stroke-width:1px;stroke-linecap:butt;stroke-linejoin:miter;stroke-opacity:1" d="M 350.558,301.05 335.889,290.048 z" id="boundary" inkscape:connector-curvature="0" />
	<path style="fill:none;stroke:red;stroke-width:1px;stroke-linecap:butt;stroke-linejoin:miter;stroke-opacity:1" d="M 335.889,290.048 324.887,275.379 z" id="boundary" inkscape:connector-curvature="0" />
	<path style="fill:none;stroke:red;stroke-width:1px;stroke-linecap:butt;stroke-linejoin:miter;stroke-opacity:1" d="M 310.218,654.943 312.052,673.279 z" id="boundary" inkscape:connector-curvature="0" />
	<path style="fill:none;stroke:red;stroke-width:1px;stroke-linecap:butt;stroke-linejoin:miter;stroke-opacity:1" d="M 310.218,654.943 302.884,636.606 z" id="boundary" inkscape:connector-curvature="0" />
	<path style="fill:none;stroke:red;stroke-width:1px;stroke-linecap:butt;stroke-linejoin:miter;stroke-opacity:1" d="M 352.392,730.122 334.055,730.122 z" id="boundary" inkscape:connector-curvature="0" />
	<path style="fill:none;stroke:red;stroke-width:1px;stroke-linecap:butt;stroke-linejoin:miter;stroke-opacity:1" d="M 312.052,673.279 302.884,691.616 z" id="boundary" inkscape:connector-curvature="0" />
	<path style="fill:none;stroke:red;stroke-width:1px;stroke-linecap:butt;stroke-linejoin:miter;stroke-opacity:1" d="M 251.542,724.621 269.878,715.453 z" id="boundary" inkscape:connector-curvature="0" />
	<path style="fill:none;stroke:red;stroke-width:1px;stroke-linecap:butt;stroke-linejoin:miter;stroke-opacity:1" d="M 260.71,748.458 242.373,742.957 z" id="boundary" inkscape:connector-curvature="0" />
	<path style="fill:none;stroke:red;stroke-width:1px;stroke-linecap:butt;stroke-linejoin:miter;stroke-opacity:1" d="M 242.373,742.957 251.542,724.621 z" id="boundary" inkscape:connector-curvature="0" />
	<path style="fill:none;stroke:red;stroke-width:1px;stroke-linecap:butt;stroke-linejoin:miter;stroke-opacity:1" d="M 279.046,742.957 260.71,748.458 z" id="boundary" inkscape:connector-curvature="0" />
	<path style="fill:none;stroke:red;stroke-width:1px;stroke-linecap:butt;stroke-linejoin:miter;stroke-opacity:1" d="M 297.383,733.789 279.046,742.957 z" id="boundary" inkscape:connector-curvature="0" />
	<path style="fill:none;stroke:red;stroke-width:1px;stroke-linecap:butt;stroke-linejoin:miter;stroke-opacity:1" d="M 284.547,700.784 302.884,691.616 z" id="boundary" inkscape:connector-curvature="0" />
	<path style="fill:none;stroke:red;stroke-width:1px;stroke-linecap:butt;stroke-linejoin:miter;stroke-opacity:1" d="M 315.719,730.122 334.055,730.122 z" id="boundary" inkscape:connector-curvature="0" />
	<path style="fill:none;stroke:red;stroke-width:1px;stroke-linecap:butt;stroke-linejoin:miter;stroke-opacity:1" d="M 315.719,730.122 297.383,733.789 z" id="boundary" inkscape:connector-curvature="0" />
	<path style="fill:none;stroke:red;stroke-width:1px;stroke-linecap:butt;stroke-linejoin:miter;stroke-opacity:1" d="M 269.878,715.453 284.547,700.784 z" id="boundary" inkscape:connector-curvature="0" />
	<path style="fill:none;stroke:red;stroke-width:1px;stroke-linecap:butt;stroke-linejoin:miter;stroke-opacity:1" d="M 350.558,301.05 368.895,308.384 z" id="boundary" inkscape:connector-curvature="0" />
	<path style="fill:none;stroke:red;stroke-width:1px;stroke-linecap:butt;stroke-linejoin:miter;stroke-opacity:1" d="M 368.895,308.384 385.397,317.553 z" id="boundary" inkscape:connector-curvature="0" />
	<path style="fill:none;stroke:red;stroke-width:1px;stroke-linecap:butt;stroke-linejoin:miter;stroke-opacity:1" d="M 385.397,317.553 403.734,324.887 z" id="boundary" inkscape:connector-curvature="0" />
	<path style="fill:none;stroke:red;stroke-width:1px;stroke-linecap:butt;stroke-linejoin:miter;stroke-opacity:1" d="M 403.734,324.887 420.237,334.055 z" id="boundary" inkscape:connector-curvature="0" />
	<path style="fill:none;stroke:red;stroke-width:1px;stroke-linecap:butt;stroke-linejoin:miter;stroke-opacity:1" d="M 420.237,334.055 436.739,343.224 z" id="boundary" inkscape:connector-curvature="0" />
	<path style="fill:none;stroke:red;stroke-width:1px;stroke-linecap:butt;stroke-linejoin:miter;stroke-opacity:1" d="M 436.739,343.224 453.242,352.392 z" id="boundary" inkscape:connector-curvature="0" />
	<path style="fill:none;stroke:red;stroke-width:1px;stroke-linecap:butt;stroke-linejoin:miter;stroke-opacity:1" d="M 469.745,361.56 488.081,363.394 z" id="boundary" inkscape:connector-curvature="0" />
	<path style="fill:none;stroke:red;stroke-width:1px;stroke-linecap:butt;stroke-linejoin:miter;stroke-opacity:1" d="M 488.081,363.394 500.917,378.063 z" id="boundary" inkscape:connector-curvature="0" />
	<path style="fill:none;stroke:red;stroke-width:1px;stroke-linecap:butt;stroke-linejoin:miter;stroke-opacity:1" d="M 469.745,361.56 453.242,352.392 z" id="boundary" inkscape:connector-curvature="0" />
	<path style="fill:none;stroke:red;stroke-width:1px;stroke-linecap:butt;stroke-linejoin:miter;stroke-opacity:1" d="M 519.253,379.896 500.917,378.063 z" id="boundary" inkscape:connector-curvature="0" />
	<path style="fill:none;stroke:red;stroke-width:1px;stroke-linecap:butt;stroke-linejoin:miter;stroke-opacity:1" d="M 519.253,379.896 535.756,389.065 z" id="boundary" inkscape:connector-curvature="0" />
	<path style="fill:none;stroke:red;stroke-width:1px;stroke-linecap:butt;stroke-linejoin:miter;stroke-opacity:1" d="M 554.092,392.732 535.756,389.065 z" id="boundary" inkscape:connector-curvature="0" />
	<path style="fill:none;stroke:red;stroke-width:1px;stroke-linecap:butt;stroke-linejoin:miter;stroke-opacity:1" d="M 588.932,407.401 570.595,401.9 z" id="boundary" inkscape:connector-curvature="0" />
	<path style="fill:none;stroke:red;stroke-width:1px;stroke-linecap:butt;stroke-linejoin:miter;stroke-opacity:1" d="M 570.595,401.9 554.092,392.732 z" id="boundary" inkscape:connector-curvature="0" />
	<path style="fill:none;stroke:red;stroke-width:1px;stroke-linecap:butt;stroke-linejoin:miter;stroke-opacity:1" d="M 588.932,407.401 605.434,416.569 z" id="boundary" inkscape:connector-curvature="0" />
	<path style="fill:none;stroke:red;stroke-width:1px;stroke-linecap:butt;stroke-linejoin:miter;stroke-opacity:1" d="M 621.937,425.738 605.434,416.569 z" id="boundary" inkscape:connector-curvature="0" />
	<path style="fill:none;stroke:red;stroke-width:1px;stroke-linecap:butt;stroke-linejoin:miter;stroke-opacity:1" d="M 673.279,444.074 654.943,444.074 z" id="boundary" inkscape:connector-curvature="0" />
	<path style="fill:none;stroke:red;stroke-width:1px;stroke-linecap:butt;stroke-linejoin:miter;stroke-opacity:1" d="M 654.943,444.074 638.44,434.906 z" id="boundary" inkscape:connector-curvature="0" />
	<path style="fill:none;stroke:red;stroke-width:1px;stroke-linecap:butt;stroke-linejoin:miter;stroke-opacity:1" d="M 638.44,434.906 621.937,425.738 z" id="boundary" inkscape:connector-curvature="0" />
	<path style="fill:none;stroke:red;stroke-width:1px;stroke-linecap:butt;stroke-linejoin:miter;stroke-opacity:1" d="M 673.279,444.074 689.782,453.242 z" id="boundary" inkscape:connector-curvature="0" />
	<path style="fill:none;stroke:red;stroke-width:1px;stroke-linecap:butt;stroke-linejoin:miter;stroke-opacity:1" d="M 689.782,453.242 708.118,453.242 z" id="boundary" inkscape:connector-curvature="0" />
	<path style="fill:none;stroke:red;stroke-width:1px;stroke-linecap:butt;stroke-linejoin:miter;stroke-opacity:1" d="M 708.118,453.242 724.621,462.41 z" id="boundary" inkscape:connector-curvature="0" />
	<path style="fill:none;stroke:red;stroke-width:1px;stroke-linecap:butt;stroke-linejoin:miter;stroke-opacity:1" d="M 724.621,462.41 742.957,462.41 z" id="boundary" inkscape:connector-curvature="0" />
	<path style="fill:none;stroke:red;stroke-width:1px;stroke-linecap:butt;stroke-linejoin:miter;stroke-opacity:1" d="M 761.294,462.41 742.957,462.41 z" id="boundary" inkscape:connector-curvature="0" />
	<path style="fill:none;stroke:red;stroke-width:1px;stroke-linecap:butt;stroke-linejoin:miter;stroke-opacity:1" d="M 761.294,462.41 777.797,471.579 z" id="boundary" inkscape:connector-curvature="0" />
	<path style="fill:none;stroke:red;stroke-width:1px;stroke-linecap:butt;stroke-linejoin:miter;stroke-opacity:1" d="M 777.797,471.579 796.133,471.579 z" id="boundary" inkscape:connector-curvature="0" />
	<path style="fill:none;stroke:red;stroke-width:1px;stroke-linecap:butt;stroke-linejoin:miter;stroke-opacity:1" d="M 796.133,471.579 812.636,480.747 z" id="boundary" inkscape:connector-curvature="0" />
	<path style="fill:none;stroke:red;stroke-width:1px;stroke-linecap:butt;stroke-linejoin:miter;stroke-opacity:1" d="M 812.636,480.747 830.972,477.079 z" id="boundary" inkscape:connector-curvature="0" />
	<path style="fill:none;stroke:red;stroke-width:1px;stroke-linecap:butt;stroke-linejoin:miter;stroke-opacity:1" d="M 830.972,477.079 849.309,480.747 z" id="boundary" inkscape:connector-curvature="0" />
	<path style="fill:none;stroke:red;stroke-width:1px;stroke-linecap:butt;stroke-linejoin:miter;stroke-opacity:1" d="M 849.309,480.747 865.811,489.915 z" id="boundary" inkscape:connector-curvature="0" />
	<path style="fill:none;stroke:red;stroke-width:1px;stroke-linecap:butt;stroke-linejoin:miter;stroke-opacity:1" d="M 865.811,489.915 884.148,489.915 z" id="boundary" inkscape:connector-curvature="0" />
	<path style="fill:none;stroke:red;stroke-width:1px;stroke-linecap:butt;stroke-linejoin:miter;stroke-opacity:1" d="M 884.148,489.915 898.817,500.917 z" id="boundary" inkscape:connector-curvature="0" />
	<path style="fill:none;stroke:red;stroke-width:1px;stroke-linecap:butt;stroke-linejoin:miter;stroke-opacity:1" d="M 898.817,500.917 913.486,513.752 z" id="boundary" inkscape:connector-curvature="0" />
	<path style="fill:none;stroke:red;stroke-width:1px;stroke-linecap:butt;stroke-linejoin:miter;stroke-opacity:1" d="M 926.322,528.421 913.486,513.752 z" id="boundary" inkscape:connector-curvature="0" />
	<path style="fill:none;stroke:red;stroke-width:1px;stroke-linecap:butt;stroke-linejoin:miter;stroke-opacity:1" d="M 935.49,544.924 951.993,554.092 z" id="boundary" inkscape:connector-curvature="0" />
	<path style="fill:none;stroke:red;stroke-width:1px;stroke-linecap:butt;stroke-linejoin:miter;stroke-opacity:1" d="M 935.49,544.924 926.322,528.421 z" id="boundary" inkscape:connector-curvature="0" />
	<path style="fill:none;stroke:red;stroke-width:1px;stroke-linecap:butt;stroke-linejoin:miter;stroke-opacity:1" d="M 968.495,563.261 984.998,572.429 z" id="boundary" inkscape:connector-curvature="0" />
	<path style="fill:none;stroke:red;stroke-width:1px;stroke-linecap:butt;stroke-linejoin:miter;stroke-opacity:1" d="M 951.993,554.092 968.495,563.261 z" id="boundary" inkscape:connector-curvature="0" />
	<path style="fill:none;stroke:red;stroke-width:1px;stroke-linecap:butt;stroke-linejoin:miter;stroke-opacity:1" d="M 984.998,572.429 996,587.098 z" id="boundary" inkscape:connector-curvature="0" />
	<path style="fill:none;stroke:red;stroke-width:1px;stroke-linecap:butt;stroke-linejoin:miter;stroke-opacity:1" d="M 996,587.098 996,605.434 z" id="boundary" inkscape:connector-curvature="0" />
	<path style="fill:none;stroke:red;stroke-width:1px;stroke-linecap:butt;stroke-linejoin:miter;stroke-opacity:1" d="M 533.922,675.113 552.259,675.113 z" id="boundary" inkscape:connector-curvature="0" />
	<path style="fill:none;stroke:red;stroke-width:1px;stroke-linecap:butt;stroke-linejoin:miter;stroke-opacity:1" d="M 517.42,684.281 533.922,675.113 z" id="boundary" inkscape:connector-curvature="0" />
	<path style="fill:none;stroke:red;stroke-width:1px;stroke-linecap:butt;stroke-linejoin:miter;stroke-opacity:1" d="M 480.747,693.449 499.083,687.948 z" id="boundary" inkscape:connector-curvature="0" />
	<path style="fill:none;stroke:red;stroke-width:1px;stroke-linecap:butt;stroke-linejoin:miter;stroke-opacity:1" d="M 517.42,684.281 499.083,687.948 z" id="boundary" inkscape:connector-curvature="0" />
	<path style="fill:none;stroke:red;stroke-width:1px;stroke-linecap:butt;stroke-linejoin:miter;stroke-opacity:1" d="M 643.941,634.773 625.604,643.941 z" id="boundary" inkscape:connector-curvature="0" />
	<path style="fill:none;stroke:red;stroke-width:1px;stroke-linecap:butt;stroke-linejoin:miter;stroke-opacity:1" d="M 607.268,653.109 625.604,643.941 z" id="boundary" inkscape:connector-curvature="0" />
	<path style="fill:none;stroke:red;stroke-width:1px;stroke-linecap:butt;stroke-linejoin:miter;stroke-opacity:1" d="M 588.932,662.277 570.595,671.445 z" id="boundary" inkscape:connector-curvature="0" />
	<path style="fill:none;stroke:red;stroke-width:1px;stroke-linecap:butt;stroke-linejoin:miter;stroke-opacity:1" d="M 570.595,671.445 552.259,675.113 z" id="boundary" inkscape:connector-curvature="0" />
	<path style="fill:none;stroke:red;stroke-width:1px;stroke-linecap:butt;stroke-linejoin:miter;stroke-opacity:1" d="M 588.932,662.277 607.268,653.109 z" id="boundary" inkscape:connector-curvature="0" />
	<path style="fill:none;stroke:red;stroke-width:1px;stroke-linecap:butt;stroke-linejoin:miter;stroke-opacity:1" d="M 352.392,730.122 370.728,730.122 z" id="boundary" inkscape:connector-curvature="0" />
	<path style="fill:none;stroke:red;stroke-width:1px;stroke-linecap:butt;stroke-linejoin:miter;stroke-opacity:1" d="M 389.065,730.122 405.567,739.29 z" id="boundary" inkscape:connector-curvature="0" />
	<path style="fill:none;stroke:red;stroke-width:1px;stroke-linecap:butt;stroke-linejoin:miter;stroke-opacity:1" d="M 370.728,730.122 389.065,730.122 z" id="boundary" inkscape:connector-curvature="0" />
	<path style="fill:none;stroke:red;stroke-width:1px;stroke-linecap:butt;stroke-linejoin:miter;stroke-opacity:1" d="M 422.07,748.458 405.567,739.29 z" id="boundary" inkscape:connector-curvature="0" />
	<path style="fill:none;stroke:red;stroke-width:1px;stroke-linecap:butt;stroke-linejoin:miter;stroke-opacity:1" d="M 445.908,702.617 464.244,702.617 z" id="boundary" inkscape:connector-curvature="0" />
	<path style="fill:none;stroke:red;stroke-width:1px;stroke-linecap:butt;stroke-linejoin:miter;stroke-opacity:1" d="M 480.747,693.449 464.244,702.617 z" id="boundary" inkscape:connector-curvature="0" />
	<path style="fill:none;stroke:red;stroke-width:1px;stroke-linecap:butt;stroke-linejoin:miter;stroke-opacity:1" d="M 431.238,730.122 427.571,711.786 z" id="boundary" inkscape:connector-curvature="0" />
	<path style="fill:none;stroke:red;stroke-width:1px;stroke-linecap:butt;stroke-linejoin:miter;stroke-opacity:1" d="M 427.571,711.786 445.908,702.617 z" id="boundary" inkscape:connector-curvature="0" />
	<path style="fill:none;stroke:red;stroke-width:1px;stroke-linecap:butt;stroke-linejoin:miter;stroke-opacity:1" d="M 440.407,746.625 422.07,748.458 z" id="boundary" inkscape:connector-curvature="0" />
	<path style="fill:none;stroke:red;stroke-width:1px;stroke-linecap:butt;stroke-linejoin:miter;stroke-opacity:1" d="M 643.941,634.773 662.277,634.773 z" id="boundary" inkscape:connector-curvature="0" />
	<path style="fill:none;stroke:red;stroke-width:1px;stroke-linecap:butt;stroke-linejoin:miter;stroke-opacity:1" d="M 730.122,610.935 748.458,610.935 z" id="boundary" inkscape:connector-curvature="0" />
	<path style="fill:none;stroke:red;stroke-width:1px;stroke-linecap:butt;stroke-linejoin:miter;stroke-opacity:1" d="M 711.786,620.104 730.122,610.935 z" id="boundary" inkscape:connector-curvature="0" />
	<path style="fill:none;stroke:red;stroke-width:1px;stroke-linecap:butt;stroke-linejoin:miter;stroke-opacity:1" d="M 675.113,620.104 693.449,620.104 z" id="boundary" inkscape:connector-curvature="0" />
	<path style="fill:none;stroke:red;stroke-width:1px;stroke-linecap:butt;stroke-linejoin:miter;stroke-opacity:1" d="M 662.277,634.773 675.113,620.104 z" id="boundary" inkscape:connector-curvature="0" />
	<path style="fill:none;stroke:red;stroke-width:1px;stroke-linecap:butt;stroke-linejoin:miter;stroke-opacity:1" d="M 711.786,620.104 693.449,620.104 z" id="boundary" inkscape:connector-curvature="0" />
	<path style="fill:none;stroke:red;stroke-width:1px;stroke-linecap:butt;stroke-linejoin:miter;stroke-opacity:1" d="M 748.458,610.935 766.795,610.935 z" id="boundary" inkscape:connector-curvature="0" />
	<path style="fill:none;stroke:red;stroke-width:1px;stroke-linecap:butt;stroke-linejoin:miter;stroke-opacity:1" d="M 785.131,610.935 766.795,610.935 z" id="boundary" inkscape:connector-curvature="0" />
	<path style="fill:none;stroke:red;stroke-width:1px;stroke-linecap:butt;stroke-linejoin:miter;stroke-opacity:1" d="M 785.131,610.935 803.468,610.935 z" id="boundary" inkscape:connector-curvature="0" />
	<path style="fill:none;stroke:red;stroke-width:1px;stroke-linecap:butt;stroke-linejoin:miter;stroke-opacity:1" d="M 803.468,610.935 821.804,614.603 z" id="boundary" inkscape:connector-curvature="0" />
	<path style="fill:none;stroke:red;stroke-width:1px;stroke-linecap:butt;stroke-linejoin:miter;stroke-opacity:1" d="M 840.14,620.104 821.804,614.603 z" id="boundary" inkscape:connector-curvature="0" />
	<path style="fill:none;stroke:red;stroke-width:1px;stroke-linecap:butt;stroke-linejoin:miter;stroke-opacity:1" d="M 856.643,629.272 840.14,620.104 z" id="boundary" inkscape:connector-curvature="0" />
	<path style="fill:none;stroke:red;stroke-width:1px;stroke-linecap:butt;stroke-linejoin:miter;stroke-opacity:1" d="M 874.98,629.272 856.643,629.272 z" id="boundary" inkscape:connector-curvature="0" />
	<path style="fill:none;stroke:red;stroke-width:1px;stroke-linecap:butt;stroke-linejoin:miter;stroke-opacity:1" d="M 874.98,629.272 891.482,638.44 z" id="boundary" inkscape:connector-curvature="0" />
	<path style="fill:none;stroke:red;stroke-width:1px;stroke-linecap:butt;stroke-linejoin:miter;stroke-opacity:1" d="M 891.482,638.44 907.985,647.608 z" id="boundary" inkscape:connector-curvature="0" />
	<path style="fill:none;stroke:red;stroke-width:1px;stroke-linecap:butt;stroke-linejoin:miter;stroke-opacity:1" d="M 926.322,647.608 907.985,647.608 z" id="boundary" inkscape:connector-curvature="0" />
	<path style="fill:none;stroke:red;stroke-width:1px;stroke-linecap:butt;stroke-linejoin:miter;stroke-opacity:1" d="M 979.497,638.44 962.994,647.608 z" id="boundary" inkscape:connector-curvature="0" />
	<path style="fill:none;stroke:red;stroke-width:1px;stroke-linecap:butt;stroke-linejoin:miter;stroke-opacity:1" d="M 962.994,647.608 944.658,654.943 z" id="boundary" inkscape:connector-curvature="0" />
	<path style="fill:none;stroke:red;stroke-width:1px;stroke-linecap:butt;stroke-linejoin:miter;stroke-opacity:1" d="M 944.658,654.943 926.322,647.608 z" id="boundary" inkscape:connector-curvature="0" />
	<path style="fill:none;stroke:red;stroke-width:1px;stroke-linecap:butt;stroke-linejoin:miter;stroke-opacity:1" d="M 996,605.434 994.166,623.771 z" id="boundary" inkscape:connector-curvature="0" />
	<path style="fill:none;stroke:red;stroke-width:1px;stroke-linecap:butt;stroke-linejoin:miter;stroke-opacity:1" d="M 994.166,623.771 979.497,638.44 z" id="boundary" inkscape:connector-curvature="0" />
	<circle cx="4" cy="110.351" r="4" fill="#0" id="circle0"/>
	<circle cx="13.1682" cy="126.854" r="4" fill="#0" id="circle1"/>
	<circle cx="18.6691" cy="95.6821" r="4" fill="#0" id="circle2"/>
	<circle cx="27.8373" cy="77.3457" r="4" fill="#0" id="circle3"/>
	<circle cx="31.5046" cy="125.02" r="4" fill="#0" id="circle4"/>
	<circle cx="42.5065" cy="62.6765" r="4" fill="#0" id="circle5"/>
	<circle cx="49.841" cy="125.02" r="4" fill="#0" id="circle6"/>
	<circle cx="57.1756" cy="49.841" r="4" fill="#0" id="circle7"/>
	<circle cx="68.1774" cy="125.02" r="4" fill="#0" id="circle8"/>
	<circle cx="70.0111" cy="35.1719" r="4" fill="#0" id="circle9"/>
	<circle cx="77.3457" cy="339.556" r="4" fill="#0" id="circle10"/>
	<circle cx="77.3457" cy="357.893" r="4" fill="#0" id="circle11"/>
	<circle cx="77.3457" cy="376.229" r="4" fill="#0" id="circle12"/>
	<circle cx="77.3457" cy="403.734" r="4" fill="#0" id="circle13"/>
	<circle cx="77.3457" cy="422.07" r="4" fill="#0" id="circle14"/>
	<circle cx="77.3457" cy="440.407" r="4" fill="#0" id="circle15"/>
	<circle cx="84.6802" cy="22.3364" r="4" fill="#0" id="circle16"/>
	<circle cx="86.5139" cy="125.02" r="4" fill="#0" id="circle17"/>
	<circle cx="86.5139" cy="284.547" r="4" fill="#0" id="circle18"/>
	<circle cx="86.5139" cy="302.884" r="4" fill="#0" id="circle19"/>
	<circle cx="86.5139" cy="321.22" r="4" fill="#0" id="circle20"/>
	<circle cx="86.5139" cy="456.909" r="4" fill="#0" id="circle21"/>
	<circle cx="95.6821" cy="238.706" r="4" fill="#0" id="circle22"/>
	<circle cx="95.6821" cy="257.043" r="4" fill="#0" id="circle23"/>
	<circle cx="95.6821" cy="473.412" r="4" fill="#0" id="circle24"/>
	<circle cx="95.6821" cy="491.749" r="4" fill="#0" id="circle25"/>
	<circle cx="101.183" cy="13.1682" r="4" fill="#0" id="circle26"/>
	<circle cx="103.017" cy="134.189" r="4" fill="#0" id="circle27"/>
	<circle cx="104.85" cy="156.192" r="4" fill="#0" id="circle28"/>
	<circle cx="104.85" cy="183.697" r="4" fill="#0" id="circle29"/>
	<circle cx="104.85" cy="211.201" r="4" fill="#0" id="circle30"/>
	<circle cx="106.684" cy="506.418" r="4" fill="#0" id="circle31"/>
	<circle cx="115.852" cy="522.921" r="4" fill="#0" id="circle32"/>
	<circle cx="119.519" cy="4" r="4" fill="#0" id="circle33"/>
	<circle cx="128.688" cy="537.59" r="4" fill="#0" id="circle34"/>
	<circle cx="137.856" cy="4" r="4" fill="#0" id="circle35"/>
	<circle cx="137.856" cy="554.092" r="4" fill="#0" id="circle36"/>
	<circle cx="150.691" cy="568.762" r="4" fill="#0" id="circle37"/>
	<circle cx="156.192" cy="4" r="4" fill="#0" id="circle38"/>
	<circle cx="169.028" cy="574.262" r="4" fill="#0" id="circle39"/>
	<circle cx="172.695" cy="13.1682" r="4" fill="#0" id="circle40"/>
	<circle cx="180.03" cy="588.932" r="4" fill="#0" id="circle41"/>
	<circle cx="191.031" cy="13.1682" r="4" fill="#0" id="circle42"/>
	<circle cx="198.366" cy="596.266" r="4" fill="#0" id="circle43"/>
	<circle cx="207.534" cy="22.3364" r="4" fill="#0" id="circle44"/>
	<circle cx="214.869" cy="605.434" r="4" fill="#0" id="circle45"/>
	<circle cx="224.037" cy="31.5046" r="4" fill="#0" id="circle46"/>
	<circle cx="233.205" cy="610.935" r="4" fill="#0" id="circle47"/>
	<circle cx="235.039" cy="46.1738" r="4" fill="#0" id="circle48"/>
	<circle cx="242.373" cy="742.957" r="4" fill="#0" id="circle49"/>
	<circle cx="249.708" cy="620.104" r="4" fill="#0" id="circle50"/>
	<circle cx="251.542" cy="55.342" r="4" fill="#0" id="circle51"/>
	<circle cx="251.542" cy="724.621" r="4" fill="#0" id="circle52"/>
	<circle cx="253.375" cy="73.6784" r="4" fill="#0" id="circle53"/>
	<circle cx="260.71" cy="748.458" r="4" fill="#0" id="circle54"/>
	<circle cx="262.543" cy="125.02" r="4" fill="#0" id="circle55"/>
	<circle cx="266.211" cy="88.3475" r="4" fill="#0" id="circle56"/>
	<circle cx="266.211" cy="629.272" r="4" fill="#0" id="circle57"/>
	<circle cx="269.878" cy="715.453" r="4" fill="#0" id="circle58"/>
	<circle cx="271.712" cy="106.684" r="4" fill="#0" id="circle59"/>
	<circle cx="271.712" cy="141.523" r="4" fill="#0" id="circle60"/>
	<circle cx="271.712" cy="159.86" r="4" fill="#0" id="circle61"/>
	<circle cx="271.712" cy="178.196" r="4" fill="#0" id="circle62"/>
	<circle cx="279.046" cy="742.957" r="4" fill="#0" id="circle63"/>
	<circle cx="280.88" cy="194.699" r="4" fill="#0" id="circle64"/>
	<circle cx="284.547" cy="636.606" r="4" fill="#0" id="circle65"/>
	<circle cx="284.547" cy="700.784" r="4" fill="#0" id="circle66"/>
	<circle cx="290.048" cy="211.201" r="4" fill="#0" id="circle67"/>
	<circle cx="290.048" cy="229.538" r="4" fill="#0" id="circle68"/>
	<circle cx="297.383" cy="733.789" r="4" fill="#0" id="circle69"/>
	<circle cx="302.884" cy="244.207" r="4" fill="#0" id="circle70"/>
	<circle cx="302.884" cy="636.606" r="4" fill="#0" id="circle71"/>
	<circle cx="302.884" cy="691.616" r="4" fill="#0" id="circle72"/>
	<circle cx="310.218" cy="654.943" r="4" fill="#0" id="circle73"/>
	<circle cx="312.052" cy="260.71" r="4" fill="#0" id="circle74"/>
	<circle cx="312.052" cy="673.279" r="4" fill="#0" id="circle75"/>
	<circle cx="315.719" cy="730.122" r="4" fill="#0" id="circle76"/>
	<circle cx="324.887" cy="275.379" r="4" fill="#0" id="circle77"/>
	<circle cx="334.055" cy="730.122" r="4" fill="#0" id="circle78"/>
	<circle cx="335.889" cy="290.048" r="4" fill="#0" id="circle79"/>
	<circle cx="350.558" cy="301.05" r="4" fill="#0" id="circle80"/>
	<circle cx="352.392" cy="730.122" r="4" fill="#0" id="circle81"/>
	<circle cx="368.895" cy="308.384" r="4" fill="#0" id="circle82"/>
	<circle cx="370.728" cy="730.122" r="4" fill="#0" id="circle83"/>
	<circle cx="385.397" cy="317.553" r="4" fill="#0" id="circle84"/>
	<circle cx="389.065" cy="730.122" r="4" fill="#0" id="circle85"/>
	<circle cx="403.734" cy="324.887" r="4" fill="#0" id="circle86"/>
	<circle cx="405.567" cy="739.29" r="4" fill="#0" id="circle87"/>
	<circle cx="420.237" cy="334.055" r="4" fill="#0" id="circle88"/>
	<circle cx="422.07" cy="748.458" r="4" fill="#0" id="circle89"/>
	<circle cx="427.571" cy="711.786" r="4" fill="#0" id="circle90"/>
	<circle cx="431.238" cy="730.122" r="4" fill="#0" id="circle91"/>
	<circle cx="436.739" cy="343.224" r="4" fill="#0" id="circle92"/>
	<circle cx="440.407" cy="746.625" r="4" fill="#0" id="circle93"/>
	<circle cx="445.908" cy="702.617" r="4" fill="#0" id="circle94"/>
	<circle cx="453.242" cy="352.392" r="4" fill="#0" id="circle95"/>
	<circle cx="464.244" cy="702.617" r="4" fill="#0" id="circle96"/>
	<circle cx="469.745" cy="361.56" r="4" fill="#0" id="circle97"/>
	<circle cx="480.747" cy="693.449" r="4" fill="#0" id="circle98"/>
	<circle cx="488.081" cy="363.394" r="4" fill="#0" id="circle99"/>
	<circle cx="499.083" cy="687.948" r="4" fill="#0" id="circle100"/>
	<circle cx="500.917" cy="378.063" r="4" fill="#0" id="circle101"/>
	<circle cx="517.42" cy="684.281" r="4" fill="#0" id="circle102"/>
	<circle cx="519.253" cy="379.896" r="4" fill="#0" id="circle103"/>
	<circle cx="533.922" cy="675.113" r="4" fill="#0" id="circle104"/>
	<circle cx="535.756" cy="389.065" r="4" fill="#0" id="circle105"/>
	<circle cx="552.259" cy="675.113" r="4" fill="#0" id="circle106"/>
	<circle cx="554.092" cy="392.732" r="4" fill="#0" id="circle107"/>
	<circle cx="570.595" cy="401.9" r="4" fill="#0" id="circle108"/>
	<circle cx="570.595" cy="671.445" r="4" fill="#0" id="circle109"/>
	<circle cx="588.932" cy="407.401" r="4" fill="#0" id="circle110"/>
	<circle cx="588.932" cy="662.277" r="4" fill="#0" id="circle111"/>
	<circle cx="605.434" cy="416.569" r="4" fill="#0" id="circle112"/>
	<circle cx="607.268" cy="653.109" r="4" fill="#0" id="circle113"/>
	<circle cx="621.937" cy="425.738" r="4" fill="#0" id="circle114"/>
	<circle cx="625.604" cy="643.941" r="4" fill="#0" id="circle115"/>
	<circle cx="638.44" cy="434.906" r="4" fill="#0" id="circle116"/>
	<circle cx="643.941" cy="634.773" r="4" fill="#0" id="circle117"/>
	<circle cx="654.943" cy="444.074" r="4" fill="#0" id="circle118"/>
	<circle cx="662.277" cy="634.773" r="4" fill="#0" id="circle119"/>
	<circle cx="673.279" cy="444.074" r="4" fill="#0" id="circle120"/>
	<circle cx="675.113" cy="620.104" r="4" fill="#0" id="circle121"/>
	<circle cx="689.782" cy="453.242" r="4" fill="#0" id="circle122"/>
	<circle cx="693.449" cy="620.104" r="4" fill="#0" id="circle123"/>
	<circle cx="708.118" cy="453.242" r="4" fill="#0" id="circle124"/>
	<circle cx="711.786" cy="620.104" r="4" fill="#0" id="circle125"/>
	<circle cx="724.621" cy="462.41" r="4" fill="#0" id="circle126"/>
	<circle cx="730.122" cy="610.935" r="4" fill="#0" id="circle127"/>
	<circle cx="742.957" cy="462.41" r="4" fill="#0" id="circle128"/>
	<circle cx="748.458" cy="610.935" r="4" fill="#0" id="circle129"/>
	<circle cx="761.294" cy="462.41" r="4" fill="#0" id="circle130"/>
	<circle cx="766.795" cy="610.935" r="4" fill="#0" id="circle131"/>
	<circle cx="777.797" cy="471.579" r="4" fill="#0" id="circle132"/>
	<circle cx="785.131" cy="610.935" r="4" fill="#0" id="circle133"/>
	<circle cx="796.133" cy="471.579" r="4" fill="#0" id="circle134"/>
	<circle cx="803.468" cy="610.935" r="4" fill="#0" id="circle135"/>
	<circle cx="812.636" cy="480.747" r="4" fill="#0" id="circle136"/>
	<circle cx="821.804" cy="614.603" r="4" fill="#0" id="circle137"/>
	<circle cx="830.972" cy="477.079" r="4" fill="#0" id="circle138"/>
	<circle cx="840.14" cy="620.104" r="4" fill="#0" id="circle139"/>
	<circle cx="849.309" cy="480.747" r="4" fill="#0" id="circle140"/>
	<circle cx="856.643" cy="629.272" r="4" fill="#0" id="circle141"/>
	<circle cx="865.811" cy="489.915" r="4" fill="#0" id="circle142"/>
	<circle cx="874.98" cy="629.272" r="4" fill="#0" id="circle143"/>
	<circle cx="884.148" cy="489.915" r="4" fill="#0" id="circle144"/>
	<circle cx="891.482" cy="638.44" r="4" fill="#0" id="circle145"/>
	<circle cx="898.817" cy="500.917" r="4" fill="#0" id="circle146"/>
	<circle cx="907.985" cy="647.608" r="4" fill="#0" id="circle147"/>
	<circle cx="913.486" cy="513.752" r="4" fill="#0" id="circle148"/>
	<circle cx="926.322" cy="528.421" r="4" fill="#0" id="circle149"/>
	<circle cx="926.322" cy="647.608" r="4" fill="#0" id="circle150"/>
	<circle cx="935.49" cy="544.924" r="4" fill="#0" id="circle151"/>
	<circle cx="944.658" cy="654.943" r="4" fill="#0" id="circle152"/>
	<circle cx="951.993" cy="554.092" r="4" fill="#0" id="circle153"/>
	<circle cx="962.994" cy="647.608" r="4" fill="#0" id="circle154"/>
	<circle cx="968.495" cy="563.261" r="4" fill="#0" id="circle155"/>
	<circle cx="979.497" cy="638.44" r="4" fill="#0" id="circle156"/>
	<circle cx="984.998" cy="572.429" r="4" fill="#0" id="circle157"/>
	<circle cx="994.166" cy="623.771" r="4" fill="#0" id="circle158"/>
	<circle cx="996" cy="587.098" r="4" fill="#0" id="circle159"/>
	<circle cx="996" cy="605.434" r="4" fill="#0" id="circle160"/>
	</g>
</svg>