<?xml version="1.0" encoding="UTF-8" standalone="no"?>
<!-- Created with CurveBenchmark -->
<svg
	xmlns:dc="http://purl.org/dc/elements/1.1/"
	xmlns:cc="http://creativecommons.org/ns#"
	xmlns:rdf="http://www.w3.org/1999/02/22-rdf-syntax-ns#"
	xmlns:svg="http://www.w3.org/2000/svg"
	xmlns="http://www.w3.org/2000/svg"
	xmlns:sodipodi="http://sodipodi.sourceforge.net/DTD/sodipodi-0.dtd"
	xmlns:inkscape="http://www.inkscape.org/namespaces/inkscape"
	width="1000"
	height="1000"
	id="svg2"
	version="1.1"
	sodipodi:docname="manifold/ccrust-hand2occ1.png.txt">
<defs
	id="defs4" />
<metadata
	id="metadata7">
	<rdf:RDF>
		<cc:Work
			rdf:about="">
			<dc:format>image/svg+xml</dc:format>
			<dc:type
				rdf:resource="http://purl.org/dc/dcmitype/StillImage" />
			<dc:title></dc:title>
		</cc:Work>
	</rdf:RDF>
</metadata>
<g
	inkscape:label="Layer 1"
	inkscape:groupmode="layer"
	id="layer1">
	<path style="fill:none;stroke:red;stroke-width:1px;stroke-linecap:butt;stroke-linejoin:miter;stroke-opacity:1" d="M 73.6412,240.78 89.117,236.137 z" id="boundary" inkscape:connector-curvature="0" />
	<path style="fill:none;stroke:red;stroke-width:1px;stroke-linecap:butt;stroke-linejoin:miter;stroke-opacity:1" d="M 89.117,236.137 101.498,245.423 z" id="boundary" inkscape:connector-curvature="0" />
	<path style="fill:none;stroke:red;stroke-width:1px;stroke-linecap:butt;stroke-linejoin:miter;stroke-opacity:1" d="M 166.496,171.139 166.496,186.615 z" id="boundary" inkscape:connector-curvature="0" />
	<path style="fill:none;stroke:red;stroke-width:1px;stroke-linecap:butt;stroke-linejoin:miter;stroke-opacity:1" d="M 166.496,171.139 178.877,158.758 z" id="boundary" inkscape:connector-curvature="0" />
	<path style="fill:none;stroke:red;stroke-width:1px;stroke-linecap:butt;stroke-linejoin:miter;stroke-opacity:1" d="M 113.878,256.256 101.498,245.423 z" id="boundary" inkscape:connector-curvature="0" />
	<path style="fill:none;stroke:red;stroke-width:1px;stroke-linecap:butt;stroke-linejoin:miter;stroke-opacity:1" d="M 58.1654,256.256 73.6412,240.78 z" id="boundary" inkscape:connector-curvature="0" />
	<path style="fill:none;stroke:red;stroke-width:1px;stroke-linecap:butt;stroke-linejoin:miter;stroke-opacity:1" d="M 58.1654,293.398 50.4275,279.47 z" id="boundary" inkscape:connector-curvature="0" />
	<path style="fill:none;stroke:red;stroke-width:1px;stroke-linecap:butt;stroke-linejoin:miter;stroke-opacity:1" d="M 50.4275,279.47 58.1654,256.256 z" id="boundary" inkscape:connector-curvature="0" />
	<path style="fill:none;stroke:red;stroke-width:1px;stroke-linecap:butt;stroke-linejoin:miter;stroke-opacity:1" d="M 113.878,256.256 124.711,268.637 z" id="boundary" inkscape:connector-curvature="0" />
	<path style="fill:none;stroke:red;stroke-width:1px;stroke-linecap:butt;stroke-linejoin:miter;stroke-opacity:1" d="M 132.449,282.565 124.711,268.637 z" id="boundary" inkscape:connector-curvature="0" />
	<path style="fill:none;stroke:red;stroke-width:1px;stroke-linecap:butt;stroke-linejoin:miter;stroke-opacity:1" d="M 166.496,186.615 174.234,200.543 z" id="boundary" inkscape:connector-curvature="0" />
	<path style="fill:none;stroke:red;stroke-width:1px;stroke-linecap:butt;stroke-linejoin:miter;stroke-opacity:1" d="M 181.972,214.471 174.234,200.543 z" id="boundary" inkscape:connector-curvature="0" />
	<path style="fill:none;stroke:red;stroke-width:1px;stroke-linecap:butt;stroke-linejoin:miter;stroke-opacity:1" d="M 178.877,158.758 192.805,151.02 z" id="boundary" inkscape:connector-curvature="0" />
	<path style="fill:none;stroke:red;stroke-width:1px;stroke-linecap:butt;stroke-linejoin:miter;stroke-opacity:1" d="M 208.281,151.02 192.805,151.02 z" id="boundary" inkscape:connector-curvature="0" />
	<path style="fill:none;stroke:red;stroke-width:1px;stroke-linecap:butt;stroke-linejoin:miter;stroke-opacity:1" d="M 181.972,214.471 181.972,229.947 z" id="boundary" inkscape:connector-curvature="0" />
	<path style="fill:none;stroke:red;stroke-width:1px;stroke-linecap:butt;stroke-linejoin:miter;stroke-opacity:1" d="M 189.71,243.875 192.805,259.351 z" id="boundary" inkscape:connector-curvature="0" />
	<path style="fill:none;stroke:red;stroke-width:1px;stroke-linecap:butt;stroke-linejoin:miter;stroke-opacity:1" d="M 189.71,243.875 181.972,229.947 z" id="boundary" inkscape:connector-curvature="0" />
	<path style="fill:none;stroke:red;stroke-width:1px;stroke-linecap:butt;stroke-linejoin:miter;stroke-opacity:1" d="M 205.186,288.755 197.448,274.827 z" id="boundary" inkscape:connector-curvature="0" />
	<path style="fill:none;stroke:red;stroke-width:1px;stroke-linecap:butt;stroke-linejoin:miter;stroke-opacity:1" d="M 197.448,274.827 192.805,259.351 z" id="boundary" inkscape:connector-curvature="0" />
	<path style="fill:none;stroke:red;stroke-width:1px;stroke-linecap:butt;stroke-linejoin:miter;stroke-opacity:1" d="M 137.092,298.041 132.449,282.565 z" id="boundary" inkscape:connector-curvature="0" />
	<path style="fill:none;stroke:red;stroke-width:1px;stroke-linecap:butt;stroke-linejoin:miter;stroke-opacity:1" d="M 206.733,304.231 205.186,288.755 z" id="boundary" inkscape:connector-curvature="0" />
	<path style="fill:none;stroke:red;stroke-width:1px;stroke-linecap:butt;stroke-linejoin:miter;stroke-opacity:1" d="M 58.1654,308.874 58.1654,293.398 z" id="boundary" inkscape:connector-curvature="0" />
	<path style="fill:none;stroke:red;stroke-width:1px;stroke-linecap:butt;stroke-linejoin:miter;stroke-opacity:1" d="M 65.9033,322.802 58.1654,308.874 z" id="boundary" inkscape:connector-curvature="0" />
	<path style="fill:none;stroke:red;stroke-width:1px;stroke-linecap:butt;stroke-linejoin:miter;stroke-opacity:1" d="M 65.9033,322.802 75.1888,335.183 z" id="boundary" inkscape:connector-curvature="0" />
	<path style="fill:none;stroke:red;stroke-width:1px;stroke-linecap:butt;stroke-linejoin:miter;stroke-opacity:1" d="M 81.3791,350.658 75.1888,335.183 z" id="boundary" inkscape:connector-curvature="0" />
	<path style="fill:none;stroke:red;stroke-width:1px;stroke-linecap:butt;stroke-linejoin:miter;stroke-opacity:1" d="M 93.7598,361.491 81.3791,350.658 z" id="boundary" inkscape:connector-curvature="0" />
	<path style="fill:none;stroke:red;stroke-width:1px;stroke-linecap:butt;stroke-linejoin:miter;stroke-opacity:1" d="M 19.4758,398.633 34.9516,398.633 z" id="boundary" inkscape:connector-curvature="0" />
	<path style="fill:none;stroke:red;stroke-width:1px;stroke-linecap:butt;stroke-linejoin:miter;stroke-opacity:1" d="M 50.4275,401.729 34.9516,398.633 z" id="boundary" inkscape:connector-curvature="0" />
	<path style="fill:none;stroke:red;stroke-width:1px;stroke-linecap:butt;stroke-linejoin:miter;stroke-opacity:1" d="M 96.8549,376.967 93.7598,361.491 z" id="boundary" inkscape:connector-curvature="0" />
	<path style="fill:none;stroke:red;stroke-width:1px;stroke-linecap:butt;stroke-linejoin:miter;stroke-opacity:1" d="M 50.4275,401.729 59.7129,414.109 z" id="boundary" inkscape:connector-curvature="0" />
	<path style="fill:none;stroke:red;stroke-width:1px;stroke-linecap:butt;stroke-linejoin:miter;stroke-opacity:1" d="M 144.83,311.969 152.568,325.897 z" id="boundary" inkscape:connector-curvature="0" />
	<path style="fill:none;stroke:red;stroke-width:1px;stroke-linecap:butt;stroke-linejoin:miter;stroke-opacity:1" d="M 144.83,311.969 137.092,298.041 z" id="boundary" inkscape:connector-curvature="0" />
	<path style="fill:none;stroke:red;stroke-width:1px;stroke-linecap:butt;stroke-linejoin:miter;stroke-opacity:1" d="M 206.733,304.231 212.924,319.707 z" id="boundary" inkscape:connector-curvature="0" />
	<path style="fill:none;stroke:red;stroke-width:1px;stroke-linecap:butt;stroke-linejoin:miter;stroke-opacity:1" d="M 158.758,341.373 152.568,325.897 z" id="boundary" inkscape:connector-curvature="0" />
	<path style="fill:none;stroke:red;stroke-width:1px;stroke-linecap:butt;stroke-linejoin:miter;stroke-opacity:1" d="M 104.593,390.895 96.8549,376.967 z" id="boundary" inkscape:connector-curvature="0" />
	<path style="fill:none;stroke:red;stroke-width:1px;stroke-linecap:butt;stroke-linejoin:miter;stroke-opacity:1" d="M 158.758,341.373 166.496,355.301 z" id="boundary" inkscape:connector-curvature="0" />
	<path style="fill:none;stroke:red;stroke-width:1px;stroke-linecap:butt;stroke-linejoin:miter;stroke-opacity:1" d="M 166.496,355.301 172.686,370.777 z" id="boundary" inkscape:connector-curvature="0" />
	<path style="fill:none;stroke:red;stroke-width:1px;stroke-linecap:butt;stroke-linejoin:miter;stroke-opacity:1" d="M 172.686,370.777 183.52,383.158 z" id="boundary" inkscape:connector-curvature="0" />
	<path style="fill:none;stroke:red;stroke-width:1px;stroke-linecap:butt;stroke-linejoin:miter;stroke-opacity:1" d="M 191.257,397.086 183.52,383.158 z" id="boundary" inkscape:connector-curvature="0" />
	<path style="fill:none;stroke:red;stroke-width:1px;stroke-linecap:butt;stroke-linejoin:miter;stroke-opacity:1" d="M 112.331,404.824 104.593,390.895 z" id="boundary" inkscape:connector-curvature="0" />
	<path style="fill:none;stroke:red;stroke-width:1px;stroke-linecap:butt;stroke-linejoin:miter;stroke-opacity:1" d="M 212.924,319.707 212.924,335.183 z" id="boundary" inkscape:connector-curvature="0" />
	<path style="fill:none;stroke:red;stroke-width:1px;stroke-linecap:butt;stroke-linejoin:miter;stroke-opacity:1" d="M 208.281,151.02 220.661,161.853 z" id="boundary" inkscape:connector-curvature="0" />
	<path style="fill:none;stroke:red;stroke-width:1px;stroke-linecap:butt;stroke-linejoin:miter;stroke-opacity:1" d="M 19.4758,398.633 4,403.276 z" id="boundary" inkscape:connector-curvature="0" />
	<path style="fill:none;stroke:red;stroke-width:1px;stroke-linecap:butt;stroke-linejoin:miter;stroke-opacity:1" d="M 220.661,161.853 234.59,169.591 z" id="boundary" inkscape:connector-curvature="0" />
	<path style="fill:none;stroke:red;stroke-width:1px;stroke-linecap:butt;stroke-linejoin:miter;stroke-opacity:1" d="M 325.897,158.758 313.516,171.139 z" id="boundary" inkscape:connector-curvature="0" />
	<path style="fill:none;stroke:red;stroke-width:1px;stroke-linecap:butt;stroke-linejoin:miter;stroke-opacity:1" d="M 245.423,197.448 245.423,181.972 z" id="boundary" inkscape:connector-curvature="0" />
	<path style="fill:none;stroke:red;stroke-width:1px;stroke-linecap:butt;stroke-linejoin:miter;stroke-opacity:1" d="M 257.803,206.733 245.423,197.448 z" id="boundary" inkscape:connector-curvature="0" />
	<path style="fill:none;stroke:red;stroke-width:1px;stroke-linecap:butt;stroke-linejoin:miter;stroke-opacity:1" d="M 245.423,181.972 234.59,169.591 z" id="boundary" inkscape:connector-curvature="0" />
	<path style="fill:none;stroke:red;stroke-width:1px;stroke-linecap:butt;stroke-linejoin:miter;stroke-opacity:1" d="M 263.994,222.209 268.637,237.685 z" id="boundary" inkscape:connector-curvature="0" />
	<path style="fill:none;stroke:red;stroke-width:1px;stroke-linecap:butt;stroke-linejoin:miter;stroke-opacity:1" d="M 263.994,222.209 257.803,206.733 z" id="boundary" inkscape:connector-curvature="0" />
	<path style="fill:none;stroke:red;stroke-width:1px;stroke-linecap:butt;stroke-linejoin:miter;stroke-opacity:1" d="M 268.637,237.685 276.374,251.613 z" id="boundary" inkscape:connector-curvature="0" />
	<path style="fill:none;stroke:red;stroke-width:1px;stroke-linecap:butt;stroke-linejoin:miter;stroke-opacity:1" d="M 276.374,251.613 276.374,267.089 z" id="boundary" inkscape:connector-curvature="0" />
	<path style="fill:none;stroke:red;stroke-width:1px;stroke-linecap:butt;stroke-linejoin:miter;stroke-opacity:1" d="M 313.516,171.139 313.516,186.615 z" id="boundary" inkscape:connector-curvature="0" />
	<path style="fill:none;stroke:red;stroke-width:1px;stroke-linecap:butt;stroke-linejoin:miter;stroke-opacity:1" d="M 276.374,267.089 284.112,281.017 z" id="boundary" inkscape:connector-curvature="0" />
	<path style="fill:none;stroke:red;stroke-width:1px;stroke-linecap:butt;stroke-linejoin:miter;stroke-opacity:1" d="M 321.254,200.543 321.254,216.019 z" id="boundary" inkscape:connector-curvature="0" />
	<path style="fill:none;stroke:red;stroke-width:1px;stroke-linecap:butt;stroke-linejoin:miter;stroke-opacity:1" d="M 321.254,200.543 313.516,186.615 z" id="boundary" inkscape:connector-curvature="0" />
	<path style="fill:none;stroke:red;stroke-width:1px;stroke-linecap:butt;stroke-linejoin:miter;stroke-opacity:1" d="M 325.897,158.758 339.825,151.02 z" id="boundary" inkscape:connector-curvature="0" />
	<path style="fill:none;stroke:red;stroke-width:1px;stroke-linecap:butt;stroke-linejoin:miter;stroke-opacity:1" d="M 339.825,151.02 353.754,158.758 z" id="boundary" inkscape:connector-curvature="0" />
	<path style="fill:none;stroke:red;stroke-width:1px;stroke-linecap:butt;stroke-linejoin:miter;stroke-opacity:1" d="M 321.254,216.019 321.254,231.495 z" id="boundary" inkscape:connector-curvature="0" />
	<path style="fill:none;stroke:red;stroke-width:1px;stroke-linecap:butt;stroke-linejoin:miter;stroke-opacity:1" d="M 328.992,245.423 321.254,231.495 z" id="boundary" inkscape:connector-curvature="0" />
	<path style="fill:none;stroke:red;stroke-width:1px;stroke-linecap:butt;stroke-linejoin:miter;stroke-opacity:1" d="M 328.992,245.423 333.635,260.899 z" id="boundary" inkscape:connector-curvature="0" />
	<path style="fill:none;stroke:red;stroke-width:1px;stroke-linecap:butt;stroke-linejoin:miter;stroke-opacity:1" d="M 336.73,276.374 333.635,260.899 z" id="boundary" inkscape:connector-curvature="0" />
	<path style="fill:none;stroke:red;stroke-width:1px;stroke-linecap:butt;stroke-linejoin:miter;stroke-opacity:1" d="M 336.73,291.85 336.73,276.374 z" id="boundary" inkscape:connector-curvature="0" />
	<path style="fill:none;stroke:red;stroke-width:1px;stroke-linecap:butt;stroke-linejoin:miter;stroke-opacity:1" d="M 291.85,294.945 298.041,310.421 z" id="boundary" inkscape:connector-curvature="0" />
	<path style="fill:none;stroke:red;stroke-width:1px;stroke-linecap:butt;stroke-linejoin:miter;stroke-opacity:1" d="M 284.112,281.017 291.85,294.945 z" id="boundary" inkscape:connector-curvature="0" />
	<path style="fill:none;stroke:red;stroke-width:1px;stroke-linecap:butt;stroke-linejoin:miter;stroke-opacity:1" d="M 305.778,341.373 299.588,325.897 z" id="boundary" inkscape:connector-curvature="0" />
	<path style="fill:none;stroke:red;stroke-width:1px;stroke-linecap:butt;stroke-linejoin:miter;stroke-opacity:1" d="M 298.041,310.421 299.588,325.897 z" id="boundary" inkscape:connector-curvature="0" />
	<path style="fill:none;stroke:red;stroke-width:1px;stroke-linecap:butt;stroke-linejoin:miter;stroke-opacity:1" d="M 212.924,350.658 212.924,335.183 z" id="boundary" inkscape:connector-curvature="0" />
	<path style="fill:none;stroke:red;stroke-width:1px;stroke-linecap:butt;stroke-linejoin:miter;stroke-opacity:1" d="M 212.924,350.658 214.471,366.134 z" id="boundary" inkscape:connector-curvature="0" />
	<path style="fill:none;stroke:red;stroke-width:1px;stroke-linecap:butt;stroke-linejoin:miter;stroke-opacity:1" d="M 228.399,395.538 220.661,381.61 z" id="boundary" inkscape:connector-curvature="0" />
	<path style="fill:none;stroke:red;stroke-width:1px;stroke-linecap:butt;stroke-linejoin:miter;stroke-opacity:1" d="M 220.661,381.61 214.471,366.134 z" id="boundary" inkscape:connector-curvature="0" />
	<path style="fill:none;stroke:red;stroke-width:1px;stroke-linecap:butt;stroke-linejoin:miter;stroke-opacity:1" d="M 305.778,341.373 307.326,356.849 z" id="boundary" inkscape:connector-curvature="0" />
	<path style="fill:none;stroke:red;stroke-width:1px;stroke-linecap:butt;stroke-linejoin:miter;stroke-opacity:1" d="M 198.995,411.014 191.257,397.086 z" id="boundary" inkscape:connector-curvature="0" />
	<path style="fill:none;stroke:red;stroke-width:1px;stroke-linecap:butt;stroke-linejoin:miter;stroke-opacity:1" d="M 336.73,307.326 336.73,322.802 z" id="boundary" inkscape:connector-curvature="0" />
	<path style="fill:none;stroke:red;stroke-width:1px;stroke-linecap:butt;stroke-linejoin:miter;stroke-opacity:1" d="M 344.468,352.206 336.73,338.278 z" id="boundary" inkscape:connector-curvature="0" />
	<path style="fill:none;stroke:red;stroke-width:1px;stroke-linecap:butt;stroke-linejoin:miter;stroke-opacity:1" d="M 336.73,338.278 336.73,322.802 z" id="boundary" inkscape:connector-curvature="0" />
	<path style="fill:none;stroke:red;stroke-width:1px;stroke-linecap:butt;stroke-linejoin:miter;stroke-opacity:1" d="M 336.73,307.326 336.73,291.85 z" id="boundary" inkscape:connector-curvature="0" />
	<path style="fill:none;stroke:red;stroke-width:1px;stroke-linecap:butt;stroke-linejoin:miter;stroke-opacity:1" d="M 307.326,356.849 315.064,370.777 z" id="boundary" inkscape:connector-curvature="0" />
	<path style="fill:none;stroke:red;stroke-width:1px;stroke-linecap:butt;stroke-linejoin:miter;stroke-opacity:1" d="M 319.707,386.253 315.064,370.777 z" id="boundary" inkscape:connector-curvature="0" />
	<path style="fill:none;stroke:red;stroke-width:1px;stroke-linecap:butt;stroke-linejoin:miter;stroke-opacity:1" d="M 236.137,409.466 228.399,395.538 z" id="boundary" inkscape:connector-curvature="0" />
	<path style="fill:none;stroke:red;stroke-width:1px;stroke-linecap:butt;stroke-linejoin:miter;stroke-opacity:1" d="M 322.802,401.729 319.707,386.253 z" id="boundary" inkscape:connector-curvature="0" />
	<path style="fill:none;stroke:red;stroke-width:1px;stroke-linecap:butt;stroke-linejoin:miter;stroke-opacity:1" d="M 352.206,383.158 347.563,367.682 z" id="boundary" inkscape:connector-curvature="0" />
	<path style="fill:none;stroke:red;stroke-width:1px;stroke-linecap:butt;stroke-linejoin:miter;stroke-opacity:1" d="M 347.563,367.682 344.468,352.206 z" id="boundary" inkscape:connector-curvature="0" />
	<path style="fill:none;stroke:red;stroke-width:1px;stroke-linecap:butt;stroke-linejoin:miter;stroke-opacity:1" d="M 355.301,398.633 352.206,383.158 z" id="boundary" inkscape:connector-curvature="0" />
	<path style="fill:none;stroke:red;stroke-width:1px;stroke-linecap:butt;stroke-linejoin:miter;stroke-opacity:1" d="M 353.754,158.758 367.682,166.496 z" id="boundary" inkscape:connector-curvature="0" />
	<path style="fill:none;stroke:red;stroke-width:1px;stroke-linecap:butt;stroke-linejoin:miter;stroke-opacity:1" d="M 4,418.752 4,403.276 z" id="boundary" inkscape:connector-curvature="0" />
	<path style="fill:none;stroke:red;stroke-width:1px;stroke-linecap:butt;stroke-linejoin:miter;stroke-opacity:1" d="M 19.4758,446.608 11.7379,432.68 z" id="boundary" inkscape:connector-curvature="0" />
	<path style="fill:none;stroke:red;stroke-width:1px;stroke-linecap:butt;stroke-linejoin:miter;stroke-opacity:1" d="M 11.7379,432.68 4,418.752 z" id="boundary" inkscape:connector-curvature="0" />
	<path style="fill:none;stroke:red;stroke-width:1px;stroke-linecap:butt;stroke-linejoin:miter;stroke-opacity:1" d="M 75.1888,418.752 59.7129,414.109 z" id="boundary" inkscape:connector-curvature="0" />
	<path style="fill:none;stroke:red;stroke-width:1px;stroke-linecap:butt;stroke-linejoin:miter;stroke-opacity:1" d="M 75.1888,418.752 81.3791,434.228 z" id="boundary" inkscape:connector-curvature="0" />
	<path style="fill:none;stroke:red;stroke-width:1px;stroke-linecap:butt;stroke-linejoin:miter;stroke-opacity:1" d="M 19.4758,446.608 19.4758,462.084 z" id="boundary" inkscape:connector-curvature="0" />
	<path style="fill:none;stroke:red;stroke-width:1px;stroke-linecap:butt;stroke-linejoin:miter;stroke-opacity:1" d="M 28.7613,474.465 19.4758,462.084 z" id="boundary" inkscape:connector-curvature="0" />
	<path style="fill:none;stroke:red;stroke-width:1px;stroke-linecap:butt;stroke-linejoin:miter;stroke-opacity:1" d="M 41.142,485.298 28.7613,474.465 z" id="boundary" inkscape:connector-curvature="0" />
	<path style="fill:none;stroke:red;stroke-width:1px;stroke-linecap:butt;stroke-linejoin:miter;stroke-opacity:1" d="M 41.142,485.298 47.3323,500.774 z" id="boundary" inkscape:connector-curvature="0" />
	<path style="fill:none;stroke:red;stroke-width:1px;stroke-linecap:butt;stroke-linejoin:miter;stroke-opacity:1" d="M 93.7598,445.061 81.3791,434.228 z" id="boundary" inkscape:connector-curvature="0" />
	<path style="fill:none;stroke:red;stroke-width:1px;stroke-linecap:butt;stroke-linejoin:miter;stroke-opacity:1" d="M 112.331,404.824 113.878,420.3 z" id="boundary" inkscape:connector-curvature="0" />
	<path style="fill:none;stroke:red;stroke-width:1px;stroke-linecap:butt;stroke-linejoin:miter;stroke-opacity:1" d="M 121.616,434.228 127.807,449.704 z" id="boundary" inkscape:connector-curvature="0" />
	<path style="fill:none;stroke:red;stroke-width:1px;stroke-linecap:butt;stroke-linejoin:miter;stroke-opacity:1" d="M 121.616,434.228 113.878,420.3 z" id="boundary" inkscape:connector-curvature="0" />
	<path style="fill:none;stroke:red;stroke-width:1px;stroke-linecap:butt;stroke-linejoin:miter;stroke-opacity:1" d="M 135.544,463.632 127.807,449.704 z" id="boundary" inkscape:connector-curvature="0" />
	<path style="fill:none;stroke:red;stroke-width:1px;stroke-linecap:butt;stroke-linejoin:miter;stroke-opacity:1" d="M 98.4025,460.537 93.7598,445.061 z" id="boundary" inkscape:connector-curvature="0" />
	<path style="fill:none;stroke:red;stroke-width:1px;stroke-linecap:butt;stroke-linejoin:miter;stroke-opacity:1" d="M 106.14,474.465 98.4025,460.537 z" id="boundary" inkscape:connector-curvature="0" />
	<path style="fill:none;stroke:red;stroke-width:1px;stroke-linecap:butt;stroke-linejoin:miter;stroke-opacity:1" d="M 135.544,463.632 143.282,477.56 z" id="boundary" inkscape:connector-curvature="0" />
	<path style="fill:none;stroke:red;stroke-width:1px;stroke-linecap:butt;stroke-linejoin:miter;stroke-opacity:1" d="M 113.878,488.393 106.14,474.465 z" id="boundary" inkscape:connector-curvature="0" />
	<path style="fill:none;stroke:red;stroke-width:1px;stroke-linecap:butt;stroke-linejoin:miter;stroke-opacity:1" d="M 124.711,500.774 113.878,488.393 z" id="boundary" inkscape:connector-curvature="0" />
	<path style="fill:none;stroke:red;stroke-width:1px;stroke-linecap:butt;stroke-linejoin:miter;stroke-opacity:1" d="M 47.3323,500.774 58.1654,513.154 z" id="boundary" inkscape:connector-curvature="0" />
	<path style="fill:none;stroke:red;stroke-width:1px;stroke-linecap:butt;stroke-linejoin:miter;stroke-opacity:1" d="M 58.1654,513.154 65.9033,527.083 z" id="boundary" inkscape:connector-curvature="0" />
	<path style="fill:none;stroke:red;stroke-width:1px;stroke-linecap:butt;stroke-linejoin:miter;stroke-opacity:1" d="M 81.3791,554.939 73.6412,541.011 z" id="boundary" inkscape:connector-curvature="0" />
	<path style="fill:none;stroke:red;stroke-width:1px;stroke-linecap:butt;stroke-linejoin:miter;stroke-opacity:1" d="M 65.9033,527.083 73.6412,541.011 z" id="boundary" inkscape:connector-curvature="0" />
	<path style="fill:none;stroke:red;stroke-width:1px;stroke-linecap:butt;stroke-linejoin:miter;stroke-opacity:1" d="M 81.3791,554.939 86.0218,570.415 z" id="boundary" inkscape:connector-curvature="0" />
	<path style="fill:none;stroke:red;stroke-width:1px;stroke-linecap:butt;stroke-linejoin:miter;stroke-opacity:1" d="M 86.0218,570.415 98.4025,581.248 z" id="boundary" inkscape:connector-curvature="0" />
	<path style="fill:none;stroke:red;stroke-width:1px;stroke-linecap:butt;stroke-linejoin:miter;stroke-opacity:1" d="M 98.4025,581.248 104.593,596.724 z" id="boundary" inkscape:connector-curvature="0" />
	<path style="fill:none;stroke:red;stroke-width:1px;stroke-linecap:butt;stroke-linejoin:miter;stroke-opacity:1" d="M 123.164,623.033 112.331,610.652 z" id="boundary" inkscape:connector-curvature="0" />
	<path style="fill:none;stroke:red;stroke-width:1px;stroke-linecap:butt;stroke-linejoin:miter;stroke-opacity:1" d="M 112.331,610.652 104.593,596.724 z" id="boundary" inkscape:connector-curvature="0" />
	<path style="fill:none;stroke:red;stroke-width:1px;stroke-linecap:butt;stroke-linejoin:miter;stroke-opacity:1" d="M 123.164,623.033 130.902,636.961 z" id="boundary" inkscape:connector-curvature="0" />
	<path style="fill:none;stroke:red;stroke-width:1px;stroke-linecap:butt;stroke-linejoin:miter;stroke-opacity:1" d="M 137.092,511.607 143.282,527.083 z" id="boundary" inkscape:connector-curvature="0" />
	<path style="fill:none;stroke:red;stroke-width:1px;stroke-linecap:butt;stroke-linejoin:miter;stroke-opacity:1" d="M 137.092,511.607 124.711,500.774 z" id="boundary" inkscape:connector-curvature="0" />
	<path style="fill:none;stroke:red;stroke-width:1px;stroke-linecap:butt;stroke-linejoin:miter;stroke-opacity:1" d="M 155.663,537.916 143.282,527.083 z" id="boundary" inkscape:connector-curvature="0" />
	<path style="fill:none;stroke:red;stroke-width:1px;stroke-linecap:butt;stroke-linejoin:miter;stroke-opacity:1" d="M 147.925,493.036 160.306,503.869 z" id="boundary" inkscape:connector-curvature="0" />
	<path style="fill:none;stroke:red;stroke-width:1px;stroke-linecap:butt;stroke-linejoin:miter;stroke-opacity:1" d="M 137.092,652.437 143.282,667.913 z" id="boundary" inkscape:connector-curvature="0" />
	<path style="fill:none;stroke:red;stroke-width:1px;stroke-linecap:butt;stroke-linejoin:miter;stroke-opacity:1" d="M 137.092,652.437 130.902,636.961 z" id="boundary" inkscape:connector-curvature="0" />
	<path style="fill:none;stroke:red;stroke-width:1px;stroke-linecap:butt;stroke-linejoin:miter;stroke-opacity:1" d="M 151.02,681.841 158.758,695.769 z" id="boundary" inkscape:connector-curvature="0" />
	<path style="fill:none;stroke:red;stroke-width:1px;stroke-linecap:butt;stroke-linejoin:miter;stroke-opacity:1" d="M 158.758,695.769 158.758,711.245 z" id="boundary" inkscape:connector-curvature="0" />
	<path style="fill:none;stroke:red;stroke-width:1px;stroke-linecap:butt;stroke-linejoin:miter;stroke-opacity:1" d="M 151.02,681.841 143.282,667.913 z" id="boundary" inkscape:connector-curvature="0" />
	<path style="fill:none;stroke:red;stroke-width:1px;stroke-linecap:butt;stroke-linejoin:miter;stroke-opacity:1" d="M 166.496,725.173 158.758,711.245 z" id="boundary" inkscape:connector-curvature="0" />
	<path style="fill:none;stroke:red;stroke-width:1px;stroke-linecap:butt;stroke-linejoin:miter;stroke-opacity:1" d="M 155.663,537.916 160.306,553.392 z" id="boundary" inkscape:connector-curvature="0" />
	<path style="fill:none;stroke:red;stroke-width:1px;stroke-linecap:butt;stroke-linejoin:miter;stroke-opacity:1" d="M 143.282,477.56 147.925,493.036 z" id="boundary" inkscape:connector-curvature="0" />
	<path style="fill:none;stroke:red;stroke-width:1px;stroke-linecap:butt;stroke-linejoin:miter;stroke-opacity:1" d="M 209.828,423.395 217.566,437.323 z" id="boundary" inkscape:connector-curvature="0" />
	<path style="fill:none;stroke:red;stroke-width:1px;stroke-linecap:butt;stroke-linejoin:miter;stroke-opacity:1" d="M 209.828,423.395 198.995,411.014 z" id="boundary" inkscape:connector-curvature="0" />
	<path style="fill:none;stroke:red;stroke-width:1px;stroke-linecap:butt;stroke-linejoin:miter;stroke-opacity:1" d="M 234.59,462.084 222.209,452.799 z" id="boundary" inkscape:connector-curvature="0" />
	<path style="fill:none;stroke:red;stroke-width:1px;stroke-linecap:butt;stroke-linejoin:miter;stroke-opacity:1" d="M 222.209,452.799 217.566,437.323 z" id="boundary" inkscape:connector-curvature="0" />
	<path style="fill:none;stroke:red;stroke-width:1px;stroke-linecap:butt;stroke-linejoin:miter;stroke-opacity:1" d="M 160.306,503.869 166.496,519.345 z" id="boundary" inkscape:connector-curvature="0" />
	<path style="fill:none;stroke:red;stroke-width:1px;stroke-linecap:butt;stroke-linejoin:miter;stroke-opacity:1" d="M 166.496,519.345 174.234,533.273 z" id="boundary" inkscape:connector-curvature="0" />
	<path style="fill:none;stroke:red;stroke-width:1px;stroke-linecap:butt;stroke-linejoin:miter;stroke-opacity:1" d="M 174.234,533.273 181.972,547.201 z" id="boundary" inkscape:connector-curvature="0" />
	<path style="fill:none;stroke:red;stroke-width:1px;stroke-linecap:butt;stroke-linejoin:miter;stroke-opacity:1" d="M 181.972,547.201 172.686,562.677 z" id="boundary" inkscape:connector-curvature="0" />
	<path style="fill:none;stroke:red;stroke-width:1px;stroke-linecap:butt;stroke-linejoin:miter;stroke-opacity:1" d="M 172.686,562.677 160.306,553.392 z" id="boundary" inkscape:connector-curvature="0" />
	<path style="fill:none;stroke:red;stroke-width:1px;stroke-linecap:butt;stroke-linejoin:miter;stroke-opacity:1" d="M 234.59,462.084 242.328,476.012 z" id="boundary" inkscape:connector-curvature="0" />
	<path style="fill:none;stroke:red;stroke-width:1px;stroke-linecap:butt;stroke-linejoin:miter;stroke-opacity:1" d="M 236.137,409.466 236.137,424.942 z" id="boundary" inkscape:connector-curvature="0" />
	<path style="fill:none;stroke:red;stroke-width:1px;stroke-linecap:butt;stroke-linejoin:miter;stroke-opacity:1" d="M 243.875,438.871 236.137,424.942 z" id="boundary" inkscape:connector-curvature="0" />
	<path style="fill:none;stroke:red;stroke-width:1px;stroke-linecap:butt;stroke-linejoin:miter;stroke-opacity:1" d="M 322.802,401.729 327.445,417.204 z" id="boundary" inkscape:connector-curvature="0" />
	<path style="fill:none;stroke:red;stroke-width:1px;stroke-linecap:butt;stroke-linejoin:miter;stroke-opacity:1" d="M 330.54,432.68 327.445,417.204 z" id="boundary" inkscape:connector-curvature="0" />
	<path style="fill:none;stroke:red;stroke-width:1px;stroke-linecap:butt;stroke-linejoin:miter;stroke-opacity:1" d="M 234.59,462.084 248.518,454.346 z" id="boundary" inkscape:connector-curvature="0" />
	<path style="fill:none;stroke:red;stroke-width:1px;stroke-linecap:butt;stroke-linejoin:miter;stroke-opacity:1" d="M 243.875,438.871 248.518,454.346 z" id="boundary" inkscape:connector-curvature="0" />
	<path style="fill:none;stroke:red;stroke-width:1px;stroke-linecap:butt;stroke-linejoin:miter;stroke-opacity:1" d="M 335.183,448.156 350.658,452.799 z" id="boundary" inkscape:connector-curvature="0" />
	<path style="fill:none;stroke:red;stroke-width:1px;stroke-linecap:butt;stroke-linejoin:miter;stroke-opacity:1" d="M 359.944,429.585 350.658,452.799 z" id="boundary" inkscape:connector-curvature="0" />
	<path style="fill:none;stroke:red;stroke-width:1px;stroke-linecap:butt;stroke-linejoin:miter;stroke-opacity:1" d="M 330.54,432.68 335.183,448.156 z" id="boundary" inkscape:connector-curvature="0" />
	<path style="fill:none;stroke:red;stroke-width:1px;stroke-linecap:butt;stroke-linejoin:miter;stroke-opacity:1" d="M 172.686,562.677 183.52,575.058 z" id="boundary" inkscape:connector-curvature="0" />
	<path style="fill:none;stroke:red;stroke-width:1px;stroke-linecap:butt;stroke-linejoin:miter;stroke-opacity:1" d="M 181.972,753.03 175.782,737.554 z" id="boundary" inkscape:connector-curvature="0" />
	<path style="fill:none;stroke:red;stroke-width:1px;stroke-linecap:butt;stroke-linejoin:miter;stroke-opacity:1" d="M 175.782,737.554 166.496,725.173 z" id="boundary" inkscape:connector-curvature="0" />
	<path style="fill:none;stroke:red;stroke-width:1px;stroke-linecap:butt;stroke-linejoin:miter;stroke-opacity:1" d="M 356.849,903.145 341.373,903.145 z" id="boundary" inkscape:connector-curvature="0" />
	<path style="fill:none;stroke:red;stroke-width:1px;stroke-linecap:butt;stroke-linejoin:miter;stroke-opacity:1" d="M 181.972,753.03 183.52,768.505 z" id="boundary" inkscape:connector-curvature="0" />
	<path style="fill:none;stroke:red;stroke-width:1px;stroke-linecap:butt;stroke-linejoin:miter;stroke-opacity:1" d="M 183.52,768.505 189.71,783.981 z" id="boundary" inkscape:connector-curvature="0" />
	<path style="fill:none;stroke:red;stroke-width:1px;stroke-linecap:butt;stroke-linejoin:miter;stroke-opacity:1" d="M 189.71,783.981 191.257,799.457 z" id="boundary" inkscape:connector-curvature="0" />
	<path style="fill:none;stroke:red;stroke-width:1px;stroke-linecap:butt;stroke-linejoin:miter;stroke-opacity:1" d="M 197.448,814.933 191.257,799.457 z" id="boundary" inkscape:connector-curvature="0" />
	<path style="fill:none;stroke:red;stroke-width:1px;stroke-linecap:butt;stroke-linejoin:miter;stroke-opacity:1" d="M 205.186,828.861 197.448,814.933 z" id="boundary" inkscape:connector-curvature="0" />
	<path style="fill:none;stroke:red;stroke-width:1px;stroke-linecap:butt;stroke-linejoin:miter;stroke-opacity:1" d="M 220.661,856.718 212.924,842.789 z" id="boundary" inkscape:connector-curvature="0" />
	<path style="fill:none;stroke:red;stroke-width:1px;stroke-linecap:butt;stroke-linejoin:miter;stroke-opacity:1" d="M 229.947,869.098 242.328,879.931 z" id="boundary" inkscape:connector-curvature="0" />
	<path style="fill:none;stroke:red;stroke-width:1px;stroke-linecap:butt;stroke-linejoin:miter;stroke-opacity:1" d="M 242.328,879.931 251.613,892.312 z" id="boundary" inkscape:connector-curvature="0" />
	<path style="fill:none;stroke:red;stroke-width:1px;stroke-linecap:butt;stroke-linejoin:miter;stroke-opacity:1" d="M 229.947,869.098 220.661,856.718 z" id="boundary" inkscape:connector-curvature="0" />
	<path style="fill:none;stroke:red;stroke-width:1px;stroke-linecap:butt;stroke-linejoin:miter;stroke-opacity:1" d="M 279.47,903.145 263.994,903.145 z" id="boundary" inkscape:connector-curvature="0" />
	<path style="fill:none;stroke:red;stroke-width:1px;stroke-linecap:butt;stroke-linejoin:miter;stroke-opacity:1" d="M 263.994,903.145 251.613,892.312 z" id="boundary" inkscape:connector-curvature="0" />
	<path style="fill:none;stroke:red;stroke-width:1px;stroke-linecap:butt;stroke-linejoin:miter;stroke-opacity:1" d="M 294.945,903.145 279.47,903.145 z" id="boundary" inkscape:connector-curvature="0" />
	<path style="fill:none;stroke:red;stroke-width:1px;stroke-linecap:butt;stroke-linejoin:miter;stroke-opacity:1" d="M 325.897,903.145 310.421,903.145 z" id="boundary" inkscape:connector-curvature="0" />
	<path style="fill:none;stroke:red;stroke-width:1px;stroke-linecap:butt;stroke-linejoin:miter;stroke-opacity:1" d="M 212.924,842.789 205.186,828.861 z" id="boundary" inkscape:connector-curvature="0" />
	<path style="fill:none;stroke:red;stroke-width:1px;stroke-linecap:butt;stroke-linejoin:miter;stroke-opacity:1" d="M 310.421,903.145 294.945,903.145 z" id="boundary" inkscape:connector-curvature="0" />
	<path style="fill:none;stroke:red;stroke-width:1px;stroke-linecap:butt;stroke-linejoin:miter;stroke-opacity:1" d="M 341.373,903.145 325.897,903.145 z" id="boundary" inkscape:connector-curvature="0" />
	<path style="fill:none;stroke:red;stroke-width:1px;stroke-linecap:butt;stroke-linejoin:miter;stroke-opacity:1" d="M 355.301,398.633 359.944,414.109 z" id="boundary" inkscape:connector-curvature="0" />
	<path style="fill:none;stroke:red;stroke-width:1px;stroke-linecap:butt;stroke-linejoin:miter;stroke-opacity:1" d="M 380.062,175.782 387.8,189.71 z" id="boundary" inkscape:connector-curvature="0" />
	<path style="fill:none;stroke:red;stroke-width:1px;stroke-linecap:butt;stroke-linejoin:miter;stroke-opacity:1" d="M 404.824,214.471 392.443,205.186 z" id="boundary" inkscape:connector-curvature="0" />
	<path style="fill:none;stroke:red;stroke-width:1px;stroke-linecap:butt;stroke-linejoin:miter;stroke-opacity:1" d="M 392.443,205.186 387.8,189.71 z" id="boundary" inkscape:connector-curvature="0" />
	<path style="fill:none;stroke:red;stroke-width:1px;stroke-linecap:butt;stroke-linejoin:miter;stroke-opacity:1" d="M 404.824,214.471 407.919,229.947 z" id="boundary" inkscape:connector-curvature="0" />
	<path style="fill:none;stroke:red;stroke-width:1px;stroke-linecap:butt;stroke-linejoin:miter;stroke-opacity:1" d="M 407.919,229.947 415.657,243.875 z" id="boundary" inkscape:connector-curvature="0" />
	<path style="fill:none;stroke:red;stroke-width:1px;stroke-linecap:butt;stroke-linejoin:miter;stroke-opacity:1" d="M 415.657,243.875 415.657,259.351 z" id="boundary" inkscape:connector-curvature="0" />
	<path style="fill:none;stroke:red;stroke-width:1px;stroke-linecap:butt;stroke-linejoin:miter;stroke-opacity:1" d="M 423.395,288.755 415.657,274.827 z" id="boundary" inkscape:connector-curvature="0" />
	<path style="fill:none;stroke:red;stroke-width:1px;stroke-linecap:butt;stroke-linejoin:miter;stroke-opacity:1" d="M 415.657,274.827 415.657,259.351 z" id="boundary" inkscape:connector-curvature="0" />
	<path style="fill:none;stroke:red;stroke-width:1px;stroke-linecap:butt;stroke-linejoin:miter;stroke-opacity:1" d="M 599.819,186.615 607.557,171.139 z" id="boundary" inkscape:connector-curvature="0" />
	<path style="fill:none;stroke:red;stroke-width:1px;stroke-linecap:butt;stroke-linejoin:miter;stroke-opacity:1" d="M 592.081,209.828 599.819,186.615 z" id="boundary" inkscape:connector-curvature="0" />
	<path style="fill:none;stroke:red;stroke-width:1px;stroke-linecap:butt;stroke-linejoin:miter;stroke-opacity:1" d="M 615.295,155.663 623.033,132.449 z" id="boundary" inkscape:connector-curvature="0" />
	<path style="fill:none;stroke:red;stroke-width:1px;stroke-linecap:butt;stroke-linejoin:miter;stroke-opacity:1" d="M 615.295,155.663 607.557,171.139 z" id="boundary" inkscape:connector-curvature="0" />
	<path style="fill:none;stroke:red;stroke-width:1px;stroke-linecap:butt;stroke-linejoin:miter;stroke-opacity:1" d="M 630.771,116.973 623.033,132.449 z" id="boundary" inkscape:connector-curvature="0" />
	<path style="fill:none;stroke:red;stroke-width:1px;stroke-linecap:butt;stroke-linejoin:miter;stroke-opacity:1" d="M 561.129,279.47 568.867,263.994 z" id="boundary" inkscape:connector-curvature="0" />
	<path style="fill:none;stroke:red;stroke-width:1px;stroke-linecap:butt;stroke-linejoin:miter;stroke-opacity:1" d="M 576.605,240.78 584.343,225.304 z" id="boundary" inkscape:connector-curvature="0" />
	<path style="fill:none;stroke:red;stroke-width:1px;stroke-linecap:butt;stroke-linejoin:miter;stroke-opacity:1" d="M 568.867,263.994 576.605,240.78 z" id="boundary" inkscape:connector-curvature="0" />
	<path style="fill:none;stroke:red;stroke-width:1px;stroke-linecap:butt;stroke-linejoin:miter;stroke-opacity:1" d="M 592.081,209.828 584.343,225.304 z" id="boundary" inkscape:connector-curvature="0" />
	<path style="fill:none;stroke:red;stroke-width:1px;stroke-linecap:butt;stroke-linejoin:miter;stroke-opacity:1" d="M 380.062,175.782 367.682,166.496 z" id="boundary" inkscape:connector-curvature="0" />
	<path style="fill:none;stroke:red;stroke-width:1px;stroke-linecap:butt;stroke-linejoin:miter;stroke-opacity:1" d="M 561.129,279.47 553.392,294.945 z" id="boundary" inkscape:connector-curvature="0" />
	<path style="fill:none;stroke:red;stroke-width:1px;stroke-linecap:butt;stroke-linejoin:miter;stroke-opacity:1" d="M 431.133,318.159 437.323,333.635 z" id="boundary" inkscape:connector-curvature="0" />
	<path style="fill:none;stroke:red;stroke-width:1px;stroke-linecap:butt;stroke-linejoin:miter;stroke-opacity:1" d="M 431.133,318.159 431.133,302.683 z" id="boundary" inkscape:connector-curvature="0" />
	<path style="fill:none;stroke:red;stroke-width:1px;stroke-linecap:butt;stroke-linejoin:miter;stroke-opacity:1" d="M 438.871,349.111 438.871,364.587 z" id="boundary" inkscape:connector-curvature="0" />
	<path style="fill:none;stroke:red;stroke-width:1px;stroke-linecap:butt;stroke-linejoin:miter;stroke-opacity:1" d="M 445.061,380.062 438.871,364.587 z" id="boundary" inkscape:connector-curvature="0" />
	<path style="fill:none;stroke:red;stroke-width:1px;stroke-linecap:butt;stroke-linejoin:miter;stroke-opacity:1" d="M 437.323,333.635 438.871,349.111 z" id="boundary" inkscape:connector-curvature="0" />
	<path style="fill:none;stroke:red;stroke-width:1px;stroke-linecap:butt;stroke-linejoin:miter;stroke-opacity:1" d="M 359.944,429.585 359.944,414.109 z" id="boundary" inkscape:connector-curvature="0" />
	<path style="fill:none;stroke:red;stroke-width:1px;stroke-linecap:butt;stroke-linejoin:miter;stroke-opacity:1" d="M 446.608,395.538 446.608,411.014 z" id="boundary" inkscape:connector-curvature="0" />
	<path style="fill:none;stroke:red;stroke-width:1px;stroke-linecap:butt;stroke-linejoin:miter;stroke-opacity:1" d="M 446.608,395.538 445.061,380.062 z" id="boundary" inkscape:connector-curvature="0" />
	<path style="fill:none;stroke:red;stroke-width:1px;stroke-linecap:butt;stroke-linejoin:miter;stroke-opacity:1" d="M 452.799,426.49 446.608,411.014 z" id="boundary" inkscape:connector-curvature="0" />
	<path style="fill:none;stroke:red;stroke-width:1px;stroke-linecap:butt;stroke-linejoin:miter;stroke-opacity:1" d="M 423.395,288.755 431.133,302.683 z" id="boundary" inkscape:connector-curvature="0" />
	<path style="fill:none;stroke:red;stroke-width:1px;stroke-linecap:butt;stroke-linejoin:miter;stroke-opacity:1" d="M 537.916,349.111 545.654,363.039 z" id="boundary" inkscape:connector-curvature="0" />
	<path style="fill:none;stroke:red;stroke-width:1px;stroke-linecap:butt;stroke-linejoin:miter;stroke-opacity:1" d="M 537.916,349.111 537.916,333.635 z" id="boundary" inkscape:connector-curvature="0" />
	<path style="fill:none;stroke:red;stroke-width:1px;stroke-linecap:butt;stroke-linejoin:miter;stroke-opacity:1" d="M 553.392,376.967 545.654,363.039 z" id="boundary" inkscape:connector-curvature="0" />
	<path style="fill:none;stroke:red;stroke-width:1px;stroke-linecap:butt;stroke-linejoin:miter;stroke-opacity:1" d="M 545.654,318.159 537.916,333.635 z" id="boundary" inkscape:connector-curvature="0" />
	<path style="fill:none;stroke:red;stroke-width:1px;stroke-linecap:butt;stroke-linejoin:miter;stroke-opacity:1" d="M 545.654,318.159 553.392,294.945 z" id="boundary" inkscape:connector-curvature="0" />
	<path style="fill:none;stroke:red;stroke-width:1px;stroke-linecap:butt;stroke-linejoin:miter;stroke-opacity:1" d="M 553.392,376.967 558.034,392.443 z" id="boundary" inkscape:connector-curvature="0" />
	<path style="fill:none;stroke:red;stroke-width:1px;stroke-linecap:butt;stroke-linejoin:miter;stroke-opacity:1" d="M 565.772,406.371 558.034,392.443 z" id="boundary" inkscape:connector-curvature="0" />
	<path style="fill:none;stroke:red;stroke-width:1px;stroke-linecap:butt;stroke-linejoin:miter;stroke-opacity:1" d="M 576.605,435.775 568.867,421.847 z" id="boundary" inkscape:connector-curvature="0" />
	<path style="fill:none;stroke:red;stroke-width:1px;stroke-linecap:butt;stroke-linejoin:miter;stroke-opacity:1" d="M 568.867,421.847 565.772,406.371 z" id="boundary" inkscape:connector-curvature="0" />
	<path style="fill:none;stroke:red;stroke-width:1px;stroke-linecap:butt;stroke-linejoin:miter;stroke-opacity:1" d="M 452.799,426.49 454.346,441.966 z" id="boundary" inkscape:connector-curvature="0" />
	<path style="fill:none;stroke:red;stroke-width:1px;stroke-linecap:butt;stroke-linejoin:miter;stroke-opacity:1" d="M 576.605,435.775 578.153,451.251 z" id="boundary" inkscape:connector-curvature="0" />
	<path style="fill:none;stroke:red;stroke-width:1px;stroke-linecap:butt;stroke-linejoin:miter;stroke-opacity:1" d="M 669.46,24.1186 677.198,8.64275 z" id="boundary" inkscape:connector-curvature="0" />
	<path style="fill:none;stroke:red;stroke-width:1px;stroke-linecap:butt;stroke-linejoin:miter;stroke-opacity:1" d="M 705.055,13.2855 717.435,24.1186 z" id="boundary" inkscape:connector-curvature="0" />
	<path style="fill:none;stroke:red;stroke-width:1px;stroke-linecap:butt;stroke-linejoin:miter;stroke-opacity:1" d="M 705.055,13.2855 692.674,4 z" id="boundary" inkscape:connector-curvature="0" />
	<path style="fill:none;stroke:red;stroke-width:1px;stroke-linecap:butt;stroke-linejoin:miter;stroke-opacity:1" d="M 731.363,31.8565 717.435,24.1186 z" id="boundary" inkscape:connector-curvature="0" />
	<path style="fill:none;stroke:red;stroke-width:1px;stroke-linecap:butt;stroke-linejoin:miter;stroke-opacity:1" d="M 677.198,8.64275 692.674,4 z" id="boundary" inkscape:connector-curvature="0" />
	<path style="fill:none;stroke:red;stroke-width:1px;stroke-linecap:butt;stroke-linejoin:miter;stroke-opacity:1" d="M 661.722,47.3323 669.46,24.1186 z" id="boundary" inkscape:connector-curvature="0" />
	<path style="fill:none;stroke:red;stroke-width:1px;stroke-linecap:butt;stroke-linejoin:miter;stroke-opacity:1" d="M 638.509,101.498 646.246,78.2839 z" id="boundary" inkscape:connector-curvature="0" />
	<path style="fill:none;stroke:red;stroke-width:1px;stroke-linecap:butt;stroke-linejoin:miter;stroke-opacity:1" d="M 638.509,101.498 630.771,116.973 z" id="boundary" inkscape:connector-curvature="0" />
	<path style="fill:none;stroke:red;stroke-width:1px;stroke-linecap:butt;stroke-linejoin:miter;stroke-opacity:1" d="M 653.984,62.8081 661.722,47.3323 z" id="boundary" inkscape:connector-curvature="0" />
	<path style="fill:none;stroke:red;stroke-width:1px;stroke-linecap:butt;stroke-linejoin:miter;stroke-opacity:1" d="M 646.246,78.2839 653.984,62.8081 z" id="boundary" inkscape:connector-curvature="0" />
	<path style="fill:none;stroke:red;stroke-width:1px;stroke-linecap:butt;stroke-linejoin:miter;stroke-opacity:1" d="M 731.363,31.8565 743.744,42.6895 z" id="boundary" inkscape:connector-curvature="0" />
	<path style="fill:none;stroke:red;stroke-width:1px;stroke-linecap:butt;stroke-linejoin:miter;stroke-opacity:1" d="M 743.744,42.6895 754.577,55.0702 z" id="boundary" inkscape:connector-curvature="0" />
	<path style="fill:none;stroke:red;stroke-width:1px;stroke-linecap:butt;stroke-linejoin:miter;stroke-opacity:1" d="M 766.958,65.9033 780.886,73.6412 z" id="boundary" inkscape:connector-curvature="0" />
	<path style="fill:none;stroke:red;stroke-width:1px;stroke-linecap:butt;stroke-linejoin:miter;stroke-opacity:1" d="M 780.886,73.6412 793.267,84.4743 z" id="boundary" inkscape:connector-curvature="0" />
	<path style="fill:none;stroke:red;stroke-width:1px;stroke-linecap:butt;stroke-linejoin:miter;stroke-opacity:1" d="M 766.958,65.9033 754.577,55.0702 z" id="boundary" inkscape:connector-curvature="0" />
	<path style="fill:none;stroke:red;stroke-width:1px;stroke-linecap:butt;stroke-linejoin:miter;stroke-opacity:1" d="M 793.267,84.4743 802.552,96.8549 z" id="boundary" inkscape:connector-curvature="0" />
	<path style="fill:none;stroke:red;stroke-width:1px;stroke-linecap:butt;stroke-linejoin:miter;stroke-opacity:1" d="M 802.552,96.8549 814.933,106.14 z" id="boundary" inkscape:connector-curvature="0" />
	<path style="fill:none;stroke:red;stroke-width:1px;stroke-linecap:butt;stroke-linejoin:miter;stroke-opacity:1" d="M 814.933,106.14 825.766,118.521 z" id="boundary" inkscape:connector-curvature="0" />
	<path style="fill:none;stroke:red;stroke-width:1px;stroke-linecap:butt;stroke-linejoin:miter;stroke-opacity:1" d="M 825.766,118.521 841.242,124.711 z" id="boundary" inkscape:connector-curvature="0" />
	<path style="fill:none;stroke:red;stroke-width:1px;stroke-linecap:butt;stroke-linejoin:miter;stroke-opacity:1" d="M 841.242,124.711 852.075,137.092 z" id="boundary" inkscape:connector-curvature="0" />
	<path style="fill:none;stroke:red;stroke-width:1px;stroke-linecap:butt;stroke-linejoin:miter;stroke-opacity:1" d="M 864.456,147.925 852.075,137.092 z" id="boundary" inkscape:connector-curvature="0" />
	<path style="fill:none;stroke:red;stroke-width:1px;stroke-linecap:butt;stroke-linejoin:miter;stroke-opacity:1" d="M 875.289,160.306 864.456,147.925 z" id="boundary" inkscape:connector-curvature="0" />
	<path style="fill:none;stroke:red;stroke-width:1px;stroke-linecap:butt;stroke-linejoin:miter;stroke-opacity:1" d="M 890.764,166.496 875.289,160.306 z" id="boundary" inkscape:connector-curvature="0" />
	<path style="fill:none;stroke:red;stroke-width:1px;stroke-linecap:butt;stroke-linejoin:miter;stroke-opacity:1" d="M 913.978,189.71 901.598,178.877 z" id="boundary" inkscape:connector-curvature="0" />
	<path style="fill:none;stroke:red;stroke-width:1px;stroke-linecap:butt;stroke-linejoin:miter;stroke-opacity:1" d="M 901.598,178.877 890.764,166.496 z" id="boundary" inkscape:connector-curvature="0" />
	<path style="fill:none;stroke:red;stroke-width:1px;stroke-linecap:butt;stroke-linejoin:miter;stroke-opacity:1" d="M 913.978,189.71 924.811,202.09 z" id="boundary" inkscape:connector-curvature="0" />
	<path style="fill:none;stroke:red;stroke-width:1px;stroke-linecap:butt;stroke-linejoin:miter;stroke-opacity:1" d="M 937.192,212.924 924.811,202.09 z" id="boundary" inkscape:connector-curvature="0" />
	<path style="fill:none;stroke:red;stroke-width:1px;stroke-linecap:butt;stroke-linejoin:miter;stroke-opacity:1" d="M 951.12,220.661 937.192,212.924 z" id="boundary" inkscape:connector-curvature="0" />
	<path style="fill:none;stroke:red;stroke-width:1px;stroke-linecap:butt;stroke-linejoin:miter;stroke-opacity:1" d="M 963.501,231.495 951.12,220.661 z" id="boundary" inkscape:connector-curvature="0" />
	<path style="fill:none;stroke:red;stroke-width:1px;stroke-linecap:butt;stroke-linejoin:miter;stroke-opacity:1" d="M 963.501,231.495 972.786,243.875 z" id="boundary" inkscape:connector-curvature="0" />
	<path style="fill:none;stroke:red;stroke-width:1px;stroke-linecap:butt;stroke-linejoin:miter;stroke-opacity:1" d="M 972.786,243.875 985.167,253.161 z" id="boundary" inkscape:connector-curvature="0" />
	<path style="fill:none;stroke:red;stroke-width:1px;stroke-linecap:butt;stroke-linejoin:miter;stroke-opacity:1" d="M 996,265.541 996,281.017 z" id="boundary" inkscape:connector-curvature="0" />
	<path style="fill:none;stroke:red;stroke-width:1px;stroke-linecap:butt;stroke-linejoin:miter;stroke-opacity:1" d="M 985.167,253.161 996,265.541 z" id="boundary" inkscape:connector-curvature="0" />
	<path style="fill:none;stroke:red;stroke-width:1px;stroke-linecap:butt;stroke-linejoin:miter;stroke-opacity:1" d="M 996,281.017 996,296.493 z" id="boundary" inkscape:connector-curvature="0" />
	<path style="fill:none;stroke:red;stroke-width:1px;stroke-linecap:butt;stroke-linejoin:miter;stroke-opacity:1" d="M 972.786,400.181 972.786,384.705 z" id="boundary" inkscape:connector-curvature="0" />
	<path style="fill:none;stroke:red;stroke-width:1px;stroke-linecap:butt;stroke-linejoin:miter;stroke-opacity:1" d="M 972.786,384.705 980.524,369.229 z" id="boundary" inkscape:connector-curvature="0" />
	<path style="fill:none;stroke:red;stroke-width:1px;stroke-linecap:butt;stroke-linejoin:miter;stroke-opacity:1" d="M 980.524,353.754 980.524,369.229 z" id="boundary" inkscape:connector-curvature="0" />
	<path style="fill:none;stroke:red;stroke-width:1px;stroke-linecap:butt;stroke-linejoin:miter;stroke-opacity:1" d="M 972.786,400.181 965.048,415.657 z" id="boundary" inkscape:connector-curvature="0" />
	<path style="fill:none;stroke:red;stroke-width:1px;stroke-linecap:butt;stroke-linejoin:miter;stroke-opacity:1" d="M 988.262,330.54 996,311.969 z" id="boundary" inkscape:connector-curvature="0" />
	<path style="fill:none;stroke:red;stroke-width:1px;stroke-linecap:butt;stroke-linejoin:miter;stroke-opacity:1" d="M 980.524,353.754 988.262,330.54 z" id="boundary" inkscape:connector-curvature="0" />
	<path style="fill:none;stroke:red;stroke-width:1px;stroke-linecap:butt;stroke-linejoin:miter;stroke-opacity:1" d="M 996,296.493 996,311.969 z" id="boundary" inkscape:connector-curvature="0" />
	<path style="fill:none;stroke:red;stroke-width:1px;stroke-linecap:butt;stroke-linejoin:miter;stroke-opacity:1" d="M 965.048,415.657 957.31,438.871 z" id="boundary" inkscape:connector-curvature="0" />
	<path style="fill:none;stroke:red;stroke-width:1px;stroke-linecap:butt;stroke-linejoin:miter;stroke-opacity:1" d="M 462.084,455.894 466.727,471.37 z" id="boundary" inkscape:connector-curvature="0" />
	<path style="fill:none;stroke:red;stroke-width:1px;stroke-linecap:butt;stroke-linejoin:miter;stroke-opacity:1" d="M 462.084,455.894 454.346,441.966 z" id="boundary" inkscape:connector-curvature="0" />
	<path style="fill:none;stroke:red;stroke-width:1px;stroke-linecap:butt;stroke-linejoin:miter;stroke-opacity:1" d="M 485.298,514.702 474.465,502.321 z" id="boundary" inkscape:connector-curvature="0" />
	<path style="fill:none;stroke:red;stroke-width:1px;stroke-linecap:butt;stroke-linejoin:miter;stroke-opacity:1" d="M 474.465,502.321 469.822,486.846 z" id="boundary" inkscape:connector-curvature="0" />
	<path style="fill:none;stroke:red;stroke-width:1px;stroke-linecap:butt;stroke-linejoin:miter;stroke-opacity:1" d="M 466.727,471.37 469.822,486.846 z" id="boundary" inkscape:connector-curvature="0" />
	<path style="fill:none;stroke:red;stroke-width:1px;stroke-linecap:butt;stroke-linejoin:miter;stroke-opacity:1" d="M 485.298,514.702 485.298,530.178 z" id="boundary" inkscape:connector-curvature="0" />
	<path style="fill:none;stroke:red;stroke-width:1px;stroke-linecap:butt;stroke-linejoin:miter;stroke-opacity:1" d="M 493.036,544.106 485.298,530.178 z" id="boundary" inkscape:connector-curvature="0" />
	<path style="fill:none;stroke:red;stroke-width:1px;stroke-linecap:butt;stroke-linejoin:miter;stroke-opacity:1" d="M 511.607,570.415 500.774,558.034 z" id="boundary" inkscape:connector-curvature="0" />
	<path style="fill:none;stroke:red;stroke-width:1px;stroke-linecap:butt;stroke-linejoin:miter;stroke-opacity:1" d="M 500.774,558.034 493.036,544.106 z" id="boundary" inkscape:connector-curvature="0" />
	<path style="fill:none;stroke:red;stroke-width:1px;stroke-linecap:butt;stroke-linejoin:miter;stroke-opacity:1" d="M 585.891,465.179 578.153,451.251 z" id="boundary" inkscape:connector-curvature="0" />
	<path style="fill:none;stroke:red;stroke-width:1px;stroke-linecap:butt;stroke-linejoin:miter;stroke-opacity:1" d="M 592.081,480.655 592.081,496.131 z" id="boundary" inkscape:connector-curvature="0" />
	<path style="fill:none;stroke:red;stroke-width:1px;stroke-linecap:butt;stroke-linejoin:miter;stroke-opacity:1" d="M 585.891,465.179 592.081,480.655 z" id="boundary" inkscape:connector-curvature="0" />
	<path style="fill:none;stroke:red;stroke-width:1px;stroke-linecap:butt;stroke-linejoin:miter;stroke-opacity:1" d="M 592.081,511.607 592.081,496.131 z" id="boundary" inkscape:connector-curvature="0" />
	<path style="fill:none;stroke:red;stroke-width:1px;stroke-linecap:butt;stroke-linejoin:miter;stroke-opacity:1" d="M 584.343,534.821 592.081,511.607 z" id="boundary" inkscape:connector-curvature="0" />
	<path style="fill:none;stroke:red;stroke-width:1px;stroke-linecap:butt;stroke-linejoin:miter;stroke-opacity:1" d="M 573.51,576.605 565.772,592.081 z" id="boundary" inkscape:connector-curvature="0" />
	<path style="fill:none;stroke:red;stroke-width:1px;stroke-linecap:butt;stroke-linejoin:miter;stroke-opacity:1" d="M 534.821,593.629 523.988,581.248 z" id="boundary" inkscape:connector-curvature="0" />
	<path style="fill:none;stroke:red;stroke-width:1px;stroke-linecap:butt;stroke-linejoin:miter;stroke-opacity:1" d="M 581.248,561.129 573.51,576.605 z" id="boundary" inkscape:connector-curvature="0" />
	<path style="fill:none;stroke:red;stroke-width:1px;stroke-linecap:butt;stroke-linejoin:miter;stroke-opacity:1" d="M 523.988,581.248 511.607,570.415 z" id="boundary" inkscape:connector-curvature="0" />
	<path style="fill:none;stroke:red;stroke-width:1px;stroke-linecap:butt;stroke-linejoin:miter;stroke-opacity:1" d="M 581.248,561.129 584.343,534.821 z" id="boundary" inkscape:connector-curvature="0" />
	<path style="fill:none;stroke:red;stroke-width:1px;stroke-linecap:butt;stroke-linejoin:miter;stroke-opacity:1" d="M 550.296,599.819 565.772,592.081 z" id="boundary" inkscape:connector-curvature="0" />
	<path style="fill:none;stroke:red;stroke-width:1px;stroke-linecap:butt;stroke-linejoin:miter;stroke-opacity:1" d="M 372.324,903.145 356.849,903.145 z" id="boundary" inkscape:connector-curvature="0" />
	<path style="fill:none;stroke:red;stroke-width:1px;stroke-linecap:butt;stroke-linejoin:miter;stroke-opacity:1" d="M 403.276,903.145 387.8,903.145 z" id="boundary" inkscape:connector-curvature="0" />
	<path style="fill:none;stroke:red;stroke-width:1px;stroke-linecap:butt;stroke-linejoin:miter;stroke-opacity:1" d="M 418.752,903.145 403.276,903.145 z" id="boundary" inkscape:connector-curvature="0" />
	<path style="fill:none;stroke:red;stroke-width:1px;stroke-linecap:butt;stroke-linejoin:miter;stroke-opacity:1" d="M 387.8,903.145 372.324,903.145 z" id="boundary" inkscape:connector-curvature="0" />
	<path style="fill:none;stroke:red;stroke-width:1px;stroke-linecap:butt;stroke-linejoin:miter;stroke-opacity:1" d="M 449.704,903.145 434.228,903.145 z" id="boundary" inkscape:connector-curvature="0" />
	<path style="fill:none;stroke:red;stroke-width:1px;stroke-linecap:butt;stroke-linejoin:miter;stroke-opacity:1" d="M 480.655,903.145 465.179,903.145 z" id="boundary" inkscape:connector-curvature="0" />
	<path style="fill:none;stroke:red;stroke-width:1px;stroke-linecap:butt;stroke-linejoin:miter;stroke-opacity:1" d="M 496.131,903.145 480.655,903.145 z" id="boundary" inkscape:connector-curvature="0" />
	<path style="fill:none;stroke:red;stroke-width:1px;stroke-linecap:butt;stroke-linejoin:miter;stroke-opacity:1" d="M 465.179,903.145 449.704,903.145 z" id="boundary" inkscape:connector-curvature="0" />
	<path style="fill:none;stroke:red;stroke-width:1px;stroke-linecap:butt;stroke-linejoin:miter;stroke-opacity:1" d="M 434.228,903.145 418.752,903.145 z" id="boundary" inkscape:connector-curvature="0" />
	<path style="fill:none;stroke:red;stroke-width:1px;stroke-linecap:butt;stroke-linejoin:miter;stroke-opacity:1" d="M 550.296,599.819 534.821,593.629 z" id="boundary" inkscape:connector-curvature="0" />
	<path style="fill:none;stroke:red;stroke-width:1px;stroke-linecap:butt;stroke-linejoin:miter;stroke-opacity:1" d="M 606.009,814.933 598.271,830.409 z" id="boundary" inkscape:connector-curvature="0" />
	<path style="fill:none;stroke:red;stroke-width:1px;stroke-linecap:butt;stroke-linejoin:miter;stroke-opacity:1" d="M 598.271,830.409 585.891,841.242 z" id="boundary" inkscape:connector-curvature="0" />
	<path style="fill:none;stroke:red;stroke-width:1px;stroke-linecap:butt;stroke-linejoin:miter;stroke-opacity:1" d="M 585.891,841.242 570.415,848.98 z" id="boundary" inkscape:connector-curvature="0" />
	<path style="fill:none;stroke:red;stroke-width:1px;stroke-linecap:butt;stroke-linejoin:miter;stroke-opacity:1" d="M 609.105,794.814 606.009,814.933 z" id="boundary" inkscape:connector-curvature="0" />
	<path style="fill:none;stroke:red;stroke-width:1px;stroke-linecap:butt;stroke-linejoin:miter;stroke-opacity:1" d="M 527.083,903.145 511.607,903.145 z" id="boundary" inkscape:connector-curvature="0" />
	<path style="fill:none;stroke:red;stroke-width:1px;stroke-linecap:butt;stroke-linejoin:miter;stroke-opacity:1" d="M 542.559,903.145 527.083,903.145 z" id="boundary" inkscape:connector-curvature="0" />
	<path style="fill:none;stroke:red;stroke-width:1px;stroke-linecap:butt;stroke-linejoin:miter;stroke-opacity:1" d="M 562.677,872.193 570.415,848.98 z" id="boundary" inkscape:connector-curvature="0" />
	<path style="fill:none;stroke:red;stroke-width:1px;stroke-linecap:butt;stroke-linejoin:miter;stroke-opacity:1" d="M 562.677,872.193 558.034,901.598 z" id="boundary" inkscape:connector-curvature="0" />
	<path style="fill:none;stroke:red;stroke-width:1px;stroke-linecap:butt;stroke-linejoin:miter;stroke-opacity:1" d="M 558.034,901.598 542.559,903.145 z" id="boundary" inkscape:connector-curvature="0" />
	<path style="fill:none;stroke:red;stroke-width:1px;stroke-linecap:butt;stroke-linejoin:miter;stroke-opacity:1" d="M 511.607,903.145 496.131,903.145 z" id="boundary" inkscape:connector-curvature="0" />
	<path style="fill:none;stroke:red;stroke-width:1px;stroke-linecap:butt;stroke-linejoin:miter;stroke-opacity:1" d="M 892.312,667.913 876.836,675.651 z" id="boundary" inkscape:connector-curvature="0" />
	<path style="fill:none;stroke:red;stroke-width:1px;stroke-linecap:butt;stroke-linejoin:miter;stroke-opacity:1" d="M 903.145,655.532 903.145,640.056 z" id="boundary" inkscape:connector-curvature="0" />
	<path style="fill:none;stroke:red;stroke-width:1px;stroke-linecap:butt;stroke-linejoin:miter;stroke-opacity:1" d="M 903.145,640.056 910.883,624.58 z" id="boundary" inkscape:connector-curvature="0" />
	<path style="fill:none;stroke:red;stroke-width:1px;stroke-linecap:butt;stroke-linejoin:miter;stroke-opacity:1" d="M 910.883,609.105 910.883,624.58 z" id="boundary" inkscape:connector-curvature="0" />
	<path style="fill:none;stroke:red;stroke-width:1px;stroke-linecap:butt;stroke-linejoin:miter;stroke-opacity:1" d="M 903.145,655.532 892.312,667.913 z" id="boundary" inkscape:connector-curvature="0" />
	<path style="fill:none;stroke:red;stroke-width:1px;stroke-linecap:butt;stroke-linejoin:miter;stroke-opacity:1" d="M 845.885,691.126 861.36,683.388 z" id="boundary" inkscape:connector-curvature="0" />
	<path style="fill:none;stroke:red;stroke-width:1px;stroke-linecap:butt;stroke-linejoin:miter;stroke-opacity:1" d="M 677.198,692.674 669.46,678.746 z" id="boundary" inkscape:connector-curvature="0" />
	<path style="fill:none;stroke:red;stroke-width:1px;stroke-linecap:butt;stroke-linejoin:miter;stroke-opacity:1" d="M 861.36,683.388 876.836,675.651 z" id="boundary" inkscape:connector-curvature="0" />
	<path style="fill:none;stroke:red;stroke-width:1px;stroke-linecap:butt;stroke-linejoin:miter;stroke-opacity:1" d="M 949.573,469.822 949.573,485.298 z" id="boundary" inkscape:connector-curvature="0" />
	<path style="fill:none;stroke:red;stroke-width:1px;stroke-linecap:butt;stroke-linejoin:miter;stroke-opacity:1" d="M 949.573,485.298 941.835,500.774 z" id="boundary" inkscape:connector-curvature="0" />
	<path style="fill:none;stroke:red;stroke-width:1px;stroke-linecap:butt;stroke-linejoin:miter;stroke-opacity:1" d="M 949.573,469.822 957.31,454.346 z" id="boundary" inkscape:connector-curvature="0" />
	<path style="fill:none;stroke:red;stroke-width:1px;stroke-linecap:butt;stroke-linejoin:miter;stroke-opacity:1" d="M 957.31,438.871 957.31,454.346 z" id="boundary" inkscape:connector-curvature="0" />
	<path style="fill:none;stroke:red;stroke-width:1px;stroke-linecap:butt;stroke-linejoin:miter;stroke-opacity:1" d="M 941.835,500.774 934.097,523.988 z" id="boundary" inkscape:connector-curvature="0" />
	<path style="fill:none;stroke:red;stroke-width:1px;stroke-linecap:butt;stroke-linejoin:miter;stroke-opacity:1" d="M 910.883,609.105 918.621,593.629 z" id="boundary" inkscape:connector-curvature="0" />
	<path style="fill:none;stroke:red;stroke-width:1px;stroke-linecap:butt;stroke-linejoin:miter;stroke-opacity:1" d="M 918.621,578.153 918.621,593.629 z" id="boundary" inkscape:connector-curvature="0" />
	<path style="fill:none;stroke:red;stroke-width:1px;stroke-linecap:butt;stroke-linejoin:miter;stroke-opacity:1" d="M 918.621,578.153 926.359,554.939 z" id="boundary" inkscape:connector-curvature="0" />
	<path style="fill:none;stroke:red;stroke-width:1px;stroke-linecap:butt;stroke-linejoin:miter;stroke-opacity:1" d="M 934.097,523.988 934.097,539.463 z" id="boundary" inkscape:connector-curvature="0" />
	<path style="fill:none;stroke:red;stroke-width:1px;stroke-linecap:butt;stroke-linejoin:miter;stroke-opacity:1" d="M 934.097,539.463 926.359,554.939 z" id="boundary" inkscape:connector-curvature="0" />
	<path style="fill:none;stroke:red;stroke-width:1px;stroke-linecap:butt;stroke-linejoin:miter;stroke-opacity:1" d="M 640.056,709.697 647.794,694.222 z" id="boundary" inkscape:connector-curvature="0" />
	<path style="fill:none;stroke:red;stroke-width:1px;stroke-linecap:butt;stroke-linejoin:miter;stroke-opacity:1" d="M 688.031,722.078 680.293,708.15 z" id="boundary" inkscape:connector-curvature="0" />
	<path style="fill:none;stroke:red;stroke-width:1px;stroke-linecap:butt;stroke-linejoin:miter;stroke-opacity:1" d="M 680.293,708.15 677.198,692.674 z" id="boundary" inkscape:connector-curvature="0" />
	<path style="fill:none;stroke:red;stroke-width:1px;stroke-linecap:butt;stroke-linejoin:miter;stroke-opacity:1" d="M 632.318,725.173 640.056,709.697 z" id="boundary" inkscape:connector-curvature="0" />
	<path style="fill:none;stroke:red;stroke-width:1px;stroke-linecap:butt;stroke-linejoin:miter;stroke-opacity:1" d="M 621.485,783.981 609.105,794.814 z" id="boundary" inkscape:connector-curvature="0" />
	<path style="fill:none;stroke:red;stroke-width:1px;stroke-linecap:butt;stroke-linejoin:miter;stroke-opacity:1" d="M 624.58,763.863 621.485,783.981 z" id="boundary" inkscape:connector-curvature="0" />
	<path style="fill:none;stroke:red;stroke-width:1px;stroke-linecap:butt;stroke-linejoin:miter;stroke-opacity:1" d="M 624.58,748.387 632.318,725.173 z" id="boundary" inkscape:connector-curvature="0" />
	<path style="fill:none;stroke:red;stroke-width:1px;stroke-linecap:butt;stroke-linejoin:miter;stroke-opacity:1" d="M 624.58,763.863 624.58,748.387 z" id="boundary" inkscape:connector-curvature="0" />
	<path style="fill:none;stroke:red;stroke-width:1px;stroke-linecap:butt;stroke-linejoin:miter;stroke-opacity:1" d="M 688.031,722.078 692.674,737.554 z" id="boundary" inkscape:connector-curvature="0" />
	<path style="fill:none;stroke:red;stroke-width:1px;stroke-linecap:butt;stroke-linejoin:miter;stroke-opacity:1" d="M 787.076,717.435 773.148,725.173 z" id="boundary" inkscape:connector-curvature="0" />
	<path style="fill:none;stroke:red;stroke-width:1px;stroke-linecap:butt;stroke-linejoin:miter;stroke-opacity:1" d="M 773.148,725.173 757.672,725.173 z" id="boundary" inkscape:connector-curvature="0" />
	<path style="fill:none;stroke:red;stroke-width:1px;stroke-linecap:butt;stroke-linejoin:miter;stroke-opacity:1" d="M 801.005,709.697 814.933,701.959 z" id="boundary" inkscape:connector-curvature="0" />
	<path style="fill:none;stroke:red;stroke-width:1px;stroke-linecap:butt;stroke-linejoin:miter;stroke-opacity:1" d="M 814.933,701.959 830.409,698.864 z" id="boundary" inkscape:connector-curvature="0" />
	<path style="fill:none;stroke:red;stroke-width:1px;stroke-linecap:butt;stroke-linejoin:miter;stroke-opacity:1" d="M 787.076,717.435 801.005,709.697 z" id="boundary" inkscape:connector-curvature="0" />
	<path style="fill:none;stroke:red;stroke-width:1px;stroke-linecap:butt;stroke-linejoin:miter;stroke-opacity:1" d="M 757.672,725.173 743.744,732.911 z" id="boundary" inkscape:connector-curvature="0" />
	<path style="fill:none;stroke:red;stroke-width:1px;stroke-linecap:butt;stroke-linejoin:miter;stroke-opacity:1" d="M 715.888,748.387 700.412,751.482 z" id="boundary" inkscape:connector-curvature="0" />
	<path style="fill:none;stroke:red;stroke-width:1px;stroke-linecap:butt;stroke-linejoin:miter;stroke-opacity:1" d="M 700.412,751.482 692.674,737.554 z" id="boundary" inkscape:connector-curvature="0" />
	<path style="fill:none;stroke:red;stroke-width:1px;stroke-linecap:butt;stroke-linejoin:miter;stroke-opacity:1" d="M 729.816,740.649 715.888,748.387 z" id="boundary" inkscape:connector-curvature="0" />
	<path style="fill:none;stroke:red;stroke-width:1px;stroke-linecap:butt;stroke-linejoin:miter;stroke-opacity:1" d="M 729.816,740.649 743.744,732.911 z" id="boundary" inkscape:connector-curvature="0" />
	<path style="fill:none;stroke:red;stroke-width:1px;stroke-linecap:butt;stroke-linejoin:miter;stroke-opacity:1" d="M 845.885,691.126 830.409,698.864 z" id="boundary" inkscape:connector-curvature="0" />
	<circle cx="4" cy="403.276" r="4" fill="#0" id="circle0"/>
	<circle cx="4" cy="418.752" r="4" fill="#0" id="circle1"/>
	<circle cx="11.7379" cy="432.68" r="4" fill="#0" id="circle2"/>
	<circle cx="19.4758" cy="398.633" r="4" fill="#0" id="circle3"/>
	<circle cx="19.4758" cy="446.608" r="4" fill="#0" id="circle4"/>
	<circle cx="19.4758" cy="462.084" r="4" fill="#0" id="circle5"/>
	<circle cx="28.7613" cy="474.465" r="4" fill="#0" id="circle6"/>
	<circle cx="34.9516" cy="398.633" r="4" fill="#0" id="circle7"/>
	<circle cx="41.142" cy="485.298" r="4" fill="#0" id="circle8"/>
	<circle cx="47.3323" cy="500.774" r="4" fill="#0" id="circle9"/>
	<circle cx="50.4275" cy="279.47" r="4" fill="#0" id="circle10"/>
	<circle cx="50.4275" cy="401.729" r="4" fill="#0" id="circle11"/>
	<circle cx="58.1654" cy="256.256" r="4" fill="#0" id="circle12"/>
	<circle cx="58.1654" cy="293.398" r="4" fill="#0" id="circle13"/>
	<circle cx="58.1654" cy="308.874" r="4" fill="#0" id="circle14"/>
	<circle cx="58.1654" cy="513.154" r="4" fill="#0" id="circle15"/>
	<circle cx="59.7129" cy="414.109" r="4" fill="#0" id="circle16"/>
	<circle cx="65.9033" cy="322.802" r="4" fill="#0" id="circle17"/>
	<circle cx="65.9033" cy="527.083" r="4" fill="#0" id="circle18"/>
	<circle cx="73.6412" cy="240.78" r="4" fill="#0" id="circle19"/>
	<circle cx="73.6412" cy="541.011" r="4" fill="#0" id="circle20"/>
	<circle cx="75.1888" cy="335.183" r="4" fill="#0" id="circle21"/>
	<circle cx="75.1888" cy="418.752" r="4" fill="#0" id="circle22"/>
	<circle cx="81.3791" cy="350.658" r="4" fill="#0" id="circle23"/>
	<circle cx="81.3791" cy="434.228" r="4" fill="#0" id="circle24"/>
	<circle cx="81.3791" cy="554.939" r="4" fill="#0" id="circle25"/>
	<circle cx="86.0218" cy="570.415" r="4" fill="#0" id="circle26"/>
	<circle cx="89.117" cy="236.137" r="4" fill="#0" id="circle27"/>
	<circle cx="93.7598" cy="361.491" r="4" fill="#0" id="circle28"/>
	<circle cx="93.7598" cy="445.061" r="4" fill="#0" id="circle29"/>
	<circle cx="96.8549" cy="376.967" r="4" fill="#0" id="circle30"/>
	<circle cx="98.4025" cy="460.537" r="4" fill="#0" id="circle31"/>
	<circle cx="98.4025" cy="581.248" r="4" fill="#0" id="circle32"/>
	<circle cx="101.498" cy="245.423" r="4" fill="#0" id="circle33"/>
	<circle cx="104.593" cy="390.895" r="4" fill="#0" id="circle34"/>
	<circle cx="104.593" cy="596.724" r="4" fill="#0" id="circle35"/>
	<circle cx="106.14" cy="474.465" r="4" fill="#0" id="circle36"/>
	<circle cx="112.331" cy="404.824" r="4" fill="#0" id="circle37"/>
	<circle cx="112.331" cy="610.652" r="4" fill="#0" id="circle38"/>
	<circle cx="113.878" cy="256.256" r="4" fill="#0" id="circle39"/>
	<circle cx="113.878" cy="420.3" r="4" fill="#0" id="circle40"/>
	<circle cx="113.878" cy="488.393" r="4" fill="#0" id="circle41"/>
	<circle cx="121.616" cy="434.228" r="4" fill="#0" id="circle42"/>
	<circle cx="123.164" cy="623.033" r="4" fill="#0" id="circle43"/>
	<circle cx="124.711" cy="268.637" r="4" fill="#0" id="circle44"/>
	<circle cx="124.711" cy="500.774" r="4" fill="#0" id="circle45"/>
	<circle cx="127.807" cy="449.704" r="4" fill="#0" id="circle46"/>
	<circle cx="130.902" cy="636.961" r="4" fill="#0" id="circle47"/>
	<circle cx="132.449" cy="282.565" r="4" fill="#0" id="circle48"/>
	<circle cx="135.544" cy="463.632" r="4" fill="#0" id="circle49"/>
	<circle cx="137.092" cy="298.041" r="4" fill="#0" id="circle50"/>
	<circle cx="137.092" cy="511.607" r="4" fill="#0" id="circle51"/>
	<circle cx="137.092" cy="652.437" r="4" fill="#0" id="circle52"/>
	<circle cx="143.282" cy="477.56" r="4" fill="#0" id="circle53"/>
	<circle cx="143.282" cy="527.083" r="4" fill="#0" id="circle54"/>
	<circle cx="143.282" cy="667.913" r="4" fill="#0" id="circle55"/>
	<circle cx="144.83" cy="311.969" r="4" fill="#0" id="circle56"/>
	<circle cx="147.925" cy="493.036" r="4" fill="#0" id="circle57"/>
	<circle cx="151.02" cy="681.841" r="4" fill="#0" id="circle58"/>
	<circle cx="152.568" cy="325.897" r="4" fill="#0" id="circle59"/>
	<circle cx="155.663" cy="537.916" r="4" fill="#0" id="circle60"/>
	<circle cx="158.758" cy="341.373" r="4" fill="#0" id="circle61"/>
	<circle cx="158.758" cy="695.769" r="4" fill="#0" id="circle62"/>
	<circle cx="158.758" cy="711.245" r="4" fill="#0" id="circle63"/>
	<circle cx="160.306" cy="503.869" r="4" fill="#0" id="circle64"/>
	<circle cx="160.306" cy="553.392" r="4" fill="#0" id="circle65"/>
	<circle cx="166.496" cy="171.139" r="4" fill="#0" id="circle66"/>
	<circle cx="166.496" cy="186.615" r="4" fill="#0" id="circle67"/>
	<circle cx="166.496" cy="355.301" r="4" fill="#0" id="circle68"/>
	<circle cx="166.496" cy="519.345" r="4" fill="#0" id="circle69"/>
	<circle cx="166.496" cy="725.173" r="4" fill="#0" id="circle70"/>
	<circle cx="172.686" cy="370.777" r="4" fill="#0" id="circle71"/>
	<circle cx="172.686" cy="562.677" r="4" fill="#0" id="circle72"/>
	<circle cx="174.234" cy="200.543" r="4" fill="#0" id="circle73"/>
	<circle cx="174.234" cy="533.273" r="4" fill="#0" id="circle74"/>
	<circle cx="175.782" cy="737.554" r="4" fill="#0" id="circle75"/>
	<circle cx="178.877" cy="158.758" r="4" fill="#0" id="circle76"/>
	<circle cx="181.972" cy="214.471" r="4" fill="#0" id="circle77"/>
	<circle cx="181.972" cy="229.947" r="4" fill="#0" id="circle78"/>
	<circle cx="181.972" cy="547.201" r="4" fill="#0" id="circle79"/>
	<circle cx="181.972" cy="753.03" r="4" fill="#0" id="circle80"/>
	<circle cx="183.52" cy="383.158" r="4" fill="#0" id="circle81"/>
	<circle cx="183.52" cy="575.058" r="4" fill="#0" id="circle82"/>
	<circle cx="183.52" cy="768.505" r="4" fill="#0" id="circle83"/>
	<circle cx="189.71" cy="243.875" r="4" fill="#0" id="circle84"/>
	<circle cx="189.71" cy="783.981" r="4" fill="#0" id="circle85"/>
	<circle cx="191.257" cy="397.086" r="4" fill="#0" id="circle86"/>
	<circle cx="191.257" cy="799.457" r="4" fill="#0" id="circle87"/>
	<circle cx="192.805" cy="151.02" r="4" fill="#0" id="circle88"/>
	<circle cx="192.805" cy="259.351" r="4" fill="#0" id="circle89"/>
	<circle cx="197.448" cy="274.827" r="4" fill="#0" id="circle90"/>
	<circle cx="197.448" cy="814.933" r="4" fill="#0" id="circle91"/>
	<circle cx="198.995" cy="411.014" r="4" fill="#0" id="circle92"/>
	<circle cx="205.186" cy="288.755" r="4" fill="#0" id="circle93"/>
	<circle cx="205.186" cy="828.861" r="4" fill="#0" id="circle94"/>
	<circle cx="206.733" cy="304.231" r="4" fill="#0" id="circle95"/>
	<circle cx="208.281" cy="151.02" r="4" fill="#0" id="circle96"/>
	<circle cx="209.828" cy="423.395" r="4" fill="#0" id="circle97"/>
	<circle cx="212.924" cy="319.707" r="4" fill="#0" id="circle98"/>
	<circle cx="212.924" cy="335.183" r="4" fill="#0" id="circle99"/>
	<circle cx="212.924" cy="350.658" r="4" fill="#0" id="circle100"/>
	<circle cx="212.924" cy="842.789" r="4" fill="#0" id="circle101"/>
	<circle cx="214.471" cy="366.134" r="4" fill="#0" id="circle102"/>
	<circle cx="217.566" cy="437.323" r="4" fill="#0" id="circle103"/>
	<circle cx="220.661" cy="161.853" r="4" fill="#0" id="circle104"/>
	<circle cx="220.661" cy="381.61" r="4" fill="#0" id="circle105"/>
	<circle cx="220.661" cy="856.718" r="4" fill="#0" id="circle106"/>
	<circle cx="222.209" cy="452.799" r="4" fill="#0" id="circle107"/>
	<circle cx="228.399" cy="395.538" r="4" fill="#0" id="circle108"/>
	<circle cx="229.947" cy="869.098" r="4" fill="#0" id="circle109"/>
	<circle cx="234.59" cy="169.591" r="4" fill="#0" id="circle110"/>
	<circle cx="234.59" cy="462.084" r="4" fill="#0" id="circle111"/>
	<circle cx="236.137" cy="409.466" r="4" fill="#0" id="circle112"/>
	<circle cx="236.137" cy="424.942" r="4" fill="#0" id="circle113"/>
	<circle cx="242.328" cy="476.012" r="4" fill="#0" id="circle114"/>
	<circle cx="242.328" cy="879.931" r="4" fill="#0" id="circle115"/>
	<circle cx="243.875" cy="438.871" r="4" fill="#0" id="circle116"/>
	<circle cx="245.423" cy="181.972" r="4" fill="#0" id="circle117"/>
	<circle cx="245.423" cy="197.448" r="4" fill="#0" id="circle118"/>
	<circle cx="248.518" cy="454.346" r="4" fill="#0" id="circle119"/>
	<circle cx="251.613" cy="892.312" r="4" fill="#0" id="circle120"/>
	<circle cx="257.803" cy="206.733" r="4" fill="#0" id="circle121"/>
	<circle cx="263.994" cy="222.209" r="4" fill="#0" id="circle122"/>
	<circle cx="263.994" cy="903.145" r="4" fill="#0" id="circle123"/>
	<circle cx="268.637" cy="237.685" r="4" fill="#0" id="circle124"/>
	<circle cx="276.374" cy="251.613" r="4" fill="#0" id="circle125"/>
	<circle cx="276.374" cy="267.089" r="4" fill="#0" id="circle126"/>
	<circle cx="279.47" cy="903.145" r="4" fill="#0" id="circle127"/>
	<circle cx="284.112" cy="281.017" r="4" fill="#0" id="circle128"/>
	<circle cx="291.85" cy="294.945" r="4" fill="#0" id="circle129"/>
	<circle cx="294.945" cy="903.145" r="4" fill="#0" id="circle130"/>
	<circle cx="298.041" cy="310.421" r="4" fill="#0" id="circle131"/>
	<circle cx="299.588" cy="325.897" r="4" fill="#0" id="circle132"/>
	<circle cx="305.778" cy="341.373" r="4" fill="#0" id="circle133"/>
	<circle cx="307.326" cy="356.849" r="4" fill="#0" id="circle134"/>
	<circle cx="310.421" cy="903.145" r="4" fill="#0" id="circle135"/>
	<circle cx="313.516" cy="171.139" r="4" fill="#0" id="circle136"/>
	<circle cx="313.516" cy="186.615" r="4" fill="#0" id="circle137"/>
	<circle cx="315.064" cy="370.777" r="4" fill="#0" id="circle138"/>
	<circle cx="319.707" cy="386.253" r="4" fill="#0" id="circle139"/>
	<circle cx="321.254" cy="200.543" r="4" fill="#0" id="circle140"/>
	<circle cx="321.254" cy="216.019" r="4" fill="#0" id="circle141"/>
	<circle cx="321.254" cy="231.495" r="4" fill="#0" id="circle142"/>
	<circle cx="322.802" cy="401.729" r="4" fill="#0" id="circle143"/>
	<circle cx="325.897" cy="158.758" r="4" fill="#0" id="circle144"/>
	<circle cx="325.897" cy="903.145" r="4" fill="#0" id="circle145"/>
	<circle cx="327.445" cy="417.204" r="4" fill="#0" id="circle146"/>
	<circle cx="328.992" cy="245.423" r="4" fill="#0" id="circle147"/>
	<circle cx="330.54" cy="432.68" r="4" fill="#0" id="circle148"/>
	<circle cx="333.635" cy="260.899" r="4" fill="#0" id="circle149"/>
	<circle cx="335.183" cy="448.156" r="4" fill="#0" id="circle150"/>
	<circle cx="336.73" cy="276.374" r="4" fill="#0" id="circle151"/>
	<circle cx="336.73" cy="291.85" r="4" fill="#0" id="circle152"/>
	<circle cx="336.73" cy="307.326" r="4" fill="#0" id="circle153"/>
	<circle cx="336.73" cy="322.802" r="4" fill="#0" id="circle154"/>
	<circle cx="336.73" cy="338.278" r="4" fill="#0" id="circle155"/>
	<circle cx="339.825" cy="151.02" r="4" fill="#0" id="circle156"/>
	<circle cx="341.373" cy="903.145" r="4" fill="#0" id="circle157"/>
	<circle cx="344.468" cy="352.206" r="4" fill="#0" id="circle158"/>
	<circle cx="347.563" cy="367.682" r="4" fill="#0" id="circle159"/>
	<circle cx="350.658" cy="452.799" r="4" fill="#0" id="circle160"/>
	<circle cx="352.206" cy="383.158" r="4" fill="#0" id="circle161"/>
	<circle cx="353.754" cy="158.758" r="4" fill="#0" id="circle162"/>
	<circle cx="355.301" cy="398.633" r="4" fill="#0" id="circle163"/>
	<circle cx="356.849" cy="903.145" r="4" fill="#0" id="circle164"/>
	<circle cx="359.944" cy="414.109" r="4" fill="#0" id="circle165"/>
	<circle cx="359.944" cy="429.585" r="4" fill="#0" id="circle166"/>
	<circle cx="367.682" cy="166.496" r="4" fill="#0" id="circle167"/>
	<circle cx="372.324" cy="903.145" r="4" fill="#0" id="circle168"/>
	<circle cx="380.062" cy="175.782" r="4" fill="#0" id="circle169"/>
	<circle cx="387.8" cy="189.71" r="4" fill="#0" id="circle170"/>
	<circle cx="387.8" cy="903.145" r="4" fill="#0" id="circle171"/>
	<circle cx="392.443" cy="205.186" r="4" fill="#0" id="circle172"/>
	<circle cx="403.276" cy="903.145" r="4" fill="#0" id="circle173"/>
	<circle cx="404.824" cy="214.471" r="4" fill="#0" id="circle174"/>
	<circle cx="407.919" cy="229.947" r="4" fill="#0" id="circle175"/>
	<circle cx="415.657" cy="243.875" r="4" fill="#0" id="circle176"/>
	<circle cx="415.657" cy="259.351" r="4" fill="#0" id="circle177"/>
	<circle cx="415.657" cy="274.827" r="4" fill="#0" id="circle178"/>
	<circle cx="418.752" cy="903.145" r="4" fill="#0" id="circle179"/>
	<circle cx="423.395" cy="288.755" r="4" fill="#0" id="circle180"/>
	<circle cx="431.133" cy="302.683" r="4" fill="#0" id="circle181"/>
	<circle cx="431.133" cy="318.159" r="4" fill="#0" id="circle182"/>
	<circle cx="434.228" cy="903.145" r="4" fill="#0" id="circle183"/>
	<circle cx="437.323" cy="333.635" r="4" fill="#0" id="circle184"/>
	<circle cx="438.871" cy="349.111" r="4" fill="#0" id="circle185"/>
	<circle cx="438.871" cy="364.587" r="4" fill="#0" id="circle186"/>
	<circle cx="445.061" cy="380.062" r="4" fill="#0" id="circle187"/>
	<circle cx="446.608" cy="395.538" r="4" fill="#0" id="circle188"/>
	<circle cx="446.608" cy="411.014" r="4" fill="#0" id="circle189"/>
	<circle cx="449.704" cy="903.145" r="4" fill="#0" id="circle190"/>
	<circle cx="452.799" cy="426.49" r="4" fill="#0" id="circle191"/>
	<circle cx="454.346" cy="441.966" r="4" fill="#0" id="circle192"/>
	<circle cx="462.084" cy="455.894" r="4" fill="#0" id="circle193"/>
	<circle cx="465.179" cy="903.145" r="4" fill="#0" id="circle194"/>
	<circle cx="466.727" cy="471.37" r="4" fill="#0" id="circle195"/>
	<circle cx="469.822" cy="486.846" r="4" fill="#0" id="circle196"/>
	<circle cx="474.465" cy="502.321" r="4" fill="#0" id="circle197"/>
	<circle cx="480.655" cy="903.145" r="4" fill="#0" id="circle198"/>
	<circle cx="485.298" cy="514.702" r="4" fill="#0" id="circle199"/>
	<circle cx="485.298" cy="530.178" r="4" fill="#0" id="circle200"/>
	<circle cx="493.036" cy="544.106" r="4" fill="#0" id="circle201"/>
	<circle cx="496.131" cy="903.145" r="4" fill="#0" id="circle202"/>
	<circle cx="500.774" cy="558.034" r="4" fill="#0" id="circle203"/>
	<circle cx="511.607" cy="570.415" r="4" fill="#0" id="circle204"/>
	<circle cx="511.607" cy="903.145" r="4" fill="#0" id="circle205"/>
	<circle cx="523.988" cy="581.248" r="4" fill="#0" id="circle206"/>
	<circle cx="527.083" cy="903.145" r="4" fill="#0" id="circle207"/>
	<circle cx="534.821" cy="593.629" r="4" fill="#0" id="circle208"/>
	<circle cx="537.916" cy="333.635" r="4" fill="#0" id="circle209"/>
	<circle cx="537.916" cy="349.111" r="4" fill="#0" id="circle210"/>
	<circle cx="542.559" cy="903.145" r="4" fill="#0" id="circle211"/>
	<circle cx="545.654" cy="318.159" r="4" fill="#0" id="circle212"/>
	<circle cx="545.654" cy="363.039" r="4" fill="#0" id="circle213"/>
	<circle cx="550.296" cy="599.819" r="4" fill="#0" id="circle214"/>
	<circle cx="553.392" cy="294.945" r="4" fill="#0" id="circle215"/>
	<circle cx="553.392" cy="376.967" r="4" fill="#0" id="circle216"/>
	<circle cx="558.034" cy="392.443" r="4" fill="#0" id="circle217"/>
	<circle cx="558.034" cy="901.598" r="4" fill="#0" id="circle218"/>
	<circle cx="561.129" cy="279.47" r="4" fill="#0" id="circle219"/>
	<circle cx="562.677" cy="872.193" r="4" fill="#0" id="circle220"/>
	<circle cx="565.772" cy="406.371" r="4" fill="#0" id="circle221"/>
	<circle cx="565.772" cy="592.081" r="4" fill="#0" id="circle222"/>
	<circle cx="568.867" cy="263.994" r="4" fill="#0" id="circle223"/>
	<circle cx="568.867" cy="421.847" r="4" fill="#0" id="circle224"/>
	<circle cx="570.415" cy="848.98" r="4" fill="#0" id="circle225"/>
	<circle cx="573.51" cy="576.605" r="4" fill="#0" id="circle226"/>
	<circle cx="576.605" cy="240.78" r="4" fill="#0" id="circle227"/>
	<circle cx="576.605" cy="435.775" r="4" fill="#0" id="circle228"/>
	<circle cx="578.153" cy="451.251" r="4" fill="#0" id="circle229"/>
	<circle cx="581.248" cy="561.129" r="4" fill="#0" id="circle230"/>
	<circle cx="584.343" cy="225.304" r="4" fill="#0" id="circle231"/>
	<circle cx="584.343" cy="534.821" r="4" fill="#0" id="circle232"/>
	<circle cx="585.891" cy="465.179" r="4" fill="#0" id="circle233"/>
	<circle cx="585.891" cy="841.242" r="4" fill="#0" id="circle234"/>
	<circle cx="592.081" cy="209.828" r="4" fill="#0" id="circle235"/>
	<circle cx="592.081" cy="480.655" r="4" fill="#0" id="circle236"/>
	<circle cx="592.081" cy="496.131" r="4" fill="#0" id="circle237"/>
	<circle cx="592.081" cy="511.607" r="4" fill="#0" id="circle238"/>
	<circle cx="598.271" cy="830.409" r="4" fill="#0" id="circle239"/>
	<circle cx="599.819" cy="186.615" r="4" fill="#0" id="circle240"/>
	<circle cx="606.009" cy="814.933" r="4" fill="#0" id="circle241"/>
	<circle cx="607.557" cy="171.139" r="4" fill="#0" id="circle242"/>
	<circle cx="609.105" cy="794.814" r="4" fill="#0" id="circle243"/>
	<circle cx="615.295" cy="155.663" r="4" fill="#0" id="circle244"/>
	<circle cx="621.485" cy="783.981" r="4" fill="#0" id="circle245"/>
	<circle cx="623.033" cy="132.449" r="4" fill="#0" id="circle246"/>
	<circle cx="624.58" cy="748.387" r="4" fill="#0" id="circle247"/>
	<circle cx="624.58" cy="763.863" r="4" fill="#0" id="circle248"/>
	<circle cx="630.771" cy="116.973" r="4" fill="#0" id="circle249"/>
	<circle cx="632.318" cy="725.173" r="4" fill="#0" id="circle250"/>
	<circle cx="638.509" cy="101.498" r="4" fill="#0" id="circle251"/>
	<circle cx="640.056" cy="709.697" r="4" fill="#0" id="circle252"/>
	<circle cx="646.246" cy="78.2839" r="4" fill="#0" id="circle253"/>
	<circle cx="647.794" cy="694.222" r="4" fill="#0" id="circle254"/>
	<circle cx="653.984" cy="62.8081" r="4" fill="#0" id="circle255"/>
	<circle cx="655.532" cy="671.008" r="4" fill="#0" id="circle256"/>
	<circle cx="661.722" cy="47.3323" r="4" fill="#0" id="circle257"/>
	<circle cx="669.46" cy="24.1186" r="4" fill="#0" id="circle258"/>
	<circle cx="669.46" cy="663.27" r="4" fill="#0" id="circle259"/>
	<circle cx="669.46" cy="678.746" r="4" fill="#0" id="circle260"/>
	<circle cx="677.198" cy="8.64275" r="4" fill="#0" id="circle261"/>
	<circle cx="677.198" cy="692.674" r="4" fill="#0" id="circle262"/>
	<circle cx="680.293" cy="708.15" r="4" fill="#0" id="circle263"/>
	<circle cx="688.031" cy="722.078" r="4" fill="#0" id="circle264"/>
	<circle cx="692.674" cy="4" r="4" fill="#0" id="circle265"/>
	<circle cx="692.674" cy="737.554" r="4" fill="#0" id="circle266"/>
	<circle cx="700.412" cy="751.482" r="4" fill="#0" id="circle267"/>
	<circle cx="705.055" cy="13.2855" r="4" fill="#0" id="circle268"/>
	<circle cx="715.888" cy="748.387" r="4" fill="#0" id="circle269"/>
	<circle cx="717.435" cy="24.1186" r="4" fill="#0" id="circle270"/>
	<circle cx="729.816" cy="740.649" r="4" fill="#0" id="circle271"/>
	<circle cx="731.363" cy="31.8565" r="4" fill="#0" id="circle272"/>
	<circle cx="743.744" cy="42.6895" r="4" fill="#0" id="circle273"/>
	<circle cx="743.744" cy="732.911" r="4" fill="#0" id="circle274"/>
	<circle cx="754.577" cy="55.0702" r="4" fill="#0" id="circle275"/>
	<circle cx="757.672" cy="725.173" r="4" fill="#0" id="circle276"/>
	<circle cx="766.958" cy="65.9033" r="4" fill="#0" id="circle277"/>
	<circle cx="773.148" cy="725.173" r="4" fill="#0" id="circle278"/>
	<circle cx="780.886" cy="73.6412" r="4" fill="#0" id="circle279"/>
	<circle cx="787.076" cy="717.435" r="4" fill="#0" id="circle280"/>
	<circle cx="793.267" cy="84.4743" r="4" fill="#0" id="circle281"/>
	<circle cx="801.005" cy="709.697" r="4" fill="#0" id="circle282"/>
	<circle cx="802.552" cy="96.8549" r="4" fill="#0" id="circle283"/>
	<circle cx="814.933" cy="106.14" r="4" fill="#0" id="circle284"/>
	<circle cx="814.933" cy="701.959" r="4" fill="#0" id="circle285"/>
	<circle cx="825.766" cy="118.521" r="4" fill="#0" id="circle286"/>
	<circle cx="830.409" cy="698.864" r="4" fill="#0" id="circle287"/>
	<circle cx="841.242" cy="124.711" r="4" fill="#0" id="circle288"/>
	<circle cx="845.885" cy="691.126" r="4" fill="#0" id="circle289"/>
	<circle cx="852.075" cy="137.092" r="4" fill="#0" id="circle290"/>
	<circle cx="861.36" cy="683.388" r="4" fill="#0" id="circle291"/>
	<circle cx="864.456" cy="147.925" r="4" fill="#0" id="circle292"/>
	<circle cx="875.289" cy="160.306" r="4" fill="#0" id="circle293"/>
	<circle cx="876.836" cy="675.651" r="4" fill="#0" id="circle294"/>
	<circle cx="890.764" cy="166.496" r="4" fill="#0" id="circle295"/>
	<circle cx="892.312" cy="667.913" r="4" fill="#0" id="circle296"/>
	<circle cx="901.598" cy="178.877" r="4" fill="#0" id="circle297"/>
	<circle cx="903.145" cy="640.056" r="4" fill="#0" id="circle298"/>
	<circle cx="903.145" cy="655.532" r="4" fill="#0" id="circle299"/>
	<circle cx="910.883" cy="609.105" r="4" fill="#0" id="circle300"/>
	<circle cx="910.883" cy="624.58" r="4" fill="#0" id="circle301"/>
	<circle cx="913.978" cy="189.71" r="4" fill="#0" id="circle302"/>
	<circle cx="918.621" cy="578.153" r="4" fill="#0" id="circle303"/>
	<circle cx="918.621" cy="593.629" r="4" fill="#0" id="circle304"/>
	<circle cx="924.811" cy="202.09" r="4" fill="#0" id="circle305"/>
	<circle cx="926.359" cy="554.939" r="4" fill="#0" id="circle306"/>
	<circle cx="934.097" cy="523.988" r="4" fill="#0" id="circle307"/>
	<circle cx="934.097" cy="539.463" r="4" fill="#0" id="circle308"/>
	<circle cx="937.192" cy="212.924" r="4" fill="#0" id="circle309"/>
	<circle cx="941.835" cy="500.774" r="4" fill="#0" id="circle310"/>
	<circle cx="949.573" cy="469.822" r="4" fill="#0" id="circle311"/>
	<circle cx="949.573" cy="485.298" r="4" fill="#0" id="circle312"/>
	<circle cx="951.12" cy="220.661" r="4" fill="#0" id="circle313"/>
	<circle cx="957.31" cy="438.871" r="4" fill="#0" id="circle314"/>
	<circle cx="957.31" cy="454.346" r="4" fill="#0" id="circle315"/>
	<circle cx="963.501" cy="231.495" r="4" fill="#0" id="circle316"/>
	<circle cx="965.048" cy="415.657" r="4" fill="#0" id="circle317"/>
	<circle cx="972.786" cy="243.875" r="4" fill="#0" id="circle318"/>
	<circle cx="972.786" cy="384.705" r="4" fill="#0" id="circle319"/>
	<circle cx="972.786" cy="400.181" r="4" fill="#0" id="circle320"/>
	<circle cx="980.524" cy="353.754" r="4" fill="#0" id="circle321"/>
	<circle cx="980.524" cy="369.229" r="4" fill="#0" id="circle322"/>
	<circle cx="985.167" cy="253.161" r="4" fill="#0" id="circle323"/>
	<circle cx="988.262" cy="330.54" r="4" fill="#0" id="circle324"/>
	<circle cx="996" cy="265.541" r="4" fill="#0" id="circle325"/>
	<circle cx="996" cy="281.017" r="4" fill="#0" id="circle326"/>
	<circle cx="996" cy="296.493" r="4" fill="#0" id="circle327"/>
	<circle cx="996" cy="311.969" r="4" fill="#0" id="circle328"/>
	</g>
</svg>