<?xml version="1.0" encoding="UTF-8" standalone="no"?>
<!-- Created with CurveBenchmark -->
<svg
	xmlns:dc="http://purl.org/dc/elements/1.1/"
	xmlns:cc="http://creativecommons.org/ns#"
	xmlns:rdf="http://www.w3.org/1999/02/22-rdf-syntax-ns#"
	xmlns:svg="http://www.w3.org/2000/svg"
	xmlns="http://www.w3.org/2000/svg"
	xmlns:sodipodi="http://sodipodi.sourceforge.net/DTD/sodipodi-0.dtd"
	xmlns:inkscape="http://www.inkscape.org/namespaces/inkscape"
	width="1000"
	height="1000"
	id="svg2"
	version="1.1"
	sodipodi:docname="manifold/ccrust-hand2occ2.png.txt">
<defs
	id="defs4" />
<metadata
	id="metadata7">
	<rdf:RDF>
		<cc:Work
			rdf:about="">
			<dc:format>image/svg+xml</dc:format>
			<dc:type
				rdf:resource="http://purl.org/dc/dcmitype/StillImage" />
			<dc:title></dc:title>
		</cc:Work>
	</rdf:RDF>
</metadata>
<g
	inkscape:label="Layer 1"
	inkscape:groupmode="layer"
	id="layer1">
	<path style="fill:none;stroke:red;stroke-width:1px;stroke-linecap:butt;stroke-linejoin:miter;stroke-opacity:1" d="M 47.5088,112.772 25.7544,112.772 z" id="boundary" inkscape:connector-curvature="0" />
	<path style="fill:none;stroke:red;stroke-width:1px;stroke-linecap:butt;stroke-linejoin:miter;stroke-opacity:1" d="M 25.7544,112.772 4,119.298 z" id="boundary" inkscape:connector-curvature="0" />
	<path style="fill:none;stroke:red;stroke-width:1px;stroke-linecap:butt;stroke-linejoin:miter;stroke-opacity:1" d="M 4,141.053 4,119.298 z" id="boundary" inkscape:connector-curvature="0" />
	<path style="fill:none;stroke:red;stroke-width:1px;stroke-linecap:butt;stroke-linejoin:miter;stroke-opacity:1" d="M 69.2632,117.123 47.5088,112.772 z" id="boundary" inkscape:connector-curvature="0" />
	<path style="fill:none;stroke:red;stroke-width:1px;stroke-linecap:butt;stroke-linejoin:miter;stroke-opacity:1" d="M 69.2632,117.123 82.3158,134.526 z" id="boundary" inkscape:connector-curvature="0" />
	<path style="fill:none;stroke:red;stroke-width:1px;stroke-linecap:butt;stroke-linejoin:miter;stroke-opacity:1" d="M 112.772,54.0351 134.526,47.5088 z" id="boundary" inkscape:connector-curvature="0" />
	<path style="fill:none;stroke:red;stroke-width:1px;stroke-linecap:butt;stroke-linejoin:miter;stroke-opacity:1" d="M 134.526,47.5088 134.526,69.2632 z" id="boundary" inkscape:connector-curvature="0" />
	<path style="fill:none;stroke:red;stroke-width:1px;stroke-linecap:butt;stroke-linejoin:miter;stroke-opacity:1" d="M 156.281,43.1579 178.035,36.6316 z" id="boundary" inkscape:connector-curvature="0" />
	<path style="fill:none;stroke:red;stroke-width:1px;stroke-linecap:butt;stroke-linejoin:miter;stroke-opacity:1" d="M 156.281,43.1579 134.526,47.5088 z" id="boundary" inkscape:connector-curvature="0" />
	<path style="fill:none;stroke:red;stroke-width:1px;stroke-linecap:butt;stroke-linejoin:miter;stroke-opacity:1" d="M 199.789,36.6316 178.035,36.6316 z" id="boundary" inkscape:connector-curvature="0" />
	<path style="fill:none;stroke:red;stroke-width:1px;stroke-linecap:butt;stroke-linejoin:miter;stroke-opacity:1" d="M 138.877,91.0175 134.526,69.2632 z" id="boundary" inkscape:connector-curvature="0" />
	<path style="fill:none;stroke:red;stroke-width:1px;stroke-linecap:butt;stroke-linejoin:miter;stroke-opacity:1" d="M 149.754,110.596 138.877,91.0175 z" id="boundary" inkscape:connector-curvature="0" />
	<path style="fill:none;stroke:red;stroke-width:1px;stroke-linecap:butt;stroke-linejoin:miter;stroke-opacity:1" d="M 156.281,132.351 149.754,110.596 z" id="boundary" inkscape:connector-curvature="0" />
	<path style="fill:none;stroke:red;stroke-width:1px;stroke-linecap:butt;stroke-linejoin:miter;stroke-opacity:1" d="M 14.8772,160.632 4,141.053 z" id="boundary" inkscape:connector-curvature="0" />
	<path style="fill:none;stroke:red;stroke-width:1px;stroke-linecap:butt;stroke-linejoin:miter;stroke-opacity:1" d="M 104.07,141.053 82.3158,134.526 z" id="boundary" inkscape:connector-curvature="0" />
	<path style="fill:none;stroke:red;stroke-width:1px;stroke-linecap:butt;stroke-linejoin:miter;stroke-opacity:1" d="M 14.8772,160.632 25.7544,180.211 z" id="boundary" inkscape:connector-curvature="0" />
	<path style="fill:none;stroke:red;stroke-width:1px;stroke-linecap:butt;stroke-linejoin:miter;stroke-opacity:1" d="M 25.7544,180.211 25.7544,201.965 z" id="boundary" inkscape:connector-curvature="0" />
	<path style="fill:none;stroke:red;stroke-width:1px;stroke-linecap:butt;stroke-linejoin:miter;stroke-opacity:1" d="M 38.807,219.368 25.7544,201.965 z" id="boundary" inkscape:connector-curvature="0" />
	<path style="fill:none;stroke:red;stroke-width:1px;stroke-linecap:butt;stroke-linejoin:miter;stroke-opacity:1" d="M 104.07,141.053 112.772,162.807 z" id="boundary" inkscape:connector-curvature="0" />
	<path style="fill:none;stroke:red;stroke-width:1px;stroke-linecap:butt;stroke-linejoin:miter;stroke-opacity:1" d="M 130.175,178.035 112.772,162.807 z" id="boundary" inkscape:connector-curvature="0" />
	<path style="fill:none;stroke:red;stroke-width:1px;stroke-linecap:butt;stroke-linejoin:miter;stroke-opacity:1" d="M 167.158,151.93 156.281,132.351 z" id="boundary" inkscape:connector-curvature="0" />
	<path style="fill:none;stroke:red;stroke-width:1px;stroke-linecap:butt;stroke-linejoin:miter;stroke-opacity:1" d="M 130.175,178.035 136.702,199.789 z" id="boundary" inkscape:connector-curvature="0" />
	<path style="fill:none;stroke:red;stroke-width:1px;stroke-linecap:butt;stroke-linejoin:miter;stroke-opacity:1" d="M 178.035,171.509 188.912,191.088 z" id="boundary" inkscape:connector-curvature="0" />
	<path style="fill:none;stroke:red;stroke-width:1px;stroke-linecap:butt;stroke-linejoin:miter;stroke-opacity:1" d="M 167.158,151.93 178.035,171.509 z" id="boundary" inkscape:connector-curvature="0" />
	<path style="fill:none;stroke:red;stroke-width:1px;stroke-linecap:butt;stroke-linejoin:miter;stroke-opacity:1" d="M 147.579,219.368 136.702,199.789 z" id="boundary" inkscape:connector-curvature="0" />
	<path style="fill:none;stroke:red;stroke-width:1px;stroke-linecap:butt;stroke-linejoin:miter;stroke-opacity:1" d="M 234.596,58.386 221.544,40.9825 z" id="boundary" inkscape:connector-curvature="0" />
	<path style="fill:none;stroke:red;stroke-width:1px;stroke-linecap:butt;stroke-linejoin:miter;stroke-opacity:1" d="M 221.544,40.9825 199.789,36.6316 z" id="boundary" inkscape:connector-curvature="0" />
	<path style="fill:none;stroke:red;stroke-width:1px;stroke-linecap:butt;stroke-linejoin:miter;stroke-opacity:1" d="M 308.561,73.614 297.684,54.0351 z" id="boundary" inkscape:connector-curvature="0" />
	<path style="fill:none;stroke:red;stroke-width:1px;stroke-linecap:butt;stroke-linejoin:miter;stroke-opacity:1" d="M 297.684,32.2807 297.684,54.0351 z" id="boundary" inkscape:connector-curvature="0" />
	<path style="fill:none;stroke:red;stroke-width:1px;stroke-linecap:butt;stroke-linejoin:miter;stroke-opacity:1" d="M 245.474,77.9649 234.596,58.386 z" id="boundary" inkscape:connector-curvature="0" />
	<path style="fill:none;stroke:red;stroke-width:1px;stroke-linecap:butt;stroke-linejoin:miter;stroke-opacity:1" d="M 256.351,97.5439 245.474,77.9649 z" id="boundary" inkscape:connector-curvature="0" />
	<path style="fill:none;stroke:red;stroke-width:1px;stroke-linecap:butt;stroke-linejoin:miter;stroke-opacity:1" d="M 297.684,32.2807 319.439,25.7544 z" id="boundary" inkscape:connector-curvature="0" />
	<path style="fill:none;stroke:red;stroke-width:1px;stroke-linecap:butt;stroke-linejoin:miter;stroke-opacity:1" d="M 341.193,25.7544 362.947,25.7544 z" id="boundary" inkscape:connector-curvature="0" />
	<path style="fill:none;stroke:red;stroke-width:1px;stroke-linecap:butt;stroke-linejoin:miter;stroke-opacity:1" d="M 341.193,25.7544 319.439,25.7544 z" id="boundary" inkscape:connector-curvature="0" />
	<path style="fill:none;stroke:red;stroke-width:1px;stroke-linecap:butt;stroke-linejoin:miter;stroke-opacity:1" d="M 384.702,25.7544 406.456,25.7544 z" id="boundary" inkscape:connector-curvature="0" />
	<path style="fill:none;stroke:red;stroke-width:1px;stroke-linecap:butt;stroke-linejoin:miter;stroke-opacity:1" d="M 428.211,30.1053 430.386,51.8596 z" id="boundary" inkscape:connector-curvature="0" />
	<path style="fill:none;stroke:red;stroke-width:1px;stroke-linecap:butt;stroke-linejoin:miter;stroke-opacity:1" d="M 406.456,25.7544 428.211,30.1053 z" id="boundary" inkscape:connector-curvature="0" />
	<path style="fill:none;stroke:red;stroke-width:1px;stroke-linecap:butt;stroke-linejoin:miter;stroke-opacity:1" d="M 362.947,25.7544 384.702,25.7544 z" id="boundary" inkscape:connector-curvature="0" />
	<path style="fill:none;stroke:red;stroke-width:1px;stroke-linecap:butt;stroke-linejoin:miter;stroke-opacity:1" d="M 271.579,114.947 256.351,97.5439 z" id="boundary" inkscape:connector-curvature="0" />
	<path style="fill:none;stroke:red;stroke-width:1px;stroke-linecap:butt;stroke-linejoin:miter;stroke-opacity:1" d="M 308.561,73.614 308.561,95.3684 z" id="boundary" inkscape:connector-curvature="0" />
	<path style="fill:none;stroke:red;stroke-width:1px;stroke-linecap:butt;stroke-linejoin:miter;stroke-opacity:1" d="M 282.456,134.526 271.579,114.947 z" id="boundary" inkscape:connector-curvature="0" />
	<path style="fill:none;stroke:red;stroke-width:1px;stroke-linecap:butt;stroke-linejoin:miter;stroke-opacity:1" d="M 297.684,151.93 308.561,171.509 z" id="boundary" inkscape:connector-curvature="0" />
	<path style="fill:none;stroke:red;stroke-width:1px;stroke-linecap:butt;stroke-linejoin:miter;stroke-opacity:1" d="M 297.684,151.93 282.456,134.526 z" id="boundary" inkscape:connector-curvature="0" />
	<path style="fill:none;stroke:red;stroke-width:1px;stroke-linecap:butt;stroke-linejoin:miter;stroke-opacity:1" d="M 308.561,95.3684 319.439,114.947 z" id="boundary" inkscape:connector-curvature="0" />
	<path style="fill:none;stroke:red;stroke-width:1px;stroke-linecap:butt;stroke-linejoin:miter;stroke-opacity:1" d="M 330.316,134.526 334.667,156.281 z" id="boundary" inkscape:connector-curvature="0" />
	<path style="fill:none;stroke:red;stroke-width:1px;stroke-linecap:butt;stroke-linejoin:miter;stroke-opacity:1" d="M 330.316,134.526 319.439,114.947 z" id="boundary" inkscape:connector-curvature="0" />
	<path style="fill:none;stroke:red;stroke-width:1px;stroke-linecap:butt;stroke-linejoin:miter;stroke-opacity:1" d="M 334.667,156.281 341.193,178.035 z" id="boundary" inkscape:connector-curvature="0" />
	<path style="fill:none;stroke:red;stroke-width:1px;stroke-linecap:butt;stroke-linejoin:miter;stroke-opacity:1" d="M 308.561,171.509 317.263,193.263 z" id="boundary" inkscape:connector-curvature="0" />
	<path style="fill:none;stroke:red;stroke-width:1px;stroke-linecap:butt;stroke-linejoin:miter;stroke-opacity:1" d="M 332.491,210.667 317.263,193.263 z" id="boundary" inkscape:connector-curvature="0" />
	<path style="fill:none;stroke:red;stroke-width:1px;stroke-linecap:butt;stroke-linejoin:miter;stroke-opacity:1" d="M 341.193,178.035 352.07,197.614 z" id="boundary" inkscape:connector-curvature="0" />
	<path style="fill:none;stroke:red;stroke-width:1px;stroke-linecap:butt;stroke-linejoin:miter;stroke-opacity:1" d="M 352.07,221.544 332.491,210.667 z" id="boundary" inkscape:connector-curvature="0" />
	<path style="fill:none;stroke:red;stroke-width:1px;stroke-linecap:butt;stroke-linejoin:miter;stroke-opacity:1" d="M 56.2105,234.596 38.807,219.368 z" id="boundary" inkscape:connector-curvature="0" />
	<path style="fill:none;stroke:red;stroke-width:1px;stroke-linecap:butt;stroke-linejoin:miter;stroke-opacity:1" d="M 64.9123,256.351 56.2105,234.596 z" id="boundary" inkscape:connector-curvature="0" />
	<path style="fill:none;stroke:red;stroke-width:1px;stroke-linecap:butt;stroke-linejoin:miter;stroke-opacity:1" d="M 64.9123,256.351 80.1404,273.754 z" id="boundary" inkscape:connector-curvature="0" />
	<path style="fill:none;stroke:red;stroke-width:1px;stroke-linecap:butt;stroke-linejoin:miter;stroke-opacity:1" d="M 80.1404,273.754 91.0175,293.333 z" id="boundary" inkscape:connector-curvature="0" />
	<path style="fill:none;stroke:red;stroke-width:1px;stroke-linecap:butt;stroke-linejoin:miter;stroke-opacity:1" d="M 91.0175,293.333 101.895,312.912 z" id="boundary" inkscape:connector-curvature="0" />
	<path style="fill:none;stroke:red;stroke-width:1px;stroke-linecap:butt;stroke-linejoin:miter;stroke-opacity:1" d="M 147.579,219.368 158.456,238.947 z" id="boundary" inkscape:connector-curvature="0" />
	<path style="fill:none;stroke:red;stroke-width:1px;stroke-linecap:butt;stroke-linejoin:miter;stroke-opacity:1" d="M 188.912,212.842 199.789,232.421 z" id="boundary" inkscape:connector-curvature="0" />
	<path style="fill:none;stroke:red;stroke-width:1px;stroke-linecap:butt;stroke-linejoin:miter;stroke-opacity:1" d="M 212.842,249.825 199.789,232.421 z" id="boundary" inkscape:connector-curvature="0" />
	<path style="fill:none;stroke:red;stroke-width:1px;stroke-linecap:butt;stroke-linejoin:miter;stroke-opacity:1" d="M 173.684,256.351 158.456,238.947 z" id="boundary" inkscape:connector-curvature="0" />
	<path style="fill:none;stroke:red;stroke-width:1px;stroke-linecap:butt;stroke-linejoin:miter;stroke-opacity:1" d="M 212.842,249.825 191.088,271.579 z" id="boundary" inkscape:connector-curvature="0" />
	<path style="fill:none;stroke:red;stroke-width:1px;stroke-linecap:butt;stroke-linejoin:miter;stroke-opacity:1" d="M 191.088,271.579 173.684,256.351 z" id="boundary" inkscape:connector-curvature="0" />
	<path style="fill:none;stroke:red;stroke-width:1px;stroke-linecap:butt;stroke-linejoin:miter;stroke-opacity:1" d="M 199.789,293.333 191.088,271.579 z" id="boundary" inkscape:connector-curvature="0" />
	<path style="fill:none;stroke:red;stroke-width:1px;stroke-linecap:butt;stroke-linejoin:miter;stroke-opacity:1" d="M 188.912,212.842 188.912,191.088 z" id="boundary" inkscape:connector-curvature="0" />
	<path style="fill:none;stroke:red;stroke-width:1px;stroke-linecap:butt;stroke-linejoin:miter;stroke-opacity:1" d="M 143.228,365.123 125.825,349.895 z" id="boundary" inkscape:connector-curvature="0" />
	<path style="fill:none;stroke:red;stroke-width:1px;stroke-linecap:butt;stroke-linejoin:miter;stroke-opacity:1" d="M 125.825,349.895 112.772,332.491 z" id="boundary" inkscape:connector-curvature="0" />
	<path style="fill:none;stroke:red;stroke-width:1px;stroke-linecap:butt;stroke-linejoin:miter;stroke-opacity:1" d="M 101.895,312.912 112.772,332.491 z" id="boundary" inkscape:connector-curvature="0" />
	<path style="fill:none;stroke:red;stroke-width:1px;stroke-linecap:butt;stroke-linejoin:miter;stroke-opacity:1" d="M 162.807,406.456 151.93,386.877 z" id="boundary" inkscape:connector-curvature="0" />
	<path style="fill:none;stroke:red;stroke-width:1px;stroke-linecap:butt;stroke-linejoin:miter;stroke-opacity:1" d="M 151.93,386.877 143.228,365.123 z" id="boundary" inkscape:connector-curvature="0" />
	<path style="fill:none;stroke:red;stroke-width:1px;stroke-linecap:butt;stroke-linejoin:miter;stroke-opacity:1" d="M 178.035,423.86 162.807,406.456 z" id="boundary" inkscape:connector-curvature="0" />
	<path style="fill:none;stroke:red;stroke-width:1px;stroke-linecap:butt;stroke-linejoin:miter;stroke-opacity:1" d="M 217.193,308.561 199.789,293.333 z" id="boundary" inkscape:connector-curvature="0" />
	<path style="fill:none;stroke:red;stroke-width:1px;stroke-linecap:butt;stroke-linejoin:miter;stroke-opacity:1" d="M 188.912,443.439 178.035,423.86 z" id="boundary" inkscape:connector-curvature="0" />
	<path style="fill:none;stroke:red;stroke-width:1px;stroke-linecap:butt;stroke-linejoin:miter;stroke-opacity:1" d="M 188.912,443.439 199.789,463.018 z" id="boundary" inkscape:connector-curvature="0" />
	<path style="fill:none;stroke:red;stroke-width:1px;stroke-linecap:butt;stroke-linejoin:miter;stroke-opacity:1" d="M 199.789,463.018 199.789,484.772 z" id="boundary" inkscape:connector-curvature="0" />
	<path style="fill:none;stroke:red;stroke-width:1px;stroke-linecap:butt;stroke-linejoin:miter;stroke-opacity:1" d="M 210.667,504.351 199.789,484.772 z" id="boundary" inkscape:connector-curvature="0" />
	<path style="fill:none;stroke:red;stroke-width:1px;stroke-linecap:butt;stroke-linejoin:miter;stroke-opacity:1" d="M 217.193,308.561 223.719,330.316 z" id="boundary" inkscape:connector-curvature="0" />
	<path style="fill:none;stroke:red;stroke-width:1px;stroke-linecap:butt;stroke-linejoin:miter;stroke-opacity:1" d="M 212.842,249.825 228.07,267.228 z" id="boundary" inkscape:connector-curvature="0" />
	<path style="fill:none;stroke:red;stroke-width:1px;stroke-linecap:butt;stroke-linejoin:miter;stroke-opacity:1" d="M 232.421,288.982 245.474,306.386 z" id="boundary" inkscape:connector-curvature="0" />
	<path style="fill:none;stroke:red;stroke-width:1px;stroke-linecap:butt;stroke-linejoin:miter;stroke-opacity:1" d="M 228.07,267.228 232.421,288.982 z" id="boundary" inkscape:connector-curvature="0" />
	<path style="fill:none;stroke:red;stroke-width:1px;stroke-linecap:butt;stroke-linejoin:miter;stroke-opacity:1" d="M 243.298,341.193 262.877,352.07 z" id="boundary" inkscape:connector-curvature="0" />
	<path style="fill:none;stroke:red;stroke-width:1px;stroke-linecap:butt;stroke-linejoin:miter;stroke-opacity:1" d="M 234.596,565.263 223.719,545.684 z" id="boundary" inkscape:connector-curvature="0" />
	<path style="fill:none;stroke:red;stroke-width:1px;stroke-linecap:butt;stroke-linejoin:miter;stroke-opacity:1" d="M 223.719,545.684 221.544,523.93 z" id="boundary" inkscape:connector-curvature="0" />
	<path style="fill:none;stroke:red;stroke-width:1px;stroke-linecap:butt;stroke-linejoin:miter;stroke-opacity:1" d="M 249.825,582.667 234.596,565.263 z" id="boundary" inkscape:connector-curvature="0" />
	<path style="fill:none;stroke:red;stroke-width:1px;stroke-linecap:butt;stroke-linejoin:miter;stroke-opacity:1" d="M 210.667,504.351 221.544,523.93 z" id="boundary" inkscape:connector-curvature="0" />
	<path style="fill:none;stroke:red;stroke-width:1px;stroke-linecap:butt;stroke-linejoin:miter;stroke-opacity:1" d="M 223.719,330.316 243.298,341.193 z" id="boundary" inkscape:connector-curvature="0" />
	<path style="fill:none;stroke:red;stroke-width:1px;stroke-linecap:butt;stroke-linejoin:miter;stroke-opacity:1" d="M 249.825,582.667 254.175,604.421 z" id="boundary" inkscape:connector-curvature="0" />
	<path style="fill:none;stroke:red;stroke-width:1px;stroke-linecap:butt;stroke-linejoin:miter;stroke-opacity:1" d="M 260.702,626.175 254.175,604.421 z" id="boundary" inkscape:connector-curvature="0" />
	<path style="fill:none;stroke:red;stroke-width:1px;stroke-linecap:butt;stroke-linejoin:miter;stroke-opacity:1" d="M 265.053,647.93 260.702,626.175 z" id="boundary" inkscape:connector-curvature="0" />
	<path style="fill:none;stroke:red;stroke-width:1px;stroke-linecap:butt;stroke-linejoin:miter;stroke-opacity:1" d="M 265.053,647.93 271.579,669.684 z" id="boundary" inkscape:connector-curvature="0" />
	<path style="fill:none;stroke:red;stroke-width:1px;stroke-linecap:butt;stroke-linejoin:miter;stroke-opacity:1" d="M 271.579,669.684 275.93,691.439 z" id="boundary" inkscape:connector-curvature="0" />
	<path style="fill:none;stroke:red;stroke-width:1px;stroke-linecap:butt;stroke-linejoin:miter;stroke-opacity:1" d="M 299.86,728.421 288.982,708.842 z" id="boundary" inkscape:connector-curvature="0" />
	<path style="fill:none;stroke:red;stroke-width:1px;stroke-linecap:butt;stroke-linejoin:miter;stroke-opacity:1" d="M 288.982,708.842 275.93,691.439 z" id="boundary" inkscape:connector-curvature="0" />
	<path style="fill:none;stroke:red;stroke-width:1px;stroke-linecap:butt;stroke-linejoin:miter;stroke-opacity:1" d="M 299.86,728.421 308.561,750.175 z" id="boundary" inkscape:connector-curvature="0" />
	<path style="fill:none;stroke:red;stroke-width:1px;stroke-linecap:butt;stroke-linejoin:miter;stroke-opacity:1" d="M 460.842,811.088 439.088,811.088 z" id="boundary" inkscape:connector-curvature="0" />
	<path style="fill:none;stroke:red;stroke-width:1px;stroke-linecap:butt;stroke-linejoin:miter;stroke-opacity:1" d="M 325.965,765.404 308.561,750.175 z" id="boundary" inkscape:connector-curvature="0" />
	<path style="fill:none;stroke:red;stroke-width:1px;stroke-linecap:butt;stroke-linejoin:miter;stroke-opacity:1" d="M 325.965,765.404 341.193,782.807 z" id="boundary" inkscape:connector-curvature="0" />
	<path style="fill:none;stroke:red;stroke-width:1px;stroke-linecap:butt;stroke-linejoin:miter;stroke-opacity:1" d="M 341.193,782.807 352.07,802.386 z" id="boundary" inkscape:connector-curvature="0" />
	<path style="fill:none;stroke:red;stroke-width:1px;stroke-linecap:butt;stroke-linejoin:miter;stroke-opacity:1" d="M 373.825,811.088 352.07,802.386 z" id="boundary" inkscape:connector-curvature="0" />
	<path style="fill:none;stroke:red;stroke-width:1px;stroke-linecap:butt;stroke-linejoin:miter;stroke-opacity:1" d="M 395.579,811.088 373.825,811.088 z" id="boundary" inkscape:connector-curvature="0" />
	<path style="fill:none;stroke:red;stroke-width:1px;stroke-linecap:butt;stroke-linejoin:miter;stroke-opacity:1" d="M 439.088,811.088 417.333,811.088 z" id="boundary" inkscape:connector-curvature="0" />
	<path style="fill:none;stroke:red;stroke-width:1px;stroke-linecap:butt;stroke-linejoin:miter;stroke-opacity:1" d="M 417.333,811.088 395.579,811.088 z" id="boundary" inkscape:connector-curvature="0" />
	<path style="fill:none;stroke:red;stroke-width:1px;stroke-linecap:butt;stroke-linejoin:miter;stroke-opacity:1" d="M 430.386,51.8596 441.263,71.4386 z" id="boundary" inkscape:connector-curvature="0" />
	<path style="fill:none;stroke:red;stroke-width:1px;stroke-linecap:butt;stroke-linejoin:miter;stroke-opacity:1" d="M 493.474,14.8772 515.228,14.8772 z" id="boundary" inkscape:connector-curvature="0" />
	<path style="fill:none;stroke:red;stroke-width:1px;stroke-linecap:butt;stroke-linejoin:miter;stroke-opacity:1" d="M 536.982,14.8772 515.228,14.8772 z" id="boundary" inkscape:connector-curvature="0" />
	<path style="fill:none;stroke:red;stroke-width:1px;stroke-linecap:butt;stroke-linejoin:miter;stroke-opacity:1" d="M 556.561,4 536.982,14.8772 z" id="boundary" inkscape:connector-curvature="0" />
	<path style="fill:none;stroke:red;stroke-width:1px;stroke-linecap:butt;stroke-linejoin:miter;stroke-opacity:1" d="M 493.474,82.3158 482.596,62.7368 z" id="boundary" inkscape:connector-curvature="0" />
	<path style="fill:none;stroke:red;stroke-width:1px;stroke-linecap:butt;stroke-linejoin:miter;stroke-opacity:1" d="M 482.596,40.9825 471.719,21.4035 z" id="boundary" inkscape:connector-curvature="0" />
	<path style="fill:none;stroke:red;stroke-width:1px;stroke-linecap:butt;stroke-linejoin:miter;stroke-opacity:1" d="M 471.719,21.4035 493.474,14.8772 z" id="boundary" inkscape:connector-curvature="0" />
	<path style="fill:none;stroke:red;stroke-width:1px;stroke-linecap:butt;stroke-linejoin:miter;stroke-opacity:1" d="M 482.596,62.7368 482.596,40.9825 z" id="boundary" inkscape:connector-curvature="0" />
	<path style="fill:none;stroke:red;stroke-width:1px;stroke-linecap:butt;stroke-linejoin:miter;stroke-opacity:1" d="M 578.316,4 600.07,6.17544 z" id="boundary" inkscape:connector-curvature="0" />
	<path style="fill:none;stroke:red;stroke-width:1px;stroke-linecap:butt;stroke-linejoin:miter;stroke-opacity:1" d="M 600.07,6.17544 615.298,23.5789 z" id="boundary" inkscape:connector-curvature="0" />
	<path style="fill:none;stroke:red;stroke-width:1px;stroke-linecap:butt;stroke-linejoin:miter;stroke-opacity:1" d="M 615.298,23.5789 615.298,45.3333 z" id="boundary" inkscape:connector-curvature="0" />
	<path style="fill:none;stroke:red;stroke-width:1px;stroke-linecap:butt;stroke-linejoin:miter;stroke-opacity:1" d="M 615.298,67.0877 615.298,45.3333 z" id="boundary" inkscape:connector-curvature="0" />
	<path style="fill:none;stroke:red;stroke-width:1px;stroke-linecap:butt;stroke-linejoin:miter;stroke-opacity:1" d="M 626.175,86.6667 615.298,67.0877 z" id="boundary" inkscape:connector-curvature="0" />
	<path style="fill:none;stroke:red;stroke-width:1px;stroke-linecap:butt;stroke-linejoin:miter;stroke-opacity:1" d="M 556.561,4 578.316,4 z" id="boundary" inkscape:connector-curvature="0" />
	<path style="fill:none;stroke:red;stroke-width:1px;stroke-linecap:butt;stroke-linejoin:miter;stroke-opacity:1" d="M 452.14,114.947 445.614,93.193 z" id="boundary" inkscape:connector-curvature="0" />
	<path style="fill:none;stroke:red;stroke-width:1px;stroke-linecap:butt;stroke-linejoin:miter;stroke-opacity:1" d="M 445.614,93.193 441.263,71.4386 z" id="boundary" inkscape:connector-curvature="0" />
	<path style="fill:none;stroke:red;stroke-width:1px;stroke-linecap:butt;stroke-linejoin:miter;stroke-opacity:1" d="M 452.14,114.947 456.491,136.702 z" id="boundary" inkscape:connector-curvature="0" />
	<path style="fill:none;stroke:red;stroke-width:1px;stroke-linecap:butt;stroke-linejoin:miter;stroke-opacity:1" d="M 463.018,158.456 467.368,180.211 z" id="boundary" inkscape:connector-curvature="0" />
	<path style="fill:none;stroke:red;stroke-width:1px;stroke-linecap:butt;stroke-linejoin:miter;stroke-opacity:1" d="M 463.018,158.456 456.491,136.702 z" id="boundary" inkscape:connector-curvature="0" />
	<path style="fill:none;stroke:red;stroke-width:1px;stroke-linecap:butt;stroke-linejoin:miter;stroke-opacity:1" d="M 467.368,180.211 489.123,188.912 z" id="boundary" inkscape:connector-curvature="0" />
	<path style="fill:none;stroke:red;stroke-width:1px;stroke-linecap:butt;stroke-linejoin:miter;stroke-opacity:1" d="M 493.474,104.07 493.474,82.3158 z" id="boundary" inkscape:connector-curvature="0" />
	<path style="fill:none;stroke:red;stroke-width:1px;stroke-linecap:butt;stroke-linejoin:miter;stroke-opacity:1" d="M 504.351,123.649 493.474,104.07 z" id="boundary" inkscape:connector-curvature="0" />
	<path style="fill:none;stroke:red;stroke-width:1px;stroke-linecap:butt;stroke-linejoin:miter;stroke-opacity:1" d="M 504.351,145.404 504.351,167.158 z" id="boundary" inkscape:connector-curvature="0" />
	<path style="fill:none;stroke:red;stroke-width:1px;stroke-linecap:butt;stroke-linejoin:miter;stroke-opacity:1" d="M 504.351,123.649 504.351,145.404 z" id="boundary" inkscape:connector-curvature="0" />
	<path style="fill:none;stroke:red;stroke-width:1px;stroke-linecap:butt;stroke-linejoin:miter;stroke-opacity:1" d="M 504.351,167.158 489.123,188.912 z" id="boundary" inkscape:connector-curvature="0" />
	<path style="fill:none;stroke:red;stroke-width:1px;stroke-linecap:butt;stroke-linejoin:miter;stroke-opacity:1" d="M 626.175,86.6667 626.175,108.421 z" id="boundary" inkscape:connector-curvature="0" />
	<path style="fill:none;stroke:red;stroke-width:1px;stroke-linecap:butt;stroke-linejoin:miter;stroke-opacity:1" d="M 902.456,101.895 885.053,119.298 z" id="boundary" inkscape:connector-curvature="0" />
	<path style="fill:none;stroke:red;stroke-width:1px;stroke-linecap:butt;stroke-linejoin:miter;stroke-opacity:1" d="M 869.825,145.404 885.053,119.298 z" id="boundary" inkscape:connector-curvature="0" />
	<path style="fill:none;stroke:red;stroke-width:1px;stroke-linecap:butt;stroke-linejoin:miter;stroke-opacity:1" d="M 634.877,151.93 626.175,130.175 z" id="boundary" inkscape:connector-curvature="0" />
	<path style="fill:none;stroke:red;stroke-width:1px;stroke-linecap:butt;stroke-linejoin:miter;stroke-opacity:1" d="M 626.175,130.175 626.175,108.421 z" id="boundary" inkscape:connector-curvature="0" />
	<path style="fill:none;stroke:red;stroke-width:1px;stroke-linecap:butt;stroke-linejoin:miter;stroke-opacity:1" d="M 869.825,145.404 852.421,162.807 z" id="boundary" inkscape:connector-curvature="0" />
	<path style="fill:none;stroke:red;stroke-width:1px;stroke-linecap:butt;stroke-linejoin:miter;stroke-opacity:1" d="M 634.877,151.93 637.053,173.684 z" id="boundary" inkscape:connector-curvature="0" />
	<path style="fill:none;stroke:red;stroke-width:1px;stroke-linecap:butt;stroke-linejoin:miter;stroke-opacity:1" d="M 922.035,91.0175 941.614,80.1404 z" id="boundary" inkscape:connector-curvature="0" />
	<path style="fill:none;stroke:red;stroke-width:1px;stroke-linecap:butt;stroke-linejoin:miter;stroke-opacity:1" d="M 922.035,91.0175 902.456,101.895 z" id="boundary" inkscape:connector-curvature="0" />
	<path style="fill:none;stroke:red;stroke-width:1px;stroke-linecap:butt;stroke-linejoin:miter;stroke-opacity:1" d="M 963.368,80.1404 941.614,80.1404 z" id="boundary" inkscape:connector-curvature="0" />
	<path style="fill:none;stroke:red;stroke-width:1px;stroke-linecap:butt;stroke-linejoin:miter;stroke-opacity:1" d="M 963.368,80.1404 980.772,93.193 z" id="boundary" inkscape:connector-curvature="0" />
	<path style="fill:none;stroke:red;stroke-width:1px;stroke-linecap:butt;stroke-linejoin:miter;stroke-opacity:1" d="M 991.649,143.228 974.246,158.456 z" id="boundary" inkscape:connector-curvature="0" />
	<path style="fill:none;stroke:red;stroke-width:1px;stroke-linecap:butt;stroke-linejoin:miter;stroke-opacity:1" d="M 996,110.596 991.649,143.228 z" id="boundary" inkscape:connector-curvature="0" />
	<path style="fill:none;stroke:red;stroke-width:1px;stroke-linecap:butt;stroke-linejoin:miter;stroke-opacity:1" d="M 980.772,93.193 996,110.596 z" id="boundary" inkscape:connector-curvature="0" />
	<path style="fill:none;stroke:red;stroke-width:1px;stroke-linecap:butt;stroke-linejoin:miter;stroke-opacity:1" d="M 974.246,180.211 974.246,158.456 z" id="boundary" inkscape:connector-curvature="0" />
	<path style="fill:none;stroke:red;stroke-width:1px;stroke-linecap:butt;stroke-linejoin:miter;stroke-opacity:1" d="M 647.93,193.263 637.053,173.684 z" id="boundary" inkscape:connector-curvature="0" />
	<path style="fill:none;stroke:red;stroke-width:1px;stroke-linecap:butt;stroke-linejoin:miter;stroke-opacity:1" d="M 654.456,215.018 647.93,193.263 z" id="boundary" inkscape:connector-curvature="0" />
	<path style="fill:none;stroke:red;stroke-width:1px;stroke-linecap:butt;stroke-linejoin:miter;stroke-opacity:1" d="M 658.807,236.772 654.456,215.018 z" id="boundary" inkscape:connector-curvature="0" />
	<path style="fill:none;stroke:red;stroke-width:1px;stroke-linecap:butt;stroke-linejoin:miter;stroke-opacity:1" d="M 841.544,184.561 841.544,206.316 z" id="boundary" inkscape:connector-curvature="0" />
	<path style="fill:none;stroke:red;stroke-width:1px;stroke-linecap:butt;stroke-linejoin:miter;stroke-opacity:1" d="M 974.246,180.211 974.246,201.965 z" id="boundary" inkscape:connector-curvature="0" />
	<path style="fill:none;stroke:red;stroke-width:1px;stroke-linecap:butt;stroke-linejoin:miter;stroke-opacity:1" d="M 841.544,206.316 841.544,228.07 z" id="boundary" inkscape:connector-curvature="0" />
	<path style="fill:none;stroke:red;stroke-width:1px;stroke-linecap:butt;stroke-linejoin:miter;stroke-opacity:1" d="M 841.544,228.07 830.667,249.825 z" id="boundary" inkscape:connector-curvature="0" />
	<path style="fill:none;stroke:red;stroke-width:1px;stroke-linecap:butt;stroke-linejoin:miter;stroke-opacity:1" d="M 974.246,223.719 974.246,245.474 z" id="boundary" inkscape:connector-curvature="0" />
	<path style="fill:none;stroke:red;stroke-width:1px;stroke-linecap:butt;stroke-linejoin:miter;stroke-opacity:1" d="M 974.246,201.965 974.246,223.719 z" id="boundary" inkscape:connector-curvature="0" />
	<path style="fill:none;stroke:red;stroke-width:1px;stroke-linecap:butt;stroke-linejoin:miter;stroke-opacity:1" d="M 830.667,271.579 830.667,249.825 z" id="boundary" inkscape:connector-curvature="0" />
	<path style="fill:none;stroke:red;stroke-width:1px;stroke-linecap:butt;stroke-linejoin:miter;stroke-opacity:1" d="M 841.544,184.561 852.421,162.807 z" id="boundary" inkscape:connector-curvature="0" />
	<path style="fill:none;stroke:red;stroke-width:1px;stroke-linecap:butt;stroke-linejoin:miter;stroke-opacity:1" d="M 969.895,284.632 974.246,245.474 z" id="boundary" inkscape:connector-curvature="0" />
	<path style="fill:none;stroke:red;stroke-width:1px;stroke-linecap:butt;stroke-linejoin:miter;stroke-opacity:1" d="M 658.807,236.772 665.333,258.526 z" id="boundary" inkscape:connector-curvature="0" />
	<path style="fill:none;stroke:red;stroke-width:1px;stroke-linecap:butt;stroke-linejoin:miter;stroke-opacity:1" d="M 665.333,258.526 680.561,275.93 z" id="boundary" inkscape:connector-curvature="0" />
	<path style="fill:none;stroke:red;stroke-width:1px;stroke-linecap:butt;stroke-linejoin:miter;stroke-opacity:1" d="M 680.561,275.93 680.561,297.684 z" id="boundary" inkscape:connector-curvature="0" />
	<path style="fill:none;stroke:red;stroke-width:1px;stroke-linecap:butt;stroke-linejoin:miter;stroke-opacity:1" d="M 691.439,317.263 680.561,297.684 z" id="boundary" inkscape:connector-curvature="0" />
	<path style="fill:none;stroke:red;stroke-width:1px;stroke-linecap:butt;stroke-linejoin:miter;stroke-opacity:1" d="M 482.596,811.088 460.842,811.088 z" id="boundary" inkscape:connector-curvature="0" />
	<path style="fill:none;stroke:red;stroke-width:1px;stroke-linecap:butt;stroke-linejoin:miter;stroke-opacity:1" d="M 691.439,317.263 702.316,336.842 z" id="boundary" inkscape:connector-curvature="0" />
	<path style="fill:none;stroke:red;stroke-width:1px;stroke-linecap:butt;stroke-linejoin:miter;stroke-opacity:1" d="M 702.316,336.842 721.895,347.719 z" id="boundary" inkscape:connector-curvature="0" />
	<path style="fill:none;stroke:red;stroke-width:1px;stroke-linecap:butt;stroke-linejoin:miter;stroke-opacity:1" d="M 721.895,347.719 739.298,362.947 z" id="boundary" inkscape:connector-curvature="0" />
	<path style="fill:none;stroke:red;stroke-width:1px;stroke-linecap:butt;stroke-linejoin:miter;stroke-opacity:1" d="M 739.298,362.947 754.526,380.351 z" id="boundary" inkscape:connector-curvature="0" />
	<path style="fill:none;stroke:red;stroke-width:1px;stroke-linecap:butt;stroke-linejoin:miter;stroke-opacity:1" d="M 795.86,373.825 776.281,384.702 z" id="boundary" inkscape:connector-curvature="0" />
	<path style="fill:none;stroke:red;stroke-width:1px;stroke-linecap:butt;stroke-linejoin:miter;stroke-opacity:1" d="M 776.281,384.702 754.526,380.351 z" id="boundary" inkscape:connector-curvature="0" />
	<path style="fill:none;stroke:red;stroke-width:1px;stroke-linecap:butt;stroke-linejoin:miter;stroke-opacity:1" d="M 787.158,804.561 789.333,767.579 z" id="boundary" inkscape:connector-curvature="0" />
	<path style="fill:none;stroke:red;stroke-width:1px;stroke-linecap:butt;stroke-linejoin:miter;stroke-opacity:1" d="M 678.386,811.088 656.632,811.088 z" id="boundary" inkscape:connector-curvature="0" />
	<path style="fill:none;stroke:red;stroke-width:1px;stroke-linecap:butt;stroke-linejoin:miter;stroke-opacity:1" d="M 504.351,811.088 482.596,811.088 z" id="boundary" inkscape:connector-curvature="0" />
	<path style="fill:none;stroke:red;stroke-width:1px;stroke-linecap:butt;stroke-linejoin:miter;stroke-opacity:1" d="M 787.158,804.561 765.404,811.088 z" id="boundary" inkscape:connector-curvature="0" />
	<path style="fill:none;stroke:red;stroke-width:1px;stroke-linecap:butt;stroke-linejoin:miter;stroke-opacity:1" d="M 526.105,811.088 504.351,811.088 z" id="boundary" inkscape:connector-curvature="0" />
	<path style="fill:none;stroke:red;stroke-width:1px;stroke-linecap:butt;stroke-linejoin:miter;stroke-opacity:1" d="M 547.86,811.088 526.105,811.088 z" id="boundary" inkscape:connector-curvature="0" />
	<path style="fill:none;stroke:red;stroke-width:1px;stroke-linecap:butt;stroke-linejoin:miter;stroke-opacity:1" d="M 591.368,811.088 569.614,811.088 z" id="boundary" inkscape:connector-curvature="0" />
	<path style="fill:none;stroke:red;stroke-width:1px;stroke-linecap:butt;stroke-linejoin:miter;stroke-opacity:1" d="M 613.123,811.088 591.368,811.088 z" id="boundary" inkscape:connector-curvature="0" />
	<path style="fill:none;stroke:red;stroke-width:1px;stroke-linecap:butt;stroke-linejoin:miter;stroke-opacity:1" d="M 569.614,811.088 547.86,811.088 z" id="boundary" inkscape:connector-curvature="0" />
	<path style="fill:none;stroke:red;stroke-width:1px;stroke-linecap:butt;stroke-linejoin:miter;stroke-opacity:1" d="M 656.632,811.088 634.877,811.088 z" id="boundary" inkscape:connector-curvature="0" />
	<path style="fill:none;stroke:red;stroke-width:1px;stroke-linecap:butt;stroke-linejoin:miter;stroke-opacity:1" d="M 700.14,811.088 678.386,811.088 z" id="boundary" inkscape:connector-curvature="0" />
	<path style="fill:none;stroke:red;stroke-width:1px;stroke-linecap:butt;stroke-linejoin:miter;stroke-opacity:1" d="M 800.211,734.947 789.333,767.579 z" id="boundary" inkscape:connector-curvature="0" />
	<path style="fill:none;stroke:red;stroke-width:1px;stroke-linecap:butt;stroke-linejoin:miter;stroke-opacity:1" d="M 765.404,811.088 743.649,811.088 z" id="boundary" inkscape:connector-curvature="0" />
	<path style="fill:none;stroke:red;stroke-width:1px;stroke-linecap:butt;stroke-linejoin:miter;stroke-opacity:1" d="M 743.649,811.088 721.895,811.088 z" id="boundary" inkscape:connector-curvature="0" />
	<path style="fill:none;stroke:red;stroke-width:1px;stroke-linecap:butt;stroke-linejoin:miter;stroke-opacity:1" d="M 721.895,811.088 700.14,811.088 z" id="boundary" inkscape:connector-curvature="0" />
	<path style="fill:none;stroke:red;stroke-width:1px;stroke-linecap:butt;stroke-linejoin:miter;stroke-opacity:1" d="M 634.877,811.088 613.123,811.088 z" id="boundary" inkscape:connector-curvature="0" />
	<path style="fill:none;stroke:red;stroke-width:1px;stroke-linecap:butt;stroke-linejoin:miter;stroke-opacity:1" d="M 819.789,325.965 819.789,304.211 z" id="boundary" inkscape:connector-curvature="0" />
	<path style="fill:none;stroke:red;stroke-width:1px;stroke-linecap:butt;stroke-linejoin:miter;stroke-opacity:1" d="M 804.561,352.07 819.789,325.965 z" id="boundary" inkscape:connector-curvature="0" />
	<path style="fill:none;stroke:red;stroke-width:1px;stroke-linecap:butt;stroke-linejoin:miter;stroke-opacity:1" d="M 804.561,352.07 795.86,373.825 z" id="boundary" inkscape:connector-curvature="0" />
	<path style="fill:none;stroke:red;stroke-width:1px;stroke-linecap:butt;stroke-linejoin:miter;stroke-opacity:1" d="M 930.737,430.386 930.737,452.14 z" id="boundary" inkscape:connector-curvature="0" />
	<path style="fill:none;stroke:red;stroke-width:1px;stroke-linecap:butt;stroke-linejoin:miter;stroke-opacity:1" d="M 819.789,304.211 830.667,271.579 z" id="boundary" inkscape:connector-curvature="0" />
	<path style="fill:none;stroke:red;stroke-width:1px;stroke-linecap:butt;stroke-linejoin:miter;stroke-opacity:1" d="M 952.491,299.86 969.895,284.632 z" id="boundary" inkscape:connector-curvature="0" />
	<path style="fill:none;stroke:red;stroke-width:1px;stroke-linecap:butt;stroke-linejoin:miter;stroke-opacity:1" d="M 952.491,321.614 952.491,299.86 z" id="boundary" inkscape:connector-curvature="0" />
	<path style="fill:none;stroke:red;stroke-width:1px;stroke-linecap:butt;stroke-linejoin:miter;stroke-opacity:1" d="M 952.491,343.368 952.491,321.614 z" id="boundary" inkscape:connector-curvature="0" />
	<path style="fill:none;stroke:red;stroke-width:1px;stroke-linecap:butt;stroke-linejoin:miter;stroke-opacity:1" d="M 941.614,365.123 941.614,386.877 z" id="boundary" inkscape:connector-curvature="0" />
	<path style="fill:none;stroke:red;stroke-width:1px;stroke-linecap:butt;stroke-linejoin:miter;stroke-opacity:1" d="M 941.614,365.123 952.491,343.368 z" id="boundary" inkscape:connector-curvature="0" />
	<path style="fill:none;stroke:red;stroke-width:1px;stroke-linecap:butt;stroke-linejoin:miter;stroke-opacity:1" d="M 941.614,408.632 941.614,386.877 z" id="boundary" inkscape:connector-curvature="0" />
	<path style="fill:none;stroke:red;stroke-width:1px;stroke-linecap:butt;stroke-linejoin:miter;stroke-opacity:1" d="M 941.614,408.632 930.737,430.386 z" id="boundary" inkscape:connector-curvature="0" />
	<path style="fill:none;stroke:red;stroke-width:1px;stroke-linecap:butt;stroke-linejoin:miter;stroke-opacity:1" d="M 850.246,687.088 854.596,658.807 z" id="boundary" inkscape:connector-curvature="0" />
	<path style="fill:none;stroke:red;stroke-width:1px;stroke-linecap:butt;stroke-linejoin:miter;stroke-opacity:1" d="M 854.596,658.807 872,643.579 z" id="boundary" inkscape:connector-curvature="0" />
	<path style="fill:none;stroke:red;stroke-width:1px;stroke-linecap:butt;stroke-linejoin:miter;stroke-opacity:1" d="M 876.351,615.298 872,643.579 z" id="boundary" inkscape:connector-curvature="0" />
	<path style="fill:none;stroke:red;stroke-width:1px;stroke-linecap:butt;stroke-linejoin:miter;stroke-opacity:1" d="M 821.965,724.07 800.211,734.947 z" id="boundary" inkscape:connector-curvature="0" />
	<path style="fill:none;stroke:red;stroke-width:1px;stroke-linecap:butt;stroke-linejoin:miter;stroke-opacity:1" d="M 850.246,687.088 839.368,708.842 z" id="boundary" inkscape:connector-curvature="0" />
	<path style="fill:none;stroke:red;stroke-width:1px;stroke-linecap:butt;stroke-linejoin:miter;stroke-opacity:1" d="M 839.368,708.842 821.965,724.07 z" id="boundary" inkscape:connector-curvature="0" />
	<path style="fill:none;stroke:red;stroke-width:1px;stroke-linecap:butt;stroke-linejoin:miter;stroke-opacity:1" d="M 908.982,517.404 919.86,484.772 z" id="boundary" inkscape:connector-curvature="0" />
	<path style="fill:none;stroke:red;stroke-width:1px;stroke-linecap:butt;stroke-linejoin:miter;stroke-opacity:1" d="M 908.982,517.404 898.105,539.158 z" id="boundary" inkscape:connector-curvature="0" />
	<path style="fill:none;stroke:red;stroke-width:1px;stroke-linecap:butt;stroke-linejoin:miter;stroke-opacity:1" d="M 919.86,484.772 930.737,452.14 z" id="boundary" inkscape:connector-curvature="0" />
	<path style="fill:none;stroke:red;stroke-width:1px;stroke-linecap:butt;stroke-linejoin:miter;stroke-opacity:1" d="M 876.351,593.544 876.351,615.298 z" id="boundary" inkscape:connector-curvature="0" />
	<path style="fill:none;stroke:red;stroke-width:1px;stroke-linecap:butt;stroke-linejoin:miter;stroke-opacity:1" d="M 876.351,593.544 887.228,560.912 z" id="boundary" inkscape:connector-curvature="0" />
	<path style="fill:none;stroke:red;stroke-width:1px;stroke-linecap:butt;stroke-linejoin:miter;stroke-opacity:1" d="M 887.228,560.912 898.105,539.158 z" id="boundary" inkscape:connector-curvature="0" />
	<circle cx="4" cy="119.298" r="4" fill="#0" id="circle0"/>
	<circle cx="4" cy="141.053" r="4" fill="#0" id="circle1"/>
	<circle cx="14.8772" cy="160.632" r="4" fill="#0" id="circle2"/>
	<circle cx="25.7544" cy="112.772" r="4" fill="#0" id="circle3"/>
	<circle cx="25.7544" cy="180.211" r="4" fill="#0" id="circle4"/>
	<circle cx="25.7544" cy="201.965" r="4" fill="#0" id="circle5"/>
	<circle cx="38.807" cy="219.368" r="4" fill="#0" id="circle6"/>
	<circle cx="47.5088" cy="112.772" r="4" fill="#0" id="circle7"/>
	<circle cx="56.2105" cy="234.596" r="4" fill="#0" id="circle8"/>
	<circle cx="64.9123" cy="256.351" r="4" fill="#0" id="circle9"/>
	<circle cx="69.2632" cy="117.123" r="4" fill="#0" id="circle10"/>
	<circle cx="80.1404" cy="273.754" r="4" fill="#0" id="circle11"/>
	<circle cx="82.3158" cy="134.526" r="4" fill="#0" id="circle12"/>
	<circle cx="91.0175" cy="293.333" r="4" fill="#0" id="circle13"/>
	<circle cx="101.895" cy="312.912" r="4" fill="#0" id="circle14"/>
	<circle cx="104.07" cy="141.053" r="4" fill="#0" id="circle15"/>
	<circle cx="112.772" cy="54.0351" r="4" fill="#0" id="circle16"/>
	<circle cx="112.772" cy="162.807" r="4" fill="#0" id="circle17"/>
	<circle cx="112.772" cy="332.491" r="4" fill="#0" id="circle18"/>
	<circle cx="125.825" cy="349.895" r="4" fill="#0" id="circle19"/>
	<circle cx="130.175" cy="178.035" r="4" fill="#0" id="circle20"/>
	<circle cx="134.526" cy="47.5088" r="4" fill="#0" id="circle21"/>
	<circle cx="134.526" cy="69.2632" r="4" fill="#0" id="circle22"/>
	<circle cx="136.702" cy="199.789" r="4" fill="#0" id="circle23"/>
	<circle cx="138.877" cy="91.0175" r="4" fill="#0" id="circle24"/>
	<circle cx="143.228" cy="365.123" r="4" fill="#0" id="circle25"/>
	<circle cx="147.579" cy="219.368" r="4" fill="#0" id="circle26"/>
	<circle cx="149.754" cy="110.596" r="4" fill="#0" id="circle27"/>
	<circle cx="151.93" cy="386.877" r="4" fill="#0" id="circle28"/>
	<circle cx="156.281" cy="43.1579" r="4" fill="#0" id="circle29"/>
	<circle cx="156.281" cy="132.351" r="4" fill="#0" id="circle30"/>
	<circle cx="158.456" cy="238.947" r="4" fill="#0" id="circle31"/>
	<circle cx="162.807" cy="406.456" r="4" fill="#0" id="circle32"/>
	<circle cx="167.158" cy="151.93" r="4" fill="#0" id="circle33"/>
	<circle cx="173.684" cy="256.351" r="4" fill="#0" id="circle34"/>
	<circle cx="178.035" cy="36.6316" r="4" fill="#0" id="circle35"/>
	<circle cx="178.035" cy="171.509" r="4" fill="#0" id="circle36"/>
	<circle cx="178.035" cy="423.86" r="4" fill="#0" id="circle37"/>
	<circle cx="188.912" cy="191.088" r="4" fill="#0" id="circle38"/>
	<circle cx="188.912" cy="212.842" r="4" fill="#0" id="circle39"/>
	<circle cx="188.912" cy="443.439" r="4" fill="#0" id="circle40"/>
	<circle cx="191.088" cy="271.579" r="4" fill="#0" id="circle41"/>
	<circle cx="199.789" cy="36.6316" r="4" fill="#0" id="circle42"/>
	<circle cx="199.789" cy="232.421" r="4" fill="#0" id="circle43"/>
	<circle cx="199.789" cy="293.333" r="4" fill="#0" id="circle44"/>
	<circle cx="199.789" cy="463.018" r="4" fill="#0" id="circle45"/>
	<circle cx="199.789" cy="484.772" r="4" fill="#0" id="circle46"/>
	<circle cx="210.667" cy="504.351" r="4" fill="#0" id="circle47"/>
	<circle cx="212.842" cy="249.825" r="4" fill="#0" id="circle48"/>
	<circle cx="217.193" cy="308.561" r="4" fill="#0" id="circle49"/>
	<circle cx="221.544" cy="40.9825" r="4" fill="#0" id="circle50"/>
	<circle cx="221.544" cy="523.93" r="4" fill="#0" id="circle51"/>
	<circle cx="223.719" cy="330.316" r="4" fill="#0" id="circle52"/>
	<circle cx="223.719" cy="545.684" r="4" fill="#0" id="circle53"/>
	<circle cx="228.07" cy="267.228" r="4" fill="#0" id="circle54"/>
	<circle cx="232.421" cy="288.982" r="4" fill="#0" id="circle55"/>
	<circle cx="234.596" cy="58.386" r="4" fill="#0" id="circle56"/>
	<circle cx="234.596" cy="565.263" r="4" fill="#0" id="circle57"/>
	<circle cx="243.298" cy="341.193" r="4" fill="#0" id="circle58"/>
	<circle cx="245.474" cy="77.9649" r="4" fill="#0" id="circle59"/>
	<circle cx="245.474" cy="306.386" r="4" fill="#0" id="circle60"/>
	<circle cx="249.825" cy="582.667" r="4" fill="#0" id="circle61"/>
	<circle cx="254.175" cy="604.421" r="4" fill="#0" id="circle62"/>
	<circle cx="256.351" cy="97.5439" r="4" fill="#0" id="circle63"/>
	<circle cx="260.702" cy="626.175" r="4" fill="#0" id="circle64"/>
	<circle cx="262.877" cy="352.07" r="4" fill="#0" id="circle65"/>
	<circle cx="265.053" cy="647.93" r="4" fill="#0" id="circle66"/>
	<circle cx="271.579" cy="114.947" r="4" fill="#0" id="circle67"/>
	<circle cx="271.579" cy="669.684" r="4" fill="#0" id="circle68"/>
	<circle cx="275.93" cy="691.439" r="4" fill="#0" id="circle69"/>
	<circle cx="282.456" cy="134.526" r="4" fill="#0" id="circle70"/>
	<circle cx="288.982" cy="708.842" r="4" fill="#0" id="circle71"/>
	<circle cx="297.684" cy="32.2807" r="4" fill="#0" id="circle72"/>
	<circle cx="297.684" cy="54.0351" r="4" fill="#0" id="circle73"/>
	<circle cx="297.684" cy="151.93" r="4" fill="#0" id="circle74"/>
	<circle cx="299.86" cy="728.421" r="4" fill="#0" id="circle75"/>
	<circle cx="308.561" cy="73.614" r="4" fill="#0" id="circle76"/>
	<circle cx="308.561" cy="95.3684" r="4" fill="#0" id="circle77"/>
	<circle cx="308.561" cy="171.509" r="4" fill="#0" id="circle78"/>
	<circle cx="308.561" cy="750.175" r="4" fill="#0" id="circle79"/>
	<circle cx="317.263" cy="193.263" r="4" fill="#0" id="circle80"/>
	<circle cx="319.439" cy="25.7544" r="4" fill="#0" id="circle81"/>
	<circle cx="319.439" cy="114.947" r="4" fill="#0" id="circle82"/>
	<circle cx="325.965" cy="765.404" r="4" fill="#0" id="circle83"/>
	<circle cx="330.316" cy="134.526" r="4" fill="#0" id="circle84"/>
	<circle cx="332.491" cy="210.667" r="4" fill="#0" id="circle85"/>
	<circle cx="334.667" cy="156.281" r="4" fill="#0" id="circle86"/>
	<circle cx="341.193" cy="25.7544" r="4" fill="#0" id="circle87"/>
	<circle cx="341.193" cy="178.035" r="4" fill="#0" id="circle88"/>
	<circle cx="341.193" cy="782.807" r="4" fill="#0" id="circle89"/>
	<circle cx="352.07" cy="197.614" r="4" fill="#0" id="circle90"/>
	<circle cx="352.07" cy="221.544" r="4" fill="#0" id="circle91"/>
	<circle cx="352.07" cy="802.386" r="4" fill="#0" id="circle92"/>
	<circle cx="362.947" cy="25.7544" r="4" fill="#0" id="circle93"/>
	<circle cx="373.825" cy="811.088" r="4" fill="#0" id="circle94"/>
	<circle cx="384.702" cy="25.7544" r="4" fill="#0" id="circle95"/>
	<circle cx="395.579" cy="811.088" r="4" fill="#0" id="circle96"/>
	<circle cx="406.456" cy="25.7544" r="4" fill="#0" id="circle97"/>
	<circle cx="417.333" cy="811.088" r="4" fill="#0" id="circle98"/>
	<circle cx="428.211" cy="30.1053" r="4" fill="#0" id="circle99"/>
	<circle cx="430.386" cy="51.8596" r="4" fill="#0" id="circle100"/>
	<circle cx="439.088" cy="811.088" r="4" fill="#0" id="circle101"/>
	<circle cx="441.263" cy="71.4386" r="4" fill="#0" id="circle102"/>
	<circle cx="445.614" cy="93.193" r="4" fill="#0" id="circle103"/>
	<circle cx="452.14" cy="114.947" r="4" fill="#0" id="circle104"/>
	<circle cx="456.491" cy="136.702" r="4" fill="#0" id="circle105"/>
	<circle cx="460.842" cy="811.088" r="4" fill="#0" id="circle106"/>
	<circle cx="463.018" cy="158.456" r="4" fill="#0" id="circle107"/>
	<circle cx="467.368" cy="180.211" r="4" fill="#0" id="circle108"/>
	<circle cx="471.719" cy="21.4035" r="4" fill="#0" id="circle109"/>
	<circle cx="482.596" cy="40.9825" r="4" fill="#0" id="circle110"/>
	<circle cx="482.596" cy="62.7368" r="4" fill="#0" id="circle111"/>
	<circle cx="482.596" cy="811.088" r="4" fill="#0" id="circle112"/>
	<circle cx="489.123" cy="188.912" r="4" fill="#0" id="circle113"/>
	<circle cx="493.474" cy="14.8772" r="4" fill="#0" id="circle114"/>
	<circle cx="493.474" cy="82.3158" r="4" fill="#0" id="circle115"/>
	<circle cx="493.474" cy="104.07" r="4" fill="#0" id="circle116"/>
	<circle cx="504.351" cy="123.649" r="4" fill="#0" id="circle117"/>
	<circle cx="504.351" cy="145.404" r="4" fill="#0" id="circle118"/>
	<circle cx="504.351" cy="167.158" r="4" fill="#0" id="circle119"/>
	<circle cx="504.351" cy="811.088" r="4" fill="#0" id="circle120"/>
	<circle cx="515.228" cy="14.8772" r="4" fill="#0" id="circle121"/>
	<circle cx="526.105" cy="811.088" r="4" fill="#0" id="circle122"/>
	<circle cx="536.982" cy="14.8772" r="4" fill="#0" id="circle123"/>
	<circle cx="547.86" cy="811.088" r="4" fill="#0" id="circle124"/>
	<circle cx="556.561" cy="4" r="4" fill="#0" id="circle125"/>
	<circle cx="569.614" cy="811.088" r="4" fill="#0" id="circle126"/>
	<circle cx="578.316" cy="4" r="4" fill="#0" id="circle127"/>
	<circle cx="591.368" cy="811.088" r="4" fill="#0" id="circle128"/>
	<circle cx="600.07" cy="6.17544" r="4" fill="#0" id="circle129"/>
	<circle cx="613.123" cy="811.088" r="4" fill="#0" id="circle130"/>
	<circle cx="615.298" cy="23.5789" r="4" fill="#0" id="circle131"/>
	<circle cx="615.298" cy="45.3333" r="4" fill="#0" id="circle132"/>
	<circle cx="615.298" cy="67.0877" r="4" fill="#0" id="circle133"/>
	<circle cx="626.175" cy="86.6667" r="4" fill="#0" id="circle134"/>
	<circle cx="626.175" cy="108.421" r="4" fill="#0" id="circle135"/>
	<circle cx="626.175" cy="130.175" r="4" fill="#0" id="circle136"/>
	<circle cx="634.877" cy="151.93" r="4" fill="#0" id="circle137"/>
	<circle cx="634.877" cy="811.088" r="4" fill="#0" id="circle138"/>
	<circle cx="637.053" cy="173.684" r="4" fill="#0" id="circle139"/>
	<circle cx="647.93" cy="193.263" r="4" fill="#0" id="circle140"/>
	<circle cx="654.456" cy="215.018" r="4" fill="#0" id="circle141"/>
	<circle cx="656.632" cy="811.088" r="4" fill="#0" id="circle142"/>
	<circle cx="658.807" cy="236.772" r="4" fill="#0" id="circle143"/>
	<circle cx="665.333" cy="258.526" r="4" fill="#0" id="circle144"/>
	<circle cx="678.386" cy="811.088" r="4" fill="#0" id="circle145"/>
	<circle cx="680.561" cy="275.93" r="4" fill="#0" id="circle146"/>
	<circle cx="680.561" cy="297.684" r="4" fill="#0" id="circle147"/>
	<circle cx="691.439" cy="317.263" r="4" fill="#0" id="circle148"/>
	<circle cx="700.14" cy="811.088" r="4" fill="#0" id="circle149"/>
	<circle cx="702.316" cy="336.842" r="4" fill="#0" id="circle150"/>
	<circle cx="721.895" cy="347.719" r="4" fill="#0" id="circle151"/>
	<circle cx="721.895" cy="811.088" r="4" fill="#0" id="circle152"/>
	<circle cx="739.298" cy="362.947" r="4" fill="#0" id="circle153"/>
	<circle cx="743.649" cy="811.088" r="4" fill="#0" id="circle154"/>
	<circle cx="754.526" cy="380.351" r="4" fill="#0" id="circle155"/>
	<circle cx="765.404" cy="811.088" r="4" fill="#0" id="circle156"/>
	<circle cx="776.281" cy="384.702" r="4" fill="#0" id="circle157"/>
	<circle cx="787.158" cy="804.561" r="4" fill="#0" id="circle158"/>
	<circle cx="789.333" cy="767.579" r="4" fill="#0" id="circle159"/>
	<circle cx="795.86" cy="373.825" r="4" fill="#0" id="circle160"/>
	<circle cx="800.211" cy="734.947" r="4" fill="#0" id="circle161"/>
	<circle cx="804.561" cy="352.07" r="4" fill="#0" id="circle162"/>
	<circle cx="819.789" cy="304.211" r="4" fill="#0" id="circle163"/>
	<circle cx="819.789" cy="325.965" r="4" fill="#0" id="circle164"/>
	<circle cx="821.965" cy="724.07" r="4" fill="#0" id="circle165"/>
	<circle cx="830.667" cy="249.825" r="4" fill="#0" id="circle166"/>
	<circle cx="830.667" cy="271.579" r="4" fill="#0" id="circle167"/>
	<circle cx="839.368" cy="708.842" r="4" fill="#0" id="circle168"/>
	<circle cx="841.544" cy="184.561" r="4" fill="#0" id="circle169"/>
	<circle cx="841.544" cy="206.316" r="4" fill="#0" id="circle170"/>
	<circle cx="841.544" cy="228.07" r="4" fill="#0" id="circle171"/>
	<circle cx="850.246" cy="687.088" r="4" fill="#0" id="circle172"/>
	<circle cx="852.421" cy="162.807" r="4" fill="#0" id="circle173"/>
	<circle cx="854.596" cy="658.807" r="4" fill="#0" id="circle174"/>
	<circle cx="869.825" cy="145.404" r="4" fill="#0" id="circle175"/>
	<circle cx="872" cy="643.579" r="4" fill="#0" id="circle176"/>
	<circle cx="876.351" cy="593.544" r="4" fill="#0" id="circle177"/>
	<circle cx="876.351" cy="615.298" r="4" fill="#0" id="circle178"/>
	<circle cx="885.053" cy="119.298" r="4" fill="#0" id="circle179"/>
	<circle cx="887.228" cy="560.912" r="4" fill="#0" id="circle180"/>
	<circle cx="898.105" cy="539.158" r="4" fill="#0" id="circle181"/>
	<circle cx="902.456" cy="101.895" r="4" fill="#0" id="circle182"/>
	<circle cx="908.982" cy="517.404" r="4" fill="#0" id="circle183"/>
	<circle cx="919.86" cy="484.772" r="4" fill="#0" id="circle184"/>
	<circle cx="922.035" cy="91.0175" r="4" fill="#0" id="circle185"/>
	<circle cx="930.737" cy="430.386" r="4" fill="#0" id="circle186"/>
	<circle cx="930.737" cy="452.14" r="4" fill="#0" id="circle187"/>
	<circle cx="941.614" cy="80.1404" r="4" fill="#0" id="circle188"/>
	<circle cx="941.614" cy="365.123" r="4" fill="#0" id="circle189"/>
	<circle cx="941.614" cy="386.877" r="4" fill="#0" id="circle190"/>
	<circle cx="941.614" cy="408.632" r="4" fill="#0" id="circle191"/>
	<circle cx="952.491" cy="299.86" r="4" fill="#0" id="circle192"/>
	<circle cx="952.491" cy="321.614" r="4" fill="#0" id="circle193"/>
	<circle cx="952.491" cy="343.368" r="4" fill="#0" id="circle194"/>
	<circle cx="963.368" cy="80.1404" r="4" fill="#0" id="circle195"/>
	<circle cx="969.895" cy="284.632" r="4" fill="#0" id="circle196"/>
	<circle cx="974.246" cy="158.456" r="4" fill="#0" id="circle197"/>
	<circle cx="974.246" cy="180.211" r="4" fill="#0" id="circle198"/>
	<circle cx="974.246" cy="201.965" r="4" fill="#0" id="circle199"/>
	<circle cx="974.246" cy="223.719" r="4" fill="#0" id="circle200"/>
	<circle cx="974.246" cy="245.474" r="4" fill="#0" id="circle201"/>
	<circle cx="980.772" cy="93.193" r="4" fill="#0" id="circle202"/>
	<circle cx="991.649" cy="143.228" r="4" fill="#0" id="circle203"/>
	<circle cx="996" cy="110.596" r="4" fill="#0" id="circle204"/>
	</g>
</svg>