<?xml version="1.0" encoding="UTF-8" standalone="no"?>
<!-- Created with CurveBenchmark -->
<svg
	xmlns:dc="http://purl.org/dc/elements/1.1/"
	xmlns:cc="http://creativecommons.org/ns#"
	xmlns:rdf="http://www.w3.org/1999/02/22-rdf-syntax-ns#"
	xmlns:svg="http://www.w3.org/2000/svg"
	xmlns="http://www.w3.org/2000/svg"
	xmlns:sodipodi="http://sodipodi.sourceforge.net/DTD/sodipodi-0.dtd"
	xmlns:inkscape="http://www.inkscape.org/namespaces/inkscape"
	width="1000"
	height="1000"
	id="svg2"
	version="1.1"
	sodipodi:docname="manifold/ccrust-car-10.png.txt">
<defs
	id="defs4" />
<metadata
	id="metadata7">
	<rdf:RDF>
		<cc:Work
			rdf:about="">
			<dc:format>image/svg+xml</dc:format>
			<dc:type
				rdf:resource="http://purl.org/dc/dcmitype/StillImage" />
			<dc:title></dc:title>
		</cc:Work>
	</rdf:RDF>
</metadata>
<g
	inkscape:label="Layer 1"
	inkscape:groupmode="layer"
	id="layer1">
	<path style="fill:none;stroke:red;stroke-width:1px;stroke-linecap:butt;stroke-linejoin:miter;stroke-opacity:1" d="M 171.495,176.898 160.688,176.898 z" id="boundary" inkscape:connector-curvature="0" />
	<path style="fill:none;stroke:red;stroke-width:1px;stroke-linecap:butt;stroke-linejoin:miter;stroke-opacity:1" d="M 181.22,171.495 171.495,176.898 z" id="boundary" inkscape:connector-curvature="0" />
	<path style="fill:none;stroke:red;stroke-width:1px;stroke-linecap:butt;stroke-linejoin:miter;stroke-opacity:1" d="M 192.026,171.495 181.22,171.495 z" id="boundary" inkscape:connector-curvature="0" />
	<path style="fill:none;stroke:red;stroke-width:1px;stroke-linecap:butt;stroke-linejoin:miter;stroke-opacity:1" d="M 271.991,133.673 263.346,142.318 z" id="boundary" inkscape:connector-curvature="0" />
	<path style="fill:none;stroke:red;stroke-width:1px;stroke-linecap:butt;stroke-linejoin:miter;stroke-opacity:1" d="M 129.351,184.462 140.157,182.301 z" id="boundary" inkscape:connector-curvature="0" />
	<path style="fill:none;stroke:red;stroke-width:1px;stroke-linecap:butt;stroke-linejoin:miter;stroke-opacity:1" d="M 140.157,182.301 150.963,182.301 z" id="boundary" inkscape:connector-curvature="0" />
	<path style="fill:none;stroke:red;stroke-width:1px;stroke-linecap:butt;stroke-linejoin:miter;stroke-opacity:1" d="M 160.688,176.898 150.963,182.301 z" id="boundary" inkscape:connector-curvature="0" />
	<path style="fill:none;stroke:red;stroke-width:1px;stroke-linecap:butt;stroke-linejoin:miter;stroke-opacity:1" d="M 118.545,187.704 129.351,184.462 z" id="boundary" inkscape:connector-curvature="0" />
	<path style="fill:none;stroke:red;stroke-width:1px;stroke-linecap:butt;stroke-linejoin:miter;stroke-opacity:1" d="M 192.026,171.495 202.832,171.495 z" id="boundary" inkscape:connector-curvature="0" />
	<path style="fill:none;stroke:red;stroke-width:1px;stroke-linecap:butt;stroke-linejoin:miter;stroke-opacity:1" d="M 234.17,166.092 244.976,166.092 z" id="boundary" inkscape:connector-curvature="0" />
	<path style="fill:none;stroke:red;stroke-width:1px;stroke-linecap:butt;stroke-linejoin:miter;stroke-opacity:1" d="M 224.444,171.495 234.17,166.092 z" id="boundary" inkscape:connector-curvature="0" />
	<path style="fill:none;stroke:red;stroke-width:1px;stroke-linecap:butt;stroke-linejoin:miter;stroke-opacity:1" d="M 263.346,142.318 263.346,153.124 z" id="boundary" inkscape:connector-curvature="0" />
	<path style="fill:none;stroke:red;stroke-width:1px;stroke-linecap:butt;stroke-linejoin:miter;stroke-opacity:1" d="M 263.346,153.124 255.782,166.092 z" id="boundary" inkscape:connector-curvature="0" />
	<path style="fill:none;stroke:red;stroke-width:1px;stroke-linecap:butt;stroke-linejoin:miter;stroke-opacity:1" d="M 255.782,166.092 244.976,166.092 z" id="boundary" inkscape:connector-curvature="0" />
	<path style="fill:none;stroke:red;stroke-width:1px;stroke-linecap:butt;stroke-linejoin:miter;stroke-opacity:1" d="M 202.832,171.495 213.638,171.495 z" id="boundary" inkscape:connector-curvature="0" />
	<path style="fill:none;stroke:red;stroke-width:1px;stroke-linecap:butt;stroke-linejoin:miter;stroke-opacity:1" d="M 213.638,171.495 224.444,171.495 z" id="boundary" inkscape:connector-curvature="0" />
	<path style="fill:none;stroke:red;stroke-width:1px;stroke-linecap:butt;stroke-linejoin:miter;stroke-opacity:1" d="M 36.4183,228.767 27.7734,236.331 z" id="boundary" inkscape:connector-curvature="0" />
	<path style="fill:none;stroke:red;stroke-width:1px;stroke-linecap:butt;stroke-linejoin:miter;stroke-opacity:1" d="M 27.7734,236.331 18.0479,241.734 z" id="boundary" inkscape:connector-curvature="0" />
	<path style="fill:none;stroke:red;stroke-width:1px;stroke-linecap:butt;stroke-linejoin:miter;stroke-opacity:1" d="M 45.0632,220.122 36.4183,228.767 z" id="boundary" inkscape:connector-curvature="0" />
	<path style="fill:none;stroke:red;stroke-width:1px;stroke-linecap:butt;stroke-linejoin:miter;stroke-opacity:1" d="M 14.8061,291.442 9.40305,281.717 z" id="boundary" inkscape:connector-curvature="0" />
	<path style="fill:none;stroke:red;stroke-width:1px;stroke-linecap:butt;stroke-linejoin:miter;stroke-opacity:1" d="M 4,271.991 4,261.185 z" id="boundary" inkscape:connector-curvature="0" />
	<path style="fill:none;stroke:red;stroke-width:1px;stroke-linecap:butt;stroke-linejoin:miter;stroke-opacity:1" d="M 9.40305,281.717 4,271.991 z" id="boundary" inkscape:connector-curvature="0" />
	<path style="fill:none;stroke:red;stroke-width:1px;stroke-linecap:butt;stroke-linejoin:miter;stroke-opacity:1" d="M 4,261.185 9.40305,250.379 z" id="boundary" inkscape:connector-curvature="0" />
	<path style="fill:none;stroke:red;stroke-width:1px;stroke-linecap:butt;stroke-linejoin:miter;stroke-opacity:1" d="M 9.40305,250.379 18.0479,241.734 z" id="boundary" inkscape:connector-curvature="0" />
	<path style="fill:none;stroke:red;stroke-width:1px;stroke-linecap:butt;stroke-linejoin:miter;stroke-opacity:1" d="M 88.2876,198.51 98.0131,193.107 z" id="boundary" inkscape:connector-curvature="0" />
	<path style="fill:none;stroke:red;stroke-width:1px;stroke-linecap:butt;stroke-linejoin:miter;stroke-opacity:1" d="M 88.2876,198.51 77.4815,203.913 z" id="boundary" inkscape:connector-curvature="0" />
	<path style="fill:none;stroke:red;stroke-width:1px;stroke-linecap:butt;stroke-linejoin:miter;stroke-opacity:1" d="M 107.739,187.704 118.545,187.704 z" id="boundary" inkscape:connector-curvature="0" />
	<path style="fill:none;stroke:red;stroke-width:1px;stroke-linecap:butt;stroke-linejoin:miter;stroke-opacity:1" d="M 98.0131,193.107 107.739,187.704 z" id="boundary" inkscape:connector-curvature="0" />
	<path style="fill:none;stroke:red;stroke-width:1px;stroke-linecap:butt;stroke-linejoin:miter;stroke-opacity:1" d="M 55.8693,214.719 45.0632,220.122 z" id="boundary" inkscape:connector-curvature="0" />
	<path style="fill:none;stroke:red;stroke-width:1px;stroke-linecap:butt;stroke-linejoin:miter;stroke-opacity:1" d="M 66.6754,209.316 77.4815,203.913 z" id="boundary" inkscape:connector-curvature="0" />
	<path style="fill:none;stroke:red;stroke-width:1px;stroke-linecap:butt;stroke-linejoin:miter;stroke-opacity:1" d="M 66.6754,209.316 55.8693,214.719 z" id="boundary" inkscape:connector-curvature="0" />
	<path style="fill:none;stroke:red;stroke-width:1px;stroke-linecap:butt;stroke-linejoin:miter;stroke-opacity:1" d="M 358.44,106.658 347.634,106.658 z" id="boundary" inkscape:connector-curvature="0" />
	<path style="fill:none;stroke:red;stroke-width:1px;stroke-linecap:butt;stroke-linejoin:miter;stroke-opacity:1" d="M 463.259,34.2571 457.856,45.0632 z" id="boundary" inkscape:connector-curvature="0" />
	<path style="fill:none;stroke:red;stroke-width:1px;stroke-linecap:butt;stroke-linejoin:miter;stroke-opacity:1" d="M 457.856,55.8693 457.856,45.0632 z" id="boundary" inkscape:connector-curvature="0" />
	<path style="fill:none;stroke:red;stroke-width:1px;stroke-linecap:butt;stroke-linejoin:miter;stroke-opacity:1" d="M 328.183,120.706 336.828,112.061 z" id="boundary" inkscape:connector-curvature="0" />
	<path style="fill:none;stroke:red;stroke-width:1px;stroke-linecap:butt;stroke-linejoin:miter;stroke-opacity:1" d="M 336.828,112.061 347.634,106.658 z" id="boundary" inkscape:connector-curvature="0" />
	<path style="fill:none;stroke:red;stroke-width:1px;stroke-linecap:butt;stroke-linejoin:miter;stroke-opacity:1" d="M 358.44,106.658 369.246,106.658 z" id="boundary" inkscape:connector-curvature="0" />
	<path style="fill:none;stroke:red;stroke-width:1px;stroke-linecap:butt;stroke-linejoin:miter;stroke-opacity:1" d="M 380.052,106.658 369.246,106.658 z" id="boundary" inkscape:connector-curvature="0" />
	<path style="fill:none;stroke:red;stroke-width:1px;stroke-linecap:butt;stroke-linejoin:miter;stroke-opacity:1" d="M 380.052,106.658 389.778,112.061 z" id="boundary" inkscape:connector-curvature="0" />
	<path style="fill:none;stroke:red;stroke-width:1px;stroke-linecap:butt;stroke-linejoin:miter;stroke-opacity:1" d="M 457.856,55.8693 457.856,66.6754 z" id="boundary" inkscape:connector-curvature="0" />
	<path style="fill:none;stroke:red;stroke-width:1px;stroke-linecap:butt;stroke-linejoin:miter;stroke-opacity:1" d="M 463.259,34.2571 471.904,25.6122 z" id="boundary" inkscape:connector-curvature="0" />
	<path style="fill:none;stroke:red;stroke-width:1px;stroke-linecap:butt;stroke-linejoin:miter;stroke-opacity:1" d="M 480.549,16.9673 471.904,25.6122 z" id="boundary" inkscape:connector-curvature="0" />
	<path style="fill:none;stroke:red;stroke-width:1px;stroke-linecap:butt;stroke-linejoin:miter;stroke-opacity:1" d="M 457.856,77.4815 457.856,66.6754 z" id="boundary" inkscape:connector-curvature="0" />
	<path style="fill:none;stroke:red;stroke-width:1px;stroke-linecap:butt;stroke-linejoin:miter;stroke-opacity:1" d="M 457.856,88.2876 457.856,77.4815 z" id="boundary" inkscape:connector-curvature="0" />
	<path style="fill:none;stroke:red;stroke-width:1px;stroke-linecap:butt;stroke-linejoin:miter;stroke-opacity:1" d="M 457.856,88.2876 457.856,99.0937 z" id="boundary" inkscape:connector-curvature="0" />
	<path style="fill:none;stroke:red;stroke-width:1px;stroke-linecap:butt;stroke-linejoin:miter;stroke-opacity:1" d="M 457.856,109.9 457.856,99.0937 z" id="boundary" inkscape:connector-curvature="0" />
	<path style="fill:none;stroke:red;stroke-width:1px;stroke-linecap:butt;stroke-linejoin:miter;stroke-opacity:1" d="M 455.695,128.27 457.856,109.9 z" id="boundary" inkscape:connector-curvature="0" />
	<path style="fill:none;stroke:red;stroke-width:1px;stroke-linecap:butt;stroke-linejoin:miter;stroke-opacity:1" d="M 328.183,120.706 317.377,126.109 z" id="boundary" inkscape:connector-curvature="0" />
	<path style="fill:none;stroke:red;stroke-width:1px;stroke-linecap:butt;stroke-linejoin:miter;stroke-opacity:1" d="M 311.974,136.915 317.377,126.109 z" id="boundary" inkscape:connector-curvature="0" />
	<path style="fill:none;stroke:red;stroke-width:1px;stroke-linecap:butt;stroke-linejoin:miter;stroke-opacity:1" d="M 291.442,133.673 281.717,128.27 z" id="boundary" inkscape:connector-curvature="0" />
	<path style="fill:none;stroke:red;stroke-width:1px;stroke-linecap:butt;stroke-linejoin:miter;stroke-opacity:1" d="M 291.442,133.673 301.168,139.076 z" id="boundary" inkscape:connector-curvature="0" />
	<path style="fill:none;stroke:red;stroke-width:1px;stroke-linecap:butt;stroke-linejoin:miter;stroke-opacity:1" d="M 271.991,133.673 281.717,128.27 z" id="boundary" inkscape:connector-curvature="0" />
	<path style="fill:none;stroke:red;stroke-width:1px;stroke-linecap:butt;stroke-linejoin:miter;stroke-opacity:1" d="M 311.974,136.915 301.168,139.076 z" id="boundary" inkscape:connector-curvature="0" />
	<path style="fill:none;stroke:red;stroke-width:1px;stroke-linecap:butt;stroke-linejoin:miter;stroke-opacity:1" d="M 389.778,112.061 399.503,117.464 z" id="boundary" inkscape:connector-curvature="0" />
	<path style="fill:none;stroke:red;stroke-width:1px;stroke-linecap:butt;stroke-linejoin:miter;stroke-opacity:1" d="M 408.148,123.948 399.503,117.464 z" id="boundary" inkscape:connector-curvature="0" />
	<path style="fill:none;stroke:red;stroke-width:1px;stroke-linecap:butt;stroke-linejoin:miter;stroke-opacity:1" d="M 455.695,128.27 445.969,133.673 z" id="boundary" inkscape:connector-curvature="0" />
	<path style="fill:none;stroke:red;stroke-width:1px;stroke-linecap:butt;stroke-linejoin:miter;stroke-opacity:1" d="M 408.148,123.948 413.551,133.673 z" id="boundary" inkscape:connector-curvature="0" />
	<path style="fill:none;stroke:red;stroke-width:1px;stroke-linecap:butt;stroke-linejoin:miter;stroke-opacity:1" d="M 424.357,133.673 413.551,133.673 z" id="boundary" inkscape:connector-curvature="0" />
	<path style="fill:none;stroke:red;stroke-width:1px;stroke-linecap:butt;stroke-linejoin:miter;stroke-opacity:1" d="M 424.357,133.673 435.163,133.673 z" id="boundary" inkscape:connector-curvature="0" />
	<path style="fill:none;stroke:red;stroke-width:1px;stroke-linecap:butt;stroke-linejoin:miter;stroke-opacity:1" d="M 445.969,133.673 435.163,133.673 z" id="boundary" inkscape:connector-curvature="0" />
	<path style="fill:none;stroke:red;stroke-width:1px;stroke-linecap:butt;stroke-linejoin:miter;stroke-opacity:1" d="M 489.194,9.40305 480.549,16.9673 z" id="boundary" inkscape:connector-curvature="0" />
	<path style="fill:none;stroke:red;stroke-width:1px;stroke-linecap:butt;stroke-linejoin:miter;stroke-opacity:1" d="M 21.2898,300.087 14.8061,291.442 z" id="boundary" inkscape:connector-curvature="0" />
	<path style="fill:none;stroke:red;stroke-width:1px;stroke-linecap:butt;stroke-linejoin:miter;stroke-opacity:1" d="M 31.0153,318.458 29.9346,307.651 z" id="boundary" inkscape:connector-curvature="0" />
	<path style="fill:none;stroke:red;stroke-width:1px;stroke-linecap:butt;stroke-linejoin:miter;stroke-opacity:1" d="M 21.2898,300.087 29.9346,307.651 z" id="boundary" inkscape:connector-curvature="0" />
	<path style="fill:none;stroke:red;stroke-width:1px;stroke-linecap:butt;stroke-linejoin:miter;stroke-opacity:1" d="M 31.0153,318.458 31.0153,329.264 z" id="boundary" inkscape:connector-curvature="0" />
	<path style="fill:none;stroke:red;stroke-width:1px;stroke-linecap:butt;stroke-linejoin:miter;stroke-opacity:1" d="M 31.0153,350.876 31.0153,340.07 z" id="boundary" inkscape:connector-curvature="0" />
	<path style="fill:none;stroke:red;stroke-width:1px;stroke-linecap:butt;stroke-linejoin:miter;stroke-opacity:1" d="M 31.0153,372.488 31.0153,361.682 z" id="boundary" inkscape:connector-curvature="0" />
	<path style="fill:none;stroke:red;stroke-width:1px;stroke-linecap:butt;stroke-linejoin:miter;stroke-opacity:1" d="M 31.0153,361.682 31.0153,350.876 z" id="boundary" inkscape:connector-curvature="0" />
	<path style="fill:none;stroke:red;stroke-width:1px;stroke-linecap:butt;stroke-linejoin:miter;stroke-opacity:1" d="M 31.0153,329.264 31.0153,340.07 z" id="boundary" inkscape:connector-curvature="0" />
	<path style="fill:none;stroke:red;stroke-width:1px;stroke-linecap:butt;stroke-linejoin:miter;stroke-opacity:1" d="M 31.0153,383.294 31.0153,394.1 z" id="boundary" inkscape:connector-curvature="0" />
	<path style="fill:none;stroke:red;stroke-width:1px;stroke-linecap:butt;stroke-linejoin:miter;stroke-opacity:1" d="M 31.0153,383.294 31.0153,372.488 z" id="boundary" inkscape:connector-curvature="0" />
	<path style="fill:none;stroke:red;stroke-width:1px;stroke-linecap:butt;stroke-linejoin:miter;stroke-opacity:1" d="M 31.0153,404.906 37.4989,413.551 z" id="boundary" inkscape:connector-curvature="0" />
	<path style="fill:none;stroke:red;stroke-width:1px;stroke-linecap:butt;stroke-linejoin:miter;stroke-opacity:1" d="M 31.0153,404.906 31.0153,394.1 z" id="boundary" inkscape:connector-curvature="0" />
	<path style="fill:none;stroke:red;stroke-width:1px;stroke-linecap:butt;stroke-linejoin:miter;stroke-opacity:1" d="M 46.1438,421.115 47.2244,431.922 z" id="boundary" inkscape:connector-curvature="0" />
	<path style="fill:none;stroke:red;stroke-width:1px;stroke-linecap:butt;stroke-linejoin:miter;stroke-opacity:1" d="M 37.4989,413.551 46.1438,421.115 z" id="boundary" inkscape:connector-curvature="0" />
	<path style="fill:none;stroke:red;stroke-width:1px;stroke-linecap:butt;stroke-linejoin:miter;stroke-opacity:1" d="M 47.2244,431.922 47.2244,442.728 z" id="boundary" inkscape:connector-curvature="0" />
	<path style="fill:none;stroke:red;stroke-width:1px;stroke-linecap:butt;stroke-linejoin:miter;stroke-opacity:1" d="M 65.5948,468.662 55.8693,463.259 z" id="boundary" inkscape:connector-curvature="0" />
	<path style="fill:none;stroke:red;stroke-width:1px;stroke-linecap:butt;stroke-linejoin:miter;stroke-opacity:1" d="M 55.8693,463.259 50.4662,453.534 z" id="boundary" inkscape:connector-curvature="0" />
	<path style="fill:none;stroke:red;stroke-width:1px;stroke-linecap:butt;stroke-linejoin:miter;stroke-opacity:1" d="M 50.4662,453.534 47.2244,442.728 z" id="boundary" inkscape:connector-curvature="0" />
	<path style="fill:none;stroke:red;stroke-width:1px;stroke-linecap:butt;stroke-linejoin:miter;stroke-opacity:1" d="M 65.5948,468.662 76.4009,469.743 z" id="boundary" inkscape:connector-curvature="0" />
	<path style="fill:none;stroke:red;stroke-width:1px;stroke-linecap:butt;stroke-linejoin:miter;stroke-opacity:1" d="M 76.4009,469.743 86.1264,475.146 z" id="boundary" inkscape:connector-curvature="0" />
	<path style="fill:none;stroke:red;stroke-width:1px;stroke-linecap:butt;stroke-linejoin:miter;stroke-opacity:1" d="M 86.1264,475.146 96.9325,475.146 z" id="boundary" inkscape:connector-curvature="0" />
	<path style="fill:none;stroke:red;stroke-width:1px;stroke-linecap:butt;stroke-linejoin:miter;stroke-opacity:1" d="M 107.739,475.146 118.545,475.146 z" id="boundary" inkscape:connector-curvature="0" />
	<path style="fill:none;stroke:red;stroke-width:1px;stroke-linecap:butt;stroke-linejoin:miter;stroke-opacity:1" d="M 107.739,475.146 96.9325,475.146 z" id="boundary" inkscape:connector-curvature="0" />
	<path style="fill:none;stroke:red;stroke-width:1px;stroke-linecap:butt;stroke-linejoin:miter;stroke-opacity:1" d="M 169.333,468.662 174.736,457.856 z" id="boundary" inkscape:connector-curvature="0" />
	<path style="fill:none;stroke:red;stroke-width:1px;stroke-linecap:butt;stroke-linejoin:miter;stroke-opacity:1" d="M 180.139,448.131 174.736,457.856 z" id="boundary" inkscape:connector-curvature="0" />
	<path style="fill:none;stroke:red;stroke-width:1px;stroke-linecap:butt;stroke-linejoin:miter;stroke-opacity:1" d="M 169.333,468.662 159.608,475.146 z" id="boundary" inkscape:connector-curvature="0" />
	<path style="fill:none;stroke:red;stroke-width:1px;stroke-linecap:butt;stroke-linejoin:miter;stroke-opacity:1" d="M 129.351,475.146 139.076,480.549 z" id="boundary" inkscape:connector-curvature="0" />
	<path style="fill:none;stroke:red;stroke-width:1px;stroke-linecap:butt;stroke-linejoin:miter;stroke-opacity:1" d="M 118.545,475.146 129.351,475.146 z" id="boundary" inkscape:connector-curvature="0" />
	<path style="fill:none;stroke:red;stroke-width:1px;stroke-linecap:butt;stroke-linejoin:miter;stroke-opacity:1" d="M 149.882,480.549 159.608,475.146 z" id="boundary" inkscape:connector-curvature="0" />
	<path style="fill:none;stroke:red;stroke-width:1px;stroke-linecap:butt;stroke-linejoin:miter;stroke-opacity:1" d="M 149.882,480.549 139.076,480.549 z" id="boundary" inkscape:connector-curvature="0" />
	<path style="fill:none;stroke:red;stroke-width:1px;stroke-linecap:butt;stroke-linejoin:miter;stroke-opacity:1" d="M 243.895,442.728 254.702,442.728 z" id="boundary" inkscape:connector-curvature="0" />
	<path style="fill:none;stroke:red;stroke-width:1px;stroke-linecap:butt;stroke-linejoin:miter;stroke-opacity:1" d="M 234.17,448.131 243.895,442.728 z" id="boundary" inkscape:connector-curvature="0" />
	<path style="fill:none;stroke:red;stroke-width:1px;stroke-linecap:butt;stroke-linejoin:miter;stroke-opacity:1" d="M 254.702,442.728 265.508,442.728 z" id="boundary" inkscape:connector-curvature="0" />
	<path style="fill:none;stroke:red;stroke-width:1px;stroke-linecap:butt;stroke-linejoin:miter;stroke-opacity:1" d="M 276.314,442.728 287.12,442.728 z" id="boundary" inkscape:connector-curvature="0" />
	<path style="fill:none;stroke:red;stroke-width:1px;stroke-linecap:butt;stroke-linejoin:miter;stroke-opacity:1" d="M 276.314,442.728 265.508,442.728 z" id="boundary" inkscape:connector-curvature="0" />
	<path style="fill:none;stroke:red;stroke-width:1px;stroke-linecap:butt;stroke-linejoin:miter;stroke-opacity:1" d="M 297.926,442.728 308.732,442.728 z" id="boundary" inkscape:connector-curvature="0" />
	<path style="fill:none;stroke:red;stroke-width:1px;stroke-linecap:butt;stroke-linejoin:miter;stroke-opacity:1" d="M 297.926,442.728 287.12,442.728 z" id="boundary" inkscape:connector-curvature="0" />
	<path style="fill:none;stroke:red;stroke-width:1px;stroke-linecap:butt;stroke-linejoin:miter;stroke-opacity:1" d="M 319.538,442.728 330.344,442.728 z" id="boundary" inkscape:connector-curvature="0" />
	<path style="fill:none;stroke:red;stroke-width:1px;stroke-linecap:butt;stroke-linejoin:miter;stroke-opacity:1" d="M 319.538,442.728 308.732,442.728 z" id="boundary" inkscape:connector-curvature="0" />
	<path style="fill:none;stroke:red;stroke-width:1px;stroke-linecap:butt;stroke-linejoin:miter;stroke-opacity:1" d="M 341.15,442.728 351.956,442.728 z" id="boundary" inkscape:connector-curvature="0" />
	<path style="fill:none;stroke:red;stroke-width:1px;stroke-linecap:butt;stroke-linejoin:miter;stroke-opacity:1" d="M 341.15,442.728 330.344,442.728 z" id="boundary" inkscape:connector-curvature="0" />
	<path style="fill:none;stroke:red;stroke-width:1px;stroke-linecap:butt;stroke-linejoin:miter;stroke-opacity:1" d="M 362.763,442.728 373.569,442.728 z" id="boundary" inkscape:connector-curvature="0" />
	<path style="fill:none;stroke:red;stroke-width:1px;stroke-linecap:butt;stroke-linejoin:miter;stroke-opacity:1" d="M 362.763,442.728 351.956,442.728 z" id="boundary" inkscape:connector-curvature="0" />
	<path style="fill:none;stroke:red;stroke-width:1px;stroke-linecap:butt;stroke-linejoin:miter;stroke-opacity:1" d="M 384.375,442.728 395.181,442.728 z" id="boundary" inkscape:connector-curvature="0" />
	<path style="fill:none;stroke:red;stroke-width:1px;stroke-linecap:butt;stroke-linejoin:miter;stroke-opacity:1" d="M 384.375,442.728 373.569,442.728 z" id="boundary" inkscape:connector-curvature="0" />
	<path style="fill:none;stroke:red;stroke-width:1px;stroke-linecap:butt;stroke-linejoin:miter;stroke-opacity:1" d="M 395.181,442.728 405.987,442.728 z" id="boundary" inkscape:connector-curvature="0" />
	<path style="fill:none;stroke:red;stroke-width:1px;stroke-linecap:butt;stroke-linejoin:miter;stroke-opacity:1" d="M 190.946,448.131 180.139,448.131 z" id="boundary" inkscape:connector-curvature="0" />
	<path style="fill:none;stroke:red;stroke-width:1px;stroke-linecap:butt;stroke-linejoin:miter;stroke-opacity:1" d="M 190.946,448.131 201.752,448.131 z" id="boundary" inkscape:connector-curvature="0" />
	<path style="fill:none;stroke:red;stroke-width:1px;stroke-linecap:butt;stroke-linejoin:miter;stroke-opacity:1" d="M 212.558,448.131 223.364,448.131 z" id="boundary" inkscape:connector-curvature="0" />
	<path style="fill:none;stroke:red;stroke-width:1px;stroke-linecap:butt;stroke-linejoin:miter;stroke-opacity:1" d="M 212.558,448.131 201.752,448.131 z" id="boundary" inkscape:connector-curvature="0" />
	<path style="fill:none;stroke:red;stroke-width:1px;stroke-linecap:butt;stroke-linejoin:miter;stroke-opacity:1" d="M 234.17,448.131 223.364,448.131 z" id="boundary" inkscape:connector-curvature="0" />
	<path style="fill:none;stroke:red;stroke-width:1px;stroke-linecap:butt;stroke-linejoin:miter;stroke-opacity:1" d="M 416.793,442.728 422.196,452.453 z" id="boundary" inkscape:connector-curvature="0" />
	<path style="fill:none;stroke:red;stroke-width:1px;stroke-linecap:butt;stroke-linejoin:miter;stroke-opacity:1" d="M 405.987,442.728 416.793,442.728 z" id="boundary" inkscape:connector-curvature="0" />
	<path style="fill:none;stroke:red;stroke-width:1px;stroke-linecap:butt;stroke-linejoin:miter;stroke-opacity:1" d="M 430.841,458.937 422.196,452.453 z" id="boundary" inkscape:connector-curvature="0" />
	<path style="fill:none;stroke:red;stroke-width:1px;stroke-linecap:butt;stroke-linejoin:miter;stroke-opacity:1" d="M 430.841,458.937 434.083,469.743 z" id="boundary" inkscape:connector-curvature="0" />
	<path style="fill:none;stroke:red;stroke-width:1px;stroke-linecap:butt;stroke-linejoin:miter;stroke-opacity:1" d="M 443.808,475.146 434.083,469.743 z" id="boundary" inkscape:connector-curvature="0" />
	<path style="fill:none;stroke:red;stroke-width:1px;stroke-linecap:butt;stroke-linejoin:miter;stroke-opacity:1" d="M 443.808,475.146 452.453,481.63 z" id="boundary" inkscape:connector-curvature="0" />
	<path style="fill:none;stroke:red;stroke-width:1px;stroke-linecap:butt;stroke-linejoin:miter;stroke-opacity:1" d="M 463.259,485.952 452.453,481.63 z" id="boundary" inkscape:connector-curvature="0" />
	<path style="fill:none;stroke:red;stroke-width:1px;stroke-linecap:butt;stroke-linejoin:miter;stroke-opacity:1" d="M 463.259,485.952 472.985,491.355 z" id="boundary" inkscape:connector-curvature="0" />
	<path style="fill:none;stroke:red;stroke-width:1px;stroke-linecap:butt;stroke-linejoin:miter;stroke-opacity:1" d="M 483.791,491.355 472.985,491.355 z" id="boundary" inkscape:connector-curvature="0" />
	<path style="fill:none;stroke:red;stroke-width:1px;stroke-linecap:butt;stroke-linejoin:miter;stroke-opacity:1" d="M 498.919,4 509.725,4 z" id="boundary" inkscape:connector-curvature="0" />
	<path style="fill:none;stroke:red;stroke-width:1px;stroke-linecap:butt;stroke-linejoin:miter;stroke-opacity:1" d="M 489.194,9.40305 498.919,4 z" id="boundary" inkscape:connector-curvature="0" />
	<path style="fill:none;stroke:red;stroke-width:1px;stroke-linecap:butt;stroke-linejoin:miter;stroke-opacity:1" d="M 509.725,4 520.532,4 z" id="boundary" inkscape:connector-curvature="0" />
	<path style="fill:none;stroke:red;stroke-width:1px;stroke-linecap:butt;stroke-linejoin:miter;stroke-opacity:1" d="M 531.338,4 542.144,4 z" id="boundary" inkscape:connector-curvature="0" />
	<path style="fill:none;stroke:red;stroke-width:1px;stroke-linecap:butt;stroke-linejoin:miter;stroke-opacity:1" d="M 520.532,4 531.338,4 z" id="boundary" inkscape:connector-curvature="0" />
	<path style="fill:none;stroke:red;stroke-width:1px;stroke-linecap:butt;stroke-linejoin:miter;stroke-opacity:1" d="M 542.144,4 552.95,4 z" id="boundary" inkscape:connector-curvature="0" />
	<path style="fill:none;stroke:red;stroke-width:1px;stroke-linecap:butt;stroke-linejoin:miter;stroke-opacity:1" d="M 552.95,4 563.756,4 z" id="boundary" inkscape:connector-curvature="0" />
	<path style="fill:none;stroke:red;stroke-width:1px;stroke-linecap:butt;stroke-linejoin:miter;stroke-opacity:1" d="M 574.562,4 585.368,4 z" id="boundary" inkscape:connector-curvature="0" />
	<path style="fill:none;stroke:red;stroke-width:1px;stroke-linecap:butt;stroke-linejoin:miter;stroke-opacity:1" d="M 585.368,4 596.174,4 z" id="boundary" inkscape:connector-curvature="0" />
	<path style="fill:none;stroke:red;stroke-width:1px;stroke-linecap:butt;stroke-linejoin:miter;stroke-opacity:1" d="M 606.98,4 616.706,9.40305 z" id="boundary" inkscape:connector-curvature="0" />
	<path style="fill:none;stroke:red;stroke-width:1px;stroke-linecap:butt;stroke-linejoin:miter;stroke-opacity:1" d="M 596.174,4 606.98,4 z" id="boundary" inkscape:connector-curvature="0" />
	<path style="fill:none;stroke:red;stroke-width:1px;stroke-linecap:butt;stroke-linejoin:miter;stroke-opacity:1" d="M 627.512,9.40305 616.706,9.40305 z" id="boundary" inkscape:connector-curvature="0" />
	<path style="fill:none;stroke:red;stroke-width:1px;stroke-linecap:butt;stroke-linejoin:miter;stroke-opacity:1" d="M 627.512,9.40305 638.318,9.40305 z" id="boundary" inkscape:connector-curvature="0" />
	<path style="fill:none;stroke:red;stroke-width:1px;stroke-linecap:butt;stroke-linejoin:miter;stroke-opacity:1" d="M 638.318,9.40305 648.044,14.8061 z" id="boundary" inkscape:connector-curvature="0" />
	<path style="fill:none;stroke:red;stroke-width:1px;stroke-linecap:butt;stroke-linejoin:miter;stroke-opacity:1" d="M 563.756,4 574.562,4 z" id="boundary" inkscape:connector-curvature="0" />
	<path style="fill:none;stroke:red;stroke-width:1px;stroke-linecap:butt;stroke-linejoin:miter;stroke-opacity:1" d="M 648.044,14.8061 658.85,14.8061 z" id="boundary" inkscape:connector-curvature="0" />
	<path style="fill:none;stroke:red;stroke-width:1px;stroke-linecap:butt;stroke-linejoin:miter;stroke-opacity:1" d="M 658.85,14.8061 669.656,18.0479 z" id="boundary" inkscape:connector-curvature="0" />
	<path style="fill:none;stroke:red;stroke-width:1px;stroke-linecap:butt;stroke-linejoin:miter;stroke-opacity:1" d="M 680.462,20.2092 669.656,18.0479 z" id="boundary" inkscape:connector-curvature="0" />
	<path style="fill:none;stroke:red;stroke-width:1px;stroke-linecap:butt;stroke-linejoin:miter;stroke-opacity:1" d="M 680.462,20.2092 690.187,25.6122 z" id="boundary" inkscape:connector-curvature="0" />
	<path style="fill:none;stroke:red;stroke-width:1px;stroke-linecap:butt;stroke-linejoin:miter;stroke-opacity:1" d="M 700.993,25.6122 690.187,25.6122 z" id="boundary" inkscape:connector-curvature="0" />
	<path style="fill:none;stroke:red;stroke-width:1px;stroke-linecap:butt;stroke-linejoin:miter;stroke-opacity:1" d="M 700.993,25.6122 711.8,25.6122 z" id="boundary" inkscape:connector-curvature="0" />
	<path style="fill:none;stroke:red;stroke-width:1px;stroke-linecap:butt;stroke-linejoin:miter;stroke-opacity:1" d="M 711.8,25.6122 721.525,31.0153 z" id="boundary" inkscape:connector-curvature="0" />
	<path style="fill:none;stroke:red;stroke-width:1px;stroke-linecap:butt;stroke-linejoin:miter;stroke-opacity:1" d="M 721.525,31.0153 732.331,32.0959 z" id="boundary" inkscape:connector-curvature="0" />
	<path style="fill:none;stroke:red;stroke-width:1px;stroke-linecap:butt;stroke-linejoin:miter;stroke-opacity:1" d="M 732.331,32.0959 742.057,37.4989 z" id="boundary" inkscape:connector-curvature="0" />
	<path style="fill:none;stroke:red;stroke-width:1px;stroke-linecap:butt;stroke-linejoin:miter;stroke-opacity:1" d="M 742.057,37.4989 750.702,45.0632 z" id="boundary" inkscape:connector-curvature="0" />
	<path style="fill:none;stroke:red;stroke-width:1px;stroke-linecap:butt;stroke-linejoin:miter;stroke-opacity:1" d="M 760.427,50.4662 750.702,45.0632 z" id="boundary" inkscape:connector-curvature="0" />
	<path style="fill:none;stroke:red;stroke-width:1px;stroke-linecap:butt;stroke-linejoin:miter;stroke-opacity:1" d="M 765.83,60.1917 766.911,70.9978 z" id="boundary" inkscape:connector-curvature="0" />
	<path style="fill:none;stroke:red;stroke-width:1px;stroke-linecap:butt;stroke-linejoin:miter;stroke-opacity:1" d="M 765.83,60.1917 760.427,50.4662 z" id="boundary" inkscape:connector-curvature="0" />
	<path style="fill:none;stroke:red;stroke-width:1px;stroke-linecap:butt;stroke-linejoin:miter;stroke-opacity:1" d="M 766.911,70.9978 766.911,81.8039 z" id="boundary" inkscape:connector-curvature="0" />
	<path style="fill:none;stroke:red;stroke-width:1px;stroke-linecap:butt;stroke-linejoin:miter;stroke-opacity:1" d="M 766.911,81.8039 766.911,92.61 z" id="boundary" inkscape:connector-curvature="0" />
	<path style="fill:none;stroke:red;stroke-width:1px;stroke-linecap:butt;stroke-linejoin:miter;stroke-opacity:1" d="M 766.911,92.61 766.911,103.416 z" id="boundary" inkscape:connector-curvature="0" />
	<path style="fill:none;stroke:red;stroke-width:1px;stroke-linecap:butt;stroke-linejoin:miter;stroke-opacity:1" d="M 766.911,114.222 766.911,103.416 z" id="boundary" inkscape:connector-curvature="0" />
	<path style="fill:none;stroke:red;stroke-width:1px;stroke-linecap:butt;stroke-linejoin:miter;stroke-opacity:1" d="M 766.911,125.028 766.911,114.222 z" id="boundary" inkscape:connector-curvature="0" />
	<path style="fill:none;stroke:red;stroke-width:1px;stroke-linecap:butt;stroke-linejoin:miter;stroke-opacity:1" d="M 773.394,133.673 766.911,125.028 z" id="boundary" inkscape:connector-curvature="0" />
	<path style="fill:none;stroke:red;stroke-width:1px;stroke-linecap:butt;stroke-linejoin:miter;stroke-opacity:1" d="M 783.12,139.076 793.926,139.076 z" id="boundary" inkscape:connector-curvature="0" />
	<path style="fill:none;stroke:red;stroke-width:1px;stroke-linecap:butt;stroke-linejoin:miter;stroke-opacity:1" d="M 793.926,139.076 803.651,144.479 z" id="boundary" inkscape:connector-curvature="0" />
	<path style="fill:none;stroke:red;stroke-width:1px;stroke-linecap:butt;stroke-linejoin:miter;stroke-opacity:1" d="M 783.12,139.076 773.394,133.673 z" id="boundary" inkscape:connector-curvature="0" />
	<path style="fill:none;stroke:red;stroke-width:1px;stroke-linecap:butt;stroke-linejoin:miter;stroke-opacity:1" d="M 803.651,144.479 812.296,150.963 z" id="boundary" inkscape:connector-curvature="0" />
	<path style="fill:none;stroke:red;stroke-width:1px;stroke-linecap:butt;stroke-linejoin:miter;stroke-opacity:1" d="M 823.102,155.285 812.296,150.963 z" id="boundary" inkscape:connector-curvature="0" />
	<path style="fill:none;stroke:red;stroke-width:1px;stroke-linecap:butt;stroke-linejoin:miter;stroke-opacity:1" d="M 823.102,155.285 832.828,160.688 z" id="boundary" inkscape:connector-curvature="0" />
	<path style="fill:none;stroke:red;stroke-width:1px;stroke-linecap:butt;stroke-linejoin:miter;stroke-opacity:1" d="M 843.634,160.688 832.828,160.688 z" id="boundary" inkscape:connector-curvature="0" />
	<path style="fill:none;stroke:red;stroke-width:1px;stroke-linecap:butt;stroke-linejoin:miter;stroke-opacity:1" d="M 843.634,160.688 854.44,160.688 z" id="boundary" inkscape:connector-curvature="0" />
	<path style="fill:none;stroke:red;stroke-width:1px;stroke-linecap:butt;stroke-linejoin:miter;stroke-opacity:1" d="M 865.246,160.688 876.052,160.688 z" id="boundary" inkscape:connector-curvature="0" />
	<path style="fill:none;stroke:red;stroke-width:1px;stroke-linecap:butt;stroke-linejoin:miter;stroke-opacity:1" d="M 854.44,160.688 865.246,160.688 z" id="boundary" inkscape:connector-curvature="0" />
	<path style="fill:none;stroke:red;stroke-width:1px;stroke-linecap:butt;stroke-linejoin:miter;stroke-opacity:1" d="M 886.858,160.688 897.664,160.688 z" id="boundary" inkscape:connector-curvature="0" />
	<path style="fill:none;stroke:red;stroke-width:1px;stroke-linecap:butt;stroke-linejoin:miter;stroke-opacity:1" d="M 886.858,160.688 876.052,160.688 z" id="boundary" inkscape:connector-curvature="0" />
	<path style="fill:none;stroke:red;stroke-width:1px;stroke-linecap:butt;stroke-linejoin:miter;stroke-opacity:1" d="M 897.664,160.688 908.471,160.688 z" id="boundary" inkscape:connector-curvature="0" />
	<path style="fill:none;stroke:red;stroke-width:1px;stroke-linecap:butt;stroke-linejoin:miter;stroke-opacity:1" d="M 919.277,160.688 930.083,160.688 z" id="boundary" inkscape:connector-curvature="0" />
	<path style="fill:none;stroke:red;stroke-width:1px;stroke-linecap:butt;stroke-linejoin:miter;stroke-opacity:1" d="M 919.277,160.688 908.471,160.688 z" id="boundary" inkscape:connector-curvature="0" />
	<path style="fill:none;stroke:red;stroke-width:1px;stroke-linecap:butt;stroke-linejoin:miter;stroke-opacity:1" d="M 940.889,160.688 951.695,160.688 z" id="boundary" inkscape:connector-curvature="0" />
	<path style="fill:none;stroke:red;stroke-width:1px;stroke-linecap:butt;stroke-linejoin:miter;stroke-opacity:1" d="M 940.889,160.688 930.083,160.688 z" id="boundary" inkscape:connector-curvature="0" />
	<path style="fill:none;stroke:red;stroke-width:1px;stroke-linecap:butt;stroke-linejoin:miter;stroke-opacity:1" d="M 962.501,160.688 973.307,160.688 z" id="boundary" inkscape:connector-curvature="0" />
	<path style="fill:none;stroke:red;stroke-width:1px;stroke-linecap:butt;stroke-linejoin:miter;stroke-opacity:1" d="M 973.307,160.688 983.033,166.092 z" id="boundary" inkscape:connector-curvature="0" />
	<path style="fill:none;stroke:red;stroke-width:1px;stroke-linecap:butt;stroke-linejoin:miter;stroke-opacity:1" d="M 962.501,160.688 951.695,160.688 z" id="boundary" inkscape:connector-curvature="0" />
	<path style="fill:none;stroke:red;stroke-width:1px;stroke-linecap:butt;stroke-linejoin:miter;stroke-opacity:1" d="M 983.033,166.092 991.678,172.575 z" id="boundary" inkscape:connector-curvature="0" />
	<path style="fill:none;stroke:red;stroke-width:1px;stroke-linecap:butt;stroke-linejoin:miter;stroke-opacity:1" d="M 991.678,172.575 993.839,183.381 z" id="boundary" inkscape:connector-curvature="0" />
	<path style="fill:none;stroke:red;stroke-width:1px;stroke-linecap:butt;stroke-linejoin:miter;stroke-opacity:1" d="M 993.839,183.381 993.839,194.187 z" id="boundary" inkscape:connector-curvature="0" />
	<path style="fill:none;stroke:red;stroke-width:1px;stroke-linecap:butt;stroke-linejoin:miter;stroke-opacity:1" d="M 996,215.8 993.839,204.993 z" id="boundary" inkscape:connector-curvature="0" />
	<path style="fill:none;stroke:red;stroke-width:1px;stroke-linecap:butt;stroke-linejoin:miter;stroke-opacity:1" d="M 993.839,204.993 993.839,194.187 z" id="boundary" inkscape:connector-curvature="0" />
	<path style="fill:none;stroke:red;stroke-width:1px;stroke-linecap:butt;stroke-linejoin:miter;stroke-opacity:1" d="M 996,215.8 993.839,226.606 z" id="boundary" inkscape:connector-curvature="0" />
	<path style="fill:none;stroke:red;stroke-width:1px;stroke-linecap:butt;stroke-linejoin:miter;stroke-opacity:1" d="M 576.723,437.325 587.529,437.325 z" id="boundary" inkscape:connector-curvature="0" />
	<path style="fill:none;stroke:red;stroke-width:1px;stroke-linecap:butt;stroke-linejoin:miter;stroke-opacity:1" d="M 566.998,442.728 576.723,437.325 z" id="boundary" inkscape:connector-curvature="0" />
	<path style="fill:none;stroke:red;stroke-width:1px;stroke-linecap:butt;stroke-linejoin:miter;stroke-opacity:1" d="M 598.336,437.325 587.529,437.325 z" id="boundary" inkscape:connector-curvature="0" />
	<path style="fill:none;stroke:red;stroke-width:1px;stroke-linecap:butt;stroke-linejoin:miter;stroke-opacity:1" d="M 609.142,437.325 598.336,437.325 z" id="boundary" inkscape:connector-curvature="0" />
	<path style="fill:none;stroke:red;stroke-width:1px;stroke-linecap:butt;stroke-linejoin:miter;stroke-opacity:1" d="M 609.142,437.325 619.948,437.325 z" id="boundary" inkscape:connector-curvature="0" />
	<path style="fill:none;stroke:red;stroke-width:1px;stroke-linecap:butt;stroke-linejoin:miter;stroke-opacity:1" d="M 630.754,437.325 619.948,437.325 z" id="boundary" inkscape:connector-curvature="0" />
	<path style="fill:none;stroke:red;stroke-width:1px;stroke-linecap:butt;stroke-linejoin:miter;stroke-opacity:1" d="M 630.754,437.325 641.56,437.325 z" id="boundary" inkscape:connector-curvature="0" />
	<path style="fill:none;stroke:red;stroke-width:1px;stroke-linecap:butt;stroke-linejoin:miter;stroke-opacity:1" d="M 652.366,437.325 641.56,437.325 z" id="boundary" inkscape:connector-curvature="0" />
	<path style="fill:none;stroke:red;stroke-width:1px;stroke-linecap:butt;stroke-linejoin:miter;stroke-opacity:1" d="M 663.172,437.325 652.366,437.325 z" id="boundary" inkscape:connector-curvature="0" />
	<path style="fill:none;stroke:red;stroke-width:1px;stroke-linecap:butt;stroke-linejoin:miter;stroke-opacity:1" d="M 726.928,431.922 716.122,431.922 z" id="boundary" inkscape:connector-curvature="0" />
	<path style="fill:none;stroke:red;stroke-width:1px;stroke-linecap:butt;stroke-linejoin:miter;stroke-opacity:1" d="M 737.734,431.922 726.928,431.922 z" id="boundary" inkscape:connector-curvature="0" />
	<path style="fill:none;stroke:red;stroke-width:1px;stroke-linecap:butt;stroke-linejoin:miter;stroke-opacity:1" d="M 779.878,426.519 769.072,426.519 z" id="boundary" inkscape:connector-curvature="0" />
	<path style="fill:none;stroke:red;stroke-width:1px;stroke-linecap:butt;stroke-linejoin:miter;stroke-opacity:1" d="M 759.346,431.922 769.072,426.519 z" id="boundary" inkscape:connector-curvature="0" />
	<path style="fill:none;stroke:red;stroke-width:1px;stroke-linecap:butt;stroke-linejoin:miter;stroke-opacity:1" d="M 706.397,437.325 716.122,431.922 z" id="boundary" inkscape:connector-curvature="0" />
	<path style="fill:none;stroke:red;stroke-width:1px;stroke-linecap:butt;stroke-linejoin:miter;stroke-opacity:1" d="M 737.734,431.922 748.54,431.922 z" id="boundary" inkscape:connector-curvature="0" />
	<path style="fill:none;stroke:red;stroke-width:1px;stroke-linecap:butt;stroke-linejoin:miter;stroke-opacity:1" d="M 759.346,431.922 748.54,431.922 z" id="boundary" inkscape:connector-curvature="0" />
	<path style="fill:none;stroke:red;stroke-width:1px;stroke-linecap:butt;stroke-linejoin:miter;stroke-opacity:1" d="M 550.789,464.34 542.144,479.468 z" id="boundary" inkscape:connector-curvature="0" />
	<path style="fill:none;stroke:red;stroke-width:1px;stroke-linecap:butt;stroke-linejoin:miter;stroke-opacity:1" d="M 536.741,490.275 542.144,479.468 z" id="boundary" inkscape:connector-curvature="0" />
	<path style="fill:none;stroke:red;stroke-width:1px;stroke-linecap:butt;stroke-linejoin:miter;stroke-opacity:1" d="M 536.741,490.275 525.935,495.678 z" id="boundary" inkscape:connector-curvature="0" />
	<path style="fill:none;stroke:red;stroke-width:1px;stroke-linecap:butt;stroke-linejoin:miter;stroke-opacity:1" d="M 493.516,496.758 483.791,491.355 z" id="boundary" inkscape:connector-curvature="0" />
	<path style="fill:none;stroke:red;stroke-width:1px;stroke-linecap:butt;stroke-linejoin:miter;stroke-opacity:1" d="M 504.322,496.758 493.516,496.758 z" id="boundary" inkscape:connector-curvature="0" />
	<path style="fill:none;stroke:red;stroke-width:1px;stroke-linecap:butt;stroke-linejoin:miter;stroke-opacity:1" d="M 515.129,496.758 504.322,496.758 z" id="boundary" inkscape:connector-curvature="0" />
	<path style="fill:none;stroke:red;stroke-width:1px;stroke-linecap:butt;stroke-linejoin:miter;stroke-opacity:1" d="M 525.935,495.678 515.129,496.758 z" id="boundary" inkscape:connector-curvature="0" />
	<path style="fill:none;stroke:red;stroke-width:1px;stroke-linecap:butt;stroke-linejoin:miter;stroke-opacity:1" d="M 663.172,437.325 673.978,437.325 z" id="boundary" inkscape:connector-curvature="0" />
	<path style="fill:none;stroke:red;stroke-width:1px;stroke-linecap:butt;stroke-linejoin:miter;stroke-opacity:1" d="M 684.784,437.325 695.59,437.325 z" id="boundary" inkscape:connector-curvature="0" />
	<path style="fill:none;stroke:red;stroke-width:1px;stroke-linecap:butt;stroke-linejoin:miter;stroke-opacity:1" d="M 684.784,437.325 673.978,437.325 z" id="boundary" inkscape:connector-curvature="0" />
	<path style="fill:none;stroke:red;stroke-width:1px;stroke-linecap:butt;stroke-linejoin:miter;stroke-opacity:1" d="M 559.434,456.776 550.789,464.34 z" id="boundary" inkscape:connector-curvature="0" />
	<path style="fill:none;stroke:red;stroke-width:1px;stroke-linecap:butt;stroke-linejoin:miter;stroke-opacity:1" d="M 566.998,442.728 559.434,456.776 z" id="boundary" inkscape:connector-curvature="0" />
	<path style="fill:none;stroke:red;stroke-width:1px;stroke-linecap:butt;stroke-linejoin:miter;stroke-opacity:1" d="M 695.59,437.325 706.397,437.325 z" id="boundary" inkscape:connector-curvature="0" />
	<path style="fill:none;stroke:red;stroke-width:1px;stroke-linecap:butt;stroke-linejoin:miter;stroke-opacity:1" d="M 956.017,329.264 950.614,340.07 z" id="boundary" inkscape:connector-curvature="0" />
	<path style="fill:none;stroke:red;stroke-width:1px;stroke-linecap:butt;stroke-linejoin:miter;stroke-opacity:1" d="M 961.42,296.845 961.42,307.651 z" id="boundary" inkscape:connector-curvature="0" />
	<path style="fill:none;stroke:red;stroke-width:1px;stroke-linecap:butt;stroke-linejoin:miter;stroke-opacity:1" d="M 918.196,367.085 923.599,356.279 z" id="boundary" inkscape:connector-curvature="0" />
	<path style="fill:none;stroke:red;stroke-width:1px;stroke-linecap:butt;stroke-linejoin:miter;stroke-opacity:1" d="M 923.599,356.279 934.405,356.279 z" id="boundary" inkscape:connector-curvature="0" />
	<path style="fill:none;stroke:red;stroke-width:1px;stroke-linecap:butt;stroke-linejoin:miter;stroke-opacity:1" d="M 912.793,383.294 918.196,367.085 z" id="boundary" inkscape:connector-curvature="0" />
	<path style="fill:none;stroke:red;stroke-width:1px;stroke-linecap:butt;stroke-linejoin:miter;stroke-opacity:1" d="M 944.131,350.876 934.405,356.279 z" id="boundary" inkscape:connector-curvature="0" />
	<path style="fill:none;stroke:red;stroke-width:1px;stroke-linecap:butt;stroke-linejoin:miter;stroke-opacity:1" d="M 950.614,340.07 944.131,350.876 z" id="boundary" inkscape:connector-curvature="0" />
	<path style="fill:none;stroke:red;stroke-width:1px;stroke-linecap:butt;stroke-linejoin:miter;stroke-opacity:1" d="M 972.227,259.024 977.63,248.218 z" id="boundary" inkscape:connector-curvature="0" />
	<path style="fill:none;stroke:red;stroke-width:1px;stroke-linecap:butt;stroke-linejoin:miter;stroke-opacity:1" d="M 977.63,248.218 988.436,237.412 z" id="boundary" inkscape:connector-curvature="0" />
	<path style="fill:none;stroke:red;stroke-width:1px;stroke-linecap:butt;stroke-linejoin:miter;stroke-opacity:1" d="M 988.436,237.412 993.839,226.606 z" id="boundary" inkscape:connector-curvature="0" />
	<path style="fill:none;stroke:red;stroke-width:1px;stroke-linecap:butt;stroke-linejoin:miter;stroke-opacity:1" d="M 972.227,259.024 966.824,275.233 z" id="boundary" inkscape:connector-curvature="0" />
	<path style="fill:none;stroke:red;stroke-width:1px;stroke-linecap:butt;stroke-linejoin:miter;stroke-opacity:1" d="M 961.42,307.651 961.42,318.458 z" id="boundary" inkscape:connector-curvature="0" />
	<path style="fill:none;stroke:red;stroke-width:1px;stroke-linecap:butt;stroke-linejoin:miter;stroke-opacity:1" d="M 961.42,318.458 956.017,329.264 z" id="boundary" inkscape:connector-curvature="0" />
	<path style="fill:none;stroke:red;stroke-width:1px;stroke-linecap:butt;stroke-linejoin:miter;stroke-opacity:1" d="M 961.42,296.845 966.824,286.039 z" id="boundary" inkscape:connector-curvature="0" />
	<path style="fill:none;stroke:red;stroke-width:1px;stroke-linecap:butt;stroke-linejoin:miter;stroke-opacity:1" d="M 966.824,286.039 966.824,275.233 z" id="boundary" inkscape:connector-curvature="0" />
	<path style="fill:none;stroke:red;stroke-width:1px;stroke-linecap:butt;stroke-linejoin:miter;stroke-opacity:1" d="M 790.684,426.519 779.878,426.519 z" id="boundary" inkscape:connector-curvature="0" />
	<path style="fill:none;stroke:red;stroke-width:1px;stroke-linecap:butt;stroke-linejoin:miter;stroke-opacity:1" d="M 790.684,426.519 801.49,426.519 z" id="boundary" inkscape:connector-curvature="0" />
	<path style="fill:none;stroke:red;stroke-width:1px;stroke-linecap:butt;stroke-linejoin:miter;stroke-opacity:1" d="M 801.49,426.519 809.054,435.163 z" id="boundary" inkscape:connector-curvature="0" />
	<path style="fill:none;stroke:red;stroke-width:1px;stroke-linecap:butt;stroke-linejoin:miter;stroke-opacity:1" d="M 809.054,435.163 814.458,444.889 z" id="boundary" inkscape:connector-curvature="0" />
	<path style="fill:none;stroke:red;stroke-width:1px;stroke-linecap:butt;stroke-linejoin:miter;stroke-opacity:1" d="M 814.458,444.889 825.264,448.131 z" id="boundary" inkscape:connector-curvature="0" />
	<path style="fill:none;stroke:red;stroke-width:1px;stroke-linecap:butt;stroke-linejoin:miter;stroke-opacity:1" d="M 825.264,448.131 834.989,453.534 z" id="boundary" inkscape:connector-curvature="0" />
	<path style="fill:none;stroke:red;stroke-width:1px;stroke-linecap:butt;stroke-linejoin:miter;stroke-opacity:1" d="M 845.795,451.373 834.989,453.534 z" id="boundary" inkscape:connector-curvature="0" />
	<path style="fill:none;stroke:red;stroke-width:1px;stroke-linecap:butt;stroke-linejoin:miter;stroke-opacity:1" d="M 856.601,445.969 845.795,451.373 z" id="boundary" inkscape:connector-curvature="0" />
	<path style="fill:none;stroke:red;stroke-width:1px;stroke-linecap:butt;stroke-linejoin:miter;stroke-opacity:1" d="M 894.423,418.954 901.987,404.906 z" id="boundary" inkscape:connector-curvature="0" />
	<path style="fill:none;stroke:red;stroke-width:1px;stroke-linecap:butt;stroke-linejoin:miter;stroke-opacity:1" d="M 907.39,394.1 912.793,383.294 z" id="boundary" inkscape:connector-curvature="0" />
	<path style="fill:none;stroke:red;stroke-width:1px;stroke-linecap:butt;stroke-linejoin:miter;stroke-opacity:1" d="M 907.39,394.1 901.987,404.906 z" id="boundary" inkscape:connector-curvature="0" />
	<path style="fill:none;stroke:red;stroke-width:1px;stroke-linecap:butt;stroke-linejoin:miter;stroke-opacity:1" d="M 894.423,418.954 885.778,426.519 z" id="boundary" inkscape:connector-curvature="0" />
	<path style="fill:none;stroke:red;stroke-width:1px;stroke-linecap:butt;stroke-linejoin:miter;stroke-opacity:1" d="M 867.407,440.566 856.601,445.969 z" id="boundary" inkscape:connector-curvature="0" />
	<path style="fill:none;stroke:red;stroke-width:1px;stroke-linecap:butt;stroke-linejoin:miter;stroke-opacity:1" d="M 878.214,435.163 885.778,426.519 z" id="boundary" inkscape:connector-curvature="0" />
	<path style="fill:none;stroke:red;stroke-width:1px;stroke-linecap:butt;stroke-linejoin:miter;stroke-opacity:1" d="M 878.214,435.163 867.407,440.566 z" id="boundary" inkscape:connector-curvature="0" />
	<circle cx="4" cy="261.185" r="4" fill="#0" id="circle0"/>
	<circle cx="4" cy="271.991" r="4" fill="#0" id="circle1"/>
	<circle cx="9.40305" cy="250.379" r="4" fill="#0" id="circle2"/>
	<circle cx="9.40305" cy="281.717" r="4" fill="#0" id="circle3"/>
	<circle cx="14.8061" cy="291.442" r="4" fill="#0" id="circle4"/>
	<circle cx="18.0479" cy="241.734" r="4" fill="#0" id="circle5"/>
	<circle cx="21.2898" cy="300.087" r="4" fill="#0" id="circle6"/>
	<circle cx="27.7734" cy="236.331" r="4" fill="#0" id="circle7"/>
	<circle cx="29.9346" cy="307.651" r="4" fill="#0" id="circle8"/>
	<circle cx="31.0153" cy="318.458" r="4" fill="#0" id="circle9"/>
	<circle cx="31.0153" cy="329.264" r="4" fill="#0" id="circle10"/>
	<circle cx="31.0153" cy="340.07" r="4" fill="#0" id="circle11"/>
	<circle cx="31.0153" cy="350.876" r="4" fill="#0" id="circle12"/>
	<circle cx="31.0153" cy="361.682" r="4" fill="#0" id="circle13"/>
	<circle cx="31.0153" cy="372.488" r="4" fill="#0" id="circle14"/>
	<circle cx="31.0153" cy="383.294" r="4" fill="#0" id="circle15"/>
	<circle cx="31.0153" cy="394.1" r="4" fill="#0" id="circle16"/>
	<circle cx="31.0153" cy="404.906" r="4" fill="#0" id="circle17"/>
	<circle cx="36.4183" cy="228.767" r="4" fill="#0" id="circle18"/>
	<circle cx="37.4989" cy="413.551" r="4" fill="#0" id="circle19"/>
	<circle cx="45.0632" cy="220.122" r="4" fill="#0" id="circle20"/>
	<circle cx="46.1438" cy="421.115" r="4" fill="#0" id="circle21"/>
	<circle cx="47.2244" cy="431.922" r="4" fill="#0" id="circle22"/>
	<circle cx="47.2244" cy="442.728" r="4" fill="#0" id="circle23"/>
	<circle cx="50.4662" cy="453.534" r="4" fill="#0" id="circle24"/>
	<circle cx="55.8693" cy="214.719" r="4" fill="#0" id="circle25"/>
	<circle cx="55.8693" cy="463.259" r="4" fill="#0" id="circle26"/>
	<circle cx="65.5948" cy="468.662" r="4" fill="#0" id="circle27"/>
	<circle cx="66.6754" cy="209.316" r="4" fill="#0" id="circle28"/>
	<circle cx="76.4009" cy="469.743" r="4" fill="#0" id="circle29"/>
	<circle cx="77.4815" cy="203.913" r="4" fill="#0" id="circle30"/>
	<circle cx="86.1264" cy="475.146" r="4" fill="#0" id="circle31"/>
	<circle cx="88.2876" cy="198.51" r="4" fill="#0" id="circle32"/>
	<circle cx="96.9325" cy="475.146" r="4" fill="#0" id="circle33"/>
	<circle cx="98.0131" cy="193.107" r="4" fill="#0" id="circle34"/>
	<circle cx="107.739" cy="187.704" r="4" fill="#0" id="circle35"/>
	<circle cx="107.739" cy="475.146" r="4" fill="#0" id="circle36"/>
	<circle cx="118.545" cy="187.704" r="4" fill="#0" id="circle37"/>
	<circle cx="118.545" cy="475.146" r="4" fill="#0" id="circle38"/>
	<circle cx="129.351" cy="184.462" r="4" fill="#0" id="circle39"/>
	<circle cx="129.351" cy="475.146" r="4" fill="#0" id="circle40"/>
	<circle cx="139.076" cy="480.549" r="4" fill="#0" id="circle41"/>
	<circle cx="140.157" cy="182.301" r="4" fill="#0" id="circle42"/>
	<circle cx="149.882" cy="480.549" r="4" fill="#0" id="circle43"/>
	<circle cx="150.963" cy="182.301" r="4" fill="#0" id="circle44"/>
	<circle cx="159.608" cy="475.146" r="4" fill="#0" id="circle45"/>
	<circle cx="160.688" cy="176.898" r="4" fill="#0" id="circle46"/>
	<circle cx="169.333" cy="468.662" r="4" fill="#0" id="circle47"/>
	<circle cx="171.495" cy="176.898" r="4" fill="#0" id="circle48"/>
	<circle cx="174.736" cy="457.856" r="4" fill="#0" id="circle49"/>
	<circle cx="180.139" cy="448.131" r="4" fill="#0" id="circle50"/>
	<circle cx="181.22" cy="171.495" r="4" fill="#0" id="circle51"/>
	<circle cx="190.946" cy="448.131" r="4" fill="#0" id="circle52"/>
	<circle cx="192.026" cy="171.495" r="4" fill="#0" id="circle53"/>
	<circle cx="201.752" cy="448.131" r="4" fill="#0" id="circle54"/>
	<circle cx="202.832" cy="171.495" r="4" fill="#0" id="circle55"/>
	<circle cx="212.558" cy="448.131" r="4" fill="#0" id="circle56"/>
	<circle cx="213.638" cy="171.495" r="4" fill="#0" id="circle57"/>
	<circle cx="223.364" cy="448.131" r="4" fill="#0" id="circle58"/>
	<circle cx="224.444" cy="171.495" r="4" fill="#0" id="circle59"/>
	<circle cx="234.17" cy="166.092" r="4" fill="#0" id="circle60"/>
	<circle cx="234.17" cy="448.131" r="4" fill="#0" id="circle61"/>
	<circle cx="243.895" cy="442.728" r="4" fill="#0" id="circle62"/>
	<circle cx="244.976" cy="166.092" r="4" fill="#0" id="circle63"/>
	<circle cx="254.702" cy="442.728" r="4" fill="#0" id="circle64"/>
	<circle cx="255.782" cy="166.092" r="4" fill="#0" id="circle65"/>
	<circle cx="263.346" cy="142.318" r="4" fill="#0" id="circle66"/>
	<circle cx="263.346" cy="153.124" r="4" fill="#0" id="circle67"/>
	<circle cx="265.508" cy="442.728" r="4" fill="#0" id="circle68"/>
	<circle cx="271.991" cy="133.673" r="4" fill="#0" id="circle69"/>
	<circle cx="276.314" cy="442.728" r="4" fill="#0" id="circle70"/>
	<circle cx="281.717" cy="128.27" r="4" fill="#0" id="circle71"/>
	<circle cx="287.12" cy="442.728" r="4" fill="#0" id="circle72"/>
	<circle cx="291.442" cy="133.673" r="4" fill="#0" id="circle73"/>
	<circle cx="297.926" cy="442.728" r="4" fill="#0" id="circle74"/>
	<circle cx="301.168" cy="139.076" r="4" fill="#0" id="circle75"/>
	<circle cx="308.732" cy="442.728" r="4" fill="#0" id="circle76"/>
	<circle cx="311.974" cy="136.915" r="4" fill="#0" id="circle77"/>
	<circle cx="317.377" cy="126.109" r="4" fill="#0" id="circle78"/>
	<circle cx="319.538" cy="442.728" r="4" fill="#0" id="circle79"/>
	<circle cx="328.183" cy="120.706" r="4" fill="#0" id="circle80"/>
	<circle cx="330.344" cy="442.728" r="4" fill="#0" id="circle81"/>
	<circle cx="336.828" cy="112.061" r="4" fill="#0" id="circle82"/>
	<circle cx="341.15" cy="442.728" r="4" fill="#0" id="circle83"/>
	<circle cx="347.634" cy="106.658" r="4" fill="#0" id="circle84"/>
	<circle cx="351.956" cy="442.728" r="4" fill="#0" id="circle85"/>
	<circle cx="358.44" cy="106.658" r="4" fill="#0" id="circle86"/>
	<circle cx="362.763" cy="442.728" r="4" fill="#0" id="circle87"/>
	<circle cx="369.246" cy="106.658" r="4" fill="#0" id="circle88"/>
	<circle cx="373.569" cy="442.728" r="4" fill="#0" id="circle89"/>
	<circle cx="380.052" cy="106.658" r="4" fill="#0" id="circle90"/>
	<circle cx="384.375" cy="442.728" r="4" fill="#0" id="circle91"/>
	<circle cx="389.778" cy="112.061" r="4" fill="#0" id="circle92"/>
	<circle cx="395.181" cy="442.728" r="4" fill="#0" id="circle93"/>
	<circle cx="399.503" cy="117.464" r="4" fill="#0" id="circle94"/>
	<circle cx="405.987" cy="442.728" r="4" fill="#0" id="circle95"/>
	<circle cx="408.148" cy="123.948" r="4" fill="#0" id="circle96"/>
	<circle cx="413.551" cy="133.673" r="4" fill="#0" id="circle97"/>
	<circle cx="416.793" cy="442.728" r="4" fill="#0" id="circle98"/>
	<circle cx="422.196" cy="452.453" r="4" fill="#0" id="circle99"/>
	<circle cx="424.357" cy="133.673" r="4" fill="#0" id="circle100"/>
	<circle cx="430.841" cy="458.937" r="4" fill="#0" id="circle101"/>
	<circle cx="434.083" cy="469.743" r="4" fill="#0" id="circle102"/>
	<circle cx="435.163" cy="133.673" r="4" fill="#0" id="circle103"/>
	<circle cx="443.808" cy="475.146" r="4" fill="#0" id="circle104"/>
	<circle cx="445.969" cy="133.673" r="4" fill="#0" id="circle105"/>
	<circle cx="452.453" cy="481.63" r="4" fill="#0" id="circle106"/>
	<circle cx="455.695" cy="128.27" r="4" fill="#0" id="circle107"/>
	<circle cx="457.856" cy="45.0632" r="4" fill="#0" id="circle108"/>
	<circle cx="457.856" cy="55.8693" r="4" fill="#0" id="circle109"/>
	<circle cx="457.856" cy="66.6754" r="4" fill="#0" id="circle110"/>
	<circle cx="457.856" cy="77.4815" r="4" fill="#0" id="circle111"/>
	<circle cx="457.856" cy="88.2876" r="4" fill="#0" id="circle112"/>
	<circle cx="457.856" cy="99.0937" r="4" fill="#0" id="circle113"/>
	<circle cx="457.856" cy="109.9" r="4" fill="#0" id="circle114"/>
	<circle cx="463.259" cy="34.2571" r="4" fill="#0" id="circle115"/>
	<circle cx="463.259" cy="485.952" r="4" fill="#0" id="circle116"/>
	<circle cx="471.904" cy="25.6122" r="4" fill="#0" id="circle117"/>
	<circle cx="472.985" cy="491.355" r="4" fill="#0" id="circle118"/>
	<circle cx="480.549" cy="16.9673" r="4" fill="#0" id="circle119"/>
	<circle cx="483.791" cy="491.355" r="4" fill="#0" id="circle120"/>
	<circle cx="489.194" cy="9.40305" r="4" fill="#0" id="circle121"/>
	<circle cx="493.516" cy="496.758" r="4" fill="#0" id="circle122"/>
	<circle cx="498.919" cy="4" r="4" fill="#0" id="circle123"/>
	<circle cx="504.322" cy="496.758" r="4" fill="#0" id="circle124"/>
	<circle cx="509.725" cy="4" r="4" fill="#0" id="circle125"/>
	<circle cx="515.129" cy="496.758" r="4" fill="#0" id="circle126"/>
	<circle cx="520.532" cy="4" r="4" fill="#0" id="circle127"/>
	<circle cx="525.935" cy="495.678" r="4" fill="#0" id="circle128"/>
	<circle cx="531.338" cy="4" r="4" fill="#0" id="circle129"/>
	<circle cx="536.741" cy="490.275" r="4" fill="#0" id="circle130"/>
	<circle cx="542.144" cy="4" r="4" fill="#0" id="circle131"/>
	<circle cx="542.144" cy="479.468" r="4" fill="#0" id="circle132"/>
	<circle cx="550.789" cy="464.34" r="4" fill="#0" id="circle133"/>
	<circle cx="552.95" cy="4" r="4" fill="#0" id="circle134"/>
	<circle cx="559.434" cy="456.776" r="4" fill="#0" id="circle135"/>
	<circle cx="563.756" cy="4" r="4" fill="#0" id="circle136"/>
	<circle cx="566.998" cy="442.728" r="4" fill="#0" id="circle137"/>
	<circle cx="574.562" cy="4" r="4" fill="#0" id="circle138"/>
	<circle cx="576.723" cy="437.325" r="4" fill="#0" id="circle139"/>
	<circle cx="585.368" cy="4" r="4" fill="#0" id="circle140"/>
	<circle cx="587.529" cy="437.325" r="4" fill="#0" id="circle141"/>
	<circle cx="596.174" cy="4" r="4" fill="#0" id="circle142"/>
	<circle cx="598.336" cy="437.325" r="4" fill="#0" id="circle143"/>
	<circle cx="606.98" cy="4" r="4" fill="#0" id="circle144"/>
	<circle cx="609.142" cy="437.325" r="4" fill="#0" id="circle145"/>
	<circle cx="616.706" cy="9.40305" r="4" fill="#0" id="circle146"/>
	<circle cx="619.948" cy="437.325" r="4" fill="#0" id="circle147"/>
	<circle cx="627.512" cy="9.40305" r="4" fill="#0" id="circle148"/>
	<circle cx="630.754" cy="437.325" r="4" fill="#0" id="circle149"/>
	<circle cx="638.318" cy="9.40305" r="4" fill="#0" id="circle150"/>
	<circle cx="641.56" cy="437.325" r="4" fill="#0" id="circle151"/>
	<circle cx="648.044" cy="14.8061" r="4" fill="#0" id="circle152"/>
	<circle cx="652.366" cy="437.325" r="4" fill="#0" id="circle153"/>
	<circle cx="658.85" cy="14.8061" r="4" fill="#0" id="circle154"/>
	<circle cx="663.172" cy="437.325" r="4" fill="#0" id="circle155"/>
	<circle cx="669.656" cy="18.0479" r="4" fill="#0" id="circle156"/>
	<circle cx="673.978" cy="437.325" r="4" fill="#0" id="circle157"/>
	<circle cx="680.462" cy="20.2092" r="4" fill="#0" id="circle158"/>
	<circle cx="684.784" cy="437.325" r="4" fill="#0" id="circle159"/>
	<circle cx="690.187" cy="25.6122" r="4" fill="#0" id="circle160"/>
	<circle cx="695.59" cy="437.325" r="4" fill="#0" id="circle161"/>
	<circle cx="700.993" cy="25.6122" r="4" fill="#0" id="circle162"/>
	<circle cx="706.397" cy="437.325" r="4" fill="#0" id="circle163"/>
	<circle cx="711.8" cy="25.6122" r="4" fill="#0" id="circle164"/>
	<circle cx="716.122" cy="431.922" r="4" fill="#0" id="circle165"/>
	<circle cx="721.525" cy="31.0153" r="4" fill="#0" id="circle166"/>
	<circle cx="726.928" cy="431.922" r="4" fill="#0" id="circle167"/>
	<circle cx="732.331" cy="32.0959" r="4" fill="#0" id="circle168"/>
	<circle cx="737.734" cy="431.922" r="4" fill="#0" id="circle169"/>
	<circle cx="742.057" cy="37.4989" r="4" fill="#0" id="circle170"/>
	<circle cx="748.54" cy="431.922" r="4" fill="#0" id="circle171"/>
	<circle cx="750.702" cy="45.0632" r="4" fill="#0" id="circle172"/>
	<circle cx="759.346" cy="431.922" r="4" fill="#0" id="circle173"/>
	<circle cx="760.427" cy="50.4662" r="4" fill="#0" id="circle174"/>
	<circle cx="765.83" cy="60.1917" r="4" fill="#0" id="circle175"/>
	<circle cx="766.911" cy="70.9978" r="4" fill="#0" id="circle176"/>
	<circle cx="766.911" cy="81.8039" r="4" fill="#0" id="circle177"/>
	<circle cx="766.911" cy="92.61" r="4" fill="#0" id="circle178"/>
	<circle cx="766.911" cy="103.416" r="4" fill="#0" id="circle179"/>
	<circle cx="766.911" cy="114.222" r="4" fill="#0" id="circle180"/>
	<circle cx="766.911" cy="125.028" r="4" fill="#0" id="circle181"/>
	<circle cx="769.072" cy="426.519" r="4" fill="#0" id="circle182"/>
	<circle cx="773.394" cy="133.673" r="4" fill="#0" id="circle183"/>
	<circle cx="779.878" cy="426.519" r="4" fill="#0" id="circle184"/>
	<circle cx="783.12" cy="139.076" r="4" fill="#0" id="circle185"/>
	<circle cx="790.684" cy="426.519" r="4" fill="#0" id="circle186"/>
	<circle cx="793.926" cy="139.076" r="4" fill="#0" id="circle187"/>
	<circle cx="801.49" cy="426.519" r="4" fill="#0" id="circle188"/>
	<circle cx="803.651" cy="144.479" r="4" fill="#0" id="circle189"/>
	<circle cx="809.054" cy="435.163" r="4" fill="#0" id="circle190"/>
	<circle cx="812.296" cy="150.963" r="4" fill="#0" id="circle191"/>
	<circle cx="814.458" cy="444.889" r="4" fill="#0" id="circle192"/>
	<circle cx="823.102" cy="155.285" r="4" fill="#0" id="circle193"/>
	<circle cx="825.264" cy="448.131" r="4" fill="#0" id="circle194"/>
	<circle cx="832.828" cy="160.688" r="4" fill="#0" id="circle195"/>
	<circle cx="834.989" cy="453.534" r="4" fill="#0" id="circle196"/>
	<circle cx="843.634" cy="160.688" r="4" fill="#0" id="circle197"/>
	<circle cx="845.795" cy="451.373" r="4" fill="#0" id="circle198"/>
	<circle cx="854.44" cy="160.688" r="4" fill="#0" id="circle199"/>
	<circle cx="856.601" cy="445.969" r="4" fill="#0" id="circle200"/>
	<circle cx="865.246" cy="160.688" r="4" fill="#0" id="circle201"/>
	<circle cx="867.407" cy="440.566" r="4" fill="#0" id="circle202"/>
	<circle cx="876.052" cy="160.688" r="4" fill="#0" id="circle203"/>
	<circle cx="878.214" cy="435.163" r="4" fill="#0" id="circle204"/>
	<circle cx="885.778" cy="426.519" r="4" fill="#0" id="circle205"/>
	<circle cx="886.858" cy="160.688" r="4" fill="#0" id="circle206"/>
	<circle cx="894.423" cy="418.954" r="4" fill="#0" id="circle207"/>
	<circle cx="897.664" cy="160.688" r="4" fill="#0" id="circle208"/>
	<circle cx="901.987" cy="404.906" r="4" fill="#0" id="circle209"/>
	<circle cx="907.39" cy="394.1" r="4" fill="#0" id="circle210"/>
	<circle cx="908.471" cy="160.688" r="4" fill="#0" id="circle211"/>
	<circle cx="912.793" cy="383.294" r="4" fill="#0" id="circle212"/>
	<circle cx="918.196" cy="367.085" r="4" fill="#0" id="circle213"/>
	<circle cx="919.277" cy="160.688" r="4" fill="#0" id="circle214"/>
	<circle cx="923.599" cy="356.279" r="4" fill="#0" id="circle215"/>
	<circle cx="930.083" cy="160.688" r="4" fill="#0" id="circle216"/>
	<circle cx="934.405" cy="356.279" r="4" fill="#0" id="circle217"/>
	<circle cx="940.889" cy="160.688" r="4" fill="#0" id="circle218"/>
	<circle cx="944.131" cy="350.876" r="4" fill="#0" id="circle219"/>
	<circle cx="950.614" cy="340.07" r="4" fill="#0" id="circle220"/>
	<circle cx="951.695" cy="160.688" r="4" fill="#0" id="circle221"/>
	<circle cx="956.017" cy="329.264" r="4" fill="#0" id="circle222"/>
	<circle cx="961.42" cy="296.845" r="4" fill="#0" id="circle223"/>
	<circle cx="961.42" cy="307.651" r="4" fill="#0" id="circle224"/>
	<circle cx="961.42" cy="318.458" r="4" fill="#0" id="circle225"/>
	<circle cx="962.501" cy="160.688" r="4" fill="#0" id="circle226"/>
	<circle cx="966.824" cy="275.233" r="4" fill="#0" id="circle227"/>
	<circle cx="966.824" cy="286.039" r="4" fill="#0" id="circle228"/>
	<circle cx="972.227" cy="259.024" r="4" fill="#0" id="circle229"/>
	<circle cx="973.307" cy="160.688" r="4" fill="#0" id="circle230"/>
	<circle cx="977.63" cy="248.218" r="4" fill="#0" id="circle231"/>
	<circle cx="983.033" cy="166.092" r="4" fill="#0" id="circle232"/>
	<circle cx="988.436" cy="237.412" r="4" fill="#0" id="circle233"/>
	<circle cx="991.678" cy="172.575" r="4" fill="#0" id="circle234"/>
	<circle cx="993.839" cy="183.381" r="4" fill="#0" id="circle235"/>
	<circle cx="993.839" cy="194.187" r="4" fill="#0" id="circle236"/>
	<circle cx="993.839" cy="204.993" r="4" fill="#0" id="circle237"/>
	<circle cx="993.839" cy="226.606" r="4" fill="#0" id="circle238"/>
	<circle cx="996" cy="215.8" r="4" fill="#0" id="circle239"/>
	</g>
</svg>