<?xml version="1.0" encoding="UTF-8" standalone="no"?>
<!-- Created with CurveBenchmark -->
<svg
	xmlns:dc="http://purl.org/dc/elements/1.1/"
	xmlns:cc="http://creativecommons.org/ns#"
	xmlns:rdf="http://www.w3.org/1999/02/22-rdf-syntax-ns#"
	xmlns:svg="http://www.w3.org/2000/svg"
	xmlns="http://www.w3.org/2000/svg"
	xmlns:sodipodi="http://sodipodi.sourceforge.net/DTD/sodipodi-0.dtd"
	xmlns:inkscape="http://www.inkscape.org/namespaces/inkscape"
	width="1000"
	height="1000"
	id="svg2"
	version="1.1"
	sodipodi:docname="manifold/ccrust-hammer115.png.txt">
<defs
	id="defs4" />
<metadata
	id="metadata7">
	<rdf:RDF>
		<cc:Work
			rdf:about="">
			<dc:format>image/svg+xml</dc:format>
			<dc:type
				rdf:resource="http://purl.org/dc/dcmitype/StillImage" />
			<dc:title></dc:title>
		</cc:Work>
	</rdf:RDF>
</metadata>
<g
	inkscape:label="Layer 1"
	inkscape:groupmode="layer"
	id="layer1">
	<path style="fill:none;stroke:red;stroke-width:1px;stroke-linecap:butt;stroke-linejoin:miter;stroke-opacity:1" d="M 4,61.5072 4,32.7536 z" id="boundary" inkscape:connector-curvature="0" />
	<path style="fill:none;stroke:red;stroke-width:1px;stroke-linecap:butt;stroke-linejoin:miter;stroke-opacity:1" d="M 21.2522,84.5101 4,61.5072 z" id="boundary" inkscape:connector-curvature="0" />
	<path style="fill:none;stroke:red;stroke-width:1px;stroke-linecap:butt;stroke-linejoin:miter;stroke-opacity:1" d="M 50.0058,93.1362 21.2522,84.5101 z" id="boundary" inkscape:connector-curvature="0" />
	<path style="fill:none;stroke:red;stroke-width:1px;stroke-linecap:butt;stroke-linejoin:miter;stroke-opacity:1" d="M 4,32.7536 21.2522,9.75072 z" id="boundary" inkscape:connector-curvature="0" />
	<path style="fill:none;stroke:red;stroke-width:1px;stroke-linecap:butt;stroke-linejoin:miter;stroke-opacity:1" d="M 21.2522,9.75072 50.0058,4 z" id="boundary" inkscape:connector-curvature="0" />
	<path style="fill:none;stroke:red;stroke-width:1px;stroke-linecap:butt;stroke-linejoin:miter;stroke-opacity:1" d="M 55.7565,121.89 61.5072,150.643 z" id="boundary" inkscape:connector-curvature="0" />
	<path style="fill:none;stroke:red;stroke-width:1px;stroke-linecap:butt;stroke-linejoin:miter;stroke-opacity:1" d="M 55.7565,121.89 50.0058,93.1362 z" id="boundary" inkscape:connector-curvature="0" />
	<path style="fill:none;stroke:red;stroke-width:1px;stroke-linecap:butt;stroke-linejoin:miter;stroke-opacity:1" d="M 73.0087,179.397 61.5072,150.643 z" id="boundary" inkscape:connector-curvature="0" />
	<path style="fill:none;stroke:red;stroke-width:1px;stroke-linecap:butt;stroke-linejoin:miter;stroke-opacity:1" d="M 50.0058,4 78.7594,4 z" id="boundary" inkscape:connector-curvature="0" />
	<path style="fill:none;stroke:red;stroke-width:1px;stroke-linecap:butt;stroke-linejoin:miter;stroke-opacity:1" d="M 73.0087,441.055 61.5072,469.809 z" id="boundary" inkscape:connector-curvature="0" />
	<path style="fill:none;stroke:red;stroke-width:1px;stroke-linecap:butt;stroke-linejoin:miter;stroke-opacity:1" d="M 78.7594,4 107.513,4 z" id="boundary" inkscape:connector-curvature="0" />
	<path style="fill:none;stroke:red;stroke-width:1px;stroke-linecap:butt;stroke-linejoin:miter;stroke-opacity:1" d="M 78.7594,208.151 73.0087,179.397 z" id="boundary" inkscape:connector-curvature="0" />
	<path style="fill:none;stroke:red;stroke-width:1px;stroke-linecap:butt;stroke-linejoin:miter;stroke-opacity:1" d="M 84.5101,265.658 78.7594,236.904 z" id="boundary" inkscape:connector-curvature="0" />
	<path style="fill:none;stroke:red;stroke-width:1px;stroke-linecap:butt;stroke-linejoin:miter;stroke-opacity:1" d="M 78.7594,236.904 78.7594,208.151 z" id="boundary" inkscape:connector-curvature="0" />
	<path style="fill:none;stroke:red;stroke-width:1px;stroke-linecap:butt;stroke-linejoin:miter;stroke-opacity:1" d="M 84.5101,294.412 84.5101,265.658 z" id="boundary" inkscape:connector-curvature="0" />
	<path style="fill:none;stroke:red;stroke-width:1px;stroke-linecap:butt;stroke-linejoin:miter;stroke-opacity:1" d="M 84.5101,294.412 84.5101,323.165 z" id="boundary" inkscape:connector-curvature="0" />
	<path style="fill:none;stroke:red;stroke-width:1px;stroke-linecap:butt;stroke-linejoin:miter;stroke-opacity:1" d="M 84.5101,351.919 84.5101,380.672 z" id="boundary" inkscape:connector-curvature="0" />
	<path style="fill:none;stroke:red;stroke-width:1px;stroke-linecap:butt;stroke-linejoin:miter;stroke-opacity:1" d="M 84.5101,409.426 84.5101,380.672 z" id="boundary" inkscape:connector-curvature="0" />
	<path style="fill:none;stroke:red;stroke-width:1px;stroke-linecap:butt;stroke-linejoin:miter;stroke-opacity:1" d="M 84.5101,409.426 73.0087,441.055 z" id="boundary" inkscape:connector-curvature="0" />
	<path style="fill:none;stroke:red;stroke-width:1px;stroke-linecap:butt;stroke-linejoin:miter;stroke-opacity:1" d="M 84.5101,351.919 84.5101,323.165 z" id="boundary" inkscape:connector-curvature="0" />
	<path style="fill:none;stroke:red;stroke-width:1px;stroke-linecap:butt;stroke-linejoin:miter;stroke-opacity:1" d="M 55.7565,538.817 55.7565,567.571 z" id="boundary" inkscape:connector-curvature="0" />
	<path style="fill:none;stroke:red;stroke-width:1px;stroke-linecap:butt;stroke-linejoin:miter;stroke-opacity:1" d="M 55.7565,510.064 61.5072,469.809 z" id="boundary" inkscape:connector-curvature="0" />
	<path style="fill:none;stroke:red;stroke-width:1px;stroke-linecap:butt;stroke-linejoin:miter;stroke-opacity:1" d="M 55.7565,596.325 55.7565,625.078 z" id="boundary" inkscape:connector-curvature="0" />
	<path style="fill:none;stroke:red;stroke-width:1px;stroke-linecap:butt;stroke-linejoin:miter;stroke-opacity:1" d="M 55.7565,625.078 55.7565,653.832 z" id="boundary" inkscape:connector-curvature="0" />
	<path style="fill:none;stroke:red;stroke-width:1px;stroke-linecap:butt;stroke-linejoin:miter;stroke-opacity:1" d="M 55.7565,538.817 55.7565,510.064 z" id="boundary" inkscape:connector-curvature="0" />
	<path style="fill:none;stroke:red;stroke-width:1px;stroke-linecap:butt;stroke-linejoin:miter;stroke-opacity:1" d="M 55.7565,567.571 55.7565,596.325 z" id="boundary" inkscape:connector-curvature="0" />
	<path style="fill:none;stroke:red;stroke-width:1px;stroke-linecap:butt;stroke-linejoin:miter;stroke-opacity:1" d="M 55.7565,682.586 55.7565,711.339 z" id="boundary" inkscape:connector-curvature="0" />
	<path style="fill:none;stroke:red;stroke-width:1px;stroke-linecap:butt;stroke-linejoin:miter;stroke-opacity:1" d="M 55.7565,653.832 55.7565,682.586 z" id="boundary" inkscape:connector-curvature="0" />
	<path style="fill:none;stroke:red;stroke-width:1px;stroke-linecap:butt;stroke-linejoin:miter;stroke-opacity:1" d="M 55.7565,711.339 55.7565,740.093 z" id="boundary" inkscape:connector-curvature="0" />
	<path style="fill:none;stroke:red;stroke-width:1px;stroke-linecap:butt;stroke-linejoin:miter;stroke-opacity:1" d="M 58.6319,768.846 55.7565,740.093 z" id="boundary" inkscape:connector-curvature="0" />
	<path style="fill:none;stroke:red;stroke-width:1px;stroke-linecap:butt;stroke-linejoin:miter;stroke-opacity:1" d="M 58.6319,768.846 61.5072,797.6 z" id="boundary" inkscape:connector-curvature="0" />
	<path style="fill:none;stroke:red;stroke-width:1px;stroke-linecap:butt;stroke-linejoin:miter;stroke-opacity:1" d="M 61.5072,826.354 61.5072,797.6 z" id="boundary" inkscape:connector-curvature="0" />
	<path style="fill:none;stroke:red;stroke-width:1px;stroke-linecap:butt;stroke-linejoin:miter;stroke-opacity:1" d="M 55.7565,860.858 61.5072,826.354 z" id="boundary" inkscape:connector-curvature="0" />
	<path style="fill:none;stroke:red;stroke-width:1px;stroke-linecap:butt;stroke-linejoin:miter;stroke-opacity:1" d="M 55.7565,889.612 55.7565,860.858 z" id="boundary" inkscape:connector-curvature="0" />
	<path style="fill:none;stroke:red;stroke-width:1px;stroke-linecap:butt;stroke-linejoin:miter;stroke-opacity:1" d="M 55.7565,889.612 55.7565,918.365 z" id="boundary" inkscape:connector-curvature="0" />
	<path style="fill:none;stroke:red;stroke-width:1px;stroke-linecap:butt;stroke-linejoin:miter;stroke-opacity:1" d="M 55.7565,947.119 55.7565,918.365 z" id="boundary" inkscape:connector-curvature="0" />
	<path style="fill:none;stroke:red;stroke-width:1px;stroke-linecap:butt;stroke-linejoin:miter;stroke-opacity:1" d="M 107.513,996 78.7594,996 z" id="boundary" inkscape:connector-curvature="0" />
	<path style="fill:none;stroke:red;stroke-width:1px;stroke-linecap:butt;stroke-linejoin:miter;stroke-opacity:1" d="M 78.7594,996 50.0058,987.374 z" id="boundary" inkscape:connector-curvature="0" />
	<path style="fill:none;stroke:red;stroke-width:1px;stroke-linecap:butt;stroke-linejoin:miter;stroke-opacity:1" d="M 50.0058,987.374 55.7565,947.119 z" id="boundary" inkscape:connector-curvature="0" />
	<path style="fill:none;stroke:red;stroke-width:1px;stroke-linecap:butt;stroke-linejoin:miter;stroke-opacity:1" d="M 107.513,4 136.267,4 z" id="boundary" inkscape:connector-curvature="0" />
	<path style="fill:none;stroke:red;stroke-width:1px;stroke-linecap:butt;stroke-linejoin:miter;stroke-opacity:1" d="M 156.394,216.777 156.394,245.53 z" id="boundary" inkscape:connector-curvature="0" />
	<path style="fill:none;stroke:red;stroke-width:1px;stroke-linecap:butt;stroke-linejoin:miter;stroke-opacity:1" d="M 162.145,188.023 156.394,216.777 z" id="boundary" inkscape:connector-curvature="0" />
	<path style="fill:none;stroke:red;stroke-width:1px;stroke-linecap:butt;stroke-linejoin:miter;stroke-opacity:1" d="M 156.394,274.284 156.394,245.53 z" id="boundary" inkscape:connector-curvature="0" />
	<path style="fill:none;stroke:red;stroke-width:1px;stroke-linecap:butt;stroke-linejoin:miter;stroke-opacity:1" d="M 156.394,303.038 156.394,274.284 z" id="boundary" inkscape:connector-curvature="0" />
	<path style="fill:none;stroke:red;stroke-width:1px;stroke-linecap:butt;stroke-linejoin:miter;stroke-opacity:1" d="M 208.151,41.3797 222.528,67.258 z" id="boundary" inkscape:connector-curvature="0" />
	<path style="fill:none;stroke:red;stroke-width:1px;stroke-linecap:butt;stroke-linejoin:miter;stroke-opacity:1" d="M 156.394,303.038 156.394,331.791 z" id="boundary" inkscape:connector-curvature="0" />
	<path style="fill:none;stroke:red;stroke-width:1px;stroke-linecap:butt;stroke-linejoin:miter;stroke-opacity:1" d="M 156.394,360.545 156.394,389.299 z" id="boundary" inkscape:connector-curvature="0" />
	<path style="fill:none;stroke:red;stroke-width:1px;stroke-linecap:butt;stroke-linejoin:miter;stroke-opacity:1" d="M 176.522,472.684 162.145,446.806 z" id="boundary" inkscape:connector-curvature="0" />
	<path style="fill:none;stroke:red;stroke-width:1px;stroke-linecap:butt;stroke-linejoin:miter;stroke-opacity:1" d="M 162.145,446.806 156.394,418.052 z" id="boundary" inkscape:connector-curvature="0" />
	<path style="fill:none;stroke:red;stroke-width:1px;stroke-linecap:butt;stroke-linejoin:miter;stroke-opacity:1" d="M 156.394,389.299 156.394,418.052 z" id="boundary" inkscape:connector-curvature="0" />
	<path style="fill:none;stroke:red;stroke-width:1px;stroke-linecap:butt;stroke-linejoin:miter;stroke-opacity:1" d="M 156.394,360.545 156.394,331.791 z" id="boundary" inkscape:connector-curvature="0" />
	<path style="fill:none;stroke:red;stroke-width:1px;stroke-linecap:butt;stroke-linejoin:miter;stroke-opacity:1" d="M 162.145,188.023 190.899,179.397 z" id="boundary" inkscape:connector-curvature="0" />
	<path style="fill:none;stroke:red;stroke-width:1px;stroke-linecap:butt;stroke-linejoin:miter;stroke-opacity:1" d="M 190.899,18.3768 208.151,41.3797 z" id="boundary" inkscape:connector-curvature="0" />
	<path style="fill:none;stroke:red;stroke-width:1px;stroke-linecap:butt;stroke-linejoin:miter;stroke-opacity:1" d="M 222.528,67.258 234.029,96.0116 z" id="boundary" inkscape:connector-curvature="0" />
	<path style="fill:none;stroke:red;stroke-width:1px;stroke-linecap:butt;stroke-linejoin:miter;stroke-opacity:1" d="M 219.652,179.397 248.406,153.519 z" id="boundary" inkscape:connector-curvature="0" />
	<path style="fill:none;stroke:red;stroke-width:1px;stroke-linecap:butt;stroke-linejoin:miter;stroke-opacity:1" d="M 190.899,179.397 219.652,179.397 z" id="boundary" inkscape:connector-curvature="0" />
	<path style="fill:none;stroke:red;stroke-width:1px;stroke-linecap:butt;stroke-linejoin:miter;stroke-opacity:1" d="M 242.655,124.765 248.406,153.519 z" id="boundary" inkscape:connector-curvature="0" />
	<path style="fill:none;stroke:red;stroke-width:1px;stroke-linecap:butt;stroke-linejoin:miter;stroke-opacity:1" d="M 234.029,96.0116 242.655,124.765 z" id="boundary" inkscape:connector-curvature="0" />
	<path style="fill:none;stroke:red;stroke-width:1px;stroke-linecap:butt;stroke-linejoin:miter;stroke-opacity:1" d="M 165.02,4 190.899,18.3768 z" id="boundary" inkscape:connector-curvature="0" />
	<path style="fill:none;stroke:red;stroke-width:1px;stroke-linecap:butt;stroke-linejoin:miter;stroke-opacity:1" d="M 136.267,4 165.02,4 z" id="boundary" inkscape:connector-curvature="0" />
	<path style="fill:none;stroke:red;stroke-width:1px;stroke-linecap:butt;stroke-linejoin:miter;stroke-opacity:1" d="M 179.397,501.438 179.397,530.191 z" id="boundary" inkscape:connector-curvature="0" />
	<path style="fill:none;stroke:red;stroke-width:1px;stroke-linecap:butt;stroke-linejoin:miter;stroke-opacity:1" d="M 179.397,501.438 176.522,472.684 z" id="boundary" inkscape:connector-curvature="0" />
	<path style="fill:none;stroke:red;stroke-width:1px;stroke-linecap:butt;stroke-linejoin:miter;stroke-opacity:1" d="M 179.397,530.191 179.397,558.945 z" id="boundary" inkscape:connector-curvature="0" />
	<path style="fill:none;stroke:red;stroke-width:1px;stroke-linecap:butt;stroke-linejoin:miter;stroke-opacity:1" d="M 179.397,587.699 179.397,558.945 z" id="boundary" inkscape:connector-curvature="0" />
	<path style="fill:none;stroke:red;stroke-width:1px;stroke-linecap:butt;stroke-linejoin:miter;stroke-opacity:1" d="M 179.397,587.699 179.397,616.452 z" id="boundary" inkscape:connector-curvature="0" />
	<path style="fill:none;stroke:red;stroke-width:1px;stroke-linecap:butt;stroke-linejoin:miter;stroke-opacity:1" d="M 185.148,961.496 165.02,996 z" id="boundary" inkscape:connector-curvature="0" />
	<path style="fill:none;stroke:red;stroke-width:1px;stroke-linecap:butt;stroke-linejoin:miter;stroke-opacity:1" d="M 165.02,996 136.267,996 z" id="boundary" inkscape:connector-curvature="0" />
	<path style="fill:none;stroke:red;stroke-width:1px;stroke-linecap:butt;stroke-linejoin:miter;stroke-opacity:1" d="M 179.397,645.206 179.397,673.959 z" id="boundary" inkscape:connector-curvature="0" />
	<path style="fill:none;stroke:red;stroke-width:1px;stroke-linecap:butt;stroke-linejoin:miter;stroke-opacity:1" d="M 179.397,645.206 179.397,616.452 z" id="boundary" inkscape:connector-curvature="0" />
	<path style="fill:none;stroke:red;stroke-width:1px;stroke-linecap:butt;stroke-linejoin:miter;stroke-opacity:1" d="M 179.397,673.959 179.397,702.713 z" id="boundary" inkscape:connector-curvature="0" />
	<path style="fill:none;stroke:red;stroke-width:1px;stroke-linecap:butt;stroke-linejoin:miter;stroke-opacity:1" d="M 179.397,702.713 179.397,731.467 z" id="boundary" inkscape:connector-curvature="0" />
	<path style="fill:none;stroke:red;stroke-width:1px;stroke-linecap:butt;stroke-linejoin:miter;stroke-opacity:1" d="M 179.397,731.467 179.397,760.22 z" id="boundary" inkscape:connector-curvature="0" />
	<path style="fill:none;stroke:red;stroke-width:1px;stroke-linecap:butt;stroke-linejoin:miter;stroke-opacity:1" d="M 179.397,788.974 179.397,817.728 z" id="boundary" inkscape:connector-curvature="0" />
	<path style="fill:none;stroke:red;stroke-width:1px;stroke-linecap:butt;stroke-linejoin:miter;stroke-opacity:1" d="M 179.397,788.974 179.397,760.22 z" id="boundary" inkscape:connector-curvature="0" />
	<path style="fill:none;stroke:red;stroke-width:1px;stroke-linecap:butt;stroke-linejoin:miter;stroke-opacity:1" d="M 179.397,817.728 179.397,846.481 z" id="boundary" inkscape:connector-curvature="0" />
	<path style="fill:none;stroke:red;stroke-width:1px;stroke-linecap:butt;stroke-linejoin:miter;stroke-opacity:1" d="M 179.397,875.235 179.397,903.988 z" id="boundary" inkscape:connector-curvature="0" />
	<path style="fill:none;stroke:red;stroke-width:1px;stroke-linecap:butt;stroke-linejoin:miter;stroke-opacity:1" d="M 179.397,875.235 179.397,846.481 z" id="boundary" inkscape:connector-curvature="0" />
	<path style="fill:none;stroke:red;stroke-width:1px;stroke-linecap:butt;stroke-linejoin:miter;stroke-opacity:1" d="M 185.148,961.496 179.397,932.742 z" id="boundary" inkscape:connector-curvature="0" />
	<path style="fill:none;stroke:red;stroke-width:1px;stroke-linecap:butt;stroke-linejoin:miter;stroke-opacity:1" d="M 179.397,932.742 179.397,903.988 z" id="boundary" inkscape:connector-curvature="0" />
	<path style="fill:none;stroke:red;stroke-width:1px;stroke-linecap:butt;stroke-linejoin:miter;stroke-opacity:1" d="M 136.267,996 107.513,996 z" id="boundary" inkscape:connector-curvature="0" />
	<circle cx="4" cy="32.7536" r="4" fill="#0" id="circle0"/>
	<circle cx="4" cy="61.5072" r="4" fill="#0" id="circle1"/>
	<circle cx="21.2522" cy="9.75072" r="4" fill="#0" id="circle2"/>
	<circle cx="21.2522" cy="84.5101" r="4" fill="#0" id="circle3"/>
	<circle cx="50.0058" cy="4" r="4" fill="#0" id="circle4"/>
	<circle cx="50.0058" cy="93.1362" r="4" fill="#0" id="circle5"/>
	<circle cx="50.0058" cy="987.374" r="4" fill="#0" id="circle6"/>
	<circle cx="55.7565" cy="121.89" r="4" fill="#0" id="circle7"/>
	<circle cx="55.7565" cy="510.064" r="4" fill="#0" id="circle8"/>
	<circle cx="55.7565" cy="538.817" r="4" fill="#0" id="circle9"/>
	<circle cx="55.7565" cy="567.571" r="4" fill="#0" id="circle10"/>
	<circle cx="55.7565" cy="596.325" r="4" fill="#0" id="circle11"/>
	<circle cx="55.7565" cy="625.078" r="4" fill="#0" id="circle12"/>
	<circle cx="55.7565" cy="653.832" r="4" fill="#0" id="circle13"/>
	<circle cx="55.7565" cy="682.586" r="4" fill="#0" id="circle14"/>
	<circle cx="55.7565" cy="711.339" r="4" fill="#0" id="circle15"/>
	<circle cx="55.7565" cy="740.093" r="4" fill="#0" id="circle16"/>
	<circle cx="55.7565" cy="860.858" r="4" fill="#0" id="circle17"/>
	<circle cx="55.7565" cy="889.612" r="4" fill="#0" id="circle18"/>
	<circle cx="55.7565" cy="918.365" r="4" fill="#0" id="circle19"/>
	<circle cx="55.7565" cy="947.119" r="4" fill="#0" id="circle20"/>
	<circle cx="58.6319" cy="768.846" r="4" fill="#0" id="circle21"/>
	<circle cx="61.5072" cy="150.643" r="4" fill="#0" id="circle22"/>
	<circle cx="61.5072" cy="469.809" r="4" fill="#0" id="circle23"/>
	<circle cx="61.5072" cy="797.6" r="4" fill="#0" id="circle24"/>
	<circle cx="61.5072" cy="826.354" r="4" fill="#0" id="circle25"/>
	<circle cx="73.0087" cy="179.397" r="4" fill="#0" id="circle26"/>
	<circle cx="73.0087" cy="441.055" r="4" fill="#0" id="circle27"/>
	<circle cx="78.7594" cy="4" r="4" fill="#0" id="circle28"/>
	<circle cx="78.7594" cy="208.151" r="4" fill="#0" id="circle29"/>
	<circle cx="78.7594" cy="236.904" r="4" fill="#0" id="circle30"/>
	<circle cx="78.7594" cy="996" r="4" fill="#0" id="circle31"/>
	<circle cx="84.5101" cy="265.658" r="4" fill="#0" id="circle32"/>
	<circle cx="84.5101" cy="294.412" r="4" fill="#0" id="circle33"/>
	<circle cx="84.5101" cy="323.165" r="4" fill="#0" id="circle34"/>
	<circle cx="84.5101" cy="351.919" r="4" fill="#0" id="circle35"/>
	<circle cx="84.5101" cy="380.672" r="4" fill="#0" id="circle36"/>
	<circle cx="84.5101" cy="409.426" r="4" fill="#0" id="circle37"/>
	<circle cx="107.513" cy="4" r="4" fill="#0" id="circle38"/>
	<circle cx="107.513" cy="996" r="4" fill="#0" id="circle39"/>
	<circle cx="136.267" cy="4" r="4" fill="#0" id="circle40"/>
	<circle cx="136.267" cy="996" r="4" fill="#0" id="circle41"/>
	<circle cx="156.394" cy="216.777" r="4" fill="#0" id="circle42"/>
	<circle cx="156.394" cy="245.53" r="4" fill="#0" id="circle43"/>
	<circle cx="156.394" cy="274.284" r="4" fill="#0" id="circle44"/>
	<circle cx="156.394" cy="303.038" r="4" fill="#0" id="circle45"/>
	<circle cx="156.394" cy="331.791" r="4" fill="#0" id="circle46"/>
	<circle cx="156.394" cy="360.545" r="4" fill="#0" id="circle47"/>
	<circle cx="156.394" cy="389.299" r="4" fill="#0" id="circle48"/>
	<circle cx="156.394" cy="418.052" r="4" fill="#0" id="circle49"/>
	<circle cx="162.145" cy="188.023" r="4" fill="#0" id="circle50"/>
	<circle cx="162.145" cy="446.806" r="4" fill="#0" id="circle51"/>
	<circle cx="165.02" cy="4" r="4" fill="#0" id="circle52"/>
	<circle cx="165.02" cy="996" r="4" fill="#0" id="circle53"/>
	<circle cx="176.522" cy="472.684" r="4" fill="#0" id="circle54"/>
	<circle cx="179.397" cy="501.438" r="4" fill="#0" id="circle55"/>
	<circle cx="179.397" cy="530.191" r="4" fill="#0" id="circle56"/>
	<circle cx="179.397" cy="558.945" r="4" fill="#0" id="circle57"/>
	<circle cx="179.397" cy="587.699" r="4" fill="#0" id="circle58"/>
	<circle cx="179.397" cy="616.452" r="4" fill="#0" id="circle59"/>
	<circle cx="179.397" cy="645.206" r="4" fill="#0" id="circle60"/>
	<circle cx="179.397" cy="673.959" r="4" fill="#0" id="circle61"/>
	<circle cx="179.397" cy="702.713" r="4" fill="#0" id="circle62"/>
	<circle cx="179.397" cy="731.467" r="4" fill="#0" id="circle63"/>
	<circle cx="179.397" cy="760.22" r="4" fill="#0" id="circle64"/>
	<circle cx="179.397" cy="788.974" r="4" fill="#0" id="circle65"/>
	<circle cx="179.397" cy="817.728" r="4" fill="#0" id="circle66"/>
	<circle cx="179.397" cy="846.481" r="4" fill="#0" id="circle67"/>
	<circle cx="179.397" cy="875.235" r="4" fill="#0" id="circle68"/>
	<circle cx="179.397" cy="903.988" r="4" fill="#0" id="circle69"/>
	<circle cx="179.397" cy="932.742" r="4" fill="#0" id="circle70"/>
	<circle cx="185.148" cy="961.496" r="4" fill="#0" id="circle71"/>
	<circle cx="190.899" cy="18.3768" r="4" fill="#0" id="circle72"/>
	<circle cx="190.899" cy="179.397" r="4" fill="#0" id="circle73"/>
	<circle cx="208.151" cy="41.3797" r="4" fill="#0" id="circle74"/>
	<circle cx="219.652" cy="179.397" r="4" fill="#0" id="circle75"/>
	<circle cx="222.528" cy="67.258" r="4" fill="#0" id="circle76"/>
	<circle cx="234.029" cy="96.0116" r="4" fill="#0" id="circle77"/>
	<circle cx="242.655" cy="124.765" r="4" fill="#0" id="circle78"/>
	<circle cx="248.406" cy="153.519" r="4" fill="#0" id="circle79"/>
	</g>
</svg>