<?xml version="1.0" encoding="UTF-8" standalone="no"?>
<!-- Created with CurveBenchmark -->
<svg
	xmlns:dc="http://purl.org/dc/elements/1.1/"
	xmlns:cc="http://creativecommons.org/ns#"
	xmlns:rdf="http://www.w3.org/1999/02/22-rdf-syntax-ns#"
	xmlns:svg="http://www.w3.org/2000/svg"
	xmlns="http://www.w3.org/2000/svg"
	xmlns:sodipodi="http://sodipodi.sourceforge.net/DTD/sodipodi-0.dtd"
	xmlns:inkscape="http://www.inkscape.org/namespaces/inkscape"
	width="1000"
	height="1000"
	id="svg2"
	version="1.1"
	sodipodi:docname="manifold/ccrust-bird165.png.txt">
<defs
	id="defs4" />
<metadata
	id="metadata7">
	<rdf:RDF>
		<cc:Work
			rdf:about="">
			<dc:format>image/svg+xml</dc:format>
			<dc:type
				rdf:resource="http://purl.org/dc/dcmitype/StillImage" />
			<dc:title></dc:title>
		</cc:Work>
	</rdf:RDF>
</metadata>
<g
	inkscape:label="Layer 1"
	inkscape:groupmode="layer"
	id="layer1">
	<path style="fill:none;stroke:red;stroke-width:1px;stroke-linecap:butt;stroke-linejoin:miter;stroke-opacity:1" d="M 71.3811,168.709 86.3547,131.275 z" id="boundary" inkscape:connector-curvature="0" />
	<path style="fill:none;stroke:red;stroke-width:1px;stroke-linecap:butt;stroke-linejoin:miter;stroke-opacity:1" d="M 71.3811,168.709 48.9208,198.657 z" id="boundary" inkscape:connector-curvature="0" />
	<path style="fill:none;stroke:red;stroke-width:1px;stroke-linecap:butt;stroke-linejoin:miter;stroke-opacity:1" d="M 86.3547,131.275 108.815,101.328 z" id="boundary" inkscape:connector-curvature="0" />
	<path style="fill:none;stroke:red;stroke-width:1px;stroke-linecap:butt;stroke-linejoin:miter;stroke-opacity:1" d="M 138.762,78.8679 176.196,71.3811 z" id="boundary" inkscape:connector-curvature="0" />
	<path style="fill:none;stroke:red;stroke-width:1px;stroke-linecap:butt;stroke-linejoin:miter;stroke-opacity:1" d="M 213.63,71.3811 176.196,71.3811 z" id="boundary" inkscape:connector-curvature="0" />
	<path style="fill:none;stroke:red;stroke-width:1px;stroke-linecap:butt;stroke-linejoin:miter;stroke-opacity:1" d="M 108.815,101.328 138.762,78.8679 z" id="boundary" inkscape:connector-curvature="0" />
	<path style="fill:none;stroke:red;stroke-width:1px;stroke-linecap:butt;stroke-linejoin:miter;stroke-opacity:1" d="M 26.4604,228.604 48.9208,198.657 z" id="boundary" inkscape:connector-curvature="0" />
	<path style="fill:none;stroke:red;stroke-width:1px;stroke-linecap:butt;stroke-linejoin:miter;stroke-opacity:1" d="M 123.789,217.374 93.8415,239.834 z" id="boundary" inkscape:connector-curvature="0" />
	<path style="fill:none;stroke:red;stroke-width:1px;stroke-linecap:butt;stroke-linejoin:miter;stroke-opacity:1" d="M 161.223,202.4 194.913,183.683 z" id="boundary" inkscape:connector-curvature="0" />
	<path style="fill:none;stroke:red;stroke-width:1px;stroke-linecap:butt;stroke-linejoin:miter;stroke-opacity:1" d="M 161.223,202.4 123.789,217.374 z" id="boundary" inkscape:connector-curvature="0" />
	<path style="fill:none;stroke:red;stroke-width:1px;stroke-linecap:butt;stroke-linejoin:miter;stroke-opacity:1" d="M 194.913,183.683 232.347,172.453 z" id="boundary" inkscape:connector-curvature="0" />
	<path style="fill:none;stroke:red;stroke-width:1px;stroke-linecap:butt;stroke-linejoin:miter;stroke-opacity:1" d="M 213.63,71.3811 251.064,78.8679 z" id="boundary" inkscape:connector-curvature="0" />
	<path style="fill:none;stroke:red;stroke-width:1px;stroke-linecap:butt;stroke-linejoin:miter;stroke-opacity:1" d="M 26.4604,228.604 4,258.551 z" id="boundary" inkscape:connector-curvature="0" />
	<path style="fill:none;stroke:red;stroke-width:1px;stroke-linecap:butt;stroke-linejoin:miter;stroke-opacity:1" d="M 412.03,37.6906 382.083,60.1509 z" id="boundary" inkscape:connector-curvature="0" />
	<path style="fill:none;stroke:red;stroke-width:1px;stroke-linecap:butt;stroke-linejoin:miter;stroke-opacity:1" d="M 382.083,60.1509 359.623,90.0981 z" id="boundary" inkscape:connector-curvature="0" />
	<path style="fill:none;stroke:red;stroke-width:1px;stroke-linecap:butt;stroke-linejoin:miter;stroke-opacity:1" d="M 449.464,22.717 486.898,11.4868 z" id="boundary" inkscape:connector-curvature="0" />
	<path style="fill:none;stroke:red;stroke-width:1px;stroke-linecap:butt;stroke-linejoin:miter;stroke-opacity:1" d="M 449.464,22.717 412.03,37.6906 z" id="boundary" inkscape:connector-curvature="0" />
	<path style="fill:none;stroke:red;stroke-width:1px;stroke-linecap:butt;stroke-linejoin:miter;stroke-opacity:1" d="M 524.332,4 486.898,11.4868 z" id="boundary" inkscape:connector-curvature="0" />
	<path style="fill:none;stroke:red;stroke-width:1px;stroke-linecap:butt;stroke-linejoin:miter;stroke-opacity:1" d="M 464.438,236.091 434.491,213.63 z" id="boundary" inkscape:connector-curvature="0" />
	<path style="fill:none;stroke:red;stroke-width:1px;stroke-linecap:butt;stroke-linejoin:miter;stroke-opacity:1" d="M 303.472,131.275 322.189,164.966 z" id="boundary" inkscape:connector-curvature="0" />
	<path style="fill:none;stroke:red;stroke-width:1px;stroke-linecap:butt;stroke-linejoin:miter;stroke-opacity:1" d="M 281.011,101.328 303.472,131.275 z" id="boundary" inkscape:connector-curvature="0" />
	<path style="fill:none;stroke:red;stroke-width:1px;stroke-linecap:butt;stroke-linejoin:miter;stroke-opacity:1" d="M 340.906,123.789 303.472,131.275 z" id="boundary" inkscape:connector-curvature="0" />
	<path style="fill:none;stroke:red;stroke-width:1px;stroke-linecap:butt;stroke-linejoin:miter;stroke-opacity:1" d="M 340.906,123.789 359.623,90.0981 z" id="boundary" inkscape:connector-curvature="0" />
	<path style="fill:none;stroke:red;stroke-width:1px;stroke-linecap:butt;stroke-linejoin:miter;stroke-opacity:1" d="M 236.091,258.551 236.091,221.117 z" id="boundary" inkscape:connector-curvature="0" />
	<path style="fill:none;stroke:red;stroke-width:1px;stroke-linecap:butt;stroke-linejoin:miter;stroke-opacity:1" d="M 281.011,101.328 251.064,78.8679 z" id="boundary" inkscape:connector-curvature="0" />
	<path style="fill:none;stroke:red;stroke-width:1px;stroke-linecap:butt;stroke-linejoin:miter;stroke-opacity:1" d="M 434.491,213.63 404.543,236.091 z" id="boundary" inkscape:connector-curvature="0" />
	<path style="fill:none;stroke:red;stroke-width:1px;stroke-linecap:butt;stroke-linejoin:miter;stroke-opacity:1" d="M 63.8943,262.294 33.9472,284.755 z" id="boundary" inkscape:connector-curvature="0" />
	<path style="fill:none;stroke:red;stroke-width:1px;stroke-linecap:butt;stroke-linejoin:miter;stroke-opacity:1" d="M 93.8415,239.834 63.8943,262.294 z" id="boundary" inkscape:connector-curvature="0" />
	<path style="fill:none;stroke:red;stroke-width:1px;stroke-linecap:butt;stroke-linejoin:miter;stroke-opacity:1" d="M 33.9472,284.755 4,258.551 z" id="boundary" inkscape:connector-curvature="0" />
	<path style="fill:none;stroke:red;stroke-width:1px;stroke-linecap:butt;stroke-linejoin:miter;stroke-opacity:1" d="M 236.091,258.551 236.091,295.985 z" id="boundary" inkscape:connector-curvature="0" />
	<path style="fill:none;stroke:red;stroke-width:1px;stroke-linecap:butt;stroke-linejoin:miter;stroke-opacity:1" d="M 397.057,273.525 404.543,236.091 z" id="boundary" inkscape:connector-curvature="0" />
	<path style="fill:none;stroke:red;stroke-width:1px;stroke-linecap:butt;stroke-linejoin:miter;stroke-opacity:1" d="M 236.091,295.985 254.808,329.675 z" id="boundary" inkscape:connector-curvature="0" />
	<path style="fill:none;stroke:red;stroke-width:1px;stroke-linecap:butt;stroke-linejoin:miter;stroke-opacity:1" d="M 254.808,329.675 284.755,352.136 z" id="boundary" inkscape:connector-curvature="0" />
	<path style="fill:none;stroke:red;stroke-width:1px;stroke-linecap:butt;stroke-linejoin:miter;stroke-opacity:1" d="M 322.189,359.623 284.755,352.136 z" id="boundary" inkscape:connector-curvature="0" />
	<path style="fill:none;stroke:red;stroke-width:1px;stroke-linecap:butt;stroke-linejoin:miter;stroke-opacity:1" d="M 322.189,359.623 359.623,352.136 z" id="boundary" inkscape:connector-curvature="0" />
	<path style="fill:none;stroke:red;stroke-width:1px;stroke-linecap:butt;stroke-linejoin:miter;stroke-opacity:1" d="M 385.826,322.189 359.623,352.136 z" id="boundary" inkscape:connector-curvature="0" />
	<path style="fill:none;stroke:red;stroke-width:1px;stroke-linecap:butt;stroke-linejoin:miter;stroke-opacity:1" d="M 397.057,273.525 385.826,322.189 z" id="boundary" inkscape:connector-curvature="0" />
	<path style="fill:none;stroke:red;stroke-width:1px;stroke-linecap:butt;stroke-linejoin:miter;stroke-opacity:1" d="M 494.385,262.294 513.102,295.985 z" id="boundary" inkscape:connector-curvature="0" />
	<path style="fill:none;stroke:red;stroke-width:1px;stroke-linecap:butt;stroke-linejoin:miter;stroke-opacity:1" d="M 494.385,262.294 464.438,236.091 z" id="boundary" inkscape:connector-curvature="0" />
	<path style="fill:none;stroke:red;stroke-width:1px;stroke-linecap:butt;stroke-linejoin:miter;stroke-opacity:1" d="M 513.102,295.985 516.845,333.419 z" id="boundary" inkscape:connector-curvature="0" />
	<path style="fill:none;stroke:red;stroke-width:1px;stroke-linecap:butt;stroke-linejoin:miter;stroke-opacity:1" d="M 528.075,408.287 520.589,370.853 z" id="boundary" inkscape:connector-curvature="0" />
	<path style="fill:none;stroke:red;stroke-width:1px;stroke-linecap:butt;stroke-linejoin:miter;stroke-opacity:1" d="M 520.589,370.853 516.845,333.419 z" id="boundary" inkscape:connector-curvature="0" />
	<path style="fill:none;stroke:red;stroke-width:1px;stroke-linecap:butt;stroke-linejoin:miter;stroke-opacity:1" d="M 535.562,445.721 528.075,408.287 z" id="boundary" inkscape:connector-curvature="0" />
	<path style="fill:none;stroke:red;stroke-width:1px;stroke-linecap:butt;stroke-linejoin:miter;stroke-opacity:1" d="M 468.181,917.389 449.464,951.079 z" id="boundary" inkscape:connector-curvature="0" />
	<path style="fill:none;stroke:red;stroke-width:1px;stroke-linecap:butt;stroke-linejoin:miter;stroke-opacity:1" d="M 449.464,951.079 415.774,932.362 z" id="boundary" inkscape:connector-curvature="0" />
	<path style="fill:none;stroke:red;stroke-width:1px;stroke-linecap:butt;stroke-linejoin:miter;stroke-opacity:1" d="M 486.898,958.566 449.464,951.079 z" id="boundary" inkscape:connector-curvature="0" />
	<path style="fill:none;stroke:red;stroke-width:1px;stroke-linecap:butt;stroke-linejoin:miter;stroke-opacity:1" d="M 561.766,958.566 524.332,958.566 z" id="boundary" inkscape:connector-curvature="0" />
	<path style="fill:none;stroke:red;stroke-width:1px;stroke-linecap:butt;stroke-linejoin:miter;stroke-opacity:1" d="M 468.181,917.389 505.615,909.902 z" id="boundary" inkscape:connector-curvature="0" />
	<path style="fill:none;stroke:red;stroke-width:1px;stroke-linecap:butt;stroke-linejoin:miter;stroke-opacity:1" d="M 524.332,958.566 486.898,958.566 z" id="boundary" inkscape:connector-curvature="0" />
	<path style="fill:none;stroke:red;stroke-width:1px;stroke-linecap:butt;stroke-linejoin:miter;stroke-opacity:1" d="M 535.562,445.721 543.049,483.155 z" id="boundary" inkscape:connector-curvature="0" />
	<path style="fill:none;stroke:red;stroke-width:1px;stroke-linecap:butt;stroke-linejoin:miter;stroke-opacity:1" d="M 543.049,872.468 505.615,909.902 z" id="boundary" inkscape:connector-curvature="0" />
	<path style="fill:none;stroke:red;stroke-width:1px;stroke-linecap:butt;stroke-linejoin:miter;stroke-opacity:1" d="M 524.332,4 561.766,4 z" id="boundary" inkscape:connector-curvature="0" />
	<path style="fill:none;stroke:red;stroke-width:1px;stroke-linecap:butt;stroke-linejoin:miter;stroke-opacity:1" d="M 599.2,4 636.634,11.4868 z" id="boundary" inkscape:connector-curvature="0" />
	<path style="fill:none;stroke:red;stroke-width:1px;stroke-linecap:butt;stroke-linejoin:miter;stroke-opacity:1" d="M 636.634,11.4868 674.068,26.4604 z" id="boundary" inkscape:connector-curvature="0" />
	<path style="fill:none;stroke:red;stroke-width:1px;stroke-linecap:butt;stroke-linejoin:miter;stroke-opacity:1" d="M 674.068,26.4604 711.502,41.434 z" id="boundary" inkscape:connector-curvature="0" />
	<path style="fill:none;stroke:red;stroke-width:1px;stroke-linecap:butt;stroke-linejoin:miter;stroke-opacity:1" d="M 711.502,41.434 745.192,60.1509 z" id="boundary" inkscape:connector-curvature="0" />
	<path style="fill:none;stroke:red;stroke-width:1px;stroke-linecap:butt;stroke-linejoin:miter;stroke-opacity:1" d="M 651.608,348.392 689.042,352.136 z" id="boundary" inkscape:connector-curvature="0" />
	<path style="fill:none;stroke:red;stroke-width:1px;stroke-linecap:butt;stroke-linejoin:miter;stroke-opacity:1" d="M 651.608,385.826 651.608,348.392 z" id="boundary" inkscape:connector-curvature="0" />
	<path style="fill:none;stroke:red;stroke-width:1px;stroke-linecap:butt;stroke-linejoin:miter;stroke-opacity:1" d="M 689.042,352.136 722.732,370.853 z" id="boundary" inkscape:connector-curvature="0" />
	<path style="fill:none;stroke:red;stroke-width:1px;stroke-linecap:butt;stroke-linejoin:miter;stroke-opacity:1" d="M 756.423,389.57 722.732,370.853 z" id="boundary" inkscape:connector-curvature="0" />
	<path style="fill:none;stroke:red;stroke-width:1px;stroke-linecap:butt;stroke-linejoin:miter;stroke-opacity:1" d="M 775.14,82.6113 801.343,112.558 z" id="boundary" inkscape:connector-curvature="0" />
	<path style="fill:none;stroke:red;stroke-width:1px;stroke-linecap:butt;stroke-linejoin:miter;stroke-opacity:1" d="M 651.608,423.26 651.608,385.826 z" id="boundary" inkscape:connector-curvature="0" />
	<path style="fill:none;stroke:red;stroke-width:1px;stroke-linecap:butt;stroke-linejoin:miter;stroke-opacity:1" d="M 745.192,60.1509 775.14,82.6113 z" id="boundary" inkscape:connector-curvature="0" />
	<path style="fill:none;stroke:red;stroke-width:1px;stroke-linecap:butt;stroke-linejoin:miter;stroke-opacity:1" d="M 831.291,138.762 857.494,168.709 z" id="boundary" inkscape:connector-curvature="0" />
	<path style="fill:none;stroke:red;stroke-width:1px;stroke-linecap:butt;stroke-linejoin:miter;stroke-opacity:1" d="M 831.291,138.762 801.343,112.558 z" id="boundary" inkscape:connector-curvature="0" />
	<path style="fill:none;stroke:red;stroke-width:1px;stroke-linecap:butt;stroke-linejoin:miter;stroke-opacity:1" d="M 887.442,194.913 857.494,168.709 z" id="boundary" inkscape:connector-curvature="0" />
	<path style="fill:none;stroke:red;stroke-width:1px;stroke-linecap:butt;stroke-linejoin:miter;stroke-opacity:1" d="M 887.442,194.913 913.645,224.86 z" id="boundary" inkscape:connector-curvature="0" />
	<path style="fill:none;stroke:red;stroke-width:1px;stroke-linecap:butt;stroke-linejoin:miter;stroke-opacity:1" d="M 793.857,397.057 756.423,389.57 z" id="boundary" inkscape:connector-curvature="0" />
	<path style="fill:none;stroke:red;stroke-width:1px;stroke-linecap:butt;stroke-linejoin:miter;stroke-opacity:1" d="M 913.645,224.86 936.106,254.808 z" id="boundary" inkscape:connector-curvature="0" />
	<path style="fill:none;stroke:red;stroke-width:1px;stroke-linecap:butt;stroke-linejoin:miter;stroke-opacity:1" d="M 831.291,412.03 793.857,397.057 z" id="boundary" inkscape:connector-curvature="0" />
	<path style="fill:none;stroke:red;stroke-width:1px;stroke-linecap:butt;stroke-linejoin:miter;stroke-opacity:1" d="M 868.725,419.517 831.291,412.03 z" id="boundary" inkscape:connector-curvature="0" />
	<path style="fill:none;stroke:red;stroke-width:1px;stroke-linecap:butt;stroke-linejoin:miter;stroke-opacity:1" d="M 906.158,400.8 868.725,419.517 z" id="boundary" inkscape:connector-curvature="0" />
	<path style="fill:none;stroke:red;stroke-width:1px;stroke-linecap:butt;stroke-linejoin:miter;stroke-opacity:1" d="M 981.026,314.702 996,352.136 z" id="boundary" inkscape:connector-curvature="0" />
	<path style="fill:none;stroke:red;stroke-width:1px;stroke-linecap:butt;stroke-linejoin:miter;stroke-opacity:1" d="M 996,352.136 981.026,412.03 z" id="boundary" inkscape:connector-curvature="0" />
	<path style="fill:none;stroke:red;stroke-width:1px;stroke-linecap:butt;stroke-linejoin:miter;stroke-opacity:1" d="M 981.026,412.03 943.592,412.03 z" id="boundary" inkscape:connector-curvature="0" />
	<path style="fill:none;stroke:red;stroke-width:1px;stroke-linecap:butt;stroke-linejoin:miter;stroke-opacity:1" d="M 943.592,412.03 906.158,400.8 z" id="boundary" inkscape:connector-curvature="0" />
	<path style="fill:none;stroke:red;stroke-width:1px;stroke-linecap:butt;stroke-linejoin:miter;stroke-opacity:1" d="M 958.566,284.755 981.026,314.702 z" id="boundary" inkscape:connector-curvature="0" />
	<path style="fill:none;stroke:red;stroke-width:1px;stroke-linecap:butt;stroke-linejoin:miter;stroke-opacity:1" d="M 936.106,254.808 958.566,284.755 z" id="boundary" inkscape:connector-curvature="0" />
	<path style="fill:none;stroke:red;stroke-width:1px;stroke-linecap:butt;stroke-linejoin:miter;stroke-opacity:1" d="M 554.279,520.589 565.509,558.023 z" id="boundary" inkscape:connector-curvature="0" />
	<path style="fill:none;stroke:red;stroke-width:1px;stroke-linecap:butt;stroke-linejoin:miter;stroke-opacity:1" d="M 554.279,520.589 543.049,483.155 z" id="boundary" inkscape:connector-curvature="0" />
	<path style="fill:none;stroke:red;stroke-width:1px;stroke-linecap:butt;stroke-linejoin:miter;stroke-opacity:1" d="M 572.996,595.457 572.996,632.891 z" id="boundary" inkscape:connector-curvature="0" />
	<path style="fill:none;stroke:red;stroke-width:1px;stroke-linecap:butt;stroke-linejoin:miter;stroke-opacity:1" d="M 565.509,558.023 572.996,595.457 z" id="boundary" inkscape:connector-curvature="0" />
	<path style="fill:none;stroke:red;stroke-width:1px;stroke-linecap:butt;stroke-linejoin:miter;stroke-opacity:1" d="M 572.996,685.298 572.996,632.891 z" id="boundary" inkscape:connector-curvature="0" />
	<path style="fill:none;stroke:red;stroke-width:1px;stroke-linecap:butt;stroke-linejoin:miter;stroke-opacity:1" d="M 565.509,737.706 572.996,685.298 z" id="boundary" inkscape:connector-curvature="0" />
	<path style="fill:none;stroke:red;stroke-width:1px;stroke-linecap:butt;stroke-linejoin:miter;stroke-opacity:1" d="M 543.049,872.468 550.536,827.547 z" id="boundary" inkscape:connector-curvature="0" />
	<path style="fill:none;stroke:red;stroke-width:1px;stroke-linecap:butt;stroke-linejoin:miter;stroke-opacity:1" d="M 558.023,782.626 550.536,827.547 z" id="boundary" inkscape:connector-curvature="0" />
	<path style="fill:none;stroke:red;stroke-width:1px;stroke-linecap:butt;stroke-linejoin:miter;stroke-opacity:1" d="M 621.66,827.547 614.174,879.955 z" id="boundary" inkscape:connector-curvature="0" />
	<path style="fill:none;stroke:red;stroke-width:1px;stroke-linecap:butt;stroke-linejoin:miter;stroke-opacity:1" d="M 558.023,782.626 565.509,737.706 z" id="boundary" inkscape:connector-curvature="0" />
	<path style="fill:none;stroke:red;stroke-width:1px;stroke-linecap:butt;stroke-linejoin:miter;stroke-opacity:1" d="M 614.174,917.389 599.2,954.823 z" id="boundary" inkscape:connector-curvature="0" />
	<path style="fill:none;stroke:red;stroke-width:1px;stroke-linecap:butt;stroke-linejoin:miter;stroke-opacity:1" d="M 599.2,954.823 561.766,958.566 z" id="boundary" inkscape:connector-curvature="0" />
	<path style="fill:none;stroke:red;stroke-width:1px;stroke-linecap:butt;stroke-linejoin:miter;stroke-opacity:1" d="M 614.174,879.955 614.174,917.389 z" id="boundary" inkscape:connector-curvature="0" />
	<path style="fill:none;stroke:red;stroke-width:1px;stroke-linecap:butt;stroke-linejoin:miter;stroke-opacity:1" d="M 651.608,460.694 651.608,498.128 z" id="boundary" inkscape:connector-curvature="0" />
	<path style="fill:none;stroke:red;stroke-width:1px;stroke-linecap:butt;stroke-linejoin:miter;stroke-opacity:1" d="M 651.608,460.694 651.608,423.26 z" id="boundary" inkscape:connector-curvature="0" />
	<path style="fill:none;stroke:red;stroke-width:1px;stroke-linecap:butt;stroke-linejoin:miter;stroke-opacity:1" d="M 651.608,498.128 651.608,535.562 z" id="boundary" inkscape:connector-curvature="0" />
	<path style="fill:none;stroke:red;stroke-width:1px;stroke-linecap:butt;stroke-linejoin:miter;stroke-opacity:1" d="M 651.608,572.996 651.608,535.562 z" id="boundary" inkscape:connector-curvature="0" />
	<path style="fill:none;stroke:red;stroke-width:1px;stroke-linecap:butt;stroke-linejoin:miter;stroke-opacity:1" d="M 621.66,827.547 629.147,782.626 z" id="boundary" inkscape:connector-curvature="0" />
	<path style="fill:none;stroke:red;stroke-width:1px;stroke-linecap:butt;stroke-linejoin:miter;stroke-opacity:1" d="M 629.147,782.626 636.634,730.219 z" id="boundary" inkscape:connector-curvature="0" />
	<path style="fill:none;stroke:red;stroke-width:1px;stroke-linecap:butt;stroke-linejoin:miter;stroke-opacity:1" d="M 651.608,610.43 644.121,677.811 z" id="boundary" inkscape:connector-curvature="0" />
	<path style="fill:none;stroke:red;stroke-width:1px;stroke-linecap:butt;stroke-linejoin:miter;stroke-opacity:1" d="M 651.608,610.43 651.608,572.996 z" id="boundary" inkscape:connector-curvature="0" />
	<path style="fill:none;stroke:red;stroke-width:1px;stroke-linecap:butt;stroke-linejoin:miter;stroke-opacity:1" d="M 636.634,730.219 644.121,677.811 z" id="boundary" inkscape:connector-curvature="0" />
	<path style="fill:none;stroke:red;stroke-width:1px;stroke-linecap:butt;stroke-linejoin:miter;stroke-opacity:1" d="M 561.766,4 599.2,4 z" id="boundary" inkscape:connector-curvature="0" />
	<circle cx="4" cy="258.551" r="4" fill="#0" id="circle0"/>
	<circle cx="26.4604" cy="228.604" r="4" fill="#0" id="circle1"/>
	<circle cx="33.9472" cy="284.755" r="4" fill="#0" id="circle2"/>
	<circle cx="48.9208" cy="198.657" r="4" fill="#0" id="circle3"/>
	<circle cx="63.8943" cy="262.294" r="4" fill="#0" id="circle4"/>
	<circle cx="71.3811" cy="168.709" r="4" fill="#0" id="circle5"/>
	<circle cx="86.3547" cy="131.275" r="4" fill="#0" id="circle6"/>
	<circle cx="93.8415" cy="239.834" r="4" fill="#0" id="circle7"/>
	<circle cx="108.815" cy="101.328" r="4" fill="#0" id="circle8"/>
	<circle cx="123.789" cy="217.374" r="4" fill="#0" id="circle9"/>
	<circle cx="138.762" cy="78.8679" r="4" fill="#0" id="circle10"/>
	<circle cx="161.223" cy="202.4" r="4" fill="#0" id="circle11"/>
	<circle cx="176.196" cy="71.3811" r="4" fill="#0" id="circle12"/>
	<circle cx="194.913" cy="183.683" r="4" fill="#0" id="circle13"/>
	<circle cx="213.63" cy="71.3811" r="4" fill="#0" id="circle14"/>
	<circle cx="232.347" cy="172.453" r="4" fill="#0" id="circle15"/>
	<circle cx="236.091" cy="221.117" r="4" fill="#0" id="circle16"/>
	<circle cx="236.091" cy="258.551" r="4" fill="#0" id="circle17"/>
	<circle cx="236.091" cy="295.985" r="4" fill="#0" id="circle18"/>
	<circle cx="251.064" cy="78.8679" r="4" fill="#0" id="circle19"/>
	<circle cx="254.808" cy="329.675" r="4" fill="#0" id="circle20"/>
	<circle cx="281.011" cy="101.328" r="4" fill="#0" id="circle21"/>
	<circle cx="284.755" cy="352.136" r="4" fill="#0" id="circle22"/>
	<circle cx="303.472" cy="131.275" r="4" fill="#0" id="circle23"/>
	<circle cx="322.189" cy="164.966" r="4" fill="#0" id="circle24"/>
	<circle cx="322.189" cy="359.623" r="4" fill="#0" id="circle25"/>
	<circle cx="340.906" cy="123.789" r="4" fill="#0" id="circle26"/>
	<circle cx="359.623" cy="90.0981" r="4" fill="#0" id="circle27"/>
	<circle cx="359.623" cy="352.136" r="4" fill="#0" id="circle28"/>
	<circle cx="382.083" cy="60.1509" r="4" fill="#0" id="circle29"/>
	<circle cx="385.826" cy="322.189" r="4" fill="#0" id="circle30"/>
	<circle cx="397.057" cy="273.525" r="4" fill="#0" id="circle31"/>
	<circle cx="404.543" cy="236.091" r="4" fill="#0" id="circle32"/>
	<circle cx="412.03" cy="37.6906" r="4" fill="#0" id="circle33"/>
	<circle cx="415.774" cy="932.362" r="4" fill="#0" id="circle34"/>
	<circle cx="434.491" cy="213.63" r="4" fill="#0" id="circle35"/>
	<circle cx="449.464" cy="22.717" r="4" fill="#0" id="circle36"/>
	<circle cx="449.464" cy="951.079" r="4" fill="#0" id="circle37"/>
	<circle cx="464.438" cy="236.091" r="4" fill="#0" id="circle38"/>
	<circle cx="468.181" cy="917.389" r="4" fill="#0" id="circle39"/>
	<circle cx="486.898" cy="11.4868" r="4" fill="#0" id="circle40"/>
	<circle cx="486.898" cy="958.566" r="4" fill="#0" id="circle41"/>
	<circle cx="494.385" cy="262.294" r="4" fill="#0" id="circle42"/>
	<circle cx="505.615" cy="909.902" r="4" fill="#0" id="circle43"/>
	<circle cx="513.102" cy="295.985" r="4" fill="#0" id="circle44"/>
	<circle cx="516.845" cy="333.419" r="4" fill="#0" id="circle45"/>
	<circle cx="520.589" cy="370.853" r="4" fill="#0" id="circle46"/>
	<circle cx="524.332" cy="4" r="4" fill="#0" id="circle47"/>
	<circle cx="524.332" cy="958.566" r="4" fill="#0" id="circle48"/>
	<circle cx="528.075" cy="408.287" r="4" fill="#0" id="circle49"/>
	<circle cx="535.562" cy="445.721" r="4" fill="#0" id="circle50"/>
	<circle cx="543.049" cy="483.155" r="4" fill="#0" id="circle51"/>
	<circle cx="543.049" cy="872.468" r="4" fill="#0" id="circle52"/>
	<circle cx="550.536" cy="827.547" r="4" fill="#0" id="circle53"/>
	<circle cx="554.279" cy="520.589" r="4" fill="#0" id="circle54"/>
	<circle cx="558.023" cy="782.626" r="4" fill="#0" id="circle55"/>
	<circle cx="561.766" cy="4" r="4" fill="#0" id="circle56"/>
	<circle cx="561.766" cy="958.566" r="4" fill="#0" id="circle57"/>
	<circle cx="565.509" cy="558.023" r="4" fill="#0" id="circle58"/>
	<circle cx="565.509" cy="737.706" r="4" fill="#0" id="circle59"/>
	<circle cx="572.996" cy="595.457" r="4" fill="#0" id="circle60"/>
	<circle cx="572.996" cy="632.891" r="4" fill="#0" id="circle61"/>
	<circle cx="572.996" cy="685.298" r="4" fill="#0" id="circle62"/>
	<circle cx="599.2" cy="4" r="4" fill="#0" id="circle63"/>
	<circle cx="599.2" cy="954.823" r="4" fill="#0" id="circle64"/>
	<circle cx="614.174" cy="879.955" r="4" fill="#0" id="circle65"/>
	<circle cx="614.174" cy="917.389" r="4" fill="#0" id="circle66"/>
	<circle cx="621.66" cy="827.547" r="4" fill="#0" id="circle67"/>
	<circle cx="629.147" cy="782.626" r="4" fill="#0" id="circle68"/>
	<circle cx="636.634" cy="11.4868" r="4" fill="#0" id="circle69"/>
	<circle cx="636.634" cy="730.219" r="4" fill="#0" id="circle70"/>
	<circle cx="644.121" cy="677.811" r="4" fill="#0" id="circle71"/>
	<circle cx="651.608" cy="348.392" r="4" fill="#0" id="circle72"/>
	<circle cx="651.608" cy="385.826" r="4" fill="#0" id="circle73"/>
	<circle cx="651.608" cy="423.26" r="4" fill="#0" id="circle74"/>
	<circle cx="651.608" cy="460.694" r="4" fill="#0" id="circle75"/>
	<circle cx="651.608" cy="498.128" r="4" fill="#0" id="circle76"/>
	<circle cx="651.608" cy="535.562" r="4" fill="#0" id="circle77"/>
	<circle cx="651.608" cy="572.996" r="4" fill="#0" id="circle78"/>
	<circle cx="651.608" cy="610.43" r="4" fill="#0" id="circle79"/>
	<circle cx="674.068" cy="26.4604" r="4" fill="#0" id="circle80"/>
	<circle cx="689.042" cy="352.136" r="4" fill="#0" id="circle81"/>
	<circle cx="711.502" cy="41.434" r="4" fill="#0" id="circle82"/>
	<circle cx="722.732" cy="370.853" r="4" fill="#0" id="circle83"/>
	<circle cx="745.192" cy="60.1509" r="4" fill="#0" id="circle84"/>
	<circle cx="756.423" cy="389.57" r="4" fill="#0" id="circle85"/>
	<circle cx="775.14" cy="82.6113" r="4" fill="#0" id="circle86"/>
	<circle cx="793.857" cy="397.057" r="4" fill="#0" id="circle87"/>
	<circle cx="801.343" cy="112.558" r="4" fill="#0" id="circle88"/>
	<circle cx="831.291" cy="138.762" r="4" fill="#0" id="circle89"/>
	<circle cx="831.291" cy="412.03" r="4" fill="#0" id="circle90"/>
	<circle cx="857.494" cy="168.709" r="4" fill="#0" id="circle91"/>
	<circle cx="868.725" cy="419.517" r="4" fill="#0" id="circle92"/>
	<circle cx="887.442" cy="194.913" r="4" fill="#0" id="circle93"/>
	<circle cx="906.158" cy="400.8" r="4" fill="#0" id="circle94"/>
	<circle cx="913.645" cy="224.86" r="4" fill="#0" id="circle95"/>
	<circle cx="936.106" cy="254.808" r="4" fill="#0" id="circle96"/>
	<circle cx="943.592" cy="412.03" r="4" fill="#0" id="circle97"/>
	<circle cx="958.566" cy="284.755" r="4" fill="#0" id="circle98"/>
	<circle cx="981.026" cy="314.702" r="4" fill="#0" id="circle99"/>
	<circle cx="981.026" cy="412.03" r="4" fill="#0" id="circle100"/>
	<circle cx="996" cy="352.136" r="4" fill="#0" id="circle101"/>
	</g>
</svg>