<?xml version="1.0" encoding="UTF-8" standalone="no"?>
<!-- Created with CurveBenchmark -->
<svg
	xmlns:dc="http://purl.org/dc/elements/1.1/"
	xmlns:cc="http://creativecommons.org/ns#"
	xmlns:rdf="http://www.w3.org/1999/02/22-rdf-syntax-ns#"
	xmlns:svg="http://www.w3.org/2000/svg"
	xmlns="http://www.w3.org/2000/svg"
	xmlns:sodipodi="http://sodipodi.sourceforge.net/DTD/sodipodi-0.dtd"
	xmlns:inkscape="http://www.inkscape.org/namespaces/inkscape"
	width="1000"
	height="1000"
	id="svg2"
	version="1.1"
	sodipodi:docname="manifold/ccrust-key05.png.txt">
<defs
	id="defs4" />
<metadata
	id="metadata7">
	<rdf:RDF>
		<cc:Work
			rdf:about="">
			<dc:format>image/svg+xml</dc:format>
			<dc:type
				rdf:resource="http://purl.org/dc/dcmitype/StillImage" />
			<dc:title></dc:title>
		</cc:Work>
	</rdf:RDF>
</metadata>
<g
	inkscape:label="Layer 1"
	inkscape:groupmode="layer"
	id="layer1">
	<path style="fill:none;stroke:red;stroke-width:1px;stroke-linecap:butt;stroke-linejoin:miter;stroke-opacity:1" d="M 93.3358,59.8349 108.225,44.9456 z" id="boundary" inkscape:connector-curvature="0" />
	<path style="fill:none;stroke:red;stroke-width:1px;stroke-linecap:butt;stroke-linejoin:miter;stroke-opacity:1" d="M 123.114,31.9174 108.225,44.9456 z" id="boundary" inkscape:connector-curvature="0" />
	<path style="fill:none;stroke:red;stroke-width:1px;stroke-linecap:butt;stroke-linejoin:miter;stroke-opacity:1" d="M 61.6961,82.1689 76.5854,69.1407 z" id="boundary" inkscape:connector-curvature="0" />
	<path style="fill:none;stroke:red;stroke-width:1px;stroke-linecap:butt;stroke-linejoin:miter;stroke-opacity:1" d="M 76.5854,69.1407 93.3358,59.8349 z" id="boundary" inkscape:connector-curvature="0" />
	<path style="fill:none;stroke:red;stroke-width:1px;stroke-linecap:butt;stroke-linejoin:miter;stroke-opacity:1" d="M 123.114,31.9174 141.726,31.9174 z" id="boundary" inkscape:connector-curvature="0" />
	<path style="fill:none;stroke:red;stroke-width:1px;stroke-linecap:butt;stroke-linejoin:miter;stroke-opacity:1" d="M 141.726,31.9174 158.477,22.6116 z" id="boundary" inkscape:connector-curvature="0" />
	<path style="fill:none;stroke:red;stroke-width:1px;stroke-linecap:butt;stroke-linejoin:miter;stroke-opacity:1" d="M 195.7,4 177.088,13.3058 z" id="boundary" inkscape:connector-curvature="0" />
	<path style="fill:none;stroke:red;stroke-width:1px;stroke-linecap:butt;stroke-linejoin:miter;stroke-opacity:1" d="M 177.088,13.3058 158.477,22.6116 z" id="boundary" inkscape:connector-curvature="0" />
	<path style="fill:none;stroke:red;stroke-width:1px;stroke-linecap:butt;stroke-linejoin:miter;stroke-opacity:1" d="M 4,177.088 18.8893,162.199 z" id="boundary" inkscape:connector-curvature="0" />
	<path style="fill:none;stroke:red;stroke-width:1px;stroke-linecap:butt;stroke-linejoin:miter;stroke-opacity:1" d="M 4,195.7 4,177.088 z" id="boundary" inkscape:connector-curvature="0" />
	<path style="fill:none;stroke:red;stroke-width:1px;stroke-linecap:butt;stroke-linejoin:miter;stroke-opacity:1" d="M 22.6116,130.559 18.8893,162.199 z" id="boundary" inkscape:connector-curvature="0" />
	<path style="fill:none;stroke:red;stroke-width:1px;stroke-linecap:butt;stroke-linejoin:miter;stroke-opacity:1" d="M 4,214.311 4,195.7 z" id="boundary" inkscape:connector-curvature="0" />
	<path style="fill:none;stroke:red;stroke-width:1px;stroke-linecap:butt;stroke-linejoin:miter;stroke-opacity:1" d="M 46.8068,97.0582 61.6961,82.1689 z" id="boundary" inkscape:connector-curvature="0" />
	<path style="fill:none;stroke:red;stroke-width:1px;stroke-linecap:butt;stroke-linejoin:miter;stroke-opacity:1" d="M 22.6116,130.559 31.9174,111.947 z" id="boundary" inkscape:connector-curvature="0" />
	<path style="fill:none;stroke:red;stroke-width:1px;stroke-linecap:butt;stroke-linejoin:miter;stroke-opacity:1" d="M 31.9174,111.947 46.8068,97.0582 z" id="boundary" inkscape:connector-curvature="0" />
	<path style="fill:none;stroke:red;stroke-width:1px;stroke-linecap:butt;stroke-linejoin:miter;stroke-opacity:1" d="M 195.7,4 212.45,13.3058 z" id="boundary" inkscape:connector-curvature="0" />
	<path style="fill:none;stroke:red;stroke-width:1px;stroke-linecap:butt;stroke-linejoin:miter;stroke-opacity:1" d="M 229.201,4 247.812,4 z" id="boundary" inkscape:connector-curvature="0" />
	<path style="fill:none;stroke:red;stroke-width:1px;stroke-linecap:butt;stroke-linejoin:miter;stroke-opacity:1" d="M 212.45,13.3058 229.201,4 z" id="boundary" inkscape:connector-curvature="0" />
	<path style="fill:none;stroke:red;stroke-width:1px;stroke-linecap:butt;stroke-linejoin:miter;stroke-opacity:1" d="M 247.812,4 266.424,4 z" id="boundary" inkscape:connector-curvature="0" />
	<path style="fill:none;stroke:red;stroke-width:1px;stroke-linecap:butt;stroke-linejoin:miter;stroke-opacity:1" d="M 285.036,4 303.647,4 z" id="boundary" inkscape:connector-curvature="0" />
	<path style="fill:none;stroke:red;stroke-width:1px;stroke-linecap:butt;stroke-linejoin:miter;stroke-opacity:1" d="M 303.647,4 322.259,9.58349 z" id="boundary" inkscape:connector-curvature="0" />
	<path style="fill:none;stroke:red;stroke-width:1px;stroke-linecap:butt;stroke-linejoin:miter;stroke-opacity:1" d="M 340.871,13.3058 322.259,9.58349 z" id="boundary" inkscape:connector-curvature="0" />
	<path style="fill:none;stroke:red;stroke-width:1px;stroke-linecap:butt;stroke-linejoin:miter;stroke-opacity:1" d="M 266.424,4 285.036,4 z" id="boundary" inkscape:connector-curvature="0" />
	<path style="fill:none;stroke:red;stroke-width:1px;stroke-linecap:butt;stroke-linejoin:miter;stroke-opacity:1" d="M 340.871,13.3058 355.76,24.4728 z" id="boundary" inkscape:connector-curvature="0" />
	<path style="fill:none;stroke:red;stroke-width:1px;stroke-linecap:butt;stroke-linejoin:miter;stroke-opacity:1" d="M 368.788,39.3621 355.76,24.4728 z" id="boundary" inkscape:connector-curvature="0" />
	<path style="fill:none;stroke:red;stroke-width:1px;stroke-linecap:butt;stroke-linejoin:miter;stroke-opacity:1" d="M 383.677,52.3902 368.788,39.3621 z" id="boundary" inkscape:connector-curvature="0" />
	<path style="fill:none;stroke:red;stroke-width:1px;stroke-linecap:butt;stroke-linejoin:miter;stroke-opacity:1" d="M 383.677,52.3902 387.4,71.0019 z" id="boundary" inkscape:connector-curvature="0" />
	<path style="fill:none;stroke:red;stroke-width:1px;stroke-linecap:butt;stroke-linejoin:miter;stroke-opacity:1" d="M 396.705,87.7523 387.4,71.0019 z" id="boundary" inkscape:connector-curvature="0" />
	<path style="fill:none;stroke:red;stroke-width:1px;stroke-linecap:butt;stroke-linejoin:miter;stroke-opacity:1" d="M 396.705,87.7523 406.011,104.503 z" id="boundary" inkscape:connector-curvature="0" />
	<path style="fill:none;stroke:red;stroke-width:1px;stroke-linecap:butt;stroke-linejoin:miter;stroke-opacity:1" d="M 406.011,104.503 406.011,123.114 z" id="boundary" inkscape:connector-curvature="0" />
	<path style="fill:none;stroke:red;stroke-width:1px;stroke-linecap:butt;stroke-linejoin:miter;stroke-opacity:1" d="M 433.929,143.587 415.317,139.865 z" id="boundary" inkscape:connector-curvature="0" />
	<path style="fill:none;stroke:red;stroke-width:1px;stroke-linecap:butt;stroke-linejoin:miter;stroke-opacity:1" d="M 415.317,139.865 406.011,123.114 z" id="boundary" inkscape:connector-curvature="0" />
	<path style="fill:none;stroke:red;stroke-width:1px;stroke-linecap:butt;stroke-linejoin:miter;stroke-opacity:1" d="M 4,260.841 4,232.923 z" id="boundary" inkscape:connector-curvature="0" />
	<path style="fill:none;stroke:red;stroke-width:1px;stroke-linecap:butt;stroke-linejoin:miter;stroke-opacity:1" d="M 18.8893,273.869 4,260.841 z" id="boundary" inkscape:connector-curvature="0" />
	<path style="fill:none;stroke:red;stroke-width:1px;stroke-linecap:butt;stroke-linejoin:miter;stroke-opacity:1" d="M 18.8893,273.869 22.6116,292.48 z" id="boundary" inkscape:connector-curvature="0" />
	<path style="fill:none;stroke:red;stroke-width:1px;stroke-linecap:butt;stroke-linejoin:miter;stroke-opacity:1" d="M 31.9174,309.231 22.6116,292.48 z" id="boundary" inkscape:connector-curvature="0" />
	<path style="fill:none;stroke:red;stroke-width:1px;stroke-linecap:butt;stroke-linejoin:miter;stroke-opacity:1" d="M 31.9174,309.231 33.7786,327.842 z" id="boundary" inkscape:connector-curvature="0" />
	<path style="fill:none;stroke:red;stroke-width:1px;stroke-linecap:butt;stroke-linejoin:miter;stroke-opacity:1" d="M 43.0844,344.593 33.7786,327.842 z" id="boundary" inkscape:connector-curvature="0" />
	<path style="fill:none;stroke:red;stroke-width:1px;stroke-linecap:butt;stroke-linejoin:miter;stroke-opacity:1" d="M 56.1126,359.482 43.0844,344.593 z" id="boundary" inkscape:connector-curvature="0" />
	<path style="fill:none;stroke:red;stroke-width:1px;stroke-linecap:butt;stroke-linejoin:miter;stroke-opacity:1" d="M 71.0019,372.51 56.1126,359.482 z" id="boundary" inkscape:connector-curvature="0" />
	<path style="fill:none;stroke:red;stroke-width:1px;stroke-linecap:butt;stroke-linejoin:miter;stroke-opacity:1" d="M 71.0019,372.51 84.03,387.4 z" id="boundary" inkscape:connector-curvature="0" />
	<path style="fill:none;stroke:red;stroke-width:1px;stroke-linecap:butt;stroke-linejoin:miter;stroke-opacity:1" d="M 98.9193,400.428 84.03,387.4 z" id="boundary" inkscape:connector-curvature="0" />
	<path style="fill:none;stroke:red;stroke-width:1px;stroke-linecap:butt;stroke-linejoin:miter;stroke-opacity:1" d="M 134.281,415.317 115.67,409.734 z" id="boundary" inkscape:connector-curvature="0" />
	<path style="fill:none;stroke:red;stroke-width:1px;stroke-linecap:butt;stroke-linejoin:miter;stroke-opacity:1" d="M 115.67,409.734 98.9193,400.428 z" id="boundary" inkscape:connector-curvature="0" />
	<path style="fill:none;stroke:red;stroke-width:1px;stroke-linecap:butt;stroke-linejoin:miter;stroke-opacity:1" d="M 134.281,415.317 151.032,424.623 z" id="boundary" inkscape:connector-curvature="0" />
	<path style="fill:none;stroke:red;stroke-width:1px;stroke-linecap:butt;stroke-linejoin:miter;stroke-opacity:1" d="M 205.006,443.235 186.394,441.373 z" id="boundary" inkscape:connector-curvature="0" />
	<path style="fill:none;stroke:red;stroke-width:1px;stroke-linecap:butt;stroke-linejoin:miter;stroke-opacity:1" d="M 186.394,441.373 167.782,433.929 z" id="boundary" inkscape:connector-curvature="0" />
	<path style="fill:none;stroke:red;stroke-width:1px;stroke-linecap:butt;stroke-linejoin:miter;stroke-opacity:1" d="M 151.032,424.623 167.782,433.929 z" id="boundary" inkscape:connector-curvature="0" />
	<path style="fill:none;stroke:red;stroke-width:1px;stroke-linecap:butt;stroke-linejoin:miter;stroke-opacity:1" d="M 4,232.923 4,214.311 z" id="boundary" inkscape:connector-curvature="0" />
	<path style="fill:none;stroke:red;stroke-width:1px;stroke-linecap:butt;stroke-linejoin:miter;stroke-opacity:1" d="M 387.4,378.094 396.705,359.482 z" id="boundary" inkscape:connector-curvature="0" />
	<path style="fill:none;stroke:red;stroke-width:1px;stroke-linecap:butt;stroke-linejoin:miter;stroke-opacity:1" d="M 365.066,411.595 378.094,396.705 z" id="boundary" inkscape:connector-curvature="0" />
	<path style="fill:none;stroke:red;stroke-width:1px;stroke-linecap:butt;stroke-linejoin:miter;stroke-opacity:1" d="M 387.4,378.094 378.094,396.705 z" id="boundary" inkscape:connector-curvature="0" />
	<path style="fill:none;stroke:red;stroke-width:1px;stroke-linecap:butt;stroke-linejoin:miter;stroke-opacity:1" d="M 406.011,294.341 422.762,285.036 z" id="boundary" inkscape:connector-curvature="0" />
	<path style="fill:none;stroke:red;stroke-width:1px;stroke-linecap:butt;stroke-linejoin:miter;stroke-opacity:1" d="M 406.011,312.953 406.011,294.341 z" id="boundary" inkscape:connector-curvature="0" />
	<path style="fill:none;stroke:red;stroke-width:1px;stroke-linecap:butt;stroke-linejoin:miter;stroke-opacity:1" d="M 406.011,312.953 406.011,331.565 z" id="boundary" inkscape:connector-curvature="0" />
	<path style="fill:none;stroke:red;stroke-width:1px;stroke-linecap:butt;stroke-linejoin:miter;stroke-opacity:1" d="M 406.011,331.565 396.705,359.482 z" id="boundary" inkscape:connector-curvature="0" />
	<path style="fill:none;stroke:red;stroke-width:1px;stroke-linecap:butt;stroke-linejoin:miter;stroke-opacity:1" d="M 422.762,285.036 439.512,294.341 z" id="boundary" inkscape:connector-curvature="0" />
	<path style="fill:none;stroke:red;stroke-width:1px;stroke-linecap:butt;stroke-linejoin:miter;stroke-opacity:1" d="M 223.617,443.235 205.006,443.235 z" id="boundary" inkscape:connector-curvature="0" />
	<path style="fill:none;stroke:red;stroke-width:1px;stroke-linecap:butt;stroke-linejoin:miter;stroke-opacity:1" d="M 260.841,443.235 242.229,443.235 z" id="boundary" inkscape:connector-curvature="0" />
	<path style="fill:none;stroke:red;stroke-width:1px;stroke-linecap:butt;stroke-linejoin:miter;stroke-opacity:1" d="M 242.229,443.235 223.617,443.235 z" id="boundary" inkscape:connector-curvature="0" />
	<path style="fill:none;stroke:red;stroke-width:1px;stroke-linecap:butt;stroke-linejoin:miter;stroke-opacity:1" d="M 333.426,433.929 350.176,424.623 z" id="boundary" inkscape:connector-curvature="0" />
	<path style="fill:none;stroke:red;stroke-width:1px;stroke-linecap:butt;stroke-linejoin:miter;stroke-opacity:1" d="M 298.064,443.235 279.452,443.235 z" id="boundary" inkscape:connector-curvature="0" />
	<path style="fill:none;stroke:red;stroke-width:1px;stroke-linecap:butt;stroke-linejoin:miter;stroke-opacity:1" d="M 316.675,443.235 298.064,443.235 z" id="boundary" inkscape:connector-curvature="0" />
	<path style="fill:none;stroke:red;stroke-width:1px;stroke-linecap:butt;stroke-linejoin:miter;stroke-opacity:1" d="M 333.426,433.929 316.675,443.235 z" id="boundary" inkscape:connector-curvature="0" />
	<path style="fill:none;stroke:red;stroke-width:1px;stroke-linecap:butt;stroke-linejoin:miter;stroke-opacity:1" d="M 279.452,443.235 260.841,443.235 z" id="boundary" inkscape:connector-curvature="0" />
	<path style="fill:none;stroke:red;stroke-width:1px;stroke-linecap:butt;stroke-linejoin:miter;stroke-opacity:1" d="M 365.066,411.595 350.176,424.623 z" id="boundary" inkscape:connector-curvature="0" />
	<path style="fill:none;stroke:red;stroke-width:1px;stroke-linecap:butt;stroke-linejoin:miter;stroke-opacity:1" d="M 515.82,152.893 534.432,152.893 z" id="boundary" inkscape:connector-curvature="0" />
	<path style="fill:none;stroke:red;stroke-width:1px;stroke-linecap:butt;stroke-linejoin:miter;stroke-opacity:1" d="M 553.043,152.893 534.432,152.893 z" id="boundary" inkscape:connector-curvature="0" />
	<path style="fill:none;stroke:red;stroke-width:1px;stroke-linecap:butt;stroke-linejoin:miter;stroke-opacity:1" d="M 497.208,158.477 515.82,152.893 z" id="boundary" inkscape:connector-curvature="0" />
	<path style="fill:none;stroke:red;stroke-width:1px;stroke-linecap:butt;stroke-linejoin:miter;stroke-opacity:1" d="M 571.655,152.893 590.266,152.893 z" id="boundary" inkscape:connector-curvature="0" />
	<path style="fill:none;stroke:red;stroke-width:1px;stroke-linecap:butt;stroke-linejoin:miter;stroke-opacity:1" d="M 571.655,152.893 553.043,152.893 z" id="boundary" inkscape:connector-curvature="0" />
	<path style="fill:none;stroke:red;stroke-width:1px;stroke-linecap:butt;stroke-linejoin:miter;stroke-opacity:1" d="M 608.878,152.893 627.49,152.893 z" id="boundary" inkscape:connector-curvature="0" />
	<path style="fill:none;stroke:red;stroke-width:1px;stroke-linecap:butt;stroke-linejoin:miter;stroke-opacity:1" d="M 608.878,152.893 590.266,152.893 z" id="boundary" inkscape:connector-curvature="0" />
	<path style="fill:none;stroke:red;stroke-width:1px;stroke-linecap:butt;stroke-linejoin:miter;stroke-opacity:1" d="M 478.597,158.477 461.846,169.644 z" id="boundary" inkscape:connector-curvature="0" />
	<path style="fill:none;stroke:red;stroke-width:1px;stroke-linecap:butt;stroke-linejoin:miter;stroke-opacity:1" d="M 461.846,169.644 448.818,154.754 z" id="boundary" inkscape:connector-curvature="0" />
	<path style="fill:none;stroke:red;stroke-width:1px;stroke-linecap:butt;stroke-linejoin:miter;stroke-opacity:1" d="M 448.818,154.754 433.929,143.587 z" id="boundary" inkscape:connector-curvature="0" />
	<path style="fill:none;stroke:red;stroke-width:1px;stroke-linecap:butt;stroke-linejoin:miter;stroke-opacity:1" d="M 478.597,158.477 497.208,158.477 z" id="boundary" inkscape:connector-curvature="0" />
	<path style="fill:none;stroke:red;stroke-width:1px;stroke-linecap:butt;stroke-linejoin:miter;stroke-opacity:1" d="M 683.325,156.615 664.713,162.199 z" id="boundary" inkscape:connector-curvature="0" />
	<path style="fill:none;stroke:red;stroke-width:1px;stroke-linecap:butt;stroke-linejoin:miter;stroke-opacity:1" d="M 664.713,162.199 646.101,156.615 z" id="boundary" inkscape:connector-curvature="0" />
	<path style="fill:none;stroke:red;stroke-width:1px;stroke-linecap:butt;stroke-linejoin:miter;stroke-opacity:1" d="M 627.49,152.893 646.101,156.615 z" id="boundary" inkscape:connector-curvature="0" />
	<path style="fill:none;stroke:red;stroke-width:1px;stroke-linecap:butt;stroke-linejoin:miter;stroke-opacity:1" d="M 683.325,156.615 701.936,156.615 z" id="boundary" inkscape:connector-curvature="0" />
	<path style="fill:none;stroke:red;stroke-width:1px;stroke-linecap:butt;stroke-linejoin:miter;stroke-opacity:1" d="M 701.936,156.615 720.548,162.199 z" id="boundary" inkscape:connector-curvature="0" />
	<path style="fill:none;stroke:red;stroke-width:1px;stroke-linecap:butt;stroke-linejoin:miter;stroke-opacity:1" d="M 739.159,165.921 720.548,162.199 z" id="boundary" inkscape:connector-curvature="0" />
	<path style="fill:none;stroke:red;stroke-width:1px;stroke-linecap:butt;stroke-linejoin:miter;stroke-opacity:1" d="M 757.771,165.921 739.159,165.921 z" id="boundary" inkscape:connector-curvature="0" />
	<path style="fill:none;stroke:red;stroke-width:1px;stroke-linecap:butt;stroke-linejoin:miter;stroke-opacity:1" d="M 757.771,165.921 776.383,165.921 z" id="boundary" inkscape:connector-curvature="0" />
	<path style="fill:none;stroke:red;stroke-width:1px;stroke-linecap:butt;stroke-linejoin:miter;stroke-opacity:1" d="M 813.606,171.505 794.994,171.505 z" id="boundary" inkscape:connector-curvature="0" />
	<path style="fill:none;stroke:red;stroke-width:1px;stroke-linecap:butt;stroke-linejoin:miter;stroke-opacity:1" d="M 794.994,171.505 776.383,165.921 z" id="boundary" inkscape:connector-curvature="0" />
	<path style="fill:none;stroke:red;stroke-width:1px;stroke-linecap:butt;stroke-linejoin:miter;stroke-opacity:1" d="M 813.606,171.505 832.218,171.505 z" id="boundary" inkscape:connector-curvature="0" />
	<path style="fill:none;stroke:red;stroke-width:1px;stroke-linecap:butt;stroke-linejoin:miter;stroke-opacity:1" d="M 832.218,171.505 848.968,180.811 z" id="boundary" inkscape:connector-curvature="0" />
	<path style="fill:none;stroke:red;stroke-width:1px;stroke-linecap:butt;stroke-linejoin:miter;stroke-opacity:1" d="M 940.165,162.199 921.553,171.505 z" id="boundary" inkscape:connector-curvature="0" />
	<path style="fill:none;stroke:red;stroke-width:1px;stroke-linecap:butt;stroke-linejoin:miter;stroke-opacity:1" d="M 848.968,180.811 867.58,180.811 z" id="boundary" inkscape:connector-curvature="0" />
	<path style="fill:none;stroke:red;stroke-width:1px;stroke-linecap:butt;stroke-linejoin:miter;stroke-opacity:1" d="M 886.191,180.811 904.803,180.811 z" id="boundary" inkscape:connector-curvature="0" />
	<path style="fill:none;stroke:red;stroke-width:1px;stroke-linecap:butt;stroke-linejoin:miter;stroke-opacity:1" d="M 921.553,171.505 904.803,180.811 z" id="boundary" inkscape:connector-curvature="0" />
	<path style="fill:none;stroke:red;stroke-width:1px;stroke-linecap:butt;stroke-linejoin:miter;stroke-opacity:1" d="M 886.191,180.811 867.58,180.811 z" id="boundary" inkscape:connector-curvature="0" />
	<path style="fill:none;stroke:red;stroke-width:1px;stroke-linecap:butt;stroke-linejoin:miter;stroke-opacity:1" d="M 940.165,162.199 945.749,180.811 z" id="boundary" inkscape:connector-curvature="0" />
	<path style="fill:none;stroke:red;stroke-width:1px;stroke-linecap:butt;stroke-linejoin:miter;stroke-opacity:1" d="M 964.36,177.088 945.749,180.811 z" id="boundary" inkscape:connector-curvature="0" />
	<path style="fill:none;stroke:red;stroke-width:1px;stroke-linecap:butt;stroke-linejoin:miter;stroke-opacity:1" d="M 964.36,177.088 977.388,191.977 z" id="boundary" inkscape:connector-curvature="0" />
	<path style="fill:none;stroke:red;stroke-width:1px;stroke-linecap:butt;stroke-linejoin:miter;stroke-opacity:1" d="M 992.278,205.006 977.388,191.977 z" id="boundary" inkscape:connector-curvature="0" />
	<path style="fill:none;stroke:red;stroke-width:1px;stroke-linecap:butt;stroke-linejoin:miter;stroke-opacity:1" d="M 510.236,285.036 493.486,275.73 z" id="boundary" inkscape:connector-curvature="0" />
	<path style="fill:none;stroke:red;stroke-width:1px;stroke-linecap:butt;stroke-linejoin:miter;stroke-opacity:1" d="M 526.987,275.73 510.236,285.036 z" id="boundary" inkscape:connector-curvature="0" />
	<path style="fill:none;stroke:red;stroke-width:1px;stroke-linecap:butt;stroke-linejoin:miter;stroke-opacity:1" d="M 562.349,279.452 580.961,279.452 z" id="boundary" inkscape:connector-curvature="0" />
	<path style="fill:none;stroke:red;stroke-width:1px;stroke-linecap:butt;stroke-linejoin:miter;stroke-opacity:1" d="M 580.961,279.452 599.572,285.036 z" id="boundary" inkscape:connector-curvature="0" />
	<path style="fill:none;stroke:red;stroke-width:1px;stroke-linecap:butt;stroke-linejoin:miter;stroke-opacity:1" d="M 543.737,285.036 526.987,275.73 z" id="boundary" inkscape:connector-curvature="0" />
	<path style="fill:none;stroke:red;stroke-width:1px;stroke-linecap:butt;stroke-linejoin:miter;stroke-opacity:1" d="M 562.349,279.452 543.737,285.036 z" id="boundary" inkscape:connector-curvature="0" />
	<path style="fill:none;stroke:red;stroke-width:1px;stroke-linecap:butt;stroke-linejoin:miter;stroke-opacity:1" d="M 634.934,275.73 616.323,275.73 z" id="boundary" inkscape:connector-curvature="0" />
	<path style="fill:none;stroke:red;stroke-width:1px;stroke-linecap:butt;stroke-linejoin:miter;stroke-opacity:1" d="M 634.934,275.73 651.685,285.036 z" id="boundary" inkscape:connector-curvature="0" />
	<path style="fill:none;stroke:red;stroke-width:1px;stroke-linecap:butt;stroke-linejoin:miter;stroke-opacity:1" d="M 707.52,273.869 688.908,275.73 z" id="boundary" inkscape:connector-curvature="0" />
	<path style="fill:none;stroke:red;stroke-width:1px;stroke-linecap:butt;stroke-linejoin:miter;stroke-opacity:1" d="M 670.296,283.174 688.908,275.73 z" id="boundary" inkscape:connector-curvature="0" />
	<path style="fill:none;stroke:red;stroke-width:1px;stroke-linecap:butt;stroke-linejoin:miter;stroke-opacity:1" d="M 616.323,275.73 599.572,285.036 z" id="boundary" inkscape:connector-curvature="0" />
	<path style="fill:none;stroke:red;stroke-width:1px;stroke-linecap:butt;stroke-linejoin:miter;stroke-opacity:1" d="M 458.124,290.619 476.735,285.036 z" id="boundary" inkscape:connector-curvature="0" />
	<path style="fill:none;stroke:red;stroke-width:1px;stroke-linecap:butt;stroke-linejoin:miter;stroke-opacity:1" d="M 476.735,285.036 493.486,275.73 z" id="boundary" inkscape:connector-curvature="0" />
	<path style="fill:none;stroke:red;stroke-width:1px;stroke-linecap:butt;stroke-linejoin:miter;stroke-opacity:1" d="M 458.124,290.619 439.512,294.341 z" id="boundary" inkscape:connector-curvature="0" />
	<path style="fill:none;stroke:red;stroke-width:1px;stroke-linecap:butt;stroke-linejoin:miter;stroke-opacity:1" d="M 651.685,285.036 670.296,283.174 z" id="boundary" inkscape:connector-curvature="0" />
	<path style="fill:none;stroke:red;stroke-width:1px;stroke-linecap:butt;stroke-linejoin:miter;stroke-opacity:1" d="M 835.94,253.396 854.552,247.812 z" id="boundary" inkscape:connector-curvature="0" />
	<path style="fill:none;stroke:red;stroke-width:1px;stroke-linecap:butt;stroke-linejoin:miter;stroke-opacity:1" d="M 854.552,247.812 873.163,253.396 z" id="boundary" inkscape:connector-curvature="0" />
	<path style="fill:none;stroke:red;stroke-width:1px;stroke-linecap:butt;stroke-linejoin:miter;stroke-opacity:1" d="M 925.276,257.118 908.525,247.812 z" id="boundary" inkscape:connector-curvature="0" />
	<path style="fill:none;stroke:red;stroke-width:1px;stroke-linecap:butt;stroke-linejoin:miter;stroke-opacity:1" d="M 943.887,251.535 925.276,257.118 z" id="boundary" inkscape:connector-curvature="0" />
	<path style="fill:none;stroke:red;stroke-width:1px;stroke-linecap:butt;stroke-linejoin:miter;stroke-opacity:1" d="M 992.278,205.006 996,227.34 z" id="boundary" inkscape:connector-curvature="0" />
	<path style="fill:none;stroke:red;stroke-width:1px;stroke-linecap:butt;stroke-linejoin:miter;stroke-opacity:1" d="M 996,227.34 981.111,242.229 z" id="boundary" inkscape:connector-curvature="0" />
	<path style="fill:none;stroke:red;stroke-width:1px;stroke-linecap:butt;stroke-linejoin:miter;stroke-opacity:1" d="M 962.499,242.229 981.111,242.229 z" id="boundary" inkscape:connector-curvature="0" />
	<path style="fill:none;stroke:red;stroke-width:1px;stroke-linecap:butt;stroke-linejoin:miter;stroke-opacity:1" d="M 943.887,251.535 962.499,242.229 z" id="boundary" inkscape:connector-curvature="0" />
	<path style="fill:none;stroke:red;stroke-width:1px;stroke-linecap:butt;stroke-linejoin:miter;stroke-opacity:1" d="M 835.94,253.396 817.328,257.118 z" id="boundary" inkscape:connector-curvature="0" />
	<path style="fill:none;stroke:red;stroke-width:1px;stroke-linecap:butt;stroke-linejoin:miter;stroke-opacity:1" d="M 744.743,266.424 726.131,266.424 z" id="boundary" inkscape:connector-curvature="0" />
	<path style="fill:none;stroke:red;stroke-width:1px;stroke-linecap:butt;stroke-linejoin:miter;stroke-opacity:1" d="M 726.131,266.424 707.52,273.869 z" id="boundary" inkscape:connector-curvature="0" />
	<path style="fill:none;stroke:red;stroke-width:1px;stroke-linecap:butt;stroke-linejoin:miter;stroke-opacity:1" d="M 744.743,266.424 763.355,266.424 z" id="boundary" inkscape:connector-curvature="0" />
	<path style="fill:none;stroke:red;stroke-width:1px;stroke-linecap:butt;stroke-linejoin:miter;stroke-opacity:1" d="M 780.105,257.118 763.355,266.424 z" id="boundary" inkscape:connector-curvature="0" />
	<path style="fill:none;stroke:red;stroke-width:1px;stroke-linecap:butt;stroke-linejoin:miter;stroke-opacity:1" d="M 780.105,257.118 798.717,257.118 z" id="boundary" inkscape:connector-curvature="0" />
	<path style="fill:none;stroke:red;stroke-width:1px;stroke-linecap:butt;stroke-linejoin:miter;stroke-opacity:1" d="M 817.328,257.118 798.717,257.118 z" id="boundary" inkscape:connector-curvature="0" />
	<path style="fill:none;stroke:red;stroke-width:1px;stroke-linecap:butt;stroke-linejoin:miter;stroke-opacity:1" d="M 873.163,253.396 891.775,257.118 z" id="boundary" inkscape:connector-curvature="0" />
	<path style="fill:none;stroke:red;stroke-width:1px;stroke-linecap:butt;stroke-linejoin:miter;stroke-opacity:1" d="M 908.525,247.812 891.775,257.118 z" id="boundary" inkscape:connector-curvature="0" />
	<circle cx="4" cy="177.088" r="4" fill="#0" id="circle0"/>
	<circle cx="4" cy="195.7" r="4" fill="#0" id="circle1"/>
	<circle cx="4" cy="214.311" r="4" fill="#0" id="circle2"/>
	<circle cx="4" cy="232.923" r="4" fill="#0" id="circle3"/>
	<circle cx="4" cy="260.841" r="4" fill="#0" id="circle4"/>
	<circle cx="18.8893" cy="162.199" r="4" fill="#0" id="circle5"/>
	<circle cx="18.8893" cy="273.869" r="4" fill="#0" id="circle6"/>
	<circle cx="22.6116" cy="130.559" r="4" fill="#0" id="circle7"/>
	<circle cx="22.6116" cy="292.48" r="4" fill="#0" id="circle8"/>
	<circle cx="31.9174" cy="111.947" r="4" fill="#0" id="circle9"/>
	<circle cx="31.9174" cy="309.231" r="4" fill="#0" id="circle10"/>
	<circle cx="33.7786" cy="327.842" r="4" fill="#0" id="circle11"/>
	<circle cx="43.0844" cy="344.593" r="4" fill="#0" id="circle12"/>
	<circle cx="46.8068" cy="97.0582" r="4" fill="#0" id="circle13"/>
	<circle cx="56.1126" cy="359.482" r="4" fill="#0" id="circle14"/>
	<circle cx="61.6961" cy="82.1689" r="4" fill="#0" id="circle15"/>
	<circle cx="71.0019" cy="372.51" r="4" fill="#0" id="circle16"/>
	<circle cx="76.5854" cy="69.1407" r="4" fill="#0" id="circle17"/>
	<circle cx="84.03" cy="387.4" r="4" fill="#0" id="circle18"/>
	<circle cx="93.3358" cy="59.8349" r="4" fill="#0" id="circle19"/>
	<circle cx="98.9193" cy="400.428" r="4" fill="#0" id="circle20"/>
	<circle cx="108.225" cy="44.9456" r="4" fill="#0" id="circle21"/>
	<circle cx="115.67" cy="409.734" r="4" fill="#0" id="circle22"/>
	<circle cx="123.114" cy="31.9174" r="4" fill="#0" id="circle23"/>
	<circle cx="134.281" cy="415.317" r="4" fill="#0" id="circle24"/>
	<circle cx="141.726" cy="31.9174" r="4" fill="#0" id="circle25"/>
	<circle cx="151.032" cy="424.623" r="4" fill="#0" id="circle26"/>
	<circle cx="158.477" cy="22.6116" r="4" fill="#0" id="circle27"/>
	<circle cx="167.782" cy="433.929" r="4" fill="#0" id="circle28"/>
	<circle cx="177.088" cy="13.3058" r="4" fill="#0" id="circle29"/>
	<circle cx="186.394" cy="441.373" r="4" fill="#0" id="circle30"/>
	<circle cx="195.7" cy="4" r="4" fill="#0" id="circle31"/>
	<circle cx="205.006" cy="443.235" r="4" fill="#0" id="circle32"/>
	<circle cx="212.45" cy="13.3058" r="4" fill="#0" id="circle33"/>
	<circle cx="223.617" cy="443.235" r="4" fill="#0" id="circle34"/>
	<circle cx="229.201" cy="4" r="4" fill="#0" id="circle35"/>
	<circle cx="242.229" cy="443.235" r="4" fill="#0" id="circle36"/>
	<circle cx="247.812" cy="4" r="4" fill="#0" id="circle37"/>
	<circle cx="260.841" cy="443.235" r="4" fill="#0" id="circle38"/>
	<circle cx="266.424" cy="4" r="4" fill="#0" id="circle39"/>
	<circle cx="279.452" cy="443.235" r="4" fill="#0" id="circle40"/>
	<circle cx="285.036" cy="4" r="4" fill="#0" id="circle41"/>
	<circle cx="298.064" cy="443.235" r="4" fill="#0" id="circle42"/>
	<circle cx="303.647" cy="4" r="4" fill="#0" id="circle43"/>
	<circle cx="316.675" cy="443.235" r="4" fill="#0" id="circle44"/>
	<circle cx="322.259" cy="9.58349" r="4" fill="#0" id="circle45"/>
	<circle cx="333.426" cy="433.929" r="4" fill="#0" id="circle46"/>
	<circle cx="340.871" cy="13.3058" r="4" fill="#0" id="circle47"/>
	<circle cx="350.176" cy="424.623" r="4" fill="#0" id="circle48"/>
	<circle cx="355.76" cy="24.4728" r="4" fill="#0" id="circle49"/>
	<circle cx="365.066" cy="411.595" r="4" fill="#0" id="circle50"/>
	<circle cx="368.788" cy="39.3621" r="4" fill="#0" id="circle51"/>
	<circle cx="378.094" cy="396.705" r="4" fill="#0" id="circle52"/>
	<circle cx="383.677" cy="52.3902" r="4" fill="#0" id="circle53"/>
	<circle cx="387.4" cy="71.0019" r="4" fill="#0" id="circle54"/>
	<circle cx="387.4" cy="378.094" r="4" fill="#0" id="circle55"/>
	<circle cx="396.705" cy="87.7523" r="4" fill="#0" id="circle56"/>
	<circle cx="396.705" cy="359.482" r="4" fill="#0" id="circle57"/>
	<circle cx="406.011" cy="104.503" r="4" fill="#0" id="circle58"/>
	<circle cx="406.011" cy="123.114" r="4" fill="#0" id="circle59"/>
	<circle cx="406.011" cy="294.341" r="4" fill="#0" id="circle60"/>
	<circle cx="406.011" cy="312.953" r="4" fill="#0" id="circle61"/>
	<circle cx="406.011" cy="331.565" r="4" fill="#0" id="circle62"/>
	<circle cx="415.317" cy="139.865" r="4" fill="#0" id="circle63"/>
	<circle cx="422.762" cy="285.036" r="4" fill="#0" id="circle64"/>
	<circle cx="433.929" cy="143.587" r="4" fill="#0" id="circle65"/>
	<circle cx="439.512" cy="294.341" r="4" fill="#0" id="circle66"/>
	<circle cx="448.818" cy="154.754" r="4" fill="#0" id="circle67"/>
	<circle cx="458.124" cy="290.619" r="4" fill="#0" id="circle68"/>
	<circle cx="461.846" cy="169.644" r="4" fill="#0" id="circle69"/>
	<circle cx="476.735" cy="285.036" r="4" fill="#0" id="circle70"/>
	<circle cx="478.597" cy="158.477" r="4" fill="#0" id="circle71"/>
	<circle cx="493.486" cy="275.73" r="4" fill="#0" id="circle72"/>
	<circle cx="497.208" cy="158.477" r="4" fill="#0" id="circle73"/>
	<circle cx="510.236" cy="285.036" r="4" fill="#0" id="circle74"/>
	<circle cx="515.82" cy="152.893" r="4" fill="#0" id="circle75"/>
	<circle cx="526.987" cy="275.73" r="4" fill="#0" id="circle76"/>
	<circle cx="534.432" cy="152.893" r="4" fill="#0" id="circle77"/>
	<circle cx="543.737" cy="285.036" r="4" fill="#0" id="circle78"/>
	<circle cx="553.043" cy="152.893" r="4" fill="#0" id="circle79"/>
	<circle cx="562.349" cy="279.452" r="4" fill="#0" id="circle80"/>
	<circle cx="571.655" cy="152.893" r="4" fill="#0" id="circle81"/>
	<circle cx="580.961" cy="279.452" r="4" fill="#0" id="circle82"/>
	<circle cx="590.266" cy="152.893" r="4" fill="#0" id="circle83"/>
	<circle cx="599.572" cy="285.036" r="4" fill="#0" id="circle84"/>
	<circle cx="608.878" cy="152.893" r="4" fill="#0" id="circle85"/>
	<circle cx="616.323" cy="275.73" r="4" fill="#0" id="circle86"/>
	<circle cx="627.49" cy="152.893" r="4" fill="#0" id="circle87"/>
	<circle cx="634.934" cy="275.73" r="4" fill="#0" id="circle88"/>
	<circle cx="646.101" cy="156.615" r="4" fill="#0" id="circle89"/>
	<circle cx="651.685" cy="285.036" r="4" fill="#0" id="circle90"/>
	<circle cx="664.713" cy="162.199" r="4" fill="#0" id="circle91"/>
	<circle cx="670.296" cy="283.174" r="4" fill="#0" id="circle92"/>
	<circle cx="683.325" cy="156.615" r="4" fill="#0" id="circle93"/>
	<circle cx="688.908" cy="275.73" r="4" fill="#0" id="circle94"/>
	<circle cx="701.936" cy="156.615" r="4" fill="#0" id="circle95"/>
	<circle cx="707.52" cy="273.869" r="4" fill="#0" id="circle96"/>
	<circle cx="720.548" cy="162.199" r="4" fill="#0" id="circle97"/>
	<circle cx="726.131" cy="266.424" r="4" fill="#0" id="circle98"/>
	<circle cx="739.159" cy="165.921" r="4" fill="#0" id="circle99"/>
	<circle cx="744.743" cy="266.424" r="4" fill="#0" id="circle100"/>
	<circle cx="757.771" cy="165.921" r="4" fill="#0" id="circle101"/>
	<circle cx="763.355" cy="266.424" r="4" fill="#0" id="circle102"/>
	<circle cx="776.383" cy="165.921" r="4" fill="#0" id="circle103"/>
	<circle cx="780.105" cy="257.118" r="4" fill="#0" id="circle104"/>
	<circle cx="794.994" cy="171.505" r="4" fill="#0" id="circle105"/>
	<circle cx="798.717" cy="257.118" r="4" fill="#0" id="circle106"/>
	<circle cx="813.606" cy="171.505" r="4" fill="#0" id="circle107"/>
	<circle cx="817.328" cy="257.118" r="4" fill="#0" id="circle108"/>
	<circle cx="832.218" cy="171.505" r="4" fill="#0" id="circle109"/>
	<circle cx="835.94" cy="253.396" r="4" fill="#0" id="circle110"/>
	<circle cx="848.968" cy="180.811" r="4" fill="#0" id="circle111"/>
	<circle cx="854.552" cy="247.812" r="4" fill="#0" id="circle112"/>
	<circle cx="867.58" cy="180.811" r="4" fill="#0" id="circle113"/>
	<circle cx="873.163" cy="253.396" r="4" fill="#0" id="circle114"/>
	<circle cx="886.191" cy="180.811" r="4" fill="#0" id="circle115"/>
	<circle cx="891.775" cy="257.118" r="4" fill="#0" id="circle116"/>
	<circle cx="904.803" cy="180.811" r="4" fill="#0" id="circle117"/>
	<circle cx="908.525" cy="247.812" r="4" fill="#0" id="circle118"/>
	<circle cx="921.553" cy="171.505" r="4" fill="#0" id="circle119"/>
	<circle cx="925.276" cy="257.118" r="4" fill="#0" id="circle120"/>
	<circle cx="940.165" cy="162.199" r="4" fill="#0" id="circle121"/>
	<circle cx="943.887" cy="251.535" r="4" fill="#0" id="circle122"/>
	<circle cx="945.749" cy="180.811" r="4" fill="#0" id="circle123"/>
	<circle cx="962.499" cy="242.229" r="4" fill="#0" id="circle124"/>
	<circle cx="964.36" cy="177.088" r="4" fill="#0" id="circle125"/>
	<circle cx="977.388" cy="191.977" r="4" fill="#0" id="circle126"/>
	<circle cx="981.111" cy="242.229" r="4" fill="#0" id="circle127"/>
	<circle cx="992.278" cy="205.006" r="4" fill="#0" id="circle128"/>
	<circle cx="996" cy="227.34" r="4" fill="#0" id="circle129"/>
	</g>
</svg>