<?xml version="1.0" encoding="UTF-8" standalone="no"?>
<!-- Created with CurveBenchmark -->
<svg
	xmlns:dc="http://purl.org/dc/elements/1.1/"
	xmlns:cc="http://creativecommons.org/ns#"
	xmlns:rdf="http://www.w3.org/1999/02/22-rdf-syntax-ns#"
	xmlns:svg="http://www.w3.org/2000/svg"
	xmlns="http://www.w3.org/2000/svg"
	xmlns:sodipodi="http://sodipodi.sourceforge.net/DTD/sodipodi-0.dtd"
	xmlns:inkscape="http://www.inkscape.org/namespaces/inkscape"
	width="1000"
	height="1000"
	id="svg2"
	version="1.1"
	sodipodi:docname="manifold/ccrust-mullets.png.txt">
<defs
	id="defs4" />
<metadata
	id="metadata7">
	<rdf:RDF>
		<cc:Work
			rdf:about="">
			<dc:format>image/svg+xml</dc:format>
			<dc:type
				rdf:resource="http://purl.org/dc/dcmitype/StillImage" />
			<dc:title></dc:title>
		</cc:Work>
	</rdf:RDF>
</metadata>
<g
	inkscape:label="Layer 1"
	inkscape:groupmode="layer"
	id="layer1">
	<path style="fill:none;stroke:red;stroke-width:1px;stroke-linecap:butt;stroke-linejoin:miter;stroke-opacity:1" d="M 47.7088,4 66.7126,4 z" id="boundary" inkscape:connector-curvature="0" />
	<path style="fill:none;stroke:red;stroke-width:1px;stroke-linecap:butt;stroke-linejoin:miter;stroke-opacity:1" d="M 28.705,13.5019 47.7088,4 z" id="boundary" inkscape:connector-curvature="0" />
	<path style="fill:none;stroke:red;stroke-width:1px;stroke-linecap:butt;stroke-linejoin:miter;stroke-opacity:1" d="M 13.5019,28.705 28.705,13.5019 z" id="boundary" inkscape:connector-curvature="0" />
	<path style="fill:none;stroke:red;stroke-width:1px;stroke-linecap:butt;stroke-linejoin:miter;stroke-opacity:1" d="M 85.7165,4 102.82,13.5019 z" id="boundary" inkscape:connector-curvature="0" />
	<path style="fill:none;stroke:red;stroke-width:1px;stroke-linecap:butt;stroke-linejoin:miter;stroke-opacity:1" d="M 66.7126,4 85.7165,4 z" id="boundary" inkscape:connector-curvature="0" />
	<path style="fill:none;stroke:red;stroke-width:1px;stroke-linecap:butt;stroke-linejoin:miter;stroke-opacity:1" d="M 121.824,13.5019 102.82,13.5019 z" id="boundary" inkscape:connector-curvature="0" />
	<path style="fill:none;stroke:red;stroke-width:1px;stroke-linecap:butt;stroke-linejoin:miter;stroke-opacity:1" d="M 121.824,13.5019 138.927,23.0038 z" id="boundary" inkscape:connector-curvature="0" />
	<path style="fill:none;stroke:red;stroke-width:1px;stroke-linecap:butt;stroke-linejoin:miter;stroke-opacity:1" d="M 156.031,32.5057 138.927,23.0038 z" id="boundary" inkscape:connector-curvature="0" />
	<path style="fill:none;stroke:red;stroke-width:1px;stroke-linecap:butt;stroke-linejoin:miter;stroke-opacity:1" d="M 173.134,42.0077 156.031,32.5057 z" id="boundary" inkscape:connector-curvature="0" />
	<path style="fill:none;stroke:red;stroke-width:1px;stroke-linecap:butt;stroke-linejoin:miter;stroke-opacity:1" d="M 4,66.7126 4,47.7088 z" id="boundary" inkscape:connector-curvature="0" />
	<path style="fill:none;stroke:red;stroke-width:1px;stroke-linecap:butt;stroke-linejoin:miter;stroke-opacity:1" d="M 19.2031,80.0153 4,66.7126 z" id="boundary" inkscape:connector-curvature="0" />
	<path style="fill:none;stroke:red;stroke-width:1px;stroke-linecap:butt;stroke-linejoin:miter;stroke-opacity:1" d="M 42.0077,110.421 26.8046,99.0192 z" id="boundary" inkscape:connector-curvature="0" />
	<path style="fill:none;stroke:red;stroke-width:1px;stroke-linecap:butt;stroke-linejoin:miter;stroke-opacity:1" d="M 26.8046,99.0192 19.2031,80.0153 z" id="boundary" inkscape:connector-curvature="0" />
	<path style="fill:none;stroke:red;stroke-width:1px;stroke-linecap:butt;stroke-linejoin:miter;stroke-opacity:1" d="M 42.0077,110.421 47.7088,129.425 z" id="boundary" inkscape:connector-curvature="0" />
	<path style="fill:none;stroke:red;stroke-width:1px;stroke-linecap:butt;stroke-linejoin:miter;stroke-opacity:1" d="M 4,47.7088 13.5019,28.705 z" id="boundary" inkscape:connector-curvature="0" />
	<path style="fill:none;stroke:red;stroke-width:1px;stroke-linecap:butt;stroke-linejoin:miter;stroke-opacity:1" d="M 62.9119,142.728 47.7088,129.425 z" id="boundary" inkscape:connector-curvature="0" />
	<path style="fill:none;stroke:red;stroke-width:1px;stroke-linecap:butt;stroke-linejoin:miter;stroke-opacity:1" d="M 62.9119,142.728 76.2146,157.931 z" id="boundary" inkscape:connector-curvature="0" />
	<path style="fill:none;stroke:red;stroke-width:1px;stroke-linecap:butt;stroke-linejoin:miter;stroke-opacity:1" d="M 89.5172,173.134 76.2146,157.931 z" id="boundary" inkscape:connector-curvature="0" />
	<path style="fill:none;stroke:red;stroke-width:1px;stroke-linecap:butt;stroke-linejoin:miter;stroke-opacity:1" d="M 173.134,42.0077 190.238,51.5096 z" id="boundary" inkscape:connector-curvature="0" />
	<path style="fill:none;stroke:red;stroke-width:1px;stroke-linecap:butt;stroke-linejoin:miter;stroke-opacity:1" d="M 89.5172,173.134 99.0192,190.238 z" id="boundary" inkscape:connector-curvature="0" />
	<path style="fill:none;stroke:red;stroke-width:1px;stroke-linecap:butt;stroke-linejoin:miter;stroke-opacity:1" d="M 207.341,61.0115 190.238,51.5096 z" id="boundary" inkscape:connector-curvature="0" />
	<path style="fill:none;stroke:red;stroke-width:1px;stroke-linecap:butt;stroke-linejoin:miter;stroke-opacity:1" d="M 224.444,70.5134 243.448,76.2146 z" id="boundary" inkscape:connector-curvature="0" />
	<path style="fill:none;stroke:red;stroke-width:1px;stroke-linecap:butt;stroke-linejoin:miter;stroke-opacity:1" d="M 243.448,76.2146 260.552,85.7165 z" id="boundary" inkscape:connector-curvature="0" />
	<path style="fill:none;stroke:red;stroke-width:1px;stroke-linecap:butt;stroke-linejoin:miter;stroke-opacity:1" d="M 224.444,70.5134 207.341,61.0115 z" id="boundary" inkscape:connector-curvature="0" />
	<path style="fill:none;stroke:red;stroke-width:1px;stroke-linecap:butt;stroke-linejoin:miter;stroke-opacity:1" d="M 260.552,85.7165 275.755,99.0192 z" id="boundary" inkscape:connector-curvature="0" />
	<path style="fill:none;stroke:red;stroke-width:1px;stroke-linecap:butt;stroke-linejoin:miter;stroke-opacity:1" d="M 275.755,99.0192 292.858,108.521 z" id="boundary" inkscape:connector-curvature="0" />
	<path style="fill:none;stroke:red;stroke-width:1px;stroke-linecap:butt;stroke-linejoin:miter;stroke-opacity:1" d="M 327.065,127.525 309.962,118.023 z" id="boundary" inkscape:connector-curvature="0" />
	<path style="fill:none;stroke:red;stroke-width:1px;stroke-linecap:butt;stroke-linejoin:miter;stroke-opacity:1" d="M 309.962,118.023 292.858,108.521 z" id="boundary" inkscape:connector-curvature="0" />
	<path style="fill:none;stroke:red;stroke-width:1px;stroke-linecap:butt;stroke-linejoin:miter;stroke-opacity:1" d="M 517.103,133.226 498.1,142.728 z" id="boundary" inkscape:connector-curvature="0" />
	<path style="fill:none;stroke:red;stroke-width:1px;stroke-linecap:butt;stroke-linejoin:miter;stroke-opacity:1" d="M 536.107,131.326 517.103,133.226 z" id="boundary" inkscape:connector-curvature="0" />
	<path style="fill:none;stroke:red;stroke-width:1px;stroke-linecap:butt;stroke-linejoin:miter;stroke-opacity:1" d="M 342.268,138.927 361.272,146.529 z" id="boundary" inkscape:connector-curvature="0" />
	<path style="fill:none;stroke:red;stroke-width:1px;stroke-linecap:butt;stroke-linejoin:miter;stroke-opacity:1" d="M 342.268,138.927 327.065,127.525 z" id="boundary" inkscape:connector-curvature="0" />
	<path style="fill:none;stroke:red;stroke-width:1px;stroke-linecap:butt;stroke-linejoin:miter;stroke-opacity:1" d="M 378.375,156.031 395.479,165.533 z" id="boundary" inkscape:connector-curvature="0" />
	<path style="fill:none;stroke:red;stroke-width:1px;stroke-linecap:butt;stroke-linejoin:miter;stroke-opacity:1" d="M 410.682,176.935 395.479,165.533 z" id="boundary" inkscape:connector-curvature="0" />
	<path style="fill:none;stroke:red;stroke-width:1px;stroke-linecap:butt;stroke-linejoin:miter;stroke-opacity:1" d="M 361.272,146.529 378.375,156.031 z" id="boundary" inkscape:connector-curvature="0" />
	<path style="fill:none;stroke:red;stroke-width:1px;stroke-linecap:butt;stroke-linejoin:miter;stroke-opacity:1" d="M 534.207,230.146 519.004,243.448 z" id="boundary" inkscape:connector-curvature="0" />
	<path style="fill:none;stroke:red;stroke-width:1px;stroke-linecap:butt;stroke-linejoin:miter;stroke-opacity:1" d="M 498.1,142.728 479.096,152.23 z" id="boundary" inkscape:connector-curvature="0" />
	<path style="fill:none;stroke:red;stroke-width:1px;stroke-linecap:butt;stroke-linejoin:miter;stroke-opacity:1" d="M 429.686,184.536 446.789,175.034 z" id="boundary" inkscape:connector-curvature="0" />
	<path style="fill:none;stroke:red;stroke-width:1px;stroke-linecap:butt;stroke-linejoin:miter;stroke-opacity:1" d="M 429.686,184.536 410.682,176.935 z" id="boundary" inkscape:connector-curvature="0" />
	<path style="fill:none;stroke:red;stroke-width:1px;stroke-linecap:butt;stroke-linejoin:miter;stroke-opacity:1" d="M 463.893,165.533 446.789,175.034 z" id="boundary" inkscape:connector-curvature="0" />
	<path style="fill:none;stroke:red;stroke-width:1px;stroke-linecap:butt;stroke-linejoin:miter;stroke-opacity:1" d="M 463.893,165.533 479.096,152.23 z" id="boundary" inkscape:connector-curvature="0" />
	<path style="fill:none;stroke:red;stroke-width:1px;stroke-linecap:butt;stroke-linejoin:miter;stroke-opacity:1" d="M 99.0192,190.238 114.222,203.54 z" id="boundary" inkscape:connector-curvature="0" />
	<path style="fill:none;stroke:red;stroke-width:1px;stroke-linecap:butt;stroke-linejoin:miter;stroke-opacity:1" d="M 114.222,203.54 127.525,218.743 z" id="boundary" inkscape:connector-curvature="0" />
	<path style="fill:none;stroke:red;stroke-width:1px;stroke-linecap:butt;stroke-linejoin:miter;stroke-opacity:1" d="M 127.525,218.743 142.728,232.046 z" id="boundary" inkscape:connector-curvature="0" />
	<path style="fill:none;stroke:red;stroke-width:1px;stroke-linecap:butt;stroke-linejoin:miter;stroke-opacity:1" d="M 142.728,232.046 156.031,247.249 z" id="boundary" inkscape:connector-curvature="0" />
	<path style="fill:none;stroke:red;stroke-width:1px;stroke-linecap:butt;stroke-linejoin:miter;stroke-opacity:1" d="M 171.234,260.552 156.031,247.249 z" id="boundary" inkscape:connector-curvature="0" />
	<path style="fill:none;stroke:red;stroke-width:1px;stroke-linecap:butt;stroke-linejoin:miter;stroke-opacity:1" d="M 171.234,260.552 184.536,275.755 z" id="boundary" inkscape:connector-curvature="0" />
	<path style="fill:none;stroke:red;stroke-width:1px;stroke-linecap:butt;stroke-linejoin:miter;stroke-opacity:1" d="M 184.536,275.755 194.038,304.261 z" id="boundary" inkscape:connector-curvature="0" />
	<path style="fill:none;stroke:red;stroke-width:1px;stroke-linecap:butt;stroke-linejoin:miter;stroke-opacity:1" d="M 194.038,304.261 194.038,323.264 z" id="boundary" inkscape:connector-curvature="0" />
	<path style="fill:none;stroke:red;stroke-width:1px;stroke-linecap:butt;stroke-linejoin:miter;stroke-opacity:1" d="M 194.038,342.268 194.038,323.264 z" id="boundary" inkscape:connector-curvature="0" />
	<path style="fill:none;stroke:red;stroke-width:1px;stroke-linecap:butt;stroke-linejoin:miter;stroke-opacity:1" d="M 194.038,342.268 194.038,361.272 z" id="boundary" inkscape:connector-curvature="0" />
	<path style="fill:none;stroke:red;stroke-width:1px;stroke-linecap:butt;stroke-linejoin:miter;stroke-opacity:1" d="M 194.038,361.272 194.038,380.276 z" id="boundary" inkscape:connector-curvature="0" />
	<path style="fill:none;stroke:red;stroke-width:1px;stroke-linecap:butt;stroke-linejoin:miter;stroke-opacity:1" d="M 194.038,399.28 194.038,380.276 z" id="boundary" inkscape:connector-curvature="0" />
	<path style="fill:none;stroke:red;stroke-width:1px;stroke-linecap:butt;stroke-linejoin:miter;stroke-opacity:1" d="M 194.038,399.28 203.54,416.383 z" id="boundary" inkscape:connector-curvature="0" />
	<path style="fill:none;stroke:red;stroke-width:1px;stroke-linecap:butt;stroke-linejoin:miter;stroke-opacity:1" d="M 232.046,437.287 213.042,433.487 z" id="boundary" inkscape:connector-curvature="0" />
	<path style="fill:none;stroke:red;stroke-width:1px;stroke-linecap:butt;stroke-linejoin:miter;stroke-opacity:1" d="M 213.042,433.487 203.54,416.383 z" id="boundary" inkscape:connector-curvature="0" />
	<path style="fill:none;stroke:red;stroke-width:1px;stroke-linecap:butt;stroke-linejoin:miter;stroke-opacity:1" d="M 271.954,376.475 260.552,408.782 z" id="boundary" inkscape:connector-curvature="0" />
	<path style="fill:none;stroke:red;stroke-width:1px;stroke-linecap:butt;stroke-linejoin:miter;stroke-opacity:1" d="M 251.05,427.785 232.046,437.287 z" id="boundary" inkscape:connector-curvature="0" />
	<path style="fill:none;stroke:red;stroke-width:1px;stroke-linecap:butt;stroke-linejoin:miter;stroke-opacity:1" d="M 260.552,408.782 251.05,427.785 z" id="boundary" inkscape:connector-curvature="0" />
	<path style="fill:none;stroke:red;stroke-width:1px;stroke-linecap:butt;stroke-linejoin:miter;stroke-opacity:1" d="M 289.057,366.973 300.46,382.176 z" id="boundary" inkscape:connector-curvature="0" />
	<path style="fill:none;stroke:red;stroke-width:1px;stroke-linecap:butt;stroke-linejoin:miter;stroke-opacity:1" d="M 332.766,404.981 347.969,418.284 z" id="boundary" inkscape:connector-curvature="0" />
	<path style="fill:none;stroke:red;stroke-width:1px;stroke-linecap:butt;stroke-linejoin:miter;stroke-opacity:1" d="M 332.766,404.981 315.663,395.479 z" id="boundary" inkscape:connector-curvature="0" />
	<path style="fill:none;stroke:red;stroke-width:1px;stroke-linecap:butt;stroke-linejoin:miter;stroke-opacity:1" d="M 315.663,395.479 300.46,382.176 z" id="boundary" inkscape:connector-curvature="0" />
	<path style="fill:none;stroke:red;stroke-width:1px;stroke-linecap:butt;stroke-linejoin:miter;stroke-opacity:1" d="M 347.969,418.284 361.272,433.487 z" id="boundary" inkscape:connector-curvature="0" />
	<path style="fill:none;stroke:red;stroke-width:1px;stroke-linecap:butt;stroke-linejoin:miter;stroke-opacity:1" d="M 528.506,260.552 519.004,243.448 z" id="boundary" inkscape:connector-curvature="0" />
	<path style="fill:none;stroke:red;stroke-width:1px;stroke-linecap:butt;stroke-linejoin:miter;stroke-opacity:1" d="M 361.272,433.487 380.276,441.088 z" id="boundary" inkscape:connector-curvature="0" />
	<path style="fill:none;stroke:red;stroke-width:1px;stroke-linecap:butt;stroke-linejoin:miter;stroke-opacity:1" d="M 380.276,441.088 395.479,452.49 z" id="boundary" inkscape:connector-curvature="0" />
	<path style="fill:none;stroke:red;stroke-width:1px;stroke-linecap:butt;stroke-linejoin:miter;stroke-opacity:1" d="M 412.582,461.992 395.479,452.49 z" id="boundary" inkscape:connector-curvature="0" />
	<path style="fill:none;stroke:red;stroke-width:1px;stroke-linecap:butt;stroke-linejoin:miter;stroke-opacity:1" d="M 412.582,461.992 429.686,471.494 z" id="boundary" inkscape:connector-curvature="0" />
	<path style="fill:none;stroke:red;stroke-width:1px;stroke-linecap:butt;stroke-linejoin:miter;stroke-opacity:1" d="M 446.789,480.996 465.793,488.598 z" id="boundary" inkscape:connector-curvature="0" />
	<path style="fill:none;stroke:red;stroke-width:1px;stroke-linecap:butt;stroke-linejoin:miter;stroke-opacity:1" d="M 465.793,488.598 469.594,507.602 z" id="boundary" inkscape:connector-curvature="0" />
	<path style="fill:none;stroke:red;stroke-width:1px;stroke-linecap:butt;stroke-linejoin:miter;stroke-opacity:1" d="M 446.789,480.996 429.686,471.494 z" id="boundary" inkscape:connector-curvature="0" />
	<path style="fill:none;stroke:red;stroke-width:1px;stroke-linecap:butt;stroke-linejoin:miter;stroke-opacity:1" d="M 469.594,507.602 473.395,526.605 z" id="boundary" inkscape:connector-curvature="0" />
	<path style="fill:none;stroke:red;stroke-width:1px;stroke-linecap:butt;stroke-linejoin:miter;stroke-opacity:1" d="M 473.395,526.605 482.897,543.709 z" id="boundary" inkscape:connector-curvature="0" />
	<path style="fill:none;stroke:red;stroke-width:1px;stroke-linecap:butt;stroke-linejoin:miter;stroke-opacity:1" d="M 482.897,543.709 490.498,562.713 z" id="boundary" inkscape:connector-curvature="0" />
	<path style="fill:none;stroke:red;stroke-width:1px;stroke-linecap:butt;stroke-linejoin:miter;stroke-opacity:1" d="M 490.498,562.713 505.701,576.015 z" id="boundary" inkscape:connector-curvature="0" />
	<path style="fill:none;stroke:red;stroke-width:1px;stroke-linecap:butt;stroke-linejoin:miter;stroke-opacity:1" d="M 505.701,576.015 513.303,595.019 z" id="boundary" inkscape:connector-curvature="0" />
	<path style="fill:none;stroke:red;stroke-width:1px;stroke-linecap:butt;stroke-linejoin:miter;stroke-opacity:1" d="M 513.303,595.019 530.406,604.521 z" id="boundary" inkscape:connector-curvature="0" />
	<path style="fill:none;stroke:red;stroke-width:1px;stroke-linecap:butt;stroke-linejoin:miter;stroke-opacity:1" d="M 543.709,150.33 536.107,131.326 z" id="boundary" inkscape:connector-curvature="0" />
	<path style="fill:none;stroke:red;stroke-width:1px;stroke-linecap:butt;stroke-linejoin:miter;stroke-opacity:1" d="M 557.011,165.533 543.709,150.33 z" id="boundary" inkscape:connector-curvature="0" />
	<path style="fill:none;stroke:red;stroke-width:1px;stroke-linecap:butt;stroke-linejoin:miter;stroke-opacity:1" d="M 534.207,230.146 543.709,211.142 z" id="boundary" inkscape:connector-curvature="0" />
	<path style="fill:none;stroke:red;stroke-width:1px;stroke-linecap:butt;stroke-linejoin:miter;stroke-opacity:1" d="M 553.211,192.138 543.709,211.142 z" id="boundary" inkscape:connector-curvature="0" />
	<path style="fill:none;stroke:red;stroke-width:1px;stroke-linecap:butt;stroke-linejoin:miter;stroke-opacity:1" d="M 553.211,192.138 557.011,165.533 z" id="boundary" inkscape:connector-curvature="0" />
	<path style="fill:none;stroke:red;stroke-width:1px;stroke-linecap:butt;stroke-linejoin:miter;stroke-opacity:1" d="M 557.011,287.157 543.709,271.954 z" id="boundary" inkscape:connector-curvature="0" />
	<path style="fill:none;stroke:red;stroke-width:1px;stroke-linecap:butt;stroke-linejoin:miter;stroke-opacity:1" d="M 661.533,298.559 642.529,302.36 z" id="boundary" inkscape:connector-curvature="0" />
	<path style="fill:none;stroke:red;stroke-width:1px;stroke-linecap:butt;stroke-linejoin:miter;stroke-opacity:1" d="M 557.011,287.157 572.215,300.46 z" id="boundary" inkscape:connector-curvature="0" />
	<path style="fill:none;stroke:red;stroke-width:1px;stroke-linecap:butt;stroke-linejoin:miter;stroke-opacity:1" d="M 680.536,298.559 661.533,298.559 z" id="boundary" inkscape:connector-curvature="0" />
	<path style="fill:none;stroke:red;stroke-width:1px;stroke-linecap:butt;stroke-linejoin:miter;stroke-opacity:1" d="M 718.544,308.061 699.54,304.261 z" id="boundary" inkscape:connector-curvature="0" />
	<path style="fill:none;stroke:red;stroke-width:1px;stroke-linecap:butt;stroke-linejoin:miter;stroke-opacity:1" d="M 528.506,260.552 543.709,271.954 z" id="boundary" inkscape:connector-curvature="0" />
	<path style="fill:none;stroke:red;stroke-width:1px;stroke-linecap:butt;stroke-linejoin:miter;stroke-opacity:1" d="M 623.525,308.061 604.521,311.862 z" id="boundary" inkscape:connector-curvature="0" />
	<path style="fill:none;stroke:red;stroke-width:1px;stroke-linecap:butt;stroke-linejoin:miter;stroke-opacity:1" d="M 604.521,311.862 585.517,315.663 z" id="boundary" inkscape:connector-curvature="0" />
	<path style="fill:none;stroke:red;stroke-width:1px;stroke-linecap:butt;stroke-linejoin:miter;stroke-opacity:1" d="M 585.517,315.663 572.215,300.46 z" id="boundary" inkscape:connector-curvature="0" />
	<path style="fill:none;stroke:red;stroke-width:1px;stroke-linecap:butt;stroke-linejoin:miter;stroke-opacity:1" d="M 623.525,308.061 642.529,302.36 z" id="boundary" inkscape:connector-curvature="0" />
	<path style="fill:none;stroke:red;stroke-width:1px;stroke-linecap:butt;stroke-linejoin:miter;stroke-opacity:1" d="M 728.046,465.793 712.843,452.49 z" id="boundary" inkscape:connector-curvature="0" />
	<path style="fill:none;stroke:red;stroke-width:1px;stroke-linecap:butt;stroke-linejoin:miter;stroke-opacity:1" d="M 712.843,452.49 709.042,433.487 z" id="boundary" inkscape:connector-curvature="0" />
	<path style="fill:none;stroke:red;stroke-width:1px;stroke-linecap:butt;stroke-linejoin:miter;stroke-opacity:1" d="M 680.536,298.559 699.54,304.261 z" id="boundary" inkscape:connector-curvature="0" />
	<path style="fill:none;stroke:red;stroke-width:1px;stroke-linecap:butt;stroke-linejoin:miter;stroke-opacity:1" d="M 650.13,547.51 633.027,538.008 z" id="boundary" inkscape:connector-curvature="0" />
	<path style="fill:none;stroke:red;stroke-width:1px;stroke-linecap:butt;stroke-linejoin:miter;stroke-opacity:1" d="M 633.027,538.008 615.923,547.51 z" id="boundary" inkscape:connector-curvature="0" />
	<path style="fill:none;stroke:red;stroke-width:1px;stroke-linecap:butt;stroke-linejoin:miter;stroke-opacity:1" d="M 728.046,338.467 718.544,357.471 z" id="boundary" inkscape:connector-curvature="0" />
	<path style="fill:none;stroke:red;stroke-width:1px;stroke-linecap:butt;stroke-linejoin:miter;stroke-opacity:1" d="M 718.544,376.475 718.544,395.479 z" id="boundary" inkscape:connector-curvature="0" />
	<path style="fill:none;stroke:red;stroke-width:1px;stroke-linecap:butt;stroke-linejoin:miter;stroke-opacity:1" d="M 777.456,498.1 760.352,488.598 z" id="boundary" inkscape:connector-curvature="0" />
	<path style="fill:none;stroke:red;stroke-width:1px;stroke-linecap:butt;stroke-linejoin:miter;stroke-opacity:1" d="M 718.544,395.479 718.544,414.483 z" id="boundary" inkscape:connector-curvature="0" />
	<path style="fill:none;stroke:red;stroke-width:1px;stroke-linecap:butt;stroke-linejoin:miter;stroke-opacity:1" d="M 718.544,414.483 709.042,433.487 z" id="boundary" inkscape:connector-curvature="0" />
	<path style="fill:none;stroke:red;stroke-width:1px;stroke-linecap:butt;stroke-linejoin:miter;stroke-opacity:1" d="M 718.544,376.475 718.544,357.471 z" id="boundary" inkscape:connector-curvature="0" />
	<path style="fill:none;stroke:red;stroke-width:1px;stroke-linecap:butt;stroke-linejoin:miter;stroke-opacity:1" d="M 737.548,313.762 728.046,338.467 z" id="boundary" inkscape:connector-curvature="0" />
	<path style="fill:none;stroke:red;stroke-width:1px;stroke-linecap:butt;stroke-linejoin:miter;stroke-opacity:1" d="M 718.544,308.061 737.548,313.762 z" id="boundary" inkscape:connector-curvature="0" />
	<path style="fill:none;stroke:red;stroke-width:1px;stroke-linecap:butt;stroke-linejoin:miter;stroke-opacity:1" d="M 760.352,488.598 741.349,480.996 z" id="boundary" inkscape:connector-curvature="0" />
	<path style="fill:none;stroke:red;stroke-width:1px;stroke-linecap:butt;stroke-linejoin:miter;stroke-opacity:1" d="M 741.349,480.996 728.046,465.793 z" id="boundary" inkscape:connector-curvature="0" />
	<path style="fill:none;stroke:red;stroke-width:1px;stroke-linecap:butt;stroke-linejoin:miter;stroke-opacity:1" d="M 794.559,507.602 777.456,498.1 z" id="boundary" inkscape:connector-curvature="0" />
	<path style="fill:none;stroke:red;stroke-width:1px;stroke-linecap:butt;stroke-linejoin:miter;stroke-opacity:1" d="M 813.563,507.602 794.559,507.602 z" id="boundary" inkscape:connector-curvature="0" />
	<path style="fill:none;stroke:red;stroke-width:1px;stroke-linecap:butt;stroke-linejoin:miter;stroke-opacity:1" d="M 813.563,507.602 832.567,507.602 z" id="boundary" inkscape:connector-curvature="0" />
	<path style="fill:none;stroke:red;stroke-width:1px;stroke-linecap:butt;stroke-linejoin:miter;stroke-opacity:1" d="M 832.567,507.602 851.571,513.303 z" id="boundary" inkscape:connector-curvature="0" />
	<path style="fill:none;stroke:red;stroke-width:1px;stroke-linecap:butt;stroke-linejoin:miter;stroke-opacity:1" d="M 870.575,517.103 889.579,517.103 z" id="boundary" inkscape:connector-curvature="0" />
	<path style="fill:none;stroke:red;stroke-width:1px;stroke-linecap:butt;stroke-linejoin:miter;stroke-opacity:1" d="M 889.579,517.103 906.682,526.605 z" id="boundary" inkscape:connector-curvature="0" />
	<path style="fill:none;stroke:red;stroke-width:1px;stroke-linecap:butt;stroke-linejoin:miter;stroke-opacity:1" d="M 870.575,517.103 851.571,513.303 z" id="boundary" inkscape:connector-curvature="0" />
	<path style="fill:none;stroke:red;stroke-width:1px;stroke-linecap:butt;stroke-linejoin:miter;stroke-opacity:1" d="M 906.682,526.605 925.686,526.605 z" id="boundary" inkscape:connector-curvature="0" />
	<path style="fill:none;stroke:red;stroke-width:1px;stroke-linecap:butt;stroke-linejoin:miter;stroke-opacity:1" d="M 925.686,526.605 942.789,536.107 z" id="boundary" inkscape:connector-curvature="0" />
	<path style="fill:none;stroke:red;stroke-width:1px;stroke-linecap:butt;stroke-linejoin:miter;stroke-opacity:1" d="M 579.816,564.613 598.82,557.011 z" id="boundary" inkscape:connector-curvature="0" />
	<path style="fill:none;stroke:red;stroke-width:1px;stroke-linecap:butt;stroke-linejoin:miter;stroke-opacity:1" d="M 545.609,589.318 560.812,574.115 z" id="boundary" inkscape:connector-curvature="0" />
	<path style="fill:none;stroke:red;stroke-width:1px;stroke-linecap:butt;stroke-linejoin:miter;stroke-opacity:1" d="M 560.812,574.115 579.816,564.613 z" id="boundary" inkscape:connector-curvature="0" />
	<path style="fill:none;stroke:red;stroke-width:1px;stroke-linecap:butt;stroke-linejoin:miter;stroke-opacity:1" d="M 598.82,557.011 615.923,547.51 z" id="boundary" inkscape:connector-curvature="0" />
	<path style="fill:none;stroke:red;stroke-width:1px;stroke-linecap:butt;stroke-linejoin:miter;stroke-opacity:1" d="M 667.234,557.011 680.536,572.215 z" id="boundary" inkscape:connector-curvature="0" />
	<path style="fill:none;stroke:red;stroke-width:1px;stroke-linecap:butt;stroke-linejoin:miter;stroke-opacity:1" d="M 667.234,557.011 650.13,547.51 z" id="boundary" inkscape:connector-curvature="0" />
	<path style="fill:none;stroke:red;stroke-width:1px;stroke-linecap:butt;stroke-linejoin:miter;stroke-opacity:1" d="M 709.042,600.72 695.739,585.517 z" id="boundary" inkscape:connector-curvature="0" />
	<path style="fill:none;stroke:red;stroke-width:1px;stroke-linecap:butt;stroke-linejoin:miter;stroke-opacity:1" d="M 680.536,572.215 695.739,585.517 z" id="boundary" inkscape:connector-curvature="0" />
	<path style="fill:none;stroke:red;stroke-width:1px;stroke-linecap:butt;stroke-linejoin:miter;stroke-opacity:1" d="M 709.042,600.72 718.544,617.824 z" id="boundary" inkscape:connector-curvature="0" />
	<path style="fill:none;stroke:red;stroke-width:1px;stroke-linecap:butt;stroke-linejoin:miter;stroke-opacity:1" d="M 530.406,604.521 545.609,589.318 z" id="boundary" inkscape:connector-curvature="0" />
	<path style="fill:none;stroke:red;stroke-width:1px;stroke-linecap:butt;stroke-linejoin:miter;stroke-opacity:1" d="M 718.544,617.824 726.146,636.828 z" id="boundary" inkscape:connector-curvature="0" />
	<path style="fill:none;stroke:red;stroke-width:1px;stroke-linecap:butt;stroke-linejoin:miter;stroke-opacity:1" d="M 726.146,636.828 741.349,650.13 z" id="boundary" inkscape:connector-curvature="0" />
	<path style="fill:none;stroke:red;stroke-width:1px;stroke-linecap:butt;stroke-linejoin:miter;stroke-opacity:1" d="M 741.349,650.13 748.95,669.134 z" id="boundary" inkscape:connector-curvature="0" />
	<path style="fill:none;stroke:red;stroke-width:1px;stroke-linecap:butt;stroke-linejoin:miter;stroke-opacity:1" d="M 764.153,680.536 748.95,669.134 z" id="boundary" inkscape:connector-curvature="0" />
	<path style="fill:none;stroke:red;stroke-width:1px;stroke-linecap:butt;stroke-linejoin:miter;stroke-opacity:1" d="M 764.153,680.536 769.854,699.54 z" id="boundary" inkscape:connector-curvature="0" />
	<path style="fill:none;stroke:red;stroke-width:1px;stroke-linecap:butt;stroke-linejoin:miter;stroke-opacity:1" d="M 783.157,714.743 769.854,699.54 z" id="boundary" inkscape:connector-curvature="0" />
	<path style="fill:none;stroke:red;stroke-width:1px;stroke-linecap:butt;stroke-linejoin:miter;stroke-opacity:1" d="M 783.157,714.743 792.659,731.847 z" id="boundary" inkscape:connector-curvature="0" />
	<path style="fill:none;stroke:red;stroke-width:1px;stroke-linecap:butt;stroke-linejoin:miter;stroke-opacity:1" d="M 802.161,748.95 792.659,731.847 z" id="boundary" inkscape:connector-curvature="0" />
	<path style="fill:none;stroke:red;stroke-width:1px;stroke-linecap:butt;stroke-linejoin:miter;stroke-opacity:1" d="M 802.161,748.95 815.464,764.153 z" id="boundary" inkscape:connector-curvature="0" />
	<path style="fill:none;stroke:red;stroke-width:1px;stroke-linecap:butt;stroke-linejoin:miter;stroke-opacity:1" d="M 935.188,608.322 954.192,598.82 z" id="boundary" inkscape:connector-curvature="0" />
	<path style="fill:none;stroke:red;stroke-width:1px;stroke-linecap:butt;stroke-linejoin:miter;stroke-opacity:1" d="M 954.192,598.82 973.195,595.019 z" id="boundary" inkscape:connector-curvature="0" />
	<path style="fill:none;stroke:red;stroke-width:1px;stroke-linecap:butt;stroke-linejoin:miter;stroke-opacity:1" d="M 878.176,623.525 897.18,617.824 z" id="boundary" inkscape:connector-curvature="0" />
	<path style="fill:none;stroke:red;stroke-width:1px;stroke-linecap:butt;stroke-linejoin:miter;stroke-opacity:1" d="M 916.184,614.023 897.18,617.824 z" id="boundary" inkscape:connector-curvature="0" />
	<path style="fill:none;stroke:red;stroke-width:1px;stroke-linecap:butt;stroke-linejoin:miter;stroke-opacity:1" d="M 935.188,608.322 916.184,614.023 z" id="boundary" inkscape:connector-curvature="0" />
	<path style="fill:none;stroke:red;stroke-width:1px;stroke-linecap:butt;stroke-linejoin:miter;stroke-opacity:1" d="M 959.893,545.609 978.897,545.609 z" id="boundary" inkscape:connector-curvature="0" />
	<path style="fill:none;stroke:red;stroke-width:1px;stroke-linecap:butt;stroke-linejoin:miter;stroke-opacity:1" d="M 959.893,545.609 942.789,536.107 z" id="boundary" inkscape:connector-curvature="0" />
	<path style="fill:none;stroke:red;stroke-width:1px;stroke-linecap:butt;stroke-linejoin:miter;stroke-opacity:1" d="M 988.398,583.617 973.195,595.019 z" id="boundary" inkscape:connector-curvature="0" />
	<path style="fill:none;stroke:red;stroke-width:1px;stroke-linecap:butt;stroke-linejoin:miter;stroke-opacity:1" d="M 978.897,545.609 996,555.111 z" id="boundary" inkscape:connector-curvature="0" />
	<path style="fill:none;stroke:red;stroke-width:1px;stroke-linecap:butt;stroke-linejoin:miter;stroke-opacity:1" d="M 996,555.111 988.398,583.617 z" id="boundary" inkscape:connector-curvature="0" />
	<path style="fill:none;stroke:red;stroke-width:1px;stroke-linecap:butt;stroke-linejoin:miter;stroke-opacity:1" d="M 861.073,652.031 861.073,671.034 z" id="boundary" inkscape:connector-curvature="0" />
	<path style="fill:none;stroke:red;stroke-width:1px;stroke-linecap:butt;stroke-linejoin:miter;stroke-opacity:1" d="M 861.073,728.046 859.172,760.352 z" id="boundary" inkscape:connector-curvature="0" />
	<path style="fill:none;stroke:red;stroke-width:1px;stroke-linecap:butt;stroke-linejoin:miter;stroke-opacity:1" d="M 830.667,775.556 815.464,764.153 z" id="boundary" inkscape:connector-curvature="0" />
	<path style="fill:none;stroke:red;stroke-width:1px;stroke-linecap:butt;stroke-linejoin:miter;stroke-opacity:1" d="M 859.172,760.352 849.67,779.356 z" id="boundary" inkscape:connector-curvature="0" />
	<path style="fill:none;stroke:red;stroke-width:1px;stroke-linecap:butt;stroke-linejoin:miter;stroke-opacity:1" d="M 849.67,779.356 830.667,775.556 z" id="boundary" inkscape:connector-curvature="0" />
	<path style="fill:none;stroke:red;stroke-width:1px;stroke-linecap:butt;stroke-linejoin:miter;stroke-opacity:1" d="M 861.073,633.027 861.073,652.031 z" id="boundary" inkscape:connector-curvature="0" />
	<path style="fill:none;stroke:red;stroke-width:1px;stroke-linecap:butt;stroke-linejoin:miter;stroke-opacity:1" d="M 861.073,671.034 861.073,690.038 z" id="boundary" inkscape:connector-curvature="0" />
	<path style="fill:none;stroke:red;stroke-width:1px;stroke-linecap:butt;stroke-linejoin:miter;stroke-opacity:1" d="M 861.073,709.042 861.073,728.046 z" id="boundary" inkscape:connector-curvature="0" />
	<path style="fill:none;stroke:red;stroke-width:1px;stroke-linecap:butt;stroke-linejoin:miter;stroke-opacity:1" d="M 861.073,709.042 861.073,690.038 z" id="boundary" inkscape:connector-curvature="0" />
	<path style="fill:none;stroke:red;stroke-width:1px;stroke-linecap:butt;stroke-linejoin:miter;stroke-opacity:1" d="M 861.073,633.027 878.176,623.525 z" id="boundary" inkscape:connector-curvature="0" />
	<circle cx="4" cy="47.7088" r="4" fill="#0" id="circle0"/>
	<circle cx="4" cy="66.7126" r="4" fill="#0" id="circle1"/>
	<circle cx="13.5019" cy="28.705" r="4" fill="#0" id="circle2"/>
	<circle cx="19.2031" cy="80.0153" r="4" fill="#0" id="circle3"/>
	<circle cx="26.8046" cy="99.0192" r="4" fill="#0" id="circle4"/>
	<circle cx="28.705" cy="13.5019" r="4" fill="#0" id="circle5"/>
	<circle cx="42.0077" cy="110.421" r="4" fill="#0" id="circle6"/>
	<circle cx="47.7088" cy="4" r="4" fill="#0" id="circle7"/>
	<circle cx="47.7088" cy="129.425" r="4" fill="#0" id="circle8"/>
	<circle cx="62.9119" cy="142.728" r="4" fill="#0" id="circle9"/>
	<circle cx="66.7126" cy="4" r="4" fill="#0" id="circle10"/>
	<circle cx="76.2146" cy="157.931" r="4" fill="#0" id="circle11"/>
	<circle cx="85.7165" cy="4" r="4" fill="#0" id="circle12"/>
	<circle cx="89.5172" cy="173.134" r="4" fill="#0" id="circle13"/>
	<circle cx="99.0192" cy="190.238" r="4" fill="#0" id="circle14"/>
	<circle cx="102.82" cy="13.5019" r="4" fill="#0" id="circle15"/>
	<circle cx="114.222" cy="203.54" r="4" fill="#0" id="circle16"/>
	<circle cx="121.824" cy="13.5019" r="4" fill="#0" id="circle17"/>
	<circle cx="127.525" cy="218.743" r="4" fill="#0" id="circle18"/>
	<circle cx="138.927" cy="23.0038" r="4" fill="#0" id="circle19"/>
	<circle cx="142.728" cy="232.046" r="4" fill="#0" id="circle20"/>
	<circle cx="156.031" cy="32.5057" r="4" fill="#0" id="circle21"/>
	<circle cx="156.031" cy="247.249" r="4" fill="#0" id="circle22"/>
	<circle cx="171.234" cy="260.552" r="4" fill="#0" id="circle23"/>
	<circle cx="173.134" cy="42.0077" r="4" fill="#0" id="circle24"/>
	<circle cx="184.536" cy="275.755" r="4" fill="#0" id="circle25"/>
	<circle cx="190.238" cy="51.5096" r="4" fill="#0" id="circle26"/>
	<circle cx="194.038" cy="304.261" r="4" fill="#0" id="circle27"/>
	<circle cx="194.038" cy="323.264" r="4" fill="#0" id="circle28"/>
	<circle cx="194.038" cy="342.268" r="4" fill="#0" id="circle29"/>
	<circle cx="194.038" cy="361.272" r="4" fill="#0" id="circle30"/>
	<circle cx="194.038" cy="380.276" r="4" fill="#0" id="circle31"/>
	<circle cx="194.038" cy="399.28" r="4" fill="#0" id="circle32"/>
	<circle cx="203.54" cy="416.383" r="4" fill="#0" id="circle33"/>
	<circle cx="207.341" cy="61.0115" r="4" fill="#0" id="circle34"/>
	<circle cx="213.042" cy="433.487" r="4" fill="#0" id="circle35"/>
	<circle cx="224.444" cy="70.5134" r="4" fill="#0" id="circle36"/>
	<circle cx="232.046" cy="437.287" r="4" fill="#0" id="circle37"/>
	<circle cx="243.448" cy="76.2146" r="4" fill="#0" id="circle38"/>
	<circle cx="251.05" cy="427.785" r="4" fill="#0" id="circle39"/>
	<circle cx="260.552" cy="85.7165" r="4" fill="#0" id="circle40"/>
	<circle cx="260.552" cy="408.782" r="4" fill="#0" id="circle41"/>
	<circle cx="271.954" cy="357.471" r="4" fill="#0" id="circle42"/>
	<circle cx="271.954" cy="376.475" r="4" fill="#0" id="circle43"/>
	<circle cx="275.755" cy="99.0192" r="4" fill="#0" id="circle44"/>
	<circle cx="289.057" cy="366.973" r="4" fill="#0" id="circle45"/>
	<circle cx="292.858" cy="108.521" r="4" fill="#0" id="circle46"/>
	<circle cx="300.46" cy="382.176" r="4" fill="#0" id="circle47"/>
	<circle cx="309.962" cy="118.023" r="4" fill="#0" id="circle48"/>
	<circle cx="315.663" cy="395.479" r="4" fill="#0" id="circle49"/>
	<circle cx="327.065" cy="127.525" r="4" fill="#0" id="circle50"/>
	<circle cx="332.766" cy="404.981" r="4" fill="#0" id="circle51"/>
	<circle cx="342.268" cy="138.927" r="4" fill="#0" id="circle52"/>
	<circle cx="347.969" cy="418.284" r="4" fill="#0" id="circle53"/>
	<circle cx="361.272" cy="146.529" r="4" fill="#0" id="circle54"/>
	<circle cx="361.272" cy="433.487" r="4" fill="#0" id="circle55"/>
	<circle cx="378.375" cy="156.031" r="4" fill="#0" id="circle56"/>
	<circle cx="380.276" cy="441.088" r="4" fill="#0" id="circle57"/>
	<circle cx="395.479" cy="165.533" r="4" fill="#0" id="circle58"/>
	<circle cx="395.479" cy="452.49" r="4" fill="#0" id="circle59"/>
	<circle cx="410.682" cy="176.935" r="4" fill="#0" id="circle60"/>
	<circle cx="412.582" cy="461.992" r="4" fill="#0" id="circle61"/>
	<circle cx="429.686" cy="184.536" r="4" fill="#0" id="circle62"/>
	<circle cx="429.686" cy="471.494" r="4" fill="#0" id="circle63"/>
	<circle cx="446.789" cy="175.034" r="4" fill="#0" id="circle64"/>
	<circle cx="446.789" cy="480.996" r="4" fill="#0" id="circle65"/>
	<circle cx="463.893" cy="165.533" r="4" fill="#0" id="circle66"/>
	<circle cx="465.793" cy="488.598" r="4" fill="#0" id="circle67"/>
	<circle cx="469.594" cy="507.602" r="4" fill="#0" id="circle68"/>
	<circle cx="473.395" cy="526.605" r="4" fill="#0" id="circle69"/>
	<circle cx="479.096" cy="152.23" r="4" fill="#0" id="circle70"/>
	<circle cx="482.897" cy="543.709" r="4" fill="#0" id="circle71"/>
	<circle cx="490.498" cy="562.713" r="4" fill="#0" id="circle72"/>
	<circle cx="498.1" cy="142.728" r="4" fill="#0" id="circle73"/>
	<circle cx="505.701" cy="576.015" r="4" fill="#0" id="circle74"/>
	<circle cx="513.303" cy="595.019" r="4" fill="#0" id="circle75"/>
	<circle cx="517.103" cy="133.226" r="4" fill="#0" id="circle76"/>
	<circle cx="519.004" cy="243.448" r="4" fill="#0" id="circle77"/>
	<circle cx="528.506" cy="260.552" r="4" fill="#0" id="circle78"/>
	<circle cx="530.406" cy="604.521" r="4" fill="#0" id="circle79"/>
	<circle cx="534.207" cy="230.146" r="4" fill="#0" id="circle80"/>
	<circle cx="536.107" cy="131.326" r="4" fill="#0" id="circle81"/>
	<circle cx="543.709" cy="150.33" r="4" fill="#0" id="circle82"/>
	<circle cx="543.709" cy="211.142" r="4" fill="#0" id="circle83"/>
	<circle cx="543.709" cy="271.954" r="4" fill="#0" id="circle84"/>
	<circle cx="545.609" cy="589.318" r="4" fill="#0" id="circle85"/>
	<circle cx="553.211" cy="192.138" r="4" fill="#0" id="circle86"/>
	<circle cx="557.011" cy="165.533" r="4" fill="#0" id="circle87"/>
	<circle cx="557.011" cy="287.157" r="4" fill="#0" id="circle88"/>
	<circle cx="560.812" cy="574.115" r="4" fill="#0" id="circle89"/>
	<circle cx="572.215" cy="300.46" r="4" fill="#0" id="circle90"/>
	<circle cx="579.816" cy="564.613" r="4" fill="#0" id="circle91"/>
	<circle cx="585.517" cy="315.663" r="4" fill="#0" id="circle92"/>
	<circle cx="598.82" cy="557.011" r="4" fill="#0" id="circle93"/>
	<circle cx="604.521" cy="311.862" r="4" fill="#0" id="circle94"/>
	<circle cx="615.923" cy="547.51" r="4" fill="#0" id="circle95"/>
	<circle cx="623.525" cy="308.061" r="4" fill="#0" id="circle96"/>
	<circle cx="633.027" cy="538.008" r="4" fill="#0" id="circle97"/>
	<circle cx="642.529" cy="302.36" r="4" fill="#0" id="circle98"/>
	<circle cx="650.13" cy="547.51" r="4" fill="#0" id="circle99"/>
	<circle cx="661.533" cy="298.559" r="4" fill="#0" id="circle100"/>
	<circle cx="667.234" cy="557.011" r="4" fill="#0" id="circle101"/>
	<circle cx="680.536" cy="298.559" r="4" fill="#0" id="circle102"/>
	<circle cx="680.536" cy="572.215" r="4" fill="#0" id="circle103"/>
	<circle cx="695.739" cy="585.517" r="4" fill="#0" id="circle104"/>
	<circle cx="699.54" cy="304.261" r="4" fill="#0" id="circle105"/>
	<circle cx="709.042" cy="433.487" r="4" fill="#0" id="circle106"/>
	<circle cx="709.042" cy="600.72" r="4" fill="#0" id="circle107"/>
	<circle cx="712.843" cy="452.49" r="4" fill="#0" id="circle108"/>
	<circle cx="718.544" cy="308.061" r="4" fill="#0" id="circle109"/>
	<circle cx="718.544" cy="357.471" r="4" fill="#0" id="circle110"/>
	<circle cx="718.544" cy="376.475" r="4" fill="#0" id="circle111"/>
	<circle cx="718.544" cy="395.479" r="4" fill="#0" id="circle112"/>
	<circle cx="718.544" cy="414.483" r="4" fill="#0" id="circle113"/>
	<circle cx="718.544" cy="617.824" r="4" fill="#0" id="circle114"/>
	<circle cx="726.146" cy="636.828" r="4" fill="#0" id="circle115"/>
	<circle cx="728.046" cy="338.467" r="4" fill="#0" id="circle116"/>
	<circle cx="728.046" cy="465.793" r="4" fill="#0" id="circle117"/>
	<circle cx="737.548" cy="313.762" r="4" fill="#0" id="circle118"/>
	<circle cx="741.349" cy="480.996" r="4" fill="#0" id="circle119"/>
	<circle cx="741.349" cy="650.13" r="4" fill="#0" id="circle120"/>
	<circle cx="748.95" cy="669.134" r="4" fill="#0" id="circle121"/>
	<circle cx="760.352" cy="488.598" r="4" fill="#0" id="circle122"/>
	<circle cx="764.153" cy="680.536" r="4" fill="#0" id="circle123"/>
	<circle cx="769.854" cy="699.54" r="4" fill="#0" id="circle124"/>
	<circle cx="777.456" cy="498.1" r="4" fill="#0" id="circle125"/>
	<circle cx="783.157" cy="714.743" r="4" fill="#0" id="circle126"/>
	<circle cx="792.659" cy="731.847" r="4" fill="#0" id="circle127"/>
	<circle cx="794.559" cy="507.602" r="4" fill="#0" id="circle128"/>
	<circle cx="802.161" cy="748.95" r="4" fill="#0" id="circle129"/>
	<circle cx="813.563" cy="507.602" r="4" fill="#0" id="circle130"/>
	<circle cx="815.464" cy="764.153" r="4" fill="#0" id="circle131"/>
	<circle cx="830.667" cy="775.556" r="4" fill="#0" id="circle132"/>
	<circle cx="832.567" cy="507.602" r="4" fill="#0" id="circle133"/>
	<circle cx="849.67" cy="779.356" r="4" fill="#0" id="circle134"/>
	<circle cx="851.571" cy="513.303" r="4" fill="#0" id="circle135"/>
	<circle cx="859.172" cy="760.352" r="4" fill="#0" id="circle136"/>
	<circle cx="861.073" cy="633.027" r="4" fill="#0" id="circle137"/>
	<circle cx="861.073" cy="652.031" r="4" fill="#0" id="circle138"/>
	<circle cx="861.073" cy="671.034" r="4" fill="#0" id="circle139"/>
	<circle cx="861.073" cy="690.038" r="4" fill="#0" id="circle140"/>
	<circle cx="861.073" cy="709.042" r="4" fill="#0" id="circle141"/>
	<circle cx="861.073" cy="728.046" r="4" fill="#0" id="circle142"/>
	<circle cx="870.575" cy="517.103" r="4" fill="#0" id="circle143"/>
	<circle cx="878.176" cy="623.525" r="4" fill="#0" id="circle144"/>
	<circle cx="889.579" cy="517.103" r="4" fill="#0" id="circle145"/>
	<circle cx="897.18" cy="617.824" r="4" fill="#0" id="circle146"/>
	<circle cx="906.682" cy="526.605" r="4" fill="#0" id="circle147"/>
	<circle cx="916.184" cy="614.023" r="4" fill="#0" id="circle148"/>
	<circle cx="925.686" cy="526.605" r="4" fill="#0" id="circle149"/>
	<circle cx="935.188" cy="608.322" r="4" fill="#0" id="circle150"/>
	<circle cx="942.789" cy="536.107" r="4" fill="#0" id="circle151"/>
	<circle cx="954.192" cy="598.82" r="4" fill="#0" id="circle152"/>
	<circle cx="959.893" cy="545.609" r="4" fill="#0" id="circle153"/>
	<circle cx="973.195" cy="595.019" r="4" fill="#0" id="circle154"/>
	<circle cx="978.897" cy="545.609" r="4" fill="#0" id="circle155"/>
	<circle cx="988.398" cy="583.617" r="4" fill="#0" id="circle156"/>
	<circle cx="996" cy="555.111" r="4" fill="#0" id="circle157"/>
	</g>
</svg>