<?xml version="1.0" encoding="UTF-8" standalone="no"?>
<!-- Created with CurveBenchmark -->
<svg
	xmlns:dc="http://purl.org/dc/elements/1.1/"
	xmlns:cc="http://creativecommons.org/ns#"
	xmlns:rdf="http://www.w3.org/1999/02/22-rdf-syntax-ns#"
	xmlns:svg="http://www.w3.org/2000/svg"
	xmlns="http://www.w3.org/2000/svg"
	xmlns:sodipodi="http://sodipodi.sourceforge.net/DTD/sodipodi-0.dtd"
	xmlns:inkscape="http://www.inkscape.org/namespaces/inkscape"
	width="1000"
	height="1000"
	id="svg2"
	version="1.1"
	sodipodi:docname="manifold/ccrust-fountain05.png.txt">
<defs
	id="defs4" />
<metadata
	id="metadata7">
	<rdf:RDF>
		<cc:Work
			rdf:about="">
			<dc:format>image/svg+xml</dc:format>
			<dc:type
				rdf:resource="http://purl.org/dc/dcmitype/StillImage" />
			<dc:title></dc:title>
		</cc:Work>
	</rdf:RDF>
</metadata>
<g
	inkscape:label="Layer 1"
	inkscape:groupmode="layer"
	id="layer1">
	<path style="fill:none;stroke:red;stroke-width:1px;stroke-linecap:butt;stroke-linejoin:miter;stroke-opacity:1" d="M 370.307,148.543 390.108,154.483 z" id="boundary" inkscape:connector-curvature="0" />
	<path style="fill:none;stroke:red;stroke-width:1px;stroke-linecap:butt;stroke-linejoin:miter;stroke-opacity:1" d="M 336.647,340.607 356.447,340.607 z" id="boundary" inkscape:connector-curvature="0" />
	<path style="fill:none;stroke:red;stroke-width:1px;stroke-linecap:butt;stroke-linejoin:miter;stroke-opacity:1" d="M 316.846,350.507 336.647,340.607 z" id="boundary" inkscape:connector-curvature="0" />
	<path style="fill:none;stroke:red;stroke-width:1px;stroke-linecap:butt;stroke-linejoin:miter;stroke-opacity:1" d="M 376.248,330.707 356.447,340.607 z" id="boundary" inkscape:connector-curvature="0" />
	<path style="fill:none;stroke:red;stroke-width:1px;stroke-linecap:butt;stroke-linejoin:miter;stroke-opacity:1" d="M 376.248,330.707 396.048,330.707 z" id="boundary" inkscape:connector-curvature="0" />
	<path style="fill:none;stroke:red;stroke-width:1px;stroke-linecap:butt;stroke-linejoin:miter;stroke-opacity:1" d="M 386.148,132.703 405.948,132.703 z" id="boundary" inkscape:connector-curvature="0" />
	<path style="fill:none;stroke:red;stroke-width:1px;stroke-linecap:butt;stroke-linejoin:miter;stroke-opacity:1" d="M 423.768,122.802 405.948,132.703 z" id="boundary" inkscape:connector-curvature="0" />
	<path style="fill:none;stroke:red;stroke-width:1px;stroke-linecap:butt;stroke-linejoin:miter;stroke-opacity:1" d="M 409.908,154.483 390.108,154.483 z" id="boundary" inkscape:connector-curvature="0" />
	<path style="fill:none;stroke:red;stroke-width:1px;stroke-linecap:butt;stroke-linejoin:miter;stroke-opacity:1" d="M 405.948,132.703 409.908,154.483 z" id="boundary" inkscape:connector-curvature="0" />
	<path style="fill:none;stroke:red;stroke-width:1px;stroke-linecap:butt;stroke-linejoin:miter;stroke-opacity:1" d="M 409.908,154.483 427.729,164.383 z" id="boundary" inkscape:connector-curvature="0" />
	<path style="fill:none;stroke:red;stroke-width:1px;stroke-linecap:butt;stroke-linejoin:miter;stroke-opacity:1" d="M 205.964,411.888 221.804,396.048 z" id="boundary" inkscape:connector-curvature="0" />
	<path style="fill:none;stroke:red;stroke-width:1px;stroke-linecap:butt;stroke-linejoin:miter;stroke-opacity:1" d="M 196.064,429.709 205.964,411.888 z" id="boundary" inkscape:connector-curvature="0" />
	<path style="fill:none;stroke:red;stroke-width:1px;stroke-linecap:butt;stroke-linejoin:miter;stroke-opacity:1" d="M 158.443,439.609 176.263,429.709 z" id="boundary" inkscape:connector-curvature="0" />
	<path style="fill:none;stroke:red;stroke-width:1px;stroke-linecap:butt;stroke-linejoin:miter;stroke-opacity:1" d="M 176.263,429.709 196.064,429.709 z" id="boundary" inkscape:connector-curvature="0" />
	<path style="fill:none;stroke:red;stroke-width:1px;stroke-linecap:butt;stroke-linejoin:miter;stroke-opacity:1" d="M 237.645,380.208 221.804,396.048 z" id="boundary" inkscape:connector-curvature="0" />
	<path style="fill:none;stroke:red;stroke-width:1px;stroke-linecap:butt;stroke-linejoin:miter;stroke-opacity:1" d="M 142.603,455.449 158.443,439.609 z" id="boundary" inkscape:connector-curvature="0" />
	<path style="fill:none;stroke:red;stroke-width:1px;stroke-linecap:butt;stroke-linejoin:miter;stroke-opacity:1" d="M 316.846,350.507 297.046,360.407 z" id="boundary" inkscape:connector-curvature="0" />
	<path style="fill:none;stroke:red;stroke-width:1px;stroke-linecap:butt;stroke-linejoin:miter;stroke-opacity:1" d="M 297.046,360.407 277.246,360.407 z" id="boundary" inkscape:connector-curvature="0" />
	<path style="fill:none;stroke:red;stroke-width:1px;stroke-linecap:butt;stroke-linejoin:miter;stroke-opacity:1" d="M 257.445,370.307 237.645,380.208 z" id="boundary" inkscape:connector-curvature="0" />
	<path style="fill:none;stroke:red;stroke-width:1px;stroke-linecap:butt;stroke-linejoin:miter;stroke-opacity:1" d="M 257.445,370.307 277.246,360.407 z" id="boundary" inkscape:connector-curvature="0" />
	<path style="fill:none;stroke:red;stroke-width:1px;stroke-linecap:butt;stroke-linejoin:miter;stroke-opacity:1" d="M 396.048,330.707 415.848,330.707 z" id="boundary" inkscape:connector-curvature="0" />
	<path style="fill:none;stroke:red;stroke-width:1px;stroke-linecap:butt;stroke-linejoin:miter;stroke-opacity:1" d="M 469.309,87.1617 463.369,114.882 z" id="boundary" inkscape:connector-curvature="0" />
	<path style="fill:none;stroke:red;stroke-width:1px;stroke-linecap:butt;stroke-linejoin:miter;stroke-opacity:1" d="M 463.369,114.882 443.569,122.802 z" id="boundary" inkscape:connector-curvature="0" />
	<path style="fill:none;stroke:red;stroke-width:1px;stroke-linecap:butt;stroke-linejoin:miter;stroke-opacity:1" d="M 423.768,122.802 443.569,122.802 z" id="boundary" inkscape:connector-curvature="0" />
	<path style="fill:none;stroke:red;stroke-width:1px;stroke-linecap:butt;stroke-linejoin:miter;stroke-opacity:1" d="M 445.549,174.283 427.729,164.383 z" id="boundary" inkscape:connector-curvature="0" />
	<path style="fill:none;stroke:red;stroke-width:1px;stroke-linecap:butt;stroke-linejoin:miter;stroke-opacity:1" d="M 469.309,9.94012 489.11,4 z" id="boundary" inkscape:connector-curvature="0" />
	<path style="fill:none;stroke:red;stroke-width:1px;stroke-linecap:butt;stroke-linejoin:miter;stroke-opacity:1" d="M 469.309,47.5609 469.309,67.3613 z" id="boundary" inkscape:connector-curvature="0" />
	<path style="fill:none;stroke:red;stroke-width:1px;stroke-linecap:butt;stroke-linejoin:miter;stroke-opacity:1" d="M 459.409,29.7405 469.309,47.5609 z" id="boundary" inkscape:connector-curvature="0" />
	<path style="fill:none;stroke:red;stroke-width:1px;stroke-linecap:butt;stroke-linejoin:miter;stroke-opacity:1" d="M 469.309,87.1617 469.309,67.3613 z" id="boundary" inkscape:connector-curvature="0" />
	<path style="fill:none;stroke:red;stroke-width:1px;stroke-linecap:butt;stroke-linejoin:miter;stroke-opacity:1" d="M 459.409,29.7405 469.309,9.94012 z" id="boundary" inkscape:connector-curvature="0" />
	<path style="fill:none;stroke:red;stroke-width:1px;stroke-linecap:butt;stroke-linejoin:miter;stroke-opacity:1" d="M 459.409,247.545 459.409,267.345 z" id="boundary" inkscape:connector-curvature="0" />
	<path style="fill:none;stroke:red;stroke-width:1px;stroke-linecap:butt;stroke-linejoin:miter;stroke-opacity:1" d="M 459.409,190.124 445.549,174.283 z" id="boundary" inkscape:connector-curvature="0" />
	<path style="fill:none;stroke:red;stroke-width:1px;stroke-linecap:butt;stroke-linejoin:miter;stroke-opacity:1" d="M 449.509,306.946 435.649,330.707 z" id="boundary" inkscape:connector-curvature="0" />
	<path style="fill:none;stroke:red;stroke-width:1px;stroke-linecap:butt;stroke-linejoin:miter;stroke-opacity:1" d="M 435.649,330.707 415.848,330.707 z" id="boundary" inkscape:connector-curvature="0" />
	<path style="fill:none;stroke:red;stroke-width:1px;stroke-linecap:butt;stroke-linejoin:miter;stroke-opacity:1" d="M 469.309,227.745 459.409,247.545 z" id="boundary" inkscape:connector-curvature="0" />
	<path style="fill:none;stroke:red;stroke-width:1px;stroke-linecap:butt;stroke-linejoin:miter;stroke-opacity:1" d="M 469.309,227.745 469.309,207.944 z" id="boundary" inkscape:connector-curvature="0" />
	<path style="fill:none;stroke:red;stroke-width:1px;stroke-linecap:butt;stroke-linejoin:miter;stroke-opacity:1" d="M 459.409,287.146 459.409,267.345 z" id="boundary" inkscape:connector-curvature="0" />
	<path style="fill:none;stroke:red;stroke-width:1px;stroke-linecap:butt;stroke-linejoin:miter;stroke-opacity:1" d="M 459.409,287.146 449.509,306.946 z" id="boundary" inkscape:connector-curvature="0" />
	<path style="fill:none;stroke:red;stroke-width:1px;stroke-linecap:butt;stroke-linejoin:miter;stroke-opacity:1" d="M 459.409,190.124 469.309,207.944 z" id="boundary" inkscape:connector-curvature="0" />
	<path style="fill:none;stroke:red;stroke-width:1px;stroke-linecap:butt;stroke-linejoin:miter;stroke-opacity:1" d="M 23.8004,544.551 43.6008,534.651 z" id="boundary" inkscape:connector-curvature="0" />
	<path style="fill:none;stroke:red;stroke-width:1px;stroke-linecap:butt;stroke-linejoin:miter;stroke-opacity:1" d="M 13.9002,564.351 23.8004,544.551 z" id="boundary" inkscape:connector-curvature="0" />
	<path style="fill:none;stroke:red;stroke-width:1px;stroke-linecap:butt;stroke-linejoin:miter;stroke-opacity:1" d="M 53.501,514.85 43.6008,534.651 z" id="boundary" inkscape:connector-curvature="0" />
	<path style="fill:none;stroke:red;stroke-width:1px;stroke-linecap:butt;stroke-linejoin:miter;stroke-opacity:1" d="M 4,603.952 4,584.152 z" id="boundary" inkscape:connector-curvature="0" />
	<path style="fill:none;stroke:red;stroke-width:1px;stroke-linecap:butt;stroke-linejoin:miter;stroke-opacity:1" d="M 4,584.152 13.9002,564.351 z" id="boundary" inkscape:connector-curvature="0" />
	<path style="fill:none;stroke:red;stroke-width:1px;stroke-linecap:butt;stroke-linejoin:miter;stroke-opacity:1" d="M 108.942,479.21 126.762,469.309 z" id="boundary" inkscape:connector-curvature="0" />
	<path style="fill:none;stroke:red;stroke-width:1px;stroke-linecap:butt;stroke-linejoin:miter;stroke-opacity:1" d="M 93.1018,495.05 108.942,479.21 z" id="boundary" inkscape:connector-curvature="0" />
	<path style="fill:none;stroke:red;stroke-width:1px;stroke-linecap:butt;stroke-linejoin:miter;stroke-opacity:1" d="M 142.603,455.449 126.762,469.309 z" id="boundary" inkscape:connector-curvature="0" />
	<path style="fill:none;stroke:red;stroke-width:1px;stroke-linecap:butt;stroke-linejoin:miter;stroke-opacity:1" d="M 53.501,514.85 73.3014,504.95 z" id="boundary" inkscape:connector-curvature="0" />
	<path style="fill:none;stroke:red;stroke-width:1px;stroke-linecap:butt;stroke-linejoin:miter;stroke-opacity:1" d="M 93.1018,495.05 73.3014,504.95 z" id="boundary" inkscape:connector-curvature="0" />
	<path style="fill:none;stroke:red;stroke-width:1px;stroke-linecap:butt;stroke-linejoin:miter;stroke-opacity:1" d="M 4,623.752 4,603.952 z" id="boundary" inkscape:connector-curvature="0" />
	<path style="fill:none;stroke:red;stroke-width:1px;stroke-linecap:butt;stroke-linejoin:miter;stroke-opacity:1" d="M 13.9002,641.573 4,623.752 z" id="boundary" inkscape:connector-curvature="0" />
	<path style="fill:none;stroke:red;stroke-width:1px;stroke-linecap:butt;stroke-linejoin:miter;stroke-opacity:1" d="M 23.8004,659.393 13.9002,641.573 z" id="boundary" inkscape:connector-curvature="0" />
	<path style="fill:none;stroke:red;stroke-width:1px;stroke-linecap:butt;stroke-linejoin:miter;stroke-opacity:1" d="M 35.6806,675.234 23.8004,659.393 z" id="boundary" inkscape:connector-curvature="0" />
	<path style="fill:none;stroke:red;stroke-width:1px;stroke-linecap:butt;stroke-linejoin:miter;stroke-opacity:1" d="M 53.501,685.134 35.6806,675.234 z" id="boundary" inkscape:connector-curvature="0" />
	<path style="fill:none;stroke:red;stroke-width:1px;stroke-linecap:butt;stroke-linejoin:miter;stroke-opacity:1" d="M 53.501,685.134 63.4012,702.954 z" id="boundary" inkscape:connector-curvature="0" />
	<path style="fill:none;stroke:red;stroke-width:1px;stroke-linecap:butt;stroke-linejoin:miter;stroke-opacity:1" d="M 83.2016,708.894 63.4012,702.954 z" id="boundary" inkscape:connector-curvature="0" />
	<path style="fill:none;stroke:red;stroke-width:1px;stroke-linecap:butt;stroke-linejoin:miter;stroke-opacity:1" d="M 120.822,718.794 101.022,718.794 z" id="boundary" inkscape:connector-curvature="0" />
	<path style="fill:none;stroke:red;stroke-width:1px;stroke-linecap:butt;stroke-linejoin:miter;stroke-opacity:1" d="M 101.022,718.794 83.2016,708.894 z" id="boundary" inkscape:connector-curvature="0" />
	<path style="fill:none;stroke:red;stroke-width:1px;stroke-linecap:butt;stroke-linejoin:miter;stroke-opacity:1" d="M 120.822,718.794 138.643,728.695 z" id="boundary" inkscape:connector-curvature="0" />
	<path style="fill:none;stroke:red;stroke-width:1px;stroke-linecap:butt;stroke-linejoin:miter;stroke-opacity:1" d="M 158.443,728.695 138.643,728.695 z" id="boundary" inkscape:connector-curvature="0" />
	<path style="fill:none;stroke:red;stroke-width:1px;stroke-linecap:butt;stroke-linejoin:miter;stroke-opacity:1" d="M 198.044,738.595 178.244,736.615 z" id="boundary" inkscape:connector-curvature="0" />
	<path style="fill:none;stroke:red;stroke-width:1px;stroke-linecap:butt;stroke-linejoin:miter;stroke-opacity:1" d="M 178.244,736.615 158.443,728.695 z" id="boundary" inkscape:connector-curvature="0" />
	<path style="fill:none;stroke:red;stroke-width:1px;stroke-linecap:butt;stroke-linejoin:miter;stroke-opacity:1" d="M 217.844,738.595 198.044,738.595 z" id="boundary" inkscape:connector-curvature="0" />
	<path style="fill:none;stroke:red;stroke-width:1px;stroke-linecap:butt;stroke-linejoin:miter;stroke-opacity:1" d="M 217.844,738.595 237.645,746.515 z" id="boundary" inkscape:connector-curvature="0" />
	<path style="fill:none;stroke:red;stroke-width:1px;stroke-linecap:butt;stroke-linejoin:miter;stroke-opacity:1" d="M 257.445,748.495 237.645,746.515 z" id="boundary" inkscape:connector-curvature="0" />
	<path style="fill:none;stroke:red;stroke-width:1px;stroke-linecap:butt;stroke-linejoin:miter;stroke-opacity:1" d="M 257.445,748.495 277.246,748.495 z" id="boundary" inkscape:connector-curvature="0" />
	<path style="fill:none;stroke:red;stroke-width:1px;stroke-linecap:butt;stroke-linejoin:miter;stroke-opacity:1" d="M 277.246,748.495 295.066,758.395 z" id="boundary" inkscape:connector-curvature="0" />
	<path style="fill:none;stroke:red;stroke-width:1px;stroke-linecap:butt;stroke-linejoin:miter;stroke-opacity:1" d="M 314.866,758.395 295.066,758.395 z" id="boundary" inkscape:connector-curvature="0" />
	<path style="fill:none;stroke:red;stroke-width:1px;stroke-linecap:butt;stroke-linejoin:miter;stroke-opacity:1" d="M 314.866,758.395 334.667,764.335 z" id="boundary" inkscape:connector-curvature="0" />
	<path style="fill:none;stroke:red;stroke-width:1px;stroke-linecap:butt;stroke-linejoin:miter;stroke-opacity:1" d="M 374.267,768.295 354.467,768.295 z" id="boundary" inkscape:connector-curvature="0" />
	<path style="fill:none;stroke:red;stroke-width:1px;stroke-linecap:butt;stroke-linejoin:miter;stroke-opacity:1" d="M 354.467,768.295 334.667,764.335 z" id="boundary" inkscape:connector-curvature="0" />
	<path style="fill:none;stroke:red;stroke-width:1px;stroke-linecap:butt;stroke-linejoin:miter;stroke-opacity:1" d="M 394.068,768.295 374.267,768.295 z" id="boundary" inkscape:connector-curvature="0" />
	<path style="fill:none;stroke:red;stroke-width:1px;stroke-linecap:butt;stroke-linejoin:miter;stroke-opacity:1" d="M 433.669,768.295 413.868,768.295 z" id="boundary" inkscape:connector-curvature="0" />
	<path style="fill:none;stroke:red;stroke-width:1px;stroke-linecap:butt;stroke-linejoin:miter;stroke-opacity:1" d="M 453.469,768.295 433.669,768.295 z" id="boundary" inkscape:connector-curvature="0" />
	<path style="fill:none;stroke:red;stroke-width:1px;stroke-linecap:butt;stroke-linejoin:miter;stroke-opacity:1" d="M 413.868,768.295 394.068,768.295 z" id="boundary" inkscape:connector-curvature="0" />
	<path style="fill:none;stroke:red;stroke-width:1px;stroke-linecap:butt;stroke-linejoin:miter;stroke-opacity:1" d="M 473.269,768.295 453.469,768.295 z" id="boundary" inkscape:connector-curvature="0" />
	<path style="fill:none;stroke:red;stroke-width:1px;stroke-linecap:butt;stroke-linejoin:miter;stroke-opacity:1" d="M 493.07,768.295 473.269,768.295 z" id="boundary" inkscape:connector-curvature="0" />
	<path style="fill:none;stroke:red;stroke-width:1px;stroke-linecap:butt;stroke-linejoin:miter;stroke-opacity:1" d="M 520.79,19.8403 520.79,39.6407 z" id="boundary" inkscape:connector-curvature="0" />
	<path style="fill:none;stroke:red;stroke-width:1px;stroke-linecap:butt;stroke-linejoin:miter;stroke-opacity:1" d="M 520.79,19.8403 508.91,4 z" id="boundary" inkscape:connector-curvature="0" />
	<path style="fill:none;stroke:red;stroke-width:1px;stroke-linecap:butt;stroke-linejoin:miter;stroke-opacity:1" d="M 530.691,57.4611 530.691,77.2615 z" id="boundary" inkscape:connector-curvature="0" />
	<path style="fill:none;stroke:red;stroke-width:1px;stroke-linecap:butt;stroke-linejoin:miter;stroke-opacity:1" d="M 530.691,57.4611 520.79,39.6407 z" id="boundary" inkscape:connector-curvature="0" />
	<path style="fill:none;stroke:red;stroke-width:1px;stroke-linecap:butt;stroke-linejoin:miter;stroke-opacity:1" d="M 536.631,97.0619 546.531,114.882 z" id="boundary" inkscape:connector-curvature="0" />
	<path style="fill:none;stroke:red;stroke-width:1px;stroke-linecap:butt;stroke-linejoin:miter;stroke-opacity:1" d="M 586.132,122.802 566.331,122.802 z" id="boundary" inkscape:connector-curvature="0" />
	<path style="fill:none;stroke:red;stroke-width:1px;stroke-linecap:butt;stroke-linejoin:miter;stroke-opacity:1" d="M 546.531,114.882 566.331,122.802 z" id="boundary" inkscape:connector-curvature="0" />
	<path style="fill:none;stroke:red;stroke-width:1px;stroke-linecap:butt;stroke-linejoin:miter;stroke-opacity:1" d="M 580.192,174.283 560.391,184.184 z" id="boundary" inkscape:connector-curvature="0" />
	<path style="fill:none;stroke:red;stroke-width:1px;stroke-linecap:butt;stroke-linejoin:miter;stroke-opacity:1" d="M 536.631,97.0619 530.691,77.2615 z" id="boundary" inkscape:connector-curvature="0" />
	<path style="fill:none;stroke:red;stroke-width:1px;stroke-linecap:butt;stroke-linejoin:miter;stroke-opacity:1" d="M 540.591,194.084 540.591,213.884 z" id="boundary" inkscape:connector-curvature="0" />
	<path style="fill:none;stroke:red;stroke-width:1px;stroke-linecap:butt;stroke-linejoin:miter;stroke-opacity:1" d="M 540.591,194.084 560.391,184.184 z" id="boundary" inkscape:connector-curvature="0" />
	<path style="fill:none;stroke:red;stroke-width:1px;stroke-linecap:butt;stroke-linejoin:miter;stroke-opacity:1" d="M 540.591,233.685 540.591,253.485 z" id="boundary" inkscape:connector-curvature="0" />
	<path style="fill:none;stroke:red;stroke-width:1px;stroke-linecap:butt;stroke-linejoin:miter;stroke-opacity:1" d="M 540.591,273.285 540.591,253.485 z" id="boundary" inkscape:connector-curvature="0" />
	<path style="fill:none;stroke:red;stroke-width:1px;stroke-linecap:butt;stroke-linejoin:miter;stroke-opacity:1" d="M 540.591,233.685 540.591,213.884 z" id="boundary" inkscape:connector-curvature="0" />
	<path style="fill:none;stroke:red;stroke-width:1px;stroke-linecap:butt;stroke-linejoin:miter;stroke-opacity:1" d="M 540.591,312.886 540.591,293.086 z" id="boundary" inkscape:connector-curvature="0" />
	<path style="fill:none;stroke:red;stroke-width:1px;stroke-linecap:butt;stroke-linejoin:miter;stroke-opacity:1" d="M 564.351,340.607 544.551,332.687 z" id="boundary" inkscape:connector-curvature="0" />
	<path style="fill:none;stroke:red;stroke-width:1px;stroke-linecap:butt;stroke-linejoin:miter;stroke-opacity:1" d="M 544.551,332.687 540.591,312.886 z" id="boundary" inkscape:connector-curvature="0" />
	<path style="fill:none;stroke:red;stroke-width:1px;stroke-linecap:butt;stroke-linejoin:miter;stroke-opacity:1" d="M 584.152,340.607 564.351,340.607 z" id="boundary" inkscape:connector-curvature="0" />
	<path style="fill:none;stroke:red;stroke-width:1px;stroke-linecap:butt;stroke-linejoin:miter;stroke-opacity:1" d="M 512.87,768.295 493.07,768.295 z" id="boundary" inkscape:connector-curvature="0" />
	<path style="fill:none;stroke:red;stroke-width:1px;stroke-linecap:butt;stroke-linejoin:miter;stroke-opacity:1" d="M 540.591,293.086 540.591,273.285 z" id="boundary" inkscape:connector-curvature="0" />
	<path style="fill:none;stroke:red;stroke-width:1px;stroke-linecap:butt;stroke-linejoin:miter;stroke-opacity:1" d="M 586.132,122.802 605.932,124.782 z" id="boundary" inkscape:connector-curvature="0" />
	<path style="fill:none;stroke:red;stroke-width:1px;stroke-linecap:butt;stroke-linejoin:miter;stroke-opacity:1" d="M 603.952,340.607 584.152,340.607 z" id="boundary" inkscape:connector-curvature="0" />
	<path style="fill:none;stroke:red;stroke-width:1px;stroke-linecap:butt;stroke-linejoin:miter;stroke-opacity:1" d="M 599.992,164.383 619.792,164.383 z" id="boundary" inkscape:connector-curvature="0" />
	<path style="fill:none;stroke:red;stroke-width:1px;stroke-linecap:butt;stroke-linejoin:miter;stroke-opacity:1" d="M 580.192,174.283 599.992,164.383 z" id="boundary" inkscape:connector-curvature="0" />
	<path style="fill:none;stroke:red;stroke-width:1px;stroke-linecap:butt;stroke-linejoin:miter;stroke-opacity:1" d="M 603.952,340.607 621.772,350.507 z" id="boundary" inkscape:connector-curvature="0" />
	<path style="fill:none;stroke:red;stroke-width:1px;stroke-linecap:butt;stroke-linejoin:miter;stroke-opacity:1" d="M 605.932,124.782 623.752,134.683 z" id="boundary" inkscape:connector-curvature="0" />
	<path style="fill:none;stroke:red;stroke-width:1px;stroke-linecap:butt;stroke-linejoin:miter;stroke-opacity:1" d="M 623.752,134.683 635.633,150.523 z" id="boundary" inkscape:connector-curvature="0" />
	<path style="fill:none;stroke:red;stroke-width:1px;stroke-linecap:butt;stroke-linejoin:miter;stroke-opacity:1" d="M 635.633,150.523 619.792,164.383 z" id="boundary" inkscape:connector-curvature="0" />
	<path style="fill:none;stroke:red;stroke-width:1px;stroke-linecap:butt;stroke-linejoin:miter;stroke-opacity:1" d="M 641.573,350.507 621.772,350.507 z" id="boundary" inkscape:connector-curvature="0" />
	<path style="fill:none;stroke:red;stroke-width:1px;stroke-linecap:butt;stroke-linejoin:miter;stroke-opacity:1" d="M 661.373,350.507 641.573,350.507 z" id="boundary" inkscape:connector-curvature="0" />
	<path style="fill:none;stroke:red;stroke-width:1px;stroke-linecap:butt;stroke-linejoin:miter;stroke-opacity:1" d="M 661.373,350.507 679.194,360.407 z" id="boundary" inkscape:connector-curvature="0" />
	<path style="fill:none;stroke:red;stroke-width:1px;stroke-linecap:butt;stroke-linejoin:miter;stroke-opacity:1" d="M 698.994,360.407 679.194,360.407 z" id="boundary" inkscape:connector-curvature="0" />
	<path style="fill:none;stroke:red;stroke-width:1px;stroke-linecap:butt;stroke-linejoin:miter;stroke-opacity:1" d="M 736.615,370.307 716.814,370.307 z" id="boundary" inkscape:connector-curvature="0" />
	<path style="fill:none;stroke:red;stroke-width:1px;stroke-linecap:butt;stroke-linejoin:miter;stroke-opacity:1" d="M 716.814,370.307 698.994,360.407 z" id="boundary" inkscape:connector-curvature="0" />
	<path style="fill:none;stroke:red;stroke-width:1px;stroke-linecap:butt;stroke-linejoin:miter;stroke-opacity:1" d="M 756.415,370.307 736.615,370.307 z" id="boundary" inkscape:connector-curvature="0" />
	<path style="fill:none;stroke:red;stroke-width:1px;stroke-linecap:butt;stroke-linejoin:miter;stroke-opacity:1" d="M 774.236,380.208 756.415,370.307 z" id="boundary" inkscape:connector-curvature="0" />
	<path style="fill:none;stroke:red;stroke-width:1px;stroke-linecap:butt;stroke-linejoin:miter;stroke-opacity:1" d="M 805.916,405.948 815.816,423.768 z" id="boundary" inkscape:connector-curvature="0" />
	<path style="fill:none;stroke:red;stroke-width:1px;stroke-linecap:butt;stroke-linejoin:miter;stroke-opacity:1" d="M 805.916,405.948 792.056,390.108 z" id="boundary" inkscape:connector-curvature="0" />
	<path style="fill:none;stroke:red;stroke-width:1px;stroke-linecap:butt;stroke-linejoin:miter;stroke-opacity:1" d="M 833.637,433.669 815.816,423.768 z" id="boundary" inkscape:connector-curvature="0" />
	<path style="fill:none;stroke:red;stroke-width:1px;stroke-linecap:butt;stroke-linejoin:miter;stroke-opacity:1" d="M 774.236,380.208 792.056,390.108 z" id="boundary" inkscape:connector-curvature="0" />
	<path style="fill:none;stroke:red;stroke-width:1px;stroke-linecap:butt;stroke-linejoin:miter;stroke-opacity:1" d="M 748.495,758.395 766.315,748.495 z" id="boundary" inkscape:connector-curvature="0" />
	<path style="fill:none;stroke:red;stroke-width:1px;stroke-linecap:butt;stroke-linejoin:miter;stroke-opacity:1" d="M 766.315,748.495 786.116,742.555 z" id="boundary" inkscape:connector-curvature="0" />
	<path style="fill:none;stroke:red;stroke-width:1px;stroke-linecap:butt;stroke-linejoin:miter;stroke-opacity:1" d="M 552.471,768.295 532.671,768.295 z" id="boundary" inkscape:connector-curvature="0" />
	<path style="fill:none;stroke:red;stroke-width:1px;stroke-linecap:butt;stroke-linejoin:miter;stroke-opacity:1" d="M 532.671,768.295 512.87,768.295 z" id="boundary" inkscape:connector-curvature="0" />
	<path style="fill:none;stroke:red;stroke-width:1px;stroke-linecap:butt;stroke-linejoin:miter;stroke-opacity:1" d="M 839.577,708.894 821.756,718.794 z" id="boundary" inkscape:connector-curvature="0" />
	<path style="fill:none;stroke:red;stroke-width:1px;stroke-linecap:butt;stroke-linejoin:miter;stroke-opacity:1" d="M 821.756,718.794 805.916,732.655 z" id="boundary" inkscape:connector-curvature="0" />
	<path style="fill:none;stroke:red;stroke-width:1px;stroke-linecap:butt;stroke-linejoin:miter;stroke-opacity:1" d="M 805.916,732.655 786.116,742.555 z" id="boundary" inkscape:connector-curvature="0" />
	<path style="fill:none;stroke:red;stroke-width:1px;stroke-linecap:butt;stroke-linejoin:miter;stroke-opacity:1" d="M 839.577,708.894 857.397,698.994 z" id="boundary" inkscape:connector-curvature="0" />
	<path style="fill:none;stroke:red;stroke-width:1px;stroke-linecap:butt;stroke-linejoin:miter;stroke-opacity:1" d="M 730.675,768.295 748.495,758.395 z" id="boundary" inkscape:connector-curvature="0" />
	<path style="fill:none;stroke:red;stroke-width:1px;stroke-linecap:butt;stroke-linejoin:miter;stroke-opacity:1" d="M 572.271,768.295 552.471,768.295 z" id="boundary" inkscape:connector-curvature="0" />
	<path style="fill:none;stroke:red;stroke-width:1px;stroke-linecap:butt;stroke-linejoin:miter;stroke-opacity:1" d="M 611.872,768.295 592.072,768.295 z" id="boundary" inkscape:connector-curvature="0" />
	<path style="fill:none;stroke:red;stroke-width:1px;stroke-linecap:butt;stroke-linejoin:miter;stroke-opacity:1" d="M 631.673,768.295 611.872,768.295 z" id="boundary" inkscape:connector-curvature="0" />
	<path style="fill:none;stroke:red;stroke-width:1px;stroke-linecap:butt;stroke-linejoin:miter;stroke-opacity:1" d="M 592.072,768.295 572.271,768.295 z" id="boundary" inkscape:connector-curvature="0" />
	<path style="fill:none;stroke:red;stroke-width:1px;stroke-linecap:butt;stroke-linejoin:miter;stroke-opacity:1" d="M 671.273,768.295 651.473,768.295 z" id="boundary" inkscape:connector-curvature="0" />
	<path style="fill:none;stroke:red;stroke-width:1px;stroke-linecap:butt;stroke-linejoin:miter;stroke-opacity:1" d="M 710.874,768.295 691.074,768.295 z" id="boundary" inkscape:connector-curvature="0" />
	<path style="fill:none;stroke:red;stroke-width:1px;stroke-linecap:butt;stroke-linejoin:miter;stroke-opacity:1" d="M 730.675,768.295 710.874,768.295 z" id="boundary" inkscape:connector-curvature="0" />
	<path style="fill:none;stroke:red;stroke-width:1px;stroke-linecap:butt;stroke-linejoin:miter;stroke-opacity:1" d="M 691.074,768.295 671.273,768.295 z" id="boundary" inkscape:connector-curvature="0" />
	<path style="fill:none;stroke:red;stroke-width:1px;stroke-linecap:butt;stroke-linejoin:miter;stroke-opacity:1" d="M 651.473,768.295 631.673,768.295 z" id="boundary" inkscape:connector-curvature="0" />
	<path style="fill:none;stroke:red;stroke-width:1px;stroke-linecap:butt;stroke-linejoin:miter;stroke-opacity:1" d="M 867.297,457.429 853.437,441.589 z" id="boundary" inkscape:connector-curvature="0" />
	<path style="fill:none;stroke:red;stroke-width:1px;stroke-linecap:butt;stroke-linejoin:miter;stroke-opacity:1" d="M 900.958,481.19 883.138,471.289 z" id="boundary" inkscape:connector-curvature="0" />
	<path style="fill:none;stroke:red;stroke-width:1px;stroke-linecap:butt;stroke-linejoin:miter;stroke-opacity:1" d="M 883.138,471.289 867.297,457.429 z" id="boundary" inkscape:connector-curvature="0" />
	<path style="fill:none;stroke:red;stroke-width:1px;stroke-linecap:butt;stroke-linejoin:miter;stroke-opacity:1" d="M 920.758,489.11 900.958,481.19 z" id="boundary" inkscape:connector-curvature="0" />
	<path style="fill:none;stroke:red;stroke-width:1px;stroke-linecap:butt;stroke-linejoin:miter;stroke-opacity:1" d="M 938.579,499.01 920.758,489.11 z" id="boundary" inkscape:connector-curvature="0" />
	<path style="fill:none;stroke:red;stroke-width:1px;stroke-linecap:butt;stroke-linejoin:miter;stroke-opacity:1" d="M 938.579,499.01 956.399,508.91 z" id="boundary" inkscape:connector-curvature="0" />
	<path style="fill:none;stroke:red;stroke-width:1px;stroke-linecap:butt;stroke-linejoin:miter;stroke-opacity:1" d="M 956.399,508.91 966.299,526.731 z" id="boundary" inkscape:connector-curvature="0" />
	<path style="fill:none;stroke:red;stroke-width:1px;stroke-linecap:butt;stroke-linejoin:miter;stroke-opacity:1" d="M 966.299,526.731 982.14,540.591 z" id="boundary" inkscape:connector-curvature="0" />
	<path style="fill:none;stroke:red;stroke-width:1px;stroke-linecap:butt;stroke-linejoin:miter;stroke-opacity:1" d="M 996,556.431 982.14,540.591 z" id="boundary" inkscape:connector-curvature="0" />
	<path style="fill:none;stroke:red;stroke-width:1px;stroke-linecap:butt;stroke-linejoin:miter;stroke-opacity:1" d="M 996,556.431 996,576.232 z" id="boundary" inkscape:connector-curvature="0" />
	<path style="fill:none;stroke:red;stroke-width:1px;stroke-linecap:butt;stroke-linejoin:miter;stroke-opacity:1" d="M 893.038,675.234 906.898,659.393 z" id="boundary" inkscape:connector-curvature="0" />
	<path style="fill:none;stroke:red;stroke-width:1px;stroke-linecap:butt;stroke-linejoin:miter;stroke-opacity:1" d="M 857.397,698.994 873.238,685.134 z" id="boundary" inkscape:connector-curvature="0" />
	<path style="fill:none;stroke:red;stroke-width:1px;stroke-linecap:butt;stroke-linejoin:miter;stroke-opacity:1" d="M 873.238,685.134 893.038,675.234 z" id="boundary" inkscape:connector-curvature="0" />
	<path style="fill:none;stroke:red;stroke-width:1px;stroke-linecap:butt;stroke-linejoin:miter;stroke-opacity:1" d="M 906.898,659.393 922.739,645.533 z" id="boundary" inkscape:connector-curvature="0" />
	<path style="fill:none;stroke:red;stroke-width:1px;stroke-linecap:butt;stroke-linejoin:miter;stroke-opacity:1" d="M 922.739,645.533 942.539,635.633 z" id="boundary" inkscape:connector-curvature="0" />
	<path style="fill:none;stroke:red;stroke-width:1px;stroke-linecap:butt;stroke-linejoin:miter;stroke-opacity:1" d="M 996,576.232 996,596.032 z" id="boundary" inkscape:connector-curvature="0" />
	<path style="fill:none;stroke:red;stroke-width:1px;stroke-linecap:butt;stroke-linejoin:miter;stroke-opacity:1" d="M 996,596.032 982.14,615.832 z" id="boundary" inkscape:connector-curvature="0" />
	<path style="fill:none;stroke:red;stroke-width:1px;stroke-linecap:butt;stroke-linejoin:miter;stroke-opacity:1" d="M 942.539,635.633 962.339,625.733 z" id="boundary" inkscape:connector-curvature="0" />
	<path style="fill:none;stroke:red;stroke-width:1px;stroke-linecap:butt;stroke-linejoin:miter;stroke-opacity:1" d="M 982.14,615.832 962.339,625.733 z" id="boundary" inkscape:connector-curvature="0" />
	<path style="fill:none;stroke:red;stroke-width:1px;stroke-linecap:butt;stroke-linejoin:miter;stroke-opacity:1" d="M 833.637,433.669 853.437,441.589 z" id="boundary" inkscape:connector-curvature="0" />
	<path style="fill:none;stroke:red;stroke-width:1px;stroke-linecap:butt;stroke-linejoin:miter;stroke-opacity:1" d="M 489.11,4 508.91,4 z" id="boundary" inkscape:connector-curvature="0" />
	<circle cx="4" cy="584.152" r="4" fill="#0" id="circle0"/>
	<circle cx="4" cy="603.952" r="4" fill="#0" id="circle1"/>
	<circle cx="4" cy="623.752" r="4" fill="#0" id="circle2"/>
	<circle cx="13.9002" cy="564.351" r="4" fill="#0" id="circle3"/>
	<circle cx="13.9002" cy="641.573" r="4" fill="#0" id="circle4"/>
	<circle cx="23.8004" cy="544.551" r="4" fill="#0" id="circle5"/>
	<circle cx="23.8004" cy="659.393" r="4" fill="#0" id="circle6"/>
	<circle cx="35.6806" cy="675.234" r="4" fill="#0" id="circle7"/>
	<circle cx="43.6008" cy="534.651" r="4" fill="#0" id="circle8"/>
	<circle cx="53.501" cy="514.85" r="4" fill="#0" id="circle9"/>
	<circle cx="53.501" cy="685.134" r="4" fill="#0" id="circle10"/>
	<circle cx="63.4012" cy="702.954" r="4" fill="#0" id="circle11"/>
	<circle cx="73.3014" cy="504.95" r="4" fill="#0" id="circle12"/>
	<circle cx="83.2016" cy="708.894" r="4" fill="#0" id="circle13"/>
	<circle cx="93.1018" cy="495.05" r="4" fill="#0" id="circle14"/>
	<circle cx="101.022" cy="718.794" r="4" fill="#0" id="circle15"/>
	<circle cx="108.942" cy="479.21" r="4" fill="#0" id="circle16"/>
	<circle cx="120.822" cy="718.794" r="4" fill="#0" id="circle17"/>
	<circle cx="126.762" cy="469.309" r="4" fill="#0" id="circle18"/>
	<circle cx="138.643" cy="728.695" r="4" fill="#0" id="circle19"/>
	<circle cx="142.603" cy="455.449" r="4" fill="#0" id="circle20"/>
	<circle cx="158.443" cy="439.609" r="4" fill="#0" id="circle21"/>
	<circle cx="158.443" cy="728.695" r="4" fill="#0" id="circle22"/>
	<circle cx="176.263" cy="429.709" r="4" fill="#0" id="circle23"/>
	<circle cx="178.244" cy="736.615" r="4" fill="#0" id="circle24"/>
	<circle cx="196.064" cy="429.709" r="4" fill="#0" id="circle25"/>
	<circle cx="198.044" cy="738.595" r="4" fill="#0" id="circle26"/>
	<circle cx="205.964" cy="411.888" r="4" fill="#0" id="circle27"/>
	<circle cx="217.844" cy="738.595" r="4" fill="#0" id="circle28"/>
	<circle cx="221.804" cy="396.048" r="4" fill="#0" id="circle29"/>
	<circle cx="237.645" cy="380.208" r="4" fill="#0" id="circle30"/>
	<circle cx="237.645" cy="746.515" r="4" fill="#0" id="circle31"/>
	<circle cx="257.445" cy="370.307" r="4" fill="#0" id="circle32"/>
	<circle cx="257.445" cy="748.495" r="4" fill="#0" id="circle33"/>
	<circle cx="277.246" cy="360.407" r="4" fill="#0" id="circle34"/>
	<circle cx="277.246" cy="748.495" r="4" fill="#0" id="circle35"/>
	<circle cx="295.066" cy="758.395" r="4" fill="#0" id="circle36"/>
	<circle cx="297.046" cy="360.407" r="4" fill="#0" id="circle37"/>
	<circle cx="314.866" cy="758.395" r="4" fill="#0" id="circle38"/>
	<circle cx="316.846" cy="350.507" r="4" fill="#0" id="circle39"/>
	<circle cx="334.667" cy="764.335" r="4" fill="#0" id="circle40"/>
	<circle cx="336.647" cy="340.607" r="4" fill="#0" id="circle41"/>
	<circle cx="354.467" cy="768.295" r="4" fill="#0" id="circle42"/>
	<circle cx="356.447" cy="340.607" r="4" fill="#0" id="circle43"/>
	<circle cx="370.307" cy="148.543" r="4" fill="#0" id="circle44"/>
	<circle cx="374.267" cy="768.295" r="4" fill="#0" id="circle45"/>
	<circle cx="376.248" cy="330.707" r="4" fill="#0" id="circle46"/>
	<circle cx="386.148" cy="132.703" r="4" fill="#0" id="circle47"/>
	<circle cx="390.108" cy="154.483" r="4" fill="#0" id="circle48"/>
	<circle cx="394.068" cy="768.295" r="4" fill="#0" id="circle49"/>
	<circle cx="396.048" cy="330.707" r="4" fill="#0" id="circle50"/>
	<circle cx="405.948" cy="132.703" r="4" fill="#0" id="circle51"/>
	<circle cx="409.908" cy="154.483" r="4" fill="#0" id="circle52"/>
	<circle cx="413.868" cy="768.295" r="4" fill="#0" id="circle53"/>
	<circle cx="415.848" cy="330.707" r="4" fill="#0" id="circle54"/>
	<circle cx="423.768" cy="122.802" r="4" fill="#0" id="circle55"/>
	<circle cx="427.729" cy="164.383" r="4" fill="#0" id="circle56"/>
	<circle cx="433.669" cy="768.295" r="4" fill="#0" id="circle57"/>
	<circle cx="435.649" cy="330.707" r="4" fill="#0" id="circle58"/>
	<circle cx="443.569" cy="122.802" r="4" fill="#0" id="circle59"/>
	<circle cx="445.549" cy="174.283" r="4" fill="#0" id="circle60"/>
	<circle cx="449.509" cy="306.946" r="4" fill="#0" id="circle61"/>
	<circle cx="453.469" cy="768.295" r="4" fill="#0" id="circle62"/>
	<circle cx="459.409" cy="29.7405" r="4" fill="#0" id="circle63"/>
	<circle cx="459.409" cy="190.124" r="4" fill="#0" id="circle64"/>
	<circle cx="459.409" cy="247.545" r="4" fill="#0" id="circle65"/>
	<circle cx="459.409" cy="267.345" r="4" fill="#0" id="circle66"/>
	<circle cx="459.409" cy="287.146" r="4" fill="#0" id="circle67"/>
	<circle cx="463.369" cy="114.882" r="4" fill="#0" id="circle68"/>
	<circle cx="469.309" cy="9.94012" r="4" fill="#0" id="circle69"/>
	<circle cx="469.309" cy="47.5609" r="4" fill="#0" id="circle70"/>
	<circle cx="469.309" cy="67.3613" r="4" fill="#0" id="circle71"/>
	<circle cx="469.309" cy="87.1617" r="4" fill="#0" id="circle72"/>
	<circle cx="469.309" cy="207.944" r="4" fill="#0" id="circle73"/>
	<circle cx="469.309" cy="227.745" r="4" fill="#0" id="circle74"/>
	<circle cx="473.269" cy="768.295" r="4" fill="#0" id="circle75"/>
	<circle cx="489.11" cy="4" r="4" fill="#0" id="circle76"/>
	<circle cx="493.07" cy="768.295" r="4" fill="#0" id="circle77"/>
	<circle cx="508.91" cy="4" r="4" fill="#0" id="circle78"/>
	<circle cx="512.87" cy="768.295" r="4" fill="#0" id="circle79"/>
	<circle cx="520.79" cy="19.8403" r="4" fill="#0" id="circle80"/>
	<circle cx="520.79" cy="39.6407" r="4" fill="#0" id="circle81"/>
	<circle cx="530.691" cy="57.4611" r="4" fill="#0" id="circle82"/>
	<circle cx="530.691" cy="77.2615" r="4" fill="#0" id="circle83"/>
	<circle cx="532.671" cy="768.295" r="4" fill="#0" id="circle84"/>
	<circle cx="536.631" cy="97.0619" r="4" fill="#0" id="circle85"/>
	<circle cx="540.591" cy="194.084" r="4" fill="#0" id="circle86"/>
	<circle cx="540.591" cy="213.884" r="4" fill="#0" id="circle87"/>
	<circle cx="540.591" cy="233.685" r="4" fill="#0" id="circle88"/>
	<circle cx="540.591" cy="253.485" r="4" fill="#0" id="circle89"/>
	<circle cx="540.591" cy="273.285" r="4" fill="#0" id="circle90"/>
	<circle cx="540.591" cy="293.086" r="4" fill="#0" id="circle91"/>
	<circle cx="540.591" cy="312.886" r="4" fill="#0" id="circle92"/>
	<circle cx="544.551" cy="332.687" r="4" fill="#0" id="circle93"/>
	<circle cx="546.531" cy="114.882" r="4" fill="#0" id="circle94"/>
	<circle cx="552.471" cy="768.295" r="4" fill="#0" id="circle95"/>
	<circle cx="560.391" cy="184.184" r="4" fill="#0" id="circle96"/>
	<circle cx="564.351" cy="340.607" r="4" fill="#0" id="circle97"/>
	<circle cx="566.331" cy="122.802" r="4" fill="#0" id="circle98"/>
	<circle cx="572.271" cy="768.295" r="4" fill="#0" id="circle99"/>
	<circle cx="580.192" cy="174.283" r="4" fill="#0" id="circle100"/>
	<circle cx="584.152" cy="340.607" r="4" fill="#0" id="circle101"/>
	<circle cx="586.132" cy="122.802" r="4" fill="#0" id="circle102"/>
	<circle cx="592.072" cy="768.295" r="4" fill="#0" id="circle103"/>
	<circle cx="599.992" cy="164.383" r="4" fill="#0" id="circle104"/>
	<circle cx="603.952" cy="340.607" r="4" fill="#0" id="circle105"/>
	<circle cx="605.932" cy="124.782" r="4" fill="#0" id="circle106"/>
	<circle cx="611.872" cy="768.295" r="4" fill="#0" id="circle107"/>
	<circle cx="619.792" cy="164.383" r="4" fill="#0" id="circle108"/>
	<circle cx="621.772" cy="350.507" r="4" fill="#0" id="circle109"/>
	<circle cx="623.752" cy="134.683" r="4" fill="#0" id="circle110"/>
	<circle cx="631.673" cy="768.295" r="4" fill="#0" id="circle111"/>
	<circle cx="635.633" cy="150.523" r="4" fill="#0" id="circle112"/>
	<circle cx="641.573" cy="350.507" r="4" fill="#0" id="circle113"/>
	<circle cx="651.473" cy="768.295" r="4" fill="#0" id="circle114"/>
	<circle cx="661.373" cy="350.507" r="4" fill="#0" id="circle115"/>
	<circle cx="671.273" cy="768.295" r="4" fill="#0" id="circle116"/>
	<circle cx="679.194" cy="360.407" r="4" fill="#0" id="circle117"/>
	<circle cx="691.074" cy="768.295" r="4" fill="#0" id="circle118"/>
	<circle cx="698.994" cy="360.407" r="4" fill="#0" id="circle119"/>
	<circle cx="710.874" cy="768.295" r="4" fill="#0" id="circle120"/>
	<circle cx="716.814" cy="370.307" r="4" fill="#0" id="circle121"/>
	<circle cx="730.675" cy="768.295" r="4" fill="#0" id="circle122"/>
	<circle cx="736.615" cy="370.307" r="4" fill="#0" id="circle123"/>
	<circle cx="748.495" cy="758.395" r="4" fill="#0" id="circle124"/>
	<circle cx="756.415" cy="370.307" r="4" fill="#0" id="circle125"/>
	<circle cx="766.315" cy="748.495" r="4" fill="#0" id="circle126"/>
	<circle cx="774.236" cy="380.208" r="4" fill="#0" id="circle127"/>
	<circle cx="786.116" cy="742.555" r="4" fill="#0" id="circle128"/>
	<circle cx="792.056" cy="390.108" r="4" fill="#0" id="circle129"/>
	<circle cx="805.916" cy="405.948" r="4" fill="#0" id="circle130"/>
	<circle cx="805.916" cy="732.655" r="4" fill="#0" id="circle131"/>
	<circle cx="815.816" cy="423.768" r="4" fill="#0" id="circle132"/>
	<circle cx="821.756" cy="718.794" r="4" fill="#0" id="circle133"/>
	<circle cx="833.637" cy="433.669" r="4" fill="#0" id="circle134"/>
	<circle cx="839.577" cy="708.894" r="4" fill="#0" id="circle135"/>
	<circle cx="853.437" cy="441.589" r="4" fill="#0" id="circle136"/>
	<circle cx="857.397" cy="698.994" r="4" fill="#0" id="circle137"/>
	<circle cx="867.297" cy="457.429" r="4" fill="#0" id="circle138"/>
	<circle cx="873.238" cy="685.134" r="4" fill="#0" id="circle139"/>
	<circle cx="883.138" cy="471.289" r="4" fill="#0" id="circle140"/>
	<circle cx="893.038" cy="675.234" r="4" fill="#0" id="circle141"/>
	<circle cx="900.958" cy="481.19" r="4" fill="#0" id="circle142"/>
	<circle cx="906.898" cy="659.393" r="4" fill="#0" id="circle143"/>
	<circle cx="920.758" cy="489.11" r="4" fill="#0" id="circle144"/>
	<circle cx="922.739" cy="645.533" r="4" fill="#0" id="circle145"/>
	<circle cx="938.579" cy="499.01" r="4" fill="#0" id="circle146"/>
	<circle cx="942.539" cy="635.633" r="4" fill="#0" id="circle147"/>
	<circle cx="956.399" cy="508.91" r="4" fill="#0" id="circle148"/>
	<circle cx="962.339" cy="625.733" r="4" fill="#0" id="circle149"/>
	<circle cx="966.299" cy="526.731" r="4" fill="#0" id="circle150"/>
	<circle cx="982.14" cy="540.591" r="4" fill="#0" id="circle151"/>
	<circle cx="982.14" cy="615.832" r="4" fill="#0" id="circle152"/>
	<circle cx="996" cy="556.431" r="4" fill="#0" id="circle153"/>
	<circle cx="996" cy="576.232" r="4" fill="#0" id="circle154"/>
	<circle cx="996" cy="596.032" r="4" fill="#0" id="circle155"/>
	</g>
</svg>