<?xml version="1.0" encoding="UTF-8" standalone="no"?>
<!-- Created with CurveBenchmark -->
<svg
	xmlns:dc="http://purl.org/dc/elements/1.1/"
	xmlns:cc="http://creativecommons.org/ns#"
	xmlns:rdf="http://www.w3.org/1999/02/22-rdf-syntax-ns#"
	xmlns:svg="http://www.w3.org/2000/svg"
	xmlns="http://www.w3.org/2000/svg"
	xmlns:sodipodi="http://sodipodi.sourceforge.net/DTD/sodipodi-0.dtd"
	xmlns:inkscape="http://www.inkscape.org/namespaces/inkscape"
	width="1000"
	height="1000"
	id="svg2"
	version="1.1"
	sodipodi:docname="manifold/ccrust-phantomocc4.png.txt">
<defs
	id="defs4" />
<metadata
	id="metadata7">
	<rdf:RDF>
		<cc:Work
			rdf:about="">
			<dc:format>image/svg+xml</dc:format>
			<dc:type
				rdf:resource="http://purl.org/dc/dcmitype/StillImage" />
			<dc:title></dc:title>
		</cc:Work>
	</rdf:RDF>
</metadata>
<g
	inkscape:label="Layer 1"
	inkscape:groupmode="layer"
	id="layer1">
	<path style="fill:none;stroke:red;stroke-width:1px;stroke-linecap:butt;stroke-linejoin:miter;stroke-opacity:1" d="M 110.932,18.806 102.706,4 z" id="boundary" inkscape:connector-curvature="0" />
	<path style="fill:none;stroke:red;stroke-width:1px;stroke-linecap:butt;stroke-linejoin:miter;stroke-opacity:1" d="M 124.093,7.29022 110.932,18.806 z" id="boundary" inkscape:connector-curvature="0" />
	<path style="fill:none;stroke:red;stroke-width:1px;stroke-linecap:butt;stroke-linejoin:miter;stroke-opacity:1" d="M 138.899,15.5158 124.093,7.29022 z" id="boundary" inkscape:connector-curvature="0" />
	<path style="fill:none;stroke:red;stroke-width:1px;stroke-linecap:butt;stroke-linejoin:miter;stroke-opacity:1" d="M 155.35,15.5158 138.899,15.5158 z" id="boundary" inkscape:connector-curvature="0" />
	<path style="fill:none;stroke:red;stroke-width:1px;stroke-linecap:butt;stroke-linejoin:miter;stroke-opacity:1" d="M 110.932,18.806 122.448,31.9668 z" id="boundary" inkscape:connector-curvature="0" />
	<path style="fill:none;stroke:red;stroke-width:1px;stroke-linecap:butt;stroke-linejoin:miter;stroke-opacity:1" d="M 135.609,41.8375 143.834,56.6434 z" id="boundary" inkscape:connector-curvature="0" />
	<path style="fill:none;stroke:red;stroke-width:1px;stroke-linecap:butt;stroke-linejoin:miter;stroke-opacity:1" d="M 122.448,31.9668 135.609,41.8375 z" id="boundary" inkscape:connector-curvature="0" />
	<path style="fill:none;stroke:red;stroke-width:1px;stroke-linecap:butt;stroke-linejoin:miter;stroke-opacity:1" d="M 153.705,69.8043 143.834,56.6434 z" id="boundary" inkscape:connector-curvature="0" />
	<path style="fill:none;stroke:red;stroke-width:1px;stroke-linecap:butt;stroke-linejoin:miter;stroke-opacity:1" d="M 170.156,23.7413 155.35,15.5158 z" id="boundary" inkscape:connector-curvature="0" />
	<path style="fill:none;stroke:red;stroke-width:1px;stroke-linecap:butt;stroke-linejoin:miter;stroke-opacity:1" d="M 186.607,28.6766 170.156,23.7413 z" id="boundary" inkscape:connector-curvature="0" />
	<path style="fill:none;stroke:red;stroke-width:1px;stroke-linecap:butt;stroke-linejoin:miter;stroke-opacity:1" d="M 186.607,28.6766 203.058,31.9668 z" id="boundary" inkscape:connector-curvature="0" />
	<path style="fill:none;stroke:red;stroke-width:1px;stroke-linecap:butt;stroke-linejoin:miter;stroke-opacity:1" d="M 217.864,40.1924 203.058,31.9668 z" id="boundary" inkscape:connector-curvature="0" />
	<path style="fill:none;stroke:red;stroke-width:1px;stroke-linecap:butt;stroke-linejoin:miter;stroke-opacity:1" d="M 153.705,69.8043 165.221,82.9652 z" id="boundary" inkscape:connector-curvature="0" />
	<path style="fill:none;stroke:red;stroke-width:1px;stroke-linecap:butt;stroke-linejoin:miter;stroke-opacity:1" d="M 170.156,101.061 165.221,82.9652 z" id="boundary" inkscape:connector-curvature="0" />
	<path style="fill:none;stroke:red;stroke-width:1px;stroke-linecap:butt;stroke-linejoin:miter;stroke-opacity:1" d="M 231.025,50.063 217.864,40.1924 z" id="boundary" inkscape:connector-curvature="0" />
	<path style="fill:none;stroke:red;stroke-width:1px;stroke-linecap:butt;stroke-linejoin:miter;stroke-opacity:1" d="M 170.156,101.061 153.705,109.287 z" id="boundary" inkscape:connector-curvature="0" />
	<path style="fill:none;stroke:red;stroke-width:1px;stroke-linecap:butt;stroke-linejoin:miter;stroke-opacity:1" d="M 110.932,143.834 119.158,158.64 z" id="boundary" inkscape:connector-curvature="0" />
	<path style="fill:none;stroke:red;stroke-width:1px;stroke-linecap:butt;stroke-linejoin:miter;stroke-opacity:1" d="M 110.932,143.834 124.093,130.673 z" id="boundary" inkscape:connector-curvature="0" />
	<path style="fill:none;stroke:red;stroke-width:1px;stroke-linecap:butt;stroke-linejoin:miter;stroke-opacity:1" d="M 127.383,173.446 119.158,158.64 z" id="boundary" inkscape:connector-curvature="0" />
	<path style="fill:none;stroke:red;stroke-width:1px;stroke-linecap:butt;stroke-linejoin:miter;stroke-opacity:1" d="M 137.254,117.512 124.093,130.673 z" id="boundary" inkscape:connector-curvature="0" />
	<path style="fill:none;stroke:red;stroke-width:1px;stroke-linecap:butt;stroke-linejoin:miter;stroke-opacity:1" d="M 17.1609,459.695 33.6119,459.695 z" id="boundary" inkscape:connector-curvature="0" />
	<path style="fill:none;stroke:red;stroke-width:1px;stroke-linecap:butt;stroke-linejoin:miter;stroke-opacity:1" d="M 127.383,173.446 137.254,186.607 z" id="boundary" inkscape:connector-curvature="0" />
	<path style="fill:none;stroke:red;stroke-width:1px;stroke-linecap:butt;stroke-linejoin:miter;stroke-opacity:1" d="M 48.4179,467.92 33.6119,459.695 z" id="boundary" inkscape:connector-curvature="0" />
	<path style="fill:none;stroke:red;stroke-width:1px;stroke-linecap:butt;stroke-linejoin:miter;stroke-opacity:1" d="M 64.869,467.92 48.4179,467.92 z" id="boundary" inkscape:connector-curvature="0" />
	<path style="fill:none;stroke:red;stroke-width:1px;stroke-linecap:butt;stroke-linejoin:miter;stroke-opacity:1" d="M 137.254,117.512 153.705,109.287 z" id="boundary" inkscape:connector-curvature="0" />
	<path style="fill:none;stroke:red;stroke-width:1px;stroke-linecap:butt;stroke-linejoin:miter;stroke-opacity:1" d="M 153.705,193.187 137.254,186.607 z" id="boundary" inkscape:connector-curvature="0" />
	<path style="fill:none;stroke:red;stroke-width:1px;stroke-linecap:butt;stroke-linejoin:miter;stroke-opacity:1" d="M 153.705,193.187 165.221,206.348 z" id="boundary" inkscape:connector-curvature="0" />
	<path style="fill:none;stroke:red;stroke-width:1px;stroke-linecap:butt;stroke-linejoin:miter;stroke-opacity:1" d="M 176.736,219.509 184.962,234.315 z" id="boundary" inkscape:connector-curvature="0" />
	<path style="fill:none;stroke:red;stroke-width:1px;stroke-linecap:butt;stroke-linejoin:miter;stroke-opacity:1" d="M 165.221,206.348 176.736,219.509 z" id="boundary" inkscape:connector-curvature="0" />
	<path style="fill:none;stroke:red;stroke-width:1px;stroke-linecap:butt;stroke-linejoin:miter;stroke-opacity:1" d="M 198.123,245.831 184.962,234.315 z" id="boundary" inkscape:connector-curvature="0" />
	<path style="fill:none;stroke:red;stroke-width:1px;stroke-linecap:butt;stroke-linejoin:miter;stroke-opacity:1" d="M 212.929,254.056 198.123,245.831 z" id="boundary" inkscape:connector-curvature="0" />
	<path style="fill:none;stroke:red;stroke-width:1px;stroke-linecap:butt;stroke-linejoin:miter;stroke-opacity:1" d="M 17.1609,459.695 4,472.856 z" id="boundary" inkscape:connector-curvature="0" />
	<path style="fill:none;stroke:red;stroke-width:1px;stroke-linecap:butt;stroke-linejoin:miter;stroke-opacity:1" d="M 250.766,78.0299 239.25,64.869 z" id="boundary" inkscape:connector-curvature="0" />
	<path style="fill:none;stroke:red;stroke-width:1px;stroke-linecap:butt;stroke-linejoin:miter;stroke-opacity:1" d="M 239.25,64.869 231.025,50.063 z" id="boundary" inkscape:connector-curvature="0" />
	<path style="fill:none;stroke:red;stroke-width:1px;stroke-linecap:butt;stroke-linejoin:miter;stroke-opacity:1" d="M 263.927,89.5456 250.766,78.0299 z" id="boundary" inkscape:connector-curvature="0" />
	<path style="fill:none;stroke:red;stroke-width:1px;stroke-linecap:butt;stroke-linejoin:miter;stroke-opacity:1" d="M 263.927,89.5456 275.443,102.706 z" id="boundary" inkscape:connector-curvature="0" />
	<path style="fill:none;stroke:red;stroke-width:1px;stroke-linecap:butt;stroke-linejoin:miter;stroke-opacity:1" d="M 291.894,105.997 275.443,102.706 z" id="boundary" inkscape:connector-curvature="0" />
	<path style="fill:none;stroke:red;stroke-width:1px;stroke-linecap:butt;stroke-linejoin:miter;stroke-opacity:1" d="M 291.894,105.997 308.345,109.287 z" id="boundary" inkscape:connector-curvature="0" />
	<path style="fill:none;stroke:red;stroke-width:1px;stroke-linecap:butt;stroke-linejoin:miter;stroke-opacity:1" d="M 226.09,263.927 212.929,254.056 z" id="boundary" inkscape:connector-curvature="0" />
	<path style="fill:none;stroke:red;stroke-width:1px;stroke-linecap:butt;stroke-linejoin:miter;stroke-opacity:1" d="M 324.796,114.222 341.247,114.222 z" id="boundary" inkscape:connector-curvature="0" />
	<path style="fill:none;stroke:red;stroke-width:1px;stroke-linecap:butt;stroke-linejoin:miter;stroke-opacity:1" d="M 341.247,114.222 356.053,122.448 z" id="boundary" inkscape:connector-curvature="0" />
	<path style="fill:none;stroke:red;stroke-width:1px;stroke-linecap:butt;stroke-linejoin:miter;stroke-opacity:1" d="M 324.796,114.222 308.345,109.287 z" id="boundary" inkscape:connector-curvature="0" />
	<path style="fill:none;stroke:red;stroke-width:1px;stroke-linecap:butt;stroke-linejoin:miter;stroke-opacity:1" d="M 420.212,130.673 435.018,122.448 z" id="boundary" inkscape:connector-curvature="0" />
	<path style="fill:none;stroke:red;stroke-width:1px;stroke-linecap:butt;stroke-linejoin:miter;stroke-opacity:1" d="M 461.34,97.7711 448.179,110.932 z" id="boundary" inkscape:connector-curvature="0" />
	<path style="fill:none;stroke:red;stroke-width:1px;stroke-linecap:butt;stroke-linejoin:miter;stroke-opacity:1" d="M 356.053,122.448 370.859,130.673 z" id="boundary" inkscape:connector-curvature="0" />
	<path style="fill:none;stroke:red;stroke-width:1px;stroke-linecap:butt;stroke-linejoin:miter;stroke-opacity:1" d="M 387.31,130.673 370.859,130.673 z" id="boundary" inkscape:connector-curvature="0" />
	<path style="fill:none;stroke:red;stroke-width:1px;stroke-linecap:butt;stroke-linejoin:miter;stroke-opacity:1" d="M 448.179,110.932 435.018,122.448 z" id="boundary" inkscape:connector-curvature="0" />
	<path style="fill:none;stroke:red;stroke-width:1px;stroke-linecap:butt;stroke-linejoin:miter;stroke-opacity:1" d="M 403.761,130.673 387.31,130.673 z" id="boundary" inkscape:connector-curvature="0" />
	<path style="fill:none;stroke:red;stroke-width:1px;stroke-linecap:butt;stroke-linejoin:miter;stroke-opacity:1" d="M 477.791,89.5456 461.34,97.7711 z" id="boundary" inkscape:connector-curvature="0" />
	<path style="fill:none;stroke:red;stroke-width:1px;stroke-linecap:butt;stroke-linejoin:miter;stroke-opacity:1" d="M 235.96,277.088 226.09,263.927 z" id="boundary" inkscape:connector-curvature="0" />
	<path style="fill:none;stroke:red;stroke-width:1px;stroke-linecap:butt;stroke-linejoin:miter;stroke-opacity:1" d="M 249.121,288.604 235.96,277.088 z" id="boundary" inkscape:connector-curvature="0" />
	<path style="fill:none;stroke:red;stroke-width:1px;stroke-linecap:butt;stroke-linejoin:miter;stroke-opacity:1" d="M 260.637,301.765 249.121,288.604 z" id="boundary" inkscape:connector-curvature="0" />
	<path style="fill:none;stroke:red;stroke-width:1px;stroke-linecap:butt;stroke-linejoin:miter;stroke-opacity:1" d="M 234.315,448.179 234.315,431.728 z" id="boundary" inkscape:connector-curvature="0" />
	<path style="fill:none;stroke:red;stroke-width:1px;stroke-linecap:butt;stroke-linejoin:miter;stroke-opacity:1" d="M 234.315,431.728 247.476,418.567 z" id="boundary" inkscape:connector-curvature="0" />
	<path style="fill:none;stroke:red;stroke-width:1px;stroke-linecap:butt;stroke-linejoin:miter;stroke-opacity:1" d="M 247.476,418.567 260.637,405.406 z" id="boundary" inkscape:connector-curvature="0" />
	<path style="fill:none;stroke:red;stroke-width:1px;stroke-linecap:butt;stroke-linejoin:miter;stroke-opacity:1" d="M 260.637,301.765 268.862,316.57 z" id="boundary" inkscape:connector-curvature="0" />
	<path style="fill:none;stroke:red;stroke-width:1px;stroke-linecap:butt;stroke-linejoin:miter;stroke-opacity:1" d="M 268.862,316.57 280.378,329.731 z" id="boundary" inkscape:connector-curvature="0" />
	<path style="fill:none;stroke:red;stroke-width:1px;stroke-linecap:butt;stroke-linejoin:miter;stroke-opacity:1" d="M 291.894,342.892 280.378,329.731 z" id="boundary" inkscape:connector-curvature="0" />
	<path style="fill:none;stroke:red;stroke-width:1px;stroke-linecap:butt;stroke-linejoin:miter;stroke-opacity:1" d="M 420.212,130.673 403.761,130.673 z" id="boundary" inkscape:connector-curvature="0" />
	<path style="fill:none;stroke:red;stroke-width:1px;stroke-linecap:butt;stroke-linejoin:miter;stroke-opacity:1" d="M 260.637,405.406 273.798,393.891 z" id="boundary" inkscape:connector-curvature="0" />
	<path style="fill:none;stroke:red;stroke-width:1px;stroke-linecap:butt;stroke-linejoin:miter;stroke-opacity:1" d="M 285.313,380.73 273.798,393.891 z" id="boundary" inkscape:connector-curvature="0" />
	<path style="fill:none;stroke:red;stroke-width:1px;stroke-linecap:butt;stroke-linejoin:miter;stroke-opacity:1" d="M 291.894,359.343 285.313,380.73 z" id="boundary" inkscape:connector-curvature="0" />
	<path style="fill:none;stroke:red;stroke-width:1px;stroke-linecap:butt;stroke-linejoin:miter;stroke-opacity:1" d="M 291.894,359.343 291.894,342.892 z" id="boundary" inkscape:connector-curvature="0" />
	<path style="fill:none;stroke:red;stroke-width:1px;stroke-linecap:butt;stroke-linejoin:miter;stroke-opacity:1" d="M 4,489.307 4,472.856 z" id="boundary" inkscape:connector-curvature="0" />
	<path style="fill:none;stroke:red;stroke-width:1px;stroke-linecap:butt;stroke-linejoin:miter;stroke-opacity:1" d="M 64.869,467.92 79.675,476.146 z" id="boundary" inkscape:connector-curvature="0" />
	<path style="fill:none;stroke:red;stroke-width:1px;stroke-linecap:butt;stroke-linejoin:miter;stroke-opacity:1" d="M 12.2255,504.113 4,489.307 z" id="boundary" inkscape:connector-curvature="0" />
	<path style="fill:none;stroke:red;stroke-width:1px;stroke-linecap:butt;stroke-linejoin:miter;stroke-opacity:1" d="M 12.2255,504.113 23.7413,517.274 z" id="boundary" inkscape:connector-curvature="0" />
	<path style="fill:none;stroke:red;stroke-width:1px;stroke-linecap:butt;stroke-linejoin:miter;stroke-opacity:1" d="M 23.7413,517.274 31.9668,532.08 z" id="boundary" inkscape:connector-curvature="0" />
	<path style="fill:none;stroke:red;stroke-width:1px;stroke-linecap:butt;stroke-linejoin:miter;stroke-opacity:1" d="M 31.9668,532.08 45.1277,543.595 z" id="boundary" inkscape:connector-curvature="0" />
	<path style="fill:none;stroke:red;stroke-width:1px;stroke-linecap:butt;stroke-linejoin:miter;stroke-opacity:1" d="M 45.1277,543.595 50.063,560.046 z" id="boundary" inkscape:connector-curvature="0" />
	<path style="fill:none;stroke:red;stroke-width:1px;stroke-linecap:butt;stroke-linejoin:miter;stroke-opacity:1" d="M 79.675,476.146 96.126,476.146 z" id="boundary" inkscape:connector-curvature="0" />
	<path style="fill:none;stroke:red;stroke-width:1px;stroke-linecap:butt;stroke-linejoin:miter;stroke-opacity:1" d="M 96.126,476.146 110.932,484.371 z" id="boundary" inkscape:connector-curvature="0" />
	<path style="fill:none;stroke:red;stroke-width:1px;stroke-linecap:butt;stroke-linejoin:miter;stroke-opacity:1" d="M 110.932,484.371 127.383,484.371 z" id="boundary" inkscape:connector-curvature="0" />
	<path style="fill:none;stroke:red;stroke-width:1px;stroke-linecap:butt;stroke-linejoin:miter;stroke-opacity:1" d="M 127.383,484.371 142.189,492.597 z" id="boundary" inkscape:connector-curvature="0" />
	<path style="fill:none;stroke:red;stroke-width:1px;stroke-linecap:butt;stroke-linejoin:miter;stroke-opacity:1" d="M 158.64,492.597 142.189,492.597 z" id="boundary" inkscape:connector-curvature="0" />
	<path style="fill:none;stroke:red;stroke-width:1px;stroke-linecap:butt;stroke-linejoin:miter;stroke-opacity:1" d="M 158.64,492.597 175.091,494.242 z" id="boundary" inkscape:connector-curvature="0" />
	<path style="fill:none;stroke:red;stroke-width:1px;stroke-linecap:butt;stroke-linejoin:miter;stroke-opacity:1" d="M 191.542,500.823 175.091,494.242 z" id="boundary" inkscape:connector-curvature="0" />
	<path style="fill:none;stroke:red;stroke-width:1px;stroke-linecap:butt;stroke-linejoin:miter;stroke-opacity:1" d="M 206.348,492.597 191.542,500.823 z" id="boundary" inkscape:connector-curvature="0" />
	<path style="fill:none;stroke:red;stroke-width:1px;stroke-linecap:butt;stroke-linejoin:miter;stroke-opacity:1" d="M 50.063,560.046 61.5788,573.207 z" id="boundary" inkscape:connector-curvature="0" />
	<path style="fill:none;stroke:red;stroke-width:1px;stroke-linecap:butt;stroke-linejoin:miter;stroke-opacity:1" d="M 61.5788,573.207 69.8043,588.013 z" id="boundary" inkscape:connector-curvature="0" />
	<path style="fill:none;stroke:red;stroke-width:1px;stroke-linecap:butt;stroke-linejoin:miter;stroke-opacity:1" d="M 78.0299,602.819 69.8043,588.013 z" id="boundary" inkscape:connector-curvature="0" />
	<path style="fill:none;stroke:red;stroke-width:1px;stroke-linecap:butt;stroke-linejoin:miter;stroke-opacity:1" d="M 78.0299,602.819 78.0299,619.27 z" id="boundary" inkscape:connector-curvature="0" />
	<path style="fill:none;stroke:red;stroke-width:1px;stroke-linecap:butt;stroke-linejoin:miter;stroke-opacity:1" d="M 78.0299,619.27 94.4809,625.851 z" id="boundary" inkscape:connector-curvature="0" />
	<path style="fill:none;stroke:red;stroke-width:1px;stroke-linecap:butt;stroke-linejoin:miter;stroke-opacity:1" d="M 94.4809,625.851 104.352,639.012 z" id="boundary" inkscape:connector-curvature="0" />
	<path style="fill:none;stroke:red;stroke-width:1px;stroke-linecap:butt;stroke-linejoin:miter;stroke-opacity:1" d="M 104.352,639.012 112.577,653.818 z" id="boundary" inkscape:connector-curvature="0" />
	<path style="fill:none;stroke:red;stroke-width:1px;stroke-linecap:butt;stroke-linejoin:miter;stroke-opacity:1" d="M 112.577,653.818 119.158,670.269 z" id="boundary" inkscape:connector-curvature="0" />
	<path style="fill:none;stroke:red;stroke-width:1px;stroke-linecap:butt;stroke-linejoin:miter;stroke-opacity:1" d="M 119.158,670.269 127.383,685.075 z" id="boundary" inkscape:connector-curvature="0" />
	<path style="fill:none;stroke:red;stroke-width:1px;stroke-linecap:butt;stroke-linejoin:miter;stroke-opacity:1" d="M 135.609,699.881 127.383,685.075 z" id="boundary" inkscape:connector-curvature="0" />
	<path style="fill:none;stroke:red;stroke-width:1px;stroke-linecap:butt;stroke-linejoin:miter;stroke-opacity:1" d="M 135.609,699.881 143.834,714.687 z" id="boundary" inkscape:connector-curvature="0" />
	<path style="fill:none;stroke:red;stroke-width:1px;stroke-linecap:butt;stroke-linejoin:miter;stroke-opacity:1" d="M 153.705,727.847 143.834,714.687 z" id="boundary" inkscape:connector-curvature="0" />
	<path style="fill:none;stroke:red;stroke-width:1px;stroke-linecap:butt;stroke-linejoin:miter;stroke-opacity:1" d="M 165.221,741.008 153.705,727.847 z" id="boundary" inkscape:connector-curvature="0" />
	<path style="fill:none;stroke:red;stroke-width:1px;stroke-linecap:butt;stroke-linejoin:miter;stroke-opacity:1" d="M 180.027,749.234 186.607,732.783 z" id="boundary" inkscape:connector-curvature="0" />
	<path style="fill:none;stroke:red;stroke-width:1px;stroke-linecap:butt;stroke-linejoin:miter;stroke-opacity:1" d="M 180.027,749.234 165.221,741.008 z" id="boundary" inkscape:connector-curvature="0" />
	<path style="fill:none;stroke:red;stroke-width:1px;stroke-linecap:butt;stroke-linejoin:miter;stroke-opacity:1" d="M 194.833,708.106 186.607,732.783 z" id="boundary" inkscape:connector-curvature="0" />
	<path style="fill:none;stroke:red;stroke-width:1px;stroke-linecap:butt;stroke-linejoin:miter;stroke-opacity:1" d="M 206.348,492.597 219.509,479.436 z" id="boundary" inkscape:connector-curvature="0" />
	<path style="fill:none;stroke:red;stroke-width:1px;stroke-linecap:butt;stroke-linejoin:miter;stroke-opacity:1" d="M 219.509,479.436 232.67,467.92 z" id="boundary" inkscape:connector-curvature="0" />
	<path style="fill:none;stroke:red;stroke-width:1px;stroke-linecap:butt;stroke-linejoin:miter;stroke-opacity:1" d="M 273.798,535.37 257.347,535.37 z" id="boundary" inkscape:connector-curvature="0" />
	<path style="fill:none;stroke:red;stroke-width:1px;stroke-linecap:butt;stroke-linejoin:miter;stroke-opacity:1" d="M 257.347,535.37 242.541,543.595 z" id="boundary" inkscape:connector-curvature="0" />
	<path style="fill:none;stroke:red;stroke-width:1px;stroke-linecap:butt;stroke-linejoin:miter;stroke-opacity:1" d="M 290.249,535.37 305.055,543.595 z" id="boundary" inkscape:connector-curvature="0" />
	<path style="fill:none;stroke:red;stroke-width:1px;stroke-linecap:butt;stroke-linejoin:miter;stroke-opacity:1" d="M 273.798,535.37 290.249,535.37 z" id="boundary" inkscape:connector-curvature="0" />
	<path style="fill:none;stroke:red;stroke-width:1px;stroke-linecap:butt;stroke-linejoin:miter;stroke-opacity:1" d="M 319.861,535.37 305.055,543.595 z" id="boundary" inkscape:connector-curvature="0" />
	<path style="fill:none;stroke:red;stroke-width:1px;stroke-linecap:butt;stroke-linejoin:miter;stroke-opacity:1" d="M 242.541,543.595 227.735,551.821 z" id="boundary" inkscape:connector-curvature="0" />
	<path style="fill:none;stroke:red;stroke-width:1px;stroke-linecap:butt;stroke-linejoin:miter;stroke-opacity:1" d="M 351.118,527.144 334.667,527.144 z" id="boundary" inkscape:connector-curvature="0" />
	<path style="fill:none;stroke:red;stroke-width:1px;stroke-linecap:butt;stroke-linejoin:miter;stroke-opacity:1" d="M 365.924,518.919 351.118,527.144 z" id="boundary" inkscape:connector-curvature="0" />
	<path style="fill:none;stroke:red;stroke-width:1px;stroke-linecap:butt;stroke-linejoin:miter;stroke-opacity:1" d="M 232.67,467.92 234.315,448.179 z" id="boundary" inkscape:connector-curvature="0" />
	<path style="fill:none;stroke:red;stroke-width:1px;stroke-linecap:butt;stroke-linejoin:miter;stroke-opacity:1" d="M 365.924,518.919 382.375,518.919 z" id="boundary" inkscape:connector-curvature="0" />
	<path style="fill:none;stroke:red;stroke-width:1px;stroke-linecap:butt;stroke-linejoin:miter;stroke-opacity:1" d="M 382.375,518.919 398.826,518.919 z" id="boundary" inkscape:connector-curvature="0" />
	<path style="fill:none;stroke:red;stroke-width:1px;stroke-linecap:butt;stroke-linejoin:miter;stroke-opacity:1" d="M 398.826,518.919 413.632,527.144 z" id="boundary" inkscape:connector-curvature="0" />
	<path style="fill:none;stroke:red;stroke-width:1px;stroke-linecap:butt;stroke-linejoin:miter;stroke-opacity:1" d="M 319.861,535.37 334.667,527.144 z" id="boundary" inkscape:connector-curvature="0" />
	<path style="fill:none;stroke:red;stroke-width:1px;stroke-linecap:butt;stroke-linejoin:miter;stroke-opacity:1" d="M 423.502,540.305 413.632,527.144 z" id="boundary" inkscape:connector-curvature="0" />
	<path style="fill:none;stroke:red;stroke-width:1px;stroke-linecap:butt;stroke-linejoin:miter;stroke-opacity:1" d="M 423.502,540.305 425.148,556.756 z" id="boundary" inkscape:connector-curvature="0" />
	<path style="fill:none;stroke:red;stroke-width:1px;stroke-linecap:butt;stroke-linejoin:miter;stroke-opacity:1" d="M 211.284,617.625 211.284,634.076 z" id="boundary" inkscape:connector-curvature="0" />
	<path style="fill:none;stroke:red;stroke-width:1px;stroke-linecap:butt;stroke-linejoin:miter;stroke-opacity:1" d="M 211.284,617.625 211.284,601.174 z" id="boundary" inkscape:connector-curvature="0" />
	<path style="fill:none;stroke:red;stroke-width:1px;stroke-linecap:butt;stroke-linejoin:miter;stroke-opacity:1" d="M 211.284,601.174 219.509,584.723 z" id="boundary" inkscape:connector-curvature="0" />
	<path style="fill:none;stroke:red;stroke-width:1px;stroke-linecap:butt;stroke-linejoin:miter;stroke-opacity:1" d="M 219.509,568.272 219.509,584.723 z" id="boundary" inkscape:connector-curvature="0" />
	<path style="fill:none;stroke:red;stroke-width:1px;stroke-linecap:butt;stroke-linejoin:miter;stroke-opacity:1" d="M 211.284,634.076 203.058,658.753 z" id="boundary" inkscape:connector-curvature="0" />
	<path style="fill:none;stroke:red;stroke-width:1px;stroke-linecap:butt;stroke-linejoin:miter;stroke-opacity:1" d="M 203.058,675.204 203.058,691.655 z" id="boundary" inkscape:connector-curvature="0" />
	<path style="fill:none;stroke:red;stroke-width:1px;stroke-linecap:butt;stroke-linejoin:miter;stroke-opacity:1" d="M 203.058,658.753 203.058,675.204 z" id="boundary" inkscape:connector-curvature="0" />
	<path style="fill:none;stroke:red;stroke-width:1px;stroke-linecap:butt;stroke-linejoin:miter;stroke-opacity:1" d="M 203.058,691.655 194.833,708.106 z" id="boundary" inkscape:connector-curvature="0" />
	<path style="fill:none;stroke:red;stroke-width:1px;stroke-linecap:butt;stroke-linejoin:miter;stroke-opacity:1" d="M 219.509,568.272 227.735,551.821 z" id="boundary" inkscape:connector-curvature="0" />
	<path style="fill:none;stroke:red;stroke-width:1px;stroke-linecap:butt;stroke-linejoin:miter;stroke-opacity:1" d="M 433.373,571.562 439.954,588.013 z" id="boundary" inkscape:connector-curvature="0" />
	<path style="fill:none;stroke:red;stroke-width:1px;stroke-linecap:butt;stroke-linejoin:miter;stroke-opacity:1" d="M 433.373,571.562 425.148,556.756 z" id="boundary" inkscape:connector-curvature="0" />
	<path style="fill:none;stroke:red;stroke-width:1px;stroke-linecap:butt;stroke-linejoin:miter;stroke-opacity:1" d="M 439.954,588.013 448.179,602.819 z" id="boundary" inkscape:connector-curvature="0" />
	<path style="fill:none;stroke:red;stroke-width:1px;stroke-linecap:butt;stroke-linejoin:miter;stroke-opacity:1" d="M 448.179,602.819 448.179,619.27 z" id="boundary" inkscape:connector-curvature="0" />
	<path style="fill:none;stroke:red;stroke-width:1px;stroke-linecap:butt;stroke-linejoin:miter;stroke-opacity:1" d="M 456.405,634.076 448.179,619.27 z" id="boundary" inkscape:connector-curvature="0" />
	<path style="fill:none;stroke:red;stroke-width:1px;stroke-linecap:butt;stroke-linejoin:miter;stroke-opacity:1" d="M 456.405,634.076 461.34,650.527 z" id="boundary" inkscape:connector-curvature="0" />
	<path style="fill:none;stroke:red;stroke-width:1px;stroke-linecap:butt;stroke-linejoin:miter;stroke-opacity:1" d="M 525.499,73.0945 510.693,81.3201 z" id="boundary" inkscape:connector-curvature="0" />
	<path style="fill:none;stroke:red;stroke-width:1px;stroke-linecap:butt;stroke-linejoin:miter;stroke-opacity:1" d="M 510.693,81.3201 494.242,81.3201 z" id="boundary" inkscape:connector-curvature="0" />
	<path style="fill:none;stroke:red;stroke-width:1px;stroke-linecap:butt;stroke-linejoin:miter;stroke-opacity:1" d="M 532.08,91.1907 520.564,104.352 z" id="boundary" inkscape:connector-curvature="0" />
	<path style="fill:none;stroke:red;stroke-width:1px;stroke-linecap:butt;stroke-linejoin:miter;stroke-opacity:1" d="M 490.952,124.093 494.242,140.544 z" id="boundary" inkscape:connector-curvature="0" />
	<path style="fill:none;stroke:red;stroke-width:1px;stroke-linecap:butt;stroke-linejoin:miter;stroke-opacity:1" d="M 507.403,115.867 490.952,124.093 z" id="boundary" inkscape:connector-curvature="0" />
	<path style="fill:none;stroke:red;stroke-width:1px;stroke-linecap:butt;stroke-linejoin:miter;stroke-opacity:1" d="M 507.403,115.867 520.564,104.352 z" id="boundary" inkscape:connector-curvature="0" />
	<path style="fill:none;stroke:red;stroke-width:1px;stroke-linecap:butt;stroke-linejoin:miter;stroke-opacity:1" d="M 477.791,89.5456 494.242,81.3201 z" id="boundary" inkscape:connector-curvature="0" />
	<path style="fill:none;stroke:red;stroke-width:1px;stroke-linecap:butt;stroke-linejoin:miter;stroke-opacity:1" d="M 525.499,73.0945 532.08,91.1907 z" id="boundary" inkscape:connector-curvature="0" />
	<path style="fill:none;stroke:red;stroke-width:1px;stroke-linecap:butt;stroke-linejoin:miter;stroke-opacity:1" d="M 699.881,105.997 683.43,114.222 z" id="boundary" inkscape:connector-curvature="0" />
	<path style="fill:none;stroke:red;stroke-width:1px;stroke-linecap:butt;stroke-linejoin:miter;stroke-opacity:1" d="M 762.395,101.061 745.944,105.997 z" id="boundary" inkscape:connector-curvature="0" />
	<path style="fill:none;stroke:red;stroke-width:1px;stroke-linecap:butt;stroke-linejoin:miter;stroke-opacity:1" d="M 716.332,105.997 699.881,105.997 z" id="boundary" inkscape:connector-curvature="0" />
	<path style="fill:none;stroke:red;stroke-width:1px;stroke-linecap:butt;stroke-linejoin:miter;stroke-opacity:1" d="M 716.332,105.997 731.138,114.222 z" id="boundary" inkscape:connector-curvature="0" />
	<path style="fill:none;stroke:red;stroke-width:1px;stroke-linecap:butt;stroke-linejoin:miter;stroke-opacity:1" d="M 731.138,114.222 745.944,105.997 z" id="boundary" inkscape:connector-curvature="0" />
	<path style="fill:none;stroke:red;stroke-width:1px;stroke-linecap:butt;stroke-linejoin:miter;stroke-opacity:1" d="M 762.395,101.061 778.846,105.997 z" id="boundary" inkscape:connector-curvature="0" />
	<path style="fill:none;stroke:red;stroke-width:1px;stroke-linecap:butt;stroke-linejoin:miter;stroke-opacity:1" d="M 793.652,97.7711 778.846,105.997 z" id="boundary" inkscape:connector-curvature="0" />
	<path style="fill:none;stroke:red;stroke-width:1px;stroke-linecap:butt;stroke-linejoin:miter;stroke-opacity:1" d="M 670.269,127.383 683.43,114.222 z" id="boundary" inkscape:connector-curvature="0" />
	<path style="fill:none;stroke:red;stroke-width:1px;stroke-linecap:butt;stroke-linejoin:miter;stroke-opacity:1" d="M 510.693,147.124 494.242,140.544 z" id="boundary" inkscape:connector-curvature="0" />
	<path style="fill:none;stroke:red;stroke-width:1px;stroke-linecap:butt;stroke-linejoin:miter;stroke-opacity:1" d="M 527.144,147.124 543.595,147.124 z" id="boundary" inkscape:connector-curvature="0" />
	<path style="fill:none;stroke:red;stroke-width:1px;stroke-linecap:butt;stroke-linejoin:miter;stroke-opacity:1" d="M 527.144,147.124 510.693,147.124 z" id="boundary" inkscape:connector-curvature="0" />
	<path style="fill:none;stroke:red;stroke-width:1px;stroke-linecap:butt;stroke-linejoin:miter;stroke-opacity:1" d="M 560.046,147.124 574.852,155.35 z" id="boundary" inkscape:connector-curvature="0" />
	<path style="fill:none;stroke:red;stroke-width:1px;stroke-linecap:butt;stroke-linejoin:miter;stroke-opacity:1" d="M 543.595,147.124 560.046,147.124 z" id="boundary" inkscape:connector-curvature="0" />
	<path style="fill:none;stroke:red;stroke-width:1px;stroke-linecap:butt;stroke-linejoin:miter;stroke-opacity:1" d="M 591.303,148.769 574.852,155.35 z" id="boundary" inkscape:connector-curvature="0" />
	<path style="fill:none;stroke:red;stroke-width:1px;stroke-linecap:butt;stroke-linejoin:miter;stroke-opacity:1" d="M 591.303,148.769 607.755,155.35 z" id="boundary" inkscape:connector-curvature="0" />
	<path style="fill:none;stroke:red;stroke-width:1px;stroke-linecap:butt;stroke-linejoin:miter;stroke-opacity:1" d="M 624.206,155.35 639.012,147.124 z" id="boundary" inkscape:connector-curvature="0" />
	<path style="fill:none;stroke:red;stroke-width:1px;stroke-linecap:butt;stroke-linejoin:miter;stroke-opacity:1" d="M 624.206,155.35 607.755,155.35 z" id="boundary" inkscape:connector-curvature="0" />
	<path style="fill:none;stroke:red;stroke-width:1px;stroke-linecap:butt;stroke-linejoin:miter;stroke-opacity:1" d="M 639.012,147.124 653.818,135.609 z" id="boundary" inkscape:connector-curvature="0" />
	<path style="fill:none;stroke:red;stroke-width:1px;stroke-linecap:butt;stroke-linejoin:miter;stroke-opacity:1" d="M 653.818,135.609 670.269,127.383 z" id="boundary" inkscape:connector-curvature="0" />
	<path style="fill:none;stroke:red;stroke-width:1px;stroke-linecap:butt;stroke-linejoin:miter;stroke-opacity:1" d="M 726.202,293.539 742.653,285.313 z" id="boundary" inkscape:connector-curvature="0" />
	<path style="fill:none;stroke:red;stroke-width:1px;stroke-linecap:butt;stroke-linejoin:miter;stroke-opacity:1" d="M 759.104,277.088 770.62,263.927 z" id="boundary" inkscape:connector-curvature="0" />
	<path style="fill:none;stroke:red;stroke-width:1px;stroke-linecap:butt;stroke-linejoin:miter;stroke-opacity:1" d="M 770.62,263.927 787.071,255.701 z" id="boundary" inkscape:connector-curvature="0" />
	<path style="fill:none;stroke:red;stroke-width:1px;stroke-linecap:butt;stroke-linejoin:miter;stroke-opacity:1" d="M 759.104,277.088 742.653,285.313 z" id="boundary" inkscape:connector-curvature="0" />
	<path style="fill:none;stroke:red;stroke-width:1px;stroke-linecap:butt;stroke-linejoin:miter;stroke-opacity:1" d="M 726.202,293.539 713.041,305.055 z" id="boundary" inkscape:connector-curvature="0" />
	<path style="fill:none;stroke:red;stroke-width:1px;stroke-linecap:butt;stroke-linejoin:miter;stroke-opacity:1" d="M 870.972,56.6434 884.133,45.1277 z" id="boundary" inkscape:connector-curvature="0" />
	<path style="fill:none;stroke:red;stroke-width:1px;stroke-linecap:butt;stroke-linejoin:miter;stroke-opacity:1" d="M 900.584,36.9022 884.133,45.1277 z" id="boundary" inkscape:connector-curvature="0" />
	<path style="fill:none;stroke:red;stroke-width:1px;stroke-linecap:butt;stroke-linejoin:miter;stroke-opacity:1" d="M 900.584,36.9022 917.035,28.6766 z" id="boundary" inkscape:connector-curvature="0" />
	<path style="fill:none;stroke:red;stroke-width:1px;stroke-linecap:butt;stroke-linejoin:miter;stroke-opacity:1" d="M 933.486,23.7413 917.035,28.6766 z" id="boundary" inkscape:connector-curvature="0" />
	<path style="fill:none;stroke:red;stroke-width:1px;stroke-linecap:butt;stroke-linejoin:miter;stroke-opacity:1" d="M 948.292,15.5158 933.486,23.7413 z" id="boundary" inkscape:connector-curvature="0" />
	<path style="fill:none;stroke:red;stroke-width:1px;stroke-linecap:butt;stroke-linejoin:miter;stroke-opacity:1" d="M 826.554,86.2554 839.715,73.0945 z" id="boundary" inkscape:connector-curvature="0" />
	<path style="fill:none;stroke:red;stroke-width:1px;stroke-linecap:butt;stroke-linejoin:miter;stroke-opacity:1" d="M 826.554,86.2554 810.103,94.4809 z" id="boundary" inkscape:connector-curvature="0" />
	<path style="fill:none;stroke:red;stroke-width:1px;stroke-linecap:butt;stroke-linejoin:miter;stroke-opacity:1" d="M 839.715,73.0945 856.166,64.869 z" id="boundary" inkscape:connector-curvature="0" />
	<path style="fill:none;stroke:red;stroke-width:1px;stroke-linecap:butt;stroke-linejoin:miter;stroke-opacity:1" d="M 870.972,56.6434 856.166,64.869 z" id="boundary" inkscape:connector-curvature="0" />
	<path style="fill:none;stroke:red;stroke-width:1px;stroke-linecap:butt;stroke-linejoin:miter;stroke-opacity:1" d="M 948.292,15.5158 964.743,15.5158 z" id="boundary" inkscape:connector-curvature="0" />
	<path style="fill:none;stroke:red;stroke-width:1px;stroke-linecap:butt;stroke-linejoin:miter;stroke-opacity:1" d="M 979.549,7.29022 964.743,15.5158 z" id="boundary" inkscape:connector-curvature="0" />
	<path style="fill:none;stroke:red;stroke-width:1px;stroke-linecap:butt;stroke-linejoin:miter;stroke-opacity:1" d="M 996,7.29022 979.549,7.29022 z" id="boundary" inkscape:connector-curvature="0" />
	<path style="fill:none;stroke:red;stroke-width:1px;stroke-linecap:butt;stroke-linejoin:miter;stroke-opacity:1" d="M 959.808,74.7396 972.968,63.2239 z" id="boundary" inkscape:connector-curvature="0" />
	<path style="fill:none;stroke:red;stroke-width:1px;stroke-linecap:butt;stroke-linejoin:miter;stroke-opacity:1" d="M 948.292,87.9005 959.808,74.7396 z" id="boundary" inkscape:connector-curvature="0" />
	<path style="fill:none;stroke:red;stroke-width:1px;stroke-linecap:butt;stroke-linejoin:miter;stroke-opacity:1" d="M 981.194,46.7728 992.71,33.6119 z" id="boundary" inkscape:connector-curvature="0" />
	<path style="fill:none;stroke:red;stroke-width:1px;stroke-linecap:butt;stroke-linejoin:miter;stroke-opacity:1" d="M 972.968,63.2239 981.194,46.7728 z" id="boundary" inkscape:connector-curvature="0" />
	<path style="fill:none;stroke:red;stroke-width:1px;stroke-linecap:butt;stroke-linejoin:miter;stroke-opacity:1" d="M 844.65,156.995 836.425,173.446 z" id="boundary" inkscape:connector-curvature="0" />
	<path style="fill:none;stroke:red;stroke-width:1px;stroke-linecap:butt;stroke-linejoin:miter;stroke-opacity:1" d="M 810.103,94.4809 793.652,97.7711 z" id="boundary" inkscape:connector-curvature="0" />
	<path style="fill:none;stroke:red;stroke-width:1px;stroke-linecap:butt;stroke-linejoin:miter;stroke-opacity:1" d="M 828.199,189.897 836.425,173.446 z" id="boundary" inkscape:connector-curvature="0" />
	<path style="fill:none;stroke:red;stroke-width:1px;stroke-linecap:butt;stroke-linejoin:miter;stroke-opacity:1" d="M 803.522,222.799 803.522,239.25 z" id="boundary" inkscape:connector-curvature="0" />
	<path style="fill:none;stroke:red;stroke-width:1px;stroke-linecap:butt;stroke-linejoin:miter;stroke-opacity:1" d="M 803.522,239.25 787.071,255.701 z" id="boundary" inkscape:connector-curvature="0" />
	<path style="fill:none;stroke:red;stroke-width:1px;stroke-linecap:butt;stroke-linejoin:miter;stroke-opacity:1" d="M 803.522,222.799 816.683,211.284 z" id="boundary" inkscape:connector-curvature="0" />
	<path style="fill:none;stroke:red;stroke-width:1px;stroke-linecap:butt;stroke-linejoin:miter;stroke-opacity:1" d="M 828.199,189.897 816.683,211.284 z" id="boundary" inkscape:connector-curvature="0" />
	<path style="fill:none;stroke:red;stroke-width:1px;stroke-linecap:butt;stroke-linejoin:miter;stroke-opacity:1" d="M 902.229,115.867 918.68,107.642 z" id="boundary" inkscape:connector-curvature="0" />
	<path style="fill:none;stroke:red;stroke-width:1px;stroke-linecap:butt;stroke-linejoin:miter;stroke-opacity:1" d="M 889.068,130.673 902.229,115.867 z" id="boundary" inkscape:connector-curvature="0" />
	<path style="fill:none;stroke:red;stroke-width:1px;stroke-linecap:butt;stroke-linejoin:miter;stroke-opacity:1" d="M 931.841,96.126 948.292,87.9005 z" id="boundary" inkscape:connector-curvature="0" />
	<path style="fill:none;stroke:red;stroke-width:1px;stroke-linecap:butt;stroke-linejoin:miter;stroke-opacity:1" d="M 918.68,107.642 931.841,96.126 z" id="boundary" inkscape:connector-curvature="0" />
	<path style="fill:none;stroke:red;stroke-width:1px;stroke-linecap:butt;stroke-linejoin:miter;stroke-opacity:1" d="M 844.65,156.995 859.456,148.769 z" id="boundary" inkscape:connector-curvature="0" />
	<path style="fill:none;stroke:red;stroke-width:1px;stroke-linecap:butt;stroke-linejoin:miter;stroke-opacity:1" d="M 872.617,138.899 889.068,130.673 z" id="boundary" inkscape:connector-curvature="0" />
	<path style="fill:none;stroke:red;stroke-width:1px;stroke-linecap:butt;stroke-linejoin:miter;stroke-opacity:1" d="M 859.456,148.769 872.617,138.899 z" id="boundary" inkscape:connector-curvature="0" />
	<path style="fill:none;stroke:red;stroke-width:1px;stroke-linecap:butt;stroke-linejoin:miter;stroke-opacity:1" d="M 639.012,518.919 639.012,535.37 z" id="boundary" inkscape:connector-curvature="0" />
	<path style="fill:none;stroke:red;stroke-width:1px;stroke-linecap:butt;stroke-linejoin:miter;stroke-opacity:1" d="M 630.786,655.463 620.915,642.302 z" id="boundary" inkscape:connector-curvature="0" />
	<path style="fill:none;stroke:red;stroke-width:1px;stroke-linecap:butt;stroke-linejoin:miter;stroke-opacity:1" d="M 620.915,642.302 606.109,650.527 z" id="boundary" inkscape:connector-curvature="0" />
	<path style="fill:none;stroke:red;stroke-width:1px;stroke-linecap:butt;stroke-linejoin:miter;stroke-opacity:1" d="M 472.856,681.784 464.63,666.978 z" id="boundary" inkscape:connector-curvature="0" />
	<path style="fill:none;stroke:red;stroke-width:1px;stroke-linecap:butt;stroke-linejoin:miter;stroke-opacity:1" d="M 464.63,666.978 461.34,650.527 z" id="boundary" inkscape:connector-curvature="0" />
	<path style="fill:none;stroke:red;stroke-width:1px;stroke-linecap:butt;stroke-linejoin:miter;stroke-opacity:1" d="M 597.884,675.204 606.109,650.527 z" id="boundary" inkscape:connector-curvature="0" />
	<path style="fill:none;stroke:red;stroke-width:1px;stroke-linecap:butt;stroke-linejoin:miter;stroke-opacity:1" d="M 630.786,655.463 639.012,670.269 z" id="boundary" inkscape:connector-curvature="0" />
	<path style="fill:none;stroke:red;stroke-width:1px;stroke-linecap:butt;stroke-linejoin:miter;stroke-opacity:1" d="M 647.237,550.176 639.012,535.37 z" id="boundary" inkscape:connector-curvature="0" />
	<path style="fill:none;stroke:red;stroke-width:1px;stroke-linecap:butt;stroke-linejoin:miter;stroke-opacity:1" d="M 639.012,518.919 647.237,502.468 z" id="boundary" inkscape:connector-curvature="0" />
	<path style="fill:none;stroke:red;stroke-width:1px;stroke-linecap:butt;stroke-linejoin:miter;stroke-opacity:1" d="M 647.237,502.468 660.398,490.952 z" id="boundary" inkscape:connector-curvature="0" />
	<path style="fill:none;stroke:red;stroke-width:1px;stroke-linecap:butt;stroke-linejoin:miter;stroke-opacity:1" d="M 671.914,477.791 660.398,490.952 z" id="boundary" inkscape:connector-curvature="0" />
	<path style="fill:none;stroke:red;stroke-width:1px;stroke-linecap:butt;stroke-linejoin:miter;stroke-opacity:1" d="M 655.463,564.982 668.624,576.498 z" id="boundary" inkscape:connector-curvature="0" />
	<path style="fill:none;stroke:red;stroke-width:1px;stroke-linecap:butt;stroke-linejoin:miter;stroke-opacity:1" d="M 647.237,550.176 655.463,564.982 z" id="boundary" inkscape:connector-curvature="0" />
	<path style="fill:none;stroke:red;stroke-width:1px;stroke-linecap:butt;stroke-linejoin:miter;stroke-opacity:1" d="M 650.527,683.43 639.012,670.269 z" id="boundary" inkscape:connector-curvature="0" />
	<path style="fill:none;stroke:red;stroke-width:1px;stroke-linecap:butt;stroke-linejoin:miter;stroke-opacity:1" d="M 668.624,576.498 680.139,589.658 z" id="boundary" inkscape:connector-curvature="0" />
	<path style="fill:none;stroke:red;stroke-width:1px;stroke-linecap:butt;stroke-linejoin:miter;stroke-opacity:1" d="M 589.658,699.881 597.884,675.204 z" id="boundary" inkscape:connector-curvature="0" />
	<path style="fill:none;stroke:red;stroke-width:1px;stroke-linecap:butt;stroke-linejoin:miter;stroke-opacity:1" d="M 472.856,681.784 481.081,696.59 z" id="boundary" inkscape:connector-curvature="0" />
	<path style="fill:none;stroke:red;stroke-width:1px;stroke-linecap:butt;stroke-linejoin:miter;stroke-opacity:1" d="M 481.081,696.59 482.726,713.041 z" id="boundary" inkscape:connector-curvature="0" />
	<path style="fill:none;stroke:red;stroke-width:1px;stroke-linecap:butt;stroke-linejoin:miter;stroke-opacity:1" d="M 482.726,713.041 489.307,729.493 z" id="boundary" inkscape:connector-curvature="0" />
	<path style="fill:none;stroke:red;stroke-width:1px;stroke-linecap:butt;stroke-linejoin:miter;stroke-opacity:1" d="M 497.532,744.299 489.307,729.493 z" id="boundary" inkscape:connector-curvature="0" />
	<path style="fill:none;stroke:red;stroke-width:1px;stroke-linecap:butt;stroke-linejoin:miter;stroke-opacity:1" d="M 497.532,744.299 505.758,759.104 z" id="boundary" inkscape:connector-curvature="0" />
	<path style="fill:none;stroke:red;stroke-width:1px;stroke-linecap:butt;stroke-linejoin:miter;stroke-opacity:1" d="M 517.274,772.265 533.725,765.685 z" id="boundary" inkscape:connector-curvature="0" />
	<path style="fill:none;stroke:red;stroke-width:1px;stroke-linecap:butt;stroke-linejoin:miter;stroke-opacity:1" d="M 517.274,772.265 505.758,759.104 z" id="boundary" inkscape:connector-curvature="0" />
	<path style="fill:none;stroke:red;stroke-width:1px;stroke-linecap:butt;stroke-linejoin:miter;stroke-opacity:1" d="M 548.531,757.459 533.725,765.685 z" id="boundary" inkscape:connector-curvature="0" />
	<path style="fill:none;stroke:red;stroke-width:1px;stroke-linecap:butt;stroke-linejoin:miter;stroke-opacity:1" d="M 650.527,683.43 663.688,694.945 z" id="boundary" inkscape:connector-curvature="0" />
	<path style="fill:none;stroke:red;stroke-width:1px;stroke-linecap:butt;stroke-linejoin:miter;stroke-opacity:1" d="M 581.433,716.332 589.658,699.881 z" id="boundary" inkscape:connector-curvature="0" />
	<path style="fill:none;stroke:red;stroke-width:1px;stroke-linecap:butt;stroke-linejoin:miter;stroke-opacity:1" d="M 675.204,708.106 663.688,694.945 z" id="boundary" inkscape:connector-curvature="0" />
	<path style="fill:none;stroke:red;stroke-width:1px;stroke-linecap:butt;stroke-linejoin:miter;stroke-opacity:1" d="M 548.531,757.459 563.337,749.234 z" id="boundary" inkscape:connector-curvature="0" />
	<path style="fill:none;stroke:red;stroke-width:1px;stroke-linecap:butt;stroke-linejoin:miter;stroke-opacity:1" d="M 576.498,739.363 581.433,716.332 z" id="boundary" inkscape:connector-curvature="0" />
	<path style="fill:none;stroke:red;stroke-width:1px;stroke-linecap:butt;stroke-linejoin:miter;stroke-opacity:1" d="M 576.498,739.363 563.337,749.234 z" id="boundary" inkscape:connector-curvature="0" />
	<path style="fill:none;stroke:red;stroke-width:1px;stroke-linecap:butt;stroke-linejoin:miter;stroke-opacity:1" d="M 675.204,708.106 683.43,722.912 z" id="boundary" inkscape:connector-curvature="0" />
	<path style="fill:none;stroke:red;stroke-width:1px;stroke-linecap:butt;stroke-linejoin:miter;stroke-opacity:1" d="M 671.914,477.791 688.365,469.566 z" id="boundary" inkscape:connector-curvature="0" />
	<path style="fill:none;stroke:red;stroke-width:1px;stroke-linecap:butt;stroke-linejoin:miter;stroke-opacity:1" d="M 724.557,402.116 708.106,410.342 z" id="boundary" inkscape:connector-curvature="0" />
	<path style="fill:none;stroke:red;stroke-width:1px;stroke-linecap:butt;stroke-linejoin:miter;stroke-opacity:1" d="M 696.59,362.633 688.365,387.31 z" id="boundary" inkscape:connector-curvature="0" />
	<path style="fill:none;stroke:red;stroke-width:1px;stroke-linecap:butt;stroke-linejoin:miter;stroke-opacity:1" d="M 704.816,329.731 704.816,346.182 z" id="boundary" inkscape:connector-curvature="0" />
	<path style="fill:none;stroke:red;stroke-width:1px;stroke-linecap:butt;stroke-linejoin:miter;stroke-opacity:1" d="M 704.816,346.182 696.59,362.633 z" id="boundary" inkscape:connector-curvature="0" />
	<path style="fill:none;stroke:red;stroke-width:1px;stroke-linecap:butt;stroke-linejoin:miter;stroke-opacity:1" d="M 704.816,461.34 688.365,469.566 z" id="boundary" inkscape:connector-curvature="0" />
	<path style="fill:none;stroke:red;stroke-width:1px;stroke-linecap:butt;stroke-linejoin:miter;stroke-opacity:1" d="M 713.041,444.889 704.816,461.34 z" id="boundary" inkscape:connector-curvature="0" />
	<path style="fill:none;stroke:red;stroke-width:1px;stroke-linecap:butt;stroke-linejoin:miter;stroke-opacity:1" d="M 691.655,403.761 708.106,410.342 z" id="boundary" inkscape:connector-curvature="0" />
	<path style="fill:none;stroke:red;stroke-width:1px;stroke-linecap:butt;stroke-linejoin:miter;stroke-opacity:1" d="M 691.655,403.761 688.365,387.31 z" id="boundary" inkscape:connector-curvature="0" />
	<path style="fill:none;stroke:red;stroke-width:1px;stroke-linecap:butt;stroke-linejoin:miter;stroke-opacity:1" d="M 741.008,393.891 724.557,402.116 z" id="boundary" inkscape:connector-curvature="0" />
	<path style="fill:none;stroke:red;stroke-width:1px;stroke-linecap:butt;stroke-linejoin:miter;stroke-opacity:1" d="M 757.459,393.891 741.008,393.891 z" id="boundary" inkscape:connector-curvature="0" />
	<path style="fill:none;stroke:red;stroke-width:1px;stroke-linecap:butt;stroke-linejoin:miter;stroke-opacity:1" d="M 757.459,393.891 757.459,418.567 z" id="boundary" inkscape:connector-curvature="0" />
	<path style="fill:none;stroke:red;stroke-width:1px;stroke-linecap:butt;stroke-linejoin:miter;stroke-opacity:1" d="M 713.041,444.889 729.493,436.663 z" id="boundary" inkscape:connector-curvature="0" />
	<path style="fill:none;stroke:red;stroke-width:1px;stroke-linecap:butt;stroke-linejoin:miter;stroke-opacity:1" d="M 744.299,428.438 729.493,436.663 z" id="boundary" inkscape:connector-curvature="0" />
	<path style="fill:none;stroke:red;stroke-width:1px;stroke-linecap:butt;stroke-linejoin:miter;stroke-opacity:1" d="M 757.459,418.567 744.299,428.438 z" id="boundary" inkscape:connector-curvature="0" />
	<path style="fill:none;stroke:red;stroke-width:1px;stroke-linecap:butt;stroke-linejoin:miter;stroke-opacity:1" d="M 704.816,329.731 713.041,305.055 z" id="boundary" inkscape:connector-curvature="0" />
	<path style="fill:none;stroke:red;stroke-width:1px;stroke-linecap:butt;stroke-linejoin:miter;stroke-opacity:1" d="M 688.365,604.464 699.881,617.625 z" id="boundary" inkscape:connector-curvature="0" />
	<path style="fill:none;stroke:red;stroke-width:1px;stroke-linecap:butt;stroke-linejoin:miter;stroke-opacity:1" d="M 688.365,604.464 680.139,589.658 z" id="boundary" inkscape:connector-curvature="0" />
	<path style="fill:none;stroke:red;stroke-width:1px;stroke-linecap:butt;stroke-linejoin:miter;stroke-opacity:1" d="M 713.041,629.141 724.557,642.302 z" id="boundary" inkscape:connector-curvature="0" />
	<path style="fill:none;stroke:red;stroke-width:1px;stroke-linecap:butt;stroke-linejoin:miter;stroke-opacity:1" d="M 713.041,629.141 699.881,617.625 z" id="boundary" inkscape:connector-curvature="0" />
	<path style="fill:none;stroke:red;stroke-width:1px;stroke-linecap:butt;stroke-linejoin:miter;stroke-opacity:1" d="M 694.945,736.073 683.43,722.912 z" id="boundary" inkscape:connector-curvature="0" />
	<path style="fill:none;stroke:red;stroke-width:1px;stroke-linecap:butt;stroke-linejoin:miter;stroke-opacity:1" d="M 708.106,747.589 714.687,764.04 z" id="boundary" inkscape:connector-curvature="0" />
	<path style="fill:none;stroke:red;stroke-width:1px;stroke-linecap:butt;stroke-linejoin:miter;stroke-opacity:1" d="M 694.945,736.073 708.106,747.589 z" id="boundary" inkscape:connector-curvature="0" />
	<path style="fill:none;stroke:red;stroke-width:1px;stroke-linecap:butt;stroke-linejoin:miter;stroke-opacity:1" d="M 731.138,757.459 714.687,764.04 z" id="boundary" inkscape:connector-curvature="0" />
	<path style="fill:none;stroke:red;stroke-width:1px;stroke-linecap:butt;stroke-linejoin:miter;stroke-opacity:1" d="M 724.557,642.302 732.783,657.108 z" id="boundary" inkscape:connector-curvature="0" />
	<path style="fill:none;stroke:red;stroke-width:1px;stroke-linecap:butt;stroke-linejoin:miter;stroke-opacity:1" d="M 744.299,670.269 732.783,657.108 z" id="boundary" inkscape:connector-curvature="0" />
	<path style="fill:none;stroke:red;stroke-width:1px;stroke-linecap:butt;stroke-linejoin:miter;stroke-opacity:1" d="M 744.299,670.269 745.944,686.72 z" id="boundary" inkscape:connector-curvature="0" />
	<path style="fill:none;stroke:red;stroke-width:1px;stroke-linecap:butt;stroke-linejoin:miter;stroke-opacity:1" d="M 745.944,686.72 737.718,708.106 z" id="boundary" inkscape:connector-curvature="0" />
	<path style="fill:none;stroke:red;stroke-width:1px;stroke-linecap:butt;stroke-linejoin:miter;stroke-opacity:1" d="M 737.718,724.557 737.718,741.008 z" id="boundary" inkscape:connector-curvature="0" />
	<path style="fill:none;stroke:red;stroke-width:1px;stroke-linecap:butt;stroke-linejoin:miter;stroke-opacity:1" d="M 737.718,708.106 737.718,724.557 z" id="boundary" inkscape:connector-curvature="0" />
	<path style="fill:none;stroke:red;stroke-width:1px;stroke-linecap:butt;stroke-linejoin:miter;stroke-opacity:1" d="M 737.718,741.008 731.138,757.459 z" id="boundary" inkscape:connector-curvature="0" />
	<circle cx="4" cy="472.856" r="4" fill="#0" id="circle0"/>
	<circle cx="4" cy="489.307" r="4" fill="#0" id="circle1"/>
	<circle cx="12.2255" cy="504.113" r="4" fill="#0" id="circle2"/>
	<circle cx="17.1609" cy="459.695" r="4" fill="#0" id="circle3"/>
	<circle cx="23.7413" cy="517.274" r="4" fill="#0" id="circle4"/>
	<circle cx="31.9668" cy="532.08" r="4" fill="#0" id="circle5"/>
	<circle cx="33.6119" cy="459.695" r="4" fill="#0" id="circle6"/>
	<circle cx="45.1277" cy="543.595" r="4" fill="#0" id="circle7"/>
	<circle cx="48.4179" cy="467.92" r="4" fill="#0" id="circle8"/>
	<circle cx="50.063" cy="560.046" r="4" fill="#0" id="circle9"/>
	<circle cx="61.5788" cy="573.207" r="4" fill="#0" id="circle10"/>
	<circle cx="64.869" cy="467.92" r="4" fill="#0" id="circle11"/>
	<circle cx="69.8043" cy="588.013" r="4" fill="#0" id="circle12"/>
	<circle cx="78.0299" cy="602.819" r="4" fill="#0" id="circle13"/>
	<circle cx="78.0299" cy="619.27" r="4" fill="#0" id="circle14"/>
	<circle cx="79.675" cy="476.146" r="4" fill="#0" id="circle15"/>
	<circle cx="94.4809" cy="625.851" r="4" fill="#0" id="circle16"/>
	<circle cx="96.126" cy="476.146" r="4" fill="#0" id="circle17"/>
	<circle cx="102.706" cy="4" r="4" fill="#0" id="circle18"/>
	<circle cx="104.352" cy="639.012" r="4" fill="#0" id="circle19"/>
	<circle cx="110.932" cy="18.806" r="4" fill="#0" id="circle20"/>
	<circle cx="110.932" cy="143.834" r="4" fill="#0" id="circle21"/>
	<circle cx="110.932" cy="484.371" r="4" fill="#0" id="circle22"/>
	<circle cx="112.577" cy="653.818" r="4" fill="#0" id="circle23"/>
	<circle cx="119.158" cy="158.64" r="4" fill="#0" id="circle24"/>
	<circle cx="119.158" cy="670.269" r="4" fill="#0" id="circle25"/>
	<circle cx="122.448" cy="31.9668" r="4" fill="#0" id="circle26"/>
	<circle cx="124.093" cy="7.29022" r="4" fill="#0" id="circle27"/>
	<circle cx="124.093" cy="130.673" r="4" fill="#0" id="circle28"/>
	<circle cx="127.383" cy="173.446" r="4" fill="#0" id="circle29"/>
	<circle cx="127.383" cy="484.371" r="4" fill="#0" id="circle30"/>
	<circle cx="127.383" cy="685.075" r="4" fill="#0" id="circle31"/>
	<circle cx="135.609" cy="41.8375" r="4" fill="#0" id="circle32"/>
	<circle cx="135.609" cy="699.881" r="4" fill="#0" id="circle33"/>
	<circle cx="137.254" cy="117.512" r="4" fill="#0" id="circle34"/>
	<circle cx="137.254" cy="186.607" r="4" fill="#0" id="circle35"/>
	<circle cx="138.899" cy="15.5158" r="4" fill="#0" id="circle36"/>
	<circle cx="142.189" cy="492.597" r="4" fill="#0" id="circle37"/>
	<circle cx="143.834" cy="56.6434" r="4" fill="#0" id="circle38"/>
	<circle cx="143.834" cy="714.687" r="4" fill="#0" id="circle39"/>
	<circle cx="153.705" cy="69.8043" r="4" fill="#0" id="circle40"/>
	<circle cx="153.705" cy="109.287" r="4" fill="#0" id="circle41"/>
	<circle cx="153.705" cy="193.187" r="4" fill="#0" id="circle42"/>
	<circle cx="153.705" cy="727.847" r="4" fill="#0" id="circle43"/>
	<circle cx="155.35" cy="15.5158" r="4" fill="#0" id="circle44"/>
	<circle cx="158.64" cy="492.597" r="4" fill="#0" id="circle45"/>
	<circle cx="165.221" cy="82.9652" r="4" fill="#0" id="circle46"/>
	<circle cx="165.221" cy="206.348" r="4" fill="#0" id="circle47"/>
	<circle cx="165.221" cy="741.008" r="4" fill="#0" id="circle48"/>
	<circle cx="170.156" cy="23.7413" r="4" fill="#0" id="circle49"/>
	<circle cx="170.156" cy="101.061" r="4" fill="#0" id="circle50"/>
	<circle cx="175.091" cy="494.242" r="4" fill="#0" id="circle51"/>
	<circle cx="176.736" cy="219.509" r="4" fill="#0" id="circle52"/>
	<circle cx="180.027" cy="749.234" r="4" fill="#0" id="circle53"/>
	<circle cx="184.962" cy="234.315" r="4" fill="#0" id="circle54"/>
	<circle cx="186.607" cy="28.6766" r="4" fill="#0" id="circle55"/>
	<circle cx="186.607" cy="732.783" r="4" fill="#0" id="circle56"/>
	<circle cx="191.542" cy="500.823" r="4" fill="#0" id="circle57"/>
	<circle cx="194.833" cy="708.106" r="4" fill="#0" id="circle58"/>
	<circle cx="198.123" cy="245.831" r="4" fill="#0" id="circle59"/>
	<circle cx="203.058" cy="31.9668" r="4" fill="#0" id="circle60"/>
	<circle cx="203.058" cy="658.753" r="4" fill="#0" id="circle61"/>
	<circle cx="203.058" cy="675.204" r="4" fill="#0" id="circle62"/>
	<circle cx="203.058" cy="691.655" r="4" fill="#0" id="circle63"/>
	<circle cx="206.348" cy="492.597" r="4" fill="#0" id="circle64"/>
	<circle cx="211.284" cy="601.174" r="4" fill="#0" id="circle65"/>
	<circle cx="211.284" cy="617.625" r="4" fill="#0" id="circle66"/>
	<circle cx="211.284" cy="634.076" r="4" fill="#0" id="circle67"/>
	<circle cx="212.929" cy="254.056" r="4" fill="#0" id="circle68"/>
	<circle cx="217.864" cy="40.1924" r="4" fill="#0" id="circle69"/>
	<circle cx="219.509" cy="479.436" r="4" fill="#0" id="circle70"/>
	<circle cx="219.509" cy="568.272" r="4" fill="#0" id="circle71"/>
	<circle cx="219.509" cy="584.723" r="4" fill="#0" id="circle72"/>
	<circle cx="226.09" cy="263.927" r="4" fill="#0" id="circle73"/>
	<circle cx="227.735" cy="551.821" r="4" fill="#0" id="circle74"/>
	<circle cx="231.025" cy="50.063" r="4" fill="#0" id="circle75"/>
	<circle cx="232.67" cy="467.92" r="4" fill="#0" id="circle76"/>
	<circle cx="234.315" cy="431.728" r="4" fill="#0" id="circle77"/>
	<circle cx="234.315" cy="448.179" r="4" fill="#0" id="circle78"/>
	<circle cx="235.96" cy="277.088" r="4" fill="#0" id="circle79"/>
	<circle cx="239.25" cy="64.869" r="4" fill="#0" id="circle80"/>
	<circle cx="242.541" cy="543.595" r="4" fill="#0" id="circle81"/>
	<circle cx="247.476" cy="418.567" r="4" fill="#0" id="circle82"/>
	<circle cx="249.121" cy="288.604" r="4" fill="#0" id="circle83"/>
	<circle cx="250.766" cy="78.0299" r="4" fill="#0" id="circle84"/>
	<circle cx="257.347" cy="535.37" r="4" fill="#0" id="circle85"/>
	<circle cx="260.637" cy="301.765" r="4" fill="#0" id="circle86"/>
	<circle cx="260.637" cy="405.406" r="4" fill="#0" id="circle87"/>
	<circle cx="263.927" cy="89.5456" r="4" fill="#0" id="circle88"/>
	<circle cx="268.862" cy="316.57" r="4" fill="#0" id="circle89"/>
	<circle cx="273.798" cy="393.891" r="4" fill="#0" id="circle90"/>
	<circle cx="273.798" cy="535.37" r="4" fill="#0" id="circle91"/>
	<circle cx="275.443" cy="102.706" r="4" fill="#0" id="circle92"/>
	<circle cx="280.378" cy="329.731" r="4" fill="#0" id="circle93"/>
	<circle cx="285.313" cy="380.73" r="4" fill="#0" id="circle94"/>
	<circle cx="290.249" cy="535.37" r="4" fill="#0" id="circle95"/>
	<circle cx="291.894" cy="105.997" r="4" fill="#0" id="circle96"/>
	<circle cx="291.894" cy="342.892" r="4" fill="#0" id="circle97"/>
	<circle cx="291.894" cy="359.343" r="4" fill="#0" id="circle98"/>
	<circle cx="305.055" cy="543.595" r="4" fill="#0" id="circle99"/>
	<circle cx="308.345" cy="109.287" r="4" fill="#0" id="circle100"/>
	<circle cx="319.861" cy="535.37" r="4" fill="#0" id="circle101"/>
	<circle cx="324.796" cy="114.222" r="4" fill="#0" id="circle102"/>
	<circle cx="334.667" cy="527.144" r="4" fill="#0" id="circle103"/>
	<circle cx="341.247" cy="114.222" r="4" fill="#0" id="circle104"/>
	<circle cx="351.118" cy="527.144" r="4" fill="#0" id="circle105"/>
	<circle cx="356.053" cy="122.448" r="4" fill="#0" id="circle106"/>
	<circle cx="365.924" cy="518.919" r="4" fill="#0" id="circle107"/>
	<circle cx="370.859" cy="130.673" r="4" fill="#0" id="circle108"/>
	<circle cx="382.375" cy="518.919" r="4" fill="#0" id="circle109"/>
	<circle cx="387.31" cy="130.673" r="4" fill="#0" id="circle110"/>
	<circle cx="398.826" cy="518.919" r="4" fill="#0" id="circle111"/>
	<circle cx="403.761" cy="130.673" r="4" fill="#0" id="circle112"/>
	<circle cx="413.632" cy="527.144" r="4" fill="#0" id="circle113"/>
	<circle cx="420.212" cy="130.673" r="4" fill="#0" id="circle114"/>
	<circle cx="423.502" cy="540.305" r="4" fill="#0" id="circle115"/>
	<circle cx="425.148" cy="556.756" r="4" fill="#0" id="circle116"/>
	<circle cx="433.373" cy="571.562" r="4" fill="#0" id="circle117"/>
	<circle cx="435.018" cy="122.448" r="4" fill="#0" id="circle118"/>
	<circle cx="439.954" cy="588.013" r="4" fill="#0" id="circle119"/>
	<circle cx="448.179" cy="110.932" r="4" fill="#0" id="circle120"/>
	<circle cx="448.179" cy="602.819" r="4" fill="#0" id="circle121"/>
	<circle cx="448.179" cy="619.27" r="4" fill="#0" id="circle122"/>
	<circle cx="456.405" cy="634.076" r="4" fill="#0" id="circle123"/>
	<circle cx="461.34" cy="97.7711" r="4" fill="#0" id="circle124"/>
	<circle cx="461.34" cy="650.527" r="4" fill="#0" id="circle125"/>
	<circle cx="464.63" cy="666.978" r="4" fill="#0" id="circle126"/>
	<circle cx="472.856" cy="681.784" r="4" fill="#0" id="circle127"/>
	<circle cx="477.791" cy="89.5456" r="4" fill="#0" id="circle128"/>
	<circle cx="481.081" cy="696.59" r="4" fill="#0" id="circle129"/>
	<circle cx="482.726" cy="713.041" r="4" fill="#0" id="circle130"/>
	<circle cx="489.307" cy="729.493" r="4" fill="#0" id="circle131"/>
	<circle cx="490.952" cy="124.093" r="4" fill="#0" id="circle132"/>
	<circle cx="494.242" cy="81.3201" r="4" fill="#0" id="circle133"/>
	<circle cx="494.242" cy="140.544" r="4" fill="#0" id="circle134"/>
	<circle cx="497.532" cy="744.299" r="4" fill="#0" id="circle135"/>
	<circle cx="505.758" cy="759.104" r="4" fill="#0" id="circle136"/>
	<circle cx="507.403" cy="115.867" r="4" fill="#0" id="circle137"/>
	<circle cx="510.693" cy="81.3201" r="4" fill="#0" id="circle138"/>
	<circle cx="510.693" cy="147.124" r="4" fill="#0" id="circle139"/>
	<circle cx="517.274" cy="772.265" r="4" fill="#0" id="circle140"/>
	<circle cx="520.564" cy="104.352" r="4" fill="#0" id="circle141"/>
	<circle cx="525.499" cy="73.0945" r="4" fill="#0" id="circle142"/>
	<circle cx="527.144" cy="147.124" r="4" fill="#0" id="circle143"/>
	<circle cx="532.08" cy="91.1907" r="4" fill="#0" id="circle144"/>
	<circle cx="533.725" cy="765.685" r="4" fill="#0" id="circle145"/>
	<circle cx="543.595" cy="147.124" r="4" fill="#0" id="circle146"/>
	<circle cx="548.531" cy="757.459" r="4" fill="#0" id="circle147"/>
	<circle cx="560.046" cy="147.124" r="4" fill="#0" id="circle148"/>
	<circle cx="563.337" cy="749.234" r="4" fill="#0" id="circle149"/>
	<circle cx="574.852" cy="155.35" r="4" fill="#0" id="circle150"/>
	<circle cx="576.498" cy="739.363" r="4" fill="#0" id="circle151"/>
	<circle cx="581.433" cy="716.332" r="4" fill="#0" id="circle152"/>
	<circle cx="589.658" cy="699.881" r="4" fill="#0" id="circle153"/>
	<circle cx="591.303" cy="148.769" r="4" fill="#0" id="circle154"/>
	<circle cx="597.884" cy="675.204" r="4" fill="#0" id="circle155"/>
	<circle cx="606.109" cy="650.527" r="4" fill="#0" id="circle156"/>
	<circle cx="607.755" cy="155.35" r="4" fill="#0" id="circle157"/>
	<circle cx="620.915" cy="642.302" r="4" fill="#0" id="circle158"/>
	<circle cx="624.206" cy="155.35" r="4" fill="#0" id="circle159"/>
	<circle cx="630.786" cy="655.463" r="4" fill="#0" id="circle160"/>
	<circle cx="639.012" cy="147.124" r="4" fill="#0" id="circle161"/>
	<circle cx="639.012" cy="518.919" r="4" fill="#0" id="circle162"/>
	<circle cx="639.012" cy="535.37" r="4" fill="#0" id="circle163"/>
	<circle cx="639.012" cy="670.269" r="4" fill="#0" id="circle164"/>
	<circle cx="647.237" cy="502.468" r="4" fill="#0" id="circle165"/>
	<circle cx="647.237" cy="550.176" r="4" fill="#0" id="circle166"/>
	<circle cx="650.527" cy="683.43" r="4" fill="#0" id="circle167"/>
	<circle cx="653.818" cy="135.609" r="4" fill="#0" id="circle168"/>
	<circle cx="655.463" cy="564.982" r="4" fill="#0" id="circle169"/>
	<circle cx="660.398" cy="490.952" r="4" fill="#0" id="circle170"/>
	<circle cx="663.688" cy="694.945" r="4" fill="#0" id="circle171"/>
	<circle cx="668.624" cy="576.498" r="4" fill="#0" id="circle172"/>
	<circle cx="670.269" cy="127.383" r="4" fill="#0" id="circle173"/>
	<circle cx="671.914" cy="477.791" r="4" fill="#0" id="circle174"/>
	<circle cx="675.204" cy="708.106" r="4" fill="#0" id="circle175"/>
	<circle cx="680.139" cy="589.658" r="4" fill="#0" id="circle176"/>
	<circle cx="683.43" cy="114.222" r="4" fill="#0" id="circle177"/>
	<circle cx="683.43" cy="722.912" r="4" fill="#0" id="circle178"/>
	<circle cx="688.365" cy="387.31" r="4" fill="#0" id="circle179"/>
	<circle cx="688.365" cy="469.566" r="4" fill="#0" id="circle180"/>
	<circle cx="688.365" cy="604.464" r="4" fill="#0" id="circle181"/>
	<circle cx="691.655" cy="403.761" r="4" fill="#0" id="circle182"/>
	<circle cx="694.945" cy="736.073" r="4" fill="#0" id="circle183"/>
	<circle cx="696.59" cy="362.633" r="4" fill="#0" id="circle184"/>
	<circle cx="699.881" cy="105.997" r="4" fill="#0" id="circle185"/>
	<circle cx="699.881" cy="617.625" r="4" fill="#0" id="circle186"/>
	<circle cx="704.816" cy="329.731" r="4" fill="#0" id="circle187"/>
	<circle cx="704.816" cy="346.182" r="4" fill="#0" id="circle188"/>
	<circle cx="704.816" cy="461.34" r="4" fill="#0" id="circle189"/>
	<circle cx="708.106" cy="410.342" r="4" fill="#0" id="circle190"/>
	<circle cx="708.106" cy="747.589" r="4" fill="#0" id="circle191"/>
	<circle cx="713.041" cy="305.055" r="4" fill="#0" id="circle192"/>
	<circle cx="713.041" cy="444.889" r="4" fill="#0" id="circle193"/>
	<circle cx="713.041" cy="629.141" r="4" fill="#0" id="circle194"/>
	<circle cx="714.687" cy="764.04" r="4" fill="#0" id="circle195"/>
	<circle cx="716.332" cy="105.997" r="4" fill="#0" id="circle196"/>
	<circle cx="724.557" cy="402.116" r="4" fill="#0" id="circle197"/>
	<circle cx="724.557" cy="642.302" r="4" fill="#0" id="circle198"/>
	<circle cx="726.202" cy="293.539" r="4" fill="#0" id="circle199"/>
	<circle cx="729.493" cy="436.663" r="4" fill="#0" id="circle200"/>
	<circle cx="731.138" cy="114.222" r="4" fill="#0" id="circle201"/>
	<circle cx="731.138" cy="757.459" r="4" fill="#0" id="circle202"/>
	<circle cx="732.783" cy="657.108" r="4" fill="#0" id="circle203"/>
	<circle cx="737.718" cy="708.106" r="4" fill="#0" id="circle204"/>
	<circle cx="737.718" cy="724.557" r="4" fill="#0" id="circle205"/>
	<circle cx="737.718" cy="741.008" r="4" fill="#0" id="circle206"/>
	<circle cx="741.008" cy="393.891" r="4" fill="#0" id="circle207"/>
	<circle cx="742.653" cy="285.313" r="4" fill="#0" id="circle208"/>
	<circle cx="744.299" cy="428.438" r="4" fill="#0" id="circle209"/>
	<circle cx="744.299" cy="670.269" r="4" fill="#0" id="circle210"/>
	<circle cx="745.944" cy="105.997" r="4" fill="#0" id="circle211"/>
	<circle cx="745.944" cy="686.72" r="4" fill="#0" id="circle212"/>
	<circle cx="757.459" cy="393.891" r="4" fill="#0" id="circle213"/>
	<circle cx="757.459" cy="418.567" r="4" fill="#0" id="circle214"/>
	<circle cx="759.104" cy="277.088" r="4" fill="#0" id="circle215"/>
	<circle cx="762.395" cy="101.061" r="4" fill="#0" id="circle216"/>
	<circle cx="770.62" cy="263.927" r="4" fill="#0" id="circle217"/>
	<circle cx="778.846" cy="105.997" r="4" fill="#0" id="circle218"/>
	<circle cx="787.071" cy="255.701" r="4" fill="#0" id="circle219"/>
	<circle cx="793.652" cy="97.7711" r="4" fill="#0" id="circle220"/>
	<circle cx="803.522" cy="222.799" r="4" fill="#0" id="circle221"/>
	<circle cx="803.522" cy="239.25" r="4" fill="#0" id="circle222"/>
	<circle cx="810.103" cy="94.4809" r="4" fill="#0" id="circle223"/>
	<circle cx="816.683" cy="211.284" r="4" fill="#0" id="circle224"/>
	<circle cx="826.554" cy="86.2554" r="4" fill="#0" id="circle225"/>
	<circle cx="828.199" cy="189.897" r="4" fill="#0" id="circle226"/>
	<circle cx="836.425" cy="173.446" r="4" fill="#0" id="circle227"/>
	<circle cx="839.715" cy="73.0945" r="4" fill="#0" id="circle228"/>
	<circle cx="844.65" cy="156.995" r="4" fill="#0" id="circle229"/>
	<circle cx="856.166" cy="64.869" r="4" fill="#0" id="circle230"/>
	<circle cx="859.456" cy="148.769" r="4" fill="#0" id="circle231"/>
	<circle cx="870.972" cy="56.6434" r="4" fill="#0" id="circle232"/>
	<circle cx="872.617" cy="138.899" r="4" fill="#0" id="circle233"/>
	<circle cx="884.133" cy="45.1277" r="4" fill="#0" id="circle234"/>
	<circle cx="889.068" cy="130.673" r="4" fill="#0" id="circle235"/>
	<circle cx="900.584" cy="36.9022" r="4" fill="#0" id="circle236"/>
	<circle cx="902.229" cy="115.867" r="4" fill="#0" id="circle237"/>
	<circle cx="917.035" cy="28.6766" r="4" fill="#0" id="circle238"/>
	<circle cx="918.68" cy="107.642" r="4" fill="#0" id="circle239"/>
	<circle cx="931.841" cy="96.126" r="4" fill="#0" id="circle240"/>
	<circle cx="933.486" cy="23.7413" r="4" fill="#0" id="circle241"/>
	<circle cx="948.292" cy="15.5158" r="4" fill="#0" id="circle242"/>
	<circle cx="948.292" cy="87.9005" r="4" fill="#0" id="circle243"/>
	<circle cx="959.808" cy="74.7396" r="4" fill="#0" id="circle244"/>
	<circle cx="964.743" cy="15.5158" r="4" fill="#0" id="circle245"/>
	<circle cx="972.968" cy="63.2239" r="4" fill="#0" id="circle246"/>
	<circle cx="979.549" cy="7.29022" r="4" fill="#0" id="circle247"/>
	<circle cx="981.194" cy="46.7728" r="4" fill="#0" id="circle248"/>
	<circle cx="992.71" cy="33.6119" r="4" fill="#0" id="circle249"/>
	<circle cx="996" cy="7.29022" r="4" fill="#0" id="circle250"/>
	</g>
</svg>