<?xml version="1.0" encoding="UTF-8" standalone="no"?>
<!-- Created with CurveBenchmark -->
<svg
	xmlns:dc="http://purl.org/dc/elements/1.1/"
	xmlns:cc="http://creativecommons.org/ns#"
	xmlns:rdf="http://www.w3.org/1999/02/22-rdf-syntax-ns#"
	xmlns:svg="http://www.w3.org/2000/svg"
	xmlns="http://www.w3.org/2000/svg"
	xmlns:sodipodi="http://sodipodi.sourceforge.net/DTD/sodipodi-0.dtd"
	xmlns:inkscape="http://www.inkscape.org/namespaces/inkscape"
	width="1000"
	height="1000"
	id="svg2"
	version="1.1"
	sodipodi:docname="manifold/ccrust-classic15.png.txt">
<defs
	id="defs4" />
<metadata
	id="metadata7">
	<rdf:RDF>
		<cc:Work
			rdf:about="">
			<dc:format>image/svg+xml</dc:format>
			<dc:type
				rdf:resource="http://purl.org/dc/dcmitype/StillImage" />
			<dc:title></dc:title>
		</cc:Work>
	</rdf:RDF>
</metadata>
<g
	inkscape:label="Layer 1"
	inkscape:groupmode="layer"
	id="layer1">
	<path style="fill:none;stroke:red;stroke-width:1px;stroke-linecap:butt;stroke-linejoin:miter;stroke-opacity:1" d="M 169.028,123.187 183.697,108.518 z" id="boundary" inkscape:connector-curvature="0" />
	<path style="fill:none;stroke:red;stroke-width:1px;stroke-linecap:butt;stroke-linejoin:miter;stroke-opacity:1" d="M 183.697,136.022 169.028,123.187 z" id="boundary" inkscape:connector-curvature="0" />
	<path style="fill:none;stroke:red;stroke-width:1px;stroke-linecap:butt;stroke-linejoin:miter;stroke-opacity:1" d="M 183.697,108.518 200.2,117.686 z" id="boundary" inkscape:connector-curvature="0" />
	<path style="fill:none;stroke:red;stroke-width:1px;stroke-linecap:butt;stroke-linejoin:miter;stroke-opacity:1" d="M 233.205,126.854 214.869,130.521 z" id="boundary" inkscape:connector-curvature="0" />
	<path style="fill:none;stroke:red;stroke-width:1px;stroke-linecap:butt;stroke-linejoin:miter;stroke-opacity:1" d="M 214.869,130.521 200.2,117.686 z" id="boundary" inkscape:connector-curvature="0" />
	<path style="fill:none;stroke:red;stroke-width:1px;stroke-linecap:butt;stroke-linejoin:miter;stroke-opacity:1" d="M 251.542,126.854 233.205,126.854 z" id="boundary" inkscape:connector-curvature="0" />
	<path style="fill:none;stroke:red;stroke-width:1px;stroke-linecap:butt;stroke-linejoin:miter;stroke-opacity:1" d="M 269.878,126.854 251.542,126.854 z" id="boundary" inkscape:connector-curvature="0" />
	<path style="fill:none;stroke:red;stroke-width:1px;stroke-linecap:butt;stroke-linejoin:miter;stroke-opacity:1" d="M 40.6728,214.869 49.841,231.372 z" id="boundary" inkscape:connector-curvature="0" />
	<path style="fill:none;stroke:red;stroke-width:1px;stroke-linecap:butt;stroke-linejoin:miter;stroke-opacity:1" d="M 49.841,231.372 46.1738,255.209 z" id="boundary" inkscape:connector-curvature="0" />
	<path style="fill:none;stroke:red;stroke-width:1px;stroke-linecap:butt;stroke-linejoin:miter;stroke-opacity:1" d="M 40.6728,214.869 55.342,200.2 z" id="boundary" inkscape:connector-curvature="0" />
	<path style="fill:none;stroke:red;stroke-width:1px;stroke-linecap:butt;stroke-linejoin:miter;stroke-opacity:1" d="M 55.342,200.2 70.0111,185.53 z" id="boundary" inkscape:connector-curvature="0" />
	<path style="fill:none;stroke:red;stroke-width:1px;stroke-linecap:butt;stroke-linejoin:miter;stroke-opacity:1" d="M 70.0111,185.53 88.3475,181.863 z" id="boundary" inkscape:connector-curvature="0" />
	<path style="fill:none;stroke:red;stroke-width:1px;stroke-linecap:butt;stroke-linejoin:miter;stroke-opacity:1" d="M 121.353,163.527 139.689,163.527 z" id="boundary" inkscape:connector-curvature="0" />
	<path style="fill:none;stroke:red;stroke-width:1px;stroke-linecap:butt;stroke-linejoin:miter;stroke-opacity:1" d="M 139.689,163.527 156.192,172.695 z" id="boundary" inkscape:connector-curvature="0" />
	<path style="fill:none;stroke:red;stroke-width:1px;stroke-linecap:butt;stroke-linejoin:miter;stroke-opacity:1" d="M 88.3475,181.863 104.85,172.695 z" id="boundary" inkscape:connector-curvature="0" />
	<path style="fill:none;stroke:red;stroke-width:1px;stroke-linecap:butt;stroke-linejoin:miter;stroke-opacity:1" d="M 104.85,172.695 121.353,163.527 z" id="boundary" inkscape:connector-curvature="0" />
	<path style="fill:none;stroke:red;stroke-width:1px;stroke-linecap:butt;stroke-linejoin:miter;stroke-opacity:1" d="M 370.728,40.6728 389.065,31.5046 z" id="boundary" inkscape:connector-curvature="0" />
	<path style="fill:none;stroke:red;stroke-width:1px;stroke-linecap:butt;stroke-linejoin:miter;stroke-opacity:1" d="M 381.73,55.342 370.728,40.6728 z" id="boundary" inkscape:connector-curvature="0" />
	<path style="fill:none;stroke:red;stroke-width:1px;stroke-linecap:butt;stroke-linejoin:miter;stroke-opacity:1" d="M 352.392,49.841 370.728,40.6728 z" id="boundary" inkscape:connector-curvature="0" />
	<path style="fill:none;stroke:red;stroke-width:1px;stroke-linecap:butt;stroke-linejoin:miter;stroke-opacity:1" d="M 398.233,64.5102 381.73,55.342 z" id="boundary" inkscape:connector-curvature="0" />
	<path style="fill:none;stroke:red;stroke-width:1px;stroke-linecap:butt;stroke-linejoin:miter;stroke-opacity:1" d="M 480.747,13.1682 462.41,16.8355 z" id="boundary" inkscape:connector-curvature="0" />
	<path style="fill:none;stroke:red;stroke-width:1px;stroke-linecap:butt;stroke-linejoin:miter;stroke-opacity:1" d="M 462.41,16.8355 444.074,16.8355 z" id="boundary" inkscape:connector-curvature="0" />
	<path style="fill:none;stroke:red;stroke-width:1px;stroke-linecap:butt;stroke-linejoin:miter;stroke-opacity:1" d="M 407.401,26.0037 425.738,22.3364 z" id="boundary" inkscape:connector-curvature="0" />
	<path style="fill:none;stroke:red;stroke-width:1px;stroke-linecap:butt;stroke-linejoin:miter;stroke-opacity:1" d="M 444.074,16.8355 425.738,22.3364 z" id="boundary" inkscape:connector-curvature="0" />
	<path style="fill:none;stroke:red;stroke-width:1px;stroke-linecap:butt;stroke-linejoin:miter;stroke-opacity:1" d="M 389.065,31.5046 407.401,26.0037 z" id="boundary" inkscape:connector-curvature="0" />
	<path style="fill:none;stroke:red;stroke-width:1px;stroke-linecap:butt;stroke-linejoin:miter;stroke-opacity:1" d="M 306.551,121.353 324.887,121.353 z" id="boundary" inkscape:connector-curvature="0" />
	<path style="fill:none;stroke:red;stroke-width:1px;stroke-linecap:butt;stroke-linejoin:miter;stroke-opacity:1" d="M 288.214,126.854 306.551,121.353 z" id="boundary" inkscape:connector-curvature="0" />
	<path style="fill:none;stroke:red;stroke-width:1px;stroke-linecap:butt;stroke-linejoin:miter;stroke-opacity:1" d="M 324.887,121.353 343.224,121.353 z" id="boundary" inkscape:connector-curvature="0" />
	<path style="fill:none;stroke:red;stroke-width:1px;stroke-linecap:butt;stroke-linejoin:miter;stroke-opacity:1" d="M 288.214,126.854 269.878,126.854 z" id="boundary" inkscape:connector-curvature="0" />
	<path style="fill:none;stroke:red;stroke-width:1px;stroke-linecap:butt;stroke-linejoin:miter;stroke-opacity:1" d="M 398.233,95.6821 398.233,64.5102 z" id="boundary" inkscape:connector-curvature="0" />
	<path style="fill:none;stroke:red;stroke-width:1px;stroke-linecap:butt;stroke-linejoin:miter;stroke-opacity:1" d="M 361.56,121.353 379.896,114.018 z" id="boundary" inkscape:connector-curvature="0" />
	<path style="fill:none;stroke:red;stroke-width:1px;stroke-linecap:butt;stroke-linejoin:miter;stroke-opacity:1" d="M 379.896,114.018 398.233,114.018 z" id="boundary" inkscape:connector-curvature="0" />
	<path style="fill:none;stroke:red;stroke-width:1px;stroke-linecap:butt;stroke-linejoin:miter;stroke-opacity:1" d="M 398.233,95.6821 398.233,114.018 z" id="boundary" inkscape:connector-curvature="0" />
	<path style="fill:none;stroke:red;stroke-width:1px;stroke-linecap:butt;stroke-linejoin:miter;stroke-opacity:1" d="M 343.224,121.353 361.56,121.353 z" id="boundary" inkscape:connector-curvature="0" />
	<path style="fill:none;stroke:red;stroke-width:1px;stroke-linecap:butt;stroke-linejoin:miter;stroke-opacity:1" d="M 495.416,348.725 477.079,348.725 z" id="boundary" inkscape:connector-curvature="0" />
	<path style="fill:none;stroke:red;stroke-width:1px;stroke-linecap:butt;stroke-linejoin:miter;stroke-opacity:1" d="M 4,288.214 18.6691,273.545 z" id="boundary" inkscape:connector-curvature="0" />
	<path style="fill:none;stroke:red;stroke-width:1px;stroke-linecap:butt;stroke-linejoin:miter;stroke-opacity:1" d="M 13.1682,304.717 4,288.214 z" id="boundary" inkscape:connector-curvature="0" />
	<path style="fill:none;stroke:red;stroke-width:1px;stroke-linecap:butt;stroke-linejoin:miter;stroke-opacity:1" d="M 13.1682,304.717 31.5046,312.052 z" id="boundary" inkscape:connector-curvature="0" />
	<path style="fill:none;stroke:red;stroke-width:1px;stroke-linecap:butt;stroke-linejoin:miter;stroke-opacity:1" d="M 31.5046,312.052 42.5065,326.721 z" id="boundary" inkscape:connector-curvature="0" />
	<path style="fill:none;stroke:red;stroke-width:1px;stroke-linecap:butt;stroke-linejoin:miter;stroke-opacity:1" d="M 18.6691,273.545 37.0055,273.545 z" id="boundary" inkscape:connector-curvature="0" />
	<path style="fill:none;stroke:red;stroke-width:1px;stroke-linecap:butt;stroke-linejoin:miter;stroke-opacity:1" d="M 37.0055,273.545 46.1738,255.209 z" id="boundary" inkscape:connector-curvature="0" />
	<path style="fill:none;stroke:red;stroke-width:1px;stroke-linecap:butt;stroke-linejoin:miter;stroke-opacity:1" d="M 42.5065,326.721 57.1756,339.556 z" id="boundary" inkscape:connector-curvature="0" />
	<path style="fill:none;stroke:red;stroke-width:1px;stroke-linecap:butt;stroke-linejoin:miter;stroke-opacity:1" d="M 57.1756,339.556 64.5102,357.893 z" id="boundary" inkscape:connector-curvature="0" />
	<path style="fill:none;stroke:red;stroke-width:1px;stroke-linecap:butt;stroke-linejoin:miter;stroke-opacity:1" d="M 82.8466,365.227 64.5102,357.893 z" id="boundary" inkscape:connector-curvature="0" />
	<path style="fill:none;stroke:red;stroke-width:1px;stroke-linecap:butt;stroke-linejoin:miter;stroke-opacity:1" d="M 82.8466,365.227 99.3494,374.396 z" id="boundary" inkscape:connector-curvature="0" />
	<path style="fill:none;stroke:red;stroke-width:1px;stroke-linecap:butt;stroke-linejoin:miter;stroke-opacity:1" d="M 117.686,376.229 99.3494,374.396 z" id="boundary" inkscape:connector-curvature="0" />
	<path style="fill:none;stroke:red;stroke-width:1px;stroke-linecap:butt;stroke-linejoin:miter;stroke-opacity:1" d="M 117.686,376.229 136.022,376.229 z" id="boundary" inkscape:connector-curvature="0" />
	<path style="fill:none;stroke:red;stroke-width:1px;stroke-linecap:butt;stroke-linejoin:miter;stroke-opacity:1" d="M 152.525,367.061 136.022,376.229 z" id="boundary" inkscape:connector-curvature="0" />
	<path style="fill:none;stroke:red;stroke-width:1px;stroke-linecap:butt;stroke-linejoin:miter;stroke-opacity:1" d="M 152.525,367.061 169.028,376.229 z" id="boundary" inkscape:connector-curvature="0" />
	<path style="fill:none;stroke:red;stroke-width:1px;stroke-linecap:butt;stroke-linejoin:miter;stroke-opacity:1" d="M 169.028,376.229 169.028,394.566 z" id="boundary" inkscape:connector-curvature="0" />
	<path style="fill:none;stroke:red;stroke-width:1px;stroke-linecap:butt;stroke-linejoin:miter;stroke-opacity:1" d="M 180.03,409.235 169.028,394.566 z" id="boundary" inkscape:connector-curvature="0" />
	<path style="fill:none;stroke:red;stroke-width:1px;stroke-linecap:butt;stroke-linejoin:miter;stroke-opacity:1" d="M 198.366,416.569 180.03,409.235 z" id="boundary" inkscape:connector-curvature="0" />
	<path style="fill:none;stroke:red;stroke-width:1px;stroke-linecap:butt;stroke-linejoin:miter;stroke-opacity:1" d="M 198.366,416.569 211.201,431.238 z" id="boundary" inkscape:connector-curvature="0" />
	<path style="fill:none;stroke:red;stroke-width:1px;stroke-linecap:butt;stroke-linejoin:miter;stroke-opacity:1" d="M 335.889,339.556 354.226,330.388 z" id="boundary" inkscape:connector-curvature="0" />
	<path style="fill:none;stroke:red;stroke-width:1px;stroke-linecap:butt;stroke-linejoin:miter;stroke-opacity:1" d="M 326.721,367.061 335.889,339.556 z" id="boundary" inkscape:connector-curvature="0" />
	<path style="fill:none;stroke:red;stroke-width:1px;stroke-linecap:butt;stroke-linejoin:miter;stroke-opacity:1" d="M 372.562,330.388 390.898,330.388 z" id="boundary" inkscape:connector-curvature="0" />
	<path style="fill:none;stroke:red;stroke-width:1px;stroke-linecap:butt;stroke-linejoin:miter;stroke-opacity:1" d="M 354.226,330.388 372.562,330.388 z" id="boundary" inkscape:connector-curvature="0" />
	<path style="fill:none;stroke:red;stroke-width:1px;stroke-linecap:butt;stroke-linejoin:miter;stroke-opacity:1" d="M 409.235,334.055 422.07,348.725 z" id="boundary" inkscape:connector-curvature="0" />
	<path style="fill:none;stroke:red;stroke-width:1px;stroke-linecap:butt;stroke-linejoin:miter;stroke-opacity:1" d="M 390.898,330.388 409.235,334.055 z" id="boundary" inkscape:connector-curvature="0" />
	<path style="fill:none;stroke:red;stroke-width:1px;stroke-linecap:butt;stroke-linejoin:miter;stroke-opacity:1" d="M 440.407,348.725 422.07,348.725 z" id="boundary" inkscape:connector-curvature="0" />
	<path style="fill:none;stroke:red;stroke-width:1px;stroke-linecap:butt;stroke-linejoin:miter;stroke-opacity:1" d="M 440.407,348.725 458.743,348.725 z" id="boundary" inkscape:connector-curvature="0" />
	<path style="fill:none;stroke:red;stroke-width:1px;stroke-linecap:butt;stroke-linejoin:miter;stroke-opacity:1" d="M 477.079,348.725 458.743,348.725 z" id="boundary" inkscape:connector-curvature="0" />
	<path style="fill:none;stroke:red;stroke-width:1px;stroke-linecap:butt;stroke-linejoin:miter;stroke-opacity:1" d="M 229.538,438.573 211.201,431.238 z" id="boundary" inkscape:connector-curvature="0" />
	<path style="fill:none;stroke:red;stroke-width:1px;stroke-linecap:butt;stroke-linejoin:miter;stroke-opacity:1" d="M 280.88,422.07 266.211,438.573 z" id="boundary" inkscape:connector-curvature="0" />
	<path style="fill:none;stroke:red;stroke-width:1px;stroke-linecap:butt;stroke-linejoin:miter;stroke-opacity:1" d="M 266.211,438.573 247.874,438.573 z" id="boundary" inkscape:connector-curvature="0" />
	<path style="fill:none;stroke:red;stroke-width:1px;stroke-linecap:butt;stroke-linejoin:miter;stroke-opacity:1" d="M 247.874,438.573 229.538,438.573 z" id="boundary" inkscape:connector-curvature="0" />
	<path style="fill:none;stroke:red;stroke-width:1px;stroke-linecap:butt;stroke-linejoin:miter;stroke-opacity:1" d="M 317.553,385.397 326.721,367.061 z" id="boundary" inkscape:connector-curvature="0" />
	<path style="fill:none;stroke:red;stroke-width:1px;stroke-linecap:butt;stroke-linejoin:miter;stroke-opacity:1" d="M 317.553,403.734 317.553,385.397 z" id="boundary" inkscape:connector-curvature="0" />
	<path style="fill:none;stroke:red;stroke-width:1px;stroke-linecap:butt;stroke-linejoin:miter;stroke-opacity:1" d="M 280.88,422.07 299.216,412.902 z" id="boundary" inkscape:connector-curvature="0" />
	<path style="fill:none;stroke:red;stroke-width:1px;stroke-linecap:butt;stroke-linejoin:miter;stroke-opacity:1" d="M 317.553,403.734 299.216,412.902 z" id="boundary" inkscape:connector-curvature="0" />
	<path style="fill:none;stroke:red;stroke-width:1px;stroke-linecap:butt;stroke-linejoin:miter;stroke-opacity:1" d="M 480.747,13.1682 499.083,13.1682 z" id="boundary" inkscape:connector-curvature="0" />
	<path style="fill:none;stroke:red;stroke-width:1px;stroke-linecap:butt;stroke-linejoin:miter;stroke-opacity:1" d="M 590.765,4 609.102,4 z" id="boundary" inkscape:connector-curvature="0" />
	<path style="fill:none;stroke:red;stroke-width:1px;stroke-linecap:butt;stroke-linejoin:miter;stroke-opacity:1" d="M 572.429,7.66728 590.765,4 z" id="boundary" inkscape:connector-curvature="0" />
	<path style="fill:none;stroke:red;stroke-width:1px;stroke-linecap:butt;stroke-linejoin:miter;stroke-opacity:1" d="M 609.102,4 627.438,4 z" id="boundary" inkscape:connector-curvature="0" />
	<path style="fill:none;stroke:red;stroke-width:1px;stroke-linecap:butt;stroke-linejoin:miter;stroke-opacity:1" d="M 664.111,4 682.447,4 z" id="boundary" inkscape:connector-curvature="0" />
	<path style="fill:none;stroke:red;stroke-width:1px;stroke-linecap:butt;stroke-linejoin:miter;stroke-opacity:1" d="M 700.784,4 719.12,4 z" id="boundary" inkscape:connector-curvature="0" />
	<path style="fill:none;stroke:red;stroke-width:1px;stroke-linecap:butt;stroke-linejoin:miter;stroke-opacity:1" d="M 719.12,4 737.457,4 z" id="boundary" inkscape:connector-curvature="0" />
	<path style="fill:none;stroke:red;stroke-width:1px;stroke-linecap:butt;stroke-linejoin:miter;stroke-opacity:1" d="M 682.447,4 700.784,4 z" id="boundary" inkscape:connector-curvature="0" />
	<path style="fill:none;stroke:red;stroke-width:1px;stroke-linecap:butt;stroke-linejoin:miter;stroke-opacity:1" d="M 627.438,4 645.774,4 z" id="boundary" inkscape:connector-curvature="0" />
	<path style="fill:none;stroke:red;stroke-width:1px;stroke-linecap:butt;stroke-linejoin:miter;stroke-opacity:1" d="M 517.42,7.66728 535.756,7.66728 z" id="boundary" inkscape:connector-curvature="0" />
	<path style="fill:none;stroke:red;stroke-width:1px;stroke-linecap:butt;stroke-linejoin:miter;stroke-opacity:1" d="M 499.083,13.1682 517.42,7.66728 z" id="boundary" inkscape:connector-curvature="0" />
	<path style="fill:none;stroke:red;stroke-width:1px;stroke-linecap:butt;stroke-linejoin:miter;stroke-opacity:1" d="M 535.756,7.66728 554.092,7.66728 z" id="boundary" inkscape:connector-curvature="0" />
	<path style="fill:none;stroke:red;stroke-width:1px;stroke-linecap:butt;stroke-linejoin:miter;stroke-opacity:1" d="M 645.774,4 664.111,4 z" id="boundary" inkscape:connector-curvature="0" />
	<path style="fill:none;stroke:red;stroke-width:1px;stroke-linecap:butt;stroke-linejoin:miter;stroke-opacity:1" d="M 572.429,7.66728 554.092,7.66728 z" id="boundary" inkscape:connector-curvature="0" />
	<path style="fill:none;stroke:red;stroke-width:1px;stroke-linecap:butt;stroke-linejoin:miter;stroke-opacity:1" d="M 792.466,7.66728 774.129,7.66728 z" id="boundary" inkscape:connector-curvature="0" />
	<path style="fill:none;stroke:red;stroke-width:1px;stroke-linecap:butt;stroke-linejoin:miter;stroke-opacity:1" d="M 774.129,7.66728 755.793,4 z" id="boundary" inkscape:connector-curvature="0" />
	<path style="fill:none;stroke:red;stroke-width:1px;stroke-linecap:butt;stroke-linejoin:miter;stroke-opacity:1" d="M 810.802,7.66728 792.466,7.66728 z" id="boundary" inkscape:connector-curvature="0" />
	<path style="fill:none;stroke:red;stroke-width:1px;stroke-linecap:butt;stroke-linejoin:miter;stroke-opacity:1" d="M 829.139,7.66728 810.802,7.66728 z" id="boundary" inkscape:connector-curvature="0" />
	<path style="fill:none;stroke:red;stroke-width:1px;stroke-linecap:butt;stroke-linejoin:miter;stroke-opacity:1" d="M 737.457,4 755.793,4 z" id="boundary" inkscape:connector-curvature="0" />
	<path style="fill:none;stroke:red;stroke-width:1px;stroke-linecap:butt;stroke-linejoin:miter;stroke-opacity:1" d="M 847.475,11.3346 829.139,7.66728 z" id="boundary" inkscape:connector-curvature="0" />
	<path style="fill:none;stroke:red;stroke-width:1px;stroke-linecap:butt;stroke-linejoin:miter;stroke-opacity:1" d="M 865.811,16.8355 884.148,16.8355 z" id="boundary" inkscape:connector-curvature="0" />
	<path style="fill:none;stroke:red;stroke-width:1px;stroke-linecap:butt;stroke-linejoin:miter;stroke-opacity:1" d="M 884.148,16.8355 900.651,26.0037 z" id="boundary" inkscape:connector-curvature="0" />
	<path style="fill:none;stroke:red;stroke-width:1px;stroke-linecap:butt;stroke-linejoin:miter;stroke-opacity:1" d="M 865.811,16.8355 847.475,11.3346 z" id="boundary" inkscape:connector-curvature="0" />
	<path style="fill:none;stroke:red;stroke-width:1px;stroke-linecap:butt;stroke-linejoin:miter;stroke-opacity:1" d="M 900.651,26.0037 918.987,27.8373 z" id="boundary" inkscape:connector-curvature="0" />
	<path style="fill:none;stroke:red;stroke-width:1px;stroke-linecap:butt;stroke-linejoin:miter;stroke-opacity:1" d="M 918.987,27.8373 931.823,42.5065 z" id="boundary" inkscape:connector-curvature="0" />
	<path style="fill:none;stroke:red;stroke-width:1px;stroke-linecap:butt;stroke-linejoin:miter;stroke-opacity:1" d="M 931.823,42.5065 940.991,59.0092 z" id="boundary" inkscape:connector-curvature="0" />
	<path style="fill:none;stroke:red;stroke-width:1px;stroke-linecap:butt;stroke-linejoin:miter;stroke-opacity:1" d="M 940.991,59.0092 940.991,77.3457 z" id="boundary" inkscape:connector-curvature="0" />
	<path style="fill:none;stroke:red;stroke-width:1px;stroke-linecap:butt;stroke-linejoin:miter;stroke-opacity:1" d="M 940.991,77.3457 940.991,95.6821 z" id="boundary" inkscape:connector-curvature="0" />
	<path style="fill:none;stroke:red;stroke-width:1px;stroke-linecap:butt;stroke-linejoin:miter;stroke-opacity:1" d="M 940.991,95.6821 940.991,114.018 z" id="boundary" inkscape:connector-curvature="0" />
	<path style="fill:none;stroke:red;stroke-width:1px;stroke-linecap:butt;stroke-linejoin:miter;stroke-opacity:1" d="M 940.991,114.018 931.823,137.856 z" id="boundary" inkscape:connector-curvature="0" />
	<path style="fill:none;stroke:red;stroke-width:1px;stroke-linecap:butt;stroke-linejoin:miter;stroke-opacity:1" d="M 931.823,137.856 940.991,154.359 z" id="boundary" inkscape:connector-curvature="0" />
	<path style="fill:none;stroke:red;stroke-width:1px;stroke-linecap:butt;stroke-linejoin:miter;stroke-opacity:1" d="M 940.991,154.359 940.991,172.695 z" id="boundary" inkscape:connector-curvature="0" />
	<path style="fill:none;stroke:red;stroke-width:1px;stroke-linecap:butt;stroke-linejoin:miter;stroke-opacity:1" d="M 950.159,189.198 940.991,172.695 z" id="boundary" inkscape:connector-curvature="0" />
	<path style="fill:none;stroke:red;stroke-width:1px;stroke-linecap:butt;stroke-linejoin:miter;stroke-opacity:1" d="M 959.327,205.701 977.664,200.2 z" id="boundary" inkscape:connector-curvature="0" />
	<path style="fill:none;stroke:red;stroke-width:1px;stroke-linecap:butt;stroke-linejoin:miter;stroke-opacity:1" d="M 977.664,200.2 977.664,220.37 z" id="boundary" inkscape:connector-curvature="0" />
	<path style="fill:none;stroke:red;stroke-width:1px;stroke-linecap:butt;stroke-linejoin:miter;stroke-opacity:1" d="M 959.327,205.701 950.159,189.198 z" id="boundary" inkscape:connector-curvature="0" />
	<path style="fill:none;stroke:red;stroke-width:1px;stroke-linecap:butt;stroke-linejoin:miter;stroke-opacity:1" d="M 992.333,231.372 977.664,220.37 z" id="boundary" inkscape:connector-curvature="0" />
	<path style="fill:none;stroke:red;stroke-width:1px;stroke-linecap:butt;stroke-linejoin:miter;stroke-opacity:1" d="M 642.107,339.556 623.771,339.556 z" id="boundary" inkscape:connector-curvature="0" />
	<path style="fill:none;stroke:red;stroke-width:1px;stroke-linecap:butt;stroke-linejoin:miter;stroke-opacity:1" d="M 695.283,330.388 713.619,330.388 z" id="boundary" inkscape:connector-curvature="0" />
	<path style="fill:none;stroke:red;stroke-width:1px;stroke-linecap:butt;stroke-linejoin:miter;stroke-opacity:1" d="M 676.946,330.388 695.283,330.388 z" id="boundary" inkscape:connector-curvature="0" />
	<path style="fill:none;stroke:red;stroke-width:1px;stroke-linecap:butt;stroke-linejoin:miter;stroke-opacity:1" d="M 660.444,339.556 676.946,330.388 z" id="boundary" inkscape:connector-curvature="0" />
	<path style="fill:none;stroke:red;stroke-width:1px;stroke-linecap:butt;stroke-linejoin:miter;stroke-opacity:1" d="M 750.292,330.388 731.956,330.388 z" id="boundary" inkscape:connector-curvature="0" />
	<path style="fill:none;stroke:red;stroke-width:1px;stroke-linecap:butt;stroke-linejoin:miter;stroke-opacity:1" d="M 731.956,330.388 713.619,330.388 z" id="boundary" inkscape:connector-curvature="0" />
	<path style="fill:none;stroke:red;stroke-width:1px;stroke-linecap:butt;stroke-linejoin:miter;stroke-opacity:1" d="M 768.628,330.388 750.292,330.388 z" id="boundary" inkscape:connector-curvature="0" />
	<path style="fill:none;stroke:red;stroke-width:1px;stroke-linecap:butt;stroke-linejoin:miter;stroke-opacity:1" d="M 785.131,321.22 768.628,330.388 z" id="boundary" inkscape:connector-curvature="0" />
	<path style="fill:none;stroke:red;stroke-width:1px;stroke-linecap:butt;stroke-linejoin:miter;stroke-opacity:1" d="M 785.131,321.22 801.634,330.388 z" id="boundary" inkscape:connector-curvature="0" />
	<path style="fill:none;stroke:red;stroke-width:1px;stroke-linecap:butt;stroke-linejoin:miter;stroke-opacity:1" d="M 513.752,348.725 495.416,348.725 z" id="boundary" inkscape:connector-curvature="0" />
	<path style="fill:none;stroke:red;stroke-width:1px;stroke-linecap:butt;stroke-linejoin:miter;stroke-opacity:1" d="M 550.425,346.891 532.089,348.725 z" id="boundary" inkscape:connector-curvature="0" />
	<path style="fill:none;stroke:red;stroke-width:1px;stroke-linecap:butt;stroke-linejoin:miter;stroke-opacity:1" d="M 532.089,348.725 513.752,348.725 z" id="boundary" inkscape:connector-curvature="0" />
	<path style="fill:none;stroke:red;stroke-width:1px;stroke-linecap:butt;stroke-linejoin:miter;stroke-opacity:1" d="M 550.425,346.891 568.762,346.891 z" id="boundary" inkscape:connector-curvature="0" />
	<path style="fill:none;stroke:red;stroke-width:1px;stroke-linecap:butt;stroke-linejoin:miter;stroke-opacity:1" d="M 642.107,339.556 660.444,339.556 z" id="boundary" inkscape:connector-curvature="0" />
	<path style="fill:none;stroke:red;stroke-width:1px;stroke-linecap:butt;stroke-linejoin:miter;stroke-opacity:1" d="M 568.762,346.891 587.098,346.891 z" id="boundary" inkscape:connector-curvature="0" />
	<path style="fill:none;stroke:red;stroke-width:1px;stroke-linecap:butt;stroke-linejoin:miter;stroke-opacity:1" d="M 623.771,339.556 605.434,346.891 z" id="boundary" inkscape:connector-curvature="0" />
	<path style="fill:none;stroke:red;stroke-width:1px;stroke-linecap:butt;stroke-linejoin:miter;stroke-opacity:1" d="M 605.434,346.891 587.098,346.891 z" id="boundary" inkscape:connector-curvature="0" />
	<path style="fill:none;stroke:red;stroke-width:1px;stroke-linecap:butt;stroke-linejoin:miter;stroke-opacity:1" d="M 801.634,330.388 807.135,348.725 z" id="boundary" inkscape:connector-curvature="0" />
	<path style="fill:none;stroke:red;stroke-width:1px;stroke-linecap:butt;stroke-linejoin:miter;stroke-opacity:1" d="M 940.991,302.884 959.327,306.551 z" id="boundary" inkscape:connector-curvature="0" />
	<path style="fill:none;stroke:red;stroke-width:1px;stroke-linecap:butt;stroke-linejoin:miter;stroke-opacity:1" d="M 931.823,321.22 940.991,302.884 z" id="boundary" inkscape:connector-curvature="0" />
	<path style="fill:none;stroke:red;stroke-width:1px;stroke-linecap:butt;stroke-linejoin:miter;stroke-opacity:1" d="M 975.83,297.383 959.327,306.551 z" id="boundary" inkscape:connector-curvature="0" />
	<path style="fill:none;stroke:red;stroke-width:1px;stroke-linecap:butt;stroke-linejoin:miter;stroke-opacity:1" d="M 975.83,297.383 994.166,302.884 z" id="boundary" inkscape:connector-curvature="0" />
	<path style="fill:none;stroke:red;stroke-width:1px;stroke-linecap:butt;stroke-linejoin:miter;stroke-opacity:1" d="M 977.664,247.874 992.333,231.372 z" id="boundary" inkscape:connector-curvature="0" />
	<path style="fill:none;stroke:red;stroke-width:1px;stroke-linecap:butt;stroke-linejoin:miter;stroke-opacity:1" d="M 986.832,266.211 977.664,247.874 z" id="boundary" inkscape:connector-curvature="0" />
	<path style="fill:none;stroke:red;stroke-width:1px;stroke-linecap:butt;stroke-linejoin:miter;stroke-opacity:1" d="M 977.664,247.874 959.327,247.874 z" id="boundary" inkscape:connector-curvature="0" />
	<path style="fill:none;stroke:red;stroke-width:1px;stroke-linecap:butt;stroke-linejoin:miter;stroke-opacity:1" d="M 996,284.547 994.166,302.884 z" id="boundary" inkscape:connector-curvature="0" />
	<path style="fill:none;stroke:red;stroke-width:1px;stroke-linecap:butt;stroke-linejoin:miter;stroke-opacity:1" d="M 996,284.547 986.832,266.211 z" id="boundary" inkscape:connector-curvature="0" />
	<path style="fill:none;stroke:red;stroke-width:1px;stroke-linecap:butt;stroke-linejoin:miter;stroke-opacity:1" d="M 807.135,348.725 821.804,361.56 z" id="boundary" inkscape:connector-curvature="0" />
	<path style="fill:none;stroke:red;stroke-width:1px;stroke-linecap:butt;stroke-linejoin:miter;stroke-opacity:1" d="M 840.14,367.061 856.643,376.229 z" id="boundary" inkscape:connector-curvature="0" />
	<path style="fill:none;stroke:red;stroke-width:1px;stroke-linecap:butt;stroke-linejoin:miter;stroke-opacity:1" d="M 821.804,361.56 840.14,367.061 z" id="boundary" inkscape:connector-curvature="0" />
	<path style="fill:none;stroke:red;stroke-width:1px;stroke-linecap:butt;stroke-linejoin:miter;stroke-opacity:1" d="M 874.98,370.728 856.643,376.229 z" id="boundary" inkscape:connector-curvature="0" />
	<path style="fill:none;stroke:red;stroke-width:1px;stroke-linecap:butt;stroke-linejoin:miter;stroke-opacity:1" d="M 922.654,339.556 931.823,321.22 z" id="boundary" inkscape:connector-curvature="0" />
	<path style="fill:none;stroke:red;stroke-width:1px;stroke-linecap:butt;stroke-linejoin:miter;stroke-opacity:1" d="M 907.985,356.059 893.316,370.728 z" id="boundary" inkscape:connector-curvature="0" />
	<path style="fill:none;stroke:red;stroke-width:1px;stroke-linecap:butt;stroke-linejoin:miter;stroke-opacity:1" d="M 893.316,370.728 874.98,370.728 z" id="boundary" inkscape:connector-curvature="0" />
	<path style="fill:none;stroke:red;stroke-width:1px;stroke-linecap:butt;stroke-linejoin:miter;stroke-opacity:1" d="M 907.985,356.059 922.654,339.556 z" id="boundary" inkscape:connector-curvature="0" />
	<circle cx="4" cy="288.214" r="4" fill="#0" id="circle0"/>
	<circle cx="13.1682" cy="304.717" r="4" fill="#0" id="circle1"/>
	<circle cx="18.6691" cy="273.545" r="4" fill="#0" id="circle2"/>
	<circle cx="31.5046" cy="312.052" r="4" fill="#0" id="circle3"/>
	<circle cx="37.0055" cy="273.545" r="4" fill="#0" id="circle4"/>
	<circle cx="40.6728" cy="214.869" r="4" fill="#0" id="circle5"/>
	<circle cx="42.5065" cy="326.721" r="4" fill="#0" id="circle6"/>
	<circle cx="46.1738" cy="255.209" r="4" fill="#0" id="circle7"/>
	<circle cx="49.841" cy="231.372" r="4" fill="#0" id="circle8"/>
	<circle cx="55.342" cy="200.2" r="4" fill="#0" id="circle9"/>
	<circle cx="57.1756" cy="339.556" r="4" fill="#0" id="circle10"/>
	<circle cx="64.5102" cy="357.893" r="4" fill="#0" id="circle11"/>
	<circle cx="70.0111" cy="185.53" r="4" fill="#0" id="circle12"/>
	<circle cx="82.8466" cy="365.227" r="4" fill="#0" id="circle13"/>
	<circle cx="88.3475" cy="181.863" r="4" fill="#0" id="circle14"/>
	<circle cx="99.3494" cy="374.396" r="4" fill="#0" id="circle15"/>
	<circle cx="104.85" cy="172.695" r="4" fill="#0" id="circle16"/>
	<circle cx="117.686" cy="376.229" r="4" fill="#0" id="circle17"/>
	<circle cx="121.353" cy="163.527" r="4" fill="#0" id="circle18"/>
	<circle cx="136.022" cy="376.229" r="4" fill="#0" id="circle19"/>
	<circle cx="139.689" cy="163.527" r="4" fill="#0" id="circle20"/>
	<circle cx="152.525" cy="367.061" r="4" fill="#0" id="circle21"/>
	<circle cx="156.192" cy="172.695" r="4" fill="#0" id="circle22"/>
	<circle cx="159.86" cy="150.691" r="4" fill="#0" id="circle23"/>
	<circle cx="169.028" cy="123.187" r="4" fill="#0" id="circle24"/>
	<circle cx="169.028" cy="376.229" r="4" fill="#0" id="circle25"/>
	<circle cx="169.028" cy="394.566" r="4" fill="#0" id="circle26"/>
	<circle cx="180.03" cy="409.235" r="4" fill="#0" id="circle27"/>
	<circle cx="183.697" cy="108.518" r="4" fill="#0" id="circle28"/>
	<circle cx="183.697" cy="136.022" r="4" fill="#0" id="circle29"/>
	<circle cx="198.366" cy="416.569" r="4" fill="#0" id="circle30"/>
	<circle cx="200.2" cy="117.686" r="4" fill="#0" id="circle31"/>
	<circle cx="211.201" cy="431.238" r="4" fill="#0" id="circle32"/>
	<circle cx="214.869" cy="130.521" r="4" fill="#0" id="circle33"/>
	<circle cx="229.538" cy="438.573" r="4" fill="#0" id="circle34"/>
	<circle cx="233.205" cy="126.854" r="4" fill="#0" id="circle35"/>
	<circle cx="247.874" cy="438.573" r="4" fill="#0" id="circle36"/>
	<circle cx="251.542" cy="126.854" r="4" fill="#0" id="circle37"/>
	<circle cx="266.211" cy="438.573" r="4" fill="#0" id="circle38"/>
	<circle cx="269.878" cy="126.854" r="4" fill="#0" id="circle39"/>
	<circle cx="280.88" cy="422.07" r="4" fill="#0" id="circle40"/>
	<circle cx="288.214" cy="126.854" r="4" fill="#0" id="circle41"/>
	<circle cx="299.216" cy="412.902" r="4" fill="#0" id="circle42"/>
	<circle cx="306.551" cy="121.353" r="4" fill="#0" id="circle43"/>
	<circle cx="317.553" cy="385.397" r="4" fill="#0" id="circle44"/>
	<circle cx="317.553" cy="403.734" r="4" fill="#0" id="circle45"/>
	<circle cx="324.887" cy="121.353" r="4" fill="#0" id="circle46"/>
	<circle cx="326.721" cy="367.061" r="4" fill="#0" id="circle47"/>
	<circle cx="335.889" cy="339.556" r="4" fill="#0" id="circle48"/>
	<circle cx="343.224" cy="121.353" r="4" fill="#0" id="circle49"/>
	<circle cx="352.392" cy="49.841" r="4" fill="#0" id="circle50"/>
	<circle cx="354.226" cy="330.388" r="4" fill="#0" id="circle51"/>
	<circle cx="361.56" cy="121.353" r="4" fill="#0" id="circle52"/>
	<circle cx="370.728" cy="40.6728" r="4" fill="#0" id="circle53"/>
	<circle cx="372.562" cy="330.388" r="4" fill="#0" id="circle54"/>
	<circle cx="379.896" cy="114.018" r="4" fill="#0" id="circle55"/>
	<circle cx="381.73" cy="55.342" r="4" fill="#0" id="circle56"/>
	<circle cx="389.065" cy="31.5046" r="4" fill="#0" id="circle57"/>
	<circle cx="390.898" cy="330.388" r="4" fill="#0" id="circle58"/>
	<circle cx="398.233" cy="64.5102" r="4" fill="#0" id="circle59"/>
	<circle cx="398.233" cy="95.6821" r="4" fill="#0" id="circle60"/>
	<circle cx="398.233" cy="114.018" r="4" fill="#0" id="circle61"/>
	<circle cx="407.401" cy="26.0037" r="4" fill="#0" id="circle62"/>
	<circle cx="409.235" cy="334.055" r="4" fill="#0" id="circle63"/>
	<circle cx="422.07" cy="348.725" r="4" fill="#0" id="circle64"/>
	<circle cx="425.738" cy="22.3364" r="4" fill="#0" id="circle65"/>
	<circle cx="440.407" cy="348.725" r="4" fill="#0" id="circle66"/>
	<circle cx="444.074" cy="16.8355" r="4" fill="#0" id="circle67"/>
	<circle cx="458.743" cy="348.725" r="4" fill="#0" id="circle68"/>
	<circle cx="462.41" cy="16.8355" r="4" fill="#0" id="circle69"/>
	<circle cx="477.079" cy="348.725" r="4" fill="#0" id="circle70"/>
	<circle cx="480.747" cy="13.1682" r="4" fill="#0" id="circle71"/>
	<circle cx="495.416" cy="348.725" r="4" fill="#0" id="circle72"/>
	<circle cx="499.083" cy="13.1682" r="4" fill="#0" id="circle73"/>
	<circle cx="513.752" cy="348.725" r="4" fill="#0" id="circle74"/>
	<circle cx="517.42" cy="7.66728" r="4" fill="#0" id="circle75"/>
	<circle cx="532.089" cy="348.725" r="4" fill="#0" id="circle76"/>
	<circle cx="535.756" cy="7.66728" r="4" fill="#0" id="circle77"/>
	<circle cx="550.425" cy="346.891" r="4" fill="#0" id="circle78"/>
	<circle cx="554.092" cy="7.66728" r="4" fill="#0" id="circle79"/>
	<circle cx="568.762" cy="346.891" r="4" fill="#0" id="circle80"/>
	<circle cx="572.429" cy="7.66728" r="4" fill="#0" id="circle81"/>
	<circle cx="587.098" cy="346.891" r="4" fill="#0" id="circle82"/>
	<circle cx="590.765" cy="4" r="4" fill="#0" id="circle83"/>
	<circle cx="605.434" cy="346.891" r="4" fill="#0" id="circle84"/>
	<circle cx="609.102" cy="4" r="4" fill="#0" id="circle85"/>
	<circle cx="623.771" cy="339.556" r="4" fill="#0" id="circle86"/>
	<circle cx="627.438" cy="4" r="4" fill="#0" id="circle87"/>
	<circle cx="642.107" cy="339.556" r="4" fill="#0" id="circle88"/>
	<circle cx="645.774" cy="4" r="4" fill="#0" id="circle89"/>
	<circle cx="660.444" cy="339.556" r="4" fill="#0" id="circle90"/>
	<circle cx="664.111" cy="4" r="4" fill="#0" id="circle91"/>
	<circle cx="676.946" cy="330.388" r="4" fill="#0" id="circle92"/>
	<circle cx="682.447" cy="4" r="4" fill="#0" id="circle93"/>
	<circle cx="695.283" cy="330.388" r="4" fill="#0" id="circle94"/>
	<circle cx="700.784" cy="4" r="4" fill="#0" id="circle95"/>
	<circle cx="713.619" cy="330.388" r="4" fill="#0" id="circle96"/>
	<circle cx="719.12" cy="4" r="4" fill="#0" id="circle97"/>
	<circle cx="731.956" cy="330.388" r="4" fill="#0" id="circle98"/>
	<circle cx="737.457" cy="4" r="4" fill="#0" id="circle99"/>
	<circle cx="750.292" cy="330.388" r="4" fill="#0" id="circle100"/>
	<circle cx="755.793" cy="4" r="4" fill="#0" id="circle101"/>
	<circle cx="768.628" cy="330.388" r="4" fill="#0" id="circle102"/>
	<circle cx="774.129" cy="7.66728" r="4" fill="#0" id="circle103"/>
	<circle cx="785.131" cy="321.22" r="4" fill="#0" id="circle104"/>
	<circle cx="792.466" cy="7.66728" r="4" fill="#0" id="circle105"/>
	<circle cx="801.634" cy="330.388" r="4" fill="#0" id="circle106"/>
	<circle cx="807.135" cy="348.725" r="4" fill="#0" id="circle107"/>
	<circle cx="810.802" cy="7.66728" r="4" fill="#0" id="circle108"/>
	<circle cx="821.804" cy="361.56" r="4" fill="#0" id="circle109"/>
	<circle cx="829.139" cy="7.66728" r="4" fill="#0" id="circle110"/>
	<circle cx="840.14" cy="367.061" r="4" fill="#0" id="circle111"/>
	<circle cx="847.475" cy="11.3346" r="4" fill="#0" id="circle112"/>
	<circle cx="856.643" cy="376.229" r="4" fill="#0" id="circle113"/>
	<circle cx="865.811" cy="16.8355" r="4" fill="#0" id="circle114"/>
	<circle cx="874.98" cy="370.728" r="4" fill="#0" id="circle115"/>
	<circle cx="884.148" cy="16.8355" r="4" fill="#0" id="circle116"/>
	<circle cx="893.316" cy="370.728" r="4" fill="#0" id="circle117"/>
	<circle cx="900.651" cy="26.0037" r="4" fill="#0" id="circle118"/>
	<circle cx="907.985" cy="356.059" r="4" fill="#0" id="circle119"/>
	<circle cx="918.987" cy="27.8373" r="4" fill="#0" id="circle120"/>
	<circle cx="922.654" cy="339.556" r="4" fill="#0" id="circle121"/>
	<circle cx="931.823" cy="42.5065" r="4" fill="#0" id="circle122"/>
	<circle cx="931.823" cy="137.856" r="4" fill="#0" id="circle123"/>
	<circle cx="931.823" cy="321.22" r="4" fill="#0" id="circle124"/>
	<circle cx="940.991" cy="59.0092" r="4" fill="#0" id="circle125"/>
	<circle cx="940.991" cy="77.3457" r="4" fill="#0" id="circle126"/>
	<circle cx="940.991" cy="95.6821" r="4" fill="#0" id="circle127"/>
	<circle cx="940.991" cy="114.018" r="4" fill="#0" id="circle128"/>
	<circle cx="940.991" cy="154.359" r="4" fill="#0" id="circle129"/>
	<circle cx="940.991" cy="172.695" r="4" fill="#0" id="circle130"/>
	<circle cx="940.991" cy="302.884" r="4" fill="#0" id="circle131"/>
	<circle cx="950.159" cy="189.198" r="4" fill="#0" id="circle132"/>
	<circle cx="959.327" cy="205.701" r="4" fill="#0" id="circle133"/>
	<circle cx="959.327" cy="247.874" r="4" fill="#0" id="circle134"/>
	<circle cx="959.327" cy="306.551" r="4" fill="#0" id="circle135"/>
	<circle cx="975.83" cy="297.383" r="4" fill="#0" id="circle136"/>
	<circle cx="977.664" cy="200.2" r="4" fill="#0" id="circle137"/>
	<circle cx="977.664" cy="220.37" r="4" fill="#0" id="circle138"/>
	<circle cx="977.664" cy="247.874" r="4" fill="#0" id="circle139"/>
	<circle cx="986.832" cy="266.211" r="4" fill="#0" id="circle140"/>
	<circle cx="992.333" cy="231.372" r="4" fill="#0" id="circle141"/>
	<circle cx="994.166" cy="302.884" r="4" fill="#0" id="circle142"/>
	<circle cx="996" cy="284.547" r="4" fill="#0" id="circle143"/>
	</g>
</svg>