<?xml version="1.0" encoding="UTF-8" standalone="no"?>
<!-- Created with CurveBenchmark -->
<svg
	xmlns:dc="http://purl.org/dc/elements/1.1/"
	xmlns:cc="http://creativecommons.org/ns#"
	xmlns:rdf="http://www.w3.org/1999/02/22-rdf-syntax-ns#"
	xmlns:svg="http://www.w3.org/2000/svg"
	xmlns="http://www.w3.org/2000/svg"
	xmlns:sodipodi="http://sodipodi.sourceforge.net/DTD/sodipodi-0.dtd"
	xmlns:inkscape="http://www.inkscape.org/namespaces/inkscape"
	width="1000"
	height="1000"
	id="svg2"
	version="1.1"
	sodipodi:docname="manifold/ccrust-key-20.png.txt">
<defs
	id="defs4" />
<metadata
	id="metadata7">
	<rdf:RDF>
		<cc:Work
			rdf:about="">
			<dc:format>image/svg+xml</dc:format>
			<dc:type
				rdf:resource="http://purl.org/dc/dcmitype/StillImage" />
			<dc:title></dc:title>
		</cc:Work>
	</rdf:RDF>
</metadata>
<g
	inkscape:label="Layer 1"
	inkscape:groupmode="layer"
	id="layer1">
	<path style="fill:none;stroke:red;stroke-width:1px;stroke-linecap:butt;stroke-linejoin:miter;stroke-opacity:1" d="M 99.0863,82.9014 104.481,78.1808 z" id="boundary" inkscape:connector-curvature="0" />
	<path style="fill:none;stroke:red;stroke-width:1px;stroke-linecap:butt;stroke-linejoin:miter;stroke-opacity:1" d="M 109.202,72.7859 104.481,78.1808 z" id="boundary" inkscape:connector-curvature="0" />
	<path style="fill:none;stroke:red;stroke-width:1px;stroke-linecap:butt;stroke-linejoin:miter;stroke-opacity:1" d="M 121.341,64.6934 115.946,69.414 z" id="boundary" inkscape:connector-curvature="0" />
	<path style="fill:none;stroke:red;stroke-width:1px;stroke-linecap:butt;stroke-linejoin:miter;stroke-opacity:1" d="M 115.946,69.414 109.202,72.7859 z" id="boundary" inkscape:connector-curvature="0" />
	<path style="fill:none;stroke:red;stroke-width:1px;stroke-linecap:butt;stroke-linejoin:miter;stroke-opacity:1" d="M 121.341,64.6934 127.41,61.3215 z" id="boundary" inkscape:connector-curvature="0" />
	<path style="fill:none;stroke:red;stroke-width:1px;stroke-linecap:butt;stroke-linejoin:miter;stroke-opacity:1" d="M 99.0863,82.9014 92.3426,86.2733 z" id="boundary" inkscape:connector-curvature="0" />
	<path style="fill:none;stroke:red;stroke-width:1px;stroke-linecap:butt;stroke-linejoin:miter;stroke-opacity:1" d="M 67.3909,111.899 72.1115,106.504 z" id="boundary" inkscape:connector-curvature="0" />
	<path style="fill:none;stroke:red;stroke-width:1px;stroke-linecap:butt;stroke-linejoin:miter;stroke-opacity:1" d="M 72.1115,106.504 77.5065,101.784 z" id="boundary" inkscape:connector-curvature="0" />
	<path style="fill:none;stroke:red;stroke-width:1px;stroke-linecap:butt;stroke-linejoin:miter;stroke-opacity:1" d="M 67.3909,111.899 61.9959,116.62 z" id="boundary" inkscape:connector-curvature="0" />
	<path style="fill:none;stroke:red;stroke-width:1px;stroke-linecap:butt;stroke-linejoin:miter;stroke-opacity:1" d="M 82.2271,96.3889 77.5065,101.784 z" id="boundary" inkscape:connector-curvature="0" />
	<path style="fill:none;stroke:red;stroke-width:1px;stroke-linecap:butt;stroke-linejoin:miter;stroke-opacity:1" d="M 92.3426,86.2733 87.622,91.6683 z" id="boundary" inkscape:connector-curvature="0" />
	<path style="fill:none;stroke:red;stroke-width:1px;stroke-linecap:butt;stroke-linejoin:miter;stroke-opacity:1" d="M 87.622,91.6683 82.2271,96.3889 z" id="boundary" inkscape:connector-curvature="0" />
	<path style="fill:none;stroke:red;stroke-width:1px;stroke-linecap:butt;stroke-linejoin:miter;stroke-opacity:1" d="M 162.477,36.3698 169.221,32.998 z" id="boundary" inkscape:connector-curvature="0" />
	<path style="fill:none;stroke:red;stroke-width:1px;stroke-linecap:butt;stroke-linejoin:miter;stroke-opacity:1" d="M 157.082,41.0904 162.477,36.3698 z" id="boundary" inkscape:connector-curvature="0" />
	<path style="fill:none;stroke:red;stroke-width:1px;stroke-linecap:butt;stroke-linejoin:miter;stroke-opacity:1" d="M 174.616,27.603 169.221,32.998 z" id="boundary" inkscape:connector-curvature="0" />
	<path style="fill:none;stroke:red;stroke-width:1px;stroke-linecap:butt;stroke-linejoin:miter;stroke-opacity:1" d="M 174.616,27.603 181.36,24.2311 z" id="boundary" inkscape:connector-curvature="0" />
	<path style="fill:none;stroke:red;stroke-width:1px;stroke-linecap:butt;stroke-linejoin:miter;stroke-opacity:1" d="M 181.36,24.2311 188.103,20.8593 z" id="boundary" inkscape:connector-curvature="0" />
	<path style="fill:none;stroke:red;stroke-width:1px;stroke-linecap:butt;stroke-linejoin:miter;stroke-opacity:1" d="M 127.41,61.3215 132.805,55.9266 z" id="boundary" inkscape:connector-curvature="0" />
	<path style="fill:none;stroke:red;stroke-width:1px;stroke-linecap:butt;stroke-linejoin:miter;stroke-opacity:1" d="M 132.805,55.9266 139.549,52.5547 z" id="boundary" inkscape:connector-curvature="0" />
	<path style="fill:none;stroke:red;stroke-width:1px;stroke-linecap:butt;stroke-linejoin:miter;stroke-opacity:1" d="M 144.944,47.8341 139.549,52.5547 z" id="boundary" inkscape:connector-curvature="0" />
	<path style="fill:none;stroke:red;stroke-width:1px;stroke-linecap:butt;stroke-linejoin:miter;stroke-opacity:1" d="M 144.944,47.8341 151.013,44.4623 z" id="boundary" inkscape:connector-curvature="0" />
	<path style="fill:none;stroke:red;stroke-width:1px;stroke-linecap:butt;stroke-linejoin:miter;stroke-opacity:1" d="M 157.082,41.0904 151.013,44.4623 z" id="boundary" inkscape:connector-curvature="0" />
	<path style="fill:none;stroke:red;stroke-width:1px;stroke-linecap:butt;stroke-linejoin:miter;stroke-opacity:1" d="M 10.7437,191.475 10.7437,198.219 z" id="boundary" inkscape:connector-curvature="0" />
	<path style="fill:none;stroke:red;stroke-width:1px;stroke-linecap:butt;stroke-linejoin:miter;stroke-opacity:1" d="M 10.7437,204.963 10.7437,198.219 z" id="boundary" inkscape:connector-curvature="0" />
	<path style="fill:none;stroke:red;stroke-width:1px;stroke-linecap:butt;stroke-linejoin:miter;stroke-opacity:1" d="M 10.7437,191.475 14.1156,181.36 z" id="boundary" inkscape:connector-curvature="0" />
	<path style="fill:none;stroke:red;stroke-width:1px;stroke-linecap:butt;stroke-linejoin:miter;stroke-opacity:1" d="M 10.7437,204.963 7.37186,215.078 z" id="boundary" inkscape:connector-curvature="0" />
	<path style="fill:none;stroke:red;stroke-width:1px;stroke-linecap:butt;stroke-linejoin:miter;stroke-opacity:1" d="M 7.37186,221.822 7.37186,215.078 z" id="boundary" inkscape:connector-curvature="0" />
	<path style="fill:none;stroke:red;stroke-width:1px;stroke-linecap:butt;stroke-linejoin:miter;stroke-opacity:1" d="M 4,255.54 4,248.797 z" id="boundary" inkscape:connector-curvature="0" />
	<path style="fill:none;stroke:red;stroke-width:1px;stroke-linecap:butt;stroke-linejoin:miter;stroke-opacity:1" d="M 4,248.797 7.37186,242.053 z" id="boundary" inkscape:connector-curvature="0" />
	<path style="fill:none;stroke:red;stroke-width:1px;stroke-linecap:butt;stroke-linejoin:miter;stroke-opacity:1" d="M 7.37186,221.822 7.37186,228.566 z" id="boundary" inkscape:connector-curvature="0" />
	<path style="fill:none;stroke:red;stroke-width:1px;stroke-linecap:butt;stroke-linejoin:miter;stroke-opacity:1" d="M 7.37186,228.566 7.37186,235.309 z" id="boundary" inkscape:connector-curvature="0" />
	<path style="fill:none;stroke:red;stroke-width:1px;stroke-linecap:butt;stroke-linejoin:miter;stroke-opacity:1" d="M 7.37186,242.053 7.37186,235.309 z" id="boundary" inkscape:connector-curvature="0" />
	<path style="fill:none;stroke:red;stroke-width:1px;stroke-linecap:butt;stroke-linejoin:miter;stroke-opacity:1" d="M 14.1156,181.36 17.4874,174.616 z" id="boundary" inkscape:connector-curvature="0" />
	<path style="fill:none;stroke:red;stroke-width:1px;stroke-linecap:butt;stroke-linejoin:miter;stroke-opacity:1" d="M 41.7648,136.851 47.1598,132.131 z" id="boundary" inkscape:connector-curvature="0" />
	<path style="fill:none;stroke:red;stroke-width:1px;stroke-linecap:butt;stroke-linejoin:miter;stroke-opacity:1" d="M 51.8804,126.736 47.1598,132.131 z" id="boundary" inkscape:connector-curvature="0" />
	<path style="fill:none;stroke:red;stroke-width:1px;stroke-linecap:butt;stroke-linejoin:miter;stroke-opacity:1" d="M 61.9959,116.62 57.2753,122.015 z" id="boundary" inkscape:connector-curvature="0" />
	<path style="fill:none;stroke:red;stroke-width:1px;stroke-linecap:butt;stroke-linejoin:miter;stroke-opacity:1" d="M 57.2753,122.015 51.8804,126.736 z" id="boundary" inkscape:connector-curvature="0" />
	<path style="fill:none;stroke:red;stroke-width:1px;stroke-linecap:butt;stroke-linejoin:miter;stroke-opacity:1" d="M 20.8593,167.872 24.2311,161.128 z" id="boundary" inkscape:connector-curvature="0" />
	<path style="fill:none;stroke:red;stroke-width:1px;stroke-linecap:butt;stroke-linejoin:miter;stroke-opacity:1" d="M 36.3698,142.246 41.7648,136.851 z" id="boundary" inkscape:connector-curvature="0" />
	<path style="fill:none;stroke:red;stroke-width:1px;stroke-linecap:butt;stroke-linejoin:miter;stroke-opacity:1" d="M 27.603,154.385 30.9748,147.641 z" id="boundary" inkscape:connector-curvature="0" />
	<path style="fill:none;stroke:red;stroke-width:1px;stroke-linecap:butt;stroke-linejoin:miter;stroke-opacity:1" d="M 30.9748,147.641 36.3698,142.246 z" id="boundary" inkscape:connector-curvature="0" />
	<path style="fill:none;stroke:red;stroke-width:1px;stroke-linecap:butt;stroke-linejoin:miter;stroke-opacity:1" d="M 24.2311,161.128 27.603,154.385 z" id="boundary" inkscape:connector-curvature="0" />
	<path style="fill:none;stroke:red;stroke-width:1px;stroke-linecap:butt;stroke-linejoin:miter;stroke-opacity:1" d="M 17.4874,174.616 20.8593,167.872 z" id="boundary" inkscape:connector-curvature="0" />
	<path style="fill:none;stroke:red;stroke-width:1px;stroke-linecap:butt;stroke-linejoin:miter;stroke-opacity:1" d="M 215.078,7.37186 221.822,7.37186 z" id="boundary" inkscape:connector-curvature="0" />
	<path style="fill:none;stroke:red;stroke-width:1px;stroke-linecap:butt;stroke-linejoin:miter;stroke-opacity:1" d="M 208.334,10.7437 215.078,7.37186 z" id="boundary" inkscape:connector-curvature="0" />
	<path style="fill:none;stroke:red;stroke-width:1px;stroke-linecap:butt;stroke-linejoin:miter;stroke-opacity:1" d="M 201.591,14.1156 208.334,10.7437 z" id="boundary" inkscape:connector-curvature="0" />
	<path style="fill:none;stroke:red;stroke-width:1px;stroke-linecap:butt;stroke-linejoin:miter;stroke-opacity:1" d="M 235.309,7.37186 228.566,7.37186 z" id="boundary" inkscape:connector-curvature="0" />
	<path style="fill:none;stroke:red;stroke-width:1px;stroke-linecap:butt;stroke-linejoin:miter;stroke-opacity:1" d="M 242.053,7.37186 235.309,7.37186 z" id="boundary" inkscape:connector-curvature="0" />
	<path style="fill:none;stroke:red;stroke-width:1px;stroke-linecap:butt;stroke-linejoin:miter;stroke-opacity:1" d="M 228.566,7.37186 221.822,7.37186 z" id="boundary" inkscape:connector-curvature="0" />
	<path style="fill:none;stroke:red;stroke-width:1px;stroke-linecap:butt;stroke-linejoin:miter;stroke-opacity:1" d="M 242.053,7.37186 248.797,7.37186 z" id="boundary" inkscape:connector-curvature="0" />
	<path style="fill:none;stroke:red;stroke-width:1px;stroke-linecap:butt;stroke-linejoin:miter;stroke-opacity:1" d="M 255.54,7.37186 248.797,7.37186 z" id="boundary" inkscape:connector-curvature="0" />
	<path style="fill:none;stroke:red;stroke-width:1px;stroke-linecap:butt;stroke-linejoin:miter;stroke-opacity:1" d="M 255.54,7.37186 262.284,7.37186 z" id="boundary" inkscape:connector-curvature="0" />
	<path style="fill:none;stroke:red;stroke-width:1px;stroke-linecap:butt;stroke-linejoin:miter;stroke-opacity:1" d="M 269.028,7.37186 262.284,7.37186 z" id="boundary" inkscape:connector-curvature="0" />
	<path style="fill:none;stroke:red;stroke-width:1px;stroke-linecap:butt;stroke-linejoin:miter;stroke-opacity:1" d="M 275.772,7.37186 269.028,7.37186 z" id="boundary" inkscape:connector-curvature="0" />
	<path style="fill:none;stroke:red;stroke-width:1px;stroke-linecap:butt;stroke-linejoin:miter;stroke-opacity:1" d="M 296.003,4 302.746,4 z" id="boundary" inkscape:connector-curvature="0" />
	<path style="fill:none;stroke:red;stroke-width:1px;stroke-linecap:butt;stroke-linejoin:miter;stroke-opacity:1" d="M 289.259,7.37186 296.003,4 z" id="boundary" inkscape:connector-curvature="0" />
	<path style="fill:none;stroke:red;stroke-width:1px;stroke-linecap:butt;stroke-linejoin:miter;stroke-opacity:1" d="M 309.49,4 316.234,4 z" id="boundary" inkscape:connector-curvature="0" />
	<path style="fill:none;stroke:red;stroke-width:1px;stroke-linecap:butt;stroke-linejoin:miter;stroke-opacity:1" d="M 316.234,4 322.978,4 z" id="boundary" inkscape:connector-curvature="0" />
	<path style="fill:none;stroke:red;stroke-width:1px;stroke-linecap:butt;stroke-linejoin:miter;stroke-opacity:1" d="M 322.978,4 329.047,7.37186 z" id="boundary" inkscape:connector-curvature="0" />
	<path style="fill:none;stroke:red;stroke-width:1px;stroke-linecap:butt;stroke-linejoin:miter;stroke-opacity:1" d="M 302.746,4 309.49,4 z" id="boundary" inkscape:connector-curvature="0" />
	<path style="fill:none;stroke:red;stroke-width:1px;stroke-linecap:butt;stroke-linejoin:miter;stroke-opacity:1" d="M 282.515,7.37186 289.259,7.37186 z" id="boundary" inkscape:connector-curvature="0" />
	<path style="fill:none;stroke:red;stroke-width:1px;stroke-linecap:butt;stroke-linejoin:miter;stroke-opacity:1" d="M 348.604,10.7437 341.86,10.7437 z" id="boundary" inkscape:connector-curvature="0" />
	<path style="fill:none;stroke:red;stroke-width:1px;stroke-linecap:butt;stroke-linejoin:miter;stroke-opacity:1" d="M 341.86,10.7437 335.791,7.37186 z" id="boundary" inkscape:connector-curvature="0" />
	<path style="fill:none;stroke:red;stroke-width:1px;stroke-linecap:butt;stroke-linejoin:miter;stroke-opacity:1" d="M 348.604,10.7437 354.673,14.1156 z" id="boundary" inkscape:connector-curvature="0" />
	<path style="fill:none;stroke:red;stroke-width:1px;stroke-linecap:butt;stroke-linejoin:miter;stroke-opacity:1" d="M 329.047,7.37186 335.791,7.37186 z" id="boundary" inkscape:connector-curvature="0" />
	<path style="fill:none;stroke:red;stroke-width:1px;stroke-linecap:butt;stroke-linejoin:miter;stroke-opacity:1" d="M 275.772,7.37186 282.515,7.37186 z" id="boundary" inkscape:connector-curvature="0" />
	<path style="fill:none;stroke:red;stroke-width:1px;stroke-linecap:butt;stroke-linejoin:miter;stroke-opacity:1" d="M 194.847,17.4874 201.591,14.1156 z" id="boundary" inkscape:connector-curvature="0" />
	<path style="fill:none;stroke:red;stroke-width:1px;stroke-linecap:butt;stroke-linejoin:miter;stroke-opacity:1" d="M 354.673,14.1156 361.417,15.4643 z" id="boundary" inkscape:connector-curvature="0" />
	<path style="fill:none;stroke:red;stroke-width:1px;stroke-linecap:butt;stroke-linejoin:miter;stroke-opacity:1" d="M 368.16,17.4874 361.417,15.4643 z" id="boundary" inkscape:connector-curvature="0" />
	<path style="fill:none;stroke:red;stroke-width:1px;stroke-linecap:butt;stroke-linejoin:miter;stroke-opacity:1" d="M 368.16,17.4874 374.23,20.8593 z" id="boundary" inkscape:connector-curvature="0" />
	<path style="fill:none;stroke:red;stroke-width:1px;stroke-linecap:butt;stroke-linejoin:miter;stroke-opacity:1" d="M 374.23,20.8593 380.973,21.5337 z" id="boundary" inkscape:connector-curvature="0" />
	<path style="fill:none;stroke:red;stroke-width:1px;stroke-linecap:butt;stroke-linejoin:miter;stroke-opacity:1" d="M 380.973,21.5337 387.717,24.2311 z" id="boundary" inkscape:connector-curvature="0" />
	<path style="fill:none;stroke:red;stroke-width:1px;stroke-linecap:butt;stroke-linejoin:miter;stroke-opacity:1" d="M 394.461,24.9055 387.717,24.2311 z" id="boundary" inkscape:connector-curvature="0" />
	<path style="fill:none;stroke:red;stroke-width:1px;stroke-linecap:butt;stroke-linejoin:miter;stroke-opacity:1" d="M 401.205,27.603 407.274,30.9748 z" id="boundary" inkscape:connector-curvature="0" />
	<path style="fill:none;stroke:red;stroke-width:1px;stroke-linecap:butt;stroke-linejoin:miter;stroke-opacity:1" d="M 401.205,27.603 394.461,24.9055 z" id="boundary" inkscape:connector-curvature="0" />
	<path style="fill:none;stroke:red;stroke-width:1px;stroke-linecap:butt;stroke-linejoin:miter;stroke-opacity:1" d="M 418.738,39.0673 422.785,44.4623 z" id="boundary" inkscape:connector-curvature="0" />
	<path style="fill:none;stroke:red;stroke-width:1px;stroke-linecap:butt;stroke-linejoin:miter;stroke-opacity:1" d="M 418.738,39.0673 413.343,34.3467 z" id="boundary" inkscape:connector-curvature="0" />
	<path style="fill:none;stroke:red;stroke-width:1px;stroke-linecap:butt;stroke-linejoin:miter;stroke-opacity:1" d="M 422.785,44.4623 426.156,50.5316 z" id="boundary" inkscape:connector-curvature="0" />
	<path style="fill:none;stroke:red;stroke-width:1px;stroke-linecap:butt;stroke-linejoin:miter;stroke-opacity:1" d="M 426.156,50.5316 431.551,55.2522 z" id="boundary" inkscape:connector-curvature="0" />
	<path style="fill:none;stroke:red;stroke-width:1px;stroke-linecap:butt;stroke-linejoin:miter;stroke-opacity:1" d="M 431.551,55.2522 436.272,60.6472 z" id="boundary" inkscape:connector-curvature="0" />
	<path style="fill:none;stroke:red;stroke-width:1px;stroke-linecap:butt;stroke-linejoin:miter;stroke-opacity:1" d="M 441.667,65.3678 436.272,60.6472 z" id="boundary" inkscape:connector-curvature="0" />
	<path style="fill:none;stroke:red;stroke-width:1px;stroke-linecap:butt;stroke-linejoin:miter;stroke-opacity:1" d="M 447.736,78.1808 444.364,72.1115 z" id="boundary" inkscape:connector-curvature="0" />
	<path style="fill:none;stroke:red;stroke-width:1px;stroke-linecap:butt;stroke-linejoin:miter;stroke-opacity:1" d="M 444.364,72.1115 441.667,65.3678 z" id="boundary" inkscape:connector-curvature="0" />
	<path style="fill:none;stroke:red;stroke-width:1px;stroke-linecap:butt;stroke-linejoin:miter;stroke-opacity:1" d="M 447.736,78.1808 449.759,84.9245 z" id="boundary" inkscape:connector-curvature="0" />
	<path style="fill:none;stroke:red;stroke-width:1px;stroke-linecap:butt;stroke-linejoin:miter;stroke-opacity:1" d="M 449.759,84.9245 453.131,90.9939 z" id="boundary" inkscape:connector-curvature="0" />
	<path style="fill:none;stroke:red;stroke-width:1px;stroke-linecap:butt;stroke-linejoin:miter;stroke-opacity:1" d="M 453.131,90.9939 453.131,97.7376 z" id="boundary" inkscape:connector-curvature="0" />
	<path style="fill:none;stroke:red;stroke-width:1px;stroke-linecap:butt;stroke-linejoin:miter;stroke-opacity:1" d="M 456.503,103.807 453.131,97.7376 z" id="boundary" inkscape:connector-curvature="0" />
	<path style="fill:none;stroke:red;stroke-width:1px;stroke-linecap:butt;stroke-linejoin:miter;stroke-opacity:1" d="M 407.274,30.9748 413.343,34.3467 z" id="boundary" inkscape:connector-curvature="0" />
	<path style="fill:none;stroke:red;stroke-width:1px;stroke-linecap:butt;stroke-linejoin:miter;stroke-opacity:1" d="M 188.103,20.8593 194.847,17.4874 z" id="boundary" inkscape:connector-curvature="0" />
	<path style="fill:none;stroke:red;stroke-width:1px;stroke-linecap:butt;stroke-linejoin:miter;stroke-opacity:1" d="M 4,269.028 4,262.284 z" id="boundary" inkscape:connector-curvature="0" />
	<path style="fill:none;stroke:red;stroke-width:1px;stroke-linecap:butt;stroke-linejoin:miter;stroke-opacity:1" d="M 7.37186,275.097 4,269.028 z" id="boundary" inkscape:connector-curvature="0" />
	<path style="fill:none;stroke:red;stroke-width:1px;stroke-linecap:butt;stroke-linejoin:miter;stroke-opacity:1" d="M 7.37186,275.097 7.37186,281.841 z" id="boundary" inkscape:connector-curvature="0" />
	<path style="fill:none;stroke:red;stroke-width:1px;stroke-linecap:butt;stroke-linejoin:miter;stroke-opacity:1" d="M 7.37186,288.585 7.37186,281.841 z" id="boundary" inkscape:connector-curvature="0" />
	<path style="fill:none;stroke:red;stroke-width:1px;stroke-linecap:butt;stroke-linejoin:miter;stroke-opacity:1" d="M 10.7437,294.654 7.37186,288.585 z" id="boundary" inkscape:connector-curvature="0" />
	<path style="fill:none;stroke:red;stroke-width:1px;stroke-linecap:butt;stroke-linejoin:miter;stroke-opacity:1" d="M 10.7437,294.654 10.7437,301.398 z" id="boundary" inkscape:connector-curvature="0" />
	<path style="fill:none;stroke:red;stroke-width:1px;stroke-linecap:butt;stroke-linejoin:miter;stroke-opacity:1" d="M 10.7437,308.141 10.7437,301.398 z" id="boundary" inkscape:connector-curvature="0" />
	<path style="fill:none;stroke:red;stroke-width:1px;stroke-linecap:butt;stroke-linejoin:miter;stroke-opacity:1" d="M 10.7437,314.885 14.1156,320.954 z" id="boundary" inkscape:connector-curvature="0" />
	<path style="fill:none;stroke:red;stroke-width:1px;stroke-linecap:butt;stroke-linejoin:miter;stroke-opacity:1" d="M 14.1156,320.954 14.1156,327.698 z" id="boundary" inkscape:connector-curvature="0" />
	<path style="fill:none;stroke:red;stroke-width:1px;stroke-linecap:butt;stroke-linejoin:miter;stroke-opacity:1" d="M 10.7437,314.885 10.7437,308.141 z" id="boundary" inkscape:connector-curvature="0" />
	<path style="fill:none;stroke:red;stroke-width:1px;stroke-linecap:butt;stroke-linejoin:miter;stroke-opacity:1" d="M 14.1156,327.698 15.4643,334.442 z" id="boundary" inkscape:connector-curvature="0" />
	<path style="fill:none;stroke:red;stroke-width:1px;stroke-linecap:butt;stroke-linejoin:miter;stroke-opacity:1" d="M 15.4643,334.442 18.8362,340.511 z" id="boundary" inkscape:connector-curvature="0" />
	<path style="fill:none;stroke:red;stroke-width:1px;stroke-linecap:butt;stroke-linejoin:miter;stroke-opacity:1" d="M 18.8362,340.511 21.5337,347.255 z" id="boundary" inkscape:connector-curvature="0" />
	<path style="fill:none;stroke:red;stroke-width:1px;stroke-linecap:butt;stroke-linejoin:miter;stroke-opacity:1" d="M 21.5337,347.255 24.9055,353.324 z" id="boundary" inkscape:connector-curvature="0" />
	<path style="fill:none;stroke:red;stroke-width:1px;stroke-linecap:butt;stroke-linejoin:miter;stroke-opacity:1" d="M 24.9055,353.324 27.603,360.068 z" id="boundary" inkscape:connector-curvature="0" />
	<path style="fill:none;stroke:red;stroke-width:1px;stroke-linecap:butt;stroke-linejoin:miter;stroke-opacity:1" d="M 30.9748,366.137 27.603,360.068 z" id="boundary" inkscape:connector-curvature="0" />
	<path style="fill:none;stroke:red;stroke-width:1px;stroke-linecap:butt;stroke-linejoin:miter;stroke-opacity:1" d="M 30.9748,366.137 34.3467,372.207 z" id="boundary" inkscape:connector-curvature="0" />
	<path style="fill:none;stroke:red;stroke-width:1px;stroke-linecap:butt;stroke-linejoin:miter;stroke-opacity:1" d="M 34.3467,372.207 36.3698,378.95 z" id="boundary" inkscape:connector-curvature="0" />
	<path style="fill:none;stroke:red;stroke-width:1px;stroke-linecap:butt;stroke-linejoin:miter;stroke-opacity:1" d="M 39.7417,385.02 36.3698,378.95 z" id="boundary" inkscape:connector-curvature="0" />
	<path style="fill:none;stroke:red;stroke-width:1px;stroke-linecap:butt;stroke-linejoin:miter;stroke-opacity:1" d="M 47.8341,395.81 42.4392,391.763 z" id="boundary" inkscape:connector-curvature="0" />
	<path style="fill:none;stroke:red;stroke-width:1px;stroke-linecap:butt;stroke-linejoin:miter;stroke-opacity:1" d="M 42.4392,391.763 39.7417,385.02 z" id="boundary" inkscape:connector-curvature="0" />
	<path style="fill:none;stroke:red;stroke-width:1px;stroke-linecap:butt;stroke-linejoin:miter;stroke-opacity:1" d="M 47.8341,395.81 51.8804,401.205 z" id="boundary" inkscape:connector-curvature="0" />
	<path style="fill:none;stroke:red;stroke-width:1px;stroke-linecap:butt;stroke-linejoin:miter;stroke-opacity:1" d="M 51.8804,401.205 57.2753,405.925 z" id="boundary" inkscape:connector-curvature="0" />
	<path style="fill:none;stroke:red;stroke-width:1px;stroke-linecap:butt;stroke-linejoin:miter;stroke-opacity:1" d="M 57.2753,405.925 61.9959,411.32 z" id="boundary" inkscape:connector-curvature="0" />
	<path style="fill:none;stroke:red;stroke-width:1px;stroke-linecap:butt;stroke-linejoin:miter;stroke-opacity:1" d="M 61.9959,411.32 68.7396,414.018 z" id="boundary" inkscape:connector-curvature="0" />
	<path style="fill:none;stroke:red;stroke-width:1px;stroke-linecap:butt;stroke-linejoin:miter;stroke-opacity:1" d="M 68.7396,414.018 73.4602,419.413 z" id="boundary" inkscape:connector-curvature="0" />
	<path style="fill:none;stroke:red;stroke-width:1px;stroke-linecap:butt;stroke-linejoin:miter;stroke-opacity:1" d="M 78.8552,424.133 73.4602,419.413 z" id="boundary" inkscape:connector-curvature="0" />
	<path style="fill:none;stroke:red;stroke-width:1px;stroke-linecap:butt;stroke-linejoin:miter;stroke-opacity:1" d="M 89.6451,432.9 83.5758,429.528 z" id="boundary" inkscape:connector-curvature="0" />
	<path style="fill:none;stroke:red;stroke-width:1px;stroke-linecap:butt;stroke-linejoin:miter;stroke-opacity:1" d="M 83.5758,429.528 78.8552,424.133 z" id="boundary" inkscape:connector-curvature="0" />
	<path style="fill:none;stroke:red;stroke-width:1px;stroke-linecap:butt;stroke-linejoin:miter;stroke-opacity:1" d="M 105.156,446.387 99.7607,442.341 z" id="boundary" inkscape:connector-curvature="0" />
	<path style="fill:none;stroke:red;stroke-width:1px;stroke-linecap:butt;stroke-linejoin:miter;stroke-opacity:1" d="M 99.7607,442.341 95.0401,436.946 z" id="boundary" inkscape:connector-curvature="0" />
	<path style="fill:none;stroke:red;stroke-width:1px;stroke-linecap:butt;stroke-linejoin:miter;stroke-opacity:1" d="M 111.225,449.759 105.156,446.387 z" id="boundary" inkscape:connector-curvature="0" />
	<path style="fill:none;stroke:red;stroke-width:1px;stroke-linecap:butt;stroke-linejoin:miter;stroke-opacity:1" d="M 89.6451,432.9 95.0401,436.946 z" id="boundary" inkscape:connector-curvature="0" />
	<path style="fill:none;stroke:red;stroke-width:1px;stroke-linecap:butt;stroke-linejoin:miter;stroke-opacity:1" d="M 117.294,453.131 111.225,449.759 z" id="boundary" inkscape:connector-curvature="0" />
	<path style="fill:none;stroke:red;stroke-width:1px;stroke-linecap:butt;stroke-linejoin:miter;stroke-opacity:1" d="M 123.364,456.503 117.294,453.131 z" id="boundary" inkscape:connector-curvature="0" />
	<path style="fill:none;stroke:red;stroke-width:1px;stroke-linecap:butt;stroke-linejoin:miter;stroke-opacity:1" d="M 135.502,463.247 129.433,459.875 z" id="boundary" inkscape:connector-curvature="0" />
	<path style="fill:none;stroke:red;stroke-width:1px;stroke-linecap:butt;stroke-linejoin:miter;stroke-opacity:1" d="M 141.572,466.619 135.502,463.247 z" id="boundary" inkscape:connector-curvature="0" />
	<path style="fill:none;stroke:red;stroke-width:1px;stroke-linecap:butt;stroke-linejoin:miter;stroke-opacity:1" d="M 148.315,466.619 141.572,466.619 z" id="boundary" inkscape:connector-curvature="0" />
	<path style="fill:none;stroke:red;stroke-width:1px;stroke-linecap:butt;stroke-linejoin:miter;stroke-opacity:1" d="M 129.433,459.875 123.364,456.503 z" id="boundary" inkscape:connector-curvature="0" />
	<path style="fill:none;stroke:red;stroke-width:1px;stroke-linecap:butt;stroke-linejoin:miter;stroke-opacity:1" d="M 148.315,466.619 154.385,469.99 z" id="boundary" inkscape:connector-curvature="0" />
	<path style="fill:none;stroke:red;stroke-width:1px;stroke-linecap:butt;stroke-linejoin:miter;stroke-opacity:1" d="M 160.454,473.362 154.385,469.99 z" id="boundary" inkscape:connector-curvature="0" />
	<path style="fill:none;stroke:red;stroke-width:1px;stroke-linecap:butt;stroke-linejoin:miter;stroke-opacity:1" d="M 167.198,473.362 160.454,473.362 z" id="boundary" inkscape:connector-curvature="0" />
	<path style="fill:none;stroke:red;stroke-width:1px;stroke-linecap:butt;stroke-linejoin:miter;stroke-opacity:1" d="M 173.942,473.362 167.198,473.362 z" id="boundary" inkscape:connector-curvature="0" />
	<path style="fill:none;stroke:red;stroke-width:1px;stroke-linecap:butt;stroke-linejoin:miter;stroke-opacity:1" d="M 180.685,473.362 173.942,473.362 z" id="boundary" inkscape:connector-curvature="0" />
	<path style="fill:none;stroke:red;stroke-width:1px;stroke-linecap:butt;stroke-linejoin:miter;stroke-opacity:1" d="M 187.429,473.362 180.685,473.362 z" id="boundary" inkscape:connector-curvature="0" />
	<path style="fill:none;stroke:red;stroke-width:1px;stroke-linecap:butt;stroke-linejoin:miter;stroke-opacity:1" d="M 4,262.284 4,255.54 z" id="boundary" inkscape:connector-curvature="0" />
	<path style="fill:none;stroke:red;stroke-width:1px;stroke-linecap:butt;stroke-linejoin:miter;stroke-opacity:1" d="M 389.066,469.99 382.322,469.99 z" id="boundary" inkscape:connector-curvature="0" />
	<path style="fill:none;stroke:red;stroke-width:1px;stroke-linecap:butt;stroke-linejoin:miter;stroke-opacity:1" d="M 395.81,466.619 389.066,469.99 z" id="boundary" inkscape:connector-curvature="0" />
	<path style="fill:none;stroke:red;stroke-width:1px;stroke-linecap:butt;stroke-linejoin:miter;stroke-opacity:1" d="M 407.948,461.898 402.553,466.619 z" id="boundary" inkscape:connector-curvature="0" />
	<path style="fill:none;stroke:red;stroke-width:1px;stroke-linecap:butt;stroke-linejoin:miter;stroke-opacity:1" d="M 402.553,466.619 395.81,466.619 z" id="boundary" inkscape:connector-curvature="0" />
	<path style="fill:none;stroke:red;stroke-width:1px;stroke-linecap:butt;stroke-linejoin:miter;stroke-opacity:1" d="M 412.669,456.503 407.948,461.898 z" id="boundary" inkscape:connector-curvature="0" />
	<path style="fill:none;stroke:red;stroke-width:1px;stroke-linecap:butt;stroke-linejoin:miter;stroke-opacity:1" d="M 200.916,473.362 194.173,473.362 z" id="boundary" inkscape:connector-curvature="0" />
	<path style="fill:none;stroke:red;stroke-width:1px;stroke-linecap:butt;stroke-linejoin:miter;stroke-opacity:1" d="M 207.66,473.362 200.916,473.362 z" id="boundary" inkscape:connector-curvature="0" />
	<path style="fill:none;stroke:red;stroke-width:1px;stroke-linecap:butt;stroke-linejoin:miter;stroke-opacity:1" d="M 221.148,473.362 214.404,473.362 z" id="boundary" inkscape:connector-curvature="0" />
	<path style="fill:none;stroke:red;stroke-width:1px;stroke-linecap:butt;stroke-linejoin:miter;stroke-opacity:1" d="M 446.387,395.81 443.016,402.553 z" id="boundary" inkscape:connector-curvature="0" />
	<path style="fill:none;stroke:red;stroke-width:1px;stroke-linecap:butt;stroke-linejoin:miter;stroke-opacity:1" d="M 214.404,473.362 207.66,473.362 z" id="boundary" inkscape:connector-curvature="0" />
	<path style="fill:none;stroke:red;stroke-width:1px;stroke-linecap:butt;stroke-linejoin:miter;stroke-opacity:1" d="M 376.253,473.362 382.322,469.99 z" id="boundary" inkscape:connector-curvature="0" />
	<path style="fill:none;stroke:red;stroke-width:1px;stroke-linecap:butt;stroke-linejoin:miter;stroke-opacity:1" d="M 194.173,473.362 187.429,473.362 z" id="boundary" inkscape:connector-curvature="0" />
	<path style="fill:none;stroke:red;stroke-width:1px;stroke-linecap:butt;stroke-linejoin:miter;stroke-opacity:1" d="M 434.923,418.064 439.644,409.297 z" id="boundary" inkscape:connector-curvature="0" />
	<path style="fill:none;stroke:red;stroke-width:1px;stroke-linecap:butt;stroke-linejoin:miter;stroke-opacity:1" d="M 446.387,395.81 451.782,391.089 z" id="boundary" inkscape:connector-curvature="0" />
	<path style="fill:none;stroke:red;stroke-width:1px;stroke-linecap:butt;stroke-linejoin:miter;stroke-opacity:1" d="M 443.016,402.553 439.644,409.297 z" id="boundary" inkscape:connector-curvature="0" />
	<path style="fill:none;stroke:red;stroke-width:1px;stroke-linecap:butt;stroke-linejoin:miter;stroke-opacity:1" d="M 434.923,418.064 431.551,424.808 z" id="boundary" inkscape:connector-curvature="0" />
	<path style="fill:none;stroke:red;stroke-width:1px;stroke-linecap:butt;stroke-linejoin:miter;stroke-opacity:1" d="M 421.436,445.039 418.064,451.782 z" id="boundary" inkscape:connector-curvature="0" />
	<path style="fill:none;stroke:red;stroke-width:1px;stroke-linecap:butt;stroke-linejoin:miter;stroke-opacity:1" d="M 418.064,451.782 412.669,456.503 z" id="boundary" inkscape:connector-curvature="0" />
	<path style="fill:none;stroke:red;stroke-width:1px;stroke-linecap:butt;stroke-linejoin:miter;stroke-opacity:1" d="M 424.808,438.295 428.179,431.551 z" id="boundary" inkscape:connector-curvature="0" />
	<path style="fill:none;stroke:red;stroke-width:1px;stroke-linecap:butt;stroke-linejoin:miter;stroke-opacity:1" d="M 424.808,438.295 421.436,445.039 z" id="boundary" inkscape:connector-curvature="0" />
	<path style="fill:none;stroke:red;stroke-width:1px;stroke-linecap:butt;stroke-linejoin:miter;stroke-opacity:1" d="M 428.179,431.551 431.551,424.808 z" id="boundary" inkscape:connector-curvature="0" />
	<path style="fill:none;stroke:red;stroke-width:1px;stroke-linecap:butt;stroke-linejoin:miter;stroke-opacity:1" d="M 261.61,473.362 254.866,473.362 z" id="boundary" inkscape:connector-curvature="0" />
	<path style="fill:none;stroke:red;stroke-width:1px;stroke-linecap:butt;stroke-linejoin:miter;stroke-opacity:1" d="M 281.841,473.362 275.097,473.362 z" id="boundary" inkscape:connector-curvature="0" />
	<path style="fill:none;stroke:red;stroke-width:1px;stroke-linecap:butt;stroke-linejoin:miter;stroke-opacity:1" d="M 227.891,473.362 221.148,473.362 z" id="boundary" inkscape:connector-curvature="0" />
	<path style="fill:none;stroke:red;stroke-width:1px;stroke-linecap:butt;stroke-linejoin:miter;stroke-opacity:1" d="M 241.379,473.362 234.635,473.362 z" id="boundary" inkscape:connector-curvature="0" />
	<path style="fill:none;stroke:red;stroke-width:1px;stroke-linecap:butt;stroke-linejoin:miter;stroke-opacity:1" d="M 248.122,473.362 241.379,473.362 z" id="boundary" inkscape:connector-curvature="0" />
	<path style="fill:none;stroke:red;stroke-width:1px;stroke-linecap:butt;stroke-linejoin:miter;stroke-opacity:1" d="M 234.635,473.362 227.891,473.362 z" id="boundary" inkscape:connector-curvature="0" />
	<path style="fill:none;stroke:red;stroke-width:1px;stroke-linecap:butt;stroke-linejoin:miter;stroke-opacity:1" d="M 268.354,473.362 261.61,473.362 z" id="boundary" inkscape:connector-curvature="0" />
	<path style="fill:none;stroke:red;stroke-width:1px;stroke-linecap:butt;stroke-linejoin:miter;stroke-opacity:1" d="M 275.097,473.362 268.354,473.362 z" id="boundary" inkscape:connector-curvature="0" />
	<path style="fill:none;stroke:red;stroke-width:1px;stroke-linecap:butt;stroke-linejoin:miter;stroke-opacity:1" d="M 295.328,473.362 288.585,473.362 z" id="boundary" inkscape:connector-curvature="0" />
	<path style="fill:none;stroke:red;stroke-width:1px;stroke-linecap:butt;stroke-linejoin:miter;stroke-opacity:1" d="M 288.585,473.362 281.841,473.362 z" id="boundary" inkscape:connector-curvature="0" />
	<path style="fill:none;stroke:red;stroke-width:1px;stroke-linecap:butt;stroke-linejoin:miter;stroke-opacity:1" d="M 254.866,473.362 248.122,473.362 z" id="boundary" inkscape:connector-curvature="0" />
	<path style="fill:none;stroke:red;stroke-width:1px;stroke-linecap:butt;stroke-linejoin:miter;stroke-opacity:1" d="M 308.816,473.362 302.072,473.362 z" id="boundary" inkscape:connector-curvature="0" />
	<path style="fill:none;stroke:red;stroke-width:1px;stroke-linecap:butt;stroke-linejoin:miter;stroke-opacity:1" d="M 315.559,473.362 308.816,473.362 z" id="boundary" inkscape:connector-curvature="0" />
	<path style="fill:none;stroke:red;stroke-width:1px;stroke-linecap:butt;stroke-linejoin:miter;stroke-opacity:1" d="M 329.047,473.362 322.303,473.362 z" id="boundary" inkscape:connector-curvature="0" />
	<path style="fill:none;stroke:red;stroke-width:1px;stroke-linecap:butt;stroke-linejoin:miter;stroke-opacity:1" d="M 335.791,473.362 329.047,473.362 z" id="boundary" inkscape:connector-curvature="0" />
	<path style="fill:none;stroke:red;stroke-width:1px;stroke-linecap:butt;stroke-linejoin:miter;stroke-opacity:1" d="M 322.303,473.362 315.559,473.362 z" id="boundary" inkscape:connector-curvature="0" />
	<path style="fill:none;stroke:red;stroke-width:1px;stroke-linecap:butt;stroke-linejoin:miter;stroke-opacity:1" d="M 349.278,473.362 342.534,473.362 z" id="boundary" inkscape:connector-curvature="0" />
	<path style="fill:none;stroke:red;stroke-width:1px;stroke-linecap:butt;stroke-linejoin:miter;stroke-opacity:1" d="M 356.022,473.362 349.278,473.362 z" id="boundary" inkscape:connector-curvature="0" />
	<path style="fill:none;stroke:red;stroke-width:1px;stroke-linecap:butt;stroke-linejoin:miter;stroke-opacity:1" d="M 369.509,473.362 362.765,473.362 z" id="boundary" inkscape:connector-curvature="0" />
	<path style="fill:none;stroke:red;stroke-width:1px;stroke-linecap:butt;stroke-linejoin:miter;stroke-opacity:1" d="M 376.253,473.362 369.509,473.362 z" id="boundary" inkscape:connector-curvature="0" />
	<path style="fill:none;stroke:red;stroke-width:1px;stroke-linecap:butt;stroke-linejoin:miter;stroke-opacity:1" d="M 362.765,473.362 356.022,473.362 z" id="boundary" inkscape:connector-curvature="0" />
	<path style="fill:none;stroke:red;stroke-width:1px;stroke-linecap:butt;stroke-linejoin:miter;stroke-opacity:1" d="M 342.534,473.362 335.791,473.362 z" id="boundary" inkscape:connector-curvature="0" />
	<path style="fill:none;stroke:red;stroke-width:1px;stroke-linecap:butt;stroke-linejoin:miter;stroke-opacity:1" d="M 302.072,473.362 295.328,473.362 z" id="boundary" inkscape:connector-curvature="0" />
	<path style="fill:none;stroke:red;stroke-width:1px;stroke-linecap:butt;stroke-linejoin:miter;stroke-opacity:1" d="M 455.154,384.345 451.782,391.089 z" id="boundary" inkscape:connector-curvature="0" />
	<path style="fill:none;stroke:red;stroke-width:1px;stroke-linecap:butt;stroke-linejoin:miter;stroke-opacity:1" d="M 462.572,116.62 459.201,110.551 z" id="boundary" inkscape:connector-curvature="0" />
	<path style="fill:none;stroke:red;stroke-width:1px;stroke-linecap:butt;stroke-linejoin:miter;stroke-opacity:1" d="M 469.99,128.759 465.27,123.364 z" id="boundary" inkscape:connector-curvature="0" />
	<path style="fill:none;stroke:red;stroke-width:1px;stroke-linecap:butt;stroke-linejoin:miter;stroke-opacity:1" d="M 465.27,123.364 462.572,116.62 z" id="boundary" inkscape:connector-curvature="0" />
	<path style="fill:none;stroke:red;stroke-width:1px;stroke-linecap:butt;stroke-linejoin:miter;stroke-opacity:1" d="M 475.385,132.805 469.99,128.759 z" id="boundary" inkscape:connector-curvature="0" />
	<path style="fill:none;stroke:red;stroke-width:1px;stroke-linecap:butt;stroke-linejoin:miter;stroke-opacity:1" d="M 459.201,110.551 456.503,103.807 z" id="boundary" inkscape:connector-curvature="0" />
	<path style="fill:none;stroke:red;stroke-width:1px;stroke-linecap:butt;stroke-linejoin:miter;stroke-opacity:1" d="M 494.942,138.874 488.199,138.874 z" id="boundary" inkscape:connector-curvature="0" />
	<path style="fill:none;stroke:red;stroke-width:1px;stroke-linecap:butt;stroke-linejoin:miter;stroke-opacity:1" d="M 488.199,138.874 481.455,136.177 z" id="boundary" inkscape:connector-curvature="0" />
	<path style="fill:none;stroke:red;stroke-width:1px;stroke-linecap:butt;stroke-linejoin:miter;stroke-opacity:1" d="M 481.455,136.177 475.385,132.805 z" id="boundary" inkscape:connector-curvature="0" />
	<path style="fill:none;stroke:red;stroke-width:1px;stroke-linecap:butt;stroke-linejoin:miter;stroke-opacity:1" d="M 494.942,138.874 501.686,138.874 z" id="boundary" inkscape:connector-curvature="0" />
	<path style="fill:none;stroke:red;stroke-width:1px;stroke-linecap:butt;stroke-linejoin:miter;stroke-opacity:1" d="M 501.686,138.874 508.43,138.874 z" id="boundary" inkscape:connector-curvature="0" />
	<path style="fill:none;stroke:red;stroke-width:1px;stroke-linecap:butt;stroke-linejoin:miter;stroke-opacity:1" d="M 515.173,138.874 521.917,138.874 z" id="boundary" inkscape:connector-curvature="0" />
	<path style="fill:none;stroke:red;stroke-width:1px;stroke-linecap:butt;stroke-linejoin:miter;stroke-opacity:1" d="M 515.173,138.874 508.43,138.874 z" id="boundary" inkscape:connector-curvature="0" />
	<path style="fill:none;stroke:red;stroke-width:1px;stroke-linecap:butt;stroke-linejoin:miter;stroke-opacity:1" d="M 528.661,138.874 535.404,138.874 z" id="boundary" inkscape:connector-curvature="0" />
	<path style="fill:none;stroke:red;stroke-width:1px;stroke-linecap:butt;stroke-linejoin:miter;stroke-opacity:1" d="M 528.661,138.874 521.917,138.874 z" id="boundary" inkscape:connector-curvature="0" />
	<path style="fill:none;stroke:red;stroke-width:1px;stroke-linecap:butt;stroke-linejoin:miter;stroke-opacity:1" d="M 535.404,138.874 542.148,138.874 z" id="boundary" inkscape:connector-curvature="0" />
	<path style="fill:none;stroke:red;stroke-width:1px;stroke-linecap:butt;stroke-linejoin:miter;stroke-opacity:1" d="M 548.892,138.874 555.636,138.874 z" id="boundary" inkscape:connector-curvature="0" />
	<path style="fill:none;stroke:red;stroke-width:1px;stroke-linecap:butt;stroke-linejoin:miter;stroke-opacity:1" d="M 548.892,138.874 542.148,138.874 z" id="boundary" inkscape:connector-curvature="0" />
	<path style="fill:none;stroke:red;stroke-width:1px;stroke-linecap:butt;stroke-linejoin:miter;stroke-opacity:1" d="M 555.636,138.874 562.379,138.874 z" id="boundary" inkscape:connector-curvature="0" />
	<path style="fill:none;stroke:red;stroke-width:1px;stroke-linecap:butt;stroke-linejoin:miter;stroke-opacity:1" d="M 562.379,138.874 568.449,142.246 z" id="boundary" inkscape:connector-curvature="0" />
	<path style="fill:none;stroke:red;stroke-width:1px;stroke-linecap:butt;stroke-linejoin:miter;stroke-opacity:1" d="M 568.449,142.246 575.192,142.246 z" id="boundary" inkscape:connector-curvature="0" />
	<path style="fill:none;stroke:red;stroke-width:1px;stroke-linecap:butt;stroke-linejoin:miter;stroke-opacity:1" d="M 575.192,142.246 581.262,145.618 z" id="boundary" inkscape:connector-curvature="0" />
	<path style="fill:none;stroke:red;stroke-width:1px;stroke-linecap:butt;stroke-linejoin:miter;stroke-opacity:1" d="M 588.005,147.641 581.262,145.618 z" id="boundary" inkscape:connector-curvature="0" />
	<path style="fill:none;stroke:red;stroke-width:1px;stroke-linecap:butt;stroke-linejoin:miter;stroke-opacity:1" d="M 726.926,162.477 720.182,162.477 z" id="boundary" inkscape:connector-curvature="0" />
	<path style="fill:none;stroke:red;stroke-width:1px;stroke-linecap:butt;stroke-linejoin:miter;stroke-opacity:1" d="M 594.075,151.013 588.005,147.641 z" id="boundary" inkscape:connector-curvature="0" />
	<path style="fill:none;stroke:red;stroke-width:1px;stroke-linecap:butt;stroke-linejoin:miter;stroke-opacity:1" d="M 600.818,153.71 594.075,151.013 z" id="boundary" inkscape:connector-curvature="0" />
	<path style="fill:none;stroke:red;stroke-width:1px;stroke-linecap:butt;stroke-linejoin:miter;stroke-opacity:1" d="M 613.632,159.78 606.888,157.082 z" id="boundary" inkscape:connector-curvature="0" />
	<path style="fill:none;stroke:red;stroke-width:1px;stroke-linecap:butt;stroke-linejoin:miter;stroke-opacity:1" d="M 606.888,157.082 600.818,153.71 z" id="boundary" inkscape:connector-curvature="0" />
	<path style="fill:none;stroke:red;stroke-width:1px;stroke-linecap:butt;stroke-linejoin:miter;stroke-opacity:1" d="M 613.632,159.78 618.352,165.175 z" id="boundary" inkscape:connector-curvature="0" />
	<path style="fill:none;stroke:red;stroke-width:1px;stroke-linecap:butt;stroke-linejoin:miter;stroke-opacity:1" d="M 618.352,165.175 625.096,167.872 z" id="boundary" inkscape:connector-curvature="0" />
	<path style="fill:none;stroke:red;stroke-width:1px;stroke-linecap:butt;stroke-linejoin:miter;stroke-opacity:1" d="M 625.096,167.872 631.165,171.244 z" id="boundary" inkscape:connector-curvature="0" />
	<path style="fill:none;stroke:red;stroke-width:1px;stroke-linecap:butt;stroke-linejoin:miter;stroke-opacity:1" d="M 637.909,173.942 631.165,171.244 z" id="boundary" inkscape:connector-curvature="0" />
	<path style="fill:none;stroke:red;stroke-width:1px;stroke-linecap:butt;stroke-linejoin:miter;stroke-opacity:1" d="M 648.699,181.36 641.955,179.337 z" id="boundary" inkscape:connector-curvature="0" />
	<path style="fill:none;stroke:red;stroke-width:1px;stroke-linecap:butt;stroke-linejoin:miter;stroke-opacity:1" d="M 641.955,179.337 637.909,173.942 z" id="boundary" inkscape:connector-curvature="0" />
	<path style="fill:none;stroke:red;stroke-width:1px;stroke-linecap:butt;stroke-linejoin:miter;stroke-opacity:1" d="M 648.699,181.36 654.768,184.731 z" id="boundary" inkscape:connector-curvature="0" />
	<path style="fill:none;stroke:red;stroke-width:1px;stroke-linecap:butt;stroke-linejoin:miter;stroke-opacity:1" d="M 700.625,169.221 693.882,172.593 z" id="boundary" inkscape:connector-curvature="0" />
	<path style="fill:none;stroke:red;stroke-width:1px;stroke-linecap:butt;stroke-linejoin:miter;stroke-opacity:1" d="M 700.625,169.221 706.695,165.849 z" id="boundary" inkscape:connector-curvature="0" />
	<path style="fill:none;stroke:red;stroke-width:1px;stroke-linecap:butt;stroke-linejoin:miter;stroke-opacity:1" d="M 688.487,177.988 693.882,172.593 z" id="boundary" inkscape:connector-curvature="0" />
	<path style="fill:none;stroke:red;stroke-width:1px;stroke-linecap:butt;stroke-linejoin:miter;stroke-opacity:1" d="M 720.182,162.477 713.438,163.152 z" id="boundary" inkscape:connector-curvature="0" />
	<path style="fill:none;stroke:red;stroke-width:1px;stroke-linecap:butt;stroke-linejoin:miter;stroke-opacity:1" d="M 706.695,165.849 713.438,163.152 z" id="boundary" inkscape:connector-curvature="0" />
	<path style="fill:none;stroke:red;stroke-width:1px;stroke-linecap:butt;stroke-linejoin:miter;stroke-opacity:1" d="M 668.256,186.08 661.512,186.08 z" id="boundary" inkscape:connector-curvature="0" />
	<path style="fill:none;stroke:red;stroke-width:1px;stroke-linecap:butt;stroke-linejoin:miter;stroke-opacity:1" d="M 661.512,186.08 654.768,184.731 z" id="boundary" inkscape:connector-curvature="0" />
	<path style="fill:none;stroke:red;stroke-width:1px;stroke-linecap:butt;stroke-linejoin:miter;stroke-opacity:1" d="M 674.999,184.731 681.743,181.36 z" id="boundary" inkscape:connector-curvature="0" />
	<path style="fill:none;stroke:red;stroke-width:1px;stroke-linecap:butt;stroke-linejoin:miter;stroke-opacity:1" d="M 674.999,184.731 668.256,186.08 z" id="boundary" inkscape:connector-curvature="0" />
	<path style="fill:none;stroke:red;stroke-width:1px;stroke-linecap:butt;stroke-linejoin:miter;stroke-opacity:1" d="M 681.743,181.36 688.487,177.988 z" id="boundary" inkscape:connector-curvature="0" />
	<path style="fill:none;stroke:red;stroke-width:1px;stroke-linecap:butt;stroke-linejoin:miter;stroke-opacity:1" d="M 726.926,162.477 733.67,162.477 z" id="boundary" inkscape:connector-curvature="0" />
	<path style="fill:none;stroke:red;stroke-width:1px;stroke-linecap:butt;stroke-linejoin:miter;stroke-opacity:1" d="M 733.67,162.477 740.413,162.477 z" id="boundary" inkscape:connector-curvature="0" />
	<path style="fill:none;stroke:red;stroke-width:1px;stroke-linecap:butt;stroke-linejoin:miter;stroke-opacity:1" d="M 759.97,165.849 753.226,165.849 z" id="boundary" inkscape:connector-curvature="0" />
	<path style="fill:none;stroke:red;stroke-width:1px;stroke-linecap:butt;stroke-linejoin:miter;stroke-opacity:1" d="M 753.226,165.849 747.157,162.477 z" id="boundary" inkscape:connector-curvature="0" />
	<path style="fill:none;stroke:red;stroke-width:1px;stroke-linecap:butt;stroke-linejoin:miter;stroke-opacity:1" d="M 766.714,165.849 759.97,165.849 z" id="boundary" inkscape:connector-curvature="0" />
	<path style="fill:none;stroke:red;stroke-width:1px;stroke-linecap:butt;stroke-linejoin:miter;stroke-opacity:1" d="M 740.413,162.477 747.157,162.477 z" id="boundary" inkscape:connector-curvature="0" />
	<path style="fill:none;stroke:red;stroke-width:1px;stroke-linecap:butt;stroke-linejoin:miter;stroke-opacity:1" d="M 766.714,165.849 773.458,165.849 z" id="boundary" inkscape:connector-curvature="0" />
	<path style="fill:none;stroke:red;stroke-width:1px;stroke-linecap:butt;stroke-linejoin:miter;stroke-opacity:1" d="M 773.458,165.849 779.527,169.221 z" id="boundary" inkscape:connector-curvature="0" />
	<path style="fill:none;stroke:red;stroke-width:1px;stroke-linecap:butt;stroke-linejoin:miter;stroke-opacity:1" d="M 793.014,184.731 788.294,179.337 z" id="boundary" inkscape:connector-curvature="0" />
	<path style="fill:none;stroke:red;stroke-width:1px;stroke-linecap:butt;stroke-linejoin:miter;stroke-opacity:1" d="M 788.294,179.337 784.922,173.267 z" id="boundary" inkscape:connector-curvature="0" />
	<path style="fill:none;stroke:red;stroke-width:1px;stroke-linecap:butt;stroke-linejoin:miter;stroke-opacity:1" d="M 779.527,169.221 784.922,173.267 z" id="boundary" inkscape:connector-curvature="0" />
	<path style="fill:none;stroke:red;stroke-width:1px;stroke-linecap:butt;stroke-linejoin:miter;stroke-opacity:1" d="M 898.216,186.08 904.96,186.08 z" id="boundary" inkscape:connector-curvature="0" />
	<path style="fill:none;stroke:red;stroke-width:1px;stroke-linecap:butt;stroke-linejoin:miter;stroke-opacity:1" d="M 892.147,189.452 898.216,186.08 z" id="boundary" inkscape:connector-curvature="0" />
	<path style="fill:none;stroke:red;stroke-width:1px;stroke-linecap:butt;stroke-linejoin:miter;stroke-opacity:1" d="M 911.704,186.08 918.447,186.08 z" id="boundary" inkscape:connector-curvature="0" />
	<path style="fill:none;stroke:red;stroke-width:1px;stroke-linecap:butt;stroke-linejoin:miter;stroke-opacity:1" d="M 925.191,186.08 918.447,186.08 z" id="boundary" inkscape:connector-curvature="0" />
	<path style="fill:none;stroke:red;stroke-width:1px;stroke-linecap:butt;stroke-linejoin:miter;stroke-opacity:1" d="M 925.191,186.08 931.935,188.103 z" id="boundary" inkscape:connector-curvature="0" />
	<path style="fill:none;stroke:red;stroke-width:1px;stroke-linecap:butt;stroke-linejoin:miter;stroke-opacity:1" d="M 911.704,186.08 904.96,186.08 z" id="boundary" inkscape:connector-curvature="0" />
	<path style="fill:none;stroke:red;stroke-width:1px;stroke-linecap:butt;stroke-linejoin:miter;stroke-opacity:1" d="M 804.479,192.824 798.409,189.452 z" id="boundary" inkscape:connector-curvature="0" />
	<path style="fill:none;stroke:red;stroke-width:1px;stroke-linecap:butt;stroke-linejoin:miter;stroke-opacity:1" d="M 798.409,189.452 793.014,184.731 z" id="boundary" inkscape:connector-curvature="0" />
	<path style="fill:none;stroke:red;stroke-width:1px;stroke-linecap:butt;stroke-linejoin:miter;stroke-opacity:1" d="M 879.334,192.824 873.264,196.196 z" id="boundary" inkscape:connector-curvature="0" />
	<path style="fill:none;stroke:red;stroke-width:1px;stroke-linecap:butt;stroke-linejoin:miter;stroke-opacity:1" d="M 938.678,189.452 931.935,188.103 z" id="boundary" inkscape:connector-curvature="0" />
	<path style="fill:none;stroke:red;stroke-width:1px;stroke-linecap:butt;stroke-linejoin:miter;stroke-opacity:1" d="M 892.147,189.452 886.077,192.824 z" id="boundary" inkscape:connector-curvature="0" />
	<path style="fill:none;stroke:red;stroke-width:1px;stroke-linecap:butt;stroke-linejoin:miter;stroke-opacity:1" d="M 886.077,192.824 879.334,192.824 z" id="boundary" inkscape:connector-curvature="0" />
	<path style="fill:none;stroke:red;stroke-width:1px;stroke-linecap:butt;stroke-linejoin:miter;stroke-opacity:1" d="M 938.678,189.452 944.748,192.824 z" id="boundary" inkscape:connector-curvature="0" />
	<path style="fill:none;stroke:red;stroke-width:1px;stroke-linecap:butt;stroke-linejoin:miter;stroke-opacity:1" d="M 804.479,192.824 809.874,197.545 z" id="boundary" inkscape:connector-curvature="0" />
	<path style="fill:none;stroke:red;stroke-width:1px;stroke-linecap:butt;stroke-linejoin:miter;stroke-opacity:1" d="M 815.943,200.916 809.874,197.545 z" id="boundary" inkscape:connector-curvature="0" />
	<path style="fill:none;stroke:red;stroke-width:1px;stroke-linecap:butt;stroke-linejoin:miter;stroke-opacity:1" d="M 873.264,196.196 867.195,199.568 z" id="boundary" inkscape:connector-curvature="0" />
	<path style="fill:none;stroke:red;stroke-width:1px;stroke-linecap:butt;stroke-linejoin:miter;stroke-opacity:1" d="M 867.195,199.568 860.451,201.591 z" id="boundary" inkscape:connector-curvature="0" />
	<path style="fill:none;stroke:red;stroke-width:1px;stroke-linecap:butt;stroke-linejoin:miter;stroke-opacity:1" d="M 855.056,206.311 860.451,201.591 z" id="boundary" inkscape:connector-curvature="0" />
	<path style="fill:none;stroke:red;stroke-width:1px;stroke-linecap:butt;stroke-linejoin:miter;stroke-opacity:1" d="M 822.687,203.614 815.943,200.916 z" id="boundary" inkscape:connector-curvature="0" />
	<path style="fill:none;stroke:red;stroke-width:1px;stroke-linecap:butt;stroke-linejoin:miter;stroke-opacity:1" d="M 842.243,209.683 835.5,209.683 z" id="boundary" inkscape:connector-curvature="0" />
	<path style="fill:none;stroke:red;stroke-width:1px;stroke-linecap:butt;stroke-linejoin:miter;stroke-opacity:1" d="M 835.5,209.683 828.756,206.986 z" id="boundary" inkscape:connector-curvature="0" />
	<path style="fill:none;stroke:red;stroke-width:1px;stroke-linecap:butt;stroke-linejoin:miter;stroke-opacity:1" d="M 828.756,206.986 822.687,203.614 z" id="boundary" inkscape:connector-curvature="0" />
	<path style="fill:none;stroke:red;stroke-width:1px;stroke-linecap:butt;stroke-linejoin:miter;stroke-opacity:1" d="M 855.056,206.311 848.987,209.683 z" id="boundary" inkscape:connector-curvature="0" />
	<path style="fill:none;stroke:red;stroke-width:1px;stroke-linecap:butt;stroke-linejoin:miter;stroke-opacity:1" d="M 848.987,209.683 842.243,209.683 z" id="boundary" inkscape:connector-curvature="0" />
	<path style="fill:none;stroke:red;stroke-width:1px;stroke-linecap:butt;stroke-linejoin:miter;stroke-opacity:1" d="M 950.143,196.87 955.538,201.591 z" id="boundary" inkscape:connector-curvature="0" />
	<path style="fill:none;stroke:red;stroke-width:1px;stroke-linecap:butt;stroke-linejoin:miter;stroke-opacity:1" d="M 944.748,192.824 950.143,196.87 z" id="boundary" inkscape:connector-curvature="0" />
	<path style="fill:none;stroke:red;stroke-width:1px;stroke-linecap:butt;stroke-linejoin:miter;stroke-opacity:1" d="M 967.002,209.683 960.258,206.986 z" id="boundary" inkscape:connector-curvature="0" />
	<path style="fill:none;stroke:red;stroke-width:1px;stroke-linecap:butt;stroke-linejoin:miter;stroke-opacity:1" d="M 960.258,206.986 955.538,201.591 z" id="boundary" inkscape:connector-curvature="0" />
	<path style="fill:none;stroke:red;stroke-width:1px;stroke-linecap:butt;stroke-linejoin:miter;stroke-opacity:1" d="M 967.002,209.683 971.723,215.078 z" id="boundary" inkscape:connector-curvature="0" />
	<path style="fill:none;stroke:red;stroke-width:1px;stroke-linecap:butt;stroke-linejoin:miter;stroke-opacity:1" d="M 971.723,215.078 977.118,219.799 z" id="boundary" inkscape:connector-curvature="0" />
	<path style="fill:none;stroke:red;stroke-width:1px;stroke-linecap:butt;stroke-linejoin:miter;stroke-opacity:1" d="M 981.838,225.194 977.118,219.799 z" id="boundary" inkscape:connector-curvature="0" />
	<path style="fill:none;stroke:red;stroke-width:1px;stroke-linecap:butt;stroke-linejoin:miter;stroke-opacity:1" d="M 988.582,227.891 981.838,225.194 z" id="boundary" inkscape:connector-curvature="0" />
	<path style="fill:none;stroke:red;stroke-width:1px;stroke-linecap:butt;stroke-linejoin:miter;stroke-opacity:1" d="M 988.582,227.891 992.628,233.286 z" id="boundary" inkscape:connector-curvature="0" />
	<path style="fill:none;stroke:red;stroke-width:1px;stroke-linecap:butt;stroke-linejoin:miter;stroke-opacity:1" d="M 996,239.356 996,247.448 z" id="boundary" inkscape:connector-curvature="0" />
	<path style="fill:none;stroke:red;stroke-width:1px;stroke-linecap:butt;stroke-linejoin:miter;stroke-opacity:1" d="M 992.628,233.286 996,239.356 z" id="boundary" inkscape:connector-curvature="0" />
	<path style="fill:none;stroke:red;stroke-width:1px;stroke-linecap:butt;stroke-linejoin:miter;stroke-opacity:1" d="M 628.468,301.398 635.211,301.398 z" id="boundary" inkscape:connector-curvature="0" />
	<path style="fill:none;stroke:red;stroke-width:1px;stroke-linecap:butt;stroke-linejoin:miter;stroke-opacity:1" d="M 621.724,304.77 628.468,301.398 z" id="boundary" inkscape:connector-curvature="0" />
	<path style="fill:none;stroke:red;stroke-width:1px;stroke-linecap:butt;stroke-linejoin:miter;stroke-opacity:1" d="M 641.955,301.398 648.699,301.398 z" id="boundary" inkscape:connector-curvature="0" />
	<path style="fill:none;stroke:red;stroke-width:1px;stroke-linecap:butt;stroke-linejoin:miter;stroke-opacity:1" d="M 655.443,301.398 648.699,301.398 z" id="boundary" inkscape:connector-curvature="0" />
	<path style="fill:none;stroke:red;stroke-width:1px;stroke-linecap:butt;stroke-linejoin:miter;stroke-opacity:1" d="M 641.955,301.398 635.211,301.398 z" id="boundary" inkscape:connector-curvature="0" />
	<path style="fill:none;stroke:red;stroke-width:1px;stroke-linecap:butt;stroke-linejoin:miter;stroke-opacity:1" d="M 593.4,327.024 598.121,321.629 z" id="boundary" inkscape:connector-curvature="0" />
	<path style="fill:none;stroke:red;stroke-width:1px;stroke-linecap:butt;stroke-linejoin:miter;stroke-opacity:1" d="M 598.121,321.629 604.19,318.257 z" id="boundary" inkscape:connector-curvature="0" />
	<path style="fill:none;stroke:red;stroke-width:1px;stroke-linecap:butt;stroke-linejoin:miter;stroke-opacity:1" d="M 604.19,318.257 609.585,314.211 z" id="boundary" inkscape:connector-curvature="0" />
	<path style="fill:none;stroke:red;stroke-width:1px;stroke-linecap:butt;stroke-linejoin:miter;stroke-opacity:1" d="M 609.585,314.211 614.98,308.141 z" id="boundary" inkscape:connector-curvature="0" />
	<path style="fill:none;stroke:red;stroke-width:1px;stroke-linecap:butt;stroke-linejoin:miter;stroke-opacity:1" d="M 614.98,308.141 621.724,304.77 z" id="boundary" inkscape:connector-curvature="0" />
	<path style="fill:none;stroke:red;stroke-width:1px;stroke-linecap:butt;stroke-linejoin:miter;stroke-opacity:1" d="M 590.029,333.768 593.4,327.024 z" id="boundary" inkscape:connector-curvature="0" />
	<path style="fill:none;stroke:red;stroke-width:1px;stroke-linecap:butt;stroke-linejoin:miter;stroke-opacity:1" d="M 655.443,301.398 662.186,302.746 z" id="boundary" inkscape:connector-curvature="0" />
	<path style="fill:none;stroke:red;stroke-width:1px;stroke-linecap:butt;stroke-linejoin:miter;stroke-opacity:1" d="M 662.186,302.746 668.93,304.77 z" id="boundary" inkscape:connector-curvature="0" />
	<path style="fill:none;stroke:red;stroke-width:1px;stroke-linecap:butt;stroke-linejoin:miter;stroke-opacity:1" d="M 668.93,304.77 674.999,308.141 z" id="boundary" inkscape:connector-curvature="0" />
	<path style="fill:none;stroke:red;stroke-width:1px;stroke-linecap:butt;stroke-linejoin:miter;stroke-opacity:1" d="M 674.999,308.141 681.743,308.141 z" id="boundary" inkscape:connector-curvature="0" />
	<path style="fill:none;stroke:red;stroke-width:1px;stroke-linecap:butt;stroke-linejoin:miter;stroke-opacity:1" d="M 681.743,308.141 687.812,311.513 z" id="boundary" inkscape:connector-curvature="0" />
	<path style="fill:none;stroke:red;stroke-width:1px;stroke-linecap:butt;stroke-linejoin:miter;stroke-opacity:1" d="M 687.812,311.513 693.882,314.885 z" id="boundary" inkscape:connector-curvature="0" />
	<path style="fill:none;stroke:red;stroke-width:1px;stroke-linecap:butt;stroke-linejoin:miter;stroke-opacity:1" d="M 693.882,314.885 699.951,318.257 z" id="boundary" inkscape:connector-curvature="0" />
	<path style="fill:none;stroke:red;stroke-width:1px;stroke-linecap:butt;stroke-linejoin:miter;stroke-opacity:1" d="M 730.298,331.744 723.554,331.744 z" id="boundary" inkscape:connector-curvature="0" />
	<path style="fill:none;stroke:red;stroke-width:1px;stroke-linecap:butt;stroke-linejoin:miter;stroke-opacity:1" d="M 699.951,318.257 705.346,322.303 z" id="boundary" inkscape:connector-curvature="0" />
	<path style="fill:none;stroke:red;stroke-width:1px;stroke-linecap:butt;stroke-linejoin:miter;stroke-opacity:1" d="M 705.346,322.303 710.067,327.698 z" id="boundary" inkscape:connector-curvature="0" />
	<path style="fill:none;stroke:red;stroke-width:1px;stroke-linecap:butt;stroke-linejoin:miter;stroke-opacity:1" d="M 716.81,330.396 710.067,327.698 z" id="boundary" inkscape:connector-curvature="0" />
	<path style="fill:none;stroke:red;stroke-width:1px;stroke-linecap:butt;stroke-linejoin:miter;stroke-opacity:1" d="M 723.554,331.744 716.81,330.396 z" id="boundary" inkscape:connector-curvature="0" />
	<path style="fill:none;stroke:red;stroke-width:1px;stroke-linecap:butt;stroke-linejoin:miter;stroke-opacity:1" d="M 486.85,355.347 480.106,355.347 z" id="boundary" inkscape:connector-curvature="0" />
	<path style="fill:none;stroke:red;stroke-width:1px;stroke-linecap:butt;stroke-linejoin:miter;stroke-opacity:1" d="M 493.593,351.976 486.85,355.347 z" id="boundary" inkscape:connector-curvature="0" />
	<path style="fill:none;stroke:red;stroke-width:1px;stroke-linecap:butt;stroke-linejoin:miter;stroke-opacity:1" d="M 500.337,351.976 507.081,348.604 z" id="boundary" inkscape:connector-curvature="0" />
	<path style="fill:none;stroke:red;stroke-width:1px;stroke-linecap:butt;stroke-linejoin:miter;stroke-opacity:1" d="M 507.081,348.604 513.825,348.604 z" id="boundary" inkscape:connector-curvature="0" />
	<path style="fill:none;stroke:red;stroke-width:1px;stroke-linecap:butt;stroke-linejoin:miter;stroke-opacity:1" d="M 500.337,351.976 493.593,351.976 z" id="boundary" inkscape:connector-curvature="0" />
	<path style="fill:none;stroke:red;stroke-width:1px;stroke-linecap:butt;stroke-linejoin:miter;stroke-opacity:1" d="M 455.154,384.345 459.875,375.579 z" id="boundary" inkscape:connector-curvature="0" />
	<path style="fill:none;stroke:red;stroke-width:1px;stroke-linecap:butt;stroke-linejoin:miter;stroke-opacity:1" d="M 459.875,375.579 465.27,370.858 z" id="boundary" inkscape:connector-curvature="0" />
	<path style="fill:none;stroke:red;stroke-width:1px;stroke-linecap:butt;stroke-linejoin:miter;stroke-opacity:1" d="M 468.642,364.114 465.27,370.858 z" id="boundary" inkscape:connector-curvature="0" />
	<path style="fill:none;stroke:red;stroke-width:1px;stroke-linecap:butt;stroke-linejoin:miter;stroke-opacity:1" d="M 468.642,364.114 473.362,358.719 z" id="boundary" inkscape:connector-curvature="0" />
	<path style="fill:none;stroke:red;stroke-width:1px;stroke-linecap:butt;stroke-linejoin:miter;stroke-opacity:1" d="M 473.362,358.719 480.106,355.347 z" id="boundary" inkscape:connector-curvature="0" />
	<path style="fill:none;stroke:red;stroke-width:1px;stroke-linecap:butt;stroke-linejoin:miter;stroke-opacity:1" d="M 513.825,348.604 520.568,348.604 z" id="boundary" inkscape:connector-curvature="0" />
	<path style="fill:none;stroke:red;stroke-width:1px;stroke-linecap:butt;stroke-linejoin:miter;stroke-opacity:1" d="M 520.568,348.604 527.312,348.604 z" id="boundary" inkscape:connector-curvature="0" />
	<path style="fill:none;stroke:red;stroke-width:1px;stroke-linecap:butt;stroke-linejoin:miter;stroke-opacity:1" d="M 534.056,348.604 527.312,348.604 z" id="boundary" inkscape:connector-curvature="0" />
	<path style="fill:none;stroke:red;stroke-width:1px;stroke-linecap:butt;stroke-linejoin:miter;stroke-opacity:1" d="M 590.029,333.768 586.657,340.511 z" id="boundary" inkscape:connector-curvature="0" />
	<path style="fill:none;stroke:red;stroke-width:1px;stroke-linecap:butt;stroke-linejoin:miter;stroke-opacity:1" d="M 586.657,340.511 581.262,345.232 z" id="boundary" inkscape:connector-curvature="0" />
	<path style="fill:none;stroke:red;stroke-width:1px;stroke-linecap:butt;stroke-linejoin:miter;stroke-opacity:1" d="M 540.799,348.604 534.056,348.604 z" id="boundary" inkscape:connector-curvature="0" />
	<path style="fill:none;stroke:red;stroke-width:1px;stroke-linecap:butt;stroke-linejoin:miter;stroke-opacity:1" d="M 540.799,348.604 547.543,348.604 z" id="boundary" inkscape:connector-curvature="0" />
	<path style="fill:none;stroke:red;stroke-width:1px;stroke-linecap:butt;stroke-linejoin:miter;stroke-opacity:1" d="M 554.287,348.604 547.543,348.604 z" id="boundary" inkscape:connector-curvature="0" />
	<path style="fill:none;stroke:red;stroke-width:1px;stroke-linecap:butt;stroke-linejoin:miter;stroke-opacity:1" d="M 561.031,348.604 567.774,348.604 z" id="boundary" inkscape:connector-curvature="0" />
	<path style="fill:none;stroke:red;stroke-width:1px;stroke-linecap:butt;stroke-linejoin:miter;stroke-opacity:1" d="M 574.518,348.604 567.774,348.604 z" id="boundary" inkscape:connector-curvature="0" />
	<path style="fill:none;stroke:red;stroke-width:1px;stroke-linecap:butt;stroke-linejoin:miter;stroke-opacity:1" d="M 581.262,345.232 574.518,348.604 z" id="boundary" inkscape:connector-curvature="0" />
	<path style="fill:none;stroke:red;stroke-width:1px;stroke-linecap:butt;stroke-linejoin:miter;stroke-opacity:1" d="M 561.031,348.604 554.287,348.604 z" id="boundary" inkscape:connector-curvature="0" />
	<path style="fill:none;stroke:red;stroke-width:1px;stroke-linecap:butt;stroke-linejoin:miter;stroke-opacity:1" d="M 797.061,294.654 803.804,294.654 z" id="boundary" inkscape:connector-curvature="0" />
	<path style="fill:none;stroke:red;stroke-width:1px;stroke-linecap:butt;stroke-linejoin:miter;stroke-opacity:1" d="M 790.317,298.026 797.061,294.654 z" id="boundary" inkscape:connector-curvature="0" />
	<path style="fill:none;stroke:red;stroke-width:1px;stroke-linecap:butt;stroke-linejoin:miter;stroke-opacity:1" d="M 810.548,294.654 817.292,294.654 z" id="boundary" inkscape:connector-curvature="0" />
	<path style="fill:none;stroke:red;stroke-width:1px;stroke-linecap:butt;stroke-linejoin:miter;stroke-opacity:1" d="M 824.035,294.654 817.292,294.654 z" id="boundary" inkscape:connector-curvature="0" />
	<path style="fill:none;stroke:red;stroke-width:1px;stroke-linecap:butt;stroke-linejoin:miter;stroke-opacity:1" d="M 810.548,294.654 803.804,294.654 z" id="boundary" inkscape:connector-curvature="0" />
	<path style="fill:none;stroke:red;stroke-width:1px;stroke-linecap:butt;stroke-linejoin:miter;stroke-opacity:1" d="M 785.596,303.421 790.317,298.026 z" id="boundary" inkscape:connector-curvature="0" />
	<path style="fill:none;stroke:red;stroke-width:1px;stroke-linecap:butt;stroke-linejoin:miter;stroke-opacity:1" d="M 785.596,303.421 778.852,306.793 z" id="boundary" inkscape:connector-curvature="0" />
	<path style="fill:none;stroke:red;stroke-width:1px;stroke-linecap:butt;stroke-linejoin:miter;stroke-opacity:1" d="M 824.035,294.654 830.779,294.654 z" id="boundary" inkscape:connector-curvature="0" />
	<path style="fill:none;stroke:red;stroke-width:1px;stroke-linecap:butt;stroke-linejoin:miter;stroke-opacity:1" d="M 837.523,294.654 843.592,298.026 z" id="boundary" inkscape:connector-curvature="0" />
	<path style="fill:none;stroke:red;stroke-width:1px;stroke-linecap:butt;stroke-linejoin:miter;stroke-opacity:1" d="M 830.779,294.654 837.523,294.654 z" id="boundary" inkscape:connector-curvature="0" />
	<path style="fill:none;stroke:red;stroke-width:1px;stroke-linecap:butt;stroke-linejoin:miter;stroke-opacity:1" d="M 849.661,301.398 843.592,298.026 z" id="boundary" inkscape:connector-curvature="0" />
	<path style="fill:none;stroke:red;stroke-width:1px;stroke-linecap:butt;stroke-linejoin:miter;stroke-opacity:1" d="M 849.661,301.398 855.731,304.77 z" id="boundary" inkscape:connector-curvature="0" />
	<path style="fill:none;stroke:red;stroke-width:1px;stroke-linecap:butt;stroke-linejoin:miter;stroke-opacity:1" d="M 985.884,267.679 980.489,273.748 z" id="boundary" inkscape:connector-curvature="0" />
	<path style="fill:none;stroke:red;stroke-width:1px;stroke-linecap:butt;stroke-linejoin:miter;stroke-opacity:1" d="M 989.256,260.935 985.884,267.679 z" id="boundary" inkscape:connector-curvature="0" />
	<path style="fill:none;stroke:red;stroke-width:1px;stroke-linecap:butt;stroke-linejoin:miter;stroke-opacity:1" d="M 992.628,254.192 989.256,260.935 z" id="boundary" inkscape:connector-curvature="0" />
	<path style="fill:none;stroke:red;stroke-width:1px;stroke-linecap:butt;stroke-linejoin:miter;stroke-opacity:1" d="M 980.489,273.748 975.094,277.795 z" id="boundary" inkscape:connector-curvature="0" />
	<path style="fill:none;stroke:red;stroke-width:1px;stroke-linecap:butt;stroke-linejoin:miter;stroke-opacity:1" d="M 957.561,289.933 952.166,294.654 z" id="boundary" inkscape:connector-curvature="0" />
	<path style="fill:none;stroke:red;stroke-width:1px;stroke-linecap:butt;stroke-linejoin:miter;stroke-opacity:1" d="M 952.166,294.654 945.422,298.026 z" id="boundary" inkscape:connector-curvature="0" />
	<path style="fill:none;stroke:red;stroke-width:1px;stroke-linecap:butt;stroke-linejoin:miter;stroke-opacity:1" d="M 957.561,289.933 964.305,286.562 z" id="boundary" inkscape:connector-curvature="0" />
	<path style="fill:none;stroke:red;stroke-width:1px;stroke-linecap:butt;stroke-linejoin:miter;stroke-opacity:1" d="M 940.027,304.095 945.422,298.026 z" id="boundary" inkscape:connector-curvature="0" />
	<path style="fill:none;stroke:red;stroke-width:1px;stroke-linecap:butt;stroke-linejoin:miter;stroke-opacity:1" d="M 964.305,286.562 969.025,281.167 z" id="boundary" inkscape:connector-curvature="0" />
	<path style="fill:none;stroke:red;stroke-width:1px;stroke-linecap:butt;stroke-linejoin:miter;stroke-opacity:1" d="M 969.025,281.167 975.094,277.795 z" id="boundary" inkscape:connector-curvature="0" />
	<path style="fill:none;stroke:red;stroke-width:1px;stroke-linecap:butt;stroke-linejoin:miter;stroke-opacity:1" d="M 773.458,311.513 778.852,306.793 z" id="boundary" inkscape:connector-curvature="0" />
	<path style="fill:none;stroke:red;stroke-width:1px;stroke-linecap:butt;stroke-linejoin:miter;stroke-opacity:1" d="M 762.668,322.978 768.063,317.583 z" id="boundary" inkscape:connector-curvature="0" />
	<path style="fill:none;stroke:red;stroke-width:1px;stroke-linecap:butt;stroke-linejoin:miter;stroke-opacity:1" d="M 862.475,307.467 855.731,304.77 z" id="boundary" inkscape:connector-curvature="0" />
	<path style="fill:none;stroke:red;stroke-width:1px;stroke-linecap:butt;stroke-linejoin:miter;stroke-opacity:1" d="M 869.218,308.141 862.475,307.467 z" id="boundary" inkscape:connector-curvature="0" />
	<path style="fill:none;stroke:red;stroke-width:1px;stroke-linecap:butt;stroke-linejoin:miter;stroke-opacity:1" d="M 768.063,317.583 773.458,311.513 z" id="boundary" inkscape:connector-curvature="0" />
	<path style="fill:none;stroke:red;stroke-width:1px;stroke-linecap:butt;stroke-linejoin:miter;stroke-opacity:1" d="M 730.298,331.744 737.041,331.744 z" id="boundary" inkscape:connector-curvature="0" />
	<path style="fill:none;stroke:red;stroke-width:1px;stroke-linecap:butt;stroke-linejoin:miter;stroke-opacity:1" d="M 743.785,331.744 737.041,331.744 z" id="boundary" inkscape:connector-curvature="0" />
	<path style="fill:none;stroke:red;stroke-width:1px;stroke-linecap:butt;stroke-linejoin:miter;stroke-opacity:1" d="M 750.529,331.744 755.924,326.349 z" id="boundary" inkscape:connector-curvature="0" />
	<path style="fill:none;stroke:red;stroke-width:1px;stroke-linecap:butt;stroke-linejoin:miter;stroke-opacity:1" d="M 755.924,326.349 762.668,322.978 z" id="boundary" inkscape:connector-curvature="0" />
	<path style="fill:none;stroke:red;stroke-width:1px;stroke-linecap:butt;stroke-linejoin:miter;stroke-opacity:1" d="M 750.529,331.744 743.785,331.744 z" id="boundary" inkscape:connector-curvature="0" />
	<path style="fill:none;stroke:red;stroke-width:1px;stroke-linecap:butt;stroke-linejoin:miter;stroke-opacity:1" d="M 882.706,311.513 875.962,310.839 z" id="boundary" inkscape:connector-curvature="0" />
	<path style="fill:none;stroke:red;stroke-width:1px;stroke-linecap:butt;stroke-linejoin:miter;stroke-opacity:1" d="M 875.962,310.839 869.218,308.141 z" id="boundary" inkscape:connector-curvature="0" />
	<path style="fill:none;stroke:red;stroke-width:1px;stroke-linecap:butt;stroke-linejoin:miter;stroke-opacity:1" d="M 889.449,311.513 882.706,311.513 z" id="boundary" inkscape:connector-curvature="0" />
	<path style="fill:none;stroke:red;stroke-width:1px;stroke-linecap:butt;stroke-linejoin:miter;stroke-opacity:1" d="M 934.632,308.141 940.027,304.095 z" id="boundary" inkscape:connector-curvature="0" />
	<path style="fill:none;stroke:red;stroke-width:1px;stroke-linecap:butt;stroke-linejoin:miter;stroke-opacity:1" d="M 889.449,311.513 895.519,314.885 z" id="boundary" inkscape:connector-curvature="0" />
	<path style="fill:none;stroke:red;stroke-width:1px;stroke-linecap:butt;stroke-linejoin:miter;stroke-opacity:1" d="M 895.519,314.885 902.262,314.885 z" id="boundary" inkscape:connector-curvature="0" />
	<path style="fill:none;stroke:red;stroke-width:1px;stroke-linecap:butt;stroke-linejoin:miter;stroke-opacity:1" d="M 909.006,314.885 902.262,314.885 z" id="boundary" inkscape:connector-curvature="0" />
	<path style="fill:none;stroke:red;stroke-width:1px;stroke-linecap:butt;stroke-linejoin:miter;stroke-opacity:1" d="M 928.563,311.513 922.494,314.885 z" id="boundary" inkscape:connector-curvature="0" />
	<path style="fill:none;stroke:red;stroke-width:1px;stroke-linecap:butt;stroke-linejoin:miter;stroke-opacity:1" d="M 922.494,314.885 915.75,314.885 z" id="boundary" inkscape:connector-curvature="0" />
	<path style="fill:none;stroke:red;stroke-width:1px;stroke-linecap:butt;stroke-linejoin:miter;stroke-opacity:1" d="M 915.75,314.885 909.006,314.885 z" id="boundary" inkscape:connector-curvature="0" />
	<path style="fill:none;stroke:red;stroke-width:1px;stroke-linecap:butt;stroke-linejoin:miter;stroke-opacity:1" d="M 934.632,308.141 928.563,311.513 z" id="boundary" inkscape:connector-curvature="0" />
	<path style="fill:none;stroke:red;stroke-width:1px;stroke-linecap:butt;stroke-linejoin:miter;stroke-opacity:1" d="M 996,247.448 992.628,254.192 z" id="boundary" inkscape:connector-curvature="0" />
	<circle cx="4" cy="248.797" r="4" fill="#0" id="circle0"/>
	<circle cx="4" cy="255.54" r="4" fill="#0" id="circle1"/>
	<circle cx="4" cy="262.284" r="4" fill="#0" id="circle2"/>
	<circle cx="4" cy="269.028" r="4" fill="#0" id="circle3"/>
	<circle cx="7.37186" cy="215.078" r="4" fill="#0" id="circle4"/>
	<circle cx="7.37186" cy="221.822" r="4" fill="#0" id="circle5"/>
	<circle cx="7.37186" cy="228.566" r="4" fill="#0" id="circle6"/>
	<circle cx="7.37186" cy="235.309" r="4" fill="#0" id="circle7"/>
	<circle cx="7.37186" cy="242.053" r="4" fill="#0" id="circle8"/>
	<circle cx="7.37186" cy="275.097" r="4" fill="#0" id="circle9"/>
	<circle cx="7.37186" cy="281.841" r="4" fill="#0" id="circle10"/>
	<circle cx="7.37186" cy="288.585" r="4" fill="#0" id="circle11"/>
	<circle cx="10.7437" cy="191.475" r="4" fill="#0" id="circle12"/>
	<circle cx="10.7437" cy="198.219" r="4" fill="#0" id="circle13"/>
	<circle cx="10.7437" cy="204.963" r="4" fill="#0" id="circle14"/>
	<circle cx="10.7437" cy="294.654" r="4" fill="#0" id="circle15"/>
	<circle cx="10.7437" cy="301.398" r="4" fill="#0" id="circle16"/>
	<circle cx="10.7437" cy="308.141" r="4" fill="#0" id="circle17"/>
	<circle cx="10.7437" cy="314.885" r="4" fill="#0" id="circle18"/>
	<circle cx="14.1156" cy="181.36" r="4" fill="#0" id="circle19"/>
	<circle cx="14.1156" cy="320.954" r="4" fill="#0" id="circle20"/>
	<circle cx="14.1156" cy="327.698" r="4" fill="#0" id="circle21"/>
	<circle cx="15.4643" cy="334.442" r="4" fill="#0" id="circle22"/>
	<circle cx="17.4874" cy="174.616" r="4" fill="#0" id="circle23"/>
	<circle cx="18.8362" cy="340.511" r="4" fill="#0" id="circle24"/>
	<circle cx="20.8593" cy="167.872" r="4" fill="#0" id="circle25"/>
	<circle cx="21.5337" cy="347.255" r="4" fill="#0" id="circle26"/>
	<circle cx="24.2311" cy="161.128" r="4" fill="#0" id="circle27"/>
	<circle cx="24.9055" cy="353.324" r="4" fill="#0" id="circle28"/>
	<circle cx="27.603" cy="154.385" r="4" fill="#0" id="circle29"/>
	<circle cx="27.603" cy="360.068" r="4" fill="#0" id="circle30"/>
	<circle cx="30.9748" cy="147.641" r="4" fill="#0" id="circle31"/>
	<circle cx="30.9748" cy="366.137" r="4" fill="#0" id="circle32"/>
	<circle cx="34.3467" cy="372.207" r="4" fill="#0" id="circle33"/>
	<circle cx="36.3698" cy="142.246" r="4" fill="#0" id="circle34"/>
	<circle cx="36.3698" cy="378.95" r="4" fill="#0" id="circle35"/>
	<circle cx="39.7417" cy="385.02" r="4" fill="#0" id="circle36"/>
	<circle cx="41.7648" cy="136.851" r="4" fill="#0" id="circle37"/>
	<circle cx="42.4392" cy="391.763" r="4" fill="#0" id="circle38"/>
	<circle cx="47.1598" cy="132.131" r="4" fill="#0" id="circle39"/>
	<circle cx="47.8341" cy="395.81" r="4" fill="#0" id="circle40"/>
	<circle cx="51.8804" cy="126.736" r="4" fill="#0" id="circle41"/>
	<circle cx="51.8804" cy="401.205" r="4" fill="#0" id="circle42"/>
	<circle cx="57.2753" cy="122.015" r="4" fill="#0" id="circle43"/>
	<circle cx="57.2753" cy="405.925" r="4" fill="#0" id="circle44"/>
	<circle cx="61.9959" cy="116.62" r="4" fill="#0" id="circle45"/>
	<circle cx="61.9959" cy="411.32" r="4" fill="#0" id="circle46"/>
	<circle cx="67.3909" cy="111.899" r="4" fill="#0" id="circle47"/>
	<circle cx="68.7396" cy="414.018" r="4" fill="#0" id="circle48"/>
	<circle cx="72.1115" cy="106.504" r="4" fill="#0" id="circle49"/>
	<circle cx="73.4602" cy="419.413" r="4" fill="#0" id="circle50"/>
	<circle cx="77.5065" cy="101.784" r="4" fill="#0" id="circle51"/>
	<circle cx="78.8552" cy="424.133" r="4" fill="#0" id="circle52"/>
	<circle cx="82.2271" cy="96.3889" r="4" fill="#0" id="circle53"/>
	<circle cx="83.5758" cy="429.528" r="4" fill="#0" id="circle54"/>
	<circle cx="87.622" cy="91.6683" r="4" fill="#0" id="circle55"/>
	<circle cx="89.6451" cy="432.9" r="4" fill="#0" id="circle56"/>
	<circle cx="92.3426" cy="86.2733" r="4" fill="#0" id="circle57"/>
	<circle cx="95.0401" cy="436.946" r="4" fill="#0" id="circle58"/>
	<circle cx="99.0863" cy="82.9014" r="4" fill="#0" id="circle59"/>
	<circle cx="99.7607" cy="442.341" r="4" fill="#0" id="circle60"/>
	<circle cx="104.481" cy="78.1808" r="4" fill="#0" id="circle61"/>
	<circle cx="105.156" cy="446.387" r="4" fill="#0" id="circle62"/>
	<circle cx="109.202" cy="72.7859" r="4" fill="#0" id="circle63"/>
	<circle cx="111.225" cy="449.759" r="4" fill="#0" id="circle64"/>
	<circle cx="115.946" cy="69.414" r="4" fill="#0" id="circle65"/>
	<circle cx="117.294" cy="453.131" r="4" fill="#0" id="circle66"/>
	<circle cx="121.341" cy="64.6934" r="4" fill="#0" id="circle67"/>
	<circle cx="123.364" cy="456.503" r="4" fill="#0" id="circle68"/>
	<circle cx="127.41" cy="61.3215" r="4" fill="#0" id="circle69"/>
	<circle cx="129.433" cy="459.875" r="4" fill="#0" id="circle70"/>
	<circle cx="132.805" cy="55.9266" r="4" fill="#0" id="circle71"/>
	<circle cx="135.502" cy="463.247" r="4" fill="#0" id="circle72"/>
	<circle cx="139.549" cy="52.5547" r="4" fill="#0" id="circle73"/>
	<circle cx="141.572" cy="466.619" r="4" fill="#0" id="circle74"/>
	<circle cx="144.944" cy="47.8341" r="4" fill="#0" id="circle75"/>
	<circle cx="148.315" cy="466.619" r="4" fill="#0" id="circle76"/>
	<circle cx="151.013" cy="44.4623" r="4" fill="#0" id="circle77"/>
	<circle cx="154.385" cy="469.99" r="4" fill="#0" id="circle78"/>
	<circle cx="157.082" cy="41.0904" r="4" fill="#0" id="circle79"/>
	<circle cx="160.454" cy="473.362" r="4" fill="#0" id="circle80"/>
	<circle cx="162.477" cy="36.3698" r="4" fill="#0" id="circle81"/>
	<circle cx="167.198" cy="473.362" r="4" fill="#0" id="circle82"/>
	<circle cx="169.221" cy="32.998" r="4" fill="#0" id="circle83"/>
	<circle cx="173.942" cy="473.362" r="4" fill="#0" id="circle84"/>
	<circle cx="174.616" cy="27.603" r="4" fill="#0" id="circle85"/>
	<circle cx="180.685" cy="473.362" r="4" fill="#0" id="circle86"/>
	<circle cx="181.36" cy="24.2311" r="4" fill="#0" id="circle87"/>
	<circle cx="187.429" cy="473.362" r="4" fill="#0" id="circle88"/>
	<circle cx="188.103" cy="20.8593" r="4" fill="#0" id="circle89"/>
	<circle cx="194.173" cy="473.362" r="4" fill="#0" id="circle90"/>
	<circle cx="194.847" cy="17.4874" r="4" fill="#0" id="circle91"/>
	<circle cx="200.916" cy="473.362" r="4" fill="#0" id="circle92"/>
	<circle cx="201.591" cy="14.1156" r="4" fill="#0" id="circle93"/>
	<circle cx="207.66" cy="473.362" r="4" fill="#0" id="circle94"/>
	<circle cx="208.334" cy="10.7437" r="4" fill="#0" id="circle95"/>
	<circle cx="214.404" cy="473.362" r="4" fill="#0" id="circle96"/>
	<circle cx="215.078" cy="7.37186" r="4" fill="#0" id="circle97"/>
	<circle cx="221.148" cy="473.362" r="4" fill="#0" id="circle98"/>
	<circle cx="221.822" cy="7.37186" r="4" fill="#0" id="circle99"/>
	<circle cx="227.891" cy="473.362" r="4" fill="#0" id="circle100"/>
	<circle cx="228.566" cy="7.37186" r="4" fill="#0" id="circle101"/>
	<circle cx="234.635" cy="473.362" r="4" fill="#0" id="circle102"/>
	<circle cx="235.309" cy="7.37186" r="4" fill="#0" id="circle103"/>
	<circle cx="241.379" cy="473.362" r="4" fill="#0" id="circle104"/>
	<circle cx="242.053" cy="7.37186" r="4" fill="#0" id="circle105"/>
	<circle cx="248.122" cy="473.362" r="4" fill="#0" id="circle106"/>
	<circle cx="248.797" cy="7.37186" r="4" fill="#0" id="circle107"/>
	<circle cx="254.866" cy="473.362" r="4" fill="#0" id="circle108"/>
	<circle cx="255.54" cy="7.37186" r="4" fill="#0" id="circle109"/>
	<circle cx="261.61" cy="473.362" r="4" fill="#0" id="circle110"/>
	<circle cx="262.284" cy="7.37186" r="4" fill="#0" id="circle111"/>
	<circle cx="268.354" cy="473.362" r="4" fill="#0" id="circle112"/>
	<circle cx="269.028" cy="7.37186" r="4" fill="#0" id="circle113"/>
	<circle cx="275.097" cy="473.362" r="4" fill="#0" id="circle114"/>
	<circle cx="275.772" cy="7.37186" r="4" fill="#0" id="circle115"/>
	<circle cx="281.841" cy="473.362" r="4" fill="#0" id="circle116"/>
	<circle cx="282.515" cy="7.37186" r="4" fill="#0" id="circle117"/>
	<circle cx="288.585" cy="473.362" r="4" fill="#0" id="circle118"/>
	<circle cx="289.259" cy="7.37186" r="4" fill="#0" id="circle119"/>
	<circle cx="295.328" cy="473.362" r="4" fill="#0" id="circle120"/>
	<circle cx="296.003" cy="4" r="4" fill="#0" id="circle121"/>
	<circle cx="302.072" cy="473.362" r="4" fill="#0" id="circle122"/>
	<circle cx="302.746" cy="4" r="4" fill="#0" id="circle123"/>
	<circle cx="308.816" cy="473.362" r="4" fill="#0" id="circle124"/>
	<circle cx="309.49" cy="4" r="4" fill="#0" id="circle125"/>
	<circle cx="315.559" cy="473.362" r="4" fill="#0" id="circle126"/>
	<circle cx="316.234" cy="4" r="4" fill="#0" id="circle127"/>
	<circle cx="322.303" cy="473.362" r="4" fill="#0" id="circle128"/>
	<circle cx="322.978" cy="4" r="4" fill="#0" id="circle129"/>
	<circle cx="329.047" cy="7.37186" r="4" fill="#0" id="circle130"/>
	<circle cx="329.047" cy="473.362" r="4" fill="#0" id="circle131"/>
	<circle cx="335.791" cy="7.37186" r="4" fill="#0" id="circle132"/>
	<circle cx="335.791" cy="473.362" r="4" fill="#0" id="circle133"/>
	<circle cx="341.86" cy="10.7437" r="4" fill="#0" id="circle134"/>
	<circle cx="342.534" cy="473.362" r="4" fill="#0" id="circle135"/>
	<circle cx="348.604" cy="10.7437" r="4" fill="#0" id="circle136"/>
	<circle cx="349.278" cy="473.362" r="4" fill="#0" id="circle137"/>
	<circle cx="354.673" cy="14.1156" r="4" fill="#0" id="circle138"/>
	<circle cx="356.022" cy="473.362" r="4" fill="#0" id="circle139"/>
	<circle cx="361.417" cy="15.4643" r="4" fill="#0" id="circle140"/>
	<circle cx="362.765" cy="473.362" r="4" fill="#0" id="circle141"/>
	<circle cx="368.16" cy="17.4874" r="4" fill="#0" id="circle142"/>
	<circle cx="369.509" cy="473.362" r="4" fill="#0" id="circle143"/>
	<circle cx="374.23" cy="20.8593" r="4" fill="#0" id="circle144"/>
	<circle cx="376.253" cy="473.362" r="4" fill="#0" id="circle145"/>
	<circle cx="380.973" cy="21.5337" r="4" fill="#0" id="circle146"/>
	<circle cx="382.322" cy="469.99" r="4" fill="#0" id="circle147"/>
	<circle cx="387.717" cy="24.2311" r="4" fill="#0" id="circle148"/>
	<circle cx="389.066" cy="469.99" r="4" fill="#0" id="circle149"/>
	<circle cx="394.461" cy="24.9055" r="4" fill="#0" id="circle150"/>
	<circle cx="395.81" cy="466.619" r="4" fill="#0" id="circle151"/>
	<circle cx="401.205" cy="27.603" r="4" fill="#0" id="circle152"/>
	<circle cx="402.553" cy="466.619" r="4" fill="#0" id="circle153"/>
	<circle cx="407.274" cy="30.9748" r="4" fill="#0" id="circle154"/>
	<circle cx="407.948" cy="461.898" r="4" fill="#0" id="circle155"/>
	<circle cx="412.669" cy="456.503" r="4" fill="#0" id="circle156"/>
	<circle cx="413.343" cy="34.3467" r="4" fill="#0" id="circle157"/>
	<circle cx="418.064" cy="451.782" r="4" fill="#0" id="circle158"/>
	<circle cx="418.738" cy="39.0673" r="4" fill="#0" id="circle159"/>
	<circle cx="421.436" cy="445.039" r="4" fill="#0" id="circle160"/>
	<circle cx="422.785" cy="44.4623" r="4" fill="#0" id="circle161"/>
	<circle cx="424.808" cy="438.295" r="4" fill="#0" id="circle162"/>
	<circle cx="426.156" cy="50.5316" r="4" fill="#0" id="circle163"/>
	<circle cx="428.179" cy="431.551" r="4" fill="#0" id="circle164"/>
	<circle cx="431.551" cy="55.2522" r="4" fill="#0" id="circle165"/>
	<circle cx="431.551" cy="424.808" r="4" fill="#0" id="circle166"/>
	<circle cx="434.923" cy="418.064" r="4" fill="#0" id="circle167"/>
	<circle cx="436.272" cy="60.6472" r="4" fill="#0" id="circle168"/>
	<circle cx="439.644" cy="409.297" r="4" fill="#0" id="circle169"/>
	<circle cx="441.667" cy="65.3678" r="4" fill="#0" id="circle170"/>
	<circle cx="443.016" cy="402.553" r="4" fill="#0" id="circle171"/>
	<circle cx="444.364" cy="72.1115" r="4" fill="#0" id="circle172"/>
	<circle cx="446.387" cy="395.81" r="4" fill="#0" id="circle173"/>
	<circle cx="447.736" cy="78.1808" r="4" fill="#0" id="circle174"/>
	<circle cx="449.759" cy="84.9245" r="4" fill="#0" id="circle175"/>
	<circle cx="451.782" cy="391.089" r="4" fill="#0" id="circle176"/>
	<circle cx="453.131" cy="90.9939" r="4" fill="#0" id="circle177"/>
	<circle cx="453.131" cy="97.7376" r="4" fill="#0" id="circle178"/>
	<circle cx="455.154" cy="384.345" r="4" fill="#0" id="circle179"/>
	<circle cx="456.503" cy="103.807" r="4" fill="#0" id="circle180"/>
	<circle cx="459.201" cy="110.551" r="4" fill="#0" id="circle181"/>
	<circle cx="459.875" cy="375.579" r="4" fill="#0" id="circle182"/>
	<circle cx="462.572" cy="116.62" r="4" fill="#0" id="circle183"/>
	<circle cx="465.27" cy="123.364" r="4" fill="#0" id="circle184"/>
	<circle cx="465.27" cy="370.858" r="4" fill="#0" id="circle185"/>
	<circle cx="468.642" cy="364.114" r="4" fill="#0" id="circle186"/>
	<circle cx="469.99" cy="128.759" r="4" fill="#0" id="circle187"/>
	<circle cx="473.362" cy="358.719" r="4" fill="#0" id="circle188"/>
	<circle cx="475.385" cy="132.805" r="4" fill="#0" id="circle189"/>
	<circle cx="480.106" cy="355.347" r="4" fill="#0" id="circle190"/>
	<circle cx="481.455" cy="136.177" r="4" fill="#0" id="circle191"/>
	<circle cx="486.85" cy="355.347" r="4" fill="#0" id="circle192"/>
	<circle cx="488.199" cy="138.874" r="4" fill="#0" id="circle193"/>
	<circle cx="493.593" cy="351.976" r="4" fill="#0" id="circle194"/>
	<circle cx="494.942" cy="138.874" r="4" fill="#0" id="circle195"/>
	<circle cx="500.337" cy="351.976" r="4" fill="#0" id="circle196"/>
	<circle cx="501.686" cy="138.874" r="4" fill="#0" id="circle197"/>
	<circle cx="507.081" cy="348.604" r="4" fill="#0" id="circle198"/>
	<circle cx="508.43" cy="138.874" r="4" fill="#0" id="circle199"/>
	<circle cx="513.825" cy="348.604" r="4" fill="#0" id="circle200"/>
	<circle cx="515.173" cy="138.874" r="4" fill="#0" id="circle201"/>
	<circle cx="520.568" cy="348.604" r="4" fill="#0" id="circle202"/>
	<circle cx="521.917" cy="138.874" r="4" fill="#0" id="circle203"/>
	<circle cx="527.312" cy="348.604" r="4" fill="#0" id="circle204"/>
	<circle cx="528.661" cy="138.874" r="4" fill="#0" id="circle205"/>
	<circle cx="534.056" cy="348.604" r="4" fill="#0" id="circle206"/>
	<circle cx="535.404" cy="138.874" r="4" fill="#0" id="circle207"/>
	<circle cx="540.799" cy="348.604" r="4" fill="#0" id="circle208"/>
	<circle cx="542.148" cy="138.874" r="4" fill="#0" id="circle209"/>
	<circle cx="547.543" cy="348.604" r="4" fill="#0" id="circle210"/>
	<circle cx="548.892" cy="138.874" r="4" fill="#0" id="circle211"/>
	<circle cx="554.287" cy="348.604" r="4" fill="#0" id="circle212"/>
	<circle cx="555.636" cy="138.874" r="4" fill="#0" id="circle213"/>
	<circle cx="561.031" cy="348.604" r="4" fill="#0" id="circle214"/>
	<circle cx="562.379" cy="138.874" r="4" fill="#0" id="circle215"/>
	<circle cx="567.774" cy="348.604" r="4" fill="#0" id="circle216"/>
	<circle cx="568.449" cy="142.246" r="4" fill="#0" id="circle217"/>
	<circle cx="574.518" cy="348.604" r="4" fill="#0" id="circle218"/>
	<circle cx="575.192" cy="142.246" r="4" fill="#0" id="circle219"/>
	<circle cx="581.262" cy="145.618" r="4" fill="#0" id="circle220"/>
	<circle cx="581.262" cy="345.232" r="4" fill="#0" id="circle221"/>
	<circle cx="586.657" cy="340.511" r="4" fill="#0" id="circle222"/>
	<circle cx="588.005" cy="147.641" r="4" fill="#0" id="circle223"/>
	<circle cx="590.029" cy="333.768" r="4" fill="#0" id="circle224"/>
	<circle cx="593.4" cy="327.024" r="4" fill="#0" id="circle225"/>
	<circle cx="594.075" cy="151.013" r="4" fill="#0" id="circle226"/>
	<circle cx="598.121" cy="321.629" r="4" fill="#0" id="circle227"/>
	<circle cx="600.818" cy="153.71" r="4" fill="#0" id="circle228"/>
	<circle cx="604.19" cy="318.257" r="4" fill="#0" id="circle229"/>
	<circle cx="606.888" cy="157.082" r="4" fill="#0" id="circle230"/>
	<circle cx="609.585" cy="314.211" r="4" fill="#0" id="circle231"/>
	<circle cx="613.632" cy="159.78" r="4" fill="#0" id="circle232"/>
	<circle cx="614.98" cy="308.141" r="4" fill="#0" id="circle233"/>
	<circle cx="618.352" cy="165.175" r="4" fill="#0" id="circle234"/>
	<circle cx="621.724" cy="304.77" r="4" fill="#0" id="circle235"/>
	<circle cx="625.096" cy="167.872" r="4" fill="#0" id="circle236"/>
	<circle cx="628.468" cy="301.398" r="4" fill="#0" id="circle237"/>
	<circle cx="631.165" cy="171.244" r="4" fill="#0" id="circle238"/>
	<circle cx="635.211" cy="301.398" r="4" fill="#0" id="circle239"/>
	<circle cx="637.909" cy="173.942" r="4" fill="#0" id="circle240"/>
	<circle cx="641.955" cy="179.337" r="4" fill="#0" id="circle241"/>
	<circle cx="641.955" cy="301.398" r="4" fill="#0" id="circle242"/>
	<circle cx="648.699" cy="181.36" r="4" fill="#0" id="circle243"/>
	<circle cx="648.699" cy="301.398" r="4" fill="#0" id="circle244"/>
	<circle cx="654.768" cy="184.731" r="4" fill="#0" id="circle245"/>
	<circle cx="655.443" cy="301.398" r="4" fill="#0" id="circle246"/>
	<circle cx="661.512" cy="186.08" r="4" fill="#0" id="circle247"/>
	<circle cx="662.186" cy="302.746" r="4" fill="#0" id="circle248"/>
	<circle cx="668.256" cy="186.08" r="4" fill="#0" id="circle249"/>
	<circle cx="668.93" cy="304.77" r="4" fill="#0" id="circle250"/>
	<circle cx="674.999" cy="184.731" r="4" fill="#0" id="circle251"/>
	<circle cx="674.999" cy="308.141" r="4" fill="#0" id="circle252"/>
	<circle cx="681.743" cy="181.36" r="4" fill="#0" id="circle253"/>
	<circle cx="681.743" cy="308.141" r="4" fill="#0" id="circle254"/>
	<circle cx="687.812" cy="311.513" r="4" fill="#0" id="circle255"/>
	<circle cx="688.487" cy="177.988" r="4" fill="#0" id="circle256"/>
	<circle cx="693.882" cy="172.593" r="4" fill="#0" id="circle257"/>
	<circle cx="693.882" cy="314.885" r="4" fill="#0" id="circle258"/>
	<circle cx="699.951" cy="318.257" r="4" fill="#0" id="circle259"/>
	<circle cx="700.625" cy="169.221" r="4" fill="#0" id="circle260"/>
	<circle cx="705.346" cy="322.303" r="4" fill="#0" id="circle261"/>
	<circle cx="706.695" cy="165.849" r="4" fill="#0" id="circle262"/>
	<circle cx="710.067" cy="327.698" r="4" fill="#0" id="circle263"/>
	<circle cx="713.438" cy="163.152" r="4" fill="#0" id="circle264"/>
	<circle cx="716.81" cy="330.396" r="4" fill="#0" id="circle265"/>
	<circle cx="720.182" cy="162.477" r="4" fill="#0" id="circle266"/>
	<circle cx="723.554" cy="331.744" r="4" fill="#0" id="circle267"/>
	<circle cx="726.926" cy="162.477" r="4" fill="#0" id="circle268"/>
	<circle cx="730.298" cy="331.744" r="4" fill="#0" id="circle269"/>
	<circle cx="733.67" cy="162.477" r="4" fill="#0" id="circle270"/>
	<circle cx="737.041" cy="331.744" r="4" fill="#0" id="circle271"/>
	<circle cx="740.413" cy="162.477" r="4" fill="#0" id="circle272"/>
	<circle cx="743.785" cy="331.744" r="4" fill="#0" id="circle273"/>
	<circle cx="747.157" cy="162.477" r="4" fill="#0" id="circle274"/>
	<circle cx="750.529" cy="331.744" r="4" fill="#0" id="circle275"/>
	<circle cx="753.226" cy="165.849" r="4" fill="#0" id="circle276"/>
	<circle cx="755.924" cy="326.349" r="4" fill="#0" id="circle277"/>
	<circle cx="759.97" cy="165.849" r="4" fill="#0" id="circle278"/>
	<circle cx="762.668" cy="322.978" r="4" fill="#0" id="circle279"/>
	<circle cx="766.714" cy="165.849" r="4" fill="#0" id="circle280"/>
	<circle cx="768.063" cy="317.583" r="4" fill="#0" id="circle281"/>
	<circle cx="773.458" cy="165.849" r="4" fill="#0" id="circle282"/>
	<circle cx="773.458" cy="311.513" r="4" fill="#0" id="circle283"/>
	<circle cx="778.852" cy="306.793" r="4" fill="#0" id="circle284"/>
	<circle cx="779.527" cy="169.221" r="4" fill="#0" id="circle285"/>
	<circle cx="784.922" cy="173.267" r="4" fill="#0" id="circle286"/>
	<circle cx="785.596" cy="303.421" r="4" fill="#0" id="circle287"/>
	<circle cx="788.294" cy="179.337" r="4" fill="#0" id="circle288"/>
	<circle cx="790.317" cy="298.026" r="4" fill="#0" id="circle289"/>
	<circle cx="793.014" cy="184.731" r="4" fill="#0" id="circle290"/>
	<circle cx="797.061" cy="294.654" r="4" fill="#0" id="circle291"/>
	<circle cx="798.409" cy="189.452" r="4" fill="#0" id="circle292"/>
	<circle cx="803.804" cy="294.654" r="4" fill="#0" id="circle293"/>
	<circle cx="804.479" cy="192.824" r="4" fill="#0" id="circle294"/>
	<circle cx="809.874" cy="197.545" r="4" fill="#0" id="circle295"/>
	<circle cx="810.548" cy="294.654" r="4" fill="#0" id="circle296"/>
	<circle cx="815.943" cy="200.916" r="4" fill="#0" id="circle297"/>
	<circle cx="817.292" cy="294.654" r="4" fill="#0" id="circle298"/>
	<circle cx="822.687" cy="203.614" r="4" fill="#0" id="circle299"/>
	<circle cx="824.035" cy="294.654" r="4" fill="#0" id="circle300"/>
	<circle cx="828.756" cy="206.986" r="4" fill="#0" id="circle301"/>
	<circle cx="830.779" cy="294.654" r="4" fill="#0" id="circle302"/>
	<circle cx="835.5" cy="209.683" r="4" fill="#0" id="circle303"/>
	<circle cx="837.523" cy="294.654" r="4" fill="#0" id="circle304"/>
	<circle cx="842.243" cy="209.683" r="4" fill="#0" id="circle305"/>
	<circle cx="843.592" cy="298.026" r="4" fill="#0" id="circle306"/>
	<circle cx="848.987" cy="209.683" r="4" fill="#0" id="circle307"/>
	<circle cx="849.661" cy="301.398" r="4" fill="#0" id="circle308"/>
	<circle cx="855.056" cy="206.311" r="4" fill="#0" id="circle309"/>
	<circle cx="855.731" cy="304.77" r="4" fill="#0" id="circle310"/>
	<circle cx="860.451" cy="201.591" r="4" fill="#0" id="circle311"/>
	<circle cx="862.475" cy="307.467" r="4" fill="#0" id="circle312"/>
	<circle cx="867.195" cy="199.568" r="4" fill="#0" id="circle313"/>
	<circle cx="869.218" cy="308.141" r="4" fill="#0" id="circle314"/>
	<circle cx="873.264" cy="196.196" r="4" fill="#0" id="circle315"/>
	<circle cx="875.962" cy="310.839" r="4" fill="#0" id="circle316"/>
	<circle cx="879.334" cy="192.824" r="4" fill="#0" id="circle317"/>
	<circle cx="882.706" cy="311.513" r="4" fill="#0" id="circle318"/>
	<circle cx="886.077" cy="192.824" r="4" fill="#0" id="circle319"/>
	<circle cx="889.449" cy="311.513" r="4" fill="#0" id="circle320"/>
	<circle cx="892.147" cy="189.452" r="4" fill="#0" id="circle321"/>
	<circle cx="895.519" cy="314.885" r="4" fill="#0" id="circle322"/>
	<circle cx="898.216" cy="186.08" r="4" fill="#0" id="circle323"/>
	<circle cx="902.262" cy="314.885" r="4" fill="#0" id="circle324"/>
	<circle cx="904.96" cy="186.08" r="4" fill="#0" id="circle325"/>
	<circle cx="909.006" cy="314.885" r="4" fill="#0" id="circle326"/>
	<circle cx="911.704" cy="186.08" r="4" fill="#0" id="circle327"/>
	<circle cx="915.75" cy="314.885" r="4" fill="#0" id="circle328"/>
	<circle cx="918.447" cy="186.08" r="4" fill="#0" id="circle329"/>
	<circle cx="922.494" cy="314.885" r="4" fill="#0" id="circle330"/>
	<circle cx="925.191" cy="186.08" r="4" fill="#0" id="circle331"/>
	<circle cx="928.563" cy="311.513" r="4" fill="#0" id="circle332"/>
	<circle cx="931.935" cy="188.103" r="4" fill="#0" id="circle333"/>
	<circle cx="934.632" cy="308.141" r="4" fill="#0" id="circle334"/>
	<circle cx="938.678" cy="189.452" r="4" fill="#0" id="circle335"/>
	<circle cx="940.027" cy="304.095" r="4" fill="#0" id="circle336"/>
	<circle cx="944.748" cy="192.824" r="4" fill="#0" id="circle337"/>
	<circle cx="945.422" cy="298.026" r="4" fill="#0" id="circle338"/>
	<circle cx="950.143" cy="196.87" r="4" fill="#0" id="circle339"/>
	<circle cx="952.166" cy="294.654" r="4" fill="#0" id="circle340"/>
	<circle cx="955.538" cy="201.591" r="4" fill="#0" id="circle341"/>
	<circle cx="957.561" cy="289.933" r="4" fill="#0" id="circle342"/>
	<circle cx="960.258" cy="206.986" r="4" fill="#0" id="circle343"/>
	<circle cx="964.305" cy="286.562" r="4" fill="#0" id="circle344"/>
	<circle cx="967.002" cy="209.683" r="4" fill="#0" id="circle345"/>
	<circle cx="969.025" cy="281.167" r="4" fill="#0" id="circle346"/>
	<circle cx="971.723" cy="215.078" r="4" fill="#0" id="circle347"/>
	<circle cx="975.094" cy="277.795" r="4" fill="#0" id="circle348"/>
	<circle cx="977.118" cy="219.799" r="4" fill="#0" id="circle349"/>
	<circle cx="980.489" cy="273.748" r="4" fill="#0" id="circle350"/>
	<circle cx="981.838" cy="225.194" r="4" fill="#0" id="circle351"/>
	<circle cx="985.884" cy="267.679" r="4" fill="#0" id="circle352"/>
	<circle cx="988.582" cy="227.891" r="4" fill="#0" id="circle353"/>
	<circle cx="989.256" cy="260.935" r="4" fill="#0" id="circle354"/>
	<circle cx="992.628" cy="233.286" r="4" fill="#0" id="circle355"/>
	<circle cx="992.628" cy="254.192" r="4" fill="#0" id="circle356"/>
	<circle cx="996" cy="239.356" r="4" fill="#0" id="circle357"/>
	<circle cx="996" cy="247.448" r="4" fill="#0" id="circle358"/>
	</g>
</svg>