<?xml version="1.0" encoding="UTF-8" standalone="no"?>
<!-- Created with CurveBenchmark -->
<svg
	xmlns:dc="http://purl.org/dc/elements/1.1/"
	xmlns:cc="http://creativecommons.org/ns#"
	xmlns:rdf="http://www.w3.org/1999/02/22-rdf-syntax-ns#"
	xmlns:svg="http://www.w3.org/2000/svg"
	xmlns="http://www.w3.org/2000/svg"
	xmlns:sodipodi="http://sodipodi.sourceforge.net/DTD/sodipodi-0.dtd"
	xmlns:inkscape="http://www.inkscape.org/namespaces/inkscape"
	width="1000"
	height="1000"
	id="svg2"
	version="1.1"
	sodipodi:docname="manifold/ccrust-textbox53.png.txt">
<defs
	id="defs4" />
<metadata
	id="metadata7">
	<rdf:RDF>
		<cc:Work
			rdf:about="">
			<dc:format>image/svg+xml</dc:format>
			<dc:type
				rdf:resource="http://purl.org/dc/dcmitype/StillImage" />
			<dc:title></dc:title>
		</cc:Work>
	</rdf:RDF>
</metadata>
<g
	inkscape:label="Layer 1"
	inkscape:groupmode="layer"
	id="layer1">
	<path style="fill:none;stroke:red;stroke-width:1px;stroke-linecap:butt;stroke-linejoin:miter;stroke-opacity:1" d="M 88.0678,243.126 88.0678,224.444 z" id="boundary" inkscape:connector-curvature="0" />
	<path style="fill:none;stroke:red;stroke-width:1px;stroke-linecap:butt;stroke-linejoin:miter;stroke-opacity:1" d="M 88.0678,224.444 106.75,215.104 z" id="boundary" inkscape:connector-curvature="0" />
	<path style="fill:none;stroke:red;stroke-width:1px;stroke-linecap:butt;stroke-linejoin:miter;stroke-opacity:1" d="M 116.09,149.718 106.75,177.74 z" id="boundary" inkscape:connector-curvature="0" />
	<path style="fill:none;stroke:red;stroke-width:1px;stroke-linecap:butt;stroke-linejoin:miter;stroke-opacity:1" d="M 88.0678,243.126 88.0678,261.808 z" id="boundary" inkscape:connector-curvature="0" />
	<path style="fill:none;stroke:red;stroke-width:1px;stroke-linecap:butt;stroke-linejoin:miter;stroke-opacity:1" d="M 106.75,177.74 106.75,196.422 z" id="boundary" inkscape:connector-curvature="0" />
	<path style="fill:none;stroke:red;stroke-width:1px;stroke-linecap:butt;stroke-linejoin:miter;stroke-opacity:1" d="M 76.8588,284.226 60.0452,293.567 z" id="boundary" inkscape:connector-curvature="0" />
	<path style="fill:none;stroke:red;stroke-width:1px;stroke-linecap:butt;stroke-linejoin:miter;stroke-opacity:1" d="M 88.0678,261.808 76.8588,284.226 z" id="boundary" inkscape:connector-curvature="0" />
	<path style="fill:none;stroke:red;stroke-width:1px;stroke-linecap:butt;stroke-linejoin:miter;stroke-opacity:1" d="M 125.431,131.036 144.113,112.354 z" id="boundary" inkscape:connector-curvature="0" />
	<path style="fill:none;stroke:red;stroke-width:1px;stroke-linecap:butt;stroke-linejoin:miter;stroke-opacity:1" d="M 116.09,149.718 125.431,131.036 z" id="boundary" inkscape:connector-curvature="0" />
	<path style="fill:none;stroke:red;stroke-width:1px;stroke-linecap:butt;stroke-linejoin:miter;stroke-opacity:1" d="M 106.75,215.104 106.75,196.422 z" id="boundary" inkscape:connector-curvature="0" />
	<path style="fill:none;stroke:red;stroke-width:1px;stroke-linecap:butt;stroke-linejoin:miter;stroke-opacity:1" d="M 4,401.921 4,383.239 z" id="boundary" inkscape:connector-curvature="0" />
	<path style="fill:none;stroke:red;stroke-width:1px;stroke-linecap:butt;stroke-linejoin:miter;stroke-opacity:1" d="M 4,383.239 22.6817,364.557 z" id="boundary" inkscape:connector-curvature="0" />
	<path style="fill:none;stroke:red;stroke-width:1px;stroke-linecap:butt;stroke-linejoin:miter;stroke-opacity:1" d="M 32.0226,317.853 22.6817,345.876 z" id="boundary" inkscape:connector-curvature="0" />
	<path style="fill:none;stroke:red;stroke-width:1px;stroke-linecap:butt;stroke-linejoin:miter;stroke-opacity:1" d="M 15.209,435.548 4,420.603 z" id="boundary" inkscape:connector-curvature="0" />
	<path style="fill:none;stroke:red;stroke-width:1px;stroke-linecap:butt;stroke-linejoin:miter;stroke-opacity:1" d="M 4,420.603 4,401.921 z" id="boundary" inkscape:connector-curvature="0" />
	<path style="fill:none;stroke:red;stroke-width:1px;stroke-linecap:butt;stroke-linejoin:miter;stroke-opacity:1" d="M 15.209,435.548 22.6817,454.23 z" id="boundary" inkscape:connector-curvature="0" />
	<path style="fill:none;stroke:red;stroke-width:1px;stroke-linecap:butt;stroke-linejoin:miter;stroke-opacity:1" d="M 22.6817,345.876 22.6817,364.557 z" id="boundary" inkscape:connector-curvature="0" />
	<path style="fill:none;stroke:red;stroke-width:1px;stroke-linecap:butt;stroke-linejoin:miter;stroke-opacity:1" d="M 41.3635,299.171 60.0452,293.567 z" id="boundary" inkscape:connector-curvature="0" />
	<path style="fill:none;stroke:red;stroke-width:1px;stroke-linecap:butt;stroke-linejoin:miter;stroke-opacity:1" d="M 32.0226,317.853 41.3635,299.171 z" id="boundary" inkscape:connector-curvature="0" />
	<path style="fill:none;stroke:red;stroke-width:1px;stroke-linecap:butt;stroke-linejoin:miter;stroke-opacity:1" d="M 32.0226,471.043 22.6817,454.23 z" id="boundary" inkscape:connector-curvature="0" />
	<path style="fill:none;stroke:red;stroke-width:1px;stroke-linecap:butt;stroke-linejoin:miter;stroke-opacity:1" d="M 144.113,112.354 162.795,103.013 z" id="boundary" inkscape:connector-curvature="0" />
	<path style="fill:none;stroke:red;stroke-width:1px;stroke-linecap:butt;stroke-linejoin:miter;stroke-opacity:1" d="M 386.976,41.3635 403.789,32.0226 z" id="boundary" inkscape:connector-curvature="0" />
	<path style="fill:none;stroke:red;stroke-width:1px;stroke-linecap:butt;stroke-linejoin:miter;stroke-opacity:1" d="M 403.789,32.0226 422.471,32.0226 z" id="boundary" inkscape:connector-curvature="0" />
	<path style="fill:none;stroke:red;stroke-width:1px;stroke-linecap:butt;stroke-linejoin:miter;stroke-opacity:1" d="M 386.976,41.3635 368.294,46.968 z" id="boundary" inkscape:connector-curvature="0" />
	<path style="fill:none;stroke:red;stroke-width:1px;stroke-linecap:butt;stroke-linejoin:miter;stroke-opacity:1" d="M 233.785,69.3861 215.104,69.3861 z" id="boundary" inkscape:connector-curvature="0" />
	<path style="fill:none;stroke:red;stroke-width:1px;stroke-linecap:butt;stroke-linejoin:miter;stroke-opacity:1" d="M 349.612,74.9906 349.612,56.3089 z" id="boundary" inkscape:connector-curvature="0" />
	<path style="fill:none;stroke:red;stroke-width:1px;stroke-linecap:butt;stroke-linejoin:miter;stroke-opacity:1" d="M 349.612,56.3089 368.294,46.968 z" id="boundary" inkscape:connector-curvature="0" />
	<path style="fill:none;stroke:red;stroke-width:1px;stroke-linecap:butt;stroke-linejoin:miter;stroke-opacity:1" d="M 422.471,32.0226 441.153,32.0226 z" id="boundary" inkscape:connector-curvature="0" />
	<path style="fill:none;stroke:red;stroke-width:1px;stroke-linecap:butt;stroke-linejoin:miter;stroke-opacity:1" d="M 441.153,32.0226 457.966,41.3635 z" id="boundary" inkscape:connector-curvature="0" />
	<path style="fill:none;stroke:red;stroke-width:1px;stroke-linecap:butt;stroke-linejoin:miter;stroke-opacity:1" d="M 457.966,41.3635 476.648,41.3635 z" id="boundary" inkscape:connector-curvature="0" />
	<path style="fill:none;stroke:red;stroke-width:1px;stroke-linecap:butt;stroke-linejoin:miter;stroke-opacity:1" d="M 476.648,41.3635 493.461,50.7043 z" id="boundary" inkscape:connector-curvature="0" />
	<path style="fill:none;stroke:red;stroke-width:1px;stroke-linecap:butt;stroke-linejoin:miter;stroke-opacity:1" d="M 233.785,69.3861 252.467,69.3861 z" id="boundary" inkscape:connector-curvature="0" />
	<path style="fill:none;stroke:red;stroke-width:1px;stroke-linecap:butt;stroke-linejoin:miter;stroke-opacity:1" d="M 200.158,84.3315 181.476,97.4087 z" id="boundary" inkscape:connector-curvature="0" />
	<path style="fill:none;stroke:red;stroke-width:1px;stroke-linecap:butt;stroke-linejoin:miter;stroke-opacity:1" d="M 181.476,97.4087 162.795,103.013 z" id="boundary" inkscape:connector-curvature="0" />
	<path style="fill:none;stroke:red;stroke-width:1px;stroke-linecap:butt;stroke-linejoin:miter;stroke-opacity:1" d="M 215.104,69.3861 200.158,84.3315 z" id="boundary" inkscape:connector-curvature="0" />
	<path style="fill:none;stroke:red;stroke-width:1px;stroke-linecap:butt;stroke-linejoin:miter;stroke-opacity:1" d="M 287.962,78.7269 271.149,69.3861 z" id="boundary" inkscape:connector-curvature="0" />
	<path style="fill:none;stroke:red;stroke-width:1px;stroke-linecap:butt;stroke-linejoin:miter;stroke-opacity:1" d="M 306.644,78.7269 287.962,78.7269 z" id="boundary" inkscape:connector-curvature="0" />
	<path style="fill:none;stroke:red;stroke-width:1px;stroke-linecap:butt;stroke-linejoin:miter;stroke-opacity:1" d="M 349.612,74.9906 330.93,84.3315 z" id="boundary" inkscape:connector-curvature="0" />
	<path style="fill:none;stroke:red;stroke-width:1px;stroke-linecap:butt;stroke-linejoin:miter;stroke-opacity:1" d="M 330.93,84.3315 314.117,97.4087 z" id="boundary" inkscape:connector-curvature="0" />
	<path style="fill:none;stroke:red;stroke-width:1px;stroke-linecap:butt;stroke-linejoin:miter;stroke-opacity:1" d="M 314.117,97.4087 306.644,78.7269 z" id="boundary" inkscape:connector-curvature="0" />
	<path style="fill:none;stroke:red;stroke-width:1px;stroke-linecap:butt;stroke-linejoin:miter;stroke-opacity:1" d="M 252.467,69.3861 271.149,69.3861 z" id="boundary" inkscape:connector-curvature="0" />
	<path style="fill:none;stroke:red;stroke-width:1px;stroke-linecap:butt;stroke-linejoin:miter;stroke-opacity:1" d="M 32.0226,523.352 22.6817,551.375 z" id="boundary" inkscape:connector-curvature="0" />
	<path style="fill:none;stroke:red;stroke-width:1px;stroke-linecap:butt;stroke-linejoin:miter;stroke-opacity:1" d="M 35.7589,489.725 32.0226,523.352 z" id="boundary" inkscape:connector-curvature="0" />
	<path style="fill:none;stroke:red;stroke-width:1px;stroke-linecap:butt;stroke-linejoin:miter;stroke-opacity:1" d="M 22.6817,551.375 22.6817,570.056 z" id="boundary" inkscape:connector-curvature="0" />
	<path style="fill:none;stroke:red;stroke-width:1px;stroke-linecap:butt;stroke-linejoin:miter;stroke-opacity:1" d="M 32.0226,605.552 22.6817,588.738 z" id="boundary" inkscape:connector-curvature="0" />
	<path style="fill:none;stroke:red;stroke-width:1px;stroke-linecap:butt;stroke-linejoin:miter;stroke-opacity:1" d="M 22.6817,588.738 22.6817,570.056 z" id="boundary" inkscape:connector-curvature="0" />
	<path style="fill:none;stroke:red;stroke-width:1px;stroke-linecap:butt;stroke-linejoin:miter;stroke-opacity:1" d="M 32.0226,471.043 35.7589,489.725 z" id="boundary" inkscape:connector-curvature="0" />
	<path style="fill:none;stroke:red;stroke-width:1px;stroke-linecap:butt;stroke-linejoin:miter;stroke-opacity:1" d="M 58.177,650.388 41.3635,641.047 z" id="boundary" inkscape:connector-curvature="0" />
	<path style="fill:none;stroke:red;stroke-width:1px;stroke-linecap:butt;stroke-linejoin:miter;stroke-opacity:1" d="M 41.3635,641.047 32.0226,624.234 z" id="boundary" inkscape:connector-curvature="0" />
	<path style="fill:none;stroke:red;stroke-width:1px;stroke-linecap:butt;stroke-linejoin:miter;stroke-opacity:1" d="M 32.0226,624.234 32.0226,605.552 z" id="boundary" inkscape:connector-curvature="0" />
	<path style="fill:none;stroke:red;stroke-width:1px;stroke-linecap:butt;stroke-linejoin:miter;stroke-opacity:1" d="M 58.177,650.388 71.2542,665.333 z" id="boundary" inkscape:connector-curvature="0" />
	<path style="fill:none;stroke:red;stroke-width:1px;stroke-linecap:butt;stroke-linejoin:miter;stroke-opacity:1" d="M 71.2542,665.333 86.1996,678.411 z" id="boundary" inkscape:connector-curvature="0" />
	<path style="fill:none;stroke:red;stroke-width:1px;stroke-linecap:butt;stroke-linejoin:miter;stroke-opacity:1" d="M 104.881,678.411 86.1996,678.411 z" id="boundary" inkscape:connector-curvature="0" />
	<path style="fill:none;stroke:red;stroke-width:1px;stroke-linecap:butt;stroke-linejoin:miter;stroke-opacity:1" d="M 140.377,687.751 121.695,687.751 z" id="boundary" inkscape:connector-curvature="0" />
	<path style="fill:none;stroke:red;stroke-width:1px;stroke-linecap:butt;stroke-linejoin:miter;stroke-opacity:1" d="M 121.695,687.751 104.881,678.411 z" id="boundary" inkscape:connector-curvature="0" />
	<path style="fill:none;stroke:red;stroke-width:1px;stroke-linecap:butt;stroke-linejoin:miter;stroke-opacity:1" d="M 140.377,687.751 144.113,706.433 z" id="boundary" inkscape:connector-curvature="0" />
	<path style="fill:none;stroke:red;stroke-width:1px;stroke-linecap:butt;stroke-linejoin:miter;stroke-opacity:1" d="M 144.113,706.433 160.927,715.774 z" id="boundary" inkscape:connector-curvature="0" />
	<path style="fill:none;stroke:red;stroke-width:1px;stroke-linecap:butt;stroke-linejoin:miter;stroke-opacity:1" d="M 160.927,715.774 168.399,734.456 z" id="boundary" inkscape:connector-curvature="0" />
	<path style="fill:none;stroke:red;stroke-width:1px;stroke-linecap:butt;stroke-linejoin:miter;stroke-opacity:1" d="M 196.422,753.137 177.74,751.269 z" id="boundary" inkscape:connector-curvature="0" />
	<path style="fill:none;stroke:red;stroke-width:1px;stroke-linecap:butt;stroke-linejoin:miter;stroke-opacity:1" d="M 177.74,751.269 168.399,734.456 z" id="boundary" inkscape:connector-curvature="0" />
	<path style="fill:none;stroke:red;stroke-width:1px;stroke-linecap:butt;stroke-linejoin:miter;stroke-opacity:1" d="M 215.104,753.137 196.422,753.137 z" id="boundary" inkscape:connector-curvature="0" />
	<path style="fill:none;stroke:red;stroke-width:1px;stroke-linecap:butt;stroke-linejoin:miter;stroke-opacity:1" d="M 230.049,766.215 237.522,784.896 z" id="boundary" inkscape:connector-curvature="0" />
	<path style="fill:none;stroke:red;stroke-width:1px;stroke-linecap:butt;stroke-linejoin:miter;stroke-opacity:1" d="M 237.522,784.896 246.863,801.71 z" id="boundary" inkscape:connector-curvature="0" />
	<path style="fill:none;stroke:red;stroke-width:1px;stroke-linecap:butt;stroke-linejoin:miter;stroke-opacity:1" d="M 246.863,801.71 246.863,820.392 z" id="boundary" inkscape:connector-curvature="0" />
	<path style="fill:none;stroke:red;stroke-width:1px;stroke-linecap:butt;stroke-linejoin:miter;stroke-opacity:1" d="M 215.104,753.137 230.049,766.215 z" id="boundary" inkscape:connector-curvature="0" />
	<path style="fill:none;stroke:red;stroke-width:1px;stroke-linecap:butt;stroke-linejoin:miter;stroke-opacity:1" d="M 256.203,837.205 274.885,837.205 z" id="boundary" inkscape:connector-curvature="0" />
	<path style="fill:none;stroke:red;stroke-width:1px;stroke-linecap:butt;stroke-linejoin:miter;stroke-opacity:1" d="M 274.885,837.205 274.885,855.887 z" id="boundary" inkscape:connector-curvature="0" />
	<path style="fill:none;stroke:red;stroke-width:1px;stroke-linecap:butt;stroke-linejoin:miter;stroke-opacity:1" d="M 256.203,837.205 246.863,820.392 z" id="boundary" inkscape:connector-curvature="0" />
	<path style="fill:none;stroke:red;stroke-width:1px;stroke-linecap:butt;stroke-linejoin:miter;stroke-opacity:1" d="M 429.944,837.205 448.625,837.205 z" id="boundary" inkscape:connector-curvature="0" />
	<path style="fill:none;stroke:red;stroke-width:1px;stroke-linecap:butt;stroke-linejoin:miter;stroke-opacity:1" d="M 414.998,850.282 429.944,837.205 z" id="boundary" inkscape:connector-curvature="0" />
	<path style="fill:none;stroke:red;stroke-width:1px;stroke-linecap:butt;stroke-linejoin:miter;stroke-opacity:1" d="M 448.625,837.205 467.307,837.205 z" id="boundary" inkscape:connector-curvature="0" />
	<path style="fill:none;stroke:red;stroke-width:1px;stroke-linecap:butt;stroke-linejoin:miter;stroke-opacity:1" d="M 467.307,837.205 485.989,844.678 z" id="boundary" inkscape:connector-curvature="0" />
	<path style="fill:none;stroke:red;stroke-width:1px;stroke-linecap:butt;stroke-linejoin:miter;stroke-opacity:1" d="M 274.885,855.887 280.49,874.569 z" id="boundary" inkscape:connector-curvature="0" />
	<path style="fill:none;stroke:red;stroke-width:1px;stroke-linecap:butt;stroke-linejoin:miter;stroke-opacity:1" d="M 295.435,887.646 280.49,874.569 z" id="boundary" inkscape:connector-curvature="0" />
	<path style="fill:none;stroke:red;stroke-width:1px;stroke-linecap:butt;stroke-linejoin:miter;stroke-opacity:1" d="M 314.117,893.25 295.435,887.646 z" id="boundary" inkscape:connector-curvature="0" />
	<path style="fill:none;stroke:red;stroke-width:1px;stroke-linecap:butt;stroke-linejoin:miter;stroke-opacity:1" d="M 332.798,893.25 314.117,893.25 z" id="boundary" inkscape:connector-curvature="0" />
	<path style="fill:none;stroke:red;stroke-width:1px;stroke-linecap:butt;stroke-linejoin:miter;stroke-opacity:1" d="M 405.657,868.964 414.998,850.282 z" id="boundary" inkscape:connector-curvature="0" />
	<path style="fill:none;stroke:red;stroke-width:1px;stroke-linecap:butt;stroke-linejoin:miter;stroke-opacity:1" d="M 405.657,868.964 386.976,874.569 z" id="boundary" inkscape:connector-curvature="0" />
	<path style="fill:none;stroke:red;stroke-width:1px;stroke-linecap:butt;stroke-linejoin:miter;stroke-opacity:1" d="M 370.162,883.91 351.48,893.25 z" id="boundary" inkscape:connector-curvature="0" />
	<path style="fill:none;stroke:red;stroke-width:1px;stroke-linecap:butt;stroke-linejoin:miter;stroke-opacity:1" d="M 351.48,893.25 332.798,893.25 z" id="boundary" inkscape:connector-curvature="0" />
	<path style="fill:none;stroke:red;stroke-width:1px;stroke-linecap:butt;stroke-linejoin:miter;stroke-opacity:1" d="M 370.162,883.91 386.976,874.569 z" id="boundary" inkscape:connector-curvature="0" />
	<path style="fill:none;stroke:red;stroke-width:1px;stroke-linecap:butt;stroke-linejoin:miter;stroke-opacity:1" d="M 485.989,844.678 504.67,846.546 z" id="boundary" inkscape:connector-curvature="0" />
	<path style="fill:none;stroke:red;stroke-width:1px;stroke-linecap:butt;stroke-linejoin:miter;stroke-opacity:1" d="M 571.925,4 590.606,4 z" id="boundary" inkscape:connector-curvature="0" />
	<path style="fill:none;stroke:red;stroke-width:1px;stroke-linecap:butt;stroke-linejoin:miter;stroke-opacity:1" d="M 555.111,13.3409 571.925,4 z" id="boundary" inkscape:connector-curvature="0" />
	<path style="fill:none;stroke:red;stroke-width:1px;stroke-linecap:butt;stroke-linejoin:miter;stroke-opacity:1" d="M 590.606,4 609.288,4 z" id="boundary" inkscape:connector-curvature="0" />
	<path style="fill:none;stroke:red;stroke-width:1px;stroke-linecap:butt;stroke-linejoin:miter;stroke-opacity:1" d="M 609.288,4 626.102,13.3409 z" id="boundary" inkscape:connector-curvature="0" />
	<path style="fill:none;stroke:red;stroke-width:1px;stroke-linecap:butt;stroke-linejoin:miter;stroke-opacity:1" d="M 644.783,13.3409 626.102,13.3409 z" id="boundary" inkscape:connector-curvature="0" />
	<path style="fill:none;stroke:red;stroke-width:1px;stroke-linecap:butt;stroke-linejoin:miter;stroke-opacity:1" d="M 555.111,13.3409 536.429,18.9454 z" id="boundary" inkscape:connector-curvature="0" />
	<path style="fill:none;stroke:red;stroke-width:1px;stroke-linecap:butt;stroke-linejoin:miter;stroke-opacity:1" d="M 740.06,4 758.742,4 z" id="boundary" inkscape:connector-curvature="0" />
	<path style="fill:none;stroke:red;stroke-width:1px;stroke-linecap:butt;stroke-linejoin:miter;stroke-opacity:1" d="M 723.247,13.3409 740.06,4 z" id="boundary" inkscape:connector-curvature="0" />
	<path style="fill:none;stroke:red;stroke-width:1px;stroke-linecap:butt;stroke-linejoin:miter;stroke-opacity:1" d="M 758.742,4 777.424,4 z" id="boundary" inkscape:connector-curvature="0" />
	<path style="fill:none;stroke:red;stroke-width:1px;stroke-linecap:butt;stroke-linejoin:miter;stroke-opacity:1" d="M 777.424,4 794.237,13.3409 z" id="boundary" inkscape:connector-curvature="0" />
	<path style="fill:none;stroke:red;stroke-width:1px;stroke-linecap:butt;stroke-linejoin:miter;stroke-opacity:1" d="M 723.247,13.3409 704.565,18.9454 z" id="boundary" inkscape:connector-curvature="0" />
	<path style="fill:none;stroke:red;stroke-width:1px;stroke-linecap:butt;stroke-linejoin:miter;stroke-opacity:1" d="M 644.783,13.3409 650.388,32.0226 z" id="boundary" inkscape:connector-curvature="0" />
	<path style="fill:none;stroke:red;stroke-width:1px;stroke-linecap:butt;stroke-linejoin:miter;stroke-opacity:1" d="M 530.825,43.2316 536.429,18.9454 z" id="boundary" inkscape:connector-curvature="0" />
	<path style="fill:none;stroke:red;stroke-width:1px;stroke-linecap:butt;stroke-linejoin:miter;stroke-opacity:1" d="M 669.07,32.0226 650.388,32.0226 z" id="boundary" inkscape:connector-curvature="0" />
	<path style="fill:none;stroke:red;stroke-width:1px;stroke-linecap:butt;stroke-linejoin:miter;stroke-opacity:1" d="M 512.143,50.7043 530.825,43.2316 z" id="boundary" inkscape:connector-curvature="0" />
	<path style="fill:none;stroke:red;stroke-width:1px;stroke-linecap:butt;stroke-linejoin:miter;stroke-opacity:1" d="M 669.07,32.0226 687.751,37.6271 z" id="boundary" inkscape:connector-curvature="0" />
	<path style="fill:none;stroke:red;stroke-width:1px;stroke-linecap:butt;stroke-linejoin:miter;stroke-opacity:1" d="M 512.143,50.7043 493.461,50.7043 z" id="boundary" inkscape:connector-curvature="0" />
	<path style="fill:none;stroke:red;stroke-width:1px;stroke-linecap:butt;stroke-linejoin:miter;stroke-opacity:1" d="M 794.237,13.3409 812.919,13.3409 z" id="boundary" inkscape:connector-curvature="0" />
	<path style="fill:none;stroke:red;stroke-width:1px;stroke-linecap:butt;stroke-linejoin:miter;stroke-opacity:1" d="M 812.919,13.3409 827.864,24.5499 z" id="boundary" inkscape:connector-curvature="0" />
	<path style="fill:none;stroke:red;stroke-width:1px;stroke-linecap:butt;stroke-linejoin:miter;stroke-opacity:1" d="M 687.751,37.6271 704.565,18.9454 z" id="boundary" inkscape:connector-curvature="0" />
	<path style="fill:none;stroke:red;stroke-width:1px;stroke-linecap:butt;stroke-linejoin:miter;stroke-opacity:1" d="M 852.151,52.5725 855.887,71.2542 z" id="boundary" inkscape:connector-curvature="0" />
	<path style="fill:none;stroke:red;stroke-width:1px;stroke-linecap:butt;stroke-linejoin:miter;stroke-opacity:1" d="M 852.151,52.5725 842.81,35.7589 z" id="boundary" inkscape:connector-curvature="0" />
	<path style="fill:none;stroke:red;stroke-width:1px;stroke-linecap:butt;stroke-linejoin:miter;stroke-opacity:1" d="M 855.887,71.2542 865.228,88.0678 z" id="boundary" inkscape:connector-curvature="0" />
	<path style="fill:none;stroke:red;stroke-width:1px;stroke-linecap:butt;stroke-linejoin:miter;stroke-opacity:1" d="M 865.228,88.0678 865.228,106.75 z" id="boundary" inkscape:connector-curvature="0" />
	<path style="fill:none;stroke:red;stroke-width:1px;stroke-linecap:butt;stroke-linejoin:miter;stroke-opacity:1" d="M 883.91,106.75 865.228,106.75 z" id="boundary" inkscape:connector-curvature="0" />
	<path style="fill:none;stroke:red;stroke-width:1px;stroke-linecap:butt;stroke-linejoin:miter;stroke-opacity:1" d="M 827.864,24.5499 842.81,35.7589 z" id="boundary" inkscape:connector-curvature="0" />
	<path style="fill:none;stroke:red;stroke-width:1px;stroke-linecap:butt;stroke-linejoin:miter;stroke-opacity:1" d="M 883.91,106.75 902.591,112.354 z" id="boundary" inkscape:connector-curvature="0" />
	<path style="fill:none;stroke:red;stroke-width:1px;stroke-linecap:butt;stroke-linejoin:miter;stroke-opacity:1" d="M 902.591,112.354 910.064,131.036 z" id="boundary" inkscape:connector-curvature="0" />
	<path style="fill:none;stroke:red;stroke-width:1px;stroke-linecap:butt;stroke-linejoin:miter;stroke-opacity:1" d="M 910.064,131.036 928.746,138.508 z" id="boundary" inkscape:connector-curvature="0" />
	<path style="fill:none;stroke:red;stroke-width:1px;stroke-linecap:butt;stroke-linejoin:miter;stroke-opacity:1" d="M 928.746,138.508 939.955,153.454 z" id="boundary" inkscape:connector-curvature="0" />
	<path style="fill:none;stroke:red;stroke-width:1px;stroke-linecap:butt;stroke-linejoin:miter;stroke-opacity:1" d="M 939.955,153.454 949.296,170.267 z" id="boundary" inkscape:connector-curvature="0" />
	<path style="fill:none;stroke:red;stroke-width:1px;stroke-linecap:butt;stroke-linejoin:miter;stroke-opacity:1" d="M 964.241,183.345 949.296,170.267 z" id="boundary" inkscape:connector-curvature="0" />
	<path style="fill:none;stroke:red;stroke-width:1px;stroke-linecap:butt;stroke-linejoin:miter;stroke-opacity:1" d="M 958.637,330.93 949.296,314.117 z" id="boundary" inkscape:connector-curvature="0" />
	<path style="fill:none;stroke:red;stroke-width:1px;stroke-linecap:butt;stroke-linejoin:miter;stroke-opacity:1" d="M 949.296,295.435 967.977,276.753 z" id="boundary" inkscape:connector-curvature="0" />
	<path style="fill:none;stroke:red;stroke-width:1px;stroke-linecap:butt;stroke-linejoin:miter;stroke-opacity:1" d="M 949.296,314.117 949.296,295.435 z" id="boundary" inkscape:connector-curvature="0" />
	<path style="fill:none;stroke:red;stroke-width:1px;stroke-linecap:butt;stroke-linejoin:miter;stroke-opacity:1" d="M 964.241,183.345 967.977,202.026 z" id="boundary" inkscape:connector-curvature="0" />
	<path style="fill:none;stroke:red;stroke-width:1px;stroke-linecap:butt;stroke-linejoin:miter;stroke-opacity:1" d="M 967.977,202.026 967.977,220.708 z" id="boundary" inkscape:connector-curvature="0" />
	<path style="fill:none;stroke:red;stroke-width:1px;stroke-linecap:butt;stroke-linejoin:miter;stroke-opacity:1" d="M 967.977,239.39 967.977,220.708 z" id="boundary" inkscape:connector-curvature="0" />
	<path style="fill:none;stroke:red;stroke-width:1px;stroke-linecap:butt;stroke-linejoin:miter;stroke-opacity:1" d="M 967.977,258.072 967.977,276.753 z" id="boundary" inkscape:connector-curvature="0" />
	<path style="fill:none;stroke:red;stroke-width:1px;stroke-linecap:butt;stroke-linejoin:miter;stroke-opacity:1" d="M 977.318,364.557 967.977,347.744 z" id="boundary" inkscape:connector-curvature="0" />
	<path style="fill:none;stroke:red;stroke-width:1px;stroke-linecap:butt;stroke-linejoin:miter;stroke-opacity:1" d="M 967.977,347.744 958.637,330.93 z" id="boundary" inkscape:connector-curvature="0" />
	<path style="fill:none;stroke:red;stroke-width:1px;stroke-linecap:butt;stroke-linejoin:miter;stroke-opacity:1" d="M 967.977,258.072 967.977,239.39 z" id="boundary" inkscape:connector-curvature="0" />
	<path style="fill:none;stroke:red;stroke-width:1px;stroke-linecap:butt;stroke-linejoin:miter;stroke-opacity:1" d="M 650.388,715.774 669.07,715.774 z" id="boundary" inkscape:connector-curvature="0" />
	<path style="fill:none;stroke:red;stroke-width:1px;stroke-linecap:butt;stroke-linejoin:miter;stroke-opacity:1" d="M 650.388,734.456 650.388,715.774 z" id="boundary" inkscape:connector-curvature="0" />
	<path style="fill:none;stroke:red;stroke-width:1px;stroke-linecap:butt;stroke-linejoin:miter;stroke-opacity:1" d="M 641.047,753.137 650.388,734.456 z" id="boundary" inkscape:connector-curvature="0" />
	<path style="fill:none;stroke:red;stroke-width:1px;stroke-linecap:butt;stroke-linejoin:miter;stroke-opacity:1" d="M 669.07,715.774 685.883,725.115 z" id="boundary" inkscape:connector-curvature="0" />
	<path style="fill:none;stroke:red;stroke-width:1px;stroke-linecap:butt;stroke-linejoin:miter;stroke-opacity:1" d="M 702.697,734.456 685.883,725.115 z" id="boundary" inkscape:connector-curvature="0" />
	<path style="fill:none;stroke:red;stroke-width:1px;stroke-linecap:butt;stroke-linejoin:miter;stroke-opacity:1" d="M 721.379,734.456 702.697,734.456 z" id="boundary" inkscape:connector-curvature="0" />
	<path style="fill:none;stroke:red;stroke-width:1px;stroke-linecap:butt;stroke-linejoin:miter;stroke-opacity:1" d="M 788.633,710.169 769.951,715.774 z" id="boundary" inkscape:connector-curvature="0" />
	<path style="fill:none;stroke:red;stroke-width:1px;stroke-linecap:butt;stroke-linejoin:miter;stroke-opacity:1" d="M 769.951,715.774 751.269,715.774 z" id="boundary" inkscape:connector-curvature="0" />
	<path style="fill:none;stroke:red;stroke-width:1px;stroke-linecap:butt;stroke-linejoin:miter;stroke-opacity:1" d="M 751.269,715.774 740.06,730.719 z" id="boundary" inkscape:connector-curvature="0" />
	<path style="fill:none;stroke:red;stroke-width:1px;stroke-linecap:butt;stroke-linejoin:miter;stroke-opacity:1" d="M 740.06,730.719 721.379,734.456 z" id="boundary" inkscape:connector-curvature="0" />
	<path style="fill:none;stroke:red;stroke-width:1px;stroke-linecap:butt;stroke-linejoin:miter;stroke-opacity:1" d="M 560.716,835.337 566.32,809.183 z" id="boundary" inkscape:connector-curvature="0" />
	<path style="fill:none;stroke:red;stroke-width:1px;stroke-linecap:butt;stroke-linejoin:miter;stroke-opacity:1" d="M 566.32,809.183 585.002,809.183 z" id="boundary" inkscape:connector-curvature="0" />
	<path style="fill:none;stroke:red;stroke-width:1px;stroke-linecap:butt;stroke-linejoin:miter;stroke-opacity:1" d="M 560.716,835.337 542.034,837.205 z" id="boundary" inkscape:connector-curvature="0" />
	<path style="fill:none;stroke:red;stroke-width:1px;stroke-linecap:butt;stroke-linejoin:miter;stroke-opacity:1" d="M 523.352,844.678 504.67,846.546 z" id="boundary" inkscape:connector-curvature="0" />
	<path style="fill:none;stroke:red;stroke-width:1px;stroke-linecap:butt;stroke-linejoin:miter;stroke-opacity:1" d="M 542.034,837.205 523.352,844.678 z" id="boundary" inkscape:connector-curvature="0" />
	<path style="fill:none;stroke:red;stroke-width:1px;stroke-linecap:butt;stroke-linejoin:miter;stroke-opacity:1" d="M 622.365,762.478 641.047,753.137 z" id="boundary" inkscape:connector-curvature="0" />
	<path style="fill:none;stroke:red;stroke-width:1px;stroke-linecap:butt;stroke-linejoin:miter;stroke-opacity:1" d="M 618.629,786.765 622.365,762.478 z" id="boundary" inkscape:connector-curvature="0" />
	<path style="fill:none;stroke:red;stroke-width:1px;stroke-linecap:butt;stroke-linejoin:miter;stroke-opacity:1" d="M 603.684,799.842 585.002,809.183 z" id="boundary" inkscape:connector-curvature="0" />
	<path style="fill:none;stroke:red;stroke-width:1px;stroke-linecap:butt;stroke-linejoin:miter;stroke-opacity:1" d="M 618.629,786.765 603.684,799.842 z" id="boundary" inkscape:connector-curvature="0" />
	<path style="fill:none;stroke:red;stroke-width:1px;stroke-linecap:butt;stroke-linejoin:miter;stroke-opacity:1" d="M 788.633,710.169 807.315,700.829 z" id="boundary" inkscape:connector-curvature="0" />
	<path style="fill:none;stroke:red;stroke-width:1px;stroke-linecap:butt;stroke-linejoin:miter;stroke-opacity:1" d="M 977.318,364.557 990.395,379.503 z" id="boundary" inkscape:connector-curvature="0" />
	<path style="fill:none;stroke:red;stroke-width:1px;stroke-linecap:butt;stroke-linejoin:miter;stroke-opacity:1" d="M 967.977,491.593 967.977,510.275 z" id="boundary" inkscape:connector-curvature="0" />
	<path style="fill:none;stroke:red;stroke-width:1px;stroke-linecap:butt;stroke-linejoin:miter;stroke-opacity:1" d="M 967.977,510.275 949.296,519.616 z" id="boundary" inkscape:connector-curvature="0" />
	<path style="fill:none;stroke:red;stroke-width:1px;stroke-linecap:butt;stroke-linejoin:miter;stroke-opacity:1" d="M 967.977,491.593 977.318,472.911 z" id="boundary" inkscape:connector-curvature="0" />
	<path style="fill:none;stroke:red;stroke-width:1px;stroke-linecap:butt;stroke-linejoin:miter;stroke-opacity:1" d="M 939.955,538.298 949.296,519.616 z" id="boundary" inkscape:connector-curvature="0" />
	<path style="fill:none;stroke:red;stroke-width:1px;stroke-linecap:butt;stroke-linejoin:miter;stroke-opacity:1" d="M 977.318,435.548 977.318,454.23 z" id="boundary" inkscape:connector-curvature="0" />
	<path style="fill:none;stroke:red;stroke-width:1px;stroke-linecap:butt;stroke-linejoin:miter;stroke-opacity:1" d="M 996,398.185 996,416.866 z" id="boundary" inkscape:connector-curvature="0" />
	<path style="fill:none;stroke:red;stroke-width:1px;stroke-linecap:butt;stroke-linejoin:miter;stroke-opacity:1" d="M 996,416.866 977.318,435.548 z" id="boundary" inkscape:connector-curvature="0" />
	<path style="fill:none;stroke:red;stroke-width:1px;stroke-linecap:butt;stroke-linejoin:miter;stroke-opacity:1" d="M 996,398.185 990.395,379.503 z" id="boundary" inkscape:connector-curvature="0" />
	<path style="fill:none;stroke:red;stroke-width:1px;stroke-linecap:butt;stroke-linejoin:miter;stroke-opacity:1" d="M 977.318,472.911 977.318,454.23 z" id="boundary" inkscape:connector-curvature="0" />
	<path style="fill:none;stroke:red;stroke-width:1px;stroke-linecap:butt;stroke-linejoin:miter;stroke-opacity:1" d="M 846.546,613.024 846.546,631.706 z" id="boundary" inkscape:connector-curvature="0" />
	<path style="fill:none;stroke:red;stroke-width:1px;stroke-linecap:butt;stroke-linejoin:miter;stroke-opacity:1" d="M 846.546,631.706 827.864,650.388 z" id="boundary" inkscape:connector-curvature="0" />
	<path style="fill:none;stroke:red;stroke-width:1px;stroke-linecap:butt;stroke-linejoin:miter;stroke-opacity:1" d="M 816.655,682.147 807.315,700.829 z" id="boundary" inkscape:connector-curvature="0" />
	<path style="fill:none;stroke:red;stroke-width:1px;stroke-linecap:butt;stroke-linejoin:miter;stroke-opacity:1" d="M 827.864,650.388 816.655,682.147 z" id="boundary" inkscape:connector-curvature="0" />
	<path style="fill:none;stroke:red;stroke-width:1px;stroke-linecap:butt;stroke-linejoin:miter;stroke-opacity:1" d="M 925.009,555.111 910.064,570.056 z" id="boundary" inkscape:connector-curvature="0" />
	<path style="fill:none;stroke:red;stroke-width:1px;stroke-linecap:butt;stroke-linejoin:miter;stroke-opacity:1" d="M 910.064,570.056 891.382,575.661 z" id="boundary" inkscape:connector-curvature="0" />
	<path style="fill:none;stroke:red;stroke-width:1px;stroke-linecap:butt;stroke-linejoin:miter;stroke-opacity:1" d="M 925.009,555.111 939.955,538.298 z" id="boundary" inkscape:connector-curvature="0" />
	<path style="fill:none;stroke:red;stroke-width:1px;stroke-linecap:butt;stroke-linejoin:miter;stroke-opacity:1" d="M 872.701,575.661 891.382,575.661 z" id="boundary" inkscape:connector-curvature="0" />
	<path style="fill:none;stroke:red;stroke-width:1px;stroke-linecap:butt;stroke-linejoin:miter;stroke-opacity:1" d="M 872.701,575.661 855.887,585.002 z" id="boundary" inkscape:connector-curvature="0" />
	<path style="fill:none;stroke:red;stroke-width:1px;stroke-linecap:butt;stroke-linejoin:miter;stroke-opacity:1" d="M 846.546,613.024 855.887,585.002 z" id="boundary" inkscape:connector-curvature="0" />
	<circle cx="4" cy="383.239" r="4" fill="#0" id="circle0"/>
	<circle cx="4" cy="401.921" r="4" fill="#0" id="circle1"/>
	<circle cx="4" cy="420.603" r="4" fill="#0" id="circle2"/>
	<circle cx="15.209" cy="435.548" r="4" fill="#0" id="circle3"/>
	<circle cx="22.6817" cy="345.876" r="4" fill="#0" id="circle4"/>
	<circle cx="22.6817" cy="364.557" r="4" fill="#0" id="circle5"/>
	<circle cx="22.6817" cy="454.23" r="4" fill="#0" id="circle6"/>
	<circle cx="22.6817" cy="551.375" r="4" fill="#0" id="circle7"/>
	<circle cx="22.6817" cy="570.056" r="4" fill="#0" id="circle8"/>
	<circle cx="22.6817" cy="588.738" r="4" fill="#0" id="circle9"/>
	<circle cx="32.0226" cy="317.853" r="4" fill="#0" id="circle10"/>
	<circle cx="32.0226" cy="471.043" r="4" fill="#0" id="circle11"/>
	<circle cx="32.0226" cy="523.352" r="4" fill="#0" id="circle12"/>
	<circle cx="32.0226" cy="605.552" r="4" fill="#0" id="circle13"/>
	<circle cx="32.0226" cy="624.234" r="4" fill="#0" id="circle14"/>
	<circle cx="35.7589" cy="489.725" r="4" fill="#0" id="circle15"/>
	<circle cx="41.3635" cy="299.171" r="4" fill="#0" id="circle16"/>
	<circle cx="41.3635" cy="641.047" r="4" fill="#0" id="circle17"/>
	<circle cx="58.177" cy="650.388" r="4" fill="#0" id="circle18"/>
	<circle cx="60.0452" cy="293.567" r="4" fill="#0" id="circle19"/>
	<circle cx="71.2542" cy="665.333" r="4" fill="#0" id="circle20"/>
	<circle cx="76.8588" cy="284.226" r="4" fill="#0" id="circle21"/>
	<circle cx="86.1996" cy="678.411" r="4" fill="#0" id="circle22"/>
	<circle cx="88.0678" cy="224.444" r="4" fill="#0" id="circle23"/>
	<circle cx="88.0678" cy="243.126" r="4" fill="#0" id="circle24"/>
	<circle cx="88.0678" cy="261.808" r="4" fill="#0" id="circle25"/>
	<circle cx="104.881" cy="678.411" r="4" fill="#0" id="circle26"/>
	<circle cx="106.75" cy="177.74" r="4" fill="#0" id="circle27"/>
	<circle cx="106.75" cy="196.422" r="4" fill="#0" id="circle28"/>
	<circle cx="106.75" cy="215.104" r="4" fill="#0" id="circle29"/>
	<circle cx="116.09" cy="149.718" r="4" fill="#0" id="circle30"/>
	<circle cx="121.695" cy="687.751" r="4" fill="#0" id="circle31"/>
	<circle cx="125.431" cy="131.036" r="4" fill="#0" id="circle32"/>
	<circle cx="140.377" cy="687.751" r="4" fill="#0" id="circle33"/>
	<circle cx="144.113" cy="112.354" r="4" fill="#0" id="circle34"/>
	<circle cx="144.113" cy="706.433" r="4" fill="#0" id="circle35"/>
	<circle cx="160.927" cy="715.774" r="4" fill="#0" id="circle36"/>
	<circle cx="162.795" cy="103.013" r="4" fill="#0" id="circle37"/>
	<circle cx="168.399" cy="734.456" r="4" fill="#0" id="circle38"/>
	<circle cx="177.74" cy="751.269" r="4" fill="#0" id="circle39"/>
	<circle cx="181.476" cy="97.4087" r="4" fill="#0" id="circle40"/>
	<circle cx="196.422" cy="753.137" r="4" fill="#0" id="circle41"/>
	<circle cx="200.158" cy="84.3315" r="4" fill="#0" id="circle42"/>
	<circle cx="215.104" cy="69.3861" r="4" fill="#0" id="circle43"/>
	<circle cx="215.104" cy="753.137" r="4" fill="#0" id="circle44"/>
	<circle cx="230.049" cy="766.215" r="4" fill="#0" id="circle45"/>
	<circle cx="233.785" cy="69.3861" r="4" fill="#0" id="circle46"/>
	<circle cx="237.522" cy="784.896" r="4" fill="#0" id="circle47"/>
	<circle cx="246.863" cy="801.71" r="4" fill="#0" id="circle48"/>
	<circle cx="246.863" cy="820.392" r="4" fill="#0" id="circle49"/>
	<circle cx="252.467" cy="69.3861" r="4" fill="#0" id="circle50"/>
	<circle cx="256.203" cy="837.205" r="4" fill="#0" id="circle51"/>
	<circle cx="271.149" cy="69.3861" r="4" fill="#0" id="circle52"/>
	<circle cx="274.885" cy="837.205" r="4" fill="#0" id="circle53"/>
	<circle cx="274.885" cy="855.887" r="4" fill="#0" id="circle54"/>
	<circle cx="280.49" cy="874.569" r="4" fill="#0" id="circle55"/>
	<circle cx="287.962" cy="78.7269" r="4" fill="#0" id="circle56"/>
	<circle cx="295.435" cy="887.646" r="4" fill="#0" id="circle57"/>
	<circle cx="306.644" cy="78.7269" r="4" fill="#0" id="circle58"/>
	<circle cx="314.117" cy="97.4087" r="4" fill="#0" id="circle59"/>
	<circle cx="314.117" cy="893.25" r="4" fill="#0" id="circle60"/>
	<circle cx="330.93" cy="84.3315" r="4" fill="#0" id="circle61"/>
	<circle cx="332.798" cy="893.25" r="4" fill="#0" id="circle62"/>
	<circle cx="349.612" cy="56.3089" r="4" fill="#0" id="circle63"/>
	<circle cx="349.612" cy="74.9906" r="4" fill="#0" id="circle64"/>
	<circle cx="351.48" cy="893.25" r="4" fill="#0" id="circle65"/>
	<circle cx="368.294" cy="46.968" r="4" fill="#0" id="circle66"/>
	<circle cx="370.162" cy="883.91" r="4" fill="#0" id="circle67"/>
	<circle cx="386.976" cy="41.3635" r="4" fill="#0" id="circle68"/>
	<circle cx="386.976" cy="874.569" r="4" fill="#0" id="circle69"/>
	<circle cx="403.789" cy="32.0226" r="4" fill="#0" id="circle70"/>
	<circle cx="405.657" cy="868.964" r="4" fill="#0" id="circle71"/>
	<circle cx="414.998" cy="850.282" r="4" fill="#0" id="circle72"/>
	<circle cx="422.471" cy="32.0226" r="4" fill="#0" id="circle73"/>
	<circle cx="429.944" cy="837.205" r="4" fill="#0" id="circle74"/>
	<circle cx="441.153" cy="32.0226" r="4" fill="#0" id="circle75"/>
	<circle cx="448.625" cy="837.205" r="4" fill="#0" id="circle76"/>
	<circle cx="457.966" cy="41.3635" r="4" fill="#0" id="circle77"/>
	<circle cx="467.307" cy="837.205" r="4" fill="#0" id="circle78"/>
	<circle cx="476.648" cy="41.3635" r="4" fill="#0" id="circle79"/>
	<circle cx="485.989" cy="844.678" r="4" fill="#0" id="circle80"/>
	<circle cx="493.461" cy="50.7043" r="4" fill="#0" id="circle81"/>
	<circle cx="504.67" cy="846.546" r="4" fill="#0" id="circle82"/>
	<circle cx="512.143" cy="50.7043" r="4" fill="#0" id="circle83"/>
	<circle cx="523.352" cy="844.678" r="4" fill="#0" id="circle84"/>
	<circle cx="530.825" cy="43.2316" r="4" fill="#0" id="circle85"/>
	<circle cx="536.429" cy="18.9454" r="4" fill="#0" id="circle86"/>
	<circle cx="542.034" cy="837.205" r="4" fill="#0" id="circle87"/>
	<circle cx="555.111" cy="13.3409" r="4" fill="#0" id="circle88"/>
	<circle cx="560.716" cy="835.337" r="4" fill="#0" id="circle89"/>
	<circle cx="566.32" cy="809.183" r="4" fill="#0" id="circle90"/>
	<circle cx="571.925" cy="4" r="4" fill="#0" id="circle91"/>
	<circle cx="585.002" cy="809.183" r="4" fill="#0" id="circle92"/>
	<circle cx="590.606" cy="4" r="4" fill="#0" id="circle93"/>
	<circle cx="603.684" cy="799.842" r="4" fill="#0" id="circle94"/>
	<circle cx="609.288" cy="4" r="4" fill="#0" id="circle95"/>
	<circle cx="618.629" cy="786.765" r="4" fill="#0" id="circle96"/>
	<circle cx="622.365" cy="762.478" r="4" fill="#0" id="circle97"/>
	<circle cx="626.102" cy="13.3409" r="4" fill="#0" id="circle98"/>
	<circle cx="641.047" cy="753.137" r="4" fill="#0" id="circle99"/>
	<circle cx="644.783" cy="13.3409" r="4" fill="#0" id="circle100"/>
	<circle cx="650.388" cy="32.0226" r="4" fill="#0" id="circle101"/>
	<circle cx="650.388" cy="715.774" r="4" fill="#0" id="circle102"/>
	<circle cx="650.388" cy="734.456" r="4" fill="#0" id="circle103"/>
	<circle cx="669.07" cy="32.0226" r="4" fill="#0" id="circle104"/>
	<circle cx="669.07" cy="715.774" r="4" fill="#0" id="circle105"/>
	<circle cx="685.883" cy="725.115" r="4" fill="#0" id="circle106"/>
	<circle cx="687.751" cy="37.6271" r="4" fill="#0" id="circle107"/>
	<circle cx="702.697" cy="734.456" r="4" fill="#0" id="circle108"/>
	<circle cx="704.565" cy="18.9454" r="4" fill="#0" id="circle109"/>
	<circle cx="721.379" cy="734.456" r="4" fill="#0" id="circle110"/>
	<circle cx="723.247" cy="13.3409" r="4" fill="#0" id="circle111"/>
	<circle cx="740.06" cy="4" r="4" fill="#0" id="circle112"/>
	<circle cx="740.06" cy="730.719" r="4" fill="#0" id="circle113"/>
	<circle cx="751.269" cy="715.774" r="4" fill="#0" id="circle114"/>
	<circle cx="758.742" cy="4" r="4" fill="#0" id="circle115"/>
	<circle cx="769.951" cy="715.774" r="4" fill="#0" id="circle116"/>
	<circle cx="777.424" cy="4" r="4" fill="#0" id="circle117"/>
	<circle cx="788.633" cy="710.169" r="4" fill="#0" id="circle118"/>
	<circle cx="794.237" cy="13.3409" r="4" fill="#0" id="circle119"/>
	<circle cx="807.315" cy="700.829" r="4" fill="#0" id="circle120"/>
	<circle cx="812.919" cy="13.3409" r="4" fill="#0" id="circle121"/>
	<circle cx="816.655" cy="682.147" r="4" fill="#0" id="circle122"/>
	<circle cx="827.864" cy="24.5499" r="4" fill="#0" id="circle123"/>
	<circle cx="827.864" cy="650.388" r="4" fill="#0" id="circle124"/>
	<circle cx="842.81" cy="35.7589" r="4" fill="#0" id="circle125"/>
	<circle cx="846.546" cy="613.024" r="4" fill="#0" id="circle126"/>
	<circle cx="846.546" cy="631.706" r="4" fill="#0" id="circle127"/>
	<circle cx="852.151" cy="52.5725" r="4" fill="#0" id="circle128"/>
	<circle cx="855.887" cy="71.2542" r="4" fill="#0" id="circle129"/>
	<circle cx="855.887" cy="585.002" r="4" fill="#0" id="circle130"/>
	<circle cx="865.228" cy="88.0678" r="4" fill="#0" id="circle131"/>
	<circle cx="865.228" cy="106.75" r="4" fill="#0" id="circle132"/>
	<circle cx="872.701" cy="575.661" r="4" fill="#0" id="circle133"/>
	<circle cx="883.91" cy="106.75" r="4" fill="#0" id="circle134"/>
	<circle cx="891.382" cy="575.661" r="4" fill="#0" id="circle135"/>
	<circle cx="902.591" cy="112.354" r="4" fill="#0" id="circle136"/>
	<circle cx="910.064" cy="131.036" r="4" fill="#0" id="circle137"/>
	<circle cx="910.064" cy="570.056" r="4" fill="#0" id="circle138"/>
	<circle cx="925.009" cy="555.111" r="4" fill="#0" id="circle139"/>
	<circle cx="928.746" cy="138.508" r="4" fill="#0" id="circle140"/>
	<circle cx="939.955" cy="153.454" r="4" fill="#0" id="circle141"/>
	<circle cx="939.955" cy="538.298" r="4" fill="#0" id="circle142"/>
	<circle cx="949.296" cy="170.267" r="4" fill="#0" id="circle143"/>
	<circle cx="949.296" cy="295.435" r="4" fill="#0" id="circle144"/>
	<circle cx="949.296" cy="314.117" r="4" fill="#0" id="circle145"/>
	<circle cx="949.296" cy="519.616" r="4" fill="#0" id="circle146"/>
	<circle cx="958.637" cy="330.93" r="4" fill="#0" id="circle147"/>
	<circle cx="964.241" cy="183.345" r="4" fill="#0" id="circle148"/>
	<circle cx="967.977" cy="202.026" r="4" fill="#0" id="circle149"/>
	<circle cx="967.977" cy="220.708" r="4" fill="#0" id="circle150"/>
	<circle cx="967.977" cy="239.39" r="4" fill="#0" id="circle151"/>
	<circle cx="967.977" cy="258.072" r="4" fill="#0" id="circle152"/>
	<circle cx="967.977" cy="276.753" r="4" fill="#0" id="circle153"/>
	<circle cx="967.977" cy="347.744" r="4" fill="#0" id="circle154"/>
	<circle cx="967.977" cy="491.593" r="4" fill="#0" id="circle155"/>
	<circle cx="967.977" cy="510.275" r="4" fill="#0" id="circle156"/>
	<circle cx="977.318" cy="364.557" r="4" fill="#0" id="circle157"/>
	<circle cx="977.318" cy="435.548" r="4" fill="#0" id="circle158"/>
	<circle cx="977.318" cy="454.23" r="4" fill="#0" id="circle159"/>
	<circle cx="977.318" cy="472.911" r="4" fill="#0" id="circle160"/>
	<circle cx="990.395" cy="379.503" r="4" fill="#0" id="circle161"/>
	<circle cx="996" cy="398.185" r="4" fill="#0" id="circle162"/>
	<circle cx="996" cy="416.866" r="4" fill="#0" id="circle163"/>
	</g>
</svg>