<?xml version="1.0" encoding="UTF-8" standalone="no"?>
<!-- Created with CurveBenchmark -->
<svg
	xmlns:dc="http://purl.org/dc/elements/1.1/"
	xmlns:cc="http://creativecommons.org/ns#"
	xmlns:rdf="http://www.w3.org/1999/02/22-rdf-syntax-ns#"
	xmlns:svg="http://www.w3.org/2000/svg"
	xmlns="http://www.w3.org/2000/svg"
	xmlns:sodipodi="http://sodipodi.sourceforge.net/DTD/sodipodi-0.dtd"
	xmlns:inkscape="http://www.inkscape.org/namespaces/inkscape"
	width="1000"
	height="1000"
	id="svg2"
	version="1.1"
	sodipodi:docname="manifold/ccrust-cat24.png.txt">
<defs
	id="defs4" />
<metadata
	id="metadata7">
	<rdf:RDF>
		<cc:Work
			rdf:about="">
			<dc:format>image/svg+xml</dc:format>
			<dc:type
				rdf:resource="http://purl.org/dc/dcmitype/StillImage" />
			<dc:title></dc:title>
		</cc:Work>
	</rdf:RDF>
</metadata>
<g
	inkscape:label="Layer 1"
	inkscape:groupmode="layer"
	id="layer1">
	<path style="fill:none;stroke:red;stroke-width:1px;stroke-linecap:butt;stroke-linejoin:miter;stroke-opacity:1" d="M 72.8889,207.222 81.5,222.722 z" id="boundary" inkscape:connector-curvature="0" />
	<path style="fill:none;stroke:red;stroke-width:1px;stroke-linecap:butt;stroke-linejoin:miter;stroke-opacity:1" d="M 81.5,222.722 81.5,239.944 z" id="boundary" inkscape:connector-curvature="0" />
	<path style="fill:none;stroke:red;stroke-width:1px;stroke-linecap:butt;stroke-linejoin:miter;stroke-opacity:1" d="M 81.5,239.944 72.8889,267.5 z" id="boundary" inkscape:connector-curvature="0" />
	<path style="fill:none;stroke:red;stroke-width:1px;stroke-linecap:butt;stroke-linejoin:miter;stroke-opacity:1" d="M 31.5556,317.444 45.3333,305.389 z" id="boundary" inkscape:connector-curvature="0" />
	<path style="fill:none;stroke:red;stroke-width:1px;stroke-linecap:butt;stroke-linejoin:miter;stroke-opacity:1" d="M 57.3889,291.611 72.8889,267.5 z" id="boundary" inkscape:connector-curvature="0" />
	<path style="fill:none;stroke:red;stroke-width:1px;stroke-linecap:butt;stroke-linejoin:miter;stroke-opacity:1" d="M 57.3889,291.611 45.3333,305.389 z" id="boundary" inkscape:connector-curvature="0" />
	<path style="fill:none;stroke:red;stroke-width:1px;stroke-linecap:butt;stroke-linejoin:miter;stroke-opacity:1" d="M 31.5556,317.444 17.7778,331.222 z" id="boundary" inkscape:connector-curvature="0" />
	<path style="fill:none;stroke:red;stroke-width:1px;stroke-linecap:butt;stroke-linejoin:miter;stroke-opacity:1" d="M 112.5,219.278 98.7222,207.222 z" id="boundary" inkscape:connector-curvature="0" />
	<path style="fill:none;stroke:red;stroke-width:1px;stroke-linecap:butt;stroke-linejoin:miter;stroke-opacity:1" d="M 98.7222,207.222 86.6667,193.444 z" id="boundary" inkscape:connector-curvature="0" />
	<path style="fill:none;stroke:red;stroke-width:1px;stroke-linecap:butt;stroke-linejoin:miter;stroke-opacity:1" d="M 112.5,219.278 124.556,233.056 z" id="boundary" inkscape:connector-curvature="0" />
	<path style="fill:none;stroke:red;stroke-width:1px;stroke-linecap:butt;stroke-linejoin:miter;stroke-opacity:1" d="M 72.8889,207.222 86.6667,193.444 z" id="boundary" inkscape:connector-curvature="0" />
	<path style="fill:none;stroke:red;stroke-width:1px;stroke-linecap:butt;stroke-linejoin:miter;stroke-opacity:1" d="M 124.556,233.056 138.333,245.111 z" id="boundary" inkscape:connector-curvature="0" />
	<path style="fill:none;stroke:red;stroke-width:1px;stroke-linecap:butt;stroke-linejoin:miter;stroke-opacity:1" d="M 155.556,245.111 138.333,245.111 z" id="boundary" inkscape:connector-curvature="0" />
	<path style="fill:none;stroke:red;stroke-width:1px;stroke-linecap:butt;stroke-linejoin:miter;stroke-opacity:1" d="M 155.556,245.111 167.611,258.889 z" id="boundary" inkscape:connector-curvature="0" />
	<path style="fill:none;stroke:red;stroke-width:1px;stroke-linecap:butt;stroke-linejoin:miter;stroke-opacity:1" d="M 184.833,265.778 167.611,258.889 z" id="boundary" inkscape:connector-curvature="0" />
	<path style="fill:none;stroke:red;stroke-width:1px;stroke-linecap:butt;stroke-linejoin:miter;stroke-opacity:1" d="M 4,345 17.7778,331.222 z" id="boundary" inkscape:connector-curvature="0" />
	<path style="fill:none;stroke:red;stroke-width:1px;stroke-linecap:butt;stroke-linejoin:miter;stroke-opacity:1" d="M 4,362.222 4,345 z" id="boundary" inkscape:connector-curvature="0" />
	<path style="fill:none;stroke:red;stroke-width:1px;stroke-linecap:butt;stroke-linejoin:miter;stroke-opacity:1" d="M 12.6111,377.722 4,362.222 z" id="boundary" inkscape:connector-curvature="0" />
	<path style="fill:none;stroke:red;stroke-width:1px;stroke-linecap:butt;stroke-linejoin:miter;stroke-opacity:1" d="M 12.6111,377.722 21.2222,393.222 z" id="boundary" inkscape:connector-curvature="0" />
	<path style="fill:none;stroke:red;stroke-width:1px;stroke-linecap:butt;stroke-linejoin:miter;stroke-opacity:1" d="M 36.7222,401.833 21.2222,393.222 z" id="boundary" inkscape:connector-curvature="0" />
	<path style="fill:none;stroke:red;stroke-width:1px;stroke-linecap:butt;stroke-linejoin:miter;stroke-opacity:1" d="M 36.7222,401.833 52.2222,410.444 z" id="boundary" inkscape:connector-curvature="0" />
	<path style="fill:none;stroke:red;stroke-width:1px;stroke-linecap:butt;stroke-linejoin:miter;stroke-opacity:1" d="M 69.4444,410.444 52.2222,410.444 z" id="boundary" inkscape:connector-curvature="0" />
	<path style="fill:none;stroke:red;stroke-width:1px;stroke-linecap:butt;stroke-linejoin:miter;stroke-opacity:1" d="M 69.4444,410.444 86.6667,410.444 z" id="boundary" inkscape:connector-curvature="0" />
	<path style="fill:none;stroke:red;stroke-width:1px;stroke-linecap:butt;stroke-linejoin:miter;stroke-opacity:1" d="M 86.6667,410.444 102.167,419.056 z" id="boundary" inkscape:connector-curvature="0" />
	<path style="fill:none;stroke:red;stroke-width:1px;stroke-linecap:butt;stroke-linejoin:miter;stroke-opacity:1" d="M 102.167,419.056 117.667,427.667 z" id="boundary" inkscape:connector-curvature="0" />
	<path style="fill:none;stroke:red;stroke-width:1px;stroke-linecap:butt;stroke-linejoin:miter;stroke-opacity:1" d="M 143.5,450.056 133.167,436.278 z" id="boundary" inkscape:connector-curvature="0" />
	<path style="fill:none;stroke:red;stroke-width:1px;stroke-linecap:butt;stroke-linejoin:miter;stroke-opacity:1" d="M 157.278,462.111 143.5,450.056 z" id="boundary" inkscape:connector-curvature="0" />
	<path style="fill:none;stroke:red;stroke-width:1px;stroke-linecap:butt;stroke-linejoin:miter;stroke-opacity:1" d="M 157.278,462.111 164.167,479.333 z" id="boundary" inkscape:connector-curvature="0" />
	<path style="fill:none;stroke:red;stroke-width:1px;stroke-linecap:butt;stroke-linejoin:miter;stroke-opacity:1" d="M 117.667,427.667 133.167,436.278 z" id="boundary" inkscape:connector-curvature="0" />
	<path style="fill:none;stroke:red;stroke-width:1px;stroke-linecap:butt;stroke-linejoin:miter;stroke-opacity:1" d="M 164.167,479.333 167.611,496.556 z" id="boundary" inkscape:connector-curvature="0" />
	<path style="fill:none;stroke:red;stroke-width:1px;stroke-linecap:butt;stroke-linejoin:miter;stroke-opacity:1" d="M 212.389,284.722 195.167,279.556 z" id="boundary" inkscape:connector-curvature="0" />
	<path style="fill:none;stroke:red;stroke-width:1px;stroke-linecap:butt;stroke-linejoin:miter;stroke-opacity:1" d="M 195.167,279.556 184.833,265.778 z" id="boundary" inkscape:connector-curvature="0" />
	<path style="fill:none;stroke:red;stroke-width:1px;stroke-linecap:butt;stroke-linejoin:miter;stroke-opacity:1" d="M 212.389,284.722 224.444,298.5 z" id="boundary" inkscape:connector-curvature="0" />
	<path style="fill:none;stroke:red;stroke-width:1px;stroke-linecap:butt;stroke-linejoin:miter;stroke-opacity:1" d="M 224.444,298.5 238.222,310.556 z" id="boundary" inkscape:connector-curvature="0" />
	<path style="fill:none;stroke:red;stroke-width:1px;stroke-linecap:butt;stroke-linejoin:miter;stroke-opacity:1" d="M 255.444,314 238.222,310.556 z" id="boundary" inkscape:connector-curvature="0" />
	<path style="fill:none;stroke:red;stroke-width:1px;stroke-linecap:butt;stroke-linejoin:miter;stroke-opacity:1" d="M 255.444,314 270.944,322.611 z" id="boundary" inkscape:connector-curvature="0" />
	<path style="fill:none;stroke:red;stroke-width:1px;stroke-linecap:butt;stroke-linejoin:miter;stroke-opacity:1" d="M 288.167,322.611 270.944,322.611 z" id="boundary" inkscape:connector-curvature="0" />
	<path style="fill:none;stroke:red;stroke-width:1px;stroke-linecap:butt;stroke-linejoin:miter;stroke-opacity:1" d="M 305.389,326.056 288.167,322.611 z" id="boundary" inkscape:connector-curvature="0" />
	<path style="fill:none;stroke:red;stroke-width:1px;stroke-linecap:butt;stroke-linejoin:miter;stroke-opacity:1" d="M 472.444,322.611 489.667,322.611 z" id="boundary" inkscape:connector-curvature="0" />
	<path style="fill:none;stroke:red;stroke-width:1px;stroke-linecap:butt;stroke-linejoin:miter;stroke-opacity:1" d="M 472.444,322.611 455.222,324.333 z" id="boundary" inkscape:connector-curvature="0" />
	<path style="fill:none;stroke:red;stroke-width:1px;stroke-linecap:butt;stroke-linejoin:miter;stroke-opacity:1" d="M 489.667,322.611 506.889,322.611 z" id="boundary" inkscape:connector-curvature="0" />
	<path style="fill:none;stroke:red;stroke-width:1px;stroke-linecap:butt;stroke-linejoin:miter;stroke-opacity:1" d="M 524.111,322.611 541.333,322.611 z" id="boundary" inkscape:connector-curvature="0" />
	<path style="fill:none;stroke:red;stroke-width:1px;stroke-linecap:butt;stroke-linejoin:miter;stroke-opacity:1" d="M 524.111,322.611 506.889,322.611 z" id="boundary" inkscape:connector-curvature="0" />
	<path style="fill:none;stroke:red;stroke-width:1px;stroke-linecap:butt;stroke-linejoin:miter;stroke-opacity:1" d="M 558.556,322.611 541.333,322.611 z" id="boundary" inkscape:connector-curvature="0" />
	<path style="fill:none;stroke:red;stroke-width:1px;stroke-linecap:butt;stroke-linejoin:miter;stroke-opacity:1" d="M 339.833,331.222 322.611,331.222 z" id="boundary" inkscape:connector-curvature="0" />
	<path style="fill:none;stroke:red;stroke-width:1px;stroke-linecap:butt;stroke-linejoin:miter;stroke-opacity:1" d="M 322.611,331.222 305.389,326.056 z" id="boundary" inkscape:connector-curvature="0" />
	<path style="fill:none;stroke:red;stroke-width:1px;stroke-linecap:butt;stroke-linejoin:miter;stroke-opacity:1" d="M 167.611,496.556 176.222,512.056 z" id="boundary" inkscape:connector-curvature="0" />
	<path style="fill:none;stroke:red;stroke-width:1px;stroke-linecap:butt;stroke-linejoin:miter;stroke-opacity:1" d="M 184.833,527.556 193.444,543.056 z" id="boundary" inkscape:connector-curvature="0" />
	<path style="fill:none;stroke:red;stroke-width:1px;stroke-linecap:butt;stroke-linejoin:miter;stroke-opacity:1" d="M 184.833,527.556 176.222,512.056 z" id="boundary" inkscape:connector-curvature="0" />
	<path style="fill:none;stroke:red;stroke-width:1px;stroke-linecap:butt;stroke-linejoin:miter;stroke-opacity:1" d="M 339.833,331.222 355.333,339.833 z" id="boundary" inkscape:connector-curvature="0" />
	<path style="fill:none;stroke:red;stroke-width:1px;stroke-linecap:butt;stroke-linejoin:miter;stroke-opacity:1" d="M 422.5,322.611 405.278,331.222 z" id="boundary" inkscape:connector-curvature="0" />
	<path style="fill:none;stroke:red;stroke-width:1px;stroke-linecap:butt;stroke-linejoin:miter;stroke-opacity:1" d="M 405.278,331.222 388.056,331.222 z" id="boundary" inkscape:connector-curvature="0" />
	<path style="fill:none;stroke:red;stroke-width:1px;stroke-linecap:butt;stroke-linejoin:miter;stroke-opacity:1" d="M 438,331.222 455.222,324.333 z" id="boundary" inkscape:connector-curvature="0" />
	<path style="fill:none;stroke:red;stroke-width:1px;stroke-linecap:butt;stroke-linejoin:miter;stroke-opacity:1" d="M 575.778,322.611 558.556,322.611 z" id="boundary" inkscape:connector-curvature="0" />
	<path style="fill:none;stroke:red;stroke-width:1px;stroke-linecap:butt;stroke-linejoin:miter;stroke-opacity:1" d="M 438,331.222 422.5,322.611 z" id="boundary" inkscape:connector-curvature="0" />
	<path style="fill:none;stroke:red;stroke-width:1px;stroke-linecap:butt;stroke-linejoin:miter;stroke-opacity:1" d="M 388.056,331.222 372.556,339.833 z" id="boundary" inkscape:connector-curvature="0" />
	<path style="fill:none;stroke:red;stroke-width:1px;stroke-linecap:butt;stroke-linejoin:miter;stroke-opacity:1" d="M 372.556,339.833 355.333,339.833 z" id="boundary" inkscape:connector-curvature="0" />
	<path style="fill:none;stroke:red;stroke-width:1px;stroke-linecap:butt;stroke-linejoin:miter;stroke-opacity:1" d="M 575.778,322.611 593,322.611 z" id="boundary" inkscape:connector-curvature="0" />
	<path style="fill:none;stroke:red;stroke-width:1px;stroke-linecap:butt;stroke-linejoin:miter;stroke-opacity:1" d="M 193.444,543.056 202.056,558.556 z" id="boundary" inkscape:connector-curvature="0" />
	<path style="fill:none;stroke:red;stroke-width:1px;stroke-linecap:butt;stroke-linejoin:miter;stroke-opacity:1" d="M 202.056,558.556 214.111,572.333 z" id="boundary" inkscape:connector-curvature="0" />
	<path style="fill:none;stroke:red;stroke-width:1px;stroke-linecap:butt;stroke-linejoin:miter;stroke-opacity:1" d="M 214.111,572.333 222.722,587.833 z" id="boundary" inkscape:connector-curvature="0" />
	<path style="fill:none;stroke:red;stroke-width:1px;stroke-linecap:butt;stroke-linejoin:miter;stroke-opacity:1" d="M 236.5,599.889 222.722,587.833 z" id="boundary" inkscape:connector-curvature="0" />
	<path style="fill:none;stroke:red;stroke-width:1px;stroke-linecap:butt;stroke-linejoin:miter;stroke-opacity:1" d="M 236.5,599.889 246.833,613.667 z" id="boundary" inkscape:connector-curvature="0" />
	<path style="fill:none;stroke:red;stroke-width:1px;stroke-linecap:butt;stroke-linejoin:miter;stroke-opacity:1" d="M 260.611,625.722 246.833,613.667 z" id="boundary" inkscape:connector-curvature="0" />
	<path style="fill:none;stroke:red;stroke-width:1px;stroke-linecap:butt;stroke-linejoin:miter;stroke-opacity:1" d="M 272.667,639.5 260.611,625.722 z" id="boundary" inkscape:connector-curvature="0" />
	<path style="fill:none;stroke:red;stroke-width:1px;stroke-linecap:butt;stroke-linejoin:miter;stroke-opacity:1" d="M 279.556,656.722 279.556,673.944 z" id="boundary" inkscape:connector-curvature="0" />
	<path style="fill:none;stroke:red;stroke-width:1px;stroke-linecap:butt;stroke-linejoin:miter;stroke-opacity:1" d="M 272.667,639.5 279.556,656.722 z" id="boundary" inkscape:connector-curvature="0" />
	<path style="fill:none;stroke:red;stroke-width:1px;stroke-linecap:butt;stroke-linejoin:miter;stroke-opacity:1" d="M 281.278,708.389 279.556,691.167 z" id="boundary" inkscape:connector-curvature="0" />
	<path style="fill:none;stroke:red;stroke-width:1px;stroke-linecap:butt;stroke-linejoin:miter;stroke-opacity:1" d="M 281.278,708.389 279.556,732.5 z" id="boundary" inkscape:connector-curvature="0" />
	<path style="fill:none;stroke:red;stroke-width:1px;stroke-linecap:butt;stroke-linejoin:miter;stroke-opacity:1" d="M 279.556,691.167 279.556,673.944 z" id="boundary" inkscape:connector-curvature="0" />
	<path style="fill:none;stroke:red;stroke-width:1px;stroke-linecap:butt;stroke-linejoin:miter;stroke-opacity:1" d="M 279.556,766.944 279.556,749.722 z" id="boundary" inkscape:connector-curvature="0" />
	<path style="fill:none;stroke:red;stroke-width:1px;stroke-linecap:butt;stroke-linejoin:miter;stroke-opacity:1" d="M 279.556,784.167 279.556,766.944 z" id="boundary" inkscape:connector-curvature="0" />
	<path style="fill:none;stroke:red;stroke-width:1px;stroke-linecap:butt;stroke-linejoin:miter;stroke-opacity:1" d="M 279.556,732.5 279.556,749.722 z" id="boundary" inkscape:connector-curvature="0" />
	<path style="fill:none;stroke:red;stroke-width:1px;stroke-linecap:butt;stroke-linejoin:miter;stroke-opacity:1" d="M 279.556,801.389 267.5,830.667 z" id="boundary" inkscape:connector-curvature="0" />
	<path style="fill:none;stroke:red;stroke-width:1px;stroke-linecap:butt;stroke-linejoin:miter;stroke-opacity:1" d="M 267.5,830.667 250.278,839.278 z" id="boundary" inkscape:connector-curvature="0" />
	<path style="fill:none;stroke:red;stroke-width:1px;stroke-linecap:butt;stroke-linejoin:miter;stroke-opacity:1" d="M 250.278,839.278 236.5,853.056 z" id="boundary" inkscape:connector-curvature="0" />
	<path style="fill:none;stroke:red;stroke-width:1px;stroke-linecap:butt;stroke-linejoin:miter;stroke-opacity:1" d="M 245.111,868.556 236.5,853.056 z" id="boundary" inkscape:connector-curvature="0" />
	<path style="fill:none;stroke:red;stroke-width:1px;stroke-linecap:butt;stroke-linejoin:miter;stroke-opacity:1" d="M 262.333,875.444 279.556,875.444 z" id="boundary" inkscape:connector-curvature="0" />
	<path style="fill:none;stroke:red;stroke-width:1px;stroke-linecap:butt;stroke-linejoin:miter;stroke-opacity:1" d="M 262.333,875.444 245.111,868.556 z" id="boundary" inkscape:connector-curvature="0" />
	<path style="fill:none;stroke:red;stroke-width:1px;stroke-linecap:butt;stroke-linejoin:miter;stroke-opacity:1" d="M 279.556,784.167 279.556,801.389 z" id="boundary" inkscape:connector-curvature="0" />
	<path style="fill:none;stroke:red;stroke-width:1px;stroke-linecap:butt;stroke-linejoin:miter;stroke-opacity:1" d="M 324.333,832.389 324.333,849.611 z" id="boundary" inkscape:connector-curvature="0" />
	<path style="fill:none;stroke:red;stroke-width:1px;stroke-linecap:butt;stroke-linejoin:miter;stroke-opacity:1" d="M 324.333,849.611 310.556,865.111 z" id="boundary" inkscape:connector-curvature="0" />
	<path style="fill:none;stroke:red;stroke-width:1px;stroke-linecap:butt;stroke-linejoin:miter;stroke-opacity:1" d="M 348.444,878.889 331.222,887.5 z" id="boundary" inkscape:connector-curvature="0" />
	<path style="fill:none;stroke:red;stroke-width:1px;stroke-linecap:butt;stroke-linejoin:miter;stroke-opacity:1" d="M 332.944,815.167 324.333,832.389 z" id="boundary" inkscape:connector-curvature="0" />
	<path style="fill:none;stroke:red;stroke-width:1px;stroke-linecap:butt;stroke-linejoin:miter;stroke-opacity:1" d="M 296.778,875.444 310.556,865.111 z" id="boundary" inkscape:connector-curvature="0" />
	<path style="fill:none;stroke:red;stroke-width:1px;stroke-linecap:butt;stroke-linejoin:miter;stroke-opacity:1" d="M 310.556,865.111 331.222,887.5 z" id="boundary" inkscape:connector-curvature="0" />
	<path style="fill:none;stroke:red;stroke-width:1px;stroke-linecap:butt;stroke-linejoin:miter;stroke-opacity:1" d="M 296.778,875.444 279.556,875.444 z" id="boundary" inkscape:connector-curvature="0" />
	<path style="fill:none;stroke:red;stroke-width:1px;stroke-linecap:butt;stroke-linejoin:miter;stroke-opacity:1" d="M 331.222,887.5 339.833,903 z" id="boundary" inkscape:connector-curvature="0" />
	<path style="fill:none;stroke:red;stroke-width:1px;stroke-linecap:butt;stroke-linejoin:miter;stroke-opacity:1" d="M 332.944,815.167 341.556,789.333 z" id="boundary" inkscape:connector-curvature="0" />
	<path style="fill:none;stroke:red;stroke-width:1px;stroke-linecap:butt;stroke-linejoin:miter;stroke-opacity:1" d="M 339.833,903 357.056,909.889 z" id="boundary" inkscape:connector-curvature="0" />
	<path style="fill:none;stroke:red;stroke-width:1px;stroke-linecap:butt;stroke-linejoin:miter;stroke-opacity:1" d="M 453.5,668.778 453.5,694.611 z" id="boundary" inkscape:connector-curvature="0" />
	<path style="fill:none;stroke:red;stroke-width:1px;stroke-linecap:butt;stroke-linejoin:miter;stroke-opacity:1" d="M 453.5,694.611 444.889,711.833 z" id="boundary" inkscape:connector-curvature="0" />
	<path style="fill:none;stroke:red;stroke-width:1px;stroke-linecap:butt;stroke-linejoin:miter;stroke-opacity:1" d="M 453.5,668.778 467.278,656.722 z" id="boundary" inkscape:connector-curvature="0" />
	<path style="fill:none;stroke:red;stroke-width:1px;stroke-linecap:butt;stroke-linejoin:miter;stroke-opacity:1" d="M 444.889,729.056 444.889,711.833 z" id="boundary" inkscape:connector-curvature="0" />
	<path style="fill:none;stroke:red;stroke-width:1px;stroke-linecap:butt;stroke-linejoin:miter;stroke-opacity:1" d="M 360.5,785.889 350.167,772.111 z" id="boundary" inkscape:connector-curvature="0" />
	<path style="fill:none;stroke:red;stroke-width:1px;stroke-linecap:butt;stroke-linejoin:miter;stroke-opacity:1" d="M 444.889,729.056 436.278,754.889 z" id="boundary" inkscape:connector-curvature="0" />
	<path style="fill:none;stroke:red;stroke-width:1px;stroke-linecap:butt;stroke-linejoin:miter;stroke-opacity:1" d="M 436.278,772.111 436.278,754.889 z" id="boundary" inkscape:connector-curvature="0" />
	<path style="fill:none;stroke:red;stroke-width:1px;stroke-linecap:butt;stroke-linejoin:miter;stroke-opacity:1" d="M 484.5,651.556 501.722,651.556 z" id="boundary" inkscape:connector-curvature="0" />
	<path style="fill:none;stroke:red;stroke-width:1px;stroke-linecap:butt;stroke-linejoin:miter;stroke-opacity:1" d="M 484.5,651.556 467.278,656.722 z" id="boundary" inkscape:connector-curvature="0" />
	<path style="fill:none;stroke:red;stroke-width:1px;stroke-linecap:butt;stroke-linejoin:miter;stroke-opacity:1" d="M 501.722,651.556 518.944,651.556 z" id="boundary" inkscape:connector-curvature="0" />
	<path style="fill:none;stroke:red;stroke-width:1px;stroke-linecap:butt;stroke-linejoin:miter;stroke-opacity:1" d="M 518.944,651.556 534.444,660.167 z" id="boundary" inkscape:connector-curvature="0" />
	<path style="fill:none;stroke:red;stroke-width:1px;stroke-linecap:butt;stroke-linejoin:miter;stroke-opacity:1" d="M 534.444,660.167 551.667,667.056 z" id="boundary" inkscape:connector-curvature="0" />
	<path style="fill:none;stroke:red;stroke-width:1px;stroke-linecap:butt;stroke-linejoin:miter;stroke-opacity:1" d="M 568.889,668.778 551.667,667.056 z" id="boundary" inkscape:connector-curvature="0" />
	<path style="fill:none;stroke:red;stroke-width:1px;stroke-linecap:butt;stroke-linejoin:miter;stroke-opacity:1" d="M 436.278,789.333 436.278,772.111 z" id="boundary" inkscape:connector-curvature="0" />
	<path style="fill:none;stroke:red;stroke-width:1px;stroke-linecap:butt;stroke-linejoin:miter;stroke-opacity:1" d="M 586.111,668.778 568.889,668.778 z" id="boundary" inkscape:connector-curvature="0" />
	<path style="fill:none;stroke:red;stroke-width:1px;stroke-linecap:butt;stroke-linejoin:miter;stroke-opacity:1" d="M 365.667,803.111 365.667,820.333 z" id="boundary" inkscape:connector-curvature="0" />
	<path style="fill:none;stroke:red;stroke-width:1px;stroke-linecap:butt;stroke-linejoin:miter;stroke-opacity:1" d="M 365.667,803.111 360.5,785.889 z" id="boundary" inkscape:connector-curvature="0" />
	<path style="fill:none;stroke:red;stroke-width:1px;stroke-linecap:butt;stroke-linejoin:miter;stroke-opacity:1" d="M 365.667,820.333 365.667,837.556 z" id="boundary" inkscape:connector-curvature="0" />
	<path style="fill:none;stroke:red;stroke-width:1px;stroke-linecap:butt;stroke-linejoin:miter;stroke-opacity:1" d="M 374.278,909.889 357.056,909.889 z" id="boundary" inkscape:connector-curvature="0" />
	<path style="fill:none;stroke:red;stroke-width:1px;stroke-linecap:butt;stroke-linejoin:miter;stroke-opacity:1" d="M 348.444,878.889 362.222,865.111 z" id="boundary" inkscape:connector-curvature="0" />
	<path style="fill:none;stroke:red;stroke-width:1px;stroke-linecap:butt;stroke-linejoin:miter;stroke-opacity:1" d="M 365.667,837.556 362.222,865.111 z" id="boundary" inkscape:connector-curvature="0" />
	<path style="fill:none;stroke:red;stroke-width:1px;stroke-linecap:butt;stroke-linejoin:miter;stroke-opacity:1" d="M 427.667,849.611 419.056,875.444 z" id="boundary" inkscape:connector-curvature="0" />
	<path style="fill:none;stroke:red;stroke-width:1px;stroke-linecap:butt;stroke-linejoin:miter;stroke-opacity:1" d="M 427.667,849.611 427.667,832.389 z" id="boundary" inkscape:connector-curvature="0" />
	<path style="fill:none;stroke:red;stroke-width:1px;stroke-linecap:butt;stroke-linejoin:miter;stroke-opacity:1" d="M 427.667,832.389 436.278,806.556 z" id="boundary" inkscape:connector-curvature="0" />
	<path style="fill:none;stroke:red;stroke-width:1px;stroke-linecap:butt;stroke-linejoin:miter;stroke-opacity:1" d="M 436.278,806.556 436.278,789.333 z" id="boundary" inkscape:connector-curvature="0" />
	<path style="fill:none;stroke:red;stroke-width:1px;stroke-linecap:butt;stroke-linejoin:miter;stroke-opacity:1" d="M 391.5,909.889 374.278,909.889 z" id="boundary" inkscape:connector-curvature="0" />
	<path style="fill:none;stroke:red;stroke-width:1px;stroke-linecap:butt;stroke-linejoin:miter;stroke-opacity:1" d="M 408.722,904.722 419.056,875.444 z" id="boundary" inkscape:connector-curvature="0" />
	<path style="fill:none;stroke:red;stroke-width:1px;stroke-linecap:butt;stroke-linejoin:miter;stroke-opacity:1" d="M 408.722,904.722 391.5,909.889 z" id="boundary" inkscape:connector-curvature="0" />
	<path style="fill:none;stroke:red;stroke-width:1px;stroke-linecap:butt;stroke-linejoin:miter;stroke-opacity:1" d="M 586.111,668.778 603.333,675.667 z" id="boundary" inkscape:connector-curvature="0" />
	<path style="fill:none;stroke:red;stroke-width:1px;stroke-linecap:butt;stroke-linejoin:miter;stroke-opacity:1" d="M 593,322.611 610.222,322.611 z" id="boundary" inkscape:connector-curvature="0" />
	<path style="fill:none;stroke:red;stroke-width:1px;stroke-linecap:butt;stroke-linejoin:miter;stroke-opacity:1" d="M 847.889,60.8333 847.889,78.0556 z" id="boundary" inkscape:connector-curvature="0" />
	<path style="fill:none;stroke:red;stroke-width:1px;stroke-linecap:butt;stroke-linejoin:miter;stroke-opacity:1" d="M 847.889,60.8333 847.889,43.6111 z" id="boundary" inkscape:connector-curvature="0" />
	<path style="fill:none;stroke:red;stroke-width:1px;stroke-linecap:butt;stroke-linejoin:miter;stroke-opacity:1" d="M 820.333,270.944 830.667,250.278 z" id="boundary" inkscape:connector-curvature="0" />
	<path style="fill:none;stroke:red;stroke-width:1px;stroke-linecap:butt;stroke-linejoin:miter;stroke-opacity:1" d="M 830.667,250.278 844.444,236.5 z" id="boundary" inkscape:connector-curvature="0" />
	<path style="fill:none;stroke:red;stroke-width:1px;stroke-linecap:butt;stroke-linejoin:miter;stroke-opacity:1" d="M 853.056,219.278 844.444,236.5 z" id="boundary" inkscape:connector-curvature="0" />
	<path style="fill:none;stroke:red;stroke-width:1px;stroke-linecap:butt;stroke-linejoin:miter;stroke-opacity:1" d="M 847.889,78.0556 847.889,95.2778 z" id="boundary" inkscape:connector-curvature="0" />
	<path style="fill:none;stroke:red;stroke-width:1px;stroke-linecap:butt;stroke-linejoin:miter;stroke-opacity:1" d="M 806.556,283 820.333,270.944 z" id="boundary" inkscape:connector-curvature="0" />
	<path style="fill:none;stroke:red;stroke-width:1px;stroke-linecap:butt;stroke-linejoin:miter;stroke-opacity:1" d="M 856.5,110.778 847.889,95.2778 z" id="boundary" inkscape:connector-curvature="0" />
	<path style="fill:none;stroke:red;stroke-width:1px;stroke-linecap:butt;stroke-linejoin:miter;stroke-opacity:1" d="M 865.111,126.278 856.5,110.778 z" id="boundary" inkscape:connector-curvature="0" />
	<path style="fill:none;stroke:red;stroke-width:1px;stroke-linecap:butt;stroke-linejoin:miter;stroke-opacity:1" d="M 865.111,126.278 865.111,143.5 z" id="boundary" inkscape:connector-curvature="0" />
	<path style="fill:none;stroke:red;stroke-width:1px;stroke-linecap:butt;stroke-linejoin:miter;stroke-opacity:1" d="M 865.111,160.722 865.111,143.5 z" id="boundary" inkscape:connector-curvature="0" />
	<path style="fill:none;stroke:red;stroke-width:1px;stroke-linecap:butt;stroke-linejoin:miter;stroke-opacity:1" d="M 847.889,43.6111 856.5,26.3889 z" id="boundary" inkscape:connector-curvature="0" />
	<path style="fill:none;stroke:red;stroke-width:1px;stroke-linecap:butt;stroke-linejoin:miter;stroke-opacity:1" d="M 853.056,219.278 856.5,198.611 z" id="boundary" inkscape:connector-curvature="0" />
	<path style="fill:none;stroke:red;stroke-width:1px;stroke-linecap:butt;stroke-linejoin:miter;stroke-opacity:1" d="M 865.111,160.722 865.111,177.944 z" id="boundary" inkscape:connector-curvature="0" />
	<path style="fill:none;stroke:red;stroke-width:1px;stroke-linecap:butt;stroke-linejoin:miter;stroke-opacity:1" d="M 865.111,177.944 856.5,198.611 z" id="boundary" inkscape:connector-curvature="0" />
	<path style="fill:none;stroke:red;stroke-width:1px;stroke-linecap:butt;stroke-linejoin:miter;stroke-opacity:1" d="M 627.444,322.611 610.222,322.611 z" id="boundary" inkscape:connector-curvature="0" />
	<path style="fill:none;stroke:red;stroke-width:1px;stroke-linecap:butt;stroke-linejoin:miter;stroke-opacity:1" d="M 644.667,322.611 627.444,322.611 z" id="boundary" inkscape:connector-curvature="0" />
	<path style="fill:none;stroke:red;stroke-width:1px;stroke-linecap:butt;stroke-linejoin:miter;stroke-opacity:1" d="M 661.889,322.611 677.389,331.222 z" id="boundary" inkscape:connector-curvature="0" />
	<path style="fill:none;stroke:red;stroke-width:1px;stroke-linecap:butt;stroke-linejoin:miter;stroke-opacity:1" d="M 644.667,322.611 661.889,322.611 z" id="boundary" inkscape:connector-curvature="0" />
	<path style="fill:none;stroke:red;stroke-width:1px;stroke-linecap:butt;stroke-linejoin:miter;stroke-opacity:1" d="M 694.611,331.222 677.389,331.222 z" id="boundary" inkscape:connector-curvature="0" />
	<path style="fill:none;stroke:red;stroke-width:1px;stroke-linecap:butt;stroke-linejoin:miter;stroke-opacity:1" d="M 694.611,331.222 711.833,331.222 z" id="boundary" inkscape:connector-curvature="0" />
	<path style="fill:none;stroke:red;stroke-width:1px;stroke-linecap:butt;stroke-linejoin:miter;stroke-opacity:1" d="M 761.778,319.167 779,310.556 z" id="boundary" inkscape:connector-curvature="0" />
	<path style="fill:none;stroke:red;stroke-width:1px;stroke-linecap:butt;stroke-linejoin:miter;stroke-opacity:1" d="M 792.778,296.778 779,310.556 z" id="boundary" inkscape:connector-curvature="0" />
	<path style="fill:none;stroke:red;stroke-width:1px;stroke-linecap:butt;stroke-linejoin:miter;stroke-opacity:1" d="M 880.611,389.778 866.833,401.833 z" id="boundary" inkscape:connector-curvature="0" />
	<path style="fill:none;stroke:red;stroke-width:1px;stroke-linecap:butt;stroke-linejoin:miter;stroke-opacity:1" d="M 729.056,331.222 711.833,331.222 z" id="boundary" inkscape:connector-curvature="0" />
	<path style="fill:none;stroke:red;stroke-width:1px;stroke-linecap:butt;stroke-linejoin:miter;stroke-opacity:1" d="M 729.056,331.222 746.278,331.222 z" id="boundary" inkscape:connector-curvature="0" />
	<path style="fill:none;stroke:red;stroke-width:1px;stroke-linecap:butt;stroke-linejoin:miter;stroke-opacity:1" d="M 761.778,319.167 746.278,331.222 z" id="boundary" inkscape:connector-curvature="0" />
	<path style="fill:none;stroke:red;stroke-width:1px;stroke-linecap:butt;stroke-linejoin:miter;stroke-opacity:1" d="M 866.833,401.833 866.833,419.056 z" id="boundary" inkscape:connector-curvature="0" />
	<path style="fill:none;stroke:red;stroke-width:1px;stroke-linecap:butt;stroke-linejoin:miter;stroke-opacity:1" d="M 792.778,296.778 806.556,283 z" id="boundary" inkscape:connector-curvature="0" />
	<path style="fill:none;stroke:red;stroke-width:1px;stroke-linecap:butt;stroke-linejoin:miter;stroke-opacity:1" d="M 866.833,419.056 866.833,436.278 z" id="boundary" inkscape:connector-curvature="0" />
	<path style="fill:none;stroke:red;stroke-width:1px;stroke-linecap:butt;stroke-linejoin:miter;stroke-opacity:1" d="M 870.278,12.6111 885.778,4 z" id="boundary" inkscape:connector-curvature="0" />
	<path style="fill:none;stroke:red;stroke-width:1px;stroke-linecap:butt;stroke-linejoin:miter;stroke-opacity:1" d="M 885.778,4 899.556,16.0556 z" id="boundary" inkscape:connector-curvature="0" />
	<path style="fill:none;stroke:red;stroke-width:1px;stroke-linecap:butt;stroke-linejoin:miter;stroke-opacity:1" d="M 899.556,16.0556 909.889,29.8333 z" id="boundary" inkscape:connector-curvature="0" />
	<path style="fill:none;stroke:red;stroke-width:1px;stroke-linecap:butt;stroke-linejoin:miter;stroke-opacity:1" d="M 923.667,40.1667 935.722,53.9444 z" id="boundary" inkscape:connector-curvature="0" />
	<path style="fill:none;stroke:red;stroke-width:1px;stroke-linecap:butt;stroke-linejoin:miter;stroke-opacity:1" d="M 923.667,40.1667 909.889,29.8333 z" id="boundary" inkscape:connector-curvature="0" />
	<path style="fill:none;stroke:red;stroke-width:1px;stroke-linecap:butt;stroke-linejoin:miter;stroke-opacity:1" d="M 935.722,53.9444 949.5,66 z" id="boundary" inkscape:connector-curvature="0" />
	<path style="fill:none;stroke:red;stroke-width:1px;stroke-linecap:butt;stroke-linejoin:miter;stroke-opacity:1" d="M 949.5,66 961.556,79.7778 z" id="boundary" inkscape:connector-curvature="0" />
	<path style="fill:none;stroke:red;stroke-width:1px;stroke-linecap:butt;stroke-linejoin:miter;stroke-opacity:1" d="M 961.556,79.7778 975.333,91.8333 z" id="boundary" inkscape:connector-curvature="0" />
	<path style="fill:none;stroke:red;stroke-width:1px;stroke-linecap:butt;stroke-linejoin:miter;stroke-opacity:1" d="M 975.333,91.8333 978.778,109.056 z" id="boundary" inkscape:connector-curvature="0" />
	<path style="fill:none;stroke:red;stroke-width:1px;stroke-linecap:butt;stroke-linejoin:miter;stroke-opacity:1" d="M 987.389,124.556 978.778,109.056 z" id="boundary" inkscape:connector-curvature="0" />
	<path style="fill:none;stroke:red;stroke-width:1px;stroke-linecap:butt;stroke-linejoin:miter;stroke-opacity:1" d="M 987.389,124.556 987.389,141.778 z" id="boundary" inkscape:connector-curvature="0" />
	<path style="fill:none;stroke:red;stroke-width:1px;stroke-linecap:butt;stroke-linejoin:miter;stroke-opacity:1" d="M 987.389,141.778 987.389,159 z" id="boundary" inkscape:connector-curvature="0" />
	<path style="fill:none;stroke:red;stroke-width:1px;stroke-linecap:butt;stroke-linejoin:miter;stroke-opacity:1" d="M 996,174.5 987.389,159 z" id="boundary" inkscape:connector-curvature="0" />
	<path style="fill:none;stroke:red;stroke-width:1px;stroke-linecap:butt;stroke-linejoin:miter;stroke-opacity:1" d="M 987.389,203.778 996,174.5 z" id="boundary" inkscape:connector-curvature="0" />
	<path style="fill:none;stroke:red;stroke-width:1px;stroke-linecap:butt;stroke-linejoin:miter;stroke-opacity:1" d="M 990.833,221 987.389,203.778 z" id="boundary" inkscape:connector-curvature="0" />
	<path style="fill:none;stroke:red;stroke-width:1px;stroke-linecap:butt;stroke-linejoin:miter;stroke-opacity:1" d="M 909.889,367.389 892.667,376 z" id="boundary" inkscape:connector-curvature="0" />
	<path style="fill:none;stroke:red;stroke-width:1px;stroke-linecap:butt;stroke-linejoin:miter;stroke-opacity:1" d="M 923.667,355.333 909.889,367.389 z" id="boundary" inkscape:connector-curvature="0" />
	<path style="fill:none;stroke:red;stroke-width:1px;stroke-linecap:butt;stroke-linejoin:miter;stroke-opacity:1" d="M 880.611,389.778 892.667,376 z" id="boundary" inkscape:connector-curvature="0" />
	<path style="fill:none;stroke:red;stroke-width:1px;stroke-linecap:butt;stroke-linejoin:miter;stroke-opacity:1" d="M 866.833,436.278 866.833,453.5 z" id="boundary" inkscape:connector-curvature="0" />
	<path style="fill:none;stroke:red;stroke-width:1px;stroke-linecap:butt;stroke-linejoin:miter;stroke-opacity:1" d="M 866.833,470.722 866.833,453.5 z" id="boundary" inkscape:connector-curvature="0" />
	<path style="fill:none;stroke:red;stroke-width:1px;stroke-linecap:butt;stroke-linejoin:miter;stroke-opacity:1" d="M 987.389,255.444 987.389,272.667 z" id="boundary" inkscape:connector-curvature="0" />
	<path style="fill:none;stroke:red;stroke-width:1px;stroke-linecap:butt;stroke-linejoin:miter;stroke-opacity:1" d="M 987.389,272.667 978.778,289.889 z" id="boundary" inkscape:connector-curvature="0" />
	<path style="fill:none;stroke:red;stroke-width:1px;stroke-linecap:butt;stroke-linejoin:miter;stroke-opacity:1" d="M 987.389,255.444 996,238.222 z" id="boundary" inkscape:connector-curvature="0" />
	<path style="fill:none;stroke:red;stroke-width:1px;stroke-linecap:butt;stroke-linejoin:miter;stroke-opacity:1" d="M 990.833,221 996,238.222 z" id="boundary" inkscape:connector-curvature="0" />
	<path style="fill:none;stroke:red;stroke-width:1px;stroke-linecap:butt;stroke-linejoin:miter;stroke-opacity:1" d="M 935.722,341.556 949.5,329.5 z" id="boundary" inkscape:connector-curvature="0" />
	<path style="fill:none;stroke:red;stroke-width:1px;stroke-linecap:butt;stroke-linejoin:miter;stroke-opacity:1" d="M 923.667,355.333 935.722,341.556 z" id="boundary" inkscape:connector-curvature="0" />
	<path style="fill:none;stroke:red;stroke-width:1px;stroke-linecap:butt;stroke-linejoin:miter;stroke-opacity:1" d="M 961.556,307.111 949.5,329.5 z" id="boundary" inkscape:connector-curvature="0" />
	<path style="fill:none;stroke:red;stroke-width:1px;stroke-linecap:butt;stroke-linejoin:miter;stroke-opacity:1" d="M 961.556,307.111 978.778,289.889 z" id="boundary" inkscape:connector-curvature="0" />
	<path style="fill:none;stroke:red;stroke-width:1px;stroke-linecap:butt;stroke-linejoin:miter;stroke-opacity:1" d="M 856.5,26.3889 870.278,12.6111 z" id="boundary" inkscape:connector-curvature="0" />
	<path style="fill:none;stroke:red;stroke-width:1px;stroke-linecap:butt;stroke-linejoin:miter;stroke-opacity:1" d="M 866.833,470.722 858.222,496.556 z" id="boundary" inkscape:connector-curvature="0" />
	<path style="fill:none;stroke:red;stroke-width:1px;stroke-linecap:butt;stroke-linejoin:miter;stroke-opacity:1" d="M 632.611,677.389 617.111,686 z" id="boundary" inkscape:connector-curvature="0" />
	<path style="fill:none;stroke:red;stroke-width:1px;stroke-linecap:butt;stroke-linejoin:miter;stroke-opacity:1" d="M 617.111,686 603.333,675.667 z" id="boundary" inkscape:connector-curvature="0" />
	<path style="fill:none;stroke:red;stroke-width:1px;stroke-linecap:butt;stroke-linejoin:miter;stroke-opacity:1" d="M 632.611,677.389 648.111,686 z" id="boundary" inkscape:connector-curvature="0" />
	<path style="fill:none;stroke:red;stroke-width:1px;stroke-linecap:butt;stroke-linejoin:miter;stroke-opacity:1" d="M 648.111,686 665.333,686 z" id="boundary" inkscape:connector-curvature="0" />
	<path style="fill:none;stroke:red;stroke-width:1px;stroke-linecap:butt;stroke-linejoin:miter;stroke-opacity:1" d="M 665.333,686 680.833,694.611 z" id="boundary" inkscape:connector-curvature="0" />
	<path style="fill:none;stroke:red;stroke-width:1px;stroke-linecap:butt;stroke-linejoin:miter;stroke-opacity:1" d="M 698.056,701.5 680.833,694.611 z" id="boundary" inkscape:connector-curvature="0" />
	<path style="fill:none;stroke:red;stroke-width:1px;stroke-linecap:butt;stroke-linejoin:miter;stroke-opacity:1" d="M 701.5,718.722 698.056,701.5 z" id="boundary" inkscape:connector-curvature="0" />
	<path style="fill:none;stroke:red;stroke-width:1px;stroke-linecap:butt;stroke-linejoin:miter;stroke-opacity:1" d="M 710.111,734.222 701.5,718.722 z" id="boundary" inkscape:connector-curvature="0" />
	<path style="fill:none;stroke:red;stroke-width:1px;stroke-linecap:butt;stroke-linejoin:miter;stroke-opacity:1" d="M 710.111,734.222 710.111,751.444 z" id="boundary" inkscape:connector-curvature="0" />
	<path style="fill:none;stroke:red;stroke-width:1px;stroke-linecap:butt;stroke-linejoin:miter;stroke-opacity:1" d="M 710.111,751.444 701.5,766.944 z" id="boundary" inkscape:connector-curvature="0" />
	<path style="fill:none;stroke:red;stroke-width:1px;stroke-linecap:butt;stroke-linejoin:miter;stroke-opacity:1" d="M 699.778,787.611 701.5,766.944 z" id="boundary" inkscape:connector-curvature="0" />
	<path style="fill:none;stroke:red;stroke-width:1px;stroke-linecap:butt;stroke-linejoin:miter;stroke-opacity:1" d="M 699.778,787.611 686,799.667 z" id="boundary" inkscape:connector-curvature="0" />
	<path style="fill:none;stroke:red;stroke-width:1px;stroke-linecap:butt;stroke-linejoin:miter;stroke-opacity:1" d="M 751.444,820.333 760.056,803.111 z" id="boundary" inkscape:connector-curvature="0" />
	<path style="fill:none;stroke:red;stroke-width:1px;stroke-linecap:butt;stroke-linejoin:miter;stroke-opacity:1" d="M 772.111,789.333 760.056,803.111 z" id="boundary" inkscape:connector-curvature="0" />
	<path style="fill:none;stroke:red;stroke-width:1px;stroke-linecap:butt;stroke-linejoin:miter;stroke-opacity:1" d="M 660.167,849.611 649.833,835.833 z" id="boundary" inkscape:connector-curvature="0" />
	<path style="fill:none;stroke:red;stroke-width:1px;stroke-linecap:butt;stroke-linejoin:miter;stroke-opacity:1" d="M 649.833,835.833 658.444,818.611 z" id="boundary" inkscape:connector-curvature="0" />
	<path style="fill:none;stroke:red;stroke-width:1px;stroke-linecap:butt;stroke-linejoin:miter;stroke-opacity:1" d="M 675.667,813.444 658.444,818.611 z" id="boundary" inkscape:connector-curvature="0" />
	<path style="fill:none;stroke:red;stroke-width:1px;stroke-linecap:butt;stroke-linejoin:miter;stroke-opacity:1" d="M 686,799.667 675.667,813.444 z" id="boundary" inkscape:connector-curvature="0" />
	<path style="fill:none;stroke:red;stroke-width:1px;stroke-linecap:butt;stroke-linejoin:miter;stroke-opacity:1" d="M 675.667,858.222 660.167,849.611 z" id="boundary" inkscape:connector-curvature="0" />
	<path style="fill:none;stroke:red;stroke-width:1px;stroke-linecap:butt;stroke-linejoin:miter;stroke-opacity:1" d="M 692.889,858.222 710.111,858.222 z" id="boundary" inkscape:connector-curvature="0" />
	<path style="fill:none;stroke:red;stroke-width:1px;stroke-linecap:butt;stroke-linejoin:miter;stroke-opacity:1" d="M 692.889,858.222 675.667,858.222 z" id="boundary" inkscape:connector-curvature="0" />
	<path style="fill:none;stroke:red;stroke-width:1px;stroke-linecap:butt;stroke-linejoin:miter;stroke-opacity:1" d="M 727.333,853.056 737.667,832.389 z" id="boundary" inkscape:connector-curvature="0" />
	<path style="fill:none;stroke:red;stroke-width:1px;stroke-linecap:butt;stroke-linejoin:miter;stroke-opacity:1" d="M 727.333,853.056 710.111,858.222 z" id="boundary" inkscape:connector-curvature="0" />
	<path style="fill:none;stroke:red;stroke-width:1px;stroke-linecap:butt;stroke-linejoin:miter;stroke-opacity:1" d="M 737.667,832.389 751.444,820.333 z" id="boundary" inkscape:connector-curvature="0" />
	<path style="fill:none;stroke:red;stroke-width:1px;stroke-linecap:butt;stroke-linejoin:miter;stroke-opacity:1" d="M 782.444,858.222 765.222,865.111 z" id="boundary" inkscape:connector-curvature="0" />
	<path style="fill:none;stroke:red;stroke-width:1px;stroke-linecap:butt;stroke-linejoin:miter;stroke-opacity:1" d="M 765.222,865.111 749.722,873.722 z" id="boundary" inkscape:connector-curvature="0" />
	<path style="fill:none;stroke:red;stroke-width:1px;stroke-linecap:butt;stroke-linejoin:miter;stroke-opacity:1" d="M 735.944,887.5 744.556,903 z" id="boundary" inkscape:connector-curvature="0" />
	<path style="fill:none;stroke:red;stroke-width:1px;stroke-linecap:butt;stroke-linejoin:miter;stroke-opacity:1" d="M 735.944,887.5 749.722,873.722 z" id="boundary" inkscape:connector-curvature="0" />
	<path style="fill:none;stroke:red;stroke-width:1px;stroke-linecap:butt;stroke-linejoin:miter;stroke-opacity:1" d="M 761.778,909.889 744.556,903 z" id="boundary" inkscape:connector-curvature="0" />
	<path style="fill:none;stroke:red;stroke-width:1px;stroke-linecap:butt;stroke-linejoin:miter;stroke-opacity:1" d="M 779,909.889 761.778,909.889 z" id="boundary" inkscape:connector-curvature="0" />
	<path style="fill:none;stroke:red;stroke-width:1px;stroke-linecap:butt;stroke-linejoin:miter;stroke-opacity:1" d="M 772.111,789.333 789.333,792.778 z" id="boundary" inkscape:connector-curvature="0" />
	<path style="fill:none;stroke:red;stroke-width:1px;stroke-linecap:butt;stroke-linejoin:miter;stroke-opacity:1" d="M 832.389,582.667 823.778,608.5 z" id="boundary" inkscape:connector-curvature="0" />
	<path style="fill:none;stroke:red;stroke-width:1px;stroke-linecap:butt;stroke-linejoin:miter;stroke-opacity:1" d="M 832.389,582.667 841,565.444 z" id="boundary" inkscape:connector-curvature="0" />
	<path style="fill:none;stroke:red;stroke-width:1px;stroke-linecap:butt;stroke-linejoin:miter;stroke-opacity:1" d="M 823.778,625.722 823.778,608.5 z" id="boundary" inkscape:connector-curvature="0" />
	<path style="fill:none;stroke:red;stroke-width:1px;stroke-linecap:butt;stroke-linejoin:miter;stroke-opacity:1" d="M 823.778,642.944 827.222,660.167 z" id="boundary" inkscape:connector-curvature="0" />
	<path style="fill:none;stroke:red;stroke-width:1px;stroke-linecap:butt;stroke-linejoin:miter;stroke-opacity:1" d="M 823.778,642.944 823.778,625.722 z" id="boundary" inkscape:connector-curvature="0" />
	<path style="fill:none;stroke:red;stroke-width:1px;stroke-linecap:butt;stroke-linejoin:miter;stroke-opacity:1" d="M 832.389,677.389 841,692.889 z" id="boundary" inkscape:connector-curvature="0" />
	<path style="fill:none;stroke:red;stroke-width:1px;stroke-linecap:butt;stroke-linejoin:miter;stroke-opacity:1" d="M 832.389,677.389 827.222,660.167 z" id="boundary" inkscape:connector-curvature="0" />
	<path style="fill:none;stroke:red;stroke-width:1px;stroke-linecap:butt;stroke-linejoin:miter;stroke-opacity:1" d="M 841,548.222 841,565.444 z" id="boundary" inkscape:connector-curvature="0" />
	<path style="fill:none;stroke:red;stroke-width:1px;stroke-linecap:butt;stroke-linejoin:miter;stroke-opacity:1" d="M 841,548.222 849.611,531 z" id="boundary" inkscape:connector-curvature="0" />
	<path style="fill:none;stroke:red;stroke-width:1px;stroke-linecap:butt;stroke-linejoin:miter;stroke-opacity:1" d="M 849.611,513.778 849.611,531 z" id="boundary" inkscape:connector-curvature="0" />
	<path style="fill:none;stroke:red;stroke-width:1px;stroke-linecap:butt;stroke-linejoin:miter;stroke-opacity:1" d="M 849.611,513.778 858.222,496.556 z" id="boundary" inkscape:connector-curvature="0" />
	<path style="fill:none;stroke:red;stroke-width:1px;stroke-linecap:butt;stroke-linejoin:miter;stroke-opacity:1" d="M 841,692.889 849.611,708.389 z" id="boundary" inkscape:connector-curvature="0" />
	<path style="fill:none;stroke:red;stroke-width:1px;stroke-linecap:butt;stroke-linejoin:miter;stroke-opacity:1" d="M 849.611,708.389 849.611,725.611 z" id="boundary" inkscape:connector-curvature="0" />
	<path style="fill:none;stroke:red;stroke-width:1px;stroke-linecap:butt;stroke-linejoin:miter;stroke-opacity:1" d="M 849.611,725.611 858.222,741.111 z" id="boundary" inkscape:connector-curvature="0" />
	<path style="fill:none;stroke:red;stroke-width:1px;stroke-linecap:butt;stroke-linejoin:miter;stroke-opacity:1" d="M 866.833,756.611 858.222,741.111 z" id="boundary" inkscape:connector-curvature="0" />
	<path style="fill:none;stroke:red;stroke-width:1px;stroke-linecap:butt;stroke-linejoin:miter;stroke-opacity:1" d="M 796.222,810 787.611,827.222 z" id="boundary" inkscape:connector-curvature="0" />
	<path style="fill:none;stroke:red;stroke-width:1px;stroke-linecap:butt;stroke-linejoin:miter;stroke-opacity:1" d="M 787.611,827.222 782.444,858.222 z" id="boundary" inkscape:connector-curvature="0" />
	<path style="fill:none;stroke:red;stroke-width:1px;stroke-linecap:butt;stroke-linejoin:miter;stroke-opacity:1" d="M 796.222,810 789.333,792.778 z" id="boundary" inkscape:connector-curvature="0" />
	<path style="fill:none;stroke:red;stroke-width:1px;stroke-linecap:butt;stroke-linejoin:miter;stroke-opacity:1" d="M 796.222,909.889 779,909.889 z" id="boundary" inkscape:connector-curvature="0" />
	<path style="fill:none;stroke:red;stroke-width:1px;stroke-linecap:butt;stroke-linejoin:miter;stroke-opacity:1" d="M 813.444,904.722 796.222,909.889 z" id="boundary" inkscape:connector-curvature="0" />
	<path style="fill:none;stroke:red;stroke-width:1px;stroke-linecap:butt;stroke-linejoin:miter;stroke-opacity:1" d="M 827.222,890.944 813.444,904.722 z" id="boundary" inkscape:connector-curvature="0" />
	<path style="fill:none;stroke:red;stroke-width:1px;stroke-linecap:butt;stroke-linejoin:miter;stroke-opacity:1" d="M 866.833,815.167 853.056,839.278 z" id="boundary" inkscape:connector-curvature="0" />
	<path style="fill:none;stroke:red;stroke-width:1px;stroke-linecap:butt;stroke-linejoin:miter;stroke-opacity:1" d="M 875.444,789.333 866.833,815.167 z" id="boundary" inkscape:connector-curvature="0" />
	<path style="fill:none;stroke:red;stroke-width:1px;stroke-linecap:butt;stroke-linejoin:miter;stroke-opacity:1" d="M 875.444,772.111 875.444,789.333 z" id="boundary" inkscape:connector-curvature="0" />
	<path style="fill:none;stroke:red;stroke-width:1px;stroke-linecap:butt;stroke-linejoin:miter;stroke-opacity:1" d="M 866.833,756.611 875.444,772.111 z" id="boundary" inkscape:connector-curvature="0" />
	<path style="fill:none;stroke:red;stroke-width:1px;stroke-linecap:butt;stroke-linejoin:miter;stroke-opacity:1" d="M 827.222,890.944 835.833,873.722 z" id="boundary" inkscape:connector-curvature="0" />
	<path style="fill:none;stroke:red;stroke-width:1px;stroke-linecap:butt;stroke-linejoin:miter;stroke-opacity:1" d="M 844.444,856.5 853.056,839.278 z" id="boundary" inkscape:connector-curvature="0" />
	<path style="fill:none;stroke:red;stroke-width:1px;stroke-linecap:butt;stroke-linejoin:miter;stroke-opacity:1" d="M 844.444,856.5 835.833,873.722 z" id="boundary" inkscape:connector-curvature="0" />
	<circle cx="4" cy="345" r="4" fill="#0" id="circle0"/>
	<circle cx="4" cy="362.222" r="4" fill="#0" id="circle1"/>
	<circle cx="12.6111" cy="377.722" r="4" fill="#0" id="circle2"/>
	<circle cx="17.7778" cy="331.222" r="4" fill="#0" id="circle3"/>
	<circle cx="21.2222" cy="393.222" r="4" fill="#0" id="circle4"/>
	<circle cx="31.5556" cy="317.444" r="4" fill="#0" id="circle5"/>
	<circle cx="36.7222" cy="401.833" r="4" fill="#0" id="circle6"/>
	<circle cx="45.3333" cy="305.389" r="4" fill="#0" id="circle7"/>
	<circle cx="52.2222" cy="410.444" r="4" fill="#0" id="circle8"/>
	<circle cx="57.3889" cy="291.611" r="4" fill="#0" id="circle9"/>
	<circle cx="69.4444" cy="410.444" r="4" fill="#0" id="circle10"/>
	<circle cx="72.8889" cy="207.222" r="4" fill="#0" id="circle11"/>
	<circle cx="72.8889" cy="267.5" r="4" fill="#0" id="circle12"/>
	<circle cx="81.5" cy="222.722" r="4" fill="#0" id="circle13"/>
	<circle cx="81.5" cy="239.944" r="4" fill="#0" id="circle14"/>
	<circle cx="86.6667" cy="193.444" r="4" fill="#0" id="circle15"/>
	<circle cx="86.6667" cy="410.444" r="4" fill="#0" id="circle16"/>
	<circle cx="98.7222" cy="207.222" r="4" fill="#0" id="circle17"/>
	<circle cx="102.167" cy="419.056" r="4" fill="#0" id="circle18"/>
	<circle cx="112.5" cy="219.278" r="4" fill="#0" id="circle19"/>
	<circle cx="117.667" cy="427.667" r="4" fill="#0" id="circle20"/>
	<circle cx="124.556" cy="233.056" r="4" fill="#0" id="circle21"/>
	<circle cx="133.167" cy="436.278" r="4" fill="#0" id="circle22"/>
	<circle cx="138.333" cy="245.111" r="4" fill="#0" id="circle23"/>
	<circle cx="143.5" cy="450.056" r="4" fill="#0" id="circle24"/>
	<circle cx="155.556" cy="245.111" r="4" fill="#0" id="circle25"/>
	<circle cx="157.278" cy="462.111" r="4" fill="#0" id="circle26"/>
	<circle cx="164.167" cy="479.333" r="4" fill="#0" id="circle27"/>
	<circle cx="167.611" cy="258.889" r="4" fill="#0" id="circle28"/>
	<circle cx="167.611" cy="496.556" r="4" fill="#0" id="circle29"/>
	<circle cx="176.222" cy="512.056" r="4" fill="#0" id="circle30"/>
	<circle cx="184.833" cy="265.778" r="4" fill="#0" id="circle31"/>
	<circle cx="184.833" cy="527.556" r="4" fill="#0" id="circle32"/>
	<circle cx="193.444" cy="543.056" r="4" fill="#0" id="circle33"/>
	<circle cx="195.167" cy="279.556" r="4" fill="#0" id="circle34"/>
	<circle cx="202.056" cy="558.556" r="4" fill="#0" id="circle35"/>
	<circle cx="212.389" cy="284.722" r="4" fill="#0" id="circle36"/>
	<circle cx="214.111" cy="572.333" r="4" fill="#0" id="circle37"/>
	<circle cx="222.722" cy="587.833" r="4" fill="#0" id="circle38"/>
	<circle cx="224.444" cy="298.5" r="4" fill="#0" id="circle39"/>
	<circle cx="236.5" cy="599.889" r="4" fill="#0" id="circle40"/>
	<circle cx="236.5" cy="853.056" r="4" fill="#0" id="circle41"/>
	<circle cx="238.222" cy="310.556" r="4" fill="#0" id="circle42"/>
	<circle cx="245.111" cy="868.556" r="4" fill="#0" id="circle43"/>
	<circle cx="246.833" cy="613.667" r="4" fill="#0" id="circle44"/>
	<circle cx="250.278" cy="839.278" r="4" fill="#0" id="circle45"/>
	<circle cx="255.444" cy="314" r="4" fill="#0" id="circle46"/>
	<circle cx="260.611" cy="625.722" r="4" fill="#0" id="circle47"/>
	<circle cx="262.333" cy="875.444" r="4" fill="#0" id="circle48"/>
	<circle cx="267.5" cy="830.667" r="4" fill="#0" id="circle49"/>
	<circle cx="270.944" cy="322.611" r="4" fill="#0" id="circle50"/>
	<circle cx="272.667" cy="639.5" r="4" fill="#0" id="circle51"/>
	<circle cx="279.556" cy="656.722" r="4" fill="#0" id="circle52"/>
	<circle cx="279.556" cy="673.944" r="4" fill="#0" id="circle53"/>
	<circle cx="279.556" cy="691.167" r="4" fill="#0" id="circle54"/>
	<circle cx="279.556" cy="732.5" r="4" fill="#0" id="circle55"/>
	<circle cx="279.556" cy="749.722" r="4" fill="#0" id="circle56"/>
	<circle cx="279.556" cy="766.944" r="4" fill="#0" id="circle57"/>
	<circle cx="279.556" cy="784.167" r="4" fill="#0" id="circle58"/>
	<circle cx="279.556" cy="801.389" r="4" fill="#0" id="circle59"/>
	<circle cx="279.556" cy="875.444" r="4" fill="#0" id="circle60"/>
	<circle cx="281.278" cy="708.389" r="4" fill="#0" id="circle61"/>
	<circle cx="288.167" cy="322.611" r="4" fill="#0" id="circle62"/>
	<circle cx="296.778" cy="875.444" r="4" fill="#0" id="circle63"/>
	<circle cx="305.389" cy="326.056" r="4" fill="#0" id="circle64"/>
	<circle cx="310.556" cy="865.111" r="4" fill="#0" id="circle65"/>
	<circle cx="322.611" cy="331.222" r="4" fill="#0" id="circle66"/>
	<circle cx="324.333" cy="832.389" r="4" fill="#0" id="circle67"/>
	<circle cx="324.333" cy="849.611" r="4" fill="#0" id="circle68"/>
	<circle cx="331.222" cy="887.5" r="4" fill="#0" id="circle69"/>
	<circle cx="332.944" cy="815.167" r="4" fill="#0" id="circle70"/>
	<circle cx="339.833" cy="331.222" r="4" fill="#0" id="circle71"/>
	<circle cx="339.833" cy="903" r="4" fill="#0" id="circle72"/>
	<circle cx="341.556" cy="789.333" r="4" fill="#0" id="circle73"/>
	<circle cx="348.444" cy="878.889" r="4" fill="#0" id="circle74"/>
	<circle cx="350.167" cy="772.111" r="4" fill="#0" id="circle75"/>
	<circle cx="355.333" cy="339.833" r="4" fill="#0" id="circle76"/>
	<circle cx="357.056" cy="909.889" r="4" fill="#0" id="circle77"/>
	<circle cx="360.5" cy="785.889" r="4" fill="#0" id="circle78"/>
	<circle cx="362.222" cy="865.111" r="4" fill="#0" id="circle79"/>
	<circle cx="365.667" cy="803.111" r="4" fill="#0" id="circle80"/>
	<circle cx="365.667" cy="820.333" r="4" fill="#0" id="circle81"/>
	<circle cx="365.667" cy="837.556" r="4" fill="#0" id="circle82"/>
	<circle cx="372.556" cy="339.833" r="4" fill="#0" id="circle83"/>
	<circle cx="374.278" cy="909.889" r="4" fill="#0" id="circle84"/>
	<circle cx="388.056" cy="331.222" r="4" fill="#0" id="circle85"/>
	<circle cx="391.5" cy="909.889" r="4" fill="#0" id="circle86"/>
	<circle cx="405.278" cy="331.222" r="4" fill="#0" id="circle87"/>
	<circle cx="408.722" cy="904.722" r="4" fill="#0" id="circle88"/>
	<circle cx="419.056" cy="875.444" r="4" fill="#0" id="circle89"/>
	<circle cx="422.5" cy="322.611" r="4" fill="#0" id="circle90"/>
	<circle cx="427.667" cy="832.389" r="4" fill="#0" id="circle91"/>
	<circle cx="427.667" cy="849.611" r="4" fill="#0" id="circle92"/>
	<circle cx="436.278" cy="754.889" r="4" fill="#0" id="circle93"/>
	<circle cx="436.278" cy="772.111" r="4" fill="#0" id="circle94"/>
	<circle cx="436.278" cy="789.333" r="4" fill="#0" id="circle95"/>
	<circle cx="436.278" cy="806.556" r="4" fill="#0" id="circle96"/>
	<circle cx="438" cy="331.222" r="4" fill="#0" id="circle97"/>
	<circle cx="444.889" cy="711.833" r="4" fill="#0" id="circle98"/>
	<circle cx="444.889" cy="729.056" r="4" fill="#0" id="circle99"/>
	<circle cx="453.5" cy="668.778" r="4" fill="#0" id="circle100"/>
	<circle cx="453.5" cy="694.611" r="4" fill="#0" id="circle101"/>
	<circle cx="455.222" cy="324.333" r="4" fill="#0" id="circle102"/>
	<circle cx="467.278" cy="656.722" r="4" fill="#0" id="circle103"/>
	<circle cx="472.444" cy="322.611" r="4" fill="#0" id="circle104"/>
	<circle cx="484.5" cy="651.556" r="4" fill="#0" id="circle105"/>
	<circle cx="489.667" cy="322.611" r="4" fill="#0" id="circle106"/>
	<circle cx="501.722" cy="651.556" r="4" fill="#0" id="circle107"/>
	<circle cx="506.889" cy="322.611" r="4" fill="#0" id="circle108"/>
	<circle cx="518.944" cy="651.556" r="4" fill="#0" id="circle109"/>
	<circle cx="524.111" cy="322.611" r="4" fill="#0" id="circle110"/>
	<circle cx="534.444" cy="660.167" r="4" fill="#0" id="circle111"/>
	<circle cx="541.333" cy="322.611" r="4" fill="#0" id="circle112"/>
	<circle cx="551.667" cy="667.056" r="4" fill="#0" id="circle113"/>
	<circle cx="558.556" cy="322.611" r="4" fill="#0" id="circle114"/>
	<circle cx="568.889" cy="668.778" r="4" fill="#0" id="circle115"/>
	<circle cx="575.778" cy="322.611" r="4" fill="#0" id="circle116"/>
	<circle cx="586.111" cy="668.778" r="4" fill="#0" id="circle117"/>
	<circle cx="593" cy="322.611" r="4" fill="#0" id="circle118"/>
	<circle cx="603.333" cy="675.667" r="4" fill="#0" id="circle119"/>
	<circle cx="610.222" cy="322.611" r="4" fill="#0" id="circle120"/>
	<circle cx="617.111" cy="686" r="4" fill="#0" id="circle121"/>
	<circle cx="627.444" cy="322.611" r="4" fill="#0" id="circle122"/>
	<circle cx="632.611" cy="677.389" r="4" fill="#0" id="circle123"/>
	<circle cx="644.667" cy="322.611" r="4" fill="#0" id="circle124"/>
	<circle cx="648.111" cy="686" r="4" fill="#0" id="circle125"/>
	<circle cx="649.833" cy="835.833" r="4" fill="#0" id="circle126"/>
	<circle cx="658.444" cy="818.611" r="4" fill="#0" id="circle127"/>
	<circle cx="660.167" cy="849.611" r="4" fill="#0" id="circle128"/>
	<circle cx="661.889" cy="322.611" r="4" fill="#0" id="circle129"/>
	<circle cx="665.333" cy="686" r="4" fill="#0" id="circle130"/>
	<circle cx="675.667" cy="813.444" r="4" fill="#0" id="circle131"/>
	<circle cx="675.667" cy="858.222" r="4" fill="#0" id="circle132"/>
	<circle cx="677.389" cy="331.222" r="4" fill="#0" id="circle133"/>
	<circle cx="680.833" cy="694.611" r="4" fill="#0" id="circle134"/>
	<circle cx="686" cy="799.667" r="4" fill="#0" id="circle135"/>
	<circle cx="692.889" cy="858.222" r="4" fill="#0" id="circle136"/>
	<circle cx="694.611" cy="331.222" r="4" fill="#0" id="circle137"/>
	<circle cx="698.056" cy="701.5" r="4" fill="#0" id="circle138"/>
	<circle cx="699.778" cy="787.611" r="4" fill="#0" id="circle139"/>
	<circle cx="701.5" cy="718.722" r="4" fill="#0" id="circle140"/>
	<circle cx="701.5" cy="766.944" r="4" fill="#0" id="circle141"/>
	<circle cx="710.111" cy="734.222" r="4" fill="#0" id="circle142"/>
	<circle cx="710.111" cy="751.444" r="4" fill="#0" id="circle143"/>
	<circle cx="710.111" cy="858.222" r="4" fill="#0" id="circle144"/>
	<circle cx="711.833" cy="331.222" r="4" fill="#0" id="circle145"/>
	<circle cx="727.333" cy="853.056" r="4" fill="#0" id="circle146"/>
	<circle cx="729.056" cy="331.222" r="4" fill="#0" id="circle147"/>
	<circle cx="735.944" cy="887.5" r="4" fill="#0" id="circle148"/>
	<circle cx="737.667" cy="832.389" r="4" fill="#0" id="circle149"/>
	<circle cx="744.556" cy="903" r="4" fill="#0" id="circle150"/>
	<circle cx="746.278" cy="331.222" r="4" fill="#0" id="circle151"/>
	<circle cx="749.722" cy="873.722" r="4" fill="#0" id="circle152"/>
	<circle cx="751.444" cy="820.333" r="4" fill="#0" id="circle153"/>
	<circle cx="760.056" cy="803.111" r="4" fill="#0" id="circle154"/>
	<circle cx="761.778" cy="319.167" r="4" fill="#0" id="circle155"/>
	<circle cx="761.778" cy="909.889" r="4" fill="#0" id="circle156"/>
	<circle cx="765.222" cy="865.111" r="4" fill="#0" id="circle157"/>
	<circle cx="772.111" cy="789.333" r="4" fill="#0" id="circle158"/>
	<circle cx="779" cy="310.556" r="4" fill="#0" id="circle159"/>
	<circle cx="779" cy="909.889" r="4" fill="#0" id="circle160"/>
	<circle cx="782.444" cy="858.222" r="4" fill="#0" id="circle161"/>
	<circle cx="787.611" cy="827.222" r="4" fill="#0" id="circle162"/>
	<circle cx="789.333" cy="792.778" r="4" fill="#0" id="circle163"/>
	<circle cx="792.778" cy="296.778" r="4" fill="#0" id="circle164"/>
	<circle cx="796.222" cy="810" r="4" fill="#0" id="circle165"/>
	<circle cx="796.222" cy="909.889" r="4" fill="#0" id="circle166"/>
	<circle cx="806.556" cy="283" r="4" fill="#0" id="circle167"/>
	<circle cx="813.444" cy="904.722" r="4" fill="#0" id="circle168"/>
	<circle cx="820.333" cy="270.944" r="4" fill="#0" id="circle169"/>
	<circle cx="823.778" cy="608.5" r="4" fill="#0" id="circle170"/>
	<circle cx="823.778" cy="625.722" r="4" fill="#0" id="circle171"/>
	<circle cx="823.778" cy="642.944" r="4" fill="#0" id="circle172"/>
	<circle cx="827.222" cy="660.167" r="4" fill="#0" id="circle173"/>
	<circle cx="827.222" cy="890.944" r="4" fill="#0" id="circle174"/>
	<circle cx="830.667" cy="250.278" r="4" fill="#0" id="circle175"/>
	<circle cx="832.389" cy="582.667" r="4" fill="#0" id="circle176"/>
	<circle cx="832.389" cy="677.389" r="4" fill="#0" id="circle177"/>
	<circle cx="835.833" cy="873.722" r="4" fill="#0" id="circle178"/>
	<circle cx="841" cy="548.222" r="4" fill="#0" id="circle179"/>
	<circle cx="841" cy="565.444" r="4" fill="#0" id="circle180"/>
	<circle cx="841" cy="692.889" r="4" fill="#0" id="circle181"/>
	<circle cx="844.444" cy="236.5" r="4" fill="#0" id="circle182"/>
	<circle cx="844.444" cy="856.5" r="4" fill="#0" id="circle183"/>
	<circle cx="847.889" cy="43.6111" r="4" fill="#0" id="circle184"/>
	<circle cx="847.889" cy="60.8333" r="4" fill="#0" id="circle185"/>
	<circle cx="847.889" cy="78.0556" r="4" fill="#0" id="circle186"/>
	<circle cx="847.889" cy="95.2778" r="4" fill="#0" id="circle187"/>
	<circle cx="849.611" cy="513.778" r="4" fill="#0" id="circle188"/>
	<circle cx="849.611" cy="531" r="4" fill="#0" id="circle189"/>
	<circle cx="849.611" cy="708.389" r="4" fill="#0" id="circle190"/>
	<circle cx="849.611" cy="725.611" r="4" fill="#0" id="circle191"/>
	<circle cx="853.056" cy="219.278" r="4" fill="#0" id="circle192"/>
	<circle cx="853.056" cy="839.278" r="4" fill="#0" id="circle193"/>
	<circle cx="856.5" cy="26.3889" r="4" fill="#0" id="circle194"/>
	<circle cx="856.5" cy="110.778" r="4" fill="#0" id="circle195"/>
	<circle cx="856.5" cy="198.611" r="4" fill="#0" id="circle196"/>
	<circle cx="858.222" cy="496.556" r="4" fill="#0" id="circle197"/>
	<circle cx="858.222" cy="741.111" r="4" fill="#0" id="circle198"/>
	<circle cx="865.111" cy="126.278" r="4" fill="#0" id="circle199"/>
	<circle cx="865.111" cy="143.5" r="4" fill="#0" id="circle200"/>
	<circle cx="865.111" cy="160.722" r="4" fill="#0" id="circle201"/>
	<circle cx="865.111" cy="177.944" r="4" fill="#0" id="circle202"/>
	<circle cx="866.833" cy="401.833" r="4" fill="#0" id="circle203"/>
	<circle cx="866.833" cy="419.056" r="4" fill="#0" id="circle204"/>
	<circle cx="866.833" cy="436.278" r="4" fill="#0" id="circle205"/>
	<circle cx="866.833" cy="453.5" r="4" fill="#0" id="circle206"/>
	<circle cx="866.833" cy="470.722" r="4" fill="#0" id="circle207"/>
	<circle cx="866.833" cy="756.611" r="4" fill="#0" id="circle208"/>
	<circle cx="866.833" cy="815.167" r="4" fill="#0" id="circle209"/>
	<circle cx="870.278" cy="12.6111" r="4" fill="#0" id="circle210"/>
	<circle cx="875.444" cy="772.111" r="4" fill="#0" id="circle211"/>
	<circle cx="875.444" cy="789.333" r="4" fill="#0" id="circle212"/>
	<circle cx="880.611" cy="389.778" r="4" fill="#0" id="circle213"/>
	<circle cx="885.778" cy="4" r="4" fill="#0" id="circle214"/>
	<circle cx="892.667" cy="376" r="4" fill="#0" id="circle215"/>
	<circle cx="899.556" cy="16.0556" r="4" fill="#0" id="circle216"/>
	<circle cx="909.889" cy="29.8333" r="4" fill="#0" id="circle217"/>
	<circle cx="909.889" cy="367.389" r="4" fill="#0" id="circle218"/>
	<circle cx="923.667" cy="40.1667" r="4" fill="#0" id="circle219"/>
	<circle cx="923.667" cy="355.333" r="4" fill="#0" id="circle220"/>
	<circle cx="935.722" cy="53.9444" r="4" fill="#0" id="circle221"/>
	<circle cx="935.722" cy="341.556" r="4" fill="#0" id="circle222"/>
	<circle cx="949.5" cy="66" r="4" fill="#0" id="circle223"/>
	<circle cx="949.5" cy="329.5" r="4" fill="#0" id="circle224"/>
	<circle cx="961.556" cy="79.7778" r="4" fill="#0" id="circle225"/>
	<circle cx="961.556" cy="307.111" r="4" fill="#0" id="circle226"/>
	<circle cx="975.333" cy="91.8333" r="4" fill="#0" id="circle227"/>
	<circle cx="978.778" cy="109.056" r="4" fill="#0" id="circle228"/>
	<circle cx="978.778" cy="289.889" r="4" fill="#0" id="circle229"/>
	<circle cx="987.389" cy="124.556" r="4" fill="#0" id="circle230"/>
	<circle cx="987.389" cy="141.778" r="4" fill="#0" id="circle231"/>
	<circle cx="987.389" cy="159" r="4" fill="#0" id="circle232"/>
	<circle cx="987.389" cy="203.778" r="4" fill="#0" id="circle233"/>
	<circle cx="987.389" cy="255.444" r="4" fill="#0" id="circle234"/>
	<circle cx="987.389" cy="272.667" r="4" fill="#0" id="circle235"/>
	<circle cx="990.833" cy="221" r="4" fill="#0" id="circle236"/>
	<circle cx="996" cy="174.5" r="4" fill="#0" id="circle237"/>
	<circle cx="996" cy="238.222" r="4" fill="#0" id="circle238"/>
	</g>
</svg>