<?xml version="1.0" encoding="UTF-8" standalone="no"?>
<!-- Created with CurveBenchmark -->
<svg
	xmlns:dc="http://purl.org/dc/elements/1.1/"
	xmlns:cc="http://creativecommons.org/ns#"
	xmlns:rdf="http://www.w3.org/1999/02/22-rdf-syntax-ns#"
	xmlns:svg="http://www.w3.org/2000/svg"
	xmlns="http://www.w3.org/2000/svg"
	xmlns:sodipodi="http://sodipodi.sourceforge.net/DTD/sodipodi-0.dtd"
	xmlns:inkscape="http://www.inkscape.org/namespaces/inkscape"
	width="1000"
	height="1000"
	id="svg2"
	version="1.1"
	sodipodi:docname="manifold/ccrust-flatfish11.png.txt">
<defs
	id="defs4" />
<metadata
	id="metadata7">
	<rdf:RDF>
		<cc:Work
			rdf:about="">
			<dc:format>image/svg+xml</dc:format>
			<dc:type
				rdf:resource="http://purl.org/dc/dcmitype/StillImage" />
			<dc:title></dc:title>
		</cc:Work>
	</rdf:RDF>
</metadata>
<g
	inkscape:label="Layer 1"
	inkscape:groupmode="layer"
	id="layer1">
	<path style="fill:none;stroke:red;stroke-width:1px;stroke-linecap:butt;stroke-linejoin:miter;stroke-opacity:1" d="M 135.577,107.487 148.882,100.095 z" id="boundary" inkscape:connector-curvature="0" />
	<path style="fill:none;stroke:red;stroke-width:1px;stroke-linecap:butt;stroke-linejoin:miter;stroke-opacity:1" d="M 123.75,117.836 135.577,107.487 z" id="boundary" inkscape:connector-curvature="0" />
	<path style="fill:none;stroke:red;stroke-width:1px;stroke-linecap:butt;stroke-linejoin:miter;stroke-opacity:1" d="M 160.709,88.2683 148.882,100.095 z" id="boundary" inkscape:connector-curvature="0" />
	<path style="fill:none;stroke:red;stroke-width:1px;stroke-linecap:butt;stroke-linejoin:miter;stroke-opacity:1" d="M 123.75,117.836 111.923,129.663 z" id="boundary" inkscape:connector-curvature="0" />
	<path style="fill:none;stroke:red;stroke-width:1px;stroke-linecap:butt;stroke-linejoin:miter;stroke-opacity:1" d="M 111.923,129.663 98.617,137.055 z" id="boundary" inkscape:connector-curvature="0" />
	<path style="fill:none;stroke:red;stroke-width:1px;stroke-linecap:butt;stroke-linejoin:miter;stroke-opacity:1" d="M 86.7899,147.404 98.617,137.055 z" id="boundary" inkscape:connector-curvature="0" />
	<path style="fill:none;stroke:red;stroke-width:1px;stroke-linecap:butt;stroke-linejoin:miter;stroke-opacity:1" d="M 213.931,55.7437 200.626,63.1356 z" id="boundary" inkscape:connector-curvature="0" />
	<path style="fill:none;stroke:red;stroke-width:1px;stroke-linecap:butt;stroke-linejoin:miter;stroke-opacity:1" d="M 225.759,45.3949 213.931,55.7437 z" id="boundary" inkscape:connector-curvature="0" />
	<path style="fill:none;stroke:red;stroke-width:1px;stroke-linecap:butt;stroke-linejoin:miter;stroke-opacity:1" d="M 187.32,70.5276 175.493,80.8763 z" id="boundary" inkscape:connector-curvature="0" />
	<path style="fill:none;stroke:red;stroke-width:1px;stroke-linecap:butt;stroke-linejoin:miter;stroke-opacity:1" d="M 175.493,80.8763 160.709,88.2683 z" id="boundary" inkscape:connector-curvature="0" />
	<path style="fill:none;stroke:red;stroke-width:1px;stroke-linecap:butt;stroke-linejoin:miter;stroke-opacity:1" d="M 187.32,70.5276 200.626,63.1356 z" id="boundary" inkscape:connector-curvature="0" />
	<path style="fill:none;stroke:red;stroke-width:1px;stroke-linecap:butt;stroke-linejoin:miter;stroke-opacity:1" d="M 15.8271,233.151 27.6542,221.323 z" id="boundary" inkscape:connector-curvature="0" />
	<path style="fill:none;stroke:red;stroke-width:1px;stroke-linecap:butt;stroke-linejoin:miter;stroke-opacity:1" d="M 39.4814,210.975 27.6542,221.323 z" id="boundary" inkscape:connector-curvature="0" />
	<path style="fill:none;stroke:red;stroke-width:1px;stroke-linecap:butt;stroke-linejoin:miter;stroke-opacity:1" d="M 49.8301,199.148 39.4814,210.975 z" id="boundary" inkscape:connector-curvature="0" />
	<path style="fill:none;stroke:red;stroke-width:1px;stroke-linecap:butt;stroke-linejoin:miter;stroke-opacity:1" d="M 4,244.978 15.8271,233.151 z" id="boundary" inkscape:connector-curvature="0" />
	<path style="fill:none;stroke:red;stroke-width:1px;stroke-linecap:butt;stroke-linejoin:miter;stroke-opacity:1" d="M 4,259.762 4,244.978 z" id="boundary" inkscape:connector-curvature="0" />
	<path style="fill:none;stroke:red;stroke-width:1px;stroke-linecap:butt;stroke-linejoin:miter;stroke-opacity:1" d="M 74.9627,159.231 86.7899,147.404 z" id="boundary" inkscape:connector-curvature="0" />
	<path style="fill:none;stroke:red;stroke-width:1px;stroke-linecap:butt;stroke-linejoin:miter;stroke-opacity:1" d="M 67.5708,174.015 74.9627,159.231 z" id="boundary" inkscape:connector-curvature="0" />
	<path style="fill:none;stroke:red;stroke-width:1px;stroke-linecap:butt;stroke-linejoin:miter;stroke-opacity:1" d="M 67.5708,174.015 61.6572,188.799 z" id="boundary" inkscape:connector-curvature="0" />
	<path style="fill:none;stroke:red;stroke-width:1px;stroke-linecap:butt;stroke-linejoin:miter;stroke-opacity:1" d="M 61.6572,188.799 49.8301,199.148 z" id="boundary" inkscape:connector-curvature="0" />
	<path style="fill:none;stroke:red;stroke-width:1px;stroke-linecap:butt;stroke-linejoin:miter;stroke-opacity:1" d="M 370.641,4 385.425,4 z" id="boundary" inkscape:connector-curvature="0" />
	<path style="fill:none;stroke:red;stroke-width:1px;stroke-linecap:butt;stroke-linejoin:miter;stroke-opacity:1" d="M 357.335,11.392 370.641,4 z" id="boundary" inkscape:connector-curvature="0" />
	<path style="fill:none;stroke:red;stroke-width:1px;stroke-linecap:butt;stroke-linejoin:miter;stroke-opacity:1" d="M 400.209,4 414.993,4 z" id="boundary" inkscape:connector-curvature="0" />
	<path style="fill:none;stroke:red;stroke-width:1px;stroke-linecap:butt;stroke-linejoin:miter;stroke-opacity:1" d="M 385.425,4 400.209,4 z" id="boundary" inkscape:connector-curvature="0" />
	<path style="fill:none;stroke:red;stroke-width:1px;stroke-linecap:butt;stroke-linejoin:miter;stroke-opacity:1" d="M 429.776,4 444.56,4 z" id="boundary" inkscape:connector-curvature="0" />
	<path style="fill:none;stroke:red;stroke-width:1px;stroke-linecap:butt;stroke-linejoin:miter;stroke-opacity:1" d="M 459.344,4 474.128,4 z" id="boundary" inkscape:connector-curvature="0" />
	<path style="fill:none;stroke:red;stroke-width:1px;stroke-linecap:butt;stroke-linejoin:miter;stroke-opacity:1" d="M 474.128,4 488.912,4 z" id="boundary" inkscape:connector-curvature="0" />
	<path style="fill:none;stroke:red;stroke-width:1px;stroke-linecap:butt;stroke-linejoin:miter;stroke-opacity:1" d="M 444.56,4 459.344,4 z" id="boundary" inkscape:connector-curvature="0" />
	<path style="fill:none;stroke:red;stroke-width:1px;stroke-linecap:butt;stroke-linejoin:miter;stroke-opacity:1" d="M 414.993,4 429.776,4 z" id="boundary" inkscape:connector-curvature="0" />
	<path style="fill:none;stroke:red;stroke-width:1px;stroke-linecap:butt;stroke-linejoin:miter;stroke-opacity:1" d="M 299.678,23.2191 284.894,30.611 z" id="boundary" inkscape:connector-curvature="0" />
	<path style="fill:none;stroke:red;stroke-width:1px;stroke-linecap:butt;stroke-linejoin:miter;stroke-opacity:1" d="M 284.894,30.611 270.11,33.5678 z" id="boundary" inkscape:connector-curvature="0" />
	<path style="fill:none;stroke:red;stroke-width:1px;stroke-linecap:butt;stroke-linejoin:miter;stroke-opacity:1" d="M 270.11,33.5678 255.326,33.5678 z" id="boundary" inkscape:connector-curvature="0" />
	<path style="fill:none;stroke:red;stroke-width:1px;stroke-linecap:butt;stroke-linejoin:miter;stroke-opacity:1" d="M 240.542,38.003 255.326,33.5678 z" id="boundary" inkscape:connector-curvature="0" />
	<path style="fill:none;stroke:red;stroke-width:1px;stroke-linecap:butt;stroke-linejoin:miter;stroke-opacity:1" d="M 327.768,11.392 342.551,11.392 z" id="boundary" inkscape:connector-curvature="0" />
	<path style="fill:none;stroke:red;stroke-width:1px;stroke-linecap:butt;stroke-linejoin:miter;stroke-opacity:1" d="M 314.462,18.7839 327.768,11.392 z" id="boundary" inkscape:connector-curvature="0" />
	<path style="fill:none;stroke:red;stroke-width:1px;stroke-linecap:butt;stroke-linejoin:miter;stroke-opacity:1" d="M 314.462,18.7839 299.678,23.2191 z" id="boundary" inkscape:connector-curvature="0" />
	<path style="fill:none;stroke:red;stroke-width:1px;stroke-linecap:butt;stroke-linejoin:miter;stroke-opacity:1" d="M 342.551,11.392 357.335,11.392 z" id="boundary" inkscape:connector-curvature="0" />
	<path style="fill:none;stroke:red;stroke-width:1px;stroke-linecap:butt;stroke-linejoin:miter;stroke-opacity:1" d="M 225.759,45.3949 240.542,38.003 z" id="boundary" inkscape:connector-curvature="0" />
	<path style="fill:none;stroke:red;stroke-width:1px;stroke-linecap:butt;stroke-linejoin:miter;stroke-opacity:1" d="M 488.912,4 503.696,4 z" id="boundary" inkscape:connector-curvature="0" />
	<path style="fill:none;stroke:red;stroke-width:1px;stroke-linecap:butt;stroke-linejoin:miter;stroke-opacity:1" d="M 11.392,287.851 4,274.545 z" id="boundary" inkscape:connector-curvature="0" />
	<path style="fill:none;stroke:red;stroke-width:1px;stroke-linecap:butt;stroke-linejoin:miter;stroke-opacity:1" d="M 26.1759,293.765 11.392,287.851 z" id="boundary" inkscape:connector-curvature="0" />
	<path style="fill:none;stroke:red;stroke-width:1px;stroke-linecap:butt;stroke-linejoin:miter;stroke-opacity:1" d="M 49.8301,311.505 35.0462,305.592 z" id="boundary" inkscape:connector-curvature="0" />
	<path style="fill:none;stroke:red;stroke-width:1px;stroke-linecap:butt;stroke-linejoin:miter;stroke-opacity:1" d="M 35.0462,305.592 26.1759,293.765 z" id="boundary" inkscape:connector-curvature="0" />
	<path style="fill:none;stroke:red;stroke-width:1px;stroke-linecap:butt;stroke-linejoin:miter;stroke-opacity:1" d="M 4,274.545 4,259.762 z" id="boundary" inkscape:connector-curvature="0" />
	<path style="fill:none;stroke:red;stroke-width:1px;stroke-linecap:butt;stroke-linejoin:miter;stroke-opacity:1" d="M 49.8301,311.505 60.1788,323.332 z" id="boundary" inkscape:connector-curvature="0" />
	<path style="fill:none;stroke:red;stroke-width:1px;stroke-linecap:butt;stroke-linejoin:miter;stroke-opacity:1" d="M 60.1788,323.332 72.006,333.681 z" id="boundary" inkscape:connector-curvature="0" />
	<path style="fill:none;stroke:red;stroke-width:1px;stroke-linecap:butt;stroke-linejoin:miter;stroke-opacity:1" d="M 85.3115,341.073 100.095,345.508 z" id="boundary" inkscape:connector-curvature="0" />
	<path style="fill:none;stroke:red;stroke-width:1px;stroke-linecap:butt;stroke-linejoin:miter;stroke-opacity:1" d="M 100.095,345.508 108.966,357.335 z" id="boundary" inkscape:connector-curvature="0" />
	<path style="fill:none;stroke:red;stroke-width:1px;stroke-linecap:butt;stroke-linejoin:miter;stroke-opacity:1" d="M 85.3115,341.073 72.006,333.681 z" id="boundary" inkscape:connector-curvature="0" />
	<path style="fill:none;stroke:red;stroke-width:1px;stroke-linecap:butt;stroke-linejoin:miter;stroke-opacity:1" d="M 108.966,357.335 120.793,367.684 z" id="boundary" inkscape:connector-curvature="0" />
	<path style="fill:none;stroke:red;stroke-width:1px;stroke-linecap:butt;stroke-linejoin:miter;stroke-opacity:1" d="M 120.793,367.684 134.098,375.076 z" id="boundary" inkscape:connector-curvature="0" />
	<path style="fill:none;stroke:red;stroke-width:1px;stroke-linecap:butt;stroke-linejoin:miter;stroke-opacity:1" d="M 134.098,375.076 145.925,385.425 z" id="boundary" inkscape:connector-curvature="0" />
	<path style="fill:none;stroke:red;stroke-width:1px;stroke-linecap:butt;stroke-linejoin:miter;stroke-opacity:1" d="M 188.799,397.252 174.015,397.252 z" id="boundary" inkscape:connector-curvature="0" />
	<path style="fill:none;stroke:red;stroke-width:1px;stroke-linecap:butt;stroke-linejoin:miter;stroke-opacity:1" d="M 174.015,397.252 159.231,392.817 z" id="boundary" inkscape:connector-curvature="0" />
	<path style="fill:none;stroke:red;stroke-width:1px;stroke-linecap:butt;stroke-linejoin:miter;stroke-opacity:1" d="M 159.231,392.817 145.925,385.425 z" id="boundary" inkscape:connector-curvature="0" />
	<path style="fill:none;stroke:red;stroke-width:1px;stroke-linecap:butt;stroke-linejoin:miter;stroke-opacity:1" d="M 188.799,397.252 193.234,412.036 z" id="boundary" inkscape:connector-curvature="0" />
	<path style="fill:none;stroke:red;stroke-width:1px;stroke-linecap:butt;stroke-linejoin:miter;stroke-opacity:1" d="M 206.539,419.428 193.234,412.036 z" id="boundary" inkscape:connector-curvature="0" />
	<path style="fill:none;stroke:red;stroke-width:1px;stroke-linecap:butt;stroke-linejoin:miter;stroke-opacity:1" d="M 206.539,419.428 218.367,428.298 z" id="boundary" inkscape:connector-curvature="0" />
	<path style="fill:none;stroke:red;stroke-width:1px;stroke-linecap:butt;stroke-linejoin:miter;stroke-opacity:1" d="M 218.367,428.298 228.715,440.125 z" id="boundary" inkscape:connector-curvature="0" />
	<path style="fill:none;stroke:red;stroke-width:1px;stroke-linecap:butt;stroke-linejoin:miter;stroke-opacity:1" d="M 240.542,448.996 228.715,440.125 z" id="boundary" inkscape:connector-curvature="0" />
	<path style="fill:none;stroke:red;stroke-width:1px;stroke-linecap:butt;stroke-linejoin:miter;stroke-opacity:1" d="M 253.848,456.387 240.542,448.996 z" id="boundary" inkscape:connector-curvature="0" />
	<path style="fill:none;stroke:red;stroke-width:1px;stroke-linecap:butt;stroke-linejoin:miter;stroke-opacity:1" d="M 280.459,471.171 267.154,463.779 z" id="boundary" inkscape:connector-curvature="0" />
	<path style="fill:none;stroke:red;stroke-width:1px;stroke-linecap:butt;stroke-linejoin:miter;stroke-opacity:1" d="M 293.765,478.563 280.459,471.171 z" id="boundary" inkscape:connector-curvature="0" />
	<path style="fill:none;stroke:red;stroke-width:1px;stroke-linecap:butt;stroke-linejoin:miter;stroke-opacity:1" d="M 267.154,463.779 253.848,456.387 z" id="boundary" inkscape:connector-curvature="0" />
	<path style="fill:none;stroke:red;stroke-width:1px;stroke-linecap:butt;stroke-linejoin:miter;stroke-opacity:1" d="M 307.07,485.955 321.854,485.955 z" id="boundary" inkscape:connector-curvature="0" />
	<path style="fill:none;stroke:red;stroke-width:1px;stroke-linecap:butt;stroke-linejoin:miter;stroke-opacity:1" d="M 307.07,485.955 293.765,478.563 z" id="boundary" inkscape:connector-curvature="0" />
	<path style="fill:none;stroke:red;stroke-width:1px;stroke-linecap:butt;stroke-linejoin:miter;stroke-opacity:1" d="M 364.727,493.347 349.943,493.347 z" id="boundary" inkscape:connector-curvature="0" />
	<path style="fill:none;stroke:red;stroke-width:1px;stroke-linecap:butt;stroke-linejoin:miter;stroke-opacity:1" d="M 349.943,493.347 336.638,485.955 z" id="boundary" inkscape:connector-curvature="0" />
	<path style="fill:none;stroke:red;stroke-width:1px;stroke-linecap:butt;stroke-linejoin:miter;stroke-opacity:1" d="M 364.727,493.347 378.033,500.739 z" id="boundary" inkscape:connector-curvature="0" />
	<path style="fill:none;stroke:red;stroke-width:1px;stroke-linecap:butt;stroke-linejoin:miter;stroke-opacity:1" d="M 321.854,485.955 336.638,485.955 z" id="boundary" inkscape:connector-curvature="0" />
	<path style="fill:none;stroke:red;stroke-width:1px;stroke-linecap:butt;stroke-linejoin:miter;stroke-opacity:1" d="M 378.033,500.739 392.817,500.739 z" id="boundary" inkscape:connector-curvature="0" />
	<path style="fill:none;stroke:red;stroke-width:1px;stroke-linecap:butt;stroke-linejoin:miter;stroke-opacity:1" d="M 407.601,500.739 422.385,500.739 z" id="boundary" inkscape:connector-curvature="0" />
	<path style="fill:none;stroke:red;stroke-width:1px;stroke-linecap:butt;stroke-linejoin:miter;stroke-opacity:1" d="M 422.385,500.739 437.168,500.739 z" id="boundary" inkscape:connector-curvature="0" />
	<path style="fill:none;stroke:red;stroke-width:1px;stroke-linecap:butt;stroke-linejoin:miter;stroke-opacity:1" d="M 437.168,500.739 450.474,508.131 z" id="boundary" inkscape:connector-curvature="0" />
	<path style="fill:none;stroke:red;stroke-width:1px;stroke-linecap:butt;stroke-linejoin:miter;stroke-opacity:1" d="M 407.601,500.739 392.817,500.739 z" id="boundary" inkscape:connector-curvature="0" />
	<path style="fill:none;stroke:red;stroke-width:1px;stroke-linecap:butt;stroke-linejoin:miter;stroke-opacity:1" d="M 465.258,508.131 450.474,508.131 z" id="boundary" inkscape:connector-curvature="0" />
	<path style="fill:none;stroke:red;stroke-width:1px;stroke-linecap:butt;stroke-linejoin:miter;stroke-opacity:1" d="M 480.042,508.131 465.258,508.131 z" id="boundary" inkscape:connector-curvature="0" />
	<path style="fill:none;stroke:red;stroke-width:1px;stroke-linecap:butt;stroke-linejoin:miter;stroke-opacity:1" d="M 494.826,508.131 480.042,508.131 z" id="boundary" inkscape:connector-curvature="0" />
	<path style="fill:none;stroke:red;stroke-width:1px;stroke-linecap:butt;stroke-linejoin:miter;stroke-opacity:1" d="M 508.131,500.739 494.826,508.131 z" id="boundary" inkscape:connector-curvature="0" />
	<path style="fill:none;stroke:red;stroke-width:1px;stroke-linecap:butt;stroke-linejoin:miter;stroke-opacity:1" d="M 508.131,500.739 522.915,500.739 z" id="boundary" inkscape:connector-curvature="0" />
	<path style="fill:none;stroke:red;stroke-width:1px;stroke-linecap:butt;stroke-linejoin:miter;stroke-opacity:1" d="M 503.696,4 518.48,4 z" id="boundary" inkscape:connector-curvature="0" />
	<path style="fill:none;stroke:red;stroke-width:1px;stroke-linecap:butt;stroke-linejoin:miter;stroke-opacity:1" d="M 518.48,4 533.264,4 z" id="boundary" inkscape:connector-curvature="0" />
	<path style="fill:none;stroke:red;stroke-width:1px;stroke-linecap:butt;stroke-linejoin:miter;stroke-opacity:1" d="M 548.048,4 562.832,4 z" id="boundary" inkscape:connector-curvature="0" />
	<path style="fill:none;stroke:red;stroke-width:1px;stroke-linecap:butt;stroke-linejoin:miter;stroke-opacity:1" d="M 562.832,4 577.615,4 z" id="boundary" inkscape:connector-curvature="0" />
	<path style="fill:none;stroke:red;stroke-width:1px;stroke-linecap:butt;stroke-linejoin:miter;stroke-opacity:1" d="M 533.264,4 548.048,4 z" id="boundary" inkscape:connector-curvature="0" />
	<path style="fill:none;stroke:red;stroke-width:1px;stroke-linecap:butt;stroke-linejoin:miter;stroke-opacity:1" d="M 592.399,4 605.705,11.392 z" id="boundary" inkscape:connector-curvature="0" />
	<path style="fill:none;stroke:red;stroke-width:1px;stroke-linecap:butt;stroke-linejoin:miter;stroke-opacity:1" d="M 577.615,4 592.399,4 z" id="boundary" inkscape:connector-curvature="0" />
	<path style="fill:none;stroke:red;stroke-width:1px;stroke-linecap:butt;stroke-linejoin:miter;stroke-opacity:1" d="M 619.01,18.7839 633.794,18.7839 z" id="boundary" inkscape:connector-curvature="0" />
	<path style="fill:none;stroke:red;stroke-width:1px;stroke-linecap:butt;stroke-linejoin:miter;stroke-opacity:1" d="M 619.01,18.7839 605.705,11.392 z" id="boundary" inkscape:connector-curvature="0" />
	<path style="fill:none;stroke:red;stroke-width:1px;stroke-linecap:butt;stroke-linejoin:miter;stroke-opacity:1" d="M 648.578,18.7839 633.794,18.7839 z" id="boundary" inkscape:connector-curvature="0" />
	<path style="fill:none;stroke:red;stroke-width:1px;stroke-linecap:butt;stroke-linejoin:miter;stroke-opacity:1" d="M 648.578,18.7839 661.884,26.1759 z" id="boundary" inkscape:connector-curvature="0" />
	<path style="fill:none;stroke:red;stroke-width:1px;stroke-linecap:butt;stroke-linejoin:miter;stroke-opacity:1" d="M 661.884,26.1759 673.711,35.0462 z" id="boundary" inkscape:connector-curvature="0" />
	<path style="fill:none;stroke:red;stroke-width:1px;stroke-linecap:butt;stroke-linejoin:miter;stroke-opacity:1" d="M 688.495,40.9598 673.711,35.0462 z" id="boundary" inkscape:connector-curvature="0" />
	<path style="fill:none;stroke:red;stroke-width:1px;stroke-linecap:butt;stroke-linejoin:miter;stroke-opacity:1" d="M 688.495,40.9598 701.8,48.3517 z" id="boundary" inkscape:connector-curvature="0" />
	<path style="fill:none;stroke:red;stroke-width:1px;stroke-linecap:butt;stroke-linejoin:miter;stroke-opacity:1" d="M 715.106,55.7437 701.8,48.3517 z" id="boundary" inkscape:connector-curvature="0" />
	<path style="fill:none;stroke:red;stroke-width:1px;stroke-linecap:butt;stroke-linejoin:miter;stroke-opacity:1" d="M 729.89,60.1788 715.106,55.7437 z" id="boundary" inkscape:connector-curvature="0" />
	<path style="fill:none;stroke:red;stroke-width:1px;stroke-linecap:butt;stroke-linejoin:miter;stroke-opacity:1" d="M 743.195,67.5708 755.022,77.9195 z" id="boundary" inkscape:connector-curvature="0" />
	<path style="fill:none;stroke:red;stroke-width:1px;stroke-linecap:butt;stroke-linejoin:miter;stroke-opacity:1" d="M 743.195,67.5708 729.89,60.1788 z" id="boundary" inkscape:connector-curvature="0" />
	<path style="fill:none;stroke:red;stroke-width:1px;stroke-linecap:butt;stroke-linejoin:miter;stroke-opacity:1" d="M 790.504,107.487 777.198,100.095 z" id="boundary" inkscape:connector-curvature="0" />
	<path style="fill:none;stroke:red;stroke-width:1px;stroke-linecap:butt;stroke-linejoin:miter;stroke-opacity:1" d="M 777.198,100.095 765.371,89.7466 z" id="boundary" inkscape:connector-curvature="0" />
	<path style="fill:none;stroke:red;stroke-width:1px;stroke-linecap:butt;stroke-linejoin:miter;stroke-opacity:1" d="M 765.371,89.7466 755.022,77.9195 z" id="boundary" inkscape:connector-curvature="0" />
	<path style="fill:none;stroke:red;stroke-width:1px;stroke-linecap:butt;stroke-linejoin:miter;stroke-opacity:1" d="M 802.331,117.836 811.201,129.663 z" id="boundary" inkscape:connector-curvature="0" />
	<path style="fill:none;stroke:red;stroke-width:1px;stroke-linecap:butt;stroke-linejoin:miter;stroke-opacity:1" d="M 908.775,138.534 893.991,145.925 z" id="boundary" inkscape:connector-curvature="0" />
	<path style="fill:none;stroke:red;stroke-width:1px;stroke-linecap:butt;stroke-linejoin:miter;stroke-opacity:1" d="M 818.593,142.969 811.201,129.663 z" id="boundary" inkscape:connector-curvature="0" />
	<path style="fill:none;stroke:red;stroke-width:1px;stroke-linecap:butt;stroke-linejoin:miter;stroke-opacity:1" d="M 893.991,145.925 879.207,151.839 z" id="boundary" inkscape:connector-curvature="0" />
	<path style="fill:none;stroke:red;stroke-width:1px;stroke-linecap:butt;stroke-linejoin:miter;stroke-opacity:1" d="M 802.331,117.836 790.504,107.487 z" id="boundary" inkscape:connector-curvature="0" />
	<path style="fill:none;stroke:red;stroke-width:1px;stroke-linecap:butt;stroke-linejoin:miter;stroke-opacity:1" d="M 818.593,142.969 825.985,156.274 z" id="boundary" inkscape:connector-curvature="0" />
	<path style="fill:none;stroke:red;stroke-width:1px;stroke-linecap:butt;stroke-linejoin:miter;stroke-opacity:1" d="M 936.864,129.663 951.648,134.098 z" id="boundary" inkscape:connector-curvature="0" />
	<path style="fill:none;stroke:red;stroke-width:1px;stroke-linecap:butt;stroke-linejoin:miter;stroke-opacity:1" d="M 923.559,137.055 936.864,129.663 z" id="boundary" inkscape:connector-curvature="0" />
	<path style="fill:none;stroke:red;stroke-width:1px;stroke-linecap:butt;stroke-linejoin:miter;stroke-opacity:1" d="M 923.559,137.055 908.775,138.534 z" id="boundary" inkscape:connector-curvature="0" />
	<path style="fill:none;stroke:red;stroke-width:1px;stroke-linecap:butt;stroke-linejoin:miter;stroke-opacity:1" d="M 951.648,134.098 964.954,141.49 z" id="boundary" inkscape:connector-curvature="0" />
	<path style="fill:none;stroke:red;stroke-width:1px;stroke-linecap:butt;stroke-linejoin:miter;stroke-opacity:1" d="M 879.207,151.839 865.902,159.231 z" id="boundary" inkscape:connector-curvature="0" />
	<path style="fill:none;stroke:red;stroke-width:1px;stroke-linecap:butt;stroke-linejoin:miter;stroke-opacity:1" d="M 852.596,166.623 837.812,166.623 z" id="boundary" inkscape:connector-curvature="0" />
	<path style="fill:none;stroke:red;stroke-width:1px;stroke-linecap:butt;stroke-linejoin:miter;stroke-opacity:1" d="M 837.812,166.623 825.985,156.274 z" id="boundary" inkscape:connector-curvature="0" />
	<path style="fill:none;stroke:red;stroke-width:1px;stroke-linecap:butt;stroke-linejoin:miter;stroke-opacity:1" d="M 865.902,159.231 852.596,166.623 z" id="boundary" inkscape:connector-curvature="0" />
	<path style="fill:none;stroke:red;stroke-width:1px;stroke-linecap:butt;stroke-linejoin:miter;stroke-opacity:1" d="M 981.216,166.623 988.608,179.928 z" id="boundary" inkscape:connector-curvature="0" />
	<path style="fill:none;stroke:red;stroke-width:1px;stroke-linecap:butt;stroke-linejoin:miter;stroke-opacity:1" d="M 981.216,166.623 976.781,151.839 z" id="boundary" inkscape:connector-curvature="0" />
	<path style="fill:none;stroke:red;stroke-width:1px;stroke-linecap:butt;stroke-linejoin:miter;stroke-opacity:1" d="M 988.608,179.928 996,193.234 z" id="boundary" inkscape:connector-curvature="0" />
	<path style="fill:none;stroke:red;stroke-width:1px;stroke-linecap:butt;stroke-linejoin:miter;stroke-opacity:1" d="M 996,193.234 996,208.018 z" id="boundary" inkscape:connector-curvature="0" />
	<path style="fill:none;stroke:red;stroke-width:1px;stroke-linecap:butt;stroke-linejoin:miter;stroke-opacity:1" d="M 964.954,141.49 976.781,151.839 z" id="boundary" inkscape:connector-curvature="0" />
	<path style="fill:none;stroke:red;stroke-width:1px;stroke-linecap:butt;stroke-linejoin:miter;stroke-opacity:1" d="M 996,208.018 996,222.802 z" id="boundary" inkscape:connector-curvature="0" />
	<path style="fill:none;stroke:red;stroke-width:1px;stroke-linecap:butt;stroke-linejoin:miter;stroke-opacity:1" d="M 706.235,448.996 719.541,441.604 z" id="boundary" inkscape:connector-curvature="0" />
	<path style="fill:none;stroke:red;stroke-width:1px;stroke-linecap:butt;stroke-linejoin:miter;stroke-opacity:1" d="M 666.319,471.171 679.624,463.779 z" id="boundary" inkscape:connector-curvature="0" />
	<path style="fill:none;stroke:red;stroke-width:1px;stroke-linecap:butt;stroke-linejoin:miter;stroke-opacity:1" d="M 692.93,456.387 679.624,463.779 z" id="boundary" inkscape:connector-curvature="0" />
	<path style="fill:none;stroke:red;stroke-width:1px;stroke-linecap:butt;stroke-linejoin:miter;stroke-opacity:1" d="M 692.93,456.387 706.235,448.996 z" id="boundary" inkscape:connector-curvature="0" />
	<path style="fill:none;stroke:red;stroke-width:1px;stroke-linecap:butt;stroke-linejoin:miter;stroke-opacity:1" d="M 769.806,403.165 781.633,389.86 z" id="boundary" inkscape:connector-curvature="0" />
	<path style="fill:none;stroke:red;stroke-width:1px;stroke-linecap:butt;stroke-linejoin:miter;stroke-opacity:1" d="M 781.633,389.86 793.461,379.511 z" id="boundary" inkscape:connector-curvature="0" />
	<path style="fill:none;stroke:red;stroke-width:1px;stroke-linecap:butt;stroke-linejoin:miter;stroke-opacity:1" d="M 769.806,403.165 757.979,412.036 z" id="boundary" inkscape:connector-curvature="0" />
	<path style="fill:none;stroke:red;stroke-width:1px;stroke-linecap:butt;stroke-linejoin:miter;stroke-opacity:1" d="M 732.846,432.733 744.674,419.428 z" id="boundary" inkscape:connector-curvature="0" />
	<path style="fill:none;stroke:red;stroke-width:1px;stroke-linecap:butt;stroke-linejoin:miter;stroke-opacity:1" d="M 744.674,419.428 757.979,412.036 z" id="boundary" inkscape:connector-curvature="0" />
	<path style="fill:none;stroke:red;stroke-width:1px;stroke-linecap:butt;stroke-linejoin:miter;stroke-opacity:1" d="M 732.846,432.733 719.541,441.604 z" id="boundary" inkscape:connector-curvature="0" />
	<path style="fill:none;stroke:red;stroke-width:1px;stroke-linecap:butt;stroke-linejoin:miter;stroke-opacity:1" d="M 537.699,500.739 522.915,500.739 z" id="boundary" inkscape:connector-curvature="0" />
	<path style="fill:none;stroke:red;stroke-width:1px;stroke-linecap:butt;stroke-linejoin:miter;stroke-opacity:1" d="M 537.699,500.739 552.483,500.739 z" id="boundary" inkscape:connector-curvature="0" />
	<path style="fill:none;stroke:red;stroke-width:1px;stroke-linecap:butt;stroke-linejoin:miter;stroke-opacity:1" d="M 567.267,500.739 552.483,500.739 z" id="boundary" inkscape:connector-curvature="0" />
	<path style="fill:none;stroke:red;stroke-width:1px;stroke-linecap:butt;stroke-linejoin:miter;stroke-opacity:1" d="M 580.572,493.347 567.267,500.739 z" id="boundary" inkscape:connector-curvature="0" />
	<path style="fill:none;stroke:red;stroke-width:1px;stroke-linecap:butt;stroke-linejoin:miter;stroke-opacity:1" d="M 580.572,493.347 595.356,493.347 z" id="boundary" inkscape:connector-curvature="0" />
	<path style="fill:none;stroke:red;stroke-width:1px;stroke-linecap:butt;stroke-linejoin:miter;stroke-opacity:1" d="M 653.013,478.563 639.708,485.955 z" id="boundary" inkscape:connector-curvature="0" />
	<path style="fill:none;stroke:red;stroke-width:1px;stroke-linecap:butt;stroke-linejoin:miter;stroke-opacity:1" d="M 639.708,485.955 624.924,485.955 z" id="boundary" inkscape:connector-curvature="0" />
	<path style="fill:none;stroke:red;stroke-width:1px;stroke-linecap:butt;stroke-linejoin:miter;stroke-opacity:1" d="M 624.924,485.955 610.14,488.912 z" id="boundary" inkscape:connector-curvature="0" />
	<path style="fill:none;stroke:red;stroke-width:1px;stroke-linecap:butt;stroke-linejoin:miter;stroke-opacity:1" d="M 595.356,493.347 610.14,488.912 z" id="boundary" inkscape:connector-curvature="0" />
	<path style="fill:none;stroke:red;stroke-width:1px;stroke-linecap:butt;stroke-linejoin:miter;stroke-opacity:1" d="M 666.319,471.171 653.013,478.563 z" id="boundary" inkscape:connector-curvature="0" />
	<path style="fill:none;stroke:red;stroke-width:1px;stroke-linecap:butt;stroke-linejoin:miter;stroke-opacity:1" d="M 833.377,293.765 846.683,286.373 z" id="boundary" inkscape:connector-curvature="0" />
	<path style="fill:none;stroke:red;stroke-width:1px;stroke-linecap:butt;stroke-linejoin:miter;stroke-opacity:1" d="M 846.683,286.373 859.988,293.765 z" id="boundary" inkscape:connector-curvature="0" />
	<path style="fill:none;stroke:red;stroke-width:1px;stroke-linecap:butt;stroke-linejoin:miter;stroke-opacity:1" d="M 859.988,293.765 873.294,301.156 z" id="boundary" inkscape:connector-curvature="0" />
	<path style="fill:none;stroke:red;stroke-width:1px;stroke-linecap:butt;stroke-linejoin:miter;stroke-opacity:1" d="M 885.121,311.505 873.294,301.156 z" id="boundary" inkscape:connector-curvature="0" />
	<path style="fill:none;stroke:red;stroke-width:1px;stroke-linecap:butt;stroke-linejoin:miter;stroke-opacity:1" d="M 830.42,320.376 833.377,293.765 z" id="boundary" inkscape:connector-curvature="0" />
	<path style="fill:none;stroke:red;stroke-width:1px;stroke-linecap:butt;stroke-linejoin:miter;stroke-opacity:1" d="M 996,222.802 996,237.586 z" id="boundary" inkscape:connector-curvature="0" />
	<path style="fill:none;stroke:red;stroke-width:1px;stroke-linecap:butt;stroke-linejoin:miter;stroke-opacity:1" d="M 996,237.586 988.608,264.197 z" id="boundary" inkscape:connector-curvature="0" />
	<path style="fill:none;stroke:red;stroke-width:1px;stroke-linecap:butt;stroke-linejoin:miter;stroke-opacity:1" d="M 973.824,301.156 981.216,278.981 z" id="boundary" inkscape:connector-curvature="0" />
	<path style="fill:none;stroke:red;stroke-width:1px;stroke-linecap:butt;stroke-linejoin:miter;stroke-opacity:1" d="M 981.216,278.981 988.608,264.197 z" id="boundary" inkscape:connector-curvature="0" />
	<path style="fill:none;stroke:red;stroke-width:1px;stroke-linecap:butt;stroke-linejoin:miter;stroke-opacity:1" d="M 823.028,335.159 830.42,320.376 z" id="boundary" inkscape:connector-curvature="0" />
	<path style="fill:none;stroke:red;stroke-width:1px;stroke-linecap:butt;stroke-linejoin:miter;stroke-opacity:1" d="M 793.461,379.511 803.809,360.292 z" id="boundary" inkscape:connector-curvature="0" />
	<path style="fill:none;stroke:red;stroke-width:1px;stroke-linecap:butt;stroke-linejoin:miter;stroke-opacity:1" d="M 803.809,360.292 815.636,349.943 z" id="boundary" inkscape:connector-curvature="0" />
	<path style="fill:none;stroke:red;stroke-width:1px;stroke-linecap:butt;stroke-linejoin:miter;stroke-opacity:1" d="M 823.028,335.159 815.636,349.943 z" id="boundary" inkscape:connector-curvature="0" />
	<path style="fill:none;stroke:red;stroke-width:1px;stroke-linecap:butt;stroke-linejoin:miter;stroke-opacity:1" d="M 910.253,329.246 895.469,323.332 z" id="boundary" inkscape:connector-curvature="0" />
	<path style="fill:none;stroke:red;stroke-width:1px;stroke-linecap:butt;stroke-linejoin:miter;stroke-opacity:1" d="M 895.469,323.332 885.121,311.505 z" id="boundary" inkscape:connector-curvature="0" />
	<path style="fill:none;stroke:red;stroke-width:1px;stroke-linecap:butt;stroke-linejoin:miter;stroke-opacity:1" d="M 963.475,320.376 951.648,330.724 z" id="boundary" inkscape:connector-curvature="0" />
	<path style="fill:none;stroke:red;stroke-width:1px;stroke-linecap:butt;stroke-linejoin:miter;stroke-opacity:1" d="M 910.253,329.246 923.559,336.638 z" id="boundary" inkscape:connector-curvature="0" />
	<path style="fill:none;stroke:red;stroke-width:1px;stroke-linecap:butt;stroke-linejoin:miter;stroke-opacity:1" d="M 951.648,330.724 938.343,338.116 z" id="boundary" inkscape:connector-curvature="0" />
	<path style="fill:none;stroke:red;stroke-width:1px;stroke-linecap:butt;stroke-linejoin:miter;stroke-opacity:1" d="M 938.343,338.116 923.559,336.638 z" id="boundary" inkscape:connector-curvature="0" />
	<path style="fill:none;stroke:red;stroke-width:1px;stroke-linecap:butt;stroke-linejoin:miter;stroke-opacity:1" d="M 973.824,301.156 963.475,320.376 z" id="boundary" inkscape:connector-curvature="0" />
	<circle cx="4" cy="244.978" r="4" fill="#0" id="circle0"/>
	<circle cx="4" cy="259.762" r="4" fill="#0" id="circle1"/>
	<circle cx="4" cy="274.545" r="4" fill="#0" id="circle2"/>
	<circle cx="11.392" cy="287.851" r="4" fill="#0" id="circle3"/>
	<circle cx="15.8271" cy="233.151" r="4" fill="#0" id="circle4"/>
	<circle cx="26.1759" cy="293.765" r="4" fill="#0" id="circle5"/>
	<circle cx="27.6542" cy="221.323" r="4" fill="#0" id="circle6"/>
	<circle cx="35.0462" cy="305.592" r="4" fill="#0" id="circle7"/>
	<circle cx="39.4814" cy="210.975" r="4" fill="#0" id="circle8"/>
	<circle cx="49.8301" cy="199.148" r="4" fill="#0" id="circle9"/>
	<circle cx="49.8301" cy="311.505" r="4" fill="#0" id="circle10"/>
	<circle cx="60.1788" cy="323.332" r="4" fill="#0" id="circle11"/>
	<circle cx="61.6572" cy="188.799" r="4" fill="#0" id="circle12"/>
	<circle cx="67.5708" cy="174.015" r="4" fill="#0" id="circle13"/>
	<circle cx="72.006" cy="333.681" r="4" fill="#0" id="circle14"/>
	<circle cx="74.9627" cy="159.231" r="4" fill="#0" id="circle15"/>
	<circle cx="85.3115" cy="341.073" r="4" fill="#0" id="circle16"/>
	<circle cx="86.7899" cy="147.404" r="4" fill="#0" id="circle17"/>
	<circle cx="98.617" cy="137.055" r="4" fill="#0" id="circle18"/>
	<circle cx="100.095" cy="345.508" r="4" fill="#0" id="circle19"/>
	<circle cx="108.966" cy="357.335" r="4" fill="#0" id="circle20"/>
	<circle cx="111.923" cy="129.663" r="4" fill="#0" id="circle21"/>
	<circle cx="120.793" cy="367.684" r="4" fill="#0" id="circle22"/>
	<circle cx="123.75" cy="117.836" r="4" fill="#0" id="circle23"/>
	<circle cx="134.098" cy="375.076" r="4" fill="#0" id="circle24"/>
	<circle cx="135.577" cy="107.487" r="4" fill="#0" id="circle25"/>
	<circle cx="145.925" cy="385.425" r="4" fill="#0" id="circle26"/>
	<circle cx="148.882" cy="100.095" r="4" fill="#0" id="circle27"/>
	<circle cx="159.231" cy="392.817" r="4" fill="#0" id="circle28"/>
	<circle cx="160.709" cy="88.2683" r="4" fill="#0" id="circle29"/>
	<circle cx="174.015" cy="397.252" r="4" fill="#0" id="circle30"/>
	<circle cx="175.493" cy="80.8763" r="4" fill="#0" id="circle31"/>
	<circle cx="187.32" cy="70.5276" r="4" fill="#0" id="circle32"/>
	<circle cx="188.799" cy="397.252" r="4" fill="#0" id="circle33"/>
	<circle cx="193.234" cy="412.036" r="4" fill="#0" id="circle34"/>
	<circle cx="200.626" cy="63.1356" r="4" fill="#0" id="circle35"/>
	<circle cx="206.539" cy="419.428" r="4" fill="#0" id="circle36"/>
	<circle cx="213.931" cy="55.7437" r="4" fill="#0" id="circle37"/>
	<circle cx="218.367" cy="428.298" r="4" fill="#0" id="circle38"/>
	<circle cx="225.759" cy="45.3949" r="4" fill="#0" id="circle39"/>
	<circle cx="228.715" cy="440.125" r="4" fill="#0" id="circle40"/>
	<circle cx="240.542" cy="38.003" r="4" fill="#0" id="circle41"/>
	<circle cx="240.542" cy="448.996" r="4" fill="#0" id="circle42"/>
	<circle cx="253.848" cy="456.387" r="4" fill="#0" id="circle43"/>
	<circle cx="255.326" cy="33.5678" r="4" fill="#0" id="circle44"/>
	<circle cx="267.154" cy="463.779" r="4" fill="#0" id="circle45"/>
	<circle cx="270.11" cy="33.5678" r="4" fill="#0" id="circle46"/>
	<circle cx="280.459" cy="471.171" r="4" fill="#0" id="circle47"/>
	<circle cx="284.894" cy="30.611" r="4" fill="#0" id="circle48"/>
	<circle cx="293.765" cy="478.563" r="4" fill="#0" id="circle49"/>
	<circle cx="299.678" cy="23.2191" r="4" fill="#0" id="circle50"/>
	<circle cx="307.07" cy="485.955" r="4" fill="#0" id="circle51"/>
	<circle cx="314.462" cy="18.7839" r="4" fill="#0" id="circle52"/>
	<circle cx="321.854" cy="485.955" r="4" fill="#0" id="circle53"/>
	<circle cx="327.768" cy="11.392" r="4" fill="#0" id="circle54"/>
	<circle cx="336.638" cy="485.955" r="4" fill="#0" id="circle55"/>
	<circle cx="342.551" cy="11.392" r="4" fill="#0" id="circle56"/>
	<circle cx="349.943" cy="493.347" r="4" fill="#0" id="circle57"/>
	<circle cx="357.335" cy="11.392" r="4" fill="#0" id="circle58"/>
	<circle cx="364.727" cy="493.347" r="4" fill="#0" id="circle59"/>
	<circle cx="370.641" cy="4" r="4" fill="#0" id="circle60"/>
	<circle cx="378.033" cy="500.739" r="4" fill="#0" id="circle61"/>
	<circle cx="385.425" cy="4" r="4" fill="#0" id="circle62"/>
	<circle cx="392.817" cy="500.739" r="4" fill="#0" id="circle63"/>
	<circle cx="400.209" cy="4" r="4" fill="#0" id="circle64"/>
	<circle cx="407.601" cy="500.739" r="4" fill="#0" id="circle65"/>
	<circle cx="414.993" cy="4" r="4" fill="#0" id="circle66"/>
	<circle cx="422.385" cy="500.739" r="4" fill="#0" id="circle67"/>
	<circle cx="429.776" cy="4" r="4" fill="#0" id="circle68"/>
	<circle cx="437.168" cy="500.739" r="4" fill="#0" id="circle69"/>
	<circle cx="444.56" cy="4" r="4" fill="#0" id="circle70"/>
	<circle cx="450.474" cy="508.131" r="4" fill="#0" id="circle71"/>
	<circle cx="459.344" cy="4" r="4" fill="#0" id="circle72"/>
	<circle cx="465.258" cy="508.131" r="4" fill="#0" id="circle73"/>
	<circle cx="474.128" cy="4" r="4" fill="#0" id="circle74"/>
	<circle cx="480.042" cy="508.131" r="4" fill="#0" id="circle75"/>
	<circle cx="488.912" cy="4" r="4" fill="#0" id="circle76"/>
	<circle cx="494.826" cy="508.131" r="4" fill="#0" id="circle77"/>
	<circle cx="503.696" cy="4" r="4" fill="#0" id="circle78"/>
	<circle cx="508.131" cy="500.739" r="4" fill="#0" id="circle79"/>
	<circle cx="518.48" cy="4" r="4" fill="#0" id="circle80"/>
	<circle cx="522.915" cy="500.739" r="4" fill="#0" id="circle81"/>
	<circle cx="533.264" cy="4" r="4" fill="#0" id="circle82"/>
	<circle cx="537.699" cy="500.739" r="4" fill="#0" id="circle83"/>
	<circle cx="548.048" cy="4" r="4" fill="#0" id="circle84"/>
	<circle cx="552.483" cy="500.739" r="4" fill="#0" id="circle85"/>
	<circle cx="562.832" cy="4" r="4" fill="#0" id="circle86"/>
	<circle cx="567.267" cy="500.739" r="4" fill="#0" id="circle87"/>
	<circle cx="577.615" cy="4" r="4" fill="#0" id="circle88"/>
	<circle cx="580.572" cy="493.347" r="4" fill="#0" id="circle89"/>
	<circle cx="592.399" cy="4" r="4" fill="#0" id="circle90"/>
	<circle cx="595.356" cy="493.347" r="4" fill="#0" id="circle91"/>
	<circle cx="605.705" cy="11.392" r="4" fill="#0" id="circle92"/>
	<circle cx="610.14" cy="488.912" r="4" fill="#0" id="circle93"/>
	<circle cx="619.01" cy="18.7839" r="4" fill="#0" id="circle94"/>
	<circle cx="624.924" cy="485.955" r="4" fill="#0" id="circle95"/>
	<circle cx="633.794" cy="18.7839" r="4" fill="#0" id="circle96"/>
	<circle cx="639.708" cy="485.955" r="4" fill="#0" id="circle97"/>
	<circle cx="648.578" cy="18.7839" r="4" fill="#0" id="circle98"/>
	<circle cx="653.013" cy="478.563" r="4" fill="#0" id="circle99"/>
	<circle cx="661.884" cy="26.1759" r="4" fill="#0" id="circle100"/>
	<circle cx="666.319" cy="471.171" r="4" fill="#0" id="circle101"/>
	<circle cx="673.711" cy="35.0462" r="4" fill="#0" id="circle102"/>
	<circle cx="679.624" cy="463.779" r="4" fill="#0" id="circle103"/>
	<circle cx="688.495" cy="40.9598" r="4" fill="#0" id="circle104"/>
	<circle cx="692.93" cy="456.387" r="4" fill="#0" id="circle105"/>
	<circle cx="701.8" cy="48.3517" r="4" fill="#0" id="circle106"/>
	<circle cx="706.235" cy="448.996" r="4" fill="#0" id="circle107"/>
	<circle cx="715.106" cy="55.7437" r="4" fill="#0" id="circle108"/>
	<circle cx="719.541" cy="441.604" r="4" fill="#0" id="circle109"/>
	<circle cx="729.89" cy="60.1788" r="4" fill="#0" id="circle110"/>
	<circle cx="732.846" cy="432.733" r="4" fill="#0" id="circle111"/>
	<circle cx="743.195" cy="67.5708" r="4" fill="#0" id="circle112"/>
	<circle cx="744.674" cy="419.428" r="4" fill="#0" id="circle113"/>
	<circle cx="755.022" cy="77.9195" r="4" fill="#0" id="circle114"/>
	<circle cx="757.979" cy="412.036" r="4" fill="#0" id="circle115"/>
	<circle cx="765.371" cy="89.7466" r="4" fill="#0" id="circle116"/>
	<circle cx="769.806" cy="403.165" r="4" fill="#0" id="circle117"/>
	<circle cx="777.198" cy="100.095" r="4" fill="#0" id="circle118"/>
	<circle cx="781.633" cy="389.86" r="4" fill="#0" id="circle119"/>
	<circle cx="790.504" cy="107.487" r="4" fill="#0" id="circle120"/>
	<circle cx="793.461" cy="379.511" r="4" fill="#0" id="circle121"/>
	<circle cx="802.331" cy="117.836" r="4" fill="#0" id="circle122"/>
	<circle cx="803.809" cy="360.292" r="4" fill="#0" id="circle123"/>
	<circle cx="811.201" cy="129.663" r="4" fill="#0" id="circle124"/>
	<circle cx="815.636" cy="349.943" r="4" fill="#0" id="circle125"/>
	<circle cx="818.593" cy="142.969" r="4" fill="#0" id="circle126"/>
	<circle cx="823.028" cy="335.159" r="4" fill="#0" id="circle127"/>
	<circle cx="825.985" cy="156.274" r="4" fill="#0" id="circle128"/>
	<circle cx="830.42" cy="320.376" r="4" fill="#0" id="circle129"/>
	<circle cx="833.377" cy="293.765" r="4" fill="#0" id="circle130"/>
	<circle cx="837.812" cy="166.623" r="4" fill="#0" id="circle131"/>
	<circle cx="846.683" cy="286.373" r="4" fill="#0" id="circle132"/>
	<circle cx="852.596" cy="166.623" r="4" fill="#0" id="circle133"/>
	<circle cx="859.988" cy="293.765" r="4" fill="#0" id="circle134"/>
	<circle cx="865.902" cy="159.231" r="4" fill="#0" id="circle135"/>
	<circle cx="873.294" cy="301.156" r="4" fill="#0" id="circle136"/>
	<circle cx="879.207" cy="151.839" r="4" fill="#0" id="circle137"/>
	<circle cx="885.121" cy="311.505" r="4" fill="#0" id="circle138"/>
	<circle cx="893.991" cy="145.925" r="4" fill="#0" id="circle139"/>
	<circle cx="895.469" cy="323.332" r="4" fill="#0" id="circle140"/>
	<circle cx="908.775" cy="138.534" r="4" fill="#0" id="circle141"/>
	<circle cx="910.253" cy="329.246" r="4" fill="#0" id="circle142"/>
	<circle cx="923.559" cy="137.055" r="4" fill="#0" id="circle143"/>
	<circle cx="923.559" cy="336.638" r="4" fill="#0" id="circle144"/>
	<circle cx="936.864" cy="129.663" r="4" fill="#0" id="circle145"/>
	<circle cx="938.343" cy="338.116" r="4" fill="#0" id="circle146"/>
	<circle cx="951.648" cy="134.098" r="4" fill="#0" id="circle147"/>
	<circle cx="951.648" cy="330.724" r="4" fill="#0" id="circle148"/>
	<circle cx="963.475" cy="320.376" r="4" fill="#0" id="circle149"/>
	<circle cx="964.954" cy="141.49" r="4" fill="#0" id="circle150"/>
	<circle cx="973.824" cy="301.156" r="4" fill="#0" id="circle151"/>
	<circle cx="976.781" cy="151.839" r="4" fill="#0" id="circle152"/>
	<circle cx="981.216" cy="166.623" r="4" fill="#0" id="circle153"/>
	<circle cx="981.216" cy="278.981" r="4" fill="#0" id="circle154"/>
	<circle cx="988.608" cy="179.928" r="4" fill="#0" id="circle155"/>
	<circle cx="988.608" cy="264.197" r="4" fill="#0" id="circle156"/>
	<circle cx="996" cy="193.234" r="4" fill="#0" id="circle157"/>
	<circle cx="996" cy="208.018" r="4" fill="#0" id="circle158"/>
	<circle cx="996" cy="222.802" r="4" fill="#0" id="circle159"/>
	<circle cx="996" cy="237.586" r="4" fill="#0" id="circle160"/>
	</g>
</svg>