<?xml version="1.0" encoding="UTF-8" standalone="no"?>
<!-- Created with CurveBenchmark -->
<svg
	xmlns:dc="http://purl.org/dc/elements/1.1/"
	xmlns:cc="http://creativecommons.org/ns#"
	xmlns:rdf="http://www.w3.org/1999/02/22-rdf-syntax-ns#"
	xmlns:svg="http://www.w3.org/2000/svg"
	xmlns="http://www.w3.org/2000/svg"
	xmlns:sodipodi="http://sodipodi.sourceforge.net/DTD/sodipodi-0.dtd"
	xmlns:inkscape="http://www.inkscape.org/namespaces/inkscape"
	width="1000"
	height="1000"
	id="svg2"
	version="1.1"
	sodipodi:docname="manifold/ccrust-key04.png.txt">
<defs
	id="defs4" />
<metadata
	id="metadata7">
	<rdf:RDF>
		<cc:Work
			rdf:about="">
			<dc:format>image/svg+xml</dc:format>
			<dc:type
				rdf:resource="http://purl.org/dc/dcmitype/StillImage" />
			<dc:title></dc:title>
		</cc:Work>
	</rdf:RDF>
</metadata>
<g
	inkscape:label="Layer 1"
	inkscape:groupmode="layer"
	id="layer1">
	<path style="fill:none;stroke:red;stroke-width:1px;stroke-linecap:butt;stroke-linejoin:miter;stroke-opacity:1" d="M 145.714,48.8463 131.363,61.4033 z" id="boundary" inkscape:connector-curvature="0" />
	<path style="fill:none;stroke:red;stroke-width:1px;stroke-linecap:butt;stroke-linejoin:miter;stroke-opacity:1" d="M 131.363,61.4033 113.425,66.7848 z" id="boundary" inkscape:connector-curvature="0" />
	<path style="fill:none;stroke:red;stroke-width:1px;stroke-linecap:butt;stroke-linejoin:miter;stroke-opacity:1" d="M 77.5479,79.3418 95.4864,70.3725 z" id="boundary" inkscape:connector-curvature="0" />
	<path style="fill:none;stroke:red;stroke-width:1px;stroke-linecap:butt;stroke-linejoin:miter;stroke-opacity:1" d="M 95.4864,70.3725 113.425,66.7848 z" id="boundary" inkscape:connector-curvature="0" />
	<path style="fill:none;stroke:red;stroke-width:1px;stroke-linecap:butt;stroke-linejoin:miter;stroke-opacity:1" d="M 195.942,30.9078 179.797,39.877 z" id="boundary" inkscape:connector-curvature="0" />
	<path style="fill:none;stroke:red;stroke-width:1px;stroke-linecap:butt;stroke-linejoin:miter;stroke-opacity:1" d="M 179.797,39.877 161.859,39.877 z" id="boundary" inkscape:connector-curvature="0" />
	<path style="fill:none;stroke:red;stroke-width:1px;stroke-linecap:butt;stroke-linejoin:miter;stroke-opacity:1" d="M 145.714,48.8463 161.859,39.877 z" id="boundary" inkscape:connector-curvature="0" />
	<path style="fill:none;stroke:red;stroke-width:1px;stroke-linecap:butt;stroke-linejoin:miter;stroke-opacity:1" d="M 4,179.797 4,161.859 z" id="boundary" inkscape:connector-curvature="0" />
	<path style="fill:none;stroke:red;stroke-width:1px;stroke-linecap:butt;stroke-linejoin:miter;stroke-opacity:1" d="M 4,161.859 12.9693,143.92 z" id="boundary" inkscape:connector-curvature="0" />
	<path style="fill:none;stroke:red;stroke-width:1px;stroke-linecap:butt;stroke-linejoin:miter;stroke-opacity:1" d="M 4,197.736 4,179.797 z" id="boundary" inkscape:connector-curvature="0" />
	<path style="fill:none;stroke:red;stroke-width:1px;stroke-linecap:butt;stroke-linejoin:miter;stroke-opacity:1" d="M 12.9693,125.982 12.9693,143.92 z" id="boundary" inkscape:connector-curvature="0" />
	<path style="fill:none;stroke:red;stroke-width:1px;stroke-linecap:butt;stroke-linejoin:miter;stroke-opacity:1" d="M 41.6709,97.2803 59.6094,88.311 z" id="boundary" inkscape:connector-curvature="0" />
	<path style="fill:none;stroke:red;stroke-width:1px;stroke-linecap:butt;stroke-linejoin:miter;stroke-opacity:1" d="M 27.3201,111.631 41.6709,97.2803 z" id="boundary" inkscape:connector-curvature="0" />
	<path style="fill:none;stroke:red;stroke-width:1px;stroke-linecap:butt;stroke-linejoin:miter;stroke-opacity:1" d="M 12.9693,125.982 27.3201,111.631 z" id="boundary" inkscape:connector-curvature="0" />
	<path style="fill:none;stroke:red;stroke-width:1px;stroke-linecap:butt;stroke-linejoin:miter;stroke-opacity:1" d="M 59.6094,88.311 77.5479,79.3418 z" id="boundary" inkscape:connector-curvature="0" />
	<path style="fill:none;stroke:red;stroke-width:1px;stroke-linecap:butt;stroke-linejoin:miter;stroke-opacity:1" d="M 195.942,30.9078 213.881,30.9078 z" id="boundary" inkscape:connector-curvature="0" />
	<path style="fill:none;stroke:red;stroke-width:1px;stroke-linecap:butt;stroke-linejoin:miter;stroke-opacity:1" d="M 353.801,4 371.74,4 z" id="boundary" inkscape:connector-curvature="0" />
	<path style="fill:none;stroke:red;stroke-width:1px;stroke-linecap:butt;stroke-linejoin:miter;stroke-opacity:1" d="M 335.863,9.38156 353.801,4 z" id="boundary" inkscape:connector-curvature="0" />
	<path style="fill:none;stroke:red;stroke-width:1px;stroke-linecap:butt;stroke-linejoin:miter;stroke-opacity:1" d="M 371.74,4 389.678,4 z" id="boundary" inkscape:connector-curvature="0" />
	<path style="fill:none;stroke:red;stroke-width:1px;stroke-linecap:butt;stroke-linejoin:miter;stroke-opacity:1" d="M 425.555,4 443.494,4 z" id="boundary" inkscape:connector-curvature="0" />
	<path style="fill:none;stroke:red;stroke-width:1px;stroke-linecap:butt;stroke-linejoin:miter;stroke-opacity:1" d="M 389.678,4 407.617,4 z" id="boundary" inkscape:connector-curvature="0" />
	<path style="fill:none;stroke:red;stroke-width:1px;stroke-linecap:butt;stroke-linejoin:miter;stroke-opacity:1" d="M 443.494,4 461.432,4 z" id="boundary" inkscape:connector-curvature="0" />
	<path style="fill:none;stroke:red;stroke-width:1px;stroke-linecap:butt;stroke-linejoin:miter;stroke-opacity:1" d="M 461.432,4 477.577,12.9693 z" id="boundary" inkscape:connector-curvature="0" />
	<path style="fill:none;stroke:red;stroke-width:1px;stroke-linecap:butt;stroke-linejoin:miter;stroke-opacity:1" d="M 230.025,21.9385 247.964,21.9385 z" id="boundary" inkscape:connector-curvature="0" />
	<path style="fill:none;stroke:red;stroke-width:1px;stroke-linecap:butt;stroke-linejoin:miter;stroke-opacity:1" d="M 213.881,30.9078 230.025,21.9385 z" id="boundary" inkscape:connector-curvature="0" />
	<path style="fill:none;stroke:red;stroke-width:1px;stroke-linecap:butt;stroke-linejoin:miter;stroke-opacity:1" d="M 247.964,21.9385 265.902,21.9385 z" id="boundary" inkscape:connector-curvature="0" />
	<path style="fill:none;stroke:red;stroke-width:1px;stroke-linecap:butt;stroke-linejoin:miter;stroke-opacity:1" d="M 282.047,12.9693 265.902,21.9385 z" id="boundary" inkscape:connector-curvature="0" />
	<path style="fill:none;stroke:red;stroke-width:1px;stroke-linecap:butt;stroke-linejoin:miter;stroke-opacity:1" d="M 282.047,12.9693 299.986,12.9693 z" id="boundary" inkscape:connector-curvature="0" />
	<path style="fill:none;stroke:red;stroke-width:1px;stroke-linecap:butt;stroke-linejoin:miter;stroke-opacity:1" d="M 317.924,12.9693 335.863,9.38156 z" id="boundary" inkscape:connector-curvature="0" />
	<path style="fill:none;stroke:red;stroke-width:1px;stroke-linecap:butt;stroke-linejoin:miter;stroke-opacity:1" d="M 317.924,12.9693 299.986,12.9693 z" id="boundary" inkscape:connector-curvature="0" />
	<path style="fill:none;stroke:red;stroke-width:1px;stroke-linecap:butt;stroke-linejoin:miter;stroke-opacity:1" d="M 407.617,4 425.555,4 z" id="boundary" inkscape:connector-curvature="0" />
	<path style="fill:none;stroke:red;stroke-width:1px;stroke-linecap:butt;stroke-linejoin:miter;stroke-opacity:1" d="M 4,233.613 4,215.675 z" id="boundary" inkscape:connector-curvature="0" />
	<path style="fill:none;stroke:red;stroke-width:1px;stroke-linecap:butt;stroke-linejoin:miter;stroke-opacity:1" d="M 4,269.49 4,251.552 z" id="boundary" inkscape:connector-curvature="0" />
	<path style="fill:none;stroke:red;stroke-width:1px;stroke-linecap:butt;stroke-linejoin:miter;stroke-opacity:1" d="M 12.9693,285.635 4,269.49 z" id="boundary" inkscape:connector-curvature="0" />
	<path style="fill:none;stroke:red;stroke-width:1px;stroke-linecap:butt;stroke-linejoin:miter;stroke-opacity:1" d="M 4,251.552 4,233.613 z" id="boundary" inkscape:connector-curvature="0" />
	<path style="fill:none;stroke:red;stroke-width:1px;stroke-linecap:butt;stroke-linejoin:miter;stroke-opacity:1" d="M 25.5262,299.986 12.9693,285.635 z" id="boundary" inkscape:connector-curvature="0" />
	<path style="fill:none;stroke:red;stroke-width:1px;stroke-linecap:butt;stroke-linejoin:miter;stroke-opacity:1" d="M 39.877,310.749 25.5262,299.986 z" id="boundary" inkscape:connector-curvature="0" />
	<path style="fill:none;stroke:red;stroke-width:1px;stroke-linecap:butt;stroke-linejoin:miter;stroke-opacity:1" d="M 56.0217,319.718 39.877,310.749 z" id="boundary" inkscape:connector-curvature="0" />
	<path style="fill:none;stroke:red;stroke-width:1px;stroke-linecap:butt;stroke-linejoin:miter;stroke-opacity:1" d="M 90.1049,335.863 72.1664,328.687 z" id="boundary" inkscape:connector-curvature="0" />
	<path style="fill:none;stroke:red;stroke-width:1px;stroke-linecap:butt;stroke-linejoin:miter;stroke-opacity:1" d="M 108.043,337.656 90.1049,335.863 z" id="boundary" inkscape:connector-curvature="0" />
	<path style="fill:none;stroke:red;stroke-width:1px;stroke-linecap:butt;stroke-linejoin:miter;stroke-opacity:1" d="M 108.043,337.656 125.982,344.832 z" id="boundary" inkscape:connector-curvature="0" />
	<path style="fill:none;stroke:red;stroke-width:1px;stroke-linecap:butt;stroke-linejoin:miter;stroke-opacity:1" d="M 143.92,346.626 125.982,344.832 z" id="boundary" inkscape:connector-curvature="0" />
	<path style="fill:none;stroke:red;stroke-width:1px;stroke-linecap:butt;stroke-linejoin:miter;stroke-opacity:1" d="M 72.1664,328.687 56.0217,319.718 z" id="boundary" inkscape:connector-curvature="0" />
	<path style="fill:none;stroke:red;stroke-width:1px;stroke-linecap:butt;stroke-linejoin:miter;stroke-opacity:1" d="M 143.92,346.626 160.065,355.595 z" id="boundary" inkscape:connector-curvature="0" />
	<path style="fill:none;stroke:red;stroke-width:1px;stroke-linecap:butt;stroke-linejoin:miter;stroke-opacity:1" d="M 212.087,364.564 194.148,364.564 z" id="boundary" inkscape:connector-curvature="0" />
	<path style="fill:none;stroke:red;stroke-width:1px;stroke-linecap:butt;stroke-linejoin:miter;stroke-opacity:1" d="M 176.21,364.564 194.148,364.564 z" id="boundary" inkscape:connector-curvature="0" />
	<path style="fill:none;stroke:red;stroke-width:1px;stroke-linecap:butt;stroke-linejoin:miter;stroke-opacity:1" d="M 176.21,364.564 160.065,355.595 z" id="boundary" inkscape:connector-curvature="0" />
	<path style="fill:none;stroke:red;stroke-width:1px;stroke-linecap:butt;stroke-linejoin:miter;stroke-opacity:1" d="M 4,215.675 4,197.736 z" id="boundary" inkscape:connector-curvature="0" />
	<path style="fill:none;stroke:red;stroke-width:1px;stroke-linecap:butt;stroke-linejoin:miter;stroke-opacity:1" d="M 212.087,364.564 228.231,373.533 z" id="boundary" inkscape:connector-curvature="0" />
	<path style="fill:none;stroke:red;stroke-width:1px;stroke-linecap:butt;stroke-linejoin:miter;stroke-opacity:1" d="M 246.17,373.533 228.231,373.533 z" id="boundary" inkscape:connector-curvature="0" />
	<path style="fill:none;stroke:red;stroke-width:1px;stroke-linecap:butt;stroke-linejoin:miter;stroke-opacity:1" d="M 246.17,373.533 264.108,373.533 z" id="boundary" inkscape:connector-curvature="0" />
	<path style="fill:none;stroke:red;stroke-width:1px;stroke-linecap:butt;stroke-linejoin:miter;stroke-opacity:1" d="M 264.108,373.533 280.253,382.503 z" id="boundary" inkscape:connector-curvature="0" />
	<path style="fill:none;stroke:red;stroke-width:1px;stroke-linecap:butt;stroke-linejoin:miter;stroke-opacity:1" d="M 334.069,382.503 316.13,382.503 z" id="boundary" inkscape:connector-curvature="0" />
	<path style="fill:none;stroke:red;stroke-width:1px;stroke-linecap:butt;stroke-linejoin:miter;stroke-opacity:1" d="M 280.253,382.503 298.192,382.503 z" id="boundary" inkscape:connector-curvature="0" />
	<path style="fill:none;stroke:red;stroke-width:1px;stroke-linecap:butt;stroke-linejoin:miter;stroke-opacity:1" d="M 316.13,382.503 298.192,382.503 z" id="boundary" inkscape:connector-curvature="0" />
	<path style="fill:none;stroke:red;stroke-width:1px;stroke-linecap:butt;stroke-linejoin:miter;stroke-opacity:1" d="M 352.007,382.503 368.152,391.472 z" id="boundary" inkscape:connector-curvature="0" />
	<path style="fill:none;stroke:red;stroke-width:1px;stroke-linecap:butt;stroke-linejoin:miter;stroke-opacity:1" d="M 334.069,382.503 352.007,382.503 z" id="boundary" inkscape:connector-curvature="0" />
	<path style="fill:none;stroke:red;stroke-width:1px;stroke-linecap:butt;stroke-linejoin:miter;stroke-opacity:1" d="M 386.09,391.472 368.152,391.472 z" id="boundary" inkscape:connector-curvature="0" />
	<path style="fill:none;stroke:red;stroke-width:1px;stroke-linecap:butt;stroke-linejoin:miter;stroke-opacity:1" d="M 386.09,391.472 402.235,400.441 z" id="boundary" inkscape:connector-curvature="0" />
	<path style="fill:none;stroke:red;stroke-width:1px;stroke-linecap:butt;stroke-linejoin:miter;stroke-opacity:1" d="M 420.174,400.441 402.235,400.441 z" id="boundary" inkscape:connector-curvature="0" />
	<path style="fill:none;stroke:red;stroke-width:1px;stroke-linecap:butt;stroke-linejoin:miter;stroke-opacity:1" d="M 438.112,400.441 420.174,400.441 z" id="boundary" inkscape:connector-curvature="0" />
	<path style="fill:none;stroke:red;stroke-width:1px;stroke-linecap:butt;stroke-linejoin:miter;stroke-opacity:1" d="M 456.051,400.441 438.112,400.441 z" id="boundary" inkscape:connector-curvature="0" />
	<path style="fill:none;stroke:red;stroke-width:1px;stroke-linecap:butt;stroke-linejoin:miter;stroke-opacity:1" d="M 504.485,378.915 490.134,391.472 z" id="boundary" inkscape:connector-curvature="0" />
	<path style="fill:none;stroke:red;stroke-width:1px;stroke-linecap:butt;stroke-linejoin:miter;stroke-opacity:1" d="M 473.989,400.441 456.051,400.441 z" id="boundary" inkscape:connector-curvature="0" />
	<path style="fill:none;stroke:red;stroke-width:1px;stroke-linecap:butt;stroke-linejoin:miter;stroke-opacity:1" d="M 490.134,391.472 473.989,400.441 z" id="boundary" inkscape:connector-curvature="0" />
	<path style="fill:none;stroke:red;stroke-width:1px;stroke-linecap:butt;stroke-linejoin:miter;stroke-opacity:1" d="M 506.278,36.2893 515.248,52.434 z" id="boundary" inkscape:connector-curvature="0" />
	<path style="fill:none;stroke:red;stroke-width:1px;stroke-linecap:butt;stroke-linejoin:miter;stroke-opacity:1" d="M 515.248,52.434 526.011,66.7848 z" id="boundary" inkscape:connector-curvature="0" />
	<path style="fill:none;stroke:red;stroke-width:1px;stroke-linecap:butt;stroke-linejoin:miter;stroke-opacity:1" d="M 534.98,82.9295 526.011,66.7848 z" id="boundary" inkscape:connector-curvature="0" />
	<path style="fill:none;stroke:red;stroke-width:1px;stroke-linecap:butt;stroke-linejoin:miter;stroke-opacity:1" d="M 534.98,82.9295 534.98,100.868 z" id="boundary" inkscape:connector-curvature="0" />
	<path style="fill:none;stroke:red;stroke-width:1px;stroke-linecap:butt;stroke-linejoin:miter;stroke-opacity:1" d="M 549.331,111.631 534.98,100.868 z" id="boundary" inkscape:connector-curvature="0" />
	<path style="fill:none;stroke:red;stroke-width:1px;stroke-linecap:butt;stroke-linejoin:miter;stroke-opacity:1" d="M 549.331,111.631 565.476,120.6 z" id="boundary" inkscape:connector-curvature="0" />
	<path style="fill:none;stroke:red;stroke-width:1px;stroke-linecap:butt;stroke-linejoin:miter;stroke-opacity:1" d="M 565.476,120.6 578.033,134.951 z" id="boundary" inkscape:connector-curvature="0" />
	<path style="fill:none;stroke:red;stroke-width:1px;stroke-linecap:butt;stroke-linejoin:miter;stroke-opacity:1" d="M 578.033,134.951 595.971,138.539 z" id="boundary" inkscape:connector-curvature="0" />
	<path style="fill:none;stroke:red;stroke-width:1px;stroke-linecap:butt;stroke-linejoin:miter;stroke-opacity:1" d="M 595.971,138.539 613.91,138.539 z" id="boundary" inkscape:connector-curvature="0" />
	<path style="fill:none;stroke:red;stroke-width:1px;stroke-linecap:butt;stroke-linejoin:miter;stroke-opacity:1" d="M 631.848,142.127 613.91,138.539 z" id="boundary" inkscape:connector-curvature="0" />
	<path style="fill:none;stroke:red;stroke-width:1px;stroke-linecap:butt;stroke-linejoin:miter;stroke-opacity:1" d="M 649.787,138.539 631.848,142.127 z" id="boundary" inkscape:connector-curvature="0" />
	<path style="fill:none;stroke:red;stroke-width:1px;stroke-linecap:butt;stroke-linejoin:miter;stroke-opacity:1" d="M 667.725,138.539 685.664,138.539 z" id="boundary" inkscape:connector-curvature="0" />
	<path style="fill:none;stroke:red;stroke-width:1px;stroke-linecap:butt;stroke-linejoin:miter;stroke-opacity:1" d="M 667.725,138.539 649.787,138.539 z" id="boundary" inkscape:connector-curvature="0" />
	<path style="fill:none;stroke:red;stroke-width:1px;stroke-linecap:butt;stroke-linejoin:miter;stroke-opacity:1" d="M 703.602,138.539 685.664,138.539 z" id="boundary" inkscape:connector-curvature="0" />
	<path style="fill:none;stroke:red;stroke-width:1px;stroke-linecap:butt;stroke-linejoin:miter;stroke-opacity:1" d="M 506.278,36.2893 493.722,21.9385 z" id="boundary" inkscape:connector-curvature="0" />
	<path style="fill:none;stroke:red;stroke-width:1px;stroke-linecap:butt;stroke-linejoin:miter;stroke-opacity:1" d="M 721.541,142.127 739.479,138.539 z" id="boundary" inkscape:connector-curvature="0" />
	<path style="fill:none;stroke:red;stroke-width:1px;stroke-linecap:butt;stroke-linejoin:miter;stroke-opacity:1" d="M 757.418,138.539 739.479,138.539 z" id="boundary" inkscape:connector-curvature="0" />
	<path style="fill:none;stroke:red;stroke-width:1px;stroke-linecap:butt;stroke-linejoin:miter;stroke-opacity:1" d="M 775.356,138.539 793.295,138.539 z" id="boundary" inkscape:connector-curvature="0" />
	<path style="fill:none;stroke:red;stroke-width:1px;stroke-linecap:butt;stroke-linejoin:miter;stroke-opacity:1" d="M 775.356,138.539 757.418,138.539 z" id="boundary" inkscape:connector-curvature="0" />
	<path style="fill:none;stroke:red;stroke-width:1px;stroke-linecap:butt;stroke-linejoin:miter;stroke-opacity:1" d="M 843.523,138.539 827.378,147.508 z" id="boundary" inkscape:connector-curvature="0" />
	<path style="fill:none;stroke:red;stroke-width:1px;stroke-linecap:butt;stroke-linejoin:miter;stroke-opacity:1" d="M 827.378,147.508 811.233,138.539 z" id="boundary" inkscape:connector-curvature="0" />
	<path style="fill:none;stroke:red;stroke-width:1px;stroke-linecap:butt;stroke-linejoin:miter;stroke-opacity:1" d="M 861.461,138.539 879.4,138.539 z" id="boundary" inkscape:connector-curvature="0" />
	<path style="fill:none;stroke:red;stroke-width:1px;stroke-linecap:butt;stroke-linejoin:miter;stroke-opacity:1" d="M 861.461,138.539 843.523,138.539 z" id="boundary" inkscape:connector-curvature="0" />
	<path style="fill:none;stroke:red;stroke-width:1px;stroke-linecap:butt;stroke-linejoin:miter;stroke-opacity:1" d="M 811.233,138.539 793.295,138.539 z" id="boundary" inkscape:connector-curvature="0" />
	<path style="fill:none;stroke:red;stroke-width:1px;stroke-linecap:butt;stroke-linejoin:miter;stroke-opacity:1" d="M 879.4,138.539 897.338,138.539 z" id="boundary" inkscape:connector-curvature="0" />
	<path style="fill:none;stroke:red;stroke-width:1px;stroke-linecap:butt;stroke-linejoin:miter;stroke-opacity:1" d="M 897.338,138.539 913.483,147.508 z" id="boundary" inkscape:connector-curvature="0" />
	<path style="fill:none;stroke:red;stroke-width:1px;stroke-linecap:butt;stroke-linejoin:miter;stroke-opacity:1" d="M 929.627,138.539 913.483,147.508 z" id="boundary" inkscape:connector-curvature="0" />
	<path style="fill:none;stroke:red;stroke-width:1px;stroke-linecap:butt;stroke-linejoin:miter;stroke-opacity:1" d="M 703.602,138.539 721.541,142.127 z" id="boundary" inkscape:connector-curvature="0" />
	<path style="fill:none;stroke:red;stroke-width:1px;stroke-linecap:butt;stroke-linejoin:miter;stroke-opacity:1" d="M 947.566,138.539 929.627,138.539 z" id="boundary" inkscape:connector-curvature="0" />
	<path style="fill:none;stroke:red;stroke-width:1px;stroke-linecap:butt;stroke-linejoin:miter;stroke-opacity:1" d="M 947.566,138.539 965.505,143.92 z" id="boundary" inkscape:connector-curvature="0" />
	<path style="fill:none;stroke:red;stroke-width:1px;stroke-linecap:butt;stroke-linejoin:miter;stroke-opacity:1" d="M 493.722,21.9385 477.577,12.9693 z" id="boundary" inkscape:connector-curvature="0" />
	<path style="fill:none;stroke:red;stroke-width:1px;stroke-linecap:butt;stroke-linejoin:miter;stroke-opacity:1" d="M 965.505,143.92 981.649,152.89 z" id="boundary" inkscape:connector-curvature="0" />
	<path style="fill:none;stroke:red;stroke-width:1px;stroke-linecap:butt;stroke-linejoin:miter;stroke-opacity:1" d="M 633.642,247.964 649.787,238.995 z" id="boundary" inkscape:connector-curvature="0" />
	<path style="fill:none;stroke:red;stroke-width:1px;stroke-linecap:butt;stroke-linejoin:miter;stroke-opacity:1" d="M 621.085,262.315 633.642,247.964 z" id="boundary" inkscape:connector-curvature="0" />
	<path style="fill:none;stroke:red;stroke-width:1px;stroke-linecap:butt;stroke-linejoin:miter;stroke-opacity:1" d="M 597.765,292.81 606.734,274.872 z" id="boundary" inkscape:connector-curvature="0" />
	<path style="fill:none;stroke:red;stroke-width:1px;stroke-linecap:butt;stroke-linejoin:miter;stroke-opacity:1" d="M 606.734,274.872 621.085,262.315 z" id="boundary" inkscape:connector-curvature="0" />
	<path style="fill:none;stroke:red;stroke-width:1px;stroke-linecap:butt;stroke-linejoin:miter;stroke-opacity:1" d="M 667.725,233.613 685.664,230.025 z" id="boundary" inkscape:connector-curvature="0" />
	<path style="fill:none;stroke:red;stroke-width:1px;stroke-linecap:butt;stroke-linejoin:miter;stroke-opacity:1" d="M 685.664,230.025 701.808,238.995 z" id="boundary" inkscape:connector-curvature="0" />
	<path style="fill:none;stroke:red;stroke-width:1px;stroke-linecap:butt;stroke-linejoin:miter;stroke-opacity:1" d="M 701.808,238.995 717.953,247.964 z" id="boundary" inkscape:connector-curvature="0" />
	<path style="fill:none;stroke:red;stroke-width:1px;stroke-linecap:butt;stroke-linejoin:miter;stroke-opacity:1" d="M 735.892,247.964 717.953,247.964 z" id="boundary" inkscape:connector-curvature="0" />
	<path style="fill:none;stroke:red;stroke-width:1px;stroke-linecap:butt;stroke-linejoin:miter;stroke-opacity:1" d="M 649.787,238.995 667.725,233.613 z" id="boundary" inkscape:connector-curvature="0" />
	<path style="fill:none;stroke:red;stroke-width:1px;stroke-linecap:butt;stroke-linejoin:miter;stroke-opacity:1" d="M 526.011,346.626 534.98,328.687 z" id="boundary" inkscape:connector-curvature="0" />
	<path style="fill:none;stroke:red;stroke-width:1px;stroke-linecap:butt;stroke-linejoin:miter;stroke-opacity:1" d="M 534.98,328.687 549.331,316.13 z" id="boundary" inkscape:connector-curvature="0" />
	<path style="fill:none;stroke:red;stroke-width:1px;stroke-linecap:butt;stroke-linejoin:miter;stroke-opacity:1" d="M 517.042,364.564 504.485,378.915 z" id="boundary" inkscape:connector-curvature="0" />
	<path style="fill:none;stroke:red;stroke-width:1px;stroke-linecap:butt;stroke-linejoin:miter;stroke-opacity:1" d="M 526.011,346.626 517.042,364.564 z" id="boundary" inkscape:connector-curvature="0" />
	<path style="fill:none;stroke:red;stroke-width:1px;stroke-linecap:butt;stroke-linejoin:miter;stroke-opacity:1" d="M 579.826,292.81 597.765,292.81 z" id="boundary" inkscape:connector-curvature="0" />
	<path style="fill:none;stroke:red;stroke-width:1px;stroke-linecap:butt;stroke-linejoin:miter;stroke-opacity:1" d="M 561.888,301.779 579.826,292.81 z" id="boundary" inkscape:connector-curvature="0" />
	<path style="fill:none;stroke:red;stroke-width:1px;stroke-linecap:butt;stroke-linejoin:miter;stroke-opacity:1" d="M 549.331,316.13 561.888,301.779 z" id="boundary" inkscape:connector-curvature="0" />
	<path style="fill:none;stroke:red;stroke-width:1px;stroke-linecap:butt;stroke-linejoin:miter;stroke-opacity:1" d="M 825.584,237.201 807.646,230.025 z" id="boundary" inkscape:connector-curvature="0" />
	<path style="fill:none;stroke:red;stroke-width:1px;stroke-linecap:butt;stroke-linejoin:miter;stroke-opacity:1" d="M 825.584,237.201 841.729,246.17 z" id="boundary" inkscape:connector-curvature="0" />
	<path style="fill:none;stroke:red;stroke-width:1px;stroke-linecap:butt;stroke-linejoin:miter;stroke-opacity:1" d="M 789.707,237.201 807.646,230.025 z" id="boundary" inkscape:connector-curvature="0" />
	<path style="fill:none;stroke:red;stroke-width:1px;stroke-linecap:butt;stroke-linejoin:miter;stroke-opacity:1" d="M 945.772,233.613 927.834,242.582 z" id="boundary" inkscape:connector-curvature="0" />
	<path style="fill:none;stroke:red;stroke-width:1px;stroke-linecap:butt;stroke-linejoin:miter;stroke-opacity:1" d="M 963.711,224.644 945.772,233.613 z" id="boundary" inkscape:connector-curvature="0" />
	<path style="fill:none;stroke:red;stroke-width:1px;stroke-linecap:butt;stroke-linejoin:miter;stroke-opacity:1" d="M 978.061,210.293 963.711,224.644 z" id="boundary" inkscape:connector-curvature="0" />
	<path style="fill:none;stroke:red;stroke-width:1px;stroke-linecap:butt;stroke-linejoin:miter;stroke-opacity:1" d="M 987.031,192.354 978.061,210.293 z" id="boundary" inkscape:connector-curvature="0" />
	<path style="fill:none;stroke:red;stroke-width:1px;stroke-linecap:butt;stroke-linejoin:miter;stroke-opacity:1" d="M 771.769,246.17 789.707,237.201 z" id="boundary" inkscape:connector-curvature="0" />
	<path style="fill:none;stroke:red;stroke-width:1px;stroke-linecap:butt;stroke-linejoin:miter;stroke-opacity:1" d="M 735.892,247.964 753.83,247.964 z" id="boundary" inkscape:connector-curvature="0" />
	<path style="fill:none;stroke:red;stroke-width:1px;stroke-linecap:butt;stroke-linejoin:miter;stroke-opacity:1" d="M 841.729,246.17 859.667,247.964 z" id="boundary" inkscape:connector-curvature="0" />
	<path style="fill:none;stroke:red;stroke-width:1px;stroke-linecap:butt;stroke-linejoin:miter;stroke-opacity:1" d="M 771.769,246.17 753.83,247.964 z" id="boundary" inkscape:connector-curvature="0" />
	<path style="fill:none;stroke:red;stroke-width:1px;stroke-linecap:butt;stroke-linejoin:miter;stroke-opacity:1" d="M 927.834,242.582 909.895,247.964 z" id="boundary" inkscape:connector-curvature="0" />
	<path style="fill:none;stroke:red;stroke-width:1px;stroke-linecap:butt;stroke-linejoin:miter;stroke-opacity:1" d="M 859.667,247.964 875.812,238.995 z" id="boundary" inkscape:connector-curvature="0" />
	<path style="fill:none;stroke:red;stroke-width:1px;stroke-linecap:butt;stroke-linejoin:miter;stroke-opacity:1" d="M 875.812,238.995 891.957,247.964 z" id="boundary" inkscape:connector-curvature="0" />
	<path style="fill:none;stroke:red;stroke-width:1px;stroke-linecap:butt;stroke-linejoin:miter;stroke-opacity:1" d="M 909.895,247.964 891.957,247.964 z" id="boundary" inkscape:connector-curvature="0" />
	<path style="fill:none;stroke:red;stroke-width:1px;stroke-linecap:butt;stroke-linejoin:miter;stroke-opacity:1" d="M 981.649,152.89 996,165.447 z" id="boundary" inkscape:connector-curvature="0" />
	<path style="fill:none;stroke:red;stroke-width:1px;stroke-linecap:butt;stroke-linejoin:miter;stroke-opacity:1" d="M 996,165.447 987.031,192.354 z" id="boundary" inkscape:connector-curvature="0" />
	<circle cx="4" cy="161.859" r="4" fill="#0" id="circle0"/>
	<circle cx="4" cy="179.797" r="4" fill="#0" id="circle1"/>
	<circle cx="4" cy="197.736" r="4" fill="#0" id="circle2"/>
	<circle cx="4" cy="215.675" r="4" fill="#0" id="circle3"/>
	<circle cx="4" cy="233.613" r="4" fill="#0" id="circle4"/>
	<circle cx="4" cy="251.552" r="4" fill="#0" id="circle5"/>
	<circle cx="4" cy="269.49" r="4" fill="#0" id="circle6"/>
	<circle cx="12.9693" cy="125.982" r="4" fill="#0" id="circle7"/>
	<circle cx="12.9693" cy="143.92" r="4" fill="#0" id="circle8"/>
	<circle cx="12.9693" cy="285.635" r="4" fill="#0" id="circle9"/>
	<circle cx="25.5262" cy="299.986" r="4" fill="#0" id="circle10"/>
	<circle cx="27.3201" cy="111.631" r="4" fill="#0" id="circle11"/>
	<circle cx="39.877" cy="310.749" r="4" fill="#0" id="circle12"/>
	<circle cx="41.6709" cy="97.2803" r="4" fill="#0" id="circle13"/>
	<circle cx="56.0217" cy="319.718" r="4" fill="#0" id="circle14"/>
	<circle cx="59.6094" cy="88.311" r="4" fill="#0" id="circle15"/>
	<circle cx="72.1664" cy="328.687" r="4" fill="#0" id="circle16"/>
	<circle cx="77.5479" cy="79.3418" r="4" fill="#0" id="circle17"/>
	<circle cx="90.1049" cy="335.863" r="4" fill="#0" id="circle18"/>
	<circle cx="95.4864" cy="70.3725" r="4" fill="#0" id="circle19"/>
	<circle cx="108.043" cy="337.656" r="4" fill="#0" id="circle20"/>
	<circle cx="113.425" cy="66.7848" r="4" fill="#0" id="circle21"/>
	<circle cx="125.982" cy="344.832" r="4" fill="#0" id="circle22"/>
	<circle cx="131.363" cy="61.4033" r="4" fill="#0" id="circle23"/>
	<circle cx="143.92" cy="346.626" r="4" fill="#0" id="circle24"/>
	<circle cx="145.714" cy="48.8463" r="4" fill="#0" id="circle25"/>
	<circle cx="160.065" cy="355.595" r="4" fill="#0" id="circle26"/>
	<circle cx="161.859" cy="39.877" r="4" fill="#0" id="circle27"/>
	<circle cx="176.21" cy="364.564" r="4" fill="#0" id="circle28"/>
	<circle cx="179.797" cy="39.877" r="4" fill="#0" id="circle29"/>
	<circle cx="194.148" cy="364.564" r="4" fill="#0" id="circle30"/>
	<circle cx="195.942" cy="30.9078" r="4" fill="#0" id="circle31"/>
	<circle cx="212.087" cy="364.564" r="4" fill="#0" id="circle32"/>
	<circle cx="213.881" cy="30.9078" r="4" fill="#0" id="circle33"/>
	<circle cx="228.231" cy="373.533" r="4" fill="#0" id="circle34"/>
	<circle cx="230.025" cy="21.9385" r="4" fill="#0" id="circle35"/>
	<circle cx="246.17" cy="373.533" r="4" fill="#0" id="circle36"/>
	<circle cx="247.964" cy="21.9385" r="4" fill="#0" id="circle37"/>
	<circle cx="264.108" cy="373.533" r="4" fill="#0" id="circle38"/>
	<circle cx="265.902" cy="21.9385" r="4" fill="#0" id="circle39"/>
	<circle cx="280.253" cy="382.503" r="4" fill="#0" id="circle40"/>
	<circle cx="282.047" cy="12.9693" r="4" fill="#0" id="circle41"/>
	<circle cx="298.192" cy="382.503" r="4" fill="#0" id="circle42"/>
	<circle cx="299.986" cy="12.9693" r="4" fill="#0" id="circle43"/>
	<circle cx="316.13" cy="382.503" r="4" fill="#0" id="circle44"/>
	<circle cx="317.924" cy="12.9693" r="4" fill="#0" id="circle45"/>
	<circle cx="334.069" cy="382.503" r="4" fill="#0" id="circle46"/>
	<circle cx="335.863" cy="9.38156" r="4" fill="#0" id="circle47"/>
	<circle cx="352.007" cy="382.503" r="4" fill="#0" id="circle48"/>
	<circle cx="353.801" cy="4" r="4" fill="#0" id="circle49"/>
	<circle cx="368.152" cy="391.472" r="4" fill="#0" id="circle50"/>
	<circle cx="371.74" cy="4" r="4" fill="#0" id="circle51"/>
	<circle cx="386.09" cy="391.472" r="4" fill="#0" id="circle52"/>
	<circle cx="389.678" cy="4" r="4" fill="#0" id="circle53"/>
	<circle cx="402.235" cy="400.441" r="4" fill="#0" id="circle54"/>
	<circle cx="407.617" cy="4" r="4" fill="#0" id="circle55"/>
	<circle cx="420.174" cy="400.441" r="4" fill="#0" id="circle56"/>
	<circle cx="425.555" cy="4" r="4" fill="#0" id="circle57"/>
	<circle cx="438.112" cy="400.441" r="4" fill="#0" id="circle58"/>
	<circle cx="443.494" cy="4" r="4" fill="#0" id="circle59"/>
	<circle cx="456.051" cy="400.441" r="4" fill="#0" id="circle60"/>
	<circle cx="461.432" cy="4" r="4" fill="#0" id="circle61"/>
	<circle cx="473.989" cy="400.441" r="4" fill="#0" id="circle62"/>
	<circle cx="477.577" cy="12.9693" r="4" fill="#0" id="circle63"/>
	<circle cx="490.134" cy="391.472" r="4" fill="#0" id="circle64"/>
	<circle cx="493.722" cy="21.9385" r="4" fill="#0" id="circle65"/>
	<circle cx="504.485" cy="378.915" r="4" fill="#0" id="circle66"/>
	<circle cx="506.278" cy="36.2893" r="4" fill="#0" id="circle67"/>
	<circle cx="515.248" cy="52.434" r="4" fill="#0" id="circle68"/>
	<circle cx="517.042" cy="364.564" r="4" fill="#0" id="circle69"/>
	<circle cx="526.011" cy="66.7848" r="4" fill="#0" id="circle70"/>
	<circle cx="526.011" cy="346.626" r="4" fill="#0" id="circle71"/>
	<circle cx="534.98" cy="82.9295" r="4" fill="#0" id="circle72"/>
	<circle cx="534.98" cy="100.868" r="4" fill="#0" id="circle73"/>
	<circle cx="534.98" cy="328.687" r="4" fill="#0" id="circle74"/>
	<circle cx="549.331" cy="111.631" r="4" fill="#0" id="circle75"/>
	<circle cx="549.331" cy="316.13" r="4" fill="#0" id="circle76"/>
	<circle cx="561.888" cy="301.779" r="4" fill="#0" id="circle77"/>
	<circle cx="565.476" cy="120.6" r="4" fill="#0" id="circle78"/>
	<circle cx="578.033" cy="134.951" r="4" fill="#0" id="circle79"/>
	<circle cx="579.826" cy="292.81" r="4" fill="#0" id="circle80"/>
	<circle cx="595.971" cy="138.539" r="4" fill="#0" id="circle81"/>
	<circle cx="597.765" cy="292.81" r="4" fill="#0" id="circle82"/>
	<circle cx="606.734" cy="274.872" r="4" fill="#0" id="circle83"/>
	<circle cx="613.91" cy="138.539" r="4" fill="#0" id="circle84"/>
	<circle cx="621.085" cy="262.315" r="4" fill="#0" id="circle85"/>
	<circle cx="631.848" cy="142.127" r="4" fill="#0" id="circle86"/>
	<circle cx="633.642" cy="247.964" r="4" fill="#0" id="circle87"/>
	<circle cx="649.787" cy="138.539" r="4" fill="#0" id="circle88"/>
	<circle cx="649.787" cy="238.995" r="4" fill="#0" id="circle89"/>
	<circle cx="667.725" cy="138.539" r="4" fill="#0" id="circle90"/>
	<circle cx="667.725" cy="233.613" r="4" fill="#0" id="circle91"/>
	<circle cx="685.664" cy="138.539" r="4" fill="#0" id="circle92"/>
	<circle cx="685.664" cy="230.025" r="4" fill="#0" id="circle93"/>
	<circle cx="701.808" cy="238.995" r="4" fill="#0" id="circle94"/>
	<circle cx="703.602" cy="138.539" r="4" fill="#0" id="circle95"/>
	<circle cx="717.953" cy="247.964" r="4" fill="#0" id="circle96"/>
	<circle cx="721.541" cy="142.127" r="4" fill="#0" id="circle97"/>
	<circle cx="735.892" cy="247.964" r="4" fill="#0" id="circle98"/>
	<circle cx="739.479" cy="138.539" r="4" fill="#0" id="circle99"/>
	<circle cx="753.83" cy="247.964" r="4" fill="#0" id="circle100"/>
	<circle cx="757.418" cy="138.539" r="4" fill="#0" id="circle101"/>
	<circle cx="771.769" cy="246.17" r="4" fill="#0" id="circle102"/>
	<circle cx="775.356" cy="138.539" r="4" fill="#0" id="circle103"/>
	<circle cx="789.707" cy="237.201" r="4" fill="#0" id="circle104"/>
	<circle cx="793.295" cy="138.539" r="4" fill="#0" id="circle105"/>
	<circle cx="807.646" cy="230.025" r="4" fill="#0" id="circle106"/>
	<circle cx="811.233" cy="138.539" r="4" fill="#0" id="circle107"/>
	<circle cx="825.584" cy="237.201" r="4" fill="#0" id="circle108"/>
	<circle cx="827.378" cy="147.508" r="4" fill="#0" id="circle109"/>
	<circle cx="841.729" cy="246.17" r="4" fill="#0" id="circle110"/>
	<circle cx="843.523" cy="138.539" r="4" fill="#0" id="circle111"/>
	<circle cx="859.667" cy="247.964" r="4" fill="#0" id="circle112"/>
	<circle cx="861.461" cy="138.539" r="4" fill="#0" id="circle113"/>
	<circle cx="875.812" cy="238.995" r="4" fill="#0" id="circle114"/>
	<circle cx="879.4" cy="138.539" r="4" fill="#0" id="circle115"/>
	<circle cx="891.957" cy="247.964" r="4" fill="#0" id="circle116"/>
	<circle cx="897.338" cy="138.539" r="4" fill="#0" id="circle117"/>
	<circle cx="909.895" cy="247.964" r="4" fill="#0" id="circle118"/>
	<circle cx="913.483" cy="147.508" r="4" fill="#0" id="circle119"/>
	<circle cx="927.834" cy="242.582" r="4" fill="#0" id="circle120"/>
	<circle cx="929.627" cy="138.539" r="4" fill="#0" id="circle121"/>
	<circle cx="945.772" cy="233.613" r="4" fill="#0" id="circle122"/>
	<circle cx="947.566" cy="138.539" r="4" fill="#0" id="circle123"/>
	<circle cx="963.711" cy="224.644" r="4" fill="#0" id="circle124"/>
	<circle cx="965.505" cy="143.92" r="4" fill="#0" id="circle125"/>
	<circle cx="978.061" cy="210.293" r="4" fill="#0" id="circle126"/>
	<circle cx="981.649" cy="152.89" r="4" fill="#0" id="circle127"/>
	<circle cx="987.031" cy="192.354" r="4" fill="#0" id="circle128"/>
	<circle cx="996" cy="165.447" r="4" fill="#0" id="circle129"/>
	</g>
</svg>