<?xml version="1.0" encoding="UTF-8" standalone="no"?>
<!-- Created with CurveBenchmark -->
<svg
	xmlns:dc="http://purl.org/dc/elements/1.1/"
	xmlns:cc="http://creativecommons.org/ns#"
	xmlns:rdf="http://www.w3.org/1999/02/22-rdf-syntax-ns#"
	xmlns:svg="http://www.w3.org/2000/svg"
	xmlns="http://www.w3.org/2000/svg"
	xmlns:sodipodi="http://sodipodi.sourceforge.net/DTD/sodipodi-0.dtd"
	xmlns:inkscape="http://www.inkscape.org/namespaces/inkscape"
	width="1000"
	height="1000"
	id="svg2"
	version="1.1"
	sodipodi:docname="manifold/ccrust-fork06.png.txt">
<defs
	id="defs4" />
<metadata
	id="metadata7">
	<rdf:RDF>
		<cc:Work
			rdf:about="">
			<dc:format>image/svg+xml</dc:format>
			<dc:type
				rdf:resource="http://purl.org/dc/dcmitype/StillImage" />
			<dc:title></dc:title>
		</cc:Work>
	</rdf:RDF>
</metadata>
<g
	inkscape:label="Layer 1"
	inkscape:groupmode="layer"
	id="layer1">
	<path style="fill:none;stroke:red;stroke-width:1px;stroke-linecap:butt;stroke-linejoin:miter;stroke-opacity:1" d="M 12.8889,36 12.8889,18.2222 z" id="boundary" inkscape:connector-curvature="0" />
	<path style="fill:none;stroke:red;stroke-width:1px;stroke-linecap:butt;stroke-linejoin:miter;stroke-opacity:1" d="M 12.8889,18.2222 30.6667,12.8889 z" id="boundary" inkscape:connector-curvature="0" />
	<path style="fill:none;stroke:red;stroke-width:1px;stroke-linecap:butt;stroke-linejoin:miter;stroke-opacity:1" d="M 48.4444,12.8889 30.6667,12.8889 z" id="boundary" inkscape:connector-curvature="0" />
	<path style="fill:none;stroke:red;stroke-width:1px;stroke-linecap:butt;stroke-linejoin:miter;stroke-opacity:1" d="M 27.1111,66.2222 12.8889,53.7778 z" id="boundary" inkscape:connector-curvature="0" />
	<path style="fill:none;stroke:red;stroke-width:1px;stroke-linecap:butt;stroke-linejoin:miter;stroke-opacity:1" d="M 12.8889,53.7778 12.8889,36 z" id="boundary" inkscape:connector-curvature="0" />
	<path style="fill:none;stroke:red;stroke-width:1px;stroke-linecap:butt;stroke-linejoin:miter;stroke-opacity:1" d="M 44.8889,68 27.1111,66.2222 z" id="boundary" inkscape:connector-curvature="0" />
	<path style="fill:none;stroke:red;stroke-width:1px;stroke-linecap:butt;stroke-linejoin:miter;stroke-opacity:1" d="M 100,4 84,12.8889 z" id="boundary" inkscape:connector-curvature="0" />
	<path style="fill:none;stroke:red;stroke-width:1px;stroke-linecap:butt;stroke-linejoin:miter;stroke-opacity:1" d="M 84,12.8889 66.2222,12.8889 z" id="boundary" inkscape:connector-curvature="0" />
	<path style="fill:none;stroke:red;stroke-width:1px;stroke-linecap:butt;stroke-linejoin:miter;stroke-opacity:1" d="M 66.2222,12.8889 48.4444,12.8889 z" id="boundary" inkscape:connector-curvature="0" />
	<path style="fill:none;stroke:red;stroke-width:1px;stroke-linecap:butt;stroke-linejoin:miter;stroke-opacity:1" d="M 62.6667,66.2222 80.4444,57.3333 z" id="boundary" inkscape:connector-curvature="0" />
	<path style="fill:none;stroke:red;stroke-width:1px;stroke-linecap:butt;stroke-linejoin:miter;stroke-opacity:1" d="M 80.4444,57.3333 98.2222,50.2222 z" id="boundary" inkscape:connector-curvature="0" />
	<path style="fill:none;stroke:red;stroke-width:1px;stroke-linecap:butt;stroke-linejoin:miter;stroke-opacity:1" d="M 116,50.2222 98.2222,50.2222 z" id="boundary" inkscape:connector-curvature="0" />
	<path style="fill:none;stroke:red;stroke-width:1px;stroke-linecap:butt;stroke-linejoin:miter;stroke-opacity:1" d="M 100,4 117.778,4 z" id="boundary" inkscape:connector-curvature="0" />
	<path style="fill:none;stroke:red;stroke-width:1px;stroke-linecap:butt;stroke-linejoin:miter;stroke-opacity:1" d="M 62.6667,66.2222 44.8889,68 z" id="boundary" inkscape:connector-curvature="0" />
	<path style="fill:none;stroke:red;stroke-width:1px;stroke-linecap:butt;stroke-linejoin:miter;stroke-opacity:1" d="M 44.8889,128.444 27.1111,137.333 z" id="boundary" inkscape:connector-curvature="0" />
	<path style="fill:none;stroke:red;stroke-width:1px;stroke-linecap:butt;stroke-linejoin:miter;stroke-opacity:1" d="M 27.1111,137.333 12.8889,151.556 z" id="boundary" inkscape:connector-curvature="0" />
	<path style="fill:none;stroke:red;stroke-width:1px;stroke-linecap:butt;stroke-linejoin:miter;stroke-opacity:1" d="M 73.3333,183.556 55.5556,183.556 z" id="boundary" inkscape:connector-curvature="0" />
	<path style="fill:none;stroke:red;stroke-width:1px;stroke-linecap:butt;stroke-linejoin:miter;stroke-opacity:1" d="M 12.8889,151.556 21.7778,167.556 z" id="boundary" inkscape:connector-curvature="0" />
	<path style="fill:none;stroke:red;stroke-width:1px;stroke-linecap:butt;stroke-linejoin:miter;stroke-opacity:1" d="M 21.7778,167.556 39.5556,174.667 z" id="boundary" inkscape:connector-curvature="0" />
	<path style="fill:none;stroke:red;stroke-width:1px;stroke-linecap:butt;stroke-linejoin:miter;stroke-opacity:1" d="M 55.5556,183.556 39.5556,174.667 z" id="boundary" inkscape:connector-curvature="0" />
	<path style="fill:none;stroke:red;stroke-width:1px;stroke-linecap:butt;stroke-linejoin:miter;stroke-opacity:1" d="M 62.6667,119.556 44.8889,128.444 z" id="boundary" inkscape:connector-curvature="0" />
	<path style="fill:none;stroke:red;stroke-width:1px;stroke-linecap:butt;stroke-linejoin:miter;stroke-opacity:1" d="M 62.6667,119.556 80.4444,119.556 z" id="boundary" inkscape:connector-curvature="0" />
	<path style="fill:none;stroke:red;stroke-width:1px;stroke-linecap:butt;stroke-linejoin:miter;stroke-opacity:1" d="M 80.4444,119.556 98.2222,119.556 z" id="boundary" inkscape:connector-curvature="0" />
	<path style="fill:none;stroke:red;stroke-width:1px;stroke-linecap:butt;stroke-linejoin:miter;stroke-opacity:1" d="M 73.3333,183.556 89.3333,192.444 z" id="boundary" inkscape:connector-curvature="0" />
	<path style="fill:none;stroke:red;stroke-width:1px;stroke-linecap:butt;stroke-linejoin:miter;stroke-opacity:1" d="M 107.111,192.444 89.3333,192.444 z" id="boundary" inkscape:connector-curvature="0" />
	<path style="fill:none;stroke:red;stroke-width:1px;stroke-linecap:butt;stroke-linejoin:miter;stroke-opacity:1" d="M 116,119.556 133.778,119.556 z" id="boundary" inkscape:connector-curvature="0" />
	<path style="fill:none;stroke:red;stroke-width:1px;stroke-linecap:butt;stroke-linejoin:miter;stroke-opacity:1" d="M 98.2222,119.556 116,119.556 z" id="boundary" inkscape:connector-curvature="0" />
	<path style="fill:none;stroke:red;stroke-width:1px;stroke-linecap:butt;stroke-linejoin:miter;stroke-opacity:1" d="M 116,50.2222 133.778,50.2222 z" id="boundary" inkscape:connector-curvature="0" />
	<path style="fill:none;stroke:red;stroke-width:1px;stroke-linecap:butt;stroke-linejoin:miter;stroke-opacity:1" d="M 117.778,4 135.556,4 z" id="boundary" inkscape:connector-curvature="0" />
	<path style="fill:none;stroke:red;stroke-width:1px;stroke-linecap:butt;stroke-linejoin:miter;stroke-opacity:1" d="M 151.556,12.8889 135.556,4 z" id="boundary" inkscape:connector-curvature="0" />
	<path style="fill:none;stroke:red;stroke-width:1px;stroke-linecap:butt;stroke-linejoin:miter;stroke-opacity:1" d="M 169.333,12.8889 151.556,12.8889 z" id="boundary" inkscape:connector-curvature="0" />
	<path style="fill:none;stroke:red;stroke-width:1px;stroke-linecap:butt;stroke-linejoin:miter;stroke-opacity:1" d="M 151.556,50.2222 133.778,50.2222 z" id="boundary" inkscape:connector-curvature="0" />
	<path style="fill:none;stroke:red;stroke-width:1px;stroke-linecap:butt;stroke-linejoin:miter;stroke-opacity:1" d="M 169.333,57.3333 151.556,50.2222 z" id="boundary" inkscape:connector-curvature="0" />
	<path style="fill:none;stroke:red;stroke-width:1px;stroke-linecap:butt;stroke-linejoin:miter;stroke-opacity:1" d="M 187.111,12.8889 169.333,12.8889 z" id="boundary" inkscape:connector-curvature="0" />
	<path style="fill:none;stroke:red;stroke-width:1px;stroke-linecap:butt;stroke-linejoin:miter;stroke-opacity:1" d="M 220.889,21.7778 203.111,21.7778 z" id="boundary" inkscape:connector-curvature="0" />
	<path style="fill:none;stroke:red;stroke-width:1px;stroke-linecap:butt;stroke-linejoin:miter;stroke-opacity:1" d="M 203.111,21.7778 187.111,12.8889 z" id="boundary" inkscape:connector-curvature="0" />
	<path style="fill:none;stroke:red;stroke-width:1px;stroke-linecap:butt;stroke-linejoin:miter;stroke-opacity:1" d="M 169.333,57.3333 187.111,59.1111 z" id="boundary" inkscape:connector-curvature="0" />
	<path style="fill:none;stroke:red;stroke-width:1px;stroke-linecap:butt;stroke-linejoin:miter;stroke-opacity:1" d="M 220.889,75.1111 204.889,66.2222 z" id="boundary" inkscape:connector-curvature="0" />
	<path style="fill:none;stroke:red;stroke-width:1px;stroke-linecap:butt;stroke-linejoin:miter;stroke-opacity:1" d="M 204.889,66.2222 187.111,59.1111 z" id="boundary" inkscape:connector-curvature="0" />
	<path style="fill:none;stroke:red;stroke-width:1px;stroke-linecap:butt;stroke-linejoin:miter;stroke-opacity:1" d="M 220.889,21.7778 236.889,30.6667 z" id="boundary" inkscape:connector-curvature="0" />
	<path style="fill:none;stroke:red;stroke-width:1px;stroke-linecap:butt;stroke-linejoin:miter;stroke-opacity:1" d="M 254.667,30.6667 236.889,30.6667 z" id="boundary" inkscape:connector-curvature="0" />
	<path style="fill:none;stroke:red;stroke-width:1px;stroke-linecap:butt;stroke-linejoin:miter;stroke-opacity:1" d="M 133.778,119.556 151.556,119.556 z" id="boundary" inkscape:connector-curvature="0" />
	<path style="fill:none;stroke:red;stroke-width:1px;stroke-linecap:butt;stroke-linejoin:miter;stroke-opacity:1" d="M 169.333,119.556 151.556,119.556 z" id="boundary" inkscape:connector-curvature="0" />
	<path style="fill:none;stroke:red;stroke-width:1px;stroke-linecap:butt;stroke-linejoin:miter;stroke-opacity:1" d="M 123.111,201.333 140.889,201.333 z" id="boundary" inkscape:connector-curvature="0" />
	<path style="fill:none;stroke:red;stroke-width:1px;stroke-linecap:butt;stroke-linejoin:miter;stroke-opacity:1" d="M 123.111,201.333 107.111,192.444 z" id="boundary" inkscape:connector-curvature="0" />
	<path style="fill:none;stroke:red;stroke-width:1px;stroke-linecap:butt;stroke-linejoin:miter;stroke-opacity:1" d="M 158.667,201.333 176.444,201.333 z" id="boundary" inkscape:connector-curvature="0" />
	<path style="fill:none;stroke:red;stroke-width:1px;stroke-linecap:butt;stroke-linejoin:miter;stroke-opacity:1" d="M 158.667,201.333 140.889,201.333 z" id="boundary" inkscape:connector-curvature="0" />
	<path style="fill:none;stroke:red;stroke-width:1px;stroke-linecap:butt;stroke-linejoin:miter;stroke-opacity:1" d="M 169.333,119.556 185.333,128.444 z" id="boundary" inkscape:connector-curvature="0" />
	<path style="fill:none;stroke:red;stroke-width:1px;stroke-linecap:butt;stroke-linejoin:miter;stroke-opacity:1" d="M 203.111,128.444 185.333,128.444 z" id="boundary" inkscape:connector-curvature="0" />
	<path style="fill:none;stroke:red;stroke-width:1px;stroke-linecap:butt;stroke-linejoin:miter;stroke-opacity:1" d="M 219.111,137.333 203.111,128.444 z" id="boundary" inkscape:connector-curvature="0" />
	<path style="fill:none;stroke:red;stroke-width:1px;stroke-linecap:butt;stroke-linejoin:miter;stroke-opacity:1" d="M 176.444,201.333 194.222,201.333 z" id="boundary" inkscape:connector-curvature="0" />
	<path style="fill:none;stroke:red;stroke-width:1px;stroke-linecap:butt;stroke-linejoin:miter;stroke-opacity:1" d="M 212,206.667 194.222,201.333 z" id="boundary" inkscape:connector-curvature="0" />
	<path style="fill:none;stroke:red;stroke-width:1px;stroke-linecap:butt;stroke-linejoin:miter;stroke-opacity:1" d="M 219.111,137.333 236.889,142.667 z" id="boundary" inkscape:connector-curvature="0" />
	<path style="fill:none;stroke:red;stroke-width:1px;stroke-linecap:butt;stroke-linejoin:miter;stroke-opacity:1" d="M 229.778,210.222 212,206.667 z" id="boundary" inkscape:connector-curvature="0" />
	<path style="fill:none;stroke:red;stroke-width:1px;stroke-linecap:butt;stroke-linejoin:miter;stroke-opacity:1" d="M 220.889,75.1111 238.667,82.2222 z" id="boundary" inkscape:connector-curvature="0" />
	<path style="fill:none;stroke:red;stroke-width:1px;stroke-linecap:butt;stroke-linejoin:miter;stroke-opacity:1" d="M 30.6667,293.778 44.8889,279.556 z" id="boundary" inkscape:connector-curvature="0" />
	<path style="fill:none;stroke:red;stroke-width:1px;stroke-linecap:butt;stroke-linejoin:miter;stroke-opacity:1" d="M 60.8889,270.667 44.8889,279.556 z" id="boundary" inkscape:connector-curvature="0" />
	<path style="fill:none;stroke:red;stroke-width:1px;stroke-linecap:butt;stroke-linejoin:miter;stroke-opacity:1" d="M 44.8889,324 30.6667,311.556 z" id="boundary" inkscape:connector-curvature="0" />
	<path style="fill:none;stroke:red;stroke-width:1px;stroke-linecap:butt;stroke-linejoin:miter;stroke-opacity:1" d="M 30.6667,311.556 30.6667,293.778 z" id="boundary" inkscape:connector-curvature="0" />
	<path style="fill:none;stroke:red;stroke-width:1px;stroke-linecap:butt;stroke-linejoin:miter;stroke-opacity:1" d="M 62.6667,325.778 44.8889,324 z" id="boundary" inkscape:connector-curvature="0" />
	<path style="fill:none;stroke:red;stroke-width:1px;stroke-linecap:butt;stroke-linejoin:miter;stroke-opacity:1" d="M 60.8889,270.667 78.6667,270.667 z" id="boundary" inkscape:connector-curvature="0" />
	<path style="fill:none;stroke:red;stroke-width:1px;stroke-linecap:butt;stroke-linejoin:miter;stroke-opacity:1" d="M 78.6667,270.667 94.6667,261.778 z" id="boundary" inkscape:connector-curvature="0" />
	<path style="fill:none;stroke:red;stroke-width:1px;stroke-linecap:butt;stroke-linejoin:miter;stroke-opacity:1" d="M 112.444,261.778 94.6667,261.778 z" id="boundary" inkscape:connector-curvature="0" />
	<path style="fill:none;stroke:red;stroke-width:1px;stroke-linecap:butt;stroke-linejoin:miter;stroke-opacity:1" d="M 80.4444,325.778 98.2222,325.778 z" id="boundary" inkscape:connector-curvature="0" />
	<path style="fill:none;stroke:red;stroke-width:1px;stroke-linecap:butt;stroke-linejoin:miter;stroke-opacity:1" d="M 98.2222,325.778 116,325.778 z" id="boundary" inkscape:connector-curvature="0" />
	<path style="fill:none;stroke:red;stroke-width:1px;stroke-linecap:butt;stroke-linejoin:miter;stroke-opacity:1" d="M 116,325.778 133.778,325.778 z" id="boundary" inkscape:connector-curvature="0" />
	<path style="fill:none;stroke:red;stroke-width:1px;stroke-linecap:butt;stroke-linejoin:miter;stroke-opacity:1" d="M 62.6667,325.778 80.4444,325.778 z" id="boundary" inkscape:connector-curvature="0" />
	<path style="fill:none;stroke:red;stroke-width:1px;stroke-linecap:butt;stroke-linejoin:miter;stroke-opacity:1" d="M 112.444,261.778 130.222,261.778 z" id="boundary" inkscape:connector-curvature="0" />
	<path style="fill:none;stroke:red;stroke-width:1px;stroke-linecap:butt;stroke-linejoin:miter;stroke-opacity:1" d="M 121.333,363.111 103.556,368.444 z" id="boundary" inkscape:connector-curvature="0" />
	<path style="fill:none;stroke:red;stroke-width:1px;stroke-linecap:butt;stroke-linejoin:miter;stroke-opacity:1" d="M 18.2222,386.222 34.2222,377.333 z" id="boundary" inkscape:connector-curvature="0" />
	<path style="fill:none;stroke:red;stroke-width:1px;stroke-linecap:butt;stroke-linejoin:miter;stroke-opacity:1" d="M 52,377.333 34.2222,377.333 z" id="boundary" inkscape:connector-curvature="0" />
	<path style="fill:none;stroke:red;stroke-width:1px;stroke-linecap:butt;stroke-linejoin:miter;stroke-opacity:1" d="M 4,400.444 18.2222,386.222 z" id="boundary" inkscape:connector-curvature="0" />
	<path style="fill:none;stroke:red;stroke-width:1px;stroke-linecap:butt;stroke-linejoin:miter;stroke-opacity:1" d="M 12.8889,416.444 4,400.444 z" id="boundary" inkscape:connector-curvature="0" />
	<path style="fill:none;stroke:red;stroke-width:1px;stroke-linecap:butt;stroke-linejoin:miter;stroke-opacity:1" d="M 25.3333,430.667 43.1111,432.444 z" id="boundary" inkscape:connector-curvature="0" />
	<path style="fill:none;stroke:red;stroke-width:1px;stroke-linecap:butt;stroke-linejoin:miter;stroke-opacity:1" d="M 43.1111,432.444 60.8889,437.778 z" id="boundary" inkscape:connector-curvature="0" />
	<path style="fill:none;stroke:red;stroke-width:1px;stroke-linecap:butt;stroke-linejoin:miter;stroke-opacity:1" d="M 25.3333,430.667 12.8889,416.444 z" id="boundary" inkscape:connector-curvature="0" />
	<path style="fill:none;stroke:red;stroke-width:1px;stroke-linecap:butt;stroke-linejoin:miter;stroke-opacity:1" d="M 69.7778,377.333 85.7778,368.444 z" id="boundary" inkscape:connector-curvature="0" />
	<path style="fill:none;stroke:red;stroke-width:1px;stroke-linecap:butt;stroke-linejoin:miter;stroke-opacity:1" d="M 85.7778,368.444 103.556,368.444 z" id="boundary" inkscape:connector-curvature="0" />
	<path style="fill:none;stroke:red;stroke-width:1px;stroke-linecap:butt;stroke-linejoin:miter;stroke-opacity:1" d="M 69.7778,377.333 52,377.333 z" id="boundary" inkscape:connector-curvature="0" />
	<path style="fill:none;stroke:red;stroke-width:1px;stroke-linecap:butt;stroke-linejoin:miter;stroke-opacity:1" d="M 78.6667,441.333 60.8889,437.778 z" id="boundary" inkscape:connector-curvature="0" />
	<path style="fill:none;stroke:red;stroke-width:1px;stroke-linecap:butt;stroke-linejoin:miter;stroke-opacity:1" d="M 96.4444,441.333 78.6667,441.333 z" id="boundary" inkscape:connector-curvature="0" />
	<path style="fill:none;stroke:red;stroke-width:1px;stroke-linecap:butt;stroke-linejoin:miter;stroke-opacity:1" d="M 130.222,432.444 114.222,441.333 z" id="boundary" inkscape:connector-curvature="0" />
	<path style="fill:none;stroke:red;stroke-width:1px;stroke-linecap:butt;stroke-linejoin:miter;stroke-opacity:1" d="M 114.222,441.333 96.4444,441.333 z" id="boundary" inkscape:connector-curvature="0" />
	<path style="fill:none;stroke:red;stroke-width:1px;stroke-linecap:butt;stroke-linejoin:miter;stroke-opacity:1" d="M 146.222,252.889 164,252.889 z" id="boundary" inkscape:connector-curvature="0" />
	<path style="fill:none;stroke:red;stroke-width:1px;stroke-linecap:butt;stroke-linejoin:miter;stroke-opacity:1" d="M 130.222,261.778 146.222,252.889 z" id="boundary" inkscape:connector-curvature="0" />
	<path style="fill:none;stroke:red;stroke-width:1px;stroke-linecap:butt;stroke-linejoin:miter;stroke-opacity:1" d="M 181.778,252.889 164,252.889 z" id="boundary" inkscape:connector-curvature="0" />
	<path style="fill:none;stroke:red;stroke-width:1px;stroke-linecap:butt;stroke-linejoin:miter;stroke-opacity:1" d="M 139.111,359.556 121.333,363.111 z" id="boundary" inkscape:connector-curvature="0" />
	<path style="fill:none;stroke:red;stroke-width:1px;stroke-linecap:butt;stroke-linejoin:miter;stroke-opacity:1" d="M 151.556,325.778 133.778,325.778 z" id="boundary" inkscape:connector-curvature="0" />
	<path style="fill:none;stroke:red;stroke-width:1px;stroke-linecap:butt;stroke-linejoin:miter;stroke-opacity:1" d="M 169.333,325.778 151.556,325.778 z" id="boundary" inkscape:connector-curvature="0" />
	<path style="fill:none;stroke:red;stroke-width:1px;stroke-linecap:butt;stroke-linejoin:miter;stroke-opacity:1" d="M 185.333,316.889 169.333,325.778 z" id="boundary" inkscape:connector-curvature="0" />
	<path style="fill:none;stroke:red;stroke-width:1px;stroke-linecap:butt;stroke-linejoin:miter;stroke-opacity:1" d="M 181.778,252.889 199.556,252.889 z" id="boundary" inkscape:connector-curvature="0" />
	<path style="fill:none;stroke:red;stroke-width:1px;stroke-linecap:butt;stroke-linejoin:miter;stroke-opacity:1" d="M 235.111,244 217.333,249.333 z" id="boundary" inkscape:connector-curvature="0" />
	<path style="fill:none;stroke:red;stroke-width:1px;stroke-linecap:butt;stroke-linejoin:miter;stroke-opacity:1" d="M 217.333,249.333 199.556,252.889 z" id="boundary" inkscape:connector-curvature="0" />
	<path style="fill:none;stroke:red;stroke-width:1px;stroke-linecap:butt;stroke-linejoin:miter;stroke-opacity:1" d="M 229.778,210.222 247.556,210.222 z" id="boundary" inkscape:connector-curvature="0" />
	<path style="fill:none;stroke:red;stroke-width:1px;stroke-linecap:butt;stroke-linejoin:miter;stroke-opacity:1" d="M 203.111,316.889 185.333,316.889 z" id="boundary" inkscape:connector-curvature="0" />
	<path style="fill:none;stroke:red;stroke-width:1px;stroke-linecap:butt;stroke-linejoin:miter;stroke-opacity:1" d="M 219.111,308 203.111,316.889 z" id="boundary" inkscape:connector-curvature="0" />
	<path style="fill:none;stroke:red;stroke-width:1px;stroke-linecap:butt;stroke-linejoin:miter;stroke-opacity:1" d="M 236.889,308 219.111,308 z" id="boundary" inkscape:connector-curvature="0" />
	<path style="fill:none;stroke:red;stroke-width:1px;stroke-linecap:butt;stroke-linejoin:miter;stroke-opacity:1" d="M 169.333,325.778 172.889,347.111 z" id="boundary" inkscape:connector-curvature="0" />
	<path style="fill:none;stroke:red;stroke-width:1px;stroke-linecap:butt;stroke-linejoin:miter;stroke-opacity:1" d="M 172.889,347.111 155.111,350.667 z" id="boundary" inkscape:connector-curvature="0" />
	<path style="fill:none;stroke:red;stroke-width:1px;stroke-linecap:butt;stroke-linejoin:miter;stroke-opacity:1" d="M 155.111,350.667 139.111,359.556 z" id="boundary" inkscape:connector-curvature="0" />
	<path style="fill:none;stroke:red;stroke-width:1px;stroke-linecap:butt;stroke-linejoin:miter;stroke-opacity:1" d="M 190.667,341.778 172.889,347.111 z" id="boundary" inkscape:connector-curvature="0" />
	<path style="fill:none;stroke:red;stroke-width:1px;stroke-linecap:butt;stroke-linejoin:miter;stroke-opacity:1" d="M 148,432.444 130.222,432.444 z" id="boundary" inkscape:connector-curvature="0" />
	<path style="fill:none;stroke:red;stroke-width:1px;stroke-linecap:butt;stroke-linejoin:miter;stroke-opacity:1" d="M 148,432.444 165.778,432.444 z" id="boundary" inkscape:connector-curvature="0" />
	<path style="fill:none;stroke:red;stroke-width:1px;stroke-linecap:butt;stroke-linejoin:miter;stroke-opacity:1" d="M 203.111,316.889 208.444,338.222 z" id="boundary" inkscape:connector-curvature="0" />
	<path style="fill:none;stroke:red;stroke-width:1px;stroke-linecap:butt;stroke-linejoin:miter;stroke-opacity:1" d="M 208.444,338.222 190.667,341.778 z" id="boundary" inkscape:connector-curvature="0" />
	<path style="fill:none;stroke:red;stroke-width:1px;stroke-linecap:butt;stroke-linejoin:miter;stroke-opacity:1" d="M 183.556,432.444 199.556,423.556 z" id="boundary" inkscape:connector-curvature="0" />
	<path style="fill:none;stroke:red;stroke-width:1px;stroke-linecap:butt;stroke-linejoin:miter;stroke-opacity:1" d="M 199.556,423.556 217.333,418.222 z" id="boundary" inkscape:connector-curvature="0" />
	<path style="fill:none;stroke:red;stroke-width:1px;stroke-linecap:butt;stroke-linejoin:miter;stroke-opacity:1" d="M 183.556,432.444 165.778,432.444 z" id="boundary" inkscape:connector-curvature="0" />
	<path style="fill:none;stroke:red;stroke-width:1px;stroke-linecap:butt;stroke-linejoin:miter;stroke-opacity:1" d="M 217.333,418.222 235.111,414.667 z" id="boundary" inkscape:connector-curvature="0" />
	<path style="fill:none;stroke:red;stroke-width:1px;stroke-linecap:butt;stroke-linejoin:miter;stroke-opacity:1" d="M 249.333,404 235.111,414.667 z" id="boundary" inkscape:connector-curvature="0" />
	<path style="fill:none;stroke:red;stroke-width:1px;stroke-linecap:butt;stroke-linejoin:miter;stroke-opacity:1" d="M 208.444,338.222 226.222,329.333 z" id="boundary" inkscape:connector-curvature="0" />
	<path style="fill:none;stroke:red;stroke-width:1px;stroke-linecap:butt;stroke-linejoin:miter;stroke-opacity:1" d="M 245.778,324 226.222,329.333 z" id="boundary" inkscape:connector-curvature="0" />
	<path style="fill:none;stroke:red;stroke-width:1px;stroke-linecap:butt;stroke-linejoin:miter;stroke-opacity:1" d="M 236.889,142.667 252.889,151.556 z" id="boundary" inkscape:connector-curvature="0" />
	<path style="fill:none;stroke:red;stroke-width:1px;stroke-linecap:butt;stroke-linejoin:miter;stroke-opacity:1" d="M 254.667,30.6667 268.889,41.3333 z" id="boundary" inkscape:connector-curvature="0" />
	<path style="fill:none;stroke:red;stroke-width:1px;stroke-linecap:butt;stroke-linejoin:miter;stroke-opacity:1" d="M 286.667,48.4444 268.889,41.3333 z" id="boundary" inkscape:connector-curvature="0" />
	<path style="fill:none;stroke:red;stroke-width:1px;stroke-linecap:butt;stroke-linejoin:miter;stroke-opacity:1" d="M 252.889,94.6667 238.667,82.2222 z" id="boundary" inkscape:connector-curvature="0" />
	<path style="fill:none;stroke:red;stroke-width:1px;stroke-linecap:butt;stroke-linejoin:miter;stroke-opacity:1" d="M 263.556,108.889 252.889,94.6667 z" id="boundary" inkscape:connector-curvature="0" />
	<path style="fill:none;stroke:red;stroke-width:1px;stroke-linecap:butt;stroke-linejoin:miter;stroke-opacity:1" d="M 277.778,121.333 263.556,108.889 z" id="boundary" inkscape:connector-curvature="0" />
	<path style="fill:none;stroke:red;stroke-width:1px;stroke-linecap:butt;stroke-linejoin:miter;stroke-opacity:1" d="M 302.667,57.3333 315.111,71.5556 z" id="boundary" inkscape:connector-curvature="0" />
	<path style="fill:none;stroke:red;stroke-width:1px;stroke-linecap:butt;stroke-linejoin:miter;stroke-opacity:1" d="M 302.667,57.3333 286.667,48.4444 z" id="boundary" inkscape:connector-curvature="0" />
	<path style="fill:none;stroke:red;stroke-width:1px;stroke-linecap:butt;stroke-linejoin:miter;stroke-opacity:1" d="M 329.333,84 315.111,71.5556 z" id="boundary" inkscape:connector-curvature="0" />
	<path style="fill:none;stroke:red;stroke-width:1px;stroke-linecap:butt;stroke-linejoin:miter;stroke-opacity:1" d="M 329.333,84 341.778,98.2222 z" id="boundary" inkscape:connector-curvature="0" />
	<path style="fill:none;stroke:red;stroke-width:1px;stroke-linecap:butt;stroke-linejoin:miter;stroke-opacity:1" d="M 501.778,181.778 484,181.778 z" id="boundary" inkscape:connector-curvature="0" />
	<path style="fill:none;stroke:red;stroke-width:1px;stroke-linecap:butt;stroke-linejoin:miter;stroke-opacity:1" d="M 341.778,98.2222 350.667,114.222 z" id="boundary" inkscape:connector-curvature="0" />
	<path style="fill:none;stroke:red;stroke-width:1px;stroke-linecap:butt;stroke-linejoin:miter;stroke-opacity:1" d="M 361.333,128.444 350.667,114.222 z" id="boundary" inkscape:connector-curvature="0" />
	<path style="fill:none;stroke:red;stroke-width:1px;stroke-linecap:butt;stroke-linejoin:miter;stroke-opacity:1" d="M 290.222,135.556 277.778,121.333 z" id="boundary" inkscape:connector-curvature="0" />
	<path style="fill:none;stroke:red;stroke-width:1px;stroke-linecap:butt;stroke-linejoin:miter;stroke-opacity:1" d="M 361.333,128.444 361.333,146.222 z" id="boundary" inkscape:connector-curvature="0" />
	<path style="fill:none;stroke:red;stroke-width:1px;stroke-linecap:butt;stroke-linejoin:miter;stroke-opacity:1" d="M 270.667,155.111 252.889,151.556 z" id="boundary" inkscape:connector-curvature="0" />
	<path style="fill:none;stroke:red;stroke-width:1px;stroke-linecap:butt;stroke-linejoin:miter;stroke-opacity:1" d="M 286.667,164 270.667,155.111 z" id="boundary" inkscape:connector-curvature="0" />
	<path style="fill:none;stroke:red;stroke-width:1px;stroke-linecap:butt;stroke-linejoin:miter;stroke-opacity:1" d="M 361.333,164 361.333,181.778 z" id="boundary" inkscape:connector-curvature="0" />
	<path style="fill:none;stroke:red;stroke-width:1px;stroke-linecap:butt;stroke-linejoin:miter;stroke-opacity:1" d="M 377.333,190.667 361.333,181.778 z" id="boundary" inkscape:connector-curvature="0" />
	<path style="fill:none;stroke:red;stroke-width:1px;stroke-linecap:butt;stroke-linejoin:miter;stroke-opacity:1" d="M 361.333,146.222 361.333,164 z" id="boundary" inkscape:connector-curvature="0" />
	<path style="fill:none;stroke:red;stroke-width:1px;stroke-linecap:butt;stroke-linejoin:miter;stroke-opacity:1" d="M 412.889,187.111 430.667,181.778 z" id="boundary" inkscape:connector-curvature="0" />
	<path style="fill:none;stroke:red;stroke-width:1px;stroke-linecap:butt;stroke-linejoin:miter;stroke-opacity:1" d="M 448.444,181.778 430.667,181.778 z" id="boundary" inkscape:connector-curvature="0" />
	<path style="fill:none;stroke:red;stroke-width:1px;stroke-linecap:butt;stroke-linejoin:miter;stroke-opacity:1" d="M 377.333,190.667 395.111,190.667 z" id="boundary" inkscape:connector-curvature="0" />
	<path style="fill:none;stroke:red;stroke-width:1px;stroke-linecap:butt;stroke-linejoin:miter;stroke-opacity:1" d="M 395.111,190.667 412.889,187.111 z" id="boundary" inkscape:connector-curvature="0" />
	<path style="fill:none;stroke:red;stroke-width:1px;stroke-linecap:butt;stroke-linejoin:miter;stroke-opacity:1" d="M 448.444,181.778 466.222,181.778 z" id="boundary" inkscape:connector-curvature="0" />
	<path style="fill:none;stroke:red;stroke-width:1px;stroke-linecap:butt;stroke-linejoin:miter;stroke-opacity:1" d="M 466.222,181.778 484,181.778 z" id="boundary" inkscape:connector-curvature="0" />
	<path style="fill:none;stroke:red;stroke-width:1px;stroke-linecap:butt;stroke-linejoin:miter;stroke-opacity:1" d="M 501.778,181.778 519.556,181.778 z" id="boundary" inkscape:connector-curvature="0" />
	<path style="fill:none;stroke:red;stroke-width:1px;stroke-linecap:butt;stroke-linejoin:miter;stroke-opacity:1" d="M 537.333,181.778 519.556,181.778 z" id="boundary" inkscape:connector-curvature="0" />
	<path style="fill:none;stroke:red;stroke-width:1px;stroke-linecap:butt;stroke-linejoin:miter;stroke-opacity:1" d="M 590.667,181.778 572.889,185.333 z" id="boundary" inkscape:connector-curvature="0" />
	<path style="fill:none;stroke:red;stroke-width:1px;stroke-linecap:butt;stroke-linejoin:miter;stroke-opacity:1" d="M 572.889,185.333 555.111,181.778 z" id="boundary" inkscape:connector-curvature="0" />
	<path style="fill:none;stroke:red;stroke-width:1px;stroke-linecap:butt;stroke-linejoin:miter;stroke-opacity:1" d="M 622.667,181.778 640.444,181.778 z" id="boundary" inkscape:connector-curvature="0" />
	<path style="fill:none;stroke:red;stroke-width:1px;stroke-linecap:butt;stroke-linejoin:miter;stroke-opacity:1" d="M 606.667,190.667 622.667,181.778 z" id="boundary" inkscape:connector-curvature="0" />
	<path style="fill:none;stroke:red;stroke-width:1px;stroke-linecap:butt;stroke-linejoin:miter;stroke-opacity:1" d="M 606.667,190.667 590.667,181.778 z" id="boundary" inkscape:connector-curvature="0" />
	<path style="fill:none;stroke:red;stroke-width:1px;stroke-linecap:butt;stroke-linejoin:miter;stroke-opacity:1" d="M 555.111,181.778 537.333,181.778 z" id="boundary" inkscape:connector-curvature="0" />
	<path style="fill:none;stroke:red;stroke-width:1px;stroke-linecap:butt;stroke-linejoin:miter;stroke-opacity:1" d="M 640.444,181.778 658.222,181.778 z" id="boundary" inkscape:connector-curvature="0" />
	<path style="fill:none;stroke:red;stroke-width:1px;stroke-linecap:butt;stroke-linejoin:miter;stroke-opacity:1" d="M 676,181.778 658.222,181.778 z" id="boundary" inkscape:connector-curvature="0" />
	<path style="fill:none;stroke:red;stroke-width:1px;stroke-linecap:butt;stroke-linejoin:miter;stroke-opacity:1" d="M 693.778,181.778 676,181.778 z" id="boundary" inkscape:connector-curvature="0" />
	<path style="fill:none;stroke:red;stroke-width:1px;stroke-linecap:butt;stroke-linejoin:miter;stroke-opacity:1" d="M 711.556,181.778 729.333,181.778 z" id="boundary" inkscape:connector-curvature="0" />
	<path style="fill:none;stroke:red;stroke-width:1px;stroke-linecap:butt;stroke-linejoin:miter;stroke-opacity:1" d="M 747.111,181.778 764.889,181.778 z" id="boundary" inkscape:connector-curvature="0" />
	<path style="fill:none;stroke:red;stroke-width:1px;stroke-linecap:butt;stroke-linejoin:miter;stroke-opacity:1" d="M 747.111,181.778 729.333,181.778 z" id="boundary" inkscape:connector-curvature="0" />
	<path style="fill:none;stroke:red;stroke-width:1px;stroke-linecap:butt;stroke-linejoin:miter;stroke-opacity:1" d="M 711.556,181.778 693.778,181.778 z" id="boundary" inkscape:connector-curvature="0" />
	<path style="fill:none;stroke:red;stroke-width:1px;stroke-linecap:butt;stroke-linejoin:miter;stroke-opacity:1" d="M 782.667,181.778 800.444,181.778 z" id="boundary" inkscape:connector-curvature="0" />
	<path style="fill:none;stroke:red;stroke-width:1px;stroke-linecap:butt;stroke-linejoin:miter;stroke-opacity:1" d="M 818.222,181.778 800.444,181.778 z" id="boundary" inkscape:connector-curvature="0" />
	<path style="fill:none;stroke:red;stroke-width:1px;stroke-linecap:butt;stroke-linejoin:miter;stroke-opacity:1" d="M 818.222,181.778 834.222,190.667 z" id="boundary" inkscape:connector-curvature="0" />
	<path style="fill:none;stroke:red;stroke-width:1px;stroke-linecap:butt;stroke-linejoin:miter;stroke-opacity:1" d="M 834.222,190.667 850.222,181.778 z" id="boundary" inkscape:connector-curvature="0" />
	<path style="fill:none;stroke:red;stroke-width:1px;stroke-linecap:butt;stroke-linejoin:miter;stroke-opacity:1" d="M 850.222,181.778 868,181.778 z" id="boundary" inkscape:connector-curvature="0" />
	<path style="fill:none;stroke:red;stroke-width:1px;stroke-linecap:butt;stroke-linejoin:miter;stroke-opacity:1" d="M 764.889,181.778 782.667,181.778 z" id="boundary" inkscape:connector-curvature="0" />
	<path style="fill:none;stroke:red;stroke-width:1px;stroke-linecap:butt;stroke-linejoin:miter;stroke-opacity:1" d="M 901.778,190.667 884,190.667 z" id="boundary" inkscape:connector-curvature="0" />
	<path style="fill:none;stroke:red;stroke-width:1px;stroke-linecap:butt;stroke-linejoin:miter;stroke-opacity:1" d="M 884,190.667 868,181.778 z" id="boundary" inkscape:connector-curvature="0" />
	<path style="fill:none;stroke:red;stroke-width:1px;stroke-linecap:butt;stroke-linejoin:miter;stroke-opacity:1" d="M 919.556,190.667 901.778,190.667 z" id="boundary" inkscape:connector-curvature="0" />
	<path style="fill:none;stroke:red;stroke-width:1px;stroke-linecap:butt;stroke-linejoin:miter;stroke-opacity:1" d="M 919.556,190.667 937.333,190.667 z" id="boundary" inkscape:connector-curvature="0" />
	<path style="fill:none;stroke:red;stroke-width:1px;stroke-linecap:butt;stroke-linejoin:miter;stroke-opacity:1" d="M 937.333,190.667 953.333,199.556 z" id="boundary" inkscape:connector-curvature="0" />
	<path style="fill:none;stroke:red;stroke-width:1px;stroke-linecap:butt;stroke-linejoin:miter;stroke-opacity:1" d="M 953.333,199.556 969.333,208.444 z" id="boundary" inkscape:connector-curvature="0" />
	<path style="fill:none;stroke:red;stroke-width:1px;stroke-linecap:butt;stroke-linejoin:miter;stroke-opacity:1" d="M 969.333,208.444 981.778,222.667 z" id="boundary" inkscape:connector-curvature="0" />
	<path style="fill:none;stroke:red;stroke-width:1px;stroke-linecap:butt;stroke-linejoin:miter;stroke-opacity:1" d="M 247.556,210.222 263.556,219.111 z" id="boundary" inkscape:connector-curvature="0" />
	<path style="fill:none;stroke:red;stroke-width:1px;stroke-linecap:butt;stroke-linejoin:miter;stroke-opacity:1" d="M 263.556,219.111 252.889,240.444 z" id="boundary" inkscape:connector-curvature="0" />
	<path style="fill:none;stroke:red;stroke-width:1px;stroke-linecap:butt;stroke-linejoin:miter;stroke-opacity:1" d="M 402.222,272.444 384.444,272.444 z" id="boundary" inkscape:connector-curvature="0" />
	<path style="fill:none;stroke:red;stroke-width:1px;stroke-linecap:butt;stroke-linejoin:miter;stroke-opacity:1" d="M 235.111,244 252.889,240.444 z" id="boundary" inkscape:connector-curvature="0" />
	<path style="fill:none;stroke:red;stroke-width:1px;stroke-linecap:butt;stroke-linejoin:miter;stroke-opacity:1" d="M 368.444,281.333 384.444,272.444 z" id="boundary" inkscape:connector-curvature="0" />
	<path style="fill:none;stroke:red;stroke-width:1px;stroke-linecap:butt;stroke-linejoin:miter;stroke-opacity:1" d="M 357.778,295.556 368.444,281.333 z" id="boundary" inkscape:connector-curvature="0" />
	<path style="fill:none;stroke:red;stroke-width:1px;stroke-linecap:butt;stroke-linejoin:miter;stroke-opacity:1" d="M 420,272.444 437.778,272.444 z" id="boundary" inkscape:connector-curvature="0" />
	<path style="fill:none;stroke:red;stroke-width:1px;stroke-linecap:butt;stroke-linejoin:miter;stroke-opacity:1" d="M 437.778,272.444 453.778,281.333 z" id="boundary" inkscape:connector-curvature="0" />
	<path style="fill:none;stroke:red;stroke-width:1px;stroke-linecap:butt;stroke-linejoin:miter;stroke-opacity:1" d="M 420,272.444 402.222,272.444 z" id="boundary" inkscape:connector-curvature="0" />
	<path style="fill:none;stroke:red;stroke-width:1px;stroke-linecap:butt;stroke-linejoin:miter;stroke-opacity:1" d="M 471.556,281.333 453.778,281.333 z" id="boundary" inkscape:connector-curvature="0" />
	<path style="fill:none;stroke:red;stroke-width:1px;stroke-linecap:butt;stroke-linejoin:miter;stroke-opacity:1" d="M 471.556,281.333 487.556,290.222 z" id="boundary" inkscape:connector-curvature="0" />
	<path style="fill:none;stroke:red;stroke-width:1px;stroke-linecap:butt;stroke-linejoin:miter;stroke-opacity:1" d="M 505.333,290.222 487.556,290.222 z" id="boundary" inkscape:connector-curvature="0" />
	<path style="fill:none;stroke:red;stroke-width:1px;stroke-linecap:butt;stroke-linejoin:miter;stroke-opacity:1" d="M 505.333,290.222 523.111,290.222 z" id="boundary" inkscape:connector-curvature="0" />
	<path style="fill:none;stroke:red;stroke-width:1px;stroke-linecap:butt;stroke-linejoin:miter;stroke-opacity:1" d="M 523.111,290.222 540.889,295.556 z" id="boundary" inkscape:connector-curvature="0" />
	<path style="fill:none;stroke:red;stroke-width:1px;stroke-linecap:butt;stroke-linejoin:miter;stroke-opacity:1" d="M 576.444,299.111 558.667,299.111 z" id="boundary" inkscape:connector-curvature="0" />
	<path style="fill:none;stroke:red;stroke-width:1px;stroke-linecap:butt;stroke-linejoin:miter;stroke-opacity:1" d="M 313.333,357.778 295.556,366.667 z" id="boundary" inkscape:connector-curvature="0" />
	<path style="fill:none;stroke:red;stroke-width:1px;stroke-linecap:butt;stroke-linejoin:miter;stroke-opacity:1" d="M 322.222,340 313.333,357.778 z" id="boundary" inkscape:connector-curvature="0" />
	<path style="fill:none;stroke:red;stroke-width:1px;stroke-linecap:butt;stroke-linejoin:miter;stroke-opacity:1" d="M 267.111,395.111 249.333,404 z" id="boundary" inkscape:connector-curvature="0" />
	<path style="fill:none;stroke:red;stroke-width:1px;stroke-linecap:butt;stroke-linejoin:miter;stroke-opacity:1" d="M 281.333,379.111 295.556,366.667 z" id="boundary" inkscape:connector-curvature="0" />
	<path style="fill:none;stroke:red;stroke-width:1px;stroke-linecap:butt;stroke-linejoin:miter;stroke-opacity:1" d="M 281.333,379.111 267.111,395.111 z" id="boundary" inkscape:connector-curvature="0" />
	<path style="fill:none;stroke:red;stroke-width:1px;stroke-linecap:butt;stroke-linejoin:miter;stroke-opacity:1" d="M 348.889,313.333 357.778,295.556 z" id="boundary" inkscape:connector-curvature="0" />
	<path style="fill:none;stroke:red;stroke-width:1px;stroke-linecap:butt;stroke-linejoin:miter;stroke-opacity:1" d="M 558.667,299.111 540.889,295.556 z" id="boundary" inkscape:connector-curvature="0" />
	<path style="fill:none;stroke:red;stroke-width:1px;stroke-linecap:butt;stroke-linejoin:miter;stroke-opacity:1" d="M 334.667,325.778 348.889,313.333 z" id="boundary" inkscape:connector-curvature="0" />
	<path style="fill:none;stroke:red;stroke-width:1px;stroke-linecap:butt;stroke-linejoin:miter;stroke-opacity:1" d="M 334.667,325.778 322.222,340 z" id="boundary" inkscape:connector-curvature="0" />
	<path style="fill:none;stroke:red;stroke-width:1px;stroke-linecap:butt;stroke-linejoin:miter;stroke-opacity:1" d="M 629.778,308 612,304.444 z" id="boundary" inkscape:connector-curvature="0" />
	<path style="fill:none;stroke:red;stroke-width:1px;stroke-linecap:butt;stroke-linejoin:miter;stroke-opacity:1" d="M 612,304.444 594.222,299.111 z" id="boundary" inkscape:connector-curvature="0" />
	<path style="fill:none;stroke:red;stroke-width:1px;stroke-linecap:butt;stroke-linejoin:miter;stroke-opacity:1" d="M 576.444,299.111 594.222,299.111 z" id="boundary" inkscape:connector-curvature="0" />
	<path style="fill:none;stroke:red;stroke-width:1px;stroke-linecap:butt;stroke-linejoin:miter;stroke-opacity:1" d="M 647.556,308 665.333,308 z" id="boundary" inkscape:connector-curvature="0" />
	<path style="fill:none;stroke:red;stroke-width:1px;stroke-linecap:butt;stroke-linejoin:miter;stroke-opacity:1" d="M 665.333,308 681.333,316.889 z" id="boundary" inkscape:connector-curvature="0" />
	<path style="fill:none;stroke:red;stroke-width:1px;stroke-linecap:butt;stroke-linejoin:miter;stroke-opacity:1" d="M 647.556,308 629.778,308 z" id="boundary" inkscape:connector-curvature="0" />
	<path style="fill:none;stroke:red;stroke-width:1px;stroke-linecap:butt;stroke-linejoin:miter;stroke-opacity:1" d="M 732.889,308 750.667,308 z" id="boundary" inkscape:connector-curvature="0" />
	<path style="fill:none;stroke:red;stroke-width:1px;stroke-linecap:butt;stroke-linejoin:miter;stroke-opacity:1" d="M 716.889,316.889 732.889,308 z" id="boundary" inkscape:connector-curvature="0" />
	<path style="fill:none;stroke:red;stroke-width:1px;stroke-linecap:butt;stroke-linejoin:miter;stroke-opacity:1" d="M 981.778,222.667 992.444,236.889 z" id="boundary" inkscape:connector-curvature="0" />
	<path style="fill:none;stroke:red;stroke-width:1px;stroke-linecap:butt;stroke-linejoin:miter;stroke-opacity:1" d="M 992.444,236.889 992.444,254.667 z" id="boundary" inkscape:connector-curvature="0" />
	<path style="fill:none;stroke:red;stroke-width:1px;stroke-linecap:butt;stroke-linejoin:miter;stroke-opacity:1" d="M 996,272.444 992.444,254.667 z" id="boundary" inkscape:connector-curvature="0" />
	<path style="fill:none;stroke:red;stroke-width:1px;stroke-linecap:butt;stroke-linejoin:miter;stroke-opacity:1" d="M 820,316.889 802.222,316.889 z" id="boundary" inkscape:connector-curvature="0" />
	<path style="fill:none;stroke:red;stroke-width:1px;stroke-linecap:butt;stroke-linejoin:miter;stroke-opacity:1" d="M 960.444,308 942.667,308 z" id="boundary" inkscape:connector-curvature="0" />
	<path style="fill:none;stroke:red;stroke-width:1px;stroke-linecap:butt;stroke-linejoin:miter;stroke-opacity:1" d="M 996,272.444 992.444,299.111 z" id="boundary" inkscape:connector-curvature="0" />
	<path style="fill:none;stroke:red;stroke-width:1px;stroke-linecap:butt;stroke-linejoin:miter;stroke-opacity:1" d="M 768.444,308 750.667,308 z" id="boundary" inkscape:connector-curvature="0" />
	<path style="fill:none;stroke:red;stroke-width:1px;stroke-linecap:butt;stroke-linejoin:miter;stroke-opacity:1" d="M 768.444,308 784.444,316.889 z" id="boundary" inkscape:connector-curvature="0" />
	<path style="fill:none;stroke:red;stroke-width:1px;stroke-linecap:butt;stroke-linejoin:miter;stroke-opacity:1" d="M 681.333,316.889 699.111,316.889 z" id="boundary" inkscape:connector-curvature="0" />
	<path style="fill:none;stroke:red;stroke-width:1px;stroke-linecap:butt;stroke-linejoin:miter;stroke-opacity:1" d="M 716.889,316.889 699.111,316.889 z" id="boundary" inkscape:connector-curvature="0" />
	<path style="fill:none;stroke:red;stroke-width:1px;stroke-linecap:butt;stroke-linejoin:miter;stroke-opacity:1" d="M 784.444,316.889 802.222,316.889 z" id="boundary" inkscape:connector-curvature="0" />
	<path style="fill:none;stroke:red;stroke-width:1px;stroke-linecap:butt;stroke-linejoin:miter;stroke-opacity:1" d="M 820,316.889 837.778,316.889 z" id="boundary" inkscape:connector-curvature="0" />
	<path style="fill:none;stroke:red;stroke-width:1px;stroke-linecap:butt;stroke-linejoin:miter;stroke-opacity:1" d="M 873.333,316.889 855.556,316.889 z" id="boundary" inkscape:connector-curvature="0" />
	<path style="fill:none;stroke:red;stroke-width:1px;stroke-linecap:butt;stroke-linejoin:miter;stroke-opacity:1" d="M 855.556,316.889 837.778,316.889 z" id="boundary" inkscape:connector-curvature="0" />
	<path style="fill:none;stroke:red;stroke-width:1px;stroke-linecap:butt;stroke-linejoin:miter;stroke-opacity:1" d="M 978.222,315.111 960.444,308 z" id="boundary" inkscape:connector-curvature="0" />
	<path style="fill:none;stroke:red;stroke-width:1px;stroke-linecap:butt;stroke-linejoin:miter;stroke-opacity:1" d="M 992.444,299.111 978.222,315.111 z" id="boundary" inkscape:connector-curvature="0" />
	<path style="fill:none;stroke:red;stroke-width:1px;stroke-linecap:butt;stroke-linejoin:miter;stroke-opacity:1" d="M 873.333,316.889 891.111,316.889 z" id="boundary" inkscape:connector-curvature="0" />
	<path style="fill:none;stroke:red;stroke-width:1px;stroke-linecap:butt;stroke-linejoin:miter;stroke-opacity:1" d="M 908.889,316.889 926.667,316.889 z" id="boundary" inkscape:connector-curvature="0" />
	<path style="fill:none;stroke:red;stroke-width:1px;stroke-linecap:butt;stroke-linejoin:miter;stroke-opacity:1" d="M 942.667,308 926.667,316.889 z" id="boundary" inkscape:connector-curvature="0" />
	<path style="fill:none;stroke:red;stroke-width:1px;stroke-linecap:butt;stroke-linejoin:miter;stroke-opacity:1" d="M 908.889,316.889 891.111,316.889 z" id="boundary" inkscape:connector-curvature="0" />
	<circle cx="4" cy="400.444" r="4" fill="#0" id="circle0"/>
	<circle cx="12.8889" cy="18.2222" r="4" fill="#0" id="circle1"/>
	<circle cx="12.8889" cy="36" r="4" fill="#0" id="circle2"/>
	<circle cx="12.8889" cy="53.7778" r="4" fill="#0" id="circle3"/>
	<circle cx="12.8889" cy="151.556" r="4" fill="#0" id="circle4"/>
	<circle cx="12.8889" cy="416.444" r="4" fill="#0" id="circle5"/>
	<circle cx="18.2222" cy="386.222" r="4" fill="#0" id="circle6"/>
	<circle cx="21.7778" cy="167.556" r="4" fill="#0" id="circle7"/>
	<circle cx="25.3333" cy="430.667" r="4" fill="#0" id="circle8"/>
	<circle cx="27.1111" cy="66.2222" r="4" fill="#0" id="circle9"/>
	<circle cx="27.1111" cy="137.333" r="4" fill="#0" id="circle10"/>
	<circle cx="30.6667" cy="12.8889" r="4" fill="#0" id="circle11"/>
	<circle cx="30.6667" cy="293.778" r="4" fill="#0" id="circle12"/>
	<circle cx="30.6667" cy="311.556" r="4" fill="#0" id="circle13"/>
	<circle cx="34.2222" cy="377.333" r="4" fill="#0" id="circle14"/>
	<circle cx="39.5556" cy="174.667" r="4" fill="#0" id="circle15"/>
	<circle cx="43.1111" cy="432.444" r="4" fill="#0" id="circle16"/>
	<circle cx="44.8889" cy="68" r="4" fill="#0" id="circle17"/>
	<circle cx="44.8889" cy="128.444" r="4" fill="#0" id="circle18"/>
	<circle cx="44.8889" cy="279.556" r="4" fill="#0" id="circle19"/>
	<circle cx="44.8889" cy="324" r="4" fill="#0" id="circle20"/>
	<circle cx="48.4444" cy="12.8889" r="4" fill="#0" id="circle21"/>
	<circle cx="52" cy="377.333" r="4" fill="#0" id="circle22"/>
	<circle cx="55.5556" cy="183.556" r="4" fill="#0" id="circle23"/>
	<circle cx="60.8889" cy="270.667" r="4" fill="#0" id="circle24"/>
	<circle cx="60.8889" cy="437.778" r="4" fill="#0" id="circle25"/>
	<circle cx="62.6667" cy="66.2222" r="4" fill="#0" id="circle26"/>
	<circle cx="62.6667" cy="119.556" r="4" fill="#0" id="circle27"/>
	<circle cx="62.6667" cy="325.778" r="4" fill="#0" id="circle28"/>
	<circle cx="66.2222" cy="12.8889" r="4" fill="#0" id="circle29"/>
	<circle cx="69.7778" cy="377.333" r="4" fill="#0" id="circle30"/>
	<circle cx="73.3333" cy="183.556" r="4" fill="#0" id="circle31"/>
	<circle cx="78.6667" cy="270.667" r="4" fill="#0" id="circle32"/>
	<circle cx="78.6667" cy="441.333" r="4" fill="#0" id="circle33"/>
	<circle cx="80.4444" cy="57.3333" r="4" fill="#0" id="circle34"/>
	<circle cx="80.4444" cy="119.556" r="4" fill="#0" id="circle35"/>
	<circle cx="80.4444" cy="325.778" r="4" fill="#0" id="circle36"/>
	<circle cx="84" cy="12.8889" r="4" fill="#0" id="circle37"/>
	<circle cx="85.7778" cy="368.444" r="4" fill="#0" id="circle38"/>
	<circle cx="89.3333" cy="192.444" r="4" fill="#0" id="circle39"/>
	<circle cx="94.6667" cy="261.778" r="4" fill="#0" id="circle40"/>
	<circle cx="96.4444" cy="441.333" r="4" fill="#0" id="circle41"/>
	<circle cx="98.2222" cy="50.2222" r="4" fill="#0" id="circle42"/>
	<circle cx="98.2222" cy="119.556" r="4" fill="#0" id="circle43"/>
	<circle cx="98.2222" cy="325.778" r="4" fill="#0" id="circle44"/>
	<circle cx="100" cy="4" r="4" fill="#0" id="circle45"/>
	<circle cx="103.556" cy="368.444" r="4" fill="#0" id="circle46"/>
	<circle cx="107.111" cy="192.444" r="4" fill="#0" id="circle47"/>
	<circle cx="112.444" cy="261.778" r="4" fill="#0" id="circle48"/>
	<circle cx="114.222" cy="441.333" r="4" fill="#0" id="circle49"/>
	<circle cx="116" cy="50.2222" r="4" fill="#0" id="circle50"/>
	<circle cx="116" cy="119.556" r="4" fill="#0" id="circle51"/>
	<circle cx="116" cy="325.778" r="4" fill="#0" id="circle52"/>
	<circle cx="117.778" cy="4" r="4" fill="#0" id="circle53"/>
	<circle cx="121.333" cy="363.111" r="4" fill="#0" id="circle54"/>
	<circle cx="123.111" cy="201.333" r="4" fill="#0" id="circle55"/>
	<circle cx="130.222" cy="261.778" r="4" fill="#0" id="circle56"/>
	<circle cx="130.222" cy="432.444" r="4" fill="#0" id="circle57"/>
	<circle cx="133.778" cy="50.2222" r="4" fill="#0" id="circle58"/>
	<circle cx="133.778" cy="119.556" r="4" fill="#0" id="circle59"/>
	<circle cx="133.778" cy="325.778" r="4" fill="#0" id="circle60"/>
	<circle cx="135.556" cy="4" r="4" fill="#0" id="circle61"/>
	<circle cx="139.111" cy="359.556" r="4" fill="#0" id="circle62"/>
	<circle cx="140.889" cy="201.333" r="4" fill="#0" id="circle63"/>
	<circle cx="146.222" cy="252.889" r="4" fill="#0" id="circle64"/>
	<circle cx="148" cy="432.444" r="4" fill="#0" id="circle65"/>
	<circle cx="151.556" cy="12.8889" r="4" fill="#0" id="circle66"/>
	<circle cx="151.556" cy="50.2222" r="4" fill="#0" id="circle67"/>
	<circle cx="151.556" cy="119.556" r="4" fill="#0" id="circle68"/>
	<circle cx="151.556" cy="325.778" r="4" fill="#0" id="circle69"/>
	<circle cx="155.111" cy="350.667" r="4" fill="#0" id="circle70"/>
	<circle cx="158.667" cy="201.333" r="4" fill="#0" id="circle71"/>
	<circle cx="164" cy="252.889" r="4" fill="#0" id="circle72"/>
	<circle cx="165.778" cy="432.444" r="4" fill="#0" id="circle73"/>
	<circle cx="169.333" cy="12.8889" r="4" fill="#0" id="circle74"/>
	<circle cx="169.333" cy="57.3333" r="4" fill="#0" id="circle75"/>
	<circle cx="169.333" cy="119.556" r="4" fill="#0" id="circle76"/>
	<circle cx="169.333" cy="325.778" r="4" fill="#0" id="circle77"/>
	<circle cx="172.889" cy="347.111" r="4" fill="#0" id="circle78"/>
	<circle cx="176.444" cy="201.333" r="4" fill="#0" id="circle79"/>
	<circle cx="181.778" cy="252.889" r="4" fill="#0" id="circle80"/>
	<circle cx="183.556" cy="432.444" r="4" fill="#0" id="circle81"/>
	<circle cx="185.333" cy="128.444" r="4" fill="#0" id="circle82"/>
	<circle cx="185.333" cy="316.889" r="4" fill="#0" id="circle83"/>
	<circle cx="187.111" cy="12.8889" r="4" fill="#0" id="circle84"/>
	<circle cx="187.111" cy="59.1111" r="4" fill="#0" id="circle85"/>
	<circle cx="190.667" cy="341.778" r="4" fill="#0" id="circle86"/>
	<circle cx="194.222" cy="201.333" r="4" fill="#0" id="circle87"/>
	<circle cx="199.556" cy="252.889" r="4" fill="#0" id="circle88"/>
	<circle cx="199.556" cy="423.556" r="4" fill="#0" id="circle89"/>
	<circle cx="203.111" cy="21.7778" r="4" fill="#0" id="circle90"/>
	<circle cx="203.111" cy="128.444" r="4" fill="#0" id="circle91"/>
	<circle cx="203.111" cy="316.889" r="4" fill="#0" id="circle92"/>
	<circle cx="204.889" cy="66.2222" r="4" fill="#0" id="circle93"/>
	<circle cx="208.444" cy="338.222" r="4" fill="#0" id="circle94"/>
	<circle cx="212" cy="206.667" r="4" fill="#0" id="circle95"/>
	<circle cx="217.333" cy="249.333" r="4" fill="#0" id="circle96"/>
	<circle cx="217.333" cy="418.222" r="4" fill="#0" id="circle97"/>
	<circle cx="219.111" cy="137.333" r="4" fill="#0" id="circle98"/>
	<circle cx="219.111" cy="308" r="4" fill="#0" id="circle99"/>
	<circle cx="220.889" cy="21.7778" r="4" fill="#0" id="circle100"/>
	<circle cx="220.889" cy="75.1111" r="4" fill="#0" id="circle101"/>
	<circle cx="226.222" cy="329.333" r="4" fill="#0" id="circle102"/>
	<circle cx="229.778" cy="210.222" r="4" fill="#0" id="circle103"/>
	<circle cx="235.111" cy="244" r="4" fill="#0" id="circle104"/>
	<circle cx="235.111" cy="414.667" r="4" fill="#0" id="circle105"/>
	<circle cx="236.889" cy="30.6667" r="4" fill="#0" id="circle106"/>
	<circle cx="236.889" cy="142.667" r="4" fill="#0" id="circle107"/>
	<circle cx="236.889" cy="308" r="4" fill="#0" id="circle108"/>
	<circle cx="238.667" cy="82.2222" r="4" fill="#0" id="circle109"/>
	<circle cx="245.778" cy="324" r="4" fill="#0" id="circle110"/>
	<circle cx="247.556" cy="210.222" r="4" fill="#0" id="circle111"/>
	<circle cx="249.333" cy="404" r="4" fill="#0" id="circle112"/>
	<circle cx="252.889" cy="94.6667" r="4" fill="#0" id="circle113"/>
	<circle cx="252.889" cy="151.556" r="4" fill="#0" id="circle114"/>
	<circle cx="252.889" cy="240.444" r="4" fill="#0" id="circle115"/>
	<circle cx="254.667" cy="30.6667" r="4" fill="#0" id="circle116"/>
	<circle cx="254.667" cy="308" r="4" fill="#0" id="circle117"/>
	<circle cx="263.556" cy="108.889" r="4" fill="#0" id="circle118"/>
	<circle cx="263.556" cy="219.111" r="4" fill="#0" id="circle119"/>
	<circle cx="267.111" cy="395.111" r="4" fill="#0" id="circle120"/>
	<circle cx="268.889" cy="41.3333" r="4" fill="#0" id="circle121"/>
	<circle cx="270.667" cy="155.111" r="4" fill="#0" id="circle122"/>
	<circle cx="277.778" cy="121.333" r="4" fill="#0" id="circle123"/>
	<circle cx="281.333" cy="379.111" r="4" fill="#0" id="circle124"/>
	<circle cx="286.667" cy="48.4444" r="4" fill="#0" id="circle125"/>
	<circle cx="286.667" cy="164" r="4" fill="#0" id="circle126"/>
	<circle cx="290.222" cy="135.556" r="4" fill="#0" id="circle127"/>
	<circle cx="295.556" cy="366.667" r="4" fill="#0" id="circle128"/>
	<circle cx="302.667" cy="57.3333" r="4" fill="#0" id="circle129"/>
	<circle cx="313.333" cy="357.778" r="4" fill="#0" id="circle130"/>
	<circle cx="315.111" cy="71.5556" r="4" fill="#0" id="circle131"/>
	<circle cx="322.222" cy="340" r="4" fill="#0" id="circle132"/>
	<circle cx="329.333" cy="84" r="4" fill="#0" id="circle133"/>
	<circle cx="334.667" cy="325.778" r="4" fill="#0" id="circle134"/>
	<circle cx="341.778" cy="98.2222" r="4" fill="#0" id="circle135"/>
	<circle cx="348.889" cy="313.333" r="4" fill="#0" id="circle136"/>
	<circle cx="350.667" cy="114.222" r="4" fill="#0" id="circle137"/>
	<circle cx="357.778" cy="295.556" r="4" fill="#0" id="circle138"/>
	<circle cx="361.333" cy="128.444" r="4" fill="#0" id="circle139"/>
	<circle cx="361.333" cy="146.222" r="4" fill="#0" id="circle140"/>
	<circle cx="361.333" cy="164" r="4" fill="#0" id="circle141"/>
	<circle cx="361.333" cy="181.778" r="4" fill="#0" id="circle142"/>
	<circle cx="368.444" cy="281.333" r="4" fill="#0" id="circle143"/>
	<circle cx="377.333" cy="190.667" r="4" fill="#0" id="circle144"/>
	<circle cx="384.444" cy="272.444" r="4" fill="#0" id="circle145"/>
	<circle cx="395.111" cy="190.667" r="4" fill="#0" id="circle146"/>
	<circle cx="402.222" cy="272.444" r="4" fill="#0" id="circle147"/>
	<circle cx="412.889" cy="187.111" r="4" fill="#0" id="circle148"/>
	<circle cx="420" cy="272.444" r="4" fill="#0" id="circle149"/>
	<circle cx="430.667" cy="181.778" r="4" fill="#0" id="circle150"/>
	<circle cx="437.778" cy="272.444" r="4" fill="#0" id="circle151"/>
	<circle cx="448.444" cy="181.778" r="4" fill="#0" id="circle152"/>
	<circle cx="453.778" cy="281.333" r="4" fill="#0" id="circle153"/>
	<circle cx="466.222" cy="181.778" r="4" fill="#0" id="circle154"/>
	<circle cx="471.556" cy="281.333" r="4" fill="#0" id="circle155"/>
	<circle cx="484" cy="181.778" r="4" fill="#0" id="circle156"/>
	<circle cx="487.556" cy="290.222" r="4" fill="#0" id="circle157"/>
	<circle cx="501.778" cy="181.778" r="4" fill="#0" id="circle158"/>
	<circle cx="505.333" cy="290.222" r="4" fill="#0" id="circle159"/>
	<circle cx="519.556" cy="181.778" r="4" fill="#0" id="circle160"/>
	<circle cx="523.111" cy="290.222" r="4" fill="#0" id="circle161"/>
	<circle cx="537.333" cy="181.778" r="4" fill="#0" id="circle162"/>
	<circle cx="540.889" cy="295.556" r="4" fill="#0" id="circle163"/>
	<circle cx="555.111" cy="181.778" r="4" fill="#0" id="circle164"/>
	<circle cx="558.667" cy="299.111" r="4" fill="#0" id="circle165"/>
	<circle cx="572.889" cy="185.333" r="4" fill="#0" id="circle166"/>
	<circle cx="576.444" cy="299.111" r="4" fill="#0" id="circle167"/>
	<circle cx="590.667" cy="181.778" r="4" fill="#0" id="circle168"/>
	<circle cx="594.222" cy="299.111" r="4" fill="#0" id="circle169"/>
	<circle cx="606.667" cy="190.667" r="4" fill="#0" id="circle170"/>
	<circle cx="612" cy="304.444" r="4" fill="#0" id="circle171"/>
	<circle cx="622.667" cy="181.778" r="4" fill="#0" id="circle172"/>
	<circle cx="629.778" cy="308" r="4" fill="#0" id="circle173"/>
	<circle cx="640.444" cy="181.778" r="4" fill="#0" id="circle174"/>
	<circle cx="647.556" cy="308" r="4" fill="#0" id="circle175"/>
	<circle cx="658.222" cy="181.778" r="4" fill="#0" id="circle176"/>
	<circle cx="665.333" cy="308" r="4" fill="#0" id="circle177"/>
	<circle cx="676" cy="181.778" r="4" fill="#0" id="circle178"/>
	<circle cx="681.333" cy="316.889" r="4" fill="#0" id="circle179"/>
	<circle cx="693.778" cy="181.778" r="4" fill="#0" id="circle180"/>
	<circle cx="699.111" cy="316.889" r="4" fill="#0" id="circle181"/>
	<circle cx="711.556" cy="181.778" r="4" fill="#0" id="circle182"/>
	<circle cx="716.889" cy="316.889" r="4" fill="#0" id="circle183"/>
	<circle cx="729.333" cy="181.778" r="4" fill="#0" id="circle184"/>
	<circle cx="732.889" cy="308" r="4" fill="#0" id="circle185"/>
	<circle cx="747.111" cy="181.778" r="4" fill="#0" id="circle186"/>
	<circle cx="750.667" cy="308" r="4" fill="#0" id="circle187"/>
	<circle cx="764.889" cy="181.778" r="4" fill="#0" id="circle188"/>
	<circle cx="768.444" cy="308" r="4" fill="#0" id="circle189"/>
	<circle cx="782.667" cy="181.778" r="4" fill="#0" id="circle190"/>
	<circle cx="784.444" cy="316.889" r="4" fill="#0" id="circle191"/>
	<circle cx="800.444" cy="181.778" r="4" fill="#0" id="circle192"/>
	<circle cx="802.222" cy="316.889" r="4" fill="#0" id="circle193"/>
	<circle cx="818.222" cy="181.778" r="4" fill="#0" id="circle194"/>
	<circle cx="820" cy="316.889" r="4" fill="#0" id="circle195"/>
	<circle cx="834.222" cy="190.667" r="4" fill="#0" id="circle196"/>
	<circle cx="837.778" cy="316.889" r="4" fill="#0" id="circle197"/>
	<circle cx="850.222" cy="181.778" r="4" fill="#0" id="circle198"/>
	<circle cx="855.556" cy="316.889" r="4" fill="#0" id="circle199"/>
	<circle cx="868" cy="181.778" r="4" fill="#0" id="circle200"/>
	<circle cx="873.333" cy="316.889" r="4" fill="#0" id="circle201"/>
	<circle cx="884" cy="190.667" r="4" fill="#0" id="circle202"/>
	<circle cx="891.111" cy="316.889" r="4" fill="#0" id="circle203"/>
	<circle cx="901.778" cy="190.667" r="4" fill="#0" id="circle204"/>
	<circle cx="908.889" cy="316.889" r="4" fill="#0" id="circle205"/>
	<circle cx="919.556" cy="190.667" r="4" fill="#0" id="circle206"/>
	<circle cx="926.667" cy="316.889" r="4" fill="#0" id="circle207"/>
	<circle cx="937.333" cy="190.667" r="4" fill="#0" id="circle208"/>
	<circle cx="942.667" cy="308" r="4" fill="#0" id="circle209"/>
	<circle cx="953.333" cy="199.556" r="4" fill="#0" id="circle210"/>
	<circle cx="960.444" cy="308" r="4" fill="#0" id="circle211"/>
	<circle cx="969.333" cy="208.444" r="4" fill="#0" id="circle212"/>
	<circle cx="978.222" cy="315.111" r="4" fill="#0" id="circle213"/>
	<circle cx="981.778" cy="222.667" r="4" fill="#0" id="circle214"/>
	<circle cx="992.444" cy="236.889" r="4" fill="#0" id="circle215"/>
	<circle cx="992.444" cy="254.667" r="4" fill="#0" id="circle216"/>
	<circle cx="992.444" cy="299.111" r="4" fill="#0" id="circle217"/>
	<circle cx="996" cy="272.444" r="4" fill="#0" id="circle218"/>
	</g>
</svg>