<?xml version="1.0" encoding="UTF-8" standalone="no"?>
<!-- Created with CurveBenchmark -->
<svg
	xmlns:dc="http://purl.org/dc/elements/1.1/"
	xmlns:cc="http://creativecommons.org/ns#"
	xmlns:rdf="http://www.w3.org/1999/02/22-rdf-syntax-ns#"
	xmlns:svg="http://www.w3.org/2000/svg"
	xmlns="http://www.w3.org/2000/svg"
	xmlns:sodipodi="http://sodipodi.sourceforge.net/DTD/sodipodi-0.dtd"
	xmlns:inkscape="http://www.inkscape.org/namespaces/inkscape"
	width="1000"
	height="1000"
	id="svg2"
	version="1.1"
	sodipodi:docname="manifold/ccrust-woodenspoonbinary56.png.txt">
<defs
	id="defs4" />
<metadata
	id="metadata7">
	<rdf:RDF>
		<cc:Work
			rdf:about="">
			<dc:format>image/svg+xml</dc:format>
			<dc:type
				rdf:resource="http://purl.org/dc/dcmitype/StillImage" />
			<dc:title></dc:title>
		</cc:Work>
	</rdf:RDF>
</metadata>
<g
	inkscape:label="Layer 1"
	inkscape:groupmode="layer"
	id="layer1">
	<path style="fill:none;stroke:red;stroke-width:1px;stroke-linecap:butt;stroke-linejoin:miter;stroke-opacity:1" d="M 288.315,220.03 300.731,216.305 z" id="boundary" inkscape:connector-curvature="0" />
	<path style="fill:none;stroke:red;stroke-width:1px;stroke-linecap:butt;stroke-linejoin:miter;stroke-opacity:1" d="M 263.484,226.238 275.9,222.513 z" id="boundary" inkscape:connector-curvature="0" />
	<path style="fill:none;stroke:red;stroke-width:1px;stroke-linecap:butt;stroke-linejoin:miter;stroke-opacity:1" d="M 288.315,220.03 275.9,222.513 z" id="boundary" inkscape:connector-curvature="0" />
	<path style="fill:none;stroke:red;stroke-width:1px;stroke-linecap:butt;stroke-linejoin:miter;stroke-opacity:1" d="M 300.731,216.305 313.146,213.822 z" id="boundary" inkscape:connector-curvature="0" />
	<path style="fill:none;stroke:red;stroke-width:1px;stroke-linecap:butt;stroke-linejoin:miter;stroke-opacity:1" d="M 350.393,206.373 362.809,202.648 z" id="boundary" inkscape:connector-curvature="0" />
	<path style="fill:none;stroke:red;stroke-width:1px;stroke-linecap:butt;stroke-linejoin:miter;stroke-opacity:1" d="M 375.224,200.165 362.809,202.648 z" id="boundary" inkscape:connector-curvature="0" />
	<path style="fill:none;stroke:red;stroke-width:1px;stroke-linecap:butt;stroke-linejoin:miter;stroke-opacity:1" d="M 313.146,213.822 325.562,211.339 z" id="boundary" inkscape:connector-curvature="0" />
	<path style="fill:none;stroke:red;stroke-width:1px;stroke-linecap:butt;stroke-linejoin:miter;stroke-opacity:1" d="M 337.977,208.856 325.562,211.339 z" id="boundary" inkscape:connector-curvature="0" />
	<path style="fill:none;stroke:red;stroke-width:1px;stroke-linecap:butt;stroke-linejoin:miter;stroke-opacity:1" d="M 350.393,206.373 337.977,208.856 z" id="boundary" inkscape:connector-curvature="0" />
	<path style="fill:none;stroke:red;stroke-width:1px;stroke-linecap:butt;stroke-linejoin:miter;stroke-opacity:1" d="M 201.407,244.861 213.822,239.895 z" id="boundary" inkscape:connector-curvature="0" />
	<path style="fill:none;stroke:red;stroke-width:1px;stroke-linecap:butt;stroke-linejoin:miter;stroke-opacity:1" d="M 201.407,244.861 188.991,248.586 z" id="boundary" inkscape:connector-curvature="0" />
	<path style="fill:none;stroke:red;stroke-width:1px;stroke-linecap:butt;stroke-linejoin:miter;stroke-opacity:1" d="M 164.16,257.277 176.576,252.31 z" id="boundary" inkscape:connector-curvature="0" />
	<path style="fill:none;stroke:red;stroke-width:1px;stroke-linecap:butt;stroke-linejoin:miter;stroke-opacity:1" d="M 164.16,257.277 151.745,261.001 z" id="boundary" inkscape:connector-curvature="0" />
	<path style="fill:none;stroke:red;stroke-width:1px;stroke-linecap:butt;stroke-linejoin:miter;stroke-opacity:1" d="M 188.991,248.586 176.576,252.31 z" id="boundary" inkscape:connector-curvature="0" />
	<path style="fill:none;stroke:red;stroke-width:1px;stroke-linecap:butt;stroke-linejoin:miter;stroke-opacity:1" d="M 251.069,229.962 238.653,233.687 z" id="boundary" inkscape:connector-curvature="0" />
	<path style="fill:none;stroke:red;stroke-width:1px;stroke-linecap:butt;stroke-linejoin:miter;stroke-opacity:1" d="M 238.653,233.687 226.238,236.17 z" id="boundary" inkscape:connector-curvature="0" />
	<path style="fill:none;stroke:red;stroke-width:1px;stroke-linecap:butt;stroke-linejoin:miter;stroke-opacity:1" d="M 263.484,226.238 251.069,229.962 z" id="boundary" inkscape:connector-curvature="0" />
	<path style="fill:none;stroke:red;stroke-width:1px;stroke-linecap:butt;stroke-linejoin:miter;stroke-opacity:1" d="M 355.359,259.76 367.775,254.793 z" id="boundary" inkscape:connector-curvature="0" />
	<path style="fill:none;stroke:red;stroke-width:1px;stroke-linecap:butt;stroke-linejoin:miter;stroke-opacity:1" d="M 367.775,254.793 380.19,249.827 z" id="boundary" inkscape:connector-curvature="0" />
	<path style="fill:none;stroke:red;stroke-width:1px;stroke-linecap:butt;stroke-linejoin:miter;stroke-opacity:1" d="M 380.19,249.827 392.606,246.103 z" id="boundary" inkscape:connector-curvature="0" />
	<path style="fill:none;stroke:red;stroke-width:1px;stroke-linecap:butt;stroke-linejoin:miter;stroke-opacity:1" d="M 213.822,239.895 226.238,236.17 z" id="boundary" inkscape:connector-curvature="0" />
	<path style="fill:none;stroke:red;stroke-width:1px;stroke-linecap:butt;stroke-linejoin:miter;stroke-opacity:1" d="M 355.359,259.76 342.944,263.484 z" id="boundary" inkscape:connector-curvature="0" />
	<path style="fill:none;stroke:red;stroke-width:1px;stroke-linecap:butt;stroke-linejoin:miter;stroke-opacity:1" d="M 437.302,185.267 449.717,181.542 z" id="boundary" inkscape:connector-curvature="0" />
	<path style="fill:none;stroke:red;stroke-width:1px;stroke-linecap:butt;stroke-linejoin:miter;stroke-opacity:1" d="M 437.302,185.267 424.886,187.75 z" id="boundary" inkscape:connector-curvature="0" />
	<path style="fill:none;stroke:red;stroke-width:1px;stroke-linecap:butt;stroke-linejoin:miter;stroke-opacity:1" d="M 424.886,187.75 412.471,191.474 z" id="boundary" inkscape:connector-curvature="0" />
	<path style="fill:none;stroke:red;stroke-width:1px;stroke-linecap:butt;stroke-linejoin:miter;stroke-opacity:1" d="M 412.471,191.474 400.055,193.957 z" id="boundary" inkscape:connector-curvature="0" />
	<path style="fill:none;stroke:red;stroke-width:1px;stroke-linecap:butt;stroke-linejoin:miter;stroke-opacity:1" d="M 462.133,177.817 449.717,181.542 z" id="boundary" inkscape:connector-curvature="0" />
	<path style="fill:none;stroke:red;stroke-width:1px;stroke-linecap:butt;stroke-linejoin:miter;stroke-opacity:1" d="M 516.761,207.615 504.345,210.098 z" id="boundary" inkscape:connector-curvature="0" />
	<path style="fill:none;stroke:red;stroke-width:1px;stroke-linecap:butt;stroke-linejoin:miter;stroke-opacity:1" d="M 511.795,160.436 499.379,165.402 z" id="boundary" inkscape:connector-curvature="0" />
	<path style="fill:none;stroke:red;stroke-width:1px;stroke-linecap:butt;stroke-linejoin:miter;stroke-opacity:1" d="M 462.133,177.817 474.548,174.093 z" id="boundary" inkscape:connector-curvature="0" />
	<path style="fill:none;stroke:red;stroke-width:1px;stroke-linecap:butt;stroke-linejoin:miter;stroke-opacity:1" d="M 486.964,170.368 474.548,174.093 z" id="boundary" inkscape:connector-curvature="0" />
	<path style="fill:none;stroke:red;stroke-width:1px;stroke-linecap:butt;stroke-linejoin:miter;stroke-opacity:1" d="M 499.379,165.402 486.964,170.368 z" id="boundary" inkscape:connector-curvature="0" />
	<path style="fill:none;stroke:red;stroke-width:1px;stroke-linecap:butt;stroke-linejoin:miter;stroke-opacity:1" d="M 417.437,236.17 405.021,241.136 z" id="boundary" inkscape:connector-curvature="0" />
	<path style="fill:none;stroke:red;stroke-width:1px;stroke-linecap:butt;stroke-linejoin:miter;stroke-opacity:1" d="M 429.852,232.446 417.437,236.17 z" id="boundary" inkscape:connector-curvature="0" />
	<path style="fill:none;stroke:red;stroke-width:1px;stroke-linecap:butt;stroke-linejoin:miter;stroke-opacity:1" d="M 392.606,246.103 405.021,241.136 z" id="boundary" inkscape:connector-curvature="0" />
	<path style="fill:none;stroke:red;stroke-width:1px;stroke-linecap:butt;stroke-linejoin:miter;stroke-opacity:1" d="M 387.64,197.682 400.055,193.957 z" id="boundary" inkscape:connector-curvature="0" />
	<path style="fill:none;stroke:red;stroke-width:1px;stroke-linecap:butt;stroke-linejoin:miter;stroke-opacity:1" d="M 429.852,232.446 442.268,228.721 z" id="boundary" inkscape:connector-curvature="0" />
	<path style="fill:none;stroke:red;stroke-width:1px;stroke-linecap:butt;stroke-linejoin:miter;stroke-opacity:1" d="M 375.224,200.165 387.64,197.682 z" id="boundary" inkscape:connector-curvature="0" />
	<path style="fill:none;stroke:red;stroke-width:1px;stroke-linecap:butt;stroke-linejoin:miter;stroke-opacity:1" d="M 491.93,213.822 479.514,216.305 z" id="boundary" inkscape:connector-curvature="0" />
	<path style="fill:none;stroke:red;stroke-width:1px;stroke-linecap:butt;stroke-linejoin:miter;stroke-opacity:1" d="M 479.514,216.305 467.099,220.03 z" id="boundary" inkscape:connector-curvature="0" />
	<path style="fill:none;stroke:red;stroke-width:1px;stroke-linecap:butt;stroke-linejoin:miter;stroke-opacity:1" d="M 454.683,224.996 442.268,228.721 z" id="boundary" inkscape:connector-curvature="0" />
	<path style="fill:none;stroke:red;stroke-width:1px;stroke-linecap:butt;stroke-linejoin:miter;stroke-opacity:1" d="M 454.683,224.996 467.099,220.03 z" id="boundary" inkscape:connector-curvature="0" />
	<path style="fill:none;stroke:red;stroke-width:1px;stroke-linecap:butt;stroke-linejoin:miter;stroke-opacity:1" d="M 504.345,210.098 491.93,213.822 z" id="boundary" inkscape:connector-curvature="0" />
	<path style="fill:none;stroke:red;stroke-width:1px;stroke-linecap:butt;stroke-linejoin:miter;stroke-opacity:1" d="M 31.3141,315.63 42.4881,309.422 z" id="boundary" inkscape:connector-curvature="0" />
	<path style="fill:none;stroke:red;stroke-width:1px;stroke-linecap:butt;stroke-linejoin:miter;stroke-opacity:1" d="M 21.3817,323.079 31.3141,315.63 z" id="boundary" inkscape:connector-curvature="0" />
	<path style="fill:none;stroke:red;stroke-width:1px;stroke-linecap:butt;stroke-linejoin:miter;stroke-opacity:1" d="M 11.4493,331.77 21.3817,323.079 z" id="boundary" inkscape:connector-curvature="0" />
	<path style="fill:none;stroke:red;stroke-width:1px;stroke-linecap:butt;stroke-linejoin:miter;stroke-opacity:1" d="M 42.4881,309.422 53.6621,303.214 z" id="boundary" inkscape:connector-curvature="0" />
	<path style="fill:none;stroke:red;stroke-width:1px;stroke-linecap:butt;stroke-linejoin:miter;stroke-opacity:1" d="M 89.6671,285.832 102.083,280.866 z" id="boundary" inkscape:connector-curvature="0" />
	<path style="fill:none;stroke:red;stroke-width:1px;stroke-linecap:butt;stroke-linejoin:miter;stroke-opacity:1" d="M 89.6671,285.832 77.2516,292.04 z" id="boundary" inkscape:connector-curvature="0" />
	<path style="fill:none;stroke:red;stroke-width:1px;stroke-linecap:butt;stroke-linejoin:miter;stroke-opacity:1" d="M 77.2516,292.04 64.836,297.006 z" id="boundary" inkscape:connector-curvature="0" />
	<path style="fill:none;stroke:red;stroke-width:1px;stroke-linecap:butt;stroke-linejoin:miter;stroke-opacity:1" d="M 53.6621,303.214 64.836,297.006 z" id="boundary" inkscape:connector-curvature="0" />
	<path style="fill:none;stroke:red;stroke-width:1px;stroke-linecap:butt;stroke-linejoin:miter;stroke-opacity:1" d="M 131.88,344.185 119.464,346.668 z" id="boundary" inkscape:connector-curvature="0" />
	<path style="fill:none;stroke:red;stroke-width:1px;stroke-linecap:butt;stroke-linejoin:miter;stroke-opacity:1" d="M 7.72466,354.118 4,341.702 z" id="boundary" inkscape:connector-curvature="0" />
	<path style="fill:none;stroke:red;stroke-width:1px;stroke-linecap:butt;stroke-linejoin:miter;stroke-opacity:1" d="M 20.1402,357.842 7.72466,354.118 z" id="boundary" inkscape:connector-curvature="0" />
	<path style="fill:none;stroke:red;stroke-width:1px;stroke-linecap:butt;stroke-linejoin:miter;stroke-opacity:1" d="M 4,341.702 11.4493,331.77 z" id="boundary" inkscape:connector-curvature="0" />
	<path style="fill:none;stroke:red;stroke-width:1px;stroke-linecap:butt;stroke-linejoin:miter;stroke-opacity:1" d="M 32.5557,360.325 20.1402,357.842 z" id="boundary" inkscape:connector-curvature="0" />
	<path style="fill:none;stroke:red;stroke-width:1px;stroke-linecap:butt;stroke-linejoin:miter;stroke-opacity:1" d="M 44.9712,360.325 32.5557,360.325 z" id="boundary" inkscape:connector-curvature="0" />
	<path style="fill:none;stroke:red;stroke-width:1px;stroke-linecap:butt;stroke-linejoin:miter;stroke-opacity:1" d="M 107.049,350.393 94.6333,352.876 z" id="boundary" inkscape:connector-curvature="0" />
	<path style="fill:none;stroke:red;stroke-width:1px;stroke-linecap:butt;stroke-linejoin:miter;stroke-opacity:1" d="M 82.2178,355.359 69.8023,357.842 z" id="boundary" inkscape:connector-curvature="0" />
	<path style="fill:none;stroke:red;stroke-width:1px;stroke-linecap:butt;stroke-linejoin:miter;stroke-opacity:1" d="M 107.049,350.393 119.464,346.668 z" id="boundary" inkscape:connector-curvature="0" />
	<path style="fill:none;stroke:red;stroke-width:1px;stroke-linecap:butt;stroke-linejoin:miter;stroke-opacity:1" d="M 57.3867,359.084 44.9712,360.325 z" id="boundary" inkscape:connector-curvature="0" />
	<path style="fill:none;stroke:red;stroke-width:1px;stroke-linecap:butt;stroke-linejoin:miter;stroke-opacity:1" d="M 69.8023,357.842 57.3867,359.084 z" id="boundary" inkscape:connector-curvature="0" />
	<path style="fill:none;stroke:red;stroke-width:1px;stroke-linecap:butt;stroke-linejoin:miter;stroke-opacity:1" d="M 94.6333,352.876 82.2178,355.359 z" id="boundary" inkscape:connector-curvature="0" />
	<path style="fill:none;stroke:red;stroke-width:1px;stroke-linecap:butt;stroke-linejoin:miter;stroke-opacity:1" d="M 102.083,280.866 114.498,275.9 z" id="boundary" inkscape:connector-curvature="0" />
	<path style="fill:none;stroke:red;stroke-width:1px;stroke-linecap:butt;stroke-linejoin:miter;stroke-opacity:1" d="M 139.329,265.967 151.745,261.001 z" id="boundary" inkscape:connector-curvature="0" />
	<path style="fill:none;stroke:red;stroke-width:1px;stroke-linecap:butt;stroke-linejoin:miter;stroke-opacity:1" d="M 126.914,270.934 139.329,265.967 z" id="boundary" inkscape:connector-curvature="0" />
	<path style="fill:none;stroke:red;stroke-width:1px;stroke-linecap:butt;stroke-linejoin:miter;stroke-opacity:1" d="M 268.451,294.523 256.035,299.489 z" id="boundary" inkscape:connector-curvature="0" />
	<path style="fill:none;stroke:red;stroke-width:1px;stroke-linecap:butt;stroke-linejoin:miter;stroke-opacity:1" d="M 256.035,299.489 243.62,304.456 z" id="boundary" inkscape:connector-curvature="0" />
	<path style="fill:none;stroke:red;stroke-width:1px;stroke-linecap:butt;stroke-linejoin:miter;stroke-opacity:1" d="M 280.866,289.557 268.451,294.523 z" id="boundary" inkscape:connector-curvature="0" />
	<path style="fill:none;stroke:red;stroke-width:1px;stroke-linecap:butt;stroke-linejoin:miter;stroke-opacity:1" d="M 330.528,268.451 342.944,263.484 z" id="boundary" inkscape:connector-curvature="0" />
	<path style="fill:none;stroke:red;stroke-width:1px;stroke-linecap:butt;stroke-linejoin:miter;stroke-opacity:1" d="M 330.528,268.451 318.113,273.417 z" id="boundary" inkscape:connector-curvature="0" />
	<path style="fill:none;stroke:red;stroke-width:1px;stroke-linecap:butt;stroke-linejoin:miter;stroke-opacity:1" d="M 293.282,283.349 305.697,278.383 z" id="boundary" inkscape:connector-curvature="0" />
	<path style="fill:none;stroke:red;stroke-width:1px;stroke-linecap:butt;stroke-linejoin:miter;stroke-opacity:1" d="M 280.866,289.557 293.282,283.349 z" id="boundary" inkscape:connector-curvature="0" />
	<path style="fill:none;stroke:red;stroke-width:1px;stroke-linecap:butt;stroke-linejoin:miter;stroke-opacity:1" d="M 305.697,278.383 318.113,273.417 z" id="boundary" inkscape:connector-curvature="0" />
	<path style="fill:none;stroke:red;stroke-width:1px;stroke-linecap:butt;stroke-linejoin:miter;stroke-opacity:1" d="M 169.126,334.253 181.542,330.528 z" id="boundary" inkscape:connector-curvature="0" />
	<path style="fill:none;stroke:red;stroke-width:1px;stroke-linecap:butt;stroke-linejoin:miter;stroke-opacity:1" d="M 144.295,341.702 131.88,344.185 z" id="boundary" inkscape:connector-curvature="0" />
	<path style="fill:none;stroke:red;stroke-width:1px;stroke-linecap:butt;stroke-linejoin:miter;stroke-opacity:1" d="M 169.126,334.253 156.711,337.977 z" id="boundary" inkscape:connector-curvature="0" />
	<path style="fill:none;stroke:red;stroke-width:1px;stroke-linecap:butt;stroke-linejoin:miter;stroke-opacity:1" d="M 144.295,341.702 156.711,337.977 z" id="boundary" inkscape:connector-curvature="0" />
	<path style="fill:none;stroke:red;stroke-width:1px;stroke-linecap:butt;stroke-linejoin:miter;stroke-opacity:1" d="M 231.204,309.422 243.62,304.456 z" id="boundary" inkscape:connector-curvature="0" />
	<path style="fill:none;stroke:red;stroke-width:1px;stroke-linecap:butt;stroke-linejoin:miter;stroke-opacity:1" d="M 218.788,315.63 231.204,309.422 z" id="boundary" inkscape:connector-curvature="0" />
	<path style="fill:none;stroke:red;stroke-width:1px;stroke-linecap:butt;stroke-linejoin:miter;stroke-opacity:1" d="M 218.788,315.63 206.373,320.596 z" id="boundary" inkscape:connector-curvature="0" />
	<path style="fill:none;stroke:red;stroke-width:1px;stroke-linecap:butt;stroke-linejoin:miter;stroke-opacity:1" d="M 193.957,324.32 181.542,330.528 z" id="boundary" inkscape:connector-curvature="0" />
	<path style="fill:none;stroke:red;stroke-width:1px;stroke-linecap:butt;stroke-linejoin:miter;stroke-opacity:1" d="M 206.373,320.596 193.957,324.32 z" id="boundary" inkscape:connector-curvature="0" />
	<path style="fill:none;stroke:red;stroke-width:1px;stroke-linecap:butt;stroke-linejoin:miter;stroke-opacity:1" d="M 114.498,275.9 126.914,270.934 z" id="boundary" inkscape:connector-curvature="0" />
	<path style="fill:none;stroke:red;stroke-width:1px;stroke-linecap:butt;stroke-linejoin:miter;stroke-opacity:1" d="M 731.549,42.4881 743.965,37.5219 z" id="boundary" inkscape:connector-curvature="0" />
	<path style="fill:none;stroke:red;stroke-width:1px;stroke-linecap:butt;stroke-linejoin:miter;stroke-opacity:1" d="M 756.38,33.7972 743.965,37.5219 z" id="boundary" inkscape:connector-curvature="0" />
	<path style="fill:none;stroke:red;stroke-width:1px;stroke-linecap:butt;stroke-linejoin:miter;stroke-opacity:1" d="M 707.96,53.6621 719.134,47.4543 z" id="boundary" inkscape:connector-curvature="0" />
	<path style="fill:none;stroke:red;stroke-width:1px;stroke-linecap:butt;stroke-linejoin:miter;stroke-opacity:1" d="M 731.549,42.4881 719.134,47.4543 z" id="boundary" inkscape:connector-curvature="0" />
	<path style="fill:none;stroke:red;stroke-width:1px;stroke-linecap:butt;stroke-linejoin:miter;stroke-opacity:1" d="M 696.786,61.1114 707.96,53.6621 z" id="boundary" inkscape:connector-curvature="0" />
	<path style="fill:none;stroke:red;stroke-width:1px;stroke-linecap:butt;stroke-linejoin:miter;stroke-opacity:1" d="M 793.627,21.3817 806.043,17.6571 z" id="boundary" inkscape:connector-curvature="0" />
	<path style="fill:none;stroke:red;stroke-width:1px;stroke-linecap:butt;stroke-linejoin:miter;stroke-opacity:1" d="M 768.796,30.0726 781.212,25.1064 z" id="boundary" inkscape:connector-curvature="0" />
	<path style="fill:none;stroke:red;stroke-width:1px;stroke-linecap:butt;stroke-linejoin:miter;stroke-opacity:1" d="M 768.796,30.0726 756.38,33.7972 z" id="boundary" inkscape:connector-curvature="0" />
	<path style="fill:none;stroke:red;stroke-width:1px;stroke-linecap:butt;stroke-linejoin:miter;stroke-opacity:1" d="M 781.212,25.1064 793.627,21.3817 z" id="boundary" inkscape:connector-curvature="0" />
	<path style="fill:none;stroke:red;stroke-width:1px;stroke-linecap:butt;stroke-linejoin:miter;stroke-opacity:1" d="M 622.293,110.773 633.467,104.566 z" id="boundary" inkscape:connector-curvature="0" />
	<path style="fill:none;stroke:red;stroke-width:1px;stroke-linecap:butt;stroke-linejoin:miter;stroke-opacity:1" d="M 644.641,97.1164 633.467,104.566 z" id="boundary" inkscape:connector-curvature="0" />
	<path style="fill:none;stroke:red;stroke-width:1px;stroke-linecap:butt;stroke-linejoin:miter;stroke-opacity:1" d="M 586.288,129.397 598.703,123.189 z" id="boundary" inkscape:connector-curvature="0" />
	<path style="fill:none;stroke:red;stroke-width:1px;stroke-linecap:butt;stroke-linejoin:miter;stroke-opacity:1" d="M 611.119,116.981 598.703,123.189 z" id="boundary" inkscape:connector-curvature="0" />
	<path style="fill:none;stroke:red;stroke-width:1px;stroke-linecap:butt;stroke-linejoin:miter;stroke-opacity:1" d="M 622.293,110.773 611.119,116.981 z" id="boundary" inkscape:connector-curvature="0" />
	<path style="fill:none;stroke:red;stroke-width:1px;stroke-linecap:butt;stroke-linejoin:miter;stroke-opacity:1" d="M 675.68,76.01 685.612,68.5607 z" id="boundary" inkscape:connector-curvature="0" />
	<path style="fill:none;stroke:red;stroke-width:1px;stroke-linecap:butt;stroke-linejoin:miter;stroke-opacity:1" d="M 685.612,68.5607 696.786,61.1114 z" id="boundary" inkscape:connector-curvature="0" />
	<path style="fill:none;stroke:red;stroke-width:1px;stroke-linecap:butt;stroke-linejoin:miter;stroke-opacity:1" d="M 665.747,83.4593 655.815,90.9086 z" id="boundary" inkscape:connector-curvature="0" />
	<path style="fill:none;stroke:red;stroke-width:1px;stroke-linecap:butt;stroke-linejoin:miter;stroke-opacity:1" d="M 655.815,90.9086 644.641,97.1164 z" id="boundary" inkscape:connector-curvature="0" />
	<path style="fill:none;stroke:red;stroke-width:1px;stroke-linecap:butt;stroke-linejoin:miter;stroke-opacity:1" d="M 675.68,76.01 665.747,83.4593 z" id="boundary" inkscape:connector-curvature="0" />
	<path style="fill:none;stroke:red;stroke-width:1px;stroke-linecap:butt;stroke-linejoin:miter;stroke-opacity:1" d="M 806.043,17.6571 818.458,15.174 z" id="boundary" inkscape:connector-curvature="0" />
	<path style="fill:none;stroke:red;stroke-width:1px;stroke-linecap:butt;stroke-linejoin:miter;stroke-opacity:1" d="M 855.705,7.72466 868.12,6.4831 z" id="boundary" inkscape:connector-curvature="0" />
	<path style="fill:none;stroke:red;stroke-width:1px;stroke-linecap:butt;stroke-linejoin:miter;stroke-opacity:1" d="M 830.874,12.6909 843.289,10.2078 z" id="boundary" inkscape:connector-curvature="0" />
	<path style="fill:none;stroke:red;stroke-width:1px;stroke-linecap:butt;stroke-linejoin:miter;stroke-opacity:1" d="M 843.289,10.2078 855.705,7.72466 z" id="boundary" inkscape:connector-curvature="0" />
	<path style="fill:none;stroke:red;stroke-width:1px;stroke-linecap:butt;stroke-linejoin:miter;stroke-opacity:1" d="M 868.12,6.4831 880.536,5.24155 z" id="boundary" inkscape:connector-curvature="0" />
	<path style="fill:none;stroke:red;stroke-width:1px;stroke-linecap:butt;stroke-linejoin:miter;stroke-opacity:1" d="M 892.951,4 905.367,4 z" id="boundary" inkscape:connector-curvature="0" />
	<path style="fill:none;stroke:red;stroke-width:1px;stroke-linecap:butt;stroke-linejoin:miter;stroke-opacity:1" d="M 905.367,4 917.782,5.24155 z" id="boundary" inkscape:connector-curvature="0" />
	<path style="fill:none;stroke:red;stroke-width:1px;stroke-linecap:butt;stroke-linejoin:miter;stroke-opacity:1" d="M 917.782,5.24155 930.198,7.72466 z" id="boundary" inkscape:connector-curvature="0" />
	<path style="fill:none;stroke:red;stroke-width:1px;stroke-linecap:butt;stroke-linejoin:miter;stroke-opacity:1" d="M 880.536,5.24155 892.951,4 z" id="boundary" inkscape:connector-curvature="0" />
	<path style="fill:none;stroke:red;stroke-width:1px;stroke-linecap:butt;stroke-linejoin:miter;stroke-opacity:1" d="M 930.198,7.72466 942.613,10.2078 z" id="boundary" inkscape:connector-curvature="0" />
	<path style="fill:none;stroke:red;stroke-width:1px;stroke-linecap:butt;stroke-linejoin:miter;stroke-opacity:1" d="M 979.86,102.083 971.169,113.257 z" id="boundary" inkscape:connector-curvature="0" />
	<path style="fill:none;stroke:red;stroke-width:1px;stroke-linecap:butt;stroke-linejoin:miter;stroke-opacity:1" d="M 971.169,113.257 961.237,123.189 z" id="boundary" inkscape:connector-curvature="0" />
	<path style="fill:none;stroke:red;stroke-width:1px;stroke-linecap:butt;stroke-linejoin:miter;stroke-opacity:1" d="M 955.029,13.9324 966.203,20.1402 z" id="boundary" inkscape:connector-curvature="0" />
	<path style="fill:none;stroke:red;stroke-width:1px;stroke-linecap:butt;stroke-linejoin:miter;stroke-opacity:1" d="M 966.203,20.1402 976.135,27.5895 z" id="boundary" inkscape:connector-curvature="0" />
	<path style="fill:none;stroke:red;stroke-width:1px;stroke-linecap:butt;stroke-linejoin:miter;stroke-opacity:1" d="M 942.613,10.2078 955.029,13.9324 z" id="boundary" inkscape:connector-curvature="0" />
	<path style="fill:none;stroke:red;stroke-width:1px;stroke-linecap:butt;stroke-linejoin:miter;stroke-opacity:1" d="M 984.826,37.5219 991.034,48.6959 z" id="boundary" inkscape:connector-curvature="0" />
	<path style="fill:none;stroke:red;stroke-width:1px;stroke-linecap:butt;stroke-linejoin:miter;stroke-opacity:1" d="M 991.034,48.6959 996,61.1114 z" id="boundary" inkscape:connector-curvature="0" />
	<path style="fill:none;stroke:red;stroke-width:1px;stroke-linecap:butt;stroke-linejoin:miter;stroke-opacity:1" d="M 996,61.1114 993.517,77.2516 z" id="boundary" inkscape:connector-curvature="0" />
	<path style="fill:none;stroke:red;stroke-width:1px;stroke-linecap:butt;stroke-linejoin:miter;stroke-opacity:1" d="M 987.309,90.9086 979.86,102.083 z" id="boundary" inkscape:connector-curvature="0" />
	<path style="fill:none;stroke:red;stroke-width:1px;stroke-linecap:butt;stroke-linejoin:miter;stroke-opacity:1" d="M 993.517,77.2516 987.309,90.9086 z" id="boundary" inkscape:connector-curvature="0" />
	<path style="fill:none;stroke:red;stroke-width:1px;stroke-linecap:butt;stroke-linejoin:miter;stroke-opacity:1" d="M 976.135,27.5895 984.826,37.5219 z" id="boundary" inkscape:connector-curvature="0" />
	<path style="fill:none;stroke:red;stroke-width:1px;stroke-linecap:butt;stroke-linejoin:miter;stroke-opacity:1" d="M 818.458,15.174 830.874,12.6909 z" id="boundary" inkscape:connector-curvature="0" />
	<path style="fill:none;stroke:red;stroke-width:1px;stroke-linecap:butt;stroke-linejoin:miter;stroke-opacity:1" d="M 961.237,123.189 951.304,133.121 z" id="boundary" inkscape:connector-curvature="0" />
	<path style="fill:none;stroke:red;stroke-width:1px;stroke-linecap:butt;stroke-linejoin:miter;stroke-opacity:1" d="M 549.041,146.778 561.457,140.571 z" id="boundary" inkscape:connector-curvature="0" />
	<path style="fill:none;stroke:red;stroke-width:1px;stroke-linecap:butt;stroke-linejoin:miter;stroke-opacity:1" d="M 573.872,135.605 561.457,140.571 z" id="boundary" inkscape:connector-curvature="0" />
	<path style="fill:none;stroke:red;stroke-width:1px;stroke-linecap:butt;stroke-linejoin:miter;stroke-opacity:1" d="M 586.288,129.397 573.872,135.605 z" id="boundary" inkscape:connector-curvature="0" />
	<path style="fill:none;stroke:red;stroke-width:1px;stroke-linecap:butt;stroke-linejoin:miter;stroke-opacity:1" d="M 524.21,156.711 536.626,151.745 z" id="boundary" inkscape:connector-curvature="0" />
	<path style="fill:none;stroke:red;stroke-width:1px;stroke-linecap:butt;stroke-linejoin:miter;stroke-opacity:1" d="M 524.21,156.711 511.795,160.436 z" id="boundary" inkscape:connector-curvature="0" />
	<path style="fill:none;stroke:red;stroke-width:1px;stroke-linecap:butt;stroke-linejoin:miter;stroke-opacity:1" d="M 549.041,146.778 536.626,151.745 z" id="boundary" inkscape:connector-curvature="0" />
	<path style="fill:none;stroke:red;stroke-width:1px;stroke-linecap:butt;stroke-linejoin:miter;stroke-opacity:1" d="M 640.916,190.233 628.501,190.233 z" id="boundary" inkscape:connector-curvature="0" />
	<path style="fill:none;stroke:red;stroke-width:1px;stroke-linecap:butt;stroke-linejoin:miter;stroke-opacity:1" d="M 653.332,188.991 640.916,190.233 z" id="boundary" inkscape:connector-curvature="0" />
	<path style="fill:none;stroke:red;stroke-width:1px;stroke-linecap:butt;stroke-linejoin:miter;stroke-opacity:1" d="M 665.747,188.991 678.163,188.991 z" id="boundary" inkscape:connector-curvature="0" />
	<path style="fill:none;stroke:red;stroke-width:1px;stroke-linecap:butt;stroke-linejoin:miter;stroke-opacity:1" d="M 653.332,188.991 665.747,188.991 z" id="boundary" inkscape:connector-curvature="0" />
	<path style="fill:none;stroke:red;stroke-width:1px;stroke-linecap:butt;stroke-linejoin:miter;stroke-opacity:1" d="M 678.163,188.991 690.578,188.991 z" id="boundary" inkscape:connector-curvature="0" />
	<path style="fill:none;stroke:red;stroke-width:1px;stroke-linecap:butt;stroke-linejoin:miter;stroke-opacity:1" d="M 628.501,190.233 616.085,191.474 z" id="boundary" inkscape:connector-curvature="0" />
	<path style="fill:none;stroke:red;stroke-width:1px;stroke-linecap:butt;stroke-linejoin:miter;stroke-opacity:1" d="M 616.085,191.474 603.67,192.716 z" id="boundary" inkscape:connector-curvature="0" />
	<path style="fill:none;stroke:red;stroke-width:1px;stroke-linecap:butt;stroke-linejoin:miter;stroke-opacity:1" d="M 554.008,200.165 566.423,197.682 z" id="boundary" inkscape:connector-curvature="0" />
	<path style="fill:none;stroke:red;stroke-width:1px;stroke-linecap:butt;stroke-linejoin:miter;stroke-opacity:1" d="M 554.008,200.165 541.592,201.407 z" id="boundary" inkscape:connector-curvature="0" />
	<path style="fill:none;stroke:red;stroke-width:1px;stroke-linecap:butt;stroke-linejoin:miter;stroke-opacity:1" d="M 529.176,203.89 541.592,201.407 z" id="boundary" inkscape:connector-curvature="0" />
	<path style="fill:none;stroke:red;stroke-width:1px;stroke-linecap:butt;stroke-linejoin:miter;stroke-opacity:1" d="M 529.176,203.89 516.761,207.615 z" id="boundary" inkscape:connector-curvature="0" />
	<path style="fill:none;stroke:red;stroke-width:1px;stroke-linecap:butt;stroke-linejoin:miter;stroke-opacity:1" d="M 591.254,193.957 578.839,195.199 z" id="boundary" inkscape:connector-curvature="0" />
	<path style="fill:none;stroke:red;stroke-width:1px;stroke-linecap:butt;stroke-linejoin:miter;stroke-opacity:1" d="M 603.67,192.716 591.254,193.957 z" id="boundary" inkscape:connector-curvature="0" />
	<path style="fill:none;stroke:red;stroke-width:1px;stroke-linecap:butt;stroke-linejoin:miter;stroke-opacity:1" d="M 566.423,197.682 578.839,195.199 z" id="boundary" inkscape:connector-curvature="0" />
	<path style="fill:none;stroke:red;stroke-width:1px;stroke-linecap:butt;stroke-linejoin:miter;stroke-opacity:1" d="M 690.578,188.991 702.994,190.233 z" id="boundary" inkscape:connector-curvature="0" />
	<path style="fill:none;stroke:red;stroke-width:1px;stroke-linecap:butt;stroke-linejoin:miter;stroke-opacity:1" d="M 885.502,177.817 896.676,171.61 z" id="boundary" inkscape:connector-curvature="0" />
	<path style="fill:none;stroke:red;stroke-width:1px;stroke-linecap:butt;stroke-linejoin:miter;stroke-opacity:1" d="M 896.676,171.61 909.091,165.402 z" id="boundary" inkscape:connector-curvature="0" />
	<path style="fill:none;stroke:red;stroke-width:1px;stroke-linecap:butt;stroke-linejoin:miter;stroke-opacity:1" d="M 885.502,177.817 874.328,184.025 z" id="boundary" inkscape:connector-curvature="0" />
	<path style="fill:none;stroke:red;stroke-width:1px;stroke-linecap:butt;stroke-linejoin:miter;stroke-opacity:1" d="M 874.328,184.025 861.912,188.991 z" id="boundary" inkscape:connector-curvature="0" />
	<path style="fill:none;stroke:red;stroke-width:1px;stroke-linecap:butt;stroke-linejoin:miter;stroke-opacity:1" d="M 861.912,188.991 849.497,191.474 z" id="boundary" inkscape:connector-curvature="0" />
	<path style="fill:none;stroke:red;stroke-width:1px;stroke-linecap:butt;stroke-linejoin:miter;stroke-opacity:1" d="M 941.372,143.054 931.439,150.503 z" id="boundary" inkscape:connector-curvature="0" />
	<path style="fill:none;stroke:red;stroke-width:1px;stroke-linecap:butt;stroke-linejoin:miter;stroke-opacity:1" d="M 931.439,150.503 920.265,157.952 z" id="boundary" inkscape:connector-curvature="0" />
	<path style="fill:none;stroke:red;stroke-width:1px;stroke-linecap:butt;stroke-linejoin:miter;stroke-opacity:1" d="M 920.265,157.952 909.091,165.402 z" id="boundary" inkscape:connector-curvature="0" />
	<path style="fill:none;stroke:red;stroke-width:1px;stroke-linecap:butt;stroke-linejoin:miter;stroke-opacity:1" d="M 849.497,191.474 837.081,193.957 z" id="boundary" inkscape:connector-curvature="0" />
	<path style="fill:none;stroke:red;stroke-width:1px;stroke-linecap:butt;stroke-linejoin:miter;stroke-opacity:1" d="M 750.173,201.407 737.757,202.648 z" id="boundary" inkscape:connector-curvature="0" />
	<path style="fill:none;stroke:red;stroke-width:1px;stroke-linecap:butt;stroke-linejoin:miter;stroke-opacity:1" d="M 737.757,202.648 725.342,202.648 z" id="boundary" inkscape:connector-curvature="0" />
	<path style="fill:none;stroke:red;stroke-width:1px;stroke-linecap:butt;stroke-linejoin:miter;stroke-opacity:1" d="M 725.342,202.648 715.409,193.957 z" id="boundary" inkscape:connector-curvature="0" />
	<path style="fill:none;stroke:red;stroke-width:1px;stroke-linecap:butt;stroke-linejoin:miter;stroke-opacity:1" d="M 750.173,201.407 762.588,201.407 z" id="boundary" inkscape:connector-curvature="0" />
	<path style="fill:none;stroke:red;stroke-width:1px;stroke-linecap:butt;stroke-linejoin:miter;stroke-opacity:1" d="M 762.588,201.407 775.004,201.407 z" id="boundary" inkscape:connector-curvature="0" />
	<path style="fill:none;stroke:red;stroke-width:1px;stroke-linecap:butt;stroke-linejoin:miter;stroke-opacity:1" d="M 702.994,190.233 715.409,193.957 z" id="boundary" inkscape:connector-curvature="0" />
	<path style="fill:none;stroke:red;stroke-width:1px;stroke-linecap:butt;stroke-linejoin:miter;stroke-opacity:1" d="M 824.666,196.441 812.25,197.682 z" id="boundary" inkscape:connector-curvature="0" />
	<path style="fill:none;stroke:red;stroke-width:1px;stroke-linecap:butt;stroke-linejoin:miter;stroke-opacity:1" d="M 787.419,200.165 775.004,201.407 z" id="boundary" inkscape:connector-curvature="0" />
	<path style="fill:none;stroke:red;stroke-width:1px;stroke-linecap:butt;stroke-linejoin:miter;stroke-opacity:1" d="M 824.666,196.441 837.081,193.957 z" id="boundary" inkscape:connector-curvature="0" />
	<path style="fill:none;stroke:red;stroke-width:1px;stroke-linecap:butt;stroke-linejoin:miter;stroke-opacity:1" d="M 787.419,200.165 799.835,198.924 z" id="boundary" inkscape:connector-curvature="0" />
	<path style="fill:none;stroke:red;stroke-width:1px;stroke-linecap:butt;stroke-linejoin:miter;stroke-opacity:1" d="M 799.835,198.924 812.25,197.682 z" id="boundary" inkscape:connector-curvature="0" />
	<path style="fill:none;stroke:red;stroke-width:1px;stroke-linecap:butt;stroke-linejoin:miter;stroke-opacity:1" d="M 951.304,133.121 941.372,143.054 z" id="boundary" inkscape:connector-curvature="0" />
	<circle cx="4" cy="341.702" r="4" fill="#0" id="circle0"/>
	<circle cx="7.72466" cy="354.118" r="4" fill="#0" id="circle1"/>
	<circle cx="11.4493" cy="331.77" r="4" fill="#0" id="circle2"/>
	<circle cx="20.1402" cy="357.842" r="4" fill="#0" id="circle3"/>
	<circle cx="21.3817" cy="323.079" r="4" fill="#0" id="circle4"/>
	<circle cx="31.3141" cy="315.63" r="4" fill="#0" id="circle5"/>
	<circle cx="32.5557" cy="360.325" r="4" fill="#0" id="circle6"/>
	<circle cx="42.4881" cy="309.422" r="4" fill="#0" id="circle7"/>
	<circle cx="44.9712" cy="360.325" r="4" fill="#0" id="circle8"/>
	<circle cx="53.6621" cy="303.214" r="4" fill="#0" id="circle9"/>
	<circle cx="57.3867" cy="359.084" r="4" fill="#0" id="circle10"/>
	<circle cx="64.836" cy="297.006" r="4" fill="#0" id="circle11"/>
	<circle cx="69.8023" cy="357.842" r="4" fill="#0" id="circle12"/>
	<circle cx="77.2516" cy="292.04" r="4" fill="#0" id="circle13"/>
	<circle cx="82.2178" cy="355.359" r="4" fill="#0" id="circle14"/>
	<circle cx="89.6671" cy="285.832" r="4" fill="#0" id="circle15"/>
	<circle cx="94.6333" cy="352.876" r="4" fill="#0" id="circle16"/>
	<circle cx="102.083" cy="280.866" r="4" fill="#0" id="circle17"/>
	<circle cx="107.049" cy="350.393" r="4" fill="#0" id="circle18"/>
	<circle cx="114.498" cy="275.9" r="4" fill="#0" id="circle19"/>
	<circle cx="119.464" cy="346.668" r="4" fill="#0" id="circle20"/>
	<circle cx="126.914" cy="270.934" r="4" fill="#0" id="circle21"/>
	<circle cx="131.88" cy="344.185" r="4" fill="#0" id="circle22"/>
	<circle cx="139.329" cy="265.967" r="4" fill="#0" id="circle23"/>
	<circle cx="144.295" cy="341.702" r="4" fill="#0" id="circle24"/>
	<circle cx="151.745" cy="261.001" r="4" fill="#0" id="circle25"/>
	<circle cx="156.711" cy="337.977" r="4" fill="#0" id="circle26"/>
	<circle cx="164.16" cy="257.277" r="4" fill="#0" id="circle27"/>
	<circle cx="169.126" cy="334.253" r="4" fill="#0" id="circle28"/>
	<circle cx="176.576" cy="252.31" r="4" fill="#0" id="circle29"/>
	<circle cx="181.542" cy="330.528" r="4" fill="#0" id="circle30"/>
	<circle cx="188.991" cy="248.586" r="4" fill="#0" id="circle31"/>
	<circle cx="193.957" cy="324.32" r="4" fill="#0" id="circle32"/>
	<circle cx="201.407" cy="244.861" r="4" fill="#0" id="circle33"/>
	<circle cx="206.373" cy="320.596" r="4" fill="#0" id="circle34"/>
	<circle cx="213.822" cy="239.895" r="4" fill="#0" id="circle35"/>
	<circle cx="218.788" cy="315.63" r="4" fill="#0" id="circle36"/>
	<circle cx="226.238" cy="236.17" r="4" fill="#0" id="circle37"/>
	<circle cx="231.204" cy="309.422" r="4" fill="#0" id="circle38"/>
	<circle cx="238.653" cy="233.687" r="4" fill="#0" id="circle39"/>
	<circle cx="243.62" cy="304.456" r="4" fill="#0" id="circle40"/>
	<circle cx="251.069" cy="229.962" r="4" fill="#0" id="circle41"/>
	<circle cx="256.035" cy="299.489" r="4" fill="#0" id="circle42"/>
	<circle cx="263.484" cy="226.238" r="4" fill="#0" id="circle43"/>
	<circle cx="268.451" cy="294.523" r="4" fill="#0" id="circle44"/>
	<circle cx="275.9" cy="222.513" r="4" fill="#0" id="circle45"/>
	<circle cx="280.866" cy="289.557" r="4" fill="#0" id="circle46"/>
	<circle cx="288.315" cy="220.03" r="4" fill="#0" id="circle47"/>
	<circle cx="293.282" cy="283.349" r="4" fill="#0" id="circle48"/>
	<circle cx="300.731" cy="216.305" r="4" fill="#0" id="circle49"/>
	<circle cx="305.697" cy="278.383" r="4" fill="#0" id="circle50"/>
	<circle cx="313.146" cy="213.822" r="4" fill="#0" id="circle51"/>
	<circle cx="318.113" cy="273.417" r="4" fill="#0" id="circle52"/>
	<circle cx="325.562" cy="211.339" r="4" fill="#0" id="circle53"/>
	<circle cx="330.528" cy="268.451" r="4" fill="#0" id="circle54"/>
	<circle cx="337.977" cy="208.856" r="4" fill="#0" id="circle55"/>
	<circle cx="342.944" cy="263.484" r="4" fill="#0" id="circle56"/>
	<circle cx="350.393" cy="206.373" r="4" fill="#0" id="circle57"/>
	<circle cx="355.359" cy="259.76" r="4" fill="#0" id="circle58"/>
	<circle cx="362.809" cy="202.648" r="4" fill="#0" id="circle59"/>
	<circle cx="367.775" cy="254.793" r="4" fill="#0" id="circle60"/>
	<circle cx="375.224" cy="200.165" r="4" fill="#0" id="circle61"/>
	<circle cx="380.19" cy="249.827" r="4" fill="#0" id="circle62"/>
	<circle cx="387.64" cy="197.682" r="4" fill="#0" id="circle63"/>
	<circle cx="392.606" cy="246.103" r="4" fill="#0" id="circle64"/>
	<circle cx="400.055" cy="193.957" r="4" fill="#0" id="circle65"/>
	<circle cx="405.021" cy="241.136" r="4" fill="#0" id="circle66"/>
	<circle cx="412.471" cy="191.474" r="4" fill="#0" id="circle67"/>
	<circle cx="417.437" cy="236.17" r="4" fill="#0" id="circle68"/>
	<circle cx="424.886" cy="187.75" r="4" fill="#0" id="circle69"/>
	<circle cx="429.852" cy="232.446" r="4" fill="#0" id="circle70"/>
	<circle cx="437.302" cy="185.267" r="4" fill="#0" id="circle71"/>
	<circle cx="442.268" cy="228.721" r="4" fill="#0" id="circle72"/>
	<circle cx="449.717" cy="181.542" r="4" fill="#0" id="circle73"/>
	<circle cx="454.683" cy="224.996" r="4" fill="#0" id="circle74"/>
	<circle cx="462.133" cy="177.817" r="4" fill="#0" id="circle75"/>
	<circle cx="467.099" cy="220.03" r="4" fill="#0" id="circle76"/>
	<circle cx="474.548" cy="174.093" r="4" fill="#0" id="circle77"/>
	<circle cx="479.514" cy="216.305" r="4" fill="#0" id="circle78"/>
	<circle cx="486.964" cy="170.368" r="4" fill="#0" id="circle79"/>
	<circle cx="491.93" cy="213.822" r="4" fill="#0" id="circle80"/>
	<circle cx="499.379" cy="165.402" r="4" fill="#0" id="circle81"/>
	<circle cx="504.345" cy="210.098" r="4" fill="#0" id="circle82"/>
	<circle cx="511.795" cy="160.436" r="4" fill="#0" id="circle83"/>
	<circle cx="516.761" cy="207.615" r="4" fill="#0" id="circle84"/>
	<circle cx="524.21" cy="156.711" r="4" fill="#0" id="circle85"/>
	<circle cx="529.176" cy="203.89" r="4" fill="#0" id="circle86"/>
	<circle cx="536.626" cy="151.745" r="4" fill="#0" id="circle87"/>
	<circle cx="541.592" cy="201.407" r="4" fill="#0" id="circle88"/>
	<circle cx="549.041" cy="146.778" r="4" fill="#0" id="circle89"/>
	<circle cx="554.008" cy="200.165" r="4" fill="#0" id="circle90"/>
	<circle cx="561.457" cy="140.571" r="4" fill="#0" id="circle91"/>
	<circle cx="566.423" cy="197.682" r="4" fill="#0" id="circle92"/>
	<circle cx="573.872" cy="135.605" r="4" fill="#0" id="circle93"/>
	<circle cx="578.839" cy="195.199" r="4" fill="#0" id="circle94"/>
	<circle cx="586.288" cy="129.397" r="4" fill="#0" id="circle95"/>
	<circle cx="591.254" cy="193.957" r="4" fill="#0" id="circle96"/>
	<circle cx="598.703" cy="123.189" r="4" fill="#0" id="circle97"/>
	<circle cx="603.67" cy="192.716" r="4" fill="#0" id="circle98"/>
	<circle cx="611.119" cy="116.981" r="4" fill="#0" id="circle99"/>
	<circle cx="616.085" cy="191.474" r="4" fill="#0" id="circle100"/>
	<circle cx="622.293" cy="110.773" r="4" fill="#0" id="circle101"/>
	<circle cx="628.501" cy="190.233" r="4" fill="#0" id="circle102"/>
	<circle cx="633.467" cy="104.566" r="4" fill="#0" id="circle103"/>
	<circle cx="640.916" cy="190.233" r="4" fill="#0" id="circle104"/>
	<circle cx="644.641" cy="97.1164" r="4" fill="#0" id="circle105"/>
	<circle cx="653.332" cy="188.991" r="4" fill="#0" id="circle106"/>
	<circle cx="655.815" cy="90.9086" r="4" fill="#0" id="circle107"/>
	<circle cx="665.747" cy="83.4593" r="4" fill="#0" id="circle108"/>
	<circle cx="665.747" cy="188.991" r="4" fill="#0" id="circle109"/>
	<circle cx="675.68" cy="76.01" r="4" fill="#0" id="circle110"/>
	<circle cx="678.163" cy="188.991" r="4" fill="#0" id="circle111"/>
	<circle cx="685.612" cy="68.5607" r="4" fill="#0" id="circle112"/>
	<circle cx="690.578" cy="188.991" r="4" fill="#0" id="circle113"/>
	<circle cx="696.786" cy="61.1114" r="4" fill="#0" id="circle114"/>
	<circle cx="702.994" cy="190.233" r="4" fill="#0" id="circle115"/>
	<circle cx="707.96" cy="53.6621" r="4" fill="#0" id="circle116"/>
	<circle cx="715.409" cy="193.957" r="4" fill="#0" id="circle117"/>
	<circle cx="719.134" cy="47.4543" r="4" fill="#0" id="circle118"/>
	<circle cx="725.342" cy="202.648" r="4" fill="#0" id="circle119"/>
	<circle cx="731.549" cy="42.4881" r="4" fill="#0" id="circle120"/>
	<circle cx="737.757" cy="202.648" r="4" fill="#0" id="circle121"/>
	<circle cx="743.965" cy="37.5219" r="4" fill="#0" id="circle122"/>
	<circle cx="750.173" cy="201.407" r="4" fill="#0" id="circle123"/>
	<circle cx="756.38" cy="33.7972" r="4" fill="#0" id="circle124"/>
	<circle cx="762.588" cy="201.407" r="4" fill="#0" id="circle125"/>
	<circle cx="768.796" cy="30.0726" r="4" fill="#0" id="circle126"/>
	<circle cx="775.004" cy="201.407" r="4" fill="#0" id="circle127"/>
	<circle cx="781.212" cy="25.1064" r="4" fill="#0" id="circle128"/>
	<circle cx="787.419" cy="200.165" r="4" fill="#0" id="circle129"/>
	<circle cx="793.627" cy="21.3817" r="4" fill="#0" id="circle130"/>
	<circle cx="799.835" cy="198.924" r="4" fill="#0" id="circle131"/>
	<circle cx="806.043" cy="17.6571" r="4" fill="#0" id="circle132"/>
	<circle cx="812.25" cy="197.682" r="4" fill="#0" id="circle133"/>
	<circle cx="818.458" cy="15.174" r="4" fill="#0" id="circle134"/>
	<circle cx="824.666" cy="196.441" r="4" fill="#0" id="circle135"/>
	<circle cx="830.874" cy="12.6909" r="4" fill="#0" id="circle136"/>
	<circle cx="837.081" cy="193.957" r="4" fill="#0" id="circle137"/>
	<circle cx="843.289" cy="10.2078" r="4" fill="#0" id="circle138"/>
	<circle cx="849.497" cy="191.474" r="4" fill="#0" id="circle139"/>
	<circle cx="855.705" cy="7.72466" r="4" fill="#0" id="circle140"/>
	<circle cx="861.912" cy="188.991" r="4" fill="#0" id="circle141"/>
	<circle cx="868.12" cy="6.4831" r="4" fill="#0" id="circle142"/>
	<circle cx="874.328" cy="184.025" r="4" fill="#0" id="circle143"/>
	<circle cx="880.536" cy="5.24155" r="4" fill="#0" id="circle144"/>
	<circle cx="885.502" cy="177.817" r="4" fill="#0" id="circle145"/>
	<circle cx="892.951" cy="4" r="4" fill="#0" id="circle146"/>
	<circle cx="896.676" cy="171.61" r="4" fill="#0" id="circle147"/>
	<circle cx="905.367" cy="4" r="4" fill="#0" id="circle148"/>
	<circle cx="909.091" cy="165.402" r="4" fill="#0" id="circle149"/>
	<circle cx="917.782" cy="5.24155" r="4" fill="#0" id="circle150"/>
	<circle cx="920.265" cy="157.952" r="4" fill="#0" id="circle151"/>
	<circle cx="930.198" cy="7.72466" r="4" fill="#0" id="circle152"/>
	<circle cx="931.439" cy="150.503" r="4" fill="#0" id="circle153"/>
	<circle cx="941.372" cy="143.054" r="4" fill="#0" id="circle154"/>
	<circle cx="942.613" cy="10.2078" r="4" fill="#0" id="circle155"/>
	<circle cx="951.304" cy="133.121" r="4" fill="#0" id="circle156"/>
	<circle cx="955.029" cy="13.9324" r="4" fill="#0" id="circle157"/>
	<circle cx="961.237" cy="123.189" r="4" fill="#0" id="circle158"/>
	<circle cx="966.203" cy="20.1402" r="4" fill="#0" id="circle159"/>
	<circle cx="971.169" cy="113.257" r="4" fill="#0" id="circle160"/>
	<circle cx="976.135" cy="27.5895" r="4" fill="#0" id="circle161"/>
	<circle cx="979.86" cy="102.083" r="4" fill="#0" id="circle162"/>
	<circle cx="984.826" cy="37.5219" r="4" fill="#0" id="circle163"/>
	<circle cx="987.309" cy="90.9086" r="4" fill="#0" id="circle164"/>
	<circle cx="991.034" cy="48.6959" r="4" fill="#0" id="circle165"/>
	<circle cx="993.517" cy="77.2516" r="4" fill="#0" id="circle166"/>
	<circle cx="996" cy="61.1114" r="4" fill="#0" id="circle167"/>
	</g>
</svg>