<?xml version="1.0" encoding="UTF-8" standalone="no"?>
<!-- Created with CurveBenchmark -->
<svg
	xmlns:dc="http://purl.org/dc/elements/1.1/"
	xmlns:cc="http://creativecommons.org/ns#"
	xmlns:rdf="http://www.w3.org/1999/02/22-rdf-syntax-ns#"
	xmlns:svg="http://www.w3.org/2000/svg"
	xmlns="http://www.w3.org/2000/svg"
	xmlns:sodipodi="http://sodipodi.sourceforge.net/DTD/sodipodi-0.dtd"
	xmlns:inkscape="http://www.inkscape.org/namespaces/inkscape"
	width="1000"
	height="1000"
	id="svg2"
	version="1.1"
	sodipodi:docname="manifold/ccrust-textbox55.png.txt">
<defs
	id="defs4" />
<metadata
	id="metadata7">
	<rdf:RDF>
		<cc:Work
			rdf:about="">
			<dc:format>image/svg+xml</dc:format>
			<dc:type
				rdf:resource="http://purl.org/dc/dcmitype/StillImage" />
			<dc:title></dc:title>
		</cc:Work>
	</rdf:RDF>
</metadata>
<g
	inkscape:label="Layer 1"
	inkscape:groupmode="layer"
	id="layer1">
	<path style="fill:none;stroke:red;stroke-width:1px;stroke-linecap:butt;stroke-linejoin:miter;stroke-opacity:1" d="M 21.5265,289.682 21.5265,307.208 z" id="boundary" inkscape:connector-curvature="0" />
	<path style="fill:none;stroke:red;stroke-width:1px;stroke-linecap:butt;stroke-linejoin:miter;stroke-opacity:1" d="M 21.5265,307.208 12.7633,324.735 z" id="boundary" inkscape:connector-curvature="0" />
	<path style="fill:none;stroke:red;stroke-width:1px;stroke-linecap:butt;stroke-linejoin:miter;stroke-opacity:1" d="M 21.5265,289.682 39.053,280.919 z" id="boundary" inkscape:connector-curvature="0" />
	<path style="fill:none;stroke:red;stroke-width:1px;stroke-linecap:butt;stroke-linejoin:miter;stroke-opacity:1" d="M 4,342.261 12.7633,324.735 z" id="boundary" inkscape:connector-curvature="0" />
	<path style="fill:none;stroke:red;stroke-width:1px;stroke-linecap:butt;stroke-linejoin:miter;stroke-opacity:1" d="M 4,359.788 4,342.261 z" id="boundary" inkscape:connector-curvature="0" />
	<path style="fill:none;stroke:red;stroke-width:1px;stroke-linecap:butt;stroke-linejoin:miter;stroke-opacity:1" d="M 91.6325,210.813 91.6325,228.339 z" id="boundary" inkscape:connector-curvature="0" />
	<path style="fill:none;stroke:red;stroke-width:1px;stroke-linecap:butt;stroke-linejoin:miter;stroke-opacity:1" d="M 91.6325,228.339 89.8799,249.371 z" id="boundary" inkscape:connector-curvature="0" />
	<path style="fill:none;stroke:red;stroke-width:1px;stroke-linecap:butt;stroke-linejoin:miter;stroke-opacity:1" d="M 89.8799,249.371 74.106,258.134 z" id="boundary" inkscape:connector-curvature="0" />
	<path style="fill:none;stroke:red;stroke-width:1px;stroke-linecap:butt;stroke-linejoin:miter;stroke-opacity:1" d="M 91.6325,210.813 100.396,184.523 z" id="boundary" inkscape:connector-curvature="0" />
	<path style="fill:none;stroke:red;stroke-width:1px;stroke-linecap:butt;stroke-linejoin:miter;stroke-opacity:1" d="M 39.053,280.919 56.5795,263.392 z" id="boundary" inkscape:connector-curvature="0" />
	<path style="fill:none;stroke:red;stroke-width:1px;stroke-linecap:butt;stroke-linejoin:miter;stroke-opacity:1" d="M 56.5795,263.392 74.106,258.134 z" id="boundary" inkscape:connector-curvature="0" />
	<path style="fill:none;stroke:red;stroke-width:1px;stroke-linecap:butt;stroke-linejoin:miter;stroke-opacity:1" d="M 12.7633,410.615 4,394.841 z" id="boundary" inkscape:connector-curvature="0" />
	<path style="fill:none;stroke:red;stroke-width:1px;stroke-linecap:butt;stroke-linejoin:miter;stroke-opacity:1" d="M 4,394.841 4,377.314 z" id="boundary" inkscape:connector-curvature="0" />
	<path style="fill:none;stroke:red;stroke-width:1px;stroke-linecap:butt;stroke-linejoin:miter;stroke-opacity:1" d="M 4,377.314 4,359.788 z" id="boundary" inkscape:connector-curvature="0" />
	<path style="fill:none;stroke:red;stroke-width:1px;stroke-linecap:butt;stroke-linejoin:miter;stroke-opacity:1" d="M 12.7633,410.615 21.5265,426.389 z" id="boundary" inkscape:connector-curvature="0" />
	<path style="fill:none;stroke:red;stroke-width:1px;stroke-linecap:butt;stroke-linejoin:miter;stroke-opacity:1" d="M 21.5265,426.389 26.7845,443.915 z" id="boundary" inkscape:connector-curvature="0" />
	<path style="fill:none;stroke:red;stroke-width:1px;stroke-linecap:butt;stroke-linejoin:miter;stroke-opacity:1" d="M 21.5265,535.053 21.5265,517.527 z" id="boundary" inkscape:connector-curvature="0" />
	<path style="fill:none;stroke:red;stroke-width:1px;stroke-linecap:butt;stroke-linejoin:miter;stroke-opacity:1" d="M 21.5265,517.527 39.053,508.763 z" id="boundary" inkscape:connector-curvature="0" />
	<path style="fill:none;stroke:red;stroke-width:1px;stroke-linecap:butt;stroke-linejoin:miter;stroke-opacity:1" d="M 21.5265,535.053 21.5265,552.58 z" id="boundary" inkscape:connector-curvature="0" />
	<path style="fill:none;stroke:red;stroke-width:1px;stroke-linecap:butt;stroke-linejoin:miter;stroke-opacity:1" d="M 26.7845,443.915 44.311,450.926 z" id="boundary" inkscape:connector-curvature="0" />
	<path style="fill:none;stroke:red;stroke-width:1px;stroke-linecap:butt;stroke-linejoin:miter;stroke-opacity:1" d="M 44.311,450.926 56.5795,464.947 z" id="boundary" inkscape:connector-curvature="0" />
	<path style="fill:none;stroke:red;stroke-width:1px;stroke-linecap:butt;stroke-linejoin:miter;stroke-opacity:1" d="M 56.5795,464.947 39.053,473.71 z" id="boundary" inkscape:connector-curvature="0" />
	<path style="fill:none;stroke:red;stroke-width:1px;stroke-linecap:butt;stroke-linejoin:miter;stroke-opacity:1" d="M 39.053,473.71 39.053,491.237 z" id="boundary" inkscape:connector-curvature="0" />
	<path style="fill:none;stroke:red;stroke-width:1px;stroke-linecap:butt;stroke-linejoin:miter;stroke-opacity:1" d="M 39.053,508.763 39.053,491.237 z" id="boundary" inkscape:connector-curvature="0" />
	<path style="fill:none;stroke:red;stroke-width:1px;stroke-linecap:butt;stroke-linejoin:miter;stroke-opacity:1" d="M 245.866,56.5795 228.339,56.5795 z" id="boundary" inkscape:connector-curvature="0" />
	<path style="fill:none;stroke:red;stroke-width:1px;stroke-linecap:butt;stroke-linejoin:miter;stroke-opacity:1" d="M 228.339,56.5795 210.813,56.5795 z" id="boundary" inkscape:connector-curvature="0" />
	<path style="fill:none;stroke:red;stroke-width:1px;stroke-linecap:butt;stroke-linejoin:miter;stroke-opacity:1" d="M 210.813,56.5795 202.049,74.106 z" id="boundary" inkscape:connector-curvature="0" />
	<path style="fill:none;stroke:red;stroke-width:1px;stroke-linecap:butt;stroke-linejoin:miter;stroke-opacity:1" d="M 202.049,74.106 184.523,74.106 z" id="boundary" inkscape:connector-curvature="0" />
	<path style="fill:none;stroke:red;stroke-width:1px;stroke-linecap:butt;stroke-linejoin:miter;stroke-opacity:1" d="M 245.866,56.5795 259.887,67.0954 z" id="boundary" inkscape:connector-curvature="0" />
	<path style="fill:none;stroke:red;stroke-width:1px;stroke-linecap:butt;stroke-linejoin:miter;stroke-opacity:1" d="M 277.413,74.106 259.887,67.0954 z" id="boundary" inkscape:connector-curvature="0" />
	<path style="fill:none;stroke:red;stroke-width:1px;stroke-linecap:butt;stroke-linejoin:miter;stroke-opacity:1" d="M 184.523,74.106 166.996,82.8693 z" id="boundary" inkscape:connector-curvature="0" />
	<path style="fill:none;stroke:red;stroke-width:1px;stroke-linecap:butt;stroke-linejoin:miter;stroke-opacity:1" d="M 401.852,12.7633 386.078,21.5265 z" id="boundary" inkscape:connector-curvature="0" />
	<path style="fill:none;stroke:red;stroke-width:1px;stroke-linecap:butt;stroke-linejoin:miter;stroke-opacity:1" d="M 386.078,21.5265 368.551,21.5265 z" id="boundary" inkscape:connector-curvature="0" />
	<path style="fill:none;stroke:red;stroke-width:1px;stroke-linecap:butt;stroke-linejoin:miter;stroke-opacity:1" d="M 361.541,39.053 368.551,21.5265 z" id="boundary" inkscape:connector-curvature="0" />
	<path style="fill:none;stroke:red;stroke-width:1px;stroke-linecap:butt;stroke-linejoin:miter;stroke-opacity:1" d="M 345.767,47.8163 361.541,39.053 z" id="boundary" inkscape:connector-curvature="0" />
	<path style="fill:none;stroke:red;stroke-width:1px;stroke-linecap:butt;stroke-linejoin:miter;stroke-opacity:1" d="M 328.24,70.6007 328.24,53.0742 z" id="boundary" inkscape:connector-curvature="0" />
	<path style="fill:none;stroke:red;stroke-width:1px;stroke-linecap:butt;stroke-linejoin:miter;stroke-opacity:1" d="M 328.24,53.0742 345.767,47.8163 z" id="boundary" inkscape:connector-curvature="0" />
	<path style="fill:none;stroke:red;stroke-width:1px;stroke-linecap:butt;stroke-linejoin:miter;stroke-opacity:1" d="M 328.24,70.6007 312.466,82.8693 z" id="boundary" inkscape:connector-curvature="0" />
	<path style="fill:none;stroke:red;stroke-width:1px;stroke-linecap:butt;stroke-linejoin:miter;stroke-opacity:1" d="M 117.922,140.707 126.686,114.417 z" id="boundary" inkscape:connector-curvature="0" />
	<path style="fill:none;stroke:red;stroke-width:1px;stroke-linecap:butt;stroke-linejoin:miter;stroke-opacity:1" d="M 117.922,158.233 117.922,140.707 z" id="boundary" inkscape:connector-curvature="0" />
	<path style="fill:none;stroke:red;stroke-width:1px;stroke-linecap:butt;stroke-linejoin:miter;stroke-opacity:1" d="M 100.396,166.996 117.922,158.233 z" id="boundary" inkscape:connector-curvature="0" />
	<path style="fill:none;stroke:red;stroke-width:1px;stroke-linecap:butt;stroke-linejoin:miter;stroke-opacity:1" d="M 100.396,184.523 100.396,166.996 z" id="boundary" inkscape:connector-curvature="0" />
	<path style="fill:none;stroke:red;stroke-width:1px;stroke-linecap:butt;stroke-linejoin:miter;stroke-opacity:1" d="M 126.686,114.417 140.707,100.396 z" id="boundary" inkscape:connector-curvature="0" />
	<path style="fill:none;stroke:red;stroke-width:1px;stroke-linecap:butt;stroke-linejoin:miter;stroke-opacity:1" d="M 140.707,100.396 158.233,100.396 z" id="boundary" inkscape:connector-curvature="0" />
	<path style="fill:none;stroke:red;stroke-width:1px;stroke-linecap:butt;stroke-linejoin:miter;stroke-opacity:1" d="M 294.94,79.364 277.413,74.106 z" id="boundary" inkscape:connector-curvature="0" />
	<path style="fill:none;stroke:red;stroke-width:1px;stroke-linecap:butt;stroke-linejoin:miter;stroke-opacity:1" d="M 158.233,100.396 166.996,82.8693 z" id="boundary" inkscape:connector-curvature="0" />
	<path style="fill:none;stroke:red;stroke-width:1px;stroke-linecap:butt;stroke-linejoin:miter;stroke-opacity:1" d="M 294.94,79.364 312.466,82.8693 z" id="boundary" inkscape:connector-curvature="0" />
	<path style="fill:none;stroke:red;stroke-width:1px;stroke-linecap:butt;stroke-linejoin:miter;stroke-opacity:1" d="M 21.5265,552.58 39.053,557.837 z" id="boundary" inkscape:connector-curvature="0" />
	<path style="fill:none;stroke:red;stroke-width:1px;stroke-linecap:butt;stroke-linejoin:miter;stroke-opacity:1" d="M 39.053,557.837 39.053,575.364 z" id="boundary" inkscape:connector-curvature="0" />
	<path style="fill:none;stroke:red;stroke-width:1px;stroke-linecap:butt;stroke-linejoin:miter;stroke-opacity:1" d="M 39.053,575.364 39.053,592.89 z" id="boundary" inkscape:connector-curvature="0" />
	<path style="fill:none;stroke:red;stroke-width:1px;stroke-linecap:butt;stroke-linejoin:miter;stroke-opacity:1" d="M 39.053,592.89 54.8269,601.654 z" id="boundary" inkscape:connector-curvature="0" />
	<path style="fill:none;stroke:red;stroke-width:1px;stroke-linecap:butt;stroke-linejoin:miter;stroke-opacity:1" d="M 54.8269,601.654 67.0954,615.675 z" id="boundary" inkscape:connector-curvature="0" />
	<path style="fill:none;stroke:red;stroke-width:1px;stroke-linecap:butt;stroke-linejoin:miter;stroke-opacity:1" d="M 82.8693,624.438 67.0954,615.675 z" id="boundary" inkscape:connector-curvature="0" />
	<path style="fill:none;stroke:red;stroke-width:1px;stroke-linecap:butt;stroke-linejoin:miter;stroke-opacity:1" d="M 130.191,645.47 112.664,645.47 z" id="boundary" inkscape:connector-curvature="0" />
	<path style="fill:none;stroke:red;stroke-width:1px;stroke-linecap:butt;stroke-linejoin:miter;stroke-opacity:1" d="M 112.664,645.47 96.8905,636.707 z" id="boundary" inkscape:connector-curvature="0" />
	<path style="fill:none;stroke:red;stroke-width:1px;stroke-linecap:butt;stroke-linejoin:miter;stroke-opacity:1" d="M 96.8905,636.707 82.8693,624.438 z" id="boundary" inkscape:connector-curvature="0" />
	<path style="fill:none;stroke:red;stroke-width:1px;stroke-linecap:butt;stroke-linejoin:miter;stroke-opacity:1" d="M 130.191,645.47 145.965,654.233 z" id="boundary" inkscape:connector-curvature="0" />
	<path style="fill:none;stroke:red;stroke-width:1px;stroke-linecap:butt;stroke-linejoin:miter;stroke-opacity:1" d="M 145.965,654.233 161.739,662.996 z" id="boundary" inkscape:connector-curvature="0" />
	<path style="fill:none;stroke:red;stroke-width:1px;stroke-linecap:butt;stroke-linejoin:miter;stroke-opacity:1" d="M 161.739,662.996 166.996,680.523 z" id="boundary" inkscape:connector-curvature="0" />
	<path style="fill:none;stroke:red;stroke-width:1px;stroke-linecap:butt;stroke-linejoin:miter;stroke-opacity:1" d="M 175.76,696.297 182.77,713.823 z" id="boundary" inkscape:connector-curvature="0" />
	<path style="fill:none;stroke:red;stroke-width:1px;stroke-linecap:butt;stroke-linejoin:miter;stroke-opacity:1" d="M 200.297,720.834 182.77,713.823 z" id="boundary" inkscape:connector-curvature="0" />
	<path style="fill:none;stroke:red;stroke-width:1px;stroke-linecap:butt;stroke-linejoin:miter;stroke-opacity:1" d="M 166.996,680.523 175.76,696.297 z" id="boundary" inkscape:connector-curvature="0" />
	<path style="fill:none;stroke:red;stroke-width:1px;stroke-linecap:butt;stroke-linejoin:miter;stroke-opacity:1" d="M 233.597,733.102 216.071,729.597 z" id="boundary" inkscape:connector-curvature="0" />
	<path style="fill:none;stroke:red;stroke-width:1px;stroke-linecap:butt;stroke-linejoin:miter;stroke-opacity:1" d="M 216.071,729.597 200.297,720.834 z" id="boundary" inkscape:connector-curvature="0" />
	<path style="fill:none;stroke:red;stroke-width:1px;stroke-linecap:butt;stroke-linejoin:miter;stroke-opacity:1" d="M 251.124,733.102 233.597,733.102 z" id="boundary" inkscape:connector-curvature="0" />
	<path style="fill:none;stroke:red;stroke-width:1px;stroke-linecap:butt;stroke-linejoin:miter;stroke-opacity:1" d="M 268.65,733.102 251.124,733.102 z" id="boundary" inkscape:connector-curvature="0" />
	<path style="fill:none;stroke:red;stroke-width:1px;stroke-linecap:butt;stroke-linejoin:miter;stroke-opacity:1" d="M 301.951,724.339 286.177,733.102 z" id="boundary" inkscape:connector-curvature="0" />
	<path style="fill:none;stroke:red;stroke-width:1px;stroke-linecap:butt;stroke-linejoin:miter;stroke-opacity:1" d="M 286.177,733.102 268.65,733.102 z" id="boundary" inkscape:connector-curvature="0" />
	<path style="fill:none;stroke:red;stroke-width:1px;stroke-linecap:butt;stroke-linejoin:miter;stroke-opacity:1" d="M 293.187,806.714 293.187,824.24 z" id="boundary" inkscape:connector-curvature="0" />
	<path style="fill:none;stroke:red;stroke-width:1px;stroke-linecap:butt;stroke-linejoin:miter;stroke-opacity:1" d="M 293.187,806.714 310.714,789.187 z" id="boundary" inkscape:connector-curvature="0" />
	<path style="fill:none;stroke:red;stroke-width:1px;stroke-linecap:butt;stroke-linejoin:miter;stroke-opacity:1" d="M 324.735,757.64 310.714,771.661 z" id="boundary" inkscape:connector-curvature="0" />
	<path style="fill:none;stroke:red;stroke-width:1px;stroke-linecap:butt;stroke-linejoin:miter;stroke-opacity:1" d="M 301.951,724.339 319.477,724.339 z" id="boundary" inkscape:connector-curvature="0" />
	<path style="fill:none;stroke:red;stroke-width:1px;stroke-linecap:butt;stroke-linejoin:miter;stroke-opacity:1" d="M 319.477,724.339 337.004,724.339 z" id="boundary" inkscape:connector-curvature="0" />
	<path style="fill:none;stroke:red;stroke-width:1px;stroke-linecap:butt;stroke-linejoin:miter;stroke-opacity:1" d="M 310.714,789.187 310.714,771.661 z" id="boundary" inkscape:connector-curvature="0" />
	<path style="fill:none;stroke:red;stroke-width:1px;stroke-linecap:butt;stroke-linejoin:miter;stroke-opacity:1" d="M 310.714,855.788 303.703,838.261 z" id="boundary" inkscape:connector-curvature="0" />
	<path style="fill:none;stroke:red;stroke-width:1px;stroke-linecap:butt;stroke-linejoin:miter;stroke-opacity:1" d="M 303.703,838.261 293.187,824.24 z" id="boundary" inkscape:connector-curvature="0" />
	<path style="fill:none;stroke:red;stroke-width:1px;stroke-linecap:butt;stroke-linejoin:miter;stroke-opacity:1" d="M 324.735,757.64 342.261,757.64 z" id="boundary" inkscape:connector-curvature="0" />
	<path style="fill:none;stroke:red;stroke-width:1px;stroke-linecap:butt;stroke-linejoin:miter;stroke-opacity:1" d="M 337.004,724.339 354.53,719.081 z" id="boundary" inkscape:connector-curvature="0" />
	<path style="fill:none;stroke:red;stroke-width:1px;stroke-linecap:butt;stroke-linejoin:miter;stroke-opacity:1" d="M 354.53,719.081 372.057,715.576 z" id="boundary" inkscape:connector-curvature="0" />
	<path style="fill:none;stroke:red;stroke-width:1px;stroke-linecap:butt;stroke-linejoin:miter;stroke-opacity:1" d="M 372.057,715.576 372.057,733.102 z" id="boundary" inkscape:connector-curvature="0" />
	<path style="fill:none;stroke:red;stroke-width:1px;stroke-linecap:butt;stroke-linejoin:miter;stroke-opacity:1" d="M 359.788,748.876 342.261,757.64 z" id="boundary" inkscape:connector-curvature="0" />
	<path style="fill:none;stroke:red;stroke-width:1px;stroke-linecap:butt;stroke-linejoin:miter;stroke-opacity:1" d="M 372.057,733.102 359.788,748.876 z" id="boundary" inkscape:connector-curvature="0" />
	<path style="fill:none;stroke:red;stroke-width:1px;stroke-linecap:butt;stroke-linejoin:miter;stroke-opacity:1" d="M 319.477,871.562 310.714,855.788 z" id="boundary" inkscape:connector-curvature="0" />
	<path style="fill:none;stroke:red;stroke-width:1px;stroke-linecap:butt;stroke-linejoin:miter;stroke-opacity:1" d="M 310.714,911.873 310.714,894.346 z" id="boundary" inkscape:connector-curvature="0" />
	<path style="fill:none;stroke:red;stroke-width:1px;stroke-linecap:butt;stroke-linejoin:miter;stroke-opacity:1" d="M 319.477,927.647 310.714,911.873 z" id="boundary" inkscape:connector-curvature="0" />
	<path style="fill:none;stroke:red;stroke-width:1px;stroke-linecap:butt;stroke-linejoin:miter;stroke-opacity:1" d="M 319.477,871.562 310.714,894.346 z" id="boundary" inkscape:connector-curvature="0" />
	<path style="fill:none;stroke:red;stroke-width:1px;stroke-linecap:butt;stroke-linejoin:miter;stroke-opacity:1" d="M 319.477,927.647 319.477,945.173 z" id="boundary" inkscape:connector-curvature="0" />
	<path style="fill:none;stroke:red;stroke-width:1px;stroke-linecap:butt;stroke-linejoin:miter;stroke-opacity:1" d="M 319.477,962.7 319.477,945.173 z" id="boundary" inkscape:connector-curvature="0" />
	<path style="fill:none;stroke:red;stroke-width:1px;stroke-linecap:butt;stroke-linejoin:miter;stroke-opacity:1" d="M 405.357,939.915 391.336,952.184 z" id="boundary" inkscape:connector-curvature="0" />
	<path style="fill:none;stroke:red;stroke-width:1px;stroke-linecap:butt;stroke-linejoin:miter;stroke-opacity:1" d="M 328.24,978.473 319.477,962.7 z" id="boundary" inkscape:connector-curvature="0" />
	<path style="fill:none;stroke:red;stroke-width:1px;stroke-linecap:butt;stroke-linejoin:miter;stroke-opacity:1" d="M 391.336,952.184 377.314,978.473 z" id="boundary" inkscape:connector-curvature="0" />
	<path style="fill:none;stroke:red;stroke-width:1px;stroke-linecap:butt;stroke-linejoin:miter;stroke-opacity:1" d="M 351.025,996 333.498,996 z" id="boundary" inkscape:connector-curvature="0" />
	<path style="fill:none;stroke:red;stroke-width:1px;stroke-linecap:butt;stroke-linejoin:miter;stroke-opacity:1" d="M 333.498,996 328.24,978.473 z" id="boundary" inkscape:connector-curvature="0" />
	<path style="fill:none;stroke:red;stroke-width:1px;stroke-linecap:butt;stroke-linejoin:miter;stroke-opacity:1" d="M 377.314,978.473 368.551,994.247 z" id="boundary" inkscape:connector-curvature="0" />
	<path style="fill:none;stroke:red;stroke-width:1px;stroke-linecap:butt;stroke-linejoin:miter;stroke-opacity:1" d="M 368.551,994.247 351.025,996 z" id="boundary" inkscape:connector-curvature="0" />
	<path style="fill:none;stroke:red;stroke-width:1px;stroke-linecap:butt;stroke-linejoin:miter;stroke-opacity:1" d="M 401.852,12.7633 419.378,12.7633 z" id="boundary" inkscape:connector-curvature="0" />
	<path style="fill:none;stroke:red;stroke-width:1px;stroke-linecap:butt;stroke-linejoin:miter;stroke-opacity:1" d="M 436.905,12.7633 419.378,12.7633 z" id="boundary" inkscape:connector-curvature="0" />
	<path style="fill:none;stroke:red;stroke-width:1px;stroke-linecap:butt;stroke-linejoin:miter;stroke-opacity:1" d="M 536.806,12.7633 552.58,4 z" id="boundary" inkscape:connector-curvature="0" />
	<path style="fill:none;stroke:red;stroke-width:1px;stroke-linecap:butt;stroke-linejoin:miter;stroke-opacity:1" d="M 552.58,4 570.106,4 z" id="boundary" inkscape:connector-curvature="0" />
	<path style="fill:none;stroke:red;stroke-width:1px;stroke-linecap:butt;stroke-linejoin:miter;stroke-opacity:1" d="M 452.678,21.5265 436.905,12.7633 z" id="boundary" inkscape:connector-curvature="0" />
	<path style="fill:none;stroke:red;stroke-width:1px;stroke-linecap:butt;stroke-linejoin:miter;stroke-opacity:1" d="M 536.806,12.7633 519.279,12.7633 z" id="boundary" inkscape:connector-curvature="0" />
	<path style="fill:none;stroke:red;stroke-width:1px;stroke-linecap:butt;stroke-linejoin:miter;stroke-opacity:1" d="M 505.258,25.0318 519.279,12.7633 z" id="boundary" inkscape:connector-curvature="0" />
	<path style="fill:none;stroke:red;stroke-width:1px;stroke-linecap:butt;stroke-linejoin:miter;stroke-opacity:1" d="M 710.318,4 694.544,12.7633 z" id="boundary" inkscape:connector-curvature="0" />
	<path style="fill:none;stroke:red;stroke-width:1px;stroke-linecap:butt;stroke-linejoin:miter;stroke-opacity:1" d="M 694.544,12.7633 677.018,12.7633 z" id="boundary" inkscape:connector-curvature="0" />
	<path style="fill:none;stroke:red;stroke-width:1px;stroke-linecap:butt;stroke-linejoin:miter;stroke-opacity:1" d="M 603.406,12.7633 587.633,4 z" id="boundary" inkscape:connector-curvature="0" />
	<path style="fill:none;stroke:red;stroke-width:1px;stroke-linecap:butt;stroke-linejoin:miter;stroke-opacity:1" d="M 710.318,4 727.845,4 z" id="boundary" inkscape:connector-curvature="0" />
	<path style="fill:none;stroke:red;stroke-width:1px;stroke-linecap:butt;stroke-linejoin:miter;stroke-opacity:1" d="M 727.845,4 745.371,4 z" id="boundary" inkscape:connector-curvature="0" />
	<path style="fill:none;stroke:red;stroke-width:1px;stroke-linecap:butt;stroke-linejoin:miter;stroke-opacity:1" d="M 745.371,4 761.145,12.7633 z" id="boundary" inkscape:connector-curvature="0" />
	<path style="fill:none;stroke:red;stroke-width:1px;stroke-linecap:butt;stroke-linejoin:miter;stroke-opacity:1" d="M 677.018,12.7633 661.244,21.5265 z" id="boundary" inkscape:connector-curvature="0" />
	<path style="fill:none;stroke:red;stroke-width:1px;stroke-linecap:butt;stroke-linejoin:miter;stroke-opacity:1" d="M 570.106,4 587.633,4 z" id="boundary" inkscape:connector-curvature="0" />
	<path style="fill:none;stroke:red;stroke-width:1px;stroke-linecap:butt;stroke-linejoin:miter;stroke-opacity:1" d="M 619.18,21.5265 627.943,37.3004 z" id="boundary" inkscape:connector-curvature="0" />
	<path style="fill:none;stroke:red;stroke-width:1px;stroke-linecap:butt;stroke-linejoin:miter;stroke-opacity:1" d="M 603.406,12.7633 619.18,21.5265 z" id="boundary" inkscape:connector-curvature="0" />
	<path style="fill:none;stroke:red;stroke-width:1px;stroke-linecap:butt;stroke-linejoin:miter;stroke-opacity:1" d="M 494.742,39.053 505.258,25.0318 z" id="boundary" inkscape:connector-curvature="0" />
	<path style="fill:none;stroke:red;stroke-width:1px;stroke-linecap:butt;stroke-linejoin:miter;stroke-opacity:1" d="M 470.205,26.7845 452.678,21.5265 z" id="boundary" inkscape:connector-curvature="0" />
	<path style="fill:none;stroke:red;stroke-width:1px;stroke-linecap:butt;stroke-linejoin:miter;stroke-opacity:1" d="M 494.742,39.053 477.216,44.311 z" id="boundary" inkscape:connector-curvature="0" />
	<path style="fill:none;stroke:red;stroke-width:1px;stroke-linecap:butt;stroke-linejoin:miter;stroke-opacity:1" d="M 477.216,44.311 470.205,26.7845 z" id="boundary" inkscape:connector-curvature="0" />
	<path style="fill:none;stroke:red;stroke-width:1px;stroke-linecap:butt;stroke-linejoin:miter;stroke-opacity:1" d="M 643.717,26.7845 661.244,21.5265 z" id="boundary" inkscape:connector-curvature="0" />
	<path style="fill:none;stroke:red;stroke-width:1px;stroke-linecap:butt;stroke-linejoin:miter;stroke-opacity:1" d="M 627.943,37.3004 643.717,26.7845 z" id="boundary" inkscape:connector-curvature="0" />
	<path style="fill:none;stroke:red;stroke-width:1px;stroke-linecap:butt;stroke-linejoin:miter;stroke-opacity:1" d="M 761.145,12.7633 776.919,21.5265 z" id="boundary" inkscape:connector-curvature="0" />
	<path style="fill:none;stroke:red;stroke-width:1px;stroke-linecap:butt;stroke-linejoin:miter;stroke-opacity:1" d="M 794.445,26.7845 776.919,21.5265 z" id="boundary" inkscape:connector-curvature="0" />
	<path style="fill:none;stroke:red;stroke-width:1px;stroke-linecap:butt;stroke-linejoin:miter;stroke-opacity:1" d="M 810.219,53.0742 794.445,44.311 z" id="boundary" inkscape:connector-curvature="0" />
	<path style="fill:none;stroke:red;stroke-width:1px;stroke-linecap:butt;stroke-linejoin:miter;stroke-opacity:1" d="M 794.445,44.311 794.445,26.7845 z" id="boundary" inkscape:connector-curvature="0" />
	<path style="fill:none;stroke:red;stroke-width:1px;stroke-linecap:butt;stroke-linejoin:miter;stroke-opacity:1" d="M 810.219,53.0742 811.972,70.6007 z" id="boundary" inkscape:connector-curvature="0" />
	<path style="fill:none;stroke:red;stroke-width:1px;stroke-linecap:butt;stroke-linejoin:miter;stroke-opacity:1" d="M 820.735,86.3746 811.972,70.6007 z" id="boundary" inkscape:connector-curvature="0" />
	<path style="fill:none;stroke:red;stroke-width:1px;stroke-linecap:butt;stroke-linejoin:miter;stroke-opacity:1" d="M 831.251,100.396 820.735,86.3746 z" id="boundary" inkscape:connector-curvature="0" />
	<path style="fill:none;stroke:red;stroke-width:1px;stroke-linecap:butt;stroke-linejoin:miter;stroke-opacity:1" d="M 847.025,109.159 831.251,100.396 z" id="boundary" inkscape:connector-curvature="0" />
	<path style="fill:none;stroke:red;stroke-width:1px;stroke-linecap:butt;stroke-linejoin:miter;stroke-opacity:1" d="M 847.025,109.159 864.551,114.417 z" id="boundary" inkscape:connector-curvature="0" />
	<path style="fill:none;stroke:red;stroke-width:1px;stroke-linecap:butt;stroke-linejoin:miter;stroke-opacity:1" d="M 864.551,114.417 871.562,131.943 z" id="boundary" inkscape:connector-curvature="0" />
	<path style="fill:none;stroke:red;stroke-width:1px;stroke-linecap:butt;stroke-linejoin:miter;stroke-opacity:1" d="M 889.088,138.954 871.562,131.943 z" id="boundary" inkscape:connector-curvature="0" />
	<path style="fill:none;stroke:red;stroke-width:1px;stroke-linecap:butt;stroke-linejoin:miter;stroke-opacity:1" d="M 889.088,138.954 899.604,152.975 z" id="boundary" inkscape:connector-curvature="0" />
	<path style="fill:none;stroke:red;stroke-width:1px;stroke-linecap:butt;stroke-linejoin:miter;stroke-opacity:1" d="M 899.604,152.975 899.604,170.502 z" id="boundary" inkscape:connector-curvature="0" />
	<path style="fill:none;stroke:red;stroke-width:1px;stroke-linecap:butt;stroke-linejoin:miter;stroke-opacity:1" d="M 908.367,186.276 899.604,170.502 z" id="boundary" inkscape:connector-curvature="0" />
	<path style="fill:none;stroke:red;stroke-width:1px;stroke-linecap:butt;stroke-linejoin:miter;stroke-opacity:1" d="M 908.367,203.802 908.367,221.329 z" id="boundary" inkscape:connector-curvature="0" />
	<path style="fill:none;stroke:red;stroke-width:1px;stroke-linecap:butt;stroke-linejoin:miter;stroke-opacity:1" d="M 908.367,203.802 908.367,186.276 z" id="boundary" inkscape:connector-curvature="0" />
	<path style="fill:none;stroke:red;stroke-width:1px;stroke-linecap:butt;stroke-linejoin:miter;stroke-opacity:1" d="M 899.604,277.413 899.604,259.887 z" id="boundary" inkscape:connector-curvature="0" />
	<path style="fill:none;stroke:red;stroke-width:1px;stroke-linecap:butt;stroke-linejoin:miter;stroke-opacity:1" d="M 908.367,293.187 899.604,277.413 z" id="boundary" inkscape:connector-curvature="0" />
	<path style="fill:none;stroke:red;stroke-width:1px;stroke-linecap:butt;stroke-linejoin:miter;stroke-opacity:1" d="M 908.367,238.855 899.604,259.887 z" id="boundary" inkscape:connector-curvature="0" />
	<path style="fill:none;stroke:red;stroke-width:1px;stroke-linecap:butt;stroke-linejoin:miter;stroke-opacity:1" d="M 908.367,221.329 908.367,238.855 z" id="boundary" inkscape:connector-curvature="0" />
	<path style="fill:none;stroke:red;stroke-width:1px;stroke-linecap:butt;stroke-linejoin:miter;stroke-opacity:1" d="M 924.141,319.477 908.367,310.714 z" id="boundary" inkscape:connector-curvature="0" />
	<path style="fill:none;stroke:red;stroke-width:1px;stroke-linecap:butt;stroke-linejoin:miter;stroke-opacity:1" d="M 908.367,310.714 908.367,293.187 z" id="boundary" inkscape:connector-curvature="0" />
	<path style="fill:none;stroke:red;stroke-width:1px;stroke-linecap:butt;stroke-linejoin:miter;stroke-opacity:1" d="M 934.657,333.498 934.657,351.025 z" id="boundary" inkscape:connector-curvature="0" />
	<path style="fill:none;stroke:red;stroke-width:1px;stroke-linecap:butt;stroke-linejoin:miter;stroke-opacity:1" d="M 924.141,319.477 934.657,333.498 z" id="boundary" inkscape:connector-curvature="0" />
	<path style="fill:none;stroke:red;stroke-width:1px;stroke-linecap:butt;stroke-linejoin:miter;stroke-opacity:1" d="M 934.657,351.025 934.657,368.551 z" id="boundary" inkscape:connector-curvature="0" />
	<path style="fill:none;stroke:red;stroke-width:1px;stroke-linecap:butt;stroke-linejoin:miter;stroke-opacity:1" d="M 584.127,733.102 571.859,750.629 z" id="boundary" inkscape:connector-curvature="0" />
	<path style="fill:none;stroke:red;stroke-width:1px;stroke-linecap:butt;stroke-linejoin:miter;stroke-opacity:1" d="M 571.859,750.629 556.085,759.392 z" id="boundary" inkscape:connector-curvature="0" />
	<path style="fill:none;stroke:red;stroke-width:1px;stroke-linecap:butt;stroke-linejoin:miter;stroke-opacity:1" d="M 522.784,768.155 505.258,768.155 z" id="boundary" inkscape:connector-curvature="0" />
	<path style="fill:none;stroke:red;stroke-width:1px;stroke-linecap:butt;stroke-linejoin:miter;stroke-opacity:1" d="M 496.495,794.445 505.258,768.155 z" id="boundary" inkscape:connector-curvature="0" />
	<path style="fill:none;stroke:red;stroke-width:1px;stroke-linecap:butt;stroke-linejoin:miter;stroke-opacity:1" d="M 540.311,768.155 522.784,768.155 z" id="boundary" inkscape:connector-curvature="0" />
	<path style="fill:none;stroke:red;stroke-width:1px;stroke-linecap:butt;stroke-linejoin:miter;stroke-opacity:1" d="M 556.085,759.392 540.311,768.155 z" id="boundary" inkscape:connector-curvature="0" />
	<path style="fill:none;stroke:red;stroke-width:1px;stroke-linecap:butt;stroke-linejoin:miter;stroke-opacity:1" d="M 601.654,698.049 601.654,680.523 z" id="boundary" inkscape:connector-curvature="0" />
	<path style="fill:none;stroke:red;stroke-width:1px;stroke-linecap:butt;stroke-linejoin:miter;stroke-opacity:1" d="M 601.654,680.523 619.18,671.76 z" id="boundary" inkscape:connector-curvature="0" />
	<path style="fill:none;stroke:red;stroke-width:1px;stroke-linecap:butt;stroke-linejoin:miter;stroke-opacity:1" d="M 636.707,671.76 619.18,671.76 z" id="boundary" inkscape:connector-curvature="0" />
	<path style="fill:none;stroke:red;stroke-width:1px;stroke-linecap:butt;stroke-linejoin:miter;stroke-opacity:1" d="M 584.127,733.102 592.89,715.576 z" id="boundary" inkscape:connector-curvature="0" />
	<path style="fill:none;stroke:red;stroke-width:1px;stroke-linecap:butt;stroke-linejoin:miter;stroke-opacity:1" d="M 601.654,698.049 592.89,715.576 z" id="boundary" inkscape:connector-curvature="0" />
	<path style="fill:none;stroke:red;stroke-width:1px;stroke-linecap:butt;stroke-linejoin:miter;stroke-opacity:1" d="M 636.707,671.76 652.481,680.523 z" id="boundary" inkscape:connector-curvature="0" />
	<path style="fill:none;stroke:red;stroke-width:1px;stroke-linecap:butt;stroke-linejoin:miter;stroke-opacity:1" d="M 426.389,904.862 417.625,889.088 z" id="boundary" inkscape:connector-curvature="0" />
	<path style="fill:none;stroke:red;stroke-width:1px;stroke-linecap:butt;stroke-linejoin:miter;stroke-opacity:1" d="M 415.873,925.894 405.357,939.915 z" id="boundary" inkscape:connector-curvature="0" />
	<path style="fill:none;stroke:red;stroke-width:1px;stroke-linecap:butt;stroke-linejoin:miter;stroke-opacity:1" d="M 426.389,904.862 415.873,925.894 z" id="boundary" inkscape:connector-curvature="0" />
	<path style="fill:none;stroke:red;stroke-width:1px;stroke-linecap:butt;stroke-linejoin:miter;stroke-opacity:1" d="M 426.389,873.314 443.915,864.551 z" id="boundary" inkscape:connector-curvature="0" />
	<path style="fill:none;stroke:red;stroke-width:1px;stroke-linecap:butt;stroke-linejoin:miter;stroke-opacity:1" d="M 478.968,794.445 496.495,794.445 z" id="boundary" inkscape:connector-curvature="0" />
	<path style="fill:none;stroke:red;stroke-width:1px;stroke-linecap:butt;stroke-linejoin:miter;stroke-opacity:1" d="M 470.205,827.746 470.205,810.219 z" id="boundary" inkscape:connector-curvature="0" />
	<path style="fill:none;stroke:red;stroke-width:1px;stroke-linecap:butt;stroke-linejoin:miter;stroke-opacity:1" d="M 443.915,864.551 452.678,838.261 z" id="boundary" inkscape:connector-curvature="0" />
	<path style="fill:none;stroke:red;stroke-width:1px;stroke-linecap:butt;stroke-linejoin:miter;stroke-opacity:1" d="M 452.678,838.261 470.205,827.746 z" id="boundary" inkscape:connector-curvature="0" />
	<path style="fill:none;stroke:red;stroke-width:1px;stroke-linecap:butt;stroke-linejoin:miter;stroke-opacity:1" d="M 838.261,531.548 820.735,531.548 z" id="boundary" inkscape:connector-curvature="0" />
	<path style="fill:none;stroke:red;stroke-width:1px;stroke-linecap:butt;stroke-linejoin:miter;stroke-opacity:1" d="M 869.809,519.279 873.314,496.495 z" id="boundary" inkscape:connector-curvature="0" />
	<path style="fill:none;stroke:red;stroke-width:1px;stroke-linecap:butt;stroke-linejoin:miter;stroke-opacity:1" d="M 873.314,496.495 890.841,478.968 z" id="boundary" inkscape:connector-curvature="0" />
	<path style="fill:none;stroke:red;stroke-width:1px;stroke-linecap:butt;stroke-linejoin:miter;stroke-opacity:1" d="M 838.261,531.548 855.788,531.548 z" id="boundary" inkscape:connector-curvature="0" />
	<path style="fill:none;stroke:red;stroke-width:1px;stroke-linecap:butt;stroke-linejoin:miter;stroke-opacity:1" d="M 811.972,549.074 820.735,531.548 z" id="boundary" inkscape:connector-curvature="0" />
	<path style="fill:none;stroke:red;stroke-width:1px;stroke-linecap:butt;stroke-linejoin:miter;stroke-opacity:1" d="M 869.809,519.279 855.788,531.548 z" id="boundary" inkscape:connector-curvature="0" />
	<path style="fill:none;stroke:red;stroke-width:1px;stroke-linecap:butt;stroke-linejoin:miter;stroke-opacity:1" d="M 811.972,549.074 794.445,566.601 z" id="boundary" inkscape:connector-curvature="0" />
	<path style="fill:none;stroke:red;stroke-width:1px;stroke-linecap:butt;stroke-linejoin:miter;stroke-opacity:1" d="M 934.657,386.078 925.894,408.862 z" id="boundary" inkscape:connector-curvature="0" />
	<path style="fill:none;stroke:red;stroke-width:1px;stroke-linecap:butt;stroke-linejoin:miter;stroke-opacity:1" d="M 925.894,408.862 908.367,408.862 z" id="boundary" inkscape:connector-curvature="0" />
	<path style="fill:none;stroke:red;stroke-width:1px;stroke-linecap:butt;stroke-linejoin:miter;stroke-opacity:1" d="M 908.367,426.389 908.367,408.862 z" id="boundary" inkscape:connector-curvature="0" />
	<path style="fill:none;stroke:red;stroke-width:1px;stroke-linecap:butt;stroke-linejoin:miter;stroke-opacity:1" d="M 890.841,478.968 899.604,452.678 z" id="boundary" inkscape:connector-curvature="0" />
	<path style="fill:none;stroke:red;stroke-width:1px;stroke-linecap:butt;stroke-linejoin:miter;stroke-opacity:1" d="M 908.367,426.389 899.604,452.678 z" id="boundary" inkscape:connector-curvature="0" />
	<path style="fill:none;stroke:red;stroke-width:1px;stroke-linecap:butt;stroke-linejoin:miter;stroke-opacity:1" d="M 748.876,654.233 738.36,668.254 z" id="boundary" inkscape:connector-curvature="0" />
	<path style="fill:none;stroke:red;stroke-width:1px;stroke-linecap:butt;stroke-linejoin:miter;stroke-opacity:1" d="M 738.36,668.254 720.834,671.76 z" id="boundary" inkscape:connector-curvature="0" />
	<path style="fill:none;stroke:red;stroke-width:1px;stroke-linecap:butt;stroke-linejoin:miter;stroke-opacity:1" d="M 720.834,671.76 703.307,671.76 z" id="boundary" inkscape:connector-curvature="0" />
	<path style="fill:none;stroke:red;stroke-width:1px;stroke-linecap:butt;stroke-linejoin:miter;stroke-opacity:1" d="M 687.534,680.523 703.307,671.76 z" id="boundary" inkscape:connector-curvature="0" />
	<path style="fill:none;stroke:red;stroke-width:1px;stroke-linecap:butt;stroke-linejoin:miter;stroke-opacity:1" d="M 652.481,680.523 670.007,680.523 z" id="boundary" inkscape:connector-curvature="0" />
	<path style="fill:none;stroke:red;stroke-width:1px;stroke-linecap:butt;stroke-linejoin:miter;stroke-opacity:1" d="M 687.534,680.523 670.007,680.523 z" id="boundary" inkscape:connector-curvature="0" />
	<path style="fill:none;stroke:red;stroke-width:1px;stroke-linecap:butt;stroke-linejoin:miter;stroke-opacity:1" d="M 794.445,566.601 794.445,584.127 z" id="boundary" inkscape:connector-curvature="0" />
	<path style="fill:none;stroke:red;stroke-width:1px;stroke-linecap:butt;stroke-linejoin:miter;stroke-opacity:1" d="M 794.445,584.127 785.682,610.417 z" id="boundary" inkscape:connector-curvature="0" />
	<path style="fill:none;stroke:red;stroke-width:1px;stroke-linecap:butt;stroke-linejoin:miter;stroke-opacity:1" d="M 764.65,645.47 748.876,654.233 z" id="boundary" inkscape:connector-curvature="0" />
	<path style="fill:none;stroke:red;stroke-width:1px;stroke-linecap:butt;stroke-linejoin:miter;stroke-opacity:1" d="M 785.682,610.417 780.424,634.954 z" id="boundary" inkscape:connector-curvature="0" />
	<path style="fill:none;stroke:red;stroke-width:1px;stroke-linecap:butt;stroke-linejoin:miter;stroke-opacity:1" d="M 780.424,634.954 764.65,645.47 z" id="boundary" inkscape:connector-curvature="0" />
	<path style="fill:none;stroke:red;stroke-width:1px;stroke-linecap:butt;stroke-linejoin:miter;stroke-opacity:1" d="M 934.657,368.551 934.657,386.078 z" id="boundary" inkscape:connector-curvature="0" />
	<circle cx="4" cy="342.261" r="4" fill="#0" id="circle0"/>
	<circle cx="4" cy="359.788" r="4" fill="#0" id="circle1"/>
	<circle cx="4" cy="377.314" r="4" fill="#0" id="circle2"/>
	<circle cx="4" cy="394.841" r="4" fill="#0" id="circle3"/>
	<circle cx="12.7633" cy="324.735" r="4" fill="#0" id="circle4"/>
	<circle cx="12.7633" cy="410.615" r="4" fill="#0" id="circle5"/>
	<circle cx="21.5265" cy="289.682" r="4" fill="#0" id="circle6"/>
	<circle cx="21.5265" cy="307.208" r="4" fill="#0" id="circle7"/>
	<circle cx="21.5265" cy="426.389" r="4" fill="#0" id="circle8"/>
	<circle cx="21.5265" cy="517.527" r="4" fill="#0" id="circle9"/>
	<circle cx="21.5265" cy="535.053" r="4" fill="#0" id="circle10"/>
	<circle cx="21.5265" cy="552.58" r="4" fill="#0" id="circle11"/>
	<circle cx="26.7845" cy="443.915" r="4" fill="#0" id="circle12"/>
	<circle cx="39.053" cy="280.919" r="4" fill="#0" id="circle13"/>
	<circle cx="39.053" cy="473.71" r="4" fill="#0" id="circle14"/>
	<circle cx="39.053" cy="491.237" r="4" fill="#0" id="circle15"/>
	<circle cx="39.053" cy="508.763" r="4" fill="#0" id="circle16"/>
	<circle cx="39.053" cy="557.837" r="4" fill="#0" id="circle17"/>
	<circle cx="39.053" cy="575.364" r="4" fill="#0" id="circle18"/>
	<circle cx="39.053" cy="592.89" r="4" fill="#0" id="circle19"/>
	<circle cx="44.311" cy="450.926" r="4" fill="#0" id="circle20"/>
	<circle cx="54.8269" cy="601.654" r="4" fill="#0" id="circle21"/>
	<circle cx="56.5795" cy="263.392" r="4" fill="#0" id="circle22"/>
	<circle cx="56.5795" cy="464.947" r="4" fill="#0" id="circle23"/>
	<circle cx="67.0954" cy="615.675" r="4" fill="#0" id="circle24"/>
	<circle cx="74.106" cy="258.134" r="4" fill="#0" id="circle25"/>
	<circle cx="82.8693" cy="624.438" r="4" fill="#0" id="circle26"/>
	<circle cx="89.8799" cy="249.371" r="4" fill="#0" id="circle27"/>
	<circle cx="91.6325" cy="210.813" r="4" fill="#0" id="circle28"/>
	<circle cx="91.6325" cy="228.339" r="4" fill="#0" id="circle29"/>
	<circle cx="96.8905" cy="636.707" r="4" fill="#0" id="circle30"/>
	<circle cx="100.396" cy="166.996" r="4" fill="#0" id="circle31"/>
	<circle cx="100.396" cy="184.523" r="4" fill="#0" id="circle32"/>
	<circle cx="112.664" cy="645.47" r="4" fill="#0" id="circle33"/>
	<circle cx="117.922" cy="140.707" r="4" fill="#0" id="circle34"/>
	<circle cx="117.922" cy="158.233" r="4" fill="#0" id="circle35"/>
	<circle cx="126.686" cy="114.417" r="4" fill="#0" id="circle36"/>
	<circle cx="130.191" cy="645.47" r="4" fill="#0" id="circle37"/>
	<circle cx="140.707" cy="100.396" r="4" fill="#0" id="circle38"/>
	<circle cx="145.965" cy="654.233" r="4" fill="#0" id="circle39"/>
	<circle cx="158.233" cy="100.396" r="4" fill="#0" id="circle40"/>
	<circle cx="161.739" cy="662.996" r="4" fill="#0" id="circle41"/>
	<circle cx="166.996" cy="82.8693" r="4" fill="#0" id="circle42"/>
	<circle cx="166.996" cy="680.523" r="4" fill="#0" id="circle43"/>
	<circle cx="175.76" cy="696.297" r="4" fill="#0" id="circle44"/>
	<circle cx="182.77" cy="713.823" r="4" fill="#0" id="circle45"/>
	<circle cx="184.523" cy="74.106" r="4" fill="#0" id="circle46"/>
	<circle cx="200.297" cy="720.834" r="4" fill="#0" id="circle47"/>
	<circle cx="202.049" cy="74.106" r="4" fill="#0" id="circle48"/>
	<circle cx="210.813" cy="56.5795" r="4" fill="#0" id="circle49"/>
	<circle cx="216.071" cy="729.597" r="4" fill="#0" id="circle50"/>
	<circle cx="228.339" cy="56.5795" r="4" fill="#0" id="circle51"/>
	<circle cx="233.597" cy="733.102" r="4" fill="#0" id="circle52"/>
	<circle cx="245.866" cy="56.5795" r="4" fill="#0" id="circle53"/>
	<circle cx="251.124" cy="733.102" r="4" fill="#0" id="circle54"/>
	<circle cx="259.887" cy="67.0954" r="4" fill="#0" id="circle55"/>
	<circle cx="268.65" cy="733.102" r="4" fill="#0" id="circle56"/>
	<circle cx="277.413" cy="74.106" r="4" fill="#0" id="circle57"/>
	<circle cx="286.177" cy="733.102" r="4" fill="#0" id="circle58"/>
	<circle cx="293.187" cy="806.714" r="4" fill="#0" id="circle59"/>
	<circle cx="293.187" cy="824.24" r="4" fill="#0" id="circle60"/>
	<circle cx="294.94" cy="79.364" r="4" fill="#0" id="circle61"/>
	<circle cx="301.951" cy="724.339" r="4" fill="#0" id="circle62"/>
	<circle cx="303.703" cy="838.261" r="4" fill="#0" id="circle63"/>
	<circle cx="310.714" cy="771.661" r="4" fill="#0" id="circle64"/>
	<circle cx="310.714" cy="789.187" r="4" fill="#0" id="circle65"/>
	<circle cx="310.714" cy="855.788" r="4" fill="#0" id="circle66"/>
	<circle cx="310.714" cy="894.346" r="4" fill="#0" id="circle67"/>
	<circle cx="310.714" cy="911.873" r="4" fill="#0" id="circle68"/>
	<circle cx="312.466" cy="82.8693" r="4" fill="#0" id="circle69"/>
	<circle cx="319.477" cy="724.339" r="4" fill="#0" id="circle70"/>
	<circle cx="319.477" cy="871.562" r="4" fill="#0" id="circle71"/>
	<circle cx="319.477" cy="927.647" r="4" fill="#0" id="circle72"/>
	<circle cx="319.477" cy="945.173" r="4" fill="#0" id="circle73"/>
	<circle cx="319.477" cy="962.7" r="4" fill="#0" id="circle74"/>
	<circle cx="324.735" cy="757.64" r="4" fill="#0" id="circle75"/>
	<circle cx="328.24" cy="53.0742" r="4" fill="#0" id="circle76"/>
	<circle cx="328.24" cy="70.6007" r="4" fill="#0" id="circle77"/>
	<circle cx="328.24" cy="978.473" r="4" fill="#0" id="circle78"/>
	<circle cx="333.498" cy="996" r="4" fill="#0" id="circle79"/>
	<circle cx="337.004" cy="724.339" r="4" fill="#0" id="circle80"/>
	<circle cx="342.261" cy="757.64" r="4" fill="#0" id="circle81"/>
	<circle cx="345.767" cy="47.8163" r="4" fill="#0" id="circle82"/>
	<circle cx="351.025" cy="996" r="4" fill="#0" id="circle83"/>
	<circle cx="354.53" cy="719.081" r="4" fill="#0" id="circle84"/>
	<circle cx="359.788" cy="748.876" r="4" fill="#0" id="circle85"/>
	<circle cx="361.541" cy="39.053" r="4" fill="#0" id="circle86"/>
	<circle cx="368.551" cy="21.5265" r="4" fill="#0" id="circle87"/>
	<circle cx="368.551" cy="994.247" r="4" fill="#0" id="circle88"/>
	<circle cx="372.057" cy="715.576" r="4" fill="#0" id="circle89"/>
	<circle cx="372.057" cy="733.102" r="4" fill="#0" id="circle90"/>
	<circle cx="377.314" cy="978.473" r="4" fill="#0" id="circle91"/>
	<circle cx="386.078" cy="21.5265" r="4" fill="#0" id="circle92"/>
	<circle cx="391.336" cy="952.184" r="4" fill="#0" id="circle93"/>
	<circle cx="401.852" cy="12.7633" r="4" fill="#0" id="circle94"/>
	<circle cx="405.357" cy="939.915" r="4" fill="#0" id="circle95"/>
	<circle cx="408.862" cy="873.314" r="4" fill="#0" id="circle96"/>
	<circle cx="415.873" cy="925.894" r="4" fill="#0" id="circle97"/>
	<circle cx="417.625" cy="889.088" r="4" fill="#0" id="circle98"/>
	<circle cx="419.378" cy="12.7633" r="4" fill="#0" id="circle99"/>
	<circle cx="426.389" cy="873.314" r="4" fill="#0" id="circle100"/>
	<circle cx="426.389" cy="904.862" r="4" fill="#0" id="circle101"/>
	<circle cx="436.905" cy="12.7633" r="4" fill="#0" id="circle102"/>
	<circle cx="443.915" cy="864.551" r="4" fill="#0" id="circle103"/>
	<circle cx="452.678" cy="21.5265" r="4" fill="#0" id="circle104"/>
	<circle cx="452.678" cy="838.261" r="4" fill="#0" id="circle105"/>
	<circle cx="461.442" cy="794.445" r="4" fill="#0" id="circle106"/>
	<circle cx="470.205" cy="26.7845" r="4" fill="#0" id="circle107"/>
	<circle cx="470.205" cy="810.219" r="4" fill="#0" id="circle108"/>
	<circle cx="470.205" cy="827.746" r="4" fill="#0" id="circle109"/>
	<circle cx="477.216" cy="44.311" r="4" fill="#0" id="circle110"/>
	<circle cx="478.968" cy="794.445" r="4" fill="#0" id="circle111"/>
	<circle cx="494.742" cy="39.053" r="4" fill="#0" id="circle112"/>
	<circle cx="496.495" cy="794.445" r="4" fill="#0" id="circle113"/>
	<circle cx="505.258" cy="25.0318" r="4" fill="#0" id="circle114"/>
	<circle cx="505.258" cy="768.155" r="4" fill="#0" id="circle115"/>
	<circle cx="519.279" cy="12.7633" r="4" fill="#0" id="circle116"/>
	<circle cx="522.784" cy="768.155" r="4" fill="#0" id="circle117"/>
	<circle cx="536.806" cy="12.7633" r="4" fill="#0" id="circle118"/>
	<circle cx="540.311" cy="768.155" r="4" fill="#0" id="circle119"/>
	<circle cx="552.58" cy="4" r="4" fill="#0" id="circle120"/>
	<circle cx="556.085" cy="759.392" r="4" fill="#0" id="circle121"/>
	<circle cx="570.106" cy="4" r="4" fill="#0" id="circle122"/>
	<circle cx="571.859" cy="750.629" r="4" fill="#0" id="circle123"/>
	<circle cx="584.127" cy="733.102" r="4" fill="#0" id="circle124"/>
	<circle cx="587.633" cy="4" r="4" fill="#0" id="circle125"/>
	<circle cx="592.89" cy="715.576" r="4" fill="#0" id="circle126"/>
	<circle cx="601.654" cy="680.523" r="4" fill="#0" id="circle127"/>
	<circle cx="601.654" cy="698.049" r="4" fill="#0" id="circle128"/>
	<circle cx="603.406" cy="12.7633" r="4" fill="#0" id="circle129"/>
	<circle cx="619.18" cy="21.5265" r="4" fill="#0" id="circle130"/>
	<circle cx="619.18" cy="671.76" r="4" fill="#0" id="circle131"/>
	<circle cx="627.943" cy="37.3004" r="4" fill="#0" id="circle132"/>
	<circle cx="636.707" cy="671.76" r="4" fill="#0" id="circle133"/>
	<circle cx="643.717" cy="26.7845" r="4" fill="#0" id="circle134"/>
	<circle cx="652.481" cy="680.523" r="4" fill="#0" id="circle135"/>
	<circle cx="661.244" cy="21.5265" r="4" fill="#0" id="circle136"/>
	<circle cx="670.007" cy="680.523" r="4" fill="#0" id="circle137"/>
	<circle cx="677.018" cy="12.7633" r="4" fill="#0" id="circle138"/>
	<circle cx="687.534" cy="680.523" r="4" fill="#0" id="circle139"/>
	<circle cx="694.544" cy="12.7633" r="4" fill="#0" id="circle140"/>
	<circle cx="703.307" cy="671.76" r="4" fill="#0" id="circle141"/>
	<circle cx="710.318" cy="4" r="4" fill="#0" id="circle142"/>
	<circle cx="720.834" cy="671.76" r="4" fill="#0" id="circle143"/>
	<circle cx="727.845" cy="4" r="4" fill="#0" id="circle144"/>
	<circle cx="738.36" cy="668.254" r="4" fill="#0" id="circle145"/>
	<circle cx="745.371" cy="4" r="4" fill="#0" id="circle146"/>
	<circle cx="748.876" cy="654.233" r="4" fill="#0" id="circle147"/>
	<circle cx="761.145" cy="12.7633" r="4" fill="#0" id="circle148"/>
	<circle cx="764.65" cy="645.47" r="4" fill="#0" id="circle149"/>
	<circle cx="776.919" cy="21.5265" r="4" fill="#0" id="circle150"/>
	<circle cx="780.424" cy="634.954" r="4" fill="#0" id="circle151"/>
	<circle cx="785.682" cy="610.417" r="4" fill="#0" id="circle152"/>
	<circle cx="794.445" cy="26.7845" r="4" fill="#0" id="circle153"/>
	<circle cx="794.445" cy="44.311" r="4" fill="#0" id="circle154"/>
	<circle cx="794.445" cy="566.601" r="4" fill="#0" id="circle155"/>
	<circle cx="794.445" cy="584.127" r="4" fill="#0" id="circle156"/>
	<circle cx="810.219" cy="53.0742" r="4" fill="#0" id="circle157"/>
	<circle cx="811.972" cy="70.6007" r="4" fill="#0" id="circle158"/>
	<circle cx="811.972" cy="549.074" r="4" fill="#0" id="circle159"/>
	<circle cx="820.735" cy="86.3746" r="4" fill="#0" id="circle160"/>
	<circle cx="820.735" cy="531.548" r="4" fill="#0" id="circle161"/>
	<circle cx="831.251" cy="100.396" r="4" fill="#0" id="circle162"/>
	<circle cx="838.261" cy="531.548" r="4" fill="#0" id="circle163"/>
	<circle cx="847.025" cy="109.159" r="4" fill="#0" id="circle164"/>
	<circle cx="855.788" cy="531.548" r="4" fill="#0" id="circle165"/>
	<circle cx="864.551" cy="114.417" r="4" fill="#0" id="circle166"/>
	<circle cx="869.809" cy="519.279" r="4" fill="#0" id="circle167"/>
	<circle cx="871.562" cy="131.943" r="4" fill="#0" id="circle168"/>
	<circle cx="873.314" cy="496.495" r="4" fill="#0" id="circle169"/>
	<circle cx="889.088" cy="138.954" r="4" fill="#0" id="circle170"/>
	<circle cx="890.841" cy="478.968" r="4" fill="#0" id="circle171"/>
	<circle cx="899.604" cy="152.975" r="4" fill="#0" id="circle172"/>
	<circle cx="899.604" cy="170.502" r="4" fill="#0" id="circle173"/>
	<circle cx="899.604" cy="259.887" r="4" fill="#0" id="circle174"/>
	<circle cx="899.604" cy="277.413" r="4" fill="#0" id="circle175"/>
	<circle cx="899.604" cy="452.678" r="4" fill="#0" id="circle176"/>
	<circle cx="908.367" cy="186.276" r="4" fill="#0" id="circle177"/>
	<circle cx="908.367" cy="203.802" r="4" fill="#0" id="circle178"/>
	<circle cx="908.367" cy="221.329" r="4" fill="#0" id="circle179"/>
	<circle cx="908.367" cy="238.855" r="4" fill="#0" id="circle180"/>
	<circle cx="908.367" cy="293.187" r="4" fill="#0" id="circle181"/>
	<circle cx="908.367" cy="310.714" r="4" fill="#0" id="circle182"/>
	<circle cx="908.367" cy="408.862" r="4" fill="#0" id="circle183"/>
	<circle cx="908.367" cy="426.389" r="4" fill="#0" id="circle184"/>
	<circle cx="924.141" cy="319.477" r="4" fill="#0" id="circle185"/>
	<circle cx="925.894" cy="408.862" r="4" fill="#0" id="circle186"/>
	<circle cx="934.657" cy="333.498" r="4" fill="#0" id="circle187"/>
	<circle cx="934.657" cy="351.025" r="4" fill="#0" id="circle188"/>
	<circle cx="934.657" cy="368.551" r="4" fill="#0" id="circle189"/>
	<circle cx="934.657" cy="386.078" r="4" fill="#0" id="circle190"/>
	</g>
</svg>