<?xml version="1.0" encoding="UTF-8" standalone="no"?>
<!-- Created with CurveBenchmark -->
<svg
	xmlns:dc="http://purl.org/dc/elements/1.1/"
	xmlns:cc="http://creativecommons.org/ns#"
	xmlns:rdf="http://www.w3.org/1999/02/22-rdf-syntax-ns#"
	xmlns:svg="http://www.w3.org/2000/svg"
	xmlns="http://www.w3.org/2000/svg"
	xmlns:sodipodi="http://sodipodi.sourceforge.net/DTD/sodipodi-0.dtd"
	xmlns:inkscape="http://www.inkscape.org/namespaces/inkscape"
	width="1000"
	height="1000"
	id="svg2"
	version="1.1"
	sodipodi:docname="manifold/ccrust-textbox44.png.txt">
<defs
	id="defs4" />
<metadata
	id="metadata7">
	<rdf:RDF>
		<cc:Work
			rdf:about="">
			<dc:format>image/svg+xml</dc:format>
			<dc:type
				rdf:resource="http://purl.org/dc/dcmitype/StillImage" />
			<dc:title></dc:title>
		</cc:Work>
	</rdf:RDF>
</metadata>
<g
	inkscape:label="Layer 1"
	inkscape:groupmode="layer"
	id="layer1">
	<path style="fill:none;stroke:red;stroke-width:1px;stroke-linecap:butt;stroke-linejoin:miter;stroke-opacity:1" d="M 4,154.553 4,133.929 z" id="boundary" inkscape:connector-curvature="0" />
	<path style="fill:none;stroke:red;stroke-width:1px;stroke-linecap:butt;stroke-linejoin:miter;stroke-opacity:1" d="M 4,133.929 24.6237,123.617 z" id="boundary" inkscape:connector-curvature="0" />
	<path style="fill:none;stroke:red;stroke-width:1px;stroke-linecap:butt;stroke-linejoin:miter;stroke-opacity:1" d="M 4,195.8 4,175.177 z" id="boundary" inkscape:connector-curvature="0" />
	<path style="fill:none;stroke:red;stroke-width:1px;stroke-linecap:butt;stroke-linejoin:miter;stroke-opacity:1" d="M 16.3742,212.299 4,195.8 z" id="boundary" inkscape:connector-curvature="0" />
	<path style="fill:none;stroke:red;stroke-width:1px;stroke-linecap:butt;stroke-linejoin:miter;stroke-opacity:1" d="M 4,175.177 4,154.553 z" id="boundary" inkscape:connector-curvature="0" />
	<path style="fill:none;stroke:red;stroke-width:1px;stroke-linecap:butt;stroke-linejoin:miter;stroke-opacity:1" d="M 24.6237,102.994 41.1227,86.4948 z" id="boundary" inkscape:connector-curvature="0" />
	<path style="fill:none;stroke:red;stroke-width:1px;stroke-linecap:butt;stroke-linejoin:miter;stroke-opacity:1" d="M 24.6237,123.617 24.6237,102.994 z" id="boundary" inkscape:connector-curvature="0" />
	<path style="fill:none;stroke:red;stroke-width:1px;stroke-linecap:butt;stroke-linejoin:miter;stroke-opacity:1" d="M 24.6237,232.923 16.3742,212.299 z" id="boundary" inkscape:connector-curvature="0" />
	<path style="fill:none;stroke:red;stroke-width:1px;stroke-linecap:butt;stroke-linejoin:miter;stroke-opacity:1" d="M 24.6237,253.547 24.6237,232.923 z" id="boundary" inkscape:connector-curvature="0" />
	<path style="fill:none;stroke:red;stroke-width:1px;stroke-linecap:butt;stroke-linejoin:miter;stroke-opacity:1" d="M 24.6237,253.547 24.6237,274.17 z" id="boundary" inkscape:connector-curvature="0" />
	<path style="fill:none;stroke:red;stroke-width:1px;stroke-linecap:butt;stroke-linejoin:miter;stroke-opacity:1" d="M 24.6237,294.794 24.6237,315.418 z" id="boundary" inkscape:connector-curvature="0" />
	<path style="fill:none;stroke:red;stroke-width:1px;stroke-linecap:butt;stroke-linejoin:miter;stroke-opacity:1" d="M 24.6237,336.042 24.6237,315.418 z" id="boundary" inkscape:connector-curvature="0" />
	<path style="fill:none;stroke:red;stroke-width:1px;stroke-linecap:butt;stroke-linejoin:miter;stroke-opacity:1" d="M 24.6237,294.794 24.6237,274.17 z" id="boundary" inkscape:connector-curvature="0" />
	<path style="fill:none;stroke:red;stroke-width:1px;stroke-linecap:butt;stroke-linejoin:miter;stroke-opacity:1" d="M 24.6237,356.665 24.6237,377.289 z" id="boundary" inkscape:connector-curvature="0" />
	<path style="fill:none;stroke:red;stroke-width:1px;stroke-linecap:butt;stroke-linejoin:miter;stroke-opacity:1" d="M 24.6237,397.913 24.6237,418.536 z" id="boundary" inkscape:connector-curvature="0" />
	<path style="fill:none;stroke:red;stroke-width:1px;stroke-linecap:butt;stroke-linejoin:miter;stroke-opacity:1" d="M 24.6237,439.16 24.6237,418.536 z" id="boundary" inkscape:connector-curvature="0" />
	<path style="fill:none;stroke:red;stroke-width:1px;stroke-linecap:butt;stroke-linejoin:miter;stroke-opacity:1" d="M 24.6237,397.913 24.6237,377.289 z" id="boundary" inkscape:connector-curvature="0" />
	<path style="fill:none;stroke:red;stroke-width:1px;stroke-linecap:butt;stroke-linejoin:miter;stroke-opacity:1" d="M 24.6237,336.042 24.6237,356.665 z" id="boundary" inkscape:connector-curvature="0" />
	<path style="fill:none;stroke:red;stroke-width:1px;stroke-linecap:butt;stroke-linejoin:miter;stroke-opacity:1" d="M 41.1227,86.4948 59.684,76.183 z" id="boundary" inkscape:connector-curvature="0" />
	<path style="fill:none;stroke:red;stroke-width:1px;stroke-linecap:butt;stroke-linejoin:miter;stroke-opacity:1" d="M 24.6237,439.16 24.6237,459.784 z" id="boundary" inkscape:connector-curvature="0" />
	<path style="fill:none;stroke:red;stroke-width:1px;stroke-linecap:butt;stroke-linejoin:miter;stroke-opacity:1" d="M 146.304,24.6237 166.927,24.6237 z" id="boundary" inkscape:connector-curvature="0" />
	<path style="fill:none;stroke:red;stroke-width:1px;stroke-linecap:butt;stroke-linejoin:miter;stroke-opacity:1" d="M 129.805,39.0603 146.304,24.6237 z" id="boundary" inkscape:connector-curvature="0" />
	<path style="fill:none;stroke:red;stroke-width:1px;stroke-linecap:butt;stroke-linejoin:miter;stroke-opacity:1" d="M 187.551,24.6237 208.175,24.6237 z" id="boundary" inkscape:connector-curvature="0" />
	<path style="fill:none;stroke:red;stroke-width:1px;stroke-linecap:butt;stroke-linejoin:miter;stroke-opacity:1" d="M 187.551,24.6237 166.927,24.6237 z" id="boundary" inkscape:connector-curvature="0" />
	<path style="fill:none;stroke:red;stroke-width:1px;stroke-linecap:butt;stroke-linejoin:miter;stroke-opacity:1" d="M 228.798,24.6237 249.422,24.6237 z" id="boundary" inkscape:connector-curvature="0" />
	<path style="fill:none;stroke:red;stroke-width:1px;stroke-linecap:butt;stroke-linejoin:miter;stroke-opacity:1" d="M 270.046,24.6237 290.669,24.6237 z" id="boundary" inkscape:connector-curvature="0" />
	<path style="fill:none;stroke:red;stroke-width:1px;stroke-linecap:butt;stroke-linejoin:miter;stroke-opacity:1" d="M 311.293,24.6237 290.669,24.6237 z" id="boundary" inkscape:connector-curvature="0" />
	<path style="fill:none;stroke:red;stroke-width:1px;stroke-linecap:butt;stroke-linejoin:miter;stroke-opacity:1" d="M 270.046,24.6237 249.422,24.6237 z" id="boundary" inkscape:connector-curvature="0" />
	<path style="fill:none;stroke:red;stroke-width:1px;stroke-linecap:butt;stroke-linejoin:miter;stroke-opacity:1" d="M 228.798,24.6237 208.175,24.6237 z" id="boundary" inkscape:connector-curvature="0" />
	<path style="fill:none;stroke:red;stroke-width:1px;stroke-linecap:butt;stroke-linejoin:miter;stroke-opacity:1" d="M 129.805,39.0603 117.43,55.5593 z" id="boundary" inkscape:connector-curvature="0" />
	<path style="fill:none;stroke:red;stroke-width:1px;stroke-linecap:butt;stroke-linejoin:miter;stroke-opacity:1" d="M 117.43,55.5593 96.8067,55.5593 z" id="boundary" inkscape:connector-curvature="0" />
	<path style="fill:none;stroke:red;stroke-width:1px;stroke-linecap:butt;stroke-linejoin:miter;stroke-opacity:1" d="M 96.8067,55.5593 76.183,61.7464 z" id="boundary" inkscape:connector-curvature="0" />
	<path style="fill:none;stroke:red;stroke-width:1px;stroke-linecap:butt;stroke-linejoin:miter;stroke-opacity:1" d="M 59.684,76.183 76.183,61.7464 z" id="boundary" inkscape:connector-curvature="0" />
	<path style="fill:none;stroke:red;stroke-width:1px;stroke-linecap:butt;stroke-linejoin:miter;stroke-opacity:1" d="M 352.541,24.6237 331.917,24.6237 z" id="boundary" inkscape:connector-curvature="0" />
	<path style="fill:none;stroke:red;stroke-width:1px;stroke-linecap:butt;stroke-linejoin:miter;stroke-opacity:1" d="M 393.788,24.6237 373.164,24.6237 z" id="boundary" inkscape:connector-curvature="0" />
	<path style="fill:none;stroke:red;stroke-width:1px;stroke-linecap:butt;stroke-linejoin:miter;stroke-opacity:1" d="M 414.412,24.6237 393.788,24.6237 z" id="boundary" inkscape:connector-curvature="0" />
	<path style="fill:none;stroke:red;stroke-width:1px;stroke-linecap:butt;stroke-linejoin:miter;stroke-opacity:1" d="M 352.541,24.6237 373.164,24.6237 z" id="boundary" inkscape:connector-curvature="0" />
	<path style="fill:none;stroke:red;stroke-width:1px;stroke-linecap:butt;stroke-linejoin:miter;stroke-opacity:1" d="M 311.293,24.6237 331.917,24.6237 z" id="boundary" inkscape:connector-curvature="0" />
	<path style="fill:none;stroke:red;stroke-width:1px;stroke-linecap:butt;stroke-linejoin:miter;stroke-opacity:1" d="M 24.6237,459.784 24.6237,480.407 z" id="boundary" inkscape:connector-curvature="0" />
	<path style="fill:none;stroke:red;stroke-width:1px;stroke-linecap:butt;stroke-linejoin:miter;stroke-opacity:1" d="M 24.6237,501.031 24.6237,521.655 z" id="boundary" inkscape:connector-curvature="0" />
	<path style="fill:none;stroke:red;stroke-width:1px;stroke-linecap:butt;stroke-linejoin:miter;stroke-opacity:1" d="M 24.6237,501.031 24.6237,480.407 z" id="boundary" inkscape:connector-curvature="0" />
	<path style="fill:none;stroke:red;stroke-width:1px;stroke-linecap:butt;stroke-linejoin:miter;stroke-opacity:1" d="M 30.8108,542.279 47.3098,556.715 z" id="boundary" inkscape:connector-curvature="0" />
	<path style="fill:none;stroke:red;stroke-width:1px;stroke-linecap:butt;stroke-linejoin:miter;stroke-opacity:1" d="M 47.3098,556.715 55.5593,577.339 z" id="boundary" inkscape:connector-curvature="0" />
	<path style="fill:none;stroke:red;stroke-width:1px;stroke-linecap:butt;stroke-linejoin:miter;stroke-opacity:1" d="M 30.8108,542.279 24.6237,521.655 z" id="boundary" inkscape:connector-curvature="0" />
	<path style="fill:none;stroke:red;stroke-width:1px;stroke-linecap:butt;stroke-linejoin:miter;stroke-opacity:1" d="M 55.5593,577.339 76.183,583.526 z" id="boundary" inkscape:connector-curvature="0" />
	<path style="fill:none;stroke:red;stroke-width:1px;stroke-linecap:butt;stroke-linejoin:miter;stroke-opacity:1" d="M 76.183,583.526 94.7443,593.838 z" id="boundary" inkscape:connector-curvature="0" />
	<path style="fill:none;stroke:red;stroke-width:1px;stroke-linecap:butt;stroke-linejoin:miter;stroke-opacity:1" d="M 113.306,604.15 133.929,604.15 z" id="boundary" inkscape:connector-curvature="0" />
	<path style="fill:none;stroke:red;stroke-width:1px;stroke-linecap:butt;stroke-linejoin:miter;stroke-opacity:1" d="M 113.306,604.15 94.7443,593.838 z" id="boundary" inkscape:connector-curvature="0" />
	<path style="fill:none;stroke:red;stroke-width:1px;stroke-linecap:butt;stroke-linejoin:miter;stroke-opacity:1" d="M 168.99,620.649 179.301,639.21 z" id="boundary" inkscape:connector-curvature="0" />
	<path style="fill:none;stroke:red;stroke-width:1px;stroke-linecap:butt;stroke-linejoin:miter;stroke-opacity:1" d="M 133.929,604.15 154.553,604.15 z" id="boundary" inkscape:connector-curvature="0" />
	<path style="fill:none;stroke:red;stroke-width:1px;stroke-linecap:butt;stroke-linejoin:miter;stroke-opacity:1" d="M 154.553,604.15 168.99,620.649 z" id="boundary" inkscape:connector-curvature="0" />
	<path style="fill:none;stroke:red;stroke-width:1px;stroke-linecap:butt;stroke-linejoin:miter;stroke-opacity:1" d="M 189.613,657.771 189.613,678.395 z" id="boundary" inkscape:connector-curvature="0" />
	<path style="fill:none;stroke:red;stroke-width:1px;stroke-linecap:butt;stroke-linejoin:miter;stroke-opacity:1" d="M 179.301,639.21 189.613,657.771 z" id="boundary" inkscape:connector-curvature="0" />
	<path style="fill:none;stroke:red;stroke-width:1px;stroke-linecap:butt;stroke-linejoin:miter;stroke-opacity:1" d="M 199.925,696.956 189.613,678.395 z" id="boundary" inkscape:connector-curvature="0" />
	<path style="fill:none;stroke:red;stroke-width:1px;stroke-linecap:butt;stroke-linejoin:miter;stroke-opacity:1" d="M 199.925,696.956 210.237,715.518 z" id="boundary" inkscape:connector-curvature="0" />
	<path style="fill:none;stroke:red;stroke-width:1px;stroke-linecap:butt;stroke-linejoin:miter;stroke-opacity:1" d="M 210.237,715.518 210.237,736.141 z" id="boundary" inkscape:connector-curvature="0" />
	<path style="fill:none;stroke:red;stroke-width:1px;stroke-linecap:butt;stroke-linejoin:miter;stroke-opacity:1" d="M 210.237,736.141 210.237,756.765 z" id="boundary" inkscape:connector-curvature="0" />
	<path style="fill:none;stroke:red;stroke-width:1px;stroke-linecap:butt;stroke-linejoin:miter;stroke-opacity:1" d="M 325.73,748.516 346.353,748.516 z" id="boundary" inkscape:connector-curvature="0" />
	<path style="fill:none;stroke:red;stroke-width:1px;stroke-linecap:butt;stroke-linejoin:miter;stroke-opacity:1" d="M 315.418,769.139 325.73,748.516 z" id="boundary" inkscape:connector-curvature="0" />
	<path style="fill:none;stroke:red;stroke-width:1px;stroke-linecap:butt;stroke-linejoin:miter;stroke-opacity:1" d="M 356.665,717.58 346.353,748.516 z" id="boundary" inkscape:connector-curvature="0" />
	<path style="fill:none;stroke:red;stroke-width:1px;stroke-linecap:butt;stroke-linejoin:miter;stroke-opacity:1" d="M 226.736,769.139 210.237,756.765 z" id="boundary" inkscape:connector-curvature="0" />
	<path style="fill:none;stroke:red;stroke-width:1px;stroke-linecap:butt;stroke-linejoin:miter;stroke-opacity:1" d="M 315.418,769.139 305.106,789.763 z" id="boundary" inkscape:connector-curvature="0" />
	<path style="fill:none;stroke:red;stroke-width:1px;stroke-linecap:butt;stroke-linejoin:miter;stroke-opacity:1" d="M 226.736,769.139 230.861,789.763 z" id="boundary" inkscape:connector-curvature="0" />
	<path style="fill:none;stroke:red;stroke-width:1px;stroke-linecap:butt;stroke-linejoin:miter;stroke-opacity:1" d="M 397.913,645.397 414.412,630.96 z" id="boundary" inkscape:connector-curvature="0" />
	<path style="fill:none;stroke:red;stroke-width:1px;stroke-linecap:butt;stroke-linejoin:miter;stroke-opacity:1" d="M 418.536,593.838 414.412,630.96 z" id="boundary" inkscape:connector-curvature="0" />
	<path style="fill:none;stroke:red;stroke-width:1px;stroke-linecap:butt;stroke-linejoin:miter;stroke-opacity:1" d="M 356.665,717.58 366.977,686.644 z" id="boundary" inkscape:connector-curvature="0" />
	<path style="fill:none;stroke:red;stroke-width:1px;stroke-linecap:butt;stroke-linejoin:miter;stroke-opacity:1" d="M 366.977,686.644 377.289,655.709 z" id="boundary" inkscape:connector-curvature="0" />
	<path style="fill:none;stroke:red;stroke-width:1px;stroke-linecap:butt;stroke-linejoin:miter;stroke-opacity:1" d="M 377.289,655.709 397.913,645.397 z" id="boundary" inkscape:connector-curvature="0" />
	<path style="fill:none;stroke:red;stroke-width:1px;stroke-linecap:butt;stroke-linejoin:miter;stroke-opacity:1" d="M 230.861,789.763 230.861,810.387 z" id="boundary" inkscape:connector-curvature="0" />
	<path style="fill:none;stroke:red;stroke-width:1px;stroke-linecap:butt;stroke-linejoin:miter;stroke-opacity:1" d="M 241.173,828.948 230.861,810.387 z" id="boundary" inkscape:connector-curvature="0" />
	<path style="fill:none;stroke:red;stroke-width:1px;stroke-linecap:butt;stroke-linejoin:miter;stroke-opacity:1" d="M 265.921,861.946 245.297,870.195 z" id="boundary" inkscape:connector-curvature="0" />
	<path style="fill:none;stroke:red;stroke-width:1px;stroke-linecap:butt;stroke-linejoin:miter;stroke-opacity:1" d="M 245.297,870.195 241.173,849.572 z" id="boundary" inkscape:connector-curvature="0" />
	<path style="fill:none;stroke:red;stroke-width:1px;stroke-linecap:butt;stroke-linejoin:miter;stroke-opacity:1" d="M 241.173,849.572 241.173,828.948 z" id="boundary" inkscape:connector-curvature="0" />
	<path style="fill:none;stroke:red;stroke-width:1px;stroke-linecap:butt;stroke-linejoin:miter;stroke-opacity:1" d="M 292.732,810.387 305.106,789.763 z" id="boundary" inkscape:connector-curvature="0" />
	<path style="fill:none;stroke:red;stroke-width:1px;stroke-linecap:butt;stroke-linejoin:miter;stroke-opacity:1" d="M 292.732,810.387 274.17,820.699 z" id="boundary" inkscape:connector-curvature="0" />
	<path style="fill:none;stroke:red;stroke-width:1px;stroke-linecap:butt;stroke-linejoin:miter;stroke-opacity:1" d="M 274.17,841.322 265.921,861.946 z" id="boundary" inkscape:connector-curvature="0" />
	<path style="fill:none;stroke:red;stroke-width:1px;stroke-linecap:butt;stroke-linejoin:miter;stroke-opacity:1" d="M 274.17,820.699 274.17,841.322 z" id="boundary" inkscape:connector-curvature="0" />
	<path style="fill:none;stroke:red;stroke-width:1px;stroke-linecap:butt;stroke-linejoin:miter;stroke-opacity:1" d="M 573.214,4 593.838,4 z" id="boundary" inkscape:connector-curvature="0" />
	<path style="fill:none;stroke:red;stroke-width:1px;stroke-linecap:butt;stroke-linejoin:miter;stroke-opacity:1" d="M 614.462,4 635.085,4 z" id="boundary" inkscape:connector-curvature="0" />
	<path style="fill:none;stroke:red;stroke-width:1px;stroke-linecap:butt;stroke-linejoin:miter;stroke-opacity:1" d="M 593.838,4 614.462,4 z" id="boundary" inkscape:connector-curvature="0" />
	<path style="fill:none;stroke:red;stroke-width:1px;stroke-linecap:butt;stroke-linejoin:miter;stroke-opacity:1" d="M 676.333,4 696.956,4 z" id="boundary" inkscape:connector-curvature="0" />
	<path style="fill:none;stroke:red;stroke-width:1px;stroke-linecap:butt;stroke-linejoin:miter;stroke-opacity:1" d="M 696.956,4 717.58,4 z" id="boundary" inkscape:connector-curvature="0" />
	<path style="fill:none;stroke:red;stroke-width:1px;stroke-linecap:butt;stroke-linejoin:miter;stroke-opacity:1" d="M 655.709,4 676.333,4 z" id="boundary" inkscape:connector-curvature="0" />
	<path style="fill:none;stroke:red;stroke-width:1px;stroke-linecap:butt;stroke-linejoin:miter;stroke-opacity:1" d="M 635.085,4 655.709,4 z" id="boundary" inkscape:connector-curvature="0" />
	<path style="fill:none;stroke:red;stroke-width:1px;stroke-linecap:butt;stroke-linejoin:miter;stroke-opacity:1" d="M 435.035,24.6237 455.659,24.6237 z" id="boundary" inkscape:connector-curvature="0" />
	<path style="fill:none;stroke:red;stroke-width:1px;stroke-linecap:butt;stroke-linejoin:miter;stroke-opacity:1" d="M 476.283,24.6237 496.906,24.6237 z" id="boundary" inkscape:connector-curvature="0" />
	<path style="fill:none;stroke:red;stroke-width:1px;stroke-linecap:butt;stroke-linejoin:miter;stroke-opacity:1" d="M 517.53,24.6237 496.906,24.6237 z" id="boundary" inkscape:connector-curvature="0" />
	<path style="fill:none;stroke:red;stroke-width:1px;stroke-linecap:butt;stroke-linejoin:miter;stroke-opacity:1" d="M 476.283,24.6237 455.659,24.6237 z" id="boundary" inkscape:connector-curvature="0" />
	<path style="fill:none;stroke:red;stroke-width:1px;stroke-linecap:butt;stroke-linejoin:miter;stroke-opacity:1" d="M 738.204,4 758.827,4 z" id="boundary" inkscape:connector-curvature="0" />
	<path style="fill:none;stroke:red;stroke-width:1px;stroke-linecap:butt;stroke-linejoin:miter;stroke-opacity:1" d="M 538.154,24.6237 552.59,8.12474 z" id="boundary" inkscape:connector-curvature="0" />
	<path style="fill:none;stroke:red;stroke-width:1px;stroke-linecap:butt;stroke-linejoin:miter;stroke-opacity:1" d="M 552.59,8.12474 573.214,4 z" id="boundary" inkscape:connector-curvature="0" />
	<path style="fill:none;stroke:red;stroke-width:1px;stroke-linecap:butt;stroke-linejoin:miter;stroke-opacity:1" d="M 538.154,24.6237 517.53,24.6237 z" id="boundary" inkscape:connector-curvature="0" />
	<path style="fill:none;stroke:red;stroke-width:1px;stroke-linecap:butt;stroke-linejoin:miter;stroke-opacity:1" d="M 758.827,4 779.451,4 z" id="boundary" inkscape:connector-curvature="0" />
	<path style="fill:none;stroke:red;stroke-width:1px;stroke-linecap:butt;stroke-linejoin:miter;stroke-opacity:1" d="M 779.451,4 800.075,4 z" id="boundary" inkscape:connector-curvature="0" />
	<path style="fill:none;stroke:red;stroke-width:1px;stroke-linecap:butt;stroke-linejoin:miter;stroke-opacity:1" d="M 717.58,4 738.204,4 z" id="boundary" inkscape:connector-curvature="0" />
	<path style="fill:none;stroke:red;stroke-width:1px;stroke-linecap:butt;stroke-linejoin:miter;stroke-opacity:1" d="M 435.035,24.6237 414.412,24.6237 z" id="boundary" inkscape:connector-curvature="0" />
	<path style="fill:none;stroke:red;stroke-width:1px;stroke-linecap:butt;stroke-linejoin:miter;stroke-opacity:1" d="M 820.699,4 841.322,10.1871 z" id="boundary" inkscape:connector-curvature="0" />
	<path style="fill:none;stroke:red;stroke-width:1px;stroke-linecap:butt;stroke-linejoin:miter;stroke-opacity:1" d="M 841.322,10.1871 857.821,24.6237 z" id="boundary" inkscape:connector-curvature="0" />
	<path style="fill:none;stroke:red;stroke-width:1px;stroke-linecap:butt;stroke-linejoin:miter;stroke-opacity:1" d="M 857.821,24.6237 878.445,24.6237 z" id="boundary" inkscape:connector-curvature="0" />
	<path style="fill:none;stroke:red;stroke-width:1px;stroke-linecap:butt;stroke-linejoin:miter;stroke-opacity:1" d="M 899.069,26.6861 878.445,24.6237 z" id="boundary" inkscape:connector-curvature="0" />
	<path style="fill:none;stroke:red;stroke-width:1px;stroke-linecap:butt;stroke-linejoin:miter;stroke-opacity:1" d="M 899.069,26.6861 919.692,34.9356 z" id="boundary" inkscape:connector-curvature="0" />
	<path style="fill:none;stroke:red;stroke-width:1px;stroke-linecap:butt;stroke-linejoin:miter;stroke-opacity:1" d="M 919.692,34.9356 934.129,51.4345 z" id="boundary" inkscape:connector-curvature="0" />
	<path style="fill:none;stroke:red;stroke-width:1px;stroke-linecap:butt;stroke-linejoin:miter;stroke-opacity:1" d="M 934.129,51.4345 952.69,61.7464 z" id="boundary" inkscape:connector-curvature="0" />
	<path style="fill:none;stroke:red;stroke-width:1px;stroke-linecap:butt;stroke-linejoin:miter;stroke-opacity:1" d="M 952.69,61.7464 963.002,80.3077 z" id="boundary" inkscape:connector-curvature="0" />
	<path style="fill:none;stroke:red;stroke-width:1px;stroke-linecap:butt;stroke-linejoin:miter;stroke-opacity:1" d="M 963.002,80.3077 971.252,100.931 z" id="boundary" inkscape:connector-curvature="0" />
	<path style="fill:none;stroke:red;stroke-width:1px;stroke-linecap:butt;stroke-linejoin:miter;stroke-opacity:1" d="M 975.376,121.555 975.376,142.179 z" id="boundary" inkscape:connector-curvature="0" />
	<path style="fill:none;stroke:red;stroke-width:1px;stroke-linecap:butt;stroke-linejoin:miter;stroke-opacity:1" d="M 975.376,142.179 975.376,162.802 z" id="boundary" inkscape:connector-curvature="0" />
	<path style="fill:none;stroke:red;stroke-width:1px;stroke-linecap:butt;stroke-linejoin:miter;stroke-opacity:1" d="M 975.376,183.426 975.376,162.802 z" id="boundary" inkscape:connector-curvature="0" />
	<path style="fill:none;stroke:red;stroke-width:1px;stroke-linecap:butt;stroke-linejoin:miter;stroke-opacity:1" d="M 975.376,183.426 975.376,204.05 z" id="boundary" inkscape:connector-curvature="0" />
	<path style="fill:none;stroke:red;stroke-width:1px;stroke-linecap:butt;stroke-linejoin:miter;stroke-opacity:1" d="M 975.376,204.05 975.376,224.674 z" id="boundary" inkscape:connector-curvature="0" />
	<path style="fill:none;stroke:red;stroke-width:1px;stroke-linecap:butt;stroke-linejoin:miter;stroke-opacity:1" d="M 975.376,245.297 975.376,265.921 z" id="boundary" inkscape:connector-curvature="0" />
	<path style="fill:none;stroke:red;stroke-width:1px;stroke-linecap:butt;stroke-linejoin:miter;stroke-opacity:1" d="M 975.376,286.545 975.376,265.921 z" id="boundary" inkscape:connector-curvature="0" />
	<path style="fill:none;stroke:red;stroke-width:1px;stroke-linecap:butt;stroke-linejoin:miter;stroke-opacity:1" d="M 975.376,245.297 975.376,224.674 z" id="boundary" inkscape:connector-curvature="0" />
	<path style="fill:none;stroke:red;stroke-width:1px;stroke-linecap:butt;stroke-linejoin:miter;stroke-opacity:1" d="M 971.252,100.931 975.376,121.555 z" id="boundary" inkscape:connector-curvature="0" />
	<path style="fill:none;stroke:red;stroke-width:1px;stroke-linecap:butt;stroke-linejoin:miter;stroke-opacity:1" d="M 800.075,4 820.699,4 z" id="boundary" inkscape:connector-curvature="0" />
	<path style="fill:none;stroke:red;stroke-width:1px;stroke-linecap:butt;stroke-linejoin:miter;stroke-opacity:1" d="M 975.376,286.545 975.376,307.168 z" id="boundary" inkscape:connector-curvature="0" />
	<path style="fill:none;stroke:red;stroke-width:1px;stroke-linecap:butt;stroke-linejoin:miter;stroke-opacity:1" d="M 418.536,593.838 439.16,593.838 z" id="boundary" inkscape:connector-curvature="0" />
	<path style="fill:none;stroke:red;stroke-width:1px;stroke-linecap:butt;stroke-linejoin:miter;stroke-opacity:1" d="M 459.784,593.838 439.16,593.838 z" id="boundary" inkscape:connector-curvature="0" />
	<path style="fill:none;stroke:red;stroke-width:1px;stroke-linecap:butt;stroke-linejoin:miter;stroke-opacity:1" d="M 459.784,593.838 480.407,593.838 z" id="boundary" inkscape:connector-curvature="0" />
	<path style="fill:none;stroke:red;stroke-width:1px;stroke-linecap:butt;stroke-linejoin:miter;stroke-opacity:1" d="M 501.031,593.838 480.407,593.838 z" id="boundary" inkscape:connector-curvature="0" />
	<path style="fill:none;stroke:red;stroke-width:1px;stroke-linecap:butt;stroke-linejoin:miter;stroke-opacity:1" d="M 542.279,593.838 521.655,593.838 z" id="boundary" inkscape:connector-curvature="0" />
	<path style="fill:none;stroke:red;stroke-width:1px;stroke-linecap:butt;stroke-linejoin:miter;stroke-opacity:1" d="M 521.655,593.838 501.031,593.838 z" id="boundary" inkscape:connector-curvature="0" />
	<path style="fill:none;stroke:red;stroke-width:1px;stroke-linecap:butt;stroke-linejoin:miter;stroke-opacity:1" d="M 562.902,593.838 542.279,593.838 z" id="boundary" inkscape:connector-curvature="0" />
	<path style="fill:none;stroke:red;stroke-width:1px;stroke-linecap:butt;stroke-linejoin:miter;stroke-opacity:1" d="M 583.526,593.838 562.902,593.838 z" id="boundary" inkscape:connector-curvature="0" />
	<path style="fill:none;stroke:red;stroke-width:1px;stroke-linecap:butt;stroke-linejoin:miter;stroke-opacity:1" d="M 604.15,593.838 583.526,593.838 z" id="boundary" inkscape:connector-curvature="0" />
	<path style="fill:none;stroke:red;stroke-width:1px;stroke-linecap:butt;stroke-linejoin:miter;stroke-opacity:1" d="M 624.773,593.838 604.15,593.838 z" id="boundary" inkscape:connector-curvature="0" />
	<path style="fill:none;stroke:red;stroke-width:1px;stroke-linecap:butt;stroke-linejoin:miter;stroke-opacity:1" d="M 624.773,593.838 645.397,593.838 z" id="boundary" inkscape:connector-curvature="0" />
	<path style="fill:none;stroke:red;stroke-width:1px;stroke-linecap:butt;stroke-linejoin:miter;stroke-opacity:1" d="M 666.021,593.838 645.397,593.838 z" id="boundary" inkscape:connector-curvature="0" />
	<path style="fill:none;stroke:red;stroke-width:1px;stroke-linecap:butt;stroke-linejoin:miter;stroke-opacity:1" d="M 686.644,593.838 666.021,593.838 z" id="boundary" inkscape:connector-curvature="0" />
	<path style="fill:none;stroke:red;stroke-width:1px;stroke-linecap:butt;stroke-linejoin:miter;stroke-opacity:1" d="M 686.644,593.838 707.268,593.838 z" id="boundary" inkscape:connector-curvature="0" />
	<path style="fill:none;stroke:red;stroke-width:1px;stroke-linecap:butt;stroke-linejoin:miter;stroke-opacity:1" d="M 727.892,593.838 748.516,593.838 z" id="boundary" inkscape:connector-curvature="0" />
	<path style="fill:none;stroke:red;stroke-width:1px;stroke-linecap:butt;stroke-linejoin:miter;stroke-opacity:1" d="M 769.139,593.838 748.516,593.838 z" id="boundary" inkscape:connector-curvature="0" />
	<path style="fill:none;stroke:red;stroke-width:1px;stroke-linecap:butt;stroke-linejoin:miter;stroke-opacity:1" d="M 789.763,583.526 769.139,593.838 z" id="boundary" inkscape:connector-curvature="0" />
	<path style="fill:none;stroke:red;stroke-width:1px;stroke-linecap:butt;stroke-linejoin:miter;stroke-opacity:1" d="M 727.892,593.838 707.268,593.838 z" id="boundary" inkscape:connector-curvature="0" />
	<path style="fill:none;stroke:red;stroke-width:1px;stroke-linecap:butt;stroke-linejoin:miter;stroke-opacity:1" d="M 789.763,583.526 810.387,583.526 z" id="boundary" inkscape:connector-curvature="0" />
	<path style="fill:none;stroke:red;stroke-width:1px;stroke-linecap:butt;stroke-linejoin:miter;stroke-opacity:1" d="M 975.376,327.792 975.376,348.416 z" id="boundary" inkscape:connector-curvature="0" />
	<path style="fill:none;stroke:red;stroke-width:1px;stroke-linecap:butt;stroke-linejoin:miter;stroke-opacity:1" d="M 975.376,327.792 975.376,307.168 z" id="boundary" inkscape:connector-curvature="0" />
	<path style="fill:none;stroke:red;stroke-width:1px;stroke-linecap:butt;stroke-linejoin:miter;stroke-opacity:1" d="M 975.376,369.04 975.376,389.663 z" id="boundary" inkscape:connector-curvature="0" />
	<path style="fill:none;stroke:red;stroke-width:1px;stroke-linecap:butt;stroke-linejoin:miter;stroke-opacity:1" d="M 975.376,369.04 975.376,348.416 z" id="boundary" inkscape:connector-curvature="0" />
	<path style="fill:none;stroke:red;stroke-width:1px;stroke-linecap:butt;stroke-linejoin:miter;stroke-opacity:1" d="M 987.751,406.162 975.376,389.663 z" id="boundary" inkscape:connector-curvature="0" />
	<path style="fill:none;stroke:red;stroke-width:1px;stroke-linecap:butt;stroke-linejoin:miter;stroke-opacity:1" d="M 987.751,406.162 996,426.786 z" id="boundary" inkscape:connector-curvature="0" />
	<path style="fill:none;stroke:red;stroke-width:1px;stroke-linecap:butt;stroke-linejoin:miter;stroke-opacity:1" d="M 996,426.786 996,447.41 z" id="boundary" inkscape:connector-curvature="0" />
	<path style="fill:none;stroke:red;stroke-width:1px;stroke-linecap:butt;stroke-linejoin:miter;stroke-opacity:1" d="M 996,447.41 996,468.033 z" id="boundary" inkscape:connector-curvature="0" />
	<path style="fill:none;stroke:red;stroke-width:1px;stroke-linecap:butt;stroke-linejoin:miter;stroke-opacity:1" d="M 996,468.033 983.626,501.031 z" id="boundary" inkscape:connector-curvature="0" />
	<path style="fill:none;stroke:red;stroke-width:1px;stroke-linecap:butt;stroke-linejoin:miter;stroke-opacity:1" d="M 983.626,501.031 971.252,517.53 z" id="boundary" inkscape:connector-curvature="0" />
	<path style="fill:none;stroke:red;stroke-width:1px;stroke-linecap:butt;stroke-linejoin:miter;stroke-opacity:1" d="M 831.01,583.526 810.387,583.526 z" id="boundary" inkscape:connector-curvature="0" />
	<path style="fill:none;stroke:red;stroke-width:1px;stroke-linecap:butt;stroke-linejoin:miter;stroke-opacity:1" d="M 831.01,583.526 851.634,583.526 z" id="boundary" inkscape:connector-curvature="0" />
	<path style="fill:none;stroke:red;stroke-width:1px;stroke-linecap:butt;stroke-linejoin:miter;stroke-opacity:1" d="M 872.258,583.526 851.634,583.526 z" id="boundary" inkscape:connector-curvature="0" />
	<path style="fill:none;stroke:red;stroke-width:1px;stroke-linecap:butt;stroke-linejoin:miter;stroke-opacity:1" d="M 882.57,562.902 872.258,583.526 z" id="boundary" inkscape:connector-curvature="0" />
	<path style="fill:none;stroke:red;stroke-width:1px;stroke-linecap:butt;stroke-linejoin:miter;stroke-opacity:1" d="M 882.57,562.902 903.193,562.902 z" id="boundary" inkscape:connector-curvature="0" />
	<path style="fill:none;stroke:red;stroke-width:1px;stroke-linecap:butt;stroke-linejoin:miter;stroke-opacity:1" d="M 960.94,538.154 971.252,517.53 z" id="boundary" inkscape:connector-curvature="0" />
	<path style="fill:none;stroke:red;stroke-width:1px;stroke-linecap:butt;stroke-linejoin:miter;stroke-opacity:1" d="M 903.193,562.902 923.817,552.59 z" id="boundary" inkscape:connector-curvature="0" />
	<path style="fill:none;stroke:red;stroke-width:1px;stroke-linecap:butt;stroke-linejoin:miter;stroke-opacity:1" d="M 923.817,552.59 944.441,552.59 z" id="boundary" inkscape:connector-curvature="0" />
	<path style="fill:none;stroke:red;stroke-width:1px;stroke-linecap:butt;stroke-linejoin:miter;stroke-opacity:1" d="M 960.94,538.154 944.441,552.59 z" id="boundary" inkscape:connector-curvature="0" />
	<circle cx="4" cy="133.929" r="4" fill="#0" id="circle0"/>
	<circle cx="4" cy="154.553" r="4" fill="#0" id="circle1"/>
	<circle cx="4" cy="175.177" r="4" fill="#0" id="circle2"/>
	<circle cx="4" cy="195.8" r="4" fill="#0" id="circle3"/>
	<circle cx="16.3742" cy="212.299" r="4" fill="#0" id="circle4"/>
	<circle cx="24.6237" cy="102.994" r="4" fill="#0" id="circle5"/>
	<circle cx="24.6237" cy="123.617" r="4" fill="#0" id="circle6"/>
	<circle cx="24.6237" cy="232.923" r="4" fill="#0" id="circle7"/>
	<circle cx="24.6237" cy="253.547" r="4" fill="#0" id="circle8"/>
	<circle cx="24.6237" cy="274.17" r="4" fill="#0" id="circle9"/>
	<circle cx="24.6237" cy="294.794" r="4" fill="#0" id="circle10"/>
	<circle cx="24.6237" cy="315.418" r="4" fill="#0" id="circle11"/>
	<circle cx="24.6237" cy="336.042" r="4" fill="#0" id="circle12"/>
	<circle cx="24.6237" cy="356.665" r="4" fill="#0" id="circle13"/>
	<circle cx="24.6237" cy="377.289" r="4" fill="#0" id="circle14"/>
	<circle cx="24.6237" cy="397.913" r="4" fill="#0" id="circle15"/>
	<circle cx="24.6237" cy="418.536" r="4" fill="#0" id="circle16"/>
	<circle cx="24.6237" cy="439.16" r="4" fill="#0" id="circle17"/>
	<circle cx="24.6237" cy="459.784" r="4" fill="#0" id="circle18"/>
	<circle cx="24.6237" cy="480.407" r="4" fill="#0" id="circle19"/>
	<circle cx="24.6237" cy="501.031" r="4" fill="#0" id="circle20"/>
	<circle cx="24.6237" cy="521.655" r="4" fill="#0" id="circle21"/>
	<circle cx="30.8108" cy="542.279" r="4" fill="#0" id="circle22"/>
	<circle cx="41.1227" cy="86.4948" r="4" fill="#0" id="circle23"/>
	<circle cx="47.3098" cy="556.715" r="4" fill="#0" id="circle24"/>
	<circle cx="55.5593" cy="577.339" r="4" fill="#0" id="circle25"/>
	<circle cx="59.684" cy="76.183" r="4" fill="#0" id="circle26"/>
	<circle cx="76.183" cy="61.7464" r="4" fill="#0" id="circle27"/>
	<circle cx="76.183" cy="583.526" r="4" fill="#0" id="circle28"/>
	<circle cx="94.7443" cy="593.838" r="4" fill="#0" id="circle29"/>
	<circle cx="96.8067" cy="55.5593" r="4" fill="#0" id="circle30"/>
	<circle cx="113.306" cy="604.15" r="4" fill="#0" id="circle31"/>
	<circle cx="117.43" cy="55.5593" r="4" fill="#0" id="circle32"/>
	<circle cx="129.805" cy="39.0603" r="4" fill="#0" id="circle33"/>
	<circle cx="133.929" cy="604.15" r="4" fill="#0" id="circle34"/>
	<circle cx="146.304" cy="24.6237" r="4" fill="#0" id="circle35"/>
	<circle cx="154.553" cy="604.15" r="4" fill="#0" id="circle36"/>
	<circle cx="166.927" cy="24.6237" r="4" fill="#0" id="circle37"/>
	<circle cx="168.99" cy="620.649" r="4" fill="#0" id="circle38"/>
	<circle cx="179.301" cy="639.21" r="4" fill="#0" id="circle39"/>
	<circle cx="187.551" cy="24.6237" r="4" fill="#0" id="circle40"/>
	<circle cx="189.613" cy="657.771" r="4" fill="#0" id="circle41"/>
	<circle cx="189.613" cy="678.395" r="4" fill="#0" id="circle42"/>
	<circle cx="199.925" cy="696.956" r="4" fill="#0" id="circle43"/>
	<circle cx="208.175" cy="24.6237" r="4" fill="#0" id="circle44"/>
	<circle cx="210.237" cy="715.518" r="4" fill="#0" id="circle45"/>
	<circle cx="210.237" cy="736.141" r="4" fill="#0" id="circle46"/>
	<circle cx="210.237" cy="756.765" r="4" fill="#0" id="circle47"/>
	<circle cx="226.736" cy="769.139" r="4" fill="#0" id="circle48"/>
	<circle cx="228.798" cy="24.6237" r="4" fill="#0" id="circle49"/>
	<circle cx="230.861" cy="789.763" r="4" fill="#0" id="circle50"/>
	<circle cx="230.861" cy="810.387" r="4" fill="#0" id="circle51"/>
	<circle cx="241.173" cy="828.948" r="4" fill="#0" id="circle52"/>
	<circle cx="241.173" cy="849.572" r="4" fill="#0" id="circle53"/>
	<circle cx="245.297" cy="870.195" r="4" fill="#0" id="circle54"/>
	<circle cx="249.422" cy="24.6237" r="4" fill="#0" id="circle55"/>
	<circle cx="265.921" cy="861.946" r="4" fill="#0" id="circle56"/>
	<circle cx="270.046" cy="24.6237" r="4" fill="#0" id="circle57"/>
	<circle cx="274.17" cy="820.699" r="4" fill="#0" id="circle58"/>
	<circle cx="274.17" cy="841.322" r="4" fill="#0" id="circle59"/>
	<circle cx="290.669" cy="24.6237" r="4" fill="#0" id="circle60"/>
	<circle cx="292.732" cy="810.387" r="4" fill="#0" id="circle61"/>
	<circle cx="305.106" cy="789.763" r="4" fill="#0" id="circle62"/>
	<circle cx="311.293" cy="24.6237" r="4" fill="#0" id="circle63"/>
	<circle cx="315.418" cy="769.139" r="4" fill="#0" id="circle64"/>
	<circle cx="325.73" cy="748.516" r="4" fill="#0" id="circle65"/>
	<circle cx="331.917" cy="24.6237" r="4" fill="#0" id="circle66"/>
	<circle cx="346.353" cy="748.516" r="4" fill="#0" id="circle67"/>
	<circle cx="352.541" cy="24.6237" r="4" fill="#0" id="circle68"/>
	<circle cx="356.665" cy="717.58" r="4" fill="#0" id="circle69"/>
	<circle cx="366.977" cy="686.644" r="4" fill="#0" id="circle70"/>
	<circle cx="373.164" cy="24.6237" r="4" fill="#0" id="circle71"/>
	<circle cx="377.289" cy="655.709" r="4" fill="#0" id="circle72"/>
	<circle cx="393.788" cy="24.6237" r="4" fill="#0" id="circle73"/>
	<circle cx="397.913" cy="645.397" r="4" fill="#0" id="circle74"/>
	<circle cx="414.412" cy="24.6237" r="4" fill="#0" id="circle75"/>
	<circle cx="414.412" cy="630.96" r="4" fill="#0" id="circle76"/>
	<circle cx="418.536" cy="593.838" r="4" fill="#0" id="circle77"/>
	<circle cx="435.035" cy="24.6237" r="4" fill="#0" id="circle78"/>
	<circle cx="439.16" cy="593.838" r="4" fill="#0" id="circle79"/>
	<circle cx="455.659" cy="24.6237" r="4" fill="#0" id="circle80"/>
	<circle cx="459.784" cy="593.838" r="4" fill="#0" id="circle81"/>
	<circle cx="476.283" cy="24.6237" r="4" fill="#0" id="circle82"/>
	<circle cx="480.407" cy="593.838" r="4" fill="#0" id="circle83"/>
	<circle cx="496.906" cy="24.6237" r="4" fill="#0" id="circle84"/>
	<circle cx="501.031" cy="593.838" r="4" fill="#0" id="circle85"/>
	<circle cx="517.53" cy="24.6237" r="4" fill="#0" id="circle86"/>
	<circle cx="521.655" cy="593.838" r="4" fill="#0" id="circle87"/>
	<circle cx="538.154" cy="24.6237" r="4" fill="#0" id="circle88"/>
	<circle cx="542.279" cy="593.838" r="4" fill="#0" id="circle89"/>
	<circle cx="552.59" cy="8.12474" r="4" fill="#0" id="circle90"/>
	<circle cx="562.902" cy="593.838" r="4" fill="#0" id="circle91"/>
	<circle cx="573.214" cy="4" r="4" fill="#0" id="circle92"/>
	<circle cx="583.526" cy="593.838" r="4" fill="#0" id="circle93"/>
	<circle cx="593.838" cy="4" r="4" fill="#0" id="circle94"/>
	<circle cx="604.15" cy="593.838" r="4" fill="#0" id="circle95"/>
	<circle cx="614.462" cy="4" r="4" fill="#0" id="circle96"/>
	<circle cx="624.773" cy="593.838" r="4" fill="#0" id="circle97"/>
	<circle cx="635.085" cy="4" r="4" fill="#0" id="circle98"/>
	<circle cx="645.397" cy="593.838" r="4" fill="#0" id="circle99"/>
	<circle cx="655.709" cy="4" r="4" fill="#0" id="circle100"/>
	<circle cx="666.021" cy="593.838" r="4" fill="#0" id="circle101"/>
	<circle cx="676.333" cy="4" r="4" fill="#0" id="circle102"/>
	<circle cx="686.644" cy="593.838" r="4" fill="#0" id="circle103"/>
	<circle cx="696.956" cy="4" r="4" fill="#0" id="circle104"/>
	<circle cx="707.268" cy="593.838" r="4" fill="#0" id="circle105"/>
	<circle cx="717.58" cy="4" r="4" fill="#0" id="circle106"/>
	<circle cx="727.892" cy="593.838" r="4" fill="#0" id="circle107"/>
	<circle cx="738.204" cy="4" r="4" fill="#0" id="circle108"/>
	<circle cx="748.516" cy="593.838" r="4" fill="#0" id="circle109"/>
	<circle cx="758.827" cy="4" r="4" fill="#0" id="circle110"/>
	<circle cx="769.139" cy="593.838" r="4" fill="#0" id="circle111"/>
	<circle cx="779.451" cy="4" r="4" fill="#0" id="circle112"/>
	<circle cx="789.763" cy="583.526" r="4" fill="#0" id="circle113"/>
	<circle cx="800.075" cy="4" r="4" fill="#0" id="circle114"/>
	<circle cx="810.387" cy="583.526" r="4" fill="#0" id="circle115"/>
	<circle cx="820.699" cy="4" r="4" fill="#0" id="circle116"/>
	<circle cx="831.01" cy="583.526" r="4" fill="#0" id="circle117"/>
	<circle cx="841.322" cy="10.1871" r="4" fill="#0" id="circle118"/>
	<circle cx="851.634" cy="583.526" r="4" fill="#0" id="circle119"/>
	<circle cx="857.821" cy="24.6237" r="4" fill="#0" id="circle120"/>
	<circle cx="872.258" cy="583.526" r="4" fill="#0" id="circle121"/>
	<circle cx="878.445" cy="24.6237" r="4" fill="#0" id="circle122"/>
	<circle cx="882.57" cy="562.902" r="4" fill="#0" id="circle123"/>
	<circle cx="899.069" cy="26.6861" r="4" fill="#0" id="circle124"/>
	<circle cx="903.193" cy="562.902" r="4" fill="#0" id="circle125"/>
	<circle cx="919.692" cy="34.9356" r="4" fill="#0" id="circle126"/>
	<circle cx="923.817" cy="552.59" r="4" fill="#0" id="circle127"/>
	<circle cx="934.129" cy="51.4345" r="4" fill="#0" id="circle128"/>
	<circle cx="944.441" cy="552.59" r="4" fill="#0" id="circle129"/>
	<circle cx="952.69" cy="61.7464" r="4" fill="#0" id="circle130"/>
	<circle cx="960.94" cy="538.154" r="4" fill="#0" id="circle131"/>
	<circle cx="963.002" cy="80.3077" r="4" fill="#0" id="circle132"/>
	<circle cx="971.252" cy="100.931" r="4" fill="#0" id="circle133"/>
	<circle cx="971.252" cy="517.53" r="4" fill="#0" id="circle134"/>
	<circle cx="975.376" cy="121.555" r="4" fill="#0" id="circle135"/>
	<circle cx="975.376" cy="142.179" r="4" fill="#0" id="circle136"/>
	<circle cx="975.376" cy="162.802" r="4" fill="#0" id="circle137"/>
	<circle cx="975.376" cy="183.426" r="4" fill="#0" id="circle138"/>
	<circle cx="975.376" cy="204.05" r="4" fill="#0" id="circle139"/>
	<circle cx="975.376" cy="224.674" r="4" fill="#0" id="circle140"/>
	<circle cx="975.376" cy="245.297" r="4" fill="#0" id="circle141"/>
	<circle cx="975.376" cy="265.921" r="4" fill="#0" id="circle142"/>
	<circle cx="975.376" cy="286.545" r="4" fill="#0" id="circle143"/>
	<circle cx="975.376" cy="307.168" r="4" fill="#0" id="circle144"/>
	<circle cx="975.376" cy="327.792" r="4" fill="#0" id="circle145"/>
	<circle cx="975.376" cy="348.416" r="4" fill="#0" id="circle146"/>
	<circle cx="975.376" cy="369.04" r="4" fill="#0" id="circle147"/>
	<circle cx="975.376" cy="389.663" r="4" fill="#0" id="circle148"/>
	<circle cx="983.626" cy="501.031" r="4" fill="#0" id="circle149"/>
	<circle cx="987.751" cy="406.162" r="4" fill="#0" id="circle150"/>
	<circle cx="996" cy="426.786" r="4" fill="#0" id="circle151"/>
	<circle cx="996" cy="447.41" r="4" fill="#0" id="circle152"/>
	<circle cx="996" cy="468.033" r="4" fill="#0" id="circle153"/>
	</g>
</svg>