<?xml version="1.0" encoding="UTF-8" standalone="no"?>
<!-- Created with CurveBenchmark -->
<svg
	xmlns:dc="http://purl.org/dc/elements/1.1/"
	xmlns:cc="http://creativecommons.org/ns#"
	xmlns:rdf="http://www.w3.org/1999/02/22-rdf-syntax-ns#"
	xmlns:svg="http://www.w3.org/2000/svg"
	xmlns="http://www.w3.org/2000/svg"
	xmlns:sodipodi="http://sodipodi.sourceforge.net/DTD/sodipodi-0.dtd"
	xmlns:inkscape="http://www.inkscape.org/namespaces/inkscape"
	width="1000"
	height="1000"
	id="svg2"
	version="1.1"
	sodipodi:docname="manifold/ccrust-teddy165.png.txt">
<defs
	id="defs4" />
<metadata
	id="metadata7">
	<rdf:RDF>
		<cc:Work
			rdf:about="">
			<dc:format>image/svg+xml</dc:format>
			<dc:type
				rdf:resource="http://purl.org/dc/dcmitype/StillImage" />
			<dc:title></dc:title>
		</cc:Work>
	</rdf:RDF>
</metadata>
<g
	inkscape:label="Layer 1"
	inkscape:groupmode="layer"
	id="layer1">
	<path style="fill:none;stroke:red;stroke-width:1px;stroke-linecap:butt;stroke-linejoin:miter;stroke-opacity:1" d="M 37.9145,162.268 26.6097,201.835 z" id="boundary" inkscape:connector-curvature="0" />
	<path style="fill:none;stroke:red;stroke-width:1px;stroke-linecap:butt;stroke-linejoin:miter;stroke-opacity:1" d="M 49.2194,49.2194 49.2194,77.4815 z" id="boundary" inkscape:connector-curvature="0" />
	<path style="fill:none;stroke:red;stroke-width:1px;stroke-linecap:butt;stroke-linejoin:miter;stroke-opacity:1" d="M 26.6097,230.097 26.6097,201.835 z" id="boundary" inkscape:connector-curvature="0" />
	<path style="fill:none;stroke:red;stroke-width:1px;stroke-linecap:butt;stroke-linejoin:miter;stroke-opacity:1" d="M 49.2194,105.744 49.2194,77.4815 z" id="boundary" inkscape:connector-curvature="0" />
	<path style="fill:none;stroke:red;stroke-width:1px;stroke-linecap:butt;stroke-linejoin:miter;stroke-opacity:1" d="M 49.2194,49.2194 66.1766,26.6097 z" id="boundary" inkscape:connector-curvature="0" />
	<path style="fill:none;stroke:red;stroke-width:1px;stroke-linecap:butt;stroke-linejoin:miter;stroke-opacity:1" d="M 49.2194,105.744 49.2194,134.006 z" id="boundary" inkscape:connector-curvature="0" />
	<path style="fill:none;stroke:red;stroke-width:1px;stroke-linecap:butt;stroke-linejoin:miter;stroke-opacity:1" d="M 49.2194,134.006 37.9145,162.268 z" id="boundary" inkscape:connector-curvature="0" />
	<path style="fill:none;stroke:red;stroke-width:1px;stroke-linecap:butt;stroke-linejoin:miter;stroke-opacity:1" d="M 32.2621,286.621 26.6097,258.359 z" id="boundary" inkscape:connector-curvature="0" />
	<path style="fill:none;stroke:red;stroke-width:1px;stroke-linecap:butt;stroke-linejoin:miter;stroke-opacity:1" d="M 26.6097,258.359 26.6097,230.097 z" id="boundary" inkscape:connector-curvature="0" />
	<path style="fill:none;stroke:red;stroke-width:1px;stroke-linecap:butt;stroke-linejoin:miter;stroke-opacity:1" d="M 43.567,314.883 60.5242,337.493 z" id="boundary" inkscape:connector-curvature="0" />
	<path style="fill:none;stroke:red;stroke-width:1px;stroke-linecap:butt;stroke-linejoin:miter;stroke-opacity:1" d="M 43.567,314.883 32.2621,286.621 z" id="boundary" inkscape:connector-curvature="0" />
	<path style="fill:none;stroke:red;stroke-width:1px;stroke-linecap:butt;stroke-linejoin:miter;stroke-opacity:1" d="M 37.9145,439.236 60.5242,416.627 z" id="boundary" inkscape:connector-curvature="0" />
	<path style="fill:none;stroke:red;stroke-width:1px;stroke-linecap:butt;stroke-linejoin:miter;stroke-opacity:1" d="M 60.5242,337.493 71.8291,365.755 z" id="boundary" inkscape:connector-curvature="0" />
	<path style="fill:none;stroke:red;stroke-width:1px;stroke-linecap:butt;stroke-linejoin:miter;stroke-opacity:1" d="M 37.9145,439.236 15.3048,456.194 z" id="boundary" inkscape:connector-curvature="0" />
	<path style="fill:none;stroke:red;stroke-width:1px;stroke-linecap:butt;stroke-linejoin:miter;stroke-opacity:1" d="M 117.048,4 145.311,9.65242 z" id="boundary" inkscape:connector-curvature="0" />
	<path style="fill:none;stroke:red;stroke-width:1px;stroke-linecap:butt;stroke-linejoin:miter;stroke-opacity:1" d="M 303.578,9.65242 331.84,4 z" id="boundary" inkscape:connector-curvature="0" />
	<path style="fill:none;stroke:red;stroke-width:1px;stroke-linecap:butt;stroke-linejoin:miter;stroke-opacity:1" d="M 331.84,4 360.103,9.65242 z" id="boundary" inkscape:connector-curvature="0" />
	<path style="fill:none;stroke:red;stroke-width:1px;stroke-linecap:butt;stroke-linejoin:miter;stroke-opacity:1" d="M 173.573,18.1311 145.311,9.65242 z" id="boundary" inkscape:connector-curvature="0" />
	<path style="fill:none;stroke:red;stroke-width:1px;stroke-linecap:butt;stroke-linejoin:miter;stroke-opacity:1" d="M 360.103,9.65242 385.538,23.7835 z" id="boundary" inkscape:connector-curvature="0" />
	<path style="fill:none;stroke:red;stroke-width:1px;stroke-linecap:butt;stroke-linejoin:miter;stroke-opacity:1" d="M 303.578,9.65242 275.316,20.9573 z" id="boundary" inkscape:connector-curvature="0" />
	<path style="fill:none;stroke:red;stroke-width:1px;stroke-linecap:butt;stroke-linejoin:miter;stroke-opacity:1" d="M 173.573,18.1311 196.182,35.0883 z" id="boundary" inkscape:connector-curvature="0" />
	<path style="fill:none;stroke:red;stroke-width:1px;stroke-linecap:butt;stroke-linejoin:miter;stroke-opacity:1" d="M 224.444,43.567 196.182,35.0883 z" id="boundary" inkscape:connector-curvature="0" />
	<path style="fill:none;stroke:red;stroke-width:1px;stroke-linecap:butt;stroke-linejoin:miter;stroke-opacity:1" d="M 71.8291,365.755 77.4815,394.017 z" id="boundary" inkscape:connector-curvature="0" />
	<path style="fill:none;stroke:red;stroke-width:1px;stroke-linecap:butt;stroke-linejoin:miter;stroke-opacity:1" d="M 77.4815,394.017 60.5242,416.627 z" id="boundary" inkscape:connector-curvature="0" />
	<path style="fill:none;stroke:red;stroke-width:1px;stroke-linecap:butt;stroke-linejoin:miter;stroke-opacity:1" d="M 252.707,43.567 275.316,20.9573 z" id="boundary" inkscape:connector-curvature="0" />
	<path style="fill:none;stroke:red;stroke-width:1px;stroke-linecap:butt;stroke-linejoin:miter;stroke-opacity:1" d="M 224.444,43.567 252.707,43.567 z" id="boundary" inkscape:connector-curvature="0" />
	<path style="fill:none;stroke:red;stroke-width:1px;stroke-linecap:butt;stroke-linejoin:miter;stroke-opacity:1" d="M 88.7863,9.65242 117.048,4 z" id="boundary" inkscape:connector-curvature="0" />
	<path style="fill:none;stroke:red;stroke-width:1px;stroke-linecap:butt;stroke-linejoin:miter;stroke-opacity:1" d="M 66.1766,26.6097 88.7863,9.65242 z" id="boundary" inkscape:connector-curvature="0" />
	<path style="fill:none;stroke:red;stroke-width:1px;stroke-linecap:butt;stroke-linejoin:miter;stroke-opacity:1" d="M 23.7835,583.373 9.65242,557.937 z" id="boundary" inkscape:connector-curvature="0" />
	<path style="fill:none;stroke:red;stroke-width:1px;stroke-linecap:butt;stroke-linejoin:miter;stroke-opacity:1" d="M 9.65242,557.937 4,529.675 z" id="boundary" inkscape:connector-curvature="0" />
	<path style="fill:none;stroke:red;stroke-width:1px;stroke-linecap:butt;stroke-linejoin:miter;stroke-opacity:1" d="M 4,529.675 4,501.413 z" id="boundary" inkscape:connector-curvature="0" />
	<path style="fill:none;stroke:red;stroke-width:1px;stroke-linecap:butt;stroke-linejoin:miter;stroke-opacity:1" d="M 4,501.413 15.3048,456.194 z" id="boundary" inkscape:connector-curvature="0" />
	<path style="fill:none;stroke:red;stroke-width:1px;stroke-linecap:butt;stroke-linejoin:miter;stroke-opacity:1" d="M 23.7835,583.373 43.567,605.983 z" id="boundary" inkscape:connector-curvature="0" />
	<path style="fill:none;stroke:red;stroke-width:1px;stroke-linecap:butt;stroke-linejoin:miter;stroke-opacity:1" d="M 71.8291,656.855 60.5242,628.593 z" id="boundary" inkscape:connector-curvature="0" />
	<path style="fill:none;stroke:red;stroke-width:1px;stroke-linecap:butt;stroke-linejoin:miter;stroke-opacity:1" d="M 43.567,605.983 60.5242,628.593 z" id="boundary" inkscape:connector-curvature="0" />
	<path style="fill:none;stroke:red;stroke-width:1px;stroke-linecap:butt;stroke-linejoin:miter;stroke-opacity:1" d="M 60.5242,755.772 66.1766,716.205 z" id="boundary" inkscape:connector-curvature="0" />
	<path style="fill:none;stroke:red;stroke-width:1px;stroke-linecap:butt;stroke-linejoin:miter;stroke-opacity:1" d="M 69.0028,784.034 60.5242,755.772 z" id="boundary" inkscape:connector-curvature="0" />
	<path style="fill:none;stroke:red;stroke-width:1px;stroke-linecap:butt;stroke-linejoin:miter;stroke-opacity:1" d="M 77.4815,812.296 69.0028,784.034 z" id="boundary" inkscape:connector-curvature="0" />
	<path style="fill:none;stroke:red;stroke-width:1px;stroke-linecap:butt;stroke-linejoin:miter;stroke-opacity:1" d="M 71.8291,685.117 66.1766,716.205 z" id="boundary" inkscape:connector-curvature="0" />
	<path style="fill:none;stroke:red;stroke-width:1px;stroke-linecap:butt;stroke-linejoin:miter;stroke-opacity:1" d="M 77.4815,812.296 77.4815,840.558 z" id="boundary" inkscape:connector-curvature="0" />
	<path style="fill:none;stroke:red;stroke-width:1px;stroke-linecap:butt;stroke-linejoin:miter;stroke-opacity:1" d="M 71.8291,656.855 71.8291,685.117 z" id="boundary" inkscape:connector-curvature="0" />
	<path style="fill:none;stroke:red;stroke-width:1px;stroke-linecap:butt;stroke-linejoin:miter;stroke-opacity:1" d="M 77.4815,840.558 77.4815,868.821 z" id="boundary" inkscape:connector-curvature="0" />
	<path style="fill:none;stroke:red;stroke-width:1px;stroke-linecap:butt;stroke-linejoin:miter;stroke-opacity:1" d="M 88.7863,925.345 80.3077,897.083 z" id="boundary" inkscape:connector-curvature="0" />
	<path style="fill:none;stroke:red;stroke-width:1px;stroke-linecap:butt;stroke-linejoin:miter;stroke-opacity:1" d="M 80.3077,897.083 77.4815,868.821 z" id="boundary" inkscape:connector-curvature="0" />
	<path style="fill:none;stroke:red;stroke-width:1px;stroke-linecap:butt;stroke-linejoin:miter;stroke-opacity:1" d="M 88.7863,925.345 94.4387,953.607 z" id="boundary" inkscape:connector-curvature="0" />
	<path style="fill:none;stroke:red;stroke-width:1px;stroke-linecap:butt;stroke-linejoin:miter;stroke-opacity:1" d="M 117.048,973.39 94.4387,953.607 z" id="boundary" inkscape:connector-curvature="0" />
	<path style="fill:none;stroke:red;stroke-width:1px;stroke-linecap:butt;stroke-linejoin:miter;stroke-opacity:1" d="M 368.581,981.869 396.843,976.217 z" id="boundary" inkscape:connector-curvature="0" />
	<path style="fill:none;stroke:red;stroke-width:1px;stroke-linecap:butt;stroke-linejoin:miter;stroke-opacity:1" d="M 343.145,996 368.581,981.869 z" id="boundary" inkscape:connector-curvature="0" />
	<path style="fill:none;stroke:red;stroke-width:1px;stroke-linecap:butt;stroke-linejoin:miter;stroke-opacity:1" d="M 145.311,984.695 117.048,973.39 z" id="boundary" inkscape:connector-curvature="0" />
	<path style="fill:none;stroke:red;stroke-width:1px;stroke-linecap:butt;stroke-linejoin:miter;stroke-opacity:1" d="M 286.621,996 258.359,996 z" id="boundary" inkscape:connector-curvature="0" />
	<path style="fill:none;stroke:red;stroke-width:1px;stroke-linecap:butt;stroke-linejoin:miter;stroke-opacity:1" d="M 173.573,996 145.311,984.695 z" id="boundary" inkscape:connector-curvature="0" />
	<path style="fill:none;stroke:red;stroke-width:1px;stroke-linecap:butt;stroke-linejoin:miter;stroke-opacity:1" d="M 201.835,996 173.573,996 z" id="boundary" inkscape:connector-curvature="0" />
	<path style="fill:none;stroke:red;stroke-width:1px;stroke-linecap:butt;stroke-linejoin:miter;stroke-opacity:1" d="M 230.097,996 201.835,996 z" id="boundary" inkscape:connector-curvature="0" />
	<path style="fill:none;stroke:red;stroke-width:1px;stroke-linecap:butt;stroke-linejoin:miter;stroke-opacity:1" d="M 314.883,996 286.621,996 z" id="boundary" inkscape:connector-curvature="0" />
	<path style="fill:none;stroke:red;stroke-width:1px;stroke-linecap:butt;stroke-linejoin:miter;stroke-opacity:1" d="M 258.359,996 230.097,996 z" id="boundary" inkscape:connector-curvature="0" />
	<path style="fill:none;stroke:red;stroke-width:1px;stroke-linecap:butt;stroke-linejoin:miter;stroke-opacity:1" d="M 343.145,996 314.883,996 z" id="boundary" inkscape:connector-curvature="0" />
	<path style="fill:none;stroke:red;stroke-width:1px;stroke-linecap:butt;stroke-linejoin:miter;stroke-opacity:1" d="M 396.843,976.217 425.105,973.39 z" id="boundary" inkscape:connector-curvature="0" />
	<path style="fill:none;stroke:red;stroke-width:1px;stroke-linecap:butt;stroke-linejoin:miter;stroke-opacity:1" d="M 385.538,23.7835 408.148,43.567 z" id="boundary" inkscape:connector-curvature="0" />
	<path style="fill:none;stroke:red;stroke-width:1px;stroke-linecap:butt;stroke-linejoin:miter;stroke-opacity:1" d="M 408.148,43.567 419.453,71.8291 z" id="boundary" inkscape:connector-curvature="0" />
	<path style="fill:none;stroke:red;stroke-width:1px;stroke-linecap:butt;stroke-linejoin:miter;stroke-opacity:1" d="M 413.801,156.615 413.801,128.353 z" id="boundary" inkscape:connector-curvature="0" />
	<path style="fill:none;stroke:red;stroke-width:1px;stroke-linecap:butt;stroke-linejoin:miter;stroke-opacity:1" d="M 433.584,179.225 413.801,156.615 z" id="boundary" inkscape:connector-curvature="0" />
	<path style="fill:none;stroke:red;stroke-width:1px;stroke-linecap:butt;stroke-linejoin:miter;stroke-opacity:1" d="M 419.453,71.8291 419.453,100.091 z" id="boundary" inkscape:connector-curvature="0" />
	<path style="fill:none;stroke:red;stroke-width:1px;stroke-linecap:butt;stroke-linejoin:miter;stroke-opacity:1" d="M 419.453,100.091 413.801,128.353 z" id="boundary" inkscape:connector-curvature="0" />
	<path style="fill:none;stroke:red;stroke-width:1px;stroke-linecap:butt;stroke-linejoin:miter;stroke-opacity:1" d="M 456.194,199.009 433.584,179.225 z" id="boundary" inkscape:connector-curvature="0" />
	<path style="fill:none;stroke:red;stroke-width:1px;stroke-linecap:butt;stroke-linejoin:miter;stroke-opacity:1" d="M 456.194,199.009 478.803,215.966 z" id="boundary" inkscape:connector-curvature="0" />
	<path style="fill:none;stroke:red;stroke-width:1px;stroke-linecap:butt;stroke-linejoin:miter;stroke-opacity:1" d="M 498.587,238.575 478.803,215.966 z" id="boundary" inkscape:connector-curvature="0" />
	<path style="fill:none;stroke:red;stroke-width:1px;stroke-linecap:butt;stroke-linejoin:miter;stroke-opacity:1" d="M 447.715,371.407 470.325,348.798 z" id="boundary" inkscape:connector-curvature="0" />
	<path style="fill:none;stroke:red;stroke-width:1px;stroke-linecap:butt;stroke-linejoin:miter;stroke-opacity:1" d="M 467.499,394.017 447.715,371.407 z" id="boundary" inkscape:connector-curvature="0" />
	<path style="fill:none;stroke:red;stroke-width:1px;stroke-linecap:butt;stroke-linejoin:miter;stroke-opacity:1" d="M 484.456,323.362 470.325,348.798 z" id="boundary" inkscape:connector-curvature="0" />
	<path style="fill:none;stroke:red;stroke-width:1px;stroke-linecap:butt;stroke-linejoin:miter;stroke-opacity:1" d="M 490.108,413.801 467.499,394.017 z" id="boundary" inkscape:connector-curvature="0" />
	<path style="fill:none;stroke:red;stroke-width:1px;stroke-linecap:butt;stroke-linejoin:miter;stroke-opacity:1" d="M 484.456,323.362 492.934,292.274 z" id="boundary" inkscape:connector-curvature="0" />
	<path style="fill:none;stroke:red;stroke-width:1px;stroke-linecap:butt;stroke-linejoin:miter;stroke-opacity:1" d="M 492.934,292.274 498.587,238.575 z" id="boundary" inkscape:connector-curvature="0" />
	<path style="fill:none;stroke:red;stroke-width:1px;stroke-linecap:butt;stroke-linejoin:miter;stroke-opacity:1" d="M 515.544,427.932 543.806,427.932 z" id="boundary" inkscape:connector-curvature="0" />
	<path style="fill:none;stroke:red;stroke-width:1px;stroke-linecap:butt;stroke-linejoin:miter;stroke-opacity:1" d="M 515.544,427.932 490.108,413.801 z" id="boundary" inkscape:connector-curvature="0" />
	<path style="fill:none;stroke:red;stroke-width:1px;stroke-linecap:butt;stroke-linejoin:miter;stroke-opacity:1" d="M 572.068,433.584 543.806,427.932 z" id="boundary" inkscape:connector-curvature="0" />
	<path style="fill:none;stroke:red;stroke-width:1px;stroke-linecap:butt;stroke-linejoin:miter;stroke-opacity:1" d="M 600.33,439.236 628.593,444.889 z" id="boundary" inkscape:connector-curvature="0" />
	<path style="fill:none;stroke:red;stroke-width:1px;stroke-linecap:butt;stroke-linejoin:miter;stroke-opacity:1" d="M 656.855,456.194 676.638,478.803 z" id="boundary" inkscape:connector-curvature="0" />
	<path style="fill:none;stroke:red;stroke-width:1px;stroke-linecap:butt;stroke-linejoin:miter;stroke-opacity:1" d="M 628.593,444.889 656.855,456.194 z" id="boundary" inkscape:connector-curvature="0" />
	<path style="fill:none;stroke:red;stroke-width:1px;stroke-linecap:butt;stroke-linejoin:miter;stroke-opacity:1" d="M 572.068,433.584 600.33,439.236 z" id="boundary" inkscape:connector-curvature="0" />
	<path style="fill:none;stroke:red;stroke-width:1px;stroke-linecap:butt;stroke-linejoin:miter;stroke-opacity:1" d="M 676.638,478.803 685.117,507.066 z" id="boundary" inkscape:connector-curvature="0" />
	<path style="fill:none;stroke:red;stroke-width:1px;stroke-linecap:butt;stroke-linejoin:miter;stroke-opacity:1" d="M 608.809,628.593 634.245,614.462 z" id="boundary" inkscape:connector-curvature="0" />
	<path style="fill:none;stroke:red;stroke-width:1px;stroke-linecap:butt;stroke-linejoin:miter;stroke-opacity:1" d="M 552.285,645.55 580.547,639.897 z" id="boundary" inkscape:connector-curvature="0" />
	<path style="fill:none;stroke:red;stroke-width:1px;stroke-linecap:butt;stroke-linejoin:miter;stroke-opacity:1" d="M 608.809,628.593 580.547,639.897 z" id="boundary" inkscape:connector-curvature="0" />
	<path style="fill:none;stroke:red;stroke-width:1px;stroke-linecap:butt;stroke-linejoin:miter;stroke-opacity:1" d="M 685.117,535.328 676.638,577.721 z" id="boundary" inkscape:connector-curvature="0" />
	<path style="fill:none;stroke:red;stroke-width:1px;stroke-linecap:butt;stroke-linejoin:miter;stroke-opacity:1" d="M 685.117,535.328 685.117,507.066 z" id="boundary" inkscape:connector-curvature="0" />
	<path style="fill:none;stroke:red;stroke-width:1px;stroke-linecap:butt;stroke-linejoin:miter;stroke-opacity:1" d="M 659.681,600.33 676.638,577.721 z" id="boundary" inkscape:connector-curvature="0" />
	<path style="fill:none;stroke:red;stroke-width:1px;stroke-linecap:butt;stroke-linejoin:miter;stroke-opacity:1" d="M 659.681,600.33 634.245,614.462 z" id="boundary" inkscape:connector-curvature="0" />
	<path style="fill:none;stroke:red;stroke-width:1px;stroke-linecap:butt;stroke-linejoin:miter;stroke-opacity:1" d="M 552.285,645.55 524.023,656.855 z" id="boundary" inkscape:connector-curvature="0" />
	<path style="fill:none;stroke:red;stroke-width:1px;stroke-linecap:butt;stroke-linejoin:miter;stroke-opacity:1" d="M 526.849,685.117 532.501,713.379 z" id="boundary" inkscape:connector-curvature="0" />
	<path style="fill:none;stroke:red;stroke-width:1px;stroke-linecap:butt;stroke-linejoin:miter;stroke-opacity:1" d="M 526.849,685.117 524.023,656.855 z" id="boundary" inkscape:connector-curvature="0" />
	<path style="fill:none;stroke:red;stroke-width:1px;stroke-linecap:butt;stroke-linejoin:miter;stroke-opacity:1" d="M 583.373,738.815 555.111,733.162 z" id="boundary" inkscape:connector-curvature="0" />
	<path style="fill:none;stroke:red;stroke-width:1px;stroke-linecap:butt;stroke-linejoin:miter;stroke-opacity:1" d="M 509.892,973.39 481.63,967.738 z" id="boundary" inkscape:connector-curvature="0" />
	<path style="fill:none;stroke:red;stroke-width:1px;stroke-linecap:butt;stroke-linejoin:miter;stroke-opacity:1" d="M 555.111,733.162 532.501,713.379 z" id="boundary" inkscape:connector-curvature="0" />
	<path style="fill:none;stroke:red;stroke-width:1px;stroke-linecap:butt;stroke-linejoin:miter;stroke-opacity:1" d="M 611.635,730.336 583.373,738.815 z" id="boundary" inkscape:connector-curvature="0" />
	<path style="fill:none;stroke:red;stroke-width:1px;stroke-linecap:butt;stroke-linejoin:miter;stroke-opacity:1" d="M 453.368,973.39 425.105,973.39 z" id="boundary" inkscape:connector-curvature="0" />
	<path style="fill:none;stroke:red;stroke-width:1px;stroke-linecap:butt;stroke-linejoin:miter;stroke-opacity:1" d="M 481.63,967.738 453.368,973.39 z" id="boundary" inkscape:connector-curvature="0" />
	<path style="fill:none;stroke:red;stroke-width:1px;stroke-linecap:butt;stroke-linejoin:miter;stroke-opacity:1" d="M 538.154,979.043 566.416,990.348 z" id="boundary" inkscape:connector-curvature="0" />
	<path style="fill:none;stroke:red;stroke-width:1px;stroke-linecap:butt;stroke-linejoin:miter;stroke-opacity:1" d="M 509.892,973.39 538.154,979.043 z" id="boundary" inkscape:connector-curvature="0" />
	<path style="fill:none;stroke:red;stroke-width:1px;stroke-linecap:butt;stroke-linejoin:miter;stroke-opacity:1" d="M 594.678,996 566.416,990.348 z" id="boundary" inkscape:connector-curvature="0" />
	<path style="fill:none;stroke:red;stroke-width:1px;stroke-linecap:butt;stroke-linejoin:miter;stroke-opacity:1" d="M 622.94,996 594.678,996 z" id="boundary" inkscape:connector-curvature="0" />
	<path style="fill:none;stroke:red;stroke-width:1px;stroke-linecap:butt;stroke-linejoin:miter;stroke-opacity:1" d="M 639.897,727.51 668.16,727.51 z" id="boundary" inkscape:connector-curvature="0" />
	<path style="fill:none;stroke:red;stroke-width:1px;stroke-linecap:butt;stroke-linejoin:miter;stroke-opacity:1" d="M 639.897,727.51 611.635,730.336 z" id="boundary" inkscape:connector-curvature="0" />
	<path style="fill:none;stroke:red;stroke-width:1px;stroke-linecap:butt;stroke-linejoin:miter;stroke-opacity:1" d="M 668.16,727.51 696.422,727.51 z" id="boundary" inkscape:connector-curvature="0" />
	<path style="fill:none;stroke:red;stroke-width:1px;stroke-linecap:butt;stroke-linejoin:miter;stroke-opacity:1" d="M 741.641,761.425 752.946,789.687 z" id="boundary" inkscape:connector-curvature="0" />
	<path style="fill:none;stroke:red;stroke-width:1px;stroke-linecap:butt;stroke-linejoin:miter;stroke-opacity:1" d="M 741.641,761.425 724.684,738.815 z" id="boundary" inkscape:connector-curvature="0" />
	<path style="fill:none;stroke:red;stroke-width:1px;stroke-linecap:butt;stroke-linejoin:miter;stroke-opacity:1" d="M 752.946,789.687 755.772,817.949 z" id="boundary" inkscape:connector-curvature="0" />
	<path style="fill:none;stroke:red;stroke-width:1px;stroke-linecap:butt;stroke-linejoin:miter;stroke-opacity:1" d="M 696.422,727.51 724.684,738.815 z" id="boundary" inkscape:connector-curvature="0" />
	<path style="fill:none;stroke:red;stroke-width:1px;stroke-linecap:butt;stroke-linejoin:miter;stroke-opacity:1" d="M 755.772,817.949 758.598,846.211 z" id="boundary" inkscape:connector-curvature="0" />
	<path style="fill:none;stroke:red;stroke-width:1px;stroke-linecap:butt;stroke-linejoin:miter;stroke-opacity:1" d="M 733.162,962.085 707.726,979.043 z" id="boundary" inkscape:connector-curvature="0" />
	<path style="fill:none;stroke:red;stroke-width:1px;stroke-linecap:butt;stroke-linejoin:miter;stroke-opacity:1" d="M 707.726,979.043 679.464,990.348 z" id="boundary" inkscape:connector-curvature="0" />
	<path style="fill:none;stroke:red;stroke-width:1px;stroke-linecap:butt;stroke-linejoin:miter;stroke-opacity:1" d="M 679.464,990.348 651.202,996 z" id="boundary" inkscape:connector-curvature="0" />
	<path style="fill:none;stroke:red;stroke-width:1px;stroke-linecap:butt;stroke-linejoin:miter;stroke-opacity:1" d="M 758.598,874.473 755.772,911.214 z" id="boundary" inkscape:connector-curvature="0" />
	<path style="fill:none;stroke:red;stroke-width:1px;stroke-linecap:butt;stroke-linejoin:miter;stroke-opacity:1" d="M 750.12,939.476 733.162,962.085 z" id="boundary" inkscape:connector-curvature="0" />
	<path style="fill:none;stroke:red;stroke-width:1px;stroke-linecap:butt;stroke-linejoin:miter;stroke-opacity:1" d="M 755.772,911.214 750.12,939.476 z" id="boundary" inkscape:connector-curvature="0" />
	<path style="fill:none;stroke:red;stroke-width:1px;stroke-linecap:butt;stroke-linejoin:miter;stroke-opacity:1" d="M 651.202,996 622.94,996 z" id="boundary" inkscape:connector-curvature="0" />
	<path style="fill:none;stroke:red;stroke-width:1px;stroke-linecap:butt;stroke-linejoin:miter;stroke-opacity:1" d="M 758.598,846.211 758.598,874.473 z" id="boundary" inkscape:connector-curvature="0" />
	<circle cx="4" cy="501.413" r="4" fill="#0" id="circle0"/>
	<circle cx="4" cy="529.675" r="4" fill="#0" id="circle1"/>
	<circle cx="9.65242" cy="557.937" r="4" fill="#0" id="circle2"/>
	<circle cx="15.3048" cy="456.194" r="4" fill="#0" id="circle3"/>
	<circle cx="23.7835" cy="583.373" r="4" fill="#0" id="circle4"/>
	<circle cx="26.6097" cy="201.835" r="4" fill="#0" id="circle5"/>
	<circle cx="26.6097" cy="230.097" r="4" fill="#0" id="circle6"/>
	<circle cx="26.6097" cy="258.359" r="4" fill="#0" id="circle7"/>
	<circle cx="32.2621" cy="286.621" r="4" fill="#0" id="circle8"/>
	<circle cx="37.9145" cy="162.268" r="4" fill="#0" id="circle9"/>
	<circle cx="37.9145" cy="439.236" r="4" fill="#0" id="circle10"/>
	<circle cx="43.567" cy="314.883" r="4" fill="#0" id="circle11"/>
	<circle cx="43.567" cy="605.983" r="4" fill="#0" id="circle12"/>
	<circle cx="49.2194" cy="49.2194" r="4" fill="#0" id="circle13"/>
	<circle cx="49.2194" cy="77.4815" r="4" fill="#0" id="circle14"/>
	<circle cx="49.2194" cy="105.744" r="4" fill="#0" id="circle15"/>
	<circle cx="49.2194" cy="134.006" r="4" fill="#0" id="circle16"/>
	<circle cx="60.5242" cy="337.493" r="4" fill="#0" id="circle17"/>
	<circle cx="60.5242" cy="416.627" r="4" fill="#0" id="circle18"/>
	<circle cx="60.5242" cy="628.593" r="4" fill="#0" id="circle19"/>
	<circle cx="60.5242" cy="755.772" r="4" fill="#0" id="circle20"/>
	<circle cx="66.1766" cy="26.6097" r="4" fill="#0" id="circle21"/>
	<circle cx="66.1766" cy="716.205" r="4" fill="#0" id="circle22"/>
	<circle cx="69.0028" cy="784.034" r="4" fill="#0" id="circle23"/>
	<circle cx="71.8291" cy="365.755" r="4" fill="#0" id="circle24"/>
	<circle cx="71.8291" cy="656.855" r="4" fill="#0" id="circle25"/>
	<circle cx="71.8291" cy="685.117" r="4" fill="#0" id="circle26"/>
	<circle cx="77.4815" cy="394.017" r="4" fill="#0" id="circle27"/>
	<circle cx="77.4815" cy="812.296" r="4" fill="#0" id="circle28"/>
	<circle cx="77.4815" cy="840.558" r="4" fill="#0" id="circle29"/>
	<circle cx="77.4815" cy="868.821" r="4" fill="#0" id="circle30"/>
	<circle cx="80.3077" cy="897.083" r="4" fill="#0" id="circle31"/>
	<circle cx="88.7863" cy="9.65242" r="4" fill="#0" id="circle32"/>
	<circle cx="88.7863" cy="925.345" r="4" fill="#0" id="circle33"/>
	<circle cx="94.4387" cy="953.607" r="4" fill="#0" id="circle34"/>
	<circle cx="117.048" cy="4" r="4" fill="#0" id="circle35"/>
	<circle cx="117.048" cy="973.39" r="4" fill="#0" id="circle36"/>
	<circle cx="145.311" cy="9.65242" r="4" fill="#0" id="circle37"/>
	<circle cx="145.311" cy="984.695" r="4" fill="#0" id="circle38"/>
	<circle cx="173.573" cy="18.1311" r="4" fill="#0" id="circle39"/>
	<circle cx="173.573" cy="996" r="4" fill="#0" id="circle40"/>
	<circle cx="196.182" cy="35.0883" r="4" fill="#0" id="circle41"/>
	<circle cx="201.835" cy="996" r="4" fill="#0" id="circle42"/>
	<circle cx="224.444" cy="43.567" r="4" fill="#0" id="circle43"/>
	<circle cx="230.097" cy="996" r="4" fill="#0" id="circle44"/>
	<circle cx="252.707" cy="43.567" r="4" fill="#0" id="circle45"/>
	<circle cx="258.359" cy="996" r="4" fill="#0" id="circle46"/>
	<circle cx="275.316" cy="20.9573" r="4" fill="#0" id="circle47"/>
	<circle cx="286.621" cy="996" r="4" fill="#0" id="circle48"/>
	<circle cx="303.578" cy="9.65242" r="4" fill="#0" id="circle49"/>
	<circle cx="314.883" cy="996" r="4" fill="#0" id="circle50"/>
	<circle cx="331.84" cy="4" r="4" fill="#0" id="circle51"/>
	<circle cx="343.145" cy="996" r="4" fill="#0" id="circle52"/>
	<circle cx="360.103" cy="9.65242" r="4" fill="#0" id="circle53"/>
	<circle cx="368.581" cy="981.869" r="4" fill="#0" id="circle54"/>
	<circle cx="385.538" cy="23.7835" r="4" fill="#0" id="circle55"/>
	<circle cx="396.843" cy="976.217" r="4" fill="#0" id="circle56"/>
	<circle cx="408.148" cy="43.567" r="4" fill="#0" id="circle57"/>
	<circle cx="413.801" cy="128.353" r="4" fill="#0" id="circle58"/>
	<circle cx="413.801" cy="156.615" r="4" fill="#0" id="circle59"/>
	<circle cx="419.453" cy="71.8291" r="4" fill="#0" id="circle60"/>
	<circle cx="419.453" cy="100.091" r="4" fill="#0" id="circle61"/>
	<circle cx="425.105" cy="973.39" r="4" fill="#0" id="circle62"/>
	<circle cx="433.584" cy="179.225" r="4" fill="#0" id="circle63"/>
	<circle cx="447.715" cy="371.407" r="4" fill="#0" id="circle64"/>
	<circle cx="453.368" cy="973.39" r="4" fill="#0" id="circle65"/>
	<circle cx="456.194" cy="199.009" r="4" fill="#0" id="circle66"/>
	<circle cx="467.499" cy="394.017" r="4" fill="#0" id="circle67"/>
	<circle cx="470.325" cy="348.798" r="4" fill="#0" id="circle68"/>
	<circle cx="478.803" cy="215.966" r="4" fill="#0" id="circle69"/>
	<circle cx="481.63" cy="967.738" r="4" fill="#0" id="circle70"/>
	<circle cx="484.456" cy="323.362" r="4" fill="#0" id="circle71"/>
	<circle cx="490.108" cy="413.801" r="4" fill="#0" id="circle72"/>
	<circle cx="492.934" cy="292.274" r="4" fill="#0" id="circle73"/>
	<circle cx="498.587" cy="238.575" r="4" fill="#0" id="circle74"/>
	<circle cx="509.892" cy="973.39" r="4" fill="#0" id="circle75"/>
	<circle cx="515.544" cy="427.932" r="4" fill="#0" id="circle76"/>
	<circle cx="524.023" cy="656.855" r="4" fill="#0" id="circle77"/>
	<circle cx="526.849" cy="685.117" r="4" fill="#0" id="circle78"/>
	<circle cx="532.501" cy="713.379" r="4" fill="#0" id="circle79"/>
	<circle cx="538.154" cy="979.043" r="4" fill="#0" id="circle80"/>
	<circle cx="543.806" cy="427.932" r="4" fill="#0" id="circle81"/>
	<circle cx="552.285" cy="645.55" r="4" fill="#0" id="circle82"/>
	<circle cx="555.111" cy="733.162" r="4" fill="#0" id="circle83"/>
	<circle cx="566.416" cy="990.348" r="4" fill="#0" id="circle84"/>
	<circle cx="572.068" cy="433.584" r="4" fill="#0" id="circle85"/>
	<circle cx="580.547" cy="639.897" r="4" fill="#0" id="circle86"/>
	<circle cx="583.373" cy="738.815" r="4" fill="#0" id="circle87"/>
	<circle cx="594.678" cy="996" r="4" fill="#0" id="circle88"/>
	<circle cx="600.33" cy="439.236" r="4" fill="#0" id="circle89"/>
	<circle cx="608.809" cy="628.593" r="4" fill="#0" id="circle90"/>
	<circle cx="611.635" cy="730.336" r="4" fill="#0" id="circle91"/>
	<circle cx="622.94" cy="996" r="4" fill="#0" id="circle92"/>
	<circle cx="628.593" cy="444.889" r="4" fill="#0" id="circle93"/>
	<circle cx="634.245" cy="614.462" r="4" fill="#0" id="circle94"/>
	<circle cx="639.897" cy="727.51" r="4" fill="#0" id="circle95"/>
	<circle cx="651.202" cy="996" r="4" fill="#0" id="circle96"/>
	<circle cx="656.855" cy="456.194" r="4" fill="#0" id="circle97"/>
	<circle cx="659.681" cy="600.33" r="4" fill="#0" id="circle98"/>
	<circle cx="668.16" cy="727.51" r="4" fill="#0" id="circle99"/>
	<circle cx="676.638" cy="478.803" r="4" fill="#0" id="circle100"/>
	<circle cx="676.638" cy="577.721" r="4" fill="#0" id="circle101"/>
	<circle cx="679.464" cy="990.348" r="4" fill="#0" id="circle102"/>
	<circle cx="685.117" cy="507.066" r="4" fill="#0" id="circle103"/>
	<circle cx="685.117" cy="535.328" r="4" fill="#0" id="circle104"/>
	<circle cx="696.422" cy="727.51" r="4" fill="#0" id="circle105"/>
	<circle cx="707.726" cy="979.043" r="4" fill="#0" id="circle106"/>
	<circle cx="724.684" cy="738.815" r="4" fill="#0" id="circle107"/>
	<circle cx="733.162" cy="962.085" r="4" fill="#0" id="circle108"/>
	<circle cx="741.641" cy="761.425" r="4" fill="#0" id="circle109"/>
	<circle cx="750.12" cy="939.476" r="4" fill="#0" id="circle110"/>
	<circle cx="752.946" cy="789.687" r="4" fill="#0" id="circle111"/>
	<circle cx="755.772" cy="817.949" r="4" fill="#0" id="circle112"/>
	<circle cx="755.772" cy="911.214" r="4" fill="#0" id="circle113"/>
	<circle cx="758.598" cy="846.211" r="4" fill="#0" id="circle114"/>
	<circle cx="758.598" cy="874.473" r="4" fill="#0" id="circle115"/>
	</g>
</svg>