<?xml version="1.0" encoding="UTF-8" standalone="no"?>
<!-- Created with CurveBenchmark -->
<svg
	xmlns:dc="http://purl.org/dc/elements/1.1/"
	xmlns:cc="http://creativecommons.org/ns#"
	xmlns:rdf="http://www.w3.org/1999/02/22-rdf-syntax-ns#"
	xmlns:svg="http://www.w3.org/2000/svg"
	xmlns="http://www.w3.org/2000/svg"
	xmlns:sodipodi="http://sodipodi.sourceforge.net/DTD/sodipodi-0.dtd"
	xmlns:inkscape="http://www.inkscape.org/namespaces/inkscape"
	width="1000"
	height="1000"
	id="svg2"
	version="1.1"
	sodipodi:docname="manifold/ccrust-elephant06.png.txt">
<defs
	id="defs4" />
<metadata
	id="metadata7">
	<rdf:RDF>
		<cc:Work
			rdf:about="">
			<dc:format>image/svg+xml</dc:format>
			<dc:type
				rdf:resource="http://purl.org/dc/dcmitype/StillImage" />
			<dc:title></dc:title>
		</cc:Work>
	</rdf:RDF>
</metadata>
<g
	inkscape:label="Layer 1"
	inkscape:groupmode="layer"
	id="layer1">
	<path style="fill:none;stroke:red;stroke-width:1px;stroke-linecap:butt;stroke-linejoin:miter;stroke-opacity:1" d="M 4,227.704 13.1682,209.368 z" id="boundary" inkscape:connector-curvature="0" />
	<path style="fill:none;stroke:red;stroke-width:1px;stroke-linecap:butt;stroke-linejoin:miter;stroke-opacity:1" d="M 13.1682,209.368 31.5046,209.368 z" id="boundary" inkscape:connector-curvature="0" />
	<path style="fill:none;stroke:red;stroke-width:1px;stroke-linecap:butt;stroke-linejoin:miter;stroke-opacity:1" d="M 49.841,213.035 31.5046,209.368 z" id="boundary" inkscape:connector-curvature="0" />
	<path style="fill:none;stroke:red;stroke-width:1px;stroke-linecap:butt;stroke-linejoin:miter;stroke-opacity:1" d="M 64.5102,224.037 49.841,213.035 z" id="boundary" inkscape:connector-curvature="0" />
	<path style="fill:none;stroke:red;stroke-width:1px;stroke-linecap:butt;stroke-linejoin:miter;stroke-opacity:1" d="M 4,227.704 13.1682,244.207 z" id="boundary" inkscape:connector-curvature="0" />
	<path style="fill:none;stroke:red;stroke-width:1px;stroke-linecap:butt;stroke-linejoin:miter;stroke-opacity:1" d="M 31.5046,251.542 40.6728,268.044 z" id="boundary" inkscape:connector-curvature="0" />
	<path style="fill:none;stroke:red;stroke-width:1px;stroke-linecap:butt;stroke-linejoin:miter;stroke-opacity:1" d="M 13.1682,244.207 31.5046,251.542 z" id="boundary" inkscape:connector-curvature="0" />
	<path style="fill:none;stroke:red;stroke-width:1px;stroke-linecap:butt;stroke-linejoin:miter;stroke-opacity:1" d="M 40.6728,268.044 31.5046,301.05 z" id="boundary" inkscape:connector-curvature="0" />
	<path style="fill:none;stroke:red;stroke-width:1px;stroke-linecap:butt;stroke-linejoin:miter;stroke-opacity:1" d="M 64.5102,224.037 70.0111,242.373 z" id="boundary" inkscape:connector-curvature="0" />
	<path style="fill:none;stroke:red;stroke-width:1px;stroke-linecap:butt;stroke-linejoin:miter;stroke-opacity:1" d="M 178.196,236.872 192.865,222.203 z" id="boundary" inkscape:connector-curvature="0" />
	<path style="fill:none;stroke:red;stroke-width:1px;stroke-linecap:butt;stroke-linejoin:miter;stroke-opacity:1" d="M 174.529,258.876 178.196,236.872 z" id="boundary" inkscape:connector-curvature="0" />
	<path style="fill:none;stroke:red;stroke-width:1px;stroke-linecap:butt;stroke-linejoin:miter;stroke-opacity:1" d="M 196.532,200.2 192.865,222.203 z" id="boundary" inkscape:connector-curvature="0" />
	<path style="fill:none;stroke:red;stroke-width:1px;stroke-linecap:butt;stroke-linejoin:miter;stroke-opacity:1" d="M 196.532,200.2 205.701,172.695 z" id="boundary" inkscape:connector-curvature="0" />
	<path style="fill:none;stroke:red;stroke-width:1px;stroke-linecap:butt;stroke-linejoin:miter;stroke-opacity:1" d="M 70.0111,242.373 73.6784,260.71 z" id="boundary" inkscape:connector-curvature="0" />
	<path style="fill:none;stroke:red;stroke-width:1px;stroke-linecap:butt;stroke-linejoin:miter;stroke-opacity:1" d="M 159.86,273.545 174.529,258.876 z" id="boundary" inkscape:connector-curvature="0" />
	<path style="fill:none;stroke:red;stroke-width:1px;stroke-linecap:butt;stroke-linejoin:miter;stroke-opacity:1" d="M 159.86,291.882 159.86,273.545 z" id="boundary" inkscape:connector-curvature="0" />
	<path style="fill:none;stroke:red;stroke-width:1px;stroke-linecap:butt;stroke-linejoin:miter;stroke-opacity:1" d="M 73.6784,260.71 79.1793,279.046 z" id="boundary" inkscape:connector-curvature="0" />
	<path style="fill:none;stroke:red;stroke-width:1px;stroke-linecap:butt;stroke-linejoin:miter;stroke-opacity:1" d="M 22.3364,328.555 22.3364,346.891 z" id="boundary" inkscape:connector-curvature="0" />
	<path style="fill:none;stroke:red;stroke-width:1px;stroke-linecap:butt;stroke-linejoin:miter;stroke-opacity:1" d="M 22.3364,346.891 13.1682,365.227 z" id="boundary" inkscape:connector-curvature="0" />
	<path style="fill:none;stroke:red;stroke-width:1px;stroke-linecap:butt;stroke-linejoin:miter;stroke-opacity:1" d="M 22.3364,328.555 31.5046,301.05 z" id="boundary" inkscape:connector-curvature="0" />
	<path style="fill:none;stroke:red;stroke-width:1px;stroke-linecap:butt;stroke-linejoin:miter;stroke-opacity:1" d="M 70.0111,315.719 60.8429,334.055 z" id="boundary" inkscape:connector-curvature="0" />
	<path style="fill:none;stroke:red;stroke-width:1px;stroke-linecap:butt;stroke-linejoin:miter;stroke-opacity:1" d="M 60.8429,334.055 60.8429,352.392 z" id="boundary" inkscape:connector-curvature="0" />
	<path style="fill:none;stroke:red;stroke-width:1px;stroke-linecap:butt;stroke-linejoin:miter;stroke-opacity:1" d="M 13.1682,365.227 22.3364,381.73 z" id="boundary" inkscape:connector-curvature="0" />
	<path style="fill:none;stroke:red;stroke-width:1px;stroke-linecap:butt;stroke-linejoin:miter;stroke-opacity:1" d="M 22.3364,381.73 22.3364,400.067 z" id="boundary" inkscape:connector-curvature="0" />
	<path style="fill:none;stroke:red;stroke-width:1px;stroke-linecap:butt;stroke-linejoin:miter;stroke-opacity:1" d="M 60.8429,370.728 60.8429,352.392 z" id="boundary" inkscape:connector-curvature="0" />
	<path style="fill:none;stroke:red;stroke-width:1px;stroke-linecap:butt;stroke-linejoin:miter;stroke-opacity:1" d="M 60.8429,370.728 70.0111,387.231 z" id="boundary" inkscape:connector-curvature="0" />
	<path style="fill:none;stroke:red;stroke-width:1px;stroke-linecap:butt;stroke-linejoin:miter;stroke-opacity:1" d="M 79.1793,297.383 70.0111,315.719 z" id="boundary" inkscape:connector-curvature="0" />
	<path style="fill:none;stroke:red;stroke-width:1px;stroke-linecap:butt;stroke-linejoin:miter;stroke-opacity:1" d="M 79.1793,297.383 79.1793,279.046 z" id="boundary" inkscape:connector-curvature="0" />
	<path style="fill:none;stroke:red;stroke-width:1px;stroke-linecap:butt;stroke-linejoin:miter;stroke-opacity:1" d="M 150.691,310.218 159.86,291.882 z" id="boundary" inkscape:connector-curvature="0" />
	<path style="fill:none;stroke:red;stroke-width:1px;stroke-linecap:butt;stroke-linejoin:miter;stroke-opacity:1" d="M 150.691,328.555 150.691,310.218 z" id="boundary" inkscape:connector-curvature="0" />
	<path style="fill:none;stroke:red;stroke-width:1px;stroke-linecap:butt;stroke-linejoin:miter;stroke-opacity:1" d="M 150.691,346.891 147.024,368.895 z" id="boundary" inkscape:connector-curvature="0" />
	<path style="fill:none;stroke:red;stroke-width:1px;stroke-linecap:butt;stroke-linejoin:miter;stroke-opacity:1" d="M 150.691,328.555 150.691,346.891 z" id="boundary" inkscape:connector-curvature="0" />
	<path style="fill:none;stroke:red;stroke-width:1px;stroke-linecap:butt;stroke-linejoin:miter;stroke-opacity:1" d="M 321.22,20.5028 339.556,20.5028 z" id="boundary" inkscape:connector-curvature="0" />
	<path style="fill:none;stroke:red;stroke-width:1px;stroke-linecap:butt;stroke-linejoin:miter;stroke-opacity:1" d="M 302.884,29.671 321.22,20.5028 z" id="boundary" inkscape:connector-curvature="0" />
	<path style="fill:none;stroke:red;stroke-width:1px;stroke-linecap:butt;stroke-linejoin:miter;stroke-opacity:1" d="M 376.229,20.5028 357.893,20.5028 z" id="boundary" inkscape:connector-curvature="0" />
	<path style="fill:none;stroke:red;stroke-width:1px;stroke-linecap:butt;stroke-linejoin:miter;stroke-opacity:1" d="M 357.893,20.5028 339.556,20.5028 z" id="boundary" inkscape:connector-curvature="0" />
	<path style="fill:none;stroke:red;stroke-width:1px;stroke-linecap:butt;stroke-linejoin:miter;stroke-opacity:1" d="M 271.712,51.6747 257.043,66.3438 z" id="boundary" inkscape:connector-curvature="0" />
	<path style="fill:none;stroke:red;stroke-width:1px;stroke-linecap:butt;stroke-linejoin:miter;stroke-opacity:1" d="M 286.381,38.8392 302.884,29.671 z" id="boundary" inkscape:connector-curvature="0" />
	<path style="fill:none;stroke:red;stroke-width:1px;stroke-linecap:butt;stroke-linejoin:miter;stroke-opacity:1" d="M 271.712,51.6747 286.381,38.8392 z" id="boundary" inkscape:connector-curvature="0" />
	<path style="fill:none;stroke:red;stroke-width:1px;stroke-linecap:butt;stroke-linejoin:miter;stroke-opacity:1" d="M 394.566,20.5028 411.068,11.3346 z" id="boundary" inkscape:connector-curvature="0" />
	<path style="fill:none;stroke:red;stroke-width:1px;stroke-linecap:butt;stroke-linejoin:miter;stroke-opacity:1" d="M 394.566,20.5028 376.229,20.5028 z" id="boundary" inkscape:connector-curvature="0" />
	<path style="fill:none;stroke:red;stroke-width:1px;stroke-linecap:butt;stroke-linejoin:miter;stroke-opacity:1" d="M 411.068,11.3346 429.405,4 z" id="boundary" inkscape:connector-curvature="0" />
	<path style="fill:none;stroke:red;stroke-width:1px;stroke-linecap:butt;stroke-linejoin:miter;stroke-opacity:1" d="M 528.421,29.671 510.085,29.671 z" id="boundary" inkscape:connector-curvature="0" />
	<path style="fill:none;stroke:red;stroke-width:1px;stroke-linecap:butt;stroke-linejoin:miter;stroke-opacity:1" d="M 447.741,11.3346 455.076,29.671 z" id="boundary" inkscape:connector-curvature="0" />
	<path style="fill:none;stroke:red;stroke-width:1px;stroke-linecap:butt;stroke-linejoin:miter;stroke-opacity:1" d="M 429.405,4 447.741,11.3346 z" id="boundary" inkscape:connector-curvature="0" />
	<path style="fill:none;stroke:red;stroke-width:1px;stroke-linecap:butt;stroke-linejoin:miter;stroke-opacity:1" d="M 455.076,29.671 473.412,29.671 z" id="boundary" inkscape:connector-curvature="0" />
	<path style="fill:none;stroke:red;stroke-width:1px;stroke-linecap:butt;stroke-linejoin:miter;stroke-opacity:1" d="M 473.412,29.671 491.749,35.1719 z" id="boundary" inkscape:connector-curvature="0" />
	<path style="fill:none;stroke:red;stroke-width:1px;stroke-linecap:butt;stroke-linejoin:miter;stroke-opacity:1" d="M 510.085,29.671 491.749,35.1719 z" id="boundary" inkscape:connector-curvature="0" />
	<path style="fill:none;stroke:red;stroke-width:1px;stroke-linecap:butt;stroke-linejoin:miter;stroke-opacity:1" d="M 214.869,136.022 224.037,117.686 z" id="boundary" inkscape:connector-curvature="0" />
	<path style="fill:none;stroke:red;stroke-width:1px;stroke-linecap:butt;stroke-linejoin:miter;stroke-opacity:1" d="M 214.869,154.359 214.869,136.022 z" id="boundary" inkscape:connector-curvature="0" />
	<path style="fill:none;stroke:red;stroke-width:1px;stroke-linecap:butt;stroke-linejoin:miter;stroke-opacity:1" d="M 242.373,81.0129 233.205,99.3494 z" id="boundary" inkscape:connector-curvature="0" />
	<path style="fill:none;stroke:red;stroke-width:1px;stroke-linecap:butt;stroke-linejoin:miter;stroke-opacity:1" d="M 233.205,99.3494 224.037,117.686 z" id="boundary" inkscape:connector-curvature="0" />
	<path style="fill:none;stroke:red;stroke-width:1px;stroke-linecap:butt;stroke-linejoin:miter;stroke-opacity:1" d="M 205.701,172.695 214.869,154.359 z" id="boundary" inkscape:connector-curvature="0" />
	<path style="fill:none;stroke:red;stroke-width:1px;stroke-linecap:butt;stroke-linejoin:miter;stroke-opacity:1" d="M 251.542,379.896 233.205,379.896 z" id="boundary" inkscape:connector-curvature="0" />
	<path style="fill:none;stroke:red;stroke-width:1px;stroke-linecap:butt;stroke-linejoin:miter;stroke-opacity:1" d="M 233.205,379.896 222.203,394.566 z" id="boundary" inkscape:connector-curvature="0" />
	<path style="fill:none;stroke:red;stroke-width:1px;stroke-linecap:butt;stroke-linejoin:miter;stroke-opacity:1" d="M 242.373,81.0129 257.043,66.3438 z" id="boundary" inkscape:connector-curvature="0" />
	<path style="fill:none;stroke:red;stroke-width:1px;stroke-linecap:butt;stroke-linejoin:miter;stroke-opacity:1" d="M 312.052,343.224 328.555,334.055 z" id="boundary" inkscape:connector-curvature="0" />
	<path style="fill:none;stroke:red;stroke-width:1px;stroke-linecap:butt;stroke-linejoin:miter;stroke-opacity:1" d="M 312.052,343.224 293.715,350.558 z" id="boundary" inkscape:connector-curvature="0" />
	<path style="fill:none;stroke:red;stroke-width:1px;stroke-linecap:butt;stroke-linejoin:miter;stroke-opacity:1" d="M 328.555,334.055 345.057,324.887 z" id="boundary" inkscape:connector-curvature="0" />
	<path style="fill:none;stroke:red;stroke-width:1px;stroke-linecap:butt;stroke-linejoin:miter;stroke-opacity:1" d="M 363.394,324.887 345.057,324.887 z" id="boundary" inkscape:connector-curvature="0" />
	<path style="fill:none;stroke:red;stroke-width:1px;stroke-linecap:butt;stroke-linejoin:miter;stroke-opacity:1" d="M 363.394,324.887 370.728,343.224 z" id="boundary" inkscape:connector-curvature="0" />
	<path style="fill:none;stroke:red;stroke-width:1px;stroke-linecap:butt;stroke-linejoin:miter;stroke-opacity:1" d="M 279.046,365.227 293.715,350.558 z" id="boundary" inkscape:connector-curvature="0" />
	<path style="fill:none;stroke:red;stroke-width:1px;stroke-linecap:butt;stroke-linejoin:miter;stroke-opacity:1" d="M 370.728,361.56 370.728,343.224 z" id="boundary" inkscape:connector-curvature="0" />
	<path style="fill:none;stroke:red;stroke-width:1px;stroke-linecap:butt;stroke-linejoin:miter;stroke-opacity:1" d="M 279.046,365.227 269.878,383.564 z" id="boundary" inkscape:connector-curvature="0" />
	<path style="fill:none;stroke:red;stroke-width:1px;stroke-linecap:butt;stroke-linejoin:miter;stroke-opacity:1" d="M 370.728,361.56 370.728,383.564 z" id="boundary" inkscape:connector-curvature="0" />
	<path style="fill:none;stroke:red;stroke-width:1px;stroke-linecap:butt;stroke-linejoin:miter;stroke-opacity:1" d="M 31.5046,416.569 22.3364,400.067 z" id="boundary" inkscape:connector-curvature="0" />
	<path style="fill:none;stroke:red;stroke-width:1px;stroke-linecap:butt;stroke-linejoin:miter;stroke-opacity:1" d="M 70.0111,387.231 86.5139,396.399 z" id="boundary" inkscape:connector-curvature="0" />
	<path style="fill:none;stroke:red;stroke-width:1px;stroke-linecap:butt;stroke-linejoin:miter;stroke-opacity:1" d="M 103.017,405.567 86.5139,396.399 z" id="boundary" inkscape:connector-curvature="0" />
	<path style="fill:none;stroke:red;stroke-width:1px;stroke-linecap:butt;stroke-linejoin:miter;stroke-opacity:1" d="M 119.519,396.399 103.017,405.567 z" id="boundary" inkscape:connector-curvature="0" />
	<path style="fill:none;stroke:red;stroke-width:1px;stroke-linecap:butt;stroke-linejoin:miter;stroke-opacity:1" d="M 42.5065,431.238 31.5046,416.569 z" id="boundary" inkscape:connector-curvature="0" />
	<path style="fill:none;stroke:red;stroke-width:1px;stroke-linecap:butt;stroke-linejoin:miter;stroke-opacity:1" d="M 60.8429,438.573 79.1793,444.074 z" id="boundary" inkscape:connector-curvature="0" />
	<path style="fill:none;stroke:red;stroke-width:1px;stroke-linecap:butt;stroke-linejoin:miter;stroke-opacity:1" d="M 60.8429,438.573 42.5065,431.238 z" id="boundary" inkscape:connector-curvature="0" />
	<path style="fill:none;stroke:red;stroke-width:1px;stroke-linecap:butt;stroke-linejoin:miter;stroke-opacity:1" d="M 97.5157,444.074 79.1793,444.074 z" id="boundary" inkscape:connector-curvature="0" />
	<path style="fill:none;stroke:red;stroke-width:1px;stroke-linecap:butt;stroke-linejoin:miter;stroke-opacity:1" d="M 119.519,396.399 137.856,387.231 z" id="boundary" inkscape:connector-curvature="0" />
	<path style="fill:none;stroke:red;stroke-width:1px;stroke-linecap:butt;stroke-linejoin:miter;stroke-opacity:1" d="M 222.203,394.566 207.534,407.401 z" id="boundary" inkscape:connector-curvature="0" />
	<path style="fill:none;stroke:red;stroke-width:1px;stroke-linecap:butt;stroke-linejoin:miter;stroke-opacity:1" d="M 147.024,368.895 137.856,387.231 z" id="boundary" inkscape:connector-curvature="0" />
	<path style="fill:none;stroke:red;stroke-width:1px;stroke-linecap:butt;stroke-linejoin:miter;stroke-opacity:1" d="M 198.366,425.738 185.53,440.407 z" id="boundary" inkscape:connector-curvature="0" />
	<path style="fill:none;stroke:red;stroke-width:1px;stroke-linecap:butt;stroke-linejoin:miter;stroke-opacity:1" d="M 198.366,425.738 207.534,407.401 z" id="boundary" inkscape:connector-curvature="0" />
	<path style="fill:none;stroke:red;stroke-width:1px;stroke-linecap:butt;stroke-linejoin:miter;stroke-opacity:1" d="M 185.53,440.407 170.861,453.242 z" id="boundary" inkscape:connector-curvature="0" />
	<path style="fill:none;stroke:red;stroke-width:1px;stroke-linecap:butt;stroke-linejoin:miter;stroke-opacity:1" d="M 97.5157,444.074 104.85,462.41 z" id="boundary" inkscape:connector-curvature="0" />
	<path style="fill:none;stroke:red;stroke-width:1px;stroke-linecap:butt;stroke-linejoin:miter;stroke-opacity:1" d="M 123.187,462.41 104.85,462.41 z" id="boundary" inkscape:connector-curvature="0" />
	<path style="fill:none;stroke:red;stroke-width:1px;stroke-linecap:butt;stroke-linejoin:miter;stroke-opacity:1" d="M 170.861,453.242 156.192,471.579 z" id="boundary" inkscape:connector-curvature="0" />
	<path style="fill:none;stroke:red;stroke-width:1px;stroke-linecap:butt;stroke-linejoin:miter;stroke-opacity:1" d="M 123.187,462.41 123.187,484.414 z" id="boundary" inkscape:connector-curvature="0" />
	<path style="fill:none;stroke:red;stroke-width:1px;stroke-linecap:butt;stroke-linejoin:miter;stroke-opacity:1" d="M 123.187,484.414 141.523,484.414 z" id="boundary" inkscape:connector-curvature="0" />
	<path style="fill:none;stroke:red;stroke-width:1px;stroke-linecap:butt;stroke-linejoin:miter;stroke-opacity:1" d="M 293.715,634.773 279.046,649.442 z" id="boundary" inkscape:connector-curvature="0" />
	<path style="fill:none;stroke:red;stroke-width:1px;stroke-linecap:butt;stroke-linejoin:miter;stroke-opacity:1" d="M 141.523,484.414 156.192,471.579 z" id="boundary" inkscape:connector-curvature="0" />
	<path style="fill:none;stroke:red;stroke-width:1px;stroke-linecap:butt;stroke-linejoin:miter;stroke-opacity:1" d="M 308.384,620.104 326.721,610.935 z" id="boundary" inkscape:connector-curvature="0" />
	<path style="fill:none;stroke:red;stroke-width:1px;stroke-linecap:butt;stroke-linejoin:miter;stroke-opacity:1" d="M 343.224,539.423 343.224,557.76 z" id="boundary" inkscape:connector-curvature="0" />
	<path style="fill:none;stroke:red;stroke-width:1px;stroke-linecap:butt;stroke-linejoin:miter;stroke-opacity:1" d="M 343.224,576.096 341.39,598.1 z" id="boundary" inkscape:connector-curvature="0" />
	<path style="fill:none;stroke:red;stroke-width:1px;stroke-linecap:butt;stroke-linejoin:miter;stroke-opacity:1" d="M 341.39,598.1 326.721,610.935 z" id="boundary" inkscape:connector-curvature="0" />
	<path style="fill:none;stroke:red;stroke-width:1px;stroke-linecap:butt;stroke-linejoin:miter;stroke-opacity:1" d="M 308.384,620.104 293.715,634.773 z" id="boundary" inkscape:connector-curvature="0" />
	<path style="fill:none;stroke:red;stroke-width:1px;stroke-linecap:butt;stroke-linejoin:miter;stroke-opacity:1" d="M 293.715,662.277 279.046,649.442 z" id="boundary" inkscape:connector-curvature="0" />
	<path style="fill:none;stroke:red;stroke-width:1px;stroke-linecap:butt;stroke-linejoin:miter;stroke-opacity:1" d="M 308.384,673.279 293.715,662.277 z" id="boundary" inkscape:connector-curvature="0" />
	<path style="fill:none;stroke:red;stroke-width:1px;stroke-linecap:butt;stroke-linejoin:miter;stroke-opacity:1" d="M 308.384,673.279 326.721,673.279 z" id="boundary" inkscape:connector-curvature="0" />
	<path style="fill:none;stroke:red;stroke-width:1px;stroke-linecap:butt;stroke-linejoin:miter;stroke-opacity:1" d="M 326.721,673.279 343.224,682.447 z" id="boundary" inkscape:connector-curvature="0" />
	<path style="fill:none;stroke:red;stroke-width:1px;stroke-linecap:butt;stroke-linejoin:miter;stroke-opacity:1" d="M 352.392,466.078 352.392,447.741 z" id="boundary" inkscape:connector-curvature="0" />
	<path style="fill:none;stroke:red;stroke-width:1px;stroke-linecap:butt;stroke-linejoin:miter;stroke-opacity:1" d="M 361.56,420.237 352.392,447.741 z" id="boundary" inkscape:connector-curvature="0" />
	<path style="fill:none;stroke:red;stroke-width:1px;stroke-linecap:butt;stroke-linejoin:miter;stroke-opacity:1" d="M 370.728,383.564 370.728,401.9 z" id="boundary" inkscape:connector-curvature="0" />
	<path style="fill:none;stroke:red;stroke-width:1px;stroke-linecap:butt;stroke-linejoin:miter;stroke-opacity:1" d="M 370.728,401.9 361.56,420.237 z" id="boundary" inkscape:connector-curvature="0" />
	<path style="fill:none;stroke:red;stroke-width:1px;stroke-linecap:butt;stroke-linejoin:miter;stroke-opacity:1" d="M 352.392,484.414 352.392,502.75 z" id="boundary" inkscape:connector-curvature="0" />
	<path style="fill:none;stroke:red;stroke-width:1px;stroke-linecap:butt;stroke-linejoin:miter;stroke-opacity:1" d="M 352.392,484.414 352.392,466.078 z" id="boundary" inkscape:connector-curvature="0" />
	<path style="fill:none;stroke:red;stroke-width:1px;stroke-linecap:butt;stroke-linejoin:miter;stroke-opacity:1" d="M 343.224,539.423 352.392,521.087 z" id="boundary" inkscape:connector-curvature="0" />
	<path style="fill:none;stroke:red;stroke-width:1px;stroke-linecap:butt;stroke-linejoin:miter;stroke-opacity:1" d="M 352.392,521.087 352.392,502.75 z" id="boundary" inkscape:connector-curvature="0" />
	<path style="fill:none;stroke:red;stroke-width:1px;stroke-linecap:butt;stroke-linejoin:miter;stroke-opacity:1" d="M 473.412,471.579 489.915,480.747 z" id="boundary" inkscape:connector-curvature="0" />
	<path style="fill:none;stroke:red;stroke-width:1px;stroke-linecap:butt;stroke-linejoin:miter;stroke-opacity:1" d="M 489.915,480.747 500.917,495.416 z" id="boundary" inkscape:connector-curvature="0" />
	<path style="fill:none;stroke:red;stroke-width:1px;stroke-linecap:butt;stroke-linejoin:miter;stroke-opacity:1" d="M 464.244,517.42 464.244,499.083 z" id="boundary" inkscape:connector-curvature="0" />
	<path style="fill:none;stroke:red;stroke-width:1px;stroke-linecap:butt;stroke-linejoin:miter;stroke-opacity:1" d="M 455.076,535.756 464.244,517.42 z" id="boundary" inkscape:connector-curvature="0" />
	<path style="fill:none;stroke:red;stroke-width:1px;stroke-linecap:butt;stroke-linejoin:miter;stroke-opacity:1" d="M 508.251,513.752 517.42,530.255 z" id="boundary" inkscape:connector-curvature="0" />
	<path style="fill:none;stroke:red;stroke-width:1px;stroke-linecap:butt;stroke-linejoin:miter;stroke-opacity:1" d="M 500.917,495.416 508.251,513.752 z" id="boundary" inkscape:connector-curvature="0" />
	<path style="fill:none;stroke:red;stroke-width:1px;stroke-linecap:butt;stroke-linejoin:miter;stroke-opacity:1" d="M 517.42,530.255 517.42,548.591 z" id="boundary" inkscape:connector-curvature="0" />
	<path style="fill:none;stroke:red;stroke-width:1px;stroke-linecap:butt;stroke-linejoin:miter;stroke-opacity:1" d="M 455.076,535.756 445.908,554.092 z" id="boundary" inkscape:connector-curvature="0" />
	<path style="fill:none;stroke:red;stroke-width:1px;stroke-linecap:butt;stroke-linejoin:miter;stroke-opacity:1" d="M 343.224,557.76 343.224,576.096 z" id="boundary" inkscape:connector-curvature="0" />
	<path style="fill:none;stroke:red;stroke-width:1px;stroke-linecap:butt;stroke-linejoin:miter;stroke-opacity:1" d="M 427.571,599.933 418.403,627.438 z" id="boundary" inkscape:connector-curvature="0" />
	<path style="fill:none;stroke:red;stroke-width:1px;stroke-linecap:butt;stroke-linejoin:miter;stroke-opacity:1" d="M 409.235,654.943 418.403,627.438 z" id="boundary" inkscape:connector-curvature="0" />
	<path style="fill:none;stroke:red;stroke-width:1px;stroke-linecap:butt;stroke-linejoin:miter;stroke-opacity:1" d="M 343.224,682.447 361.56,682.447 z" id="boundary" inkscape:connector-curvature="0" />
	<path style="fill:none;stroke:red;stroke-width:1px;stroke-linecap:butt;stroke-linejoin:miter;stroke-opacity:1" d="M 378.063,673.279 361.56,682.447 z" id="boundary" inkscape:connector-curvature="0" />
	<path style="fill:none;stroke:red;stroke-width:1px;stroke-linecap:butt;stroke-linejoin:miter;stroke-opacity:1" d="M 378.063,673.279 396.399,669.612 z" id="boundary" inkscape:connector-curvature="0" />
	<path style="fill:none;stroke:red;stroke-width:1px;stroke-linecap:butt;stroke-linejoin:miter;stroke-opacity:1" d="M 409.235,654.943 396.399,669.612 z" id="boundary" inkscape:connector-curvature="0" />
	<path style="fill:none;stroke:red;stroke-width:1px;stroke-linecap:butt;stroke-linejoin:miter;stroke-opacity:1" d="M 436.739,572.429 445.908,554.092 z" id="boundary" inkscape:connector-curvature="0" />
	<path style="fill:none;stroke:red;stroke-width:1px;stroke-linecap:butt;stroke-linejoin:miter;stroke-opacity:1" d="M 517.42,566.928 517.42,548.591 z" id="boundary" inkscape:connector-curvature="0" />
	<path style="fill:none;stroke:red;stroke-width:1px;stroke-linecap:butt;stroke-linejoin:miter;stroke-opacity:1" d="M 526.588,583.431 517.42,566.928 z" id="boundary" inkscape:connector-curvature="0" />
	<path style="fill:none;stroke:red;stroke-width:1px;stroke-linecap:butt;stroke-linejoin:miter;stroke-opacity:1" d="M 427.571,599.933 436.739,572.429 z" id="boundary" inkscape:connector-curvature="0" />
	<path style="fill:none;stroke:red;stroke-width:1px;stroke-linecap:butt;stroke-linejoin:miter;stroke-opacity:1" d="M 499.083,686.115 508.251,702.617 z" id="boundary" inkscape:connector-curvature="0" />
	<path style="fill:none;stroke:red;stroke-width:1px;stroke-linecap:butt;stroke-linejoin:miter;stroke-opacity:1" d="M 508.251,667.778 499.083,686.115 z" id="boundary" inkscape:connector-curvature="0" />
	<path style="fill:none;stroke:red;stroke-width:1px;stroke-linecap:butt;stroke-linejoin:miter;stroke-opacity:1" d="M 508.251,667.778 526.588,658.61 z" id="boundary" inkscape:connector-curvature="0" />
	<path style="fill:none;stroke:red;stroke-width:1px;stroke-linecap:butt;stroke-linejoin:miter;stroke-opacity:1" d="M 508.251,702.617 521.087,717.287 z" id="boundary" inkscape:connector-curvature="0" />
	<path style="fill:none;stroke:red;stroke-width:1px;stroke-linecap:butt;stroke-linejoin:miter;stroke-opacity:1" d="M 561.427,29.671 544.924,38.8392 z" id="boundary" inkscape:connector-curvature="0" />
	<path style="fill:none;stroke:red;stroke-width:1px;stroke-linecap:butt;stroke-linejoin:miter;stroke-opacity:1" d="M 544.924,38.8392 528.421,29.671 z" id="boundary" inkscape:connector-curvature="0" />
	<path style="fill:none;stroke:red;stroke-width:1px;stroke-linecap:butt;stroke-linejoin:miter;stroke-opacity:1" d="M 577.93,20.5028 561.427,29.671 z" id="boundary" inkscape:connector-curvature="0" />
	<path style="fill:none;stroke:red;stroke-width:1px;stroke-linecap:butt;stroke-linejoin:miter;stroke-opacity:1" d="M 577.93,20.5028 594.433,29.671 z" id="boundary" inkscape:connector-curvature="0" />
	<path style="fill:none;stroke:red;stroke-width:1px;stroke-linecap:butt;stroke-linejoin:miter;stroke-opacity:1" d="M 612.769,29.671 594.433,29.671 z" id="boundary" inkscape:connector-curvature="0" />
	<path style="fill:none;stroke:red;stroke-width:1px;stroke-linecap:butt;stroke-linejoin:miter;stroke-opacity:1" d="M 612.769,29.671 631.105,29.671 z" id="boundary" inkscape:connector-curvature="0" />
	<path style="fill:none;stroke:red;stroke-width:1px;stroke-linecap:butt;stroke-linejoin:miter;stroke-opacity:1" d="M 649.442,31.5046 631.105,29.671 z" id="boundary" inkscape:connector-curvature="0" />
	<path style="fill:none;stroke:red;stroke-width:1px;stroke-linecap:butt;stroke-linejoin:miter;stroke-opacity:1" d="M 649.442,31.5046 667.778,38.8392 z" id="boundary" inkscape:connector-curvature="0" />
	<path style="fill:none;stroke:red;stroke-width:1px;stroke-linecap:butt;stroke-linejoin:miter;stroke-opacity:1" d="M 667.778,38.8392 686.115,38.8392 z" id="boundary" inkscape:connector-curvature="0" />
	<path style="fill:none;stroke:red;stroke-width:1px;stroke-linecap:butt;stroke-linejoin:miter;stroke-opacity:1" d="M 686.115,38.8392 702.617,48.0074 z" id="boundary" inkscape:connector-curvature="0" />
	<path style="fill:none;stroke:red;stroke-width:1px;stroke-linecap:butt;stroke-linejoin:miter;stroke-opacity:1" d="M 720.954,53.5083 702.617,48.0074 z" id="boundary" inkscape:connector-curvature="0" />
	<path style="fill:none;stroke:red;stroke-width:1px;stroke-linecap:butt;stroke-linejoin:miter;stroke-opacity:1" d="M 739.29,57.1756 720.954,53.5083 z" id="boundary" inkscape:connector-curvature="0" />
	<path style="fill:none;stroke:red;stroke-width:1px;stroke-linecap:butt;stroke-linejoin:miter;stroke-opacity:1" d="M 739.29,57.1756 755.793,66.3438 z" id="boundary" inkscape:connector-curvature="0" />
	<path style="fill:none;stroke:red;stroke-width:1px;stroke-linecap:butt;stroke-linejoin:miter;stroke-opacity:1" d="M 774.129,66.3438 755.793,66.3438 z" id="boundary" inkscape:connector-curvature="0" />
	<path style="fill:none;stroke:red;stroke-width:1px;stroke-linecap:butt;stroke-linejoin:miter;stroke-opacity:1" d="M 774.129,66.3438 790.632,75.512 z" id="boundary" inkscape:connector-curvature="0" />
	<path style="fill:none;stroke:red;stroke-width:1px;stroke-linecap:butt;stroke-linejoin:miter;stroke-opacity:1" d="M 808.969,75.512 790.632,75.512 z" id="boundary" inkscape:connector-curvature="0" />
	<path style="fill:none;stroke:red;stroke-width:1px;stroke-linecap:butt;stroke-linejoin:miter;stroke-opacity:1" d="M 629.272,489.915 629.272,471.579 z" id="boundary" inkscape:connector-curvature="0" />
	<path style="fill:none;stroke:red;stroke-width:1px;stroke-linecap:butt;stroke-linejoin:miter;stroke-opacity:1" d="M 629.272,471.579 647.608,462.41 z" id="boundary" inkscape:connector-curvature="0" />
	<path style="fill:none;stroke:red;stroke-width:1px;stroke-linecap:butt;stroke-linejoin:miter;stroke-opacity:1" d="M 664.111,471.579 647.608,462.41 z" id="boundary" inkscape:connector-curvature="0" />
	<path style="fill:none;stroke:red;stroke-width:1px;stroke-linecap:butt;stroke-linejoin:miter;stroke-opacity:1" d="M 808.969,75.512 825.471,84.6802 z" id="boundary" inkscape:connector-curvature="0" />
	<path style="fill:none;stroke:red;stroke-width:1px;stroke-linecap:butt;stroke-linejoin:miter;stroke-opacity:1" d="M 664.111,471.579 664.111,489.915 z" id="boundary" inkscape:connector-curvature="0" />
	<path style="fill:none;stroke:red;stroke-width:1px;stroke-linecap:butt;stroke-linejoin:miter;stroke-opacity:1" d="M 629.272,508.251 629.272,489.915 z" id="boundary" inkscape:connector-curvature="0" />
	<path style="fill:none;stroke:red;stroke-width:1px;stroke-linecap:butt;stroke-linejoin:miter;stroke-opacity:1" d="M 766.795,489.915 757.627,508.251 z" id="boundary" inkscape:connector-curvature="0" />
	<path style="fill:none;stroke:red;stroke-width:1px;stroke-linecap:butt;stroke-linejoin:miter;stroke-opacity:1" d="M 766.795,489.915 783.298,499.083 z" id="boundary" inkscape:connector-curvature="0" />
	<path style="fill:none;stroke:red;stroke-width:1px;stroke-linecap:butt;stroke-linejoin:miter;stroke-opacity:1" d="M 825.471,84.6802 841.974,93.8484 z" id="boundary" inkscape:connector-curvature="0" />
	<path style="fill:none;stroke:red;stroke-width:1px;stroke-linecap:butt;stroke-linejoin:miter;stroke-opacity:1" d="M 841.974,93.8484 858.477,103.017 z" id="boundary" inkscape:connector-curvature="0" />
	<path style="fill:none;stroke:red;stroke-width:1px;stroke-linecap:butt;stroke-linejoin:miter;stroke-opacity:1" d="M 858.477,103.017 873.146,114.018 z" id="boundary" inkscape:connector-curvature="0" />
	<path style="fill:none;stroke:red;stroke-width:1px;stroke-linecap:butt;stroke-linejoin:miter;stroke-opacity:1" d="M 895.15,145.19 885.982,128.688 z" id="boundary" inkscape:connector-curvature="0" />
	<path style="fill:none;stroke:red;stroke-width:1px;stroke-linecap:butt;stroke-linejoin:miter;stroke-opacity:1" d="M 794.299,513.752 783.298,499.083 z" id="boundary" inkscape:connector-curvature="0" />
	<path style="fill:none;stroke:red;stroke-width:1px;stroke-linecap:butt;stroke-linejoin:miter;stroke-opacity:1" d="M 898.817,489.915 895.15,471.579 z" id="boundary" inkscape:connector-curvature="0" />
	<path style="fill:none;stroke:red;stroke-width:1px;stroke-linecap:butt;stroke-linejoin:miter;stroke-opacity:1" d="M 895.15,471.579 904.318,453.242 z" id="boundary" inkscape:connector-curvature="0" />
	<path style="fill:none;stroke:red;stroke-width:1px;stroke-linecap:butt;stroke-linejoin:miter;stroke-opacity:1" d="M 895.15,145.19 904.318,161.693 z" id="boundary" inkscape:connector-curvature="0" />
	<path style="fill:none;stroke:red;stroke-width:1px;stroke-linecap:butt;stroke-linejoin:miter;stroke-opacity:1" d="M 873.146,114.018 885.982,128.688 z" id="boundary" inkscape:connector-curvature="0" />
	<path style="fill:none;stroke:red;stroke-width:1px;stroke-linecap:butt;stroke-linejoin:miter;stroke-opacity:1" d="M 904.318,161.693 915.32,176.362 z" id="boundary" inkscape:connector-curvature="0" />
	<path style="fill:none;stroke:red;stroke-width:1px;stroke-linecap:butt;stroke-linejoin:miter;stroke-opacity:1" d="M 915.32,176.362 922.654,194.699 z" id="boundary" inkscape:connector-curvature="0" />
	<path style="fill:none;stroke:red;stroke-width:1px;stroke-linecap:butt;stroke-linejoin:miter;stroke-opacity:1" d="M 922.654,194.699 931.823,211.201 z" id="boundary" inkscape:connector-curvature="0" />
	<path style="fill:none;stroke:red;stroke-width:1px;stroke-linecap:butt;stroke-linejoin:miter;stroke-opacity:1" d="M 940.991,227.704 931.823,211.201 z" id="boundary" inkscape:connector-curvature="0" />
	<path style="fill:none;stroke:red;stroke-width:1px;stroke-linecap:butt;stroke-linejoin:miter;stroke-opacity:1" d="M 922.654,370.728 931.823,352.392 z" id="boundary" inkscape:connector-curvature="0" />
	<path style="fill:none;stroke:red;stroke-width:1px;stroke-linecap:butt;stroke-linejoin:miter;stroke-opacity:1" d="M 940.991,374.396 922.654,370.728 z" id="boundary" inkscape:connector-curvature="0" />
	<path style="fill:none;stroke:red;stroke-width:1px;stroke-linecap:butt;stroke-linejoin:miter;stroke-opacity:1" d="M 922.654,389.065 922.654,370.728 z" id="boundary" inkscape:connector-curvature="0" />
	<path style="fill:none;stroke:red;stroke-width:1px;stroke-linecap:butt;stroke-linejoin:miter;stroke-opacity:1" d="M 948.325,246.041 950.159,264.377 z" id="boundary" inkscape:connector-curvature="0" />
	<path style="fill:none;stroke:red;stroke-width:1px;stroke-linecap:butt;stroke-linejoin:miter;stroke-opacity:1" d="M 940.991,227.704 948.325,246.041 z" id="boundary" inkscape:connector-curvature="0" />
	<path style="fill:none;stroke:red;stroke-width:1px;stroke-linecap:butt;stroke-linejoin:miter;stroke-opacity:1" d="M 959.327,280.88 950.159,264.377 z" id="boundary" inkscape:connector-curvature="0" />
	<path style="fill:none;stroke:red;stroke-width:1px;stroke-linecap:butt;stroke-linejoin:miter;stroke-opacity:1" d="M 959.327,280.88 959.327,299.216 z" id="boundary" inkscape:connector-curvature="0" />
	<path style="fill:none;stroke:red;stroke-width:1px;stroke-linecap:butt;stroke-linejoin:miter;stroke-opacity:1" d="M 964.828,317.553 959.327,299.216 z" id="boundary" inkscape:connector-curvature="0" />
	<path style="fill:none;stroke:red;stroke-width:1px;stroke-linecap:butt;stroke-linejoin:miter;stroke-opacity:1" d="M 968.495,335.889 968.495,354.226 z" id="boundary" inkscape:connector-curvature="0" />
	<path style="fill:none;stroke:red;stroke-width:1px;stroke-linecap:butt;stroke-linejoin:miter;stroke-opacity:1" d="M 968.495,335.889 964.828,317.553 z" id="boundary" inkscape:connector-curvature="0" />
	<path style="fill:none;stroke:red;stroke-width:1px;stroke-linecap:butt;stroke-linejoin:miter;stroke-opacity:1" d="M 968.495,354.226 968.495,372.562 z" id="boundary" inkscape:connector-curvature="0" />
	<path style="fill:none;stroke:red;stroke-width:1px;stroke-linecap:butt;stroke-linejoin:miter;stroke-opacity:1" d="M 948.325,392.732 940.991,374.396 z" id="boundary" inkscape:connector-curvature="0" />
	<path style="fill:none;stroke:red;stroke-width:1px;stroke-linecap:butt;stroke-linejoin:miter;stroke-opacity:1" d="M 913.486,407.401 922.654,389.065 z" id="boundary" inkscape:connector-curvature="0" />
	<path style="fill:none;stroke:red;stroke-width:1px;stroke-linecap:butt;stroke-linejoin:miter;stroke-opacity:1" d="M 948.325,392.732 948.325,411.068 z" id="boundary" inkscape:connector-curvature="0" />
	<path style="fill:none;stroke:red;stroke-width:1px;stroke-linecap:butt;stroke-linejoin:miter;stroke-opacity:1" d="M 948.325,429.405 948.325,411.068 z" id="boundary" inkscape:connector-curvature="0" />
	<path style="fill:none;stroke:red;stroke-width:1px;stroke-linecap:butt;stroke-linejoin:miter;stroke-opacity:1" d="M 904.318,434.906 904.318,453.242 z" id="boundary" inkscape:connector-curvature="0" />
	<path style="fill:none;stroke:red;stroke-width:1px;stroke-linecap:butt;stroke-linejoin:miter;stroke-opacity:1" d="M 948.325,429.405 957.494,445.908 z" id="boundary" inkscape:connector-curvature="0" />
	<path style="fill:none;stroke:red;stroke-width:1px;stroke-linecap:butt;stroke-linejoin:miter;stroke-opacity:1" d="M 977.664,433.072 957.494,445.908 z" id="boundary" inkscape:connector-curvature="0" />
	<path style="fill:none;stroke:red;stroke-width:1px;stroke-linecap:butt;stroke-linejoin:miter;stroke-opacity:1" d="M 904.318,434.906 913.486,407.401 z" id="boundary" inkscape:connector-curvature="0" />
	<path style="fill:none;stroke:red;stroke-width:1px;stroke-linecap:butt;stroke-linejoin:miter;stroke-opacity:1" d="M 957.494,445.908 966.662,462.41 z" id="boundary" inkscape:connector-curvature="0" />
	<path style="fill:none;stroke:red;stroke-width:1px;stroke-linecap:butt;stroke-linejoin:miter;stroke-opacity:1" d="M 977.664,414.736 977.664,433.072 z" id="boundary" inkscape:connector-curvature="0" />
	<path style="fill:none;stroke:red;stroke-width:1px;stroke-linecap:butt;stroke-linejoin:miter;stroke-opacity:1" d="M 977.664,414.736 968.495,398.233 z" id="boundary" inkscape:connector-curvature="0" />
	<path style="fill:none;stroke:red;stroke-width:1px;stroke-linecap:butt;stroke-linejoin:miter;stroke-opacity:1" d="M 986.832,449.575 977.664,433.072 z" id="boundary" inkscape:connector-curvature="0" />
	<path style="fill:none;stroke:red;stroke-width:1px;stroke-linecap:butt;stroke-linejoin:miter;stroke-opacity:1" d="M 986.832,467.911 996,484.414 z" id="boundary" inkscape:connector-curvature="0" />
	<path style="fill:none;stroke:red;stroke-width:1px;stroke-linecap:butt;stroke-linejoin:miter;stroke-opacity:1" d="M 986.832,467.911 986.832,449.575 z" id="boundary" inkscape:connector-curvature="0" />
	<path style="fill:none;stroke:red;stroke-width:1px;stroke-linecap:butt;stroke-linejoin:miter;stroke-opacity:1" d="M 904.318,508.251 898.817,489.915 z" id="boundary" inkscape:connector-curvature="0" />
	<path style="fill:none;stroke:red;stroke-width:1px;stroke-linecap:butt;stroke-linejoin:miter;stroke-opacity:1" d="M 975.83,499.083 972.163,480.747 z" id="boundary" inkscape:connector-curvature="0" />
	<path style="fill:none;stroke:red;stroke-width:1px;stroke-linecap:butt;stroke-linejoin:miter;stroke-opacity:1" d="M 526.588,601.767 526.588,583.431 z" id="boundary" inkscape:connector-curvature="0" />
	<path style="fill:none;stroke:red;stroke-width:1px;stroke-linecap:butt;stroke-linejoin:miter;stroke-opacity:1" d="M 629.272,563.261 620.104,590.765 z" id="boundary" inkscape:connector-curvature="0" />
	<path style="fill:none;stroke:red;stroke-width:1px;stroke-linecap:butt;stroke-linejoin:miter;stroke-opacity:1" d="M 629.272,526.588 629.272,544.924 z" id="boundary" inkscape:connector-curvature="0" />
	<path style="fill:none;stroke:red;stroke-width:1px;stroke-linecap:butt;stroke-linejoin:miter;stroke-opacity:1" d="M 629.272,526.588 629.272,508.251 z" id="boundary" inkscape:connector-curvature="0" />
	<path style="fill:none;stroke:red;stroke-width:1px;stroke-linecap:butt;stroke-linejoin:miter;stroke-opacity:1" d="M 620.104,609.102 620.104,590.765 z" id="boundary" inkscape:connector-curvature="0" />
	<path style="fill:none;stroke:red;stroke-width:1px;stroke-linecap:butt;stroke-linejoin:miter;stroke-opacity:1" d="M 535.756,636.606 526.588,620.104 z" id="boundary" inkscape:connector-curvature="0" />
	<path style="fill:none;stroke:red;stroke-width:1px;stroke-linecap:butt;stroke-linejoin:miter;stroke-opacity:1" d="M 526.588,620.104 526.588,601.767 z" id="boundary" inkscape:connector-curvature="0" />
	<path style="fill:none;stroke:red;stroke-width:1px;stroke-linecap:butt;stroke-linejoin:miter;stroke-opacity:1" d="M 620.104,627.438 620.104,609.102 z" id="boundary" inkscape:connector-curvature="0" />
	<path style="fill:none;stroke:red;stroke-width:1px;stroke-linecap:butt;stroke-linejoin:miter;stroke-opacity:1" d="M 664.111,511.919 673.279,528.421 z" id="boundary" inkscape:connector-curvature="0" />
	<path style="fill:none;stroke:red;stroke-width:1px;stroke-linecap:butt;stroke-linejoin:miter;stroke-opacity:1" d="M 673.279,528.421 673.279,546.758 z" id="boundary" inkscape:connector-curvature="0" />
	<path style="fill:none;stroke:red;stroke-width:1px;stroke-linecap:butt;stroke-linejoin:miter;stroke-opacity:1" d="M 673.279,565.094 673.279,546.758 z" id="boundary" inkscape:connector-curvature="0" />
	<path style="fill:none;stroke:red;stroke-width:1px;stroke-linecap:butt;stroke-linejoin:miter;stroke-opacity:1" d="M 664.111,511.919 664.111,489.915 z" id="boundary" inkscape:connector-curvature="0" />
	<path style="fill:none;stroke:red;stroke-width:1px;stroke-linecap:butt;stroke-linejoin:miter;stroke-opacity:1" d="M 629.272,563.261 629.272,544.924 z" id="boundary" inkscape:connector-curvature="0" />
	<path style="fill:none;stroke:red;stroke-width:1px;stroke-linecap:butt;stroke-linejoin:miter;stroke-opacity:1" d="M 664.111,594.433 664.111,612.769 z" id="boundary" inkscape:connector-curvature="0" />
	<path style="fill:none;stroke:red;stroke-width:1px;stroke-linecap:butt;stroke-linejoin:miter;stroke-opacity:1" d="M 673.279,565.094 664.111,594.433 z" id="boundary" inkscape:connector-curvature="0" />
	<path style="fill:none;stroke:red;stroke-width:1px;stroke-linecap:butt;stroke-linejoin:miter;stroke-opacity:1" d="M 664.111,612.769 664.111,631.105 z" id="boundary" inkscape:connector-curvature="0" />
	<path style="fill:none;stroke:red;stroke-width:1px;stroke-linecap:butt;stroke-linejoin:miter;stroke-opacity:1" d="M 539.423,719.12 521.087,717.287 z" id="boundary" inkscape:connector-curvature="0" />
	<path style="fill:none;stroke:red;stroke-width:1px;stroke-linecap:butt;stroke-linejoin:miter;stroke-opacity:1" d="M 526.588,658.61 535.756,636.606 z" id="boundary" inkscape:connector-curvature="0" />
	<path style="fill:none;stroke:red;stroke-width:1px;stroke-linecap:butt;stroke-linejoin:miter;stroke-opacity:1" d="M 594.433,719.12 576.096,719.12 z" id="boundary" inkscape:connector-curvature="0" />
	<path style="fill:none;stroke:red;stroke-width:1px;stroke-linecap:butt;stroke-linejoin:miter;stroke-opacity:1" d="M 557.76,719.12 539.423,719.12 z" id="boundary" inkscape:connector-curvature="0" />
	<path style="fill:none;stroke:red;stroke-width:1px;stroke-linecap:butt;stroke-linejoin:miter;stroke-opacity:1" d="M 610.935,709.952 594.433,719.12 z" id="boundary" inkscape:connector-curvature="0" />
	<path style="fill:none;stroke:red;stroke-width:1px;stroke-linecap:butt;stroke-linejoin:miter;stroke-opacity:1" d="M 620.104,691.616 610.935,709.952 z" id="boundary" inkscape:connector-curvature="0" />
	<path style="fill:none;stroke:red;stroke-width:1px;stroke-linecap:butt;stroke-linejoin:miter;stroke-opacity:1" d="M 576.096,719.12 557.76,719.12 z" id="boundary" inkscape:connector-curvature="0" />
	<path style="fill:none;stroke:red;stroke-width:1px;stroke-linecap:butt;stroke-linejoin:miter;stroke-opacity:1" d="M 629.272,643.941 664.111,631.105 z" id="boundary" inkscape:connector-curvature="0" />
	<path style="fill:none;stroke:red;stroke-width:1px;stroke-linecap:butt;stroke-linejoin:miter;stroke-opacity:1" d="M 664.111,631.105 675.113,645.774 z" id="boundary" inkscape:connector-curvature="0" />
	<path style="fill:none;stroke:red;stroke-width:1px;stroke-linecap:butt;stroke-linejoin:miter;stroke-opacity:1" d="M 620.104,627.438 629.272,643.941 z" id="boundary" inkscape:connector-curvature="0" />
	<path style="fill:none;stroke:red;stroke-width:1px;stroke-linecap:butt;stroke-linejoin:miter;stroke-opacity:1" d="M 629.272,643.941 629.272,662.277 z" id="boundary" inkscape:connector-curvature="0" />
	<path style="fill:none;stroke:red;stroke-width:1px;stroke-linecap:butt;stroke-linejoin:miter;stroke-opacity:1" d="M 675.113,645.774 693.449,645.774 z" id="boundary" inkscape:connector-curvature="0" />
	<path style="fill:none;stroke:red;stroke-width:1px;stroke-linecap:butt;stroke-linejoin:miter;stroke-opacity:1" d="M 620.104,691.616 629.272,662.277 z" id="boundary" inkscape:connector-curvature="0" />
	<path style="fill:none;stroke:red;stroke-width:1px;stroke-linecap:butt;stroke-linejoin:miter;stroke-opacity:1" d="M 711.786,645.774 730.122,645.774 z" id="boundary" inkscape:connector-curvature="0" />
	<path style="fill:none;stroke:red;stroke-width:1px;stroke-linecap:butt;stroke-linejoin:miter;stroke-opacity:1" d="M 711.786,645.774 693.449,645.774 z" id="boundary" inkscape:connector-curvature="0" />
	<path style="fill:none;stroke:red;stroke-width:1px;stroke-linecap:butt;stroke-linejoin:miter;stroke-opacity:1" d="M 757.627,526.588 757.627,544.924 z" id="boundary" inkscape:connector-curvature="0" />
	<path style="fill:none;stroke:red;stroke-width:1px;stroke-linecap:butt;stroke-linejoin:miter;stroke-opacity:1" d="M 757.627,526.588 757.627,508.251 z" id="boundary" inkscape:connector-curvature="0" />
	<path style="fill:none;stroke:red;stroke-width:1px;stroke-linecap:butt;stroke-linejoin:miter;stroke-opacity:1" d="M 794.299,513.752 803.468,530.255 z" id="boundary" inkscape:connector-curvature="0" />
	<path style="fill:none;stroke:red;stroke-width:1px;stroke-linecap:butt;stroke-linejoin:miter;stroke-opacity:1" d="M 757.627,563.261 757.627,581.597 z" id="boundary" inkscape:connector-curvature="0" />
	<path style="fill:none;stroke:red;stroke-width:1px;stroke-linecap:butt;stroke-linejoin:miter;stroke-opacity:1" d="M 757.627,563.261 757.627,544.924 z" id="boundary" inkscape:connector-curvature="0" />
	<path style="fill:none;stroke:red;stroke-width:1px;stroke-linecap:butt;stroke-linejoin:miter;stroke-opacity:1" d="M 810.802,548.591 819.97,565.094 z" id="boundary" inkscape:connector-curvature="0" />
	<path style="fill:none;stroke:red;stroke-width:1px;stroke-linecap:butt;stroke-linejoin:miter;stroke-opacity:1" d="M 803.468,530.255 810.802,548.591 z" id="boundary" inkscape:connector-curvature="0" />
	<path style="fill:none;stroke:red;stroke-width:1px;stroke-linecap:butt;stroke-linejoin:miter;stroke-opacity:1" d="M 757.627,581.597 757.627,599.933 z" id="boundary" inkscape:connector-curvature="0" />
	<path style="fill:none;stroke:red;stroke-width:1px;stroke-linecap:butt;stroke-linejoin:miter;stroke-opacity:1" d="M 907.985,526.588 904.318,508.251 z" id="boundary" inkscape:connector-curvature="0" />
	<path style="fill:none;stroke:red;stroke-width:1px;stroke-linecap:butt;stroke-linejoin:miter;stroke-opacity:1" d="M 913.486,544.924 907.985,526.588 z" id="boundary" inkscape:connector-curvature="0" />
	<path style="fill:none;stroke:red;stroke-width:1px;stroke-linecap:butt;stroke-linejoin:miter;stroke-opacity:1" d="M 992.333,508.251 975.83,499.083 z" id="boundary" inkscape:connector-curvature="0" />
	<path style="fill:none;stroke:red;stroke-width:1px;stroke-linecap:butt;stroke-linejoin:miter;stroke-opacity:1" d="M 819.97,565.094 819.97,583.431 z" id="boundary" inkscape:connector-curvature="0" />
	<path style="fill:none;stroke:red;stroke-width:1px;stroke-linecap:butt;stroke-linejoin:miter;stroke-opacity:1" d="M 913.486,544.924 917.153,563.261 z" id="boundary" inkscape:connector-curvature="0" />
	<path style="fill:none;stroke:red;stroke-width:1px;stroke-linecap:butt;stroke-linejoin:miter;stroke-opacity:1" d="M 917.153,563.261 922.654,590.765 z" id="boundary" inkscape:connector-curvature="0" />
	<path style="fill:none;stroke:red;stroke-width:1px;stroke-linecap:butt;stroke-linejoin:miter;stroke-opacity:1" d="M 757.627,599.933 761.294,618.27 z" id="boundary" inkscape:connector-curvature="0" />
	<path style="fill:none;stroke:red;stroke-width:1px;stroke-linecap:butt;stroke-linejoin:miter;stroke-opacity:1" d="M 761.294,618.27 748.458,636.606 z" id="boundary" inkscape:connector-curvature="0" />
	<path style="fill:none;stroke:red;stroke-width:1px;stroke-linecap:butt;stroke-linejoin:miter;stroke-opacity:1" d="M 838.307,664.111 819.97,664.111 z" id="boundary" inkscape:connector-curvature="0" />
	<path style="fill:none;stroke:red;stroke-width:1px;stroke-linecap:butt;stroke-linejoin:miter;stroke-opacity:1" d="M 816.303,607.268 801.634,621.937 z" id="boundary" inkscape:connector-curvature="0" />
	<path style="fill:none;stroke:red;stroke-width:1px;stroke-linecap:butt;stroke-linejoin:miter;stroke-opacity:1" d="M 819.97,583.431 816.303,607.268 z" id="boundary" inkscape:connector-curvature="0" />
	<path style="fill:none;stroke:red;stroke-width:1px;stroke-linecap:butt;stroke-linejoin:miter;stroke-opacity:1" d="M 801.634,621.937 792.466,640.274 z" id="boundary" inkscape:connector-curvature="0" />
	<path style="fill:none;stroke:red;stroke-width:1px;stroke-linecap:butt;stroke-linejoin:miter;stroke-opacity:1" d="M 792.466,640.274 801.634,656.776 z" id="boundary" inkscape:connector-curvature="0" />
	<path style="fill:none;stroke:red;stroke-width:1px;stroke-linecap:butt;stroke-linejoin:miter;stroke-opacity:1" d="M 801.634,656.776 819.97,664.111 z" id="boundary" inkscape:connector-curvature="0" />
	<path style="fill:none;stroke:red;stroke-width:1px;stroke-linecap:butt;stroke-linejoin:miter;stroke-opacity:1" d="M 730.122,645.774 748.458,636.606 z" id="boundary" inkscape:connector-curvature="0" />
	<path style="fill:none;stroke:red;stroke-width:1px;stroke-linecap:butt;stroke-linejoin:miter;stroke-opacity:1" d="M 909.819,651.275 891.482,660.444 z" id="boundary" inkscape:connector-curvature="0" />
	<path style="fill:none;stroke:red;stroke-width:1px;stroke-linecap:butt;stroke-linejoin:miter;stroke-opacity:1" d="M 922.654,627.438 909.819,651.275 z" id="boundary" inkscape:connector-curvature="0" />
	<path style="fill:none;stroke:red;stroke-width:1px;stroke-linecap:butt;stroke-linejoin:miter;stroke-opacity:1" d="M 922.654,609.102 922.654,627.438 z" id="boundary" inkscape:connector-curvature="0" />
	<path style="fill:none;stroke:red;stroke-width:1px;stroke-linecap:butt;stroke-linejoin:miter;stroke-opacity:1" d="M 922.654,609.102 922.654,590.765 z" id="boundary" inkscape:connector-curvature="0" />
	<path style="fill:none;stroke:red;stroke-width:1px;stroke-linecap:butt;stroke-linejoin:miter;stroke-opacity:1" d="M 838.307,664.111 854.81,673.279 z" id="boundary" inkscape:connector-curvature="0" />
	<path style="fill:none;stroke:red;stroke-width:1px;stroke-linecap:butt;stroke-linejoin:miter;stroke-opacity:1" d="M 873.146,669.612 854.81,673.279 z" id="boundary" inkscape:connector-curvature="0" />
	<path style="fill:none;stroke:red;stroke-width:1px;stroke-linecap:butt;stroke-linejoin:miter;stroke-opacity:1" d="M 891.482,660.444 873.146,669.612 z" id="boundary" inkscape:connector-curvature="0" />
	<circle cx="4" cy="227.704" r="4" fill="#0" id="circle0"/>
	<circle cx="13.1682" cy="209.368" r="4" fill="#0" id="circle1"/>
	<circle cx="13.1682" cy="244.207" r="4" fill="#0" id="circle2"/>
	<circle cx="13.1682" cy="365.227" r="4" fill="#0" id="circle3"/>
	<circle cx="22.3364" cy="328.555" r="4" fill="#0" id="circle4"/>
	<circle cx="22.3364" cy="346.891" r="4" fill="#0" id="circle5"/>
	<circle cx="22.3364" cy="381.73" r="4" fill="#0" id="circle6"/>
	<circle cx="22.3364" cy="400.067" r="4" fill="#0" id="circle7"/>
	<circle cx="31.5046" cy="209.368" r="4" fill="#0" id="circle8"/>
	<circle cx="31.5046" cy="251.542" r="4" fill="#0" id="circle9"/>
	<circle cx="31.5046" cy="301.05" r="4" fill="#0" id="circle10"/>
	<circle cx="31.5046" cy="416.569" r="4" fill="#0" id="circle11"/>
	<circle cx="40.6728" cy="268.044" r="4" fill="#0" id="circle12"/>
	<circle cx="42.5065" cy="431.238" r="4" fill="#0" id="circle13"/>
	<circle cx="49.841" cy="213.035" r="4" fill="#0" id="circle14"/>
	<circle cx="60.8429" cy="334.055" r="4" fill="#0" id="circle15"/>
	<circle cx="60.8429" cy="352.392" r="4" fill="#0" id="circle16"/>
	<circle cx="60.8429" cy="370.728" r="4" fill="#0" id="circle17"/>
	<circle cx="60.8429" cy="438.573" r="4" fill="#0" id="circle18"/>
	<circle cx="64.5102" cy="224.037" r="4" fill="#0" id="circle19"/>
	<circle cx="70.0111" cy="242.373" r="4" fill="#0" id="circle20"/>
	<circle cx="70.0111" cy="315.719" r="4" fill="#0" id="circle21"/>
	<circle cx="70.0111" cy="387.231" r="4" fill="#0" id="circle22"/>
	<circle cx="73.6784" cy="260.71" r="4" fill="#0" id="circle23"/>
	<circle cx="79.1793" cy="279.046" r="4" fill="#0" id="circle24"/>
	<circle cx="79.1793" cy="297.383" r="4" fill="#0" id="circle25"/>
	<circle cx="79.1793" cy="444.074" r="4" fill="#0" id="circle26"/>
	<circle cx="86.5139" cy="396.399" r="4" fill="#0" id="circle27"/>
	<circle cx="97.5157" cy="444.074" r="4" fill="#0" id="circle28"/>
	<circle cx="103.017" cy="405.567" r="4" fill="#0" id="circle29"/>
	<circle cx="104.85" cy="462.41" r="4" fill="#0" id="circle30"/>
	<circle cx="119.519" cy="396.399" r="4" fill="#0" id="circle31"/>
	<circle cx="123.187" cy="462.41" r="4" fill="#0" id="circle32"/>
	<circle cx="123.187" cy="484.414" r="4" fill="#0" id="circle33"/>
	<circle cx="137.856" cy="387.231" r="4" fill="#0" id="circle34"/>
	<circle cx="141.523" cy="484.414" r="4" fill="#0" id="circle35"/>
	<circle cx="147.024" cy="368.895" r="4" fill="#0" id="circle36"/>
	<circle cx="150.691" cy="310.218" r="4" fill="#0" id="circle37"/>
	<circle cx="150.691" cy="328.555" r="4" fill="#0" id="circle38"/>
	<circle cx="150.691" cy="346.891" r="4" fill="#0" id="circle39"/>
	<circle cx="156.192" cy="471.579" r="4" fill="#0" id="circle40"/>
	<circle cx="159.86" cy="273.545" r="4" fill="#0" id="circle41"/>
	<circle cx="159.86" cy="291.882" r="4" fill="#0" id="circle42"/>
	<circle cx="170.861" cy="453.242" r="4" fill="#0" id="circle43"/>
	<circle cx="174.529" cy="258.876" r="4" fill="#0" id="circle44"/>
	<circle cx="178.196" cy="236.872" r="4" fill="#0" id="circle45"/>
	<circle cx="185.53" cy="440.407" r="4" fill="#0" id="circle46"/>
	<circle cx="192.865" cy="222.203" r="4" fill="#0" id="circle47"/>
	<circle cx="196.532" cy="200.2" r="4" fill="#0" id="circle48"/>
	<circle cx="198.366" cy="425.738" r="4" fill="#0" id="circle49"/>
	<circle cx="205.701" cy="172.695" r="4" fill="#0" id="circle50"/>
	<circle cx="207.534" cy="407.401" r="4" fill="#0" id="circle51"/>
	<circle cx="214.869" cy="136.022" r="4" fill="#0" id="circle52"/>
	<circle cx="214.869" cy="154.359" r="4" fill="#0" id="circle53"/>
	<circle cx="222.203" cy="394.566" r="4" fill="#0" id="circle54"/>
	<circle cx="224.037" cy="117.686" r="4" fill="#0" id="circle55"/>
	<circle cx="233.205" cy="99.3494" r="4" fill="#0" id="circle56"/>
	<circle cx="233.205" cy="379.896" r="4" fill="#0" id="circle57"/>
	<circle cx="242.373" cy="81.0129" r="4" fill="#0" id="circle58"/>
	<circle cx="244.207" cy="361.56" r="4" fill="#0" id="circle59"/>
	<circle cx="251.542" cy="379.896" r="4" fill="#0" id="circle60"/>
	<circle cx="257.043" cy="66.3438" r="4" fill="#0" id="circle61"/>
	<circle cx="257.043" cy="398.233" r="4" fill="#0" id="circle62"/>
	<circle cx="269.878" cy="383.564" r="4" fill="#0" id="circle63"/>
	<circle cx="271.712" cy="51.6747" r="4" fill="#0" id="circle64"/>
	<circle cx="279.046" cy="365.227" r="4" fill="#0" id="circle65"/>
	<circle cx="279.046" cy="649.442" r="4" fill="#0" id="circle66"/>
	<circle cx="286.381" cy="38.8392" r="4" fill="#0" id="circle67"/>
	<circle cx="293.715" cy="350.558" r="4" fill="#0" id="circle68"/>
	<circle cx="293.715" cy="634.773" r="4" fill="#0" id="circle69"/>
	<circle cx="293.715" cy="662.277" r="4" fill="#0" id="circle70"/>
	<circle cx="302.884" cy="29.671" r="4" fill="#0" id="circle71"/>
	<circle cx="308.384" cy="620.104" r="4" fill="#0" id="circle72"/>
	<circle cx="308.384" cy="673.279" r="4" fill="#0" id="circle73"/>
	<circle cx="312.052" cy="343.224" r="4" fill="#0" id="circle74"/>
	<circle cx="321.22" cy="20.5028" r="4" fill="#0" id="circle75"/>
	<circle cx="326.721" cy="610.935" r="4" fill="#0" id="circle76"/>
	<circle cx="326.721" cy="673.279" r="4" fill="#0" id="circle77"/>
	<circle cx="328.555" cy="334.055" r="4" fill="#0" id="circle78"/>
	<circle cx="339.556" cy="20.5028" r="4" fill="#0" id="circle79"/>
	<circle cx="341.39" cy="598.1" r="4" fill="#0" id="circle80"/>
	<circle cx="343.224" cy="539.423" r="4" fill="#0" id="circle81"/>
	<circle cx="343.224" cy="557.76" r="4" fill="#0" id="circle82"/>
	<circle cx="343.224" cy="576.096" r="4" fill="#0" id="circle83"/>
	<circle cx="343.224" cy="682.447" r="4" fill="#0" id="circle84"/>
	<circle cx="345.057" cy="324.887" r="4" fill="#0" id="circle85"/>
	<circle cx="352.392" cy="447.741" r="4" fill="#0" id="circle86"/>
	<circle cx="352.392" cy="466.078" r="4" fill="#0" id="circle87"/>
	<circle cx="352.392" cy="484.414" r="4" fill="#0" id="circle88"/>
	<circle cx="352.392" cy="502.75" r="4" fill="#0" id="circle89"/>
	<circle cx="352.392" cy="521.087" r="4" fill="#0" id="circle90"/>
	<circle cx="357.893" cy="20.5028" r="4" fill="#0" id="circle91"/>
	<circle cx="361.56" cy="420.237" r="4" fill="#0" id="circle92"/>
	<circle cx="361.56" cy="682.447" r="4" fill="#0" id="circle93"/>
	<circle cx="363.394" cy="324.887" r="4" fill="#0" id="circle94"/>
	<circle cx="370.728" cy="343.224" r="4" fill="#0" id="circle95"/>
	<circle cx="370.728" cy="361.56" r="4" fill="#0" id="circle96"/>
	<circle cx="370.728" cy="383.564" r="4" fill="#0" id="circle97"/>
	<circle cx="370.728" cy="401.9" r="4" fill="#0" id="circle98"/>
	<circle cx="376.229" cy="20.5028" r="4" fill="#0" id="circle99"/>
	<circle cx="378.063" cy="673.279" r="4" fill="#0" id="circle100"/>
	<circle cx="394.566" cy="20.5028" r="4" fill="#0" id="circle101"/>
	<circle cx="396.399" cy="669.612" r="4" fill="#0" id="circle102"/>
	<circle cx="409.235" cy="654.943" r="4" fill="#0" id="circle103"/>
	<circle cx="411.068" cy="11.3346" r="4" fill="#0" id="circle104"/>
	<circle cx="418.403" cy="627.438" r="4" fill="#0" id="circle105"/>
	<circle cx="427.571" cy="599.933" r="4" fill="#0" id="circle106"/>
	<circle cx="429.405" cy="4" r="4" fill="#0" id="circle107"/>
	<circle cx="436.739" cy="572.429" r="4" fill="#0" id="circle108"/>
	<circle cx="445.908" cy="554.092" r="4" fill="#0" id="circle109"/>
	<circle cx="447.741" cy="11.3346" r="4" fill="#0" id="circle110"/>
	<circle cx="455.076" cy="29.671" r="4" fill="#0" id="circle111"/>
	<circle cx="455.076" cy="535.756" r="4" fill="#0" id="circle112"/>
	<circle cx="464.244" cy="499.083" r="4" fill="#0" id="circle113"/>
	<circle cx="464.244" cy="517.42" r="4" fill="#0" id="circle114"/>
	<circle cx="473.412" cy="29.671" r="4" fill="#0" id="circle115"/>
	<circle cx="473.412" cy="471.579" r="4" fill="#0" id="circle116"/>
	<circle cx="489.915" cy="480.747" r="4" fill="#0" id="circle117"/>
	<circle cx="491.749" cy="35.1719" r="4" fill="#0" id="circle118"/>
	<circle cx="499.083" cy="686.115" r="4" fill="#0" id="circle119"/>
	<circle cx="500.917" cy="495.416" r="4" fill="#0" id="circle120"/>
	<circle cx="508.251" cy="513.752" r="4" fill="#0" id="circle121"/>
	<circle cx="508.251" cy="667.778" r="4" fill="#0" id="circle122"/>
	<circle cx="508.251" cy="702.617" r="4" fill="#0" id="circle123"/>
	<circle cx="510.085" cy="29.671" r="4" fill="#0" id="circle124"/>
	<circle cx="517.42" cy="530.255" r="4" fill="#0" id="circle125"/>
	<circle cx="517.42" cy="548.591" r="4" fill="#0" id="circle126"/>
	<circle cx="517.42" cy="566.928" r="4" fill="#0" id="circle127"/>
	<circle cx="521.087" cy="717.287" r="4" fill="#0" id="circle128"/>
	<circle cx="526.588" cy="583.431" r="4" fill="#0" id="circle129"/>
	<circle cx="526.588" cy="601.767" r="4" fill="#0" id="circle130"/>
	<circle cx="526.588" cy="620.104" r="4" fill="#0" id="circle131"/>
	<circle cx="526.588" cy="658.61" r="4" fill="#0" id="circle132"/>
	<circle cx="528.421" cy="29.671" r="4" fill="#0" id="circle133"/>
	<circle cx="535.756" cy="636.606" r="4" fill="#0" id="circle134"/>
	<circle cx="539.423" cy="719.12" r="4" fill="#0" id="circle135"/>
	<circle cx="544.924" cy="38.8392" r="4" fill="#0" id="circle136"/>
	<circle cx="557.76" cy="719.12" r="4" fill="#0" id="circle137"/>
	<circle cx="561.427" cy="29.671" r="4" fill="#0" id="circle138"/>
	<circle cx="576.096" cy="719.12" r="4" fill="#0" id="circle139"/>
	<circle cx="577.93" cy="20.5028" r="4" fill="#0" id="circle140"/>
	<circle cx="594.433" cy="29.671" r="4" fill="#0" id="circle141"/>
	<circle cx="594.433" cy="719.12" r="4" fill="#0" id="circle142"/>
	<circle cx="610.935" cy="709.952" r="4" fill="#0" id="circle143"/>
	<circle cx="612.769" cy="29.671" r="4" fill="#0" id="circle144"/>
	<circle cx="620.104" cy="590.765" r="4" fill="#0" id="circle145"/>
	<circle cx="620.104" cy="609.102" r="4" fill="#0" id="circle146"/>
	<circle cx="620.104" cy="627.438" r="4" fill="#0" id="circle147"/>
	<circle cx="620.104" cy="691.616" r="4" fill="#0" id="circle148"/>
	<circle cx="629.272" cy="471.579" r="4" fill="#0" id="circle149"/>
	<circle cx="629.272" cy="489.915" r="4" fill="#0" id="circle150"/>
	<circle cx="629.272" cy="508.251" r="4" fill="#0" id="circle151"/>
	<circle cx="629.272" cy="526.588" r="4" fill="#0" id="circle152"/>
	<circle cx="629.272" cy="544.924" r="4" fill="#0" id="circle153"/>
	<circle cx="629.272" cy="563.261" r="4" fill="#0" id="circle154"/>
	<circle cx="629.272" cy="643.941" r="4" fill="#0" id="circle155"/>
	<circle cx="629.272" cy="662.277" r="4" fill="#0" id="circle156"/>
	<circle cx="631.105" cy="29.671" r="4" fill="#0" id="circle157"/>
	<circle cx="647.608" cy="462.41" r="4" fill="#0" id="circle158"/>
	<circle cx="649.442" cy="31.5046" r="4" fill="#0" id="circle159"/>
	<circle cx="664.111" cy="471.579" r="4" fill="#0" id="circle160"/>
	<circle cx="664.111" cy="489.915" r="4" fill="#0" id="circle161"/>
	<circle cx="664.111" cy="511.919" r="4" fill="#0" id="circle162"/>
	<circle cx="664.111" cy="594.433" r="4" fill="#0" id="circle163"/>
	<circle cx="664.111" cy="612.769" r="4" fill="#0" id="circle164"/>
	<circle cx="664.111" cy="631.105" r="4" fill="#0" id="circle165"/>
	<circle cx="667.778" cy="38.8392" r="4" fill="#0" id="circle166"/>
	<circle cx="673.279" cy="528.421" r="4" fill="#0" id="circle167"/>
	<circle cx="673.279" cy="546.758" r="4" fill="#0" id="circle168"/>
	<circle cx="673.279" cy="565.094" r="4" fill="#0" id="circle169"/>
	<circle cx="675.113" cy="645.774" r="4" fill="#0" id="circle170"/>
	<circle cx="686.115" cy="38.8392" r="4" fill="#0" id="circle171"/>
	<circle cx="693.449" cy="645.774" r="4" fill="#0" id="circle172"/>
	<circle cx="702.617" cy="48.0074" r="4" fill="#0" id="circle173"/>
	<circle cx="711.786" cy="645.774" r="4" fill="#0" id="circle174"/>
	<circle cx="720.954" cy="53.5083" r="4" fill="#0" id="circle175"/>
	<circle cx="730.122" cy="645.774" r="4" fill="#0" id="circle176"/>
	<circle cx="739.29" cy="57.1756" r="4" fill="#0" id="circle177"/>
	<circle cx="748.458" cy="636.606" r="4" fill="#0" id="circle178"/>
	<circle cx="755.793" cy="66.3438" r="4" fill="#0" id="circle179"/>
	<circle cx="757.627" cy="508.251" r="4" fill="#0" id="circle180"/>
	<circle cx="757.627" cy="526.588" r="4" fill="#0" id="circle181"/>
	<circle cx="757.627" cy="544.924" r="4" fill="#0" id="circle182"/>
	<circle cx="757.627" cy="563.261" r="4" fill="#0" id="circle183"/>
	<circle cx="757.627" cy="581.597" r="4" fill="#0" id="circle184"/>
	<circle cx="757.627" cy="599.933" r="4" fill="#0" id="circle185"/>
	<circle cx="761.294" cy="618.27" r="4" fill="#0" id="circle186"/>
	<circle cx="766.795" cy="489.915" r="4" fill="#0" id="circle187"/>
	<circle cx="774.129" cy="66.3438" r="4" fill="#0" id="circle188"/>
	<circle cx="783.298" cy="499.083" r="4" fill="#0" id="circle189"/>
	<circle cx="790.632" cy="75.512" r="4" fill="#0" id="circle190"/>
	<circle cx="792.466" cy="640.274" r="4" fill="#0" id="circle191"/>
	<circle cx="794.299" cy="513.752" r="4" fill="#0" id="circle192"/>
	<circle cx="801.634" cy="621.937" r="4" fill="#0" id="circle193"/>
	<circle cx="801.634" cy="656.776" r="4" fill="#0" id="circle194"/>
	<circle cx="803.468" cy="530.255" r="4" fill="#0" id="circle195"/>
	<circle cx="808.969" cy="75.512" r="4" fill="#0" id="circle196"/>
	<circle cx="810.802" cy="548.591" r="4" fill="#0" id="circle197"/>
	<circle cx="816.303" cy="607.268" r="4" fill="#0" id="circle198"/>
	<circle cx="819.97" cy="565.094" r="4" fill="#0" id="circle199"/>
	<circle cx="819.97" cy="583.431" r="4" fill="#0" id="circle200"/>
	<circle cx="819.97" cy="664.111" r="4" fill="#0" id="circle201"/>
	<circle cx="825.471" cy="84.6802" r="4" fill="#0" id="circle202"/>
	<circle cx="838.307" cy="664.111" r="4" fill="#0" id="circle203"/>
	<circle cx="841.974" cy="93.8484" r="4" fill="#0" id="circle204"/>
	<circle cx="854.81" cy="673.279" r="4" fill="#0" id="circle205"/>
	<circle cx="858.477" cy="103.017" r="4" fill="#0" id="circle206"/>
	<circle cx="873.146" cy="114.018" r="4" fill="#0" id="circle207"/>
	<circle cx="873.146" cy="669.612" r="4" fill="#0" id="circle208"/>
	<circle cx="885.982" cy="128.688" r="4" fill="#0" id="circle209"/>
	<circle cx="891.482" cy="660.444" r="4" fill="#0" id="circle210"/>
	<circle cx="895.15" cy="145.19" r="4" fill="#0" id="circle211"/>
	<circle cx="895.15" cy="471.579" r="4" fill="#0" id="circle212"/>
	<circle cx="898.817" cy="489.915" r="4" fill="#0" id="circle213"/>
	<circle cx="904.318" cy="161.693" r="4" fill="#0" id="circle214"/>
	<circle cx="904.318" cy="434.906" r="4" fill="#0" id="circle215"/>
	<circle cx="904.318" cy="453.242" r="4" fill="#0" id="circle216"/>
	<circle cx="904.318" cy="508.251" r="4" fill="#0" id="circle217"/>
	<circle cx="907.985" cy="526.588" r="4" fill="#0" id="circle218"/>
	<circle cx="909.819" cy="651.275" r="4" fill="#0" id="circle219"/>
	<circle cx="913.486" cy="407.401" r="4" fill="#0" id="circle220"/>
	<circle cx="913.486" cy="544.924" r="4" fill="#0" id="circle221"/>
	<circle cx="915.32" cy="176.362" r="4" fill="#0" id="circle222"/>
	<circle cx="917.153" cy="563.261" r="4" fill="#0" id="circle223"/>
	<circle cx="922.654" cy="194.699" r="4" fill="#0" id="circle224"/>
	<circle cx="922.654" cy="370.728" r="4" fill="#0" id="circle225"/>
	<circle cx="922.654" cy="389.065" r="4" fill="#0" id="circle226"/>
	<circle cx="922.654" cy="590.765" r="4" fill="#0" id="circle227"/>
	<circle cx="922.654" cy="609.102" r="4" fill="#0" id="circle228"/>
	<circle cx="922.654" cy="627.438" r="4" fill="#0" id="circle229"/>
	<circle cx="931.823" cy="211.201" r="4" fill="#0" id="circle230"/>
	<circle cx="931.823" cy="352.392" r="4" fill="#0" id="circle231"/>
	<circle cx="940.991" cy="227.704" r="4" fill="#0" id="circle232"/>
	<circle cx="940.991" cy="374.396" r="4" fill="#0" id="circle233"/>
	<circle cx="948.325" cy="246.041" r="4" fill="#0" id="circle234"/>
	<circle cx="948.325" cy="392.732" r="4" fill="#0" id="circle235"/>
	<circle cx="948.325" cy="411.068" r="4" fill="#0" id="circle236"/>
	<circle cx="948.325" cy="429.405" r="4" fill="#0" id="circle237"/>
	<circle cx="950.159" cy="264.377" r="4" fill="#0" id="circle238"/>
	<circle cx="957.494" cy="445.908" r="4" fill="#0" id="circle239"/>
	<circle cx="959.327" cy="280.88" r="4" fill="#0" id="circle240"/>
	<circle cx="959.327" cy="299.216" r="4" fill="#0" id="circle241"/>
	<circle cx="964.828" cy="317.553" r="4" fill="#0" id="circle242"/>
	<circle cx="966.662" cy="462.41" r="4" fill="#0" id="circle243"/>
	<circle cx="968.495" cy="335.889" r="4" fill="#0" id="circle244"/>
	<circle cx="968.495" cy="354.226" r="4" fill="#0" id="circle245"/>
	<circle cx="968.495" cy="372.562" r="4" fill="#0" id="circle246"/>
	<circle cx="968.495" cy="398.233" r="4" fill="#0" id="circle247"/>
	<circle cx="972.163" cy="480.747" r="4" fill="#0" id="circle248"/>
	<circle cx="975.83" cy="499.083" r="4" fill="#0" id="circle249"/>
	<circle cx="977.664" cy="414.736" r="4" fill="#0" id="circle250"/>
	<circle cx="977.664" cy="433.072" r="4" fill="#0" id="circle251"/>
	<circle cx="986.832" cy="449.575" r="4" fill="#0" id="circle252"/>
	<circle cx="986.832" cy="467.911" r="4" fill="#0" id="circle253"/>
	<circle cx="992.333" cy="508.251" r="4" fill="#0" id="circle254"/>
	<circle cx="996" cy="484.414" r="4" fill="#0" id="circle255"/>
	</g>
</svg>