<?xml version="1.0" encoding="UTF-8" standalone="no"?>
<!-- Created with CurveBenchmark -->
<svg
	xmlns:dc="http://purl.org/dc/elements/1.1/"
	xmlns:cc="http://creativecommons.org/ns#"
	xmlns:rdf="http://www.w3.org/1999/02/22-rdf-syntax-ns#"
	xmlns:svg="http://www.w3.org/2000/svg"
	xmlns="http://www.w3.org/2000/svg"
	xmlns:sodipodi="http://sodipodi.sourceforge.net/DTD/sodipodi-0.dtd"
	xmlns:inkscape="http://www.inkscape.org/namespaces/inkscape"
	width="1000"
	height="1000"
	id="svg2"
	version="1.1"
	sodipodi:docname="manifold/ccrust-fish0104.png.txt">
<defs
	id="defs4" />
<metadata
	id="metadata7">
	<rdf:RDF>
		<cc:Work
			rdf:about="">
			<dc:format>image/svg+xml</dc:format>
			<dc:type
				rdf:resource="http://purl.org/dc/dcmitype/StillImage" />
			<dc:title></dc:title>
		</cc:Work>
	</rdf:RDF>
</metadata>
<g
	inkscape:label="Layer 1"
	inkscape:groupmode="layer"
	id="layer1">
	<path style="fill:none;stroke:red;stroke-width:1px;stroke-linecap:butt;stroke-linejoin:miter;stroke-opacity:1" d="M 4,78.6841 20.2357,81.9313 z" id="boundary" inkscape:connector-curvature="0" />
	<path style="fill:none;stroke:red;stroke-width:1px;stroke-linecap:butt;stroke-linejoin:miter;stroke-opacity:1" d="M 4,94.9198 4,78.6841 z" id="boundary" inkscape:connector-curvature="0" />
	<path style="fill:none;stroke:red;stroke-width:1px;stroke-linecap:butt;stroke-linejoin:miter;stroke-opacity:1" d="M 4,111.155 4,94.9198 z" id="boundary" inkscape:connector-curvature="0" />
	<path style="fill:none;stroke:red;stroke-width:1px;stroke-linecap:butt;stroke-linejoin:miter;stroke-opacity:1" d="M 20.2357,81.9313 34.8478,90.0491 z" id="boundary" inkscape:connector-curvature="0" />
	<path style="fill:none;stroke:red;stroke-width:1px;stroke-linecap:butt;stroke-linejoin:miter;stroke-opacity:1" d="M 16.9885,122.52 4,111.155 z" id="boundary" inkscape:connector-curvature="0" />
	<path style="fill:none;stroke:red;stroke-width:1px;stroke-linecap:butt;stroke-linejoin:miter;stroke-opacity:1" d="M 49.4599,81.9313 34.8478,90.0491 z" id="boundary" inkscape:connector-curvature="0" />
	<path style="fill:none;stroke:red;stroke-width:1px;stroke-linecap:butt;stroke-linejoin:miter;stroke-opacity:1" d="M 49.4599,81.9313 60.8249,94.9198 z" id="boundary" inkscape:connector-curvature="0" />
	<path style="fill:none;stroke:red;stroke-width:1px;stroke-linecap:butt;stroke-linejoin:miter;stroke-opacity:1" d="M 77.0606,98.1669 60.8249,94.9198 z" id="boundary" inkscape:connector-curvature="0" />
	<path style="fill:none;stroke:red;stroke-width:1px;stroke-linecap:butt;stroke-linejoin:miter;stroke-opacity:1" d="M 91.6727,106.285 77.0606,98.1669 z" id="boundary" inkscape:connector-curvature="0" />
	<path style="fill:none;stroke:red;stroke-width:1px;stroke-linecap:butt;stroke-linejoin:miter;stroke-opacity:1" d="M 106.285,114.403 91.6727,106.285 z" id="boundary" inkscape:connector-curvature="0" />
	<path style="fill:none;stroke:red;stroke-width:1px;stroke-linecap:butt;stroke-linejoin:miter;stroke-opacity:1" d="M 120.897,122.52 106.285,114.403 z" id="boundary" inkscape:connector-curvature="0" />
	<path style="fill:none;stroke:red;stroke-width:1px;stroke-linecap:butt;stroke-linejoin:miter;stroke-opacity:1" d="M 16.9885,122.52 28.3535,135.509 z" id="boundary" inkscape:connector-curvature="0" />
	<path style="fill:none;stroke:red;stroke-width:1px;stroke-linecap:butt;stroke-linejoin:miter;stroke-opacity:1" d="M 28.3535,135.509 36.4714,150.121 z" id="boundary" inkscape:connector-curvature="0" />
	<path style="fill:none;stroke:red;stroke-width:1px;stroke-linecap:butt;stroke-linejoin:miter;stroke-opacity:1" d="M 36.4714,150.121 44.5892,164.733 z" id="boundary" inkscape:connector-curvature="0" />
	<path style="fill:none;stroke:red;stroke-width:1px;stroke-linecap:butt;stroke-linejoin:miter;stroke-opacity:1" d="M 44.5892,164.733 49.4599,180.969 z" id="boundary" inkscape:connector-curvature="0" />
	<path style="fill:none;stroke:red;stroke-width:1px;stroke-linecap:butt;stroke-linejoin:miter;stroke-opacity:1" d="M 60.8249,193.957 49.4599,180.969 z" id="boundary" inkscape:connector-curvature="0" />
	<path style="fill:none;stroke:red;stroke-width:1px;stroke-linecap:butt;stroke-linejoin:miter;stroke-opacity:1" d="M 133.885,133.885 120.897,122.52 z" id="boundary" inkscape:connector-curvature="0" />
	<path style="fill:none;stroke:red;stroke-width:1px;stroke-linecap:butt;stroke-linejoin:miter;stroke-opacity:1" d="M 150.121,138.756 133.885,133.885 z" id="boundary" inkscape:connector-curvature="0" />
	<path style="fill:none;stroke:red;stroke-width:1px;stroke-linecap:butt;stroke-linejoin:miter;stroke-opacity:1" d="M 164.733,146.874 150.121,138.756 z" id="boundary" inkscape:connector-curvature="0" />
	<path style="fill:none;stroke:red;stroke-width:1px;stroke-linecap:butt;stroke-linejoin:miter;stroke-opacity:1" d="M 179.345,154.992 164.733,146.874 z" id="boundary" inkscape:connector-curvature="0" />
	<path style="fill:none;stroke:red;stroke-width:1px;stroke-linecap:butt;stroke-linejoin:miter;stroke-opacity:1" d="M 304.36,52.707 288.124,52.707 z" id="boundary" inkscape:connector-curvature="0" />
	<path style="fill:none;stroke:red;stroke-width:1px;stroke-linecap:butt;stroke-linejoin:miter;stroke-opacity:1" d="M 271.889,78.6841 271.889,54.3306 z" id="boundary" inkscape:connector-curvature="0" />
	<path style="fill:none;stroke:red;stroke-width:1px;stroke-linecap:butt;stroke-linejoin:miter;stroke-opacity:1" d="M 271.889,54.3306 288.124,52.707 z" id="boundary" inkscape:connector-curvature="0" />
	<path style="fill:none;stroke:red;stroke-width:1px;stroke-linecap:butt;stroke-linejoin:miter;stroke-opacity:1" d="M 280.007,93.2962 271.889,78.6841 z" id="boundary" inkscape:connector-curvature="0" />
	<path style="fill:none;stroke:red;stroke-width:1px;stroke-linecap:butt;stroke-linejoin:miter;stroke-opacity:1" d="M 280.007,93.2962 276.759,114.403 z" id="boundary" inkscape:connector-curvature="0" />
	<path style="fill:none;stroke:red;stroke-width:1px;stroke-linecap:butt;stroke-linejoin:miter;stroke-opacity:1" d="M 304.36,52.707 314.101,65.6956 z" id="boundary" inkscape:connector-curvature="0" />
	<path style="fill:none;stroke:red;stroke-width:1px;stroke-linecap:butt;stroke-linejoin:miter;stroke-opacity:1" d="M 328.714,73.8134 314.101,65.6956 z" id="boundary" inkscape:connector-curvature="0" />
	<path style="fill:none;stroke:red;stroke-width:1px;stroke-linecap:butt;stroke-linejoin:miter;stroke-opacity:1" d="M 369.303,103.038 354.691,94.9198 z" id="boundary" inkscape:connector-curvature="0" />
	<path style="fill:none;stroke:red;stroke-width:1px;stroke-linecap:butt;stroke-linejoin:miter;stroke-opacity:1" d="M 354.691,94.9198 343.326,81.9313 z" id="boundary" inkscape:connector-curvature="0" />
	<path style="fill:none;stroke:red;stroke-width:1px;stroke-linecap:butt;stroke-linejoin:miter;stroke-opacity:1" d="M 385.538,106.285 369.303,103.038 z" id="boundary" inkscape:connector-curvature="0" />
	<path style="fill:none;stroke:red;stroke-width:1px;stroke-linecap:butt;stroke-linejoin:miter;stroke-opacity:1" d="M 328.714,73.8134 343.326,81.9313 z" id="boundary" inkscape:connector-curvature="0" />
	<path style="fill:none;stroke:red;stroke-width:1px;stroke-linecap:butt;stroke-linejoin:miter;stroke-opacity:1" d="M 239.417,151.745 252.406,138.756 z" id="boundary" inkscape:connector-curvature="0" />
	<path style="fill:none;stroke:red;stroke-width:1px;stroke-linecap:butt;stroke-linejoin:miter;stroke-opacity:1" d="M 252.406,138.756 268.642,130.638 z" id="boundary" inkscape:connector-curvature="0" />
	<path style="fill:none;stroke:red;stroke-width:1px;stroke-linecap:butt;stroke-linejoin:miter;stroke-opacity:1" d="M 179.345,154.992 193.957,163.11 z" id="boundary" inkscape:connector-curvature="0" />
	<path style="fill:none;stroke:red;stroke-width:1px;stroke-linecap:butt;stroke-linejoin:miter;stroke-opacity:1" d="M 210.193,163.11 193.957,163.11 z" id="boundary" inkscape:connector-curvature="0" />
	<path style="fill:none;stroke:red;stroke-width:1px;stroke-linecap:butt;stroke-linejoin:miter;stroke-opacity:1" d="M 226.429,163.11 210.193,163.11 z" id="boundary" inkscape:connector-curvature="0" />
	<path style="fill:none;stroke:red;stroke-width:1px;stroke-linecap:butt;stroke-linejoin:miter;stroke-opacity:1" d="M 239.417,151.745 226.429,163.11 z" id="boundary" inkscape:connector-curvature="0" />
	<path style="fill:none;stroke:red;stroke-width:1px;stroke-linecap:butt;stroke-linejoin:miter;stroke-opacity:1" d="M 401.774,106.285 385.538,106.285 z" id="boundary" inkscape:connector-curvature="0" />
	<path style="fill:none;stroke:red;stroke-width:1px;stroke-linecap:butt;stroke-linejoin:miter;stroke-opacity:1" d="M 418.01,106.285 401.774,106.285 z" id="boundary" inkscape:connector-curvature="0" />
	<path style="fill:none;stroke:red;stroke-width:1px;stroke-linecap:butt;stroke-linejoin:miter;stroke-opacity:1" d="M 268.642,130.638 276.759,114.403 z" id="boundary" inkscape:connector-curvature="0" />
	<path style="fill:none;stroke:red;stroke-width:1px;stroke-linecap:butt;stroke-linejoin:miter;stroke-opacity:1" d="M 434.245,106.285 418.01,106.285 z" id="boundary" inkscape:connector-curvature="0" />
	<path style="fill:none;stroke:red;stroke-width:1px;stroke-linecap:butt;stroke-linejoin:miter;stroke-opacity:1" d="M 60.8249,224.805 60.8249,193.957 z" id="boundary" inkscape:connector-curvature="0" />
	<path style="fill:none;stroke:red;stroke-width:1px;stroke-linecap:butt;stroke-linejoin:miter;stroke-opacity:1" d="M 60.8249,224.805 60.8249,241.041 z" id="boundary" inkscape:connector-curvature="0" />
	<path style="fill:none;stroke:red;stroke-width:1px;stroke-linecap:butt;stroke-linejoin:miter;stroke-opacity:1" d="M 60.8249,241.041 60.8249,257.277 z" id="boundary" inkscape:connector-curvature="0" />
	<path style="fill:none;stroke:red;stroke-width:1px;stroke-linecap:butt;stroke-linejoin:miter;stroke-opacity:1" d="M 60.8249,257.277 52.707,273.512 z" id="boundary" inkscape:connector-curvature="0" />
	<path style="fill:none;stroke:red;stroke-width:1px;stroke-linecap:butt;stroke-linejoin:miter;stroke-opacity:1" d="M 44.5892,297.866 52.707,273.512 z" id="boundary" inkscape:connector-curvature="0" />
	<path style="fill:none;stroke:red;stroke-width:1px;stroke-linecap:butt;stroke-linejoin:miter;stroke-opacity:1" d="M 44.5892,297.866 36.4714,314.101 z" id="boundary" inkscape:connector-curvature="0" />
	<path style="fill:none;stroke:red;stroke-width:1px;stroke-linecap:butt;stroke-linejoin:miter;stroke-opacity:1" d="M 176.098,278.383 159.863,286.501 z" id="boundary" inkscape:connector-curvature="0" />
	<path style="fill:none;stroke:red;stroke-width:1px;stroke-linecap:butt;stroke-linejoin:miter;stroke-opacity:1" d="M 192.334,270.265 176.098,278.383 z" id="boundary" inkscape:connector-curvature="0" />
	<path style="fill:none;stroke:red;stroke-width:1px;stroke-linecap:butt;stroke-linejoin:miter;stroke-opacity:1" d="M 146.874,302.736 159.863,286.501 z" id="boundary" inkscape:connector-curvature="0" />
	<path style="fill:none;stroke:red;stroke-width:1px;stroke-linecap:butt;stroke-linejoin:miter;stroke-opacity:1" d="M 133.885,314.101 146.874,302.736 z" id="boundary" inkscape:connector-curvature="0" />
	<path style="fill:none;stroke:red;stroke-width:1px;stroke-linecap:butt;stroke-linejoin:miter;stroke-opacity:1" d="M 28.3535,330.337 36.4714,314.101 z" id="boundary" inkscape:connector-curvature="0" />
	<path style="fill:none;stroke:red;stroke-width:1px;stroke-linecap:butt;stroke-linejoin:miter;stroke-opacity:1" d="M 44.5892,351.444 28.3535,346.573 z" id="boundary" inkscape:connector-curvature="0" />
	<path style="fill:none;stroke:red;stroke-width:1px;stroke-linecap:butt;stroke-linejoin:miter;stroke-opacity:1" d="M 28.3535,346.573 28.3535,330.337 z" id="boundary" inkscape:connector-curvature="0" />
	<path style="fill:none;stroke:red;stroke-width:1px;stroke-linecap:butt;stroke-linejoin:miter;stroke-opacity:1" d="M 60.8249,351.444 44.5892,351.444 z" id="boundary" inkscape:connector-curvature="0" />
	<path style="fill:none;stroke:red;stroke-width:1px;stroke-linecap:butt;stroke-linejoin:miter;stroke-opacity:1" d="M 75.437,343.326 60.8249,351.444 z" id="boundary" inkscape:connector-curvature="0" />
	<path style="fill:none;stroke:red;stroke-width:1px;stroke-linecap:butt;stroke-linejoin:miter;stroke-opacity:1" d="M 133.885,314.101 120.897,327.09 z" id="boundary" inkscape:connector-curvature="0" />
	<path style="fill:none;stroke:red;stroke-width:1px;stroke-linecap:butt;stroke-linejoin:miter;stroke-opacity:1" d="M 120.897,327.09 104.661,327.09 z" id="boundary" inkscape:connector-curvature="0" />
	<path style="fill:none;stroke:red;stroke-width:1px;stroke-linecap:butt;stroke-linejoin:miter;stroke-opacity:1" d="M 104.661,327.09 90.0491,335.208 z" id="boundary" inkscape:connector-curvature="0" />
	<path style="fill:none;stroke:red;stroke-width:1px;stroke-linecap:butt;stroke-linejoin:miter;stroke-opacity:1" d="M 75.437,343.326 90.0491,335.208 z" id="boundary" inkscape:connector-curvature="0" />
	<path style="fill:none;stroke:red;stroke-width:1px;stroke-linecap:butt;stroke-linejoin:miter;stroke-opacity:1" d="M 221.558,254.029 237.794,254.029 z" id="boundary" inkscape:connector-curvature="0" />
	<path style="fill:none;stroke:red;stroke-width:1px;stroke-linecap:butt;stroke-linejoin:miter;stroke-opacity:1" d="M 221.558,254.029 205.322,258.9 z" id="boundary" inkscape:connector-curvature="0" />
	<path style="fill:none;stroke:red;stroke-width:1px;stroke-linecap:butt;stroke-linejoin:miter;stroke-opacity:1" d="M 237.794,254.029 254.029,254.029 z" id="boundary" inkscape:connector-curvature="0" />
	<path style="fill:none;stroke:red;stroke-width:1px;stroke-linecap:butt;stroke-linejoin:miter;stroke-opacity:1" d="M 254.029,254.029 270.265,254.029 z" id="boundary" inkscape:connector-curvature="0" />
	<path style="fill:none;stroke:red;stroke-width:1px;stroke-linecap:butt;stroke-linejoin:miter;stroke-opacity:1" d="M 205.322,258.9 192.334,270.265 z" id="boundary" inkscape:connector-curvature="0" />
	<path style="fill:none;stroke:red;stroke-width:1px;stroke-linecap:butt;stroke-linejoin:miter;stroke-opacity:1" d="M 284.877,262.147 288.124,278.383 z" id="boundary" inkscape:connector-curvature="0" />
	<path style="fill:none;stroke:red;stroke-width:1px;stroke-linecap:butt;stroke-linejoin:miter;stroke-opacity:1" d="M 270.265,254.029 284.877,262.147 z" id="boundary" inkscape:connector-curvature="0" />
	<path style="fill:none;stroke:red;stroke-width:1px;stroke-linecap:butt;stroke-linejoin:miter;stroke-opacity:1" d="M 305.984,305.984 292.995,294.619 z" id="boundary" inkscape:connector-curvature="0" />
	<path style="fill:none;stroke:red;stroke-width:1px;stroke-linecap:butt;stroke-linejoin:miter;stroke-opacity:1" d="M 292.995,294.619 288.124,278.383 z" id="boundary" inkscape:connector-curvature="0" />
	<path style="fill:none;stroke:red;stroke-width:1px;stroke-linecap:butt;stroke-linejoin:miter;stroke-opacity:1" d="M 432.622,294.619 448.858,294.619 z" id="boundary" inkscape:connector-curvature="0" />
	<path style="fill:none;stroke:red;stroke-width:1px;stroke-linecap:butt;stroke-linejoin:miter;stroke-opacity:1" d="M 432.622,294.619 416.386,299.489 z" id="boundary" inkscape:connector-curvature="0" />
	<path style="fill:none;stroke:red;stroke-width:1px;stroke-linecap:butt;stroke-linejoin:miter;stroke-opacity:1" d="M 312.478,322.219 312.478,338.455 z" id="boundary" inkscape:connector-curvature="0" />
	<path style="fill:none;stroke:red;stroke-width:1px;stroke-linecap:butt;stroke-linejoin:miter;stroke-opacity:1" d="M 320.596,353.067 312.478,338.455 z" id="boundary" inkscape:connector-curvature="0" />
	<path style="fill:none;stroke:red;stroke-width:1px;stroke-linecap:butt;stroke-linejoin:miter;stroke-opacity:1" d="M 331.961,366.056 320.596,353.067 z" id="boundary" inkscape:connector-curvature="0" />
	<path style="fill:none;stroke:red;stroke-width:1px;stroke-linecap:butt;stroke-linejoin:miter;stroke-opacity:1" d="M 348.196,359.561 331.961,366.056 z" id="boundary" inkscape:connector-curvature="0" />
	<path style="fill:none;stroke:red;stroke-width:1px;stroke-linecap:butt;stroke-linejoin:miter;stroke-opacity:1" d="M 312.478,322.219 305.984,305.984 z" id="boundary" inkscape:connector-curvature="0" />
	<path style="fill:none;stroke:red;stroke-width:1px;stroke-linecap:butt;stroke-linejoin:miter;stroke-opacity:1" d="M 403.398,310.854 416.386,299.489 z" id="boundary" inkscape:connector-curvature="0" />
	<path style="fill:none;stroke:red;stroke-width:1px;stroke-linecap:butt;stroke-linejoin:miter;stroke-opacity:1" d="M 387.162,327.09 375.797,340.079 z" id="boundary" inkscape:connector-curvature="0" />
	<path style="fill:none;stroke:red;stroke-width:1px;stroke-linecap:butt;stroke-linejoin:miter;stroke-opacity:1" d="M 387.162,327.09 403.398,310.854 z" id="boundary" inkscape:connector-curvature="0" />
	<path style="fill:none;stroke:red;stroke-width:1px;stroke-linecap:butt;stroke-linejoin:miter;stroke-opacity:1" d="M 362.809,351.444 348.196,359.561 z" id="boundary" inkscape:connector-curvature="0" />
	<path style="fill:none;stroke:red;stroke-width:1px;stroke-linecap:butt;stroke-linejoin:miter;stroke-opacity:1" d="M 375.797,340.079 362.809,351.444 z" id="boundary" inkscape:connector-curvature="0" />
	<path style="fill:none;stroke:red;stroke-width:1px;stroke-linecap:butt;stroke-linejoin:miter;stroke-opacity:1" d="M 448.858,294.619 465.093,294.619 z" id="boundary" inkscape:connector-curvature="0" />
	<path style="fill:none;stroke:red;stroke-width:1px;stroke-linecap:butt;stroke-linejoin:miter;stroke-opacity:1" d="M 499.188,13.7414 515.424,8.8707 z" id="boundary" inkscape:connector-curvature="0" />
	<path style="fill:none;stroke:red;stroke-width:1px;stroke-linecap:butt;stroke-linejoin:miter;stroke-opacity:1" d="M 495.941,33.2242 499.188,13.7414 z" id="boundary" inkscape:connector-curvature="0" />
	<path style="fill:none;stroke:red;stroke-width:1px;stroke-linecap:butt;stroke-linejoin:miter;stroke-opacity:1" d="M 482.953,46.2128 495.941,33.2242 z" id="boundary" inkscape:connector-curvature="0" />
	<path style="fill:none;stroke:red;stroke-width:1px;stroke-linecap:butt;stroke-linejoin:miter;stroke-opacity:1" d="M 482.953,62.4484 482.953,46.2128 z" id="boundary" inkscape:connector-curvature="0" />
	<path style="fill:none;stroke:red;stroke-width:1px;stroke-linecap:butt;stroke-linejoin:miter;stroke-opacity:1" d="M 482.953,62.4484 474.835,78.6841 z" id="boundary" inkscape:connector-curvature="0" />
	<path style="fill:none;stroke:red;stroke-width:1px;stroke-linecap:butt;stroke-linejoin:miter;stroke-opacity:1" d="M 541.401,16.9885 549.519,31.6007 z" id="boundary" inkscape:connector-curvature="0" />
	<path style="fill:none;stroke:red;stroke-width:1px;stroke-linecap:butt;stroke-linejoin:miter;stroke-opacity:1" d="M 557.637,46.2128 564.131,62.4484 z" id="boundary" inkscape:connector-curvature="0" />
	<path style="fill:none;stroke:red;stroke-width:1px;stroke-linecap:butt;stroke-linejoin:miter;stroke-opacity:1" d="M 557.637,46.2128 549.519,31.6007 z" id="boundary" inkscape:connector-curvature="0" />
	<path style="fill:none;stroke:red;stroke-width:1px;stroke-linecap:butt;stroke-linejoin:miter;stroke-opacity:1" d="M 515.424,8.8707 531.66,4 z" id="boundary" inkscape:connector-curvature="0" />
	<path style="fill:none;stroke:red;stroke-width:1px;stroke-linecap:butt;stroke-linejoin:miter;stroke-opacity:1" d="M 531.66,4 541.401,16.9885 z" id="boundary" inkscape:connector-curvature="0" />
	<path style="fill:none;stroke:red;stroke-width:1px;stroke-linecap:butt;stroke-linejoin:miter;stroke-opacity:1" d="M 466.717,98.1669 474.835,78.6841 z" id="boundary" inkscape:connector-curvature="0" />
	<path style="fill:none;stroke:red;stroke-width:1px;stroke-linecap:butt;stroke-linejoin:miter;stroke-opacity:1" d="M 564.131,62.4484 572.249,77.0606 z" id="boundary" inkscape:connector-curvature="0" />
	<path style="fill:none;stroke:red;stroke-width:1px;stroke-linecap:butt;stroke-linejoin:miter;stroke-opacity:1" d="M 450.481,103.038 466.717,98.1669 z" id="boundary" inkscape:connector-curvature="0" />
	<path style="fill:none;stroke:red;stroke-width:1px;stroke-linecap:butt;stroke-linejoin:miter;stroke-opacity:1" d="M 572.249,77.0606 581.99,90.0491 z" id="boundary" inkscape:connector-curvature="0" />
	<path style="fill:none;stroke:red;stroke-width:1px;stroke-linecap:butt;stroke-linejoin:miter;stroke-opacity:1" d="M 598.226,90.0491 581.99,90.0491 z" id="boundary" inkscape:connector-curvature="0" />
	<path style="fill:none;stroke:red;stroke-width:1px;stroke-linecap:butt;stroke-linejoin:miter;stroke-opacity:1" d="M 450.481,103.038 434.245,106.285 z" id="boundary" inkscape:connector-curvature="0" />
	<path style="fill:none;stroke:red;stroke-width:1px;stroke-linecap:butt;stroke-linejoin:miter;stroke-opacity:1" d="M 598.226,90.0491 614.462,90.0491 z" id="boundary" inkscape:connector-curvature="0" />
	<path style="fill:none;stroke:red;stroke-width:1px;stroke-linecap:butt;stroke-linejoin:miter;stroke-opacity:1" d="M 630.697,90.0491 646.933,94.9198 z" id="boundary" inkscape:connector-curvature="0" />
	<path style="fill:none;stroke:red;stroke-width:1px;stroke-linecap:butt;stroke-linejoin:miter;stroke-opacity:1" d="M 646.933,94.9198 659.921,106.285 z" id="boundary" inkscape:connector-curvature="0" />
	<path style="fill:none;stroke:red;stroke-width:1px;stroke-linecap:butt;stroke-linejoin:miter;stroke-opacity:1" d="M 674.534,98.1669 659.921,106.285 z" id="boundary" inkscape:connector-curvature="0" />
	<path style="fill:none;stroke:red;stroke-width:1px;stroke-linecap:butt;stroke-linejoin:miter;stroke-opacity:1" d="M 614.462,90.0491 630.697,90.0491 z" id="boundary" inkscape:connector-curvature="0" />
	<path style="fill:none;stroke:red;stroke-width:1px;stroke-linecap:butt;stroke-linejoin:miter;stroke-opacity:1" d="M 674.534,98.1669 690.769,98.1669 z" id="boundary" inkscape:connector-curvature="0" />
	<path style="fill:none;stroke:red;stroke-width:1px;stroke-linecap:butt;stroke-linejoin:miter;stroke-opacity:1" d="M 690.769,98.1669 705.381,106.285 z" id="boundary" inkscape:connector-curvature="0" />
	<path style="fill:none;stroke:red;stroke-width:1px;stroke-linecap:butt;stroke-linejoin:miter;stroke-opacity:1" d="M 705.381,106.285 721.617,106.285 z" id="boundary" inkscape:connector-curvature="0" />
	<path style="fill:none;stroke:red;stroke-width:1px;stroke-linecap:butt;stroke-linejoin:miter;stroke-opacity:1" d="M 737.853,106.285 721.617,106.285 z" id="boundary" inkscape:connector-curvature="0" />
	<path style="fill:none;stroke:red;stroke-width:1px;stroke-linecap:butt;stroke-linejoin:miter;stroke-opacity:1" d="M 754.088,106.285 737.853,106.285 z" id="boundary" inkscape:connector-curvature="0" />
	<path style="fill:none;stroke:red;stroke-width:1px;stroke-linecap:butt;stroke-linejoin:miter;stroke-opacity:1" d="M 754.088,106.285 770.324,106.285 z" id="boundary" inkscape:connector-curvature="0" />
	<path style="fill:none;stroke:red;stroke-width:1px;stroke-linecap:butt;stroke-linejoin:miter;stroke-opacity:1" d="M 817.408,114.403 801.172,114.403 z" id="boundary" inkscape:connector-curvature="0" />
	<path style="fill:none;stroke:red;stroke-width:1px;stroke-linecap:butt;stroke-linejoin:miter;stroke-opacity:1" d="M 801.172,114.403 786.56,106.285 z" id="boundary" inkscape:connector-curvature="0" />
	<path style="fill:none;stroke:red;stroke-width:1px;stroke-linecap:butt;stroke-linejoin:miter;stroke-opacity:1" d="M 833.643,114.403 817.408,114.403 z" id="boundary" inkscape:connector-curvature="0" />
	<path style="fill:none;stroke:red;stroke-width:1px;stroke-linecap:butt;stroke-linejoin:miter;stroke-opacity:1" d="M 770.324,106.285 786.56,106.285 z" id="boundary" inkscape:connector-curvature="0" />
	<path style="fill:none;stroke:red;stroke-width:1px;stroke-linecap:butt;stroke-linejoin:miter;stroke-opacity:1" d="M 833.643,114.403 848.255,122.52 z" id="boundary" inkscape:connector-curvature="0" />
	<path style="fill:none;stroke:red;stroke-width:1px;stroke-linecap:butt;stroke-linejoin:miter;stroke-opacity:1" d="M 864.491,122.52 848.255,122.52 z" id="boundary" inkscape:connector-curvature="0" />
	<path style="fill:none;stroke:red;stroke-width:1px;stroke-linecap:butt;stroke-linejoin:miter;stroke-opacity:1" d="M 895.339,130.638 879.103,130.638 z" id="boundary" inkscape:connector-curvature="0" />
	<path style="fill:none;stroke:red;stroke-width:1px;stroke-linecap:butt;stroke-linejoin:miter;stroke-opacity:1" d="M 879.103,130.638 864.491,122.52 z" id="boundary" inkscape:connector-curvature="0" />
	<path style="fill:none;stroke:red;stroke-width:1px;stroke-linecap:butt;stroke-linejoin:miter;stroke-opacity:1" d="M 895.339,130.638 909.951,138.756 z" id="boundary" inkscape:connector-curvature="0" />
	<path style="fill:none;stroke:red;stroke-width:1px;stroke-linecap:butt;stroke-linejoin:miter;stroke-opacity:1" d="M 940.799,146.874 924.563,146.874 z" id="boundary" inkscape:connector-curvature="0" />
	<path style="fill:none;stroke:red;stroke-width:1px;stroke-linecap:butt;stroke-linejoin:miter;stroke-opacity:1" d="M 924.563,146.874 909.951,138.756 z" id="boundary" inkscape:connector-curvature="0" />
	<path style="fill:none;stroke:red;stroke-width:1px;stroke-linecap:butt;stroke-linejoin:miter;stroke-opacity:1" d="M 940.799,146.874 955.411,154.992 z" id="boundary" inkscape:connector-curvature="0" />
	<path style="fill:none;stroke:red;stroke-width:1px;stroke-linecap:butt;stroke-linejoin:miter;stroke-opacity:1" d="M 955.411,154.992 971.646,159.863 z" id="boundary" inkscape:connector-curvature="0" />
	<path style="fill:none;stroke:red;stroke-width:1px;stroke-linecap:butt;stroke-linejoin:miter;stroke-opacity:1" d="M 971.646,159.863 986.259,167.98 z" id="boundary" inkscape:connector-curvature="0" />
	<path style="fill:none;stroke:red;stroke-width:1px;stroke-linecap:butt;stroke-linejoin:miter;stroke-opacity:1" d="M 481.329,294.619 465.093,294.619 z" id="boundary" inkscape:connector-curvature="0" />
	<path style="fill:none;stroke:red;stroke-width:1px;stroke-linecap:butt;stroke-linejoin:miter;stroke-opacity:1" d="M 497.565,294.619 513.8,294.619 z" id="boundary" inkscape:connector-curvature="0" />
	<path style="fill:none;stroke:red;stroke-width:1px;stroke-linecap:butt;stroke-linejoin:miter;stroke-opacity:1" d="M 530.036,294.619 513.8,294.619 z" id="boundary" inkscape:connector-curvature="0" />
	<path style="fill:none;stroke:red;stroke-width:1px;stroke-linecap:butt;stroke-linejoin:miter;stroke-opacity:1" d="M 497.565,294.619 481.329,294.619 z" id="boundary" inkscape:connector-curvature="0" />
	<path style="fill:none;stroke:red;stroke-width:1px;stroke-linecap:butt;stroke-linejoin:miter;stroke-opacity:1" d="M 546.272,294.619 562.507,294.619 z" id="boundary" inkscape:connector-curvature="0" />
	<path style="fill:none;stroke:red;stroke-width:1px;stroke-linecap:butt;stroke-linejoin:miter;stroke-opacity:1" d="M 580.367,310.854 578.743,294.619 z" id="boundary" inkscape:connector-curvature="0" />
	<path style="fill:none;stroke:red;stroke-width:1px;stroke-linecap:butt;stroke-linejoin:miter;stroke-opacity:1" d="M 588.484,325.466 580.367,310.854 z" id="boundary" inkscape:connector-curvature="0" />
	<path style="fill:none;stroke:red;stroke-width:1px;stroke-linecap:butt;stroke-linejoin:miter;stroke-opacity:1" d="M 703.758,286.501 692.393,299.489 z" id="boundary" inkscape:connector-curvature="0" />
	<path style="fill:none;stroke:red;stroke-width:1px;stroke-linecap:butt;stroke-linejoin:miter;stroke-opacity:1" d="M 562.507,294.619 578.743,294.619 z" id="boundary" inkscape:connector-curvature="0" />
	<path style="fill:none;stroke:red;stroke-width:1px;stroke-linecap:butt;stroke-linejoin:miter;stroke-opacity:1" d="M 530.036,294.619 546.272,294.619 z" id="boundary" inkscape:connector-curvature="0" />
	<path style="fill:none;stroke:red;stroke-width:1px;stroke-linecap:butt;stroke-linejoin:miter;stroke-opacity:1" d="M 588.484,325.466 588.484,341.702 z" id="boundary" inkscape:connector-curvature="0" />
	<path style="fill:none;stroke:red;stroke-width:1px;stroke-linecap:butt;stroke-linejoin:miter;stroke-opacity:1" d="M 591.732,357.938 604.72,367.679 z" id="boundary" inkscape:connector-curvature="0" />
	<path style="fill:none;stroke:red;stroke-width:1px;stroke-linecap:butt;stroke-linejoin:miter;stroke-opacity:1" d="M 604.72,367.679 614.462,380.668 z" id="boundary" inkscape:connector-curvature="0" />
	<path style="fill:none;stroke:red;stroke-width:1px;stroke-linecap:butt;stroke-linejoin:miter;stroke-opacity:1" d="M 591.732,357.938 588.484,341.702 z" id="boundary" inkscape:connector-curvature="0" />
	<path style="fill:none;stroke:red;stroke-width:1px;stroke-linecap:butt;stroke-linejoin:miter;stroke-opacity:1" d="M 663.169,351.444 671.286,327.09 z" id="boundary" inkscape:connector-curvature="0" />
	<path style="fill:none;stroke:red;stroke-width:1px;stroke-linecap:butt;stroke-linejoin:miter;stroke-opacity:1" d="M 671.286,327.09 684.275,315.725 z" id="boundary" inkscape:connector-curvature="0" />
	<path style="fill:none;stroke:red;stroke-width:1px;stroke-linecap:butt;stroke-linejoin:miter;stroke-opacity:1" d="M 656.674,375.797 663.169,351.444 z" id="boundary" inkscape:connector-curvature="0" />
	<path style="fill:none;stroke:red;stroke-width:1px;stroke-linecap:butt;stroke-linejoin:miter;stroke-opacity:1" d="M 627.45,392.033 642.062,383.915 z" id="boundary" inkscape:connector-curvature="0" />
	<path style="fill:none;stroke:red;stroke-width:1px;stroke-linecap:butt;stroke-linejoin:miter;stroke-opacity:1" d="M 627.45,392.033 614.462,380.668 z" id="boundary" inkscape:connector-curvature="0" />
	<path style="fill:none;stroke:red;stroke-width:1px;stroke-linecap:butt;stroke-linejoin:miter;stroke-opacity:1" d="M 656.674,375.797 642.062,383.915 z" id="boundary" inkscape:connector-curvature="0" />
	<path style="fill:none;stroke:red;stroke-width:1px;stroke-linecap:butt;stroke-linejoin:miter;stroke-opacity:1" d="M 692.393,299.489 684.275,315.725 z" id="boundary" inkscape:connector-curvature="0" />
	<path style="fill:none;stroke:red;stroke-width:1px;stroke-linecap:butt;stroke-linejoin:miter;stroke-opacity:1" d="M 909.951,260.524 922.939,245.912 z" id="boundary" inkscape:connector-curvature="0" />
	<path style="fill:none;stroke:red;stroke-width:1px;stroke-linecap:butt;stroke-linejoin:miter;stroke-opacity:1" d="M 879.103,262.147 862.867,262.147 z" id="boundary" inkscape:connector-curvature="0" />
	<path style="fill:none;stroke:red;stroke-width:1px;stroke-linecap:butt;stroke-linejoin:miter;stroke-opacity:1" d="M 893.715,254.029 879.103,262.147 z" id="boundary" inkscape:connector-curvature="0" />
	<path style="fill:none;stroke:red;stroke-width:1px;stroke-linecap:butt;stroke-linejoin:miter;stroke-opacity:1" d="M 939.175,237.794 922.939,245.912 z" id="boundary" inkscape:connector-curvature="0" />
	<path style="fill:none;stroke:red;stroke-width:1px;stroke-linecap:butt;stroke-linejoin:miter;stroke-opacity:1" d="M 909.951,260.524 893.715,254.029 z" id="boundary" inkscape:connector-curvature="0" />
	<path style="fill:none;stroke:red;stroke-width:1px;stroke-linecap:butt;stroke-linejoin:miter;stroke-opacity:1" d="M 939.175,237.794 955.411,237.794 z" id="boundary" inkscape:connector-curvature="0" />
	<path style="fill:none;stroke:red;stroke-width:1px;stroke-linecap:butt;stroke-linejoin:miter;stroke-opacity:1" d="M 992.753,210.193 979.764,221.558 z" id="boundary" inkscape:connector-curvature="0" />
	<path style="fill:none;stroke:red;stroke-width:1px;stroke-linecap:butt;stroke-linejoin:miter;stroke-opacity:1" d="M 979.764,221.558 971.646,237.794 z" id="boundary" inkscape:connector-curvature="0" />
	<path style="fill:none;stroke:red;stroke-width:1px;stroke-linecap:butt;stroke-linejoin:miter;stroke-opacity:1" d="M 971.646,237.794 955.411,237.794 z" id="boundary" inkscape:connector-curvature="0" />
	<path style="fill:none;stroke:red;stroke-width:1px;stroke-linecap:butt;stroke-linejoin:miter;stroke-opacity:1" d="M 719.993,286.501 703.758,286.501 z" id="boundary" inkscape:connector-curvature="0" />
	<path style="fill:none;stroke:red;stroke-width:1px;stroke-linecap:butt;stroke-linejoin:miter;stroke-opacity:1" d="M 719.993,286.501 736.229,286.501 z" id="boundary" inkscape:connector-curvature="0" />
	<path style="fill:none;stroke:red;stroke-width:1px;stroke-linecap:butt;stroke-linejoin:miter;stroke-opacity:1" d="M 752.465,286.501 736.229,286.501 z" id="boundary" inkscape:connector-curvature="0" />
	<path style="fill:none;stroke:red;stroke-width:1px;stroke-linecap:butt;stroke-linejoin:miter;stroke-opacity:1" d="M 768.7,278.383 752.465,286.501 z" id="boundary" inkscape:connector-curvature="0" />
	<path style="fill:none;stroke:red;stroke-width:1px;stroke-linecap:butt;stroke-linejoin:miter;stroke-opacity:1" d="M 768.7,278.383 784.936,278.383 z" id="boundary" inkscape:connector-curvature="0" />
	<path style="fill:none;stroke:red;stroke-width:1px;stroke-linecap:butt;stroke-linejoin:miter;stroke-opacity:1" d="M 832.02,270.265 815.784,270.265 z" id="boundary" inkscape:connector-curvature="0" />
	<path style="fill:none;stroke:red;stroke-width:1px;stroke-linecap:butt;stroke-linejoin:miter;stroke-opacity:1" d="M 848.255,270.265 862.867,262.147 z" id="boundary" inkscape:connector-curvature="0" />
	<path style="fill:none;stroke:red;stroke-width:1px;stroke-linecap:butt;stroke-linejoin:miter;stroke-opacity:1" d="M 848.255,270.265 832.02,270.265 z" id="boundary" inkscape:connector-curvature="0" />
	<path style="fill:none;stroke:red;stroke-width:1px;stroke-linecap:butt;stroke-linejoin:miter;stroke-opacity:1" d="M 801.172,278.383 815.784,270.265 z" id="boundary" inkscape:connector-curvature="0" />
	<path style="fill:none;stroke:red;stroke-width:1px;stroke-linecap:butt;stroke-linejoin:miter;stroke-opacity:1" d="M 801.172,278.383 784.936,278.383 z" id="boundary" inkscape:connector-curvature="0" />
	<path style="fill:none;stroke:red;stroke-width:1px;stroke-linecap:butt;stroke-linejoin:miter;stroke-opacity:1" d="M 986.259,167.98 996,180.969 z" id="boundary" inkscape:connector-curvature="0" />
	<path style="fill:none;stroke:red;stroke-width:1px;stroke-linecap:butt;stroke-linejoin:miter;stroke-opacity:1" d="M 996,180.969 992.753,210.193 z" id="boundary" inkscape:connector-curvature="0" />
	<circle cx="4" cy="78.6841" r="4" fill="#0" id="circle0"/>
	<circle cx="4" cy="94.9198" r="4" fill="#0" id="circle1"/>
	<circle cx="4" cy="111.155" r="4" fill="#0" id="circle2"/>
	<circle cx="16.9885" cy="122.52" r="4" fill="#0" id="circle3"/>
	<circle cx="20.2357" cy="81.9313" r="4" fill="#0" id="circle4"/>
	<circle cx="28.3535" cy="135.509" r="4" fill="#0" id="circle5"/>
	<circle cx="28.3535" cy="330.337" r="4" fill="#0" id="circle6"/>
	<circle cx="28.3535" cy="346.573" r="4" fill="#0" id="circle7"/>
	<circle cx="34.8478" cy="90.0491" r="4" fill="#0" id="circle8"/>
	<circle cx="36.4714" cy="150.121" r="4" fill="#0" id="circle9"/>
	<circle cx="36.4714" cy="314.101" r="4" fill="#0" id="circle10"/>
	<circle cx="44.5892" cy="164.733" r="4" fill="#0" id="circle11"/>
	<circle cx="44.5892" cy="297.866" r="4" fill="#0" id="circle12"/>
	<circle cx="44.5892" cy="351.444" r="4" fill="#0" id="circle13"/>
	<circle cx="49.4599" cy="81.9313" r="4" fill="#0" id="circle14"/>
	<circle cx="49.4599" cy="180.969" r="4" fill="#0" id="circle15"/>
	<circle cx="52.707" cy="273.512" r="4" fill="#0" id="circle16"/>
	<circle cx="60.8249" cy="94.9198" r="4" fill="#0" id="circle17"/>
	<circle cx="60.8249" cy="193.957" r="4" fill="#0" id="circle18"/>
	<circle cx="60.8249" cy="224.805" r="4" fill="#0" id="circle19"/>
	<circle cx="60.8249" cy="241.041" r="4" fill="#0" id="circle20"/>
	<circle cx="60.8249" cy="257.277" r="4" fill="#0" id="circle21"/>
	<circle cx="60.8249" cy="351.444" r="4" fill="#0" id="circle22"/>
	<circle cx="75.437" cy="343.326" r="4" fill="#0" id="circle23"/>
	<circle cx="77.0606" cy="98.1669" r="4" fill="#0" id="circle24"/>
	<circle cx="90.0491" cy="335.208" r="4" fill="#0" id="circle25"/>
	<circle cx="91.6727" cy="106.285" r="4" fill="#0" id="circle26"/>
	<circle cx="104.661" cy="327.09" r="4" fill="#0" id="circle27"/>
	<circle cx="106.285" cy="114.403" r="4" fill="#0" id="circle28"/>
	<circle cx="120.897" cy="122.52" r="4" fill="#0" id="circle29"/>
	<circle cx="120.897" cy="327.09" r="4" fill="#0" id="circle30"/>
	<circle cx="133.885" cy="133.885" r="4" fill="#0" id="circle31"/>
	<circle cx="133.885" cy="314.101" r="4" fill="#0" id="circle32"/>
	<circle cx="146.874" cy="302.736" r="4" fill="#0" id="circle33"/>
	<circle cx="150.121" cy="138.756" r="4" fill="#0" id="circle34"/>
	<circle cx="159.863" cy="286.501" r="4" fill="#0" id="circle35"/>
	<circle cx="164.733" cy="146.874" r="4" fill="#0" id="circle36"/>
	<circle cx="176.098" cy="278.383" r="4" fill="#0" id="circle37"/>
	<circle cx="179.345" cy="154.992" r="4" fill="#0" id="circle38"/>
	<circle cx="192.334" cy="270.265" r="4" fill="#0" id="circle39"/>
	<circle cx="193.957" cy="163.11" r="4" fill="#0" id="circle40"/>
	<circle cx="205.322" cy="258.9" r="4" fill="#0" id="circle41"/>
	<circle cx="210.193" cy="163.11" r="4" fill="#0" id="circle42"/>
	<circle cx="221.558" cy="254.029" r="4" fill="#0" id="circle43"/>
	<circle cx="226.429" cy="163.11" r="4" fill="#0" id="circle44"/>
	<circle cx="237.794" cy="254.029" r="4" fill="#0" id="circle45"/>
	<circle cx="239.417" cy="151.745" r="4" fill="#0" id="circle46"/>
	<circle cx="252.406" cy="138.756" r="4" fill="#0" id="circle47"/>
	<circle cx="254.029" cy="254.029" r="4" fill="#0" id="circle48"/>
	<circle cx="268.642" cy="130.638" r="4" fill="#0" id="circle49"/>
	<circle cx="270.265" cy="254.029" r="4" fill="#0" id="circle50"/>
	<circle cx="271.889" cy="54.3306" r="4" fill="#0" id="circle51"/>
	<circle cx="271.889" cy="78.6841" r="4" fill="#0" id="circle52"/>
	<circle cx="276.759" cy="114.403" r="4" fill="#0" id="circle53"/>
	<circle cx="280.007" cy="93.2962" r="4" fill="#0" id="circle54"/>
	<circle cx="284.877" cy="262.147" r="4" fill="#0" id="circle55"/>
	<circle cx="288.124" cy="52.707" r="4" fill="#0" id="circle56"/>
	<circle cx="288.124" cy="278.383" r="4" fill="#0" id="circle57"/>
	<circle cx="292.995" cy="294.619" r="4" fill="#0" id="circle58"/>
	<circle cx="304.36" cy="52.707" r="4" fill="#0" id="circle59"/>
	<circle cx="305.984" cy="305.984" r="4" fill="#0" id="circle60"/>
	<circle cx="312.478" cy="322.219" r="4" fill="#0" id="circle61"/>
	<circle cx="312.478" cy="338.455" r="4" fill="#0" id="circle62"/>
	<circle cx="314.101" cy="65.6956" r="4" fill="#0" id="circle63"/>
	<circle cx="320.596" cy="353.067" r="4" fill="#0" id="circle64"/>
	<circle cx="328.714" cy="73.8134" r="4" fill="#0" id="circle65"/>
	<circle cx="331.961" cy="366.056" r="4" fill="#0" id="circle66"/>
	<circle cx="343.326" cy="81.9313" r="4" fill="#0" id="circle67"/>
	<circle cx="348.196" cy="359.561" r="4" fill="#0" id="circle68"/>
	<circle cx="354.691" cy="94.9198" r="4" fill="#0" id="circle69"/>
	<circle cx="362.809" cy="351.444" r="4" fill="#0" id="circle70"/>
	<circle cx="369.303" cy="103.038" r="4" fill="#0" id="circle71"/>
	<circle cx="375.797" cy="340.079" r="4" fill="#0" id="circle72"/>
	<circle cx="385.538" cy="106.285" r="4" fill="#0" id="circle73"/>
	<circle cx="387.162" cy="327.09" r="4" fill="#0" id="circle74"/>
	<circle cx="401.774" cy="106.285" r="4" fill="#0" id="circle75"/>
	<circle cx="403.398" cy="310.854" r="4" fill="#0" id="circle76"/>
	<circle cx="416.386" cy="299.489" r="4" fill="#0" id="circle77"/>
	<circle cx="418.01" cy="106.285" r="4" fill="#0" id="circle78"/>
	<circle cx="432.622" cy="294.619" r="4" fill="#0" id="circle79"/>
	<circle cx="434.245" cy="106.285" r="4" fill="#0" id="circle80"/>
	<circle cx="448.858" cy="294.619" r="4" fill="#0" id="circle81"/>
	<circle cx="450.481" cy="103.038" r="4" fill="#0" id="circle82"/>
	<circle cx="465.093" cy="294.619" r="4" fill="#0" id="circle83"/>
	<circle cx="466.717" cy="98.1669" r="4" fill="#0" id="circle84"/>
	<circle cx="474.835" cy="78.6841" r="4" fill="#0" id="circle85"/>
	<circle cx="481.329" cy="294.619" r="4" fill="#0" id="circle86"/>
	<circle cx="482.953" cy="46.2128" r="4" fill="#0" id="circle87"/>
	<circle cx="482.953" cy="62.4484" r="4" fill="#0" id="circle88"/>
	<circle cx="495.941" cy="33.2242" r="4" fill="#0" id="circle89"/>
	<circle cx="497.565" cy="294.619" r="4" fill="#0" id="circle90"/>
	<circle cx="499.188" cy="13.7414" r="4" fill="#0" id="circle91"/>
	<circle cx="513.8" cy="294.619" r="4" fill="#0" id="circle92"/>
	<circle cx="515.424" cy="8.8707" r="4" fill="#0" id="circle93"/>
	<circle cx="530.036" cy="294.619" r="4" fill="#0" id="circle94"/>
	<circle cx="531.66" cy="4" r="4" fill="#0" id="circle95"/>
	<circle cx="541.401" cy="16.9885" r="4" fill="#0" id="circle96"/>
	<circle cx="546.272" cy="294.619" r="4" fill="#0" id="circle97"/>
	<circle cx="549.519" cy="31.6007" r="4" fill="#0" id="circle98"/>
	<circle cx="557.637" cy="46.2128" r="4" fill="#0" id="circle99"/>
	<circle cx="562.507" cy="294.619" r="4" fill="#0" id="circle100"/>
	<circle cx="564.131" cy="62.4484" r="4" fill="#0" id="circle101"/>
	<circle cx="572.249" cy="77.0606" r="4" fill="#0" id="circle102"/>
	<circle cx="578.743" cy="294.619" r="4" fill="#0" id="circle103"/>
	<circle cx="580.367" cy="310.854" r="4" fill="#0" id="circle104"/>
	<circle cx="581.99" cy="90.0491" r="4" fill="#0" id="circle105"/>
	<circle cx="588.484" cy="325.466" r="4" fill="#0" id="circle106"/>
	<circle cx="588.484" cy="341.702" r="4" fill="#0" id="circle107"/>
	<circle cx="591.732" cy="357.938" r="4" fill="#0" id="circle108"/>
	<circle cx="598.226" cy="90.0491" r="4" fill="#0" id="circle109"/>
	<circle cx="604.72" cy="367.679" r="4" fill="#0" id="circle110"/>
	<circle cx="614.462" cy="90.0491" r="4" fill="#0" id="circle111"/>
	<circle cx="614.462" cy="380.668" r="4" fill="#0" id="circle112"/>
	<circle cx="627.45" cy="392.033" r="4" fill="#0" id="circle113"/>
	<circle cx="630.697" cy="90.0491" r="4" fill="#0" id="circle114"/>
	<circle cx="642.062" cy="383.915" r="4" fill="#0" id="circle115"/>
	<circle cx="646.933" cy="94.9198" r="4" fill="#0" id="circle116"/>
	<circle cx="656.674" cy="375.797" r="4" fill="#0" id="circle117"/>
	<circle cx="659.921" cy="106.285" r="4" fill="#0" id="circle118"/>
	<circle cx="663.169" cy="351.444" r="4" fill="#0" id="circle119"/>
	<circle cx="671.286" cy="327.09" r="4" fill="#0" id="circle120"/>
	<circle cx="674.534" cy="98.1669" r="4" fill="#0" id="circle121"/>
	<circle cx="684.275" cy="315.725" r="4" fill="#0" id="circle122"/>
	<circle cx="690.769" cy="98.1669" r="4" fill="#0" id="circle123"/>
	<circle cx="692.393" cy="299.489" r="4" fill="#0" id="circle124"/>
	<circle cx="703.758" cy="286.501" r="4" fill="#0" id="circle125"/>
	<circle cx="705.381" cy="106.285" r="4" fill="#0" id="circle126"/>
	<circle cx="719.993" cy="286.501" r="4" fill="#0" id="circle127"/>
	<circle cx="721.617" cy="106.285" r="4" fill="#0" id="circle128"/>
	<circle cx="736.229" cy="286.501" r="4" fill="#0" id="circle129"/>
	<circle cx="737.853" cy="106.285" r="4" fill="#0" id="circle130"/>
	<circle cx="752.465" cy="286.501" r="4" fill="#0" id="circle131"/>
	<circle cx="754.088" cy="106.285" r="4" fill="#0" id="circle132"/>
	<circle cx="768.7" cy="278.383" r="4" fill="#0" id="circle133"/>
	<circle cx="770.324" cy="106.285" r="4" fill="#0" id="circle134"/>
	<circle cx="784.936" cy="278.383" r="4" fill="#0" id="circle135"/>
	<circle cx="786.56" cy="106.285" r="4" fill="#0" id="circle136"/>
	<circle cx="801.172" cy="114.403" r="4" fill="#0" id="circle137"/>
	<circle cx="801.172" cy="278.383" r="4" fill="#0" id="circle138"/>
	<circle cx="815.784" cy="270.265" r="4" fill="#0" id="circle139"/>
	<circle cx="817.408" cy="114.403" r="4" fill="#0" id="circle140"/>
	<circle cx="832.02" cy="270.265" r="4" fill="#0" id="circle141"/>
	<circle cx="833.643" cy="114.403" r="4" fill="#0" id="circle142"/>
	<circle cx="848.255" cy="122.52" r="4" fill="#0" id="circle143"/>
	<circle cx="848.255" cy="270.265" r="4" fill="#0" id="circle144"/>
	<circle cx="862.867" cy="262.147" r="4" fill="#0" id="circle145"/>
	<circle cx="864.491" cy="122.52" r="4" fill="#0" id="circle146"/>
	<circle cx="879.103" cy="130.638" r="4" fill="#0" id="circle147"/>
	<circle cx="879.103" cy="262.147" r="4" fill="#0" id="circle148"/>
	<circle cx="893.715" cy="254.029" r="4" fill="#0" id="circle149"/>
	<circle cx="895.339" cy="130.638" r="4" fill="#0" id="circle150"/>
	<circle cx="909.951" cy="138.756" r="4" fill="#0" id="circle151"/>
	<circle cx="909.951" cy="260.524" r="4" fill="#0" id="circle152"/>
	<circle cx="922.939" cy="245.912" r="4" fill="#0" id="circle153"/>
	<circle cx="924.563" cy="146.874" r="4" fill="#0" id="circle154"/>
	<circle cx="939.175" cy="237.794" r="4" fill="#0" id="circle155"/>
	<circle cx="940.799" cy="146.874" r="4" fill="#0" id="circle156"/>
	<circle cx="955.411" cy="154.992" r="4" fill="#0" id="circle157"/>
	<circle cx="955.411" cy="237.794" r="4" fill="#0" id="circle158"/>
	<circle cx="971.646" cy="159.863" r="4" fill="#0" id="circle159"/>
	<circle cx="971.646" cy="237.794" r="4" fill="#0" id="circle160"/>
	<circle cx="979.764" cy="221.558" r="4" fill="#0" id="circle161"/>
	<circle cx="986.259" cy="167.98" r="4" fill="#0" id="circle162"/>
	<circle cx="992.753" cy="210.193" r="4" fill="#0" id="circle163"/>
	<circle cx="996" cy="180.969" r="4" fill="#0" id="circle164"/>
	</g>
</svg>