<?xml version="1.0" encoding="UTF-8" standalone="no"?>
<!-- Created with CurveBenchmark -->
<svg
	xmlns:dc="http://purl.org/dc/elements/1.1/"
	xmlns:cc="http://creativecommons.org/ns#"
	xmlns:rdf="http://www.w3.org/1999/02/22-rdf-syntax-ns#"
	xmlns:svg="http://www.w3.org/2000/svg"
	xmlns="http://www.w3.org/2000/svg"
	xmlns:sodipodi="http://sodipodi.sourceforge.net/DTD/sodipodi-0.dtd"
	xmlns:inkscape="http://www.inkscape.org/namespaces/inkscape"
	width="1000"
	height="1000"
	id="svg2"
	version="1.1"
	sodipodi:docname="manifold/ccrust-bird28.png.txt">
<defs
	id="defs4" />
<metadata
	id="metadata7">
	<rdf:RDF>
		<cc:Work
			rdf:about="">
			<dc:format>image/svg+xml</dc:format>
			<dc:type
				rdf:resource="http://purl.org/dc/dcmitype/StillImage" />
			<dc:title></dc:title>
		</cc:Work>
	</rdf:RDF>
</metadata>
<g
	inkscape:label="Layer 1"
	inkscape:groupmode="layer"
	id="layer1">
	<path style="fill:none;stroke:red;stroke-width:1px;stroke-linecap:butt;stroke-linejoin:miter;stroke-opacity:1" d="M 43.3171,186.976 28.1951,186.976 z" id="boundary" inkscape:connector-curvature="0" />
	<path style="fill:none;stroke:red;stroke-width:1px;stroke-linecap:butt;stroke-linejoin:miter;stroke-opacity:1" d="M 44.8293,149.171 29.7073,155.22 z" id="boundary" inkscape:connector-curvature="0" />
	<path style="fill:none;stroke:red;stroke-width:1px;stroke-linecap:butt;stroke-linejoin:miter;stroke-opacity:1" d="M 59.9512,147.659 44.8293,149.171 z" id="boundary" inkscape:connector-curvature="0" />
	<path style="fill:none;stroke:red;stroke-width:1px;stroke-linecap:butt;stroke-linejoin:miter;stroke-opacity:1" d="M 73.561,140.098 59.9512,147.659 z" id="boundary" inkscape:connector-curvature="0" />
	<path style="fill:none;stroke:red;stroke-width:1px;stroke-linecap:butt;stroke-linejoin:miter;stroke-opacity:1" d="M 4,174.878 13.0732,186.976 z" id="boundary" inkscape:connector-curvature="0" />
	<path style="fill:none;stroke:red;stroke-width:1px;stroke-linecap:butt;stroke-linejoin:miter;stroke-opacity:1" d="M 4,174.878 16.0976,162.78 z" id="boundary" inkscape:connector-curvature="0" />
	<path style="fill:none;stroke:red;stroke-width:1px;stroke-linecap:butt;stroke-linejoin:miter;stroke-opacity:1" d="M 28.1951,186.976 13.0732,186.976 z" id="boundary" inkscape:connector-curvature="0" />
	<path style="fill:none;stroke:red;stroke-width:1px;stroke-linecap:butt;stroke-linejoin:miter;stroke-opacity:1" d="M 16.0976,162.78 29.7073,155.22 z" id="boundary" inkscape:connector-curvature="0" />
	<path style="fill:none;stroke:red;stroke-width:1px;stroke-linecap:butt;stroke-linejoin:miter;stroke-opacity:1" d="M 121.951,94.7317 134.049,82.6341 z" id="boundary" inkscape:connector-curvature="0" />
	<path style="fill:none;stroke:red;stroke-width:1px;stroke-linecap:butt;stroke-linejoin:miter;stroke-opacity:1" d="M 134.049,82.6341 149.171,75.0732 z" id="boundary" inkscape:connector-curvature="0" />
	<path style="fill:none;stroke:red;stroke-width:1px;stroke-linecap:butt;stroke-linejoin:miter;stroke-opacity:1" d="M 121.951,94.7317 109.854,106.829 z" id="boundary" inkscape:connector-curvature="0" />
	<path style="fill:none;stroke:red;stroke-width:1px;stroke-linecap:butt;stroke-linejoin:miter;stroke-opacity:1" d="M 88.6829,140.098 73.561,140.098 z" id="boundary" inkscape:connector-curvature="0" />
	<path style="fill:none;stroke:red;stroke-width:1px;stroke-linecap:butt;stroke-linejoin:miter;stroke-opacity:1" d="M 102.293,121.951 88.6829,140.098 z" id="boundary" inkscape:connector-curvature="0" />
	<path style="fill:none;stroke:red;stroke-width:1px;stroke-linecap:butt;stroke-linejoin:miter;stroke-opacity:1" d="M 102.293,121.951 109.854,106.829 z" id="boundary" inkscape:connector-curvature="0" />
	<path style="fill:none;stroke:red;stroke-width:1px;stroke-linecap:butt;stroke-linejoin:miter;stroke-opacity:1" d="M 43.3171,186.976 58.439,186.976 z" id="boundary" inkscape:connector-curvature="0" />
	<path style="fill:none;stroke:red;stroke-width:1px;stroke-linecap:butt;stroke-linejoin:miter;stroke-opacity:1" d="M 73.561,186.976 58.439,186.976 z" id="boundary" inkscape:connector-curvature="0" />
	<path style="fill:none;stroke:red;stroke-width:1px;stroke-linecap:butt;stroke-linejoin:miter;stroke-opacity:1" d="M 73.561,186.976 87.1707,194.537 z" id="boundary" inkscape:connector-curvature="0" />
	<path style="fill:none;stroke:red;stroke-width:1px;stroke-linecap:butt;stroke-linejoin:miter;stroke-opacity:1" d="M 87.1707,194.537 102.293,194.537 z" id="boundary" inkscape:connector-curvature="0" />
	<path style="fill:none;stroke:red;stroke-width:1px;stroke-linecap:butt;stroke-linejoin:miter;stroke-opacity:1" d="M 102.293,194.537 115.902,202.098 z" id="boundary" inkscape:connector-curvature="0" />
	<path style="fill:none;stroke:red;stroke-width:1px;stroke-linecap:butt;stroke-linejoin:miter;stroke-opacity:1" d="M 115.902,202.098 124.976,214.195 z" id="boundary" inkscape:connector-curvature="0" />
	<path style="fill:none;stroke:red;stroke-width:1px;stroke-linecap:butt;stroke-linejoin:miter;stroke-opacity:1" d="M 124.976,214.195 132.537,227.805 z" id="boundary" inkscape:connector-curvature="0" />
	<path style="fill:none;stroke:red;stroke-width:1px;stroke-linecap:butt;stroke-linejoin:miter;stroke-opacity:1" d="M 132.537,227.805 144.634,238.39 z" id="boundary" inkscape:connector-curvature="0" />
	<path style="fill:none;stroke:red;stroke-width:1px;stroke-linecap:butt;stroke-linejoin:miter;stroke-opacity:1" d="M 144.634,238.39 147.659,253.512 z" id="boundary" inkscape:connector-curvature="0" />
	<path style="fill:none;stroke:red;stroke-width:1px;stroke-linecap:butt;stroke-linejoin:miter;stroke-opacity:1" d="M 155.22,267.122 147.659,253.512 z" id="boundary" inkscape:connector-curvature="0" />
	<path style="fill:none;stroke:red;stroke-width:1px;stroke-linecap:butt;stroke-linejoin:miter;stroke-opacity:1" d="M 155.22,267.122 155.22,282.244 z" id="boundary" inkscape:connector-curvature="0" />
	<path style="fill:none;stroke:red;stroke-width:1px;stroke-linecap:butt;stroke-linejoin:miter;stroke-opacity:1" d="M 162.78,312.488 156.732,297.366 z" id="boundary" inkscape:connector-curvature="0" />
	<path style="fill:none;stroke:red;stroke-width:1px;stroke-linecap:butt;stroke-linejoin:miter;stroke-opacity:1" d="M 156.732,297.366 155.22,282.244 z" id="boundary" inkscape:connector-curvature="0" />
	<path style="fill:none;stroke:red;stroke-width:1px;stroke-linecap:butt;stroke-linejoin:miter;stroke-opacity:1" d="M 149.171,75.0732 164.293,67.5122 z" id="boundary" inkscape:connector-curvature="0" />
	<path style="fill:none;stroke:red;stroke-width:1px;stroke-linecap:butt;stroke-linejoin:miter;stroke-opacity:1" d="M 162.78,312.488 164.293,327.61 z" id="boundary" inkscape:connector-curvature="0" />
	<path style="fill:none;stroke:red;stroke-width:1px;stroke-linecap:butt;stroke-linejoin:miter;stroke-opacity:1" d="M 233.854,41.8049 247.463,34.2439 z" id="boundary" inkscape:connector-curvature="0" />
	<path style="fill:none;stroke:red;stroke-width:1px;stroke-linecap:butt;stroke-linejoin:miter;stroke-opacity:1" d="M 261.073,26.6829 247.463,34.2439 z" id="boundary" inkscape:connector-curvature="0" />
	<path style="fill:none;stroke:red;stroke-width:1px;stroke-linecap:butt;stroke-linejoin:miter;stroke-opacity:1" d="M 176.39,56.9268 191.512,56.9268 z" id="boundary" inkscape:connector-curvature="0" />
	<path style="fill:none;stroke:red;stroke-width:1px;stroke-linecap:butt;stroke-linejoin:miter;stroke-opacity:1" d="M 164.293,67.5122 176.39,56.9268 z" id="boundary" inkscape:connector-curvature="0" />
	<path style="fill:none;stroke:red;stroke-width:1px;stroke-linecap:butt;stroke-linejoin:miter;stroke-opacity:1" d="M 205.122,49.3659 191.512,56.9268 z" id="boundary" inkscape:connector-curvature="0" />
	<path style="fill:none;stroke:red;stroke-width:1px;stroke-linecap:butt;stroke-linejoin:miter;stroke-opacity:1" d="M 205.122,49.3659 220.244,49.3659 z" id="boundary" inkscape:connector-curvature="0" />
	<path style="fill:none;stroke:red;stroke-width:1px;stroke-linecap:butt;stroke-linejoin:miter;stroke-opacity:1" d="M 233.854,41.8049 220.244,49.3659 z" id="boundary" inkscape:connector-curvature="0" />
	<path style="fill:none;stroke:red;stroke-width:1px;stroke-linecap:butt;stroke-linejoin:miter;stroke-opacity:1" d="M 291.317,16.0976 306.439,8.53659 z" id="boundary" inkscape:connector-curvature="0" />
	<path style="fill:none;stroke:red;stroke-width:1px;stroke-linecap:butt;stroke-linejoin:miter;stroke-opacity:1" d="M 306.439,8.53659 321.561,4 z" id="boundary" inkscape:connector-curvature="0" />
	<path style="fill:none;stroke:red;stroke-width:1px;stroke-linecap:butt;stroke-linejoin:miter;stroke-opacity:1" d="M 321.561,4 330.634,16.0976 z" id="boundary" inkscape:connector-curvature="0" />
	<path style="fill:none;stroke:red;stroke-width:1px;stroke-linecap:butt;stroke-linejoin:miter;stroke-opacity:1" d="M 261.073,26.6829 276.195,23.6585 z" id="boundary" inkscape:connector-curvature="0" />
	<path style="fill:none;stroke:red;stroke-width:1px;stroke-linecap:butt;stroke-linejoin:miter;stroke-opacity:1" d="M 276.195,23.6585 291.317,16.0976 z" id="boundary" inkscape:connector-curvature="0" />
	<path style="fill:none;stroke:red;stroke-width:1px;stroke-linecap:butt;stroke-linejoin:miter;stroke-opacity:1" d="M 312.488,47.8537 320.049,32.7317 z" id="boundary" inkscape:connector-curvature="0" />
	<path style="fill:none;stroke:red;stroke-width:1px;stroke-linecap:butt;stroke-linejoin:miter;stroke-opacity:1" d="M 330.634,16.0976 320.049,32.7317 z" id="boundary" inkscape:connector-curvature="0" />
	<path style="fill:none;stroke:red;stroke-width:1px;stroke-linecap:butt;stroke-linejoin:miter;stroke-opacity:1" d="M 312.488,47.8537 304.927,62.9756 z" id="boundary" inkscape:connector-curvature="0" />
	<path style="fill:none;stroke:red;stroke-width:1px;stroke-linecap:butt;stroke-linejoin:miter;stroke-opacity:1" d="M 292.829,73.561 285.268,88.6829 z" id="boundary" inkscape:connector-curvature="0" />
	<path style="fill:none;stroke:red;stroke-width:1px;stroke-linecap:butt;stroke-linejoin:miter;stroke-opacity:1" d="M 304.927,62.9756 292.829,73.561 z" id="boundary" inkscape:connector-curvature="0" />
	<path style="fill:none;stroke:red;stroke-width:1px;stroke-linecap:butt;stroke-linejoin:miter;stroke-opacity:1" d="M 285.268,88.6829 288.293,103.805 z" id="boundary" inkscape:connector-curvature="0" />
	<path style="fill:none;stroke:red;stroke-width:1px;stroke-linecap:butt;stroke-linejoin:miter;stroke-opacity:1" d="M 295.854,117.415 300.39,132.537 z" id="boundary" inkscape:connector-curvature="0" />
	<path style="fill:none;stroke:red;stroke-width:1px;stroke-linecap:butt;stroke-linejoin:miter;stroke-opacity:1" d="M 288.293,103.805 295.854,117.415 z" id="boundary" inkscape:connector-curvature="0" />
	<path style="fill:none;stroke:red;stroke-width:1px;stroke-linecap:butt;stroke-linejoin:miter;stroke-opacity:1" d="M 307.951,146.146 300.39,132.537 z" id="boundary" inkscape:connector-curvature="0" />
	<path style="fill:none;stroke:red;stroke-width:1px;stroke-linecap:butt;stroke-linejoin:miter;stroke-opacity:1" d="M 320.049,171.854 307.951,161.268 z" id="boundary" inkscape:connector-curvature="0" />
	<path style="fill:none;stroke:red;stroke-width:1px;stroke-linecap:butt;stroke-linejoin:miter;stroke-opacity:1" d="M 307.951,161.268 307.951,146.146 z" id="boundary" inkscape:connector-curvature="0" />
	<path style="fill:none;stroke:red;stroke-width:1px;stroke-linecap:butt;stroke-linejoin:miter;stroke-opacity:1" d="M 320.049,171.854 330.634,183.951 z" id="boundary" inkscape:connector-curvature="0" />
	<path style="fill:none;stroke:red;stroke-width:1px;stroke-linecap:butt;stroke-linejoin:miter;stroke-opacity:1" d="M 330.634,183.951 342.732,193.024 z" id="boundary" inkscape:connector-curvature="0" />
	<path style="fill:none;stroke:red;stroke-width:1px;stroke-linecap:butt;stroke-linejoin:miter;stroke-opacity:1" d="M 357.854,194.537 342.732,193.024 z" id="boundary" inkscape:connector-curvature="0" />
	<path style="fill:none;stroke:red;stroke-width:1px;stroke-linecap:butt;stroke-linejoin:miter;stroke-opacity:1" d="M 357.854,194.537 371.463,202.098 z" id="boundary" inkscape:connector-curvature="0" />
	<path style="fill:none;stroke:red;stroke-width:1px;stroke-linecap:butt;stroke-linejoin:miter;stroke-opacity:1" d="M 164.293,327.61 170.341,342.732 z" id="boundary" inkscape:connector-curvature="0" />
	<path style="fill:none;stroke:red;stroke-width:1px;stroke-linecap:butt;stroke-linejoin:miter;stroke-opacity:1" d="M 170.341,342.732 170.341,357.854 z" id="boundary" inkscape:connector-curvature="0" />
	<path style="fill:none;stroke:red;stroke-width:1px;stroke-linecap:butt;stroke-linejoin:miter;stroke-opacity:1" d="M 238.39,477.317 230.829,463.707 z" id="boundary" inkscape:connector-curvature="0" />
	<path style="fill:none;stroke:red;stroke-width:1px;stroke-linecap:butt;stroke-linejoin:miter;stroke-opacity:1" d="M 177.902,371.463 170.341,357.854 z" id="boundary" inkscape:connector-curvature="0" />
	<path style="fill:none;stroke:red;stroke-width:1px;stroke-linecap:butt;stroke-linejoin:miter;stroke-opacity:1" d="M 177.902,371.463 177.902,386.585 z" id="boundary" inkscape:connector-curvature="0" />
	<path style="fill:none;stroke:red;stroke-width:1px;stroke-linecap:butt;stroke-linejoin:miter;stroke-opacity:1" d="M 185.463,400.195 177.902,386.585 z" id="boundary" inkscape:connector-curvature="0" />
	<path style="fill:none;stroke:red;stroke-width:1px;stroke-linecap:butt;stroke-linejoin:miter;stroke-opacity:1" d="M 185.463,400.195 193.024,413.805 z" id="boundary" inkscape:connector-curvature="0" />
	<path style="fill:none;stroke:red;stroke-width:1px;stroke-linecap:butt;stroke-linejoin:miter;stroke-opacity:1" d="M 209.659,439.512 200.585,427.415 z" id="boundary" inkscape:connector-curvature="0" />
	<path style="fill:none;stroke:red;stroke-width:1px;stroke-linecap:butt;stroke-linejoin:miter;stroke-opacity:1" d="M 200.585,427.415 193.024,413.805 z" id="boundary" inkscape:connector-curvature="0" />
	<path style="fill:none;stroke:red;stroke-width:1px;stroke-linecap:butt;stroke-linejoin:miter;stroke-opacity:1" d="M 209.659,439.512 220.244,451.61 z" id="boundary" inkscape:connector-curvature="0" />
	<path style="fill:none;stroke:red;stroke-width:1px;stroke-linecap:butt;stroke-linejoin:miter;stroke-opacity:1" d="M 220.244,451.61 230.829,463.707 z" id="boundary" inkscape:connector-curvature="0" />
	<path style="fill:none;stroke:red;stroke-width:1px;stroke-linecap:butt;stroke-linejoin:miter;stroke-opacity:1" d="M 238.39,477.317 245.951,490.927 z" id="boundary" inkscape:connector-curvature="0" />
	<path style="fill:none;stroke:red;stroke-width:1px;stroke-linecap:butt;stroke-linejoin:miter;stroke-opacity:1" d="M 267.122,512.098 253.512,504.537 z" id="boundary" inkscape:connector-curvature="0" />
	<path style="fill:none;stroke:red;stroke-width:1px;stroke-linecap:butt;stroke-linejoin:miter;stroke-opacity:1" d="M 253.512,504.537 245.951,490.927 z" id="boundary" inkscape:connector-curvature="0" />
	<path style="fill:none;stroke:red;stroke-width:1px;stroke-linecap:butt;stroke-linejoin:miter;stroke-opacity:1" d="M 239.902,657.268 229.317,669.366 z" id="boundary" inkscape:connector-curvature="0" />
	<path style="fill:none;stroke:red;stroke-width:1px;stroke-linecap:butt;stroke-linejoin:miter;stroke-opacity:1" d="M 229.317,669.366 215.707,676.927 z" id="boundary" inkscape:connector-curvature="0" />
	<path style="fill:none;stroke:red;stroke-width:1px;stroke-linecap:butt;stroke-linejoin:miter;stroke-opacity:1" d="M 215.707,676.927 200.585,681.463 z" id="boundary" inkscape:connector-curvature="0" />
	<path style="fill:none;stroke:red;stroke-width:1px;stroke-linecap:butt;stroke-linejoin:miter;stroke-opacity:1" d="M 239.902,701.122 226.293,708.683 z" id="boundary" inkscape:connector-curvature="0" />
	<path style="fill:none;stroke:red;stroke-width:1px;stroke-linecap:butt;stroke-linejoin:miter;stroke-opacity:1" d="M 197.561,699.61 185.463,689.024 z" id="boundary" inkscape:connector-curvature="0" />
	<path style="fill:none;stroke:red;stroke-width:1px;stroke-linecap:butt;stroke-linejoin:miter;stroke-opacity:1" d="M 211.171,707.171 226.293,708.683 z" id="boundary" inkscape:connector-curvature="0" />
	<path style="fill:none;stroke:red;stroke-width:1px;stroke-linecap:butt;stroke-linejoin:miter;stroke-opacity:1" d="M 211.171,707.171 197.561,699.61 z" id="boundary" inkscape:connector-curvature="0" />
	<path style="fill:none;stroke:red;stroke-width:1px;stroke-linecap:butt;stroke-linejoin:miter;stroke-opacity:1" d="M 265.61,639.122 252,646.683 z" id="boundary" inkscape:connector-curvature="0" />
	<path style="fill:none;stroke:red;stroke-width:1px;stroke-linecap:butt;stroke-linejoin:miter;stroke-opacity:1" d="M 252,646.683 239.902,657.268 z" id="boundary" inkscape:connector-curvature="0" />
	<path style="fill:none;stroke:red;stroke-width:1px;stroke-linecap:butt;stroke-linejoin:miter;stroke-opacity:1" d="M 267.122,512.098 273.171,527.22 z" id="boundary" inkscape:connector-curvature="0" />
	<path style="fill:none;stroke:red;stroke-width:1px;stroke-linecap:butt;stroke-linejoin:miter;stroke-opacity:1" d="M 268.634,663.317 255.024,670.878 z" id="boundary" inkscape:connector-curvature="0" />
	<path style="fill:none;stroke:red;stroke-width:1px;stroke-linecap:butt;stroke-linejoin:miter;stroke-opacity:1" d="M 239.902,657.268 255.024,670.878 z" id="boundary" inkscape:connector-curvature="0" />
	<path style="fill:none;stroke:red;stroke-width:1px;stroke-linecap:butt;stroke-linejoin:miter;stroke-opacity:1" d="M 247.463,686 239.902,701.122 z" id="boundary" inkscape:connector-curvature="0" />
	<path style="fill:none;stroke:red;stroke-width:1px;stroke-linecap:butt;stroke-linejoin:miter;stroke-opacity:1" d="M 247.463,686 255.024,670.878 z" id="boundary" inkscape:connector-curvature="0" />
	<path style="fill:none;stroke:red;stroke-width:1px;stroke-linecap:butt;stroke-linejoin:miter;stroke-opacity:1" d="M 285.268,537.805 273.171,527.22 z" id="boundary" inkscape:connector-curvature="0" />
	<path style="fill:none;stroke:red;stroke-width:1px;stroke-linecap:butt;stroke-linejoin:miter;stroke-opacity:1" d="M 300.39,542.341 285.268,537.805 z" id="boundary" inkscape:connector-curvature="0" />
	<path style="fill:none;stroke:red;stroke-width:1px;stroke-linecap:butt;stroke-linejoin:miter;stroke-opacity:1" d="M 280.732,631.561 265.61,639.122 z" id="boundary" inkscape:connector-curvature="0" />
	<path style="fill:none;stroke:red;stroke-width:1px;stroke-linecap:butt;stroke-linejoin:miter;stroke-opacity:1" d="M 321.561,608.878 306.439,613.415 z" id="boundary" inkscape:connector-curvature="0" />
	<path style="fill:none;stroke:red;stroke-width:1px;stroke-linecap:butt;stroke-linejoin:miter;stroke-opacity:1" d="M 300.39,542.341 314,549.902 z" id="boundary" inkscape:connector-curvature="0" />
	<path style="fill:none;stroke:red;stroke-width:1px;stroke-linecap:butt;stroke-linejoin:miter;stroke-opacity:1" d="M 327.61,557.463 338.195,569.561 z" id="boundary" inkscape:connector-curvature="0" />
	<path style="fill:none;stroke:red;stroke-width:1px;stroke-linecap:butt;stroke-linejoin:miter;stroke-opacity:1" d="M 314,549.902 327.61,557.463 z" id="boundary" inkscape:connector-curvature="0" />
	<path style="fill:none;stroke:red;stroke-width:1px;stroke-linecap:butt;stroke-linejoin:miter;stroke-opacity:1" d="M 306.439,613.415 294.341,624 z" id="boundary" inkscape:connector-curvature="0" />
	<path style="fill:none;stroke:red;stroke-width:1px;stroke-linecap:butt;stroke-linejoin:miter;stroke-opacity:1" d="M 344.244,584.683 338.195,569.561 z" id="boundary" inkscape:connector-curvature="0" />
	<path style="fill:none;stroke:red;stroke-width:1px;stroke-linecap:butt;stroke-linejoin:miter;stroke-opacity:1" d="M 376,587.707 363.902,602.829 z" id="boundary" inkscape:connector-curvature="0" />
	<path style="fill:none;stroke:red;stroke-width:1px;stroke-linecap:butt;stroke-linejoin:miter;stroke-opacity:1" d="M 344.244,584.683 335.171,601.317 z" id="boundary" inkscape:connector-curvature="0" />
	<path style="fill:none;stroke:red;stroke-width:1px;stroke-linecap:butt;stroke-linejoin:miter;stroke-opacity:1" d="M 350.293,610.39 363.902,602.829 z" id="boundary" inkscape:connector-curvature="0" />
	<path style="fill:none;stroke:red;stroke-width:1px;stroke-linecap:butt;stroke-linejoin:miter;stroke-opacity:1" d="M 394.146,631.561 382.049,643.659 z" id="boundary" inkscape:connector-curvature="0" />
	<path style="fill:none;stroke:red;stroke-width:1px;stroke-linecap:butt;stroke-linejoin:miter;stroke-opacity:1" d="M 335.171,616.439 323.073,625.512 z" id="boundary" inkscape:connector-curvature="0" />
	<path style="fill:none;stroke:red;stroke-width:1px;stroke-linecap:butt;stroke-linejoin:miter;stroke-opacity:1" d="M 280.732,631.561 294.341,624 z" id="boundary" inkscape:connector-curvature="0" />
	<path style="fill:none;stroke:red;stroke-width:1px;stroke-linecap:butt;stroke-linejoin:miter;stroke-opacity:1" d="M 323.073,625.512 307.951,633.073 z" id="boundary" inkscape:connector-curvature="0" />
	<path style="fill:none;stroke:red;stroke-width:1px;stroke-linecap:butt;stroke-linejoin:miter;stroke-opacity:1" d="M 307.951,633.073 294.341,624 z" id="boundary" inkscape:connector-curvature="0" />
	<path style="fill:none;stroke:red;stroke-width:1px;stroke-linecap:butt;stroke-linejoin:miter;stroke-opacity:1" d="M 268.634,663.317 280.732,654.244 z" id="boundary" inkscape:connector-curvature="0" />
	<path style="fill:none;stroke:red;stroke-width:1px;stroke-linecap:butt;stroke-linejoin:miter;stroke-opacity:1" d="M 295.854,646.683 307.951,633.073 z" id="boundary" inkscape:connector-curvature="0" />
	<path style="fill:none;stroke:red;stroke-width:1px;stroke-linecap:butt;stroke-linejoin:miter;stroke-opacity:1" d="M 295.854,646.683 280.732,654.244 z" id="boundary" inkscape:connector-curvature="0" />
	<path style="fill:none;stroke:red;stroke-width:1px;stroke-linecap:butt;stroke-linejoin:miter;stroke-opacity:1" d="M 363.902,684.488 351.805,696.585 z" id="boundary" inkscape:connector-curvature="0" />
	<path style="fill:none;stroke:red;stroke-width:1px;stroke-linecap:butt;stroke-linejoin:miter;stroke-opacity:1" d="M 374.488,658.78 383.561,670.878 z" id="boundary" inkscape:connector-curvature="0" />
	<path style="fill:none;stroke:red;stroke-width:1px;stroke-linecap:butt;stroke-linejoin:miter;stroke-opacity:1" d="M 351.805,696.585 351.805,711.707 z" id="boundary" inkscape:connector-curvature="0" />
	<path style="fill:none;stroke:red;stroke-width:1px;stroke-linecap:butt;stroke-linejoin:miter;stroke-opacity:1" d="M 363.902,722.293 351.805,711.707 z" id="boundary" inkscape:connector-curvature="0" />
	<path style="fill:none;stroke:red;stroke-width:1px;stroke-linecap:butt;stroke-linejoin:miter;stroke-opacity:1" d="M 379.024,723.805 363.902,722.293 z" id="boundary" inkscape:connector-curvature="0" />
	<path style="fill:none;stroke:red;stroke-width:1px;stroke-linecap:butt;stroke-linejoin:miter;stroke-opacity:1" d="M 374.488,658.78 382.049,643.659 z" id="boundary" inkscape:connector-curvature="0" />
	<path style="fill:none;stroke:red;stroke-width:1px;stroke-linecap:butt;stroke-linejoin:miter;stroke-opacity:1" d="M 376,587.707 391.122,587.707 z" id="boundary" inkscape:connector-curvature="0" />
	<path style="fill:none;stroke:red;stroke-width:1px;stroke-linecap:butt;stroke-linejoin:miter;stroke-opacity:1" d="M 371.463,202.098 383.561,212.683 z" id="boundary" inkscape:connector-curvature="0" />
	<path style="fill:none;stroke:red;stroke-width:1px;stroke-linecap:butt;stroke-linejoin:miter;stroke-opacity:1" d="M 383.561,212.683 397.171,220.244 z" id="boundary" inkscape:connector-curvature="0" />
	<path style="fill:none;stroke:red;stroke-width:1px;stroke-linecap:butt;stroke-linejoin:miter;stroke-opacity:1" d="M 397.171,220.244 409.268,230.829 z" id="boundary" inkscape:connector-curvature="0" />
	<path style="fill:none;stroke:red;stroke-width:1px;stroke-linecap:butt;stroke-linejoin:miter;stroke-opacity:1" d="M 422.878,238.39 409.268,230.829 z" id="boundary" inkscape:connector-curvature="0" />
	<path style="fill:none;stroke:red;stroke-width:1px;stroke-linecap:butt;stroke-linejoin:miter;stroke-opacity:1" d="M 422.878,238.39 436.488,245.951 z" id="boundary" inkscape:connector-curvature="0" />
	<path style="fill:none;stroke:red;stroke-width:1px;stroke-linecap:butt;stroke-linejoin:miter;stroke-opacity:1" d="M 436.488,245.951 448.585,255.024 z" id="boundary" inkscape:connector-curvature="0" />
	<path style="fill:none;stroke:red;stroke-width:1px;stroke-linecap:butt;stroke-linejoin:miter;stroke-opacity:1" d="M 462.195,262.585 448.585,255.024 z" id="boundary" inkscape:connector-curvature="0" />
	<path style="fill:none;stroke:red;stroke-width:1px;stroke-linecap:butt;stroke-linejoin:miter;stroke-opacity:1" d="M 477.317,268.634 462.195,262.585 z" id="boundary" inkscape:connector-curvature="0" />
	<path style="fill:none;stroke:red;stroke-width:1px;stroke-linecap:butt;stroke-linejoin:miter;stroke-opacity:1" d="M 477.317,268.634 490.927,276.195 z" id="boundary" inkscape:connector-curvature="0" />
	<path style="fill:none;stroke:red;stroke-width:1px;stroke-linecap:butt;stroke-linejoin:miter;stroke-opacity:1" d="M 490.927,276.195 503.024,286.78 z" id="boundary" inkscape:connector-curvature="0" />
	<path style="fill:none;stroke:red;stroke-width:1px;stroke-linecap:butt;stroke-linejoin:miter;stroke-opacity:1" d="M 503.024,286.78 512.098,298.878 z" id="boundary" inkscape:connector-curvature="0" />
	<path style="fill:none;stroke:red;stroke-width:1px;stroke-linecap:butt;stroke-linejoin:miter;stroke-opacity:1" d="M 512.098,298.878 524.195,307.951 z" id="boundary" inkscape:connector-curvature="0" />
	<path style="fill:none;stroke:red;stroke-width:1px;stroke-linecap:butt;stroke-linejoin:miter;stroke-opacity:1" d="M 537.805,315.512 545.366,329.122 z" id="boundary" inkscape:connector-curvature="0" />
	<path style="fill:none;stroke:red;stroke-width:1px;stroke-linecap:butt;stroke-linejoin:miter;stroke-opacity:1" d="M 524.195,307.951 537.805,315.512 z" id="boundary" inkscape:connector-curvature="0" />
	<path style="fill:none;stroke:red;stroke-width:1px;stroke-linecap:butt;stroke-linejoin:miter;stroke-opacity:1" d="M 558.976,336.683 545.366,329.122 z" id="boundary" inkscape:connector-curvature="0" />
	<path style="fill:none;stroke:red;stroke-width:1px;stroke-linecap:butt;stroke-linejoin:miter;stroke-opacity:1" d="M 509.073,577.122 493.951,580.146 z" id="boundary" inkscape:connector-curvature="0" />
	<path style="fill:none;stroke:red;stroke-width:1px;stroke-linecap:butt;stroke-linejoin:miter;stroke-opacity:1" d="M 509.073,577.122 524.195,572.585 z" id="boundary" inkscape:connector-curvature="0" />
	<path style="fill:none;stroke:red;stroke-width:1px;stroke-linecap:butt;stroke-linejoin:miter;stroke-opacity:1" d="M 524.195,572.585 539.317,572.585 z" id="boundary" inkscape:connector-curvature="0" />
	<path style="fill:none;stroke:red;stroke-width:1px;stroke-linecap:butt;stroke-linejoin:miter;stroke-opacity:1" d="M 450.098,587.707 436.488,595.268 z" id="boundary" inkscape:connector-curvature="0" />
	<path style="fill:none;stroke:red;stroke-width:1px;stroke-linecap:butt;stroke-linejoin:miter;stroke-opacity:1" d="M 391.122,587.707 404.732,580.146 z" id="boundary" inkscape:connector-curvature="0" />
	<path style="fill:none;stroke:red;stroke-width:1px;stroke-linecap:butt;stroke-linejoin:miter;stroke-opacity:1" d="M 404.732,580.146 412.293,593.756 z" id="boundary" inkscape:connector-curvature="0" />
	<path style="fill:none;stroke:red;stroke-width:1px;stroke-linecap:butt;stroke-linejoin:miter;stroke-opacity:1" d="M 493.951,580.146 480.341,587.707 z" id="boundary" inkscape:connector-curvature="0" />
	<path style="fill:none;stroke:red;stroke-width:1px;stroke-linecap:butt;stroke-linejoin:miter;stroke-opacity:1" d="M 480.341,587.707 465.22,587.707 z" id="boundary" inkscape:connector-curvature="0" />
	<path style="fill:none;stroke:red;stroke-width:1px;stroke-linecap:butt;stroke-linejoin:miter;stroke-opacity:1" d="M 465.22,587.707 450.098,587.707 z" id="boundary" inkscape:connector-curvature="0" />
	<path style="fill:none;stroke:red;stroke-width:1px;stroke-linecap:butt;stroke-linejoin:miter;stroke-opacity:1" d="M 558.976,336.683 572.585,344.244 z" id="boundary" inkscape:connector-curvature="0" />
	<path style="fill:none;stroke:red;stroke-width:1px;stroke-linecap:butt;stroke-linejoin:miter;stroke-opacity:1" d="M 572.585,344.244 580.146,357.854 z" id="boundary" inkscape:connector-curvature="0" />
	<path style="fill:none;stroke:red;stroke-width:1px;stroke-linecap:butt;stroke-linejoin:miter;stroke-opacity:1" d="M 592.244,368.439 580.146,357.854 z" id="boundary" inkscape:connector-curvature="0" />
	<path style="fill:none;stroke:red;stroke-width:1px;stroke-linecap:butt;stroke-linejoin:miter;stroke-opacity:1" d="M 554.439,572.585 539.317,572.585 z" id="boundary" inkscape:connector-curvature="0" />
	<path style="fill:none;stroke:red;stroke-width:1px;stroke-linecap:butt;stroke-linejoin:miter;stroke-opacity:1" d="M 569.561,572.585 583.171,565.024 z" id="boundary" inkscape:connector-curvature="0" />
	<path style="fill:none;stroke:red;stroke-width:1px;stroke-linecap:butt;stroke-linejoin:miter;stroke-opacity:1" d="M 569.561,572.585 554.439,572.585 z" id="boundary" inkscape:connector-curvature="0" />
	<path style="fill:none;stroke:red;stroke-width:1px;stroke-linecap:butt;stroke-linejoin:miter;stroke-opacity:1" d="M 596.78,557.463 583.171,565.024 z" id="boundary" inkscape:connector-curvature="0" />
	<path style="fill:none;stroke:red;stroke-width:1px;stroke-linecap:butt;stroke-linejoin:miter;stroke-opacity:1" d="M 614.927,389.61 602.829,380.537 z" id="boundary" inkscape:connector-curvature="0" />
	<path style="fill:none;stroke:red;stroke-width:1px;stroke-linecap:butt;stroke-linejoin:miter;stroke-opacity:1" d="M 602.829,380.537 592.244,368.439 z" id="boundary" inkscape:connector-curvature="0" />
	<path style="fill:none;stroke:red;stroke-width:1px;stroke-linecap:butt;stroke-linejoin:miter;stroke-opacity:1" d="M 628.537,397.171 614.927,389.61 z" id="boundary" inkscape:connector-curvature="0" />
	<path style="fill:none;stroke:red;stroke-width:1px;stroke-linecap:butt;stroke-linejoin:miter;stroke-opacity:1" d="M 628.537,397.171 642.146,404.732 z" id="boundary" inkscape:connector-curvature="0" />
	<path style="fill:none;stroke:red;stroke-width:1px;stroke-linecap:butt;stroke-linejoin:miter;stroke-opacity:1" d="M 642.146,404.732 648.195,419.854 z" id="boundary" inkscape:connector-curvature="0" />
	<path style="fill:none;stroke:red;stroke-width:1px;stroke-linecap:butt;stroke-linejoin:miter;stroke-opacity:1" d="M 648.195,419.854 660.293,428.927 z" id="boundary" inkscape:connector-curvature="0" />
	<path style="fill:none;stroke:red;stroke-width:1px;stroke-linecap:butt;stroke-linejoin:miter;stroke-opacity:1" d="M 670.878,441.024 682.976,451.61 z" id="boundary" inkscape:connector-curvature="0" />
	<path style="fill:none;stroke:red;stroke-width:1px;stroke-linecap:butt;stroke-linejoin:miter;stroke-opacity:1" d="M 670.878,441.024 660.293,428.927 z" id="boundary" inkscape:connector-curvature="0" />
	<path style="fill:none;stroke:red;stroke-width:1px;stroke-linecap:butt;stroke-linejoin:miter;stroke-opacity:1" d="M 693.561,463.707 682.976,451.61 z" id="boundary" inkscape:connector-curvature="0" />
	<path style="fill:none;stroke:red;stroke-width:1px;stroke-linecap:butt;stroke-linejoin:miter;stroke-opacity:1" d="M 705.659,474.293 693.561,463.707 z" id="boundary" inkscape:connector-curvature="0" />
	<path style="fill:none;stroke:red;stroke-width:1px;stroke-linecap:butt;stroke-linejoin:miter;stroke-opacity:1" d="M 705.659,474.293 716.244,486.39 z" id="boundary" inkscape:connector-curvature="0" />
	<path style="fill:none;stroke:red;stroke-width:1px;stroke-linecap:butt;stroke-linejoin:miter;stroke-opacity:1" d="M 723.805,500 735.902,510.585 z" id="boundary" inkscape:connector-curvature="0" />
	<path style="fill:none;stroke:red;stroke-width:1px;stroke-linecap:butt;stroke-linejoin:miter;stroke-opacity:1" d="M 723.805,500 716.244,486.39 z" id="boundary" inkscape:connector-curvature="0" />
	<path style="fill:none;stroke:red;stroke-width:1px;stroke-linecap:butt;stroke-linejoin:miter;stroke-opacity:1" d="M 749.512,518.146 735.902,510.585 z" id="boundary" inkscape:connector-curvature="0" />
	<path style="fill:none;stroke:red;stroke-width:1px;stroke-linecap:butt;stroke-linejoin:miter;stroke-opacity:1" d="M 611.902,557.463 596.78,557.463 z" id="boundary" inkscape:connector-curvature="0" />
	<path style="fill:none;stroke:red;stroke-width:1px;stroke-linecap:butt;stroke-linejoin:miter;stroke-opacity:1" d="M 749.512,518.146 760.098,530.244 z" id="boundary" inkscape:connector-curvature="0" />
	<path style="fill:none;stroke:red;stroke-width:1px;stroke-linecap:butt;stroke-linejoin:miter;stroke-opacity:1" d="M 627.024,562 611.902,557.463 z" id="boundary" inkscape:connector-curvature="0" />
	<path style="fill:none;stroke:red;stroke-width:1px;stroke-linecap:butt;stroke-linejoin:miter;stroke-opacity:1" d="M 627.024,562 642.146,565.024 z" id="boundary" inkscape:connector-curvature="0" />
	<path style="fill:none;stroke:red;stroke-width:1px;stroke-linecap:butt;stroke-linejoin:miter;stroke-opacity:1" d="M 642.146,565.024 649.707,578.634 z" id="boundary" inkscape:connector-curvature="0" />
	<path style="fill:none;stroke:red;stroke-width:1px;stroke-linecap:butt;stroke-linejoin:miter;stroke-opacity:1" d="M 664.829,584.683 649.707,578.634 z" id="boundary" inkscape:connector-curvature="0" />
	<path style="fill:none;stroke:red;stroke-width:1px;stroke-linecap:butt;stroke-linejoin:miter;stroke-opacity:1" d="M 676.927,595.268 664.829,584.683 z" id="boundary" inkscape:connector-curvature="0" />
	<path style="fill:none;stroke:red;stroke-width:1px;stroke-linecap:butt;stroke-linejoin:miter;stroke-opacity:1" d="M 760.098,530.244 775.22,536.293 z" id="boundary" inkscape:connector-curvature="0" />
	<path style="fill:none;stroke:red;stroke-width:1px;stroke-linecap:butt;stroke-linejoin:miter;stroke-opacity:1" d="M 775.22,536.293 784.293,548.39 z" id="boundary" inkscape:connector-curvature="0" />
	<path style="fill:none;stroke:red;stroke-width:1px;stroke-linecap:butt;stroke-linejoin:miter;stroke-opacity:1" d="M 799.415,552.927 784.293,548.39 z" id="boundary" inkscape:connector-curvature="0" />
	<path style="fill:none;stroke:red;stroke-width:1px;stroke-linecap:butt;stroke-linejoin:miter;stroke-opacity:1" d="M 799.415,552.927 813.024,560.488 z" id="boundary" inkscape:connector-curvature="0" />
	<path style="fill:none;stroke:red;stroke-width:1px;stroke-linecap:butt;stroke-linejoin:miter;stroke-opacity:1" d="M 813.024,560.488 825.122,571.073 z" id="boundary" inkscape:connector-curvature="0" />
	<path style="fill:none;stroke:red;stroke-width:1px;stroke-linecap:butt;stroke-linejoin:miter;stroke-opacity:1" d="M 838.732,578.634 825.122,571.073 z" id="boundary" inkscape:connector-curvature="0" />
	<path style="fill:none;stroke:red;stroke-width:1px;stroke-linecap:butt;stroke-linejoin:miter;stroke-opacity:1" d="M 404.732,613.415 413.805,625.512 z" id="boundary" inkscape:connector-curvature="0" />
	<path style="fill:none;stroke:red;stroke-width:1px;stroke-linecap:butt;stroke-linejoin:miter;stroke-opacity:1" d="M 406.244,640.634 413.805,625.512 z" id="boundary" inkscape:connector-curvature="0" />
	<path style="fill:none;stroke:red;stroke-width:1px;stroke-linecap:butt;stroke-linejoin:miter;stroke-opacity:1" d="M 406.244,640.634 394.146,631.561 z" id="boundary" inkscape:connector-curvature="0" />
	<path style="fill:none;stroke:red;stroke-width:1px;stroke-linecap:butt;stroke-linejoin:miter;stroke-opacity:1" d="M 676.927,595.268 686,607.366 z" id="boundary" inkscape:connector-curvature="0" />
	<path style="fill:none;stroke:red;stroke-width:1px;stroke-linecap:butt;stroke-linejoin:miter;stroke-opacity:1" d="M 701.122,613.415 686,607.366 z" id="boundary" inkscape:connector-curvature="0" />
	<path style="fill:none;stroke:red;stroke-width:1px;stroke-linecap:butt;stroke-linejoin:miter;stroke-opacity:1" d="M 701.122,613.415 714.732,620.976 z" id="boundary" inkscape:connector-curvature="0" />
	<path style="fill:none;stroke:red;stroke-width:1px;stroke-linecap:butt;stroke-linejoin:miter;stroke-opacity:1" d="M 714.732,620.976 722.293,634.585 z" id="boundary" inkscape:connector-curvature="0" />
	<path style="fill:none;stroke:red;stroke-width:1px;stroke-linecap:butt;stroke-linejoin:miter;stroke-opacity:1" d="M 737.415,640.634 722.293,634.585 z" id="boundary" inkscape:connector-curvature="0" />
	<path style="fill:none;stroke:red;stroke-width:1px;stroke-linecap:butt;stroke-linejoin:miter;stroke-opacity:1" d="M 737.415,640.634 741.951,655.756 z" id="boundary" inkscape:connector-curvature="0" />
	<path style="fill:none;stroke:red;stroke-width:1px;stroke-linecap:butt;stroke-linejoin:miter;stroke-opacity:1" d="M 386.585,686 383.561,670.878 z" id="boundary" inkscape:connector-curvature="0" />
	<path style="fill:none;stroke:red;stroke-width:1px;stroke-linecap:butt;stroke-linejoin:miter;stroke-opacity:1" d="M 383.561,670.878 395.659,660.293 z" id="boundary" inkscape:connector-curvature="0" />
	<path style="fill:none;stroke:red;stroke-width:1px;stroke-linecap:butt;stroke-linejoin:miter;stroke-opacity:1" d="M 394.146,722.293 379.024,723.805 z" id="boundary" inkscape:connector-curvature="0" />
	<path style="fill:none;stroke:red;stroke-width:1px;stroke-linecap:butt;stroke-linejoin:miter;stroke-opacity:1" d="M 406.244,707.171 394.146,722.293 z" id="boundary" inkscape:connector-curvature="0" />
	<path style="fill:none;stroke:red;stroke-width:1px;stroke-linecap:butt;stroke-linejoin:miter;stroke-opacity:1" d="M 401.707,692.049 406.244,707.171 z" id="boundary" inkscape:connector-curvature="0" />
	<path style="fill:none;stroke:red;stroke-width:1px;stroke-linecap:butt;stroke-linejoin:miter;stroke-opacity:1" d="M 386.585,686 401.707,692.049 z" id="boundary" inkscape:connector-curvature="0" />
	<path style="fill:none;stroke:red;stroke-width:1px;stroke-linecap:butt;stroke-linejoin:miter;stroke-opacity:1" d="M 741.951,655.756 754.049,666.341 z" id="boundary" inkscape:connector-curvature="0" />
	<path style="fill:none;stroke:red;stroke-width:1px;stroke-linecap:butt;stroke-linejoin:miter;stroke-opacity:1" d="M 767.659,673.902 754.049,666.341 z" id="boundary" inkscape:connector-curvature="0" />
	<path style="fill:none;stroke:red;stroke-width:1px;stroke-linecap:butt;stroke-linejoin:miter;stroke-opacity:1" d="M 767.659,673.902 782.78,678.439 z" id="boundary" inkscape:connector-curvature="0" />
	<path style="fill:none;stroke:red;stroke-width:1px;stroke-linecap:butt;stroke-linejoin:miter;stroke-opacity:1" d="M 782.78,678.439 791.854,690.537 z" id="boundary" inkscape:connector-curvature="0" />
	<path style="fill:none;stroke:red;stroke-width:1px;stroke-linecap:butt;stroke-linejoin:miter;stroke-opacity:1" d="M 791.854,690.537 803.951,701.122 z" id="boundary" inkscape:connector-curvature="0" />
	<path style="fill:none;stroke:red;stroke-width:1px;stroke-linecap:butt;stroke-linejoin:miter;stroke-opacity:1" d="M 803.951,701.122 814.537,713.22 z" id="boundary" inkscape:connector-curvature="0" />
	<path style="fill:none;stroke:red;stroke-width:1px;stroke-linecap:butt;stroke-linejoin:miter;stroke-opacity:1" d="M 826.634,723.805 814.537,713.22 z" id="boundary" inkscape:connector-curvature="0" />
	<path style="fill:none;stroke:red;stroke-width:1px;stroke-linecap:butt;stroke-linejoin:miter;stroke-opacity:1" d="M 826.634,723.805 837.22,735.902 z" id="boundary" inkscape:connector-curvature="0" />
	<path style="fill:none;stroke:red;stroke-width:1px;stroke-linecap:butt;stroke-linejoin:miter;stroke-opacity:1" d="M 875.024,605.854 859.902,601.317 z" id="boundary" inkscape:connector-curvature="0" />
	<path style="fill:none;stroke:red;stroke-width:1px;stroke-linecap:butt;stroke-linejoin:miter;stroke-opacity:1" d="M 859.902,601.317 850.829,589.22 z" id="boundary" inkscape:connector-curvature="0" />
	<path style="fill:none;stroke:red;stroke-width:1px;stroke-linecap:butt;stroke-linejoin:miter;stroke-opacity:1" d="M 890.146,608.878 875.024,605.854 z" id="boundary" inkscape:connector-curvature="0" />
	<path style="fill:none;stroke:red;stroke-width:1px;stroke-linecap:butt;stroke-linejoin:miter;stroke-opacity:1" d="M 902.244,617.951 890.146,608.878 z" id="boundary" inkscape:connector-curvature="0" />
	<path style="fill:none;stroke:red;stroke-width:1px;stroke-linecap:butt;stroke-linejoin:miter;stroke-opacity:1" d="M 915.854,625.512 902.244,617.951 z" id="boundary" inkscape:connector-curvature="0" />
	<path style="fill:none;stroke:red;stroke-width:1px;stroke-linecap:butt;stroke-linejoin:miter;stroke-opacity:1" d="M 915.854,625.512 923.415,639.122 z" id="boundary" inkscape:connector-curvature="0" />
	<path style="fill:none;stroke:red;stroke-width:1px;stroke-linecap:butt;stroke-linejoin:miter;stroke-opacity:1" d="M 937.024,646.683 923.415,639.122 z" id="boundary" inkscape:connector-curvature="0" />
	<path style="fill:none;stroke:red;stroke-width:1px;stroke-linecap:butt;stroke-linejoin:miter;stroke-opacity:1" d="M 850.829,589.22 838.732,578.634 z" id="boundary" inkscape:connector-curvature="0" />
	<path style="fill:none;stroke:red;stroke-width:1px;stroke-linecap:butt;stroke-linejoin:miter;stroke-opacity:1" d="M 937.024,646.683 950.634,654.244 z" id="boundary" inkscape:connector-curvature="0" />
	<path style="fill:none;stroke:red;stroke-width:1px;stroke-linecap:butt;stroke-linejoin:miter;stroke-opacity:1" d="M 950.634,654.244 958.195,667.854 z" id="boundary" inkscape:connector-curvature="0" />
	<path style="fill:none;stroke:red;stroke-width:1px;stroke-linecap:butt;stroke-linejoin:miter;stroke-opacity:1" d="M 973.317,673.902 958.195,667.854 z" id="boundary" inkscape:connector-curvature="0" />
	<path style="fill:none;stroke:red;stroke-width:1px;stroke-linecap:butt;stroke-linejoin:miter;stroke-opacity:1" d="M 973.317,673.902 986.927,681.463 z" id="boundary" inkscape:connector-curvature="0" />
	<path style="fill:none;stroke:red;stroke-width:1px;stroke-linecap:butt;stroke-linejoin:miter;stroke-opacity:1" d="M 986.927,681.463 994.488,695.073 z" id="boundary" inkscape:connector-curvature="0" />
	<path style="fill:none;stroke:red;stroke-width:1px;stroke-linecap:butt;stroke-linejoin:miter;stroke-opacity:1" d="M 994.488,695.073 996,710.195 z" id="boundary" inkscape:connector-curvature="0" />
	<path style="fill:none;stroke:red;stroke-width:1px;stroke-linecap:butt;stroke-linejoin:miter;stroke-opacity:1" d="M 996,710.195 996,725.317 z" id="boundary" inkscape:connector-curvature="0" />
	<path style="fill:none;stroke:red;stroke-width:1px;stroke-linecap:butt;stroke-linejoin:miter;stroke-opacity:1" d="M 837.22,735.902 852.341,741.951 z" id="boundary" inkscape:connector-curvature="0" />
	<path style="fill:none;stroke:red;stroke-width:1px;stroke-linecap:butt;stroke-linejoin:miter;stroke-opacity:1" d="M 852.341,741.951 865.951,749.512 z" id="boundary" inkscape:connector-curvature="0" />
	<path style="fill:none;stroke:red;stroke-width:1px;stroke-linecap:butt;stroke-linejoin:miter;stroke-opacity:1" d="M 881.073,754.049 890.146,766.146 z" id="boundary" inkscape:connector-curvature="0" />
	<path style="fill:none;stroke:red;stroke-width:1px;stroke-linecap:butt;stroke-linejoin:miter;stroke-opacity:1" d="M 865.951,749.512 881.073,754.049 z" id="boundary" inkscape:connector-curvature="0" />
	<path style="fill:none;stroke:red;stroke-width:1px;stroke-linecap:butt;stroke-linejoin:miter;stroke-opacity:1" d="M 905.268,772.195 890.146,766.146 z" id="boundary" inkscape:connector-curvature="0" />
	<path style="fill:none;stroke:red;stroke-width:1px;stroke-linecap:butt;stroke-linejoin:miter;stroke-opacity:1" d="M 905.268,772.195 918.878,779.756 z" id="boundary" inkscape:connector-curvature="0" />
	<path style="fill:none;stroke:red;stroke-width:1px;stroke-linecap:butt;stroke-linejoin:miter;stroke-opacity:1" d="M 988.439,746.488 996,725.317 z" id="boundary" inkscape:connector-curvature="0" />
	<path style="fill:none;stroke:red;stroke-width:1px;stroke-linecap:butt;stroke-linejoin:miter;stroke-opacity:1" d="M 988.439,761.61 988.439,746.488 z" id="boundary" inkscape:connector-curvature="0" />
	<path style="fill:none;stroke:red;stroke-width:1px;stroke-linecap:butt;stroke-linejoin:miter;stroke-opacity:1" d="M 988.439,761.61 973.317,769.171 z" id="boundary" inkscape:connector-curvature="0" />
	<path style="fill:none;stroke:red;stroke-width:1px;stroke-linecap:butt;stroke-linejoin:miter;stroke-opacity:1" d="M 949.122,784.293 934,784.293 z" id="boundary" inkscape:connector-curvature="0" />
	<path style="fill:none;stroke:red;stroke-width:1px;stroke-linecap:butt;stroke-linejoin:miter;stroke-opacity:1" d="M 964.244,784.293 973.317,769.171 z" id="boundary" inkscape:connector-curvature="0" />
	<path style="fill:none;stroke:red;stroke-width:1px;stroke-linecap:butt;stroke-linejoin:miter;stroke-opacity:1" d="M 964.244,784.293 949.122,784.293 z" id="boundary" inkscape:connector-curvature="0" />
	<path style="fill:none;stroke:red;stroke-width:1px;stroke-linecap:butt;stroke-linejoin:miter;stroke-opacity:1" d="M 934,784.293 918.878,779.756 z" id="boundary" inkscape:connector-curvature="0" />
	<circle cx="4" cy="174.878" r="4" fill="#0" id="circle0"/>
	<circle cx="13.0732" cy="186.976" r="4" fill="#0" id="circle1"/>
	<circle cx="16.0976" cy="162.78" r="4" fill="#0" id="circle2"/>
	<circle cx="28.1951" cy="186.976" r="4" fill="#0" id="circle3"/>
	<circle cx="29.7073" cy="155.22" r="4" fill="#0" id="circle4"/>
	<circle cx="43.3171" cy="186.976" r="4" fill="#0" id="circle5"/>
	<circle cx="44.8293" cy="149.171" r="4" fill="#0" id="circle6"/>
	<circle cx="58.439" cy="186.976" r="4" fill="#0" id="circle7"/>
	<circle cx="59.9512" cy="147.659" r="4" fill="#0" id="circle8"/>
	<circle cx="73.561" cy="140.098" r="4" fill="#0" id="circle9"/>
	<circle cx="73.561" cy="186.976" r="4" fill="#0" id="circle10"/>
	<circle cx="87.1707" cy="194.537" r="4" fill="#0" id="circle11"/>
	<circle cx="88.6829" cy="140.098" r="4" fill="#0" id="circle12"/>
	<circle cx="102.293" cy="121.951" r="4" fill="#0" id="circle13"/>
	<circle cx="102.293" cy="194.537" r="4" fill="#0" id="circle14"/>
	<circle cx="109.854" cy="106.829" r="4" fill="#0" id="circle15"/>
	<circle cx="115.902" cy="202.098" r="4" fill="#0" id="circle16"/>
	<circle cx="121.951" cy="94.7317" r="4" fill="#0" id="circle17"/>
	<circle cx="124.976" cy="214.195" r="4" fill="#0" id="circle18"/>
	<circle cx="132.537" cy="227.805" r="4" fill="#0" id="circle19"/>
	<circle cx="134.049" cy="82.6341" r="4" fill="#0" id="circle20"/>
	<circle cx="144.634" cy="238.39" r="4" fill="#0" id="circle21"/>
	<circle cx="147.659" cy="253.512" r="4" fill="#0" id="circle22"/>
	<circle cx="149.171" cy="75.0732" r="4" fill="#0" id="circle23"/>
	<circle cx="155.22" cy="267.122" r="4" fill="#0" id="circle24"/>
	<circle cx="155.22" cy="282.244" r="4" fill="#0" id="circle25"/>
	<circle cx="156.732" cy="297.366" r="4" fill="#0" id="circle26"/>
	<circle cx="162.78" cy="312.488" r="4" fill="#0" id="circle27"/>
	<circle cx="164.293" cy="67.5122" r="4" fill="#0" id="circle28"/>
	<circle cx="164.293" cy="327.61" r="4" fill="#0" id="circle29"/>
	<circle cx="170.341" cy="342.732" r="4" fill="#0" id="circle30"/>
	<circle cx="170.341" cy="357.854" r="4" fill="#0" id="circle31"/>
	<circle cx="176.39" cy="56.9268" r="4" fill="#0" id="circle32"/>
	<circle cx="177.902" cy="371.463" r="4" fill="#0" id="circle33"/>
	<circle cx="177.902" cy="386.585" r="4" fill="#0" id="circle34"/>
	<circle cx="185.463" cy="400.195" r="4" fill="#0" id="circle35"/>
	<circle cx="185.463" cy="689.024" r="4" fill="#0" id="circle36"/>
	<circle cx="191.512" cy="56.9268" r="4" fill="#0" id="circle37"/>
	<circle cx="193.024" cy="413.805" r="4" fill="#0" id="circle38"/>
	<circle cx="197.561" cy="699.61" r="4" fill="#0" id="circle39"/>
	<circle cx="200.585" cy="427.415" r="4" fill="#0" id="circle40"/>
	<circle cx="200.585" cy="681.463" r="4" fill="#0" id="circle41"/>
	<circle cx="205.122" cy="49.3659" r="4" fill="#0" id="circle42"/>
	<circle cx="209.659" cy="439.512" r="4" fill="#0" id="circle43"/>
	<circle cx="211.171" cy="707.171" r="4" fill="#0" id="circle44"/>
	<circle cx="215.707" cy="676.927" r="4" fill="#0" id="circle45"/>
	<circle cx="220.244" cy="49.3659" r="4" fill="#0" id="circle46"/>
	<circle cx="220.244" cy="451.61" r="4" fill="#0" id="circle47"/>
	<circle cx="226.293" cy="708.683" r="4" fill="#0" id="circle48"/>
	<circle cx="229.317" cy="669.366" r="4" fill="#0" id="circle49"/>
	<circle cx="230.829" cy="463.707" r="4" fill="#0" id="circle50"/>
	<circle cx="233.854" cy="41.8049" r="4" fill="#0" id="circle51"/>
	<circle cx="238.39" cy="477.317" r="4" fill="#0" id="circle52"/>
	<circle cx="239.902" cy="657.268" r="4" fill="#0" id="circle53"/>
	<circle cx="239.902" cy="701.122" r="4" fill="#0" id="circle54"/>
	<circle cx="245.951" cy="490.927" r="4" fill="#0" id="circle55"/>
	<circle cx="247.463" cy="34.2439" r="4" fill="#0" id="circle56"/>
	<circle cx="247.463" cy="686" r="4" fill="#0" id="circle57"/>
	<circle cx="252" cy="646.683" r="4" fill="#0" id="circle58"/>
	<circle cx="253.512" cy="504.537" r="4" fill="#0" id="circle59"/>
	<circle cx="255.024" cy="670.878" r="4" fill="#0" id="circle60"/>
	<circle cx="261.073" cy="26.6829" r="4" fill="#0" id="circle61"/>
	<circle cx="265.61" cy="639.122" r="4" fill="#0" id="circle62"/>
	<circle cx="267.122" cy="512.098" r="4" fill="#0" id="circle63"/>
	<circle cx="268.634" cy="663.317" r="4" fill="#0" id="circle64"/>
	<circle cx="273.171" cy="527.22" r="4" fill="#0" id="circle65"/>
	<circle cx="276.195" cy="23.6585" r="4" fill="#0" id="circle66"/>
	<circle cx="280.732" cy="631.561" r="4" fill="#0" id="circle67"/>
	<circle cx="280.732" cy="654.244" r="4" fill="#0" id="circle68"/>
	<circle cx="285.268" cy="88.6829" r="4" fill="#0" id="circle69"/>
	<circle cx="285.268" cy="537.805" r="4" fill="#0" id="circle70"/>
	<circle cx="288.293" cy="103.805" r="4" fill="#0" id="circle71"/>
	<circle cx="291.317" cy="16.0976" r="4" fill="#0" id="circle72"/>
	<circle cx="292.829" cy="73.561" r="4" fill="#0" id="circle73"/>
	<circle cx="294.341" cy="624" r="4" fill="#0" id="circle74"/>
	<circle cx="295.854" cy="117.415" r="4" fill="#0" id="circle75"/>
	<circle cx="295.854" cy="646.683" r="4" fill="#0" id="circle76"/>
	<circle cx="300.39" cy="132.537" r="4" fill="#0" id="circle77"/>
	<circle cx="300.39" cy="542.341" r="4" fill="#0" id="circle78"/>
	<circle cx="304.927" cy="62.9756" r="4" fill="#0" id="circle79"/>
	<circle cx="306.439" cy="8.53659" r="4" fill="#0" id="circle80"/>
	<circle cx="306.439" cy="613.415" r="4" fill="#0" id="circle81"/>
	<circle cx="307.951" cy="146.146" r="4" fill="#0" id="circle82"/>
	<circle cx="307.951" cy="161.268" r="4" fill="#0" id="circle83"/>
	<circle cx="307.951" cy="633.073" r="4" fill="#0" id="circle84"/>
	<circle cx="312.488" cy="47.8537" r="4" fill="#0" id="circle85"/>
	<circle cx="314" cy="549.902" r="4" fill="#0" id="circle86"/>
	<circle cx="320.049" cy="32.7317" r="4" fill="#0" id="circle87"/>
	<circle cx="320.049" cy="171.854" r="4" fill="#0" id="circle88"/>
	<circle cx="321.561" cy="4" r="4" fill="#0" id="circle89"/>
	<circle cx="321.561" cy="608.878" r="4" fill="#0" id="circle90"/>
	<circle cx="323.073" cy="625.512" r="4" fill="#0" id="circle91"/>
	<circle cx="327.61" cy="557.463" r="4" fill="#0" id="circle92"/>
	<circle cx="330.634" cy="16.0976" r="4" fill="#0" id="circle93"/>
	<circle cx="330.634" cy="183.951" r="4" fill="#0" id="circle94"/>
	<circle cx="335.171" cy="601.317" r="4" fill="#0" id="circle95"/>
	<circle cx="335.171" cy="616.439" r="4" fill="#0" id="circle96"/>
	<circle cx="338.195" cy="569.561" r="4" fill="#0" id="circle97"/>
	<circle cx="342.732" cy="193.024" r="4" fill="#0" id="circle98"/>
	<circle cx="344.244" cy="584.683" r="4" fill="#0" id="circle99"/>
	<circle cx="350.293" cy="610.39" r="4" fill="#0" id="circle100"/>
	<circle cx="351.805" cy="696.585" r="4" fill="#0" id="circle101"/>
	<circle cx="351.805" cy="711.707" r="4" fill="#0" id="circle102"/>
	<circle cx="357.854" cy="194.537" r="4" fill="#0" id="circle103"/>
	<circle cx="363.902" cy="602.829" r="4" fill="#0" id="circle104"/>
	<circle cx="363.902" cy="684.488" r="4" fill="#0" id="circle105"/>
	<circle cx="363.902" cy="722.293" r="4" fill="#0" id="circle106"/>
	<circle cx="371.463" cy="202.098" r="4" fill="#0" id="circle107"/>
	<circle cx="374.488" cy="658.78" r="4" fill="#0" id="circle108"/>
	<circle cx="376" cy="587.707" r="4" fill="#0" id="circle109"/>
	<circle cx="379.024" cy="723.805" r="4" fill="#0" id="circle110"/>
	<circle cx="382.049" cy="643.659" r="4" fill="#0" id="circle111"/>
	<circle cx="383.561" cy="212.683" r="4" fill="#0" id="circle112"/>
	<circle cx="383.561" cy="670.878" r="4" fill="#0" id="circle113"/>
	<circle cx="386.585" cy="686" r="4" fill="#0" id="circle114"/>
	<circle cx="391.122" cy="587.707" r="4" fill="#0" id="circle115"/>
	<circle cx="394.146" cy="631.561" r="4" fill="#0" id="circle116"/>
	<circle cx="394.146" cy="722.293" r="4" fill="#0" id="circle117"/>
	<circle cx="395.659" cy="660.293" r="4" fill="#0" id="circle118"/>
	<circle cx="397.171" cy="220.244" r="4" fill="#0" id="circle119"/>
	<circle cx="401.707" cy="692.049" r="4" fill="#0" id="circle120"/>
	<circle cx="404.732" cy="580.146" r="4" fill="#0" id="circle121"/>
	<circle cx="404.732" cy="613.415" r="4" fill="#0" id="circle122"/>
	<circle cx="406.244" cy="640.634" r="4" fill="#0" id="circle123"/>
	<circle cx="406.244" cy="707.171" r="4" fill="#0" id="circle124"/>
	<circle cx="409.268" cy="230.829" r="4" fill="#0" id="circle125"/>
	<circle cx="412.293" cy="593.756" r="4" fill="#0" id="circle126"/>
	<circle cx="413.805" cy="625.512" r="4" fill="#0" id="circle127"/>
	<circle cx="421.366" cy="610.39" r="4" fill="#0" id="circle128"/>
	<circle cx="422.878" cy="238.39" r="4" fill="#0" id="circle129"/>
	<circle cx="436.488" cy="245.951" r="4" fill="#0" id="circle130"/>
	<circle cx="436.488" cy="595.268" r="4" fill="#0" id="circle131"/>
	<circle cx="448.585" cy="255.024" r="4" fill="#0" id="circle132"/>
	<circle cx="450.098" cy="587.707" r="4" fill="#0" id="circle133"/>
	<circle cx="462.195" cy="262.585" r="4" fill="#0" id="circle134"/>
	<circle cx="465.22" cy="587.707" r="4" fill="#0" id="circle135"/>
	<circle cx="477.317" cy="268.634" r="4" fill="#0" id="circle136"/>
	<circle cx="480.341" cy="587.707" r="4" fill="#0" id="circle137"/>
	<circle cx="490.927" cy="276.195" r="4" fill="#0" id="circle138"/>
	<circle cx="493.951" cy="580.146" r="4" fill="#0" id="circle139"/>
	<circle cx="503.024" cy="286.78" r="4" fill="#0" id="circle140"/>
	<circle cx="509.073" cy="577.122" r="4" fill="#0" id="circle141"/>
	<circle cx="512.098" cy="298.878" r="4" fill="#0" id="circle142"/>
	<circle cx="524.195" cy="307.951" r="4" fill="#0" id="circle143"/>
	<circle cx="524.195" cy="572.585" r="4" fill="#0" id="circle144"/>
	<circle cx="537.805" cy="315.512" r="4" fill="#0" id="circle145"/>
	<circle cx="539.317" cy="572.585" r="4" fill="#0" id="circle146"/>
	<circle cx="545.366" cy="329.122" r="4" fill="#0" id="circle147"/>
	<circle cx="554.439" cy="572.585" r="4" fill="#0" id="circle148"/>
	<circle cx="558.976" cy="336.683" r="4" fill="#0" id="circle149"/>
	<circle cx="569.561" cy="572.585" r="4" fill="#0" id="circle150"/>
	<circle cx="572.585" cy="344.244" r="4" fill="#0" id="circle151"/>
	<circle cx="580.146" cy="357.854" r="4" fill="#0" id="circle152"/>
	<circle cx="583.171" cy="565.024" r="4" fill="#0" id="circle153"/>
	<circle cx="592.244" cy="368.439" r="4" fill="#0" id="circle154"/>
	<circle cx="596.78" cy="557.463" r="4" fill="#0" id="circle155"/>
	<circle cx="602.829" cy="380.537" r="4" fill="#0" id="circle156"/>
	<circle cx="611.902" cy="557.463" r="4" fill="#0" id="circle157"/>
	<circle cx="614.927" cy="389.61" r="4" fill="#0" id="circle158"/>
	<circle cx="627.024" cy="562" r="4" fill="#0" id="circle159"/>
	<circle cx="628.537" cy="397.171" r="4" fill="#0" id="circle160"/>
	<circle cx="642.146" cy="404.732" r="4" fill="#0" id="circle161"/>
	<circle cx="642.146" cy="565.024" r="4" fill="#0" id="circle162"/>
	<circle cx="648.195" cy="419.854" r="4" fill="#0" id="circle163"/>
	<circle cx="649.707" cy="578.634" r="4" fill="#0" id="circle164"/>
	<circle cx="660.293" cy="428.927" r="4" fill="#0" id="circle165"/>
	<circle cx="664.829" cy="584.683" r="4" fill="#0" id="circle166"/>
	<circle cx="670.878" cy="441.024" r="4" fill="#0" id="circle167"/>
	<circle cx="676.927" cy="595.268" r="4" fill="#0" id="circle168"/>
	<circle cx="682.976" cy="451.61" r="4" fill="#0" id="circle169"/>
	<circle cx="686" cy="607.366" r="4" fill="#0" id="circle170"/>
	<circle cx="693.561" cy="463.707" r="4" fill="#0" id="circle171"/>
	<circle cx="701.122" cy="613.415" r="4" fill="#0" id="circle172"/>
	<circle cx="705.659" cy="474.293" r="4" fill="#0" id="circle173"/>
	<circle cx="714.732" cy="620.976" r="4" fill="#0" id="circle174"/>
	<circle cx="716.244" cy="486.39" r="4" fill="#0" id="circle175"/>
	<circle cx="722.293" cy="634.585" r="4" fill="#0" id="circle176"/>
	<circle cx="723.805" cy="500" r="4" fill="#0" id="circle177"/>
	<circle cx="735.902" cy="510.585" r="4" fill="#0" id="circle178"/>
	<circle cx="737.415" cy="640.634" r="4" fill="#0" id="circle179"/>
	<circle cx="741.951" cy="655.756" r="4" fill="#0" id="circle180"/>
	<circle cx="749.512" cy="518.146" r="4" fill="#0" id="circle181"/>
	<circle cx="754.049" cy="666.341" r="4" fill="#0" id="circle182"/>
	<circle cx="760.098" cy="530.244" r="4" fill="#0" id="circle183"/>
	<circle cx="767.659" cy="673.902" r="4" fill="#0" id="circle184"/>
	<circle cx="775.22" cy="536.293" r="4" fill="#0" id="circle185"/>
	<circle cx="782.78" cy="678.439" r="4" fill="#0" id="circle186"/>
	<circle cx="784.293" cy="548.39" r="4" fill="#0" id="circle187"/>
	<circle cx="791.854" cy="690.537" r="4" fill="#0" id="circle188"/>
	<circle cx="799.415" cy="552.927" r="4" fill="#0" id="circle189"/>
	<circle cx="803.951" cy="701.122" r="4" fill="#0" id="circle190"/>
	<circle cx="813.024" cy="560.488" r="4" fill="#0" id="circle191"/>
	<circle cx="814.537" cy="713.22" r="4" fill="#0" id="circle192"/>
	<circle cx="825.122" cy="571.073" r="4" fill="#0" id="circle193"/>
	<circle cx="826.634" cy="723.805" r="4" fill="#0" id="circle194"/>
	<circle cx="837.22" cy="735.902" r="4" fill="#0" id="circle195"/>
	<circle cx="838.732" cy="578.634" r="4" fill="#0" id="circle196"/>
	<circle cx="850.829" cy="589.22" r="4" fill="#0" id="circle197"/>
	<circle cx="852.341" cy="741.951" r="4" fill="#0" id="circle198"/>
	<circle cx="859.902" cy="601.317" r="4" fill="#0" id="circle199"/>
	<circle cx="865.951" cy="749.512" r="4" fill="#0" id="circle200"/>
	<circle cx="875.024" cy="605.854" r="4" fill="#0" id="circle201"/>
	<circle cx="881.073" cy="754.049" r="4" fill="#0" id="circle202"/>
	<circle cx="890.146" cy="608.878" r="4" fill="#0" id="circle203"/>
	<circle cx="890.146" cy="766.146" r="4" fill="#0" id="circle204"/>
	<circle cx="902.244" cy="617.951" r="4" fill="#0" id="circle205"/>
	<circle cx="905.268" cy="772.195" r="4" fill="#0" id="circle206"/>
	<circle cx="915.854" cy="625.512" r="4" fill="#0" id="circle207"/>
	<circle cx="918.878" cy="779.756" r="4" fill="#0" id="circle208"/>
	<circle cx="923.415" cy="639.122" r="4" fill="#0" id="circle209"/>
	<circle cx="934" cy="784.293" r="4" fill="#0" id="circle210"/>
	<circle cx="937.024" cy="646.683" r="4" fill="#0" id="circle211"/>
	<circle cx="949.122" cy="784.293" r="4" fill="#0" id="circle212"/>
	<circle cx="950.634" cy="654.244" r="4" fill="#0" id="circle213"/>
	<circle cx="958.195" cy="667.854" r="4" fill="#0" id="circle214"/>
	<circle cx="964.244" cy="784.293" r="4" fill="#0" id="circle215"/>
	<circle cx="973.317" cy="673.902" r="4" fill="#0" id="circle216"/>
	<circle cx="973.317" cy="769.171" r="4" fill="#0" id="circle217"/>
	<circle cx="986.927" cy="681.463" r="4" fill="#0" id="circle218"/>
	<circle cx="988.439" cy="746.488" r="4" fill="#0" id="circle219"/>
	<circle cx="988.439" cy="761.61" r="4" fill="#0" id="circle220"/>
	<circle cx="994.488" cy="695.073" r="4" fill="#0" id="circle221"/>
	<circle cx="996" cy="710.195" r="4" fill="#0" id="circle222"/>
	<circle cx="996" cy="725.317" r="4" fill="#0" id="circle223"/>
	</g>
</svg>