<?xml version="1.0" encoding="UTF-8" standalone="no"?>
<!-- Created with CurveBenchmark -->
<svg
	xmlns:dc="http://purl.org/dc/elements/1.1/"
	xmlns:cc="http://creativecommons.org/ns#"
	xmlns:rdf="http://www.w3.org/1999/02/22-rdf-syntax-ns#"
	xmlns:svg="http://www.w3.org/2000/svg"
	xmlns="http://www.w3.org/2000/svg"
	xmlns:sodipodi="http://sodipodi.sourceforge.net/DTD/sodipodi-0.dtd"
	xmlns:inkscape="http://www.inkscape.org/namespaces/inkscape"
	width="1000"
	height="1000"
	id="svg2"
	version="1.1"
	sodipodi:docname="manifold/ccrust-children02.png.txt">
<defs
	id="defs4" />
<metadata
	id="metadata7">
	<rdf:RDF>
		<cc:Work
			rdf:about="">
			<dc:format>image/svg+xml</dc:format>
			<dc:type
				rdf:resource="http://purl.org/dc/dcmitype/StillImage" />
			<dc:title></dc:title>
		</cc:Work>
	</rdf:RDF>
</metadata>
<g
	inkscape:label="Layer 1"
	inkscape:groupmode="layer"
	id="layer1">
	<path style="fill:none;stroke:red;stroke-width:1px;stroke-linecap:butt;stroke-linejoin:miter;stroke-opacity:1" d="M 20.5058,83.228 20.5058,99.7338 z" id="boundary" inkscape:connector-curvature="0" />
	<path style="fill:none;stroke:red;stroke-width:1px;stroke-linecap:butt;stroke-linejoin:miter;stroke-opacity:1" d="M 20.5058,83.228 28.7587,66.7221 z" id="boundary" inkscape:connector-curvature="0" />
	<path style="fill:none;stroke:red;stroke-width:1px;stroke-linecap:butt;stroke-linejoin:miter;stroke-opacity:1" d="M 4,297.804 17.2047,284.599 z" id="boundary" inkscape:connector-curvature="0" />
	<path style="fill:none;stroke:red;stroke-width:1px;stroke-linecap:butt;stroke-linejoin:miter;stroke-opacity:1" d="M 4,314.309 4,297.804 z" id="boundary" inkscape:connector-curvature="0" />
	<path style="fill:none;stroke:red;stroke-width:1px;stroke-linecap:butt;stroke-linejoin:miter;stroke-opacity:1" d="M 28.7587,264.792 17.2047,284.599 z" id="boundary" inkscape:connector-curvature="0" />
	<path style="fill:none;stroke:red;stroke-width:1px;stroke-linecap:butt;stroke-linejoin:miter;stroke-opacity:1" d="M 20.5058,99.7338 20.5058,116.24 z" id="boundary" inkscape:connector-curvature="0" />
	<path style="fill:none;stroke:red;stroke-width:1px;stroke-linecap:butt;stroke-linejoin:miter;stroke-opacity:1" d="M 40.3128,160.805 28.7587,147.601 z" id="boundary" inkscape:connector-curvature="0" />
	<path style="fill:none;stroke:red;stroke-width:1px;stroke-linecap:butt;stroke-linejoin:miter;stroke-opacity:1" d="M 20.5058,132.745 28.7587,147.601 z" id="boundary" inkscape:connector-curvature="0" />
	<path style="fill:none;stroke:red;stroke-width:1px;stroke-linecap:butt;stroke-linejoin:miter;stroke-opacity:1" d="M 20.5058,132.745 20.5058,116.24 z" id="boundary" inkscape:connector-curvature="0" />
	<path style="fill:none;stroke:red;stroke-width:1px;stroke-linecap:butt;stroke-linejoin:miter;stroke-opacity:1" d="M 4,330.815 4,314.309 z" id="boundary" inkscape:connector-curvature="0" />
	<path style="fill:none;stroke:red;stroke-width:1px;stroke-linecap:butt;stroke-linejoin:miter;stroke-opacity:1" d="M 4,363.827 4,347.321 z" id="boundary" inkscape:connector-curvature="0" />
	<path style="fill:none;stroke:red;stroke-width:1px;stroke-linecap:butt;stroke-linejoin:miter;stroke-opacity:1" d="M 12.2529,378.682 4,363.827 z" id="boundary" inkscape:connector-curvature="0" />
	<path style="fill:none;stroke:red;stroke-width:1px;stroke-linecap:butt;stroke-linejoin:miter;stroke-opacity:1" d="M 4,347.321 4,330.815 z" id="boundary" inkscape:connector-curvature="0" />
	<path style="fill:none;stroke:red;stroke-width:1px;stroke-linecap:butt;stroke-linejoin:miter;stroke-opacity:1" d="M 12.2529,378.682 12.2529,395.188 z" id="boundary" inkscape:connector-curvature="0" />
	<path style="fill:none;stroke:red;stroke-width:1px;stroke-linecap:butt;stroke-linejoin:miter;stroke-opacity:1" d="M 12.2529,411.694 12.2529,428.2 z" id="boundary" inkscape:connector-curvature="0" />
	<path style="fill:none;stroke:red;stroke-width:1px;stroke-linecap:butt;stroke-linejoin:miter;stroke-opacity:1" d="M 12.2529,444.705 12.2529,428.2 z" id="boundary" inkscape:connector-curvature="0" />
	<path style="fill:none;stroke:red;stroke-width:1px;stroke-linecap:butt;stroke-linejoin:miter;stroke-opacity:1" d="M 12.2529,411.694 12.2529,395.188 z" id="boundary" inkscape:connector-curvature="0" />
	<path style="fill:none;stroke:red;stroke-width:1px;stroke-linecap:butt;stroke-linejoin:miter;stroke-opacity:1" d="M 12.2529,444.705 12.2529,461.211 z" id="boundary" inkscape:connector-curvature="0" />
	<path style="fill:none;stroke:red;stroke-width:1px;stroke-linecap:butt;stroke-linejoin:miter;stroke-opacity:1" d="M 63.421,23.807 76.6256,12.2529 z" id="boundary" inkscape:connector-curvature="0" />
	<path style="fill:none;stroke:red;stroke-width:1px;stroke-linecap:butt;stroke-linejoin:miter;stroke-opacity:1" d="M 50.2163,37.0116 63.421,23.807 z" id="boundary" inkscape:connector-curvature="0" />
	<path style="fill:none;stroke:red;stroke-width:1px;stroke-linecap:butt;stroke-linejoin:miter;stroke-opacity:1" d="M 76.6256,12.2529 91.4809,4 z" id="boundary" inkscape:connector-curvature="0" />
	<path style="fill:none;stroke:red;stroke-width:1px;stroke-linecap:butt;stroke-linejoin:miter;stroke-opacity:1" d="M 91.4809,4 107.987,4 z" id="boundary" inkscape:connector-curvature="0" />
	<path style="fill:none;stroke:red;stroke-width:1px;stroke-linecap:butt;stroke-linejoin:miter;stroke-opacity:1" d="M 140.998,4 157.504,4 z" id="boundary" inkscape:connector-curvature="0" />
	<path style="fill:none;stroke:red;stroke-width:1px;stroke-linecap:butt;stroke-linejoin:miter;stroke-opacity:1" d="M 157.504,4 172.359,12.2529 z" id="boundary" inkscape:connector-curvature="0" />
	<path style="fill:none;stroke:red;stroke-width:1px;stroke-linecap:butt;stroke-linejoin:miter;stroke-opacity:1" d="M 188.865,12.2529 172.359,12.2529 z" id="boundary" inkscape:connector-curvature="0" />
	<path style="fill:none;stroke:red;stroke-width:1px;stroke-linecap:butt;stroke-linejoin:miter;stroke-opacity:1" d="M 124.493,4 140.998,4 z" id="boundary" inkscape:connector-curvature="0" />
	<path style="fill:none;stroke:red;stroke-width:1px;stroke-linecap:butt;stroke-linejoin:miter;stroke-opacity:1" d="M 107.987,4 124.493,4 z" id="boundary" inkscape:connector-curvature="0" />
	<path style="fill:none;stroke:red;stroke-width:1px;stroke-linecap:butt;stroke-linejoin:miter;stroke-opacity:1" d="M 40.3128,160.805 53.5175,170.709 z" id="boundary" inkscape:connector-curvature="0" />
	<path style="fill:none;stroke:red;stroke-width:1px;stroke-linecap:butt;stroke-linejoin:miter;stroke-opacity:1" d="M 28.7587,264.792 45.2646,256.539 z" id="boundary" inkscape:connector-curvature="0" />
	<path style="fill:none;stroke:red;stroke-width:1px;stroke-linecap:butt;stroke-linejoin:miter;stroke-opacity:1" d="M 37.0116,50.2163 50.2163,37.0116 z" id="boundary" inkscape:connector-curvature="0" />
	<path style="fill:none;stroke:red;stroke-width:1px;stroke-linecap:butt;stroke-linejoin:miter;stroke-opacity:1" d="M 28.7587,66.7221 37.0116,50.2163 z" id="boundary" inkscape:connector-curvature="0" />
	<path style="fill:none;stroke:red;stroke-width:1px;stroke-linecap:butt;stroke-linejoin:miter;stroke-opacity:1" d="M 61.7704,240.033 45.2646,256.539 z" id="boundary" inkscape:connector-curvature="0" />
	<path style="fill:none;stroke:red;stroke-width:1px;stroke-linecap:butt;stroke-linejoin:miter;stroke-opacity:1" d="M 70.0233,216.925 61.7704,240.033 z" id="boundary" inkscape:connector-curvature="0" />
	<path style="fill:none;stroke:red;stroke-width:1px;stroke-linecap:butt;stroke-linejoin:miter;stroke-opacity:1" d="M 63.421,183.913 70.0233,200.419 z" id="boundary" inkscape:connector-curvature="0" />
	<path style="fill:none;stroke:red;stroke-width:1px;stroke-linecap:butt;stroke-linejoin:miter;stroke-opacity:1" d="M 70.0233,200.419 70.0233,216.925 z" id="boundary" inkscape:connector-curvature="0" />
	<path style="fill:none;stroke:red;stroke-width:1px;stroke-linecap:butt;stroke-linejoin:miter;stroke-opacity:1" d="M 63.421,183.913 53.5175,170.709 z" id="boundary" inkscape:connector-curvature="0" />
	<path style="fill:none;stroke:red;stroke-width:1px;stroke-linecap:butt;stroke-linejoin:miter;stroke-opacity:1" d="M 12.2529,461.211 12.2529,477.717 z" id="boundary" inkscape:connector-curvature="0" />
	<path style="fill:none;stroke:red;stroke-width:1px;stroke-linecap:butt;stroke-linejoin:miter;stroke-opacity:1" d="M 20.5058,492.572 12.2529,477.717 z" id="boundary" inkscape:connector-curvature="0" />
	<path style="fill:none;stroke:red;stroke-width:1px;stroke-linecap:butt;stroke-linejoin:miter;stroke-opacity:1" d="M 20.5058,492.572 25.4576,509.078 z" id="boundary" inkscape:connector-curvature="0" />
	<path style="fill:none;stroke:red;stroke-width:1px;stroke-linecap:butt;stroke-linejoin:miter;stroke-opacity:1" d="M 33.7105,523.933 25.4576,509.078 z" id="boundary" inkscape:connector-curvature="0" />
	<path style="fill:none;stroke:red;stroke-width:1px;stroke-linecap:butt;stroke-linejoin:miter;stroke-opacity:1" d="M 37.0116,540.439 37.0116,556.945 z" id="boundary" inkscape:connector-curvature="0" />
	<path style="fill:none;stroke:red;stroke-width:1px;stroke-linecap:butt;stroke-linejoin:miter;stroke-opacity:1" d="M 94.782,710.449 86.5291,695.594 z" id="boundary" inkscape:connector-curvature="0" />
	<path style="fill:none;stroke:red;stroke-width:1px;stroke-linecap:butt;stroke-linejoin:miter;stroke-opacity:1" d="M 37.0116,556.945 37.0116,573.451 z" id="boundary" inkscape:connector-curvature="0" />
	<path style="fill:none;stroke:red;stroke-width:1px;stroke-linecap:butt;stroke-linejoin:miter;stroke-opacity:1" d="M 40.3128,589.957 37.0116,573.451 z" id="boundary" inkscape:connector-curvature="0" />
	<path style="fill:none;stroke:red;stroke-width:1px;stroke-linecap:butt;stroke-linejoin:miter;stroke-opacity:1" d="M 33.7105,523.933 37.0116,540.439 z" id="boundary" inkscape:connector-curvature="0" />
	<path style="fill:none;stroke:red;stroke-width:1px;stroke-linecap:butt;stroke-linejoin:miter;stroke-opacity:1" d="M 40.3128,589.957 45.2646,606.463 z" id="boundary" inkscape:connector-curvature="0" />
	<path style="fill:none;stroke:red;stroke-width:1px;stroke-linecap:butt;stroke-linejoin:miter;stroke-opacity:1" d="M 45.2646,606.463 45.2646,622.968 z" id="boundary" inkscape:connector-curvature="0" />
	<path style="fill:none;stroke:red;stroke-width:1px;stroke-linecap:butt;stroke-linejoin:miter;stroke-opacity:1" d="M 45.2646,622.968 48.5657,639.474 z" id="boundary" inkscape:connector-curvature="0" />
	<path style="fill:none;stroke:red;stroke-width:1px;stroke-linecap:butt;stroke-linejoin:miter;stroke-opacity:1" d="M 56.8186,654.329 48.5657,639.474 z" id="boundary" inkscape:connector-curvature="0" />
	<path style="fill:none;stroke:red;stroke-width:1px;stroke-linecap:butt;stroke-linejoin:miter;stroke-opacity:1" d="M 63.421,670.835 56.8186,654.329 z" id="boundary" inkscape:connector-curvature="0" />
	<path style="fill:none;stroke:red;stroke-width:1px;stroke-linecap:butt;stroke-linejoin:miter;stroke-opacity:1" d="M 76.6256,682.389 63.421,670.835 z" id="boundary" inkscape:connector-curvature="0" />
	<path style="fill:none;stroke:red;stroke-width:1px;stroke-linecap:butt;stroke-linejoin:miter;stroke-opacity:1" d="M 76.6256,682.389 86.5291,695.594 z" id="boundary" inkscape:connector-curvature="0" />
	<path style="fill:none;stroke:red;stroke-width:1px;stroke-linecap:butt;stroke-linejoin:miter;stroke-opacity:1" d="M 86.5291,792.978 86.5291,809.484 z" id="boundary" inkscape:connector-curvature="0" />
	<path style="fill:none;stroke:red;stroke-width:1px;stroke-linecap:butt;stroke-linejoin:miter;stroke-opacity:1" d="M 86.5291,825.99 86.5291,842.496 z" id="boundary" inkscape:connector-curvature="0" />
	<path style="fill:none;stroke:red;stroke-width:1px;stroke-linecap:butt;stroke-linejoin:miter;stroke-opacity:1" d="M 94.782,857.351 86.5291,842.496 z" id="boundary" inkscape:connector-curvature="0" />
	<path style="fill:none;stroke:red;stroke-width:1px;stroke-linecap:butt;stroke-linejoin:miter;stroke-opacity:1" d="M 94.782,751.714 94.782,768.22 z" id="boundary" inkscape:connector-curvature="0" />
	<path style="fill:none;stroke:red;stroke-width:1px;stroke-linecap:butt;stroke-linejoin:miter;stroke-opacity:1" d="M 94.782,768.22 86.5291,792.978 z" id="boundary" inkscape:connector-curvature="0" />
	<path style="fill:none;stroke:red;stroke-width:1px;stroke-linecap:butt;stroke-linejoin:miter;stroke-opacity:1" d="M 86.5291,809.484 86.5291,825.99 z" id="boundary" inkscape:connector-curvature="0" />
	<path style="fill:none;stroke:red;stroke-width:1px;stroke-linecap:butt;stroke-linejoin:miter;stroke-opacity:1" d="M 94.782,751.714 103.035,725.304 z" id="boundary" inkscape:connector-curvature="0" />
	<path style="fill:none;stroke:red;stroke-width:1px;stroke-linecap:butt;stroke-linejoin:miter;stroke-opacity:1" d="M 94.782,710.449 103.035,725.304 z" id="boundary" inkscape:connector-curvature="0" />
	<path style="fill:none;stroke:red;stroke-width:1px;stroke-linecap:butt;stroke-linejoin:miter;stroke-opacity:1" d="M 103.035,888.712 94.782,873.857 z" id="boundary" inkscape:connector-curvature="0" />
	<path style="fill:none;stroke:red;stroke-width:1px;stroke-linecap:butt;stroke-linejoin:miter;stroke-opacity:1" d="M 94.782,873.857 94.782,857.351 z" id="boundary" inkscape:connector-curvature="0" />
	<path style="fill:none;stroke:red;stroke-width:1px;stroke-linecap:butt;stroke-linejoin:miter;stroke-opacity:1" d="M 103.035,905.218 94.782,933.278 z" id="boundary" inkscape:connector-curvature="0" />
	<path style="fill:none;stroke:red;stroke-width:1px;stroke-linecap:butt;stroke-linejoin:miter;stroke-opacity:1" d="M 94.782,933.278 94.782,949.784 z" id="boundary" inkscape:connector-curvature="0" />
	<path style="fill:none;stroke:red;stroke-width:1px;stroke-linecap:butt;stroke-linejoin:miter;stroke-opacity:1" d="M 107.987,961.338 94.782,949.784 z" id="boundary" inkscape:connector-curvature="0" />
	<path style="fill:none;stroke:red;stroke-width:1px;stroke-linecap:butt;stroke-linejoin:miter;stroke-opacity:1" d="M 103.035,888.712 103.035,905.218 z" id="boundary" inkscape:connector-curvature="0" />
	<path style="fill:none;stroke:red;stroke-width:1px;stroke-linecap:butt;stroke-linejoin:miter;stroke-opacity:1" d="M 107.987,961.338 119.541,974.542 z" id="boundary" inkscape:connector-curvature="0" />
	<path style="fill:none;stroke:red;stroke-width:1px;stroke-linecap:butt;stroke-linejoin:miter;stroke-opacity:1" d="M 136.047,979.494 119.541,974.542 z" id="boundary" inkscape:connector-curvature="0" />
	<path style="fill:none;stroke:red;stroke-width:1px;stroke-linecap:butt;stroke-linejoin:miter;stroke-opacity:1" d="M 167.408,987.747 150.902,987.747 z" id="boundary" inkscape:connector-curvature="0" />
	<path style="fill:none;stroke:red;stroke-width:1px;stroke-linecap:butt;stroke-linejoin:miter;stroke-opacity:1" d="M 150.902,987.747 136.047,979.494 z" id="boundary" inkscape:connector-curvature="0" />
	<path style="fill:none;stroke:red;stroke-width:1px;stroke-linecap:butt;stroke-linejoin:miter;stroke-opacity:1" d="M 167.408,987.747 182.263,996 z" id="boundary" inkscape:connector-curvature="0" />
	<path style="fill:none;stroke:red;stroke-width:1px;stroke-linecap:butt;stroke-linejoin:miter;stroke-opacity:1" d="M 203.72,20.5058 188.865,12.2529 z" id="boundary" inkscape:connector-curvature="0" />
	<path style="fill:none;stroke:red;stroke-width:1px;stroke-linecap:butt;stroke-linejoin:miter;stroke-opacity:1" d="M 220.226,25.4576 203.72,20.5058 z" id="boundary" inkscape:connector-curvature="0" />
	<path style="fill:none;stroke:red;stroke-width:1px;stroke-linecap:butt;stroke-linejoin:miter;stroke-opacity:1" d="M 220.226,25.4576 231.78,38.6622 z" id="boundary" inkscape:connector-curvature="0" />
	<path style="fill:none;stroke:red;stroke-width:1px;stroke-linecap:butt;stroke-linejoin:miter;stroke-opacity:1" d="M 244.985,50.2163 231.78,38.6622 z" id="boundary" inkscape:connector-curvature="0" />
	<path style="fill:none;stroke:red;stroke-width:1px;stroke-linecap:butt;stroke-linejoin:miter;stroke-opacity:1" d="M 261.491,79.9268 261.491,96.4326 z" id="boundary" inkscape:connector-curvature="0" />
	<path style="fill:none;stroke:red;stroke-width:1px;stroke-linecap:butt;stroke-linejoin:miter;stroke-opacity:1" d="M 253.238,65.0715 261.491,79.9268 z" id="boundary" inkscape:connector-curvature="0" />
	<path style="fill:none;stroke:red;stroke-width:1px;stroke-linecap:butt;stroke-linejoin:miter;stroke-opacity:1" d="M 244.985,50.2163 253.238,65.0715 z" id="boundary" inkscape:connector-curvature="0" />
	<path style="fill:none;stroke:red;stroke-width:1px;stroke-linecap:butt;stroke-linejoin:miter;stroke-opacity:1" d="M 261.491,96.4326 261.491,112.938 z" id="boundary" inkscape:connector-curvature="0" />
	<path style="fill:none;stroke:red;stroke-width:1px;stroke-linecap:butt;stroke-linejoin:miter;stroke-opacity:1" d="M 261.491,258.19 253.238,243.334 z" id="boundary" inkscape:connector-curvature="0" />
	<path style="fill:none;stroke:red;stroke-width:1px;stroke-linecap:butt;stroke-linejoin:miter;stroke-opacity:1" d="M 253.238,211.973 244.985,228.479 z" id="boundary" inkscape:connector-curvature="0" />
	<path style="fill:none;stroke:red;stroke-width:1px;stroke-linecap:butt;stroke-linejoin:miter;stroke-opacity:1" d="M 253.238,243.334 244.985,228.479 z" id="boundary" inkscape:connector-curvature="0" />
	<path style="fill:none;stroke:red;stroke-width:1px;stroke-linecap:butt;stroke-linejoin:miter;stroke-opacity:1" d="M 261.491,129.444 261.491,145.95 z" id="boundary" inkscape:connector-curvature="0" />
	<path style="fill:none;stroke:red;stroke-width:1px;stroke-linecap:butt;stroke-linejoin:miter;stroke-opacity:1" d="M 261.491,112.938 261.491,129.444 z" id="boundary" inkscape:connector-curvature="0" />
	<path style="fill:none;stroke:red;stroke-width:1px;stroke-linecap:butt;stroke-linejoin:miter;stroke-opacity:1" d="M 269.744,160.805 261.491,145.95 z" id="boundary" inkscape:connector-curvature="0" />
	<path style="fill:none;stroke:red;stroke-width:1px;stroke-linecap:butt;stroke-linejoin:miter;stroke-opacity:1" d="M 253.238,211.973 261.491,187.215 z" id="boundary" inkscape:connector-curvature="0" />
	<path style="fill:none;stroke:red;stroke-width:1px;stroke-linecap:butt;stroke-linejoin:miter;stroke-opacity:1" d="M 269.744,160.805 261.491,187.215 z" id="boundary" inkscape:connector-curvature="0" />
	<path style="fill:none;stroke:red;stroke-width:1px;stroke-linecap:butt;stroke-linejoin:miter;stroke-opacity:1" d="M 274.696,269.744 261.491,258.19 z" id="boundary" inkscape:connector-curvature="0" />
	<path style="fill:none;stroke:red;stroke-width:1px;stroke-linecap:butt;stroke-linejoin:miter;stroke-opacity:1" d="M 277.997,286.25 274.696,269.744 z" id="boundary" inkscape:connector-curvature="0" />
	<path style="fill:none;stroke:red;stroke-width:1px;stroke-linecap:butt;stroke-linejoin:miter;stroke-opacity:1" d="M 286.25,301.105 277.997,286.25 z" id="boundary" inkscape:connector-curvature="0" />
	<path style="fill:none;stroke:red;stroke-width:1px;stroke-linecap:butt;stroke-linejoin:miter;stroke-opacity:1" d="M 286.25,301.105 286.25,317.611 z" id="boundary" inkscape:connector-curvature="0" />
	<path style="fill:none;stroke:red;stroke-width:1px;stroke-linecap:butt;stroke-linejoin:miter;stroke-opacity:1" d="M 286.25,317.611 286.25,334.116 z" id="boundary" inkscape:connector-curvature="0" />
	<path style="fill:none;stroke:red;stroke-width:1px;stroke-linecap:butt;stroke-linejoin:miter;stroke-opacity:1" d="M 286.25,334.116 294.502,348.972 z" id="boundary" inkscape:connector-curvature="0" />
	<path style="fill:none;stroke:red;stroke-width:1px;stroke-linecap:butt;stroke-linejoin:miter;stroke-opacity:1" d="M 294.502,348.972 286.25,368.779 z" id="boundary" inkscape:connector-curvature="0" />
	<path style="fill:none;stroke:red;stroke-width:1px;stroke-linecap:butt;stroke-linejoin:miter;stroke-opacity:1" d="M 289.551,385.285 286.25,368.779 z" id="boundary" inkscape:connector-curvature="0" />
	<path style="fill:none;stroke:red;stroke-width:1px;stroke-linecap:butt;stroke-linejoin:miter;stroke-opacity:1" d="M 294.502,401.79 289.551,385.285 z" id="boundary" inkscape:connector-curvature="0" />
	<path style="fill:none;stroke:red;stroke-width:1px;stroke-linecap:butt;stroke-linejoin:miter;stroke-opacity:1" d="M 302.755,416.646 294.502,401.79 z" id="boundary" inkscape:connector-curvature="0" />
	<path style="fill:none;stroke:red;stroke-width:1px;stroke-linecap:butt;stroke-linejoin:miter;stroke-opacity:1" d="M 302.755,416.646 302.755,433.151 z" id="boundary" inkscape:connector-curvature="0" />
	<path style="fill:none;stroke:red;stroke-width:1px;stroke-linecap:butt;stroke-linejoin:miter;stroke-opacity:1" d="M 311.008,464.512 302.755,449.657 z" id="boundary" inkscape:connector-curvature="0" />
	<path style="fill:none;stroke:red;stroke-width:1px;stroke-linecap:butt;stroke-linejoin:miter;stroke-opacity:1" d="M 302.755,449.657 302.755,433.151 z" id="boundary" inkscape:connector-curvature="0" />
	<path style="fill:none;stroke:red;stroke-width:1px;stroke-linecap:butt;stroke-linejoin:miter;stroke-opacity:1" d="M 319.261,479.368 311.008,464.512 z" id="boundary" inkscape:connector-curvature="0" />
	<path style="fill:none;stroke:red;stroke-width:1px;stroke-linecap:butt;stroke-linejoin:miter;stroke-opacity:1" d="M 319.261,479.368 325.864,495.874 z" id="boundary" inkscape:connector-curvature="0" />
	<path style="fill:none;stroke:red;stroke-width:1px;stroke-linecap:butt;stroke-linejoin:miter;stroke-opacity:1" d="M 325.864,495.874 327.514,512.379 z" id="boundary" inkscape:connector-curvature="0" />
	<path style="fill:none;stroke:red;stroke-width:1px;stroke-linecap:butt;stroke-linejoin:miter;stroke-opacity:1" d="M 334.116,545.391 327.514,528.885 z" id="boundary" inkscape:connector-curvature="0" />
	<path style="fill:none;stroke:red;stroke-width:1px;stroke-linecap:butt;stroke-linejoin:miter;stroke-opacity:1" d="M 327.514,528.885 327.514,512.379 z" id="boundary" inkscape:connector-curvature="0" />
	<path style="fill:none;stroke:red;stroke-width:1px;stroke-linecap:butt;stroke-linejoin:miter;stroke-opacity:1" d="M 334.116,545.391 335.767,561.897 z" id="boundary" inkscape:connector-curvature="0" />
	<path style="fill:none;stroke:red;stroke-width:1px;stroke-linecap:butt;stroke-linejoin:miter;stroke-opacity:1" d="M 244.985,872.206 244.985,855.7 z" id="boundary" inkscape:connector-curvature="0" />
	<path style="fill:none;stroke:red;stroke-width:1px;stroke-linecap:butt;stroke-linejoin:miter;stroke-opacity:1" d="M 253.238,839.195 244.985,855.7 z" id="boundary" inkscape:connector-curvature="0" />
	<path style="fill:none;stroke:red;stroke-width:1px;stroke-linecap:butt;stroke-linejoin:miter;stroke-opacity:1" d="M 264.792,895.314 248.286,888.712 z" id="boundary" inkscape:connector-curvature="0" />
	<path style="fill:none;stroke:red;stroke-width:1px;stroke-linecap:butt;stroke-linejoin:miter;stroke-opacity:1" d="M 248.286,888.712 244.985,872.206 z" id="boundary" inkscape:connector-curvature="0" />
	<path style="fill:none;stroke:red;stroke-width:1px;stroke-linecap:butt;stroke-linejoin:miter;stroke-opacity:1" d="M 269.744,773.171 277.997,756.666 z" id="boundary" inkscape:connector-curvature="0" />
	<path style="fill:none;stroke:red;stroke-width:1px;stroke-linecap:butt;stroke-linejoin:miter;stroke-opacity:1" d="M 269.744,789.677 269.744,773.171 z" id="boundary" inkscape:connector-curvature="0" />
	<path style="fill:none;stroke:red;stroke-width:1px;stroke-linecap:butt;stroke-linejoin:miter;stroke-opacity:1" d="M 269.744,789.677 261.491,814.436 z" id="boundary" inkscape:connector-curvature="0" />
	<path style="fill:none;stroke:red;stroke-width:1px;stroke-linecap:butt;stroke-linejoin:miter;stroke-opacity:1" d="M 253.238,839.195 261.491,814.436 z" id="boundary" inkscape:connector-curvature="0" />
	<path style="fill:none;stroke:red;stroke-width:1px;stroke-linecap:butt;stroke-linejoin:miter;stroke-opacity:1" d="M 198.769,996 182.263,996 z" id="boundary" inkscape:connector-curvature="0" />
	<path style="fill:none;stroke:red;stroke-width:1px;stroke-linecap:butt;stroke-linejoin:miter;stroke-opacity:1" d="M 231.78,996 215.275,996 z" id="boundary" inkscape:connector-curvature="0" />
	<path style="fill:none;stroke:red;stroke-width:1px;stroke-linecap:butt;stroke-linejoin:miter;stroke-opacity:1" d="M 215.275,996 198.769,996 z" id="boundary" inkscape:connector-curvature="0" />
	<path style="fill:none;stroke:red;stroke-width:1px;stroke-linecap:butt;stroke-linejoin:miter;stroke-opacity:1" d="M 292.852,911.82 276.346,908.519 z" id="boundary" inkscape:connector-curvature="0" />
	<path style="fill:none;stroke:red;stroke-width:1px;stroke-linecap:butt;stroke-linejoin:miter;stroke-opacity:1" d="M 276.346,908.519 264.792,895.314 z" id="boundary" inkscape:connector-curvature="0" />
	<path style="fill:none;stroke:red;stroke-width:1px;stroke-linecap:butt;stroke-linejoin:miter;stroke-opacity:1" d="M 248.286,996 263.141,987.747 z" id="boundary" inkscape:connector-curvature="0" />
	<path style="fill:none;stroke:red;stroke-width:1px;stroke-linecap:butt;stroke-linejoin:miter;stroke-opacity:1" d="M 248.286,996 231.78,996 z" id="boundary" inkscape:connector-curvature="0" />
	<path style="fill:none;stroke:red;stroke-width:1px;stroke-linecap:butt;stroke-linejoin:miter;stroke-opacity:1" d="M 277.997,979.494 263.141,987.747 z" id="boundary" inkscape:connector-curvature="0" />
	<path style="fill:none;stroke:red;stroke-width:1px;stroke-linecap:butt;stroke-linejoin:miter;stroke-opacity:1" d="M 292.852,971.241 277.997,979.494 z" id="boundary" inkscape:connector-curvature="0" />
	<path style="fill:none;stroke:red;stroke-width:1px;stroke-linecap:butt;stroke-linejoin:miter;stroke-opacity:1" d="M 277.997,756.666 291.201,745.111 z" id="boundary" inkscape:connector-curvature="0" />
	<path style="fill:none;stroke:red;stroke-width:1px;stroke-linecap:butt;stroke-linejoin:miter;stroke-opacity:1" d="M 294.502,665.884 307.707,654.329 z" id="boundary" inkscape:connector-curvature="0" />
	<path style="fill:none;stroke:red;stroke-width:1px;stroke-linecap:butt;stroke-linejoin:miter;stroke-opacity:1" d="M 311.008,624.619 307.707,654.329 z" id="boundary" inkscape:connector-curvature="0" />
	<path style="fill:none;stroke:red;stroke-width:1px;stroke-linecap:butt;stroke-linejoin:miter;stroke-opacity:1" d="M 286.25,682.389 294.502,697.245 z" id="boundary" inkscape:connector-curvature="0" />
	<path style="fill:none;stroke:red;stroke-width:1px;stroke-linecap:butt;stroke-linejoin:miter;stroke-opacity:1" d="M 294.502,697.245 294.502,713.75 z" id="boundary" inkscape:connector-curvature="0" />
	<path style="fill:none;stroke:red;stroke-width:1px;stroke-linecap:butt;stroke-linejoin:miter;stroke-opacity:1" d="M 286.25,682.389 294.502,665.884 z" id="boundary" inkscape:connector-curvature="0" />
	<path style="fill:none;stroke:red;stroke-width:1px;stroke-linecap:butt;stroke-linejoin:miter;stroke-opacity:1" d="M 335.767,561.897 335.767,578.403 z" id="boundary" inkscape:connector-curvature="0" />
	<path style="fill:none;stroke:red;stroke-width:1px;stroke-linecap:butt;stroke-linejoin:miter;stroke-opacity:1" d="M 311.008,624.619 319.261,608.113 z" id="boundary" inkscape:connector-curvature="0" />
	<path style="fill:none;stroke:red;stroke-width:1px;stroke-linecap:butt;stroke-linejoin:miter;stroke-opacity:1" d="M 319.261,608.113 332.466,596.559 z" id="boundary" inkscape:connector-curvature="0" />
	<path style="fill:none;stroke:red;stroke-width:1px;stroke-linecap:butt;stroke-linejoin:miter;stroke-opacity:1" d="M 335.767,578.403 332.466,596.559 z" id="boundary" inkscape:connector-curvature="0" />
	<path style="fill:none;stroke:red;stroke-width:1px;stroke-linecap:butt;stroke-linejoin:miter;stroke-opacity:1" d="M 307.707,920.073 292.852,911.82 z" id="boundary" inkscape:connector-curvature="0" />
	<path style="fill:none;stroke:red;stroke-width:1px;stroke-linecap:butt;stroke-linejoin:miter;stroke-opacity:1" d="M 294.502,713.75 291.201,745.111 z" id="boundary" inkscape:connector-curvature="0" />
	<path style="fill:none;stroke:red;stroke-width:1px;stroke-linecap:butt;stroke-linejoin:miter;stroke-opacity:1" d="M 307.707,920.073 322.562,928.326 z" id="boundary" inkscape:connector-curvature="0" />
	<path style="fill:none;stroke:red;stroke-width:1px;stroke-linecap:butt;stroke-linejoin:miter;stroke-opacity:1" d="M 322.562,928.326 327.514,944.832 z" id="boundary" inkscape:connector-curvature="0" />
	<path style="fill:none;stroke:red;stroke-width:1px;stroke-linecap:butt;stroke-linejoin:miter;stroke-opacity:1" d="M 322.562,961.338 309.358,971.241 z" id="boundary" inkscape:connector-curvature="0" />
	<path style="fill:none;stroke:red;stroke-width:1px;stroke-linecap:butt;stroke-linejoin:miter;stroke-opacity:1" d="M 309.358,971.241 292.852,971.241 z" id="boundary" inkscape:connector-curvature="0" />
	<path style="fill:none;stroke:red;stroke-width:1px;stroke-linecap:butt;stroke-linejoin:miter;stroke-opacity:1" d="M 327.514,944.832 322.562,961.338 z" id="boundary" inkscape:connector-curvature="0" />
	<circle cx="4" cy="297.804" r="4" fill="#0" id="circle0"/>
	<circle cx="4" cy="314.309" r="4" fill="#0" id="circle1"/>
	<circle cx="4" cy="330.815" r="4" fill="#0" id="circle2"/>
	<circle cx="4" cy="347.321" r="4" fill="#0" id="circle3"/>
	<circle cx="4" cy="363.827" r="4" fill="#0" id="circle4"/>
	<circle cx="12.2529" cy="378.682" r="4" fill="#0" id="circle5"/>
	<circle cx="12.2529" cy="395.188" r="4" fill="#0" id="circle6"/>
	<circle cx="12.2529" cy="411.694" r="4" fill="#0" id="circle7"/>
	<circle cx="12.2529" cy="428.2" r="4" fill="#0" id="circle8"/>
	<circle cx="12.2529" cy="444.705" r="4" fill="#0" id="circle9"/>
	<circle cx="12.2529" cy="461.211" r="4" fill="#0" id="circle10"/>
	<circle cx="12.2529" cy="477.717" r="4" fill="#0" id="circle11"/>
	<circle cx="17.2047" cy="284.599" r="4" fill="#0" id="circle12"/>
	<circle cx="20.5058" cy="83.228" r="4" fill="#0" id="circle13"/>
	<circle cx="20.5058" cy="99.7338" r="4" fill="#0" id="circle14"/>
	<circle cx="20.5058" cy="116.24" r="4" fill="#0" id="circle15"/>
	<circle cx="20.5058" cy="132.745" r="4" fill="#0" id="circle16"/>
	<circle cx="20.5058" cy="492.572" r="4" fill="#0" id="circle17"/>
	<circle cx="25.4576" cy="509.078" r="4" fill="#0" id="circle18"/>
	<circle cx="28.7587" cy="66.7221" r="4" fill="#0" id="circle19"/>
	<circle cx="28.7587" cy="147.601" r="4" fill="#0" id="circle20"/>
	<circle cx="28.7587" cy="264.792" r="4" fill="#0" id="circle21"/>
	<circle cx="33.7105" cy="523.933" r="4" fill="#0" id="circle22"/>
	<circle cx="37.0116" cy="50.2163" r="4" fill="#0" id="circle23"/>
	<circle cx="37.0116" cy="540.439" r="4" fill="#0" id="circle24"/>
	<circle cx="37.0116" cy="556.945" r="4" fill="#0" id="circle25"/>
	<circle cx="37.0116" cy="573.451" r="4" fill="#0" id="circle26"/>
	<circle cx="40.3128" cy="160.805" r="4" fill="#0" id="circle27"/>
	<circle cx="40.3128" cy="589.957" r="4" fill="#0" id="circle28"/>
	<circle cx="45.2646" cy="256.539" r="4" fill="#0" id="circle29"/>
	<circle cx="45.2646" cy="606.463" r="4" fill="#0" id="circle30"/>
	<circle cx="45.2646" cy="622.968" r="4" fill="#0" id="circle31"/>
	<circle cx="48.5657" cy="639.474" r="4" fill="#0" id="circle32"/>
	<circle cx="50.2163" cy="37.0116" r="4" fill="#0" id="circle33"/>
	<circle cx="53.5175" cy="170.709" r="4" fill="#0" id="circle34"/>
	<circle cx="56.8186" cy="654.329" r="4" fill="#0" id="circle35"/>
	<circle cx="61.7704" cy="240.033" r="4" fill="#0" id="circle36"/>
	<circle cx="63.421" cy="23.807" r="4" fill="#0" id="circle37"/>
	<circle cx="63.421" cy="183.913" r="4" fill="#0" id="circle38"/>
	<circle cx="63.421" cy="670.835" r="4" fill="#0" id="circle39"/>
	<circle cx="70.0233" cy="200.419" r="4" fill="#0" id="circle40"/>
	<circle cx="70.0233" cy="216.925" r="4" fill="#0" id="circle41"/>
	<circle cx="76.6256" cy="12.2529" r="4" fill="#0" id="circle42"/>
	<circle cx="76.6256" cy="682.389" r="4" fill="#0" id="circle43"/>
	<circle cx="86.5291" cy="695.594" r="4" fill="#0" id="circle44"/>
	<circle cx="86.5291" cy="792.978" r="4" fill="#0" id="circle45"/>
	<circle cx="86.5291" cy="809.484" r="4" fill="#0" id="circle46"/>
	<circle cx="86.5291" cy="825.99" r="4" fill="#0" id="circle47"/>
	<circle cx="86.5291" cy="842.496" r="4" fill="#0" id="circle48"/>
	<circle cx="91.4809" cy="4" r="4" fill="#0" id="circle49"/>
	<circle cx="94.782" cy="710.449" r="4" fill="#0" id="circle50"/>
	<circle cx="94.782" cy="751.714" r="4" fill="#0" id="circle51"/>
	<circle cx="94.782" cy="768.22" r="4" fill="#0" id="circle52"/>
	<circle cx="94.782" cy="857.351" r="4" fill="#0" id="circle53"/>
	<circle cx="94.782" cy="873.857" r="4" fill="#0" id="circle54"/>
	<circle cx="94.782" cy="933.278" r="4" fill="#0" id="circle55"/>
	<circle cx="94.782" cy="949.784" r="4" fill="#0" id="circle56"/>
	<circle cx="103.035" cy="725.304" r="4" fill="#0" id="circle57"/>
	<circle cx="103.035" cy="888.712" r="4" fill="#0" id="circle58"/>
	<circle cx="103.035" cy="905.218" r="4" fill="#0" id="circle59"/>
	<circle cx="107.987" cy="4" r="4" fill="#0" id="circle60"/>
	<circle cx="107.987" cy="961.338" r="4" fill="#0" id="circle61"/>
	<circle cx="119.541" cy="974.542" r="4" fill="#0" id="circle62"/>
	<circle cx="124.493" cy="4" r="4" fill="#0" id="circle63"/>
	<circle cx="136.047" cy="979.494" r="4" fill="#0" id="circle64"/>
	<circle cx="140.998" cy="4" r="4" fill="#0" id="circle65"/>
	<circle cx="150.902" cy="987.747" r="4" fill="#0" id="circle66"/>
	<circle cx="157.504" cy="4" r="4" fill="#0" id="circle67"/>
	<circle cx="167.408" cy="987.747" r="4" fill="#0" id="circle68"/>
	<circle cx="172.359" cy="12.2529" r="4" fill="#0" id="circle69"/>
	<circle cx="182.263" cy="996" r="4" fill="#0" id="circle70"/>
	<circle cx="188.865" cy="12.2529" r="4" fill="#0" id="circle71"/>
	<circle cx="198.769" cy="996" r="4" fill="#0" id="circle72"/>
	<circle cx="203.72" cy="20.5058" r="4" fill="#0" id="circle73"/>
	<circle cx="215.275" cy="996" r="4" fill="#0" id="circle74"/>
	<circle cx="220.226" cy="25.4576" r="4" fill="#0" id="circle75"/>
	<circle cx="231.78" cy="38.6622" r="4" fill="#0" id="circle76"/>
	<circle cx="231.78" cy="996" r="4" fill="#0" id="circle77"/>
	<circle cx="244.985" cy="50.2163" r="4" fill="#0" id="circle78"/>
	<circle cx="244.985" cy="228.479" r="4" fill="#0" id="circle79"/>
	<circle cx="244.985" cy="855.7" r="4" fill="#0" id="circle80"/>
	<circle cx="244.985" cy="872.206" r="4" fill="#0" id="circle81"/>
	<circle cx="248.286" cy="888.712" r="4" fill="#0" id="circle82"/>
	<circle cx="248.286" cy="996" r="4" fill="#0" id="circle83"/>
	<circle cx="253.238" cy="65.0715" r="4" fill="#0" id="circle84"/>
	<circle cx="253.238" cy="211.973" r="4" fill="#0" id="circle85"/>
	<circle cx="253.238" cy="243.334" r="4" fill="#0" id="circle86"/>
	<circle cx="253.238" cy="839.195" r="4" fill="#0" id="circle87"/>
	<circle cx="261.491" cy="79.9268" r="4" fill="#0" id="circle88"/>
	<circle cx="261.491" cy="96.4326" r="4" fill="#0" id="circle89"/>
	<circle cx="261.491" cy="112.938" r="4" fill="#0" id="circle90"/>
	<circle cx="261.491" cy="129.444" r="4" fill="#0" id="circle91"/>
	<circle cx="261.491" cy="145.95" r="4" fill="#0" id="circle92"/>
	<circle cx="261.491" cy="187.215" r="4" fill="#0" id="circle93"/>
	<circle cx="261.491" cy="258.19" r="4" fill="#0" id="circle94"/>
	<circle cx="261.491" cy="814.436" r="4" fill="#0" id="circle95"/>
	<circle cx="263.141" cy="987.747" r="4" fill="#0" id="circle96"/>
	<circle cx="264.792" cy="895.314" r="4" fill="#0" id="circle97"/>
	<circle cx="269.744" cy="160.805" r="4" fill="#0" id="circle98"/>
	<circle cx="269.744" cy="773.171" r="4" fill="#0" id="circle99"/>
	<circle cx="269.744" cy="789.677" r="4" fill="#0" id="circle100"/>
	<circle cx="274.696" cy="269.744" r="4" fill="#0" id="circle101"/>
	<circle cx="276.346" cy="908.519" r="4" fill="#0" id="circle102"/>
	<circle cx="277.997" cy="286.25" r="4" fill="#0" id="circle103"/>
	<circle cx="277.997" cy="756.666" r="4" fill="#0" id="circle104"/>
	<circle cx="277.997" cy="979.494" r="4" fill="#0" id="circle105"/>
	<circle cx="286.25" cy="301.105" r="4" fill="#0" id="circle106"/>
	<circle cx="286.25" cy="317.611" r="4" fill="#0" id="circle107"/>
	<circle cx="286.25" cy="334.116" r="4" fill="#0" id="circle108"/>
	<circle cx="286.25" cy="368.779" r="4" fill="#0" id="circle109"/>
	<circle cx="286.25" cy="682.389" r="4" fill="#0" id="circle110"/>
	<circle cx="289.551" cy="385.285" r="4" fill="#0" id="circle111"/>
	<circle cx="291.201" cy="745.111" r="4" fill="#0" id="circle112"/>
	<circle cx="292.852" cy="911.82" r="4" fill="#0" id="circle113"/>
	<circle cx="292.852" cy="971.241" r="4" fill="#0" id="circle114"/>
	<circle cx="294.502" cy="348.972" r="4" fill="#0" id="circle115"/>
	<circle cx="294.502" cy="401.79" r="4" fill="#0" id="circle116"/>
	<circle cx="294.502" cy="665.884" r="4" fill="#0" id="circle117"/>
	<circle cx="294.502" cy="697.245" r="4" fill="#0" id="circle118"/>
	<circle cx="294.502" cy="713.75" r="4" fill="#0" id="circle119"/>
	<circle cx="302.755" cy="416.646" r="4" fill="#0" id="circle120"/>
	<circle cx="302.755" cy="433.151" r="4" fill="#0" id="circle121"/>
	<circle cx="302.755" cy="449.657" r="4" fill="#0" id="circle122"/>
	<circle cx="307.707" cy="654.329" r="4" fill="#0" id="circle123"/>
	<circle cx="307.707" cy="920.073" r="4" fill="#0" id="circle124"/>
	<circle cx="309.358" cy="971.241" r="4" fill="#0" id="circle125"/>
	<circle cx="311.008" cy="464.512" r="4" fill="#0" id="circle126"/>
	<circle cx="311.008" cy="624.619" r="4" fill="#0" id="circle127"/>
	<circle cx="319.261" cy="479.368" r="4" fill="#0" id="circle128"/>
	<circle cx="319.261" cy="608.113" r="4" fill="#0" id="circle129"/>
	<circle cx="322.562" cy="928.326" r="4" fill="#0" id="circle130"/>
	<circle cx="322.562" cy="961.338" r="4" fill="#0" id="circle131"/>
	<circle cx="325.864" cy="495.874" r="4" fill="#0" id="circle132"/>
	<circle cx="327.514" cy="512.379" r="4" fill="#0" id="circle133"/>
	<circle cx="327.514" cy="528.885" r="4" fill="#0" id="circle134"/>
	<circle cx="327.514" cy="944.832" r="4" fill="#0" id="circle135"/>
	<circle cx="332.466" cy="596.559" r="4" fill="#0" id="circle136"/>
	<circle cx="334.116" cy="545.391" r="4" fill="#0" id="circle137"/>
	<circle cx="335.767" cy="561.897" r="4" fill="#0" id="circle138"/>
	<circle cx="335.767" cy="578.403" r="4" fill="#0" id="circle139"/>
	</g>
</svg>