<?xml version="1.0" encoding="UTF-8" standalone="no"?>
<!-- Created with CurveBenchmark -->
<svg
	xmlns:dc="http://purl.org/dc/elements/1.1/"
	xmlns:cc="http://creativecommons.org/ns#"
	xmlns:rdf="http://www.w3.org/1999/02/22-rdf-syntax-ns#"
	xmlns:svg="http://www.w3.org/2000/svg"
	xmlns="http://www.w3.org/2000/svg"
	xmlns:sodipodi="http://sodipodi.sourceforge.net/DTD/sodipodi-0.dtd"
	xmlns:inkscape="http://www.inkscape.org/namespaces/inkscape"
	width="1000"
	height="1000"
	id="svg2"
	version="1.1"
	sodipodi:docname="manifold/ccrust-tool15.png.txt">
<defs
	id="defs4" />
<metadata
	id="metadata7">
	<rdf:RDF>
		<cc:Work
			rdf:about="">
			<dc:format>image/svg+xml</dc:format>
			<dc:type
				rdf:resource="http://purl.org/dc/dcmitype/StillImage" />
			<dc:title></dc:title>
		</cc:Work>
	</rdf:RDF>
</metadata>
<g
	inkscape:label="Layer 1"
	inkscape:groupmode="layer"
	id="layer1">
	<path style="fill:none;stroke:red;stroke-width:1px;stroke-linecap:butt;stroke-linejoin:miter;stroke-opacity:1" d="M 4,63.3223 4,30.3654 z" id="boundary" inkscape:connector-curvature="0" />
	<path style="fill:none;stroke:red;stroke-width:1px;stroke-linecap:butt;stroke-linejoin:miter;stroke-opacity:1" d="M 4,30.3654 36.9568,13.887 z" id="boundary" inkscape:connector-curvature="0" />
	<path style="fill:none;stroke:red;stroke-width:1px;stroke-linecap:butt;stroke-linejoin:miter;stroke-opacity:1" d="M 36.9568,13.887 69.9136,4 z" id="boundary" inkscape:connector-curvature="0" />
	<path style="fill:none;stroke:red;stroke-width:1px;stroke-linecap:butt;stroke-linejoin:miter;stroke-opacity:1" d="M 4,96.2791 30.3654,119.349 z" id="boundary" inkscape:connector-curvature="0" />
	<path style="fill:none;stroke:red;stroke-width:1px;stroke-linecap:butt;stroke-linejoin:miter;stroke-opacity:1" d="M 30.3654,119.349 53.4352,145.714 z" id="boundary" inkscape:connector-curvature="0" />
	<path style="fill:none;stroke:red;stroke-width:1px;stroke-linecap:butt;stroke-linejoin:miter;stroke-opacity:1" d="M 4,96.2791 4,63.3223 z" id="boundary" inkscape:connector-curvature="0" />
	<path style="fill:none;stroke:red;stroke-width:1px;stroke-linecap:butt;stroke-linejoin:miter;stroke-opacity:1" d="M 53.4352,145.714 79.8007,168.784 z" id="boundary" inkscape:connector-curvature="0" />
	<path style="fill:none;stroke:red;stroke-width:1px;stroke-linecap:butt;stroke-linejoin:miter;stroke-opacity:1" d="M 79.8007,168.784 102.87,195.15 z" id="boundary" inkscape:connector-curvature="0" />
	<path style="fill:none;stroke:red;stroke-width:1px;stroke-linecap:butt;stroke-linejoin:miter;stroke-opacity:1" d="M 69.9136,4 102.87,10.5914 z" id="boundary" inkscape:connector-curvature="0" />
	<path style="fill:none;stroke:red;stroke-width:1px;stroke-linecap:butt;stroke-linejoin:miter;stroke-opacity:1" d="M 102.87,10.5914 122.645,36.9568 z" id="boundary" inkscape:connector-curvature="0" />
	<path style="fill:none;stroke:red;stroke-width:1px;stroke-linecap:butt;stroke-linejoin:miter;stroke-opacity:1" d="M 149.01,56.7309 178.671,73.2093 z" id="boundary" inkscape:connector-curvature="0" />
	<path style="fill:none;stroke:red;stroke-width:1px;stroke-linecap:butt;stroke-linejoin:miter;stroke-opacity:1" d="M 149.01,56.7309 122.645,36.9568 z" id="boundary" inkscape:connector-curvature="0" />
	<path style="fill:none;stroke:red;stroke-width:1px;stroke-linecap:butt;stroke-linejoin:miter;stroke-opacity:1" d="M 234.698,112.757 205.037,96.2791 z" id="boundary" inkscape:connector-curvature="0" />
	<path style="fill:none;stroke:red;stroke-width:1px;stroke-linecap:butt;stroke-linejoin:miter;stroke-opacity:1" d="M 205.037,96.2791 178.671,73.2093 z" id="boundary" inkscape:connector-curvature="0" />
	<path style="fill:none;stroke:red;stroke-width:1px;stroke-linecap:butt;stroke-linejoin:miter;stroke-opacity:1" d="M 129.236,218.219 102.87,195.15 z" id="boundary" inkscape:connector-curvature="0" />
	<path style="fill:none;stroke:red;stroke-width:1px;stroke-linecap:butt;stroke-linejoin:miter;stroke-opacity:1" d="M 152.306,244.585 129.236,218.219 z" id="boundary" inkscape:connector-curvature="0" />
	<path style="fill:none;stroke:red;stroke-width:1px;stroke-linecap:butt;stroke-linejoin:miter;stroke-opacity:1" d="M 234.698,112.757 261.063,135.827 z" id="boundary" inkscape:connector-curvature="0" />
	<path style="fill:none;stroke:red;stroke-width:1px;stroke-linecap:butt;stroke-linejoin:miter;stroke-opacity:1" d="M 290.724,152.306 261.063,135.827 z" id="boundary" inkscape:connector-curvature="0" />
	<path style="fill:none;stroke:red;stroke-width:1px;stroke-linecap:butt;stroke-linejoin:miter;stroke-opacity:1" d="M 369.821,211.628 336.864,201.741 z" id="boundary" inkscape:connector-curvature="0" />
	<path style="fill:none;stroke:red;stroke-width:1px;stroke-linecap:butt;stroke-linejoin:miter;stroke-opacity:1" d="M 336.864,201.741 317.09,175.375 z" id="boundary" inkscape:connector-curvature="0" />
	<path style="fill:none;stroke:red;stroke-width:1px;stroke-linecap:butt;stroke-linejoin:miter;stroke-opacity:1" d="M 317.09,175.375 290.724,152.306 z" id="boundary" inkscape:connector-curvature="0" />
	<path style="fill:none;stroke:red;stroke-width:1px;stroke-linecap:butt;stroke-linejoin:miter;stroke-opacity:1" d="M 369.821,211.628 392.89,237.993 z" id="boundary" inkscape:connector-curvature="0" />
	<path style="fill:none;stroke:red;stroke-width:1px;stroke-linecap:butt;stroke-linejoin:miter;stroke-opacity:1" d="M 152.306,244.585 178.671,267.654 z" id="boundary" inkscape:connector-curvature="0" />
	<path style="fill:none;stroke:red;stroke-width:1px;stroke-linecap:butt;stroke-linejoin:miter;stroke-opacity:1" d="M 178.671,267.654 201.741,294.02 z" id="boundary" inkscape:connector-curvature="0" />
	<path style="fill:none;stroke:red;stroke-width:1px;stroke-linecap:butt;stroke-linejoin:miter;stroke-opacity:1" d="M 201.741,294.02 228.106,317.09 z" id="boundary" inkscape:connector-curvature="0" />
	<path style="fill:none;stroke:red;stroke-width:1px;stroke-linecap:butt;stroke-linejoin:miter;stroke-opacity:1" d="M 228.106,317.09 251.176,343.455 z" id="boundary" inkscape:connector-curvature="0" />
	<path style="fill:none;stroke:red;stroke-width:1px;stroke-linecap:butt;stroke-linejoin:miter;stroke-opacity:1" d="M 277.542,366.525 251.176,343.455 z" id="boundary" inkscape:connector-curvature="0" />
	<path style="fill:none;stroke:red;stroke-width:1px;stroke-linecap:butt;stroke-linejoin:miter;stroke-opacity:1" d="M 277.542,366.525 300.611,392.89 z" id="boundary" inkscape:connector-curvature="0" />
	<path style="fill:none;stroke:red;stroke-width:1px;stroke-linecap:butt;stroke-linejoin:miter;stroke-opacity:1" d="M 326.977,415.96 300.611,392.89 z" id="boundary" inkscape:connector-curvature="0" />
	<path style="fill:none;stroke:red;stroke-width:1px;stroke-linecap:butt;stroke-linejoin:miter;stroke-opacity:1" d="M 376.412,465.395 350.047,442.326 z" id="boundary" inkscape:connector-curvature="0" />
	<path style="fill:none;stroke:red;stroke-width:1px;stroke-linecap:butt;stroke-linejoin:miter;stroke-opacity:1" d="M 350.047,442.326 326.977,415.96 z" id="boundary" inkscape:connector-curvature="0" />
	<path style="fill:none;stroke:red;stroke-width:1px;stroke-linecap:butt;stroke-linejoin:miter;stroke-opacity:1" d="M 376.412,465.395 399.482,491.761 z" id="boundary" inkscape:connector-curvature="0" />
	<path style="fill:none;stroke:red;stroke-width:1px;stroke-linecap:butt;stroke-linejoin:miter;stroke-opacity:1" d="M 409.369,267.654 439.03,284.133 z" id="boundary" inkscape:connector-curvature="0" />
	<path style="fill:none;stroke:red;stroke-width:1px;stroke-linecap:butt;stroke-linejoin:miter;stroke-opacity:1" d="M 409.369,267.654 392.89,237.993 z" id="boundary" inkscape:connector-curvature="0" />
	<path style="fill:none;stroke:red;stroke-width:1px;stroke-linecap:butt;stroke-linejoin:miter;stroke-opacity:1" d="M 439.03,284.133 468.691,300.611 z" id="boundary" inkscape:connector-curvature="0" />
	<path style="fill:none;stroke:red;stroke-width:1px;stroke-linecap:butt;stroke-linejoin:miter;stroke-opacity:1" d="M 468.691,300.611 485.169,330.272 z" id="boundary" inkscape:connector-curvature="0" />
	<path style="fill:none;stroke:red;stroke-width:1px;stroke-linecap:butt;stroke-linejoin:miter;stroke-opacity:1" d="M 511.535,353.342 485.169,330.272 z" id="boundary" inkscape:connector-curvature="0" />
	<path style="fill:none;stroke:red;stroke-width:1px;stroke-linecap:butt;stroke-linejoin:miter;stroke-opacity:1" d="M 399.482,491.761 425.847,514.831 z" id="boundary" inkscape:connector-curvature="0" />
	<path style="fill:none;stroke:red;stroke-width:1px;stroke-linecap:butt;stroke-linejoin:miter;stroke-opacity:1" d="M 425.847,514.831 448.917,541.196 z" id="boundary" inkscape:connector-curvature="0" />
	<path style="fill:none;stroke:red;stroke-width:1px;stroke-linecap:butt;stroke-linejoin:miter;stroke-opacity:1" d="M 481.874,551.083 448.917,541.196 z" id="boundary" inkscape:connector-curvature="0" />
	<path style="fill:none;stroke:red;stroke-width:1px;stroke-linecap:butt;stroke-linejoin:miter;stroke-opacity:1" d="M 501.648,577.449 481.874,551.083 z" id="boundary" inkscape:connector-curvature="0" />
	<path style="fill:none;stroke:red;stroke-width:1px;stroke-linecap:butt;stroke-linejoin:miter;stroke-opacity:1" d="M 511.535,353.342 534.605,379.708 z" id="boundary" inkscape:connector-curvature="0" />
	<path style="fill:none;stroke:red;stroke-width:1px;stroke-linecap:butt;stroke-linejoin:miter;stroke-opacity:1" d="M 551.083,409.369 580.744,425.847 z" id="boundary" inkscape:connector-curvature="0" />
	<path style="fill:none;stroke:red;stroke-width:1px;stroke-linecap:butt;stroke-linejoin:miter;stroke-opacity:1" d="M 551.083,409.369 534.605,379.708 z" id="boundary" inkscape:connector-curvature="0" />
	<path style="fill:none;stroke:red;stroke-width:1px;stroke-linecap:butt;stroke-linejoin:miter;stroke-opacity:1" d="M 600.518,452.213 616.997,481.874 z" id="boundary" inkscape:connector-curvature="0" />
	<path style="fill:none;stroke:red;stroke-width:1px;stroke-linecap:butt;stroke-linejoin:miter;stroke-opacity:1" d="M 600.518,452.213 580.744,425.847 z" id="boundary" inkscape:connector-curvature="0" />
	<path style="fill:none;stroke:red;stroke-width:1px;stroke-linecap:butt;stroke-linejoin:miter;stroke-opacity:1" d="M 649.953,491.761 616.997,481.874 z" id="boundary" inkscape:connector-curvature="0" />
	<path style="fill:none;stroke:red;stroke-width:1px;stroke-linecap:butt;stroke-linejoin:miter;stroke-opacity:1" d="M 528.013,600.518 501.648,577.449 z" id="boundary" inkscape:connector-curvature="0" />
	<path style="fill:none;stroke:red;stroke-width:1px;stroke-linecap:butt;stroke-linejoin:miter;stroke-opacity:1" d="M 551.083,626.884 528.013,600.518 z" id="boundary" inkscape:connector-curvature="0" />
	<path style="fill:none;stroke:red;stroke-width:1px;stroke-linecap:butt;stroke-linejoin:miter;stroke-opacity:1" d="M 600.518,676.319 577.449,649.953 z" id="boundary" inkscape:connector-curvature="0" />
	<path style="fill:none;stroke:red;stroke-width:1px;stroke-linecap:butt;stroke-linejoin:miter;stroke-opacity:1" d="M 577.449,649.953 551.083,626.884 z" id="boundary" inkscape:connector-curvature="0" />
	<path style="fill:none;stroke:red;stroke-width:1px;stroke-linecap:butt;stroke-linejoin:miter;stroke-opacity:1" d="M 649.953,491.761 666.432,521.422 z" id="boundary" inkscape:connector-curvature="0" />
	<path style="fill:none;stroke:red;stroke-width:1px;stroke-linecap:butt;stroke-linejoin:miter;stroke-opacity:1" d="M 666.432,521.422 686.206,547.787 z" id="boundary" inkscape:connector-curvature="0" />
	<path style="fill:none;stroke:red;stroke-width:1px;stroke-linecap:butt;stroke-linejoin:miter;stroke-opacity:1" d="M 719.163,547.787 686.206,547.787 z" id="boundary" inkscape:connector-curvature="0" />
	<path style="fill:none;stroke:red;stroke-width:1px;stroke-linecap:butt;stroke-linejoin:miter;stroke-opacity:1" d="M 765.302,590.631 732.346,580.744 z" id="boundary" inkscape:connector-curvature="0" />
	<path style="fill:none;stroke:red;stroke-width:1px;stroke-linecap:butt;stroke-linejoin:miter;stroke-opacity:1" d="M 732.346,580.744 719.163,547.787 z" id="boundary" inkscape:connector-curvature="0" />
	<path style="fill:none;stroke:red;stroke-width:1px;stroke-linecap:butt;stroke-linejoin:miter;stroke-opacity:1" d="M 794.963,607.11 827.92,613.701 z" id="boundary" inkscape:connector-curvature="0" />
	<path style="fill:none;stroke:red;stroke-width:1px;stroke-linecap:butt;stroke-linejoin:miter;stroke-opacity:1" d="M 794.963,607.11 765.302,590.631 z" id="boundary" inkscape:connector-curvature="0" />
	<path style="fill:none;stroke:red;stroke-width:1px;stroke-linecap:butt;stroke-linejoin:miter;stroke-opacity:1" d="M 860.877,620.292 827.92,613.701 z" id="boundary" inkscape:connector-curvature="0" />
	<path style="fill:none;stroke:red;stroke-width:1px;stroke-linecap:butt;stroke-linejoin:miter;stroke-opacity:1" d="M 860.877,620.292 880.651,646.658 z" id="boundary" inkscape:connector-curvature="0" />
	<path style="fill:none;stroke:red;stroke-width:1px;stroke-linecap:butt;stroke-linejoin:miter;stroke-opacity:1" d="M 880.651,646.658 913.608,656.545 z" id="boundary" inkscape:connector-curvature="0" />
	<path style="fill:none;stroke:red;stroke-width:1px;stroke-linecap:butt;stroke-linejoin:miter;stroke-opacity:1" d="M 913.608,656.545 936.678,682.91 z" id="boundary" inkscape:connector-curvature="0" />
	<path style="fill:none;stroke:red;stroke-width:1px;stroke-linecap:butt;stroke-linejoin:miter;stroke-opacity:1" d="M 626.884,699.389 600.518,676.319 z" id="boundary" inkscape:connector-curvature="0" />
	<path style="fill:none;stroke:red;stroke-width:1px;stroke-linecap:butt;stroke-linejoin:miter;stroke-opacity:1" d="M 656.545,762.007 640.066,732.346 z" id="boundary" inkscape:connector-curvature="0" />
	<path style="fill:none;stroke:red;stroke-width:1px;stroke-linecap:butt;stroke-linejoin:miter;stroke-opacity:1" d="M 663.136,794.963 663.136,827.92 z" id="boundary" inkscape:connector-curvature="0" />
	<path style="fill:none;stroke:red;stroke-width:1px;stroke-linecap:butt;stroke-linejoin:miter;stroke-opacity:1" d="M 663.136,794.963 656.545,762.007 z" id="boundary" inkscape:connector-curvature="0" />
	<path style="fill:none;stroke:red;stroke-width:1px;stroke-linecap:butt;stroke-linejoin:miter;stroke-opacity:1" d="M 682.91,854.286 663.136,827.92 z" id="boundary" inkscape:connector-curvature="0" />
	<path style="fill:none;stroke:red;stroke-width:1px;stroke-linecap:butt;stroke-linejoin:miter;stroke-opacity:1" d="M 626.884,699.389 640.066,732.346 z" id="boundary" inkscape:connector-curvature="0" />
	<path style="fill:none;stroke:red;stroke-width:1px;stroke-linecap:butt;stroke-linejoin:miter;stroke-opacity:1" d="M 738.937,893.834 705.98,880.651 z" id="boundary" inkscape:connector-curvature="0" />
	<path style="fill:none;stroke:red;stroke-width:1px;stroke-linecap:butt;stroke-linejoin:miter;stroke-opacity:1" d="M 705.98,880.651 682.91,854.286 z" id="boundary" inkscape:connector-curvature="0" />
	<path style="fill:none;stroke:red;stroke-width:1px;stroke-linecap:butt;stroke-linejoin:miter;stroke-opacity:1" d="M 804.85,910.312 771.894,897.13 z" id="boundary" inkscape:connector-curvature="0" />
	<path style="fill:none;stroke:red;stroke-width:1px;stroke-linecap:butt;stroke-linejoin:miter;stroke-opacity:1" d="M 771.894,897.13 738.937,893.834 z" id="boundary" inkscape:connector-curvature="0" />
	<path style="fill:none;stroke:red;stroke-width:1px;stroke-linecap:butt;stroke-linejoin:miter;stroke-opacity:1" d="M 953.156,712.571 982.817,729.05 z" id="boundary" inkscape:connector-curvature="0" />
	<path style="fill:none;stroke:red;stroke-width:1px;stroke-linecap:butt;stroke-linejoin:miter;stroke-opacity:1" d="M 963.043,765.302 996,771.894 z" id="boundary" inkscape:connector-curvature="0" />
	<path style="fill:none;stroke:red;stroke-width:1px;stroke-linecap:butt;stroke-linejoin:miter;stroke-opacity:1" d="M 963.043,798.259 963.043,765.302 z" id="boundary" inkscape:connector-curvature="0" />
	<path style="fill:none;stroke:red;stroke-width:1px;stroke-linecap:butt;stroke-linejoin:miter;stroke-opacity:1" d="M 949.86,847.694 963.043,798.259 z" id="boundary" inkscape:connector-curvature="0" />
	<path style="fill:none;stroke:red;stroke-width:1px;stroke-linecap:butt;stroke-linejoin:miter;stroke-opacity:1" d="M 953.156,712.571 936.678,682.91 z" id="boundary" inkscape:connector-curvature="0" />
	<path style="fill:none;stroke:red;stroke-width:1px;stroke-linecap:butt;stroke-linejoin:miter;stroke-opacity:1" d="M 831.216,831.216 864.173,831.216 z" id="boundary" inkscape:connector-curvature="0" />
	<path style="fill:none;stroke:red;stroke-width:1px;stroke-linecap:butt;stroke-linejoin:miter;stroke-opacity:1" d="M 949.86,847.694 920.199,864.173 z" id="boundary" inkscape:connector-curvature="0" />
	<path style="fill:none;stroke:red;stroke-width:1px;stroke-linecap:butt;stroke-linejoin:miter;stroke-opacity:1" d="M 920.199,864.173 897.13,837.807 z" id="boundary" inkscape:connector-curvature="0" />
	<path style="fill:none;stroke:red;stroke-width:1px;stroke-linecap:butt;stroke-linejoin:miter;stroke-opacity:1" d="M 897.13,837.807 864.173,831.216 z" id="boundary" inkscape:connector-curvature="0" />
	<circle cx="4" cy="30.3654" r="4" fill="#0" id="circle0"/>
	<circle cx="4" cy="63.3223" r="4" fill="#0" id="circle1"/>
	<circle cx="4" cy="96.2791" r="4" fill="#0" id="circle2"/>
	<circle cx="30.3654" cy="119.349" r="4" fill="#0" id="circle3"/>
	<circle cx="36.9568" cy="13.887" r="4" fill="#0" id="circle4"/>
	<circle cx="53.4352" cy="145.714" r="4" fill="#0" id="circle5"/>
	<circle cx="69.9136" cy="4" r="4" fill="#0" id="circle6"/>
	<circle cx="79.8007" cy="168.784" r="4" fill="#0" id="circle7"/>
	<circle cx="102.87" cy="10.5914" r="4" fill="#0" id="circle8"/>
	<circle cx="102.87" cy="195.15" r="4" fill="#0" id="circle9"/>
	<circle cx="122.645" cy="36.9568" r="4" fill="#0" id="circle10"/>
	<circle cx="129.236" cy="218.219" r="4" fill="#0" id="circle11"/>
	<circle cx="149.01" cy="56.7309" r="4" fill="#0" id="circle12"/>
	<circle cx="152.306" cy="244.585" r="4" fill="#0" id="circle13"/>
	<circle cx="178.671" cy="73.2093" r="4" fill="#0" id="circle14"/>
	<circle cx="178.671" cy="267.654" r="4" fill="#0" id="circle15"/>
	<circle cx="201.741" cy="294.02" r="4" fill="#0" id="circle16"/>
	<circle cx="205.037" cy="96.2791" r="4" fill="#0" id="circle17"/>
	<circle cx="228.106" cy="317.09" r="4" fill="#0" id="circle18"/>
	<circle cx="234.698" cy="112.757" r="4" fill="#0" id="circle19"/>
	<circle cx="251.176" cy="343.455" r="4" fill="#0" id="circle20"/>
	<circle cx="261.063" cy="135.827" r="4" fill="#0" id="circle21"/>
	<circle cx="277.542" cy="366.525" r="4" fill="#0" id="circle22"/>
	<circle cx="290.724" cy="152.306" r="4" fill="#0" id="circle23"/>
	<circle cx="300.611" cy="392.89" r="4" fill="#0" id="circle24"/>
	<circle cx="317.09" cy="175.375" r="4" fill="#0" id="circle25"/>
	<circle cx="326.977" cy="415.96" r="4" fill="#0" id="circle26"/>
	<circle cx="336.864" cy="201.741" r="4" fill="#0" id="circle27"/>
	<circle cx="350.047" cy="442.326" r="4" fill="#0" id="circle28"/>
	<circle cx="369.821" cy="211.628" r="4" fill="#0" id="circle29"/>
	<circle cx="376.412" cy="465.395" r="4" fill="#0" id="circle30"/>
	<circle cx="392.89" cy="237.993" r="4" fill="#0" id="circle31"/>
	<circle cx="399.482" cy="491.761" r="4" fill="#0" id="circle32"/>
	<circle cx="409.369" cy="267.654" r="4" fill="#0" id="circle33"/>
	<circle cx="425.847" cy="514.831" r="4" fill="#0" id="circle34"/>
	<circle cx="439.03" cy="284.133" r="4" fill="#0" id="circle35"/>
	<circle cx="448.917" cy="541.196" r="4" fill="#0" id="circle36"/>
	<circle cx="468.691" cy="300.611" r="4" fill="#0" id="circle37"/>
	<circle cx="481.874" cy="551.083" r="4" fill="#0" id="circle38"/>
	<circle cx="485.169" cy="330.272" r="4" fill="#0" id="circle39"/>
	<circle cx="501.648" cy="577.449" r="4" fill="#0" id="circle40"/>
	<circle cx="511.535" cy="353.342" r="4" fill="#0" id="circle41"/>
	<circle cx="528.013" cy="600.518" r="4" fill="#0" id="circle42"/>
	<circle cx="534.605" cy="379.708" r="4" fill="#0" id="circle43"/>
	<circle cx="551.083" cy="409.369" r="4" fill="#0" id="circle44"/>
	<circle cx="551.083" cy="626.884" r="4" fill="#0" id="circle45"/>
	<circle cx="577.449" cy="649.953" r="4" fill="#0" id="circle46"/>
	<circle cx="580.744" cy="425.847" r="4" fill="#0" id="circle47"/>
	<circle cx="600.518" cy="452.213" r="4" fill="#0" id="circle48"/>
	<circle cx="600.518" cy="676.319" r="4" fill="#0" id="circle49"/>
	<circle cx="616.997" cy="481.874" r="4" fill="#0" id="circle50"/>
	<circle cx="626.884" cy="699.389" r="4" fill="#0" id="circle51"/>
	<circle cx="640.066" cy="732.346" r="4" fill="#0" id="circle52"/>
	<circle cx="649.953" cy="491.761" r="4" fill="#0" id="circle53"/>
	<circle cx="656.545" cy="762.007" r="4" fill="#0" id="circle54"/>
	<circle cx="663.136" cy="794.963" r="4" fill="#0" id="circle55"/>
	<circle cx="663.136" cy="827.92" r="4" fill="#0" id="circle56"/>
	<circle cx="666.432" cy="521.422" r="4" fill="#0" id="circle57"/>
	<circle cx="682.91" cy="854.286" r="4" fill="#0" id="circle58"/>
	<circle cx="686.206" cy="547.787" r="4" fill="#0" id="circle59"/>
	<circle cx="705.98" cy="880.651" r="4" fill="#0" id="circle60"/>
	<circle cx="719.163" cy="547.787" r="4" fill="#0" id="circle61"/>
	<circle cx="732.346" cy="580.744" r="4" fill="#0" id="circle62"/>
	<circle cx="738.937" cy="893.834" r="4" fill="#0" id="circle63"/>
	<circle cx="765.302" cy="590.631" r="4" fill="#0" id="circle64"/>
	<circle cx="771.894" cy="897.13" r="4" fill="#0" id="circle65"/>
	<circle cx="794.963" cy="607.11" r="4" fill="#0" id="circle66"/>
	<circle cx="798.259" cy="831.216" r="4" fill="#0" id="circle67"/>
	<circle cx="804.85" cy="910.312" r="4" fill="#0" id="circle68"/>
	<circle cx="814.738" cy="860.877" r="4" fill="#0" id="circle69"/>
	<circle cx="827.92" cy="613.701" r="4" fill="#0" id="circle70"/>
	<circle cx="831.216" cy="831.216" r="4" fill="#0" id="circle71"/>
	<circle cx="860.877" cy="620.292" r="4" fill="#0" id="circle72"/>
	<circle cx="864.173" cy="831.216" r="4" fill="#0" id="circle73"/>
	<circle cx="880.651" cy="646.658" r="4" fill="#0" id="circle74"/>
	<circle cx="897.13" cy="837.807" r="4" fill="#0" id="circle75"/>
	<circle cx="913.608" cy="656.545" r="4" fill="#0" id="circle76"/>
	<circle cx="920.199" cy="864.173" r="4" fill="#0" id="circle77"/>
	<circle cx="936.678" cy="682.91" r="4" fill="#0" id="circle78"/>
	<circle cx="949.86" cy="847.694" r="4" fill="#0" id="circle79"/>
	<circle cx="953.156" cy="712.571" r="4" fill="#0" id="circle80"/>
	<circle cx="963.043" cy="765.302" r="4" fill="#0" id="circle81"/>
	<circle cx="963.043" cy="798.259" r="4" fill="#0" id="circle82"/>
	<circle cx="982.817" cy="729.05" r="4" fill="#0" id="circle83"/>
	<circle cx="996" cy="771.894" r="4" fill="#0" id="circle84"/>
	</g>
</svg>