<?xml version="1.0" encoding="UTF-8" standalone="no"?>
<!-- Created with CurveBenchmark -->
<svg
	xmlns:dc="http://purl.org/dc/elements/1.1/"
	xmlns:cc="http://creativecommons.org/ns#"
	xmlns:rdf="http://www.w3.org/1999/02/22-rdf-syntax-ns#"
	xmlns:svg="http://www.w3.org/2000/svg"
	xmlns="http://www.w3.org/2000/svg"
	xmlns:sodipodi="http://sodipodi.sourceforge.net/DTD/sodipodi-0.dtd"
	xmlns:inkscape="http://www.inkscape.org/namespaces/inkscape"
	width="1000"
	height="1000"
	id="svg2"
	version="1.1"
	sodipodi:docname="manifold/ccrust-flightbird05.png.txt">
<defs
	id="defs4" />
<metadata
	id="metadata7">
	<rdf:RDF>
		<cc:Work
			rdf:about="">
			<dc:format>image/svg+xml</dc:format>
			<dc:type
				rdf:resource="http://purl.org/dc/dcmitype/StillImage" />
			<dc:title></dc:title>
		</cc:Work>
	</rdf:RDF>
</metadata>
<g
	inkscape:label="Layer 1"
	inkscape:groupmode="layer"
	id="layer1">
	<path style="fill:none;stroke:red;stroke-width:1px;stroke-linecap:butt;stroke-linejoin:miter;stroke-opacity:1" d="M 211.452,254.829 230.312,249.171 z" id="boundary" inkscape:connector-curvature="0" />
	<path style="fill:none;stroke:red;stroke-width:1px;stroke-linecap:butt;stroke-linejoin:miter;stroke-opacity:1" d="M 192.593,264.259 183.163,283.118 z" id="boundary" inkscape:connector-curvature="0" />
	<path style="fill:none;stroke:red;stroke-width:1px;stroke-linecap:butt;stroke-linejoin:miter;stroke-opacity:1" d="M 183.163,283.118 168.076,296.319 z" id="boundary" inkscape:connector-curvature="0" />
	<path style="fill:none;stroke:red;stroke-width:1px;stroke-linecap:butt;stroke-linejoin:miter;stroke-opacity:1" d="M 168.076,296.319 151.103,305.749 z" id="boundary" inkscape:connector-curvature="0" />
	<path style="fill:none;stroke:red;stroke-width:1px;stroke-linecap:butt;stroke-linejoin:miter;stroke-opacity:1" d="M 192.593,264.259 211.452,254.829 z" id="boundary" inkscape:connector-curvature="0" />
	<path style="fill:none;stroke:red;stroke-width:1px;stroke-linecap:butt;stroke-linejoin:miter;stroke-opacity:1" d="M 230.312,249.171 249.171,249.171 z" id="boundary" inkscape:connector-curvature="0" />
	<path style="fill:none;stroke:red;stroke-width:1px;stroke-linecap:butt;stroke-linejoin:miter;stroke-opacity:1" d="M 268.03,249.171 286.89,249.171 z" id="boundary" inkscape:connector-curvature="0" />
	<path style="fill:none;stroke:red;stroke-width:1px;stroke-linecap:butt;stroke-linejoin:miter;stroke-opacity:1" d="M 324.608,239.741 305.749,245.399 z" id="boundary" inkscape:connector-curvature="0" />
	<path style="fill:none;stroke:red;stroke-width:1px;stroke-linecap:butt;stroke-linejoin:miter;stroke-opacity:1" d="M 249.171,249.171 268.03,249.171 z" id="boundary" inkscape:connector-curvature="0" />
	<path style="fill:none;stroke:red;stroke-width:1px;stroke-linecap:butt;stroke-linejoin:miter;stroke-opacity:1" d="M 305.749,245.399 286.89,249.171 z" id="boundary" inkscape:connector-curvature="0" />
	<path style="fill:none;stroke:red;stroke-width:1px;stroke-linecap:butt;stroke-linejoin:miter;stroke-opacity:1" d="M 60.5779,443.422 60.5779,424.563 z" id="boundary" inkscape:connector-curvature="0" />
	<path style="fill:none;stroke:red;stroke-width:1px;stroke-linecap:butt;stroke-linejoin:miter;stroke-opacity:1" d="M 70.0076,396.274 60.5779,424.563 z" id="boundary" inkscape:connector-curvature="0" />
	<path style="fill:none;stroke:red;stroke-width:1px;stroke-linecap:butt;stroke-linejoin:miter;stroke-opacity:1" d="M 41.7186,452.852 41.7186,433.992 z" id="boundary" inkscape:connector-curvature="0" />
	<path style="fill:none;stroke:red;stroke-width:1px;stroke-linecap:butt;stroke-linejoin:miter;stroke-opacity:1" d="M 32.289,471.711 41.7186,452.852 z" id="boundary" inkscape:connector-curvature="0" />
	<path style="fill:none;stroke:red;stroke-width:1px;stroke-linecap:butt;stroke-linejoin:miter;stroke-opacity:1" d="M 70.0076,396.274 85.0951,381.186 z" id="boundary" inkscape:connector-curvature="0" />
	<path style="fill:none;stroke:red;stroke-width:1px;stroke-linecap:butt;stroke-linejoin:miter;stroke-opacity:1" d="M 132.243,343.468 136.015,320.837 z" id="boundary" inkscape:connector-curvature="0" />
	<path style="fill:none;stroke:red;stroke-width:1px;stroke-linecap:butt;stroke-linejoin:miter;stroke-opacity:1" d="M 136.015,320.837 151.103,305.749 z" id="boundary" inkscape:connector-curvature="0" />
	<path style="fill:none;stroke:red;stroke-width:1px;stroke-linecap:butt;stroke-linejoin:miter;stroke-opacity:1" d="M 132.243,343.468 117.156,358.555 z" id="boundary" inkscape:connector-curvature="0" />
	<path style="fill:none;stroke:red;stroke-width:1px;stroke-linecap:butt;stroke-linejoin:miter;stroke-opacity:1" d="M 102.068,371.757 85.0951,381.186 z" id="boundary" inkscape:connector-curvature="0" />
	<path style="fill:none;stroke:red;stroke-width:1px;stroke-linecap:butt;stroke-linejoin:miter;stroke-opacity:1" d="M 117.156,358.555 102.068,371.757 z" id="boundary" inkscape:connector-curvature="0" />
	<path style="fill:none;stroke:red;stroke-width:1px;stroke-linecap:butt;stroke-linejoin:miter;stroke-opacity:1" d="M 324.608,239.741 343.468,239.741 z" id="boundary" inkscape:connector-curvature="0" />
	<path style="fill:none;stroke:red;stroke-width:1px;stroke-linecap:butt;stroke-linejoin:miter;stroke-opacity:1" d="M 409.475,141.673 428.335,139.787 z" id="boundary" inkscape:connector-curvature="0" />
	<path style="fill:none;stroke:red;stroke-width:1px;stroke-linecap:butt;stroke-linejoin:miter;stroke-opacity:1" d="M 428.335,139.787 435.878,158.646 z" id="boundary" inkscape:connector-curvature="0" />
	<path style="fill:none;stroke:red;stroke-width:1px;stroke-linecap:butt;stroke-linejoin:miter;stroke-opacity:1" d="M 603.726,51.1483 588.639,66.2357 z" id="boundary" inkscape:connector-curvature="0" />
	<path style="fill:none;stroke:red;stroke-width:1px;stroke-linecap:butt;stroke-linejoin:miter;stroke-opacity:1" d="M 400.046,179.392 400.046,160.532 z" id="boundary" inkscape:connector-curvature="0" />
	<path style="fill:none;stroke:red;stroke-width:1px;stroke-linecap:butt;stroke-linejoin:miter;stroke-opacity:1" d="M 400.046,160.532 409.475,141.673 z" id="boundary" inkscape:connector-curvature="0" />
	<path style="fill:none;stroke:red;stroke-width:1px;stroke-linecap:butt;stroke-linejoin:miter;stroke-opacity:1" d="M 454.738,164.304 435.878,158.646 z" id="boundary" inkscape:connector-curvature="0" />
	<path style="fill:none;stroke:red;stroke-width:1px;stroke-linecap:butt;stroke-linejoin:miter;stroke-opacity:1" d="M 588.639,66.2357 586.753,88.8669 z" id="boundary" inkscape:connector-curvature="0" />
	<path style="fill:none;stroke:red;stroke-width:1px;stroke-linecap:butt;stroke-linejoin:miter;stroke-opacity:1" d="M 586.753,88.8669 571.665,102.068 z" id="boundary" inkscape:connector-curvature="0" />
	<path style="fill:none;stroke:red;stroke-width:1px;stroke-linecap:butt;stroke-linejoin:miter;stroke-opacity:1" d="M 571.665,102.068 552.806,111.498 z" id="boundary" inkscape:connector-curvature="0" />
	<path style="fill:none;stroke:red;stroke-width:1px;stroke-linecap:butt;stroke-linejoin:miter;stroke-opacity:1" d="M 507.544,164.304 522.631,141.673 z" id="boundary" inkscape:connector-curvature="0" />
	<path style="fill:none;stroke:red;stroke-width:1px;stroke-linecap:butt;stroke-linejoin:miter;stroke-opacity:1" d="M 522.631,141.673 537.719,126.586 z" id="boundary" inkscape:connector-curvature="0" />
	<path style="fill:none;stroke:red;stroke-width:1px;stroke-linecap:butt;stroke-linejoin:miter;stroke-opacity:1" d="M 552.806,111.498 537.719,126.586 z" id="boundary" inkscape:connector-curvature="0" />
	<path style="fill:none;stroke:red;stroke-width:1px;stroke-linecap:butt;stroke-linejoin:miter;stroke-opacity:1" d="M 400.046,179.392 400.046,198.251 z" id="boundary" inkscape:connector-curvature="0" />
	<path style="fill:none;stroke:red;stroke-width:1px;stroke-linecap:butt;stroke-linejoin:miter;stroke-opacity:1" d="M 362.327,235.97 343.468,239.741 z" id="boundary" inkscape:connector-curvature="0" />
	<path style="fill:none;stroke:red;stroke-width:1px;stroke-linecap:butt;stroke-linejoin:miter;stroke-opacity:1" d="M 381.186,230.312 362.327,235.97 z" id="boundary" inkscape:connector-curvature="0" />
	<path style="fill:none;stroke:red;stroke-width:1px;stroke-linecap:butt;stroke-linejoin:miter;stroke-opacity:1" d="M 400.046,198.251 400.046,217.11 z" id="boundary" inkscape:connector-curvature="0" />
	<path style="fill:none;stroke:red;stroke-width:1px;stroke-linecap:butt;stroke-linejoin:miter;stroke-opacity:1" d="M 400.046,217.11 381.186,230.312 z" id="boundary" inkscape:connector-curvature="0" />
	<path style="fill:none;stroke:red;stroke-width:1px;stroke-linecap:butt;stroke-linejoin:miter;stroke-opacity:1" d="M 507.544,164.304 490.57,173.734 z" id="boundary" inkscape:connector-curvature="0" />
	<path style="fill:none;stroke:red;stroke-width:1px;stroke-linecap:butt;stroke-linejoin:miter;stroke-opacity:1" d="M 490.57,173.734 471.711,173.734 z" id="boundary" inkscape:connector-curvature="0" />
	<path style="fill:none;stroke:red;stroke-width:1px;stroke-linecap:butt;stroke-linejoin:miter;stroke-opacity:1" d="M 454.738,164.304 471.711,173.734 z" id="boundary" inkscape:connector-curvature="0" />
	<path style="fill:none;stroke:red;stroke-width:1px;stroke-linecap:butt;stroke-linejoin:miter;stroke-opacity:1" d="M 518.859,467.939 500,467.939 z" id="boundary" inkscape:connector-curvature="0" />
	<path style="fill:none;stroke:red;stroke-width:1px;stroke-linecap:butt;stroke-linejoin:miter;stroke-opacity:1" d="M 518.859,467.939 522.631,486.798 z" id="boundary" inkscape:connector-curvature="0" />
	<path style="fill:none;stroke:red;stroke-width:1px;stroke-linecap:butt;stroke-linejoin:miter;stroke-opacity:1" d="M 500,467.939 481.141,475.483 z" id="boundary" inkscape:connector-curvature="0" />
	<path style="fill:none;stroke:red;stroke-width:1px;stroke-linecap:butt;stroke-linejoin:miter;stroke-opacity:1" d="M 4,509.43 19.0875,494.342 z" id="boundary" inkscape:connector-curvature="0" />
	<path style="fill:none;stroke:red;stroke-width:1px;stroke-linecap:butt;stroke-linejoin:miter;stroke-opacity:1" d="M 32.289,471.711 19.0875,494.342 z" id="boundary" inkscape:connector-curvature="0" />
	<path style="fill:none;stroke:red;stroke-width:1px;stroke-linecap:butt;stroke-linejoin:miter;stroke-opacity:1" d="M 22.8593,543.376 4,547.148 z" id="boundary" inkscape:connector-curvature="0" />
	<path style="fill:none;stroke:red;stroke-width:1px;stroke-linecap:butt;stroke-linejoin:miter;stroke-opacity:1" d="M 4,547.148 4,528.289 z" id="boundary" inkscape:connector-curvature="0" />
	<path style="fill:none;stroke:red;stroke-width:1px;stroke-linecap:butt;stroke-linejoin:miter;stroke-opacity:1" d="M 4,528.289 4,509.43 z" id="boundary" inkscape:connector-curvature="0" />
	<path style="fill:none;stroke:red;stroke-width:1px;stroke-linecap:butt;stroke-linejoin:miter;stroke-opacity:1" d="M 22.8593,543.376 28.5171,562.236 z" id="boundary" inkscape:connector-curvature="0" />
	<path style="fill:none;stroke:red;stroke-width:1px;stroke-linecap:butt;stroke-linejoin:miter;stroke-opacity:1" d="M 228.426,543.376 209.567,549.034 z" id="boundary" inkscape:connector-curvature="0" />
	<path style="fill:none;stroke:red;stroke-width:1px;stroke-linecap:butt;stroke-linejoin:miter;stroke-opacity:1" d="M 194.479,562.236 209.567,549.034 z" id="boundary" inkscape:connector-curvature="0" />
	<path style="fill:none;stroke:red;stroke-width:1px;stroke-linecap:butt;stroke-linejoin:miter;stroke-opacity:1" d="M 175.62,562.236 156.76,571.665 z" id="boundary" inkscape:connector-curvature="0" />
	<path style="fill:none;stroke:red;stroke-width:1px;stroke-linecap:butt;stroke-linejoin:miter;stroke-opacity:1" d="M 156.76,571.665 137.901,581.095 z" id="boundary" inkscape:connector-curvature="0" />
	<path style="fill:none;stroke:red;stroke-width:1px;stroke-linecap:butt;stroke-linejoin:miter;stroke-opacity:1" d="M 41.7186,577.323 28.5171,562.236 z" id="boundary" inkscape:connector-curvature="0" />
	<path style="fill:none;stroke:red;stroke-width:1px;stroke-linecap:butt;stroke-linejoin:miter;stroke-opacity:1" d="M 194.479,562.236 175.62,562.236 z" id="boundary" inkscape:connector-curvature="0" />
	<path style="fill:none;stroke:red;stroke-width:1px;stroke-linecap:butt;stroke-linejoin:miter;stroke-opacity:1" d="M 228.426,543.376 247.285,539.605 z" id="boundary" inkscape:connector-curvature="0" />
	<path style="fill:none;stroke:red;stroke-width:1px;stroke-linecap:butt;stroke-linejoin:miter;stroke-opacity:1" d="M 28.5171,562.236 13.4297,575.437 z" id="boundary" inkscape:connector-curvature="0" />
	<path style="fill:none;stroke:red;stroke-width:1px;stroke-linecap:butt;stroke-linejoin:miter;stroke-opacity:1" d="M 13.4297,594.297 13.4297,575.437 z" id="boundary" inkscape:connector-curvature="0" />
	<path style="fill:none;stroke:red;stroke-width:1px;stroke-linecap:butt;stroke-linejoin:miter;stroke-opacity:1" d="M 41.7186,596.183 56.8061,607.498 z" id="boundary" inkscape:connector-curvature="0" />
	<path style="fill:none;stroke:red;stroke-width:1px;stroke-linecap:butt;stroke-linejoin:miter;stroke-opacity:1" d="M 41.7186,577.323 41.7186,596.183 z" id="boundary" inkscape:connector-curvature="0" />
	<path style="fill:none;stroke:red;stroke-width:1px;stroke-linecap:butt;stroke-linejoin:miter;stroke-opacity:1" d="M 56.8061,607.498 73.7795,616.928 z" id="boundary" inkscape:connector-curvature="0" />
	<path style="fill:none;stroke:red;stroke-width:1px;stroke-linecap:butt;stroke-linejoin:miter;stroke-opacity:1" d="M 126.586,599.954 107.726,599.954 z" id="boundary" inkscape:connector-curvature="0" />
	<path style="fill:none;stroke:red;stroke-width:1px;stroke-linecap:butt;stroke-linejoin:miter;stroke-opacity:1" d="M 137.901,581.095 126.586,599.954 z" id="boundary" inkscape:connector-curvature="0" />
	<path style="fill:none;stroke:red;stroke-width:1px;stroke-linecap:butt;stroke-linejoin:miter;stroke-opacity:1" d="M 107.726,599.954 88.8669,603.726 z" id="boundary" inkscape:connector-curvature="0" />
	<path style="fill:none;stroke:red;stroke-width:1px;stroke-linecap:butt;stroke-linejoin:miter;stroke-opacity:1" d="M 73.7795,616.928 88.8669,603.726 z" id="boundary" inkscape:connector-curvature="0" />
	<path style="fill:none;stroke:red;stroke-width:1px;stroke-linecap:butt;stroke-linejoin:miter;stroke-opacity:1" d="M 298.205,515.087 279.346,515.087 z" id="boundary" inkscape:connector-curvature="0" />
	<path style="fill:none;stroke:red;stroke-width:1px;stroke-linecap:butt;stroke-linejoin:miter;stroke-opacity:1" d="M 279.346,515.087 260.487,515.087 z" id="boundary" inkscape:connector-curvature="0" />
	<path style="fill:none;stroke:red;stroke-width:1px;stroke-linecap:butt;stroke-linejoin:miter;stroke-opacity:1" d="M 317.065,515.087 298.205,515.087 z" id="boundary" inkscape:connector-curvature="0" />
	<path style="fill:none;stroke:red;stroke-width:1px;stroke-linecap:butt;stroke-linejoin:miter;stroke-opacity:1" d="M 335.924,515.087 317.065,515.087 z" id="boundary" inkscape:connector-curvature="0" />
	<path style="fill:none;stroke:red;stroke-width:1px;stroke-linecap:butt;stroke-linejoin:miter;stroke-opacity:1" d="M 247.285,539.605 260.487,515.087 z" id="boundary" inkscape:connector-curvature="0" />
	<path style="fill:none;stroke:red;stroke-width:1px;stroke-linecap:butt;stroke-linejoin:miter;stroke-opacity:1" d="M 464.167,486.798 481.141,475.483 z" id="boundary" inkscape:connector-curvature="0" />
	<path style="fill:none;stroke:red;stroke-width:1px;stroke-linecap:butt;stroke-linejoin:miter;stroke-opacity:1" d="M 522.631,486.798 532.061,503.772 z" id="boundary" inkscape:connector-curvature="0" />
	<path style="fill:none;stroke:red;stroke-width:1px;stroke-linecap:butt;stroke-linejoin:miter;stroke-opacity:1" d="M 428.335,500 447.194,496.228 z" id="boundary" inkscape:connector-curvature="0" />
	<path style="fill:none;stroke:red;stroke-width:1px;stroke-linecap:butt;stroke-linejoin:miter;stroke-opacity:1" d="M 464.167,486.798 447.194,496.228 z" id="boundary" inkscape:connector-curvature="0" />
	<path style="fill:none;stroke:red;stroke-width:1px;stroke-linecap:butt;stroke-linejoin:miter;stroke-opacity:1" d="M 409.475,505.658 428.335,500 z" id="boundary" inkscape:connector-curvature="0" />
	<path style="fill:none;stroke:red;stroke-width:1px;stroke-linecap:butt;stroke-linejoin:miter;stroke-opacity:1" d="M 392.502,515.087 409.475,505.658 z" id="boundary" inkscape:connector-curvature="0" />
	<path style="fill:none;stroke:red;stroke-width:1px;stroke-linecap:butt;stroke-linejoin:miter;stroke-opacity:1" d="M 335.924,515.087 354.783,515.087 z" id="boundary" inkscape:connector-curvature="0" />
	<path style="fill:none;stroke:red;stroke-width:1px;stroke-linecap:butt;stroke-linejoin:miter;stroke-opacity:1" d="M 354.783,515.087 373.643,515.087 z" id="boundary" inkscape:connector-curvature="0" />
	<path style="fill:none;stroke:red;stroke-width:1px;stroke-linecap:butt;stroke-linejoin:miter;stroke-opacity:1" d="M 392.502,515.087 373.643,515.087 z" id="boundary" inkscape:connector-curvature="0" />
	<path style="fill:none;stroke:red;stroke-width:1px;stroke-linecap:butt;stroke-linejoin:miter;stroke-opacity:1" d="M 569.779,566.008 552.806,556.578 z" id="boundary" inkscape:connector-curvature="0" />
	<path style="fill:none;stroke:red;stroke-width:1px;stroke-linecap:butt;stroke-linejoin:miter;stroke-opacity:1" d="M 552.806,556.578 543.376,539.605 z" id="boundary" inkscape:connector-curvature="0" />
	<path style="fill:none;stroke:red;stroke-width:1px;stroke-linecap:butt;stroke-linejoin:miter;stroke-opacity:1" d="M 543.376,539.605 541.49,520.745 z" id="boundary" inkscape:connector-curvature="0" />
	<path style="fill:none;stroke:red;stroke-width:1px;stroke-linecap:butt;stroke-linejoin:miter;stroke-opacity:1" d="M 579.209,582.981 579.209,601.84 z" id="boundary" inkscape:connector-curvature="0" />
	<path style="fill:none;stroke:red;stroke-width:1px;stroke-linecap:butt;stroke-linejoin:miter;stroke-opacity:1" d="M 579.209,582.981 569.779,566.008 z" id="boundary" inkscape:connector-curvature="0" />
	<path style="fill:none;stroke:red;stroke-width:1px;stroke-linecap:butt;stroke-linejoin:miter;stroke-opacity:1" d="M 588.639,618.814 579.209,601.84 z" id="boundary" inkscape:connector-curvature="0" />
	<path style="fill:none;stroke:red;stroke-width:1px;stroke-linecap:butt;stroke-linejoin:miter;stroke-opacity:1" d="M 541.49,520.745 532.061,503.772 z" id="boundary" inkscape:connector-curvature="0" />
	<path style="fill:none;stroke:red;stroke-width:1px;stroke-linecap:butt;stroke-linejoin:miter;stroke-opacity:1" d="M 658.418,34.1749 677.278,32.289 z" id="boundary" inkscape:connector-curvature="0" />
	<path style="fill:none;stroke:red;stroke-width:1px;stroke-linecap:butt;stroke-linejoin:miter;stroke-opacity:1" d="M 639.559,41.7186 658.418,34.1749 z" id="boundary" inkscape:connector-curvature="0" />
	<path style="fill:none;stroke:red;stroke-width:1px;stroke-linecap:butt;stroke-linejoin:miter;stroke-opacity:1" d="M 696.137,32.289 677.278,32.289 z" id="boundary" inkscape:connector-curvature="0" />
	<path style="fill:none;stroke:red;stroke-width:1px;stroke-linecap:butt;stroke-linejoin:miter;stroke-opacity:1" d="M 696.137,32.289 714.996,32.289 z" id="boundary" inkscape:connector-curvature="0" />
	<path style="fill:none;stroke:red;stroke-width:1px;stroke-linecap:butt;stroke-linejoin:miter;stroke-opacity:1" d="M 733.856,32.289 714.996,32.289 z" id="boundary" inkscape:connector-curvature="0" />
	<path style="fill:none;stroke:red;stroke-width:1px;stroke-linecap:butt;stroke-linejoin:miter;stroke-opacity:1" d="M 790.433,22.8593 805.521,9.65779 z" id="boundary" inkscape:connector-curvature="0" />
	<path style="fill:none;stroke:red;stroke-width:1px;stroke-linecap:butt;stroke-linejoin:miter;stroke-opacity:1" d="M 824.38,4 805.521,9.65779 z" id="boundary" inkscape:connector-curvature="0" />
	<path style="fill:none;stroke:red;stroke-width:1px;stroke-linecap:butt;stroke-linejoin:miter;stroke-opacity:1" d="M 752.715,32.289 771.574,24.7452 z" id="boundary" inkscape:connector-curvature="0" />
	<path style="fill:none;stroke:red;stroke-width:1px;stroke-linecap:butt;stroke-linejoin:miter;stroke-opacity:1" d="M 771.574,24.7452 790.433,22.8593 z" id="boundary" inkscape:connector-curvature="0" />
	<path style="fill:none;stroke:red;stroke-width:1px;stroke-linecap:butt;stroke-linejoin:miter;stroke-opacity:1" d="M 752.715,32.289 733.856,32.289 z" id="boundary" inkscape:connector-curvature="0" />
	<path style="fill:none;stroke:red;stroke-width:1px;stroke-linecap:butt;stroke-linejoin:miter;stroke-opacity:1" d="M 620.7,41.7186 639.559,41.7186 z" id="boundary" inkscape:connector-curvature="0" />
	<path style="fill:none;stroke:red;stroke-width:1px;stroke-linecap:butt;stroke-linejoin:miter;stroke-opacity:1" d="M 603.726,51.1483 620.7,41.7186 z" id="boundary" inkscape:connector-curvature="0" />
	<path style="fill:none;stroke:red;stroke-width:1px;stroke-linecap:butt;stroke-linejoin:miter;stroke-opacity:1" d="M 756.487,313.293 765.916,294.433 z" id="boundary" inkscape:connector-curvature="0" />
	<path style="fill:none;stroke:red;stroke-width:1px;stroke-linecap:butt;stroke-linejoin:miter;stroke-opacity:1" d="M 765.916,294.433 779.118,279.346 z" id="boundary" inkscape:connector-curvature="0" />
	<path style="fill:none;stroke:red;stroke-width:1px;stroke-linecap:butt;stroke-linejoin:miter;stroke-opacity:1" d="M 756.487,313.293 741.399,326.494 z" id="boundary" inkscape:connector-curvature="0" />
	<path style="fill:none;stroke:red;stroke-width:1px;stroke-linecap:butt;stroke-linejoin:miter;stroke-opacity:1" d="M 843.24,222.768 826.266,232.198 z" id="boundary" inkscape:connector-curvature="0" />
	<path style="fill:none;stroke:red;stroke-width:1px;stroke-linecap:butt;stroke-linejoin:miter;stroke-opacity:1" d="M 826.266,232.198 807.407,232.198 z" id="boundary" inkscape:connector-curvature="0" />
	<path style="fill:none;stroke:red;stroke-width:1px;stroke-linecap:butt;stroke-linejoin:miter;stroke-opacity:1" d="M 797.977,251.057 807.407,232.198 z" id="boundary" inkscape:connector-curvature="0" />
	<path style="fill:none;stroke:red;stroke-width:1px;stroke-linecap:butt;stroke-linejoin:miter;stroke-opacity:1" d="M 779.118,260.487 797.977,251.057 z" id="boundary" inkscape:connector-curvature="0" />
	<path style="fill:none;stroke:red;stroke-width:1px;stroke-linecap:butt;stroke-linejoin:miter;stroke-opacity:1" d="M 779.118,279.346 779.118,260.487 z" id="boundary" inkscape:connector-curvature="0" />
	<path style="fill:none;stroke:red;stroke-width:1px;stroke-linecap:butt;stroke-linejoin:miter;stroke-opacity:1" d="M 843.24,222.768 862.099,217.11 z" id="boundary" inkscape:connector-curvature="0" />
	<path style="fill:none;stroke:red;stroke-width:1px;stroke-linecap:butt;stroke-linejoin:miter;stroke-opacity:1" d="M 824.38,4 843.24,4 z" id="boundary" inkscape:connector-curvature="0" />
	<path style="fill:none;stroke:red;stroke-width:1px;stroke-linecap:butt;stroke-linejoin:miter;stroke-opacity:1" d="M 843.24,4 854.555,24.7452 z" id="boundary" inkscape:connector-curvature="0" />
	<path style="fill:none;stroke:red;stroke-width:1px;stroke-linecap:butt;stroke-linejoin:miter;stroke-opacity:1" d="M 854.555,24.7452 873.414,32.289 z" id="boundary" inkscape:connector-curvature="0" />
	<path style="fill:none;stroke:red;stroke-width:1px;stroke-linecap:butt;stroke-linejoin:miter;stroke-opacity:1" d="M 892.274,32.289 911.133,32.289 z" id="boundary" inkscape:connector-curvature="0" />
	<path style="fill:none;stroke:red;stroke-width:1px;stroke-linecap:butt;stroke-linejoin:miter;stroke-opacity:1" d="M 892.274,32.289 873.414,32.289 z" id="boundary" inkscape:connector-curvature="0" />
	<path style="fill:none;stroke:red;stroke-width:1px;stroke-linecap:butt;stroke-linejoin:miter;stroke-opacity:1" d="M 911.133,32.289 929.992,32.289 z" id="boundary" inkscape:connector-curvature="0" />
	<path style="fill:none;stroke:red;stroke-width:1px;stroke-linecap:butt;stroke-linejoin:miter;stroke-opacity:1" d="M 946.966,41.7186 965.825,41.7186 z" id="boundary" inkscape:connector-curvature="0" />
	<path style="fill:none;stroke:red;stroke-width:1px;stroke-linecap:butt;stroke-linejoin:miter;stroke-opacity:1" d="M 948.852,60.5779 946.966,41.7186 z" id="boundary" inkscape:connector-curvature="0" />
	<path style="fill:none;stroke:red;stroke-width:1px;stroke-linecap:butt;stroke-linejoin:miter;stroke-opacity:1" d="M 946.966,41.7186 929.992,32.289 z" id="boundary" inkscape:connector-curvature="0" />
	<path style="fill:none;stroke:red;stroke-width:1px;stroke-linecap:butt;stroke-linejoin:miter;stroke-opacity:1" d="M 965.825,70.0076 948.852,60.5779 z" id="boundary" inkscape:connector-curvature="0" />
	<path style="fill:none;stroke:red;stroke-width:1px;stroke-linecap:butt;stroke-linejoin:miter;stroke-opacity:1" d="M 965.825,70.0076 984.684,70.0076 z" id="boundary" inkscape:connector-curvature="0" />
	<path style="fill:none;stroke:red;stroke-width:1px;stroke-linecap:butt;stroke-linejoin:miter;stroke-opacity:1" d="M 996,90.7529 977.141,90.7529 z" id="boundary" inkscape:connector-curvature="0" />
	<path style="fill:none;stroke:red;stroke-width:1px;stroke-linecap:butt;stroke-linejoin:miter;stroke-opacity:1" d="M 913.019,185.049 929.992,175.62 z" id="boundary" inkscape:connector-curvature="0" />
	<path style="fill:none;stroke:red;stroke-width:1px;stroke-linecap:butt;stroke-linejoin:miter;stroke-opacity:1" d="M 896.046,194.479 880.958,207.681 z" id="boundary" inkscape:connector-curvature="0" />
	<path style="fill:none;stroke:red;stroke-width:1px;stroke-linecap:butt;stroke-linejoin:miter;stroke-opacity:1" d="M 880.958,207.681 862.099,217.11 z" id="boundary" inkscape:connector-curvature="0" />
	<path style="fill:none;stroke:red;stroke-width:1px;stroke-linecap:butt;stroke-linejoin:miter;stroke-opacity:1" d="M 896.046,194.479 913.019,185.049 z" id="boundary" inkscape:connector-curvature="0" />
	<path style="fill:none;stroke:red;stroke-width:1px;stroke-linecap:butt;stroke-linejoin:miter;stroke-opacity:1" d="M 929.992,175.62 948.852,166.19 z" id="boundary" inkscape:connector-curvature="0" />
	<path style="fill:none;stroke:red;stroke-width:1px;stroke-linecap:butt;stroke-linejoin:miter;stroke-opacity:1" d="M 996,113.384 977.141,119.042 z" id="boundary" inkscape:connector-curvature="0" />
	<path style="fill:none;stroke:red;stroke-width:1px;stroke-linecap:butt;stroke-linejoin:miter;stroke-opacity:1" d="M 977.141,119.042 967.711,137.901 z" id="boundary" inkscape:connector-curvature="0" />
	<path style="fill:none;stroke:red;stroke-width:1px;stroke-linecap:butt;stroke-linejoin:miter;stroke-opacity:1" d="M 967.711,137.901 967.711,156.76 z" id="boundary" inkscape:connector-curvature="0" />
	<path style="fill:none;stroke:red;stroke-width:1px;stroke-linecap:butt;stroke-linejoin:miter;stroke-opacity:1" d="M 967.711,156.76 948.852,166.19 z" id="boundary" inkscape:connector-curvature="0" />
	<path style="fill:none;stroke:red;stroke-width:1px;stroke-linecap:butt;stroke-linejoin:miter;stroke-opacity:1" d="M 996,90.7529 996,113.384 z" id="boundary" inkscape:connector-curvature="0" />
	<path style="fill:none;stroke:red;stroke-width:1px;stroke-linecap:butt;stroke-linejoin:miter;stroke-opacity:1" d="M 628.243,392.502 647.103,383.072 z" id="boundary" inkscape:connector-curvature="0" />
	<path style="fill:none;stroke:red;stroke-width:1px;stroke-linecap:butt;stroke-linejoin:miter;stroke-opacity:1" d="M 609.384,411.361 624.471,422.677 z" id="boundary" inkscape:connector-curvature="0" />
	<path style="fill:none;stroke:red;stroke-width:1px;stroke-linecap:butt;stroke-linejoin:miter;stroke-opacity:1" d="M 624.471,422.677 633.901,439.65 z" id="boundary" inkscape:connector-curvature="0" />
	<path style="fill:none;stroke:red;stroke-width:1px;stroke-linecap:butt;stroke-linejoin:miter;stroke-opacity:1" d="M 647.103,454.738 633.901,439.65 z" id="boundary" inkscape:connector-curvature="0" />
	<path style="fill:none;stroke:red;stroke-width:1px;stroke-linecap:butt;stroke-linejoin:miter;stroke-opacity:1" d="M 647.103,473.597 647.103,454.738 z" id="boundary" inkscape:connector-curvature="0" />
	<path style="fill:none;stroke:red;stroke-width:1px;stroke-linecap:butt;stroke-linejoin:miter;stroke-opacity:1" d="M 656.532,490.57 647.103,473.597 z" id="boundary" inkscape:connector-curvature="0" />
	<path style="fill:none;stroke:red;stroke-width:1px;stroke-linecap:butt;stroke-linejoin:miter;stroke-opacity:1" d="M 682.935,516.973 665.962,507.544 z" id="boundary" inkscape:connector-curvature="0" />
	<path style="fill:none;stroke:red;stroke-width:1px;stroke-linecap:butt;stroke-linejoin:miter;stroke-opacity:1" d="M 665.962,507.544 656.532,490.57 z" id="boundary" inkscape:connector-curvature="0" />
	<path style="fill:none;stroke:red;stroke-width:1px;stroke-linecap:butt;stroke-linejoin:miter;stroke-opacity:1" d="M 684.821,535.833 696.137,550.92 z" id="boundary" inkscape:connector-curvature="0" />
	<path style="fill:none;stroke:red;stroke-width:1px;stroke-linecap:butt;stroke-linejoin:miter;stroke-opacity:1" d="M 647.103,383.072 665.962,373.643 z" id="boundary" inkscape:connector-curvature="0" />
	<path style="fill:none;stroke:red;stroke-width:1px;stroke-linecap:butt;stroke-linejoin:miter;stroke-opacity:1" d="M 665.962,373.643 684.821,373.643 z" id="boundary" inkscape:connector-curvature="0" />
	<path style="fill:none;stroke:red;stroke-width:1px;stroke-linecap:butt;stroke-linejoin:miter;stroke-opacity:1" d="M 588.639,618.814 598.068,635.787 z" id="boundary" inkscape:connector-curvature="0" />
	<path style="fill:none;stroke:red;stroke-width:1px;stroke-linecap:butt;stroke-linejoin:miter;stroke-opacity:1" d="M 598.068,635.787 601.84,654.646 z" id="boundary" inkscape:connector-curvature="0" />
	<path style="fill:none;stroke:red;stroke-width:1px;stroke-linecap:butt;stroke-linejoin:miter;stroke-opacity:1" d="M 626.357,682.935 611.27,671.62 z" id="boundary" inkscape:connector-curvature="0" />
	<path style="fill:none;stroke:red;stroke-width:1px;stroke-linecap:butt;stroke-linejoin:miter;stroke-opacity:1" d="M 611.27,671.62 601.84,654.646 z" id="boundary" inkscape:connector-curvature="0" />
	<path style="fill:none;stroke:red;stroke-width:1px;stroke-linecap:butt;stroke-linejoin:miter;stroke-opacity:1" d="M 626.357,682.935 635.787,699.909 z" id="boundary" inkscape:connector-curvature="0" />
	<path style="fill:none;stroke:red;stroke-width:1px;stroke-linecap:butt;stroke-linejoin:miter;stroke-opacity:1" d="M 647.103,735.741 637.673,718.768 z" id="boundary" inkscape:connector-curvature="0" />
	<path style="fill:none;stroke:red;stroke-width:1px;stroke-linecap:butt;stroke-linejoin:miter;stroke-opacity:1" d="M 637.673,718.768 635.787,699.909 z" id="boundary" inkscape:connector-curvature="0" />
	<path style="fill:none;stroke:red;stroke-width:1px;stroke-linecap:butt;stroke-linejoin:miter;stroke-opacity:1" d="M 647.103,735.741 654.646,754.601 z" id="boundary" inkscape:connector-curvature="0" />
	<path style="fill:none;stroke:red;stroke-width:1px;stroke-linecap:butt;stroke-linejoin:miter;stroke-opacity:1" d="M 654.646,754.601 664.076,771.574 z" id="boundary" inkscape:connector-curvature="0" />
	<path style="fill:none;stroke:red;stroke-width:1px;stroke-linecap:butt;stroke-linejoin:miter;stroke-opacity:1" d="M 664.076,771.574 673.506,788.548 z" id="boundary" inkscape:connector-curvature="0" />
	<path style="fill:none;stroke:red;stroke-width:1px;stroke-linecap:butt;stroke-linejoin:miter;stroke-opacity:1" d="M 682.935,516.973 684.821,535.833 z" id="boundary" inkscape:connector-curvature="0" />
	<path style="fill:none;stroke:red;stroke-width:1px;stroke-linecap:butt;stroke-linejoin:miter;stroke-opacity:1" d="M 699.909,360.441 684.821,373.643 z" id="boundary" inkscape:connector-curvature="0" />
	<path style="fill:none;stroke:red;stroke-width:1px;stroke-linecap:butt;stroke-linejoin:miter;stroke-opacity:1" d="M 713.11,586.753 703.681,569.779 z" id="boundary" inkscape:connector-curvature="0" />
	<path style="fill:none;stroke:red;stroke-width:1px;stroke-linecap:butt;stroke-linejoin:miter;stroke-opacity:1" d="M 703.681,569.779 696.137,550.92 z" id="boundary" inkscape:connector-curvature="0" />
	<path style="fill:none;stroke:red;stroke-width:1px;stroke-linecap:butt;stroke-linejoin:miter;stroke-opacity:1" d="M 741.399,326.494 731.97,345.354 z" id="boundary" inkscape:connector-curvature="0" />
	<path style="fill:none;stroke:red;stroke-width:1px;stroke-linecap:butt;stroke-linejoin:miter;stroke-opacity:1" d="M 731.97,345.354 713.11,345.354 z" id="boundary" inkscape:connector-curvature="0" />
	<path style="fill:none;stroke:red;stroke-width:1px;stroke-linecap:butt;stroke-linejoin:miter;stroke-opacity:1" d="M 735.741,618.814 722.54,603.726 z" id="boundary" inkscape:connector-curvature="0" />
	<path style="fill:none;stroke:red;stroke-width:1px;stroke-linecap:butt;stroke-linejoin:miter;stroke-opacity:1" d="M 722.54,603.726 713.11,586.753 z" id="boundary" inkscape:connector-curvature="0" />
	<path style="fill:none;stroke:red;stroke-width:1px;stroke-linecap:butt;stroke-linejoin:miter;stroke-opacity:1" d="M 750.829,632.015 735.741,618.814 z" id="boundary" inkscape:connector-curvature="0" />
	<path style="fill:none;stroke:red;stroke-width:1px;stroke-linecap:butt;stroke-linejoin:miter;stroke-opacity:1" d="M 699.909,360.441 713.11,345.354 z" id="boundary" inkscape:connector-curvature="0" />
	<path style="fill:none;stroke:red;stroke-width:1px;stroke-linecap:butt;stroke-linejoin:miter;stroke-opacity:1" d="M 739.513,745.171 720.654,750.829 z" id="boundary" inkscape:connector-curvature="0" />
	<path style="fill:none;stroke:red;stroke-width:1px;stroke-linecap:butt;stroke-linejoin:miter;stroke-opacity:1" d="M 703.681,760.259 684.821,769.688 z" id="boundary" inkscape:connector-curvature="0" />
	<path style="fill:none;stroke:red;stroke-width:1px;stroke-linecap:butt;stroke-linejoin:miter;stroke-opacity:1" d="M 720.654,750.829 703.681,760.259 z" id="boundary" inkscape:connector-curvature="0" />
	<path style="fill:none;stroke:red;stroke-width:1px;stroke-linecap:butt;stroke-linejoin:miter;stroke-opacity:1" d="M 750.829,632.015 750.829,650.875 z" id="boundary" inkscape:connector-curvature="0" />
	<path style="fill:none;stroke:red;stroke-width:1px;stroke-linecap:butt;stroke-linejoin:miter;stroke-opacity:1" d="M 760.259,667.848 769.688,684.821 z" id="boundary" inkscape:connector-curvature="0" />
	<path style="fill:none;stroke:red;stroke-width:1px;stroke-linecap:butt;stroke-linejoin:miter;stroke-opacity:1" d="M 760.259,667.848 750.829,650.875 z" id="boundary" inkscape:connector-curvature="0" />
	<path style="fill:none;stroke:red;stroke-width:1px;stroke-linecap:butt;stroke-linejoin:miter;stroke-opacity:1" d="M 758.373,735.741 739.513,745.171 z" id="boundary" inkscape:connector-curvature="0" />
	<path style="fill:none;stroke:red;stroke-width:1px;stroke-linecap:butt;stroke-linejoin:miter;stroke-opacity:1" d="M 779.118,701.795 777.232,726.312 z" id="boundary" inkscape:connector-curvature="0" />
	<path style="fill:none;stroke:red;stroke-width:1px;stroke-linecap:butt;stroke-linejoin:miter;stroke-opacity:1" d="M 777.232,726.312 758.373,735.741 z" id="boundary" inkscape:connector-curvature="0" />
	<path style="fill:none;stroke:red;stroke-width:1px;stroke-linecap:butt;stroke-linejoin:miter;stroke-opacity:1" d="M 769.688,684.821 779.118,701.795 z" id="boundary" inkscape:connector-curvature="0" />
	<circle cx="4" cy="509.43" r="4" fill="#0" id="circle0"/>
	<circle cx="4" cy="528.289" r="4" fill="#0" id="circle1"/>
	<circle cx="4" cy="547.148" r="4" fill="#0" id="circle2"/>
	<circle cx="13.4297" cy="575.437" r="4" fill="#0" id="circle3"/>
	<circle cx="13.4297" cy="594.297" r="4" fill="#0" id="circle4"/>
	<circle cx="19.0875" cy="494.342" r="4" fill="#0" id="circle5"/>
	<circle cx="22.8593" cy="543.376" r="4" fill="#0" id="circle6"/>
	<circle cx="28.5171" cy="562.236" r="4" fill="#0" id="circle7"/>
	<circle cx="32.289" cy="471.711" r="4" fill="#0" id="circle8"/>
	<circle cx="41.7186" cy="433.992" r="4" fill="#0" id="circle9"/>
	<circle cx="41.7186" cy="452.852" r="4" fill="#0" id="circle10"/>
	<circle cx="41.7186" cy="577.323" r="4" fill="#0" id="circle11"/>
	<circle cx="41.7186" cy="596.183" r="4" fill="#0" id="circle12"/>
	<circle cx="56.8061" cy="607.498" r="4" fill="#0" id="circle13"/>
	<circle cx="60.5779" cy="424.563" r="4" fill="#0" id="circle14"/>
	<circle cx="60.5779" cy="443.422" r="4" fill="#0" id="circle15"/>
	<circle cx="70.0076" cy="396.274" r="4" fill="#0" id="circle16"/>
	<circle cx="73.7795" cy="616.928" r="4" fill="#0" id="circle17"/>
	<circle cx="85.0951" cy="381.186" r="4" fill="#0" id="circle18"/>
	<circle cx="88.8669" cy="603.726" r="4" fill="#0" id="circle19"/>
	<circle cx="102.068" cy="371.757" r="4" fill="#0" id="circle20"/>
	<circle cx="107.726" cy="599.954" r="4" fill="#0" id="circle21"/>
	<circle cx="117.156" cy="358.555" r="4" fill="#0" id="circle22"/>
	<circle cx="126.586" cy="599.954" r="4" fill="#0" id="circle23"/>
	<circle cx="132.243" cy="343.468" r="4" fill="#0" id="circle24"/>
	<circle cx="136.015" cy="320.837" r="4" fill="#0" id="circle25"/>
	<circle cx="137.901" cy="581.095" r="4" fill="#0" id="circle26"/>
	<circle cx="151.103" cy="305.749" r="4" fill="#0" id="circle27"/>
	<circle cx="156.76" cy="571.665" r="4" fill="#0" id="circle28"/>
	<circle cx="168.076" cy="296.319" r="4" fill="#0" id="circle29"/>
	<circle cx="175.62" cy="562.236" r="4" fill="#0" id="circle30"/>
	<circle cx="183.163" cy="283.118" r="4" fill="#0" id="circle31"/>
	<circle cx="192.593" cy="264.259" r="4" fill="#0" id="circle32"/>
	<circle cx="194.479" cy="562.236" r="4" fill="#0" id="circle33"/>
	<circle cx="209.567" cy="549.034" r="4" fill="#0" id="circle34"/>
	<circle cx="211.452" cy="254.829" r="4" fill="#0" id="circle35"/>
	<circle cx="228.426" cy="543.376" r="4" fill="#0" id="circle36"/>
	<circle cx="230.312" cy="249.171" r="4" fill="#0" id="circle37"/>
	<circle cx="247.285" cy="539.605" r="4" fill="#0" id="circle38"/>
	<circle cx="249.171" cy="249.171" r="4" fill="#0" id="circle39"/>
	<circle cx="260.487" cy="515.087" r="4" fill="#0" id="circle40"/>
	<circle cx="268.03" cy="249.171" r="4" fill="#0" id="circle41"/>
	<circle cx="279.346" cy="515.087" r="4" fill="#0" id="circle42"/>
	<circle cx="286.89" cy="249.171" r="4" fill="#0" id="circle43"/>
	<circle cx="298.205" cy="515.087" r="4" fill="#0" id="circle44"/>
	<circle cx="305.749" cy="245.399" r="4" fill="#0" id="circle45"/>
	<circle cx="317.065" cy="515.087" r="4" fill="#0" id="circle46"/>
	<circle cx="324.608" cy="239.741" r="4" fill="#0" id="circle47"/>
	<circle cx="335.924" cy="515.087" r="4" fill="#0" id="circle48"/>
	<circle cx="343.468" cy="239.741" r="4" fill="#0" id="circle49"/>
	<circle cx="354.783" cy="515.087" r="4" fill="#0" id="circle50"/>
	<circle cx="362.327" cy="235.97" r="4" fill="#0" id="circle51"/>
	<circle cx="373.643" cy="515.087" r="4" fill="#0" id="circle52"/>
	<circle cx="381.186" cy="230.312" r="4" fill="#0" id="circle53"/>
	<circle cx="392.502" cy="515.087" r="4" fill="#0" id="circle54"/>
	<circle cx="400.046" cy="160.532" r="4" fill="#0" id="circle55"/>
	<circle cx="400.046" cy="179.392" r="4" fill="#0" id="circle56"/>
	<circle cx="400.046" cy="198.251" r="4" fill="#0" id="circle57"/>
	<circle cx="400.046" cy="217.11" r="4" fill="#0" id="circle58"/>
	<circle cx="409.475" cy="141.673" r="4" fill="#0" id="circle59"/>
	<circle cx="409.475" cy="505.658" r="4" fill="#0" id="circle60"/>
	<circle cx="428.335" cy="139.787" r="4" fill="#0" id="circle61"/>
	<circle cx="428.335" cy="500" r="4" fill="#0" id="circle62"/>
	<circle cx="435.878" cy="158.646" r="4" fill="#0" id="circle63"/>
	<circle cx="447.194" cy="496.228" r="4" fill="#0" id="circle64"/>
	<circle cx="454.738" cy="164.304" r="4" fill="#0" id="circle65"/>
	<circle cx="464.167" cy="486.798" r="4" fill="#0" id="circle66"/>
	<circle cx="471.711" cy="173.734" r="4" fill="#0" id="circle67"/>
	<circle cx="481.141" cy="475.483" r="4" fill="#0" id="circle68"/>
	<circle cx="490.57" cy="173.734" r="4" fill="#0" id="circle69"/>
	<circle cx="500" cy="467.939" r="4" fill="#0" id="circle70"/>
	<circle cx="507.544" cy="164.304" r="4" fill="#0" id="circle71"/>
	<circle cx="518.859" cy="467.939" r="4" fill="#0" id="circle72"/>
	<circle cx="522.631" cy="141.673" r="4" fill="#0" id="circle73"/>
	<circle cx="522.631" cy="486.798" r="4" fill="#0" id="circle74"/>
	<circle cx="532.061" cy="503.772" r="4" fill="#0" id="circle75"/>
	<circle cx="537.719" cy="126.586" r="4" fill="#0" id="circle76"/>
	<circle cx="541.49" cy="520.745" r="4" fill="#0" id="circle77"/>
	<circle cx="543.376" cy="539.605" r="4" fill="#0" id="circle78"/>
	<circle cx="552.806" cy="111.498" r="4" fill="#0" id="circle79"/>
	<circle cx="552.806" cy="556.578" r="4" fill="#0" id="circle80"/>
	<circle cx="569.779" cy="566.008" r="4" fill="#0" id="circle81"/>
	<circle cx="571.665" cy="102.068" r="4" fill="#0" id="circle82"/>
	<circle cx="579.209" cy="582.981" r="4" fill="#0" id="circle83"/>
	<circle cx="579.209" cy="601.84" r="4" fill="#0" id="circle84"/>
	<circle cx="586.753" cy="88.8669" r="4" fill="#0" id="circle85"/>
	<circle cx="588.639" cy="66.2357" r="4" fill="#0" id="circle86"/>
	<circle cx="588.639" cy="618.814" r="4" fill="#0" id="circle87"/>
	<circle cx="598.068" cy="635.787" r="4" fill="#0" id="circle88"/>
	<circle cx="601.84" cy="654.646" r="4" fill="#0" id="circle89"/>
	<circle cx="603.726" cy="51.1483" r="4" fill="#0" id="circle90"/>
	<circle cx="609.384" cy="411.361" r="4" fill="#0" id="circle91"/>
	<circle cx="611.27" cy="671.62" r="4" fill="#0" id="circle92"/>
	<circle cx="620.7" cy="41.7186" r="4" fill="#0" id="circle93"/>
	<circle cx="624.471" cy="422.677" r="4" fill="#0" id="circle94"/>
	<circle cx="626.357" cy="682.935" r="4" fill="#0" id="circle95"/>
	<circle cx="628.243" cy="392.502" r="4" fill="#0" id="circle96"/>
	<circle cx="633.901" cy="439.65" r="4" fill="#0" id="circle97"/>
	<circle cx="635.787" cy="699.909" r="4" fill="#0" id="circle98"/>
	<circle cx="637.673" cy="718.768" r="4" fill="#0" id="circle99"/>
	<circle cx="639.559" cy="41.7186" r="4" fill="#0" id="circle100"/>
	<circle cx="647.103" cy="383.072" r="4" fill="#0" id="circle101"/>
	<circle cx="647.103" cy="454.738" r="4" fill="#0" id="circle102"/>
	<circle cx="647.103" cy="473.597" r="4" fill="#0" id="circle103"/>
	<circle cx="647.103" cy="735.741" r="4" fill="#0" id="circle104"/>
	<circle cx="654.646" cy="754.601" r="4" fill="#0" id="circle105"/>
	<circle cx="656.532" cy="490.57" r="4" fill="#0" id="circle106"/>
	<circle cx="658.418" cy="34.1749" r="4" fill="#0" id="circle107"/>
	<circle cx="664.076" cy="771.574" r="4" fill="#0" id="circle108"/>
	<circle cx="665.962" cy="373.643" r="4" fill="#0" id="circle109"/>
	<circle cx="665.962" cy="507.544" r="4" fill="#0" id="circle110"/>
	<circle cx="673.506" cy="788.548" r="4" fill="#0" id="circle111"/>
	<circle cx="677.278" cy="32.289" r="4" fill="#0" id="circle112"/>
	<circle cx="682.935" cy="516.973" r="4" fill="#0" id="circle113"/>
	<circle cx="684.821" cy="373.643" r="4" fill="#0" id="circle114"/>
	<circle cx="684.821" cy="535.833" r="4" fill="#0" id="circle115"/>
	<circle cx="684.821" cy="769.688" r="4" fill="#0" id="circle116"/>
	<circle cx="696.137" cy="32.289" r="4" fill="#0" id="circle117"/>
	<circle cx="696.137" cy="550.92" r="4" fill="#0" id="circle118"/>
	<circle cx="699.909" cy="360.441" r="4" fill="#0" id="circle119"/>
	<circle cx="703.681" cy="569.779" r="4" fill="#0" id="circle120"/>
	<circle cx="703.681" cy="760.259" r="4" fill="#0" id="circle121"/>
	<circle cx="713.11" cy="345.354" r="4" fill="#0" id="circle122"/>
	<circle cx="713.11" cy="586.753" r="4" fill="#0" id="circle123"/>
	<circle cx="714.996" cy="32.289" r="4" fill="#0" id="circle124"/>
	<circle cx="720.654" cy="750.829" r="4" fill="#0" id="circle125"/>
	<circle cx="722.54" cy="603.726" r="4" fill="#0" id="circle126"/>
	<circle cx="731.97" cy="345.354" r="4" fill="#0" id="circle127"/>
	<circle cx="733.856" cy="32.289" r="4" fill="#0" id="circle128"/>
	<circle cx="735.741" cy="618.814" r="4" fill="#0" id="circle129"/>
	<circle cx="739.513" cy="745.171" r="4" fill="#0" id="circle130"/>
	<circle cx="741.399" cy="326.494" r="4" fill="#0" id="circle131"/>
	<circle cx="750.829" cy="632.015" r="4" fill="#0" id="circle132"/>
	<circle cx="750.829" cy="650.875" r="4" fill="#0" id="circle133"/>
	<circle cx="752.715" cy="32.289" r="4" fill="#0" id="circle134"/>
	<circle cx="756.487" cy="313.293" r="4" fill="#0" id="circle135"/>
	<circle cx="758.373" cy="735.741" r="4" fill="#0" id="circle136"/>
	<circle cx="760.259" cy="667.848" r="4" fill="#0" id="circle137"/>
	<circle cx="765.916" cy="294.433" r="4" fill="#0" id="circle138"/>
	<circle cx="769.688" cy="684.821" r="4" fill="#0" id="circle139"/>
	<circle cx="771.574" cy="24.7452" r="4" fill="#0" id="circle140"/>
	<circle cx="777.232" cy="726.312" r="4" fill="#0" id="circle141"/>
	<circle cx="779.118" cy="260.487" r="4" fill="#0" id="circle142"/>
	<circle cx="779.118" cy="279.346" r="4" fill="#0" id="circle143"/>
	<circle cx="779.118" cy="701.795" r="4" fill="#0" id="circle144"/>
	<circle cx="790.433" cy="22.8593" r="4" fill="#0" id="circle145"/>
	<circle cx="797.977" cy="251.057" r="4" fill="#0" id="circle146"/>
	<circle cx="805.521" cy="9.65779" r="4" fill="#0" id="circle147"/>
	<circle cx="807.407" cy="232.198" r="4" fill="#0" id="circle148"/>
	<circle cx="824.38" cy="4" r="4" fill="#0" id="circle149"/>
	<circle cx="826.266" cy="232.198" r="4" fill="#0" id="circle150"/>
	<circle cx="843.24" cy="4" r="4" fill="#0" id="circle151"/>
	<circle cx="843.24" cy="222.768" r="4" fill="#0" id="circle152"/>
	<circle cx="854.555" cy="24.7452" r="4" fill="#0" id="circle153"/>
	<circle cx="862.099" cy="217.11" r="4" fill="#0" id="circle154"/>
	<circle cx="873.414" cy="32.289" r="4" fill="#0" id="circle155"/>
	<circle cx="880.958" cy="207.681" r="4" fill="#0" id="circle156"/>
	<circle cx="892.274" cy="32.289" r="4" fill="#0" id="circle157"/>
	<circle cx="896.046" cy="194.479" r="4" fill="#0" id="circle158"/>
	<circle cx="911.133" cy="32.289" r="4" fill="#0" id="circle159"/>
	<circle cx="913.019" cy="185.049" r="4" fill="#0" id="circle160"/>
	<circle cx="929.992" cy="32.289" r="4" fill="#0" id="circle161"/>
	<circle cx="929.992" cy="175.62" r="4" fill="#0" id="circle162"/>
	<circle cx="946.966" cy="41.7186" r="4" fill="#0" id="circle163"/>
	<circle cx="948.852" cy="60.5779" r="4" fill="#0" id="circle164"/>
	<circle cx="948.852" cy="166.19" r="4" fill="#0" id="circle165"/>
	<circle cx="965.825" cy="41.7186" r="4" fill="#0" id="circle166"/>
	<circle cx="965.825" cy="70.0076" r="4" fill="#0" id="circle167"/>
	<circle cx="967.711" cy="137.901" r="4" fill="#0" id="circle168"/>
	<circle cx="967.711" cy="156.76" r="4" fill="#0" id="circle169"/>
	<circle cx="977.141" cy="90.7529" r="4" fill="#0" id="circle170"/>
	<circle cx="977.141" cy="119.042" r="4" fill="#0" id="circle171"/>
	<circle cx="984.684" cy="70.0076" r="4" fill="#0" id="circle172"/>
	<circle cx="996" cy="90.7529" r="4" fill="#0" id="circle173"/>
	<circle cx="996" cy="113.384" r="4" fill="#0" id="circle174"/>
	</g>
</svg>