<?xml version="1.0" encoding="UTF-8" standalone="no"?>
<!-- Created with CurveBenchmark -->
<svg
	xmlns:dc="http://purl.org/dc/elements/1.1/"
	xmlns:cc="http://creativecommons.org/ns#"
	xmlns:rdf="http://www.w3.org/1999/02/22-rdf-syntax-ns#"
	xmlns:svg="http://www.w3.org/2000/svg"
	xmlns="http://www.w3.org/2000/svg"
	xmlns:sodipodi="http://sodipodi.sourceforge.net/DTD/sodipodi-0.dtd"
	xmlns:inkscape="http://www.inkscape.org/namespaces/inkscape"
	width="1000"
	height="1000"
	id="svg2"
	version="1.1"
	sodipodi:docname="manifold/ccrust-face15.png.txt">
<defs
	id="defs4" />
<metadata
	id="metadata7">
	<rdf:RDF>
		<cc:Work
			rdf:about="">
			<dc:format>image/svg+xml</dc:format>
			<dc:type
				rdf:resource="http://purl.org/dc/dcmitype/StillImage" />
			<dc:title></dc:title>
		</cc:Work>
	</rdf:RDF>
</metadata>
<g
	inkscape:label="Layer 1"
	inkscape:groupmode="layer"
	id="layer1">
	<path style="fill:none;stroke:red;stroke-width:1px;stroke-linecap:butt;stroke-linejoin:miter;stroke-opacity:1" d="M 44.5892,228.052 44.5892,244.288 z" id="boundary" inkscape:connector-curvature="0" />
	<path style="fill:none;stroke:red;stroke-width:1px;stroke-linecap:butt;stroke-linejoin:miter;stroke-opacity:1" d="M 44.5892,228.052 52.707,203.699 z" id="boundary" inkscape:connector-curvature="0" />
	<path style="fill:none;stroke:red;stroke-width:1px;stroke-linecap:butt;stroke-linejoin:miter;stroke-opacity:1" d="M 44.5892,260.524 44.5892,276.759 z" id="boundary" inkscape:connector-curvature="0" />
	<path style="fill:none;stroke:red;stroke-width:1px;stroke-linecap:butt;stroke-linejoin:miter;stroke-opacity:1" d="M 44.5892,260.524 44.5892,244.288 z" id="boundary" inkscape:connector-curvature="0" />
	<path style="fill:none;stroke:red;stroke-width:1px;stroke-linecap:butt;stroke-linejoin:miter;stroke-opacity:1" d="M 44.5892,309.231 44.5892,292.995 z" id="boundary" inkscape:connector-curvature="0" />
	<path style="fill:none;stroke:red;stroke-width:1px;stroke-linecap:butt;stroke-linejoin:miter;stroke-opacity:1" d="M 44.5892,292.995 44.5892,276.759 z" id="boundary" inkscape:connector-curvature="0" />
	<path style="fill:none;stroke:red;stroke-width:1px;stroke-linecap:butt;stroke-linejoin:miter;stroke-opacity:1" d="M 44.5892,309.231 44.5892,325.466 z" id="boundary" inkscape:connector-curvature="0" />
	<path style="fill:none;stroke:red;stroke-width:1px;stroke-linecap:butt;stroke-linejoin:miter;stroke-opacity:1" d="M 44.5892,341.702 44.5892,325.466 z" id="boundary" inkscape:connector-curvature="0" />
	<path style="fill:none;stroke:red;stroke-width:1px;stroke-linecap:butt;stroke-linejoin:miter;stroke-opacity:1" d="M 44.5892,357.938 44.5892,341.702 z" id="boundary" inkscape:connector-curvature="0" />
	<path style="fill:none;stroke:red;stroke-width:1px;stroke-linecap:butt;stroke-linejoin:miter;stroke-opacity:1" d="M 4,455.352 4,439.116 z" id="boundary" inkscape:connector-curvature="0" />
	<path style="fill:none;stroke:red;stroke-width:1px;stroke-linecap:butt;stroke-linejoin:miter;stroke-opacity:1" d="M 4,439.116 16.9885,426.128 z" id="boundary" inkscape:connector-curvature="0" />
	<path style="fill:none;stroke:red;stroke-width:1px;stroke-linecap:butt;stroke-linejoin:miter;stroke-opacity:1" d="M 4,487.823 4,471.588 z" id="boundary" inkscape:connector-curvature="0" />
	<path style="fill:none;stroke:red;stroke-width:1px;stroke-linecap:butt;stroke-linejoin:miter;stroke-opacity:1" d="M 4,471.588 4,455.352 z" id="boundary" inkscape:connector-curvature="0" />
	<path style="fill:none;stroke:red;stroke-width:1px;stroke-linecap:butt;stroke-linejoin:miter;stroke-opacity:1" d="M 44.5892,357.938 44.5892,374.173 z" id="boundary" inkscape:connector-curvature="0" />
	<path style="fill:none;stroke:red;stroke-width:1px;stroke-linecap:butt;stroke-linejoin:miter;stroke-opacity:1" d="M 29.9771,413.139 16.9885,426.128 z" id="boundary" inkscape:connector-curvature="0" />
	<path style="fill:none;stroke:red;stroke-width:1px;stroke-linecap:butt;stroke-linejoin:miter;stroke-opacity:1" d="M 42.9656,401.774 29.9771,413.139 z" id="boundary" inkscape:connector-curvature="0" />
	<path style="fill:none;stroke:red;stroke-width:1px;stroke-linecap:butt;stroke-linejoin:miter;stroke-opacity:1" d="M 44.5892,374.173 42.9656,401.774 z" id="boundary" inkscape:connector-curvature="0" />
	<path style="fill:none;stroke:red;stroke-width:1px;stroke-linecap:butt;stroke-linejoin:miter;stroke-opacity:1" d="M 52.707,203.699 60.8249,187.463 z" id="boundary" inkscape:connector-curvature="0" />
	<path style="fill:none;stroke:red;stroke-width:1px;stroke-linecap:butt;stroke-linejoin:miter;stroke-opacity:1" d="M 234.547,36.4714 219.935,44.5892 z" id="boundary" inkscape:connector-curvature="0" />
	<path style="fill:none;stroke:red;stroke-width:1px;stroke-linecap:butt;stroke-linejoin:miter;stroke-opacity:1" d="M 219.935,44.5892 203.699,44.5892 z" id="boundary" inkscape:connector-curvature="0" />
	<path style="fill:none;stroke:red;stroke-width:1px;stroke-linecap:butt;stroke-linejoin:miter;stroke-opacity:1" d="M 249.159,28.3535 234.547,36.4714 z" id="boundary" inkscape:connector-curvature="0" />
	<path style="fill:none;stroke:red;stroke-width:1px;stroke-linecap:butt;stroke-linejoin:miter;stroke-opacity:1" d="M 187.463,52.707 203.699,44.5892 z" id="boundary" inkscape:connector-curvature="0" />
	<path style="fill:none;stroke:red;stroke-width:1px;stroke-linecap:butt;stroke-linejoin:miter;stroke-opacity:1" d="M 297.866,7.24714 314.101,4 z" id="boundary" inkscape:connector-curvature="0" />
	<path style="fill:none;stroke:red;stroke-width:1px;stroke-linecap:butt;stroke-linejoin:miter;stroke-opacity:1" d="M 281.63,15.365 297.866,7.24714 z" id="boundary" inkscape:connector-curvature="0" />
	<path style="fill:none;stroke:red;stroke-width:1px;stroke-linecap:butt;stroke-linejoin:miter;stroke-opacity:1" d="M 281.63,15.365 265.394,23.4828 z" id="boundary" inkscape:connector-curvature="0" />
	<path style="fill:none;stroke:red;stroke-width:1px;stroke-linecap:butt;stroke-linejoin:miter;stroke-opacity:1" d="M 265.394,23.4828 249.159,28.3535 z" id="boundary" inkscape:connector-curvature="0" />
	<path style="fill:none;stroke:red;stroke-width:1px;stroke-linecap:butt;stroke-linejoin:miter;stroke-opacity:1" d="M 81.9313,158.239 93.2962,130.638 z" id="boundary" inkscape:connector-curvature="0" />
	<path style="fill:none;stroke:red;stroke-width:1px;stroke-linecap:butt;stroke-linejoin:miter;stroke-opacity:1" d="M 101.414,114.403 93.2962,130.638 z" id="boundary" inkscape:connector-curvature="0" />
	<path style="fill:none;stroke:red;stroke-width:1px;stroke-linecap:butt;stroke-linejoin:miter;stroke-opacity:1" d="M 60.8249,187.463 68.9427,171.227 z" id="boundary" inkscape:connector-curvature="0" />
	<path style="fill:none;stroke:red;stroke-width:1px;stroke-linecap:butt;stroke-linejoin:miter;stroke-opacity:1" d="M 68.9427,171.227 81.9313,158.239 z" id="boundary" inkscape:connector-curvature="0" />
	<path style="fill:none;stroke:red;stroke-width:1px;stroke-linecap:butt;stroke-linejoin:miter;stroke-opacity:1" d="M 101.414,114.403 114.403,101.414 z" id="boundary" inkscape:connector-curvature="0" />
	<path style="fill:none;stroke:red;stroke-width:1px;stroke-linecap:butt;stroke-linejoin:miter;stroke-opacity:1" d="M 171.227,60.8249 187.463,52.707 z" id="boundary" inkscape:connector-curvature="0" />
	<path style="fill:none;stroke:red;stroke-width:1px;stroke-linecap:butt;stroke-linejoin:miter;stroke-opacity:1" d="M 158.239,73.8134 171.227,60.8249 z" id="boundary" inkscape:connector-curvature="0" />
	<path style="fill:none;stroke:red;stroke-width:1px;stroke-linecap:butt;stroke-linejoin:miter;stroke-opacity:1" d="M 114.403,101.414 129.015,93.2962 z" id="boundary" inkscape:connector-curvature="0" />
	<path style="fill:none;stroke:red;stroke-width:1px;stroke-linecap:butt;stroke-linejoin:miter;stroke-opacity:1" d="M 143.627,85.1784 129.015,93.2962 z" id="boundary" inkscape:connector-curvature="0" />
	<path style="fill:none;stroke:red;stroke-width:1px;stroke-linecap:butt;stroke-linejoin:miter;stroke-opacity:1" d="M 158.239,73.8134 143.627,85.1784 z" id="boundary" inkscape:connector-curvature="0" />
	<path style="fill:none;stroke:red;stroke-width:1px;stroke-linecap:butt;stroke-linejoin:miter;stroke-opacity:1" d="M 4,504.059 12.1178,518.671 z" id="boundary" inkscape:connector-curvature="0" />
	<path style="fill:none;stroke:red;stroke-width:1px;stroke-linecap:butt;stroke-linejoin:miter;stroke-opacity:1" d="M 4,504.059 4,487.823 z" id="boundary" inkscape:connector-curvature="0" />
	<path style="fill:none;stroke:red;stroke-width:1px;stroke-linecap:butt;stroke-linejoin:miter;stroke-opacity:1" d="M 23.4828,531.66 28.3535,547.895 z" id="boundary" inkscape:connector-curvature="0" />
	<path style="fill:none;stroke:red;stroke-width:1px;stroke-linecap:butt;stroke-linejoin:miter;stroke-opacity:1" d="M 12.1178,518.671 23.4828,531.66 z" id="boundary" inkscape:connector-curvature="0" />
	<path style="fill:none;stroke:red;stroke-width:1px;stroke-linecap:butt;stroke-linejoin:miter;stroke-opacity:1" d="M 36.4714,562.507 28.3535,547.895 z" id="boundary" inkscape:connector-curvature="0" />
	<path style="fill:none;stroke:red;stroke-width:1px;stroke-linecap:butt;stroke-linejoin:miter;stroke-opacity:1" d="M 36.4714,562.507 44.5892,577.119 z" id="boundary" inkscape:connector-curvature="0" />
	<path style="fill:none;stroke:red;stroke-width:1px;stroke-linecap:butt;stroke-linejoin:miter;stroke-opacity:1" d="M 57.5777,588.484 44.5892,577.119 z" id="boundary" inkscape:connector-curvature="0" />
	<path style="fill:none;stroke:red;stroke-width:1px;stroke-linecap:butt;stroke-linejoin:miter;stroke-opacity:1" d="M 77.0606,614.462 64.072,604.72 z" id="boundary" inkscape:connector-curvature="0" />
	<path style="fill:none;stroke:red;stroke-width:1px;stroke-linecap:butt;stroke-linejoin:miter;stroke-opacity:1" d="M 64.072,604.72 57.5777,588.484 z" id="boundary" inkscape:connector-curvature="0" />
	<path style="fill:none;stroke:red;stroke-width:1px;stroke-linecap:butt;stroke-linejoin:miter;stroke-opacity:1" d="M 91.6727,622.579 77.0606,614.462 z" id="boundary" inkscape:connector-curvature="0" />
	<path style="fill:none;stroke:red;stroke-width:1px;stroke-linecap:butt;stroke-linejoin:miter;stroke-opacity:1" d="M 103.038,635.568 111.155,650.18 z" id="boundary" inkscape:connector-curvature="0" />
	<path style="fill:none;stroke:red;stroke-width:1px;stroke-linecap:butt;stroke-linejoin:miter;stroke-opacity:1" d="M 117.65,666.416 111.155,650.18 z" id="boundary" inkscape:connector-curvature="0" />
	<path style="fill:none;stroke:red;stroke-width:1px;stroke-linecap:butt;stroke-linejoin:miter;stroke-opacity:1" d="M 125.768,681.028 117.65,666.416 z" id="boundary" inkscape:connector-curvature="0" />
	<path style="fill:none;stroke:red;stroke-width:1px;stroke-linecap:butt;stroke-linejoin:miter;stroke-opacity:1" d="M 91.6727,622.579 103.038,635.568 z" id="boundary" inkscape:connector-curvature="0" />
	<path style="fill:none;stroke:red;stroke-width:1px;stroke-linecap:butt;stroke-linejoin:miter;stroke-opacity:1" d="M 125.768,681.028 125.768,697.264 z" id="boundary" inkscape:connector-curvature="0" />
	<path style="fill:none;stroke:red;stroke-width:1px;stroke-linecap:butt;stroke-linejoin:miter;stroke-opacity:1" d="M 125.768,713.499 125.768,697.264 z" id="boundary" inkscape:connector-curvature="0" />
	<path style="fill:none;stroke:red;stroke-width:1px;stroke-linecap:butt;stroke-linejoin:miter;stroke-opacity:1" d="M 125.768,713.499 125.768,729.735 z" id="boundary" inkscape:connector-curvature="0" />
	<path style="fill:none;stroke:red;stroke-width:1px;stroke-linecap:butt;stroke-linejoin:miter;stroke-opacity:1" d="M 125.768,745.971 125.768,729.735 z" id="boundary" inkscape:connector-curvature="0" />
	<path style="fill:none;stroke:red;stroke-width:1px;stroke-linecap:butt;stroke-linejoin:miter;stroke-opacity:1" d="M 125.768,762.206 125.768,745.971 z" id="boundary" inkscape:connector-curvature="0" />
	<path style="fill:none;stroke:red;stroke-width:1px;stroke-linecap:butt;stroke-linejoin:miter;stroke-opacity:1" d="M 125.768,762.206 125.768,778.442 z" id="boundary" inkscape:connector-curvature="0" />
	<path style="fill:none;stroke:red;stroke-width:1px;stroke-linecap:butt;stroke-linejoin:miter;stroke-opacity:1" d="M 125.768,835.267 117.65,820.655 z" id="boundary" inkscape:connector-curvature="0" />
	<path style="fill:none;stroke:red;stroke-width:1px;stroke-linecap:butt;stroke-linejoin:miter;stroke-opacity:1" d="M 117.65,820.655 125.768,794.678 z" id="boundary" inkscape:connector-curvature="0" />
	<path style="fill:none;stroke:red;stroke-width:1px;stroke-linecap:butt;stroke-linejoin:miter;stroke-opacity:1" d="M 137.133,848.255 125.768,835.267 z" id="boundary" inkscape:connector-curvature="0" />
	<path style="fill:none;stroke:red;stroke-width:1px;stroke-linecap:butt;stroke-linejoin:miter;stroke-opacity:1" d="M 125.768,794.678 125.768,778.442 z" id="boundary" inkscape:connector-curvature="0" />
	<path style="fill:none;stroke:red;stroke-width:1px;stroke-linecap:butt;stroke-linejoin:miter;stroke-opacity:1" d="M 145.25,862.867 151.745,879.103 z" id="boundary" inkscape:connector-curvature="0" />
	<path style="fill:none;stroke:red;stroke-width:1px;stroke-linecap:butt;stroke-linejoin:miter;stroke-opacity:1" d="M 145.25,862.867 137.133,848.255 z" id="boundary" inkscape:connector-curvature="0" />
	<path style="fill:none;stroke:red;stroke-width:1px;stroke-linecap:butt;stroke-linejoin:miter;stroke-opacity:1" d="M 151.745,879.103 159.863,893.715 z" id="boundary" inkscape:connector-curvature="0" />
	<path style="fill:none;stroke:red;stroke-width:1px;stroke-linecap:butt;stroke-linejoin:miter;stroke-opacity:1" d="M 159.863,893.715 166.357,909.951 z" id="boundary" inkscape:connector-curvature="0" />
	<path style="fill:none;stroke:red;stroke-width:1px;stroke-linecap:butt;stroke-linejoin:miter;stroke-opacity:1" d="M 179.345,921.316 166.357,909.951 z" id="boundary" inkscape:connector-curvature="0" />
	<path style="fill:none;stroke:red;stroke-width:1px;stroke-linecap:butt;stroke-linejoin:miter;stroke-opacity:1" d="M 179.345,921.316 190.71,934.304 z" id="boundary" inkscape:connector-curvature="0" />
	<path style="fill:none;stroke:red;stroke-width:1px;stroke-linecap:butt;stroke-linejoin:miter;stroke-opacity:1" d="M 206.946,939.175 190.71,934.304 z" id="boundary" inkscape:connector-curvature="0" />
	<path style="fill:none;stroke:red;stroke-width:1px;stroke-linecap:butt;stroke-linejoin:miter;stroke-opacity:1" d="M 244.288,971.646 229.676,963.529 z" id="boundary" inkscape:connector-curvature="0" />
	<path style="fill:none;stroke:red;stroke-width:1px;stroke-linecap:butt;stroke-linejoin:miter;stroke-opacity:1" d="M 229.676,963.529 216.687,952.164 z" id="boundary" inkscape:connector-curvature="0" />
	<path style="fill:none;stroke:red;stroke-width:1px;stroke-linecap:butt;stroke-linejoin:miter;stroke-opacity:1" d="M 216.687,952.164 206.946,939.175 z" id="boundary" inkscape:connector-curvature="0" />
	<path style="fill:none;stroke:red;stroke-width:1px;stroke-linecap:butt;stroke-linejoin:miter;stroke-opacity:1" d="M 304.36,991.129 288.124,996 z" id="boundary" inkscape:connector-curvature="0" />
	<path style="fill:none;stroke:red;stroke-width:1px;stroke-linecap:butt;stroke-linejoin:miter;stroke-opacity:1" d="M 288.124,996 273.512,987.882 z" id="boundary" inkscape:connector-curvature="0" />
	<path style="fill:none;stroke:red;stroke-width:1px;stroke-linecap:butt;stroke-linejoin:miter;stroke-opacity:1" d="M 273.512,987.882 258.9,979.764 z" id="boundary" inkscape:connector-curvature="0" />
	<path style="fill:none;stroke:red;stroke-width:1px;stroke-linecap:butt;stroke-linejoin:miter;stroke-opacity:1" d="M 304.36,991.129 320.596,987.882 z" id="boundary" inkscape:connector-curvature="0" />
	<path style="fill:none;stroke:red;stroke-width:1px;stroke-linecap:butt;stroke-linejoin:miter;stroke-opacity:1" d="M 258.9,979.764 244.288,971.646 z" id="boundary" inkscape:connector-curvature="0" />
	<path style="fill:none;stroke:red;stroke-width:1px;stroke-linecap:butt;stroke-linejoin:miter;stroke-opacity:1" d="M 314.101,4 330.337,4 z" id="boundary" inkscape:connector-curvature="0" />
	<path style="fill:none;stroke:red;stroke-width:1px;stroke-linecap:butt;stroke-linejoin:miter;stroke-opacity:1" d="M 330.337,4 346.573,4 z" id="boundary" inkscape:connector-curvature="0" />
	<path style="fill:none;stroke:red;stroke-width:1px;stroke-linecap:butt;stroke-linejoin:miter;stroke-opacity:1" d="M 346.573,4 361.185,12.1178 z" id="boundary" inkscape:connector-curvature="0" />
	<path style="fill:none;stroke:red;stroke-width:1px;stroke-linecap:butt;stroke-linejoin:miter;stroke-opacity:1" d="M 361.185,12.1178 377.421,12.1178 z" id="boundary" inkscape:connector-curvature="0" />
	<path style="fill:none;stroke:red;stroke-width:1px;stroke-linecap:butt;stroke-linejoin:miter;stroke-opacity:1" d="M 377.421,12.1178 392.033,20.2357 z" id="boundary" inkscape:connector-curvature="0" />
	<path style="fill:none;stroke:red;stroke-width:1px;stroke-linecap:butt;stroke-linejoin:miter;stroke-opacity:1" d="M 392.033,20.2357 406.645,28.3535 z" id="boundary" inkscape:connector-curvature="0" />
	<path style="fill:none;stroke:red;stroke-width:1px;stroke-linecap:butt;stroke-linejoin:miter;stroke-opacity:1" d="M 406.645,28.3535 411.516,44.5892 z" id="boundary" inkscape:connector-curvature="0" />
	<path style="fill:none;stroke:red;stroke-width:1px;stroke-linecap:butt;stroke-linejoin:miter;stroke-opacity:1" d="M 427.751,49.4599 411.516,44.5892 z" id="boundary" inkscape:connector-curvature="0" />
	<path style="fill:none;stroke:red;stroke-width:1px;stroke-linecap:butt;stroke-linejoin:miter;stroke-opacity:1" d="M 443.987,52.707 427.751,49.4599 z" id="boundary" inkscape:connector-curvature="0" />
	<path style="fill:none;stroke:red;stroke-width:1px;stroke-linecap:butt;stroke-linejoin:miter;stroke-opacity:1" d="M 460.223,52.707 443.987,52.707 z" id="boundary" inkscape:connector-curvature="0" />
	<path style="fill:none;stroke:red;stroke-width:1px;stroke-linecap:butt;stroke-linejoin:miter;stroke-opacity:1" d="M 474.835,60.8249 489.447,68.9427 z" id="boundary" inkscape:connector-curvature="0" />
	<path style="fill:none;stroke:red;stroke-width:1px;stroke-linecap:butt;stroke-linejoin:miter;stroke-opacity:1" d="M 489.447,68.9427 504.059,77.0606 z" id="boundary" inkscape:connector-curvature="0" />
	<path style="fill:none;stroke:red;stroke-width:1px;stroke-linecap:butt;stroke-linejoin:miter;stroke-opacity:1" d="M 518.671,85.1784 533.283,93.2962 z" id="boundary" inkscape:connector-curvature="0" />
	<path style="fill:none;stroke:red;stroke-width:1px;stroke-linecap:butt;stroke-linejoin:miter;stroke-opacity:1" d="M 533.283,93.2962 541.401,107.908 z" id="boundary" inkscape:connector-curvature="0" />
	<path style="fill:none;stroke:red;stroke-width:1px;stroke-linecap:butt;stroke-linejoin:miter;stroke-opacity:1" d="M 541.401,107.908 554.39,119.273 z" id="boundary" inkscape:connector-curvature="0" />
	<path style="fill:none;stroke:red;stroke-width:1px;stroke-linecap:butt;stroke-linejoin:miter;stroke-opacity:1" d="M 554.39,119.273 560.884,135.509 z" id="boundary" inkscape:connector-curvature="0" />
	<path style="fill:none;stroke:red;stroke-width:1px;stroke-linecap:butt;stroke-linejoin:miter;stroke-opacity:1" d="M 504.059,77.0606 518.671,85.1784 z" id="boundary" inkscape:connector-curvature="0" />
	<path style="fill:none;stroke:red;stroke-width:1px;stroke-linecap:butt;stroke-linejoin:miter;stroke-opacity:1" d="M 460.223,52.707 474.835,60.8249 z" id="boundary" inkscape:connector-curvature="0" />
	<path style="fill:none;stroke:red;stroke-width:1px;stroke-linecap:butt;stroke-linejoin:miter;stroke-opacity:1" d="M 565.755,151.745 565.755,167.98 z" id="boundary" inkscape:connector-curvature="0" />
	<path style="fill:none;stroke:red;stroke-width:1px;stroke-linecap:butt;stroke-linejoin:miter;stroke-opacity:1" d="M 560.884,135.509 565.755,151.745 z" id="boundary" inkscape:connector-curvature="0" />
	<path style="fill:none;stroke:red;stroke-width:1px;stroke-linecap:butt;stroke-linejoin:miter;stroke-opacity:1" d="M 573.872,182.592 565.755,167.98 z" id="boundary" inkscape:connector-curvature="0" />
	<path style="fill:none;stroke:red;stroke-width:1px;stroke-linecap:butt;stroke-linejoin:miter;stroke-opacity:1" d="M 573.872,182.592 573.872,198.828 z" id="boundary" inkscape:connector-curvature="0" />
	<path style="fill:none;stroke:red;stroke-width:1px;stroke-linecap:butt;stroke-linejoin:miter;stroke-opacity:1" d="M 573.872,198.828 573.872,215.064 z" id="boundary" inkscape:connector-curvature="0" />
	<path style="fill:none;stroke:red;stroke-width:1px;stroke-linecap:butt;stroke-linejoin:miter;stroke-opacity:1" d="M 573.872,215.064 573.872,231.3 z" id="boundary" inkscape:connector-curvature="0" />
	<path style="fill:none;stroke:red;stroke-width:1px;stroke-linecap:butt;stroke-linejoin:miter;stroke-opacity:1" d="M 573.872,247.535 573.872,263.771 z" id="boundary" inkscape:connector-curvature="0" />
	<path style="fill:none;stroke:red;stroke-width:1px;stroke-linecap:butt;stroke-linejoin:miter;stroke-opacity:1" d="M 573.872,280.007 573.872,263.771 z" id="boundary" inkscape:connector-curvature="0" />
	<path style="fill:none;stroke:red;stroke-width:1px;stroke-linecap:butt;stroke-linejoin:miter;stroke-opacity:1" d="M 573.872,247.535 573.872,231.3 z" id="boundary" inkscape:connector-curvature="0" />
	<path style="fill:none;stroke:red;stroke-width:1px;stroke-linecap:butt;stroke-linejoin:miter;stroke-opacity:1" d="M 573.872,280.007 573.872,296.242 z" id="boundary" inkscape:connector-curvature="0" />
	<path style="fill:none;stroke:red;stroke-width:1px;stroke-linecap:butt;stroke-linejoin:miter;stroke-opacity:1" d="M 573.872,296.242 573.872,312.478 z" id="boundary" inkscape:connector-curvature="0" />
	<path style="fill:none;stroke:red;stroke-width:1px;stroke-linecap:butt;stroke-linejoin:miter;stroke-opacity:1" d="M 573.872,328.714 573.872,344.949 z" id="boundary" inkscape:connector-curvature="0" />
	<path style="fill:none;stroke:red;stroke-width:1px;stroke-linecap:butt;stroke-linejoin:miter;stroke-opacity:1" d="M 573.872,361.185 573.872,344.949 z" id="boundary" inkscape:connector-curvature="0" />
	<path style="fill:none;stroke:red;stroke-width:1px;stroke-linecap:butt;stroke-linejoin:miter;stroke-opacity:1" d="M 573.872,328.714 573.872,312.478 z" id="boundary" inkscape:connector-curvature="0" />
	<path style="fill:none;stroke:red;stroke-width:1px;stroke-linecap:butt;stroke-linejoin:miter;stroke-opacity:1" d="M 573.872,377.421 581.99,392.033 z" id="boundary" inkscape:connector-curvature="0" />
	<path style="fill:none;stroke:red;stroke-width:1px;stroke-linecap:butt;stroke-linejoin:miter;stroke-opacity:1" d="M 573.872,377.421 573.872,361.185 z" id="boundary" inkscape:connector-curvature="0" />
	<path style="fill:none;stroke:red;stroke-width:1px;stroke-linecap:butt;stroke-linejoin:miter;stroke-opacity:1" d="M 590.108,406.645 598.226,421.257 z" id="boundary" inkscape:connector-curvature="0" />
	<path style="fill:none;stroke:red;stroke-width:1px;stroke-linecap:butt;stroke-linejoin:miter;stroke-opacity:1" d="M 598.226,421.257 603.097,437.493 z" id="boundary" inkscape:connector-curvature="0" />
	<path style="fill:none;stroke:red;stroke-width:1px;stroke-linecap:butt;stroke-linejoin:miter;stroke-opacity:1" d="M 581.99,392.033 590.108,406.645 z" id="boundary" inkscape:connector-curvature="0" />
	<path style="fill:none;stroke:red;stroke-width:1px;stroke-linecap:butt;stroke-linejoin:miter;stroke-opacity:1" d="M 606.344,453.728 603.097,437.493 z" id="boundary" inkscape:connector-curvature="0" />
	<path style="fill:none;stroke:red;stroke-width:1px;stroke-linecap:butt;stroke-linejoin:miter;stroke-opacity:1" d="M 473.211,870.985 476.458,849.879 z" id="boundary" inkscape:connector-curvature="0" />
	<path style="fill:none;stroke:red;stroke-width:1px;stroke-linecap:butt;stroke-linejoin:miter;stroke-opacity:1" d="M 476.458,849.879 484.576,833.643 z" id="boundary" inkscape:connector-curvature="0" />
	<path style="fill:none;stroke:red;stroke-width:1px;stroke-linecap:butt;stroke-linejoin:miter;stroke-opacity:1" d="M 460.223,882.35 473.211,870.985 z" id="boundary" inkscape:connector-curvature="0" />
	<path style="fill:none;stroke:red;stroke-width:1px;stroke-linecap:butt;stroke-linejoin:miter;stroke-opacity:1" d="M 448.858,903.457 460.223,882.35 z" id="boundary" inkscape:connector-curvature="0" />
	<path style="fill:none;stroke:red;stroke-width:1px;stroke-linecap:butt;stroke-linejoin:miter;stroke-opacity:1" d="M 484.576,817.408 484.576,833.643 z" id="boundary" inkscape:connector-curvature="0" />
	<path style="fill:none;stroke:red;stroke-width:1px;stroke-linecap:butt;stroke-linejoin:miter;stroke-opacity:1" d="M 492.694,768.7 492.694,784.936 z" id="boundary" inkscape:connector-curvature="0" />
	<path style="fill:none;stroke:red;stroke-width:1px;stroke-linecap:butt;stroke-linejoin:miter;stroke-opacity:1" d="M 492.694,768.7 492.694,752.465 z" id="boundary" inkscape:connector-curvature="0" />
	<path style="fill:none;stroke:red;stroke-width:1px;stroke-linecap:butt;stroke-linejoin:miter;stroke-opacity:1" d="M 492.694,752.465 500.812,736.229 z" id="boundary" inkscape:connector-curvature="0" />
	<path style="fill:none;stroke:red;stroke-width:1px;stroke-linecap:butt;stroke-linejoin:miter;stroke-opacity:1" d="M 484.576,817.408 492.694,801.172 z" id="boundary" inkscape:connector-curvature="0" />
	<path style="fill:none;stroke:red;stroke-width:1px;stroke-linecap:butt;stroke-linejoin:miter;stroke-opacity:1" d="M 492.694,784.936 492.694,801.172 z" id="boundary" inkscape:connector-curvature="0" />
	<path style="fill:none;stroke:red;stroke-width:1px;stroke-linecap:butt;stroke-linejoin:miter;stroke-opacity:1" d="M 379.044,955.411 364.432,963.529 z" id="boundary" inkscape:connector-curvature="0" />
	<path style="fill:none;stroke:red;stroke-width:1px;stroke-linecap:butt;stroke-linejoin:miter;stroke-opacity:1" d="M 335.208,979.764 320.596,987.882 z" id="boundary" inkscape:connector-curvature="0" />
	<path style="fill:none;stroke:red;stroke-width:1px;stroke-linecap:butt;stroke-linejoin:miter;stroke-opacity:1" d="M 349.82,971.646 335.208,979.764 z" id="boundary" inkscape:connector-curvature="0" />
	<path style="fill:none;stroke:red;stroke-width:1px;stroke-linecap:butt;stroke-linejoin:miter;stroke-opacity:1" d="M 364.432,963.529 349.82,971.646 z" id="boundary" inkscape:connector-curvature="0" />
	<path style="fill:none;stroke:red;stroke-width:1px;stroke-linecap:butt;stroke-linejoin:miter;stroke-opacity:1" d="M 435.869,914.822 419.633,922.939 z" id="boundary" inkscape:connector-curvature="0" />
	<path style="fill:none;stroke:red;stroke-width:1px;stroke-linecap:butt;stroke-linejoin:miter;stroke-opacity:1" d="M 419.633,922.939 406.645,937.552 z" id="boundary" inkscape:connector-curvature="0" />
	<path style="fill:none;stroke:red;stroke-width:1px;stroke-linecap:butt;stroke-linejoin:miter;stroke-opacity:1" d="M 406.645,937.552 393.656,947.293 z" id="boundary" inkscape:connector-curvature="0" />
	<path style="fill:none;stroke:red;stroke-width:1px;stroke-linecap:butt;stroke-linejoin:miter;stroke-opacity:1" d="M 393.656,947.293 379.044,955.411 z" id="boundary" inkscape:connector-curvature="0" />
	<path style="fill:none;stroke:red;stroke-width:1px;stroke-linecap:butt;stroke-linejoin:miter;stroke-opacity:1" d="M 448.858,903.457 435.869,914.822 z" id="boundary" inkscape:connector-curvature="0" />
	<path style="fill:none;stroke:red;stroke-width:1px;stroke-linecap:butt;stroke-linejoin:miter;stroke-opacity:1" d="M 590.108,549.519 598.226,533.283 z" id="boundary" inkscape:connector-curvature="0" />
	<path style="fill:none;stroke:red;stroke-width:1px;stroke-linecap:butt;stroke-linejoin:miter;stroke-opacity:1" d="M 590.108,565.755 590.108,549.519 z" id="boundary" inkscape:connector-curvature="0" />
	<path style="fill:none;stroke:red;stroke-width:1px;stroke-linecap:butt;stroke-linejoin:miter;stroke-opacity:1" d="M 578.743,578.743 590.108,565.755 z" id="boundary" inkscape:connector-curvature="0" />
	<path style="fill:none;stroke:red;stroke-width:1px;stroke-linecap:butt;stroke-linejoin:miter;stroke-opacity:1" d="M 598.226,533.283 606.344,518.671 z" id="boundary" inkscape:connector-curvature="0" />
	<path style="fill:none;stroke:red;stroke-width:1px;stroke-linecap:butt;stroke-linejoin:miter;stroke-opacity:1" d="M 606.344,486.2 606.344,502.435 z" id="boundary" inkscape:connector-curvature="0" />
	<path style="fill:none;stroke:red;stroke-width:1px;stroke-linecap:butt;stroke-linejoin:miter;stroke-opacity:1" d="M 606.344,502.435 606.344,518.671 z" id="boundary" inkscape:connector-curvature="0" />
	<path style="fill:none;stroke:red;stroke-width:1px;stroke-linecap:butt;stroke-linejoin:miter;stroke-opacity:1" d="M 606.344,469.964 606.344,486.2 z" id="boundary" inkscape:connector-curvature="0" />
	<path style="fill:none;stroke:red;stroke-width:1px;stroke-linecap:butt;stroke-linejoin:miter;stroke-opacity:1" d="M 578.743,578.743 565.755,590.108 z" id="boundary" inkscape:connector-curvature="0" />
	<path style="fill:none;stroke:red;stroke-width:1px;stroke-linecap:butt;stroke-linejoin:miter;stroke-opacity:1" d="M 525.165,711.876 525.165,695.64 z" id="boundary" inkscape:connector-curvature="0" />
	<path style="fill:none;stroke:red;stroke-width:1px;stroke-linecap:butt;stroke-linejoin:miter;stroke-opacity:1" d="M 525.165,695.64 533.283,671.286 z" id="boundary" inkscape:connector-curvature="0" />
	<path style="fill:none;stroke:red;stroke-width:1px;stroke-linecap:butt;stroke-linejoin:miter;stroke-opacity:1" d="M 513.8,724.864 500.812,736.229 z" id="boundary" inkscape:connector-curvature="0" />
	<path style="fill:none;stroke:red;stroke-width:1px;stroke-linecap:butt;stroke-linejoin:miter;stroke-opacity:1" d="M 525.165,711.876 513.8,724.864 z" id="boundary" inkscape:connector-curvature="0" />
	<path style="fill:none;stroke:red;stroke-width:1px;stroke-linecap:butt;stroke-linejoin:miter;stroke-opacity:1" d="M 533.283,655.051 533.283,671.286 z" id="boundary" inkscape:connector-curvature="0" />
	<path style="fill:none;stroke:red;stroke-width:1px;stroke-linecap:butt;stroke-linejoin:miter;stroke-opacity:1" d="M 549.519,598.226 565.755,590.108 z" id="boundary" inkscape:connector-curvature="0" />
	<path style="fill:none;stroke:red;stroke-width:1px;stroke-linecap:butt;stroke-linejoin:miter;stroke-opacity:1" d="M 541.401,614.462 549.519,598.226 z" id="boundary" inkscape:connector-curvature="0" />
	<path style="fill:none;stroke:red;stroke-width:1px;stroke-linecap:butt;stroke-linejoin:miter;stroke-opacity:1" d="M 533.283,655.051 541.401,630.697 z" id="boundary" inkscape:connector-curvature="0" />
	<path style="fill:none;stroke:red;stroke-width:1px;stroke-linecap:butt;stroke-linejoin:miter;stroke-opacity:1" d="M 541.401,614.462 541.401,630.697 z" id="boundary" inkscape:connector-curvature="0" />
	<path style="fill:none;stroke:red;stroke-width:1px;stroke-linecap:butt;stroke-linejoin:miter;stroke-opacity:1" d="M 606.344,453.728 606.344,469.964 z" id="boundary" inkscape:connector-curvature="0" />
	<circle cx="4" cy="439.116" r="4" fill="#0" id="circle0"/>
	<circle cx="4" cy="455.352" r="4" fill="#0" id="circle1"/>
	<circle cx="4" cy="471.588" r="4" fill="#0" id="circle2"/>
	<circle cx="4" cy="487.823" r="4" fill="#0" id="circle3"/>
	<circle cx="4" cy="504.059" r="4" fill="#0" id="circle4"/>
	<circle cx="12.1178" cy="518.671" r="4" fill="#0" id="circle5"/>
	<circle cx="16.9885" cy="426.128" r="4" fill="#0" id="circle6"/>
	<circle cx="23.4828" cy="531.66" r="4" fill="#0" id="circle7"/>
	<circle cx="28.3535" cy="547.895" r="4" fill="#0" id="circle8"/>
	<circle cx="29.9771" cy="413.139" r="4" fill="#0" id="circle9"/>
	<circle cx="36.4714" cy="562.507" r="4" fill="#0" id="circle10"/>
	<circle cx="42.9656" cy="401.774" r="4" fill="#0" id="circle11"/>
	<circle cx="44.5892" cy="228.052" r="4" fill="#0" id="circle12"/>
	<circle cx="44.5892" cy="244.288" r="4" fill="#0" id="circle13"/>
	<circle cx="44.5892" cy="260.524" r="4" fill="#0" id="circle14"/>
	<circle cx="44.5892" cy="276.759" r="4" fill="#0" id="circle15"/>
	<circle cx="44.5892" cy="292.995" r="4" fill="#0" id="circle16"/>
	<circle cx="44.5892" cy="309.231" r="4" fill="#0" id="circle17"/>
	<circle cx="44.5892" cy="325.466" r="4" fill="#0" id="circle18"/>
	<circle cx="44.5892" cy="341.702" r="4" fill="#0" id="circle19"/>
	<circle cx="44.5892" cy="357.938" r="4" fill="#0" id="circle20"/>
	<circle cx="44.5892" cy="374.173" r="4" fill="#0" id="circle21"/>
	<circle cx="44.5892" cy="577.119" r="4" fill="#0" id="circle22"/>
	<circle cx="52.707" cy="203.699" r="4" fill="#0" id="circle23"/>
	<circle cx="57.5777" cy="588.484" r="4" fill="#0" id="circle24"/>
	<circle cx="60.8249" cy="187.463" r="4" fill="#0" id="circle25"/>
	<circle cx="64.072" cy="604.72" r="4" fill="#0" id="circle26"/>
	<circle cx="68.9427" cy="171.227" r="4" fill="#0" id="circle27"/>
	<circle cx="77.0606" cy="614.462" r="4" fill="#0" id="circle28"/>
	<circle cx="81.9313" cy="158.239" r="4" fill="#0" id="circle29"/>
	<circle cx="91.6727" cy="622.579" r="4" fill="#0" id="circle30"/>
	<circle cx="93.2962" cy="130.638" r="4" fill="#0" id="circle31"/>
	<circle cx="101.414" cy="114.403" r="4" fill="#0" id="circle32"/>
	<circle cx="103.038" cy="635.568" r="4" fill="#0" id="circle33"/>
	<circle cx="111.155" cy="650.18" r="4" fill="#0" id="circle34"/>
	<circle cx="114.403" cy="101.414" r="4" fill="#0" id="circle35"/>
	<circle cx="117.65" cy="666.416" r="4" fill="#0" id="circle36"/>
	<circle cx="117.65" cy="820.655" r="4" fill="#0" id="circle37"/>
	<circle cx="125.768" cy="681.028" r="4" fill="#0" id="circle38"/>
	<circle cx="125.768" cy="697.264" r="4" fill="#0" id="circle39"/>
	<circle cx="125.768" cy="713.499" r="4" fill="#0" id="circle40"/>
	<circle cx="125.768" cy="729.735" r="4" fill="#0" id="circle41"/>
	<circle cx="125.768" cy="745.971" r="4" fill="#0" id="circle42"/>
	<circle cx="125.768" cy="762.206" r="4" fill="#0" id="circle43"/>
	<circle cx="125.768" cy="778.442" r="4" fill="#0" id="circle44"/>
	<circle cx="125.768" cy="794.678" r="4" fill="#0" id="circle45"/>
	<circle cx="125.768" cy="835.267" r="4" fill="#0" id="circle46"/>
	<circle cx="129.015" cy="93.2962" r="4" fill="#0" id="circle47"/>
	<circle cx="137.133" cy="848.255" r="4" fill="#0" id="circle48"/>
	<circle cx="143.627" cy="85.1784" r="4" fill="#0" id="circle49"/>
	<circle cx="145.25" cy="862.867" r="4" fill="#0" id="circle50"/>
	<circle cx="151.745" cy="879.103" r="4" fill="#0" id="circle51"/>
	<circle cx="158.239" cy="73.8134" r="4" fill="#0" id="circle52"/>
	<circle cx="159.863" cy="893.715" r="4" fill="#0" id="circle53"/>
	<circle cx="166.357" cy="909.951" r="4" fill="#0" id="circle54"/>
	<circle cx="171.227" cy="60.8249" r="4" fill="#0" id="circle55"/>
	<circle cx="179.345" cy="921.316" r="4" fill="#0" id="circle56"/>
	<circle cx="187.463" cy="52.707" r="4" fill="#0" id="circle57"/>
	<circle cx="190.71" cy="934.304" r="4" fill="#0" id="circle58"/>
	<circle cx="203.699" cy="44.5892" r="4" fill="#0" id="circle59"/>
	<circle cx="206.946" cy="939.175" r="4" fill="#0" id="circle60"/>
	<circle cx="216.687" cy="952.164" r="4" fill="#0" id="circle61"/>
	<circle cx="219.935" cy="44.5892" r="4" fill="#0" id="circle62"/>
	<circle cx="229.676" cy="963.529" r="4" fill="#0" id="circle63"/>
	<circle cx="234.547" cy="36.4714" r="4" fill="#0" id="circle64"/>
	<circle cx="244.288" cy="971.646" r="4" fill="#0" id="circle65"/>
	<circle cx="249.159" cy="28.3535" r="4" fill="#0" id="circle66"/>
	<circle cx="258.9" cy="979.764" r="4" fill="#0" id="circle67"/>
	<circle cx="265.394" cy="23.4828" r="4" fill="#0" id="circle68"/>
	<circle cx="273.512" cy="987.882" r="4" fill="#0" id="circle69"/>
	<circle cx="281.63" cy="15.365" r="4" fill="#0" id="circle70"/>
	<circle cx="288.124" cy="996" r="4" fill="#0" id="circle71"/>
	<circle cx="297.866" cy="7.24714" r="4" fill="#0" id="circle72"/>
	<circle cx="304.36" cy="991.129" r="4" fill="#0" id="circle73"/>
	<circle cx="314.101" cy="4" r="4" fill="#0" id="circle74"/>
	<circle cx="320.596" cy="987.882" r="4" fill="#0" id="circle75"/>
	<circle cx="330.337" cy="4" r="4" fill="#0" id="circle76"/>
	<circle cx="335.208" cy="979.764" r="4" fill="#0" id="circle77"/>
	<circle cx="346.573" cy="4" r="4" fill="#0" id="circle78"/>
	<circle cx="349.82" cy="971.646" r="4" fill="#0" id="circle79"/>
	<circle cx="361.185" cy="12.1178" r="4" fill="#0" id="circle80"/>
	<circle cx="364.432" cy="963.529" r="4" fill="#0" id="circle81"/>
	<circle cx="377.421" cy="12.1178" r="4" fill="#0" id="circle82"/>
	<circle cx="379.044" cy="955.411" r="4" fill="#0" id="circle83"/>
	<circle cx="392.033" cy="20.2357" r="4" fill="#0" id="circle84"/>
	<circle cx="393.656" cy="947.293" r="4" fill="#0" id="circle85"/>
	<circle cx="406.645" cy="28.3535" r="4" fill="#0" id="circle86"/>
	<circle cx="406.645" cy="937.552" r="4" fill="#0" id="circle87"/>
	<circle cx="411.516" cy="44.5892" r="4" fill="#0" id="circle88"/>
	<circle cx="419.633" cy="922.939" r="4" fill="#0" id="circle89"/>
	<circle cx="427.751" cy="49.4599" r="4" fill="#0" id="circle90"/>
	<circle cx="435.869" cy="914.822" r="4" fill="#0" id="circle91"/>
	<circle cx="443.987" cy="52.707" r="4" fill="#0" id="circle92"/>
	<circle cx="448.858" cy="903.457" r="4" fill="#0" id="circle93"/>
	<circle cx="460.223" cy="52.707" r="4" fill="#0" id="circle94"/>
	<circle cx="460.223" cy="882.35" r="4" fill="#0" id="circle95"/>
	<circle cx="473.211" cy="870.985" r="4" fill="#0" id="circle96"/>
	<circle cx="474.835" cy="60.8249" r="4" fill="#0" id="circle97"/>
	<circle cx="476.458" cy="849.879" r="4" fill="#0" id="circle98"/>
	<circle cx="484.576" cy="817.408" r="4" fill="#0" id="circle99"/>
	<circle cx="484.576" cy="833.643" r="4" fill="#0" id="circle100"/>
	<circle cx="489.447" cy="68.9427" r="4" fill="#0" id="circle101"/>
	<circle cx="492.694" cy="752.465" r="4" fill="#0" id="circle102"/>
	<circle cx="492.694" cy="768.7" r="4" fill="#0" id="circle103"/>
	<circle cx="492.694" cy="784.936" r="4" fill="#0" id="circle104"/>
	<circle cx="492.694" cy="801.172" r="4" fill="#0" id="circle105"/>
	<circle cx="500.812" cy="736.229" r="4" fill="#0" id="circle106"/>
	<circle cx="504.059" cy="77.0606" r="4" fill="#0" id="circle107"/>
	<circle cx="513.8" cy="724.864" r="4" fill="#0" id="circle108"/>
	<circle cx="518.671" cy="85.1784" r="4" fill="#0" id="circle109"/>
	<circle cx="525.165" cy="695.64" r="4" fill="#0" id="circle110"/>
	<circle cx="525.165" cy="711.876" r="4" fill="#0" id="circle111"/>
	<circle cx="533.283" cy="93.2962" r="4" fill="#0" id="circle112"/>
	<circle cx="533.283" cy="655.051" r="4" fill="#0" id="circle113"/>
	<circle cx="533.283" cy="671.286" r="4" fill="#0" id="circle114"/>
	<circle cx="541.401" cy="107.908" r="4" fill="#0" id="circle115"/>
	<circle cx="541.401" cy="614.462" r="4" fill="#0" id="circle116"/>
	<circle cx="541.401" cy="630.697" r="4" fill="#0" id="circle117"/>
	<circle cx="549.519" cy="598.226" r="4" fill="#0" id="circle118"/>
	<circle cx="554.39" cy="119.273" r="4" fill="#0" id="circle119"/>
	<circle cx="560.884" cy="135.509" r="4" fill="#0" id="circle120"/>
	<circle cx="565.755" cy="151.745" r="4" fill="#0" id="circle121"/>
	<circle cx="565.755" cy="167.98" r="4" fill="#0" id="circle122"/>
	<circle cx="565.755" cy="590.108" r="4" fill="#0" id="circle123"/>
	<circle cx="573.872" cy="182.592" r="4" fill="#0" id="circle124"/>
	<circle cx="573.872" cy="198.828" r="4" fill="#0" id="circle125"/>
	<circle cx="573.872" cy="215.064" r="4" fill="#0" id="circle126"/>
	<circle cx="573.872" cy="231.3" r="4" fill="#0" id="circle127"/>
	<circle cx="573.872" cy="247.535" r="4" fill="#0" id="circle128"/>
	<circle cx="573.872" cy="263.771" r="4" fill="#0" id="circle129"/>
	<circle cx="573.872" cy="280.007" r="4" fill="#0" id="circle130"/>
	<circle cx="573.872" cy="296.242" r="4" fill="#0" id="circle131"/>
	<circle cx="573.872" cy="312.478" r="4" fill="#0" id="circle132"/>
	<circle cx="573.872" cy="328.714" r="4" fill="#0" id="circle133"/>
	<circle cx="573.872" cy="344.949" r="4" fill="#0" id="circle134"/>
	<circle cx="573.872" cy="361.185" r="4" fill="#0" id="circle135"/>
	<circle cx="573.872" cy="377.421" r="4" fill="#0" id="circle136"/>
	<circle cx="578.743" cy="578.743" r="4" fill="#0" id="circle137"/>
	<circle cx="581.99" cy="392.033" r="4" fill="#0" id="circle138"/>
	<circle cx="590.108" cy="406.645" r="4" fill="#0" id="circle139"/>
	<circle cx="590.108" cy="549.519" r="4" fill="#0" id="circle140"/>
	<circle cx="590.108" cy="565.755" r="4" fill="#0" id="circle141"/>
	<circle cx="598.226" cy="421.257" r="4" fill="#0" id="circle142"/>
	<circle cx="598.226" cy="533.283" r="4" fill="#0" id="circle143"/>
	<circle cx="603.097" cy="437.493" r="4" fill="#0" id="circle144"/>
	<circle cx="606.344" cy="453.728" r="4" fill="#0" id="circle145"/>
	<circle cx="606.344" cy="469.964" r="4" fill="#0" id="circle146"/>
	<circle cx="606.344" cy="486.2" r="4" fill="#0" id="circle147"/>
	<circle cx="606.344" cy="502.435" r="4" fill="#0" id="circle148"/>
	<circle cx="606.344" cy="518.671" r="4" fill="#0" id="circle149"/>
	</g>
</svg>