<?xml version="1.0" encoding="UTF-8" standalone="no"?>
<!-- Created with CurveBenchmark -->
<svg
	xmlns:dc="http://purl.org/dc/elements/1.1/"
	xmlns:cc="http://creativecommons.org/ns#"
	xmlns:rdf="http://www.w3.org/1999/02/22-rdf-syntax-ns#"
	xmlns:svg="http://www.w3.org/2000/svg"
	xmlns="http://www.w3.org/2000/svg"
	xmlns:sodipodi="http://sodipodi.sourceforge.net/DTD/sodipodi-0.dtd"
	xmlns:inkscape="http://www.inkscape.org/namespaces/inkscape"
	width="1000"
	height="1000"
	id="svg2"
	version="1.1"
	sodipodi:docname="manifold/ccrust-fork13.png.txt">
<defs
	id="defs4" />
<metadata
	id="metadata7">
	<rdf:RDF>
		<cc:Work
			rdf:about="">
			<dc:format>image/svg+xml</dc:format>
			<dc:type
				rdf:resource="http://purl.org/dc/dcmitype/StillImage" />
			<dc:title></dc:title>
		</cc:Work>
	</rdf:RDF>
</metadata>
<g
	inkscape:label="Layer 1"
	inkscape:groupmode="layer"
	id="layer1">
	<path style="fill:none;stroke:red;stroke-width:1px;stroke-linecap:butt;stroke-linejoin:miter;stroke-opacity:1" d="M 31.8652,33.7228 46.7266,18.8614 z" id="boundary" inkscape:connector-curvature="0" />
	<path style="fill:none;stroke:red;stroke-width:1px;stroke-linecap:butt;stroke-linejoin:miter;stroke-opacity:1" d="M 46.7266,18.8614 65.3034,18.8614 z" id="boundary" inkscape:connector-curvature="0" />
	<path style="fill:none;stroke:red;stroke-width:1px;stroke-linecap:butt;stroke-linejoin:miter;stroke-opacity:1" d="M 80.1648,4 65.3034,18.8614 z" id="boundary" inkscape:connector-curvature="0" />
	<path style="fill:none;stroke:red;stroke-width:1px;stroke-linecap:butt;stroke-linejoin:miter;stroke-opacity:1" d="M 31.8652,69.0187 22.5768,52.2996 z" id="boundary" inkscape:connector-curvature="0" />
	<path style="fill:none;stroke:red;stroke-width:1px;stroke-linecap:butt;stroke-linejoin:miter;stroke-opacity:1" d="M 22.5768,52.2996 31.8652,33.7228 z" id="boundary" inkscape:connector-curvature="0" />
	<path style="fill:none;stroke:red;stroke-width:1px;stroke-linecap:butt;stroke-linejoin:miter;stroke-opacity:1" d="M 50.4419,76.4494 31.8652,69.0187 z" id="boundary" inkscape:connector-curvature="0" />
	<path style="fill:none;stroke:red;stroke-width:1px;stroke-linecap:butt;stroke-linejoin:miter;stroke-opacity:1" d="M 67.161,85.7378 50.4419,76.4494 z" id="boundary" inkscape:connector-curvature="0" />
	<path style="fill:none;stroke:red;stroke-width:1px;stroke-linecap:butt;stroke-linejoin:miter;stroke-opacity:1" d="M 134.037,18.8614 115.461,18.8614 z" id="boundary" inkscape:connector-curvature="0" />
	<path style="fill:none;stroke:red;stroke-width:1px;stroke-linecap:butt;stroke-linejoin:miter;stroke-opacity:1" d="M 115.461,18.8614 96.8839,13.2884 z" id="boundary" inkscape:connector-curvature="0" />
	<path style="fill:none;stroke:red;stroke-width:1px;stroke-linecap:butt;stroke-linejoin:miter;stroke-opacity:1" d="M 96.8839,13.2884 80.1648,4 z" id="boundary" inkscape:connector-curvature="0" />
	<path style="fill:none;stroke:red;stroke-width:1px;stroke-linecap:butt;stroke-linejoin:miter;stroke-opacity:1" d="M 67.161,85.7378 85.7378,85.7378 z" id="boundary" inkscape:connector-curvature="0" />
	<path style="fill:none;stroke:red;stroke-width:1px;stroke-linecap:butt;stroke-linejoin:miter;stroke-opacity:1" d="M 121.034,95.0262 102.457,95.0262 z" id="boundary" inkscape:connector-curvature="0" />
	<path style="fill:none;stroke:red;stroke-width:1px;stroke-linecap:butt;stroke-linejoin:miter;stroke-opacity:1" d="M 102.457,95.0262 85.7378,85.7378 z" id="boundary" inkscape:connector-curvature="0" />
	<path style="fill:none;stroke:red;stroke-width:1px;stroke-linecap:butt;stroke-linejoin:miter;stroke-opacity:1" d="M 13.2884,163.76 13.2884,145.184 z" id="boundary" inkscape:connector-curvature="0" />
	<path style="fill:none;stroke:red;stroke-width:1px;stroke-linecap:butt;stroke-linejoin:miter;stroke-opacity:1" d="M 13.2884,145.184 31.8652,135.895 z" id="boundary" inkscape:connector-curvature="0" />
	<path style="fill:none;stroke:red;stroke-width:1px;stroke-linecap:butt;stroke-linejoin:miter;stroke-opacity:1" d="M 50.4419,130.322 31.8652,135.895 z" id="boundary" inkscape:connector-curvature="0" />
	<path style="fill:none;stroke:red;stroke-width:1px;stroke-linecap:butt;stroke-linejoin:miter;stroke-opacity:1" d="M 28.1498,176.764 13.2884,163.76 z" id="boundary" inkscape:connector-curvature="0" />
	<path style="fill:none;stroke:red;stroke-width:1px;stroke-linecap:butt;stroke-linejoin:miter;stroke-opacity:1" d="M 46.7266,178.622 28.1498,176.764 z" id="boundary" inkscape:connector-curvature="0" />
	<path style="fill:none;stroke:red;stroke-width:1px;stroke-linecap:butt;stroke-linejoin:miter;stroke-opacity:1" d="M 50.4419,130.322 69.0187,130.322 z" id="boundary" inkscape:connector-curvature="0" />
	<path style="fill:none;stroke:red;stroke-width:1px;stroke-linecap:butt;stroke-linejoin:miter;stroke-opacity:1" d="M 69.0187,130.322 87.5955,130.322 z" id="boundary" inkscape:connector-curvature="0" />
	<path style="fill:none;stroke:red;stroke-width:1px;stroke-linecap:butt;stroke-linejoin:miter;stroke-opacity:1" d="M 106.172,130.322 87.5955,130.322 z" id="boundary" inkscape:connector-curvature="0" />
	<path style="fill:none;stroke:red;stroke-width:1px;stroke-linecap:butt;stroke-linejoin:miter;stroke-opacity:1" d="M 63.4457,187.91 82.0225,187.91 z" id="boundary" inkscape:connector-curvature="0" />
	<path style="fill:none;stroke:red;stroke-width:1px;stroke-linecap:butt;stroke-linejoin:miter;stroke-opacity:1" d="M 100.599,187.91 82.0225,187.91 z" id="boundary" inkscape:connector-curvature="0" />
	<path style="fill:none;stroke:red;stroke-width:1px;stroke-linecap:butt;stroke-linejoin:miter;stroke-opacity:1" d="M 106.172,130.322 122.891,139.61 z" id="boundary" inkscape:connector-curvature="0" />
	<path style="fill:none;stroke:red;stroke-width:1px;stroke-linecap:butt;stroke-linejoin:miter;stroke-opacity:1" d="M 63.4457,187.91 46.7266,178.622 z" id="boundary" inkscape:connector-curvature="0" />
	<path style="fill:none;stroke:red;stroke-width:1px;stroke-linecap:butt;stroke-linejoin:miter;stroke-opacity:1" d="M 134.037,18.8614 152.614,22.5768 z" id="boundary" inkscape:connector-curvature="0" />
	<path style="fill:none;stroke:red;stroke-width:1px;stroke-linecap:butt;stroke-linejoin:miter;stroke-opacity:1" d="M 243.64,37.4382 225.064,37.4382 z" id="boundary" inkscape:connector-curvature="0" />
	<path style="fill:none;stroke:red;stroke-width:1px;stroke-linecap:butt;stroke-linejoin:miter;stroke-opacity:1" d="M 152.614,22.5768 171.191,28.1498 z" id="boundary" inkscape:connector-curvature="0" />
	<path style="fill:none;stroke:red;stroke-width:1px;stroke-linecap:butt;stroke-linejoin:miter;stroke-opacity:1" d="M 139.61,102.457 121.034,95.0262 z" id="boundary" inkscape:connector-curvature="0" />
	<path style="fill:none;stroke:red;stroke-width:1px;stroke-linecap:butt;stroke-linejoin:miter;stroke-opacity:1" d="M 158.187,104.315 139.61,102.457 z" id="boundary" inkscape:connector-curvature="0" />
	<path style="fill:none;stroke:red;stroke-width:1px;stroke-linecap:butt;stroke-linejoin:miter;stroke-opacity:1" d="M 171.191,28.1498 187.91,37.4382 z" id="boundary" inkscape:connector-curvature="0" />
	<path style="fill:none;stroke:red;stroke-width:1px;stroke-linecap:butt;stroke-linejoin:miter;stroke-opacity:1" d="M 187.91,37.4382 206.487,37.4382 z" id="boundary" inkscape:connector-curvature="0" />
	<path style="fill:none;stroke:red;stroke-width:1px;stroke-linecap:butt;stroke-linejoin:miter;stroke-opacity:1" d="M 225.064,37.4382 206.487,37.4382 z" id="boundary" inkscape:connector-curvature="0" />
	<path style="fill:none;stroke:red;stroke-width:1px;stroke-linecap:butt;stroke-linejoin:miter;stroke-opacity:1" d="M 193.483,113.603 176.764,104.315 z" id="boundary" inkscape:connector-curvature="0" />
	<path style="fill:none;stroke:red;stroke-width:1px;stroke-linecap:butt;stroke-linejoin:miter;stroke-opacity:1" d="M 212.06,119.176 193.483,113.603 z" id="boundary" inkscape:connector-curvature="0" />
	<path style="fill:none;stroke:red;stroke-width:1px;stroke-linecap:butt;stroke-linejoin:miter;stroke-opacity:1" d="M 230.637,113.603 212.06,119.176 z" id="boundary" inkscape:connector-curvature="0" />
	<path style="fill:none;stroke:red;stroke-width:1px;stroke-linecap:butt;stroke-linejoin:miter;stroke-opacity:1" d="M 158.187,104.315 176.764,104.315 z" id="boundary" inkscape:connector-curvature="0" />
	<path style="fill:none;stroke:red;stroke-width:1px;stroke-linecap:butt;stroke-linejoin:miter;stroke-opacity:1" d="M 234.352,148.899 215.775,148.899 z" id="boundary" inkscape:connector-curvature="0" />
	<path style="fill:none;stroke:red;stroke-width:1px;stroke-linecap:butt;stroke-linejoin:miter;stroke-opacity:1" d="M 122.891,139.61 141.468,139.61 z" id="boundary" inkscape:connector-curvature="0" />
	<path style="fill:none;stroke:red;stroke-width:1px;stroke-linecap:butt;stroke-linejoin:miter;stroke-opacity:1" d="M 160.045,139.61 141.468,139.61 z" id="boundary" inkscape:connector-curvature="0" />
	<path style="fill:none;stroke:red;stroke-width:1px;stroke-linecap:butt;stroke-linejoin:miter;stroke-opacity:1" d="M 117.318,197.199 135.895,197.199 z" id="boundary" inkscape:connector-curvature="0" />
	<path style="fill:none;stroke:red;stroke-width:1px;stroke-linecap:butt;stroke-linejoin:miter;stroke-opacity:1" d="M 154.472,197.199 135.895,197.199 z" id="boundary" inkscape:connector-curvature="0" />
	<path style="fill:none;stroke:red;stroke-width:1px;stroke-linecap:butt;stroke-linejoin:miter;stroke-opacity:1" d="M 160.045,139.61 178.622,141.468 z" id="boundary" inkscape:connector-curvature="0" />
	<path style="fill:none;stroke:red;stroke-width:1px;stroke-linecap:butt;stroke-linejoin:miter;stroke-opacity:1" d="M 117.318,197.199 100.599,187.91 z" id="boundary" inkscape:connector-curvature="0" />
	<path style="fill:none;stroke:red;stroke-width:1px;stroke-linecap:butt;stroke-linejoin:miter;stroke-opacity:1" d="M 197.199,148.899 178.622,141.468 z" id="boundary" inkscape:connector-curvature="0" />
	<path style="fill:none;stroke:red;stroke-width:1px;stroke-linecap:butt;stroke-linejoin:miter;stroke-opacity:1" d="M 215.775,148.899 197.199,148.899 z" id="boundary" inkscape:connector-curvature="0" />
	<path style="fill:none;stroke:red;stroke-width:1px;stroke-linecap:butt;stroke-linejoin:miter;stroke-opacity:1" d="M 171.191,206.487 154.472,197.199 z" id="boundary" inkscape:connector-curvature="0" />
	<path style="fill:none;stroke:red;stroke-width:1px;stroke-linecap:butt;stroke-linejoin:miter;stroke-opacity:1" d="M 171.191,206.487 189.768,206.487 z" id="boundary" inkscape:connector-curvature="0" />
	<path style="fill:none;stroke:red;stroke-width:1px;stroke-linecap:butt;stroke-linejoin:miter;stroke-opacity:1" d="M 208.345,206.487 189.768,206.487 z" id="boundary" inkscape:connector-curvature="0" />
	<path style="fill:none;stroke:red;stroke-width:1px;stroke-linecap:butt;stroke-linejoin:miter;stroke-opacity:1" d="M 225.064,215.775 208.345,206.487 z" id="boundary" inkscape:connector-curvature="0" />
	<path style="fill:none;stroke:red;stroke-width:1px;stroke-linecap:butt;stroke-linejoin:miter;stroke-opacity:1" d="M 13.2884,228.779 28.1498,213.918 z" id="boundary" inkscape:connector-curvature="0" />
	<path style="fill:none;stroke:red;stroke-width:1px;stroke-linecap:butt;stroke-linejoin:miter;stroke-opacity:1" d="M 28.1498,213.918 46.7266,213.918 z" id="boundary" inkscape:connector-curvature="0" />
	<path style="fill:none;stroke:red;stroke-width:1px;stroke-linecap:butt;stroke-linejoin:miter;stroke-opacity:1" d="M 13.2884,247.356 13.2884,228.779 z" id="boundary" inkscape:connector-curvature="0" />
	<path style="fill:none;stroke:red;stroke-width:1px;stroke-linecap:butt;stroke-linejoin:miter;stroke-opacity:1" d="M 43.0112,265.933 24.4345,262.217 z" id="boundary" inkscape:connector-curvature="0" />
	<path style="fill:none;stroke:red;stroke-width:1px;stroke-linecap:butt;stroke-linejoin:miter;stroke-opacity:1" d="M 24.4345,262.217 13.2884,247.356 z" id="boundary" inkscape:connector-curvature="0" />
	<path style="fill:none;stroke:red;stroke-width:1px;stroke-linecap:butt;stroke-linejoin:miter;stroke-opacity:1" d="M 46.7266,213.918 65.3034,213.918 z" id="boundary" inkscape:connector-curvature="0" />
	<path style="fill:none;stroke:red;stroke-width:1px;stroke-linecap:butt;stroke-linejoin:miter;stroke-opacity:1" d="M 82.0225,223.206 65.3034,213.918 z" id="boundary" inkscape:connector-curvature="0" />
	<path style="fill:none;stroke:red;stroke-width:1px;stroke-linecap:butt;stroke-linejoin:miter;stroke-opacity:1" d="M 100.599,223.206 82.0225,223.206 z" id="boundary" inkscape:connector-curvature="0" />
	<path style="fill:none;stroke:red;stroke-width:1px;stroke-linecap:butt;stroke-linejoin:miter;stroke-opacity:1" d="M 61.588,271.506 80.1648,271.506 z" id="boundary" inkscape:connector-curvature="0" />
	<path style="fill:none;stroke:red;stroke-width:1px;stroke-linecap:butt;stroke-linejoin:miter;stroke-opacity:1" d="M 98.7416,271.506 80.1648,271.506 z" id="boundary" inkscape:connector-curvature="0" />
	<path style="fill:none;stroke:red;stroke-width:1px;stroke-linecap:butt;stroke-linejoin:miter;stroke-opacity:1" d="M 98.7416,271.506 117.318,271.506 z" id="boundary" inkscape:connector-curvature="0" />
	<path style="fill:none;stroke:red;stroke-width:1px;stroke-linecap:butt;stroke-linejoin:miter;stroke-opacity:1" d="M 61.588,271.506 43.0112,265.933 z" id="boundary" inkscape:connector-curvature="0" />
	<path style="fill:none;stroke:red;stroke-width:1px;stroke-linecap:butt;stroke-linejoin:miter;stroke-opacity:1" d="M 13.2884,349.528 28.1498,334.667 z" id="boundary" inkscape:connector-curvature="0" />
	<path style="fill:none;stroke:red;stroke-width:1px;stroke-linecap:butt;stroke-linejoin:miter;stroke-opacity:1" d="M 28.1498,334.667 46.7266,334.667 z" id="boundary" inkscape:connector-curvature="0" />
	<path style="fill:none;stroke:red;stroke-width:1px;stroke-linecap:butt;stroke-linejoin:miter;stroke-opacity:1" d="M 18.8614,381.109 4,368.105 z" id="boundary" inkscape:connector-curvature="0" />
	<path style="fill:none;stroke:red;stroke-width:1px;stroke-linecap:butt;stroke-linejoin:miter;stroke-opacity:1" d="M 4,368.105 13.2884,349.528 z" id="boundary" inkscape:connector-curvature="0" />
	<path style="fill:none;stroke:red;stroke-width:1px;stroke-linecap:butt;stroke-linejoin:miter;stroke-opacity:1" d="M 35.5805,390.397 18.8614,381.109 z" id="boundary" inkscape:connector-curvature="0" />
	<path style="fill:none;stroke:red;stroke-width:1px;stroke-linecap:butt;stroke-linejoin:miter;stroke-opacity:1" d="M 35.5805,390.397 50.4419,401.543 z" id="boundary" inkscape:connector-curvature="0" />
	<path style="fill:none;stroke:red;stroke-width:1px;stroke-linecap:butt;stroke-linejoin:miter;stroke-opacity:1" d="M 46.7266,334.667 65.3034,334.667 z" id="boundary" inkscape:connector-curvature="0" />
	<path style="fill:none;stroke:red;stroke-width:1px;stroke-linecap:butt;stroke-linejoin:miter;stroke-opacity:1" d="M 65.3034,334.667 83.8801,334.667 z" id="boundary" inkscape:connector-curvature="0" />
	<path style="fill:none;stroke:red;stroke-width:1px;stroke-linecap:butt;stroke-linejoin:miter;stroke-opacity:1" d="M 102.457,334.667 83.8801,334.667 z" id="boundary" inkscape:connector-curvature="0" />
	<path style="fill:none;stroke:red;stroke-width:1px;stroke-linecap:butt;stroke-linejoin:miter;stroke-opacity:1" d="M 50.4419,401.543 69.0187,395.97 z" id="boundary" inkscape:connector-curvature="0" />
	<path style="fill:none;stroke:red;stroke-width:1px;stroke-linecap:butt;stroke-linejoin:miter;stroke-opacity:1" d="M 87.5955,392.255 69.0187,395.97 z" id="boundary" inkscape:connector-curvature="0" />
	<path style="fill:none;stroke:red;stroke-width:1px;stroke-linecap:butt;stroke-linejoin:miter;stroke-opacity:1" d="M 87.5955,392.255 106.172,392.255 z" id="boundary" inkscape:connector-curvature="0" />
	<path style="fill:none;stroke:red;stroke-width:1px;stroke-linecap:butt;stroke-linejoin:miter;stroke-opacity:1" d="M 119.176,223.206 137.753,223.206 z" id="boundary" inkscape:connector-curvature="0" />
	<path style="fill:none;stroke:red;stroke-width:1px;stroke-linecap:butt;stroke-linejoin:miter;stroke-opacity:1" d="M 119.176,223.206 100.599,223.206 z" id="boundary" inkscape:connector-curvature="0" />
	<path style="fill:none;stroke:red;stroke-width:1px;stroke-linecap:butt;stroke-linejoin:miter;stroke-opacity:1" d="M 154.472,232.494 137.753,223.206 z" id="boundary" inkscape:connector-curvature="0" />
	<path style="fill:none;stroke:red;stroke-width:1px;stroke-linecap:butt;stroke-linejoin:miter;stroke-opacity:1" d="M 134.037,280.794 117.318,271.506 z" id="boundary" inkscape:connector-curvature="0" />
	<path style="fill:none;stroke:red;stroke-width:1px;stroke-linecap:butt;stroke-linejoin:miter;stroke-opacity:1" d="M 152.614,280.794 134.037,280.794 z" id="boundary" inkscape:connector-curvature="0" />
	<path style="fill:none;stroke:red;stroke-width:1px;stroke-linecap:butt;stroke-linejoin:miter;stroke-opacity:1" d="M 121.034,334.667 102.457,334.667 z" id="boundary" inkscape:connector-curvature="0" />
	<path style="fill:none;stroke:red;stroke-width:1px;stroke-linecap:butt;stroke-linejoin:miter;stroke-opacity:1" d="M 154.472,232.494 173.049,232.494 z" id="boundary" inkscape:connector-curvature="0" />
	<path style="fill:none;stroke:red;stroke-width:1px;stroke-linecap:butt;stroke-linejoin:miter;stroke-opacity:1" d="M 189.768,241.783 173.049,232.494 z" id="boundary" inkscape:connector-curvature="0" />
	<path style="fill:none;stroke:red;stroke-width:1px;stroke-linecap:butt;stroke-linejoin:miter;stroke-opacity:1" d="M 208.345,241.783 189.768,241.783 z" id="boundary" inkscape:connector-curvature="0" />
	<path style="fill:none;stroke:red;stroke-width:1px;stroke-linecap:butt;stroke-linejoin:miter;stroke-opacity:1" d="M 169.333,290.082 152.614,280.794 z" id="boundary" inkscape:connector-curvature="0" />
	<path style="fill:none;stroke:red;stroke-width:1px;stroke-linecap:butt;stroke-linejoin:miter;stroke-opacity:1" d="M 187.91,290.082 169.333,290.082 z" id="boundary" inkscape:connector-curvature="0" />
	<path style="fill:none;stroke:red;stroke-width:1px;stroke-linecap:butt;stroke-linejoin:miter;stroke-opacity:1" d="M 199.056,304.944 187.91,290.082 z" id="boundary" inkscape:connector-curvature="0" />
	<path style="fill:none;stroke:red;stroke-width:1px;stroke-linecap:butt;stroke-linejoin:miter;stroke-opacity:1" d="M 121.034,334.667 139.61,334.667 z" id="boundary" inkscape:connector-curvature="0" />
	<path style="fill:none;stroke:red;stroke-width:1px;stroke-linecap:butt;stroke-linejoin:miter;stroke-opacity:1" d="M 156.33,343.955 139.61,334.667 z" id="boundary" inkscape:connector-curvature="0" />
	<path style="fill:none;stroke:red;stroke-width:1px;stroke-linecap:butt;stroke-linejoin:miter;stroke-opacity:1" d="M 106.172,392.255 124.749,392.255 z" id="boundary" inkscape:connector-curvature="0" />
	<path style="fill:none;stroke:red;stroke-width:1px;stroke-linecap:butt;stroke-linejoin:miter;stroke-opacity:1" d="M 124.749,392.255 141.468,401.543 z" id="boundary" inkscape:connector-curvature="0" />
	<path style="fill:none;stroke:red;stroke-width:1px;stroke-linecap:butt;stroke-linejoin:miter;stroke-opacity:1" d="M 160.045,401.543 141.468,401.543 z" id="boundary" inkscape:connector-curvature="0" />
	<path style="fill:none;stroke:red;stroke-width:1px;stroke-linecap:butt;stroke-linejoin:miter;stroke-opacity:1" d="M 199.056,304.944 193.483,336.524 z" id="boundary" inkscape:connector-curvature="0" />
	<path style="fill:none;stroke:red;stroke-width:1px;stroke-linecap:butt;stroke-linejoin:miter;stroke-opacity:1" d="M 193.483,336.524 174.906,343.955 z" id="boundary" inkscape:connector-curvature="0" />
	<path style="fill:none;stroke:red;stroke-width:1px;stroke-linecap:butt;stroke-linejoin:miter;stroke-opacity:1" d="M 174.906,343.955 156.33,343.955 z" id="boundary" inkscape:connector-curvature="0" />
	<path style="fill:none;stroke:red;stroke-width:1px;stroke-linecap:butt;stroke-linejoin:miter;stroke-opacity:1" d="M 160.045,401.543 178.622,401.543 z" id="boundary" inkscape:connector-curvature="0" />
	<path style="fill:none;stroke:red;stroke-width:1px;stroke-linecap:butt;stroke-linejoin:miter;stroke-opacity:1" d="M 197.199,401.543 213.918,410.831 z" id="boundary" inkscape:connector-curvature="0" />
	<path style="fill:none;stroke:red;stroke-width:1px;stroke-linecap:butt;stroke-linejoin:miter;stroke-opacity:1" d="M 178.622,401.543 197.199,401.543 z" id="boundary" inkscape:connector-curvature="0" />
	<path style="fill:none;stroke:red;stroke-width:1px;stroke-linecap:butt;stroke-linejoin:miter;stroke-opacity:1" d="M 232.494,410.831 213.918,410.831 z" id="boundary" inkscape:connector-curvature="0" />
	<path style="fill:none;stroke:red;stroke-width:1px;stroke-linecap:butt;stroke-linejoin:miter;stroke-opacity:1" d="M 243.64,37.4382 262.217,37.4382 z" id="boundary" inkscape:connector-curvature="0" />
	<path style="fill:none;stroke:red;stroke-width:1px;stroke-linecap:butt;stroke-linejoin:miter;stroke-opacity:1" d="M 280.794,37.4382 262.217,37.4382 z" id="boundary" inkscape:connector-curvature="0" />
	<path style="fill:none;stroke:red;stroke-width:1px;stroke-linecap:butt;stroke-linejoin:miter;stroke-opacity:1" d="M 336.524,46.7266 317.948,46.7266 z" id="boundary" inkscape:connector-curvature="0" />
	<path style="fill:none;stroke:red;stroke-width:1px;stroke-linecap:butt;stroke-linejoin:miter;stroke-opacity:1" d="M 317.948,46.7266 299.371,39.2959 z" id="boundary" inkscape:connector-curvature="0" />
	<path style="fill:none;stroke:red;stroke-width:1px;stroke-linecap:butt;stroke-linejoin:miter;stroke-opacity:1" d="M 355.101,48.5843 336.524,46.7266 z" id="boundary" inkscape:connector-curvature="0" />
	<path style="fill:none;stroke:red;stroke-width:1px;stroke-linecap:butt;stroke-linejoin:miter;stroke-opacity:1" d="M 280.794,37.4382 299.371,39.2959 z" id="boundary" inkscape:connector-curvature="0" />
	<path style="fill:none;stroke:red;stroke-width:1px;stroke-linecap:butt;stroke-linejoin:miter;stroke-opacity:1" d="M 392.255,57.8727 373.678,56.015 z" id="boundary" inkscape:connector-curvature="0" />
	<path style="fill:none;stroke:red;stroke-width:1px;stroke-linecap:butt;stroke-linejoin:miter;stroke-opacity:1" d="M 373.678,56.015 355.101,48.5843 z" id="boundary" inkscape:connector-curvature="0" />
	<path style="fill:none;stroke:red;stroke-width:1px;stroke-linecap:butt;stroke-linejoin:miter;stroke-opacity:1" d="M 408.974,67.161 423.835,80.1648 z" id="boundary" inkscape:connector-curvature="0" />
	<path style="fill:none;stroke:red;stroke-width:1px;stroke-linecap:butt;stroke-linejoin:miter;stroke-opacity:1" d="M 423.835,80.1648 414.547,104.315 z" id="boundary" inkscape:connector-curvature="0" />
	<path style="fill:none;stroke:red;stroke-width:1px;stroke-linecap:butt;stroke-linejoin:miter;stroke-opacity:1" d="M 414.547,122.891 414.547,104.315 z" id="boundary" inkscape:connector-curvature="0" />
	<path style="fill:none;stroke:red;stroke-width:1px;stroke-linecap:butt;stroke-linejoin:miter;stroke-opacity:1" d="M 392.255,57.8727 408.974,67.161 z" id="boundary" inkscape:connector-curvature="0" />
	<path style="fill:none;stroke:red;stroke-width:1px;stroke-linecap:butt;stroke-linejoin:miter;stroke-opacity:1" d="M 245.498,124.749 230.637,113.603 z" id="boundary" inkscape:connector-curvature="0" />
	<path style="fill:none;stroke:red;stroke-width:1px;stroke-linecap:butt;stroke-linejoin:miter;stroke-opacity:1" d="M 414.547,122.891 405.258,141.468 z" id="boundary" inkscape:connector-curvature="0" />
	<path style="fill:none;stroke:red;stroke-width:1px;stroke-linecap:butt;stroke-linejoin:miter;stroke-opacity:1" d="M 245.498,124.749 234.352,148.899 z" id="boundary" inkscape:connector-curvature="0" />
	<path style="fill:none;stroke:red;stroke-width:1px;stroke-linecap:butt;stroke-linejoin:miter;stroke-opacity:1" d="M 405.258,141.468 405.258,160.045 z" id="boundary" inkscape:connector-curvature="0" />
	<path style="fill:none;stroke:red;stroke-width:1px;stroke-linecap:butt;stroke-linejoin:miter;stroke-opacity:1" d="M 423.835,167.476 405.258,160.045 z" id="boundary" inkscape:connector-curvature="0" />
	<path style="fill:none;stroke:red;stroke-width:1px;stroke-linecap:butt;stroke-linejoin:miter;stroke-opacity:1" d="M 423.835,167.476 442.412,167.476 z" id="boundary" inkscape:connector-curvature="0" />
	<path style="fill:none;stroke:red;stroke-width:1px;stroke-linecap:butt;stroke-linejoin:miter;stroke-opacity:1" d="M 442.412,167.476 459.131,176.764 z" id="boundary" inkscape:connector-curvature="0" />
	<path style="fill:none;stroke:red;stroke-width:1px;stroke-linecap:butt;stroke-linejoin:miter;stroke-opacity:1" d="M 477.708,176.764 459.131,176.764 z" id="boundary" inkscape:connector-curvature="0" />
	<path style="fill:none;stroke:red;stroke-width:1px;stroke-linecap:butt;stroke-linejoin:miter;stroke-opacity:1" d="M 477.708,176.764 496.285,180.479 z" id="boundary" inkscape:connector-curvature="0" />
	<path style="fill:none;stroke:red;stroke-width:1px;stroke-linecap:butt;stroke-linejoin:miter;stroke-opacity:1" d="M 514.861,186.052 496.285,180.479 z" id="boundary" inkscape:connector-curvature="0" />
	<path style="fill:none;stroke:red;stroke-width:1px;stroke-linecap:butt;stroke-linejoin:miter;stroke-opacity:1" d="M 531.581,195.341 550.157,197.199 z" id="boundary" inkscape:connector-curvature="0" />
	<path style="fill:none;stroke:red;stroke-width:1px;stroke-linecap:butt;stroke-linejoin:miter;stroke-opacity:1" d="M 550.157,197.199 568.734,204.629 z" id="boundary" inkscape:connector-curvature="0" />
	<path style="fill:none;stroke:red;stroke-width:1px;stroke-linecap:butt;stroke-linejoin:miter;stroke-opacity:1" d="M 531.581,195.341 514.861,186.052 z" id="boundary" inkscape:connector-curvature="0" />
	<path style="fill:none;stroke:red;stroke-width:1px;stroke-linecap:butt;stroke-linejoin:miter;stroke-opacity:1" d="M 587.311,206.487 568.734,204.629 z" id="boundary" inkscape:connector-curvature="0" />
	<path style="fill:none;stroke:red;stroke-width:1px;stroke-linecap:butt;stroke-linejoin:miter;stroke-opacity:1" d="M 622.607,223.206 604.03,215.775 z" id="boundary" inkscape:connector-curvature="0" />
	<path style="fill:none;stroke:red;stroke-width:1px;stroke-linecap:butt;stroke-linejoin:miter;stroke-opacity:1" d="M 604.03,215.775 587.311,206.487 z" id="boundary" inkscape:connector-curvature="0" />
	<path style="fill:none;stroke:red;stroke-width:1px;stroke-linecap:butt;stroke-linejoin:miter;stroke-opacity:1" d="M 819.521,241.783 800.944,241.783 z" id="boundary" inkscape:connector-curvature="0" />
	<path style="fill:none;stroke:red;stroke-width:1px;stroke-linecap:butt;stroke-linejoin:miter;stroke-opacity:1" d="M 639.326,232.494 657.903,232.494 z" id="boundary" inkscape:connector-curvature="0" />
	<path style="fill:none;stroke:red;stroke-width:1px;stroke-linecap:butt;stroke-linejoin:miter;stroke-opacity:1" d="M 657.903,232.494 674.622,241.783 z" id="boundary" inkscape:connector-curvature="0" />
	<path style="fill:none;stroke:red;stroke-width:1px;stroke-linecap:butt;stroke-linejoin:miter;stroke-opacity:1" d="M 639.326,232.494 622.607,223.206 z" id="boundary" inkscape:connector-curvature="0" />
	<path style="fill:none;stroke:red;stroke-width:1px;stroke-linecap:butt;stroke-linejoin:miter;stroke-opacity:1" d="M 693.199,241.783 674.622,241.783 z" id="boundary" inkscape:connector-curvature="0" />
	<path style="fill:none;stroke:red;stroke-width:1px;stroke-linecap:butt;stroke-linejoin:miter;stroke-opacity:1" d="M 784.225,251.071 800.944,241.783 z" id="boundary" inkscape:connector-curvature="0" />
	<path style="fill:none;stroke:red;stroke-width:1px;stroke-linecap:butt;stroke-linejoin:miter;stroke-opacity:1" d="M 693.199,241.783 709.918,251.071 z" id="boundary" inkscape:connector-curvature="0" />
	<path style="fill:none;stroke:red;stroke-width:1px;stroke-linecap:butt;stroke-linejoin:miter;stroke-opacity:1" d="M 728.494,251.071 709.918,251.071 z" id="boundary" inkscape:connector-curvature="0" />
	<path style="fill:none;stroke:red;stroke-width:1px;stroke-linecap:butt;stroke-linejoin:miter;stroke-opacity:1" d="M 747.071,251.071 728.494,251.071 z" id="boundary" inkscape:connector-curvature="0" />
	<path style="fill:none;stroke:red;stroke-width:1px;stroke-linecap:butt;stroke-linejoin:miter;stroke-opacity:1" d="M 747.071,251.071 765.648,251.071 z" id="boundary" inkscape:connector-curvature="0" />
	<path style="fill:none;stroke:red;stroke-width:1px;stroke-linecap:butt;stroke-linejoin:miter;stroke-opacity:1" d="M 784.225,251.071 765.648,251.071 z" id="boundary" inkscape:connector-curvature="0" />
	<path style="fill:none;stroke:red;stroke-width:1px;stroke-linecap:butt;stroke-linejoin:miter;stroke-opacity:1" d="M 819.521,241.783 838.097,241.783 z" id="boundary" inkscape:connector-curvature="0" />
	<path style="fill:none;stroke:red;stroke-width:1px;stroke-linecap:butt;stroke-linejoin:miter;stroke-opacity:1" d="M 856.674,241.783 875.251,241.783 z" id="boundary" inkscape:connector-curvature="0" />
	<path style="fill:none;stroke:red;stroke-width:1px;stroke-linecap:butt;stroke-linejoin:miter;stroke-opacity:1" d="M 856.674,241.783 838.097,241.783 z" id="boundary" inkscape:connector-curvature="0" />
	<path style="fill:none;stroke:red;stroke-width:1px;stroke-linecap:butt;stroke-linejoin:miter;stroke-opacity:1" d="M 875.251,241.783 893.828,243.64 z" id="boundary" inkscape:connector-curvature="0" />
	<path style="fill:none;stroke:red;stroke-width:1px;stroke-linecap:butt;stroke-linejoin:miter;stroke-opacity:1" d="M 893.828,243.64 912.404,251.071 z" id="boundary" inkscape:connector-curvature="0" />
	<path style="fill:none;stroke:red;stroke-width:1px;stroke-linecap:butt;stroke-linejoin:miter;stroke-opacity:1" d="M 912.404,251.071 930.981,252.929 z" id="boundary" inkscape:connector-curvature="0" />
	<path style="fill:none;stroke:red;stroke-width:1px;stroke-linecap:butt;stroke-linejoin:miter;stroke-opacity:1" d="M 930.981,252.929 947.7,262.217 z" id="boundary" inkscape:connector-curvature="0" />
	<path style="fill:none;stroke:red;stroke-width:1px;stroke-linecap:butt;stroke-linejoin:miter;stroke-opacity:1" d="M 947.7,262.217 962.562,275.221 z" id="boundary" inkscape:connector-curvature="0" />
	<path style="fill:none;stroke:red;stroke-width:1px;stroke-linecap:butt;stroke-linejoin:miter;stroke-opacity:1" d="M 358.816,327.236 375.536,317.948 z" id="boundary" inkscape:connector-curvature="0" />
	<path style="fill:none;stroke:red;stroke-width:1px;stroke-linecap:butt;stroke-linejoin:miter;stroke-opacity:1" d="M 375.536,317.948 392.255,327.236 z" id="boundary" inkscape:connector-curvature="0" />
	<path style="fill:none;stroke:red;stroke-width:1px;stroke-linecap:butt;stroke-linejoin:miter;stroke-opacity:1" d="M 410.831,327.236 392.255,327.236 z" id="boundary" inkscape:connector-curvature="0" />
	<path style="fill:none;stroke:red;stroke-width:1px;stroke-linecap:butt;stroke-linejoin:miter;stroke-opacity:1" d="M 358.816,355.101 358.816,327.236 z" id="boundary" inkscape:connector-curvature="0" />
	<path style="fill:none;stroke:red;stroke-width:1px;stroke-linecap:butt;stroke-linejoin:miter;stroke-opacity:1" d="M 446.127,336.524 427.551,336.524 z" id="boundary" inkscape:connector-curvature="0" />
	<path style="fill:none;stroke:red;stroke-width:1px;stroke-linecap:butt;stroke-linejoin:miter;stroke-opacity:1" d="M 427.551,336.524 410.831,327.236 z" id="boundary" inkscape:connector-curvature="0" />
	<path style="fill:none;stroke:red;stroke-width:1px;stroke-linecap:butt;stroke-linejoin:miter;stroke-opacity:1" d="M 483.281,336.524 464.704,336.524 z" id="boundary" inkscape:connector-curvature="0" />
	<path style="fill:none;stroke:red;stroke-width:1px;stroke-linecap:butt;stroke-linejoin:miter;stroke-opacity:1" d="M 500,327.236 483.281,336.524 z" id="boundary" inkscape:connector-curvature="0" />
	<path style="fill:none;stroke:red;stroke-width:1px;stroke-linecap:butt;stroke-linejoin:miter;stroke-opacity:1" d="M 464.704,336.524 446.127,336.524 z" id="boundary" inkscape:connector-curvature="0" />
	<path style="fill:none;stroke:red;stroke-width:1px;stroke-linecap:butt;stroke-linejoin:miter;stroke-opacity:1" d="M 518.577,332.809 500,327.236 z" id="boundary" inkscape:connector-curvature="0" />
	<path style="fill:none;stroke:red;stroke-width:1px;stroke-linecap:butt;stroke-linejoin:miter;stroke-opacity:1" d="M 518.577,332.809 537.154,336.524 z" id="boundary" inkscape:connector-curvature="0" />
	<path style="fill:none;stroke:red;stroke-width:1px;stroke-linecap:butt;stroke-linejoin:miter;stroke-opacity:1" d="M 537.154,336.524 555.73,336.524 z" id="boundary" inkscape:connector-curvature="0" />
	<path style="fill:none;stroke:red;stroke-width:1px;stroke-linecap:butt;stroke-linejoin:miter;stroke-opacity:1" d="M 251.071,418.262 232.494,410.831 z" id="boundary" inkscape:connector-curvature="0" />
	<path style="fill:none;stroke:red;stroke-width:1px;stroke-linecap:butt;stroke-linejoin:miter;stroke-opacity:1" d="M 269.648,420.12 251.071,418.262 z" id="boundary" inkscape:connector-curvature="0" />
	<path style="fill:none;stroke:red;stroke-width:1px;stroke-linecap:butt;stroke-linejoin:miter;stroke-opacity:1" d="M 306.801,420.12 288.225,420.12 z" id="boundary" inkscape:connector-curvature="0" />
	<path style="fill:none;stroke:red;stroke-width:1px;stroke-linecap:butt;stroke-linejoin:miter;stroke-opacity:1" d="M 288.225,420.12 269.648,420.12 z" id="boundary" inkscape:connector-curvature="0" />
	<path style="fill:none;stroke:red;stroke-width:1px;stroke-linecap:butt;stroke-linejoin:miter;stroke-opacity:1" d="M 325.378,418.262 306.801,420.12 z" id="boundary" inkscape:connector-curvature="0" />
	<path style="fill:none;stroke:red;stroke-width:1px;stroke-linecap:butt;stroke-linejoin:miter;stroke-opacity:1" d="M 609.603,345.813 591.026,345.813 z" id="boundary" inkscape:connector-curvature="0" />
	<path style="fill:none;stroke:red;stroke-width:1px;stroke-linecap:butt;stroke-linejoin:miter;stroke-opacity:1" d="M 591.026,345.813 574.307,336.524 z" id="boundary" inkscape:connector-curvature="0" />
	<path style="fill:none;stroke:red;stroke-width:1px;stroke-linecap:butt;stroke-linejoin:miter;stroke-opacity:1" d="M 353.243,390.397 343.955,408.974 z" id="boundary" inkscape:connector-curvature="0" />
	<path style="fill:none;stroke:red;stroke-width:1px;stroke-linecap:butt;stroke-linejoin:miter;stroke-opacity:1" d="M 343.955,408.974 325.378,418.262 z" id="boundary" inkscape:connector-curvature="0" />
	<path style="fill:none;stroke:red;stroke-width:1px;stroke-linecap:butt;stroke-linejoin:miter;stroke-opacity:1" d="M 358.816,355.101 353.243,390.397 z" id="boundary" inkscape:connector-curvature="0" />
	<path style="fill:none;stroke:red;stroke-width:1px;stroke-linecap:butt;stroke-linejoin:miter;stroke-opacity:1" d="M 555.73,336.524 574.307,336.524 z" id="boundary" inkscape:connector-curvature="0" />
	<path style="fill:none;stroke:red;stroke-width:1px;stroke-linecap:butt;stroke-linejoin:miter;stroke-opacity:1" d="M 609.603,345.813 628.18,349.528 z" id="boundary" inkscape:connector-curvature="0" />
	<path style="fill:none;stroke:red;stroke-width:1px;stroke-linecap:butt;stroke-linejoin:miter;stroke-opacity:1" d="M 646.757,355.101 628.18,349.528 z" id="boundary" inkscape:connector-curvature="0" />
	<path style="fill:none;stroke:red;stroke-width:1px;stroke-linecap:butt;stroke-linejoin:miter;stroke-opacity:1" d="M 665.333,358.816 646.757,355.101 z" id="boundary" inkscape:connector-curvature="0" />
	<path style="fill:none;stroke:red;stroke-width:1px;stroke-linecap:butt;stroke-linejoin:miter;stroke-opacity:1" d="M 665.333,358.816 683.91,364.39 z" id="boundary" inkscape:connector-curvature="0" />
	<path style="fill:none;stroke:red;stroke-width:1px;stroke-linecap:butt;stroke-linejoin:miter;stroke-opacity:1" d="M 683.91,364.39 702.487,364.39 z" id="boundary" inkscape:connector-curvature="0" />
	<path style="fill:none;stroke:red;stroke-width:1px;stroke-linecap:butt;stroke-linejoin:miter;stroke-opacity:1" d="M 702.487,364.39 721.064,364.39 z" id="boundary" inkscape:connector-curvature="0" />
	<path style="fill:none;stroke:red;stroke-width:1px;stroke-linecap:butt;stroke-linejoin:miter;stroke-opacity:1" d="M 975.566,290.082 990.427,303.086 z" id="boundary" inkscape:connector-curvature="0" />
	<path style="fill:none;stroke:red;stroke-width:1px;stroke-linecap:butt;stroke-linejoin:miter;stroke-opacity:1" d="M 990.427,303.086 990.427,321.663 z" id="boundary" inkscape:connector-curvature="0" />
	<path style="fill:none;stroke:red;stroke-width:1px;stroke-linecap:butt;stroke-linejoin:miter;stroke-opacity:1" d="M 975.566,290.082 962.562,275.221 z" id="boundary" inkscape:connector-curvature="0" />
	<path style="fill:none;stroke:red;stroke-width:1px;stroke-linecap:butt;stroke-linejoin:miter;stroke-opacity:1" d="M 996,351.386 990.427,321.663 z" id="boundary" inkscape:connector-curvature="0" />
	<path style="fill:none;stroke:red;stroke-width:1px;stroke-linecap:butt;stroke-linejoin:miter;stroke-opacity:1" d="M 776.794,368.105 758.217,364.39 z" id="boundary" inkscape:connector-curvature="0" />
	<path style="fill:none;stroke:red;stroke-width:1px;stroke-linecap:butt;stroke-linejoin:miter;stroke-opacity:1" d="M 758.217,364.39 739.64,364.39 z" id="boundary" inkscape:connector-curvature="0" />
	<path style="fill:none;stroke:red;stroke-width:1px;stroke-linecap:butt;stroke-linejoin:miter;stroke-opacity:1" d="M 996,351.386 981.139,364.39 z" id="boundary" inkscape:connector-curvature="0" />
	<path style="fill:none;stroke:red;stroke-width:1px;stroke-linecap:butt;stroke-linejoin:miter;stroke-opacity:1" d="M 739.64,364.39 721.064,364.39 z" id="boundary" inkscape:connector-curvature="0" />
	<path style="fill:none;stroke:red;stroke-width:1px;stroke-linecap:butt;stroke-linejoin:miter;stroke-opacity:1" d="M 776.794,368.105 795.371,373.678 z" id="boundary" inkscape:connector-curvature="0" />
	<path style="fill:none;stroke:red;stroke-width:1px;stroke-linecap:butt;stroke-linejoin:miter;stroke-opacity:1" d="M 795.371,373.678 812.09,382.966 z" id="boundary" inkscape:connector-curvature="0" />
	<path style="fill:none;stroke:red;stroke-width:1px;stroke-linecap:butt;stroke-linejoin:miter;stroke-opacity:1" d="M 830.667,382.966 812.09,382.966 z" id="boundary" inkscape:connector-curvature="0" />
	<path style="fill:none;stroke:red;stroke-width:1px;stroke-linecap:butt;stroke-linejoin:miter;stroke-opacity:1" d="M 830.667,382.966 849.243,382.966 z" id="boundary" inkscape:connector-curvature="0" />
	<path style="fill:none;stroke:red;stroke-width:1px;stroke-linecap:butt;stroke-linejoin:miter;stroke-opacity:1" d="M 849.243,382.966 867.82,382.966 z" id="boundary" inkscape:connector-curvature="0" />
	<path style="fill:none;stroke:red;stroke-width:1px;stroke-linecap:butt;stroke-linejoin:miter;stroke-opacity:1" d="M 867.82,382.966 878.966,397.828 z" id="boundary" inkscape:connector-curvature="0" />
	<path style="fill:none;stroke:red;stroke-width:1px;stroke-linecap:butt;stroke-linejoin:miter;stroke-opacity:1" d="M 981.139,364.39 969.993,382.966 z" id="boundary" inkscape:connector-curvature="0" />
	<path style="fill:none;stroke:red;stroke-width:1px;stroke-linecap:butt;stroke-linejoin:miter;stroke-opacity:1" d="M 969.993,382.966 951.416,386.682 z" id="boundary" inkscape:connector-curvature="0" />
	<path style="fill:none;stroke:red;stroke-width:1px;stroke-linecap:butt;stroke-linejoin:miter;stroke-opacity:1" d="M 951.416,386.682 932.839,392.255 z" id="boundary" inkscape:connector-curvature="0" />
	<path style="fill:none;stroke:red;stroke-width:1px;stroke-linecap:butt;stroke-linejoin:miter;stroke-opacity:1" d="M 878.966,397.828 897.543,401.543 z" id="boundary" inkscape:connector-curvature="0" />
	<path style="fill:none;stroke:red;stroke-width:1px;stroke-linecap:butt;stroke-linejoin:miter;stroke-opacity:1" d="M 914.262,392.255 932.839,392.255 z" id="boundary" inkscape:connector-curvature="0" />
	<path style="fill:none;stroke:red;stroke-width:1px;stroke-linecap:butt;stroke-linejoin:miter;stroke-opacity:1" d="M 897.543,401.543 914.262,392.255 z" id="boundary" inkscape:connector-curvature="0" />
	<circle cx="4" cy="368.105" r="4" fill="#0" id="circle0"/>
	<circle cx="13.2884" cy="145.184" r="4" fill="#0" id="circle1"/>
	<circle cx="13.2884" cy="163.76" r="4" fill="#0" id="circle2"/>
	<circle cx="13.2884" cy="228.779" r="4" fill="#0" id="circle3"/>
	<circle cx="13.2884" cy="247.356" r="4" fill="#0" id="circle4"/>
	<circle cx="13.2884" cy="349.528" r="4" fill="#0" id="circle5"/>
	<circle cx="18.8614" cy="381.109" r="4" fill="#0" id="circle6"/>
	<circle cx="22.5768" cy="52.2996" r="4" fill="#0" id="circle7"/>
	<circle cx="24.4345" cy="262.217" r="4" fill="#0" id="circle8"/>
	<circle cx="28.1498" cy="176.764" r="4" fill="#0" id="circle9"/>
	<circle cx="28.1498" cy="213.918" r="4" fill="#0" id="circle10"/>
	<circle cx="28.1498" cy="334.667" r="4" fill="#0" id="circle11"/>
	<circle cx="31.8652" cy="33.7228" r="4" fill="#0" id="circle12"/>
	<circle cx="31.8652" cy="69.0187" r="4" fill="#0" id="circle13"/>
	<circle cx="31.8652" cy="135.895" r="4" fill="#0" id="circle14"/>
	<circle cx="35.5805" cy="390.397" r="4" fill="#0" id="circle15"/>
	<circle cx="43.0112" cy="265.933" r="4" fill="#0" id="circle16"/>
	<circle cx="46.7266" cy="18.8614" r="4" fill="#0" id="circle17"/>
	<circle cx="46.7266" cy="178.622" r="4" fill="#0" id="circle18"/>
	<circle cx="46.7266" cy="213.918" r="4" fill="#0" id="circle19"/>
	<circle cx="46.7266" cy="334.667" r="4" fill="#0" id="circle20"/>
	<circle cx="50.4419" cy="76.4494" r="4" fill="#0" id="circle21"/>
	<circle cx="50.4419" cy="130.322" r="4" fill="#0" id="circle22"/>
	<circle cx="50.4419" cy="401.543" r="4" fill="#0" id="circle23"/>
	<circle cx="61.588" cy="271.506" r="4" fill="#0" id="circle24"/>
	<circle cx="63.4457" cy="187.91" r="4" fill="#0" id="circle25"/>
	<circle cx="65.3034" cy="18.8614" r="4" fill="#0" id="circle26"/>
	<circle cx="65.3034" cy="213.918" r="4" fill="#0" id="circle27"/>
	<circle cx="65.3034" cy="334.667" r="4" fill="#0" id="circle28"/>
	<circle cx="67.161" cy="85.7378" r="4" fill="#0" id="circle29"/>
	<circle cx="69.0187" cy="130.322" r="4" fill="#0" id="circle30"/>
	<circle cx="69.0187" cy="395.97" r="4" fill="#0" id="circle31"/>
	<circle cx="80.1648" cy="4" r="4" fill="#0" id="circle32"/>
	<circle cx="80.1648" cy="271.506" r="4" fill="#0" id="circle33"/>
	<circle cx="82.0225" cy="187.91" r="4" fill="#0" id="circle34"/>
	<circle cx="82.0225" cy="223.206" r="4" fill="#0" id="circle35"/>
	<circle cx="83.8801" cy="334.667" r="4" fill="#0" id="circle36"/>
	<circle cx="85.7378" cy="85.7378" r="4" fill="#0" id="circle37"/>
	<circle cx="87.5955" cy="130.322" r="4" fill="#0" id="circle38"/>
	<circle cx="87.5955" cy="392.255" r="4" fill="#0" id="circle39"/>
	<circle cx="96.8839" cy="13.2884" r="4" fill="#0" id="circle40"/>
	<circle cx="98.7416" cy="271.506" r="4" fill="#0" id="circle41"/>
	<circle cx="100.599" cy="187.91" r="4" fill="#0" id="circle42"/>
	<circle cx="100.599" cy="223.206" r="4" fill="#0" id="circle43"/>
	<circle cx="102.457" cy="95.0262" r="4" fill="#0" id="circle44"/>
	<circle cx="102.457" cy="334.667" r="4" fill="#0" id="circle45"/>
	<circle cx="106.172" cy="130.322" r="4" fill="#0" id="circle46"/>
	<circle cx="106.172" cy="392.255" r="4" fill="#0" id="circle47"/>
	<circle cx="115.461" cy="18.8614" r="4" fill="#0" id="circle48"/>
	<circle cx="117.318" cy="197.199" r="4" fill="#0" id="circle49"/>
	<circle cx="117.318" cy="271.506" r="4" fill="#0" id="circle50"/>
	<circle cx="119.176" cy="223.206" r="4" fill="#0" id="circle51"/>
	<circle cx="121.034" cy="95.0262" r="4" fill="#0" id="circle52"/>
	<circle cx="121.034" cy="334.667" r="4" fill="#0" id="circle53"/>
	<circle cx="122.891" cy="139.61" r="4" fill="#0" id="circle54"/>
	<circle cx="124.749" cy="392.255" r="4" fill="#0" id="circle55"/>
	<circle cx="134.037" cy="18.8614" r="4" fill="#0" id="circle56"/>
	<circle cx="134.037" cy="280.794" r="4" fill="#0" id="circle57"/>
	<circle cx="135.895" cy="197.199" r="4" fill="#0" id="circle58"/>
	<circle cx="137.753" cy="223.206" r="4" fill="#0" id="circle59"/>
	<circle cx="139.61" cy="102.457" r="4" fill="#0" id="circle60"/>
	<circle cx="139.61" cy="334.667" r="4" fill="#0" id="circle61"/>
	<circle cx="141.468" cy="139.61" r="4" fill="#0" id="circle62"/>
	<circle cx="141.468" cy="401.543" r="4" fill="#0" id="circle63"/>
	<circle cx="152.614" cy="22.5768" r="4" fill="#0" id="circle64"/>
	<circle cx="152.614" cy="280.794" r="4" fill="#0" id="circle65"/>
	<circle cx="154.472" cy="197.199" r="4" fill="#0" id="circle66"/>
	<circle cx="154.472" cy="232.494" r="4" fill="#0" id="circle67"/>
	<circle cx="156.33" cy="343.955" r="4" fill="#0" id="circle68"/>
	<circle cx="158.187" cy="104.315" r="4" fill="#0" id="circle69"/>
	<circle cx="160.045" cy="139.61" r="4" fill="#0" id="circle70"/>
	<circle cx="160.045" cy="401.543" r="4" fill="#0" id="circle71"/>
	<circle cx="169.333" cy="290.082" r="4" fill="#0" id="circle72"/>
	<circle cx="171.191" cy="28.1498" r="4" fill="#0" id="circle73"/>
	<circle cx="171.191" cy="206.487" r="4" fill="#0" id="circle74"/>
	<circle cx="173.049" cy="232.494" r="4" fill="#0" id="circle75"/>
	<circle cx="174.906" cy="343.955" r="4" fill="#0" id="circle76"/>
	<circle cx="176.764" cy="104.315" r="4" fill="#0" id="circle77"/>
	<circle cx="178.622" cy="141.468" r="4" fill="#0" id="circle78"/>
	<circle cx="178.622" cy="401.543" r="4" fill="#0" id="circle79"/>
	<circle cx="187.91" cy="37.4382" r="4" fill="#0" id="circle80"/>
	<circle cx="187.91" cy="290.082" r="4" fill="#0" id="circle81"/>
	<circle cx="189.768" cy="206.487" r="4" fill="#0" id="circle82"/>
	<circle cx="189.768" cy="241.783" r="4" fill="#0" id="circle83"/>
	<circle cx="193.483" cy="113.603" r="4" fill="#0" id="circle84"/>
	<circle cx="193.483" cy="336.524" r="4" fill="#0" id="circle85"/>
	<circle cx="197.199" cy="148.899" r="4" fill="#0" id="circle86"/>
	<circle cx="197.199" cy="401.543" r="4" fill="#0" id="circle87"/>
	<circle cx="199.056" cy="304.944" r="4" fill="#0" id="circle88"/>
	<circle cx="206.487" cy="37.4382" r="4" fill="#0" id="circle89"/>
	<circle cx="208.345" cy="206.487" r="4" fill="#0" id="circle90"/>
	<circle cx="208.345" cy="241.783" r="4" fill="#0" id="circle91"/>
	<circle cx="212.06" cy="119.176" r="4" fill="#0" id="circle92"/>
	<circle cx="213.918" cy="410.831" r="4" fill="#0" id="circle93"/>
	<circle cx="215.775" cy="148.899" r="4" fill="#0" id="circle94"/>
	<circle cx="225.064" cy="37.4382" r="4" fill="#0" id="circle95"/>
	<circle cx="225.064" cy="215.775" r="4" fill="#0" id="circle96"/>
	<circle cx="230.637" cy="113.603" r="4" fill="#0" id="circle97"/>
	<circle cx="232.494" cy="410.831" r="4" fill="#0" id="circle98"/>
	<circle cx="234.352" cy="148.899" r="4" fill="#0" id="circle99"/>
	<circle cx="243.64" cy="37.4382" r="4" fill="#0" id="circle100"/>
	<circle cx="245.498" cy="124.749" r="4" fill="#0" id="circle101"/>
	<circle cx="251.071" cy="418.262" r="4" fill="#0" id="circle102"/>
	<circle cx="262.217" cy="37.4382" r="4" fill="#0" id="circle103"/>
	<circle cx="269.648" cy="420.12" r="4" fill="#0" id="circle104"/>
	<circle cx="280.794" cy="37.4382" r="4" fill="#0" id="circle105"/>
	<circle cx="288.225" cy="420.12" r="4" fill="#0" id="circle106"/>
	<circle cx="299.371" cy="39.2959" r="4" fill="#0" id="circle107"/>
	<circle cx="306.801" cy="420.12" r="4" fill="#0" id="circle108"/>
	<circle cx="317.948" cy="46.7266" r="4" fill="#0" id="circle109"/>
	<circle cx="325.378" cy="418.262" r="4" fill="#0" id="circle110"/>
	<circle cx="336.524" cy="46.7266" r="4" fill="#0" id="circle111"/>
	<circle cx="343.955" cy="408.974" r="4" fill="#0" id="circle112"/>
	<circle cx="353.243" cy="390.397" r="4" fill="#0" id="circle113"/>
	<circle cx="355.101" cy="48.5843" r="4" fill="#0" id="circle114"/>
	<circle cx="358.816" cy="327.236" r="4" fill="#0" id="circle115"/>
	<circle cx="358.816" cy="355.101" r="4" fill="#0" id="circle116"/>
	<circle cx="373.678" cy="56.015" r="4" fill="#0" id="circle117"/>
	<circle cx="375.536" cy="317.948" r="4" fill="#0" id="circle118"/>
	<circle cx="392.255" cy="57.8727" r="4" fill="#0" id="circle119"/>
	<circle cx="392.255" cy="327.236" r="4" fill="#0" id="circle120"/>
	<circle cx="405.258" cy="141.468" r="4" fill="#0" id="circle121"/>
	<circle cx="405.258" cy="160.045" r="4" fill="#0" id="circle122"/>
	<circle cx="408.974" cy="67.161" r="4" fill="#0" id="circle123"/>
	<circle cx="410.831" cy="327.236" r="4" fill="#0" id="circle124"/>
	<circle cx="414.547" cy="104.315" r="4" fill="#0" id="circle125"/>
	<circle cx="414.547" cy="122.891" r="4" fill="#0" id="circle126"/>
	<circle cx="423.835" cy="80.1648" r="4" fill="#0" id="circle127"/>
	<circle cx="423.835" cy="167.476" r="4" fill="#0" id="circle128"/>
	<circle cx="427.551" cy="336.524" r="4" fill="#0" id="circle129"/>
	<circle cx="442.412" cy="167.476" r="4" fill="#0" id="circle130"/>
	<circle cx="446.127" cy="336.524" r="4" fill="#0" id="circle131"/>
	<circle cx="459.131" cy="176.764" r="4" fill="#0" id="circle132"/>
	<circle cx="464.704" cy="336.524" r="4" fill="#0" id="circle133"/>
	<circle cx="477.708" cy="176.764" r="4" fill="#0" id="circle134"/>
	<circle cx="483.281" cy="336.524" r="4" fill="#0" id="circle135"/>
	<circle cx="496.285" cy="180.479" r="4" fill="#0" id="circle136"/>
	<circle cx="500" cy="327.236" r="4" fill="#0" id="circle137"/>
	<circle cx="514.861" cy="186.052" r="4" fill="#0" id="circle138"/>
	<circle cx="518.577" cy="332.809" r="4" fill="#0" id="circle139"/>
	<circle cx="531.581" cy="195.341" r="4" fill="#0" id="circle140"/>
	<circle cx="537.154" cy="336.524" r="4" fill="#0" id="circle141"/>
	<circle cx="550.157" cy="197.199" r="4" fill="#0" id="circle142"/>
	<circle cx="555.73" cy="336.524" r="4" fill="#0" id="circle143"/>
	<circle cx="568.734" cy="204.629" r="4" fill="#0" id="circle144"/>
	<circle cx="574.307" cy="336.524" r="4" fill="#0" id="circle145"/>
	<circle cx="587.311" cy="206.487" r="4" fill="#0" id="circle146"/>
	<circle cx="591.026" cy="345.813" r="4" fill="#0" id="circle147"/>
	<circle cx="604.03" cy="215.775" r="4" fill="#0" id="circle148"/>
	<circle cx="609.603" cy="345.813" r="4" fill="#0" id="circle149"/>
	<circle cx="622.607" cy="223.206" r="4" fill="#0" id="circle150"/>
	<circle cx="628.18" cy="349.528" r="4" fill="#0" id="circle151"/>
	<circle cx="639.326" cy="232.494" r="4" fill="#0" id="circle152"/>
	<circle cx="646.757" cy="355.101" r="4" fill="#0" id="circle153"/>
	<circle cx="657.903" cy="232.494" r="4" fill="#0" id="circle154"/>
	<circle cx="665.333" cy="358.816" r="4" fill="#0" id="circle155"/>
	<circle cx="674.622" cy="241.783" r="4" fill="#0" id="circle156"/>
	<circle cx="683.91" cy="364.39" r="4" fill="#0" id="circle157"/>
	<circle cx="693.199" cy="241.783" r="4" fill="#0" id="circle158"/>
	<circle cx="702.487" cy="364.39" r="4" fill="#0" id="circle159"/>
	<circle cx="709.918" cy="251.071" r="4" fill="#0" id="circle160"/>
	<circle cx="721.064" cy="364.39" r="4" fill="#0" id="circle161"/>
	<circle cx="728.494" cy="251.071" r="4" fill="#0" id="circle162"/>
	<circle cx="739.64" cy="364.39" r="4" fill="#0" id="circle163"/>
	<circle cx="747.071" cy="251.071" r="4" fill="#0" id="circle164"/>
	<circle cx="758.217" cy="364.39" r="4" fill="#0" id="circle165"/>
	<circle cx="765.648" cy="251.071" r="4" fill="#0" id="circle166"/>
	<circle cx="776.794" cy="368.105" r="4" fill="#0" id="circle167"/>
	<circle cx="784.225" cy="251.071" r="4" fill="#0" id="circle168"/>
	<circle cx="795.371" cy="373.678" r="4" fill="#0" id="circle169"/>
	<circle cx="800.944" cy="241.783" r="4" fill="#0" id="circle170"/>
	<circle cx="812.09" cy="382.966" r="4" fill="#0" id="circle171"/>
	<circle cx="819.521" cy="241.783" r="4" fill="#0" id="circle172"/>
	<circle cx="830.667" cy="382.966" r="4" fill="#0" id="circle173"/>
	<circle cx="838.097" cy="241.783" r="4" fill="#0" id="circle174"/>
	<circle cx="849.243" cy="382.966" r="4" fill="#0" id="circle175"/>
	<circle cx="856.674" cy="241.783" r="4" fill="#0" id="circle176"/>
	<circle cx="867.82" cy="382.966" r="4" fill="#0" id="circle177"/>
	<circle cx="875.251" cy="241.783" r="4" fill="#0" id="circle178"/>
	<circle cx="878.966" cy="397.828" r="4" fill="#0" id="circle179"/>
	<circle cx="893.828" cy="243.64" r="4" fill="#0" id="circle180"/>
	<circle cx="897.543" cy="401.543" r="4" fill="#0" id="circle181"/>
	<circle cx="912.404" cy="251.071" r="4" fill="#0" id="circle182"/>
	<circle cx="914.262" cy="392.255" r="4" fill="#0" id="circle183"/>
	<circle cx="930.981" cy="252.929" r="4" fill="#0" id="circle184"/>
	<circle cx="932.839" cy="392.255" r="4" fill="#0" id="circle185"/>
	<circle cx="947.7" cy="262.217" r="4" fill="#0" id="circle186"/>
	<circle cx="951.416" cy="386.682" r="4" fill="#0" id="circle187"/>
	<circle cx="962.562" cy="275.221" r="4" fill="#0" id="circle188"/>
	<circle cx="969.993" cy="382.966" r="4" fill="#0" id="circle189"/>
	<circle cx="975.566" cy="290.082" r="4" fill="#0" id="circle190"/>
	<circle cx="981.139" cy="364.39" r="4" fill="#0" id="circle191"/>
	<circle cx="990.427" cy="303.086" r="4" fill="#0" id="circle192"/>
	<circle cx="990.427" cy="321.663" r="4" fill="#0" id="circle193"/>
	<circle cx="996" cy="351.386" r="4" fill="#0" id="circle194"/>
	</g>
</svg>