<?xml version="1.0" encoding="UTF-8" standalone="no"?>
<!-- Created with CurveBenchmark -->
<svg
	xmlns:dc="http://purl.org/dc/elements/1.1/"
	xmlns:cc="http://creativecommons.org/ns#"
	xmlns:rdf="http://www.w3.org/1999/02/22-rdf-syntax-ns#"
	xmlns:svg="http://www.w3.org/2000/svg"
	xmlns="http://www.w3.org/2000/svg"
	xmlns:sodipodi="http://sodipodi.sourceforge.net/DTD/sodipodi-0.dtd"
	xmlns:inkscape="http://www.inkscape.org/namespaces/inkscape"
	width="1000"
	height="1000"
	id="svg2"
	version="1.1"
	sodipodi:docname="manifold/ccrust-truck-01.png.txt">
<defs
	id="defs4" />
<metadata
	id="metadata7">
	<rdf:RDF>
		<cc:Work
			rdf:about="">
			<dc:format>image/svg+xml</dc:format>
			<dc:type
				rdf:resource="http://purl.org/dc/dcmitype/StillImage" />
			<dc:title></dc:title>
		</cc:Work>
	</rdf:RDF>
</metadata>
<g
	inkscape:label="Layer 1"
	inkscape:groupmode="layer"
	id="layer1">
	<path style="fill:none;stroke:red;stroke-width:1px;stroke-linecap:butt;stroke-linejoin:miter;stroke-opacity:1" d="M 64.9123,178.035 75.7895,156.281 z" id="boundary" inkscape:connector-curvature="0" />
	<path style="fill:none;stroke:red;stroke-width:1px;stroke-linecap:butt;stroke-linejoin:miter;stroke-opacity:1" d="M 75.7895,156.281 97.5439,145.404 z" id="boundary" inkscape:connector-curvature="0" />
	<path style="fill:none;stroke:red;stroke-width:1px;stroke-linecap:butt;stroke-linejoin:miter;stroke-opacity:1" d="M 64.9123,178.035 47.5088,195.439 z" id="boundary" inkscape:connector-curvature="0" />
	<path style="fill:none;stroke:red;stroke-width:1px;stroke-linecap:butt;stroke-linejoin:miter;stroke-opacity:1" d="M 36.6316,217.193 47.5088,195.439 z" id="boundary" inkscape:connector-curvature="0" />
	<path style="fill:none;stroke:red;stroke-width:1px;stroke-linecap:butt;stroke-linejoin:miter;stroke-opacity:1" d="M 36.6316,217.193 14.8772,228.07 z" id="boundary" inkscape:connector-curvature="0" />
	<path style="fill:none;stroke:red;stroke-width:1px;stroke-linecap:butt;stroke-linejoin:miter;stroke-opacity:1" d="M 141.053,134.526 162.807,134.526 z" id="boundary" inkscape:connector-curvature="0" />
	<path style="fill:none;stroke:red;stroke-width:1px;stroke-linecap:butt;stroke-linejoin:miter;stroke-opacity:1" d="M 119.298,145.404 141.053,134.526 z" id="boundary" inkscape:connector-curvature="0" />
	<path style="fill:none;stroke:red;stroke-width:1px;stroke-linecap:butt;stroke-linejoin:miter;stroke-opacity:1" d="M 184.561,134.526 162.807,134.526 z" id="boundary" inkscape:connector-curvature="0" />
	<path style="fill:none;stroke:red;stroke-width:1px;stroke-linecap:butt;stroke-linejoin:miter;stroke-opacity:1" d="M 97.5439,145.404 119.298,145.404 z" id="boundary" inkscape:connector-curvature="0" />
	<path style="fill:none;stroke:red;stroke-width:1px;stroke-linecap:butt;stroke-linejoin:miter;stroke-opacity:1" d="M 164.982,299.86 143.228,299.86 z" id="boundary" inkscape:connector-curvature="0" />
	<path style="fill:none;stroke:red;stroke-width:1px;stroke-linecap:butt;stroke-linejoin:miter;stroke-opacity:1" d="M 4,249.825 14.8772,228.07 z" id="boundary" inkscape:connector-curvature="0" />
	<path style="fill:none;stroke:red;stroke-width:1px;stroke-linecap:butt;stroke-linejoin:miter;stroke-opacity:1" d="M 4,293.333 4,271.579 z" id="boundary" inkscape:connector-curvature="0" />
	<path style="fill:none;stroke:red;stroke-width:1px;stroke-linecap:butt;stroke-linejoin:miter;stroke-opacity:1" d="M 4,271.579 4,249.825 z" id="boundary" inkscape:connector-curvature="0" />
	<path style="fill:none;stroke:red;stroke-width:1px;stroke-linecap:butt;stroke-linejoin:miter;stroke-opacity:1" d="M 99.7193,306.386 121.474,299.86 z" id="boundary" inkscape:connector-curvature="0" />
	<path style="fill:none;stroke:red;stroke-width:1px;stroke-linecap:butt;stroke-linejoin:miter;stroke-opacity:1" d="M 77.9649,310.737 56.2105,310.737 z" id="boundary" inkscape:connector-curvature="0" />
	<path style="fill:none;stroke:red;stroke-width:1px;stroke-linecap:butt;stroke-linejoin:miter;stroke-opacity:1" d="M 77.9649,310.737 99.7193,306.386 z" id="boundary" inkscape:connector-curvature="0" />
	<path style="fill:none;stroke:red;stroke-width:1px;stroke-linecap:butt;stroke-linejoin:miter;stroke-opacity:1" d="M 121.474,299.86 143.228,299.86 z" id="boundary" inkscape:connector-curvature="0" />
	<path style="fill:none;stroke:red;stroke-width:1px;stroke-linecap:butt;stroke-linejoin:miter;stroke-opacity:1" d="M 14.8772,312.912 4,293.333 z" id="boundary" inkscape:connector-curvature="0" />
	<path style="fill:none;stroke:red;stroke-width:1px;stroke-linecap:butt;stroke-linejoin:miter;stroke-opacity:1" d="M 380.351,123.649 358.596,123.649 z" id="boundary" inkscape:connector-curvature="0" />
	<path style="fill:none;stroke:red;stroke-width:1px;stroke-linecap:butt;stroke-linejoin:miter;stroke-opacity:1" d="M 380.351,123.649 402.105,123.649 z" id="boundary" inkscape:connector-curvature="0" />
	<path style="fill:none;stroke:red;stroke-width:1px;stroke-linecap:butt;stroke-linejoin:miter;stroke-opacity:1" d="M 336.842,134.526 358.596,123.649 z" id="boundary" inkscape:connector-curvature="0" />
	<path style="fill:none;stroke:red;stroke-width:1px;stroke-linecap:butt;stroke-linejoin:miter;stroke-opacity:1" d="M 467.368,25.7544 449.965,43.1579 z" id="boundary" inkscape:connector-curvature="0" />
	<path style="fill:none;stroke:red;stroke-width:1px;stroke-linecap:butt;stroke-linejoin:miter;stroke-opacity:1" d="M 423.86,123.649 402.105,123.649 z" id="boundary" inkscape:connector-curvature="0" />
	<path style="fill:none;stroke:red;stroke-width:1px;stroke-linecap:butt;stroke-linejoin:miter;stroke-opacity:1" d="M 449.965,64.9123 449.965,43.1579 z" id="boundary" inkscape:connector-curvature="0" />
	<path style="fill:none;stroke:red;stroke-width:1px;stroke-linecap:butt;stroke-linejoin:miter;stroke-opacity:1" d="M 449.965,86.6667 445.614,123.649 z" id="boundary" inkscape:connector-curvature="0" />
	<path style="fill:none;stroke:red;stroke-width:1px;stroke-linecap:butt;stroke-linejoin:miter;stroke-opacity:1" d="M 445.614,123.649 423.86,123.649 z" id="boundary" inkscape:connector-curvature="0" />
	<path style="fill:none;stroke:red;stroke-width:1px;stroke-linecap:butt;stroke-linejoin:miter;stroke-opacity:1" d="M 206.316,134.526 184.561,134.526 z" id="boundary" inkscape:connector-curvature="0" />
	<path style="fill:none;stroke:red;stroke-width:1px;stroke-linecap:butt;stroke-linejoin:miter;stroke-opacity:1" d="M 206.316,134.526 228.07,134.526 z" id="boundary" inkscape:connector-curvature="0" />
	<path style="fill:none;stroke:red;stroke-width:1px;stroke-linecap:butt;stroke-linejoin:miter;stroke-opacity:1" d="M 186.737,299.86 164.982,299.86 z" id="boundary" inkscape:connector-curvature="0" />
	<path style="fill:none;stroke:red;stroke-width:1px;stroke-linecap:butt;stroke-linejoin:miter;stroke-opacity:1" d="M 228.07,134.526 249.825,134.526 z" id="boundary" inkscape:connector-curvature="0" />
	<path style="fill:none;stroke:red;stroke-width:1px;stroke-linecap:butt;stroke-linejoin:miter;stroke-opacity:1" d="M 249.825,134.526 271.579,134.526 z" id="boundary" inkscape:connector-curvature="0" />
	<path style="fill:none;stroke:red;stroke-width:1px;stroke-linecap:butt;stroke-linejoin:miter;stroke-opacity:1" d="M 293.333,134.526 315.088,134.526 z" id="boundary" inkscape:connector-curvature="0" />
	<path style="fill:none;stroke:red;stroke-width:1px;stroke-linecap:butt;stroke-linejoin:miter;stroke-opacity:1" d="M 336.842,134.526 315.088,134.526 z" id="boundary" inkscape:connector-curvature="0" />
	<path style="fill:none;stroke:red;stroke-width:1px;stroke-linecap:butt;stroke-linejoin:miter;stroke-opacity:1" d="M 293.333,134.526 271.579,134.526 z" id="boundary" inkscape:connector-curvature="0" />
	<path style="fill:none;stroke:red;stroke-width:1px;stroke-linecap:butt;stroke-linejoin:miter;stroke-opacity:1" d="M 58.386,391.228 47.5088,412.982 z" id="boundary" inkscape:connector-curvature="0" />
	<path style="fill:none;stroke:red;stroke-width:1px;stroke-linecap:butt;stroke-linejoin:miter;stroke-opacity:1" d="M 56.2105,310.737 36.6316,321.614 z" id="boundary" inkscape:connector-curvature="0" />
	<path style="fill:none;stroke:red;stroke-width:1px;stroke-linecap:butt;stroke-linejoin:miter;stroke-opacity:1" d="M 36.6316,321.614 14.8772,312.912 z" id="boundary" inkscape:connector-curvature="0" />
	<path style="fill:none;stroke:red;stroke-width:1px;stroke-linecap:butt;stroke-linejoin:miter;stroke-opacity:1" d="M 47.5088,412.982 47.5088,434.737 z" id="boundary" inkscape:connector-curvature="0" />
	<path style="fill:none;stroke:red;stroke-width:1px;stroke-linecap:butt;stroke-linejoin:miter;stroke-opacity:1" d="M 47.5088,434.737 47.5088,456.491 z" id="boundary" inkscape:connector-curvature="0" />
	<path style="fill:none;stroke:red;stroke-width:1px;stroke-linecap:butt;stroke-linejoin:miter;stroke-opacity:1" d="M 101.895,369.474 80.1404,380.351 z" id="boundary" inkscape:connector-curvature="0" />
	<path style="fill:none;stroke:red;stroke-width:1px;stroke-linecap:butt;stroke-linejoin:miter;stroke-opacity:1" d="M 80.1404,380.351 58.386,391.228 z" id="boundary" inkscape:connector-curvature="0" />
	<path style="fill:none;stroke:red;stroke-width:1px;stroke-linecap:butt;stroke-linejoin:miter;stroke-opacity:1" d="M 123.649,362.947 101.895,369.474 z" id="boundary" inkscape:connector-curvature="0" />
	<path style="fill:none;stroke:red;stroke-width:1px;stroke-linecap:butt;stroke-linejoin:miter;stroke-opacity:1" d="M 47.5088,456.491 47.5088,478.246 z" id="boundary" inkscape:connector-curvature="0" />
	<path style="fill:none;stroke:red;stroke-width:1px;stroke-linecap:butt;stroke-linejoin:miter;stroke-opacity:1" d="M 47.5088,500 47.5088,521.754 z" id="boundary" inkscape:connector-curvature="0" />
	<path style="fill:none;stroke:red;stroke-width:1px;stroke-linecap:butt;stroke-linejoin:miter;stroke-opacity:1" d="M 58.386,541.333 47.5088,521.754 z" id="boundary" inkscape:connector-curvature="0" />
	<path style="fill:none;stroke:red;stroke-width:1px;stroke-linecap:butt;stroke-linejoin:miter;stroke-opacity:1" d="M 47.5088,500 47.5088,478.246 z" id="boundary" inkscape:connector-curvature="0" />
	<path style="fill:none;stroke:red;stroke-width:1px;stroke-linecap:butt;stroke-linejoin:miter;stroke-opacity:1" d="M 73.614,558.737 58.386,541.333 z" id="boundary" inkscape:connector-curvature="0" />
	<path style="fill:none;stroke:red;stroke-width:1px;stroke-linecap:butt;stroke-linejoin:miter;stroke-opacity:1" d="M 95.3684,560.912 73.614,558.737 z" id="boundary" inkscape:connector-curvature="0" />
	<path style="fill:none;stroke:red;stroke-width:1px;stroke-linecap:butt;stroke-linejoin:miter;stroke-opacity:1" d="M 95.3684,560.912 117.123,560.912 z" id="boundary" inkscape:connector-curvature="0" />
	<path style="fill:none;stroke:red;stroke-width:1px;stroke-linecap:butt;stroke-linejoin:miter;stroke-opacity:1" d="M 117.123,560.912 138.877,567.439 z" id="boundary" inkscape:connector-curvature="0" />
	<path style="fill:none;stroke:red;stroke-width:1px;stroke-linecap:butt;stroke-linejoin:miter;stroke-opacity:1" d="M 138.877,567.439 160.632,571.789 z" id="boundary" inkscape:connector-curvature="0" />
	<path style="fill:none;stroke:red;stroke-width:1px;stroke-linecap:butt;stroke-linejoin:miter;stroke-opacity:1" d="M 164.982,352.07 143.228,352.07 z" id="boundary" inkscape:connector-curvature="0" />
	<path style="fill:none;stroke:red;stroke-width:1px;stroke-linecap:butt;stroke-linejoin:miter;stroke-opacity:1" d="M 143.228,352.07 123.649,362.947 z" id="boundary" inkscape:connector-curvature="0" />
	<path style="fill:none;stroke:red;stroke-width:1px;stroke-linecap:butt;stroke-linejoin:miter;stroke-opacity:1" d="M 164.982,352.07 184.561,341.193 z" id="boundary" inkscape:connector-curvature="0" />
	<path style="fill:none;stroke:red;stroke-width:1px;stroke-linecap:butt;stroke-linejoin:miter;stroke-opacity:1" d="M 288.982,517.404 267.228,517.404 z" id="boundary" inkscape:connector-curvature="0" />
	<path style="fill:none;stroke:red;stroke-width:1px;stroke-linecap:butt;stroke-linejoin:miter;stroke-opacity:1" d="M 288.982,517.404 310.737,517.404 z" id="boundary" inkscape:connector-curvature="0" />
	<path style="fill:none;stroke:red;stroke-width:1px;stroke-linecap:butt;stroke-linejoin:miter;stroke-opacity:1" d="M 332.491,517.404 354.246,517.404 z" id="boundary" inkscape:connector-curvature="0" />
	<path style="fill:none;stroke:red;stroke-width:1px;stroke-linecap:butt;stroke-linejoin:miter;stroke-opacity:1" d="M 376,517.404 354.246,517.404 z" id="boundary" inkscape:connector-curvature="0" />
	<path style="fill:none;stroke:red;stroke-width:1px;stroke-linecap:butt;stroke-linejoin:miter;stroke-opacity:1" d="M 332.491,517.404 310.737,517.404 z" id="boundary" inkscape:connector-curvature="0" />
	<path style="fill:none;stroke:red;stroke-width:1px;stroke-linecap:butt;stroke-linejoin:miter;stroke-opacity:1" d="M 256.351,539.158 267.228,517.404 z" id="boundary" inkscape:connector-curvature="0" />
	<path style="fill:none;stroke:red;stroke-width:1px;stroke-linecap:butt;stroke-linejoin:miter;stroke-opacity:1" d="M 182.386,571.789 160.632,571.789 z" id="boundary" inkscape:connector-curvature="0" />
	<path style="fill:none;stroke:red;stroke-width:1px;stroke-linecap:butt;stroke-linejoin:miter;stroke-opacity:1" d="M 225.895,571.789 204.14,571.789 z" id="boundary" inkscape:connector-curvature="0" />
	<path style="fill:none;stroke:red;stroke-width:1px;stroke-linecap:butt;stroke-linejoin:miter;stroke-opacity:1" d="M 204.14,571.789 182.386,571.789 z" id="boundary" inkscape:connector-curvature="0" />
	<path style="fill:none;stroke:red;stroke-width:1px;stroke-linecap:butt;stroke-linejoin:miter;stroke-opacity:1" d="M 397.754,517.404 419.509,517.404 z" id="boundary" inkscape:connector-curvature="0" />
	<path style="fill:none;stroke:red;stroke-width:1px;stroke-linecap:butt;stroke-linejoin:miter;stroke-opacity:1" d="M 419.509,517.404 432.561,534.807 z" id="boundary" inkscape:connector-curvature="0" />
	<path style="fill:none;stroke:red;stroke-width:1px;stroke-linecap:butt;stroke-linejoin:miter;stroke-opacity:1" d="M 397.754,517.404 376,517.404 z" id="boundary" inkscape:connector-curvature="0" />
	<path style="fill:none;stroke:red;stroke-width:1px;stroke-linecap:butt;stroke-linejoin:miter;stroke-opacity:1" d="M 245.474,560.912 256.351,539.158 z" id="boundary" inkscape:connector-curvature="0" />
	<path style="fill:none;stroke:red;stroke-width:1px;stroke-linecap:butt;stroke-linejoin:miter;stroke-opacity:1" d="M 245.474,560.912 225.895,571.789 z" id="boundary" inkscape:connector-curvature="0" />
	<path style="fill:none;stroke:red;stroke-width:1px;stroke-linecap:butt;stroke-linejoin:miter;stroke-opacity:1" d="M 432.561,534.807 449.965,550.035 z" id="boundary" inkscape:connector-curvature="0" />
	<path style="fill:none;stroke:red;stroke-width:1px;stroke-linecap:butt;stroke-linejoin:miter;stroke-opacity:1" d="M 449.965,64.9123 449.965,86.6667 z" id="boundary" inkscape:connector-curvature="0" />
	<path style="fill:none;stroke:red;stroke-width:1px;stroke-linecap:butt;stroke-linejoin:miter;stroke-opacity:1" d="M 552.211,4 573.965,4 z" id="boundary" inkscape:connector-curvature="0" />
	<path style="fill:none;stroke:red;stroke-width:1px;stroke-linecap:butt;stroke-linejoin:miter;stroke-opacity:1" d="M 595.719,4 617.474,4 z" id="boundary" inkscape:connector-curvature="0" />
	<path style="fill:none;stroke:red;stroke-width:1px;stroke-linecap:butt;stroke-linejoin:miter;stroke-opacity:1" d="M 573.965,4 595.719,4 z" id="boundary" inkscape:connector-curvature="0" />
	<path style="fill:none;stroke:red;stroke-width:1px;stroke-linecap:butt;stroke-linejoin:miter;stroke-opacity:1" d="M 639.228,4 660.982,4 z" id="boundary" inkscape:connector-curvature="0" />
	<path style="fill:none;stroke:red;stroke-width:1px;stroke-linecap:butt;stroke-linejoin:miter;stroke-opacity:1" d="M 682.737,4 704.491,4 z" id="boundary" inkscape:connector-curvature="0" />
	<path style="fill:none;stroke:red;stroke-width:1px;stroke-linecap:butt;stroke-linejoin:miter;stroke-opacity:1" d="M 660.982,4 682.737,4 z" id="boundary" inkscape:connector-curvature="0" />
	<path style="fill:none;stroke:red;stroke-width:1px;stroke-linecap:butt;stroke-linejoin:miter;stroke-opacity:1" d="M 486.947,14.8772 508.702,14.8772 z" id="boundary" inkscape:connector-curvature="0" />
	<path style="fill:none;stroke:red;stroke-width:1px;stroke-linecap:butt;stroke-linejoin:miter;stroke-opacity:1" d="M 467.368,25.7544 486.947,14.8772 z" id="boundary" inkscape:connector-curvature="0" />
	<path style="fill:none;stroke:red;stroke-width:1px;stroke-linecap:butt;stroke-linejoin:miter;stroke-opacity:1" d="M 530.456,6.17544 508.702,14.8772 z" id="boundary" inkscape:connector-curvature="0" />
	<path style="fill:none;stroke:red;stroke-width:1px;stroke-linecap:butt;stroke-linejoin:miter;stroke-opacity:1" d="M 530.456,6.17544 552.211,4 z" id="boundary" inkscape:connector-curvature="0" />
	<path style="fill:none;stroke:red;stroke-width:1px;stroke-linecap:butt;stroke-linejoin:miter;stroke-opacity:1" d="M 726.246,4 748,4 z" id="boundary" inkscape:connector-curvature="0" />
	<path style="fill:none;stroke:red;stroke-width:1px;stroke-linecap:butt;stroke-linejoin:miter;stroke-opacity:1" d="M 748,4 765.404,19.2281 z" id="boundary" inkscape:connector-curvature="0" />
	<path style="fill:none;stroke:red;stroke-width:1px;stroke-linecap:butt;stroke-linejoin:miter;stroke-opacity:1" d="M 617.474,4 639.228,4 z" id="boundary" inkscape:connector-curvature="0" />
	<path style="fill:none;stroke:red;stroke-width:1px;stroke-linecap:butt;stroke-linejoin:miter;stroke-opacity:1" d="M 704.491,4 726.246,4 z" id="boundary" inkscape:connector-curvature="0" />
	<path style="fill:none;stroke:red;stroke-width:1px;stroke-linecap:butt;stroke-linejoin:miter;stroke-opacity:1" d="M 765.404,19.2281 778.456,36.6316 z" id="boundary" inkscape:connector-curvature="0" />
	<path style="fill:none;stroke:red;stroke-width:1px;stroke-linecap:butt;stroke-linejoin:miter;stroke-opacity:1" d="M 778.456,36.6316 778.456,58.386 z" id="boundary" inkscape:connector-curvature="0" />
	<path style="fill:none;stroke:red;stroke-width:1px;stroke-linecap:butt;stroke-linejoin:miter;stroke-opacity:1" d="M 778.456,58.386 778.456,80.1404 z" id="boundary" inkscape:connector-curvature="0" />
	<path style="fill:none;stroke:red;stroke-width:1px;stroke-linecap:butt;stroke-linejoin:miter;stroke-opacity:1" d="M 806.737,136.702 789.333,121.474 z" id="boundary" inkscape:connector-curvature="0" />
	<path style="fill:none;stroke:red;stroke-width:1px;stroke-linecap:butt;stroke-linejoin:miter;stroke-opacity:1" d="M 789.333,121.474 778.456,101.895 z" id="boundary" inkscape:connector-curvature="0" />
	<path style="fill:none;stroke:red;stroke-width:1px;stroke-linecap:butt;stroke-linejoin:miter;stroke-opacity:1" d="M 778.456,101.895 778.456,80.1404 z" id="boundary" inkscape:connector-curvature="0" />
	<path style="fill:none;stroke:red;stroke-width:1px;stroke-linecap:butt;stroke-linejoin:miter;stroke-opacity:1" d="M 806.737,136.702 821.965,154.105 z" id="boundary" inkscape:connector-curvature="0" />
	<path style="fill:none;stroke:red;stroke-width:1px;stroke-linecap:butt;stroke-linejoin:miter;stroke-opacity:1" d="M 832.842,173.684 832.842,195.439 z" id="boundary" inkscape:connector-curvature="0" />
	<path style="fill:none;stroke:red;stroke-width:1px;stroke-linecap:butt;stroke-linejoin:miter;stroke-opacity:1" d="M 821.965,154.105 832.842,173.684 z" id="boundary" inkscape:connector-curvature="0" />
	<path style="fill:none;stroke:red;stroke-width:1px;stroke-linecap:butt;stroke-linejoin:miter;stroke-opacity:1" d="M 832.842,195.439 832.842,217.193 z" id="boundary" inkscape:connector-curvature="0" />
	<path style="fill:none;stroke:red;stroke-width:1px;stroke-linecap:butt;stroke-linejoin:miter;stroke-opacity:1" d="M 832.842,217.193 854.596,221.544 z" id="boundary" inkscape:connector-curvature="0" />
	<path style="fill:none;stroke:red;stroke-width:1px;stroke-linecap:butt;stroke-linejoin:miter;stroke-opacity:1" d="M 854.596,221.544 876.351,228.07 z" id="boundary" inkscape:connector-curvature="0" />
	<path style="fill:none;stroke:red;stroke-width:1px;stroke-linecap:butt;stroke-linejoin:miter;stroke-opacity:1" d="M 895.93,238.947 876.351,228.07 z" id="boundary" inkscape:connector-curvature="0" />
	<path style="fill:none;stroke:red;stroke-width:1px;stroke-linecap:butt;stroke-linejoin:miter;stroke-opacity:1" d="M 895.93,238.947 906.807,258.526 z" id="boundary" inkscape:connector-curvature="0" />
	<path style="fill:none;stroke:red;stroke-width:1px;stroke-linecap:butt;stroke-linejoin:miter;stroke-opacity:1" d="M 908.982,280.281 908.982,302.035 z" id="boundary" inkscape:connector-curvature="0" />
	<path style="fill:none;stroke:red;stroke-width:1px;stroke-linecap:butt;stroke-linejoin:miter;stroke-opacity:1" d="M 930.737,330.316 908.982,323.789 z" id="boundary" inkscape:connector-curvature="0" />
	<path style="fill:none;stroke:red;stroke-width:1px;stroke-linecap:butt;stroke-linejoin:miter;stroke-opacity:1" d="M 908.982,323.789 908.982,302.035 z" id="boundary" inkscape:connector-curvature="0" />
	<path style="fill:none;stroke:red;stroke-width:1px;stroke-linecap:butt;stroke-linejoin:miter;stroke-opacity:1" d="M 952.491,330.316 930.737,330.316 z" id="boundary" inkscape:connector-curvature="0" />
	<path style="fill:none;stroke:red;stroke-width:1px;stroke-linecap:butt;stroke-linejoin:miter;stroke-opacity:1" d="M 908.982,280.281 906.807,258.526 z" id="boundary" inkscape:connector-curvature="0" />
	<path style="fill:none;stroke:red;stroke-width:1px;stroke-linecap:butt;stroke-linejoin:miter;stroke-opacity:1" d="M 678.386,500 695.789,482.596 z" id="boundary" inkscape:connector-curvature="0" />
	<path style="fill:none;stroke:red;stroke-width:1px;stroke-linecap:butt;stroke-linejoin:miter;stroke-opacity:1" d="M 641.404,528.281 660.982,517.404 z" id="boundary" inkscape:connector-curvature="0" />
	<path style="fill:none;stroke:red;stroke-width:1px;stroke-linecap:butt;stroke-linejoin:miter;stroke-opacity:1" d="M 678.386,500 660.982,517.404 z" id="boundary" inkscape:connector-curvature="0" />
	<path style="fill:none;stroke:red;stroke-width:1px;stroke-linecap:butt;stroke-linejoin:miter;stroke-opacity:1" d="M 734.947,463.018 713.193,463.018 z" id="boundary" inkscape:connector-curvature="0" />
	<path style="fill:none;stroke:red;stroke-width:1px;stroke-linecap:butt;stroke-linejoin:miter;stroke-opacity:1" d="M 756.702,463.018 776.281,473.895 z" id="boundary" inkscape:connector-curvature="0" />
	<path style="fill:none;stroke:red;stroke-width:1px;stroke-linecap:butt;stroke-linejoin:miter;stroke-opacity:1" d="M 734.947,463.018 756.702,463.018 z" id="boundary" inkscape:connector-curvature="0" />
	<path style="fill:none;stroke:red;stroke-width:1px;stroke-linecap:butt;stroke-linejoin:miter;stroke-opacity:1" d="M 695.789,482.596 713.193,463.018 z" id="boundary" inkscape:connector-curvature="0" />
	<path style="fill:none;stroke:red;stroke-width:1px;stroke-linecap:butt;stroke-linejoin:miter;stroke-opacity:1" d="M 621.825,539.158 641.404,528.281 z" id="boundary" inkscape:connector-curvature="0" />
	<path style="fill:none;stroke:red;stroke-width:1px;stroke-linecap:butt;stroke-linejoin:miter;stroke-opacity:1" d="M 449.965,550.035 469.544,560.912 z" id="boundary" inkscape:connector-curvature="0" />
	<path style="fill:none;stroke:red;stroke-width:1px;stroke-linecap:butt;stroke-linejoin:miter;stroke-opacity:1" d="M 491.298,560.912 469.544,560.912 z" id="boundary" inkscape:connector-curvature="0" />
	<path style="fill:none;stroke:red;stroke-width:1px;stroke-linecap:butt;stroke-linejoin:miter;stroke-opacity:1" d="M 491.298,560.912 513.053,560.912 z" id="boundary" inkscape:connector-curvature="0" />
	<path style="fill:none;stroke:red;stroke-width:1px;stroke-linecap:butt;stroke-linejoin:miter;stroke-opacity:1" d="M 600.07,545.684 621.825,539.158 z" id="boundary" inkscape:connector-curvature="0" />
	<path style="fill:none;stroke:red;stroke-width:1px;stroke-linecap:butt;stroke-linejoin:miter;stroke-opacity:1" d="M 578.316,556.561 600.07,545.684 z" id="boundary" inkscape:connector-curvature="0" />
	<path style="fill:none;stroke:red;stroke-width:1px;stroke-linecap:butt;stroke-linejoin:miter;stroke-opacity:1" d="M 534.807,560.912 513.053,560.912 z" id="boundary" inkscape:connector-curvature="0" />
	<path style="fill:none;stroke:red;stroke-width:1px;stroke-linecap:butt;stroke-linejoin:miter;stroke-opacity:1" d="M 556.561,560.912 534.807,560.912 z" id="boundary" inkscape:connector-curvature="0" />
	<path style="fill:none;stroke:red;stroke-width:1px;stroke-linecap:butt;stroke-linejoin:miter;stroke-opacity:1" d="M 578.316,556.561 556.561,560.912 z" id="boundary" inkscape:connector-curvature="0" />
	<path style="fill:none;stroke:red;stroke-width:1px;stroke-linecap:butt;stroke-linejoin:miter;stroke-opacity:1" d="M 776.281,473.895 789.333,491.298 z" id="boundary" inkscape:connector-curvature="0" />
	<path style="fill:none;stroke:red;stroke-width:1px;stroke-linecap:butt;stroke-linejoin:miter;stroke-opacity:1" d="M 963.368,441.263 941.614,441.263 z" id="boundary" inkscape:connector-curvature="0" />
	<path style="fill:none;stroke:red;stroke-width:1px;stroke-linecap:butt;stroke-linejoin:miter;stroke-opacity:1" d="M 980.772,426.035 963.368,441.263 z" id="boundary" inkscape:connector-curvature="0" />
	<path style="fill:none;stroke:red;stroke-width:1px;stroke-linecap:butt;stroke-linejoin:miter;stroke-opacity:1" d="M 941.614,484.772 941.614,463.018 z" id="boundary" inkscape:connector-curvature="0" />
	<path style="fill:none;stroke:red;stroke-width:1px;stroke-linecap:butt;stroke-linejoin:miter;stroke-opacity:1" d="M 941.614,463.018 941.614,441.263 z" id="boundary" inkscape:connector-curvature="0" />
	<path style="fill:none;stroke:red;stroke-width:1px;stroke-linecap:butt;stroke-linejoin:miter;stroke-opacity:1" d="M 989.474,354.246 996,376 z" id="boundary" inkscape:connector-curvature="0" />
	<path style="fill:none;stroke:red;stroke-width:1px;stroke-linecap:butt;stroke-linejoin:miter;stroke-opacity:1" d="M 989.474,354.246 974.246,336.842 z" id="boundary" inkscape:connector-curvature="0" />
	<path style="fill:none;stroke:red;stroke-width:1px;stroke-linecap:butt;stroke-linejoin:miter;stroke-opacity:1" d="M 996,397.754 980.772,426.035 z" id="boundary" inkscape:connector-curvature="0" />
	<path style="fill:none;stroke:red;stroke-width:1px;stroke-linecap:butt;stroke-linejoin:miter;stroke-opacity:1" d="M 996,376 996,397.754 z" id="boundary" inkscape:connector-curvature="0" />
	<path style="fill:none;stroke:red;stroke-width:1px;stroke-linecap:butt;stroke-linejoin:miter;stroke-opacity:1" d="M 952.491,330.316 974.246,336.842 z" id="boundary" inkscape:connector-curvature="0" />
	<path style="fill:none;stroke:red;stroke-width:1px;stroke-linecap:butt;stroke-linejoin:miter;stroke-opacity:1" d="M 789.333,491.298 800.211,510.877 z" id="boundary" inkscape:connector-curvature="0" />
	<path style="fill:none;stroke:red;stroke-width:1px;stroke-linecap:butt;stroke-linejoin:miter;stroke-opacity:1" d="M 819.789,521.754 800.211,510.877 z" id="boundary" inkscape:connector-curvature="0" />
	<path style="fill:none;stroke:red;stroke-width:1px;stroke-linecap:butt;stroke-linejoin:miter;stroke-opacity:1" d="M 819.789,521.754 841.544,528.281 z" id="boundary" inkscape:connector-curvature="0" />
	<path style="fill:none;stroke:red;stroke-width:1px;stroke-linecap:butt;stroke-linejoin:miter;stroke-opacity:1" d="M 841.544,528.281 861.123,539.158 z" id="boundary" inkscape:connector-curvature="0" />
	<path style="fill:none;stroke:red;stroke-width:1px;stroke-linecap:butt;stroke-linejoin:miter;stroke-opacity:1" d="M 924.211,515.228 941.614,484.772 z" id="boundary" inkscape:connector-curvature="0" />
	<path style="fill:none;stroke:red;stroke-width:1px;stroke-linecap:butt;stroke-linejoin:miter;stroke-opacity:1" d="M 924.211,515.228 904.632,528.281 z" id="boundary" inkscape:connector-curvature="0" />
	<path style="fill:none;stroke:red;stroke-width:1px;stroke-linecap:butt;stroke-linejoin:miter;stroke-opacity:1" d="M 882.877,534.807 861.123,539.158 z" id="boundary" inkscape:connector-curvature="0" />
	<path style="fill:none;stroke:red;stroke-width:1px;stroke-linecap:butt;stroke-linejoin:miter;stroke-opacity:1" d="M 904.632,528.281 882.877,534.807 z" id="boundary" inkscape:connector-curvature="0" />
	<circle cx="4" cy="249.825" r="4" fill="#0" id="circle0"/>
	<circle cx="4" cy="271.579" r="4" fill="#0" id="circle1"/>
	<circle cx="4" cy="293.333" r="4" fill="#0" id="circle2"/>
	<circle cx="14.8772" cy="228.07" r="4" fill="#0" id="circle3"/>
	<circle cx="14.8772" cy="312.912" r="4" fill="#0" id="circle4"/>
	<circle cx="36.6316" cy="217.193" r="4" fill="#0" id="circle5"/>
	<circle cx="36.6316" cy="321.614" r="4" fill="#0" id="circle6"/>
	<circle cx="47.5088" cy="195.439" r="4" fill="#0" id="circle7"/>
	<circle cx="47.5088" cy="412.982" r="4" fill="#0" id="circle8"/>
	<circle cx="47.5088" cy="434.737" r="4" fill="#0" id="circle9"/>
	<circle cx="47.5088" cy="456.491" r="4" fill="#0" id="circle10"/>
	<circle cx="47.5088" cy="478.246" r="4" fill="#0" id="circle11"/>
	<circle cx="47.5088" cy="500" r="4" fill="#0" id="circle12"/>
	<circle cx="47.5088" cy="521.754" r="4" fill="#0" id="circle13"/>
	<circle cx="56.2105" cy="310.737" r="4" fill="#0" id="circle14"/>
	<circle cx="58.386" cy="391.228" r="4" fill="#0" id="circle15"/>
	<circle cx="58.386" cy="541.333" r="4" fill="#0" id="circle16"/>
	<circle cx="64.9123" cy="178.035" r="4" fill="#0" id="circle17"/>
	<circle cx="73.614" cy="558.737" r="4" fill="#0" id="circle18"/>
	<circle cx="75.7895" cy="156.281" r="4" fill="#0" id="circle19"/>
	<circle cx="77.9649" cy="310.737" r="4" fill="#0" id="circle20"/>
	<circle cx="80.1404" cy="380.351" r="4" fill="#0" id="circle21"/>
	<circle cx="95.3684" cy="560.912" r="4" fill="#0" id="circle22"/>
	<circle cx="97.5439" cy="145.404" r="4" fill="#0" id="circle23"/>
	<circle cx="99.7193" cy="306.386" r="4" fill="#0" id="circle24"/>
	<circle cx="101.895" cy="369.474" r="4" fill="#0" id="circle25"/>
	<circle cx="117.123" cy="560.912" r="4" fill="#0" id="circle26"/>
	<circle cx="119.298" cy="145.404" r="4" fill="#0" id="circle27"/>
	<circle cx="121.474" cy="299.86" r="4" fill="#0" id="circle28"/>
	<circle cx="123.649" cy="362.947" r="4" fill="#0" id="circle29"/>
	<circle cx="138.877" cy="567.439" r="4" fill="#0" id="circle30"/>
	<circle cx="141.053" cy="134.526" r="4" fill="#0" id="circle31"/>
	<circle cx="143.228" cy="299.86" r="4" fill="#0" id="circle32"/>
	<circle cx="143.228" cy="352.07" r="4" fill="#0" id="circle33"/>
	<circle cx="160.632" cy="571.789" r="4" fill="#0" id="circle34"/>
	<circle cx="162.807" cy="134.526" r="4" fill="#0" id="circle35"/>
	<circle cx="164.982" cy="299.86" r="4" fill="#0" id="circle36"/>
	<circle cx="164.982" cy="352.07" r="4" fill="#0" id="circle37"/>
	<circle cx="182.386" cy="571.789" r="4" fill="#0" id="circle38"/>
	<circle cx="184.561" cy="134.526" r="4" fill="#0" id="circle39"/>
	<circle cx="184.561" cy="341.193" r="4" fill="#0" id="circle40"/>
	<circle cx="186.737" cy="299.86" r="4" fill="#0" id="circle41"/>
	<circle cx="204.14" cy="571.789" r="4" fill="#0" id="circle42"/>
	<circle cx="206.316" cy="134.526" r="4" fill="#0" id="circle43"/>
	<circle cx="225.895" cy="571.789" r="4" fill="#0" id="circle44"/>
	<circle cx="228.07" cy="134.526" r="4" fill="#0" id="circle45"/>
	<circle cx="245.474" cy="560.912" r="4" fill="#0" id="circle46"/>
	<circle cx="249.825" cy="134.526" r="4" fill="#0" id="circle47"/>
	<circle cx="256.351" cy="539.158" r="4" fill="#0" id="circle48"/>
	<circle cx="267.228" cy="517.404" r="4" fill="#0" id="circle49"/>
	<circle cx="271.579" cy="134.526" r="4" fill="#0" id="circle50"/>
	<circle cx="288.982" cy="517.404" r="4" fill="#0" id="circle51"/>
	<circle cx="293.333" cy="134.526" r="4" fill="#0" id="circle52"/>
	<circle cx="310.737" cy="517.404" r="4" fill="#0" id="circle53"/>
	<circle cx="315.088" cy="134.526" r="4" fill="#0" id="circle54"/>
	<circle cx="332.491" cy="517.404" r="4" fill="#0" id="circle55"/>
	<circle cx="336.842" cy="134.526" r="4" fill="#0" id="circle56"/>
	<circle cx="354.246" cy="517.404" r="4" fill="#0" id="circle57"/>
	<circle cx="358.596" cy="123.649" r="4" fill="#0" id="circle58"/>
	<circle cx="376" cy="517.404" r="4" fill="#0" id="circle59"/>
	<circle cx="380.351" cy="123.649" r="4" fill="#0" id="circle60"/>
	<circle cx="397.754" cy="517.404" r="4" fill="#0" id="circle61"/>
	<circle cx="402.105" cy="123.649" r="4" fill="#0" id="circle62"/>
	<circle cx="419.509" cy="517.404" r="4" fill="#0" id="circle63"/>
	<circle cx="423.86" cy="123.649" r="4" fill="#0" id="circle64"/>
	<circle cx="432.561" cy="534.807" r="4" fill="#0" id="circle65"/>
	<circle cx="445.614" cy="123.649" r="4" fill="#0" id="circle66"/>
	<circle cx="449.965" cy="43.1579" r="4" fill="#0" id="circle67"/>
	<circle cx="449.965" cy="64.9123" r="4" fill="#0" id="circle68"/>
	<circle cx="449.965" cy="86.6667" r="4" fill="#0" id="circle69"/>
	<circle cx="449.965" cy="550.035" r="4" fill="#0" id="circle70"/>
	<circle cx="467.368" cy="25.7544" r="4" fill="#0" id="circle71"/>
	<circle cx="469.544" cy="560.912" r="4" fill="#0" id="circle72"/>
	<circle cx="486.947" cy="14.8772" r="4" fill="#0" id="circle73"/>
	<circle cx="491.298" cy="560.912" r="4" fill="#0" id="circle74"/>
	<circle cx="508.702" cy="14.8772" r="4" fill="#0" id="circle75"/>
	<circle cx="513.053" cy="560.912" r="4" fill="#0" id="circle76"/>
	<circle cx="530.456" cy="6.17544" r="4" fill="#0" id="circle77"/>
	<circle cx="534.807" cy="560.912" r="4" fill="#0" id="circle78"/>
	<circle cx="552.211" cy="4" r="4" fill="#0" id="circle79"/>
	<circle cx="556.561" cy="560.912" r="4" fill="#0" id="circle80"/>
	<circle cx="573.965" cy="4" r="4" fill="#0" id="circle81"/>
	<circle cx="578.316" cy="556.561" r="4" fill="#0" id="circle82"/>
	<circle cx="595.719" cy="4" r="4" fill="#0" id="circle83"/>
	<circle cx="600.07" cy="545.684" r="4" fill="#0" id="circle84"/>
	<circle cx="617.474" cy="4" r="4" fill="#0" id="circle85"/>
	<circle cx="621.825" cy="539.158" r="4" fill="#0" id="circle86"/>
	<circle cx="639.228" cy="4" r="4" fill="#0" id="circle87"/>
	<circle cx="641.404" cy="528.281" r="4" fill="#0" id="circle88"/>
	<circle cx="660.982" cy="4" r="4" fill="#0" id="circle89"/>
	<circle cx="660.982" cy="517.404" r="4" fill="#0" id="circle90"/>
	<circle cx="678.386" cy="500" r="4" fill="#0" id="circle91"/>
	<circle cx="682.737" cy="4" r="4" fill="#0" id="circle92"/>
	<circle cx="695.789" cy="482.596" r="4" fill="#0" id="circle93"/>
	<circle cx="704.491" cy="4" r="4" fill="#0" id="circle94"/>
	<circle cx="713.193" cy="463.018" r="4" fill="#0" id="circle95"/>
	<circle cx="726.246" cy="4" r="4" fill="#0" id="circle96"/>
	<circle cx="734.947" cy="463.018" r="4" fill="#0" id="circle97"/>
	<circle cx="748" cy="4" r="4" fill="#0" id="circle98"/>
	<circle cx="756.702" cy="463.018" r="4" fill="#0" id="circle99"/>
	<circle cx="765.404" cy="19.2281" r="4" fill="#0" id="circle100"/>
	<circle cx="776.281" cy="473.895" r="4" fill="#0" id="circle101"/>
	<circle cx="778.456" cy="36.6316" r="4" fill="#0" id="circle102"/>
	<circle cx="778.456" cy="58.386" r="4" fill="#0" id="circle103"/>
	<circle cx="778.456" cy="80.1404" r="4" fill="#0" id="circle104"/>
	<circle cx="778.456" cy="101.895" r="4" fill="#0" id="circle105"/>
	<circle cx="789.333" cy="121.474" r="4" fill="#0" id="circle106"/>
	<circle cx="789.333" cy="491.298" r="4" fill="#0" id="circle107"/>
	<circle cx="800.211" cy="510.877" r="4" fill="#0" id="circle108"/>
	<circle cx="806.737" cy="136.702" r="4" fill="#0" id="circle109"/>
	<circle cx="819.789" cy="521.754" r="4" fill="#0" id="circle110"/>
	<circle cx="821.965" cy="154.105" r="4" fill="#0" id="circle111"/>
	<circle cx="832.842" cy="173.684" r="4" fill="#0" id="circle112"/>
	<circle cx="832.842" cy="195.439" r="4" fill="#0" id="circle113"/>
	<circle cx="832.842" cy="217.193" r="4" fill="#0" id="circle114"/>
	<circle cx="841.544" cy="528.281" r="4" fill="#0" id="circle115"/>
	<circle cx="854.596" cy="221.544" r="4" fill="#0" id="circle116"/>
	<circle cx="861.123" cy="539.158" r="4" fill="#0" id="circle117"/>
	<circle cx="876.351" cy="228.07" r="4" fill="#0" id="circle118"/>
	<circle cx="882.877" cy="534.807" r="4" fill="#0" id="circle119"/>
	<circle cx="895.93" cy="238.947" r="4" fill="#0" id="circle120"/>
	<circle cx="904.632" cy="528.281" r="4" fill="#0" id="circle121"/>
	<circle cx="906.807" cy="258.526" r="4" fill="#0" id="circle122"/>
	<circle cx="908.982" cy="280.281" r="4" fill="#0" id="circle123"/>
	<circle cx="908.982" cy="302.035" r="4" fill="#0" id="circle124"/>
	<circle cx="908.982" cy="323.789" r="4" fill="#0" id="circle125"/>
	<circle cx="924.211" cy="515.228" r="4" fill="#0" id="circle126"/>
	<circle cx="930.737" cy="330.316" r="4" fill="#0" id="circle127"/>
	<circle cx="941.614" cy="441.263" r="4" fill="#0" id="circle128"/>
	<circle cx="941.614" cy="463.018" r="4" fill="#0" id="circle129"/>
	<circle cx="941.614" cy="484.772" r="4" fill="#0" id="circle130"/>
	<circle cx="952.491" cy="330.316" r="4" fill="#0" id="circle131"/>
	<circle cx="963.368" cy="441.263" r="4" fill="#0" id="circle132"/>
	<circle cx="974.246" cy="336.842" r="4" fill="#0" id="circle133"/>
	<circle cx="980.772" cy="426.035" r="4" fill="#0" id="circle134"/>
	<circle cx="989.474" cy="354.246" r="4" fill="#0" id="circle135"/>
	<circle cx="996" cy="376" r="4" fill="#0" id="circle136"/>
	<circle cx="996" cy="397.754" r="4" fill="#0" id="circle137"/>
	</g>
</svg>