<?xml version="1.0" encoding="UTF-8" standalone="no"?>
<!-- Created with CurveBenchmark -->
<svg
	xmlns:dc="http://purl.org/dc/elements/1.1/"
	xmlns:cc="http://creativecommons.org/ns#"
	xmlns:rdf="http://www.w3.org/1999/02/22-rdf-syntax-ns#"
	xmlns:svg="http://www.w3.org/2000/svg"
	xmlns="http://www.w3.org/2000/svg"
	xmlns:sodipodi="http://sodipodi.sourceforge.net/DTD/sodipodi-0.dtd"
	xmlns:inkscape="http://www.inkscape.org/namespaces/inkscape"
	width="1000"
	height="1000"
	id="svg2"
	version="1.1"
	sodipodi:docname="manifold/ccrust-fgen3ap.png.txt">
<defs
	id="defs4" />
<metadata
	id="metadata7">
	<rdf:RDF>
		<cc:Work
			rdf:about="">
			<dc:format>image/svg+xml</dc:format>
			<dc:type
				rdf:resource="http://purl.org/dc/dcmitype/StillImage" />
			<dc:title></dc:title>
		</cc:Work>
	</rdf:RDF>
</metadata>
<g
	inkscape:label="Layer 1"
	inkscape:groupmode="layer"
	id="layer1">
	<path style="fill:none;stroke:red;stroke-width:1px;stroke-linecap:butt;stroke-linejoin:miter;stroke-opacity:1" d="M 13.1682,209.368 4,192.865 z" id="boundary" inkscape:connector-curvature="0" />
	<path style="fill:none;stroke:red;stroke-width:1px;stroke-linecap:butt;stroke-linejoin:miter;stroke-opacity:1" d="M 4,192.865 13.1682,174.529 z" id="boundary" inkscape:connector-curvature="0" />
	<path style="fill:none;stroke:red;stroke-width:1px;stroke-linecap:butt;stroke-linejoin:miter;stroke-opacity:1" d="M 26.0037,224.037 13.1682,209.368 z" id="boundary" inkscape:connector-curvature="0" />
	<path style="fill:none;stroke:red;stroke-width:1px;stroke-linecap:butt;stroke-linejoin:miter;stroke-opacity:1" d="M 44.3401,225.871 26.0037,224.037 z" id="boundary" inkscape:connector-curvature="0" />
	<path style="fill:none;stroke:red;stroke-width:1px;stroke-linecap:butt;stroke-linejoin:miter;stroke-opacity:1" d="M 13.1682,174.529 27.8373,159.86 z" id="boundary" inkscape:connector-curvature="0" />
	<path style="fill:none;stroke:red;stroke-width:1px;stroke-linecap:butt;stroke-linejoin:miter;stroke-opacity:1" d="M 42.5065,145.19 60.8429,136.022 z" id="boundary" inkscape:connector-curvature="0" />
	<path style="fill:none;stroke:red;stroke-width:1px;stroke-linecap:butt;stroke-linejoin:miter;stroke-opacity:1" d="M 79.1793,126.854 60.8429,136.022 z" id="boundary" inkscape:connector-curvature="0" />
	<path style="fill:none;stroke:red;stroke-width:1px;stroke-linecap:butt;stroke-linejoin:miter;stroke-opacity:1" d="M 60.8429,216.702 44.3401,225.871 z" id="boundary" inkscape:connector-curvature="0" />
	<path style="fill:none;stroke:red;stroke-width:1px;stroke-linecap:butt;stroke-linejoin:miter;stroke-opacity:1" d="M 27.8373,159.86 42.5065,145.19 z" id="boundary" inkscape:connector-curvature="0" />
	<path style="fill:none;stroke:red;stroke-width:1px;stroke-linecap:butt;stroke-linejoin:miter;stroke-opacity:1" d="M 86.5139,293.715 77.3457,312.052 z" id="boundary" inkscape:connector-curvature="0" />
	<path style="fill:none;stroke:red;stroke-width:1px;stroke-linecap:butt;stroke-linejoin:miter;stroke-opacity:1" d="M 79.1793,207.534 60.8429,216.702 z" id="boundary" inkscape:connector-curvature="0" />
	<path style="fill:none;stroke:red;stroke-width:1px;stroke-linecap:butt;stroke-linejoin:miter;stroke-opacity:1" d="M 49.841,403.734 49.841,385.397 z" id="boundary" inkscape:connector-curvature="0" />
	<path style="fill:none;stroke:red;stroke-width:1px;stroke-linecap:butt;stroke-linejoin:miter;stroke-opacity:1" d="M 49.841,385.397 59.0092,367.061 z" id="boundary" inkscape:connector-curvature="0" />
	<path style="fill:none;stroke:red;stroke-width:1px;stroke-linecap:butt;stroke-linejoin:miter;stroke-opacity:1" d="M 49.841,403.734 49.841,422.07 z" id="boundary" inkscape:connector-curvature="0" />
	<path style="fill:none;stroke:red;stroke-width:1px;stroke-linecap:butt;stroke-linejoin:miter;stroke-opacity:1" d="M 59.0092,456.909 49.841,440.407 z" id="boundary" inkscape:connector-curvature="0" />
	<path style="fill:none;stroke:red;stroke-width:1px;stroke-linecap:butt;stroke-linejoin:miter;stroke-opacity:1" d="M 49.841,440.407 49.841,422.07 z" id="boundary" inkscape:connector-curvature="0" />
	<path style="fill:none;stroke:red;stroke-width:1px;stroke-linecap:butt;stroke-linejoin:miter;stroke-opacity:1" d="M 59.0092,348.725 59.0092,367.061 z" id="boundary" inkscape:connector-curvature="0" />
	<path style="fill:none;stroke:red;stroke-width:1px;stroke-linecap:butt;stroke-linejoin:miter;stroke-opacity:1" d="M 68.1774,330.388 77.3457,312.052 z" id="boundary" inkscape:connector-curvature="0" />
	<path style="fill:none;stroke:red;stroke-width:1px;stroke-linecap:butt;stroke-linejoin:miter;stroke-opacity:1" d="M 59.0092,348.725 68.1774,330.388 z" id="boundary" inkscape:connector-curvature="0" />
	<path style="fill:none;stroke:red;stroke-width:1px;stroke-linecap:butt;stroke-linejoin:miter;stroke-opacity:1" d="M 68.1774,491.749 59.0092,475.246 z" id="boundary" inkscape:connector-curvature="0" />
	<path style="fill:none;stroke:red;stroke-width:1px;stroke-linecap:butt;stroke-linejoin:miter;stroke-opacity:1" d="M 59.0092,475.246 59.0092,456.909 z" id="boundary" inkscape:connector-curvature="0" />
	<path style="fill:none;stroke:red;stroke-width:1px;stroke-linecap:butt;stroke-linejoin:miter;stroke-opacity:1" d="M 165.36,86.5139 180.03,71.8447 z" id="boundary" inkscape:connector-curvature="0" />
	<path style="fill:none;stroke:red;stroke-width:1px;stroke-linecap:butt;stroke-linejoin:miter;stroke-opacity:1" d="M 165.36,86.5139 150.691,101.183 z" id="boundary" inkscape:connector-curvature="0" />
	<path style="fill:none;stroke:red;stroke-width:1px;stroke-linecap:butt;stroke-linejoin:miter;stroke-opacity:1" d="M 97.5157,123.187 79.1793,126.854 z" id="boundary" inkscape:connector-curvature="0" />
	<path style="fill:none;stroke:red;stroke-width:1px;stroke-linecap:butt;stroke-linejoin:miter;stroke-opacity:1" d="M 134.189,114.018 150.691,101.183 z" id="boundary" inkscape:connector-curvature="0" />
	<path style="fill:none;stroke:red;stroke-width:1px;stroke-linecap:butt;stroke-linejoin:miter;stroke-opacity:1" d="M 180.03,71.8447 194.699,59.0092 z" id="boundary" inkscape:connector-curvature="0" />
	<path style="fill:none;stroke:red;stroke-width:1px;stroke-linecap:butt;stroke-linejoin:miter;stroke-opacity:1" d="M 194.699,59.0092 211.201,49.841 z" id="boundary" inkscape:connector-curvature="0" />
	<path style="fill:none;stroke:red;stroke-width:1px;stroke-linecap:butt;stroke-linejoin:miter;stroke-opacity:1" d="M 134.189,114.018 115.852,117.686 z" id="boundary" inkscape:connector-curvature="0" />
	<path style="fill:none;stroke:red;stroke-width:1px;stroke-linecap:butt;stroke-linejoin:miter;stroke-opacity:1" d="M 266.211,22.3364 284.547,13.1682 z" id="boundary" inkscape:connector-curvature="0" />
	<path style="fill:none;stroke:red;stroke-width:1px;stroke-linecap:butt;stroke-linejoin:miter;stroke-opacity:1" d="M 284.547,13.1682 302.884,13.1682 z" id="boundary" inkscape:connector-curvature="0" />
	<path style="fill:none;stroke:red;stroke-width:1px;stroke-linecap:butt;stroke-linejoin:miter;stroke-opacity:1" d="M 321.22,4 302.884,13.1682 z" id="boundary" inkscape:connector-curvature="0" />
	<path style="fill:none;stroke:red;stroke-width:1px;stroke-linecap:butt;stroke-linejoin:miter;stroke-opacity:1" d="M 247.874,31.5046 266.211,22.3364 z" id="boundary" inkscape:connector-curvature="0" />
	<path style="fill:none;stroke:red;stroke-width:1px;stroke-linecap:butt;stroke-linejoin:miter;stroke-opacity:1" d="M 211.201,49.841 229.538,40.6728 z" id="boundary" inkscape:connector-curvature="0" />
	<path style="fill:none;stroke:red;stroke-width:1px;stroke-linecap:butt;stroke-linejoin:miter;stroke-opacity:1" d="M 229.538,40.6728 247.874,31.5046 z" id="boundary" inkscape:connector-curvature="0" />
	<path style="fill:none;stroke:red;stroke-width:1px;stroke-linecap:butt;stroke-linejoin:miter;stroke-opacity:1" d="M 79.1793,207.534 95.6821,198.366 z" id="boundary" inkscape:connector-curvature="0" />
	<path style="fill:none;stroke:red;stroke-width:1px;stroke-linecap:butt;stroke-linejoin:miter;stroke-opacity:1" d="M 101.183,279.046 86.5139,293.715 z" id="boundary" inkscape:connector-curvature="0" />
	<path style="fill:none;stroke:red;stroke-width:1px;stroke-linecap:butt;stroke-linejoin:miter;stroke-opacity:1" d="M 110.351,260.71 101.183,279.046 z" id="boundary" inkscape:connector-curvature="0" />
	<path style="fill:none;stroke:red;stroke-width:1px;stroke-linecap:butt;stroke-linejoin:miter;stroke-opacity:1" d="M 114.018,192.865 95.6821,198.366 z" id="boundary" inkscape:connector-curvature="0" />
	<path style="fill:none;stroke:red;stroke-width:1px;stroke-linecap:butt;stroke-linejoin:miter;stroke-opacity:1" d="M 132.355,189.198 114.018,192.865 z" id="boundary" inkscape:connector-curvature="0" />
	<path style="fill:none;stroke:red;stroke-width:1px;stroke-linecap:butt;stroke-linejoin:miter;stroke-opacity:1" d="M 123.187,238.706 110.351,260.71 z" id="boundary" inkscape:connector-curvature="0" />
	<path style="fill:none;stroke:red;stroke-width:1px;stroke-linecap:butt;stroke-linejoin:miter;stroke-opacity:1" d="M 132.355,220.37 123.187,238.706 z" id="boundary" inkscape:connector-curvature="0" />
	<path style="fill:none;stroke:red;stroke-width:1px;stroke-linecap:butt;stroke-linejoin:miter;stroke-opacity:1" d="M 97.5157,123.187 115.852,117.686 z" id="boundary" inkscape:connector-curvature="0" />
	<path style="fill:none;stroke:red;stroke-width:1px;stroke-linecap:butt;stroke-linejoin:miter;stroke-opacity:1" d="M 73.6784,510.085 68.1774,491.749 z" id="boundary" inkscape:connector-curvature="0" />
	<path style="fill:none;stroke:red;stroke-width:1px;stroke-linecap:butt;stroke-linejoin:miter;stroke-opacity:1" d="M 40.6728,605.434 49.841,587.098 z" id="boundary" inkscape:connector-curvature="0" />
	<path style="fill:none;stroke:red;stroke-width:1px;stroke-linecap:butt;stroke-linejoin:miter;stroke-opacity:1" d="M 64.5102,572.429 49.841,587.098 z" id="boundary" inkscape:connector-curvature="0" />
	<path style="fill:none;stroke:red;stroke-width:1px;stroke-linecap:butt;stroke-linejoin:miter;stroke-opacity:1" d="M 73.6784,554.092 64.5102,572.429 z" id="boundary" inkscape:connector-curvature="0" />
	<path style="fill:none;stroke:red;stroke-width:1px;stroke-linecap:butt;stroke-linejoin:miter;stroke-opacity:1" d="M 22.3364,642.107 31.5046,623.771 z" id="boundary" inkscape:connector-curvature="0" />
	<path style="fill:none;stroke:red;stroke-width:1px;stroke-linecap:butt;stroke-linejoin:miter;stroke-opacity:1" d="M 40.6728,605.434 31.5046,623.771 z" id="boundary" inkscape:connector-curvature="0" />
	<path style="fill:none;stroke:red;stroke-width:1px;stroke-linecap:butt;stroke-linejoin:miter;stroke-opacity:1" d="M 73.6784,510.085 77.3457,528.421 z" id="boundary" inkscape:connector-curvature="0" />
	<path style="fill:none;stroke:red;stroke-width:1px;stroke-linecap:butt;stroke-linejoin:miter;stroke-opacity:1" d="M 77.3457,528.421 73.6784,554.092 z" id="boundary" inkscape:connector-curvature="0" />
	<path style="fill:none;stroke:red;stroke-width:1px;stroke-linecap:butt;stroke-linejoin:miter;stroke-opacity:1" d="M 132.355,656.776 115.852,665.945 z" id="boundary" inkscape:connector-curvature="0" />
	<path style="fill:none;stroke:red;stroke-width:1px;stroke-linecap:butt;stroke-linejoin:miter;stroke-opacity:1" d="M 115.852,665.945 97.5157,665.945 z" id="boundary" inkscape:connector-curvature="0" />
	<path style="fill:none;stroke:red;stroke-width:1px;stroke-linecap:butt;stroke-linejoin:miter;stroke-opacity:1" d="M 79.1793,675.113 97.5157,665.945 z" id="boundary" inkscape:connector-curvature="0" />
	<path style="fill:none;stroke:red;stroke-width:1px;stroke-linecap:butt;stroke-linejoin:miter;stroke-opacity:1" d="M 13.1682,669.612 13.1682,687.948 z" id="boundary" inkscape:connector-curvature="0" />
	<path style="fill:none;stroke:red;stroke-width:1px;stroke-linecap:butt;stroke-linejoin:miter;stroke-opacity:1" d="M 31.5046,693.449 13.1682,687.948 z" id="boundary" inkscape:connector-curvature="0" />
	<path style="fill:none;stroke:red;stroke-width:1px;stroke-linecap:butt;stroke-linejoin:miter;stroke-opacity:1" d="M 64.5102,691.616 48.0074,702.617 z" id="boundary" inkscape:connector-curvature="0" />
	<path style="fill:none;stroke:red;stroke-width:1px;stroke-linecap:butt;stroke-linejoin:miter;stroke-opacity:1" d="M 48.0074,702.617 31.5046,693.449 z" id="boundary" inkscape:connector-curvature="0" />
	<path style="fill:none;stroke:red;stroke-width:1px;stroke-linecap:butt;stroke-linejoin:miter;stroke-opacity:1" d="M 13.1682,669.612 22.3364,642.107 z" id="boundary" inkscape:connector-curvature="0" />
	<path style="fill:none;stroke:red;stroke-width:1px;stroke-linecap:butt;stroke-linejoin:miter;stroke-opacity:1" d="M 123.187,834.64 114.018,852.976 z" id="boundary" inkscape:connector-curvature="0" />
	<path style="fill:none;stroke:red;stroke-width:1px;stroke-linecap:butt;stroke-linejoin:miter;stroke-opacity:1" d="M 114.018,871.312 114.018,852.976 z" id="boundary" inkscape:connector-curvature="0" />
	<path style="fill:none;stroke:red;stroke-width:1px;stroke-linecap:butt;stroke-linejoin:miter;stroke-opacity:1" d="M 123.187,906.152 114.018,889.649 z" id="boundary" inkscape:connector-curvature="0" />
	<path style="fill:none;stroke:red;stroke-width:1px;stroke-linecap:butt;stroke-linejoin:miter;stroke-opacity:1" d="M 114.018,889.649 114.018,871.312 z" id="boundary" inkscape:connector-curvature="0" />
	<path style="fill:none;stroke:red;stroke-width:1px;stroke-linecap:butt;stroke-linejoin:miter;stroke-opacity:1" d="M 136.022,920.821 123.187,906.152 z" id="boundary" inkscape:connector-curvature="0" />
	<path style="fill:none;stroke:red;stroke-width:1px;stroke-linecap:butt;stroke-linejoin:miter;stroke-opacity:1" d="M 123.187,834.64 137.856,819.97 z" id="boundary" inkscape:connector-curvature="0" />
	<path style="fill:none;stroke:red;stroke-width:1px;stroke-linecap:butt;stroke-linejoin:miter;stroke-opacity:1" d="M 64.5102,691.616 79.1793,675.113 z" id="boundary" inkscape:connector-curvature="0" />
	<path style="fill:none;stroke:red;stroke-width:1px;stroke-linecap:butt;stroke-linejoin:miter;stroke-opacity:1" d="M 169.028,742.957 165.36,764.961 z" id="boundary" inkscape:connector-curvature="0" />
	<path style="fill:none;stroke:red;stroke-width:1px;stroke-linecap:butt;stroke-linejoin:miter;stroke-opacity:1" d="M 150.691,656.776 132.355,656.776 z" id="boundary" inkscape:connector-curvature="0" />
	<path style="fill:none;stroke:red;stroke-width:1px;stroke-linecap:butt;stroke-linejoin:miter;stroke-opacity:1" d="M 137.856,819.97 147.024,801.634 z" id="boundary" inkscape:connector-curvature="0" />
	<path style="fill:none;stroke:red;stroke-width:1px;stroke-linecap:butt;stroke-linejoin:miter;stroke-opacity:1" d="M 156.192,783.298 147.024,801.634 z" id="boundary" inkscape:connector-curvature="0" />
	<path style="fill:none;stroke:red;stroke-width:1px;stroke-linecap:butt;stroke-linejoin:miter;stroke-opacity:1" d="M 174.529,684.281 178.196,702.617 z" id="boundary" inkscape:connector-curvature="0" />
	<path style="fill:none;stroke:red;stroke-width:1px;stroke-linecap:butt;stroke-linejoin:miter;stroke-opacity:1" d="M 174.529,684.281 167.194,665.945 z" id="boundary" inkscape:connector-curvature="0" />
	<path style="fill:none;stroke:red;stroke-width:1px;stroke-linecap:butt;stroke-linejoin:miter;stroke-opacity:1" d="M 178.196,720.954 178.196,702.617 z" id="boundary" inkscape:connector-curvature="0" />
	<path style="fill:none;stroke:red;stroke-width:1px;stroke-linecap:butt;stroke-linejoin:miter;stroke-opacity:1" d="M 169.028,742.957 178.196,720.954 z" id="boundary" inkscape:connector-curvature="0" />
	<path style="fill:none;stroke:red;stroke-width:1px;stroke-linecap:butt;stroke-linejoin:miter;stroke-opacity:1" d="M 165.36,764.961 156.192,783.298 z" id="boundary" inkscape:connector-curvature="0" />
	<path style="fill:none;stroke:red;stroke-width:1px;stroke-linecap:butt;stroke-linejoin:miter;stroke-opacity:1" d="M 319.386,996 301.05,996 z" id="boundary" inkscape:connector-curvature="0" />
	<path style="fill:none;stroke:red;stroke-width:1px;stroke-linecap:butt;stroke-linejoin:miter;stroke-opacity:1" d="M 150.691,656.776 167.194,665.945 z" id="boundary" inkscape:connector-curvature="0" />
	<path style="fill:none;stroke:red;stroke-width:1px;stroke-linecap:butt;stroke-linejoin:miter;stroke-opacity:1" d="M 136.022,920.821 150.691,931.823 z" id="boundary" inkscape:connector-curvature="0" />
	<path style="fill:none;stroke:red;stroke-width:1px;stroke-linecap:butt;stroke-linejoin:miter;stroke-opacity:1" d="M 150.691,931.823 161.693,946.492 z" id="boundary" inkscape:connector-curvature="0" />
	<path style="fill:none;stroke:red;stroke-width:1px;stroke-linecap:butt;stroke-linejoin:miter;stroke-opacity:1" d="M 192.865,968.495 176.362,959.327 z" id="boundary" inkscape:connector-curvature="0" />
	<path style="fill:none;stroke:red;stroke-width:1px;stroke-linecap:butt;stroke-linejoin:miter;stroke-opacity:1" d="M 176.362,959.327 161.693,946.492 z" id="boundary" inkscape:connector-curvature="0" />
	<path style="fill:none;stroke:red;stroke-width:1px;stroke-linecap:butt;stroke-linejoin:miter;stroke-opacity:1" d="M 211.201,975.83 192.865,968.495 z" id="boundary" inkscape:connector-curvature="0" />
	<path style="fill:none;stroke:red;stroke-width:1px;stroke-linecap:butt;stroke-linejoin:miter;stroke-opacity:1" d="M 246.041,986.832 227.704,984.998 z" id="boundary" inkscape:connector-curvature="0" />
	<path style="fill:none;stroke:red;stroke-width:1px;stroke-linecap:butt;stroke-linejoin:miter;stroke-opacity:1" d="M 227.704,984.998 211.201,975.83 z" id="boundary" inkscape:connector-curvature="0" />
	<path style="fill:none;stroke:red;stroke-width:1px;stroke-linecap:butt;stroke-linejoin:miter;stroke-opacity:1" d="M 246.041,986.832 264.377,992.333 z" id="boundary" inkscape:connector-curvature="0" />
	<path style="fill:none;stroke:red;stroke-width:1px;stroke-linecap:butt;stroke-linejoin:miter;stroke-opacity:1" d="M 301.05,996 282.713,996 z" id="boundary" inkscape:connector-curvature="0" />
	<path style="fill:none;stroke:red;stroke-width:1px;stroke-linecap:butt;stroke-linejoin:miter;stroke-opacity:1" d="M 282.713,996 264.377,992.333 z" id="boundary" inkscape:connector-curvature="0" />
	<path style="fill:none;stroke:red;stroke-width:1px;stroke-linecap:butt;stroke-linejoin:miter;stroke-opacity:1" d="M 392.732,13.1682 374.396,13.1682 z" id="boundary" inkscape:connector-curvature="0" />
	<path style="fill:none;stroke:red;stroke-width:1px;stroke-linecap:butt;stroke-linejoin:miter;stroke-opacity:1" d="M 374.396,13.1682 357.893,4 z" id="boundary" inkscape:connector-curvature="0" />
	<path style="fill:none;stroke:red;stroke-width:1px;stroke-linecap:butt;stroke-linejoin:miter;stroke-opacity:1" d="M 392.732,13.1682 409.235,22.3364 z" id="boundary" inkscape:connector-curvature="0" />
	<path style="fill:none;stroke:red;stroke-width:1px;stroke-linecap:butt;stroke-linejoin:miter;stroke-opacity:1" d="M 339.556,4 357.893,4 z" id="boundary" inkscape:connector-curvature="0" />
	<path style="fill:none;stroke:red;stroke-width:1px;stroke-linecap:butt;stroke-linejoin:miter;stroke-opacity:1" d="M 409.235,22.3364 427.571,27.8373 z" id="boundary" inkscape:connector-curvature="0" />
	<path style="fill:none;stroke:red;stroke-width:1px;stroke-linecap:butt;stroke-linejoin:miter;stroke-opacity:1" d="M 427.571,27.8373 444.074,37.0055 z" id="boundary" inkscape:connector-curvature="0" />
	<path style="fill:none;stroke:red;stroke-width:1px;stroke-linecap:butt;stroke-linejoin:miter;stroke-opacity:1" d="M 444.074,37.0055 462.41,44.3401 z" id="boundary" inkscape:connector-curvature="0" />
	<path style="fill:none;stroke:red;stroke-width:1px;stroke-linecap:butt;stroke-linejoin:miter;stroke-opacity:1" d="M 478.913,53.5083 491.749,68.1774 z" id="boundary" inkscape:connector-curvature="0" />
	<path style="fill:none;stroke:red;stroke-width:1px;stroke-linecap:butt;stroke-linejoin:miter;stroke-opacity:1" d="M 462.41,44.3401 478.913,53.5083 z" id="boundary" inkscape:connector-curvature="0" />
	<path style="fill:none;stroke:red;stroke-width:1px;stroke-linecap:butt;stroke-linejoin:miter;stroke-opacity:1" d="M 491.749,68.1774 510.085,73.6784 z" id="boundary" inkscape:connector-curvature="0" />
	<path style="fill:none;stroke:red;stroke-width:1px;stroke-linecap:butt;stroke-linejoin:miter;stroke-opacity:1" d="M 510.085,73.6784 522.921,88.3475 z" id="boundary" inkscape:connector-curvature="0" />
	<path style="fill:none;stroke:red;stroke-width:1px;stroke-linecap:butt;stroke-linejoin:miter;stroke-opacity:1" d="M 532.089,104.85 537.59,123.187 z" id="boundary" inkscape:connector-curvature="0" />
	<path style="fill:none;stroke:red;stroke-width:1px;stroke-linecap:butt;stroke-linejoin:miter;stroke-opacity:1" d="M 532.089,104.85 522.921,88.3475 z" id="boundary" inkscape:connector-curvature="0" />
	<path style="fill:none;stroke:red;stroke-width:1px;stroke-linecap:butt;stroke-linejoin:miter;stroke-opacity:1" d="M 552.259,134.189 537.59,123.187 z" id="boundary" inkscape:connector-curvature="0" />
	<path style="fill:none;stroke:red;stroke-width:1px;stroke-linecap:butt;stroke-linejoin:miter;stroke-opacity:1" d="M 574.262,165.36 559.593,152.525 z" id="boundary" inkscape:connector-curvature="0" />
	<path style="fill:none;stroke:red;stroke-width:1px;stroke-linecap:butt;stroke-linejoin:miter;stroke-opacity:1" d="M 559.593,152.525 552.259,134.189 z" id="boundary" inkscape:connector-curvature="0" />
	<path style="fill:none;stroke:red;stroke-width:1px;stroke-linecap:butt;stroke-linejoin:miter;stroke-opacity:1" d="M 587.098,180.03 574.262,165.36 z" id="boundary" inkscape:connector-curvature="0" />
	<path style="fill:none;stroke:red;stroke-width:1px;stroke-linecap:butt;stroke-linejoin:miter;stroke-opacity:1" d="M 587.098,180.03 601.767,192.865 z" id="boundary" inkscape:connector-curvature="0" />
	<path style="fill:none;stroke:red;stroke-width:1px;stroke-linecap:butt;stroke-linejoin:miter;stroke-opacity:1" d="M 618.27,202.033 601.767,192.865 z" id="boundary" inkscape:connector-curvature="0" />
	<path style="fill:none;stroke:red;stroke-width:1px;stroke-linecap:butt;stroke-linejoin:miter;stroke-opacity:1" d="M 601.767,290.048 605.434,308.384 z" id="boundary" inkscape:connector-curvature="0" />
	<path style="fill:none;stroke:red;stroke-width:1px;stroke-linecap:butt;stroke-linejoin:miter;stroke-opacity:1" d="M 632.939,214.869 649.442,224.037 z" id="boundary" inkscape:connector-curvature="0" />
	<path style="fill:none;stroke:red;stroke-width:1px;stroke-linecap:butt;stroke-linejoin:miter;stroke-opacity:1" d="M 632.939,214.869 618.27,202.033 z" id="boundary" inkscape:connector-curvature="0" />
	<path style="fill:none;stroke:red;stroke-width:1px;stroke-linecap:butt;stroke-linejoin:miter;stroke-opacity:1" d="M 623.771,306.551 605.434,308.384 z" id="boundary" inkscape:connector-curvature="0" />
	<path style="fill:none;stroke:red;stroke-width:1px;stroke-linecap:butt;stroke-linejoin:miter;stroke-opacity:1" d="M 649.442,224.037 665.945,233.205 z" id="boundary" inkscape:connector-curvature="0" />
	<path style="fill:none;stroke:red;stroke-width:1px;stroke-linecap:butt;stroke-linejoin:miter;stroke-opacity:1" d="M 697.116,253.375 680.614,244.207 z" id="boundary" inkscape:connector-curvature="0" />
	<path style="fill:none;stroke:red;stroke-width:1px;stroke-linecap:butt;stroke-linejoin:miter;stroke-opacity:1" d="M 680.614,244.207 665.945,233.205 z" id="boundary" inkscape:connector-curvature="0" />
	<path style="fill:none;stroke:red;stroke-width:1px;stroke-linecap:butt;stroke-linejoin:miter;stroke-opacity:1" d="M 636.606,321.22 623.771,306.551 z" id="boundary" inkscape:connector-curvature="0" />
	<path style="fill:none;stroke:red;stroke-width:1px;stroke-linecap:butt;stroke-linejoin:miter;stroke-opacity:1" d="M 730.122,299.216 719.12,284.547 z" id="boundary" inkscape:connector-curvature="0" />
	<path style="fill:none;stroke:red;stroke-width:1px;stroke-linecap:butt;stroke-linejoin:miter;stroke-opacity:1" d="M 719.12,284.547 711.786,266.211 z" id="boundary" inkscape:connector-curvature="0" />
	<path style="fill:none;stroke:red;stroke-width:1px;stroke-linecap:butt;stroke-linejoin:miter;stroke-opacity:1" d="M 697.116,253.375 711.786,266.211 z" id="boundary" inkscape:connector-curvature="0" />
	<path style="fill:none;stroke:red;stroke-width:1px;stroke-linecap:butt;stroke-linejoin:miter;stroke-opacity:1" d="M 620.104,343.224 614.603,324.887 z" id="boundary" inkscape:connector-curvature="0" />
	<path style="fill:none;stroke:red;stroke-width:1px;stroke-linecap:butt;stroke-linejoin:miter;stroke-opacity:1" d="M 620.104,361.56 620.104,343.224 z" id="boundary" inkscape:connector-curvature="0" />
	<path style="fill:none;stroke:red;stroke-width:1px;stroke-linecap:butt;stroke-linejoin:miter;stroke-opacity:1" d="M 636.606,321.22 651.275,334.055 z" id="boundary" inkscape:connector-curvature="0" />
	<path style="fill:none;stroke:red;stroke-width:1px;stroke-linecap:butt;stroke-linejoin:miter;stroke-opacity:1" d="M 651.275,334.055 664.111,348.725 z" id="boundary" inkscape:connector-curvature="0" />
	<path style="fill:none;stroke:red;stroke-width:1px;stroke-linecap:butt;stroke-linejoin:miter;stroke-opacity:1" d="M 720.954,345.057 733.789,317.553 z" id="boundary" inkscape:connector-curvature="0" />
	<path style="fill:none;stroke:red;stroke-width:1px;stroke-linecap:butt;stroke-linejoin:miter;stroke-opacity:1" d="M 713.619,363.394 720.954,345.057 z" id="boundary" inkscape:connector-curvature="0" />
	<path style="fill:none;stroke:red;stroke-width:1px;stroke-linecap:butt;stroke-linejoin:miter;stroke-opacity:1" d="M 678.78,361.56 664.111,348.725 z" id="boundary" inkscape:connector-curvature="0" />
	<path style="fill:none;stroke:red;stroke-width:1px;stroke-linecap:butt;stroke-linejoin:miter;stroke-opacity:1" d="M 713.619,363.394 695.283,370.728 z" id="boundary" inkscape:connector-curvature="0" />
	<path style="fill:none;stroke:red;stroke-width:1px;stroke-linecap:butt;stroke-linejoin:miter;stroke-opacity:1" d="M 695.283,370.728 678.78,361.56 z" id="boundary" inkscape:connector-curvature="0" />
	<path style="fill:none;stroke:red;stroke-width:1px;stroke-linecap:butt;stroke-linejoin:miter;stroke-opacity:1" d="M 629.272,378.063 620.104,361.56 z" id="boundary" inkscape:connector-curvature="0" />
	<path style="fill:none;stroke:red;stroke-width:1px;stroke-linecap:butt;stroke-linejoin:miter;stroke-opacity:1" d="M 730.122,299.216 733.789,317.553 z" id="boundary" inkscape:connector-curvature="0" />
	<path style="fill:none;stroke:red;stroke-width:1px;stroke-linecap:butt;stroke-linejoin:miter;stroke-opacity:1" d="M 500.917,693.449 510.085,675.113 z" id="boundary" inkscape:connector-curvature="0" />
	<path style="fill:none;stroke:red;stroke-width:1px;stroke-linecap:butt;stroke-linejoin:miter;stroke-opacity:1" d="M 500.917,711.786 500.917,693.449 z" id="boundary" inkscape:connector-curvature="0" />
	<path style="fill:none;stroke:red;stroke-width:1px;stroke-linecap:butt;stroke-linejoin:miter;stroke-opacity:1" d="M 504.584,730.122 500.917,711.786 z" id="boundary" inkscape:connector-curvature="0" />
	<path style="fill:none;stroke:red;stroke-width:1px;stroke-linecap:butt;stroke-linejoin:miter;stroke-opacity:1" d="M 510.085,748.458 504.584,730.122 z" id="boundary" inkscape:connector-curvature="0" />
	<path style="fill:none;stroke:red;stroke-width:1px;stroke-linecap:butt;stroke-linejoin:miter;stroke-opacity:1" d="M 510.085,748.458 513.752,766.795 z" id="boundary" inkscape:connector-curvature="0" />
	<path style="fill:none;stroke:red;stroke-width:1px;stroke-linecap:butt;stroke-linejoin:miter;stroke-opacity:1" d="M 522.921,783.298 513.752,766.795 z" id="boundary" inkscape:connector-curvature="0" />
	<path style="fill:none;stroke:red;stroke-width:1px;stroke-linecap:butt;stroke-linejoin:miter;stroke-opacity:1" d="M 522.921,783.298 528.421,801.634 z" id="boundary" inkscape:connector-curvature="0" />
	<path style="fill:none;stroke:red;stroke-width:1px;stroke-linecap:butt;stroke-linejoin:miter;stroke-opacity:1" d="M 537.59,818.137 528.421,801.634 z" id="boundary" inkscape:connector-curvature="0" />
	<path style="fill:none;stroke:red;stroke-width:1px;stroke-linecap:butt;stroke-linejoin:miter;stroke-opacity:1" d="M 519.253,656.776 533.922,643.941 z" id="boundary" inkscape:connector-curvature="0" />
	<path style="fill:none;stroke:red;stroke-width:1px;stroke-linecap:butt;stroke-linejoin:miter;stroke-opacity:1" d="M 510.085,675.113 519.253,656.776 z" id="boundary" inkscape:connector-curvature="0" />
	<path style="fill:none;stroke:red;stroke-width:1px;stroke-linecap:butt;stroke-linejoin:miter;stroke-opacity:1" d="M 337.723,996 319.386,996 z" id="boundary" inkscape:connector-curvature="0" />
	<path style="fill:none;stroke:red;stroke-width:1px;stroke-linecap:butt;stroke-linejoin:miter;stroke-opacity:1" d="M 374.396,996 356.059,996 z" id="boundary" inkscape:connector-curvature="0" />
	<path style="fill:none;stroke:red;stroke-width:1px;stroke-linecap:butt;stroke-linejoin:miter;stroke-opacity:1" d="M 392.732,996 374.396,996 z" id="boundary" inkscape:connector-curvature="0" />
	<path style="fill:none;stroke:red;stroke-width:1px;stroke-linecap:butt;stroke-linejoin:miter;stroke-opacity:1" d="M 356.059,996 337.723,996 z" id="boundary" inkscape:connector-curvature="0" />
	<path style="fill:none;stroke:red;stroke-width:1px;stroke-linecap:butt;stroke-linejoin:miter;stroke-opacity:1" d="M 462.41,977.664 478.913,968.495 z" id="boundary" inkscape:connector-curvature="0" />
	<path style="fill:none;stroke:red;stroke-width:1px;stroke-linecap:butt;stroke-linejoin:miter;stroke-opacity:1" d="M 478.913,968.495 497.25,964.828 z" id="boundary" inkscape:connector-curvature="0" />
	<path style="fill:none;stroke:red;stroke-width:1px;stroke-linecap:butt;stroke-linejoin:miter;stroke-opacity:1" d="M 445.908,986.832 462.41,977.664 z" id="boundary" inkscape:connector-curvature="0" />
	<path style="fill:none;stroke:red;stroke-width:1px;stroke-linecap:butt;stroke-linejoin:miter;stroke-opacity:1" d="M 411.068,996 427.571,986.832 z" id="boundary" inkscape:connector-curvature="0" />
	<path style="fill:none;stroke:red;stroke-width:1px;stroke-linecap:butt;stroke-linejoin:miter;stroke-opacity:1" d="M 427.571,986.832 445.908,986.832 z" id="boundary" inkscape:connector-curvature="0" />
	<path style="fill:none;stroke:red;stroke-width:1px;stroke-linecap:butt;stroke-linejoin:miter;stroke-opacity:1" d="M 411.068,996 392.732,996 z" id="boundary" inkscape:connector-curvature="0" />
	<path style="fill:none;stroke:red;stroke-width:1px;stroke-linecap:butt;stroke-linejoin:miter;stroke-opacity:1" d="M 510.085,950.159 497.25,964.828 z" id="boundary" inkscape:connector-curvature="0" />
	<path style="fill:none;stroke:red;stroke-width:1px;stroke-linecap:butt;stroke-linejoin:miter;stroke-opacity:1" d="M 510.085,950.159 528.421,940.991 z" id="boundary" inkscape:connector-curvature="0" />
	<path style="fill:none;stroke:red;stroke-width:1px;stroke-linecap:butt;stroke-linejoin:miter;stroke-opacity:1" d="M 607.268,533.922 610.935,510.085 z" id="boundary" inkscape:connector-curvature="0" />
	<path style="fill:none;stroke:red;stroke-width:1px;stroke-linecap:butt;stroke-linejoin:miter;stroke-opacity:1" d="M 610.935,510.085 620.104,482.58 z" id="boundary" inkscape:connector-curvature="0" />
	<path style="fill:none;stroke:red;stroke-width:1px;stroke-linecap:butt;stroke-linejoin:miter;stroke-opacity:1" d="M 570.595,588.932 583.431,565.094 z" id="boundary" inkscape:connector-curvature="0" />
	<path style="fill:none;stroke:red;stroke-width:1px;stroke-linecap:butt;stroke-linejoin:miter;stroke-opacity:1" d="M 583.431,565.094 598.1,552.259 z" id="boundary" inkscape:connector-curvature="0" />
	<path style="fill:none;stroke:red;stroke-width:1px;stroke-linecap:butt;stroke-linejoin:miter;stroke-opacity:1" d="M 607.268,533.922 598.1,552.259 z" id="boundary" inkscape:connector-curvature="0" />
	<path style="fill:none;stroke:red;stroke-width:1px;stroke-linecap:butt;stroke-linejoin:miter;stroke-opacity:1" d="M 561.427,607.268 570.595,588.932 z" id="boundary" inkscape:connector-curvature="0" />
	<path style="fill:none;stroke:red;stroke-width:1px;stroke-linecap:butt;stroke-linejoin:miter;stroke-opacity:1" d="M 629.272,396.399 629.272,378.063 z" id="boundary" inkscape:connector-curvature="0" />
	<path style="fill:none;stroke:red;stroke-width:1px;stroke-linecap:butt;stroke-linejoin:miter;stroke-opacity:1" d="M 629.272,414.736 629.272,396.399 z" id="boundary" inkscape:connector-curvature="0" />
	<path style="fill:none;stroke:red;stroke-width:1px;stroke-linecap:butt;stroke-linejoin:miter;stroke-opacity:1" d="M 629.272,433.072 629.272,451.409 z" id="boundary" inkscape:connector-curvature="0" />
	<path style="fill:none;stroke:red;stroke-width:1px;stroke-linecap:butt;stroke-linejoin:miter;stroke-opacity:1" d="M 629.272,451.409 620.104,482.58 z" id="boundary" inkscape:connector-curvature="0" />
	<path style="fill:none;stroke:red;stroke-width:1px;stroke-linecap:butt;stroke-linejoin:miter;stroke-opacity:1" d="M 629.272,414.736 629.272,433.072 z" id="boundary" inkscape:connector-curvature="0" />
	<path style="fill:none;stroke:red;stroke-width:1px;stroke-linecap:butt;stroke-linejoin:miter;stroke-opacity:1" d="M 546.758,620.104 533.922,643.941 z" id="boundary" inkscape:connector-curvature="0" />
	<path style="fill:none;stroke:red;stroke-width:1px;stroke-linecap:butt;stroke-linejoin:miter;stroke-opacity:1" d="M 543.091,928.155 528.421,940.991 z" id="boundary" inkscape:connector-curvature="0" />
	<path style="fill:none;stroke:red;stroke-width:1px;stroke-linecap:butt;stroke-linejoin:miter;stroke-opacity:1" d="M 552.259,909.819 543.091,928.155 z" id="boundary" inkscape:connector-curvature="0" />
	<path style="fill:none;stroke:red;stroke-width:1px;stroke-linecap:butt;stroke-linejoin:miter;stroke-opacity:1" d="M 537.59,818.137 546.758,834.64 z" id="boundary" inkscape:connector-curvature="0" />
	<path style="fill:none;stroke:red;stroke-width:1px;stroke-linecap:butt;stroke-linejoin:miter;stroke-opacity:1" d="M 546.758,620.104 561.427,607.268 z" id="boundary" inkscape:connector-curvature="0" />
	<path style="fill:none;stroke:red;stroke-width:1px;stroke-linecap:butt;stroke-linejoin:miter;stroke-opacity:1" d="M 559.593,849.309 546.758,834.64 z" id="boundary" inkscape:connector-curvature="0" />
	<path style="fill:none;stroke:red;stroke-width:1px;stroke-linecap:butt;stroke-linejoin:miter;stroke-opacity:1" d="M 559.593,849.309 565.094,867.645 z" id="boundary" inkscape:connector-curvature="0" />
	<path style="fill:none;stroke:red;stroke-width:1px;stroke-linecap:butt;stroke-linejoin:miter;stroke-opacity:1" d="M 565.094,867.645 565.094,885.982 z" id="boundary" inkscape:connector-curvature="0" />
	<path style="fill:none;stroke:red;stroke-width:1px;stroke-linecap:butt;stroke-linejoin:miter;stroke-opacity:1" d="M 565.094,885.982 552.259,909.819 z" id="boundary" inkscape:connector-curvature="0" />
	<path style="fill:none;stroke:red;stroke-width:1px;stroke-linecap:butt;stroke-linejoin:miter;stroke-opacity:1" d="M 321.22,4 339.556,4 z" id="boundary" inkscape:connector-curvature="0" />
	<circle cx="4" cy="192.865" r="4" fill="#0" id="circle0"/>
	<circle cx="13.1682" cy="174.529" r="4" fill="#0" id="circle1"/>
	<circle cx="13.1682" cy="209.368" r="4" fill="#0" id="circle2"/>
	<circle cx="13.1682" cy="669.612" r="4" fill="#0" id="circle3"/>
	<circle cx="13.1682" cy="687.948" r="4" fill="#0" id="circle4"/>
	<circle cx="22.3364" cy="642.107" r="4" fill="#0" id="circle5"/>
	<circle cx="26.0037" cy="224.037" r="4" fill="#0" id="circle6"/>
	<circle cx="27.8373" cy="159.86" r="4" fill="#0" id="circle7"/>
	<circle cx="31.5046" cy="623.771" r="4" fill="#0" id="circle8"/>
	<circle cx="31.5046" cy="693.449" r="4" fill="#0" id="circle9"/>
	<circle cx="40.6728" cy="605.434" r="4" fill="#0" id="circle10"/>
	<circle cx="42.5065" cy="145.19" r="4" fill="#0" id="circle11"/>
	<circle cx="44.3401" cy="225.871" r="4" fill="#0" id="circle12"/>
	<circle cx="48.0074" cy="702.617" r="4" fill="#0" id="circle13"/>
	<circle cx="49.841" cy="385.397" r="4" fill="#0" id="circle14"/>
	<circle cx="49.841" cy="403.734" r="4" fill="#0" id="circle15"/>
	<circle cx="49.841" cy="422.07" r="4" fill="#0" id="circle16"/>
	<circle cx="49.841" cy="440.407" r="4" fill="#0" id="circle17"/>
	<circle cx="49.841" cy="587.098" r="4" fill="#0" id="circle18"/>
	<circle cx="59.0092" cy="348.725" r="4" fill="#0" id="circle19"/>
	<circle cx="59.0092" cy="367.061" r="4" fill="#0" id="circle20"/>
	<circle cx="59.0092" cy="456.909" r="4" fill="#0" id="circle21"/>
	<circle cx="59.0092" cy="475.246" r="4" fill="#0" id="circle22"/>
	<circle cx="60.8429" cy="136.022" r="4" fill="#0" id="circle23"/>
	<circle cx="60.8429" cy="216.702" r="4" fill="#0" id="circle24"/>
	<circle cx="64.5102" cy="572.429" r="4" fill="#0" id="circle25"/>
	<circle cx="64.5102" cy="691.616" r="4" fill="#0" id="circle26"/>
	<circle cx="68.1774" cy="330.388" r="4" fill="#0" id="circle27"/>
	<circle cx="68.1774" cy="491.749" r="4" fill="#0" id="circle28"/>
	<circle cx="73.6784" cy="510.085" r="4" fill="#0" id="circle29"/>
	<circle cx="73.6784" cy="554.092" r="4" fill="#0" id="circle30"/>
	<circle cx="77.3457" cy="312.052" r="4" fill="#0" id="circle31"/>
	<circle cx="77.3457" cy="528.421" r="4" fill="#0" id="circle32"/>
	<circle cx="79.1793" cy="126.854" r="4" fill="#0" id="circle33"/>
	<circle cx="79.1793" cy="207.534" r="4" fill="#0" id="circle34"/>
	<circle cx="79.1793" cy="675.113" r="4" fill="#0" id="circle35"/>
	<circle cx="86.5139" cy="293.715" r="4" fill="#0" id="circle36"/>
	<circle cx="95.6821" cy="198.366" r="4" fill="#0" id="circle37"/>
	<circle cx="97.5157" cy="123.187" r="4" fill="#0" id="circle38"/>
	<circle cx="97.5157" cy="665.945" r="4" fill="#0" id="circle39"/>
	<circle cx="101.183" cy="279.046" r="4" fill="#0" id="circle40"/>
	<circle cx="110.351" cy="260.71" r="4" fill="#0" id="circle41"/>
	<circle cx="114.018" cy="192.865" r="4" fill="#0" id="circle42"/>
	<circle cx="114.018" cy="852.976" r="4" fill="#0" id="circle43"/>
	<circle cx="114.018" cy="871.312" r="4" fill="#0" id="circle44"/>
	<circle cx="114.018" cy="889.649" r="4" fill="#0" id="circle45"/>
	<circle cx="115.852" cy="117.686" r="4" fill="#0" id="circle46"/>
	<circle cx="115.852" cy="665.945" r="4" fill="#0" id="circle47"/>
	<circle cx="123.187" cy="238.706" r="4" fill="#0" id="circle48"/>
	<circle cx="123.187" cy="834.64" r="4" fill="#0" id="circle49"/>
	<circle cx="123.187" cy="906.152" r="4" fill="#0" id="circle50"/>
	<circle cx="132.355" cy="189.198" r="4" fill="#0" id="circle51"/>
	<circle cx="132.355" cy="220.37" r="4" fill="#0" id="circle52"/>
	<circle cx="132.355" cy="656.776" r="4" fill="#0" id="circle53"/>
	<circle cx="134.189" cy="114.018" r="4" fill="#0" id="circle54"/>
	<circle cx="136.022" cy="920.821" r="4" fill="#0" id="circle55"/>
	<circle cx="137.856" cy="819.97" r="4" fill="#0" id="circle56"/>
	<circle cx="147.024" cy="801.634" r="4" fill="#0" id="circle57"/>
	<circle cx="150.691" cy="101.183" r="4" fill="#0" id="circle58"/>
	<circle cx="150.691" cy="656.776" r="4" fill="#0" id="circle59"/>
	<circle cx="150.691" cy="931.823" r="4" fill="#0" id="circle60"/>
	<circle cx="156.192" cy="783.298" r="4" fill="#0" id="circle61"/>
	<circle cx="161.693" cy="946.492" r="4" fill="#0" id="circle62"/>
	<circle cx="165.36" cy="86.5139" r="4" fill="#0" id="circle63"/>
	<circle cx="165.36" cy="764.961" r="4" fill="#0" id="circle64"/>
	<circle cx="167.194" cy="665.945" r="4" fill="#0" id="circle65"/>
	<circle cx="169.028" cy="742.957" r="4" fill="#0" id="circle66"/>
	<circle cx="174.529" cy="684.281" r="4" fill="#0" id="circle67"/>
	<circle cx="176.362" cy="959.327" r="4" fill="#0" id="circle68"/>
	<circle cx="178.196" cy="702.617" r="4" fill="#0" id="circle69"/>
	<circle cx="178.196" cy="720.954" r="4" fill="#0" id="circle70"/>
	<circle cx="180.03" cy="71.8447" r="4" fill="#0" id="circle71"/>
	<circle cx="192.865" cy="968.495" r="4" fill="#0" id="circle72"/>
	<circle cx="194.699" cy="59.0092" r="4" fill="#0" id="circle73"/>
	<circle cx="211.201" cy="49.841" r="4" fill="#0" id="circle74"/>
	<circle cx="211.201" cy="975.83" r="4" fill="#0" id="circle75"/>
	<circle cx="227.704" cy="984.998" r="4" fill="#0" id="circle76"/>
	<circle cx="229.538" cy="40.6728" r="4" fill="#0" id="circle77"/>
	<circle cx="246.041" cy="986.832" r="4" fill="#0" id="circle78"/>
	<circle cx="247.874" cy="31.5046" r="4" fill="#0" id="circle79"/>
	<circle cx="264.377" cy="992.333" r="4" fill="#0" id="circle80"/>
	<circle cx="266.211" cy="22.3364" r="4" fill="#0" id="circle81"/>
	<circle cx="282.713" cy="996" r="4" fill="#0" id="circle82"/>
	<circle cx="284.547" cy="13.1682" r="4" fill="#0" id="circle83"/>
	<circle cx="301.05" cy="996" r="4" fill="#0" id="circle84"/>
	<circle cx="302.884" cy="13.1682" r="4" fill="#0" id="circle85"/>
	<circle cx="319.386" cy="996" r="4" fill="#0" id="circle86"/>
	<circle cx="321.22" cy="4" r="4" fill="#0" id="circle87"/>
	<circle cx="337.723" cy="996" r="4" fill="#0" id="circle88"/>
	<circle cx="339.556" cy="4" r="4" fill="#0" id="circle89"/>
	<circle cx="356.059" cy="996" r="4" fill="#0" id="circle90"/>
	<circle cx="357.893" cy="4" r="4" fill="#0" id="circle91"/>
	<circle cx="374.396" cy="13.1682" r="4" fill="#0" id="circle92"/>
	<circle cx="374.396" cy="996" r="4" fill="#0" id="circle93"/>
	<circle cx="392.732" cy="13.1682" r="4" fill="#0" id="circle94"/>
	<circle cx="392.732" cy="996" r="4" fill="#0" id="circle95"/>
	<circle cx="409.235" cy="22.3364" r="4" fill="#0" id="circle96"/>
	<circle cx="411.068" cy="996" r="4" fill="#0" id="circle97"/>
	<circle cx="427.571" cy="27.8373" r="4" fill="#0" id="circle98"/>
	<circle cx="427.571" cy="986.832" r="4" fill="#0" id="circle99"/>
	<circle cx="444.074" cy="37.0055" r="4" fill="#0" id="circle100"/>
	<circle cx="445.908" cy="986.832" r="4" fill="#0" id="circle101"/>
	<circle cx="462.41" cy="44.3401" r="4" fill="#0" id="circle102"/>
	<circle cx="462.41" cy="977.664" r="4" fill="#0" id="circle103"/>
	<circle cx="478.913" cy="53.5083" r="4" fill="#0" id="circle104"/>
	<circle cx="478.913" cy="968.495" r="4" fill="#0" id="circle105"/>
	<circle cx="491.749" cy="68.1774" r="4" fill="#0" id="circle106"/>
	<circle cx="497.25" cy="964.828" r="4" fill="#0" id="circle107"/>
	<circle cx="500.917" cy="693.449" r="4" fill="#0" id="circle108"/>
	<circle cx="500.917" cy="711.786" r="4" fill="#0" id="circle109"/>
	<circle cx="504.584" cy="730.122" r="4" fill="#0" id="circle110"/>
	<circle cx="510.085" cy="73.6784" r="4" fill="#0" id="circle111"/>
	<circle cx="510.085" cy="675.113" r="4" fill="#0" id="circle112"/>
	<circle cx="510.085" cy="748.458" r="4" fill="#0" id="circle113"/>
	<circle cx="510.085" cy="950.159" r="4" fill="#0" id="circle114"/>
	<circle cx="513.752" cy="766.795" r="4" fill="#0" id="circle115"/>
	<circle cx="519.253" cy="656.776" r="4" fill="#0" id="circle116"/>
	<circle cx="522.921" cy="88.3475" r="4" fill="#0" id="circle117"/>
	<circle cx="522.921" cy="783.298" r="4" fill="#0" id="circle118"/>
	<circle cx="528.421" cy="801.634" r="4" fill="#0" id="circle119"/>
	<circle cx="528.421" cy="940.991" r="4" fill="#0" id="circle120"/>
	<circle cx="532.089" cy="104.85" r="4" fill="#0" id="circle121"/>
	<circle cx="533.922" cy="643.941" r="4" fill="#0" id="circle122"/>
	<circle cx="537.59" cy="123.187" r="4" fill="#0" id="circle123"/>
	<circle cx="537.59" cy="818.137" r="4" fill="#0" id="circle124"/>
	<circle cx="543.091" cy="928.155" r="4" fill="#0" id="circle125"/>
	<circle cx="546.758" cy="620.104" r="4" fill="#0" id="circle126"/>
	<circle cx="546.758" cy="834.64" r="4" fill="#0" id="circle127"/>
	<circle cx="552.259" cy="134.189" r="4" fill="#0" id="circle128"/>
	<circle cx="552.259" cy="909.819" r="4" fill="#0" id="circle129"/>
	<circle cx="559.593" cy="152.525" r="4" fill="#0" id="circle130"/>
	<circle cx="559.593" cy="849.309" r="4" fill="#0" id="circle131"/>
	<circle cx="561.427" cy="607.268" r="4" fill="#0" id="circle132"/>
	<circle cx="565.094" cy="867.645" r="4" fill="#0" id="circle133"/>
	<circle cx="565.094" cy="885.982" r="4" fill="#0" id="circle134"/>
	<circle cx="570.595" cy="588.932" r="4" fill="#0" id="circle135"/>
	<circle cx="574.262" cy="165.36" r="4" fill="#0" id="circle136"/>
	<circle cx="583.431" cy="565.094" r="4" fill="#0" id="circle137"/>
	<circle cx="587.098" cy="180.03" r="4" fill="#0" id="circle138"/>
	<circle cx="598.1" cy="552.259" r="4" fill="#0" id="circle139"/>
	<circle cx="601.767" cy="192.865" r="4" fill="#0" id="circle140"/>
	<circle cx="601.767" cy="290.048" r="4" fill="#0" id="circle141"/>
	<circle cx="605.434" cy="308.384" r="4" fill="#0" id="circle142"/>
	<circle cx="607.268" cy="533.922" r="4" fill="#0" id="circle143"/>
	<circle cx="610.935" cy="510.085" r="4" fill="#0" id="circle144"/>
	<circle cx="614.603" cy="324.887" r="4" fill="#0" id="circle145"/>
	<circle cx="618.27" cy="202.033" r="4" fill="#0" id="circle146"/>
	<circle cx="620.104" cy="343.224" r="4" fill="#0" id="circle147"/>
	<circle cx="620.104" cy="361.56" r="4" fill="#0" id="circle148"/>
	<circle cx="620.104" cy="482.58" r="4" fill="#0" id="circle149"/>
	<circle cx="623.771" cy="306.551" r="4" fill="#0" id="circle150"/>
	<circle cx="629.272" cy="378.063" r="4" fill="#0" id="circle151"/>
	<circle cx="629.272" cy="396.399" r="4" fill="#0" id="circle152"/>
	<circle cx="629.272" cy="414.736" r="4" fill="#0" id="circle153"/>
	<circle cx="629.272" cy="433.072" r="4" fill="#0" id="circle154"/>
	<circle cx="629.272" cy="451.409" r="4" fill="#0" id="circle155"/>
	<circle cx="632.939" cy="214.869" r="4" fill="#0" id="circle156"/>
	<circle cx="636.606" cy="321.22" r="4" fill="#0" id="circle157"/>
	<circle cx="649.442" cy="224.037" r="4" fill="#0" id="circle158"/>
	<circle cx="651.275" cy="334.055" r="4" fill="#0" id="circle159"/>
	<circle cx="664.111" cy="348.725" r="4" fill="#0" id="circle160"/>
	<circle cx="665.945" cy="233.205" r="4" fill="#0" id="circle161"/>
	<circle cx="678.78" cy="361.56" r="4" fill="#0" id="circle162"/>
	<circle cx="680.614" cy="244.207" r="4" fill="#0" id="circle163"/>
	<circle cx="695.283" cy="370.728" r="4" fill="#0" id="circle164"/>
	<circle cx="697.116" cy="253.375" r="4" fill="#0" id="circle165"/>
	<circle cx="711.786" cy="266.211" r="4" fill="#0" id="circle166"/>
	<circle cx="713.619" cy="363.394" r="4" fill="#0" id="circle167"/>
	<circle cx="719.12" cy="284.547" r="4" fill="#0" id="circle168"/>
	<circle cx="720.954" cy="345.057" r="4" fill="#0" id="circle169"/>
	<circle cx="730.122" cy="299.216" r="4" fill="#0" id="circle170"/>
	<circle cx="733.789" cy="317.553" r="4" fill="#0" id="circle171"/>
	</g>
</svg>