<?xml version="1.0" encoding="UTF-8" standalone="no"?>
<!-- Created with CurveBenchmark -->
<svg
	xmlns:dc="http://purl.org/dc/elements/1.1/"
	xmlns:cc="http://creativecommons.org/ns#"
	xmlns:rdf="http://www.w3.org/1999/02/22-rdf-syntax-ns#"
	xmlns:svg="http://www.w3.org/2000/svg"
	xmlns="http://www.w3.org/2000/svg"
	xmlns:sodipodi="http://sodipodi.sourceforge.net/DTD/sodipodi-0.dtd"
	xmlns:inkscape="http://www.inkscape.org/namespaces/inkscape"
	width="1000"
	height="1000"
	id="svg2"
	version="1.1"
	sodipodi:docname="manifold/ccrust-Bone19.png.txt">
<defs
	id="defs4" />
<metadata
	id="metadata7">
	<rdf:RDF>
		<cc:Work
			rdf:about="">
			<dc:format>image/svg+xml</dc:format>
			<dc:type
				rdf:resource="http://purl.org/dc/dcmitype/StillImage" />
			<dc:title></dc:title>
		</cc:Work>
	</rdf:RDF>
</metadata>
<g
	inkscape:label="Layer 1"
	inkscape:groupmode="layer"
	id="layer1">
	<path style="fill:none;stroke:red;stroke-width:1px;stroke-linecap:butt;stroke-linejoin:miter;stroke-opacity:1" d="M 233.708,528.075 233.708,545.091 z" id="boundary" inkscape:connector-curvature="0" />
	<path style="fill:none;stroke:red;stroke-width:1px;stroke-linecap:butt;stroke-linejoin:miter;stroke-opacity:1" d="M 233.708,545.091 225.201,570.614 z" id="boundary" inkscape:connector-curvature="0" />
	<path style="fill:none;stroke:red;stroke-width:1px;stroke-linecap:butt;stroke-linejoin:miter;stroke-opacity:1" d="M 199.678,655.691 199.678,638.676 z" id="boundary" inkscape:connector-curvature="0" />
	<path style="fill:none;stroke:red;stroke-width:1px;stroke-linecap:butt;stroke-linejoin:miter;stroke-opacity:1" d="M 216.693,596.137 208.185,613.153 z" id="boundary" inkscape:connector-curvature="0" />
	<path style="fill:none;stroke:red;stroke-width:1px;stroke-linecap:butt;stroke-linejoin:miter;stroke-opacity:1" d="M 225.201,570.614 216.693,596.137 z" id="boundary" inkscape:connector-curvature="0" />
	<path style="fill:none;stroke:red;stroke-width:1px;stroke-linecap:butt;stroke-linejoin:miter;stroke-opacity:1" d="M 199.678,638.676 208.185,613.153 z" id="boundary" inkscape:connector-curvature="0" />
	<path style="fill:none;stroke:red;stroke-width:1px;stroke-linecap:butt;stroke-linejoin:miter;stroke-opacity:1" d="M 250.724,485.537 259.232,460.014 z" id="boundary" inkscape:connector-curvature="0" />
	<path style="fill:none;stroke:red;stroke-width:1px;stroke-linecap:butt;stroke-linejoin:miter;stroke-opacity:1" d="M 233.708,528.075 242.216,502.552 z" id="boundary" inkscape:connector-curvature="0" />
	<path style="fill:none;stroke:red;stroke-width:1px;stroke-linecap:butt;stroke-linejoin:miter;stroke-opacity:1" d="M 250.724,485.537 242.216,502.552 z" id="boundary" inkscape:connector-curvature="0" />
	<path style="fill:none;stroke:red;stroke-width:1px;stroke-linecap:butt;stroke-linejoin:miter;stroke-opacity:1" d="M 174.154,723.753 182.662,698.23 z" id="boundary" inkscape:connector-curvature="0" />
	<path style="fill:none;stroke:red;stroke-width:1px;stroke-linecap:butt;stroke-linejoin:miter;stroke-opacity:1" d="M 191.17,681.214 182.662,698.23 z" id="boundary" inkscape:connector-curvature="0" />
	<path style="fill:none;stroke:red;stroke-width:1px;stroke-linecap:butt;stroke-linejoin:miter;stroke-opacity:1" d="M 83.9726,761.187 68.6587,752.679 z" id="boundary" inkscape:connector-curvature="0" />
	<path style="fill:none;stroke:red;stroke-width:1px;stroke-linecap:butt;stroke-linejoin:miter;stroke-opacity:1" d="M 165.647,749.276 174.154,723.753 z" id="boundary" inkscape:connector-curvature="0" />
	<path style="fill:none;stroke:red;stroke-width:1px;stroke-linecap:butt;stroke-linejoin:miter;stroke-opacity:1" d="M 260.933,686.319 252.425,711.842 z" id="boundary" inkscape:connector-curvature="0" />
	<path style="fill:none;stroke:red;stroke-width:1px;stroke-linecap:butt;stroke-linejoin:miter;stroke-opacity:1" d="M 269.441,660.796 260.933,686.319 z" id="boundary" inkscape:connector-curvature="0" />
	<path style="fill:none;stroke:red;stroke-width:1px;stroke-linecap:butt;stroke-linejoin:miter;stroke-opacity:1" d="M 252.425,728.858 243.918,754.381 z" id="boundary" inkscape:connector-curvature="0" />
	<path style="fill:none;stroke:red;stroke-width:1px;stroke-linecap:butt;stroke-linejoin:miter;stroke-opacity:1" d="M 252.425,711.842 252.425,728.858 z" id="boundary" inkscape:connector-curvature="0" />
	<path style="fill:none;stroke:red;stroke-width:1px;stroke-linecap:butt;stroke-linejoin:miter;stroke-opacity:1" d="M 191.17,681.214 199.678,655.691 z" id="boundary" inkscape:connector-curvature="0" />
	<path style="fill:none;stroke:red;stroke-width:1px;stroke-linecap:butt;stroke-linejoin:miter;stroke-opacity:1" d="M 243.918,754.381 235.41,779.904 z" id="boundary" inkscape:connector-curvature="0" />
	<path style="fill:none;stroke:red;stroke-width:1px;stroke-linecap:butt;stroke-linejoin:miter;stroke-opacity:1" d="M 267.739,417.475 267.739,434.491 z" id="boundary" inkscape:connector-curvature="0" />
	<path style="fill:none;stroke:red;stroke-width:1px;stroke-linecap:butt;stroke-linejoin:miter;stroke-opacity:1" d="M 267.739,434.491 259.232,460.014 z" id="boundary" inkscape:connector-curvature="0" />
	<path style="fill:none;stroke:red;stroke-width:1px;stroke-linecap:butt;stroke-linejoin:miter;stroke-opacity:1" d="M 301.77,306.875 301.77,323.89 z" id="boundary" inkscape:connector-curvature="0" />
	<path style="fill:none;stroke:red;stroke-width:1px;stroke-linecap:butt;stroke-linejoin:miter;stroke-opacity:1" d="M 293.262,357.921 284.755,374.937 z" id="boundary" inkscape:connector-curvature="0" />
	<path style="fill:none;stroke:red;stroke-width:1px;stroke-linecap:butt;stroke-linejoin:miter;stroke-opacity:1" d="M 337.503,414.072 328.995,439.595 z" id="boundary" inkscape:connector-curvature="0" />
	<path style="fill:none;stroke:red;stroke-width:1px;stroke-linecap:butt;stroke-linejoin:miter;stroke-opacity:1" d="M 267.739,417.475 276.247,400.46 z" id="boundary" inkscape:connector-curvature="0" />
	<path style="fill:none;stroke:red;stroke-width:1px;stroke-linecap:butt;stroke-linejoin:miter;stroke-opacity:1" d="M 284.755,374.937 276.247,400.46 z" id="boundary" inkscape:connector-curvature="0" />
	<path style="fill:none;stroke:red;stroke-width:1px;stroke-linecap:butt;stroke-linejoin:miter;stroke-opacity:1" d="M 310.278,289.859 318.786,264.336 z" id="boundary" inkscape:connector-curvature="0" />
	<path style="fill:none;stroke:red;stroke-width:1px;stroke-linecap:butt;stroke-linejoin:miter;stroke-opacity:1" d="M 327.293,247.321 318.786,264.336 z" id="boundary" inkscape:connector-curvature="0" />
	<path style="fill:none;stroke:red;stroke-width:1px;stroke-linecap:butt;stroke-linejoin:miter;stroke-opacity:1" d="M 301.77,340.906 301.77,323.89 z" id="boundary" inkscape:connector-curvature="0" />
	<path style="fill:none;stroke:red;stroke-width:1px;stroke-linecap:butt;stroke-linejoin:miter;stroke-opacity:1" d="M 293.262,357.921 301.77,340.906 z" id="boundary" inkscape:connector-curvature="0" />
	<path style="fill:none;stroke:red;stroke-width:1px;stroke-linecap:butt;stroke-linejoin:miter;stroke-opacity:1" d="M 301.77,306.875 310.278,289.859 z" id="boundary" inkscape:connector-curvature="0" />
	<path style="fill:none;stroke:red;stroke-width:1px;stroke-linecap:butt;stroke-linejoin:miter;stroke-opacity:1" d="M 286.456,601.242 294.964,575.719 z" id="boundary" inkscape:connector-curvature="0" />
	<path style="fill:none;stroke:red;stroke-width:1px;stroke-linecap:butt;stroke-linejoin:miter;stroke-opacity:1" d="M 286.456,601.242 277.949,618.257 z" id="boundary" inkscape:connector-curvature="0" />
	<path style="fill:none;stroke:red;stroke-width:1px;stroke-linecap:butt;stroke-linejoin:miter;stroke-opacity:1" d="M 277.949,635.273 269.441,660.796 z" id="boundary" inkscape:connector-curvature="0" />
	<path style="fill:none;stroke:red;stroke-width:1px;stroke-linecap:butt;stroke-linejoin:miter;stroke-opacity:1" d="M 277.949,618.257 277.949,635.273 z" id="boundary" inkscape:connector-curvature="0" />
	<path style="fill:none;stroke:red;stroke-width:1px;stroke-linecap:butt;stroke-linejoin:miter;stroke-opacity:1" d="M 320.487,482.134 311.979,507.657 z" id="boundary" inkscape:connector-curvature="0" />
	<path style="fill:none;stroke:red;stroke-width:1px;stroke-linecap:butt;stroke-linejoin:miter;stroke-opacity:1" d="M 303.472,533.18 311.979,507.657 z" id="boundary" inkscape:connector-curvature="0" />
	<path style="fill:none;stroke:red;stroke-width:1px;stroke-linecap:butt;stroke-linejoin:miter;stroke-opacity:1" d="M 303.472,550.196 303.472,533.18 z" id="boundary" inkscape:connector-curvature="0" />
	<path style="fill:none;stroke:red;stroke-width:1px;stroke-linecap:butt;stroke-linejoin:miter;stroke-opacity:1" d="M 303.472,550.196 294.964,575.719 z" id="boundary" inkscape:connector-curvature="0" />
	<path style="fill:none;stroke:red;stroke-width:1px;stroke-linecap:butt;stroke-linejoin:miter;stroke-opacity:1" d="M 328.995,456.611 320.487,482.134 z" id="boundary" inkscape:connector-curvature="0" />
	<path style="fill:none;stroke:red;stroke-width:1px;stroke-linecap:butt;stroke-linejoin:miter;stroke-opacity:1" d="M 68.6587,752.679 53.3448,761.187 z" id="boundary" inkscape:connector-curvature="0" />
	<path style="fill:none;stroke:red;stroke-width:1px;stroke-linecap:butt;stroke-linejoin:miter;stroke-opacity:1" d="M 4,817.338 12.5077,800.322 z" id="boundary" inkscape:connector-curvature="0" />
	<path style="fill:none;stroke:red;stroke-width:1px;stroke-linecap:butt;stroke-linejoin:miter;stroke-opacity:1" d="M 4,834.353 12.5077,849.667 z" id="boundary" inkscape:connector-curvature="0" />
	<path style="fill:none;stroke:red;stroke-width:1px;stroke-linecap:butt;stroke-linejoin:miter;stroke-opacity:1" d="M 12.5077,849.667 12.5077,866.683 z" id="boundary" inkscape:connector-curvature="0" />
	<path style="fill:none;stroke:red;stroke-width:1px;stroke-linecap:butt;stroke-linejoin:miter;stroke-opacity:1" d="M 4,834.353 4,817.338 z" id="boundary" inkscape:connector-curvature="0" />
	<path style="fill:none;stroke:red;stroke-width:1px;stroke-linecap:butt;stroke-linejoin:miter;stroke-opacity:1" d="M 12.5077,800.322 26.1201,786.71 z" id="boundary" inkscape:connector-curvature="0" />
	<path style="fill:none;stroke:red;stroke-width:1px;stroke-linecap:butt;stroke-linejoin:miter;stroke-opacity:1" d="M 39.7324,773.098 53.3448,761.187 z" id="boundary" inkscape:connector-curvature="0" />
	<path style="fill:none;stroke:red;stroke-width:1px;stroke-linecap:butt;stroke-linejoin:miter;stroke-opacity:1" d="M 26.1201,786.71 39.7324,773.098 z" id="boundary" inkscape:connector-curvature="0" />
	<path style="fill:none;stroke:red;stroke-width:1px;stroke-linecap:butt;stroke-linejoin:miter;stroke-opacity:1" d="M 83.9726,761.187 99.2864,769.695 z" id="boundary" inkscape:connector-curvature="0" />
	<path style="fill:none;stroke:red;stroke-width:1px;stroke-linecap:butt;stroke-linejoin:miter;stroke-opacity:1" d="M 116.302,769.695 99.2864,769.695 z" id="boundary" inkscape:connector-curvature="0" />
	<path style="fill:none;stroke:red;stroke-width:1px;stroke-linecap:butt;stroke-linejoin:miter;stroke-opacity:1" d="M 21.0154,881.997 36.3293,890.504 z" id="boundary" inkscape:connector-curvature="0" />
	<path style="fill:none;stroke:red;stroke-width:1px;stroke-linecap:butt;stroke-linejoin:miter;stroke-opacity:1" d="M 89.0772,936.446 80.5695,961.969 z" id="boundary" inkscape:connector-curvature="0" />
	<path style="fill:none;stroke:red;stroke-width:1px;stroke-linecap:butt;stroke-linejoin:miter;stroke-opacity:1" d="M 68.6587,899.012 51.6432,899.012 z" id="boundary" inkscape:connector-curvature="0" />
	<path style="fill:none;stroke:red;stroke-width:1px;stroke-linecap:butt;stroke-linejoin:miter;stroke-opacity:1" d="M 51.6432,899.012 36.3293,890.504 z" id="boundary" inkscape:connector-curvature="0" />
	<path style="fill:none;stroke:red;stroke-width:1px;stroke-linecap:butt;stroke-linejoin:miter;stroke-opacity:1" d="M 21.0154,881.997 12.5077,866.683 z" id="boundary" inkscape:connector-curvature="0" />
	<path style="fill:none;stroke:red;stroke-width:1px;stroke-linecap:butt;stroke-linejoin:miter;stroke-opacity:1" d="M 97.5849,912.624 89.0772,936.446 z" id="boundary" inkscape:connector-curvature="0" />
	<path style="fill:none;stroke:red;stroke-width:1px;stroke-linecap:butt;stroke-linejoin:miter;stroke-opacity:1" d="M 97.5849,912.624 85.6741,899.012 z" id="boundary" inkscape:connector-curvature="0" />
	<path style="fill:none;stroke:red;stroke-width:1px;stroke-linecap:butt;stroke-linejoin:miter;stroke-opacity:1" d="M 111.197,975.581 94.1818,973.88 z" id="boundary" inkscape:connector-curvature="0" />
	<path style="fill:none;stroke:red;stroke-width:1px;stroke-linecap:butt;stroke-linejoin:miter;stroke-opacity:1" d="M 111.197,975.581 126.511,984.089 z" id="boundary" inkscape:connector-curvature="0" />
	<path style="fill:none;stroke:red;stroke-width:1px;stroke-linecap:butt;stroke-linejoin:miter;stroke-opacity:1" d="M 94.1818,973.88 80.5695,961.969 z" id="boundary" inkscape:connector-curvature="0" />
	<path style="fill:none;stroke:red;stroke-width:1px;stroke-linecap:butt;stroke-linejoin:miter;stroke-opacity:1" d="M 68.6587,899.012 85.6741,899.012 z" id="boundary" inkscape:connector-curvature="0" />
	<path style="fill:none;stroke:red;stroke-width:1px;stroke-linecap:butt;stroke-linejoin:miter;stroke-opacity:1" d="M 131.616,778.202 116.302,769.695 z" id="boundary" inkscape:connector-curvature="0" />
	<path style="fill:none;stroke:red;stroke-width:1px;stroke-linecap:butt;stroke-linejoin:miter;stroke-opacity:1" d="M 157.139,766.292 146.93,786.71 z" id="boundary" inkscape:connector-curvature="0" />
	<path style="fill:none;stroke:red;stroke-width:1px;stroke-linecap:butt;stroke-linejoin:miter;stroke-opacity:1" d="M 146.93,786.71 131.616,778.202 z" id="boundary" inkscape:connector-curvature="0" />
	<path style="fill:none;stroke:red;stroke-width:1px;stroke-linecap:butt;stroke-linejoin:miter;stroke-opacity:1" d="M 226.902,805.427 226.902,822.443 z" id="boundary" inkscape:connector-curvature="0" />
	<path style="fill:none;stroke:red;stroke-width:1px;stroke-linecap:butt;stroke-linejoin:miter;stroke-opacity:1" d="M 235.41,779.904 226.902,805.427 z" id="boundary" inkscape:connector-curvature="0" />
	<path style="fill:none;stroke:red;stroke-width:1px;stroke-linecap:butt;stroke-linejoin:miter;stroke-opacity:1" d="M 230.305,856.473 226.902,839.458 z" id="boundary" inkscape:connector-curvature="0" />
	<path style="fill:none;stroke:red;stroke-width:1px;stroke-linecap:butt;stroke-linejoin:miter;stroke-opacity:1" d="M 226.902,839.458 226.902,822.443 z" id="boundary" inkscape:connector-curvature="0" />
	<path style="fill:none;stroke:red;stroke-width:1px;stroke-linecap:butt;stroke-linejoin:miter;stroke-opacity:1" d="M 235.41,873.489 230.305,856.473 z" id="boundary" inkscape:connector-curvature="0" />
	<path style="fill:none;stroke:red;stroke-width:1px;stroke-linecap:butt;stroke-linejoin:miter;stroke-opacity:1" d="M 157.139,766.292 165.647,749.276 z" id="boundary" inkscape:connector-curvature="0" />
	<path style="fill:none;stroke:red;stroke-width:1px;stroke-linecap:butt;stroke-linejoin:miter;stroke-opacity:1" d="M 235.41,873.489 235.41,890.504 z" id="boundary" inkscape:connector-curvature="0" />
	<path style="fill:none;stroke:red;stroke-width:1px;stroke-linecap:butt;stroke-linejoin:miter;stroke-opacity:1" d="M 192.871,984.089 175.856,992.597 z" id="boundary" inkscape:connector-curvature="0" />
	<path style="fill:none;stroke:red;stroke-width:1px;stroke-linecap:butt;stroke-linejoin:miter;stroke-opacity:1" d="M 175.856,992.597 158.84,996 z" id="boundary" inkscape:connector-curvature="0" />
	<path style="fill:none;stroke:red;stroke-width:1px;stroke-linecap:butt;stroke-linejoin:miter;stroke-opacity:1" d="M 158.84,996 141.825,992.597 z" id="boundary" inkscape:connector-curvature="0" />
	<path style="fill:none;stroke:red;stroke-width:1px;stroke-linecap:butt;stroke-linejoin:miter;stroke-opacity:1" d="M 141.825,992.597 126.511,984.089 z" id="boundary" inkscape:connector-curvature="0" />
	<path style="fill:none;stroke:red;stroke-width:1px;stroke-linecap:butt;stroke-linejoin:miter;stroke-opacity:1" d="M 238.813,907.52 235.41,890.504 z" id="boundary" inkscape:connector-curvature="0" />
	<path style="fill:none;stroke:red;stroke-width:1px;stroke-linecap:butt;stroke-linejoin:miter;stroke-opacity:1" d="M 243.918,924.535 238.813,907.52 z" id="boundary" inkscape:connector-curvature="0" />
	<path style="fill:none;stroke:red;stroke-width:1px;stroke-linecap:butt;stroke-linejoin:miter;stroke-opacity:1" d="M 243.918,924.535 235.41,950.058 z" id="boundary" inkscape:connector-curvature="0" />
	<path style="fill:none;stroke:red;stroke-width:1px;stroke-linecap:butt;stroke-linejoin:miter;stroke-opacity:1" d="M 209.887,975.581 192.871,984.089 z" id="boundary" inkscape:connector-curvature="0" />
	<path style="fill:none;stroke:red;stroke-width:1px;stroke-linecap:butt;stroke-linejoin:miter;stroke-opacity:1" d="M 223.499,963.671 209.887,975.581 z" id="boundary" inkscape:connector-curvature="0" />
	<path style="fill:none;stroke:red;stroke-width:1px;stroke-linecap:butt;stroke-linejoin:miter;stroke-opacity:1" d="M 235.41,950.058 223.499,963.671 z" id="boundary" inkscape:connector-curvature="0" />
	<path style="fill:none;stroke:red;stroke-width:1px;stroke-linecap:butt;stroke-linejoin:miter;stroke-opacity:1" d="M 328.995,439.595 328.995,456.611 z" id="boundary" inkscape:connector-curvature="0" />
	<path style="fill:none;stroke:red;stroke-width:1px;stroke-linecap:butt;stroke-linejoin:miter;stroke-opacity:1" d="M 505.955,77.1664 514.463,60.1509 z" id="boundary" inkscape:connector-curvature="0" />
	<path style="fill:none;stroke:red;stroke-width:1px;stroke-linecap:butt;stroke-linejoin:miter;stroke-opacity:1" d="M 505.955,77.1664 505.955,94.1818 z" id="boundary" inkscape:connector-curvature="0" />
	<path style="fill:none;stroke:red;stroke-width:1px;stroke-linecap:butt;stroke-linejoin:miter;stroke-opacity:1" d="M 386.847,157.139 369.832,157.139 z" id="boundary" inkscape:connector-curvature="0" />
	<path style="fill:none;stroke:red;stroke-width:1px;stroke-linecap:butt;stroke-linejoin:miter;stroke-opacity:1" d="M 514.463,109.496 505.955,94.1818 z" id="boundary" inkscape:connector-curvature="0" />
	<path style="fill:none;stroke:red;stroke-width:1px;stroke-linecap:butt;stroke-linejoin:miter;stroke-opacity:1" d="M 514.463,60.1509 528.075,46.5386 z" id="boundary" inkscape:connector-curvature="0" />
	<path style="fill:none;stroke:red;stroke-width:1px;stroke-linecap:butt;stroke-linejoin:miter;stroke-opacity:1" d="M 550.196,15.9108 541.688,32.9262 z" id="boundary" inkscape:connector-curvature="0" />
	<path style="fill:none;stroke:red;stroke-width:1px;stroke-linecap:butt;stroke-linejoin:miter;stroke-opacity:1" d="M 541.688,32.9262 528.075,46.5386 z" id="boundary" inkscape:connector-curvature="0" />
	<path style="fill:none;stroke:red;stroke-width:1px;stroke-linecap:butt;stroke-linejoin:miter;stroke-opacity:1" d="M 522.971,124.81 514.463,109.496 z" id="boundary" inkscape:connector-curvature="0" />
	<path style="fill:none;stroke:red;stroke-width:1px;stroke-linecap:butt;stroke-linejoin:miter;stroke-opacity:1" d="M 528.075,141.825 522.971,124.81 z" id="boundary" inkscape:connector-curvature="0" />
	<path style="fill:none;stroke:red;stroke-width:1px;stroke-linecap:butt;stroke-linejoin:miter;stroke-opacity:1" d="M 531.479,158.84 528.075,141.825 z" id="boundary" inkscape:connector-curvature="0" />
	<path style="fill:none;stroke:red;stroke-width:1px;stroke-linecap:butt;stroke-linejoin:miter;stroke-opacity:1" d="M 369.832,157.139 352.816,162.244 z" id="boundary" inkscape:connector-curvature="0" />
	<path style="fill:none;stroke:red;stroke-width:1px;stroke-linecap:butt;stroke-linejoin:miter;stroke-opacity:1" d="M 386.847,157.139 403.863,157.139 z" id="boundary" inkscape:connector-curvature="0" />
	<path style="fill:none;stroke:red;stroke-width:1px;stroke-linecap:butt;stroke-linejoin:miter;stroke-opacity:1" d="M 403.863,157.139 419.177,165.647 z" id="boundary" inkscape:connector-curvature="0" />
	<path style="fill:none;stroke:red;stroke-width:1px;stroke-linecap:butt;stroke-linejoin:miter;stroke-opacity:1" d="M 436.192,165.647 419.177,165.647 z" id="boundary" inkscape:connector-curvature="0" />
	<path style="fill:none;stroke:red;stroke-width:1px;stroke-linecap:butt;stroke-linejoin:miter;stroke-opacity:1" d="M 344.309,179.259 352.816,162.244 z" id="boundary" inkscape:connector-curvature="0" />
	<path style="fill:none;stroke:red;stroke-width:1px;stroke-linecap:butt;stroke-linejoin:miter;stroke-opacity:1" d="M 487.238,174.154 470.223,174.154 z" id="boundary" inkscape:connector-curvature="0" />
	<path style="fill:none;stroke:red;stroke-width:1px;stroke-linecap:butt;stroke-linejoin:miter;stroke-opacity:1" d="M 453.208,167.348 436.192,165.647 z" id="boundary" inkscape:connector-curvature="0" />
	<path style="fill:none;stroke:red;stroke-width:1px;stroke-linecap:butt;stroke-linejoin:miter;stroke-opacity:1" d="M 470.223,174.154 453.208,167.348 z" id="boundary" inkscape:connector-curvature="0" />
	<path style="fill:none;stroke:red;stroke-width:1px;stroke-linecap:butt;stroke-linejoin:miter;stroke-opacity:1" d="M 504.254,174.154 487.238,174.154 z" id="boundary" inkscape:connector-curvature="0" />
	<path style="fill:none;stroke:red;stroke-width:1px;stroke-linecap:butt;stroke-linejoin:miter;stroke-opacity:1" d="M 531.479,158.84 521.269,175.856 z" id="boundary" inkscape:connector-curvature="0" />
	<path style="fill:none;stroke:red;stroke-width:1px;stroke-linecap:butt;stroke-linejoin:miter;stroke-opacity:1" d="M 521.269,175.856 504.254,174.154 z" id="boundary" inkscape:connector-curvature="0" />
	<path style="fill:none;stroke:red;stroke-width:1px;stroke-linecap:butt;stroke-linejoin:miter;stroke-opacity:1" d="M 550.196,15.9108 567.211,7.40309 z" id="boundary" inkscape:connector-curvature="0" />
	<path style="fill:none;stroke:red;stroke-width:1px;stroke-linecap:butt;stroke-linejoin:miter;stroke-opacity:1" d="M 584.226,4 601.242,4 z" id="boundary" inkscape:connector-curvature="0" />
	<path style="fill:none;stroke:red;stroke-width:1px;stroke-linecap:butt;stroke-linejoin:miter;stroke-opacity:1" d="M 601.242,4 618.257,4 z" id="boundary" inkscape:connector-curvature="0" />
	<path style="fill:none;stroke:red;stroke-width:1px;stroke-linecap:butt;stroke-linejoin:miter;stroke-opacity:1" d="M 618.257,4 635.273,4 z" id="boundary" inkscape:connector-curvature="0" />
	<path style="fill:none;stroke:red;stroke-width:1px;stroke-linecap:butt;stroke-linejoin:miter;stroke-opacity:1" d="M 665.901,14.2093 677.811,27.8216 z" id="boundary" inkscape:connector-curvature="0" />
	<path style="fill:none;stroke:red;stroke-width:1px;stroke-linecap:butt;stroke-linejoin:miter;stroke-opacity:1" d="M 677.811,27.8216 686.319,43.1355 z" id="boundary" inkscape:connector-curvature="0" />
	<path style="fill:none;stroke:red;stroke-width:1px;stroke-linecap:butt;stroke-linejoin:miter;stroke-opacity:1" d="M 686.319,43.1355 686.319,60.1509 z" id="boundary" inkscape:connector-curvature="0" />
	<path style="fill:none;stroke:red;stroke-width:1px;stroke-linecap:butt;stroke-linejoin:miter;stroke-opacity:1" d="M 635.273,4 652.288,4 z" id="boundary" inkscape:connector-curvature="0" />
	<path style="fill:none;stroke:red;stroke-width:1px;stroke-linecap:butt;stroke-linejoin:miter;stroke-opacity:1" d="M 652.288,4 665.901,14.2093 z" id="boundary" inkscape:connector-curvature="0" />
	<path style="fill:none;stroke:red;stroke-width:1px;stroke-linecap:butt;stroke-linejoin:miter;stroke-opacity:1" d="M 686.319,60.1509 694.827,75.4648 z" id="boundary" inkscape:connector-curvature="0" />
	<path style="fill:none;stroke:red;stroke-width:1px;stroke-linecap:butt;stroke-linejoin:miter;stroke-opacity:1" d="M 694.827,75.4648 711.842,80.5695 z" id="boundary" inkscape:connector-curvature="0" />
	<path style="fill:none;stroke:red;stroke-width:1px;stroke-linecap:butt;stroke-linejoin:miter;stroke-opacity:1" d="M 728.858,80.5695 745.873,80.5695 z" id="boundary" inkscape:connector-curvature="0" />
	<path style="fill:none;stroke:red;stroke-width:1px;stroke-linecap:butt;stroke-linejoin:miter;stroke-opacity:1" d="M 745.873,80.5695 761.187,89.0772 z" id="boundary" inkscape:connector-curvature="0" />
	<path style="fill:none;stroke:red;stroke-width:1px;stroke-linecap:butt;stroke-linejoin:miter;stroke-opacity:1" d="M 728.858,80.5695 711.842,80.5695 z" id="boundary" inkscape:connector-curvature="0" />
	<path style="fill:none;stroke:red;stroke-width:1px;stroke-linecap:butt;stroke-linejoin:miter;stroke-opacity:1" d="M 774.799,99.2864 788.412,111.197 z" id="boundary" inkscape:connector-curvature="0" />
	<path style="fill:none;stroke:red;stroke-width:1px;stroke-linecap:butt;stroke-linejoin:miter;stroke-opacity:1" d="M 788.412,111.197 788.412,128.213 z" id="boundary" inkscape:connector-curvature="0" />
	<path style="fill:none;stroke:red;stroke-width:1px;stroke-linecap:butt;stroke-linejoin:miter;stroke-opacity:1" d="M 796.919,143.527 788.412,128.213 z" id="boundary" inkscape:connector-curvature="0" />
	<path style="fill:none;stroke:red;stroke-width:1px;stroke-linecap:butt;stroke-linejoin:miter;stroke-opacity:1" d="M 805.427,158.84 796.919,143.527 z" id="boundary" inkscape:connector-curvature="0" />
	<path style="fill:none;stroke:red;stroke-width:1px;stroke-linecap:butt;stroke-linejoin:miter;stroke-opacity:1" d="M 761.187,89.0772 774.799,99.2864 z" id="boundary" inkscape:connector-curvature="0" />
	<path style="fill:none;stroke:red;stroke-width:1px;stroke-linecap:butt;stroke-linejoin:miter;stroke-opacity:1" d="M 567.211,7.40309 584.226,4 z" id="boundary" inkscape:connector-curvature="0" />
	<path style="fill:none;stroke:red;stroke-width:1px;stroke-linecap:butt;stroke-linejoin:miter;stroke-opacity:1" d="M 335.801,204.782 344.309,179.259 z" id="boundary" inkscape:connector-curvature="0" />
	<path style="fill:none;stroke:red;stroke-width:1px;stroke-linecap:butt;stroke-linejoin:miter;stroke-opacity:1" d="M 335.801,221.798 335.801,204.782 z" id="boundary" inkscape:connector-curvature="0" />
	<path style="fill:none;stroke:red;stroke-width:1px;stroke-linecap:butt;stroke-linejoin:miter;stroke-opacity:1" d="M 405.564,235.41 422.58,235.41 z" id="boundary" inkscape:connector-curvature="0" />
	<path style="fill:none;stroke:red;stroke-width:1px;stroke-linecap:butt;stroke-linejoin:miter;stroke-opacity:1" d="M 405.564,235.41 388.549,243.918 z" id="boundary" inkscape:connector-curvature="0" />
	<path style="fill:none;stroke:red;stroke-width:1px;stroke-linecap:butt;stroke-linejoin:miter;stroke-opacity:1" d="M 327.293,247.321 335.801,221.798 z" id="boundary" inkscape:connector-curvature="0" />
	<path style="fill:none;stroke:red;stroke-width:1px;stroke-linecap:butt;stroke-linejoin:miter;stroke-opacity:1" d="M 439.595,235.41 456.611,235.41 z" id="boundary" inkscape:connector-curvature="0" />
	<path style="fill:none;stroke:red;stroke-width:1px;stroke-linecap:butt;stroke-linejoin:miter;stroke-opacity:1" d="M 473.626,235.41 490.642,235.41 z" id="boundary" inkscape:connector-curvature="0" />
	<path style="fill:none;stroke:red;stroke-width:1px;stroke-linecap:butt;stroke-linejoin:miter;stroke-opacity:1" d="M 507.657,235.41 490.642,235.41 z" id="boundary" inkscape:connector-curvature="0" />
	<path style="fill:none;stroke:red;stroke-width:1px;stroke-linecap:butt;stroke-linejoin:miter;stroke-opacity:1" d="M 473.626,235.41 456.611,235.41 z" id="boundary" inkscape:connector-curvature="0" />
	<path style="fill:none;stroke:red;stroke-width:1px;stroke-linecap:butt;stroke-linejoin:miter;stroke-opacity:1" d="M 439.595,235.41 422.58,235.41 z" id="boundary" inkscape:connector-curvature="0" />
	<path style="fill:none;stroke:red;stroke-width:1px;stroke-linecap:butt;stroke-linejoin:miter;stroke-opacity:1" d="M 354.518,363.026 346.01,388.549 z" id="boundary" inkscape:connector-curvature="0" />
	<path style="fill:none;stroke:red;stroke-width:1px;stroke-linecap:butt;stroke-linejoin:miter;stroke-opacity:1" d="M 354.518,363.026 354.518,346.01 z" id="boundary" inkscape:connector-curvature="0" />
	<path style="fill:none;stroke:red;stroke-width:1px;stroke-linecap:butt;stroke-linejoin:miter;stroke-opacity:1" d="M 354.518,346.01 363.026,320.487 z" id="boundary" inkscape:connector-curvature="0" />
	<path style="fill:none;stroke:red;stroke-width:1px;stroke-linecap:butt;stroke-linejoin:miter;stroke-opacity:1" d="M 337.503,414.072 346.01,388.549 z" id="boundary" inkscape:connector-curvature="0" />
	<path style="fill:none;stroke:red;stroke-width:1px;stroke-linecap:butt;stroke-linejoin:miter;stroke-opacity:1" d="M 380.041,260.933 388.549,243.918 z" id="boundary" inkscape:connector-curvature="0" />
	<path style="fill:none;stroke:red;stroke-width:1px;stroke-linecap:butt;stroke-linejoin:miter;stroke-opacity:1" d="M 371.533,294.964 363.026,320.487 z" id="boundary" inkscape:connector-curvature="0" />
	<path style="fill:none;stroke:red;stroke-width:1px;stroke-linecap:butt;stroke-linejoin:miter;stroke-opacity:1" d="M 371.533,294.964 371.533,277.949 z" id="boundary" inkscape:connector-curvature="0" />
	<path style="fill:none;stroke:red;stroke-width:1px;stroke-linecap:butt;stroke-linejoin:miter;stroke-opacity:1" d="M 371.533,277.949 380.041,260.933 z" id="boundary" inkscape:connector-curvature="0" />
	<path style="fill:none;stroke:red;stroke-width:1px;stroke-linecap:butt;stroke-linejoin:miter;stroke-opacity:1" d="M 507.657,235.41 524.672,235.41 z" id="boundary" inkscape:connector-curvature="0" />
	<path style="fill:none;stroke:red;stroke-width:1px;stroke-linecap:butt;stroke-linejoin:miter;stroke-opacity:1" d="M 541.688,235.41 524.672,235.41 z" id="boundary" inkscape:connector-curvature="0" />
	<path style="fill:none;stroke:red;stroke-width:1px;stroke-linecap:butt;stroke-linejoin:miter;stroke-opacity:1" d="M 558.703,235.41 575.719,235.41 z" id="boundary" inkscape:connector-curvature="0" />
	<path style="fill:none;stroke:red;stroke-width:1px;stroke-linecap:butt;stroke-linejoin:miter;stroke-opacity:1" d="M 558.703,235.41 541.688,235.41 z" id="boundary" inkscape:connector-curvature="0" />
	<path style="fill:none;stroke:red;stroke-width:1px;stroke-linecap:butt;stroke-linejoin:miter;stroke-opacity:1" d="M 575.719,235.41 592.734,235.41 z" id="boundary" inkscape:connector-curvature="0" />
	<path style="fill:none;stroke:red;stroke-width:1px;stroke-linecap:butt;stroke-linejoin:miter;stroke-opacity:1" d="M 808.83,175.856 805.427,201.379 z" id="boundary" inkscape:connector-curvature="0" />
	<path style="fill:none;stroke:red;stroke-width:1px;stroke-linecap:butt;stroke-linejoin:miter;stroke-opacity:1" d="M 805.427,201.379 793.516,214.991 z" id="boundary" inkscape:connector-curvature="0" />
	<path style="fill:none;stroke:red;stroke-width:1px;stroke-linecap:butt;stroke-linejoin:miter;stroke-opacity:1" d="M 643.78,235.41 626.765,235.41 z" id="boundary" inkscape:connector-curvature="0" />
	<path style="fill:none;stroke:red;stroke-width:1px;stroke-linecap:butt;stroke-linejoin:miter;stroke-opacity:1" d="M 793.516,214.991 779.904,226.902 z" id="boundary" inkscape:connector-curvature="0" />
	<path style="fill:none;stroke:red;stroke-width:1px;stroke-linecap:butt;stroke-linejoin:miter;stroke-opacity:1" d="M 771.396,243.918 779.904,226.902 z" id="boundary" inkscape:connector-curvature="0" />
	<path style="fill:none;stroke:red;stroke-width:1px;stroke-linecap:butt;stroke-linejoin:miter;stroke-opacity:1" d="M 805.427,158.84 808.83,175.856 z" id="boundary" inkscape:connector-curvature="0" />
	<path style="fill:none;stroke:red;stroke-width:1px;stroke-linecap:butt;stroke-linejoin:miter;stroke-opacity:1" d="M 609.75,235.41 626.765,235.41 z" id="boundary" inkscape:connector-curvature="0" />
	<path style="fill:none;stroke:red;stroke-width:1px;stroke-linecap:butt;stroke-linejoin:miter;stroke-opacity:1" d="M 609.75,235.41 592.734,235.41 z" id="boundary" inkscape:connector-curvature="0" />
	<path style="fill:none;stroke:red;stroke-width:1px;stroke-linecap:butt;stroke-linejoin:miter;stroke-opacity:1" d="M 676.11,243.918 659.094,243.918 z" id="boundary" inkscape:connector-curvature="0" />
	<path style="fill:none;stroke:red;stroke-width:1px;stroke-linecap:butt;stroke-linejoin:miter;stroke-opacity:1" d="M 659.094,243.918 643.78,235.41 z" id="boundary" inkscape:connector-curvature="0" />
	<path style="fill:none;stroke:red;stroke-width:1px;stroke-linecap:butt;stroke-linejoin:miter;stroke-opacity:1" d="M 708.439,252.425 693.125,243.918 z" id="boundary" inkscape:connector-curvature="0" />
	<path style="fill:none;stroke:red;stroke-width:1px;stroke-linecap:butt;stroke-linejoin:miter;stroke-opacity:1" d="M 693.125,243.918 676.11,243.918 z" id="boundary" inkscape:connector-curvature="0" />
	<path style="fill:none;stroke:red;stroke-width:1px;stroke-linecap:butt;stroke-linejoin:miter;stroke-opacity:1" d="M 740.768,260.933 723.753,260.933 z" id="boundary" inkscape:connector-curvature="0" />
	<path style="fill:none;stroke:red;stroke-width:1px;stroke-linecap:butt;stroke-linejoin:miter;stroke-opacity:1" d="M 723.753,260.933 708.439,252.425 z" id="boundary" inkscape:connector-curvature="0" />
	<path style="fill:none;stroke:red;stroke-width:1px;stroke-linecap:butt;stroke-linejoin:miter;stroke-opacity:1" d="M 771.396,243.918 757.784,259.232 z" id="boundary" inkscape:connector-curvature="0" />
	<path style="fill:none;stroke:red;stroke-width:1px;stroke-linecap:butt;stroke-linejoin:miter;stroke-opacity:1" d="M 757.784,259.232 740.768,260.933 z" id="boundary" inkscape:connector-curvature="0" />
	<circle cx="4" cy="817.338" r="4" fill="#0" id="circle0"/>
	<circle cx="4" cy="834.353" r="4" fill="#0" id="circle1"/>
	<circle cx="12.5077" cy="800.322" r="4" fill="#0" id="circle2"/>
	<circle cx="12.5077" cy="849.667" r="4" fill="#0" id="circle3"/>
	<circle cx="12.5077" cy="866.683" r="4" fill="#0" id="circle4"/>
	<circle cx="21.0154" cy="881.997" r="4" fill="#0" id="circle5"/>
	<circle cx="26.1201" cy="786.71" r="4" fill="#0" id="circle6"/>
	<circle cx="36.3293" cy="890.504" r="4" fill="#0" id="circle7"/>
	<circle cx="39.7324" cy="773.098" r="4" fill="#0" id="circle8"/>
	<circle cx="51.6432" cy="899.012" r="4" fill="#0" id="circle9"/>
	<circle cx="53.3448" cy="761.187" r="4" fill="#0" id="circle10"/>
	<circle cx="68.6587" cy="752.679" r="4" fill="#0" id="circle11"/>
	<circle cx="68.6587" cy="899.012" r="4" fill="#0" id="circle12"/>
	<circle cx="80.5695" cy="961.969" r="4" fill="#0" id="circle13"/>
	<circle cx="83.9726" cy="761.187" r="4" fill="#0" id="circle14"/>
	<circle cx="85.6741" cy="899.012" r="4" fill="#0" id="circle15"/>
	<circle cx="89.0772" cy="936.446" r="4" fill="#0" id="circle16"/>
	<circle cx="94.1818" cy="973.88" r="4" fill="#0" id="circle17"/>
	<circle cx="97.5849" cy="912.624" r="4" fill="#0" id="circle18"/>
	<circle cx="99.2864" cy="769.695" r="4" fill="#0" id="circle19"/>
	<circle cx="111.197" cy="975.581" r="4" fill="#0" id="circle20"/>
	<circle cx="116.302" cy="769.695" r="4" fill="#0" id="circle21"/>
	<circle cx="126.511" cy="984.089" r="4" fill="#0" id="circle22"/>
	<circle cx="131.616" cy="778.202" r="4" fill="#0" id="circle23"/>
	<circle cx="141.825" cy="992.597" r="4" fill="#0" id="circle24"/>
	<circle cx="146.93" cy="786.71" r="4" fill="#0" id="circle25"/>
	<circle cx="157.139" cy="766.292" r="4" fill="#0" id="circle26"/>
	<circle cx="158.84" cy="996" r="4" fill="#0" id="circle27"/>
	<circle cx="165.647" cy="749.276" r="4" fill="#0" id="circle28"/>
	<circle cx="174.154" cy="723.753" r="4" fill="#0" id="circle29"/>
	<circle cx="175.856" cy="992.597" r="4" fill="#0" id="circle30"/>
	<circle cx="182.662" cy="698.23" r="4" fill="#0" id="circle31"/>
	<circle cx="191.17" cy="681.214" r="4" fill="#0" id="circle32"/>
	<circle cx="192.871" cy="984.089" r="4" fill="#0" id="circle33"/>
	<circle cx="199.678" cy="638.676" r="4" fill="#0" id="circle34"/>
	<circle cx="199.678" cy="655.691" r="4" fill="#0" id="circle35"/>
	<circle cx="208.185" cy="613.153" r="4" fill="#0" id="circle36"/>
	<circle cx="209.887" cy="975.581" r="4" fill="#0" id="circle37"/>
	<circle cx="216.693" cy="596.137" r="4" fill="#0" id="circle38"/>
	<circle cx="223.499" cy="963.671" r="4" fill="#0" id="circle39"/>
	<circle cx="225.201" cy="570.614" r="4" fill="#0" id="circle40"/>
	<circle cx="226.902" cy="805.427" r="4" fill="#0" id="circle41"/>
	<circle cx="226.902" cy="822.443" r="4" fill="#0" id="circle42"/>
	<circle cx="226.902" cy="839.458" r="4" fill="#0" id="circle43"/>
	<circle cx="230.305" cy="856.473" r="4" fill="#0" id="circle44"/>
	<circle cx="233.708" cy="528.075" r="4" fill="#0" id="circle45"/>
	<circle cx="233.708" cy="545.091" r="4" fill="#0" id="circle46"/>
	<circle cx="235.41" cy="779.904" r="4" fill="#0" id="circle47"/>
	<circle cx="235.41" cy="873.489" r="4" fill="#0" id="circle48"/>
	<circle cx="235.41" cy="890.504" r="4" fill="#0" id="circle49"/>
	<circle cx="235.41" cy="950.058" r="4" fill="#0" id="circle50"/>
	<circle cx="238.813" cy="907.52" r="4" fill="#0" id="circle51"/>
	<circle cx="242.216" cy="502.552" r="4" fill="#0" id="circle52"/>
	<circle cx="243.918" cy="754.381" r="4" fill="#0" id="circle53"/>
	<circle cx="243.918" cy="924.535" r="4" fill="#0" id="circle54"/>
	<circle cx="250.724" cy="485.537" r="4" fill="#0" id="circle55"/>
	<circle cx="252.425" cy="711.842" r="4" fill="#0" id="circle56"/>
	<circle cx="252.425" cy="728.858" r="4" fill="#0" id="circle57"/>
	<circle cx="259.232" cy="460.014" r="4" fill="#0" id="circle58"/>
	<circle cx="260.933" cy="686.319" r="4" fill="#0" id="circle59"/>
	<circle cx="267.739" cy="417.475" r="4" fill="#0" id="circle60"/>
	<circle cx="267.739" cy="434.491" r="4" fill="#0" id="circle61"/>
	<circle cx="269.441" cy="660.796" r="4" fill="#0" id="circle62"/>
	<circle cx="276.247" cy="400.46" r="4" fill="#0" id="circle63"/>
	<circle cx="277.949" cy="618.257" r="4" fill="#0" id="circle64"/>
	<circle cx="277.949" cy="635.273" r="4" fill="#0" id="circle65"/>
	<circle cx="284.755" cy="374.937" r="4" fill="#0" id="circle66"/>
	<circle cx="286.456" cy="601.242" r="4" fill="#0" id="circle67"/>
	<circle cx="293.262" cy="357.921" r="4" fill="#0" id="circle68"/>
	<circle cx="294.964" cy="575.719" r="4" fill="#0" id="circle69"/>
	<circle cx="301.77" cy="306.875" r="4" fill="#0" id="circle70"/>
	<circle cx="301.77" cy="323.89" r="4" fill="#0" id="circle71"/>
	<circle cx="301.77" cy="340.906" r="4" fill="#0" id="circle72"/>
	<circle cx="303.472" cy="533.18" r="4" fill="#0" id="circle73"/>
	<circle cx="303.472" cy="550.196" r="4" fill="#0" id="circle74"/>
	<circle cx="310.278" cy="289.859" r="4" fill="#0" id="circle75"/>
	<circle cx="311.979" cy="507.657" r="4" fill="#0" id="circle76"/>
	<circle cx="318.786" cy="264.336" r="4" fill="#0" id="circle77"/>
	<circle cx="320.487" cy="482.134" r="4" fill="#0" id="circle78"/>
	<circle cx="327.293" cy="247.321" r="4" fill="#0" id="circle79"/>
	<circle cx="328.995" cy="439.595" r="4" fill="#0" id="circle80"/>
	<circle cx="328.995" cy="456.611" r="4" fill="#0" id="circle81"/>
	<circle cx="335.801" cy="204.782" r="4" fill="#0" id="circle82"/>
	<circle cx="335.801" cy="221.798" r="4" fill="#0" id="circle83"/>
	<circle cx="337.503" cy="414.072" r="4" fill="#0" id="circle84"/>
	<circle cx="344.309" cy="179.259" r="4" fill="#0" id="circle85"/>
	<circle cx="346.01" cy="388.549" r="4" fill="#0" id="circle86"/>
	<circle cx="352.816" cy="162.244" r="4" fill="#0" id="circle87"/>
	<circle cx="354.518" cy="346.01" r="4" fill="#0" id="circle88"/>
	<circle cx="354.518" cy="363.026" r="4" fill="#0" id="circle89"/>
	<circle cx="363.026" cy="320.487" r="4" fill="#0" id="circle90"/>
	<circle cx="369.832" cy="157.139" r="4" fill="#0" id="circle91"/>
	<circle cx="371.533" cy="277.949" r="4" fill="#0" id="circle92"/>
	<circle cx="371.533" cy="294.964" r="4" fill="#0" id="circle93"/>
	<circle cx="380.041" cy="260.933" r="4" fill="#0" id="circle94"/>
	<circle cx="386.847" cy="157.139" r="4" fill="#0" id="circle95"/>
	<circle cx="388.549" cy="243.918" r="4" fill="#0" id="circle96"/>
	<circle cx="403.863" cy="157.139" r="4" fill="#0" id="circle97"/>
	<circle cx="405.564" cy="235.41" r="4" fill="#0" id="circle98"/>
	<circle cx="419.177" cy="165.647" r="4" fill="#0" id="circle99"/>
	<circle cx="422.58" cy="235.41" r="4" fill="#0" id="circle100"/>
	<circle cx="436.192" cy="165.647" r="4" fill="#0" id="circle101"/>
	<circle cx="439.595" cy="235.41" r="4" fill="#0" id="circle102"/>
	<circle cx="453.208" cy="167.348" r="4" fill="#0" id="circle103"/>
	<circle cx="456.611" cy="235.41" r="4" fill="#0" id="circle104"/>
	<circle cx="470.223" cy="174.154" r="4" fill="#0" id="circle105"/>
	<circle cx="473.626" cy="235.41" r="4" fill="#0" id="circle106"/>
	<circle cx="487.238" cy="174.154" r="4" fill="#0" id="circle107"/>
	<circle cx="490.642" cy="235.41" r="4" fill="#0" id="circle108"/>
	<circle cx="504.254" cy="174.154" r="4" fill="#0" id="circle109"/>
	<circle cx="505.955" cy="77.1664" r="4" fill="#0" id="circle110"/>
	<circle cx="505.955" cy="94.1818" r="4" fill="#0" id="circle111"/>
	<circle cx="507.657" cy="235.41" r="4" fill="#0" id="circle112"/>
	<circle cx="514.463" cy="60.1509" r="4" fill="#0" id="circle113"/>
	<circle cx="514.463" cy="109.496" r="4" fill="#0" id="circle114"/>
	<circle cx="521.269" cy="175.856" r="4" fill="#0" id="circle115"/>
	<circle cx="522.971" cy="124.81" r="4" fill="#0" id="circle116"/>
	<circle cx="524.672" cy="235.41" r="4" fill="#0" id="circle117"/>
	<circle cx="528.075" cy="46.5386" r="4" fill="#0" id="circle118"/>
	<circle cx="528.075" cy="141.825" r="4" fill="#0" id="circle119"/>
	<circle cx="531.479" cy="158.84" r="4" fill="#0" id="circle120"/>
	<circle cx="541.688" cy="32.9262" r="4" fill="#0" id="circle121"/>
	<circle cx="541.688" cy="235.41" r="4" fill="#0" id="circle122"/>
	<circle cx="550.196" cy="15.9108" r="4" fill="#0" id="circle123"/>
	<circle cx="558.703" cy="235.41" r="4" fill="#0" id="circle124"/>
	<circle cx="567.211" cy="7.40309" r="4" fill="#0" id="circle125"/>
	<circle cx="575.719" cy="235.41" r="4" fill="#0" id="circle126"/>
	<circle cx="584.226" cy="4" r="4" fill="#0" id="circle127"/>
	<circle cx="592.734" cy="235.41" r="4" fill="#0" id="circle128"/>
	<circle cx="601.242" cy="4" r="4" fill="#0" id="circle129"/>
	<circle cx="609.75" cy="235.41" r="4" fill="#0" id="circle130"/>
	<circle cx="618.257" cy="4" r="4" fill="#0" id="circle131"/>
	<circle cx="626.765" cy="235.41" r="4" fill="#0" id="circle132"/>
	<circle cx="635.273" cy="4" r="4" fill="#0" id="circle133"/>
	<circle cx="643.78" cy="235.41" r="4" fill="#0" id="circle134"/>
	<circle cx="652.288" cy="4" r="4" fill="#0" id="circle135"/>
	<circle cx="659.094" cy="243.918" r="4" fill="#0" id="circle136"/>
	<circle cx="665.901" cy="14.2093" r="4" fill="#0" id="circle137"/>
	<circle cx="676.11" cy="243.918" r="4" fill="#0" id="circle138"/>
	<circle cx="677.811" cy="27.8216" r="4" fill="#0" id="circle139"/>
	<circle cx="686.319" cy="43.1355" r="4" fill="#0" id="circle140"/>
	<circle cx="686.319" cy="60.1509" r="4" fill="#0" id="circle141"/>
	<circle cx="693.125" cy="243.918" r="4" fill="#0" id="circle142"/>
	<circle cx="694.827" cy="75.4648" r="4" fill="#0" id="circle143"/>
	<circle cx="708.439" cy="252.425" r="4" fill="#0" id="circle144"/>
	<circle cx="711.842" cy="80.5695" r="4" fill="#0" id="circle145"/>
	<circle cx="723.753" cy="260.933" r="4" fill="#0" id="circle146"/>
	<circle cx="728.858" cy="80.5695" r="4" fill="#0" id="circle147"/>
	<circle cx="740.768" cy="260.933" r="4" fill="#0" id="circle148"/>
	<circle cx="745.873" cy="80.5695" r="4" fill="#0" id="circle149"/>
	<circle cx="757.784" cy="259.232" r="4" fill="#0" id="circle150"/>
	<circle cx="761.187" cy="89.0772" r="4" fill="#0" id="circle151"/>
	<circle cx="771.396" cy="243.918" r="4" fill="#0" id="circle152"/>
	<circle cx="774.799" cy="99.2864" r="4" fill="#0" id="circle153"/>
	<circle cx="779.904" cy="226.902" r="4" fill="#0" id="circle154"/>
	<circle cx="788.412" cy="111.197" r="4" fill="#0" id="circle155"/>
	<circle cx="788.412" cy="128.213" r="4" fill="#0" id="circle156"/>
	<circle cx="793.516" cy="214.991" r="4" fill="#0" id="circle157"/>
	<circle cx="796.919" cy="143.527" r="4" fill="#0" id="circle158"/>
	<circle cx="805.427" cy="158.84" r="4" fill="#0" id="circle159"/>
	<circle cx="805.427" cy="201.379" r="4" fill="#0" id="circle160"/>
	<circle cx="808.83" cy="175.856" r="4" fill="#0" id="circle161"/>
	</g>
</svg>