<?xml version="1.0" encoding="UTF-8" standalone="no"?>
<!-- Created with CurveBenchmark -->
<svg
	xmlns:dc="http://purl.org/dc/elements/1.1/"
	xmlns:cc="http://creativecommons.org/ns#"
	xmlns:rdf="http://www.w3.org/1999/02/22-rdf-syntax-ns#"
	xmlns:svg="http://www.w3.org/2000/svg"
	xmlns="http://www.w3.org/2000/svg"
	xmlns:sodipodi="http://sodipodi.sourceforge.net/DTD/sodipodi-0.dtd"
	xmlns:inkscape="http://www.inkscape.org/namespaces/inkscape"
	width="1000"
	height="1000"
	id="svg2"
	version="1.1"
	sodipodi:docname="manifold/ccrust-teddy245.png.txt">
<defs
	id="defs4" />
<metadata
	id="metadata7">
	<rdf:RDF>
		<cc:Work
			rdf:about="">
			<dc:format>image/svg+xml</dc:format>
			<dc:type
				rdf:resource="http://purl.org/dc/dcmitype/StillImage" />
			<dc:title></dc:title>
		</cc:Work>
	</rdf:RDF>
</metadata>
<g
	inkscape:label="Layer 1"
	inkscape:groupmode="layer"
	id="layer1">
	<path style="fill:none;stroke:red;stroke-width:1px;stroke-linecap:butt;stroke-linejoin:miter;stroke-opacity:1" d="M 32.2621,501.413 43.567,473.151 z" id="boundary" inkscape:connector-curvature="0" />
	<path style="fill:none;stroke:red;stroke-width:1px;stroke-linecap:butt;stroke-linejoin:miter;stroke-opacity:1" d="M 122.701,433.584 94.4387,444.889 z" id="boundary" inkscape:connector-curvature="0" />
	<path style="fill:none;stroke:red;stroke-width:1px;stroke-linecap:butt;stroke-linejoin:miter;stroke-opacity:1" d="M 94.4387,444.889 66.1766,450.541 z" id="boundary" inkscape:connector-curvature="0" />
	<path style="fill:none;stroke:red;stroke-width:1px;stroke-linecap:butt;stroke-linejoin:miter;stroke-opacity:1" d="M 43.567,473.151 66.1766,450.541 z" id="boundary" inkscape:connector-curvature="0" />
	<path style="fill:none;stroke:red;stroke-width:1px;stroke-linecap:butt;stroke-linejoin:miter;stroke-opacity:1" d="M 122.701,433.584 150.963,433.584 z" id="boundary" inkscape:connector-curvature="0" />
	<path style="fill:none;stroke:red;stroke-width:1px;stroke-linecap:butt;stroke-linejoin:miter;stroke-opacity:1" d="M 179.225,427.932 207.487,422.279 z" id="boundary" inkscape:connector-curvature="0" />
	<path style="fill:none;stroke:red;stroke-width:1px;stroke-linecap:butt;stroke-linejoin:miter;stroke-opacity:1" d="M 224.444,399.67 207.487,422.279 z" id="boundary" inkscape:connector-curvature="0" />
	<path style="fill:none;stroke:red;stroke-width:1px;stroke-linecap:butt;stroke-linejoin:miter;stroke-opacity:1" d="M 179.225,427.932 150.963,433.584 z" id="boundary" inkscape:connector-curvature="0" />
	<path style="fill:none;stroke:red;stroke-width:1px;stroke-linecap:butt;stroke-linejoin:miter;stroke-opacity:1" d="M 173.573,651.202 145.311,639.897 z" id="boundary" inkscape:connector-curvature="0" />
	<path style="fill:none;stroke:red;stroke-width:1px;stroke-linecap:butt;stroke-linejoin:miter;stroke-opacity:1" d="M 32.2621,501.413 32.2621,529.675 z" id="boundary" inkscape:connector-curvature="0" />
	<path style="fill:none;stroke:red;stroke-width:1px;stroke-linecap:butt;stroke-linejoin:miter;stroke-opacity:1" d="M 35.0883,557.937 49.2194,583.373 z" id="boundary" inkscape:connector-curvature="0" />
	<path style="fill:none;stroke:red;stroke-width:1px;stroke-linecap:butt;stroke-linejoin:miter;stroke-opacity:1" d="M 35.0883,557.937 32.2621,529.675 z" id="boundary" inkscape:connector-curvature="0" />
	<path style="fill:none;stroke:red;stroke-width:1px;stroke-linecap:butt;stroke-linejoin:miter;stroke-opacity:1" d="M 66.1766,605.983 94.4387,617.288 z" id="boundary" inkscape:connector-curvature="0" />
	<path style="fill:none;stroke:red;stroke-width:1px;stroke-linecap:butt;stroke-linejoin:miter;stroke-opacity:1" d="M 66.1766,605.983 49.2194,583.373 z" id="boundary" inkscape:connector-curvature="0" />
	<path style="fill:none;stroke:red;stroke-width:1px;stroke-linecap:butt;stroke-linejoin:miter;stroke-opacity:1" d="M 117.048,634.245 145.311,639.897 z" id="boundary" inkscape:connector-curvature="0" />
	<path style="fill:none;stroke:red;stroke-width:1px;stroke-linecap:butt;stroke-linejoin:miter;stroke-opacity:1" d="M 117.048,634.245 94.4387,617.288 z" id="boundary" inkscape:connector-curvature="0" />
	<path style="fill:none;stroke:red;stroke-width:1px;stroke-linecap:butt;stroke-linejoin:miter;stroke-opacity:1" d="M 224.444,399.67 252.707,388.365 z" id="boundary" inkscape:connector-curvature="0" />
	<path style="fill:none;stroke:red;stroke-width:1px;stroke-linecap:butt;stroke-linejoin:miter;stroke-opacity:1" d="M 275.316,83.1339 275.316,111.396 z" id="boundary" inkscape:connector-curvature="0" />
	<path style="fill:none;stroke:red;stroke-width:1px;stroke-linecap:butt;stroke-linejoin:miter;stroke-opacity:1" d="M 275.316,111.396 286.621,139.658 z" id="boundary" inkscape:connector-curvature="0" />
	<path style="fill:none;stroke:red;stroke-width:1px;stroke-linecap:butt;stroke-linejoin:miter;stroke-opacity:1" d="M 275.316,83.1339 275.316,54.8718 z" id="boundary" inkscape:connector-curvature="0" />
	<path style="fill:none;stroke:red;stroke-width:1px;stroke-linecap:butt;stroke-linejoin:miter;stroke-opacity:1" d="M 275.316,54.8718 297.926,32.2621 z" id="boundary" inkscape:connector-curvature="0" />
	<path style="fill:none;stroke:red;stroke-width:1px;stroke-linecap:butt;stroke-linejoin:miter;stroke-opacity:1" d="M 320.536,15.3048 348.798,9.65242 z" id="boundary" inkscape:connector-curvature="0" />
	<path style="fill:none;stroke:red;stroke-width:1px;stroke-linecap:butt;stroke-linejoin:miter;stroke-opacity:1" d="M 297.926,32.2621 320.536,15.3048 z" id="boundary" inkscape:connector-curvature="0" />
	<path style="fill:none;stroke:red;stroke-width:1px;stroke-linecap:butt;stroke-linejoin:miter;stroke-opacity:1" d="M 297.926,167.92 286.621,139.658 z" id="boundary" inkscape:connector-curvature="0" />
	<path style="fill:none;stroke:red;stroke-width:1px;stroke-linecap:butt;stroke-linejoin:miter;stroke-opacity:1" d="M 292.274,218.792 297.926,167.92 z" id="boundary" inkscape:connector-curvature="0" />
	<path style="fill:none;stroke:red;stroke-width:1px;stroke-linecap:butt;stroke-linejoin:miter;stroke-opacity:1" d="M 292.274,247.054 292.274,275.316 z" id="boundary" inkscape:connector-curvature="0" />
	<path style="fill:none;stroke:red;stroke-width:1px;stroke-linecap:butt;stroke-linejoin:miter;stroke-opacity:1" d="M 292.274,247.054 292.274,218.792 z" id="boundary" inkscape:connector-curvature="0" />
	<path style="fill:none;stroke:red;stroke-width:1px;stroke-linecap:butt;stroke-linejoin:miter;stroke-opacity:1" d="M 280.969,382.712 309.231,382.712 z" id="boundary" inkscape:connector-curvature="0" />
	<path style="fill:none;stroke:red;stroke-width:1px;stroke-linecap:butt;stroke-linejoin:miter;stroke-opacity:1" d="M 280.969,382.712 252.707,388.365 z" id="boundary" inkscape:connector-curvature="0" />
	<path style="fill:none;stroke:red;stroke-width:1px;stroke-linecap:butt;stroke-linejoin:miter;stroke-opacity:1" d="M 292.274,275.316 295.1,303.578 z" id="boundary" inkscape:connector-curvature="0" />
	<path style="fill:none;stroke:red;stroke-width:1px;stroke-linecap:butt;stroke-linejoin:miter;stroke-opacity:1" d="M 303.578,331.84 295.1,303.578 z" id="boundary" inkscape:connector-curvature="0" />
	<path style="fill:none;stroke:red;stroke-width:1px;stroke-linecap:butt;stroke-linejoin:miter;stroke-opacity:1" d="M 4,840.558 15.3048,795.339 z" id="boundary" inkscape:connector-curvature="0" />
	<path style="fill:none;stroke:red;stroke-width:1px;stroke-linecap:butt;stroke-linejoin:miter;stroke-opacity:1" d="M 26.6097,767.077 15.3048,795.339 z" id="boundary" inkscape:connector-curvature="0" />
	<path style="fill:none;stroke:red;stroke-width:1px;stroke-linecap:butt;stroke-linejoin:miter;stroke-opacity:1" d="M 4,868.821 4,840.558 z" id="boundary" inkscape:connector-curvature="0" />
	<path style="fill:none;stroke:red;stroke-width:1px;stroke-linecap:butt;stroke-linejoin:miter;stroke-opacity:1" d="M 26.6097,767.077 49.2194,750.12 z" id="boundary" inkscape:connector-curvature="0" />
	<path style="fill:none;stroke:red;stroke-width:1px;stroke-linecap:butt;stroke-linejoin:miter;stroke-opacity:1" d="M 100.091,727.51 128.353,727.51 z" id="boundary" inkscape:connector-curvature="0" />
	<path style="fill:none;stroke:red;stroke-width:1px;stroke-linecap:butt;stroke-linejoin:miter;stroke-opacity:1" d="M 49.2194,750.12 71.8291,733.162 z" id="boundary" inkscape:connector-curvature="0" />
	<path style="fill:none;stroke:red;stroke-width:1px;stroke-linecap:butt;stroke-linejoin:miter;stroke-opacity:1" d="M 71.8291,733.162 100.091,727.51 z" id="boundary" inkscape:connector-curvature="0" />
	<path style="fill:none;stroke:red;stroke-width:1px;stroke-linecap:butt;stroke-linejoin:miter;stroke-opacity:1" d="M 9.65242,897.083 4,868.821 z" id="boundary" inkscape:connector-curvature="0" />
	<path style="fill:none;stroke:red;stroke-width:1px;stroke-linecap:butt;stroke-linejoin:miter;stroke-opacity:1" d="M 9.65242,897.083 9.65242,925.345 z" id="boundary" inkscape:connector-curvature="0" />
	<path style="fill:none;stroke:red;stroke-width:1px;stroke-linecap:butt;stroke-linejoin:miter;stroke-opacity:1" d="M 23.7835,950.781 9.65242,925.345 z" id="boundary" inkscape:connector-curvature="0" />
	<path style="fill:none;stroke:red;stroke-width:1px;stroke-linecap:butt;stroke-linejoin:miter;stroke-opacity:1" d="M 46.3932,967.738 23.7835,950.781 z" id="boundary" inkscape:connector-curvature="0" />
	<path style="fill:none;stroke:red;stroke-width:1px;stroke-linecap:butt;stroke-linejoin:miter;stroke-opacity:1" d="M 69.0028,984.695 46.3932,967.738 z" id="boundary" inkscape:connector-curvature="0" />
	<path style="fill:none;stroke:red;stroke-width:1px;stroke-linecap:butt;stroke-linejoin:miter;stroke-opacity:1" d="M 97.265,990.348 69.0028,984.695 z" id="boundary" inkscape:connector-curvature="0" />
	<path style="fill:none;stroke:red;stroke-width:1px;stroke-linecap:butt;stroke-linejoin:miter;stroke-opacity:1" d="M 125.527,996 97.265,990.348 z" id="boundary" inkscape:connector-curvature="0" />
	<path style="fill:none;stroke:red;stroke-width:1px;stroke-linecap:butt;stroke-linejoin:miter;stroke-opacity:1" d="M 153.789,996 125.527,996 z" id="boundary" inkscape:connector-curvature="0" />
	<path style="fill:none;stroke:red;stroke-width:1px;stroke-linecap:butt;stroke-linejoin:miter;stroke-opacity:1" d="M 128.353,727.51 156.615,727.51 z" id="boundary" inkscape:connector-curvature="0" />
	<path style="fill:none;stroke:red;stroke-width:1px;stroke-linecap:butt;stroke-linejoin:miter;stroke-opacity:1" d="M 230.097,656.855 201.835,659.681 z" id="boundary" inkscape:connector-curvature="0" />
	<path style="fill:none;stroke:red;stroke-width:1px;stroke-linecap:butt;stroke-linejoin:miter;stroke-opacity:1" d="M 201.835,659.681 173.573,651.202 z" id="boundary" inkscape:connector-curvature="0" />
	<path style="fill:none;stroke:red;stroke-width:1px;stroke-linecap:butt;stroke-linejoin:miter;stroke-opacity:1" d="M 184.877,733.162 156.615,727.51 z" id="boundary" inkscape:connector-curvature="0" />
	<path style="fill:none;stroke:red;stroke-width:1px;stroke-linecap:butt;stroke-linejoin:miter;stroke-opacity:1" d="M 258.359,659.681 280.969,676.638 z" id="boundary" inkscape:connector-curvature="0" />
	<path style="fill:none;stroke:red;stroke-width:1px;stroke-linecap:butt;stroke-linejoin:miter;stroke-opacity:1" d="M 280.969,676.638 269.664,710.553 z" id="boundary" inkscape:connector-curvature="0" />
	<path style="fill:none;stroke:red;stroke-width:1px;stroke-linecap:butt;stroke-linejoin:miter;stroke-opacity:1" d="M 241.402,716.205 269.664,710.553 z" id="boundary" inkscape:connector-curvature="0" />
	<path style="fill:none;stroke:red;stroke-width:1px;stroke-linecap:butt;stroke-linejoin:miter;stroke-opacity:1" d="M 379.886,979.043 351.624,973.39 z" id="boundary" inkscape:connector-curvature="0" />
	<path style="fill:none;stroke:red;stroke-width:1px;stroke-linecap:butt;stroke-linejoin:miter;stroke-opacity:1" d="M 230.097,656.855 258.359,659.681 z" id="boundary" inkscape:connector-curvature="0" />
	<path style="fill:none;stroke:red;stroke-width:1px;stroke-linecap:butt;stroke-linejoin:miter;stroke-opacity:1" d="M 241.402,716.205 213.14,727.51 z" id="boundary" inkscape:connector-curvature="0" />
	<path style="fill:none;stroke:red;stroke-width:1px;stroke-linecap:butt;stroke-linejoin:miter;stroke-opacity:1" d="M 213.14,727.51 184.877,733.162 z" id="boundary" inkscape:connector-curvature="0" />
	<path style="fill:none;stroke:red;stroke-width:1px;stroke-linecap:butt;stroke-linejoin:miter;stroke-opacity:1" d="M 182.051,996 210.313,993.174 z" id="boundary" inkscape:connector-curvature="0" />
	<path style="fill:none;stroke:red;stroke-width:1px;stroke-linecap:butt;stroke-linejoin:miter;stroke-opacity:1" d="M 238.575,981.869 210.313,993.174 z" id="boundary" inkscape:connector-curvature="0" />
	<path style="fill:none;stroke:red;stroke-width:1px;stroke-linecap:butt;stroke-linejoin:miter;stroke-opacity:1" d="M 182.051,996 153.789,996 z" id="boundary" inkscape:connector-curvature="0" />
	<path style="fill:none;stroke:red;stroke-width:1px;stroke-linecap:butt;stroke-linejoin:miter;stroke-opacity:1" d="M 266.838,973.39 295.1,967.738 z" id="boundary" inkscape:connector-curvature="0" />
	<path style="fill:none;stroke:red;stroke-width:1px;stroke-linecap:butt;stroke-linejoin:miter;stroke-opacity:1" d="M 295.1,967.738 323.362,973.39 z" id="boundary" inkscape:connector-curvature="0" />
	<path style="fill:none;stroke:red;stroke-width:1px;stroke-linecap:butt;stroke-linejoin:miter;stroke-opacity:1" d="M 238.575,981.869 266.838,973.39 z" id="boundary" inkscape:connector-curvature="0" />
	<path style="fill:none;stroke:red;stroke-width:1px;stroke-linecap:butt;stroke-linejoin:miter;stroke-opacity:1" d="M 351.624,973.39 323.362,973.39 z" id="boundary" inkscape:connector-curvature="0" />
	<path style="fill:none;stroke:red;stroke-width:1px;stroke-linecap:butt;stroke-linejoin:miter;stroke-opacity:1" d="M 405.322,9.65242 433.584,20.9573 z" id="boundary" inkscape:connector-curvature="0" />
	<path style="fill:none;stroke:red;stroke-width:1px;stroke-linecap:butt;stroke-linejoin:miter;stroke-opacity:1" d="M 654.028,15.3048 625.766,26.6097 z" id="boundary" inkscape:connector-curvature="0" />
	<path style="fill:none;stroke:red;stroke-width:1px;stroke-linecap:butt;stroke-linejoin:miter;stroke-opacity:1" d="M 405.322,9.65242 377.06,4 z" id="boundary" inkscape:connector-curvature="0" />
	<path style="fill:none;stroke:red;stroke-width:1px;stroke-linecap:butt;stroke-linejoin:miter;stroke-opacity:1" d="M 433.584,20.9573 456.194,37.9145 z" id="boundary" inkscape:connector-curvature="0" />
	<path style="fill:none;stroke:red;stroke-width:1px;stroke-linecap:butt;stroke-linejoin:miter;stroke-opacity:1" d="M 682.291,4 710.553,4 z" id="boundary" inkscape:connector-curvature="0" />
	<path style="fill:none;stroke:red;stroke-width:1px;stroke-linecap:butt;stroke-linejoin:miter;stroke-opacity:1" d="M 710.553,4 738.815,15.3048 z" id="boundary" inkscape:connector-curvature="0" />
	<path style="fill:none;stroke:red;stroke-width:1px;stroke-linecap:butt;stroke-linejoin:miter;stroke-opacity:1" d="M 654.028,15.3048 682.291,4 z" id="boundary" inkscape:connector-curvature="0" />
	<path style="fill:none;stroke:red;stroke-width:1px;stroke-linecap:butt;stroke-linejoin:miter;stroke-opacity:1" d="M 597.504,37.9145 625.766,26.6097 z" id="boundary" inkscape:connector-curvature="0" />
	<path style="fill:none;stroke:red;stroke-width:1px;stroke-linecap:butt;stroke-linejoin:miter;stroke-opacity:1" d="M 484.456,43.567 456.194,37.9145 z" id="boundary" inkscape:connector-curvature="0" />
	<path style="fill:none;stroke:red;stroke-width:1px;stroke-linecap:butt;stroke-linejoin:miter;stroke-opacity:1" d="M 512.718,37.9145 484.456,43.567 z" id="boundary" inkscape:connector-curvature="0" />
	<path style="fill:none;stroke:red;stroke-width:1px;stroke-linecap:butt;stroke-linejoin:miter;stroke-opacity:1" d="M 512.718,37.9145 540.98,43.567 z" id="boundary" inkscape:connector-curvature="0" />
	<path style="fill:none;stroke:red;stroke-width:1px;stroke-linecap:butt;stroke-linejoin:miter;stroke-opacity:1" d="M 540.98,43.567 569.242,43.567 z" id="boundary" inkscape:connector-curvature="0" />
	<path style="fill:none;stroke:red;stroke-width:1px;stroke-linecap:butt;stroke-linejoin:miter;stroke-opacity:1" d="M 597.504,37.9145 569.242,43.567 z" id="boundary" inkscape:connector-curvature="0" />
	<path style="fill:none;stroke:red;stroke-width:1px;stroke-linecap:butt;stroke-linejoin:miter;stroke-opacity:1" d="M 738.815,382.712 710.553,374.234 z" id="boundary" inkscape:connector-curvature="0" />
	<path style="fill:none;stroke:red;stroke-width:1px;stroke-linecap:butt;stroke-linejoin:miter;stroke-opacity:1" d="M 741.641,320.536 730.336,348.798 z" id="boundary" inkscape:connector-curvature="0" />
	<path style="fill:none;stroke:red;stroke-width:1px;stroke-linecap:butt;stroke-linejoin:miter;stroke-opacity:1" d="M 747.293,235.749 752.946,190.53 z" id="boundary" inkscape:connector-curvature="0" />
	<path style="fill:none;stroke:red;stroke-width:1px;stroke-linecap:butt;stroke-linejoin:miter;stroke-opacity:1" d="M 752.946,190.53 767.077,165.094 z" id="boundary" inkscape:connector-curvature="0" />
	<path style="fill:none;stroke:red;stroke-width:1px;stroke-linecap:butt;stroke-linejoin:miter;stroke-opacity:1" d="M 747.293,286.621 741.641,320.536 z" id="boundary" inkscape:connector-curvature="0" />
	<path style="fill:none;stroke:red;stroke-width:1px;stroke-linecap:butt;stroke-linejoin:miter;stroke-opacity:1" d="M 747.293,286.621 747.293,235.749 z" id="boundary" inkscape:connector-curvature="0" />
	<path style="fill:none;stroke:red;stroke-width:1px;stroke-linecap:butt;stroke-linejoin:miter;stroke-opacity:1" d="M 738.815,15.3048 764.251,29.4359 z" id="boundary" inkscape:connector-curvature="0" />
	<path style="fill:none;stroke:red;stroke-width:1px;stroke-linecap:butt;stroke-linejoin:miter;stroke-opacity:1" d="M 792.513,77.4815 781.208,128.353 z" id="boundary" inkscape:connector-curvature="0" />
	<path style="fill:none;stroke:red;stroke-width:1px;stroke-linecap:butt;stroke-linejoin:miter;stroke-opacity:1" d="M 781.208,128.353 767.077,165.094 z" id="boundary" inkscape:connector-curvature="0" />
	<path style="fill:none;stroke:red;stroke-width:1px;stroke-linecap:butt;stroke-linejoin:miter;stroke-opacity:1" d="M 764.251,29.4359 786.86,49.2194 z" id="boundary" inkscape:connector-curvature="0" />
	<path style="fill:none;stroke:red;stroke-width:1px;stroke-linecap:butt;stroke-linejoin:miter;stroke-opacity:1" d="M 786.86,49.2194 792.513,77.4815 z" id="boundary" inkscape:connector-curvature="0" />
	<path style="fill:none;stroke:red;stroke-width:1px;stroke-linecap:butt;stroke-linejoin:miter;stroke-opacity:1" d="M 767.077,388.365 738.815,382.712 z" id="boundary" inkscape:connector-curvature="0" />
	<path style="fill:none;stroke:red;stroke-width:1px;stroke-linecap:butt;stroke-linejoin:miter;stroke-opacity:1" d="M 795.339,399.67 767.077,388.365 z" id="boundary" inkscape:connector-curvature="0" />
	<path style="fill:none;stroke:red;stroke-width:1px;stroke-linecap:butt;stroke-linejoin:miter;stroke-opacity:1" d="M 795.339,399.67 817.949,419.453 z" id="boundary" inkscape:connector-curvature="0" />
	<path style="fill:none;stroke:red;stroke-width:1px;stroke-linecap:butt;stroke-linejoin:miter;stroke-opacity:1" d="M 817.949,419.453 837.732,442.063 z" id="boundary" inkscape:connector-curvature="0" />
	<path style="fill:none;stroke:red;stroke-width:1px;stroke-linecap:butt;stroke-linejoin:miter;stroke-opacity:1" d="M 865.994,492.934 854.689,464.672 z" id="boundary" inkscape:connector-curvature="0" />
	<path style="fill:none;stroke:red;stroke-width:1px;stroke-linecap:butt;stroke-linejoin:miter;stroke-opacity:1" d="M 871.647,521.197 865.994,492.934 z" id="boundary" inkscape:connector-curvature="0" />
	<path style="fill:none;stroke:red;stroke-width:1px;stroke-linecap:butt;stroke-linejoin:miter;stroke-opacity:1" d="M 837.732,442.063 854.689,464.672 z" id="boundary" inkscape:connector-curvature="0" />
	<path style="fill:none;stroke:red;stroke-width:1px;stroke-linecap:butt;stroke-linejoin:miter;stroke-opacity:1" d="M 871.647,521.197 868.821,549.459 z" id="boundary" inkscape:connector-curvature="0" />
	<path style="fill:none;stroke:red;stroke-width:1px;stroke-linecap:butt;stroke-linejoin:miter;stroke-opacity:1" d="M 379.886,979.043 408.148,984.695 z" id="boundary" inkscape:connector-curvature="0" />
	<path style="fill:none;stroke:red;stroke-width:1px;stroke-linecap:butt;stroke-linejoin:miter;stroke-opacity:1" d="M 436.41,990.348 464.672,990.348 z" id="boundary" inkscape:connector-curvature="0" />
	<path style="fill:none;stroke:red;stroke-width:1px;stroke-linecap:butt;stroke-linejoin:miter;stroke-opacity:1" d="M 464.672,990.348 492.934,996 z" id="boundary" inkscape:connector-curvature="0" />
	<path style="fill:none;stroke:red;stroke-width:1px;stroke-linecap:butt;stroke-linejoin:miter;stroke-opacity:1" d="M 436.41,990.348 408.148,984.695 z" id="boundary" inkscape:connector-curvature="0" />
	<path style="fill:none;stroke:red;stroke-width:1px;stroke-linecap:butt;stroke-linejoin:miter;stroke-opacity:1" d="M 721.858,699.248 719.031,670.986 z" id="boundary" inkscape:connector-curvature="0" />
	<path style="fill:none;stroke:red;stroke-width:1px;stroke-linecap:butt;stroke-linejoin:miter;stroke-opacity:1" d="M 719.031,670.986 747.293,670.986 z" id="boundary" inkscape:connector-curvature="0" />
	<path style="fill:none;stroke:red;stroke-width:1px;stroke-linecap:butt;stroke-linejoin:miter;stroke-opacity:1" d="M 521.197,996 492.934,996 z" id="boundary" inkscape:connector-curvature="0" />
	<path style="fill:none;stroke:red;stroke-width:1px;stroke-linecap:butt;stroke-linejoin:miter;stroke-opacity:1" d="M 724.684,727.51 721.858,699.248 z" id="boundary" inkscape:connector-curvature="0" />
	<path style="fill:none;stroke:red;stroke-width:1px;stroke-linecap:butt;stroke-linejoin:miter;stroke-opacity:1" d="M 549.459,996 521.197,996 z" id="boundary" inkscape:connector-curvature="0" />
	<path style="fill:none;stroke:red;stroke-width:1px;stroke-linecap:butt;stroke-linejoin:miter;stroke-opacity:1" d="M 605.983,996 577.721,996 z" id="boundary" inkscape:connector-curvature="0" />
	<path style="fill:none;stroke:red;stroke-width:1px;stroke-linecap:butt;stroke-linejoin:miter;stroke-opacity:1" d="M 577.721,996 549.459,996 z" id="boundary" inkscape:connector-curvature="0" />
	<path style="fill:none;stroke:red;stroke-width:1px;stroke-linecap:butt;stroke-linejoin:miter;stroke-opacity:1" d="M 662.507,996 634.245,996 z" id="boundary" inkscape:connector-curvature="0" />
	<path style="fill:none;stroke:red;stroke-width:1px;stroke-linecap:butt;stroke-linejoin:miter;stroke-opacity:1" d="M 719.031,996 690.769,996 z" id="boundary" inkscape:connector-curvature="0" />
	<path style="fill:none;stroke:red;stroke-width:1px;stroke-linecap:butt;stroke-linejoin:miter;stroke-opacity:1" d="M 690.769,996 662.507,996 z" id="boundary" inkscape:connector-curvature="0" />
	<path style="fill:none;stroke:red;stroke-width:1px;stroke-linecap:butt;stroke-linejoin:miter;stroke-opacity:1" d="M 634.245,996 605.983,996 z" id="boundary" inkscape:connector-curvature="0" />
	<path style="fill:none;stroke:red;stroke-width:1px;stroke-linecap:butt;stroke-linejoin:miter;stroke-opacity:1" d="M 724.684,727.51 744.467,750.12 z" id="boundary" inkscape:connector-curvature="0" />
	<path style="fill:none;stroke:red;stroke-width:1px;stroke-linecap:butt;stroke-linejoin:miter;stroke-opacity:1" d="M 747.293,670.986 769.903,654.028 z" id="boundary" inkscape:connector-curvature="0" />
	<path style="fill:none;stroke:red;stroke-width:1px;stroke-linecap:butt;stroke-linejoin:miter;stroke-opacity:1" d="M 795.339,639.897 769.903,654.028 z" id="boundary" inkscape:connector-curvature="0" />
	<path style="fill:none;stroke:red;stroke-width:1px;stroke-linecap:butt;stroke-linejoin:miter;stroke-opacity:1" d="M 767.077,767.077 744.467,750.12 z" id="boundary" inkscape:connector-curvature="0" />
	<path style="fill:none;stroke:red;stroke-width:1px;stroke-linecap:butt;stroke-linejoin:miter;stroke-opacity:1" d="M 857.516,577.721 868.821,549.459 z" id="boundary" inkscape:connector-curvature="0" />
	<path style="fill:none;stroke:red;stroke-width:1px;stroke-linecap:butt;stroke-linejoin:miter;stroke-opacity:1" d="M 857.516,577.721 840.558,600.33 z" id="boundary" inkscape:connector-curvature="0" />
	<path style="fill:none;stroke:red;stroke-width:1px;stroke-linecap:butt;stroke-linejoin:miter;stroke-opacity:1" d="M 795.339,639.897 817.949,622.94 z" id="boundary" inkscape:connector-curvature="0" />
	<path style="fill:none;stroke:red;stroke-width:1px;stroke-linecap:butt;stroke-linejoin:miter;stroke-opacity:1" d="M 840.558,600.33 817.949,622.94 z" id="boundary" inkscape:connector-curvature="0" />
	<path style="fill:none;stroke:red;stroke-width:1px;stroke-linecap:butt;stroke-linejoin:miter;stroke-opacity:1" d="M 778.382,795.339 786.86,823.601 z" id="boundary" inkscape:connector-curvature="0" />
	<path style="fill:none;stroke:red;stroke-width:1px;stroke-linecap:butt;stroke-linejoin:miter;stroke-opacity:1" d="M 778.382,795.339 767.077,767.077 z" id="boundary" inkscape:connector-curvature="0" />
	<path style="fill:none;stroke:red;stroke-width:1px;stroke-linecap:butt;stroke-linejoin:miter;stroke-opacity:1" d="M 769.903,979.043 747.293,996 z" id="boundary" inkscape:connector-curvature="0" />
	<path style="fill:none;stroke:red;stroke-width:1px;stroke-linecap:butt;stroke-linejoin:miter;stroke-opacity:1" d="M 747.293,996 719.031,996 z" id="boundary" inkscape:connector-curvature="0" />
	<path style="fill:none;stroke:red;stroke-width:1px;stroke-linecap:butt;stroke-linejoin:miter;stroke-opacity:1" d="M 786.86,823.601 795.339,851.863 z" id="boundary" inkscape:connector-curvature="0" />
	<path style="fill:none;stroke:red;stroke-width:1px;stroke-linecap:butt;stroke-linejoin:miter;stroke-opacity:1" d="M 795.339,851.863 798.165,880.125 z" id="boundary" inkscape:connector-curvature="0" />
	<path style="fill:none;stroke:red;stroke-width:1px;stroke-linecap:butt;stroke-linejoin:miter;stroke-opacity:1" d="M 798.165,908.387 792.513,953.607 z" id="boundary" inkscape:connector-curvature="0" />
	<path style="fill:none;stroke:red;stroke-width:1px;stroke-linecap:butt;stroke-linejoin:miter;stroke-opacity:1" d="M 792.513,953.607 769.903,979.043 z" id="boundary" inkscape:connector-curvature="0" />
	<path style="fill:none;stroke:red;stroke-width:1px;stroke-linecap:butt;stroke-linejoin:miter;stroke-opacity:1" d="M 798.165,908.387 798.165,880.125 z" id="boundary" inkscape:connector-curvature="0" />
	<path style="fill:none;stroke:red;stroke-width:1px;stroke-linecap:butt;stroke-linejoin:miter;stroke-opacity:1" d="M 348.798,9.65242 377.06,4 z" id="boundary" inkscape:connector-curvature="0" />
	<circle cx="4" cy="840.558" r="4" fill="#0" id="circle0"/>
	<circle cx="4" cy="868.821" r="4" fill="#0" id="circle1"/>
	<circle cx="9.65242" cy="897.083" r="4" fill="#0" id="circle2"/>
	<circle cx="9.65242" cy="925.345" r="4" fill="#0" id="circle3"/>
	<circle cx="15.3048" cy="795.339" r="4" fill="#0" id="circle4"/>
	<circle cx="23.7835" cy="950.781" r="4" fill="#0" id="circle5"/>
	<circle cx="26.6097" cy="767.077" r="4" fill="#0" id="circle6"/>
	<circle cx="32.2621" cy="501.413" r="4" fill="#0" id="circle7"/>
	<circle cx="32.2621" cy="529.675" r="4" fill="#0" id="circle8"/>
	<circle cx="35.0883" cy="557.937" r="4" fill="#0" id="circle9"/>
	<circle cx="43.567" cy="473.151" r="4" fill="#0" id="circle10"/>
	<circle cx="46.3932" cy="967.738" r="4" fill="#0" id="circle11"/>
	<circle cx="49.2194" cy="583.373" r="4" fill="#0" id="circle12"/>
	<circle cx="49.2194" cy="750.12" r="4" fill="#0" id="circle13"/>
	<circle cx="66.1766" cy="450.541" r="4" fill="#0" id="circle14"/>
	<circle cx="66.1766" cy="605.983" r="4" fill="#0" id="circle15"/>
	<circle cx="69.0028" cy="984.695" r="4" fill="#0" id="circle16"/>
	<circle cx="71.8291" cy="733.162" r="4" fill="#0" id="circle17"/>
	<circle cx="94.4387" cy="444.889" r="4" fill="#0" id="circle18"/>
	<circle cx="94.4387" cy="617.288" r="4" fill="#0" id="circle19"/>
	<circle cx="97.265" cy="990.348" r="4" fill="#0" id="circle20"/>
	<circle cx="100.091" cy="727.51" r="4" fill="#0" id="circle21"/>
	<circle cx="117.048" cy="634.245" r="4" fill="#0" id="circle22"/>
	<circle cx="122.701" cy="433.584" r="4" fill="#0" id="circle23"/>
	<circle cx="125.527" cy="996" r="4" fill="#0" id="circle24"/>
	<circle cx="128.353" cy="727.51" r="4" fill="#0" id="circle25"/>
	<circle cx="145.311" cy="639.897" r="4" fill="#0" id="circle26"/>
	<circle cx="150.963" cy="433.584" r="4" fill="#0" id="circle27"/>
	<circle cx="153.789" cy="996" r="4" fill="#0" id="circle28"/>
	<circle cx="156.615" cy="727.51" r="4" fill="#0" id="circle29"/>
	<circle cx="173.573" cy="651.202" r="4" fill="#0" id="circle30"/>
	<circle cx="179.225" cy="427.932" r="4" fill="#0" id="circle31"/>
	<circle cx="182.051" cy="996" r="4" fill="#0" id="circle32"/>
	<circle cx="184.877" cy="733.162" r="4" fill="#0" id="circle33"/>
	<circle cx="201.835" cy="659.681" r="4" fill="#0" id="circle34"/>
	<circle cx="207.487" cy="422.279" r="4" fill="#0" id="circle35"/>
	<circle cx="210.313" cy="993.174" r="4" fill="#0" id="circle36"/>
	<circle cx="213.14" cy="727.51" r="4" fill="#0" id="circle37"/>
	<circle cx="224.444" cy="399.67" r="4" fill="#0" id="circle38"/>
	<circle cx="230.097" cy="656.855" r="4" fill="#0" id="circle39"/>
	<circle cx="238.575" cy="981.869" r="4" fill="#0" id="circle40"/>
	<circle cx="241.402" cy="716.205" r="4" fill="#0" id="circle41"/>
	<circle cx="252.707" cy="388.365" r="4" fill="#0" id="circle42"/>
	<circle cx="258.359" cy="659.681" r="4" fill="#0" id="circle43"/>
	<circle cx="266.838" cy="973.39" r="4" fill="#0" id="circle44"/>
	<circle cx="269.664" cy="710.553" r="4" fill="#0" id="circle45"/>
	<circle cx="275.316" cy="54.8718" r="4" fill="#0" id="circle46"/>
	<circle cx="275.316" cy="83.1339" r="4" fill="#0" id="circle47"/>
	<circle cx="275.316" cy="111.396" r="4" fill="#0" id="circle48"/>
	<circle cx="280.969" cy="382.712" r="4" fill="#0" id="circle49"/>
	<circle cx="280.969" cy="676.638" r="4" fill="#0" id="circle50"/>
	<circle cx="286.621" cy="139.658" r="4" fill="#0" id="circle51"/>
	<circle cx="292.274" cy="218.792" r="4" fill="#0" id="circle52"/>
	<circle cx="292.274" cy="247.054" r="4" fill="#0" id="circle53"/>
	<circle cx="292.274" cy="275.316" r="4" fill="#0" id="circle54"/>
	<circle cx="295.1" cy="303.578" r="4" fill="#0" id="circle55"/>
	<circle cx="295.1" cy="967.738" r="4" fill="#0" id="circle56"/>
	<circle cx="297.926" cy="32.2621" r="4" fill="#0" id="circle57"/>
	<circle cx="297.926" cy="167.92" r="4" fill="#0" id="circle58"/>
	<circle cx="303.578" cy="331.84" r="4" fill="#0" id="circle59"/>
	<circle cx="309.231" cy="382.712" r="4" fill="#0" id="circle60"/>
	<circle cx="320.536" cy="15.3048" r="4" fill="#0" id="circle61"/>
	<circle cx="323.362" cy="973.39" r="4" fill="#0" id="circle62"/>
	<circle cx="348.798" cy="9.65242" r="4" fill="#0" id="circle63"/>
	<circle cx="351.624" cy="973.39" r="4" fill="#0" id="circle64"/>
	<circle cx="377.06" cy="4" r="4" fill="#0" id="circle65"/>
	<circle cx="379.886" cy="979.043" r="4" fill="#0" id="circle66"/>
	<circle cx="405.322" cy="9.65242" r="4" fill="#0" id="circle67"/>
	<circle cx="408.148" cy="984.695" r="4" fill="#0" id="circle68"/>
	<circle cx="433.584" cy="20.9573" r="4" fill="#0" id="circle69"/>
	<circle cx="436.41" cy="990.348" r="4" fill="#0" id="circle70"/>
	<circle cx="456.194" cy="37.9145" r="4" fill="#0" id="circle71"/>
	<circle cx="464.672" cy="990.348" r="4" fill="#0" id="circle72"/>
	<circle cx="484.456" cy="43.567" r="4" fill="#0" id="circle73"/>
	<circle cx="492.934" cy="996" r="4" fill="#0" id="circle74"/>
	<circle cx="512.718" cy="37.9145" r="4" fill="#0" id="circle75"/>
	<circle cx="521.197" cy="996" r="4" fill="#0" id="circle76"/>
	<circle cx="540.98" cy="43.567" r="4" fill="#0" id="circle77"/>
	<circle cx="549.459" cy="996" r="4" fill="#0" id="circle78"/>
	<circle cx="569.242" cy="43.567" r="4" fill="#0" id="circle79"/>
	<circle cx="577.721" cy="996" r="4" fill="#0" id="circle80"/>
	<circle cx="597.504" cy="37.9145" r="4" fill="#0" id="circle81"/>
	<circle cx="605.983" cy="996" r="4" fill="#0" id="circle82"/>
	<circle cx="625.766" cy="26.6097" r="4" fill="#0" id="circle83"/>
	<circle cx="634.245" cy="996" r="4" fill="#0" id="circle84"/>
	<circle cx="654.028" cy="15.3048" r="4" fill="#0" id="circle85"/>
	<circle cx="662.507" cy="996" r="4" fill="#0" id="circle86"/>
	<circle cx="682.291" cy="4" r="4" fill="#0" id="circle87"/>
	<circle cx="690.769" cy="996" r="4" fill="#0" id="circle88"/>
	<circle cx="710.553" cy="4" r="4" fill="#0" id="circle89"/>
	<circle cx="710.553" cy="374.234" r="4" fill="#0" id="circle90"/>
	<circle cx="719.031" cy="670.986" r="4" fill="#0" id="circle91"/>
	<circle cx="719.031" cy="996" r="4" fill="#0" id="circle92"/>
	<circle cx="721.858" cy="699.248" r="4" fill="#0" id="circle93"/>
	<circle cx="724.684" cy="727.51" r="4" fill="#0" id="circle94"/>
	<circle cx="730.336" cy="348.798" r="4" fill="#0" id="circle95"/>
	<circle cx="738.815" cy="15.3048" r="4" fill="#0" id="circle96"/>
	<circle cx="738.815" cy="382.712" r="4" fill="#0" id="circle97"/>
	<circle cx="741.641" cy="320.536" r="4" fill="#0" id="circle98"/>
	<circle cx="744.467" cy="750.12" r="4" fill="#0" id="circle99"/>
	<circle cx="747.293" cy="235.749" r="4" fill="#0" id="circle100"/>
	<circle cx="747.293" cy="286.621" r="4" fill="#0" id="circle101"/>
	<circle cx="747.293" cy="670.986" r="4" fill="#0" id="circle102"/>
	<circle cx="747.293" cy="996" r="4" fill="#0" id="circle103"/>
	<circle cx="752.946" cy="190.53" r="4" fill="#0" id="circle104"/>
	<circle cx="764.251" cy="29.4359" r="4" fill="#0" id="circle105"/>
	<circle cx="767.077" cy="165.094" r="4" fill="#0" id="circle106"/>
	<circle cx="767.077" cy="388.365" r="4" fill="#0" id="circle107"/>
	<circle cx="767.077" cy="767.077" r="4" fill="#0" id="circle108"/>
	<circle cx="769.903" cy="654.028" r="4" fill="#0" id="circle109"/>
	<circle cx="769.903" cy="979.043" r="4" fill="#0" id="circle110"/>
	<circle cx="778.382" cy="795.339" r="4" fill="#0" id="circle111"/>
	<circle cx="781.208" cy="128.353" r="4" fill="#0" id="circle112"/>
	<circle cx="786.86" cy="49.2194" r="4" fill="#0" id="circle113"/>
	<circle cx="786.86" cy="823.601" r="4" fill="#0" id="circle114"/>
	<circle cx="792.513" cy="77.4815" r="4" fill="#0" id="circle115"/>
	<circle cx="792.513" cy="953.607" r="4" fill="#0" id="circle116"/>
	<circle cx="795.339" cy="399.67" r="4" fill="#0" id="circle117"/>
	<circle cx="795.339" cy="639.897" r="4" fill="#0" id="circle118"/>
	<circle cx="795.339" cy="851.863" r="4" fill="#0" id="circle119"/>
	<circle cx="798.165" cy="880.125" r="4" fill="#0" id="circle120"/>
	<circle cx="798.165" cy="908.387" r="4" fill="#0" id="circle121"/>
	<circle cx="817.949" cy="419.453" r="4" fill="#0" id="circle122"/>
	<circle cx="817.949" cy="622.94" r="4" fill="#0" id="circle123"/>
	<circle cx="837.732" cy="442.063" r="4" fill="#0" id="circle124"/>
	<circle cx="840.558" cy="600.33" r="4" fill="#0" id="circle125"/>
	<circle cx="854.689" cy="464.672" r="4" fill="#0" id="circle126"/>
	<circle cx="857.516" cy="577.721" r="4" fill="#0" id="circle127"/>
	<circle cx="865.994" cy="492.934" r="4" fill="#0" id="circle128"/>
	<circle cx="868.821" cy="549.459" r="4" fill="#0" id="circle129"/>
	<circle cx="871.647" cy="521.197" r="4" fill="#0" id="circle130"/>
	</g>
</svg>