<?xml version="1.0" encoding="UTF-8" standalone="no"?>
<!-- Created with CurveBenchmark -->
<svg
	xmlns:dc="http://purl.org/dc/elements/1.1/"
	xmlns:cc="http://creativecommons.org/ns#"
	xmlns:rdf="http://www.w3.org/1999/02/22-rdf-syntax-ns#"
	xmlns:svg="http://www.w3.org/2000/svg"
	xmlns="http://www.w3.org/2000/svg"
	xmlns:sodipodi="http://sodipodi.sourceforge.net/DTD/sodipodi-0.dtd"
	xmlns:inkscape="http://www.inkscape.org/namespaces/inkscape"
	width="1000"
	height="1000"
	id="svg2"
	version="1.1"
	sodipodi:docname="manifold/ccrust-tool43.png.txt">
<defs
	id="defs4" />
<metadata
	id="metadata7">
	<rdf:RDF>
		<cc:Work
			rdf:about="">
			<dc:format>image/svg+xml</dc:format>
			<dc:type
				rdf:resource="http://purl.org/dc/dcmitype/StillImage" />
			<dc:title></dc:title>
		</cc:Work>
	</rdf:RDF>
</metadata>
<g
	inkscape:label="Layer 1"
	inkscape:groupmode="layer"
	id="layer1">
	<path style="fill:none;stroke:red;stroke-width:1px;stroke-linecap:butt;stroke-linejoin:miter;stroke-opacity:1" d="M 4,80.5882 4,44.1176 z" id="boundary" inkscape:connector-curvature="0" />
	<path style="fill:none;stroke:red;stroke-width:1px;stroke-linecap:butt;stroke-linejoin:miter;stroke-opacity:1" d="M 4,44.1176 22.2353,7.64706 z" id="boundary" inkscape:connector-curvature="0" />
	<path style="fill:none;stroke:red;stroke-width:1px;stroke-linecap:butt;stroke-linejoin:miter;stroke-opacity:1" d="M 4,117.059 4,80.5882 z" id="boundary" inkscape:connector-curvature="0" />
	<path style="fill:none;stroke:red;stroke-width:1px;stroke-linecap:butt;stroke-linejoin:miter;stroke-opacity:1" d="M 4,117.059 22.2353,149.882 z" id="boundary" inkscape:connector-curvature="0" />
	<path style="fill:none;stroke:red;stroke-width:1px;stroke-linecap:butt;stroke-linejoin:miter;stroke-opacity:1" d="M 40.4706,182.706 62.3529,211.882 z" id="boundary" inkscape:connector-curvature="0" />
	<path style="fill:none;stroke:red;stroke-width:1px;stroke-linecap:butt;stroke-linejoin:miter;stroke-opacity:1" d="M 40.4706,182.706 22.2353,149.882 z" id="boundary" inkscape:connector-curvature="0" />
	<path style="fill:none;stroke:red;stroke-width:1px;stroke-linecap:butt;stroke-linejoin:miter;stroke-opacity:1" d="M 22.2353,7.64706 58.7059,4 z" id="boundary" inkscape:connector-curvature="0" />
	<path style="fill:none;stroke:red;stroke-width:1px;stroke-linecap:butt;stroke-linejoin:miter;stroke-opacity:1" d="M 58.7059,4 73.2941,40.4706 z" id="boundary" inkscape:connector-curvature="0" />
	<path style="fill:none;stroke:red;stroke-width:1px;stroke-linecap:butt;stroke-linejoin:miter;stroke-opacity:1" d="M 73.2941,40.4706 109.765,33.1765 z" id="boundary" inkscape:connector-curvature="0" />
	<path style="fill:none;stroke:red;stroke-width:1px;stroke-linecap:butt;stroke-linejoin:miter;stroke-opacity:1" d="M 109.765,33.1765 117.059,73.2941 z" id="boundary" inkscape:connector-curvature="0" />
	<path style="fill:none;stroke:red;stroke-width:1px;stroke-linecap:butt;stroke-linejoin:miter;stroke-opacity:1" d="M 117.059,73.2941 135.294,106.118 z" id="boundary" inkscape:connector-curvature="0" />
	<path style="fill:none;stroke:red;stroke-width:1px;stroke-linecap:butt;stroke-linejoin:miter;stroke-opacity:1" d="M 168.118,80.5882 135.294,106.118 z" id="boundary" inkscape:connector-curvature="0" />
	<path style="fill:none;stroke:red;stroke-width:1px;stroke-linecap:butt;stroke-linejoin:miter;stroke-opacity:1" d="M 76.9412,248.353 62.3529,211.882 z" id="boundary" inkscape:connector-curvature="0" />
	<path style="fill:none;stroke:red;stroke-width:1px;stroke-linecap:butt;stroke-linejoin:miter;stroke-opacity:1" d="M 76.9412,248.353 80.5882,284.824 z" id="boundary" inkscape:connector-curvature="0" />
	<path style="fill:none;stroke:red;stroke-width:1px;stroke-linecap:butt;stroke-linejoin:miter;stroke-opacity:1" d="M 95.1765,321.294 80.5882,284.824 z" id="boundary" inkscape:connector-curvature="0" />
	<path style="fill:none;stroke:red;stroke-width:1px;stroke-linecap:butt;stroke-linejoin:miter;stroke-opacity:1" d="M 95.1765,321.294 95.1765,357.765 z" id="boundary" inkscape:connector-curvature="0" />
	<path style="fill:none;stroke:red;stroke-width:1px;stroke-linecap:butt;stroke-linejoin:miter;stroke-opacity:1" d="M 95.1765,394.235 95.1765,357.765 z" id="boundary" inkscape:connector-curvature="0" />
	<path style="fill:none;stroke:red;stroke-width:1px;stroke-linecap:butt;stroke-linejoin:miter;stroke-opacity:1" d="M 98.8235,430.706 95.1765,394.235 z" id="boundary" inkscape:connector-curvature="0" />
	<path style="fill:none;stroke:red;stroke-width:1px;stroke-linecap:butt;stroke-linejoin:miter;stroke-opacity:1" d="M 98.8235,430.706 113.412,467.176 z" id="boundary" inkscape:connector-curvature="0" />
	<path style="fill:none;stroke:red;stroke-width:1px;stroke-linecap:butt;stroke-linejoin:miter;stroke-opacity:1" d="M 113.412,467.176 113.412,503.647 z" id="boundary" inkscape:connector-curvature="0" />
	<path style="fill:none;stroke:red;stroke-width:1px;stroke-linecap:butt;stroke-linejoin:miter;stroke-opacity:1" d="M 113.412,503.647 113.412,540.118 z" id="boundary" inkscape:connector-curvature="0" />
	<path style="fill:none;stroke:red;stroke-width:1px;stroke-linecap:butt;stroke-linejoin:miter;stroke-opacity:1" d="M 113.412,576.588 113.412,540.118 z" id="boundary" inkscape:connector-curvature="0" />
	<path style="fill:none;stroke:red;stroke-width:1px;stroke-linecap:butt;stroke-linejoin:miter;stroke-opacity:1" d="M 76.9412,846.471 76.9412,882.941 z" id="boundary" inkscape:connector-curvature="0" />
	<path style="fill:none;stroke:red;stroke-width:1px;stroke-linecap:butt;stroke-linejoin:miter;stroke-opacity:1" d="M 95.1765,952.235 76.9412,919.412 z" id="boundary" inkscape:connector-curvature="0" />
	<path style="fill:none;stroke:red;stroke-width:1px;stroke-linecap:butt;stroke-linejoin:miter;stroke-opacity:1" d="M 76.9412,919.412 76.9412,882.941 z" id="boundary" inkscape:connector-curvature="0" />
	<path style="fill:none;stroke:red;stroke-width:1px;stroke-linecap:butt;stroke-linejoin:miter;stroke-opacity:1" d="M 76.9412,846.471 95.1765,810 z" id="boundary" inkscape:connector-curvature="0" />
	<path style="fill:none;stroke:red;stroke-width:1px;stroke-linecap:butt;stroke-linejoin:miter;stroke-opacity:1" d="M 113.412,576.588 113.412,613.059 z" id="boundary" inkscape:connector-curvature="0" />
	<path style="fill:none;stroke:red;stroke-width:1px;stroke-linecap:butt;stroke-linejoin:miter;stroke-opacity:1" d="M 117.059,649.529 113.412,613.059 z" id="boundary" inkscape:connector-curvature="0" />
	<path style="fill:none;stroke:red;stroke-width:1px;stroke-linecap:butt;stroke-linejoin:miter;stroke-opacity:1" d="M 117.059,649.529 131.647,686 z" id="boundary" inkscape:connector-curvature="0" />
	<path style="fill:none;stroke:red;stroke-width:1px;stroke-linecap:butt;stroke-linejoin:miter;stroke-opacity:1" d="M 131.647,686 131.647,722.471 z" id="boundary" inkscape:connector-curvature="0" />
	<path style="fill:none;stroke:red;stroke-width:1px;stroke-linecap:butt;stroke-linejoin:miter;stroke-opacity:1" d="M 186.353,875.647 153.529,893.882 z" id="boundary" inkscape:connector-curvature="0" />
	<path style="fill:none;stroke:red;stroke-width:1px;stroke-linecap:butt;stroke-linejoin:miter;stroke-opacity:1" d="M 142.588,963.176 113.412,985.059 z" id="boundary" inkscape:connector-curvature="0" />
	<path style="fill:none;stroke:red;stroke-width:1px;stroke-linecap:butt;stroke-linejoin:miter;stroke-opacity:1" d="M 113.412,985.059 95.1765,952.235 z" id="boundary" inkscape:connector-curvature="0" />
	<path style="fill:none;stroke:red;stroke-width:1px;stroke-linecap:butt;stroke-linejoin:miter;stroke-opacity:1" d="M 124.353,780.824 131.647,722.471 z" id="boundary" inkscape:connector-curvature="0" />
	<path style="fill:none;stroke:red;stroke-width:1px;stroke-linecap:butt;stroke-linejoin:miter;stroke-opacity:1" d="M 95.1765,810 124.353,780.824 z" id="boundary" inkscape:connector-curvature="0" />
	<path style="fill:none;stroke:red;stroke-width:1px;stroke-linecap:butt;stroke-linejoin:miter;stroke-opacity:1" d="M 168.118,44.1176 168.118,80.5882 z" id="boundary" inkscape:connector-curvature="0" />
	<path style="fill:none;stroke:red;stroke-width:1px;stroke-linecap:butt;stroke-linejoin:miter;stroke-opacity:1" d="M 168.118,44.1176 204.588,33.1765 z" id="boundary" inkscape:connector-curvature="0" />
	<path style="fill:none;stroke:red;stroke-width:1px;stroke-linecap:butt;stroke-linejoin:miter;stroke-opacity:1" d="M 190,255.647 190,219.176 z" id="boundary" inkscape:connector-curvature="0" />
	<path style="fill:none;stroke:red;stroke-width:1px;stroke-linecap:butt;stroke-linejoin:miter;stroke-opacity:1" d="M 190,219.176 208.235,182.706 z" id="boundary" inkscape:connector-curvature="0" />
	<path style="fill:none;stroke:red;stroke-width:1px;stroke-linecap:butt;stroke-linejoin:miter;stroke-opacity:1" d="M 190,255.647 190,292.118 z" id="boundary" inkscape:connector-curvature="0" />
	<path style="fill:none;stroke:red;stroke-width:1px;stroke-linecap:butt;stroke-linejoin:miter;stroke-opacity:1" d="M 197.294,328.588 190,292.118 z" id="boundary" inkscape:connector-curvature="0" />
	<path style="fill:none;stroke:red;stroke-width:1px;stroke-linecap:butt;stroke-linejoin:miter;stroke-opacity:1" d="M 190,365.059 197.294,328.588 z" id="boundary" inkscape:connector-curvature="0" />
	<path style="fill:none;stroke:red;stroke-width:1px;stroke-linecap:butt;stroke-linejoin:miter;stroke-opacity:1" d="M 208.235,397.882 190,365.059 z" id="boundary" inkscape:connector-curvature="0" />
	<path style="fill:none;stroke:red;stroke-width:1px;stroke-linecap:butt;stroke-linejoin:miter;stroke-opacity:1" d="M 204.588,33.1765 233.765,55.0588 z" id="boundary" inkscape:connector-curvature="0" />
	<path style="fill:none;stroke:red;stroke-width:1px;stroke-linecap:butt;stroke-linejoin:miter;stroke-opacity:1" d="M 244.706,91.5294 237.412,157.176 z" id="boundary" inkscape:connector-curvature="0" />
	<path style="fill:none;stroke:red;stroke-width:1px;stroke-linecap:butt;stroke-linejoin:miter;stroke-opacity:1" d="M 233.765,55.0588 244.706,91.5294 z" id="boundary" inkscape:connector-curvature="0" />
	<path style="fill:none;stroke:red;stroke-width:1px;stroke-linecap:butt;stroke-linejoin:miter;stroke-opacity:1" d="M 237.412,157.176 208.235,182.706 z" id="boundary" inkscape:connector-curvature="0" />
	<path style="fill:none;stroke:red;stroke-width:1px;stroke-linecap:butt;stroke-linejoin:miter;stroke-opacity:1" d="M 208.235,397.882 208.235,434.353 z" id="boundary" inkscape:connector-curvature="0" />
	<path style="fill:none;stroke:red;stroke-width:1px;stroke-linecap:butt;stroke-linejoin:miter;stroke-opacity:1" d="M 208.235,470.824 208.235,507.294 z" id="boundary" inkscape:connector-curvature="0" />
	<path style="fill:none;stroke:red;stroke-width:1px;stroke-linecap:butt;stroke-linejoin:miter;stroke-opacity:1" d="M 208.235,543.765 208.235,507.294 z" id="boundary" inkscape:connector-curvature="0" />
	<path style="fill:none;stroke:red;stroke-width:1px;stroke-linecap:butt;stroke-linejoin:miter;stroke-opacity:1" d="M 208.235,470.824 208.235,434.353 z" id="boundary" inkscape:connector-curvature="0" />
	<path style="fill:none;stroke:red;stroke-width:1px;stroke-linecap:butt;stroke-linejoin:miter;stroke-opacity:1" d="M 208.235,543.765 208.235,580.235 z" id="boundary" inkscape:connector-curvature="0" />
	<path style="fill:none;stroke:red;stroke-width:1px;stroke-linecap:butt;stroke-linejoin:miter;stroke-opacity:1" d="M 226.471,613.059 226.471,649.529 z" id="boundary" inkscape:connector-curvature="0" />
	<path style="fill:none;stroke:red;stroke-width:1px;stroke-linecap:butt;stroke-linejoin:miter;stroke-opacity:1" d="M 226.471,613.059 208.235,580.235 z" id="boundary" inkscape:connector-curvature="0" />
	<path style="fill:none;stroke:red;stroke-width:1px;stroke-linecap:butt;stroke-linejoin:miter;stroke-opacity:1" d="M 226.471,649.529 226.471,686 z" id="boundary" inkscape:connector-curvature="0" />
	<path style="fill:none;stroke:red;stroke-width:1px;stroke-linecap:butt;stroke-linejoin:miter;stroke-opacity:1" d="M 226.471,686 226.471,722.471 z" id="boundary" inkscape:connector-curvature="0" />
	<path style="fill:none;stroke:red;stroke-width:1px;stroke-linecap:butt;stroke-linejoin:miter;stroke-opacity:1" d="M 219.176,893.882 222.824,930.353 z" id="boundary" inkscape:connector-curvature="0" />
	<path style="fill:none;stroke:red;stroke-width:1px;stroke-linecap:butt;stroke-linejoin:miter;stroke-opacity:1" d="M 219.176,893.882 186.353,875.647 z" id="boundary" inkscape:connector-curvature="0" />
	<path style="fill:none;stroke:red;stroke-width:1px;stroke-linecap:butt;stroke-linejoin:miter;stroke-opacity:1" d="M 222.824,966.824 222.824,930.353 z" id="boundary" inkscape:connector-curvature="0" />
	<path style="fill:none;stroke:red;stroke-width:1px;stroke-linecap:butt;stroke-linejoin:miter;stroke-opacity:1" d="M 226.471,722.471 226.471,758.941 z" id="boundary" inkscape:connector-curvature="0" />
	<path style="fill:none;stroke:red;stroke-width:1px;stroke-linecap:butt;stroke-linejoin:miter;stroke-opacity:1" d="M 255.647,784.471 281.176,813.647 z" id="boundary" inkscape:connector-curvature="0" />
	<path style="fill:none;stroke:red;stroke-width:1px;stroke-linecap:butt;stroke-linejoin:miter;stroke-opacity:1" d="M 255.647,784.471 226.471,758.941 z" id="boundary" inkscape:connector-curvature="0" />
	<path style="fill:none;stroke:red;stroke-width:1px;stroke-linecap:butt;stroke-linejoin:miter;stroke-opacity:1" d="M 281.176,813.647 299.412,846.471 z" id="boundary" inkscape:connector-curvature="0" />
	<path style="fill:none;stroke:red;stroke-width:1px;stroke-linecap:butt;stroke-linejoin:miter;stroke-opacity:1" d="M 299.412,846.471 317.647,879.294 z" id="boundary" inkscape:connector-curvature="0" />
	<path style="fill:none;stroke:red;stroke-width:1px;stroke-linecap:butt;stroke-linejoin:miter;stroke-opacity:1" d="M 244.706,996 222.824,966.824 z" id="boundary" inkscape:connector-curvature="0" />
	<path style="fill:none;stroke:red;stroke-width:1px;stroke-linecap:butt;stroke-linejoin:miter;stroke-opacity:1" d="M 281.176,985.059 244.706,996 z" id="boundary" inkscape:connector-curvature="0" />
	<path style="fill:none;stroke:red;stroke-width:1px;stroke-linecap:butt;stroke-linejoin:miter;stroke-opacity:1" d="M 310.353,959.529 281.176,985.059 z" id="boundary" inkscape:connector-curvature="0" />
	<path style="fill:none;stroke:red;stroke-width:1px;stroke-linecap:butt;stroke-linejoin:miter;stroke-opacity:1" d="M 317.647,915.765 310.353,959.529 z" id="boundary" inkscape:connector-curvature="0" />
	<path style="fill:none;stroke:red;stroke-width:1px;stroke-linecap:butt;stroke-linejoin:miter;stroke-opacity:1" d="M 317.647,879.294 317.647,915.765 z" id="boundary" inkscape:connector-curvature="0" />
	<circle cx="4" cy="44.1176" r="4" fill="#0" id="circle0"/>
	<circle cx="4" cy="80.5882" r="4" fill="#0" id="circle1"/>
	<circle cx="4" cy="117.059" r="4" fill="#0" id="circle2"/>
	<circle cx="22.2353" cy="7.64706" r="4" fill="#0" id="circle3"/>
	<circle cx="22.2353" cy="149.882" r="4" fill="#0" id="circle4"/>
	<circle cx="40.4706" cy="182.706" r="4" fill="#0" id="circle5"/>
	<circle cx="58.7059" cy="4" r="4" fill="#0" id="circle6"/>
	<circle cx="62.3529" cy="211.882" r="4" fill="#0" id="circle7"/>
	<circle cx="73.2941" cy="40.4706" r="4" fill="#0" id="circle8"/>
	<circle cx="76.9412" cy="248.353" r="4" fill="#0" id="circle9"/>
	<circle cx="76.9412" cy="846.471" r="4" fill="#0" id="circle10"/>
	<circle cx="76.9412" cy="882.941" r="4" fill="#0" id="circle11"/>
	<circle cx="76.9412" cy="919.412" r="4" fill="#0" id="circle12"/>
	<circle cx="80.5882" cy="284.824" r="4" fill="#0" id="circle13"/>
	<circle cx="95.1765" cy="321.294" r="4" fill="#0" id="circle14"/>
	<circle cx="95.1765" cy="357.765" r="4" fill="#0" id="circle15"/>
	<circle cx="95.1765" cy="394.235" r="4" fill="#0" id="circle16"/>
	<circle cx="95.1765" cy="810" r="4" fill="#0" id="circle17"/>
	<circle cx="95.1765" cy="952.235" r="4" fill="#0" id="circle18"/>
	<circle cx="98.8235" cy="430.706" r="4" fill="#0" id="circle19"/>
	<circle cx="109.765" cy="33.1765" r="4" fill="#0" id="circle20"/>
	<circle cx="113.412" cy="467.176" r="4" fill="#0" id="circle21"/>
	<circle cx="113.412" cy="503.647" r="4" fill="#0" id="circle22"/>
	<circle cx="113.412" cy="540.118" r="4" fill="#0" id="circle23"/>
	<circle cx="113.412" cy="576.588" r="4" fill="#0" id="circle24"/>
	<circle cx="113.412" cy="613.059" r="4" fill="#0" id="circle25"/>
	<circle cx="113.412" cy="985.059" r="4" fill="#0" id="circle26"/>
	<circle cx="117.059" cy="73.2941" r="4" fill="#0" id="circle27"/>
	<circle cx="117.059" cy="649.529" r="4" fill="#0" id="circle28"/>
	<circle cx="124.353" cy="780.824" r="4" fill="#0" id="circle29"/>
	<circle cx="131.647" cy="686" r="4" fill="#0" id="circle30"/>
	<circle cx="131.647" cy="722.471" r="4" fill="#0" id="circle31"/>
	<circle cx="135.294" cy="106.118" r="4" fill="#0" id="circle32"/>
	<circle cx="142.588" cy="963.176" r="4" fill="#0" id="circle33"/>
	<circle cx="153.529" cy="893.882" r="4" fill="#0" id="circle34"/>
	<circle cx="168.118" cy="44.1176" r="4" fill="#0" id="circle35"/>
	<circle cx="168.118" cy="80.5882" r="4" fill="#0" id="circle36"/>
	<circle cx="186.353" cy="875.647" r="4" fill="#0" id="circle37"/>
	<circle cx="190" cy="219.176" r="4" fill="#0" id="circle38"/>
	<circle cx="190" cy="255.647" r="4" fill="#0" id="circle39"/>
	<circle cx="190" cy="292.118" r="4" fill="#0" id="circle40"/>
	<circle cx="190" cy="365.059" r="4" fill="#0" id="circle41"/>
	<circle cx="197.294" cy="328.588" r="4" fill="#0" id="circle42"/>
	<circle cx="204.588" cy="33.1765" r="4" fill="#0" id="circle43"/>
	<circle cx="208.235" cy="182.706" r="4" fill="#0" id="circle44"/>
	<circle cx="208.235" cy="397.882" r="4" fill="#0" id="circle45"/>
	<circle cx="208.235" cy="434.353" r="4" fill="#0" id="circle46"/>
	<circle cx="208.235" cy="470.824" r="4" fill="#0" id="circle47"/>
	<circle cx="208.235" cy="507.294" r="4" fill="#0" id="circle48"/>
	<circle cx="208.235" cy="543.765" r="4" fill="#0" id="circle49"/>
	<circle cx="208.235" cy="580.235" r="4" fill="#0" id="circle50"/>
	<circle cx="219.176" cy="893.882" r="4" fill="#0" id="circle51"/>
	<circle cx="222.824" cy="930.353" r="4" fill="#0" id="circle52"/>
	<circle cx="222.824" cy="966.824" r="4" fill="#0" id="circle53"/>
	<circle cx="226.471" cy="613.059" r="4" fill="#0" id="circle54"/>
	<circle cx="226.471" cy="649.529" r="4" fill="#0" id="circle55"/>
	<circle cx="226.471" cy="686" r="4" fill="#0" id="circle56"/>
	<circle cx="226.471" cy="722.471" r="4" fill="#0" id="circle57"/>
	<circle cx="226.471" cy="758.941" r="4" fill="#0" id="circle58"/>
	<circle cx="233.765" cy="55.0588" r="4" fill="#0" id="circle59"/>
	<circle cx="237.412" cy="157.176" r="4" fill="#0" id="circle60"/>
	<circle cx="244.706" cy="91.5294" r="4" fill="#0" id="circle61"/>
	<circle cx="244.706" cy="996" r="4" fill="#0" id="circle62"/>
	<circle cx="255.647" cy="784.471" r="4" fill="#0" id="circle63"/>
	<circle cx="281.176" cy="813.647" r="4" fill="#0" id="circle64"/>
	<circle cx="281.176" cy="985.059" r="4" fill="#0" id="circle65"/>
	<circle cx="299.412" cy="846.471" r="4" fill="#0" id="circle66"/>
	<circle cx="310.353" cy="959.529" r="4" fill="#0" id="circle67"/>
	<circle cx="317.647" cy="879.294" r="4" fill="#0" id="circle68"/>
	<circle cx="317.647" cy="915.765" r="4" fill="#0" id="circle69"/>
	</g>
</svg>