<?xml version="1.0" encoding="UTF-8" standalone="no"?>
<!-- Created with CurveBenchmark -->
<svg
	xmlns:dc="http://purl.org/dc/elements/1.1/"
	xmlns:cc="http://creativecommons.org/ns#"
	xmlns:rdf="http://www.w3.org/1999/02/22-rdf-syntax-ns#"
	xmlns:svg="http://www.w3.org/2000/svg"
	xmlns="http://www.w3.org/2000/svg"
	xmlns:sodipodi="http://sodipodi.sourceforge.net/DTD/sodipodi-0.dtd"
	xmlns:inkscape="http://www.inkscape.org/namespaces/inkscape"
	width="1000"
	height="1000"
	id="svg2"
	version="1.1"
	sodipodi:docname="manifold/ccrust-sink100.png.txt">
<defs
	id="defs4" />
<metadata
	id="metadata7">
	<rdf:RDF>
		<cc:Work
			rdf:about="">
			<dc:format>image/svg+xml</dc:format>
			<dc:type
				rdf:resource="http://purl.org/dc/dcmitype/StillImage" />
			<dc:title></dc:title>
		</cc:Work>
	</rdf:RDF>
</metadata>
<g
	inkscape:label="Layer 1"
	inkscape:groupmode="layer"
	id="layer1">
	<path style="fill:none;stroke:red;stroke-width:1px;stroke-linecap:butt;stroke-linejoin:miter;stroke-opacity:1" d="M 13.7734,160.374 13.7734,209.241 z" id="boundary" inkscape:connector-curvature="0" />
	<path style="fill:none;stroke:red;stroke-width:1px;stroke-linecap:butt;stroke-linejoin:miter;stroke-opacity:1" d="M 13.7734,209.241 4,277.655 z" id="boundary" inkscape:connector-curvature="0" />
	<path style="fill:none;stroke:red;stroke-width:1px;stroke-linecap:butt;stroke-linejoin:miter;stroke-opacity:1" d="M 13.7734,160.374 62.6404,160.374 z" id="boundary" inkscape:connector-curvature="0" />
	<path style="fill:none;stroke:red;stroke-width:1px;stroke-linecap:butt;stroke-linejoin:miter;stroke-opacity:1" d="M 62.6404,160.374 111.507,160.374 z" id="boundary" inkscape:connector-curvature="0" />
	<path style="fill:none;stroke:red;stroke-width:1px;stroke-linecap:butt;stroke-linejoin:miter;stroke-opacity:1" d="M 4,277.655 43.0936,311.862 z" id="boundary" inkscape:connector-curvature="0" />
	<path style="fill:none;stroke:red;stroke-width:1px;stroke-linecap:butt;stroke-linejoin:miter;stroke-opacity:1" d="M 91.9606,311.862 140.828,311.862 z" id="boundary" inkscape:connector-curvature="0" />
	<path style="fill:none;stroke:red;stroke-width:1px;stroke-linecap:butt;stroke-linejoin:miter;stroke-opacity:1" d="M 140.828,311.862 179.921,341.182 z" id="boundary" inkscape:connector-curvature="0" />
	<path style="fill:none;stroke:red;stroke-width:1px;stroke-linecap:butt;stroke-linejoin:miter;stroke-opacity:1" d="M 91.9606,311.862 43.0936,311.862 z" id="boundary" inkscape:connector-curvature="0" />
	<path style="fill:none;stroke:red;stroke-width:1px;stroke-linecap:butt;stroke-linejoin:miter;stroke-opacity:1" d="M 111.507,160.374 160.374,160.374 z" id="boundary" inkscape:connector-curvature="0" />
	<path style="fill:none;stroke:red;stroke-width:1px;stroke-linecap:butt;stroke-linejoin:miter;stroke-opacity:1" d="M 326.522,62.6404 326.522,111.507 z" id="boundary" inkscape:connector-curvature="0" />
	<path style="fill:none;stroke:red;stroke-width:1px;stroke-linecap:butt;stroke-linejoin:miter;stroke-opacity:1" d="M 360.729,150.601 326.522,111.507 z" id="boundary" inkscape:connector-curvature="0" />
	<path style="fill:none;stroke:red;stroke-width:1px;stroke-linecap:butt;stroke-linejoin:miter;stroke-opacity:1" d="M 326.522,62.6404 375.389,52.867 z" id="boundary" inkscape:connector-curvature="0" />
	<path style="fill:none;stroke:red;stroke-width:1px;stroke-linecap:butt;stroke-linejoin:miter;stroke-opacity:1" d="M 160.374,160.374 209.241,170.148 z" id="boundary" inkscape:connector-curvature="0" />
	<path style="fill:none;stroke:red;stroke-width:1px;stroke-linecap:butt;stroke-linejoin:miter;stroke-opacity:1" d="M 209.241,170.148 258.108,170.148 z" id="boundary" inkscape:connector-curvature="0" />
	<path style="fill:none;stroke:red;stroke-width:1px;stroke-linecap:butt;stroke-linejoin:miter;stroke-opacity:1" d="M 306.975,170.148 258.108,170.148 z" id="boundary" inkscape:connector-curvature="0" />
	<path style="fill:none;stroke:red;stroke-width:1px;stroke-linecap:butt;stroke-linejoin:miter;stroke-opacity:1" d="M 209.241,380.276 179.921,341.182 z" id="boundary" inkscape:connector-curvature="0" />
	<path style="fill:none;stroke:red;stroke-width:1px;stroke-linecap:butt;stroke-linejoin:miter;stroke-opacity:1" d="M 209.241,380.276 248.335,414.483 z" id="boundary" inkscape:connector-curvature="0" />
	<path style="fill:none;stroke:red;stroke-width:1px;stroke-linecap:butt;stroke-linejoin:miter;stroke-opacity:1" d="M 297.202,434.03 248.335,414.483 z" id="boundary" inkscape:connector-curvature="0" />
	<path style="fill:none;stroke:red;stroke-width:1px;stroke-linecap:butt;stroke-linejoin:miter;stroke-opacity:1" d="M 287.429,961.793 316.749,922.7 z" id="boundary" inkscape:connector-curvature="0" />
	<path style="fill:none;stroke:red;stroke-width:1px;stroke-linecap:butt;stroke-linejoin:miter;stroke-opacity:1" d="M 326.522,996 287.429,961.793 z" id="boundary" inkscape:connector-curvature="0" />
	<path style="fill:none;stroke:red;stroke-width:1px;stroke-linecap:butt;stroke-linejoin:miter;stroke-opacity:1" d="M 336.296,873.833 316.749,922.7 z" id="boundary" inkscape:connector-curvature="0" />
	<path style="fill:none;stroke:red;stroke-width:1px;stroke-linecap:butt;stroke-linejoin:miter;stroke-opacity:1" d="M 375.389,996 326.522,996 z" id="boundary" inkscape:connector-curvature="0" />
	<path style="fill:none;stroke:red;stroke-width:1px;stroke-linecap:butt;stroke-linejoin:miter;stroke-opacity:1" d="M 346.069,795.645 336.296,873.833 z" id="boundary" inkscape:connector-curvature="0" />
	<path style="fill:none;stroke:red;stroke-width:1px;stroke-linecap:butt;stroke-linejoin:miter;stroke-opacity:1" d="M 346.069,453.576 346.069,502.443 z" id="boundary" inkscape:connector-curvature="0" />
	<path style="fill:none;stroke:red;stroke-width:1px;stroke-linecap:butt;stroke-linejoin:miter;stroke-opacity:1" d="M 297.202,434.03 346.069,453.576 z" id="boundary" inkscape:connector-curvature="0" />
	<path style="fill:none;stroke:red;stroke-width:1px;stroke-linecap:butt;stroke-linejoin:miter;stroke-opacity:1" d="M 346.069,551.31 346.069,600.177 z" id="boundary" inkscape:connector-curvature="0" />
	<path style="fill:none;stroke:red;stroke-width:1px;stroke-linecap:butt;stroke-linejoin:miter;stroke-opacity:1" d="M 346.069,551.31 346.069,502.443 z" id="boundary" inkscape:connector-curvature="0" />
	<path style="fill:none;stroke:red;stroke-width:1px;stroke-linecap:butt;stroke-linejoin:miter;stroke-opacity:1" d="M 346.069,649.044 346.069,697.911 z" id="boundary" inkscape:connector-curvature="0" />
	<path style="fill:none;stroke:red;stroke-width:1px;stroke-linecap:butt;stroke-linejoin:miter;stroke-opacity:1" d="M 346.069,746.778 346.069,795.645 z" id="boundary" inkscape:connector-curvature="0" />
	<path style="fill:none;stroke:red;stroke-width:1px;stroke-linecap:butt;stroke-linejoin:miter;stroke-opacity:1" d="M 346.069,746.778 346.069,697.911 z" id="boundary" inkscape:connector-curvature="0" />
	<path style="fill:none;stroke:red;stroke-width:1px;stroke-linecap:butt;stroke-linejoin:miter;stroke-opacity:1" d="M 346.069,649.044 346.069,600.177 z" id="boundary" inkscape:connector-curvature="0" />
	<path style="fill:none;stroke:red;stroke-width:1px;stroke-linecap:butt;stroke-linejoin:miter;stroke-opacity:1" d="M 360.729,150.601 409.596,170.148 z" id="boundary" inkscape:connector-curvature="0" />
	<path style="fill:none;stroke:red;stroke-width:1px;stroke-linecap:butt;stroke-linejoin:miter;stroke-opacity:1" d="M 507.33,160.374 458.463,170.148 z" id="boundary" inkscape:connector-curvature="0" />
	<path style="fill:none;stroke:red;stroke-width:1px;stroke-linecap:butt;stroke-linejoin:miter;stroke-opacity:1" d="M 556.197,160.374 507.33,160.374 z" id="boundary" inkscape:connector-curvature="0" />
	<path style="fill:none;stroke:red;stroke-width:1px;stroke-linecap:butt;stroke-linejoin:miter;stroke-opacity:1" d="M 556.197,160.374 605.064,160.374 z" id="boundary" inkscape:connector-curvature="0" />
	<path style="fill:none;stroke:red;stroke-width:1px;stroke-linecap:butt;stroke-linejoin:miter;stroke-opacity:1" d="M 409.596,170.148 458.463,170.148 z" id="boundary" inkscape:connector-curvature="0" />
	<path style="fill:none;stroke:red;stroke-width:1px;stroke-linecap:butt;stroke-linejoin:miter;stroke-opacity:1" d="M 605.064,385.163 634.384,346.069 z" id="boundary" inkscape:connector-curvature="0" />
	<path style="fill:none;stroke:red;stroke-width:1px;stroke-linecap:butt;stroke-linejoin:miter;stroke-opacity:1" d="M 605.064,385.163 565.97,414.483 z" id="boundary" inkscape:connector-curvature="0" />
	<path style="fill:none;stroke:red;stroke-width:1px;stroke-linecap:butt;stroke-linejoin:miter;stroke-opacity:1" d="M 673.478,311.862 634.384,346.069 z" id="boundary" inkscape:connector-curvature="0" />
	<path style="fill:none;stroke:red;stroke-width:1px;stroke-linecap:butt;stroke-linejoin:miter;stroke-opacity:1" d="M 653.931,160.374 702.798,160.374 z" id="boundary" inkscape:connector-curvature="0" />
	<path style="fill:none;stroke:red;stroke-width:1px;stroke-linecap:butt;stroke-linejoin:miter;stroke-opacity:1" d="M 702.798,160.374 707.685,209.241 z" id="boundary" inkscape:connector-curvature="0" />
	<path style="fill:none;stroke:red;stroke-width:1px;stroke-linecap:butt;stroke-linejoin:miter;stroke-opacity:1" d="M 653.931,160.374 605.064,160.374 z" id="boundary" inkscape:connector-curvature="0" />
	<path style="fill:none;stroke:red;stroke-width:1px;stroke-linecap:butt;stroke-linejoin:miter;stroke-opacity:1" d="M 766.325,258.108 717.458,258.108 z" id="boundary" inkscape:connector-curvature="0" />
	<path style="fill:none;stroke:red;stroke-width:1px;stroke-linecap:butt;stroke-linejoin:miter;stroke-opacity:1" d="M 717.458,258.108 707.685,209.241 z" id="boundary" inkscape:connector-curvature="0" />
	<path style="fill:none;stroke:red;stroke-width:1px;stroke-linecap:butt;stroke-linejoin:miter;stroke-opacity:1" d="M 673.478,311.862 722.345,311.862 z" id="boundary" inkscape:connector-curvature="0" />
	<path style="fill:none;stroke:red;stroke-width:1px;stroke-linecap:butt;stroke-linejoin:miter;stroke-opacity:1" d="M 717.458,258.108 722.345,311.862 z" id="boundary" inkscape:connector-curvature="0" />
	<path style="fill:none;stroke:red;stroke-width:1px;stroke-linecap:butt;stroke-linejoin:miter;stroke-opacity:1" d="M 766.325,258.108 771.212,311.862 z" id="boundary" inkscape:connector-curvature="0" />
	<path style="fill:none;stroke:red;stroke-width:1px;stroke-linecap:butt;stroke-linejoin:miter;stroke-opacity:1" d="M 771.212,311.862 722.345,311.862 z" id="boundary" inkscape:connector-curvature="0" />
	<path style="fill:none;stroke:red;stroke-width:1px;stroke-linecap:butt;stroke-linejoin:miter;stroke-opacity:1" d="M 517.103,482.897 517.103,531.764 z" id="boundary" inkscape:connector-curvature="0" />
	<path style="fill:none;stroke:red;stroke-width:1px;stroke-linecap:butt;stroke-linejoin:miter;stroke-opacity:1" d="M 517.103,482.897 517.103,434.03 z" id="boundary" inkscape:connector-curvature="0" />
	<path style="fill:none;stroke:red;stroke-width:1px;stroke-linecap:butt;stroke-linejoin:miter;stroke-opacity:1" d="M 517.103,434.03 565.97,414.483 z" id="boundary" inkscape:connector-curvature="0" />
	<path style="fill:none;stroke:red;stroke-width:1px;stroke-linecap:butt;stroke-linejoin:miter;stroke-opacity:1" d="M 517.103,580.631 517.103,629.498 z" id="boundary" inkscape:connector-curvature="0" />
	<path style="fill:none;stroke:red;stroke-width:1px;stroke-linecap:butt;stroke-linejoin:miter;stroke-opacity:1" d="M 517.103,531.764 517.103,580.631 z" id="boundary" inkscape:connector-curvature="0" />
	<path style="fill:none;stroke:red;stroke-width:1px;stroke-linecap:butt;stroke-linejoin:miter;stroke-opacity:1" d="M 424.256,996 375.389,996 z" id="boundary" inkscape:connector-curvature="0" />
	<path style="fill:none;stroke:red;stroke-width:1px;stroke-linecap:butt;stroke-linejoin:miter;stroke-opacity:1" d="M 517.103,678.365 517.103,727.232 z" id="boundary" inkscape:connector-curvature="0" />
	<path style="fill:none;stroke:red;stroke-width:1px;stroke-linecap:butt;stroke-linejoin:miter;stroke-opacity:1" d="M 473.123,996 424.256,996 z" id="boundary" inkscape:connector-curvature="0" />
	<path style="fill:none;stroke:red;stroke-width:1px;stroke-linecap:butt;stroke-linejoin:miter;stroke-opacity:1" d="M 517.103,629.498 517.103,678.365 z" id="boundary" inkscape:connector-curvature="0" />
	<path style="fill:none;stroke:red;stroke-width:1px;stroke-linecap:butt;stroke-linejoin:miter;stroke-opacity:1" d="M 517.103,727.232 517.103,776.099 z" id="boundary" inkscape:connector-curvature="0" />
	<path style="fill:none;stroke:red;stroke-width:1px;stroke-linecap:butt;stroke-linejoin:miter;stroke-opacity:1" d="M 517.103,776.099 517.103,824.966 z" id="boundary" inkscape:connector-curvature="0" />
	<path style="fill:none;stroke:red;stroke-width:1px;stroke-linecap:butt;stroke-linejoin:miter;stroke-opacity:1" d="M 521.99,873.833 541.537,922.7 z" id="boundary" inkscape:connector-curvature="0" />
	<path style="fill:none;stroke:red;stroke-width:1px;stroke-linecap:butt;stroke-linejoin:miter;stroke-opacity:1" d="M 521.99,873.833 517.103,824.966 z" id="boundary" inkscape:connector-curvature="0" />
	<path style="fill:none;stroke:red;stroke-width:1px;stroke-linecap:butt;stroke-linejoin:miter;stroke-opacity:1" d="M 570.857,996 521.99,996 z" id="boundary" inkscape:connector-curvature="0" />
	<path style="fill:none;stroke:red;stroke-width:1px;stroke-linecap:butt;stroke-linejoin:miter;stroke-opacity:1" d="M 521.99,996 473.123,996 z" id="boundary" inkscape:connector-curvature="0" />
	<circle cx="4" cy="277.655" r="4" fill="#0" id="circle0"/>
	<circle cx="13.7734" cy="160.374" r="4" fill="#0" id="circle1"/>
	<circle cx="13.7734" cy="209.241" r="4" fill="#0" id="circle2"/>
	<circle cx="43.0936" cy="311.862" r="4" fill="#0" id="circle3"/>
	<circle cx="62.6404" cy="160.374" r="4" fill="#0" id="circle4"/>
	<circle cx="91.9606" cy="311.862" r="4" fill="#0" id="circle5"/>
	<circle cx="111.507" cy="160.374" r="4" fill="#0" id="circle6"/>
	<circle cx="140.828" cy="311.862" r="4" fill="#0" id="circle7"/>
	<circle cx="160.374" cy="160.374" r="4" fill="#0" id="circle8"/>
	<circle cx="179.921" cy="341.182" r="4" fill="#0" id="circle9"/>
	<circle cx="209.241" cy="170.148" r="4" fill="#0" id="circle10"/>
	<circle cx="209.241" cy="380.276" r="4" fill="#0" id="circle11"/>
	<circle cx="248.335" cy="414.483" r="4" fill="#0" id="circle12"/>
	<circle cx="258.108" cy="170.148" r="4" fill="#0" id="circle13"/>
	<circle cx="287.429" cy="961.793" r="4" fill="#0" id="circle14"/>
	<circle cx="297.202" cy="434.03" r="4" fill="#0" id="circle15"/>
	<circle cx="306.975" cy="170.148" r="4" fill="#0" id="circle16"/>
	<circle cx="316.749" cy="922.7" r="4" fill="#0" id="circle17"/>
	<circle cx="326.522" cy="62.6404" r="4" fill="#0" id="circle18"/>
	<circle cx="326.522" cy="111.507" r="4" fill="#0" id="circle19"/>
	<circle cx="326.522" cy="996" r="4" fill="#0" id="circle20"/>
	<circle cx="336.296" cy="873.833" r="4" fill="#0" id="circle21"/>
	<circle cx="346.069" cy="4" r="4" fill="#0" id="circle22"/>
	<circle cx="346.069" cy="453.576" r="4" fill="#0" id="circle23"/>
	<circle cx="346.069" cy="502.443" r="4" fill="#0" id="circle24"/>
	<circle cx="346.069" cy="551.31" r="4" fill="#0" id="circle25"/>
	<circle cx="346.069" cy="600.177" r="4" fill="#0" id="circle26"/>
	<circle cx="346.069" cy="649.044" r="4" fill="#0" id="circle27"/>
	<circle cx="346.069" cy="697.911" r="4" fill="#0" id="circle28"/>
	<circle cx="346.069" cy="746.778" r="4" fill="#0" id="circle29"/>
	<circle cx="346.069" cy="795.645" r="4" fill="#0" id="circle30"/>
	<circle cx="360.729" cy="150.601" r="4" fill="#0" id="circle31"/>
	<circle cx="375.389" cy="52.867" r="4" fill="#0" id="circle32"/>
	<circle cx="375.389" cy="996" r="4" fill="#0" id="circle33"/>
	<circle cx="409.596" cy="170.148" r="4" fill="#0" id="circle34"/>
	<circle cx="424.256" cy="996" r="4" fill="#0" id="circle35"/>
	<circle cx="458.463" cy="170.148" r="4" fill="#0" id="circle36"/>
	<circle cx="473.123" cy="996" r="4" fill="#0" id="circle37"/>
	<circle cx="507.33" cy="160.374" r="4" fill="#0" id="circle38"/>
	<circle cx="517.103" cy="434.03" r="4" fill="#0" id="circle39"/>
	<circle cx="517.103" cy="482.897" r="4" fill="#0" id="circle40"/>
	<circle cx="517.103" cy="531.764" r="4" fill="#0" id="circle41"/>
	<circle cx="517.103" cy="580.631" r="4" fill="#0" id="circle42"/>
	<circle cx="517.103" cy="629.498" r="4" fill="#0" id="circle43"/>
	<circle cx="517.103" cy="678.365" r="4" fill="#0" id="circle44"/>
	<circle cx="517.103" cy="727.232" r="4" fill="#0" id="circle45"/>
	<circle cx="517.103" cy="776.099" r="4" fill="#0" id="circle46"/>
	<circle cx="517.103" cy="824.966" r="4" fill="#0" id="circle47"/>
	<circle cx="521.99" cy="873.833" r="4" fill="#0" id="circle48"/>
	<circle cx="521.99" cy="996" r="4" fill="#0" id="circle49"/>
	<circle cx="541.537" cy="922.7" r="4" fill="#0" id="circle50"/>
	<circle cx="556.197" cy="160.374" r="4" fill="#0" id="circle51"/>
	<circle cx="565.97" cy="414.483" r="4" fill="#0" id="circle52"/>
	<circle cx="570.857" cy="996" r="4" fill="#0" id="circle53"/>
	<circle cx="605.064" cy="160.374" r="4" fill="#0" id="circle54"/>
	<circle cx="605.064" cy="385.163" r="4" fill="#0" id="circle55"/>
	<circle cx="634.384" cy="346.069" r="4" fill="#0" id="circle56"/>
	<circle cx="653.931" cy="160.374" r="4" fill="#0" id="circle57"/>
	<circle cx="673.478" cy="311.862" r="4" fill="#0" id="circle58"/>
	<circle cx="702.798" cy="160.374" r="4" fill="#0" id="circle59"/>
	<circle cx="707.685" cy="209.241" r="4" fill="#0" id="circle60"/>
	<circle cx="717.458" cy="258.108" r="4" fill="#0" id="circle61"/>
	<circle cx="722.345" cy="311.862" r="4" fill="#0" id="circle62"/>
	<circle cx="766.325" cy="258.108" r="4" fill="#0" id="circle63"/>
	<circle cx="771.212" cy="311.862" r="4" fill="#0" id="circle64"/>
	</g>
</svg>