<?xml version="1.0" encoding="UTF-8" standalone="no"?>
<!-- Created with CurveBenchmark -->
<svg
	xmlns:dc="http://purl.org/dc/elements/1.1/"
	xmlns:cc="http://creativecommons.org/ns#"
	xmlns:rdf="http://www.w3.org/1999/02/22-rdf-syntax-ns#"
	xmlns:svg="http://www.w3.org/2000/svg"
	xmlns="http://www.w3.org/2000/svg"
	xmlns:sodipodi="http://sodipodi.sourceforge.net/DTD/sodipodi-0.dtd"
	xmlns:inkscape="http://www.inkscape.org/namespaces/inkscape"
	width="1000"
	height="1000"
	id="svg2"
	version="1.1"
	sodipodi:docname="manifold/ccrust-television265.png.txt">
<defs
	id="defs4" />
<metadata
	id="metadata7">
	<rdf:RDF>
		<cc:Work
			rdf:about="">
			<dc:format>image/svg+xml</dc:format>
			<dc:type
				rdf:resource="http://purl.org/dc/dcmitype/StillImage" />
			<dc:title></dc:title>
		</cc:Work>
	</rdf:RDF>
</metadata>
<g
	inkscape:label="Layer 1"
	inkscape:groupmode="layer"
	id="layer1">
	<path style="fill:none;stroke:red;stroke-width:1px;stroke-linecap:butt;stroke-linejoin:miter;stroke-opacity:1" d="M 105.945,82.419 105.945,121.628 z" id="boundary" inkscape:connector-curvature="0" />
	<path style="fill:none;stroke:red;stroke-width:1px;stroke-linecap:butt;stroke-linejoin:miter;stroke-opacity:1" d="M 105.945,82.419 145.154,82.419 z" id="boundary" inkscape:connector-curvature="0" />
	<path style="fill:none;stroke:red;stroke-width:1px;stroke-linecap:butt;stroke-linejoin:miter;stroke-opacity:1" d="M 105.945,160.838 105.945,121.628 z" id="boundary" inkscape:connector-curvature="0" />
	<path style="fill:none;stroke:red;stroke-width:1px;stroke-linecap:butt;stroke-linejoin:miter;stroke-opacity:1" d="M 105.945,200.047 105.945,239.257 z" id="boundary" inkscape:connector-curvature="0" />
	<path style="fill:none;stroke:red;stroke-width:1px;stroke-linecap:butt;stroke-linejoin:miter;stroke-opacity:1" d="M 105.945,317.676 105.945,278.466 z" id="boundary" inkscape:connector-curvature="0" />
	<path style="fill:none;stroke:red;stroke-width:1px;stroke-linecap:butt;stroke-linejoin:miter;stroke-opacity:1" d="M 105.945,239.257 105.945,278.466 z" id="boundary" inkscape:connector-curvature="0" />
	<path style="fill:none;stroke:red;stroke-width:1px;stroke-linecap:butt;stroke-linejoin:miter;stroke-opacity:1" d="M 105.945,200.047 105.945,160.838 z" id="boundary" inkscape:connector-curvature="0" />
	<path style="fill:none;stroke:red;stroke-width:1px;stroke-linecap:butt;stroke-linejoin:miter;stroke-opacity:1" d="M 105.945,317.676 105.945,356.885 z" id="boundary" inkscape:connector-curvature="0" />
	<path style="fill:none;stroke:red;stroke-width:1px;stroke-linecap:butt;stroke-linejoin:miter;stroke-opacity:1" d="M 105.945,396.095 105.945,356.885 z" id="boundary" inkscape:connector-curvature="0" />
	<path style="fill:none;stroke:red;stroke-width:1px;stroke-linecap:butt;stroke-linejoin:miter;stroke-opacity:1" d="M 105.945,435.304 105.945,396.095 z" id="boundary" inkscape:connector-curvature="0" />
	<path style="fill:none;stroke:red;stroke-width:1px;stroke-linecap:butt;stroke-linejoin:miter;stroke-opacity:1" d="M 105.945,435.304 105.945,474.514 z" id="boundary" inkscape:connector-curvature="0" />
	<path style="fill:none;stroke:red;stroke-width:1px;stroke-linecap:butt;stroke-linejoin:miter;stroke-opacity:1" d="M 105.945,513.723 105.945,474.514 z" id="boundary" inkscape:connector-curvature="0" />
	<path style="fill:none;stroke:red;stroke-width:1px;stroke-linecap:butt;stroke-linejoin:miter;stroke-opacity:1" d="M 168.68,51.0514 145.154,82.419 z" id="boundary" inkscape:connector-curvature="0" />
	<path style="fill:none;stroke:red;stroke-width:1px;stroke-linecap:butt;stroke-linejoin:miter;stroke-opacity:1" d="M 168.68,11.8419 168.68,51.0514 z" id="boundary" inkscape:connector-curvature="0" />
	<path style="fill:none;stroke:red;stroke-width:1px;stroke-linecap:butt;stroke-linejoin:miter;stroke-opacity:1" d="M 168.68,11.8419 207.889,4 z" id="boundary" inkscape:connector-curvature="0" />
	<path style="fill:none;stroke:red;stroke-width:1px;stroke-linecap:butt;stroke-linejoin:miter;stroke-opacity:1" d="M 243.178,525.486 203.968,529.407 z" id="boundary" inkscape:connector-curvature="0" />
	<path style="fill:none;stroke:red;stroke-width:1px;stroke-linecap:butt;stroke-linejoin:miter;stroke-opacity:1" d="M 207.889,4 247.099,4 z" id="boundary" inkscape:connector-curvature="0" />
	<path style="fill:none;stroke:red;stroke-width:1px;stroke-linecap:butt;stroke-linejoin:miter;stroke-opacity:1" d="M 203.968,568.617 203.968,529.407 z" id="boundary" inkscape:connector-curvature="0" />
	<path style="fill:none;stroke:red;stroke-width:1px;stroke-linecap:butt;stroke-linejoin:miter;stroke-opacity:1" d="M 105.945,552.933 105.945,513.723 z" id="boundary" inkscape:connector-curvature="0" />
	<path style="fill:none;stroke:red;stroke-width:1px;stroke-linecap:butt;stroke-linejoin:miter;stroke-opacity:1" d="M 105.945,552.933 105.945,592.142 z" id="boundary" inkscape:connector-curvature="0" />
	<path style="fill:none;stroke:red;stroke-width:1px;stroke-linecap:butt;stroke-linejoin:miter;stroke-opacity:1" d="M 105.945,631.352 105.945,592.142 z" id="boundary" inkscape:connector-curvature="0" />
	<path style="fill:none;stroke:red;stroke-width:1px;stroke-linecap:butt;stroke-linejoin:miter;stroke-opacity:1" d="M 203.968,568.617 203.968,607.826 z" id="boundary" inkscape:connector-curvature="0" />
	<path style="fill:none;stroke:red;stroke-width:1px;stroke-linecap:butt;stroke-linejoin:miter;stroke-opacity:1" d="M 243.178,654.877 203.968,647.036 z" id="boundary" inkscape:connector-curvature="0" />
	<path style="fill:none;stroke:red;stroke-width:1px;stroke-linecap:butt;stroke-linejoin:miter;stroke-opacity:1" d="M 203.968,647.036 203.968,607.826 z" id="boundary" inkscape:connector-curvature="0" />
	<path style="fill:none;stroke:red;stroke-width:1px;stroke-linecap:butt;stroke-linejoin:miter;stroke-opacity:1" d="M 105.945,670.561 105.945,631.352 z" id="boundary" inkscape:connector-curvature="0" />
	<path style="fill:none;stroke:red;stroke-width:1px;stroke-linecap:butt;stroke-linejoin:miter;stroke-opacity:1" d="M 105.945,670.561 105.945,709.771 z" id="boundary" inkscape:connector-curvature="0" />
	<path style="fill:none;stroke:red;stroke-width:1px;stroke-linecap:butt;stroke-linejoin:miter;stroke-opacity:1" d="M 43.2095,897.976 4,905.818 z" id="boundary" inkscape:connector-curvature="0" />
	<path style="fill:none;stroke:red;stroke-width:1px;stroke-linecap:butt;stroke-linejoin:miter;stroke-opacity:1" d="M 105.945,709.771 105.945,748.98 z" id="boundary" inkscape:connector-curvature="0" />
	<path style="fill:none;stroke:red;stroke-width:1px;stroke-linecap:butt;stroke-linejoin:miter;stroke-opacity:1" d="M 105.945,748.98 105.945,788.19 z" id="boundary" inkscape:connector-curvature="0" />
	<path style="fill:none;stroke:red;stroke-width:1px;stroke-linecap:butt;stroke-linejoin:miter;stroke-opacity:1" d="M 105.945,827.399 105.945,788.19 z" id="boundary" inkscape:connector-curvature="0" />
	<path style="fill:none;stroke:red;stroke-width:1px;stroke-linecap:butt;stroke-linejoin:miter;stroke-opacity:1" d="M 74.5771,921.502 43.2095,897.976 z" id="boundary" inkscape:connector-curvature="0" />
	<path style="fill:none;stroke:red;stroke-width:1px;stroke-linecap:butt;stroke-linejoin:miter;stroke-opacity:1" d="M 62.8142,980.316 23.6047,980.316 z" id="boundary" inkscape:connector-curvature="0" />
	<path style="fill:none;stroke:red;stroke-width:1px;stroke-linecap:butt;stroke-linejoin:miter;stroke-opacity:1" d="M 23.6047,980.316 4,945.028 z" id="boundary" inkscape:connector-curvature="0" />
	<path style="fill:none;stroke:red;stroke-width:1px;stroke-linecap:butt;stroke-linejoin:miter;stroke-opacity:1" d="M 4,945.028 4,905.818 z" id="boundary" inkscape:connector-curvature="0" />
	<path style="fill:none;stroke:red;stroke-width:1px;stroke-linecap:butt;stroke-linejoin:miter;stroke-opacity:1" d="M 102.024,980.316 62.8142,980.316 z" id="boundary" inkscape:connector-curvature="0" />
	<path style="fill:none;stroke:red;stroke-width:1px;stroke-linecap:butt;stroke-linejoin:miter;stroke-opacity:1" d="M 141.233,992.079 102.024,980.316 z" id="boundary" inkscape:connector-curvature="0" />
	<path style="fill:none;stroke:red;stroke-width:1px;stroke-linecap:butt;stroke-linejoin:miter;stroke-opacity:1" d="M 105.945,827.399 105.945,866.609 z" id="boundary" inkscape:connector-curvature="0" />
	<path style="fill:none;stroke:red;stroke-width:1px;stroke-linecap:butt;stroke-linejoin:miter;stroke-opacity:1" d="M 203.968,741.138 207.889,780.348 z" id="boundary" inkscape:connector-curvature="0" />
	<path style="fill:none;stroke:red;stroke-width:1px;stroke-linecap:butt;stroke-linejoin:miter;stroke-opacity:1" d="M 203.968,741.138 203.968,701.929 z" id="boundary" inkscape:connector-curvature="0" />
	<path style="fill:none;stroke:red;stroke-width:1px;stroke-linecap:butt;stroke-linejoin:miter;stroke-opacity:1" d="M 207.889,780.348 203.968,819.557 z" id="boundary" inkscape:connector-curvature="0" />
	<path style="fill:none;stroke:red;stroke-width:1px;stroke-linecap:butt;stroke-linejoin:miter;stroke-opacity:1" d="M 203.968,819.557 203.968,858.767 z" id="boundary" inkscape:connector-curvature="0" />
	<path style="fill:none;stroke:red;stroke-width:1px;stroke-linecap:butt;stroke-linejoin:miter;stroke-opacity:1" d="M 243.178,815.636 203.968,819.557 z" id="boundary" inkscape:connector-curvature="0" />
	<path style="fill:none;stroke:red;stroke-width:1px;stroke-linecap:butt;stroke-linejoin:miter;stroke-opacity:1" d="M 180.443,980.316 141.233,992.079 z" id="boundary" inkscape:connector-curvature="0" />
	<path style="fill:none;stroke:red;stroke-width:1px;stroke-linecap:butt;stroke-linejoin:miter;stroke-opacity:1" d="M 180.443,980.316 219.652,980.316 z" id="boundary" inkscape:connector-curvature="0" />
	<path style="fill:none;stroke:red;stroke-width:1px;stroke-linecap:butt;stroke-linejoin:miter;stroke-opacity:1" d="M 203.968,858.767 207.889,897.976 z" id="boundary" inkscape:connector-curvature="0" />
	<path style="fill:none;stroke:red;stroke-width:1px;stroke-linecap:butt;stroke-linejoin:miter;stroke-opacity:1" d="M 239.257,921.502 207.889,897.976 z" id="boundary" inkscape:connector-curvature="0" />
	<path style="fill:none;stroke:red;stroke-width:1px;stroke-linecap:butt;stroke-linejoin:miter;stroke-opacity:1" d="M 270.625,897.976 239.257,921.502 z" id="boundary" inkscape:connector-curvature="0" />
	<path style="fill:none;stroke:red;stroke-width:1px;stroke-linecap:butt;stroke-linejoin:miter;stroke-opacity:1" d="M 258.862,980.316 219.652,980.316 z" id="boundary" inkscape:connector-curvature="0" />
	<path style="fill:none;stroke:red;stroke-width:1px;stroke-linecap:butt;stroke-linejoin:miter;stroke-opacity:1" d="M 247.099,4 286.308,15.7628 z" id="boundary" inkscape:connector-curvature="0" />
	<path style="fill:none;stroke:red;stroke-width:1px;stroke-linecap:butt;stroke-linejoin:miter;stroke-opacity:1" d="M 286.308,15.7628 298.071,54.9723 z" id="boundary" inkscape:connector-curvature="0" />
	<path style="fill:none;stroke:red;stroke-width:1px;stroke-linecap:butt;stroke-linejoin:miter;stroke-opacity:1" d="M 298.071,54.9723 298.071,94.1818 z" id="boundary" inkscape:connector-curvature="0" />
	<path style="fill:none;stroke:red;stroke-width:1px;stroke-linecap:butt;stroke-linejoin:miter;stroke-opacity:1" d="M 298.071,94.1818 298.071,133.391 z" id="boundary" inkscape:connector-curvature="0" />
	<path style="fill:none;stroke:red;stroke-width:1px;stroke-linecap:butt;stroke-linejoin:miter;stroke-opacity:1" d="M 298.071,172.601 298.071,133.391 z" id="boundary" inkscape:connector-curvature="0" />
	<path style="fill:none;stroke:red;stroke-width:1px;stroke-linecap:butt;stroke-linejoin:miter;stroke-opacity:1" d="M 298.071,172.601 298.071,211.81 z" id="boundary" inkscape:connector-curvature="0" />
	<path style="fill:none;stroke:red;stroke-width:1px;stroke-linecap:butt;stroke-linejoin:miter;stroke-opacity:1" d="M 243.178,525.486 282.387,513.723 z" id="boundary" inkscape:connector-curvature="0" />
	<path style="fill:none;stroke:red;stroke-width:1px;stroke-linecap:butt;stroke-linejoin:miter;stroke-opacity:1" d="M 298.071,251.02 298.071,290.229 z" id="boundary" inkscape:connector-curvature="0" />
	<path style="fill:none;stroke:red;stroke-width:1px;stroke-linecap:butt;stroke-linejoin:miter;stroke-opacity:1" d="M 298.071,251.02 298.071,211.81 z" id="boundary" inkscape:connector-curvature="0" />
	<path style="fill:none;stroke:red;stroke-width:1px;stroke-linecap:butt;stroke-linejoin:miter;stroke-opacity:1" d="M 298.071,329.439 298.071,368.648 z" id="boundary" inkscape:connector-curvature="0" />
	<path style="fill:none;stroke:red;stroke-width:1px;stroke-linecap:butt;stroke-linejoin:miter;stroke-opacity:1" d="M 298.071,290.229 298.071,329.439 z" id="boundary" inkscape:connector-curvature="0" />
	<path style="fill:none;stroke:red;stroke-width:1px;stroke-linecap:butt;stroke-linejoin:miter;stroke-opacity:1" d="M 298.071,368.648 298.071,407.858 z" id="boundary" inkscape:connector-curvature="0" />
	<path style="fill:none;stroke:red;stroke-width:1px;stroke-linecap:butt;stroke-linejoin:miter;stroke-opacity:1" d="M 298.071,447.067 298.071,407.858 z" id="boundary" inkscape:connector-curvature="0" />
	<path style="fill:none;stroke:red;stroke-width:1px;stroke-linecap:butt;stroke-linejoin:miter;stroke-opacity:1" d="M 298.071,447.067 282.387,513.723 z" id="boundary" inkscape:connector-curvature="0" />
	<path style="fill:none;stroke:red;stroke-width:1px;stroke-linecap:butt;stroke-linejoin:miter;stroke-opacity:1" d="M 298.071,980.316 258.862,980.316 z" id="boundary" inkscape:connector-curvature="0" />
	<path style="fill:none;stroke:red;stroke-width:1px;stroke-linecap:butt;stroke-linejoin:miter;stroke-opacity:1" d="M 301.992,921.502 298.071,980.316 z" id="boundary" inkscape:connector-curvature="0" />
	<path style="fill:none;stroke:red;stroke-width:1px;stroke-linecap:butt;stroke-linejoin:miter;stroke-opacity:1" d="M 270.625,897.976 301.992,921.502 z" id="boundary" inkscape:connector-curvature="0" />
	<path style="fill:none;stroke:red;stroke-width:1px;stroke-linecap:butt;stroke-linejoin:miter;stroke-opacity:1" d="M 298.071,980.316 337.281,996 z" id="boundary" inkscape:connector-curvature="0" />
	<path style="fill:none;stroke:red;stroke-width:1px;stroke-linecap:butt;stroke-linejoin:miter;stroke-opacity:1" d="M 376.49,980.316 337.281,996 z" id="boundary" inkscape:connector-curvature="0" />
	<path style="fill:none;stroke:red;stroke-width:1px;stroke-linecap:butt;stroke-linejoin:miter;stroke-opacity:1" d="M 333.36,897.976 301.992,921.502 z" id="boundary" inkscape:connector-curvature="0" />
	<path style="fill:none;stroke:red;stroke-width:1px;stroke-linecap:butt;stroke-linejoin:miter;stroke-opacity:1" d="M 372.569,897.976 333.36,897.976 z" id="boundary" inkscape:connector-curvature="0" />
	<path style="fill:none;stroke:red;stroke-width:1px;stroke-linecap:butt;stroke-linejoin:miter;stroke-opacity:1" d="M 411.779,897.976 372.569,897.976 z" id="boundary" inkscape:connector-curvature="0" />
	<path style="fill:none;stroke:red;stroke-width:1px;stroke-linecap:butt;stroke-linejoin:miter;stroke-opacity:1" d="M 415.7,988.158 376.49,980.316 z" id="boundary" inkscape:connector-curvature="0" />
	<path style="fill:none;stroke:red;stroke-width:1px;stroke-linecap:butt;stroke-linejoin:miter;stroke-opacity:1" d="M 454.909,984.237 415.7,988.158 z" id="boundary" inkscape:connector-curvature="0" />
	<path style="fill:none;stroke:red;stroke-width:1px;stroke-linecap:butt;stroke-linejoin:miter;stroke-opacity:1" d="M 450.988,897.976 486.277,917.581 z" id="boundary" inkscape:connector-curvature="0" />
	<path style="fill:none;stroke:red;stroke-width:1px;stroke-linecap:butt;stroke-linejoin:miter;stroke-opacity:1" d="M 486.277,917.581 486.277,956.791 z" id="boundary" inkscape:connector-curvature="0" />
	<path style="fill:none;stroke:red;stroke-width:1px;stroke-linecap:butt;stroke-linejoin:miter;stroke-opacity:1" d="M 486.277,956.791 454.909,984.237 z" id="boundary" inkscape:connector-curvature="0" />
	<path style="fill:none;stroke:red;stroke-width:1px;stroke-linecap:butt;stroke-linejoin:miter;stroke-opacity:1" d="M 411.779,897.976 450.988,897.976 z" id="boundary" inkscape:connector-curvature="0" />
	<circle cx="4" cy="905.818" r="4" fill="#0" id="circle0"/>
	<circle cx="4" cy="945.028" r="4" fill="#0" id="circle1"/>
	<circle cx="23.6047" cy="980.316" r="4" fill="#0" id="circle2"/>
	<circle cx="43.2095" cy="897.976" r="4" fill="#0" id="circle3"/>
	<circle cx="62.8142" cy="980.316" r="4" fill="#0" id="circle4"/>
	<circle cx="74.5771" cy="921.502" r="4" fill="#0" id="circle5"/>
	<circle cx="102.024" cy="980.316" r="4" fill="#0" id="circle6"/>
	<circle cx="105.945" cy="82.419" r="4" fill="#0" id="circle7"/>
	<circle cx="105.945" cy="121.628" r="4" fill="#0" id="circle8"/>
	<circle cx="105.945" cy="160.838" r="4" fill="#0" id="circle9"/>
	<circle cx="105.945" cy="200.047" r="4" fill="#0" id="circle10"/>
	<circle cx="105.945" cy="239.257" r="4" fill="#0" id="circle11"/>
	<circle cx="105.945" cy="278.466" r="4" fill="#0" id="circle12"/>
	<circle cx="105.945" cy="317.676" r="4" fill="#0" id="circle13"/>
	<circle cx="105.945" cy="356.885" r="4" fill="#0" id="circle14"/>
	<circle cx="105.945" cy="396.095" r="4" fill="#0" id="circle15"/>
	<circle cx="105.945" cy="435.304" r="4" fill="#0" id="circle16"/>
	<circle cx="105.945" cy="474.514" r="4" fill="#0" id="circle17"/>
	<circle cx="105.945" cy="513.723" r="4" fill="#0" id="circle18"/>
	<circle cx="105.945" cy="552.933" r="4" fill="#0" id="circle19"/>
	<circle cx="105.945" cy="592.142" r="4" fill="#0" id="circle20"/>
	<circle cx="105.945" cy="631.352" r="4" fill="#0" id="circle21"/>
	<circle cx="105.945" cy="670.561" r="4" fill="#0" id="circle22"/>
	<circle cx="105.945" cy="709.771" r="4" fill="#0" id="circle23"/>
	<circle cx="105.945" cy="748.98" r="4" fill="#0" id="circle24"/>
	<circle cx="105.945" cy="788.19" r="4" fill="#0" id="circle25"/>
	<circle cx="105.945" cy="827.399" r="4" fill="#0" id="circle26"/>
	<circle cx="105.945" cy="866.609" r="4" fill="#0" id="circle27"/>
	<circle cx="141.233" cy="992.079" r="4" fill="#0" id="circle28"/>
	<circle cx="145.154" cy="82.419" r="4" fill="#0" id="circle29"/>
	<circle cx="168.68" cy="11.8419" r="4" fill="#0" id="circle30"/>
	<circle cx="168.68" cy="51.0514" r="4" fill="#0" id="circle31"/>
	<circle cx="180.443" cy="980.316" r="4" fill="#0" id="circle32"/>
	<circle cx="203.968" cy="529.407" r="4" fill="#0" id="circle33"/>
	<circle cx="203.968" cy="568.617" r="4" fill="#0" id="circle34"/>
	<circle cx="203.968" cy="607.826" r="4" fill="#0" id="circle35"/>
	<circle cx="203.968" cy="647.036" r="4" fill="#0" id="circle36"/>
	<circle cx="203.968" cy="701.929" r="4" fill="#0" id="circle37"/>
	<circle cx="203.968" cy="741.138" r="4" fill="#0" id="circle38"/>
	<circle cx="203.968" cy="819.557" r="4" fill="#0" id="circle39"/>
	<circle cx="203.968" cy="858.767" r="4" fill="#0" id="circle40"/>
	<circle cx="207.889" cy="4" r="4" fill="#0" id="circle41"/>
	<circle cx="207.889" cy="780.348" r="4" fill="#0" id="circle42"/>
	<circle cx="207.889" cy="897.976" r="4" fill="#0" id="circle43"/>
	<circle cx="219.652" cy="980.316" r="4" fill="#0" id="circle44"/>
	<circle cx="239.257" cy="921.502" r="4" fill="#0" id="circle45"/>
	<circle cx="243.178" cy="525.486" r="4" fill="#0" id="circle46"/>
	<circle cx="243.178" cy="654.877" r="4" fill="#0" id="circle47"/>
	<circle cx="243.178" cy="815.636" r="4" fill="#0" id="circle48"/>
	<circle cx="247.099" cy="4" r="4" fill="#0" id="circle49"/>
	<circle cx="258.862" cy="980.316" r="4" fill="#0" id="circle50"/>
	<circle cx="262.783" cy="690.166" r="4" fill="#0" id="circle51"/>
	<circle cx="262.783" cy="780.348" r="4" fill="#0" id="circle52"/>
	<circle cx="270.625" cy="897.976" r="4" fill="#0" id="circle53"/>
	<circle cx="282.387" cy="513.723" r="4" fill="#0" id="circle54"/>
	<circle cx="282.387" cy="654.877" r="4" fill="#0" id="circle55"/>
	<circle cx="282.387" cy="815.636" r="4" fill="#0" id="circle56"/>
	<circle cx="286.308" cy="15.7628" r="4" fill="#0" id="circle57"/>
	<circle cx="298.071" cy="54.9723" r="4" fill="#0" id="circle58"/>
	<circle cx="298.071" cy="94.1818" r="4" fill="#0" id="circle59"/>
	<circle cx="298.071" cy="133.391" r="4" fill="#0" id="circle60"/>
	<circle cx="298.071" cy="172.601" r="4" fill="#0" id="circle61"/>
	<circle cx="298.071" cy="211.81" r="4" fill="#0" id="circle62"/>
	<circle cx="298.071" cy="251.02" r="4" fill="#0" id="circle63"/>
	<circle cx="298.071" cy="290.229" r="4" fill="#0" id="circle64"/>
	<circle cx="298.071" cy="329.439" r="4" fill="#0" id="circle65"/>
	<circle cx="298.071" cy="368.648" r="4" fill="#0" id="circle66"/>
	<circle cx="298.071" cy="407.858" r="4" fill="#0" id="circle67"/>
	<circle cx="298.071" cy="447.067" r="4" fill="#0" id="circle68"/>
	<circle cx="298.071" cy="980.316" r="4" fill="#0" id="circle69"/>
	<circle cx="301.992" cy="690.166" r="4" fill="#0" id="circle70"/>
	<circle cx="301.992" cy="780.348" r="4" fill="#0" id="circle71"/>
	<circle cx="301.992" cy="921.502" r="4" fill="#0" id="circle72"/>
	<circle cx="321.597" cy="654.877" r="4" fill="#0" id="circle73"/>
	<circle cx="321.597" cy="815.636" r="4" fill="#0" id="circle74"/>
	<circle cx="333.36" cy="897.976" r="4" fill="#0" id="circle75"/>
	<circle cx="337.281" cy="996" r="4" fill="#0" id="circle76"/>
	<circle cx="341.202" cy="690.166" r="4" fill="#0" id="circle77"/>
	<circle cx="341.202" cy="780.348" r="4" fill="#0" id="circle78"/>
	<circle cx="360.806" cy="654.877" r="4" fill="#0" id="circle79"/>
	<circle cx="360.806" cy="815.636" r="4" fill="#0" id="circle80"/>
	<circle cx="372.569" cy="897.976" r="4" fill="#0" id="circle81"/>
	<circle cx="376.49" cy="980.316" r="4" fill="#0" id="circle82"/>
	<circle cx="380.411" cy="690.166" r="4" fill="#0" id="circle83"/>
	<circle cx="380.411" cy="780.348" r="4" fill="#0" id="circle84"/>
	<circle cx="400.016" cy="654.877" r="4" fill="#0" id="circle85"/>
	<circle cx="400.016" cy="815.636" r="4" fill="#0" id="circle86"/>
	<circle cx="411.779" cy="897.976" r="4" fill="#0" id="circle87"/>
	<circle cx="415.7" cy="988.158" r="4" fill="#0" id="circle88"/>
	<circle cx="419.621" cy="690.166" r="4" fill="#0" id="circle89"/>
	<circle cx="419.621" cy="780.348" r="4" fill="#0" id="circle90"/>
	<circle cx="439.225" cy="654.877" r="4" fill="#0" id="circle91"/>
	<circle cx="439.225" cy="815.636" r="4" fill="#0" id="circle92"/>
	<circle cx="450.988" cy="897.976" r="4" fill="#0" id="circle93"/>
	<circle cx="454.909" cy="984.237" r="4" fill="#0" id="circle94"/>
	<circle cx="458.83" cy="690.166" r="4" fill="#0" id="circle95"/>
	<circle cx="458.83" cy="780.348" r="4" fill="#0" id="circle96"/>
	<circle cx="486.277" cy="917.581" r="4" fill="#0" id="circle97"/>
	<circle cx="486.277" cy="956.791" r="4" fill="#0" id="circle98"/>
	</g>
</svg>