<?xml version="1.0" encoding="UTF-8" standalone="no"?>
<!-- Created with CurveBenchmark -->
<svg
	xmlns:dc="http://purl.org/dc/elements/1.1/"
	xmlns:cc="http://creativecommons.org/ns#"
	xmlns:rdf="http://www.w3.org/1999/02/22-rdf-syntax-ns#"
	xmlns:svg="http://www.w3.org/2000/svg"
	xmlns="http://www.w3.org/2000/svg"
	xmlns:sodipodi="http://sodipodi.sourceforge.net/DTD/sodipodi-0.dtd"
	xmlns:inkscape="http://www.inkscape.org/namespaces/inkscape"
	width="1000"
	height="1000"
	id="svg2"
	version="1.1"
	sodipodi:docname="manifold/connect2d-truck-07.png.txt">
<defs
	id="defs4" />
<metadata
	id="metadata7">
	<rdf:RDF>
		<cc:Work
			rdf:about="">
			<dc:format>image/svg+xml</dc:format>
			<dc:type
				rdf:resource="http://purl.org/dc/dcmitype/StillImage" />
			<dc:title></dc:title>
		</cc:Work>
	</rdf:RDF>
</metadata>
<g
	inkscape:label="Layer 1"
	inkscape:groupmode="layer"
	id="layer1">
	<path style="fill:none;stroke:red;stroke-width:1px;stroke-linecap:butt;stroke-linejoin:miter;stroke-opacity:1" d="M 996,371.707 996,391.91 z" id="boundary" inkscape:connector-curvature="0" />
	<path style="fill:none;stroke:red;stroke-width:1px;stroke-linecap:butt;stroke-linejoin:miter;stroke-opacity:1" d="M 996,391.91 991.959,416.155 z" id="boundary" inkscape:connector-curvature="0" />
	<path style="fill:none;stroke:red;stroke-width:1px;stroke-linecap:butt;stroke-linejoin:miter;stroke-opacity:1" d="M 991.959,416.155 975.796,430.297 z" id="boundary" inkscape:connector-curvature="0" />
	<path style="fill:none;stroke:red;stroke-width:1px;stroke-linecap:butt;stroke-linejoin:miter;stroke-opacity:1" d="M 975.796,430.297 955.593,430.297 z" id="boundary" inkscape:connector-curvature="0" />
	<path style="fill:none;stroke:red;stroke-width:1px;stroke-linecap:butt;stroke-linejoin:miter;stroke-opacity:1" d="M 955.593,430.297 951.552,466.664 z" id="boundary" inkscape:connector-curvature="0" />
	<path style="fill:none;stroke:red;stroke-width:1px;stroke-linecap:butt;stroke-linejoin:miter;stroke-opacity:1" d="M 951.552,466.664 935.389,480.807 z" id="boundary" inkscape:connector-curvature="0" />
	<path style="fill:none;stroke:red;stroke-width:1px;stroke-linecap:butt;stroke-linejoin:miter;stroke-opacity:1" d="M 935.389,480.807 915.185,490.908 z" id="boundary" inkscape:connector-curvature="0" />
	<path style="fill:none;stroke:red;stroke-width:1px;stroke-linecap:butt;stroke-linejoin:miter;stroke-opacity:1" d="M 915.185,490.908 897.002,501.01 z" id="boundary" inkscape:connector-curvature="0" />
	<path style="fill:none;stroke:red;stroke-width:1px;stroke-linecap:butt;stroke-linejoin:miter;stroke-opacity:1" d="M 897.002,501.01 876.798,509.092 z" id="boundary" inkscape:connector-curvature="0" />
	<path style="fill:none;stroke:red;stroke-width:1px;stroke-linecap:butt;stroke-linejoin:miter;stroke-opacity:1" d="M 876.798,509.092 862.656,492.929 z" id="boundary" inkscape:connector-curvature="0" />
	<path style="fill:none;stroke:red;stroke-width:1px;stroke-linecap:butt;stroke-linejoin:miter;stroke-opacity:1" d="M 862.656,492.929 852.554,474.745 z" id="boundary" inkscape:connector-curvature="0" />
	<path style="fill:none;stroke:red;stroke-width:1px;stroke-linecap:butt;stroke-linejoin:miter;stroke-opacity:1" d="M 852.554,474.745 844.473,454.542 z" id="boundary" inkscape:connector-curvature="0" />
	<path style="fill:none;stroke:red;stroke-width:1px;stroke-linecap:butt;stroke-linejoin:miter;stroke-opacity:1" d="M 844.473,454.542 824.269,450.501 z" id="boundary" inkscape:connector-curvature="0" />
	<path style="fill:none;stroke:red;stroke-width:1px;stroke-linecap:butt;stroke-linejoin:miter;stroke-opacity:1" d="M 824.269,450.501 804.065,450.501 z" id="boundary" inkscape:connector-curvature="0" />
	<path style="fill:none;stroke:red;stroke-width:1px;stroke-linecap:butt;stroke-linejoin:miter;stroke-opacity:1" d="M 804.065,450.501 783.862,450.501 z" id="boundary" inkscape:connector-curvature="0" />
	<path style="fill:none;stroke:red;stroke-width:1px;stroke-linecap:butt;stroke-linejoin:miter;stroke-opacity:1" d="M 783.862,450.501 763.658,450.501 z" id="boundary" inkscape:connector-curvature="0" />
	<path style="fill:none;stroke:red;stroke-width:1px;stroke-linecap:butt;stroke-linejoin:miter;stroke-opacity:1" d="M 763.658,450.501 743.454,450.501 z" id="boundary" inkscape:connector-curvature="0" />
	<path style="fill:none;stroke:red;stroke-width:1px;stroke-linecap:butt;stroke-linejoin:miter;stroke-opacity:1" d="M 743.454,450.501 723.251,450.501 z" id="boundary" inkscape:connector-curvature="0" />
	<path style="fill:none;stroke:red;stroke-width:1px;stroke-linecap:butt;stroke-linejoin:miter;stroke-opacity:1" d="M 723.251,450.501 703.047,450.501 z" id="boundary" inkscape:connector-curvature="0" />
	<path style="fill:none;stroke:red;stroke-width:1px;stroke-linecap:butt;stroke-linejoin:miter;stroke-opacity:1" d="M 703.047,450.501 682.843,460.603 z" id="boundary" inkscape:connector-curvature="0" />
	<path style="fill:none;stroke:red;stroke-width:1px;stroke-linecap:butt;stroke-linejoin:miter;stroke-opacity:1" d="M 682.843,460.603 662.64,460.603 z" id="boundary" inkscape:connector-curvature="0" />
	<path style="fill:none;stroke:red;stroke-width:1px;stroke-linecap:butt;stroke-linejoin:miter;stroke-opacity:1" d="M 662.64,460.603 652.538,480.807 z" id="boundary" inkscape:connector-curvature="0" />
	<path style="fill:none;stroke:red;stroke-width:1px;stroke-linecap:butt;stroke-linejoin:miter;stroke-opacity:1" d="M 652.538,480.807 648.497,507.071 z" id="boundary" inkscape:connector-curvature="0" />
	<path style="fill:none;stroke:red;stroke-width:1px;stroke-linecap:butt;stroke-linejoin:miter;stroke-opacity:1" d="M 648.497,507.071 632.334,521.214 z" id="boundary" inkscape:connector-curvature="0" />
	<path style="fill:none;stroke:red;stroke-width:1px;stroke-linecap:butt;stroke-linejoin:miter;stroke-opacity:1" d="M 632.334,521.214 612.13,531.316 z" id="boundary" inkscape:connector-curvature="0" />
	<path style="fill:none;stroke:red;stroke-width:1px;stroke-linecap:butt;stroke-linejoin:miter;stroke-opacity:1" d="M 612.13,531.316 591.927,531.316 z" id="boundary" inkscape:connector-curvature="0" />
	<path style="fill:none;stroke:red;stroke-width:1px;stroke-linecap:butt;stroke-linejoin:miter;stroke-opacity:1" d="M 591.927,531.316 573.743,541.418 z" id="boundary" inkscape:connector-curvature="0" />
	<path style="fill:none;stroke:red;stroke-width:1px;stroke-linecap:butt;stroke-linejoin:miter;stroke-opacity:1" d="M 573.743,541.418 553.54,541.418 z" id="boundary" inkscape:connector-curvature="0" />
	<path style="fill:none;stroke:red;stroke-width:1px;stroke-linecap:butt;stroke-linejoin:miter;stroke-opacity:1" d="M 553.54,541.418 533.336,541.418 z" id="boundary" inkscape:connector-curvature="0" />
	<path style="fill:none;stroke:red;stroke-width:1px;stroke-linecap:butt;stroke-linejoin:miter;stroke-opacity:1" d="M 533.336,541.418 515.153,531.316 z" id="boundary" inkscape:connector-curvature="0" />
	<path style="fill:none;stroke:red;stroke-width:1px;stroke-linecap:butt;stroke-linejoin:miter;stroke-opacity:1" d="M 515.153,531.316 509.092,511.112 z" id="boundary" inkscape:connector-curvature="0" />
	<path style="fill:none;stroke:red;stroke-width:1px;stroke-linecap:butt;stroke-linejoin:miter;stroke-opacity:1" d="M 509.092,511.112 490.908,501.01 z" id="boundary" inkscape:connector-curvature="0" />
	<path style="fill:none;stroke:red;stroke-width:1px;stroke-linecap:butt;stroke-linejoin:miter;stroke-opacity:1" d="M 490.908,501.01 470.705,501.01 z" id="boundary" inkscape:connector-curvature="0" />
	<path style="fill:none;stroke:red;stroke-width:1px;stroke-linecap:butt;stroke-linejoin:miter;stroke-opacity:1" d="M 470.705,501.01 450.501,501.01 z" id="boundary" inkscape:connector-curvature="0" />
	<path style="fill:none;stroke:red;stroke-width:1px;stroke-linecap:butt;stroke-linejoin:miter;stroke-opacity:1" d="M 450.501,501.01 430.297,501.01 z" id="boundary" inkscape:connector-curvature="0" />
	<path style="fill:none;stroke:red;stroke-width:1px;stroke-linecap:butt;stroke-linejoin:miter;stroke-opacity:1" d="M 430.297,501.01 410.094,501.01 z" id="boundary" inkscape:connector-curvature="0" />
	<path style="fill:none;stroke:red;stroke-width:1px;stroke-linecap:butt;stroke-linejoin:miter;stroke-opacity:1" d="M 410.094,501.01 389.89,494.949 z" id="boundary" inkscape:connector-curvature="0" />
	<path style="fill:none;stroke:red;stroke-width:1px;stroke-linecap:butt;stroke-linejoin:miter;stroke-opacity:1" d="M 389.89,494.949 369.686,490.908 z" id="boundary" inkscape:connector-curvature="0" />
	<path style="fill:none;stroke:red;stroke-width:1px;stroke-linecap:butt;stroke-linejoin:miter;stroke-opacity:1" d="M 369.686,490.908 349.483,490.908 z" id="boundary" inkscape:connector-curvature="0" />
	<path style="fill:none;stroke:red;stroke-width:1px;stroke-linecap:butt;stroke-linejoin:miter;stroke-opacity:1" d="M 349.483,490.908 329.279,490.908 z" id="boundary" inkscape:connector-curvature="0" />
	<path style="fill:none;stroke:red;stroke-width:1px;stroke-linecap:butt;stroke-linejoin:miter;stroke-opacity:1" d="M 329.279,490.908 309.075,490.908 z" id="boundary" inkscape:connector-curvature="0" />
	<path style="fill:none;stroke:red;stroke-width:1px;stroke-linecap:butt;stroke-linejoin:miter;stroke-opacity:1" d="M 309.075,490.908 288.872,490.908 z" id="boundary" inkscape:connector-curvature="0" />
	<path style="fill:none;stroke:red;stroke-width:1px;stroke-linecap:butt;stroke-linejoin:miter;stroke-opacity:1" d="M 288.872,490.908 274.729,517.173 z" id="boundary" inkscape:connector-curvature="0" />
	<path style="fill:none;stroke:red;stroke-width:1px;stroke-linecap:butt;stroke-linejoin:miter;stroke-opacity:1" d="M 274.729,517.173 258.566,531.316 z" id="boundary" inkscape:connector-curvature="0" />
	<path style="fill:none;stroke:red;stroke-width:1px;stroke-linecap:butt;stroke-linejoin:miter;stroke-opacity:1" d="M 258.566,531.316 238.363,531.316 z" id="boundary" inkscape:connector-curvature="0" />
	<path style="fill:none;stroke:red;stroke-width:1px;stroke-linecap:butt;stroke-linejoin:miter;stroke-opacity:1" d="M 238.363,531.316 218.159,531.316 z" id="boundary" inkscape:connector-curvature="0" />
	<path style="fill:none;stroke:red;stroke-width:1px;stroke-linecap:butt;stroke-linejoin:miter;stroke-opacity:1" d="M 218.159,531.316 197.955,531.316 z" id="boundary" inkscape:connector-curvature="0" />
	<path style="fill:none;stroke:red;stroke-width:1px;stroke-linecap:butt;stroke-linejoin:miter;stroke-opacity:1" d="M 197.955,531.316 177.752,531.316 z" id="boundary" inkscape:connector-curvature="0" />
	<path style="fill:none;stroke:red;stroke-width:1px;stroke-linecap:butt;stroke-linejoin:miter;stroke-opacity:1" d="M 177.752,531.316 157.548,531.316 z" id="boundary" inkscape:connector-curvature="0" />
	<path style="fill:none;stroke:red;stroke-width:1px;stroke-linecap:butt;stroke-linejoin:miter;stroke-opacity:1" d="M 157.548,531.316 137.344,531.316 z" id="boundary" inkscape:connector-curvature="0" />
	<path style="fill:none;stroke:red;stroke-width:1px;stroke-linecap:butt;stroke-linejoin:miter;stroke-opacity:1" d="M 137.344,531.316 117.141,531.316 z" id="boundary" inkscape:connector-curvature="0" />
	<path style="fill:none;stroke:red;stroke-width:1px;stroke-linecap:butt;stroke-linejoin:miter;stroke-opacity:1" d="M 117.141,531.316 96.9369,531.316 z" id="boundary" inkscape:connector-curvature="0" />
	<path style="fill:none;stroke:red;stroke-width:1px;stroke-linecap:butt;stroke-linejoin:miter;stroke-opacity:1" d="M 96.9369,531.316 76.7332,527.275 z" id="boundary" inkscape:connector-curvature="0" />
	<path style="fill:none;stroke:red;stroke-width:1px;stroke-linecap:butt;stroke-linejoin:miter;stroke-opacity:1" d="M 76.7332,527.275 64.611,511.112 z" id="boundary" inkscape:connector-curvature="0" />
	<path style="fill:none;stroke:red;stroke-width:1px;stroke-linecap:butt;stroke-linejoin:miter;stroke-opacity:1" d="M 64.611,511.112 48.4481,498.99 z" id="boundary" inkscape:connector-curvature="0" />
	<path style="fill:none;stroke:red;stroke-width:1px;stroke-linecap:butt;stroke-linejoin:miter;stroke-opacity:1" d="M 48.4481,498.99 34.3055,482.827 z" id="boundary" inkscape:connector-curvature="0" />
	<path style="fill:none;stroke:red;stroke-width:1px;stroke-linecap:butt;stroke-linejoin:miter;stroke-opacity:1" d="M 34.3055,482.827 24.2037,464.644 z" id="boundary" inkscape:connector-curvature="0" />
	<path style="fill:none;stroke:red;stroke-width:1px;stroke-linecap:butt;stroke-linejoin:miter;stroke-opacity:1" d="M 24.2037,464.644 24.2037,444.44 z" id="boundary" inkscape:connector-curvature="0" />
	<path style="fill:none;stroke:red;stroke-width:1px;stroke-linecap:butt;stroke-linejoin:miter;stroke-opacity:1" d="M 24.2037,444.44 24.2037,424.236 z" id="boundary" inkscape:connector-curvature="0" />
	<path style="fill:none;stroke:red;stroke-width:1px;stroke-linecap:butt;stroke-linejoin:miter;stroke-opacity:1" d="M 24.2037,424.236 24.2037,404.033 z" id="boundary" inkscape:connector-curvature="0" />
	<path style="fill:none;stroke:red;stroke-width:1px;stroke-linecap:butt;stroke-linejoin:miter;stroke-opacity:1" d="M 24.2037,404.033 24.2037,383.829 z" id="boundary" inkscape:connector-curvature="0" />
	<path style="fill:none;stroke:red;stroke-width:1px;stroke-linecap:butt;stroke-linejoin:miter;stroke-opacity:1" d="M 24.2037,383.829 40.3666,367.666 z" id="boundary" inkscape:connector-curvature="0" />
	<path style="fill:none;stroke:red;stroke-width:1px;stroke-linecap:butt;stroke-linejoin:miter;stroke-opacity:1" d="M 40.3666,367.666 58.5499,357.564 z" id="boundary" inkscape:connector-curvature="0" />
	<path style="fill:none;stroke:red;stroke-width:1px;stroke-linecap:butt;stroke-linejoin:miter;stroke-opacity:1" d="M 58.5499,357.564 78.7536,349.483 z" id="boundary" inkscape:connector-curvature="0" />
	<path style="fill:none;stroke:red;stroke-width:1px;stroke-linecap:butt;stroke-linejoin:miter;stroke-opacity:1" d="M 78.7536,349.483 98.9572,347.462 z" id="boundary" inkscape:connector-curvature="0" />
	<path style="fill:none;stroke:red;stroke-width:1px;stroke-linecap:butt;stroke-linejoin:miter;stroke-opacity:1" d="M 98.9572,347.462 119.161,347.462 z" id="boundary" inkscape:connector-curvature="0" />
	<path style="fill:none;stroke:red;stroke-width:1px;stroke-linecap:butt;stroke-linejoin:miter;stroke-opacity:1" d="M 119.161,347.462 137.344,337.36 z" id="boundary" inkscape:connector-curvature="0" />
	<path style="fill:none;stroke:red;stroke-width:1px;stroke-linecap:butt;stroke-linejoin:miter;stroke-opacity:1" d="M 137.344,337.36 157.548,337.36 z" id="boundary" inkscape:connector-curvature="0" />
	<path style="fill:none;stroke:red;stroke-width:1px;stroke-linecap:butt;stroke-linejoin:miter;stroke-opacity:1" d="M 157.548,337.36 165.629,309.075 z" id="boundary" inkscape:connector-curvature="0" />
	<path style="fill:none;stroke:red;stroke-width:1px;stroke-linecap:butt;stroke-linejoin:miter;stroke-opacity:1" d="M 165.629,309.075 163.609,288.872 z" id="boundary" inkscape:connector-curvature="0" />
	<path style="fill:none;stroke:red;stroke-width:1px;stroke-linecap:butt;stroke-linejoin:miter;stroke-opacity:1" d="M 163.609,288.872 145.426,278.77 z" id="boundary" inkscape:connector-curvature="0" />
	<path style="fill:none;stroke:red;stroke-width:1px;stroke-linecap:butt;stroke-linejoin:miter;stroke-opacity:1" d="M 145.426,278.77 125.222,278.77 z" id="boundary" inkscape:connector-curvature="0" />
	<path style="fill:none;stroke:red;stroke-width:1px;stroke-linecap:butt;stroke-linejoin:miter;stroke-opacity:1" d="M 125.222,278.77 105.018,278.77 z" id="boundary" inkscape:connector-curvature="0" />
	<path style="fill:none;stroke:red;stroke-width:1px;stroke-linecap:butt;stroke-linejoin:miter;stroke-opacity:1" d="M 105.018,278.77 84.8147,278.77 z" id="boundary" inkscape:connector-curvature="0" />
	<path style="fill:none;stroke:red;stroke-width:1px;stroke-linecap:butt;stroke-linejoin:miter;stroke-opacity:1" d="M 84.8147,278.77 64.611,278.77 z" id="boundary" inkscape:connector-curvature="0" />
	<path style="fill:none;stroke:red;stroke-width:1px;stroke-linecap:butt;stroke-linejoin:miter;stroke-opacity:1" d="M 64.611,278.77 44.4073,278.77 z" id="boundary" inkscape:connector-curvature="0" />
	<path style="fill:none;stroke:red;stroke-width:1px;stroke-linecap:butt;stroke-linejoin:miter;stroke-opacity:1" d="M 44.4073,278.77 24.2037,278.77 z" id="boundary" inkscape:connector-curvature="0" />
	<path style="fill:none;stroke:red;stroke-width:1px;stroke-linecap:butt;stroke-linejoin:miter;stroke-opacity:1" d="M 24.2037,278.77 4,272.709 z" id="boundary" inkscape:connector-curvature="0" />
	<path style="fill:none;stroke:red;stroke-width:1px;stroke-linecap:butt;stroke-linejoin:miter;stroke-opacity:1" d="M 4,272.709 4,252.505 z" id="boundary" inkscape:connector-curvature="0" />
	<path style="fill:none;stroke:red;stroke-width:1px;stroke-linecap:butt;stroke-linejoin:miter;stroke-opacity:1" d="M 4,252.505 14.1018,232.301 z" id="boundary" inkscape:connector-curvature="0" />
	<path style="fill:none;stroke:red;stroke-width:1px;stroke-linecap:butt;stroke-linejoin:miter;stroke-opacity:1" d="M 14.1018,232.301 30.2648,216.138 z" id="boundary" inkscape:connector-curvature="0" />
	<path style="fill:none;stroke:red;stroke-width:1px;stroke-linecap:butt;stroke-linejoin:miter;stroke-opacity:1" d="M 30.2648,216.138 48.4481,206.037 z" id="boundary" inkscape:connector-curvature="0" />
	<path style="fill:none;stroke:red;stroke-width:1px;stroke-linecap:butt;stroke-linejoin:miter;stroke-opacity:1" d="M 48.4481,206.037 66.6314,195.935 z" id="boundary" inkscape:connector-curvature="0" />
	<path style="fill:none;stroke:red;stroke-width:1px;stroke-linecap:butt;stroke-linejoin:miter;stroke-opacity:1" d="M 66.6314,195.935 86.835,189.874 z" id="boundary" inkscape:connector-curvature="0" />
	<path style="fill:none;stroke:red;stroke-width:1px;stroke-linecap:butt;stroke-linejoin:miter;stroke-opacity:1" d="M 86.835,189.874 107.039,185.833 z" id="boundary" inkscape:connector-curvature="0" />
	<path style="fill:none;stroke:red;stroke-width:1px;stroke-linecap:butt;stroke-linejoin:miter;stroke-opacity:1" d="M 107.039,185.833 127.242,179.772 z" id="boundary" inkscape:connector-curvature="0" />
	<path style="fill:none;stroke:red;stroke-width:1px;stroke-linecap:butt;stroke-linejoin:miter;stroke-opacity:1" d="M 127.242,179.772 147.446,169.67 z" id="boundary" inkscape:connector-curvature="0" />
	<path style="fill:none;stroke:red;stroke-width:1px;stroke-linecap:butt;stroke-linejoin:miter;stroke-opacity:1" d="M 147.446,169.67 167.65,165.629 z" id="boundary" inkscape:connector-curvature="0" />
	<path style="fill:none;stroke:red;stroke-width:1px;stroke-linecap:butt;stroke-linejoin:miter;stroke-opacity:1" d="M 167.65,165.629 187.853,165.629 z" id="boundary" inkscape:connector-curvature="0" />
	<path style="fill:none;stroke:red;stroke-width:1px;stroke-linecap:butt;stroke-linejoin:miter;stroke-opacity:1" d="M 187.853,165.629 206.037,155.527 z" id="boundary" inkscape:connector-curvature="0" />
	<path style="fill:none;stroke:red;stroke-width:1px;stroke-linecap:butt;stroke-linejoin:miter;stroke-opacity:1" d="M 206.037,155.527 226.24,151.487 z" id="boundary" inkscape:connector-curvature="0" />
	<path style="fill:none;stroke:red;stroke-width:1px;stroke-linecap:butt;stroke-linejoin:miter;stroke-opacity:1" d="M 226.24,151.487 246.444,145.426 z" id="boundary" inkscape:connector-curvature="0" />
	<path style="fill:none;stroke:red;stroke-width:1px;stroke-linecap:butt;stroke-linejoin:miter;stroke-opacity:1" d="M 246.444,145.426 266.648,145.426 z" id="boundary" inkscape:connector-curvature="0" />
	<path style="fill:none;stroke:red;stroke-width:1px;stroke-linecap:butt;stroke-linejoin:miter;stroke-opacity:1" d="M 266.648,145.426 286.851,145.426 z" id="boundary" inkscape:connector-curvature="0" />
	<path style="fill:none;stroke:red;stroke-width:1px;stroke-linecap:butt;stroke-linejoin:miter;stroke-opacity:1" d="M 286.851,145.426 307.055,145.426 z" id="boundary" inkscape:connector-curvature="0" />
	<path style="fill:none;stroke:red;stroke-width:1px;stroke-linecap:butt;stroke-linejoin:miter;stroke-opacity:1" d="M 307.055,145.426 327.259,145.426 z" id="boundary" inkscape:connector-curvature="0" />
	<path style="fill:none;stroke:red;stroke-width:1px;stroke-linecap:butt;stroke-linejoin:miter;stroke-opacity:1" d="M 327.259,145.426 347.462,145.426 z" id="boundary" inkscape:connector-curvature="0" />
	<path style="fill:none;stroke:red;stroke-width:1px;stroke-linecap:butt;stroke-linejoin:miter;stroke-opacity:1" d="M 347.462,145.426 365.646,135.324 z" id="boundary" inkscape:connector-curvature="0" />
	<path style="fill:none;stroke:red;stroke-width:1px;stroke-linecap:butt;stroke-linejoin:miter;stroke-opacity:1" d="M 365.646,135.324 385.849,135.324 z" id="boundary" inkscape:connector-curvature="0" />
	<path style="fill:none;stroke:red;stroke-width:1px;stroke-linecap:butt;stroke-linejoin:miter;stroke-opacity:1" d="M 385.849,135.324 406.053,135.324 z" id="boundary" inkscape:connector-curvature="0" />
	<path style="fill:none;stroke:red;stroke-width:1px;stroke-linecap:butt;stroke-linejoin:miter;stroke-opacity:1" d="M 406.053,135.324 426.257,135.324 z" id="boundary" inkscape:connector-curvature="0" />
	<path style="fill:none;stroke:red;stroke-width:1px;stroke-linecap:butt;stroke-linejoin:miter;stroke-opacity:1" d="M 426.257,135.324 444.44,125.222 z" id="boundary" inkscape:connector-curvature="0" />
	<path style="fill:none;stroke:red;stroke-width:1px;stroke-linecap:butt;stroke-linejoin:miter;stroke-opacity:1" d="M 444.44,125.222 458.582,90.8758 z" id="boundary" inkscape:connector-curvature="0" />
	<path style="fill:none;stroke:red;stroke-width:1px;stroke-linecap:butt;stroke-linejoin:miter;stroke-opacity:1" d="M 458.582,90.8758 458.582,70.6721 z" id="boundary" inkscape:connector-curvature="0" />
	<path style="fill:none;stroke:red;stroke-width:1px;stroke-linecap:butt;stroke-linejoin:miter;stroke-opacity:1" d="M 458.582,70.6721 468.684,50.4684 z" id="boundary" inkscape:connector-curvature="0" />
	<path style="fill:none;stroke:red;stroke-width:1px;stroke-linecap:butt;stroke-linejoin:miter;stroke-opacity:1" d="M 468.684,50.4684 478.786,30.2648 z" id="boundary" inkscape:connector-curvature="0" />
	<path style="fill:none;stroke:red;stroke-width:1px;stroke-linecap:butt;stroke-linejoin:miter;stroke-opacity:1" d="M 478.786,30.2648 494.949,14.1018 z" id="boundary" inkscape:connector-curvature="0" />
	<path style="fill:none;stroke:red;stroke-width:1px;stroke-linecap:butt;stroke-linejoin:miter;stroke-opacity:1" d="M 494.949,14.1018 515.153,4 z" id="boundary" inkscape:connector-curvature="0" />
	<path style="fill:none;stroke:red;stroke-width:1px;stroke-linecap:butt;stroke-linejoin:miter;stroke-opacity:1" d="M 515.153,4 535.356,4 z" id="boundary" inkscape:connector-curvature="0" />
	<path style="fill:none;stroke:red;stroke-width:1px;stroke-linecap:butt;stroke-linejoin:miter;stroke-opacity:1" d="M 535.356,4 555.56,4 z" id="boundary" inkscape:connector-curvature="0" />
	<path style="fill:none;stroke:red;stroke-width:1px;stroke-linecap:butt;stroke-linejoin:miter;stroke-opacity:1" d="M 555.56,4 575.764,4 z" id="boundary" inkscape:connector-curvature="0" />
	<path style="fill:none;stroke:red;stroke-width:1px;stroke-linecap:butt;stroke-linejoin:miter;stroke-opacity:1" d="M 575.764,4 595.967,4 z" id="boundary" inkscape:connector-curvature="0" />
	<path style="fill:none;stroke:red;stroke-width:1px;stroke-linecap:butt;stroke-linejoin:miter;stroke-opacity:1" d="M 595.967,4 616.171,4 z" id="boundary" inkscape:connector-curvature="0" />
	<path style="fill:none;stroke:red;stroke-width:1px;stroke-linecap:butt;stroke-linejoin:miter;stroke-opacity:1" d="M 616.171,4 636.375,4 z" id="boundary" inkscape:connector-curvature="0" />
	<path style="fill:none;stroke:red;stroke-width:1px;stroke-linecap:butt;stroke-linejoin:miter;stroke-opacity:1" d="M 636.375,4 656.578,4 z" id="boundary" inkscape:connector-curvature="0" />
	<path style="fill:none;stroke:red;stroke-width:1px;stroke-linecap:butt;stroke-linejoin:miter;stroke-opacity:1" d="M 656.578,4 676.782,4 z" id="boundary" inkscape:connector-curvature="0" />
	<path style="fill:none;stroke:red;stroke-width:1px;stroke-linecap:butt;stroke-linejoin:miter;stroke-opacity:1" d="M 676.782,4 696.986,4 z" id="boundary" inkscape:connector-curvature="0" />
	<path style="fill:none;stroke:red;stroke-width:1px;stroke-linecap:butt;stroke-linejoin:miter;stroke-opacity:1" d="M 696.986,4 717.189,4 z" id="boundary" inkscape:connector-curvature="0" />
	<path style="fill:none;stroke:red;stroke-width:1px;stroke-linecap:butt;stroke-linejoin:miter;stroke-opacity:1" d="M 717.189,4 737.393,4 z" id="boundary" inkscape:connector-curvature="0" />
	<path style="fill:none;stroke:red;stroke-width:1px;stroke-linecap:butt;stroke-linejoin:miter;stroke-opacity:1" d="M 737.393,4 751.536,20.1629 z" id="boundary" inkscape:connector-curvature="0" />
	<path style="fill:none;stroke:red;stroke-width:1px;stroke-linecap:butt;stroke-linejoin:miter;stroke-opacity:1" d="M 751.536,20.1629 763.658,36.3259 z" id="boundary" inkscape:connector-curvature="0" />
	<path style="fill:none;stroke:red;stroke-width:1px;stroke-linecap:butt;stroke-linejoin:miter;stroke-opacity:1" d="M 763.658,36.3259 767.699,56.5295 z" id="boundary" inkscape:connector-curvature="0" />
	<path style="fill:none;stroke:red;stroke-width:1px;stroke-linecap:butt;stroke-linejoin:miter;stroke-opacity:1" d="M 767.699,56.5295 773.76,76.7332 z" id="boundary" inkscape:connector-curvature="0" />
	<path style="fill:none;stroke:red;stroke-width:1px;stroke-linecap:butt;stroke-linejoin:miter;stroke-opacity:1" d="M 773.76,76.7332 777.8,96.9369 z" id="boundary" inkscape:connector-curvature="0" />
	<path style="fill:none;stroke:red;stroke-width:1px;stroke-linecap:butt;stroke-linejoin:miter;stroke-opacity:1" d="M 777.8,96.9369 783.862,117.141 z" id="boundary" inkscape:connector-curvature="0" />
	<path style="fill:none;stroke:red;stroke-width:1px;stroke-linecap:butt;stroke-linejoin:miter;stroke-opacity:1" d="M 783.862,117.141 793.963,135.324 z" id="boundary" inkscape:connector-curvature="0" />
	<path style="fill:none;stroke:red;stroke-width:1px;stroke-linecap:butt;stroke-linejoin:miter;stroke-opacity:1" d="M 793.963,135.324 814.167,141.385 z" id="boundary" inkscape:connector-curvature="0" />
	<path style="fill:none;stroke:red;stroke-width:1px;stroke-linecap:butt;stroke-linejoin:miter;stroke-opacity:1" d="M 814.167,141.385 832.35,151.487 z" id="boundary" inkscape:connector-curvature="0" />
	<path style="fill:none;stroke:red;stroke-width:1px;stroke-linecap:butt;stroke-linejoin:miter;stroke-opacity:1" d="M 832.35,151.487 842.452,169.67 z" id="boundary" inkscape:connector-curvature="0" />
	<path style="fill:none;stroke:red;stroke-width:1px;stroke-linecap:butt;stroke-linejoin:miter;stroke-opacity:1" d="M 842.452,169.67 850.534,189.874 z" id="boundary" inkscape:connector-curvature="0" />
	<path style="fill:none;stroke:red;stroke-width:1px;stroke-linecap:butt;stroke-linejoin:miter;stroke-opacity:1" d="M 850.534,189.874 860.635,208.057 z" id="boundary" inkscape:connector-curvature="0" />
	<path style="fill:none;stroke:red;stroke-width:1px;stroke-linecap:butt;stroke-linejoin:miter;stroke-opacity:1" d="M 860.635,208.057 874.778,224.22 z" id="boundary" inkscape:connector-curvature="0" />
	<path style="fill:none;stroke:red;stroke-width:1px;stroke-linecap:butt;stroke-linejoin:miter;stroke-opacity:1" d="M 874.778,224.22 894.982,232.301 z" id="boundary" inkscape:connector-curvature="0" />
	<path style="fill:none;stroke:red;stroke-width:1px;stroke-linecap:butt;stroke-linejoin:miter;stroke-opacity:1" d="M 894.982,232.301 905.084,250.485 z" id="boundary" inkscape:connector-curvature="0" />
	<path style="fill:none;stroke:red;stroke-width:1px;stroke-linecap:butt;stroke-linejoin:miter;stroke-opacity:1" d="M 905.084,250.485 925.287,256.546 z" id="boundary" inkscape:connector-curvature="0" />
	<path style="fill:none;stroke:red;stroke-width:1px;stroke-linecap:butt;stroke-linejoin:miter;stroke-opacity:1" d="M 925.287,256.546 945.491,262.607 z" id="boundary" inkscape:connector-curvature="0" />
	<path style="fill:none;stroke:red;stroke-width:1px;stroke-linecap:butt;stroke-linejoin:miter;stroke-opacity:1" d="M 945.491,262.607 959.633,278.77 z" id="boundary" inkscape:connector-curvature="0" />
	<path style="fill:none;stroke:red;stroke-width:1px;stroke-linecap:butt;stroke-linejoin:miter;stroke-opacity:1" d="M 959.633,278.77 975.796,292.912 z" id="boundary" inkscape:connector-curvature="0" />
	<path style="fill:none;stroke:red;stroke-width:1px;stroke-linecap:butt;stroke-linejoin:miter;stroke-opacity:1" d="M 975.796,292.912 983.878,313.116 z" id="boundary" inkscape:connector-curvature="0" />
	<path style="fill:none;stroke:red;stroke-width:1px;stroke-linecap:butt;stroke-linejoin:miter;stroke-opacity:1" d="M 983.878,313.116 985.898,333.32 z" id="boundary" inkscape:connector-curvature="0" />
	<path style="fill:none;stroke:red;stroke-width:1px;stroke-linecap:butt;stroke-linejoin:miter;stroke-opacity:1" d="M 985.898,333.32 996,351.503 z" id="boundary" inkscape:connector-curvature="0" />
	<path style="fill:none;stroke:red;stroke-width:1px;stroke-linecap:butt;stroke-linejoin:miter;stroke-opacity:1" d="M 996,351.503 996,371.707 z" id="boundary" inkscape:connector-curvature="0" />
	<circle cx="4" cy="252.505" r="4" fill="#0" id="circle0"/>
	<circle cx="4" cy="272.709" r="4" fill="#0" id="circle1"/>
	<circle cx="14.1018" cy="232.301" r="4" fill="#0" id="circle2"/>
	<circle cx="24.2037" cy="278.77" r="4" fill="#0" id="circle3"/>
	<circle cx="24.2037" cy="383.829" r="4" fill="#0" id="circle4"/>
	<circle cx="24.2037" cy="404.033" r="4" fill="#0" id="circle5"/>
	<circle cx="24.2037" cy="424.236" r="4" fill="#0" id="circle6"/>
	<circle cx="24.2037" cy="444.44" r="4" fill="#0" id="circle7"/>
	<circle cx="24.2037" cy="464.644" r="4" fill="#0" id="circle8"/>
	<circle cx="30.2648" cy="216.138" r="4" fill="#0" id="circle9"/>
	<circle cx="34.3055" cy="482.827" r="4" fill="#0" id="circle10"/>
	<circle cx="40.3666" cy="367.666" r="4" fill="#0" id="circle11"/>
	<circle cx="44.4073" cy="278.77" r="4" fill="#0" id="circle12"/>
	<circle cx="48.4481" cy="206.037" r="4" fill="#0" id="circle13"/>
	<circle cx="48.4481" cy="498.99" r="4" fill="#0" id="circle14"/>
	<circle cx="58.5499" cy="357.564" r="4" fill="#0" id="circle15"/>
	<circle cx="64.611" cy="278.77" r="4" fill="#0" id="circle16"/>
	<circle cx="64.611" cy="511.112" r="4" fill="#0" id="circle17"/>
	<circle cx="66.6314" cy="195.935" r="4" fill="#0" id="circle18"/>
	<circle cx="76.7332" cy="527.275" r="4" fill="#0" id="circle19"/>
	<circle cx="78.7536" cy="349.483" r="4" fill="#0" id="circle20"/>
	<circle cx="84.8147" cy="278.77" r="4" fill="#0" id="circle21"/>
	<circle cx="86.835" cy="189.874" r="4" fill="#0" id="circle22"/>
	<circle cx="96.9369" cy="531.316" r="4" fill="#0" id="circle23"/>
	<circle cx="98.9572" cy="347.462" r="4" fill="#0" id="circle24"/>
	<circle cx="105.018" cy="278.77" r="4" fill="#0" id="circle25"/>
	<circle cx="107.039" cy="185.833" r="4" fill="#0" id="circle26"/>
	<circle cx="117.141" cy="531.316" r="4" fill="#0" id="circle27"/>
	<circle cx="119.161" cy="347.462" r="4" fill="#0" id="circle28"/>
	<circle cx="125.222" cy="278.77" r="4" fill="#0" id="circle29"/>
	<circle cx="127.242" cy="179.772" r="4" fill="#0" id="circle30"/>
	<circle cx="137.344" cy="337.36" r="4" fill="#0" id="circle31"/>
	<circle cx="137.344" cy="531.316" r="4" fill="#0" id="circle32"/>
	<circle cx="145.426" cy="278.77" r="4" fill="#0" id="circle33"/>
	<circle cx="147.446" cy="169.67" r="4" fill="#0" id="circle34"/>
	<circle cx="157.548" cy="337.36" r="4" fill="#0" id="circle35"/>
	<circle cx="157.548" cy="531.316" r="4" fill="#0" id="circle36"/>
	<circle cx="163.609" cy="288.872" r="4" fill="#0" id="circle37"/>
	<circle cx="165.629" cy="309.075" r="4" fill="#0" id="circle38"/>
	<circle cx="167.65" cy="165.629" r="4" fill="#0" id="circle39"/>
	<circle cx="177.752" cy="531.316" r="4" fill="#0" id="circle40"/>
	<circle cx="187.853" cy="165.629" r="4" fill="#0" id="circle41"/>
	<circle cx="197.955" cy="531.316" r="4" fill="#0" id="circle42"/>
	<circle cx="206.037" cy="155.527" r="4" fill="#0" id="circle43"/>
	<circle cx="218.159" cy="531.316" r="4" fill="#0" id="circle44"/>
	<circle cx="226.24" cy="151.487" r="4" fill="#0" id="circle45"/>
	<circle cx="238.363" cy="531.316" r="4" fill="#0" id="circle46"/>
	<circle cx="246.444" cy="145.426" r="4" fill="#0" id="circle47"/>
	<circle cx="258.566" cy="531.316" r="4" fill="#0" id="circle48"/>
	<circle cx="266.648" cy="145.426" r="4" fill="#0" id="circle49"/>
	<circle cx="274.729" cy="517.173" r="4" fill="#0" id="circle50"/>
	<circle cx="286.851" cy="145.426" r="4" fill="#0" id="circle51"/>
	<circle cx="288.872" cy="490.908" r="4" fill="#0" id="circle52"/>
	<circle cx="307.055" cy="145.426" r="4" fill="#0" id="circle53"/>
	<circle cx="309.075" cy="490.908" r="4" fill="#0" id="circle54"/>
	<circle cx="327.259" cy="145.426" r="4" fill="#0" id="circle55"/>
	<circle cx="329.279" cy="490.908" r="4" fill="#0" id="circle56"/>
	<circle cx="347.462" cy="145.426" r="4" fill="#0" id="circle57"/>
	<circle cx="349.483" cy="490.908" r="4" fill="#0" id="circle58"/>
	<circle cx="365.646" cy="135.324" r="4" fill="#0" id="circle59"/>
	<circle cx="369.686" cy="490.908" r="4" fill="#0" id="circle60"/>
	<circle cx="385.849" cy="135.324" r="4" fill="#0" id="circle61"/>
	<circle cx="389.89" cy="494.949" r="4" fill="#0" id="circle62"/>
	<circle cx="406.053" cy="135.324" r="4" fill="#0" id="circle63"/>
	<circle cx="410.094" cy="501.01" r="4" fill="#0" id="circle64"/>
	<circle cx="426.257" cy="135.324" r="4" fill="#0" id="circle65"/>
	<circle cx="430.297" cy="501.01" r="4" fill="#0" id="circle66"/>
	<circle cx="444.44" cy="125.222" r="4" fill="#0" id="circle67"/>
	<circle cx="450.501" cy="501.01" r="4" fill="#0" id="circle68"/>
	<circle cx="458.582" cy="70.6721" r="4" fill="#0" id="circle69"/>
	<circle cx="458.582" cy="90.8758" r="4" fill="#0" id="circle70"/>
	<circle cx="468.684" cy="50.4684" r="4" fill="#0" id="circle71"/>
	<circle cx="470.705" cy="501.01" r="4" fill="#0" id="circle72"/>
	<circle cx="478.786" cy="30.2648" r="4" fill="#0" id="circle73"/>
	<circle cx="490.908" cy="501.01" r="4" fill="#0" id="circle74"/>
	<circle cx="494.949" cy="14.1018" r="4" fill="#0" id="circle75"/>
	<circle cx="509.092" cy="511.112" r="4" fill="#0" id="circle76"/>
	<circle cx="515.153" cy="4" r="4" fill="#0" id="circle77"/>
	<circle cx="515.153" cy="531.316" r="4" fill="#0" id="circle78"/>
	<circle cx="533.336" cy="541.418" r="4" fill="#0" id="circle79"/>
	<circle cx="535.356" cy="4" r="4" fill="#0" id="circle80"/>
	<circle cx="553.54" cy="541.418" r="4" fill="#0" id="circle81"/>
	<circle cx="555.56" cy="4" r="4" fill="#0" id="circle82"/>
	<circle cx="573.743" cy="541.418" r="4" fill="#0" id="circle83"/>
	<circle cx="575.764" cy="4" r="4" fill="#0" id="circle84"/>
	<circle cx="591.927" cy="531.316" r="4" fill="#0" id="circle85"/>
	<circle cx="595.967" cy="4" r="4" fill="#0" id="circle86"/>
	<circle cx="612.13" cy="531.316" r="4" fill="#0" id="circle87"/>
	<circle cx="616.171" cy="4" r="4" fill="#0" id="circle88"/>
	<circle cx="632.334" cy="521.214" r="4" fill="#0" id="circle89"/>
	<circle cx="636.375" cy="4" r="4" fill="#0" id="circle90"/>
	<circle cx="648.497" cy="507.071" r="4" fill="#0" id="circle91"/>
	<circle cx="652.538" cy="480.807" r="4" fill="#0" id="circle92"/>
	<circle cx="656.578" cy="4" r="4" fill="#0" id="circle93"/>
	<circle cx="662.64" cy="460.603" r="4" fill="#0" id="circle94"/>
	<circle cx="676.782" cy="4" r="4" fill="#0" id="circle95"/>
	<circle cx="682.843" cy="460.603" r="4" fill="#0" id="circle96"/>
	<circle cx="696.986" cy="4" r="4" fill="#0" id="circle97"/>
	<circle cx="703.047" cy="450.501" r="4" fill="#0" id="circle98"/>
	<circle cx="717.189" cy="4" r="4" fill="#0" id="circle99"/>
	<circle cx="723.251" cy="450.501" r="4" fill="#0" id="circle100"/>
	<circle cx="737.393" cy="4" r="4" fill="#0" id="circle101"/>
	<circle cx="743.454" cy="450.501" r="4" fill="#0" id="circle102"/>
	<circle cx="751.536" cy="20.1629" r="4" fill="#0" id="circle103"/>
	<circle cx="763.658" cy="36.3259" r="4" fill="#0" id="circle104"/>
	<circle cx="763.658" cy="450.501" r="4" fill="#0" id="circle105"/>
	<circle cx="767.699" cy="56.5295" r="4" fill="#0" id="circle106"/>
	<circle cx="773.76" cy="76.7332" r="4" fill="#0" id="circle107"/>
	<circle cx="777.8" cy="96.9369" r="4" fill="#0" id="circle108"/>
	<circle cx="783.862" cy="117.141" r="4" fill="#0" id="circle109"/>
	<circle cx="783.862" cy="450.501" r="4" fill="#0" id="circle110"/>
	<circle cx="793.963" cy="135.324" r="4" fill="#0" id="circle111"/>
	<circle cx="804.065" cy="450.501" r="4" fill="#0" id="circle112"/>
	<circle cx="814.167" cy="141.385" r="4" fill="#0" id="circle113"/>
	<circle cx="824.269" cy="450.501" r="4" fill="#0" id="circle114"/>
	<circle cx="832.35" cy="151.487" r="4" fill="#0" id="circle115"/>
	<circle cx="842.452" cy="169.67" r="4" fill="#0" id="circle116"/>
	<circle cx="844.473" cy="454.542" r="4" fill="#0" id="circle117"/>
	<circle cx="850.534" cy="189.874" r="4" fill="#0" id="circle118"/>
	<circle cx="852.554" cy="474.745" r="4" fill="#0" id="circle119"/>
	<circle cx="860.635" cy="208.057" r="4" fill="#0" id="circle120"/>
	<circle cx="862.656" cy="492.929" r="4" fill="#0" id="circle121"/>
	<circle cx="874.778" cy="224.22" r="4" fill="#0" id="circle122"/>
	<circle cx="876.798" cy="509.092" r="4" fill="#0" id="circle123"/>
	<circle cx="894.982" cy="232.301" r="4" fill="#0" id="circle124"/>
	<circle cx="897.002" cy="501.01" r="4" fill="#0" id="circle125"/>
	<circle cx="905.084" cy="250.485" r="4" fill="#0" id="circle126"/>
	<circle cx="915.185" cy="490.908" r="4" fill="#0" id="circle127"/>
	<circle cx="925.287" cy="256.546" r="4" fill="#0" id="circle128"/>
	<circle cx="935.389" cy="480.807" r="4" fill="#0" id="circle129"/>
	<circle cx="945.491" cy="262.607" r="4" fill="#0" id="circle130"/>
	<circle cx="951.552" cy="466.664" r="4" fill="#0" id="circle131"/>
	<circle cx="955.593" cy="430.297" r="4" fill="#0" id="circle132"/>
	<circle cx="959.633" cy="278.77" r="4" fill="#0" id="circle133"/>
	<circle cx="975.796" cy="292.912" r="4" fill="#0" id="circle134"/>
	<circle cx="975.796" cy="430.297" r="4" fill="#0" id="circle135"/>
	<circle cx="983.878" cy="313.116" r="4" fill="#0" id="circle136"/>
	<circle cx="985.898" cy="333.32" r="4" fill="#0" id="circle137"/>
	<circle cx="991.959" cy="416.155" r="4" fill="#0" id="circle138"/>
	<circle cx="996" cy="351.503" r="4" fill="#0" id="circle139"/>
	<circle cx="996" cy="371.707" r="4" fill="#0" id="circle140"/>
	<circle cx="996" cy="391.91" r="4" fill="#0" id="circle141"/>
	</g>
</svg>