<?xml version="1.0" encoding="UTF-8" standalone="no"?>
<!-- Created with CurveBenchmark -->
<svg
	xmlns:dc="http://purl.org/dc/elements/1.1/"
	xmlns:cc="http://creativecommons.org/ns#"
	xmlns:rdf="http://www.w3.org/1999/02/22-rdf-syntax-ns#"
	xmlns:svg="http://www.w3.org/2000/svg"
	xmlns="http://www.w3.org/2000/svg"
	xmlns:sodipodi="http://sodipodi.sourceforge.net/DTD/sodipodi-0.dtd"
	xmlns:inkscape="http://www.inkscape.org/namespaces/inkscape"
	width="1000"
	height="1000"
	id="svg2"
	version="1.1"
	sodipodi:docname="manifold/connect2d-fish035.png.txt">
<defs
	id="defs4" />
<metadata
	id="metadata7">
	<rdf:RDF>
		<cc:Work
			rdf:about="">
			<dc:format>image/svg+xml</dc:format>
			<dc:type
				rdf:resource="http://purl.org/dc/dcmitype/StillImage" />
			<dc:title></dc:title>
		</cc:Work>
	</rdf:RDF>
</metadata>
<g
	inkscape:label="Layer 1"
	inkscape:groupmode="layer"
	id="layer1">
	<path style="fill:none;stroke:red;stroke-width:1px;stroke-linecap:butt;stroke-linejoin:miter;stroke-opacity:1" d="M 996,389.595 963.043,399.482 z" id="boundary" inkscape:connector-curvature="0" />
	<path style="fill:none;stroke:red;stroke-width:1px;stroke-linecap:butt;stroke-linejoin:miter;stroke-opacity:1" d="M 963.043,399.482 930.086,392.89 z" id="boundary" inkscape:connector-curvature="0" />
	<path style="fill:none;stroke:red;stroke-width:1px;stroke-linecap:butt;stroke-linejoin:miter;stroke-opacity:1" d="M 930.086,392.89 897.13,379.708 z" id="boundary" inkscape:connector-curvature="0" />
	<path style="fill:none;stroke:red;stroke-width:1px;stroke-linecap:butt;stroke-linejoin:miter;stroke-opacity:1" d="M 897.13,379.708 870.764,359.934 z" id="boundary" inkscape:connector-curvature="0" />
	<path style="fill:none;stroke:red;stroke-width:1px;stroke-linecap:butt;stroke-linejoin:miter;stroke-opacity:1" d="M 870.764,359.934 844.399,340.159 z" id="boundary" inkscape:connector-curvature="0" />
	<path style="fill:none;stroke:red;stroke-width:1px;stroke-linecap:butt;stroke-linejoin:miter;stroke-opacity:1" d="M 844.399,340.159 814.738,323.681 z" id="boundary" inkscape:connector-curvature="0" />
	<path style="fill:none;stroke:red;stroke-width:1px;stroke-linecap:butt;stroke-linejoin:miter;stroke-opacity:1" d="M 814.738,323.681 781.781,320.385 z" id="boundary" inkscape:connector-curvature="0" />
	<path style="fill:none;stroke:red;stroke-width:1px;stroke-linecap:butt;stroke-linejoin:miter;stroke-opacity:1" d="M 781.781,320.385 771.894,383.003 z" id="boundary" inkscape:connector-curvature="0" />
	<path style="fill:none;stroke:red;stroke-width:1px;stroke-linecap:butt;stroke-linejoin:miter;stroke-opacity:1" d="M 771.894,383.003 758.711,415.96 z" id="boundary" inkscape:connector-curvature="0" />
	<path style="fill:none;stroke:red;stroke-width:1px;stroke-linecap:butt;stroke-linejoin:miter;stroke-opacity:1" d="M 758.711,415.96 725.754,432.439 z" id="boundary" inkscape:connector-curvature="0" />
	<path style="fill:none;stroke:red;stroke-width:1px;stroke-linecap:butt;stroke-linejoin:miter;stroke-opacity:1" d="M 725.754,432.439 692.797,432.439 z" id="boundary" inkscape:connector-curvature="0" />
	<path style="fill:none;stroke:red;stroke-width:1px;stroke-linecap:butt;stroke-linejoin:miter;stroke-opacity:1" d="M 692.797,432.439 659.841,419.256 z" id="boundary" inkscape:connector-curvature="0" />
	<path style="fill:none;stroke:red;stroke-width:1px;stroke-linecap:butt;stroke-linejoin:miter;stroke-opacity:1" d="M 659.841,419.256 626.884,406.073 z" id="boundary" inkscape:connector-curvature="0" />
	<path style="fill:none;stroke:red;stroke-width:1px;stroke-linecap:butt;stroke-linejoin:miter;stroke-opacity:1" d="M 626.884,406.073 593.927,409.369 z" id="boundary" inkscape:connector-curvature="0" />
	<path style="fill:none;stroke:red;stroke-width:1px;stroke-linecap:butt;stroke-linejoin:miter;stroke-opacity:1" d="M 593.927,409.369 560.97,412.664 z" id="boundary" inkscape:connector-curvature="0" />
	<path style="fill:none;stroke:red;stroke-width:1px;stroke-linecap:butt;stroke-linejoin:miter;stroke-opacity:1" d="M 560.97,412.664 528.013,412.664 z" id="boundary" inkscape:connector-curvature="0" />
	<path style="fill:none;stroke:red;stroke-width:1px;stroke-linecap:butt;stroke-linejoin:miter;stroke-opacity:1" d="M 528.013,412.664 495.056,412.664 z" id="boundary" inkscape:connector-curvature="0" />
	<path style="fill:none;stroke:red;stroke-width:1px;stroke-linecap:butt;stroke-linejoin:miter;stroke-opacity:1" d="M 495.056,412.664 462.1,422.551 z" id="boundary" inkscape:connector-curvature="0" />
	<path style="fill:none;stroke:red;stroke-width:1px;stroke-linecap:butt;stroke-linejoin:miter;stroke-opacity:1" d="M 462.1,422.551 475.282,455.508 z" id="boundary" inkscape:connector-curvature="0" />
	<path style="fill:none;stroke:red;stroke-width:1px;stroke-linecap:butt;stroke-linejoin:miter;stroke-opacity:1" d="M 475.282,455.508 481.874,488.465 z" id="boundary" inkscape:connector-curvature="0" />
	<path style="fill:none;stroke:red;stroke-width:1px;stroke-linecap:butt;stroke-linejoin:miter;stroke-opacity:1" d="M 481.874,488.465 475.282,528.013 z" id="boundary" inkscape:connector-curvature="0" />
	<path style="fill:none;stroke:red;stroke-width:1px;stroke-linecap:butt;stroke-linejoin:miter;stroke-opacity:1" d="M 475.282,528.013 442.326,541.196 z" id="boundary" inkscape:connector-curvature="0" />
	<path style="fill:none;stroke:red;stroke-width:1px;stroke-linecap:butt;stroke-linejoin:miter;stroke-opacity:1" d="M 442.326,541.196 412.664,524.718 z" id="boundary" inkscape:connector-curvature="0" />
	<path style="fill:none;stroke:red;stroke-width:1px;stroke-linecap:butt;stroke-linejoin:miter;stroke-opacity:1" d="M 412.664,524.718 383.003,508.239 z" id="boundary" inkscape:connector-curvature="0" />
	<path style="fill:none;stroke:red;stroke-width:1px;stroke-linecap:butt;stroke-linejoin:miter;stroke-opacity:1" d="M 383.003,508.239 363.229,534.605 z" id="boundary" inkscape:connector-curvature="0" />
	<path style="fill:none;stroke:red;stroke-width:1px;stroke-linecap:butt;stroke-linejoin:miter;stroke-opacity:1" d="M 363.229,534.605 330.272,537.9 z" id="boundary" inkscape:connector-curvature="0" />
	<path style="fill:none;stroke:red;stroke-width:1px;stroke-linecap:butt;stroke-linejoin:miter;stroke-opacity:1" d="M 330.272,537.9 303.907,518.126 z" id="boundary" inkscape:connector-curvature="0" />
	<path style="fill:none;stroke:red;stroke-width:1px;stroke-linecap:butt;stroke-linejoin:miter;stroke-opacity:1" d="M 303.907,518.126 287.429,488.465 z" id="boundary" inkscape:connector-curvature="0" />
	<path style="fill:none;stroke:red;stroke-width:1px;stroke-linecap:butt;stroke-linejoin:miter;stroke-opacity:1" d="M 287.429,488.465 274.246,455.508 z" id="boundary" inkscape:connector-curvature="0" />
	<path style="fill:none;stroke:red;stroke-width:1px;stroke-linecap:butt;stroke-linejoin:miter;stroke-opacity:1" d="M 274.246,455.508 257.767,425.847 z" id="boundary" inkscape:connector-curvature="0" />
	<path style="fill:none;stroke:red;stroke-width:1px;stroke-linecap:butt;stroke-linejoin:miter;stroke-opacity:1" d="M 257.767,425.847 224.811,419.256 z" id="boundary" inkscape:connector-curvature="0" />
	<path style="fill:none;stroke:red;stroke-width:1px;stroke-linecap:butt;stroke-linejoin:miter;stroke-opacity:1" d="M 224.811,419.256 195.15,402.777 z" id="boundary" inkscape:connector-curvature="0" />
	<path style="fill:none;stroke:red;stroke-width:1px;stroke-linecap:butt;stroke-linejoin:miter;stroke-opacity:1" d="M 195.15,402.777 165.488,386.299 z" id="boundary" inkscape:connector-curvature="0" />
	<path style="fill:none;stroke:red;stroke-width:1px;stroke-linecap:butt;stroke-linejoin:miter;stroke-opacity:1" d="M 165.488,386.299 132.532,383.003 z" id="boundary" inkscape:connector-curvature="0" />
	<path style="fill:none;stroke:red;stroke-width:1px;stroke-linecap:butt;stroke-linejoin:miter;stroke-opacity:1" d="M 132.532,383.003 102.87,366.525 z" id="boundary" inkscape:connector-curvature="0" />
	<path style="fill:none;stroke:red;stroke-width:1px;stroke-linecap:butt;stroke-linejoin:miter;stroke-opacity:1" d="M 102.87,366.525 73.2093,350.047 z" id="boundary" inkscape:connector-curvature="0" />
	<path style="fill:none;stroke:red;stroke-width:1px;stroke-linecap:butt;stroke-linejoin:miter;stroke-opacity:1" d="M 73.2093,350.047 53.4352,323.681 z" id="boundary" inkscape:connector-curvature="0" />
	<path style="fill:none;stroke:red;stroke-width:1px;stroke-linecap:butt;stroke-linejoin:miter;stroke-opacity:1" d="M 53.4352,323.681 30.3654,297.316 z" id="boundary" inkscape:connector-curvature="0" />
	<path style="fill:none;stroke:red;stroke-width:1px;stroke-linecap:butt;stroke-linejoin:miter;stroke-opacity:1" d="M 30.3654,297.316 10.5914,270.95 z" id="boundary" inkscape:connector-curvature="0" />
	<path style="fill:none;stroke:red;stroke-width:1px;stroke-linecap:butt;stroke-linejoin:miter;stroke-opacity:1" d="M 10.5914,270.95 4,237.993 z" id="boundary" inkscape:connector-curvature="0" />
	<path style="fill:none;stroke:red;stroke-width:1px;stroke-linecap:butt;stroke-linejoin:miter;stroke-opacity:1" d="M 4,237.993 33.6611,221.515 z" id="boundary" inkscape:connector-curvature="0" />
	<path style="fill:none;stroke:red;stroke-width:1px;stroke-linecap:butt;stroke-linejoin:miter;stroke-opacity:1" d="M 33.6611,221.515 60.0266,201.741 z" id="boundary" inkscape:connector-curvature="0" />
	<path style="fill:none;stroke:red;stroke-width:1px;stroke-linecap:butt;stroke-linejoin:miter;stroke-opacity:1" d="M 60.0266,201.741 89.6877,185.262 z" id="boundary" inkscape:connector-curvature="0" />
	<path style="fill:none;stroke:red;stroke-width:1px;stroke-linecap:butt;stroke-linejoin:miter;stroke-opacity:1" d="M 89.6877,185.262 116.053,165.488 z" id="boundary" inkscape:connector-curvature="0" />
	<path style="fill:none;stroke:red;stroke-width:1px;stroke-linecap:butt;stroke-linejoin:miter;stroke-opacity:1" d="M 116.053,165.488 149.01,158.897 z" id="boundary" inkscape:connector-curvature="0" />
	<path style="fill:none;stroke:red;stroke-width:1px;stroke-linecap:butt;stroke-linejoin:miter;stroke-opacity:1" d="M 149.01,158.897 181.967,145.714 z" id="boundary" inkscape:connector-curvature="0" />
	<path style="fill:none;stroke:red;stroke-width:1px;stroke-linecap:butt;stroke-linejoin:miter;stroke-opacity:1" d="M 181.967,145.714 214.924,132.532 z" id="boundary" inkscape:connector-curvature="0" />
	<path style="fill:none;stroke:red;stroke-width:1px;stroke-linecap:butt;stroke-linejoin:miter;stroke-opacity:1" d="M 214.924,132.532 247.88,119.349 z" id="boundary" inkscape:connector-curvature="0" />
	<path style="fill:none;stroke:red;stroke-width:1px;stroke-linecap:butt;stroke-linejoin:miter;stroke-opacity:1" d="M 247.88,119.349 280.837,112.757 z" id="boundary" inkscape:connector-curvature="0" />
	<path style="fill:none;stroke:red;stroke-width:1px;stroke-linecap:butt;stroke-linejoin:miter;stroke-opacity:1" d="M 280.837,112.757 300.611,86.392 z" id="boundary" inkscape:connector-curvature="0" />
	<path style="fill:none;stroke:red;stroke-width:1px;stroke-linecap:butt;stroke-linejoin:miter;stroke-opacity:1" d="M 300.611,86.392 300.611,53.4352 z" id="boundary" inkscape:connector-curvature="0" />
	<path style="fill:none;stroke:red;stroke-width:1px;stroke-linecap:butt;stroke-linejoin:miter;stroke-opacity:1" d="M 300.611,53.4352 330.272,36.9568 z" id="boundary" inkscape:connector-curvature="0" />
	<path style="fill:none;stroke:red;stroke-width:1px;stroke-linecap:butt;stroke-linejoin:miter;stroke-opacity:1" d="M 330.272,36.9568 343.455,4 z" id="boundary" inkscape:connector-curvature="0" />
	<path style="fill:none;stroke:red;stroke-width:1px;stroke-linecap:butt;stroke-linejoin:miter;stroke-opacity:1" d="M 343.455,4 376.412,10.5914 z" id="boundary" inkscape:connector-curvature="0" />
	<path style="fill:none;stroke:red;stroke-width:1px;stroke-linecap:butt;stroke-linejoin:miter;stroke-opacity:1" d="M 376.412,10.5914 409.369,20.4784 z" id="boundary" inkscape:connector-curvature="0" />
	<path style="fill:none;stroke:red;stroke-width:1px;stroke-linecap:butt;stroke-linejoin:miter;stroke-opacity:1" d="M 409.369,20.4784 442.326,27.0698 z" id="boundary" inkscape:connector-curvature="0" />
	<path style="fill:none;stroke:red;stroke-width:1px;stroke-linecap:butt;stroke-linejoin:miter;stroke-opacity:1" d="M 442.326,27.0698 475.282,40.2525 z" id="boundary" inkscape:connector-curvature="0" />
	<path style="fill:none;stroke:red;stroke-width:1px;stroke-linecap:butt;stroke-linejoin:miter;stroke-opacity:1" d="M 475.282,40.2525 508.239,53.4352 z" id="boundary" inkscape:connector-curvature="0" />
	<path style="fill:none;stroke:red;stroke-width:1px;stroke-linecap:butt;stroke-linejoin:miter;stroke-opacity:1" d="M 508.239,53.4352 534.605,73.2093 z" id="boundary" inkscape:connector-curvature="0" />
	<path style="fill:none;stroke:red;stroke-width:1px;stroke-linecap:butt;stroke-linejoin:miter;stroke-opacity:1" d="M 534.605,73.2093 560.97,92.9834 z" id="boundary" inkscape:connector-curvature="0" />
	<path style="fill:none;stroke:red;stroke-width:1px;stroke-linecap:butt;stroke-linejoin:miter;stroke-opacity:1" d="M 560.97,92.9834 584.04,119.349 z" id="boundary" inkscape:connector-curvature="0" />
	<path style="fill:none;stroke:red;stroke-width:1px;stroke-linecap:butt;stroke-linejoin:miter;stroke-opacity:1" d="M 584.04,119.349 613.701,102.87 z" id="boundary" inkscape:connector-curvature="0" />
	<path style="fill:none;stroke:red;stroke-width:1px;stroke-linecap:butt;stroke-linejoin:miter;stroke-opacity:1" d="M 613.701,102.87 643.362,86.392 z" id="boundary" inkscape:connector-curvature="0" />
	<path style="fill:none;stroke:red;stroke-width:1px;stroke-linecap:butt;stroke-linejoin:miter;stroke-opacity:1" d="M 643.362,86.392 676.319,86.392 z" id="boundary" inkscape:connector-curvature="0" />
	<path style="fill:none;stroke:red;stroke-width:1px;stroke-linecap:butt;stroke-linejoin:miter;stroke-opacity:1" d="M 676.319,86.392 705.98,102.87 z" id="boundary" inkscape:connector-curvature="0" />
	<path style="fill:none;stroke:red;stroke-width:1px;stroke-linecap:butt;stroke-linejoin:miter;stroke-opacity:1" d="M 705.98,102.87 732.346,125.94 z" id="boundary" inkscape:connector-curvature="0" />
	<path style="fill:none;stroke:red;stroke-width:1px;stroke-linecap:butt;stroke-linejoin:miter;stroke-opacity:1" d="M 732.346,125.94 752.12,152.306 z" id="boundary" inkscape:connector-curvature="0" />
	<path style="fill:none;stroke:red;stroke-width:1px;stroke-linecap:butt;stroke-linejoin:miter;stroke-opacity:1" d="M 752.12,152.306 771.894,178.671 z" id="boundary" inkscape:connector-curvature="0" />
	<path style="fill:none;stroke:red;stroke-width:1px;stroke-linecap:butt;stroke-linejoin:miter;stroke-opacity:1" d="M 771.894,178.671 791.668,205.037 z" id="boundary" inkscape:connector-curvature="0" />
	<path style="fill:none;stroke:red;stroke-width:1px;stroke-linecap:butt;stroke-linejoin:miter;stroke-opacity:1" d="M 791.668,205.037 824.625,205.037 z" id="boundary" inkscape:connector-curvature="0" />
	<path style="fill:none;stroke:red;stroke-width:1px;stroke-linecap:butt;stroke-linejoin:miter;stroke-opacity:1" d="M 824.625,205.037 854.286,185.262 z" id="boundary" inkscape:connector-curvature="0" />
	<path style="fill:none;stroke:red;stroke-width:1px;stroke-linecap:butt;stroke-linejoin:miter;stroke-opacity:1" d="M 854.286,185.262 887.243,172.08 z" id="boundary" inkscape:connector-curvature="0" />
	<path style="fill:none;stroke:red;stroke-width:1px;stroke-linecap:butt;stroke-linejoin:miter;stroke-opacity:1" d="M 887.243,172.08 916.904,155.601 z" id="boundary" inkscape:connector-curvature="0" />
	<path style="fill:none;stroke:red;stroke-width:1px;stroke-linecap:butt;stroke-linejoin:miter;stroke-opacity:1" d="M 916.904,155.601 949.86,145.714 z" id="boundary" inkscape:connector-curvature="0" />
	<path style="fill:none;stroke:red;stroke-width:1px;stroke-linecap:butt;stroke-linejoin:miter;stroke-opacity:1" d="M 949.86,145.714 982.817,139.123 z" id="boundary" inkscape:connector-curvature="0" />
	<path style="fill:none;stroke:red;stroke-width:1px;stroke-linecap:butt;stroke-linejoin:miter;stroke-opacity:1" d="M 982.817,139.123 989.409,172.08 z" id="boundary" inkscape:connector-curvature="0" />
	<path style="fill:none;stroke:red;stroke-width:1px;stroke-linecap:butt;stroke-linejoin:miter;stroke-opacity:1" d="M 989.409,172.08 976.226,224.811 z" id="boundary" inkscape:connector-curvature="0" />
	<path style="fill:none;stroke:red;stroke-width:1px;stroke-linecap:butt;stroke-linejoin:miter;stroke-opacity:1" d="M 976.226,224.811 976.226,257.767 z" id="boundary" inkscape:connector-curvature="0" />
	<path style="fill:none;stroke:red;stroke-width:1px;stroke-linecap:butt;stroke-linejoin:miter;stroke-opacity:1" d="M 976.226,257.767 976.226,290.724 z" id="boundary" inkscape:connector-curvature="0" />
	<path style="fill:none;stroke:red;stroke-width:1px;stroke-linecap:butt;stroke-linejoin:miter;stroke-opacity:1" d="M 976.226,290.724 982.817,323.681 z" id="boundary" inkscape:connector-curvature="0" />
	<path style="fill:none;stroke:red;stroke-width:1px;stroke-linecap:butt;stroke-linejoin:miter;stroke-opacity:1" d="M 982.817,323.681 989.409,356.638 z" id="boundary" inkscape:connector-curvature="0" />
	<path style="fill:none;stroke:red;stroke-width:1px;stroke-linecap:butt;stroke-linejoin:miter;stroke-opacity:1" d="M 989.409,356.638 996,389.595 z" id="boundary" inkscape:connector-curvature="0" />
	<circle cx="4" cy="237.993" r="4" fill="#0" id="circle0"/>
	<circle cx="10.5914" cy="270.95" r="4" fill="#0" id="circle1"/>
	<circle cx="30.3654" cy="297.316" r="4" fill="#0" id="circle2"/>
	<circle cx="33.6611" cy="221.515" r="4" fill="#0" id="circle3"/>
	<circle cx="53.4352" cy="323.681" r="4" fill="#0" id="circle4"/>
	<circle cx="60.0266" cy="201.741" r="4" fill="#0" id="circle5"/>
	<circle cx="73.2093" cy="350.047" r="4" fill="#0" id="circle6"/>
	<circle cx="89.6877" cy="185.262" r="4" fill="#0" id="circle7"/>
	<circle cx="102.87" cy="366.525" r="4" fill="#0" id="circle8"/>
	<circle cx="116.053" cy="165.488" r="4" fill="#0" id="circle9"/>
	<circle cx="132.532" cy="383.003" r="4" fill="#0" id="circle10"/>
	<circle cx="149.01" cy="158.897" r="4" fill="#0" id="circle11"/>
	<circle cx="165.488" cy="386.299" r="4" fill="#0" id="circle12"/>
	<circle cx="181.967" cy="145.714" r="4" fill="#0" id="circle13"/>
	<circle cx="195.15" cy="402.777" r="4" fill="#0" id="circle14"/>
	<circle cx="214.924" cy="132.532" r="4" fill="#0" id="circle15"/>
	<circle cx="224.811" cy="419.256" r="4" fill="#0" id="circle16"/>
	<circle cx="247.88" cy="119.349" r="4" fill="#0" id="circle17"/>
	<circle cx="257.767" cy="425.847" r="4" fill="#0" id="circle18"/>
	<circle cx="274.246" cy="455.508" r="4" fill="#0" id="circle19"/>
	<circle cx="280.837" cy="112.757" r="4" fill="#0" id="circle20"/>
	<circle cx="287.429" cy="488.465" r="4" fill="#0" id="circle21"/>
	<circle cx="300.611" cy="53.4352" r="4" fill="#0" id="circle22"/>
	<circle cx="300.611" cy="86.392" r="4" fill="#0" id="circle23"/>
	<circle cx="303.907" cy="518.126" r="4" fill="#0" id="circle24"/>
	<circle cx="330.272" cy="36.9568" r="4" fill="#0" id="circle25"/>
	<circle cx="330.272" cy="537.9" r="4" fill="#0" id="circle26"/>
	<circle cx="343.455" cy="4" r="4" fill="#0" id="circle27"/>
	<circle cx="363.229" cy="534.605" r="4" fill="#0" id="circle28"/>
	<circle cx="376.412" cy="10.5914" r="4" fill="#0" id="circle29"/>
	<circle cx="383.003" cy="508.239" r="4" fill="#0" id="circle30"/>
	<circle cx="409.369" cy="20.4784" r="4" fill="#0" id="circle31"/>
	<circle cx="412.664" cy="524.718" r="4" fill="#0" id="circle32"/>
	<circle cx="442.326" cy="27.0698" r="4" fill="#0" id="circle33"/>
	<circle cx="442.326" cy="541.196" r="4" fill="#0" id="circle34"/>
	<circle cx="462.1" cy="422.551" r="4" fill="#0" id="circle35"/>
	<circle cx="475.282" cy="40.2525" r="4" fill="#0" id="circle36"/>
	<circle cx="475.282" cy="455.508" r="4" fill="#0" id="circle37"/>
	<circle cx="475.282" cy="528.013" r="4" fill="#0" id="circle38"/>
	<circle cx="481.874" cy="488.465" r="4" fill="#0" id="circle39"/>
	<circle cx="495.056" cy="412.664" r="4" fill="#0" id="circle40"/>
	<circle cx="508.239" cy="53.4352" r="4" fill="#0" id="circle41"/>
	<circle cx="528.013" cy="412.664" r="4" fill="#0" id="circle42"/>
	<circle cx="534.605" cy="73.2093" r="4" fill="#0" id="circle43"/>
	<circle cx="560.97" cy="92.9834" r="4" fill="#0" id="circle44"/>
	<circle cx="560.97" cy="412.664" r="4" fill="#0" id="circle45"/>
	<circle cx="584.04" cy="119.349" r="4" fill="#0" id="circle46"/>
	<circle cx="593.927" cy="409.369" r="4" fill="#0" id="circle47"/>
	<circle cx="613.701" cy="102.87" r="4" fill="#0" id="circle48"/>
	<circle cx="626.884" cy="406.073" r="4" fill="#0" id="circle49"/>
	<circle cx="643.362" cy="86.392" r="4" fill="#0" id="circle50"/>
	<circle cx="659.841" cy="419.256" r="4" fill="#0" id="circle51"/>
	<circle cx="676.319" cy="86.392" r="4" fill="#0" id="circle52"/>
	<circle cx="692.797" cy="432.439" r="4" fill="#0" id="circle53"/>
	<circle cx="705.98" cy="102.87" r="4" fill="#0" id="circle54"/>
	<circle cx="725.754" cy="432.439" r="4" fill="#0" id="circle55"/>
	<circle cx="732.346" cy="125.94" r="4" fill="#0" id="circle56"/>
	<circle cx="752.12" cy="152.306" r="4" fill="#0" id="circle57"/>
	<circle cx="758.711" cy="415.96" r="4" fill="#0" id="circle58"/>
	<circle cx="771.894" cy="178.671" r="4" fill="#0" id="circle59"/>
	<circle cx="771.894" cy="383.003" r="4" fill="#0" id="circle60"/>
	<circle cx="781.781" cy="320.385" r="4" fill="#0" id="circle61"/>
	<circle cx="791.668" cy="205.037" r="4" fill="#0" id="circle62"/>
	<circle cx="814.738" cy="323.681" r="4" fill="#0" id="circle63"/>
	<circle cx="824.625" cy="205.037" r="4" fill="#0" id="circle64"/>
	<circle cx="844.399" cy="340.159" r="4" fill="#0" id="circle65"/>
	<circle cx="854.286" cy="185.262" r="4" fill="#0" id="circle66"/>
	<circle cx="870.764" cy="359.934" r="4" fill="#0" id="circle67"/>
	<circle cx="887.243" cy="172.08" r="4" fill="#0" id="circle68"/>
	<circle cx="897.13" cy="379.708" r="4" fill="#0" id="circle69"/>
	<circle cx="916.904" cy="155.601" r="4" fill="#0" id="circle70"/>
	<circle cx="930.086" cy="392.89" r="4" fill="#0" id="circle71"/>
	<circle cx="949.86" cy="145.714" r="4" fill="#0" id="circle72"/>
	<circle cx="963.043" cy="399.482" r="4" fill="#0" id="circle73"/>
	<circle cx="976.226" cy="224.811" r="4" fill="#0" id="circle74"/>
	<circle cx="976.226" cy="257.767" r="4" fill="#0" id="circle75"/>
	<circle cx="976.226" cy="290.724" r="4" fill="#0" id="circle76"/>
	<circle cx="982.817" cy="139.123" r="4" fill="#0" id="circle77"/>
	<circle cx="982.817" cy="323.681" r="4" fill="#0" id="circle78"/>
	<circle cx="989.409" cy="172.08" r="4" fill="#0" id="circle79"/>
	<circle cx="989.409" cy="356.638" r="4" fill="#0" id="circle80"/>
	<circle cx="996" cy="389.595" r="4" fill="#0" id="circle81"/>
	</g>
</svg>