<?xml version="1.0" encoding="UTF-8" standalone="no"?>
<!-- Created with CurveBenchmark -->
<svg
	xmlns:dc="http://purl.org/dc/elements/1.1/"
	xmlns:cc="http://creativecommons.org/ns#"
	xmlns:rdf="http://www.w3.org/1999/02/22-rdf-syntax-ns#"
	xmlns:svg="http://www.w3.org/2000/svg"
	xmlns="http://www.w3.org/2000/svg"
	xmlns:sodipodi="http://sodipodi.sourceforge.net/DTD/sodipodi-0.dtd"
	xmlns:inkscape="http://www.inkscape.org/namespaces/inkscape"
	width="1000"
	height="1000"
	id="svg2"
	version="1.1"
	sodipodi:docname="manifold/connect2d-flatfish21.png.txt">
<defs
	id="defs4" />
<metadata
	id="metadata7">
	<rdf:RDF>
		<cc:Work
			rdf:about="">
			<dc:format>image/svg+xml</dc:format>
			<dc:type
				rdf:resource="http://purl.org/dc/dcmitype/StillImage" />
			<dc:title></dc:title>
		</cc:Work>
	</rdf:RDF>
</metadata>
<g
	inkscape:label="Layer 1"
	inkscape:groupmode="layer"
	id="layer1">
	<path style="fill:none;stroke:red;stroke-width:1px;stroke-linecap:butt;stroke-linejoin:miter;stroke-opacity:1" d="M 989.506,231.3 996,249.159 z" id="boundary" inkscape:connector-curvature="0" />
	<path style="fill:none;stroke:red;stroke-width:1px;stroke-linecap:butt;stroke-linejoin:miter;stroke-opacity:1" d="M 996,249.159 979.764,249.159 z" id="boundary" inkscape:connector-curvature="0" />
	<path style="fill:none;stroke:red;stroke-width:1px;stroke-linecap:butt;stroke-linejoin:miter;stroke-opacity:1" d="M 979.764,249.159 963.529,249.159 z" id="boundary" inkscape:connector-curvature="0" />
	<path style="fill:none;stroke:red;stroke-width:1px;stroke-linecap:butt;stroke-linejoin:miter;stroke-opacity:1" d="M 963.529,249.159 952.164,262.147 z" id="boundary" inkscape:connector-curvature="0" />
	<path style="fill:none;stroke:red;stroke-width:1px;stroke-linecap:butt;stroke-linejoin:miter;stroke-opacity:1" d="M 952.164,262.147 935.928,270.265 z" id="boundary" inkscape:connector-curvature="0" />
	<path style="fill:none;stroke:red;stroke-width:1px;stroke-linecap:butt;stroke-linejoin:miter;stroke-opacity:1" d="M 935.928,270.265 922.939,281.63 z" id="boundary" inkscape:connector-curvature="0" />
	<path style="fill:none;stroke:red;stroke-width:1px;stroke-linecap:butt;stroke-linejoin:miter;stroke-opacity:1" d="M 922.939,281.63 914.822,297.866 z" id="boundary" inkscape:connector-curvature="0" />
	<path style="fill:none;stroke:red;stroke-width:1px;stroke-linecap:butt;stroke-linejoin:miter;stroke-opacity:1" d="M 914.822,297.866 906.704,314.101 z" id="boundary" inkscape:connector-curvature="0" />
	<path style="fill:none;stroke:red;stroke-width:1px;stroke-linecap:butt;stroke-linejoin:miter;stroke-opacity:1" d="M 906.704,314.101 906.704,330.337 z" id="boundary" inkscape:connector-curvature="0" />
	<path style="fill:none;stroke:red;stroke-width:1px;stroke-linecap:butt;stroke-linejoin:miter;stroke-opacity:1" d="M 906.704,330.337 898.586,346.573 z" id="boundary" inkscape:connector-curvature="0" />
	<path style="fill:none;stroke:red;stroke-width:1px;stroke-linecap:butt;stroke-linejoin:miter;stroke-opacity:1" d="M 898.586,346.573 898.586,362.809 z" id="boundary" inkscape:connector-curvature="0" />
	<path style="fill:none;stroke:red;stroke-width:1px;stroke-linecap:butt;stroke-linejoin:miter;stroke-opacity:1" d="M 898.586,362.809 898.586,379.044 z" id="boundary" inkscape:connector-curvature="0" />
	<path style="fill:none;stroke:red;stroke-width:1px;stroke-linecap:butt;stroke-linejoin:miter;stroke-opacity:1" d="M 898.586,379.044 906.704,393.656 z" id="boundary" inkscape:connector-curvature="0" />
	<path style="fill:none;stroke:red;stroke-width:1px;stroke-linecap:butt;stroke-linejoin:miter;stroke-opacity:1" d="M 906.704,393.656 906.704,409.892 z" id="boundary" inkscape:connector-curvature="0" />
	<path style="fill:none;stroke:red;stroke-width:1px;stroke-linecap:butt;stroke-linejoin:miter;stroke-opacity:1" d="M 906.704,409.892 914.822,424.504 z" id="boundary" inkscape:connector-curvature="0" />
	<path style="fill:none;stroke:red;stroke-width:1px;stroke-linecap:butt;stroke-linejoin:miter;stroke-opacity:1" d="M 914.822,424.504 922.939,439.116 z" id="boundary" inkscape:connector-curvature="0" />
	<path style="fill:none;stroke:red;stroke-width:1px;stroke-linecap:butt;stroke-linejoin:miter;stroke-opacity:1" d="M 922.939,439.116 934.304,452.105 z" id="boundary" inkscape:connector-curvature="0" />
	<path style="fill:none;stroke:red;stroke-width:1px;stroke-linecap:butt;stroke-linejoin:miter;stroke-opacity:1" d="M 934.304,452.105 950.54,458.599 z" id="boundary" inkscape:connector-curvature="0" />
	<path style="fill:none;stroke:red;stroke-width:1px;stroke-linecap:butt;stroke-linejoin:miter;stroke-opacity:1" d="M 950.54,458.599 965.152,466.717 z" id="boundary" inkscape:connector-curvature="0" />
	<path style="fill:none;stroke:red;stroke-width:1px;stroke-linecap:butt;stroke-linejoin:miter;stroke-opacity:1" d="M 965.152,466.717 979.764,474.835 z" id="boundary" inkscape:connector-curvature="0" />
	<path style="fill:none;stroke:red;stroke-width:1px;stroke-linecap:butt;stroke-linejoin:miter;stroke-opacity:1" d="M 979.764,474.835 989.506,492.694 z" id="boundary" inkscape:connector-curvature="0" />
	<path style="fill:none;stroke:red;stroke-width:1px;stroke-linecap:butt;stroke-linejoin:miter;stroke-opacity:1" d="M 989.506,492.694 973.27,492.694 z" id="boundary" inkscape:connector-curvature="0" />
	<path style="fill:none;stroke:red;stroke-width:1px;stroke-linecap:butt;stroke-linejoin:miter;stroke-opacity:1" d="M 973.27,492.694 957.034,492.694 z" id="boundary" inkscape:connector-curvature="0" />
	<path style="fill:none;stroke:red;stroke-width:1px;stroke-linecap:butt;stroke-linejoin:miter;stroke-opacity:1" d="M 957.034,492.694 940.799,492.694 z" id="boundary" inkscape:connector-curvature="0" />
	<path style="fill:none;stroke:red;stroke-width:1px;stroke-linecap:butt;stroke-linejoin:miter;stroke-opacity:1" d="M 940.799,492.694 926.187,484.576 z" id="boundary" inkscape:connector-curvature="0" />
	<path style="fill:none;stroke:red;stroke-width:1px;stroke-linecap:butt;stroke-linejoin:miter;stroke-opacity:1" d="M 926.187,484.576 909.951,484.576 z" id="boundary" inkscape:connector-curvature="0" />
	<path style="fill:none;stroke:red;stroke-width:1px;stroke-linecap:butt;stroke-linejoin:miter;stroke-opacity:1" d="M 909.951,484.576 898.586,471.588 z" id="boundary" inkscape:connector-curvature="0" />
	<path style="fill:none;stroke:red;stroke-width:1px;stroke-linecap:butt;stroke-linejoin:miter;stroke-opacity:1" d="M 898.586,471.588 882.35,471.588 z" id="boundary" inkscape:connector-curvature="0" />
	<path style="fill:none;stroke:red;stroke-width:1px;stroke-linecap:butt;stroke-linejoin:miter;stroke-opacity:1" d="M 882.35,471.588 866.115,468.34 z" id="boundary" inkscape:connector-curvature="0" />
	<path style="fill:none;stroke:red;stroke-width:1px;stroke-linecap:butt;stroke-linejoin:miter;stroke-opacity:1" d="M 866.115,468.34 853.126,458.599 z" id="boundary" inkscape:connector-curvature="0" />
	<path style="fill:none;stroke:red;stroke-width:1px;stroke-linecap:butt;stroke-linejoin:miter;stroke-opacity:1" d="M 853.126,458.599 836.89,452.105 z" id="boundary" inkscape:connector-curvature="0" />
	<path style="fill:none;stroke:red;stroke-width:1px;stroke-linecap:butt;stroke-linejoin:miter;stroke-opacity:1" d="M 836.89,452.105 822.278,443.987 z" id="boundary" inkscape:connector-curvature="0" />
	<path style="fill:none;stroke:red;stroke-width:1px;stroke-linecap:butt;stroke-linejoin:miter;stroke-opacity:1" d="M 822.278,443.987 807.666,435.869 z" id="boundary" inkscape:connector-curvature="0" />
	<path style="fill:none;stroke:red;stroke-width:1px;stroke-linecap:butt;stroke-linejoin:miter;stroke-opacity:1" d="M 807.666,435.869 791.43,435.869 z" id="boundary" inkscape:connector-curvature="0" />
	<path style="fill:none;stroke:red;stroke-width:1px;stroke-linecap:butt;stroke-linejoin:miter;stroke-opacity:1" d="M 791.43,435.869 776.818,427.751 z" id="boundary" inkscape:connector-curvature="0" />
	<path style="fill:none;stroke:red;stroke-width:1px;stroke-linecap:butt;stroke-linejoin:miter;stroke-opacity:1" d="M 776.818,427.751 760.583,422.881 z" id="boundary" inkscape:connector-curvature="0" />
	<path style="fill:none;stroke:red;stroke-width:1px;stroke-linecap:butt;stroke-linejoin:miter;stroke-opacity:1" d="M 760.583,422.881 744.347,416.386 z" id="boundary" inkscape:connector-curvature="0" />
	<path style="fill:none;stroke:red;stroke-width:1px;stroke-linecap:butt;stroke-linejoin:miter;stroke-opacity:1" d="M 744.347,416.386 732.982,403.398 z" id="boundary" inkscape:connector-curvature="0" />
	<path style="fill:none;stroke:red;stroke-width:1px;stroke-linecap:butt;stroke-linejoin:miter;stroke-opacity:1" d="M 732.982,403.398 718.37,411.516 z" id="boundary" inkscape:connector-curvature="0" />
	<path style="fill:none;stroke:red;stroke-width:1px;stroke-linecap:butt;stroke-linejoin:miter;stroke-opacity:1" d="M 718.37,411.516 703.758,403.398 z" id="boundary" inkscape:connector-curvature="0" />
	<path style="fill:none;stroke:red;stroke-width:1px;stroke-linecap:butt;stroke-linejoin:miter;stroke-opacity:1" d="M 703.758,403.398 687.522,403.398 z" id="boundary" inkscape:connector-curvature="0" />
	<path style="fill:none;stroke:red;stroke-width:1px;stroke-linecap:butt;stroke-linejoin:miter;stroke-opacity:1" d="M 687.522,403.398 690.769,419.633 z" id="boundary" inkscape:connector-curvature="0" />
	<path style="fill:none;stroke:red;stroke-width:1px;stroke-linecap:butt;stroke-linejoin:miter;stroke-opacity:1" d="M 690.769,419.633 703.758,430.998 z" id="boundary" inkscape:connector-curvature="0" />
	<path style="fill:none;stroke:red;stroke-width:1px;stroke-linecap:butt;stroke-linejoin:miter;stroke-opacity:1" d="M 703.758,430.998 718.37,439.116 z" id="boundary" inkscape:connector-curvature="0" />
	<path style="fill:none;stroke:red;stroke-width:1px;stroke-linecap:butt;stroke-linejoin:miter;stroke-opacity:1" d="M 718.37,439.116 731.358,450.481 z" id="boundary" inkscape:connector-curvature="0" />
	<path style="fill:none;stroke:red;stroke-width:1px;stroke-linecap:butt;stroke-linejoin:miter;stroke-opacity:1" d="M 731.358,450.481 736.229,466.717 z" id="boundary" inkscape:connector-curvature="0" />
	<path style="fill:none;stroke:red;stroke-width:1px;stroke-linecap:butt;stroke-linejoin:miter;stroke-opacity:1" d="M 736.229,466.717 749.218,476.458 z" id="boundary" inkscape:connector-curvature="0" />
	<path style="fill:none;stroke:red;stroke-width:1px;stroke-linecap:butt;stroke-linejoin:miter;stroke-opacity:1" d="M 749.218,476.458 749.218,497.565 z" id="boundary" inkscape:connector-curvature="0" />
	<path style="fill:none;stroke:red;stroke-width:1px;stroke-linecap:butt;stroke-linejoin:miter;stroke-opacity:1" d="M 749.218,497.565 736.229,508.93 z" id="boundary" inkscape:connector-curvature="0" />
	<path style="fill:none;stroke:red;stroke-width:1px;stroke-linecap:butt;stroke-linejoin:miter;stroke-opacity:1" d="M 736.229,508.93 719.993,508.93 z" id="boundary" inkscape:connector-curvature="0" />
	<path style="fill:none;stroke:red;stroke-width:1px;stroke-linecap:butt;stroke-linejoin:miter;stroke-opacity:1" d="M 719.993,508.93 707.005,523.542 z" id="boundary" inkscape:connector-curvature="0" />
	<path style="fill:none;stroke:red;stroke-width:1px;stroke-linecap:butt;stroke-linejoin:miter;stroke-opacity:1" d="M 707.005,523.542 694.016,533.283 z" id="boundary" inkscape:connector-curvature="0" />
	<path style="fill:none;stroke:red;stroke-width:1px;stroke-linecap:butt;stroke-linejoin:miter;stroke-opacity:1" d="M 694.016,533.283 677.781,536.53 z" id="boundary" inkscape:connector-curvature="0" />
	<path style="fill:none;stroke:red;stroke-width:1px;stroke-linecap:butt;stroke-linejoin:miter;stroke-opacity:1" d="M 677.781,536.53 661.545,541.401 z" id="boundary" inkscape:connector-curvature="0" />
	<path style="fill:none;stroke:red;stroke-width:1px;stroke-linecap:butt;stroke-linejoin:miter;stroke-opacity:1" d="M 661.545,541.401 646.933,549.519 z" id="boundary" inkscape:connector-curvature="0" />
	<path style="fill:none;stroke:red;stroke-width:1px;stroke-linecap:butt;stroke-linejoin:miter;stroke-opacity:1" d="M 646.933,549.519 633.944,564.131 z" id="boundary" inkscape:connector-curvature="0" />
	<path style="fill:none;stroke:red;stroke-width:1px;stroke-linecap:butt;stroke-linejoin:miter;stroke-opacity:1" d="M 633.944,564.131 617.709,565.755 z" id="boundary" inkscape:connector-curvature="0" />
	<path style="fill:none;stroke:red;stroke-width:1px;stroke-linecap:butt;stroke-linejoin:miter;stroke-opacity:1" d="M 617.709,565.755 601.473,565.755 z" id="boundary" inkscape:connector-curvature="0" />
	<path style="fill:none;stroke:red;stroke-width:1px;stroke-linecap:butt;stroke-linejoin:miter;stroke-opacity:1" d="M 601.473,565.755 588.484,577.119 z" id="boundary" inkscape:connector-curvature="0" />
	<path style="fill:none;stroke:red;stroke-width:1px;stroke-linecap:butt;stroke-linejoin:miter;stroke-opacity:1" d="M 588.484,577.119 572.249,581.99 z" id="boundary" inkscape:connector-curvature="0" />
	<path style="fill:none;stroke:red;stroke-width:1px;stroke-linecap:butt;stroke-linejoin:miter;stroke-opacity:1" d="M 572.249,581.99 556.013,581.99 z" id="boundary" inkscape:connector-curvature="0" />
	<path style="fill:none;stroke:red;stroke-width:1px;stroke-linecap:butt;stroke-linejoin:miter;stroke-opacity:1" d="M 556.013,581.99 541.401,590.108 z" id="boundary" inkscape:connector-curvature="0" />
	<path style="fill:none;stroke:red;stroke-width:1px;stroke-linecap:butt;stroke-linejoin:miter;stroke-opacity:1" d="M 541.401,590.108 525.165,590.108 z" id="boundary" inkscape:connector-curvature="0" />
	<path style="fill:none;stroke:red;stroke-width:1px;stroke-linecap:butt;stroke-linejoin:miter;stroke-opacity:1" d="M 525.165,590.108 508.93,598.226 z" id="boundary" inkscape:connector-curvature="0" />
	<path style="fill:none;stroke:red;stroke-width:1px;stroke-linecap:butt;stroke-linejoin:miter;stroke-opacity:1" d="M 508.93,598.226 492.694,598.226 z" id="boundary" inkscape:connector-curvature="0" />
	<path style="fill:none;stroke:red;stroke-width:1px;stroke-linecap:butt;stroke-linejoin:miter;stroke-opacity:1" d="M 492.694,598.226 476.458,598.226 z" id="boundary" inkscape:connector-curvature="0" />
	<path style="fill:none;stroke:red;stroke-width:1px;stroke-linecap:butt;stroke-linejoin:miter;stroke-opacity:1" d="M 476.458,598.226 460.223,598.226 z" id="boundary" inkscape:connector-curvature="0" />
	<path style="fill:none;stroke:red;stroke-width:1px;stroke-linecap:butt;stroke-linejoin:miter;stroke-opacity:1" d="M 460.223,598.226 443.987,598.226 z" id="boundary" inkscape:connector-curvature="0" />
	<path style="fill:none;stroke:red;stroke-width:1px;stroke-linecap:butt;stroke-linejoin:miter;stroke-opacity:1" d="M 443.987,598.226 430.998,588.484 z" id="boundary" inkscape:connector-curvature="0" />
	<path style="fill:none;stroke:red;stroke-width:1px;stroke-linecap:butt;stroke-linejoin:miter;stroke-opacity:1" d="M 430.998,588.484 414.763,588.484 z" id="boundary" inkscape:connector-curvature="0" />
	<path style="fill:none;stroke:red;stroke-width:1px;stroke-linecap:butt;stroke-linejoin:miter;stroke-opacity:1" d="M 414.763,588.484 398.527,588.484 z" id="boundary" inkscape:connector-curvature="0" />
	<path style="fill:none;stroke:red;stroke-width:1px;stroke-linecap:butt;stroke-linejoin:miter;stroke-opacity:1" d="M 398.527,588.484 382.291,581.99 z" id="boundary" inkscape:connector-curvature="0" />
	<path style="fill:none;stroke:red;stroke-width:1px;stroke-linecap:butt;stroke-linejoin:miter;stroke-opacity:1" d="M 382.291,581.99 366.056,580.367 z" id="boundary" inkscape:connector-curvature="0" />
	<path style="fill:none;stroke:red;stroke-width:1px;stroke-linecap:butt;stroke-linejoin:miter;stroke-opacity:1" d="M 366.056,580.367 349.82,573.872 z" id="boundary" inkscape:connector-curvature="0" />
	<path style="fill:none;stroke:red;stroke-width:1px;stroke-linecap:butt;stroke-linejoin:miter;stroke-opacity:1" d="M 349.82,573.872 333.584,572.249 z" id="boundary" inkscape:connector-curvature="0" />
	<path style="fill:none;stroke:red;stroke-width:1px;stroke-linecap:butt;stroke-linejoin:miter;stroke-opacity:1" d="M 333.584,572.249 317.349,565.755 z" id="boundary" inkscape:connector-curvature="0" />
	<path style="fill:none;stroke:red;stroke-width:1px;stroke-linecap:butt;stroke-linejoin:miter;stroke-opacity:1" d="M 317.349,565.755 305.984,552.766 z" id="boundary" inkscape:connector-curvature="0" />
	<path style="fill:none;stroke:red;stroke-width:1px;stroke-linecap:butt;stroke-linejoin:miter;stroke-opacity:1" d="M 305.984,552.766 289.748,549.519 z" id="boundary" inkscape:connector-curvature="0" />
	<path style="fill:none;stroke:red;stroke-width:1px;stroke-linecap:butt;stroke-linejoin:miter;stroke-opacity:1" d="M 289.748,549.519 292.995,565.755 z" id="boundary" inkscape:connector-curvature="0" />
	<path style="fill:none;stroke:red;stroke-width:1px;stroke-linecap:butt;stroke-linejoin:miter;stroke-opacity:1" d="M 292.995,565.755 297.866,581.99 z" id="boundary" inkscape:connector-curvature="0" />
	<path style="fill:none;stroke:red;stroke-width:1px;stroke-linecap:butt;stroke-linejoin:miter;stroke-opacity:1" d="M 297.866,581.99 284.877,598.226 z" id="boundary" inkscape:connector-curvature="0" />
	<path style="fill:none;stroke:red;stroke-width:1px;stroke-linecap:butt;stroke-linejoin:miter;stroke-opacity:1" d="M 284.877,598.226 297.866,609.591 z" id="boundary" inkscape:connector-curvature="0" />
	<path style="fill:none;stroke:red;stroke-width:1px;stroke-linecap:butt;stroke-linejoin:miter;stroke-opacity:1" d="M 297.866,609.591 271.889,609.591 z" id="boundary" inkscape:connector-curvature="0" />
	<path style="fill:none;stroke:red;stroke-width:1px;stroke-linecap:butt;stroke-linejoin:miter;stroke-opacity:1" d="M 271.889,609.591 255.653,607.967 z" id="boundary" inkscape:connector-curvature="0" />
	<path style="fill:none;stroke:red;stroke-width:1px;stroke-linecap:butt;stroke-linejoin:miter;stroke-opacity:1" d="M 255.653,607.967 247.535,593.355 z" id="boundary" inkscape:connector-curvature="0" />
	<path style="fill:none;stroke:red;stroke-width:1px;stroke-linecap:butt;stroke-linejoin:miter;stroke-opacity:1" d="M 247.535,593.355 236.17,580.367 z" id="boundary" inkscape:connector-curvature="0" />
	<path style="fill:none;stroke:red;stroke-width:1px;stroke-linecap:butt;stroke-linejoin:miter;stroke-opacity:1" d="M 236.17,580.367 228.052,565.755 z" id="boundary" inkscape:connector-curvature="0" />
	<path style="fill:none;stroke:red;stroke-width:1px;stroke-linecap:butt;stroke-linejoin:miter;stroke-opacity:1" d="M 228.052,565.755 223.182,549.519 z" id="boundary" inkscape:connector-curvature="0" />
	<path style="fill:none;stroke:red;stroke-width:1px;stroke-linecap:butt;stroke-linejoin:miter;stroke-opacity:1" d="M 223.182,549.519 221.558,533.283 z" id="boundary" inkscape:connector-curvature="0" />
	<path style="fill:none;stroke:red;stroke-width:1px;stroke-linecap:butt;stroke-linejoin:miter;stroke-opacity:1" d="M 221.558,533.283 208.57,521.918 z" id="boundary" inkscape:connector-curvature="0" />
	<path style="fill:none;stroke:red;stroke-width:1px;stroke-linecap:butt;stroke-linejoin:miter;stroke-opacity:1" d="M 208.57,521.918 198.828,508.93 z" id="boundary" inkscape:connector-curvature="0" />
	<path style="fill:none;stroke:red;stroke-width:1px;stroke-linecap:butt;stroke-linejoin:miter;stroke-opacity:1" d="M 198.828,508.93 195.581,492.694 z" id="boundary" inkscape:connector-curvature="0" />
	<path style="fill:none;stroke:red;stroke-width:1px;stroke-linecap:butt;stroke-linejoin:miter;stroke-opacity:1" d="M 195.581,492.694 180.969,484.576 z" id="boundary" inkscape:connector-curvature="0" />
	<path style="fill:none;stroke:red;stroke-width:1px;stroke-linecap:butt;stroke-linejoin:miter;stroke-opacity:1" d="M 180.969,484.576 164.733,484.576 z" id="boundary" inkscape:connector-curvature="0" />
	<path style="fill:none;stroke:red;stroke-width:1px;stroke-linecap:butt;stroke-linejoin:miter;stroke-opacity:1" d="M 164.733,484.576 150.121,476.458 z" id="boundary" inkscape:connector-curvature="0" />
	<path style="fill:none;stroke:red;stroke-width:1px;stroke-linecap:butt;stroke-linejoin:miter;stroke-opacity:1" d="M 150.121,476.458 137.133,466.717 z" id="boundary" inkscape:connector-curvature="0" />
	<path style="fill:none;stroke:red;stroke-width:1px;stroke-linecap:butt;stroke-linejoin:miter;stroke-opacity:1" d="M 137.133,466.717 129.015,452.105 z" id="boundary" inkscape:connector-curvature="0" />
	<path style="fill:none;stroke:red;stroke-width:1px;stroke-linecap:butt;stroke-linejoin:miter;stroke-opacity:1" d="M 129.015,452.105 114.403,443.987 z" id="boundary" inkscape:connector-curvature="0" />
	<path style="fill:none;stroke:red;stroke-width:1px;stroke-linecap:butt;stroke-linejoin:miter;stroke-opacity:1" d="M 114.403,443.987 103.038,430.998 z" id="boundary" inkscape:connector-curvature="0" />
	<path style="fill:none;stroke:red;stroke-width:1px;stroke-linecap:butt;stroke-linejoin:miter;stroke-opacity:1" d="M 103.038,430.998 90.0491,419.633 z" id="boundary" inkscape:connector-curvature="0" />
	<path style="fill:none;stroke:red;stroke-width:1px;stroke-linecap:butt;stroke-linejoin:miter;stroke-opacity:1" d="M 90.0491,419.633 73.8134,419.633 z" id="boundary" inkscape:connector-curvature="0" />
	<path style="fill:none;stroke:red;stroke-width:1px;stroke-linecap:butt;stroke-linejoin:miter;stroke-opacity:1" d="M 73.8134,419.633 68.9427,403.398 z" id="boundary" inkscape:connector-curvature="0" />
	<path style="fill:none;stroke:red;stroke-width:1px;stroke-linecap:butt;stroke-linejoin:miter;stroke-opacity:1" d="M 68.9427,403.398 52.707,398.527 z" id="boundary" inkscape:connector-curvature="0" />
	<path style="fill:none;stroke:red;stroke-width:1px;stroke-linecap:butt;stroke-linejoin:miter;stroke-opacity:1" d="M 52.707,398.527 41.3421,385.538 z" id="boundary" inkscape:connector-curvature="0" />
	<path style="fill:none;stroke:red;stroke-width:1px;stroke-linecap:butt;stroke-linejoin:miter;stroke-opacity:1" d="M 41.3421,385.538 28.3535,374.173 z" id="boundary" inkscape:connector-curvature="0" />
	<path style="fill:none;stroke:red;stroke-width:1px;stroke-linecap:butt;stroke-linejoin:miter;stroke-opacity:1" d="M 28.3535,374.173 16.9885,361.185 z" id="boundary" inkscape:connector-curvature="0" />
	<path style="fill:none;stroke:red;stroke-width:1px;stroke-linecap:butt;stroke-linejoin:miter;stroke-opacity:1" d="M 16.9885,361.185 4,349.82 z" id="boundary" inkscape:connector-curvature="0" />
	<path style="fill:none;stroke:red;stroke-width:1px;stroke-linecap:butt;stroke-linejoin:miter;stroke-opacity:1" d="M 4,349.82 4,325.466 z" id="boundary" inkscape:connector-curvature="0" />
	<path style="fill:none;stroke:red;stroke-width:1px;stroke-linecap:butt;stroke-linejoin:miter;stroke-opacity:1" d="M 4,325.466 4,309.231 z" id="boundary" inkscape:connector-curvature="0" />
	<path style="fill:none;stroke:red;stroke-width:1px;stroke-linecap:butt;stroke-linejoin:miter;stroke-opacity:1" d="M 4,309.231 4,292.995 z" id="boundary" inkscape:connector-curvature="0" />
	<path style="fill:none;stroke:red;stroke-width:1px;stroke-linecap:butt;stroke-linejoin:miter;stroke-opacity:1" d="M 4,292.995 12.1178,276.759 z" id="boundary" inkscape:connector-curvature="0" />
	<path style="fill:none;stroke:red;stroke-width:1px;stroke-linecap:butt;stroke-linejoin:miter;stroke-opacity:1" d="M 12.1178,276.759 28.3535,268.642 z" id="boundary" inkscape:connector-curvature="0" />
	<path style="fill:none;stroke:red;stroke-width:1px;stroke-linecap:butt;stroke-linejoin:miter;stroke-opacity:1" d="M 28.3535,268.642 28.3535,252.406 z" id="boundary" inkscape:connector-curvature="0" />
	<path style="fill:none;stroke:red;stroke-width:1px;stroke-linecap:butt;stroke-linejoin:miter;stroke-opacity:1" d="M 28.3535,252.406 41.3421,239.417 z" id="boundary" inkscape:connector-curvature="0" />
	<path style="fill:none;stroke:red;stroke-width:1px;stroke-linecap:butt;stroke-linejoin:miter;stroke-opacity:1" d="M 41.3421,239.417 44.5892,219.935 z" id="boundary" inkscape:connector-curvature="0" />
	<path style="fill:none;stroke:red;stroke-width:1px;stroke-linecap:butt;stroke-linejoin:miter;stroke-opacity:1" d="M 44.5892,219.935 57.5777,206.946 z" id="boundary" inkscape:connector-curvature="0" />
	<path style="fill:none;stroke:red;stroke-width:1px;stroke-linecap:butt;stroke-linejoin:miter;stroke-opacity:1" d="M 57.5777,206.946 65.6956,190.71 z" id="boundary" inkscape:connector-curvature="0" />
	<path style="fill:none;stroke:red;stroke-width:1px;stroke-linecap:butt;stroke-linejoin:miter;stroke-opacity:1" d="M 65.6956,190.71 77.0606,171.227 z" id="boundary" inkscape:connector-curvature="0" />
	<path style="fill:none;stroke:red;stroke-width:1px;stroke-linecap:butt;stroke-linejoin:miter;stroke-opacity:1" d="M 77.0606,171.227 93.2962,163.11 z" id="boundary" inkscape:connector-curvature="0" />
	<path style="fill:none;stroke:red;stroke-width:1px;stroke-linecap:butt;stroke-linejoin:miter;stroke-opacity:1" d="M 93.2962,163.11 106.285,150.121 z" id="boundary" inkscape:connector-curvature="0" />
	<path style="fill:none;stroke:red;stroke-width:1px;stroke-linecap:butt;stroke-linejoin:miter;stroke-opacity:1" d="M 106.285,150.121 120.897,142.003 z" id="boundary" inkscape:connector-curvature="0" />
	<path style="fill:none;stroke:red;stroke-width:1px;stroke-linecap:butt;stroke-linejoin:miter;stroke-opacity:1" d="M 120.897,142.003 133.885,130.638 z" id="boundary" inkscape:connector-curvature="0" />
	<path style="fill:none;stroke:red;stroke-width:1px;stroke-linecap:butt;stroke-linejoin:miter;stroke-opacity:1" d="M 133.885,130.638 146.874,117.65 z" id="boundary" inkscape:connector-curvature="0" />
	<path style="fill:none;stroke:red;stroke-width:1px;stroke-linecap:butt;stroke-linejoin:miter;stroke-opacity:1" d="M 146.874,117.65 163.11,109.532 z" id="boundary" inkscape:connector-curvature="0" />
	<path style="fill:none;stroke:red;stroke-width:1px;stroke-linecap:butt;stroke-linejoin:miter;stroke-opacity:1" d="M 163.11,109.532 174.475,96.5434 z" id="boundary" inkscape:connector-curvature="0" />
	<path style="fill:none;stroke:red;stroke-width:1px;stroke-linecap:butt;stroke-linejoin:miter;stroke-opacity:1" d="M 174.475,96.5434 174.475,80.3077 z" id="boundary" inkscape:connector-curvature="0" />
	<path style="fill:none;stroke:red;stroke-width:1px;stroke-linecap:butt;stroke-linejoin:miter;stroke-opacity:1" d="M 174.475,80.3077 166.357,65.6956 z" id="boundary" inkscape:connector-curvature="0" />
	<path style="fill:none;stroke:red;stroke-width:1px;stroke-linecap:butt;stroke-linejoin:miter;stroke-opacity:1" d="M 166.357,65.6956 182.592,49.4599 z" id="boundary" inkscape:connector-curvature="0" />
	<path style="fill:none;stroke:red;stroke-width:1px;stroke-linecap:butt;stroke-linejoin:miter;stroke-opacity:1" d="M 182.592,49.4599 198.828,41.3421 z" id="boundary" inkscape:connector-curvature="0" />
	<path style="fill:none;stroke:red;stroke-width:1px;stroke-linecap:butt;stroke-linejoin:miter;stroke-opacity:1" d="M 198.828,41.3421 215.064,33.2242 z" id="boundary" inkscape:connector-curvature="0" />
	<path style="fill:none;stroke:red;stroke-width:1px;stroke-linecap:butt;stroke-linejoin:miter;stroke-opacity:1" d="M 215.064,33.2242 231.3,25.1064 z" id="boundary" inkscape:connector-curvature="0" />
	<path style="fill:none;stroke:red;stroke-width:1px;stroke-linecap:butt;stroke-linejoin:miter;stroke-opacity:1" d="M 231.3,25.1064 247.535,20.2357 z" id="boundary" inkscape:connector-curvature="0" />
	<path style="fill:none;stroke:red;stroke-width:1px;stroke-linecap:butt;stroke-linejoin:miter;stroke-opacity:1" d="M 247.535,20.2357 263.771,16.9885 z" id="boundary" inkscape:connector-curvature="0" />
	<path style="fill:none;stroke:red;stroke-width:1px;stroke-linecap:butt;stroke-linejoin:miter;stroke-opacity:1" d="M 263.771,16.9885 276.759,4 z" id="boundary" inkscape:connector-curvature="0" />
	<path style="fill:none;stroke:red;stroke-width:1px;stroke-linecap:butt;stroke-linejoin:miter;stroke-opacity:1" d="M 276.759,4 291.372,12.1178 z" id="boundary" inkscape:connector-curvature="0" />
	<path style="fill:none;stroke:red;stroke-width:1px;stroke-linecap:butt;stroke-linejoin:miter;stroke-opacity:1" d="M 291.372,12.1178 307.607,5.62357 z" id="boundary" inkscape:connector-curvature="0" />
	<path style="fill:none;stroke:red;stroke-width:1px;stroke-linecap:butt;stroke-linejoin:miter;stroke-opacity:1" d="M 307.607,5.62357 323.843,4 z" id="boundary" inkscape:connector-curvature="0" />
	<path style="fill:none;stroke:red;stroke-width:1px;stroke-linecap:butt;stroke-linejoin:miter;stroke-opacity:1" d="M 323.843,4 340.079,4 z" id="boundary" inkscape:connector-curvature="0" />
	<path style="fill:none;stroke:red;stroke-width:1px;stroke-linecap:butt;stroke-linejoin:miter;stroke-opacity:1" d="M 340.079,4 356.314,4 z" id="boundary" inkscape:connector-curvature="0" />
	<path style="fill:none;stroke:red;stroke-width:1px;stroke-linecap:butt;stroke-linejoin:miter;stroke-opacity:1" d="M 356.314,4 372.55,4 z" id="boundary" inkscape:connector-curvature="0" />
	<path style="fill:none;stroke:red;stroke-width:1px;stroke-linecap:butt;stroke-linejoin:miter;stroke-opacity:1" d="M 372.55,4 388.786,4 z" id="boundary" inkscape:connector-curvature="0" />
	<path style="fill:none;stroke:red;stroke-width:1px;stroke-linecap:butt;stroke-linejoin:miter;stroke-opacity:1" d="M 388.786,4 405.021,4 z" id="boundary" inkscape:connector-curvature="0" />
	<path style="fill:none;stroke:red;stroke-width:1px;stroke-linecap:butt;stroke-linejoin:miter;stroke-opacity:1" d="M 405.021,4 421.257,4 z" id="boundary" inkscape:connector-curvature="0" />
	<path style="fill:none;stroke:red;stroke-width:1px;stroke-linecap:butt;stroke-linejoin:miter;stroke-opacity:1" d="M 421.257,4 437.493,4 z" id="boundary" inkscape:connector-curvature="0" />
	<path style="fill:none;stroke:red;stroke-width:1px;stroke-linecap:butt;stroke-linejoin:miter;stroke-opacity:1" d="M 437.493,4 452.105,12.1178 z" id="boundary" inkscape:connector-curvature="0" />
	<path style="fill:none;stroke:red;stroke-width:1px;stroke-linecap:butt;stroke-linejoin:miter;stroke-opacity:1" d="M 452.105,12.1178 468.34,12.1178 z" id="boundary" inkscape:connector-curvature="0" />
	<path style="fill:none;stroke:red;stroke-width:1px;stroke-linecap:butt;stroke-linejoin:miter;stroke-opacity:1" d="M 468.34,12.1178 484.576,12.1178 z" id="boundary" inkscape:connector-curvature="0" />
	<path style="fill:none;stroke:red;stroke-width:1px;stroke-linecap:butt;stroke-linejoin:miter;stroke-opacity:1" d="M 484.576,12.1178 500.812,12.1178 z" id="boundary" inkscape:connector-curvature="0" />
	<path style="fill:none;stroke:red;stroke-width:1px;stroke-linecap:butt;stroke-linejoin:miter;stroke-opacity:1" d="M 500.812,12.1178 513.8,21.8592 z" id="boundary" inkscape:connector-curvature="0" />
	<path style="fill:none;stroke:red;stroke-width:1px;stroke-linecap:butt;stroke-linejoin:miter;stroke-opacity:1" d="M 513.8,21.8592 530.036,28.3535 z" id="boundary" inkscape:connector-curvature="0" />
	<path style="fill:none;stroke:red;stroke-width:1px;stroke-linecap:butt;stroke-linejoin:miter;stroke-opacity:1" d="M 530.036,28.3535 546.272,28.3535 z" id="boundary" inkscape:connector-curvature="0" />
	<path style="fill:none;stroke:red;stroke-width:1px;stroke-linecap:butt;stroke-linejoin:miter;stroke-opacity:1" d="M 546.272,28.3535 557.637,41.3421 z" id="boundary" inkscape:connector-curvature="0" />
	<path style="fill:none;stroke:red;stroke-width:1px;stroke-linecap:butt;stroke-linejoin:miter;stroke-opacity:1" d="M 557.637,41.3421 573.872,44.5892 z" id="boundary" inkscape:connector-curvature="0" />
	<path style="fill:none;stroke:red;stroke-width:1px;stroke-linecap:butt;stroke-linejoin:miter;stroke-opacity:1" d="M 573.872,44.5892 590.108,49.4599 z" id="boundary" inkscape:connector-curvature="0" />
	<path style="fill:none;stroke:red;stroke-width:1px;stroke-linecap:butt;stroke-linejoin:miter;stroke-opacity:1" d="M 590.108,49.4599 603.097,60.8249 z" id="boundary" inkscape:connector-curvature="0" />
	<path style="fill:none;stroke:red;stroke-width:1px;stroke-linecap:butt;stroke-linejoin:miter;stroke-opacity:1" d="M 603.097,60.8249 619.332,62.4484 z" id="boundary" inkscape:connector-curvature="0" />
	<path style="fill:none;stroke:red;stroke-width:1px;stroke-linecap:butt;stroke-linejoin:miter;stroke-opacity:1" d="M 619.332,62.4484 630.697,75.437 z" id="boundary" inkscape:connector-curvature="0" />
	<path style="fill:none;stroke:red;stroke-width:1px;stroke-linecap:butt;stroke-linejoin:miter;stroke-opacity:1" d="M 630.697,75.437 643.686,85.1784 z" id="boundary" inkscape:connector-curvature="0" />
	<path style="fill:none;stroke:red;stroke-width:1px;stroke-linecap:butt;stroke-linejoin:miter;stroke-opacity:1" d="M 643.686,85.1784 655.051,98.1669 z" id="boundary" inkscape:connector-curvature="0" />
	<path style="fill:none;stroke:red;stroke-width:1px;stroke-linecap:butt;stroke-linejoin:miter;stroke-opacity:1" d="M 655.051,98.1669 671.286,101.414 z" id="boundary" inkscape:connector-curvature="0" />
	<path style="fill:none;stroke:red;stroke-width:1px;stroke-linecap:butt;stroke-linejoin:miter;stroke-opacity:1" d="M 671.286,101.414 684.275,111.155 z" id="boundary" inkscape:connector-curvature="0" />
	<path style="fill:none;stroke:red;stroke-width:1px;stroke-linecap:butt;stroke-linejoin:miter;stroke-opacity:1" d="M 684.275,111.155 692.393,125.768 z" id="boundary" inkscape:connector-curvature="0" />
	<path style="fill:none;stroke:red;stroke-width:1px;stroke-linecap:butt;stroke-linejoin:miter;stroke-opacity:1" d="M 692.393,125.768 707.005,133.885 z" id="boundary" inkscape:connector-curvature="0" />
	<path style="fill:none;stroke:red;stroke-width:1px;stroke-linecap:butt;stroke-linejoin:miter;stroke-opacity:1" d="M 707.005,133.885 719.993,143.627 z" id="boundary" inkscape:connector-curvature="0" />
	<path style="fill:none;stroke:red;stroke-width:1px;stroke-linecap:butt;stroke-linejoin:miter;stroke-opacity:1" d="M 719.993,143.627 728.111,158.239 z" id="boundary" inkscape:connector-curvature="0" />
	<path style="fill:none;stroke:red;stroke-width:1px;stroke-linecap:butt;stroke-linejoin:miter;stroke-opacity:1" d="M 728.111,158.239 741.1,167.98 z" id="boundary" inkscape:connector-curvature="0" />
	<path style="fill:none;stroke:red;stroke-width:1px;stroke-linecap:butt;stroke-linejoin:miter;stroke-opacity:1" d="M 741.1,167.98 752.465,180.969 z" id="boundary" inkscape:connector-curvature="0" />
	<path style="fill:none;stroke:red;stroke-width:1px;stroke-linecap:butt;stroke-linejoin:miter;stroke-opacity:1" d="M 752.465,180.969 765.453,192.334 z" id="boundary" inkscape:connector-curvature="0" />
	<path style="fill:none;stroke:red;stroke-width:1px;stroke-linecap:butt;stroke-linejoin:miter;stroke-opacity:1" d="M 765.453,192.334 776.818,208.57 z" id="boundary" inkscape:connector-curvature="0" />
	<path style="fill:none;stroke:red;stroke-width:1px;stroke-linecap:butt;stroke-linejoin:miter;stroke-opacity:1" d="M 776.818,208.57 768.7,232.923 z" id="boundary" inkscape:connector-curvature="0" />
	<path style="fill:none;stroke:red;stroke-width:1px;stroke-linecap:butt;stroke-linejoin:miter;stroke-opacity:1" d="M 768.7,232.923 757.336,245.912 z" id="boundary" inkscape:connector-curvature="0" />
	<path style="fill:none;stroke:red;stroke-width:1px;stroke-linecap:butt;stroke-linejoin:miter;stroke-opacity:1" d="M 757.336,245.912 744.347,257.277 z" id="boundary" inkscape:connector-curvature="0" />
	<path style="fill:none;stroke:red;stroke-width:1px;stroke-linecap:butt;stroke-linejoin:miter;stroke-opacity:1" d="M 744.347,257.277 732.982,270.265 z" id="boundary" inkscape:connector-curvature="0" />
	<path style="fill:none;stroke:red;stroke-width:1px;stroke-linecap:butt;stroke-linejoin:miter;stroke-opacity:1" d="M 732.982,270.265 719.993,281.63 z" id="boundary" inkscape:connector-curvature="0" />
	<path style="fill:none;stroke:red;stroke-width:1px;stroke-linecap:butt;stroke-linejoin:miter;stroke-opacity:1" d="M 719.993,281.63 703.758,281.63 z" id="boundary" inkscape:connector-curvature="0" />
	<path style="fill:none;stroke:red;stroke-width:1px;stroke-linecap:butt;stroke-linejoin:miter;stroke-opacity:1" d="M 703.758,281.63 711.876,296.242 z" id="boundary" inkscape:connector-curvature="0" />
	<path style="fill:none;stroke:red;stroke-width:1px;stroke-linecap:butt;stroke-linejoin:miter;stroke-opacity:1" d="M 711.876,296.242 732.982,291.372 z" id="boundary" inkscape:connector-curvature="0" />
	<path style="fill:none;stroke:red;stroke-width:1px;stroke-linecap:butt;stroke-linejoin:miter;stroke-opacity:1" d="M 732.982,291.372 749.218,296.242 z" id="boundary" inkscape:connector-curvature="0" />
	<path style="fill:none;stroke:red;stroke-width:1px;stroke-linecap:butt;stroke-linejoin:miter;stroke-opacity:1" d="M 749.218,296.242 763.83,288.124 z" id="boundary" inkscape:connector-curvature="0" />
	<path style="fill:none;stroke:red;stroke-width:1px;stroke-linecap:butt;stroke-linejoin:miter;stroke-opacity:1" d="M 763.83,288.124 776.818,275.136 z" id="boundary" inkscape:connector-curvature="0" />
	<path style="fill:none;stroke:red;stroke-width:1px;stroke-linecap:butt;stroke-linejoin:miter;stroke-opacity:1" d="M 776.818,275.136 793.054,275.136 z" id="boundary" inkscape:connector-curvature="0" />
	<path style="fill:none;stroke:red;stroke-width:1px;stroke-linecap:butt;stroke-linejoin:miter;stroke-opacity:1" d="M 793.054,275.136 806.043,263.771 z" id="boundary" inkscape:connector-curvature="0" />
	<path style="fill:none;stroke:red;stroke-width:1px;stroke-linecap:butt;stroke-linejoin:miter;stroke-opacity:1" d="M 806.043,263.771 820.655,255.653 z" id="boundary" inkscape:connector-curvature="0" />
	<path style="fill:none;stroke:red;stroke-width:1px;stroke-linecap:butt;stroke-linejoin:miter;stroke-opacity:1" d="M 820.655,255.653 836.89,255.653 z" id="boundary" inkscape:connector-curvature="0" />
	<path style="fill:none;stroke:red;stroke-width:1px;stroke-linecap:butt;stroke-linejoin:miter;stroke-opacity:1" d="M 836.89,255.653 853.126,247.535 z" id="boundary" inkscape:connector-curvature="0" />
	<path style="fill:none;stroke:red;stroke-width:1px;stroke-linecap:butt;stroke-linejoin:miter;stroke-opacity:1" d="M 853.126,247.535 869.362,239.417 z" id="boundary" inkscape:connector-curvature="0" />
	<path style="fill:none;stroke:red;stroke-width:1px;stroke-linecap:butt;stroke-linejoin:miter;stroke-opacity:1" d="M 869.362,239.417 883.974,231.3 z" id="boundary" inkscape:connector-curvature="0" />
	<path style="fill:none;stroke:red;stroke-width:1px;stroke-linecap:butt;stroke-linejoin:miter;stroke-opacity:1" d="M 883.974,231.3 900.209,232.923 z" id="boundary" inkscape:connector-curvature="0" />
	<path style="fill:none;stroke:red;stroke-width:1px;stroke-linecap:butt;stroke-linejoin:miter;stroke-opacity:1" d="M 900.209,232.923 913.198,223.182 z" id="boundary" inkscape:connector-curvature="0" />
	<path style="fill:none;stroke:red;stroke-width:1px;stroke-linecap:butt;stroke-linejoin:miter;stroke-opacity:1" d="M 913.198,223.182 927.81,231.3 z" id="boundary" inkscape:connector-curvature="0" />
	<path style="fill:none;stroke:red;stroke-width:1px;stroke-linecap:butt;stroke-linejoin:miter;stroke-opacity:1" d="M 927.81,231.3 942.422,223.182 z" id="boundary" inkscape:connector-curvature="0" />
	<path style="fill:none;stroke:red;stroke-width:1px;stroke-linecap:butt;stroke-linejoin:miter;stroke-opacity:1" d="M 942.422,223.182 958.658,223.182 z" id="boundary" inkscape:connector-curvature="0" />
	<path style="fill:none;stroke:red;stroke-width:1px;stroke-linecap:butt;stroke-linejoin:miter;stroke-opacity:1" d="M 958.658,223.182 974.894,223.182 z" id="boundary" inkscape:connector-curvature="0" />
	<path style="fill:none;stroke:red;stroke-width:1px;stroke-linecap:butt;stroke-linejoin:miter;stroke-opacity:1" d="M 974.894,223.182 989.506,231.3 z" id="boundary" inkscape:connector-curvature="0" />
	<circle cx="4" cy="292.995" r="4" fill="#0" id="circle0"/>
	<circle cx="4" cy="309.231" r="4" fill="#0" id="circle1"/>
	<circle cx="4" cy="325.466" r="4" fill="#0" id="circle2"/>
	<circle cx="4" cy="349.82" r="4" fill="#0" id="circle3"/>
	<circle cx="12.1178" cy="276.759" r="4" fill="#0" id="circle4"/>
	<circle cx="16.9885" cy="361.185" r="4" fill="#0" id="circle5"/>
	<circle cx="28.3535" cy="252.406" r="4" fill="#0" id="circle6"/>
	<circle cx="28.3535" cy="268.642" r="4" fill="#0" id="circle7"/>
	<circle cx="28.3535" cy="374.173" r="4" fill="#0" id="circle8"/>
	<circle cx="41.3421" cy="239.417" r="4" fill="#0" id="circle9"/>
	<circle cx="41.3421" cy="385.538" r="4" fill="#0" id="circle10"/>
	<circle cx="44.5892" cy="219.935" r="4" fill="#0" id="circle11"/>
	<circle cx="52.707" cy="398.527" r="4" fill="#0" id="circle12"/>
	<circle cx="57.5777" cy="206.946" r="4" fill="#0" id="circle13"/>
	<circle cx="65.6956" cy="190.71" r="4" fill="#0" id="circle14"/>
	<circle cx="68.9427" cy="403.398" r="4" fill="#0" id="circle15"/>
	<circle cx="73.8134" cy="419.633" r="4" fill="#0" id="circle16"/>
	<circle cx="77.0606" cy="171.227" r="4" fill="#0" id="circle17"/>
	<circle cx="90.0491" cy="419.633" r="4" fill="#0" id="circle18"/>
	<circle cx="93.2962" cy="163.11" r="4" fill="#0" id="circle19"/>
	<circle cx="103.038" cy="430.998" r="4" fill="#0" id="circle20"/>
	<circle cx="106.285" cy="150.121" r="4" fill="#0" id="circle21"/>
	<circle cx="114.403" cy="443.987" r="4" fill="#0" id="circle22"/>
	<circle cx="120.897" cy="142.003" r="4" fill="#0" id="circle23"/>
	<circle cx="129.015" cy="452.105" r="4" fill="#0" id="circle24"/>
	<circle cx="133.885" cy="130.638" r="4" fill="#0" id="circle25"/>
	<circle cx="137.133" cy="466.717" r="4" fill="#0" id="circle26"/>
	<circle cx="146.874" cy="117.65" r="4" fill="#0" id="circle27"/>
	<circle cx="150.121" cy="476.458" r="4" fill="#0" id="circle28"/>
	<circle cx="163.11" cy="109.532" r="4" fill="#0" id="circle29"/>
	<circle cx="164.733" cy="484.576" r="4" fill="#0" id="circle30"/>
	<circle cx="166.357" cy="65.6956" r="4" fill="#0" id="circle31"/>
	<circle cx="174.475" cy="80.3077" r="4" fill="#0" id="circle32"/>
	<circle cx="174.475" cy="96.5434" r="4" fill="#0" id="circle33"/>
	<circle cx="180.969" cy="484.576" r="4" fill="#0" id="circle34"/>
	<circle cx="182.592" cy="49.4599" r="4" fill="#0" id="circle35"/>
	<circle cx="195.581" cy="492.694" r="4" fill="#0" id="circle36"/>
	<circle cx="198.828" cy="41.3421" r="4" fill="#0" id="circle37"/>
	<circle cx="198.828" cy="508.93" r="4" fill="#0" id="circle38"/>
	<circle cx="208.57" cy="521.918" r="4" fill="#0" id="circle39"/>
	<circle cx="215.064" cy="33.2242" r="4" fill="#0" id="circle40"/>
	<circle cx="221.558" cy="533.283" r="4" fill="#0" id="circle41"/>
	<circle cx="223.182" cy="549.519" r="4" fill="#0" id="circle42"/>
	<circle cx="228.052" cy="565.755" r="4" fill="#0" id="circle43"/>
	<circle cx="231.3" cy="25.1064" r="4" fill="#0" id="circle44"/>
	<circle cx="236.17" cy="580.367" r="4" fill="#0" id="circle45"/>
	<circle cx="247.535" cy="20.2357" r="4" fill="#0" id="circle46"/>
	<circle cx="247.535" cy="593.355" r="4" fill="#0" id="circle47"/>
	<circle cx="255.653" cy="607.967" r="4" fill="#0" id="circle48"/>
	<circle cx="263.771" cy="16.9885" r="4" fill="#0" id="circle49"/>
	<circle cx="271.889" cy="609.591" r="4" fill="#0" id="circle50"/>
	<circle cx="276.759" cy="4" r="4" fill="#0" id="circle51"/>
	<circle cx="284.877" cy="598.226" r="4" fill="#0" id="circle52"/>
	<circle cx="289.748" cy="549.519" r="4" fill="#0" id="circle53"/>
	<circle cx="291.372" cy="12.1178" r="4" fill="#0" id="circle54"/>
	<circle cx="292.995" cy="565.755" r="4" fill="#0" id="circle55"/>
	<circle cx="297.866" cy="581.99" r="4" fill="#0" id="circle56"/>
	<circle cx="297.866" cy="609.591" r="4" fill="#0" id="circle57"/>
	<circle cx="305.984" cy="552.766" r="4" fill="#0" id="circle58"/>
	<circle cx="307.607" cy="5.62357" r="4" fill="#0" id="circle59"/>
	<circle cx="317.349" cy="565.755" r="4" fill="#0" id="circle60"/>
	<circle cx="323.843" cy="4" r="4" fill="#0" id="circle61"/>
	<circle cx="333.584" cy="572.249" r="4" fill="#0" id="circle62"/>
	<circle cx="340.079" cy="4" r="4" fill="#0" id="circle63"/>
	<circle cx="349.82" cy="573.872" r="4" fill="#0" id="circle64"/>
	<circle cx="356.314" cy="4" r="4" fill="#0" id="circle65"/>
	<circle cx="366.056" cy="580.367" r="4" fill="#0" id="circle66"/>
	<circle cx="372.55" cy="4" r="4" fill="#0" id="circle67"/>
	<circle cx="382.291" cy="581.99" r="4" fill="#0" id="circle68"/>
	<circle cx="388.786" cy="4" r="4" fill="#0" id="circle69"/>
	<circle cx="398.527" cy="588.484" r="4" fill="#0" id="circle70"/>
	<circle cx="405.021" cy="4" r="4" fill="#0" id="circle71"/>
	<circle cx="414.763" cy="588.484" r="4" fill="#0" id="circle72"/>
	<circle cx="421.257" cy="4" r="4" fill="#0" id="circle73"/>
	<circle cx="430.998" cy="588.484" r="4" fill="#0" id="circle74"/>
	<circle cx="437.493" cy="4" r="4" fill="#0" id="circle75"/>
	<circle cx="443.987" cy="598.226" r="4" fill="#0" id="circle76"/>
	<circle cx="452.105" cy="12.1178" r="4" fill="#0" id="circle77"/>
	<circle cx="460.223" cy="598.226" r="4" fill="#0" id="circle78"/>
	<circle cx="468.34" cy="12.1178" r="4" fill="#0" id="circle79"/>
	<circle cx="476.458" cy="598.226" r="4" fill="#0" id="circle80"/>
	<circle cx="484.576" cy="12.1178" r="4" fill="#0" id="circle81"/>
	<circle cx="492.694" cy="598.226" r="4" fill="#0" id="circle82"/>
	<circle cx="500.812" cy="12.1178" r="4" fill="#0" id="circle83"/>
	<circle cx="508.93" cy="598.226" r="4" fill="#0" id="circle84"/>
	<circle cx="513.8" cy="21.8592" r="4" fill="#0" id="circle85"/>
	<circle cx="525.165" cy="590.108" r="4" fill="#0" id="circle86"/>
	<circle cx="530.036" cy="28.3535" r="4" fill="#0" id="circle87"/>
	<circle cx="541.401" cy="590.108" r="4" fill="#0" id="circle88"/>
	<circle cx="546.272" cy="28.3535" r="4" fill="#0" id="circle89"/>
	<circle cx="556.013" cy="581.99" r="4" fill="#0" id="circle90"/>
	<circle cx="557.637" cy="41.3421" r="4" fill="#0" id="circle91"/>
	<circle cx="572.249" cy="581.99" r="4" fill="#0" id="circle92"/>
	<circle cx="573.872" cy="44.5892" r="4" fill="#0" id="circle93"/>
	<circle cx="588.484" cy="577.119" r="4" fill="#0" id="circle94"/>
	<circle cx="590.108" cy="49.4599" r="4" fill="#0" id="circle95"/>
	<circle cx="601.473" cy="565.755" r="4" fill="#0" id="circle96"/>
	<circle cx="603.097" cy="60.8249" r="4" fill="#0" id="circle97"/>
	<circle cx="617.709" cy="565.755" r="4" fill="#0" id="circle98"/>
	<circle cx="619.332" cy="62.4484" r="4" fill="#0" id="circle99"/>
	<circle cx="630.697" cy="75.437" r="4" fill="#0" id="circle100"/>
	<circle cx="633.944" cy="564.131" r="4" fill="#0" id="circle101"/>
	<circle cx="643.686" cy="85.1784" r="4" fill="#0" id="circle102"/>
	<circle cx="646.933" cy="549.519" r="4" fill="#0" id="circle103"/>
	<circle cx="655.051" cy="98.1669" r="4" fill="#0" id="circle104"/>
	<circle cx="661.545" cy="541.401" r="4" fill="#0" id="circle105"/>
	<circle cx="671.286" cy="101.414" r="4" fill="#0" id="circle106"/>
	<circle cx="677.781" cy="536.53" r="4" fill="#0" id="circle107"/>
	<circle cx="684.275" cy="111.155" r="4" fill="#0" id="circle108"/>
	<circle cx="687.522" cy="403.398" r="4" fill="#0" id="circle109"/>
	<circle cx="690.769" cy="419.633" r="4" fill="#0" id="circle110"/>
	<circle cx="692.393" cy="125.768" r="4" fill="#0" id="circle111"/>
	<circle cx="694.016" cy="533.283" r="4" fill="#0" id="circle112"/>
	<circle cx="703.758" cy="281.63" r="4" fill="#0" id="circle113"/>
	<circle cx="703.758" cy="403.398" r="4" fill="#0" id="circle114"/>
	<circle cx="703.758" cy="430.998" r="4" fill="#0" id="circle115"/>
	<circle cx="707.005" cy="133.885" r="4" fill="#0" id="circle116"/>
	<circle cx="707.005" cy="523.542" r="4" fill="#0" id="circle117"/>
	<circle cx="711.876" cy="296.242" r="4" fill="#0" id="circle118"/>
	<circle cx="718.37" cy="411.516" r="4" fill="#0" id="circle119"/>
	<circle cx="718.37" cy="439.116" r="4" fill="#0" id="circle120"/>
	<circle cx="719.993" cy="143.627" r="4" fill="#0" id="circle121"/>
	<circle cx="719.993" cy="281.63" r="4" fill="#0" id="circle122"/>
	<circle cx="719.993" cy="508.93" r="4" fill="#0" id="circle123"/>
	<circle cx="728.111" cy="158.239" r="4" fill="#0" id="circle124"/>
	<circle cx="731.358" cy="450.481" r="4" fill="#0" id="circle125"/>
	<circle cx="732.982" cy="270.265" r="4" fill="#0" id="circle126"/>
	<circle cx="732.982" cy="291.372" r="4" fill="#0" id="circle127"/>
	<circle cx="732.982" cy="403.398" r="4" fill="#0" id="circle128"/>
	<circle cx="736.229" cy="466.717" r="4" fill="#0" id="circle129"/>
	<circle cx="736.229" cy="508.93" r="4" fill="#0" id="circle130"/>
	<circle cx="741.1" cy="167.98" r="4" fill="#0" id="circle131"/>
	<circle cx="744.347" cy="257.277" r="4" fill="#0" id="circle132"/>
	<circle cx="744.347" cy="416.386" r="4" fill="#0" id="circle133"/>
	<circle cx="749.218" cy="296.242" r="4" fill="#0" id="circle134"/>
	<circle cx="749.218" cy="476.458" r="4" fill="#0" id="circle135"/>
	<circle cx="749.218" cy="497.565" r="4" fill="#0" id="circle136"/>
	<circle cx="752.465" cy="180.969" r="4" fill="#0" id="circle137"/>
	<circle cx="757.336" cy="245.912" r="4" fill="#0" id="circle138"/>
	<circle cx="760.583" cy="422.881" r="4" fill="#0" id="circle139"/>
	<circle cx="763.83" cy="288.124" r="4" fill="#0" id="circle140"/>
	<circle cx="765.453" cy="192.334" r="4" fill="#0" id="circle141"/>
	<circle cx="768.7" cy="232.923" r="4" fill="#0" id="circle142"/>
	<circle cx="776.818" cy="208.57" r="4" fill="#0" id="circle143"/>
	<circle cx="776.818" cy="275.136" r="4" fill="#0" id="circle144"/>
	<circle cx="776.818" cy="427.751" r="4" fill="#0" id="circle145"/>
	<circle cx="791.43" cy="435.869" r="4" fill="#0" id="circle146"/>
	<circle cx="793.054" cy="275.136" r="4" fill="#0" id="circle147"/>
	<circle cx="806.043" cy="263.771" r="4" fill="#0" id="circle148"/>
	<circle cx="807.666" cy="435.869" r="4" fill="#0" id="circle149"/>
	<circle cx="820.655" cy="255.653" r="4" fill="#0" id="circle150"/>
	<circle cx="822.278" cy="443.987" r="4" fill="#0" id="circle151"/>
	<circle cx="836.89" cy="255.653" r="4" fill="#0" id="circle152"/>
	<circle cx="836.89" cy="452.105" r="4" fill="#0" id="circle153"/>
	<circle cx="853.126" cy="247.535" r="4" fill="#0" id="circle154"/>
	<circle cx="853.126" cy="458.599" r="4" fill="#0" id="circle155"/>
	<circle cx="866.115" cy="468.34" r="4" fill="#0" id="circle156"/>
	<circle cx="869.362" cy="239.417" r="4" fill="#0" id="circle157"/>
	<circle cx="882.35" cy="471.588" r="4" fill="#0" id="circle158"/>
	<circle cx="883.974" cy="231.3" r="4" fill="#0" id="circle159"/>
	<circle cx="898.586" cy="346.573" r="4" fill="#0" id="circle160"/>
	<circle cx="898.586" cy="362.809" r="4" fill="#0" id="circle161"/>
	<circle cx="898.586" cy="379.044" r="4" fill="#0" id="circle162"/>
	<circle cx="898.586" cy="471.588" r="4" fill="#0" id="circle163"/>
	<circle cx="900.209" cy="232.923" r="4" fill="#0" id="circle164"/>
	<circle cx="906.704" cy="314.101" r="4" fill="#0" id="circle165"/>
	<circle cx="906.704" cy="330.337" r="4" fill="#0" id="circle166"/>
	<circle cx="906.704" cy="393.656" r="4" fill="#0" id="circle167"/>
	<circle cx="906.704" cy="409.892" r="4" fill="#0" id="circle168"/>
	<circle cx="909.951" cy="484.576" r="4" fill="#0" id="circle169"/>
	<circle cx="913.198" cy="223.182" r="4" fill="#0" id="circle170"/>
	<circle cx="914.822" cy="297.866" r="4" fill="#0" id="circle171"/>
	<circle cx="914.822" cy="424.504" r="4" fill="#0" id="circle172"/>
	<circle cx="922.939" cy="281.63" r="4" fill="#0" id="circle173"/>
	<circle cx="922.939" cy="439.116" r="4" fill="#0" id="circle174"/>
	<circle cx="926.187" cy="484.576" r="4" fill="#0" id="circle175"/>
	<circle cx="927.81" cy="231.3" r="4" fill="#0" id="circle176"/>
	<circle cx="934.304" cy="452.105" r="4" fill="#0" id="circle177"/>
	<circle cx="935.928" cy="270.265" r="4" fill="#0" id="circle178"/>
	<circle cx="940.799" cy="492.694" r="4" fill="#0" id="circle179"/>
	<circle cx="942.422" cy="223.182" r="4" fill="#0" id="circle180"/>
	<circle cx="950.54" cy="458.599" r="4" fill="#0" id="circle181"/>
	<circle cx="952.164" cy="262.147" r="4" fill="#0" id="circle182"/>
	<circle cx="957.034" cy="492.694" r="4" fill="#0" id="circle183"/>
	<circle cx="958.658" cy="223.182" r="4" fill="#0" id="circle184"/>
	<circle cx="963.529" cy="249.159" r="4" fill="#0" id="circle185"/>
	<circle cx="965.152" cy="466.717" r="4" fill="#0" id="circle186"/>
	<circle cx="973.27" cy="492.694" r="4" fill="#0" id="circle187"/>
	<circle cx="974.894" cy="223.182" r="4" fill="#0" id="circle188"/>
	<circle cx="979.764" cy="249.159" r="4" fill="#0" id="circle189"/>
	<circle cx="979.764" cy="474.835" r="4" fill="#0" id="circle190"/>
	<circle cx="989.506" cy="231.3" r="4" fill="#0" id="circle191"/>
	<circle cx="989.506" cy="492.694" r="4" fill="#0" id="circle192"/>
	<circle cx="996" cy="249.159" r="4" fill="#0" id="circle193"/>
	</g>
</svg>