<?xml version="1.0" encoding="UTF-8" standalone="no"?>
<!-- Created with CurveBenchmark -->
<svg
	xmlns:dc="http://purl.org/dc/elements/1.1/"
	xmlns:cc="http://creativecommons.org/ns#"
	xmlns:rdf="http://www.w3.org/1999/02/22-rdf-syntax-ns#"
	xmlns:svg="http://www.w3.org/2000/svg"
	xmlns="http://www.w3.org/2000/svg"
	xmlns:sodipodi="http://sodipodi.sourceforge.net/DTD/sodipodi-0.dtd"
	xmlns:inkscape="http://www.inkscape.org/namespaces/inkscape"
	width="1000"
	height="1000"
	id="svg2"
	version="1.1"
	sodipodi:docname="manifold/connect2d-carriage-17.png.txt">
<defs
	id="defs4" />
<metadata
	id="metadata7">
	<rdf:RDF>
		<cc:Work
			rdf:about="">
			<dc:format>image/svg+xml</dc:format>
			<dc:type
				rdf:resource="http://purl.org/dc/dcmitype/StillImage" />
			<dc:title></dc:title>
		</cc:Work>
	</rdf:RDF>
</metadata>
<g
	inkscape:label="Layer 1"
	inkscape:groupmode="layer"
	id="layer1">
	<path style="fill:none;stroke:red;stroke-width:1px;stroke-linecap:butt;stroke-linejoin:miter;stroke-opacity:1" d="M 996,357.117 991.189,365.777 z" id="boundary" inkscape:connector-curvature="0" />
	<path style="fill:none;stroke:red;stroke-width:1px;stroke-linecap:butt;stroke-linejoin:miter;stroke-opacity:1" d="M 991.189,365.777 986.378,380.21 z" id="boundary" inkscape:connector-curvature="0" />
	<path style="fill:none;stroke:red;stroke-width:1px;stroke-linecap:butt;stroke-linejoin:miter;stroke-opacity:1" d="M 986.378,380.21 979.643,392.718 z" id="boundary" inkscape:connector-curvature="0" />
	<path style="fill:none;stroke:red;stroke-width:1px;stroke-linecap:butt;stroke-linejoin:miter;stroke-opacity:1" d="M 979.643,392.718 971.946,399.453 z" id="boundary" inkscape:connector-curvature="0" />
	<path style="fill:none;stroke:red;stroke-width:1px;stroke-linecap:butt;stroke-linejoin:miter;stroke-opacity:1" d="M 971.946,399.453 967.135,409.075 z" id="boundary" inkscape:connector-curvature="0" />
	<path style="fill:none;stroke:red;stroke-width:1px;stroke-linecap:butt;stroke-linejoin:miter;stroke-opacity:1" d="M 967.135,409.075 960.4,421.583 z" id="boundary" inkscape:connector-curvature="0" />
	<path style="fill:none;stroke:red;stroke-width:1px;stroke-linecap:butt;stroke-linejoin:miter;stroke-opacity:1" d="M 960.4,421.583 952.702,428.318 z" id="boundary" inkscape:connector-curvature="0" />
	<path style="fill:none;stroke:red;stroke-width:1px;stroke-linecap:butt;stroke-linejoin:miter;stroke-opacity:1" d="M 952.702,428.318 943.081,433.129 z" id="boundary" inkscape:connector-curvature="0" />
	<path style="fill:none;stroke:red;stroke-width:1px;stroke-linecap:butt;stroke-linejoin:miter;stroke-opacity:1" d="M 943.081,433.129 933.459,437.94 z" id="boundary" inkscape:connector-curvature="0" />
	<path style="fill:none;stroke:red;stroke-width:1px;stroke-linecap:butt;stroke-linejoin:miter;stroke-opacity:1" d="M 933.459,437.94 924.799,442.751 z" id="boundary" inkscape:connector-curvature="0" />
	<path style="fill:none;stroke:red;stroke-width:1px;stroke-linecap:butt;stroke-linejoin:miter;stroke-opacity:1" d="M 924.799,442.751 915.177,442.751 z" id="boundary" inkscape:connector-curvature="0" />
	<path style="fill:none;stroke:red;stroke-width:1px;stroke-linecap:butt;stroke-linejoin:miter;stroke-opacity:1" d="M 915.177,442.751 905.556,442.751 z" id="boundary" inkscape:connector-curvature="0" />
	<path style="fill:none;stroke:red;stroke-width:1px;stroke-linecap:butt;stroke-linejoin:miter;stroke-opacity:1" d="M 905.556,442.751 895.934,442.751 z" id="boundary" inkscape:connector-curvature="0" />
	<path style="fill:none;stroke:red;stroke-width:1px;stroke-linecap:butt;stroke-linejoin:miter;stroke-opacity:1" d="M 895.934,442.751 886.312,442.751 z" id="boundary" inkscape:connector-curvature="0" />
	<path style="fill:none;stroke:red;stroke-width:1px;stroke-linecap:butt;stroke-linejoin:miter;stroke-opacity:1" d="M 886.312,442.751 876.691,442.751 z" id="boundary" inkscape:connector-curvature="0" />
	<path style="fill:none;stroke:red;stroke-width:1px;stroke-linecap:butt;stroke-linejoin:miter;stroke-opacity:1" d="M 876.691,442.751 867.069,441.789 z" id="boundary" inkscape:connector-curvature="0" />
	<path style="fill:none;stroke:red;stroke-width:1px;stroke-linecap:butt;stroke-linejoin:miter;stroke-opacity:1" d="M 867.069,441.789 858.409,436.978 z" id="boundary" inkscape:connector-curvature="0" />
	<path style="fill:none;stroke:red;stroke-width:1px;stroke-linecap:butt;stroke-linejoin:miter;stroke-opacity:1" d="M 858.409,436.978 848.788,433.129 z" id="boundary" inkscape:connector-curvature="0" />
	<path style="fill:none;stroke:red;stroke-width:1px;stroke-linecap:butt;stroke-linejoin:miter;stroke-opacity:1" d="M 848.788,433.129 840.128,428.318 z" id="boundary" inkscape:connector-curvature="0" />
	<path style="fill:none;stroke:red;stroke-width:1px;stroke-linecap:butt;stroke-linejoin:miter;stroke-opacity:1" d="M 840.128,428.318 831.468,423.507 z" id="boundary" inkscape:connector-curvature="0" />
	<path style="fill:none;stroke:red;stroke-width:1px;stroke-linecap:butt;stroke-linejoin:miter;stroke-opacity:1" d="M 831.468,423.507 821.847,420.621 z" id="boundary" inkscape:connector-curvature="0" />
	<path style="fill:none;stroke:red;stroke-width:1px;stroke-linecap:butt;stroke-linejoin:miter;stroke-opacity:1" d="M 821.847,420.621 813.187,415.81 z" id="boundary" inkscape:connector-curvature="0" />
	<path style="fill:none;stroke:red;stroke-width:1px;stroke-linecap:butt;stroke-linejoin:miter;stroke-opacity:1" d="M 813.187,415.81 805.49,409.075 z" id="boundary" inkscape:connector-curvature="0" />
	<path style="fill:none;stroke:red;stroke-width:1px;stroke-linecap:butt;stroke-linejoin:miter;stroke-opacity:1" d="M 805.49,409.075 798.755,401.377 z" id="boundary" inkscape:connector-curvature="0" />
	<path style="fill:none;stroke:red;stroke-width:1px;stroke-linecap:butt;stroke-linejoin:miter;stroke-opacity:1" d="M 798.755,401.377 793.944,392.718 z" id="boundary" inkscape:connector-curvature="0" />
	<path style="fill:none;stroke:red;stroke-width:1px;stroke-linecap:butt;stroke-linejoin:miter;stroke-opacity:1" d="M 793.944,392.718 790.095,383.096 z" id="boundary" inkscape:connector-curvature="0" />
	<path style="fill:none;stroke:red;stroke-width:1px;stroke-linecap:butt;stroke-linejoin:miter;stroke-opacity:1" d="M 790.095,383.096 785.284,374.436 z" id="boundary" inkscape:connector-curvature="0" />
	<path style="fill:none;stroke:red;stroke-width:1px;stroke-linecap:butt;stroke-linejoin:miter;stroke-opacity:1" d="M 785.284,374.436 778.549,366.739 z" id="boundary" inkscape:connector-curvature="0" />
	<path style="fill:none;stroke:red;stroke-width:1px;stroke-linecap:butt;stroke-linejoin:miter;stroke-opacity:1" d="M 778.549,366.739 773.738,358.08 z" id="boundary" inkscape:connector-curvature="0" />
	<path style="fill:none;stroke:red;stroke-width:1px;stroke-linecap:butt;stroke-linejoin:miter;stroke-opacity:1" d="M 773.738,358.08 769.889,348.458 z" id="boundary" inkscape:connector-curvature="0" />
	<path style="fill:none;stroke:red;stroke-width:1px;stroke-linecap:butt;stroke-linejoin:miter;stroke-opacity:1" d="M 769.889,348.458 762.192,341.723 z" id="boundary" inkscape:connector-curvature="0" />
	<path style="fill:none;stroke:red;stroke-width:1px;stroke-linecap:butt;stroke-linejoin:miter;stroke-opacity:1" d="M 762.192,341.723 752.57,341.723 z" id="boundary" inkscape:connector-curvature="0" />
	<path style="fill:none;stroke:red;stroke-width:1px;stroke-linecap:butt;stroke-linejoin:miter;stroke-opacity:1" d="M 752.57,341.723 742.949,341.723 z" id="boundary" inkscape:connector-curvature="0" />
	<path style="fill:none;stroke:red;stroke-width:1px;stroke-linecap:butt;stroke-linejoin:miter;stroke-opacity:1" d="M 742.949,341.723 733.327,341.723 z" id="boundary" inkscape:connector-curvature="0" />
	<path style="fill:none;stroke:red;stroke-width:1px;stroke-linecap:butt;stroke-linejoin:miter;stroke-opacity:1" d="M 733.327,341.723 724.667,346.533 z" id="boundary" inkscape:connector-curvature="0" />
	<path style="fill:none;stroke:red;stroke-width:1px;stroke-linecap:butt;stroke-linejoin:miter;stroke-opacity:1" d="M 724.667,346.533 715.046,346.533 z" id="boundary" inkscape:connector-curvature="0" />
	<path style="fill:none;stroke:red;stroke-width:1px;stroke-linecap:butt;stroke-linejoin:miter;stroke-opacity:1" d="M 715.046,346.533 705.424,346.533 z" id="boundary" inkscape:connector-curvature="0" />
	<path style="fill:none;stroke:red;stroke-width:1px;stroke-linecap:butt;stroke-linejoin:miter;stroke-opacity:1" d="M 705.424,346.533 695.802,346.533 z" id="boundary" inkscape:connector-curvature="0" />
	<path style="fill:none;stroke:red;stroke-width:1px;stroke-linecap:butt;stroke-linejoin:miter;stroke-opacity:1" d="M 695.802,346.533 687.143,341.723 z" id="boundary" inkscape:connector-curvature="0" />
	<path style="fill:none;stroke:red;stroke-width:1px;stroke-linecap:butt;stroke-linejoin:miter;stroke-opacity:1" d="M 687.143,341.723 677.521,338.836 z" id="boundary" inkscape:connector-curvature="0" />
	<path style="fill:none;stroke:red;stroke-width:1px;stroke-linecap:butt;stroke-linejoin:miter;stroke-opacity:1" d="M 677.521,338.836 673.672,329.214 z" id="boundary" inkscape:connector-curvature="0" />
	<path style="fill:none;stroke:red;stroke-width:1px;stroke-linecap:butt;stroke-linejoin:miter;stroke-opacity:1" d="M 673.672,329.214 667.899,321.517 z" id="boundary" inkscape:connector-curvature="0" />
	<path style="fill:none;stroke:red;stroke-width:1px;stroke-linecap:butt;stroke-linejoin:miter;stroke-opacity:1" d="M 667.899,321.517 663.088,312.857 z" id="boundary" inkscape:connector-curvature="0" />
	<path style="fill:none;stroke:red;stroke-width:1px;stroke-linecap:butt;stroke-linejoin:miter;stroke-opacity:1" d="M 663.088,312.857 661.164,303.236 z" id="boundary" inkscape:connector-curvature="0" />
	<path style="fill:none;stroke:red;stroke-width:1px;stroke-linecap:butt;stroke-linejoin:miter;stroke-opacity:1" d="M 661.164,303.236 658.277,293.614 z" id="boundary" inkscape:connector-curvature="0" />
	<path style="fill:none;stroke:red;stroke-width:1px;stroke-linecap:butt;stroke-linejoin:miter;stroke-opacity:1" d="M 658.277,293.614 656.353,283.992 z" id="boundary" inkscape:connector-curvature="0" />
	<path style="fill:none;stroke:red;stroke-width:1px;stroke-linecap:butt;stroke-linejoin:miter;stroke-opacity:1" d="M 656.353,283.992 653.467,274.371 z" id="boundary" inkscape:connector-curvature="0" />
	<path style="fill:none;stroke:red;stroke-width:1px;stroke-linecap:butt;stroke-linejoin:miter;stroke-opacity:1" d="M 653.467,274.371 648.656,265.711 z" id="boundary" inkscape:connector-curvature="0" />
	<path style="fill:none;stroke:red;stroke-width:1px;stroke-linecap:butt;stroke-linejoin:miter;stroke-opacity:1" d="M 648.656,265.711 643.845,257.051 z" id="boundary" inkscape:connector-curvature="0" />
	<path style="fill:none;stroke:red;stroke-width:1px;stroke-linecap:butt;stroke-linejoin:miter;stroke-opacity:1" d="M 643.845,257.051 637.11,249.354 z" id="boundary" inkscape:connector-curvature="0" />
	<path style="fill:none;stroke:red;stroke-width:1px;stroke-linecap:butt;stroke-linejoin:miter;stroke-opacity:1" d="M 637.11,249.354 632.299,240.694 z" id="boundary" inkscape:connector-curvature="0" />
	<path style="fill:none;stroke:red;stroke-width:1px;stroke-linecap:butt;stroke-linejoin:miter;stroke-opacity:1" d="M 632.299,240.694 628.45,231.073 z" id="boundary" inkscape:connector-curvature="0" />
	<path style="fill:none;stroke:red;stroke-width:1px;stroke-linecap:butt;stroke-linejoin:miter;stroke-opacity:1" d="M 628.45,231.073 618.828,231.073 z" id="boundary" inkscape:connector-curvature="0" />
	<path style="fill:none;stroke:red;stroke-width:1px;stroke-linecap:butt;stroke-linejoin:miter;stroke-opacity:1" d="M 618.828,231.073 609.207,233.959 z" id="boundary" inkscape:connector-curvature="0" />
	<path style="fill:none;stroke:red;stroke-width:1px;stroke-linecap:butt;stroke-linejoin:miter;stroke-opacity:1" d="M 609.207,233.959 601.509,240.694 z" id="boundary" inkscape:connector-curvature="0" />
	<path style="fill:none;stroke:red;stroke-width:1px;stroke-linecap:butt;stroke-linejoin:miter;stroke-opacity:1" d="M 601.509,240.694 601.509,250.316 z" id="boundary" inkscape:connector-curvature="0" />
	<path style="fill:none;stroke:red;stroke-width:1px;stroke-linecap:butt;stroke-linejoin:miter;stroke-opacity:1" d="M 601.509,250.316 601.509,259.938 z" id="boundary" inkscape:connector-curvature="0" />
	<path style="fill:none;stroke:red;stroke-width:1px;stroke-linecap:butt;stroke-linejoin:miter;stroke-opacity:1" d="M 601.509,259.938 606.32,268.597 z" id="boundary" inkscape:connector-curvature="0" />
	<path style="fill:none;stroke:red;stroke-width:1px;stroke-linecap:butt;stroke-linejoin:miter;stroke-opacity:1" d="M 606.32,268.597 611.131,277.257 z" id="boundary" inkscape:connector-curvature="0" />
	<path style="fill:none;stroke:red;stroke-width:1px;stroke-linecap:butt;stroke-linejoin:miter;stroke-opacity:1" d="M 611.131,277.257 611.131,286.879 z" id="boundary" inkscape:connector-curvature="0" />
	<path style="fill:none;stroke:red;stroke-width:1px;stroke-linecap:butt;stroke-linejoin:miter;stroke-opacity:1" d="M 611.131,286.879 611.131,296.5 z" id="boundary" inkscape:connector-curvature="0" />
	<path style="fill:none;stroke:red;stroke-width:1px;stroke-linecap:butt;stroke-linejoin:miter;stroke-opacity:1" d="M 611.131,296.5 611.131,306.122 z" id="boundary" inkscape:connector-curvature="0" />
	<path style="fill:none;stroke:red;stroke-width:1px;stroke-linecap:butt;stroke-linejoin:miter;stroke-opacity:1" d="M 611.131,306.122 611.131,315.744 z" id="boundary" inkscape:connector-curvature="0" />
	<path style="fill:none;stroke:red;stroke-width:1px;stroke-linecap:butt;stroke-linejoin:miter;stroke-opacity:1" d="M 611.131,315.744 611.131,325.366 z" id="boundary" inkscape:connector-curvature="0" />
	<path style="fill:none;stroke:red;stroke-width:1px;stroke-linecap:butt;stroke-linejoin:miter;stroke-opacity:1" d="M 611.131,325.366 611.131,334.987 z" id="boundary" inkscape:connector-curvature="0" />
	<path style="fill:none;stroke:red;stroke-width:1px;stroke-linecap:butt;stroke-linejoin:miter;stroke-opacity:1" d="M 611.131,334.987 611.131,344.609 z" id="boundary" inkscape:connector-curvature="0" />
	<path style="fill:none;stroke:red;stroke-width:1px;stroke-linecap:butt;stroke-linejoin:miter;stroke-opacity:1" d="M 611.131,344.609 606.32,356.155 z" id="boundary" inkscape:connector-curvature="0" />
	<path style="fill:none;stroke:red;stroke-width:1px;stroke-linecap:butt;stroke-linejoin:miter;stroke-opacity:1" d="M 606.32,356.155 604.396,373.474 z" id="boundary" inkscape:connector-curvature="0" />
	<path style="fill:none;stroke:red;stroke-width:1px;stroke-linecap:butt;stroke-linejoin:miter;stroke-opacity:1" d="M 604.396,373.474 599.585,383.096 z" id="boundary" inkscape:connector-curvature="0" />
	<path style="fill:none;stroke:red;stroke-width:1px;stroke-linecap:butt;stroke-linejoin:miter;stroke-opacity:1" d="M 599.585,383.096 594.774,392.718 z" id="boundary" inkscape:connector-curvature="0" />
	<path style="fill:none;stroke:red;stroke-width:1px;stroke-linecap:butt;stroke-linejoin:miter;stroke-opacity:1" d="M 594.774,392.718 587.077,399.453 z" id="boundary" inkscape:connector-curvature="0" />
	<path style="fill:none;stroke:red;stroke-width:1px;stroke-linecap:butt;stroke-linejoin:miter;stroke-opacity:1" d="M 587.077,399.453 579.379,408.113 z" id="boundary" inkscape:connector-curvature="0" />
	<path style="fill:none;stroke:red;stroke-width:1px;stroke-linecap:butt;stroke-linejoin:miter;stroke-opacity:1" d="M 579.379,408.113 569.758,412.923 z" id="boundary" inkscape:connector-curvature="0" />
	<path style="fill:none;stroke:red;stroke-width:1px;stroke-linecap:butt;stroke-linejoin:miter;stroke-opacity:1" d="M 569.758,412.923 560.136,417.734 z" id="boundary" inkscape:connector-curvature="0" />
	<path style="fill:none;stroke:red;stroke-width:1px;stroke-linecap:butt;stroke-linejoin:miter;stroke-opacity:1" d="M 560.136,417.734 550.514,418.696 z" id="boundary" inkscape:connector-curvature="0" />
	<path style="fill:none;stroke:red;stroke-width:1px;stroke-linecap:butt;stroke-linejoin:miter;stroke-opacity:1" d="M 550.514,418.696 540.892,418.696 z" id="boundary" inkscape:connector-curvature="0" />
	<path style="fill:none;stroke:red;stroke-width:1px;stroke-linecap:butt;stroke-linejoin:miter;stroke-opacity:1" d="M 540.892,418.696 531.271,418.696 z" id="boundary" inkscape:connector-curvature="0" />
	<path style="fill:none;stroke:red;stroke-width:1px;stroke-linecap:butt;stroke-linejoin:miter;stroke-opacity:1" d="M 531.271,418.696 522.611,413.886 z" id="boundary" inkscape:connector-curvature="0" />
	<path style="fill:none;stroke:red;stroke-width:1px;stroke-linecap:butt;stroke-linejoin:miter;stroke-opacity:1" d="M 522.611,413.886 512.989,413.886 z" id="boundary" inkscape:connector-curvature="0" />
	<path style="fill:none;stroke:red;stroke-width:1px;stroke-linecap:butt;stroke-linejoin:miter;stroke-opacity:1" d="M 512.989,413.886 504.33,409.075 z" id="boundary" inkscape:connector-curvature="0" />
	<path style="fill:none;stroke:red;stroke-width:1px;stroke-linecap:butt;stroke-linejoin:miter;stroke-opacity:1" d="M 504.33,409.075 494.708,406.188 z" id="boundary" inkscape:connector-curvature="0" />
	<path style="fill:none;stroke:red;stroke-width:1px;stroke-linecap:butt;stroke-linejoin:miter;stroke-opacity:1" d="M 494.708,406.188 486.048,401.377 z" id="boundary" inkscape:connector-curvature="0" />
	<path style="fill:none;stroke:red;stroke-width:1px;stroke-linecap:butt;stroke-linejoin:miter;stroke-opacity:1" d="M 486.048,401.377 476.427,397.529 z" id="boundary" inkscape:connector-curvature="0" />
	<path style="fill:none;stroke:red;stroke-width:1px;stroke-linecap:butt;stroke-linejoin:miter;stroke-opacity:1" d="M 476.427,397.529 469.692,389.831 z" id="boundary" inkscape:connector-curvature="0" />
	<path style="fill:none;stroke:red;stroke-width:1px;stroke-linecap:butt;stroke-linejoin:miter;stroke-opacity:1" d="M 469.692,389.831 461.032,385.02 z" id="boundary" inkscape:connector-curvature="0" />
	<path style="fill:none;stroke:red;stroke-width:1px;stroke-linecap:butt;stroke-linejoin:miter;stroke-opacity:1" d="M 461.032,385.02 453.335,379.247 z" id="boundary" inkscape:connector-curvature="0" />
	<path style="fill:none;stroke:red;stroke-width:1px;stroke-linecap:butt;stroke-linejoin:miter;stroke-opacity:1" d="M 453.335,379.247 444.675,374.436 z" id="boundary" inkscape:connector-curvature="0" />
	<path style="fill:none;stroke:red;stroke-width:1px;stroke-linecap:butt;stroke-linejoin:miter;stroke-opacity:1" d="M 444.675,374.436 439.864,365.777 z" id="boundary" inkscape:connector-curvature="0" />
	<path style="fill:none;stroke:red;stroke-width:1px;stroke-linecap:butt;stroke-linejoin:miter;stroke-opacity:1" d="M 439.864,365.777 436.978,356.155 z" id="boundary" inkscape:connector-curvature="0" />
	<path style="fill:none;stroke:red;stroke-width:1px;stroke-linecap:butt;stroke-linejoin:miter;stroke-opacity:1" d="M 436.978,356.155 436.978,346.533 z" id="boundary" inkscape:connector-curvature="0" />
	<path style="fill:none;stroke:red;stroke-width:1px;stroke-linecap:butt;stroke-linejoin:miter;stroke-opacity:1" d="M 436.978,346.533 436.978,336.912 z" id="boundary" inkscape:connector-curvature="0" />
	<path style="fill:none;stroke:red;stroke-width:1px;stroke-linecap:butt;stroke-linejoin:miter;stroke-opacity:1" d="M 436.978,336.912 435.053,327.29 z" id="boundary" inkscape:connector-curvature="0" />
	<path style="fill:none;stroke:red;stroke-width:1px;stroke-linecap:butt;stroke-linejoin:miter;stroke-opacity:1" d="M 435.053,327.29 432.167,317.668 z" id="boundary" inkscape:connector-curvature="0" />
	<path style="fill:none;stroke:red;stroke-width:1px;stroke-linecap:butt;stroke-linejoin:miter;stroke-opacity:1" d="M 432.167,317.668 432.167,308.047 z" id="boundary" inkscape:connector-curvature="0" />
	<path style="fill:none;stroke:red;stroke-width:1px;stroke-linecap:butt;stroke-linejoin:miter;stroke-opacity:1" d="M 432.167,308.047 432.167,298.425 z" id="boundary" inkscape:connector-curvature="0" />
	<path style="fill:none;stroke:red;stroke-width:1px;stroke-linecap:butt;stroke-linejoin:miter;stroke-opacity:1" d="M 432.167,298.425 432.167,288.803 z" id="boundary" inkscape:connector-curvature="0" />
	<path style="fill:none;stroke:red;stroke-width:1px;stroke-linecap:butt;stroke-linejoin:miter;stroke-opacity:1" d="M 432.167,288.803 432.167,279.181 z" id="boundary" inkscape:connector-curvature="0" />
	<path style="fill:none;stroke:red;stroke-width:1px;stroke-linecap:butt;stroke-linejoin:miter;stroke-opacity:1" d="M 432.167,279.181 423.507,274.371 z" id="boundary" inkscape:connector-curvature="0" />
	<path style="fill:none;stroke:red;stroke-width:1px;stroke-linecap:butt;stroke-linejoin:miter;stroke-opacity:1" d="M 423.507,274.371 413.886,274.371 z" id="boundary" inkscape:connector-curvature="0" />
	<path style="fill:none;stroke:red;stroke-width:1px;stroke-linecap:butt;stroke-linejoin:miter;stroke-opacity:1" d="M 413.886,274.371 404.264,274.371 z" id="boundary" inkscape:connector-curvature="0" />
	<path style="fill:none;stroke:red;stroke-width:1px;stroke-linecap:butt;stroke-linejoin:miter;stroke-opacity:1" d="M 404.264,274.371 394.642,274.371 z" id="boundary" inkscape:connector-curvature="0" />
	<path style="fill:none;stroke:red;stroke-width:1px;stroke-linecap:butt;stroke-linejoin:miter;stroke-opacity:1" d="M 394.642,274.371 385.02,274.371 z" id="boundary" inkscape:connector-curvature="0" />
	<path style="fill:none;stroke:red;stroke-width:1px;stroke-linecap:butt;stroke-linejoin:miter;stroke-opacity:1" d="M 385.02,274.371 375.399,274.371 z" id="boundary" inkscape:connector-curvature="0" />
	<path style="fill:none;stroke:red;stroke-width:1px;stroke-linecap:butt;stroke-linejoin:miter;stroke-opacity:1" d="M 375.399,274.371 375.399,283.992 z" id="boundary" inkscape:connector-curvature="0" />
	<path style="fill:none;stroke:red;stroke-width:1px;stroke-linecap:butt;stroke-linejoin:miter;stroke-opacity:1" d="M 375.399,283.992 375.399,293.614 z" id="boundary" inkscape:connector-curvature="0" />
	<path style="fill:none;stroke:red;stroke-width:1px;stroke-linecap:butt;stroke-linejoin:miter;stroke-opacity:1" d="M 375.399,293.614 375.399,303.236 z" id="boundary" inkscape:connector-curvature="0" />
	<path style="fill:none;stroke:red;stroke-width:1px;stroke-linecap:butt;stroke-linejoin:miter;stroke-opacity:1" d="M 375.399,303.236 375.399,312.857 z" id="boundary" inkscape:connector-curvature="0" />
	<path style="fill:none;stroke:red;stroke-width:1px;stroke-linecap:butt;stroke-linejoin:miter;stroke-opacity:1" d="M 375.399,312.857 375.399,322.479 z" id="boundary" inkscape:connector-curvature="0" />
	<path style="fill:none;stroke:red;stroke-width:1px;stroke-linecap:butt;stroke-linejoin:miter;stroke-opacity:1" d="M 375.399,322.479 375.399,332.101 z" id="boundary" inkscape:connector-curvature="0" />
	<path style="fill:none;stroke:red;stroke-width:1px;stroke-linecap:butt;stroke-linejoin:miter;stroke-opacity:1" d="M 375.399,332.101 375.399,341.723 z" id="boundary" inkscape:connector-curvature="0" />
	<path style="fill:none;stroke:red;stroke-width:1px;stroke-linecap:butt;stroke-linejoin:miter;stroke-opacity:1" d="M 375.399,341.723 375.399,351.344 z" id="boundary" inkscape:connector-curvature="0" />
	<path style="fill:none;stroke:red;stroke-width:1px;stroke-linecap:butt;stroke-linejoin:miter;stroke-opacity:1" d="M 375.399,351.344 370.588,360.966 z" id="boundary" inkscape:connector-curvature="0" />
	<path style="fill:none;stroke:red;stroke-width:1px;stroke-linecap:butt;stroke-linejoin:miter;stroke-opacity:1" d="M 370.588,360.966 363.853,368.663 z" id="boundary" inkscape:connector-curvature="0" />
	<path style="fill:none;stroke:red;stroke-width:1px;stroke-linecap:butt;stroke-linejoin:miter;stroke-opacity:1" d="M 363.853,368.663 354.231,373.474 z" id="boundary" inkscape:connector-curvature="0" />
	<path style="fill:none;stroke:red;stroke-width:1px;stroke-linecap:butt;stroke-linejoin:miter;stroke-opacity:1" d="M 354.231,373.474 344.609,375.399 z" id="boundary" inkscape:connector-curvature="0" />
	<path style="fill:none;stroke:red;stroke-width:1px;stroke-linecap:butt;stroke-linejoin:miter;stroke-opacity:1" d="M 344.609,375.399 335.95,370.588 z" id="boundary" inkscape:connector-curvature="0" />
	<path style="fill:none;stroke:red;stroke-width:1px;stroke-linecap:butt;stroke-linejoin:miter;stroke-opacity:1" d="M 335.95,370.588 326.328,366.739 z" id="boundary" inkscape:connector-curvature="0" />
	<path style="fill:none;stroke:red;stroke-width:1px;stroke-linecap:butt;stroke-linejoin:miter;stroke-opacity:1" d="M 326.328,366.739 321.517,358.08 z" id="boundary" inkscape:connector-curvature="0" />
	<path style="fill:none;stroke:red;stroke-width:1px;stroke-linecap:butt;stroke-linejoin:miter;stroke-opacity:1" d="M 321.517,358.08 321.517,348.458 z" id="boundary" inkscape:connector-curvature="0" />
	<path style="fill:none;stroke:red;stroke-width:1px;stroke-linecap:butt;stroke-linejoin:miter;stroke-opacity:1" d="M 321.517,348.458 321.517,338.836 z" id="boundary" inkscape:connector-curvature="0" />
	<path style="fill:none;stroke:red;stroke-width:1px;stroke-linecap:butt;stroke-linejoin:miter;stroke-opacity:1" d="M 321.517,338.836 321.517,329.214 z" id="boundary" inkscape:connector-curvature="0" />
	<path style="fill:none;stroke:red;stroke-width:1px;stroke-linecap:butt;stroke-linejoin:miter;stroke-opacity:1" d="M 321.517,329.214 321.517,319.593 z" id="boundary" inkscape:connector-curvature="0" />
	<path style="fill:none;stroke:red;stroke-width:1px;stroke-linecap:butt;stroke-linejoin:miter;stroke-opacity:1" d="M 321.517,319.593 321.517,309.971 z" id="boundary" inkscape:connector-curvature="0" />
	<path style="fill:none;stroke:red;stroke-width:1px;stroke-linecap:butt;stroke-linejoin:miter;stroke-opacity:1" d="M 321.517,309.971 321.517,300.349 z" id="boundary" inkscape:connector-curvature="0" />
	<path style="fill:none;stroke:red;stroke-width:1px;stroke-linecap:butt;stroke-linejoin:miter;stroke-opacity:1" d="M 321.517,300.349 316.706,291.69 z" id="boundary" inkscape:connector-curvature="0" />
	<path style="fill:none;stroke:red;stroke-width:1px;stroke-linecap:butt;stroke-linejoin:miter;stroke-opacity:1" d="M 316.706,291.69 312.857,282.068 z" id="boundary" inkscape:connector-curvature="0" />
	<path style="fill:none;stroke:red;stroke-width:1px;stroke-linecap:butt;stroke-linejoin:miter;stroke-opacity:1" d="M 312.857,282.068 311.895,272.446 z" id="boundary" inkscape:connector-curvature="0" />
	<path style="fill:none;stroke:red;stroke-width:1px;stroke-linecap:butt;stroke-linejoin:miter;stroke-opacity:1" d="M 311.895,272.446 307.084,263.787 z" id="boundary" inkscape:connector-curvature="0" />
	<path style="fill:none;stroke:red;stroke-width:1px;stroke-linecap:butt;stroke-linejoin:miter;stroke-opacity:1" d="M 307.084,263.787 302.274,255.127 z" id="boundary" inkscape:connector-curvature="0" />
	<path style="fill:none;stroke:red;stroke-width:1px;stroke-linecap:butt;stroke-linejoin:miter;stroke-opacity:1" d="M 302.274,255.127 292.652,255.127 z" id="boundary" inkscape:connector-curvature="0" />
	<path style="fill:none;stroke:red;stroke-width:1px;stroke-linecap:butt;stroke-linejoin:miter;stroke-opacity:1" d="M 292.652,255.127 283.03,255.127 z" id="boundary" inkscape:connector-curvature="0" />
	<path style="fill:none;stroke:red;stroke-width:1px;stroke-linecap:butt;stroke-linejoin:miter;stroke-opacity:1" d="M 283.03,255.127 273.408,255.127 z" id="boundary" inkscape:connector-curvature="0" />
	<path style="fill:none;stroke:red;stroke-width:1px;stroke-linecap:butt;stroke-linejoin:miter;stroke-opacity:1" d="M 273.408,255.127 263.787,255.127 z" id="boundary" inkscape:connector-curvature="0" />
	<path style="fill:none;stroke:red;stroke-width:1px;stroke-linecap:butt;stroke-linejoin:miter;stroke-opacity:1" d="M 263.787,255.127 254.165,255.127 z" id="boundary" inkscape:connector-curvature="0" />
	<path style="fill:none;stroke:red;stroke-width:1px;stroke-linecap:butt;stroke-linejoin:miter;stroke-opacity:1" d="M 254.165,255.127 244.543,255.127 z" id="boundary" inkscape:connector-curvature="0" />
	<path style="fill:none;stroke:red;stroke-width:1px;stroke-linecap:butt;stroke-linejoin:miter;stroke-opacity:1" d="M 244.543,255.127 234.921,255.127 z" id="boundary" inkscape:connector-curvature="0" />
	<path style="fill:none;stroke:red;stroke-width:1px;stroke-linecap:butt;stroke-linejoin:miter;stroke-opacity:1" d="M 234.921,255.127 225.3,255.127 z" id="boundary" inkscape:connector-curvature="0" />
	<path style="fill:none;stroke:red;stroke-width:1px;stroke-linecap:butt;stroke-linejoin:miter;stroke-opacity:1" d="M 225.3,255.127 215.678,255.127 z" id="boundary" inkscape:connector-curvature="0" />
	<path style="fill:none;stroke:red;stroke-width:1px;stroke-linecap:butt;stroke-linejoin:miter;stroke-opacity:1" d="M 215.678,255.127 206.056,257.051 z" id="boundary" inkscape:connector-curvature="0" />
	<path style="fill:none;stroke:red;stroke-width:1px;stroke-linecap:butt;stroke-linejoin:miter;stroke-opacity:1" d="M 206.056,257.051 196.435,259.938 z" id="boundary" inkscape:connector-curvature="0" />
	<path style="fill:none;stroke:red;stroke-width:1px;stroke-linecap:butt;stroke-linejoin:miter;stroke-opacity:1" d="M 196.435,259.938 187.775,264.749 z" id="boundary" inkscape:connector-curvature="0" />
	<path style="fill:none;stroke:red;stroke-width:1px;stroke-linecap:butt;stroke-linejoin:miter;stroke-opacity:1" d="M 187.775,264.749 182.964,274.371 z" id="boundary" inkscape:connector-curvature="0" />
	<path style="fill:none;stroke:red;stroke-width:1px;stroke-linecap:butt;stroke-linejoin:miter;stroke-opacity:1" d="M 182.964,274.371 178.153,283.992 z" id="boundary" inkscape:connector-curvature="0" />
	<path style="fill:none;stroke:red;stroke-width:1px;stroke-linecap:butt;stroke-linejoin:miter;stroke-opacity:1" d="M 178.153,283.992 173.342,293.614 z" id="boundary" inkscape:connector-curvature="0" />
	<path style="fill:none;stroke:red;stroke-width:1px;stroke-linecap:butt;stroke-linejoin:miter;stroke-opacity:1" d="M 173.342,293.614 166.607,306.122 z" id="boundary" inkscape:connector-curvature="0" />
	<path style="fill:none;stroke:red;stroke-width:1px;stroke-linecap:butt;stroke-linejoin:miter;stroke-opacity:1" d="M 166.607,306.122 158.91,312.857 z" id="boundary" inkscape:connector-curvature="0" />
	<path style="fill:none;stroke:red;stroke-width:1px;stroke-linecap:butt;stroke-linejoin:miter;stroke-opacity:1" d="M 158.91,312.857 158.91,322.479 z" id="boundary" inkscape:connector-curvature="0" />
	<path style="fill:none;stroke:red;stroke-width:1px;stroke-linecap:butt;stroke-linejoin:miter;stroke-opacity:1" d="M 158.91,322.479 158.91,332.101 z" id="boundary" inkscape:connector-curvature="0" />
	<path style="fill:none;stroke:red;stroke-width:1px;stroke-linecap:butt;stroke-linejoin:miter;stroke-opacity:1" d="M 158.91,332.101 158.91,341.723 z" id="boundary" inkscape:connector-curvature="0" />
	<path style="fill:none;stroke:red;stroke-width:1px;stroke-linecap:butt;stroke-linejoin:miter;stroke-opacity:1" d="M 158.91,341.723 158.91,351.344 z" id="boundary" inkscape:connector-curvature="0" />
	<path style="fill:none;stroke:red;stroke-width:1px;stroke-linecap:butt;stroke-linejoin:miter;stroke-opacity:1" d="M 158.91,351.344 154.099,365.777 z" id="boundary" inkscape:connector-curvature="0" />
	<path style="fill:none;stroke:red;stroke-width:1px;stroke-linecap:butt;stroke-linejoin:miter;stroke-opacity:1" d="M 154.099,365.777 144.477,375.399 z" id="boundary" inkscape:connector-curvature="0" />
	<path style="fill:none;stroke:red;stroke-width:1px;stroke-linecap:butt;stroke-linejoin:miter;stroke-opacity:1" d="M 144.477,375.399 134.855,380.21 z" id="boundary" inkscape:connector-curvature="0" />
	<path style="fill:none;stroke:red;stroke-width:1px;stroke-linecap:butt;stroke-linejoin:miter;stroke-opacity:1" d="M 134.855,380.21 127.158,374.436 z" id="boundary" inkscape:connector-curvature="0" />
	<path style="fill:none;stroke:red;stroke-width:1px;stroke-linecap:butt;stroke-linejoin:miter;stroke-opacity:1" d="M 127.158,374.436 119.461,367.701 z" id="boundary" inkscape:connector-curvature="0" />
	<path style="fill:none;stroke:red;stroke-width:1px;stroke-linecap:butt;stroke-linejoin:miter;stroke-opacity:1" d="M 119.461,367.701 119.461,358.08 z" id="boundary" inkscape:connector-curvature="0" />
	<path style="fill:none;stroke:red;stroke-width:1px;stroke-linecap:butt;stroke-linejoin:miter;stroke-opacity:1" d="M 119.461,358.08 124.272,348.458 z" id="boundary" inkscape:connector-curvature="0" />
	<path style="fill:none;stroke:red;stroke-width:1px;stroke-linecap:butt;stroke-linejoin:miter;stroke-opacity:1" d="M 124.272,348.458 124.272,338.836 z" id="boundary" inkscape:connector-curvature="0" />
	<path style="fill:none;stroke:red;stroke-width:1px;stroke-linecap:butt;stroke-linejoin:miter;stroke-opacity:1" d="M 124.272,338.836 124.272,329.214 z" id="boundary" inkscape:connector-curvature="0" />
	<path style="fill:none;stroke:red;stroke-width:1px;stroke-linecap:butt;stroke-linejoin:miter;stroke-opacity:1" d="M 124.272,329.214 129.082,314.782 z" id="boundary" inkscape:connector-curvature="0" />
	<path style="fill:none;stroke:red;stroke-width:1px;stroke-linecap:butt;stroke-linejoin:miter;stroke-opacity:1" d="M 129.082,314.782 129.082,305.16 z" id="boundary" inkscape:connector-curvature="0" />
	<path style="fill:none;stroke:red;stroke-width:1px;stroke-linecap:butt;stroke-linejoin:miter;stroke-opacity:1" d="M 129.082,305.16 133.893,289.765 z" id="boundary" inkscape:connector-curvature="0" />
	<path style="fill:none;stroke:red;stroke-width:1px;stroke-linecap:butt;stroke-linejoin:miter;stroke-opacity:1" d="M 133.893,289.765 133.893,280.144 z" id="boundary" inkscape:connector-curvature="0" />
	<path style="fill:none;stroke:red;stroke-width:1px;stroke-linecap:butt;stroke-linejoin:miter;stroke-opacity:1" d="M 133.893,280.144 133.893,270.522 z" id="boundary" inkscape:connector-curvature="0" />
	<path style="fill:none;stroke:red;stroke-width:1px;stroke-linecap:butt;stroke-linejoin:miter;stroke-opacity:1" d="M 133.893,270.522 133.893,260.9 z" id="boundary" inkscape:connector-curvature="0" />
	<path style="fill:none;stroke:red;stroke-width:1px;stroke-linecap:butt;stroke-linejoin:miter;stroke-opacity:1" d="M 133.893,260.9 133.893,251.278 z" id="boundary" inkscape:connector-curvature="0" />
	<path style="fill:none;stroke:red;stroke-width:1px;stroke-linecap:butt;stroke-linejoin:miter;stroke-opacity:1" d="M 133.893,251.278 133.893,241.657 z" id="boundary" inkscape:connector-curvature="0" />
	<path style="fill:none;stroke:red;stroke-width:1px;stroke-linecap:butt;stroke-linejoin:miter;stroke-opacity:1" d="M 133.893,241.657 133.893,232.035 z" id="boundary" inkscape:connector-curvature="0" />
	<path style="fill:none;stroke:red;stroke-width:1px;stroke-linecap:butt;stroke-linejoin:miter;stroke-opacity:1" d="M 133.893,232.035 133.893,222.413 z" id="boundary" inkscape:connector-curvature="0" />
	<path style="fill:none;stroke:red;stroke-width:1px;stroke-linecap:butt;stroke-linejoin:miter;stroke-opacity:1" d="M 133.893,222.413 133.893,212.791 z" id="boundary" inkscape:connector-curvature="0" />
	<path style="fill:none;stroke:red;stroke-width:1px;stroke-linecap:butt;stroke-linejoin:miter;stroke-opacity:1" d="M 133.893,212.791 133.893,203.17 z" id="boundary" inkscape:connector-curvature="0" />
	<path style="fill:none;stroke:red;stroke-width:1px;stroke-linecap:butt;stroke-linejoin:miter;stroke-opacity:1" d="M 133.893,203.17 129.082,194.51 z" id="boundary" inkscape:connector-curvature="0" />
	<path style="fill:none;stroke:red;stroke-width:1px;stroke-linecap:butt;stroke-linejoin:miter;stroke-opacity:1" d="M 129.082,194.51 122.347,186.813 z" id="boundary" inkscape:connector-curvature="0" />
	<path style="fill:none;stroke:red;stroke-width:1px;stroke-linecap:butt;stroke-linejoin:miter;stroke-opacity:1" d="M 122.347,186.813 112.726,182.964 z" id="boundary" inkscape:connector-curvature="0" />
	<path style="fill:none;stroke:red;stroke-width:1px;stroke-linecap:butt;stroke-linejoin:miter;stroke-opacity:1" d="M 112.726,182.964 105.99,175.267 z" id="boundary" inkscape:connector-curvature="0" />
	<path style="fill:none;stroke:red;stroke-width:1px;stroke-linecap:butt;stroke-linejoin:miter;stroke-opacity:1" d="M 105.99,175.267 100.217,167.569 z" id="boundary" inkscape:connector-curvature="0" />
	<path style="fill:none;stroke:red;stroke-width:1px;stroke-linecap:butt;stroke-linejoin:miter;stroke-opacity:1" d="M 100.217,167.569 95.4064,158.91 z" id="boundary" inkscape:connector-curvature="0" />
	<path style="fill:none;stroke:red;stroke-width:1px;stroke-linecap:butt;stroke-linejoin:miter;stroke-opacity:1" d="M 95.4064,158.91 93.4821,149.288 z" id="boundary" inkscape:connector-curvature="0" />
	<path style="fill:none;stroke:red;stroke-width:1px;stroke-linecap:butt;stroke-linejoin:miter;stroke-opacity:1" d="M 93.4821,149.288 90.5955,139.666 z" id="boundary" inkscape:connector-curvature="0" />
	<path style="fill:none;stroke:red;stroke-width:1px;stroke-linecap:butt;stroke-linejoin:miter;stroke-opacity:1" d="M 90.5955,139.666 89.6334,130.045 z" id="boundary" inkscape:connector-curvature="0" />
	<path style="fill:none;stroke:red;stroke-width:1px;stroke-linecap:butt;stroke-linejoin:miter;stroke-opacity:1" d="M 89.6334,130.045 80.9738,134.855 z" id="boundary" inkscape:connector-curvature="0" />
	<path style="fill:none;stroke:red;stroke-width:1px;stroke-linecap:butt;stroke-linejoin:miter;stroke-opacity:1" d="M 80.9738,134.855 71.3521,134.855 z" id="boundary" inkscape:connector-curvature="0" />
	<path style="fill:none;stroke:red;stroke-width:1px;stroke-linecap:butt;stroke-linejoin:miter;stroke-opacity:1" d="M 71.3521,134.855 62.6925,139.666 z" id="boundary" inkscape:connector-curvature="0" />
	<path style="fill:none;stroke:red;stroke-width:1px;stroke-linecap:butt;stroke-linejoin:miter;stroke-opacity:1" d="M 62.6925,139.666 54.9952,148.326 z" id="boundary" inkscape:connector-curvature="0" />
	<path style="fill:none;stroke:red;stroke-width:1px;stroke-linecap:butt;stroke-linejoin:miter;stroke-opacity:1" d="M 54.9952,148.326 47.2978,154.099 z" id="boundary" inkscape:connector-curvature="0" />
	<path style="fill:none;stroke:red;stroke-width:1px;stroke-linecap:butt;stroke-linejoin:miter;stroke-opacity:1" d="M 47.2978,154.099 38.6382,158.91 z" id="boundary" inkscape:connector-curvature="0" />
	<path style="fill:none;stroke:red;stroke-width:1px;stroke-linecap:butt;stroke-linejoin:miter;stroke-opacity:1" d="M 38.6382,158.91 29.0165,158.91 z" id="boundary" inkscape:connector-curvature="0" />
	<path style="fill:none;stroke:red;stroke-width:1px;stroke-linecap:butt;stroke-linejoin:miter;stroke-opacity:1" d="M 29.0165,158.91 19.3948,163.721 z" id="boundary" inkscape:connector-curvature="0" />
	<path style="fill:none;stroke:red;stroke-width:1px;stroke-linecap:butt;stroke-linejoin:miter;stroke-opacity:1" d="M 19.3948,163.721 11.6974,157.948 z" id="boundary" inkscape:connector-curvature="0" />
	<path style="fill:none;stroke:red;stroke-width:1px;stroke-linecap:butt;stroke-linejoin:miter;stroke-opacity:1" d="M 11.6974,157.948 4,151.212 z" id="boundary" inkscape:connector-curvature="0" />
	<path style="fill:none;stroke:red;stroke-width:1px;stroke-linecap:butt;stroke-linejoin:miter;stroke-opacity:1" d="M 4,151.212 8.81086,141.591 z" id="boundary" inkscape:connector-curvature="0" />
	<path style="fill:none;stroke:red;stroke-width:1px;stroke-linecap:butt;stroke-linejoin:miter;stroke-opacity:1" d="M 8.81086,141.591 16.5082,133.893 z" id="boundary" inkscape:connector-curvature="0" />
	<path style="fill:none;stroke:red;stroke-width:1px;stroke-linecap:butt;stroke-linejoin:miter;stroke-opacity:1" d="M 16.5082,133.893 21.3191,124.272 z" id="boundary" inkscape:connector-curvature="0" />
	<path style="fill:none;stroke:red;stroke-width:1px;stroke-linecap:butt;stroke-linejoin:miter;stroke-opacity:1" d="M 21.3191,124.272 26.13,114.65 z" id="boundary" inkscape:connector-curvature="0" />
	<path style="fill:none;stroke:red;stroke-width:1px;stroke-linecap:butt;stroke-linejoin:miter;stroke-opacity:1" d="M 26.13,114.65 30.9408,105.028 z" id="boundary" inkscape:connector-curvature="0" />
	<path style="fill:none;stroke:red;stroke-width:1px;stroke-linecap:butt;stroke-linejoin:miter;stroke-opacity:1" d="M 30.9408,105.028 35.7517,95.4064 z" id="boundary" inkscape:connector-curvature="0" />
	<path style="fill:none;stroke:red;stroke-width:1px;stroke-linecap:butt;stroke-linejoin:miter;stroke-opacity:1" d="M 35.7517,95.4064 40.5626,85.7847 z" id="boundary" inkscape:connector-curvature="0" />
	<path style="fill:none;stroke:red;stroke-width:1px;stroke-linecap:butt;stroke-linejoin:miter;stroke-opacity:1" d="M 40.5626,85.7847 42.4869,74.2386 z" id="boundary" inkscape:connector-curvature="0" />
	<path style="fill:none;stroke:red;stroke-width:1px;stroke-linecap:butt;stroke-linejoin:miter;stroke-opacity:1" d="M 42.4869,74.2386 47.2978,64.6169 z" id="boundary" inkscape:connector-curvature="0" />
	<path style="fill:none;stroke:red;stroke-width:1px;stroke-linecap:butt;stroke-linejoin:miter;stroke-opacity:1" d="M 47.2978,64.6169 52.1086,54.9952 z" id="boundary" inkscape:connector-curvature="0" />
	<path style="fill:none;stroke:red;stroke-width:1px;stroke-linecap:butt;stroke-linejoin:miter;stroke-opacity:1" d="M 52.1086,54.9952 61.7304,50.1843 z" id="boundary" inkscape:connector-curvature="0" />
	<path style="fill:none;stroke:red;stroke-width:1px;stroke-linecap:butt;stroke-linejoin:miter;stroke-opacity:1" d="M 61.7304,50.1843 71.3521,45.3734 z" id="boundary" inkscape:connector-curvature="0" />
	<path style="fill:none;stroke:red;stroke-width:1px;stroke-linecap:butt;stroke-linejoin:miter;stroke-opacity:1" d="M 71.3521,45.3734 80.9738,42.4869 z" id="boundary" inkscape:connector-curvature="0" />
	<path style="fill:none;stroke:red;stroke-width:1px;stroke-linecap:butt;stroke-linejoin:miter;stroke-opacity:1" d="M 80.9738,42.4869 89.6334,47.2978 z" id="boundary" inkscape:connector-curvature="0" />
	<path style="fill:none;stroke:red;stroke-width:1px;stroke-linecap:butt;stroke-linejoin:miter;stroke-opacity:1" d="M 89.6334,47.2978 99.2551,48.2599 z" id="boundary" inkscape:connector-curvature="0" />
	<path style="fill:none;stroke:red;stroke-width:1px;stroke-linecap:butt;stroke-linejoin:miter;stroke-opacity:1" d="M 99.2551,48.2599 107.915,53.0708 z" id="boundary" inkscape:connector-curvature="0" />
	<path style="fill:none;stroke:red;stroke-width:1px;stroke-linecap:butt;stroke-linejoin:miter;stroke-opacity:1" d="M 107.915,53.0708 117.536,56.9195 z" id="boundary" inkscape:connector-curvature="0" />
	<path style="fill:none;stroke:red;stroke-width:1px;stroke-linecap:butt;stroke-linejoin:miter;stroke-opacity:1" d="M 117.536,56.9195 126.196,61.7304 z" id="boundary" inkscape:connector-curvature="0" />
	<path style="fill:none;stroke:red;stroke-width:1px;stroke-linecap:butt;stroke-linejoin:miter;stroke-opacity:1" d="M 126.196,61.7304 133.893,68.4656 z" id="boundary" inkscape:connector-curvature="0" />
	<path style="fill:none;stroke:red;stroke-width:1px;stroke-linecap:butt;stroke-linejoin:miter;stroke-opacity:1" d="M 133.893,68.4656 137.742,78.0873 z" id="boundary" inkscape:connector-curvature="0" />
	<path style="fill:none;stroke:red;stroke-width:1px;stroke-linecap:butt;stroke-linejoin:miter;stroke-opacity:1" d="M 137.742,78.0873 144.477,85.7847 z" id="boundary" inkscape:connector-curvature="0" />
	<path style="fill:none;stroke:red;stroke-width:1px;stroke-linecap:butt;stroke-linejoin:miter;stroke-opacity:1" d="M 144.477,85.7847 152.175,91.5577 z" id="boundary" inkscape:connector-curvature="0" />
	<path style="fill:none;stroke:red;stroke-width:1px;stroke-linecap:butt;stroke-linejoin:miter;stroke-opacity:1" d="M 152.175,91.5577 158.91,99.2551 z" id="boundary" inkscape:connector-curvature="0" />
	<path style="fill:none;stroke:red;stroke-width:1px;stroke-linecap:butt;stroke-linejoin:miter;stroke-opacity:1" d="M 158.91,99.2551 166.607,105.99 z" id="boundary" inkscape:connector-curvature="0" />
	<path style="fill:none;stroke:red;stroke-width:1px;stroke-linecap:butt;stroke-linejoin:miter;stroke-opacity:1" d="M 166.607,105.99 175.267,110.801 z" id="boundary" inkscape:connector-curvature="0" />
	<path style="fill:none;stroke:red;stroke-width:1px;stroke-linecap:butt;stroke-linejoin:miter;stroke-opacity:1" d="M 175.267,110.801 182.964,117.536 z" id="boundary" inkscape:connector-curvature="0" />
	<path style="fill:none;stroke:red;stroke-width:1px;stroke-linecap:butt;stroke-linejoin:miter;stroke-opacity:1" d="M 182.964,117.536 191.624,122.347 z" id="boundary" inkscape:connector-curvature="0" />
	<path style="fill:none;stroke:red;stroke-width:1px;stroke-linecap:butt;stroke-linejoin:miter;stroke-opacity:1" d="M 191.624,122.347 201.245,124.272 z" id="boundary" inkscape:connector-curvature="0" />
	<path style="fill:none;stroke:red;stroke-width:1px;stroke-linecap:butt;stroke-linejoin:miter;stroke-opacity:1" d="M 201.245,124.272 210.867,124.272 z" id="boundary" inkscape:connector-curvature="0" />
	<path style="fill:none;stroke:red;stroke-width:1px;stroke-linecap:butt;stroke-linejoin:miter;stroke-opacity:1" d="M 210.867,124.272 220.489,124.272 z" id="boundary" inkscape:connector-curvature="0" />
	<path style="fill:none;stroke:red;stroke-width:1px;stroke-linecap:butt;stroke-linejoin:miter;stroke-opacity:1" d="M 220.489,124.272 230.111,124.272 z" id="boundary" inkscape:connector-curvature="0" />
	<path style="fill:none;stroke:red;stroke-width:1px;stroke-linecap:butt;stroke-linejoin:miter;stroke-opacity:1" d="M 230.111,124.272 239.732,124.272 z" id="boundary" inkscape:connector-curvature="0" />
	<path style="fill:none;stroke:red;stroke-width:1px;stroke-linecap:butt;stroke-linejoin:miter;stroke-opacity:1" d="M 239.732,124.272 249.354,124.272 z" id="boundary" inkscape:connector-curvature="0" />
	<path style="fill:none;stroke:red;stroke-width:1px;stroke-linecap:butt;stroke-linejoin:miter;stroke-opacity:1" d="M 249.354,124.272 258.976,124.272 z" id="boundary" inkscape:connector-curvature="0" />
	<path style="fill:none;stroke:red;stroke-width:1px;stroke-linecap:butt;stroke-linejoin:miter;stroke-opacity:1" d="M 258.976,124.272 268.597,124.272 z" id="boundary" inkscape:connector-curvature="0" />
	<path style="fill:none;stroke:red;stroke-width:1px;stroke-linecap:butt;stroke-linejoin:miter;stroke-opacity:1" d="M 268.597,124.272 278.219,124.272 z" id="boundary" inkscape:connector-curvature="0" />
	<path style="fill:none;stroke:red;stroke-width:1px;stroke-linecap:butt;stroke-linejoin:miter;stroke-opacity:1" d="M 278.219,124.272 287.841,124.272 z" id="boundary" inkscape:connector-curvature="0" />
	<path style="fill:none;stroke:red;stroke-width:1px;stroke-linecap:butt;stroke-linejoin:miter;stroke-opacity:1" d="M 287.841,124.272 296.5,129.082 z" id="boundary" inkscape:connector-curvature="0" />
	<path style="fill:none;stroke:red;stroke-width:1px;stroke-linecap:butt;stroke-linejoin:miter;stroke-opacity:1" d="M 296.5,129.082 306.122,129.082 z" id="boundary" inkscape:connector-curvature="0" />
	<path style="fill:none;stroke:red;stroke-width:1px;stroke-linecap:butt;stroke-linejoin:miter;stroke-opacity:1" d="M 306.122,129.082 314.782,133.893 z" id="boundary" inkscape:connector-curvature="0" />
	<path style="fill:none;stroke:red;stroke-width:1px;stroke-linecap:butt;stroke-linejoin:miter;stroke-opacity:1" d="M 314.782,133.893 324.403,133.893 z" id="boundary" inkscape:connector-curvature="0" />
	<path style="fill:none;stroke:red;stroke-width:1px;stroke-linecap:butt;stroke-linejoin:miter;stroke-opacity:1" d="M 324.403,133.893 333.063,138.704 z" id="boundary" inkscape:connector-curvature="0" />
	<path style="fill:none;stroke:red;stroke-width:1px;stroke-linecap:butt;stroke-linejoin:miter;stroke-opacity:1" d="M 333.063,138.704 342.685,138.704 z" id="boundary" inkscape:connector-curvature="0" />
	<path style="fill:none;stroke:red;stroke-width:1px;stroke-linecap:butt;stroke-linejoin:miter;stroke-opacity:1" d="M 342.685,138.704 352.306,138.704 z" id="boundary" inkscape:connector-curvature="0" />
	<path style="fill:none;stroke:red;stroke-width:1px;stroke-linecap:butt;stroke-linejoin:miter;stroke-opacity:1" d="M 352.306,138.704 361.928,138.704 z" id="boundary" inkscape:connector-curvature="0" />
	<path style="fill:none;stroke:red;stroke-width:1px;stroke-linecap:butt;stroke-linejoin:miter;stroke-opacity:1" d="M 361.928,138.704 370.588,143.515 z" id="boundary" inkscape:connector-curvature="0" />
	<path style="fill:none;stroke:red;stroke-width:1px;stroke-linecap:butt;stroke-linejoin:miter;stroke-opacity:1" d="M 370.588,143.515 380.21,146.402 z" id="boundary" inkscape:connector-curvature="0" />
	<path style="fill:none;stroke:red;stroke-width:1px;stroke-linecap:butt;stroke-linejoin:miter;stroke-opacity:1" d="M 380.21,146.402 388.869,151.212 z" id="boundary" inkscape:connector-curvature="0" />
	<path style="fill:none;stroke:red;stroke-width:1px;stroke-linecap:butt;stroke-linejoin:miter;stroke-opacity:1" d="M 388.869,151.212 394.642,158.91 z" id="boundary" inkscape:connector-curvature="0" />
	<path style="fill:none;stroke:red;stroke-width:1px;stroke-linecap:butt;stroke-linejoin:miter;stroke-opacity:1" d="M 394.642,158.91 399.453,167.569 z" id="boundary" inkscape:connector-curvature="0" />
	<path style="fill:none;stroke:red;stroke-width:1px;stroke-linecap:butt;stroke-linejoin:miter;stroke-opacity:1" d="M 399.453,167.569 404.264,176.229 z" id="boundary" inkscape:connector-curvature="0" />
	<path style="fill:none;stroke:red;stroke-width:1px;stroke-linecap:butt;stroke-linejoin:miter;stroke-opacity:1" d="M 404.264,176.229 404.264,185.851 z" id="boundary" inkscape:connector-curvature="0" />
	<path style="fill:none;stroke:red;stroke-width:1px;stroke-linecap:butt;stroke-linejoin:miter;stroke-opacity:1" d="M 404.264,185.851 409.075,194.51 z" id="boundary" inkscape:connector-curvature="0" />
	<path style="fill:none;stroke:red;stroke-width:1px;stroke-linecap:butt;stroke-linejoin:miter;stroke-opacity:1" d="M 409.075,194.51 409.075,204.132 z" id="boundary" inkscape:connector-curvature="0" />
	<path style="fill:none;stroke:red;stroke-width:1px;stroke-linecap:butt;stroke-linejoin:miter;stroke-opacity:1" d="M 409.075,204.132 418.696,206.056 z" id="boundary" inkscape:connector-curvature="0" />
	<path style="fill:none;stroke:red;stroke-width:1px;stroke-linecap:butt;stroke-linejoin:miter;stroke-opacity:1" d="M 418.696,206.056 428.318,206.056 z" id="boundary" inkscape:connector-curvature="0" />
	<path style="fill:none;stroke:red;stroke-width:1px;stroke-linecap:butt;stroke-linejoin:miter;stroke-opacity:1" d="M 428.318,206.056 437.94,206.056 z" id="boundary" inkscape:connector-curvature="0" />
	<path style="fill:none;stroke:red;stroke-width:1px;stroke-linecap:butt;stroke-linejoin:miter;stroke-opacity:1" d="M 437.94,206.056 446.599,199.321 z" id="boundary" inkscape:connector-curvature="0" />
	<path style="fill:none;stroke:red;stroke-width:1px;stroke-linecap:butt;stroke-linejoin:miter;stroke-opacity:1" d="M 446.599,199.321 454.297,191.624 z" id="boundary" inkscape:connector-curvature="0" />
	<path style="fill:none;stroke:red;stroke-width:1px;stroke-linecap:butt;stroke-linejoin:miter;stroke-opacity:1" d="M 454.297,191.624 463.919,186.813 z" id="boundary" inkscape:connector-curvature="0" />
	<path style="fill:none;stroke:red;stroke-width:1px;stroke-linecap:butt;stroke-linejoin:miter;stroke-opacity:1" d="M 463.919,186.813 465.843,175.267 z" id="boundary" inkscape:connector-curvature="0" />
	<path style="fill:none;stroke:red;stroke-width:1px;stroke-linecap:butt;stroke-linejoin:miter;stroke-opacity:1" d="M 465.843,175.267 465.843,165.645 z" id="boundary" inkscape:connector-curvature="0" />
	<path style="fill:none;stroke:red;stroke-width:1px;stroke-linecap:butt;stroke-linejoin:miter;stroke-opacity:1" d="M 465.843,165.645 470.654,156.023 z" id="boundary" inkscape:connector-curvature="0" />
	<path style="fill:none;stroke:red;stroke-width:1px;stroke-linecap:butt;stroke-linejoin:miter;stroke-opacity:1" d="M 470.654,156.023 470.654,146.402 z" id="boundary" inkscape:connector-curvature="0" />
	<path style="fill:none;stroke:red;stroke-width:1px;stroke-linecap:butt;stroke-linejoin:miter;stroke-opacity:1" d="M 470.654,146.402 470.654,136.78 z" id="boundary" inkscape:connector-curvature="0" />
	<path style="fill:none;stroke:red;stroke-width:1px;stroke-linecap:butt;stroke-linejoin:miter;stroke-opacity:1" d="M 470.654,136.78 475.465,127.158 z" id="boundary" inkscape:connector-curvature="0" />
	<path style="fill:none;stroke:red;stroke-width:1px;stroke-linecap:butt;stroke-linejoin:miter;stroke-opacity:1" d="M 475.465,127.158 485.086,122.347 z" id="boundary" inkscape:connector-curvature="0" />
	<path style="fill:none;stroke:red;stroke-width:1px;stroke-linecap:butt;stroke-linejoin:miter;stroke-opacity:1" d="M 485.086,122.347 492.784,114.65 z" id="boundary" inkscape:connector-curvature="0" />
	<path style="fill:none;stroke:red;stroke-width:1px;stroke-linecap:butt;stroke-linejoin:miter;stroke-opacity:1" d="M 492.784,114.65 502.405,109.839 z" id="boundary" inkscape:connector-curvature="0" />
	<path style="fill:none;stroke:red;stroke-width:1px;stroke-linecap:butt;stroke-linejoin:miter;stroke-opacity:1" d="M 502.405,109.839 512.027,105.028 z" id="boundary" inkscape:connector-curvature="0" />
	<path style="fill:none;stroke:red;stroke-width:1px;stroke-linecap:butt;stroke-linejoin:miter;stroke-opacity:1" d="M 512.027,105.028 519.725,97.3307 z" id="boundary" inkscape:connector-curvature="0" />
	<path style="fill:none;stroke:red;stroke-width:1px;stroke-linecap:butt;stroke-linejoin:miter;stroke-opacity:1" d="M 519.725,97.3307 529.346,92.5199 z" id="boundary" inkscape:connector-curvature="0" />
	<path style="fill:none;stroke:red;stroke-width:1px;stroke-linecap:butt;stroke-linejoin:miter;stroke-opacity:1" d="M 529.346,92.5199 538.968,87.709 z" id="boundary" inkscape:connector-curvature="0" />
	<path style="fill:none;stroke:red;stroke-width:1px;stroke-linecap:butt;stroke-linejoin:miter;stroke-opacity:1" d="M 538.968,87.709 548.59,82.8982 z" id="boundary" inkscape:connector-curvature="0" />
	<path style="fill:none;stroke:red;stroke-width:1px;stroke-linecap:butt;stroke-linejoin:miter;stroke-opacity:1" d="M 548.59,82.8982 552.438,72.3143 z" id="boundary" inkscape:connector-curvature="0" />
	<path style="fill:none;stroke:red;stroke-width:1px;stroke-linecap:butt;stroke-linejoin:miter;stroke-opacity:1" d="M 552.438,72.3143 552.438,62.6925 z" id="boundary" inkscape:connector-curvature="0" />
	<path style="fill:none;stroke:red;stroke-width:1px;stroke-linecap:butt;stroke-linejoin:miter;stroke-opacity:1" d="M 552.438,62.6925 547.628,54.033 z" id="boundary" inkscape:connector-curvature="0" />
	<path style="fill:none;stroke:red;stroke-width:1px;stroke-linecap:butt;stroke-linejoin:miter;stroke-opacity:1" d="M 547.628,54.033 542.817,45.3734 z" id="boundary" inkscape:connector-curvature="0" />
	<path style="fill:none;stroke:red;stroke-width:1px;stroke-linecap:butt;stroke-linejoin:miter;stroke-opacity:1" d="M 542.817,45.3734 542.817,35.7517 z" id="boundary" inkscape:connector-curvature="0" />
	<path style="fill:none;stroke:red;stroke-width:1px;stroke-linecap:butt;stroke-linejoin:miter;stroke-opacity:1" d="M 542.817,35.7517 547.628,26.13 z" id="boundary" inkscape:connector-curvature="0" />
	<path style="fill:none;stroke:red;stroke-width:1px;stroke-linecap:butt;stroke-linejoin:miter;stroke-opacity:1" d="M 547.628,26.13 552.438,16.5082 z" id="boundary" inkscape:connector-curvature="0" />
	<path style="fill:none;stroke:red;stroke-width:1px;stroke-linecap:butt;stroke-linejoin:miter;stroke-opacity:1" d="M 552.438,16.5082 562.06,11.6974 z" id="boundary" inkscape:connector-curvature="0" />
	<path style="fill:none;stroke:red;stroke-width:1px;stroke-linecap:butt;stroke-linejoin:miter;stroke-opacity:1" d="M 562.06,11.6974 571.682,6.88652 z" id="boundary" inkscape:connector-curvature="0" />
	<path style="fill:none;stroke:red;stroke-width:1px;stroke-linecap:butt;stroke-linejoin:miter;stroke-opacity:1" d="M 571.682,6.88652 581.304,4 z" id="boundary" inkscape:connector-curvature="0" />
	<path style="fill:none;stroke:red;stroke-width:1px;stroke-linecap:butt;stroke-linejoin:miter;stroke-opacity:1" d="M 581.304,4 590.925,5.92435 z" id="boundary" inkscape:connector-curvature="0" />
	<path style="fill:none;stroke:red;stroke-width:1px;stroke-linecap:butt;stroke-linejoin:miter;stroke-opacity:1" d="M 590.925,5.92435 599.585,10.7352 z" id="boundary" inkscape:connector-curvature="0" />
	<path style="fill:none;stroke:red;stroke-width:1px;stroke-linecap:butt;stroke-linejoin:miter;stroke-opacity:1" d="M 599.585,10.7352 604.396,19.3948 z" id="boundary" inkscape:connector-curvature="0" />
	<path style="fill:none;stroke:red;stroke-width:1px;stroke-linecap:butt;stroke-linejoin:miter;stroke-opacity:1" d="M 604.396,19.3948 606.32,29.0165 z" id="boundary" inkscape:connector-curvature="0" />
	<path style="fill:none;stroke:red;stroke-width:1px;stroke-linecap:butt;stroke-linejoin:miter;stroke-opacity:1" d="M 606.32,29.0165 606.32,38.6382 z" id="boundary" inkscape:connector-curvature="0" />
	<path style="fill:none;stroke:red;stroke-width:1px;stroke-linecap:butt;stroke-linejoin:miter;stroke-opacity:1" d="M 606.32,38.6382 608.244,48.2599 z" id="boundary" inkscape:connector-curvature="0" />
	<path style="fill:none;stroke:red;stroke-width:1px;stroke-linecap:butt;stroke-linejoin:miter;stroke-opacity:1" d="M 608.244,48.2599 613.055,56.9195 z" id="boundary" inkscape:connector-curvature="0" />
	<path style="fill:none;stroke:red;stroke-width:1px;stroke-linecap:butt;stroke-linejoin:miter;stroke-opacity:1" d="M 613.055,56.9195 615.942,66.5412 z" id="boundary" inkscape:connector-curvature="0" />
	<path style="fill:none;stroke:red;stroke-width:1px;stroke-linecap:butt;stroke-linejoin:miter;stroke-opacity:1" d="M 615.942,66.5412 620.753,75.2008 z" id="boundary" inkscape:connector-curvature="0" />
	<path style="fill:none;stroke:red;stroke-width:1px;stroke-linecap:butt;stroke-linejoin:miter;stroke-opacity:1" d="M 620.753,75.2008 620.753,84.8225 z" id="boundary" inkscape:connector-curvature="0" />
	<path style="fill:none;stroke:red;stroke-width:1px;stroke-linecap:butt;stroke-linejoin:miter;stroke-opacity:1" d="M 620.753,84.8225 625.564,93.4821 z" id="boundary" inkscape:connector-curvature="0" />
	<path style="fill:none;stroke:red;stroke-width:1px;stroke-linecap:butt;stroke-linejoin:miter;stroke-opacity:1" d="M 625.564,93.4821 625.564,103.104 z" id="boundary" inkscape:connector-curvature="0" />
	<path style="fill:none;stroke:red;stroke-width:1px;stroke-linecap:butt;stroke-linejoin:miter;stroke-opacity:1" d="M 625.564,103.104 625.564,112.726 z" id="boundary" inkscape:connector-curvature="0" />
	<path style="fill:none;stroke:red;stroke-width:1px;stroke-linecap:butt;stroke-linejoin:miter;stroke-opacity:1" d="M 625.564,112.726 625.564,122.347 z" id="boundary" inkscape:connector-curvature="0" />
	<path style="fill:none;stroke:red;stroke-width:1px;stroke-linecap:butt;stroke-linejoin:miter;stroke-opacity:1" d="M 625.564,122.347 629.412,131.969 z" id="boundary" inkscape:connector-curvature="0" />
	<path style="fill:none;stroke:red;stroke-width:1px;stroke-linecap:butt;stroke-linejoin:miter;stroke-opacity:1" d="M 629.412,131.969 630.374,141.591 z" id="boundary" inkscape:connector-curvature="0" />
	<path style="fill:none;stroke:red;stroke-width:1px;stroke-linecap:butt;stroke-linejoin:miter;stroke-opacity:1" d="M 630.374,141.591 630.374,151.212 z" id="boundary" inkscape:connector-curvature="0" />
	<path style="fill:none;stroke:red;stroke-width:1px;stroke-linecap:butt;stroke-linejoin:miter;stroke-opacity:1" d="M 630.374,151.212 635.185,159.872 z" id="boundary" inkscape:connector-curvature="0" />
	<path style="fill:none;stroke:red;stroke-width:1px;stroke-linecap:butt;stroke-linejoin:miter;stroke-opacity:1" d="M 635.185,159.872 635.185,169.494 z" id="boundary" inkscape:connector-curvature="0" />
	<path style="fill:none;stroke:red;stroke-width:1px;stroke-linecap:butt;stroke-linejoin:miter;stroke-opacity:1" d="M 635.185,169.494 635.185,179.115 z" id="boundary" inkscape:connector-curvature="0" />
	<path style="fill:none;stroke:red;stroke-width:1px;stroke-linecap:butt;stroke-linejoin:miter;stroke-opacity:1" d="M 635.185,179.115 644.807,182.002 z" id="boundary" inkscape:connector-curvature="0" />
	<path style="fill:none;stroke:red;stroke-width:1px;stroke-linecap:butt;stroke-linejoin:miter;stroke-opacity:1" d="M 644.807,182.002 654.429,182.002 z" id="boundary" inkscape:connector-curvature="0" />
	<path style="fill:none;stroke:red;stroke-width:1px;stroke-linecap:butt;stroke-linejoin:miter;stroke-opacity:1" d="M 654.429,182.002 664.05,182.002 z" id="boundary" inkscape:connector-curvature="0" />
	<path style="fill:none;stroke:red;stroke-width:1px;stroke-linecap:butt;stroke-linejoin:miter;stroke-opacity:1" d="M 664.05,182.002 673.672,182.002 z" id="boundary" inkscape:connector-curvature="0" />
	<path style="fill:none;stroke:red;stroke-width:1px;stroke-linecap:butt;stroke-linejoin:miter;stroke-opacity:1" d="M 673.672,182.002 682.332,177.191 z" id="boundary" inkscape:connector-curvature="0" />
	<path style="fill:none;stroke:red;stroke-width:1px;stroke-linecap:butt;stroke-linejoin:miter;stroke-opacity:1" d="M 682.332,177.191 691.953,177.191 z" id="boundary" inkscape:connector-curvature="0" />
	<path style="fill:none;stroke:red;stroke-width:1px;stroke-linecap:butt;stroke-linejoin:miter;stroke-opacity:1" d="M 691.953,177.191 700.613,172.38 z" id="boundary" inkscape:connector-curvature="0" />
	<path style="fill:none;stroke:red;stroke-width:1px;stroke-linecap:butt;stroke-linejoin:miter;stroke-opacity:1" d="M 700.613,172.38 701.575,156.023 z" id="boundary" inkscape:connector-curvature="0" />
	<path style="fill:none;stroke:red;stroke-width:1px;stroke-linecap:butt;stroke-linejoin:miter;stroke-opacity:1" d="M 701.575,156.023 706.386,146.402 z" id="boundary" inkscape:connector-curvature="0" />
	<path style="fill:none;stroke:red;stroke-width:1px;stroke-linecap:butt;stroke-linejoin:miter;stroke-opacity:1" d="M 706.386,146.402 711.197,136.78 z" id="boundary" inkscape:connector-curvature="0" />
	<path style="fill:none;stroke:red;stroke-width:1px;stroke-linecap:butt;stroke-linejoin:miter;stroke-opacity:1" d="M 711.197,136.78 718.894,129.082 z" id="boundary" inkscape:connector-curvature="0" />
	<path style="fill:none;stroke:red;stroke-width:1px;stroke-linecap:butt;stroke-linejoin:miter;stroke-opacity:1" d="M 718.894,129.082 728.516,124.272 z" id="boundary" inkscape:connector-curvature="0" />
	<path style="fill:none;stroke:red;stroke-width:1px;stroke-linecap:butt;stroke-linejoin:miter;stroke-opacity:1" d="M 728.516,124.272 738.138,119.461 z" id="boundary" inkscape:connector-curvature="0" />
	<path style="fill:none;stroke:red;stroke-width:1px;stroke-linecap:butt;stroke-linejoin:miter;stroke-opacity:1" d="M 738.138,119.461 747.759,119.461 z" id="boundary" inkscape:connector-curvature="0" />
	<path style="fill:none;stroke:red;stroke-width:1px;stroke-linecap:butt;stroke-linejoin:miter;stroke-opacity:1" d="M 747.759,119.461 756.419,114.65 z" id="boundary" inkscape:connector-curvature="0" />
	<path style="fill:none;stroke:red;stroke-width:1px;stroke-linecap:butt;stroke-linejoin:miter;stroke-opacity:1" d="M 756.419,114.65 766.041,110.801 z" id="boundary" inkscape:connector-curvature="0" />
	<path style="fill:none;stroke:red;stroke-width:1px;stroke-linecap:butt;stroke-linejoin:miter;stroke-opacity:1" d="M 766.041,110.801 768.927,98.2929 z" id="boundary" inkscape:connector-curvature="0" />
	<path style="fill:none;stroke:red;stroke-width:1px;stroke-linecap:butt;stroke-linejoin:miter;stroke-opacity:1" d="M 768.927,98.2929 768.927,88.6712 z" id="boundary" inkscape:connector-curvature="0" />
	<path style="fill:none;stroke:red;stroke-width:1px;stroke-linecap:butt;stroke-linejoin:miter;stroke-opacity:1" d="M 768.927,88.6712 773.738,79.0495 z" id="boundary" inkscape:connector-curvature="0" />
	<path style="fill:none;stroke:red;stroke-width:1px;stroke-linecap:butt;stroke-linejoin:miter;stroke-opacity:1" d="M 773.738,79.0495 778.549,69.4277 z" id="boundary" inkscape:connector-curvature="0" />
	<path style="fill:none;stroke:red;stroke-width:1px;stroke-linecap:butt;stroke-linejoin:miter;stroke-opacity:1" d="M 778.549,69.4277 783.36,59.806 z" id="boundary" inkscape:connector-curvature="0" />
	<path style="fill:none;stroke:red;stroke-width:1px;stroke-linecap:butt;stroke-linejoin:miter;stroke-opacity:1" d="M 783.36,59.806 791.057,52.1086 z" id="boundary" inkscape:connector-curvature="0" />
	<path style="fill:none;stroke:red;stroke-width:1px;stroke-linecap:butt;stroke-linejoin:miter;stroke-opacity:1" d="M 791.057,52.1086 797.792,40.5626 z" id="boundary" inkscape:connector-curvature="0" />
	<path style="fill:none;stroke:red;stroke-width:1px;stroke-linecap:butt;stroke-linejoin:miter;stroke-opacity:1" d="M 797.792,40.5626 805.49,32.8652 z" id="boundary" inkscape:connector-curvature="0" />
	<path style="fill:none;stroke:red;stroke-width:1px;stroke-linecap:butt;stroke-linejoin:miter;stroke-opacity:1" d="M 805.49,32.8652 815.112,32.8652 z" id="boundary" inkscape:connector-curvature="0" />
	<path style="fill:none;stroke:red;stroke-width:1px;stroke-linecap:butt;stroke-linejoin:miter;stroke-opacity:1" d="M 815.112,32.8652 821.847,40.5626 z" id="boundary" inkscape:connector-curvature="0" />
	<path style="fill:none;stroke:red;stroke-width:1px;stroke-linecap:butt;stroke-linejoin:miter;stroke-opacity:1" d="M 821.847,40.5626 827.62,48.2599 z" id="boundary" inkscape:connector-curvature="0" />
	<path style="fill:none;stroke:red;stroke-width:1px;stroke-linecap:butt;stroke-linejoin:miter;stroke-opacity:1" d="M 827.62,48.2599 832.431,56.9195 z" id="boundary" inkscape:connector-curvature="0" />
	<path style="fill:none;stroke:red;stroke-width:1px;stroke-linecap:butt;stroke-linejoin:miter;stroke-opacity:1" d="M 832.431,56.9195 837.242,65.579 z" id="boundary" inkscape:connector-curvature="0" />
	<path style="fill:none;stroke:red;stroke-width:1px;stroke-linecap:butt;stroke-linejoin:miter;stroke-opacity:1" d="M 837.242,65.579 842.052,74.2386 z" id="boundary" inkscape:connector-curvature="0" />
	<path style="fill:none;stroke:red;stroke-width:1px;stroke-linecap:butt;stroke-linejoin:miter;stroke-opacity:1" d="M 842.052,74.2386 842.052,83.8603 z" id="boundary" inkscape:connector-curvature="0" />
	<path style="fill:none;stroke:red;stroke-width:1px;stroke-linecap:butt;stroke-linejoin:miter;stroke-opacity:1" d="M 842.052,83.8603 846.863,92.5199 z" id="boundary" inkscape:connector-curvature="0" />
	<path style="fill:none;stroke:red;stroke-width:1px;stroke-linecap:butt;stroke-linejoin:miter;stroke-opacity:1" d="M 846.863,92.5199 851.674,101.179 z" id="boundary" inkscape:connector-curvature="0" />
	<path style="fill:none;stroke:red;stroke-width:1px;stroke-linecap:butt;stroke-linejoin:miter;stroke-opacity:1" d="M 851.674,101.179 856.485,109.839 z" id="boundary" inkscape:connector-curvature="0" />
	<path style="fill:none;stroke:red;stroke-width:1px;stroke-linecap:butt;stroke-linejoin:miter;stroke-opacity:1" d="M 856.485,109.839 866.107,112.726 z" id="boundary" inkscape:connector-curvature="0" />
	<path style="fill:none;stroke:red;stroke-width:1px;stroke-linecap:butt;stroke-linejoin:miter;stroke-opacity:1" d="M 866.107,112.726 872.842,120.423 z" id="boundary" inkscape:connector-curvature="0" />
	<path style="fill:none;stroke:red;stroke-width:1px;stroke-linecap:butt;stroke-linejoin:miter;stroke-opacity:1" d="M 872.842,120.423 880.539,127.158 z" id="boundary" inkscape:connector-curvature="0" />
	<path style="fill:none;stroke:red;stroke-width:1px;stroke-linecap:butt;stroke-linejoin:miter;stroke-opacity:1" d="M 880.539,127.158 889.199,131.969 z" id="boundary" inkscape:connector-curvature="0" />
	<path style="fill:none;stroke:red;stroke-width:1px;stroke-linecap:butt;stroke-linejoin:miter;stroke-opacity:1" d="M 889.199,131.969 898.821,133.893 z" id="boundary" inkscape:connector-curvature="0" />
	<path style="fill:none;stroke:red;stroke-width:1px;stroke-linecap:butt;stroke-linejoin:miter;stroke-opacity:1" d="M 898.821,133.893 908.442,133.893 z" id="boundary" inkscape:connector-curvature="0" />
	<path style="fill:none;stroke:red;stroke-width:1px;stroke-linecap:butt;stroke-linejoin:miter;stroke-opacity:1" d="M 908.442,133.893 918.064,133.893 z" id="boundary" inkscape:connector-curvature="0" />
	<path style="fill:none;stroke:red;stroke-width:1px;stroke-linecap:butt;stroke-linejoin:miter;stroke-opacity:1" d="M 918.064,133.893 927.686,133.893 z" id="boundary" inkscape:connector-curvature="0" />
	<path style="fill:none;stroke:red;stroke-width:1px;stroke-linecap:butt;stroke-linejoin:miter;stroke-opacity:1" d="M 927.686,133.893 937.307,133.893 z" id="boundary" inkscape:connector-curvature="0" />
	<path style="fill:none;stroke:red;stroke-width:1px;stroke-linecap:butt;stroke-linejoin:miter;stroke-opacity:1" d="M 937.307,133.893 945.967,138.704 z" id="boundary" inkscape:connector-curvature="0" />
	<path style="fill:none;stroke:red;stroke-width:1px;stroke-linecap:butt;stroke-linejoin:miter;stroke-opacity:1" d="M 945.967,138.704 954.627,143.515 z" id="boundary" inkscape:connector-curvature="0" />
	<path style="fill:none;stroke:red;stroke-width:1px;stroke-linecap:butt;stroke-linejoin:miter;stroke-opacity:1" d="M 954.627,143.515 957.513,153.137 z" id="boundary" inkscape:connector-curvature="0" />
	<path style="fill:none;stroke:red;stroke-width:1px;stroke-linecap:butt;stroke-linejoin:miter;stroke-opacity:1" d="M 957.513,153.137 962.324,161.796 z" id="boundary" inkscape:connector-curvature="0" />
	<path style="fill:none;stroke:red;stroke-width:1px;stroke-linecap:butt;stroke-linejoin:miter;stroke-opacity:1" d="M 962.324,161.796 962.324,171.418 z" id="boundary" inkscape:connector-curvature="0" />
	<path style="fill:none;stroke:red;stroke-width:1px;stroke-linecap:butt;stroke-linejoin:miter;stroke-opacity:1" d="M 962.324,171.418 962.324,181.04 z" id="boundary" inkscape:connector-curvature="0" />
	<path style="fill:none;stroke:red;stroke-width:1px;stroke-linecap:butt;stroke-linejoin:miter;stroke-opacity:1" d="M 962.324,181.04 962.324,190.661 z" id="boundary" inkscape:connector-curvature="0" />
	<path style="fill:none;stroke:red;stroke-width:1px;stroke-linecap:butt;stroke-linejoin:miter;stroke-opacity:1" d="M 962.324,190.661 962.324,200.283 z" id="boundary" inkscape:connector-curvature="0" />
	<path style="fill:none;stroke:red;stroke-width:1px;stroke-linecap:butt;stroke-linejoin:miter;stroke-opacity:1" d="M 962.324,200.283 962.324,209.905 z" id="boundary" inkscape:connector-curvature="0" />
	<path style="fill:none;stroke:red;stroke-width:1px;stroke-linecap:butt;stroke-linejoin:miter;stroke-opacity:1" d="M 962.324,209.905 962.324,219.527 z" id="boundary" inkscape:connector-curvature="0" />
	<path style="fill:none;stroke:red;stroke-width:1px;stroke-linecap:butt;stroke-linejoin:miter;stroke-opacity:1" d="M 962.324,219.527 967.135,228.186 z" id="boundary" inkscape:connector-curvature="0" />
	<path style="fill:none;stroke:red;stroke-width:1px;stroke-linecap:butt;stroke-linejoin:miter;stroke-opacity:1" d="M 967.135,228.186 967.135,237.808 z" id="boundary" inkscape:connector-curvature="0" />
	<path style="fill:none;stroke:red;stroke-width:1px;stroke-linecap:butt;stroke-linejoin:miter;stroke-opacity:1" d="M 967.135,237.808 970.984,247.43 z" id="boundary" inkscape:connector-curvature="0" />
	<path style="fill:none;stroke:red;stroke-width:1px;stroke-linecap:butt;stroke-linejoin:miter;stroke-opacity:1" d="M 970.984,247.43 978.681,254.165 z" id="boundary" inkscape:connector-curvature="0" />
	<path style="fill:none;stroke:red;stroke-width:1px;stroke-linecap:butt;stroke-linejoin:miter;stroke-opacity:1" d="M 978.681,254.165 985.416,261.862 z" id="boundary" inkscape:connector-curvature="0" />
	<path style="fill:none;stroke:red;stroke-width:1px;stroke-linecap:butt;stroke-linejoin:miter;stroke-opacity:1" d="M 985.416,261.862 990.227,270.522 z" id="boundary" inkscape:connector-curvature="0" />
	<path style="fill:none;stroke:red;stroke-width:1px;stroke-linecap:butt;stroke-linejoin:miter;stroke-opacity:1" d="M 990.227,270.522 994.076,280.144 z" id="boundary" inkscape:connector-curvature="0" />
	<path style="fill:none;stroke:red;stroke-width:1px;stroke-linecap:butt;stroke-linejoin:miter;stroke-opacity:1" d="M 994.076,280.144 996,289.765 z" id="boundary" inkscape:connector-curvature="0" />
	<path style="fill:none;stroke:red;stroke-width:1px;stroke-linecap:butt;stroke-linejoin:miter;stroke-opacity:1" d="M 996,289.765 996,299.387 z" id="boundary" inkscape:connector-curvature="0" />
	<path style="fill:none;stroke:red;stroke-width:1px;stroke-linecap:butt;stroke-linejoin:miter;stroke-opacity:1" d="M 996,299.387 996,309.009 z" id="boundary" inkscape:connector-curvature="0" />
	<path style="fill:none;stroke:red;stroke-width:1px;stroke-linecap:butt;stroke-linejoin:miter;stroke-opacity:1" d="M 996,309.009 996,318.63 z" id="boundary" inkscape:connector-curvature="0" />
	<path style="fill:none;stroke:red;stroke-width:1px;stroke-linecap:butt;stroke-linejoin:miter;stroke-opacity:1" d="M 996,318.63 996,328.252 z" id="boundary" inkscape:connector-curvature="0" />
	<path style="fill:none;stroke:red;stroke-width:1px;stroke-linecap:butt;stroke-linejoin:miter;stroke-opacity:1" d="M 996,328.252 996,337.874 z" id="boundary" inkscape:connector-curvature="0" />
	<path style="fill:none;stroke:red;stroke-width:1px;stroke-linecap:butt;stroke-linejoin:miter;stroke-opacity:1" d="M 996,337.874 996,347.496 z" id="boundary" inkscape:connector-curvature="0" />
	<path style="fill:none;stroke:red;stroke-width:1px;stroke-linecap:butt;stroke-linejoin:miter;stroke-opacity:1" d="M 996,347.496 996,357.117 z" id="boundary" inkscape:connector-curvature="0" />
	<circle cx="4" cy="151.212" r="4" fill="#0" id="circle0"/>
	<circle cx="8.81086" cy="141.591" r="4" fill="#0" id="circle1"/>
	<circle cx="11.6974" cy="157.948" r="4" fill="#0" id="circle2"/>
	<circle cx="16.5082" cy="133.893" r="4" fill="#0" id="circle3"/>
	<circle cx="19.3948" cy="163.721" r="4" fill="#0" id="circle4"/>
	<circle cx="21.3191" cy="124.272" r="4" fill="#0" id="circle5"/>
	<circle cx="26.13" cy="114.65" r="4" fill="#0" id="circle6"/>
	<circle cx="29.0165" cy="158.91" r="4" fill="#0" id="circle7"/>
	<circle cx="30.9408" cy="105.028" r="4" fill="#0" id="circle8"/>
	<circle cx="35.7517" cy="95.4064" r="4" fill="#0" id="circle9"/>
	<circle cx="38.6382" cy="158.91" r="4" fill="#0" id="circle10"/>
	<circle cx="40.5626" cy="85.7847" r="4" fill="#0" id="circle11"/>
	<circle cx="42.4869" cy="74.2386" r="4" fill="#0" id="circle12"/>
	<circle cx="47.2978" cy="64.6169" r="4" fill="#0" id="circle13"/>
	<circle cx="47.2978" cy="154.099" r="4" fill="#0" id="circle14"/>
	<circle cx="52.1086" cy="54.9952" r="4" fill="#0" id="circle15"/>
	<circle cx="54.9952" cy="148.326" r="4" fill="#0" id="circle16"/>
	<circle cx="61.7304" cy="50.1843" r="4" fill="#0" id="circle17"/>
	<circle cx="62.6925" cy="139.666" r="4" fill="#0" id="circle18"/>
	<circle cx="71.3521" cy="45.3734" r="4" fill="#0" id="circle19"/>
	<circle cx="71.3521" cy="134.855" r="4" fill="#0" id="circle20"/>
	<circle cx="80.9738" cy="42.4869" r="4" fill="#0" id="circle21"/>
	<circle cx="80.9738" cy="134.855" r="4" fill="#0" id="circle22"/>
	<circle cx="89.6334" cy="47.2978" r="4" fill="#0" id="circle23"/>
	<circle cx="89.6334" cy="130.045" r="4" fill="#0" id="circle24"/>
	<circle cx="90.5955" cy="139.666" r="4" fill="#0" id="circle25"/>
	<circle cx="93.4821" cy="149.288" r="4" fill="#0" id="circle26"/>
	<circle cx="95.4064" cy="158.91" r="4" fill="#0" id="circle27"/>
	<circle cx="99.2551" cy="48.2599" r="4" fill="#0" id="circle28"/>
	<circle cx="100.217" cy="167.569" r="4" fill="#0" id="circle29"/>
	<circle cx="105.99" cy="175.267" r="4" fill="#0" id="circle30"/>
	<circle cx="107.915" cy="53.0708" r="4" fill="#0" id="circle31"/>
	<circle cx="112.726" cy="182.964" r="4" fill="#0" id="circle32"/>
	<circle cx="117.536" cy="56.9195" r="4" fill="#0" id="circle33"/>
	<circle cx="119.461" cy="358.08" r="4" fill="#0" id="circle34"/>
	<circle cx="119.461" cy="367.701" r="4" fill="#0" id="circle35"/>
	<circle cx="122.347" cy="186.813" r="4" fill="#0" id="circle36"/>
	<circle cx="124.272" cy="329.214" r="4" fill="#0" id="circle37"/>
	<circle cx="124.272" cy="338.836" r="4" fill="#0" id="circle38"/>
	<circle cx="124.272" cy="348.458" r="4" fill="#0" id="circle39"/>
	<circle cx="126.196" cy="61.7304" r="4" fill="#0" id="circle40"/>
	<circle cx="127.158" cy="374.436" r="4" fill="#0" id="circle41"/>
	<circle cx="129.082" cy="194.51" r="4" fill="#0" id="circle42"/>
	<circle cx="129.082" cy="305.16" r="4" fill="#0" id="circle43"/>
	<circle cx="129.082" cy="314.782" r="4" fill="#0" id="circle44"/>
	<circle cx="133.893" cy="68.4656" r="4" fill="#0" id="circle45"/>
	<circle cx="133.893" cy="203.17" r="4" fill="#0" id="circle46"/>
	<circle cx="133.893" cy="212.791" r="4" fill="#0" id="circle47"/>
	<circle cx="133.893" cy="222.413" r="4" fill="#0" id="circle48"/>
	<circle cx="133.893" cy="232.035" r="4" fill="#0" id="circle49"/>
	<circle cx="133.893" cy="241.657" r="4" fill="#0" id="circle50"/>
	<circle cx="133.893" cy="251.278" r="4" fill="#0" id="circle51"/>
	<circle cx="133.893" cy="260.9" r="4" fill="#0" id="circle52"/>
	<circle cx="133.893" cy="270.522" r="4" fill="#0" id="circle53"/>
	<circle cx="133.893" cy="280.144" r="4" fill="#0" id="circle54"/>
	<circle cx="133.893" cy="289.765" r="4" fill="#0" id="circle55"/>
	<circle cx="134.855" cy="380.21" r="4" fill="#0" id="circle56"/>
	<circle cx="137.742" cy="78.0873" r="4" fill="#0" id="circle57"/>
	<circle cx="144.477" cy="85.7847" r="4" fill="#0" id="circle58"/>
	<circle cx="144.477" cy="375.399" r="4" fill="#0" id="circle59"/>
	<circle cx="152.175" cy="91.5577" r="4" fill="#0" id="circle60"/>
	<circle cx="154.099" cy="365.777" r="4" fill="#0" id="circle61"/>
	<circle cx="158.91" cy="99.2551" r="4" fill="#0" id="circle62"/>
	<circle cx="158.91" cy="312.857" r="4" fill="#0" id="circle63"/>
	<circle cx="158.91" cy="322.479" r="4" fill="#0" id="circle64"/>
	<circle cx="158.91" cy="332.101" r="4" fill="#0" id="circle65"/>
	<circle cx="158.91" cy="341.723" r="4" fill="#0" id="circle66"/>
	<circle cx="158.91" cy="351.344" r="4" fill="#0" id="circle67"/>
	<circle cx="166.607" cy="105.99" r="4" fill="#0" id="circle68"/>
	<circle cx="166.607" cy="306.122" r="4" fill="#0" id="circle69"/>
	<circle cx="173.342" cy="293.614" r="4" fill="#0" id="circle70"/>
	<circle cx="175.267" cy="110.801" r="4" fill="#0" id="circle71"/>
	<circle cx="178.153" cy="283.992" r="4" fill="#0" id="circle72"/>
	<circle cx="182.964" cy="117.536" r="4" fill="#0" id="circle73"/>
	<circle cx="182.964" cy="274.371" r="4" fill="#0" id="circle74"/>
	<circle cx="187.775" cy="264.749" r="4" fill="#0" id="circle75"/>
	<circle cx="191.624" cy="122.347" r="4" fill="#0" id="circle76"/>
	<circle cx="196.435" cy="259.938" r="4" fill="#0" id="circle77"/>
	<circle cx="201.245" cy="124.272" r="4" fill="#0" id="circle78"/>
	<circle cx="206.056" cy="257.051" r="4" fill="#0" id="circle79"/>
	<circle cx="210.867" cy="124.272" r="4" fill="#0" id="circle80"/>
	<circle cx="215.678" cy="255.127" r="4" fill="#0" id="circle81"/>
	<circle cx="220.489" cy="124.272" r="4" fill="#0" id="circle82"/>
	<circle cx="225.3" cy="255.127" r="4" fill="#0" id="circle83"/>
	<circle cx="230.111" cy="124.272" r="4" fill="#0" id="circle84"/>
	<circle cx="234.921" cy="255.127" r="4" fill="#0" id="circle85"/>
	<circle cx="239.732" cy="124.272" r="4" fill="#0" id="circle86"/>
	<circle cx="244.543" cy="255.127" r="4" fill="#0" id="circle87"/>
	<circle cx="249.354" cy="124.272" r="4" fill="#0" id="circle88"/>
	<circle cx="254.165" cy="255.127" r="4" fill="#0" id="circle89"/>
	<circle cx="258.976" cy="124.272" r="4" fill="#0" id="circle90"/>
	<circle cx="263.787" cy="255.127" r="4" fill="#0" id="circle91"/>
	<circle cx="268.597" cy="124.272" r="4" fill="#0" id="circle92"/>
	<circle cx="273.408" cy="255.127" r="4" fill="#0" id="circle93"/>
	<circle cx="278.219" cy="124.272" r="4" fill="#0" id="circle94"/>
	<circle cx="283.03" cy="255.127" r="4" fill="#0" id="circle95"/>
	<circle cx="287.841" cy="124.272" r="4" fill="#0" id="circle96"/>
	<circle cx="292.652" cy="255.127" r="4" fill="#0" id="circle97"/>
	<circle cx="296.5" cy="129.082" r="4" fill="#0" id="circle98"/>
	<circle cx="302.274" cy="255.127" r="4" fill="#0" id="circle99"/>
	<circle cx="306.122" cy="129.082" r="4" fill="#0" id="circle100"/>
	<circle cx="307.084" cy="263.787" r="4" fill="#0" id="circle101"/>
	<circle cx="311.895" cy="272.446" r="4" fill="#0" id="circle102"/>
	<circle cx="312.857" cy="282.068" r="4" fill="#0" id="circle103"/>
	<circle cx="314.782" cy="133.893" r="4" fill="#0" id="circle104"/>
	<circle cx="316.706" cy="291.69" r="4" fill="#0" id="circle105"/>
	<circle cx="321.517" cy="300.349" r="4" fill="#0" id="circle106"/>
	<circle cx="321.517" cy="309.971" r="4" fill="#0" id="circle107"/>
	<circle cx="321.517" cy="319.593" r="4" fill="#0" id="circle108"/>
	<circle cx="321.517" cy="329.214" r="4" fill="#0" id="circle109"/>
	<circle cx="321.517" cy="338.836" r="4" fill="#0" id="circle110"/>
	<circle cx="321.517" cy="348.458" r="4" fill="#0" id="circle111"/>
	<circle cx="321.517" cy="358.08" r="4" fill="#0" id="circle112"/>
	<circle cx="324.403" cy="133.893" r="4" fill="#0" id="circle113"/>
	<circle cx="326.328" cy="366.739" r="4" fill="#0" id="circle114"/>
	<circle cx="333.063" cy="138.704" r="4" fill="#0" id="circle115"/>
	<circle cx="335.95" cy="370.588" r="4" fill="#0" id="circle116"/>
	<circle cx="342.685" cy="138.704" r="4" fill="#0" id="circle117"/>
	<circle cx="344.609" cy="375.399" r="4" fill="#0" id="circle118"/>
	<circle cx="352.306" cy="138.704" r="4" fill="#0" id="circle119"/>
	<circle cx="354.231" cy="373.474" r="4" fill="#0" id="circle120"/>
	<circle cx="361.928" cy="138.704" r="4" fill="#0" id="circle121"/>
	<circle cx="363.853" cy="368.663" r="4" fill="#0" id="circle122"/>
	<circle cx="370.588" cy="143.515" r="4" fill="#0" id="circle123"/>
	<circle cx="370.588" cy="360.966" r="4" fill="#0" id="circle124"/>
	<circle cx="375.399" cy="274.371" r="4" fill="#0" id="circle125"/>
	<circle cx="375.399" cy="283.992" r="4" fill="#0" id="circle126"/>
	<circle cx="375.399" cy="293.614" r="4" fill="#0" id="circle127"/>
	<circle cx="375.399" cy="303.236" r="4" fill="#0" id="circle128"/>
	<circle cx="375.399" cy="312.857" r="4" fill="#0" id="circle129"/>
	<circle cx="375.399" cy="322.479" r="4" fill="#0" id="circle130"/>
	<circle cx="375.399" cy="332.101" r="4" fill="#0" id="circle131"/>
	<circle cx="375.399" cy="341.723" r="4" fill="#0" id="circle132"/>
	<circle cx="375.399" cy="351.344" r="4" fill="#0" id="circle133"/>
	<circle cx="380.21" cy="146.402" r="4" fill="#0" id="circle134"/>
	<circle cx="385.02" cy="274.371" r="4" fill="#0" id="circle135"/>
	<circle cx="388.869" cy="151.212" r="4" fill="#0" id="circle136"/>
	<circle cx="394.642" cy="158.91" r="4" fill="#0" id="circle137"/>
	<circle cx="394.642" cy="274.371" r="4" fill="#0" id="circle138"/>
	<circle cx="399.453" cy="167.569" r="4" fill="#0" id="circle139"/>
	<circle cx="404.264" cy="176.229" r="4" fill="#0" id="circle140"/>
	<circle cx="404.264" cy="185.851" r="4" fill="#0" id="circle141"/>
	<circle cx="404.264" cy="274.371" r="4" fill="#0" id="circle142"/>
	<circle cx="409.075" cy="194.51" r="4" fill="#0" id="circle143"/>
	<circle cx="409.075" cy="204.132" r="4" fill="#0" id="circle144"/>
	<circle cx="413.886" cy="274.371" r="4" fill="#0" id="circle145"/>
	<circle cx="418.696" cy="206.056" r="4" fill="#0" id="circle146"/>
	<circle cx="423.507" cy="274.371" r="4" fill="#0" id="circle147"/>
	<circle cx="428.318" cy="206.056" r="4" fill="#0" id="circle148"/>
	<circle cx="432.167" cy="279.181" r="4" fill="#0" id="circle149"/>
	<circle cx="432.167" cy="288.803" r="4" fill="#0" id="circle150"/>
	<circle cx="432.167" cy="298.425" r="4" fill="#0" id="circle151"/>
	<circle cx="432.167" cy="308.047" r="4" fill="#0" id="circle152"/>
	<circle cx="432.167" cy="317.668" r="4" fill="#0" id="circle153"/>
	<circle cx="435.053" cy="327.29" r="4" fill="#0" id="circle154"/>
	<circle cx="436.978" cy="336.912" r="4" fill="#0" id="circle155"/>
	<circle cx="436.978" cy="346.533" r="4" fill="#0" id="circle156"/>
	<circle cx="436.978" cy="356.155" r="4" fill="#0" id="circle157"/>
	<circle cx="437.94" cy="206.056" r="4" fill="#0" id="circle158"/>
	<circle cx="439.864" cy="365.777" r="4" fill="#0" id="circle159"/>
	<circle cx="444.675" cy="374.436" r="4" fill="#0" id="circle160"/>
	<circle cx="446.599" cy="199.321" r="4" fill="#0" id="circle161"/>
	<circle cx="453.335" cy="379.247" r="4" fill="#0" id="circle162"/>
	<circle cx="454.297" cy="191.624" r="4" fill="#0" id="circle163"/>
	<circle cx="461.032" cy="385.02" r="4" fill="#0" id="circle164"/>
	<circle cx="463.919" cy="186.813" r="4" fill="#0" id="circle165"/>
	<circle cx="465.843" cy="165.645" r="4" fill="#0" id="circle166"/>
	<circle cx="465.843" cy="175.267" r="4" fill="#0" id="circle167"/>
	<circle cx="469.692" cy="389.831" r="4" fill="#0" id="circle168"/>
	<circle cx="470.654" cy="136.78" r="4" fill="#0" id="circle169"/>
	<circle cx="470.654" cy="146.402" r="4" fill="#0" id="circle170"/>
	<circle cx="470.654" cy="156.023" r="4" fill="#0" id="circle171"/>
	<circle cx="475.465" cy="127.158" r="4" fill="#0" id="circle172"/>
	<circle cx="476.427" cy="397.529" r="4" fill="#0" id="circle173"/>
	<circle cx="485.086" cy="122.347" r="4" fill="#0" id="circle174"/>
	<circle cx="486.048" cy="401.377" r="4" fill="#0" id="circle175"/>
	<circle cx="492.784" cy="114.65" r="4" fill="#0" id="circle176"/>
	<circle cx="494.708" cy="406.188" r="4" fill="#0" id="circle177"/>
	<circle cx="502.405" cy="109.839" r="4" fill="#0" id="circle178"/>
	<circle cx="504.33" cy="409.075" r="4" fill="#0" id="circle179"/>
	<circle cx="512.027" cy="105.028" r="4" fill="#0" id="circle180"/>
	<circle cx="512.989" cy="413.886" r="4" fill="#0" id="circle181"/>
	<circle cx="519.725" cy="97.3307" r="4" fill="#0" id="circle182"/>
	<circle cx="522.611" cy="413.886" r="4" fill="#0" id="circle183"/>
	<circle cx="529.346" cy="92.5199" r="4" fill="#0" id="circle184"/>
	<circle cx="531.271" cy="418.696" r="4" fill="#0" id="circle185"/>
	<circle cx="538.968" cy="87.709" r="4" fill="#0" id="circle186"/>
	<circle cx="540.892" cy="418.696" r="4" fill="#0" id="circle187"/>
	<circle cx="542.817" cy="35.7517" r="4" fill="#0" id="circle188"/>
	<circle cx="542.817" cy="45.3734" r="4" fill="#0" id="circle189"/>
	<circle cx="547.628" cy="26.13" r="4" fill="#0" id="circle190"/>
	<circle cx="547.628" cy="54.033" r="4" fill="#0" id="circle191"/>
	<circle cx="548.59" cy="82.8982" r="4" fill="#0" id="circle192"/>
	<circle cx="550.514" cy="418.696" r="4" fill="#0" id="circle193"/>
	<circle cx="552.438" cy="16.5082" r="4" fill="#0" id="circle194"/>
	<circle cx="552.438" cy="62.6925" r="4" fill="#0" id="circle195"/>
	<circle cx="552.438" cy="72.3143" r="4" fill="#0" id="circle196"/>
	<circle cx="560.136" cy="417.734" r="4" fill="#0" id="circle197"/>
	<circle cx="562.06" cy="11.6974" r="4" fill="#0" id="circle198"/>
	<circle cx="569.758" cy="412.923" r="4" fill="#0" id="circle199"/>
	<circle cx="571.682" cy="6.88652" r="4" fill="#0" id="circle200"/>
	<circle cx="579.379" cy="408.113" r="4" fill="#0" id="circle201"/>
	<circle cx="581.304" cy="4" r="4" fill="#0" id="circle202"/>
	<circle cx="587.077" cy="399.453" r="4" fill="#0" id="circle203"/>
	<circle cx="590.925" cy="5.92435" r="4" fill="#0" id="circle204"/>
	<circle cx="594.774" cy="392.718" r="4" fill="#0" id="circle205"/>
	<circle cx="599.585" cy="10.7352" r="4" fill="#0" id="circle206"/>
	<circle cx="599.585" cy="383.096" r="4" fill="#0" id="circle207"/>
	<circle cx="601.509" cy="240.694" r="4" fill="#0" id="circle208"/>
	<circle cx="601.509" cy="250.316" r="4" fill="#0" id="circle209"/>
	<circle cx="601.509" cy="259.938" r="4" fill="#0" id="circle210"/>
	<circle cx="604.396" cy="19.3948" r="4" fill="#0" id="circle211"/>
	<circle cx="604.396" cy="373.474" r="4" fill="#0" id="circle212"/>
	<circle cx="606.32" cy="29.0165" r="4" fill="#0" id="circle213"/>
	<circle cx="606.32" cy="38.6382" r="4" fill="#0" id="circle214"/>
	<circle cx="606.32" cy="268.597" r="4" fill="#0" id="circle215"/>
	<circle cx="606.32" cy="356.155" r="4" fill="#0" id="circle216"/>
	<circle cx="608.244" cy="48.2599" r="4" fill="#0" id="circle217"/>
	<circle cx="609.207" cy="233.959" r="4" fill="#0" id="circle218"/>
	<circle cx="611.131" cy="277.257" r="4" fill="#0" id="circle219"/>
	<circle cx="611.131" cy="286.879" r="4" fill="#0" id="circle220"/>
	<circle cx="611.131" cy="296.5" r="4" fill="#0" id="circle221"/>
	<circle cx="611.131" cy="306.122" r="4" fill="#0" id="circle222"/>
	<circle cx="611.131" cy="315.744" r="4" fill="#0" id="circle223"/>
	<circle cx="611.131" cy="325.366" r="4" fill="#0" id="circle224"/>
	<circle cx="611.131" cy="334.987" r="4" fill="#0" id="circle225"/>
	<circle cx="611.131" cy="344.609" r="4" fill="#0" id="circle226"/>
	<circle cx="613.055" cy="56.9195" r="4" fill="#0" id="circle227"/>
	<circle cx="615.942" cy="66.5412" r="4" fill="#0" id="circle228"/>
	<circle cx="618.828" cy="231.073" r="4" fill="#0" id="circle229"/>
	<circle cx="620.753" cy="75.2008" r="4" fill="#0" id="circle230"/>
	<circle cx="620.753" cy="84.8225" r="4" fill="#0" id="circle231"/>
	<circle cx="625.564" cy="93.4821" r="4" fill="#0" id="circle232"/>
	<circle cx="625.564" cy="103.104" r="4" fill="#0" id="circle233"/>
	<circle cx="625.564" cy="112.726" r="4" fill="#0" id="circle234"/>
	<circle cx="625.564" cy="122.347" r="4" fill="#0" id="circle235"/>
	<circle cx="628.45" cy="231.073" r="4" fill="#0" id="circle236"/>
	<circle cx="629.412" cy="131.969" r="4" fill="#0" id="circle237"/>
	<circle cx="630.374" cy="141.591" r="4" fill="#0" id="circle238"/>
	<circle cx="630.374" cy="151.212" r="4" fill="#0" id="circle239"/>
	<circle cx="632.299" cy="240.694" r="4" fill="#0" id="circle240"/>
	<circle cx="635.185" cy="159.872" r="4" fill="#0" id="circle241"/>
	<circle cx="635.185" cy="169.494" r="4" fill="#0" id="circle242"/>
	<circle cx="635.185" cy="179.115" r="4" fill="#0" id="circle243"/>
	<circle cx="637.11" cy="249.354" r="4" fill="#0" id="circle244"/>
	<circle cx="643.845" cy="257.051" r="4" fill="#0" id="circle245"/>
	<circle cx="644.807" cy="182.002" r="4" fill="#0" id="circle246"/>
	<circle cx="648.656" cy="265.711" r="4" fill="#0" id="circle247"/>
	<circle cx="653.467" cy="274.371" r="4" fill="#0" id="circle248"/>
	<circle cx="654.429" cy="182.002" r="4" fill="#0" id="circle249"/>
	<circle cx="656.353" cy="283.992" r="4" fill="#0" id="circle250"/>
	<circle cx="658.277" cy="293.614" r="4" fill="#0" id="circle251"/>
	<circle cx="661.164" cy="303.236" r="4" fill="#0" id="circle252"/>
	<circle cx="663.088" cy="312.857" r="4" fill="#0" id="circle253"/>
	<circle cx="664.05" cy="182.002" r="4" fill="#0" id="circle254"/>
	<circle cx="667.899" cy="321.517" r="4" fill="#0" id="circle255"/>
	<circle cx="673.672" cy="182.002" r="4" fill="#0" id="circle256"/>
	<circle cx="673.672" cy="329.214" r="4" fill="#0" id="circle257"/>
	<circle cx="677.521" cy="338.836" r="4" fill="#0" id="circle258"/>
	<circle cx="682.332" cy="177.191" r="4" fill="#0" id="circle259"/>
	<circle cx="687.143" cy="341.723" r="4" fill="#0" id="circle260"/>
	<circle cx="691.953" cy="177.191" r="4" fill="#0" id="circle261"/>
	<circle cx="695.802" cy="346.533" r="4" fill="#0" id="circle262"/>
	<circle cx="700.613" cy="172.38" r="4" fill="#0" id="circle263"/>
	<circle cx="701.575" cy="156.023" r="4" fill="#0" id="circle264"/>
	<circle cx="705.424" cy="346.533" r="4" fill="#0" id="circle265"/>
	<circle cx="706.386" cy="146.402" r="4" fill="#0" id="circle266"/>
	<circle cx="711.197" cy="136.78" r="4" fill="#0" id="circle267"/>
	<circle cx="715.046" cy="346.533" r="4" fill="#0" id="circle268"/>
	<circle cx="718.894" cy="129.082" r="4" fill="#0" id="circle269"/>
	<circle cx="724.667" cy="346.533" r="4" fill="#0" id="circle270"/>
	<circle cx="728.516" cy="124.272" r="4" fill="#0" id="circle271"/>
	<circle cx="733.327" cy="341.723" r="4" fill="#0" id="circle272"/>
	<circle cx="738.138" cy="119.461" r="4" fill="#0" id="circle273"/>
	<circle cx="742.949" cy="341.723" r="4" fill="#0" id="circle274"/>
	<circle cx="747.759" cy="119.461" r="4" fill="#0" id="circle275"/>
	<circle cx="752.57" cy="341.723" r="4" fill="#0" id="circle276"/>
	<circle cx="756.419" cy="114.65" r="4" fill="#0" id="circle277"/>
	<circle cx="762.192" cy="341.723" r="4" fill="#0" id="circle278"/>
	<circle cx="766.041" cy="110.801" r="4" fill="#0" id="circle279"/>
	<circle cx="768.927" cy="88.6712" r="4" fill="#0" id="circle280"/>
	<circle cx="768.927" cy="98.2929" r="4" fill="#0" id="circle281"/>
	<circle cx="769.889" cy="348.458" r="4" fill="#0" id="circle282"/>
	<circle cx="773.738" cy="79.0495" r="4" fill="#0" id="circle283"/>
	<circle cx="773.738" cy="358.08" r="4" fill="#0" id="circle284"/>
	<circle cx="778.549" cy="69.4277" r="4" fill="#0" id="circle285"/>
	<circle cx="778.549" cy="366.739" r="4" fill="#0" id="circle286"/>
	<circle cx="783.36" cy="59.806" r="4" fill="#0" id="circle287"/>
	<circle cx="785.284" cy="374.436" r="4" fill="#0" id="circle288"/>
	<circle cx="790.095" cy="383.096" r="4" fill="#0" id="circle289"/>
	<circle cx="791.057" cy="52.1086" r="4" fill="#0" id="circle290"/>
	<circle cx="793.944" cy="392.718" r="4" fill="#0" id="circle291"/>
	<circle cx="797.792" cy="40.5626" r="4" fill="#0" id="circle292"/>
	<circle cx="798.755" cy="401.377" r="4" fill="#0" id="circle293"/>
	<circle cx="805.49" cy="32.8652" r="4" fill="#0" id="circle294"/>
	<circle cx="805.49" cy="409.075" r="4" fill="#0" id="circle295"/>
	<circle cx="813.187" cy="415.81" r="4" fill="#0" id="circle296"/>
	<circle cx="815.112" cy="32.8652" r="4" fill="#0" id="circle297"/>
	<circle cx="821.847" cy="40.5626" r="4" fill="#0" id="circle298"/>
	<circle cx="821.847" cy="420.621" r="4" fill="#0" id="circle299"/>
	<circle cx="827.62" cy="48.2599" r="4" fill="#0" id="circle300"/>
	<circle cx="831.468" cy="423.507" r="4" fill="#0" id="circle301"/>
	<circle cx="832.431" cy="56.9195" r="4" fill="#0" id="circle302"/>
	<circle cx="837.242" cy="65.579" r="4" fill="#0" id="circle303"/>
	<circle cx="840.128" cy="428.318" r="4" fill="#0" id="circle304"/>
	<circle cx="842.052" cy="74.2386" r="4" fill="#0" id="circle305"/>
	<circle cx="842.052" cy="83.8603" r="4" fill="#0" id="circle306"/>
	<circle cx="846.863" cy="92.5199" r="4" fill="#0" id="circle307"/>
	<circle cx="848.788" cy="433.129" r="4" fill="#0" id="circle308"/>
	<circle cx="851.674" cy="101.179" r="4" fill="#0" id="circle309"/>
	<circle cx="856.485" cy="109.839" r="4" fill="#0" id="circle310"/>
	<circle cx="858.409" cy="436.978" r="4" fill="#0" id="circle311"/>
	<circle cx="866.107" cy="112.726" r="4" fill="#0" id="circle312"/>
	<circle cx="867.069" cy="441.789" r="4" fill="#0" id="circle313"/>
	<circle cx="872.842" cy="120.423" r="4" fill="#0" id="circle314"/>
	<circle cx="876.691" cy="442.751" r="4" fill="#0" id="circle315"/>
	<circle cx="880.539" cy="127.158" r="4" fill="#0" id="circle316"/>
	<circle cx="886.312" cy="442.751" r="4" fill="#0" id="circle317"/>
	<circle cx="889.199" cy="131.969" r="4" fill="#0" id="circle318"/>
	<circle cx="895.934" cy="442.751" r="4" fill="#0" id="circle319"/>
	<circle cx="898.821" cy="133.893" r="4" fill="#0" id="circle320"/>
	<circle cx="905.556" cy="442.751" r="4" fill="#0" id="circle321"/>
	<circle cx="908.442" cy="133.893" r="4" fill="#0" id="circle322"/>
	<circle cx="915.177" cy="442.751" r="4" fill="#0" id="circle323"/>
	<circle cx="918.064" cy="133.893" r="4" fill="#0" id="circle324"/>
	<circle cx="924.799" cy="442.751" r="4" fill="#0" id="circle325"/>
	<circle cx="927.686" cy="133.893" r="4" fill="#0" id="circle326"/>
	<circle cx="933.459" cy="437.94" r="4" fill="#0" id="circle327"/>
	<circle cx="937.307" cy="133.893" r="4" fill="#0" id="circle328"/>
	<circle cx="943.081" cy="433.129" r="4" fill="#0" id="circle329"/>
	<circle cx="945.967" cy="138.704" r="4" fill="#0" id="circle330"/>
	<circle cx="952.702" cy="428.318" r="4" fill="#0" id="circle331"/>
	<circle cx="954.627" cy="143.515" r="4" fill="#0" id="circle332"/>
	<circle cx="957.513" cy="153.137" r="4" fill="#0" id="circle333"/>
	<circle cx="960.4" cy="421.583" r="4" fill="#0" id="circle334"/>
	<circle cx="962.324" cy="161.796" r="4" fill="#0" id="circle335"/>
	<circle cx="962.324" cy="171.418" r="4" fill="#0" id="circle336"/>
	<circle cx="962.324" cy="181.04" r="4" fill="#0" id="circle337"/>
	<circle cx="962.324" cy="190.661" r="4" fill="#0" id="circle338"/>
	<circle cx="962.324" cy="200.283" r="4" fill="#0" id="circle339"/>
	<circle cx="962.324" cy="209.905" r="4" fill="#0" id="circle340"/>
	<circle cx="962.324" cy="219.527" r="4" fill="#0" id="circle341"/>
	<circle cx="967.135" cy="228.186" r="4" fill="#0" id="circle342"/>
	<circle cx="967.135" cy="237.808" r="4" fill="#0" id="circle343"/>
	<circle cx="967.135" cy="409.075" r="4" fill="#0" id="circle344"/>
	<circle cx="970.984" cy="247.43" r="4" fill="#0" id="circle345"/>
	<circle cx="971.946" cy="399.453" r="4" fill="#0" id="circle346"/>
	<circle cx="978.681" cy="254.165" r="4" fill="#0" id="circle347"/>
	<circle cx="979.643" cy="392.718" r="4" fill="#0" id="circle348"/>
	<circle cx="985.416" cy="261.862" r="4" fill="#0" id="circle349"/>
	<circle cx="986.378" cy="380.21" r="4" fill="#0" id="circle350"/>
	<circle cx="990.227" cy="270.522" r="4" fill="#0" id="circle351"/>
	<circle cx="991.189" cy="365.777" r="4" fill="#0" id="circle352"/>
	<circle cx="994.076" cy="280.144" r="4" fill="#0" id="circle353"/>
	<circle cx="996" cy="289.765" r="4" fill="#0" id="circle354"/>
	<circle cx="996" cy="299.387" r="4" fill="#0" id="circle355"/>
	<circle cx="996" cy="309.009" r="4" fill="#0" id="circle356"/>
	<circle cx="996" cy="318.63" r="4" fill="#0" id="circle357"/>
	<circle cx="996" cy="328.252" r="4" fill="#0" id="circle358"/>
	<circle cx="996" cy="337.874" r="4" fill="#0" id="circle359"/>
	<circle cx="996" cy="347.496" r="4" fill="#0" id="circle360"/>
	<circle cx="996" cy="357.117" r="4" fill="#0" id="circle361"/>
	</g>
</svg>