<?xml version="1.0" encoding="UTF-8" standalone="no"?>
<!-- Created with CurveBenchmark -->
<svg
	xmlns:dc="http://purl.org/dc/elements/1.1/"
	xmlns:cc="http://creativecommons.org/ns#"
	xmlns:rdf="http://www.w3.org/1999/02/22-rdf-syntax-ns#"
	xmlns:svg="http://www.w3.org/2000/svg"
	xmlns="http://www.w3.org/2000/svg"
	xmlns:sodipodi="http://sodipodi.sourceforge.net/DTD/sodipodi-0.dtd"
	xmlns:inkscape="http://www.inkscape.org/namespaces/inkscape"
	width="1000"
	height="1000"
	id="svg2"
	version="1.1"
	sodipodi:docname="manifold/connect2d-carriage05.png.txt">
<defs
	id="defs4" />
<metadata
	id="metadata7">
	<rdf:RDF>
		<cc:Work
			rdf:about="">
			<dc:format>image/svg+xml</dc:format>
			<dc:type
				rdf:resource="http://purl.org/dc/dcmitype/StillImage" />
			<dc:title></dc:title>
		</cc:Work>
	</rdf:RDF>
</metadata>
<g
	inkscape:label="Layer 1"
	inkscape:groupmode="layer"
	id="layer1">
	<path style="fill:none;stroke:red;stroke-width:1px;stroke-linecap:butt;stroke-linejoin:miter;stroke-opacity:1" d="M 996,336.886 987.678,366.846 z" id="boundary" inkscape:connector-curvature="0" />
	<path style="fill:none;stroke:red;stroke-width:1px;stroke-linecap:butt;stroke-linejoin:miter;stroke-opacity:1" d="M 987.678,366.846 971.034,383.49 z" id="boundary" inkscape:connector-curvature="0" />
	<path style="fill:none;stroke:red;stroke-width:1px;stroke-linecap:butt;stroke-linejoin:miter;stroke-opacity:1" d="M 971.034,383.49 959.383,405.128 z" id="boundary" inkscape:connector-curvature="0" />
	<path style="fill:none;stroke:red;stroke-width:1px;stroke-linecap:butt;stroke-linejoin:miter;stroke-opacity:1" d="M 959.383,405.128 951.06,421.772 z" id="boundary" inkscape:connector-curvature="0" />
	<path style="fill:none;stroke:red;stroke-width:1px;stroke-linecap:butt;stroke-linejoin:miter;stroke-opacity:1" d="M 951.06,421.772 934.416,425.101 z" id="boundary" inkscape:connector-curvature="0" />
	<path style="fill:none;stroke:red;stroke-width:1px;stroke-linecap:butt;stroke-linejoin:miter;stroke-opacity:1" d="M 934.416,425.101 917.772,425.101 z" id="boundary" inkscape:connector-curvature="0" />
	<path style="fill:none;stroke:red;stroke-width:1px;stroke-linecap:butt;stroke-linejoin:miter;stroke-opacity:1" d="M 917.772,425.101 902.792,416.779 z" id="boundary" inkscape:connector-curvature="0" />
	<path style="fill:none;stroke:red;stroke-width:1px;stroke-linecap:butt;stroke-linejoin:miter;stroke-opacity:1" d="M 902.792,416.779 886.148,416.779 z" id="boundary" inkscape:connector-curvature="0" />
	<path style="fill:none;stroke:red;stroke-width:1px;stroke-linecap:butt;stroke-linejoin:miter;stroke-opacity:1" d="M 886.148,416.779 869.503,416.779 z" id="boundary" inkscape:connector-curvature="0" />
	<path style="fill:none;stroke:red;stroke-width:1px;stroke-linecap:butt;stroke-linejoin:miter;stroke-opacity:1" d="M 869.503,416.779 856.188,405.128 z" id="boundary" inkscape:connector-curvature="0" />
	<path style="fill:none;stroke:red;stroke-width:1px;stroke-linecap:butt;stroke-linejoin:miter;stroke-opacity:1" d="M 856.188,405.128 839.544,400.134 z" id="boundary" inkscape:connector-curvature="0" />
	<path style="fill:none;stroke:red;stroke-width:1px;stroke-linecap:butt;stroke-linejoin:miter;stroke-opacity:1" d="M 839.544,400.134 824.564,391.812 z" id="boundary" inkscape:connector-curvature="0" />
	<path style="fill:none;stroke:red;stroke-width:1px;stroke-linecap:butt;stroke-linejoin:miter;stroke-opacity:1" d="M 824.564,391.812 807.919,391.812 z" id="boundary" inkscape:connector-curvature="0" />
	<path style="fill:none;stroke:red;stroke-width:1px;stroke-linecap:butt;stroke-linejoin:miter;stroke-opacity:1" d="M 807.919,391.812 794.604,380.161 z" id="boundary" inkscape:connector-curvature="0" />
	<path style="fill:none;stroke:red;stroke-width:1px;stroke-linecap:butt;stroke-linejoin:miter;stroke-opacity:1" d="M 794.604,380.161 782.953,366.846 z" id="boundary" inkscape:connector-curvature="0" />
	<path style="fill:none;stroke:red;stroke-width:1px;stroke-linecap:butt;stroke-linejoin:miter;stroke-opacity:1" d="M 782.953,366.846 776.295,350.201 z" id="boundary" inkscape:connector-curvature="0" />
	<path style="fill:none;stroke:red;stroke-width:1px;stroke-linecap:butt;stroke-linejoin:miter;stroke-opacity:1" d="M 776.295,350.201 762.98,338.55 z" id="boundary" inkscape:connector-curvature="0" />
	<path style="fill:none;stroke:red;stroke-width:1px;stroke-linecap:butt;stroke-linejoin:miter;stroke-opacity:1" d="M 762.98,338.55 751.329,325.235 z" id="boundary" inkscape:connector-curvature="0" />
	<path style="fill:none;stroke:red;stroke-width:1px;stroke-linecap:butt;stroke-linejoin:miter;stroke-opacity:1" d="M 751.329,325.235 736.349,316.913 z" id="boundary" inkscape:connector-curvature="0" />
	<path style="fill:none;stroke:red;stroke-width:1px;stroke-linecap:butt;stroke-linejoin:miter;stroke-opacity:1" d="M 736.349,316.913 719.705,316.913 z" id="boundary" inkscape:connector-curvature="0" />
	<path style="fill:none;stroke:red;stroke-width:1px;stroke-linecap:butt;stroke-linejoin:miter;stroke-opacity:1" d="M 719.705,316.913 703.06,316.913 z" id="boundary" inkscape:connector-curvature="0" />
	<path style="fill:none;stroke:red;stroke-width:1px;stroke-linecap:butt;stroke-linejoin:miter;stroke-opacity:1" d="M 703.06,316.913 686.416,316.913 z" id="boundary" inkscape:connector-curvature="0" />
	<path style="fill:none;stroke:red;stroke-width:1px;stroke-linecap:butt;stroke-linejoin:miter;stroke-opacity:1" d="M 686.416,316.913 669.772,316.913 z" id="boundary" inkscape:connector-curvature="0" />
	<path style="fill:none;stroke:red;stroke-width:1px;stroke-linecap:butt;stroke-linejoin:miter;stroke-opacity:1" d="M 669.772,316.913 653.128,316.913 z" id="boundary" inkscape:connector-curvature="0" />
	<path style="fill:none;stroke:red;stroke-width:1px;stroke-linecap:butt;stroke-linejoin:miter;stroke-opacity:1" d="M 653.128,316.913 636.483,316.913 z" id="boundary" inkscape:connector-curvature="0" />
	<path style="fill:none;stroke:red;stroke-width:1px;stroke-linecap:butt;stroke-linejoin:miter;stroke-opacity:1" d="M 636.483,316.913 619.839,316.913 z" id="boundary" inkscape:connector-curvature="0" />
	<path style="fill:none;stroke:red;stroke-width:1px;stroke-linecap:butt;stroke-linejoin:miter;stroke-opacity:1" d="M 619.839,316.913 603.195,316.913 z" id="boundary" inkscape:connector-curvature="0" />
	<path style="fill:none;stroke:red;stroke-width:1px;stroke-linecap:butt;stroke-linejoin:miter;stroke-opacity:1" d="M 603.195,316.913 588.215,325.235 z" id="boundary" inkscape:connector-curvature="0" />
	<path style="fill:none;stroke:red;stroke-width:1px;stroke-linecap:butt;stroke-linejoin:miter;stroke-opacity:1" d="M 588.215,325.235 588.215,341.879 z" id="boundary" inkscape:connector-curvature="0" />
	<path style="fill:none;stroke:red;stroke-width:1px;stroke-linecap:butt;stroke-linejoin:miter;stroke-opacity:1" d="M 588.215,341.879 588.215,358.523 z" id="boundary" inkscape:connector-curvature="0" />
	<path style="fill:none;stroke:red;stroke-width:1px;stroke-linecap:butt;stroke-linejoin:miter;stroke-opacity:1" d="M 588.215,358.523 579.893,383.49 z" id="boundary" inkscape:connector-curvature="0" />
	<path style="fill:none;stroke:red;stroke-width:1px;stroke-linecap:butt;stroke-linejoin:miter;stroke-opacity:1" d="M 579.893,383.49 569.906,408.456 z" id="boundary" inkscape:connector-curvature="0" />
	<path style="fill:none;stroke:red;stroke-width:1px;stroke-linecap:butt;stroke-linejoin:miter;stroke-opacity:1" d="M 569.906,408.456 554.926,416.779 z" id="boundary" inkscape:connector-curvature="0" />
	<path style="fill:none;stroke:red;stroke-width:1px;stroke-linecap:butt;stroke-linejoin:miter;stroke-opacity:1" d="M 554.926,416.779 538.282,416.779 z" id="boundary" inkscape:connector-curvature="0" />
	<path style="fill:none;stroke:red;stroke-width:1px;stroke-linecap:butt;stroke-linejoin:miter;stroke-opacity:1" d="M 538.282,416.779 521.638,416.779 z" id="boundary" inkscape:connector-curvature="0" />
	<path style="fill:none;stroke:red;stroke-width:1px;stroke-linecap:butt;stroke-linejoin:miter;stroke-opacity:1" d="M 521.638,416.779 506.658,408.456 z" id="boundary" inkscape:connector-curvature="0" />
	<path style="fill:none;stroke:red;stroke-width:1px;stroke-linecap:butt;stroke-linejoin:miter;stroke-opacity:1" d="M 506.658,408.456 491.678,400.134 z" id="boundary" inkscape:connector-curvature="0" />
	<path style="fill:none;stroke:red;stroke-width:1px;stroke-linecap:butt;stroke-linejoin:miter;stroke-opacity:1" d="M 491.678,400.134 480.027,386.819 z" id="boundary" inkscape:connector-curvature="0" />
	<path style="fill:none;stroke:red;stroke-width:1px;stroke-linecap:butt;stroke-linejoin:miter;stroke-opacity:1" d="M 480.027,386.819 470.04,373.503 z" id="boundary" inkscape:connector-curvature="0" />
	<path style="fill:none;stroke:red;stroke-width:1px;stroke-linecap:butt;stroke-linejoin:miter;stroke-opacity:1" d="M 470.04,373.503 461.718,358.523 z" id="boundary" inkscape:connector-curvature="0" />
	<path style="fill:none;stroke:red;stroke-width:1px;stroke-linecap:butt;stroke-linejoin:miter;stroke-opacity:1" d="M 461.718,358.523 453.396,343.544 z" id="boundary" inkscape:connector-curvature="0" />
	<path style="fill:none;stroke:red;stroke-width:1px;stroke-linecap:butt;stroke-linejoin:miter;stroke-opacity:1" d="M 453.396,343.544 445.074,328.564 z" id="boundary" inkscape:connector-curvature="0" />
	<path style="fill:none;stroke:red;stroke-width:1px;stroke-linecap:butt;stroke-linejoin:miter;stroke-opacity:1" d="M 445.074,328.564 445.074,311.919 z" id="boundary" inkscape:connector-curvature="0" />
	<path style="fill:none;stroke:red;stroke-width:1px;stroke-linecap:butt;stroke-linejoin:miter;stroke-opacity:1" d="M 445.074,311.919 445.074,295.275 z" id="boundary" inkscape:connector-curvature="0" />
	<path style="fill:none;stroke:red;stroke-width:1px;stroke-linecap:butt;stroke-linejoin:miter;stroke-opacity:1" d="M 445.074,295.275 436.752,280.295 z" id="boundary" inkscape:connector-curvature="0" />
	<path style="fill:none;stroke:red;stroke-width:1px;stroke-linecap:butt;stroke-linejoin:miter;stroke-opacity:1" d="M 436.752,280.295 426.765,266.98 z" id="boundary" inkscape:connector-curvature="0" />
	<path style="fill:none;stroke:red;stroke-width:1px;stroke-linecap:butt;stroke-linejoin:miter;stroke-opacity:1" d="M 426.765,266.98 411.785,258.658 z" id="boundary" inkscape:connector-curvature="0" />
	<path style="fill:none;stroke:red;stroke-width:1px;stroke-linecap:butt;stroke-linejoin:miter;stroke-opacity:1" d="M 411.785,258.658 396.805,266.98 z" id="boundary" inkscape:connector-curvature="0" />
	<path style="fill:none;stroke:red;stroke-width:1px;stroke-linecap:butt;stroke-linejoin:miter;stroke-opacity:1" d="M 396.805,266.98 396.805,283.624 z" id="boundary" inkscape:connector-curvature="0" />
	<path style="fill:none;stroke:red;stroke-width:1px;stroke-linecap:butt;stroke-linejoin:miter;stroke-opacity:1" d="M 396.805,283.624 396.805,300.268 z" id="boundary" inkscape:connector-curvature="0" />
	<path style="fill:none;stroke:red;stroke-width:1px;stroke-linecap:butt;stroke-linejoin:miter;stroke-opacity:1" d="M 396.805,300.268 400.134,316.913 z" id="boundary" inkscape:connector-curvature="0" />
	<path style="fill:none;stroke:red;stroke-width:1px;stroke-linecap:butt;stroke-linejoin:miter;stroke-opacity:1" d="M 400.134,316.913 408.456,331.893 z" id="boundary" inkscape:connector-curvature="0" />
	<path style="fill:none;stroke:red;stroke-width:1px;stroke-linecap:butt;stroke-linejoin:miter;stroke-opacity:1" d="M 408.456,331.893 421.772,341.879 z" id="boundary" inkscape:connector-curvature="0" />
	<path style="fill:none;stroke:red;stroke-width:1px;stroke-linecap:butt;stroke-linejoin:miter;stroke-opacity:1" d="M 421.772,341.879 416.779,365.181 z" id="boundary" inkscape:connector-curvature="0" />
	<path style="fill:none;stroke:red;stroke-width:1px;stroke-linecap:butt;stroke-linejoin:miter;stroke-opacity:1" d="M 416.779,365.181 408.456,381.826 z" id="boundary" inkscape:connector-curvature="0" />
	<path style="fill:none;stroke:red;stroke-width:1px;stroke-linecap:butt;stroke-linejoin:miter;stroke-opacity:1" d="M 408.456,381.826 393.477,391.812 z" id="boundary" inkscape:connector-curvature="0" />
	<path style="fill:none;stroke:red;stroke-width:1px;stroke-linecap:butt;stroke-linejoin:miter;stroke-opacity:1" d="M 393.477,391.812 378.497,383.49 z" id="boundary" inkscape:connector-curvature="0" />
	<path style="fill:none;stroke:red;stroke-width:1px;stroke-linecap:butt;stroke-linejoin:miter;stroke-opacity:1" d="M 378.497,383.49 361.852,383.49 z" id="boundary" inkscape:connector-curvature="0" />
	<path style="fill:none;stroke:red;stroke-width:1px;stroke-linecap:butt;stroke-linejoin:miter;stroke-opacity:1" d="M 361.852,383.49 345.208,376.832 z" id="boundary" inkscape:connector-curvature="0" />
	<path style="fill:none;stroke:red;stroke-width:1px;stroke-linecap:butt;stroke-linejoin:miter;stroke-opacity:1" d="M 345.208,376.832 336.886,361.852 z" id="boundary" inkscape:connector-curvature="0" />
	<path style="fill:none;stroke:red;stroke-width:1px;stroke-linecap:butt;stroke-linejoin:miter;stroke-opacity:1" d="M 336.886,361.852 345.208,333.557 z" id="boundary" inkscape:connector-curvature="0" />
	<path style="fill:none;stroke:red;stroke-width:1px;stroke-linecap:butt;stroke-linejoin:miter;stroke-opacity:1" d="M 345.208,333.557 345.208,316.913 z" id="boundary" inkscape:connector-curvature="0" />
	<path style="fill:none;stroke:red;stroke-width:1px;stroke-linecap:butt;stroke-linejoin:miter;stroke-opacity:1" d="M 345.208,316.913 345.208,300.268 z" id="boundary" inkscape:connector-curvature="0" />
	<path style="fill:none;stroke:red;stroke-width:1px;stroke-linecap:butt;stroke-linejoin:miter;stroke-opacity:1" d="M 345.208,300.268 343.544,283.624 z" id="boundary" inkscape:connector-curvature="0" />
	<path style="fill:none;stroke:red;stroke-width:1px;stroke-linecap:butt;stroke-linejoin:miter;stroke-opacity:1" d="M 343.544,283.624 330.228,271.973 z" id="boundary" inkscape:connector-curvature="0" />
	<path style="fill:none;stroke:red;stroke-width:1px;stroke-linecap:butt;stroke-linejoin:miter;stroke-opacity:1" d="M 330.228,271.973 318.577,258.658 z" id="boundary" inkscape:connector-curvature="0" />
	<path style="fill:none;stroke:red;stroke-width:1px;stroke-linecap:butt;stroke-linejoin:miter;stroke-opacity:1" d="M 318.577,258.658 303.597,250.336 z" id="boundary" inkscape:connector-curvature="0" />
	<path style="fill:none;stroke:red;stroke-width:1px;stroke-linecap:butt;stroke-linejoin:miter;stroke-opacity:1" d="M 303.597,250.336 286.953,245.342 z" id="boundary" inkscape:connector-curvature="0" />
	<path style="fill:none;stroke:red;stroke-width:1px;stroke-linecap:butt;stroke-linejoin:miter;stroke-opacity:1" d="M 286.953,245.342 271.973,237.02 z" id="boundary" inkscape:connector-curvature="0" />
	<path style="fill:none;stroke:red;stroke-width:1px;stroke-linecap:butt;stroke-linejoin:miter;stroke-opacity:1" d="M 271.973,237.02 255.329,233.691 z" id="boundary" inkscape:connector-curvature="0" />
	<path style="fill:none;stroke:red;stroke-width:1px;stroke-linecap:butt;stroke-linejoin:miter;stroke-opacity:1" d="M 255.329,233.691 238.685,233.691 z" id="boundary" inkscape:connector-curvature="0" />
	<path style="fill:none;stroke:red;stroke-width:1px;stroke-linecap:butt;stroke-linejoin:miter;stroke-opacity:1" d="M 238.685,233.691 222.04,233.691 z" id="boundary" inkscape:connector-curvature="0" />
	<path style="fill:none;stroke:red;stroke-width:1px;stroke-linecap:butt;stroke-linejoin:miter;stroke-opacity:1" d="M 222.04,233.691 205.396,242.013 z" id="boundary" inkscape:connector-curvature="0" />
	<path style="fill:none;stroke:red;stroke-width:1px;stroke-linecap:butt;stroke-linejoin:miter;stroke-opacity:1" d="M 205.396,242.013 188.752,250.336 z" id="boundary" inkscape:connector-curvature="0" />
	<path style="fill:none;stroke:red;stroke-width:1px;stroke-linecap:butt;stroke-linejoin:miter;stroke-opacity:1" d="M 188.752,250.336 188.752,266.98 z" id="boundary" inkscape:connector-curvature="0" />
	<path style="fill:none;stroke:red;stroke-width:1px;stroke-linecap:butt;stroke-linejoin:miter;stroke-opacity:1" d="M 188.752,266.98 192.081,283.624 z" id="boundary" inkscape:connector-curvature="0" />
	<path style="fill:none;stroke:red;stroke-width:1px;stroke-linecap:butt;stroke-linejoin:miter;stroke-opacity:1" d="M 192.081,283.624 197.074,300.268 z" id="boundary" inkscape:connector-curvature="0" />
	<path style="fill:none;stroke:red;stroke-width:1px;stroke-linecap:butt;stroke-linejoin:miter;stroke-opacity:1" d="M 197.074,300.268 205.396,315.248 z" id="boundary" inkscape:connector-curvature="0" />
	<path style="fill:none;stroke:red;stroke-width:1px;stroke-linecap:butt;stroke-linejoin:miter;stroke-opacity:1" d="M 205.396,315.248 205.396,331.893 z" id="boundary" inkscape:connector-curvature="0" />
	<path style="fill:none;stroke:red;stroke-width:1px;stroke-linecap:butt;stroke-linejoin:miter;stroke-opacity:1" d="M 205.396,331.893 205.396,348.537 z" id="boundary" inkscape:connector-curvature="0" />
	<path style="fill:none;stroke:red;stroke-width:1px;stroke-linecap:butt;stroke-linejoin:miter;stroke-opacity:1" d="M 205.396,348.537 197.074,366.846 z" id="boundary" inkscape:connector-curvature="0" />
	<path style="fill:none;stroke:red;stroke-width:1px;stroke-linecap:butt;stroke-linejoin:miter;stroke-opacity:1" d="M 197.074,366.846 185.423,388.483 z" id="boundary" inkscape:connector-curvature="0" />
	<path style="fill:none;stroke:red;stroke-width:1px;stroke-linecap:butt;stroke-linejoin:miter;stroke-opacity:1" d="M 185.423,388.483 168.779,391.812 z" id="boundary" inkscape:connector-curvature="0" />
	<path style="fill:none;stroke:red;stroke-width:1px;stroke-linecap:butt;stroke-linejoin:miter;stroke-opacity:1" d="M 168.779,391.812 152.134,391.812 z" id="boundary" inkscape:connector-curvature="0" />
	<path style="fill:none;stroke:red;stroke-width:1px;stroke-linecap:butt;stroke-linejoin:miter;stroke-opacity:1" d="M 152.134,391.812 135.49,391.812 z" id="boundary" inkscape:connector-curvature="0" />
	<path style="fill:none;stroke:red;stroke-width:1px;stroke-linecap:butt;stroke-linejoin:miter;stroke-opacity:1" d="M 135.49,391.812 118.846,391.812 z" id="boundary" inkscape:connector-curvature="0" />
	<path style="fill:none;stroke:red;stroke-width:1px;stroke-linecap:butt;stroke-linejoin:miter;stroke-opacity:1" d="M 118.846,391.812 103.866,383.49 z" id="boundary" inkscape:connector-curvature="0" />
	<path style="fill:none;stroke:red;stroke-width:1px;stroke-linecap:butt;stroke-linejoin:miter;stroke-opacity:1" d="M 103.866,383.49 87.2215,376.832 z" id="boundary" inkscape:connector-curvature="0" />
	<path style="fill:none;stroke:red;stroke-width:1px;stroke-linecap:butt;stroke-linejoin:miter;stroke-opacity:1" d="M 87.2215,376.832 78.8993,361.852 z" id="boundary" inkscape:connector-curvature="0" />
	<path style="fill:none;stroke:red;stroke-width:1px;stroke-linecap:butt;stroke-linejoin:miter;stroke-opacity:1" d="M 78.8993,361.852 78.8993,345.208 z" id="boundary" inkscape:connector-curvature="0" />
	<path style="fill:none;stroke:red;stroke-width:1px;stroke-linecap:butt;stroke-linejoin:miter;stroke-opacity:1" d="M 78.8993,345.208 78.8993,328.564 z" id="boundary" inkscape:connector-curvature="0" />
	<path style="fill:none;stroke:red;stroke-width:1px;stroke-linecap:butt;stroke-linejoin:miter;stroke-opacity:1" d="M 78.8993,328.564 87.2215,311.919 z" id="boundary" inkscape:connector-curvature="0" />
	<path style="fill:none;stroke:red;stroke-width:1px;stroke-linecap:butt;stroke-linejoin:miter;stroke-opacity:1" d="M 87.2215,311.919 95.5436,295.275 z" id="boundary" inkscape:connector-curvature="0" />
	<path style="fill:none;stroke:red;stroke-width:1px;stroke-linecap:butt;stroke-linejoin:miter;stroke-opacity:1" d="M 95.5436,295.275 103.866,270.309 z" id="boundary" inkscape:connector-curvature="0" />
	<path style="fill:none;stroke:red;stroke-width:1px;stroke-linecap:butt;stroke-linejoin:miter;stroke-opacity:1" d="M 103.866,270.309 112.188,253.664 z" id="boundary" inkscape:connector-curvature="0" />
	<path style="fill:none;stroke:red;stroke-width:1px;stroke-linecap:butt;stroke-linejoin:miter;stroke-opacity:1" d="M 112.188,253.664 120.51,237.02 z" id="boundary" inkscape:connector-curvature="0" />
	<path style="fill:none;stroke:red;stroke-width:1px;stroke-linecap:butt;stroke-linejoin:miter;stroke-opacity:1" d="M 120.51,237.02 128.832,218.711 z" id="boundary" inkscape:connector-curvature="0" />
	<path style="fill:none;stroke:red;stroke-width:1px;stroke-linecap:butt;stroke-linejoin:miter;stroke-opacity:1" d="M 128.832,218.711 128.832,202.067 z" id="boundary" inkscape:connector-curvature="0" />
	<path style="fill:none;stroke:red;stroke-width:1px;stroke-linecap:butt;stroke-linejoin:miter;stroke-opacity:1" d="M 128.832,202.067 120.51,187.087 z" id="boundary" inkscape:connector-curvature="0" />
	<path style="fill:none;stroke:red;stroke-width:1px;stroke-linecap:butt;stroke-linejoin:miter;stroke-opacity:1" d="M 120.51,187.087 112.188,167.114 z" id="boundary" inkscape:connector-curvature="0" />
	<path style="fill:none;stroke:red;stroke-width:1px;stroke-linecap:butt;stroke-linejoin:miter;stroke-opacity:1" d="M 112.188,167.114 108.859,150.47 z" id="boundary" inkscape:connector-curvature="0" />
	<path style="fill:none;stroke:red;stroke-width:1px;stroke-linecap:butt;stroke-linejoin:miter;stroke-opacity:1" d="M 108.859,150.47 103.866,133.826 z" id="boundary" inkscape:connector-curvature="0" />
	<path style="fill:none;stroke:red;stroke-width:1px;stroke-linecap:butt;stroke-linejoin:miter;stroke-opacity:1" d="M 103.866,133.826 100.537,117.181 z" id="boundary" inkscape:connector-curvature="0" />
	<path style="fill:none;stroke:red;stroke-width:1px;stroke-linecap:butt;stroke-linejoin:miter;stroke-opacity:1" d="M 100.537,117.181 83.8926,117.181 z" id="boundary" inkscape:connector-curvature="0" />
	<path style="fill:none;stroke:red;stroke-width:1px;stroke-linecap:butt;stroke-linejoin:miter;stroke-opacity:1" d="M 83.8926,117.181 67.2483,123.839 z" id="boundary" inkscape:connector-curvature="0" />
	<path style="fill:none;stroke:red;stroke-width:1px;stroke-linecap:butt;stroke-linejoin:miter;stroke-opacity:1" d="M 67.2483,123.839 50.604,132.161 z" id="boundary" inkscape:connector-curvature="0" />
	<path style="fill:none;stroke:red;stroke-width:1px;stroke-linecap:butt;stroke-linejoin:miter;stroke-opacity:1" d="M 50.604,132.161 42.2819,148.805 z" id="boundary" inkscape:connector-curvature="0" />
	<path style="fill:none;stroke:red;stroke-width:1px;stroke-linecap:butt;stroke-linejoin:miter;stroke-opacity:1" d="M 42.2819,148.805 33.9597,165.45 z" id="boundary" inkscape:connector-curvature="0" />
	<path style="fill:none;stroke:red;stroke-width:1px;stroke-linecap:butt;stroke-linejoin:miter;stroke-opacity:1" d="M 33.9597,165.45 17.3154,165.45 z" id="boundary" inkscape:connector-curvature="0" />
	<path style="fill:none;stroke:red;stroke-width:1px;stroke-linecap:butt;stroke-linejoin:miter;stroke-opacity:1" d="M 17.3154,165.45 4,153.799 z" id="boundary" inkscape:connector-curvature="0" />
	<path style="fill:none;stroke:red;stroke-width:1px;stroke-linecap:butt;stroke-linejoin:miter;stroke-opacity:1" d="M 4,153.799 4,137.154 z" id="boundary" inkscape:connector-curvature="0" />
	<path style="fill:none;stroke:red;stroke-width:1px;stroke-linecap:butt;stroke-linejoin:miter;stroke-opacity:1" d="M 4,137.154 4,120.51 z" id="boundary" inkscape:connector-curvature="0" />
	<path style="fill:none;stroke:red;stroke-width:1px;stroke-linecap:butt;stroke-linejoin:miter;stroke-opacity:1" d="M 4,120.51 17.3154,107.195 z" id="boundary" inkscape:connector-curvature="0" />
	<path style="fill:none;stroke:red;stroke-width:1px;stroke-linecap:butt;stroke-linejoin:miter;stroke-opacity:1" d="M 17.3154,107.195 25.6376,90.5503 z" id="boundary" inkscape:connector-curvature="0" />
	<path style="fill:none;stroke:red;stroke-width:1px;stroke-linecap:butt;stroke-linejoin:miter;stroke-opacity:1" d="M 25.6376,90.5503 28.9664,70.5772 z" id="boundary" inkscape:connector-curvature="0" />
	<path style="fill:none;stroke:red;stroke-width:1px;stroke-linecap:butt;stroke-linejoin:miter;stroke-opacity:1" d="M 28.9664,70.5772 45.6107,62.255 z" id="boundary" inkscape:connector-curvature="0" />
	<path style="fill:none;stroke:red;stroke-width:1px;stroke-linecap:butt;stroke-linejoin:miter;stroke-opacity:1" d="M 45.6107,62.255 58.9262,48.9396 z" id="boundary" inkscape:connector-curvature="0" />
	<path style="fill:none;stroke:red;stroke-width:1px;stroke-linecap:butt;stroke-linejoin:miter;stroke-opacity:1" d="M 58.9262,48.9396 75.5705,48.9396 z" id="boundary" inkscape:connector-curvature="0" />
	<path style="fill:none;stroke:red;stroke-width:1px;stroke-linecap:butt;stroke-linejoin:miter;stroke-opacity:1" d="M 75.5705,48.9396 92.2148,48.9396 z" id="boundary" inkscape:connector-curvature="0" />
	<path style="fill:none;stroke:red;stroke-width:1px;stroke-linecap:butt;stroke-linejoin:miter;stroke-opacity:1" d="M 92.2148,48.9396 107.195,57.2617 z" id="boundary" inkscape:connector-curvature="0" />
	<path style="fill:none;stroke:red;stroke-width:1px;stroke-linecap:butt;stroke-linejoin:miter;stroke-opacity:1" d="M 107.195,57.2617 122.174,65.5839 z" id="boundary" inkscape:connector-curvature="0" />
	<path style="fill:none;stroke:red;stroke-width:1px;stroke-linecap:butt;stroke-linejoin:miter;stroke-opacity:1" d="M 122.174,65.5839 137.154,73.906 z" id="boundary" inkscape:connector-curvature="0" />
	<path style="fill:none;stroke:red;stroke-width:1px;stroke-linecap:butt;stroke-linejoin:miter;stroke-opacity:1" d="M 137.154,73.906 153.799,77.2349 z" id="boundary" inkscape:connector-curvature="0" />
	<path style="fill:none;stroke:red;stroke-width:1px;stroke-linecap:butt;stroke-linejoin:miter;stroke-opacity:1" d="M 153.799,77.2349 163.785,90.5503 z" id="boundary" inkscape:connector-curvature="0" />
	<path style="fill:none;stroke:red;stroke-width:1px;stroke-linecap:butt;stroke-linejoin:miter;stroke-opacity:1" d="M 163.785,90.5503 177.101,100.537 z" id="boundary" inkscape:connector-curvature="0" />
	<path style="fill:none;stroke:red;stroke-width:1px;stroke-linecap:butt;stroke-linejoin:miter;stroke-opacity:1" d="M 177.101,100.537 188.752,113.852 z" id="boundary" inkscape:connector-curvature="0" />
	<path style="fill:none;stroke:red;stroke-width:1px;stroke-linecap:butt;stroke-linejoin:miter;stroke-opacity:1" d="M 188.752,113.852 197.074,128.832 z" id="boundary" inkscape:connector-curvature="0" />
	<path style="fill:none;stroke:red;stroke-width:1px;stroke-linecap:butt;stroke-linejoin:miter;stroke-opacity:1" d="M 197.074,128.832 213.718,123.839 z" id="boundary" inkscape:connector-curvature="0" />
	<path style="fill:none;stroke:red;stroke-width:1px;stroke-linecap:butt;stroke-linejoin:miter;stroke-opacity:1" d="M 213.718,123.839 230.362,123.839 z" id="boundary" inkscape:connector-curvature="0" />
	<path style="fill:none;stroke:red;stroke-width:1px;stroke-linecap:butt;stroke-linejoin:miter;stroke-opacity:1" d="M 230.362,123.839 247.007,123.839 z" id="boundary" inkscape:connector-curvature="0" />
	<path style="fill:none;stroke:red;stroke-width:1px;stroke-linecap:butt;stroke-linejoin:miter;stroke-opacity:1" d="M 247.007,123.839 263.651,123.839 z" id="boundary" inkscape:connector-curvature="0" />
	<path style="fill:none;stroke:red;stroke-width:1px;stroke-linecap:butt;stroke-linejoin:miter;stroke-opacity:1" d="M 263.651,123.839 280.295,123.839 z" id="boundary" inkscape:connector-curvature="0" />
	<path style="fill:none;stroke:red;stroke-width:1px;stroke-linecap:butt;stroke-linejoin:miter;stroke-opacity:1" d="M 280.295,123.839 296.94,123.839 z" id="boundary" inkscape:connector-curvature="0" />
	<path style="fill:none;stroke:red;stroke-width:1px;stroke-linecap:butt;stroke-linejoin:miter;stroke-opacity:1" d="M 296.94,123.839 313.584,123.839 z" id="boundary" inkscape:connector-curvature="0" />
	<path style="fill:none;stroke:red;stroke-width:1px;stroke-linecap:butt;stroke-linejoin:miter;stroke-opacity:1" d="M 313.584,123.839 330.228,123.839 z" id="boundary" inkscape:connector-curvature="0" />
	<path style="fill:none;stroke:red;stroke-width:1px;stroke-linecap:butt;stroke-linejoin:miter;stroke-opacity:1" d="M 330.228,123.839 346.872,128.832 z" id="boundary" inkscape:connector-curvature="0" />
	<path style="fill:none;stroke:red;stroke-width:1px;stroke-linecap:butt;stroke-linejoin:miter;stroke-opacity:1" d="M 346.872,128.832 361.852,137.154 z" id="boundary" inkscape:connector-curvature="0" />
	<path style="fill:none;stroke:red;stroke-width:1px;stroke-linecap:butt;stroke-linejoin:miter;stroke-opacity:1" d="M 361.852,137.154 375.168,148.805 z" id="boundary" inkscape:connector-curvature="0" />
	<path style="fill:none;stroke:red;stroke-width:1px;stroke-linecap:butt;stroke-linejoin:miter;stroke-opacity:1" d="M 375.168,148.805 380.161,165.45 z" id="boundary" inkscape:connector-curvature="0" />
	<path style="fill:none;stroke:red;stroke-width:1px;stroke-linecap:butt;stroke-linejoin:miter;stroke-opacity:1" d="M 380.161,165.45 380.161,182.094 z" id="boundary" inkscape:connector-curvature="0" />
	<path style="fill:none;stroke:red;stroke-width:1px;stroke-linecap:butt;stroke-linejoin:miter;stroke-opacity:1" d="M 380.161,182.094 393.477,192.081 z" id="boundary" inkscape:connector-curvature="0" />
	<path style="fill:none;stroke:red;stroke-width:1px;stroke-linecap:butt;stroke-linejoin:miter;stroke-opacity:1" d="M 393.477,192.081 400.134,208.725 z" id="boundary" inkscape:connector-curvature="0" />
	<path style="fill:none;stroke:red;stroke-width:1px;stroke-linecap:butt;stroke-linejoin:miter;stroke-opacity:1" d="M 400.134,208.725 416.779,215.383 z" id="boundary" inkscape:connector-curvature="0" />
	<path style="fill:none;stroke:red;stroke-width:1px;stroke-linecap:butt;stroke-linejoin:miter;stroke-opacity:1" d="M 416.779,215.383 433.423,215.383 z" id="boundary" inkscape:connector-curvature="0" />
	<path style="fill:none;stroke:red;stroke-width:1px;stroke-linecap:butt;stroke-linejoin:miter;stroke-opacity:1" d="M 433.423,215.383 450.067,215.383 z" id="boundary" inkscape:connector-curvature="0" />
	<path style="fill:none;stroke:red;stroke-width:1px;stroke-linecap:butt;stroke-linejoin:miter;stroke-opacity:1" d="M 450.067,215.383 466.711,215.383 z" id="boundary" inkscape:connector-curvature="0" />
	<path style="fill:none;stroke:red;stroke-width:1px;stroke-linecap:butt;stroke-linejoin:miter;stroke-opacity:1" d="M 466.711,215.383 483.356,215.383 z" id="boundary" inkscape:connector-curvature="0" />
	<path style="fill:none;stroke:red;stroke-width:1px;stroke-linecap:butt;stroke-linejoin:miter;stroke-opacity:1" d="M 483.356,215.383 495.007,193.745 z" id="boundary" inkscape:connector-curvature="0" />
	<path style="fill:none;stroke:red;stroke-width:1px;stroke-linecap:butt;stroke-linejoin:miter;stroke-opacity:1" d="M 495.007,193.745 495.007,177.101 z" id="boundary" inkscape:connector-curvature="0" />
	<path style="fill:none;stroke:red;stroke-width:1px;stroke-linecap:butt;stroke-linejoin:miter;stroke-opacity:1" d="M 495.007,177.101 495.007,160.456 z" id="boundary" inkscape:connector-curvature="0" />
	<path style="fill:none;stroke:red;stroke-width:1px;stroke-linecap:butt;stroke-linejoin:miter;stroke-opacity:1" d="M 495.007,160.456 486.685,145.477 z" id="boundary" inkscape:connector-curvature="0" />
	<path style="fill:none;stroke:red;stroke-width:1px;stroke-linecap:butt;stroke-linejoin:miter;stroke-opacity:1" d="M 486.685,145.477 486.685,128.832 z" id="boundary" inkscape:connector-curvature="0" />
	<path style="fill:none;stroke:red;stroke-width:1px;stroke-linecap:butt;stroke-linejoin:miter;stroke-opacity:1" d="M 486.685,128.832 503.329,123.839 z" id="boundary" inkscape:connector-curvature="0" />
	<path style="fill:none;stroke:red;stroke-width:1px;stroke-linecap:butt;stroke-linejoin:miter;stroke-opacity:1" d="M 503.329,123.839 519.973,120.51 z" id="boundary" inkscape:connector-curvature="0" />
	<path style="fill:none;stroke:red;stroke-width:1px;stroke-linecap:butt;stroke-linejoin:miter;stroke-opacity:1" d="M 519.973,120.51 536.617,115.517 z" id="boundary" inkscape:connector-curvature="0" />
	<path style="fill:none;stroke:red;stroke-width:1px;stroke-linecap:butt;stroke-linejoin:miter;stroke-opacity:1" d="M 536.617,115.517 544.94,93.8792 z" id="boundary" inkscape:connector-curvature="0" />
	<path style="fill:none;stroke:red;stroke-width:1px;stroke-linecap:butt;stroke-linejoin:miter;stroke-opacity:1" d="M 544.94,93.8792 544.94,77.2349 z" id="boundary" inkscape:connector-curvature="0" />
	<path style="fill:none;stroke:red;stroke-width:1px;stroke-linecap:butt;stroke-linejoin:miter;stroke-opacity:1" d="M 544.94,77.2349 536.617,62.255 z" id="boundary" inkscape:connector-curvature="0" />
	<path style="fill:none;stroke:red;stroke-width:1px;stroke-linecap:butt;stroke-linejoin:miter;stroke-opacity:1" d="M 536.617,62.255 536.617,45.6107 z" id="boundary" inkscape:connector-curvature="0" />
	<path style="fill:none;stroke:red;stroke-width:1px;stroke-linecap:butt;stroke-linejoin:miter;stroke-opacity:1" d="M 536.617,45.6107 536.617,28.9664 z" id="boundary" inkscape:connector-curvature="0" />
	<path style="fill:none;stroke:red;stroke-width:1px;stroke-linecap:butt;stroke-linejoin:miter;stroke-opacity:1" d="M 536.617,28.9664 536.617,12.3221 z" id="boundary" inkscape:connector-curvature="0" />
	<path style="fill:none;stroke:red;stroke-width:1px;stroke-linecap:butt;stroke-linejoin:miter;stroke-opacity:1" d="M 536.617,12.3221 553.262,4 z" id="boundary" inkscape:connector-curvature="0" />
	<path style="fill:none;stroke:red;stroke-width:1px;stroke-linecap:butt;stroke-linejoin:miter;stroke-opacity:1" d="M 553.262,4 569.906,10.6577 z" id="boundary" inkscape:connector-curvature="0" />
	<path style="fill:none;stroke:red;stroke-width:1px;stroke-linecap:butt;stroke-linejoin:miter;stroke-opacity:1" d="M 569.906,10.6577 579.893,23.9732 z" id="boundary" inkscape:connector-curvature="0" />
	<path style="fill:none;stroke:red;stroke-width:1px;stroke-linecap:butt;stroke-linejoin:miter;stroke-opacity:1" d="M 579.893,23.9732 588.215,38.953 z" id="boundary" inkscape:connector-curvature="0" />
	<path style="fill:none;stroke:red;stroke-width:1px;stroke-linecap:butt;stroke-linejoin:miter;stroke-opacity:1" d="M 588.215,38.953 588.215,55.5973 z" id="boundary" inkscape:connector-curvature="0" />
	<path style="fill:none;stroke:red;stroke-width:1px;stroke-linecap:butt;stroke-linejoin:miter;stroke-opacity:1" d="M 588.215,55.5973 601.53,67.2483 z" id="boundary" inkscape:connector-curvature="0" />
	<path style="fill:none;stroke:red;stroke-width:1px;stroke-linecap:butt;stroke-linejoin:miter;stroke-opacity:1" d="M 601.53,67.2483 604.859,83.8926 z" id="boundary" inkscape:connector-curvature="0" />
	<path style="fill:none;stroke:red;stroke-width:1px;stroke-linecap:butt;stroke-linejoin:miter;stroke-opacity:1" d="M 604.859,83.8926 604.859,100.537 z" id="boundary" inkscape:connector-curvature="0" />
	<path style="fill:none;stroke:red;stroke-width:1px;stroke-linecap:butt;stroke-linejoin:miter;stroke-opacity:1" d="M 604.859,100.537 604.859,117.181 z" id="boundary" inkscape:connector-curvature="0" />
	<path style="fill:none;stroke:red;stroke-width:1px;stroke-linecap:butt;stroke-linejoin:miter;stroke-opacity:1" d="M 604.859,117.181 604.859,133.826 z" id="boundary" inkscape:connector-curvature="0" />
	<path style="fill:none;stroke:red;stroke-width:1px;stroke-linecap:butt;stroke-linejoin:miter;stroke-opacity:1" d="M 604.859,133.826 604.859,150.47 z" id="boundary" inkscape:connector-curvature="0" />
	<path style="fill:none;stroke:red;stroke-width:1px;stroke-linecap:butt;stroke-linejoin:miter;stroke-opacity:1" d="M 604.859,150.47 613.181,165.45 z" id="boundary" inkscape:connector-curvature="0" />
	<path style="fill:none;stroke:red;stroke-width:1px;stroke-linecap:butt;stroke-linejoin:miter;stroke-opacity:1" d="M 613.181,165.45 626.497,175.436 z" id="boundary" inkscape:connector-curvature="0" />
	<path style="fill:none;stroke:red;stroke-width:1px;stroke-linecap:butt;stroke-linejoin:miter;stroke-opacity:1" d="M 626.497,175.436 638.148,188.752 z" id="boundary" inkscape:connector-curvature="0" />
	<path style="fill:none;stroke:red;stroke-width:1px;stroke-linecap:butt;stroke-linejoin:miter;stroke-opacity:1" d="M 638.148,188.752 651.463,198.738 z" id="boundary" inkscape:connector-curvature="0" />
	<path style="fill:none;stroke:red;stroke-width:1px;stroke-linecap:butt;stroke-linejoin:miter;stroke-opacity:1" d="M 651.463,198.738 668.107,198.738 z" id="boundary" inkscape:connector-curvature="0" />
	<path style="fill:none;stroke:red;stroke-width:1px;stroke-linecap:butt;stroke-linejoin:miter;stroke-opacity:1" d="M 668.107,198.738 683.087,190.416 z" id="boundary" inkscape:connector-curvature="0" />
	<path style="fill:none;stroke:red;stroke-width:1px;stroke-linecap:butt;stroke-linejoin:miter;stroke-opacity:1" d="M 683.087,190.416 686.416,170.443 z" id="boundary" inkscape:connector-curvature="0" />
	<path style="fill:none;stroke:red;stroke-width:1px;stroke-linecap:butt;stroke-linejoin:miter;stroke-opacity:1" d="M 686.416,170.443 686.416,153.799 z" id="boundary" inkscape:connector-curvature="0" />
	<path style="fill:none;stroke:red;stroke-width:1px;stroke-linecap:butt;stroke-linejoin:miter;stroke-opacity:1" d="M 686.416,153.799 686.416,137.154 z" id="boundary" inkscape:connector-curvature="0" />
	<path style="fill:none;stroke:red;stroke-width:1px;stroke-linecap:butt;stroke-linejoin:miter;stroke-opacity:1" d="M 686.416,137.154 703.06,132.161 z" id="boundary" inkscape:connector-curvature="0" />
	<path style="fill:none;stroke:red;stroke-width:1px;stroke-linecap:butt;stroke-linejoin:miter;stroke-opacity:1" d="M 703.06,132.161 718.04,123.839 z" id="boundary" inkscape:connector-curvature="0" />
	<path style="fill:none;stroke:red;stroke-width:1px;stroke-linecap:butt;stroke-linejoin:miter;stroke-opacity:1" d="M 718.04,123.839 733.02,132.161 z" id="boundary" inkscape:connector-curvature="0" />
	<path style="fill:none;stroke:red;stroke-width:1px;stroke-linecap:butt;stroke-linejoin:miter;stroke-opacity:1" d="M 733.02,132.161 744.671,103.866 z" id="boundary" inkscape:connector-curvature="0" />
	<path style="fill:none;stroke:red;stroke-width:1px;stroke-linecap:butt;stroke-linejoin:miter;stroke-opacity:1" d="M 744.671,103.866 744.671,87.2215 z" id="boundary" inkscape:connector-curvature="0" />
	<path style="fill:none;stroke:red;stroke-width:1px;stroke-linecap:butt;stroke-linejoin:miter;stroke-opacity:1" d="M 744.671,87.2215 752.993,70.5772 z" id="boundary" inkscape:connector-curvature="0" />
	<path style="fill:none;stroke:red;stroke-width:1px;stroke-linecap:butt;stroke-linejoin:miter;stroke-opacity:1" d="M 752.993,70.5772 766.309,57.2617 z" id="boundary" inkscape:connector-curvature="0" />
	<path style="fill:none;stroke:red;stroke-width:1px;stroke-linecap:butt;stroke-linejoin:miter;stroke-opacity:1" d="M 766.309,57.2617 782.953,57.2617 z" id="boundary" inkscape:connector-curvature="0" />
	<path style="fill:none;stroke:red;stroke-width:1px;stroke-linecap:butt;stroke-linejoin:miter;stroke-opacity:1" d="M 782.953,57.2617 797.933,48.9396 z" id="boundary" inkscape:connector-curvature="0" />
	<path style="fill:none;stroke:red;stroke-width:1px;stroke-linecap:butt;stroke-linejoin:miter;stroke-opacity:1" d="M 797.933,48.9396 811.248,60.5906 z" id="boundary" inkscape:connector-curvature="0" />
	<path style="fill:none;stroke:red;stroke-width:1px;stroke-linecap:butt;stroke-linejoin:miter;stroke-opacity:1" d="M 811.248,60.5906 821.235,73.906 z" id="boundary" inkscape:connector-curvature="0" />
	<path style="fill:none;stroke:red;stroke-width:1px;stroke-linecap:butt;stroke-linejoin:miter;stroke-opacity:1" d="M 821.235,73.906 834.55,83.8926 z" id="boundary" inkscape:connector-curvature="0" />
	<path style="fill:none;stroke:red;stroke-width:1px;stroke-linecap:butt;stroke-linejoin:miter;stroke-opacity:1" d="M 834.55,83.8926 841.208,100.537 z" id="boundary" inkscape:connector-curvature="0" />
	<path style="fill:none;stroke:red;stroke-width:1px;stroke-linecap:butt;stroke-linejoin:miter;stroke-opacity:1" d="M 841.208,100.537 857.852,107.195 z" id="boundary" inkscape:connector-curvature="0" />
	<path style="fill:none;stroke:red;stroke-width:1px;stroke-linecap:butt;stroke-linejoin:miter;stroke-opacity:1" d="M 857.852,107.195 874.497,107.195 z" id="boundary" inkscape:connector-curvature="0" />
	<path style="fill:none;stroke:red;stroke-width:1px;stroke-linecap:butt;stroke-linejoin:miter;stroke-opacity:1" d="M 874.497,107.195 891.141,107.195 z" id="boundary" inkscape:connector-curvature="0" />
	<path style="fill:none;stroke:red;stroke-width:1px;stroke-linecap:butt;stroke-linejoin:miter;stroke-opacity:1" d="M 891.141,107.195 907.785,107.195 z" id="boundary" inkscape:connector-curvature="0" />
	<path style="fill:none;stroke:red;stroke-width:1px;stroke-linecap:butt;stroke-linejoin:miter;stroke-opacity:1" d="M 907.785,107.195 922.765,115.517 z" id="boundary" inkscape:connector-curvature="0" />
	<path style="fill:none;stroke:red;stroke-width:1px;stroke-linecap:butt;stroke-linejoin:miter;stroke-opacity:1" d="M 922.765,115.517 936.081,127.168 z" id="boundary" inkscape:connector-curvature="0" />
	<path style="fill:none;stroke:red;stroke-width:1px;stroke-linecap:butt;stroke-linejoin:miter;stroke-opacity:1" d="M 936.081,127.168 937.745,143.812 z" id="boundary" inkscape:connector-curvature="0" />
	<path style="fill:none;stroke:red;stroke-width:1px;stroke-linecap:butt;stroke-linejoin:miter;stroke-opacity:1" d="M 937.745,143.812 929.423,158.792 z" id="boundary" inkscape:connector-curvature="0" />
	<path style="fill:none;stroke:red;stroke-width:1px;stroke-linecap:butt;stroke-linejoin:miter;stroke-opacity:1" d="M 929.423,158.792 929.423,175.436 z" id="boundary" inkscape:connector-curvature="0" />
	<path style="fill:none;stroke:red;stroke-width:1px;stroke-linecap:butt;stroke-linejoin:miter;stroke-opacity:1" d="M 929.423,175.436 929.423,192.081 z" id="boundary" inkscape:connector-curvature="0" />
	<path style="fill:none;stroke:red;stroke-width:1px;stroke-linecap:butt;stroke-linejoin:miter;stroke-opacity:1" d="M 929.423,192.081 937.745,207.06 z" id="boundary" inkscape:connector-curvature="0" />
	<path style="fill:none;stroke:red;stroke-width:1px;stroke-linecap:butt;stroke-linejoin:miter;stroke-opacity:1" d="M 937.745,207.06 951.06,217.047 z" id="boundary" inkscape:connector-curvature="0" />
	<path style="fill:none;stroke:red;stroke-width:1px;stroke-linecap:butt;stroke-linejoin:miter;stroke-opacity:1" d="M 951.06,217.047 966.04,225.369 z" id="boundary" inkscape:connector-curvature="0" />
	<path style="fill:none;stroke:red;stroke-width:1px;stroke-linecap:butt;stroke-linejoin:miter;stroke-opacity:1" d="M 966.04,225.369 971.034,242.013 z" id="boundary" inkscape:connector-curvature="0" />
	<path style="fill:none;stroke:red;stroke-width:1px;stroke-linecap:butt;stroke-linejoin:miter;stroke-opacity:1" d="M 971.034,242.013 979.356,256.993 z" id="boundary" inkscape:connector-curvature="0" />
	<path style="fill:none;stroke:red;stroke-width:1px;stroke-linecap:butt;stroke-linejoin:miter;stroke-opacity:1" d="M 979.356,256.993 987.678,271.973 z" id="boundary" inkscape:connector-curvature="0" />
	<path style="fill:none;stroke:red;stroke-width:1px;stroke-linecap:butt;stroke-linejoin:miter;stroke-opacity:1" d="M 987.678,271.973 996,286.953 z" id="boundary" inkscape:connector-curvature="0" />
	<path style="fill:none;stroke:red;stroke-width:1px;stroke-linecap:butt;stroke-linejoin:miter;stroke-opacity:1" d="M 996,286.953 996,303.597 z" id="boundary" inkscape:connector-curvature="0" />
	<path style="fill:none;stroke:red;stroke-width:1px;stroke-linecap:butt;stroke-linejoin:miter;stroke-opacity:1" d="M 996,303.597 996,320.242 z" id="boundary" inkscape:connector-curvature="0" />
	<path style="fill:none;stroke:red;stroke-width:1px;stroke-linecap:butt;stroke-linejoin:miter;stroke-opacity:1" d="M 996,320.242 996,336.886 z" id="boundary" inkscape:connector-curvature="0" />
	<circle cx="4" cy="120.51" r="4" fill="#0" id="circle0"/>
	<circle cx="4" cy="137.154" r="4" fill="#0" id="circle1"/>
	<circle cx="4" cy="153.799" r="4" fill="#0" id="circle2"/>
	<circle cx="17.3154" cy="107.195" r="4" fill="#0" id="circle3"/>
	<circle cx="17.3154" cy="165.45" r="4" fill="#0" id="circle4"/>
	<circle cx="25.6376" cy="90.5503" r="4" fill="#0" id="circle5"/>
	<circle cx="28.9664" cy="70.5772" r="4" fill="#0" id="circle6"/>
	<circle cx="33.9597" cy="165.45" r="4" fill="#0" id="circle7"/>
	<circle cx="42.2819" cy="148.805" r="4" fill="#0" id="circle8"/>
	<circle cx="45.6107" cy="62.255" r="4" fill="#0" id="circle9"/>
	<circle cx="50.604" cy="132.161" r="4" fill="#0" id="circle10"/>
	<circle cx="58.9262" cy="48.9396" r="4" fill="#0" id="circle11"/>
	<circle cx="67.2483" cy="123.839" r="4" fill="#0" id="circle12"/>
	<circle cx="75.5705" cy="48.9396" r="4" fill="#0" id="circle13"/>
	<circle cx="78.8993" cy="328.564" r="4" fill="#0" id="circle14"/>
	<circle cx="78.8993" cy="345.208" r="4" fill="#0" id="circle15"/>
	<circle cx="78.8993" cy="361.852" r="4" fill="#0" id="circle16"/>
	<circle cx="83.8926" cy="117.181" r="4" fill="#0" id="circle17"/>
	<circle cx="87.2215" cy="311.919" r="4" fill="#0" id="circle18"/>
	<circle cx="87.2215" cy="376.832" r="4" fill="#0" id="circle19"/>
	<circle cx="92.2148" cy="48.9396" r="4" fill="#0" id="circle20"/>
	<circle cx="95.5436" cy="295.275" r="4" fill="#0" id="circle21"/>
	<circle cx="100.537" cy="117.181" r="4" fill="#0" id="circle22"/>
	<circle cx="103.866" cy="133.826" r="4" fill="#0" id="circle23"/>
	<circle cx="103.866" cy="270.309" r="4" fill="#0" id="circle24"/>
	<circle cx="103.866" cy="383.49" r="4" fill="#0" id="circle25"/>
	<circle cx="107.195" cy="57.2617" r="4" fill="#0" id="circle26"/>
	<circle cx="108.859" cy="150.47" r="4" fill="#0" id="circle27"/>
	<circle cx="112.188" cy="167.114" r="4" fill="#0" id="circle28"/>
	<circle cx="112.188" cy="253.664" r="4" fill="#0" id="circle29"/>
	<circle cx="118.846" cy="391.812" r="4" fill="#0" id="circle30"/>
	<circle cx="120.51" cy="187.087" r="4" fill="#0" id="circle31"/>
	<circle cx="120.51" cy="237.02" r="4" fill="#0" id="circle32"/>
	<circle cx="122.174" cy="65.5839" r="4" fill="#0" id="circle33"/>
	<circle cx="128.832" cy="202.067" r="4" fill="#0" id="circle34"/>
	<circle cx="128.832" cy="218.711" r="4" fill="#0" id="circle35"/>
	<circle cx="135.49" cy="391.812" r="4" fill="#0" id="circle36"/>
	<circle cx="137.154" cy="73.906" r="4" fill="#0" id="circle37"/>
	<circle cx="152.134" cy="391.812" r="4" fill="#0" id="circle38"/>
	<circle cx="153.799" cy="77.2349" r="4" fill="#0" id="circle39"/>
	<circle cx="163.785" cy="90.5503" r="4" fill="#0" id="circle40"/>
	<circle cx="168.779" cy="391.812" r="4" fill="#0" id="circle41"/>
	<circle cx="177.101" cy="100.537" r="4" fill="#0" id="circle42"/>
	<circle cx="185.423" cy="388.483" r="4" fill="#0" id="circle43"/>
	<circle cx="188.752" cy="113.852" r="4" fill="#0" id="circle44"/>
	<circle cx="188.752" cy="250.336" r="4" fill="#0" id="circle45"/>
	<circle cx="188.752" cy="266.98" r="4" fill="#0" id="circle46"/>
	<circle cx="192.081" cy="283.624" r="4" fill="#0" id="circle47"/>
	<circle cx="197.074" cy="128.832" r="4" fill="#0" id="circle48"/>
	<circle cx="197.074" cy="300.268" r="4" fill="#0" id="circle49"/>
	<circle cx="197.074" cy="366.846" r="4" fill="#0" id="circle50"/>
	<circle cx="205.396" cy="242.013" r="4" fill="#0" id="circle51"/>
	<circle cx="205.396" cy="315.248" r="4" fill="#0" id="circle52"/>
	<circle cx="205.396" cy="331.893" r="4" fill="#0" id="circle53"/>
	<circle cx="205.396" cy="348.537" r="4" fill="#0" id="circle54"/>
	<circle cx="213.718" cy="123.839" r="4" fill="#0" id="circle55"/>
	<circle cx="222.04" cy="233.691" r="4" fill="#0" id="circle56"/>
	<circle cx="230.362" cy="123.839" r="4" fill="#0" id="circle57"/>
	<circle cx="238.685" cy="233.691" r="4" fill="#0" id="circle58"/>
	<circle cx="247.007" cy="123.839" r="4" fill="#0" id="circle59"/>
	<circle cx="255.329" cy="233.691" r="4" fill="#0" id="circle60"/>
	<circle cx="263.651" cy="123.839" r="4" fill="#0" id="circle61"/>
	<circle cx="271.973" cy="237.02" r="4" fill="#0" id="circle62"/>
	<circle cx="280.295" cy="123.839" r="4" fill="#0" id="circle63"/>
	<circle cx="286.953" cy="245.342" r="4" fill="#0" id="circle64"/>
	<circle cx="296.94" cy="123.839" r="4" fill="#0" id="circle65"/>
	<circle cx="303.597" cy="250.336" r="4" fill="#0" id="circle66"/>
	<circle cx="313.584" cy="123.839" r="4" fill="#0" id="circle67"/>
	<circle cx="318.577" cy="258.658" r="4" fill="#0" id="circle68"/>
	<circle cx="330.228" cy="123.839" r="4" fill="#0" id="circle69"/>
	<circle cx="330.228" cy="271.973" r="4" fill="#0" id="circle70"/>
	<circle cx="336.886" cy="361.852" r="4" fill="#0" id="circle71"/>
	<circle cx="343.544" cy="283.624" r="4" fill="#0" id="circle72"/>
	<circle cx="345.208" cy="300.268" r="4" fill="#0" id="circle73"/>
	<circle cx="345.208" cy="316.913" r="4" fill="#0" id="circle74"/>
	<circle cx="345.208" cy="333.557" r="4" fill="#0" id="circle75"/>
	<circle cx="345.208" cy="376.832" r="4" fill="#0" id="circle76"/>
	<circle cx="346.872" cy="128.832" r="4" fill="#0" id="circle77"/>
	<circle cx="361.852" cy="137.154" r="4" fill="#0" id="circle78"/>
	<circle cx="361.852" cy="383.49" r="4" fill="#0" id="circle79"/>
	<circle cx="375.168" cy="148.805" r="4" fill="#0" id="circle80"/>
	<circle cx="378.497" cy="383.49" r="4" fill="#0" id="circle81"/>
	<circle cx="380.161" cy="165.45" r="4" fill="#0" id="circle82"/>
	<circle cx="380.161" cy="182.094" r="4" fill="#0" id="circle83"/>
	<circle cx="393.477" cy="192.081" r="4" fill="#0" id="circle84"/>
	<circle cx="393.477" cy="391.812" r="4" fill="#0" id="circle85"/>
	<circle cx="396.805" cy="266.98" r="4" fill="#0" id="circle86"/>
	<circle cx="396.805" cy="283.624" r="4" fill="#0" id="circle87"/>
	<circle cx="396.805" cy="300.268" r="4" fill="#0" id="circle88"/>
	<circle cx="400.134" cy="208.725" r="4" fill="#0" id="circle89"/>
	<circle cx="400.134" cy="316.913" r="4" fill="#0" id="circle90"/>
	<circle cx="408.456" cy="331.893" r="4" fill="#0" id="circle91"/>
	<circle cx="408.456" cy="381.826" r="4" fill="#0" id="circle92"/>
	<circle cx="411.785" cy="258.658" r="4" fill="#0" id="circle93"/>
	<circle cx="416.779" cy="215.383" r="4" fill="#0" id="circle94"/>
	<circle cx="416.779" cy="365.181" r="4" fill="#0" id="circle95"/>
	<circle cx="421.772" cy="341.879" r="4" fill="#0" id="circle96"/>
	<circle cx="426.765" cy="266.98" r="4" fill="#0" id="circle97"/>
	<circle cx="433.423" cy="215.383" r="4" fill="#0" id="circle98"/>
	<circle cx="436.752" cy="280.295" r="4" fill="#0" id="circle99"/>
	<circle cx="445.074" cy="295.275" r="4" fill="#0" id="circle100"/>
	<circle cx="445.074" cy="311.919" r="4" fill="#0" id="circle101"/>
	<circle cx="445.074" cy="328.564" r="4" fill="#0" id="circle102"/>
	<circle cx="450.067" cy="215.383" r="4" fill="#0" id="circle103"/>
	<circle cx="453.396" cy="343.544" r="4" fill="#0" id="circle104"/>
	<circle cx="461.718" cy="358.523" r="4" fill="#0" id="circle105"/>
	<circle cx="466.711" cy="215.383" r="4" fill="#0" id="circle106"/>
	<circle cx="470.04" cy="373.503" r="4" fill="#0" id="circle107"/>
	<circle cx="480.027" cy="386.819" r="4" fill="#0" id="circle108"/>
	<circle cx="483.356" cy="215.383" r="4" fill="#0" id="circle109"/>
	<circle cx="486.685" cy="128.832" r="4" fill="#0" id="circle110"/>
	<circle cx="486.685" cy="145.477" r="4" fill="#0" id="circle111"/>
	<circle cx="491.678" cy="400.134" r="4" fill="#0" id="circle112"/>
	<circle cx="495.007" cy="160.456" r="4" fill="#0" id="circle113"/>
	<circle cx="495.007" cy="177.101" r="4" fill="#0" id="circle114"/>
	<circle cx="495.007" cy="193.745" r="4" fill="#0" id="circle115"/>
	<circle cx="503.329" cy="123.839" r="4" fill="#0" id="circle116"/>
	<circle cx="506.658" cy="408.456" r="4" fill="#0" id="circle117"/>
	<circle cx="519.973" cy="120.51" r="4" fill="#0" id="circle118"/>
	<circle cx="521.638" cy="416.779" r="4" fill="#0" id="circle119"/>
	<circle cx="536.617" cy="12.3221" r="4" fill="#0" id="circle120"/>
	<circle cx="536.617" cy="28.9664" r="4" fill="#0" id="circle121"/>
	<circle cx="536.617" cy="45.6107" r="4" fill="#0" id="circle122"/>
	<circle cx="536.617" cy="62.255" r="4" fill="#0" id="circle123"/>
	<circle cx="536.617" cy="115.517" r="4" fill="#0" id="circle124"/>
	<circle cx="538.282" cy="416.779" r="4" fill="#0" id="circle125"/>
	<circle cx="544.94" cy="77.2349" r="4" fill="#0" id="circle126"/>
	<circle cx="544.94" cy="93.8792" r="4" fill="#0" id="circle127"/>
	<circle cx="553.262" cy="4" r="4" fill="#0" id="circle128"/>
	<circle cx="554.926" cy="416.779" r="4" fill="#0" id="circle129"/>
	<circle cx="569.906" cy="10.6577" r="4" fill="#0" id="circle130"/>
	<circle cx="569.906" cy="408.456" r="4" fill="#0" id="circle131"/>
	<circle cx="579.893" cy="23.9732" r="4" fill="#0" id="circle132"/>
	<circle cx="579.893" cy="383.49" r="4" fill="#0" id="circle133"/>
	<circle cx="588.215" cy="38.953" r="4" fill="#0" id="circle134"/>
	<circle cx="588.215" cy="55.5973" r="4" fill="#0" id="circle135"/>
	<circle cx="588.215" cy="325.235" r="4" fill="#0" id="circle136"/>
	<circle cx="588.215" cy="341.879" r="4" fill="#0" id="circle137"/>
	<circle cx="588.215" cy="358.523" r="4" fill="#0" id="circle138"/>
	<circle cx="601.53" cy="67.2483" r="4" fill="#0" id="circle139"/>
	<circle cx="603.195" cy="316.913" r="4" fill="#0" id="circle140"/>
	<circle cx="604.859" cy="83.8926" r="4" fill="#0" id="circle141"/>
	<circle cx="604.859" cy="100.537" r="4" fill="#0" id="circle142"/>
	<circle cx="604.859" cy="117.181" r="4" fill="#0" id="circle143"/>
	<circle cx="604.859" cy="133.826" r="4" fill="#0" id="circle144"/>
	<circle cx="604.859" cy="150.47" r="4" fill="#0" id="circle145"/>
	<circle cx="613.181" cy="165.45" r="4" fill="#0" id="circle146"/>
	<circle cx="619.839" cy="316.913" r="4" fill="#0" id="circle147"/>
	<circle cx="626.497" cy="175.436" r="4" fill="#0" id="circle148"/>
	<circle cx="636.483" cy="316.913" r="4" fill="#0" id="circle149"/>
	<circle cx="638.148" cy="188.752" r="4" fill="#0" id="circle150"/>
	<circle cx="651.463" cy="198.738" r="4" fill="#0" id="circle151"/>
	<circle cx="653.128" cy="316.913" r="4" fill="#0" id="circle152"/>
	<circle cx="668.107" cy="198.738" r="4" fill="#0" id="circle153"/>
	<circle cx="669.772" cy="316.913" r="4" fill="#0" id="circle154"/>
	<circle cx="683.087" cy="190.416" r="4" fill="#0" id="circle155"/>
	<circle cx="686.416" cy="137.154" r="4" fill="#0" id="circle156"/>
	<circle cx="686.416" cy="153.799" r="4" fill="#0" id="circle157"/>
	<circle cx="686.416" cy="170.443" r="4" fill="#0" id="circle158"/>
	<circle cx="686.416" cy="316.913" r="4" fill="#0" id="circle159"/>
	<circle cx="703.06" cy="132.161" r="4" fill="#0" id="circle160"/>
	<circle cx="703.06" cy="316.913" r="4" fill="#0" id="circle161"/>
	<circle cx="718.04" cy="123.839" r="4" fill="#0" id="circle162"/>
	<circle cx="719.705" cy="316.913" r="4" fill="#0" id="circle163"/>
	<circle cx="733.02" cy="132.161" r="4" fill="#0" id="circle164"/>
	<circle cx="736.349" cy="316.913" r="4" fill="#0" id="circle165"/>
	<circle cx="744.671" cy="87.2215" r="4" fill="#0" id="circle166"/>
	<circle cx="744.671" cy="103.866" r="4" fill="#0" id="circle167"/>
	<circle cx="751.329" cy="325.235" r="4" fill="#0" id="circle168"/>
	<circle cx="752.993" cy="70.5772" r="4" fill="#0" id="circle169"/>
	<circle cx="762.98" cy="338.55" r="4" fill="#0" id="circle170"/>
	<circle cx="766.309" cy="57.2617" r="4" fill="#0" id="circle171"/>
	<circle cx="776.295" cy="350.201" r="4" fill="#0" id="circle172"/>
	<circle cx="782.953" cy="57.2617" r="4" fill="#0" id="circle173"/>
	<circle cx="782.953" cy="366.846" r="4" fill="#0" id="circle174"/>
	<circle cx="794.604" cy="380.161" r="4" fill="#0" id="circle175"/>
	<circle cx="797.933" cy="48.9396" r="4" fill="#0" id="circle176"/>
	<circle cx="807.919" cy="391.812" r="4" fill="#0" id="circle177"/>
	<circle cx="811.248" cy="60.5906" r="4" fill="#0" id="circle178"/>
	<circle cx="821.235" cy="73.906" r="4" fill="#0" id="circle179"/>
	<circle cx="824.564" cy="391.812" r="4" fill="#0" id="circle180"/>
	<circle cx="834.55" cy="83.8926" r="4" fill="#0" id="circle181"/>
	<circle cx="839.544" cy="400.134" r="4" fill="#0" id="circle182"/>
	<circle cx="841.208" cy="100.537" r="4" fill="#0" id="circle183"/>
	<circle cx="856.188" cy="405.128" r="4" fill="#0" id="circle184"/>
	<circle cx="857.852" cy="107.195" r="4" fill="#0" id="circle185"/>
	<circle cx="869.503" cy="416.779" r="4" fill="#0" id="circle186"/>
	<circle cx="874.497" cy="107.195" r="4" fill="#0" id="circle187"/>
	<circle cx="886.148" cy="416.779" r="4" fill="#0" id="circle188"/>
	<circle cx="891.141" cy="107.195" r="4" fill="#0" id="circle189"/>
	<circle cx="902.792" cy="416.779" r="4" fill="#0" id="circle190"/>
	<circle cx="907.785" cy="107.195" r="4" fill="#0" id="circle191"/>
	<circle cx="917.772" cy="425.101" r="4" fill="#0" id="circle192"/>
	<circle cx="922.765" cy="115.517" r="4" fill="#0" id="circle193"/>
	<circle cx="929.423" cy="158.792" r="4" fill="#0" id="circle194"/>
	<circle cx="929.423" cy="175.436" r="4" fill="#0" id="circle195"/>
	<circle cx="929.423" cy="192.081" r="4" fill="#0" id="circle196"/>
	<circle cx="934.416" cy="425.101" r="4" fill="#0" id="circle197"/>
	<circle cx="936.081" cy="127.168" r="4" fill="#0" id="circle198"/>
	<circle cx="937.745" cy="143.812" r="4" fill="#0" id="circle199"/>
	<circle cx="937.745" cy="207.06" r="4" fill="#0" id="circle200"/>
	<circle cx="951.06" cy="217.047" r="4" fill="#0" id="circle201"/>
	<circle cx="951.06" cy="421.772" r="4" fill="#0" id="circle202"/>
	<circle cx="959.383" cy="405.128" r="4" fill="#0" id="circle203"/>
	<circle cx="966.04" cy="225.369" r="4" fill="#0" id="circle204"/>
	<circle cx="971.034" cy="242.013" r="4" fill="#0" id="circle205"/>
	<circle cx="971.034" cy="383.49" r="4" fill="#0" id="circle206"/>
	<circle cx="979.356" cy="256.993" r="4" fill="#0" id="circle207"/>
	<circle cx="987.678" cy="271.973" r="4" fill="#0" id="circle208"/>
	<circle cx="987.678" cy="366.846" r="4" fill="#0" id="circle209"/>
	<circle cx="996" cy="286.953" r="4" fill="#0" id="circle210"/>
	<circle cx="996" cy="303.597" r="4" fill="#0" id="circle211"/>
	<circle cx="996" cy="320.242" r="4" fill="#0" id="circle212"/>
	<circle cx="996" cy="336.886" r="4" fill="#0" id="circle213"/>
	</g>
</svg>