<?xml version="1.0" encoding="UTF-8" standalone="no"?>
<!-- Created with CurveBenchmark -->
<svg
	xmlns:dc="http://purl.org/dc/elements/1.1/"
	xmlns:cc="http://creativecommons.org/ns#"
	xmlns:rdf="http://www.w3.org/1999/02/22-rdf-syntax-ns#"
	xmlns:svg="http://www.w3.org/2000/svg"
	xmlns="http://www.w3.org/2000/svg"
	xmlns:sodipodi="http://sodipodi.sourceforge.net/DTD/sodipodi-0.dtd"
	xmlns:inkscape="http://www.inkscape.org/namespaces/inkscape"
	width="1000"
	height="1000"
	id="svg2"
	version="1.1"
	sodipodi:docname="manifold/connect2d-car12.png.txt">
<defs
	id="defs4" />
<metadata
	id="metadata7">
	<rdf:RDF>
		<cc:Work
			rdf:about="">
			<dc:format>image/svg+xml</dc:format>
			<dc:type
				rdf:resource="http://purl.org/dc/dcmitype/StillImage" />
			<dc:title></dc:title>
		</cc:Work>
	</rdf:RDF>
</metadata>
<g
	inkscape:label="Layer 1"
	inkscape:groupmode="layer"
	id="layer1">
	<path style="fill:none;stroke:red;stroke-width:1px;stroke-linecap:butt;stroke-linejoin:miter;stroke-opacity:1" d="M 996,255.568 978.158,264.489 z" id="boundary" inkscape:connector-curvature="0" />
	<path style="fill:none;stroke:red;stroke-width:1px;stroke-linecap:butt;stroke-linejoin:miter;stroke-opacity:1" d="M 978.158,264.489 969.237,291.252 z" id="boundary" inkscape:connector-curvature="0" />
	<path style="fill:none;stroke:red;stroke-width:1px;stroke-linecap:butt;stroke-linejoin:miter;stroke-opacity:1" d="M 969.237,291.252 969.237,309.094 z" id="boundary" inkscape:connector-curvature="0" />
	<path style="fill:none;stroke:red;stroke-width:1px;stroke-linecap:butt;stroke-linejoin:miter;stroke-opacity:1" d="M 969.237,309.094 960.317,335.856 z" id="boundary" inkscape:connector-curvature="0" />
	<path style="fill:none;stroke:red;stroke-width:1px;stroke-linecap:butt;stroke-linejoin:miter;stroke-opacity:1" d="M 960.317,335.856 947.827,359.05 z" id="boundary" inkscape:connector-curvature="0" />
	<path style="fill:none;stroke:red;stroke-width:1px;stroke-linecap:butt;stroke-linejoin:miter;stroke-opacity:1" d="M 947.827,359.05 929.986,362.619 z" id="boundary" inkscape:connector-curvature="0" />
	<path style="fill:none;stroke:red;stroke-width:1px;stroke-linecap:butt;stroke-linejoin:miter;stroke-opacity:1" d="M 929.986,362.619 915.712,375.108 z" id="boundary" inkscape:connector-curvature="0" />
	<path style="fill:none;stroke:red;stroke-width:1px;stroke-linecap:butt;stroke-linejoin:miter;stroke-opacity:1" d="M 915.712,375.108 897.871,371.54 z" id="boundary" inkscape:connector-curvature="0" />
	<path style="fill:none;stroke:red;stroke-width:1px;stroke-linecap:butt;stroke-linejoin:miter;stroke-opacity:1" d="M 897.871,371.54 897.871,389.381 z" id="boundary" inkscape:connector-curvature="0" />
	<path style="fill:none;stroke:red;stroke-width:1px;stroke-linecap:butt;stroke-linejoin:miter;stroke-opacity:1" d="M 897.871,389.381 888.95,416.144 z" id="boundary" inkscape:connector-curvature="0" />
	<path style="fill:none;stroke:red;stroke-width:1px;stroke-linecap:butt;stroke-linejoin:miter;stroke-opacity:1" d="M 888.95,416.144 880.029,433.986 z" id="boundary" inkscape:connector-curvature="0" />
	<path style="fill:none;stroke:red;stroke-width:1px;stroke-linecap:butt;stroke-linejoin:miter;stroke-opacity:1" d="M 880.029,433.986 869.324,455.396 z" id="boundary" inkscape:connector-curvature="0" />
	<path style="fill:none;stroke:red;stroke-width:1px;stroke-linecap:butt;stroke-linejoin:miter;stroke-opacity:1" d="M 869.324,455.396 856.835,469.669 z" id="boundary" inkscape:connector-curvature="0" />
	<path style="fill:none;stroke:red;stroke-width:1px;stroke-linecap:butt;stroke-linejoin:miter;stroke-opacity:1" d="M 856.835,469.669 840.777,460.748 z" id="boundary" inkscape:connector-curvature="0" />
	<path style="fill:none;stroke:red;stroke-width:1px;stroke-linecap:butt;stroke-linejoin:miter;stroke-opacity:1" d="M 840.777,460.748 824.719,469.669 z" id="boundary" inkscape:connector-curvature="0" />
	<path style="fill:none;stroke:red;stroke-width:1px;stroke-linecap:butt;stroke-linejoin:miter;stroke-opacity:1" d="M 824.719,469.669 806.878,462.532 z" id="boundary" inkscape:connector-curvature="0" />
	<path style="fill:none;stroke:red;stroke-width:1px;stroke-linecap:butt;stroke-linejoin:miter;stroke-opacity:1" d="M 806.878,462.532 797.957,446.475 z" id="boundary" inkscape:connector-curvature="0" />
	<path style="fill:none;stroke:red;stroke-width:1px;stroke-linecap:butt;stroke-linejoin:miter;stroke-opacity:1" d="M 797.957,446.475 797.957,425.065 z" id="boundary" inkscape:connector-curvature="0" />
	<path style="fill:none;stroke:red;stroke-width:1px;stroke-linecap:butt;stroke-linejoin:miter;stroke-opacity:1" d="M 797.957,425.065 797.957,407.223 z" id="boundary" inkscape:connector-curvature="0" />
	<path style="fill:none;stroke:red;stroke-width:1px;stroke-linecap:butt;stroke-linejoin:miter;stroke-opacity:1" d="M 797.957,407.223 781.899,416.144 z" id="boundary" inkscape:connector-curvature="0" />
	<path style="fill:none;stroke:red;stroke-width:1px;stroke-linecap:butt;stroke-linejoin:miter;stroke-opacity:1" d="M 781.899,416.144 764.058,416.144 z" id="boundary" inkscape:connector-curvature="0" />
	<path style="fill:none;stroke:red;stroke-width:1px;stroke-linecap:butt;stroke-linejoin:miter;stroke-opacity:1" d="M 764.058,416.144 746.216,416.144 z" id="boundary" inkscape:connector-curvature="0" />
	<path style="fill:none;stroke:red;stroke-width:1px;stroke-linecap:butt;stroke-linejoin:miter;stroke-opacity:1" d="M 746.216,416.144 728.374,425.065 z" id="boundary" inkscape:connector-curvature="0" />
	<path style="fill:none;stroke:red;stroke-width:1px;stroke-linecap:butt;stroke-linejoin:miter;stroke-opacity:1" d="M 728.374,425.065 710.532,425.065 z" id="boundary" inkscape:connector-curvature="0" />
	<path style="fill:none;stroke:red;stroke-width:1px;stroke-linecap:butt;stroke-linejoin:miter;stroke-opacity:1" d="M 710.532,425.065 692.691,425.065 z" id="boundary" inkscape:connector-curvature="0" />
	<path style="fill:none;stroke:red;stroke-width:1px;stroke-linecap:butt;stroke-linejoin:miter;stroke-opacity:1" d="M 692.691,425.065 674.849,425.065 z" id="boundary" inkscape:connector-curvature="0" />
	<path style="fill:none;stroke:red;stroke-width:1px;stroke-linecap:butt;stroke-linejoin:miter;stroke-opacity:1" d="M 674.849,425.065 657.007,425.065 z" id="boundary" inkscape:connector-curvature="0" />
	<path style="fill:none;stroke:red;stroke-width:1px;stroke-linecap:butt;stroke-linejoin:miter;stroke-opacity:1" d="M 657.007,425.065 639.165,425.065 z" id="boundary" inkscape:connector-curvature="0" />
	<path style="fill:none;stroke:red;stroke-width:1px;stroke-linecap:butt;stroke-linejoin:miter;stroke-opacity:1" d="M 639.165,425.065 621.324,425.065 z" id="boundary" inkscape:connector-curvature="0" />
	<path style="fill:none;stroke:red;stroke-width:1px;stroke-linecap:butt;stroke-linejoin:miter;stroke-opacity:1" d="M 621.324,425.065 603.482,425.065 z" id="boundary" inkscape:connector-curvature="0" />
	<path style="fill:none;stroke:red;stroke-width:1px;stroke-linecap:butt;stroke-linejoin:miter;stroke-opacity:1" d="M 603.482,425.065 585.64,425.065 z" id="boundary" inkscape:connector-curvature="0" />
	<path style="fill:none;stroke:red;stroke-width:1px;stroke-linecap:butt;stroke-linejoin:miter;stroke-opacity:1" d="M 585.64,425.065 567.799,425.065 z" id="boundary" inkscape:connector-curvature="0" />
	<path style="fill:none;stroke:red;stroke-width:1px;stroke-linecap:butt;stroke-linejoin:miter;stroke-opacity:1" d="M 567.799,425.065 558.878,442.906 z" id="boundary" inkscape:connector-curvature="0" />
	<path style="fill:none;stroke:red;stroke-width:1px;stroke-linecap:butt;stroke-linejoin:miter;stroke-opacity:1" d="M 558.878,442.906 558.878,460.748 z" id="boundary" inkscape:connector-curvature="0" />
	<path style="fill:none;stroke:red;stroke-width:1px;stroke-linecap:butt;stroke-linejoin:miter;stroke-opacity:1" d="M 558.878,460.748 541.036,469.669 z" id="boundary" inkscape:connector-curvature="0" />
	<path style="fill:none;stroke:red;stroke-width:1px;stroke-linecap:butt;stroke-linejoin:miter;stroke-opacity:1" d="M 541.036,469.669 530.331,491.079 z" id="boundary" inkscape:connector-curvature="0" />
	<path style="fill:none;stroke:red;stroke-width:1px;stroke-linecap:butt;stroke-linejoin:miter;stroke-opacity:1" d="M 530.331,491.079 516.058,505.353 z" id="boundary" inkscape:connector-curvature="0" />
	<path style="fill:none;stroke:red;stroke-width:1px;stroke-linecap:butt;stroke-linejoin:miter;stroke-opacity:1" d="M 516.058,505.353 498.216,510.705 z" id="boundary" inkscape:connector-curvature="0" />
	<path style="fill:none;stroke:red;stroke-width:1px;stroke-linecap:butt;stroke-linejoin:miter;stroke-opacity:1" d="M 498.216,510.705 480.374,503.568 z" id="boundary" inkscape:connector-curvature="0" />
	<path style="fill:none;stroke:red;stroke-width:1px;stroke-linecap:butt;stroke-linejoin:miter;stroke-opacity:1" d="M 480.374,503.568 464.317,494.647 z" id="boundary" inkscape:connector-curvature="0" />
	<path style="fill:none;stroke:red;stroke-width:1px;stroke-linecap:butt;stroke-linejoin:miter;stroke-opacity:1" d="M 464.317,494.647 455.396,478.59 z" id="boundary" inkscape:connector-curvature="0" />
	<path style="fill:none;stroke:red;stroke-width:1px;stroke-linecap:butt;stroke-linejoin:miter;stroke-opacity:1" d="M 455.396,478.59 450.043,460.748 z" id="boundary" inkscape:connector-curvature="0" />
	<path style="fill:none;stroke:red;stroke-width:1px;stroke-linecap:butt;stroke-linejoin:miter;stroke-opacity:1" d="M 450.043,460.748 450.043,442.906 z" id="boundary" inkscape:connector-curvature="0" />
	<path style="fill:none;stroke:red;stroke-width:1px;stroke-linecap:butt;stroke-linejoin:miter;stroke-opacity:1" d="M 450.043,442.906 442.906,425.065 z" id="boundary" inkscape:connector-curvature="0" />
	<path style="fill:none;stroke:red;stroke-width:1px;stroke-linecap:butt;stroke-linejoin:miter;stroke-opacity:1" d="M 442.906,425.065 426.849,442.906 z" id="boundary" inkscape:connector-curvature="0" />
	<path style="fill:none;stroke:red;stroke-width:1px;stroke-linecap:butt;stroke-linejoin:miter;stroke-opacity:1" d="M 426.849,442.906 417.928,458.964 z" id="boundary" inkscape:connector-curvature="0" />
	<path style="fill:none;stroke:red;stroke-width:1px;stroke-linecap:butt;stroke-linejoin:miter;stroke-opacity:1" d="M 417.928,458.964 401.871,450.043 z" id="boundary" inkscape:connector-curvature="0" />
	<path style="fill:none;stroke:red;stroke-width:1px;stroke-linecap:butt;stroke-linejoin:miter;stroke-opacity:1" d="M 401.871,450.043 384.029,451.827 z" id="boundary" inkscape:connector-curvature="0" />
	<path style="fill:none;stroke:red;stroke-width:1px;stroke-linecap:butt;stroke-linejoin:miter;stroke-opacity:1" d="M 384.029,451.827 367.971,442.906 z" id="boundary" inkscape:connector-curvature="0" />
	<path style="fill:none;stroke:red;stroke-width:1px;stroke-linecap:butt;stroke-linejoin:miter;stroke-opacity:1" d="M 367.971,442.906 351.914,451.827 z" id="boundary" inkscape:connector-curvature="0" />
	<path style="fill:none;stroke:red;stroke-width:1px;stroke-linecap:butt;stroke-linejoin:miter;stroke-opacity:1" d="M 351.914,451.827 334.072,446.475 z" id="boundary" inkscape:connector-curvature="0" />
	<path style="fill:none;stroke:red;stroke-width:1px;stroke-linecap:butt;stroke-linejoin:miter;stroke-opacity:1" d="M 334.072,446.475 316.23,451.827 z" id="boundary" inkscape:connector-curvature="0" />
	<path style="fill:none;stroke:red;stroke-width:1px;stroke-linecap:butt;stroke-linejoin:miter;stroke-opacity:1" d="M 316.23,451.827 298.388,451.827 z" id="boundary" inkscape:connector-curvature="0" />
	<path style="fill:none;stroke:red;stroke-width:1px;stroke-linecap:butt;stroke-linejoin:miter;stroke-opacity:1" d="M 298.388,451.827 280.547,451.827 z" id="boundary" inkscape:connector-curvature="0" />
	<path style="fill:none;stroke:red;stroke-width:1px;stroke-linecap:butt;stroke-linejoin:miter;stroke-opacity:1" d="M 280.547,451.827 262.705,446.475 z" id="boundary" inkscape:connector-curvature="0" />
	<path style="fill:none;stroke:red;stroke-width:1px;stroke-linecap:butt;stroke-linejoin:miter;stroke-opacity:1" d="M 262.705,446.475 248.432,457.18 z" id="boundary" inkscape:connector-curvature="0" />
	<path style="fill:none;stroke:red;stroke-width:1px;stroke-linecap:butt;stroke-linejoin:miter;stroke-opacity:1" d="M 248.432,457.18 237.727,442.906 z" id="boundary" inkscape:connector-curvature="0" />
	<path style="fill:none;stroke:red;stroke-width:1px;stroke-linecap:butt;stroke-linejoin:miter;stroke-opacity:1" d="M 237.727,442.906 219.885,446.475 z" id="boundary" inkscape:connector-curvature="0" />
	<path style="fill:none;stroke:red;stroke-width:1px;stroke-linecap:butt;stroke-linejoin:miter;stroke-opacity:1" d="M 219.885,446.475 202.043,442.906 z" id="boundary" inkscape:connector-curvature="0" />
	<path style="fill:none;stroke:red;stroke-width:1px;stroke-linecap:butt;stroke-linejoin:miter;stroke-opacity:1" d="M 202.043,442.906 205.612,460.748 z" id="boundary" inkscape:connector-curvature="0" />
	<path style="fill:none;stroke:red;stroke-width:1px;stroke-linecap:butt;stroke-linejoin:miter;stroke-opacity:1" d="M 205.612,460.748 196.691,485.727 z" id="boundary" inkscape:connector-curvature="0" />
	<path style="fill:none;stroke:red;stroke-width:1px;stroke-linecap:butt;stroke-linejoin:miter;stroke-opacity:1" d="M 196.691,485.727 178.849,487.511 z" id="boundary" inkscape:connector-curvature="0" />
	<path style="fill:none;stroke:red;stroke-width:1px;stroke-linecap:butt;stroke-linejoin:miter;stroke-opacity:1" d="M 178.849,487.511 161.007,487.511 z" id="boundary" inkscape:connector-curvature="0" />
	<path style="fill:none;stroke:red;stroke-width:1px;stroke-linecap:butt;stroke-linejoin:miter;stroke-opacity:1" d="M 161.007,487.511 143.165,487.511 z" id="boundary" inkscape:connector-curvature="0" />
	<path style="fill:none;stroke:red;stroke-width:1px;stroke-linecap:butt;stroke-linejoin:miter;stroke-opacity:1" d="M 143.165,487.511 127.108,478.59 z" id="boundary" inkscape:connector-curvature="0" />
	<path style="fill:none;stroke:red;stroke-width:1px;stroke-linecap:butt;stroke-linejoin:miter;stroke-opacity:1" d="M 127.108,478.59 109.266,478.59 z" id="boundary" inkscape:connector-curvature="0" />
	<path style="fill:none;stroke:red;stroke-width:1px;stroke-linecap:butt;stroke-linejoin:miter;stroke-opacity:1" d="M 109.266,478.59 93.2086,469.669 z" id="boundary" inkscape:connector-curvature="0" />
	<path style="fill:none;stroke:red;stroke-width:1px;stroke-linecap:butt;stroke-linejoin:miter;stroke-opacity:1" d="M 93.2086,469.669 78.9353,458.964 z" id="boundary" inkscape:connector-curvature="0" />
	<path style="fill:none;stroke:red;stroke-width:1px;stroke-linecap:butt;stroke-linejoin:miter;stroke-opacity:1" d="M 78.9353,458.964 75.3669,441.122 z" id="boundary" inkscape:connector-curvature="0" />
	<path style="fill:none;stroke:red;stroke-width:1px;stroke-linecap:butt;stroke-linejoin:miter;stroke-opacity:1" d="M 75.3669,441.122 61.0935,430.417 z" id="boundary" inkscape:connector-curvature="0" />
	<path style="fill:none;stroke:red;stroke-width:1px;stroke-linecap:butt;stroke-linejoin:miter;stroke-opacity:1" d="M 61.0935,430.417 43.2518,423.281 z" id="boundary" inkscape:connector-curvature="0" />
	<path style="fill:none;stroke:red;stroke-width:1px;stroke-linecap:butt;stroke-linejoin:miter;stroke-opacity:1" d="M 43.2518,423.281 30.7626,409.007 z" id="boundary" inkscape:connector-curvature="0" />
	<path style="fill:none;stroke:red;stroke-width:1px;stroke-linecap:butt;stroke-linejoin:miter;stroke-opacity:1" d="M 30.7626,409.007 21.8417,392.95 z" id="boundary" inkscape:connector-curvature="0" />
	<path style="fill:none;stroke:red;stroke-width:1px;stroke-linecap:butt;stroke-linejoin:miter;stroke-opacity:1" d="M 21.8417,392.95 21.8417,366.187 z" id="boundary" inkscape:connector-curvature="0" />
	<path style="fill:none;stroke:red;stroke-width:1px;stroke-linecap:butt;stroke-linejoin:miter;stroke-opacity:1" d="M 21.8417,366.187 30.7626,341.209 z" id="boundary" inkscape:connector-curvature="0" />
	<path style="fill:none;stroke:red;stroke-width:1px;stroke-linecap:butt;stroke-linejoin:miter;stroke-opacity:1" d="M 30.7626,341.209 30.7626,323.367 z" id="boundary" inkscape:connector-curvature="0" />
	<path style="fill:none;stroke:red;stroke-width:1px;stroke-linecap:butt;stroke-linejoin:miter;stroke-opacity:1" d="M 30.7626,323.367 30.7626,305.525 z" id="boundary" inkscape:connector-curvature="0" />
	<path style="fill:none;stroke:red;stroke-width:1px;stroke-linecap:butt;stroke-linejoin:miter;stroke-opacity:1" d="M 30.7626,305.525 25.4101,287.683 z" id="boundary" inkscape:connector-curvature="0" />
	<path style="fill:none;stroke:red;stroke-width:1px;stroke-linecap:butt;stroke-linejoin:miter;stroke-opacity:1" d="M 25.4101,287.683 14.705,273.41 z" id="boundary" inkscape:connector-curvature="0" />
	<path style="fill:none;stroke:red;stroke-width:1px;stroke-linecap:butt;stroke-linejoin:miter;stroke-opacity:1" d="M 14.705,273.41 4,259.137 z" id="boundary" inkscape:connector-curvature="0" />
	<path style="fill:none;stroke:red;stroke-width:1px;stroke-linecap:butt;stroke-linejoin:miter;stroke-opacity:1" d="M 4,259.137 12.9209,241.295 z" id="boundary" inkscape:connector-curvature="0" />
	<path style="fill:none;stroke:red;stroke-width:1px;stroke-linecap:butt;stroke-linejoin:miter;stroke-opacity:1" d="M 12.9209,241.295 27.1942,227.022 z" id="boundary" inkscape:connector-curvature="0" />
	<path style="fill:none;stroke:red;stroke-width:1px;stroke-linecap:butt;stroke-linejoin:miter;stroke-opacity:1" d="M 27.1942,227.022 45.036,218.101 z" id="boundary" inkscape:connector-curvature="0" />
	<path style="fill:none;stroke:red;stroke-width:1px;stroke-linecap:butt;stroke-linejoin:miter;stroke-opacity:1" d="M 45.036,218.101 61.0935,209.18 z" id="boundary" inkscape:connector-curvature="0" />
	<path style="fill:none;stroke:red;stroke-width:1px;stroke-linecap:butt;stroke-linejoin:miter;stroke-opacity:1" d="M 61.0935,209.18 75.3669,196.691 z" id="boundary" inkscape:connector-curvature="0" />
	<path style="fill:none;stroke:red;stroke-width:1px;stroke-linecap:butt;stroke-linejoin:miter;stroke-opacity:1" d="M 75.3669,196.691 93.2086,191.338 z" id="boundary" inkscape:connector-curvature="0" />
	<path style="fill:none;stroke:red;stroke-width:1px;stroke-linecap:butt;stroke-linejoin:miter;stroke-opacity:1" d="M 93.2086,191.338 109.266,182.417 z" id="boundary" inkscape:connector-curvature="0" />
	<path style="fill:none;stroke:red;stroke-width:1px;stroke-linecap:butt;stroke-linejoin:miter;stroke-opacity:1" d="M 109.266,182.417 127.108,182.417 z" id="boundary" inkscape:connector-curvature="0" />
	<path style="fill:none;stroke:red;stroke-width:1px;stroke-linecap:butt;stroke-linejoin:miter;stroke-opacity:1" d="M 127.108,182.417 144.95,182.417 z" id="boundary" inkscape:connector-curvature="0" />
	<path style="fill:none;stroke:red;stroke-width:1px;stroke-linecap:butt;stroke-linejoin:miter;stroke-opacity:1" d="M 144.95,182.417 162.791,182.417 z" id="boundary" inkscape:connector-curvature="0" />
	<path style="fill:none;stroke:red;stroke-width:1px;stroke-linecap:butt;stroke-linejoin:miter;stroke-opacity:1" d="M 162.791,182.417 178.849,173.496 z" id="boundary" inkscape:connector-curvature="0" />
	<path style="fill:none;stroke:red;stroke-width:1px;stroke-linecap:butt;stroke-linejoin:miter;stroke-opacity:1" d="M 178.849,173.496 196.691,173.496 z" id="boundary" inkscape:connector-curvature="0" />
	<path style="fill:none;stroke:red;stroke-width:1px;stroke-linecap:butt;stroke-linejoin:miter;stroke-opacity:1" d="M 196.691,173.496 214.532,173.496 z" id="boundary" inkscape:connector-curvature="0" />
	<path style="fill:none;stroke:red;stroke-width:1px;stroke-linecap:butt;stroke-linejoin:miter;stroke-opacity:1" d="M 214.532,173.496 232.374,173.496 z" id="boundary" inkscape:connector-curvature="0" />
	<path style="fill:none;stroke:red;stroke-width:1px;stroke-linecap:butt;stroke-linejoin:miter;stroke-opacity:1" d="M 232.374,173.496 250.216,173.496 z" id="boundary" inkscape:connector-curvature="0" />
	<path style="fill:none;stroke:red;stroke-width:1px;stroke-linecap:butt;stroke-linejoin:miter;stroke-opacity:1" d="M 250.216,173.496 266.273,164.576 z" id="boundary" inkscape:connector-curvature="0" />
	<path style="fill:none;stroke:red;stroke-width:1px;stroke-linecap:butt;stroke-linejoin:miter;stroke-opacity:1" d="M 266.273,164.576 275.194,148.518 z" id="boundary" inkscape:connector-curvature="0" />
	<path style="fill:none;stroke:red;stroke-width:1px;stroke-linecap:butt;stroke-linejoin:miter;stroke-opacity:1" d="M 275.194,148.518 293.036,146.734 z" id="boundary" inkscape:connector-curvature="0" />
	<path style="fill:none;stroke:red;stroke-width:1px;stroke-linecap:butt;stroke-linejoin:miter;stroke-opacity:1" d="M 293.036,146.734 301.957,130.676 z" id="boundary" inkscape:connector-curvature="0" />
	<path style="fill:none;stroke:red;stroke-width:1px;stroke-linecap:butt;stroke-linejoin:miter;stroke-opacity:1" d="M 301.957,130.676 319.799,128.892 z" id="boundary" inkscape:connector-curvature="0" />
	<path style="fill:none;stroke:red;stroke-width:1px;stroke-linecap:butt;stroke-linejoin:miter;stroke-opacity:1" d="M 319.799,128.892 337.64,121.755 z" id="boundary" inkscape:connector-curvature="0" />
	<path style="fill:none;stroke:red;stroke-width:1px;stroke-linecap:butt;stroke-linejoin:miter;stroke-opacity:1" d="M 337.64,121.755 355.482,112.835 z" id="boundary" inkscape:connector-curvature="0" />
	<path style="fill:none;stroke:red;stroke-width:1px;stroke-linecap:butt;stroke-linejoin:miter;stroke-opacity:1" d="M 355.482,112.835 373.324,111.05 z" id="boundary" inkscape:connector-curvature="0" />
	<path style="fill:none;stroke:red;stroke-width:1px;stroke-linecap:butt;stroke-linejoin:miter;stroke-opacity:1" d="M 373.324,111.05 391.165,111.05 z" id="boundary" inkscape:connector-curvature="0" />
	<path style="fill:none;stroke:red;stroke-width:1px;stroke-linecap:butt;stroke-linejoin:miter;stroke-opacity:1" d="M 391.165,111.05 407.223,119.971 z" id="boundary" inkscape:connector-curvature="0" />
	<path style="fill:none;stroke:red;stroke-width:1px;stroke-linecap:butt;stroke-linejoin:miter;stroke-opacity:1" d="M 407.223,119.971 425.065,119.971 z" id="boundary" inkscape:connector-curvature="0" />
	<path style="fill:none;stroke:red;stroke-width:1px;stroke-linecap:butt;stroke-linejoin:miter;stroke-opacity:1" d="M 425.065,119.971 442.906,119.971 z" id="boundary" inkscape:connector-curvature="0" />
	<path style="fill:none;stroke:red;stroke-width:1px;stroke-linecap:butt;stroke-linejoin:miter;stroke-opacity:1" d="M 442.906,119.971 450.043,89.6403 z" id="boundary" inkscape:connector-curvature="0" />
	<path style="fill:none;stroke:red;stroke-width:1px;stroke-linecap:butt;stroke-linejoin:miter;stroke-opacity:1" d="M 450.043,89.6403 450.043,71.7986 z" id="boundary" inkscape:connector-curvature="0" />
	<path style="fill:none;stroke:red;stroke-width:1px;stroke-linecap:butt;stroke-linejoin:miter;stroke-opacity:1" d="M 450.043,71.7986 464.317,57.5252 z" id="boundary" inkscape:connector-curvature="0" />
	<path style="fill:none;stroke:red;stroke-width:1px;stroke-linecap:butt;stroke-linejoin:miter;stroke-opacity:1" d="M 464.317,57.5252 473.237,39.6835 z" id="boundary" inkscape:connector-curvature="0" />
	<path style="fill:none;stroke:red;stroke-width:1px;stroke-linecap:butt;stroke-linejoin:miter;stroke-opacity:1" d="M 473.237,39.6835 482.158,21.8417 z" id="boundary" inkscape:connector-curvature="0" />
	<path style="fill:none;stroke:red;stroke-width:1px;stroke-linecap:butt;stroke-linejoin:miter;stroke-opacity:1" d="M 482.158,21.8417 496.432,7.56835 z" id="boundary" inkscape:connector-curvature="0" />
	<path style="fill:none;stroke:red;stroke-width:1px;stroke-linecap:butt;stroke-linejoin:miter;stroke-opacity:1" d="M 496.432,7.56835 514.273,4 z" id="boundary" inkscape:connector-curvature="0" />
	<path style="fill:none;stroke:red;stroke-width:1px;stroke-linecap:butt;stroke-linejoin:miter;stroke-opacity:1" d="M 514.273,4 532.115,4 z" id="boundary" inkscape:connector-curvature="0" />
	<path style="fill:none;stroke:red;stroke-width:1px;stroke-linecap:butt;stroke-linejoin:miter;stroke-opacity:1" d="M 532.115,4 549.957,9.35252 z" id="boundary" inkscape:connector-curvature="0" />
	<path style="fill:none;stroke:red;stroke-width:1px;stroke-linecap:butt;stroke-linejoin:miter;stroke-opacity:1" d="M 549.957,9.35252 567.799,12.9209 z" id="boundary" inkscape:connector-curvature="0" />
	<path style="fill:none;stroke:red;stroke-width:1px;stroke-linecap:butt;stroke-linejoin:miter;stroke-opacity:1" d="M 567.799,12.9209 585.64,12.9209 z" id="boundary" inkscape:connector-curvature="0" />
	<path style="fill:none;stroke:red;stroke-width:1px;stroke-linecap:butt;stroke-linejoin:miter;stroke-opacity:1" d="M 585.64,12.9209 603.482,12.9209 z" id="boundary" inkscape:connector-curvature="0" />
	<path style="fill:none;stroke:red;stroke-width:1px;stroke-linecap:butt;stroke-linejoin:miter;stroke-opacity:1" d="M 603.482,12.9209 621.324,12.9209 z" id="boundary" inkscape:connector-curvature="0" />
	<path style="fill:none;stroke:red;stroke-width:1px;stroke-linecap:butt;stroke-linejoin:miter;stroke-opacity:1" d="M 621.324,12.9209 639.165,12.9209 z" id="boundary" inkscape:connector-curvature="0" />
	<path style="fill:none;stroke:red;stroke-width:1px;stroke-linecap:butt;stroke-linejoin:miter;stroke-opacity:1" d="M 639.165,12.9209 657.007,12.9209 z" id="boundary" inkscape:connector-curvature="0" />
	<path style="fill:none;stroke:red;stroke-width:1px;stroke-linecap:butt;stroke-linejoin:miter;stroke-opacity:1" d="M 657.007,12.9209 674.849,12.9209 z" id="boundary" inkscape:connector-curvature="0" />
	<path style="fill:none;stroke:red;stroke-width:1px;stroke-linecap:butt;stroke-linejoin:miter;stroke-opacity:1" d="M 674.849,12.9209 692.691,12.9209 z" id="boundary" inkscape:connector-curvature="0" />
	<path style="fill:none;stroke:red;stroke-width:1px;stroke-linecap:butt;stroke-linejoin:miter;stroke-opacity:1" d="M 692.691,12.9209 710.532,12.9209 z" id="boundary" inkscape:connector-curvature="0" />
	<path style="fill:none;stroke:red;stroke-width:1px;stroke-linecap:butt;stroke-linejoin:miter;stroke-opacity:1" d="M 710.532,12.9209 726.59,21.8417 z" id="boundary" inkscape:connector-curvature="0" />
	<path style="fill:none;stroke:red;stroke-width:1px;stroke-linecap:butt;stroke-linejoin:miter;stroke-opacity:1" d="M 726.59,21.8417 742.647,30.7626 z" id="boundary" inkscape:connector-curvature="0" />
	<path style="fill:none;stroke:red;stroke-width:1px;stroke-linecap:butt;stroke-linejoin:miter;stroke-opacity:1" d="M 742.647,30.7626 758.705,39.6835 z" id="boundary" inkscape:connector-curvature="0" />
	<path style="fill:none;stroke:red;stroke-width:1px;stroke-linecap:butt;stroke-linejoin:miter;stroke-opacity:1" d="M 758.705,39.6835 764.058,57.5252 z" id="boundary" inkscape:connector-curvature="0" />
	<path style="fill:none;stroke:red;stroke-width:1px;stroke-linecap:butt;stroke-linejoin:miter;stroke-opacity:1" d="M 764.058,57.5252 772.978,77.1511 z" id="boundary" inkscape:connector-curvature="0" />
	<path style="fill:none;stroke:red;stroke-width:1px;stroke-linecap:butt;stroke-linejoin:miter;stroke-opacity:1" d="M 772.978,77.1511 772.978,94.9928 z" id="boundary" inkscape:connector-curvature="0" />
	<path style="fill:none;stroke:red;stroke-width:1px;stroke-linecap:butt;stroke-linejoin:miter;stroke-opacity:1" d="M 772.978,94.9928 772.978,112.835 z" id="boundary" inkscape:connector-curvature="0" />
	<path style="fill:none;stroke:red;stroke-width:1px;stroke-linecap:butt;stroke-linejoin:miter;stroke-opacity:1" d="M 772.978,112.835 787.252,123.54 z" id="boundary" inkscape:connector-curvature="0" />
	<path style="fill:none;stroke:red;stroke-width:1px;stroke-linecap:butt;stroke-linejoin:miter;stroke-opacity:1" d="M 787.252,123.54 796.173,139.597 z" id="boundary" inkscape:connector-curvature="0" />
	<path style="fill:none;stroke:red;stroke-width:1px;stroke-linecap:butt;stroke-linejoin:miter;stroke-opacity:1" d="M 796.173,139.597 808.662,153.871 z" id="boundary" inkscape:connector-curvature="0" />
	<path style="fill:none;stroke:red;stroke-width:1px;stroke-linecap:butt;stroke-linejoin:miter;stroke-opacity:1" d="M 808.662,153.871 826.504,155.655 z" id="boundary" inkscape:connector-curvature="0" />
	<path style="fill:none;stroke:red;stroke-width:1px;stroke-linecap:butt;stroke-linejoin:miter;stroke-opacity:1" d="M 826.504,155.655 844.345,150.302 z" id="boundary" inkscape:connector-curvature="0" />
	<path style="fill:none;stroke:red;stroke-width:1px;stroke-linecap:butt;stroke-linejoin:miter;stroke-opacity:1" d="M 844.345,150.302 862.187,150.302 z" id="boundary" inkscape:connector-curvature="0" />
	<path style="fill:none;stroke:red;stroke-width:1px;stroke-linecap:butt;stroke-linejoin:miter;stroke-opacity:1" d="M 862.187,150.302 880.029,155.655 z" id="boundary" inkscape:connector-curvature="0" />
	<path style="fill:none;stroke:red;stroke-width:1px;stroke-linecap:butt;stroke-linejoin:miter;stroke-opacity:1" d="M 880.029,155.655 897.871,155.655 z" id="boundary" inkscape:connector-curvature="0" />
	<path style="fill:none;stroke:red;stroke-width:1px;stroke-linecap:butt;stroke-linejoin:miter;stroke-opacity:1" d="M 897.871,155.655 915.712,155.655 z" id="boundary" inkscape:connector-curvature="0" />
	<path style="fill:none;stroke:red;stroke-width:1px;stroke-linecap:butt;stroke-linejoin:miter;stroke-opacity:1" d="M 915.712,155.655 933.554,155.655 z" id="boundary" inkscape:connector-curvature="0" />
	<path style="fill:none;stroke:red;stroke-width:1px;stroke-linecap:butt;stroke-linejoin:miter;stroke-opacity:1" d="M 933.554,155.655 951.396,155.655 z" id="boundary" inkscape:connector-curvature="0" />
	<path style="fill:none;stroke:red;stroke-width:1px;stroke-linecap:butt;stroke-linejoin:miter;stroke-opacity:1" d="M 951.396,155.655 969.237,161.007 z" id="boundary" inkscape:connector-curvature="0" />
	<path style="fill:none;stroke:red;stroke-width:1px;stroke-linecap:butt;stroke-linejoin:miter;stroke-opacity:1" d="M 969.237,161.007 981.727,175.281 z" id="boundary" inkscape:connector-curvature="0" />
	<path style="fill:none;stroke:red;stroke-width:1px;stroke-linecap:butt;stroke-linejoin:miter;stroke-opacity:1" d="M 981.727,175.281 996,187.77 z" id="boundary" inkscape:connector-curvature="0" />
	<path style="fill:none;stroke:red;stroke-width:1px;stroke-linecap:butt;stroke-linejoin:miter;stroke-opacity:1" d="M 996,187.77 996,210.964 z" id="boundary" inkscape:connector-curvature="0" />
	<path style="fill:none;stroke:red;stroke-width:1px;stroke-linecap:butt;stroke-linejoin:miter;stroke-opacity:1" d="M 996,210.964 996,228.806 z" id="boundary" inkscape:connector-curvature="0" />
	<path style="fill:none;stroke:red;stroke-width:1px;stroke-linecap:butt;stroke-linejoin:miter;stroke-opacity:1" d="M 996,228.806 996,255.568 z" id="boundary" inkscape:connector-curvature="0" />
	<circle cx="4" cy="259.137" r="4" fill="#0" id="circle0"/>
	<circle cx="12.9209" cy="241.295" r="4" fill="#0" id="circle1"/>
	<circle cx="14.705" cy="273.41" r="4" fill="#0" id="circle2"/>
	<circle cx="21.8417" cy="366.187" r="4" fill="#0" id="circle3"/>
	<circle cx="21.8417" cy="392.95" r="4" fill="#0" id="circle4"/>
	<circle cx="25.4101" cy="287.683" r="4" fill="#0" id="circle5"/>
	<circle cx="27.1942" cy="227.022" r="4" fill="#0" id="circle6"/>
	<circle cx="30.7626" cy="305.525" r="4" fill="#0" id="circle7"/>
	<circle cx="30.7626" cy="323.367" r="4" fill="#0" id="circle8"/>
	<circle cx="30.7626" cy="341.209" r="4" fill="#0" id="circle9"/>
	<circle cx="30.7626" cy="409.007" r="4" fill="#0" id="circle10"/>
	<circle cx="43.2518" cy="423.281" r="4" fill="#0" id="circle11"/>
	<circle cx="45.036" cy="218.101" r="4" fill="#0" id="circle12"/>
	<circle cx="61.0935" cy="209.18" r="4" fill="#0" id="circle13"/>
	<circle cx="61.0935" cy="430.417" r="4" fill="#0" id="circle14"/>
	<circle cx="75.3669" cy="196.691" r="4" fill="#0" id="circle15"/>
	<circle cx="75.3669" cy="441.122" r="4" fill="#0" id="circle16"/>
	<circle cx="78.9353" cy="458.964" r="4" fill="#0" id="circle17"/>
	<circle cx="93.2086" cy="191.338" r="4" fill="#0" id="circle18"/>
	<circle cx="93.2086" cy="469.669" r="4" fill="#0" id="circle19"/>
	<circle cx="109.266" cy="182.417" r="4" fill="#0" id="circle20"/>
	<circle cx="109.266" cy="478.59" r="4" fill="#0" id="circle21"/>
	<circle cx="127.108" cy="182.417" r="4" fill="#0" id="circle22"/>
	<circle cx="127.108" cy="478.59" r="4" fill="#0" id="circle23"/>
	<circle cx="143.165" cy="487.511" r="4" fill="#0" id="circle24"/>
	<circle cx="144.95" cy="182.417" r="4" fill="#0" id="circle25"/>
	<circle cx="161.007" cy="487.511" r="4" fill="#0" id="circle26"/>
	<circle cx="162.791" cy="182.417" r="4" fill="#0" id="circle27"/>
	<circle cx="178.849" cy="173.496" r="4" fill="#0" id="circle28"/>
	<circle cx="178.849" cy="487.511" r="4" fill="#0" id="circle29"/>
	<circle cx="196.691" cy="173.496" r="4" fill="#0" id="circle30"/>
	<circle cx="196.691" cy="485.727" r="4" fill="#0" id="circle31"/>
	<circle cx="202.043" cy="442.906" r="4" fill="#0" id="circle32"/>
	<circle cx="205.612" cy="460.748" r="4" fill="#0" id="circle33"/>
	<circle cx="214.532" cy="173.496" r="4" fill="#0" id="circle34"/>
	<circle cx="219.885" cy="446.475" r="4" fill="#0" id="circle35"/>
	<circle cx="232.374" cy="173.496" r="4" fill="#0" id="circle36"/>
	<circle cx="237.727" cy="442.906" r="4" fill="#0" id="circle37"/>
	<circle cx="248.432" cy="457.18" r="4" fill="#0" id="circle38"/>
	<circle cx="250.216" cy="173.496" r="4" fill="#0" id="circle39"/>
	<circle cx="262.705" cy="446.475" r="4" fill="#0" id="circle40"/>
	<circle cx="266.273" cy="164.576" r="4" fill="#0" id="circle41"/>
	<circle cx="275.194" cy="148.518" r="4" fill="#0" id="circle42"/>
	<circle cx="280.547" cy="451.827" r="4" fill="#0" id="circle43"/>
	<circle cx="293.036" cy="146.734" r="4" fill="#0" id="circle44"/>
	<circle cx="298.388" cy="451.827" r="4" fill="#0" id="circle45"/>
	<circle cx="301.957" cy="130.676" r="4" fill="#0" id="circle46"/>
	<circle cx="316.23" cy="451.827" r="4" fill="#0" id="circle47"/>
	<circle cx="319.799" cy="128.892" r="4" fill="#0" id="circle48"/>
	<circle cx="334.072" cy="446.475" r="4" fill="#0" id="circle49"/>
	<circle cx="337.64" cy="121.755" r="4" fill="#0" id="circle50"/>
	<circle cx="351.914" cy="451.827" r="4" fill="#0" id="circle51"/>
	<circle cx="355.482" cy="112.835" r="4" fill="#0" id="circle52"/>
	<circle cx="367.971" cy="442.906" r="4" fill="#0" id="circle53"/>
	<circle cx="373.324" cy="111.05" r="4" fill="#0" id="circle54"/>
	<circle cx="384.029" cy="451.827" r="4" fill="#0" id="circle55"/>
	<circle cx="391.165" cy="111.05" r="4" fill="#0" id="circle56"/>
	<circle cx="401.871" cy="450.043" r="4" fill="#0" id="circle57"/>
	<circle cx="407.223" cy="119.971" r="4" fill="#0" id="circle58"/>
	<circle cx="417.928" cy="458.964" r="4" fill="#0" id="circle59"/>
	<circle cx="425.065" cy="119.971" r="4" fill="#0" id="circle60"/>
	<circle cx="426.849" cy="442.906" r="4" fill="#0" id="circle61"/>
	<circle cx="442.906" cy="119.971" r="4" fill="#0" id="circle62"/>
	<circle cx="442.906" cy="425.065" r="4" fill="#0" id="circle63"/>
	<circle cx="450.043" cy="71.7986" r="4" fill="#0" id="circle64"/>
	<circle cx="450.043" cy="89.6403" r="4" fill="#0" id="circle65"/>
	<circle cx="450.043" cy="442.906" r="4" fill="#0" id="circle66"/>
	<circle cx="450.043" cy="460.748" r="4" fill="#0" id="circle67"/>
	<circle cx="455.396" cy="478.59" r="4" fill="#0" id="circle68"/>
	<circle cx="464.317" cy="57.5252" r="4" fill="#0" id="circle69"/>
	<circle cx="464.317" cy="494.647" r="4" fill="#0" id="circle70"/>
	<circle cx="473.237" cy="39.6835" r="4" fill="#0" id="circle71"/>
	<circle cx="480.374" cy="503.568" r="4" fill="#0" id="circle72"/>
	<circle cx="482.158" cy="21.8417" r="4" fill="#0" id="circle73"/>
	<circle cx="496.432" cy="7.56835" r="4" fill="#0" id="circle74"/>
	<circle cx="498.216" cy="510.705" r="4" fill="#0" id="circle75"/>
	<circle cx="514.273" cy="4" r="4" fill="#0" id="circle76"/>
	<circle cx="516.058" cy="505.353" r="4" fill="#0" id="circle77"/>
	<circle cx="530.331" cy="491.079" r="4" fill="#0" id="circle78"/>
	<circle cx="532.115" cy="4" r="4" fill="#0" id="circle79"/>
	<circle cx="541.036" cy="469.669" r="4" fill="#0" id="circle80"/>
	<circle cx="549.957" cy="9.35252" r="4" fill="#0" id="circle81"/>
	<circle cx="558.878" cy="442.906" r="4" fill="#0" id="circle82"/>
	<circle cx="558.878" cy="460.748" r="4" fill="#0" id="circle83"/>
	<circle cx="567.799" cy="12.9209" r="4" fill="#0" id="circle84"/>
	<circle cx="567.799" cy="425.065" r="4" fill="#0" id="circle85"/>
	<circle cx="585.64" cy="12.9209" r="4" fill="#0" id="circle86"/>
	<circle cx="585.64" cy="425.065" r="4" fill="#0" id="circle87"/>
	<circle cx="603.482" cy="12.9209" r="4" fill="#0" id="circle88"/>
	<circle cx="603.482" cy="425.065" r="4" fill="#0" id="circle89"/>
	<circle cx="621.324" cy="12.9209" r="4" fill="#0" id="circle90"/>
	<circle cx="621.324" cy="425.065" r="4" fill="#0" id="circle91"/>
	<circle cx="639.165" cy="12.9209" r="4" fill="#0" id="circle92"/>
	<circle cx="639.165" cy="425.065" r="4" fill="#0" id="circle93"/>
	<circle cx="657.007" cy="12.9209" r="4" fill="#0" id="circle94"/>
	<circle cx="657.007" cy="425.065" r="4" fill="#0" id="circle95"/>
	<circle cx="674.849" cy="12.9209" r="4" fill="#0" id="circle96"/>
	<circle cx="674.849" cy="425.065" r="4" fill="#0" id="circle97"/>
	<circle cx="692.691" cy="12.9209" r="4" fill="#0" id="circle98"/>
	<circle cx="692.691" cy="425.065" r="4" fill="#0" id="circle99"/>
	<circle cx="710.532" cy="12.9209" r="4" fill="#0" id="circle100"/>
	<circle cx="710.532" cy="425.065" r="4" fill="#0" id="circle101"/>
	<circle cx="726.59" cy="21.8417" r="4" fill="#0" id="circle102"/>
	<circle cx="728.374" cy="425.065" r="4" fill="#0" id="circle103"/>
	<circle cx="742.647" cy="30.7626" r="4" fill="#0" id="circle104"/>
	<circle cx="746.216" cy="416.144" r="4" fill="#0" id="circle105"/>
	<circle cx="758.705" cy="39.6835" r="4" fill="#0" id="circle106"/>
	<circle cx="764.058" cy="57.5252" r="4" fill="#0" id="circle107"/>
	<circle cx="764.058" cy="416.144" r="4" fill="#0" id="circle108"/>
	<circle cx="772.978" cy="77.1511" r="4" fill="#0" id="circle109"/>
	<circle cx="772.978" cy="94.9928" r="4" fill="#0" id="circle110"/>
	<circle cx="772.978" cy="112.835" r="4" fill="#0" id="circle111"/>
	<circle cx="781.899" cy="416.144" r="4" fill="#0" id="circle112"/>
	<circle cx="787.252" cy="123.54" r="4" fill="#0" id="circle113"/>
	<circle cx="796.173" cy="139.597" r="4" fill="#0" id="circle114"/>
	<circle cx="797.957" cy="407.223" r="4" fill="#0" id="circle115"/>
	<circle cx="797.957" cy="425.065" r="4" fill="#0" id="circle116"/>
	<circle cx="797.957" cy="446.475" r="4" fill="#0" id="circle117"/>
	<circle cx="806.878" cy="462.532" r="4" fill="#0" id="circle118"/>
	<circle cx="808.662" cy="153.871" r="4" fill="#0" id="circle119"/>
	<circle cx="824.719" cy="469.669" r="4" fill="#0" id="circle120"/>
	<circle cx="826.504" cy="155.655" r="4" fill="#0" id="circle121"/>
	<circle cx="840.777" cy="460.748" r="4" fill="#0" id="circle122"/>
	<circle cx="844.345" cy="150.302" r="4" fill="#0" id="circle123"/>
	<circle cx="856.835" cy="469.669" r="4" fill="#0" id="circle124"/>
	<circle cx="862.187" cy="150.302" r="4" fill="#0" id="circle125"/>
	<circle cx="869.324" cy="455.396" r="4" fill="#0" id="circle126"/>
	<circle cx="880.029" cy="155.655" r="4" fill="#0" id="circle127"/>
	<circle cx="880.029" cy="433.986" r="4" fill="#0" id="circle128"/>
	<circle cx="888.95" cy="416.144" r="4" fill="#0" id="circle129"/>
	<circle cx="897.871" cy="155.655" r="4" fill="#0" id="circle130"/>
	<circle cx="897.871" cy="371.54" r="4" fill="#0" id="circle131"/>
	<circle cx="897.871" cy="389.381" r="4" fill="#0" id="circle132"/>
	<circle cx="915.712" cy="155.655" r="4" fill="#0" id="circle133"/>
	<circle cx="915.712" cy="375.108" r="4" fill="#0" id="circle134"/>
	<circle cx="929.986" cy="362.619" r="4" fill="#0" id="circle135"/>
	<circle cx="933.554" cy="155.655" r="4" fill="#0" id="circle136"/>
	<circle cx="947.827" cy="359.05" r="4" fill="#0" id="circle137"/>
	<circle cx="951.396" cy="155.655" r="4" fill="#0" id="circle138"/>
	<circle cx="960.317" cy="335.856" r="4" fill="#0" id="circle139"/>
	<circle cx="969.237" cy="161.007" r="4" fill="#0" id="circle140"/>
	<circle cx="969.237" cy="291.252" r="4" fill="#0" id="circle141"/>
	<circle cx="969.237" cy="309.094" r="4" fill="#0" id="circle142"/>
	<circle cx="978.158" cy="264.489" r="4" fill="#0" id="circle143"/>
	<circle cx="981.727" cy="175.281" r="4" fill="#0" id="circle144"/>
	<circle cx="996" cy="187.77" r="4" fill="#0" id="circle145"/>
	<circle cx="996" cy="210.964" r="4" fill="#0" id="circle146"/>
	<circle cx="996" cy="228.806" r="4" fill="#0" id="circle147"/>
	<circle cx="996" cy="255.568" r="4" fill="#0" id="circle148"/>
	</g>
</svg>