<?xml version="1.0" encoding="UTF-8" standalone="no"?>
<!-- Created with CurveBenchmark -->
<svg
	xmlns:dc="http://purl.org/dc/elements/1.1/"
	xmlns:cc="http://creativecommons.org/ns#"
	xmlns:rdf="http://www.w3.org/1999/02/22-rdf-syntax-ns#"
	xmlns:svg="http://www.w3.org/2000/svg"
	xmlns="http://www.w3.org/2000/svg"
	xmlns:sodipodi="http://sodipodi.sourceforge.net/DTD/sodipodi-0.dtd"
	xmlns:inkscape="http://www.inkscape.org/namespaces/inkscape"
	width="1000"
	height="1000"
	id="svg2"
	version="1.1"
	sodipodi:docname="manifold/connect2d-flatfish26.png.txt">
<defs
	id="defs4" />
<metadata
	id="metadata7">
	<rdf:RDF>
		<cc:Work
			rdf:about="">
			<dc:format>image/svg+xml</dc:format>
			<dc:type
				rdf:resource="http://purl.org/dc/dcmitype/StillImage" />
			<dc:title></dc:title>
		</cc:Work>
	</rdf:RDF>
</metadata>
<g
	inkscape:label="Layer 1"
	inkscape:groupmode="layer"
	id="layer1">
	<path style="fill:none;stroke:red;stroke-width:1px;stroke-linecap:butt;stroke-linejoin:miter;stroke-opacity:1" d="M 996,255.653 979.764,258.9 z" id="boundary" inkscape:connector-curvature="0" />
	<path style="fill:none;stroke:red;stroke-width:1px;stroke-linecap:butt;stroke-linejoin:miter;stroke-opacity:1" d="M 979.764,258.9 963.529,255.653 z" id="boundary" inkscape:connector-curvature="0" />
	<path style="fill:none;stroke:red;stroke-width:1px;stroke-linecap:butt;stroke-linejoin:miter;stroke-opacity:1" d="M 963.529,255.653 955.411,271.889 z" id="boundary" inkscape:connector-curvature="0" />
	<path style="fill:none;stroke:red;stroke-width:1px;stroke-linecap:butt;stroke-linejoin:miter;stroke-opacity:1" d="M 955.411,271.889 939.175,280.007 z" id="boundary" inkscape:connector-curvature="0" />
	<path style="fill:none;stroke:red;stroke-width:1px;stroke-linecap:butt;stroke-linejoin:miter;stroke-opacity:1" d="M 939.175,280.007 931.057,296.242 z" id="boundary" inkscape:connector-curvature="0" />
	<path style="fill:none;stroke:red;stroke-width:1px;stroke-linecap:butt;stroke-linejoin:miter;stroke-opacity:1" d="M 931.057,296.242 922.939,312.478 z" id="boundary" inkscape:connector-curvature="0" />
	<path style="fill:none;stroke:red;stroke-width:1px;stroke-linecap:butt;stroke-linejoin:miter;stroke-opacity:1" d="M 922.939,312.478 914.822,328.714 z" id="boundary" inkscape:connector-curvature="0" />
	<path style="fill:none;stroke:red;stroke-width:1px;stroke-linecap:butt;stroke-linejoin:miter;stroke-opacity:1" d="M 914.822,328.714 906.704,344.949 z" id="boundary" inkscape:connector-curvature="0" />
	<path style="fill:none;stroke:red;stroke-width:1px;stroke-linecap:butt;stroke-linejoin:miter;stroke-opacity:1" d="M 906.704,344.949 906.704,361.185 z" id="boundary" inkscape:connector-curvature="0" />
	<path style="fill:none;stroke:red;stroke-width:1px;stroke-linecap:butt;stroke-linejoin:miter;stroke-opacity:1" d="M 906.704,361.185 906.704,377.421 z" id="boundary" inkscape:connector-curvature="0" />
	<path style="fill:none;stroke:red;stroke-width:1px;stroke-linecap:butt;stroke-linejoin:miter;stroke-opacity:1" d="M 906.704,377.421 898.586,393.656 z" id="boundary" inkscape:connector-curvature="0" />
	<path style="fill:none;stroke:red;stroke-width:1px;stroke-linecap:butt;stroke-linejoin:miter;stroke-opacity:1" d="M 898.586,393.656 898.586,409.892 z" id="boundary" inkscape:connector-curvature="0" />
	<path style="fill:none;stroke:red;stroke-width:1px;stroke-linecap:butt;stroke-linejoin:miter;stroke-opacity:1" d="M 898.586,409.892 898.586,426.128 z" id="boundary" inkscape:connector-curvature="0" />
	<path style="fill:none;stroke:red;stroke-width:1px;stroke-linecap:butt;stroke-linejoin:miter;stroke-opacity:1" d="M 898.586,426.128 890.468,450.481 z" id="boundary" inkscape:connector-curvature="0" />
	<path style="fill:none;stroke:red;stroke-width:1px;stroke-linecap:butt;stroke-linejoin:miter;stroke-opacity:1" d="M 890.468,450.481 890.468,466.717 z" id="boundary" inkscape:connector-curvature="0" />
	<path style="fill:none;stroke:red;stroke-width:1px;stroke-linecap:butt;stroke-linejoin:miter;stroke-opacity:1" d="M 890.468,466.717 898.586,481.329 z" id="boundary" inkscape:connector-curvature="0" />
	<path style="fill:none;stroke:red;stroke-width:1px;stroke-linecap:butt;stroke-linejoin:miter;stroke-opacity:1" d="M 898.586,481.329 906.704,495.941 z" id="boundary" inkscape:connector-curvature="0" />
	<path style="fill:none;stroke:red;stroke-width:1px;stroke-linecap:butt;stroke-linejoin:miter;stroke-opacity:1" d="M 906.704,495.941 919.692,507.306 z" id="boundary" inkscape:connector-curvature="0" />
	<path style="fill:none;stroke:red;stroke-width:1px;stroke-linecap:butt;stroke-linejoin:miter;stroke-opacity:1" d="M 919.692,507.306 931.057,520.295 z" id="boundary" inkscape:connector-curvature="0" />
	<path style="fill:none;stroke:red;stroke-width:1px;stroke-linecap:butt;stroke-linejoin:miter;stroke-opacity:1" d="M 931.057,520.295 924.563,536.53 z" id="boundary" inkscape:connector-curvature="0" />
	<path style="fill:none;stroke:red;stroke-width:1px;stroke-linecap:butt;stroke-linejoin:miter;stroke-opacity:1" d="M 924.563,536.53 908.327,531.66 z" id="boundary" inkscape:connector-curvature="0" />
	<path style="fill:none;stroke:red;stroke-width:1px;stroke-linecap:butt;stroke-linejoin:miter;stroke-opacity:1" d="M 908.327,531.66 893.715,523.542 z" id="boundary" inkscape:connector-curvature="0" />
	<path style="fill:none;stroke:red;stroke-width:1px;stroke-linecap:butt;stroke-linejoin:miter;stroke-opacity:1" d="M 893.715,523.542 877.48,521.918 z" id="boundary" inkscape:connector-curvature="0" />
	<path style="fill:none;stroke:red;stroke-width:1px;stroke-linecap:butt;stroke-linejoin:miter;stroke-opacity:1" d="M 877.48,521.918 864.491,510.553 z" id="boundary" inkscape:connector-curvature="0" />
	<path style="fill:none;stroke:red;stroke-width:1px;stroke-linecap:butt;stroke-linejoin:miter;stroke-opacity:1" d="M 864.491,510.553 853.126,497.565 z" id="boundary" inkscape:connector-curvature="0" />
	<path style="fill:none;stroke:red;stroke-width:1px;stroke-linecap:butt;stroke-linejoin:miter;stroke-opacity:1" d="M 853.126,497.565 840.137,486.2 z" id="boundary" inkscape:connector-curvature="0" />
	<path style="fill:none;stroke:red;stroke-width:1px;stroke-linecap:butt;stroke-linejoin:miter;stroke-opacity:1" d="M 840.137,486.2 828.773,473.211 z" id="boundary" inkscape:connector-curvature="0" />
	<path style="fill:none;stroke:red;stroke-width:1px;stroke-linecap:butt;stroke-linejoin:miter;stroke-opacity:1" d="M 828.773,473.211 812.537,466.717 z" id="boundary" inkscape:connector-curvature="0" />
	<path style="fill:none;stroke:red;stroke-width:1px;stroke-linecap:butt;stroke-linejoin:miter;stroke-opacity:1" d="M 812.537,466.717 797.925,458.599 z" id="boundary" inkscape:connector-curvature="0" />
	<path style="fill:none;stroke:red;stroke-width:1px;stroke-linecap:butt;stroke-linejoin:miter;stroke-opacity:1" d="M 797.925,458.599 784.936,447.234 z" id="boundary" inkscape:connector-curvature="0" />
	<path style="fill:none;stroke:red;stroke-width:1px;stroke-linecap:butt;stroke-linejoin:miter;stroke-opacity:1" d="M 784.936,447.234 773.571,434.245 z" id="boundary" inkscape:connector-curvature="0" />
	<path style="fill:none;stroke:red;stroke-width:1px;stroke-linecap:butt;stroke-linejoin:miter;stroke-opacity:1" d="M 773.571,434.245 760.583,422.881 z" id="boundary" inkscape:connector-curvature="0" />
	<path style="fill:none;stroke:red;stroke-width:1px;stroke-linecap:butt;stroke-linejoin:miter;stroke-opacity:1" d="M 760.583,422.881 750.841,409.892 z" id="boundary" inkscape:connector-curvature="0" />
	<path style="fill:none;stroke:red;stroke-width:1px;stroke-linecap:butt;stroke-linejoin:miter;stroke-opacity:1" d="M 750.841,409.892 736.229,418.01 z" id="boundary" inkscape:connector-curvature="0" />
	<path style="fill:none;stroke:red;stroke-width:1px;stroke-linecap:butt;stroke-linejoin:miter;stroke-opacity:1" d="M 736.229,418.01 739.476,434.245 z" id="boundary" inkscape:connector-curvature="0" />
	<path style="fill:none;stroke:red;stroke-width:1px;stroke-linecap:butt;stroke-linejoin:miter;stroke-opacity:1" d="M 739.476,434.245 736.229,458.599 z" id="boundary" inkscape:connector-curvature="0" />
	<path style="fill:none;stroke:red;stroke-width:1px;stroke-linecap:butt;stroke-linejoin:miter;stroke-opacity:1" d="M 736.229,458.599 736.229,474.835 z" id="boundary" inkscape:connector-curvature="0" />
	<path style="fill:none;stroke:red;stroke-width:1px;stroke-linecap:butt;stroke-linejoin:miter;stroke-opacity:1" d="M 736.229,474.835 724.864,487.823 z" id="boundary" inkscape:connector-curvature="0" />
	<path style="fill:none;stroke:red;stroke-width:1px;stroke-linecap:butt;stroke-linejoin:miter;stroke-opacity:1" d="M 724.864,487.823 711.876,499.188 z" id="boundary" inkscape:connector-curvature="0" />
	<path style="fill:none;stroke:red;stroke-width:1px;stroke-linecap:butt;stroke-linejoin:miter;stroke-opacity:1" d="M 711.876,499.188 700.511,512.177 z" id="boundary" inkscape:connector-curvature="0" />
	<path style="fill:none;stroke:red;stroke-width:1px;stroke-linecap:butt;stroke-linejoin:miter;stroke-opacity:1" d="M 700.511,512.177 684.275,520.295 z" id="boundary" inkscape:connector-curvature="0" />
	<path style="fill:none;stroke:red;stroke-width:1px;stroke-linecap:butt;stroke-linejoin:miter;stroke-opacity:1" d="M 684.275,520.295 671.286,531.66 z" id="boundary" inkscape:connector-curvature="0" />
	<path style="fill:none;stroke:red;stroke-width:1px;stroke-linecap:butt;stroke-linejoin:miter;stroke-opacity:1" d="M 671.286,531.66 656.674,539.777 z" id="boundary" inkscape:connector-curvature="0" />
	<path style="fill:none;stroke:red;stroke-width:1px;stroke-linecap:butt;stroke-linejoin:miter;stroke-opacity:1" d="M 656.674,539.777 642.062,547.895 z" id="boundary" inkscape:connector-curvature="0" />
	<path style="fill:none;stroke:red;stroke-width:1px;stroke-linecap:butt;stroke-linejoin:miter;stroke-opacity:1" d="M 642.062,547.895 625.827,554.39 z" id="boundary" inkscape:connector-curvature="0" />
	<path style="fill:none;stroke:red;stroke-width:1px;stroke-linecap:butt;stroke-linejoin:miter;stroke-opacity:1" d="M 625.827,554.39 612.838,567.378 z" id="boundary" inkscape:connector-curvature="0" />
	<path style="fill:none;stroke:red;stroke-width:1px;stroke-linecap:butt;stroke-linejoin:miter;stroke-opacity:1" d="M 612.838,567.378 596.602,567.378 z" id="boundary" inkscape:connector-curvature="0" />
	<path style="fill:none;stroke:red;stroke-width:1px;stroke-linecap:butt;stroke-linejoin:miter;stroke-opacity:1" d="M 596.602,567.378 580.367,572.249 z" id="boundary" inkscape:connector-curvature="0" />
	<path style="fill:none;stroke:red;stroke-width:1px;stroke-linecap:butt;stroke-linejoin:miter;stroke-opacity:1" d="M 580.367,572.249 565.755,580.367 z" id="boundary" inkscape:connector-curvature="0" />
	<path style="fill:none;stroke:red;stroke-width:1px;stroke-linecap:butt;stroke-linejoin:miter;stroke-opacity:1" d="M 565.755,580.367 549.519,580.367 z" id="boundary" inkscape:connector-curvature="0" />
	<path style="fill:none;stroke:red;stroke-width:1px;stroke-linecap:butt;stroke-linejoin:miter;stroke-opacity:1" d="M 549.519,580.367 534.907,588.484 z" id="boundary" inkscape:connector-curvature="0" />
	<path style="fill:none;stroke:red;stroke-width:1px;stroke-linecap:butt;stroke-linejoin:miter;stroke-opacity:1" d="M 534.907,588.484 518.671,588.484 z" id="boundary" inkscape:connector-curvature="0" />
	<path style="fill:none;stroke:red;stroke-width:1px;stroke-linecap:butt;stroke-linejoin:miter;stroke-opacity:1" d="M 518.671,588.484 502.435,588.484 z" id="boundary" inkscape:connector-curvature="0" />
	<path style="fill:none;stroke:red;stroke-width:1px;stroke-linecap:butt;stroke-linejoin:miter;stroke-opacity:1" d="M 502.435,588.484 486.2,588.484 z" id="boundary" inkscape:connector-curvature="0" />
	<path style="fill:none;stroke:red;stroke-width:1px;stroke-linecap:butt;stroke-linejoin:miter;stroke-opacity:1" d="M 486.2,588.484 469.964,588.484 z" id="boundary" inkscape:connector-curvature="0" />
	<path style="fill:none;stroke:red;stroke-width:1px;stroke-linecap:butt;stroke-linejoin:miter;stroke-opacity:1" d="M 469.964,588.484 453.728,588.484 z" id="boundary" inkscape:connector-curvature="0" />
	<path style="fill:none;stroke:red;stroke-width:1px;stroke-linecap:butt;stroke-linejoin:miter;stroke-opacity:1" d="M 453.728,588.484 437.493,588.484 z" id="boundary" inkscape:connector-curvature="0" />
	<path style="fill:none;stroke:red;stroke-width:1px;stroke-linecap:butt;stroke-linejoin:miter;stroke-opacity:1" d="M 437.493,588.484 422.881,580.367 z" id="boundary" inkscape:connector-curvature="0" />
	<path style="fill:none;stroke:red;stroke-width:1px;stroke-linecap:butt;stroke-linejoin:miter;stroke-opacity:1" d="M 422.881,580.367 406.645,578.743 z" id="boundary" inkscape:connector-curvature="0" />
	<path style="fill:none;stroke:red;stroke-width:1px;stroke-linecap:butt;stroke-linejoin:miter;stroke-opacity:1" d="M 406.645,578.743 390.409,572.249 z" id="boundary" inkscape:connector-curvature="0" />
	<path style="fill:none;stroke:red;stroke-width:1px;stroke-linecap:butt;stroke-linejoin:miter;stroke-opacity:1" d="M 390.409,572.249 375.797,564.131 z" id="boundary" inkscape:connector-curvature="0" />
	<path style="fill:none;stroke:red;stroke-width:1px;stroke-linecap:butt;stroke-linejoin:miter;stroke-opacity:1" d="M 375.797,564.131 362.809,552.766 z" id="boundary" inkscape:connector-curvature="0" />
	<path style="fill:none;stroke:red;stroke-width:1px;stroke-linecap:butt;stroke-linejoin:miter;stroke-opacity:1" d="M 362.809,552.766 353.067,539.777 z" id="boundary" inkscape:connector-curvature="0" />
	<path style="fill:none;stroke:red;stroke-width:1px;stroke-linecap:butt;stroke-linejoin:miter;stroke-opacity:1" d="M 353.067,539.777 338.455,531.66 z" id="boundary" inkscape:connector-curvature="0" />
	<path style="fill:none;stroke:red;stroke-width:1px;stroke-linecap:butt;stroke-linejoin:miter;stroke-opacity:1" d="M 338.455,531.66 322.219,539.777 z" id="boundary" inkscape:connector-curvature="0" />
	<path style="fill:none;stroke:red;stroke-width:1px;stroke-linecap:butt;stroke-linejoin:miter;stroke-opacity:1" d="M 322.219,539.777 322.219,556.013 z" id="boundary" inkscape:connector-curvature="0" />
	<path style="fill:none;stroke:red;stroke-width:1px;stroke-linecap:butt;stroke-linejoin:miter;stroke-opacity:1" d="M 322.219,556.013 322.219,572.249 z" id="boundary" inkscape:connector-curvature="0" />
	<path style="fill:none;stroke:red;stroke-width:1px;stroke-linecap:butt;stroke-linejoin:miter;stroke-opacity:1" d="M 322.219,572.249 314.101,588.484 z" id="boundary" inkscape:connector-curvature="0" />
	<path style="fill:none;stroke:red;stroke-width:1px;stroke-linecap:butt;stroke-linejoin:miter;stroke-opacity:1" d="M 314.101,588.484 314.101,604.72 z" id="boundary" inkscape:connector-curvature="0" />
	<path style="fill:none;stroke:red;stroke-width:1px;stroke-linecap:butt;stroke-linejoin:miter;stroke-opacity:1" d="M 314.101,604.72 305.984,620.956 z" id="boundary" inkscape:connector-curvature="0" />
	<path style="fill:none;stroke:red;stroke-width:1px;stroke-linecap:butt;stroke-linejoin:miter;stroke-opacity:1" d="M 305.984,620.956 289.748,624.203 z" id="boundary" inkscape:connector-curvature="0" />
	<path style="fill:none;stroke:red;stroke-width:1px;stroke-linecap:butt;stroke-linejoin:miter;stroke-opacity:1" d="M 289.748,624.203 280.007,611.214 z" id="boundary" inkscape:connector-curvature="0" />
	<path style="fill:none;stroke:red;stroke-width:1px;stroke-linecap:butt;stroke-linejoin:miter;stroke-opacity:1" d="M 280.007,611.214 275.136,594.979 z" id="boundary" inkscape:connector-curvature="0" />
	<path style="fill:none;stroke:red;stroke-width:1px;stroke-linecap:butt;stroke-linejoin:miter;stroke-opacity:1" d="M 275.136,594.979 263.771,581.99 z" id="boundary" inkscape:connector-curvature="0" />
	<path style="fill:none;stroke:red;stroke-width:1px;stroke-linecap:butt;stroke-linejoin:miter;stroke-opacity:1" d="M 263.771,581.99 255.653,567.378 z" id="boundary" inkscape:connector-curvature="0" />
	<path style="fill:none;stroke:red;stroke-width:1px;stroke-linecap:butt;stroke-linejoin:miter;stroke-opacity:1" d="M 255.653,567.378 249.159,551.142 z" id="boundary" inkscape:connector-curvature="0" />
	<path style="fill:none;stroke:red;stroke-width:1px;stroke-linecap:butt;stroke-linejoin:miter;stroke-opacity:1" d="M 249.159,551.142 239.417,538.154 z" id="boundary" inkscape:connector-curvature="0" />
	<path style="fill:none;stroke:red;stroke-width:1px;stroke-linecap:butt;stroke-linejoin:miter;stroke-opacity:1" d="M 239.417,538.154 231.3,523.542 z" id="boundary" inkscape:connector-curvature="0" />
	<path style="fill:none;stroke:red;stroke-width:1px;stroke-linecap:butt;stroke-linejoin:miter;stroke-opacity:1" d="M 231.3,523.542 224.805,507.306 z" id="boundary" inkscape:connector-curvature="0" />
	<path style="fill:none;stroke:red;stroke-width:1px;stroke-linecap:butt;stroke-linejoin:miter;stroke-opacity:1" d="M 224.805,507.306 208.57,504.059 z" id="boundary" inkscape:connector-curvature="0" />
	<path style="fill:none;stroke:red;stroke-width:1px;stroke-linecap:butt;stroke-linejoin:miter;stroke-opacity:1" d="M 208.57,504.059 193.957,495.941 z" id="boundary" inkscape:connector-curvature="0" />
	<path style="fill:none;stroke:red;stroke-width:1px;stroke-linecap:butt;stroke-linejoin:miter;stroke-opacity:1" d="M 193.957,495.941 177.722,489.447 z" id="boundary" inkscape:connector-curvature="0" />
	<path style="fill:none;stroke:red;stroke-width:1px;stroke-linecap:butt;stroke-linejoin:miter;stroke-opacity:1" d="M 177.722,489.447 163.11,481.329 z" id="boundary" inkscape:connector-curvature="0" />
	<path style="fill:none;stroke:red;stroke-width:1px;stroke-linecap:butt;stroke-linejoin:miter;stroke-opacity:1" d="M 163.11,481.329 146.874,474.835 z" id="boundary" inkscape:connector-curvature="0" />
	<path style="fill:none;stroke:red;stroke-width:1px;stroke-linecap:butt;stroke-linejoin:miter;stroke-opacity:1" d="M 146.874,474.835 132.262,466.717 z" id="boundary" inkscape:connector-curvature="0" />
	<path style="fill:none;stroke:red;stroke-width:1px;stroke-linecap:butt;stroke-linejoin:miter;stroke-opacity:1" d="M 132.262,466.717 116.026,466.717 z" id="boundary" inkscape:connector-curvature="0" />
	<path style="fill:none;stroke:red;stroke-width:1px;stroke-linecap:butt;stroke-linejoin:miter;stroke-opacity:1" d="M 116.026,466.717 103.038,455.352 z" id="boundary" inkscape:connector-curvature="0" />
	<path style="fill:none;stroke:red;stroke-width:1px;stroke-linecap:butt;stroke-linejoin:miter;stroke-opacity:1" d="M 103.038,455.352 93.2962,442.363 z" id="boundary" inkscape:connector-curvature="0" />
	<path style="fill:none;stroke:red;stroke-width:1px;stroke-linecap:butt;stroke-linejoin:miter;stroke-opacity:1" d="M 93.2962,442.363 77.0606,437.493 z" id="boundary" inkscape:connector-curvature="0" />
	<path style="fill:none;stroke:red;stroke-width:1px;stroke-linecap:butt;stroke-linejoin:miter;stroke-opacity:1" d="M 77.0606,437.493 62.4484,429.375 z" id="boundary" inkscape:connector-curvature="0" />
	<path style="fill:none;stroke:red;stroke-width:1px;stroke-linecap:butt;stroke-linejoin:miter;stroke-opacity:1" d="M 62.4484,429.375 49.4599,418.01 z" id="boundary" inkscape:connector-curvature="0" />
	<path style="fill:none;stroke:red;stroke-width:1px;stroke-linecap:butt;stroke-linejoin:miter;stroke-opacity:1" d="M 49.4599,418.01 34.8478,409.892 z" id="boundary" inkscape:connector-curvature="0" />
	<path style="fill:none;stroke:red;stroke-width:1px;stroke-linecap:butt;stroke-linejoin:miter;stroke-opacity:1" d="M 34.8478,409.892 20.2357,401.774 z" id="boundary" inkscape:connector-curvature="0" />
	<path style="fill:none;stroke:red;stroke-width:1px;stroke-linecap:butt;stroke-linejoin:miter;stroke-opacity:1" d="M 20.2357,401.774 12.1178,387.162 z" id="boundary" inkscape:connector-curvature="0" />
	<path style="fill:none;stroke:red;stroke-width:1px;stroke-linecap:butt;stroke-linejoin:miter;stroke-opacity:1" d="M 12.1178,387.162 12.1178,370.926 z" id="boundary" inkscape:connector-curvature="0" />
	<path style="fill:none;stroke:red;stroke-width:1px;stroke-linecap:butt;stroke-linejoin:miter;stroke-opacity:1" d="M 12.1178,370.926 4,356.314 z" id="boundary" inkscape:connector-curvature="0" />
	<path style="fill:none;stroke:red;stroke-width:1px;stroke-linecap:butt;stroke-linejoin:miter;stroke-opacity:1" d="M 4,356.314 12.1178,340.079 z" id="boundary" inkscape:connector-curvature="0" />
	<path style="fill:none;stroke:red;stroke-width:1px;stroke-linecap:butt;stroke-linejoin:miter;stroke-opacity:1" d="M 12.1178,340.079 20.2357,323.843 z" id="boundary" inkscape:connector-curvature="0" />
	<path style="fill:none;stroke:red;stroke-width:1px;stroke-linecap:butt;stroke-linejoin:miter;stroke-opacity:1" d="M 20.2357,323.843 28.3535,307.607 z" id="boundary" inkscape:connector-curvature="0" />
	<path style="fill:none;stroke:red;stroke-width:1px;stroke-linecap:butt;stroke-linejoin:miter;stroke-opacity:1" d="M 28.3535,307.607 28.3535,291.372 z" id="boundary" inkscape:connector-curvature="0" />
	<path style="fill:none;stroke:red;stroke-width:1px;stroke-linecap:butt;stroke-linejoin:miter;stroke-opacity:1" d="M 28.3535,291.372 44.5892,283.254 z" id="boundary" inkscape:connector-curvature="0" />
	<path style="fill:none;stroke:red;stroke-width:1px;stroke-linecap:butt;stroke-linejoin:miter;stroke-opacity:1" d="M 44.5892,283.254 44.5892,267.018 z" id="boundary" inkscape:connector-curvature="0" />
	<path style="fill:none;stroke:red;stroke-width:1px;stroke-linecap:butt;stroke-linejoin:miter;stroke-opacity:1" d="M 44.5892,267.018 52.707,242.664 z" id="boundary" inkscape:connector-curvature="0" />
	<path style="fill:none;stroke:red;stroke-width:1px;stroke-linecap:butt;stroke-linejoin:miter;stroke-opacity:1" d="M 52.707,242.664 65.6956,229.676 z" id="boundary" inkscape:connector-curvature="0" />
	<path style="fill:none;stroke:red;stroke-width:1px;stroke-linecap:butt;stroke-linejoin:miter;stroke-opacity:1" d="M 65.6956,229.676 73.8134,213.44 z" id="boundary" inkscape:connector-curvature="0" />
	<path style="fill:none;stroke:red;stroke-width:1px;stroke-linecap:butt;stroke-linejoin:miter;stroke-opacity:1" d="M 73.8134,213.44 86.802,200.452 z" id="boundary" inkscape:connector-curvature="0" />
	<path style="fill:none;stroke:red;stroke-width:1px;stroke-linecap:butt;stroke-linejoin:miter;stroke-opacity:1" d="M 86.802,200.452 93.2962,177.722 z" id="boundary" inkscape:connector-curvature="0" />
	<path style="fill:none;stroke:red;stroke-width:1px;stroke-linecap:butt;stroke-linejoin:miter;stroke-opacity:1" d="M 93.2962,177.722 106.285,164.733 z" id="boundary" inkscape:connector-curvature="0" />
	<path style="fill:none;stroke:red;stroke-width:1px;stroke-linecap:butt;stroke-linejoin:miter;stroke-opacity:1" d="M 106.285,164.733 120.897,156.615 z" id="boundary" inkscape:connector-curvature="0" />
	<path style="fill:none;stroke:red;stroke-width:1px;stroke-linecap:butt;stroke-linejoin:miter;stroke-opacity:1" d="M 120.897,156.615 137.133,150.121 z" id="boundary" inkscape:connector-curvature="0" />
	<path style="fill:none;stroke:red;stroke-width:1px;stroke-linecap:butt;stroke-linejoin:miter;stroke-opacity:1" d="M 137.133,150.121 150.121,137.133 z" id="boundary" inkscape:connector-curvature="0" />
	<path style="fill:none;stroke:red;stroke-width:1px;stroke-linecap:butt;stroke-linejoin:miter;stroke-opacity:1" d="M 150.121,137.133 166.357,120.897 z" id="boundary" inkscape:connector-curvature="0" />
	<path style="fill:none;stroke:red;stroke-width:1px;stroke-linecap:butt;stroke-linejoin:miter;stroke-opacity:1" d="M 166.357,120.897 179.345,107.908 z" id="boundary" inkscape:connector-curvature="0" />
	<path style="fill:none;stroke:red;stroke-width:1px;stroke-linecap:butt;stroke-linejoin:miter;stroke-opacity:1" d="M 179.345,107.908 192.334,94.9198 z" id="boundary" inkscape:connector-curvature="0" />
	<path style="fill:none;stroke:red;stroke-width:1px;stroke-linecap:butt;stroke-linejoin:miter;stroke-opacity:1" d="M 192.334,94.9198 206.946,80.3077 z" id="boundary" inkscape:connector-curvature="0" />
	<path style="fill:none;stroke:red;stroke-width:1px;stroke-linecap:butt;stroke-linejoin:miter;stroke-opacity:1" d="M 206.946,80.3077 215.064,55.9542 z" id="boundary" inkscape:connector-curvature="0" />
	<path style="fill:none;stroke:red;stroke-width:1px;stroke-linecap:butt;stroke-linejoin:miter;stroke-opacity:1" d="M 215.064,55.9542 228.052,42.9656 z" id="boundary" inkscape:connector-curvature="0" />
	<path style="fill:none;stroke:red;stroke-width:1px;stroke-linecap:butt;stroke-linejoin:miter;stroke-opacity:1" d="M 228.052,42.9656 242.664,34.8478 z" id="boundary" inkscape:connector-curvature="0" />
	<path style="fill:none;stroke:red;stroke-width:1px;stroke-linecap:butt;stroke-linejoin:miter;stroke-opacity:1" d="M 242.664,34.8478 258.9,28.3535 z" id="boundary" inkscape:connector-curvature="0" />
	<path style="fill:none;stroke:red;stroke-width:1px;stroke-linecap:butt;stroke-linejoin:miter;stroke-opacity:1" d="M 258.9,28.3535 275.136,26.73 z" id="boundary" inkscape:connector-curvature="0" />
	<path style="fill:none;stroke:red;stroke-width:1px;stroke-linecap:butt;stroke-linejoin:miter;stroke-opacity:1" d="M 275.136,26.73 289.748,18.6121 z" id="boundary" inkscape:connector-curvature="0" />
	<path style="fill:none;stroke:red;stroke-width:1px;stroke-linecap:butt;stroke-linejoin:miter;stroke-opacity:1" d="M 289.748,18.6121 305.984,18.6121 z" id="boundary" inkscape:connector-curvature="0" />
	<path style="fill:none;stroke:red;stroke-width:1px;stroke-linecap:butt;stroke-linejoin:miter;stroke-opacity:1" d="M 305.984,18.6121 322.219,13.7414 z" id="boundary" inkscape:connector-curvature="0" />
	<path style="fill:none;stroke:red;stroke-width:1px;stroke-linecap:butt;stroke-linejoin:miter;stroke-opacity:1" d="M 322.219,13.7414 335.208,4 z" id="boundary" inkscape:connector-curvature="0" />
	<path style="fill:none;stroke:red;stroke-width:1px;stroke-linecap:butt;stroke-linejoin:miter;stroke-opacity:1" d="M 335.208,4 351.444,10.4943 z" id="boundary" inkscape:connector-curvature="0" />
	<path style="fill:none;stroke:red;stroke-width:1px;stroke-linecap:butt;stroke-linejoin:miter;stroke-opacity:1" d="M 351.444,10.4943 367.679,10.4943 z" id="boundary" inkscape:connector-curvature="0" />
	<path style="fill:none;stroke:red;stroke-width:1px;stroke-linecap:butt;stroke-linejoin:miter;stroke-opacity:1" d="M 367.679,10.4943 383.915,10.4943 z" id="boundary" inkscape:connector-curvature="0" />
	<path style="fill:none;stroke:red;stroke-width:1px;stroke-linecap:butt;stroke-linejoin:miter;stroke-opacity:1" d="M 383.915,10.4943 400.151,10.4943 z" id="boundary" inkscape:connector-curvature="0" />
	<path style="fill:none;stroke:red;stroke-width:1px;stroke-linecap:butt;stroke-linejoin:miter;stroke-opacity:1" d="M 400.151,10.4943 416.386,10.4943 z" id="boundary" inkscape:connector-curvature="0" />
	<path style="fill:none;stroke:red;stroke-width:1px;stroke-linecap:butt;stroke-linejoin:miter;stroke-opacity:1" d="M 416.386,10.4943 432.622,12.1178 z" id="boundary" inkscape:connector-curvature="0" />
	<path style="fill:none;stroke:red;stroke-width:1px;stroke-linecap:butt;stroke-linejoin:miter;stroke-opacity:1" d="M 432.622,12.1178 448.858,18.6121 z" id="boundary" inkscape:connector-curvature="0" />
	<path style="fill:none;stroke:red;stroke-width:1px;stroke-linecap:butt;stroke-linejoin:miter;stroke-opacity:1" d="M 448.858,18.6121 465.093,18.6121 z" id="boundary" inkscape:connector-curvature="0" />
	<path style="fill:none;stroke:red;stroke-width:1px;stroke-linecap:butt;stroke-linejoin:miter;stroke-opacity:1" d="M 465.093,18.6121 481.329,18.6121 z" id="boundary" inkscape:connector-curvature="0" />
	<path style="fill:none;stroke:red;stroke-width:1px;stroke-linecap:butt;stroke-linejoin:miter;stroke-opacity:1" d="M 481.329,18.6121 497.565,18.6121 z" id="boundary" inkscape:connector-curvature="0" />
	<path style="fill:none;stroke:red;stroke-width:1px;stroke-linecap:butt;stroke-linejoin:miter;stroke-opacity:1" d="M 497.565,18.6121 513.8,20.2357 z" id="boundary" inkscape:connector-curvature="0" />
	<path style="fill:none;stroke:red;stroke-width:1px;stroke-linecap:butt;stroke-linejoin:miter;stroke-opacity:1" d="M 513.8,20.2357 525.165,33.2242 z" id="boundary" inkscape:connector-curvature="0" />
	<path style="fill:none;stroke:red;stroke-width:1px;stroke-linecap:butt;stroke-linejoin:miter;stroke-opacity:1" d="M 525.165,33.2242 541.401,31.6007 z" id="boundary" inkscape:connector-curvature="0" />
	<path style="fill:none;stroke:red;stroke-width:1px;stroke-linecap:butt;stroke-linejoin:miter;stroke-opacity:1" d="M 541.401,31.6007 557.637,34.8478 z" id="boundary" inkscape:connector-curvature="0" />
	<path style="fill:none;stroke:red;stroke-width:1px;stroke-linecap:butt;stroke-linejoin:miter;stroke-opacity:1" d="M 557.637,34.8478 573.872,39.7185 z" id="boundary" inkscape:connector-curvature="0" />
	<path style="fill:none;stroke:red;stroke-width:1px;stroke-linecap:butt;stroke-linejoin:miter;stroke-opacity:1" d="M 573.872,39.7185 586.861,51.0835 z" id="boundary" inkscape:connector-curvature="0" />
	<path style="fill:none;stroke:red;stroke-width:1px;stroke-linecap:butt;stroke-linejoin:miter;stroke-opacity:1" d="M 586.861,51.0835 601.473,59.2013 z" id="boundary" inkscape:connector-curvature="0" />
	<path style="fill:none;stroke:red;stroke-width:1px;stroke-linecap:butt;stroke-linejoin:miter;stroke-opacity:1" d="M 601.473,59.2013 616.085,67.3191 z" id="boundary" inkscape:connector-curvature="0" />
	<path style="fill:none;stroke:red;stroke-width:1px;stroke-linecap:butt;stroke-linejoin:miter;stroke-opacity:1" d="M 616.085,67.3191 630.697,75.437 z" id="boundary" inkscape:connector-curvature="0" />
	<path style="fill:none;stroke:red;stroke-width:1px;stroke-linecap:butt;stroke-linejoin:miter;stroke-opacity:1" d="M 630.697,75.437 646.933,75.437 z" id="boundary" inkscape:connector-curvature="0" />
	<path style="fill:none;stroke:red;stroke-width:1px;stroke-linecap:butt;stroke-linejoin:miter;stroke-opacity:1" d="M 646.933,75.437 661.545,83.5548 z" id="boundary" inkscape:connector-curvature="0" />
	<path style="fill:none;stroke:red;stroke-width:1px;stroke-linecap:butt;stroke-linejoin:miter;stroke-opacity:1" d="M 661.545,83.5548 674.534,93.2962 z" id="boundary" inkscape:connector-curvature="0" />
	<path style="fill:none;stroke:red;stroke-width:1px;stroke-linecap:butt;stroke-linejoin:miter;stroke-opacity:1" d="M 674.534,93.2962 687.522,104.661 z" id="boundary" inkscape:connector-curvature="0" />
	<path style="fill:none;stroke:red;stroke-width:1px;stroke-linecap:butt;stroke-linejoin:miter;stroke-opacity:1" d="M 687.522,104.661 698.887,117.65 z" id="boundary" inkscape:connector-curvature="0" />
	<path style="fill:none;stroke:red;stroke-width:1px;stroke-linecap:butt;stroke-linejoin:miter;stroke-opacity:1" d="M 698.887,117.65 711.876,129.015 z" id="boundary" inkscape:connector-curvature="0" />
	<path style="fill:none;stroke:red;stroke-width:1px;stroke-linecap:butt;stroke-linejoin:miter;stroke-opacity:1" d="M 711.876,129.015 718.37,145.25 z" id="boundary" inkscape:connector-curvature="0" />
	<path style="fill:none;stroke:red;stroke-width:1px;stroke-linecap:butt;stroke-linejoin:miter;stroke-opacity:1" d="M 718.37,145.25 728.111,158.239 z" id="boundary" inkscape:connector-curvature="0" />
	<path style="fill:none;stroke:red;stroke-width:1px;stroke-linecap:butt;stroke-linejoin:miter;stroke-opacity:1" d="M 728.111,158.239 736.229,172.851 z" id="boundary" inkscape:connector-curvature="0" />
	<path style="fill:none;stroke:red;stroke-width:1px;stroke-linecap:butt;stroke-linejoin:miter;stroke-opacity:1" d="M 736.229,172.851 736.229,189.087 z" id="boundary" inkscape:connector-curvature="0" />
	<path style="fill:none;stroke:red;stroke-width:1px;stroke-linecap:butt;stroke-linejoin:miter;stroke-opacity:1" d="M 736.229,189.087 736.229,205.322 z" id="boundary" inkscape:connector-curvature="0" />
	<path style="fill:none;stroke:red;stroke-width:1px;stroke-linecap:butt;stroke-linejoin:miter;stroke-opacity:1" d="M 736.229,205.322 736.229,221.558 z" id="boundary" inkscape:connector-curvature="0" />
	<path style="fill:none;stroke:red;stroke-width:1px;stroke-linecap:butt;stroke-linejoin:miter;stroke-opacity:1" d="M 736.229,221.558 736.229,237.794 z" id="boundary" inkscape:connector-curvature="0" />
	<path style="fill:none;stroke:red;stroke-width:1px;stroke-linecap:butt;stroke-linejoin:miter;stroke-opacity:1" d="M 736.229,237.794 736.229,254.029 z" id="boundary" inkscape:connector-curvature="0" />
	<path style="fill:none;stroke:red;stroke-width:1px;stroke-linecap:butt;stroke-linejoin:miter;stroke-opacity:1" d="M 736.229,254.029 728.111,271.889 z" id="boundary" inkscape:connector-curvature="0" />
	<path style="fill:none;stroke:red;stroke-width:1px;stroke-linecap:butt;stroke-linejoin:miter;stroke-opacity:1" d="M 728.111,271.889 744.347,278.383 z" id="boundary" inkscape:connector-curvature="0" />
	<path style="fill:none;stroke:red;stroke-width:1px;stroke-linecap:butt;stroke-linejoin:miter;stroke-opacity:1" d="M 744.347,278.383 760.583,273.512 z" id="boundary" inkscape:connector-curvature="0" />
	<path style="fill:none;stroke:red;stroke-width:1px;stroke-linecap:butt;stroke-linejoin:miter;stroke-opacity:1" d="M 760.583,273.512 776.818,270.265 z" id="boundary" inkscape:connector-curvature="0" />
	<path style="fill:none;stroke:red;stroke-width:1px;stroke-linecap:butt;stroke-linejoin:miter;stroke-opacity:1" d="M 776.818,270.265 793.054,270.265 z" id="boundary" inkscape:connector-curvature="0" />
	<path style="fill:none;stroke:red;stroke-width:1px;stroke-linecap:butt;stroke-linejoin:miter;stroke-opacity:1" d="M 793.054,270.265 807.666,262.147 z" id="boundary" inkscape:connector-curvature="0" />
	<path style="fill:none;stroke:red;stroke-width:1px;stroke-linecap:butt;stroke-linejoin:miter;stroke-opacity:1" d="M 807.666,262.147 823.902,257.277 z" id="boundary" inkscape:connector-curvature="0" />
	<path style="fill:none;stroke:red;stroke-width:1px;stroke-linecap:butt;stroke-linejoin:miter;stroke-opacity:1" d="M 823.902,257.277 840.137,254.029 z" id="boundary" inkscape:connector-curvature="0" />
	<path style="fill:none;stroke:red;stroke-width:1px;stroke-linecap:butt;stroke-linejoin:miter;stroke-opacity:1" d="M 840.137,254.029 854.75,245.912 z" id="boundary" inkscape:connector-curvature="0" />
	<path style="fill:none;stroke:red;stroke-width:1px;stroke-linecap:butt;stroke-linejoin:miter;stroke-opacity:1" d="M 854.75,245.912 869.362,237.794 z" id="boundary" inkscape:connector-curvature="0" />
	<path style="fill:none;stroke:red;stroke-width:1px;stroke-linecap:butt;stroke-linejoin:miter;stroke-opacity:1" d="M 869.362,237.794 885.597,229.676 z" id="boundary" inkscape:connector-curvature="0" />
	<path style="fill:none;stroke:red;stroke-width:1px;stroke-linecap:butt;stroke-linejoin:miter;stroke-opacity:1" d="M 885.597,229.676 900.209,237.794 z" id="boundary" inkscape:connector-curvature="0" />
	<path style="fill:none;stroke:red;stroke-width:1px;stroke-linecap:butt;stroke-linejoin:miter;stroke-opacity:1" d="M 900.209,237.794 916.445,231.3 z" id="boundary" inkscape:connector-curvature="0" />
	<path style="fill:none;stroke:red;stroke-width:1px;stroke-linecap:butt;stroke-linejoin:miter;stroke-opacity:1" d="M 916.445,231.3 932.681,229.676 z" id="boundary" inkscape:connector-curvature="0" />
	<path style="fill:none;stroke:red;stroke-width:1px;stroke-linecap:butt;stroke-linejoin:miter;stroke-opacity:1" d="M 932.681,229.676 948.917,229.676 z" id="boundary" inkscape:connector-curvature="0" />
	<path style="fill:none;stroke:red;stroke-width:1px;stroke-linecap:butt;stroke-linejoin:miter;stroke-opacity:1" d="M 948.917,229.676 963.529,237.794 z" id="boundary" inkscape:connector-curvature="0" />
	<path style="fill:none;stroke:red;stroke-width:1px;stroke-linecap:butt;stroke-linejoin:miter;stroke-opacity:1" d="M 963.529,237.794 979.764,237.794 z" id="boundary" inkscape:connector-curvature="0" />
	<path style="fill:none;stroke:red;stroke-width:1px;stroke-linecap:butt;stroke-linejoin:miter;stroke-opacity:1" d="M 979.764,237.794 996,237.794 z" id="boundary" inkscape:connector-curvature="0" />
	<path style="fill:none;stroke:red;stroke-width:1px;stroke-linecap:butt;stroke-linejoin:miter;stroke-opacity:1" d="M 996,237.794 996,255.653 z" id="boundary" inkscape:connector-curvature="0" />
	<circle cx="4" cy="356.314" r="4" fill="#0" id="circle0"/>
	<circle cx="12.1178" cy="340.079" r="4" fill="#0" id="circle1"/>
	<circle cx="12.1178" cy="370.926" r="4" fill="#0" id="circle2"/>
	<circle cx="12.1178" cy="387.162" r="4" fill="#0" id="circle3"/>
	<circle cx="20.2357" cy="323.843" r="4" fill="#0" id="circle4"/>
	<circle cx="20.2357" cy="401.774" r="4" fill="#0" id="circle5"/>
	<circle cx="28.3535" cy="291.372" r="4" fill="#0" id="circle6"/>
	<circle cx="28.3535" cy="307.607" r="4" fill="#0" id="circle7"/>
	<circle cx="34.8478" cy="409.892" r="4" fill="#0" id="circle8"/>
	<circle cx="44.5892" cy="267.018" r="4" fill="#0" id="circle9"/>
	<circle cx="44.5892" cy="283.254" r="4" fill="#0" id="circle10"/>
	<circle cx="49.4599" cy="418.01" r="4" fill="#0" id="circle11"/>
	<circle cx="52.707" cy="242.664" r="4" fill="#0" id="circle12"/>
	<circle cx="62.4484" cy="429.375" r="4" fill="#0" id="circle13"/>
	<circle cx="65.6956" cy="229.676" r="4" fill="#0" id="circle14"/>
	<circle cx="73.8134" cy="213.44" r="4" fill="#0" id="circle15"/>
	<circle cx="77.0606" cy="437.493" r="4" fill="#0" id="circle16"/>
	<circle cx="86.802" cy="200.452" r="4" fill="#0" id="circle17"/>
	<circle cx="93.2962" cy="177.722" r="4" fill="#0" id="circle18"/>
	<circle cx="93.2962" cy="442.363" r="4" fill="#0" id="circle19"/>
	<circle cx="103.038" cy="455.352" r="4" fill="#0" id="circle20"/>
	<circle cx="106.285" cy="164.733" r="4" fill="#0" id="circle21"/>
	<circle cx="116.026" cy="466.717" r="4" fill="#0" id="circle22"/>
	<circle cx="120.897" cy="156.615" r="4" fill="#0" id="circle23"/>
	<circle cx="132.262" cy="466.717" r="4" fill="#0" id="circle24"/>
	<circle cx="137.133" cy="150.121" r="4" fill="#0" id="circle25"/>
	<circle cx="146.874" cy="474.835" r="4" fill="#0" id="circle26"/>
	<circle cx="150.121" cy="137.133" r="4" fill="#0" id="circle27"/>
	<circle cx="163.11" cy="481.329" r="4" fill="#0" id="circle28"/>
	<circle cx="166.357" cy="120.897" r="4" fill="#0" id="circle29"/>
	<circle cx="177.722" cy="489.447" r="4" fill="#0" id="circle30"/>
	<circle cx="179.345" cy="107.908" r="4" fill="#0" id="circle31"/>
	<circle cx="192.334" cy="94.9198" r="4" fill="#0" id="circle32"/>
	<circle cx="193.957" cy="495.941" r="4" fill="#0" id="circle33"/>
	<circle cx="206.946" cy="80.3077" r="4" fill="#0" id="circle34"/>
	<circle cx="208.57" cy="504.059" r="4" fill="#0" id="circle35"/>
	<circle cx="215.064" cy="55.9542" r="4" fill="#0" id="circle36"/>
	<circle cx="224.805" cy="507.306" r="4" fill="#0" id="circle37"/>
	<circle cx="228.052" cy="42.9656" r="4" fill="#0" id="circle38"/>
	<circle cx="231.3" cy="523.542" r="4" fill="#0" id="circle39"/>
	<circle cx="239.417" cy="538.154" r="4" fill="#0" id="circle40"/>
	<circle cx="242.664" cy="34.8478" r="4" fill="#0" id="circle41"/>
	<circle cx="249.159" cy="551.142" r="4" fill="#0" id="circle42"/>
	<circle cx="255.653" cy="567.378" r="4" fill="#0" id="circle43"/>
	<circle cx="258.9" cy="28.3535" r="4" fill="#0" id="circle44"/>
	<circle cx="263.771" cy="581.99" r="4" fill="#0" id="circle45"/>
	<circle cx="275.136" cy="26.73" r="4" fill="#0" id="circle46"/>
	<circle cx="275.136" cy="594.979" r="4" fill="#0" id="circle47"/>
	<circle cx="280.007" cy="611.214" r="4" fill="#0" id="circle48"/>
	<circle cx="289.748" cy="18.6121" r="4" fill="#0" id="circle49"/>
	<circle cx="289.748" cy="624.203" r="4" fill="#0" id="circle50"/>
	<circle cx="305.984" cy="18.6121" r="4" fill="#0" id="circle51"/>
	<circle cx="305.984" cy="620.956" r="4" fill="#0" id="circle52"/>
	<circle cx="314.101" cy="588.484" r="4" fill="#0" id="circle53"/>
	<circle cx="314.101" cy="604.72" r="4" fill="#0" id="circle54"/>
	<circle cx="322.219" cy="13.7414" r="4" fill="#0" id="circle55"/>
	<circle cx="322.219" cy="539.777" r="4" fill="#0" id="circle56"/>
	<circle cx="322.219" cy="556.013" r="4" fill="#0" id="circle57"/>
	<circle cx="322.219" cy="572.249" r="4" fill="#0" id="circle58"/>
	<circle cx="335.208" cy="4" r="4" fill="#0" id="circle59"/>
	<circle cx="338.455" cy="531.66" r="4" fill="#0" id="circle60"/>
	<circle cx="351.444" cy="10.4943" r="4" fill="#0" id="circle61"/>
	<circle cx="353.067" cy="539.777" r="4" fill="#0" id="circle62"/>
	<circle cx="362.809" cy="552.766" r="4" fill="#0" id="circle63"/>
	<circle cx="367.679" cy="10.4943" r="4" fill="#0" id="circle64"/>
	<circle cx="375.797" cy="564.131" r="4" fill="#0" id="circle65"/>
	<circle cx="383.915" cy="10.4943" r="4" fill="#0" id="circle66"/>
	<circle cx="390.409" cy="572.249" r="4" fill="#0" id="circle67"/>
	<circle cx="400.151" cy="10.4943" r="4" fill="#0" id="circle68"/>
	<circle cx="406.645" cy="578.743" r="4" fill="#0" id="circle69"/>
	<circle cx="416.386" cy="10.4943" r="4" fill="#0" id="circle70"/>
	<circle cx="422.881" cy="580.367" r="4" fill="#0" id="circle71"/>
	<circle cx="432.622" cy="12.1178" r="4" fill="#0" id="circle72"/>
	<circle cx="437.493" cy="588.484" r="4" fill="#0" id="circle73"/>
	<circle cx="448.858" cy="18.6121" r="4" fill="#0" id="circle74"/>
	<circle cx="453.728" cy="588.484" r="4" fill="#0" id="circle75"/>
	<circle cx="465.093" cy="18.6121" r="4" fill="#0" id="circle76"/>
	<circle cx="469.964" cy="588.484" r="4" fill="#0" id="circle77"/>
	<circle cx="481.329" cy="18.6121" r="4" fill="#0" id="circle78"/>
	<circle cx="486.2" cy="588.484" r="4" fill="#0" id="circle79"/>
	<circle cx="497.565" cy="18.6121" r="4" fill="#0" id="circle80"/>
	<circle cx="502.435" cy="588.484" r="4" fill="#0" id="circle81"/>
	<circle cx="513.8" cy="20.2357" r="4" fill="#0" id="circle82"/>
	<circle cx="518.671" cy="588.484" r="4" fill="#0" id="circle83"/>
	<circle cx="525.165" cy="33.2242" r="4" fill="#0" id="circle84"/>
	<circle cx="534.907" cy="588.484" r="4" fill="#0" id="circle85"/>
	<circle cx="541.401" cy="31.6007" r="4" fill="#0" id="circle86"/>
	<circle cx="549.519" cy="580.367" r="4" fill="#0" id="circle87"/>
	<circle cx="557.637" cy="34.8478" r="4" fill="#0" id="circle88"/>
	<circle cx="565.755" cy="580.367" r="4" fill="#0" id="circle89"/>
	<circle cx="573.872" cy="39.7185" r="4" fill="#0" id="circle90"/>
	<circle cx="580.367" cy="572.249" r="4" fill="#0" id="circle91"/>
	<circle cx="586.861" cy="51.0835" r="4" fill="#0" id="circle92"/>
	<circle cx="596.602" cy="567.378" r="4" fill="#0" id="circle93"/>
	<circle cx="601.473" cy="59.2013" r="4" fill="#0" id="circle94"/>
	<circle cx="612.838" cy="567.378" r="4" fill="#0" id="circle95"/>
	<circle cx="616.085" cy="67.3191" r="4" fill="#0" id="circle96"/>
	<circle cx="625.827" cy="554.39" r="4" fill="#0" id="circle97"/>
	<circle cx="630.697" cy="75.437" r="4" fill="#0" id="circle98"/>
	<circle cx="642.062" cy="547.895" r="4" fill="#0" id="circle99"/>
	<circle cx="646.933" cy="75.437" r="4" fill="#0" id="circle100"/>
	<circle cx="656.674" cy="539.777" r="4" fill="#0" id="circle101"/>
	<circle cx="661.545" cy="83.5548" r="4" fill="#0" id="circle102"/>
	<circle cx="671.286" cy="531.66" r="4" fill="#0" id="circle103"/>
	<circle cx="674.534" cy="93.2962" r="4" fill="#0" id="circle104"/>
	<circle cx="684.275" cy="520.295" r="4" fill="#0" id="circle105"/>
	<circle cx="687.522" cy="104.661" r="4" fill="#0" id="circle106"/>
	<circle cx="698.887" cy="117.65" r="4" fill="#0" id="circle107"/>
	<circle cx="700.511" cy="512.177" r="4" fill="#0" id="circle108"/>
	<circle cx="711.876" cy="129.015" r="4" fill="#0" id="circle109"/>
	<circle cx="711.876" cy="499.188" r="4" fill="#0" id="circle110"/>
	<circle cx="718.37" cy="145.25" r="4" fill="#0" id="circle111"/>
	<circle cx="724.864" cy="487.823" r="4" fill="#0" id="circle112"/>
	<circle cx="728.111" cy="158.239" r="4" fill="#0" id="circle113"/>
	<circle cx="728.111" cy="271.889" r="4" fill="#0" id="circle114"/>
	<circle cx="736.229" cy="172.851" r="4" fill="#0" id="circle115"/>
	<circle cx="736.229" cy="189.087" r="4" fill="#0" id="circle116"/>
	<circle cx="736.229" cy="205.322" r="4" fill="#0" id="circle117"/>
	<circle cx="736.229" cy="221.558" r="4" fill="#0" id="circle118"/>
	<circle cx="736.229" cy="237.794" r="4" fill="#0" id="circle119"/>
	<circle cx="736.229" cy="254.029" r="4" fill="#0" id="circle120"/>
	<circle cx="736.229" cy="418.01" r="4" fill="#0" id="circle121"/>
	<circle cx="736.229" cy="458.599" r="4" fill="#0" id="circle122"/>
	<circle cx="736.229" cy="474.835" r="4" fill="#0" id="circle123"/>
	<circle cx="739.476" cy="434.245" r="4" fill="#0" id="circle124"/>
	<circle cx="744.347" cy="278.383" r="4" fill="#0" id="circle125"/>
	<circle cx="750.841" cy="409.892" r="4" fill="#0" id="circle126"/>
	<circle cx="760.583" cy="273.512" r="4" fill="#0" id="circle127"/>
	<circle cx="760.583" cy="422.881" r="4" fill="#0" id="circle128"/>
	<circle cx="773.571" cy="434.245" r="4" fill="#0" id="circle129"/>
	<circle cx="776.818" cy="270.265" r="4" fill="#0" id="circle130"/>
	<circle cx="784.936" cy="447.234" r="4" fill="#0" id="circle131"/>
	<circle cx="793.054" cy="270.265" r="4" fill="#0" id="circle132"/>
	<circle cx="797.925" cy="458.599" r="4" fill="#0" id="circle133"/>
	<circle cx="807.666" cy="262.147" r="4" fill="#0" id="circle134"/>
	<circle cx="812.537" cy="466.717" r="4" fill="#0" id="circle135"/>
	<circle cx="823.902" cy="257.277" r="4" fill="#0" id="circle136"/>
	<circle cx="828.773" cy="473.211" r="4" fill="#0" id="circle137"/>
	<circle cx="840.137" cy="254.029" r="4" fill="#0" id="circle138"/>
	<circle cx="840.137" cy="486.2" r="4" fill="#0" id="circle139"/>
	<circle cx="853.126" cy="497.565" r="4" fill="#0" id="circle140"/>
	<circle cx="854.75" cy="245.912" r="4" fill="#0" id="circle141"/>
	<circle cx="864.491" cy="510.553" r="4" fill="#0" id="circle142"/>
	<circle cx="869.362" cy="237.794" r="4" fill="#0" id="circle143"/>
	<circle cx="877.48" cy="521.918" r="4" fill="#0" id="circle144"/>
	<circle cx="885.597" cy="229.676" r="4" fill="#0" id="circle145"/>
	<circle cx="890.468" cy="450.481" r="4" fill="#0" id="circle146"/>
	<circle cx="890.468" cy="466.717" r="4" fill="#0" id="circle147"/>
	<circle cx="893.715" cy="523.542" r="4" fill="#0" id="circle148"/>
	<circle cx="898.586" cy="393.656" r="4" fill="#0" id="circle149"/>
	<circle cx="898.586" cy="409.892" r="4" fill="#0" id="circle150"/>
	<circle cx="898.586" cy="426.128" r="4" fill="#0" id="circle151"/>
	<circle cx="898.586" cy="481.329" r="4" fill="#0" id="circle152"/>
	<circle cx="900.209" cy="237.794" r="4" fill="#0" id="circle153"/>
	<circle cx="906.704" cy="344.949" r="4" fill="#0" id="circle154"/>
	<circle cx="906.704" cy="361.185" r="4" fill="#0" id="circle155"/>
	<circle cx="906.704" cy="377.421" r="4" fill="#0" id="circle156"/>
	<circle cx="906.704" cy="495.941" r="4" fill="#0" id="circle157"/>
	<circle cx="908.327" cy="531.66" r="4" fill="#0" id="circle158"/>
	<circle cx="914.822" cy="328.714" r="4" fill="#0" id="circle159"/>
	<circle cx="916.445" cy="231.3" r="4" fill="#0" id="circle160"/>
	<circle cx="919.692" cy="507.306" r="4" fill="#0" id="circle161"/>
	<circle cx="922.939" cy="312.478" r="4" fill="#0" id="circle162"/>
	<circle cx="924.563" cy="536.53" r="4" fill="#0" id="circle163"/>
	<circle cx="931.057" cy="296.242" r="4" fill="#0" id="circle164"/>
	<circle cx="931.057" cy="520.295" r="4" fill="#0" id="circle165"/>
	<circle cx="932.681" cy="229.676" r="4" fill="#0" id="circle166"/>
	<circle cx="939.175" cy="280.007" r="4" fill="#0" id="circle167"/>
	<circle cx="948.917" cy="229.676" r="4" fill="#0" id="circle168"/>
	<circle cx="955.411" cy="271.889" r="4" fill="#0" id="circle169"/>
	<circle cx="963.529" cy="237.794" r="4" fill="#0" id="circle170"/>
	<circle cx="963.529" cy="255.653" r="4" fill="#0" id="circle171"/>
	<circle cx="979.764" cy="237.794" r="4" fill="#0" id="circle172"/>
	<circle cx="979.764" cy="258.9" r="4" fill="#0" id="circle173"/>
	<circle cx="996" cy="237.794" r="4" fill="#0" id="circle174"/>
	<circle cx="996" cy="255.653" r="4" fill="#0" id="circle175"/>
	</g>
</svg>