<?xml version="1.0" encoding="UTF-8" standalone="no"?>
<!-- Created with CurveBenchmark -->
<svg
	xmlns:dc="http://purl.org/dc/elements/1.1/"
	xmlns:cc="http://creativecommons.org/ns#"
	xmlns:rdf="http://www.w3.org/1999/02/22-rdf-syntax-ns#"
	xmlns:svg="http://www.w3.org/2000/svg"
	xmlns="http://www.w3.org/2000/svg"
	xmlns:sodipodi="http://sodipodi.sourceforge.net/DTD/sodipodi-0.dtd"
	xmlns:inkscape="http://www.inkscape.org/namespaces/inkscape"
	width="1000"
	height="1000"
	id="svg2"
	version="1.1"
	sodipodi:docname="manifold/connect2d-bird39.png.txt">
<defs
	id="defs4" />
<metadata
	id="metadata7">
	<rdf:RDF>
		<cc:Work
			rdf:about="">
			<dc:format>image/svg+xml</dc:format>
			<dc:type
				rdf:resource="http://purl.org/dc/dcmitype/StillImage" />
			<dc:title></dc:title>
		</cc:Work>
	</rdf:RDF>
</metadata>
<g
	inkscape:label="Layer 1"
	inkscape:groupmode="layer"
	id="layer1">
	<path style="fill:none;stroke:red;stroke-width:1px;stroke-linecap:butt;stroke-linejoin:miter;stroke-opacity:1" d="M 811.385,598.462 811.385,610.769 z" id="boundary" inkscape:connector-curvature="0" />
	<path style="fill:none;stroke:red;stroke-width:1px;stroke-linecap:butt;stroke-linejoin:miter;stroke-opacity:1" d="M 811.385,610.769 810.154,623.077 z" id="boundary" inkscape:connector-curvature="0" />
	<path style="fill:none;stroke:red;stroke-width:1px;stroke-linecap:butt;stroke-linejoin:miter;stroke-opacity:1" d="M 810.154,623.077 799.077,630.462 z" id="boundary" inkscape:connector-curvature="0" />
	<path style="fill:none;stroke:red;stroke-width:1px;stroke-linecap:butt;stroke-linejoin:miter;stroke-opacity:1" d="M 799.077,630.462 788,624.308 z" id="boundary" inkscape:connector-curvature="0" />
	<path style="fill:none;stroke:red;stroke-width:1px;stroke-linecap:butt;stroke-linejoin:miter;stroke-opacity:1" d="M 788,624.308 775.692,620.615 z" id="boundary" inkscape:connector-curvature="0" />
	<path style="fill:none;stroke:red;stroke-width:1px;stroke-linecap:butt;stroke-linejoin:miter;stroke-opacity:1" d="M 775.692,620.615 764.615,614.462 z" id="boundary" inkscape:connector-curvature="0" />
	<path style="fill:none;stroke:red;stroke-width:1px;stroke-linecap:butt;stroke-linejoin:miter;stroke-opacity:1" d="M 764.615,614.462 753.538,608.308 z" id="boundary" inkscape:connector-curvature="0" />
	<path style="fill:none;stroke:red;stroke-width:1px;stroke-linecap:butt;stroke-linejoin:miter;stroke-opacity:1" d="M 753.538,608.308 742.462,602.154 z" id="boundary" inkscape:connector-curvature="0" />
	<path style="fill:none;stroke:red;stroke-width:1px;stroke-linecap:butt;stroke-linejoin:miter;stroke-opacity:1" d="M 742.462,602.154 731.385,596 z" id="boundary" inkscape:connector-curvature="0" />
	<path style="fill:none;stroke:red;stroke-width:1px;stroke-linecap:butt;stroke-linejoin:miter;stroke-opacity:1" d="M 731.385,596 721.538,588.615 z" id="boundary" inkscape:connector-curvature="0" />
	<path style="fill:none;stroke:red;stroke-width:1px;stroke-linecap:butt;stroke-linejoin:miter;stroke-opacity:1" d="M 721.538,588.615 709.231,583.692 z" id="boundary" inkscape:connector-curvature="0" />
	<path style="fill:none;stroke:red;stroke-width:1px;stroke-linecap:butt;stroke-linejoin:miter;stroke-opacity:1" d="M 709.231,583.692 696.923,583.692 z" id="boundary" inkscape:connector-curvature="0" />
	<path style="fill:none;stroke:red;stroke-width:1px;stroke-linecap:butt;stroke-linejoin:miter;stroke-opacity:1" d="M 696.923,583.692 684.615,583.692 z" id="boundary" inkscape:connector-curvature="0" />
	<path style="fill:none;stroke:red;stroke-width:1px;stroke-linecap:butt;stroke-linejoin:miter;stroke-opacity:1" d="M 684.615,583.692 673.538,577.538 z" id="boundary" inkscape:connector-curvature="0" />
	<path style="fill:none;stroke:red;stroke-width:1px;stroke-linecap:butt;stroke-linejoin:miter;stroke-opacity:1" d="M 673.538,577.538 661.231,577.538 z" id="boundary" inkscape:connector-curvature="0" />
	<path style="fill:none;stroke:red;stroke-width:1px;stroke-linecap:butt;stroke-linejoin:miter;stroke-opacity:1" d="M 661.231,577.538 650.154,571.385 z" id="boundary" inkscape:connector-curvature="0" />
	<path style="fill:none;stroke:red;stroke-width:1px;stroke-linecap:butt;stroke-linejoin:miter;stroke-opacity:1" d="M 650.154,571.385 637.846,571.385 z" id="boundary" inkscape:connector-curvature="0" />
	<path style="fill:none;stroke:red;stroke-width:1px;stroke-linecap:butt;stroke-linejoin:miter;stroke-opacity:1" d="M 637.846,571.385 625.538,571.385 z" id="boundary" inkscape:connector-curvature="0" />
	<path style="fill:none;stroke:red;stroke-width:1px;stroke-linecap:butt;stroke-linejoin:miter;stroke-opacity:1" d="M 625.538,571.385 613.231,571.385 z" id="boundary" inkscape:connector-curvature="0" />
	<path style="fill:none;stroke:red;stroke-width:1px;stroke-linecap:butt;stroke-linejoin:miter;stroke-opacity:1" d="M 613.231,571.385 600.923,571.385 z" id="boundary" inkscape:connector-curvature="0" />
	<path style="fill:none;stroke:red;stroke-width:1px;stroke-linecap:butt;stroke-linejoin:miter;stroke-opacity:1" d="M 600.923,571.385 588.615,571.385 z" id="boundary" inkscape:connector-curvature="0" />
	<path style="fill:none;stroke:red;stroke-width:1px;stroke-linecap:butt;stroke-linejoin:miter;stroke-opacity:1" d="M 588.615,571.385 576.308,571.385 z" id="boundary" inkscape:connector-curvature="0" />
	<path style="fill:none;stroke:red;stroke-width:1px;stroke-linecap:butt;stroke-linejoin:miter;stroke-opacity:1" d="M 576.308,571.385 565.231,577.538 z" id="boundary" inkscape:connector-curvature="0" />
	<path style="fill:none;stroke:red;stroke-width:1px;stroke-linecap:butt;stroke-linejoin:miter;stroke-opacity:1" d="M 565.231,577.538 565.231,589.846 z" id="boundary" inkscape:connector-curvature="0" />
	<path style="fill:none;stroke:red;stroke-width:1px;stroke-linecap:butt;stroke-linejoin:miter;stroke-opacity:1" d="M 565.231,589.846 571.385,600.923 z" id="boundary" inkscape:connector-curvature="0" />
	<path style="fill:none;stroke:red;stroke-width:1px;stroke-linecap:butt;stroke-linejoin:miter;stroke-opacity:1" d="M 571.385,600.923 571.385,613.231 z" id="boundary" inkscape:connector-curvature="0" />
	<path style="fill:none;stroke:red;stroke-width:1px;stroke-linecap:butt;stroke-linejoin:miter;stroke-opacity:1" d="M 571.385,613.231 581.231,620.615 z" id="boundary" inkscape:connector-curvature="0" />
	<path style="fill:none;stroke:red;stroke-width:1px;stroke-linecap:butt;stroke-linejoin:miter;stroke-opacity:1" d="M 581.231,620.615 586.154,632.923 z" id="boundary" inkscape:connector-curvature="0" />
	<path style="fill:none;stroke:red;stroke-width:1px;stroke-linecap:butt;stroke-linejoin:miter;stroke-opacity:1" d="M 586.154,632.923 592.308,644 z" id="boundary" inkscape:connector-curvature="0" />
	<path style="fill:none;stroke:red;stroke-width:1px;stroke-linecap:butt;stroke-linejoin:miter;stroke-opacity:1" d="M 592.308,644 596,656.308 z" id="boundary" inkscape:connector-curvature="0" />
	<path style="fill:none;stroke:red;stroke-width:1px;stroke-linecap:butt;stroke-linejoin:miter;stroke-opacity:1" d="M 596,656.308 605.846,663.692 z" id="boundary" inkscape:connector-curvature="0" />
	<path style="fill:none;stroke:red;stroke-width:1px;stroke-linecap:butt;stroke-linejoin:miter;stroke-opacity:1" d="M 605.846,663.692 608.308,676 z" id="boundary" inkscape:connector-curvature="0" />
	<path style="fill:none;stroke:red;stroke-width:1px;stroke-linecap:butt;stroke-linejoin:miter;stroke-opacity:1" d="M 608.308,676 614.462,687.077 z" id="boundary" inkscape:connector-curvature="0" />
	<path style="fill:none;stroke:red;stroke-width:1px;stroke-linecap:butt;stroke-linejoin:miter;stroke-opacity:1" d="M 614.462,687.077 620.615,698.154 z" id="boundary" inkscape:connector-curvature="0" />
	<path style="fill:none;stroke:red;stroke-width:1px;stroke-linecap:butt;stroke-linejoin:miter;stroke-opacity:1" d="M 620.615,698.154 630.462,706.769 z" id="boundary" inkscape:connector-curvature="0" />
	<path style="fill:none;stroke:red;stroke-width:1px;stroke-linecap:butt;stroke-linejoin:miter;stroke-opacity:1" d="M 630.462,706.769 632.923,719.077 z" id="boundary" inkscape:connector-curvature="0" />
	<path style="fill:none;stroke:red;stroke-width:1px;stroke-linecap:butt;stroke-linejoin:miter;stroke-opacity:1" d="M 632.923,719.077 639.077,730.154 z" id="boundary" inkscape:connector-curvature="0" />
	<path style="fill:none;stroke:red;stroke-width:1px;stroke-linecap:butt;stroke-linejoin:miter;stroke-opacity:1" d="M 639.077,730.154 632.923,743.692 z" id="boundary" inkscape:connector-curvature="0" />
	<path style="fill:none;stroke:red;stroke-width:1px;stroke-linecap:butt;stroke-linejoin:miter;stroke-opacity:1" d="M 632.923,743.692 632.923,756 z" id="boundary" inkscape:connector-curvature="0" />
	<path style="fill:none;stroke:red;stroke-width:1px;stroke-linecap:butt;stroke-linejoin:miter;stroke-opacity:1" d="M 632.923,756 632.923,768.308 z" id="boundary" inkscape:connector-curvature="0" />
	<path style="fill:none;stroke:red;stroke-width:1px;stroke-linecap:butt;stroke-linejoin:miter;stroke-opacity:1" d="M 632.923,768.308 635.385,780.615 z" id="boundary" inkscape:connector-curvature="0" />
	<path style="fill:none;stroke:red;stroke-width:1px;stroke-linecap:butt;stroke-linejoin:miter;stroke-opacity:1" d="M 635.385,780.615 639.077,792.923 z" id="boundary" inkscape:connector-curvature="0" />
	<path style="fill:none;stroke:red;stroke-width:1px;stroke-linecap:butt;stroke-linejoin:miter;stroke-opacity:1" d="M 639.077,792.923 639.077,805.231 z" id="boundary" inkscape:connector-curvature="0" />
	<path style="fill:none;stroke:red;stroke-width:1px;stroke-linecap:butt;stroke-linejoin:miter;stroke-opacity:1" d="M 639.077,805.231 639.077,817.538 z" id="boundary" inkscape:connector-curvature="0" />
	<path style="fill:none;stroke:red;stroke-width:1px;stroke-linecap:butt;stroke-linejoin:miter;stroke-opacity:1" d="M 639.077,817.538 641.538,829.846 z" id="boundary" inkscape:connector-curvature="0" />
	<path style="fill:none;stroke:red;stroke-width:1px;stroke-linecap:butt;stroke-linejoin:miter;stroke-opacity:1" d="M 641.538,829.846 645.231,842.154 z" id="boundary" inkscape:connector-curvature="0" />
	<path style="fill:none;stroke:red;stroke-width:1px;stroke-linecap:butt;stroke-linejoin:miter;stroke-opacity:1" d="M 645.231,842.154 645.231,854.462 z" id="boundary" inkscape:connector-curvature="0" />
	<path style="fill:none;stroke:red;stroke-width:1px;stroke-linecap:butt;stroke-linejoin:miter;stroke-opacity:1" d="M 645.231,854.462 645.231,866.769 z" id="boundary" inkscape:connector-curvature="0" />
	<path style="fill:none;stroke:red;stroke-width:1px;stroke-linecap:butt;stroke-linejoin:miter;stroke-opacity:1" d="M 645.231,866.769 639.077,879.077 z" id="boundary" inkscape:connector-curvature="0" />
	<path style="fill:none;stroke:red;stroke-width:1px;stroke-linecap:butt;stroke-linejoin:miter;stroke-opacity:1" d="M 639.077,879.077 639.077,891.385 z" id="boundary" inkscape:connector-curvature="0" />
	<path style="fill:none;stroke:red;stroke-width:1px;stroke-linecap:butt;stroke-linejoin:miter;stroke-opacity:1" d="M 639.077,891.385 639.077,903.692 z" id="boundary" inkscape:connector-curvature="0" />
	<path style="fill:none;stroke:red;stroke-width:1px;stroke-linecap:butt;stroke-linejoin:miter;stroke-opacity:1" d="M 639.077,903.692 639.077,916 z" id="boundary" inkscape:connector-curvature="0" />
	<path style="fill:none;stroke:red;stroke-width:1px;stroke-linecap:butt;stroke-linejoin:miter;stroke-opacity:1" d="M 639.077,916 639.077,928.308 z" id="boundary" inkscape:connector-curvature="0" />
	<path style="fill:none;stroke:red;stroke-width:1px;stroke-linecap:butt;stroke-linejoin:miter;stroke-opacity:1" d="M 639.077,928.308 645.231,939.385 z" id="boundary" inkscape:connector-curvature="0" />
	<path style="fill:none;stroke:red;stroke-width:1px;stroke-linecap:butt;stroke-linejoin:miter;stroke-opacity:1" d="M 645.231,939.385 656.308,945.538 z" id="boundary" inkscape:connector-curvature="0" />
	<path style="fill:none;stroke:red;stroke-width:1px;stroke-linecap:butt;stroke-linejoin:miter;stroke-opacity:1" d="M 656.308,945.538 668.615,948 z" id="boundary" inkscape:connector-curvature="0" />
	<path style="fill:none;stroke:red;stroke-width:1px;stroke-linecap:butt;stroke-linejoin:miter;stroke-opacity:1" d="M 668.615,948 657.538,959.077 z" id="boundary" inkscape:connector-curvature="0" />
	<path style="fill:none;stroke:red;stroke-width:1px;stroke-linecap:butt;stroke-linejoin:miter;stroke-opacity:1" d="M 657.538,959.077 645.231,965.231 z" id="boundary" inkscape:connector-curvature="0" />
	<path style="fill:none;stroke:red;stroke-width:1px;stroke-linecap:butt;stroke-linejoin:miter;stroke-opacity:1" d="M 645.231,965.231 632.923,965.231 z" id="boundary" inkscape:connector-curvature="0" />
	<path style="fill:none;stroke:red;stroke-width:1px;stroke-linecap:butt;stroke-linejoin:miter;stroke-opacity:1" d="M 632.923,965.231 620.615,971.385 z" id="boundary" inkscape:connector-curvature="0" />
	<path style="fill:none;stroke:red;stroke-width:1px;stroke-linecap:butt;stroke-linejoin:miter;stroke-opacity:1" d="M 620.615,971.385 608.308,971.385 z" id="boundary" inkscape:connector-curvature="0" />
	<path style="fill:none;stroke:red;stroke-width:1px;stroke-linecap:butt;stroke-linejoin:miter;stroke-opacity:1" d="M 608.308,971.385 596,977.538 z" id="boundary" inkscape:connector-curvature="0" />
	<path style="fill:none;stroke:red;stroke-width:1px;stroke-linecap:butt;stroke-linejoin:miter;stroke-opacity:1" d="M 596,977.538 583.692,977.538 z" id="boundary" inkscape:connector-curvature="0" />
	<path style="fill:none;stroke:red;stroke-width:1px;stroke-linecap:butt;stroke-linejoin:miter;stroke-opacity:1" d="M 583.692,977.538 571.385,973.846 z" id="boundary" inkscape:connector-curvature="0" />
	<path style="fill:none;stroke:red;stroke-width:1px;stroke-linecap:butt;stroke-linejoin:miter;stroke-opacity:1" d="M 571.385,973.846 559.077,971.385 z" id="boundary" inkscape:connector-curvature="0" />
	<path style="fill:none;stroke:red;stroke-width:1px;stroke-linecap:butt;stroke-linejoin:miter;stroke-opacity:1" d="M 559.077,971.385 546.769,971.385 z" id="boundary" inkscape:connector-curvature="0" />
	<path style="fill:none;stroke:red;stroke-width:1px;stroke-linecap:butt;stroke-linejoin:miter;stroke-opacity:1" d="M 546.769,971.385 539.385,961.538 z" id="boundary" inkscape:connector-curvature="0" />
	<path style="fill:none;stroke:red;stroke-width:1px;stroke-linecap:butt;stroke-linejoin:miter;stroke-opacity:1" d="M 539.385,961.538 551.692,957.846 z" id="boundary" inkscape:connector-curvature="0" />
	<path style="fill:none;stroke:red;stroke-width:1px;stroke-linecap:butt;stroke-linejoin:miter;stroke-opacity:1" d="M 551.692,957.846 562.769,951.692 z" id="boundary" inkscape:connector-curvature="0" />
	<path style="fill:none;stroke:red;stroke-width:1px;stroke-linecap:butt;stroke-linejoin:miter;stroke-opacity:1" d="M 562.769,951.692 575.077,951.692 z" id="boundary" inkscape:connector-curvature="0" />
	<path style="fill:none;stroke:red;stroke-width:1px;stroke-linecap:butt;stroke-linejoin:miter;stroke-opacity:1" d="M 575.077,951.692 587.385,951.692 z" id="boundary" inkscape:connector-curvature="0" />
	<path style="fill:none;stroke:red;stroke-width:1px;stroke-linecap:butt;stroke-linejoin:miter;stroke-opacity:1" d="M 587.385,951.692 598.462,945.538 z" id="boundary" inkscape:connector-curvature="0" />
	<path style="fill:none;stroke:red;stroke-width:1px;stroke-linecap:butt;stroke-linejoin:miter;stroke-opacity:1" d="M 598.462,945.538 608.308,935.692 z" id="boundary" inkscape:connector-curvature="0" />
	<path style="fill:none;stroke:red;stroke-width:1px;stroke-linecap:butt;stroke-linejoin:miter;stroke-opacity:1" d="M 608.308,935.692 613.231,918.462 z" id="boundary" inkscape:connector-curvature="0" />
	<path style="fill:none;stroke:red;stroke-width:1px;stroke-linecap:butt;stroke-linejoin:miter;stroke-opacity:1" d="M 613.231,918.462 619.385,900 z" id="boundary" inkscape:connector-curvature="0" />
	<path style="fill:none;stroke:red;stroke-width:1px;stroke-linecap:butt;stroke-linejoin:miter;stroke-opacity:1" d="M 619.385,900 619.385,887.692 z" id="boundary" inkscape:connector-curvature="0" />
	<path style="fill:none;stroke:red;stroke-width:1px;stroke-linecap:butt;stroke-linejoin:miter;stroke-opacity:1" d="M 619.385,887.692 619.385,875.385 z" id="boundary" inkscape:connector-curvature="0" />
	<path style="fill:none;stroke:red;stroke-width:1px;stroke-linecap:butt;stroke-linejoin:miter;stroke-opacity:1" d="M 619.385,875.385 619.385,863.077 z" id="boundary" inkscape:connector-curvature="0" />
	<path style="fill:none;stroke:red;stroke-width:1px;stroke-linecap:butt;stroke-linejoin:miter;stroke-opacity:1" d="M 619.385,863.077 619.385,842.154 z" id="boundary" inkscape:connector-curvature="0" />
	<path style="fill:none;stroke:red;stroke-width:1px;stroke-linecap:butt;stroke-linejoin:miter;stroke-opacity:1" d="M 619.385,842.154 619.385,829.846 z" id="boundary" inkscape:connector-curvature="0" />
	<path style="fill:none;stroke:red;stroke-width:1px;stroke-linecap:butt;stroke-linejoin:miter;stroke-opacity:1" d="M 619.385,829.846 619.385,817.538 z" id="boundary" inkscape:connector-curvature="0" />
	<path style="fill:none;stroke:red;stroke-width:1px;stroke-linecap:butt;stroke-linejoin:miter;stroke-opacity:1" d="M 619.385,817.538 619.385,805.231 z" id="boundary" inkscape:connector-curvature="0" />
	<path style="fill:none;stroke:red;stroke-width:1px;stroke-linecap:butt;stroke-linejoin:miter;stroke-opacity:1" d="M 619.385,805.231 616.923,792.923 z" id="boundary" inkscape:connector-curvature="0" />
	<path style="fill:none;stroke:red;stroke-width:1px;stroke-linecap:butt;stroke-linejoin:miter;stroke-opacity:1" d="M 616.923,792.923 613.231,780.615 z" id="boundary" inkscape:connector-curvature="0" />
	<path style="fill:none;stroke:red;stroke-width:1px;stroke-linecap:butt;stroke-linejoin:miter;stroke-opacity:1" d="M 613.231,780.615 613.231,768.308 z" id="boundary" inkscape:connector-curvature="0" />
	<path style="fill:none;stroke:red;stroke-width:1px;stroke-linecap:butt;stroke-linejoin:miter;stroke-opacity:1" d="M 613.231,768.308 613.231,756 z" id="boundary" inkscape:connector-curvature="0" />
	<path style="fill:none;stroke:red;stroke-width:1px;stroke-linecap:butt;stroke-linejoin:miter;stroke-opacity:1" d="M 613.231,756 613.231,743.692 z" id="boundary" inkscape:connector-curvature="0" />
	<path style="fill:none;stroke:red;stroke-width:1px;stroke-linecap:butt;stroke-linejoin:miter;stroke-opacity:1" d="M 613.231,743.692 613.231,731.385 z" id="boundary" inkscape:connector-curvature="0" />
	<path style="fill:none;stroke:red;stroke-width:1px;stroke-linecap:butt;stroke-linejoin:miter;stroke-opacity:1" d="M 613.231,731.385 613.231,719.077 z" id="boundary" inkscape:connector-curvature="0" />
	<path style="fill:none;stroke:red;stroke-width:1px;stroke-linecap:butt;stroke-linejoin:miter;stroke-opacity:1" d="M 613.231,719.077 607.077,708 z" id="boundary" inkscape:connector-curvature="0" />
	<path style="fill:none;stroke:red;stroke-width:1px;stroke-linecap:butt;stroke-linejoin:miter;stroke-opacity:1" d="M 607.077,708 600.923,696.923 z" id="boundary" inkscape:connector-curvature="0" />
	<path style="fill:none;stroke:red;stroke-width:1px;stroke-linecap:butt;stroke-linejoin:miter;stroke-opacity:1" d="M 600.923,696.923 596,684.615 z" id="boundary" inkscape:connector-curvature="0" />
	<path style="fill:none;stroke:red;stroke-width:1px;stroke-linecap:butt;stroke-linejoin:miter;stroke-opacity:1" d="M 596,684.615 588.615,674.769 z" id="boundary" inkscape:connector-curvature="0" />
	<path style="fill:none;stroke:red;stroke-width:1px;stroke-linecap:butt;stroke-linejoin:miter;stroke-opacity:1" d="M 588.615,674.769 582.462,663.692 z" id="boundary" inkscape:connector-curvature="0" />
	<path style="fill:none;stroke:red;stroke-width:1px;stroke-linecap:butt;stroke-linejoin:miter;stroke-opacity:1" d="M 582.462,663.692 576.308,652.615 z" id="boundary" inkscape:connector-curvature="0" />
	<path style="fill:none;stroke:red;stroke-width:1px;stroke-linecap:butt;stroke-linejoin:miter;stroke-opacity:1" d="M 576.308,652.615 570.154,641.538 z" id="boundary" inkscape:connector-curvature="0" />
	<path style="fill:none;stroke:red;stroke-width:1px;stroke-linecap:butt;stroke-linejoin:miter;stroke-opacity:1" d="M 570.154,641.538 564,630.462 z" id="boundary" inkscape:connector-curvature="0" />
	<path style="fill:none;stroke:red;stroke-width:1px;stroke-linecap:butt;stroke-linejoin:miter;stroke-opacity:1" d="M 564,630.462 555.385,620.615 z" id="boundary" inkscape:connector-curvature="0" />
	<path style="fill:none;stroke:red;stroke-width:1px;stroke-linecap:butt;stroke-linejoin:miter;stroke-opacity:1" d="M 555.385,620.615 546.769,610.769 z" id="boundary" inkscape:connector-curvature="0" />
	<path style="fill:none;stroke:red;stroke-width:1px;stroke-linecap:butt;stroke-linejoin:miter;stroke-opacity:1" d="M 546.769,610.769 536.923,602.154 z" id="boundary" inkscape:connector-curvature="0" />
	<path style="fill:none;stroke:red;stroke-width:1px;stroke-linecap:butt;stroke-linejoin:miter;stroke-opacity:1" d="M 536.923,602.154 533.231,589.846 z" id="boundary" inkscape:connector-curvature="0" />
	<path style="fill:none;stroke:red;stroke-width:1px;stroke-linecap:butt;stroke-linejoin:miter;stroke-opacity:1" d="M 533.231,589.846 522.154,583.692 z" id="boundary" inkscape:connector-curvature="0" />
	<path style="fill:none;stroke:red;stroke-width:1px;stroke-linecap:butt;stroke-linejoin:miter;stroke-opacity:1" d="M 522.154,583.692 509.846,583.692 z" id="boundary" inkscape:connector-curvature="0" />
	<path style="fill:none;stroke:red;stroke-width:1px;stroke-linecap:butt;stroke-linejoin:miter;stroke-opacity:1" d="M 509.846,583.692 497.538,583.692 z" id="boundary" inkscape:connector-curvature="0" />
	<path style="fill:none;stroke:red;stroke-width:1px;stroke-linecap:butt;stroke-linejoin:miter;stroke-opacity:1" d="M 497.538,583.692 491.385,596 z" id="boundary" inkscape:connector-curvature="0" />
	<path style="fill:none;stroke:red;stroke-width:1px;stroke-linecap:butt;stroke-linejoin:miter;stroke-opacity:1" d="M 491.385,596 491.385,608.308 z" id="boundary" inkscape:connector-curvature="0" />
	<path style="fill:none;stroke:red;stroke-width:1px;stroke-linecap:butt;stroke-linejoin:miter;stroke-opacity:1" d="M 491.385,608.308 491.385,620.615 z" id="boundary" inkscape:connector-curvature="0" />
	<path style="fill:none;stroke:red;stroke-width:1px;stroke-linecap:butt;stroke-linejoin:miter;stroke-opacity:1" d="M 491.385,620.615 491.385,632.923 z" id="boundary" inkscape:connector-curvature="0" />
	<path style="fill:none;stroke:red;stroke-width:1px;stroke-linecap:butt;stroke-linejoin:miter;stroke-opacity:1" d="M 491.385,632.923 491.385,645.231 z" id="boundary" inkscape:connector-curvature="0" />
	<path style="fill:none;stroke:red;stroke-width:1px;stroke-linecap:butt;stroke-linejoin:miter;stroke-opacity:1" d="M 491.385,645.231 491.385,657.538 z" id="boundary" inkscape:connector-curvature="0" />
	<path style="fill:none;stroke:red;stroke-width:1px;stroke-linecap:butt;stroke-linejoin:miter;stroke-opacity:1" d="M 491.385,657.538 491.385,669.846 z" id="boundary" inkscape:connector-curvature="0" />
	<path style="fill:none;stroke:red;stroke-width:1px;stroke-linecap:butt;stroke-linejoin:miter;stroke-opacity:1" d="M 491.385,669.846 493.846,682.154 z" id="boundary" inkscape:connector-curvature="0" />
	<path style="fill:none;stroke:red;stroke-width:1px;stroke-linecap:butt;stroke-linejoin:miter;stroke-opacity:1" d="M 493.846,682.154 497.538,694.462 z" id="boundary" inkscape:connector-curvature="0" />
	<path style="fill:none;stroke:red;stroke-width:1px;stroke-linecap:butt;stroke-linejoin:miter;stroke-opacity:1" d="M 497.538,694.462 503.692,705.538 z" id="boundary" inkscape:connector-curvature="0" />
	<path style="fill:none;stroke:red;stroke-width:1px;stroke-linecap:butt;stroke-linejoin:miter;stroke-opacity:1" d="M 503.692,705.538 503.692,717.846 z" id="boundary" inkscape:connector-curvature="0" />
	<path style="fill:none;stroke:red;stroke-width:1px;stroke-linecap:butt;stroke-linejoin:miter;stroke-opacity:1" d="M 503.692,717.846 503.692,730.154 z" id="boundary" inkscape:connector-curvature="0" />
	<path style="fill:none;stroke:red;stroke-width:1px;stroke-linecap:butt;stroke-linejoin:miter;stroke-opacity:1" d="M 503.692,730.154 503.692,742.462 z" id="boundary" inkscape:connector-curvature="0" />
	<path style="fill:none;stroke:red;stroke-width:1px;stroke-linecap:butt;stroke-linejoin:miter;stroke-opacity:1" d="M 503.692,742.462 497.538,756 z" id="boundary" inkscape:connector-curvature="0" />
	<path style="fill:none;stroke:red;stroke-width:1px;stroke-linecap:butt;stroke-linejoin:miter;stroke-opacity:1" d="M 497.538,756 491.385,768.308 z" id="boundary" inkscape:connector-curvature="0" />
	<path style="fill:none;stroke:red;stroke-width:1px;stroke-linecap:butt;stroke-linejoin:miter;stroke-opacity:1" d="M 491.385,768.308 491.385,780.615 z" id="boundary" inkscape:connector-curvature="0" />
	<path style="fill:none;stroke:red;stroke-width:1px;stroke-linecap:butt;stroke-linejoin:miter;stroke-opacity:1" d="M 491.385,780.615 491.385,792.923 z" id="boundary" inkscape:connector-curvature="0" />
	<path style="fill:none;stroke:red;stroke-width:1px;stroke-linecap:butt;stroke-linejoin:miter;stroke-opacity:1" d="M 491.385,792.923 491.385,805.231 z" id="boundary" inkscape:connector-curvature="0" />
	<path style="fill:none;stroke:red;stroke-width:1px;stroke-linecap:butt;stroke-linejoin:miter;stroke-opacity:1" d="M 491.385,805.231 485.231,823.692 z" id="boundary" inkscape:connector-curvature="0" />
	<path style="fill:none;stroke:red;stroke-width:1px;stroke-linecap:butt;stroke-linejoin:miter;stroke-opacity:1" d="M 485.231,823.692 485.231,836 z" id="boundary" inkscape:connector-curvature="0" />
	<path style="fill:none;stroke:red;stroke-width:1px;stroke-linecap:butt;stroke-linejoin:miter;stroke-opacity:1" d="M 485.231,836 479.077,848.308 z" id="boundary" inkscape:connector-curvature="0" />
	<path style="fill:none;stroke:red;stroke-width:1px;stroke-linecap:butt;stroke-linejoin:miter;stroke-opacity:1" d="M 479.077,848.308 472.923,860.615 z" id="boundary" inkscape:connector-curvature="0" />
	<path style="fill:none;stroke:red;stroke-width:1px;stroke-linecap:butt;stroke-linejoin:miter;stroke-opacity:1" d="M 472.923,860.615 472.923,872.923 z" id="boundary" inkscape:connector-curvature="0" />
	<path style="fill:none;stroke:red;stroke-width:1px;stroke-linecap:butt;stroke-linejoin:miter;stroke-opacity:1" d="M 472.923,872.923 470.462,888.923 z" id="boundary" inkscape:connector-curvature="0" />
	<path style="fill:none;stroke:red;stroke-width:1px;stroke-linecap:butt;stroke-linejoin:miter;stroke-opacity:1" d="M 470.462,888.923 460.615,897.538 z" id="boundary" inkscape:connector-curvature="0" />
	<path style="fill:none;stroke:red;stroke-width:1px;stroke-linecap:butt;stroke-linejoin:miter;stroke-opacity:1" d="M 460.615,897.538 454.462,916 z" id="boundary" inkscape:connector-curvature="0" />
	<path style="fill:none;stroke:red;stroke-width:1px;stroke-linecap:butt;stroke-linejoin:miter;stroke-opacity:1" d="M 454.462,916 454.462,928.308 z" id="boundary" inkscape:connector-curvature="0" />
	<path style="fill:none;stroke:red;stroke-width:1px;stroke-linecap:butt;stroke-linejoin:miter;stroke-opacity:1" d="M 454.462,928.308 460.615,939.385 z" id="boundary" inkscape:connector-curvature="0" />
	<path style="fill:none;stroke:red;stroke-width:1px;stroke-linecap:butt;stroke-linejoin:miter;stroke-opacity:1" d="M 460.615,939.385 466.769,950.462 z" id="boundary" inkscape:connector-curvature="0" />
	<path style="fill:none;stroke:red;stroke-width:1px;stroke-linecap:butt;stroke-linejoin:miter;stroke-opacity:1" d="M 466.769,950.462 469.231,970.154 z" id="boundary" inkscape:connector-curvature="0" />
	<path style="fill:none;stroke:red;stroke-width:1px;stroke-linecap:butt;stroke-linejoin:miter;stroke-opacity:1" d="M 469.231,970.154 456.923,976.308 z" id="boundary" inkscape:connector-curvature="0" />
	<path style="fill:none;stroke:red;stroke-width:1px;stroke-linecap:butt;stroke-linejoin:miter;stroke-opacity:1" d="M 456.923,976.308 447.077,983.692 z" id="boundary" inkscape:connector-curvature="0" />
	<path style="fill:none;stroke:red;stroke-width:1px;stroke-linecap:butt;stroke-linejoin:miter;stroke-opacity:1" d="M 447.077,983.692 434.769,986.154 z" id="boundary" inkscape:connector-curvature="0" />
	<path style="fill:none;stroke:red;stroke-width:1px;stroke-linecap:butt;stroke-linejoin:miter;stroke-opacity:1" d="M 434.769,986.154 422.462,989.846 z" id="boundary" inkscape:connector-curvature="0" />
	<path style="fill:none;stroke:red;stroke-width:1px;stroke-linecap:butt;stroke-linejoin:miter;stroke-opacity:1" d="M 422.462,989.846 410.154,989.846 z" id="boundary" inkscape:connector-curvature="0" />
	<path style="fill:none;stroke:red;stroke-width:1px;stroke-linecap:butt;stroke-linejoin:miter;stroke-opacity:1" d="M 410.154,989.846 399.077,996 z" id="boundary" inkscape:connector-curvature="0" />
	<path style="fill:none;stroke:red;stroke-width:1px;stroke-linecap:butt;stroke-linejoin:miter;stroke-opacity:1" d="M 399.077,996 391.692,986.154 z" id="boundary" inkscape:connector-curvature="0" />
	<path style="fill:none;stroke:red;stroke-width:1px;stroke-linecap:butt;stroke-linejoin:miter;stroke-opacity:1" d="M 391.692,986.154 401.538,977.538 z" id="boundary" inkscape:connector-curvature="0" />
	<path style="fill:none;stroke:red;stroke-width:1px;stroke-linecap:butt;stroke-linejoin:miter;stroke-opacity:1" d="M 401.538,977.538 410.154,965.231 z" id="boundary" inkscape:connector-curvature="0" />
	<path style="fill:none;stroke:red;stroke-width:1px;stroke-linecap:butt;stroke-linejoin:miter;stroke-opacity:1" d="M 410.154,965.231 397.846,965.231 z" id="boundary" inkscape:connector-curvature="0" />
	<path style="fill:none;stroke:red;stroke-width:1px;stroke-linecap:butt;stroke-linejoin:miter;stroke-opacity:1" d="M 397.846,965.231 385.538,965.231 z" id="boundary" inkscape:connector-curvature="0" />
	<path style="fill:none;stroke:red;stroke-width:1px;stroke-linecap:butt;stroke-linejoin:miter;stroke-opacity:1" d="M 385.538,965.231 373.231,965.231 z" id="boundary" inkscape:connector-curvature="0" />
	<path style="fill:none;stroke:red;stroke-width:1px;stroke-linecap:butt;stroke-linejoin:miter;stroke-opacity:1" d="M 373.231,965.231 360.923,961.538 z" id="boundary" inkscape:connector-curvature="0" />
	<path style="fill:none;stroke:red;stroke-width:1px;stroke-linecap:butt;stroke-linejoin:miter;stroke-opacity:1" d="M 360.923,961.538 370.769,951.692 z" id="boundary" inkscape:connector-curvature="0" />
	<path style="fill:none;stroke:red;stroke-width:1px;stroke-linecap:butt;stroke-linejoin:miter;stroke-opacity:1" d="M 370.769,951.692 381.846,945.538 z" id="boundary" inkscape:connector-curvature="0" />
	<path style="fill:none;stroke:red;stroke-width:1px;stroke-linecap:butt;stroke-linejoin:miter;stroke-opacity:1" d="M 381.846,945.538 394.154,940.615 z" id="boundary" inkscape:connector-curvature="0" />
	<path style="fill:none;stroke:red;stroke-width:1px;stroke-linecap:butt;stroke-linejoin:miter;stroke-opacity:1" d="M 394.154,940.615 406.462,939.385 z" id="boundary" inkscape:connector-curvature="0" />
	<path style="fill:none;stroke:red;stroke-width:1px;stroke-linecap:butt;stroke-linejoin:miter;stroke-opacity:1" d="M 406.462,939.385 417.538,933.231 z" id="boundary" inkscape:connector-curvature="0" />
	<path style="fill:none;stroke:red;stroke-width:1px;stroke-linecap:butt;stroke-linejoin:miter;stroke-opacity:1" d="M 417.538,933.231 429.846,933.231 z" id="boundary" inkscape:connector-curvature="0" />
	<path style="fill:none;stroke:red;stroke-width:1px;stroke-linecap:butt;stroke-linejoin:miter;stroke-opacity:1" d="M 429.846,933.231 437.231,922.154 z" id="boundary" inkscape:connector-curvature="0" />
	<path style="fill:none;stroke:red;stroke-width:1px;stroke-linecap:butt;stroke-linejoin:miter;stroke-opacity:1" d="M 437.231,922.154 440.923,900 z" id="boundary" inkscape:connector-curvature="0" />
	<path style="fill:none;stroke:red;stroke-width:1px;stroke-linecap:butt;stroke-linejoin:miter;stroke-opacity:1" d="M 440.923,900 447.077,881.538 z" id="boundary" inkscape:connector-curvature="0" />
	<path style="fill:none;stroke:red;stroke-width:1px;stroke-linecap:butt;stroke-linejoin:miter;stroke-opacity:1" d="M 447.077,881.538 453.231,869.231 z" id="boundary" inkscape:connector-curvature="0" />
	<path style="fill:none;stroke:red;stroke-width:1px;stroke-linecap:butt;stroke-linejoin:miter;stroke-opacity:1" d="M 453.231,869.231 453.231,856.923 z" id="boundary" inkscape:connector-curvature="0" />
	<path style="fill:none;stroke:red;stroke-width:1px;stroke-linecap:butt;stroke-linejoin:miter;stroke-opacity:1" d="M 453.231,856.923 459.385,838.462 z" id="boundary" inkscape:connector-curvature="0" />
	<path style="fill:none;stroke:red;stroke-width:1px;stroke-linecap:butt;stroke-linejoin:miter;stroke-opacity:1" d="M 459.385,838.462 465.538,820 z" id="boundary" inkscape:connector-curvature="0" />
	<path style="fill:none;stroke:red;stroke-width:1px;stroke-linecap:butt;stroke-linejoin:miter;stroke-opacity:1" d="M 465.538,820 471.692,807.692 z" id="boundary" inkscape:connector-curvature="0" />
	<path style="fill:none;stroke:red;stroke-width:1px;stroke-linecap:butt;stroke-linejoin:miter;stroke-opacity:1" d="M 471.692,807.692 471.692,795.385 z" id="boundary" inkscape:connector-curvature="0" />
	<path style="fill:none;stroke:red;stroke-width:1px;stroke-linecap:butt;stroke-linejoin:miter;stroke-opacity:1" d="M 471.692,795.385 471.692,783.077 z" id="boundary" inkscape:connector-curvature="0" />
	<path style="fill:none;stroke:red;stroke-width:1px;stroke-linecap:butt;stroke-linejoin:miter;stroke-opacity:1" d="M 471.692,783.077 471.692,770.769 z" id="boundary" inkscape:connector-curvature="0" />
	<path style="fill:none;stroke:red;stroke-width:1px;stroke-linecap:butt;stroke-linejoin:miter;stroke-opacity:1" d="M 471.692,770.769 471.692,758.462 z" id="boundary" inkscape:connector-curvature="0" />
	<path style="fill:none;stroke:red;stroke-width:1px;stroke-linecap:butt;stroke-linejoin:miter;stroke-opacity:1" d="M 471.692,758.462 477.846,746.154 z" id="boundary" inkscape:connector-curvature="0" />
	<path style="fill:none;stroke:red;stroke-width:1px;stroke-linecap:butt;stroke-linejoin:miter;stroke-opacity:1" d="M 477.846,746.154 484,725.231 z" id="boundary" inkscape:connector-curvature="0" />
	<path style="fill:none;stroke:red;stroke-width:1px;stroke-linecap:butt;stroke-linejoin:miter;stroke-opacity:1" d="M 484,725.231 481.538,712.923 z" id="boundary" inkscape:connector-curvature="0" />
	<path style="fill:none;stroke:red;stroke-width:1px;stroke-linecap:butt;stroke-linejoin:miter;stroke-opacity:1" d="M 481.538,712.923 477.846,700.615 z" id="boundary" inkscape:connector-curvature="0" />
	<path style="fill:none;stroke:red;stroke-width:1px;stroke-linecap:butt;stroke-linejoin:miter;stroke-opacity:1" d="M 477.846,700.615 475.385,688.308 z" id="boundary" inkscape:connector-curvature="0" />
	<path style="fill:none;stroke:red;stroke-width:1px;stroke-linecap:butt;stroke-linejoin:miter;stroke-opacity:1" d="M 475.385,688.308 471.692,676 z" id="boundary" inkscape:connector-curvature="0" />
	<path style="fill:none;stroke:red;stroke-width:1px;stroke-linecap:butt;stroke-linejoin:miter;stroke-opacity:1" d="M 471.692,676 471.692,663.692 z" id="boundary" inkscape:connector-curvature="0" />
	<path style="fill:none;stroke:red;stroke-width:1px;stroke-linecap:butt;stroke-linejoin:miter;stroke-opacity:1" d="M 471.692,663.692 471.692,651.385 z" id="boundary" inkscape:connector-curvature="0" />
	<path style="fill:none;stroke:red;stroke-width:1px;stroke-linecap:butt;stroke-linejoin:miter;stroke-opacity:1" d="M 471.692,651.385 471.692,639.077 z" id="boundary" inkscape:connector-curvature="0" />
	<path style="fill:none;stroke:red;stroke-width:1px;stroke-linecap:butt;stroke-linejoin:miter;stroke-opacity:1" d="M 471.692,639.077 465.538,628 z" id="boundary" inkscape:connector-curvature="0" />
	<path style="fill:none;stroke:red;stroke-width:1px;stroke-linecap:butt;stroke-linejoin:miter;stroke-opacity:1" d="M 465.538,628 459.385,616.923 z" id="boundary" inkscape:connector-curvature="0" />
	<path style="fill:none;stroke:red;stroke-width:1px;stroke-linecap:butt;stroke-linejoin:miter;stroke-opacity:1" d="M 459.385,616.923 459.385,604.615 z" id="boundary" inkscape:connector-curvature="0" />
	<path style="fill:none;stroke:red;stroke-width:1px;stroke-linecap:butt;stroke-linejoin:miter;stroke-opacity:1" d="M 459.385,604.615 454.462,592.308 z" id="boundary" inkscape:connector-curvature="0" />
	<path style="fill:none;stroke:red;stroke-width:1px;stroke-linecap:butt;stroke-linejoin:miter;stroke-opacity:1" d="M 454.462,592.308 444.615,583.692 z" id="boundary" inkscape:connector-curvature="0" />
	<path style="fill:none;stroke:red;stroke-width:1px;stroke-linecap:butt;stroke-linejoin:miter;stroke-opacity:1" d="M 444.615,583.692 433.538,577.538 z" id="boundary" inkscape:connector-curvature="0" />
	<path style="fill:none;stroke:red;stroke-width:1px;stroke-linecap:butt;stroke-linejoin:miter;stroke-opacity:1" d="M 433.538,577.538 422.462,571.385 z" id="boundary" inkscape:connector-curvature="0" />
	<path style="fill:none;stroke:red;stroke-width:1px;stroke-linecap:butt;stroke-linejoin:miter;stroke-opacity:1" d="M 422.462,571.385 410.154,571.385 z" id="boundary" inkscape:connector-curvature="0" />
	<path style="fill:none;stroke:red;stroke-width:1px;stroke-linecap:butt;stroke-linejoin:miter;stroke-opacity:1" d="M 410.154,571.385 399.077,565.231 z" id="boundary" inkscape:connector-curvature="0" />
	<path style="fill:none;stroke:red;stroke-width:1px;stroke-linecap:butt;stroke-linejoin:miter;stroke-opacity:1" d="M 399.077,565.231 388,559.077 z" id="boundary" inkscape:connector-curvature="0" />
	<path style="fill:none;stroke:red;stroke-width:1px;stroke-linecap:butt;stroke-linejoin:miter;stroke-opacity:1" d="M 388,559.077 376.923,552.923 z" id="boundary" inkscape:connector-curvature="0" />
	<path style="fill:none;stroke:red;stroke-width:1px;stroke-linecap:butt;stroke-linejoin:miter;stroke-opacity:1" d="M 376.923,552.923 364.615,551.692 z" id="boundary" inkscape:connector-curvature="0" />
	<path style="fill:none;stroke:red;stroke-width:1px;stroke-linecap:butt;stroke-linejoin:miter;stroke-opacity:1" d="M 364.615,551.692 352.308,546.769 z" id="boundary" inkscape:connector-curvature="0" />
	<path style="fill:none;stroke:red;stroke-width:1px;stroke-linecap:butt;stroke-linejoin:miter;stroke-opacity:1" d="M 352.308,546.769 341.231,540.615 z" id="boundary" inkscape:connector-curvature="0" />
	<path style="fill:none;stroke:red;stroke-width:1px;stroke-linecap:butt;stroke-linejoin:miter;stroke-opacity:1" d="M 341.231,540.615 328.923,540.615 z" id="boundary" inkscape:connector-curvature="0" />
	<path style="fill:none;stroke:red;stroke-width:1px;stroke-linecap:butt;stroke-linejoin:miter;stroke-opacity:1" d="M 328.923,540.615 317.846,534.462 z" id="boundary" inkscape:connector-curvature="0" />
	<path style="fill:none;stroke:red;stroke-width:1px;stroke-linecap:butt;stroke-linejoin:miter;stroke-opacity:1" d="M 317.846,534.462 306.769,528.308 z" id="boundary" inkscape:connector-curvature="0" />
	<path style="fill:none;stroke:red;stroke-width:1px;stroke-linecap:butt;stroke-linejoin:miter;stroke-opacity:1" d="M 306.769,528.308 294.462,524.615 z" id="boundary" inkscape:connector-curvature="0" />
	<path style="fill:none;stroke:red;stroke-width:1px;stroke-linecap:butt;stroke-linejoin:miter;stroke-opacity:1" d="M 294.462,524.615 284.615,516 z" id="boundary" inkscape:connector-curvature="0" />
	<path style="fill:none;stroke:red;stroke-width:1px;stroke-linecap:butt;stroke-linejoin:miter;stroke-opacity:1" d="M 284.615,516 272.308,514.769 z" id="boundary" inkscape:connector-curvature="0" />
	<path style="fill:none;stroke:red;stroke-width:1px;stroke-linecap:butt;stroke-linejoin:miter;stroke-opacity:1" d="M 272.308,514.769 260,509.846 z" id="boundary" inkscape:connector-curvature="0" />
	<path style="fill:none;stroke:red;stroke-width:1px;stroke-linecap:butt;stroke-linejoin:miter;stroke-opacity:1" d="M 260,509.846 251.385,500 z" id="boundary" inkscape:connector-curvature="0" />
	<path style="fill:none;stroke:red;stroke-width:1px;stroke-linecap:butt;stroke-linejoin:miter;stroke-opacity:1" d="M 251.385,500 241.538,491.385 z" id="boundary" inkscape:connector-curvature="0" />
	<path style="fill:none;stroke:red;stroke-width:1px;stroke-linecap:butt;stroke-linejoin:miter;stroke-opacity:1" d="M 241.538,491.385 237.846,479.077 z" id="boundary" inkscape:connector-curvature="0" />
	<path style="fill:none;stroke:red;stroke-width:1px;stroke-linecap:butt;stroke-linejoin:miter;stroke-opacity:1" d="M 237.846,479.077 231.692,468 z" id="boundary" inkscape:connector-curvature="0" />
	<path style="fill:none;stroke:red;stroke-width:1px;stroke-linecap:butt;stroke-linejoin:miter;stroke-opacity:1" d="M 231.692,468 225.538,456.923 z" id="boundary" inkscape:connector-curvature="0" />
	<path style="fill:none;stroke:red;stroke-width:1px;stroke-linecap:butt;stroke-linejoin:miter;stroke-opacity:1" d="M 225.538,456.923 219.385,445.846 z" id="boundary" inkscape:connector-curvature="0" />
	<path style="fill:none;stroke:red;stroke-width:1px;stroke-linecap:butt;stroke-linejoin:miter;stroke-opacity:1" d="M 219.385,445.846 214.462,433.538 z" id="boundary" inkscape:connector-curvature="0" />
	<path style="fill:none;stroke:red;stroke-width:1px;stroke-linecap:butt;stroke-linejoin:miter;stroke-opacity:1" d="M 214.462,433.538 213.231,421.231 z" id="boundary" inkscape:connector-curvature="0" />
	<path style="fill:none;stroke:red;stroke-width:1px;stroke-linecap:butt;stroke-linejoin:miter;stroke-opacity:1" d="M 213.231,421.231 207.077,410.154 z" id="boundary" inkscape:connector-curvature="0" />
	<path style="fill:none;stroke:red;stroke-width:1px;stroke-linecap:butt;stroke-linejoin:miter;stroke-opacity:1" d="M 207.077,410.154 200.923,399.077 z" id="boundary" inkscape:connector-curvature="0" />
	<path style="fill:none;stroke:red;stroke-width:1px;stroke-linecap:butt;stroke-linejoin:miter;stroke-opacity:1" d="M 200.923,399.077 200.923,386.769 z" id="boundary" inkscape:connector-curvature="0" />
	<path style="fill:none;stroke:red;stroke-width:1px;stroke-linecap:butt;stroke-linejoin:miter;stroke-opacity:1" d="M 200.923,386.769 191.077,378.154 z" id="boundary" inkscape:connector-curvature="0" />
	<path style="fill:none;stroke:red;stroke-width:1px;stroke-linecap:butt;stroke-linejoin:miter;stroke-opacity:1" d="M 191.077,378.154 184.923,367.077 z" id="boundary" inkscape:connector-curvature="0" />
	<path style="fill:none;stroke:red;stroke-width:1px;stroke-linecap:butt;stroke-linejoin:miter;stroke-opacity:1" d="M 184.923,367.077 182.462,354.769 z" id="boundary" inkscape:connector-curvature="0" />
	<path style="fill:none;stroke:red;stroke-width:1px;stroke-linecap:butt;stroke-linejoin:miter;stroke-opacity:1" d="M 182.462,354.769 176.308,343.692 z" id="boundary" inkscape:connector-curvature="0" />
	<path style="fill:none;stroke:red;stroke-width:1px;stroke-linecap:butt;stroke-linejoin:miter;stroke-opacity:1" d="M 176.308,343.692 170.154,332.615 z" id="boundary" inkscape:connector-curvature="0" />
	<path style="fill:none;stroke:red;stroke-width:1px;stroke-linecap:butt;stroke-linejoin:miter;stroke-opacity:1" d="M 170.154,332.615 170.154,320.308 z" id="boundary" inkscape:connector-curvature="0" />
	<path style="fill:none;stroke:red;stroke-width:1px;stroke-linecap:butt;stroke-linejoin:miter;stroke-opacity:1" d="M 170.154,320.308 170.154,308 z" id="boundary" inkscape:connector-curvature="0" />
	<path style="fill:none;stroke:red;stroke-width:1px;stroke-linecap:butt;stroke-linejoin:miter;stroke-opacity:1" d="M 170.154,308 170.154,295.692 z" id="boundary" inkscape:connector-curvature="0" />
	<path style="fill:none;stroke:red;stroke-width:1px;stroke-linecap:butt;stroke-linejoin:miter;stroke-opacity:1" d="M 170.154,295.692 164,284.615 z" id="boundary" inkscape:connector-curvature="0" />
	<path style="fill:none;stroke:red;stroke-width:1px;stroke-linecap:butt;stroke-linejoin:miter;stroke-opacity:1" d="M 164,284.615 164,272.308 z" id="boundary" inkscape:connector-curvature="0" />
	<path style="fill:none;stroke:red;stroke-width:1px;stroke-linecap:butt;stroke-linejoin:miter;stroke-opacity:1" d="M 164,272.308 164,260 z" id="boundary" inkscape:connector-curvature="0" />
	<path style="fill:none;stroke:red;stroke-width:1px;stroke-linecap:butt;stroke-linejoin:miter;stroke-opacity:1" d="M 164,260 164,247.692 z" id="boundary" inkscape:connector-curvature="0" />
	<path style="fill:none;stroke:red;stroke-width:1px;stroke-linecap:butt;stroke-linejoin:miter;stroke-opacity:1" d="M 164,247.692 164,235.385 z" id="boundary" inkscape:connector-curvature="0" />
	<path style="fill:none;stroke:red;stroke-width:1px;stroke-linecap:butt;stroke-linejoin:miter;stroke-opacity:1" d="M 164,235.385 170.154,223.077 z" id="boundary" inkscape:connector-curvature="0" />
	<path style="fill:none;stroke:red;stroke-width:1px;stroke-linecap:butt;stroke-linejoin:miter;stroke-opacity:1" d="M 170.154,223.077 176.308,210.769 z" id="boundary" inkscape:connector-curvature="0" />
	<path style="fill:none;stroke:red;stroke-width:1px;stroke-linecap:butt;stroke-linejoin:miter;stroke-opacity:1" d="M 176.308,210.769 182.462,192.308 z" id="boundary" inkscape:connector-curvature="0" />
	<path style="fill:none;stroke:red;stroke-width:1px;stroke-linecap:butt;stroke-linejoin:miter;stroke-opacity:1" d="M 182.462,192.308 188.615,172.615 z" id="boundary" inkscape:connector-curvature="0" />
	<path style="fill:none;stroke:red;stroke-width:1px;stroke-linecap:butt;stroke-linejoin:miter;stroke-opacity:1" d="M 188.615,172.615 188.615,160.308 z" id="boundary" inkscape:connector-curvature="0" />
	<path style="fill:none;stroke:red;stroke-width:1px;stroke-linecap:butt;stroke-linejoin:miter;stroke-opacity:1" d="M 188.615,160.308 188.615,148 z" id="boundary" inkscape:connector-curvature="0" />
	<path style="fill:none;stroke:red;stroke-width:1px;stroke-linecap:butt;stroke-linejoin:miter;stroke-opacity:1" d="M 188.615,148 188.615,135.692 z" id="boundary" inkscape:connector-curvature="0" />
	<path style="fill:none;stroke:red;stroke-width:1px;stroke-linecap:butt;stroke-linejoin:miter;stroke-opacity:1" d="M 188.615,135.692 188.615,123.385 z" id="boundary" inkscape:connector-curvature="0" />
	<path style="fill:none;stroke:red;stroke-width:1px;stroke-linecap:butt;stroke-linejoin:miter;stroke-opacity:1" d="M 188.615,123.385 182.462,112.308 z" id="boundary" inkscape:connector-curvature="0" />
	<path style="fill:none;stroke:red;stroke-width:1px;stroke-linecap:butt;stroke-linejoin:miter;stroke-opacity:1" d="M 182.462,112.308 177.538,100 z" id="boundary" inkscape:connector-curvature="0" />
	<path style="fill:none;stroke:red;stroke-width:1px;stroke-linecap:butt;stroke-linejoin:miter;stroke-opacity:1" d="M 177.538,100 167.692,91.3846 z" id="boundary" inkscape:connector-curvature="0" />
	<path style="fill:none;stroke:red;stroke-width:1px;stroke-linecap:butt;stroke-linejoin:miter;stroke-opacity:1" d="M 167.692,91.3846 155.385,91.3846 z" id="boundary" inkscape:connector-curvature="0" />
	<path style="fill:none;stroke:red;stroke-width:1px;stroke-linecap:butt;stroke-linejoin:miter;stroke-opacity:1" d="M 155.385,91.3846 144.308,85.2308 z" id="boundary" inkscape:connector-curvature="0" />
	<path style="fill:none;stroke:red;stroke-width:1px;stroke-linecap:butt;stroke-linejoin:miter;stroke-opacity:1" d="M 144.308,85.2308 132,85.2308 z" id="boundary" inkscape:connector-curvature="0" />
	<path style="fill:none;stroke:red;stroke-width:1px;stroke-linecap:butt;stroke-linejoin:miter;stroke-opacity:1" d="M 132,85.2308 120.923,79.0769 z" id="boundary" inkscape:connector-curvature="0" />
	<path style="fill:none;stroke:red;stroke-width:1px;stroke-linecap:butt;stroke-linejoin:miter;stroke-opacity:1" d="M 120.923,79.0769 109.846,72.9231 z" id="boundary" inkscape:connector-curvature="0" />
	<path style="fill:none;stroke:red;stroke-width:1px;stroke-linecap:butt;stroke-linejoin:miter;stroke-opacity:1" d="M 109.846,72.9231 97.5385,72.9231 z" id="boundary" inkscape:connector-curvature="0" />
	<path style="fill:none;stroke:red;stroke-width:1px;stroke-linecap:butt;stroke-linejoin:miter;stroke-opacity:1" d="M 97.5385,72.9231 85.2308,72.9231 z" id="boundary" inkscape:connector-curvature="0" />
	<path style="fill:none;stroke:red;stroke-width:1px;stroke-linecap:butt;stroke-linejoin:miter;stroke-opacity:1" d="M 85.2308,72.9231 72.9231,72.9231 z" id="boundary" inkscape:connector-curvature="0" />
	<path style="fill:none;stroke:red;stroke-width:1px;stroke-linecap:butt;stroke-linejoin:miter;stroke-opacity:1" d="M 72.9231,72.9231 60.6154,72.9231 z" id="boundary" inkscape:connector-curvature="0" />
	<path style="fill:none;stroke:red;stroke-width:1px;stroke-linecap:butt;stroke-linejoin:miter;stroke-opacity:1" d="M 60.6154,72.9231 48.3077,72.9231 z" id="boundary" inkscape:connector-curvature="0" />
	<path style="fill:none;stroke:red;stroke-width:1px;stroke-linecap:butt;stroke-linejoin:miter;stroke-opacity:1" d="M 48.3077,72.9231 36,72.9231 z" id="boundary" inkscape:connector-curvature="0" />
	<path style="fill:none;stroke:red;stroke-width:1px;stroke-linecap:butt;stroke-linejoin:miter;stroke-opacity:1" d="M 36,72.9231 23.6923,72.9231 z" id="boundary" inkscape:connector-curvature="0" />
	<path style="fill:none;stroke:red;stroke-width:1px;stroke-linecap:butt;stroke-linejoin:miter;stroke-opacity:1" d="M 23.6923,72.9231 11.3846,72.9231 z" id="boundary" inkscape:connector-curvature="0" />
	<path style="fill:none;stroke:red;stroke-width:1px;stroke-linecap:butt;stroke-linejoin:miter;stroke-opacity:1" d="M 11.3846,72.9231 4,63.0769 z" id="boundary" inkscape:connector-curvature="0" />
	<path style="fill:none;stroke:red;stroke-width:1px;stroke-linecap:butt;stroke-linejoin:miter;stroke-opacity:1" d="M 4,63.0769 16.3077,56.9231 z" id="boundary" inkscape:connector-curvature="0" />
	<path style="fill:none;stroke:red;stroke-width:1px;stroke-linecap:butt;stroke-linejoin:miter;stroke-opacity:1" d="M 16.3077,56.9231 28.6154,53.2308 z" id="boundary" inkscape:connector-curvature="0" />
	<path style="fill:none;stroke:red;stroke-width:1px;stroke-linecap:butt;stroke-linejoin:miter;stroke-opacity:1" d="M 28.6154,53.2308 40.9231,53.2308 z" id="boundary" inkscape:connector-curvature="0" />
	<path style="fill:none;stroke:red;stroke-width:1px;stroke-linecap:butt;stroke-linejoin:miter;stroke-opacity:1" d="M 40.9231,53.2308 52,47.0769 z" id="boundary" inkscape:connector-curvature="0" />
	<path style="fill:none;stroke:red;stroke-width:1px;stroke-linecap:butt;stroke-linejoin:miter;stroke-opacity:1" d="M 52,47.0769 64.3077,47.0769 z" id="boundary" inkscape:connector-curvature="0" />
	<path style="fill:none;stroke:red;stroke-width:1px;stroke-linecap:butt;stroke-linejoin:miter;stroke-opacity:1" d="M 64.3077,47.0769 75.3846,40.9231 z" id="boundary" inkscape:connector-curvature="0" />
	<path style="fill:none;stroke:red;stroke-width:1px;stroke-linecap:butt;stroke-linejoin:miter;stroke-opacity:1" d="M 75.3846,40.9231 87.6923,40.9231 z" id="boundary" inkscape:connector-curvature="0" />
	<path style="fill:none;stroke:red;stroke-width:1px;stroke-linecap:butt;stroke-linejoin:miter;stroke-opacity:1" d="M 87.6923,40.9231 97.5385,31.0769 z" id="boundary" inkscape:connector-curvature="0" />
	<path style="fill:none;stroke:red;stroke-width:1px;stroke-linecap:butt;stroke-linejoin:miter;stroke-opacity:1" d="M 97.5385,31.0769 107.385,22.4615 z" id="boundary" inkscape:connector-curvature="0" />
	<path style="fill:none;stroke:red;stroke-width:1px;stroke-linecap:butt;stroke-linejoin:miter;stroke-opacity:1" d="M 107.385,22.4615 116,12.6154 z" id="boundary" inkscape:connector-curvature="0" />
	<path style="fill:none;stroke:red;stroke-width:1px;stroke-linecap:butt;stroke-linejoin:miter;stroke-opacity:1" d="M 116,12.6154 128.308,6.46154 z" id="boundary" inkscape:connector-curvature="0" />
	<path style="fill:none;stroke:red;stroke-width:1px;stroke-linecap:butt;stroke-linejoin:miter;stroke-opacity:1" d="M 128.308,6.46154 140.615,4 z" id="boundary" inkscape:connector-curvature="0" />
	<path style="fill:none;stroke:red;stroke-width:1px;stroke-linecap:butt;stroke-linejoin:miter;stroke-opacity:1" d="M 140.615,4 152.923,4 z" id="boundary" inkscape:connector-curvature="0" />
	<path style="fill:none;stroke:red;stroke-width:1px;stroke-linecap:butt;stroke-linejoin:miter;stroke-opacity:1" d="M 152.923,4 165.231,4 z" id="boundary" inkscape:connector-curvature="0" />
	<path style="fill:none;stroke:red;stroke-width:1px;stroke-linecap:butt;stroke-linejoin:miter;stroke-opacity:1" d="M 165.231,4 177.538,4 z" id="boundary" inkscape:connector-curvature="0" />
	<path style="fill:none;stroke:red;stroke-width:1px;stroke-linecap:butt;stroke-linejoin:miter;stroke-opacity:1" d="M 177.538,4 189.846,7.69231 z" id="boundary" inkscape:connector-curvature="0" />
	<path style="fill:none;stroke:red;stroke-width:1px;stroke-linecap:butt;stroke-linejoin:miter;stroke-opacity:1" d="M 189.846,7.69231 199.692,16.3077 z" id="boundary" inkscape:connector-curvature="0" />
	<path style="fill:none;stroke:red;stroke-width:1px;stroke-linecap:butt;stroke-linejoin:miter;stroke-opacity:1" d="M 199.692,16.3077 208.308,26.1538 z" id="boundary" inkscape:connector-curvature="0" />
	<path style="fill:none;stroke:red;stroke-width:1px;stroke-linecap:butt;stroke-linejoin:miter;stroke-opacity:1" d="M 208.308,26.1538 214.462,37.2308 z" id="boundary" inkscape:connector-curvature="0" />
	<path style="fill:none;stroke:red;stroke-width:1px;stroke-linecap:butt;stroke-linejoin:miter;stroke-opacity:1" d="M 214.462,37.2308 220.615,48.3077 z" id="boundary" inkscape:connector-curvature="0" />
	<path style="fill:none;stroke:red;stroke-width:1px;stroke-linecap:butt;stroke-linejoin:miter;stroke-opacity:1" d="M 220.615,48.3077 220.615,60.6154 z" id="boundary" inkscape:connector-curvature="0" />
	<path style="fill:none;stroke:red;stroke-width:1px;stroke-linecap:butt;stroke-linejoin:miter;stroke-opacity:1" d="M 220.615,60.6154 226.769,71.6923 z" id="boundary" inkscape:connector-curvature="0" />
	<path style="fill:none;stroke:red;stroke-width:1px;stroke-linecap:butt;stroke-linejoin:miter;stroke-opacity:1" d="M 226.769,71.6923 226.769,84 z" id="boundary" inkscape:connector-curvature="0" />
	<path style="fill:none;stroke:red;stroke-width:1px;stroke-linecap:butt;stroke-linejoin:miter;stroke-opacity:1" d="M 226.769,84 232.923,95.0769 z" id="boundary" inkscape:connector-curvature="0" />
	<path style="fill:none;stroke:red;stroke-width:1px;stroke-linecap:butt;stroke-linejoin:miter;stroke-opacity:1" d="M 232.923,95.0769 232.923,107.385 z" id="boundary" inkscape:connector-curvature="0" />
	<path style="fill:none;stroke:red;stroke-width:1px;stroke-linecap:butt;stroke-linejoin:miter;stroke-opacity:1" d="M 232.923,107.385 232.923,119.692 z" id="boundary" inkscape:connector-curvature="0" />
	<path style="fill:none;stroke:red;stroke-width:1px;stroke-linecap:butt;stroke-linejoin:miter;stroke-opacity:1" d="M 232.923,119.692 232.923,132 z" id="boundary" inkscape:connector-curvature="0" />
	<path style="fill:none;stroke:red;stroke-width:1px;stroke-linecap:butt;stroke-linejoin:miter;stroke-opacity:1" d="M 232.923,132 232.923,144.308 z" id="boundary" inkscape:connector-curvature="0" />
	<path style="fill:none;stroke:red;stroke-width:1px;stroke-linecap:butt;stroke-linejoin:miter;stroke-opacity:1" d="M 232.923,144.308 232.923,156.615 z" id="boundary" inkscape:connector-curvature="0" />
	<path style="fill:none;stroke:red;stroke-width:1px;stroke-linecap:butt;stroke-linejoin:miter;stroke-opacity:1" d="M 232.923,156.615 232.923,168.923 z" id="boundary" inkscape:connector-curvature="0" />
	<path style="fill:none;stroke:red;stroke-width:1px;stroke-linecap:butt;stroke-linejoin:miter;stroke-opacity:1" d="M 232.923,168.923 232.923,181.231 z" id="boundary" inkscape:connector-curvature="0" />
	<path style="fill:none;stroke:red;stroke-width:1px;stroke-linecap:butt;stroke-linejoin:miter;stroke-opacity:1" d="M 232.923,181.231 226.769,196 z" id="boundary" inkscape:connector-curvature="0" />
	<path style="fill:none;stroke:red;stroke-width:1px;stroke-linecap:butt;stroke-linejoin:miter;stroke-opacity:1" d="M 226.769,196 220.615,214.462 z" id="boundary" inkscape:connector-curvature="0" />
	<path style="fill:none;stroke:red;stroke-width:1px;stroke-linecap:butt;stroke-linejoin:miter;stroke-opacity:1" d="M 220.615,214.462 214.462,232.923 z" id="boundary" inkscape:connector-curvature="0" />
	<path style="fill:none;stroke:red;stroke-width:1px;stroke-linecap:butt;stroke-linejoin:miter;stroke-opacity:1" d="M 214.462,232.923 214.462,245.231 z" id="boundary" inkscape:connector-curvature="0" />
	<path style="fill:none;stroke:red;stroke-width:1px;stroke-linecap:butt;stroke-linejoin:miter;stroke-opacity:1" d="M 214.462,245.231 220.615,256.308 z" id="boundary" inkscape:connector-curvature="0" />
	<path style="fill:none;stroke:red;stroke-width:1px;stroke-linecap:butt;stroke-linejoin:miter;stroke-opacity:1" d="M 220.615,256.308 220.615,268.615 z" id="boundary" inkscape:connector-curvature="0" />
	<path style="fill:none;stroke:red;stroke-width:1px;stroke-linecap:butt;stroke-linejoin:miter;stroke-opacity:1" d="M 220.615,268.615 226.769,279.692 z" id="boundary" inkscape:connector-curvature="0" />
	<path style="fill:none;stroke:red;stroke-width:1px;stroke-linecap:butt;stroke-linejoin:miter;stroke-opacity:1" d="M 226.769,279.692 226.769,292 z" id="boundary" inkscape:connector-curvature="0" />
	<path style="fill:none;stroke:red;stroke-width:1px;stroke-linecap:butt;stroke-linejoin:miter;stroke-opacity:1" d="M 226.769,292 232.923,303.077 z" id="boundary" inkscape:connector-curvature="0" />
	<path style="fill:none;stroke:red;stroke-width:1px;stroke-linecap:butt;stroke-linejoin:miter;stroke-opacity:1" d="M 232.923,303.077 239.077,314.154 z" id="boundary" inkscape:connector-curvature="0" />
	<path style="fill:none;stroke:red;stroke-width:1px;stroke-linecap:butt;stroke-linejoin:miter;stroke-opacity:1" d="M 239.077,314.154 245.231,325.231 z" id="boundary" inkscape:connector-curvature="0" />
	<path style="fill:none;stroke:red;stroke-width:1px;stroke-linecap:butt;stroke-linejoin:miter;stroke-opacity:1" d="M 245.231,325.231 251.385,336.308 z" id="boundary" inkscape:connector-curvature="0" />
	<path style="fill:none;stroke:red;stroke-width:1px;stroke-linecap:butt;stroke-linejoin:miter;stroke-opacity:1" d="M 251.385,336.308 262.462,342.462 z" id="boundary" inkscape:connector-curvature="0" />
	<path style="fill:none;stroke:red;stroke-width:1px;stroke-linecap:butt;stroke-linejoin:miter;stroke-opacity:1" d="M 262.462,342.462 273.538,348.615 z" id="boundary" inkscape:connector-curvature="0" />
	<path style="fill:none;stroke:red;stroke-width:1px;stroke-linecap:butt;stroke-linejoin:miter;stroke-opacity:1" d="M 273.538,348.615 285.846,348.615 z" id="boundary" inkscape:connector-curvature="0" />
	<path style="fill:none;stroke:red;stroke-width:1px;stroke-linecap:butt;stroke-linejoin:miter;stroke-opacity:1" d="M 285.846,348.615 296.923,342.462 z" id="boundary" inkscape:connector-curvature="0" />
	<path style="fill:none;stroke:red;stroke-width:1px;stroke-linecap:butt;stroke-linejoin:miter;stroke-opacity:1" d="M 296.923,342.462 309.231,336.308 z" id="boundary" inkscape:connector-curvature="0" />
	<path style="fill:none;stroke:red;stroke-width:1px;stroke-linecap:butt;stroke-linejoin:miter;stroke-opacity:1" d="M 309.231,336.308 321.538,336.308 z" id="boundary" inkscape:connector-curvature="0" />
	<path style="fill:none;stroke:red;stroke-width:1px;stroke-linecap:butt;stroke-linejoin:miter;stroke-opacity:1" d="M 321.538,336.308 332.615,330.154 z" id="boundary" inkscape:connector-curvature="0" />
	<path style="fill:none;stroke:red;stroke-width:1px;stroke-linecap:butt;stroke-linejoin:miter;stroke-opacity:1" d="M 332.615,330.154 344.923,330.154 z" id="boundary" inkscape:connector-curvature="0" />
	<path style="fill:none;stroke:red;stroke-width:1px;stroke-linecap:butt;stroke-linejoin:miter;stroke-opacity:1" d="M 344.923,330.154 356,324 z" id="boundary" inkscape:connector-curvature="0" />
	<path style="fill:none;stroke:red;stroke-width:1px;stroke-linecap:butt;stroke-linejoin:miter;stroke-opacity:1" d="M 356,324 368.308,324 z" id="boundary" inkscape:connector-curvature="0" />
	<path style="fill:none;stroke:red;stroke-width:1px;stroke-linecap:butt;stroke-linejoin:miter;stroke-opacity:1" d="M 368.308,324 379.385,317.846 z" id="boundary" inkscape:connector-curvature="0" />
	<path style="fill:none;stroke:red;stroke-width:1px;stroke-linecap:butt;stroke-linejoin:miter;stroke-opacity:1" d="M 379.385,317.846 391.692,317.846 z" id="boundary" inkscape:connector-curvature="0" />
	<path style="fill:none;stroke:red;stroke-width:1px;stroke-linecap:butt;stroke-linejoin:miter;stroke-opacity:1" d="M 391.692,317.846 404,317.846 z" id="boundary" inkscape:connector-curvature="0" />
	<path style="fill:none;stroke:red;stroke-width:1px;stroke-linecap:butt;stroke-linejoin:miter;stroke-opacity:1" d="M 404,317.846 416.308,317.846 z" id="boundary" inkscape:connector-curvature="0" />
	<path style="fill:none;stroke:red;stroke-width:1px;stroke-linecap:butt;stroke-linejoin:miter;stroke-opacity:1" d="M 416.308,317.846 428.615,320.308 z" id="boundary" inkscape:connector-curvature="0" />
	<path style="fill:none;stroke:red;stroke-width:1px;stroke-linecap:butt;stroke-linejoin:miter;stroke-opacity:1" d="M 428.615,320.308 440.923,324 z" id="boundary" inkscape:connector-curvature="0" />
	<path style="fill:none;stroke:red;stroke-width:1px;stroke-linecap:butt;stroke-linejoin:miter;stroke-opacity:1" d="M 440.923,324 453.231,324 z" id="boundary" inkscape:connector-curvature="0" />
	<path style="fill:none;stroke:red;stroke-width:1px;stroke-linecap:butt;stroke-linejoin:miter;stroke-opacity:1" d="M 453.231,324 464.308,330.154 z" id="boundary" inkscape:connector-curvature="0" />
	<path style="fill:none;stroke:red;stroke-width:1px;stroke-linecap:butt;stroke-linejoin:miter;stroke-opacity:1" d="M 464.308,330.154 476.615,330.154 z" id="boundary" inkscape:connector-curvature="0" />
	<path style="fill:none;stroke:red;stroke-width:1px;stroke-linecap:butt;stroke-linejoin:miter;stroke-opacity:1" d="M 476.615,330.154 488.923,331.385 z" id="boundary" inkscape:connector-curvature="0" />
	<path style="fill:none;stroke:red;stroke-width:1px;stroke-linecap:butt;stroke-linejoin:miter;stroke-opacity:1" d="M 488.923,331.385 501.231,336.308 z" id="boundary" inkscape:connector-curvature="0" />
	<path style="fill:none;stroke:red;stroke-width:1px;stroke-linecap:butt;stroke-linejoin:miter;stroke-opacity:1" d="M 501.231,336.308 513.538,336.308 z" id="boundary" inkscape:connector-curvature="0" />
	<path style="fill:none;stroke:red;stroke-width:1px;stroke-linecap:butt;stroke-linejoin:miter;stroke-opacity:1" d="M 513.538,336.308 524.615,342.462 z" id="boundary" inkscape:connector-curvature="0" />
	<path style="fill:none;stroke:red;stroke-width:1px;stroke-linecap:butt;stroke-linejoin:miter;stroke-opacity:1" d="M 524.615,342.462 535.692,348.615 z" id="boundary" inkscape:connector-curvature="0" />
	<path style="fill:none;stroke:red;stroke-width:1px;stroke-linecap:butt;stroke-linejoin:miter;stroke-opacity:1" d="M 535.692,348.615 546.769,354.769 z" id="boundary" inkscape:connector-curvature="0" />
	<path style="fill:none;stroke:red;stroke-width:1px;stroke-linecap:butt;stroke-linejoin:miter;stroke-opacity:1" d="M 546.769,354.769 559.077,354.769 z" id="boundary" inkscape:connector-curvature="0" />
	<path style="fill:none;stroke:red;stroke-width:1px;stroke-linecap:butt;stroke-linejoin:miter;stroke-opacity:1" d="M 559.077,354.769 570.154,360.923 z" id="boundary" inkscape:connector-curvature="0" />
	<path style="fill:none;stroke:red;stroke-width:1px;stroke-linecap:butt;stroke-linejoin:miter;stroke-opacity:1" d="M 570.154,360.923 581.231,367.077 z" id="boundary" inkscape:connector-curvature="0" />
	<path style="fill:none;stroke:red;stroke-width:1px;stroke-linecap:butt;stroke-linejoin:miter;stroke-opacity:1" d="M 581.231,367.077 592.308,373.231 z" id="boundary" inkscape:connector-curvature="0" />
	<path style="fill:none;stroke:red;stroke-width:1px;stroke-linecap:butt;stroke-linejoin:miter;stroke-opacity:1" d="M 592.308,373.231 603.385,379.385 z" id="boundary" inkscape:connector-curvature="0" />
	<path style="fill:none;stroke:red;stroke-width:1px;stroke-linecap:butt;stroke-linejoin:miter;stroke-opacity:1" d="M 603.385,379.385 614.462,385.538 z" id="boundary" inkscape:connector-curvature="0" />
	<path style="fill:none;stroke:red;stroke-width:1px;stroke-linecap:butt;stroke-linejoin:miter;stroke-opacity:1" d="M 614.462,385.538 626.769,385.538 z" id="boundary" inkscape:connector-curvature="0" />
	<path style="fill:none;stroke:red;stroke-width:1px;stroke-linecap:butt;stroke-linejoin:miter;stroke-opacity:1" d="M 626.769,385.538 637.846,391.692 z" id="boundary" inkscape:connector-curvature="0" />
	<path style="fill:none;stroke:red;stroke-width:1px;stroke-linecap:butt;stroke-linejoin:miter;stroke-opacity:1" d="M 637.846,391.692 647.692,399.077 z" id="boundary" inkscape:connector-curvature="0" />
	<path style="fill:none;stroke:red;stroke-width:1px;stroke-linecap:butt;stroke-linejoin:miter;stroke-opacity:1" d="M 647.692,399.077 657.538,407.692 z" id="boundary" inkscape:connector-curvature="0" />
	<path style="fill:none;stroke:red;stroke-width:1px;stroke-linecap:butt;stroke-linejoin:miter;stroke-opacity:1" d="M 657.538,407.692 668.615,413.846 z" id="boundary" inkscape:connector-curvature="0" />
	<path style="fill:none;stroke:red;stroke-width:1px;stroke-linecap:butt;stroke-linejoin:miter;stroke-opacity:1" d="M 668.615,413.846 680.923,418.769 z" id="boundary" inkscape:connector-curvature="0" />
	<path style="fill:none;stroke:red;stroke-width:1px;stroke-linecap:butt;stroke-linejoin:miter;stroke-opacity:1" d="M 680.923,418.769 688.308,428.615 z" id="boundary" inkscape:connector-curvature="0" />
	<path style="fill:none;stroke:red;stroke-width:1px;stroke-linecap:butt;stroke-linejoin:miter;stroke-opacity:1" d="M 688.308,428.615 698.154,436 z" id="boundary" inkscape:connector-curvature="0" />
	<path style="fill:none;stroke:red;stroke-width:1px;stroke-linecap:butt;stroke-linejoin:miter;stroke-opacity:1" d="M 698.154,436 706.769,445.846 z" id="boundary" inkscape:connector-curvature="0" />
	<path style="fill:none;stroke:red;stroke-width:1px;stroke-linecap:butt;stroke-linejoin:miter;stroke-opacity:1" d="M 706.769,445.846 716.615,454.462 z" id="boundary" inkscape:connector-curvature="0" />
	<path style="fill:none;stroke:red;stroke-width:1px;stroke-linecap:butt;stroke-linejoin:miter;stroke-opacity:1" d="M 716.615,454.462 725.231,464.308 z" id="boundary" inkscape:connector-curvature="0" />
	<path style="fill:none;stroke:red;stroke-width:1px;stroke-linecap:butt;stroke-linejoin:miter;stroke-opacity:1" d="M 725.231,464.308 735.077,472.923 z" id="boundary" inkscape:connector-curvature="0" />
	<path style="fill:none;stroke:red;stroke-width:1px;stroke-linecap:butt;stroke-linejoin:miter;stroke-opacity:1" d="M 735.077,472.923 743.692,482.769 z" id="boundary" inkscape:connector-curvature="0" />
	<path style="fill:none;stroke:red;stroke-width:1px;stroke-linecap:butt;stroke-linejoin:miter;stroke-opacity:1" d="M 743.692,482.769 749.846,493.846 z" id="boundary" inkscape:connector-curvature="0" />
	<path style="fill:none;stroke:red;stroke-width:1px;stroke-linecap:butt;stroke-linejoin:miter;stroke-opacity:1" d="M 749.846,493.846 758.462,503.692 z" id="boundary" inkscape:connector-curvature="0" />
	<path style="fill:none;stroke:red;stroke-width:1px;stroke-linecap:butt;stroke-linejoin:miter;stroke-opacity:1" d="M 758.462,503.692 764.615,514.769 z" id="boundary" inkscape:connector-curvature="0" />
	<path style="fill:none;stroke:red;stroke-width:1px;stroke-linecap:butt;stroke-linejoin:miter;stroke-opacity:1" d="M 764.615,514.769 768.308,527.077 z" id="boundary" inkscape:connector-curvature="0" />
	<path style="fill:none;stroke:red;stroke-width:1px;stroke-linecap:butt;stroke-linejoin:miter;stroke-opacity:1" d="M 768.308,527.077 780.615,530.769 z" id="boundary" inkscape:connector-curvature="0" />
	<path style="fill:none;stroke:red;stroke-width:1px;stroke-linecap:butt;stroke-linejoin:miter;stroke-opacity:1" d="M 780.615,530.769 789.231,540.615 z" id="boundary" inkscape:connector-curvature="0" />
	<path style="fill:none;stroke:red;stroke-width:1px;stroke-linecap:butt;stroke-linejoin:miter;stroke-opacity:1" d="M 789.231,540.615 795.385,551.692 z" id="boundary" inkscape:connector-curvature="0" />
	<path style="fill:none;stroke:red;stroke-width:1px;stroke-linecap:butt;stroke-linejoin:miter;stroke-opacity:1" d="M 795.385,551.692 804,561.538 z" id="boundary" inkscape:connector-curvature="0" />
	<path style="fill:none;stroke:red;stroke-width:1px;stroke-linecap:butt;stroke-linejoin:miter;stroke-opacity:1" d="M 804,561.538 805.231,573.846 z" id="boundary" inkscape:connector-curvature="0" />
	<path style="fill:none;stroke:red;stroke-width:1px;stroke-linecap:butt;stroke-linejoin:miter;stroke-opacity:1" d="M 805.231,573.846 810.154,586.154 z" id="boundary" inkscape:connector-curvature="0" />
	<path style="fill:none;stroke:red;stroke-width:1px;stroke-linecap:butt;stroke-linejoin:miter;stroke-opacity:1" d="M 810.154,586.154 811.385,598.462 z" id="boundary" inkscape:connector-curvature="0" />
	<circle cx="4" cy="63.0769" r="4" fill="#0" id="circle0"/>
	<circle cx="11.3846" cy="72.9231" r="4" fill="#0" id="circle1"/>
	<circle cx="16.3077" cy="56.9231" r="4" fill="#0" id="circle2"/>
	<circle cx="23.6923" cy="72.9231" r="4" fill="#0" id="circle3"/>
	<circle cx="28.6154" cy="53.2308" r="4" fill="#0" id="circle4"/>
	<circle cx="36" cy="72.9231" r="4" fill="#0" id="circle5"/>
	<circle cx="40.9231" cy="53.2308" r="4" fill="#0" id="circle6"/>
	<circle cx="48.3077" cy="72.9231" r="4" fill="#0" id="circle7"/>
	<circle cx="52" cy="47.0769" r="4" fill="#0" id="circle8"/>
	<circle cx="60.6154" cy="72.9231" r="4" fill="#0" id="circle9"/>
	<circle cx="64.3077" cy="47.0769" r="4" fill="#0" id="circle10"/>
	<circle cx="72.9231" cy="72.9231" r="4" fill="#0" id="circle11"/>
	<circle cx="75.3846" cy="40.9231" r="4" fill="#0" id="circle12"/>
	<circle cx="85.2308" cy="72.9231" r="4" fill="#0" id="circle13"/>
	<circle cx="87.6923" cy="40.9231" r="4" fill="#0" id="circle14"/>
	<circle cx="97.5385" cy="31.0769" r="4" fill="#0" id="circle15"/>
	<circle cx="97.5385" cy="72.9231" r="4" fill="#0" id="circle16"/>
	<circle cx="107.385" cy="22.4615" r="4" fill="#0" id="circle17"/>
	<circle cx="109.846" cy="72.9231" r="4" fill="#0" id="circle18"/>
	<circle cx="116" cy="12.6154" r="4" fill="#0" id="circle19"/>
	<circle cx="120.923" cy="79.0769" r="4" fill="#0" id="circle20"/>
	<circle cx="128.308" cy="6.46154" r="4" fill="#0" id="circle21"/>
	<circle cx="132" cy="85.2308" r="4" fill="#0" id="circle22"/>
	<circle cx="140.615" cy="4" r="4" fill="#0" id="circle23"/>
	<circle cx="144.308" cy="85.2308" r="4" fill="#0" id="circle24"/>
	<circle cx="152.923" cy="4" r="4" fill="#0" id="circle25"/>
	<circle cx="155.385" cy="91.3846" r="4" fill="#0" id="circle26"/>
	<circle cx="164" cy="235.385" r="4" fill="#0" id="circle27"/>
	<circle cx="164" cy="247.692" r="4" fill="#0" id="circle28"/>
	<circle cx="164" cy="260" r="4" fill="#0" id="circle29"/>
	<circle cx="164" cy="272.308" r="4" fill="#0" id="circle30"/>
	<circle cx="164" cy="284.615" r="4" fill="#0" id="circle31"/>
	<circle cx="165.231" cy="4" r="4" fill="#0" id="circle32"/>
	<circle cx="167.692" cy="91.3846" r="4" fill="#0" id="circle33"/>
	<circle cx="170.154" cy="223.077" r="4" fill="#0" id="circle34"/>
	<circle cx="170.154" cy="295.692" r="4" fill="#0" id="circle35"/>
	<circle cx="170.154" cy="308" r="4" fill="#0" id="circle36"/>
	<circle cx="170.154" cy="320.308" r="4" fill="#0" id="circle37"/>
	<circle cx="170.154" cy="332.615" r="4" fill="#0" id="circle38"/>
	<circle cx="176.308" cy="210.769" r="4" fill="#0" id="circle39"/>
	<circle cx="176.308" cy="343.692" r="4" fill="#0" id="circle40"/>
	<circle cx="177.538" cy="4" r="4" fill="#0" id="circle41"/>
	<circle cx="177.538" cy="100" r="4" fill="#0" id="circle42"/>
	<circle cx="182.462" cy="112.308" r="4" fill="#0" id="circle43"/>
	<circle cx="182.462" cy="192.308" r="4" fill="#0" id="circle44"/>
	<circle cx="182.462" cy="354.769" r="4" fill="#0" id="circle45"/>
	<circle cx="184.923" cy="367.077" r="4" fill="#0" id="circle46"/>
	<circle cx="188.615" cy="123.385" r="4" fill="#0" id="circle47"/>
	<circle cx="188.615" cy="135.692" r="4" fill="#0" id="circle48"/>
	<circle cx="188.615" cy="148" r="4" fill="#0" id="circle49"/>
	<circle cx="188.615" cy="160.308" r="4" fill="#0" id="circle50"/>
	<circle cx="188.615" cy="172.615" r="4" fill="#0" id="circle51"/>
	<circle cx="189.846" cy="7.69231" r="4" fill="#0" id="circle52"/>
	<circle cx="191.077" cy="378.154" r="4" fill="#0" id="circle53"/>
	<circle cx="199.692" cy="16.3077" r="4" fill="#0" id="circle54"/>
	<circle cx="200.923" cy="386.769" r="4" fill="#0" id="circle55"/>
	<circle cx="200.923" cy="399.077" r="4" fill="#0" id="circle56"/>
	<circle cx="207.077" cy="410.154" r="4" fill="#0" id="circle57"/>
	<circle cx="208.308" cy="26.1538" r="4" fill="#0" id="circle58"/>
	<circle cx="213.231" cy="421.231" r="4" fill="#0" id="circle59"/>
	<circle cx="214.462" cy="37.2308" r="4" fill="#0" id="circle60"/>
	<circle cx="214.462" cy="232.923" r="4" fill="#0" id="circle61"/>
	<circle cx="214.462" cy="245.231" r="4" fill="#0" id="circle62"/>
	<circle cx="214.462" cy="433.538" r="4" fill="#0" id="circle63"/>
	<circle cx="219.385" cy="445.846" r="4" fill="#0" id="circle64"/>
	<circle cx="220.615" cy="48.3077" r="4" fill="#0" id="circle65"/>
	<circle cx="220.615" cy="60.6154" r="4" fill="#0" id="circle66"/>
	<circle cx="220.615" cy="214.462" r="4" fill="#0" id="circle67"/>
	<circle cx="220.615" cy="256.308" r="4" fill="#0" id="circle68"/>
	<circle cx="220.615" cy="268.615" r="4" fill="#0" id="circle69"/>
	<circle cx="225.538" cy="456.923" r="4" fill="#0" id="circle70"/>
	<circle cx="226.769" cy="71.6923" r="4" fill="#0" id="circle71"/>
	<circle cx="226.769" cy="84" r="4" fill="#0" id="circle72"/>
	<circle cx="226.769" cy="196" r="4" fill="#0" id="circle73"/>
	<circle cx="226.769" cy="279.692" r="4" fill="#0" id="circle74"/>
	<circle cx="226.769" cy="292" r="4" fill="#0" id="circle75"/>
	<circle cx="231.692" cy="468" r="4" fill="#0" id="circle76"/>
	<circle cx="232.923" cy="95.0769" r="4" fill="#0" id="circle77"/>
	<circle cx="232.923" cy="107.385" r="4" fill="#0" id="circle78"/>
	<circle cx="232.923" cy="119.692" r="4" fill="#0" id="circle79"/>
	<circle cx="232.923" cy="132" r="4" fill="#0" id="circle80"/>
	<circle cx="232.923" cy="144.308" r="4" fill="#0" id="circle81"/>
	<circle cx="232.923" cy="156.615" r="4" fill="#0" id="circle82"/>
	<circle cx="232.923" cy="168.923" r="4" fill="#0" id="circle83"/>
	<circle cx="232.923" cy="181.231" r="4" fill="#0" id="circle84"/>
	<circle cx="232.923" cy="303.077" r="4" fill="#0" id="circle85"/>
	<circle cx="237.846" cy="479.077" r="4" fill="#0" id="circle86"/>
	<circle cx="239.077" cy="314.154" r="4" fill="#0" id="circle87"/>
	<circle cx="241.538" cy="491.385" r="4" fill="#0" id="circle88"/>
	<circle cx="245.231" cy="325.231" r="4" fill="#0" id="circle89"/>
	<circle cx="251.385" cy="336.308" r="4" fill="#0" id="circle90"/>
	<circle cx="251.385" cy="500" r="4" fill="#0" id="circle91"/>
	<circle cx="260" cy="509.846" r="4" fill="#0" id="circle92"/>
	<circle cx="262.462" cy="342.462" r="4" fill="#0" id="circle93"/>
	<circle cx="272.308" cy="514.769" r="4" fill="#0" id="circle94"/>
	<circle cx="273.538" cy="348.615" r="4" fill="#0" id="circle95"/>
	<circle cx="284.615" cy="516" r="4" fill="#0" id="circle96"/>
	<circle cx="285.846" cy="348.615" r="4" fill="#0" id="circle97"/>
	<circle cx="294.462" cy="524.615" r="4" fill="#0" id="circle98"/>
	<circle cx="296.923" cy="342.462" r="4" fill="#0" id="circle99"/>
	<circle cx="306.769" cy="528.308" r="4" fill="#0" id="circle100"/>
	<circle cx="309.231" cy="336.308" r="4" fill="#0" id="circle101"/>
	<circle cx="317.846" cy="534.462" r="4" fill="#0" id="circle102"/>
	<circle cx="321.538" cy="336.308" r="4" fill="#0" id="circle103"/>
	<circle cx="328.923" cy="540.615" r="4" fill="#0" id="circle104"/>
	<circle cx="332.615" cy="330.154" r="4" fill="#0" id="circle105"/>
	<circle cx="341.231" cy="540.615" r="4" fill="#0" id="circle106"/>
	<circle cx="344.923" cy="330.154" r="4" fill="#0" id="circle107"/>
	<circle cx="352.308" cy="546.769" r="4" fill="#0" id="circle108"/>
	<circle cx="356" cy="324" r="4" fill="#0" id="circle109"/>
	<circle cx="360.923" cy="961.538" r="4" fill="#0" id="circle110"/>
	<circle cx="364.615" cy="551.692" r="4" fill="#0" id="circle111"/>
	<circle cx="368.308" cy="324" r="4" fill="#0" id="circle112"/>
	<circle cx="370.769" cy="951.692" r="4" fill="#0" id="circle113"/>
	<circle cx="373.231" cy="965.231" r="4" fill="#0" id="circle114"/>
	<circle cx="376.923" cy="552.923" r="4" fill="#0" id="circle115"/>
	<circle cx="379.385" cy="317.846" r="4" fill="#0" id="circle116"/>
	<circle cx="381.846" cy="945.538" r="4" fill="#0" id="circle117"/>
	<circle cx="385.538" cy="965.231" r="4" fill="#0" id="circle118"/>
	<circle cx="388" cy="559.077" r="4" fill="#0" id="circle119"/>
	<circle cx="391.692" cy="317.846" r="4" fill="#0" id="circle120"/>
	<circle cx="391.692" cy="986.154" r="4" fill="#0" id="circle121"/>
	<circle cx="394.154" cy="940.615" r="4" fill="#0" id="circle122"/>
	<circle cx="397.846" cy="965.231" r="4" fill="#0" id="circle123"/>
	<circle cx="399.077" cy="565.231" r="4" fill="#0" id="circle124"/>
	<circle cx="399.077" cy="996" r="4" fill="#0" id="circle125"/>
	<circle cx="401.538" cy="977.538" r="4" fill="#0" id="circle126"/>
	<circle cx="404" cy="317.846" r="4" fill="#0" id="circle127"/>
	<circle cx="406.462" cy="939.385" r="4" fill="#0" id="circle128"/>
	<circle cx="410.154" cy="571.385" r="4" fill="#0" id="circle129"/>
	<circle cx="410.154" cy="965.231" r="4" fill="#0" id="circle130"/>
	<circle cx="410.154" cy="989.846" r="4" fill="#0" id="circle131"/>
	<circle cx="416.308" cy="317.846" r="4" fill="#0" id="circle132"/>
	<circle cx="417.538" cy="933.231" r="4" fill="#0" id="circle133"/>
	<circle cx="422.462" cy="571.385" r="4" fill="#0" id="circle134"/>
	<circle cx="422.462" cy="989.846" r="4" fill="#0" id="circle135"/>
	<circle cx="428.615" cy="320.308" r="4" fill="#0" id="circle136"/>
	<circle cx="429.846" cy="933.231" r="4" fill="#0" id="circle137"/>
	<circle cx="433.538" cy="577.538" r="4" fill="#0" id="circle138"/>
	<circle cx="434.769" cy="986.154" r="4" fill="#0" id="circle139"/>
	<circle cx="437.231" cy="922.154" r="4" fill="#0" id="circle140"/>
	<circle cx="440.923" cy="324" r="4" fill="#0" id="circle141"/>
	<circle cx="440.923" cy="900" r="4" fill="#0" id="circle142"/>
	<circle cx="444.615" cy="583.692" r="4" fill="#0" id="circle143"/>
	<circle cx="447.077" cy="881.538" r="4" fill="#0" id="circle144"/>
	<circle cx="447.077" cy="983.692" r="4" fill="#0" id="circle145"/>
	<circle cx="453.231" cy="324" r="4" fill="#0" id="circle146"/>
	<circle cx="453.231" cy="856.923" r="4" fill="#0" id="circle147"/>
	<circle cx="453.231" cy="869.231" r="4" fill="#0" id="circle148"/>
	<circle cx="454.462" cy="592.308" r="4" fill="#0" id="circle149"/>
	<circle cx="454.462" cy="916" r="4" fill="#0" id="circle150"/>
	<circle cx="454.462" cy="928.308" r="4" fill="#0" id="circle151"/>
	<circle cx="456.923" cy="976.308" r="4" fill="#0" id="circle152"/>
	<circle cx="459.385" cy="604.615" r="4" fill="#0" id="circle153"/>
	<circle cx="459.385" cy="616.923" r="4" fill="#0" id="circle154"/>
	<circle cx="459.385" cy="838.462" r="4" fill="#0" id="circle155"/>
	<circle cx="460.615" cy="897.538" r="4" fill="#0" id="circle156"/>
	<circle cx="460.615" cy="939.385" r="4" fill="#0" id="circle157"/>
	<circle cx="464.308" cy="330.154" r="4" fill="#0" id="circle158"/>
	<circle cx="465.538" cy="628" r="4" fill="#0" id="circle159"/>
	<circle cx="465.538" cy="820" r="4" fill="#0" id="circle160"/>
	<circle cx="466.769" cy="950.462" r="4" fill="#0" id="circle161"/>
	<circle cx="469.231" cy="970.154" r="4" fill="#0" id="circle162"/>
	<circle cx="470.462" cy="888.923" r="4" fill="#0" id="circle163"/>
	<circle cx="471.692" cy="639.077" r="4" fill="#0" id="circle164"/>
	<circle cx="471.692" cy="651.385" r="4" fill="#0" id="circle165"/>
	<circle cx="471.692" cy="663.692" r="4" fill="#0" id="circle166"/>
	<circle cx="471.692" cy="676" r="4" fill="#0" id="circle167"/>
	<circle cx="471.692" cy="758.462" r="4" fill="#0" id="circle168"/>
	<circle cx="471.692" cy="770.769" r="4" fill="#0" id="circle169"/>
	<circle cx="471.692" cy="783.077" r="4" fill="#0" id="circle170"/>
	<circle cx="471.692" cy="795.385" r="4" fill="#0" id="circle171"/>
	<circle cx="471.692" cy="807.692" r="4" fill="#0" id="circle172"/>
	<circle cx="472.923" cy="860.615" r="4" fill="#0" id="circle173"/>
	<circle cx="472.923" cy="872.923" r="4" fill="#0" id="circle174"/>
	<circle cx="475.385" cy="688.308" r="4" fill="#0" id="circle175"/>
	<circle cx="476.615" cy="330.154" r="4" fill="#0" id="circle176"/>
	<circle cx="477.846" cy="700.615" r="4" fill="#0" id="circle177"/>
	<circle cx="477.846" cy="746.154" r="4" fill="#0" id="circle178"/>
	<circle cx="479.077" cy="848.308" r="4" fill="#0" id="circle179"/>
	<circle cx="481.538" cy="712.923" r="4" fill="#0" id="circle180"/>
	<circle cx="484" cy="725.231" r="4" fill="#0" id="circle181"/>
	<circle cx="485.231" cy="823.692" r="4" fill="#0" id="circle182"/>
	<circle cx="485.231" cy="836" r="4" fill="#0" id="circle183"/>
	<circle cx="488.923" cy="331.385" r="4" fill="#0" id="circle184"/>
	<circle cx="491.385" cy="596" r="4" fill="#0" id="circle185"/>
	<circle cx="491.385" cy="608.308" r="4" fill="#0" id="circle186"/>
	<circle cx="491.385" cy="620.615" r="4" fill="#0" id="circle187"/>
	<circle cx="491.385" cy="632.923" r="4" fill="#0" id="circle188"/>
	<circle cx="491.385" cy="645.231" r="4" fill="#0" id="circle189"/>
	<circle cx="491.385" cy="657.538" r="4" fill="#0" id="circle190"/>
	<circle cx="491.385" cy="669.846" r="4" fill="#0" id="circle191"/>
	<circle cx="491.385" cy="768.308" r="4" fill="#0" id="circle192"/>
	<circle cx="491.385" cy="780.615" r="4" fill="#0" id="circle193"/>
	<circle cx="491.385" cy="792.923" r="4" fill="#0" id="circle194"/>
	<circle cx="491.385" cy="805.231" r="4" fill="#0" id="circle195"/>
	<circle cx="493.846" cy="682.154" r="4" fill="#0" id="circle196"/>
	<circle cx="497.538" cy="583.692" r="4" fill="#0" id="circle197"/>
	<circle cx="497.538" cy="694.462" r="4" fill="#0" id="circle198"/>
	<circle cx="497.538" cy="756" r="4" fill="#0" id="circle199"/>
	<circle cx="501.231" cy="336.308" r="4" fill="#0" id="circle200"/>
	<circle cx="503.692" cy="705.538" r="4" fill="#0" id="circle201"/>
	<circle cx="503.692" cy="717.846" r="4" fill="#0" id="circle202"/>
	<circle cx="503.692" cy="730.154" r="4" fill="#0" id="circle203"/>
	<circle cx="503.692" cy="742.462" r="4" fill="#0" id="circle204"/>
	<circle cx="509.846" cy="583.692" r="4" fill="#0" id="circle205"/>
	<circle cx="513.538" cy="336.308" r="4" fill="#0" id="circle206"/>
	<circle cx="522.154" cy="583.692" r="4" fill="#0" id="circle207"/>
	<circle cx="524.615" cy="342.462" r="4" fill="#0" id="circle208"/>
	<circle cx="533.231" cy="589.846" r="4" fill="#0" id="circle209"/>
	<circle cx="535.692" cy="348.615" r="4" fill="#0" id="circle210"/>
	<circle cx="536.923" cy="602.154" r="4" fill="#0" id="circle211"/>
	<circle cx="539.385" cy="961.538" r="4" fill="#0" id="circle212"/>
	<circle cx="546.769" cy="354.769" r="4" fill="#0" id="circle213"/>
	<circle cx="546.769" cy="610.769" r="4" fill="#0" id="circle214"/>
	<circle cx="546.769" cy="971.385" r="4" fill="#0" id="circle215"/>
	<circle cx="551.692" cy="957.846" r="4" fill="#0" id="circle216"/>
	<circle cx="555.385" cy="620.615" r="4" fill="#0" id="circle217"/>
	<circle cx="559.077" cy="354.769" r="4" fill="#0" id="circle218"/>
	<circle cx="559.077" cy="971.385" r="4" fill="#0" id="circle219"/>
	<circle cx="562.769" cy="951.692" r="4" fill="#0" id="circle220"/>
	<circle cx="564" cy="630.462" r="4" fill="#0" id="circle221"/>
	<circle cx="565.231" cy="577.538" r="4" fill="#0" id="circle222"/>
	<circle cx="565.231" cy="589.846" r="4" fill="#0" id="circle223"/>
	<circle cx="570.154" cy="360.923" r="4" fill="#0" id="circle224"/>
	<circle cx="570.154" cy="641.538" r="4" fill="#0" id="circle225"/>
	<circle cx="571.385" cy="600.923" r="4" fill="#0" id="circle226"/>
	<circle cx="571.385" cy="613.231" r="4" fill="#0" id="circle227"/>
	<circle cx="571.385" cy="973.846" r="4" fill="#0" id="circle228"/>
	<circle cx="575.077" cy="951.692" r="4" fill="#0" id="circle229"/>
	<circle cx="576.308" cy="571.385" r="4" fill="#0" id="circle230"/>
	<circle cx="576.308" cy="652.615" r="4" fill="#0" id="circle231"/>
	<circle cx="581.231" cy="367.077" r="4" fill="#0" id="circle232"/>
	<circle cx="581.231" cy="620.615" r="4" fill="#0" id="circle233"/>
	<circle cx="582.462" cy="663.692" r="4" fill="#0" id="circle234"/>
	<circle cx="583.692" cy="977.538" r="4" fill="#0" id="circle235"/>
	<circle cx="586.154" cy="632.923" r="4" fill="#0" id="circle236"/>
	<circle cx="587.385" cy="951.692" r="4" fill="#0" id="circle237"/>
	<circle cx="588.615" cy="571.385" r="4" fill="#0" id="circle238"/>
	<circle cx="588.615" cy="674.769" r="4" fill="#0" id="circle239"/>
	<circle cx="592.308" cy="373.231" r="4" fill="#0" id="circle240"/>
	<circle cx="592.308" cy="644" r="4" fill="#0" id="circle241"/>
	<circle cx="596" cy="656.308" r="4" fill="#0" id="circle242"/>
	<circle cx="596" cy="684.615" r="4" fill="#0" id="circle243"/>
	<circle cx="596" cy="977.538" r="4" fill="#0" id="circle244"/>
	<circle cx="598.462" cy="945.538" r="4" fill="#0" id="circle245"/>
	<circle cx="600.923" cy="571.385" r="4" fill="#0" id="circle246"/>
	<circle cx="600.923" cy="696.923" r="4" fill="#0" id="circle247"/>
	<circle cx="603.385" cy="379.385" r="4" fill="#0" id="circle248"/>
	<circle cx="605.846" cy="663.692" r="4" fill="#0" id="circle249"/>
	<circle cx="607.077" cy="708" r="4" fill="#0" id="circle250"/>
	<circle cx="608.308" cy="676" r="4" fill="#0" id="circle251"/>
	<circle cx="608.308" cy="935.692" r="4" fill="#0" id="circle252"/>
	<circle cx="608.308" cy="971.385" r="4" fill="#0" id="circle253"/>
	<circle cx="613.231" cy="571.385" r="4" fill="#0" id="circle254"/>
	<circle cx="613.231" cy="719.077" r="4" fill="#0" id="circle255"/>
	<circle cx="613.231" cy="731.385" r="4" fill="#0" id="circle256"/>
	<circle cx="613.231" cy="743.692" r="4" fill="#0" id="circle257"/>
	<circle cx="613.231" cy="756" r="4" fill="#0" id="circle258"/>
	<circle cx="613.231" cy="768.308" r="4" fill="#0" id="circle259"/>
	<circle cx="613.231" cy="780.615" r="4" fill="#0" id="circle260"/>
	<circle cx="613.231" cy="918.462" r="4" fill="#0" id="circle261"/>
	<circle cx="614.462" cy="385.538" r="4" fill="#0" id="circle262"/>
	<circle cx="614.462" cy="687.077" r="4" fill="#0" id="circle263"/>
	<circle cx="616.923" cy="792.923" r="4" fill="#0" id="circle264"/>
	<circle cx="619.385" cy="805.231" r="4" fill="#0" id="circle265"/>
	<circle cx="619.385" cy="817.538" r="4" fill="#0" id="circle266"/>
	<circle cx="619.385" cy="829.846" r="4" fill="#0" id="circle267"/>
	<circle cx="619.385" cy="842.154" r="4" fill="#0" id="circle268"/>
	<circle cx="619.385" cy="863.077" r="4" fill="#0" id="circle269"/>
	<circle cx="619.385" cy="875.385" r="4" fill="#0" id="circle270"/>
	<circle cx="619.385" cy="887.692" r="4" fill="#0" id="circle271"/>
	<circle cx="619.385" cy="900" r="4" fill="#0" id="circle272"/>
	<circle cx="620.615" cy="698.154" r="4" fill="#0" id="circle273"/>
	<circle cx="620.615" cy="971.385" r="4" fill="#0" id="circle274"/>
	<circle cx="625.538" cy="571.385" r="4" fill="#0" id="circle275"/>
	<circle cx="626.769" cy="385.538" r="4" fill="#0" id="circle276"/>
	<circle cx="630.462" cy="706.769" r="4" fill="#0" id="circle277"/>
	<circle cx="632.923" cy="719.077" r="4" fill="#0" id="circle278"/>
	<circle cx="632.923" cy="743.692" r="4" fill="#0" id="circle279"/>
	<circle cx="632.923" cy="756" r="4" fill="#0" id="circle280"/>
	<circle cx="632.923" cy="768.308" r="4" fill="#0" id="circle281"/>
	<circle cx="632.923" cy="965.231" r="4" fill="#0" id="circle282"/>
	<circle cx="635.385" cy="780.615" r="4" fill="#0" id="circle283"/>
	<circle cx="637.846" cy="391.692" r="4" fill="#0" id="circle284"/>
	<circle cx="637.846" cy="571.385" r="4" fill="#0" id="circle285"/>
	<circle cx="639.077" cy="730.154" r="4" fill="#0" id="circle286"/>
	<circle cx="639.077" cy="792.923" r="4" fill="#0" id="circle287"/>
	<circle cx="639.077" cy="805.231" r="4" fill="#0" id="circle288"/>
	<circle cx="639.077" cy="817.538" r="4" fill="#0" id="circle289"/>
	<circle cx="639.077" cy="879.077" r="4" fill="#0" id="circle290"/>
	<circle cx="639.077" cy="891.385" r="4" fill="#0" id="circle291"/>
	<circle cx="639.077" cy="903.692" r="4" fill="#0" id="circle292"/>
	<circle cx="639.077" cy="916" r="4" fill="#0" id="circle293"/>
	<circle cx="639.077" cy="928.308" r="4" fill="#0" id="circle294"/>
	<circle cx="641.538" cy="829.846" r="4" fill="#0" id="circle295"/>
	<circle cx="645.231" cy="842.154" r="4" fill="#0" id="circle296"/>
	<circle cx="645.231" cy="854.462" r="4" fill="#0" id="circle297"/>
	<circle cx="645.231" cy="866.769" r="4" fill="#0" id="circle298"/>
	<circle cx="645.231" cy="939.385" r="4" fill="#0" id="circle299"/>
	<circle cx="645.231" cy="965.231" r="4" fill="#0" id="circle300"/>
	<circle cx="647.692" cy="399.077" r="4" fill="#0" id="circle301"/>
	<circle cx="650.154" cy="571.385" r="4" fill="#0" id="circle302"/>
	<circle cx="656.308" cy="945.538" r="4" fill="#0" id="circle303"/>
	<circle cx="657.538" cy="407.692" r="4" fill="#0" id="circle304"/>
	<circle cx="657.538" cy="959.077" r="4" fill="#0" id="circle305"/>
	<circle cx="661.231" cy="577.538" r="4" fill="#0" id="circle306"/>
	<circle cx="668.615" cy="413.846" r="4" fill="#0" id="circle307"/>
	<circle cx="668.615" cy="948" r="4" fill="#0" id="circle308"/>
	<circle cx="673.538" cy="577.538" r="4" fill="#0" id="circle309"/>
	<circle cx="680.923" cy="418.769" r="4" fill="#0" id="circle310"/>
	<circle cx="684.615" cy="583.692" r="4" fill="#0" id="circle311"/>
	<circle cx="688.308" cy="428.615" r="4" fill="#0" id="circle312"/>
	<circle cx="696.923" cy="583.692" r="4" fill="#0" id="circle313"/>
	<circle cx="698.154" cy="436" r="4" fill="#0" id="circle314"/>
	<circle cx="706.769" cy="445.846" r="4" fill="#0" id="circle315"/>
	<circle cx="709.231" cy="583.692" r="4" fill="#0" id="circle316"/>
	<circle cx="716.615" cy="454.462" r="4" fill="#0" id="circle317"/>
	<circle cx="721.538" cy="588.615" r="4" fill="#0" id="circle318"/>
	<circle cx="725.231" cy="464.308" r="4" fill="#0" id="circle319"/>
	<circle cx="731.385" cy="596" r="4" fill="#0" id="circle320"/>
	<circle cx="735.077" cy="472.923" r="4" fill="#0" id="circle321"/>
	<circle cx="742.462" cy="602.154" r="4" fill="#0" id="circle322"/>
	<circle cx="743.692" cy="482.769" r="4" fill="#0" id="circle323"/>
	<circle cx="749.846" cy="493.846" r="4" fill="#0" id="circle324"/>
	<circle cx="753.538" cy="608.308" r="4" fill="#0" id="circle325"/>
	<circle cx="758.462" cy="503.692" r="4" fill="#0" id="circle326"/>
	<circle cx="764.615" cy="514.769" r="4" fill="#0" id="circle327"/>
	<circle cx="764.615" cy="614.462" r="4" fill="#0" id="circle328"/>
	<circle cx="768.308" cy="527.077" r="4" fill="#0" id="circle329"/>
	<circle cx="775.692" cy="620.615" r="4" fill="#0" id="circle330"/>
	<circle cx="780.615" cy="530.769" r="4" fill="#0" id="circle331"/>
	<circle cx="788" cy="624.308" r="4" fill="#0" id="circle332"/>
	<circle cx="789.231" cy="540.615" r="4" fill="#0" id="circle333"/>
	<circle cx="795.385" cy="551.692" r="4" fill="#0" id="circle334"/>
	<circle cx="799.077" cy="630.462" r="4" fill="#0" id="circle335"/>
	<circle cx="804" cy="561.538" r="4" fill="#0" id="circle336"/>
	<circle cx="805.231" cy="573.846" r="4" fill="#0" id="circle337"/>
	<circle cx="810.154" cy="586.154" r="4" fill="#0" id="circle338"/>
	<circle cx="810.154" cy="623.077" r="4" fill="#0" id="circle339"/>
	<circle cx="811.385" cy="598.462" r="4" fill="#0" id="circle340"/>
	<circle cx="811.385" cy="610.769" r="4" fill="#0" id="circle341"/>
	</g>
</svg>