<?xml version="1.0" encoding="UTF-8" standalone="no"?>
<!-- Created with CurveBenchmark -->
<svg
	xmlns:dc="http://purl.org/dc/elements/1.1/"
	xmlns:cc="http://creativecommons.org/ns#"
	xmlns:rdf="http://www.w3.org/1999/02/22-rdf-syntax-ns#"
	xmlns:svg="http://www.w3.org/2000/svg"
	xmlns="http://www.w3.org/2000/svg"
	xmlns:sodipodi="http://sodipodi.sourceforge.net/DTD/sodipodi-0.dtd"
	xmlns:inkscape="http://www.inkscape.org/namespaces/inkscape"
	width="1000"
	height="1000"
	id="svg2"
	version="1.1"
	sodipodi:docname="manifold/connect2d-guitar240.png.txt">
<defs
	id="defs4" />
<metadata
	id="metadata7">
	<rdf:RDF>
		<cc:Work
			rdf:about="">
			<dc:format>image/svg+xml</dc:format>
			<dc:type
				rdf:resource="http://purl.org/dc/dcmitype/StillImage" />
			<dc:title></dc:title>
		</cc:Work>
	</rdf:RDF>
</metadata>
<g
	inkscape:label="Layer 1"
	inkscape:groupmode="layer"
	id="layer1">
	<path style="fill:none;stroke:red;stroke-width:1px;stroke-linecap:butt;stroke-linejoin:miter;stroke-opacity:1" d="M 281.901,876.397 267.83,911.574 z" id="boundary" inkscape:connector-curvature="0" />
	<path style="fill:none;stroke:red;stroke-width:1px;stroke-linecap:butt;stroke-linejoin:miter;stroke-opacity:1" d="M 267.83,911.574 253.759,946.752 z" id="boundary" inkscape:connector-curvature="0" />
	<path style="fill:none;stroke:red;stroke-width:1px;stroke-linecap:butt;stroke-linejoin:miter;stroke-opacity:1" d="M 253.759,946.752 232.652,974.894 z" id="boundary" inkscape:connector-curvature="0" />
	<path style="fill:none;stroke:red;stroke-width:1px;stroke-linecap:butt;stroke-linejoin:miter;stroke-opacity:1" d="M 232.652,974.894 200.993,992.482 z" id="boundary" inkscape:connector-curvature="0" />
	<path style="fill:none;stroke:red;stroke-width:1px;stroke-linecap:butt;stroke-linejoin:miter;stroke-opacity:1" d="M 200.993,992.482 165.816,992.482 z" id="boundary" inkscape:connector-curvature="0" />
	<path style="fill:none;stroke:red;stroke-width:1px;stroke-linecap:butt;stroke-linejoin:miter;stroke-opacity:1" d="M 165.816,992.482 130.638,996 z" id="boundary" inkscape:connector-curvature="0" />
	<path style="fill:none;stroke:red;stroke-width:1px;stroke-linecap:butt;stroke-linejoin:miter;stroke-opacity:1" d="M 130.638,996 95.461,992.482 z" id="boundary" inkscape:connector-curvature="0" />
	<path style="fill:none;stroke:red;stroke-width:1px;stroke-linecap:butt;stroke-linejoin:miter;stroke-opacity:1" d="M 95.461,992.482 60.2837,981.929 z" id="boundary" inkscape:connector-curvature="0" />
	<path style="fill:none;stroke:red;stroke-width:1px;stroke-linecap:butt;stroke-linejoin:miter;stroke-opacity:1" d="M 60.2837,981.929 32.1418,957.305 z" id="boundary" inkscape:connector-curvature="0" />
	<path style="fill:none;stroke:red;stroke-width:1px;stroke-linecap:butt;stroke-linejoin:miter;stroke-opacity:1" d="M 32.1418,957.305 14.5532,925.645 z" id="boundary" inkscape:connector-curvature="0" />
	<path style="fill:none;stroke:red;stroke-width:1px;stroke-linecap:butt;stroke-linejoin:miter;stroke-opacity:1" d="M 14.5532,925.645 4,890.468 z" id="boundary" inkscape:connector-curvature="0" />
	<path style="fill:none;stroke:red;stroke-width:1px;stroke-linecap:butt;stroke-linejoin:miter;stroke-opacity:1" d="M 4,890.468 4,855.291 z" id="boundary" inkscape:connector-curvature="0" />
	<path style="fill:none;stroke:red;stroke-width:1px;stroke-linecap:butt;stroke-linejoin:miter;stroke-opacity:1" d="M 4,855.291 4,820.113 z" id="boundary" inkscape:connector-curvature="0" />
	<path style="fill:none;stroke:red;stroke-width:1px;stroke-linecap:butt;stroke-linejoin:miter;stroke-opacity:1" d="M 4,820.113 4,784.936 z" id="boundary" inkscape:connector-curvature="0" />
	<path style="fill:none;stroke:red;stroke-width:1px;stroke-linecap:butt;stroke-linejoin:miter;stroke-opacity:1" d="M 4,784.936 18.0709,735.688 z" id="boundary" inkscape:connector-curvature="0" />
	<path style="fill:none;stroke:red;stroke-width:1px;stroke-linecap:butt;stroke-linejoin:miter;stroke-opacity:1" d="M 18.0709,735.688 32.1418,686.44 z" id="boundary" inkscape:connector-curvature="0" />
	<path style="fill:none;stroke:red;stroke-width:1px;stroke-linecap:butt;stroke-linejoin:miter;stroke-opacity:1" d="M 32.1418,686.44 32.1418,651.262 z" id="boundary" inkscape:connector-curvature="0" />
	<path style="fill:none;stroke:red;stroke-width:1px;stroke-linecap:butt;stroke-linejoin:miter;stroke-opacity:1" d="M 32.1418,651.262 25.1064,616.085 z" id="boundary" inkscape:connector-curvature="0" />
	<path style="fill:none;stroke:red;stroke-width:1px;stroke-linecap:butt;stroke-linejoin:miter;stroke-opacity:1" d="M 25.1064,616.085 25.1064,580.908 z" id="boundary" inkscape:connector-curvature="0" />
	<path style="fill:none;stroke:red;stroke-width:1px;stroke-linecap:butt;stroke-linejoin:miter;stroke-opacity:1" d="M 25.1064,580.908 25.1064,545.73 z" id="boundary" inkscape:connector-curvature="0" />
	<path style="fill:none;stroke:red;stroke-width:1px;stroke-linecap:butt;stroke-linejoin:miter;stroke-opacity:1" d="M 25.1064,545.73 60.2837,545.73 z" id="boundary" inkscape:connector-curvature="0" />
	<path style="fill:none;stroke:red;stroke-width:1px;stroke-linecap:butt;stroke-linejoin:miter;stroke-opacity:1" d="M 60.2837,545.73 200.993,500 z" id="boundary" inkscape:connector-curvature="0" />
	<path style="fill:none;stroke:red;stroke-width:1px;stroke-linecap:butt;stroke-linejoin:miter;stroke-opacity:1" d="M 200.993,500 169.333,482.411 z" id="boundary" inkscape:connector-curvature="0" />
	<path style="fill:none;stroke:red;stroke-width:1px;stroke-linecap:butt;stroke-linejoin:miter;stroke-opacity:1" d="M 169.333,482.411 134.156,471.858 z" id="boundary" inkscape:connector-curvature="0" />
	<path style="fill:none;stroke:red;stroke-width:1px;stroke-linecap:butt;stroke-linejoin:miter;stroke-opacity:1" d="M 134.156,471.858 74.3546,482.411 z" id="boundary" inkscape:connector-curvature="0" />
	<path style="fill:none;stroke:red;stroke-width:1px;stroke-linecap:butt;stroke-linejoin:miter;stroke-opacity:1" d="M 74.3546,482.411 74.3546,447.234 z" id="boundary" inkscape:connector-curvature="0" />
	<path style="fill:none;stroke:red;stroke-width:1px;stroke-linecap:butt;stroke-linejoin:miter;stroke-opacity:1" d="M 74.3546,447.234 74.3546,412.057 z" id="boundary" inkscape:connector-curvature="0" />
	<path style="fill:none;stroke:red;stroke-width:1px;stroke-linecap:butt;stroke-linejoin:miter;stroke-opacity:1" d="M 74.3546,412.057 120.085,436.681 z" id="boundary" inkscape:connector-curvature="0" />
	<path style="fill:none;stroke:red;stroke-width:1px;stroke-linecap:butt;stroke-linejoin:miter;stroke-opacity:1" d="M 120.085,436.681 120.085,401.504 z" id="boundary" inkscape:connector-curvature="0" />
	<path style="fill:none;stroke:red;stroke-width:1px;stroke-linecap:butt;stroke-linejoin:miter;stroke-opacity:1" d="M 120.085,401.504 74.3546,362.809 z" id="boundary" inkscape:connector-curvature="0" />
	<path style="fill:none;stroke:red;stroke-width:1px;stroke-linecap:butt;stroke-linejoin:miter;stroke-opacity:1" d="M 74.3546,362.809 81.3901,313.56 z" id="boundary" inkscape:connector-curvature="0" />
	<path style="fill:none;stroke:red;stroke-width:1px;stroke-linecap:butt;stroke-linejoin:miter;stroke-opacity:1" d="M 81.3901,313.56 81.3901,278.383 z" id="boundary" inkscape:connector-curvature="0" />
	<path style="fill:none;stroke:red;stroke-width:1px;stroke-linecap:butt;stroke-linejoin:miter;stroke-opacity:1" d="M 81.3901,278.383 81.3901,243.206 z" id="boundary" inkscape:connector-curvature="0" />
	<path style="fill:none;stroke:red;stroke-width:1px;stroke-linecap:butt;stroke-linejoin:miter;stroke-opacity:1" d="M 81.3901,243.206 81.3901,208.028 z" id="boundary" inkscape:connector-curvature="0" />
	<path style="fill:none;stroke:red;stroke-width:1px;stroke-linecap:butt;stroke-linejoin:miter;stroke-opacity:1" d="M 81.3901,208.028 81.3901,172.851 z" id="boundary" inkscape:connector-curvature="0" />
	<path style="fill:none;stroke:red;stroke-width:1px;stroke-linecap:butt;stroke-linejoin:miter;stroke-opacity:1" d="M 81.3901,172.851 81.3901,137.674 z" id="boundary" inkscape:connector-curvature="0" />
	<path style="fill:none;stroke:red;stroke-width:1px;stroke-linecap:butt;stroke-linejoin:miter;stroke-opacity:1" d="M 81.3901,137.674 81.3901,102.496 z" id="boundary" inkscape:connector-curvature="0" />
	<path style="fill:none;stroke:red;stroke-width:1px;stroke-linecap:butt;stroke-linejoin:miter;stroke-opacity:1" d="M 81.3901,102.496 95.461,60.2837 z" id="boundary" inkscape:connector-curvature="0" />
	<path style="fill:none;stroke:red;stroke-width:1px;stroke-linecap:butt;stroke-linejoin:miter;stroke-opacity:1" d="M 95.461,60.2837 102.496,25.1064 z" id="boundary" inkscape:connector-curvature="0" />
	<path style="fill:none;stroke:red;stroke-width:1px;stroke-linecap:butt;stroke-linejoin:miter;stroke-opacity:1" d="M 102.496,25.1064 130.638,4 z" id="boundary" inkscape:connector-curvature="0" />
	<path style="fill:none;stroke:red;stroke-width:1px;stroke-linecap:butt;stroke-linejoin:miter;stroke-opacity:1" d="M 130.638,4 148.227,46.2128 z" id="boundary" inkscape:connector-curvature="0" />
	<path style="fill:none;stroke:red;stroke-width:1px;stroke-linecap:butt;stroke-linejoin:miter;stroke-opacity:1" d="M 148.227,46.2128 134.156,81.3901 z" id="boundary" inkscape:connector-curvature="0" />
	<path style="fill:none;stroke:red;stroke-width:1px;stroke-linecap:butt;stroke-linejoin:miter;stroke-opacity:1" d="M 134.156,81.3901 123.603,120.085 z" id="boundary" inkscape:connector-curvature="0" />
	<path style="fill:none;stroke:red;stroke-width:1px;stroke-linecap:butt;stroke-linejoin:miter;stroke-opacity:1" d="M 123.603,120.085 113.05,155.262 z" id="boundary" inkscape:connector-curvature="0" />
	<path style="fill:none;stroke:red;stroke-width:1px;stroke-linecap:butt;stroke-linejoin:miter;stroke-opacity:1" d="M 113.05,155.262 113.05,190.44 z" id="boundary" inkscape:connector-curvature="0" />
	<path style="fill:none;stroke:red;stroke-width:1px;stroke-linecap:butt;stroke-linejoin:miter;stroke-opacity:1" d="M 113.05,190.44 113.05,225.617 z" id="boundary" inkscape:connector-curvature="0" />
	<path style="fill:none;stroke:red;stroke-width:1px;stroke-linecap:butt;stroke-linejoin:miter;stroke-opacity:1" d="M 113.05,225.617 113.05,260.794 z" id="boundary" inkscape:connector-curvature="0" />
	<path style="fill:none;stroke:red;stroke-width:1px;stroke-linecap:butt;stroke-linejoin:miter;stroke-opacity:1" d="M 113.05,260.794 120.085,295.972 z" id="boundary" inkscape:connector-curvature="0" />
	<path style="fill:none;stroke:red;stroke-width:1px;stroke-linecap:butt;stroke-linejoin:miter;stroke-opacity:1" d="M 120.085,295.972 120.085,331.149 z" id="boundary" inkscape:connector-curvature="0" />
	<path style="fill:none;stroke:red;stroke-width:1px;stroke-linecap:butt;stroke-linejoin:miter;stroke-opacity:1" d="M 120.085,331.149 120.085,366.326 z" id="boundary" inkscape:connector-curvature="0" />
	<path style="fill:none;stroke:red;stroke-width:1px;stroke-linecap:butt;stroke-linejoin:miter;stroke-opacity:1" d="M 120.085,366.326 236.17,514.071 z" id="boundary" inkscape:connector-curvature="0" />
	<path style="fill:none;stroke:red;stroke-width:1px;stroke-linecap:butt;stroke-linejoin:miter;stroke-opacity:1" d="M 236.17,514.071 253.759,545.73 z" id="boundary" inkscape:connector-curvature="0" />
	<path style="fill:none;stroke:red;stroke-width:1px;stroke-linecap:butt;stroke-linejoin:miter;stroke-opacity:1" d="M 253.759,545.73 253.759,580.908 z" id="boundary" inkscape:connector-curvature="0" />
	<path style="fill:none;stroke:red;stroke-width:1px;stroke-linecap:butt;stroke-linejoin:miter;stroke-opacity:1" d="M 253.759,580.908 246.723,630.156 z" id="boundary" inkscape:connector-curvature="0" />
	<path style="fill:none;stroke:red;stroke-width:1px;stroke-linecap:butt;stroke-linejoin:miter;stroke-opacity:1" d="M 246.723,630.156 246.723,665.333 z" id="boundary" inkscape:connector-curvature="0" />
	<path style="fill:none;stroke:red;stroke-width:1px;stroke-linecap:butt;stroke-linejoin:miter;stroke-opacity:1" d="M 246.723,665.333 246.723,700.511 z" id="boundary" inkscape:connector-curvature="0" />
	<path style="fill:none;stroke:red;stroke-width:1px;stroke-linecap:butt;stroke-linejoin:miter;stroke-opacity:1" d="M 246.723,700.511 260.794,735.688 z" id="boundary" inkscape:connector-curvature="0" />
	<path style="fill:none;stroke:red;stroke-width:1px;stroke-linecap:butt;stroke-linejoin:miter;stroke-opacity:1" d="M 260.794,735.688 271.348,770.865 z" id="boundary" inkscape:connector-curvature="0" />
	<path style="fill:none;stroke:red;stroke-width:1px;stroke-linecap:butt;stroke-linejoin:miter;stroke-opacity:1" d="M 271.348,770.865 274.865,806.043 z" id="boundary" inkscape:connector-curvature="0" />
	<path style="fill:none;stroke:red;stroke-width:1px;stroke-linecap:butt;stroke-linejoin:miter;stroke-opacity:1" d="M 274.865,806.043 281.901,841.22 z" id="boundary" inkscape:connector-curvature="0" />
	<path style="fill:none;stroke:red;stroke-width:1px;stroke-linecap:butt;stroke-linejoin:miter;stroke-opacity:1" d="M 281.901,841.22 281.901,876.397 z" id="boundary" inkscape:connector-curvature="0" />
	<circle cx="4" cy="784.936" r="4" fill="#0" id="circle0"/>
	<circle cx="4" cy="820.113" r="4" fill="#0" id="circle1"/>
	<circle cx="4" cy="855.291" r="4" fill="#0" id="circle2"/>
	<circle cx="4" cy="890.468" r="4" fill="#0" id="circle3"/>
	<circle cx="14.5532" cy="925.645" r="4" fill="#0" id="circle4"/>
	<circle cx="18.0709" cy="735.688" r="4" fill="#0" id="circle5"/>
	<circle cx="25.1064" cy="545.73" r="4" fill="#0" id="circle6"/>
	<circle cx="25.1064" cy="580.908" r="4" fill="#0" id="circle7"/>
	<circle cx="25.1064" cy="616.085" r="4" fill="#0" id="circle8"/>
	<circle cx="32.1418" cy="651.262" r="4" fill="#0" id="circle9"/>
	<circle cx="32.1418" cy="686.44" r="4" fill="#0" id="circle10"/>
	<circle cx="32.1418" cy="957.305" r="4" fill="#0" id="circle11"/>
	<circle cx="60.2837" cy="545.73" r="4" fill="#0" id="circle12"/>
	<circle cx="60.2837" cy="981.929" r="4" fill="#0" id="circle13"/>
	<circle cx="74.3546" cy="362.809" r="4" fill="#0" id="circle14"/>
	<circle cx="74.3546" cy="412.057" r="4" fill="#0" id="circle15"/>
	<circle cx="74.3546" cy="447.234" r="4" fill="#0" id="circle16"/>
	<circle cx="74.3546" cy="482.411" r="4" fill="#0" id="circle17"/>
	<circle cx="81.3901" cy="102.496" r="4" fill="#0" id="circle18"/>
	<circle cx="81.3901" cy="137.674" r="4" fill="#0" id="circle19"/>
	<circle cx="81.3901" cy="172.851" r="4" fill="#0" id="circle20"/>
	<circle cx="81.3901" cy="208.028" r="4" fill="#0" id="circle21"/>
	<circle cx="81.3901" cy="243.206" r="4" fill="#0" id="circle22"/>
	<circle cx="81.3901" cy="278.383" r="4" fill="#0" id="circle23"/>
	<circle cx="81.3901" cy="313.56" r="4" fill="#0" id="circle24"/>
	<circle cx="95.461" cy="60.2837" r="4" fill="#0" id="circle25"/>
	<circle cx="95.461" cy="992.482" r="4" fill="#0" id="circle26"/>
	<circle cx="102.496" cy="25.1064" r="4" fill="#0" id="circle27"/>
	<circle cx="113.05" cy="155.262" r="4" fill="#0" id="circle28"/>
	<circle cx="113.05" cy="190.44" r="4" fill="#0" id="circle29"/>
	<circle cx="113.05" cy="225.617" r="4" fill="#0" id="circle30"/>
	<circle cx="113.05" cy="260.794" r="4" fill="#0" id="circle31"/>
	<circle cx="120.085" cy="295.972" r="4" fill="#0" id="circle32"/>
	<circle cx="120.085" cy="331.149" r="4" fill="#0" id="circle33"/>
	<circle cx="120.085" cy="366.326" r="4" fill="#0" id="circle34"/>
	<circle cx="120.085" cy="401.504" r="4" fill="#0" id="circle35"/>
	<circle cx="120.085" cy="436.681" r="4" fill="#0" id="circle36"/>
	<circle cx="123.603" cy="120.085" r="4" fill="#0" id="circle37"/>
	<circle cx="130.638" cy="4" r="4" fill="#0" id="circle38"/>
	<circle cx="130.638" cy="996" r="4" fill="#0" id="circle39"/>
	<circle cx="134.156" cy="81.3901" r="4" fill="#0" id="circle40"/>
	<circle cx="134.156" cy="471.858" r="4" fill="#0" id="circle41"/>
	<circle cx="148.227" cy="46.2128" r="4" fill="#0" id="circle42"/>
	<circle cx="165.816" cy="992.482" r="4" fill="#0" id="circle43"/>
	<circle cx="169.333" cy="482.411" r="4" fill="#0" id="circle44"/>
	<circle cx="200.993" cy="500" r="4" fill="#0" id="circle45"/>
	<circle cx="200.993" cy="992.482" r="4" fill="#0" id="circle46"/>
	<circle cx="232.652" cy="974.894" r="4" fill="#0" id="circle47"/>
	<circle cx="236.17" cy="514.071" r="4" fill="#0" id="circle48"/>
	<circle cx="246.723" cy="630.156" r="4" fill="#0" id="circle49"/>
	<circle cx="246.723" cy="665.333" r="4" fill="#0" id="circle50"/>
	<circle cx="246.723" cy="700.511" r="4" fill="#0" id="circle51"/>
	<circle cx="253.759" cy="545.73" r="4" fill="#0" id="circle52"/>
	<circle cx="253.759" cy="580.908" r="4" fill="#0" id="circle53"/>
	<circle cx="253.759" cy="946.752" r="4" fill="#0" id="circle54"/>
	<circle cx="260.794" cy="735.688" r="4" fill="#0" id="circle55"/>
	<circle cx="267.83" cy="911.574" r="4" fill="#0" id="circle56"/>
	<circle cx="271.348" cy="770.865" r="4" fill="#0" id="circle57"/>
	<circle cx="274.865" cy="806.043" r="4" fill="#0" id="circle58"/>
	<circle cx="281.901" cy="841.22" r="4" fill="#0" id="circle59"/>
	<circle cx="281.901" cy="876.397" r="4" fill="#0" id="circle60"/>
	</g>
</svg>