<?xml version="1.0" encoding="UTF-8" standalone="no"?>
<!-- Created with CurveBenchmark -->
<svg
	xmlns:dc="http://purl.org/dc/elements/1.1/"
	xmlns:cc="http://creativecommons.org/ns#"
	xmlns:rdf="http://www.w3.org/1999/02/22-rdf-syntax-ns#"
	xmlns:svg="http://www.w3.org/2000/svg"
	xmlns="http://www.w3.org/2000/svg"
	xmlns:sodipodi="http://sodipodi.sourceforge.net/DTD/sodipodi-0.dtd"
	xmlns:inkscape="http://www.inkscape.org/namespaces/inkscape"
	width="1000"
	height="1000"
	id="svg2"
	version="1.1"
	sodipodi:docname="manifold/connect2d-fa18cocc1.png.txt">
<defs
	id="defs4" />
<metadata
	id="metadata7">
	<rdf:RDF>
		<cc:Work
			rdf:about="">
			<dc:format>image/svg+xml</dc:format>
			<dc:type
				rdf:resource="http://purl.org/dc/dcmitype/StillImage" />
			<dc:title></dc:title>
		</cc:Work>
	</rdf:RDF>
</metadata>
<g
	inkscape:label="Layer 1"
	inkscape:groupmode="layer"
	id="layer1">
	<path style="fill:none;stroke:red;stroke-width:1px;stroke-linecap:butt;stroke-linejoin:miter;stroke-opacity:1" d="M 986.746,292.716 977.493,320.478 z" id="boundary" inkscape:connector-curvature="0" />
	<path style="fill:none;stroke:red;stroke-width:1px;stroke-linecap:butt;stroke-linejoin:miter;stroke-opacity:1" d="M 977.493,320.478 968.239,338.985 z" id="boundary" inkscape:connector-curvature="0" />
	<path style="fill:none;stroke:red;stroke-width:1px;stroke-linecap:butt;stroke-linejoin:miter;stroke-opacity:1" d="M 968.239,338.985 968.239,357.493 z" id="boundary" inkscape:connector-curvature="0" />
	<path style="fill:none;stroke:red;stroke-width:1px;stroke-linecap:butt;stroke-linejoin:miter;stroke-opacity:1" d="M 968.239,357.493 968.239,376 z" id="boundary" inkscape:connector-curvature="0" />
	<path style="fill:none;stroke:red;stroke-width:1px;stroke-linecap:butt;stroke-linejoin:miter;stroke-opacity:1" d="M 968.239,376 977.493,392.657 z" id="boundary" inkscape:connector-curvature="0" />
	<path style="fill:none;stroke:red;stroke-width:1px;stroke-linecap:butt;stroke-linejoin:miter;stroke-opacity:1" d="M 977.493,392.657 977.493,411.164 z" id="boundary" inkscape:connector-curvature="0" />
	<path style="fill:none;stroke:red;stroke-width:1px;stroke-linecap:butt;stroke-linejoin:miter;stroke-opacity:1" d="M 977.493,411.164 968.239,431.522 z" id="boundary" inkscape:connector-curvature="0" />
	<path style="fill:none;stroke:red;stroke-width:1px;stroke-linecap:butt;stroke-linejoin:miter;stroke-opacity:1" d="M 968.239,431.522 968.239,450.03 z" id="boundary" inkscape:connector-curvature="0" />
	<path style="fill:none;stroke:red;stroke-width:1px;stroke-linecap:butt;stroke-linejoin:miter;stroke-opacity:1" d="M 968.239,450.03 977.493,466.687 z" id="boundary" inkscape:connector-curvature="0" />
	<path style="fill:none;stroke:red;stroke-width:1px;stroke-linecap:butt;stroke-linejoin:miter;stroke-opacity:1" d="M 977.493,466.687 977.493,485.194 z" id="boundary" inkscape:connector-curvature="0" />
	<path style="fill:none;stroke:red;stroke-width:1px;stroke-linecap:butt;stroke-linejoin:miter;stroke-opacity:1" d="M 977.493,485.194 968.239,505.552 z" id="boundary" inkscape:connector-curvature="0" />
	<path style="fill:none;stroke:red;stroke-width:1px;stroke-linecap:butt;stroke-linejoin:miter;stroke-opacity:1" d="M 968.239,505.552 968.239,524.06 z" id="boundary" inkscape:connector-curvature="0" />
	<path style="fill:none;stroke:red;stroke-width:1px;stroke-linecap:butt;stroke-linejoin:miter;stroke-opacity:1" d="M 968.239,524.06 968.239,542.567 z" id="boundary" inkscape:connector-curvature="0" />
	<path style="fill:none;stroke:red;stroke-width:1px;stroke-linecap:butt;stroke-linejoin:miter;stroke-opacity:1" d="M 968.239,542.567 977.493,559.224 z" id="boundary" inkscape:connector-curvature="0" />
	<path style="fill:none;stroke:red;stroke-width:1px;stroke-linecap:butt;stroke-linejoin:miter;stroke-opacity:1" d="M 977.493,559.224 986.746,575.881 z" id="boundary" inkscape:connector-curvature="0" />
	<path style="fill:none;stroke:red;stroke-width:1px;stroke-linecap:butt;stroke-linejoin:miter;stroke-opacity:1" d="M 986.746,575.881 986.746,594.388 z" id="boundary" inkscape:connector-curvature="0" />
	<path style="fill:none;stroke:red;stroke-width:1px;stroke-linecap:butt;stroke-linejoin:miter;stroke-opacity:1" d="M 986.746,594.388 996,611.045 z" id="boundary" inkscape:connector-curvature="0" />
	<path style="fill:none;stroke:red;stroke-width:1px;stroke-linecap:butt;stroke-linejoin:miter;stroke-opacity:1" d="M 996,611.045 983.045,625.851 z" id="boundary" inkscape:connector-curvature="0" />
	<path style="fill:none;stroke:red;stroke-width:1px;stroke-linecap:butt;stroke-linejoin:miter;stroke-opacity:1" d="M 983.045,625.851 964.537,625.851 z" id="boundary" inkscape:connector-curvature="0" />
	<path style="fill:none;stroke:red;stroke-width:1px;stroke-linecap:butt;stroke-linejoin:miter;stroke-opacity:1" d="M 964.537,625.851 946.03,625.851 z" id="boundary" inkscape:connector-curvature="0" />
	<path style="fill:none;stroke:red;stroke-width:1px;stroke-linecap:butt;stroke-linejoin:miter;stroke-opacity:1" d="M 946.03,625.851 931.224,612.896 z" id="boundary" inkscape:connector-curvature="0" />
	<path style="fill:none;stroke:red;stroke-width:1px;stroke-linecap:butt;stroke-linejoin:miter;stroke-opacity:1" d="M 931.224,612.896 918.269,598.09 z" id="boundary" inkscape:connector-curvature="0" />
	<path style="fill:none;stroke:red;stroke-width:1px;stroke-linecap:butt;stroke-linejoin:miter;stroke-opacity:1" d="M 918.269,598.09 901.612,588.836 z" id="boundary" inkscape:connector-curvature="0" />
	<path style="fill:none;stroke:red;stroke-width:1px;stroke-linecap:butt;stroke-linejoin:miter;stroke-opacity:1" d="M 901.612,588.836 884.955,579.582 z" id="boundary" inkscape:connector-curvature="0" />
	<path style="fill:none;stroke:red;stroke-width:1px;stroke-linecap:butt;stroke-linejoin:miter;stroke-opacity:1" d="M 884.955,579.582 870.149,568.478 z" id="boundary" inkscape:connector-curvature="0" />
	<path style="fill:none;stroke:red;stroke-width:1px;stroke-linecap:butt;stroke-linejoin:miter;stroke-opacity:1" d="M 870.149,568.478 851.642,561.075 z" id="boundary" inkscape:connector-curvature="0" />
	<path style="fill:none;stroke:red;stroke-width:1px;stroke-linecap:butt;stroke-linejoin:miter;stroke-opacity:1" d="M 851.642,561.075 834.985,551.821 z" id="boundary" inkscape:connector-curvature="0" />
	<path style="fill:none;stroke:red;stroke-width:1px;stroke-linecap:butt;stroke-linejoin:miter;stroke-opacity:1" d="M 834.985,551.821 816.478,551.821 z" id="boundary" inkscape:connector-curvature="0" />
	<path style="fill:none;stroke:red;stroke-width:1px;stroke-linecap:butt;stroke-linejoin:miter;stroke-opacity:1" d="M 816.478,551.821 799.821,542.567 z" id="boundary" inkscape:connector-curvature="0" />
	<path style="fill:none;stroke:red;stroke-width:1px;stroke-linecap:butt;stroke-linejoin:miter;stroke-opacity:1" d="M 799.821,542.567 781.313,542.567 z" id="boundary" inkscape:connector-curvature="0" />
	<path style="fill:none;stroke:red;stroke-width:1px;stroke-linecap:butt;stroke-linejoin:miter;stroke-opacity:1" d="M 781.313,542.567 764.657,533.313 z" id="boundary" inkscape:connector-curvature="0" />
	<path style="fill:none;stroke:red;stroke-width:1px;stroke-linecap:butt;stroke-linejoin:miter;stroke-opacity:1" d="M 764.657,533.313 764.657,551.821 z" id="boundary" inkscape:connector-curvature="0" />
	<path style="fill:none;stroke:red;stroke-width:1px;stroke-linecap:butt;stroke-linejoin:miter;stroke-opacity:1" d="M 764.657,551.821 755.403,570.328 z" id="boundary" inkscape:connector-curvature="0" />
	<path style="fill:none;stroke:red;stroke-width:1px;stroke-linecap:butt;stroke-linejoin:miter;stroke-opacity:1" d="M 755.403,570.328 755.403,588.836 z" id="boundary" inkscape:connector-curvature="0" />
	<path style="fill:none;stroke:red;stroke-width:1px;stroke-linecap:butt;stroke-linejoin:miter;stroke-opacity:1" d="M 755.403,588.836 755.403,607.343 z" id="boundary" inkscape:connector-curvature="0" />
	<path style="fill:none;stroke:red;stroke-width:1px;stroke-linecap:butt;stroke-linejoin:miter;stroke-opacity:1" d="M 755.403,607.343 755.403,625.851 z" id="boundary" inkscape:connector-curvature="0" />
	<path style="fill:none;stroke:red;stroke-width:1px;stroke-linecap:butt;stroke-linejoin:miter;stroke-opacity:1" d="M 755.403,625.851 755.403,644.358 z" id="boundary" inkscape:connector-curvature="0" />
	<path style="fill:none;stroke:red;stroke-width:1px;stroke-linecap:butt;stroke-linejoin:miter;stroke-opacity:1" d="M 755.403,644.358 746.149,672.119 z" id="boundary" inkscape:connector-curvature="0" />
	<path style="fill:none;stroke:red;stroke-width:1px;stroke-linecap:butt;stroke-linejoin:miter;stroke-opacity:1" d="M 746.149,672.119 746.149,690.627 z" id="boundary" inkscape:connector-curvature="0" />
	<path style="fill:none;stroke:red;stroke-width:1px;stroke-linecap:butt;stroke-linejoin:miter;stroke-opacity:1" d="M 746.149,690.627 746.149,709.134 z" id="boundary" inkscape:connector-curvature="0" />
	<path style="fill:none;stroke:red;stroke-width:1px;stroke-linecap:butt;stroke-linejoin:miter;stroke-opacity:1" d="M 746.149,709.134 746.149,727.642 z" id="boundary" inkscape:connector-curvature="0" />
	<path style="fill:none;stroke:red;stroke-width:1px;stroke-linecap:butt;stroke-linejoin:miter;stroke-opacity:1" d="M 746.149,727.642 746.149,746.149 z" id="boundary" inkscape:connector-curvature="0" />
	<path style="fill:none;stroke:red;stroke-width:1px;stroke-linecap:butt;stroke-linejoin:miter;stroke-opacity:1" d="M 746.149,746.149 736.896,773.91 z" id="boundary" inkscape:connector-curvature="0" />
	<path style="fill:none;stroke:red;stroke-width:1px;stroke-linecap:butt;stroke-linejoin:miter;stroke-opacity:1" d="M 736.896,773.91 736.896,792.418 z" id="boundary" inkscape:connector-curvature="0" />
	<path style="fill:none;stroke:red;stroke-width:1px;stroke-linecap:butt;stroke-linejoin:miter;stroke-opacity:1" d="M 736.896,792.418 736.896,810.925 z" id="boundary" inkscape:connector-curvature="0" />
	<path style="fill:none;stroke:red;stroke-width:1px;stroke-linecap:butt;stroke-linejoin:miter;stroke-opacity:1" d="M 736.896,810.925 722.09,829.433 z" id="boundary" inkscape:connector-curvature="0" />
	<path style="fill:none;stroke:red;stroke-width:1px;stroke-linecap:butt;stroke-linejoin:miter;stroke-opacity:1" d="M 722.09,829.433 703.582,829.433 z" id="boundary" inkscape:connector-curvature="0" />
	<path style="fill:none;stroke:red;stroke-width:1px;stroke-linecap:butt;stroke-linejoin:miter;stroke-opacity:1" d="M 703.582,829.433 685.075,829.433 z" id="boundary" inkscape:connector-curvature="0" />
	<path style="fill:none;stroke:red;stroke-width:1px;stroke-linecap:butt;stroke-linejoin:miter;stroke-opacity:1" d="M 685.075,829.433 666.567,829.433 z" id="boundary" inkscape:connector-curvature="0" />
	<path style="fill:none;stroke:red;stroke-width:1px;stroke-linecap:butt;stroke-linejoin:miter;stroke-opacity:1" d="M 666.567,829.433 661.015,810.925 z" id="boundary" inkscape:connector-curvature="0" />
	<path style="fill:none;stroke:red;stroke-width:1px;stroke-linecap:butt;stroke-linejoin:miter;stroke-opacity:1" d="M 661.015,810.925 642.507,805.373 z" id="boundary" inkscape:connector-curvature="0" />
	<path style="fill:none;stroke:red;stroke-width:1px;stroke-linecap:butt;stroke-linejoin:miter;stroke-opacity:1" d="M 642.507,805.373 642.507,786.866 z" id="boundary" inkscape:connector-curvature="0" />
	<path style="fill:none;stroke:red;stroke-width:1px;stroke-linecap:butt;stroke-linejoin:miter;stroke-opacity:1" d="M 642.507,786.866 633.254,770.209 z" id="boundary" inkscape:connector-curvature="0" />
	<path style="fill:none;stroke:red;stroke-width:1px;stroke-linecap:butt;stroke-linejoin:miter;stroke-opacity:1" d="M 633.254,770.209 624,753.552 z" id="boundary" inkscape:connector-curvature="0" />
	<path style="fill:none;stroke:red;stroke-width:1px;stroke-linecap:butt;stroke-linejoin:miter;stroke-opacity:1" d="M 624,753.552 614.746,736.896 z" id="boundary" inkscape:connector-curvature="0" />
	<path style="fill:none;stroke:red;stroke-width:1px;stroke-linecap:butt;stroke-linejoin:miter;stroke-opacity:1" d="M 614.746,736.896 599.94,725.791 z" id="boundary" inkscape:connector-curvature="0" />
	<path style="fill:none;stroke:red;stroke-width:1px;stroke-linecap:butt;stroke-linejoin:miter;stroke-opacity:1" d="M 599.94,725.791 596.239,707.284 z" id="boundary" inkscape:connector-curvature="0" />
	<path style="fill:none;stroke:red;stroke-width:1px;stroke-linecap:butt;stroke-linejoin:miter;stroke-opacity:1" d="M 596.239,707.284 586.985,690.627 z" id="boundary" inkscape:connector-curvature="0" />
	<path style="fill:none;stroke:red;stroke-width:1px;stroke-linecap:butt;stroke-linejoin:miter;stroke-opacity:1" d="M 586.985,690.627 577.731,673.97 z" id="boundary" inkscape:connector-curvature="0" />
	<path style="fill:none;stroke:red;stroke-width:1px;stroke-linecap:butt;stroke-linejoin:miter;stroke-opacity:1" d="M 577.731,673.97 568.478,657.313 z" id="boundary" inkscape:connector-curvature="0" />
	<path style="fill:none;stroke:red;stroke-width:1px;stroke-linecap:butt;stroke-linejoin:miter;stroke-opacity:1" d="M 568.478,657.313 561.075,638.806 z" id="boundary" inkscape:connector-curvature="0" />
	<path style="fill:none;stroke:red;stroke-width:1px;stroke-linecap:butt;stroke-linejoin:miter;stroke-opacity:1" d="M 561.075,638.806 551.821,622.149 z" id="boundary" inkscape:connector-curvature="0" />
	<path style="fill:none;stroke:red;stroke-width:1px;stroke-linecap:butt;stroke-linejoin:miter;stroke-opacity:1" d="M 551.821,622.149 549.97,603.642 z" id="boundary" inkscape:connector-curvature="0" />
	<path style="fill:none;stroke:red;stroke-width:1px;stroke-linecap:butt;stroke-linejoin:miter;stroke-opacity:1" d="M 549.97,603.642 540.716,586.985 z" id="boundary" inkscape:connector-curvature="0" />
	<path style="fill:none;stroke:red;stroke-width:1px;stroke-linecap:butt;stroke-linejoin:miter;stroke-opacity:1" d="M 540.716,586.985 531.463,570.328 z" id="boundary" inkscape:connector-curvature="0" />
	<path style="fill:none;stroke:red;stroke-width:1px;stroke-linecap:butt;stroke-linejoin:miter;stroke-opacity:1" d="M 531.463,570.328 514.806,561.075 z" id="boundary" inkscape:connector-curvature="0" />
	<path style="fill:none;stroke:red;stroke-width:1px;stroke-linecap:butt;stroke-linejoin:miter;stroke-opacity:1" d="M 514.806,561.075 496.299,561.075 z" id="boundary" inkscape:connector-curvature="0" />
	<path style="fill:none;stroke:red;stroke-width:1px;stroke-linecap:butt;stroke-linejoin:miter;stroke-opacity:1" d="M 496.299,561.075 479.642,551.821 z" id="boundary" inkscape:connector-curvature="0" />
	<path style="fill:none;stroke:red;stroke-width:1px;stroke-linecap:butt;stroke-linejoin:miter;stroke-opacity:1" d="M 479.642,551.821 461.134,551.821 z" id="boundary" inkscape:connector-curvature="0" />
	<path style="fill:none;stroke:red;stroke-width:1px;stroke-linecap:butt;stroke-linejoin:miter;stroke-opacity:1" d="M 461.134,551.821 444.478,542.567 z" id="boundary" inkscape:connector-curvature="0" />
	<path style="fill:none;stroke:red;stroke-width:1px;stroke-linecap:butt;stroke-linejoin:miter;stroke-opacity:1" d="M 444.478,542.567 425.97,542.567 z" id="boundary" inkscape:connector-curvature="0" />
	<path style="fill:none;stroke:red;stroke-width:1px;stroke-linecap:butt;stroke-linejoin:miter;stroke-opacity:1" d="M 425.97,542.567 409.313,533.313 z" id="boundary" inkscape:connector-curvature="0" />
	<path style="fill:none;stroke:red;stroke-width:1px;stroke-linecap:butt;stroke-linejoin:miter;stroke-opacity:1" d="M 409.313,533.313 390.806,533.313 z" id="boundary" inkscape:connector-curvature="0" />
	<path style="fill:none;stroke:red;stroke-width:1px;stroke-linecap:butt;stroke-linejoin:miter;stroke-opacity:1" d="M 390.806,533.313 372.299,533.313 z" id="boundary" inkscape:connector-curvature="0" />
	<path style="fill:none;stroke:red;stroke-width:1px;stroke-linecap:butt;stroke-linejoin:miter;stroke-opacity:1" d="M 372.299,533.313 355.642,524.06 z" id="boundary" inkscape:connector-curvature="0" />
	<path style="fill:none;stroke:red;stroke-width:1px;stroke-linecap:butt;stroke-linejoin:miter;stroke-opacity:1" d="M 355.642,524.06 337.134,524.06 z" id="boundary" inkscape:connector-curvature="0" />
	<path style="fill:none;stroke:red;stroke-width:1px;stroke-linecap:butt;stroke-linejoin:miter;stroke-opacity:1" d="M 337.134,524.06 320.478,514.806 z" id="boundary" inkscape:connector-curvature="0" />
	<path style="fill:none;stroke:red;stroke-width:1px;stroke-linecap:butt;stroke-linejoin:miter;stroke-opacity:1" d="M 320.478,514.806 301.97,514.806 z" id="boundary" inkscape:connector-curvature="0" />
	<path style="fill:none;stroke:red;stroke-width:1px;stroke-linecap:butt;stroke-linejoin:miter;stroke-opacity:1" d="M 301.97,514.806 283.463,509.254 z" id="boundary" inkscape:connector-curvature="0" />
	<path style="fill:none;stroke:red;stroke-width:1px;stroke-linecap:butt;stroke-linejoin:miter;stroke-opacity:1" d="M 283.463,509.254 264.955,505.552 z" id="boundary" inkscape:connector-curvature="0" />
	<path style="fill:none;stroke:red;stroke-width:1px;stroke-linecap:butt;stroke-linejoin:miter;stroke-opacity:1" d="M 264.955,505.552 246.448,500 z" id="boundary" inkscape:connector-curvature="0" />
	<path style="fill:none;stroke:red;stroke-width:1px;stroke-linecap:butt;stroke-linejoin:miter;stroke-opacity:1" d="M 246.448,500 231.642,487.045 z" id="boundary" inkscape:connector-curvature="0" />
	<path style="fill:none;stroke:red;stroke-width:1px;stroke-linecap:butt;stroke-linejoin:miter;stroke-opacity:1" d="M 231.642,487.045 213.134,487.045 z" id="boundary" inkscape:connector-curvature="0" />
	<path style="fill:none;stroke:red;stroke-width:1px;stroke-linecap:butt;stroke-linejoin:miter;stroke-opacity:1" d="M 213.134,487.045 196.478,477.791 z" id="boundary" inkscape:connector-curvature="0" />
	<path style="fill:none;stroke:red;stroke-width:1px;stroke-linecap:butt;stroke-linejoin:miter;stroke-opacity:1" d="M 196.478,477.791 177.97,477.791 z" id="boundary" inkscape:connector-curvature="0" />
	<path style="fill:none;stroke:red;stroke-width:1px;stroke-linecap:butt;stroke-linejoin:miter;stroke-opacity:1" d="M 177.97,477.791 159.463,477.791 z" id="boundary" inkscape:connector-curvature="0" />
	<path style="fill:none;stroke:red;stroke-width:1px;stroke-linecap:butt;stroke-linejoin:miter;stroke-opacity:1" d="M 159.463,477.791 140.955,477.791 z" id="boundary" inkscape:connector-curvature="0" />
	<path style="fill:none;stroke:red;stroke-width:1px;stroke-linecap:butt;stroke-linejoin:miter;stroke-opacity:1" d="M 140.955,477.791 124.299,468.537 z" id="boundary" inkscape:connector-curvature="0" />
	<path style="fill:none;stroke:red;stroke-width:1px;stroke-linecap:butt;stroke-linejoin:miter;stroke-opacity:1" d="M 124.299,468.537 105.791,468.537 z" id="boundary" inkscape:connector-curvature="0" />
	<path style="fill:none;stroke:red;stroke-width:1px;stroke-linecap:butt;stroke-linejoin:miter;stroke-opacity:1" d="M 105.791,468.537 87.2836,468.537 z" id="boundary" inkscape:connector-curvature="0" />
	<path style="fill:none;stroke:red;stroke-width:1px;stroke-linecap:butt;stroke-linejoin:miter;stroke-opacity:1" d="M 87.2836,468.537 68.7761,468.537 z" id="boundary" inkscape:connector-curvature="0" />
	<path style="fill:none;stroke:red;stroke-width:1px;stroke-linecap:butt;stroke-linejoin:miter;stroke-opacity:1" d="M 68.7761,468.537 50.2687,462.985 z" id="boundary" inkscape:connector-curvature="0" />
	<path style="fill:none;stroke:red;stroke-width:1px;stroke-linecap:butt;stroke-linejoin:miter;stroke-opacity:1" d="M 50.2687,462.985 33.6119,453.731 z" id="boundary" inkscape:connector-curvature="0" />
	<path style="fill:none;stroke:red;stroke-width:1px;stroke-linecap:butt;stroke-linejoin:miter;stroke-opacity:1" d="M 33.6119,453.731 4,444.478 z" id="boundary" inkscape:connector-curvature="0" />
	<path style="fill:none;stroke:red;stroke-width:1px;stroke-linecap:butt;stroke-linejoin:miter;stroke-opacity:1" d="M 4,444.478 22.5075,438.925 z" id="boundary" inkscape:connector-curvature="0" />
	<path style="fill:none;stroke:red;stroke-width:1px;stroke-linecap:butt;stroke-linejoin:miter;stroke-opacity:1" d="M 22.5075,438.925 39.1642,429.672 z" id="boundary" inkscape:connector-curvature="0" />
	<path style="fill:none;stroke:red;stroke-width:1px;stroke-linecap:butt;stroke-linejoin:miter;stroke-opacity:1" d="M 39.1642,429.672 55.8209,420.418 z" id="boundary" inkscape:connector-curvature="0" />
	<path style="fill:none;stroke:red;stroke-width:1px;stroke-linecap:butt;stroke-linejoin:miter;stroke-opacity:1" d="M 55.8209,420.418 74.3284,420.418 z" id="boundary" inkscape:connector-curvature="0" />
	<path style="fill:none;stroke:red;stroke-width:1px;stroke-linecap:butt;stroke-linejoin:miter;stroke-opacity:1" d="M 74.3284,420.418 92.8358,420.418 z" id="boundary" inkscape:connector-curvature="0" />
	<path style="fill:none;stroke:red;stroke-width:1px;stroke-linecap:butt;stroke-linejoin:miter;stroke-opacity:1" d="M 92.8358,420.418 111.343,420.418 z" id="boundary" inkscape:connector-curvature="0" />
	<path style="fill:none;stroke:red;stroke-width:1px;stroke-linecap:butt;stroke-linejoin:miter;stroke-opacity:1" d="M 111.343,420.418 129.851,420.418 z" id="boundary" inkscape:connector-curvature="0" />
	<path style="fill:none;stroke:red;stroke-width:1px;stroke-linecap:butt;stroke-linejoin:miter;stroke-opacity:1" d="M 129.851,420.418 148.358,411.164 z" id="boundary" inkscape:connector-curvature="0" />
	<path style="fill:none;stroke:red;stroke-width:1px;stroke-linecap:butt;stroke-linejoin:miter;stroke-opacity:1" d="M 148.358,411.164 166.866,411.164 z" id="boundary" inkscape:connector-curvature="0" />
	<path style="fill:none;stroke:red;stroke-width:1px;stroke-linecap:butt;stroke-linejoin:miter;stroke-opacity:1" d="M 166.866,411.164 185.373,411.164 z" id="boundary" inkscape:connector-curvature="0" />
	<path style="fill:none;stroke:red;stroke-width:1px;stroke-linecap:butt;stroke-linejoin:miter;stroke-opacity:1" d="M 185.373,411.164 203.881,411.164 z" id="boundary" inkscape:connector-curvature="0" />
	<path style="fill:none;stroke:red;stroke-width:1px;stroke-linecap:butt;stroke-linejoin:miter;stroke-opacity:1" d="M 203.881,411.164 220.537,401.91 z" id="boundary" inkscape:connector-curvature="0" />
	<path style="fill:none;stroke:red;stroke-width:1px;stroke-linecap:butt;stroke-linejoin:miter;stroke-opacity:1" d="M 220.537,401.91 239.045,401.91 z" id="boundary" inkscape:connector-curvature="0" />
	<path style="fill:none;stroke:red;stroke-width:1px;stroke-linecap:butt;stroke-linejoin:miter;stroke-opacity:1" d="M 239.045,401.91 248.299,385.254 z" id="boundary" inkscape:connector-curvature="0" />
	<path style="fill:none;stroke:red;stroke-width:1px;stroke-linecap:butt;stroke-linejoin:miter;stroke-opacity:1" d="M 248.299,385.254 266.806,383.403 z" id="boundary" inkscape:connector-curvature="0" />
	<path style="fill:none;stroke:red;stroke-width:1px;stroke-linecap:butt;stroke-linejoin:miter;stroke-opacity:1" d="M 266.806,383.403 285.313,376 z" id="boundary" inkscape:connector-curvature="0" />
	<path style="fill:none;stroke:red;stroke-width:1px;stroke-linecap:butt;stroke-linejoin:miter;stroke-opacity:1" d="M 285.313,376 303.821,374.149 z" id="boundary" inkscape:connector-curvature="0" />
	<path style="fill:none;stroke:red;stroke-width:1px;stroke-linecap:butt;stroke-linejoin:miter;stroke-opacity:1" d="M 303.821,374.149 322.328,374.149 z" id="boundary" inkscape:connector-curvature="0" />
	<path style="fill:none;stroke:red;stroke-width:1px;stroke-linecap:butt;stroke-linejoin:miter;stroke-opacity:1" d="M 322.328,374.149 338.985,364.896 z" id="boundary" inkscape:connector-curvature="0" />
	<path style="fill:none;stroke:red;stroke-width:1px;stroke-linecap:butt;stroke-linejoin:miter;stroke-opacity:1" d="M 338.985,364.896 357.493,364.896 z" id="boundary" inkscape:connector-curvature="0" />
	<path style="fill:none;stroke:red;stroke-width:1px;stroke-linecap:butt;stroke-linejoin:miter;stroke-opacity:1" d="M 357.493,364.896 374.149,355.642 z" id="boundary" inkscape:connector-curvature="0" />
	<path style="fill:none;stroke:red;stroke-width:1px;stroke-linecap:butt;stroke-linejoin:miter;stroke-opacity:1" d="M 374.149,355.642 392.657,355.642 z" id="boundary" inkscape:connector-curvature="0" />
	<path style="fill:none;stroke:red;stroke-width:1px;stroke-linecap:butt;stroke-linejoin:miter;stroke-opacity:1" d="M 392.657,355.642 411.164,351.94 z" id="boundary" inkscape:connector-curvature="0" />
	<path style="fill:none;stroke:red;stroke-width:1px;stroke-linecap:butt;stroke-linejoin:miter;stroke-opacity:1" d="M 411.164,351.94 429.672,346.388 z" id="boundary" inkscape:connector-curvature="0" />
	<path style="fill:none;stroke:red;stroke-width:1px;stroke-linecap:butt;stroke-linejoin:miter;stroke-opacity:1" d="M 429.672,346.388 448.179,342.687 z" id="boundary" inkscape:connector-curvature="0" />
	<path style="fill:none;stroke:red;stroke-width:1px;stroke-linecap:butt;stroke-linejoin:miter;stroke-opacity:1" d="M 448.179,342.687 466.687,337.134 z" id="boundary" inkscape:connector-curvature="0" />
	<path style="fill:none;stroke:red;stroke-width:1px;stroke-linecap:butt;stroke-linejoin:miter;stroke-opacity:1" d="M 466.687,337.134 485.194,333.433 z" id="boundary" inkscape:connector-curvature="0" />
	<path style="fill:none;stroke:red;stroke-width:1px;stroke-linecap:butt;stroke-linejoin:miter;stroke-opacity:1" d="M 485.194,333.433 503.701,327.881 z" id="boundary" inkscape:connector-curvature="0" />
	<path style="fill:none;stroke:red;stroke-width:1px;stroke-linecap:butt;stroke-linejoin:miter;stroke-opacity:1" d="M 503.701,327.881 522.209,327.881 z" id="boundary" inkscape:connector-curvature="0" />
	<path style="fill:none;stroke:red;stroke-width:1px;stroke-linecap:butt;stroke-linejoin:miter;stroke-opacity:1" d="M 522.209,327.881 533.313,313.075 z" id="boundary" inkscape:connector-curvature="0" />
	<path style="fill:none;stroke:red;stroke-width:1px;stroke-linecap:butt;stroke-linejoin:miter;stroke-opacity:1" d="M 533.313,313.075 542.567,294.567 z" id="boundary" inkscape:connector-curvature="0" />
	<path style="fill:none;stroke:red;stroke-width:1px;stroke-linecap:butt;stroke-linejoin:miter;stroke-opacity:1" d="M 542.567,294.567 549.97,268.657 z" id="boundary" inkscape:connector-curvature="0" />
	<path style="fill:none;stroke:red;stroke-width:1px;stroke-linecap:butt;stroke-linejoin:miter;stroke-opacity:1" d="M 549.97,268.657 559.224,250.149 z" id="boundary" inkscape:connector-curvature="0" />
	<path style="fill:none;stroke:red;stroke-width:1px;stroke-linecap:butt;stroke-linejoin:miter;stroke-opacity:1" d="M 559.224,250.149 568.478,231.642 z" id="boundary" inkscape:connector-curvature="0" />
	<path style="fill:none;stroke:red;stroke-width:1px;stroke-linecap:butt;stroke-linejoin:miter;stroke-opacity:1" d="M 568.478,231.642 561.075,209.433 z" id="boundary" inkscape:connector-curvature="0" />
	<path style="fill:none;stroke:red;stroke-width:1px;stroke-linecap:butt;stroke-linejoin:miter;stroke-opacity:1" d="M 561.075,209.433 542.567,209.433 z" id="boundary" inkscape:connector-curvature="0" />
	<path style="fill:none;stroke:red;stroke-width:1px;stroke-linecap:butt;stroke-linejoin:miter;stroke-opacity:1" d="M 542.567,209.433 524.06,209.433 z" id="boundary" inkscape:connector-curvature="0" />
	<path style="fill:none;stroke:red;stroke-width:1px;stroke-linecap:butt;stroke-linejoin:miter;stroke-opacity:1" d="M 524.06,209.433 512.955,194.627 z" id="boundary" inkscape:connector-curvature="0" />
	<path style="fill:none;stroke:red;stroke-width:1px;stroke-linecap:butt;stroke-linejoin:miter;stroke-opacity:1" d="M 512.955,194.627 512.955,176.119 z" id="boundary" inkscape:connector-curvature="0" />
	<path style="fill:none;stroke:red;stroke-width:1px;stroke-linecap:butt;stroke-linejoin:miter;stroke-opacity:1" d="M 512.955,176.119 512.955,157.612 z" id="boundary" inkscape:connector-curvature="0" />
	<path style="fill:none;stroke:red;stroke-width:1px;stroke-linecap:butt;stroke-linejoin:miter;stroke-opacity:1" d="M 512.955,157.612 512.955,139.104 z" id="boundary" inkscape:connector-curvature="0" />
	<path style="fill:none;stroke:red;stroke-width:1px;stroke-linecap:butt;stroke-linejoin:miter;stroke-opacity:1" d="M 512.955,139.104 512.955,120.597 z" id="boundary" inkscape:connector-curvature="0" />
	<path style="fill:none;stroke:red;stroke-width:1px;stroke-linecap:butt;stroke-linejoin:miter;stroke-opacity:1" d="M 512.955,120.597 512.955,102.09 z" id="boundary" inkscape:connector-curvature="0" />
	<path style="fill:none;stroke:red;stroke-width:1px;stroke-linecap:butt;stroke-linejoin:miter;stroke-opacity:1" d="M 512.955,102.09 512.955,83.5821 z" id="boundary" inkscape:connector-curvature="0" />
	<path style="fill:none;stroke:red;stroke-width:1px;stroke-linecap:butt;stroke-linejoin:miter;stroke-opacity:1" d="M 512.955,83.5821 512.955,65.0746 z" id="boundary" inkscape:connector-curvature="0" />
	<path style="fill:none;stroke:red;stroke-width:1px;stroke-linecap:butt;stroke-linejoin:miter;stroke-opacity:1" d="M 512.955,65.0746 512.955,46.5672 z" id="boundary" inkscape:connector-curvature="0" />
	<path style="fill:none;stroke:red;stroke-width:1px;stroke-linecap:butt;stroke-linejoin:miter;stroke-opacity:1" d="M 512.955,46.5672 512.955,28.0597 z" id="boundary" inkscape:connector-curvature="0" />
	<path style="fill:none;stroke:red;stroke-width:1px;stroke-linecap:butt;stroke-linejoin:miter;stroke-opacity:1" d="M 512.955,28.0597 512.955,9.55224 z" id="boundary" inkscape:connector-curvature="0" />
	<path style="fill:none;stroke:red;stroke-width:1px;stroke-linecap:butt;stroke-linejoin:miter;stroke-opacity:1" d="M 512.955,9.55224 531.463,4 z" id="boundary" inkscape:connector-curvature="0" />
	<path style="fill:none;stroke:red;stroke-width:1px;stroke-linecap:butt;stroke-linejoin:miter;stroke-opacity:1" d="M 531.463,4 549.97,4 z" id="boundary" inkscape:connector-curvature="0" />
	<path style="fill:none;stroke:red;stroke-width:1px;stroke-linecap:butt;stroke-linejoin:miter;stroke-opacity:1" d="M 549.97,4 568.478,4 z" id="boundary" inkscape:connector-curvature="0" />
	<path style="fill:none;stroke:red;stroke-width:1px;stroke-linecap:butt;stroke-linejoin:miter;stroke-opacity:1" d="M 568.478,4 586.985,4 z" id="boundary" inkscape:connector-curvature="0" />
	<path style="fill:none;stroke:red;stroke-width:1px;stroke-linecap:butt;stroke-linejoin:miter;stroke-opacity:1" d="M 586.985,4 605.493,4 z" id="boundary" inkscape:connector-curvature="0" />
	<path style="fill:none;stroke:red;stroke-width:1px;stroke-linecap:butt;stroke-linejoin:miter;stroke-opacity:1" d="M 605.493,4 624,4 z" id="boundary" inkscape:connector-curvature="0" />
	<path style="fill:none;stroke:red;stroke-width:1px;stroke-linecap:butt;stroke-linejoin:miter;stroke-opacity:1" d="M 624,4 642.507,4 z" id="boundary" inkscape:connector-curvature="0" />
	<path style="fill:none;stroke:red;stroke-width:1px;stroke-linecap:butt;stroke-linejoin:miter;stroke-opacity:1" d="M 642.507,4 661.015,4 z" id="boundary" inkscape:connector-curvature="0" />
	<path style="fill:none;stroke:red;stroke-width:1px;stroke-linecap:butt;stroke-linejoin:miter;stroke-opacity:1" d="M 661.015,4 679.522,4 z" id="boundary" inkscape:connector-curvature="0" />
	<path style="fill:none;stroke:red;stroke-width:1px;stroke-linecap:butt;stroke-linejoin:miter;stroke-opacity:1" d="M 679.522,4 698.03,4 z" id="boundary" inkscape:connector-curvature="0" />
	<path style="fill:none;stroke:red;stroke-width:1px;stroke-linecap:butt;stroke-linejoin:miter;stroke-opacity:1" d="M 698.03,4 716.537,4 z" id="boundary" inkscape:connector-curvature="0" />
	<path style="fill:none;stroke:red;stroke-width:1px;stroke-linecap:butt;stroke-linejoin:miter;stroke-opacity:1" d="M 716.537,4 735.045,4 z" id="boundary" inkscape:connector-curvature="0" />
	<path style="fill:none;stroke:red;stroke-width:1px;stroke-linecap:butt;stroke-linejoin:miter;stroke-opacity:1" d="M 735.045,4 746.149,18.806 z" id="boundary" inkscape:connector-curvature="0" />
	<path style="fill:none;stroke:red;stroke-width:1px;stroke-linecap:butt;stroke-linejoin:miter;stroke-opacity:1" d="M 746.149,18.806 746.149,37.3134 z" id="boundary" inkscape:connector-curvature="0" />
	<path style="fill:none;stroke:red;stroke-width:1px;stroke-linecap:butt;stroke-linejoin:miter;stroke-opacity:1" d="M 746.149,37.3134 746.149,55.8209 z" id="boundary" inkscape:connector-curvature="0" />
	<path style="fill:none;stroke:red;stroke-width:1px;stroke-linecap:butt;stroke-linejoin:miter;stroke-opacity:1" d="M 746.149,55.8209 746.149,74.3284 z" id="boundary" inkscape:connector-curvature="0" />
	<path style="fill:none;stroke:red;stroke-width:1px;stroke-linecap:butt;stroke-linejoin:miter;stroke-opacity:1" d="M 746.149,74.3284 746.149,92.8358 z" id="boundary" inkscape:connector-curvature="0" />
	<path style="fill:none;stroke:red;stroke-width:1px;stroke-linecap:butt;stroke-linejoin:miter;stroke-opacity:1" d="M 746.149,92.8358 746.149,111.343 z" id="boundary" inkscape:connector-curvature="0" />
	<path style="fill:none;stroke:red;stroke-width:1px;stroke-linecap:butt;stroke-linejoin:miter;stroke-opacity:1" d="M 746.149,111.343 746.149,129.851 z" id="boundary" inkscape:connector-curvature="0" />
	<path style="fill:none;stroke:red;stroke-width:1px;stroke-linecap:butt;stroke-linejoin:miter;stroke-opacity:1" d="M 746.149,129.851 746.149,148.358 z" id="boundary" inkscape:connector-curvature="0" />
	<path style="fill:none;stroke:red;stroke-width:1px;stroke-linecap:butt;stroke-linejoin:miter;stroke-opacity:1" d="M 746.149,148.358 746.149,166.866 z" id="boundary" inkscape:connector-curvature="0" />
	<path style="fill:none;stroke:red;stroke-width:1px;stroke-linecap:butt;stroke-linejoin:miter;stroke-opacity:1" d="M 746.149,166.866 746.149,185.373 z" id="boundary" inkscape:connector-curvature="0" />
	<path style="fill:none;stroke:red;stroke-width:1px;stroke-linecap:butt;stroke-linejoin:miter;stroke-opacity:1" d="M 746.149,185.373 746.149,203.881 z" id="boundary" inkscape:connector-curvature="0" />
	<path style="fill:none;stroke:red;stroke-width:1px;stroke-linecap:butt;stroke-linejoin:miter;stroke-opacity:1" d="M 746.149,203.881 753.552,222.388 z" id="boundary" inkscape:connector-curvature="0" />
	<path style="fill:none;stroke:red;stroke-width:1px;stroke-linecap:butt;stroke-linejoin:miter;stroke-opacity:1" d="M 753.552,222.388 755.403,240.896 z" id="boundary" inkscape:connector-curvature="0" />
	<path style="fill:none;stroke:red;stroke-width:1px;stroke-linecap:butt;stroke-linejoin:miter;stroke-opacity:1" d="M 755.403,240.896 755.403,259.403 z" id="boundary" inkscape:connector-curvature="0" />
	<path style="fill:none;stroke:red;stroke-width:1px;stroke-linecap:butt;stroke-linejoin:miter;stroke-opacity:1" d="M 755.403,259.403 755.403,277.91 z" id="boundary" inkscape:connector-curvature="0" />
	<path style="fill:none;stroke:red;stroke-width:1px;stroke-linecap:butt;stroke-linejoin:miter;stroke-opacity:1" d="M 755.403,277.91 755.403,296.418 z" id="boundary" inkscape:connector-curvature="0" />
	<path style="fill:none;stroke:red;stroke-width:1px;stroke-linecap:butt;stroke-linejoin:miter;stroke-opacity:1" d="M 755.403,296.418 755.403,314.925 z" id="boundary" inkscape:connector-curvature="0" />
	<path style="fill:none;stroke:red;stroke-width:1px;stroke-linecap:butt;stroke-linejoin:miter;stroke-opacity:1" d="M 755.403,314.925 764.657,331.582 z" id="boundary" inkscape:connector-curvature="0" />
	<path style="fill:none;stroke:red;stroke-width:1px;stroke-linecap:butt;stroke-linejoin:miter;stroke-opacity:1" d="M 764.657,331.582 764.657,350.09 z" id="boundary" inkscape:connector-curvature="0" />
	<path style="fill:none;stroke:red;stroke-width:1px;stroke-linecap:butt;stroke-linejoin:miter;stroke-opacity:1" d="M 764.657,350.09 783.164,346.388 z" id="boundary" inkscape:connector-curvature="0" />
	<path style="fill:none;stroke:red;stroke-width:1px;stroke-linecap:butt;stroke-linejoin:miter;stroke-opacity:1" d="M 783.164,346.388 801.672,340.836 z" id="boundary" inkscape:connector-curvature="0" />
	<path style="fill:none;stroke:red;stroke-width:1px;stroke-linecap:butt;stroke-linejoin:miter;stroke-opacity:1" d="M 801.672,340.836 820.179,337.134 z" id="boundary" inkscape:connector-curvature="0" />
	<path style="fill:none;stroke:red;stroke-width:1px;stroke-linecap:butt;stroke-linejoin:miter;stroke-opacity:1" d="M 820.179,337.134 838.687,337.134 z" id="boundary" inkscape:connector-curvature="0" />
	<path style="fill:none;stroke:red;stroke-width:1px;stroke-linecap:butt;stroke-linejoin:miter;stroke-opacity:1" d="M 838.687,337.134 855.343,327.881 z" id="boundary" inkscape:connector-curvature="0" />
	<path style="fill:none;stroke:red;stroke-width:1px;stroke-linecap:butt;stroke-linejoin:miter;stroke-opacity:1" d="M 855.343,327.881 872,318.627 z" id="boundary" inkscape:connector-curvature="0" />
	<path style="fill:none;stroke:red;stroke-width:1px;stroke-linecap:butt;stroke-linejoin:miter;stroke-opacity:1" d="M 872,318.627 888.657,309.373 z" id="boundary" inkscape:connector-curvature="0" />
	<path style="fill:none;stroke:red;stroke-width:1px;stroke-linecap:butt;stroke-linejoin:miter;stroke-opacity:1" d="M 888.657,309.373 903.463,294.567 z" id="boundary" inkscape:connector-curvature="0" />
	<path style="fill:none;stroke:red;stroke-width:1px;stroke-linecap:butt;stroke-linejoin:miter;stroke-opacity:1" d="M 903.463,294.567 921.97,290.866 z" id="boundary" inkscape:connector-curvature="0" />
	<path style="fill:none;stroke:red;stroke-width:1px;stroke-linecap:butt;stroke-linejoin:miter;stroke-opacity:1" d="M 921.97,290.866 933.075,274.209 z" id="boundary" inkscape:connector-curvature="0" />
	<path style="fill:none;stroke:red;stroke-width:1px;stroke-linecap:butt;stroke-linejoin:miter;stroke-opacity:1" d="M 933.075,274.209 947.881,263.104 z" id="boundary" inkscape:connector-curvature="0" />
	<path style="fill:none;stroke:red;stroke-width:1px;stroke-linecap:butt;stroke-linejoin:miter;stroke-opacity:1" d="M 947.881,263.104 966.388,263.104 z" id="boundary" inkscape:connector-curvature="0" />
	<path style="fill:none;stroke:red;stroke-width:1px;stroke-linecap:butt;stroke-linejoin:miter;stroke-opacity:1" d="M 966.388,263.104 984.896,263.104 z" id="boundary" inkscape:connector-curvature="0" />
	<path style="fill:none;stroke:red;stroke-width:1px;stroke-linecap:butt;stroke-linejoin:miter;stroke-opacity:1" d="M 984.896,263.104 986.746,292.716 z" id="boundary" inkscape:connector-curvature="0" />
	<circle cx="4" cy="444.478" r="4" fill="#0" id="circle0"/>
	<circle cx="22.5075" cy="438.925" r="4" fill="#0" id="circle1"/>
	<circle cx="33.6119" cy="453.731" r="4" fill="#0" id="circle2"/>
	<circle cx="39.1642" cy="429.672" r="4" fill="#0" id="circle3"/>
	<circle cx="50.2687" cy="462.985" r="4" fill="#0" id="circle4"/>
	<circle cx="55.8209" cy="420.418" r="4" fill="#0" id="circle5"/>
	<circle cx="68.7761" cy="468.537" r="4" fill="#0" id="circle6"/>
	<circle cx="74.3284" cy="420.418" r="4" fill="#0" id="circle7"/>
	<circle cx="87.2836" cy="468.537" r="4" fill="#0" id="circle8"/>
	<circle cx="92.8358" cy="420.418" r="4" fill="#0" id="circle9"/>
	<circle cx="105.791" cy="468.537" r="4" fill="#0" id="circle10"/>
	<circle cx="111.343" cy="420.418" r="4" fill="#0" id="circle11"/>
	<circle cx="124.299" cy="468.537" r="4" fill="#0" id="circle12"/>
	<circle cx="129.851" cy="420.418" r="4" fill="#0" id="circle13"/>
	<circle cx="140.955" cy="477.791" r="4" fill="#0" id="circle14"/>
	<circle cx="148.358" cy="411.164" r="4" fill="#0" id="circle15"/>
	<circle cx="159.463" cy="477.791" r="4" fill="#0" id="circle16"/>
	<circle cx="166.866" cy="411.164" r="4" fill="#0" id="circle17"/>
	<circle cx="177.97" cy="477.791" r="4" fill="#0" id="circle18"/>
	<circle cx="185.373" cy="411.164" r="4" fill="#0" id="circle19"/>
	<circle cx="196.478" cy="477.791" r="4" fill="#0" id="circle20"/>
	<circle cx="203.881" cy="411.164" r="4" fill="#0" id="circle21"/>
	<circle cx="213.134" cy="487.045" r="4" fill="#0" id="circle22"/>
	<circle cx="220.537" cy="401.91" r="4" fill="#0" id="circle23"/>
	<circle cx="231.642" cy="487.045" r="4" fill="#0" id="circle24"/>
	<circle cx="239.045" cy="401.91" r="4" fill="#0" id="circle25"/>
	<circle cx="246.448" cy="500" r="4" fill="#0" id="circle26"/>
	<circle cx="248.299" cy="385.254" r="4" fill="#0" id="circle27"/>
	<circle cx="264.955" cy="505.552" r="4" fill="#0" id="circle28"/>
	<circle cx="266.806" cy="383.403" r="4" fill="#0" id="circle29"/>
	<circle cx="283.463" cy="509.254" r="4" fill="#0" id="circle30"/>
	<circle cx="285.313" cy="376" r="4" fill="#0" id="circle31"/>
	<circle cx="301.97" cy="514.806" r="4" fill="#0" id="circle32"/>
	<circle cx="303.821" cy="374.149" r="4" fill="#0" id="circle33"/>
	<circle cx="320.478" cy="514.806" r="4" fill="#0" id="circle34"/>
	<circle cx="322.328" cy="374.149" r="4" fill="#0" id="circle35"/>
	<circle cx="337.134" cy="524.06" r="4" fill="#0" id="circle36"/>
	<circle cx="338.985" cy="364.896" r="4" fill="#0" id="circle37"/>
	<circle cx="355.642" cy="524.06" r="4" fill="#0" id="circle38"/>
	<circle cx="357.493" cy="364.896" r="4" fill="#0" id="circle39"/>
	<circle cx="372.299" cy="533.313" r="4" fill="#0" id="circle40"/>
	<circle cx="374.149" cy="355.642" r="4" fill="#0" id="circle41"/>
	<circle cx="390.806" cy="533.313" r="4" fill="#0" id="circle42"/>
	<circle cx="392.657" cy="355.642" r="4" fill="#0" id="circle43"/>
	<circle cx="409.313" cy="533.313" r="4" fill="#0" id="circle44"/>
	<circle cx="411.164" cy="351.94" r="4" fill="#0" id="circle45"/>
	<circle cx="425.97" cy="542.567" r="4" fill="#0" id="circle46"/>
	<circle cx="429.672" cy="346.388" r="4" fill="#0" id="circle47"/>
	<circle cx="444.478" cy="542.567" r="4" fill="#0" id="circle48"/>
	<circle cx="448.179" cy="342.687" r="4" fill="#0" id="circle49"/>
	<circle cx="461.134" cy="551.821" r="4" fill="#0" id="circle50"/>
	<circle cx="466.687" cy="337.134" r="4" fill="#0" id="circle51"/>
	<circle cx="479.642" cy="551.821" r="4" fill="#0" id="circle52"/>
	<circle cx="485.194" cy="333.433" r="4" fill="#0" id="circle53"/>
	<circle cx="496.299" cy="561.075" r="4" fill="#0" id="circle54"/>
	<circle cx="503.701" cy="327.881" r="4" fill="#0" id="circle55"/>
	<circle cx="512.955" cy="9.55224" r="4" fill="#0" id="circle56"/>
	<circle cx="512.955" cy="28.0597" r="4" fill="#0" id="circle57"/>
	<circle cx="512.955" cy="46.5672" r="4" fill="#0" id="circle58"/>
	<circle cx="512.955" cy="65.0746" r="4" fill="#0" id="circle59"/>
	<circle cx="512.955" cy="83.5821" r="4" fill="#0" id="circle60"/>
	<circle cx="512.955" cy="102.09" r="4" fill="#0" id="circle61"/>
	<circle cx="512.955" cy="120.597" r="4" fill="#0" id="circle62"/>
	<circle cx="512.955" cy="139.104" r="4" fill="#0" id="circle63"/>
	<circle cx="512.955" cy="157.612" r="4" fill="#0" id="circle64"/>
	<circle cx="512.955" cy="176.119" r="4" fill="#0" id="circle65"/>
	<circle cx="512.955" cy="194.627" r="4" fill="#0" id="circle66"/>
	<circle cx="514.806" cy="561.075" r="4" fill="#0" id="circle67"/>
	<circle cx="522.209" cy="327.881" r="4" fill="#0" id="circle68"/>
	<circle cx="524.06" cy="209.433" r="4" fill="#0" id="circle69"/>
	<circle cx="531.463" cy="4" r="4" fill="#0" id="circle70"/>
	<circle cx="531.463" cy="570.328" r="4" fill="#0" id="circle71"/>
	<circle cx="533.313" cy="313.075" r="4" fill="#0" id="circle72"/>
	<circle cx="540.716" cy="586.985" r="4" fill="#0" id="circle73"/>
	<circle cx="542.567" cy="209.433" r="4" fill="#0" id="circle74"/>
	<circle cx="542.567" cy="294.567" r="4" fill="#0" id="circle75"/>
	<circle cx="549.97" cy="4" r="4" fill="#0" id="circle76"/>
	<circle cx="549.97" cy="268.657" r="4" fill="#0" id="circle77"/>
	<circle cx="549.97" cy="603.642" r="4" fill="#0" id="circle78"/>
	<circle cx="551.821" cy="622.149" r="4" fill="#0" id="circle79"/>
	<circle cx="559.224" cy="250.149" r="4" fill="#0" id="circle80"/>
	<circle cx="561.075" cy="209.433" r="4" fill="#0" id="circle81"/>
	<circle cx="561.075" cy="638.806" r="4" fill="#0" id="circle82"/>
	<circle cx="568.478" cy="4" r="4" fill="#0" id="circle83"/>
	<circle cx="568.478" cy="231.642" r="4" fill="#0" id="circle84"/>
	<circle cx="568.478" cy="657.313" r="4" fill="#0" id="circle85"/>
	<circle cx="577.731" cy="673.97" r="4" fill="#0" id="circle86"/>
	<circle cx="586.985" cy="4" r="4" fill="#0" id="circle87"/>
	<circle cx="586.985" cy="690.627" r="4" fill="#0" id="circle88"/>
	<circle cx="596.239" cy="707.284" r="4" fill="#0" id="circle89"/>
	<circle cx="599.94" cy="725.791" r="4" fill="#0" id="circle90"/>
	<circle cx="605.493" cy="4" r="4" fill="#0" id="circle91"/>
	<circle cx="614.746" cy="736.896" r="4" fill="#0" id="circle92"/>
	<circle cx="624" cy="4" r="4" fill="#0" id="circle93"/>
	<circle cx="624" cy="753.552" r="4" fill="#0" id="circle94"/>
	<circle cx="633.254" cy="770.209" r="4" fill="#0" id="circle95"/>
	<circle cx="642.507" cy="4" r="4" fill="#0" id="circle96"/>
	<circle cx="642.507" cy="786.866" r="4" fill="#0" id="circle97"/>
	<circle cx="642.507" cy="805.373" r="4" fill="#0" id="circle98"/>
	<circle cx="661.015" cy="4" r="4" fill="#0" id="circle99"/>
	<circle cx="661.015" cy="810.925" r="4" fill="#0" id="circle100"/>
	<circle cx="666.567" cy="829.433" r="4" fill="#0" id="circle101"/>
	<circle cx="679.522" cy="4" r="4" fill="#0" id="circle102"/>
	<circle cx="685.075" cy="829.433" r="4" fill="#0" id="circle103"/>
	<circle cx="698.03" cy="4" r="4" fill="#0" id="circle104"/>
	<circle cx="703.582" cy="829.433" r="4" fill="#0" id="circle105"/>
	<circle cx="716.537" cy="4" r="4" fill="#0" id="circle106"/>
	<circle cx="722.09" cy="829.433" r="4" fill="#0" id="circle107"/>
	<circle cx="735.045" cy="4" r="4" fill="#0" id="circle108"/>
	<circle cx="736.896" cy="773.91" r="4" fill="#0" id="circle109"/>
	<circle cx="736.896" cy="792.418" r="4" fill="#0" id="circle110"/>
	<circle cx="736.896" cy="810.925" r="4" fill="#0" id="circle111"/>
	<circle cx="746.149" cy="18.806" r="4" fill="#0" id="circle112"/>
	<circle cx="746.149" cy="37.3134" r="4" fill="#0" id="circle113"/>
	<circle cx="746.149" cy="55.8209" r="4" fill="#0" id="circle114"/>
	<circle cx="746.149" cy="74.3284" r="4" fill="#0" id="circle115"/>
	<circle cx="746.149" cy="92.8358" r="4" fill="#0" id="circle116"/>
	<circle cx="746.149" cy="111.343" r="4" fill="#0" id="circle117"/>
	<circle cx="746.149" cy="129.851" r="4" fill="#0" id="circle118"/>
	<circle cx="746.149" cy="148.358" r="4" fill="#0" id="circle119"/>
	<circle cx="746.149" cy="166.866" r="4" fill="#0" id="circle120"/>
	<circle cx="746.149" cy="185.373" r="4" fill="#0" id="circle121"/>
	<circle cx="746.149" cy="203.881" r="4" fill="#0" id="circle122"/>
	<circle cx="746.149" cy="672.119" r="4" fill="#0" id="circle123"/>
	<circle cx="746.149" cy="690.627" r="4" fill="#0" id="circle124"/>
	<circle cx="746.149" cy="709.134" r="4" fill="#0" id="circle125"/>
	<circle cx="746.149" cy="727.642" r="4" fill="#0" id="circle126"/>
	<circle cx="746.149" cy="746.149" r="4" fill="#0" id="circle127"/>
	<circle cx="753.552" cy="222.388" r="4" fill="#0" id="circle128"/>
	<circle cx="755.403" cy="240.896" r="4" fill="#0" id="circle129"/>
	<circle cx="755.403" cy="259.403" r="4" fill="#0" id="circle130"/>
	<circle cx="755.403" cy="277.91" r="4" fill="#0" id="circle131"/>
	<circle cx="755.403" cy="296.418" r="4" fill="#0" id="circle132"/>
	<circle cx="755.403" cy="314.925" r="4" fill="#0" id="circle133"/>
	<circle cx="755.403" cy="570.328" r="4" fill="#0" id="circle134"/>
	<circle cx="755.403" cy="588.836" r="4" fill="#0" id="circle135"/>
	<circle cx="755.403" cy="607.343" r="4" fill="#0" id="circle136"/>
	<circle cx="755.403" cy="625.851" r="4" fill="#0" id="circle137"/>
	<circle cx="755.403" cy="644.358" r="4" fill="#0" id="circle138"/>
	<circle cx="764.657" cy="331.582" r="4" fill="#0" id="circle139"/>
	<circle cx="764.657" cy="350.09" r="4" fill="#0" id="circle140"/>
	<circle cx="764.657" cy="533.313" r="4" fill="#0" id="circle141"/>
	<circle cx="764.657" cy="551.821" r="4" fill="#0" id="circle142"/>
	<circle cx="781.313" cy="542.567" r="4" fill="#0" id="circle143"/>
	<circle cx="783.164" cy="346.388" r="4" fill="#0" id="circle144"/>
	<circle cx="799.821" cy="542.567" r="4" fill="#0" id="circle145"/>
	<circle cx="801.672" cy="340.836" r="4" fill="#0" id="circle146"/>
	<circle cx="816.478" cy="551.821" r="4" fill="#0" id="circle147"/>
	<circle cx="820.179" cy="337.134" r="4" fill="#0" id="circle148"/>
	<circle cx="834.985" cy="551.821" r="4" fill="#0" id="circle149"/>
	<circle cx="838.687" cy="337.134" r="4" fill="#0" id="circle150"/>
	<circle cx="851.642" cy="561.075" r="4" fill="#0" id="circle151"/>
	<circle cx="855.343" cy="327.881" r="4" fill="#0" id="circle152"/>
	<circle cx="870.149" cy="568.478" r="4" fill="#0" id="circle153"/>
	<circle cx="872" cy="318.627" r="4" fill="#0" id="circle154"/>
	<circle cx="884.955" cy="579.582" r="4" fill="#0" id="circle155"/>
	<circle cx="888.657" cy="309.373" r="4" fill="#0" id="circle156"/>
	<circle cx="901.612" cy="588.836" r="4" fill="#0" id="circle157"/>
	<circle cx="903.463" cy="294.567" r="4" fill="#0" id="circle158"/>
	<circle cx="918.269" cy="598.09" r="4" fill="#0" id="circle159"/>
	<circle cx="921.97" cy="290.866" r="4" fill="#0" id="circle160"/>
	<circle cx="931.224" cy="612.896" r="4" fill="#0" id="circle161"/>
	<circle cx="933.075" cy="274.209" r="4" fill="#0" id="circle162"/>
	<circle cx="946.03" cy="625.851" r="4" fill="#0" id="circle163"/>
	<circle cx="947.881" cy="263.104" r="4" fill="#0" id="circle164"/>
	<circle cx="964.537" cy="625.851" r="4" fill="#0" id="circle165"/>
	<circle cx="966.388" cy="263.104" r="4" fill="#0" id="circle166"/>
	<circle cx="968.239" cy="338.985" r="4" fill="#0" id="circle167"/>
	<circle cx="968.239" cy="357.493" r="4" fill="#0" id="circle168"/>
	<circle cx="968.239" cy="376" r="4" fill="#0" id="circle169"/>
	<circle cx="968.239" cy="431.522" r="4" fill="#0" id="circle170"/>
	<circle cx="968.239" cy="450.03" r="4" fill="#0" id="circle171"/>
	<circle cx="968.239" cy="505.552" r="4" fill="#0" id="circle172"/>
	<circle cx="968.239" cy="524.06" r="4" fill="#0" id="circle173"/>
	<circle cx="968.239" cy="542.567" r="4" fill="#0" id="circle174"/>
	<circle cx="977.493" cy="320.478" r="4" fill="#0" id="circle175"/>
	<circle cx="977.493" cy="392.657" r="4" fill="#0" id="circle176"/>
	<circle cx="977.493" cy="411.164" r="4" fill="#0" id="circle177"/>
	<circle cx="977.493" cy="466.687" r="4" fill="#0" id="circle178"/>
	<circle cx="977.493" cy="485.194" r="4" fill="#0" id="circle179"/>
	<circle cx="977.493" cy="559.224" r="4" fill="#0" id="circle180"/>
	<circle cx="983.045" cy="625.851" r="4" fill="#0" id="circle181"/>
	<circle cx="984.896" cy="263.104" r="4" fill="#0" id="circle182"/>
	<circle cx="986.746" cy="292.716" r="4" fill="#0" id="circle183"/>
	<circle cx="986.746" cy="575.881" r="4" fill="#0" id="circle184"/>
	<circle cx="986.746" cy="594.388" r="4" fill="#0" id="circle185"/>
	<circle cx="996" cy="611.045" r="4" fill="#0" id="circle186"/>
	</g>
</svg>