<?xml version="1.0" encoding="UTF-8" standalone="no"?>
<!-- Created with CurveBenchmark -->
<svg
	xmlns:dc="http://purl.org/dc/elements/1.1/"
	xmlns:cc="http://creativecommons.org/ns#"
	xmlns:rdf="http://www.w3.org/1999/02/22-rdf-syntax-ns#"
	xmlns:svg="http://www.w3.org/2000/svg"
	xmlns="http://www.w3.org/2000/svg"
	xmlns:sodipodi="http://sodipodi.sourceforge.net/DTD/sodipodi-0.dtd"
	xmlns:inkscape="http://www.inkscape.org/namespaces/inkscape"
	width="1000"
	height="1000"
	id="svg2"
	version="1.1"
	sodipodi:docname="manifold/connect2d-carriage08.png.txt">
<defs
	id="defs4" />
<metadata
	id="metadata7">
	<rdf:RDF>
		<cc:Work
			rdf:about="">
			<dc:format>image/svg+xml</dc:format>
			<dc:type
				rdf:resource="http://purl.org/dc/dcmitype/StillImage" />
			<dc:title></dc:title>
		</cc:Work>
	</rdf:RDF>
</metadata>
<g
	inkscape:label="Layer 1"
	inkscape:groupmode="layer"
	id="layer1">
	<path style="fill:none;stroke:red;stroke-width:1px;stroke-linecap:butt;stroke-linejoin:miter;stroke-opacity:1" d="M 996,333.557 982.685,358.523 z" id="boundary" inkscape:connector-curvature="0" />
	<path style="fill:none;stroke:red;stroke-width:1px;stroke-linecap:butt;stroke-linejoin:miter;stroke-opacity:1" d="M 982.685,358.523 974.362,375.168 z" id="boundary" inkscape:connector-curvature="0" />
	<path style="fill:none;stroke:red;stroke-width:1px;stroke-linecap:butt;stroke-linejoin:miter;stroke-opacity:1" d="M 974.362,375.168 966.04,391.812 z" id="boundary" inkscape:connector-curvature="0" />
	<path style="fill:none;stroke:red;stroke-width:1px;stroke-linecap:butt;stroke-linejoin:miter;stroke-opacity:1" d="M 966.04,391.812 956.054,406.792 z" id="boundary" inkscape:connector-curvature="0" />
	<path style="fill:none;stroke:red;stroke-width:1px;stroke-linecap:butt;stroke-linejoin:miter;stroke-opacity:1" d="M 956.054,406.792 939.409,410.121 z" id="boundary" inkscape:connector-curvature="0" />
	<path style="fill:none;stroke:red;stroke-width:1px;stroke-linecap:butt;stroke-linejoin:miter;stroke-opacity:1" d="M 939.409,410.121 924.43,401.799 z" id="boundary" inkscape:connector-curvature="0" />
	<path style="fill:none;stroke:red;stroke-width:1px;stroke-linecap:butt;stroke-linejoin:miter;stroke-opacity:1" d="M 924.43,401.799 907.785,408.456 z" id="boundary" inkscape:connector-curvature="0" />
	<path style="fill:none;stroke:red;stroke-width:1px;stroke-linecap:butt;stroke-linejoin:miter;stroke-opacity:1" d="M 907.785,408.456 891.141,410.121 z" id="boundary" inkscape:connector-curvature="0" />
	<path style="fill:none;stroke:red;stroke-width:1px;stroke-linecap:butt;stroke-linejoin:miter;stroke-opacity:1" d="M 891.141,410.121 879.49,396.805 z" id="boundary" inkscape:connector-curvature="0" />
	<path style="fill:none;stroke:red;stroke-width:1px;stroke-linecap:butt;stroke-linejoin:miter;stroke-opacity:1" d="M 879.49,396.805 862.846,390.148 z" id="boundary" inkscape:connector-curvature="0" />
	<path style="fill:none;stroke:red;stroke-width:1px;stroke-linecap:butt;stroke-linejoin:miter;stroke-opacity:1" d="M 862.846,390.148 847.866,381.826 z" id="boundary" inkscape:connector-curvature="0" />
	<path style="fill:none;stroke:red;stroke-width:1px;stroke-linecap:butt;stroke-linejoin:miter;stroke-opacity:1" d="M 847.866,381.826 831.221,375.168 z" id="boundary" inkscape:connector-curvature="0" />
	<path style="fill:none;stroke:red;stroke-width:1px;stroke-linecap:butt;stroke-linejoin:miter;stroke-opacity:1" d="M 831.221,375.168 824.564,358.523 z" id="boundary" inkscape:connector-curvature="0" />
	<path style="fill:none;stroke:red;stroke-width:1px;stroke-linecap:butt;stroke-linejoin:miter;stroke-opacity:1" d="M 824.564,358.523 816.242,343.544 z" id="boundary" inkscape:connector-curvature="0" />
	<path style="fill:none;stroke:red;stroke-width:1px;stroke-linecap:butt;stroke-linejoin:miter;stroke-opacity:1" d="M 816.242,343.544 804.591,330.228 z" id="boundary" inkscape:connector-curvature="0" />
	<path style="fill:none;stroke:red;stroke-width:1px;stroke-linecap:butt;stroke-linejoin:miter;stroke-opacity:1" d="M 804.591,330.228 796.268,315.248 z" id="boundary" inkscape:connector-curvature="0" />
	<path style="fill:none;stroke:red;stroke-width:1px;stroke-linecap:butt;stroke-linejoin:miter;stroke-opacity:1" d="M 796.268,315.248 786.282,301.933 z" id="boundary" inkscape:connector-curvature="0" />
	<path style="fill:none;stroke:red;stroke-width:1px;stroke-linecap:butt;stroke-linejoin:miter;stroke-opacity:1" d="M 786.282,301.933 769.638,301.933 z" id="boundary" inkscape:connector-curvature="0" />
	<path style="fill:none;stroke:red;stroke-width:1px;stroke-linecap:butt;stroke-linejoin:miter;stroke-opacity:1" d="M 769.638,301.933 752.993,301.933 z" id="boundary" inkscape:connector-curvature="0" />
	<path style="fill:none;stroke:red;stroke-width:1px;stroke-linecap:butt;stroke-linejoin:miter;stroke-opacity:1" d="M 752.993,301.933 736.349,301.933 z" id="boundary" inkscape:connector-curvature="0" />
	<path style="fill:none;stroke:red;stroke-width:1px;stroke-linecap:butt;stroke-linejoin:miter;stroke-opacity:1" d="M 736.349,301.933 719.705,301.933 z" id="boundary" inkscape:connector-curvature="0" />
	<path style="fill:none;stroke:red;stroke-width:1px;stroke-linecap:butt;stroke-linejoin:miter;stroke-opacity:1" d="M 719.705,301.933 703.06,301.933 z" id="boundary" inkscape:connector-curvature="0" />
	<path style="fill:none;stroke:red;stroke-width:1px;stroke-linecap:butt;stroke-linejoin:miter;stroke-opacity:1" d="M 703.06,301.933 686.416,301.933 z" id="boundary" inkscape:connector-curvature="0" />
	<path style="fill:none;stroke:red;stroke-width:1px;stroke-linecap:butt;stroke-linejoin:miter;stroke-opacity:1" d="M 686.416,301.933 669.772,301.933 z" id="boundary" inkscape:connector-curvature="0" />
	<path style="fill:none;stroke:red;stroke-width:1px;stroke-linecap:butt;stroke-linejoin:miter;stroke-opacity:1" d="M 669.772,301.933 653.128,301.933 z" id="boundary" inkscape:connector-curvature="0" />
	<path style="fill:none;stroke:red;stroke-width:1px;stroke-linecap:butt;stroke-linejoin:miter;stroke-opacity:1" d="M 653.128,301.933 636.483,301.933 z" id="boundary" inkscape:connector-curvature="0" />
	<path style="fill:none;stroke:red;stroke-width:1px;stroke-linecap:butt;stroke-linejoin:miter;stroke-opacity:1" d="M 636.483,301.933 619.839,301.933 z" id="boundary" inkscape:connector-curvature="0" />
	<path style="fill:none;stroke:red;stroke-width:1px;stroke-linecap:butt;stroke-linejoin:miter;stroke-opacity:1" d="M 619.839,301.933 604.859,310.255 z" id="boundary" inkscape:connector-curvature="0" />
	<path style="fill:none;stroke:red;stroke-width:1px;stroke-linecap:butt;stroke-linejoin:miter;stroke-opacity:1" d="M 604.859,310.255 604.859,326.899 z" id="boundary" inkscape:connector-curvature="0" />
	<path style="fill:none;stroke:red;stroke-width:1px;stroke-linecap:butt;stroke-linejoin:miter;stroke-opacity:1" d="M 604.859,326.899 596.537,351.866 z" id="boundary" inkscape:connector-curvature="0" />
	<path style="fill:none;stroke:red;stroke-width:1px;stroke-linecap:butt;stroke-linejoin:miter;stroke-opacity:1" d="M 596.537,351.866 596.537,368.51 z" id="boundary" inkscape:connector-curvature="0" />
	<path style="fill:none;stroke:red;stroke-width:1px;stroke-linecap:butt;stroke-linejoin:miter;stroke-opacity:1" d="M 596.537,368.51 596.537,385.154 z" id="boundary" inkscape:connector-curvature="0" />
	<path style="fill:none;stroke:red;stroke-width:1px;stroke-linecap:butt;stroke-linejoin:miter;stroke-opacity:1" d="M 596.537,385.154 588.215,401.799 z" id="boundary" inkscape:connector-curvature="0" />
	<path style="fill:none;stroke:red;stroke-width:1px;stroke-linecap:butt;stroke-linejoin:miter;stroke-opacity:1" d="M 588.215,401.799 573.235,410.121 z" id="boundary" inkscape:connector-curvature="0" />
	<path style="fill:none;stroke:red;stroke-width:1px;stroke-linecap:butt;stroke-linejoin:miter;stroke-opacity:1" d="M 573.235,410.121 556.591,410.121 z" id="boundary" inkscape:connector-curvature="0" />
	<path style="fill:none;stroke:red;stroke-width:1px;stroke-linecap:butt;stroke-linejoin:miter;stroke-opacity:1" d="M 556.591,410.121 539.946,410.121 z" id="boundary" inkscape:connector-curvature="0" />
	<path style="fill:none;stroke:red;stroke-width:1px;stroke-linecap:butt;stroke-linejoin:miter;stroke-opacity:1" d="M 539.946,410.121 523.302,410.121 z" id="boundary" inkscape:connector-curvature="0" />
	<path style="fill:none;stroke:red;stroke-width:1px;stroke-linecap:butt;stroke-linejoin:miter;stroke-opacity:1" d="M 523.302,410.121 508.322,401.799 z" id="boundary" inkscape:connector-curvature="0" />
	<path style="fill:none;stroke:red;stroke-width:1px;stroke-linecap:butt;stroke-linejoin:miter;stroke-opacity:1" d="M 508.322,401.799 495.007,391.812 z" id="boundary" inkscape:connector-curvature="0" />
	<path style="fill:none;stroke:red;stroke-width:1px;stroke-linecap:butt;stroke-linejoin:miter;stroke-opacity:1" d="M 495.007,391.812 486.685,376.832 z" id="boundary" inkscape:connector-curvature="0" />
	<path style="fill:none;stroke:red;stroke-width:1px;stroke-linecap:butt;stroke-linejoin:miter;stroke-opacity:1" d="M 486.685,376.832 473.369,366.846 z" id="boundary" inkscape:connector-curvature="0" />
	<path style="fill:none;stroke:red;stroke-width:1px;stroke-linecap:butt;stroke-linejoin:miter;stroke-opacity:1" d="M 473.369,366.846 466.711,350.201 z" id="boundary" inkscape:connector-curvature="0" />
	<path style="fill:none;stroke:red;stroke-width:1px;stroke-linecap:butt;stroke-linejoin:miter;stroke-opacity:1" d="M 466.711,350.201 458.389,335.221 z" id="boundary" inkscape:connector-curvature="0" />
	<path style="fill:none;stroke:red;stroke-width:1px;stroke-linecap:butt;stroke-linejoin:miter;stroke-opacity:1" d="M 458.389,335.221 453.396,318.577 z" id="boundary" inkscape:connector-curvature="0" />
	<path style="fill:none;stroke:red;stroke-width:1px;stroke-linecap:butt;stroke-linejoin:miter;stroke-opacity:1" d="M 453.396,318.577 453.396,301.933 z" id="boundary" inkscape:connector-curvature="0" />
	<path style="fill:none;stroke:red;stroke-width:1px;stroke-linecap:butt;stroke-linejoin:miter;stroke-opacity:1" d="M 453.396,301.933 453.396,285.289 z" id="boundary" inkscape:connector-curvature="0" />
	<path style="fill:none;stroke:red;stroke-width:1px;stroke-linecap:butt;stroke-linejoin:miter;stroke-opacity:1" d="M 453.396,285.289 453.396,268.644 z" id="boundary" inkscape:connector-curvature="0" />
	<path style="fill:none;stroke:red;stroke-width:1px;stroke-linecap:butt;stroke-linejoin:miter;stroke-opacity:1" d="M 453.396,268.644 438.416,260.322 z" id="boundary" inkscape:connector-curvature="0" />
	<path style="fill:none;stroke:red;stroke-width:1px;stroke-linecap:butt;stroke-linejoin:miter;stroke-opacity:1" d="M 438.416,260.322 421.772,260.322 z" id="boundary" inkscape:connector-curvature="0" />
	<path style="fill:none;stroke:red;stroke-width:1px;stroke-linecap:butt;stroke-linejoin:miter;stroke-opacity:1" d="M 421.772,260.322 405.128,260.322 z" id="boundary" inkscape:connector-curvature="0" />
	<path style="fill:none;stroke:red;stroke-width:1px;stroke-linecap:butt;stroke-linejoin:miter;stroke-opacity:1" d="M 405.128,260.322 413.45,275.302 z" id="boundary" inkscape:connector-curvature="0" />
	<path style="fill:none;stroke:red;stroke-width:1px;stroke-linecap:butt;stroke-linejoin:miter;stroke-opacity:1" d="M 413.45,275.302 413.45,291.946 z" id="boundary" inkscape:connector-curvature="0" />
	<path style="fill:none;stroke:red;stroke-width:1px;stroke-linecap:butt;stroke-linejoin:miter;stroke-opacity:1" d="M 413.45,291.946 410.121,323.57 z" id="boundary" inkscape:connector-curvature="0" />
	<path style="fill:none;stroke:red;stroke-width:1px;stroke-linecap:butt;stroke-linejoin:miter;stroke-opacity:1" d="M 410.121,323.57 396.805,335.221 z" id="boundary" inkscape:connector-curvature="0" />
	<path style="fill:none;stroke:red;stroke-width:1px;stroke-linecap:butt;stroke-linejoin:miter;stroke-opacity:1" d="M 396.805,335.221 396.805,351.866 z" id="boundary" inkscape:connector-curvature="0" />
	<path style="fill:none;stroke:red;stroke-width:1px;stroke-linecap:butt;stroke-linejoin:miter;stroke-opacity:1" d="M 396.805,351.866 383.49,366.846 z" id="boundary" inkscape:connector-curvature="0" />
	<path style="fill:none;stroke:red;stroke-width:1px;stroke-linecap:butt;stroke-linejoin:miter;stroke-opacity:1" d="M 383.49,366.846 366.846,368.51 z" id="boundary" inkscape:connector-curvature="0" />
	<path style="fill:none;stroke:red;stroke-width:1px;stroke-linecap:butt;stroke-linejoin:miter;stroke-opacity:1" d="M 366.846,368.51 353.53,358.523 z" id="boundary" inkscape:connector-curvature="0" />
	<path style="fill:none;stroke:red;stroke-width:1px;stroke-linecap:butt;stroke-linejoin:miter;stroke-opacity:1" d="M 353.53,358.523 353.53,341.879 z" id="boundary" inkscape:connector-curvature="0" />
	<path style="fill:none;stroke:red;stroke-width:1px;stroke-linecap:butt;stroke-linejoin:miter;stroke-opacity:1" d="M 353.53,341.879 353.53,325.235 z" id="boundary" inkscape:connector-curvature="0" />
	<path style="fill:none;stroke:red;stroke-width:1px;stroke-linecap:butt;stroke-linejoin:miter;stroke-opacity:1" d="M 353.53,325.235 353.53,308.591 z" id="boundary" inkscape:connector-curvature="0" />
	<path style="fill:none;stroke:red;stroke-width:1px;stroke-linecap:butt;stroke-linejoin:miter;stroke-opacity:1" d="M 353.53,308.591 353.53,291.946 z" id="boundary" inkscape:connector-curvature="0" />
	<path style="fill:none;stroke:red;stroke-width:1px;stroke-linecap:butt;stroke-linejoin:miter;stroke-opacity:1" d="M 353.53,291.946 345.208,276.966 z" id="boundary" inkscape:connector-curvature="0" />
	<path style="fill:none;stroke:red;stroke-width:1px;stroke-linecap:butt;stroke-linejoin:miter;stroke-opacity:1" d="M 345.208,276.966 345.208,260.322 z" id="boundary" inkscape:connector-curvature="0" />
	<path style="fill:none;stroke:red;stroke-width:1px;stroke-linecap:butt;stroke-linejoin:miter;stroke-opacity:1" d="M 345.208,260.322 330.228,252 z" id="boundary" inkscape:connector-curvature="0" />
	<path style="fill:none;stroke:red;stroke-width:1px;stroke-linecap:butt;stroke-linejoin:miter;stroke-opacity:1" d="M 330.228,252 313.584,252 z" id="boundary" inkscape:connector-curvature="0" />
	<path style="fill:none;stroke:red;stroke-width:1px;stroke-linecap:butt;stroke-linejoin:miter;stroke-opacity:1" d="M 313.584,252 296.94,252 z" id="boundary" inkscape:connector-curvature="0" />
	<path style="fill:none;stroke:red;stroke-width:1px;stroke-linecap:butt;stroke-linejoin:miter;stroke-opacity:1" d="M 296.94,252 280.295,252 z" id="boundary" inkscape:connector-curvature="0" />
	<path style="fill:none;stroke:red;stroke-width:1px;stroke-linecap:butt;stroke-linejoin:miter;stroke-opacity:1" d="M 280.295,252 263.651,252 z" id="boundary" inkscape:connector-curvature="0" />
	<path style="fill:none;stroke:red;stroke-width:1px;stroke-linecap:butt;stroke-linejoin:miter;stroke-opacity:1" d="M 263.651,252 247.007,252 z" id="boundary" inkscape:connector-curvature="0" />
	<path style="fill:none;stroke:red;stroke-width:1px;stroke-linecap:butt;stroke-linejoin:miter;stroke-opacity:1" d="M 247.007,252 230.362,252 z" id="boundary" inkscape:connector-curvature="0" />
	<path style="fill:none;stroke:red;stroke-width:1px;stroke-linecap:butt;stroke-linejoin:miter;stroke-opacity:1" d="M 230.362,252 213.718,252 z" id="boundary" inkscape:connector-curvature="0" />
	<path style="fill:none;stroke:red;stroke-width:1px;stroke-linecap:butt;stroke-linejoin:miter;stroke-opacity:1" d="M 213.718,252 197.074,252 z" id="boundary" inkscape:connector-curvature="0" />
	<path style="fill:none;stroke:red;stroke-width:1px;stroke-linecap:butt;stroke-linejoin:miter;stroke-opacity:1" d="M 197.074,252 180.43,252 z" id="boundary" inkscape:connector-curvature="0" />
	<path style="fill:none;stroke:red;stroke-width:1px;stroke-linecap:butt;stroke-linejoin:miter;stroke-opacity:1" d="M 180.43,252 172.107,268.644 z" id="boundary" inkscape:connector-curvature="0" />
	<path style="fill:none;stroke:red;stroke-width:1px;stroke-linecap:butt;stroke-linejoin:miter;stroke-opacity:1" d="M 172.107,268.644 172.107,285.289 z" id="boundary" inkscape:connector-curvature="0" />
	<path style="fill:none;stroke:red;stroke-width:1px;stroke-linecap:butt;stroke-linejoin:miter;stroke-opacity:1" d="M 172.107,285.289 163.785,301.933 z" id="boundary" inkscape:connector-curvature="0" />
	<path style="fill:none;stroke:red;stroke-width:1px;stroke-linecap:butt;stroke-linejoin:miter;stroke-opacity:1" d="M 163.785,301.933 167.114,318.577 z" id="boundary" inkscape:connector-curvature="0" />
	<path style="fill:none;stroke:red;stroke-width:1px;stroke-linecap:butt;stroke-linejoin:miter;stroke-opacity:1" d="M 167.114,318.577 155.463,335.221 z" id="boundary" inkscape:connector-curvature="0" />
	<path style="fill:none;stroke:red;stroke-width:1px;stroke-linecap:butt;stroke-linejoin:miter;stroke-opacity:1" d="M 155.463,335.221 153.799,355.195 z" id="boundary" inkscape:connector-curvature="0" />
	<path style="fill:none;stroke:red;stroke-width:1px;stroke-linecap:butt;stroke-linejoin:miter;stroke-opacity:1" d="M 153.799,355.195 137.154,360.188 z" id="boundary" inkscape:connector-curvature="0" />
	<path style="fill:none;stroke:red;stroke-width:1px;stroke-linecap:butt;stroke-linejoin:miter;stroke-opacity:1" d="M 137.154,360.188 120.51,361.852 z" id="boundary" inkscape:connector-curvature="0" />
	<path style="fill:none;stroke:red;stroke-width:1px;stroke-linecap:butt;stroke-linejoin:miter;stroke-opacity:1" d="M 120.51,361.852 112.188,346.872 z" id="boundary" inkscape:connector-curvature="0" />
	<path style="fill:none;stroke:red;stroke-width:1px;stroke-linecap:butt;stroke-linejoin:miter;stroke-opacity:1" d="M 112.188,346.872 112.188,330.228 z" id="boundary" inkscape:connector-curvature="0" />
	<path style="fill:none;stroke:red;stroke-width:1px;stroke-linecap:butt;stroke-linejoin:miter;stroke-opacity:1" d="M 112.188,330.228 112.188,313.584 z" id="boundary" inkscape:connector-curvature="0" />
	<path style="fill:none;stroke:red;stroke-width:1px;stroke-linecap:butt;stroke-linejoin:miter;stroke-opacity:1" d="M 112.188,313.584 112.188,296.94 z" id="boundary" inkscape:connector-curvature="0" />
	<path style="fill:none;stroke:red;stroke-width:1px;stroke-linecap:butt;stroke-linejoin:miter;stroke-opacity:1" d="M 112.188,296.94 120.51,271.973 z" id="boundary" inkscape:connector-curvature="0" />
	<path style="fill:none;stroke:red;stroke-width:1px;stroke-linecap:butt;stroke-linejoin:miter;stroke-opacity:1" d="M 120.51,271.973 128.832,248.671 z" id="boundary" inkscape:connector-curvature="0" />
	<path style="fill:none;stroke:red;stroke-width:1px;stroke-linecap:butt;stroke-linejoin:miter;stroke-opacity:1" d="M 128.832,248.671 128.832,232.027 z" id="boundary" inkscape:connector-curvature="0" />
	<path style="fill:none;stroke:red;stroke-width:1px;stroke-linecap:butt;stroke-linejoin:miter;stroke-opacity:1" d="M 128.832,232.027 128.832,215.383 z" id="boundary" inkscape:connector-curvature="0" />
	<path style="fill:none;stroke:red;stroke-width:1px;stroke-linecap:butt;stroke-linejoin:miter;stroke-opacity:1" d="M 128.832,215.383 128.832,198.738 z" id="boundary" inkscape:connector-curvature="0" />
	<path style="fill:none;stroke:red;stroke-width:1px;stroke-linecap:butt;stroke-linejoin:miter;stroke-opacity:1" d="M 128.832,198.738 120.51,183.758 z" id="boundary" inkscape:connector-curvature="0" />
	<path style="fill:none;stroke:red;stroke-width:1px;stroke-linecap:butt;stroke-linejoin:miter;stroke-opacity:1" d="M 120.51,183.758 117.181,167.114 z" id="boundary" inkscape:connector-curvature="0" />
	<path style="fill:none;stroke:red;stroke-width:1px;stroke-linecap:butt;stroke-linejoin:miter;stroke-opacity:1" d="M 117.181,167.114 103.866,155.463 z" id="boundary" inkscape:connector-curvature="0" />
	<path style="fill:none;stroke:red;stroke-width:1px;stroke-linecap:butt;stroke-linejoin:miter;stroke-opacity:1" d="M 103.866,155.463 100.537,127.168 z" id="boundary" inkscape:connector-curvature="0" />
	<path style="fill:none;stroke:red;stroke-width:1px;stroke-linecap:butt;stroke-linejoin:miter;stroke-opacity:1" d="M 100.537,127.168 95.5436,110.523 z" id="boundary" inkscape:connector-curvature="0" />
	<path style="fill:none;stroke:red;stroke-width:1px;stroke-linecap:butt;stroke-linejoin:miter;stroke-opacity:1" d="M 95.5436,110.523 78.8993,110.523 z" id="boundary" inkscape:connector-curvature="0" />
	<path style="fill:none;stroke:red;stroke-width:1px;stroke-linecap:butt;stroke-linejoin:miter;stroke-opacity:1" d="M 78.8993,110.523 63.9195,118.846 z" id="boundary" inkscape:connector-curvature="0" />
	<path style="fill:none;stroke:red;stroke-width:1px;stroke-linecap:butt;stroke-linejoin:miter;stroke-opacity:1" d="M 63.9195,118.846 48.9396,127.168 z" id="boundary" inkscape:connector-curvature="0" />
	<path style="fill:none;stroke:red;stroke-width:1px;stroke-linecap:butt;stroke-linejoin:miter;stroke-opacity:1" d="M 48.9396,127.168 32.2953,125.503 z" id="boundary" inkscape:connector-curvature="0" />
	<path style="fill:none;stroke:red;stroke-width:1px;stroke-linecap:butt;stroke-linejoin:miter;stroke-opacity:1" d="M 32.2953,125.503 17.3154,117.181 z" id="boundary" inkscape:connector-curvature="0" />
	<path style="fill:none;stroke:red;stroke-width:1px;stroke-linecap:butt;stroke-linejoin:miter;stroke-opacity:1" d="M 17.3154,117.181 4,105.53 z" id="boundary" inkscape:connector-curvature="0" />
	<path style="fill:none;stroke:red;stroke-width:1px;stroke-linecap:butt;stroke-linejoin:miter;stroke-opacity:1" d="M 4,105.53 20.6443,97.2081 z" id="boundary" inkscape:connector-curvature="0" />
	<path style="fill:none;stroke:red;stroke-width:1px;stroke-linecap:butt;stroke-linejoin:miter;stroke-opacity:1" d="M 20.6443,97.2081 33.9597,83.8926 z" id="boundary" inkscape:connector-curvature="0" />
	<path style="fill:none;stroke:red;stroke-width:1px;stroke-linecap:butt;stroke-linejoin:miter;stroke-opacity:1" d="M 33.9597,83.8926 42.2819,67.2483 z" id="boundary" inkscape:connector-curvature="0" />
	<path style="fill:none;stroke:red;stroke-width:1px;stroke-linecap:butt;stroke-linejoin:miter;stroke-opacity:1" d="M 42.2819,67.2483 58.9262,58.9262 z" id="boundary" inkscape:connector-curvature="0" />
	<path style="fill:none;stroke:red;stroke-width:1px;stroke-linecap:butt;stroke-linejoin:miter;stroke-opacity:1" d="M 58.9262,58.9262 72.2416,45.6107 z" id="boundary" inkscape:connector-curvature="0" />
	<path style="fill:none;stroke:red;stroke-width:1px;stroke-linecap:butt;stroke-linejoin:miter;stroke-opacity:1" d="M 72.2416,45.6107 85.557,35.6242 z" id="boundary" inkscape:connector-curvature="0" />
	<path style="fill:none;stroke:red;stroke-width:1px;stroke-linecap:butt;stroke-linejoin:miter;stroke-opacity:1" d="M 85.557,35.6242 97.2081,48.9396 z" id="boundary" inkscape:connector-curvature="0" />
	<path style="fill:none;stroke:red;stroke-width:1px;stroke-linecap:butt;stroke-linejoin:miter;stroke-opacity:1" d="M 97.2081,48.9396 113.852,55.5973 z" id="boundary" inkscape:connector-curvature="0" />
	<path style="fill:none;stroke:red;stroke-width:1px;stroke-linecap:butt;stroke-linejoin:miter;stroke-opacity:1" d="M 113.852,55.5973 127.168,67.2483 z" id="boundary" inkscape:connector-curvature="0" />
	<path style="fill:none;stroke:red;stroke-width:1px;stroke-linecap:butt;stroke-linejoin:miter;stroke-opacity:1" d="M 127.168,67.2483 142.148,75.5705 z" id="boundary" inkscape:connector-curvature="0" />
	<path style="fill:none;stroke:red;stroke-width:1px;stroke-linecap:butt;stroke-linejoin:miter;stroke-opacity:1" d="M 142.148,75.5705 157.128,83.8926 z" id="boundary" inkscape:connector-curvature="0" />
	<path style="fill:none;stroke:red;stroke-width:1px;stroke-linecap:butt;stroke-linejoin:miter;stroke-opacity:1" d="M 157.128,83.8926 172.107,92.2148 z" id="boundary" inkscape:connector-curvature="0" />
	<path style="fill:none;stroke:red;stroke-width:1px;stroke-linecap:butt;stroke-linejoin:miter;stroke-opacity:1" d="M 172.107,92.2148 187.087,100.537 z" id="boundary" inkscape:connector-curvature="0" />
	<path style="fill:none;stroke:red;stroke-width:1px;stroke-linecap:butt;stroke-linejoin:miter;stroke-opacity:1" d="M 187.087,100.537 202.067,108.859 z" id="boundary" inkscape:connector-curvature="0" />
	<path style="fill:none;stroke:red;stroke-width:1px;stroke-linecap:butt;stroke-linejoin:miter;stroke-opacity:1" d="M 202.067,108.859 218.711,108.859 z" id="boundary" inkscape:connector-curvature="0" />
	<path style="fill:none;stroke:red;stroke-width:1px;stroke-linecap:butt;stroke-linejoin:miter;stroke-opacity:1" d="M 218.711,108.859 233.691,117.181 z" id="boundary" inkscape:connector-curvature="0" />
	<path style="fill:none;stroke:red;stroke-width:1px;stroke-linecap:butt;stroke-linejoin:miter;stroke-opacity:1" d="M 233.691,117.181 248.671,125.503 z" id="boundary" inkscape:connector-curvature="0" />
	<path style="fill:none;stroke:red;stroke-width:1px;stroke-linecap:butt;stroke-linejoin:miter;stroke-opacity:1" d="M 248.671,125.503 265.315,125.503 z" id="boundary" inkscape:connector-curvature="0" />
	<path style="fill:none;stroke:red;stroke-width:1px;stroke-linecap:butt;stroke-linejoin:miter;stroke-opacity:1" d="M 265.315,125.503 281.96,125.503 z" id="boundary" inkscape:connector-curvature="0" />
	<path style="fill:none;stroke:red;stroke-width:1px;stroke-linecap:butt;stroke-linejoin:miter;stroke-opacity:1" d="M 281.96,125.503 298.604,125.503 z" id="boundary" inkscape:connector-curvature="0" />
	<path style="fill:none;stroke:red;stroke-width:1px;stroke-linecap:butt;stroke-linejoin:miter;stroke-opacity:1" d="M 298.604,125.503 313.584,133.826 z" id="boundary" inkscape:connector-curvature="0" />
	<path style="fill:none;stroke:red;stroke-width:1px;stroke-linecap:butt;stroke-linejoin:miter;stroke-opacity:1" d="M 313.584,133.826 330.228,138.819 z" id="boundary" inkscape:connector-curvature="0" />
	<path style="fill:none;stroke:red;stroke-width:1px;stroke-linecap:butt;stroke-linejoin:miter;stroke-opacity:1" d="M 330.228,138.819 346.872,142.148 z" id="boundary" inkscape:connector-curvature="0" />
	<path style="fill:none;stroke:red;stroke-width:1px;stroke-linecap:butt;stroke-linejoin:miter;stroke-opacity:1" d="M 346.872,142.148 363.517,142.148 z" id="boundary" inkscape:connector-curvature="0" />
	<path style="fill:none;stroke:red;stroke-width:1px;stroke-linecap:butt;stroke-linejoin:miter;stroke-opacity:1" d="M 363.517,142.148 371.839,157.128 z" id="boundary" inkscape:connector-curvature="0" />
	<path style="fill:none;stroke:red;stroke-width:1px;stroke-linecap:butt;stroke-linejoin:miter;stroke-opacity:1" d="M 371.839,157.128 371.839,173.772 z" id="boundary" inkscape:connector-curvature="0" />
	<path style="fill:none;stroke:red;stroke-width:1px;stroke-linecap:butt;stroke-linejoin:miter;stroke-opacity:1" d="M 371.839,173.772 380.161,188.752 z" id="boundary" inkscape:connector-curvature="0" />
	<path style="fill:none;stroke:red;stroke-width:1px;stroke-linecap:butt;stroke-linejoin:miter;stroke-opacity:1" d="M 380.161,188.752 396.805,188.752 z" id="boundary" inkscape:connector-curvature="0" />
	<path style="fill:none;stroke:red;stroke-width:1px;stroke-linecap:butt;stroke-linejoin:miter;stroke-opacity:1" d="M 396.805,188.752 413.45,192.081 z" id="boundary" inkscape:connector-curvature="0" />
	<path style="fill:none;stroke:red;stroke-width:1px;stroke-linecap:butt;stroke-linejoin:miter;stroke-opacity:1" d="M 413.45,192.081 430.094,192.081 z" id="boundary" inkscape:connector-curvature="0" />
	<path style="fill:none;stroke:red;stroke-width:1px;stroke-linecap:butt;stroke-linejoin:miter;stroke-opacity:1" d="M 430.094,192.081 445.074,183.758 z" id="boundary" inkscape:connector-curvature="0" />
	<path style="fill:none;stroke:red;stroke-width:1px;stroke-linecap:butt;stroke-linejoin:miter;stroke-opacity:1" d="M 445.074,183.758 461.718,183.758 z" id="boundary" inkscape:connector-curvature="0" />
	<path style="fill:none;stroke:red;stroke-width:1px;stroke-linecap:butt;stroke-linejoin:miter;stroke-opacity:1" d="M 461.718,183.758 478.362,180.43 z" id="boundary" inkscape:connector-curvature="0" />
	<path style="fill:none;stroke:red;stroke-width:1px;stroke-linecap:butt;stroke-linejoin:miter;stroke-opacity:1" d="M 478.362,180.43 486.685,155.463 z" id="boundary" inkscape:connector-curvature="0" />
	<path style="fill:none;stroke:red;stroke-width:1px;stroke-linecap:butt;stroke-linejoin:miter;stroke-opacity:1" d="M 486.685,155.463 486.685,138.819 z" id="boundary" inkscape:connector-curvature="0" />
	<path style="fill:none;stroke:red;stroke-width:1px;stroke-linecap:butt;stroke-linejoin:miter;stroke-opacity:1" d="M 486.685,138.819 500,125.503 z" id="boundary" inkscape:connector-curvature="0" />
	<path style="fill:none;stroke:red;stroke-width:1px;stroke-linecap:butt;stroke-linejoin:miter;stroke-opacity:1" d="M 500,125.503 513.315,112.188 z" id="boundary" inkscape:connector-curvature="0" />
	<path style="fill:none;stroke:red;stroke-width:1px;stroke-linecap:butt;stroke-linejoin:miter;stroke-opacity:1" d="M 513.315,112.188 526.631,100.537 z" id="boundary" inkscape:connector-curvature="0" />
	<path style="fill:none;stroke:red;stroke-width:1px;stroke-linecap:butt;stroke-linejoin:miter;stroke-opacity:1" d="M 526.631,100.537 541.611,92.2148 z" id="boundary" inkscape:connector-curvature="0" />
	<path style="fill:none;stroke:red;stroke-width:1px;stroke-linecap:butt;stroke-linejoin:miter;stroke-opacity:1" d="M 541.611,92.2148 553.262,72.2416 z" id="boundary" inkscape:connector-curvature="0" />
	<path style="fill:none;stroke:red;stroke-width:1px;stroke-linecap:butt;stroke-linejoin:miter;stroke-opacity:1" d="M 553.262,72.2416 553.262,55.5973 z" id="boundary" inkscape:connector-curvature="0" />
	<path style="fill:none;stroke:red;stroke-width:1px;stroke-linecap:butt;stroke-linejoin:miter;stroke-opacity:1" d="M 553.262,55.5973 553.262,38.953 z" id="boundary" inkscape:connector-curvature="0" />
	<path style="fill:none;stroke:red;stroke-width:1px;stroke-linecap:butt;stroke-linejoin:miter;stroke-opacity:1" d="M 553.262,38.953 553.262,22.3087 z" id="boundary" inkscape:connector-curvature="0" />
	<path style="fill:none;stroke:red;stroke-width:1px;stroke-linecap:butt;stroke-linejoin:miter;stroke-opacity:1" d="M 553.262,22.3087 561.584,5.66443 z" id="boundary" inkscape:connector-curvature="0" />
	<path style="fill:none;stroke:red;stroke-width:1px;stroke-linecap:butt;stroke-linejoin:miter;stroke-opacity:1" d="M 561.584,5.66443 578.228,4 z" id="boundary" inkscape:connector-curvature="0" />
	<path style="fill:none;stroke:red;stroke-width:1px;stroke-linecap:butt;stroke-linejoin:miter;stroke-opacity:1" d="M 578.228,4 594.872,8.99329 z" id="boundary" inkscape:connector-curvature="0" />
	<path style="fill:none;stroke:red;stroke-width:1px;stroke-linecap:butt;stroke-linejoin:miter;stroke-opacity:1" d="M 594.872,8.99329 608.188,18.9799 z" id="boundary" inkscape:connector-curvature="0" />
	<path style="fill:none;stroke:red;stroke-width:1px;stroke-linecap:butt;stroke-linejoin:miter;stroke-opacity:1" d="M 608.188,18.9799 613.181,35.6242 z" id="boundary" inkscape:connector-curvature="0" />
	<path style="fill:none;stroke:red;stroke-width:1px;stroke-linecap:butt;stroke-linejoin:miter;stroke-opacity:1" d="M 613.181,35.6242 613.181,52.2685 z" id="boundary" inkscape:connector-curvature="0" />
	<path style="fill:none;stroke:red;stroke-width:1px;stroke-linecap:butt;stroke-linejoin:miter;stroke-opacity:1" d="M 613.181,52.2685 613.181,68.9128 z" id="boundary" inkscape:connector-curvature="0" />
	<path style="fill:none;stroke:red;stroke-width:1px;stroke-linecap:butt;stroke-linejoin:miter;stroke-opacity:1" d="M 613.181,68.9128 613.181,85.557 z" id="boundary" inkscape:connector-curvature="0" />
	<path style="fill:none;stroke:red;stroke-width:1px;stroke-linecap:butt;stroke-linejoin:miter;stroke-opacity:1" d="M 613.181,85.557 613.181,102.201 z" id="boundary" inkscape:connector-curvature="0" />
	<path style="fill:none;stroke:red;stroke-width:1px;stroke-linecap:butt;stroke-linejoin:miter;stroke-opacity:1" d="M 613.181,102.201 616.51,118.846 z" id="boundary" inkscape:connector-curvature="0" />
	<path style="fill:none;stroke:red;stroke-width:1px;stroke-linecap:butt;stroke-linejoin:miter;stroke-opacity:1" d="M 616.51,118.846 621.503,135.49 z" id="boundary" inkscape:connector-curvature="0" />
	<path style="fill:none;stroke:red;stroke-width:1px;stroke-linecap:butt;stroke-linejoin:miter;stroke-opacity:1" d="M 621.503,135.49 621.503,152.134 z" id="boundary" inkscape:connector-curvature="0" />
	<path style="fill:none;stroke:red;stroke-width:1px;stroke-linecap:butt;stroke-linejoin:miter;stroke-opacity:1" d="M 621.503,152.134 629.826,167.114 z" id="boundary" inkscape:connector-curvature="0" />
	<path style="fill:none;stroke:red;stroke-width:1px;stroke-linecap:butt;stroke-linejoin:miter;stroke-opacity:1" d="M 629.826,167.114 629.826,183.758 z" id="boundary" inkscape:connector-curvature="0" />
	<path style="fill:none;stroke:red;stroke-width:1px;stroke-linecap:butt;stroke-linejoin:miter;stroke-opacity:1" d="M 629.826,183.758 638.148,198.738 z" id="boundary" inkscape:connector-curvature="0" />
	<path style="fill:none;stroke:red;stroke-width:1px;stroke-linecap:butt;stroke-linejoin:miter;stroke-opacity:1" d="M 638.148,198.738 654.792,200.403 z" id="boundary" inkscape:connector-curvature="0" />
	<path style="fill:none;stroke:red;stroke-width:1px;stroke-linecap:butt;stroke-linejoin:miter;stroke-opacity:1" d="M 654.792,200.403 669.772,208.725 z" id="boundary" inkscape:connector-curvature="0" />
	<path style="fill:none;stroke:red;stroke-width:1px;stroke-linecap:butt;stroke-linejoin:miter;stroke-opacity:1" d="M 669.772,208.725 684.752,200.403 z" id="boundary" inkscape:connector-curvature="0" />
	<path style="fill:none;stroke:red;stroke-width:1px;stroke-linecap:butt;stroke-linejoin:miter;stroke-opacity:1" d="M 684.752,200.403 699.732,192.081 z" id="boundary" inkscape:connector-curvature="0" />
	<path style="fill:none;stroke:red;stroke-width:1px;stroke-linecap:butt;stroke-linejoin:miter;stroke-opacity:1" d="M 699.732,192.081 711.383,178.765 z" id="boundary" inkscape:connector-curvature="0" />
	<path style="fill:none;stroke:red;stroke-width:1px;stroke-linecap:butt;stroke-linejoin:miter;stroke-opacity:1" d="M 711.383,178.765 703.06,163.785 z" id="boundary" inkscape:connector-curvature="0" />
	<path style="fill:none;stroke:red;stroke-width:1px;stroke-linecap:butt;stroke-linejoin:miter;stroke-opacity:1" d="M 703.06,163.785 711.383,147.141 z" id="boundary" inkscape:connector-curvature="0" />
	<path style="fill:none;stroke:red;stroke-width:1px;stroke-linecap:butt;stroke-linejoin:miter;stroke-opacity:1" d="M 711.383,147.141 719.705,130.497 z" id="boundary" inkscape:connector-curvature="0" />
	<path style="fill:none;stroke:red;stroke-width:1px;stroke-linecap:butt;stroke-linejoin:miter;stroke-opacity:1" d="M 719.705,130.497 728.027,113.852 z" id="boundary" inkscape:connector-curvature="0" />
	<path style="fill:none;stroke:red;stroke-width:1px;stroke-linecap:butt;stroke-linejoin:miter;stroke-opacity:1" d="M 728.027,113.852 744.671,95.5436 z" id="boundary" inkscape:connector-curvature="0" />
	<path style="fill:none;stroke:red;stroke-width:1px;stroke-linecap:butt;stroke-linejoin:miter;stroke-opacity:1" d="M 744.671,95.5436 744.671,78.8993 z" id="boundary" inkscape:connector-curvature="0" />
	<path style="fill:none;stroke:red;stroke-width:1px;stroke-linecap:butt;stroke-linejoin:miter;stroke-opacity:1" d="M 744.671,78.8993 744.671,62.255 z" id="boundary" inkscape:connector-curvature="0" />
	<path style="fill:none;stroke:red;stroke-width:1px;stroke-linecap:butt;stroke-linejoin:miter;stroke-opacity:1" d="M 744.671,62.255 736.349,47.2752 z" id="boundary" inkscape:connector-curvature="0" />
	<path style="fill:none;stroke:red;stroke-width:1px;stroke-linecap:butt;stroke-linejoin:miter;stroke-opacity:1" d="M 736.349,47.2752 749.664,33.9597 z" id="boundary" inkscape:connector-curvature="0" />
	<path style="fill:none;stroke:red;stroke-width:1px;stroke-linecap:butt;stroke-linejoin:miter;stroke-opacity:1" d="M 749.664,33.9597 766.309,33.9597 z" id="boundary" inkscape:connector-curvature="0" />
	<path style="fill:none;stroke:red;stroke-width:1px;stroke-linecap:butt;stroke-linejoin:miter;stroke-opacity:1" d="M 766.309,33.9597 782.953,33.9597 z" id="boundary" inkscape:connector-curvature="0" />
	<path style="fill:none;stroke:red;stroke-width:1px;stroke-linecap:butt;stroke-linejoin:miter;stroke-opacity:1" d="M 782.953,33.9597 799.597,33.9597 z" id="boundary" inkscape:connector-curvature="0" />
	<path style="fill:none;stroke:red;stroke-width:1px;stroke-linecap:butt;stroke-linejoin:miter;stroke-opacity:1" d="M 799.597,33.9597 814.577,42.2819 z" id="boundary" inkscape:connector-curvature="0" />
	<path style="fill:none;stroke:red;stroke-width:1px;stroke-linecap:butt;stroke-linejoin:miter;stroke-opacity:1" d="M 814.577,42.2819 829.557,50.604 z" id="boundary" inkscape:connector-curvature="0" />
	<path style="fill:none;stroke:red;stroke-width:1px;stroke-linecap:butt;stroke-linejoin:miter;stroke-opacity:1" d="M 829.557,50.604 829.557,67.2483 z" id="boundary" inkscape:connector-curvature="0" />
	<path style="fill:none;stroke:red;stroke-width:1px;stroke-linecap:butt;stroke-linejoin:miter;stroke-opacity:1" d="M 829.557,67.2483 842.872,77.2349 z" id="boundary" inkscape:connector-curvature="0" />
	<path style="fill:none;stroke:red;stroke-width:1px;stroke-linecap:butt;stroke-linejoin:miter;stroke-opacity:1" d="M 842.872,77.2349 857.852,85.557 z" id="boundary" inkscape:connector-curvature="0" />
	<path style="fill:none;stroke:red;stroke-width:1px;stroke-linecap:butt;stroke-linejoin:miter;stroke-opacity:1" d="M 857.852,85.557 874.497,92.2148 z" id="boundary" inkscape:connector-curvature="0" />
	<path style="fill:none;stroke:red;stroke-width:1px;stroke-linecap:butt;stroke-linejoin:miter;stroke-opacity:1" d="M 874.497,92.2148 889.477,100.537 z" id="boundary" inkscape:connector-curvature="0" />
	<path style="fill:none;stroke:red;stroke-width:1px;stroke-linecap:butt;stroke-linejoin:miter;stroke-opacity:1" d="M 889.477,100.537 906.121,100.537 z" id="boundary" inkscape:connector-curvature="0" />
	<path style="fill:none;stroke:red;stroke-width:1px;stroke-linecap:butt;stroke-linejoin:miter;stroke-opacity:1" d="M 906.121,100.537 921.101,108.859 z" id="boundary" inkscape:connector-curvature="0" />
	<path style="fill:none;stroke:red;stroke-width:1px;stroke-linecap:butt;stroke-linejoin:miter;stroke-opacity:1" d="M 921.101,108.859 937.745,113.852 z" id="boundary" inkscape:connector-curvature="0" />
	<path style="fill:none;stroke:red;stroke-width:1px;stroke-linecap:butt;stroke-linejoin:miter;stroke-opacity:1" d="M 937.745,113.852 944.403,130.497 z" id="boundary" inkscape:connector-curvature="0" />
	<path style="fill:none;stroke:red;stroke-width:1px;stroke-linecap:butt;stroke-linejoin:miter;stroke-opacity:1" d="M 944.403,130.497 946.067,147.141 z" id="boundary" inkscape:connector-curvature="0" />
	<path style="fill:none;stroke:red;stroke-width:1px;stroke-linecap:butt;stroke-linejoin:miter;stroke-opacity:1" d="M 946.067,147.141 946.067,163.785 z" id="boundary" inkscape:connector-curvature="0" />
	<path style="fill:none;stroke:red;stroke-width:1px;stroke-linecap:butt;stroke-linejoin:miter;stroke-opacity:1" d="M 946.067,163.785 946.067,180.43 z" id="boundary" inkscape:connector-curvature="0" />
	<path style="fill:none;stroke:red;stroke-width:1px;stroke-linecap:butt;stroke-linejoin:miter;stroke-opacity:1" d="M 946.067,180.43 957.718,193.745 z" id="boundary" inkscape:connector-curvature="0" />
	<path style="fill:none;stroke:red;stroke-width:1px;stroke-linecap:butt;stroke-linejoin:miter;stroke-opacity:1" d="M 957.718,193.745 971.034,205.396 z" id="boundary" inkscape:connector-curvature="0" />
	<path style="fill:none;stroke:red;stroke-width:1px;stroke-linecap:butt;stroke-linejoin:miter;stroke-opacity:1" d="M 971.034,205.396 979.356,220.376 z" id="boundary" inkscape:connector-curvature="0" />
	<path style="fill:none;stroke:red;stroke-width:1px;stroke-linecap:butt;stroke-linejoin:miter;stroke-opacity:1" d="M 979.356,220.376 987.678,235.356 z" id="boundary" inkscape:connector-curvature="0" />
	<path style="fill:none;stroke:red;stroke-width:1px;stroke-linecap:butt;stroke-linejoin:miter;stroke-opacity:1" d="M 987.678,235.356 987.678,252 z" id="boundary" inkscape:connector-curvature="0" />
	<path style="fill:none;stroke:red;stroke-width:1px;stroke-linecap:butt;stroke-linejoin:miter;stroke-opacity:1" d="M 987.678,252 996,266.98 z" id="boundary" inkscape:connector-curvature="0" />
	<path style="fill:none;stroke:red;stroke-width:1px;stroke-linecap:butt;stroke-linejoin:miter;stroke-opacity:1" d="M 996,266.98 996,283.624 z" id="boundary" inkscape:connector-curvature="0" />
	<path style="fill:none;stroke:red;stroke-width:1px;stroke-linecap:butt;stroke-linejoin:miter;stroke-opacity:1" d="M 996,283.624 996,300.268 z" id="boundary" inkscape:connector-curvature="0" />
	<path style="fill:none;stroke:red;stroke-width:1px;stroke-linecap:butt;stroke-linejoin:miter;stroke-opacity:1" d="M 996,300.268 996,316.913 z" id="boundary" inkscape:connector-curvature="0" />
	<path style="fill:none;stroke:red;stroke-width:1px;stroke-linecap:butt;stroke-linejoin:miter;stroke-opacity:1" d="M 996,316.913 996,333.557 z" id="boundary" inkscape:connector-curvature="0" />
	<circle cx="4" cy="105.53" r="4" fill="#0" id="circle0"/>
	<circle cx="17.3154" cy="117.181" r="4" fill="#0" id="circle1"/>
	<circle cx="20.6443" cy="97.2081" r="4" fill="#0" id="circle2"/>
	<circle cx="32.2953" cy="125.503" r="4" fill="#0" id="circle3"/>
	<circle cx="33.9597" cy="83.8926" r="4" fill="#0" id="circle4"/>
	<circle cx="42.2819" cy="67.2483" r="4" fill="#0" id="circle5"/>
	<circle cx="48.9396" cy="127.168" r="4" fill="#0" id="circle6"/>
	<circle cx="58.9262" cy="58.9262" r="4" fill="#0" id="circle7"/>
	<circle cx="63.9195" cy="118.846" r="4" fill="#0" id="circle8"/>
	<circle cx="72.2416" cy="45.6107" r="4" fill="#0" id="circle9"/>
	<circle cx="78.8993" cy="110.523" r="4" fill="#0" id="circle10"/>
	<circle cx="85.557" cy="35.6242" r="4" fill="#0" id="circle11"/>
	<circle cx="95.5436" cy="110.523" r="4" fill="#0" id="circle12"/>
	<circle cx="97.2081" cy="48.9396" r="4" fill="#0" id="circle13"/>
	<circle cx="100.537" cy="127.168" r="4" fill="#0" id="circle14"/>
	<circle cx="103.866" cy="155.463" r="4" fill="#0" id="circle15"/>
	<circle cx="112.188" cy="296.94" r="4" fill="#0" id="circle16"/>
	<circle cx="112.188" cy="313.584" r="4" fill="#0" id="circle17"/>
	<circle cx="112.188" cy="330.228" r="4" fill="#0" id="circle18"/>
	<circle cx="112.188" cy="346.872" r="4" fill="#0" id="circle19"/>
	<circle cx="113.852" cy="55.5973" r="4" fill="#0" id="circle20"/>
	<circle cx="117.181" cy="167.114" r="4" fill="#0" id="circle21"/>
	<circle cx="120.51" cy="183.758" r="4" fill="#0" id="circle22"/>
	<circle cx="120.51" cy="271.973" r="4" fill="#0" id="circle23"/>
	<circle cx="120.51" cy="361.852" r="4" fill="#0" id="circle24"/>
	<circle cx="127.168" cy="67.2483" r="4" fill="#0" id="circle25"/>
	<circle cx="128.832" cy="198.738" r="4" fill="#0" id="circle26"/>
	<circle cx="128.832" cy="215.383" r="4" fill="#0" id="circle27"/>
	<circle cx="128.832" cy="232.027" r="4" fill="#0" id="circle28"/>
	<circle cx="128.832" cy="248.671" r="4" fill="#0" id="circle29"/>
	<circle cx="137.154" cy="360.188" r="4" fill="#0" id="circle30"/>
	<circle cx="142.148" cy="75.5705" r="4" fill="#0" id="circle31"/>
	<circle cx="153.799" cy="355.195" r="4" fill="#0" id="circle32"/>
	<circle cx="155.463" cy="335.221" r="4" fill="#0" id="circle33"/>
	<circle cx="157.128" cy="83.8926" r="4" fill="#0" id="circle34"/>
	<circle cx="163.785" cy="301.933" r="4" fill="#0" id="circle35"/>
	<circle cx="167.114" cy="318.577" r="4" fill="#0" id="circle36"/>
	<circle cx="172.107" cy="92.2148" r="4" fill="#0" id="circle37"/>
	<circle cx="172.107" cy="268.644" r="4" fill="#0" id="circle38"/>
	<circle cx="172.107" cy="285.289" r="4" fill="#0" id="circle39"/>
	<circle cx="180.43" cy="252" r="4" fill="#0" id="circle40"/>
	<circle cx="187.087" cy="100.537" r="4" fill="#0" id="circle41"/>
	<circle cx="197.074" cy="252" r="4" fill="#0" id="circle42"/>
	<circle cx="202.067" cy="108.859" r="4" fill="#0" id="circle43"/>
	<circle cx="213.718" cy="252" r="4" fill="#0" id="circle44"/>
	<circle cx="218.711" cy="108.859" r="4" fill="#0" id="circle45"/>
	<circle cx="230.362" cy="252" r="4" fill="#0" id="circle46"/>
	<circle cx="233.691" cy="117.181" r="4" fill="#0" id="circle47"/>
	<circle cx="247.007" cy="252" r="4" fill="#0" id="circle48"/>
	<circle cx="248.671" cy="125.503" r="4" fill="#0" id="circle49"/>
	<circle cx="263.651" cy="252" r="4" fill="#0" id="circle50"/>
	<circle cx="265.315" cy="125.503" r="4" fill="#0" id="circle51"/>
	<circle cx="280.295" cy="252" r="4" fill="#0" id="circle52"/>
	<circle cx="281.96" cy="125.503" r="4" fill="#0" id="circle53"/>
	<circle cx="296.94" cy="252" r="4" fill="#0" id="circle54"/>
	<circle cx="298.604" cy="125.503" r="4" fill="#0" id="circle55"/>
	<circle cx="313.584" cy="133.826" r="4" fill="#0" id="circle56"/>
	<circle cx="313.584" cy="252" r="4" fill="#0" id="circle57"/>
	<circle cx="330.228" cy="138.819" r="4" fill="#0" id="circle58"/>
	<circle cx="330.228" cy="252" r="4" fill="#0" id="circle59"/>
	<circle cx="345.208" cy="260.322" r="4" fill="#0" id="circle60"/>
	<circle cx="345.208" cy="276.966" r="4" fill="#0" id="circle61"/>
	<circle cx="346.872" cy="142.148" r="4" fill="#0" id="circle62"/>
	<circle cx="353.53" cy="291.946" r="4" fill="#0" id="circle63"/>
	<circle cx="353.53" cy="308.591" r="4" fill="#0" id="circle64"/>
	<circle cx="353.53" cy="325.235" r="4" fill="#0" id="circle65"/>
	<circle cx="353.53" cy="341.879" r="4" fill="#0" id="circle66"/>
	<circle cx="353.53" cy="358.523" r="4" fill="#0" id="circle67"/>
	<circle cx="363.517" cy="142.148" r="4" fill="#0" id="circle68"/>
	<circle cx="366.846" cy="368.51" r="4" fill="#0" id="circle69"/>
	<circle cx="371.839" cy="157.128" r="4" fill="#0" id="circle70"/>
	<circle cx="371.839" cy="173.772" r="4" fill="#0" id="circle71"/>
	<circle cx="380.161" cy="188.752" r="4" fill="#0" id="circle72"/>
	<circle cx="383.49" cy="366.846" r="4" fill="#0" id="circle73"/>
	<circle cx="396.805" cy="188.752" r="4" fill="#0" id="circle74"/>
	<circle cx="396.805" cy="335.221" r="4" fill="#0" id="circle75"/>
	<circle cx="396.805" cy="351.866" r="4" fill="#0" id="circle76"/>
	<circle cx="405.128" cy="260.322" r="4" fill="#0" id="circle77"/>
	<circle cx="410.121" cy="323.57" r="4" fill="#0" id="circle78"/>
	<circle cx="413.45" cy="192.081" r="4" fill="#0" id="circle79"/>
	<circle cx="413.45" cy="275.302" r="4" fill="#0" id="circle80"/>
	<circle cx="413.45" cy="291.946" r="4" fill="#0" id="circle81"/>
	<circle cx="421.772" cy="260.322" r="4" fill="#0" id="circle82"/>
	<circle cx="430.094" cy="192.081" r="4" fill="#0" id="circle83"/>
	<circle cx="438.416" cy="260.322" r="4" fill="#0" id="circle84"/>
	<circle cx="445.074" cy="183.758" r="4" fill="#0" id="circle85"/>
	<circle cx="453.396" cy="268.644" r="4" fill="#0" id="circle86"/>
	<circle cx="453.396" cy="285.289" r="4" fill="#0" id="circle87"/>
	<circle cx="453.396" cy="301.933" r="4" fill="#0" id="circle88"/>
	<circle cx="453.396" cy="318.577" r="4" fill="#0" id="circle89"/>
	<circle cx="458.389" cy="335.221" r="4" fill="#0" id="circle90"/>
	<circle cx="461.718" cy="183.758" r="4" fill="#0" id="circle91"/>
	<circle cx="466.711" cy="350.201" r="4" fill="#0" id="circle92"/>
	<circle cx="473.369" cy="366.846" r="4" fill="#0" id="circle93"/>
	<circle cx="478.362" cy="180.43" r="4" fill="#0" id="circle94"/>
	<circle cx="486.685" cy="138.819" r="4" fill="#0" id="circle95"/>
	<circle cx="486.685" cy="155.463" r="4" fill="#0" id="circle96"/>
	<circle cx="486.685" cy="376.832" r="4" fill="#0" id="circle97"/>
	<circle cx="495.007" cy="391.812" r="4" fill="#0" id="circle98"/>
	<circle cx="500" cy="125.503" r="4" fill="#0" id="circle99"/>
	<circle cx="508.322" cy="401.799" r="4" fill="#0" id="circle100"/>
	<circle cx="513.315" cy="112.188" r="4" fill="#0" id="circle101"/>
	<circle cx="523.302" cy="410.121" r="4" fill="#0" id="circle102"/>
	<circle cx="526.631" cy="100.537" r="4" fill="#0" id="circle103"/>
	<circle cx="539.946" cy="410.121" r="4" fill="#0" id="circle104"/>
	<circle cx="541.611" cy="92.2148" r="4" fill="#0" id="circle105"/>
	<circle cx="553.262" cy="22.3087" r="4" fill="#0" id="circle106"/>
	<circle cx="553.262" cy="38.953" r="4" fill="#0" id="circle107"/>
	<circle cx="553.262" cy="55.5973" r="4" fill="#0" id="circle108"/>
	<circle cx="553.262" cy="72.2416" r="4" fill="#0" id="circle109"/>
	<circle cx="556.591" cy="410.121" r="4" fill="#0" id="circle110"/>
	<circle cx="561.584" cy="5.66443" r="4" fill="#0" id="circle111"/>
	<circle cx="573.235" cy="410.121" r="4" fill="#0" id="circle112"/>
	<circle cx="578.228" cy="4" r="4" fill="#0" id="circle113"/>
	<circle cx="588.215" cy="401.799" r="4" fill="#0" id="circle114"/>
	<circle cx="594.872" cy="8.99329" r="4" fill="#0" id="circle115"/>
	<circle cx="596.537" cy="351.866" r="4" fill="#0" id="circle116"/>
	<circle cx="596.537" cy="368.51" r="4" fill="#0" id="circle117"/>
	<circle cx="596.537" cy="385.154" r="4" fill="#0" id="circle118"/>
	<circle cx="604.859" cy="310.255" r="4" fill="#0" id="circle119"/>
	<circle cx="604.859" cy="326.899" r="4" fill="#0" id="circle120"/>
	<circle cx="608.188" cy="18.9799" r="4" fill="#0" id="circle121"/>
	<circle cx="613.181" cy="35.6242" r="4" fill="#0" id="circle122"/>
	<circle cx="613.181" cy="52.2685" r="4" fill="#0" id="circle123"/>
	<circle cx="613.181" cy="68.9128" r="4" fill="#0" id="circle124"/>
	<circle cx="613.181" cy="85.557" r="4" fill="#0" id="circle125"/>
	<circle cx="613.181" cy="102.201" r="4" fill="#0" id="circle126"/>
	<circle cx="616.51" cy="118.846" r="4" fill="#0" id="circle127"/>
	<circle cx="619.839" cy="301.933" r="4" fill="#0" id="circle128"/>
	<circle cx="621.503" cy="135.49" r="4" fill="#0" id="circle129"/>
	<circle cx="621.503" cy="152.134" r="4" fill="#0" id="circle130"/>
	<circle cx="629.826" cy="167.114" r="4" fill="#0" id="circle131"/>
	<circle cx="629.826" cy="183.758" r="4" fill="#0" id="circle132"/>
	<circle cx="636.483" cy="301.933" r="4" fill="#0" id="circle133"/>
	<circle cx="638.148" cy="198.738" r="4" fill="#0" id="circle134"/>
	<circle cx="653.128" cy="301.933" r="4" fill="#0" id="circle135"/>
	<circle cx="654.792" cy="200.403" r="4" fill="#0" id="circle136"/>
	<circle cx="669.772" cy="208.725" r="4" fill="#0" id="circle137"/>
	<circle cx="669.772" cy="301.933" r="4" fill="#0" id="circle138"/>
	<circle cx="684.752" cy="200.403" r="4" fill="#0" id="circle139"/>
	<circle cx="686.416" cy="301.933" r="4" fill="#0" id="circle140"/>
	<circle cx="699.732" cy="192.081" r="4" fill="#0" id="circle141"/>
	<circle cx="703.06" cy="163.785" r="4" fill="#0" id="circle142"/>
	<circle cx="703.06" cy="301.933" r="4" fill="#0" id="circle143"/>
	<circle cx="711.383" cy="147.141" r="4" fill="#0" id="circle144"/>
	<circle cx="711.383" cy="178.765" r="4" fill="#0" id="circle145"/>
	<circle cx="719.705" cy="130.497" r="4" fill="#0" id="circle146"/>
	<circle cx="719.705" cy="301.933" r="4" fill="#0" id="circle147"/>
	<circle cx="728.027" cy="113.852" r="4" fill="#0" id="circle148"/>
	<circle cx="736.349" cy="47.2752" r="4" fill="#0" id="circle149"/>
	<circle cx="736.349" cy="301.933" r="4" fill="#0" id="circle150"/>
	<circle cx="744.671" cy="62.255" r="4" fill="#0" id="circle151"/>
	<circle cx="744.671" cy="78.8993" r="4" fill="#0" id="circle152"/>
	<circle cx="744.671" cy="95.5436" r="4" fill="#0" id="circle153"/>
	<circle cx="749.664" cy="33.9597" r="4" fill="#0" id="circle154"/>
	<circle cx="752.993" cy="301.933" r="4" fill="#0" id="circle155"/>
	<circle cx="766.309" cy="33.9597" r="4" fill="#0" id="circle156"/>
	<circle cx="769.638" cy="301.933" r="4" fill="#0" id="circle157"/>
	<circle cx="782.953" cy="33.9597" r="4" fill="#0" id="circle158"/>
	<circle cx="786.282" cy="301.933" r="4" fill="#0" id="circle159"/>
	<circle cx="796.268" cy="315.248" r="4" fill="#0" id="circle160"/>
	<circle cx="799.597" cy="33.9597" r="4" fill="#0" id="circle161"/>
	<circle cx="804.591" cy="330.228" r="4" fill="#0" id="circle162"/>
	<circle cx="814.577" cy="42.2819" r="4" fill="#0" id="circle163"/>
	<circle cx="816.242" cy="343.544" r="4" fill="#0" id="circle164"/>
	<circle cx="824.564" cy="358.523" r="4" fill="#0" id="circle165"/>
	<circle cx="829.557" cy="50.604" r="4" fill="#0" id="circle166"/>
	<circle cx="829.557" cy="67.2483" r="4" fill="#0" id="circle167"/>
	<circle cx="831.221" cy="375.168" r="4" fill="#0" id="circle168"/>
	<circle cx="842.872" cy="77.2349" r="4" fill="#0" id="circle169"/>
	<circle cx="847.866" cy="381.826" r="4" fill="#0" id="circle170"/>
	<circle cx="857.852" cy="85.557" r="4" fill="#0" id="circle171"/>
	<circle cx="862.846" cy="390.148" r="4" fill="#0" id="circle172"/>
	<circle cx="874.497" cy="92.2148" r="4" fill="#0" id="circle173"/>
	<circle cx="879.49" cy="396.805" r="4" fill="#0" id="circle174"/>
	<circle cx="889.477" cy="100.537" r="4" fill="#0" id="circle175"/>
	<circle cx="891.141" cy="410.121" r="4" fill="#0" id="circle176"/>
	<circle cx="906.121" cy="100.537" r="4" fill="#0" id="circle177"/>
	<circle cx="907.785" cy="408.456" r="4" fill="#0" id="circle178"/>
	<circle cx="921.101" cy="108.859" r="4" fill="#0" id="circle179"/>
	<circle cx="924.43" cy="401.799" r="4" fill="#0" id="circle180"/>
	<circle cx="937.745" cy="113.852" r="4" fill="#0" id="circle181"/>
	<circle cx="939.409" cy="410.121" r="4" fill="#0" id="circle182"/>
	<circle cx="944.403" cy="130.497" r="4" fill="#0" id="circle183"/>
	<circle cx="946.067" cy="147.141" r="4" fill="#0" id="circle184"/>
	<circle cx="946.067" cy="163.785" r="4" fill="#0" id="circle185"/>
	<circle cx="946.067" cy="180.43" r="4" fill="#0" id="circle186"/>
	<circle cx="956.054" cy="406.792" r="4" fill="#0" id="circle187"/>
	<circle cx="957.718" cy="193.745" r="4" fill="#0" id="circle188"/>
	<circle cx="966.04" cy="391.812" r="4" fill="#0" id="circle189"/>
	<circle cx="971.034" cy="205.396" r="4" fill="#0" id="circle190"/>
	<circle cx="974.362" cy="375.168" r="4" fill="#0" id="circle191"/>
	<circle cx="979.356" cy="220.376" r="4" fill="#0" id="circle192"/>
	<circle cx="982.685" cy="358.523" r="4" fill="#0" id="circle193"/>
	<circle cx="987.678" cy="235.356" r="4" fill="#0" id="circle194"/>
	<circle cx="987.678" cy="252" r="4" fill="#0" id="circle195"/>
	<circle cx="996" cy="266.98" r="4" fill="#0" id="circle196"/>
	<circle cx="996" cy="283.624" r="4" fill="#0" id="circle197"/>
	<circle cx="996" cy="300.268" r="4" fill="#0" id="circle198"/>
	<circle cx="996" cy="316.913" r="4" fill="#0" id="circle199"/>
	<circle cx="996" cy="333.557" r="4" fill="#0" id="circle200"/>
	</g>
</svg>