<?xml version="1.0" encoding="UTF-8" standalone="no"?>
<!-- Created with CurveBenchmark -->
<svg
	xmlns:dc="http://purl.org/dc/elements/1.1/"
	xmlns:cc="http://creativecommons.org/ns#"
	xmlns:rdf="http://www.w3.org/1999/02/22-rdf-syntax-ns#"
	xmlns:svg="http://www.w3.org/2000/svg"
	xmlns="http://www.w3.org/2000/svg"
	xmlns:sodipodi="http://sodipodi.sourceforge.net/DTD/sodipodi-0.dtd"
	xmlns:inkscape="http://www.inkscape.org/namespaces/inkscape"
	width="1000"
	height="1000"
	id="svg2"
	version="1.1"
	sodipodi:docname="manifold/connect2d-television170.png.txt">
<defs
	id="defs4" />
<metadata
	id="metadata7">
	<rdf:RDF>
		<cc:Work
			rdf:about="">
			<dc:format>image/svg+xml</dc:format>
			<dc:type
				rdf:resource="http://purl.org/dc/dcmitype/StillImage" />
			<dc:title></dc:title>
		</cc:Work>
	</rdf:RDF>
</metadata>
<g
	inkscape:label="Layer 1"
	inkscape:groupmode="layer"
	id="layer1">
	<path style="fill:none;stroke:red;stroke-width:1px;stroke-linecap:butt;stroke-linejoin:miter;stroke-opacity:1" d="M 996,779.921 973.083,825.756 z" id="boundary" inkscape:connector-curvature="0" />
	<path style="fill:none;stroke:red;stroke-width:1px;stroke-linecap:butt;stroke-linejoin:miter;stroke-opacity:1" d="M 973.083,825.756 940.343,822.482 z" id="boundary" inkscape:connector-curvature="0" />
	<path style="fill:none;stroke:red;stroke-width:1px;stroke-linecap:butt;stroke-linejoin:miter;stroke-opacity:1" d="M 940.343,822.482 907.604,829.03 z" id="boundary" inkscape:connector-curvature="0" />
	<path style="fill:none;stroke:red;stroke-width:1px;stroke-linecap:butt;stroke-linejoin:miter;stroke-opacity:1" d="M 907.604,829.03 874.865,819.208 z" id="boundary" inkscape:connector-curvature="0" />
	<path style="fill:none;stroke:red;stroke-width:1px;stroke-linecap:butt;stroke-linejoin:miter;stroke-opacity:1" d="M 874.865,819.208 842.125,819.208 z" id="boundary" inkscape:connector-curvature="0" />
	<path style="fill:none;stroke:red;stroke-width:1px;stroke-linecap:butt;stroke-linejoin:miter;stroke-opacity:1" d="M 842.125,819.208 809.386,819.208 z" id="boundary" inkscape:connector-curvature="0" />
	<path style="fill:none;stroke:red;stroke-width:1px;stroke-linecap:butt;stroke-linejoin:miter;stroke-opacity:1" d="M 809.386,819.208 776.647,819.208 z" id="boundary" inkscape:connector-curvature="0" />
	<path style="fill:none;stroke:red;stroke-width:1px;stroke-linecap:butt;stroke-linejoin:miter;stroke-opacity:1" d="M 776.647,819.208 743.908,819.208 z" id="boundary" inkscape:connector-curvature="0" />
	<path style="fill:none;stroke:red;stroke-width:1px;stroke-linecap:butt;stroke-linejoin:miter;stroke-opacity:1" d="M 743.908,819.208 711.168,819.208 z" id="boundary" inkscape:connector-curvature="0" />
	<path style="fill:none;stroke:red;stroke-width:1px;stroke-linecap:butt;stroke-linejoin:miter;stroke-opacity:1" d="M 711.168,819.208 678.429,819.208 z" id="boundary" inkscape:connector-curvature="0" />
	<path style="fill:none;stroke:red;stroke-width:1px;stroke-linecap:butt;stroke-linejoin:miter;stroke-opacity:1" d="M 678.429,819.208 645.69,819.208 z" id="boundary" inkscape:connector-curvature="0" />
	<path style="fill:none;stroke:red;stroke-width:1px;stroke-linecap:butt;stroke-linejoin:miter;stroke-opacity:1" d="M 645.69,819.208 612.95,819.208 z" id="boundary" inkscape:connector-curvature="0" />
	<path style="fill:none;stroke:red;stroke-width:1px;stroke-linecap:butt;stroke-linejoin:miter;stroke-opacity:1" d="M 612.95,819.208 580.211,819.208 z" id="boundary" inkscape:connector-curvature="0" />
	<path style="fill:none;stroke:red;stroke-width:1px;stroke-linecap:butt;stroke-linejoin:miter;stroke-opacity:1" d="M 580.211,819.208 547.472,819.208 z" id="boundary" inkscape:connector-curvature="0" />
	<path style="fill:none;stroke:red;stroke-width:1px;stroke-linecap:butt;stroke-linejoin:miter;stroke-opacity:1" d="M 547.472,819.208 514.733,819.208 z" id="boundary" inkscape:connector-curvature="0" />
	<path style="fill:none;stroke:red;stroke-width:1px;stroke-linecap:butt;stroke-linejoin:miter;stroke-opacity:1" d="M 514.733,819.208 481.993,819.208 z" id="boundary" inkscape:connector-curvature="0" />
	<path style="fill:none;stroke:red;stroke-width:1px;stroke-linecap:butt;stroke-linejoin:miter;stroke-opacity:1" d="M 481.993,819.208 449.254,819.208 z" id="boundary" inkscape:connector-curvature="0" />
	<path style="fill:none;stroke:red;stroke-width:1px;stroke-linecap:butt;stroke-linejoin:miter;stroke-opacity:1" d="M 449.254,819.208 416.515,819.208 z" id="boundary" inkscape:connector-curvature="0" />
	<path style="fill:none;stroke:red;stroke-width:1px;stroke-linecap:butt;stroke-linejoin:miter;stroke-opacity:1" d="M 416.515,819.208 383.776,819.208 z" id="boundary" inkscape:connector-curvature="0" />
	<path style="fill:none;stroke:red;stroke-width:1px;stroke-linecap:butt;stroke-linejoin:miter;stroke-opacity:1" d="M 383.776,819.208 351.036,819.208 z" id="boundary" inkscape:connector-curvature="0" />
	<path style="fill:none;stroke:red;stroke-width:1px;stroke-linecap:butt;stroke-linejoin:miter;stroke-opacity:1" d="M 351.036,819.208 318.297,819.208 z" id="boundary" inkscape:connector-curvature="0" />
	<path style="fill:none;stroke:red;stroke-width:1px;stroke-linecap:butt;stroke-linejoin:miter;stroke-opacity:1" d="M 318.297,819.208 285.558,819.208 z" id="boundary" inkscape:connector-curvature="0" />
	<path style="fill:none;stroke:red;stroke-width:1px;stroke-linecap:butt;stroke-linejoin:miter;stroke-opacity:1" d="M 285.558,819.208 252.818,819.208 z" id="boundary" inkscape:connector-curvature="0" />
	<path style="fill:none;stroke:red;stroke-width:1px;stroke-linecap:butt;stroke-linejoin:miter;stroke-opacity:1" d="M 252.818,819.208 220.079,819.208 z" id="boundary" inkscape:connector-curvature="0" />
	<path style="fill:none;stroke:red;stroke-width:1px;stroke-linecap:butt;stroke-linejoin:miter;stroke-opacity:1" d="M 220.079,819.208 187.34,819.208 z" id="boundary" inkscape:connector-curvature="0" />
	<path style="fill:none;stroke:red;stroke-width:1px;stroke-linecap:butt;stroke-linejoin:miter;stroke-opacity:1" d="M 187.34,819.208 154.601,819.208 z" id="boundary" inkscape:connector-curvature="0" />
	<path style="fill:none;stroke:red;stroke-width:1px;stroke-linecap:butt;stroke-linejoin:miter;stroke-opacity:1" d="M 154.601,819.208 121.861,819.208 z" id="boundary" inkscape:connector-curvature="0" />
	<path style="fill:none;stroke:red;stroke-width:1px;stroke-linecap:butt;stroke-linejoin:miter;stroke-opacity:1" d="M 121.861,819.208 89.1221,819.208 z" id="boundary" inkscape:connector-curvature="0" />
	<path style="fill:none;stroke:red;stroke-width:1px;stroke-linecap:butt;stroke-linejoin:miter;stroke-opacity:1" d="M 89.1221,819.208 56.3828,825.756 z" id="boundary" inkscape:connector-curvature="0" />
	<path style="fill:none;stroke:red;stroke-width:1px;stroke-linecap:butt;stroke-linejoin:miter;stroke-opacity:1" d="M 56.3828,825.756 23.6436,822.482 z" id="boundary" inkscape:connector-curvature="0" />
	<path style="fill:none;stroke:red;stroke-width:1px;stroke-linecap:butt;stroke-linejoin:miter;stroke-opacity:1" d="M 23.6436,822.482 4,796.29 z" id="boundary" inkscape:connector-curvature="0" />
	<path style="fill:none;stroke:red;stroke-width:1px;stroke-linecap:butt;stroke-linejoin:miter;stroke-opacity:1" d="M 4,796.29 4,763.551 z" id="boundary" inkscape:connector-curvature="0" />
	<path style="fill:none;stroke:red;stroke-width:1px;stroke-linecap:butt;stroke-linejoin:miter;stroke-opacity:1" d="M 4,763.551 36.7393,750.455 z" id="boundary" inkscape:connector-curvature="0" />
	<path style="fill:none;stroke:red;stroke-width:1px;stroke-linecap:butt;stroke-linejoin:miter;stroke-opacity:1" d="M 36.7393,750.455 69.4785,750.455 z" id="boundary" inkscape:connector-curvature="0" />
	<path style="fill:none;stroke:red;stroke-width:1px;stroke-linecap:butt;stroke-linejoin:miter;stroke-opacity:1" d="M 69.4785,750.455 102.218,750.455 z" id="boundary" inkscape:connector-curvature="0" />
	<path style="fill:none;stroke:red;stroke-width:1px;stroke-linecap:butt;stroke-linejoin:miter;stroke-opacity:1" d="M 102.218,750.455 134.957,750.455 z" id="boundary" inkscape:connector-curvature="0" />
	<path style="fill:none;stroke:red;stroke-width:1px;stroke-linecap:butt;stroke-linejoin:miter;stroke-opacity:1" d="M 134.957,750.455 167.696,750.455 z" id="boundary" inkscape:connector-curvature="0" />
	<path style="fill:none;stroke:red;stroke-width:1px;stroke-linecap:butt;stroke-linejoin:miter;stroke-opacity:1" d="M 167.696,750.455 200.436,750.455 z" id="boundary" inkscape:connector-curvature="0" />
	<path style="fill:none;stroke:red;stroke-width:1px;stroke-linecap:butt;stroke-linejoin:miter;stroke-opacity:1" d="M 200.436,750.455 233.175,750.455 z" id="boundary" inkscape:connector-curvature="0" />
	<path style="fill:none;stroke:red;stroke-width:1px;stroke-linecap:butt;stroke-linejoin:miter;stroke-opacity:1" d="M 233.175,750.455 265.914,750.455 z" id="boundary" inkscape:connector-curvature="0" />
	<path style="fill:none;stroke:red;stroke-width:1px;stroke-linecap:butt;stroke-linejoin:miter;stroke-opacity:1" d="M 265.914,750.455 298.653,750.455 z" id="boundary" inkscape:connector-curvature="0" />
	<path style="fill:none;stroke:red;stroke-width:1px;stroke-linecap:butt;stroke-linejoin:miter;stroke-opacity:1" d="M 298.653,750.455 324.845,770.099 z" id="boundary" inkscape:connector-curvature="0" />
	<path style="fill:none;stroke:red;stroke-width:1px;stroke-linecap:butt;stroke-linejoin:miter;stroke-opacity:1" d="M 324.845,770.099 351.036,750.455 z" id="boundary" inkscape:connector-curvature="0" />
	<path style="fill:none;stroke:red;stroke-width:1px;stroke-linecap:butt;stroke-linejoin:miter;stroke-opacity:1" d="M 351.036,750.455 377.228,770.099 z" id="boundary" inkscape:connector-curvature="0" />
	<path style="fill:none;stroke:red;stroke-width:1px;stroke-linecap:butt;stroke-linejoin:miter;stroke-opacity:1" d="M 377.228,770.099 403.419,750.455 z" id="boundary" inkscape:connector-curvature="0" />
	<path style="fill:none;stroke:red;stroke-width:1px;stroke-linecap:butt;stroke-linejoin:miter;stroke-opacity:1" d="M 403.419,750.455 416.515,711.168 z" id="boundary" inkscape:connector-curvature="0" />
	<path style="fill:none;stroke:red;stroke-width:1px;stroke-linecap:butt;stroke-linejoin:miter;stroke-opacity:1" d="M 416.515,711.168 400.145,681.703 z" id="boundary" inkscape:connector-curvature="0" />
	<path style="fill:none;stroke:red;stroke-width:1px;stroke-linecap:butt;stroke-linejoin:miter;stroke-opacity:1" d="M 400.145,681.703 367.406,681.703 z" id="boundary" inkscape:connector-curvature="0" />
	<path style="fill:none;stroke:red;stroke-width:1px;stroke-linecap:butt;stroke-linejoin:miter;stroke-opacity:1" d="M 367.406,681.703 334.667,681.703 z" id="boundary" inkscape:connector-curvature="0" />
	<path style="fill:none;stroke:red;stroke-width:1px;stroke-linecap:butt;stroke-linejoin:miter;stroke-opacity:1" d="M 334.667,681.703 301.927,681.703 z" id="boundary" inkscape:connector-curvature="0" />
	<path style="fill:none;stroke:red;stroke-width:1px;stroke-linecap:butt;stroke-linejoin:miter;stroke-opacity:1" d="M 301.927,681.703 269.188,681.703 z" id="boundary" inkscape:connector-curvature="0" />
	<path style="fill:none;stroke:red;stroke-width:1px;stroke-linecap:butt;stroke-linejoin:miter;stroke-opacity:1" d="M 269.188,681.703 236.449,681.703 z" id="boundary" inkscape:connector-curvature="0" />
	<path style="fill:none;stroke:red;stroke-width:1px;stroke-linecap:butt;stroke-linejoin:miter;stroke-opacity:1" d="M 236.449,681.703 203.71,681.703 z" id="boundary" inkscape:connector-curvature="0" />
	<path style="fill:none;stroke:red;stroke-width:1px;stroke-linecap:butt;stroke-linejoin:miter;stroke-opacity:1" d="M 203.71,681.703 170.97,681.703 z" id="boundary" inkscape:connector-curvature="0" />
	<path style="fill:none;stroke:red;stroke-width:1px;stroke-linecap:butt;stroke-linejoin:miter;stroke-opacity:1" d="M 170.97,681.703 138.231,681.703 z" id="boundary" inkscape:connector-curvature="0" />
	<path style="fill:none;stroke:red;stroke-width:1px;stroke-linecap:butt;stroke-linejoin:miter;stroke-opacity:1" d="M 138.231,681.703 105.492,681.703 z" id="boundary" inkscape:connector-curvature="0" />
	<path style="fill:none;stroke:red;stroke-width:1px;stroke-linecap:butt;stroke-linejoin:miter;stroke-opacity:1" d="M 105.492,681.703 72.7525,681.703 z" id="boundary" inkscape:connector-curvature="0" />
	<path style="fill:none;stroke:red;stroke-width:1px;stroke-linecap:butt;stroke-linejoin:miter;stroke-opacity:1" d="M 72.7525,681.703 56.3828,652.238 z" id="boundary" inkscape:connector-curvature="0" />
	<path style="fill:none;stroke:red;stroke-width:1px;stroke-linecap:butt;stroke-linejoin:miter;stroke-opacity:1" d="M 56.3828,652.238 89.1221,652.238 z" id="boundary" inkscape:connector-curvature="0" />
	<path style="fill:none;stroke:red;stroke-width:1px;stroke-linecap:butt;stroke-linejoin:miter;stroke-opacity:1" d="M 89.1221,652.238 121.861,652.238 z" id="boundary" inkscape:connector-curvature="0" />
	<path style="fill:none;stroke:red;stroke-width:1px;stroke-linecap:butt;stroke-linejoin:miter;stroke-opacity:1" d="M 121.861,652.238 154.601,652.238 z" id="boundary" inkscape:connector-curvature="0" />
	<path style="fill:none;stroke:red;stroke-width:1px;stroke-linecap:butt;stroke-linejoin:miter;stroke-opacity:1" d="M 154.601,652.238 187.34,652.238 z" id="boundary" inkscape:connector-curvature="0" />
	<path style="fill:none;stroke:red;stroke-width:1px;stroke-linecap:butt;stroke-linejoin:miter;stroke-opacity:1" d="M 187.34,652.238 220.079,652.238 z" id="boundary" inkscape:connector-curvature="0" />
	<path style="fill:none;stroke:red;stroke-width:1px;stroke-linecap:butt;stroke-linejoin:miter;stroke-opacity:1" d="M 220.079,652.238 252.818,652.238 z" id="boundary" inkscape:connector-curvature="0" />
	<path style="fill:none;stroke:red;stroke-width:1px;stroke-linecap:butt;stroke-linejoin:miter;stroke-opacity:1" d="M 252.818,652.238 285.558,652.238 z" id="boundary" inkscape:connector-curvature="0" />
	<path style="fill:none;stroke:red;stroke-width:1px;stroke-linecap:butt;stroke-linejoin:miter;stroke-opacity:1" d="M 285.558,652.238 318.297,652.238 z" id="boundary" inkscape:connector-curvature="0" />
	<path style="fill:none;stroke:red;stroke-width:1px;stroke-linecap:butt;stroke-linejoin:miter;stroke-opacity:1" d="M 318.297,652.238 351.036,652.238 z" id="boundary" inkscape:connector-curvature="0" />
	<path style="fill:none;stroke:red;stroke-width:1px;stroke-linecap:butt;stroke-linejoin:miter;stroke-opacity:1" d="M 351.036,652.238 383.776,652.238 z" id="boundary" inkscape:connector-curvature="0" />
	<path style="fill:none;stroke:red;stroke-width:1px;stroke-linecap:butt;stroke-linejoin:miter;stroke-opacity:1" d="M 383.776,652.238 416.515,642.416 z" id="boundary" inkscape:connector-curvature="0" />
	<path style="fill:none;stroke:red;stroke-width:1px;stroke-linecap:butt;stroke-linejoin:miter;stroke-opacity:1" d="M 416.515,642.416 416.515,609.677 z" id="boundary" inkscape:connector-curvature="0" />
	<path style="fill:none;stroke:red;stroke-width:1px;stroke-linecap:butt;stroke-linejoin:miter;stroke-opacity:1" d="M 416.515,609.677 409.967,576.937 z" id="boundary" inkscape:connector-curvature="0" />
	<path style="fill:none;stroke:red;stroke-width:1px;stroke-linecap:butt;stroke-linejoin:miter;stroke-opacity:1" d="M 409.967,576.937 377.228,576.937 z" id="boundary" inkscape:connector-curvature="0" />
	<path style="fill:none;stroke:red;stroke-width:1px;stroke-linecap:butt;stroke-linejoin:miter;stroke-opacity:1" d="M 377.228,576.937 344.488,576.937 z" id="boundary" inkscape:connector-curvature="0" />
	<path style="fill:none;stroke:red;stroke-width:1px;stroke-linecap:butt;stroke-linejoin:miter;stroke-opacity:1" d="M 344.488,576.937 311.749,576.937 z" id="boundary" inkscape:connector-curvature="0" />
	<path style="fill:none;stroke:red;stroke-width:1px;stroke-linecap:butt;stroke-linejoin:miter;stroke-opacity:1" d="M 311.749,576.937 279.01,576.937 z" id="boundary" inkscape:connector-curvature="0" />
	<path style="fill:none;stroke:red;stroke-width:1px;stroke-linecap:butt;stroke-linejoin:miter;stroke-opacity:1" d="M 279.01,576.937 246.271,576.937 z" id="boundary" inkscape:connector-curvature="0" />
	<path style="fill:none;stroke:red;stroke-width:1px;stroke-linecap:butt;stroke-linejoin:miter;stroke-opacity:1" d="M 246.271,576.937 213.531,576.937 z" id="boundary" inkscape:connector-curvature="0" />
	<path style="fill:none;stroke:red;stroke-width:1px;stroke-linecap:butt;stroke-linejoin:miter;stroke-opacity:1" d="M 213.531,576.937 180.792,576.937 z" id="boundary" inkscape:connector-curvature="0" />
	<path style="fill:none;stroke:red;stroke-width:1px;stroke-linecap:butt;stroke-linejoin:miter;stroke-opacity:1" d="M 180.792,576.937 148.053,576.937 z" id="boundary" inkscape:connector-curvature="0" />
	<path style="fill:none;stroke:red;stroke-width:1px;stroke-linecap:butt;stroke-linejoin:miter;stroke-opacity:1" d="M 148.053,576.937 115.314,576.937 z" id="boundary" inkscape:connector-curvature="0" />
	<path style="fill:none;stroke:red;stroke-width:1px;stroke-linecap:butt;stroke-linejoin:miter;stroke-opacity:1" d="M 115.314,576.937 82.5743,576.937 z" id="boundary" inkscape:connector-curvature="0" />
	<path style="fill:none;stroke:red;stroke-width:1px;stroke-linecap:butt;stroke-linejoin:miter;stroke-opacity:1" d="M 82.5743,576.937 56.3828,554.02 z" id="boundary" inkscape:connector-curvature="0" />
	<path style="fill:none;stroke:red;stroke-width:1px;stroke-linecap:butt;stroke-linejoin:miter;stroke-opacity:1" d="M 56.3828,554.02 98.9439,547.472 z" id="boundary" inkscape:connector-curvature="0" />
	<path style="fill:none;stroke:red;stroke-width:1px;stroke-linecap:butt;stroke-linejoin:miter;stroke-opacity:1" d="M 98.9439,547.472 131.683,547.472 z" id="boundary" inkscape:connector-curvature="0" />
	<path style="fill:none;stroke:red;stroke-width:1px;stroke-linecap:butt;stroke-linejoin:miter;stroke-opacity:1" d="M 131.683,547.472 164.422,547.472 z" id="boundary" inkscape:connector-curvature="0" />
	<path style="fill:none;stroke:red;stroke-width:1px;stroke-linecap:butt;stroke-linejoin:miter;stroke-opacity:1" d="M 164.422,547.472 197.162,547.472 z" id="boundary" inkscape:connector-curvature="0" />
	<path style="fill:none;stroke:red;stroke-width:1px;stroke-linecap:butt;stroke-linejoin:miter;stroke-opacity:1" d="M 197.162,547.472 229.901,547.472 z" id="boundary" inkscape:connector-curvature="0" />
	<path style="fill:none;stroke:red;stroke-width:1px;stroke-linecap:butt;stroke-linejoin:miter;stroke-opacity:1" d="M 229.901,547.472 262.64,547.472 z" id="boundary" inkscape:connector-curvature="0" />
	<path style="fill:none;stroke:red;stroke-width:1px;stroke-linecap:butt;stroke-linejoin:miter;stroke-opacity:1" d="M 262.64,547.472 295.38,547.472 z" id="boundary" inkscape:connector-curvature="0" />
	<path style="fill:none;stroke:red;stroke-width:1px;stroke-linecap:butt;stroke-linejoin:miter;stroke-opacity:1" d="M 295.38,547.472 328.119,547.472 z" id="boundary" inkscape:connector-curvature="0" />
	<path style="fill:none;stroke:red;stroke-width:1px;stroke-linecap:butt;stroke-linejoin:miter;stroke-opacity:1" d="M 328.119,547.472 360.858,547.472 z" id="boundary" inkscape:connector-curvature="0" />
	<path style="fill:none;stroke:red;stroke-width:1px;stroke-linecap:butt;stroke-linejoin:miter;stroke-opacity:1" d="M 360.858,547.472 393.597,547.472 z" id="boundary" inkscape:connector-curvature="0" />
	<path style="fill:none;stroke:red;stroke-width:1px;stroke-linecap:butt;stroke-linejoin:miter;stroke-opacity:1" d="M 393.597,547.472 416.515,498.363 z" id="boundary" inkscape:connector-curvature="0" />
	<path style="fill:none;stroke:red;stroke-width:1px;stroke-linecap:butt;stroke-linejoin:miter;stroke-opacity:1" d="M 416.515,498.363 416.515,465.624 z" id="boundary" inkscape:connector-curvature="0" />
	<path style="fill:none;stroke:red;stroke-width:1px;stroke-linecap:butt;stroke-linejoin:miter;stroke-opacity:1" d="M 416.515,465.624 393.597,439.432 z" id="boundary" inkscape:connector-curvature="0" />
	<path style="fill:none;stroke:red;stroke-width:1px;stroke-linecap:butt;stroke-linejoin:miter;stroke-opacity:1" d="M 393.597,439.432 360.858,439.432 z" id="boundary" inkscape:connector-curvature="0" />
	<path style="fill:none;stroke:red;stroke-width:1px;stroke-linecap:butt;stroke-linejoin:miter;stroke-opacity:1" d="M 360.858,439.432 328.119,439.432 z" id="boundary" inkscape:connector-curvature="0" />
	<path style="fill:none;stroke:red;stroke-width:1px;stroke-linecap:butt;stroke-linejoin:miter;stroke-opacity:1" d="M 328.119,439.432 295.38,439.432 z" id="boundary" inkscape:connector-curvature="0" />
	<path style="fill:none;stroke:red;stroke-width:1px;stroke-linecap:butt;stroke-linejoin:miter;stroke-opacity:1" d="M 295.38,439.432 262.64,439.432 z" id="boundary" inkscape:connector-curvature="0" />
	<path style="fill:none;stroke:red;stroke-width:1px;stroke-linecap:butt;stroke-linejoin:miter;stroke-opacity:1" d="M 262.64,439.432 229.901,439.432 z" id="boundary" inkscape:connector-curvature="0" />
	<path style="fill:none;stroke:red;stroke-width:1px;stroke-linecap:butt;stroke-linejoin:miter;stroke-opacity:1" d="M 229.901,439.432 197.162,439.432 z" id="boundary" inkscape:connector-curvature="0" />
	<path style="fill:none;stroke:red;stroke-width:1px;stroke-linecap:butt;stroke-linejoin:miter;stroke-opacity:1" d="M 197.162,439.432 164.422,439.432 z" id="boundary" inkscape:connector-curvature="0" />
	<path style="fill:none;stroke:red;stroke-width:1px;stroke-linecap:butt;stroke-linejoin:miter;stroke-opacity:1" d="M 164.422,439.432 131.683,439.432 z" id="boundary" inkscape:connector-curvature="0" />
	<path style="fill:none;stroke:red;stroke-width:1px;stroke-linecap:butt;stroke-linejoin:miter;stroke-opacity:1" d="M 131.683,439.432 115.314,409.967 z" id="boundary" inkscape:connector-curvature="0" />
	<path style="fill:none;stroke:red;stroke-width:1px;stroke-linecap:butt;stroke-linejoin:miter;stroke-opacity:1" d="M 115.314,409.967 115.314,377.228 z" id="boundary" inkscape:connector-curvature="0" />
	<path style="fill:none;stroke:red;stroke-width:1px;stroke-linecap:butt;stroke-linejoin:miter;stroke-opacity:1" d="M 115.314,377.228 115.314,344.488 z" id="boundary" inkscape:connector-curvature="0" />
	<path style="fill:none;stroke:red;stroke-width:1px;stroke-linecap:butt;stroke-linejoin:miter;stroke-opacity:1" d="M 115.314,344.488 115.314,311.749 z" id="boundary" inkscape:connector-curvature="0" />
	<path style="fill:none;stroke:red;stroke-width:1px;stroke-linecap:butt;stroke-linejoin:miter;stroke-opacity:1" d="M 115.314,311.749 115.314,279.01 z" id="boundary" inkscape:connector-curvature="0" />
	<path style="fill:none;stroke:red;stroke-width:1px;stroke-linecap:butt;stroke-linejoin:miter;stroke-opacity:1" d="M 115.314,279.01 115.314,246.271 z" id="boundary" inkscape:connector-curvature="0" />
	<path style="fill:none;stroke:red;stroke-width:1px;stroke-linecap:butt;stroke-linejoin:miter;stroke-opacity:1" d="M 115.314,246.271 115.314,213.531 z" id="boundary" inkscape:connector-curvature="0" />
	<path style="fill:none;stroke:red;stroke-width:1px;stroke-linecap:butt;stroke-linejoin:miter;stroke-opacity:1" d="M 115.314,213.531 115.314,180.792 z" id="boundary" inkscape:connector-curvature="0" />
	<path style="fill:none;stroke:red;stroke-width:1px;stroke-linecap:butt;stroke-linejoin:miter;stroke-opacity:1" d="M 115.314,180.792 115.314,148.053 z" id="boundary" inkscape:connector-curvature="0" />
	<path style="fill:none;stroke:red;stroke-width:1px;stroke-linecap:butt;stroke-linejoin:miter;stroke-opacity:1" d="M 115.314,148.053 115.314,115.314 z" id="boundary" inkscape:connector-curvature="0" />
	<path style="fill:none;stroke:red;stroke-width:1px;stroke-linecap:butt;stroke-linejoin:miter;stroke-opacity:1" d="M 115.314,115.314 115.314,82.5743 z" id="boundary" inkscape:connector-curvature="0" />
	<path style="fill:none;stroke:red;stroke-width:1px;stroke-linecap:butt;stroke-linejoin:miter;stroke-opacity:1" d="M 115.314,82.5743 115.314,49.835 z" id="boundary" inkscape:connector-curvature="0" />
	<path style="fill:none;stroke:red;stroke-width:1px;stroke-linecap:butt;stroke-linejoin:miter;stroke-opacity:1" d="M 115.314,49.835 115.314,17.0957 z" id="boundary" inkscape:connector-curvature="0" />
	<path style="fill:none;stroke:red;stroke-width:1px;stroke-linecap:butt;stroke-linejoin:miter;stroke-opacity:1" d="M 115.314,17.0957 148.053,4 z" id="boundary" inkscape:connector-curvature="0" />
	<path style="fill:none;stroke:red;stroke-width:1px;stroke-linecap:butt;stroke-linejoin:miter;stroke-opacity:1" d="M 148.053,4 180.792,4 z" id="boundary" inkscape:connector-curvature="0" />
	<path style="fill:none;stroke:red;stroke-width:1px;stroke-linecap:butt;stroke-linejoin:miter;stroke-opacity:1" d="M 180.792,4 213.531,4 z" id="boundary" inkscape:connector-curvature="0" />
	<path style="fill:none;stroke:red;stroke-width:1px;stroke-linecap:butt;stroke-linejoin:miter;stroke-opacity:1" d="M 213.531,4 246.271,4 z" id="boundary" inkscape:connector-curvature="0" />
	<path style="fill:none;stroke:red;stroke-width:1px;stroke-linecap:butt;stroke-linejoin:miter;stroke-opacity:1" d="M 246.271,4 279.01,4 z" id="boundary" inkscape:connector-curvature="0" />
	<path style="fill:none;stroke:red;stroke-width:1px;stroke-linecap:butt;stroke-linejoin:miter;stroke-opacity:1" d="M 279.01,4 311.749,4 z" id="boundary" inkscape:connector-curvature="0" />
	<path style="fill:none;stroke:red;stroke-width:1px;stroke-linecap:butt;stroke-linejoin:miter;stroke-opacity:1" d="M 311.749,4 344.488,4 z" id="boundary" inkscape:connector-curvature="0" />
	<path style="fill:none;stroke:red;stroke-width:1px;stroke-linecap:butt;stroke-linejoin:miter;stroke-opacity:1" d="M 344.488,4 377.228,4 z" id="boundary" inkscape:connector-curvature="0" />
	<path style="fill:none;stroke:red;stroke-width:1px;stroke-linecap:butt;stroke-linejoin:miter;stroke-opacity:1" d="M 377.228,4 409.967,4 z" id="boundary" inkscape:connector-curvature="0" />
	<path style="fill:none;stroke:red;stroke-width:1px;stroke-linecap:butt;stroke-linejoin:miter;stroke-opacity:1" d="M 409.967,4 442.706,4 z" id="boundary" inkscape:connector-curvature="0" />
	<path style="fill:none;stroke:red;stroke-width:1px;stroke-linecap:butt;stroke-linejoin:miter;stroke-opacity:1" d="M 442.706,4 475.446,4 z" id="boundary" inkscape:connector-curvature="0" />
	<path style="fill:none;stroke:red;stroke-width:1px;stroke-linecap:butt;stroke-linejoin:miter;stroke-opacity:1" d="M 475.446,4 508.185,4 z" id="boundary" inkscape:connector-curvature="0" />
	<path style="fill:none;stroke:red;stroke-width:1px;stroke-linecap:butt;stroke-linejoin:miter;stroke-opacity:1" d="M 508.185,4 540.924,4 z" id="boundary" inkscape:connector-curvature="0" />
	<path style="fill:none;stroke:red;stroke-width:1px;stroke-linecap:butt;stroke-linejoin:miter;stroke-opacity:1" d="M 540.924,4 573.663,4 z" id="boundary" inkscape:connector-curvature="0" />
	<path style="fill:none;stroke:red;stroke-width:1px;stroke-linecap:butt;stroke-linejoin:miter;stroke-opacity:1" d="M 573.663,4 606.403,4 z" id="boundary" inkscape:connector-curvature="0" />
	<path style="fill:none;stroke:red;stroke-width:1px;stroke-linecap:butt;stroke-linejoin:miter;stroke-opacity:1" d="M 606.403,4 639.142,4 z" id="boundary" inkscape:connector-curvature="0" />
	<path style="fill:none;stroke:red;stroke-width:1px;stroke-linecap:butt;stroke-linejoin:miter;stroke-opacity:1" d="M 639.142,4 671.881,4 z" id="boundary" inkscape:connector-curvature="0" />
	<path style="fill:none;stroke:red;stroke-width:1px;stroke-linecap:butt;stroke-linejoin:miter;stroke-opacity:1" d="M 671.881,4 704.62,4 z" id="boundary" inkscape:connector-curvature="0" />
	<path style="fill:none;stroke:red;stroke-width:1px;stroke-linecap:butt;stroke-linejoin:miter;stroke-opacity:1" d="M 704.62,4 737.36,4 z" id="boundary" inkscape:connector-curvature="0" />
	<path style="fill:none;stroke:red;stroke-width:1px;stroke-linecap:butt;stroke-linejoin:miter;stroke-opacity:1" d="M 737.36,4 770.099,4 z" id="boundary" inkscape:connector-curvature="0" />
	<path style="fill:none;stroke:red;stroke-width:1px;stroke-linecap:butt;stroke-linejoin:miter;stroke-opacity:1" d="M 770.099,4 802.838,4 z" id="boundary" inkscape:connector-curvature="0" />
	<path style="fill:none;stroke:red;stroke-width:1px;stroke-linecap:butt;stroke-linejoin:miter;stroke-opacity:1" d="M 802.838,4 835.578,4 z" id="boundary" inkscape:connector-curvature="0" />
	<path style="fill:none;stroke:red;stroke-width:1px;stroke-linecap:butt;stroke-linejoin:miter;stroke-opacity:1" d="M 835.578,4 868.317,4 z" id="boundary" inkscape:connector-curvature="0" />
	<path style="fill:none;stroke:red;stroke-width:1px;stroke-linecap:butt;stroke-linejoin:miter;stroke-opacity:1" d="M 868.317,4 897.782,20.3696 z" id="boundary" inkscape:connector-curvature="0" />
	<path style="fill:none;stroke:red;stroke-width:1px;stroke-linecap:butt;stroke-linejoin:miter;stroke-opacity:1" d="M 897.782,20.3696 897.782,53.1089 z" id="boundary" inkscape:connector-curvature="0" />
	<path style="fill:none;stroke:red;stroke-width:1px;stroke-linecap:butt;stroke-linejoin:miter;stroke-opacity:1" d="M 897.782,53.1089 897.782,85.8482 z" id="boundary" inkscape:connector-curvature="0" />
	<path style="fill:none;stroke:red;stroke-width:1px;stroke-linecap:butt;stroke-linejoin:miter;stroke-opacity:1" d="M 897.782,85.8482 897.782,118.587 z" id="boundary" inkscape:connector-curvature="0" />
	<path style="fill:none;stroke:red;stroke-width:1px;stroke-linecap:butt;stroke-linejoin:miter;stroke-opacity:1" d="M 897.782,118.587 897.782,151.327 z" id="boundary" inkscape:connector-curvature="0" />
	<path style="fill:none;stroke:red;stroke-width:1px;stroke-linecap:butt;stroke-linejoin:miter;stroke-opacity:1" d="M 897.782,151.327 897.782,184.066 z" id="boundary" inkscape:connector-curvature="0" />
	<path style="fill:none;stroke:red;stroke-width:1px;stroke-linecap:butt;stroke-linejoin:miter;stroke-opacity:1" d="M 897.782,184.066 897.782,216.805 z" id="boundary" inkscape:connector-curvature="0" />
	<path style="fill:none;stroke:red;stroke-width:1px;stroke-linecap:butt;stroke-linejoin:miter;stroke-opacity:1" d="M 897.782,216.805 897.782,249.545 z" id="boundary" inkscape:connector-curvature="0" />
	<path style="fill:none;stroke:red;stroke-width:1px;stroke-linecap:butt;stroke-linejoin:miter;stroke-opacity:1" d="M 897.782,249.545 897.782,282.284 z" id="boundary" inkscape:connector-curvature="0" />
	<path style="fill:none;stroke:red;stroke-width:1px;stroke-linecap:butt;stroke-linejoin:miter;stroke-opacity:1" d="M 897.782,282.284 897.782,315.023 z" id="boundary" inkscape:connector-curvature="0" />
	<path style="fill:none;stroke:red;stroke-width:1px;stroke-linecap:butt;stroke-linejoin:miter;stroke-opacity:1" d="M 897.782,315.023 897.782,347.762 z" id="boundary" inkscape:connector-curvature="0" />
	<path style="fill:none;stroke:red;stroke-width:1px;stroke-linecap:butt;stroke-linejoin:miter;stroke-opacity:1" d="M 897.782,347.762 897.782,380.502 z" id="boundary" inkscape:connector-curvature="0" />
	<path style="fill:none;stroke:red;stroke-width:1px;stroke-linecap:butt;stroke-linejoin:miter;stroke-opacity:1" d="M 897.782,380.502 897.782,413.241 z" id="boundary" inkscape:connector-curvature="0" />
	<path style="fill:none;stroke:red;stroke-width:1px;stroke-linecap:butt;stroke-linejoin:miter;stroke-opacity:1" d="M 897.782,413.241 871.591,439.432 z" id="boundary" inkscape:connector-curvature="0" />
	<path style="fill:none;stroke:red;stroke-width:1px;stroke-linecap:butt;stroke-linejoin:miter;stroke-opacity:1" d="M 871.591,439.432 838.851,439.432 z" id="boundary" inkscape:connector-curvature="0" />
	<path style="fill:none;stroke:red;stroke-width:1px;stroke-linecap:butt;stroke-linejoin:miter;stroke-opacity:1" d="M 838.851,439.432 806.112,439.432 z" id="boundary" inkscape:connector-curvature="0" />
	<path style="fill:none;stroke:red;stroke-width:1px;stroke-linecap:butt;stroke-linejoin:miter;stroke-opacity:1" d="M 806.112,439.432 773.373,439.432 z" id="boundary" inkscape:connector-curvature="0" />
	<path style="fill:none;stroke:red;stroke-width:1px;stroke-linecap:butt;stroke-linejoin:miter;stroke-opacity:1" d="M 773.373,439.432 740.634,439.432 z" id="boundary" inkscape:connector-curvature="0" />
	<path style="fill:none;stroke:red;stroke-width:1px;stroke-linecap:butt;stroke-linejoin:miter;stroke-opacity:1" d="M 740.634,439.432 707.894,439.432 z" id="boundary" inkscape:connector-curvature="0" />
	<path style="fill:none;stroke:red;stroke-width:1px;stroke-linecap:butt;stroke-linejoin:miter;stroke-opacity:1" d="M 707.894,439.432 675.155,439.432 z" id="boundary" inkscape:connector-curvature="0" />
	<path style="fill:none;stroke:red;stroke-width:1px;stroke-linecap:butt;stroke-linejoin:miter;stroke-opacity:1" d="M 675.155,439.432 642.416,439.432 z" id="boundary" inkscape:connector-curvature="0" />
	<path style="fill:none;stroke:red;stroke-width:1px;stroke-linecap:butt;stroke-linejoin:miter;stroke-opacity:1" d="M 642.416,439.432 609.677,442.706 z" id="boundary" inkscape:connector-curvature="0" />
	<path style="fill:none;stroke:red;stroke-width:1px;stroke-linecap:butt;stroke-linejoin:miter;stroke-opacity:1" d="M 609.677,442.706 609.677,475.446 z" id="boundary" inkscape:connector-curvature="0" />
	<path style="fill:none;stroke:red;stroke-width:1px;stroke-linecap:butt;stroke-linejoin:miter;stroke-opacity:1" d="M 609.677,475.446 609.677,508.185 z" id="boundary" inkscape:connector-curvature="0" />
	<path style="fill:none;stroke:red;stroke-width:1px;stroke-linecap:butt;stroke-linejoin:miter;stroke-opacity:1" d="M 609.677,508.185 609.677,540.924 z" id="boundary" inkscape:connector-curvature="0" />
	<path style="fill:none;stroke:red;stroke-width:1px;stroke-linecap:butt;stroke-linejoin:miter;stroke-opacity:1" d="M 609.677,540.924 642.416,547.472 z" id="boundary" inkscape:connector-curvature="0" />
	<path style="fill:none;stroke:red;stroke-width:1px;stroke-linecap:butt;stroke-linejoin:miter;stroke-opacity:1" d="M 642.416,547.472 675.155,547.472 z" id="boundary" inkscape:connector-curvature="0" />
	<path style="fill:none;stroke:red;stroke-width:1px;stroke-linecap:butt;stroke-linejoin:miter;stroke-opacity:1" d="M 675.155,547.472 707.894,547.472 z" id="boundary" inkscape:connector-curvature="0" />
	<path style="fill:none;stroke:red;stroke-width:1px;stroke-linecap:butt;stroke-linejoin:miter;stroke-opacity:1" d="M 707.894,547.472 740.634,547.472 z" id="boundary" inkscape:connector-curvature="0" />
	<path style="fill:none;stroke:red;stroke-width:1px;stroke-linecap:butt;stroke-linejoin:miter;stroke-opacity:1" d="M 740.634,547.472 773.373,547.472 z" id="boundary" inkscape:connector-curvature="0" />
	<path style="fill:none;stroke:red;stroke-width:1px;stroke-linecap:butt;stroke-linejoin:miter;stroke-opacity:1" d="M 773.373,547.472 806.112,547.472 z" id="boundary" inkscape:connector-curvature="0" />
	<path style="fill:none;stroke:red;stroke-width:1px;stroke-linecap:butt;stroke-linejoin:miter;stroke-opacity:1" d="M 806.112,547.472 838.851,547.472 z" id="boundary" inkscape:connector-curvature="0" />
	<path style="fill:none;stroke:red;stroke-width:1px;stroke-linecap:butt;stroke-linejoin:miter;stroke-opacity:1" d="M 838.851,547.472 871.591,547.472 z" id="boundary" inkscape:connector-curvature="0" />
	<path style="fill:none;stroke:red;stroke-width:1px;stroke-linecap:butt;stroke-linejoin:miter;stroke-opacity:1" d="M 871.591,547.472 904.33,547.472 z" id="boundary" inkscape:connector-curvature="0" />
	<path style="fill:none;stroke:red;stroke-width:1px;stroke-linecap:butt;stroke-linejoin:miter;stroke-opacity:1" d="M 904.33,547.472 920.7,576.937 z" id="boundary" inkscape:connector-curvature="0" />
	<path style="fill:none;stroke:red;stroke-width:1px;stroke-linecap:butt;stroke-linejoin:miter;stroke-opacity:1" d="M 920.7,576.937 887.96,576.937 z" id="boundary" inkscape:connector-curvature="0" />
	<path style="fill:none;stroke:red;stroke-width:1px;stroke-linecap:butt;stroke-linejoin:miter;stroke-opacity:1" d="M 887.96,576.937 855.221,576.937 z" id="boundary" inkscape:connector-curvature="0" />
	<path style="fill:none;stroke:red;stroke-width:1px;stroke-linecap:butt;stroke-linejoin:miter;stroke-opacity:1" d="M 855.221,576.937 822.482,576.937 z" id="boundary" inkscape:connector-curvature="0" />
	<path style="fill:none;stroke:red;stroke-width:1px;stroke-linecap:butt;stroke-linejoin:miter;stroke-opacity:1" d="M 822.482,576.937 789.743,576.937 z" id="boundary" inkscape:connector-curvature="0" />
	<path style="fill:none;stroke:red;stroke-width:1px;stroke-linecap:butt;stroke-linejoin:miter;stroke-opacity:1" d="M 789.743,576.937 757.003,576.937 z" id="boundary" inkscape:connector-curvature="0" />
	<path style="fill:none;stroke:red;stroke-width:1px;stroke-linecap:butt;stroke-linejoin:miter;stroke-opacity:1" d="M 757.003,576.937 724.264,576.937 z" id="boundary" inkscape:connector-curvature="0" />
	<path style="fill:none;stroke:red;stroke-width:1px;stroke-linecap:butt;stroke-linejoin:miter;stroke-opacity:1" d="M 724.264,576.937 691.525,576.937 z" id="boundary" inkscape:connector-curvature="0" />
	<path style="fill:none;stroke:red;stroke-width:1px;stroke-linecap:butt;stroke-linejoin:miter;stroke-opacity:1" d="M 691.525,576.937 658.785,576.937 z" id="boundary" inkscape:connector-curvature="0" />
	<path style="fill:none;stroke:red;stroke-width:1px;stroke-linecap:butt;stroke-linejoin:miter;stroke-opacity:1" d="M 658.785,576.937 609.677,580.211 z" id="boundary" inkscape:connector-curvature="0" />
	<path style="fill:none;stroke:red;stroke-width:1px;stroke-linecap:butt;stroke-linejoin:miter;stroke-opacity:1" d="M 609.677,580.211 609.677,612.95 z" id="boundary" inkscape:connector-curvature="0" />
	<path style="fill:none;stroke:red;stroke-width:1px;stroke-linecap:butt;stroke-linejoin:miter;stroke-opacity:1" d="M 609.677,612.95 609.677,645.69 z" id="boundary" inkscape:connector-curvature="0" />
	<path style="fill:none;stroke:red;stroke-width:1px;stroke-linecap:butt;stroke-linejoin:miter;stroke-opacity:1" d="M 609.677,645.69 642.416,652.238 z" id="boundary" inkscape:connector-curvature="0" />
	<path style="fill:none;stroke:red;stroke-width:1px;stroke-linecap:butt;stroke-linejoin:miter;stroke-opacity:1" d="M 642.416,652.238 675.155,652.238 z" id="boundary" inkscape:connector-curvature="0" />
	<path style="fill:none;stroke:red;stroke-width:1px;stroke-linecap:butt;stroke-linejoin:miter;stroke-opacity:1" d="M 675.155,652.238 707.894,652.238 z" id="boundary" inkscape:connector-curvature="0" />
	<path style="fill:none;stroke:red;stroke-width:1px;stroke-linecap:butt;stroke-linejoin:miter;stroke-opacity:1" d="M 707.894,652.238 740.634,652.238 z" id="boundary" inkscape:connector-curvature="0" />
	<path style="fill:none;stroke:red;stroke-width:1px;stroke-linecap:butt;stroke-linejoin:miter;stroke-opacity:1" d="M 740.634,652.238 773.373,652.238 z" id="boundary" inkscape:connector-curvature="0" />
	<path style="fill:none;stroke:red;stroke-width:1px;stroke-linecap:butt;stroke-linejoin:miter;stroke-opacity:1" d="M 773.373,652.238 806.112,652.238 z" id="boundary" inkscape:connector-curvature="0" />
	<path style="fill:none;stroke:red;stroke-width:1px;stroke-linecap:butt;stroke-linejoin:miter;stroke-opacity:1" d="M 806.112,652.238 838.851,652.238 z" id="boundary" inkscape:connector-curvature="0" />
	<path style="fill:none;stroke:red;stroke-width:1px;stroke-linecap:butt;stroke-linejoin:miter;stroke-opacity:1" d="M 838.851,652.238 871.591,652.238 z" id="boundary" inkscape:connector-curvature="0" />
	<path style="fill:none;stroke:red;stroke-width:1px;stroke-linecap:butt;stroke-linejoin:miter;stroke-opacity:1" d="M 871.591,652.238 904.33,652.238 z" id="boundary" inkscape:connector-curvature="0" />
	<path style="fill:none;stroke:red;stroke-width:1px;stroke-linecap:butt;stroke-linejoin:miter;stroke-opacity:1" d="M 904.33,652.238 930.521,671.881 z" id="boundary" inkscape:connector-curvature="0" />
	<path style="fill:none;stroke:red;stroke-width:1px;stroke-linecap:butt;stroke-linejoin:miter;stroke-opacity:1" d="M 930.521,671.881 887.96,681.703 z" id="boundary" inkscape:connector-curvature="0" />
	<path style="fill:none;stroke:red;stroke-width:1px;stroke-linecap:butt;stroke-linejoin:miter;stroke-opacity:1" d="M 887.96,681.703 855.221,681.703 z" id="boundary" inkscape:connector-curvature="0" />
	<path style="fill:none;stroke:red;stroke-width:1px;stroke-linecap:butt;stroke-linejoin:miter;stroke-opacity:1" d="M 855.221,681.703 822.482,681.703 z" id="boundary" inkscape:connector-curvature="0" />
	<path style="fill:none;stroke:red;stroke-width:1px;stroke-linecap:butt;stroke-linejoin:miter;stroke-opacity:1" d="M 822.482,681.703 789.743,681.703 z" id="boundary" inkscape:connector-curvature="0" />
	<path style="fill:none;stroke:red;stroke-width:1px;stroke-linecap:butt;stroke-linejoin:miter;stroke-opacity:1" d="M 789.743,681.703 757.003,681.703 z" id="boundary" inkscape:connector-curvature="0" />
	<path style="fill:none;stroke:red;stroke-width:1px;stroke-linecap:butt;stroke-linejoin:miter;stroke-opacity:1" d="M 757.003,681.703 724.264,681.703 z" id="boundary" inkscape:connector-curvature="0" />
	<path style="fill:none;stroke:red;stroke-width:1px;stroke-linecap:butt;stroke-linejoin:miter;stroke-opacity:1" d="M 724.264,681.703 691.525,681.703 z" id="boundary" inkscape:connector-curvature="0" />
	<path style="fill:none;stroke:red;stroke-width:1px;stroke-linecap:butt;stroke-linejoin:miter;stroke-opacity:1" d="M 691.525,681.703 658.785,681.703 z" id="boundary" inkscape:connector-curvature="0" />
	<path style="fill:none;stroke:red;stroke-width:1px;stroke-linecap:butt;stroke-linejoin:miter;stroke-opacity:1" d="M 658.785,681.703 609.677,684.977 z" id="boundary" inkscape:connector-curvature="0" />
	<path style="fill:none;stroke:red;stroke-width:1px;stroke-linecap:butt;stroke-linejoin:miter;stroke-opacity:1" d="M 609.677,684.977 609.677,717.716 z" id="boundary" inkscape:connector-curvature="0" />
	<path style="fill:none;stroke:red;stroke-width:1px;stroke-linecap:butt;stroke-linejoin:miter;stroke-opacity:1" d="M 609.677,717.716 612.95,750.455 z" id="boundary" inkscape:connector-curvature="0" />
	<path style="fill:none;stroke:red;stroke-width:1px;stroke-linecap:butt;stroke-linejoin:miter;stroke-opacity:1" d="M 612.95,750.455 639.142,770.099 z" id="boundary" inkscape:connector-curvature="0" />
	<path style="fill:none;stroke:red;stroke-width:1px;stroke-linecap:butt;stroke-linejoin:miter;stroke-opacity:1" d="M 639.142,770.099 665.333,750.455 z" id="boundary" inkscape:connector-curvature="0" />
	<path style="fill:none;stroke:red;stroke-width:1px;stroke-linecap:butt;stroke-linejoin:miter;stroke-opacity:1" d="M 665.333,750.455 691.525,770.099 z" id="boundary" inkscape:connector-curvature="0" />
	<path style="fill:none;stroke:red;stroke-width:1px;stroke-linecap:butt;stroke-linejoin:miter;stroke-opacity:1" d="M 691.525,770.099 717.716,750.455 z" id="boundary" inkscape:connector-curvature="0" />
	<path style="fill:none;stroke:red;stroke-width:1px;stroke-linecap:butt;stroke-linejoin:miter;stroke-opacity:1" d="M 717.716,750.455 750.455,750.455 z" id="boundary" inkscape:connector-curvature="0" />
	<path style="fill:none;stroke:red;stroke-width:1px;stroke-linecap:butt;stroke-linejoin:miter;stroke-opacity:1" d="M 750.455,750.455 783.195,750.455 z" id="boundary" inkscape:connector-curvature="0" />
	<path style="fill:none;stroke:red;stroke-width:1px;stroke-linecap:butt;stroke-linejoin:miter;stroke-opacity:1" d="M 783.195,750.455 815.934,750.455 z" id="boundary" inkscape:connector-curvature="0" />
	<path style="fill:none;stroke:red;stroke-width:1px;stroke-linecap:butt;stroke-linejoin:miter;stroke-opacity:1" d="M 815.934,750.455 848.673,750.455 z" id="boundary" inkscape:connector-curvature="0" />
	<path style="fill:none;stroke:red;stroke-width:1px;stroke-linecap:butt;stroke-linejoin:miter;stroke-opacity:1" d="M 848.673,750.455 881.413,750.455 z" id="boundary" inkscape:connector-curvature="0" />
	<path style="fill:none;stroke:red;stroke-width:1px;stroke-linecap:butt;stroke-linejoin:miter;stroke-opacity:1" d="M 881.413,750.455 914.152,750.455 z" id="boundary" inkscape:connector-curvature="0" />
	<path style="fill:none;stroke:red;stroke-width:1px;stroke-linecap:butt;stroke-linejoin:miter;stroke-opacity:1" d="M 914.152,750.455 946.891,750.455 z" id="boundary" inkscape:connector-curvature="0" />
	<path style="fill:none;stroke:red;stroke-width:1px;stroke-linecap:butt;stroke-linejoin:miter;stroke-opacity:1" d="M 946.891,750.455 979.63,750.455 z" id="boundary" inkscape:connector-curvature="0" />
	<path style="fill:none;stroke:red;stroke-width:1px;stroke-linecap:butt;stroke-linejoin:miter;stroke-opacity:1" d="M 979.63,750.455 996,779.921 z" id="boundary" inkscape:connector-curvature="0" />
	<circle cx="4" cy="763.551" r="4" fill="#0" id="circle0"/>
	<circle cx="4" cy="796.29" r="4" fill="#0" id="circle1"/>
	<circle cx="23.6436" cy="822.482" r="4" fill="#0" id="circle2"/>
	<circle cx="36.7393" cy="750.455" r="4" fill="#0" id="circle3"/>
	<circle cx="56.3828" cy="554.02" r="4" fill="#0" id="circle4"/>
	<circle cx="56.3828" cy="652.238" r="4" fill="#0" id="circle5"/>
	<circle cx="56.3828" cy="825.756" r="4" fill="#0" id="circle6"/>
	<circle cx="69.4785" cy="750.455" r="4" fill="#0" id="circle7"/>
	<circle cx="72.7525" cy="681.703" r="4" fill="#0" id="circle8"/>
	<circle cx="82.5743" cy="576.937" r="4" fill="#0" id="circle9"/>
	<circle cx="89.1221" cy="652.238" r="4" fill="#0" id="circle10"/>
	<circle cx="89.1221" cy="819.208" r="4" fill="#0" id="circle11"/>
	<circle cx="98.9439" cy="547.472" r="4" fill="#0" id="circle12"/>
	<circle cx="102.218" cy="750.455" r="4" fill="#0" id="circle13"/>
	<circle cx="105.492" cy="681.703" r="4" fill="#0" id="circle14"/>
	<circle cx="115.314" cy="17.0957" r="4" fill="#0" id="circle15"/>
	<circle cx="115.314" cy="49.835" r="4" fill="#0" id="circle16"/>
	<circle cx="115.314" cy="82.5743" r="4" fill="#0" id="circle17"/>
	<circle cx="115.314" cy="115.314" r="4" fill="#0" id="circle18"/>
	<circle cx="115.314" cy="148.053" r="4" fill="#0" id="circle19"/>
	<circle cx="115.314" cy="180.792" r="4" fill="#0" id="circle20"/>
	<circle cx="115.314" cy="213.531" r="4" fill="#0" id="circle21"/>
	<circle cx="115.314" cy="246.271" r="4" fill="#0" id="circle22"/>
	<circle cx="115.314" cy="279.01" r="4" fill="#0" id="circle23"/>
	<circle cx="115.314" cy="311.749" r="4" fill="#0" id="circle24"/>
	<circle cx="115.314" cy="344.488" r="4" fill="#0" id="circle25"/>
	<circle cx="115.314" cy="377.228" r="4" fill="#0" id="circle26"/>
	<circle cx="115.314" cy="409.967" r="4" fill="#0" id="circle27"/>
	<circle cx="115.314" cy="576.937" r="4" fill="#0" id="circle28"/>
	<circle cx="121.861" cy="652.238" r="4" fill="#0" id="circle29"/>
	<circle cx="121.861" cy="819.208" r="4" fill="#0" id="circle30"/>
	<circle cx="131.683" cy="439.432" r="4" fill="#0" id="circle31"/>
	<circle cx="131.683" cy="547.472" r="4" fill="#0" id="circle32"/>
	<circle cx="134.957" cy="750.455" r="4" fill="#0" id="circle33"/>
	<circle cx="138.231" cy="681.703" r="4" fill="#0" id="circle34"/>
	<circle cx="148.053" cy="4" r="4" fill="#0" id="circle35"/>
	<circle cx="148.053" cy="576.937" r="4" fill="#0" id="circle36"/>
	<circle cx="154.601" cy="652.238" r="4" fill="#0" id="circle37"/>
	<circle cx="154.601" cy="819.208" r="4" fill="#0" id="circle38"/>
	<circle cx="164.422" cy="439.432" r="4" fill="#0" id="circle39"/>
	<circle cx="164.422" cy="547.472" r="4" fill="#0" id="circle40"/>
	<circle cx="167.696" cy="750.455" r="4" fill="#0" id="circle41"/>
	<circle cx="170.97" cy="681.703" r="4" fill="#0" id="circle42"/>
	<circle cx="180.792" cy="4" r="4" fill="#0" id="circle43"/>
	<circle cx="180.792" cy="576.937" r="4" fill="#0" id="circle44"/>
	<circle cx="187.34" cy="652.238" r="4" fill="#0" id="circle45"/>
	<circle cx="187.34" cy="819.208" r="4" fill="#0" id="circle46"/>
	<circle cx="197.162" cy="439.432" r="4" fill="#0" id="circle47"/>
	<circle cx="197.162" cy="547.472" r="4" fill="#0" id="circle48"/>
	<circle cx="200.436" cy="750.455" r="4" fill="#0" id="circle49"/>
	<circle cx="203.71" cy="681.703" r="4" fill="#0" id="circle50"/>
	<circle cx="213.531" cy="4" r="4" fill="#0" id="circle51"/>
	<circle cx="213.531" cy="576.937" r="4" fill="#0" id="circle52"/>
	<circle cx="220.079" cy="652.238" r="4" fill="#0" id="circle53"/>
	<circle cx="220.079" cy="819.208" r="4" fill="#0" id="circle54"/>
	<circle cx="229.901" cy="439.432" r="4" fill="#0" id="circle55"/>
	<circle cx="229.901" cy="547.472" r="4" fill="#0" id="circle56"/>
	<circle cx="233.175" cy="750.455" r="4" fill="#0" id="circle57"/>
	<circle cx="236.449" cy="681.703" r="4" fill="#0" id="circle58"/>
	<circle cx="246.271" cy="4" r="4" fill="#0" id="circle59"/>
	<circle cx="246.271" cy="576.937" r="4" fill="#0" id="circle60"/>
	<circle cx="252.818" cy="652.238" r="4" fill="#0" id="circle61"/>
	<circle cx="252.818" cy="819.208" r="4" fill="#0" id="circle62"/>
	<circle cx="262.64" cy="439.432" r="4" fill="#0" id="circle63"/>
	<circle cx="262.64" cy="547.472" r="4" fill="#0" id="circle64"/>
	<circle cx="265.914" cy="750.455" r="4" fill="#0" id="circle65"/>
	<circle cx="269.188" cy="681.703" r="4" fill="#0" id="circle66"/>
	<circle cx="279.01" cy="4" r="4" fill="#0" id="circle67"/>
	<circle cx="279.01" cy="576.937" r="4" fill="#0" id="circle68"/>
	<circle cx="285.558" cy="652.238" r="4" fill="#0" id="circle69"/>
	<circle cx="285.558" cy="819.208" r="4" fill="#0" id="circle70"/>
	<circle cx="295.38" cy="439.432" r="4" fill="#0" id="circle71"/>
	<circle cx="295.38" cy="547.472" r="4" fill="#0" id="circle72"/>
	<circle cx="298.653" cy="750.455" r="4" fill="#0" id="circle73"/>
	<circle cx="301.927" cy="681.703" r="4" fill="#0" id="circle74"/>
	<circle cx="311.749" cy="4" r="4" fill="#0" id="circle75"/>
	<circle cx="311.749" cy="576.937" r="4" fill="#0" id="circle76"/>
	<circle cx="318.297" cy="652.238" r="4" fill="#0" id="circle77"/>
	<circle cx="318.297" cy="819.208" r="4" fill="#0" id="circle78"/>
	<circle cx="324.845" cy="770.099" r="4" fill="#0" id="circle79"/>
	<circle cx="328.119" cy="439.432" r="4" fill="#0" id="circle80"/>
	<circle cx="328.119" cy="547.472" r="4" fill="#0" id="circle81"/>
	<circle cx="334.667" cy="681.703" r="4" fill="#0" id="circle82"/>
	<circle cx="344.488" cy="4" r="4" fill="#0" id="circle83"/>
	<circle cx="344.488" cy="576.937" r="4" fill="#0" id="circle84"/>
	<circle cx="351.036" cy="652.238" r="4" fill="#0" id="circle85"/>
	<circle cx="351.036" cy="750.455" r="4" fill="#0" id="circle86"/>
	<circle cx="351.036" cy="819.208" r="4" fill="#0" id="circle87"/>
	<circle cx="360.858" cy="439.432" r="4" fill="#0" id="circle88"/>
	<circle cx="360.858" cy="547.472" r="4" fill="#0" id="circle89"/>
	<circle cx="367.406" cy="681.703" r="4" fill="#0" id="circle90"/>
	<circle cx="377.228" cy="4" r="4" fill="#0" id="circle91"/>
	<circle cx="377.228" cy="576.937" r="4" fill="#0" id="circle92"/>
	<circle cx="377.228" cy="770.099" r="4" fill="#0" id="circle93"/>
	<circle cx="383.776" cy="652.238" r="4" fill="#0" id="circle94"/>
	<circle cx="383.776" cy="819.208" r="4" fill="#0" id="circle95"/>
	<circle cx="393.597" cy="439.432" r="4" fill="#0" id="circle96"/>
	<circle cx="393.597" cy="547.472" r="4" fill="#0" id="circle97"/>
	<circle cx="400.145" cy="681.703" r="4" fill="#0" id="circle98"/>
	<circle cx="403.419" cy="750.455" r="4" fill="#0" id="circle99"/>
	<circle cx="409.967" cy="4" r="4" fill="#0" id="circle100"/>
	<circle cx="409.967" cy="576.937" r="4" fill="#0" id="circle101"/>
	<circle cx="416.515" cy="465.624" r="4" fill="#0" id="circle102"/>
	<circle cx="416.515" cy="498.363" r="4" fill="#0" id="circle103"/>
	<circle cx="416.515" cy="609.677" r="4" fill="#0" id="circle104"/>
	<circle cx="416.515" cy="642.416" r="4" fill="#0" id="circle105"/>
	<circle cx="416.515" cy="711.168" r="4" fill="#0" id="circle106"/>
	<circle cx="416.515" cy="819.208" r="4" fill="#0" id="circle107"/>
	<circle cx="442.706" cy="4" r="4" fill="#0" id="circle108"/>
	<circle cx="449.254" cy="819.208" r="4" fill="#0" id="circle109"/>
	<circle cx="475.446" cy="4" r="4" fill="#0" id="circle110"/>
	<circle cx="481.993" cy="819.208" r="4" fill="#0" id="circle111"/>
	<circle cx="508.185" cy="4" r="4" fill="#0" id="circle112"/>
	<circle cx="514.733" cy="819.208" r="4" fill="#0" id="circle113"/>
	<circle cx="540.924" cy="4" r="4" fill="#0" id="circle114"/>
	<circle cx="547.472" cy="819.208" r="4" fill="#0" id="circle115"/>
	<circle cx="573.663" cy="4" r="4" fill="#0" id="circle116"/>
	<circle cx="580.211" cy="819.208" r="4" fill="#0" id="circle117"/>
	<circle cx="606.403" cy="4" r="4" fill="#0" id="circle118"/>
	<circle cx="609.677" cy="442.706" r="4" fill="#0" id="circle119"/>
	<circle cx="609.677" cy="475.446" r="4" fill="#0" id="circle120"/>
	<circle cx="609.677" cy="508.185" r="4" fill="#0" id="circle121"/>
	<circle cx="609.677" cy="540.924" r="4" fill="#0" id="circle122"/>
	<circle cx="609.677" cy="580.211" r="4" fill="#0" id="circle123"/>
	<circle cx="609.677" cy="612.95" r="4" fill="#0" id="circle124"/>
	<circle cx="609.677" cy="645.69" r="4" fill="#0" id="circle125"/>
	<circle cx="609.677" cy="684.977" r="4" fill="#0" id="circle126"/>
	<circle cx="609.677" cy="717.716" r="4" fill="#0" id="circle127"/>
	<circle cx="612.95" cy="750.455" r="4" fill="#0" id="circle128"/>
	<circle cx="612.95" cy="819.208" r="4" fill="#0" id="circle129"/>
	<circle cx="639.142" cy="4" r="4" fill="#0" id="circle130"/>
	<circle cx="639.142" cy="770.099" r="4" fill="#0" id="circle131"/>
	<circle cx="642.416" cy="439.432" r="4" fill="#0" id="circle132"/>
	<circle cx="642.416" cy="547.472" r="4" fill="#0" id="circle133"/>
	<circle cx="642.416" cy="652.238" r="4" fill="#0" id="circle134"/>
	<circle cx="645.69" cy="819.208" r="4" fill="#0" id="circle135"/>
	<circle cx="658.785" cy="576.937" r="4" fill="#0" id="circle136"/>
	<circle cx="658.785" cy="681.703" r="4" fill="#0" id="circle137"/>
	<circle cx="665.333" cy="750.455" r="4" fill="#0" id="circle138"/>
	<circle cx="671.881" cy="4" r="4" fill="#0" id="circle139"/>
	<circle cx="675.155" cy="439.432" r="4" fill="#0" id="circle140"/>
	<circle cx="675.155" cy="547.472" r="4" fill="#0" id="circle141"/>
	<circle cx="675.155" cy="652.238" r="4" fill="#0" id="circle142"/>
	<circle cx="678.429" cy="819.208" r="4" fill="#0" id="circle143"/>
	<circle cx="691.525" cy="576.937" r="4" fill="#0" id="circle144"/>
	<circle cx="691.525" cy="681.703" r="4" fill="#0" id="circle145"/>
	<circle cx="691.525" cy="770.099" r="4" fill="#0" id="circle146"/>
	<circle cx="704.62" cy="4" r="4" fill="#0" id="circle147"/>
	<circle cx="707.894" cy="439.432" r="4" fill="#0" id="circle148"/>
	<circle cx="707.894" cy="547.472" r="4" fill="#0" id="circle149"/>
	<circle cx="707.894" cy="652.238" r="4" fill="#0" id="circle150"/>
	<circle cx="711.168" cy="819.208" r="4" fill="#0" id="circle151"/>
	<circle cx="717.716" cy="750.455" r="4" fill="#0" id="circle152"/>
	<circle cx="724.264" cy="576.937" r="4" fill="#0" id="circle153"/>
	<circle cx="724.264" cy="681.703" r="4" fill="#0" id="circle154"/>
	<circle cx="737.36" cy="4" r="4" fill="#0" id="circle155"/>
	<circle cx="740.634" cy="439.432" r="4" fill="#0" id="circle156"/>
	<circle cx="740.634" cy="547.472" r="4" fill="#0" id="circle157"/>
	<circle cx="740.634" cy="652.238" r="4" fill="#0" id="circle158"/>
	<circle cx="743.908" cy="819.208" r="4" fill="#0" id="circle159"/>
	<circle cx="750.455" cy="750.455" r="4" fill="#0" id="circle160"/>
	<circle cx="757.003" cy="576.937" r="4" fill="#0" id="circle161"/>
	<circle cx="757.003" cy="681.703" r="4" fill="#0" id="circle162"/>
	<circle cx="770.099" cy="4" r="4" fill="#0" id="circle163"/>
	<circle cx="773.373" cy="439.432" r="4" fill="#0" id="circle164"/>
	<circle cx="773.373" cy="547.472" r="4" fill="#0" id="circle165"/>
	<circle cx="773.373" cy="652.238" r="4" fill="#0" id="circle166"/>
	<circle cx="776.647" cy="819.208" r="4" fill="#0" id="circle167"/>
	<circle cx="783.195" cy="750.455" r="4" fill="#0" id="circle168"/>
	<circle cx="789.743" cy="576.937" r="4" fill="#0" id="circle169"/>
	<circle cx="789.743" cy="681.703" r="4" fill="#0" id="circle170"/>
	<circle cx="802.838" cy="4" r="4" fill="#0" id="circle171"/>
	<circle cx="806.112" cy="439.432" r="4" fill="#0" id="circle172"/>
	<circle cx="806.112" cy="547.472" r="4" fill="#0" id="circle173"/>
	<circle cx="806.112" cy="652.238" r="4" fill="#0" id="circle174"/>
	<circle cx="809.386" cy="819.208" r="4" fill="#0" id="circle175"/>
	<circle cx="815.934" cy="750.455" r="4" fill="#0" id="circle176"/>
	<circle cx="822.482" cy="576.937" r="4" fill="#0" id="circle177"/>
	<circle cx="822.482" cy="681.703" r="4" fill="#0" id="circle178"/>
	<circle cx="835.578" cy="4" r="4" fill="#0" id="circle179"/>
	<circle cx="838.851" cy="439.432" r="4" fill="#0" id="circle180"/>
	<circle cx="838.851" cy="547.472" r="4" fill="#0" id="circle181"/>
	<circle cx="838.851" cy="652.238" r="4" fill="#0" id="circle182"/>
	<circle cx="842.125" cy="819.208" r="4" fill="#0" id="circle183"/>
	<circle cx="848.673" cy="750.455" r="4" fill="#0" id="circle184"/>
	<circle cx="855.221" cy="576.937" r="4" fill="#0" id="circle185"/>
	<circle cx="855.221" cy="681.703" r="4" fill="#0" id="circle186"/>
	<circle cx="868.317" cy="4" r="4" fill="#0" id="circle187"/>
	<circle cx="871.591" cy="439.432" r="4" fill="#0" id="circle188"/>
	<circle cx="871.591" cy="547.472" r="4" fill="#0" id="circle189"/>
	<circle cx="871.591" cy="652.238" r="4" fill="#0" id="circle190"/>
	<circle cx="874.865" cy="819.208" r="4" fill="#0" id="circle191"/>
	<circle cx="881.413" cy="750.455" r="4" fill="#0" id="circle192"/>
	<circle cx="887.96" cy="576.937" r="4" fill="#0" id="circle193"/>
	<circle cx="887.96" cy="681.703" r="4" fill="#0" id="circle194"/>
	<circle cx="897.782" cy="20.3696" r="4" fill="#0" id="circle195"/>
	<circle cx="897.782" cy="53.1089" r="4" fill="#0" id="circle196"/>
	<circle cx="897.782" cy="85.8482" r="4" fill="#0" id="circle197"/>
	<circle cx="897.782" cy="118.587" r="4" fill="#0" id="circle198"/>
	<circle cx="897.782" cy="151.327" r="4" fill="#0" id="circle199"/>
	<circle cx="897.782" cy="184.066" r="4" fill="#0" id="circle200"/>
	<circle cx="897.782" cy="216.805" r="4" fill="#0" id="circle201"/>
	<circle cx="897.782" cy="249.545" r="4" fill="#0" id="circle202"/>
	<circle cx="897.782" cy="282.284" r="4" fill="#0" id="circle203"/>
	<circle cx="897.782" cy="315.023" r="4" fill="#0" id="circle204"/>
	<circle cx="897.782" cy="347.762" r="4" fill="#0" id="circle205"/>
	<circle cx="897.782" cy="380.502" r="4" fill="#0" id="circle206"/>
	<circle cx="897.782" cy="413.241" r="4" fill="#0" id="circle207"/>
	<circle cx="904.33" cy="547.472" r="4" fill="#0" id="circle208"/>
	<circle cx="904.33" cy="652.238" r="4" fill="#0" id="circle209"/>
	<circle cx="907.604" cy="829.03" r="4" fill="#0" id="circle210"/>
	<circle cx="914.152" cy="750.455" r="4" fill="#0" id="circle211"/>
	<circle cx="920.7" cy="576.937" r="4" fill="#0" id="circle212"/>
	<circle cx="930.521" cy="671.881" r="4" fill="#0" id="circle213"/>
	<circle cx="940.343" cy="822.482" r="4" fill="#0" id="circle214"/>
	<circle cx="946.891" cy="750.455" r="4" fill="#0" id="circle215"/>
	<circle cx="973.083" cy="825.756" r="4" fill="#0" id="circle216"/>
	<circle cx="979.63" cy="750.455" r="4" fill="#0" id="circle217"/>
	<circle cx="996" cy="779.921" r="4" fill="#0" id="circle218"/>
	</g>
</svg>