<?xml version="1.0" encoding="UTF-8" standalone="no"?>
<!-- Created with CurveBenchmark -->
<svg
	xmlns:dc="http://purl.org/dc/elements/1.1/"
	xmlns:cc="http://creativecommons.org/ns#"
	xmlns:rdf="http://www.w3.org/1999/02/22-rdf-syntax-ns#"
	xmlns:svg="http://www.w3.org/2000/svg"
	xmlns="http://www.w3.org/2000/svg"
	xmlns:sodipodi="http://sodipodi.sourceforge.net/DTD/sodipodi-0.dtd"
	xmlns:inkscape="http://www.inkscape.org/namespaces/inkscape"
	width="1000"
	height="1000"
	id="svg2"
	version="1.1"
	sodipodi:docname="manifold/connect2d-fish165.png.txt">
<defs
	id="defs4" />
<metadata
	id="metadata7">
	<rdf:RDF>
		<cc:Work
			rdf:about="">
			<dc:format>image/svg+xml</dc:format>
			<dc:type
				rdf:resource="http://purl.org/dc/dcmitype/StillImage" />
			<dc:title></dc:title>
		</cc:Work>
	</rdf:RDF>
</metadata>
<g
	inkscape:label="Layer 1"
	inkscape:groupmode="layer"
	id="layer1">
	<path style="fill:none;stroke:red;stroke-width:1px;stroke-linecap:butt;stroke-linejoin:miter;stroke-opacity:1" d="M 984.364,201.818 996,242.545 z" id="boundary" inkscape:connector-curvature="0" />
	<path style="fill:none;stroke:red;stroke-width:1px;stroke-linecap:butt;stroke-linejoin:miter;stroke-opacity:1" d="M 996,242.545 972.727,265.818 z" id="boundary" inkscape:connector-curvature="0" />
	<path style="fill:none;stroke:red;stroke-width:1px;stroke-linecap:butt;stroke-linejoin:miter;stroke-opacity:1" d="M 972.727,265.818 949.455,289.091 z" id="boundary" inkscape:connector-curvature="0" />
	<path style="fill:none;stroke:red;stroke-width:1px;stroke-linecap:butt;stroke-linejoin:miter;stroke-opacity:1" d="M 949.455,289.091 926.182,312.364 z" id="boundary" inkscape:connector-curvature="0" />
	<path style="fill:none;stroke:red;stroke-width:1px;stroke-linecap:butt;stroke-linejoin:miter;stroke-opacity:1" d="M 926.182,312.364 900,326.909 z" id="boundary" inkscape:connector-curvature="0" />
	<path style="fill:none;stroke:red;stroke-width:1px;stroke-linecap:butt;stroke-linejoin:miter;stroke-opacity:1" d="M 900,326.909 870.909,338.545 z" id="boundary" inkscape:connector-curvature="0" />
	<path style="fill:none;stroke:red;stroke-width:1px;stroke-linecap:butt;stroke-linejoin:miter;stroke-opacity:1" d="M 870.909,338.545 841.818,344.364 z" id="boundary" inkscape:connector-curvature="0" />
	<path style="fill:none;stroke:red;stroke-width:1px;stroke-linecap:butt;stroke-linejoin:miter;stroke-opacity:1" d="M 841.818,344.364 812.727,356 z" id="boundary" inkscape:connector-curvature="0" />
	<path style="fill:none;stroke:red;stroke-width:1px;stroke-linecap:butt;stroke-linejoin:miter;stroke-opacity:1" d="M 812.727,356 783.636,367.636 z" id="boundary" inkscape:connector-curvature="0" />
	<path style="fill:none;stroke:red;stroke-width:1px;stroke-linecap:butt;stroke-linejoin:miter;stroke-opacity:1" d="M 783.636,367.636 754.545,373.455 z" id="boundary" inkscape:connector-curvature="0" />
	<path style="fill:none;stroke:red;stroke-width:1px;stroke-linecap:butt;stroke-linejoin:miter;stroke-opacity:1" d="M 754.545,373.455 725.455,379.273 z" id="boundary" inkscape:connector-curvature="0" />
	<path style="fill:none;stroke:red;stroke-width:1px;stroke-linecap:butt;stroke-linejoin:miter;stroke-opacity:1" d="M 725.455,379.273 710.909,405.455 z" id="boundary" inkscape:connector-curvature="0" />
	<path style="fill:none;stroke:red;stroke-width:1px;stroke-linecap:butt;stroke-linejoin:miter;stroke-opacity:1" d="M 710.909,405.455 693.455,434.545 z" id="boundary" inkscape:connector-curvature="0" />
	<path style="fill:none;stroke:red;stroke-width:1px;stroke-linecap:butt;stroke-linejoin:miter;stroke-opacity:1" d="M 693.455,434.545 670.182,457.818 z" id="boundary" inkscape:connector-curvature="0" />
	<path style="fill:none;stroke:red;stroke-width:1px;stroke-linecap:butt;stroke-linejoin:miter;stroke-opacity:1" d="M 670.182,457.818 644,472.364 z" id="boundary" inkscape:connector-curvature="0" />
	<path style="fill:none;stroke:red;stroke-width:1px;stroke-linecap:butt;stroke-linejoin:miter;stroke-opacity:1" d="M 644,472.364 614.909,472.364 z" id="boundary" inkscape:connector-curvature="0" />
	<path style="fill:none;stroke:red;stroke-width:1px;stroke-linecap:butt;stroke-linejoin:miter;stroke-opacity:1" d="M 614.909,472.364 585.818,472.364 z" id="boundary" inkscape:connector-curvature="0" />
	<path style="fill:none;stroke:red;stroke-width:1px;stroke-linecap:butt;stroke-linejoin:miter;stroke-opacity:1" d="M 585.818,472.364 562.545,454.909 z" id="boundary" inkscape:connector-curvature="0" />
	<path style="fill:none;stroke:red;stroke-width:1px;stroke-linecap:butt;stroke-linejoin:miter;stroke-opacity:1" d="M 562.545,454.909 556.727,425.818 z" id="boundary" inkscape:connector-curvature="0" />
	<path style="fill:none;stroke:red;stroke-width:1px;stroke-linecap:butt;stroke-linejoin:miter;stroke-opacity:1" d="M 556.727,425.818 556.727,396.727 z" id="boundary" inkscape:connector-curvature="0" />
	<path style="fill:none;stroke:red;stroke-width:1px;stroke-linecap:butt;stroke-linejoin:miter;stroke-opacity:1" d="M 556.727,396.727 556.727,367.636 z" id="boundary" inkscape:connector-curvature="0" />
	<path style="fill:none;stroke:red;stroke-width:1px;stroke-linecap:butt;stroke-linejoin:miter;stroke-opacity:1" d="M 556.727,367.636 527.636,367.636 z" id="boundary" inkscape:connector-curvature="0" />
	<path style="fill:none;stroke:red;stroke-width:1px;stroke-linecap:butt;stroke-linejoin:miter;stroke-opacity:1" d="M 527.636,367.636 498.545,367.636 z" id="boundary" inkscape:connector-curvature="0" />
	<path style="fill:none;stroke:red;stroke-width:1px;stroke-linecap:butt;stroke-linejoin:miter;stroke-opacity:1" d="M 498.545,367.636 469.455,361.818 z" id="boundary" inkscape:connector-curvature="0" />
	<path style="fill:none;stroke:red;stroke-width:1px;stroke-linecap:butt;stroke-linejoin:miter;stroke-opacity:1" d="M 469.455,361.818 440.364,361.818 z" id="boundary" inkscape:connector-curvature="0" />
	<path style="fill:none;stroke:red;stroke-width:1px;stroke-linecap:butt;stroke-linejoin:miter;stroke-opacity:1" d="M 440.364,361.818 411.273,361.818 z" id="boundary" inkscape:connector-curvature="0" />
	<path style="fill:none;stroke:red;stroke-width:1px;stroke-linecap:butt;stroke-linejoin:miter;stroke-opacity:1" d="M 411.273,361.818 382.182,356 z" id="boundary" inkscape:connector-curvature="0" />
	<path style="fill:none;stroke:red;stroke-width:1px;stroke-linecap:butt;stroke-linejoin:miter;stroke-opacity:1" d="M 382.182,356 353.091,367.636 z" id="boundary" inkscape:connector-curvature="0" />
	<path style="fill:none;stroke:red;stroke-width:1px;stroke-linecap:butt;stroke-linejoin:miter;stroke-opacity:1" d="M 353.091,367.636 324,373.455 z" id="boundary" inkscape:connector-curvature="0" />
	<path style="fill:none;stroke:red;stroke-width:1px;stroke-linecap:butt;stroke-linejoin:miter;stroke-opacity:1" d="M 324,373.455 294.909,379.273 z" id="boundary" inkscape:connector-curvature="0" />
	<path style="fill:none;stroke:red;stroke-width:1px;stroke-linecap:butt;stroke-linejoin:miter;stroke-opacity:1" d="M 294.909,379.273 265.818,379.273 z" id="boundary" inkscape:connector-curvature="0" />
	<path style="fill:none;stroke:red;stroke-width:1px;stroke-linecap:butt;stroke-linejoin:miter;stroke-opacity:1" d="M 265.818,379.273 242.545,358.909 z" id="boundary" inkscape:connector-curvature="0" />
	<path style="fill:none;stroke:red;stroke-width:1px;stroke-linecap:butt;stroke-linejoin:miter;stroke-opacity:1" d="M 242.545,358.909 230.909,329.818 z" id="boundary" inkscape:connector-curvature="0" />
	<path style="fill:none;stroke:red;stroke-width:1px;stroke-linecap:butt;stroke-linejoin:miter;stroke-opacity:1" d="M 230.909,329.818 225.091,300.727 z" id="boundary" inkscape:connector-curvature="0" />
	<path style="fill:none;stroke:red;stroke-width:1px;stroke-linecap:butt;stroke-linejoin:miter;stroke-opacity:1" d="M 225.091,300.727 198.909,286.182 z" id="boundary" inkscape:connector-curvature="0" />
	<path style="fill:none;stroke:red;stroke-width:1px;stroke-linecap:butt;stroke-linejoin:miter;stroke-opacity:1" d="M 198.909,286.182 169.818,294.909 z" id="boundary" inkscape:connector-curvature="0" />
	<path style="fill:none;stroke:red;stroke-width:1px;stroke-linecap:butt;stroke-linejoin:miter;stroke-opacity:1" d="M 169.818,294.909 146.545,312.364 z" id="boundary" inkscape:connector-curvature="0" />
	<path style="fill:none;stroke:red;stroke-width:1px;stroke-linecap:butt;stroke-linejoin:miter;stroke-opacity:1" d="M 146.545,312.364 117.455,326.909 z" id="boundary" inkscape:connector-curvature="0" />
	<path style="fill:none;stroke:red;stroke-width:1px;stroke-linecap:butt;stroke-linejoin:miter;stroke-opacity:1" d="M 117.455,326.909 88.3636,338.545 z" id="boundary" inkscape:connector-curvature="0" />
	<path style="fill:none;stroke:red;stroke-width:1px;stroke-linecap:butt;stroke-linejoin:miter;stroke-opacity:1" d="M 88.3636,338.545 59.2727,350.182 z" id="boundary" inkscape:connector-curvature="0" />
	<path style="fill:none;stroke:red;stroke-width:1px;stroke-linecap:butt;stroke-linejoin:miter;stroke-opacity:1" d="M 59.2727,350.182 30.1818,350.182 z" id="boundary" inkscape:connector-curvature="0" />
	<path style="fill:none;stroke:red;stroke-width:1px;stroke-linecap:butt;stroke-linejoin:miter;stroke-opacity:1" d="M 30.1818,350.182 4,335.636 z" id="boundary" inkscape:connector-curvature="0" />
	<path style="fill:none;stroke:red;stroke-width:1px;stroke-linecap:butt;stroke-linejoin:miter;stroke-opacity:1" d="M 4,335.636 15.6364,300.727 z" id="boundary" inkscape:connector-curvature="0" />
	<path style="fill:none;stroke:red;stroke-width:1px;stroke-linecap:butt;stroke-linejoin:miter;stroke-opacity:1" d="M 15.6364,300.727 27.2727,254.182 z" id="boundary" inkscape:connector-curvature="0" />
	<path style="fill:none;stroke:red;stroke-width:1px;stroke-linecap:butt;stroke-linejoin:miter;stroke-opacity:1" d="M 27.2727,254.182 27.2727,225.091 z" id="boundary" inkscape:connector-curvature="0" />
	<path style="fill:none;stroke:red;stroke-width:1px;stroke-linecap:butt;stroke-linejoin:miter;stroke-opacity:1" d="M 27.2727,225.091 21.4545,196 z" id="boundary" inkscape:connector-curvature="0" />
	<path style="fill:none;stroke:red;stroke-width:1px;stroke-linecap:butt;stroke-linejoin:miter;stroke-opacity:1" d="M 21.4545,196 12.7273,166.909 z" id="boundary" inkscape:connector-curvature="0" />
	<path style="fill:none;stroke:red;stroke-width:1px;stroke-linecap:butt;stroke-linejoin:miter;stroke-opacity:1" d="M 12.7273,166.909 4,137.818 z" id="boundary" inkscape:connector-curvature="0" />
	<path style="fill:none;stroke:red;stroke-width:1px;stroke-linecap:butt;stroke-linejoin:miter;stroke-opacity:1" d="M 4,137.818 33.0909,126.182 z" id="boundary" inkscape:connector-curvature="0" />
	<path style="fill:none;stroke:red;stroke-width:1px;stroke-linecap:butt;stroke-linejoin:miter;stroke-opacity:1" d="M 33.0909,126.182 62.1818,132 z" id="boundary" inkscape:connector-curvature="0" />
	<path style="fill:none;stroke:red;stroke-width:1px;stroke-linecap:butt;stroke-linejoin:miter;stroke-opacity:1" d="M 62.1818,132 91.2727,143.636 z" id="boundary" inkscape:connector-curvature="0" />
	<path style="fill:none;stroke:red;stroke-width:1px;stroke-linecap:butt;stroke-linejoin:miter;stroke-opacity:1" d="M 91.2727,143.636 120.364,155.273 z" id="boundary" inkscape:connector-curvature="0" />
	<path style="fill:none;stroke:red;stroke-width:1px;stroke-linecap:butt;stroke-linejoin:miter;stroke-opacity:1" d="M 120.364,155.273 146.545,169.818 z" id="boundary" inkscape:connector-curvature="0" />
	<path style="fill:none;stroke:red;stroke-width:1px;stroke-linecap:butt;stroke-linejoin:miter;stroke-opacity:1" d="M 146.545,169.818 172.727,184.364 z" id="boundary" inkscape:connector-curvature="0" />
	<path style="fill:none;stroke:red;stroke-width:1px;stroke-linecap:butt;stroke-linejoin:miter;stroke-opacity:1" d="M 172.727,184.364 201.818,190.182 z" id="boundary" inkscape:connector-curvature="0" />
	<path style="fill:none;stroke:red;stroke-width:1px;stroke-linecap:butt;stroke-linejoin:miter;stroke-opacity:1" d="M 201.818,190.182 225.091,166.909 z" id="boundary" inkscape:connector-curvature="0" />
	<path style="fill:none;stroke:red;stroke-width:1px;stroke-linecap:butt;stroke-linejoin:miter;stroke-opacity:1" d="M 225.091,166.909 248.364,143.636 z" id="boundary" inkscape:connector-curvature="0" />
	<path style="fill:none;stroke:red;stroke-width:1px;stroke-linecap:butt;stroke-linejoin:miter;stroke-opacity:1" d="M 248.364,143.636 271.636,120.364 z" id="boundary" inkscape:connector-curvature="0" />
	<path style="fill:none;stroke:red;stroke-width:1px;stroke-linecap:butt;stroke-linejoin:miter;stroke-opacity:1" d="M 271.636,120.364 294.909,102.909 z" id="boundary" inkscape:connector-curvature="0" />
	<path style="fill:none;stroke:red;stroke-width:1px;stroke-linecap:butt;stroke-linejoin:miter;stroke-opacity:1" d="M 294.909,102.909 318.182,85.4545 z" id="boundary" inkscape:connector-curvature="0" />
	<path style="fill:none;stroke:red;stroke-width:1px;stroke-linecap:butt;stroke-linejoin:miter;stroke-opacity:1" d="M 318.182,85.4545 347.273,79.6364 z" id="boundary" inkscape:connector-curvature="0" />
	<path style="fill:none;stroke:red;stroke-width:1px;stroke-linecap:butt;stroke-linejoin:miter;stroke-opacity:1" d="M 347.273,79.6364 376.364,91.2727 z" id="boundary" inkscape:connector-curvature="0" />
	<path style="fill:none;stroke:red;stroke-width:1px;stroke-linecap:butt;stroke-linejoin:miter;stroke-opacity:1" d="M 376.364,91.2727 405.455,100 z" id="boundary" inkscape:connector-curvature="0" />
	<path style="fill:none;stroke:red;stroke-width:1px;stroke-linecap:butt;stroke-linejoin:miter;stroke-opacity:1" d="M 405.455,100 434.545,97.0909 z" id="boundary" inkscape:connector-curvature="0" />
	<path style="fill:none;stroke:red;stroke-width:1px;stroke-linecap:butt;stroke-linejoin:miter;stroke-opacity:1" d="M 434.545,97.0909 460.727,82.5455 z" id="boundary" inkscape:connector-curvature="0" />
	<path style="fill:none;stroke:red;stroke-width:1px;stroke-linecap:butt;stroke-linejoin:miter;stroke-opacity:1" d="M 460.727,82.5455 484,62.1818 z" id="boundary" inkscape:connector-curvature="0" />
	<path style="fill:none;stroke:red;stroke-width:1px;stroke-linecap:butt;stroke-linejoin:miter;stroke-opacity:1" d="M 484,62.1818 513.091,56.3636 z" id="boundary" inkscape:connector-curvature="0" />
	<path style="fill:none;stroke:red;stroke-width:1px;stroke-linecap:butt;stroke-linejoin:miter;stroke-opacity:1" d="M 513.091,56.3636 536.364,38.9091 z" id="boundary" inkscape:connector-curvature="0" />
	<path style="fill:none;stroke:red;stroke-width:1px;stroke-linecap:butt;stroke-linejoin:miter;stroke-opacity:1" d="M 536.364,38.9091 565.455,33.0909 z" id="boundary" inkscape:connector-curvature="0" />
	<path style="fill:none;stroke:red;stroke-width:1px;stroke-linecap:butt;stroke-linejoin:miter;stroke-opacity:1" d="M 565.455,33.0909 594.545,21.4545 z" id="boundary" inkscape:connector-curvature="0" />
	<path style="fill:none;stroke:red;stroke-width:1px;stroke-linecap:butt;stroke-linejoin:miter;stroke-opacity:1" d="M 594.545,21.4545 623.636,9.81818 z" id="boundary" inkscape:connector-curvature="0" />
	<path style="fill:none;stroke:red;stroke-width:1px;stroke-linecap:butt;stroke-linejoin:miter;stroke-opacity:1" d="M 623.636,9.81818 652.727,4 z" id="boundary" inkscape:connector-curvature="0" />
	<path style="fill:none;stroke:red;stroke-width:1px;stroke-linecap:butt;stroke-linejoin:miter;stroke-opacity:1" d="M 652.727,4 676,21.4545 z" id="boundary" inkscape:connector-curvature="0" />
	<path style="fill:none;stroke:red;stroke-width:1px;stroke-linecap:butt;stroke-linejoin:miter;stroke-opacity:1" d="M 676,21.4545 687.636,50.5455 z" id="boundary" inkscape:connector-curvature="0" />
	<path style="fill:none;stroke:red;stroke-width:1px;stroke-linecap:butt;stroke-linejoin:miter;stroke-opacity:1" d="M 687.636,50.5455 710.909,79.6364 z" id="boundary" inkscape:connector-curvature="0" />
	<path style="fill:none;stroke:red;stroke-width:1px;stroke-linecap:butt;stroke-linejoin:miter;stroke-opacity:1" d="M 710.909,79.6364 728.364,102.909 z" id="boundary" inkscape:connector-curvature="0" />
	<path style="fill:none;stroke:red;stroke-width:1px;stroke-linecap:butt;stroke-linejoin:miter;stroke-opacity:1" d="M 728.364,102.909 757.455,108.727 z" id="boundary" inkscape:connector-curvature="0" />
	<path style="fill:none;stroke:red;stroke-width:1px;stroke-linecap:butt;stroke-linejoin:miter;stroke-opacity:1" d="M 757.455,108.727 786.545,114.545 z" id="boundary" inkscape:connector-curvature="0" />
	<path style="fill:none;stroke:red;stroke-width:1px;stroke-linecap:butt;stroke-linejoin:miter;stroke-opacity:1" d="M 786.545,114.545 815.636,126.182 z" id="boundary" inkscape:connector-curvature="0" />
	<path style="fill:none;stroke:red;stroke-width:1px;stroke-linecap:butt;stroke-linejoin:miter;stroke-opacity:1" d="M 815.636,126.182 844.727,137.818 z" id="boundary" inkscape:connector-curvature="0" />
	<path style="fill:none;stroke:red;stroke-width:1px;stroke-linecap:butt;stroke-linejoin:miter;stroke-opacity:1" d="M 844.727,137.818 873.818,149.455 z" id="boundary" inkscape:connector-curvature="0" />
	<path style="fill:none;stroke:red;stroke-width:1px;stroke-linecap:butt;stroke-linejoin:miter;stroke-opacity:1" d="M 873.818,149.455 902.909,161.091 z" id="boundary" inkscape:connector-curvature="0" />
	<path style="fill:none;stroke:red;stroke-width:1px;stroke-linecap:butt;stroke-linejoin:miter;stroke-opacity:1" d="M 902.909,161.091 932,172.727 z" id="boundary" inkscape:connector-curvature="0" />
	<path style="fill:none;stroke:red;stroke-width:1px;stroke-linecap:butt;stroke-linejoin:miter;stroke-opacity:1" d="M 932,172.727 961.091,184.364 z" id="boundary" inkscape:connector-curvature="0" />
	<path style="fill:none;stroke:red;stroke-width:1px;stroke-linecap:butt;stroke-linejoin:miter;stroke-opacity:1" d="M 961.091,184.364 984.364,201.818 z" id="boundary" inkscape:connector-curvature="0" />
	<circle cx="4" cy="137.818" r="4" fill="#0" id="circle0"/>
	<circle cx="4" cy="335.636" r="4" fill="#0" id="circle1"/>
	<circle cx="12.7273" cy="166.909" r="4" fill="#0" id="circle2"/>
	<circle cx="15.6364" cy="300.727" r="4" fill="#0" id="circle3"/>
	<circle cx="21.4545" cy="196" r="4" fill="#0" id="circle4"/>
	<circle cx="27.2727" cy="225.091" r="4" fill="#0" id="circle5"/>
	<circle cx="27.2727" cy="254.182" r="4" fill="#0" id="circle6"/>
	<circle cx="30.1818" cy="350.182" r="4" fill="#0" id="circle7"/>
	<circle cx="33.0909" cy="126.182" r="4" fill="#0" id="circle8"/>
	<circle cx="59.2727" cy="350.182" r="4" fill="#0" id="circle9"/>
	<circle cx="62.1818" cy="132" r="4" fill="#0" id="circle10"/>
	<circle cx="88.3636" cy="338.545" r="4" fill="#0" id="circle11"/>
	<circle cx="91.2727" cy="143.636" r="4" fill="#0" id="circle12"/>
	<circle cx="117.455" cy="326.909" r="4" fill="#0" id="circle13"/>
	<circle cx="120.364" cy="155.273" r="4" fill="#0" id="circle14"/>
	<circle cx="146.545" cy="169.818" r="4" fill="#0" id="circle15"/>
	<circle cx="146.545" cy="312.364" r="4" fill="#0" id="circle16"/>
	<circle cx="169.818" cy="294.909" r="4" fill="#0" id="circle17"/>
	<circle cx="172.727" cy="184.364" r="4" fill="#0" id="circle18"/>
	<circle cx="198.909" cy="286.182" r="4" fill="#0" id="circle19"/>
	<circle cx="201.818" cy="190.182" r="4" fill="#0" id="circle20"/>
	<circle cx="225.091" cy="166.909" r="4" fill="#0" id="circle21"/>
	<circle cx="225.091" cy="300.727" r="4" fill="#0" id="circle22"/>
	<circle cx="230.909" cy="329.818" r="4" fill="#0" id="circle23"/>
	<circle cx="242.545" cy="358.909" r="4" fill="#0" id="circle24"/>
	<circle cx="248.364" cy="143.636" r="4" fill="#0" id="circle25"/>
	<circle cx="265.818" cy="379.273" r="4" fill="#0" id="circle26"/>
	<circle cx="271.636" cy="120.364" r="4" fill="#0" id="circle27"/>
	<circle cx="294.909" cy="102.909" r="4" fill="#0" id="circle28"/>
	<circle cx="294.909" cy="379.273" r="4" fill="#0" id="circle29"/>
	<circle cx="318.182" cy="85.4545" r="4" fill="#0" id="circle30"/>
	<circle cx="324" cy="373.455" r="4" fill="#0" id="circle31"/>
	<circle cx="347.273" cy="79.6364" r="4" fill="#0" id="circle32"/>
	<circle cx="353.091" cy="367.636" r="4" fill="#0" id="circle33"/>
	<circle cx="376.364" cy="91.2727" r="4" fill="#0" id="circle34"/>
	<circle cx="382.182" cy="356" r="4" fill="#0" id="circle35"/>
	<circle cx="405.455" cy="100" r="4" fill="#0" id="circle36"/>
	<circle cx="411.273" cy="361.818" r="4" fill="#0" id="circle37"/>
	<circle cx="434.545" cy="97.0909" r="4" fill="#0" id="circle38"/>
	<circle cx="440.364" cy="361.818" r="4" fill="#0" id="circle39"/>
	<circle cx="460.727" cy="82.5455" r="4" fill="#0" id="circle40"/>
	<circle cx="469.455" cy="361.818" r="4" fill="#0" id="circle41"/>
	<circle cx="484" cy="62.1818" r="4" fill="#0" id="circle42"/>
	<circle cx="498.545" cy="367.636" r="4" fill="#0" id="circle43"/>
	<circle cx="513.091" cy="56.3636" r="4" fill="#0" id="circle44"/>
	<circle cx="527.636" cy="367.636" r="4" fill="#0" id="circle45"/>
	<circle cx="536.364" cy="38.9091" r="4" fill="#0" id="circle46"/>
	<circle cx="556.727" cy="367.636" r="4" fill="#0" id="circle47"/>
	<circle cx="556.727" cy="396.727" r="4" fill="#0" id="circle48"/>
	<circle cx="556.727" cy="425.818" r="4" fill="#0" id="circle49"/>
	<circle cx="562.545" cy="454.909" r="4" fill="#0" id="circle50"/>
	<circle cx="565.455" cy="33.0909" r="4" fill="#0" id="circle51"/>
	<circle cx="585.818" cy="472.364" r="4" fill="#0" id="circle52"/>
	<circle cx="594.545" cy="21.4545" r="4" fill="#0" id="circle53"/>
	<circle cx="614.909" cy="472.364" r="4" fill="#0" id="circle54"/>
	<circle cx="623.636" cy="9.81818" r="4" fill="#0" id="circle55"/>
	<circle cx="644" cy="472.364" r="4" fill="#0" id="circle56"/>
	<circle cx="652.727" cy="4" r="4" fill="#0" id="circle57"/>
	<circle cx="670.182" cy="457.818" r="4" fill="#0" id="circle58"/>
	<circle cx="676" cy="21.4545" r="4" fill="#0" id="circle59"/>
	<circle cx="687.636" cy="50.5455" r="4" fill="#0" id="circle60"/>
	<circle cx="693.455" cy="434.545" r="4" fill="#0" id="circle61"/>
	<circle cx="710.909" cy="79.6364" r="4" fill="#0" id="circle62"/>
	<circle cx="710.909" cy="405.455" r="4" fill="#0" id="circle63"/>
	<circle cx="725.455" cy="379.273" r="4" fill="#0" id="circle64"/>
	<circle cx="728.364" cy="102.909" r="4" fill="#0" id="circle65"/>
	<circle cx="754.545" cy="373.455" r="4" fill="#0" id="circle66"/>
	<circle cx="757.455" cy="108.727" r="4" fill="#0" id="circle67"/>
	<circle cx="783.636" cy="367.636" r="4" fill="#0" id="circle68"/>
	<circle cx="786.545" cy="114.545" r="4" fill="#0" id="circle69"/>
	<circle cx="812.727" cy="356" r="4" fill="#0" id="circle70"/>
	<circle cx="815.636" cy="126.182" r="4" fill="#0" id="circle71"/>
	<circle cx="841.818" cy="344.364" r="4" fill="#0" id="circle72"/>
	<circle cx="844.727" cy="137.818" r="4" fill="#0" id="circle73"/>
	<circle cx="870.909" cy="338.545" r="4" fill="#0" id="circle74"/>
	<circle cx="873.818" cy="149.455" r="4" fill="#0" id="circle75"/>
	<circle cx="900" cy="326.909" r="4" fill="#0" id="circle76"/>
	<circle cx="902.909" cy="161.091" r="4" fill="#0" id="circle77"/>
	<circle cx="926.182" cy="312.364" r="4" fill="#0" id="circle78"/>
	<circle cx="932" cy="172.727" r="4" fill="#0" id="circle79"/>
	<circle cx="949.455" cy="289.091" r="4" fill="#0" id="circle80"/>
	<circle cx="961.091" cy="184.364" r="4" fill="#0" id="circle81"/>
	<circle cx="972.727" cy="265.818" r="4" fill="#0" id="circle82"/>
	<circle cx="984.364" cy="201.818" r="4" fill="#0" id="circle83"/>
	<circle cx="996" cy="242.545" r="4" fill="#0" id="circle84"/>
	</g>
</svg>