<?xml version="1.0" encoding="UTF-8" standalone="no"?>
<!-- Created with CurveBenchmark -->
<svg
	xmlns:dc="http://purl.org/dc/elements/1.1/"
	xmlns:cc="http://creativecommons.org/ns#"
	xmlns:rdf="http://www.w3.org/1999/02/22-rdf-syntax-ns#"
	xmlns:svg="http://www.w3.org/2000/svg"
	xmlns="http://www.w3.org/2000/svg"
	xmlns:sodipodi="http://sodipodi.sourceforge.net/DTD/sodipodi-0.dtd"
	xmlns:inkscape="http://www.inkscape.org/namespaces/inkscape"
	width="1000"
	height="1000"
	id="svg2"
	version="1.1"
	sodipodi:docname="manifold/connect2d-chopper18.png.txt">
<defs
	id="defs4" />
<metadata
	id="metadata7">
	<rdf:RDF>
		<cc:Work
			rdf:about="">
			<dc:format>image/svg+xml</dc:format>
			<dc:type
				rdf:resource="http://purl.org/dc/dcmitype/StillImage" />
			<dc:title></dc:title>
		</cc:Work>
	</rdf:RDF>
</metadata>
<g
	inkscape:label="Layer 1"
	inkscape:groupmode="layer"
	id="layer1">
	<path style="fill:none;stroke:red;stroke-width:1px;stroke-linecap:butt;stroke-linejoin:miter;stroke-opacity:1" d="M 962.04,173.802 978.126,182.739 z" id="boundary" inkscape:connector-curvature="0" />
	<path style="fill:none;stroke:red;stroke-width:1px;stroke-linecap:butt;stroke-linejoin:miter;stroke-opacity:1" d="M 978.126,182.739 996,186.314 z" id="boundary" inkscape:connector-curvature="0" />
	<path style="fill:none;stroke:red;stroke-width:1px;stroke-linecap:butt;stroke-linejoin:miter;stroke-opacity:1" d="M 996,186.314 992.425,209.55 z" id="boundary" inkscape:connector-curvature="0" />
	<path style="fill:none;stroke:red;stroke-width:1px;stroke-linecap:butt;stroke-linejoin:miter;stroke-opacity:1" d="M 992.425,209.55 983.488,227.423 z" id="boundary" inkscape:connector-curvature="0" />
	<path style="fill:none;stroke:red;stroke-width:1px;stroke-linecap:butt;stroke-linejoin:miter;stroke-opacity:1" d="M 983.488,227.423 965.614,227.423 z" id="boundary" inkscape:connector-curvature="0" />
	<path style="fill:none;stroke:red;stroke-width:1px;stroke-linecap:butt;stroke-linejoin:miter;stroke-opacity:1" d="M 965.614,227.423 947.741,229.211 z" id="boundary" inkscape:connector-curvature="0" />
	<path style="fill:none;stroke:red;stroke-width:1px;stroke-linecap:butt;stroke-linejoin:miter;stroke-opacity:1" d="M 947.741,229.211 931.654,238.148 z" id="boundary" inkscape:connector-curvature="0" />
	<path style="fill:none;stroke:red;stroke-width:1px;stroke-linecap:butt;stroke-linejoin:miter;stroke-opacity:1" d="M 931.654,238.148 913.78,238.148 z" id="boundary" inkscape:connector-curvature="0" />
	<path style="fill:none;stroke:red;stroke-width:1px;stroke-linecap:butt;stroke-linejoin:miter;stroke-opacity:1" d="M 913.78,238.148 897.694,247.085 z" id="boundary" inkscape:connector-curvature="0" />
	<path style="fill:none;stroke:red;stroke-width:1px;stroke-linecap:butt;stroke-linejoin:miter;stroke-opacity:1" d="M 897.694,247.085 879.82,250.659 z" id="boundary" inkscape:connector-curvature="0" />
	<path style="fill:none;stroke:red;stroke-width:1px;stroke-linecap:butt;stroke-linejoin:miter;stroke-opacity:1" d="M 879.82,250.659 861.946,259.596 z" id="boundary" inkscape:connector-curvature="0" />
	<path style="fill:none;stroke:red;stroke-width:1px;stroke-linecap:butt;stroke-linejoin:miter;stroke-opacity:1" d="M 861.946,259.596 844.072,268.533 z" id="boundary" inkscape:connector-curvature="0" />
	<path style="fill:none;stroke:red;stroke-width:1px;stroke-linecap:butt;stroke-linejoin:miter;stroke-opacity:1" d="M 844.072,268.533 826.198,273.895 z" id="boundary" inkscape:connector-curvature="0" />
	<path style="fill:none;stroke:red;stroke-width:1px;stroke-linecap:butt;stroke-linejoin:miter;stroke-opacity:1" d="M 826.198,273.895 808.324,273.895 z" id="boundary" inkscape:connector-curvature="0" />
	<path style="fill:none;stroke:red;stroke-width:1px;stroke-linecap:butt;stroke-linejoin:miter;stroke-opacity:1" d="M 808.324,273.895 792.238,282.832 z" id="boundary" inkscape:connector-curvature="0" />
	<path style="fill:none;stroke:red;stroke-width:1px;stroke-linecap:butt;stroke-linejoin:miter;stroke-opacity:1" d="M 792.238,282.832 774.364,282.832 z" id="boundary" inkscape:connector-curvature="0" />
	<path style="fill:none;stroke:red;stroke-width:1px;stroke-linecap:butt;stroke-linejoin:miter;stroke-opacity:1" d="M 774.364,282.832 756.49,291.769 z" id="boundary" inkscape:connector-curvature="0" />
	<path style="fill:none;stroke:red;stroke-width:1px;stroke-linecap:butt;stroke-linejoin:miter;stroke-opacity:1" d="M 756.49,291.769 738.616,300.706 z" id="boundary" inkscape:connector-curvature="0" />
	<path style="fill:none;stroke:red;stroke-width:1px;stroke-linecap:butt;stroke-linejoin:miter;stroke-opacity:1" d="M 738.616,300.706 720.742,300.706 z" id="boundary" inkscape:connector-curvature="0" />
	<path style="fill:none;stroke:red;stroke-width:1px;stroke-linecap:butt;stroke-linejoin:miter;stroke-opacity:1" d="M 720.742,300.706 704.656,309.643 z" id="boundary" inkscape:connector-curvature="0" />
	<path style="fill:none;stroke:red;stroke-width:1px;stroke-linecap:butt;stroke-linejoin:miter;stroke-opacity:1" d="M 704.656,309.643 688.569,318.58 z" id="boundary" inkscape:connector-curvature="0" />
	<path style="fill:none;stroke:red;stroke-width:1px;stroke-linecap:butt;stroke-linejoin:miter;stroke-opacity:1" d="M 688.569,318.58 670.695,318.58 z" id="boundary" inkscape:connector-curvature="0" />
	<path style="fill:none;stroke:red;stroke-width:1px;stroke-linecap:butt;stroke-linejoin:miter;stroke-opacity:1" d="M 670.695,318.58 656.396,331.092 z" id="boundary" inkscape:connector-curvature="0" />
	<path style="fill:none;stroke:red;stroke-width:1px;stroke-linecap:butt;stroke-linejoin:miter;stroke-opacity:1" d="M 656.396,331.092 638.523,336.454 z" id="boundary" inkscape:connector-curvature="0" />
	<path style="fill:none;stroke:red;stroke-width:1px;stroke-linecap:butt;stroke-linejoin:miter;stroke-opacity:1" d="M 638.523,336.454 622.436,345.391 z" id="boundary" inkscape:connector-curvature="0" />
	<path style="fill:none;stroke:red;stroke-width:1px;stroke-linecap:butt;stroke-linejoin:miter;stroke-opacity:1" d="M 622.436,345.391 604.562,345.391 z" id="boundary" inkscape:connector-curvature="0" />
	<path style="fill:none;stroke:red;stroke-width:1px;stroke-linecap:butt;stroke-linejoin:miter;stroke-opacity:1" d="M 604.562,345.391 613.499,361.477 z" id="boundary" inkscape:connector-curvature="0" />
	<path style="fill:none;stroke:red;stroke-width:1px;stroke-linecap:butt;stroke-linejoin:miter;stroke-opacity:1" d="M 613.499,361.477 631.373,366.84 z" id="boundary" inkscape:connector-curvature="0" />
	<path style="fill:none;stroke:red;stroke-width:1px;stroke-linecap:butt;stroke-linejoin:miter;stroke-opacity:1" d="M 631.373,366.84 640.31,382.926 z" id="boundary" inkscape:connector-curvature="0" />
	<path style="fill:none;stroke:red;stroke-width:1px;stroke-linecap:butt;stroke-linejoin:miter;stroke-opacity:1" d="M 640.31,382.926 636.735,413.312 z" id="boundary" inkscape:connector-curvature="0" />
	<path style="fill:none;stroke:red;stroke-width:1px;stroke-linecap:butt;stroke-linejoin:miter;stroke-opacity:1" d="M 636.735,413.312 618.861,422.249 z" id="boundary" inkscape:connector-curvature="0" />
	<path style="fill:none;stroke:red;stroke-width:1px;stroke-linecap:butt;stroke-linejoin:miter;stroke-opacity:1" d="M 618.861,422.249 600.987,422.249 z" id="boundary" inkscape:connector-curvature="0" />
	<path style="fill:none;stroke:red;stroke-width:1px;stroke-linecap:butt;stroke-linejoin:miter;stroke-opacity:1" d="M 600.987,422.249 583.114,425.823 z" id="boundary" inkscape:connector-curvature="0" />
	<path style="fill:none;stroke:red;stroke-width:1px;stroke-linecap:butt;stroke-linejoin:miter;stroke-opacity:1" d="M 583.114,425.823 565.24,425.823 z" id="boundary" inkscape:connector-curvature="0" />
	<path style="fill:none;stroke:red;stroke-width:1px;stroke-linecap:butt;stroke-linejoin:miter;stroke-opacity:1" d="M 565.24,425.823 547.366,425.823 z" id="boundary" inkscape:connector-curvature="0" />
	<path style="fill:none;stroke:red;stroke-width:1px;stroke-linecap:butt;stroke-linejoin:miter;stroke-opacity:1" d="M 547.366,425.823 529.492,425.823 z" id="boundary" inkscape:connector-curvature="0" />
	<path style="fill:none;stroke:red;stroke-width:1px;stroke-linecap:butt;stroke-linejoin:miter;stroke-opacity:1" d="M 529.492,425.823 513.405,434.76 z" id="boundary" inkscape:connector-curvature="0" />
	<path style="fill:none;stroke:red;stroke-width:1px;stroke-linecap:butt;stroke-linejoin:miter;stroke-opacity:1" d="M 513.405,434.76 495.532,438.335 z" id="boundary" inkscape:connector-curvature="0" />
	<path style="fill:none;stroke:red;stroke-width:1px;stroke-linecap:butt;stroke-linejoin:miter;stroke-opacity:1" d="M 495.532,438.335 477.658,434.76 z" id="boundary" inkscape:connector-curvature="0" />
	<path style="fill:none;stroke:red;stroke-width:1px;stroke-linecap:butt;stroke-linejoin:miter;stroke-opacity:1" d="M 477.658,434.76 461.571,443.697 z" id="boundary" inkscape:connector-curvature="0" />
	<path style="fill:none;stroke:red;stroke-width:1px;stroke-linecap:butt;stroke-linejoin:miter;stroke-opacity:1" d="M 461.571,443.697 461.571,461.571 z" id="boundary" inkscape:connector-curvature="0" />
	<path style="fill:none;stroke:red;stroke-width:1px;stroke-linecap:butt;stroke-linejoin:miter;stroke-opacity:1" d="M 461.571,461.571 452.634,488.382 z" id="boundary" inkscape:connector-curvature="0" />
	<path style="fill:none;stroke:red;stroke-width:1px;stroke-linecap:butt;stroke-linejoin:miter;stroke-opacity:1" d="M 452.634,488.382 436.548,497.319 z" id="boundary" inkscape:connector-curvature="0" />
	<path style="fill:none;stroke:red;stroke-width:1px;stroke-linecap:butt;stroke-linejoin:miter;stroke-opacity:1" d="M 436.548,497.319 418.674,497.319 z" id="boundary" inkscape:connector-curvature="0" />
	<path style="fill:none;stroke:red;stroke-width:1px;stroke-linecap:butt;stroke-linejoin:miter;stroke-opacity:1" d="M 418.674,497.319 402.587,506.256 z" id="boundary" inkscape:connector-curvature="0" />
	<path style="fill:none;stroke:red;stroke-width:1px;stroke-linecap:butt;stroke-linejoin:miter;stroke-opacity:1" d="M 402.587,506.256 384.714,506.256 z" id="boundary" inkscape:connector-curvature="0" />
	<path style="fill:none;stroke:red;stroke-width:1px;stroke-linecap:butt;stroke-linejoin:miter;stroke-opacity:1" d="M 384.714,506.256 366.84,506.256 z" id="boundary" inkscape:connector-curvature="0" />
	<path style="fill:none;stroke:red;stroke-width:1px;stroke-linecap:butt;stroke-linejoin:miter;stroke-opacity:1" d="M 366.84,506.256 348.966,506.256 z" id="boundary" inkscape:connector-curvature="0" />
	<path style="fill:none;stroke:red;stroke-width:1px;stroke-linecap:butt;stroke-linejoin:miter;stroke-opacity:1" d="M 348.966,506.256 331.092,513.405 z" id="boundary" inkscape:connector-curvature="0" />
	<path style="fill:none;stroke:red;stroke-width:1px;stroke-linecap:butt;stroke-linejoin:miter;stroke-opacity:1" d="M 331.092,513.405 313.218,515.193 z" id="boundary" inkscape:connector-curvature="0" />
	<path style="fill:none;stroke:red;stroke-width:1px;stroke-linecap:butt;stroke-linejoin:miter;stroke-opacity:1" d="M 313.218,515.193 295.344,522.342 z" id="boundary" inkscape:connector-curvature="0" />
	<path style="fill:none;stroke:red;stroke-width:1px;stroke-linecap:butt;stroke-linejoin:miter;stroke-opacity:1" d="M 295.344,522.342 277.47,522.342 z" id="boundary" inkscape:connector-curvature="0" />
	<path style="fill:none;stroke:red;stroke-width:1px;stroke-linecap:butt;stroke-linejoin:miter;stroke-opacity:1" d="M 277.47,522.342 259.596,515.193 z" id="boundary" inkscape:connector-curvature="0" />
	<path style="fill:none;stroke:red;stroke-width:1px;stroke-linecap:butt;stroke-linejoin:miter;stroke-opacity:1" d="M 259.596,515.193 241.723,515.193 z" id="boundary" inkscape:connector-curvature="0" />
	<path style="fill:none;stroke:red;stroke-width:1px;stroke-linecap:butt;stroke-linejoin:miter;stroke-opacity:1" d="M 241.723,515.193 223.849,522.342 z" id="boundary" inkscape:connector-curvature="0" />
	<path style="fill:none;stroke:red;stroke-width:1px;stroke-linecap:butt;stroke-linejoin:miter;stroke-opacity:1" d="M 223.849,522.342 205.975,524.13 z" id="boundary" inkscape:connector-curvature="0" />
	<path style="fill:none;stroke:red;stroke-width:1px;stroke-linecap:butt;stroke-linejoin:miter;stroke-opacity:1" d="M 205.975,524.13 189.888,533.067 z" id="boundary" inkscape:connector-curvature="0" />
	<path style="fill:none;stroke:red;stroke-width:1px;stroke-linecap:butt;stroke-linejoin:miter;stroke-opacity:1" d="M 189.888,533.067 172.014,533.067 z" id="boundary" inkscape:connector-curvature="0" />
	<path style="fill:none;stroke:red;stroke-width:1px;stroke-linecap:butt;stroke-linejoin:miter;stroke-opacity:1" d="M 172.014,533.067 155.928,542.004 z" id="boundary" inkscape:connector-curvature="0" />
	<path style="fill:none;stroke:red;stroke-width:1px;stroke-linecap:butt;stroke-linejoin:miter;stroke-opacity:1" d="M 155.928,542.004 138.054,542.004 z" id="boundary" inkscape:connector-curvature="0" />
	<path style="fill:none;stroke:red;stroke-width:1px;stroke-linecap:butt;stroke-linejoin:miter;stroke-opacity:1" d="M 138.054,542.004 120.18,542.004 z" id="boundary" inkscape:connector-curvature="0" />
	<path style="fill:none;stroke:red;stroke-width:1px;stroke-linecap:butt;stroke-linejoin:miter;stroke-opacity:1" d="M 120.18,542.004 102.306,542.004 z" id="boundary" inkscape:connector-curvature="0" />
	<path style="fill:none;stroke:red;stroke-width:1px;stroke-linecap:butt;stroke-linejoin:miter;stroke-opacity:1" d="M 102.306,542.004 84.4324,542.004 z" id="boundary" inkscape:connector-curvature="0" />
	<path style="fill:none;stroke:red;stroke-width:1px;stroke-linecap:butt;stroke-linejoin:miter;stroke-opacity:1" d="M 84.4324,542.004 66.5586,534.854 z" id="boundary" inkscape:connector-curvature="0" />
	<path style="fill:none;stroke:red;stroke-width:1px;stroke-linecap:butt;stroke-linejoin:miter;stroke-opacity:1" d="M 66.5586,534.854 57.6216,518.768 z" id="boundary" inkscape:connector-curvature="0" />
	<path style="fill:none;stroke:red;stroke-width:1px;stroke-linecap:butt;stroke-linejoin:miter;stroke-opacity:1" d="M 57.6216,518.768 75.4955,518.768 z" id="boundary" inkscape:connector-curvature="0" />
	<path style="fill:none;stroke:red;stroke-width:1px;stroke-linecap:butt;stroke-linejoin:miter;stroke-opacity:1" d="M 75.4955,518.768 93.3694,513.405 z" id="boundary" inkscape:connector-curvature="0" />
	<path style="fill:none;stroke:red;stroke-width:1px;stroke-linecap:butt;stroke-linejoin:miter;stroke-opacity:1" d="M 93.3694,513.405 111.243,513.405 z" id="boundary" inkscape:connector-curvature="0" />
	<path style="fill:none;stroke:red;stroke-width:1px;stroke-linecap:butt;stroke-linejoin:miter;stroke-opacity:1" d="M 111.243,513.405 129.117,513.405 z" id="boundary" inkscape:connector-curvature="0" />
	<path style="fill:none;stroke:red;stroke-width:1px;stroke-linecap:butt;stroke-linejoin:miter;stroke-opacity:1" d="M 129.117,513.405 145.204,522.342 z" id="boundary" inkscape:connector-curvature="0" />
	<path style="fill:none;stroke:red;stroke-width:1px;stroke-linecap:butt;stroke-linejoin:miter;stroke-opacity:1" d="M 145.204,522.342 152.353,504.468 z" id="boundary" inkscape:connector-curvature="0" />
	<path style="fill:none;stroke:red;stroke-width:1px;stroke-linecap:butt;stroke-linejoin:miter;stroke-opacity:1" d="M 152.353,504.468 170.227,495.532 z" id="boundary" inkscape:connector-curvature="0" />
	<path style="fill:none;stroke:red;stroke-width:1px;stroke-linecap:butt;stroke-linejoin:miter;stroke-opacity:1" d="M 170.227,495.532 188.101,486.595 z" id="boundary" inkscape:connector-curvature="0" />
	<path style="fill:none;stroke:red;stroke-width:1px;stroke-linecap:butt;stroke-linejoin:miter;stroke-opacity:1" d="M 188.101,486.595 205.975,486.595 z" id="boundary" inkscape:connector-curvature="0" />
	<path style="fill:none;stroke:red;stroke-width:1px;stroke-linecap:butt;stroke-linejoin:miter;stroke-opacity:1" d="M 205.975,486.595 214.912,461.571 z" id="boundary" inkscape:connector-curvature="0" />
	<path style="fill:none;stroke:red;stroke-width:1px;stroke-linecap:butt;stroke-linejoin:miter;stroke-opacity:1" d="M 214.912,461.571 197.038,461.571 z" id="boundary" inkscape:connector-curvature="0" />
	<path style="fill:none;stroke:red;stroke-width:1px;stroke-linecap:butt;stroke-linejoin:miter;stroke-opacity:1" d="M 197.038,461.571 179.164,461.571 z" id="boundary" inkscape:connector-curvature="0" />
	<path style="fill:none;stroke:red;stroke-width:1px;stroke-linecap:butt;stroke-linejoin:miter;stroke-opacity:1" d="M 179.164,461.571 161.29,461.571 z" id="boundary" inkscape:connector-curvature="0" />
	<path style="fill:none;stroke:red;stroke-width:1px;stroke-linecap:butt;stroke-linejoin:miter;stroke-opacity:1" d="M 161.29,461.571 143.416,461.571 z" id="boundary" inkscape:connector-curvature="0" />
	<path style="fill:none;stroke:red;stroke-width:1px;stroke-linecap:butt;stroke-linejoin:miter;stroke-opacity:1" d="M 143.416,461.571 125.542,459.784 z" id="boundary" inkscape:connector-curvature="0" />
	<path style="fill:none;stroke:red;stroke-width:1px;stroke-linecap:butt;stroke-linejoin:miter;stroke-opacity:1" d="M 125.542,459.784 107.668,452.634 z" id="boundary" inkscape:connector-curvature="0" />
	<path style="fill:none;stroke:red;stroke-width:1px;stroke-linecap:butt;stroke-linejoin:miter;stroke-opacity:1" d="M 107.668,452.634 89.7946,452.634 z" id="boundary" inkscape:connector-curvature="0" />
	<path style="fill:none;stroke:red;stroke-width:1px;stroke-linecap:butt;stroke-linejoin:miter;stroke-opacity:1" d="M 89.7946,452.634 71.9207,452.634 z" id="boundary" inkscape:connector-curvature="0" />
	<path style="fill:none;stroke:red;stroke-width:1px;stroke-linecap:butt;stroke-linejoin:miter;stroke-opacity:1" d="M 71.9207,452.634 55.8342,443.697 z" id="boundary" inkscape:connector-curvature="0" />
	<path style="fill:none;stroke:red;stroke-width:1px;stroke-linecap:butt;stroke-linejoin:miter;stroke-opacity:1" d="M 55.8342,443.697 39.7477,434.76 z" id="boundary" inkscape:connector-curvature="0" />
	<path style="fill:none;stroke:red;stroke-width:1px;stroke-linecap:butt;stroke-linejoin:miter;stroke-opacity:1" d="M 39.7477,434.76 25.4486,424.036 z" id="boundary" inkscape:connector-curvature="0" />
	<path style="fill:none;stroke:red;stroke-width:1px;stroke-linecap:butt;stroke-linejoin:miter;stroke-opacity:1" d="M 25.4486,424.036 12.9369,409.737 z" id="boundary" inkscape:connector-curvature="0" />
	<path style="fill:none;stroke:red;stroke-width:1px;stroke-linecap:butt;stroke-linejoin:miter;stroke-opacity:1" d="M 12.9369,409.737 4,393.65 z" id="boundary" inkscape:connector-curvature="0" />
	<path style="fill:none;stroke:red;stroke-width:1px;stroke-linecap:butt;stroke-linejoin:miter;stroke-opacity:1" d="M 4,393.65 4,375.777 z" id="boundary" inkscape:connector-curvature="0" />
	<path style="fill:none;stroke:red;stroke-width:1px;stroke-linecap:butt;stroke-linejoin:miter;stroke-opacity:1" d="M 4,375.777 4,357.903 z" id="boundary" inkscape:connector-curvature="0" />
	<path style="fill:none;stroke:red;stroke-width:1px;stroke-linecap:butt;stroke-linejoin:miter;stroke-opacity:1" d="M 4,357.903 4,340.029 z" id="boundary" inkscape:connector-curvature="0" />
	<path style="fill:none;stroke:red;stroke-width:1px;stroke-linecap:butt;stroke-linejoin:miter;stroke-opacity:1" d="M 4,340.029 4,322.155 z" id="boundary" inkscape:connector-curvature="0" />
	<path style="fill:none;stroke:red;stroke-width:1px;stroke-linecap:butt;stroke-linejoin:miter;stroke-opacity:1" d="M 4,322.155 12.9369,295.344 z" id="boundary" inkscape:connector-curvature="0" />
	<path style="fill:none;stroke:red;stroke-width:1px;stroke-linecap:butt;stroke-linejoin:miter;stroke-opacity:1" d="M 12.9369,295.344 21.8739,277.47 z" id="boundary" inkscape:connector-curvature="0" />
	<path style="fill:none;stroke:red;stroke-width:1px;stroke-linecap:butt;stroke-linejoin:miter;stroke-opacity:1" d="M 21.8739,277.47 39.7477,259.596 z" id="boundary" inkscape:connector-curvature="0" />
	<path style="fill:none;stroke:red;stroke-width:1px;stroke-linecap:butt;stroke-linejoin:miter;stroke-opacity:1" d="M 39.7477,259.596 54.0468,245.297 z" id="boundary" inkscape:connector-curvature="0" />
	<path style="fill:none;stroke:red;stroke-width:1px;stroke-linecap:butt;stroke-linejoin:miter;stroke-opacity:1" d="M 54.0468,245.297 68.3459,230.998 z" id="boundary" inkscape:connector-curvature="0" />
	<path style="fill:none;stroke:red;stroke-width:1px;stroke-linecap:butt;stroke-linejoin:miter;stroke-opacity:1" d="M 68.3459,230.998 82.645,218.486 z" id="boundary" inkscape:connector-curvature="0" />
	<path style="fill:none;stroke:red;stroke-width:1px;stroke-linecap:butt;stroke-linejoin:miter;stroke-opacity:1" d="M 82.645,218.486 95.1568,204.187 z" id="boundary" inkscape:connector-curvature="0" />
	<path style="fill:none;stroke:red;stroke-width:1px;stroke-linecap:butt;stroke-linejoin:miter;stroke-opacity:1" d="M 95.1568,204.187 111.243,188.101 z" id="boundary" inkscape:connector-curvature="0" />
	<path style="fill:none;stroke:red;stroke-width:1px;stroke-linecap:butt;stroke-linejoin:miter;stroke-opacity:1" d="M 111.243,188.101 129.117,182.739 z" id="boundary" inkscape:connector-curvature="0" />
	<path style="fill:none;stroke:red;stroke-width:1px;stroke-linecap:butt;stroke-linejoin:miter;stroke-opacity:1" d="M 129.117,182.739 139.841,168.44 z" id="boundary" inkscape:connector-curvature="0" />
	<path style="fill:none;stroke:red;stroke-width:1px;stroke-linecap:butt;stroke-linejoin:miter;stroke-opacity:1" d="M 139.841,168.44 157.715,164.865 z" id="boundary" inkscape:connector-curvature="0" />
	<path style="fill:none;stroke:red;stroke-width:1px;stroke-linecap:butt;stroke-linejoin:miter;stroke-opacity:1" d="M 157.715,164.865 173.802,155.928 z" id="boundary" inkscape:connector-curvature="0" />
	<path style="fill:none;stroke:red;stroke-width:1px;stroke-linecap:butt;stroke-linejoin:miter;stroke-opacity:1" d="M 173.802,155.928 189.888,146.991 z" id="boundary" inkscape:connector-curvature="0" />
	<path style="fill:none;stroke:red;stroke-width:1px;stroke-linecap:butt;stroke-linejoin:miter;stroke-opacity:1" d="M 189.888,146.991 205.975,138.054 z" id="boundary" inkscape:connector-curvature="0" />
	<path style="fill:none;stroke:red;stroke-width:1px;stroke-linecap:butt;stroke-linejoin:miter;stroke-opacity:1" d="M 205.975,138.054 223.849,129.117 z" id="boundary" inkscape:connector-curvature="0" />
	<path style="fill:none;stroke:red;stroke-width:1px;stroke-linecap:butt;stroke-linejoin:miter;stroke-opacity:1" d="M 223.849,129.117 239.935,120.18 z" id="boundary" inkscape:connector-curvature="0" />
	<path style="fill:none;stroke:red;stroke-width:1px;stroke-linecap:butt;stroke-linejoin:miter;stroke-opacity:1" d="M 239.935,120.18 257.809,120.18 z" id="boundary" inkscape:connector-curvature="0" />
	<path style="fill:none;stroke:red;stroke-width:1px;stroke-linecap:butt;stroke-linejoin:miter;stroke-opacity:1" d="M 257.809,120.18 275.683,120.18 z" id="boundary" inkscape:connector-curvature="0" />
	<path style="fill:none;stroke:red;stroke-width:1px;stroke-linecap:butt;stroke-linejoin:miter;stroke-opacity:1" d="M 275.683,120.18 293.557,120.18 z" id="boundary" inkscape:connector-curvature="0" />
	<path style="fill:none;stroke:red;stroke-width:1px;stroke-linecap:butt;stroke-linejoin:miter;stroke-opacity:1" d="M 293.557,120.18 311.431,120.18 z" id="boundary" inkscape:connector-curvature="0" />
	<path style="fill:none;stroke:red;stroke-width:1px;stroke-linecap:butt;stroke-linejoin:miter;stroke-opacity:1" d="M 311.431,120.18 329.305,120.18 z" id="boundary" inkscape:connector-curvature="0" />
	<path style="fill:none;stroke:red;stroke-width:1px;stroke-linecap:butt;stroke-linejoin:miter;stroke-opacity:1" d="M 329.305,120.18 347.178,120.18 z" id="boundary" inkscape:connector-curvature="0" />
	<path style="fill:none;stroke:red;stroke-width:1px;stroke-linecap:butt;stroke-linejoin:miter;stroke-opacity:1" d="M 347.178,120.18 365.052,120.18 z" id="boundary" inkscape:connector-curvature="0" />
	<path style="fill:none;stroke:red;stroke-width:1px;stroke-linecap:butt;stroke-linejoin:miter;stroke-opacity:1" d="M 365.052,120.18 361.477,100.519 z" id="boundary" inkscape:connector-curvature="0" />
	<path style="fill:none;stroke:red;stroke-width:1px;stroke-linecap:butt;stroke-linejoin:miter;stroke-opacity:1" d="M 361.477,100.519 361.477,82.645 z" id="boundary" inkscape:connector-curvature="0" />
	<path style="fill:none;stroke:red;stroke-width:1px;stroke-linecap:butt;stroke-linejoin:miter;stroke-opacity:1" d="M 361.477,82.645 361.477,64.7712 z" id="boundary" inkscape:connector-curvature="0" />
	<path style="fill:none;stroke:red;stroke-width:1px;stroke-linecap:butt;stroke-linejoin:miter;stroke-opacity:1" d="M 361.477,64.7712 350.753,50.4721 z" id="boundary" inkscape:connector-curvature="0" />
	<path style="fill:none;stroke:red;stroke-width:1px;stroke-linecap:butt;stroke-linejoin:miter;stroke-opacity:1" d="M 350.753,50.4721 334.667,41.5351 z" id="boundary" inkscape:connector-curvature="0" />
	<path style="fill:none;stroke:red;stroke-width:1px;stroke-linecap:butt;stroke-linejoin:miter;stroke-opacity:1" d="M 334.667,41.5351 316.793,34.3856 z" id="boundary" inkscape:connector-curvature="0" />
	<path style="fill:none;stroke:red;stroke-width:1px;stroke-linecap:butt;stroke-linejoin:miter;stroke-opacity:1" d="M 316.793,34.3856 307.856,18.2991 z" id="boundary" inkscape:connector-curvature="0" />
	<path style="fill:none;stroke:red;stroke-width:1px;stroke-linecap:butt;stroke-linejoin:miter;stroke-opacity:1" d="M 307.856,18.2991 325.73,9.36216 z" id="boundary" inkscape:connector-curvature="0" />
	<path style="fill:none;stroke:red;stroke-width:1px;stroke-linecap:butt;stroke-linejoin:miter;stroke-opacity:1" d="M 325.73,9.36216 343.604,4 z" id="boundary" inkscape:connector-curvature="0" />
	<path style="fill:none;stroke:red;stroke-width:1px;stroke-linecap:butt;stroke-linejoin:miter;stroke-opacity:1" d="M 343.604,4 361.477,4 z" id="boundary" inkscape:connector-curvature="0" />
	<path style="fill:none;stroke:red;stroke-width:1px;stroke-linecap:butt;stroke-linejoin:miter;stroke-opacity:1" d="M 361.477,4 379.351,4 z" id="boundary" inkscape:connector-curvature="0" />
	<path style="fill:none;stroke:red;stroke-width:1px;stroke-linecap:butt;stroke-linejoin:miter;stroke-opacity:1" d="M 379.351,4 397.225,4 z" id="boundary" inkscape:connector-curvature="0" />
	<path style="fill:none;stroke:red;stroke-width:1px;stroke-linecap:butt;stroke-linejoin:miter;stroke-opacity:1" d="M 397.225,4 415.099,7.57477 z" id="boundary" inkscape:connector-curvature="0" />
	<path style="fill:none;stroke:red;stroke-width:1px;stroke-linecap:butt;stroke-linejoin:miter;stroke-opacity:1" d="M 415.099,7.57477 431.186,16.5117 z" id="boundary" inkscape:connector-curvature="0" />
	<path style="fill:none;stroke:red;stroke-width:1px;stroke-linecap:butt;stroke-linejoin:miter;stroke-opacity:1" d="M 431.186,16.5117 425.823,41.5351 z" id="boundary" inkscape:connector-curvature="0" />
	<path style="fill:none;stroke:red;stroke-width:1px;stroke-linecap:butt;stroke-linejoin:miter;stroke-opacity:1" d="M 425.823,41.5351 407.95,41.5351 z" id="boundary" inkscape:connector-curvature="0" />
	<path style="fill:none;stroke:red;stroke-width:1px;stroke-linecap:butt;stroke-linejoin:miter;stroke-opacity:1" d="M 407.95,41.5351 416.886,57.6216 z" id="boundary" inkscape:connector-curvature="0" />
	<path style="fill:none;stroke:red;stroke-width:1px;stroke-linecap:butt;stroke-linejoin:miter;stroke-opacity:1" d="M 416.886,57.6216 416.886,86.2198 z" id="boundary" inkscape:connector-curvature="0" />
	<path style="fill:none;stroke:red;stroke-width:1px;stroke-linecap:butt;stroke-linejoin:miter;stroke-opacity:1" d="M 416.886,86.2198 425.823,102.306 z" id="boundary" inkscape:connector-curvature="0" />
	<path style="fill:none;stroke:red;stroke-width:1px;stroke-linecap:butt;stroke-linejoin:miter;stroke-opacity:1" d="M 425.823,102.306 425.823,120.18 z" id="boundary" inkscape:connector-curvature="0" />
	<path style="fill:none;stroke:red;stroke-width:1px;stroke-linecap:butt;stroke-linejoin:miter;stroke-opacity:1" d="M 425.823,120.18 440.123,130.905 z" id="boundary" inkscape:connector-curvature="0" />
	<path style="fill:none;stroke:red;stroke-width:1px;stroke-linecap:butt;stroke-linejoin:miter;stroke-opacity:1" d="M 440.123,130.905 456.209,120.18 z" id="boundary" inkscape:connector-curvature="0" />
	<path style="fill:none;stroke:red;stroke-width:1px;stroke-linecap:butt;stroke-linejoin:miter;stroke-opacity:1" d="M 456.209,120.18 472.295,111.243 z" id="boundary" inkscape:connector-curvature="0" />
	<path style="fill:none;stroke:red;stroke-width:1px;stroke-linecap:butt;stroke-linejoin:miter;stroke-opacity:1" d="M 472.295,111.243 490.169,111.243 z" id="boundary" inkscape:connector-curvature="0" />
	<path style="fill:none;stroke:red;stroke-width:1px;stroke-linecap:butt;stroke-linejoin:miter;stroke-opacity:1" d="M 490.169,111.243 508.043,111.243 z" id="boundary" inkscape:connector-curvature="0" />
	<path style="fill:none;stroke:red;stroke-width:1px;stroke-linecap:butt;stroke-linejoin:miter;stroke-opacity:1" d="M 508.043,111.243 525.917,111.243 z" id="boundary" inkscape:connector-curvature="0" />
	<path style="fill:none;stroke:red;stroke-width:1px;stroke-linecap:butt;stroke-linejoin:miter;stroke-opacity:1" d="M 525.917,111.243 543.791,113.031 z" id="boundary" inkscape:connector-curvature="0" />
	<path style="fill:none;stroke:red;stroke-width:1px;stroke-linecap:butt;stroke-linejoin:miter;stroke-opacity:1" d="M 543.791,113.031 561.665,120.18 z" id="boundary" inkscape:connector-curvature="0" />
	<path style="fill:none;stroke:red;stroke-width:1px;stroke-linecap:butt;stroke-linejoin:miter;stroke-opacity:1" d="M 561.665,120.18 579.539,120.18 z" id="boundary" inkscape:connector-curvature="0" />
	<path style="fill:none;stroke:red;stroke-width:1px;stroke-linecap:butt;stroke-linejoin:miter;stroke-opacity:1" d="M 579.539,120.18 597.413,120.18 z" id="boundary" inkscape:connector-curvature="0" />
	<path style="fill:none;stroke:red;stroke-width:1px;stroke-linecap:butt;stroke-linejoin:miter;stroke-opacity:1" d="M 597.413,120.18 613.499,129.117 z" id="boundary" inkscape:connector-curvature="0" />
	<path style="fill:none;stroke:red;stroke-width:1px;stroke-linecap:butt;stroke-linejoin:miter;stroke-opacity:1" d="M 613.499,129.117 631.373,129.117 z" id="boundary" inkscape:connector-curvature="0" />
	<path style="fill:none;stroke:red;stroke-width:1px;stroke-linecap:butt;stroke-linejoin:miter;stroke-opacity:1" d="M 631.373,129.117 649.247,129.117 z" id="boundary" inkscape:connector-curvature="0" />
	<path style="fill:none;stroke:red;stroke-width:1px;stroke-linecap:butt;stroke-linejoin:miter;stroke-opacity:1" d="M 649.247,129.117 667.121,134.479 z" id="boundary" inkscape:connector-curvature="0" />
	<path style="fill:none;stroke:red;stroke-width:1px;stroke-linecap:butt;stroke-linejoin:miter;stroke-opacity:1" d="M 667.121,134.479 667.121,152.353 z" id="boundary" inkscape:connector-curvature="0" />
	<path style="fill:none;stroke:red;stroke-width:1px;stroke-linecap:butt;stroke-linejoin:miter;stroke-opacity:1" d="M 667.121,152.353 656.396,170.227 z" id="boundary" inkscape:connector-curvature="0" />
	<path style="fill:none;stroke:red;stroke-width:1px;stroke-linecap:butt;stroke-linejoin:miter;stroke-opacity:1" d="M 656.396,170.227 638.523,175.589 z" id="boundary" inkscape:connector-curvature="0" />
	<path style="fill:none;stroke:red;stroke-width:1px;stroke-linecap:butt;stroke-linejoin:miter;stroke-opacity:1" d="M 638.523,175.589 622.436,184.526 z" id="boundary" inkscape:connector-curvature="0" />
	<path style="fill:none;stroke:red;stroke-width:1px;stroke-linecap:butt;stroke-linejoin:miter;stroke-opacity:1" d="M 622.436,184.526 604.562,184.526 z" id="boundary" inkscape:connector-curvature="0" />
	<path style="fill:none;stroke:red;stroke-width:1px;stroke-linecap:butt;stroke-linejoin:miter;stroke-opacity:1" d="M 604.562,184.526 586.688,184.526 z" id="boundary" inkscape:connector-curvature="0" />
	<path style="fill:none;stroke:red;stroke-width:1px;stroke-linecap:butt;stroke-linejoin:miter;stroke-opacity:1" d="M 586.688,184.526 595.625,200.613 z" id="boundary" inkscape:connector-curvature="0" />
	<path style="fill:none;stroke:red;stroke-width:1px;stroke-linecap:butt;stroke-linejoin:miter;stroke-opacity:1" d="M 595.625,200.613 613.499,205.975 z" id="boundary" inkscape:connector-curvature="0" />
	<path style="fill:none;stroke:red;stroke-width:1px;stroke-linecap:butt;stroke-linejoin:miter;stroke-opacity:1" d="M 613.499,205.975 627.798,218.486 z" id="boundary" inkscape:connector-curvature="0" />
	<path style="fill:none;stroke:red;stroke-width:1px;stroke-linecap:butt;stroke-linejoin:miter;stroke-opacity:1" d="M 627.798,218.486 645.672,218.486 z" id="boundary" inkscape:connector-curvature="0" />
	<path style="fill:none;stroke:red;stroke-width:1px;stroke-linecap:butt;stroke-linejoin:miter;stroke-opacity:1" d="M 645.672,218.486 663.546,218.486 z" id="boundary" inkscape:connector-curvature="0" />
	<path style="fill:none;stroke:red;stroke-width:1px;stroke-linecap:butt;stroke-linejoin:miter;stroke-opacity:1" d="M 663.546,218.486 679.632,209.55 z" id="boundary" inkscape:connector-curvature="0" />
	<path style="fill:none;stroke:red;stroke-width:1px;stroke-linecap:butt;stroke-linejoin:miter;stroke-opacity:1" d="M 679.632,209.55 697.506,209.55 z" id="boundary" inkscape:connector-curvature="0" />
	<path style="fill:none;stroke:red;stroke-width:1px;stroke-linecap:butt;stroke-linejoin:miter;stroke-opacity:1" d="M 697.506,209.55 715.38,209.55 z" id="boundary" inkscape:connector-curvature="0" />
	<path style="fill:none;stroke:red;stroke-width:1px;stroke-linecap:butt;stroke-linejoin:miter;stroke-opacity:1" d="M 715.38,209.55 733.254,209.55 z" id="boundary" inkscape:connector-curvature="0" />
	<path style="fill:none;stroke:red;stroke-width:1px;stroke-linecap:butt;stroke-linejoin:miter;stroke-opacity:1" d="M 733.254,209.55 749.341,200.613 z" id="boundary" inkscape:connector-curvature="0" />
	<path style="fill:none;stroke:red;stroke-width:1px;stroke-linecap:butt;stroke-linejoin:miter;stroke-opacity:1" d="M 749.341,200.613 767.214,200.613 z" id="boundary" inkscape:connector-curvature="0" />
	<path style="fill:none;stroke:red;stroke-width:1px;stroke-linecap:butt;stroke-linejoin:miter;stroke-opacity:1" d="M 767.214,200.613 785.088,200.613 z" id="boundary" inkscape:connector-curvature="0" />
	<path style="fill:none;stroke:red;stroke-width:1px;stroke-linecap:butt;stroke-linejoin:miter;stroke-opacity:1" d="M 785.088,200.613 802.962,200.613 z" id="boundary" inkscape:connector-curvature="0" />
	<path style="fill:none;stroke:red;stroke-width:1px;stroke-linecap:butt;stroke-linejoin:miter;stroke-opacity:1" d="M 802.962,200.613 820.836,193.463 z" id="boundary" inkscape:connector-curvature="0" />
	<path style="fill:none;stroke:red;stroke-width:1px;stroke-linecap:butt;stroke-linejoin:miter;stroke-opacity:1" d="M 820.836,193.463 838.71,193.463 z" id="boundary" inkscape:connector-curvature="0" />
	<path style="fill:none;stroke:red;stroke-width:1px;stroke-linecap:butt;stroke-linejoin:miter;stroke-opacity:1" d="M 838.71,193.463 856.584,191.676 z" id="boundary" inkscape:connector-curvature="0" />
	<path style="fill:none;stroke:red;stroke-width:1px;stroke-linecap:butt;stroke-linejoin:miter;stroke-opacity:1" d="M 856.584,191.676 872.67,182.739 z" id="boundary" inkscape:connector-curvature="0" />
	<path style="fill:none;stroke:red;stroke-width:1px;stroke-linecap:butt;stroke-linejoin:miter;stroke-opacity:1" d="M 872.67,182.739 890.544,177.377 z" id="boundary" inkscape:connector-curvature="0" />
	<path style="fill:none;stroke:red;stroke-width:1px;stroke-linecap:butt;stroke-linejoin:miter;stroke-opacity:1" d="M 890.544,177.377 908.418,173.802 z" id="boundary" inkscape:connector-curvature="0" />
	<path style="fill:none;stroke:red;stroke-width:1px;stroke-linecap:butt;stroke-linejoin:miter;stroke-opacity:1" d="M 908.418,173.802 926.292,173.802 z" id="boundary" inkscape:connector-curvature="0" />
	<path style="fill:none;stroke:red;stroke-width:1px;stroke-linecap:butt;stroke-linejoin:miter;stroke-opacity:1" d="M 926.292,173.802 944.166,173.802 z" id="boundary" inkscape:connector-curvature="0" />
	<path style="fill:none;stroke:red;stroke-width:1px;stroke-linecap:butt;stroke-linejoin:miter;stroke-opacity:1" d="M 944.166,173.802 962.04,173.802 z" id="boundary" inkscape:connector-curvature="0" />
	<circle cx="4" cy="322.155" r="4" fill="#0" id="circle0"/>
	<circle cx="4" cy="340.029" r="4" fill="#0" id="circle1"/>
	<circle cx="4" cy="357.903" r="4" fill="#0" id="circle2"/>
	<circle cx="4" cy="375.777" r="4" fill="#0" id="circle3"/>
	<circle cx="4" cy="393.65" r="4" fill="#0" id="circle4"/>
	<circle cx="12.9369" cy="295.344" r="4" fill="#0" id="circle5"/>
	<circle cx="12.9369" cy="409.737" r="4" fill="#0" id="circle6"/>
	<circle cx="21.8739" cy="277.47" r="4" fill="#0" id="circle7"/>
	<circle cx="25.4486" cy="424.036" r="4" fill="#0" id="circle8"/>
	<circle cx="39.7477" cy="259.596" r="4" fill="#0" id="circle9"/>
	<circle cx="39.7477" cy="434.76" r="4" fill="#0" id="circle10"/>
	<circle cx="54.0468" cy="245.297" r="4" fill="#0" id="circle11"/>
	<circle cx="55.8342" cy="443.697" r="4" fill="#0" id="circle12"/>
	<circle cx="57.6216" cy="518.768" r="4" fill="#0" id="circle13"/>
	<circle cx="66.5586" cy="534.854" r="4" fill="#0" id="circle14"/>
	<circle cx="68.3459" cy="230.998" r="4" fill="#0" id="circle15"/>
	<circle cx="71.9207" cy="452.634" r="4" fill="#0" id="circle16"/>
	<circle cx="75.4955" cy="518.768" r="4" fill="#0" id="circle17"/>
	<circle cx="82.645" cy="218.486" r="4" fill="#0" id="circle18"/>
	<circle cx="84.4324" cy="542.004" r="4" fill="#0" id="circle19"/>
	<circle cx="89.7946" cy="452.634" r="4" fill="#0" id="circle20"/>
	<circle cx="93.3694" cy="513.405" r="4" fill="#0" id="circle21"/>
	<circle cx="95.1568" cy="204.187" r="4" fill="#0" id="circle22"/>
	<circle cx="102.306" cy="542.004" r="4" fill="#0" id="circle23"/>
	<circle cx="107.668" cy="452.634" r="4" fill="#0" id="circle24"/>
	<circle cx="111.243" cy="188.101" r="4" fill="#0" id="circle25"/>
	<circle cx="111.243" cy="513.405" r="4" fill="#0" id="circle26"/>
	<circle cx="120.18" cy="542.004" r="4" fill="#0" id="circle27"/>
	<circle cx="125.542" cy="459.784" r="4" fill="#0" id="circle28"/>
	<circle cx="129.117" cy="182.739" r="4" fill="#0" id="circle29"/>
	<circle cx="129.117" cy="513.405" r="4" fill="#0" id="circle30"/>
	<circle cx="138.054" cy="542.004" r="4" fill="#0" id="circle31"/>
	<circle cx="139.841" cy="168.44" r="4" fill="#0" id="circle32"/>
	<circle cx="143.416" cy="461.571" r="4" fill="#0" id="circle33"/>
	<circle cx="145.204" cy="522.342" r="4" fill="#0" id="circle34"/>
	<circle cx="152.353" cy="504.468" r="4" fill="#0" id="circle35"/>
	<circle cx="155.928" cy="542.004" r="4" fill="#0" id="circle36"/>
	<circle cx="157.715" cy="164.865" r="4" fill="#0" id="circle37"/>
	<circle cx="161.29" cy="461.571" r="4" fill="#0" id="circle38"/>
	<circle cx="170.227" cy="495.532" r="4" fill="#0" id="circle39"/>
	<circle cx="172.014" cy="533.067" r="4" fill="#0" id="circle40"/>
	<circle cx="173.802" cy="155.928" r="4" fill="#0" id="circle41"/>
	<circle cx="179.164" cy="461.571" r="4" fill="#0" id="circle42"/>
	<circle cx="188.101" cy="486.595" r="4" fill="#0" id="circle43"/>
	<circle cx="189.888" cy="146.991" r="4" fill="#0" id="circle44"/>
	<circle cx="189.888" cy="533.067" r="4" fill="#0" id="circle45"/>
	<circle cx="197.038" cy="461.571" r="4" fill="#0" id="circle46"/>
	<circle cx="205.975" cy="138.054" r="4" fill="#0" id="circle47"/>
	<circle cx="205.975" cy="486.595" r="4" fill="#0" id="circle48"/>
	<circle cx="205.975" cy="524.13" r="4" fill="#0" id="circle49"/>
	<circle cx="214.912" cy="461.571" r="4" fill="#0" id="circle50"/>
	<circle cx="223.849" cy="129.117" r="4" fill="#0" id="circle51"/>
	<circle cx="223.849" cy="522.342" r="4" fill="#0" id="circle52"/>
	<circle cx="239.935" cy="120.18" r="4" fill="#0" id="circle53"/>
	<circle cx="241.723" cy="515.193" r="4" fill="#0" id="circle54"/>
	<circle cx="257.809" cy="120.18" r="4" fill="#0" id="circle55"/>
	<circle cx="259.596" cy="515.193" r="4" fill="#0" id="circle56"/>
	<circle cx="275.683" cy="120.18" r="4" fill="#0" id="circle57"/>
	<circle cx="277.47" cy="522.342" r="4" fill="#0" id="circle58"/>
	<circle cx="293.557" cy="120.18" r="4" fill="#0" id="circle59"/>
	<circle cx="295.344" cy="522.342" r="4" fill="#0" id="circle60"/>
	<circle cx="307.856" cy="18.2991" r="4" fill="#0" id="circle61"/>
	<circle cx="311.431" cy="120.18" r="4" fill="#0" id="circle62"/>
	<circle cx="313.218" cy="515.193" r="4" fill="#0" id="circle63"/>
	<circle cx="316.793" cy="34.3856" r="4" fill="#0" id="circle64"/>
	<circle cx="325.73" cy="9.36216" r="4" fill="#0" id="circle65"/>
	<circle cx="329.305" cy="120.18" r="4" fill="#0" id="circle66"/>
	<circle cx="331.092" cy="513.405" r="4" fill="#0" id="circle67"/>
	<circle cx="334.667" cy="41.5351" r="4" fill="#0" id="circle68"/>
	<circle cx="343.604" cy="4" r="4" fill="#0" id="circle69"/>
	<circle cx="347.178" cy="120.18" r="4" fill="#0" id="circle70"/>
	<circle cx="348.966" cy="506.256" r="4" fill="#0" id="circle71"/>
	<circle cx="350.753" cy="50.4721" r="4" fill="#0" id="circle72"/>
	<circle cx="361.477" cy="4" r="4" fill="#0" id="circle73"/>
	<circle cx="361.477" cy="64.7712" r="4" fill="#0" id="circle74"/>
	<circle cx="361.477" cy="82.645" r="4" fill="#0" id="circle75"/>
	<circle cx="361.477" cy="100.519" r="4" fill="#0" id="circle76"/>
	<circle cx="365.052" cy="120.18" r="4" fill="#0" id="circle77"/>
	<circle cx="366.84" cy="506.256" r="4" fill="#0" id="circle78"/>
	<circle cx="379.351" cy="4" r="4" fill="#0" id="circle79"/>
	<circle cx="384.714" cy="506.256" r="4" fill="#0" id="circle80"/>
	<circle cx="397.225" cy="4" r="4" fill="#0" id="circle81"/>
	<circle cx="402.587" cy="506.256" r="4" fill="#0" id="circle82"/>
	<circle cx="407.95" cy="41.5351" r="4" fill="#0" id="circle83"/>
	<circle cx="415.099" cy="7.57477" r="4" fill="#0" id="circle84"/>
	<circle cx="416.886" cy="57.6216" r="4" fill="#0" id="circle85"/>
	<circle cx="416.886" cy="86.2198" r="4" fill="#0" id="circle86"/>
	<circle cx="418.674" cy="497.319" r="4" fill="#0" id="circle87"/>
	<circle cx="425.823" cy="41.5351" r="4" fill="#0" id="circle88"/>
	<circle cx="425.823" cy="102.306" r="4" fill="#0" id="circle89"/>
	<circle cx="425.823" cy="120.18" r="4" fill="#0" id="circle90"/>
	<circle cx="431.186" cy="16.5117" r="4" fill="#0" id="circle91"/>
	<circle cx="436.548" cy="497.319" r="4" fill="#0" id="circle92"/>
	<circle cx="440.123" cy="130.905" r="4" fill="#0" id="circle93"/>
	<circle cx="452.634" cy="488.382" r="4" fill="#0" id="circle94"/>
	<circle cx="456.209" cy="120.18" r="4" fill="#0" id="circle95"/>
	<circle cx="461.571" cy="443.697" r="4" fill="#0" id="circle96"/>
	<circle cx="461.571" cy="461.571" r="4" fill="#0" id="circle97"/>
	<circle cx="472.295" cy="111.243" r="4" fill="#0" id="circle98"/>
	<circle cx="477.658" cy="434.76" r="4" fill="#0" id="circle99"/>
	<circle cx="490.169" cy="111.243" r="4" fill="#0" id="circle100"/>
	<circle cx="495.532" cy="438.335" r="4" fill="#0" id="circle101"/>
	<circle cx="508.043" cy="111.243" r="4" fill="#0" id="circle102"/>
	<circle cx="513.405" cy="434.76" r="4" fill="#0" id="circle103"/>
	<circle cx="525.917" cy="111.243" r="4" fill="#0" id="circle104"/>
	<circle cx="529.492" cy="425.823" r="4" fill="#0" id="circle105"/>
	<circle cx="543.791" cy="113.031" r="4" fill="#0" id="circle106"/>
	<circle cx="547.366" cy="425.823" r="4" fill="#0" id="circle107"/>
	<circle cx="561.665" cy="120.18" r="4" fill="#0" id="circle108"/>
	<circle cx="565.24" cy="425.823" r="4" fill="#0" id="circle109"/>
	<circle cx="579.539" cy="120.18" r="4" fill="#0" id="circle110"/>
	<circle cx="583.114" cy="425.823" r="4" fill="#0" id="circle111"/>
	<circle cx="586.688" cy="184.526" r="4" fill="#0" id="circle112"/>
	<circle cx="595.625" cy="200.613" r="4" fill="#0" id="circle113"/>
	<circle cx="597.413" cy="120.18" r="4" fill="#0" id="circle114"/>
	<circle cx="600.987" cy="422.249" r="4" fill="#0" id="circle115"/>
	<circle cx="604.562" cy="184.526" r="4" fill="#0" id="circle116"/>
	<circle cx="604.562" cy="345.391" r="4" fill="#0" id="circle117"/>
	<circle cx="613.499" cy="129.117" r="4" fill="#0" id="circle118"/>
	<circle cx="613.499" cy="205.975" r="4" fill="#0" id="circle119"/>
	<circle cx="613.499" cy="361.477" r="4" fill="#0" id="circle120"/>
	<circle cx="618.861" cy="422.249" r="4" fill="#0" id="circle121"/>
	<circle cx="622.436" cy="184.526" r="4" fill="#0" id="circle122"/>
	<circle cx="622.436" cy="345.391" r="4" fill="#0" id="circle123"/>
	<circle cx="627.798" cy="218.486" r="4" fill="#0" id="circle124"/>
	<circle cx="631.373" cy="129.117" r="4" fill="#0" id="circle125"/>
	<circle cx="631.373" cy="366.84" r="4" fill="#0" id="circle126"/>
	<circle cx="636.735" cy="413.312" r="4" fill="#0" id="circle127"/>
	<circle cx="638.523" cy="175.589" r="4" fill="#0" id="circle128"/>
	<circle cx="638.523" cy="336.454" r="4" fill="#0" id="circle129"/>
	<circle cx="640.31" cy="382.926" r="4" fill="#0" id="circle130"/>
	<circle cx="645.672" cy="218.486" r="4" fill="#0" id="circle131"/>
	<circle cx="649.247" cy="129.117" r="4" fill="#0" id="circle132"/>
	<circle cx="656.396" cy="170.227" r="4" fill="#0" id="circle133"/>
	<circle cx="656.396" cy="331.092" r="4" fill="#0" id="circle134"/>
	<circle cx="663.546" cy="218.486" r="4" fill="#0" id="circle135"/>
	<circle cx="667.121" cy="134.479" r="4" fill="#0" id="circle136"/>
	<circle cx="667.121" cy="152.353" r="4" fill="#0" id="circle137"/>
	<circle cx="670.695" cy="318.58" r="4" fill="#0" id="circle138"/>
	<circle cx="679.632" cy="209.55" r="4" fill="#0" id="circle139"/>
	<circle cx="688.569" cy="318.58" r="4" fill="#0" id="circle140"/>
	<circle cx="697.506" cy="209.55" r="4" fill="#0" id="circle141"/>
	<circle cx="704.656" cy="309.643" r="4" fill="#0" id="circle142"/>
	<circle cx="715.38" cy="209.55" r="4" fill="#0" id="circle143"/>
	<circle cx="720.742" cy="300.706" r="4" fill="#0" id="circle144"/>
	<circle cx="733.254" cy="209.55" r="4" fill="#0" id="circle145"/>
	<circle cx="738.616" cy="300.706" r="4" fill="#0" id="circle146"/>
	<circle cx="749.341" cy="200.613" r="4" fill="#0" id="circle147"/>
	<circle cx="756.49" cy="291.769" r="4" fill="#0" id="circle148"/>
	<circle cx="767.214" cy="200.613" r="4" fill="#0" id="circle149"/>
	<circle cx="774.364" cy="282.832" r="4" fill="#0" id="circle150"/>
	<circle cx="785.088" cy="200.613" r="4" fill="#0" id="circle151"/>
	<circle cx="792.238" cy="282.832" r="4" fill="#0" id="circle152"/>
	<circle cx="802.962" cy="200.613" r="4" fill="#0" id="circle153"/>
	<circle cx="808.324" cy="273.895" r="4" fill="#0" id="circle154"/>
	<circle cx="820.836" cy="193.463" r="4" fill="#0" id="circle155"/>
	<circle cx="826.198" cy="273.895" r="4" fill="#0" id="circle156"/>
	<circle cx="838.71" cy="193.463" r="4" fill="#0" id="circle157"/>
	<circle cx="844.072" cy="268.533" r="4" fill="#0" id="circle158"/>
	<circle cx="856.584" cy="191.676" r="4" fill="#0" id="circle159"/>
	<circle cx="861.946" cy="259.596" r="4" fill="#0" id="circle160"/>
	<circle cx="872.67" cy="182.739" r="4" fill="#0" id="circle161"/>
	<circle cx="879.82" cy="250.659" r="4" fill="#0" id="circle162"/>
	<circle cx="890.544" cy="177.377" r="4" fill="#0" id="circle163"/>
	<circle cx="897.694" cy="247.085" r="4" fill="#0" id="circle164"/>
	<circle cx="908.418" cy="173.802" r="4" fill="#0" id="circle165"/>
	<circle cx="913.78" cy="238.148" r="4" fill="#0" id="circle166"/>
	<circle cx="926.292" cy="173.802" r="4" fill="#0" id="circle167"/>
	<circle cx="931.654" cy="238.148" r="4" fill="#0" id="circle168"/>
	<circle cx="944.166" cy="173.802" r="4" fill="#0" id="circle169"/>
	<circle cx="947.741" cy="229.211" r="4" fill="#0" id="circle170"/>
	<circle cx="962.04" cy="173.802" r="4" fill="#0" id="circle171"/>
	<circle cx="965.614" cy="227.423" r="4" fill="#0" id="circle172"/>
	<circle cx="978.126" cy="182.739" r="4" fill="#0" id="circle173"/>
	<circle cx="983.488" cy="227.423" r="4" fill="#0" id="circle174"/>
	<circle cx="992.425" cy="209.55" r="4" fill="#0" id="circle175"/>
	<circle cx="996" cy="186.314" r="4" fill="#0" id="circle176"/>
	</g>
</svg>