<?xml version="1.0" encoding="UTF-8" standalone="no"?>
<!-- Created with CurveBenchmark -->
<svg
	xmlns:dc="http://purl.org/dc/elements/1.1/"
	xmlns:cc="http://creativecommons.org/ns#"
	xmlns:rdf="http://www.w3.org/1999/02/22-rdf-syntax-ns#"
	xmlns:svg="http://www.w3.org/2000/svg"
	xmlns="http://www.w3.org/2000/svg"
	xmlns:sodipodi="http://sodipodi.sourceforge.net/DTD/sodipodi-0.dtd"
	xmlns:inkscape="http://www.inkscape.org/namespaces/inkscape"
	width="1000"
	height="1000"
	id="svg2"
	version="1.1"
	sodipodi:docname="manifold/connect2d-television165.png.txt">
<defs
	id="defs4" />
<metadata
	id="metadata7">
	<rdf:RDF>
		<cc:Work
			rdf:about="">
			<dc:format>image/svg+xml</dc:format>
			<dc:type
				rdf:resource="http://purl.org/dc/dcmitype/StillImage" />
			<dc:title></dc:title>
		</cc:Work>
	</rdf:RDF>
</metadata>
<g
	inkscape:label="Layer 1"
	inkscape:groupmode="layer"
	id="layer1">
	<path style="fill:none;stroke:red;stroke-width:1px;stroke-linecap:butt;stroke-linejoin:miter;stroke-opacity:1" d="M 996,810.61 963.475,823.62 z" id="boundary" inkscape:connector-curvature="0" />
	<path style="fill:none;stroke:red;stroke-width:1px;stroke-linecap:butt;stroke-linejoin:miter;stroke-opacity:1" d="M 963.475,823.62 930.951,813.862 z" id="boundary" inkscape:connector-curvature="0" />
	<path style="fill:none;stroke:red;stroke-width:1px;stroke-linecap:butt;stroke-linejoin:miter;stroke-opacity:1" d="M 930.951,813.862 898.426,826.872 z" id="boundary" inkscape:connector-curvature="0" />
	<path style="fill:none;stroke:red;stroke-width:1px;stroke-linecap:butt;stroke-linejoin:miter;stroke-opacity:1" d="M 898.426,826.872 865.902,813.862 z" id="boundary" inkscape:connector-curvature="0" />
	<path style="fill:none;stroke:red;stroke-width:1px;stroke-linecap:butt;stroke-linejoin:miter;stroke-opacity:1" d="M 865.902,813.862 833.377,813.862 z" id="boundary" inkscape:connector-curvature="0" />
	<path style="fill:none;stroke:red;stroke-width:1px;stroke-linecap:butt;stroke-linejoin:miter;stroke-opacity:1" d="M 833.377,813.862 800.852,813.862 z" id="boundary" inkscape:connector-curvature="0" />
	<path style="fill:none;stroke:red;stroke-width:1px;stroke-linecap:butt;stroke-linejoin:miter;stroke-opacity:1" d="M 800.852,813.862 768.328,813.862 z" id="boundary" inkscape:connector-curvature="0" />
	<path style="fill:none;stroke:red;stroke-width:1px;stroke-linecap:butt;stroke-linejoin:miter;stroke-opacity:1" d="M 768.328,813.862 735.803,813.862 z" id="boundary" inkscape:connector-curvature="0" />
	<path style="fill:none;stroke:red;stroke-width:1px;stroke-linecap:butt;stroke-linejoin:miter;stroke-opacity:1" d="M 735.803,813.862 703.279,813.862 z" id="boundary" inkscape:connector-curvature="0" />
	<path style="fill:none;stroke:red;stroke-width:1px;stroke-linecap:butt;stroke-linejoin:miter;stroke-opacity:1" d="M 703.279,813.862 670.754,813.862 z" id="boundary" inkscape:connector-curvature="0" />
	<path style="fill:none;stroke:red;stroke-width:1px;stroke-linecap:butt;stroke-linejoin:miter;stroke-opacity:1" d="M 670.754,813.862 638.23,813.862 z" id="boundary" inkscape:connector-curvature="0" />
	<path style="fill:none;stroke:red;stroke-width:1px;stroke-linecap:butt;stroke-linejoin:miter;stroke-opacity:1" d="M 638.23,813.862 605.705,813.862 z" id="boundary" inkscape:connector-curvature="0" />
	<path style="fill:none;stroke:red;stroke-width:1px;stroke-linecap:butt;stroke-linejoin:miter;stroke-opacity:1" d="M 605.705,813.862 573.18,813.862 z" id="boundary" inkscape:connector-curvature="0" />
	<path style="fill:none;stroke:red;stroke-width:1px;stroke-linecap:butt;stroke-linejoin:miter;stroke-opacity:1" d="M 573.18,813.862 540.656,813.862 z" id="boundary" inkscape:connector-curvature="0" />
	<path style="fill:none;stroke:red;stroke-width:1px;stroke-linecap:butt;stroke-linejoin:miter;stroke-opacity:1" d="M 540.656,813.862 508.131,813.862 z" id="boundary" inkscape:connector-curvature="0" />
	<path style="fill:none;stroke:red;stroke-width:1px;stroke-linecap:butt;stroke-linejoin:miter;stroke-opacity:1" d="M 508.131,813.862 475.607,813.862 z" id="boundary" inkscape:connector-curvature="0" />
	<path style="fill:none;stroke:red;stroke-width:1px;stroke-linecap:butt;stroke-linejoin:miter;stroke-opacity:1" d="M 475.607,813.862 443.082,813.862 z" id="boundary" inkscape:connector-curvature="0" />
	<path style="fill:none;stroke:red;stroke-width:1px;stroke-linecap:butt;stroke-linejoin:miter;stroke-opacity:1" d="M 443.082,813.862 410.557,813.862 z" id="boundary" inkscape:connector-curvature="0" />
	<path style="fill:none;stroke:red;stroke-width:1px;stroke-linecap:butt;stroke-linejoin:miter;stroke-opacity:1" d="M 410.557,813.862 378.033,813.862 z" id="boundary" inkscape:connector-curvature="0" />
	<path style="fill:none;stroke:red;stroke-width:1px;stroke-linecap:butt;stroke-linejoin:miter;stroke-opacity:1" d="M 378.033,813.862 345.508,813.862 z" id="boundary" inkscape:connector-curvature="0" />
	<path style="fill:none;stroke:red;stroke-width:1px;stroke-linecap:butt;stroke-linejoin:miter;stroke-opacity:1" d="M 345.508,813.862 312.984,813.862 z" id="boundary" inkscape:connector-curvature="0" />
	<path style="fill:none;stroke:red;stroke-width:1px;stroke-linecap:butt;stroke-linejoin:miter;stroke-opacity:1" d="M 312.984,813.862 280.459,813.862 z" id="boundary" inkscape:connector-curvature="0" />
	<path style="fill:none;stroke:red;stroke-width:1px;stroke-linecap:butt;stroke-linejoin:miter;stroke-opacity:1" d="M 280.459,813.862 247.934,813.862 z" id="boundary" inkscape:connector-curvature="0" />
	<path style="fill:none;stroke:red;stroke-width:1px;stroke-linecap:butt;stroke-linejoin:miter;stroke-opacity:1" d="M 247.934,813.862 215.41,813.862 z" id="boundary" inkscape:connector-curvature="0" />
	<path style="fill:none;stroke:red;stroke-width:1px;stroke-linecap:butt;stroke-linejoin:miter;stroke-opacity:1" d="M 215.41,813.862 182.885,813.862 z" id="boundary" inkscape:connector-curvature="0" />
	<path style="fill:none;stroke:red;stroke-width:1px;stroke-linecap:butt;stroke-linejoin:miter;stroke-opacity:1" d="M 182.885,813.862 150.361,813.862 z" id="boundary" inkscape:connector-curvature="0" />
	<path style="fill:none;stroke:red;stroke-width:1px;stroke-linecap:butt;stroke-linejoin:miter;stroke-opacity:1" d="M 150.361,813.862 117.836,813.862 z" id="boundary" inkscape:connector-curvature="0" />
	<path style="fill:none;stroke:red;stroke-width:1px;stroke-linecap:butt;stroke-linejoin:miter;stroke-opacity:1" d="M 117.836,813.862 85.3115,813.862 z" id="boundary" inkscape:connector-curvature="0" />
	<path style="fill:none;stroke:red;stroke-width:1px;stroke-linecap:butt;stroke-linejoin:miter;stroke-opacity:1" d="M 85.3115,813.862 52.7869,823.62 z" id="boundary" inkscape:connector-curvature="0" />
	<path style="fill:none;stroke:red;stroke-width:1px;stroke-linecap:butt;stroke-linejoin:miter;stroke-opacity:1" d="M 52.7869,823.62 20.2623,813.862 z" id="boundary" inkscape:connector-curvature="0" />
	<path style="fill:none;stroke:red;stroke-width:1px;stroke-linecap:butt;stroke-linejoin:miter;stroke-opacity:1" d="M 20.2623,813.862 4,784.59 z" id="boundary" inkscape:connector-curvature="0" />
	<path style="fill:none;stroke:red;stroke-width:1px;stroke-linecap:butt;stroke-linejoin:miter;stroke-opacity:1" d="M 4,784.59 4,752.066 z" id="boundary" inkscape:connector-curvature="0" />
	<path style="fill:none;stroke:red;stroke-width:1px;stroke-linecap:butt;stroke-linejoin:miter;stroke-opacity:1" d="M 4,752.066 36.5246,745.561 z" id="boundary" inkscape:connector-curvature="0" />
	<path style="fill:none;stroke:red;stroke-width:1px;stroke-linecap:butt;stroke-linejoin:miter;stroke-opacity:1" d="M 36.5246,745.561 69.0492,745.561 z" id="boundary" inkscape:connector-curvature="0" />
	<path style="fill:none;stroke:red;stroke-width:1px;stroke-linecap:butt;stroke-linejoin:miter;stroke-opacity:1" d="M 69.0492,745.561 101.574,745.561 z" id="boundary" inkscape:connector-curvature="0" />
	<path style="fill:none;stroke:red;stroke-width:1px;stroke-linecap:butt;stroke-linejoin:miter;stroke-opacity:1" d="M 101.574,745.561 134.098,745.561 z" id="boundary" inkscape:connector-curvature="0" />
	<path style="fill:none;stroke:red;stroke-width:1px;stroke-linecap:butt;stroke-linejoin:miter;stroke-opacity:1" d="M 134.098,745.561 166.623,745.561 z" id="boundary" inkscape:connector-curvature="0" />
	<path style="fill:none;stroke:red;stroke-width:1px;stroke-linecap:butt;stroke-linejoin:miter;stroke-opacity:1" d="M 166.623,745.561 199.148,745.561 z" id="boundary" inkscape:connector-curvature="0" />
	<path style="fill:none;stroke:red;stroke-width:1px;stroke-linecap:butt;stroke-linejoin:miter;stroke-opacity:1" d="M 199.148,745.561 231.672,745.561 z" id="boundary" inkscape:connector-curvature="0" />
	<path style="fill:none;stroke:red;stroke-width:1px;stroke-linecap:butt;stroke-linejoin:miter;stroke-opacity:1" d="M 231.672,745.561 264.197,745.561 z" id="boundary" inkscape:connector-curvature="0" />
	<path style="fill:none;stroke:red;stroke-width:1px;stroke-linecap:butt;stroke-linejoin:miter;stroke-opacity:1" d="M 264.197,745.561 296.721,745.561 z" id="boundary" inkscape:connector-curvature="0" />
	<path style="fill:none;stroke:red;stroke-width:1px;stroke-linecap:butt;stroke-linejoin:miter;stroke-opacity:1" d="M 296.721,745.561 322.741,765.075 z" id="boundary" inkscape:connector-curvature="0" />
	<path style="fill:none;stroke:red;stroke-width:1px;stroke-linecap:butt;stroke-linejoin:miter;stroke-opacity:1" d="M 322.741,765.075 348.761,745.561 z" id="boundary" inkscape:connector-curvature="0" />
	<path style="fill:none;stroke:red;stroke-width:1px;stroke-linecap:butt;stroke-linejoin:miter;stroke-opacity:1" d="M 348.761,745.561 374.78,765.075 z" id="boundary" inkscape:connector-curvature="0" />
	<path style="fill:none;stroke:red;stroke-width:1px;stroke-linecap:butt;stroke-linejoin:miter;stroke-opacity:1" d="M 374.78,765.075 400.8,745.561 z" id="boundary" inkscape:connector-curvature="0" />
	<path style="fill:none;stroke:red;stroke-width:1px;stroke-linecap:butt;stroke-linejoin:miter;stroke-opacity:1" d="M 400.8,745.561 420.315,703.279 z" id="boundary" inkscape:connector-curvature="0" />
	<path style="fill:none;stroke:red;stroke-width:1px;stroke-linecap:butt;stroke-linejoin:miter;stroke-opacity:1" d="M 420.315,703.279 397.548,677.259 z" id="boundary" inkscape:connector-curvature="0" />
	<path style="fill:none;stroke:red;stroke-width:1px;stroke-linecap:butt;stroke-linejoin:miter;stroke-opacity:1" d="M 397.548,677.259 365.023,677.259 z" id="boundary" inkscape:connector-curvature="0" />
	<path style="fill:none;stroke:red;stroke-width:1px;stroke-linecap:butt;stroke-linejoin:miter;stroke-opacity:1" d="M 365.023,677.259 332.498,677.259 z" id="boundary" inkscape:connector-curvature="0" />
	<path style="fill:none;stroke:red;stroke-width:1px;stroke-linecap:butt;stroke-linejoin:miter;stroke-opacity:1" d="M 332.498,677.259 299.974,677.259 z" id="boundary" inkscape:connector-curvature="0" />
	<path style="fill:none;stroke:red;stroke-width:1px;stroke-linecap:butt;stroke-linejoin:miter;stroke-opacity:1" d="M 299.974,677.259 267.449,677.259 z" id="boundary" inkscape:connector-curvature="0" />
	<path style="fill:none;stroke:red;stroke-width:1px;stroke-linecap:butt;stroke-linejoin:miter;stroke-opacity:1" d="M 267.449,677.259 234.925,677.259 z" id="boundary" inkscape:connector-curvature="0" />
	<path style="fill:none;stroke:red;stroke-width:1px;stroke-linecap:butt;stroke-linejoin:miter;stroke-opacity:1" d="M 234.925,677.259 202.4,677.259 z" id="boundary" inkscape:connector-curvature="0" />
	<path style="fill:none;stroke:red;stroke-width:1px;stroke-linecap:butt;stroke-linejoin:miter;stroke-opacity:1" d="M 202.4,677.259 169.875,677.259 z" id="boundary" inkscape:connector-curvature="0" />
	<path style="fill:none;stroke:red;stroke-width:1px;stroke-linecap:butt;stroke-linejoin:miter;stroke-opacity:1" d="M 169.875,677.259 137.351,677.259 z" id="boundary" inkscape:connector-curvature="0" />
	<path style="fill:none;stroke:red;stroke-width:1px;stroke-linecap:butt;stroke-linejoin:miter;stroke-opacity:1" d="M 137.351,677.259 104.826,677.259 z" id="boundary" inkscape:connector-curvature="0" />
	<path style="fill:none;stroke:red;stroke-width:1px;stroke-linecap:butt;stroke-linejoin:miter;stroke-opacity:1" d="M 104.826,677.259 72.3016,677.259 z" id="boundary" inkscape:connector-curvature="0" />
	<path style="fill:none;stroke:red;stroke-width:1px;stroke-linecap:butt;stroke-linejoin:miter;stroke-opacity:1" d="M 72.3016,677.259 56.0393,647.987 z" id="boundary" inkscape:connector-curvature="0" />
	<path style="fill:none;stroke:red;stroke-width:1px;stroke-linecap:butt;stroke-linejoin:miter;stroke-opacity:1" d="M 56.0393,647.987 88.5639,647.987 z" id="boundary" inkscape:connector-curvature="0" />
	<path style="fill:none;stroke:red;stroke-width:1px;stroke-linecap:butt;stroke-linejoin:miter;stroke-opacity:1" d="M 88.5639,647.987 121.089,647.987 z" id="boundary" inkscape:connector-curvature="0" />
	<path style="fill:none;stroke:red;stroke-width:1px;stroke-linecap:butt;stroke-linejoin:miter;stroke-opacity:1" d="M 121.089,647.987 153.613,647.987 z" id="boundary" inkscape:connector-curvature="0" />
	<path style="fill:none;stroke:red;stroke-width:1px;stroke-linecap:butt;stroke-linejoin:miter;stroke-opacity:1" d="M 153.613,647.987 186.138,647.987 z" id="boundary" inkscape:connector-curvature="0" />
	<path style="fill:none;stroke:red;stroke-width:1px;stroke-linecap:butt;stroke-linejoin:miter;stroke-opacity:1" d="M 186.138,647.987 218.662,647.987 z" id="boundary" inkscape:connector-curvature="0" />
	<path style="fill:none;stroke:red;stroke-width:1px;stroke-linecap:butt;stroke-linejoin:miter;stroke-opacity:1" d="M 218.662,647.987 251.187,647.987 z" id="boundary" inkscape:connector-curvature="0" />
	<path style="fill:none;stroke:red;stroke-width:1px;stroke-linecap:butt;stroke-linejoin:miter;stroke-opacity:1" d="M 251.187,647.987 283.711,647.987 z" id="boundary" inkscape:connector-curvature="0" />
	<path style="fill:none;stroke:red;stroke-width:1px;stroke-linecap:butt;stroke-linejoin:miter;stroke-opacity:1" d="M 283.711,647.987 316.236,647.987 z" id="boundary" inkscape:connector-curvature="0" />
	<path style="fill:none;stroke:red;stroke-width:1px;stroke-linecap:butt;stroke-linejoin:miter;stroke-opacity:1" d="M 316.236,647.987 348.761,647.987 z" id="boundary" inkscape:connector-curvature="0" />
	<path style="fill:none;stroke:red;stroke-width:1px;stroke-linecap:butt;stroke-linejoin:miter;stroke-opacity:1" d="M 348.761,647.987 381.285,647.987 z" id="boundary" inkscape:connector-curvature="0" />
	<path style="fill:none;stroke:red;stroke-width:1px;stroke-linecap:butt;stroke-linejoin:miter;stroke-opacity:1" d="M 381.285,647.987 413.81,647.987 z" id="boundary" inkscape:connector-curvature="0" />
	<path style="fill:none;stroke:red;stroke-width:1px;stroke-linecap:butt;stroke-linejoin:miter;stroke-opacity:1" d="M 413.81,647.987 420.315,605.705 z" id="boundary" inkscape:connector-curvature="0" />
	<path style="fill:none;stroke:red;stroke-width:1px;stroke-linecap:butt;stroke-linejoin:miter;stroke-opacity:1" d="M 420.315,605.705 407.305,573.18 z" id="boundary" inkscape:connector-curvature="0" />
	<path style="fill:none;stroke:red;stroke-width:1px;stroke-linecap:butt;stroke-linejoin:miter;stroke-opacity:1" d="M 407.305,573.18 374.78,573.18 z" id="boundary" inkscape:connector-curvature="0" />
	<path style="fill:none;stroke:red;stroke-width:1px;stroke-linecap:butt;stroke-linejoin:miter;stroke-opacity:1" d="M 374.78,573.18 342.256,573.18 z" id="boundary" inkscape:connector-curvature="0" />
	<path style="fill:none;stroke:red;stroke-width:1px;stroke-linecap:butt;stroke-linejoin:miter;stroke-opacity:1" d="M 342.256,573.18 309.731,573.18 z" id="boundary" inkscape:connector-curvature="0" />
	<path style="fill:none;stroke:red;stroke-width:1px;stroke-linecap:butt;stroke-linejoin:miter;stroke-opacity:1" d="M 309.731,573.18 277.207,573.18 z" id="boundary" inkscape:connector-curvature="0" />
	<path style="fill:none;stroke:red;stroke-width:1px;stroke-linecap:butt;stroke-linejoin:miter;stroke-opacity:1" d="M 277.207,573.18 244.682,573.18 z" id="boundary" inkscape:connector-curvature="0" />
	<path style="fill:none;stroke:red;stroke-width:1px;stroke-linecap:butt;stroke-linejoin:miter;stroke-opacity:1" d="M 244.682,573.18 212.157,573.18 z" id="boundary" inkscape:connector-curvature="0" />
	<path style="fill:none;stroke:red;stroke-width:1px;stroke-linecap:butt;stroke-linejoin:miter;stroke-opacity:1" d="M 212.157,573.18 179.633,573.18 z" id="boundary" inkscape:connector-curvature="0" />
	<path style="fill:none;stroke:red;stroke-width:1px;stroke-linecap:butt;stroke-linejoin:miter;stroke-opacity:1" d="M 179.633,573.18 147.108,573.18 z" id="boundary" inkscape:connector-curvature="0" />
	<path style="fill:none;stroke:red;stroke-width:1px;stroke-linecap:butt;stroke-linejoin:miter;stroke-opacity:1" d="M 147.108,573.18 114.584,573.18 z" id="boundary" inkscape:connector-curvature="0" />
	<path style="fill:none;stroke:red;stroke-width:1px;stroke-linecap:butt;stroke-linejoin:miter;stroke-opacity:1" d="M 114.584,573.18 82.059,573.18 z" id="boundary" inkscape:connector-curvature="0" />
	<path style="fill:none;stroke:red;stroke-width:1px;stroke-linecap:butt;stroke-linejoin:miter;stroke-opacity:1" d="M 82.059,573.18 56.0393,550.413 z" id="boundary" inkscape:connector-curvature="0" />
	<path style="fill:none;stroke:red;stroke-width:1px;stroke-linecap:butt;stroke-linejoin:miter;stroke-opacity:1" d="M 56.0393,550.413 98.3213,543.908 z" id="boundary" inkscape:connector-curvature="0" />
	<path style="fill:none;stroke:red;stroke-width:1px;stroke-linecap:butt;stroke-linejoin:miter;stroke-opacity:1" d="M 98.3213,543.908 130.846,543.908 z" id="boundary" inkscape:connector-curvature="0" />
	<path style="fill:none;stroke:red;stroke-width:1px;stroke-linecap:butt;stroke-linejoin:miter;stroke-opacity:1" d="M 130.846,543.908 163.37,543.908 z" id="boundary" inkscape:connector-curvature="0" />
	<path style="fill:none;stroke:red;stroke-width:1px;stroke-linecap:butt;stroke-linejoin:miter;stroke-opacity:1" d="M 163.37,543.908 195.895,543.908 z" id="boundary" inkscape:connector-curvature="0" />
	<path style="fill:none;stroke:red;stroke-width:1px;stroke-linecap:butt;stroke-linejoin:miter;stroke-opacity:1" d="M 195.895,543.908 228.42,543.908 z" id="boundary" inkscape:connector-curvature="0" />
	<path style="fill:none;stroke:red;stroke-width:1px;stroke-linecap:butt;stroke-linejoin:miter;stroke-opacity:1" d="M 228.42,543.908 260.944,543.908 z" id="boundary" inkscape:connector-curvature="0" />
	<path style="fill:none;stroke:red;stroke-width:1px;stroke-linecap:butt;stroke-linejoin:miter;stroke-opacity:1" d="M 260.944,543.908 293.469,543.908 z" id="boundary" inkscape:connector-curvature="0" />
	<path style="fill:none;stroke:red;stroke-width:1px;stroke-linecap:butt;stroke-linejoin:miter;stroke-opacity:1" d="M 293.469,543.908 325.993,543.908 z" id="boundary" inkscape:connector-curvature="0" />
	<path style="fill:none;stroke:red;stroke-width:1px;stroke-linecap:butt;stroke-linejoin:miter;stroke-opacity:1" d="M 325.993,543.908 358.518,543.908 z" id="boundary" inkscape:connector-curvature="0" />
	<path style="fill:none;stroke:red;stroke-width:1px;stroke-linecap:butt;stroke-linejoin:miter;stroke-opacity:1" d="M 358.518,543.908 391.043,543.908 z" id="boundary" inkscape:connector-curvature="0" />
	<path style="fill:none;stroke:red;stroke-width:1px;stroke-linecap:butt;stroke-linejoin:miter;stroke-opacity:1" d="M 391.043,543.908 420.315,517.889 z" id="boundary" inkscape:connector-curvature="0" />
	<path style="fill:none;stroke:red;stroke-width:1px;stroke-linecap:butt;stroke-linejoin:miter;stroke-opacity:1" d="M 420.315,517.889 420.315,485.364 z" id="boundary" inkscape:connector-curvature="0" />
	<path style="fill:none;stroke:red;stroke-width:1px;stroke-linecap:butt;stroke-linejoin:miter;stroke-opacity:1" d="M 420.315,485.364 420.315,452.839 z" id="boundary" inkscape:connector-curvature="0" />
	<path style="fill:none;stroke:red;stroke-width:1px;stroke-linecap:butt;stroke-linejoin:miter;stroke-opacity:1" d="M 420.315,452.839 391.043,436.577 z" id="boundary" inkscape:connector-curvature="0" />
	<path style="fill:none;stroke:red;stroke-width:1px;stroke-linecap:butt;stroke-linejoin:miter;stroke-opacity:1" d="M 391.043,436.577 358.518,436.577 z" id="boundary" inkscape:connector-curvature="0" />
	<path style="fill:none;stroke:red;stroke-width:1px;stroke-linecap:butt;stroke-linejoin:miter;stroke-opacity:1" d="M 358.518,436.577 325.993,436.577 z" id="boundary" inkscape:connector-curvature="0" />
	<path style="fill:none;stroke:red;stroke-width:1px;stroke-linecap:butt;stroke-linejoin:miter;stroke-opacity:1" d="M 325.993,436.577 293.469,436.577 z" id="boundary" inkscape:connector-curvature="0" />
	<path style="fill:none;stroke:red;stroke-width:1px;stroke-linecap:butt;stroke-linejoin:miter;stroke-opacity:1" d="M 293.469,436.577 260.944,436.577 z" id="boundary" inkscape:connector-curvature="0" />
	<path style="fill:none;stroke:red;stroke-width:1px;stroke-linecap:butt;stroke-linejoin:miter;stroke-opacity:1" d="M 260.944,436.577 228.42,436.577 z" id="boundary" inkscape:connector-curvature="0" />
	<path style="fill:none;stroke:red;stroke-width:1px;stroke-linecap:butt;stroke-linejoin:miter;stroke-opacity:1" d="M 228.42,436.577 195.895,436.577 z" id="boundary" inkscape:connector-curvature="0" />
	<path style="fill:none;stroke:red;stroke-width:1px;stroke-linecap:butt;stroke-linejoin:miter;stroke-opacity:1" d="M 195.895,436.577 163.37,436.577 z" id="boundary" inkscape:connector-curvature="0" />
	<path style="fill:none;stroke:red;stroke-width:1px;stroke-linecap:butt;stroke-linejoin:miter;stroke-opacity:1" d="M 163.37,436.577 130.846,433.325 z" id="boundary" inkscape:connector-curvature="0" />
	<path style="fill:none;stroke:red;stroke-width:1px;stroke-linecap:butt;stroke-linejoin:miter;stroke-opacity:1" d="M 130.846,433.325 127.593,400.8 z" id="boundary" inkscape:connector-curvature="0" />
	<path style="fill:none;stroke:red;stroke-width:1px;stroke-linecap:butt;stroke-linejoin:miter;stroke-opacity:1" d="M 127.593,400.8 127.593,368.275 z" id="boundary" inkscape:connector-curvature="0" />
	<path style="fill:none;stroke:red;stroke-width:1px;stroke-linecap:butt;stroke-linejoin:miter;stroke-opacity:1" d="M 127.593,368.275 127.593,335.751 z" id="boundary" inkscape:connector-curvature="0" />
	<path style="fill:none;stroke:red;stroke-width:1px;stroke-linecap:butt;stroke-linejoin:miter;stroke-opacity:1" d="M 127.593,335.751 127.593,303.226 z" id="boundary" inkscape:connector-curvature="0" />
	<path style="fill:none;stroke:red;stroke-width:1px;stroke-linecap:butt;stroke-linejoin:miter;stroke-opacity:1" d="M 127.593,303.226 127.593,270.702 z" id="boundary" inkscape:connector-curvature="0" />
	<path style="fill:none;stroke:red;stroke-width:1px;stroke-linecap:butt;stroke-linejoin:miter;stroke-opacity:1" d="M 127.593,270.702 127.593,238.177 z" id="boundary" inkscape:connector-curvature="0" />
	<path style="fill:none;stroke:red;stroke-width:1px;stroke-linecap:butt;stroke-linejoin:miter;stroke-opacity:1" d="M 127.593,238.177 127.593,205.652 z" id="boundary" inkscape:connector-curvature="0" />
	<path style="fill:none;stroke:red;stroke-width:1px;stroke-linecap:butt;stroke-linejoin:miter;stroke-opacity:1" d="M 127.593,205.652 127.593,173.128 z" id="boundary" inkscape:connector-curvature="0" />
	<path style="fill:none;stroke:red;stroke-width:1px;stroke-linecap:butt;stroke-linejoin:miter;stroke-opacity:1" d="M 127.593,173.128 127.593,140.603 z" id="boundary" inkscape:connector-curvature="0" />
	<path style="fill:none;stroke:red;stroke-width:1px;stroke-linecap:butt;stroke-linejoin:miter;stroke-opacity:1" d="M 127.593,140.603 127.593,108.079 z" id="boundary" inkscape:connector-curvature="0" />
	<path style="fill:none;stroke:red;stroke-width:1px;stroke-linecap:butt;stroke-linejoin:miter;stroke-opacity:1" d="M 127.593,108.079 127.593,75.5541 z" id="boundary" inkscape:connector-curvature="0" />
	<path style="fill:none;stroke:red;stroke-width:1px;stroke-linecap:butt;stroke-linejoin:miter;stroke-opacity:1" d="M 127.593,75.5541 127.593,43.0295 z" id="boundary" inkscape:connector-curvature="0" />
	<path style="fill:none;stroke:red;stroke-width:1px;stroke-linecap:butt;stroke-linejoin:miter;stroke-opacity:1" d="M 127.593,43.0295 127.593,10.5049 z" id="boundary" inkscape:connector-curvature="0" />
	<path style="fill:none;stroke:red;stroke-width:1px;stroke-linecap:butt;stroke-linejoin:miter;stroke-opacity:1" d="M 127.593,10.5049 160.118,4 z" id="boundary" inkscape:connector-curvature="0" />
	<path style="fill:none;stroke:red;stroke-width:1px;stroke-linecap:butt;stroke-linejoin:miter;stroke-opacity:1" d="M 160.118,4 192.643,4 z" id="boundary" inkscape:connector-curvature="0" />
	<path style="fill:none;stroke:red;stroke-width:1px;stroke-linecap:butt;stroke-linejoin:miter;stroke-opacity:1" d="M 192.643,4 225.167,4 z" id="boundary" inkscape:connector-curvature="0" />
	<path style="fill:none;stroke:red;stroke-width:1px;stroke-linecap:butt;stroke-linejoin:miter;stroke-opacity:1" d="M 225.167,4 257.692,4 z" id="boundary" inkscape:connector-curvature="0" />
	<path style="fill:none;stroke:red;stroke-width:1px;stroke-linecap:butt;stroke-linejoin:miter;stroke-opacity:1" d="M 257.692,4 290.216,4 z" id="boundary" inkscape:connector-curvature="0" />
	<path style="fill:none;stroke:red;stroke-width:1px;stroke-linecap:butt;stroke-linejoin:miter;stroke-opacity:1" d="M 290.216,4 322.741,4 z" id="boundary" inkscape:connector-curvature="0" />
	<path style="fill:none;stroke:red;stroke-width:1px;stroke-linecap:butt;stroke-linejoin:miter;stroke-opacity:1" d="M 322.741,4 355.266,4 z" id="boundary" inkscape:connector-curvature="0" />
	<path style="fill:none;stroke:red;stroke-width:1px;stroke-linecap:butt;stroke-linejoin:miter;stroke-opacity:1" d="M 355.266,4 387.79,4 z" id="boundary" inkscape:connector-curvature="0" />
	<path style="fill:none;stroke:red;stroke-width:1px;stroke-linecap:butt;stroke-linejoin:miter;stroke-opacity:1" d="M 387.79,4 420.315,4 z" id="boundary" inkscape:connector-curvature="0" />
	<path style="fill:none;stroke:red;stroke-width:1px;stroke-linecap:butt;stroke-linejoin:miter;stroke-opacity:1" d="M 420.315,4 452.839,4 z" id="boundary" inkscape:connector-curvature="0" />
	<path style="fill:none;stroke:red;stroke-width:1px;stroke-linecap:butt;stroke-linejoin:miter;stroke-opacity:1" d="M 452.839,4 485.364,4 z" id="boundary" inkscape:connector-curvature="0" />
	<path style="fill:none;stroke:red;stroke-width:1px;stroke-linecap:butt;stroke-linejoin:miter;stroke-opacity:1" d="M 485.364,4 517.889,4 z" id="boundary" inkscape:connector-curvature="0" />
	<path style="fill:none;stroke:red;stroke-width:1px;stroke-linecap:butt;stroke-linejoin:miter;stroke-opacity:1" d="M 517.889,4 550.413,4 z" id="boundary" inkscape:connector-curvature="0" />
	<path style="fill:none;stroke:red;stroke-width:1px;stroke-linecap:butt;stroke-linejoin:miter;stroke-opacity:1" d="M 550.413,4 582.938,4 z" id="boundary" inkscape:connector-curvature="0" />
	<path style="fill:none;stroke:red;stroke-width:1px;stroke-linecap:butt;stroke-linejoin:miter;stroke-opacity:1" d="M 582.938,4 615.462,4 z" id="boundary" inkscape:connector-curvature="0" />
	<path style="fill:none;stroke:red;stroke-width:1px;stroke-linecap:butt;stroke-linejoin:miter;stroke-opacity:1" d="M 615.462,4 647.987,4 z" id="boundary" inkscape:connector-curvature="0" />
	<path style="fill:none;stroke:red;stroke-width:1px;stroke-linecap:butt;stroke-linejoin:miter;stroke-opacity:1" d="M 647.987,4 680.511,4 z" id="boundary" inkscape:connector-curvature="0" />
	<path style="fill:none;stroke:red;stroke-width:1px;stroke-linecap:butt;stroke-linejoin:miter;stroke-opacity:1" d="M 680.511,4 713.036,4 z" id="boundary" inkscape:connector-curvature="0" />
	<path style="fill:none;stroke:red;stroke-width:1px;stroke-linecap:butt;stroke-linejoin:miter;stroke-opacity:1" d="M 713.036,4 745.561,4 z" id="boundary" inkscape:connector-curvature="0" />
	<path style="fill:none;stroke:red;stroke-width:1px;stroke-linecap:butt;stroke-linejoin:miter;stroke-opacity:1" d="M 745.561,4 778.085,4 z" id="boundary" inkscape:connector-curvature="0" />
	<path style="fill:none;stroke:red;stroke-width:1px;stroke-linecap:butt;stroke-linejoin:miter;stroke-opacity:1" d="M 778.085,4 810.61,4 z" id="boundary" inkscape:connector-curvature="0" />
	<path style="fill:none;stroke:red;stroke-width:1px;stroke-linecap:butt;stroke-linejoin:miter;stroke-opacity:1" d="M 810.61,4 843.134,4 z" id="boundary" inkscape:connector-curvature="0" />
	<path style="fill:none;stroke:red;stroke-width:1px;stroke-linecap:butt;stroke-linejoin:miter;stroke-opacity:1" d="M 843.134,4 875.659,4 z" id="boundary" inkscape:connector-curvature="0" />
	<path style="fill:none;stroke:red;stroke-width:1px;stroke-linecap:butt;stroke-linejoin:miter;stroke-opacity:1" d="M 875.659,4 891.921,33.2721 z" id="boundary" inkscape:connector-curvature="0" />
	<path style="fill:none;stroke:red;stroke-width:1px;stroke-linecap:butt;stroke-linejoin:miter;stroke-opacity:1" d="M 891.921,33.2721 891.921,65.7967 z" id="boundary" inkscape:connector-curvature="0" />
	<path style="fill:none;stroke:red;stroke-width:1px;stroke-linecap:butt;stroke-linejoin:miter;stroke-opacity:1" d="M 891.921,65.7967 885.416,114.584 z" id="boundary" inkscape:connector-curvature="0" />
	<path style="fill:none;stroke:red;stroke-width:1px;stroke-linecap:butt;stroke-linejoin:miter;stroke-opacity:1" d="M 885.416,114.584 885.416,147.108 z" id="boundary" inkscape:connector-curvature="0" />
	<path style="fill:none;stroke:red;stroke-width:1px;stroke-linecap:butt;stroke-linejoin:miter;stroke-opacity:1" d="M 885.416,147.108 885.416,179.633 z" id="boundary" inkscape:connector-curvature="0" />
	<path style="fill:none;stroke:red;stroke-width:1px;stroke-linecap:butt;stroke-linejoin:miter;stroke-opacity:1" d="M 885.416,179.633 885.416,212.157 z" id="boundary" inkscape:connector-curvature="0" />
	<path style="fill:none;stroke:red;stroke-width:1px;stroke-linecap:butt;stroke-linejoin:miter;stroke-opacity:1" d="M 885.416,212.157 885.416,244.682 z" id="boundary" inkscape:connector-curvature="0" />
	<path style="fill:none;stroke:red;stroke-width:1px;stroke-linecap:butt;stroke-linejoin:miter;stroke-opacity:1" d="M 885.416,244.682 885.416,277.207 z" id="boundary" inkscape:connector-curvature="0" />
	<path style="fill:none;stroke:red;stroke-width:1px;stroke-linecap:butt;stroke-linejoin:miter;stroke-opacity:1" d="M 885.416,277.207 885.416,309.731 z" id="boundary" inkscape:connector-curvature="0" />
	<path style="fill:none;stroke:red;stroke-width:1px;stroke-linecap:butt;stroke-linejoin:miter;stroke-opacity:1" d="M 885.416,309.731 885.416,342.256 z" id="boundary" inkscape:connector-curvature="0" />
	<path style="fill:none;stroke:red;stroke-width:1px;stroke-linecap:butt;stroke-linejoin:miter;stroke-opacity:1" d="M 885.416,342.256 885.416,374.78 z" id="boundary" inkscape:connector-curvature="0" />
	<path style="fill:none;stroke:red;stroke-width:1px;stroke-linecap:butt;stroke-linejoin:miter;stroke-opacity:1" d="M 885.416,374.78 878.911,433.325 z" id="boundary" inkscape:connector-curvature="0" />
	<path style="fill:none;stroke:red;stroke-width:1px;stroke-linecap:butt;stroke-linejoin:miter;stroke-opacity:1" d="M 878.911,433.325 846.387,436.577 z" id="boundary" inkscape:connector-curvature="0" />
	<path style="fill:none;stroke:red;stroke-width:1px;stroke-linecap:butt;stroke-linejoin:miter;stroke-opacity:1" d="M 846.387,436.577 813.862,436.577 z" id="boundary" inkscape:connector-curvature="0" />
	<path style="fill:none;stroke:red;stroke-width:1px;stroke-linecap:butt;stroke-linejoin:miter;stroke-opacity:1" d="M 813.862,436.577 781.338,436.577 z" id="boundary" inkscape:connector-curvature="0" />
	<path style="fill:none;stroke:red;stroke-width:1px;stroke-linecap:butt;stroke-linejoin:miter;stroke-opacity:1" d="M 781.338,436.577 748.813,436.577 z" id="boundary" inkscape:connector-curvature="0" />
	<path style="fill:none;stroke:red;stroke-width:1px;stroke-linecap:butt;stroke-linejoin:miter;stroke-opacity:1" d="M 748.813,436.577 716.289,436.577 z" id="boundary" inkscape:connector-curvature="0" />
	<path style="fill:none;stroke:red;stroke-width:1px;stroke-linecap:butt;stroke-linejoin:miter;stroke-opacity:1" d="M 716.289,436.577 683.764,436.577 z" id="boundary" inkscape:connector-curvature="0" />
	<path style="fill:none;stroke:red;stroke-width:1px;stroke-linecap:butt;stroke-linejoin:miter;stroke-opacity:1" d="M 683.764,436.577 651.239,436.577 z" id="boundary" inkscape:connector-curvature="0" />
	<path style="fill:none;stroke:red;stroke-width:1px;stroke-linecap:butt;stroke-linejoin:miter;stroke-opacity:1" d="M 651.239,436.577 618.715,439.83 z" id="boundary" inkscape:connector-curvature="0" />
	<path style="fill:none;stroke:red;stroke-width:1px;stroke-linecap:butt;stroke-linejoin:miter;stroke-opacity:1" d="M 618.715,439.83 618.715,472.354 z" id="boundary" inkscape:connector-curvature="0" />
	<path style="fill:none;stroke:red;stroke-width:1px;stroke-linecap:butt;stroke-linejoin:miter;stroke-opacity:1" d="M 618.715,472.354 618.715,504.879 z" id="boundary" inkscape:connector-curvature="0" />
	<path style="fill:none;stroke:red;stroke-width:1px;stroke-linecap:butt;stroke-linejoin:miter;stroke-opacity:1" d="M 618.715,504.879 618.715,537.403 z" id="boundary" inkscape:connector-curvature="0" />
	<path style="fill:none;stroke:red;stroke-width:1px;stroke-linecap:butt;stroke-linejoin:miter;stroke-opacity:1" d="M 618.715,537.403 651.239,543.908 z" id="boundary" inkscape:connector-curvature="0" />
	<path style="fill:none;stroke:red;stroke-width:1px;stroke-linecap:butt;stroke-linejoin:miter;stroke-opacity:1" d="M 651.239,543.908 683.764,543.908 z" id="boundary" inkscape:connector-curvature="0" />
	<path style="fill:none;stroke:red;stroke-width:1px;stroke-linecap:butt;stroke-linejoin:miter;stroke-opacity:1" d="M 683.764,543.908 716.289,543.908 z" id="boundary" inkscape:connector-curvature="0" />
	<path style="fill:none;stroke:red;stroke-width:1px;stroke-linecap:butt;stroke-linejoin:miter;stroke-opacity:1" d="M 716.289,543.908 748.813,543.908 z" id="boundary" inkscape:connector-curvature="0" />
	<path style="fill:none;stroke:red;stroke-width:1px;stroke-linecap:butt;stroke-linejoin:miter;stroke-opacity:1" d="M 748.813,543.908 781.338,543.908 z" id="boundary" inkscape:connector-curvature="0" />
	<path style="fill:none;stroke:red;stroke-width:1px;stroke-linecap:butt;stroke-linejoin:miter;stroke-opacity:1" d="M 781.338,543.908 813.862,543.908 z" id="boundary" inkscape:connector-curvature="0" />
	<path style="fill:none;stroke:red;stroke-width:1px;stroke-linecap:butt;stroke-linejoin:miter;stroke-opacity:1" d="M 813.862,543.908 846.387,543.908 z" id="boundary" inkscape:connector-curvature="0" />
	<path style="fill:none;stroke:red;stroke-width:1px;stroke-linecap:butt;stroke-linejoin:miter;stroke-opacity:1" d="M 846.387,543.908 878.911,543.908 z" id="boundary" inkscape:connector-curvature="0" />
	<path style="fill:none;stroke:red;stroke-width:1px;stroke-linecap:butt;stroke-linejoin:miter;stroke-opacity:1" d="M 878.911,543.908 911.436,543.908 z" id="boundary" inkscape:connector-curvature="0" />
	<path style="fill:none;stroke:red;stroke-width:1px;stroke-linecap:butt;stroke-linejoin:miter;stroke-opacity:1" d="M 911.436,543.908 895.174,573.18 z" id="boundary" inkscape:connector-curvature="0" />
	<path style="fill:none;stroke:red;stroke-width:1px;stroke-linecap:butt;stroke-linejoin:miter;stroke-opacity:1" d="M 895.174,573.18 862.649,573.18 z" id="boundary" inkscape:connector-curvature="0" />
	<path style="fill:none;stroke:red;stroke-width:1px;stroke-linecap:butt;stroke-linejoin:miter;stroke-opacity:1" d="M 862.649,573.18 830.125,573.18 z" id="boundary" inkscape:connector-curvature="0" />
	<path style="fill:none;stroke:red;stroke-width:1px;stroke-linecap:butt;stroke-linejoin:miter;stroke-opacity:1" d="M 830.125,573.18 797.6,573.18 z" id="boundary" inkscape:connector-curvature="0" />
	<path style="fill:none;stroke:red;stroke-width:1px;stroke-linecap:butt;stroke-linejoin:miter;stroke-opacity:1" d="M 797.6,573.18 765.075,573.18 z" id="boundary" inkscape:connector-curvature="0" />
	<path style="fill:none;stroke:red;stroke-width:1px;stroke-linecap:butt;stroke-linejoin:miter;stroke-opacity:1" d="M 765.075,573.18 732.551,573.18 z" id="boundary" inkscape:connector-curvature="0" />
	<path style="fill:none;stroke:red;stroke-width:1px;stroke-linecap:butt;stroke-linejoin:miter;stroke-opacity:1" d="M 732.551,573.18 700.026,573.18 z" id="boundary" inkscape:connector-curvature="0" />
	<path style="fill:none;stroke:red;stroke-width:1px;stroke-linecap:butt;stroke-linejoin:miter;stroke-opacity:1" d="M 700.026,573.18 667.502,573.18 z" id="boundary" inkscape:connector-curvature="0" />
	<path style="fill:none;stroke:red;stroke-width:1px;stroke-linecap:butt;stroke-linejoin:miter;stroke-opacity:1" d="M 667.502,573.18 618.715,576.433 z" id="boundary" inkscape:connector-curvature="0" />
	<path style="fill:none;stroke:red;stroke-width:1px;stroke-linecap:butt;stroke-linejoin:miter;stroke-opacity:1" d="M 618.715,576.433 618.715,608.957 z" id="boundary" inkscape:connector-curvature="0" />
	<path style="fill:none;stroke:red;stroke-width:1px;stroke-linecap:butt;stroke-linejoin:miter;stroke-opacity:1" d="M 618.715,608.957 618.715,641.482 z" id="boundary" inkscape:connector-curvature="0" />
	<path style="fill:none;stroke:red;stroke-width:1px;stroke-linecap:butt;stroke-linejoin:miter;stroke-opacity:1" d="M 618.715,641.482 651.239,647.987 z" id="boundary" inkscape:connector-curvature="0" />
	<path style="fill:none;stroke:red;stroke-width:1px;stroke-linecap:butt;stroke-linejoin:miter;stroke-opacity:1" d="M 651.239,647.987 683.764,647.987 z" id="boundary" inkscape:connector-curvature="0" />
	<path style="fill:none;stroke:red;stroke-width:1px;stroke-linecap:butt;stroke-linejoin:miter;stroke-opacity:1" d="M 683.764,647.987 716.289,647.987 z" id="boundary" inkscape:connector-curvature="0" />
	<path style="fill:none;stroke:red;stroke-width:1px;stroke-linecap:butt;stroke-linejoin:miter;stroke-opacity:1" d="M 716.289,647.987 748.813,647.987 z" id="boundary" inkscape:connector-curvature="0" />
	<path style="fill:none;stroke:red;stroke-width:1px;stroke-linecap:butt;stroke-linejoin:miter;stroke-opacity:1" d="M 748.813,647.987 781.338,647.987 z" id="boundary" inkscape:connector-curvature="0" />
	<path style="fill:none;stroke:red;stroke-width:1px;stroke-linecap:butt;stroke-linejoin:miter;stroke-opacity:1" d="M 781.338,647.987 813.862,647.987 z" id="boundary" inkscape:connector-curvature="0" />
	<path style="fill:none;stroke:red;stroke-width:1px;stroke-linecap:butt;stroke-linejoin:miter;stroke-opacity:1" d="M 813.862,647.987 846.387,647.987 z" id="boundary" inkscape:connector-curvature="0" />
	<path style="fill:none;stroke:red;stroke-width:1px;stroke-linecap:butt;stroke-linejoin:miter;stroke-opacity:1" d="M 846.387,647.987 878.911,647.987 z" id="boundary" inkscape:connector-curvature="0" />
	<path style="fill:none;stroke:red;stroke-width:1px;stroke-linecap:butt;stroke-linejoin:miter;stroke-opacity:1" d="M 878.911,647.987 911.436,647.987 z" id="boundary" inkscape:connector-curvature="0" />
	<path style="fill:none;stroke:red;stroke-width:1px;stroke-linecap:butt;stroke-linejoin:miter;stroke-opacity:1" d="M 911.436,647.987 895.174,677.259 z" id="boundary" inkscape:connector-curvature="0" />
	<path style="fill:none;stroke:red;stroke-width:1px;stroke-linecap:butt;stroke-linejoin:miter;stroke-opacity:1" d="M 895.174,677.259 862.649,677.259 z" id="boundary" inkscape:connector-curvature="0" />
	<path style="fill:none;stroke:red;stroke-width:1px;stroke-linecap:butt;stroke-linejoin:miter;stroke-opacity:1" d="M 862.649,677.259 830.125,677.259 z" id="boundary" inkscape:connector-curvature="0" />
	<path style="fill:none;stroke:red;stroke-width:1px;stroke-linecap:butt;stroke-linejoin:miter;stroke-opacity:1" d="M 830.125,677.259 797.6,677.259 z" id="boundary" inkscape:connector-curvature="0" />
	<path style="fill:none;stroke:red;stroke-width:1px;stroke-linecap:butt;stroke-linejoin:miter;stroke-opacity:1" d="M 797.6,677.259 765.075,677.259 z" id="boundary" inkscape:connector-curvature="0" />
	<path style="fill:none;stroke:red;stroke-width:1px;stroke-linecap:butt;stroke-linejoin:miter;stroke-opacity:1" d="M 765.075,677.259 732.551,677.259 z" id="boundary" inkscape:connector-curvature="0" />
	<path style="fill:none;stroke:red;stroke-width:1px;stroke-linecap:butt;stroke-linejoin:miter;stroke-opacity:1" d="M 732.551,677.259 700.026,677.259 z" id="boundary" inkscape:connector-curvature="0" />
	<path style="fill:none;stroke:red;stroke-width:1px;stroke-linecap:butt;stroke-linejoin:miter;stroke-opacity:1" d="M 700.026,677.259 667.502,677.259 z" id="boundary" inkscape:connector-curvature="0" />
	<path style="fill:none;stroke:red;stroke-width:1px;stroke-linecap:butt;stroke-linejoin:miter;stroke-opacity:1" d="M 667.502,677.259 618.715,680.511 z" id="boundary" inkscape:connector-curvature="0" />
	<path style="fill:none;stroke:red;stroke-width:1px;stroke-linecap:butt;stroke-linejoin:miter;stroke-opacity:1" d="M 618.715,680.511 618.715,713.036 z" id="boundary" inkscape:connector-curvature="0" />
	<path style="fill:none;stroke:red;stroke-width:1px;stroke-linecap:butt;stroke-linejoin:miter;stroke-opacity:1" d="M 618.715,713.036 621.967,745.561 z" id="boundary" inkscape:connector-curvature="0" />
	<path style="fill:none;stroke:red;stroke-width:1px;stroke-linecap:butt;stroke-linejoin:miter;stroke-opacity:1" d="M 621.967,745.561 647.987,765.075 z" id="boundary" inkscape:connector-curvature="0" />
	<path style="fill:none;stroke:red;stroke-width:1px;stroke-linecap:butt;stroke-linejoin:miter;stroke-opacity:1" d="M 647.987,765.075 674.007,745.561 z" id="boundary" inkscape:connector-curvature="0" />
	<path style="fill:none;stroke:red;stroke-width:1px;stroke-linecap:butt;stroke-linejoin:miter;stroke-opacity:1" d="M 674.007,745.561 700.026,765.075 z" id="boundary" inkscape:connector-curvature="0" />
	<path style="fill:none;stroke:red;stroke-width:1px;stroke-linecap:butt;stroke-linejoin:miter;stroke-opacity:1" d="M 700.026,765.075 726.046,745.561 z" id="boundary" inkscape:connector-curvature="0" />
	<path style="fill:none;stroke:red;stroke-width:1px;stroke-linecap:butt;stroke-linejoin:miter;stroke-opacity:1" d="M 726.046,745.561 758.57,745.561 z" id="boundary" inkscape:connector-curvature="0" />
	<path style="fill:none;stroke:red;stroke-width:1px;stroke-linecap:butt;stroke-linejoin:miter;stroke-opacity:1" d="M 758.57,745.561 791.095,745.561 z" id="boundary" inkscape:connector-curvature="0" />
	<path style="fill:none;stroke:red;stroke-width:1px;stroke-linecap:butt;stroke-linejoin:miter;stroke-opacity:1" d="M 791.095,745.561 823.62,745.561 z" id="boundary" inkscape:connector-curvature="0" />
	<path style="fill:none;stroke:red;stroke-width:1px;stroke-linecap:butt;stroke-linejoin:miter;stroke-opacity:1" d="M 823.62,745.561 856.144,745.561 z" id="boundary" inkscape:connector-curvature="0" />
	<path style="fill:none;stroke:red;stroke-width:1px;stroke-linecap:butt;stroke-linejoin:miter;stroke-opacity:1" d="M 856.144,745.561 888.669,745.561 z" id="boundary" inkscape:connector-curvature="0" />
	<path style="fill:none;stroke:red;stroke-width:1px;stroke-linecap:butt;stroke-linejoin:miter;stroke-opacity:1" d="M 888.669,745.561 921.193,745.561 z" id="boundary" inkscape:connector-curvature="0" />
	<path style="fill:none;stroke:red;stroke-width:1px;stroke-linecap:butt;stroke-linejoin:miter;stroke-opacity:1" d="M 921.193,745.561 953.718,745.561 z" id="boundary" inkscape:connector-curvature="0" />
	<path style="fill:none;stroke:red;stroke-width:1px;stroke-linecap:butt;stroke-linejoin:miter;stroke-opacity:1" d="M 953.718,745.561 986.243,745.561 z" id="boundary" inkscape:connector-curvature="0" />
	<path style="fill:none;stroke:red;stroke-width:1px;stroke-linecap:butt;stroke-linejoin:miter;stroke-opacity:1" d="M 986.243,745.561 996,778.085 z" id="boundary" inkscape:connector-curvature="0" />
	<path style="fill:none;stroke:red;stroke-width:1px;stroke-linecap:butt;stroke-linejoin:miter;stroke-opacity:1" d="M 996,778.085 996,810.61 z" id="boundary" inkscape:connector-curvature="0" />
	<circle cx="4" cy="752.066" r="4" fill="#0" id="circle0"/>
	<circle cx="4" cy="784.59" r="4" fill="#0" id="circle1"/>
	<circle cx="20.2623" cy="813.862" r="4" fill="#0" id="circle2"/>
	<circle cx="36.5246" cy="745.561" r="4" fill="#0" id="circle3"/>
	<circle cx="52.7869" cy="823.62" r="4" fill="#0" id="circle4"/>
	<circle cx="56.0393" cy="550.413" r="4" fill="#0" id="circle5"/>
	<circle cx="56.0393" cy="647.987" r="4" fill="#0" id="circle6"/>
	<circle cx="69.0492" cy="745.561" r="4" fill="#0" id="circle7"/>
	<circle cx="72.3016" cy="677.259" r="4" fill="#0" id="circle8"/>
	<circle cx="82.059" cy="573.18" r="4" fill="#0" id="circle9"/>
	<circle cx="85.3115" cy="813.862" r="4" fill="#0" id="circle10"/>
	<circle cx="88.5639" cy="647.987" r="4" fill="#0" id="circle11"/>
	<circle cx="98.3213" cy="543.908" r="4" fill="#0" id="circle12"/>
	<circle cx="101.574" cy="745.561" r="4" fill="#0" id="circle13"/>
	<circle cx="104.826" cy="677.259" r="4" fill="#0" id="circle14"/>
	<circle cx="114.584" cy="573.18" r="4" fill="#0" id="circle15"/>
	<circle cx="117.836" cy="813.862" r="4" fill="#0" id="circle16"/>
	<circle cx="121.089" cy="647.987" r="4" fill="#0" id="circle17"/>
	<circle cx="127.593" cy="10.5049" r="4" fill="#0" id="circle18"/>
	<circle cx="127.593" cy="43.0295" r="4" fill="#0" id="circle19"/>
	<circle cx="127.593" cy="75.5541" r="4" fill="#0" id="circle20"/>
	<circle cx="127.593" cy="108.079" r="4" fill="#0" id="circle21"/>
	<circle cx="127.593" cy="140.603" r="4" fill="#0" id="circle22"/>
	<circle cx="127.593" cy="173.128" r="4" fill="#0" id="circle23"/>
	<circle cx="127.593" cy="205.652" r="4" fill="#0" id="circle24"/>
	<circle cx="127.593" cy="238.177" r="4" fill="#0" id="circle25"/>
	<circle cx="127.593" cy="270.702" r="4" fill="#0" id="circle26"/>
	<circle cx="127.593" cy="303.226" r="4" fill="#0" id="circle27"/>
	<circle cx="127.593" cy="335.751" r="4" fill="#0" id="circle28"/>
	<circle cx="127.593" cy="368.275" r="4" fill="#0" id="circle29"/>
	<circle cx="127.593" cy="400.8" r="4" fill="#0" id="circle30"/>
	<circle cx="130.846" cy="433.325" r="4" fill="#0" id="circle31"/>
	<circle cx="130.846" cy="543.908" r="4" fill="#0" id="circle32"/>
	<circle cx="134.098" cy="745.561" r="4" fill="#0" id="circle33"/>
	<circle cx="137.351" cy="677.259" r="4" fill="#0" id="circle34"/>
	<circle cx="147.108" cy="573.18" r="4" fill="#0" id="circle35"/>
	<circle cx="150.361" cy="813.862" r="4" fill="#0" id="circle36"/>
	<circle cx="153.613" cy="647.987" r="4" fill="#0" id="circle37"/>
	<circle cx="160.118" cy="4" r="4" fill="#0" id="circle38"/>
	<circle cx="163.37" cy="436.577" r="4" fill="#0" id="circle39"/>
	<circle cx="163.37" cy="543.908" r="4" fill="#0" id="circle40"/>
	<circle cx="166.623" cy="745.561" r="4" fill="#0" id="circle41"/>
	<circle cx="169.875" cy="677.259" r="4" fill="#0" id="circle42"/>
	<circle cx="179.633" cy="573.18" r="4" fill="#0" id="circle43"/>
	<circle cx="182.885" cy="813.862" r="4" fill="#0" id="circle44"/>
	<circle cx="186.138" cy="647.987" r="4" fill="#0" id="circle45"/>
	<circle cx="192.643" cy="4" r="4" fill="#0" id="circle46"/>
	<circle cx="195.895" cy="436.577" r="4" fill="#0" id="circle47"/>
	<circle cx="195.895" cy="543.908" r="4" fill="#0" id="circle48"/>
	<circle cx="199.148" cy="745.561" r="4" fill="#0" id="circle49"/>
	<circle cx="202.4" cy="677.259" r="4" fill="#0" id="circle50"/>
	<circle cx="212.157" cy="573.18" r="4" fill="#0" id="circle51"/>
	<circle cx="215.41" cy="813.862" r="4" fill="#0" id="circle52"/>
	<circle cx="218.662" cy="647.987" r="4" fill="#0" id="circle53"/>
	<circle cx="225.167" cy="4" r="4" fill="#0" id="circle54"/>
	<circle cx="228.42" cy="436.577" r="4" fill="#0" id="circle55"/>
	<circle cx="228.42" cy="543.908" r="4" fill="#0" id="circle56"/>
	<circle cx="231.672" cy="745.561" r="4" fill="#0" id="circle57"/>
	<circle cx="234.925" cy="677.259" r="4" fill="#0" id="circle58"/>
	<circle cx="244.682" cy="573.18" r="4" fill="#0" id="circle59"/>
	<circle cx="247.934" cy="813.862" r="4" fill="#0" id="circle60"/>
	<circle cx="251.187" cy="647.987" r="4" fill="#0" id="circle61"/>
	<circle cx="257.692" cy="4" r="4" fill="#0" id="circle62"/>
	<circle cx="260.944" cy="436.577" r="4" fill="#0" id="circle63"/>
	<circle cx="260.944" cy="543.908" r="4" fill="#0" id="circle64"/>
	<circle cx="264.197" cy="745.561" r="4" fill="#0" id="circle65"/>
	<circle cx="267.449" cy="677.259" r="4" fill="#0" id="circle66"/>
	<circle cx="277.207" cy="573.18" r="4" fill="#0" id="circle67"/>
	<circle cx="280.459" cy="813.862" r="4" fill="#0" id="circle68"/>
	<circle cx="283.711" cy="647.987" r="4" fill="#0" id="circle69"/>
	<circle cx="290.216" cy="4" r="4" fill="#0" id="circle70"/>
	<circle cx="293.469" cy="436.577" r="4" fill="#0" id="circle71"/>
	<circle cx="293.469" cy="543.908" r="4" fill="#0" id="circle72"/>
	<circle cx="296.721" cy="745.561" r="4" fill="#0" id="circle73"/>
	<circle cx="299.974" cy="677.259" r="4" fill="#0" id="circle74"/>
	<circle cx="309.731" cy="573.18" r="4" fill="#0" id="circle75"/>
	<circle cx="312.984" cy="813.862" r="4" fill="#0" id="circle76"/>
	<circle cx="316.236" cy="647.987" r="4" fill="#0" id="circle77"/>
	<circle cx="322.741" cy="4" r="4" fill="#0" id="circle78"/>
	<circle cx="322.741" cy="765.075" r="4" fill="#0" id="circle79"/>
	<circle cx="325.993" cy="436.577" r="4" fill="#0" id="circle80"/>
	<circle cx="325.993" cy="543.908" r="4" fill="#0" id="circle81"/>
	<circle cx="332.498" cy="677.259" r="4" fill="#0" id="circle82"/>
	<circle cx="342.256" cy="573.18" r="4" fill="#0" id="circle83"/>
	<circle cx="345.508" cy="813.862" r="4" fill="#0" id="circle84"/>
	<circle cx="348.761" cy="647.987" r="4" fill="#0" id="circle85"/>
	<circle cx="348.761" cy="745.561" r="4" fill="#0" id="circle86"/>
	<circle cx="355.266" cy="4" r="4" fill="#0" id="circle87"/>
	<circle cx="358.518" cy="436.577" r="4" fill="#0" id="circle88"/>
	<circle cx="358.518" cy="543.908" r="4" fill="#0" id="circle89"/>
	<circle cx="365.023" cy="677.259" r="4" fill="#0" id="circle90"/>
	<circle cx="374.78" cy="573.18" r="4" fill="#0" id="circle91"/>
	<circle cx="374.78" cy="765.075" r="4" fill="#0" id="circle92"/>
	<circle cx="378.033" cy="813.862" r="4" fill="#0" id="circle93"/>
	<circle cx="381.285" cy="647.987" r="4" fill="#0" id="circle94"/>
	<circle cx="387.79" cy="4" r="4" fill="#0" id="circle95"/>
	<circle cx="391.043" cy="436.577" r="4" fill="#0" id="circle96"/>
	<circle cx="391.043" cy="543.908" r="4" fill="#0" id="circle97"/>
	<circle cx="397.548" cy="677.259" r="4" fill="#0" id="circle98"/>
	<circle cx="400.8" cy="745.561" r="4" fill="#0" id="circle99"/>
	<circle cx="407.305" cy="573.18" r="4" fill="#0" id="circle100"/>
	<circle cx="410.557" cy="813.862" r="4" fill="#0" id="circle101"/>
	<circle cx="413.81" cy="647.987" r="4" fill="#0" id="circle102"/>
	<circle cx="420.315" cy="4" r="4" fill="#0" id="circle103"/>
	<circle cx="420.315" cy="452.839" r="4" fill="#0" id="circle104"/>
	<circle cx="420.315" cy="485.364" r="4" fill="#0" id="circle105"/>
	<circle cx="420.315" cy="517.889" r="4" fill="#0" id="circle106"/>
	<circle cx="420.315" cy="605.705" r="4" fill="#0" id="circle107"/>
	<circle cx="420.315" cy="703.279" r="4" fill="#0" id="circle108"/>
	<circle cx="443.082" cy="813.862" r="4" fill="#0" id="circle109"/>
	<circle cx="452.839" cy="4" r="4" fill="#0" id="circle110"/>
	<circle cx="475.607" cy="813.862" r="4" fill="#0" id="circle111"/>
	<circle cx="485.364" cy="4" r="4" fill="#0" id="circle112"/>
	<circle cx="508.131" cy="813.862" r="4" fill="#0" id="circle113"/>
	<circle cx="517.889" cy="4" r="4" fill="#0" id="circle114"/>
	<circle cx="540.656" cy="813.862" r="4" fill="#0" id="circle115"/>
	<circle cx="550.413" cy="4" r="4" fill="#0" id="circle116"/>
	<circle cx="573.18" cy="813.862" r="4" fill="#0" id="circle117"/>
	<circle cx="582.938" cy="4" r="4" fill="#0" id="circle118"/>
	<circle cx="605.705" cy="813.862" r="4" fill="#0" id="circle119"/>
	<circle cx="615.462" cy="4" r="4" fill="#0" id="circle120"/>
	<circle cx="618.715" cy="439.83" r="4" fill="#0" id="circle121"/>
	<circle cx="618.715" cy="472.354" r="4" fill="#0" id="circle122"/>
	<circle cx="618.715" cy="504.879" r="4" fill="#0" id="circle123"/>
	<circle cx="618.715" cy="537.403" r="4" fill="#0" id="circle124"/>
	<circle cx="618.715" cy="576.433" r="4" fill="#0" id="circle125"/>
	<circle cx="618.715" cy="608.957" r="4" fill="#0" id="circle126"/>
	<circle cx="618.715" cy="641.482" r="4" fill="#0" id="circle127"/>
	<circle cx="618.715" cy="680.511" r="4" fill="#0" id="circle128"/>
	<circle cx="618.715" cy="713.036" r="4" fill="#0" id="circle129"/>
	<circle cx="621.967" cy="745.561" r="4" fill="#0" id="circle130"/>
	<circle cx="638.23" cy="813.862" r="4" fill="#0" id="circle131"/>
	<circle cx="647.987" cy="4" r="4" fill="#0" id="circle132"/>
	<circle cx="647.987" cy="765.075" r="4" fill="#0" id="circle133"/>
	<circle cx="651.239" cy="436.577" r="4" fill="#0" id="circle134"/>
	<circle cx="651.239" cy="543.908" r="4" fill="#0" id="circle135"/>
	<circle cx="651.239" cy="647.987" r="4" fill="#0" id="circle136"/>
	<circle cx="667.502" cy="573.18" r="4" fill="#0" id="circle137"/>
	<circle cx="667.502" cy="677.259" r="4" fill="#0" id="circle138"/>
	<circle cx="670.754" cy="813.862" r="4" fill="#0" id="circle139"/>
	<circle cx="674.007" cy="745.561" r="4" fill="#0" id="circle140"/>
	<circle cx="680.511" cy="4" r="4" fill="#0" id="circle141"/>
	<circle cx="683.764" cy="436.577" r="4" fill="#0" id="circle142"/>
	<circle cx="683.764" cy="543.908" r="4" fill="#0" id="circle143"/>
	<circle cx="683.764" cy="647.987" r="4" fill="#0" id="circle144"/>
	<circle cx="700.026" cy="573.18" r="4" fill="#0" id="circle145"/>
	<circle cx="700.026" cy="677.259" r="4" fill="#0" id="circle146"/>
	<circle cx="700.026" cy="765.075" r="4" fill="#0" id="circle147"/>
	<circle cx="703.279" cy="813.862" r="4" fill="#0" id="circle148"/>
	<circle cx="713.036" cy="4" r="4" fill="#0" id="circle149"/>
	<circle cx="716.289" cy="436.577" r="4" fill="#0" id="circle150"/>
	<circle cx="716.289" cy="543.908" r="4" fill="#0" id="circle151"/>
	<circle cx="716.289" cy="647.987" r="4" fill="#0" id="circle152"/>
	<circle cx="726.046" cy="745.561" r="4" fill="#0" id="circle153"/>
	<circle cx="732.551" cy="573.18" r="4" fill="#0" id="circle154"/>
	<circle cx="732.551" cy="677.259" r="4" fill="#0" id="circle155"/>
	<circle cx="735.803" cy="813.862" r="4" fill="#0" id="circle156"/>
	<circle cx="745.561" cy="4" r="4" fill="#0" id="circle157"/>
	<circle cx="748.813" cy="436.577" r="4" fill="#0" id="circle158"/>
	<circle cx="748.813" cy="543.908" r="4" fill="#0" id="circle159"/>
	<circle cx="748.813" cy="647.987" r="4" fill="#0" id="circle160"/>
	<circle cx="758.57" cy="745.561" r="4" fill="#0" id="circle161"/>
	<circle cx="765.075" cy="573.18" r="4" fill="#0" id="circle162"/>
	<circle cx="765.075" cy="677.259" r="4" fill="#0" id="circle163"/>
	<circle cx="768.328" cy="813.862" r="4" fill="#0" id="circle164"/>
	<circle cx="778.085" cy="4" r="4" fill="#0" id="circle165"/>
	<circle cx="781.338" cy="436.577" r="4" fill="#0" id="circle166"/>
	<circle cx="781.338" cy="543.908" r="4" fill="#0" id="circle167"/>
	<circle cx="781.338" cy="647.987" r="4" fill="#0" id="circle168"/>
	<circle cx="791.095" cy="745.561" r="4" fill="#0" id="circle169"/>
	<circle cx="797.6" cy="573.18" r="4" fill="#0" id="circle170"/>
	<circle cx="797.6" cy="677.259" r="4" fill="#0" id="circle171"/>
	<circle cx="800.852" cy="813.862" r="4" fill="#0" id="circle172"/>
	<circle cx="810.61" cy="4" r="4" fill="#0" id="circle173"/>
	<circle cx="813.862" cy="436.577" r="4" fill="#0" id="circle174"/>
	<circle cx="813.862" cy="543.908" r="4" fill="#0" id="circle175"/>
	<circle cx="813.862" cy="647.987" r="4" fill="#0" id="circle176"/>
	<circle cx="823.62" cy="745.561" r="4" fill="#0" id="circle177"/>
	<circle cx="830.125" cy="573.18" r="4" fill="#0" id="circle178"/>
	<circle cx="830.125" cy="677.259" r="4" fill="#0" id="circle179"/>
	<circle cx="833.377" cy="813.862" r="4" fill="#0" id="circle180"/>
	<circle cx="843.134" cy="4" r="4" fill="#0" id="circle181"/>
	<circle cx="846.387" cy="436.577" r="4" fill="#0" id="circle182"/>
	<circle cx="846.387" cy="543.908" r="4" fill="#0" id="circle183"/>
	<circle cx="846.387" cy="647.987" r="4" fill="#0" id="circle184"/>
	<circle cx="856.144" cy="745.561" r="4" fill="#0" id="circle185"/>
	<circle cx="862.649" cy="573.18" r="4" fill="#0" id="circle186"/>
	<circle cx="862.649" cy="677.259" r="4" fill="#0" id="circle187"/>
	<circle cx="865.902" cy="813.862" r="4" fill="#0" id="circle188"/>
	<circle cx="875.659" cy="4" r="4" fill="#0" id="circle189"/>
	<circle cx="878.911" cy="433.325" r="4" fill="#0" id="circle190"/>
	<circle cx="878.911" cy="543.908" r="4" fill="#0" id="circle191"/>
	<circle cx="878.911" cy="647.987" r="4" fill="#0" id="circle192"/>
	<circle cx="885.416" cy="114.584" r="4" fill="#0" id="circle193"/>
	<circle cx="885.416" cy="147.108" r="4" fill="#0" id="circle194"/>
	<circle cx="885.416" cy="179.633" r="4" fill="#0" id="circle195"/>
	<circle cx="885.416" cy="212.157" r="4" fill="#0" id="circle196"/>
	<circle cx="885.416" cy="244.682" r="4" fill="#0" id="circle197"/>
	<circle cx="885.416" cy="277.207" r="4" fill="#0" id="circle198"/>
	<circle cx="885.416" cy="309.731" r="4" fill="#0" id="circle199"/>
	<circle cx="885.416" cy="342.256" r="4" fill="#0" id="circle200"/>
	<circle cx="885.416" cy="374.78" r="4" fill="#0" id="circle201"/>
	<circle cx="888.669" cy="745.561" r="4" fill="#0" id="circle202"/>
	<circle cx="891.921" cy="33.2721" r="4" fill="#0" id="circle203"/>
	<circle cx="891.921" cy="65.7967" r="4" fill="#0" id="circle204"/>
	<circle cx="895.174" cy="573.18" r="4" fill="#0" id="circle205"/>
	<circle cx="895.174" cy="677.259" r="4" fill="#0" id="circle206"/>
	<circle cx="898.426" cy="826.872" r="4" fill="#0" id="circle207"/>
	<circle cx="911.436" cy="543.908" r="4" fill="#0" id="circle208"/>
	<circle cx="911.436" cy="647.987" r="4" fill="#0" id="circle209"/>
	<circle cx="921.193" cy="745.561" r="4" fill="#0" id="circle210"/>
	<circle cx="930.951" cy="813.862" r="4" fill="#0" id="circle211"/>
	<circle cx="953.718" cy="745.561" r="4" fill="#0" id="circle212"/>
	<circle cx="963.475" cy="823.62" r="4" fill="#0" id="circle213"/>
	<circle cx="986.243" cy="745.561" r="4" fill="#0" id="circle214"/>
	<circle cx="996" cy="778.085" r="4" fill="#0" id="circle215"/>
	<circle cx="996" cy="810.61" r="4" fill="#0" id="circle216"/>
	</g>
</svg>