<?xml version="1.0" encoding="UTF-8" standalone="no"?>
<!-- Created with CurveBenchmark -->
<svg
	xmlns:dc="http://purl.org/dc/elements/1.1/"
	xmlns:cc="http://creativecommons.org/ns#"
	xmlns:rdf="http://www.w3.org/1999/02/22-rdf-syntax-ns#"
	xmlns:svg="http://www.w3.org/2000/svg"
	xmlns="http://www.w3.org/2000/svg"
	xmlns:sodipodi="http://sodipodi.sourceforge.net/DTD/sodipodi-0.dtd"
	xmlns:inkscape="http://www.inkscape.org/namespaces/inkscape"
	width="1000"
	height="1000"
	id="svg2"
	version="1.1"
	sodipodi:docname="manifold/connect2d-Misk20.png.txt">
<defs
	id="defs4" />
<metadata
	id="metadata7">
	<rdf:RDF>
		<cc:Work
			rdf:about="">
			<dc:format>image/svg+xml</dc:format>
			<dc:type
				rdf:resource="http://purl.org/dc/dcmitype/StillImage" />
			<dc:title></dc:title>
		</cc:Work>
	</rdf:RDF>
</metadata>
<g
	inkscape:label="Layer 1"
	inkscape:groupmode="layer"
	id="layer1">
	<path style="fill:none;stroke:red;stroke-width:1px;stroke-linecap:butt;stroke-linejoin:miter;stroke-opacity:1" d="M 835.833,324.333 832.389,350.167 z" id="boundary" inkscape:connector-curvature="0" />
	<path style="fill:none;stroke:red;stroke-width:1px;stroke-linecap:butt;stroke-linejoin:miter;stroke-opacity:1" d="M 832.389,350.167 832.389,367.389 z" id="boundary" inkscape:connector-curvature="0" />
	<path style="fill:none;stroke:red;stroke-width:1px;stroke-linecap:butt;stroke-linejoin:miter;stroke-opacity:1" d="M 832.389,367.389 820.333,381.167 z" id="boundary" inkscape:connector-curvature="0" />
	<path style="fill:none;stroke:red;stroke-width:1px;stroke-linecap:butt;stroke-linejoin:miter;stroke-opacity:1" d="M 820.333,381.167 806.556,393.222 z" id="boundary" inkscape:connector-curvature="0" />
	<path style="fill:none;stroke:red;stroke-width:1px;stroke-linecap:butt;stroke-linejoin:miter;stroke-opacity:1" d="M 806.556,393.222 789.333,401.833 z" id="boundary" inkscape:connector-curvature="0" />
	<path style="fill:none;stroke:red;stroke-width:1px;stroke-linecap:butt;stroke-linejoin:miter;stroke-opacity:1" d="M 789.333,401.833 775.556,419.056 z" id="boundary" inkscape:connector-curvature="0" />
	<path style="fill:none;stroke:red;stroke-width:1px;stroke-linecap:butt;stroke-linejoin:miter;stroke-opacity:1" d="M 775.556,419.056 760.056,427.667 z" id="boundary" inkscape:connector-curvature="0" />
	<path style="fill:none;stroke:red;stroke-width:1px;stroke-linecap:butt;stroke-linejoin:miter;stroke-opacity:1" d="M 760.056,427.667 744.556,436.278 z" id="boundary" inkscape:connector-curvature="0" />
	<path style="fill:none;stroke:red;stroke-width:1px;stroke-linecap:butt;stroke-linejoin:miter;stroke-opacity:1" d="M 744.556,436.278 729.056,444.889 z" id="boundary" inkscape:connector-curvature="0" />
	<path style="fill:none;stroke:red;stroke-width:1px;stroke-linecap:butt;stroke-linejoin:miter;stroke-opacity:1" d="M 729.056,444.889 729.056,462.111 z" id="boundary" inkscape:connector-curvature="0" />
	<path style="fill:none;stroke:red;stroke-width:1px;stroke-linecap:butt;stroke-linejoin:miter;stroke-opacity:1" d="M 729.056,462.111 737.667,477.611 z" id="boundary" inkscape:connector-curvature="0" />
	<path style="fill:none;stroke:red;stroke-width:1px;stroke-linecap:butt;stroke-linejoin:miter;stroke-opacity:1" d="M 737.667,477.611 737.667,494.833 z" id="boundary" inkscape:connector-curvature="0" />
	<path style="fill:none;stroke:red;stroke-width:1px;stroke-linecap:butt;stroke-linejoin:miter;stroke-opacity:1" d="M 737.667,494.833 751.444,505.167 z" id="boundary" inkscape:connector-curvature="0" />
	<path style="fill:none;stroke:red;stroke-width:1px;stroke-linecap:butt;stroke-linejoin:miter;stroke-opacity:1" d="M 751.444,505.167 758.333,522.389 z" id="boundary" inkscape:connector-curvature="0" />
	<path style="fill:none;stroke:red;stroke-width:1px;stroke-linecap:butt;stroke-linejoin:miter;stroke-opacity:1" d="M 758.333,522.389 772.111,534.444 z" id="boundary" inkscape:connector-curvature="0" />
	<path style="fill:none;stroke:red;stroke-width:1px;stroke-linecap:butt;stroke-linejoin:miter;stroke-opacity:1" d="M 772.111,534.444 784.167,548.222 z" id="boundary" inkscape:connector-curvature="0" />
	<path style="fill:none;stroke:red;stroke-width:1px;stroke-linecap:butt;stroke-linejoin:miter;stroke-opacity:1" d="M 784.167,548.222 797.944,560.278 z" id="boundary" inkscape:connector-curvature="0" />
	<path style="fill:none;stroke:red;stroke-width:1px;stroke-linecap:butt;stroke-linejoin:miter;stroke-opacity:1" d="M 797.944,560.278 810,574.056 z" id="boundary" inkscape:connector-curvature="0" />
	<path style="fill:none;stroke:red;stroke-width:1px;stroke-linecap:butt;stroke-linejoin:miter;stroke-opacity:1" d="M 810,574.056 818.611,589.556 z" id="boundary" inkscape:connector-curvature="0" />
	<path style="fill:none;stroke:red;stroke-width:1px;stroke-linecap:butt;stroke-linejoin:miter;stroke-opacity:1" d="M 818.611,589.556 830.667,603.333 z" id="boundary" inkscape:connector-curvature="0" />
	<path style="fill:none;stroke:red;stroke-width:1px;stroke-linecap:butt;stroke-linejoin:miter;stroke-opacity:1" d="M 830.667,603.333 832.389,620.556 z" id="boundary" inkscape:connector-curvature="0" />
	<path style="fill:none;stroke:red;stroke-width:1px;stroke-linecap:butt;stroke-linejoin:miter;stroke-opacity:1" d="M 832.389,620.556 832.389,637.778 z" id="boundary" inkscape:connector-curvature="0" />
	<path style="fill:none;stroke:red;stroke-width:1px;stroke-linecap:butt;stroke-linejoin:miter;stroke-opacity:1" d="M 832.389,637.778 832.389,660.167 z" id="boundary" inkscape:connector-curvature="0" />
	<path style="fill:none;stroke:red;stroke-width:1px;stroke-linecap:butt;stroke-linejoin:miter;stroke-opacity:1" d="M 832.389,660.167 832.389,677.389 z" id="boundary" inkscape:connector-curvature="0" />
	<path style="fill:none;stroke:red;stroke-width:1px;stroke-linecap:butt;stroke-linejoin:miter;stroke-opacity:1" d="M 832.389,677.389 827.222,701.5 z" id="boundary" inkscape:connector-curvature="0" />
	<path style="fill:none;stroke:red;stroke-width:1px;stroke-linecap:butt;stroke-linejoin:miter;stroke-opacity:1" d="M 827.222,701.5 818.611,718.722 z" id="boundary" inkscape:connector-curvature="0" />
	<path style="fill:none;stroke:red;stroke-width:1px;stroke-linecap:butt;stroke-linejoin:miter;stroke-opacity:1" d="M 818.611,718.722 801.389,727.333 z" id="boundary" inkscape:connector-curvature="0" />
	<path style="fill:none;stroke:red;stroke-width:1px;stroke-linecap:butt;stroke-linejoin:miter;stroke-opacity:1" d="M 801.389,727.333 784.167,729.056 z" id="boundary" inkscape:connector-curvature="0" />
	<path style="fill:none;stroke:red;stroke-width:1px;stroke-linecap:butt;stroke-linejoin:miter;stroke-opacity:1" d="M 784.167,729.056 766.944,729.056 z" id="boundary" inkscape:connector-curvature="0" />
	<path style="fill:none;stroke:red;stroke-width:1px;stroke-linecap:butt;stroke-linejoin:miter;stroke-opacity:1" d="M 766.944,729.056 751.444,720.444 z" id="boundary" inkscape:connector-curvature="0" />
	<path style="fill:none;stroke:red;stroke-width:1px;stroke-linecap:butt;stroke-linejoin:miter;stroke-opacity:1" d="M 751.444,720.444 734.222,720.444 z" id="boundary" inkscape:connector-curvature="0" />
	<path style="fill:none;stroke:red;stroke-width:1px;stroke-linecap:butt;stroke-linejoin:miter;stroke-opacity:1" d="M 734.222,720.444 718.722,711.833 z" id="boundary" inkscape:connector-curvature="0" />
	<path style="fill:none;stroke:red;stroke-width:1px;stroke-linecap:butt;stroke-linejoin:miter;stroke-opacity:1" d="M 718.722,711.833 703.222,703.222 z" id="boundary" inkscape:connector-curvature="0" />
	<path style="fill:none;stroke:red;stroke-width:1px;stroke-linecap:butt;stroke-linejoin:miter;stroke-opacity:1" d="M 703.222,703.222 686,698.056 z" id="boundary" inkscape:connector-curvature="0" />
	<path style="fill:none;stroke:red;stroke-width:1px;stroke-linecap:butt;stroke-linejoin:miter;stroke-opacity:1" d="M 686,698.056 668.778,694.611 z" id="boundary" inkscape:connector-curvature="0" />
	<path style="fill:none;stroke:red;stroke-width:1px;stroke-linecap:butt;stroke-linejoin:miter;stroke-opacity:1" d="M 668.778,694.611 653.278,686 z" id="boundary" inkscape:connector-curvature="0" />
	<path style="fill:none;stroke:red;stroke-width:1px;stroke-linecap:butt;stroke-linejoin:miter;stroke-opacity:1" d="M 653.278,686 636.056,686 z" id="boundary" inkscape:connector-curvature="0" />
	<path style="fill:none;stroke:red;stroke-width:1px;stroke-linecap:butt;stroke-linejoin:miter;stroke-opacity:1" d="M 636.056,686 620.556,677.389 z" id="boundary" inkscape:connector-curvature="0" />
	<path style="fill:none;stroke:red;stroke-width:1px;stroke-linecap:butt;stroke-linejoin:miter;stroke-opacity:1" d="M 620.556,677.389 605.056,686 z" id="boundary" inkscape:connector-curvature="0" />
	<path style="fill:none;stroke:red;stroke-width:1px;stroke-linecap:butt;stroke-linejoin:miter;stroke-opacity:1" d="M 605.056,686 587.833,691.167 z" id="boundary" inkscape:connector-curvature="0" />
	<path style="fill:none;stroke:red;stroke-width:1px;stroke-linecap:butt;stroke-linejoin:miter;stroke-opacity:1" d="M 587.833,691.167 570.611,699.778 z" id="boundary" inkscape:connector-curvature="0" />
	<path style="fill:none;stroke:red;stroke-width:1px;stroke-linecap:butt;stroke-linejoin:miter;stroke-opacity:1" d="M 570.611,699.778 556.833,711.833 z" id="boundary" inkscape:connector-curvature="0" />
	<path style="fill:none;stroke:red;stroke-width:1px;stroke-linecap:butt;stroke-linejoin:miter;stroke-opacity:1" d="M 556.833,711.833 544.778,725.611 z" id="boundary" inkscape:connector-curvature="0" />
	<path style="fill:none;stroke:red;stroke-width:1px;stroke-linecap:butt;stroke-linejoin:miter;stroke-opacity:1" d="M 544.778,725.611 531,737.667 z" id="boundary" inkscape:connector-curvature="0" />
	<path style="fill:none;stroke:red;stroke-width:1px;stroke-linecap:butt;stroke-linejoin:miter;stroke-opacity:1" d="M 531,737.667 522.389,763.5 z" id="boundary" inkscape:connector-curvature="0" />
	<path style="fill:none;stroke:red;stroke-width:1px;stroke-linecap:butt;stroke-linejoin:miter;stroke-opacity:1" d="M 522.389,763.5 531,779 z" id="boundary" inkscape:connector-curvature="0" />
	<path style="fill:none;stroke:red;stroke-width:1px;stroke-linecap:butt;stroke-linejoin:miter;stroke-opacity:1" d="M 531,779 546.5,787.611 z" id="boundary" inkscape:connector-curvature="0" />
	<path style="fill:none;stroke:red;stroke-width:1px;stroke-linecap:butt;stroke-linejoin:miter;stroke-opacity:1" d="M 546.5,787.611 563.722,787.611 z" id="boundary" inkscape:connector-curvature="0" />
	<path style="fill:none;stroke:red;stroke-width:1px;stroke-linecap:butt;stroke-linejoin:miter;stroke-opacity:1" d="M 563.722,787.611 579.222,796.222 z" id="boundary" inkscape:connector-curvature="0" />
	<path style="fill:none;stroke:red;stroke-width:1px;stroke-linecap:butt;stroke-linejoin:miter;stroke-opacity:1" d="M 579.222,796.222 596.444,796.222 z" id="boundary" inkscape:connector-curvature="0" />
	<path style="fill:none;stroke:red;stroke-width:1px;stroke-linecap:butt;stroke-linejoin:miter;stroke-opacity:1" d="M 596.444,796.222 611.944,804.833 z" id="boundary" inkscape:connector-curvature="0" />
	<path style="fill:none;stroke:red;stroke-width:1px;stroke-linecap:butt;stroke-linejoin:miter;stroke-opacity:1" d="M 611.944,804.833 629.167,804.833 z" id="boundary" inkscape:connector-curvature="0" />
	<path style="fill:none;stroke:red;stroke-width:1px;stroke-linecap:butt;stroke-linejoin:miter;stroke-opacity:1" d="M 629.167,804.833 644.667,813.444 z" id="boundary" inkscape:connector-curvature="0" />
	<path style="fill:none;stroke:red;stroke-width:1px;stroke-linecap:butt;stroke-linejoin:miter;stroke-opacity:1" d="M 644.667,813.444 661.889,813.444 z" id="boundary" inkscape:connector-curvature="0" />
	<path style="fill:none;stroke:red;stroke-width:1px;stroke-linecap:butt;stroke-linejoin:miter;stroke-opacity:1" d="M 661.889,813.444 677.389,822.056 z" id="boundary" inkscape:connector-curvature="0" />
	<path style="fill:none;stroke:red;stroke-width:1px;stroke-linecap:butt;stroke-linejoin:miter;stroke-opacity:1" d="M 677.389,822.056 692.889,830.667 z" id="boundary" inkscape:connector-curvature="0" />
	<path style="fill:none;stroke:red;stroke-width:1px;stroke-linecap:butt;stroke-linejoin:miter;stroke-opacity:1" d="M 692.889,830.667 710.111,830.667 z" id="boundary" inkscape:connector-curvature="0" />
	<path style="fill:none;stroke:red;stroke-width:1px;stroke-linecap:butt;stroke-linejoin:miter;stroke-opacity:1" d="M 710.111,830.667 725.611,839.278 z" id="boundary" inkscape:connector-curvature="0" />
	<path style="fill:none;stroke:red;stroke-width:1px;stroke-linecap:butt;stroke-linejoin:miter;stroke-opacity:1" d="M 725.611,839.278 741.111,847.889 z" id="boundary" inkscape:connector-curvature="0" />
	<path style="fill:none;stroke:red;stroke-width:1px;stroke-linecap:butt;stroke-linejoin:miter;stroke-opacity:1" d="M 741.111,847.889 756.611,856.5 z" id="boundary" inkscape:connector-curvature="0" />
	<path style="fill:none;stroke:red;stroke-width:1px;stroke-linecap:butt;stroke-linejoin:miter;stroke-opacity:1" d="M 756.611,856.5 770.389,868.556 z" id="boundary" inkscape:connector-curvature="0" />
	<path style="fill:none;stroke:red;stroke-width:1px;stroke-linecap:butt;stroke-linejoin:miter;stroke-opacity:1" d="M 770.389,868.556 780.722,882.333 z" id="boundary" inkscape:connector-curvature="0" />
	<path style="fill:none;stroke:red;stroke-width:1px;stroke-linecap:butt;stroke-linejoin:miter;stroke-opacity:1" d="M 780.722,882.333 766.944,908.167 z" id="boundary" inkscape:connector-curvature="0" />
	<path style="fill:none;stroke:red;stroke-width:1px;stroke-linecap:butt;stroke-linejoin:miter;stroke-opacity:1" d="M 766.944,908.167 749.722,916.778 z" id="boundary" inkscape:connector-curvature="0" />
	<path style="fill:none;stroke:red;stroke-width:1px;stroke-linecap:butt;stroke-linejoin:miter;stroke-opacity:1" d="M 749.722,916.778 732.5,925.389 z" id="boundary" inkscape:connector-curvature="0" />
	<path style="fill:none;stroke:red;stroke-width:1px;stroke-linecap:butt;stroke-linejoin:miter;stroke-opacity:1" d="M 732.5,925.389 718.722,935.722 z" id="boundary" inkscape:connector-curvature="0" />
	<path style="fill:none;stroke:red;stroke-width:1px;stroke-linecap:butt;stroke-linejoin:miter;stroke-opacity:1" d="M 718.722,935.722 703.222,944.333 z" id="boundary" inkscape:connector-curvature="0" />
	<path style="fill:none;stroke:red;stroke-width:1px;stroke-linecap:butt;stroke-linejoin:miter;stroke-opacity:1" d="M 703.222,944.333 686,944.333 z" id="boundary" inkscape:connector-curvature="0" />
	<path style="fill:none;stroke:red;stroke-width:1px;stroke-linecap:butt;stroke-linejoin:miter;stroke-opacity:1" d="M 686,944.333 668.778,952.944 z" id="boundary" inkscape:connector-curvature="0" />
	<path style="fill:none;stroke:red;stroke-width:1px;stroke-linecap:butt;stroke-linejoin:miter;stroke-opacity:1" d="M 668.778,952.944 651.556,961.556 z" id="boundary" inkscape:connector-curvature="0" />
	<path style="fill:none;stroke:red;stroke-width:1px;stroke-linecap:butt;stroke-linejoin:miter;stroke-opacity:1" d="M 651.556,961.556 634.333,970.167 z" id="boundary" inkscape:connector-curvature="0" />
	<path style="fill:none;stroke:red;stroke-width:1px;stroke-linecap:butt;stroke-linejoin:miter;stroke-opacity:1" d="M 634.333,970.167 617.111,978.778 z" id="boundary" inkscape:connector-curvature="0" />
	<path style="fill:none;stroke:red;stroke-width:1px;stroke-linecap:butt;stroke-linejoin:miter;stroke-opacity:1" d="M 617.111,978.778 599.889,978.778 z" id="boundary" inkscape:connector-curvature="0" />
	<path style="fill:none;stroke:red;stroke-width:1px;stroke-linecap:butt;stroke-linejoin:miter;stroke-opacity:1" d="M 599.889,978.778 582.667,987.389 z" id="boundary" inkscape:connector-curvature="0" />
	<path style="fill:none;stroke:red;stroke-width:1px;stroke-linecap:butt;stroke-linejoin:miter;stroke-opacity:1" d="M 582.667,987.389 565.444,987.389 z" id="boundary" inkscape:connector-curvature="0" />
	<path style="fill:none;stroke:red;stroke-width:1px;stroke-linecap:butt;stroke-linejoin:miter;stroke-opacity:1" d="M 565.444,987.389 549.944,996 z" id="boundary" inkscape:connector-curvature="0" />
	<path style="fill:none;stroke:red;stroke-width:1px;stroke-linecap:butt;stroke-linejoin:miter;stroke-opacity:1" d="M 549.944,996 532.722,996 z" id="boundary" inkscape:connector-curvature="0" />
	<path style="fill:none;stroke:red;stroke-width:1px;stroke-linecap:butt;stroke-linejoin:miter;stroke-opacity:1" d="M 532.722,996 515.5,996 z" id="boundary" inkscape:connector-curvature="0" />
	<path style="fill:none;stroke:red;stroke-width:1px;stroke-linecap:butt;stroke-linejoin:miter;stroke-opacity:1" d="M 515.5,996 498.278,992.556 z" id="boundary" inkscape:connector-curvature="0" />
	<path style="fill:none;stroke:red;stroke-width:1px;stroke-linecap:butt;stroke-linejoin:miter;stroke-opacity:1" d="M 498.278,992.556 481.056,994.278 z" id="boundary" inkscape:connector-curvature="0" />
	<path style="fill:none;stroke:red;stroke-width:1px;stroke-linecap:butt;stroke-linejoin:miter;stroke-opacity:1" d="M 481.056,994.278 465.556,985.667 z" id="boundary" inkscape:connector-curvature="0" />
	<path style="fill:none;stroke:red;stroke-width:1px;stroke-linecap:butt;stroke-linejoin:miter;stroke-opacity:1" d="M 465.556,985.667 448.333,987.389 z" id="boundary" inkscape:connector-curvature="0" />
	<path style="fill:none;stroke:red;stroke-width:1px;stroke-linecap:butt;stroke-linejoin:miter;stroke-opacity:1" d="M 448.333,987.389 436.278,973.611 z" id="boundary" inkscape:connector-curvature="0" />
	<path style="fill:none;stroke:red;stroke-width:1px;stroke-linecap:butt;stroke-linejoin:miter;stroke-opacity:1" d="M 436.278,973.611 419.056,970.167 z" id="boundary" inkscape:connector-curvature="0" />
	<path style="fill:none;stroke:red;stroke-width:1px;stroke-linecap:butt;stroke-linejoin:miter;stroke-opacity:1" d="M 419.056,970.167 403.556,961.556 z" id="boundary" inkscape:connector-curvature="0" />
	<path style="fill:none;stroke:red;stroke-width:1px;stroke-linecap:butt;stroke-linejoin:miter;stroke-opacity:1" d="M 403.556,961.556 388.056,952.944 z" id="boundary" inkscape:connector-curvature="0" />
	<path style="fill:none;stroke:red;stroke-width:1px;stroke-linecap:butt;stroke-linejoin:miter;stroke-opacity:1" d="M 388.056,952.944 370.833,951.222 z" id="boundary" inkscape:connector-curvature="0" />
	<path style="fill:none;stroke:red;stroke-width:1px;stroke-linecap:butt;stroke-linejoin:miter;stroke-opacity:1" d="M 370.833,951.222 353.611,944.333 z" id="boundary" inkscape:connector-curvature="0" />
	<path style="fill:none;stroke:red;stroke-width:1px;stroke-linecap:butt;stroke-linejoin:miter;stroke-opacity:1" d="M 353.611,944.333 338.111,935.722 z" id="boundary" inkscape:connector-curvature="0" />
	<path style="fill:none;stroke:red;stroke-width:1px;stroke-linecap:butt;stroke-linejoin:miter;stroke-opacity:1" d="M 338.111,935.722 322.611,927.111 z" id="boundary" inkscape:connector-curvature="0" />
	<path style="fill:none;stroke:red;stroke-width:1px;stroke-linecap:butt;stroke-linejoin:miter;stroke-opacity:1" d="M 322.611,927.111 305.389,927.111 z" id="boundary" inkscape:connector-curvature="0" />
	<path style="fill:none;stroke:red;stroke-width:1px;stroke-linecap:butt;stroke-linejoin:miter;stroke-opacity:1" d="M 305.389,927.111 289.889,918.5 z" id="boundary" inkscape:connector-curvature="0" />
	<path style="fill:none;stroke:red;stroke-width:1px;stroke-linecap:butt;stroke-linejoin:miter;stroke-opacity:1" d="M 289.889,918.5 272.667,918.5 z" id="boundary" inkscape:connector-curvature="0" />
	<path style="fill:none;stroke:red;stroke-width:1px;stroke-linecap:butt;stroke-linejoin:miter;stroke-opacity:1" d="M 272.667,918.5 255.444,913.333 z" id="boundary" inkscape:connector-curvature="0" />
	<path style="fill:none;stroke:red;stroke-width:1px;stroke-linecap:butt;stroke-linejoin:miter;stroke-opacity:1" d="M 255.444,913.333 241.667,901.278 z" id="boundary" inkscape:connector-curvature="0" />
	<path style="fill:none;stroke:red;stroke-width:1px;stroke-linecap:butt;stroke-linejoin:miter;stroke-opacity:1" d="M 241.667,901.278 227.889,890.944 z" id="boundary" inkscape:connector-curvature="0" />
	<path style="fill:none;stroke:red;stroke-width:1px;stroke-linecap:butt;stroke-linejoin:miter;stroke-opacity:1" d="M 227.889,890.944 219.278,875.444 z" id="boundary" inkscape:connector-curvature="0" />
	<path style="fill:none;stroke:red;stroke-width:1px;stroke-linecap:butt;stroke-linejoin:miter;stroke-opacity:1" d="M 219.278,875.444 205.5,865.111 z" id="boundary" inkscape:connector-curvature="0" />
	<path style="fill:none;stroke:red;stroke-width:1px;stroke-linecap:butt;stroke-linejoin:miter;stroke-opacity:1" d="M 205.5,865.111 198.611,847.889 z" id="boundary" inkscape:connector-curvature="0" />
	<path style="fill:none;stroke:red;stroke-width:1px;stroke-linecap:butt;stroke-linejoin:miter;stroke-opacity:1" d="M 198.611,847.889 190,832.389 z" id="boundary" inkscape:connector-curvature="0" />
	<path style="fill:none;stroke:red;stroke-width:1px;stroke-linecap:butt;stroke-linejoin:miter;stroke-opacity:1" d="M 190,832.389 177.944,818.611 z" id="boundary" inkscape:connector-curvature="0" />
	<path style="fill:none;stroke:red;stroke-width:1px;stroke-linecap:butt;stroke-linejoin:miter;stroke-opacity:1" d="M 177.944,818.611 169.333,803.111 z" id="boundary" inkscape:connector-curvature="0" />
	<path style="fill:none;stroke:red;stroke-width:1px;stroke-linecap:butt;stroke-linejoin:miter;stroke-opacity:1" d="M 169.333,803.111 159,789.333 z" id="boundary" inkscape:connector-curvature="0" />
	<path style="fill:none;stroke:red;stroke-width:1px;stroke-linecap:butt;stroke-linejoin:miter;stroke-opacity:1" d="M 159,789.333 143.5,780.722 z" id="boundary" inkscape:connector-curvature="0" />
	<path style="fill:none;stroke:red;stroke-width:1px;stroke-linecap:butt;stroke-linejoin:miter;stroke-opacity:1" d="M 143.5,780.722 126.278,780.722 z" id="boundary" inkscape:connector-curvature="0" />
	<path style="fill:none;stroke:red;stroke-width:1px;stroke-linecap:butt;stroke-linejoin:miter;stroke-opacity:1" d="M 126.278,780.722 110.778,789.333 z" id="boundary" inkscape:connector-curvature="0" />
	<path style="fill:none;stroke:red;stroke-width:1px;stroke-linecap:butt;stroke-linejoin:miter;stroke-opacity:1" d="M 110.778,789.333 95.2778,780.722 z" id="boundary" inkscape:connector-curvature="0" />
	<path style="fill:none;stroke:red;stroke-width:1px;stroke-linecap:butt;stroke-linejoin:miter;stroke-opacity:1" d="M 95.2778,780.722 90.1111,763.5 z" id="boundary" inkscape:connector-curvature="0" />
	<path style="fill:none;stroke:red;stroke-width:1px;stroke-linecap:butt;stroke-linejoin:miter;stroke-opacity:1" d="M 90.1111,763.5 76.3333,753.167 z" id="boundary" inkscape:connector-curvature="0" />
	<path style="fill:none;stroke:red;stroke-width:1px;stroke-linecap:butt;stroke-linejoin:miter;stroke-opacity:1" d="M 76.3333,753.167 69.4444,735.944 z" id="boundary" inkscape:connector-curvature="0" />
	<path style="fill:none;stroke:red;stroke-width:1px;stroke-linecap:butt;stroke-linejoin:miter;stroke-opacity:1" d="M 69.4444,735.944 55.6667,723.889 z" id="boundary" inkscape:connector-curvature="0" />
	<path style="fill:none;stroke:red;stroke-width:1px;stroke-linecap:butt;stroke-linejoin:miter;stroke-opacity:1" d="M 55.6667,723.889 55.6667,701.5 z" id="boundary" inkscape:connector-curvature="0" />
	<path style="fill:none;stroke:red;stroke-width:1px;stroke-linecap:butt;stroke-linejoin:miter;stroke-opacity:1" d="M 55.6667,701.5 47.0556,686 z" id="boundary" inkscape:connector-curvature="0" />
	<path style="fill:none;stroke:red;stroke-width:1px;stroke-linecap:butt;stroke-linejoin:miter;stroke-opacity:1" d="M 47.0556,686 47.0556,668.778 z" id="boundary" inkscape:connector-curvature="0" />
	<path style="fill:none;stroke:red;stroke-width:1px;stroke-linecap:butt;stroke-linejoin:miter;stroke-opacity:1" d="M 47.0556,668.778 47.0556,651.556 z" id="boundary" inkscape:connector-curvature="0" />
	<path style="fill:none;stroke:red;stroke-width:1px;stroke-linecap:butt;stroke-linejoin:miter;stroke-opacity:1" d="M 47.0556,651.556 38.4444,636.056 z" id="boundary" inkscape:connector-curvature="0" />
	<path style="fill:none;stroke:red;stroke-width:1px;stroke-linecap:butt;stroke-linejoin:miter;stroke-opacity:1" d="M 38.4444,636.056 38.4444,618.833 z" id="boundary" inkscape:connector-curvature="0" />
	<path style="fill:none;stroke:red;stroke-width:1px;stroke-linecap:butt;stroke-linejoin:miter;stroke-opacity:1" d="M 38.4444,618.833 29.8333,603.333 z" id="boundary" inkscape:connector-curvature="0" />
	<path style="fill:none;stroke:red;stroke-width:1px;stroke-linecap:butt;stroke-linejoin:miter;stroke-opacity:1" d="M 29.8333,603.333 29.8333,577.5 z" id="boundary" inkscape:connector-curvature="0" />
	<path style="fill:none;stroke:red;stroke-width:1px;stroke-linecap:butt;stroke-linejoin:miter;stroke-opacity:1" d="M 29.8333,577.5 29.8333,560.278 z" id="boundary" inkscape:connector-curvature="0" />
	<path style="fill:none;stroke:red;stroke-width:1px;stroke-linecap:butt;stroke-linejoin:miter;stroke-opacity:1" d="M 29.8333,560.278 38.4444,534.444 z" id="boundary" inkscape:connector-curvature="0" />
	<path style="fill:none;stroke:red;stroke-width:1px;stroke-linecap:butt;stroke-linejoin:miter;stroke-opacity:1" d="M 38.4444,534.444 38.4444,517.222 z" id="boundary" inkscape:connector-curvature="0" />
	<path style="fill:none;stroke:red;stroke-width:1px;stroke-linecap:butt;stroke-linejoin:miter;stroke-opacity:1" d="M 38.4444,517.222 47.0556,491.389 z" id="boundary" inkscape:connector-curvature="0" />
	<path style="fill:none;stroke:red;stroke-width:1px;stroke-linecap:butt;stroke-linejoin:miter;stroke-opacity:1" d="M 47.0556,491.389 55.6667,474.167 z" id="boundary" inkscape:connector-curvature="0" />
	<path style="fill:none;stroke:red;stroke-width:1px;stroke-linecap:butt;stroke-linejoin:miter;stroke-opacity:1" d="M 55.6667,474.167 69.4444,460.389 z" id="boundary" inkscape:connector-curvature="0" />
	<path style="fill:none;stroke:red;stroke-width:1px;stroke-linecap:butt;stroke-linejoin:miter;stroke-opacity:1" d="M 69.4444,460.389 78.0556,443.167 z" id="boundary" inkscape:connector-curvature="0" />
	<path style="fill:none;stroke:red;stroke-width:1px;stroke-linecap:butt;stroke-linejoin:miter;stroke-opacity:1" d="M 78.0556,443.167 95.2778,434.556 z" id="boundary" inkscape:connector-curvature="0" />
	<path style="fill:none;stroke:red;stroke-width:1px;stroke-linecap:butt;stroke-linejoin:miter;stroke-opacity:1" d="M 95.2778,434.556 112.5,434.556 z" id="boundary" inkscape:connector-curvature="0" />
	<path style="fill:none;stroke:red;stroke-width:1px;stroke-linecap:butt;stroke-linejoin:miter;stroke-opacity:1" d="M 112.5,434.556 129.722,434.556 z" id="boundary" inkscape:connector-curvature="0" />
	<path style="fill:none;stroke:red;stroke-width:1px;stroke-linecap:butt;stroke-linejoin:miter;stroke-opacity:1" d="M 129.722,434.556 146.944,434.556 z" id="boundary" inkscape:connector-curvature="0" />
	<path style="fill:none;stroke:red;stroke-width:1px;stroke-linecap:butt;stroke-linejoin:miter;stroke-opacity:1" d="M 146.944,434.556 164.167,434.556 z" id="boundary" inkscape:connector-curvature="0" />
	<path style="fill:none;stroke:red;stroke-width:1px;stroke-linecap:butt;stroke-linejoin:miter;stroke-opacity:1" d="M 164.167,434.556 181.389,434.556 z" id="boundary" inkscape:connector-curvature="0" />
	<path style="fill:none;stroke:red;stroke-width:1px;stroke-linecap:butt;stroke-linejoin:miter;stroke-opacity:1" d="M 181.389,434.556 198.611,434.556 z" id="boundary" inkscape:connector-curvature="0" />
	<path style="fill:none;stroke:red;stroke-width:1px;stroke-linecap:butt;stroke-linejoin:miter;stroke-opacity:1" d="M 198.611,434.556 215.833,434.556 z" id="boundary" inkscape:connector-curvature="0" />
	<path style="fill:none;stroke:red;stroke-width:1px;stroke-linecap:butt;stroke-linejoin:miter;stroke-opacity:1" d="M 215.833,434.556 233.056,434.556 z" id="boundary" inkscape:connector-curvature="0" />
	<path style="fill:none;stroke:red;stroke-width:1px;stroke-linecap:butt;stroke-linejoin:miter;stroke-opacity:1" d="M 233.056,434.556 250.278,425.944 z" id="boundary" inkscape:connector-curvature="0" />
	<path style="fill:none;stroke:red;stroke-width:1px;stroke-linecap:butt;stroke-linejoin:miter;stroke-opacity:1" d="M 250.278,425.944 262.333,405.278 z" id="boundary" inkscape:connector-curvature="0" />
	<path style="fill:none;stroke:red;stroke-width:1px;stroke-linecap:butt;stroke-linejoin:miter;stroke-opacity:1" d="M 262.333,405.278 270.944,388.056 z" id="boundary" inkscape:connector-curvature="0" />
	<path style="fill:none;stroke:red;stroke-width:1px;stroke-linecap:butt;stroke-linejoin:miter;stroke-opacity:1" d="M 270.944,388.056 279.556,370.833 z" id="boundary" inkscape:connector-curvature="0" />
	<path style="fill:none;stroke:red;stroke-width:1px;stroke-linecap:butt;stroke-linejoin:miter;stroke-opacity:1" d="M 279.556,370.833 276.111,350.167 z" id="boundary" inkscape:connector-curvature="0" />
	<path style="fill:none;stroke:red;stroke-width:1px;stroke-linecap:butt;stroke-linejoin:miter;stroke-opacity:1" d="M 276.111,350.167 260.611,341.556 z" id="boundary" inkscape:connector-curvature="0" />
	<path style="fill:none;stroke:red;stroke-width:1px;stroke-linecap:butt;stroke-linejoin:miter;stroke-opacity:1" d="M 260.611,341.556 243.389,341.556 z" id="boundary" inkscape:connector-curvature="0" />
	<path style="fill:none;stroke:red;stroke-width:1px;stroke-linecap:butt;stroke-linejoin:miter;stroke-opacity:1" d="M 243.389,341.556 227.889,332.944 z" id="boundary" inkscape:connector-curvature="0" />
	<path style="fill:none;stroke:red;stroke-width:1px;stroke-linecap:butt;stroke-linejoin:miter;stroke-opacity:1" d="M 227.889,332.944 210.667,332.944 z" id="boundary" inkscape:connector-curvature="0" />
	<path style="fill:none;stroke:red;stroke-width:1px;stroke-linecap:butt;stroke-linejoin:miter;stroke-opacity:1" d="M 210.667,332.944 193.444,332.944 z" id="boundary" inkscape:connector-curvature="0" />
	<path style="fill:none;stroke:red;stroke-width:1px;stroke-linecap:butt;stroke-linejoin:miter;stroke-opacity:1" d="M 193.444,332.944 176.222,332.944 z" id="boundary" inkscape:connector-curvature="0" />
	<path style="fill:none;stroke:red;stroke-width:1px;stroke-linecap:butt;stroke-linejoin:miter;stroke-opacity:1" d="M 176.222,332.944 159,332.944 z" id="boundary" inkscape:connector-curvature="0" />
	<path style="fill:none;stroke:red;stroke-width:1px;stroke-linecap:butt;stroke-linejoin:miter;stroke-opacity:1" d="M 159,332.944 141.778,332.944 z" id="boundary" inkscape:connector-curvature="0" />
	<path style="fill:none;stroke:red;stroke-width:1px;stroke-linecap:butt;stroke-linejoin:miter;stroke-opacity:1" d="M 141.778,332.944 124.556,332.944 z" id="boundary" inkscape:connector-curvature="0" />
	<path style="fill:none;stroke:red;stroke-width:1px;stroke-linecap:butt;stroke-linejoin:miter;stroke-opacity:1" d="M 124.556,332.944 107.333,332.944 z" id="boundary" inkscape:connector-curvature="0" />
	<path style="fill:none;stroke:red;stroke-width:1px;stroke-linecap:butt;stroke-linejoin:miter;stroke-opacity:1" d="M 107.333,332.944 90.1111,332.944 z" id="boundary" inkscape:connector-curvature="0" />
	<path style="fill:none;stroke:red;stroke-width:1px;stroke-linecap:butt;stroke-linejoin:miter;stroke-opacity:1" d="M 90.1111,332.944 72.8889,332.944 z" id="boundary" inkscape:connector-curvature="0" />
	<path style="fill:none;stroke:red;stroke-width:1px;stroke-linecap:butt;stroke-linejoin:miter;stroke-opacity:1" d="M 72.8889,332.944 55.6667,336.389 z" id="boundary" inkscape:connector-curvature="0" />
	<path style="fill:none;stroke:red;stroke-width:1px;stroke-linecap:butt;stroke-linejoin:miter;stroke-opacity:1" d="M 55.6667,336.389 38.4444,332.944 z" id="boundary" inkscape:connector-curvature="0" />
	<path style="fill:none;stroke:red;stroke-width:1px;stroke-linecap:butt;stroke-linejoin:miter;stroke-opacity:1" d="M 38.4444,332.944 21.2222,332.944 z" id="boundary" inkscape:connector-curvature="0" />
	<path style="fill:none;stroke:red;stroke-width:1px;stroke-linecap:butt;stroke-linejoin:miter;stroke-opacity:1" d="M 21.2222,332.944 4,327.778 z" id="boundary" inkscape:connector-curvature="0" />
	<path style="fill:none;stroke:red;stroke-width:1px;stroke-linecap:butt;stroke-linejoin:miter;stroke-opacity:1" d="M 4,327.778 17.7778,314 z" id="boundary" inkscape:connector-curvature="0" />
	<path style="fill:none;stroke:red;stroke-width:1px;stroke-linecap:butt;stroke-linejoin:miter;stroke-opacity:1" d="M 17.7778,314 35,305.389 z" id="boundary" inkscape:connector-curvature="0" />
	<path style="fill:none;stroke:red;stroke-width:1px;stroke-linecap:butt;stroke-linejoin:miter;stroke-opacity:1" d="M 35,305.389 38.4444,284.722 z" id="boundary" inkscape:connector-curvature="0" />
	<path style="fill:none;stroke:red;stroke-width:1px;stroke-linecap:butt;stroke-linejoin:miter;stroke-opacity:1" d="M 38.4444,284.722 38.4444,267.5 z" id="boundary" inkscape:connector-curvature="0" />
	<path style="fill:none;stroke:red;stroke-width:1px;stroke-linecap:butt;stroke-linejoin:miter;stroke-opacity:1" d="M 38.4444,267.5 47.0556,250.278 z" id="boundary" inkscape:connector-curvature="0" />
	<path style="fill:none;stroke:red;stroke-width:1px;stroke-linecap:butt;stroke-linejoin:miter;stroke-opacity:1" d="M 47.0556,250.278 55.6667,224.444 z" id="boundary" inkscape:connector-curvature="0" />
	<path style="fill:none;stroke:red;stroke-width:1px;stroke-linecap:butt;stroke-linejoin:miter;stroke-opacity:1" d="M 55.6667,224.444 69.4444,210.667 z" id="boundary" inkscape:connector-curvature="0" />
	<path style="fill:none;stroke:red;stroke-width:1px;stroke-linecap:butt;stroke-linejoin:miter;stroke-opacity:1" d="M 69.4444,210.667 78.0556,193.444 z" id="boundary" inkscape:connector-curvature="0" />
	<path style="fill:none;stroke:red;stroke-width:1px;stroke-linecap:butt;stroke-linejoin:miter;stroke-opacity:1" d="M 78.0556,193.444 91.8333,179.667 z" id="boundary" inkscape:connector-curvature="0" />
	<path style="fill:none;stroke:red;stroke-width:1px;stroke-linecap:butt;stroke-linejoin:miter;stroke-opacity:1" d="M 91.8333,179.667 105.611,167.611 z" id="boundary" inkscape:connector-curvature="0" />
	<path style="fill:none;stroke:red;stroke-width:1px;stroke-linecap:butt;stroke-linejoin:miter;stroke-opacity:1" d="M 105.611,167.611 117.667,153.833 z" id="boundary" inkscape:connector-curvature="0" />
	<path style="fill:none;stroke:red;stroke-width:1px;stroke-linecap:butt;stroke-linejoin:miter;stroke-opacity:1" d="M 117.667,153.833 131.444,141.778 z" id="boundary" inkscape:connector-curvature="0" />
	<path style="fill:none;stroke:red;stroke-width:1px;stroke-linecap:butt;stroke-linejoin:miter;stroke-opacity:1" d="M 131.444,141.778 143.5,128 z" id="boundary" inkscape:connector-curvature="0" />
	<path style="fill:none;stroke:red;stroke-width:1px;stroke-linecap:butt;stroke-linejoin:miter;stroke-opacity:1" d="M 143.5,128 157.278,115.944 z" id="boundary" inkscape:connector-curvature="0" />
	<path style="fill:none;stroke:red;stroke-width:1px;stroke-linecap:butt;stroke-linejoin:miter;stroke-opacity:1" d="M 157.278,115.944 172.778,107.333 z" id="boundary" inkscape:connector-curvature="0" />
	<path style="fill:none;stroke:red;stroke-width:1px;stroke-linecap:butt;stroke-linejoin:miter;stroke-opacity:1" d="M 172.778,107.333 181.389,90.1111 z" id="boundary" inkscape:connector-curvature="0" />
	<path style="fill:none;stroke:red;stroke-width:1px;stroke-linecap:butt;stroke-linejoin:miter;stroke-opacity:1" d="M 181.389,90.1111 198.611,81.5 z" id="boundary" inkscape:connector-curvature="0" />
	<path style="fill:none;stroke:red;stroke-width:1px;stroke-linecap:butt;stroke-linejoin:miter;stroke-opacity:1" d="M 198.611,81.5 212.389,67.7222 z" id="boundary" inkscape:connector-curvature="0" />
	<path style="fill:none;stroke:red;stroke-width:1px;stroke-linecap:butt;stroke-linejoin:miter;stroke-opacity:1" d="M 212.389,67.7222 229.611,59.1111 z" id="boundary" inkscape:connector-curvature="0" />
	<path style="fill:none;stroke:red;stroke-width:1px;stroke-linecap:butt;stroke-linejoin:miter;stroke-opacity:1" d="M 229.611,59.1111 243.389,47.0556 z" id="boundary" inkscape:connector-curvature="0" />
	<path style="fill:none;stroke:red;stroke-width:1px;stroke-linecap:butt;stroke-linejoin:miter;stroke-opacity:1" d="M 243.389,47.0556 258.889,38.4444 z" id="boundary" inkscape:connector-curvature="0" />
	<path style="fill:none;stroke:red;stroke-width:1px;stroke-linecap:butt;stroke-linejoin:miter;stroke-opacity:1" d="M 258.889,38.4444 276.111,29.8333 z" id="boundary" inkscape:connector-curvature="0" />
	<path style="fill:none;stroke:red;stroke-width:1px;stroke-linecap:butt;stroke-linejoin:miter;stroke-opacity:1" d="M 276.111,29.8333 293.333,21.2222 z" id="boundary" inkscape:connector-curvature="0" />
	<path style="fill:none;stroke:red;stroke-width:1px;stroke-linecap:butt;stroke-linejoin:miter;stroke-opacity:1" d="M 293.333,21.2222 310.556,12.6111 z" id="boundary" inkscape:connector-curvature="0" />
	<path style="fill:none;stroke:red;stroke-width:1px;stroke-linecap:butt;stroke-linejoin:miter;stroke-opacity:1" d="M 310.556,12.6111 327.778,12.6111 z" id="boundary" inkscape:connector-curvature="0" />
	<path style="fill:none;stroke:red;stroke-width:1px;stroke-linecap:butt;stroke-linejoin:miter;stroke-opacity:1" d="M 327.778,12.6111 343.278,4 z" id="boundary" inkscape:connector-curvature="0" />
	<path style="fill:none;stroke:red;stroke-width:1px;stroke-linecap:butt;stroke-linejoin:miter;stroke-opacity:1" d="M 343.278,4 360.5,4 z" id="boundary" inkscape:connector-curvature="0" />
	<path style="fill:none;stroke:red;stroke-width:1px;stroke-linecap:butt;stroke-linejoin:miter;stroke-opacity:1" d="M 360.5,4 377.722,4 z" id="boundary" inkscape:connector-curvature="0" />
	<path style="fill:none;stroke:red;stroke-width:1px;stroke-linecap:butt;stroke-linejoin:miter;stroke-opacity:1" d="M 377.722,4 394.944,4 z" id="boundary" inkscape:connector-curvature="0" />
	<path style="fill:none;stroke:red;stroke-width:1px;stroke-linecap:butt;stroke-linejoin:miter;stroke-opacity:1" d="M 394.944,4 410.444,12.6111 z" id="boundary" inkscape:connector-curvature="0" />
	<path style="fill:none;stroke:red;stroke-width:1px;stroke-linecap:butt;stroke-linejoin:miter;stroke-opacity:1" d="M 410.444,12.6111 427.667,9.16667 z" id="boundary" inkscape:connector-curvature="0" />
	<path style="fill:none;stroke:red;stroke-width:1px;stroke-linecap:butt;stroke-linejoin:miter;stroke-opacity:1" d="M 427.667,9.16667 444.889,12.6111 z" id="boundary" inkscape:connector-curvature="0" />
	<path style="fill:none;stroke:red;stroke-width:1px;stroke-linecap:butt;stroke-linejoin:miter;stroke-opacity:1" d="M 444.889,12.6111 462.111,12.6111 z" id="boundary" inkscape:connector-curvature="0" />
	<path style="fill:none;stroke:red;stroke-width:1px;stroke-linecap:butt;stroke-linejoin:miter;stroke-opacity:1" d="M 462.111,12.6111 477.611,21.2222 z" id="boundary" inkscape:connector-curvature="0" />
	<path style="fill:none;stroke:red;stroke-width:1px;stroke-linecap:butt;stroke-linejoin:miter;stroke-opacity:1" d="M 477.611,21.2222 494.833,24.6667 z" id="boundary" inkscape:connector-curvature="0" />
	<path style="fill:none;stroke:red;stroke-width:1px;stroke-linecap:butt;stroke-linejoin:miter;stroke-opacity:1" d="M 494.833,24.6667 512.056,29.8333 z" id="boundary" inkscape:connector-curvature="0" />
	<path style="fill:none;stroke:red;stroke-width:1px;stroke-linecap:butt;stroke-linejoin:miter;stroke-opacity:1" d="M 512.056,29.8333 525.833,40.1667 z" id="boundary" inkscape:connector-curvature="0" />
	<path style="fill:none;stroke:red;stroke-width:1px;stroke-linecap:butt;stroke-linejoin:miter;stroke-opacity:1" d="M 525.833,40.1667 539.611,52.2222 z" id="boundary" inkscape:connector-curvature="0" />
	<path style="fill:none;stroke:red;stroke-width:1px;stroke-linecap:butt;stroke-linejoin:miter;stroke-opacity:1" d="M 539.611,52.2222 555.111,60.8333 z" id="boundary" inkscape:connector-curvature="0" />
	<path style="fill:none;stroke:red;stroke-width:1px;stroke-linecap:butt;stroke-linejoin:miter;stroke-opacity:1" d="M 555.111,60.8333 568.889,72.8889 z" id="boundary" inkscape:connector-curvature="0" />
	<path style="fill:none;stroke:red;stroke-width:1px;stroke-linecap:butt;stroke-linejoin:miter;stroke-opacity:1" d="M 568.889,72.8889 580.944,86.6667 z" id="boundary" inkscape:connector-curvature="0" />
	<path style="fill:none;stroke:red;stroke-width:1px;stroke-linecap:butt;stroke-linejoin:miter;stroke-opacity:1" d="M 580.944,86.6667 594.722,98.7222 z" id="boundary" inkscape:connector-curvature="0" />
	<path style="fill:none;stroke:red;stroke-width:1px;stroke-linecap:butt;stroke-linejoin:miter;stroke-opacity:1" d="M 594.722,98.7222 610.222,107.333 z" id="boundary" inkscape:connector-curvature="0" />
	<path style="fill:none;stroke:red;stroke-width:1px;stroke-linecap:butt;stroke-linejoin:miter;stroke-opacity:1" d="M 610.222,107.333 624,119.389 z" id="boundary" inkscape:connector-curvature="0" />
	<path style="fill:none;stroke:red;stroke-width:1px;stroke-linecap:butt;stroke-linejoin:miter;stroke-opacity:1" d="M 624,119.389 634.333,133.167 z" id="boundary" inkscape:connector-curvature="0" />
	<path style="fill:none;stroke:red;stroke-width:1px;stroke-linecap:butt;stroke-linejoin:miter;stroke-opacity:1" d="M 634.333,133.167 651.556,138.333 z" id="boundary" inkscape:connector-curvature="0" />
	<path style="fill:none;stroke:red;stroke-width:1px;stroke-linecap:butt;stroke-linejoin:miter;stroke-opacity:1" d="M 651.556,138.333 665.333,150.389 z" id="boundary" inkscape:connector-curvature="0" />
	<path style="fill:none;stroke:red;stroke-width:1px;stroke-linecap:butt;stroke-linejoin:miter;stroke-opacity:1" d="M 665.333,150.389 680.833,159 z" id="boundary" inkscape:connector-curvature="0" />
	<path style="fill:none;stroke:red;stroke-width:1px;stroke-linecap:butt;stroke-linejoin:miter;stroke-opacity:1" d="M 680.833,159 698.056,159 z" id="boundary" inkscape:connector-curvature="0" />
	<path style="fill:none;stroke:red;stroke-width:1px;stroke-linecap:butt;stroke-linejoin:miter;stroke-opacity:1" d="M 698.056,159 715.278,150.389 z" id="boundary" inkscape:connector-curvature="0" />
	<path style="fill:none;stroke:red;stroke-width:1px;stroke-linecap:butt;stroke-linejoin:miter;stroke-opacity:1" d="M 715.278,150.389 732.5,150.389 z" id="boundary" inkscape:connector-curvature="0" />
	<path style="fill:none;stroke:red;stroke-width:1px;stroke-linecap:butt;stroke-linejoin:miter;stroke-opacity:1" d="M 732.5,150.389 749.722,141.778 z" id="boundary" inkscape:connector-curvature="0" />
	<path style="fill:none;stroke:red;stroke-width:1px;stroke-linecap:butt;stroke-linejoin:miter;stroke-opacity:1" d="M 749.722,141.778 766.944,141.778 z" id="boundary" inkscape:connector-curvature="0" />
	<path style="fill:none;stroke:red;stroke-width:1px;stroke-linecap:butt;stroke-linejoin:miter;stroke-opacity:1" d="M 766.944,141.778 784.167,133.167 z" id="boundary" inkscape:connector-curvature="0" />
	<path style="fill:none;stroke:red;stroke-width:1px;stroke-linecap:butt;stroke-linejoin:miter;stroke-opacity:1" d="M 784.167,133.167 799.667,141.778 z" id="boundary" inkscape:connector-curvature="0" />
	<path style="fill:none;stroke:red;stroke-width:1px;stroke-linecap:butt;stroke-linejoin:miter;stroke-opacity:1" d="M 799.667,141.778 815.167,150.389 z" id="boundary" inkscape:connector-curvature="0" />
	<path style="fill:none;stroke:red;stroke-width:1px;stroke-linecap:butt;stroke-linejoin:miter;stroke-opacity:1" d="M 815.167,150.389 815.167,177.944 z" id="boundary" inkscape:connector-curvature="0" />
	<path style="fill:none;stroke:red;stroke-width:1px;stroke-linecap:butt;stroke-linejoin:miter;stroke-opacity:1" d="M 815.167,177.944 806.556,203.778 z" id="boundary" inkscape:connector-curvature="0" />
	<path style="fill:none;stroke:red;stroke-width:1px;stroke-linecap:butt;stroke-linejoin:miter;stroke-opacity:1" d="M 806.556,203.778 803.111,226.167 z" id="boundary" inkscape:connector-curvature="0" />
	<path style="fill:none;stroke:red;stroke-width:1px;stroke-linecap:butt;stroke-linejoin:miter;stroke-opacity:1" d="M 803.111,226.167 789.333,238.222 z" id="boundary" inkscape:connector-curvature="0" />
	<path style="fill:none;stroke:red;stroke-width:1px;stroke-linecap:butt;stroke-linejoin:miter;stroke-opacity:1" d="M 789.333,238.222 780.722,255.444 z" id="boundary" inkscape:connector-curvature="0" />
	<path style="fill:none;stroke:red;stroke-width:1px;stroke-linecap:butt;stroke-linejoin:miter;stroke-opacity:1" d="M 780.722,255.444 789.333,270.944 z" id="boundary" inkscape:connector-curvature="0" />
	<path style="fill:none;stroke:red;stroke-width:1px;stroke-linecap:butt;stroke-linejoin:miter;stroke-opacity:1" d="M 789.333,270.944 803.111,281.278 z" id="boundary" inkscape:connector-curvature="0" />
	<path style="fill:none;stroke:red;stroke-width:1px;stroke-linecap:butt;stroke-linejoin:miter;stroke-opacity:1" d="M 803.111,281.278 815.167,295.056 z" id="boundary" inkscape:connector-curvature="0" />
	<path style="fill:none;stroke:red;stroke-width:1px;stroke-linecap:butt;stroke-linejoin:miter;stroke-opacity:1" d="M 815.167,295.056 823.778,310.556 z" id="boundary" inkscape:connector-curvature="0" />
	<path style="fill:none;stroke:red;stroke-width:1px;stroke-linecap:butt;stroke-linejoin:miter;stroke-opacity:1" d="M 823.778,310.556 835.833,324.333 z" id="boundary" inkscape:connector-curvature="0" />
	<circle cx="4" cy="327.778" r="4" fill="#0" id="circle0"/>
	<circle cx="17.7778" cy="314" r="4" fill="#0" id="circle1"/>
	<circle cx="21.2222" cy="332.944" r="4" fill="#0" id="circle2"/>
	<circle cx="29.8333" cy="560.278" r="4" fill="#0" id="circle3"/>
	<circle cx="29.8333" cy="577.5" r="4" fill="#0" id="circle4"/>
	<circle cx="29.8333" cy="603.333" r="4" fill="#0" id="circle5"/>
	<circle cx="35" cy="305.389" r="4" fill="#0" id="circle6"/>
	<circle cx="38.4444" cy="267.5" r="4" fill="#0" id="circle7"/>
	<circle cx="38.4444" cy="284.722" r="4" fill="#0" id="circle8"/>
	<circle cx="38.4444" cy="332.944" r="4" fill="#0" id="circle9"/>
	<circle cx="38.4444" cy="517.222" r="4" fill="#0" id="circle10"/>
	<circle cx="38.4444" cy="534.444" r="4" fill="#0" id="circle11"/>
	<circle cx="38.4444" cy="618.833" r="4" fill="#0" id="circle12"/>
	<circle cx="38.4444" cy="636.056" r="4" fill="#0" id="circle13"/>
	<circle cx="47.0556" cy="250.278" r="4" fill="#0" id="circle14"/>
	<circle cx="47.0556" cy="491.389" r="4" fill="#0" id="circle15"/>
	<circle cx="47.0556" cy="651.556" r="4" fill="#0" id="circle16"/>
	<circle cx="47.0556" cy="668.778" r="4" fill="#0" id="circle17"/>
	<circle cx="47.0556" cy="686" r="4" fill="#0" id="circle18"/>
	<circle cx="55.6667" cy="224.444" r="4" fill="#0" id="circle19"/>
	<circle cx="55.6667" cy="336.389" r="4" fill="#0" id="circle20"/>
	<circle cx="55.6667" cy="474.167" r="4" fill="#0" id="circle21"/>
	<circle cx="55.6667" cy="701.5" r="4" fill="#0" id="circle22"/>
	<circle cx="55.6667" cy="723.889" r="4" fill="#0" id="circle23"/>
	<circle cx="69.4444" cy="210.667" r="4" fill="#0" id="circle24"/>
	<circle cx="69.4444" cy="460.389" r="4" fill="#0" id="circle25"/>
	<circle cx="69.4444" cy="735.944" r="4" fill="#0" id="circle26"/>
	<circle cx="72.8889" cy="332.944" r="4" fill="#0" id="circle27"/>
	<circle cx="76.3333" cy="753.167" r="4" fill="#0" id="circle28"/>
	<circle cx="78.0556" cy="193.444" r="4" fill="#0" id="circle29"/>
	<circle cx="78.0556" cy="443.167" r="4" fill="#0" id="circle30"/>
	<circle cx="90.1111" cy="332.944" r="4" fill="#0" id="circle31"/>
	<circle cx="90.1111" cy="763.5" r="4" fill="#0" id="circle32"/>
	<circle cx="91.8333" cy="179.667" r="4" fill="#0" id="circle33"/>
	<circle cx="95.2778" cy="434.556" r="4" fill="#0" id="circle34"/>
	<circle cx="95.2778" cy="780.722" r="4" fill="#0" id="circle35"/>
	<circle cx="105.611" cy="167.611" r="4" fill="#0" id="circle36"/>
	<circle cx="107.333" cy="332.944" r="4" fill="#0" id="circle37"/>
	<circle cx="110.778" cy="789.333" r="4" fill="#0" id="circle38"/>
	<circle cx="112.5" cy="434.556" r="4" fill="#0" id="circle39"/>
	<circle cx="117.667" cy="153.833" r="4" fill="#0" id="circle40"/>
	<circle cx="124.556" cy="332.944" r="4" fill="#0" id="circle41"/>
	<circle cx="126.278" cy="780.722" r="4" fill="#0" id="circle42"/>
	<circle cx="129.722" cy="434.556" r="4" fill="#0" id="circle43"/>
	<circle cx="131.444" cy="141.778" r="4" fill="#0" id="circle44"/>
	<circle cx="141.778" cy="332.944" r="4" fill="#0" id="circle45"/>
	<circle cx="143.5" cy="128" r="4" fill="#0" id="circle46"/>
	<circle cx="143.5" cy="780.722" r="4" fill="#0" id="circle47"/>
	<circle cx="146.944" cy="434.556" r="4" fill="#0" id="circle48"/>
	<circle cx="157.278" cy="115.944" r="4" fill="#0" id="circle49"/>
	<circle cx="159" cy="332.944" r="4" fill="#0" id="circle50"/>
	<circle cx="159" cy="789.333" r="4" fill="#0" id="circle51"/>
	<circle cx="164.167" cy="434.556" r="4" fill="#0" id="circle52"/>
	<circle cx="169.333" cy="803.111" r="4" fill="#0" id="circle53"/>
	<circle cx="172.778" cy="107.333" r="4" fill="#0" id="circle54"/>
	<circle cx="176.222" cy="332.944" r="4" fill="#0" id="circle55"/>
	<circle cx="177.944" cy="818.611" r="4" fill="#0" id="circle56"/>
	<circle cx="181.389" cy="90.1111" r="4" fill="#0" id="circle57"/>
	<circle cx="181.389" cy="434.556" r="4" fill="#0" id="circle58"/>
	<circle cx="190" cy="832.389" r="4" fill="#0" id="circle59"/>
	<circle cx="193.444" cy="332.944" r="4" fill="#0" id="circle60"/>
	<circle cx="198.611" cy="81.5" r="4" fill="#0" id="circle61"/>
	<circle cx="198.611" cy="434.556" r="4" fill="#0" id="circle62"/>
	<circle cx="198.611" cy="847.889" r="4" fill="#0" id="circle63"/>
	<circle cx="205.5" cy="865.111" r="4" fill="#0" id="circle64"/>
	<circle cx="210.667" cy="332.944" r="4" fill="#0" id="circle65"/>
	<circle cx="212.389" cy="67.7222" r="4" fill="#0" id="circle66"/>
	<circle cx="215.833" cy="434.556" r="4" fill="#0" id="circle67"/>
	<circle cx="219.278" cy="875.444" r="4" fill="#0" id="circle68"/>
	<circle cx="227.889" cy="332.944" r="4" fill="#0" id="circle69"/>
	<circle cx="227.889" cy="890.944" r="4" fill="#0" id="circle70"/>
	<circle cx="229.611" cy="59.1111" r="4" fill="#0" id="circle71"/>
	<circle cx="233.056" cy="434.556" r="4" fill="#0" id="circle72"/>
	<circle cx="241.667" cy="901.278" r="4" fill="#0" id="circle73"/>
	<circle cx="243.389" cy="47.0556" r="4" fill="#0" id="circle74"/>
	<circle cx="243.389" cy="341.556" r="4" fill="#0" id="circle75"/>
	<circle cx="250.278" cy="425.944" r="4" fill="#0" id="circle76"/>
	<circle cx="255.444" cy="913.333" r="4" fill="#0" id="circle77"/>
	<circle cx="258.889" cy="38.4444" r="4" fill="#0" id="circle78"/>
	<circle cx="260.611" cy="341.556" r="4" fill="#0" id="circle79"/>
	<circle cx="262.333" cy="405.278" r="4" fill="#0" id="circle80"/>
	<circle cx="270.944" cy="388.056" r="4" fill="#0" id="circle81"/>
	<circle cx="272.667" cy="918.5" r="4" fill="#0" id="circle82"/>
	<circle cx="276.111" cy="29.8333" r="4" fill="#0" id="circle83"/>
	<circle cx="276.111" cy="350.167" r="4" fill="#0" id="circle84"/>
	<circle cx="279.556" cy="370.833" r="4" fill="#0" id="circle85"/>
	<circle cx="289.889" cy="918.5" r="4" fill="#0" id="circle86"/>
	<circle cx="293.333" cy="21.2222" r="4" fill="#0" id="circle87"/>
	<circle cx="305.389" cy="927.111" r="4" fill="#0" id="circle88"/>
	<circle cx="310.556" cy="12.6111" r="4" fill="#0" id="circle89"/>
	<circle cx="322.611" cy="927.111" r="4" fill="#0" id="circle90"/>
	<circle cx="327.778" cy="12.6111" r="4" fill="#0" id="circle91"/>
	<circle cx="338.111" cy="935.722" r="4" fill="#0" id="circle92"/>
	<circle cx="343.278" cy="4" r="4" fill="#0" id="circle93"/>
	<circle cx="353.611" cy="944.333" r="4" fill="#0" id="circle94"/>
	<circle cx="360.5" cy="4" r="4" fill="#0" id="circle95"/>
	<circle cx="370.833" cy="951.222" r="4" fill="#0" id="circle96"/>
	<circle cx="377.722" cy="4" r="4" fill="#0" id="circle97"/>
	<circle cx="388.056" cy="952.944" r="4" fill="#0" id="circle98"/>
	<circle cx="394.944" cy="4" r="4" fill="#0" id="circle99"/>
	<circle cx="403.556" cy="961.556" r="4" fill="#0" id="circle100"/>
	<circle cx="410.444" cy="12.6111" r="4" fill="#0" id="circle101"/>
	<circle cx="419.056" cy="970.167" r="4" fill="#0" id="circle102"/>
	<circle cx="427.667" cy="9.16667" r="4" fill="#0" id="circle103"/>
	<circle cx="436.278" cy="973.611" r="4" fill="#0" id="circle104"/>
	<circle cx="444.889" cy="12.6111" r="4" fill="#0" id="circle105"/>
	<circle cx="448.333" cy="987.389" r="4" fill="#0" id="circle106"/>
	<circle cx="462.111" cy="12.6111" r="4" fill="#0" id="circle107"/>
	<circle cx="465.556" cy="985.667" r="4" fill="#0" id="circle108"/>
	<circle cx="477.611" cy="21.2222" r="4" fill="#0" id="circle109"/>
	<circle cx="481.056" cy="994.278" r="4" fill="#0" id="circle110"/>
	<circle cx="494.833" cy="24.6667" r="4" fill="#0" id="circle111"/>
	<circle cx="498.278" cy="992.556" r="4" fill="#0" id="circle112"/>
	<circle cx="512.056" cy="29.8333" r="4" fill="#0" id="circle113"/>
	<circle cx="515.5" cy="996" r="4" fill="#0" id="circle114"/>
	<circle cx="522.389" cy="763.5" r="4" fill="#0" id="circle115"/>
	<circle cx="525.833" cy="40.1667" r="4" fill="#0" id="circle116"/>
	<circle cx="531" cy="737.667" r="4" fill="#0" id="circle117"/>
	<circle cx="531" cy="779" r="4" fill="#0" id="circle118"/>
	<circle cx="532.722" cy="996" r="4" fill="#0" id="circle119"/>
	<circle cx="539.611" cy="52.2222" r="4" fill="#0" id="circle120"/>
	<circle cx="544.778" cy="725.611" r="4" fill="#0" id="circle121"/>
	<circle cx="546.5" cy="787.611" r="4" fill="#0" id="circle122"/>
	<circle cx="549.944" cy="996" r="4" fill="#0" id="circle123"/>
	<circle cx="555.111" cy="60.8333" r="4" fill="#0" id="circle124"/>
	<circle cx="556.833" cy="711.833" r="4" fill="#0" id="circle125"/>
	<circle cx="563.722" cy="787.611" r="4" fill="#0" id="circle126"/>
	<circle cx="565.444" cy="987.389" r="4" fill="#0" id="circle127"/>
	<circle cx="568.889" cy="72.8889" r="4" fill="#0" id="circle128"/>
	<circle cx="570.611" cy="699.778" r="4" fill="#0" id="circle129"/>
	<circle cx="579.222" cy="796.222" r="4" fill="#0" id="circle130"/>
	<circle cx="580.944" cy="86.6667" r="4" fill="#0" id="circle131"/>
	<circle cx="582.667" cy="987.389" r="4" fill="#0" id="circle132"/>
	<circle cx="587.833" cy="691.167" r="4" fill="#0" id="circle133"/>
	<circle cx="594.722" cy="98.7222" r="4" fill="#0" id="circle134"/>
	<circle cx="596.444" cy="796.222" r="4" fill="#0" id="circle135"/>
	<circle cx="599.889" cy="978.778" r="4" fill="#0" id="circle136"/>
	<circle cx="605.056" cy="686" r="4" fill="#0" id="circle137"/>
	<circle cx="610.222" cy="107.333" r="4" fill="#0" id="circle138"/>
	<circle cx="611.944" cy="804.833" r="4" fill="#0" id="circle139"/>
	<circle cx="617.111" cy="978.778" r="4" fill="#0" id="circle140"/>
	<circle cx="620.556" cy="677.389" r="4" fill="#0" id="circle141"/>
	<circle cx="624" cy="119.389" r="4" fill="#0" id="circle142"/>
	<circle cx="629.167" cy="804.833" r="4" fill="#0" id="circle143"/>
	<circle cx="634.333" cy="133.167" r="4" fill="#0" id="circle144"/>
	<circle cx="634.333" cy="970.167" r="4" fill="#0" id="circle145"/>
	<circle cx="636.056" cy="686" r="4" fill="#0" id="circle146"/>
	<circle cx="644.667" cy="813.444" r="4" fill="#0" id="circle147"/>
	<circle cx="651.556" cy="138.333" r="4" fill="#0" id="circle148"/>
	<circle cx="651.556" cy="961.556" r="4" fill="#0" id="circle149"/>
	<circle cx="653.278" cy="686" r="4" fill="#0" id="circle150"/>
	<circle cx="661.889" cy="813.444" r="4" fill="#0" id="circle151"/>
	<circle cx="665.333" cy="150.389" r="4" fill="#0" id="circle152"/>
	<circle cx="668.778" cy="694.611" r="4" fill="#0" id="circle153"/>
	<circle cx="668.778" cy="952.944" r="4" fill="#0" id="circle154"/>
	<circle cx="677.389" cy="822.056" r="4" fill="#0" id="circle155"/>
	<circle cx="680.833" cy="159" r="4" fill="#0" id="circle156"/>
	<circle cx="686" cy="698.056" r="4" fill="#0" id="circle157"/>
	<circle cx="686" cy="944.333" r="4" fill="#0" id="circle158"/>
	<circle cx="692.889" cy="830.667" r="4" fill="#0" id="circle159"/>
	<circle cx="698.056" cy="159" r="4" fill="#0" id="circle160"/>
	<circle cx="703.222" cy="703.222" r="4" fill="#0" id="circle161"/>
	<circle cx="703.222" cy="944.333" r="4" fill="#0" id="circle162"/>
	<circle cx="710.111" cy="830.667" r="4" fill="#0" id="circle163"/>
	<circle cx="715.278" cy="150.389" r="4" fill="#0" id="circle164"/>
	<circle cx="718.722" cy="711.833" r="4" fill="#0" id="circle165"/>
	<circle cx="718.722" cy="935.722" r="4" fill="#0" id="circle166"/>
	<circle cx="725.611" cy="839.278" r="4" fill="#0" id="circle167"/>
	<circle cx="729.056" cy="444.889" r="4" fill="#0" id="circle168"/>
	<circle cx="729.056" cy="462.111" r="4" fill="#0" id="circle169"/>
	<circle cx="732.5" cy="150.389" r="4" fill="#0" id="circle170"/>
	<circle cx="732.5" cy="925.389" r="4" fill="#0" id="circle171"/>
	<circle cx="734.222" cy="720.444" r="4" fill="#0" id="circle172"/>
	<circle cx="737.667" cy="477.611" r="4" fill="#0" id="circle173"/>
	<circle cx="737.667" cy="494.833" r="4" fill="#0" id="circle174"/>
	<circle cx="741.111" cy="847.889" r="4" fill="#0" id="circle175"/>
	<circle cx="744.556" cy="436.278" r="4" fill="#0" id="circle176"/>
	<circle cx="749.722" cy="141.778" r="4" fill="#0" id="circle177"/>
	<circle cx="749.722" cy="916.778" r="4" fill="#0" id="circle178"/>
	<circle cx="751.444" cy="505.167" r="4" fill="#0" id="circle179"/>
	<circle cx="751.444" cy="720.444" r="4" fill="#0" id="circle180"/>
	<circle cx="756.611" cy="856.5" r="4" fill="#0" id="circle181"/>
	<circle cx="758.333" cy="522.389" r="4" fill="#0" id="circle182"/>
	<circle cx="760.056" cy="427.667" r="4" fill="#0" id="circle183"/>
	<circle cx="766.944" cy="141.778" r="4" fill="#0" id="circle184"/>
	<circle cx="766.944" cy="729.056" r="4" fill="#0" id="circle185"/>
	<circle cx="766.944" cy="908.167" r="4" fill="#0" id="circle186"/>
	<circle cx="770.389" cy="868.556" r="4" fill="#0" id="circle187"/>
	<circle cx="772.111" cy="534.444" r="4" fill="#0" id="circle188"/>
	<circle cx="775.556" cy="419.056" r="4" fill="#0" id="circle189"/>
	<circle cx="780.722" cy="255.444" r="4" fill="#0" id="circle190"/>
	<circle cx="780.722" cy="882.333" r="4" fill="#0" id="circle191"/>
	<circle cx="784.167" cy="133.167" r="4" fill="#0" id="circle192"/>
	<circle cx="784.167" cy="548.222" r="4" fill="#0" id="circle193"/>
	<circle cx="784.167" cy="729.056" r="4" fill="#0" id="circle194"/>
	<circle cx="789.333" cy="238.222" r="4" fill="#0" id="circle195"/>
	<circle cx="789.333" cy="270.944" r="4" fill="#0" id="circle196"/>
	<circle cx="789.333" cy="401.833" r="4" fill="#0" id="circle197"/>
	<circle cx="797.944" cy="560.278" r="4" fill="#0" id="circle198"/>
	<circle cx="799.667" cy="141.778" r="4" fill="#0" id="circle199"/>
	<circle cx="801.389" cy="727.333" r="4" fill="#0" id="circle200"/>
	<circle cx="803.111" cy="226.167" r="4" fill="#0" id="circle201"/>
	<circle cx="803.111" cy="281.278" r="4" fill="#0" id="circle202"/>
	<circle cx="806.556" cy="203.778" r="4" fill="#0" id="circle203"/>
	<circle cx="806.556" cy="393.222" r="4" fill="#0" id="circle204"/>
	<circle cx="810" cy="574.056" r="4" fill="#0" id="circle205"/>
	<circle cx="815.167" cy="150.389" r="4" fill="#0" id="circle206"/>
	<circle cx="815.167" cy="177.944" r="4" fill="#0" id="circle207"/>
	<circle cx="815.167" cy="295.056" r="4" fill="#0" id="circle208"/>
	<circle cx="818.611" cy="589.556" r="4" fill="#0" id="circle209"/>
	<circle cx="818.611" cy="718.722" r="4" fill="#0" id="circle210"/>
	<circle cx="820.333" cy="381.167" r="4" fill="#0" id="circle211"/>
	<circle cx="823.778" cy="310.556" r="4" fill="#0" id="circle212"/>
	<circle cx="827.222" cy="701.5" r="4" fill="#0" id="circle213"/>
	<circle cx="830.667" cy="603.333" r="4" fill="#0" id="circle214"/>
	<circle cx="832.389" cy="350.167" r="4" fill="#0" id="circle215"/>
	<circle cx="832.389" cy="367.389" r="4" fill="#0" id="circle216"/>
	<circle cx="832.389" cy="620.556" r="4" fill="#0" id="circle217"/>
	<circle cx="832.389" cy="637.778" r="4" fill="#0" id="circle218"/>
	<circle cx="832.389" cy="660.167" r="4" fill="#0" id="circle219"/>
	<circle cx="832.389" cy="677.389" r="4" fill="#0" id="circle220"/>
	<circle cx="835.833" cy="324.333" r="4" fill="#0" id="circle221"/>
	</g>
</svg>