<?xml version="1.0" encoding="UTF-8" standalone="no"?>
<!-- Created with CurveBenchmark -->
<svg
	xmlns:dc="http://purl.org/dc/elements/1.1/"
	xmlns:cc="http://creativecommons.org/ns#"
	xmlns:rdf="http://www.w3.org/1999/02/22-rdf-syntax-ns#"
	xmlns:svg="http://www.w3.org/2000/svg"
	xmlns="http://www.w3.org/2000/svg"
	xmlns:sodipodi="http://sodipodi.sourceforge.net/DTD/sodipodi-0.dtd"
	xmlns:inkscape="http://www.inkscape.org/namespaces/inkscape"
	width="1000"
	height="1000"
	id="svg2"
	version="1.1"
	sodipodi:docname="manifold/connect2d-brick-02.png.txt">
<defs
	id="defs4" />
<metadata
	id="metadata7">
	<rdf:RDF>
		<cc:Work
			rdf:about="">
			<dc:format>image/svg+xml</dc:format>
			<dc:type
				rdf:resource="http://purl.org/dc/dcmitype/StillImage" />
			<dc:title></dc:title>
		</cc:Work>
	</rdf:RDF>
</metadata>
<g
	inkscape:label="Layer 1"
	inkscape:groupmode="layer"
	id="layer1">
	<path style="fill:none;stroke:red;stroke-width:1px;stroke-linecap:butt;stroke-linejoin:miter;stroke-opacity:1" d="M 996,202.228 989.993,215.1 z" id="boundary" inkscape:connector-curvature="0" />
	<path style="fill:none;stroke:red;stroke-width:1px;stroke-linecap:butt;stroke-linejoin:miter;stroke-opacity:1" d="M 989.993,215.1 982.27,219.391 z" id="boundary" inkscape:connector-curvature="0" />
	<path style="fill:none;stroke:red;stroke-width:1px;stroke-linecap:butt;stroke-linejoin:miter;stroke-opacity:1" d="M 982.27,219.391 974.547,223.682 z" id="boundary" inkscape:connector-curvature="0" />
	<path style="fill:none;stroke:red;stroke-width:1px;stroke-linecap:butt;stroke-linejoin:miter;stroke-opacity:1" d="M 974.547,223.682 972.83,239.128 z" id="boundary" inkscape:connector-curvature="0" />
	<path style="fill:none;stroke:red;stroke-width:1px;stroke-linecap:butt;stroke-linejoin:miter;stroke-opacity:1" d="M 972.83,239.128 968.54,247.709 z" id="boundary" inkscape:connector-curvature="0" />
	<path style="fill:none;stroke:red;stroke-width:1px;stroke-linecap:butt;stroke-linejoin:miter;stroke-opacity:1" d="M 968.54,247.709 961.675,253.716 z" id="boundary" inkscape:connector-curvature="0" />
	<path style="fill:none;stroke:red;stroke-width:1px;stroke-linecap:butt;stroke-linejoin:miter;stroke-opacity:1" d="M 961.675,253.716 957.384,262.298 z" id="boundary" inkscape:connector-curvature="0" />
	<path style="fill:none;stroke:red;stroke-width:1px;stroke-linecap:butt;stroke-linejoin:miter;stroke-opacity:1" d="M 957.384,262.298 953.093,275.17 z" id="boundary" inkscape:connector-curvature="0" />
	<path style="fill:none;stroke:red;stroke-width:1px;stroke-linecap:butt;stroke-linejoin:miter;stroke-opacity:1" d="M 953.093,275.17 947.087,286.325 z" id="boundary" inkscape:connector-curvature="0" />
	<path style="fill:none;stroke:red;stroke-width:1px;stroke-linecap:butt;stroke-linejoin:miter;stroke-opacity:1" d="M 947.087,286.325 942.796,294.907 z" id="boundary" inkscape:connector-curvature="0" />
	<path style="fill:none;stroke:red;stroke-width:1px;stroke-linecap:butt;stroke-linejoin:miter;stroke-opacity:1" d="M 942.796,294.907 934.215,299.197 z" id="boundary" inkscape:connector-curvature="0" />
	<path style="fill:none;stroke:red;stroke-width:1px;stroke-linecap:butt;stroke-linejoin:miter;stroke-opacity:1" d="M 934.215,299.197 927.349,305.204 z" id="boundary" inkscape:connector-curvature="0" />
	<path style="fill:none;stroke:red;stroke-width:1px;stroke-linecap:butt;stroke-linejoin:miter;stroke-opacity:1" d="M 927.349,305.204 921.343,312.069 z" id="boundary" inkscape:connector-curvature="0" />
	<path style="fill:none;stroke:red;stroke-width:1px;stroke-linecap:butt;stroke-linejoin:miter;stroke-opacity:1" d="M 921.343,312.069 914.478,318.076 z" id="boundary" inkscape:connector-curvature="0" />
	<path style="fill:none;stroke:red;stroke-width:1px;stroke-linecap:butt;stroke-linejoin:miter;stroke-opacity:1" d="M 914.478,318.076 910.187,326.657 z" id="boundary" inkscape:connector-curvature="0" />
	<path style="fill:none;stroke:red;stroke-width:1px;stroke-linecap:butt;stroke-linejoin:miter;stroke-opacity:1" d="M 910.187,326.657 910.187,335.239 z" id="boundary" inkscape:connector-curvature="0" />
	<path style="fill:none;stroke:red;stroke-width:1px;stroke-linecap:butt;stroke-linejoin:miter;stroke-opacity:1" d="M 910.187,335.239 910.187,343.82 z" id="boundary" inkscape:connector-curvature="0" />
	<path style="fill:none;stroke:red;stroke-width:1px;stroke-linecap:butt;stroke-linejoin:miter;stroke-opacity:1" d="M 910.187,343.82 910.187,352.401 z" id="boundary" inkscape:connector-curvature="0" />
	<path style="fill:none;stroke:red;stroke-width:1px;stroke-linecap:butt;stroke-linejoin:miter;stroke-opacity:1" d="M 910.187,352.401 910.187,360.983 z" id="boundary" inkscape:connector-curvature="0" />
	<path style="fill:none;stroke:red;stroke-width:1px;stroke-linecap:butt;stroke-linejoin:miter;stroke-opacity:1" d="M 910.187,360.983 911.903,369.564 z" id="boundary" inkscape:connector-curvature="0" />
	<path style="fill:none;stroke:red;stroke-width:1px;stroke-linecap:butt;stroke-linejoin:miter;stroke-opacity:1" d="M 911.903,369.564 918.768,375.571 z" id="boundary" inkscape:connector-curvature="0" />
	<path style="fill:none;stroke:red;stroke-width:1px;stroke-linecap:butt;stroke-linejoin:miter;stroke-opacity:1" d="M 918.768,375.571 923.059,383.294 z" id="boundary" inkscape:connector-curvature="0" />
	<path style="fill:none;stroke:red;stroke-width:1px;stroke-linecap:butt;stroke-linejoin:miter;stroke-opacity:1" d="M 923.059,383.294 925.633,391.875 z" id="boundary" inkscape:connector-curvature="0" />
	<path style="fill:none;stroke:red;stroke-width:1px;stroke-linecap:butt;stroke-linejoin:miter;stroke-opacity:1" d="M 925.633,391.875 920.484,398.74 z" id="boundary" inkscape:connector-curvature="0" />
	<path style="fill:none;stroke:red;stroke-width:1px;stroke-linecap:butt;stroke-linejoin:miter;stroke-opacity:1" d="M 920.484,398.74 913.619,403.889 z" id="boundary" inkscape:connector-curvature="0" />
	<path style="fill:none;stroke:red;stroke-width:1px;stroke-linecap:butt;stroke-linejoin:miter;stroke-opacity:1" d="M 913.619,403.889 905.896,408.18 z" id="boundary" inkscape:connector-curvature="0" />
	<path style="fill:none;stroke:red;stroke-width:1px;stroke-linecap:butt;stroke-linejoin:miter;stroke-opacity:1" d="M 905.896,408.18 897.315,408.18 z" id="boundary" inkscape:connector-curvature="0" />
	<path style="fill:none;stroke:red;stroke-width:1px;stroke-linecap:butt;stroke-linejoin:miter;stroke-opacity:1" d="M 897.315,408.18 888.734,412.471 z" id="boundary" inkscape:connector-curvature="0" />
	<path style="fill:none;stroke:red;stroke-width:1px;stroke-linecap:butt;stroke-linejoin:miter;stroke-opacity:1" d="M 888.734,412.471 881.01,416.761 z" id="boundary" inkscape:connector-curvature="0" />
	<path style="fill:none;stroke:red;stroke-width:1px;stroke-linecap:butt;stroke-linejoin:miter;stroke-opacity:1" d="M 881.01,416.761 873.287,421.052 z" id="boundary" inkscape:connector-curvature="0" />
	<path style="fill:none;stroke:red;stroke-width:1px;stroke-linecap:butt;stroke-linejoin:miter;stroke-opacity:1" d="M 873.287,421.052 864.706,424.484 z" id="boundary" inkscape:connector-curvature="0" />
	<path style="fill:none;stroke:red;stroke-width:1px;stroke-linecap:butt;stroke-linejoin:miter;stroke-opacity:1" d="M 864.706,424.484 856.125,425.343 z" id="boundary" inkscape:connector-curvature="0" />
	<path style="fill:none;stroke:red;stroke-width:1px;stroke-linecap:butt;stroke-linejoin:miter;stroke-opacity:1" d="M 856.125,425.343 848.401,429.633 z" id="boundary" inkscape:connector-curvature="0" />
	<path style="fill:none;stroke:red;stroke-width:1px;stroke-linecap:butt;stroke-linejoin:miter;stroke-opacity:1" d="M 848.401,429.633 839.82,432.208 z" id="boundary" inkscape:connector-curvature="0" />
	<path style="fill:none;stroke:red;stroke-width:1px;stroke-linecap:butt;stroke-linejoin:miter;stroke-opacity:1" d="M 839.82,432.208 831.239,433.924 z" id="boundary" inkscape:connector-curvature="0" />
	<path style="fill:none;stroke:red;stroke-width:1px;stroke-linecap:butt;stroke-linejoin:miter;stroke-opacity:1" d="M 831.239,433.924 822.657,433.924 z" id="boundary" inkscape:connector-curvature="0" />
	<path style="fill:none;stroke:red;stroke-width:1px;stroke-linecap:butt;stroke-linejoin:miter;stroke-opacity:1" d="M 822.657,433.924 814.934,438.215 z" id="boundary" inkscape:connector-curvature="0" />
	<path style="fill:none;stroke:red;stroke-width:1px;stroke-linecap:butt;stroke-linejoin:miter;stroke-opacity:1" d="M 814.934,438.215 806.353,438.215 z" id="boundary" inkscape:connector-curvature="0" />
	<path style="fill:none;stroke:red;stroke-width:1px;stroke-linecap:butt;stroke-linejoin:miter;stroke-opacity:1" d="M 806.353,438.215 797.772,438.215 z" id="boundary" inkscape:connector-curvature="0" />
	<path style="fill:none;stroke:red;stroke-width:1px;stroke-linecap:butt;stroke-linejoin:miter;stroke-opacity:1" d="M 797.772,438.215 789.19,439.931 z" id="boundary" inkscape:connector-curvature="0" />
	<path style="fill:none;stroke:red;stroke-width:1px;stroke-linecap:butt;stroke-linejoin:miter;stroke-opacity:1" d="M 789.19,439.931 780.609,442.505 z" id="boundary" inkscape:connector-curvature="0" />
	<path style="fill:none;stroke:red;stroke-width:1px;stroke-linecap:butt;stroke-linejoin:miter;stroke-opacity:1" d="M 780.609,442.505 772.028,439.931 z" id="boundary" inkscape:connector-curvature="0" />
	<path style="fill:none;stroke:red;stroke-width:1px;stroke-linecap:butt;stroke-linejoin:miter;stroke-opacity:1" d="M 772.028,439.931 764.304,435.64 z" id="boundary" inkscape:connector-curvature="0" />
	<path style="fill:none;stroke:red;stroke-width:1px;stroke-linecap:butt;stroke-linejoin:miter;stroke-opacity:1" d="M 764.304,435.64 755.723,432.208 z" id="boundary" inkscape:connector-curvature="0" />
	<path style="fill:none;stroke:red;stroke-width:1px;stroke-linecap:butt;stroke-linejoin:miter;stroke-opacity:1" d="M 755.723,432.208 750.574,425.343 z" id="boundary" inkscape:connector-curvature="0" />
	<path style="fill:none;stroke:red;stroke-width:1px;stroke-linecap:butt;stroke-linejoin:miter;stroke-opacity:1" d="M 750.574,425.343 742.851,421.052 z" id="boundary" inkscape:connector-curvature="0" />
	<path style="fill:none;stroke:red;stroke-width:1px;stroke-linecap:butt;stroke-linejoin:miter;stroke-opacity:1" d="M 742.851,421.052 735.986,415.903 z" id="boundary" inkscape:connector-curvature="0" />
	<path style="fill:none;stroke:red;stroke-width:1px;stroke-linecap:butt;stroke-linejoin:miter;stroke-opacity:1" d="M 735.986,415.903 729.121,409.896 z" id="boundary" inkscape:connector-curvature="0" />
	<path style="fill:none;stroke:red;stroke-width:1px;stroke-linecap:butt;stroke-linejoin:miter;stroke-opacity:1" d="M 729.121,409.896 723.114,403.031 z" id="boundary" inkscape:connector-curvature="0" />
	<path style="fill:none;stroke:red;stroke-width:1px;stroke-linecap:butt;stroke-linejoin:miter;stroke-opacity:1" d="M 723.114,403.031 714.533,399.599 z" id="boundary" inkscape:connector-curvature="0" />
	<path style="fill:none;stroke:red;stroke-width:1px;stroke-linecap:butt;stroke-linejoin:miter;stroke-opacity:1" d="M 714.533,399.599 708.526,392.734 z" id="boundary" inkscape:connector-curvature="0" />
	<path style="fill:none;stroke:red;stroke-width:1px;stroke-linecap:butt;stroke-linejoin:miter;stroke-opacity:1" d="M 708.526,392.734 699.945,389.301 z" id="boundary" inkscape:connector-curvature="0" />
	<path style="fill:none;stroke:red;stroke-width:1px;stroke-linecap:butt;stroke-linejoin:miter;stroke-opacity:1" d="M 699.945,389.301 694.796,382.436 z" id="boundary" inkscape:connector-curvature="0" />
	<path style="fill:none;stroke:red;stroke-width:1px;stroke-linecap:butt;stroke-linejoin:miter;stroke-opacity:1" d="M 694.796,382.436 686.215,379.862 z" id="boundary" inkscape:connector-curvature="0" />
	<path style="fill:none;stroke:red;stroke-width:1px;stroke-linecap:butt;stroke-linejoin:miter;stroke-opacity:1" d="M 686.215,379.862 678.491,375.571 z" id="boundary" inkscape:connector-curvature="0" />
	<path style="fill:none;stroke:red;stroke-width:1px;stroke-linecap:butt;stroke-linejoin:miter;stroke-opacity:1" d="M 678.491,375.571 669.91,373.855 z" id="boundary" inkscape:connector-curvature="0" />
	<path style="fill:none;stroke:red;stroke-width:1px;stroke-linecap:butt;stroke-linejoin:miter;stroke-opacity:1" d="M 669.91,373.855 661.329,373.855 z" id="boundary" inkscape:connector-curvature="0" />
	<path style="fill:none;stroke:red;stroke-width:1px;stroke-linecap:butt;stroke-linejoin:miter;stroke-opacity:1" d="M 661.329,373.855 652.747,373.855 z" id="boundary" inkscape:connector-curvature="0" />
	<path style="fill:none;stroke:red;stroke-width:1px;stroke-linecap:butt;stroke-linejoin:miter;stroke-opacity:1" d="M 652.747,373.855 644.166,373.855 z" id="boundary" inkscape:connector-curvature="0" />
	<path style="fill:none;stroke:red;stroke-width:1px;stroke-linecap:butt;stroke-linejoin:miter;stroke-opacity:1" d="M 644.166,373.855 635.585,373.855 z" id="boundary" inkscape:connector-curvature="0" />
	<path style="fill:none;stroke:red;stroke-width:1px;stroke-linecap:butt;stroke-linejoin:miter;stroke-opacity:1" d="M 635.585,373.855 627.003,373.855 z" id="boundary" inkscape:connector-curvature="0" />
	<path style="fill:none;stroke:red;stroke-width:1px;stroke-linecap:butt;stroke-linejoin:miter;stroke-opacity:1" d="M 627.003,373.855 618.422,373.855 z" id="boundary" inkscape:connector-curvature="0" />
	<path style="fill:none;stroke:red;stroke-width:1px;stroke-linecap:butt;stroke-linejoin:miter;stroke-opacity:1" d="M 618.422,373.855 609.841,373.855 z" id="boundary" inkscape:connector-curvature="0" />
	<path style="fill:none;stroke:red;stroke-width:1px;stroke-linecap:butt;stroke-linejoin:miter;stroke-opacity:1" d="M 609.841,373.855 601.26,373.855 z" id="boundary" inkscape:connector-curvature="0" />
	<path style="fill:none;stroke:red;stroke-width:1px;stroke-linecap:butt;stroke-linejoin:miter;stroke-opacity:1" d="M 601.26,373.855 592.678,373.855 z" id="boundary" inkscape:connector-curvature="0" />
	<path style="fill:none;stroke:red;stroke-width:1px;stroke-linecap:butt;stroke-linejoin:miter;stroke-opacity:1" d="M 592.678,373.855 584.097,373.855 z" id="boundary" inkscape:connector-curvature="0" />
	<path style="fill:none;stroke:red;stroke-width:1px;stroke-linecap:butt;stroke-linejoin:miter;stroke-opacity:1" d="M 584.097,373.855 575.516,373.855 z" id="boundary" inkscape:connector-curvature="0" />
	<path style="fill:none;stroke:red;stroke-width:1px;stroke-linecap:butt;stroke-linejoin:miter;stroke-opacity:1" d="M 575.516,373.855 566.934,373.855 z" id="boundary" inkscape:connector-curvature="0" />
	<path style="fill:none;stroke:red;stroke-width:1px;stroke-linecap:butt;stroke-linejoin:miter;stroke-opacity:1" d="M 566.934,373.855 558.353,373.855 z" id="boundary" inkscape:connector-curvature="0" />
	<path style="fill:none;stroke:red;stroke-width:1px;stroke-linecap:butt;stroke-linejoin:miter;stroke-opacity:1" d="M 558.353,373.855 549.772,373.855 z" id="boundary" inkscape:connector-curvature="0" />
	<path style="fill:none;stroke:red;stroke-width:1px;stroke-linecap:butt;stroke-linejoin:miter;stroke-opacity:1" d="M 549.772,373.855 541.19,373.855 z" id="boundary" inkscape:connector-curvature="0" />
	<path style="fill:none;stroke:red;stroke-width:1px;stroke-linecap:butt;stroke-linejoin:miter;stroke-opacity:1" d="M 541.19,373.855 532.609,373.855 z" id="boundary" inkscape:connector-curvature="0" />
	<path style="fill:none;stroke:red;stroke-width:1px;stroke-linecap:butt;stroke-linejoin:miter;stroke-opacity:1" d="M 532.609,373.855 524.028,373.855 z" id="boundary" inkscape:connector-curvature="0" />
	<path style="fill:none;stroke:red;stroke-width:1px;stroke-linecap:butt;stroke-linejoin:miter;stroke-opacity:1" d="M 524.028,373.855 515.446,373.855 z" id="boundary" inkscape:connector-curvature="0" />
	<path style="fill:none;stroke:red;stroke-width:1px;stroke-linecap:butt;stroke-linejoin:miter;stroke-opacity:1" d="M 515.446,373.855 507.723,378.145 z" id="boundary" inkscape:connector-curvature="0" />
	<path style="fill:none;stroke:red;stroke-width:1px;stroke-linecap:butt;stroke-linejoin:miter;stroke-opacity:1" d="M 507.723,378.145 499.142,378.145 z" id="boundary" inkscape:connector-curvature="0" />
	<path style="fill:none;stroke:red;stroke-width:1px;stroke-linecap:butt;stroke-linejoin:miter;stroke-opacity:1" d="M 499.142,378.145 490.561,378.145 z" id="boundary" inkscape:connector-curvature="0" />
	<path style="fill:none;stroke:red;stroke-width:1px;stroke-linecap:butt;stroke-linejoin:miter;stroke-opacity:1" d="M 490.561,378.145 482.837,382.436 z" id="boundary" inkscape:connector-curvature="0" />
	<path style="fill:none;stroke:red;stroke-width:1px;stroke-linecap:butt;stroke-linejoin:miter;stroke-opacity:1" d="M 482.837,382.436 474.256,382.436 z" id="boundary" inkscape:connector-curvature="0" />
	<path style="fill:none;stroke:red;stroke-width:1px;stroke-linecap:butt;stroke-linejoin:miter;stroke-opacity:1" d="M 474.256,382.436 465.675,385.869 z" id="boundary" inkscape:connector-curvature="0" />
	<path style="fill:none;stroke:red;stroke-width:1px;stroke-linecap:butt;stroke-linejoin:miter;stroke-opacity:1" d="M 465.675,385.869 457.093,386.727 z" id="boundary" inkscape:connector-curvature="0" />
	<path style="fill:none;stroke:red;stroke-width:1px;stroke-linecap:butt;stroke-linejoin:miter;stroke-opacity:1" d="M 457.093,386.727 448.512,386.727 z" id="boundary" inkscape:connector-curvature="0" />
	<path style="fill:none;stroke:red;stroke-width:1px;stroke-linecap:butt;stroke-linejoin:miter;stroke-opacity:1" d="M 448.512,386.727 439.931,390.159 z" id="boundary" inkscape:connector-curvature="0" />
	<path style="fill:none;stroke:red;stroke-width:1px;stroke-linecap:butt;stroke-linejoin:miter;stroke-opacity:1" d="M 439.931,390.159 431.349,391.017 z" id="boundary" inkscape:connector-curvature="0" />
	<path style="fill:none;stroke:red;stroke-width:1px;stroke-linecap:butt;stroke-linejoin:miter;stroke-opacity:1" d="M 431.349,391.017 422.768,391.017 z" id="boundary" inkscape:connector-curvature="0" />
	<path style="fill:none;stroke:red;stroke-width:1px;stroke-linecap:butt;stroke-linejoin:miter;stroke-opacity:1" d="M 422.768,391.017 414.187,394.45 z" id="boundary" inkscape:connector-curvature="0" />
	<path style="fill:none;stroke:red;stroke-width:1px;stroke-linecap:butt;stroke-linejoin:miter;stroke-opacity:1" d="M 414.187,394.45 405.606,395.308 z" id="boundary" inkscape:connector-curvature="0" />
	<path style="fill:none;stroke:red;stroke-width:1px;stroke-linecap:butt;stroke-linejoin:miter;stroke-opacity:1" d="M 405.606,395.308 397.024,395.308 z" id="boundary" inkscape:connector-curvature="0" />
	<path style="fill:none;stroke:red;stroke-width:1px;stroke-linecap:butt;stroke-linejoin:miter;stroke-opacity:1" d="M 397.024,395.308 388.443,395.308 z" id="boundary" inkscape:connector-curvature="0" />
	<path style="fill:none;stroke:red;stroke-width:1px;stroke-linecap:butt;stroke-linejoin:miter;stroke-opacity:1" d="M 388.443,395.308 380.72,399.599 z" id="boundary" inkscape:connector-curvature="0" />
	<path style="fill:none;stroke:red;stroke-width:1px;stroke-linecap:butt;stroke-linejoin:miter;stroke-opacity:1" d="M 380.72,399.599 372.138,399.599 z" id="boundary" inkscape:connector-curvature="0" />
	<path style="fill:none;stroke:red;stroke-width:1px;stroke-linecap:butt;stroke-linejoin:miter;stroke-opacity:1" d="M 372.138,399.599 363.557,402.173 z" id="boundary" inkscape:connector-curvature="0" />
	<path style="fill:none;stroke:red;stroke-width:1px;stroke-linecap:butt;stroke-linejoin:miter;stroke-opacity:1" d="M 363.557,402.173 354.976,403.889 z" id="boundary" inkscape:connector-curvature="0" />
	<path style="fill:none;stroke:red;stroke-width:1px;stroke-linecap:butt;stroke-linejoin:miter;stroke-opacity:1" d="M 354.976,403.889 346.394,403.889 z" id="boundary" inkscape:connector-curvature="0" />
	<path style="fill:none;stroke:red;stroke-width:1px;stroke-linecap:butt;stroke-linejoin:miter;stroke-opacity:1" d="M 346.394,403.889 337.813,403.889 z" id="boundary" inkscape:connector-curvature="0" />
	<path style="fill:none;stroke:red;stroke-width:1px;stroke-linecap:butt;stroke-linejoin:miter;stroke-opacity:1" d="M 337.813,403.889 329.232,403.889 z" id="boundary" inkscape:connector-curvature="0" />
	<path style="fill:none;stroke:red;stroke-width:1px;stroke-linecap:butt;stroke-linejoin:miter;stroke-opacity:1" d="M 329.232,403.889 320.651,403.889 z" id="boundary" inkscape:connector-curvature="0" />
	<path style="fill:none;stroke:red;stroke-width:1px;stroke-linecap:butt;stroke-linejoin:miter;stroke-opacity:1" d="M 320.651,403.889 312.927,399.599 z" id="boundary" inkscape:connector-curvature="0" />
	<path style="fill:none;stroke:red;stroke-width:1px;stroke-linecap:butt;stroke-linejoin:miter;stroke-opacity:1" d="M 312.927,399.599 305.204,395.308 z" id="boundary" inkscape:connector-curvature="0" />
	<path style="fill:none;stroke:red;stroke-width:1px;stroke-linecap:butt;stroke-linejoin:miter;stroke-opacity:1" d="M 305.204,395.308 298.339,390.159 z" id="boundary" inkscape:connector-curvature="0" />
	<path style="fill:none;stroke:red;stroke-width:1px;stroke-linecap:butt;stroke-linejoin:miter;stroke-opacity:1" d="M 298.339,390.159 289.758,386.727 z" id="boundary" inkscape:connector-curvature="0" />
	<path style="fill:none;stroke:red;stroke-width:1px;stroke-linecap:butt;stroke-linejoin:miter;stroke-opacity:1" d="M 289.758,386.727 283.751,379.862 z" id="boundary" inkscape:connector-curvature="0" />
	<path style="fill:none;stroke:red;stroke-width:1px;stroke-linecap:butt;stroke-linejoin:miter;stroke-opacity:1" d="M 283.751,379.862 275.17,376.429 z" id="boundary" inkscape:connector-curvature="0" />
	<path style="fill:none;stroke:red;stroke-width:1px;stroke-linecap:butt;stroke-linejoin:miter;stroke-opacity:1" d="M 275.17,376.429 270.021,369.564 z" id="boundary" inkscape:connector-curvature="0" />
	<path style="fill:none;stroke:red;stroke-width:1px;stroke-linecap:butt;stroke-linejoin:miter;stroke-opacity:1" d="M 270.021,369.564 263.156,364.415 z" id="boundary" inkscape:connector-curvature="0" />
	<path style="fill:none;stroke:red;stroke-width:1px;stroke-linecap:butt;stroke-linejoin:miter;stroke-opacity:1" d="M 263.156,364.415 255.433,360.125 z" id="boundary" inkscape:connector-curvature="0" />
	<path style="fill:none;stroke:red;stroke-width:1px;stroke-linecap:butt;stroke-linejoin:miter;stroke-opacity:1" d="M 255.433,360.125 248.567,354.118 z" id="boundary" inkscape:connector-curvature="0" />
	<path style="fill:none;stroke:red;stroke-width:1px;stroke-linecap:butt;stroke-linejoin:miter;stroke-opacity:1" d="M 248.567,354.118 242.561,347.253 z" id="boundary" inkscape:connector-curvature="0" />
	<path style="fill:none;stroke:red;stroke-width:1px;stroke-linecap:butt;stroke-linejoin:miter;stroke-opacity:1" d="M 242.561,347.253 233.979,343.82 z" id="boundary" inkscape:connector-curvature="0" />
	<path style="fill:none;stroke:red;stroke-width:1px;stroke-linecap:butt;stroke-linejoin:miter;stroke-opacity:1" d="M 233.979,343.82 227.972,336.955 z" id="boundary" inkscape:connector-curvature="0" />
	<path style="fill:none;stroke:red;stroke-width:1px;stroke-linecap:butt;stroke-linejoin:miter;stroke-opacity:1" d="M 227.972,336.955 221.107,330.948 z" id="boundary" inkscape:connector-curvature="0" />
	<path style="fill:none;stroke:red;stroke-width:1px;stroke-linecap:butt;stroke-linejoin:miter;stroke-opacity:1" d="M 221.107,330.948 212.526,330.948 z" id="boundary" inkscape:connector-curvature="0" />
	<path style="fill:none;stroke:red;stroke-width:1px;stroke-linecap:butt;stroke-linejoin:miter;stroke-opacity:1" d="M 212.526,330.948 203.945,330.948 z" id="boundary" inkscape:connector-curvature="0" />
	<path style="fill:none;stroke:red;stroke-width:1px;stroke-linecap:butt;stroke-linejoin:miter;stroke-opacity:1" d="M 203.945,330.948 195.363,330.948 z" id="boundary" inkscape:connector-curvature="0" />
	<path style="fill:none;stroke:red;stroke-width:1px;stroke-linecap:butt;stroke-linejoin:miter;stroke-opacity:1" d="M 195.363,330.948 187.64,326.657 z" id="boundary" inkscape:connector-curvature="0" />
	<path style="fill:none;stroke:red;stroke-width:1px;stroke-linecap:butt;stroke-linejoin:miter;stroke-opacity:1" d="M 187.64,326.657 179.059,326.657 z" id="boundary" inkscape:connector-curvature="0" />
	<path style="fill:none;stroke:red;stroke-width:1px;stroke-linecap:butt;stroke-linejoin:miter;stroke-opacity:1" d="M 179.059,326.657 170.478,326.657 z" id="boundary" inkscape:connector-curvature="0" />
	<path style="fill:none;stroke:red;stroke-width:1px;stroke-linecap:butt;stroke-linejoin:miter;stroke-opacity:1" d="M 170.478,326.657 161.896,326.657 z" id="boundary" inkscape:connector-curvature="0" />
	<path style="fill:none;stroke:red;stroke-width:1px;stroke-linecap:butt;stroke-linejoin:miter;stroke-opacity:1" d="M 161.896,326.657 153.315,326.657 z" id="boundary" inkscape:connector-curvature="0" />
	<path style="fill:none;stroke:red;stroke-width:1px;stroke-linecap:butt;stroke-linejoin:miter;stroke-opacity:1" d="M 153.315,326.657 144.734,326.657 z" id="boundary" inkscape:connector-curvature="0" />
	<path style="fill:none;stroke:red;stroke-width:1px;stroke-linecap:butt;stroke-linejoin:miter;stroke-opacity:1" d="M 144.734,326.657 136.152,326.657 z" id="boundary" inkscape:connector-curvature="0" />
	<path style="fill:none;stroke:red;stroke-width:1px;stroke-linecap:butt;stroke-linejoin:miter;stroke-opacity:1" d="M 136.152,326.657 127.571,326.657 z" id="boundary" inkscape:connector-curvature="0" />
	<path style="fill:none;stroke:red;stroke-width:1px;stroke-linecap:butt;stroke-linejoin:miter;stroke-opacity:1" d="M 127.571,326.657 118.99,326.657 z" id="boundary" inkscape:connector-curvature="0" />
	<path style="fill:none;stroke:red;stroke-width:1px;stroke-linecap:butt;stroke-linejoin:miter;stroke-opacity:1" d="M 118.99,326.657 110.408,326.657 z" id="boundary" inkscape:connector-curvature="0" />
	<path style="fill:none;stroke:red;stroke-width:1px;stroke-linecap:butt;stroke-linejoin:miter;stroke-opacity:1" d="M 110.408,326.657 101.827,326.657 z" id="boundary" inkscape:connector-curvature="0" />
	<path style="fill:none;stroke:red;stroke-width:1px;stroke-linecap:butt;stroke-linejoin:miter;stroke-opacity:1" d="M 101.827,326.657 93.2457,326.657 z" id="boundary" inkscape:connector-curvature="0" />
	<path style="fill:none;stroke:red;stroke-width:1px;stroke-linecap:butt;stroke-linejoin:miter;stroke-opacity:1" d="M 93.2457,326.657 84.6644,326.657 z" id="boundary" inkscape:connector-curvature="0" />
	<path style="fill:none;stroke:red;stroke-width:1px;stroke-linecap:butt;stroke-linejoin:miter;stroke-opacity:1" d="M 84.6644,326.657 76.083,326.657 z" id="boundary" inkscape:connector-curvature="0" />
	<path style="fill:none;stroke:red;stroke-width:1px;stroke-linecap:butt;stroke-linejoin:miter;stroke-opacity:1" d="M 76.083,326.657 67.5017,329.232 z" id="boundary" inkscape:connector-curvature="0" />
	<path style="fill:none;stroke:red;stroke-width:1px;stroke-linecap:butt;stroke-linejoin:miter;stroke-opacity:1" d="M 67.5017,329.232 58.9204,330.948 z" id="boundary" inkscape:connector-curvature="0" />
	<path style="fill:none;stroke:red;stroke-width:1px;stroke-linecap:butt;stroke-linejoin:miter;stroke-opacity:1" d="M 58.9204,330.948 50.3391,333.522 z" id="boundary" inkscape:connector-curvature="0" />
	<path style="fill:none;stroke:red;stroke-width:1px;stroke-linecap:butt;stroke-linejoin:miter;stroke-opacity:1" d="M 50.3391,333.522 41.7578,335.239 z" id="boundary" inkscape:connector-curvature="0" />
	<path style="fill:none;stroke:red;stroke-width:1px;stroke-linecap:butt;stroke-linejoin:miter;stroke-opacity:1" d="M 41.7578,335.239 33.1765,335.239 z" id="boundary" inkscape:connector-curvature="0" />
	<path style="fill:none;stroke:red;stroke-width:1px;stroke-linecap:butt;stroke-linejoin:miter;stroke-opacity:1" d="M 33.1765,335.239 26.3114,329.232 z" id="boundary" inkscape:connector-curvature="0" />
	<path style="fill:none;stroke:red;stroke-width:1px;stroke-linecap:butt;stroke-linejoin:miter;stroke-opacity:1" d="M 26.3114,329.232 21.1626,322.367 z" id="boundary" inkscape:connector-curvature="0" />
	<path style="fill:none;stroke:red;stroke-width:1px;stroke-linecap:butt;stroke-linejoin:miter;stroke-opacity:1" d="M 21.1626,322.367 19.4464,313.785 z" id="boundary" inkscape:connector-curvature="0" />
	<path style="fill:none;stroke:red;stroke-width:1px;stroke-linecap:butt;stroke-linejoin:miter;stroke-opacity:1" d="M 19.4464,313.785 16.872,305.204 z" id="boundary" inkscape:connector-curvature="0" />
	<path style="fill:none;stroke:red;stroke-width:1px;stroke-linecap:butt;stroke-linejoin:miter;stroke-opacity:1" d="M 16.872,305.204 15.1557,296.623 z" id="boundary" inkscape:connector-curvature="0" />
	<path style="fill:none;stroke:red;stroke-width:1px;stroke-linecap:butt;stroke-linejoin:miter;stroke-opacity:1" d="M 15.1557,296.623 12.5813,288.042 z" id="boundary" inkscape:connector-curvature="0" />
	<path style="fill:none;stroke:red;stroke-width:1px;stroke-linecap:butt;stroke-linejoin:miter;stroke-opacity:1" d="M 12.5813,288.042 12.5813,279.46 z" id="boundary" inkscape:connector-curvature="0" />
	<path style="fill:none;stroke:red;stroke-width:1px;stroke-linecap:butt;stroke-linejoin:miter;stroke-opacity:1" d="M 12.5813,279.46 8.29066,271.737 z" id="boundary" inkscape:connector-curvature="0" />
	<path style="fill:none;stroke:red;stroke-width:1px;stroke-linecap:butt;stroke-linejoin:miter;stroke-opacity:1" d="M 8.29066,271.737 4,264.014 z" id="boundary" inkscape:connector-curvature="0" />
	<path style="fill:none;stroke:red;stroke-width:1px;stroke-linecap:butt;stroke-linejoin:miter;stroke-opacity:1" d="M 4,264.014 4,255.433 z" id="boundary" inkscape:connector-curvature="0" />
	<path style="fill:none;stroke:red;stroke-width:1px;stroke-linecap:butt;stroke-linejoin:miter;stroke-opacity:1" d="M 4,255.433 4,246.851 z" id="boundary" inkscape:connector-curvature="0" />
	<path style="fill:none;stroke:red;stroke-width:1px;stroke-linecap:butt;stroke-linejoin:miter;stroke-opacity:1" d="M 4,246.851 4,238.27 z" id="boundary" inkscape:connector-curvature="0" />
	<path style="fill:none;stroke:red;stroke-width:1px;stroke-linecap:butt;stroke-linejoin:miter;stroke-opacity:1" d="M 4,238.27 4,229.689 z" id="boundary" inkscape:connector-curvature="0" />
	<path style="fill:none;stroke:red;stroke-width:1px;stroke-linecap:butt;stroke-linejoin:miter;stroke-opacity:1" d="M 4,229.689 10.8651,222.824 z" id="boundary" inkscape:connector-curvature="0" />
	<path style="fill:none;stroke:red;stroke-width:1px;stroke-linecap:butt;stroke-linejoin:miter;stroke-opacity:1" d="M 10.8651,222.824 18.5882,218.533 z" id="boundary" inkscape:connector-curvature="0" />
	<path style="fill:none;stroke:red;stroke-width:1px;stroke-linecap:butt;stroke-linejoin:miter;stroke-opacity:1" d="M 18.5882,218.533 27.1696,215.1 z" id="boundary" inkscape:connector-curvature="0" />
	<path style="fill:none;stroke:red;stroke-width:1px;stroke-linecap:butt;stroke-linejoin:miter;stroke-opacity:1" d="M 27.1696,215.1 34.0346,209.952 z" id="boundary" inkscape:connector-curvature="0" />
	<path style="fill:none;stroke:red;stroke-width:1px;stroke-linecap:butt;stroke-linejoin:miter;stroke-opacity:1" d="M 34.0346,209.952 41.7578,205.661 z" id="boundary" inkscape:connector-curvature="0" />
	<path style="fill:none;stroke:red;stroke-width:1px;stroke-linecap:butt;stroke-linejoin:miter;stroke-opacity:1" d="M 41.7578,205.661 49.481,201.37 z" id="boundary" inkscape:connector-curvature="0" />
	<path style="fill:none;stroke:red;stroke-width:1px;stroke-linecap:butt;stroke-linejoin:miter;stroke-opacity:1" d="M 49.481,201.37 53.7716,192.789 z" id="boundary" inkscape:connector-curvature="0" />
	<path style="fill:none;stroke:red;stroke-width:1px;stroke-linecap:butt;stroke-linejoin:miter;stroke-opacity:1" d="M 53.7716,192.789 60.6367,185.924 z" id="boundary" inkscape:connector-curvature="0" />
	<path style="fill:none;stroke:red;stroke-width:1px;stroke-linecap:butt;stroke-linejoin:miter;stroke-opacity:1" d="M 60.6367,185.924 67.5017,179.917 z" id="boundary" inkscape:connector-curvature="0" />
	<path style="fill:none;stroke:red;stroke-width:1px;stroke-linecap:butt;stroke-linejoin:miter;stroke-opacity:1" d="M 67.5017,179.917 70.9343,171.336 z" id="boundary" inkscape:connector-curvature="0" />
	<path style="fill:none;stroke:red;stroke-width:1px;stroke-linecap:butt;stroke-linejoin:miter;stroke-opacity:1" d="M 70.9343,171.336 75.2249,162.754 z" id="boundary" inkscape:connector-curvature="0" />
	<path style="fill:none;stroke:red;stroke-width:1px;stroke-linecap:butt;stroke-linejoin:miter;stroke-opacity:1" d="M 75.2249,162.754 82.09,155.889 z" id="boundary" inkscape:connector-curvature="0" />
	<path style="fill:none;stroke:red;stroke-width:1px;stroke-linecap:butt;stroke-linejoin:miter;stroke-opacity:1" d="M 82.09,155.889 88.955,149.882 z" id="boundary" inkscape:connector-curvature="0" />
	<path style="fill:none;stroke:red;stroke-width:1px;stroke-linecap:butt;stroke-linejoin:miter;stroke-opacity:1" d="M 88.955,149.882 92.3875,141.301 z" id="boundary" inkscape:connector-curvature="0" />
	<path style="fill:none;stroke:red;stroke-width:1px;stroke-linecap:butt;stroke-linejoin:miter;stroke-opacity:1" d="M 92.3875,141.301 98.3945,126.713 z" id="boundary" inkscape:connector-curvature="0" />
	<path style="fill:none;stroke:red;stroke-width:1px;stroke-linecap:butt;stroke-linejoin:miter;stroke-opacity:1" d="M 98.3945,126.713 98.3945,118.131 z" id="boundary" inkscape:connector-curvature="0" />
	<path style="fill:none;stroke:red;stroke-width:1px;stroke-linecap:butt;stroke-linejoin:miter;stroke-opacity:1" d="M 98.3945,118.131 102.685,109.55 z" id="boundary" inkscape:connector-curvature="0" />
	<path style="fill:none;stroke:red;stroke-width:1px;stroke-linecap:butt;stroke-linejoin:miter;stroke-opacity:1" d="M 102.685,109.55 102.685,100.969 z" id="boundary" inkscape:connector-curvature="0" />
	<path style="fill:none;stroke:red;stroke-width:1px;stroke-linecap:butt;stroke-linejoin:miter;stroke-opacity:1" d="M 102.685,100.969 102.685,92.3875 z" id="boundary" inkscape:connector-curvature="0" />
	<path style="fill:none;stroke:red;stroke-width:1px;stroke-linecap:butt;stroke-linejoin:miter;stroke-opacity:1" d="M 102.685,92.3875 102.685,83.8062 z" id="boundary" inkscape:connector-curvature="0" />
	<path style="fill:none;stroke:red;stroke-width:1px;stroke-linecap:butt;stroke-linejoin:miter;stroke-opacity:1" d="M 102.685,83.8062 102.685,75.2249 z" id="boundary" inkscape:connector-curvature="0" />
	<path style="fill:none;stroke:red;stroke-width:1px;stroke-linecap:butt;stroke-linejoin:miter;stroke-opacity:1" d="M 102.685,75.2249 102.685,66.6436 z" id="boundary" inkscape:connector-curvature="0" />
	<path style="fill:none;stroke:red;stroke-width:1px;stroke-linecap:butt;stroke-linejoin:miter;stroke-opacity:1" d="M 102.685,66.6436 102.685,58.0623 z" id="boundary" inkscape:connector-curvature="0" />
	<path style="fill:none;stroke:red;stroke-width:1px;stroke-linecap:butt;stroke-linejoin:miter;stroke-opacity:1" d="M 102.685,58.0623 102.685,49.481 z" id="boundary" inkscape:connector-curvature="0" />
	<path style="fill:none;stroke:red;stroke-width:1px;stroke-linecap:butt;stroke-linejoin:miter;stroke-opacity:1" d="M 102.685,49.481 106.976,36.609 z" id="boundary" inkscape:connector-curvature="0" />
	<path style="fill:none;stroke:red;stroke-width:1px;stroke-linecap:butt;stroke-linejoin:miter;stroke-opacity:1" d="M 106.976,36.609 111.266,28.0277 z" id="boundary" inkscape:connector-curvature="0" />
	<path style="fill:none;stroke:red;stroke-width:1px;stroke-linecap:butt;stroke-linejoin:miter;stroke-opacity:1" d="M 111.266,28.0277 118.131,21.1626 z" id="boundary" inkscape:connector-curvature="0" />
	<path style="fill:none;stroke:red;stroke-width:1px;stroke-linecap:butt;stroke-linejoin:miter;stroke-opacity:1" d="M 118.131,21.1626 122.422,12.5813 z" id="boundary" inkscape:connector-curvature="0" />
	<path style="fill:none;stroke:red;stroke-width:1px;stroke-linecap:butt;stroke-linejoin:miter;stroke-opacity:1" d="M 122.422,12.5813 131.003,8.29066 z" id="boundary" inkscape:connector-curvature="0" />
	<path style="fill:none;stroke:red;stroke-width:1px;stroke-linecap:butt;stroke-linejoin:miter;stroke-opacity:1" d="M 131.003,8.29066 139.585,8.29066 z" id="boundary" inkscape:connector-curvature="0" />
	<path style="fill:none;stroke:red;stroke-width:1px;stroke-linecap:butt;stroke-linejoin:miter;stroke-opacity:1" d="M 139.585,8.29066 148.166,8.29066 z" id="boundary" inkscape:connector-curvature="0" />
	<path style="fill:none;stroke:red;stroke-width:1px;stroke-linecap:butt;stroke-linejoin:miter;stroke-opacity:1" d="M 148.166,8.29066 156.747,8.29066 z" id="boundary" inkscape:connector-curvature="0" />
	<path style="fill:none;stroke:red;stroke-width:1px;stroke-linecap:butt;stroke-linejoin:miter;stroke-opacity:1" d="M 156.747,8.29066 165.329,8.29066 z" id="boundary" inkscape:connector-curvature="0" />
	<path style="fill:none;stroke:red;stroke-width:1px;stroke-linecap:butt;stroke-linejoin:miter;stroke-opacity:1" d="M 165.329,8.29066 173.91,8.29066 z" id="boundary" inkscape:connector-curvature="0" />
	<path style="fill:none;stroke:red;stroke-width:1px;stroke-linecap:butt;stroke-linejoin:miter;stroke-opacity:1" d="M 173.91,8.29066 182.491,8.29066 z" id="boundary" inkscape:connector-curvature="0" />
	<path style="fill:none;stroke:red;stroke-width:1px;stroke-linecap:butt;stroke-linejoin:miter;stroke-opacity:1" d="M 182.491,8.29066 191.073,4 z" id="boundary" inkscape:connector-curvature="0" />
	<path style="fill:none;stroke:red;stroke-width:1px;stroke-linecap:butt;stroke-linejoin:miter;stroke-opacity:1" d="M 191.073,4 199.654,4 z" id="boundary" inkscape:connector-curvature="0" />
	<path style="fill:none;stroke:red;stroke-width:1px;stroke-linecap:butt;stroke-linejoin:miter;stroke-opacity:1" d="M 199.654,4 208.235,4 z" id="boundary" inkscape:connector-curvature="0" />
	<path style="fill:none;stroke:red;stroke-width:1px;stroke-linecap:butt;stroke-linejoin:miter;stroke-opacity:1" d="M 208.235,4 216.817,4 z" id="boundary" inkscape:connector-curvature="0" />
	<path style="fill:none;stroke:red;stroke-width:1px;stroke-linecap:butt;stroke-linejoin:miter;stroke-opacity:1" d="M 216.817,4 225.398,4 z" id="boundary" inkscape:connector-curvature="0" />
	<path style="fill:none;stroke:red;stroke-width:1px;stroke-linecap:butt;stroke-linejoin:miter;stroke-opacity:1" d="M 225.398,4 233.979,4 z" id="boundary" inkscape:connector-curvature="0" />
	<path style="fill:none;stroke:red;stroke-width:1px;stroke-linecap:butt;stroke-linejoin:miter;stroke-opacity:1" d="M 233.979,4 242.561,4 z" id="boundary" inkscape:connector-curvature="0" />
	<path style="fill:none;stroke:red;stroke-width:1px;stroke-linecap:butt;stroke-linejoin:miter;stroke-opacity:1" d="M 242.561,4 251.142,4 z" id="boundary" inkscape:connector-curvature="0" />
	<path style="fill:none;stroke:red;stroke-width:1px;stroke-linecap:butt;stroke-linejoin:miter;stroke-opacity:1" d="M 251.142,4 259.723,4 z" id="boundary" inkscape:connector-curvature="0" />
	<path style="fill:none;stroke:red;stroke-width:1px;stroke-linecap:butt;stroke-linejoin:miter;stroke-opacity:1" d="M 259.723,4 268.304,4 z" id="boundary" inkscape:connector-curvature="0" />
	<path style="fill:none;stroke:red;stroke-width:1px;stroke-linecap:butt;stroke-linejoin:miter;stroke-opacity:1" d="M 268.304,4 276.886,4 z" id="boundary" inkscape:connector-curvature="0" />
	<path style="fill:none;stroke:red;stroke-width:1px;stroke-linecap:butt;stroke-linejoin:miter;stroke-opacity:1" d="M 276.886,4 285.467,4 z" id="boundary" inkscape:connector-curvature="0" />
	<path style="fill:none;stroke:red;stroke-width:1px;stroke-linecap:butt;stroke-linejoin:miter;stroke-opacity:1" d="M 285.467,4 293.19,8.29066 z" id="boundary" inkscape:connector-curvature="0" />
	<path style="fill:none;stroke:red;stroke-width:1px;stroke-linecap:butt;stroke-linejoin:miter;stroke-opacity:1" d="M 293.19,8.29066 300.913,12.5813 z" id="boundary" inkscape:connector-curvature="0" />
	<path style="fill:none;stroke:red;stroke-width:1px;stroke-linecap:butt;stroke-linejoin:miter;stroke-opacity:1" d="M 300.913,12.5813 307.779,17.7301 z" id="boundary" inkscape:connector-curvature="0" />
	<path style="fill:none;stroke:red;stroke-width:1px;stroke-linecap:butt;stroke-linejoin:miter;stroke-opacity:1" d="M 307.779,17.7301 313.785,24.5952 z" id="boundary" inkscape:connector-curvature="0" />
	<path style="fill:none;stroke:red;stroke-width:1px;stroke-linecap:butt;stroke-linejoin:miter;stroke-opacity:1" d="M 313.785,24.5952 322.367,28.0277 z" id="boundary" inkscape:connector-curvature="0" />
	<path style="fill:none;stroke:red;stroke-width:1px;stroke-linecap:butt;stroke-linejoin:miter;stroke-opacity:1" d="M 322.367,28.0277 328.374,34.8927 z" id="boundary" inkscape:connector-curvature="0" />
	<path style="fill:none;stroke:red;stroke-width:1px;stroke-linecap:butt;stroke-linejoin:miter;stroke-opacity:1" d="M 328.374,34.8927 335.239,40.8997 z" id="boundary" inkscape:connector-curvature="0" />
	<path style="fill:none;stroke:red;stroke-width:1px;stroke-linecap:butt;stroke-linejoin:miter;stroke-opacity:1" d="M 335.239,40.8997 341.246,47.7647 z" id="boundary" inkscape:connector-curvature="0" />
	<path style="fill:none;stroke:red;stroke-width:1px;stroke-linecap:butt;stroke-linejoin:miter;stroke-opacity:1" d="M 341.246,47.7647 348.111,53.7716 z" id="boundary" inkscape:connector-curvature="0" />
	<path style="fill:none;stroke:red;stroke-width:1px;stroke-linecap:butt;stroke-linejoin:miter;stroke-opacity:1" d="M 348.111,53.7716 354.118,60.6367 z" id="boundary" inkscape:connector-curvature="0" />
	<path style="fill:none;stroke:red;stroke-width:1px;stroke-linecap:butt;stroke-linejoin:miter;stroke-opacity:1" d="M 354.118,60.6367 360.983,66.6436 z" id="boundary" inkscape:connector-curvature="0" />
	<path style="fill:none;stroke:red;stroke-width:1px;stroke-linecap:butt;stroke-linejoin:miter;stroke-opacity:1" d="M 360.983,66.6436 368.706,70.9343 z" id="boundary" inkscape:connector-curvature="0" />
	<path style="fill:none;stroke:red;stroke-width:1px;stroke-linecap:butt;stroke-linejoin:miter;stroke-opacity:1" d="M 368.706,70.9343 377.287,72.6505 z" id="boundary" inkscape:connector-curvature="0" />
	<path style="fill:none;stroke:red;stroke-width:1px;stroke-linecap:butt;stroke-linejoin:miter;stroke-opacity:1" d="M 377.287,72.6505 385.869,72.6505 z" id="boundary" inkscape:connector-curvature="0" />
	<path style="fill:none;stroke:red;stroke-width:1px;stroke-linecap:butt;stroke-linejoin:miter;stroke-opacity:1" d="M 385.869,72.6505 394.45,72.6505 z" id="boundary" inkscape:connector-curvature="0" />
	<path style="fill:none;stroke:red;stroke-width:1px;stroke-linecap:butt;stroke-linejoin:miter;stroke-opacity:1" d="M 394.45,72.6505 403.031,72.6505 z" id="boundary" inkscape:connector-curvature="0" />
	<path style="fill:none;stroke:red;stroke-width:1px;stroke-linecap:butt;stroke-linejoin:miter;stroke-opacity:1" d="M 403.031,72.6505 411.612,72.6505 z" id="boundary" inkscape:connector-curvature="0" />
	<path style="fill:none;stroke:red;stroke-width:1px;stroke-linecap:butt;stroke-linejoin:miter;stroke-opacity:1" d="M 411.612,72.6505 420.194,72.6505 z" id="boundary" inkscape:connector-curvature="0" />
	<path style="fill:none;stroke:red;stroke-width:1px;stroke-linecap:butt;stroke-linejoin:miter;stroke-opacity:1" d="M 420.194,72.6505 428.775,72.6505 z" id="boundary" inkscape:connector-curvature="0" />
	<path style="fill:none;stroke:red;stroke-width:1px;stroke-linecap:butt;stroke-linejoin:miter;stroke-opacity:1" d="M 428.775,72.6505 437.356,72.6505 z" id="boundary" inkscape:connector-curvature="0" />
	<path style="fill:none;stroke:red;stroke-width:1px;stroke-linecap:butt;stroke-linejoin:miter;stroke-opacity:1" d="M 437.356,72.6505 445.938,72.6505 z" id="boundary" inkscape:connector-curvature="0" />
	<path style="fill:none;stroke:red;stroke-width:1px;stroke-linecap:butt;stroke-linejoin:miter;stroke-opacity:1" d="M 445.938,72.6505 454.519,72.6505 z" id="boundary" inkscape:connector-curvature="0" />
	<path style="fill:none;stroke:red;stroke-width:1px;stroke-linecap:butt;stroke-linejoin:miter;stroke-opacity:1" d="M 454.519,72.6505 463.1,70.9343 z" id="boundary" inkscape:connector-curvature="0" />
	<path style="fill:none;stroke:red;stroke-width:1px;stroke-linecap:butt;stroke-linejoin:miter;stroke-opacity:1" d="M 463.1,70.9343 471.682,68.3599 z" id="boundary" inkscape:connector-curvature="0" />
	<path style="fill:none;stroke:red;stroke-width:1px;stroke-linecap:butt;stroke-linejoin:miter;stroke-opacity:1" d="M 471.682,68.3599 479.405,64.0692 z" id="boundary" inkscape:connector-curvature="0" />
	<path style="fill:none;stroke:red;stroke-width:1px;stroke-linecap:butt;stroke-linejoin:miter;stroke-opacity:1" d="M 479.405,64.0692 487.986,64.0692 z" id="boundary" inkscape:connector-curvature="0" />
	<path style="fill:none;stroke:red;stroke-width:1px;stroke-linecap:butt;stroke-linejoin:miter;stroke-opacity:1" d="M 487.986,64.0692 496.567,64.0692 z" id="boundary" inkscape:connector-curvature="0" />
	<path style="fill:none;stroke:red;stroke-width:1px;stroke-linecap:butt;stroke-linejoin:miter;stroke-opacity:1" d="M 496.567,64.0692 504.291,59.7785 z" id="boundary" inkscape:connector-curvature="0" />
	<path style="fill:none;stroke:red;stroke-width:1px;stroke-linecap:butt;stroke-linejoin:miter;stroke-opacity:1" d="M 504.291,59.7785 512.014,55.4879 z" id="boundary" inkscape:connector-curvature="0" />
	<path style="fill:none;stroke:red;stroke-width:1px;stroke-linecap:butt;stroke-linejoin:miter;stroke-opacity:1" d="M 512.014,55.4879 520.595,55.4879 z" id="boundary" inkscape:connector-curvature="0" />
	<path style="fill:none;stroke:red;stroke-width:1px;stroke-linecap:butt;stroke-linejoin:miter;stroke-opacity:1" d="M 520.595,55.4879 528.318,51.1972 z" id="boundary" inkscape:connector-curvature="0" />
	<path style="fill:none;stroke:red;stroke-width:1px;stroke-linecap:butt;stroke-linejoin:miter;stroke-opacity:1" d="M 528.318,51.1972 536.9,51.1972 z" id="boundary" inkscape:connector-curvature="0" />
	<path style="fill:none;stroke:red;stroke-width:1px;stroke-linecap:butt;stroke-linejoin:miter;stroke-opacity:1" d="M 536.9,51.1972 545.481,48.6228 z" id="boundary" inkscape:connector-curvature="0" />
	<path style="fill:none;stroke:red;stroke-width:1px;stroke-linecap:butt;stroke-linejoin:miter;stroke-opacity:1" d="M 545.481,48.6228 554.062,46.9066 z" id="boundary" inkscape:connector-curvature="0" />
	<path style="fill:none;stroke:red;stroke-width:1px;stroke-linecap:butt;stroke-linejoin:miter;stroke-opacity:1" d="M 554.062,46.9066 562.644,46.9066 z" id="boundary" inkscape:connector-curvature="0" />
	<path style="fill:none;stroke:red;stroke-width:1px;stroke-linecap:butt;stroke-linejoin:miter;stroke-opacity:1" d="M 562.644,46.9066 571.225,46.9066 z" id="boundary" inkscape:connector-curvature="0" />
	<path style="fill:none;stroke:red;stroke-width:1px;stroke-linecap:butt;stroke-linejoin:miter;stroke-opacity:1" d="M 571.225,46.9066 579.806,46.9066 z" id="boundary" inkscape:connector-curvature="0" />
	<path style="fill:none;stroke:red;stroke-width:1px;stroke-linecap:butt;stroke-linejoin:miter;stroke-opacity:1" d="M 579.806,46.9066 588.388,46.9066 z" id="boundary" inkscape:connector-curvature="0" />
	<path style="fill:none;stroke:red;stroke-width:1px;stroke-linecap:butt;stroke-linejoin:miter;stroke-opacity:1" d="M 588.388,46.9066 596.969,46.9066 z" id="boundary" inkscape:connector-curvature="0" />
	<path style="fill:none;stroke:red;stroke-width:1px;stroke-linecap:butt;stroke-linejoin:miter;stroke-opacity:1" d="M 596.969,46.9066 605.55,46.9066 z" id="boundary" inkscape:connector-curvature="0" />
	<path style="fill:none;stroke:red;stroke-width:1px;stroke-linecap:butt;stroke-linejoin:miter;stroke-opacity:1" d="M 605.55,46.9066 614.131,46.9066 z" id="boundary" inkscape:connector-curvature="0" />
	<path style="fill:none;stroke:red;stroke-width:1px;stroke-linecap:butt;stroke-linejoin:miter;stroke-opacity:1" d="M 614.131,46.9066 622.713,46.9066 z" id="boundary" inkscape:connector-curvature="0" />
	<path style="fill:none;stroke:red;stroke-width:1px;stroke-linecap:butt;stroke-linejoin:miter;stroke-opacity:1" d="M 622.713,46.9066 631.294,46.9066 z" id="boundary" inkscape:connector-curvature="0" />
	<path style="fill:none;stroke:red;stroke-width:1px;stroke-linecap:butt;stroke-linejoin:miter;stroke-opacity:1" d="M 631.294,46.9066 639.875,46.9066 z" id="boundary" inkscape:connector-curvature="0" />
	<path style="fill:none;stroke:red;stroke-width:1px;stroke-linecap:butt;stroke-linejoin:miter;stroke-opacity:1" d="M 639.875,46.9066 648.457,46.9066 z" id="boundary" inkscape:connector-curvature="0" />
	<path style="fill:none;stroke:red;stroke-width:1px;stroke-linecap:butt;stroke-linejoin:miter;stroke-opacity:1" d="M 648.457,46.9066 657.038,46.9066 z" id="boundary" inkscape:connector-curvature="0" />
	<path style="fill:none;stroke:red;stroke-width:1px;stroke-linecap:butt;stroke-linejoin:miter;stroke-opacity:1" d="M 657.038,46.9066 665.619,46.9066 z" id="boundary" inkscape:connector-curvature="0" />
	<path style="fill:none;stroke:red;stroke-width:1px;stroke-linecap:butt;stroke-linejoin:miter;stroke-opacity:1" d="M 665.619,46.9066 674.201,46.9066 z" id="boundary" inkscape:connector-curvature="0" />
	<path style="fill:none;stroke:red;stroke-width:1px;stroke-linecap:butt;stroke-linejoin:miter;stroke-opacity:1" d="M 674.201,46.9066 682.782,46.9066 z" id="boundary" inkscape:connector-curvature="0" />
	<path style="fill:none;stroke:red;stroke-width:1px;stroke-linecap:butt;stroke-linejoin:miter;stroke-opacity:1" d="M 682.782,46.9066 691.363,46.9066 z" id="boundary" inkscape:connector-curvature="0" />
	<path style="fill:none;stroke:red;stroke-width:1px;stroke-linecap:butt;stroke-linejoin:miter;stroke-opacity:1" d="M 691.363,46.9066 699.945,46.9066 z" id="boundary" inkscape:connector-curvature="0" />
	<path style="fill:none;stroke:red;stroke-width:1px;stroke-linecap:butt;stroke-linejoin:miter;stroke-opacity:1" d="M 699.945,46.9066 708.526,46.9066 z" id="boundary" inkscape:connector-curvature="0" />
	<path style="fill:none;stroke:red;stroke-width:1px;stroke-linecap:butt;stroke-linejoin:miter;stroke-opacity:1" d="M 708.526,46.9066 716.249,51.1972 z" id="boundary" inkscape:connector-curvature="0" />
	<path style="fill:none;stroke:red;stroke-width:1px;stroke-linecap:butt;stroke-linejoin:miter;stroke-opacity:1" d="M 716.249,51.1972 723.972,55.4879 z" id="boundary" inkscape:connector-curvature="0" />
	<path style="fill:none;stroke:red;stroke-width:1px;stroke-linecap:butt;stroke-linejoin:miter;stroke-opacity:1" d="M 723.972,55.4879 731.696,59.7785 z" id="boundary" inkscape:connector-curvature="0" />
	<path style="fill:none;stroke:red;stroke-width:1px;stroke-linecap:butt;stroke-linejoin:miter;stroke-opacity:1" d="M 731.696,59.7785 739.419,64.0692 z" id="boundary" inkscape:connector-curvature="0" />
	<path style="fill:none;stroke:red;stroke-width:1px;stroke-linecap:butt;stroke-linejoin:miter;stroke-opacity:1" d="M 739.419,64.0692 746.284,70.0761 z" id="boundary" inkscape:connector-curvature="0" />
	<path style="fill:none;stroke:red;stroke-width:1px;stroke-linecap:butt;stroke-linejoin:miter;stroke-opacity:1" d="M 746.284,70.0761 754.007,74.3668 z" id="boundary" inkscape:connector-curvature="0" />
	<path style="fill:none;stroke:red;stroke-width:1px;stroke-linecap:butt;stroke-linejoin:miter;stroke-opacity:1" d="M 754.007,74.3668 760.014,81.2318 z" id="boundary" inkscape:connector-curvature="0" />
	<path style="fill:none;stroke:red;stroke-width:1px;stroke-linecap:butt;stroke-linejoin:miter;stroke-opacity:1" d="M 760.014,81.2318 768.595,81.2318 z" id="boundary" inkscape:connector-curvature="0" />
	<path style="fill:none;stroke:red;stroke-width:1px;stroke-linecap:butt;stroke-linejoin:miter;stroke-opacity:1" d="M 768.595,81.2318 776.318,85.5225 z" id="boundary" inkscape:connector-curvature="0" />
	<path style="fill:none;stroke:red;stroke-width:1px;stroke-linecap:butt;stroke-linejoin:miter;stroke-opacity:1" d="M 776.318,85.5225 784.042,89.8131 z" id="boundary" inkscape:connector-curvature="0" />
	<path style="fill:none;stroke:red;stroke-width:1px;stroke-linecap:butt;stroke-linejoin:miter;stroke-opacity:1" d="M 784.042,89.8131 792.623,89.8131 z" id="boundary" inkscape:connector-curvature="0" />
	<path style="fill:none;stroke:red;stroke-width:1px;stroke-linecap:butt;stroke-linejoin:miter;stroke-opacity:1" d="M 792.623,89.8131 801.204,89.8131 z" id="boundary" inkscape:connector-curvature="0" />
	<path style="fill:none;stroke:red;stroke-width:1px;stroke-linecap:butt;stroke-linejoin:miter;stroke-opacity:1" d="M 801.204,89.8131 808.927,94.1038 z" id="boundary" inkscape:connector-curvature="0" />
	<path style="fill:none;stroke:red;stroke-width:1px;stroke-linecap:butt;stroke-linejoin:miter;stroke-opacity:1" d="M 808.927,94.1038 817.509,94.1038 z" id="boundary" inkscape:connector-curvature="0" />
	<path style="fill:none;stroke:red;stroke-width:1px;stroke-linecap:butt;stroke-linejoin:miter;stroke-opacity:1" d="M 817.509,94.1038 826.09,94.1038 z" id="boundary" inkscape:connector-curvature="0" />
	<path style="fill:none;stroke:red;stroke-width:1px;stroke-linecap:butt;stroke-linejoin:miter;stroke-opacity:1" d="M 826.09,94.1038 834.671,94.1038 z" id="boundary" inkscape:connector-curvature="0" />
	<path style="fill:none;stroke:red;stroke-width:1px;stroke-linecap:butt;stroke-linejoin:miter;stroke-opacity:1" d="M 834.671,94.1038 842.394,98.3945 z" id="boundary" inkscape:connector-curvature="0" />
	<path style="fill:none;stroke:red;stroke-width:1px;stroke-linecap:butt;stroke-linejoin:miter;stroke-opacity:1" d="M 842.394,98.3945 850.976,98.3945 z" id="boundary" inkscape:connector-curvature="0" />
	<path style="fill:none;stroke:red;stroke-width:1px;stroke-linecap:butt;stroke-linejoin:miter;stroke-opacity:1" d="M 850.976,98.3945 858.699,102.685 z" id="boundary" inkscape:connector-curvature="0" />
	<path style="fill:none;stroke:red;stroke-width:1px;stroke-linecap:butt;stroke-linejoin:miter;stroke-opacity:1" d="M 858.699,102.685 867.28,102.685 z" id="boundary" inkscape:connector-curvature="0" />
	<path style="fill:none;stroke:red;stroke-width:1px;stroke-linecap:butt;stroke-linejoin:miter;stroke-opacity:1" d="M 867.28,102.685 875.862,102.685 z" id="boundary" inkscape:connector-curvature="0" />
	<path style="fill:none;stroke:red;stroke-width:1px;stroke-linecap:butt;stroke-linejoin:miter;stroke-opacity:1" d="M 875.862,102.685 884.443,102.685 z" id="boundary" inkscape:connector-curvature="0" />
	<path style="fill:none;stroke:red;stroke-width:1px;stroke-linecap:butt;stroke-linejoin:miter;stroke-opacity:1" d="M 884.443,102.685 893.024,102.685 z" id="boundary" inkscape:connector-curvature="0" />
	<path style="fill:none;stroke:red;stroke-width:1px;stroke-linecap:butt;stroke-linejoin:miter;stroke-opacity:1" d="M 893.024,102.685 901.606,102.685 z" id="boundary" inkscape:connector-curvature="0" />
	<path style="fill:none;stroke:red;stroke-width:1px;stroke-linecap:butt;stroke-linejoin:miter;stroke-opacity:1" d="M 901.606,102.685 910.187,102.685 z" id="boundary" inkscape:connector-curvature="0" />
	<path style="fill:none;stroke:red;stroke-width:1px;stroke-linecap:butt;stroke-linejoin:miter;stroke-opacity:1" d="M 910.187,102.685 918.768,102.685 z" id="boundary" inkscape:connector-curvature="0" />
	<path style="fill:none;stroke:red;stroke-width:1px;stroke-linecap:butt;stroke-linejoin:miter;stroke-opacity:1" d="M 918.768,102.685 927.349,102.685 z" id="boundary" inkscape:connector-curvature="0" />
	<path style="fill:none;stroke:red;stroke-width:1px;stroke-linecap:butt;stroke-linejoin:miter;stroke-opacity:1" d="M 927.349,102.685 935.931,102.685 z" id="boundary" inkscape:connector-curvature="0" />
	<path style="fill:none;stroke:red;stroke-width:1px;stroke-linecap:butt;stroke-linejoin:miter;stroke-opacity:1" d="M 935.931,102.685 944.512,102.685 z" id="boundary" inkscape:connector-curvature="0" />
	<path style="fill:none;stroke:red;stroke-width:1px;stroke-linecap:butt;stroke-linejoin:miter;stroke-opacity:1" d="M 944.512,102.685 953.093,102.685 z" id="boundary" inkscape:connector-curvature="0" />
	<path style="fill:none;stroke:red;stroke-width:1px;stroke-linecap:butt;stroke-linejoin:miter;stroke-opacity:1" d="M 953.093,102.685 961.675,105.26 z" id="boundary" inkscape:connector-curvature="0" />
	<path style="fill:none;stroke:red;stroke-width:1px;stroke-linecap:butt;stroke-linejoin:miter;stroke-opacity:1" d="M 961.675,105.26 967.682,112.125 z" id="boundary" inkscape:connector-curvature="0" />
	<path style="fill:none;stroke:red;stroke-width:1px;stroke-linecap:butt;stroke-linejoin:miter;stroke-opacity:1" d="M 967.682,112.125 971.972,119.848 z" id="boundary" inkscape:connector-curvature="0" />
	<path style="fill:none;stroke:red;stroke-width:1px;stroke-linecap:butt;stroke-linejoin:miter;stroke-opacity:1" d="M 971.972,119.848 974.547,128.429 z" id="boundary" inkscape:connector-curvature="0" />
	<path style="fill:none;stroke:red;stroke-width:1px;stroke-linecap:butt;stroke-linejoin:miter;stroke-opacity:1" d="M 974.547,128.429 978.837,136.152 z" id="boundary" inkscape:connector-curvature="0" />
	<path style="fill:none;stroke:red;stroke-width:1px;stroke-linecap:butt;stroke-linejoin:miter;stroke-opacity:1" d="M 978.837,136.152 978.837,144.734 z" id="boundary" inkscape:connector-curvature="0" />
	<path style="fill:none;stroke:red;stroke-width:1px;stroke-linecap:butt;stroke-linejoin:miter;stroke-opacity:1" d="M 978.837,144.734 978.837,153.315 z" id="boundary" inkscape:connector-curvature="0" />
	<path style="fill:none;stroke:red;stroke-width:1px;stroke-linecap:butt;stroke-linejoin:miter;stroke-opacity:1" d="M 978.837,153.315 983.128,161.038 z" id="boundary" inkscape:connector-curvature="0" />
	<path style="fill:none;stroke:red;stroke-width:1px;stroke-linecap:butt;stroke-linejoin:miter;stroke-opacity:1" d="M 983.128,161.038 987.419,168.761 z" id="boundary" inkscape:connector-curvature="0" />
	<path style="fill:none;stroke:red;stroke-width:1px;stroke-linecap:butt;stroke-linejoin:miter;stroke-opacity:1" d="M 987.419,168.761 991.709,176.484 z" id="boundary" inkscape:connector-curvature="0" />
	<path style="fill:none;stroke:red;stroke-width:1px;stroke-linecap:butt;stroke-linejoin:miter;stroke-opacity:1" d="M 991.709,176.484 993.426,185.066 z" id="boundary" inkscape:connector-curvature="0" />
	<path style="fill:none;stroke:red;stroke-width:1px;stroke-linecap:butt;stroke-linejoin:miter;stroke-opacity:1" d="M 993.426,185.066 996,193.647 z" id="boundary" inkscape:connector-curvature="0" />
	<path style="fill:none;stroke:red;stroke-width:1px;stroke-linecap:butt;stroke-linejoin:miter;stroke-opacity:1" d="M 996,193.647 996,202.228 z" id="boundary" inkscape:connector-curvature="0" />
	<circle cx="4" cy="229.689" r="4" fill="#0" id="circle0"/>
	<circle cx="4" cy="238.27" r="4" fill="#0" id="circle1"/>
	<circle cx="4" cy="246.851" r="4" fill="#0" id="circle2"/>
	<circle cx="4" cy="255.433" r="4" fill="#0" id="circle3"/>
	<circle cx="4" cy="264.014" r="4" fill="#0" id="circle4"/>
	<circle cx="8.29066" cy="271.737" r="4" fill="#0" id="circle5"/>
	<circle cx="10.8651" cy="222.824" r="4" fill="#0" id="circle6"/>
	<circle cx="12.5813" cy="279.46" r="4" fill="#0" id="circle7"/>
	<circle cx="12.5813" cy="288.042" r="4" fill="#0" id="circle8"/>
	<circle cx="15.1557" cy="296.623" r="4" fill="#0" id="circle9"/>
	<circle cx="16.872" cy="305.204" r="4" fill="#0" id="circle10"/>
	<circle cx="18.5882" cy="218.533" r="4" fill="#0" id="circle11"/>
	<circle cx="19.4464" cy="313.785" r="4" fill="#0" id="circle12"/>
	<circle cx="21.1626" cy="322.367" r="4" fill="#0" id="circle13"/>
	<circle cx="26.3114" cy="329.232" r="4" fill="#0" id="circle14"/>
	<circle cx="27.1696" cy="215.1" r="4" fill="#0" id="circle15"/>
	<circle cx="33.1765" cy="335.239" r="4" fill="#0" id="circle16"/>
	<circle cx="34.0346" cy="209.952" r="4" fill="#0" id="circle17"/>
	<circle cx="41.7578" cy="205.661" r="4" fill="#0" id="circle18"/>
	<circle cx="41.7578" cy="335.239" r="4" fill="#0" id="circle19"/>
	<circle cx="49.481" cy="201.37" r="4" fill="#0" id="circle20"/>
	<circle cx="50.3391" cy="333.522" r="4" fill="#0" id="circle21"/>
	<circle cx="53.7716" cy="192.789" r="4" fill="#0" id="circle22"/>
	<circle cx="58.9204" cy="330.948" r="4" fill="#0" id="circle23"/>
	<circle cx="60.6367" cy="185.924" r="4" fill="#0" id="circle24"/>
	<circle cx="67.5017" cy="179.917" r="4" fill="#0" id="circle25"/>
	<circle cx="67.5017" cy="329.232" r="4" fill="#0" id="circle26"/>
	<circle cx="70.9343" cy="171.336" r="4" fill="#0" id="circle27"/>
	<circle cx="75.2249" cy="162.754" r="4" fill="#0" id="circle28"/>
	<circle cx="76.083" cy="326.657" r="4" fill="#0" id="circle29"/>
	<circle cx="82.09" cy="155.889" r="4" fill="#0" id="circle30"/>
	<circle cx="84.6644" cy="326.657" r="4" fill="#0" id="circle31"/>
	<circle cx="88.955" cy="149.882" r="4" fill="#0" id="circle32"/>
	<circle cx="92.3875" cy="141.301" r="4" fill="#0" id="circle33"/>
	<circle cx="93.2457" cy="326.657" r="4" fill="#0" id="circle34"/>
	<circle cx="98.3945" cy="118.131" r="4" fill="#0" id="circle35"/>
	<circle cx="98.3945" cy="126.713" r="4" fill="#0" id="circle36"/>
	<circle cx="101.827" cy="326.657" r="4" fill="#0" id="circle37"/>
	<circle cx="102.685" cy="49.481" r="4" fill="#0" id="circle38"/>
	<circle cx="102.685" cy="58.0623" r="4" fill="#0" id="circle39"/>
	<circle cx="102.685" cy="66.6436" r="4" fill="#0" id="circle40"/>
	<circle cx="102.685" cy="75.2249" r="4" fill="#0" id="circle41"/>
	<circle cx="102.685" cy="83.8062" r="4" fill="#0" id="circle42"/>
	<circle cx="102.685" cy="92.3875" r="4" fill="#0" id="circle43"/>
	<circle cx="102.685" cy="100.969" r="4" fill="#0" id="circle44"/>
	<circle cx="102.685" cy="109.55" r="4" fill="#0" id="circle45"/>
	<circle cx="106.976" cy="36.609" r="4" fill="#0" id="circle46"/>
	<circle cx="110.408" cy="326.657" r="4" fill="#0" id="circle47"/>
	<circle cx="111.266" cy="28.0277" r="4" fill="#0" id="circle48"/>
	<circle cx="118.131" cy="21.1626" r="4" fill="#0" id="circle49"/>
	<circle cx="118.99" cy="326.657" r="4" fill="#0" id="circle50"/>
	<circle cx="122.422" cy="12.5813" r="4" fill="#0" id="circle51"/>
	<circle cx="127.571" cy="326.657" r="4" fill="#0" id="circle52"/>
	<circle cx="131.003" cy="8.29066" r="4" fill="#0" id="circle53"/>
	<circle cx="136.152" cy="326.657" r="4" fill="#0" id="circle54"/>
	<circle cx="139.585" cy="8.29066" r="4" fill="#0" id="circle55"/>
	<circle cx="144.734" cy="326.657" r="4" fill="#0" id="circle56"/>
	<circle cx="148.166" cy="8.29066" r="4" fill="#0" id="circle57"/>
	<circle cx="153.315" cy="326.657" r="4" fill="#0" id="circle58"/>
	<circle cx="156.747" cy="8.29066" r="4" fill="#0" id="circle59"/>
	<circle cx="161.896" cy="326.657" r="4" fill="#0" id="circle60"/>
	<circle cx="165.329" cy="8.29066" r="4" fill="#0" id="circle61"/>
	<circle cx="170.478" cy="326.657" r="4" fill="#0" id="circle62"/>
	<circle cx="173.91" cy="8.29066" r="4" fill="#0" id="circle63"/>
	<circle cx="179.059" cy="326.657" r="4" fill="#0" id="circle64"/>
	<circle cx="182.491" cy="8.29066" r="4" fill="#0" id="circle65"/>
	<circle cx="187.64" cy="326.657" r="4" fill="#0" id="circle66"/>
	<circle cx="191.073" cy="4" r="4" fill="#0" id="circle67"/>
	<circle cx="195.363" cy="330.948" r="4" fill="#0" id="circle68"/>
	<circle cx="199.654" cy="4" r="4" fill="#0" id="circle69"/>
	<circle cx="203.945" cy="330.948" r="4" fill="#0" id="circle70"/>
	<circle cx="208.235" cy="4" r="4" fill="#0" id="circle71"/>
	<circle cx="212.526" cy="330.948" r="4" fill="#0" id="circle72"/>
	<circle cx="216.817" cy="4" r="4" fill="#0" id="circle73"/>
	<circle cx="221.107" cy="330.948" r="4" fill="#0" id="circle74"/>
	<circle cx="225.398" cy="4" r="4" fill="#0" id="circle75"/>
	<circle cx="227.972" cy="336.955" r="4" fill="#0" id="circle76"/>
	<circle cx="233.979" cy="4" r="4" fill="#0" id="circle77"/>
	<circle cx="233.979" cy="343.82" r="4" fill="#0" id="circle78"/>
	<circle cx="242.561" cy="4" r="4" fill="#0" id="circle79"/>
	<circle cx="242.561" cy="347.253" r="4" fill="#0" id="circle80"/>
	<circle cx="248.567" cy="354.118" r="4" fill="#0" id="circle81"/>
	<circle cx="251.142" cy="4" r="4" fill="#0" id="circle82"/>
	<circle cx="255.433" cy="360.125" r="4" fill="#0" id="circle83"/>
	<circle cx="259.723" cy="4" r="4" fill="#0" id="circle84"/>
	<circle cx="263.156" cy="364.415" r="4" fill="#0" id="circle85"/>
	<circle cx="268.304" cy="4" r="4" fill="#0" id="circle86"/>
	<circle cx="270.021" cy="369.564" r="4" fill="#0" id="circle87"/>
	<circle cx="275.17" cy="376.429" r="4" fill="#0" id="circle88"/>
	<circle cx="276.886" cy="4" r="4" fill="#0" id="circle89"/>
	<circle cx="283.751" cy="379.862" r="4" fill="#0" id="circle90"/>
	<circle cx="285.467" cy="4" r="4" fill="#0" id="circle91"/>
	<circle cx="289.758" cy="386.727" r="4" fill="#0" id="circle92"/>
	<circle cx="293.19" cy="8.29066" r="4" fill="#0" id="circle93"/>
	<circle cx="298.339" cy="390.159" r="4" fill="#0" id="circle94"/>
	<circle cx="300.913" cy="12.5813" r="4" fill="#0" id="circle95"/>
	<circle cx="305.204" cy="395.308" r="4" fill="#0" id="circle96"/>
	<circle cx="307.779" cy="17.7301" r="4" fill="#0" id="circle97"/>
	<circle cx="312.927" cy="399.599" r="4" fill="#0" id="circle98"/>
	<circle cx="313.785" cy="24.5952" r="4" fill="#0" id="circle99"/>
	<circle cx="320.651" cy="403.889" r="4" fill="#0" id="circle100"/>
	<circle cx="322.367" cy="28.0277" r="4" fill="#0" id="circle101"/>
	<circle cx="328.374" cy="34.8927" r="4" fill="#0" id="circle102"/>
	<circle cx="329.232" cy="403.889" r="4" fill="#0" id="circle103"/>
	<circle cx="335.239" cy="40.8997" r="4" fill="#0" id="circle104"/>
	<circle cx="337.813" cy="403.889" r="4" fill="#0" id="circle105"/>
	<circle cx="341.246" cy="47.7647" r="4" fill="#0" id="circle106"/>
	<circle cx="346.394" cy="403.889" r="4" fill="#0" id="circle107"/>
	<circle cx="348.111" cy="53.7716" r="4" fill="#0" id="circle108"/>
	<circle cx="354.118" cy="60.6367" r="4" fill="#0" id="circle109"/>
	<circle cx="354.976" cy="403.889" r="4" fill="#0" id="circle110"/>
	<circle cx="360.983" cy="66.6436" r="4" fill="#0" id="circle111"/>
	<circle cx="363.557" cy="402.173" r="4" fill="#0" id="circle112"/>
	<circle cx="368.706" cy="70.9343" r="4" fill="#0" id="circle113"/>
	<circle cx="372.138" cy="399.599" r="4" fill="#0" id="circle114"/>
	<circle cx="377.287" cy="72.6505" r="4" fill="#0" id="circle115"/>
	<circle cx="380.72" cy="399.599" r="4" fill="#0" id="circle116"/>
	<circle cx="385.869" cy="72.6505" r="4" fill="#0" id="circle117"/>
	<circle cx="388.443" cy="395.308" r="4" fill="#0" id="circle118"/>
	<circle cx="394.45" cy="72.6505" r="4" fill="#0" id="circle119"/>
	<circle cx="397.024" cy="395.308" r="4" fill="#0" id="circle120"/>
	<circle cx="403.031" cy="72.6505" r="4" fill="#0" id="circle121"/>
	<circle cx="405.606" cy="395.308" r="4" fill="#0" id="circle122"/>
	<circle cx="411.612" cy="72.6505" r="4" fill="#0" id="circle123"/>
	<circle cx="414.187" cy="394.45" r="4" fill="#0" id="circle124"/>
	<circle cx="420.194" cy="72.6505" r="4" fill="#0" id="circle125"/>
	<circle cx="422.768" cy="391.017" r="4" fill="#0" id="circle126"/>
	<circle cx="428.775" cy="72.6505" r="4" fill="#0" id="circle127"/>
	<circle cx="431.349" cy="391.017" r="4" fill="#0" id="circle128"/>
	<circle cx="437.356" cy="72.6505" r="4" fill="#0" id="circle129"/>
	<circle cx="439.931" cy="390.159" r="4" fill="#0" id="circle130"/>
	<circle cx="445.938" cy="72.6505" r="4" fill="#0" id="circle131"/>
	<circle cx="448.512" cy="386.727" r="4" fill="#0" id="circle132"/>
	<circle cx="454.519" cy="72.6505" r="4" fill="#0" id="circle133"/>
	<circle cx="457.093" cy="386.727" r="4" fill="#0" id="circle134"/>
	<circle cx="463.1" cy="70.9343" r="4" fill="#0" id="circle135"/>
	<circle cx="465.675" cy="385.869" r="4" fill="#0" id="circle136"/>
	<circle cx="471.682" cy="68.3599" r="4" fill="#0" id="circle137"/>
	<circle cx="474.256" cy="382.436" r="4" fill="#0" id="circle138"/>
	<circle cx="479.405" cy="64.0692" r="4" fill="#0" id="circle139"/>
	<circle cx="482.837" cy="382.436" r="4" fill="#0" id="circle140"/>
	<circle cx="487.986" cy="64.0692" r="4" fill="#0" id="circle141"/>
	<circle cx="490.561" cy="378.145" r="4" fill="#0" id="circle142"/>
	<circle cx="496.567" cy="64.0692" r="4" fill="#0" id="circle143"/>
	<circle cx="499.142" cy="378.145" r="4" fill="#0" id="circle144"/>
	<circle cx="504.291" cy="59.7785" r="4" fill="#0" id="circle145"/>
	<circle cx="507.723" cy="378.145" r="4" fill="#0" id="circle146"/>
	<circle cx="512.014" cy="55.4879" r="4" fill="#0" id="circle147"/>
	<circle cx="515.446" cy="373.855" r="4" fill="#0" id="circle148"/>
	<circle cx="520.595" cy="55.4879" r="4" fill="#0" id="circle149"/>
	<circle cx="524.028" cy="373.855" r="4" fill="#0" id="circle150"/>
	<circle cx="528.318" cy="51.1972" r="4" fill="#0" id="circle151"/>
	<circle cx="532.609" cy="373.855" r="4" fill="#0" id="circle152"/>
	<circle cx="536.9" cy="51.1972" r="4" fill="#0" id="circle153"/>
	<circle cx="541.19" cy="373.855" r="4" fill="#0" id="circle154"/>
	<circle cx="545.481" cy="48.6228" r="4" fill="#0" id="circle155"/>
	<circle cx="549.772" cy="373.855" r="4" fill="#0" id="circle156"/>
	<circle cx="554.062" cy="46.9066" r="4" fill="#0" id="circle157"/>
	<circle cx="558.353" cy="373.855" r="4" fill="#0" id="circle158"/>
	<circle cx="562.644" cy="46.9066" r="4" fill="#0" id="circle159"/>
	<circle cx="566.934" cy="373.855" r="4" fill="#0" id="circle160"/>
	<circle cx="571.225" cy="46.9066" r="4" fill="#0" id="circle161"/>
	<circle cx="575.516" cy="373.855" r="4" fill="#0" id="circle162"/>
	<circle cx="579.806" cy="46.9066" r="4" fill="#0" id="circle163"/>
	<circle cx="584.097" cy="373.855" r="4" fill="#0" id="circle164"/>
	<circle cx="588.388" cy="46.9066" r="4" fill="#0" id="circle165"/>
	<circle cx="592.678" cy="373.855" r="4" fill="#0" id="circle166"/>
	<circle cx="596.969" cy="46.9066" r="4" fill="#0" id="circle167"/>
	<circle cx="601.26" cy="373.855" r="4" fill="#0" id="circle168"/>
	<circle cx="605.55" cy="46.9066" r="4" fill="#0" id="circle169"/>
	<circle cx="609.841" cy="373.855" r="4" fill="#0" id="circle170"/>
	<circle cx="614.131" cy="46.9066" r="4" fill="#0" id="circle171"/>
	<circle cx="618.422" cy="373.855" r="4" fill="#0" id="circle172"/>
	<circle cx="622.713" cy="46.9066" r="4" fill="#0" id="circle173"/>
	<circle cx="627.003" cy="373.855" r="4" fill="#0" id="circle174"/>
	<circle cx="631.294" cy="46.9066" r="4" fill="#0" id="circle175"/>
	<circle cx="635.585" cy="373.855" r="4" fill="#0" id="circle176"/>
	<circle cx="639.875" cy="46.9066" r="4" fill="#0" id="circle177"/>
	<circle cx="644.166" cy="373.855" r="4" fill="#0" id="circle178"/>
	<circle cx="648.457" cy="46.9066" r="4" fill="#0" id="circle179"/>
	<circle cx="652.747" cy="373.855" r="4" fill="#0" id="circle180"/>
	<circle cx="657.038" cy="46.9066" r="4" fill="#0" id="circle181"/>
	<circle cx="661.329" cy="373.855" r="4" fill="#0" id="circle182"/>
	<circle cx="665.619" cy="46.9066" r="4" fill="#0" id="circle183"/>
	<circle cx="669.91" cy="373.855" r="4" fill="#0" id="circle184"/>
	<circle cx="674.201" cy="46.9066" r="4" fill="#0" id="circle185"/>
	<circle cx="678.491" cy="375.571" r="4" fill="#0" id="circle186"/>
	<circle cx="682.782" cy="46.9066" r="4" fill="#0" id="circle187"/>
	<circle cx="686.215" cy="379.862" r="4" fill="#0" id="circle188"/>
	<circle cx="691.363" cy="46.9066" r="4" fill="#0" id="circle189"/>
	<circle cx="694.796" cy="382.436" r="4" fill="#0" id="circle190"/>
	<circle cx="699.945" cy="46.9066" r="4" fill="#0" id="circle191"/>
	<circle cx="699.945" cy="389.301" r="4" fill="#0" id="circle192"/>
	<circle cx="708.526" cy="46.9066" r="4" fill="#0" id="circle193"/>
	<circle cx="708.526" cy="392.734" r="4" fill="#0" id="circle194"/>
	<circle cx="714.533" cy="399.599" r="4" fill="#0" id="circle195"/>
	<circle cx="716.249" cy="51.1972" r="4" fill="#0" id="circle196"/>
	<circle cx="723.114" cy="403.031" r="4" fill="#0" id="circle197"/>
	<circle cx="723.972" cy="55.4879" r="4" fill="#0" id="circle198"/>
	<circle cx="729.121" cy="409.896" r="4" fill="#0" id="circle199"/>
	<circle cx="731.696" cy="59.7785" r="4" fill="#0" id="circle200"/>
	<circle cx="735.986" cy="415.903" r="4" fill="#0" id="circle201"/>
	<circle cx="739.419" cy="64.0692" r="4" fill="#0" id="circle202"/>
	<circle cx="742.851" cy="421.052" r="4" fill="#0" id="circle203"/>
	<circle cx="746.284" cy="70.0761" r="4" fill="#0" id="circle204"/>
	<circle cx="750.574" cy="425.343" r="4" fill="#0" id="circle205"/>
	<circle cx="754.007" cy="74.3668" r="4" fill="#0" id="circle206"/>
	<circle cx="755.723" cy="432.208" r="4" fill="#0" id="circle207"/>
	<circle cx="760.014" cy="81.2318" r="4" fill="#0" id="circle208"/>
	<circle cx="764.304" cy="435.64" r="4" fill="#0" id="circle209"/>
	<circle cx="768.595" cy="81.2318" r="4" fill="#0" id="circle210"/>
	<circle cx="772.028" cy="439.931" r="4" fill="#0" id="circle211"/>
	<circle cx="776.318" cy="85.5225" r="4" fill="#0" id="circle212"/>
	<circle cx="780.609" cy="442.505" r="4" fill="#0" id="circle213"/>
	<circle cx="784.042" cy="89.8131" r="4" fill="#0" id="circle214"/>
	<circle cx="789.19" cy="439.931" r="4" fill="#0" id="circle215"/>
	<circle cx="792.623" cy="89.8131" r="4" fill="#0" id="circle216"/>
	<circle cx="797.772" cy="438.215" r="4" fill="#0" id="circle217"/>
	<circle cx="801.204" cy="89.8131" r="4" fill="#0" id="circle218"/>
	<circle cx="806.353" cy="438.215" r="4" fill="#0" id="circle219"/>
	<circle cx="808.927" cy="94.1038" r="4" fill="#0" id="circle220"/>
	<circle cx="814.934" cy="438.215" r="4" fill="#0" id="circle221"/>
	<circle cx="817.509" cy="94.1038" r="4" fill="#0" id="circle222"/>
	<circle cx="822.657" cy="433.924" r="4" fill="#0" id="circle223"/>
	<circle cx="826.09" cy="94.1038" r="4" fill="#0" id="circle224"/>
	<circle cx="831.239" cy="433.924" r="4" fill="#0" id="circle225"/>
	<circle cx="834.671" cy="94.1038" r="4" fill="#0" id="circle226"/>
	<circle cx="839.82" cy="432.208" r="4" fill="#0" id="circle227"/>
	<circle cx="842.394" cy="98.3945" r="4" fill="#0" id="circle228"/>
	<circle cx="848.401" cy="429.633" r="4" fill="#0" id="circle229"/>
	<circle cx="850.976" cy="98.3945" r="4" fill="#0" id="circle230"/>
	<circle cx="856.125" cy="425.343" r="4" fill="#0" id="circle231"/>
	<circle cx="858.699" cy="102.685" r="4" fill="#0" id="circle232"/>
	<circle cx="864.706" cy="424.484" r="4" fill="#0" id="circle233"/>
	<circle cx="867.28" cy="102.685" r="4" fill="#0" id="circle234"/>
	<circle cx="873.287" cy="421.052" r="4" fill="#0" id="circle235"/>
	<circle cx="875.862" cy="102.685" r="4" fill="#0" id="circle236"/>
	<circle cx="881.01" cy="416.761" r="4" fill="#0" id="circle237"/>
	<circle cx="884.443" cy="102.685" r="4" fill="#0" id="circle238"/>
	<circle cx="888.734" cy="412.471" r="4" fill="#0" id="circle239"/>
	<circle cx="893.024" cy="102.685" r="4" fill="#0" id="circle240"/>
	<circle cx="897.315" cy="408.18" r="4" fill="#0" id="circle241"/>
	<circle cx="901.606" cy="102.685" r="4" fill="#0" id="circle242"/>
	<circle cx="905.896" cy="408.18" r="4" fill="#0" id="circle243"/>
	<circle cx="910.187" cy="102.685" r="4" fill="#0" id="circle244"/>
	<circle cx="910.187" cy="326.657" r="4" fill="#0" id="circle245"/>
	<circle cx="910.187" cy="335.239" r="4" fill="#0" id="circle246"/>
	<circle cx="910.187" cy="343.82" r="4" fill="#0" id="circle247"/>
	<circle cx="910.187" cy="352.401" r="4" fill="#0" id="circle248"/>
	<circle cx="910.187" cy="360.983" r="4" fill="#0" id="circle249"/>
	<circle cx="911.903" cy="369.564" r="4" fill="#0" id="circle250"/>
	<circle cx="913.619" cy="403.889" r="4" fill="#0" id="circle251"/>
	<circle cx="914.478" cy="318.076" r="4" fill="#0" id="circle252"/>
	<circle cx="918.768" cy="102.685" r="4" fill="#0" id="circle253"/>
	<circle cx="918.768" cy="375.571" r="4" fill="#0" id="circle254"/>
	<circle cx="920.484" cy="398.74" r="4" fill="#0" id="circle255"/>
	<circle cx="921.343" cy="312.069" r="4" fill="#0" id="circle256"/>
	<circle cx="923.059" cy="383.294" r="4" fill="#0" id="circle257"/>
	<circle cx="925.633" cy="391.875" r="4" fill="#0" id="circle258"/>
	<circle cx="927.349" cy="102.685" r="4" fill="#0" id="circle259"/>
	<circle cx="927.349" cy="305.204" r="4" fill="#0" id="circle260"/>
	<circle cx="934.215" cy="299.197" r="4" fill="#0" id="circle261"/>
	<circle cx="935.931" cy="102.685" r="4" fill="#0" id="circle262"/>
	<circle cx="942.796" cy="294.907" r="4" fill="#0" id="circle263"/>
	<circle cx="944.512" cy="102.685" r="4" fill="#0" id="circle264"/>
	<circle cx="947.087" cy="286.325" r="4" fill="#0" id="circle265"/>
	<circle cx="953.093" cy="102.685" r="4" fill="#0" id="circle266"/>
	<circle cx="953.093" cy="275.17" r="4" fill="#0" id="circle267"/>
	<circle cx="957.384" cy="262.298" r="4" fill="#0" id="circle268"/>
	<circle cx="961.675" cy="105.26" r="4" fill="#0" id="circle269"/>
	<circle cx="961.675" cy="253.716" r="4" fill="#0" id="circle270"/>
	<circle cx="967.682" cy="112.125" r="4" fill="#0" id="circle271"/>
	<circle cx="968.54" cy="247.709" r="4" fill="#0" id="circle272"/>
	<circle cx="971.972" cy="119.848" r="4" fill="#0" id="circle273"/>
	<circle cx="972.83" cy="239.128" r="4" fill="#0" id="circle274"/>
	<circle cx="974.547" cy="128.429" r="4" fill="#0" id="circle275"/>
	<circle cx="974.547" cy="223.682" r="4" fill="#0" id="circle276"/>
	<circle cx="978.837" cy="136.152" r="4" fill="#0" id="circle277"/>
	<circle cx="978.837" cy="144.734" r="4" fill="#0" id="circle278"/>
	<circle cx="978.837" cy="153.315" r="4" fill="#0" id="circle279"/>
	<circle cx="982.27" cy="219.391" r="4" fill="#0" id="circle280"/>
	<circle cx="983.128" cy="161.038" r="4" fill="#0" id="circle281"/>
	<circle cx="987.419" cy="168.761" r="4" fill="#0" id="circle282"/>
	<circle cx="989.993" cy="215.1" r="4" fill="#0" id="circle283"/>
	<circle cx="991.709" cy="176.484" r="4" fill="#0" id="circle284"/>
	<circle cx="993.426" cy="185.066" r="4" fill="#0" id="circle285"/>
	<circle cx="996" cy="193.647" r="4" fill="#0" id="circle286"/>
	<circle cx="996" cy="202.228" r="4" fill="#0" id="circle287"/>
	</g>
</svg>