<?xml version="1.0" encoding="UTF-8" standalone="no"?>
<!-- Created with CurveBenchmark -->
<svg
	xmlns:dc="http://purl.org/dc/elements/1.1/"
	xmlns:cc="http://creativecommons.org/ns#"
	xmlns:rdf="http://www.w3.org/1999/02/22-rdf-syntax-ns#"
	xmlns:svg="http://www.w3.org/2000/svg"
	xmlns="http://www.w3.org/2000/svg"
	xmlns:sodipodi="http://sodipodi.sourceforge.net/DTD/sodipodi-0.dtd"
	xmlns:inkscape="http://www.inkscape.org/namespaces/inkscape"
	width="1000"
	height="1000"
	id="svg2"
	version="1.1"
	sodipodi:docname="manifold/connect2d-bird23.png.txt">
<defs
	id="defs4" />
<metadata
	id="metadata7">
	<rdf:RDF>
		<cc:Work
			rdf:about="">
			<dc:format>image/svg+xml</dc:format>
			<dc:type
				rdf:resource="http://purl.org/dc/dcmitype/StillImage" />
			<dc:title></dc:title>
		</cc:Work>
	</rdf:RDF>
</metadata>
<g
	inkscape:label="Layer 1"
	inkscape:groupmode="layer"
	id="layer1">
	<path style="fill:none;stroke:red;stroke-width:1px;stroke-linecap:butt;stroke-linejoin:miter;stroke-opacity:1" d="M 996,452.799 988.262,469.822 z" id="boundary" inkscape:connector-curvature="0" />
	<path style="fill:none;stroke:red;stroke-width:1px;stroke-linecap:butt;stroke-linejoin:miter;stroke-opacity:1" d="M 988.262,469.822 972.786,477.56 z" id="boundary" inkscape:connector-curvature="0" />
	<path style="fill:none;stroke:red;stroke-width:1px;stroke-linecap:butt;stroke-linejoin:miter;stroke-opacity:1" d="M 972.786,477.56 957.31,485.298 z" id="boundary" inkscape:connector-curvature="0" />
	<path style="fill:none;stroke:red;stroke-width:1px;stroke-linecap:butt;stroke-linejoin:miter;stroke-opacity:1" d="M 957.31,485.298 941.835,485.298 z" id="boundary" inkscape:connector-curvature="0" />
	<path style="fill:none;stroke:red;stroke-width:1px;stroke-linecap:butt;stroke-linejoin:miter;stroke-opacity:1" d="M 941.835,485.298 927.906,477.56 z" id="boundary" inkscape:connector-curvature="0" />
	<path style="fill:none;stroke:red;stroke-width:1px;stroke-linecap:butt;stroke-linejoin:miter;stroke-opacity:1" d="M 927.906,477.56 912.431,477.56 z" id="boundary" inkscape:connector-curvature="0" />
	<path style="fill:none;stroke:red;stroke-width:1px;stroke-linecap:butt;stroke-linejoin:miter;stroke-opacity:1" d="M 912.431,477.56 898.502,469.822 z" id="boundary" inkscape:connector-curvature="0" />
	<path style="fill:none;stroke:red;stroke-width:1px;stroke-linecap:butt;stroke-linejoin:miter;stroke-opacity:1" d="M 898.502,469.822 883.027,469.822 z" id="boundary" inkscape:connector-curvature="0" />
	<path style="fill:none;stroke:red;stroke-width:1px;stroke-linecap:butt;stroke-linejoin:miter;stroke-opacity:1" d="M 883.027,469.822 869.098,462.084 z" id="boundary" inkscape:connector-curvature="0" />
	<path style="fill:none;stroke:red;stroke-width:1px;stroke-linecap:butt;stroke-linejoin:miter;stroke-opacity:1" d="M 869.098,462.084 855.17,469.822 z" id="boundary" inkscape:connector-curvature="0" />
	<path style="fill:none;stroke:red;stroke-width:1px;stroke-linecap:butt;stroke-linejoin:miter;stroke-opacity:1" d="M 855.17,469.822 839.694,469.822 z" id="boundary" inkscape:connector-curvature="0" />
	<path style="fill:none;stroke:red;stroke-width:1px;stroke-linecap:butt;stroke-linejoin:miter;stroke-opacity:1" d="M 839.694,469.822 824.218,469.822 z" id="boundary" inkscape:connector-curvature="0" />
	<path style="fill:none;stroke:red;stroke-width:1px;stroke-linecap:butt;stroke-linejoin:miter;stroke-opacity:1" d="M 824.218,469.822 810.29,462.084 z" id="boundary" inkscape:connector-curvature="0" />
	<path style="fill:none;stroke:red;stroke-width:1px;stroke-linecap:butt;stroke-linejoin:miter;stroke-opacity:1" d="M 810.29,462.084 794.814,469.822 z" id="boundary" inkscape:connector-curvature="0" />
	<path style="fill:none;stroke:red;stroke-width:1px;stroke-linecap:butt;stroke-linejoin:miter;stroke-opacity:1" d="M 794.814,469.822 779.339,469.822 z" id="boundary" inkscape:connector-curvature="0" />
	<path style="fill:none;stroke:red;stroke-width:1px;stroke-linecap:butt;stroke-linejoin:miter;stroke-opacity:1" d="M 779.339,469.822 768.505,485.298 z" id="boundary" inkscape:connector-curvature="0" />
	<path style="fill:none;stroke:red;stroke-width:1px;stroke-linecap:butt;stroke-linejoin:miter;stroke-opacity:1" d="M 768.505,485.298 753.03,485.298 z" id="boundary" inkscape:connector-curvature="0" />
	<path style="fill:none;stroke:red;stroke-width:1px;stroke-linecap:butt;stroke-linejoin:miter;stroke-opacity:1" d="M 753.03,485.298 739.101,493.036 z" id="boundary" inkscape:connector-curvature="0" />
	<path style="fill:none;stroke:red;stroke-width:1px;stroke-linecap:butt;stroke-linejoin:miter;stroke-opacity:1" d="M 739.101,493.036 723.626,493.036 z" id="boundary" inkscape:connector-curvature="0" />
	<path style="fill:none;stroke:red;stroke-width:1px;stroke-linecap:butt;stroke-linejoin:miter;stroke-opacity:1" d="M 723.626,493.036 708.15,493.036 z" id="boundary" inkscape:connector-curvature="0" />
	<path style="fill:none;stroke:red;stroke-width:1px;stroke-linecap:butt;stroke-linejoin:miter;stroke-opacity:1" d="M 708.15,493.036 692.674,493.036 z" id="boundary" inkscape:connector-curvature="0" />
	<path style="fill:none;stroke:red;stroke-width:1px;stroke-linecap:butt;stroke-linejoin:miter;stroke-opacity:1" d="M 692.674,493.036 677.198,493.036 z" id="boundary" inkscape:connector-curvature="0" />
	<path style="fill:none;stroke:red;stroke-width:1px;stroke-linecap:butt;stroke-linejoin:miter;stroke-opacity:1" d="M 677.198,493.036 661.722,493.036 z" id="boundary" inkscape:connector-curvature="0" />
	<path style="fill:none;stroke:red;stroke-width:1px;stroke-linecap:butt;stroke-linejoin:miter;stroke-opacity:1" d="M 661.722,493.036 646.246,493.036 z" id="boundary" inkscape:connector-curvature="0" />
	<path style="fill:none;stroke:red;stroke-width:1px;stroke-linecap:butt;stroke-linejoin:miter;stroke-opacity:1" d="M 646.246,493.036 630.771,493.036 z" id="boundary" inkscape:connector-curvature="0" />
	<path style="fill:none;stroke:red;stroke-width:1px;stroke-linecap:butt;stroke-linejoin:miter;stroke-opacity:1" d="M 630.771,493.036 616.842,500.774 z" id="boundary" inkscape:connector-curvature="0" />
	<path style="fill:none;stroke:red;stroke-width:1px;stroke-linecap:butt;stroke-linejoin:miter;stroke-opacity:1" d="M 616.842,500.774 619.938,516.25 z" id="boundary" inkscape:connector-curvature="0" />
	<path style="fill:none;stroke:red;stroke-width:1px;stroke-linecap:butt;stroke-linejoin:miter;stroke-opacity:1" d="M 619.938,516.25 624.58,531.725 z" id="boundary" inkscape:connector-curvature="0" />
	<path style="fill:none;stroke:red;stroke-width:1px;stroke-linecap:butt;stroke-linejoin:miter;stroke-opacity:1" d="M 624.58,531.725 632.318,545.654 z" id="boundary" inkscape:connector-curvature="0" />
	<path style="fill:none;stroke:red;stroke-width:1px;stroke-linecap:butt;stroke-linejoin:miter;stroke-opacity:1" d="M 632.318,545.654 646.246,553.392 z" id="boundary" inkscape:connector-curvature="0" />
	<path style="fill:none;stroke:red;stroke-width:1px;stroke-linecap:butt;stroke-linejoin:miter;stroke-opacity:1" d="M 646.246,553.392 655.532,565.772 z" id="boundary" inkscape:connector-curvature="0" />
	<path style="fill:none;stroke:red;stroke-width:1px;stroke-linecap:butt;stroke-linejoin:miter;stroke-opacity:1" d="M 655.532,565.772 661.722,581.248 z" id="boundary" inkscape:connector-curvature="0" />
	<path style="fill:none;stroke:red;stroke-width:1px;stroke-linecap:butt;stroke-linejoin:miter;stroke-opacity:1" d="M 661.722,581.248 663.27,596.724 z" id="boundary" inkscape:connector-curvature="0" />
	<path style="fill:none;stroke:red;stroke-width:1px;stroke-linecap:butt;stroke-linejoin:miter;stroke-opacity:1" d="M 663.27,596.724 671.008,610.652 z" id="boundary" inkscape:connector-curvature="0" />
	<path style="fill:none;stroke:red;stroke-width:1px;stroke-linecap:butt;stroke-linejoin:miter;stroke-opacity:1" d="M 671.008,610.652 675.651,626.128 z" id="boundary" inkscape:connector-curvature="0" />
	<path style="fill:none;stroke:red;stroke-width:1px;stroke-linecap:butt;stroke-linejoin:miter;stroke-opacity:1" d="M 675.651,626.128 671.008,647.794 z" id="boundary" inkscape:connector-curvature="0" />
	<path style="fill:none;stroke:red;stroke-width:1px;stroke-linecap:butt;stroke-linejoin:miter;stroke-opacity:1" d="M 671.008,647.794 671.008,663.27 z" id="boundary" inkscape:connector-curvature="0" />
	<path style="fill:none;stroke:red;stroke-width:1px;stroke-linecap:butt;stroke-linejoin:miter;stroke-opacity:1" d="M 671.008,663.27 671.008,678.746 z" id="boundary" inkscape:connector-curvature="0" />
	<path style="fill:none;stroke:red;stroke-width:1px;stroke-linecap:butt;stroke-linejoin:miter;stroke-opacity:1" d="M 671.008,678.746 678.746,692.674 z" id="boundary" inkscape:connector-curvature="0" />
	<path style="fill:none;stroke:red;stroke-width:1px;stroke-linecap:butt;stroke-linejoin:miter;stroke-opacity:1" d="M 678.746,692.674 678.746,708.15 z" id="boundary" inkscape:connector-curvature="0" />
	<path style="fill:none;stroke:red;stroke-width:1px;stroke-linecap:butt;stroke-linejoin:miter;stroke-opacity:1" d="M 678.746,708.15 678.746,723.626 z" id="boundary" inkscape:connector-curvature="0" />
	<path style="fill:none;stroke:red;stroke-width:1px;stroke-linecap:butt;stroke-linejoin:miter;stroke-opacity:1" d="M 678.746,723.626 678.746,739.101 z" id="boundary" inkscape:connector-curvature="0" />
	<path style="fill:none;stroke:red;stroke-width:1px;stroke-linecap:butt;stroke-linejoin:miter;stroke-opacity:1" d="M 678.746,739.101 678.746,754.577 z" id="boundary" inkscape:connector-curvature="0" />
	<path style="fill:none;stroke:red;stroke-width:1px;stroke-linecap:butt;stroke-linejoin:miter;stroke-opacity:1" d="M 678.746,754.577 678.746,770.053 z" id="boundary" inkscape:connector-curvature="0" />
	<path style="fill:none;stroke:red;stroke-width:1px;stroke-linecap:butt;stroke-linejoin:miter;stroke-opacity:1" d="M 678.746,770.053 686.484,783.981 z" id="boundary" inkscape:connector-curvature="0" />
	<path style="fill:none;stroke:red;stroke-width:1px;stroke-linecap:butt;stroke-linejoin:miter;stroke-opacity:1" d="M 686.484,783.981 686.484,799.457 z" id="boundary" inkscape:connector-curvature="0" />
	<path style="fill:none;stroke:red;stroke-width:1px;stroke-linecap:butt;stroke-linejoin:miter;stroke-opacity:1" d="M 686.484,799.457 686.484,814.933 z" id="boundary" inkscape:connector-curvature="0" />
	<path style="fill:none;stroke:red;stroke-width:1px;stroke-linecap:butt;stroke-linejoin:miter;stroke-opacity:1" d="M 686.484,814.933 686.484,830.409 z" id="boundary" inkscape:connector-curvature="0" />
	<path style="fill:none;stroke:red;stroke-width:1px;stroke-linecap:butt;stroke-linejoin:miter;stroke-opacity:1" d="M 686.484,830.409 701.959,836.599 z" id="boundary" inkscape:connector-curvature="0" />
	<path style="fill:none;stroke:red;stroke-width:1px;stroke-linecap:butt;stroke-linejoin:miter;stroke-opacity:1" d="M 701.959,836.599 691.126,856.718 z" id="boundary" inkscape:connector-curvature="0" />
	<path style="fill:none;stroke:red;stroke-width:1px;stroke-linecap:butt;stroke-linejoin:miter;stroke-opacity:1" d="M 691.126,856.718 675.651,861.36 z" id="boundary" inkscape:connector-curvature="0" />
	<path style="fill:none;stroke:red;stroke-width:1px;stroke-linecap:butt;stroke-linejoin:miter;stroke-opacity:1" d="M 675.651,861.36 663.27,872.193 z" id="boundary" inkscape:connector-curvature="0" />
	<path style="fill:none;stroke:red;stroke-width:1px;stroke-linecap:butt;stroke-linejoin:miter;stroke-opacity:1" d="M 663.27,872.193 663.27,887.669 z" id="boundary" inkscape:connector-curvature="0" />
	<path style="fill:none;stroke:red;stroke-width:1px;stroke-linecap:butt;stroke-linejoin:miter;stroke-opacity:1" d="M 663.27,887.669 653.984,906.24 z" id="boundary" inkscape:connector-curvature="0" />
	<path style="fill:none;stroke:red;stroke-width:1px;stroke-linecap:butt;stroke-linejoin:miter;stroke-opacity:1" d="M 653.984,906.24 638.509,910.883 z" id="boundary" inkscape:connector-curvature="0" />
	<path style="fill:none;stroke:red;stroke-width:1px;stroke-linecap:butt;stroke-linejoin:miter;stroke-opacity:1" d="M 638.509,910.883 623.033,904.693 z" id="boundary" inkscape:connector-curvature="0" />
	<path style="fill:none;stroke:red;stroke-width:1px;stroke-linecap:butt;stroke-linejoin:miter;stroke-opacity:1" d="M 623.033,904.693 615.295,890.764 z" id="boundary" inkscape:connector-curvature="0" />
	<path style="fill:none;stroke:red;stroke-width:1px;stroke-linecap:butt;stroke-linejoin:miter;stroke-opacity:1" d="M 615.295,890.764 630.771,883.027 z" id="boundary" inkscape:connector-curvature="0" />
	<path style="fill:none;stroke:red;stroke-width:1px;stroke-linecap:butt;stroke-linejoin:miter;stroke-opacity:1" d="M 630.771,883.027 624.58,867.551 z" id="boundary" inkscape:connector-curvature="0" />
	<path style="fill:none;stroke:red;stroke-width:1px;stroke-linecap:butt;stroke-linejoin:miter;stroke-opacity:1" d="M 624.58,867.551 609.105,867.551 z" id="boundary" inkscape:connector-curvature="0" />
	<path style="fill:none;stroke:red;stroke-width:1px;stroke-linecap:butt;stroke-linejoin:miter;stroke-opacity:1" d="M 609.105,867.551 593.629,867.551 z" id="boundary" inkscape:connector-curvature="0" />
	<path style="fill:none;stroke:red;stroke-width:1px;stroke-linecap:butt;stroke-linejoin:miter;stroke-opacity:1" d="M 593.629,867.551 578.153,872.193 z" id="boundary" inkscape:connector-curvature="0" />
	<path style="fill:none;stroke:red;stroke-width:1px;stroke-linecap:butt;stroke-linejoin:miter;stroke-opacity:1" d="M 578.153,872.193 568.867,859.813 z" id="boundary" inkscape:connector-curvature="0" />
	<path style="fill:none;stroke:red;stroke-width:1px;stroke-linecap:butt;stroke-linejoin:miter;stroke-opacity:1" d="M 568.867,859.813 584.343,855.17 z" id="boundary" inkscape:connector-curvature="0" />
	<path style="fill:none;stroke:red;stroke-width:1px;stroke-linecap:butt;stroke-linejoin:miter;stroke-opacity:1" d="M 584.343,855.17 593.629,842.789 z" id="boundary" inkscape:connector-curvature="0" />
	<path style="fill:none;stroke:red;stroke-width:1px;stroke-linecap:butt;stroke-linejoin:miter;stroke-opacity:1" d="M 593.629,842.789 609.105,839.694 z" id="boundary" inkscape:connector-curvature="0" />
	<path style="fill:none;stroke:red;stroke-width:1px;stroke-linecap:butt;stroke-linejoin:miter;stroke-opacity:1" d="M 609.105,839.694 624.58,839.694 z" id="boundary" inkscape:connector-curvature="0" />
	<path style="fill:none;stroke:red;stroke-width:1px;stroke-linecap:butt;stroke-linejoin:miter;stroke-opacity:1" d="M 624.58,839.694 640.056,839.694 z" id="boundary" inkscape:connector-curvature="0" />
	<path style="fill:none;stroke:red;stroke-width:1px;stroke-linecap:butt;stroke-linejoin:miter;stroke-opacity:1" d="M 640.056,839.694 655.532,835.051 z" id="boundary" inkscape:connector-curvature="0" />
	<path style="fill:none;stroke:red;stroke-width:1px;stroke-linecap:butt;stroke-linejoin:miter;stroke-opacity:1" d="M 655.532,835.051 663.27,819.576 z" id="boundary" inkscape:connector-curvature="0" />
	<path style="fill:none;stroke:red;stroke-width:1px;stroke-linecap:butt;stroke-linejoin:miter;stroke-opacity:1" d="M 663.27,819.576 661.722,793.267 z" id="boundary" inkscape:connector-curvature="0" />
	<path style="fill:none;stroke:red;stroke-width:1px;stroke-linecap:butt;stroke-linejoin:miter;stroke-opacity:1" d="M 661.722,793.267 661.722,777.791 z" id="boundary" inkscape:connector-curvature="0" />
	<path style="fill:none;stroke:red;stroke-width:1px;stroke-linecap:butt;stroke-linejoin:miter;stroke-opacity:1" d="M 661.722,777.791 657.08,762.315 z" id="boundary" inkscape:connector-curvature="0" />
	<path style="fill:none;stroke:red;stroke-width:1px;stroke-linecap:butt;stroke-linejoin:miter;stroke-opacity:1" d="M 657.08,762.315 653.984,746.839 z" id="boundary" inkscape:connector-curvature="0" />
	<path style="fill:none;stroke:red;stroke-width:1px;stroke-linecap:butt;stroke-linejoin:miter;stroke-opacity:1" d="M 653.984,746.839 653.984,731.363 z" id="boundary" inkscape:connector-curvature="0" />
	<path style="fill:none;stroke:red;stroke-width:1px;stroke-linecap:butt;stroke-linejoin:miter;stroke-opacity:1" d="M 653.984,731.363 653.984,715.888 z" id="boundary" inkscape:connector-curvature="0" />
	<path style="fill:none;stroke:red;stroke-width:1px;stroke-linecap:butt;stroke-linejoin:miter;stroke-opacity:1" d="M 653.984,715.888 653.984,700.412 z" id="boundary" inkscape:connector-curvature="0" />
	<path style="fill:none;stroke:red;stroke-width:1px;stroke-linecap:butt;stroke-linejoin:miter;stroke-opacity:1" d="M 653.984,700.412 646.246,686.484 z" id="boundary" inkscape:connector-curvature="0" />
	<path style="fill:none;stroke:red;stroke-width:1px;stroke-linecap:butt;stroke-linejoin:miter;stroke-opacity:1" d="M 646.246,686.484 646.246,671.008 z" id="boundary" inkscape:connector-curvature="0" />
	<path style="fill:none;stroke:red;stroke-width:1px;stroke-linecap:butt;stroke-linejoin:miter;stroke-opacity:1" d="M 646.246,671.008 646.246,655.532 z" id="boundary" inkscape:connector-curvature="0" />
	<path style="fill:none;stroke:red;stroke-width:1px;stroke-linecap:butt;stroke-linejoin:miter;stroke-opacity:1" d="M 646.246,655.532 646.246,640.056 z" id="boundary" inkscape:connector-curvature="0" />
	<path style="fill:none;stroke:red;stroke-width:1px;stroke-linecap:butt;stroke-linejoin:miter;stroke-opacity:1" d="M 646.246,640.056 638.509,626.128 z" id="boundary" inkscape:connector-curvature="0" />
	<path style="fill:none;stroke:red;stroke-width:1px;stroke-linecap:butt;stroke-linejoin:miter;stroke-opacity:1" d="M 638.509,626.128 638.509,610.652 z" id="boundary" inkscape:connector-curvature="0" />
	<path style="fill:none;stroke:red;stroke-width:1px;stroke-linecap:butt;stroke-linejoin:miter;stroke-opacity:1" d="M 638.509,610.652 638.509,595.176 z" id="boundary" inkscape:connector-curvature="0" />
	<path style="fill:none;stroke:red;stroke-width:1px;stroke-linecap:butt;stroke-linejoin:miter;stroke-opacity:1" d="M 638.509,595.176 630.771,581.248 z" id="boundary" inkscape:connector-curvature="0" />
	<path style="fill:none;stroke:red;stroke-width:1px;stroke-linecap:butt;stroke-linejoin:miter;stroke-opacity:1" d="M 630.771,581.248 623.033,567.32 z" id="boundary" inkscape:connector-curvature="0" />
	<path style="fill:none;stroke:red;stroke-width:1px;stroke-linecap:butt;stroke-linejoin:miter;stroke-opacity:1" d="M 623.033,567.32 612.2,554.939 z" id="boundary" inkscape:connector-curvature="0" />
	<path style="fill:none;stroke:red;stroke-width:1px;stroke-linecap:butt;stroke-linejoin:miter;stroke-opacity:1" d="M 612.2,554.939 606.009,539.463 z" id="boundary" inkscape:connector-curvature="0" />
	<path style="fill:none;stroke:red;stroke-width:1px;stroke-linecap:butt;stroke-linejoin:miter;stroke-opacity:1" d="M 606.009,539.463 592.081,531.725 z" id="boundary" inkscape:connector-curvature="0" />
	<path style="fill:none;stroke:red;stroke-width:1px;stroke-linecap:butt;stroke-linejoin:miter;stroke-opacity:1" d="M 592.081,531.725 588.986,516.25 z" id="boundary" inkscape:connector-curvature="0" />
	<path style="fill:none;stroke:red;stroke-width:1px;stroke-linecap:butt;stroke-linejoin:miter;stroke-opacity:1" d="M 588.986,516.25 578.153,503.869 z" id="boundary" inkscape:connector-curvature="0" />
	<path style="fill:none;stroke:red;stroke-width:1px;stroke-linecap:butt;stroke-linejoin:miter;stroke-opacity:1" d="M 578.153,503.869 562.677,500.774 z" id="boundary" inkscape:connector-curvature="0" />
	<path style="fill:none;stroke:red;stroke-width:1px;stroke-linecap:butt;stroke-linejoin:miter;stroke-opacity:1" d="M 562.677,500.774 547.201,500.774 z" id="boundary" inkscape:connector-curvature="0" />
	<path style="fill:none;stroke:red;stroke-width:1px;stroke-linecap:butt;stroke-linejoin:miter;stroke-opacity:1" d="M 547.201,500.774 539.463,516.25 z" id="boundary" inkscape:connector-curvature="0" />
	<path style="fill:none;stroke:red;stroke-width:1px;stroke-linecap:butt;stroke-linejoin:miter;stroke-opacity:1" d="M 539.463,516.25 539.463,531.725 z" id="boundary" inkscape:connector-curvature="0" />
	<path style="fill:none;stroke:red;stroke-width:1px;stroke-linecap:butt;stroke-linejoin:miter;stroke-opacity:1" d="M 539.463,531.725 539.463,547.201 z" id="boundary" inkscape:connector-curvature="0" />
	<path style="fill:none;stroke:red;stroke-width:1px;stroke-linecap:butt;stroke-linejoin:miter;stroke-opacity:1" d="M 539.463,547.201 542.559,562.677 z" id="boundary" inkscape:connector-curvature="0" />
	<path style="fill:none;stroke:red;stroke-width:1px;stroke-linecap:butt;stroke-linejoin:miter;stroke-opacity:1" d="M 542.559,562.677 547.201,578.153 z" id="boundary" inkscape:connector-curvature="0" />
	<path style="fill:none;stroke:red;stroke-width:1px;stroke-linecap:butt;stroke-linejoin:miter;stroke-opacity:1" d="M 547.201,578.153 554.939,592.081 z" id="boundary" inkscape:connector-curvature="0" />
	<path style="fill:none;stroke:red;stroke-width:1px;stroke-linecap:butt;stroke-linejoin:miter;stroke-opacity:1" d="M 554.939,592.081 562.677,606.009 z" id="boundary" inkscape:connector-curvature="0" />
	<path style="fill:none;stroke:red;stroke-width:1px;stroke-linecap:butt;stroke-linejoin:miter;stroke-opacity:1" d="M 562.677,606.009 562.677,621.485 z" id="boundary" inkscape:connector-curvature="0" />
	<path style="fill:none;stroke:red;stroke-width:1px;stroke-linecap:butt;stroke-linejoin:miter;stroke-opacity:1" d="M 562.677,621.485 562.677,636.961 z" id="boundary" inkscape:connector-curvature="0" />
	<path style="fill:none;stroke:red;stroke-width:1px;stroke-linecap:butt;stroke-linejoin:miter;stroke-opacity:1" d="M 562.677,636.961 547.201,647.794 z" id="boundary" inkscape:connector-curvature="0" />
	<path style="fill:none;stroke:red;stroke-width:1px;stroke-linecap:butt;stroke-linejoin:miter;stroke-opacity:1" d="M 547.201,647.794 547.201,663.27 z" id="boundary" inkscape:connector-curvature="0" />
	<path style="fill:none;stroke:red;stroke-width:1px;stroke-linecap:butt;stroke-linejoin:miter;stroke-opacity:1" d="M 547.201,663.27 539.463,686.484 z" id="boundary" inkscape:connector-curvature="0" />
	<path style="fill:none;stroke:red;stroke-width:1px;stroke-linecap:butt;stroke-linejoin:miter;stroke-opacity:1" d="M 539.463,686.484 539.463,701.959 z" id="boundary" inkscape:connector-curvature="0" />
	<path style="fill:none;stroke:red;stroke-width:1px;stroke-linecap:butt;stroke-linejoin:miter;stroke-opacity:1" d="M 539.463,701.959 531.725,717.435 z" id="boundary" inkscape:connector-curvature="0" />
	<path style="fill:none;stroke:red;stroke-width:1px;stroke-linecap:butt;stroke-linejoin:miter;stroke-opacity:1" d="M 531.725,717.435 523.988,740.649 z" id="boundary" inkscape:connector-curvature="0" />
	<path style="fill:none;stroke:red;stroke-width:1px;stroke-linecap:butt;stroke-linejoin:miter;stroke-opacity:1" d="M 523.988,740.649 523.988,756.125 z" id="boundary" inkscape:connector-curvature="0" />
	<path style="fill:none;stroke:red;stroke-width:1px;stroke-linecap:butt;stroke-linejoin:miter;stroke-opacity:1" d="M 523.988,756.125 516.25,771.601 z" id="boundary" inkscape:connector-curvature="0" />
	<path style="fill:none;stroke:red;stroke-width:1px;stroke-linecap:butt;stroke-linejoin:miter;stroke-opacity:1" d="M 516.25,771.601 516.25,787.076 z" id="boundary" inkscape:connector-curvature="0" />
	<path style="fill:none;stroke:red;stroke-width:1px;stroke-linecap:butt;stroke-linejoin:miter;stroke-opacity:1" d="M 516.25,787.076 508.512,810.29 z" id="boundary" inkscape:connector-curvature="0" />
	<path style="fill:none;stroke:red;stroke-width:1px;stroke-linecap:butt;stroke-linejoin:miter;stroke-opacity:1" d="M 508.512,810.29 508.512,825.766 z" id="boundary" inkscape:connector-curvature="0" />
	<path style="fill:none;stroke:red;stroke-width:1px;stroke-linecap:butt;stroke-linejoin:miter;stroke-opacity:1" d="M 508.512,825.766 500.774,841.242 z" id="boundary" inkscape:connector-curvature="0" />
	<path style="fill:none;stroke:red;stroke-width:1px;stroke-linecap:butt;stroke-linejoin:miter;stroke-opacity:1" d="M 500.774,841.242 508.512,855.17 z" id="boundary" inkscape:connector-curvature="0" />
	<path style="fill:none;stroke:red;stroke-width:1px;stroke-linecap:butt;stroke-linejoin:miter;stroke-opacity:1" d="M 508.512,855.17 520.892,864.456 z" id="boundary" inkscape:connector-curvature="0" />
	<path style="fill:none;stroke:red;stroke-width:1px;stroke-linecap:butt;stroke-linejoin:miter;stroke-opacity:1" d="M 520.892,864.456 506.964,879.931 z" id="boundary" inkscape:connector-curvature="0" />
	<path style="fill:none;stroke:red;stroke-width:1px;stroke-linecap:butt;stroke-linejoin:miter;stroke-opacity:1" d="M 506.964,879.931 491.488,879.931 z" id="boundary" inkscape:connector-curvature="0" />
	<path style="fill:none;stroke:red;stroke-width:1px;stroke-linecap:butt;stroke-linejoin:miter;stroke-opacity:1" d="M 491.488,879.931 476.012,879.931 z" id="boundary" inkscape:connector-curvature="0" />
	<path style="fill:none;stroke:red;stroke-width:1px;stroke-linecap:butt;stroke-linejoin:miter;stroke-opacity:1" d="M 476.012,879.931 462.084,887.669 z" id="boundary" inkscape:connector-curvature="0" />
	<path style="fill:none;stroke:red;stroke-width:1px;stroke-linecap:butt;stroke-linejoin:miter;stroke-opacity:1" d="M 462.084,887.669 446.608,887.669 z" id="boundary" inkscape:connector-curvature="0" />
	<path style="fill:none;stroke:red;stroke-width:1px;stroke-linecap:butt;stroke-linejoin:miter;stroke-opacity:1" d="M 446.608,887.669 437.323,903.145 z" id="boundary" inkscape:connector-curvature="0" />
	<path style="fill:none;stroke:red;stroke-width:1px;stroke-linecap:butt;stroke-linejoin:miter;stroke-opacity:1" d="M 437.323,903.145 423.395,910.883 z" id="boundary" inkscape:connector-curvature="0" />
	<path style="fill:none;stroke:red;stroke-width:1px;stroke-linecap:butt;stroke-linejoin:miter;stroke-opacity:1" d="M 423.395,910.883 407.919,918.621 z" id="boundary" inkscape:connector-curvature="0" />
	<path style="fill:none;stroke:red;stroke-width:1px;stroke-linecap:butt;stroke-linejoin:miter;stroke-opacity:1" d="M 407.919,918.621 392.443,918.621 z" id="boundary" inkscape:connector-curvature="0" />
	<path style="fill:none;stroke:red;stroke-width:1px;stroke-linecap:butt;stroke-linejoin:miter;stroke-opacity:1" d="M 392.443,918.621 383.158,906.24 z" id="boundary" inkscape:connector-curvature="0" />
	<path style="fill:none;stroke:red;stroke-width:1px;stroke-linecap:butt;stroke-linejoin:miter;stroke-opacity:1" d="M 383.158,906.24 398.633,895.407 z" id="boundary" inkscape:connector-curvature="0" />
	<path style="fill:none;stroke:red;stroke-width:1px;stroke-linecap:butt;stroke-linejoin:miter;stroke-opacity:1" d="M 398.633,895.407 393.991,879.931 z" id="boundary" inkscape:connector-curvature="0" />
	<path style="fill:none;stroke:red;stroke-width:1px;stroke-linecap:butt;stroke-linejoin:miter;stroke-opacity:1" d="M 393.991,879.931 378.515,878.384 z" id="boundary" inkscape:connector-curvature="0" />
	<path style="fill:none;stroke:red;stroke-width:1px;stroke-linecap:butt;stroke-linejoin:miter;stroke-opacity:1" d="M 378.515,878.384 359.944,867.551 z" id="boundary" inkscape:connector-curvature="0" />
	<path style="fill:none;stroke:red;stroke-width:1px;stroke-linecap:butt;stroke-linejoin:miter;stroke-opacity:1" d="M 359.944,867.551 375.42,862.908 z" id="boundary" inkscape:connector-curvature="0" />
	<path style="fill:none;stroke:red;stroke-width:1px;stroke-linecap:butt;stroke-linejoin:miter;stroke-opacity:1" d="M 375.42,862.908 389.348,855.17 z" id="boundary" inkscape:connector-curvature="0" />
	<path style="fill:none;stroke:red;stroke-width:1px;stroke-linecap:butt;stroke-linejoin:miter;stroke-opacity:1" d="M 389.348,855.17 403.276,862.908 z" id="boundary" inkscape:connector-curvature="0" />
	<path style="fill:none;stroke:red;stroke-width:1px;stroke-linecap:butt;stroke-linejoin:miter;stroke-opacity:1" d="M 403.276,862.908 418.752,862.908 z" id="boundary" inkscape:connector-curvature="0" />
	<path style="fill:none;stroke:red;stroke-width:1px;stroke-linecap:butt;stroke-linejoin:miter;stroke-opacity:1" d="M 418.752,862.908 432.68,870.646 z" id="boundary" inkscape:connector-curvature="0" />
	<path style="fill:none;stroke:red;stroke-width:1px;stroke-linecap:butt;stroke-linejoin:miter;stroke-opacity:1" d="M 432.68,870.646 448.156,870.646 z" id="boundary" inkscape:connector-curvature="0" />
	<path style="fill:none;stroke:red;stroke-width:1px;stroke-linecap:butt;stroke-linejoin:miter;stroke-opacity:1" d="M 448.156,870.646 463.632,870.646 z" id="boundary" inkscape:connector-curvature="0" />
	<path style="fill:none;stroke:red;stroke-width:1px;stroke-linecap:butt;stroke-linejoin:miter;stroke-opacity:1" d="M 463.632,870.646 476.012,852.075 z" id="boundary" inkscape:connector-curvature="0" />
	<path style="fill:none;stroke:red;stroke-width:1px;stroke-linecap:butt;stroke-linejoin:miter;stroke-opacity:1" d="M 476.012,852.075 476.012,836.599 z" id="boundary" inkscape:connector-curvature="0" />
	<path style="fill:none;stroke:red;stroke-width:1px;stroke-linecap:butt;stroke-linejoin:miter;stroke-opacity:1" d="M 476.012,836.599 483.75,813.385 z" id="boundary" inkscape:connector-curvature="0" />
	<path style="fill:none;stroke:red;stroke-width:1px;stroke-linecap:butt;stroke-linejoin:miter;stroke-opacity:1" d="M 483.75,813.385 483.75,797.91 z" id="boundary" inkscape:connector-curvature="0" />
	<path style="fill:none;stroke:red;stroke-width:1px;stroke-linecap:butt;stroke-linejoin:miter;stroke-opacity:1" d="M 483.75,797.91 491.488,782.434 z" id="boundary" inkscape:connector-curvature="0" />
	<path style="fill:none;stroke:red;stroke-width:1px;stroke-linecap:butt;stroke-linejoin:miter;stroke-opacity:1" d="M 491.488,782.434 491.488,766.958 z" id="boundary" inkscape:connector-curvature="0" />
	<path style="fill:none;stroke:red;stroke-width:1px;stroke-linecap:butt;stroke-linejoin:miter;stroke-opacity:1" d="M 491.488,766.958 491.488,751.482 z" id="boundary" inkscape:connector-curvature="0" />
	<path style="fill:none;stroke:red;stroke-width:1px;stroke-linecap:butt;stroke-linejoin:miter;stroke-opacity:1" d="M 491.488,751.482 499.226,736.006 z" id="boundary" inkscape:connector-curvature="0" />
	<path style="fill:none;stroke:red;stroke-width:1px;stroke-linecap:butt;stroke-linejoin:miter;stroke-opacity:1" d="M 499.226,736.006 514.702,720.53 z" id="boundary" inkscape:connector-curvature="0" />
	<path style="fill:none;stroke:red;stroke-width:1px;stroke-linecap:butt;stroke-linejoin:miter;stroke-opacity:1" d="M 514.702,720.53 514.702,705.055 z" id="boundary" inkscape:connector-curvature="0" />
	<path style="fill:none;stroke:red;stroke-width:1px;stroke-linecap:butt;stroke-linejoin:miter;stroke-opacity:1" d="M 514.702,705.055 522.44,689.579 z" id="boundary" inkscape:connector-curvature="0" />
	<path style="fill:none;stroke:red;stroke-width:1px;stroke-linecap:butt;stroke-linejoin:miter;stroke-opacity:1" d="M 522.44,689.579 522.44,674.103 z" id="boundary" inkscape:connector-curvature="0" />
	<path style="fill:none;stroke:red;stroke-width:1px;stroke-linecap:butt;stroke-linejoin:miter;stroke-opacity:1" d="M 522.44,674.103 530.178,658.627 z" id="boundary" inkscape:connector-curvature="0" />
	<path style="fill:none;stroke:red;stroke-width:1px;stroke-linecap:butt;stroke-linejoin:miter;stroke-opacity:1" d="M 530.178,658.627 530.178,643.151 z" id="boundary" inkscape:connector-curvature="0" />
	<path style="fill:none;stroke:red;stroke-width:1px;stroke-linecap:butt;stroke-linejoin:miter;stroke-opacity:1" d="M 530.178,643.151 530.178,627.676 z" id="boundary" inkscape:connector-curvature="0" />
	<path style="fill:none;stroke:red;stroke-width:1px;stroke-linecap:butt;stroke-linejoin:miter;stroke-opacity:1" d="M 530.178,627.676 530.178,606.009 z" id="boundary" inkscape:connector-curvature="0" />
	<path style="fill:none;stroke:red;stroke-width:1px;stroke-linecap:butt;stroke-linejoin:miter;stroke-opacity:1" d="M 530.178,606.009 530.178,590.534 z" id="boundary" inkscape:connector-curvature="0" />
	<path style="fill:none;stroke:red;stroke-width:1px;stroke-linecap:butt;stroke-linejoin:miter;stroke-opacity:1" d="M 530.178,590.534 522.44,576.605 z" id="boundary" inkscape:connector-curvature="0" />
	<path style="fill:none;stroke:red;stroke-width:1px;stroke-linecap:butt;stroke-linejoin:miter;stroke-opacity:1" d="M 522.44,576.605 522.44,561.129 z" id="boundary" inkscape:connector-curvature="0" />
	<path style="fill:none;stroke:red;stroke-width:1px;stroke-linecap:butt;stroke-linejoin:miter;stroke-opacity:1" d="M 522.44,561.129 514.702,547.201 z" id="boundary" inkscape:connector-curvature="0" />
	<path style="fill:none;stroke:red;stroke-width:1px;stroke-linecap:butt;stroke-linejoin:miter;stroke-opacity:1" d="M 514.702,547.201 514.702,531.725 z" id="boundary" inkscape:connector-curvature="0" />
	<path style="fill:none;stroke:red;stroke-width:1px;stroke-linecap:butt;stroke-linejoin:miter;stroke-opacity:1" d="M 514.702,531.725 514.702,516.25 z" id="boundary" inkscape:connector-curvature="0" />
	<path style="fill:none;stroke:red;stroke-width:1px;stroke-linecap:butt;stroke-linejoin:miter;stroke-opacity:1" d="M 514.702,516.25 514.702,500.774 z" id="boundary" inkscape:connector-curvature="0" />
	<path style="fill:none;stroke:red;stroke-width:1px;stroke-linecap:butt;stroke-linejoin:miter;stroke-opacity:1" d="M 514.702,500.774 499.226,496.131 z" id="boundary" inkscape:connector-curvature="0" />
	<path style="fill:none;stroke:red;stroke-width:1px;stroke-linecap:butt;stroke-linejoin:miter;stroke-opacity:1" d="M 499.226,496.131 485.298,488.393 z" id="boundary" inkscape:connector-curvature="0" />
	<path style="fill:none;stroke:red;stroke-width:1px;stroke-linecap:butt;stroke-linejoin:miter;stroke-opacity:1" d="M 485.298,488.393 469.822,485.298 z" id="boundary" inkscape:connector-curvature="0" />
	<path style="fill:none;stroke:red;stroke-width:1px;stroke-linecap:butt;stroke-linejoin:miter;stroke-opacity:1" d="M 469.822,485.298 454.346,485.298 z" id="boundary" inkscape:connector-curvature="0" />
	<path style="fill:none;stroke:red;stroke-width:1px;stroke-linecap:butt;stroke-linejoin:miter;stroke-opacity:1" d="M 454.346,485.298 445.061,472.917 z" id="boundary" inkscape:connector-curvature="0" />
	<path style="fill:none;stroke:red;stroke-width:1px;stroke-linecap:butt;stroke-linejoin:miter;stroke-opacity:1" d="M 445.061,472.917 431.133,465.179 z" id="boundary" inkscape:connector-curvature="0" />
	<path style="fill:none;stroke:red;stroke-width:1px;stroke-linecap:butt;stroke-linejoin:miter;stroke-opacity:1" d="M 431.133,465.179 418.752,454.346 z" id="boundary" inkscape:connector-curvature="0" />
	<path style="fill:none;stroke:red;stroke-width:1px;stroke-linecap:butt;stroke-linejoin:miter;stroke-opacity:1" d="M 418.752,454.346 403.276,454.346 z" id="boundary" inkscape:connector-curvature="0" />
	<path style="fill:none;stroke:red;stroke-width:1px;stroke-linecap:butt;stroke-linejoin:miter;stroke-opacity:1" d="M 403.276,454.346 389.348,446.608 z" id="boundary" inkscape:connector-curvature="0" />
	<path style="fill:none;stroke:red;stroke-width:1px;stroke-linecap:butt;stroke-linejoin:miter;stroke-opacity:1" d="M 389.348,446.608 376.967,435.775 z" id="boundary" inkscape:connector-curvature="0" />
	<path style="fill:none;stroke:red;stroke-width:1px;stroke-linecap:butt;stroke-linejoin:miter;stroke-opacity:1" d="M 376.967,435.775 367.682,423.395 z" id="boundary" inkscape:connector-curvature="0" />
	<path style="fill:none;stroke:red;stroke-width:1px;stroke-linecap:butt;stroke-linejoin:miter;stroke-opacity:1" d="M 367.682,423.395 352.206,417.204 z" id="boundary" inkscape:connector-curvature="0" />
	<path style="fill:none;stroke:red;stroke-width:1px;stroke-linecap:butt;stroke-linejoin:miter;stroke-opacity:1" d="M 352.206,417.204 344.468,403.276 z" id="boundary" inkscape:connector-curvature="0" />
	<path style="fill:none;stroke:red;stroke-width:1px;stroke-linecap:butt;stroke-linejoin:miter;stroke-opacity:1" d="M 344.468,403.276 338.278,387.8 z" id="boundary" inkscape:connector-curvature="0" />
	<path style="fill:none;stroke:red;stroke-width:1px;stroke-linecap:butt;stroke-linejoin:miter;stroke-opacity:1" d="M 338.278,387.8 330.54,373.872 z" id="boundary" inkscape:connector-curvature="0" />
	<path style="fill:none;stroke:red;stroke-width:1px;stroke-linecap:butt;stroke-linejoin:miter;stroke-opacity:1" d="M 330.54,373.872 319.707,361.491 z" id="boundary" inkscape:connector-curvature="0" />
	<path style="fill:none;stroke:red;stroke-width:1px;stroke-linecap:butt;stroke-linejoin:miter;stroke-opacity:1" d="M 319.707,361.491 305.778,353.754 z" id="boundary" inkscape:connector-curvature="0" />
	<path style="fill:none;stroke:red;stroke-width:1px;stroke-linecap:butt;stroke-linejoin:miter;stroke-opacity:1" d="M 305.778,353.754 293.398,344.468 z" id="boundary" inkscape:connector-curvature="0" />
	<path style="fill:none;stroke:red;stroke-width:1px;stroke-linecap:butt;stroke-linejoin:miter;stroke-opacity:1" d="M 293.398,344.468 287.207,328.992 z" id="boundary" inkscape:connector-curvature="0" />
	<path style="fill:none;stroke:red;stroke-width:1px;stroke-linecap:butt;stroke-linejoin:miter;stroke-opacity:1" d="M 287.207,328.992 271.732,322.802 z" id="boundary" inkscape:connector-curvature="0" />
	<path style="fill:none;stroke:red;stroke-width:1px;stroke-linecap:butt;stroke-linejoin:miter;stroke-opacity:1" d="M 271.732,322.802 260.899,310.421 z" id="boundary" inkscape:connector-curvature="0" />
	<path style="fill:none;stroke:red;stroke-width:1px;stroke-linecap:butt;stroke-linejoin:miter;stroke-opacity:1" d="M 260.899,310.421 251.613,298.041 z" id="boundary" inkscape:connector-curvature="0" />
	<path style="fill:none;stroke:red;stroke-width:1px;stroke-linecap:butt;stroke-linejoin:miter;stroke-opacity:1" d="M 251.613,298.041 246.97,282.565 z" id="boundary" inkscape:connector-curvature="0" />
	<path style="fill:none;stroke:red;stroke-width:1px;stroke-linecap:butt;stroke-linejoin:miter;stroke-opacity:1" d="M 246.97,282.565 243.875,267.089 z" id="boundary" inkscape:connector-curvature="0" />
	<path style="fill:none;stroke:red;stroke-width:1px;stroke-linecap:butt;stroke-linejoin:miter;stroke-opacity:1" d="M 243.875,267.089 236.137,253.161 z" id="boundary" inkscape:connector-curvature="0" />
	<path style="fill:none;stroke:red;stroke-width:1px;stroke-linecap:butt;stroke-linejoin:miter;stroke-opacity:1" d="M 236.137,253.161 236.137,237.685 z" id="boundary" inkscape:connector-curvature="0" />
	<path style="fill:none;stroke:red;stroke-width:1px;stroke-linecap:butt;stroke-linejoin:miter;stroke-opacity:1" d="M 236.137,237.685 228.399,223.757 z" id="boundary" inkscape:connector-curvature="0" />
	<path style="fill:none;stroke:red;stroke-width:1px;stroke-linecap:butt;stroke-linejoin:miter;stroke-opacity:1" d="M 228.399,223.757 220.661,209.828 z" id="boundary" inkscape:connector-curvature="0" />
	<path style="fill:none;stroke:red;stroke-width:1px;stroke-linecap:butt;stroke-linejoin:miter;stroke-opacity:1" d="M 220.661,209.828 220.661,194.353 z" id="boundary" inkscape:connector-curvature="0" />
	<path style="fill:none;stroke:red;stroke-width:1px;stroke-linecap:butt;stroke-linejoin:miter;stroke-opacity:1" d="M 220.661,194.353 220.661,178.877 z" id="boundary" inkscape:connector-curvature="0" />
	<path style="fill:none;stroke:red;stroke-width:1px;stroke-linecap:butt;stroke-linejoin:miter;stroke-opacity:1" d="M 220.661,178.877 220.661,163.401 z" id="boundary" inkscape:connector-curvature="0" />
	<path style="fill:none;stroke:red;stroke-width:1px;stroke-linecap:butt;stroke-linejoin:miter;stroke-opacity:1" d="M 220.661,163.401 220.661,147.925 z" id="boundary" inkscape:connector-curvature="0" />
	<path style="fill:none;stroke:red;stroke-width:1px;stroke-linecap:butt;stroke-linejoin:miter;stroke-opacity:1" d="M 220.661,147.925 212.924,133.997 z" id="boundary" inkscape:connector-curvature="0" />
	<path style="fill:none;stroke:red;stroke-width:1px;stroke-linecap:butt;stroke-linejoin:miter;stroke-opacity:1" d="M 212.924,133.997 203.638,121.616 z" id="boundary" inkscape:connector-curvature="0" />
	<path style="fill:none;stroke:red;stroke-width:1px;stroke-linecap:butt;stroke-linejoin:miter;stroke-opacity:1" d="M 203.638,121.616 189.71,113.878 z" id="boundary" inkscape:connector-curvature="0" />
	<path style="fill:none;stroke:red;stroke-width:1px;stroke-linecap:butt;stroke-linejoin:miter;stroke-opacity:1" d="M 189.71,113.878 174.234,113.878 z" id="boundary" inkscape:connector-curvature="0" />
	<path style="fill:none;stroke:red;stroke-width:1px;stroke-linecap:butt;stroke-linejoin:miter;stroke-opacity:1" d="M 174.234,113.878 158.758,113.878 z" id="boundary" inkscape:connector-curvature="0" />
	<path style="fill:none;stroke:red;stroke-width:1px;stroke-linecap:butt;stroke-linejoin:miter;stroke-opacity:1" d="M 158.758,113.878 143.282,116.973 z" id="boundary" inkscape:connector-curvature="0" />
	<path style="fill:none;stroke:red;stroke-width:1px;stroke-linecap:butt;stroke-linejoin:miter;stroke-opacity:1" d="M 143.282,116.973 127.807,121.616 z" id="boundary" inkscape:connector-curvature="0" />
	<path style="fill:none;stroke:red;stroke-width:1px;stroke-linecap:butt;stroke-linejoin:miter;stroke-opacity:1" d="M 127.807,121.616 113.878,129.354 z" id="boundary" inkscape:connector-curvature="0" />
	<path style="fill:none;stroke:red;stroke-width:1px;stroke-linecap:butt;stroke-linejoin:miter;stroke-opacity:1" d="M 113.878,129.354 101.498,143.282 z" id="boundary" inkscape:connector-curvature="0" />
	<path style="fill:none;stroke:red;stroke-width:1px;stroke-linecap:butt;stroke-linejoin:miter;stroke-opacity:1" d="M 101.498,143.282 93.7598,158.758 z" id="boundary" inkscape:connector-curvature="0" />
	<path style="fill:none;stroke:red;stroke-width:1px;stroke-linecap:butt;stroke-linejoin:miter;stroke-opacity:1" d="M 93.7598,158.758 78.2839,166.496 z" id="boundary" inkscape:connector-curvature="0" />
	<path style="fill:none;stroke:red;stroke-width:1px;stroke-linecap:butt;stroke-linejoin:miter;stroke-opacity:1" d="M 78.2839,166.496 65.9033,175.782 z" id="boundary" inkscape:connector-curvature="0" />
	<path style="fill:none;stroke:red;stroke-width:1px;stroke-linecap:butt;stroke-linejoin:miter;stroke-opacity:1" d="M 65.9033,175.782 51.975,183.52 z" id="boundary" inkscape:connector-curvature="0" />
	<path style="fill:none;stroke:red;stroke-width:1px;stroke-linecap:butt;stroke-linejoin:miter;stroke-opacity:1" d="M 51.975,183.52 36.4992,191.257 z" id="boundary" inkscape:connector-curvature="0" />
	<path style="fill:none;stroke:red;stroke-width:1px;stroke-linecap:butt;stroke-linejoin:miter;stroke-opacity:1" d="M 36.4992,191.257 28.7613,214.471 z" id="boundary" inkscape:connector-curvature="0" />
	<path style="fill:none;stroke:red;stroke-width:1px;stroke-linecap:butt;stroke-linejoin:miter;stroke-opacity:1" d="M 28.7613,214.471 21.0234,229.947 z" id="boundary" inkscape:connector-curvature="0" />
	<path style="fill:none;stroke:red;stroke-width:1px;stroke-linecap:butt;stroke-linejoin:miter;stroke-opacity:1" d="M 21.0234,229.947 19.4758,248.518 z" id="boundary" inkscape:connector-curvature="0" />
	<path style="fill:none;stroke:red;stroke-width:1px;stroke-linecap:butt;stroke-linejoin:miter;stroke-opacity:1" d="M 19.4758,248.518 4,271.732 z" id="boundary" inkscape:connector-curvature="0" />
	<path style="fill:none;stroke:red;stroke-width:1px;stroke-linecap:butt;stroke-linejoin:miter;stroke-opacity:1" d="M 4,271.732 4,256.256 z" id="boundary" inkscape:connector-curvature="0" />
	<path style="fill:none;stroke:red;stroke-width:1px;stroke-linecap:butt;stroke-linejoin:miter;stroke-opacity:1" d="M 4,256.256 4,240.78 z" id="boundary" inkscape:connector-curvature="0" />
	<path style="fill:none;stroke:red;stroke-width:1px;stroke-linecap:butt;stroke-linejoin:miter;stroke-opacity:1" d="M 4,240.78 4,225.304 z" id="boundary" inkscape:connector-curvature="0" />
	<path style="fill:none;stroke:red;stroke-width:1px;stroke-linecap:butt;stroke-linejoin:miter;stroke-opacity:1" d="M 4,225.304 11.7379,209.828 z" id="boundary" inkscape:connector-curvature="0" />
	<path style="fill:none;stroke:red;stroke-width:1px;stroke-linecap:butt;stroke-linejoin:miter;stroke-opacity:1" d="M 11.7379,209.828 19.4758,186.615 z" id="boundary" inkscape:connector-curvature="0" />
	<path style="fill:none;stroke:red;stroke-width:1px;stroke-linecap:butt;stroke-linejoin:miter;stroke-opacity:1" d="M 19.4758,186.615 31.8565,174.234 z" id="boundary" inkscape:connector-curvature="0" />
	<path style="fill:none;stroke:red;stroke-width:1px;stroke-linecap:butt;stroke-linejoin:miter;stroke-opacity:1" d="M 31.8565,174.234 45.7847,166.496 z" id="boundary" inkscape:connector-curvature="0" />
	<path style="fill:none;stroke:red;stroke-width:1px;stroke-linecap:butt;stroke-linejoin:miter;stroke-opacity:1" d="M 45.7847,166.496 58.1654,147.925 z" id="boundary" inkscape:connector-curvature="0" />
	<path style="fill:none;stroke:red;stroke-width:1px;stroke-linecap:butt;stroke-linejoin:miter;stroke-opacity:1" d="M 58.1654,147.925 73.6412,132.449 z" id="boundary" inkscape:connector-curvature="0" />
	<path style="fill:none;stroke:red;stroke-width:1px;stroke-linecap:butt;stroke-linejoin:miter;stroke-opacity:1" d="M 73.6412,132.449 86.0218,120.069 z" id="boundary" inkscape:connector-curvature="0" />
	<path style="fill:none;stroke:red;stroke-width:1px;stroke-linecap:butt;stroke-linejoin:miter;stroke-opacity:1" d="M 86.0218,120.069 101.498,112.331 z" id="boundary" inkscape:connector-curvature="0" />
	<path style="fill:none;stroke:red;stroke-width:1px;stroke-linecap:butt;stroke-linejoin:miter;stroke-opacity:1" d="M 101.498,112.331 109.236,96.8549 z" id="boundary" inkscape:connector-curvature="0" />
	<path style="fill:none;stroke:red;stroke-width:1px;stroke-linecap:butt;stroke-linejoin:miter;stroke-opacity:1" d="M 109.236,96.8549 116.973,81.3791 z" id="boundary" inkscape:connector-curvature="0" />
	<path style="fill:none;stroke:red;stroke-width:1px;stroke-linecap:butt;stroke-linejoin:miter;stroke-opacity:1" d="M 116.973,81.3791 129.354,68.9984 z" id="boundary" inkscape:connector-curvature="0" />
	<path style="fill:none;stroke:red;stroke-width:1px;stroke-linecap:butt;stroke-linejoin:miter;stroke-opacity:1" d="M 129.354,68.9984 143.282,47.3323 z" id="boundary" inkscape:connector-curvature="0" />
	<path style="fill:none;stroke:red;stroke-width:1px;stroke-linecap:butt;stroke-linejoin:miter;stroke-opacity:1" d="M 143.282,47.3323 155.663,34.9516 z" id="boundary" inkscape:connector-curvature="0" />
	<path style="fill:none;stroke:red;stroke-width:1px;stroke-linecap:butt;stroke-linejoin:miter;stroke-opacity:1" d="M 155.663,34.9516 168.044,22.571 z" id="boundary" inkscape:connector-curvature="0" />
	<path style="fill:none;stroke:red;stroke-width:1px;stroke-linecap:butt;stroke-linejoin:miter;stroke-opacity:1" d="M 168.044,22.571 183.52,19.4758 z" id="boundary" inkscape:connector-curvature="0" />
	<path style="fill:none;stroke:red;stroke-width:1px;stroke-linecap:butt;stroke-linejoin:miter;stroke-opacity:1" d="M 183.52,19.4758 192.805,5.54758 z" id="boundary" inkscape:connector-curvature="0" />
	<path style="fill:none;stroke:red;stroke-width:1px;stroke-linecap:butt;stroke-linejoin:miter;stroke-opacity:1" d="M 192.805,5.54758 208.281,4 z" id="boundary" inkscape:connector-curvature="0" />
	<path style="fill:none;stroke:red;stroke-width:1px;stroke-linecap:butt;stroke-linejoin:miter;stroke-opacity:1" d="M 208.281,4 223.757,4 z" id="boundary" inkscape:connector-curvature="0" />
	<path style="fill:none;stroke:red;stroke-width:1px;stroke-linecap:butt;stroke-linejoin:miter;stroke-opacity:1" d="M 223.757,4 237.685,11.7379 z" id="boundary" inkscape:connector-curvature="0" />
	<path style="fill:none;stroke:red;stroke-width:1px;stroke-linecap:butt;stroke-linejoin:miter;stroke-opacity:1" d="M 237.685,11.7379 245.423,25.6661 z" id="boundary" inkscape:connector-curvature="0" />
	<path style="fill:none;stroke:red;stroke-width:1px;stroke-linecap:butt;stroke-linejoin:miter;stroke-opacity:1" d="M 245.423,25.6661 257.803,36.4992 z" id="boundary" inkscape:connector-curvature="0" />
	<path style="fill:none;stroke:red;stroke-width:1px;stroke-linecap:butt;stroke-linejoin:miter;stroke-opacity:1" d="M 257.803,36.4992 268.637,48.8799 z" id="boundary" inkscape:connector-curvature="0" />
	<path style="fill:none;stroke:red;stroke-width:1px;stroke-linecap:butt;stroke-linejoin:miter;stroke-opacity:1" d="M 268.637,48.8799 268.637,64.3557 z" id="boundary" inkscape:connector-curvature="0" />
	<path style="fill:none;stroke:red;stroke-width:1px;stroke-linecap:butt;stroke-linejoin:miter;stroke-opacity:1" d="M 268.637,64.3557 281.017,75.1888 z" id="boundary" inkscape:connector-curvature="0" />
	<path style="fill:none;stroke:red;stroke-width:1px;stroke-linecap:butt;stroke-linejoin:miter;stroke-opacity:1" d="M 281.017,75.1888 284.112,90.6646 z" id="boundary" inkscape:connector-curvature="0" />
	<path style="fill:none;stroke:red;stroke-width:1px;stroke-linecap:butt;stroke-linejoin:miter;stroke-opacity:1" d="M 284.112,90.6646 284.112,106.14 z" id="boundary" inkscape:connector-curvature="0" />
	<path style="fill:none;stroke:red;stroke-width:1px;stroke-linecap:butt;stroke-linejoin:miter;stroke-opacity:1" d="M 284.112,106.14 284.112,121.616 z" id="boundary" inkscape:connector-curvature="0" />
	<path style="fill:none;stroke:red;stroke-width:1px;stroke-linecap:butt;stroke-linejoin:miter;stroke-opacity:1" d="M 284.112,121.616 284.112,137.092 z" id="boundary" inkscape:connector-curvature="0" />
	<path style="fill:none;stroke:red;stroke-width:1px;stroke-linecap:butt;stroke-linejoin:miter;stroke-opacity:1" d="M 284.112,137.092 291.85,151.02 z" id="boundary" inkscape:connector-curvature="0" />
	<path style="fill:none;stroke:red;stroke-width:1px;stroke-linecap:butt;stroke-linejoin:miter;stroke-opacity:1" d="M 291.85,151.02 291.85,166.496 z" id="boundary" inkscape:connector-curvature="0" />
	<path style="fill:none;stroke:red;stroke-width:1px;stroke-linecap:butt;stroke-linejoin:miter;stroke-opacity:1" d="M 291.85,166.496 291.85,181.972 z" id="boundary" inkscape:connector-curvature="0" />
	<path style="fill:none;stroke:red;stroke-width:1px;stroke-linecap:butt;stroke-linejoin:miter;stroke-opacity:1" d="M 291.85,181.972 299.588,195.9 z" id="boundary" inkscape:connector-curvature="0" />
	<path style="fill:none;stroke:red;stroke-width:1px;stroke-linecap:butt;stroke-linejoin:miter;stroke-opacity:1" d="M 299.588,195.9 299.588,211.376 z" id="boundary" inkscape:connector-curvature="0" />
	<path style="fill:none;stroke:red;stroke-width:1px;stroke-linecap:butt;stroke-linejoin:miter;stroke-opacity:1" d="M 299.588,211.376 307.326,225.304 z" id="boundary" inkscape:connector-curvature="0" />
	<path style="fill:none;stroke:red;stroke-width:1px;stroke-linecap:butt;stroke-linejoin:miter;stroke-opacity:1" d="M 307.326,225.304 319.707,236.137 z" id="boundary" inkscape:connector-curvature="0" />
	<path style="fill:none;stroke:red;stroke-width:1px;stroke-linecap:butt;stroke-linejoin:miter;stroke-opacity:1" d="M 319.707,236.137 335.183,237.685 z" id="boundary" inkscape:connector-curvature="0" />
	<path style="fill:none;stroke:red;stroke-width:1px;stroke-linecap:butt;stroke-linejoin:miter;stroke-opacity:1" d="M 335.183,237.685 341.373,253.161 z" id="boundary" inkscape:connector-curvature="0" />
	<path style="fill:none;stroke:red;stroke-width:1px;stroke-linecap:butt;stroke-linejoin:miter;stroke-opacity:1" d="M 341.373,253.161 353.754,263.994 z" id="boundary" inkscape:connector-curvature="0" />
	<path style="fill:none;stroke:red;stroke-width:1px;stroke-linecap:butt;stroke-linejoin:miter;stroke-opacity:1" d="M 353.754,263.994 369.229,259.351 z" id="boundary" inkscape:connector-curvature="0" />
	<path style="fill:none;stroke:red;stroke-width:1px;stroke-linecap:butt;stroke-linejoin:miter;stroke-opacity:1" d="M 369.229,259.351 384.705,259.351 z" id="boundary" inkscape:connector-curvature="0" />
	<path style="fill:none;stroke:red;stroke-width:1px;stroke-linecap:butt;stroke-linejoin:miter;stroke-opacity:1" d="M 384.705,259.351 400.181,259.351 z" id="boundary" inkscape:connector-curvature="0" />
	<path style="fill:none;stroke:red;stroke-width:1px;stroke-linecap:butt;stroke-linejoin:miter;stroke-opacity:1" d="M 400.181,259.351 415.657,259.351 z" id="boundary" inkscape:connector-curvature="0" />
	<path style="fill:none;stroke:red;stroke-width:1px;stroke-linecap:butt;stroke-linejoin:miter;stroke-opacity:1" d="M 415.657,259.351 429.585,251.613 z" id="boundary" inkscape:connector-curvature="0" />
	<path style="fill:none;stroke:red;stroke-width:1px;stroke-linecap:butt;stroke-linejoin:miter;stroke-opacity:1" d="M 429.585,251.613 445.061,251.613 z" id="boundary" inkscape:connector-curvature="0" />
	<path style="fill:none;stroke:red;stroke-width:1px;stroke-linecap:butt;stroke-linejoin:miter;stroke-opacity:1" d="M 445.061,251.613 460.537,251.613 z" id="boundary" inkscape:connector-curvature="0" />
	<path style="fill:none;stroke:red;stroke-width:1px;stroke-linecap:butt;stroke-linejoin:miter;stroke-opacity:1" d="M 460.537,251.613 476.012,251.613 z" id="boundary" inkscape:connector-curvature="0" />
	<path style="fill:none;stroke:red;stroke-width:1px;stroke-linecap:butt;stroke-linejoin:miter;stroke-opacity:1" d="M 476.012,251.613 491.488,240.78 z" id="boundary" inkscape:connector-curvature="0" />
	<path style="fill:none;stroke:red;stroke-width:1px;stroke-linecap:butt;stroke-linejoin:miter;stroke-opacity:1" d="M 491.488,240.78 506.964,236.137 z" id="boundary" inkscape:connector-curvature="0" />
	<path style="fill:none;stroke:red;stroke-width:1px;stroke-linecap:butt;stroke-linejoin:miter;stroke-opacity:1" d="M 506.964,236.137 522.44,236.137 z" id="boundary" inkscape:connector-curvature="0" />
	<path style="fill:none;stroke:red;stroke-width:1px;stroke-linecap:butt;stroke-linejoin:miter;stroke-opacity:1" d="M 522.44,236.137 531.725,248.518 z" id="boundary" inkscape:connector-curvature="0" />
	<path style="fill:none;stroke:red;stroke-width:1px;stroke-linecap:butt;stroke-linejoin:miter;stroke-opacity:1" d="M 531.725,248.518 547.201,251.613 z" id="boundary" inkscape:connector-curvature="0" />
	<path style="fill:none;stroke:red;stroke-width:1px;stroke-linecap:butt;stroke-linejoin:miter;stroke-opacity:1" d="M 547.201,251.613 562.677,251.613 z" id="boundary" inkscape:connector-curvature="0" />
	<path style="fill:none;stroke:red;stroke-width:1px;stroke-linecap:butt;stroke-linejoin:miter;stroke-opacity:1" d="M 562.677,251.613 578.153,251.613 z" id="boundary" inkscape:connector-curvature="0" />
	<path style="fill:none;stroke:red;stroke-width:1px;stroke-linecap:butt;stroke-linejoin:miter;stroke-opacity:1" d="M 578.153,251.613 593.629,256.256 z" id="boundary" inkscape:connector-curvature="0" />
	<path style="fill:none;stroke:red;stroke-width:1px;stroke-linecap:butt;stroke-linejoin:miter;stroke-opacity:1" d="M 593.629,256.256 609.105,259.351 z" id="boundary" inkscape:connector-curvature="0" />
	<path style="fill:none;stroke:red;stroke-width:1px;stroke-linecap:butt;stroke-linejoin:miter;stroke-opacity:1" d="M 609.105,259.351 624.58,259.351 z" id="boundary" inkscape:connector-curvature="0" />
	<path style="fill:none;stroke:red;stroke-width:1px;stroke-linecap:butt;stroke-linejoin:miter;stroke-opacity:1" d="M 624.58,259.351 638.509,267.089 z" id="boundary" inkscape:connector-curvature="0" />
	<path style="fill:none;stroke:red;stroke-width:1px;stroke-linecap:butt;stroke-linejoin:miter;stroke-opacity:1" d="M 638.509,267.089 653.984,267.089 z" id="boundary" inkscape:connector-curvature="0" />
	<path style="fill:none;stroke:red;stroke-width:1px;stroke-linecap:butt;stroke-linejoin:miter;stroke-opacity:1" d="M 653.984,267.089 667.913,274.827 z" id="boundary" inkscape:connector-curvature="0" />
	<path style="fill:none;stroke:red;stroke-width:1px;stroke-linecap:butt;stroke-linejoin:miter;stroke-opacity:1" d="M 667.913,274.827 683.388,274.827 z" id="boundary" inkscape:connector-curvature="0" />
	<path style="fill:none;stroke:red;stroke-width:1px;stroke-linecap:butt;stroke-linejoin:miter;stroke-opacity:1" d="M 683.388,274.827 698.864,276.374 z" id="boundary" inkscape:connector-curvature="0" />
	<path style="fill:none;stroke:red;stroke-width:1px;stroke-linecap:butt;stroke-linejoin:miter;stroke-opacity:1" d="M 698.864,276.374 712.793,284.112 z" id="boundary" inkscape:connector-curvature="0" />
	<path style="fill:none;stroke:red;stroke-width:1px;stroke-linecap:butt;stroke-linejoin:miter;stroke-opacity:1" d="M 712.793,284.112 720.53,298.041 z" id="boundary" inkscape:connector-curvature="0" />
	<path style="fill:none;stroke:red;stroke-width:1px;stroke-linecap:butt;stroke-linejoin:miter;stroke-opacity:1" d="M 720.53,298.041 736.006,298.041 z" id="boundary" inkscape:connector-curvature="0" />
	<path style="fill:none;stroke:red;stroke-width:1px;stroke-linecap:butt;stroke-linejoin:miter;stroke-opacity:1" d="M 736.006,298.041 751.482,298.041 z" id="boundary" inkscape:connector-curvature="0" />
	<path style="fill:none;stroke:red;stroke-width:1px;stroke-linecap:butt;stroke-linejoin:miter;stroke-opacity:1" d="M 751.482,298.041 765.41,305.778 z" id="boundary" inkscape:connector-curvature="0" />
	<path style="fill:none;stroke:red;stroke-width:1px;stroke-linecap:butt;stroke-linejoin:miter;stroke-opacity:1" d="M 765.41,305.778 779.339,313.516 z" id="boundary" inkscape:connector-curvature="0" />
	<path style="fill:none;stroke:red;stroke-width:1px;stroke-linecap:butt;stroke-linejoin:miter;stroke-opacity:1" d="M 779.339,313.516 794.814,313.516 z" id="boundary" inkscape:connector-curvature="0" />
	<path style="fill:none;stroke:red;stroke-width:1px;stroke-linecap:butt;stroke-linejoin:miter;stroke-opacity:1" d="M 794.814,313.516 808.743,321.254 z" id="boundary" inkscape:connector-curvature="0" />
	<path style="fill:none;stroke:red;stroke-width:1px;stroke-linecap:butt;stroke-linejoin:miter;stroke-opacity:1" d="M 808.743,321.254 822.671,328.992 z" id="boundary" inkscape:connector-curvature="0" />
	<path style="fill:none;stroke:red;stroke-width:1px;stroke-linecap:butt;stroke-linejoin:miter;stroke-opacity:1" d="M 822.671,328.992 838.147,330.54 z" id="boundary" inkscape:connector-curvature="0" />
	<path style="fill:none;stroke:red;stroke-width:1px;stroke-linecap:butt;stroke-linejoin:miter;stroke-opacity:1" d="M 838.147,330.54 845.885,344.468 z" id="boundary" inkscape:connector-curvature="0" />
	<path style="fill:none;stroke:red;stroke-width:1px;stroke-linecap:butt;stroke-linejoin:miter;stroke-opacity:1" d="M 845.885,344.468 861.36,346.016 z" id="boundary" inkscape:connector-curvature="0" />
	<path style="fill:none;stroke:red;stroke-width:1px;stroke-linecap:butt;stroke-linejoin:miter;stroke-opacity:1" d="M 861.36,346.016 876.836,352.206 z" id="boundary" inkscape:connector-curvature="0" />
	<path style="fill:none;stroke:red;stroke-width:1px;stroke-linecap:butt;stroke-linejoin:miter;stroke-opacity:1" d="M 876.836,352.206 890.764,359.944 z" id="boundary" inkscape:connector-curvature="0" />
	<path style="fill:none;stroke:red;stroke-width:1px;stroke-linecap:butt;stroke-linejoin:miter;stroke-opacity:1" d="M 890.764,359.944 904.693,367.682 z" id="boundary" inkscape:connector-curvature="0" />
	<path style="fill:none;stroke:red;stroke-width:1px;stroke-linecap:butt;stroke-linejoin:miter;stroke-opacity:1" d="M 904.693,367.682 917.073,378.515 z" id="boundary" inkscape:connector-curvature="0" />
	<path style="fill:none;stroke:red;stroke-width:1px;stroke-linecap:butt;stroke-linejoin:miter;stroke-opacity:1" d="M 917.073,378.515 926.359,390.895 z" id="boundary" inkscape:connector-curvature="0" />
	<path style="fill:none;stroke:red;stroke-width:1px;stroke-linecap:butt;stroke-linejoin:miter;stroke-opacity:1" d="M 926.359,390.895 941.835,395.538 z" id="boundary" inkscape:connector-curvature="0" />
	<path style="fill:none;stroke:red;stroke-width:1px;stroke-linecap:butt;stroke-linejoin:miter;stroke-opacity:1" d="M 941.835,395.538 952.668,407.919 z" id="boundary" inkscape:connector-curvature="0" />
	<path style="fill:none;stroke:red;stroke-width:1px;stroke-linecap:butt;stroke-linejoin:miter;stroke-opacity:1" d="M 952.668,407.919 965.048,418.752 z" id="boundary" inkscape:connector-curvature="0" />
	<path style="fill:none;stroke:red;stroke-width:1px;stroke-linecap:butt;stroke-linejoin:miter;stroke-opacity:1" d="M 965.048,418.752 978.977,426.49 z" id="boundary" inkscape:connector-curvature="0" />
	<path style="fill:none;stroke:red;stroke-width:1px;stroke-linecap:butt;stroke-linejoin:miter;stroke-opacity:1" d="M 978.977,426.49 986.715,440.418 z" id="boundary" inkscape:connector-curvature="0" />
	<path style="fill:none;stroke:red;stroke-width:1px;stroke-linecap:butt;stroke-linejoin:miter;stroke-opacity:1" d="M 986.715,440.418 996,452.799 z" id="boundary" inkscape:connector-curvature="0" />
	<circle cx="4" cy="225.304" r="4" fill="#0" id="circle0"/>
	<circle cx="4" cy="240.78" r="4" fill="#0" id="circle1"/>
	<circle cx="4" cy="256.256" r="4" fill="#0" id="circle2"/>
	<circle cx="4" cy="271.732" r="4" fill="#0" id="circle3"/>
	<circle cx="11.7379" cy="209.828" r="4" fill="#0" id="circle4"/>
	<circle cx="19.4758" cy="186.615" r="4" fill="#0" id="circle5"/>
	<circle cx="19.4758" cy="248.518" r="4" fill="#0" id="circle6"/>
	<circle cx="21.0234" cy="229.947" r="4" fill="#0" id="circle7"/>
	<circle cx="28.7613" cy="214.471" r="4" fill="#0" id="circle8"/>
	<circle cx="31.8565" cy="174.234" r="4" fill="#0" id="circle9"/>
	<circle cx="36.4992" cy="191.257" r="4" fill="#0" id="circle10"/>
	<circle cx="45.7847" cy="166.496" r="4" fill="#0" id="circle11"/>
	<circle cx="51.975" cy="183.52" r="4" fill="#0" id="circle12"/>
	<circle cx="58.1654" cy="147.925" r="4" fill="#0" id="circle13"/>
	<circle cx="65.9033" cy="175.782" r="4" fill="#0" id="circle14"/>
	<circle cx="73.6412" cy="132.449" r="4" fill="#0" id="circle15"/>
	<circle cx="78.2839" cy="166.496" r="4" fill="#0" id="circle16"/>
	<circle cx="86.0218" cy="120.069" r="4" fill="#0" id="circle17"/>
	<circle cx="93.7598" cy="158.758" r="4" fill="#0" id="circle18"/>
	<circle cx="101.498" cy="112.331" r="4" fill="#0" id="circle19"/>
	<circle cx="101.498" cy="143.282" r="4" fill="#0" id="circle20"/>
	<circle cx="109.236" cy="96.8549" r="4" fill="#0" id="circle21"/>
	<circle cx="113.878" cy="129.354" r="4" fill="#0" id="circle22"/>
	<circle cx="116.973" cy="81.3791" r="4" fill="#0" id="circle23"/>
	<circle cx="127.807" cy="121.616" r="4" fill="#0" id="circle24"/>
	<circle cx="129.354" cy="68.9984" r="4" fill="#0" id="circle25"/>
	<circle cx="143.282" cy="47.3323" r="4" fill="#0" id="circle26"/>
	<circle cx="143.282" cy="116.973" r="4" fill="#0" id="circle27"/>
	<circle cx="155.663" cy="34.9516" r="4" fill="#0" id="circle28"/>
	<circle cx="158.758" cy="113.878" r="4" fill="#0" id="circle29"/>
	<circle cx="168.044" cy="22.571" r="4" fill="#0" id="circle30"/>
	<circle cx="174.234" cy="113.878" r="4" fill="#0" id="circle31"/>
	<circle cx="183.52" cy="19.4758" r="4" fill="#0" id="circle32"/>
	<circle cx="189.71" cy="113.878" r="4" fill="#0" id="circle33"/>
	<circle cx="192.805" cy="5.54758" r="4" fill="#0" id="circle34"/>
	<circle cx="203.638" cy="121.616" r="4" fill="#0" id="circle35"/>
	<circle cx="208.281" cy="4" r="4" fill="#0" id="circle36"/>
	<circle cx="212.924" cy="133.997" r="4" fill="#0" id="circle37"/>
	<circle cx="220.661" cy="147.925" r="4" fill="#0" id="circle38"/>
	<circle cx="220.661" cy="163.401" r="4" fill="#0" id="circle39"/>
	<circle cx="220.661" cy="178.877" r="4" fill="#0" id="circle40"/>
	<circle cx="220.661" cy="194.353" r="4" fill="#0" id="circle41"/>
	<circle cx="220.661" cy="209.828" r="4" fill="#0" id="circle42"/>
	<circle cx="223.757" cy="4" r="4" fill="#0" id="circle43"/>
	<circle cx="228.399" cy="223.757" r="4" fill="#0" id="circle44"/>
	<circle cx="236.137" cy="237.685" r="4" fill="#0" id="circle45"/>
	<circle cx="236.137" cy="253.161" r="4" fill="#0" id="circle46"/>
	<circle cx="237.685" cy="11.7379" r="4" fill="#0" id="circle47"/>
	<circle cx="243.875" cy="267.089" r="4" fill="#0" id="circle48"/>
	<circle cx="245.423" cy="25.6661" r="4" fill="#0" id="circle49"/>
	<circle cx="246.97" cy="282.565" r="4" fill="#0" id="circle50"/>
	<circle cx="251.613" cy="298.041" r="4" fill="#0" id="circle51"/>
	<circle cx="257.803" cy="36.4992" r="4" fill="#0" id="circle52"/>
	<circle cx="260.899" cy="310.421" r="4" fill="#0" id="circle53"/>
	<circle cx="268.637" cy="48.8799" r="4" fill="#0" id="circle54"/>
	<circle cx="268.637" cy="64.3557" r="4" fill="#0" id="circle55"/>
	<circle cx="271.732" cy="322.802" r="4" fill="#0" id="circle56"/>
	<circle cx="281.017" cy="75.1888" r="4" fill="#0" id="circle57"/>
	<circle cx="284.112" cy="90.6646" r="4" fill="#0" id="circle58"/>
	<circle cx="284.112" cy="106.14" r="4" fill="#0" id="circle59"/>
	<circle cx="284.112" cy="121.616" r="4" fill="#0" id="circle60"/>
	<circle cx="284.112" cy="137.092" r="4" fill="#0" id="circle61"/>
	<circle cx="287.207" cy="328.992" r="4" fill="#0" id="circle62"/>
	<circle cx="291.85" cy="151.02" r="4" fill="#0" id="circle63"/>
	<circle cx="291.85" cy="166.496" r="4" fill="#0" id="circle64"/>
	<circle cx="291.85" cy="181.972" r="4" fill="#0" id="circle65"/>
	<circle cx="293.398" cy="344.468" r="4" fill="#0" id="circle66"/>
	<circle cx="299.588" cy="195.9" r="4" fill="#0" id="circle67"/>
	<circle cx="299.588" cy="211.376" r="4" fill="#0" id="circle68"/>
	<circle cx="305.778" cy="353.754" r="4" fill="#0" id="circle69"/>
	<circle cx="307.326" cy="225.304" r="4" fill="#0" id="circle70"/>
	<circle cx="319.707" cy="236.137" r="4" fill="#0" id="circle71"/>
	<circle cx="319.707" cy="361.491" r="4" fill="#0" id="circle72"/>
	<circle cx="330.54" cy="373.872" r="4" fill="#0" id="circle73"/>
	<circle cx="335.183" cy="237.685" r="4" fill="#0" id="circle74"/>
	<circle cx="338.278" cy="387.8" r="4" fill="#0" id="circle75"/>
	<circle cx="341.373" cy="253.161" r="4" fill="#0" id="circle76"/>
	<circle cx="344.468" cy="403.276" r="4" fill="#0" id="circle77"/>
	<circle cx="352.206" cy="417.204" r="4" fill="#0" id="circle78"/>
	<circle cx="353.754" cy="263.994" r="4" fill="#0" id="circle79"/>
	<circle cx="359.944" cy="867.551" r="4" fill="#0" id="circle80"/>
	<circle cx="367.682" cy="423.395" r="4" fill="#0" id="circle81"/>
	<circle cx="369.229" cy="259.351" r="4" fill="#0" id="circle82"/>
	<circle cx="375.42" cy="862.908" r="4" fill="#0" id="circle83"/>
	<circle cx="376.967" cy="435.775" r="4" fill="#0" id="circle84"/>
	<circle cx="378.515" cy="878.384" r="4" fill="#0" id="circle85"/>
	<circle cx="383.158" cy="906.24" r="4" fill="#0" id="circle86"/>
	<circle cx="384.705" cy="259.351" r="4" fill="#0" id="circle87"/>
	<circle cx="389.348" cy="446.608" r="4" fill="#0" id="circle88"/>
	<circle cx="389.348" cy="855.17" r="4" fill="#0" id="circle89"/>
	<circle cx="392.443" cy="918.621" r="4" fill="#0" id="circle90"/>
	<circle cx="393.991" cy="879.931" r="4" fill="#0" id="circle91"/>
	<circle cx="398.633" cy="895.407" r="4" fill="#0" id="circle92"/>
	<circle cx="400.181" cy="259.351" r="4" fill="#0" id="circle93"/>
	<circle cx="403.276" cy="454.346" r="4" fill="#0" id="circle94"/>
	<circle cx="403.276" cy="862.908" r="4" fill="#0" id="circle95"/>
	<circle cx="407.919" cy="918.621" r="4" fill="#0" id="circle96"/>
	<circle cx="415.657" cy="259.351" r="4" fill="#0" id="circle97"/>
	<circle cx="418.752" cy="454.346" r="4" fill="#0" id="circle98"/>
	<circle cx="418.752" cy="862.908" r="4" fill="#0" id="circle99"/>
	<circle cx="423.395" cy="910.883" r="4" fill="#0" id="circle100"/>
	<circle cx="429.585" cy="251.613" r="4" fill="#0" id="circle101"/>
	<circle cx="431.133" cy="465.179" r="4" fill="#0" id="circle102"/>
	<circle cx="432.68" cy="870.646" r="4" fill="#0" id="circle103"/>
	<circle cx="437.323" cy="903.145" r="4" fill="#0" id="circle104"/>
	<circle cx="445.061" cy="251.613" r="4" fill="#0" id="circle105"/>
	<circle cx="445.061" cy="472.917" r="4" fill="#0" id="circle106"/>
	<circle cx="446.608" cy="887.669" r="4" fill="#0" id="circle107"/>
	<circle cx="448.156" cy="870.646" r="4" fill="#0" id="circle108"/>
	<circle cx="454.346" cy="485.298" r="4" fill="#0" id="circle109"/>
	<circle cx="460.537" cy="251.613" r="4" fill="#0" id="circle110"/>
	<circle cx="462.084" cy="887.669" r="4" fill="#0" id="circle111"/>
	<circle cx="463.632" cy="870.646" r="4" fill="#0" id="circle112"/>
	<circle cx="469.822" cy="485.298" r="4" fill="#0" id="circle113"/>
	<circle cx="476.012" cy="251.613" r="4" fill="#0" id="circle114"/>
	<circle cx="476.012" cy="836.599" r="4" fill="#0" id="circle115"/>
	<circle cx="476.012" cy="852.075" r="4" fill="#0" id="circle116"/>
	<circle cx="476.012" cy="879.931" r="4" fill="#0" id="circle117"/>
	<circle cx="483.75" cy="797.91" r="4" fill="#0" id="circle118"/>
	<circle cx="483.75" cy="813.385" r="4" fill="#0" id="circle119"/>
	<circle cx="485.298" cy="488.393" r="4" fill="#0" id="circle120"/>
	<circle cx="491.488" cy="240.78" r="4" fill="#0" id="circle121"/>
	<circle cx="491.488" cy="751.482" r="4" fill="#0" id="circle122"/>
	<circle cx="491.488" cy="766.958" r="4" fill="#0" id="circle123"/>
	<circle cx="491.488" cy="782.434" r="4" fill="#0" id="circle124"/>
	<circle cx="491.488" cy="879.931" r="4" fill="#0" id="circle125"/>
	<circle cx="499.226" cy="496.131" r="4" fill="#0" id="circle126"/>
	<circle cx="499.226" cy="736.006" r="4" fill="#0" id="circle127"/>
	<circle cx="500.774" cy="841.242" r="4" fill="#0" id="circle128"/>
	<circle cx="506.964" cy="236.137" r="4" fill="#0" id="circle129"/>
	<circle cx="506.964" cy="879.931" r="4" fill="#0" id="circle130"/>
	<circle cx="508.512" cy="810.29" r="4" fill="#0" id="circle131"/>
	<circle cx="508.512" cy="825.766" r="4" fill="#0" id="circle132"/>
	<circle cx="508.512" cy="855.17" r="4" fill="#0" id="circle133"/>
	<circle cx="514.702" cy="500.774" r="4" fill="#0" id="circle134"/>
	<circle cx="514.702" cy="516.25" r="4" fill="#0" id="circle135"/>
	<circle cx="514.702" cy="531.725" r="4" fill="#0" id="circle136"/>
	<circle cx="514.702" cy="547.201" r="4" fill="#0" id="circle137"/>
	<circle cx="514.702" cy="705.055" r="4" fill="#0" id="circle138"/>
	<circle cx="514.702" cy="720.53" r="4" fill="#0" id="circle139"/>
	<circle cx="516.25" cy="771.601" r="4" fill="#0" id="circle140"/>
	<circle cx="516.25" cy="787.076" r="4" fill="#0" id="circle141"/>
	<circle cx="520.892" cy="864.456" r="4" fill="#0" id="circle142"/>
	<circle cx="522.44" cy="236.137" r="4" fill="#0" id="circle143"/>
	<circle cx="522.44" cy="561.129" r="4" fill="#0" id="circle144"/>
	<circle cx="522.44" cy="576.605" r="4" fill="#0" id="circle145"/>
	<circle cx="522.44" cy="674.103" r="4" fill="#0" id="circle146"/>
	<circle cx="522.44" cy="689.579" r="4" fill="#0" id="circle147"/>
	<circle cx="523.988" cy="740.649" r="4" fill="#0" id="circle148"/>
	<circle cx="523.988" cy="756.125" r="4" fill="#0" id="circle149"/>
	<circle cx="530.178" cy="590.534" r="4" fill="#0" id="circle150"/>
	<circle cx="530.178" cy="606.009" r="4" fill="#0" id="circle151"/>
	<circle cx="530.178" cy="627.676" r="4" fill="#0" id="circle152"/>
	<circle cx="530.178" cy="643.151" r="4" fill="#0" id="circle153"/>
	<circle cx="530.178" cy="658.627" r="4" fill="#0" id="circle154"/>
	<circle cx="531.725" cy="248.518" r="4" fill="#0" id="circle155"/>
	<circle cx="531.725" cy="717.435" r="4" fill="#0" id="circle156"/>
	<circle cx="539.463" cy="516.25" r="4" fill="#0" id="circle157"/>
	<circle cx="539.463" cy="531.725" r="4" fill="#0" id="circle158"/>
	<circle cx="539.463" cy="547.201" r="4" fill="#0" id="circle159"/>
	<circle cx="539.463" cy="686.484" r="4" fill="#0" id="circle160"/>
	<circle cx="539.463" cy="701.959" r="4" fill="#0" id="circle161"/>
	<circle cx="542.559" cy="562.677" r="4" fill="#0" id="circle162"/>
	<circle cx="547.201" cy="251.613" r="4" fill="#0" id="circle163"/>
	<circle cx="547.201" cy="500.774" r="4" fill="#0" id="circle164"/>
	<circle cx="547.201" cy="578.153" r="4" fill="#0" id="circle165"/>
	<circle cx="547.201" cy="647.794" r="4" fill="#0" id="circle166"/>
	<circle cx="547.201" cy="663.27" r="4" fill="#0" id="circle167"/>
	<circle cx="554.939" cy="592.081" r="4" fill="#0" id="circle168"/>
	<circle cx="562.677" cy="251.613" r="4" fill="#0" id="circle169"/>
	<circle cx="562.677" cy="500.774" r="4" fill="#0" id="circle170"/>
	<circle cx="562.677" cy="606.009" r="4" fill="#0" id="circle171"/>
	<circle cx="562.677" cy="621.485" r="4" fill="#0" id="circle172"/>
	<circle cx="562.677" cy="636.961" r="4" fill="#0" id="circle173"/>
	<circle cx="568.867" cy="859.813" r="4" fill="#0" id="circle174"/>
	<circle cx="578.153" cy="251.613" r="4" fill="#0" id="circle175"/>
	<circle cx="578.153" cy="503.869" r="4" fill="#0" id="circle176"/>
	<circle cx="578.153" cy="872.193" r="4" fill="#0" id="circle177"/>
	<circle cx="584.343" cy="855.17" r="4" fill="#0" id="circle178"/>
	<circle cx="588.986" cy="516.25" r="4" fill="#0" id="circle179"/>
	<circle cx="592.081" cy="531.725" r="4" fill="#0" id="circle180"/>
	<circle cx="593.629" cy="256.256" r="4" fill="#0" id="circle181"/>
	<circle cx="593.629" cy="842.789" r="4" fill="#0" id="circle182"/>
	<circle cx="593.629" cy="867.551" r="4" fill="#0" id="circle183"/>
	<circle cx="606.009" cy="539.463" r="4" fill="#0" id="circle184"/>
	<circle cx="609.105" cy="259.351" r="4" fill="#0" id="circle185"/>
	<circle cx="609.105" cy="839.694" r="4" fill="#0" id="circle186"/>
	<circle cx="609.105" cy="867.551" r="4" fill="#0" id="circle187"/>
	<circle cx="612.2" cy="554.939" r="4" fill="#0" id="circle188"/>
	<circle cx="615.295" cy="890.764" r="4" fill="#0" id="circle189"/>
	<circle cx="616.842" cy="500.774" r="4" fill="#0" id="circle190"/>
	<circle cx="619.938" cy="516.25" r="4" fill="#0" id="circle191"/>
	<circle cx="623.033" cy="567.32" r="4" fill="#0" id="circle192"/>
	<circle cx="623.033" cy="904.693" r="4" fill="#0" id="circle193"/>
	<circle cx="624.58" cy="259.351" r="4" fill="#0" id="circle194"/>
	<circle cx="624.58" cy="531.725" r="4" fill="#0" id="circle195"/>
	<circle cx="624.58" cy="839.694" r="4" fill="#0" id="circle196"/>
	<circle cx="624.58" cy="867.551" r="4" fill="#0" id="circle197"/>
	<circle cx="630.771" cy="493.036" r="4" fill="#0" id="circle198"/>
	<circle cx="630.771" cy="581.248" r="4" fill="#0" id="circle199"/>
	<circle cx="630.771" cy="883.027" r="4" fill="#0" id="circle200"/>
	<circle cx="632.318" cy="545.654" r="4" fill="#0" id="circle201"/>
	<circle cx="638.509" cy="267.089" r="4" fill="#0" id="circle202"/>
	<circle cx="638.509" cy="595.176" r="4" fill="#0" id="circle203"/>
	<circle cx="638.509" cy="610.652" r="4" fill="#0" id="circle204"/>
	<circle cx="638.509" cy="626.128" r="4" fill="#0" id="circle205"/>
	<circle cx="638.509" cy="910.883" r="4" fill="#0" id="circle206"/>
	<circle cx="640.056" cy="839.694" r="4" fill="#0" id="circle207"/>
	<circle cx="646.246" cy="493.036" r="4" fill="#0" id="circle208"/>
	<circle cx="646.246" cy="553.392" r="4" fill="#0" id="circle209"/>
	<circle cx="646.246" cy="640.056" r="4" fill="#0" id="circle210"/>
	<circle cx="646.246" cy="655.532" r="4" fill="#0" id="circle211"/>
	<circle cx="646.246" cy="671.008" r="4" fill="#0" id="circle212"/>
	<circle cx="646.246" cy="686.484" r="4" fill="#0" id="circle213"/>
	<circle cx="653.984" cy="267.089" r="4" fill="#0" id="circle214"/>
	<circle cx="653.984" cy="700.412" r="4" fill="#0" id="circle215"/>
	<circle cx="653.984" cy="715.888" r="4" fill="#0" id="circle216"/>
	<circle cx="653.984" cy="731.363" r="4" fill="#0" id="circle217"/>
	<circle cx="653.984" cy="746.839" r="4" fill="#0" id="circle218"/>
	<circle cx="653.984" cy="906.24" r="4" fill="#0" id="circle219"/>
	<circle cx="655.532" cy="565.772" r="4" fill="#0" id="circle220"/>
	<circle cx="655.532" cy="835.051" r="4" fill="#0" id="circle221"/>
	<circle cx="657.08" cy="762.315" r="4" fill="#0" id="circle222"/>
	<circle cx="661.722" cy="493.036" r="4" fill="#0" id="circle223"/>
	<circle cx="661.722" cy="581.248" r="4" fill="#0" id="circle224"/>
	<circle cx="661.722" cy="777.791" r="4" fill="#0" id="circle225"/>
	<circle cx="661.722" cy="793.267" r="4" fill="#0" id="circle226"/>
	<circle cx="663.27" cy="596.724" r="4" fill="#0" id="circle227"/>
	<circle cx="663.27" cy="819.576" r="4" fill="#0" id="circle228"/>
	<circle cx="663.27" cy="872.193" r="4" fill="#0" id="circle229"/>
	<circle cx="663.27" cy="887.669" r="4" fill="#0" id="circle230"/>
	<circle cx="667.913" cy="274.827" r="4" fill="#0" id="circle231"/>
	<circle cx="671.008" cy="610.652" r="4" fill="#0" id="circle232"/>
	<circle cx="671.008" cy="647.794" r="4" fill="#0" id="circle233"/>
	<circle cx="671.008" cy="663.27" r="4" fill="#0" id="circle234"/>
	<circle cx="671.008" cy="678.746" r="4" fill="#0" id="circle235"/>
	<circle cx="675.651" cy="626.128" r="4" fill="#0" id="circle236"/>
	<circle cx="675.651" cy="861.36" r="4" fill="#0" id="circle237"/>
	<circle cx="677.198" cy="493.036" r="4" fill="#0" id="circle238"/>
	<circle cx="678.746" cy="692.674" r="4" fill="#0" id="circle239"/>
	<circle cx="678.746" cy="708.15" r="4" fill="#0" id="circle240"/>
	<circle cx="678.746" cy="723.626" r="4" fill="#0" id="circle241"/>
	<circle cx="678.746" cy="739.101" r="4" fill="#0" id="circle242"/>
	<circle cx="678.746" cy="754.577" r="4" fill="#0" id="circle243"/>
	<circle cx="678.746" cy="770.053" r="4" fill="#0" id="circle244"/>
	<circle cx="683.388" cy="274.827" r="4" fill="#0" id="circle245"/>
	<circle cx="686.484" cy="783.981" r="4" fill="#0" id="circle246"/>
	<circle cx="686.484" cy="799.457" r="4" fill="#0" id="circle247"/>
	<circle cx="686.484" cy="814.933" r="4" fill="#0" id="circle248"/>
	<circle cx="686.484" cy="830.409" r="4" fill="#0" id="circle249"/>
	<circle cx="691.126" cy="856.718" r="4" fill="#0" id="circle250"/>
	<circle cx="692.674" cy="493.036" r="4" fill="#0" id="circle251"/>
	<circle cx="698.864" cy="276.374" r="4" fill="#0" id="circle252"/>
	<circle cx="701.959" cy="836.599" r="4" fill="#0" id="circle253"/>
	<circle cx="708.15" cy="493.036" r="4" fill="#0" id="circle254"/>
	<circle cx="712.793" cy="284.112" r="4" fill="#0" id="circle255"/>
	<circle cx="720.53" cy="298.041" r="4" fill="#0" id="circle256"/>
	<circle cx="723.626" cy="493.036" r="4" fill="#0" id="circle257"/>
	<circle cx="736.006" cy="298.041" r="4" fill="#0" id="circle258"/>
	<circle cx="739.101" cy="493.036" r="4" fill="#0" id="circle259"/>
	<circle cx="751.482" cy="298.041" r="4" fill="#0" id="circle260"/>
	<circle cx="753.03" cy="485.298" r="4" fill="#0" id="circle261"/>
	<circle cx="765.41" cy="305.778" r="4" fill="#0" id="circle262"/>
	<circle cx="768.505" cy="485.298" r="4" fill="#0" id="circle263"/>
	<circle cx="779.339" cy="313.516" r="4" fill="#0" id="circle264"/>
	<circle cx="779.339" cy="469.822" r="4" fill="#0" id="circle265"/>
	<circle cx="794.814" cy="313.516" r="4" fill="#0" id="circle266"/>
	<circle cx="794.814" cy="469.822" r="4" fill="#0" id="circle267"/>
	<circle cx="808.743" cy="321.254" r="4" fill="#0" id="circle268"/>
	<circle cx="810.29" cy="462.084" r="4" fill="#0" id="circle269"/>
	<circle cx="822.671" cy="328.992" r="4" fill="#0" id="circle270"/>
	<circle cx="824.218" cy="469.822" r="4" fill="#0" id="circle271"/>
	<circle cx="838.147" cy="330.54" r="4" fill="#0" id="circle272"/>
	<circle cx="839.694" cy="469.822" r="4" fill="#0" id="circle273"/>
	<circle cx="845.885" cy="344.468" r="4" fill="#0" id="circle274"/>
	<circle cx="855.17" cy="469.822" r="4" fill="#0" id="circle275"/>
	<circle cx="861.36" cy="346.016" r="4" fill="#0" id="circle276"/>
	<circle cx="869.098" cy="462.084" r="4" fill="#0" id="circle277"/>
	<circle cx="876.836" cy="352.206" r="4" fill="#0" id="circle278"/>
	<circle cx="883.027" cy="469.822" r="4" fill="#0" id="circle279"/>
	<circle cx="890.764" cy="359.944" r="4" fill="#0" id="circle280"/>
	<circle cx="898.502" cy="469.822" r="4" fill="#0" id="circle281"/>
	<circle cx="904.693" cy="367.682" r="4" fill="#0" id="circle282"/>
	<circle cx="912.431" cy="477.56" r="4" fill="#0" id="circle283"/>
	<circle cx="917.073" cy="378.515" r="4" fill="#0" id="circle284"/>
	<circle cx="926.359" cy="390.895" r="4" fill="#0" id="circle285"/>
	<circle cx="927.906" cy="477.56" r="4" fill="#0" id="circle286"/>
	<circle cx="941.835" cy="395.538" r="4" fill="#0" id="circle287"/>
	<circle cx="941.835" cy="485.298" r="4" fill="#0" id="circle288"/>
	<circle cx="952.668" cy="407.919" r="4" fill="#0" id="circle289"/>
	<circle cx="957.31" cy="485.298" r="4" fill="#0" id="circle290"/>
	<circle cx="965.048" cy="418.752" r="4" fill="#0" id="circle291"/>
	<circle cx="972.786" cy="477.56" r="4" fill="#0" id="circle292"/>
	<circle cx="978.977" cy="426.49" r="4" fill="#0" id="circle293"/>
	<circle cx="986.715" cy="440.418" r="4" fill="#0" id="circle294"/>
	<circle cx="988.262" cy="469.822" r="4" fill="#0" id="circle295"/>
	<circle cx="996" cy="452.799" r="4" fill="#0" id="circle296"/>
	</g>
</svg>