<?xml version="1.0" encoding="UTF-8" standalone="no"?>
<!-- Created with CurveBenchmark -->
<svg
	xmlns:dc="http://purl.org/dc/elements/1.1/"
	xmlns:cc="http://creativecommons.org/ns#"
	xmlns:rdf="http://www.w3.org/1999/02/22-rdf-syntax-ns#"
	xmlns:svg="http://www.w3.org/2000/svg"
	xmlns="http://www.w3.org/2000/svg"
	xmlns:sodipodi="http://sodipodi.sourceforge.net/DTD/sodipodi-0.dtd"
	xmlns:inkscape="http://www.inkscape.org/namespaces/inkscape"
	width="1000"
	height="1000"
	id="svg2"
	version="1.1"
	sodipodi:docname="manifold/connect2d-bird33.png.txt">
<defs
	id="defs4" />
<metadata
	id="metadata7">
	<rdf:RDF>
		<cc:Work
			rdf:about="">
			<dc:format>image/svg+xml</dc:format>
			<dc:type
				rdf:resource="http://purl.org/dc/dcmitype/StillImage" />
			<dc:title></dc:title>
		</cc:Work>
	</rdf:RDF>
</metadata>
<g
	inkscape:label="Layer 1"
	inkscape:groupmode="layer"
	id="layer1">
	<path style="fill:none;stroke:red;stroke-width:1px;stroke-linecap:butt;stroke-linejoin:miter;stroke-opacity:1" d="M 261.997,27.2198 272.317,36.2497 z" id="boundary" inkscape:connector-curvature="0" />
	<path style="fill:none;stroke:red;stroke-width:1px;stroke-linecap:butt;stroke-linejoin:miter;stroke-opacity:1" d="M 272.317,36.2497 281.347,46.5696 z" id="boundary" inkscape:connector-curvature="0" />
	<path style="fill:none;stroke:red;stroke-width:1px;stroke-linecap:butt;stroke-linejoin:miter;stroke-opacity:1" d="M 281.347,46.5696 282.637,59.4694 z" id="boundary" inkscape:connector-curvature="0" />
	<path style="fill:none;stroke:red;stroke-width:1px;stroke-linecap:butt;stroke-linejoin:miter;stroke-opacity:1" d="M 282.637,59.4694 289.087,71.0793 z" id="boundary" inkscape:connector-curvature="0" />
	<path style="fill:none;stroke:red;stroke-width:1px;stroke-linecap:butt;stroke-linejoin:miter;stroke-opacity:1" d="M 289.087,71.0793 292.957,83.9792 z" id="boundary" inkscape:connector-curvature="0" />
	<path style="fill:none;stroke:red;stroke-width:1px;stroke-linecap:butt;stroke-linejoin:miter;stroke-opacity:1" d="M 292.957,83.9792 299.407,95.5891 z" id="boundary" inkscape:connector-curvature="0" />
	<path style="fill:none;stroke:red;stroke-width:1px;stroke-linecap:butt;stroke-linejoin:miter;stroke-opacity:1" d="M 299.407,95.5891 304.567,108.489 z" id="boundary" inkscape:connector-curvature="0" />
	<path style="fill:none;stroke:red;stroke-width:1px;stroke-linecap:butt;stroke-linejoin:miter;stroke-opacity:1" d="M 304.567,108.489 314.887,117.519 z" id="boundary" inkscape:connector-curvature="0" />
	<path style="fill:none;stroke:red;stroke-width:1px;stroke-linecap:butt;stroke-linejoin:miter;stroke-opacity:1" d="M 314.887,117.519 326.497,123.969 z" id="boundary" inkscape:connector-curvature="0" />
	<path style="fill:none;stroke:red;stroke-width:1px;stroke-linecap:butt;stroke-linejoin:miter;stroke-opacity:1" d="M 326.497,123.969 339.397,129.129 z" id="boundary" inkscape:connector-curvature="0" />
	<path style="fill:none;stroke:red;stroke-width:1px;stroke-linecap:butt;stroke-linejoin:miter;stroke-opacity:1" d="M 339.397,129.129 351.007,135.579 z" id="boundary" inkscape:connector-curvature="0" />
	<path style="fill:none;stroke:red;stroke-width:1px;stroke-linecap:butt;stroke-linejoin:miter;stroke-opacity:1" d="M 351.007,135.579 363.906,140.739 z" id="boundary" inkscape:connector-curvature="0" />
	<path style="fill:none;stroke:red;stroke-width:1px;stroke-linecap:butt;stroke-linejoin:miter;stroke-opacity:1" d="M 363.906,140.739 372.936,151.059 z" id="boundary" inkscape:connector-curvature="0" />
	<path style="fill:none;stroke:red;stroke-width:1px;stroke-linecap:butt;stroke-linejoin:miter;stroke-opacity:1" d="M 372.936,151.059 385.836,152.349 z" id="boundary" inkscape:connector-curvature="0" />
	<path style="fill:none;stroke:red;stroke-width:1px;stroke-linecap:butt;stroke-linejoin:miter;stroke-opacity:1" d="M 385.836,152.349 396.156,160.088 z" id="boundary" inkscape:connector-curvature="0" />
	<path style="fill:none;stroke:red;stroke-width:1px;stroke-linecap:butt;stroke-linejoin:miter;stroke-opacity:1" d="M 396.156,160.088 407.766,166.538 z" id="boundary" inkscape:connector-curvature="0" />
	<path style="fill:none;stroke:red;stroke-width:1px;stroke-linecap:butt;stroke-linejoin:miter;stroke-opacity:1" d="M 407.766,166.538 414.216,178.148 z" id="boundary" inkscape:connector-curvature="0" />
	<path style="fill:none;stroke:red;stroke-width:1px;stroke-linecap:butt;stroke-linejoin:miter;stroke-opacity:1" d="M 414.216,178.148 425.826,184.598 z" id="boundary" inkscape:connector-curvature="0" />
	<path style="fill:none;stroke:red;stroke-width:1px;stroke-linecap:butt;stroke-linejoin:miter;stroke-opacity:1" d="M 425.826,184.598 437.436,191.048 z" id="boundary" inkscape:connector-curvature="0" />
	<path style="fill:none;stroke:red;stroke-width:1px;stroke-linecap:butt;stroke-linejoin:miter;stroke-opacity:1" d="M 437.436,191.048 447.756,198.788 z" id="boundary" inkscape:connector-curvature="0" />
	<path style="fill:none;stroke:red;stroke-width:1px;stroke-linecap:butt;stroke-linejoin:miter;stroke-opacity:1" d="M 447.756,198.788 459.365,205.238 z" id="boundary" inkscape:connector-curvature="0" />
	<path style="fill:none;stroke:red;stroke-width:1px;stroke-linecap:butt;stroke-linejoin:miter;stroke-opacity:1" d="M 459.365,205.238 469.685,214.268 z" id="boundary" inkscape:connector-curvature="0" />
	<path style="fill:none;stroke:red;stroke-width:1px;stroke-linecap:butt;stroke-linejoin:miter;stroke-opacity:1" d="M 469.685,214.268 480.005,223.298 z" id="boundary" inkscape:connector-curvature="0" />
	<path style="fill:none;stroke:red;stroke-width:1px;stroke-linecap:butt;stroke-linejoin:miter;stroke-opacity:1" d="M 480.005,223.298 491.615,229.748 z" id="boundary" inkscape:connector-curvature="0" />
	<path style="fill:none;stroke:red;stroke-width:1px;stroke-linecap:butt;stroke-linejoin:miter;stroke-opacity:1" d="M 491.615,229.748 500.645,240.068 z" id="boundary" inkscape:connector-curvature="0" />
	<path style="fill:none;stroke:red;stroke-width:1px;stroke-linecap:butt;stroke-linejoin:miter;stroke-opacity:1" d="M 500.645,240.068 510.965,249.098 z" id="boundary" inkscape:connector-curvature="0" />
	<path style="fill:none;stroke:red;stroke-width:1px;stroke-linecap:butt;stroke-linejoin:miter;stroke-opacity:1" d="M 510.965,249.098 514.835,261.997 z" id="boundary" inkscape:connector-curvature="0" />
	<path style="fill:none;stroke:red;stroke-width:1px;stroke-linecap:butt;stroke-linejoin:miter;stroke-opacity:1" d="M 514.835,261.997 525.155,269.737 z" id="boundary" inkscape:connector-curvature="0" />
	<path style="fill:none;stroke:red;stroke-width:1px;stroke-linecap:butt;stroke-linejoin:miter;stroke-opacity:1" d="M 525.155,269.737 536.765,276.187 z" id="boundary" inkscape:connector-curvature="0" />
	<path style="fill:none;stroke:red;stroke-width:1px;stroke-linecap:butt;stroke-linejoin:miter;stroke-opacity:1" d="M 536.765,276.187 547.085,285.217 z" id="boundary" inkscape:connector-curvature="0" />
	<path style="fill:none;stroke:red;stroke-width:1px;stroke-linecap:butt;stroke-linejoin:miter;stroke-opacity:1" d="M 547.085,285.217 556.114,295.537 z" id="boundary" inkscape:connector-curvature="0" />
	<path style="fill:none;stroke:red;stroke-width:1px;stroke-linecap:butt;stroke-linejoin:miter;stroke-opacity:1" d="M 556.114,295.537 569.014,300.697 z" id="boundary" inkscape:connector-curvature="0" />
	<path style="fill:none;stroke:red;stroke-width:1px;stroke-linecap:butt;stroke-linejoin:miter;stroke-opacity:1" d="M 569.014,300.697 578.044,311.017 z" id="boundary" inkscape:connector-curvature="0" />
	<path style="fill:none;stroke:red;stroke-width:1px;stroke-linecap:butt;stroke-linejoin:miter;stroke-opacity:1" d="M 578.044,311.017 590.944,316.177 z" id="boundary" inkscape:connector-curvature="0" />
	<path style="fill:none;stroke:red;stroke-width:1px;stroke-linecap:butt;stroke-linejoin:miter;stroke-opacity:1" d="M 590.944,316.177 598.684,326.497 z" id="boundary" inkscape:connector-curvature="0" />
	<path style="fill:none;stroke:red;stroke-width:1px;stroke-linecap:butt;stroke-linejoin:miter;stroke-opacity:1" d="M 598.684,326.497 605.134,338.107 z" id="boundary" inkscape:connector-curvature="0" />
	<path style="fill:none;stroke:red;stroke-width:1px;stroke-linecap:butt;stroke-linejoin:miter;stroke-opacity:1" d="M 605.134,338.107 611.584,349.717 z" id="boundary" inkscape:connector-curvature="0" />
	<path style="fill:none;stroke:red;stroke-width:1px;stroke-linecap:butt;stroke-linejoin:miter;stroke-opacity:1" d="M 611.584,349.717 623.194,356.166 z" id="boundary" inkscape:connector-curvature="0" />
	<path style="fill:none;stroke:red;stroke-width:1px;stroke-linecap:butt;stroke-linejoin:miter;stroke-opacity:1" d="M 623.194,356.166 633.514,365.196 z" id="boundary" inkscape:connector-curvature="0" />
	<path style="fill:none;stroke:red;stroke-width:1px;stroke-linecap:butt;stroke-linejoin:miter;stroke-opacity:1" d="M 633.514,365.196 645.124,371.646 z" id="boundary" inkscape:connector-curvature="0" />
	<path style="fill:none;stroke:red;stroke-width:1px;stroke-linecap:butt;stroke-linejoin:miter;stroke-opacity:1" d="M 645.124,371.646 656.733,378.096 z" id="boundary" inkscape:connector-curvature="0" />
	<path style="fill:none;stroke:red;stroke-width:1px;stroke-linecap:butt;stroke-linejoin:miter;stroke-opacity:1" d="M 656.733,378.096 663.183,389.706 z" id="boundary" inkscape:connector-curvature="0" />
	<path style="fill:none;stroke:red;stroke-width:1px;stroke-linecap:butt;stroke-linejoin:miter;stroke-opacity:1" d="M 663.183,389.706 669.633,401.316 z" id="boundary" inkscape:connector-curvature="0" />
	<path style="fill:none;stroke:red;stroke-width:1px;stroke-linecap:butt;stroke-linejoin:miter;stroke-opacity:1" d="M 669.633,401.316 681.243,407.766 z" id="boundary" inkscape:connector-curvature="0" />
	<path style="fill:none;stroke:red;stroke-width:1px;stroke-linecap:butt;stroke-linejoin:miter;stroke-opacity:1" d="M 681.243,407.766 694.143,412.926 z" id="boundary" inkscape:connector-curvature="0" />
	<path style="fill:none;stroke:red;stroke-width:1px;stroke-linecap:butt;stroke-linejoin:miter;stroke-opacity:1" d="M 694.143,412.926 705.753,419.376 z" id="boundary" inkscape:connector-curvature="0" />
	<path style="fill:none;stroke:red;stroke-width:1px;stroke-linecap:butt;stroke-linejoin:miter;stroke-opacity:1" d="M 705.753,419.376 714.783,429.696 z" id="boundary" inkscape:connector-curvature="0" />
	<path style="fill:none;stroke:red;stroke-width:1px;stroke-linecap:butt;stroke-linejoin:miter;stroke-opacity:1" d="M 714.783,429.696 727.683,429.696 z" id="boundary" inkscape:connector-curvature="0" />
	<path style="fill:none;stroke:red;stroke-width:1px;stroke-linecap:butt;stroke-linejoin:miter;stroke-opacity:1" d="M 727.683,429.696 738.003,437.436 z" id="boundary" inkscape:connector-curvature="0" />
	<path style="fill:none;stroke:red;stroke-width:1px;stroke-linecap:butt;stroke-linejoin:miter;stroke-opacity:1" d="M 738.003,437.436 749.612,443.886 z" id="boundary" inkscape:connector-curvature="0" />
	<path style="fill:none;stroke:red;stroke-width:1px;stroke-linecap:butt;stroke-linejoin:miter;stroke-opacity:1" d="M 749.612,443.886 762.512,449.046 z" id="boundary" inkscape:connector-curvature="0" />
	<path style="fill:none;stroke:red;stroke-width:1px;stroke-linecap:butt;stroke-linejoin:miter;stroke-opacity:1" d="M 762.512,449.046 774.122,455.495 z" id="boundary" inkscape:connector-curvature="0" />
	<path style="fill:none;stroke:red;stroke-width:1px;stroke-linecap:butt;stroke-linejoin:miter;stroke-opacity:1" d="M 774.122,455.495 787.022,455.495 z" id="boundary" inkscape:connector-curvature="0" />
	<path style="fill:none;stroke:red;stroke-width:1px;stroke-linecap:butt;stroke-linejoin:miter;stroke-opacity:1" d="M 787.022,455.495 798.632,461.945 z" id="boundary" inkscape:connector-curvature="0" />
	<path style="fill:none;stroke:red;stroke-width:1px;stroke-linecap:butt;stroke-linejoin:miter;stroke-opacity:1" d="M 798.632,461.945 810.242,468.395 z" id="boundary" inkscape:connector-curvature="0" />
	<path style="fill:none;stroke:red;stroke-width:1px;stroke-linecap:butt;stroke-linejoin:miter;stroke-opacity:1" d="M 810.242,468.395 823.142,470.975 z" id="boundary" inkscape:connector-curvature="0" />
	<path style="fill:none;stroke:red;stroke-width:1px;stroke-linecap:butt;stroke-linejoin:miter;stroke-opacity:1" d="M 823.142,470.975 830.882,481.295 z" id="boundary" inkscape:connector-curvature="0" />
	<path style="fill:none;stroke:red;stroke-width:1px;stroke-linecap:butt;stroke-linejoin:miter;stroke-opacity:1" d="M 830.882,481.295 843.782,485.165 z" id="boundary" inkscape:connector-curvature="0" />
	<path style="fill:none;stroke:red;stroke-width:1px;stroke-linecap:butt;stroke-linejoin:miter;stroke-opacity:1" d="M 843.782,485.165 855.391,491.615 z" id="boundary" inkscape:connector-curvature="0" />
	<path style="fill:none;stroke:red;stroke-width:1px;stroke-linecap:butt;stroke-linejoin:miter;stroke-opacity:1" d="M 855.391,491.615 868.291,496.775 z" id="boundary" inkscape:connector-curvature="0" />
	<path style="fill:none;stroke:red;stroke-width:1px;stroke-linecap:butt;stroke-linejoin:miter;stroke-opacity:1" d="M 868.291,496.775 879.901,503.225 z" id="boundary" inkscape:connector-curvature="0" />
	<path style="fill:none;stroke:red;stroke-width:1px;stroke-linecap:butt;stroke-linejoin:miter;stroke-opacity:1" d="M 879.901,503.225 892.801,507.095 z" id="boundary" inkscape:connector-curvature="0" />
	<path style="fill:none;stroke:red;stroke-width:1px;stroke-linecap:butt;stroke-linejoin:miter;stroke-opacity:1" d="M 892.801,507.095 901.831,517.415 z" id="boundary" inkscape:connector-curvature="0" />
	<path style="fill:none;stroke:red;stroke-width:1px;stroke-linecap:butt;stroke-linejoin:miter;stroke-opacity:1" d="M 901.831,517.415 913.441,523.865 z" id="boundary" inkscape:connector-curvature="0" />
	<path style="fill:none;stroke:red;stroke-width:1px;stroke-linecap:butt;stroke-linejoin:miter;stroke-opacity:1" d="M 913.441,523.865 926.341,529.025 z" id="boundary" inkscape:connector-curvature="0" />
	<path style="fill:none;stroke:red;stroke-width:1px;stroke-linecap:butt;stroke-linejoin:miter;stroke-opacity:1" d="M 926.341,529.025 937.951,535.475 z" id="boundary" inkscape:connector-curvature="0" />
	<path style="fill:none;stroke:red;stroke-width:1px;stroke-linecap:butt;stroke-linejoin:miter;stroke-opacity:1" d="M 937.951,535.475 946.98,545.795 z" id="boundary" inkscape:connector-curvature="0" />
	<path style="fill:none;stroke:red;stroke-width:1px;stroke-linecap:butt;stroke-linejoin:miter;stroke-opacity:1" d="M 946.98,545.795 959.88,549.664 z" id="boundary" inkscape:connector-curvature="0" />
	<path style="fill:none;stroke:red;stroke-width:1px;stroke-linecap:butt;stroke-linejoin:miter;stroke-opacity:1" d="M 959.88,549.664 971.49,556.114 z" id="boundary" inkscape:connector-curvature="0" />
	<path style="fill:none;stroke:red;stroke-width:1px;stroke-linecap:butt;stroke-linejoin:miter;stroke-opacity:1" d="M 971.49,556.114 984.39,561.274 z" id="boundary" inkscape:connector-curvature="0" />
	<path style="fill:none;stroke:red;stroke-width:1px;stroke-linecap:butt;stroke-linejoin:miter;stroke-opacity:1" d="M 984.39,561.274 996,567.724 z" id="boundary" inkscape:connector-curvature="0" />
	<path style="fill:none;stroke:red;stroke-width:1px;stroke-linecap:butt;stroke-linejoin:miter;stroke-opacity:1" d="M 996,567.724 986.97,585.784 z" id="boundary" inkscape:connector-curvature="0" />
	<path style="fill:none;stroke:red;stroke-width:1px;stroke-linecap:butt;stroke-linejoin:miter;stroke-opacity:1" d="M 986.97,585.784 974.07,583.204 z" id="boundary" inkscape:connector-curvature="0" />
	<path style="fill:none;stroke:red;stroke-width:1px;stroke-linecap:butt;stroke-linejoin:miter;stroke-opacity:1" d="M 974.07,583.204 961.17,579.334 z" id="boundary" inkscape:connector-curvature="0" />
	<path style="fill:none;stroke:red;stroke-width:1px;stroke-linecap:butt;stroke-linejoin:miter;stroke-opacity:1" d="M 961.17,579.334 949.56,572.884 z" id="boundary" inkscape:connector-curvature="0" />
	<path style="fill:none;stroke:red;stroke-width:1px;stroke-linecap:butt;stroke-linejoin:miter;stroke-opacity:1" d="M 949.56,572.884 936.661,571.594 z" id="boundary" inkscape:connector-curvature="0" />
	<path style="fill:none;stroke:red;stroke-width:1px;stroke-linecap:butt;stroke-linejoin:miter;stroke-opacity:1" d="M 936.661,571.594 923.761,566.434 z" id="boundary" inkscape:connector-curvature="0" />
	<path style="fill:none;stroke:red;stroke-width:1px;stroke-linecap:butt;stroke-linejoin:miter;stroke-opacity:1" d="M 923.761,566.434 912.151,559.984 z" id="boundary" inkscape:connector-curvature="0" />
	<path style="fill:none;stroke:red;stroke-width:1px;stroke-linecap:butt;stroke-linejoin:miter;stroke-opacity:1" d="M 912.151,559.984 900.541,553.534 z" id="boundary" inkscape:connector-curvature="0" />
	<path style="fill:none;stroke:red;stroke-width:1px;stroke-linecap:butt;stroke-linejoin:miter;stroke-opacity:1" d="M 900.541,553.534 888.931,547.085 z" id="boundary" inkscape:connector-curvature="0" />
	<path style="fill:none;stroke:red;stroke-width:1px;stroke-linecap:butt;stroke-linejoin:miter;stroke-opacity:1" d="M 888.931,547.085 876.031,543.215 z" id="boundary" inkscape:connector-curvature="0" />
	<path style="fill:none;stroke:red;stroke-width:1px;stroke-linecap:butt;stroke-linejoin:miter;stroke-opacity:1" d="M 876.031,543.215 863.131,538.055 z" id="boundary" inkscape:connector-curvature="0" />
	<path style="fill:none;stroke:red;stroke-width:1px;stroke-linecap:butt;stroke-linejoin:miter;stroke-opacity:1" d="M 863.131,538.055 854.101,527.735 z" id="boundary" inkscape:connector-curvature="0" />
	<path style="fill:none;stroke:red;stroke-width:1px;stroke-linecap:butt;stroke-linejoin:miter;stroke-opacity:1" d="M 854.101,527.735 841.202,527.735 z" id="boundary" inkscape:connector-curvature="0" />
	<path style="fill:none;stroke:red;stroke-width:1px;stroke-linecap:butt;stroke-linejoin:miter;stroke-opacity:1" d="M 841.202,527.735 830.882,518.705 z" id="boundary" inkscape:connector-curvature="0" />
	<path style="fill:none;stroke:red;stroke-width:1px;stroke-linecap:butt;stroke-linejoin:miter;stroke-opacity:1" d="M 830.882,518.705 819.272,512.255 z" id="boundary" inkscape:connector-curvature="0" />
	<path style="fill:none;stroke:red;stroke-width:1px;stroke-linecap:butt;stroke-linejoin:miter;stroke-opacity:1" d="M 819.272,512.255 806.372,508.385 z" id="boundary" inkscape:connector-curvature="0" />
	<path style="fill:none;stroke:red;stroke-width:1px;stroke-linecap:butt;stroke-linejoin:miter;stroke-opacity:1" d="M 806.372,508.385 794.762,501.935 z" id="boundary" inkscape:connector-curvature="0" />
	<path style="fill:none;stroke:red;stroke-width:1px;stroke-linecap:butt;stroke-linejoin:miter;stroke-opacity:1" d="M 794.762,501.935 783.152,495.485 z" id="boundary" inkscape:connector-curvature="0" />
	<path style="fill:none;stroke:red;stroke-width:1px;stroke-linecap:butt;stroke-linejoin:miter;stroke-opacity:1" d="M 783.152,495.485 770.252,495.485 z" id="boundary" inkscape:connector-curvature="0" />
	<path style="fill:none;stroke:red;stroke-width:1px;stroke-linecap:butt;stroke-linejoin:miter;stroke-opacity:1" d="M 770.252,495.485 759.932,486.455 z" id="boundary" inkscape:connector-curvature="0" />
	<path style="fill:none;stroke:red;stroke-width:1px;stroke-linecap:butt;stroke-linejoin:miter;stroke-opacity:1" d="M 759.932,486.455 748.322,480.005 z" id="boundary" inkscape:connector-curvature="0" />
	<path style="fill:none;stroke:red;stroke-width:1px;stroke-linecap:butt;stroke-linejoin:miter;stroke-opacity:1" d="M 748.322,480.005 735.423,476.135 z" id="boundary" inkscape:connector-curvature="0" />
	<path style="fill:none;stroke:red;stroke-width:1px;stroke-linecap:butt;stroke-linejoin:miter;stroke-opacity:1" d="M 735.423,476.135 723.813,469.685 z" id="boundary" inkscape:connector-curvature="0" />
	<path style="fill:none;stroke:red;stroke-width:1px;stroke-linecap:butt;stroke-linejoin:miter;stroke-opacity:1" d="M 723.813,469.685 710.913,469.685 z" id="boundary" inkscape:connector-curvature="0" />
	<path style="fill:none;stroke:red;stroke-width:1px;stroke-linecap:butt;stroke-linejoin:miter;stroke-opacity:1" d="M 710.913,469.685 699.303,463.235 z" id="boundary" inkscape:connector-curvature="0" />
	<path style="fill:none;stroke:red;stroke-width:1px;stroke-linecap:butt;stroke-linejoin:miter;stroke-opacity:1" d="M 699.303,463.235 687.693,456.785 z" id="boundary" inkscape:connector-curvature="0" />
	<path style="fill:none;stroke:red;stroke-width:1px;stroke-linecap:butt;stroke-linejoin:miter;stroke-opacity:1" d="M 687.693,456.785 674.793,456.785 z" id="boundary" inkscape:connector-curvature="0" />
	<path style="fill:none;stroke:red;stroke-width:1px;stroke-linecap:butt;stroke-linejoin:miter;stroke-opacity:1" d="M 674.793,456.785 663.183,450.336 z" id="boundary" inkscape:connector-curvature="0" />
	<path style="fill:none;stroke:red;stroke-width:1px;stroke-linecap:butt;stroke-linejoin:miter;stroke-opacity:1" d="M 663.183,450.336 650.283,450.336 z" id="boundary" inkscape:connector-curvature="0" />
	<path style="fill:none;stroke:red;stroke-width:1px;stroke-linecap:butt;stroke-linejoin:miter;stroke-opacity:1" d="M 650.283,450.336 637.384,450.336 z" id="boundary" inkscape:connector-curvature="0" />
	<path style="fill:none;stroke:red;stroke-width:1px;stroke-linecap:butt;stroke-linejoin:miter;stroke-opacity:1" d="M 637.384,450.336 624.484,446.466 z" id="boundary" inkscape:connector-curvature="0" />
	<path style="fill:none;stroke:red;stroke-width:1px;stroke-linecap:butt;stroke-linejoin:miter;stroke-opacity:1" d="M 624.484,446.466 611.584,443.886 z" id="boundary" inkscape:connector-curvature="0" />
	<path style="fill:none;stroke:red;stroke-width:1px;stroke-linecap:butt;stroke-linejoin:miter;stroke-opacity:1" d="M 611.584,443.886 598.684,443.886 z" id="boundary" inkscape:connector-curvature="0" />
	<path style="fill:none;stroke:red;stroke-width:1px;stroke-linecap:butt;stroke-linejoin:miter;stroke-opacity:1" d="M 598.684,443.886 585.784,443.886 z" id="boundary" inkscape:connector-curvature="0" />
	<path style="fill:none;stroke:red;stroke-width:1px;stroke-linecap:butt;stroke-linejoin:miter;stroke-opacity:1" d="M 585.784,443.886 574.174,437.436 z" id="boundary" inkscape:connector-curvature="0" />
	<path style="fill:none;stroke:red;stroke-width:1px;stroke-linecap:butt;stroke-linejoin:miter;stroke-opacity:1" d="M 574.174,437.436 561.274,437.436 z" id="boundary" inkscape:connector-curvature="0" />
	<path style="fill:none;stroke:red;stroke-width:1px;stroke-linecap:butt;stroke-linejoin:miter;stroke-opacity:1" d="M 561.274,437.436 549.664,430.986 z" id="boundary" inkscape:connector-curvature="0" />
	<path style="fill:none;stroke:red;stroke-width:1px;stroke-linecap:butt;stroke-linejoin:miter;stroke-opacity:1" d="M 549.664,430.986 536.765,430.986 z" id="boundary" inkscape:connector-curvature="0" />
	<path style="fill:none;stroke:red;stroke-width:1px;stroke-linecap:butt;stroke-linejoin:miter;stroke-opacity:1" d="M 536.765,430.986 523.865,430.986 z" id="boundary" inkscape:connector-curvature="0" />
	<path style="fill:none;stroke:red;stroke-width:1px;stroke-linecap:butt;stroke-linejoin:miter;stroke-opacity:1" d="M 523.865,430.986 510.965,430.986 z" id="boundary" inkscape:connector-curvature="0" />
	<path style="fill:none;stroke:red;stroke-width:1px;stroke-linecap:butt;stroke-linejoin:miter;stroke-opacity:1" d="M 510.965,430.986 499.355,437.436 z" id="boundary" inkscape:connector-curvature="0" />
	<path style="fill:none;stroke:red;stroke-width:1px;stroke-linecap:butt;stroke-linejoin:miter;stroke-opacity:1" d="M 499.355,437.436 486.455,441.306 z" id="boundary" inkscape:connector-curvature="0" />
	<path style="fill:none;stroke:red;stroke-width:1px;stroke-linecap:butt;stroke-linejoin:miter;stroke-opacity:1" d="M 486.455,441.306 473.555,443.886 z" id="boundary" inkscape:connector-curvature="0" />
	<path style="fill:none;stroke:red;stroke-width:1px;stroke-linecap:butt;stroke-linejoin:miter;stroke-opacity:1" d="M 473.555,443.886 461.945,450.336 z" id="boundary" inkscape:connector-curvature="0" />
	<path style="fill:none;stroke:red;stroke-width:1px;stroke-linecap:butt;stroke-linejoin:miter;stroke-opacity:1" d="M 461.945,450.336 449.046,452.915 z" id="boundary" inkscape:connector-curvature="0" />
	<path style="fill:none;stroke:red;stroke-width:1px;stroke-linecap:butt;stroke-linejoin:miter;stroke-opacity:1" d="M 449.046,452.915 436.146,456.785 z" id="boundary" inkscape:connector-curvature="0" />
	<path style="fill:none;stroke:red;stroke-width:1px;stroke-linecap:butt;stroke-linejoin:miter;stroke-opacity:1" d="M 436.146,456.785 423.246,459.365 z" id="boundary" inkscape:connector-curvature="0" />
	<path style="fill:none;stroke:red;stroke-width:1px;stroke-linecap:butt;stroke-linejoin:miter;stroke-opacity:1" d="M 423.246,459.365 410.346,465.815 z" id="boundary" inkscape:connector-curvature="0" />
	<path style="fill:none;stroke:red;stroke-width:1px;stroke-linecap:butt;stroke-linejoin:miter;stroke-opacity:1" d="M 410.346,465.815 397.446,469.685 z" id="boundary" inkscape:connector-curvature="0" />
	<path style="fill:none;stroke:red;stroke-width:1px;stroke-linecap:butt;stroke-linejoin:miter;stroke-opacity:1" d="M 397.446,469.685 384.546,472.265 z" id="boundary" inkscape:connector-curvature="0" />
	<path style="fill:none;stroke:red;stroke-width:1px;stroke-linecap:butt;stroke-linejoin:miter;stroke-opacity:1" d="M 384.546,472.265 371.646,476.135 z" id="boundary" inkscape:connector-curvature="0" />
	<path style="fill:none;stroke:red;stroke-width:1px;stroke-linecap:butt;stroke-linejoin:miter;stroke-opacity:1" d="M 371.646,476.135 360.036,482.585 z" id="boundary" inkscape:connector-curvature="0" />
	<path style="fill:none;stroke:red;stroke-width:1px;stroke-linecap:butt;stroke-linejoin:miter;stroke-opacity:1" d="M 360.036,482.585 353.586,495.485 z" id="boundary" inkscape:connector-curvature="0" />
	<path style="fill:none;stroke:red;stroke-width:1px;stroke-linecap:butt;stroke-linejoin:miter;stroke-opacity:1" d="M 353.586,495.485 347.137,508.385 z" id="boundary" inkscape:connector-curvature="0" />
	<path style="fill:none;stroke:red;stroke-width:1px;stroke-linecap:butt;stroke-linejoin:miter;stroke-opacity:1" d="M 347.137,508.385 334.237,521.285 z" id="boundary" inkscape:connector-curvature="0" />
	<path style="fill:none;stroke:red;stroke-width:1px;stroke-linecap:butt;stroke-linejoin:miter;stroke-opacity:1" d="M 334.237,521.285 321.337,521.285 z" id="boundary" inkscape:connector-curvature="0" />
	<path style="fill:none;stroke:red;stroke-width:1px;stroke-linecap:butt;stroke-linejoin:miter;stroke-opacity:1" d="M 321.337,521.285 308.437,521.285 z" id="boundary" inkscape:connector-curvature="0" />
	<path style="fill:none;stroke:red;stroke-width:1px;stroke-linecap:butt;stroke-linejoin:miter;stroke-opacity:1" d="M 308.437,521.285 300.697,510.965 z" id="boundary" inkscape:connector-curvature="0" />
	<path style="fill:none;stroke:red;stroke-width:1px;stroke-linecap:butt;stroke-linejoin:miter;stroke-opacity:1" d="M 300.697,510.965 313.597,504.515 z" id="boundary" inkscape:connector-curvature="0" />
	<path style="fill:none;stroke:red;stroke-width:1px;stroke-linecap:butt;stroke-linejoin:miter;stroke-opacity:1" d="M 313.597,504.515 326.497,498.065 z" id="boundary" inkscape:connector-curvature="0" />
	<path style="fill:none;stroke:red;stroke-width:1px;stroke-linecap:butt;stroke-linejoin:miter;stroke-opacity:1" d="M 326.497,498.065 332.947,478.715 z" id="boundary" inkscape:connector-curvature="0" />
	<path style="fill:none;stroke:red;stroke-width:1px;stroke-linecap:butt;stroke-linejoin:miter;stroke-opacity:1" d="M 332.947,478.715 345.847,469.685 z" id="boundary" inkscape:connector-curvature="0" />
	<path style="fill:none;stroke:red;stroke-width:1px;stroke-linecap:butt;stroke-linejoin:miter;stroke-opacity:1" d="M 345.847,469.685 343.267,456.785 z" id="boundary" inkscape:connector-curvature="0" />
	<path style="fill:none;stroke:red;stroke-width:1px;stroke-linecap:butt;stroke-linejoin:miter;stroke-opacity:1" d="M 343.267,456.785 330.367,456.785 z" id="boundary" inkscape:connector-curvature="0" />
	<path style="fill:none;stroke:red;stroke-width:1px;stroke-linecap:butt;stroke-linejoin:miter;stroke-opacity:1" d="M 330.367,456.785 320.047,465.815 z" id="boundary" inkscape:connector-curvature="0" />
	<path style="fill:none;stroke:red;stroke-width:1px;stroke-linecap:butt;stroke-linejoin:miter;stroke-opacity:1" d="M 320.047,465.815 307.147,469.685 z" id="boundary" inkscape:connector-curvature="0" />
	<path style="fill:none;stroke:red;stroke-width:1px;stroke-linecap:butt;stroke-linejoin:miter;stroke-opacity:1" d="M 307.147,469.685 295.537,476.135 z" id="boundary" inkscape:connector-curvature="0" />
	<path style="fill:none;stroke:red;stroke-width:1px;stroke-linecap:butt;stroke-linejoin:miter;stroke-opacity:1" d="M 295.537,476.135 285.217,487.745 z" id="boundary" inkscape:connector-curvature="0" />
	<path style="fill:none;stroke:red;stroke-width:1px;stroke-linecap:butt;stroke-linejoin:miter;stroke-opacity:1" d="M 285.217,487.745 278.767,500.645 z" id="boundary" inkscape:connector-curvature="0" />
	<path style="fill:none;stroke:red;stroke-width:1px;stroke-linecap:butt;stroke-linejoin:miter;stroke-opacity:1" d="M 278.767,500.645 265.867,507.095 z" id="boundary" inkscape:connector-curvature="0" />
	<path style="fill:none;stroke:red;stroke-width:1px;stroke-linecap:butt;stroke-linejoin:miter;stroke-opacity:1" d="M 265.867,507.095 252.967,507.095 z" id="boundary" inkscape:connector-curvature="0" />
	<path style="fill:none;stroke:red;stroke-width:1px;stroke-linecap:butt;stroke-linejoin:miter;stroke-opacity:1" d="M 252.967,507.095 242.648,498.065 z" id="boundary" inkscape:connector-curvature="0" />
	<path style="fill:none;stroke:red;stroke-width:1px;stroke-linecap:butt;stroke-linejoin:miter;stroke-opacity:1" d="M 242.648,498.065 255.547,491.615 z" id="boundary" inkscape:connector-curvature="0" />
	<path style="fill:none;stroke:red;stroke-width:1px;stroke-linecap:butt;stroke-linejoin:miter;stroke-opacity:1" d="M 255.547,491.615 261.997,472.265 z" id="boundary" inkscape:connector-curvature="0" />
	<path style="fill:none;stroke:red;stroke-width:1px;stroke-linecap:butt;stroke-linejoin:miter;stroke-opacity:1" d="M 261.997,472.265 272.317,461.945 z" id="boundary" inkscape:connector-curvature="0" />
	<path style="fill:none;stroke:red;stroke-width:1px;stroke-linecap:butt;stroke-linejoin:miter;stroke-opacity:1" d="M 272.317,461.945 281.347,449.046 z" id="boundary" inkscape:connector-curvature="0" />
	<path style="fill:none;stroke:red;stroke-width:1px;stroke-linecap:butt;stroke-linejoin:miter;stroke-opacity:1" d="M 281.347,449.046 278.767,436.146 z" id="boundary" inkscape:connector-curvature="0" />
	<path style="fill:none;stroke:red;stroke-width:1px;stroke-linecap:butt;stroke-linejoin:miter;stroke-opacity:1" d="M 278.767,436.146 265.867,430.986 z" id="boundary" inkscape:connector-curvature="0" />
	<path style="fill:none;stroke:red;stroke-width:1px;stroke-linecap:butt;stroke-linejoin:miter;stroke-opacity:1" d="M 265.867,430.986 254.257,424.536 z" id="boundary" inkscape:connector-curvature="0" />
	<path style="fill:none;stroke:red;stroke-width:1px;stroke-linecap:butt;stroke-linejoin:miter;stroke-opacity:1" d="M 254.257,424.536 242.648,418.086 z" id="boundary" inkscape:connector-curvature="0" />
	<path style="fill:none;stroke:red;stroke-width:1px;stroke-linecap:butt;stroke-linejoin:miter;stroke-opacity:1" d="M 242.648,418.086 232.328,410.346 z" id="boundary" inkscape:connector-curvature="0" />
	<path style="fill:none;stroke:red;stroke-width:1px;stroke-linecap:butt;stroke-linejoin:miter;stroke-opacity:1" d="M 232.328,410.346 220.718,403.896 z" id="boundary" inkscape:connector-curvature="0" />
	<path style="fill:none;stroke:red;stroke-width:1px;stroke-linecap:butt;stroke-linejoin:miter;stroke-opacity:1" d="M 220.718,403.896 210.398,394.866 z" id="boundary" inkscape:connector-curvature="0" />
	<path style="fill:none;stroke:red;stroke-width:1px;stroke-linecap:butt;stroke-linejoin:miter;stroke-opacity:1" d="M 210.398,394.866 198.788,388.416 z" id="boundary" inkscape:connector-curvature="0" />
	<path style="fill:none;stroke:red;stroke-width:1px;stroke-linecap:butt;stroke-linejoin:miter;stroke-opacity:1" d="M 198.788,388.416 192.338,376.806 z" id="boundary" inkscape:connector-curvature="0" />
	<path style="fill:none;stroke:red;stroke-width:1px;stroke-linecap:butt;stroke-linejoin:miter;stroke-opacity:1" d="M 192.338,376.806 184.598,366.486 z" id="boundary" inkscape:connector-curvature="0" />
	<path style="fill:none;stroke:red;stroke-width:1px;stroke-linecap:butt;stroke-linejoin:miter;stroke-opacity:1" d="M 184.598,366.486 174.278,357.456 z" id="boundary" inkscape:connector-curvature="0" />
	<path style="fill:none;stroke:red;stroke-width:1px;stroke-linecap:butt;stroke-linejoin:miter;stroke-opacity:1" d="M 174.278,357.456 167.828,345.847 z" id="boundary" inkscape:connector-curvature="0" />
	<path style="fill:none;stroke:red;stroke-width:1px;stroke-linecap:butt;stroke-linejoin:miter;stroke-opacity:1" d="M 167.828,345.847 158.798,335.527 z" id="boundary" inkscape:connector-curvature="0" />
	<path style="fill:none;stroke:red;stroke-width:1px;stroke-linecap:butt;stroke-linejoin:miter;stroke-opacity:1" d="M 158.798,335.527 152.349,323.917 z" id="boundary" inkscape:connector-curvature="0" />
	<path style="fill:none;stroke:red;stroke-width:1px;stroke-linecap:butt;stroke-linejoin:miter;stroke-opacity:1" d="M 152.349,323.917 145.899,312.307 z" id="boundary" inkscape:connector-curvature="0" />
	<path style="fill:none;stroke:red;stroke-width:1px;stroke-linecap:butt;stroke-linejoin:miter;stroke-opacity:1" d="M 145.899,312.307 139.449,300.697 z" id="boundary" inkscape:connector-curvature="0" />
	<path style="fill:none;stroke:red;stroke-width:1px;stroke-linecap:butt;stroke-linejoin:miter;stroke-opacity:1" d="M 139.449,300.697 135.579,287.797 z" id="boundary" inkscape:connector-curvature="0" />
	<path style="fill:none;stroke:red;stroke-width:1px;stroke-linecap:butt;stroke-linejoin:miter;stroke-opacity:1" d="M 135.579,287.797 132.999,274.897 z" id="boundary" inkscape:connector-curvature="0" />
	<path style="fill:none;stroke:red;stroke-width:1px;stroke-linecap:butt;stroke-linejoin:miter;stroke-opacity:1" d="M 132.999,274.897 126.549,263.287 z" id="boundary" inkscape:connector-curvature="0" />
	<path style="fill:none;stroke:red;stroke-width:1px;stroke-linecap:butt;stroke-linejoin:miter;stroke-opacity:1" d="M 126.549,263.287 123.969,250.388 z" id="boundary" inkscape:connector-curvature="0" />
	<path style="fill:none;stroke:red;stroke-width:1px;stroke-linecap:butt;stroke-linejoin:miter;stroke-opacity:1" d="M 123.969,250.388 120.099,237.488 z" id="boundary" inkscape:connector-curvature="0" />
	<path style="fill:none;stroke:red;stroke-width:1px;stroke-linecap:butt;stroke-linejoin:miter;stroke-opacity:1" d="M 120.099,237.488 120.099,224.588 z" id="boundary" inkscape:connector-curvature="0" />
	<path style="fill:none;stroke:red;stroke-width:1px;stroke-linecap:butt;stroke-linejoin:miter;stroke-opacity:1" d="M 120.099,224.588 120.099,211.688 z" id="boundary" inkscape:connector-curvature="0" />
	<path style="fill:none;stroke:red;stroke-width:1px;stroke-linecap:butt;stroke-linejoin:miter;stroke-opacity:1" d="M 120.099,211.688 120.099,198.788 z" id="boundary" inkscape:connector-curvature="0" />
	<path style="fill:none;stroke:red;stroke-width:1px;stroke-linecap:butt;stroke-linejoin:miter;stroke-opacity:1" d="M 120.099,198.788 120.099,185.888 z" id="boundary" inkscape:connector-curvature="0" />
	<path style="fill:none;stroke:red;stroke-width:1px;stroke-linecap:butt;stroke-linejoin:miter;stroke-opacity:1" d="M 120.099,185.888 113.649,174.278 z" id="boundary" inkscape:connector-curvature="0" />
	<path style="fill:none;stroke:red;stroke-width:1px;stroke-linecap:butt;stroke-linejoin:miter;stroke-opacity:1" d="M 113.649,174.278 107.199,162.668 z" id="boundary" inkscape:connector-curvature="0" />
	<path style="fill:none;stroke:red;stroke-width:1px;stroke-linecap:butt;stroke-linejoin:miter;stroke-opacity:1" d="M 107.199,162.668 98.1691,152.349 z" id="boundary" inkscape:connector-curvature="0" />
	<path style="fill:none;stroke:red;stroke-width:1px;stroke-linecap:butt;stroke-linejoin:miter;stroke-opacity:1" d="M 98.1691,152.349 91.7191,140.739 z" id="boundary" inkscape:connector-curvature="0" />
	<path style="fill:none;stroke:red;stroke-width:1px;stroke-linecap:butt;stroke-linejoin:miter;stroke-opacity:1" d="M 91.7191,140.739 87.8492,127.839 z" id="boundary" inkscape:connector-curvature="0" />
	<path style="fill:none;stroke:red;stroke-width:1px;stroke-linecap:butt;stroke-linejoin:miter;stroke-opacity:1" d="M 87.8492,127.839 81.3992,116.229 z" id="boundary" inkscape:connector-curvature="0" />
	<path style="fill:none;stroke:red;stroke-width:1px;stroke-linecap:butt;stroke-linejoin:miter;stroke-opacity:1" d="M 81.3992,116.229 74.9493,104.619 z" id="boundary" inkscape:connector-curvature="0" />
	<path style="fill:none;stroke:red;stroke-width:1px;stroke-linecap:butt;stroke-linejoin:miter;stroke-opacity:1" d="M 74.9493,104.619 69.7893,91.7191 z" id="boundary" inkscape:connector-curvature="0" />
	<path style="fill:none;stroke:red;stroke-width:1px;stroke-linecap:butt;stroke-linejoin:miter;stroke-opacity:1" d="M 69.7893,91.7191 59.4694,82.6892 z" id="boundary" inkscape:connector-curvature="0" />
	<path style="fill:none;stroke:red;stroke-width:1px;stroke-linecap:butt;stroke-linejoin:miter;stroke-opacity:1" d="M 59.4694,82.6892 46.5696,82.6892 z" id="boundary" inkscape:connector-curvature="0" />
	<path style="fill:none;stroke:red;stroke-width:1px;stroke-linecap:butt;stroke-linejoin:miter;stroke-opacity:1" d="M 46.5696,82.6892 34.9597,76.2393 z" id="boundary" inkscape:connector-curvature="0" />
	<path style="fill:none;stroke:red;stroke-width:1px;stroke-linecap:butt;stroke-linejoin:miter;stroke-opacity:1" d="M 34.9597,76.2393 23.3498,69.7893 z" id="boundary" inkscape:connector-curvature="0" />
	<path style="fill:none;stroke:red;stroke-width:1px;stroke-linecap:butt;stroke-linejoin:miter;stroke-opacity:1" d="M 23.3498,69.7893 10.4499,64.6294 z" id="boundary" inkscape:connector-curvature="0" />
	<path style="fill:none;stroke:red;stroke-width:1px;stroke-linecap:butt;stroke-linejoin:miter;stroke-opacity:1" d="M 10.4499,64.6294 4,53.0195 z" id="boundary" inkscape:connector-curvature="0" />
	<path style="fill:none;stroke:red;stroke-width:1px;stroke-linecap:butt;stroke-linejoin:miter;stroke-opacity:1" d="M 4,53.0195 14.3199,42.6996 z" id="boundary" inkscape:connector-curvature="0" />
	<path style="fill:none;stroke:red;stroke-width:1px;stroke-linecap:butt;stroke-linejoin:miter;stroke-opacity:1" d="M 14.3199,42.6996 27.2198,42.6996 z" id="boundary" inkscape:connector-curvature="0" />
	<path style="fill:none;stroke:red;stroke-width:1px;stroke-linecap:butt;stroke-linejoin:miter;stroke-opacity:1" d="M 27.2198,42.6996 40.1196,36.2497 z" id="boundary" inkscape:connector-curvature="0" />
	<path style="fill:none;stroke:red;stroke-width:1px;stroke-linecap:butt;stroke-linejoin:miter;stroke-opacity:1" d="M 40.1196,36.2497 53.0195,36.2497 z" id="boundary" inkscape:connector-curvature="0" />
	<path style="fill:none;stroke:red;stroke-width:1px;stroke-linecap:butt;stroke-linejoin:miter;stroke-opacity:1" d="M 53.0195,36.2497 64.6294,29.7997 z" id="boundary" inkscape:connector-curvature="0" />
	<path style="fill:none;stroke:red;stroke-width:1px;stroke-linecap:butt;stroke-linejoin:miter;stroke-opacity:1" d="M 64.6294,29.7997 77.5293,24.6398 z" id="boundary" inkscape:connector-curvature="0" />
	<path style="fill:none;stroke:red;stroke-width:1px;stroke-linecap:butt;stroke-linejoin:miter;stroke-opacity:1" d="M 77.5293,24.6398 87.8492,16.8999 z" id="boundary" inkscape:connector-curvature="0" />
	<path style="fill:none;stroke:red;stroke-width:1px;stroke-linecap:butt;stroke-linejoin:miter;stroke-opacity:1" d="M 87.8492,16.8999 99.459,10.4499 z" id="boundary" inkscape:connector-curvature="0" />
	<path style="fill:none;stroke:red;stroke-width:1px;stroke-linecap:butt;stroke-linejoin:miter;stroke-opacity:1" d="M 99.459,10.4499 112.359,10.4499 z" id="boundary" inkscape:connector-curvature="0" />
	<path style="fill:none;stroke:red;stroke-width:1px;stroke-linecap:butt;stroke-linejoin:miter;stroke-opacity:1" d="M 112.359,10.4499 123.969,4 z" id="boundary" inkscape:connector-curvature="0" />
	<path style="fill:none;stroke:red;stroke-width:1px;stroke-linecap:butt;stroke-linejoin:miter;stroke-opacity:1" d="M 123.969,4 136.869,4 z" id="boundary" inkscape:connector-curvature="0" />
	<path style="fill:none;stroke:red;stroke-width:1px;stroke-linecap:butt;stroke-linejoin:miter;stroke-opacity:1" d="M 136.869,4 149.769,4 z" id="boundary" inkscape:connector-curvature="0" />
	<path style="fill:none;stroke:red;stroke-width:1px;stroke-linecap:butt;stroke-linejoin:miter;stroke-opacity:1" d="M 149.769,4 162.668,4 z" id="boundary" inkscape:connector-curvature="0" />
	<path style="fill:none;stroke:red;stroke-width:1px;stroke-linecap:butt;stroke-linejoin:miter;stroke-opacity:1" d="M 162.668,4 175.568,4 z" id="boundary" inkscape:connector-curvature="0" />
	<path style="fill:none;stroke:red;stroke-width:1px;stroke-linecap:butt;stroke-linejoin:miter;stroke-opacity:1" d="M 175.568,4 188.468,4 z" id="boundary" inkscape:connector-curvature="0" />
	<path style="fill:none;stroke:red;stroke-width:1px;stroke-linecap:butt;stroke-linejoin:miter;stroke-opacity:1" d="M 188.468,4 200.078,10.4499 z" id="boundary" inkscape:connector-curvature="0" />
	<path style="fill:none;stroke:red;stroke-width:1px;stroke-linecap:butt;stroke-linejoin:miter;stroke-opacity:1" d="M 200.078,10.4499 212.978,10.4499 z" id="boundary" inkscape:connector-curvature="0" />
	<path style="fill:none;stroke:red;stroke-width:1px;stroke-linecap:butt;stroke-linejoin:miter;stroke-opacity:1" d="M 212.978,10.4499 225.878,10.4499 z" id="boundary" inkscape:connector-curvature="0" />
	<path style="fill:none;stroke:red;stroke-width:1px;stroke-linecap:butt;stroke-linejoin:miter;stroke-opacity:1" d="M 225.878,10.4499 237.488,16.8999 z" id="boundary" inkscape:connector-curvature="0" />
	<path style="fill:none;stroke:red;stroke-width:1px;stroke-linecap:butt;stroke-linejoin:miter;stroke-opacity:1" d="M 237.488,16.8999 250.388,20.7698 z" id="boundary" inkscape:connector-curvature="0" />
	<path style="fill:none;stroke:red;stroke-width:1px;stroke-linecap:butt;stroke-linejoin:miter;stroke-opacity:1" d="M 250.388,20.7698 261.997,27.2198 z" id="boundary" inkscape:connector-curvature="0" />
	<circle cx="4" cy="53.0195" r="4" fill="#0" id="circle0"/>
	<circle cx="10.4499" cy="64.6294" r="4" fill="#0" id="circle1"/>
	<circle cx="14.3199" cy="42.6996" r="4" fill="#0" id="circle2"/>
	<circle cx="23.3498" cy="69.7893" r="4" fill="#0" id="circle3"/>
	<circle cx="27.2198" cy="42.6996" r="4" fill="#0" id="circle4"/>
	<circle cx="34.9597" cy="76.2393" r="4" fill="#0" id="circle5"/>
	<circle cx="40.1196" cy="36.2497" r="4" fill="#0" id="circle6"/>
	<circle cx="46.5696" cy="82.6892" r="4" fill="#0" id="circle7"/>
	<circle cx="53.0195" cy="36.2497" r="4" fill="#0" id="circle8"/>
	<circle cx="59.4694" cy="82.6892" r="4" fill="#0" id="circle9"/>
	<circle cx="64.6294" cy="29.7997" r="4" fill="#0" id="circle10"/>
	<circle cx="69.7893" cy="91.7191" r="4" fill="#0" id="circle11"/>
	<circle cx="74.9493" cy="104.619" r="4" fill="#0" id="circle12"/>
	<circle cx="77.5293" cy="24.6398" r="4" fill="#0" id="circle13"/>
	<circle cx="81.3992" cy="116.229" r="4" fill="#0" id="circle14"/>
	<circle cx="87.8492" cy="16.8999" r="4" fill="#0" id="circle15"/>
	<circle cx="87.8492" cy="127.839" r="4" fill="#0" id="circle16"/>
	<circle cx="91.7191" cy="140.739" r="4" fill="#0" id="circle17"/>
	<circle cx="98.1691" cy="152.349" r="4" fill="#0" id="circle18"/>
	<circle cx="99.459" cy="10.4499" r="4" fill="#0" id="circle19"/>
	<circle cx="107.199" cy="162.668" r="4" fill="#0" id="circle20"/>
	<circle cx="112.359" cy="10.4499" r="4" fill="#0" id="circle21"/>
	<circle cx="113.649" cy="174.278" r="4" fill="#0" id="circle22"/>
	<circle cx="120.099" cy="185.888" r="4" fill="#0" id="circle23"/>
	<circle cx="120.099" cy="198.788" r="4" fill="#0" id="circle24"/>
	<circle cx="120.099" cy="211.688" r="4" fill="#0" id="circle25"/>
	<circle cx="120.099" cy="224.588" r="4" fill="#0" id="circle26"/>
	<circle cx="120.099" cy="237.488" r="4" fill="#0" id="circle27"/>
	<circle cx="123.969" cy="4" r="4" fill="#0" id="circle28"/>
	<circle cx="123.969" cy="250.388" r="4" fill="#0" id="circle29"/>
	<circle cx="126.549" cy="263.287" r="4" fill="#0" id="circle30"/>
	<circle cx="132.999" cy="274.897" r="4" fill="#0" id="circle31"/>
	<circle cx="135.579" cy="287.797" r="4" fill="#0" id="circle32"/>
	<circle cx="136.869" cy="4" r="4" fill="#0" id="circle33"/>
	<circle cx="139.449" cy="300.697" r="4" fill="#0" id="circle34"/>
	<circle cx="145.899" cy="312.307" r="4" fill="#0" id="circle35"/>
	<circle cx="149.769" cy="4" r="4" fill="#0" id="circle36"/>
	<circle cx="152.349" cy="323.917" r="4" fill="#0" id="circle37"/>
	<circle cx="158.798" cy="335.527" r="4" fill="#0" id="circle38"/>
	<circle cx="162.668" cy="4" r="4" fill="#0" id="circle39"/>
	<circle cx="167.828" cy="345.847" r="4" fill="#0" id="circle40"/>
	<circle cx="174.278" cy="357.456" r="4" fill="#0" id="circle41"/>
	<circle cx="175.568" cy="4" r="4" fill="#0" id="circle42"/>
	<circle cx="184.598" cy="366.486" r="4" fill="#0" id="circle43"/>
	<circle cx="188.468" cy="4" r="4" fill="#0" id="circle44"/>
	<circle cx="192.338" cy="376.806" r="4" fill="#0" id="circle45"/>
	<circle cx="198.788" cy="388.416" r="4" fill="#0" id="circle46"/>
	<circle cx="200.078" cy="10.4499" r="4" fill="#0" id="circle47"/>
	<circle cx="210.398" cy="394.866" r="4" fill="#0" id="circle48"/>
	<circle cx="212.978" cy="10.4499" r="4" fill="#0" id="circle49"/>
	<circle cx="220.718" cy="403.896" r="4" fill="#0" id="circle50"/>
	<circle cx="225.878" cy="10.4499" r="4" fill="#0" id="circle51"/>
	<circle cx="232.328" cy="410.346" r="4" fill="#0" id="circle52"/>
	<circle cx="237.488" cy="16.8999" r="4" fill="#0" id="circle53"/>
	<circle cx="242.648" cy="418.086" r="4" fill="#0" id="circle54"/>
	<circle cx="242.648" cy="498.065" r="4" fill="#0" id="circle55"/>
	<circle cx="250.388" cy="20.7698" r="4" fill="#0" id="circle56"/>
	<circle cx="252.967" cy="507.095" r="4" fill="#0" id="circle57"/>
	<circle cx="254.257" cy="424.536" r="4" fill="#0" id="circle58"/>
	<circle cx="255.547" cy="491.615" r="4" fill="#0" id="circle59"/>
	<circle cx="261.997" cy="27.2198" r="4" fill="#0" id="circle60"/>
	<circle cx="261.997" cy="472.265" r="4" fill="#0" id="circle61"/>
	<circle cx="265.867" cy="430.986" r="4" fill="#0" id="circle62"/>
	<circle cx="265.867" cy="507.095" r="4" fill="#0" id="circle63"/>
	<circle cx="272.317" cy="36.2497" r="4" fill="#0" id="circle64"/>
	<circle cx="272.317" cy="461.945" r="4" fill="#0" id="circle65"/>
	<circle cx="278.767" cy="436.146" r="4" fill="#0" id="circle66"/>
	<circle cx="278.767" cy="500.645" r="4" fill="#0" id="circle67"/>
	<circle cx="281.347" cy="46.5696" r="4" fill="#0" id="circle68"/>
	<circle cx="281.347" cy="449.046" r="4" fill="#0" id="circle69"/>
	<circle cx="282.637" cy="59.4694" r="4" fill="#0" id="circle70"/>
	<circle cx="285.217" cy="487.745" r="4" fill="#0" id="circle71"/>
	<circle cx="289.087" cy="71.0793" r="4" fill="#0" id="circle72"/>
	<circle cx="292.957" cy="83.9792" r="4" fill="#0" id="circle73"/>
	<circle cx="295.537" cy="476.135" r="4" fill="#0" id="circle74"/>
	<circle cx="299.407" cy="95.5891" r="4" fill="#0" id="circle75"/>
	<circle cx="300.697" cy="510.965" r="4" fill="#0" id="circle76"/>
	<circle cx="304.567" cy="108.489" r="4" fill="#0" id="circle77"/>
	<circle cx="307.147" cy="469.685" r="4" fill="#0" id="circle78"/>
	<circle cx="308.437" cy="521.285" r="4" fill="#0" id="circle79"/>
	<circle cx="313.597" cy="504.515" r="4" fill="#0" id="circle80"/>
	<circle cx="314.887" cy="117.519" r="4" fill="#0" id="circle81"/>
	<circle cx="320.047" cy="465.815" r="4" fill="#0" id="circle82"/>
	<circle cx="321.337" cy="521.285" r="4" fill="#0" id="circle83"/>
	<circle cx="326.497" cy="123.969" r="4" fill="#0" id="circle84"/>
	<circle cx="326.497" cy="498.065" r="4" fill="#0" id="circle85"/>
	<circle cx="330.367" cy="456.785" r="4" fill="#0" id="circle86"/>
	<circle cx="332.947" cy="478.715" r="4" fill="#0" id="circle87"/>
	<circle cx="334.237" cy="521.285" r="4" fill="#0" id="circle88"/>
	<circle cx="339.397" cy="129.129" r="4" fill="#0" id="circle89"/>
	<circle cx="343.267" cy="456.785" r="4" fill="#0" id="circle90"/>
	<circle cx="345.847" cy="469.685" r="4" fill="#0" id="circle91"/>
	<circle cx="347.137" cy="508.385" r="4" fill="#0" id="circle92"/>
	<circle cx="351.007" cy="135.579" r="4" fill="#0" id="circle93"/>
	<circle cx="353.586" cy="495.485" r="4" fill="#0" id="circle94"/>
	<circle cx="360.036" cy="482.585" r="4" fill="#0" id="circle95"/>
	<circle cx="363.906" cy="140.739" r="4" fill="#0" id="circle96"/>
	<circle cx="371.646" cy="476.135" r="4" fill="#0" id="circle97"/>
	<circle cx="372.936" cy="151.059" r="4" fill="#0" id="circle98"/>
	<circle cx="384.546" cy="472.265" r="4" fill="#0" id="circle99"/>
	<circle cx="385.836" cy="152.349" r="4" fill="#0" id="circle100"/>
	<circle cx="396.156" cy="160.088" r="4" fill="#0" id="circle101"/>
	<circle cx="397.446" cy="469.685" r="4" fill="#0" id="circle102"/>
	<circle cx="407.766" cy="166.538" r="4" fill="#0" id="circle103"/>
	<circle cx="410.346" cy="465.815" r="4" fill="#0" id="circle104"/>
	<circle cx="414.216" cy="178.148" r="4" fill="#0" id="circle105"/>
	<circle cx="423.246" cy="459.365" r="4" fill="#0" id="circle106"/>
	<circle cx="425.826" cy="184.598" r="4" fill="#0" id="circle107"/>
	<circle cx="436.146" cy="456.785" r="4" fill="#0" id="circle108"/>
	<circle cx="437.436" cy="191.048" r="4" fill="#0" id="circle109"/>
	<circle cx="447.756" cy="198.788" r="4" fill="#0" id="circle110"/>
	<circle cx="449.046" cy="452.915" r="4" fill="#0" id="circle111"/>
	<circle cx="459.365" cy="205.238" r="4" fill="#0" id="circle112"/>
	<circle cx="461.945" cy="450.336" r="4" fill="#0" id="circle113"/>
	<circle cx="469.685" cy="214.268" r="4" fill="#0" id="circle114"/>
	<circle cx="473.555" cy="443.886" r="4" fill="#0" id="circle115"/>
	<circle cx="480.005" cy="223.298" r="4" fill="#0" id="circle116"/>
	<circle cx="486.455" cy="441.306" r="4" fill="#0" id="circle117"/>
	<circle cx="491.615" cy="229.748" r="4" fill="#0" id="circle118"/>
	<circle cx="499.355" cy="437.436" r="4" fill="#0" id="circle119"/>
	<circle cx="500.645" cy="240.068" r="4" fill="#0" id="circle120"/>
	<circle cx="510.965" cy="249.098" r="4" fill="#0" id="circle121"/>
	<circle cx="510.965" cy="430.986" r="4" fill="#0" id="circle122"/>
	<circle cx="514.835" cy="261.997" r="4" fill="#0" id="circle123"/>
	<circle cx="523.865" cy="430.986" r="4" fill="#0" id="circle124"/>
	<circle cx="525.155" cy="269.737" r="4" fill="#0" id="circle125"/>
	<circle cx="536.765" cy="276.187" r="4" fill="#0" id="circle126"/>
	<circle cx="536.765" cy="430.986" r="4" fill="#0" id="circle127"/>
	<circle cx="547.085" cy="285.217" r="4" fill="#0" id="circle128"/>
	<circle cx="549.664" cy="430.986" r="4" fill="#0" id="circle129"/>
	<circle cx="556.114" cy="295.537" r="4" fill="#0" id="circle130"/>
	<circle cx="561.274" cy="437.436" r="4" fill="#0" id="circle131"/>
	<circle cx="569.014" cy="300.697" r="4" fill="#0" id="circle132"/>
	<circle cx="574.174" cy="437.436" r="4" fill="#0" id="circle133"/>
	<circle cx="578.044" cy="311.017" r="4" fill="#0" id="circle134"/>
	<circle cx="585.784" cy="443.886" r="4" fill="#0" id="circle135"/>
	<circle cx="590.944" cy="316.177" r="4" fill="#0" id="circle136"/>
	<circle cx="598.684" cy="326.497" r="4" fill="#0" id="circle137"/>
	<circle cx="598.684" cy="443.886" r="4" fill="#0" id="circle138"/>
	<circle cx="605.134" cy="338.107" r="4" fill="#0" id="circle139"/>
	<circle cx="611.584" cy="349.717" r="4" fill="#0" id="circle140"/>
	<circle cx="611.584" cy="443.886" r="4" fill="#0" id="circle141"/>
	<circle cx="623.194" cy="356.166" r="4" fill="#0" id="circle142"/>
	<circle cx="624.484" cy="446.466" r="4" fill="#0" id="circle143"/>
	<circle cx="633.514" cy="365.196" r="4" fill="#0" id="circle144"/>
	<circle cx="637.384" cy="450.336" r="4" fill="#0" id="circle145"/>
	<circle cx="645.124" cy="371.646" r="4" fill="#0" id="circle146"/>
	<circle cx="650.283" cy="450.336" r="4" fill="#0" id="circle147"/>
	<circle cx="656.733" cy="378.096" r="4" fill="#0" id="circle148"/>
	<circle cx="663.183" cy="389.706" r="4" fill="#0" id="circle149"/>
	<circle cx="663.183" cy="450.336" r="4" fill="#0" id="circle150"/>
	<circle cx="669.633" cy="401.316" r="4" fill="#0" id="circle151"/>
	<circle cx="674.793" cy="456.785" r="4" fill="#0" id="circle152"/>
	<circle cx="681.243" cy="407.766" r="4" fill="#0" id="circle153"/>
	<circle cx="687.693" cy="456.785" r="4" fill="#0" id="circle154"/>
	<circle cx="694.143" cy="412.926" r="4" fill="#0" id="circle155"/>
	<circle cx="699.303" cy="463.235" r="4" fill="#0" id="circle156"/>
	<circle cx="705.753" cy="419.376" r="4" fill="#0" id="circle157"/>
	<circle cx="710.913" cy="469.685" r="4" fill="#0" id="circle158"/>
	<circle cx="714.783" cy="429.696" r="4" fill="#0" id="circle159"/>
	<circle cx="723.813" cy="469.685" r="4" fill="#0" id="circle160"/>
	<circle cx="727.683" cy="429.696" r="4" fill="#0" id="circle161"/>
	<circle cx="735.423" cy="476.135" r="4" fill="#0" id="circle162"/>
	<circle cx="738.003" cy="437.436" r="4" fill="#0" id="circle163"/>
	<circle cx="748.322" cy="480.005" r="4" fill="#0" id="circle164"/>
	<circle cx="749.612" cy="443.886" r="4" fill="#0" id="circle165"/>
	<circle cx="759.932" cy="486.455" r="4" fill="#0" id="circle166"/>
	<circle cx="762.512" cy="449.046" r="4" fill="#0" id="circle167"/>
	<circle cx="770.252" cy="495.485" r="4" fill="#0" id="circle168"/>
	<circle cx="774.122" cy="455.495" r="4" fill="#0" id="circle169"/>
	<circle cx="783.152" cy="495.485" r="4" fill="#0" id="circle170"/>
	<circle cx="787.022" cy="455.495" r="4" fill="#0" id="circle171"/>
	<circle cx="794.762" cy="501.935" r="4" fill="#0" id="circle172"/>
	<circle cx="798.632" cy="461.945" r="4" fill="#0" id="circle173"/>
	<circle cx="806.372" cy="508.385" r="4" fill="#0" id="circle174"/>
	<circle cx="810.242" cy="468.395" r="4" fill="#0" id="circle175"/>
	<circle cx="819.272" cy="512.255" r="4" fill="#0" id="circle176"/>
	<circle cx="823.142" cy="470.975" r="4" fill="#0" id="circle177"/>
	<circle cx="830.882" cy="481.295" r="4" fill="#0" id="circle178"/>
	<circle cx="830.882" cy="518.705" r="4" fill="#0" id="circle179"/>
	<circle cx="841.202" cy="527.735" r="4" fill="#0" id="circle180"/>
	<circle cx="843.782" cy="485.165" r="4" fill="#0" id="circle181"/>
	<circle cx="854.101" cy="527.735" r="4" fill="#0" id="circle182"/>
	<circle cx="855.391" cy="491.615" r="4" fill="#0" id="circle183"/>
	<circle cx="863.131" cy="538.055" r="4" fill="#0" id="circle184"/>
	<circle cx="868.291" cy="496.775" r="4" fill="#0" id="circle185"/>
	<circle cx="876.031" cy="543.215" r="4" fill="#0" id="circle186"/>
	<circle cx="879.901" cy="503.225" r="4" fill="#0" id="circle187"/>
	<circle cx="888.931" cy="547.085" r="4" fill="#0" id="circle188"/>
	<circle cx="892.801" cy="507.095" r="4" fill="#0" id="circle189"/>
	<circle cx="900.541" cy="553.534" r="4" fill="#0" id="circle190"/>
	<circle cx="901.831" cy="517.415" r="4" fill="#0" id="circle191"/>
	<circle cx="912.151" cy="559.984" r="4" fill="#0" id="circle192"/>
	<circle cx="913.441" cy="523.865" r="4" fill="#0" id="circle193"/>
	<circle cx="923.761" cy="566.434" r="4" fill="#0" id="circle194"/>
	<circle cx="926.341" cy="529.025" r="4" fill="#0" id="circle195"/>
	<circle cx="936.661" cy="571.594" r="4" fill="#0" id="circle196"/>
	<circle cx="937.951" cy="535.475" r="4" fill="#0" id="circle197"/>
	<circle cx="946.98" cy="545.795" r="4" fill="#0" id="circle198"/>
	<circle cx="949.56" cy="572.884" r="4" fill="#0" id="circle199"/>
	<circle cx="959.88" cy="549.664" r="4" fill="#0" id="circle200"/>
	<circle cx="961.17" cy="579.334" r="4" fill="#0" id="circle201"/>
	<circle cx="971.49" cy="556.114" r="4" fill="#0" id="circle202"/>
	<circle cx="974.07" cy="583.204" r="4" fill="#0" id="circle203"/>
	<circle cx="984.39" cy="561.274" r="4" fill="#0" id="circle204"/>
	<circle cx="986.97" cy="585.784" r="4" fill="#0" id="circle205"/>
	<circle cx="996" cy="567.724" r="4" fill="#0" id="circle206"/>
	</g>
</svg>