<?xml version="1.0" encoding="UTF-8" standalone="no"?>
<!-- Created with CurveBenchmark -->
<svg
	xmlns:dc="http://purl.org/dc/elements/1.1/"
	xmlns:cc="http://creativecommons.org/ns#"
	xmlns:rdf="http://www.w3.org/1999/02/22-rdf-syntax-ns#"
	xmlns:svg="http://www.w3.org/2000/svg"
	xmlns="http://www.w3.org/2000/svg"
	xmlns:sodipodi="http://sodipodi.sourceforge.net/DTD/sodipodi-0.dtd"
	xmlns:inkscape="http://www.inkscape.org/namespaces/inkscape"
	width="1000"
	height="1000"
	id="svg2"
	version="1.1"
	sodipodi:docname="manifold/connect2d-flightbird04.png.txt">
<defs
	id="defs4" />
<metadata
	id="metadata7">
	<rdf:RDF>
		<cc:Work
			rdf:about="">
			<dc:format>image/svg+xml</dc:format>
			<dc:type
				rdf:resource="http://purl.org/dc/dcmitype/StillImage" />
			<dc:title></dc:title>
		</cc:Work>
	</rdf:RDF>
</metadata>
<g
	inkscape:label="Layer 1"
	inkscape:groupmode="layer"
	id="layer1">
	<path style="fill:none;stroke:red;stroke-width:1px;stroke-linecap:butt;stroke-linejoin:miter;stroke-opacity:1" d="M 996,72.6505 978.837,81.2318 z" id="boundary" inkscape:connector-curvature="0" />
	<path style="fill:none;stroke:red;stroke-width:1px;stroke-linecap:butt;stroke-linejoin:miter;stroke-opacity:1" d="M 978.837,81.2318 965.107,91.5294 z" id="boundary" inkscape:connector-curvature="0" />
	<path style="fill:none;stroke:red;stroke-width:1px;stroke-linecap:butt;stroke-linejoin:miter;stroke-opacity:1" d="M 965.107,91.5294 949.661,100.111 z" id="boundary" inkscape:connector-curvature="0" />
	<path style="fill:none;stroke:red;stroke-width:1px;stroke-linecap:butt;stroke-linejoin:miter;stroke-opacity:1" d="M 949.661,100.111 973.689,106.976 z" id="boundary" inkscape:connector-curvature="0" />
	<path style="fill:none;stroke:red;stroke-width:1px;stroke-linecap:butt;stroke-linejoin:miter;stroke-opacity:1" d="M 973.689,106.976 980.554,124.138 z" id="boundary" inkscape:connector-curvature="0" />
	<path style="fill:none;stroke:red;stroke-width:1px;stroke-linecap:butt;stroke-linejoin:miter;stroke-opacity:1" d="M 980.554,124.138 963.391,131.003 z" id="boundary" inkscape:connector-curvature="0" />
	<path style="fill:none;stroke:red;stroke-width:1px;stroke-linecap:butt;stroke-linejoin:miter;stroke-opacity:1" d="M 963.391,131.003 949.661,143.017 z" id="boundary" inkscape:connector-curvature="0" />
	<path style="fill:none;stroke:red;stroke-width:1px;stroke-linecap:butt;stroke-linejoin:miter;stroke-opacity:1" d="M 949.661,143.017 932.498,160.18 z" id="boundary" inkscape:connector-curvature="0" />
	<path style="fill:none;stroke:red;stroke-width:1px;stroke-linecap:butt;stroke-linejoin:miter;stroke-opacity:1" d="M 932.498,160.18 932.498,177.343 z" id="boundary" inkscape:connector-curvature="0" />
	<path style="fill:none;stroke:red;stroke-width:1px;stroke-linecap:butt;stroke-linejoin:miter;stroke-opacity:1" d="M 932.498,177.343 915.336,185.924 z" id="boundary" inkscape:connector-curvature="0" />
	<path style="fill:none;stroke:red;stroke-width:1px;stroke-linecap:butt;stroke-linejoin:miter;stroke-opacity:1" d="M 915.336,185.924 906.754,211.668 z" id="boundary" inkscape:connector-curvature="0" />
	<path style="fill:none;stroke:red;stroke-width:1px;stroke-linecap:butt;stroke-linejoin:miter;stroke-opacity:1" d="M 906.754,211.668 898.173,228.83 z" id="boundary" inkscape:connector-curvature="0" />
	<path style="fill:none;stroke:red;stroke-width:1px;stroke-linecap:butt;stroke-linejoin:miter;stroke-opacity:1" d="M 898.173,228.83 887.875,245.993 z" id="boundary" inkscape:connector-curvature="0" />
	<path style="fill:none;stroke:red;stroke-width:1px;stroke-linecap:butt;stroke-linejoin:miter;stroke-opacity:1" d="M 887.875,245.993 872.429,254.574 z" id="boundary" inkscape:connector-curvature="0" />
	<path style="fill:none;stroke:red;stroke-width:1px;stroke-linecap:butt;stroke-linejoin:miter;stroke-opacity:1" d="M 872.429,254.574 872.429,271.737 z" id="boundary" inkscape:connector-curvature="0" />
	<path style="fill:none;stroke:red;stroke-width:1px;stroke-linecap:butt;stroke-linejoin:miter;stroke-opacity:1" d="M 872.429,271.737 863.848,297.481 z" id="boundary" inkscape:connector-curvature="0" />
	<path style="fill:none;stroke:red;stroke-width:1px;stroke-linecap:butt;stroke-linejoin:miter;stroke-opacity:1" d="M 863.848,297.481 855.266,314.644 z" id="boundary" inkscape:connector-curvature="0" />
	<path style="fill:none;stroke:red;stroke-width:1px;stroke-linecap:butt;stroke-linejoin:miter;stroke-opacity:1" d="M 855.266,314.644 846.685,331.806 z" id="boundary" inkscape:connector-curvature="0" />
	<path style="fill:none;stroke:red;stroke-width:1px;stroke-linecap:butt;stroke-linejoin:miter;stroke-opacity:1" d="M 846.685,331.806 846.685,348.969 z" id="boundary" inkscape:connector-curvature="0" />
	<path style="fill:none;stroke:red;stroke-width:1px;stroke-linecap:butt;stroke-linejoin:miter;stroke-opacity:1" d="M 846.685,348.969 829.522,366.131 z" id="boundary" inkscape:connector-curvature="0" />
	<path style="fill:none;stroke:red;stroke-width:1px;stroke-linecap:butt;stroke-linejoin:miter;stroke-opacity:1" d="M 829.522,366.131 829.522,383.294 z" id="boundary" inkscape:connector-curvature="0" />
	<path style="fill:none;stroke:red;stroke-width:1px;stroke-linecap:butt;stroke-linejoin:miter;stroke-opacity:1" d="M 829.522,383.294 817.509,397.024 z" id="boundary" inkscape:connector-curvature="0" />
	<path style="fill:none;stroke:red;stroke-width:1px;stroke-linecap:butt;stroke-linejoin:miter;stroke-opacity:1" d="M 817.509,397.024 803.779,409.038 z" id="boundary" inkscape:connector-curvature="0" />
	<path style="fill:none;stroke:red;stroke-width:1px;stroke-linecap:butt;stroke-linejoin:miter;stroke-opacity:1" d="M 803.779,409.038 798.63,433.066 z" id="boundary" inkscape:connector-curvature="0" />
	<path style="fill:none;stroke:red;stroke-width:1px;stroke-linecap:butt;stroke-linejoin:miter;stroke-opacity:1" d="M 798.63,433.066 784.9,443.363 z" id="boundary" inkscape:connector-curvature="0" />
	<path style="fill:none;stroke:red;stroke-width:1px;stroke-linecap:butt;stroke-linejoin:miter;stroke-opacity:1" d="M 784.9,443.363 774.602,457.093 z" id="boundary" inkscape:connector-curvature="0" />
	<path style="fill:none;stroke:red;stroke-width:1px;stroke-linecap:butt;stroke-linejoin:miter;stroke-opacity:1" d="M 774.602,457.093 760.872,469.107 z" id="boundary" inkscape:connector-curvature="0" />
	<path style="fill:none;stroke:red;stroke-width:1px;stroke-linecap:butt;stroke-linejoin:miter;stroke-opacity:1" d="M 760.872,469.107 757.439,491.419 z" id="boundary" inkscape:connector-curvature="0" />
	<path style="fill:none;stroke:red;stroke-width:1px;stroke-linecap:butt;stroke-linejoin:miter;stroke-opacity:1" d="M 757.439,491.419 740.277,500 z" id="boundary" inkscape:connector-curvature="0" />
	<path style="fill:none;stroke:red;stroke-width:1px;stroke-linecap:butt;stroke-linejoin:miter;stroke-opacity:1" d="M 740.277,500 723.114,508.581 z" id="boundary" inkscape:connector-curvature="0" />
	<path style="fill:none;stroke:red;stroke-width:1px;stroke-linecap:butt;stroke-linejoin:miter;stroke-opacity:1" d="M 723.114,508.581 709.384,520.595 z" id="boundary" inkscape:connector-curvature="0" />
	<path style="fill:none;stroke:red;stroke-width:1px;stroke-linecap:butt;stroke-linejoin:miter;stroke-opacity:1" d="M 709.384,520.595 692.221,537.758 z" id="boundary" inkscape:connector-curvature="0" />
	<path style="fill:none;stroke:red;stroke-width:1px;stroke-linecap:butt;stroke-linejoin:miter;stroke-opacity:1" d="M 692.221,537.758 675.059,546.339 z" id="boundary" inkscape:connector-curvature="0" />
	<path style="fill:none;stroke:red;stroke-width:1px;stroke-linecap:butt;stroke-linejoin:miter;stroke-opacity:1" d="M 675.059,546.339 675.059,563.502 z" id="boundary" inkscape:connector-curvature="0" />
	<path style="fill:none;stroke:red;stroke-width:1px;stroke-linecap:butt;stroke-linejoin:miter;stroke-opacity:1" d="M 675.059,563.502 688.789,573.799 z" id="boundary" inkscape:connector-curvature="0" />
	<path style="fill:none;stroke:red;stroke-width:1px;stroke-linecap:butt;stroke-linejoin:miter;stroke-opacity:1" d="M 688.789,573.799 692.221,590.962 z" id="boundary" inkscape:connector-curvature="0" />
	<path style="fill:none;stroke:red;stroke-width:1px;stroke-linecap:butt;stroke-linejoin:miter;stroke-opacity:1" d="M 692.221,590.962 702.519,604.692 z" id="boundary" inkscape:connector-curvature="0" />
	<path style="fill:none;stroke:red;stroke-width:1px;stroke-linecap:butt;stroke-linejoin:miter;stroke-opacity:1" d="M 702.519,604.692 716.249,616.706 z" id="boundary" inkscape:connector-curvature="0" />
	<path style="fill:none;stroke:red;stroke-width:1px;stroke-linecap:butt;stroke-linejoin:miter;stroke-opacity:1" d="M 716.249,616.706 726.547,630.436 z" id="boundary" inkscape:connector-curvature="0" />
	<path style="fill:none;stroke:red;stroke-width:1px;stroke-linecap:butt;stroke-linejoin:miter;stroke-opacity:1" d="M 726.547,630.436 740.277,640.734 z" id="boundary" inkscape:connector-curvature="0" />
	<path style="fill:none;stroke:red;stroke-width:1px;stroke-linecap:butt;stroke-linejoin:miter;stroke-opacity:1" d="M 740.277,640.734 755.723,649.315 z" id="boundary" inkscape:connector-curvature="0" />
	<path style="fill:none;stroke:red;stroke-width:1px;stroke-linecap:butt;stroke-linejoin:miter;stroke-opacity:1" d="M 755.723,649.315 769.453,661.329 z" id="boundary" inkscape:connector-curvature="0" />
	<path style="fill:none;stroke:red;stroke-width:1px;stroke-linecap:butt;stroke-linejoin:miter;stroke-opacity:1" d="M 769.453,661.329 783.183,673.343 z" id="boundary" inkscape:connector-curvature="0" />
	<path style="fill:none;stroke:red;stroke-width:1px;stroke-linecap:butt;stroke-linejoin:miter;stroke-opacity:1" d="M 783.183,673.343 795.197,687.073 z" id="boundary" inkscape:connector-curvature="0" />
	<path style="fill:none;stroke:red;stroke-width:1px;stroke-linecap:butt;stroke-linejoin:miter;stroke-opacity:1" d="M 795.197,687.073 810.644,695.654 z" id="boundary" inkscape:connector-curvature="0" />
	<path style="fill:none;stroke:red;stroke-width:1px;stroke-linecap:butt;stroke-linejoin:miter;stroke-opacity:1" d="M 810.644,695.654 824.374,707.668 z" id="boundary" inkscape:connector-curvature="0" />
	<path style="fill:none;stroke:red;stroke-width:1px;stroke-linecap:butt;stroke-linejoin:miter;stroke-opacity:1" d="M 824.374,707.668 839.82,716.249 z" id="boundary" inkscape:connector-curvature="0" />
	<path style="fill:none;stroke:red;stroke-width:1px;stroke-linecap:butt;stroke-linejoin:miter;stroke-opacity:1" d="M 839.82,716.249 836.388,743.709 z" id="boundary" inkscape:connector-curvature="0" />
	<path style="fill:none;stroke:red;stroke-width:1px;stroke-linecap:butt;stroke-linejoin:miter;stroke-opacity:1" d="M 836.388,743.709 826.09,757.439 z" id="boundary" inkscape:connector-curvature="0" />
	<path style="fill:none;stroke:red;stroke-width:1px;stroke-linecap:butt;stroke-linejoin:miter;stroke-opacity:1" d="M 826.09,757.439 812.36,769.453 z" id="boundary" inkscape:connector-curvature="0" />
	<path style="fill:none;stroke:red;stroke-width:1px;stroke-linecap:butt;stroke-linejoin:miter;stroke-opacity:1" d="M 812.36,769.453 795.197,769.453 z" id="boundary" inkscape:connector-curvature="0" />
	<path style="fill:none;stroke:red;stroke-width:1px;stroke-linecap:butt;stroke-linejoin:miter;stroke-opacity:1" d="M 795.197,769.453 795.197,786.616 z" id="boundary" inkscape:connector-curvature="0" />
	<path style="fill:none;stroke:red;stroke-width:1px;stroke-linecap:butt;stroke-linejoin:miter;stroke-opacity:1" d="M 795.197,786.616 778.035,795.197 z" id="boundary" inkscape:connector-curvature="0" />
	<path style="fill:none;stroke:red;stroke-width:1px;stroke-linecap:butt;stroke-linejoin:miter;stroke-opacity:1" d="M 778.035,795.197 764.304,810.644 z" id="boundary" inkscape:connector-curvature="0" />
	<path style="fill:none;stroke:red;stroke-width:1px;stroke-linecap:butt;stroke-linejoin:miter;stroke-opacity:1" d="M 764.304,810.644 747.142,819.225 z" id="boundary" inkscape:connector-curvature="0" />
	<path style="fill:none;stroke:red;stroke-width:1px;stroke-linecap:butt;stroke-linejoin:miter;stroke-opacity:1" d="M 747.142,819.225 729.979,819.225 z" id="boundary" inkscape:connector-curvature="0" />
	<path style="fill:none;stroke:red;stroke-width:1px;stroke-linecap:butt;stroke-linejoin:miter;stroke-opacity:1" d="M 729.979,819.225 716.249,807.211 z" id="boundary" inkscape:connector-curvature="0" />
	<path style="fill:none;stroke:red;stroke-width:1px;stroke-linecap:butt;stroke-linejoin:miter;stroke-opacity:1" d="M 716.249,807.211 709.384,790.048 z" id="boundary" inkscape:connector-curvature="0" />
	<path style="fill:none;stroke:red;stroke-width:1px;stroke-linecap:butt;stroke-linejoin:miter;stroke-opacity:1" d="M 709.384,790.048 700.803,774.602 z" id="boundary" inkscape:connector-curvature="0" />
	<path style="fill:none;stroke:red;stroke-width:1px;stroke-linecap:butt;stroke-linejoin:miter;stroke-opacity:1" d="M 700.803,774.602 693.938,757.439 z" id="boundary" inkscape:connector-curvature="0" />
	<path style="fill:none;stroke:red;stroke-width:1px;stroke-linecap:butt;stroke-linejoin:miter;stroke-opacity:1" d="M 693.938,757.439 676.775,750.574 z" id="boundary" inkscape:connector-curvature="0" />
	<path style="fill:none;stroke:red;stroke-width:1px;stroke-linecap:butt;stroke-linejoin:miter;stroke-opacity:1" d="M 676.775,750.574 673.343,733.412 z" id="boundary" inkscape:connector-curvature="0" />
	<path style="fill:none;stroke:red;stroke-width:1px;stroke-linecap:butt;stroke-linejoin:miter;stroke-opacity:1" d="M 673.343,733.412 664.761,717.965 z" id="boundary" inkscape:connector-curvature="0" />
	<path style="fill:none;stroke:red;stroke-width:1px;stroke-linecap:butt;stroke-linejoin:miter;stroke-opacity:1" d="M 664.761,717.965 656.18,702.519 z" id="boundary" inkscape:connector-curvature="0" />
	<path style="fill:none;stroke:red;stroke-width:1px;stroke-linecap:butt;stroke-linejoin:miter;stroke-opacity:1" d="M 656.18,702.519 647.599,687.073 z" id="boundary" inkscape:connector-curvature="0" />
	<path style="fill:none;stroke:red;stroke-width:1px;stroke-linecap:butt;stroke-linejoin:miter;stroke-opacity:1" d="M 647.599,687.073 640.734,669.91 z" id="boundary" inkscape:connector-curvature="0" />
	<path style="fill:none;stroke:red;stroke-width:1px;stroke-linecap:butt;stroke-linejoin:miter;stroke-opacity:1" d="M 640.734,669.91 623.571,663.045 z" id="boundary" inkscape:connector-curvature="0" />
	<path style="fill:none;stroke:red;stroke-width:1px;stroke-linecap:butt;stroke-linejoin:miter;stroke-opacity:1" d="M 623.571,663.045 613.273,649.315 z" id="boundary" inkscape:connector-curvature="0" />
	<path style="fill:none;stroke:red;stroke-width:1px;stroke-linecap:butt;stroke-linejoin:miter;stroke-opacity:1" d="M 613.273,649.315 596.111,649.315 z" id="boundary" inkscape:connector-curvature="0" />
	<path style="fill:none;stroke:red;stroke-width:1px;stroke-linecap:butt;stroke-linejoin:miter;stroke-opacity:1" d="M 596.111,649.315 578.948,649.315 z" id="boundary" inkscape:connector-curvature="0" />
	<path style="fill:none;stroke:red;stroke-width:1px;stroke-linecap:butt;stroke-linejoin:miter;stroke-opacity:1" d="M 578.948,649.315 563.502,640.734 z" id="boundary" inkscape:connector-curvature="0" />
	<path style="fill:none;stroke:red;stroke-width:1px;stroke-linecap:butt;stroke-linejoin:miter;stroke-opacity:1" d="M 563.502,640.734 554.92,657.896 z" id="boundary" inkscape:connector-curvature="0" />
	<path style="fill:none;stroke:red;stroke-width:1px;stroke-linecap:butt;stroke-linejoin:miter;stroke-opacity:1" d="M 554.92,657.896 537.758,675.059 z" id="boundary" inkscape:connector-curvature="0" />
	<path style="fill:none;stroke:red;stroke-width:1px;stroke-linecap:butt;stroke-linejoin:miter;stroke-opacity:1" d="M 537.758,675.059 520.595,692.221 z" id="boundary" inkscape:connector-curvature="0" />
	<path style="fill:none;stroke:red;stroke-width:1px;stroke-linecap:butt;stroke-linejoin:miter;stroke-opacity:1" d="M 520.595,692.221 508.581,705.952 z" id="boundary" inkscape:connector-curvature="0" />
	<path style="fill:none;stroke:red;stroke-width:1px;stroke-linecap:butt;stroke-linejoin:miter;stroke-opacity:1" d="M 508.581,705.952 491.419,714.533 z" id="boundary" inkscape:connector-curvature="0" />
	<path style="fill:none;stroke:red;stroke-width:1px;stroke-linecap:butt;stroke-linejoin:miter;stroke-opacity:1" d="M 491.419,714.533 477.689,726.547 z" id="boundary" inkscape:connector-curvature="0" />
	<path style="fill:none;stroke:red;stroke-width:1px;stroke-linecap:butt;stroke-linejoin:miter;stroke-opacity:1" d="M 477.689,726.547 460.526,726.547 z" id="boundary" inkscape:connector-curvature="0" />
	<path style="fill:none;stroke:red;stroke-width:1px;stroke-linecap:butt;stroke-linejoin:miter;stroke-opacity:1" d="M 460.526,726.547 445.08,743.709 z" id="boundary" inkscape:connector-curvature="0" />
	<path style="fill:none;stroke:red;stroke-width:1px;stroke-linecap:butt;stroke-linejoin:miter;stroke-opacity:1" d="M 445.08,743.709 429.633,752.291 z" id="boundary" inkscape:connector-curvature="0" />
	<path style="fill:none;stroke:red;stroke-width:1px;stroke-linecap:butt;stroke-linejoin:miter;stroke-opacity:1" d="M 429.633,752.291 412.471,759.156 z" id="boundary" inkscape:connector-curvature="0" />
	<path style="fill:none;stroke:red;stroke-width:1px;stroke-linecap:butt;stroke-linejoin:miter;stroke-opacity:1" d="M 412.471,759.156 395.308,767.737 z" id="boundary" inkscape:connector-curvature="0" />
	<path style="fill:none;stroke:red;stroke-width:1px;stroke-linecap:butt;stroke-linejoin:miter;stroke-opacity:1" d="M 395.308,767.737 378.145,776.318 z" id="boundary" inkscape:connector-curvature="0" />
	<path style="fill:none;stroke:red;stroke-width:1px;stroke-linecap:butt;stroke-linejoin:miter;stroke-opacity:1" d="M 378.145,776.318 360.983,778.035 z" id="boundary" inkscape:connector-curvature="0" />
	<path style="fill:none;stroke:red;stroke-width:1px;stroke-linecap:butt;stroke-linejoin:miter;stroke-opacity:1" d="M 360.983,778.035 343.82,778.035 z" id="boundary" inkscape:connector-curvature="0" />
	<path style="fill:none;stroke:red;stroke-width:1px;stroke-linecap:butt;stroke-linejoin:miter;stroke-opacity:1" d="M 343.82,778.035 330.09,790.048 z" id="boundary" inkscape:connector-curvature="0" />
	<path style="fill:none;stroke:red;stroke-width:1px;stroke-linecap:butt;stroke-linejoin:miter;stroke-opacity:1" d="M 330.09,790.048 312.927,795.197 z" id="boundary" inkscape:connector-curvature="0" />
	<path style="fill:none;stroke:red;stroke-width:1px;stroke-linecap:butt;stroke-linejoin:miter;stroke-opacity:1" d="M 312.927,795.197 295.765,798.63 z" id="boundary" inkscape:connector-curvature="0" />
	<path style="fill:none;stroke:red;stroke-width:1px;stroke-linecap:butt;stroke-linejoin:miter;stroke-opacity:1" d="M 295.765,798.63 278.602,803.779 z" id="boundary" inkscape:connector-curvature="0" />
	<path style="fill:none;stroke:red;stroke-width:1px;stroke-linecap:butt;stroke-linejoin:miter;stroke-opacity:1" d="M 278.602,803.779 261.439,807.211 z" id="boundary" inkscape:connector-curvature="0" />
	<path style="fill:none;stroke:red;stroke-width:1px;stroke-linecap:butt;stroke-linejoin:miter;stroke-opacity:1" d="M 261.439,807.211 244.277,812.36 z" id="boundary" inkscape:connector-curvature="0" />
	<path style="fill:none;stroke:red;stroke-width:1px;stroke-linecap:butt;stroke-linejoin:miter;stroke-opacity:1" d="M 244.277,812.36 228.83,820.941 z" id="boundary" inkscape:connector-curvature="0" />
	<path style="fill:none;stroke:red;stroke-width:1px;stroke-linecap:butt;stroke-linejoin:miter;stroke-opacity:1" d="M 228.83,820.941 211.668,820.941 z" id="boundary" inkscape:connector-curvature="0" />
	<path style="fill:none;stroke:red;stroke-width:1px;stroke-linecap:butt;stroke-linejoin:miter;stroke-opacity:1" d="M 211.668,820.941 194.505,829.522 z" id="boundary" inkscape:connector-curvature="0" />
	<path style="fill:none;stroke:red;stroke-width:1px;stroke-linecap:butt;stroke-linejoin:miter;stroke-opacity:1" d="M 194.505,829.522 177.343,846.685 z" id="boundary" inkscape:connector-curvature="0" />
	<path style="fill:none;stroke:red;stroke-width:1px;stroke-linecap:butt;stroke-linejoin:miter;stroke-opacity:1" d="M 177.343,846.685 160.18,855.266 z" id="boundary" inkscape:connector-curvature="0" />
	<path style="fill:none;stroke:red;stroke-width:1px;stroke-linecap:butt;stroke-linejoin:miter;stroke-opacity:1" d="M 160.18,855.266 143.017,855.266 z" id="boundary" inkscape:connector-curvature="0" />
	<path style="fill:none;stroke:red;stroke-width:1px;stroke-linecap:butt;stroke-linejoin:miter;stroke-opacity:1" d="M 143.017,855.266 129.287,870.713 z" id="boundary" inkscape:connector-curvature="0" />
	<path style="fill:none;stroke:red;stroke-width:1px;stroke-linecap:butt;stroke-linejoin:miter;stroke-opacity:1" d="M 129.287,870.713 115.557,881.01 z" id="boundary" inkscape:connector-curvature="0" />
	<path style="fill:none;stroke:red;stroke-width:1px;stroke-linecap:butt;stroke-linejoin:miter;stroke-opacity:1" d="M 115.557,881.01 98.3945,882.727 z" id="boundary" inkscape:connector-curvature="0" />
	<path style="fill:none;stroke:red;stroke-width:1px;stroke-linecap:butt;stroke-linejoin:miter;stroke-opacity:1" d="M 98.3945,882.727 100.111,855.266 z" id="boundary" inkscape:connector-curvature="0" />
	<path style="fill:none;stroke:red;stroke-width:1px;stroke-linecap:butt;stroke-linejoin:miter;stroke-opacity:1" d="M 100.111,855.266 72.6505,850.118 z" id="boundary" inkscape:connector-curvature="0" />
	<path style="fill:none;stroke:red;stroke-width:1px;stroke-linecap:butt;stroke-linejoin:miter;stroke-opacity:1" d="M 72.6505,850.118 88.0969,868.997 z" id="boundary" inkscape:connector-curvature="0" />
	<path style="fill:none;stroke:red;stroke-width:1px;stroke-linecap:butt;stroke-linejoin:miter;stroke-opacity:1" d="M 88.0969,868.997 74.3668,881.01 z" id="boundary" inkscape:connector-curvature="0" />
	<path style="fill:none;stroke:red;stroke-width:1px;stroke-linecap:butt;stroke-linejoin:miter;stroke-opacity:1" d="M 74.3668,881.01 57.2042,898.173 z" id="boundary" inkscape:connector-curvature="0" />
	<path style="fill:none;stroke:red;stroke-width:1px;stroke-linecap:butt;stroke-linejoin:miter;stroke-opacity:1" d="M 57.2042,898.173 46.9066,884.443 z" id="boundary" inkscape:connector-curvature="0" />
	<path style="fill:none;stroke:red;stroke-width:1px;stroke-linecap:butt;stroke-linejoin:miter;stroke-opacity:1" d="M 46.9066,884.443 55.4879,867.28 z" id="boundary" inkscape:connector-curvature="0" />
	<path style="fill:none;stroke:red;stroke-width:1px;stroke-linecap:butt;stroke-linejoin:miter;stroke-opacity:1" d="M 55.4879,867.28 21.1626,858.699 z" id="boundary" inkscape:connector-curvature="0" />
	<path style="fill:none;stroke:red;stroke-width:1px;stroke-linecap:butt;stroke-linejoin:miter;stroke-opacity:1" d="M 21.1626,858.699 34.8927,844.969 z" id="boundary" inkscape:connector-curvature="0" />
	<path style="fill:none;stroke:red;stroke-width:1px;stroke-linecap:butt;stroke-linejoin:miter;stroke-opacity:1" d="M 34.8927,844.969 4,815.792 z" id="boundary" inkscape:connector-curvature="0" />
	<path style="fill:none;stroke:red;stroke-width:1px;stroke-linecap:butt;stroke-linejoin:miter;stroke-opacity:1" d="M 4,815.792 21.1626,807.211 z" id="boundary" inkscape:connector-curvature="0" />
	<path style="fill:none;stroke:red;stroke-width:1px;stroke-linecap:butt;stroke-linejoin:miter;stroke-opacity:1" d="M 21.1626,807.211 38.3253,798.63 z" id="boundary" inkscape:connector-curvature="0" />
	<path style="fill:none;stroke:red;stroke-width:1px;stroke-linecap:butt;stroke-linejoin:miter;stroke-opacity:1" d="M 38.3253,798.63 43.474,827.806 z" id="boundary" inkscape:connector-curvature="0" />
	<path style="fill:none;stroke:red;stroke-width:1px;stroke-linecap:butt;stroke-linejoin:miter;stroke-opacity:1" d="M 43.474,827.806 52.0554,844.969 z" id="boundary" inkscape:connector-curvature="0" />
	<path style="fill:none;stroke:red;stroke-width:1px;stroke-linecap:butt;stroke-linejoin:miter;stroke-opacity:1" d="M 52.0554,844.969 60.6367,829.522 z" id="boundary" inkscape:connector-curvature="0" />
	<path style="fill:none;stroke:red;stroke-width:1px;stroke-linecap:butt;stroke-linejoin:miter;stroke-opacity:1" d="M 60.6367,829.522 76.083,820.941 z" id="boundary" inkscape:connector-curvature="0" />
	<path style="fill:none;stroke:red;stroke-width:1px;stroke-linecap:butt;stroke-linejoin:miter;stroke-opacity:1" d="M 76.083,820.941 55.4879,803.779 z" id="boundary" inkscape:connector-curvature="0" />
	<path style="fill:none;stroke:red;stroke-width:1px;stroke-linecap:butt;stroke-linejoin:miter;stroke-opacity:1" d="M 55.4879,803.779 46.9066,781.467 z" id="boundary" inkscape:connector-curvature="0" />
	<path style="fill:none;stroke:red;stroke-width:1px;stroke-linecap:butt;stroke-linejoin:miter;stroke-opacity:1" d="M 46.9066,781.467 60.6367,767.737 z" id="boundary" inkscape:connector-curvature="0" />
	<path style="fill:none;stroke:red;stroke-width:1px;stroke-linecap:butt;stroke-linejoin:miter;stroke-opacity:1" d="M 60.6367,767.737 77.7993,759.156 z" id="boundary" inkscape:connector-curvature="0" />
	<path style="fill:none;stroke:red;stroke-width:1px;stroke-linecap:butt;stroke-linejoin:miter;stroke-opacity:1" d="M 77.7993,759.156 86.3806,743.709 z" id="boundary" inkscape:connector-curvature="0" />
	<path style="fill:none;stroke:red;stroke-width:1px;stroke-linecap:butt;stroke-linejoin:miter;stroke-opacity:1" d="M 86.3806,743.709 65.7855,743.709 z" id="boundary" inkscape:connector-curvature="0" />
	<path style="fill:none;stroke:red;stroke-width:1px;stroke-linecap:butt;stroke-linejoin:miter;stroke-opacity:1" d="M 65.7855,743.709 55.4879,729.979 z" id="boundary" inkscape:connector-curvature="0" />
	<path style="fill:none;stroke:red;stroke-width:1px;stroke-linecap:butt;stroke-linejoin:miter;stroke-opacity:1" d="M 55.4879,729.979 72.6505,724.83 z" id="boundary" inkscape:connector-curvature="0" />
	<path style="fill:none;stroke:red;stroke-width:1px;stroke-linecap:butt;stroke-linejoin:miter;stroke-opacity:1" d="M 72.6505,724.83 88.0969,716.249 z" id="boundary" inkscape:connector-curvature="0" />
	<path style="fill:none;stroke:red;stroke-width:1px;stroke-linecap:butt;stroke-linejoin:miter;stroke-opacity:1" d="M 88.0969,716.249 103.543,707.668 z" id="boundary" inkscape:connector-curvature="0" />
	<path style="fill:none;stroke:red;stroke-width:1px;stroke-linecap:butt;stroke-linejoin:miter;stroke-opacity:1" d="M 103.543,707.668 118.99,699.087 z" id="boundary" inkscape:connector-curvature="0" />
	<path style="fill:none;stroke:red;stroke-width:1px;stroke-linecap:butt;stroke-linejoin:miter;stroke-opacity:1" d="M 118.99,699.087 132.72,678.491 z" id="boundary" inkscape:connector-curvature="0" />
	<path style="fill:none;stroke:red;stroke-width:1px;stroke-linecap:butt;stroke-linejoin:miter;stroke-opacity:1" d="M 132.72,678.491 149.882,669.91 z" id="boundary" inkscape:connector-curvature="0" />
	<path style="fill:none;stroke:red;stroke-width:1px;stroke-linecap:butt;stroke-linejoin:miter;stroke-opacity:1" d="M 149.882,669.91 163.612,656.18 z" id="boundary" inkscape:connector-curvature="0" />
	<path style="fill:none;stroke:red;stroke-width:1px;stroke-linecap:butt;stroke-linejoin:miter;stroke-opacity:1" d="M 163.612,656.18 180.775,647.599 z" id="boundary" inkscape:connector-curvature="0" />
	<path style="fill:none;stroke:red;stroke-width:1px;stroke-linecap:butt;stroke-linejoin:miter;stroke-opacity:1" d="M 180.775,647.599 197.938,639.017 z" id="boundary" inkscape:connector-curvature="0" />
	<path style="fill:none;stroke:red;stroke-width:1px;stroke-linecap:butt;stroke-linejoin:miter;stroke-opacity:1" d="M 197.938,639.017 206.519,621.855 z" id="boundary" inkscape:connector-curvature="0" />
	<path style="fill:none;stroke:red;stroke-width:1px;stroke-linecap:butt;stroke-linejoin:miter;stroke-opacity:1" d="M 206.519,621.855 221.965,613.273 z" id="boundary" inkscape:connector-curvature="0" />
	<path style="fill:none;stroke:red;stroke-width:1px;stroke-linecap:butt;stroke-linejoin:miter;stroke-opacity:1" d="M 221.965,613.273 237.412,604.692 z" id="boundary" inkscape:connector-curvature="0" />
	<path style="fill:none;stroke:red;stroke-width:1px;stroke-linecap:butt;stroke-linejoin:miter;stroke-opacity:1" d="M 237.412,604.692 252.858,596.111 z" id="boundary" inkscape:connector-curvature="0" />
	<path style="fill:none;stroke:red;stroke-width:1px;stroke-linecap:butt;stroke-linejoin:miter;stroke-opacity:1" d="M 252.858,596.111 268.304,587.529 z" id="boundary" inkscape:connector-curvature="0" />
	<path style="fill:none;stroke:red;stroke-width:1px;stroke-linecap:butt;stroke-linejoin:miter;stroke-opacity:1" d="M 268.304,587.529 285.467,587.529 z" id="boundary" inkscape:connector-curvature="0" />
	<path style="fill:none;stroke:red;stroke-width:1px;stroke-linecap:butt;stroke-linejoin:miter;stroke-opacity:1" d="M 285.467,587.529 292.332,570.367 z" id="boundary" inkscape:connector-curvature="0" />
	<path style="fill:none;stroke:red;stroke-width:1px;stroke-linecap:butt;stroke-linejoin:miter;stroke-opacity:1" d="M 292.332,570.367 309.495,570.367 z" id="boundary" inkscape:connector-curvature="0" />
	<path style="fill:none;stroke:red;stroke-width:1px;stroke-linecap:butt;stroke-linejoin:miter;stroke-opacity:1" d="M 309.495,570.367 324.941,561.785 z" id="boundary" inkscape:connector-curvature="0" />
	<path style="fill:none;stroke:red;stroke-width:1px;stroke-linecap:butt;stroke-linejoin:miter;stroke-opacity:1" d="M 324.941,561.785 342.104,554.92 z" id="boundary" inkscape:connector-curvature="0" />
	<path style="fill:none;stroke:red;stroke-width:1px;stroke-linecap:butt;stroke-linejoin:miter;stroke-opacity:1" d="M 342.104,554.92 359.266,546.339 z" id="boundary" inkscape:connector-curvature="0" />
	<path style="fill:none;stroke:red;stroke-width:1px;stroke-linecap:butt;stroke-linejoin:miter;stroke-opacity:1" d="M 359.266,546.339 376.429,544.623 z" id="boundary" inkscape:connector-curvature="0" />
	<path style="fill:none;stroke:red;stroke-width:1px;stroke-linecap:butt;stroke-linejoin:miter;stroke-opacity:1" d="M 376.429,544.623 391.875,536.042 z" id="boundary" inkscape:connector-curvature="0" />
	<path style="fill:none;stroke:red;stroke-width:1px;stroke-linecap:butt;stroke-linejoin:miter;stroke-opacity:1" d="M 391.875,536.042 402.173,520.595 z" id="boundary" inkscape:connector-curvature="0" />
	<path style="fill:none;stroke:red;stroke-width:1px;stroke-linecap:butt;stroke-linejoin:miter;stroke-opacity:1" d="M 402.173,520.595 419.336,512.014 z" id="boundary" inkscape:connector-curvature="0" />
	<path style="fill:none;stroke:red;stroke-width:1px;stroke-linecap:butt;stroke-linejoin:miter;stroke-opacity:1" d="M 419.336,512.014 436.498,510.298 z" id="boundary" inkscape:connector-curvature="0" />
	<path style="fill:none;stroke:red;stroke-width:1px;stroke-linecap:butt;stroke-linejoin:miter;stroke-opacity:1" d="M 436.498,510.298 451.945,501.716 z" id="boundary" inkscape:connector-curvature="0" />
	<path style="fill:none;stroke:red;stroke-width:1px;stroke-linecap:butt;stroke-linejoin:miter;stroke-opacity:1" d="M 451.945,501.716 450.228,477.689 z" id="boundary" inkscape:connector-curvature="0" />
	<path style="fill:none;stroke:red;stroke-width:1px;stroke-linecap:butt;stroke-linejoin:miter;stroke-opacity:1" d="M 450.228,477.689 450.228,460.526 z" id="boundary" inkscape:connector-curvature="0" />
	<path style="fill:none;stroke:red;stroke-width:1px;stroke-linecap:butt;stroke-linejoin:miter;stroke-opacity:1" d="M 450.228,460.526 450.228,443.363 z" id="boundary" inkscape:connector-curvature="0" />
	<path style="fill:none;stroke:red;stroke-width:1px;stroke-linecap:butt;stroke-linejoin:miter;stroke-opacity:1" d="M 450.228,443.363 433.066,438.215 z" id="boundary" inkscape:connector-curvature="0" />
	<path style="fill:none;stroke:red;stroke-width:1px;stroke-linecap:butt;stroke-linejoin:miter;stroke-opacity:1" d="M 433.066,438.215 441.647,421.052 z" id="boundary" inkscape:connector-curvature="0" />
	<path style="fill:none;stroke:red;stroke-width:1px;stroke-linecap:butt;stroke-linejoin:miter;stroke-opacity:1" d="M 441.647,421.052 455.377,407.322 z" id="boundary" inkscape:connector-curvature="0" />
	<path style="fill:none;stroke:red;stroke-width:1px;stroke-linecap:butt;stroke-linejoin:miter;stroke-opacity:1" d="M 455.377,407.322 472.54,398.74 z" id="boundary" inkscape:connector-curvature="0" />
	<path style="fill:none;stroke:red;stroke-width:1px;stroke-linecap:butt;stroke-linejoin:miter;stroke-opacity:1" d="M 472.54,398.74 489.702,398.74 z" id="boundary" inkscape:connector-curvature="0" />
	<path style="fill:none;stroke:red;stroke-width:1px;stroke-linecap:butt;stroke-linejoin:miter;stroke-opacity:1" d="M 489.702,398.74 506.865,398.74 z" id="boundary" inkscape:connector-curvature="0" />
	<path style="fill:none;stroke:red;stroke-width:1px;stroke-linecap:butt;stroke-linejoin:miter;stroke-opacity:1" d="M 506.865,398.74 522.311,407.322 z" id="boundary" inkscape:connector-curvature="0" />
	<path style="fill:none;stroke:red;stroke-width:1px;stroke-linecap:butt;stroke-linejoin:miter;stroke-opacity:1" d="M 522.311,407.322 537.758,415.903 z" id="boundary" inkscape:connector-curvature="0" />
	<path style="fill:none;stroke:red;stroke-width:1px;stroke-linecap:butt;stroke-linejoin:miter;stroke-opacity:1" d="M 537.758,415.903 553.204,403.889 z" id="boundary" inkscape:connector-curvature="0" />
	<path style="fill:none;stroke:red;stroke-width:1px;stroke-linecap:butt;stroke-linejoin:miter;stroke-opacity:1" d="M 553.204,403.889 566.934,390.159 z" id="boundary" inkscape:connector-curvature="0" />
	<path style="fill:none;stroke:red;stroke-width:1px;stroke-linecap:butt;stroke-linejoin:miter;stroke-opacity:1" d="M 566.934,390.159 582.381,381.578 z" id="boundary" inkscape:connector-curvature="0" />
	<path style="fill:none;stroke:red;stroke-width:1px;stroke-linecap:butt;stroke-linejoin:miter;stroke-opacity:1" d="M 582.381,381.578 587.529,360.983 z" id="boundary" inkscape:connector-curvature="0" />
	<path style="fill:none;stroke:red;stroke-width:1px;stroke-linecap:butt;stroke-linejoin:miter;stroke-opacity:1" d="M 587.529,360.983 601.26,347.253 z" id="boundary" inkscape:connector-curvature="0" />
	<path style="fill:none;stroke:red;stroke-width:1px;stroke-linecap:butt;stroke-linejoin:miter;stroke-opacity:1" d="M 601.26,347.253 609.841,330.09 z" id="boundary" inkscape:connector-curvature="0" />
	<path style="fill:none;stroke:red;stroke-width:1px;stroke-linecap:butt;stroke-linejoin:miter;stroke-opacity:1" d="M 609.841,330.09 618.422,312.927 z" id="boundary" inkscape:connector-curvature="0" />
	<path style="fill:none;stroke:red;stroke-width:1px;stroke-linecap:butt;stroke-linejoin:miter;stroke-opacity:1" d="M 618.422,312.927 627.003,295.765 z" id="boundary" inkscape:connector-curvature="0" />
	<path style="fill:none;stroke:red;stroke-width:1px;stroke-linecap:butt;stroke-linejoin:miter;stroke-opacity:1" d="M 627.003,295.765 640.734,282.035 z" id="boundary" inkscape:connector-curvature="0" />
	<path style="fill:none;stroke:red;stroke-width:1px;stroke-linecap:butt;stroke-linejoin:miter;stroke-opacity:1" d="M 640.734,282.035 647.599,258.007 z" id="boundary" inkscape:connector-curvature="0" />
	<path style="fill:none;stroke:red;stroke-width:1px;stroke-linecap:butt;stroke-linejoin:miter;stroke-opacity:1" d="M 647.599,258.007 656.18,240.844 z" id="boundary" inkscape:connector-curvature="0" />
	<path style="fill:none;stroke:red;stroke-width:1px;stroke-linecap:butt;stroke-linejoin:miter;stroke-opacity:1" d="M 656.18,240.844 669.91,227.114 z" id="boundary" inkscape:connector-curvature="0" />
	<path style="fill:none;stroke:red;stroke-width:1px;stroke-linecap:butt;stroke-linejoin:miter;stroke-opacity:1" d="M 669.91,227.114 678.491,209.952 z" id="boundary" inkscape:connector-curvature="0" />
	<path style="fill:none;stroke:red;stroke-width:1px;stroke-linecap:butt;stroke-linejoin:miter;stroke-opacity:1" d="M 678.491,209.952 695.654,201.37 z" id="boundary" inkscape:connector-curvature="0" />
	<path style="fill:none;stroke:red;stroke-width:1px;stroke-linecap:butt;stroke-linejoin:miter;stroke-opacity:1" d="M 695.654,201.37 709.384,187.64 z" id="boundary" inkscape:connector-curvature="0" />
	<path style="fill:none;stroke:red;stroke-width:1px;stroke-linecap:butt;stroke-linejoin:miter;stroke-opacity:1" d="M 709.384,187.64 723.114,175.626 z" id="boundary" inkscape:connector-curvature="0" />
	<path style="fill:none;stroke:red;stroke-width:1px;stroke-linecap:butt;stroke-linejoin:miter;stroke-opacity:1" d="M 723.114,175.626 729.979,158.464 z" id="boundary" inkscape:connector-curvature="0" />
	<path style="fill:none;stroke:red;stroke-width:1px;stroke-linecap:butt;stroke-linejoin:miter;stroke-opacity:1" d="M 729.979,158.464 747.142,149.882 z" id="boundary" inkscape:connector-curvature="0" />
	<path style="fill:none;stroke:red;stroke-width:1px;stroke-linecap:butt;stroke-linejoin:miter;stroke-opacity:1" d="M 747.142,149.882 760.872,136.152 z" id="boundary" inkscape:connector-curvature="0" />
	<path style="fill:none;stroke:red;stroke-width:1px;stroke-linecap:butt;stroke-linejoin:miter;stroke-opacity:1" d="M 760.872,136.152 767.737,112.125 z" id="boundary" inkscape:connector-curvature="0" />
	<path style="fill:none;stroke:red;stroke-width:1px;stroke-linecap:butt;stroke-linejoin:miter;stroke-opacity:1" d="M 767.737,112.125 781.467,98.3945 z" id="boundary" inkscape:connector-curvature="0" />
	<path style="fill:none;stroke:red;stroke-width:1px;stroke-linecap:butt;stroke-linejoin:miter;stroke-opacity:1" d="M 781.467,98.3945 798.63,89.8131 z" id="boundary" inkscape:connector-curvature="0" />
	<path style="fill:none;stroke:red;stroke-width:1px;stroke-linecap:butt;stroke-linejoin:miter;stroke-opacity:1" d="M 798.63,89.8131 812.36,76.083 z" id="boundary" inkscape:connector-curvature="0" />
	<path style="fill:none;stroke:red;stroke-width:1px;stroke-linecap:butt;stroke-linejoin:miter;stroke-opacity:1" d="M 812.36,76.083 820.941,58.9204 z" id="boundary" inkscape:connector-curvature="0" />
	<path style="fill:none;stroke:red;stroke-width:1px;stroke-linecap:butt;stroke-linejoin:miter;stroke-opacity:1" d="M 820.941,58.9204 834.671,46.9066 z" id="boundary" inkscape:connector-curvature="0" />
	<path style="fill:none;stroke:red;stroke-width:1px;stroke-linecap:butt;stroke-linejoin:miter;stroke-opacity:1" d="M 834.671,46.9066 850.118,55.4879 z" id="boundary" inkscape:connector-curvature="0" />
	<path style="fill:none;stroke:red;stroke-width:1px;stroke-linecap:butt;stroke-linejoin:miter;stroke-opacity:1" d="M 850.118,55.4879 867.28,55.4879 z" id="boundary" inkscape:connector-curvature="0" />
	<path style="fill:none;stroke:red;stroke-width:1px;stroke-linecap:butt;stroke-linejoin:miter;stroke-opacity:1" d="M 867.28,55.4879 881.01,41.7578 z" id="boundary" inkscape:connector-curvature="0" />
	<path style="fill:none;stroke:red;stroke-width:1px;stroke-linecap:butt;stroke-linejoin:miter;stroke-opacity:1" d="M 881.01,41.7578 898.173,33.1765 z" id="boundary" inkscape:connector-curvature="0" />
	<path style="fill:none;stroke:red;stroke-width:1px;stroke-linecap:butt;stroke-linejoin:miter;stroke-opacity:1" d="M 898.173,33.1765 918.768,4 z" id="boundary" inkscape:connector-curvature="0" />
	<path style="fill:none;stroke:red;stroke-width:1px;stroke-linecap:butt;stroke-linejoin:miter;stroke-opacity:1" d="M 918.768,4 911.903,21.1626 z" id="boundary" inkscape:connector-curvature="0" />
	<path style="fill:none;stroke:red;stroke-width:1px;stroke-linecap:butt;stroke-linejoin:miter;stroke-opacity:1" d="M 911.903,21.1626 915.336,38.3253 z" id="boundary" inkscape:connector-curvature="0" />
	<path style="fill:none;stroke:red;stroke-width:1px;stroke-linecap:butt;stroke-linejoin:miter;stroke-opacity:1" d="M 915.336,38.3253 932.498,38.3253 z" id="boundary" inkscape:connector-curvature="0" />
	<path style="fill:none;stroke:red;stroke-width:1px;stroke-linecap:butt;stroke-linejoin:miter;stroke-opacity:1" d="M 932.498,38.3253 949.661,33.1765 z" id="boundary" inkscape:connector-curvature="0" />
	<path style="fill:none;stroke:red;stroke-width:1px;stroke-linecap:butt;stroke-linejoin:miter;stroke-opacity:1" d="M 949.661,33.1765 966.824,34.8927 z" id="boundary" inkscape:connector-curvature="0" />
	<path style="fill:none;stroke:red;stroke-width:1px;stroke-linecap:butt;stroke-linejoin:miter;stroke-opacity:1" d="M 966.824,34.8927 949.661,50.3391 z" id="boundary" inkscape:connector-curvature="0" />
	<path style="fill:none;stroke:red;stroke-width:1px;stroke-linecap:butt;stroke-linejoin:miter;stroke-opacity:1" d="M 949.661,50.3391 949.661,67.5017 z" id="boundary" inkscape:connector-curvature="0" />
	<path style="fill:none;stroke:red;stroke-width:1px;stroke-linecap:butt;stroke-linejoin:miter;stroke-opacity:1" d="M 949.661,67.5017 966.824,58.9204 z" id="boundary" inkscape:connector-curvature="0" />
	<path style="fill:none;stroke:red;stroke-width:1px;stroke-linecap:butt;stroke-linejoin:miter;stroke-opacity:1" d="M 966.824,58.9204 983.986,55.4879 z" id="boundary" inkscape:connector-curvature="0" />
	<path style="fill:none;stroke:red;stroke-width:1px;stroke-linecap:butt;stroke-linejoin:miter;stroke-opacity:1" d="M 983.986,55.4879 996,72.6505 z" id="boundary" inkscape:connector-curvature="0" />
	<circle cx="4" cy="815.792" r="4" fill="#0" id="circle0"/>
	<circle cx="21.1626" cy="807.211" r="4" fill="#0" id="circle1"/>
	<circle cx="21.1626" cy="858.699" r="4" fill="#0" id="circle2"/>
	<circle cx="34.8927" cy="844.969" r="4" fill="#0" id="circle3"/>
	<circle cx="38.3253" cy="798.63" r="4" fill="#0" id="circle4"/>
	<circle cx="43.474" cy="827.806" r="4" fill="#0" id="circle5"/>
	<circle cx="46.9066" cy="781.467" r="4" fill="#0" id="circle6"/>
	<circle cx="46.9066" cy="884.443" r="4" fill="#0" id="circle7"/>
	<circle cx="52.0554" cy="844.969" r="4" fill="#0" id="circle8"/>
	<circle cx="55.4879" cy="729.979" r="4" fill="#0" id="circle9"/>
	<circle cx="55.4879" cy="803.779" r="4" fill="#0" id="circle10"/>
	<circle cx="55.4879" cy="867.28" r="4" fill="#0" id="circle11"/>
	<circle cx="57.2042" cy="898.173" r="4" fill="#0" id="circle12"/>
	<circle cx="60.6367" cy="767.737" r="4" fill="#0" id="circle13"/>
	<circle cx="60.6367" cy="829.522" r="4" fill="#0" id="circle14"/>
	<circle cx="65.7855" cy="743.709" r="4" fill="#0" id="circle15"/>
	<circle cx="72.6505" cy="724.83" r="4" fill="#0" id="circle16"/>
	<circle cx="72.6505" cy="850.118" r="4" fill="#0" id="circle17"/>
	<circle cx="74.3668" cy="881.01" r="4" fill="#0" id="circle18"/>
	<circle cx="76.083" cy="820.941" r="4" fill="#0" id="circle19"/>
	<circle cx="77.7993" cy="759.156" r="4" fill="#0" id="circle20"/>
	<circle cx="86.3806" cy="743.709" r="4" fill="#0" id="circle21"/>
	<circle cx="88.0969" cy="716.249" r="4" fill="#0" id="circle22"/>
	<circle cx="88.0969" cy="868.997" r="4" fill="#0" id="circle23"/>
	<circle cx="98.3945" cy="882.727" r="4" fill="#0" id="circle24"/>
	<circle cx="100.111" cy="855.266" r="4" fill="#0" id="circle25"/>
	<circle cx="103.543" cy="707.668" r="4" fill="#0" id="circle26"/>
	<circle cx="115.557" cy="881.01" r="4" fill="#0" id="circle27"/>
	<circle cx="118.99" cy="699.087" r="4" fill="#0" id="circle28"/>
	<circle cx="129.287" cy="870.713" r="4" fill="#0" id="circle29"/>
	<circle cx="132.72" cy="678.491" r="4" fill="#0" id="circle30"/>
	<circle cx="143.017" cy="855.266" r="4" fill="#0" id="circle31"/>
	<circle cx="149.882" cy="669.91" r="4" fill="#0" id="circle32"/>
	<circle cx="160.18" cy="855.266" r="4" fill="#0" id="circle33"/>
	<circle cx="163.612" cy="656.18" r="4" fill="#0" id="circle34"/>
	<circle cx="177.343" cy="846.685" r="4" fill="#0" id="circle35"/>
	<circle cx="180.775" cy="647.599" r="4" fill="#0" id="circle36"/>
	<circle cx="194.505" cy="829.522" r="4" fill="#0" id="circle37"/>
	<circle cx="197.938" cy="639.017" r="4" fill="#0" id="circle38"/>
	<circle cx="206.519" cy="621.855" r="4" fill="#0" id="circle39"/>
	<circle cx="211.668" cy="820.941" r="4" fill="#0" id="circle40"/>
	<circle cx="221.965" cy="613.273" r="4" fill="#0" id="circle41"/>
	<circle cx="228.83" cy="820.941" r="4" fill="#0" id="circle42"/>
	<circle cx="237.412" cy="604.692" r="4" fill="#0" id="circle43"/>
	<circle cx="244.277" cy="812.36" r="4" fill="#0" id="circle44"/>
	<circle cx="252.858" cy="596.111" r="4" fill="#0" id="circle45"/>
	<circle cx="261.439" cy="807.211" r="4" fill="#0" id="circle46"/>
	<circle cx="268.304" cy="587.529" r="4" fill="#0" id="circle47"/>
	<circle cx="278.602" cy="803.779" r="4" fill="#0" id="circle48"/>
	<circle cx="285.467" cy="587.529" r="4" fill="#0" id="circle49"/>
	<circle cx="292.332" cy="570.367" r="4" fill="#0" id="circle50"/>
	<circle cx="295.765" cy="798.63" r="4" fill="#0" id="circle51"/>
	<circle cx="309.495" cy="570.367" r="4" fill="#0" id="circle52"/>
	<circle cx="312.927" cy="795.197" r="4" fill="#0" id="circle53"/>
	<circle cx="324.941" cy="561.785" r="4" fill="#0" id="circle54"/>
	<circle cx="330.09" cy="790.048" r="4" fill="#0" id="circle55"/>
	<circle cx="342.104" cy="554.92" r="4" fill="#0" id="circle56"/>
	<circle cx="343.82" cy="778.035" r="4" fill="#0" id="circle57"/>
	<circle cx="359.266" cy="546.339" r="4" fill="#0" id="circle58"/>
	<circle cx="360.983" cy="778.035" r="4" fill="#0" id="circle59"/>
	<circle cx="376.429" cy="544.623" r="4" fill="#0" id="circle60"/>
	<circle cx="378.145" cy="776.318" r="4" fill="#0" id="circle61"/>
	<circle cx="391.875" cy="536.042" r="4" fill="#0" id="circle62"/>
	<circle cx="395.308" cy="767.737" r="4" fill="#0" id="circle63"/>
	<circle cx="402.173" cy="520.595" r="4" fill="#0" id="circle64"/>
	<circle cx="412.471" cy="759.156" r="4" fill="#0" id="circle65"/>
	<circle cx="419.336" cy="512.014" r="4" fill="#0" id="circle66"/>
	<circle cx="429.633" cy="752.291" r="4" fill="#0" id="circle67"/>
	<circle cx="433.066" cy="438.215" r="4" fill="#0" id="circle68"/>
	<circle cx="436.498" cy="510.298" r="4" fill="#0" id="circle69"/>
	<circle cx="441.647" cy="421.052" r="4" fill="#0" id="circle70"/>
	<circle cx="445.08" cy="743.709" r="4" fill="#0" id="circle71"/>
	<circle cx="450.228" cy="443.363" r="4" fill="#0" id="circle72"/>
	<circle cx="450.228" cy="460.526" r="4" fill="#0" id="circle73"/>
	<circle cx="450.228" cy="477.689" r="4" fill="#0" id="circle74"/>
	<circle cx="451.945" cy="501.716" r="4" fill="#0" id="circle75"/>
	<circle cx="455.377" cy="407.322" r="4" fill="#0" id="circle76"/>
	<circle cx="460.526" cy="726.547" r="4" fill="#0" id="circle77"/>
	<circle cx="472.54" cy="398.74" r="4" fill="#0" id="circle78"/>
	<circle cx="477.689" cy="726.547" r="4" fill="#0" id="circle79"/>
	<circle cx="489.702" cy="398.74" r="4" fill="#0" id="circle80"/>
	<circle cx="491.419" cy="714.533" r="4" fill="#0" id="circle81"/>
	<circle cx="506.865" cy="398.74" r="4" fill="#0" id="circle82"/>
	<circle cx="508.581" cy="705.952" r="4" fill="#0" id="circle83"/>
	<circle cx="520.595" cy="692.221" r="4" fill="#0" id="circle84"/>
	<circle cx="522.311" cy="407.322" r="4" fill="#0" id="circle85"/>
	<circle cx="537.758" cy="415.903" r="4" fill="#0" id="circle86"/>
	<circle cx="537.758" cy="675.059" r="4" fill="#0" id="circle87"/>
	<circle cx="553.204" cy="403.889" r="4" fill="#0" id="circle88"/>
	<circle cx="554.92" cy="657.896" r="4" fill="#0" id="circle89"/>
	<circle cx="563.502" cy="640.734" r="4" fill="#0" id="circle90"/>
	<circle cx="566.934" cy="390.159" r="4" fill="#0" id="circle91"/>
	<circle cx="578.948" cy="649.315" r="4" fill="#0" id="circle92"/>
	<circle cx="582.381" cy="381.578" r="4" fill="#0" id="circle93"/>
	<circle cx="587.529" cy="360.983" r="4" fill="#0" id="circle94"/>
	<circle cx="596.111" cy="649.315" r="4" fill="#0" id="circle95"/>
	<circle cx="601.26" cy="347.253" r="4" fill="#0" id="circle96"/>
	<circle cx="609.841" cy="330.09" r="4" fill="#0" id="circle97"/>
	<circle cx="613.273" cy="649.315" r="4" fill="#0" id="circle98"/>
	<circle cx="618.422" cy="312.927" r="4" fill="#0" id="circle99"/>
	<circle cx="623.571" cy="663.045" r="4" fill="#0" id="circle100"/>
	<circle cx="627.003" cy="295.765" r="4" fill="#0" id="circle101"/>
	<circle cx="640.734" cy="282.035" r="4" fill="#0" id="circle102"/>
	<circle cx="640.734" cy="669.91" r="4" fill="#0" id="circle103"/>
	<circle cx="647.599" cy="258.007" r="4" fill="#0" id="circle104"/>
	<circle cx="647.599" cy="687.073" r="4" fill="#0" id="circle105"/>
	<circle cx="656.18" cy="240.844" r="4" fill="#0" id="circle106"/>
	<circle cx="656.18" cy="702.519" r="4" fill="#0" id="circle107"/>
	<circle cx="664.761" cy="717.965" r="4" fill="#0" id="circle108"/>
	<circle cx="669.91" cy="227.114" r="4" fill="#0" id="circle109"/>
	<circle cx="673.343" cy="733.412" r="4" fill="#0" id="circle110"/>
	<circle cx="675.059" cy="546.339" r="4" fill="#0" id="circle111"/>
	<circle cx="675.059" cy="563.502" r="4" fill="#0" id="circle112"/>
	<circle cx="676.775" cy="750.574" r="4" fill="#0" id="circle113"/>
	<circle cx="678.491" cy="209.952" r="4" fill="#0" id="circle114"/>
	<circle cx="688.789" cy="573.799" r="4" fill="#0" id="circle115"/>
	<circle cx="692.221" cy="537.758" r="4" fill="#0" id="circle116"/>
	<circle cx="692.221" cy="590.962" r="4" fill="#0" id="circle117"/>
	<circle cx="693.938" cy="757.439" r="4" fill="#0" id="circle118"/>
	<circle cx="695.654" cy="201.37" r="4" fill="#0" id="circle119"/>
	<circle cx="700.803" cy="774.602" r="4" fill="#0" id="circle120"/>
	<circle cx="702.519" cy="604.692" r="4" fill="#0" id="circle121"/>
	<circle cx="709.384" cy="187.64" r="4" fill="#0" id="circle122"/>
	<circle cx="709.384" cy="520.595" r="4" fill="#0" id="circle123"/>
	<circle cx="709.384" cy="790.048" r="4" fill="#0" id="circle124"/>
	<circle cx="716.249" cy="616.706" r="4" fill="#0" id="circle125"/>
	<circle cx="716.249" cy="807.211" r="4" fill="#0" id="circle126"/>
	<circle cx="723.114" cy="175.626" r="4" fill="#0" id="circle127"/>
	<circle cx="723.114" cy="508.581" r="4" fill="#0" id="circle128"/>
	<circle cx="726.547" cy="630.436" r="4" fill="#0" id="circle129"/>
	<circle cx="729.979" cy="158.464" r="4" fill="#0" id="circle130"/>
	<circle cx="729.979" cy="819.225" r="4" fill="#0" id="circle131"/>
	<circle cx="740.277" cy="500" r="4" fill="#0" id="circle132"/>
	<circle cx="740.277" cy="640.734" r="4" fill="#0" id="circle133"/>
	<circle cx="747.142" cy="149.882" r="4" fill="#0" id="circle134"/>
	<circle cx="747.142" cy="819.225" r="4" fill="#0" id="circle135"/>
	<circle cx="755.723" cy="649.315" r="4" fill="#0" id="circle136"/>
	<circle cx="757.439" cy="491.419" r="4" fill="#0" id="circle137"/>
	<circle cx="760.872" cy="136.152" r="4" fill="#0" id="circle138"/>
	<circle cx="760.872" cy="469.107" r="4" fill="#0" id="circle139"/>
	<circle cx="764.304" cy="810.644" r="4" fill="#0" id="circle140"/>
	<circle cx="767.737" cy="112.125" r="4" fill="#0" id="circle141"/>
	<circle cx="769.453" cy="661.329" r="4" fill="#0" id="circle142"/>
	<circle cx="774.602" cy="457.093" r="4" fill="#0" id="circle143"/>
	<circle cx="778.035" cy="795.197" r="4" fill="#0" id="circle144"/>
	<circle cx="781.467" cy="98.3945" r="4" fill="#0" id="circle145"/>
	<circle cx="783.183" cy="673.343" r="4" fill="#0" id="circle146"/>
	<circle cx="784.9" cy="443.363" r="4" fill="#0" id="circle147"/>
	<circle cx="795.197" cy="687.073" r="4" fill="#0" id="circle148"/>
	<circle cx="795.197" cy="769.453" r="4" fill="#0" id="circle149"/>
	<circle cx="795.197" cy="786.616" r="4" fill="#0" id="circle150"/>
	<circle cx="798.63" cy="89.8131" r="4" fill="#0" id="circle151"/>
	<circle cx="798.63" cy="433.066" r="4" fill="#0" id="circle152"/>
	<circle cx="803.779" cy="409.038" r="4" fill="#0" id="circle153"/>
	<circle cx="810.644" cy="695.654" r="4" fill="#0" id="circle154"/>
	<circle cx="812.36" cy="76.083" r="4" fill="#0" id="circle155"/>
	<circle cx="812.36" cy="769.453" r="4" fill="#0" id="circle156"/>
	<circle cx="817.509" cy="397.024" r="4" fill="#0" id="circle157"/>
	<circle cx="820.941" cy="58.9204" r="4" fill="#0" id="circle158"/>
	<circle cx="824.374" cy="707.668" r="4" fill="#0" id="circle159"/>
	<circle cx="826.09" cy="757.439" r="4" fill="#0" id="circle160"/>
	<circle cx="829.522" cy="366.131" r="4" fill="#0" id="circle161"/>
	<circle cx="829.522" cy="383.294" r="4" fill="#0" id="circle162"/>
	<circle cx="834.671" cy="46.9066" r="4" fill="#0" id="circle163"/>
	<circle cx="836.388" cy="743.709" r="4" fill="#0" id="circle164"/>
	<circle cx="839.82" cy="716.249" r="4" fill="#0" id="circle165"/>
	<circle cx="846.685" cy="331.806" r="4" fill="#0" id="circle166"/>
	<circle cx="846.685" cy="348.969" r="4" fill="#0" id="circle167"/>
	<circle cx="850.118" cy="55.4879" r="4" fill="#0" id="circle168"/>
	<circle cx="855.266" cy="314.644" r="4" fill="#0" id="circle169"/>
	<circle cx="863.848" cy="297.481" r="4" fill="#0" id="circle170"/>
	<circle cx="867.28" cy="55.4879" r="4" fill="#0" id="circle171"/>
	<circle cx="872.429" cy="254.574" r="4" fill="#0" id="circle172"/>
	<circle cx="872.429" cy="271.737" r="4" fill="#0" id="circle173"/>
	<circle cx="881.01" cy="41.7578" r="4" fill="#0" id="circle174"/>
	<circle cx="887.875" cy="245.993" r="4" fill="#0" id="circle175"/>
	<circle cx="898.173" cy="33.1765" r="4" fill="#0" id="circle176"/>
	<circle cx="898.173" cy="228.83" r="4" fill="#0" id="circle177"/>
	<circle cx="906.754" cy="211.668" r="4" fill="#0" id="circle178"/>
	<circle cx="911.903" cy="21.1626" r="4" fill="#0" id="circle179"/>
	<circle cx="915.336" cy="38.3253" r="4" fill="#0" id="circle180"/>
	<circle cx="915.336" cy="185.924" r="4" fill="#0" id="circle181"/>
	<circle cx="918.768" cy="4" r="4" fill="#0" id="circle182"/>
	<circle cx="932.498" cy="38.3253" r="4" fill="#0" id="circle183"/>
	<circle cx="932.498" cy="160.18" r="4" fill="#0" id="circle184"/>
	<circle cx="932.498" cy="177.343" r="4" fill="#0" id="circle185"/>
	<circle cx="949.661" cy="33.1765" r="4" fill="#0" id="circle186"/>
	<circle cx="949.661" cy="50.3391" r="4" fill="#0" id="circle187"/>
	<circle cx="949.661" cy="67.5017" r="4" fill="#0" id="circle188"/>
	<circle cx="949.661" cy="100.111" r="4" fill="#0" id="circle189"/>
	<circle cx="949.661" cy="143.017" r="4" fill="#0" id="circle190"/>
	<circle cx="963.391" cy="131.003" r="4" fill="#0" id="circle191"/>
	<circle cx="965.107" cy="91.5294" r="4" fill="#0" id="circle192"/>
	<circle cx="966.824" cy="34.8927" r="4" fill="#0" id="circle193"/>
	<circle cx="966.824" cy="58.9204" r="4" fill="#0" id="circle194"/>
	<circle cx="973.689" cy="106.976" r="4" fill="#0" id="circle195"/>
	<circle cx="978.837" cy="81.2318" r="4" fill="#0" id="circle196"/>
	<circle cx="980.554" cy="124.138" r="4" fill="#0" id="circle197"/>
	<circle cx="983.986" cy="55.4879" r="4" fill="#0" id="circle198"/>
	<circle cx="996" cy="72.6505" r="4" fill="#0" id="circle199"/>
	</g>
</svg>