<?xml version="1.0" encoding="UTF-8" standalone="no"?>
<!-- Created with CurveBenchmark -->
<svg
	xmlns:dc="http://purl.org/dc/elements/1.1/"
	xmlns:cc="http://creativecommons.org/ns#"
	xmlns:rdf="http://www.w3.org/1999/02/22-rdf-syntax-ns#"
	xmlns:svg="http://www.w3.org/2000/svg"
	xmlns="http://www.w3.org/2000/svg"
	xmlns:sodipodi="http://sodipodi.sourceforge.net/DTD/sodipodi-0.dtd"
	xmlns:inkscape="http://www.inkscape.org/namespaces/inkscape"
	width="1000"
	height="1000"
	id="svg2"
	version="1.1"
	sodipodi:docname="manifold/connect2d-guitar300.png.txt">
<defs
	id="defs4" />
<metadata
	id="metadata7">
	<rdf:RDF>
		<cc:Work
			rdf:about="">
			<dc:format>image/svg+xml</dc:format>
			<dc:type
				rdf:resource="http://purl.org/dc/dcmitype/StillImage" />
			<dc:title></dc:title>
		</cc:Work>
	</rdf:RDF>
</metadata>
<g
	inkscape:label="Layer 1"
	inkscape:groupmode="layer"
	id="layer1">
	<path style="fill:none;stroke:red;stroke-width:1px;stroke-linecap:butt;stroke-linejoin:miter;stroke-opacity:1" d="M 280.919,831.251 273.908,894.346 z" id="boundary" inkscape:connector-curvature="0" />
	<path style="fill:none;stroke:red;stroke-width:1px;stroke-linecap:butt;stroke-linejoin:miter;stroke-opacity:1" d="M 273.908,894.346 259.887,929.399 z" id="boundary" inkscape:connector-curvature="0" />
	<path style="fill:none;stroke:red;stroke-width:1px;stroke-linecap:butt;stroke-linejoin:miter;stroke-opacity:1" d="M 259.887,929.399 242.36,960.947 z" id="boundary" inkscape:connector-curvature="0" />
	<path style="fill:none;stroke:red;stroke-width:1px;stroke-linecap:butt;stroke-linejoin:miter;stroke-opacity:1" d="M 242.36,960.947 214.318,981.979 z" id="boundary" inkscape:connector-curvature="0" />
	<path style="fill:none;stroke:red;stroke-width:1px;stroke-linecap:butt;stroke-linejoin:miter;stroke-opacity:1" d="M 214.318,981.979 179.265,988.989 z" id="boundary" inkscape:connector-curvature="0" />
	<path style="fill:none;stroke:red;stroke-width:1px;stroke-linecap:butt;stroke-linejoin:miter;stroke-opacity:1" d="M 179.265,988.989 144.212,996 z" id="boundary" inkscape:connector-curvature="0" />
	<path style="fill:none;stroke:red;stroke-width:1px;stroke-linecap:butt;stroke-linejoin:miter;stroke-opacity:1" d="M 144.212,996 109.159,988.989 z" id="boundary" inkscape:connector-curvature="0" />
	<path style="fill:none;stroke:red;stroke-width:1px;stroke-linecap:butt;stroke-linejoin:miter;stroke-opacity:1" d="M 109.159,988.989 74.106,985.484 z" id="boundary" inkscape:connector-curvature="0" />
	<path style="fill:none;stroke:red;stroke-width:1px;stroke-linecap:butt;stroke-linejoin:miter;stroke-opacity:1" d="M 74.106,985.484 46.0636,964.452 z" id="boundary" inkscape:connector-curvature="0" />
	<path style="fill:none;stroke:red;stroke-width:1px;stroke-linecap:butt;stroke-linejoin:miter;stroke-opacity:1" d="M 46.0636,964.452 25.0318,936.41 z" id="boundary" inkscape:connector-curvature="0" />
	<path style="fill:none;stroke:red;stroke-width:1px;stroke-linecap:butt;stroke-linejoin:miter;stroke-opacity:1" d="M 25.0318,936.41 11.0106,901.357 z" id="boundary" inkscape:connector-curvature="0" />
	<path style="fill:none;stroke:red;stroke-width:1px;stroke-linecap:butt;stroke-linejoin:miter;stroke-opacity:1" d="M 11.0106,901.357 4,866.304 z" id="boundary" inkscape:connector-curvature="0" />
	<path style="fill:none;stroke:red;stroke-width:1px;stroke-linecap:butt;stroke-linejoin:miter;stroke-opacity:1" d="M 4,866.304 4,831.251 z" id="boundary" inkscape:connector-curvature="0" />
	<path style="fill:none;stroke:red;stroke-width:1px;stroke-linecap:butt;stroke-linejoin:miter;stroke-opacity:1" d="M 4,831.251 4,796.198 z" id="boundary" inkscape:connector-curvature="0" />
	<path style="fill:none;stroke:red;stroke-width:1px;stroke-linecap:butt;stroke-linejoin:miter;stroke-opacity:1" d="M 4,796.198 18.0212,747.124 z" id="boundary" inkscape:connector-curvature="0" />
	<path style="fill:none;stroke:red;stroke-width:1px;stroke-linecap:butt;stroke-linejoin:miter;stroke-opacity:1" d="M 18.0212,747.124 32.0424,705.06 z" id="boundary" inkscape:connector-curvature="0" />
	<path style="fill:none;stroke:red;stroke-width:1px;stroke-linecap:butt;stroke-linejoin:miter;stroke-opacity:1" d="M 32.0424,705.06 39.053,670.007 z" id="boundary" inkscape:connector-curvature="0" />
	<path style="fill:none;stroke:red;stroke-width:1px;stroke-linecap:butt;stroke-linejoin:miter;stroke-opacity:1" d="M 39.053,670.007 35.5477,634.954 z" id="boundary" inkscape:connector-curvature="0" />
	<path style="fill:none;stroke:red;stroke-width:1px;stroke-linecap:butt;stroke-linejoin:miter;stroke-opacity:1" d="M 35.5477,634.954 28.5371,599.901 z" id="boundary" inkscape:connector-curvature="0" />
	<path style="fill:none;stroke:red;stroke-width:1px;stroke-linecap:butt;stroke-linejoin:miter;stroke-opacity:1" d="M 28.5371,599.901 25.0318,564.848 z" id="boundary" inkscape:connector-curvature="0" />
	<path style="fill:none;stroke:red;stroke-width:1px;stroke-linecap:butt;stroke-linejoin:miter;stroke-opacity:1" d="M 25.0318,564.848 39.053,522.784 z" id="boundary" inkscape:connector-curvature="0" />
	<path style="fill:none;stroke:red;stroke-width:1px;stroke-linecap:butt;stroke-linejoin:miter;stroke-opacity:1" d="M 39.053,522.784 67.0954,501.753 z" id="boundary" inkscape:connector-curvature="0" />
	<path style="fill:none;stroke:red;stroke-width:1px;stroke-linecap:butt;stroke-linejoin:miter;stroke-opacity:1" d="M 67.0954,501.753 81.1166,438.657 z" id="boundary" inkscape:connector-curvature="0" />
	<path style="fill:none;stroke:red;stroke-width:1px;stroke-linecap:butt;stroke-linejoin:miter;stroke-opacity:1" d="M 81.1166,438.657 81.1166,403.604 z" id="boundary" inkscape:connector-curvature="0" />
	<path style="fill:none;stroke:red;stroke-width:1px;stroke-linecap:butt;stroke-linejoin:miter;stroke-opacity:1" d="M 81.1166,403.604 81.1166,368.551 z" id="boundary" inkscape:connector-curvature="0" />
	<path style="fill:none;stroke:red;stroke-width:1px;stroke-linecap:butt;stroke-linejoin:miter;stroke-opacity:1" d="M 81.1166,368.551 81.1166,333.498 z" id="boundary" inkscape:connector-curvature="0" />
	<path style="fill:none;stroke:red;stroke-width:1px;stroke-linecap:butt;stroke-linejoin:miter;stroke-opacity:1" d="M 81.1166,333.498 81.1166,277.413 z" id="boundary" inkscape:connector-curvature="0" />
	<path style="fill:none;stroke:red;stroke-width:1px;stroke-linecap:butt;stroke-linejoin:miter;stroke-opacity:1" d="M 81.1166,277.413 88.1272,242.36 z" id="boundary" inkscape:connector-curvature="0" />
	<path style="fill:none;stroke:red;stroke-width:1px;stroke-linecap:butt;stroke-linejoin:miter;stroke-opacity:1" d="M 88.1272,242.36 88.1272,207.307 z" id="boundary" inkscape:connector-curvature="0" />
	<path style="fill:none;stroke:red;stroke-width:1px;stroke-linecap:butt;stroke-linejoin:miter;stroke-opacity:1" d="M 88.1272,207.307 88.1272,172.254 z" id="boundary" inkscape:connector-curvature="0" />
	<path style="fill:none;stroke:red;stroke-width:1px;stroke-linecap:butt;stroke-linejoin:miter;stroke-opacity:1" d="M 88.1272,172.254 88.1272,137.201 z" id="boundary" inkscape:connector-curvature="0" />
	<path style="fill:none;stroke:red;stroke-width:1px;stroke-linecap:butt;stroke-linejoin:miter;stroke-opacity:1" d="M 88.1272,137.201 88.1272,102.148 z" id="boundary" inkscape:connector-curvature="0" />
	<path style="fill:none;stroke:red;stroke-width:1px;stroke-linecap:butt;stroke-linejoin:miter;stroke-opacity:1" d="M 88.1272,102.148 102.148,60.0848 z" id="boundary" inkscape:connector-curvature="0" />
	<path style="fill:none;stroke:red;stroke-width:1px;stroke-linecap:butt;stroke-linejoin:miter;stroke-opacity:1" d="M 102.148,60.0848 109.159,25.0318 z" id="boundary" inkscape:connector-curvature="0" />
	<path style="fill:none;stroke:red;stroke-width:1px;stroke-linecap:butt;stroke-linejoin:miter;stroke-opacity:1" d="M 109.159,25.0318 137.201,4 z" id="boundary" inkscape:connector-curvature="0" />
	<path style="fill:none;stroke:red;stroke-width:1px;stroke-linecap:butt;stroke-linejoin:miter;stroke-opacity:1" d="M 137.201,4 154.728,46.0636 z" id="boundary" inkscape:connector-curvature="0" />
	<path style="fill:none;stroke:red;stroke-width:1px;stroke-linecap:butt;stroke-linejoin:miter;stroke-opacity:1" d="M 154.728,46.0636 140.707,81.1166 z" id="boundary" inkscape:connector-curvature="0" />
	<path style="fill:none;stroke:red;stroke-width:1px;stroke-linecap:butt;stroke-linejoin:miter;stroke-opacity:1" d="M 140.707,81.1166 130.191,119.675 z" id="boundary" inkscape:connector-curvature="0" />
	<path style="fill:none;stroke:red;stroke-width:1px;stroke-linecap:butt;stroke-linejoin:miter;stroke-opacity:1" d="M 130.191,119.675 119.675,154.728 z" id="boundary" inkscape:connector-curvature="0" />
	<path style="fill:none;stroke:red;stroke-width:1px;stroke-linecap:butt;stroke-linejoin:miter;stroke-opacity:1" d="M 119.675,154.728 119.675,189.781 z" id="boundary" inkscape:connector-curvature="0" />
	<path style="fill:none;stroke:red;stroke-width:1px;stroke-linecap:butt;stroke-linejoin:miter;stroke-opacity:1" d="M 119.675,189.781 119.675,224.834 z" id="boundary" inkscape:connector-curvature="0" />
	<path style="fill:none;stroke:red;stroke-width:1px;stroke-linecap:butt;stroke-linejoin:miter;stroke-opacity:1" d="M 119.675,224.834 119.675,259.887 z" id="boundary" inkscape:connector-curvature="0" />
	<path style="fill:none;stroke:red;stroke-width:1px;stroke-linecap:butt;stroke-linejoin:miter;stroke-opacity:1" d="M 119.675,259.887 119.675,294.94 z" id="boundary" inkscape:connector-curvature="0" />
	<path style="fill:none;stroke:red;stroke-width:1px;stroke-linecap:butt;stroke-linejoin:miter;stroke-opacity:1" d="M 119.675,294.94 119.675,329.993 z" id="boundary" inkscape:connector-curvature="0" />
	<path style="fill:none;stroke:red;stroke-width:1px;stroke-linecap:butt;stroke-linejoin:miter;stroke-opacity:1" d="M 119.675,329.993 126.686,365.046 z" id="boundary" inkscape:connector-curvature="0" />
	<path style="fill:none;stroke:red;stroke-width:1px;stroke-linecap:butt;stroke-linejoin:miter;stroke-opacity:1" d="M 126.686,365.046 126.686,400.099 z" id="boundary" inkscape:connector-curvature="0" />
	<path style="fill:none;stroke:red;stroke-width:1px;stroke-linecap:butt;stroke-linejoin:miter;stroke-opacity:1" d="M 126.686,400.099 126.686,435.152 z" id="boundary" inkscape:connector-curvature="0" />
	<path style="fill:none;stroke:red;stroke-width:1px;stroke-linecap:butt;stroke-linejoin:miter;stroke-opacity:1" d="M 126.686,435.152 140.707,470.205 z" id="boundary" inkscape:connector-curvature="0" />
	<path style="fill:none;stroke:red;stroke-width:1px;stroke-linecap:butt;stroke-linejoin:miter;stroke-opacity:1" d="M 140.707,470.205 175.76,480.721 z" id="boundary" inkscape:connector-curvature="0" />
	<path style="fill:none;stroke:red;stroke-width:1px;stroke-linecap:butt;stroke-linejoin:miter;stroke-opacity:1" d="M 175.76,480.721 203.802,501.753 z" id="boundary" inkscape:connector-curvature="0" />
	<path style="fill:none;stroke:red;stroke-width:1px;stroke-linecap:butt;stroke-linejoin:miter;stroke-opacity:1" d="M 203.802,501.753 203.802,536.806 z" id="boundary" inkscape:connector-curvature="0" />
	<path style="fill:none;stroke:red;stroke-width:1px;stroke-linecap:butt;stroke-linejoin:miter;stroke-opacity:1" d="M 203.802,536.806 238.855,543.816 z" id="boundary" inkscape:connector-curvature="0" />
	<path style="fill:none;stroke:red;stroke-width:1px;stroke-linecap:butt;stroke-linejoin:miter;stroke-opacity:1" d="M 238.855,543.816 259.887,571.859 z" id="boundary" inkscape:connector-curvature="0" />
	<path style="fill:none;stroke:red;stroke-width:1px;stroke-linecap:butt;stroke-linejoin:miter;stroke-opacity:1" d="M 259.887,571.859 252.876,620.933 z" id="boundary" inkscape:connector-curvature="0" />
	<path style="fill:none;stroke:red;stroke-width:1px;stroke-linecap:butt;stroke-linejoin:miter;stroke-opacity:1" d="M 252.876,620.933 245.866,655.986 z" id="boundary" inkscape:connector-curvature="0" />
	<path style="fill:none;stroke:red;stroke-width:1px;stroke-linecap:butt;stroke-linejoin:miter;stroke-opacity:1" d="M 245.866,655.986 252.876,691.039 z" id="boundary" inkscape:connector-curvature="0" />
	<path style="fill:none;stroke:red;stroke-width:1px;stroke-linecap:butt;stroke-linejoin:miter;stroke-opacity:1" d="M 252.876,691.039 259.887,726.092 z" id="boundary" inkscape:connector-curvature="0" />
	<path style="fill:none;stroke:red;stroke-width:1px;stroke-linecap:butt;stroke-linejoin:miter;stroke-opacity:1" d="M 259.887,726.092 270.403,761.145 z" id="boundary" inkscape:connector-curvature="0" />
	<path style="fill:none;stroke:red;stroke-width:1px;stroke-linecap:butt;stroke-linejoin:miter;stroke-opacity:1" d="M 270.403,761.145 280.919,796.198 z" id="boundary" inkscape:connector-curvature="0" />
	<path style="fill:none;stroke:red;stroke-width:1px;stroke-linecap:butt;stroke-linejoin:miter;stroke-opacity:1" d="M 280.919,796.198 280.919,831.251 z" id="boundary" inkscape:connector-curvature="0" />
	<circle cx="4" cy="796.198" r="4" fill="#0" id="circle0"/>
	<circle cx="4" cy="831.251" r="4" fill="#0" id="circle1"/>
	<circle cx="4" cy="866.304" r="4" fill="#0" id="circle2"/>
	<circle cx="11.0106" cy="901.357" r="4" fill="#0" id="circle3"/>
	<circle cx="18.0212" cy="747.124" r="4" fill="#0" id="circle4"/>
	<circle cx="25.0318" cy="564.848" r="4" fill="#0" id="circle5"/>
	<circle cx="25.0318" cy="936.41" r="4" fill="#0" id="circle6"/>
	<circle cx="28.5371" cy="599.901" r="4" fill="#0" id="circle7"/>
	<circle cx="32.0424" cy="705.06" r="4" fill="#0" id="circle8"/>
	<circle cx="35.5477" cy="634.954" r="4" fill="#0" id="circle9"/>
	<circle cx="39.053" cy="522.784" r="4" fill="#0" id="circle10"/>
	<circle cx="39.053" cy="670.007" r="4" fill="#0" id="circle11"/>
	<circle cx="46.0636" cy="964.452" r="4" fill="#0" id="circle12"/>
	<circle cx="67.0954" cy="501.753" r="4" fill="#0" id="circle13"/>
	<circle cx="74.106" cy="985.484" r="4" fill="#0" id="circle14"/>
	<circle cx="81.1166" cy="277.413" r="4" fill="#0" id="circle15"/>
	<circle cx="81.1166" cy="333.498" r="4" fill="#0" id="circle16"/>
	<circle cx="81.1166" cy="368.551" r="4" fill="#0" id="circle17"/>
	<circle cx="81.1166" cy="403.604" r="4" fill="#0" id="circle18"/>
	<circle cx="81.1166" cy="438.657" r="4" fill="#0" id="circle19"/>
	<circle cx="88.1272" cy="102.148" r="4" fill="#0" id="circle20"/>
	<circle cx="88.1272" cy="137.201" r="4" fill="#0" id="circle21"/>
	<circle cx="88.1272" cy="172.254" r="4" fill="#0" id="circle22"/>
	<circle cx="88.1272" cy="207.307" r="4" fill="#0" id="circle23"/>
	<circle cx="88.1272" cy="242.36" r="4" fill="#0" id="circle24"/>
	<circle cx="102.148" cy="60.0848" r="4" fill="#0" id="circle25"/>
	<circle cx="109.159" cy="25.0318" r="4" fill="#0" id="circle26"/>
	<circle cx="109.159" cy="988.989" r="4" fill="#0" id="circle27"/>
	<circle cx="119.675" cy="154.728" r="4" fill="#0" id="circle28"/>
	<circle cx="119.675" cy="189.781" r="4" fill="#0" id="circle29"/>
	<circle cx="119.675" cy="224.834" r="4" fill="#0" id="circle30"/>
	<circle cx="119.675" cy="259.887" r="4" fill="#0" id="circle31"/>
	<circle cx="119.675" cy="294.94" r="4" fill="#0" id="circle32"/>
	<circle cx="119.675" cy="329.993" r="4" fill="#0" id="circle33"/>
	<circle cx="126.686" cy="365.046" r="4" fill="#0" id="circle34"/>
	<circle cx="126.686" cy="400.099" r="4" fill="#0" id="circle35"/>
	<circle cx="126.686" cy="435.152" r="4" fill="#0" id="circle36"/>
	<circle cx="130.191" cy="119.675" r="4" fill="#0" id="circle37"/>
	<circle cx="137.201" cy="4" r="4" fill="#0" id="circle38"/>
	<circle cx="140.707" cy="81.1166" r="4" fill="#0" id="circle39"/>
	<circle cx="140.707" cy="470.205" r="4" fill="#0" id="circle40"/>
	<circle cx="144.212" cy="996" r="4" fill="#0" id="circle41"/>
	<circle cx="154.728" cy="46.0636" r="4" fill="#0" id="circle42"/>
	<circle cx="175.76" cy="480.721" r="4" fill="#0" id="circle43"/>
	<circle cx="179.265" cy="988.989" r="4" fill="#0" id="circle44"/>
	<circle cx="203.802" cy="501.753" r="4" fill="#0" id="circle45"/>
	<circle cx="203.802" cy="536.806" r="4" fill="#0" id="circle46"/>
	<circle cx="214.318" cy="981.979" r="4" fill="#0" id="circle47"/>
	<circle cx="238.855" cy="543.816" r="4" fill="#0" id="circle48"/>
	<circle cx="242.36" cy="960.947" r="4" fill="#0" id="circle49"/>
	<circle cx="245.866" cy="655.986" r="4" fill="#0" id="circle50"/>
	<circle cx="252.876" cy="620.933" r="4" fill="#0" id="circle51"/>
	<circle cx="252.876" cy="691.039" r="4" fill="#0" id="circle52"/>
	<circle cx="259.887" cy="571.859" r="4" fill="#0" id="circle53"/>
	<circle cx="259.887" cy="726.092" r="4" fill="#0" id="circle54"/>
	<circle cx="259.887" cy="929.399" r="4" fill="#0" id="circle55"/>
	<circle cx="270.403" cy="761.145" r="4" fill="#0" id="circle56"/>
	<circle cx="273.908" cy="894.346" r="4" fill="#0" id="circle57"/>
	<circle cx="280.919" cy="796.198" r="4" fill="#0" id="circle58"/>
	<circle cx="280.919" cy="831.251" r="4" fill="#0" id="circle59"/>
	</g>
</svg>