<?xml version="1.0" encoding="UTF-8" standalone="no"?>
<!-- Created with CurveBenchmark -->
<svg
	xmlns:dc="http://purl.org/dc/elements/1.1/"
	xmlns:cc="http://creativecommons.org/ns#"
	xmlns:rdf="http://www.w3.org/1999/02/22-rdf-syntax-ns#"
	xmlns:svg="http://www.w3.org/2000/svg"
	xmlns="http://www.w3.org/2000/svg"
	xmlns:sodipodi="http://sodipodi.sourceforge.net/DTD/sodipodi-0.dtd"
	xmlns:inkscape="http://www.inkscape.org/namespaces/inkscape"
	width="1000"
	height="1000"
	id="svg2"
	version="1.1"
	sodipodi:docname="manifold/connect2d-textbox32.png.txt">
<defs
	id="defs4" />
<metadata
	id="metadata7">
	<rdf:RDF>
		<cc:Work
			rdf:about="">
			<dc:format>image/svg+xml</dc:format>
			<dc:type
				rdf:resource="http://purl.org/dc/dcmitype/StillImage" />
			<dc:title></dc:title>
		</cc:Work>
	</rdf:RDF>
</metadata>
<g
	inkscape:label="Layer 1"
	inkscape:groupmode="layer"
	id="layer1">
	<path style="fill:none;stroke:red;stroke-width:1px;stroke-linecap:butt;stroke-linejoin:miter;stroke-opacity:1" d="M 996,298.388 996,316.23 z" id="boundary" inkscape:connector-curvature="0" />
	<path style="fill:none;stroke:red;stroke-width:1px;stroke-linecap:butt;stroke-linejoin:miter;stroke-opacity:1" d="M 996,316.23 978.158,326.935 z" id="boundary" inkscape:connector-curvature="0" />
	<path style="fill:none;stroke:red;stroke-width:1px;stroke-linecap:butt;stroke-linejoin:miter;stroke-opacity:1" d="M 978.158,326.935 978.158,344.777 z" id="boundary" inkscape:connector-curvature="0" />
	<path style="fill:none;stroke:red;stroke-width:1px;stroke-linecap:butt;stroke-linejoin:miter;stroke-opacity:1" d="M 978.158,344.777 969.237,371.54 z" id="boundary" inkscape:connector-curvature="0" />
	<path style="fill:none;stroke:red;stroke-width:1px;stroke-linecap:butt;stroke-linejoin:miter;stroke-opacity:1" d="M 969.237,371.54 958.532,398.302 z" id="boundary" inkscape:connector-curvature="0" />
	<path style="fill:none;stroke:red;stroke-width:1px;stroke-linecap:butt;stroke-linejoin:miter;stroke-opacity:1" d="M 958.532,398.302 942.475,407.223 z" id="boundary" inkscape:connector-curvature="0" />
	<path style="fill:none;stroke:red;stroke-width:1px;stroke-linecap:butt;stroke-linejoin:miter;stroke-opacity:1" d="M 942.475,407.223 931.77,433.986 z" id="boundary" inkscape:connector-curvature="0" />
	<path style="fill:none;stroke:red;stroke-width:1px;stroke-linecap:butt;stroke-linejoin:miter;stroke-opacity:1" d="M 931.77,433.986 921.065,448.259 z" id="boundary" inkscape:connector-curvature="0" />
	<path style="fill:none;stroke:red;stroke-width:1px;stroke-linecap:butt;stroke-linejoin:miter;stroke-opacity:1" d="M 921.065,448.259 906.791,460.748 z" id="boundary" inkscape:connector-curvature="0" />
	<path style="fill:none;stroke:red;stroke-width:1px;stroke-linecap:butt;stroke-linejoin:miter;stroke-opacity:1" d="M 906.791,460.748 896.086,478.59 z" id="boundary" inkscape:connector-curvature="0" />
	<path style="fill:none;stroke:red;stroke-width:1px;stroke-linecap:butt;stroke-linejoin:miter;stroke-opacity:1" d="M 896.086,478.59 878.245,482.158 z" id="boundary" inkscape:connector-curvature="0" />
	<path style="fill:none;stroke:red;stroke-width:1px;stroke-linecap:butt;stroke-linejoin:miter;stroke-opacity:1" d="M 878.245,482.158 860.403,487.511 z" id="boundary" inkscape:connector-curvature="0" />
	<path style="fill:none;stroke:red;stroke-width:1px;stroke-linecap:butt;stroke-linejoin:miter;stroke-opacity:1" d="M 860.403,487.511 844.345,496.432 z" id="boundary" inkscape:connector-curvature="0" />
	<path style="fill:none;stroke:red;stroke-width:1px;stroke-linecap:butt;stroke-linejoin:miter;stroke-opacity:1" d="M 844.345,496.432 826.504,496.432 z" id="boundary" inkscape:connector-curvature="0" />
	<path style="fill:none;stroke:red;stroke-width:1px;stroke-linecap:butt;stroke-linejoin:miter;stroke-opacity:1" d="M 826.504,496.432 817.583,514.273 z" id="boundary" inkscape:connector-curvature="0" />
	<path style="fill:none;stroke:red;stroke-width:1px;stroke-linecap:butt;stroke-linejoin:miter;stroke-opacity:1" d="M 817.583,514.273 799.741,514.273 z" id="boundary" inkscape:connector-curvature="0" />
	<path style="fill:none;stroke:red;stroke-width:1px;stroke-linecap:butt;stroke-linejoin:miter;stroke-opacity:1" d="M 799.741,514.273 781.899,514.273 z" id="boundary" inkscape:connector-curvature="0" />
	<path style="fill:none;stroke:red;stroke-width:1px;stroke-linecap:butt;stroke-linejoin:miter;stroke-opacity:1" d="M 781.899,514.273 764.058,523.194 z" id="boundary" inkscape:connector-curvature="0" />
	<path style="fill:none;stroke:red;stroke-width:1px;stroke-linecap:butt;stroke-linejoin:miter;stroke-opacity:1" d="M 764.058,523.194 746.216,523.194 z" id="boundary" inkscape:connector-curvature="0" />
	<path style="fill:none;stroke:red;stroke-width:1px;stroke-linecap:butt;stroke-linejoin:miter;stroke-opacity:1" d="M 746.216,523.194 728.374,541.036 z" id="boundary" inkscape:connector-curvature="0" />
	<path style="fill:none;stroke:red;stroke-width:1px;stroke-linecap:butt;stroke-linejoin:miter;stroke-opacity:1" d="M 728.374,541.036 710.532,541.036 z" id="boundary" inkscape:connector-curvature="0" />
	<path style="fill:none;stroke:red;stroke-width:1px;stroke-linecap:butt;stroke-linejoin:miter;stroke-opacity:1" d="M 710.532,541.036 710.532,558.878 z" id="boundary" inkscape:connector-curvature="0" />
	<path style="fill:none;stroke:red;stroke-width:1px;stroke-linecap:butt;stroke-linejoin:miter;stroke-opacity:1" d="M 710.532,558.878 710.532,576.719 z" id="boundary" inkscape:connector-curvature="0" />
	<path style="fill:none;stroke:red;stroke-width:1px;stroke-linecap:butt;stroke-linejoin:miter;stroke-opacity:1" d="M 710.532,576.719 710.532,594.561 z" id="boundary" inkscape:connector-curvature="0" />
	<path style="fill:none;stroke:red;stroke-width:1px;stroke-linecap:butt;stroke-linejoin:miter;stroke-opacity:1" d="M 710.532,594.561 714.101,612.403 z" id="boundary" inkscape:connector-curvature="0" />
	<path style="fill:none;stroke:red;stroke-width:1px;stroke-linecap:butt;stroke-linejoin:miter;stroke-opacity:1" d="M 714.101,612.403 719.453,630.245 z" id="boundary" inkscape:connector-curvature="0" />
	<path style="fill:none;stroke:red;stroke-width:1px;stroke-linecap:butt;stroke-linejoin:miter;stroke-opacity:1" d="M 719.453,630.245 719.453,648.086 z" id="boundary" inkscape:connector-curvature="0" />
	<path style="fill:none;stroke:red;stroke-width:1px;stroke-linecap:butt;stroke-linejoin:miter;stroke-opacity:1" d="M 719.453,648.086 723.022,665.928 z" id="boundary" inkscape:connector-curvature="0" />
	<path style="fill:none;stroke:red;stroke-width:1px;stroke-linecap:butt;stroke-linejoin:miter;stroke-opacity:1" d="M 723.022,665.928 728.374,683.77 z" id="boundary" inkscape:connector-curvature="0" />
	<path style="fill:none;stroke:red;stroke-width:1px;stroke-linecap:butt;stroke-linejoin:miter;stroke-opacity:1" d="M 728.374,683.77 728.374,701.612 z" id="boundary" inkscape:connector-curvature="0" />
	<path style="fill:none;stroke:red;stroke-width:1px;stroke-linecap:butt;stroke-linejoin:miter;stroke-opacity:1" d="M 728.374,701.612 737.295,717.669 z" id="boundary" inkscape:connector-curvature="0" />
	<path style="fill:none;stroke:red;stroke-width:1px;stroke-linecap:butt;stroke-linejoin:miter;stroke-opacity:1" d="M 737.295,717.669 737.295,735.511 z" id="boundary" inkscape:connector-curvature="0" />
	<path style="fill:none;stroke:red;stroke-width:1px;stroke-linecap:butt;stroke-linejoin:miter;stroke-opacity:1" d="M 737.295,735.511 737.295,753.353 z" id="boundary" inkscape:connector-curvature="0" />
	<path style="fill:none;stroke:red;stroke-width:1px;stroke-linecap:butt;stroke-linejoin:miter;stroke-opacity:1" d="M 737.295,753.353 755.137,758.705 z" id="boundary" inkscape:connector-curvature="0" />
	<path style="fill:none;stroke:red;stroke-width:1px;stroke-linecap:butt;stroke-linejoin:miter;stroke-opacity:1" d="M 755.137,758.705 755.137,776.547 z" id="boundary" inkscape:connector-curvature="0" />
	<path style="fill:none;stroke:red;stroke-width:1px;stroke-linecap:butt;stroke-linejoin:miter;stroke-opacity:1" d="M 755.137,776.547 762.273,794.388 z" id="boundary" inkscape:connector-curvature="0" />
	<path style="fill:none;stroke:red;stroke-width:1px;stroke-linecap:butt;stroke-linejoin:miter;stroke-opacity:1" d="M 762.273,794.388 762.273,812.23 z" id="boundary" inkscape:connector-curvature="0" />
	<path style="fill:none;stroke:red;stroke-width:1px;stroke-linecap:butt;stroke-linejoin:miter;stroke-opacity:1" d="M 762.273,812.23 744.432,808.662 z" id="boundary" inkscape:connector-curvature="0" />
	<path style="fill:none;stroke:red;stroke-width:1px;stroke-linecap:butt;stroke-linejoin:miter;stroke-opacity:1" d="M 744.432,808.662 730.158,797.957 z" id="boundary" inkscape:connector-curvature="0" />
	<path style="fill:none;stroke:red;stroke-width:1px;stroke-linecap:butt;stroke-linejoin:miter;stroke-opacity:1" d="M 730.158,797.957 717.669,783.683 z" id="boundary" inkscape:connector-curvature="0" />
	<path style="fill:none;stroke:red;stroke-width:1px;stroke-linecap:butt;stroke-linejoin:miter;stroke-opacity:1" d="M 717.669,783.683 708.748,767.626 z" id="boundary" inkscape:connector-curvature="0" />
	<path style="fill:none;stroke:red;stroke-width:1px;stroke-linecap:butt;stroke-linejoin:miter;stroke-opacity:1" d="M 708.748,767.626 692.691,758.705 z" id="boundary" inkscape:connector-curvature="0" />
	<path style="fill:none;stroke:red;stroke-width:1px;stroke-linecap:butt;stroke-linejoin:miter;stroke-opacity:1" d="M 692.691,758.705 681.986,744.432 z" id="boundary" inkscape:connector-curvature="0" />
	<path style="fill:none;stroke:red;stroke-width:1px;stroke-linecap:butt;stroke-linejoin:miter;stroke-opacity:1" d="M 681.986,744.432 673.065,728.374 z" id="boundary" inkscape:connector-curvature="0" />
	<path style="fill:none;stroke:red;stroke-width:1px;stroke-linecap:butt;stroke-linejoin:miter;stroke-opacity:1" d="M 673.065,728.374 658.791,717.669 z" id="boundary" inkscape:connector-curvature="0" />
	<path style="fill:none;stroke:red;stroke-width:1px;stroke-linecap:butt;stroke-linejoin:miter;stroke-opacity:1" d="M 658.791,717.669 642.734,708.748 z" id="boundary" inkscape:connector-curvature="0" />
	<path style="fill:none;stroke:red;stroke-width:1px;stroke-linecap:butt;stroke-linejoin:miter;stroke-opacity:1" d="M 642.734,708.748 633.813,692.691 z" id="boundary" inkscape:connector-curvature="0" />
	<path style="fill:none;stroke:red;stroke-width:1px;stroke-linecap:butt;stroke-linejoin:miter;stroke-opacity:1" d="M 633.813,692.691 621.324,678.417 z" id="boundary" inkscape:connector-curvature="0" />
	<path style="fill:none;stroke:red;stroke-width:1px;stroke-linecap:butt;stroke-linejoin:miter;stroke-opacity:1" d="M 621.324,678.417 607.05,665.928 z" id="boundary" inkscape:connector-curvature="0" />
	<path style="fill:none;stroke:red;stroke-width:1px;stroke-linecap:butt;stroke-linejoin:miter;stroke-opacity:1" d="M 607.05,665.928 592.777,655.223 z" id="boundary" inkscape:connector-curvature="0" />
	<path style="fill:none;stroke:red;stroke-width:1px;stroke-linecap:butt;stroke-linejoin:miter;stroke-opacity:1" d="M 592.777,655.223 583.856,639.165 z" id="boundary" inkscape:connector-curvature="0" />
	<path style="fill:none;stroke:red;stroke-width:1px;stroke-linecap:butt;stroke-linejoin:miter;stroke-opacity:1" d="M 583.856,639.165 569.583,628.46 z" id="boundary" inkscape:connector-curvature="0" />
	<path style="fill:none;stroke:red;stroke-width:1px;stroke-linecap:butt;stroke-linejoin:miter;stroke-opacity:1" d="M 569.583,628.46 560.662,612.403 z" id="boundary" inkscape:connector-curvature="0" />
	<path style="fill:none;stroke:red;stroke-width:1px;stroke-linecap:butt;stroke-linejoin:miter;stroke-opacity:1" d="M 560.662,612.403 544.604,603.482 z" id="boundary" inkscape:connector-curvature="0" />
	<path style="fill:none;stroke:red;stroke-width:1px;stroke-linecap:butt;stroke-linejoin:miter;stroke-opacity:1" d="M 544.604,603.482 539.252,585.64 z" id="boundary" inkscape:connector-curvature="0" />
	<path style="fill:none;stroke:red;stroke-width:1px;stroke-linecap:butt;stroke-linejoin:miter;stroke-opacity:1" d="M 539.252,585.64 523.194,576.719 z" id="boundary" inkscape:connector-curvature="0" />
	<path style="fill:none;stroke:red;stroke-width:1px;stroke-linecap:butt;stroke-linejoin:miter;stroke-opacity:1" d="M 523.194,576.719 505.353,576.719 z" id="boundary" inkscape:connector-curvature="0" />
	<path style="fill:none;stroke:red;stroke-width:1px;stroke-linecap:butt;stroke-linejoin:miter;stroke-opacity:1" d="M 505.353,576.719 487.511,576.719 z" id="boundary" inkscape:connector-curvature="0" />
	<path style="fill:none;stroke:red;stroke-width:1px;stroke-linecap:butt;stroke-linejoin:miter;stroke-opacity:1" d="M 487.511,576.719 469.669,576.719 z" id="boundary" inkscape:connector-curvature="0" />
	<path style="fill:none;stroke:red;stroke-width:1px;stroke-linecap:butt;stroke-linejoin:miter;stroke-opacity:1" d="M 469.669,576.719 451.827,576.719 z" id="boundary" inkscape:connector-curvature="0" />
	<path style="fill:none;stroke:red;stroke-width:1px;stroke-linecap:butt;stroke-linejoin:miter;stroke-opacity:1" d="M 451.827,576.719 433.986,576.719 z" id="boundary" inkscape:connector-curvature="0" />
	<path style="fill:none;stroke:red;stroke-width:1px;stroke-linecap:butt;stroke-linejoin:miter;stroke-opacity:1" d="M 433.986,576.719 426.849,594.561 z" id="boundary" inkscape:connector-curvature="0" />
	<path style="fill:none;stroke:red;stroke-width:1px;stroke-linecap:butt;stroke-linejoin:miter;stroke-opacity:1" d="M 426.849,594.561 410.791,603.482 z" id="boundary" inkscape:connector-curvature="0" />
	<path style="fill:none;stroke:red;stroke-width:1px;stroke-linecap:butt;stroke-linejoin:miter;stroke-opacity:1" d="M 410.791,603.482 401.871,619.54 z" id="boundary" inkscape:connector-curvature="0" />
	<path style="fill:none;stroke:red;stroke-width:1px;stroke-linecap:butt;stroke-linejoin:miter;stroke-opacity:1" d="M 401.871,619.54 387.597,630.245 z" id="boundary" inkscape:connector-curvature="0" />
	<path style="fill:none;stroke:red;stroke-width:1px;stroke-linecap:butt;stroke-linejoin:miter;stroke-opacity:1" d="M 387.597,630.245 371.54,639.165 z" id="boundary" inkscape:connector-curvature="0" />
	<path style="fill:none;stroke:red;stroke-width:1px;stroke-linecap:butt;stroke-linejoin:miter;stroke-opacity:1" d="M 371.54,639.165 360.835,657.007 z" id="boundary" inkscape:connector-curvature="0" />
	<path style="fill:none;stroke:red;stroke-width:1px;stroke-linecap:butt;stroke-linejoin:miter;stroke-opacity:1" d="M 360.835,657.007 344.777,665.928 z" id="boundary" inkscape:connector-curvature="0" />
	<path style="fill:none;stroke:red;stroke-width:1px;stroke-linecap:butt;stroke-linejoin:miter;stroke-opacity:1" d="M 344.777,665.928 334.072,683.77 z" id="boundary" inkscape:connector-curvature="0" />
	<path style="fill:none;stroke:red;stroke-width:1px;stroke-linecap:butt;stroke-linejoin:miter;stroke-opacity:1" d="M 334.072,683.77 318.014,692.691 z" id="boundary" inkscape:connector-curvature="0" />
	<path style="fill:none;stroke:red;stroke-width:1px;stroke-linecap:butt;stroke-linejoin:miter;stroke-opacity:1" d="M 318.014,692.691 307.309,710.532 z" id="boundary" inkscape:connector-curvature="0" />
	<path style="fill:none;stroke:red;stroke-width:1px;stroke-linecap:butt;stroke-linejoin:miter;stroke-opacity:1" d="M 307.309,710.532 291.252,719.453 z" id="boundary" inkscape:connector-curvature="0" />
	<path style="fill:none;stroke:red;stroke-width:1px;stroke-linecap:butt;stroke-linejoin:miter;stroke-opacity:1" d="M 291.252,719.453 282.331,737.295 z" id="boundary" inkscape:connector-curvature="0" />
	<path style="fill:none;stroke:red;stroke-width:1px;stroke-linecap:butt;stroke-linejoin:miter;stroke-opacity:1" d="M 282.331,737.295 264.489,746.216 z" id="boundary" inkscape:connector-curvature="0" />
	<path style="fill:none;stroke:red;stroke-width:1px;stroke-linecap:butt;stroke-linejoin:miter;stroke-opacity:1" d="M 264.489,746.216 257.353,764.058 z" id="boundary" inkscape:connector-curvature="0" />
	<path style="fill:none;stroke:red;stroke-width:1px;stroke-linecap:butt;stroke-linejoin:miter;stroke-opacity:1" d="M 257.353,764.058 241.295,772.978 z" id="boundary" inkscape:connector-curvature="0" />
	<path style="fill:none;stroke:red;stroke-width:1px;stroke-linecap:butt;stroke-linejoin:miter;stroke-opacity:1" d="M 241.295,772.978 232.374,789.036 z" id="boundary" inkscape:connector-curvature="0" />
	<path style="fill:none;stroke:red;stroke-width:1px;stroke-linecap:butt;stroke-linejoin:miter;stroke-opacity:1" d="M 232.374,789.036 218.101,799.741 z" id="boundary" inkscape:connector-curvature="0" />
	<path style="fill:none;stroke:red;stroke-width:1px;stroke-linecap:butt;stroke-linejoin:miter;stroke-opacity:1" d="M 218.101,799.741 202.043,808.662 z" id="boundary" inkscape:connector-curvature="0" />
	<path style="fill:none;stroke:red;stroke-width:1px;stroke-linecap:butt;stroke-linejoin:miter;stroke-opacity:1" d="M 202.043,808.662 191.338,826.504 z" id="boundary" inkscape:connector-curvature="0" />
	<path style="fill:none;stroke:red;stroke-width:1px;stroke-linecap:butt;stroke-linejoin:miter;stroke-opacity:1" d="M 191.338,826.504 173.496,830.072 z" id="boundary" inkscape:connector-curvature="0" />
	<path style="fill:none;stroke:red;stroke-width:1px;stroke-linecap:butt;stroke-linejoin:miter;stroke-opacity:1" d="M 173.496,830.072 173.496,812.23 z" id="boundary" inkscape:connector-curvature="0" />
	<path style="fill:none;stroke:red;stroke-width:1px;stroke-linecap:butt;stroke-linejoin:miter;stroke-opacity:1" d="M 173.496,812.23 182.417,785.468 z" id="boundary" inkscape:connector-curvature="0" />
	<path style="fill:none;stroke:red;stroke-width:1px;stroke-linecap:butt;stroke-linejoin:miter;stroke-opacity:1" d="M 182.417,785.468 182.417,767.626 z" id="boundary" inkscape:connector-curvature="0" />
	<path style="fill:none;stroke:red;stroke-width:1px;stroke-linecap:butt;stroke-linejoin:miter;stroke-opacity:1" d="M 182.417,767.626 200.259,749.784 z" id="boundary" inkscape:connector-curvature="0" />
	<path style="fill:none;stroke:red;stroke-width:1px;stroke-linecap:butt;stroke-linejoin:miter;stroke-opacity:1" d="M 200.259,749.784 200.259,731.942 z" id="boundary" inkscape:connector-curvature="0" />
	<path style="fill:none;stroke:red;stroke-width:1px;stroke-linecap:butt;stroke-linejoin:miter;stroke-opacity:1" d="M 200.259,731.942 200.259,714.101 z" id="boundary" inkscape:connector-curvature="0" />
	<path style="fill:none;stroke:red;stroke-width:1px;stroke-linecap:butt;stroke-linejoin:miter;stroke-opacity:1" d="M 200.259,714.101 209.18,696.259 z" id="boundary" inkscape:connector-curvature="0" />
	<path style="fill:none;stroke:red;stroke-width:1px;stroke-linecap:butt;stroke-linejoin:miter;stroke-opacity:1" d="M 209.18,696.259 209.18,678.417 z" id="boundary" inkscape:connector-curvature="0" />
	<path style="fill:none;stroke:red;stroke-width:1px;stroke-linecap:butt;stroke-linejoin:miter;stroke-opacity:1" d="M 209.18,678.417 209.18,660.576 z" id="boundary" inkscape:connector-curvature="0" />
	<path style="fill:none;stroke:red;stroke-width:1px;stroke-linecap:butt;stroke-linejoin:miter;stroke-opacity:1" d="M 209.18,660.576 227.022,642.734 z" id="boundary" inkscape:connector-curvature="0" />
	<path style="fill:none;stroke:red;stroke-width:1px;stroke-linecap:butt;stroke-linejoin:miter;stroke-opacity:1" d="M 227.022,642.734 227.022,624.892 z" id="boundary" inkscape:connector-curvature="0" />
	<path style="fill:none;stroke:red;stroke-width:1px;stroke-linecap:butt;stroke-linejoin:miter;stroke-opacity:1" d="M 227.022,624.892 227.022,607.05 z" id="boundary" inkscape:connector-curvature="0" />
	<path style="fill:none;stroke:red;stroke-width:1px;stroke-linecap:butt;stroke-linejoin:miter;stroke-opacity:1" d="M 227.022,607.05 235.942,589.209 z" id="boundary" inkscape:connector-curvature="0" />
	<path style="fill:none;stroke:red;stroke-width:1px;stroke-linecap:butt;stroke-linejoin:miter;stroke-opacity:1" d="M 235.942,589.209 235.942,571.367 z" id="boundary" inkscape:connector-curvature="0" />
	<path style="fill:none;stroke:red;stroke-width:1px;stroke-linecap:butt;stroke-linejoin:miter;stroke-opacity:1" d="M 235.942,571.367 235.942,553.525 z" id="boundary" inkscape:connector-curvature="0" />
	<path style="fill:none;stroke:red;stroke-width:1px;stroke-linecap:butt;stroke-linejoin:miter;stroke-opacity:1" d="M 235.942,553.525 228.806,523.194 z" id="boundary" inkscape:connector-curvature="0" />
	<path style="fill:none;stroke:red;stroke-width:1px;stroke-linecap:butt;stroke-linejoin:miter;stroke-opacity:1" d="M 228.806,523.194 210.964,517.842 z" id="boundary" inkscape:connector-curvature="0" />
	<path style="fill:none;stroke:red;stroke-width:1px;stroke-linecap:butt;stroke-linejoin:miter;stroke-opacity:1" d="M 210.964,517.842 193.122,514.273 z" id="boundary" inkscape:connector-curvature="0" />
	<path style="fill:none;stroke:red;stroke-width:1px;stroke-linecap:butt;stroke-linejoin:miter;stroke-opacity:1" d="M 193.122,514.273 175.281,508.921 z" id="boundary" inkscape:connector-curvature="0" />
	<path style="fill:none;stroke:red;stroke-width:1px;stroke-linecap:butt;stroke-linejoin:miter;stroke-opacity:1" d="M 175.281,508.921 161.007,496.432 z" id="boundary" inkscape:connector-curvature="0" />
	<path style="fill:none;stroke:red;stroke-width:1px;stroke-linecap:butt;stroke-linejoin:miter;stroke-opacity:1" d="M 161.007,496.432 144.95,487.511 z" id="boundary" inkscape:connector-curvature="0" />
	<path style="fill:none;stroke:red;stroke-width:1px;stroke-linecap:butt;stroke-linejoin:miter;stroke-opacity:1" d="M 144.95,487.511 127.108,487.511 z" id="boundary" inkscape:connector-curvature="0" />
	<path style="fill:none;stroke:red;stroke-width:1px;stroke-linecap:butt;stroke-linejoin:miter;stroke-opacity:1" d="M 127.108,487.511 112.835,475.022 z" id="boundary" inkscape:connector-curvature="0" />
	<path style="fill:none;stroke:red;stroke-width:1px;stroke-linecap:butt;stroke-linejoin:miter;stroke-opacity:1" d="M 112.835,475.022 100.345,460.748 z" id="boundary" inkscape:connector-curvature="0" />
	<path style="fill:none;stroke:red;stroke-width:1px;stroke-linecap:butt;stroke-linejoin:miter;stroke-opacity:1" d="M 100.345,460.748 84.2878,451.827 z" id="boundary" inkscape:connector-curvature="0" />
	<path style="fill:none;stroke:red;stroke-width:1px;stroke-linecap:butt;stroke-linejoin:miter;stroke-opacity:1" d="M 84.2878,451.827 66.446,444.691 z" id="boundary" inkscape:connector-curvature="0" />
	<path style="fill:none;stroke:red;stroke-width:1px;stroke-linecap:butt;stroke-linejoin:miter;stroke-opacity:1" d="M 66.446,444.691 57.5252,428.633 z" id="boundary" inkscape:connector-curvature="0" />
	<path style="fill:none;stroke:red;stroke-width:1px;stroke-linecap:butt;stroke-linejoin:miter;stroke-opacity:1" d="M 57.5252,428.633 57.5252,410.791 z" id="boundary" inkscape:connector-curvature="0" />
	<path style="fill:none;stroke:red;stroke-width:1px;stroke-linecap:butt;stroke-linejoin:miter;stroke-opacity:1" d="M 57.5252,410.791 41.4676,401.871 z" id="boundary" inkscape:connector-curvature="0" />
	<path style="fill:none;stroke:red;stroke-width:1px;stroke-linecap:butt;stroke-linejoin:miter;stroke-opacity:1" d="M 41.4676,401.871 30.7626,387.597 z" id="boundary" inkscape:connector-curvature="0" />
	<path style="fill:none;stroke:red;stroke-width:1px;stroke-linecap:butt;stroke-linejoin:miter;stroke-opacity:1" d="M 30.7626,387.597 21.8417,371.54 z" id="boundary" inkscape:connector-curvature="0" />
	<path style="fill:none;stroke:red;stroke-width:1px;stroke-linecap:butt;stroke-linejoin:miter;stroke-opacity:1" d="M 21.8417,371.54 12.9209,355.482 z" id="boundary" inkscape:connector-curvature="0" />
	<path style="fill:none;stroke:red;stroke-width:1px;stroke-linecap:butt;stroke-linejoin:miter;stroke-opacity:1" d="M 12.9209,355.482 12.9209,337.64 z" id="boundary" inkscape:connector-curvature="0" />
	<path style="fill:none;stroke:red;stroke-width:1px;stroke-linecap:butt;stroke-linejoin:miter;stroke-opacity:1" d="M 12.9209,337.64 4,321.583 z" id="boundary" inkscape:connector-curvature="0" />
	<path style="fill:none;stroke:red;stroke-width:1px;stroke-linecap:butt;stroke-linejoin:miter;stroke-opacity:1" d="M 4,321.583 4,303.741 z" id="boundary" inkscape:connector-curvature="0" />
	<path style="fill:none;stroke:red;stroke-width:1px;stroke-linecap:butt;stroke-linejoin:miter;stroke-opacity:1" d="M 4,303.741 4,285.899 z" id="boundary" inkscape:connector-curvature="0" />
	<path style="fill:none;stroke:red;stroke-width:1px;stroke-linecap:butt;stroke-linejoin:miter;stroke-opacity:1" d="M 4,285.899 12.9209,259.137 z" id="boundary" inkscape:connector-curvature="0" />
	<path style="fill:none;stroke:red;stroke-width:1px;stroke-linecap:butt;stroke-linejoin:miter;stroke-opacity:1" d="M 12.9209,259.137 12.9209,241.295 z" id="boundary" inkscape:connector-curvature="0" />
	<path style="fill:none;stroke:red;stroke-width:1px;stroke-linecap:butt;stroke-linejoin:miter;stroke-opacity:1" d="M 12.9209,241.295 30.7626,232.374 z" id="boundary" inkscape:connector-curvature="0" />
	<path style="fill:none;stroke:red;stroke-width:1px;stroke-linecap:butt;stroke-linejoin:miter;stroke-opacity:1" d="M 30.7626,232.374 30.7626,214.532 z" id="boundary" inkscape:connector-curvature="0" />
	<path style="fill:none;stroke:red;stroke-width:1px;stroke-linecap:butt;stroke-linejoin:miter;stroke-opacity:1" d="M 30.7626,214.532 39.6835,187.77 z" id="boundary" inkscape:connector-curvature="0" />
	<path style="fill:none;stroke:red;stroke-width:1px;stroke-linecap:butt;stroke-linejoin:miter;stroke-opacity:1" d="M 39.6835,187.77 57.5252,178.849 z" id="boundary" inkscape:connector-curvature="0" />
	<path style="fill:none;stroke:red;stroke-width:1px;stroke-linecap:butt;stroke-linejoin:miter;stroke-opacity:1" d="M 57.5252,178.849 66.446,152.086 z" id="boundary" inkscape:connector-curvature="0" />
	<path style="fill:none;stroke:red;stroke-width:1px;stroke-linecap:butt;stroke-linejoin:miter;stroke-opacity:1" d="M 66.446,152.086 84.2878,143.165 z" id="boundary" inkscape:connector-curvature="0" />
	<path style="fill:none;stroke:red;stroke-width:1px;stroke-linecap:butt;stroke-linejoin:miter;stroke-opacity:1" d="M 84.2878,143.165 93.2086,125.324 z" id="boundary" inkscape:connector-curvature="0" />
	<path style="fill:none;stroke:red;stroke-width:1px;stroke-linecap:butt;stroke-linejoin:miter;stroke-opacity:1" d="M 93.2086,125.324 111.05,119.971 z" id="boundary" inkscape:connector-curvature="0" />
	<path style="fill:none;stroke:red;stroke-width:1px;stroke-linecap:butt;stroke-linejoin:miter;stroke-opacity:1" d="M 111.05,119.971 127.108,111.05 z" id="boundary" inkscape:connector-curvature="0" />
	<path style="fill:none;stroke:red;stroke-width:1px;stroke-linecap:butt;stroke-linejoin:miter;stroke-opacity:1" d="M 127.108,111.05 144.95,111.05 z" id="boundary" inkscape:connector-curvature="0" />
	<path style="fill:none;stroke:red;stroke-width:1px;stroke-linecap:butt;stroke-linejoin:miter;stroke-opacity:1" d="M 144.95,111.05 152.086,93.2086 z" id="boundary" inkscape:connector-curvature="0" />
	<path style="fill:none;stroke:red;stroke-width:1px;stroke-linecap:butt;stroke-linejoin:miter;stroke-opacity:1" d="M 152.086,93.2086 169.928,93.2086 z" id="boundary" inkscape:connector-curvature="0" />
	<path style="fill:none;stroke:red;stroke-width:1px;stroke-linecap:butt;stroke-linejoin:miter;stroke-opacity:1" d="M 169.928,93.2086 185.986,84.2878 z" id="boundary" inkscape:connector-curvature="0" />
	<path style="fill:none;stroke:red;stroke-width:1px;stroke-linecap:butt;stroke-linejoin:miter;stroke-opacity:1" d="M 185.986,84.2878 200.259,71.7986 z" id="boundary" inkscape:connector-curvature="0" />
	<path style="fill:none;stroke:red;stroke-width:1px;stroke-linecap:butt;stroke-linejoin:miter;stroke-opacity:1" d="M 200.259,71.7986 218.101,66.446 z" id="boundary" inkscape:connector-curvature="0" />
	<path style="fill:none;stroke:red;stroke-width:1px;stroke-linecap:butt;stroke-linejoin:miter;stroke-opacity:1" d="M 218.101,66.446 234.158,57.5252 z" id="boundary" inkscape:connector-curvature="0" />
	<path style="fill:none;stroke:red;stroke-width:1px;stroke-linecap:butt;stroke-linejoin:miter;stroke-opacity:1" d="M 234.158,57.5252 252,57.5252 z" id="boundary" inkscape:connector-curvature="0" />
	<path style="fill:none;stroke:red;stroke-width:1px;stroke-linecap:butt;stroke-linejoin:miter;stroke-opacity:1" d="M 252,57.5252 264.489,43.2518 z" id="boundary" inkscape:connector-curvature="0" />
	<path style="fill:none;stroke:red;stroke-width:1px;stroke-linecap:butt;stroke-linejoin:miter;stroke-opacity:1" d="M 264.489,43.2518 282.331,39.6835 z" id="boundary" inkscape:connector-curvature="0" />
	<path style="fill:none;stroke:red;stroke-width:1px;stroke-linecap:butt;stroke-linejoin:miter;stroke-opacity:1" d="M 282.331,39.6835 298.388,30.7626 z" id="boundary" inkscape:connector-curvature="0" />
	<path style="fill:none;stroke:red;stroke-width:1px;stroke-linecap:butt;stroke-linejoin:miter;stroke-opacity:1" d="M 298.388,30.7626 316.23,30.7626 z" id="boundary" inkscape:connector-curvature="0" />
	<path style="fill:none;stroke:red;stroke-width:1px;stroke-linecap:butt;stroke-linejoin:miter;stroke-opacity:1" d="M 316.23,30.7626 334.072,30.7626 z" id="boundary" inkscape:connector-curvature="0" />
	<path style="fill:none;stroke:red;stroke-width:1px;stroke-linecap:butt;stroke-linejoin:miter;stroke-opacity:1" d="M 334.072,30.7626 351.914,18.2734 z" id="boundary" inkscape:connector-curvature="0" />
	<path style="fill:none;stroke:red;stroke-width:1px;stroke-linecap:butt;stroke-linejoin:miter;stroke-opacity:1" d="M 351.914,18.2734 369.755,12.9209 z" id="boundary" inkscape:connector-curvature="0" />
	<path style="fill:none;stroke:red;stroke-width:1px;stroke-linecap:butt;stroke-linejoin:miter;stroke-opacity:1" d="M 369.755,12.9209 387.597,12.9209 z" id="boundary" inkscape:connector-curvature="0" />
	<path style="fill:none;stroke:red;stroke-width:1px;stroke-linecap:butt;stroke-linejoin:miter;stroke-opacity:1" d="M 387.597,12.9209 405.439,12.9209 z" id="boundary" inkscape:connector-curvature="0" />
	<path style="fill:none;stroke:red;stroke-width:1px;stroke-linecap:butt;stroke-linejoin:miter;stroke-opacity:1" d="M 405.439,12.9209 423.281,12.9209 z" id="boundary" inkscape:connector-curvature="0" />
	<path style="fill:none;stroke:red;stroke-width:1px;stroke-linecap:butt;stroke-linejoin:miter;stroke-opacity:1" d="M 423.281,12.9209 441.122,12.9209 z" id="boundary" inkscape:connector-curvature="0" />
	<path style="fill:none;stroke:red;stroke-width:1px;stroke-linecap:butt;stroke-linejoin:miter;stroke-opacity:1" d="M 441.122,12.9209 457.18,4 z" id="boundary" inkscape:connector-curvature="0" />
	<path style="fill:none;stroke:red;stroke-width:1px;stroke-linecap:butt;stroke-linejoin:miter;stroke-opacity:1" d="M 457.18,4 475.022,4 z" id="boundary" inkscape:connector-curvature="0" />
	<path style="fill:none;stroke:red;stroke-width:1px;stroke-linecap:butt;stroke-linejoin:miter;stroke-opacity:1" d="M 475.022,4 492.863,4 z" id="boundary" inkscape:connector-curvature="0" />
	<path style="fill:none;stroke:red;stroke-width:1px;stroke-linecap:butt;stroke-linejoin:miter;stroke-opacity:1" d="M 492.863,4 510.705,4 z" id="boundary" inkscape:connector-curvature="0" />
	<path style="fill:none;stroke:red;stroke-width:1px;stroke-linecap:butt;stroke-linejoin:miter;stroke-opacity:1" d="M 510.705,4 528.547,4 z" id="boundary" inkscape:connector-curvature="0" />
	<path style="fill:none;stroke:red;stroke-width:1px;stroke-linecap:butt;stroke-linejoin:miter;stroke-opacity:1" d="M 528.547,4 544.604,12.9209 z" id="boundary" inkscape:connector-curvature="0" />
	<path style="fill:none;stroke:red;stroke-width:1px;stroke-linecap:butt;stroke-linejoin:miter;stroke-opacity:1" d="M 544.604,12.9209 562.446,12.9209 z" id="boundary" inkscape:connector-curvature="0" />
	<path style="fill:none;stroke:red;stroke-width:1px;stroke-linecap:butt;stroke-linejoin:miter;stroke-opacity:1" d="M 562.446,12.9209 580.288,12.9209 z" id="boundary" inkscape:connector-curvature="0" />
	<path style="fill:none;stroke:red;stroke-width:1px;stroke-linecap:butt;stroke-linejoin:miter;stroke-opacity:1" d="M 580.288,12.9209 598.129,12.9209 z" id="boundary" inkscape:connector-curvature="0" />
	<path style="fill:none;stroke:red;stroke-width:1px;stroke-linecap:butt;stroke-linejoin:miter;stroke-opacity:1" d="M 598.129,12.9209 615.971,12.9209 z" id="boundary" inkscape:connector-curvature="0" />
	<path style="fill:none;stroke:red;stroke-width:1px;stroke-linecap:butt;stroke-linejoin:miter;stroke-opacity:1" d="M 615.971,12.9209 633.813,12.9209 z" id="boundary" inkscape:connector-curvature="0" />
	<path style="fill:none;stroke:red;stroke-width:1px;stroke-linecap:butt;stroke-linejoin:miter;stroke-opacity:1" d="M 633.813,12.9209 639.165,30.7626 z" id="boundary" inkscape:connector-curvature="0" />
	<path style="fill:none;stroke:red;stroke-width:1px;stroke-linecap:butt;stroke-linejoin:miter;stroke-opacity:1" d="M 639.165,30.7626 657.007,30.7626 z" id="boundary" inkscape:connector-curvature="0" />
	<path style="fill:none;stroke:red;stroke-width:1px;stroke-linecap:butt;stroke-linejoin:miter;stroke-opacity:1" d="M 657.007,30.7626 674.849,30.7626 z" id="boundary" inkscape:connector-curvature="0" />
	<path style="fill:none;stroke:red;stroke-width:1px;stroke-linecap:butt;stroke-linejoin:miter;stroke-opacity:1" d="M 674.849,30.7626 692.691,30.7626 z" id="boundary" inkscape:connector-curvature="0" />
	<path style="fill:none;stroke:red;stroke-width:1px;stroke-linecap:butt;stroke-linejoin:miter;stroke-opacity:1" d="M 692.691,30.7626 710.532,36.1151 z" id="boundary" inkscape:connector-curvature="0" />
	<path style="fill:none;stroke:red;stroke-width:1px;stroke-linecap:butt;stroke-linejoin:miter;stroke-opacity:1" d="M 710.532,36.1151 728.374,39.6835 z" id="boundary" inkscape:connector-curvature="0" />
	<path style="fill:none;stroke:red;stroke-width:1px;stroke-linecap:butt;stroke-linejoin:miter;stroke-opacity:1" d="M 728.374,39.6835 737.295,55.741 z" id="boundary" inkscape:connector-curvature="0" />
	<path style="fill:none;stroke:red;stroke-width:1px;stroke-linecap:butt;stroke-linejoin:miter;stroke-opacity:1" d="M 737.295,55.741 755.137,57.5252 z" id="boundary" inkscape:connector-curvature="0" />
	<path style="fill:none;stroke:red;stroke-width:1px;stroke-linecap:butt;stroke-linejoin:miter;stroke-opacity:1" d="M 755.137,57.5252 772.978,62.8777 z" id="boundary" inkscape:connector-curvature="0" />
	<path style="fill:none;stroke:red;stroke-width:1px;stroke-linecap:butt;stroke-linejoin:miter;stroke-opacity:1" d="M 772.978,62.8777 790.82,66.446 z" id="boundary" inkscape:connector-curvature="0" />
	<path style="fill:none;stroke:red;stroke-width:1px;stroke-linecap:butt;stroke-linejoin:miter;stroke-opacity:1" d="M 790.82,66.446 799.741,82.5036 z" id="boundary" inkscape:connector-curvature="0" />
	<path style="fill:none;stroke:red;stroke-width:1px;stroke-linecap:butt;stroke-linejoin:miter;stroke-opacity:1" d="M 799.741,82.5036 817.583,84.2878 z" id="boundary" inkscape:connector-curvature="0" />
	<path style="fill:none;stroke:red;stroke-width:1px;stroke-linecap:butt;stroke-linejoin:miter;stroke-opacity:1" d="M 817.583,84.2878 833.64,93.2086 z" id="boundary" inkscape:connector-curvature="0" />
	<path style="fill:none;stroke:red;stroke-width:1px;stroke-linecap:butt;stroke-linejoin:miter;stroke-opacity:1" d="M 833.64,93.2086 851.482,96.777 z" id="boundary" inkscape:connector-curvature="0" />
	<path style="fill:none;stroke:red;stroke-width:1px;stroke-linecap:butt;stroke-linejoin:miter;stroke-opacity:1" d="M 851.482,96.777 862.187,111.05 z" id="boundary" inkscape:connector-curvature="0" />
	<path style="fill:none;stroke:red;stroke-width:1px;stroke-linecap:butt;stroke-linejoin:miter;stroke-opacity:1" d="M 862.187,111.05 880.029,116.403 z" id="boundary" inkscape:connector-curvature="0" />
	<path style="fill:none;stroke:red;stroke-width:1px;stroke-linecap:butt;stroke-linejoin:miter;stroke-opacity:1" d="M 880.029,116.403 897.871,119.971 z" id="boundary" inkscape:connector-curvature="0" />
	<path style="fill:none;stroke:red;stroke-width:1px;stroke-linecap:butt;stroke-linejoin:miter;stroke-opacity:1" d="M 897.871,119.971 906.791,136.029 z" id="boundary" inkscape:connector-curvature="0" />
	<path style="fill:none;stroke:red;stroke-width:1px;stroke-linecap:butt;stroke-linejoin:miter;stroke-opacity:1" d="M 906.791,136.029 921.065,148.518 z" id="boundary" inkscape:connector-curvature="0" />
	<path style="fill:none;stroke:red;stroke-width:1px;stroke-linecap:butt;stroke-linejoin:miter;stroke-opacity:1" d="M 921.065,148.518 924.633,166.36 z" id="boundary" inkscape:connector-curvature="0" />
	<path style="fill:none;stroke:red;stroke-width:1px;stroke-linecap:butt;stroke-linejoin:miter;stroke-opacity:1" d="M 924.633,166.36 938.906,177.065 z" id="boundary" inkscape:connector-curvature="0" />
	<path style="fill:none;stroke:red;stroke-width:1px;stroke-linecap:butt;stroke-linejoin:miter;stroke-opacity:1" d="M 938.906,177.065 951.396,191.338 z" id="boundary" inkscape:connector-curvature="0" />
	<path style="fill:none;stroke:red;stroke-width:1px;stroke-linecap:butt;stroke-linejoin:miter;stroke-opacity:1" d="M 951.396,191.338 951.396,209.18 z" id="boundary" inkscape:connector-curvature="0" />
	<path style="fill:none;stroke:red;stroke-width:1px;stroke-linecap:butt;stroke-linejoin:miter;stroke-opacity:1" d="M 951.396,209.18 969.237,214.532 z" id="boundary" inkscape:connector-curvature="0" />
	<path style="fill:none;stroke:red;stroke-width:1px;stroke-linecap:butt;stroke-linejoin:miter;stroke-opacity:1" d="M 969.237,214.532 969.237,232.374 z" id="boundary" inkscape:connector-curvature="0" />
	<path style="fill:none;stroke:red;stroke-width:1px;stroke-linecap:butt;stroke-linejoin:miter;stroke-opacity:1" d="M 969.237,232.374 978.158,248.432 z" id="boundary" inkscape:connector-curvature="0" />
	<path style="fill:none;stroke:red;stroke-width:1px;stroke-linecap:butt;stroke-linejoin:miter;stroke-opacity:1" d="M 978.158,248.432 978.158,266.273 z" id="boundary" inkscape:connector-curvature="0" />
	<path style="fill:none;stroke:red;stroke-width:1px;stroke-linecap:butt;stroke-linejoin:miter;stroke-opacity:1" d="M 978.158,266.273 988.863,280.547 z" id="boundary" inkscape:connector-curvature="0" />
	<path style="fill:none;stroke:red;stroke-width:1px;stroke-linecap:butt;stroke-linejoin:miter;stroke-opacity:1" d="M 988.863,280.547 996,298.388 z" id="boundary" inkscape:connector-curvature="0" />
	<circle cx="4" cy="285.899" r="4" fill="#0" id="circle0"/>
	<circle cx="4" cy="303.741" r="4" fill="#0" id="circle1"/>
	<circle cx="4" cy="321.583" r="4" fill="#0" id="circle2"/>
	<circle cx="12.9209" cy="241.295" r="4" fill="#0" id="circle3"/>
	<circle cx="12.9209" cy="259.137" r="4" fill="#0" id="circle4"/>
	<circle cx="12.9209" cy="337.64" r="4" fill="#0" id="circle5"/>
	<circle cx="12.9209" cy="355.482" r="4" fill="#0" id="circle6"/>
	<circle cx="21.8417" cy="371.54" r="4" fill="#0" id="circle7"/>
	<circle cx="30.7626" cy="214.532" r="4" fill="#0" id="circle8"/>
	<circle cx="30.7626" cy="232.374" r="4" fill="#0" id="circle9"/>
	<circle cx="30.7626" cy="387.597" r="4" fill="#0" id="circle10"/>
	<circle cx="39.6835" cy="187.77" r="4" fill="#0" id="circle11"/>
	<circle cx="41.4676" cy="401.871" r="4" fill="#0" id="circle12"/>
	<circle cx="57.5252" cy="178.849" r="4" fill="#0" id="circle13"/>
	<circle cx="57.5252" cy="410.791" r="4" fill="#0" id="circle14"/>
	<circle cx="57.5252" cy="428.633" r="4" fill="#0" id="circle15"/>
	<circle cx="66.446" cy="152.086" r="4" fill="#0" id="circle16"/>
	<circle cx="66.446" cy="444.691" r="4" fill="#0" id="circle17"/>
	<circle cx="84.2878" cy="143.165" r="4" fill="#0" id="circle18"/>
	<circle cx="84.2878" cy="451.827" r="4" fill="#0" id="circle19"/>
	<circle cx="93.2086" cy="125.324" r="4" fill="#0" id="circle20"/>
	<circle cx="100.345" cy="460.748" r="4" fill="#0" id="circle21"/>
	<circle cx="111.05" cy="119.971" r="4" fill="#0" id="circle22"/>
	<circle cx="112.835" cy="475.022" r="4" fill="#0" id="circle23"/>
	<circle cx="127.108" cy="111.05" r="4" fill="#0" id="circle24"/>
	<circle cx="127.108" cy="487.511" r="4" fill="#0" id="circle25"/>
	<circle cx="144.95" cy="111.05" r="4" fill="#0" id="circle26"/>
	<circle cx="144.95" cy="487.511" r="4" fill="#0" id="circle27"/>
	<circle cx="152.086" cy="93.2086" r="4" fill="#0" id="circle28"/>
	<circle cx="161.007" cy="496.432" r="4" fill="#0" id="circle29"/>
	<circle cx="169.928" cy="93.2086" r="4" fill="#0" id="circle30"/>
	<circle cx="173.496" cy="812.23" r="4" fill="#0" id="circle31"/>
	<circle cx="173.496" cy="830.072" r="4" fill="#0" id="circle32"/>
	<circle cx="175.281" cy="508.921" r="4" fill="#0" id="circle33"/>
	<circle cx="182.417" cy="767.626" r="4" fill="#0" id="circle34"/>
	<circle cx="182.417" cy="785.468" r="4" fill="#0" id="circle35"/>
	<circle cx="185.986" cy="84.2878" r="4" fill="#0" id="circle36"/>
	<circle cx="191.338" cy="826.504" r="4" fill="#0" id="circle37"/>
	<circle cx="193.122" cy="514.273" r="4" fill="#0" id="circle38"/>
	<circle cx="200.259" cy="71.7986" r="4" fill="#0" id="circle39"/>
	<circle cx="200.259" cy="714.101" r="4" fill="#0" id="circle40"/>
	<circle cx="200.259" cy="731.942" r="4" fill="#0" id="circle41"/>
	<circle cx="200.259" cy="749.784" r="4" fill="#0" id="circle42"/>
	<circle cx="202.043" cy="808.662" r="4" fill="#0" id="circle43"/>
	<circle cx="209.18" cy="660.576" r="4" fill="#0" id="circle44"/>
	<circle cx="209.18" cy="678.417" r="4" fill="#0" id="circle45"/>
	<circle cx="209.18" cy="696.259" r="4" fill="#0" id="circle46"/>
	<circle cx="210.964" cy="517.842" r="4" fill="#0" id="circle47"/>
	<circle cx="218.101" cy="66.446" r="4" fill="#0" id="circle48"/>
	<circle cx="218.101" cy="799.741" r="4" fill="#0" id="circle49"/>
	<circle cx="227.022" cy="607.05" r="4" fill="#0" id="circle50"/>
	<circle cx="227.022" cy="624.892" r="4" fill="#0" id="circle51"/>
	<circle cx="227.022" cy="642.734" r="4" fill="#0" id="circle52"/>
	<circle cx="228.806" cy="523.194" r="4" fill="#0" id="circle53"/>
	<circle cx="232.374" cy="789.036" r="4" fill="#0" id="circle54"/>
	<circle cx="234.158" cy="57.5252" r="4" fill="#0" id="circle55"/>
	<circle cx="235.942" cy="553.525" r="4" fill="#0" id="circle56"/>
	<circle cx="235.942" cy="571.367" r="4" fill="#0" id="circle57"/>
	<circle cx="235.942" cy="589.209" r="4" fill="#0" id="circle58"/>
	<circle cx="241.295" cy="772.978" r="4" fill="#0" id="circle59"/>
	<circle cx="252" cy="57.5252" r="4" fill="#0" id="circle60"/>
	<circle cx="257.353" cy="764.058" r="4" fill="#0" id="circle61"/>
	<circle cx="264.489" cy="43.2518" r="4" fill="#0" id="circle62"/>
	<circle cx="264.489" cy="746.216" r="4" fill="#0" id="circle63"/>
	<circle cx="282.331" cy="39.6835" r="4" fill="#0" id="circle64"/>
	<circle cx="282.331" cy="737.295" r="4" fill="#0" id="circle65"/>
	<circle cx="291.252" cy="719.453" r="4" fill="#0" id="circle66"/>
	<circle cx="298.388" cy="30.7626" r="4" fill="#0" id="circle67"/>
	<circle cx="307.309" cy="710.532" r="4" fill="#0" id="circle68"/>
	<circle cx="316.23" cy="30.7626" r="4" fill="#0" id="circle69"/>
	<circle cx="318.014" cy="692.691" r="4" fill="#0" id="circle70"/>
	<circle cx="334.072" cy="30.7626" r="4" fill="#0" id="circle71"/>
	<circle cx="334.072" cy="683.77" r="4" fill="#0" id="circle72"/>
	<circle cx="344.777" cy="665.928" r="4" fill="#0" id="circle73"/>
	<circle cx="351.914" cy="18.2734" r="4" fill="#0" id="circle74"/>
	<circle cx="360.835" cy="657.007" r="4" fill="#0" id="circle75"/>
	<circle cx="369.755" cy="12.9209" r="4" fill="#0" id="circle76"/>
	<circle cx="371.54" cy="639.165" r="4" fill="#0" id="circle77"/>
	<circle cx="387.597" cy="12.9209" r="4" fill="#0" id="circle78"/>
	<circle cx="387.597" cy="630.245" r="4" fill="#0" id="circle79"/>
	<circle cx="401.871" cy="619.54" r="4" fill="#0" id="circle80"/>
	<circle cx="405.439" cy="12.9209" r="4" fill="#0" id="circle81"/>
	<circle cx="410.791" cy="603.482" r="4" fill="#0" id="circle82"/>
	<circle cx="423.281" cy="12.9209" r="4" fill="#0" id="circle83"/>
	<circle cx="426.849" cy="594.561" r="4" fill="#0" id="circle84"/>
	<circle cx="433.986" cy="576.719" r="4" fill="#0" id="circle85"/>
	<circle cx="441.122" cy="12.9209" r="4" fill="#0" id="circle86"/>
	<circle cx="451.827" cy="576.719" r="4" fill="#0" id="circle87"/>
	<circle cx="457.18" cy="4" r="4" fill="#0" id="circle88"/>
	<circle cx="469.669" cy="576.719" r="4" fill="#0" id="circle89"/>
	<circle cx="475.022" cy="4" r="4" fill="#0" id="circle90"/>
	<circle cx="487.511" cy="576.719" r="4" fill="#0" id="circle91"/>
	<circle cx="492.863" cy="4" r="4" fill="#0" id="circle92"/>
	<circle cx="505.353" cy="576.719" r="4" fill="#0" id="circle93"/>
	<circle cx="510.705" cy="4" r="4" fill="#0" id="circle94"/>
	<circle cx="523.194" cy="576.719" r="4" fill="#0" id="circle95"/>
	<circle cx="528.547" cy="4" r="4" fill="#0" id="circle96"/>
	<circle cx="539.252" cy="585.64" r="4" fill="#0" id="circle97"/>
	<circle cx="544.604" cy="12.9209" r="4" fill="#0" id="circle98"/>
	<circle cx="544.604" cy="603.482" r="4" fill="#0" id="circle99"/>
	<circle cx="560.662" cy="612.403" r="4" fill="#0" id="circle100"/>
	<circle cx="562.446" cy="12.9209" r="4" fill="#0" id="circle101"/>
	<circle cx="569.583" cy="628.46" r="4" fill="#0" id="circle102"/>
	<circle cx="580.288" cy="12.9209" r="4" fill="#0" id="circle103"/>
	<circle cx="583.856" cy="639.165" r="4" fill="#0" id="circle104"/>
	<circle cx="592.777" cy="655.223" r="4" fill="#0" id="circle105"/>
	<circle cx="598.129" cy="12.9209" r="4" fill="#0" id="circle106"/>
	<circle cx="607.05" cy="665.928" r="4" fill="#0" id="circle107"/>
	<circle cx="615.971" cy="12.9209" r="4" fill="#0" id="circle108"/>
	<circle cx="621.324" cy="678.417" r="4" fill="#0" id="circle109"/>
	<circle cx="633.813" cy="12.9209" r="4" fill="#0" id="circle110"/>
	<circle cx="633.813" cy="692.691" r="4" fill="#0" id="circle111"/>
	<circle cx="639.165" cy="30.7626" r="4" fill="#0" id="circle112"/>
	<circle cx="642.734" cy="708.748" r="4" fill="#0" id="circle113"/>
	<circle cx="657.007" cy="30.7626" r="4" fill="#0" id="circle114"/>
	<circle cx="658.791" cy="717.669" r="4" fill="#0" id="circle115"/>
	<circle cx="673.065" cy="728.374" r="4" fill="#0" id="circle116"/>
	<circle cx="674.849" cy="30.7626" r="4" fill="#0" id="circle117"/>
	<circle cx="681.986" cy="744.432" r="4" fill="#0" id="circle118"/>
	<circle cx="692.691" cy="30.7626" r="4" fill="#0" id="circle119"/>
	<circle cx="692.691" cy="758.705" r="4" fill="#0" id="circle120"/>
	<circle cx="708.748" cy="767.626" r="4" fill="#0" id="circle121"/>
	<circle cx="710.532" cy="36.1151" r="4" fill="#0" id="circle122"/>
	<circle cx="710.532" cy="541.036" r="4" fill="#0" id="circle123"/>
	<circle cx="710.532" cy="558.878" r="4" fill="#0" id="circle124"/>
	<circle cx="710.532" cy="576.719" r="4" fill="#0" id="circle125"/>
	<circle cx="710.532" cy="594.561" r="4" fill="#0" id="circle126"/>
	<circle cx="714.101" cy="612.403" r="4" fill="#0" id="circle127"/>
	<circle cx="717.669" cy="783.683" r="4" fill="#0" id="circle128"/>
	<circle cx="719.453" cy="630.245" r="4" fill="#0" id="circle129"/>
	<circle cx="719.453" cy="648.086" r="4" fill="#0" id="circle130"/>
	<circle cx="723.022" cy="665.928" r="4" fill="#0" id="circle131"/>
	<circle cx="728.374" cy="39.6835" r="4" fill="#0" id="circle132"/>
	<circle cx="728.374" cy="541.036" r="4" fill="#0" id="circle133"/>
	<circle cx="728.374" cy="683.77" r="4" fill="#0" id="circle134"/>
	<circle cx="728.374" cy="701.612" r="4" fill="#0" id="circle135"/>
	<circle cx="730.158" cy="797.957" r="4" fill="#0" id="circle136"/>
	<circle cx="737.295" cy="55.741" r="4" fill="#0" id="circle137"/>
	<circle cx="737.295" cy="717.669" r="4" fill="#0" id="circle138"/>
	<circle cx="737.295" cy="735.511" r="4" fill="#0" id="circle139"/>
	<circle cx="737.295" cy="753.353" r="4" fill="#0" id="circle140"/>
	<circle cx="744.432" cy="808.662" r="4" fill="#0" id="circle141"/>
	<circle cx="746.216" cy="523.194" r="4" fill="#0" id="circle142"/>
	<circle cx="755.137" cy="57.5252" r="4" fill="#0" id="circle143"/>
	<circle cx="755.137" cy="758.705" r="4" fill="#0" id="circle144"/>
	<circle cx="755.137" cy="776.547" r="4" fill="#0" id="circle145"/>
	<circle cx="762.273" cy="794.388" r="4" fill="#0" id="circle146"/>
	<circle cx="762.273" cy="812.23" r="4" fill="#0" id="circle147"/>
	<circle cx="764.058" cy="523.194" r="4" fill="#0" id="circle148"/>
	<circle cx="772.978" cy="62.8777" r="4" fill="#0" id="circle149"/>
	<circle cx="781.899" cy="514.273" r="4" fill="#0" id="circle150"/>
	<circle cx="790.82" cy="66.446" r="4" fill="#0" id="circle151"/>
	<circle cx="799.741" cy="82.5036" r="4" fill="#0" id="circle152"/>
	<circle cx="799.741" cy="514.273" r="4" fill="#0" id="circle153"/>
	<circle cx="817.583" cy="84.2878" r="4" fill="#0" id="circle154"/>
	<circle cx="817.583" cy="514.273" r="4" fill="#0" id="circle155"/>
	<circle cx="826.504" cy="496.432" r="4" fill="#0" id="circle156"/>
	<circle cx="833.64" cy="93.2086" r="4" fill="#0" id="circle157"/>
	<circle cx="844.345" cy="496.432" r="4" fill="#0" id="circle158"/>
	<circle cx="851.482" cy="96.777" r="4" fill="#0" id="circle159"/>
	<circle cx="860.403" cy="487.511" r="4" fill="#0" id="circle160"/>
	<circle cx="862.187" cy="111.05" r="4" fill="#0" id="circle161"/>
	<circle cx="878.245" cy="482.158" r="4" fill="#0" id="circle162"/>
	<circle cx="880.029" cy="116.403" r="4" fill="#0" id="circle163"/>
	<circle cx="896.086" cy="478.59" r="4" fill="#0" id="circle164"/>
	<circle cx="897.871" cy="119.971" r="4" fill="#0" id="circle165"/>
	<circle cx="906.791" cy="136.029" r="4" fill="#0" id="circle166"/>
	<circle cx="906.791" cy="460.748" r="4" fill="#0" id="circle167"/>
	<circle cx="921.065" cy="148.518" r="4" fill="#0" id="circle168"/>
	<circle cx="921.065" cy="448.259" r="4" fill="#0" id="circle169"/>
	<circle cx="924.633" cy="166.36" r="4" fill="#0" id="circle170"/>
	<circle cx="931.77" cy="433.986" r="4" fill="#0" id="circle171"/>
	<circle cx="938.906" cy="177.065" r="4" fill="#0" id="circle172"/>
	<circle cx="942.475" cy="407.223" r="4" fill="#0" id="circle173"/>
	<circle cx="951.396" cy="191.338" r="4" fill="#0" id="circle174"/>
	<circle cx="951.396" cy="209.18" r="4" fill="#0" id="circle175"/>
	<circle cx="958.532" cy="398.302" r="4" fill="#0" id="circle176"/>
	<circle cx="969.237" cy="214.532" r="4" fill="#0" id="circle177"/>
	<circle cx="969.237" cy="232.374" r="4" fill="#0" id="circle178"/>
	<circle cx="969.237" cy="371.54" r="4" fill="#0" id="circle179"/>
	<circle cx="978.158" cy="248.432" r="4" fill="#0" id="circle180"/>
	<circle cx="978.158" cy="266.273" r="4" fill="#0" id="circle181"/>
	<circle cx="978.158" cy="326.935" r="4" fill="#0" id="circle182"/>
	<circle cx="978.158" cy="344.777" r="4" fill="#0" id="circle183"/>
	<circle cx="988.863" cy="280.547" r="4" fill="#0" id="circle184"/>
	<circle cx="996" cy="298.388" r="4" fill="#0" id="circle185"/>
	<circle cx="996" cy="316.23" r="4" fill="#0" id="circle186"/>
	</g>
</svg>