<?xml version="1.0" encoding="UTF-8" standalone="no"?>
<!-- Created with CurveBenchmark -->
<svg
	xmlns:dc="http://purl.org/dc/elements/1.1/"
	xmlns:cc="http://creativecommons.org/ns#"
	xmlns:rdf="http://www.w3.org/1999/02/22-rdf-syntax-ns#"
	xmlns:svg="http://www.w3.org/2000/svg"
	xmlns="http://www.w3.org/2000/svg"
	xmlns:sodipodi="http://sodipodi.sourceforge.net/DTD/sodipodi-0.dtd"
	xmlns:inkscape="http://www.inkscape.org/namespaces/inkscape"
	width="1000"
	height="1000"
	id="svg2"
	version="1.1"
	sodipodi:docname="manifold/connect2d-chopper04.png.txt">
<defs
	id="defs4" />
<metadata
	id="metadata7">
	<rdf:RDF>
		<cc:Work
			rdf:about="">
			<dc:format>image/svg+xml</dc:format>
			<dc:type
				rdf:resource="http://purl.org/dc/dcmitype/StillImage" />
			<dc:title></dc:title>
		</cc:Work>
	</rdf:RDF>
</metadata>
<g
	inkscape:label="Layer 1"
	inkscape:groupmode="layer"
	id="layer1">
	<path style="fill:none;stroke:red;stroke-width:1px;stroke-linecap:butt;stroke-linejoin:miter;stroke-opacity:1" d="M 988.583,282.131 996,306.236 z" id="boundary" inkscape:connector-curvature="0" />
	<path style="fill:none;stroke:red;stroke-width:1px;stroke-linecap:butt;stroke-linejoin:miter;stroke-opacity:1" d="M 996,306.236 977.458,315.507 z" id="boundary" inkscape:connector-curvature="0" />
	<path style="fill:none;stroke:red;stroke-width:1px;stroke-linecap:butt;stroke-linejoin:miter;stroke-opacity:1" d="M 977.458,315.507 958.916,324.778 z" id="boundary" inkscape:connector-curvature="0" />
	<path style="fill:none;stroke:red;stroke-width:1px;stroke-linecap:butt;stroke-linejoin:miter;stroke-opacity:1" d="M 958.916,324.778 940.374,330.34 z" id="boundary" inkscape:connector-curvature="0" />
	<path style="fill:none;stroke:red;stroke-width:1px;stroke-linecap:butt;stroke-linejoin:miter;stroke-opacity:1" d="M 940.374,330.34 929.249,345.174 z" id="boundary" inkscape:connector-curvature="0" />
	<path style="fill:none;stroke:red;stroke-width:1px;stroke-linecap:butt;stroke-linejoin:miter;stroke-opacity:1" d="M 929.249,345.174 910.707,354.445 z" id="boundary" inkscape:connector-curvature="0" />
	<path style="fill:none;stroke:red;stroke-width:1px;stroke-linecap:butt;stroke-linejoin:miter;stroke-opacity:1" d="M 910.707,354.445 892.164,354.445 z" id="boundary" inkscape:connector-curvature="0" />
	<path style="fill:none;stroke:red;stroke-width:1px;stroke-linecap:butt;stroke-linejoin:miter;stroke-opacity:1" d="M 892.164,354.445 873.622,363.716 z" id="boundary" inkscape:connector-curvature="0" />
	<path style="fill:none;stroke:red;stroke-width:1px;stroke-linecap:butt;stroke-linejoin:miter;stroke-opacity:1" d="M 873.622,363.716 858.789,376.695 z" id="boundary" inkscape:connector-curvature="0" />
	<path style="fill:none;stroke:red;stroke-width:1px;stroke-linecap:butt;stroke-linejoin:miter;stroke-opacity:1" d="M 858.789,376.695 840.247,376.695 z" id="boundary" inkscape:connector-curvature="0" />
	<path style="fill:none;stroke:red;stroke-width:1px;stroke-linecap:butt;stroke-linejoin:miter;stroke-opacity:1" d="M 840.247,376.695 821.705,385.966 z" id="boundary" inkscape:connector-curvature="0" />
	<path style="fill:none;stroke:red;stroke-width:1px;stroke-linecap:butt;stroke-linejoin:miter;stroke-opacity:1" d="M 821.705,385.966 806.871,402.654 z" id="boundary" inkscape:connector-curvature="0" />
	<path style="fill:none;stroke:red;stroke-width:1px;stroke-linecap:butt;stroke-linejoin:miter;stroke-opacity:1" d="M 806.871,402.654 790.183,413.779 z" id="boundary" inkscape:connector-curvature="0" />
	<path style="fill:none;stroke:red;stroke-width:1px;stroke-linecap:butt;stroke-linejoin:miter;stroke-opacity:1" d="M 790.183,413.779 771.641,419.342 z" id="boundary" inkscape:connector-curvature="0" />
	<path style="fill:none;stroke:red;stroke-width:1px;stroke-linecap:butt;stroke-linejoin:miter;stroke-opacity:1" d="M 771.641,419.342 753.099,428.613 z" id="boundary" inkscape:connector-curvature="0" />
	<path style="fill:none;stroke:red;stroke-width:1px;stroke-linecap:butt;stroke-linejoin:miter;stroke-opacity:1" d="M 753.099,428.613 738.265,441.593 z" id="boundary" inkscape:connector-curvature="0" />
	<path style="fill:none;stroke:red;stroke-width:1px;stroke-linecap:butt;stroke-linejoin:miter;stroke-opacity:1" d="M 738.265,441.593 719.723,450.864 z" id="boundary" inkscape:connector-curvature="0" />
	<path style="fill:none;stroke:red;stroke-width:1px;stroke-linecap:butt;stroke-linejoin:miter;stroke-opacity:1" d="M 719.723,450.864 719.723,469.406 z" id="boundary" inkscape:connector-curvature="0" />
	<path style="fill:none;stroke:red;stroke-width:1px;stroke-linecap:butt;stroke-linejoin:miter;stroke-opacity:1" d="M 719.723,469.406 719.723,487.948 z" id="boundary" inkscape:connector-curvature="0" />
	<path style="fill:none;stroke:red;stroke-width:1px;stroke-linecap:butt;stroke-linejoin:miter;stroke-opacity:1" d="M 719.723,487.948 738.265,489.802 z" id="boundary" inkscape:connector-curvature="0" />
	<path style="fill:none;stroke:red;stroke-width:1px;stroke-linecap:butt;stroke-linejoin:miter;stroke-opacity:1" d="M 738.265,489.802 756.807,491.656 z" id="boundary" inkscape:connector-curvature="0" />
	<path style="fill:none;stroke:red;stroke-width:1px;stroke-linecap:butt;stroke-linejoin:miter;stroke-opacity:1" d="M 756.807,491.656 766.079,508.344 z" id="boundary" inkscape:connector-curvature="0" />
	<path style="fill:none;stroke:red;stroke-width:1px;stroke-linecap:butt;stroke-linejoin:miter;stroke-opacity:1" d="M 766.079,508.344 771.641,526.886 z" id="boundary" inkscape:connector-curvature="0" />
	<path style="fill:none;stroke:red;stroke-width:1px;stroke-linecap:butt;stroke-linejoin:miter;stroke-opacity:1" d="M 771.641,526.886 780.912,543.574 z" id="boundary" inkscape:connector-curvature="0" />
	<path style="fill:none;stroke:red;stroke-width:1px;stroke-linecap:butt;stroke-linejoin:miter;stroke-opacity:1" d="M 780.912,543.574 782.766,565.824 z" id="boundary" inkscape:connector-curvature="0" />
	<path style="fill:none;stroke:red;stroke-width:1px;stroke-linecap:butt;stroke-linejoin:miter;stroke-opacity:1" d="M 782.766,565.824 767.933,580.658 z" id="boundary" inkscape:connector-curvature="0" />
	<path style="fill:none;stroke:red;stroke-width:1px;stroke-linecap:butt;stroke-linejoin:miter;stroke-opacity:1" d="M 767.933,580.658 751.245,589.929 z" id="boundary" inkscape:connector-curvature="0" />
	<path style="fill:none;stroke:red;stroke-width:1px;stroke-linecap:butt;stroke-linejoin:miter;stroke-opacity:1" d="M 751.245,589.929 732.703,589.929 z" id="boundary" inkscape:connector-curvature="0" />
	<path style="fill:none;stroke:red;stroke-width:1px;stroke-linecap:butt;stroke-linejoin:miter;stroke-opacity:1" d="M 732.703,589.929 714.161,589.929 z" id="boundary" inkscape:connector-curvature="0" />
	<path style="fill:none;stroke:red;stroke-width:1px;stroke-linecap:butt;stroke-linejoin:miter;stroke-opacity:1" d="M 714.161,589.929 697.473,599.2 z" id="boundary" inkscape:connector-curvature="0" />
	<path style="fill:none;stroke:red;stroke-width:1px;stroke-linecap:butt;stroke-linejoin:miter;stroke-opacity:1" d="M 697.473,599.2 678.931,599.2 z" id="boundary" inkscape:connector-curvature="0" />
	<path style="fill:none;stroke:red;stroke-width:1px;stroke-linecap:butt;stroke-linejoin:miter;stroke-opacity:1" d="M 678.931,599.2 660.389,599.2 z" id="boundary" inkscape:connector-curvature="0" />
	<path style="fill:none;stroke:red;stroke-width:1px;stroke-linecap:butt;stroke-linejoin:miter;stroke-opacity:1" d="M 660.389,599.2 641.847,604.763 z" id="boundary" inkscape:connector-curvature="0" />
	<path style="fill:none;stroke:red;stroke-width:1px;stroke-linecap:butt;stroke-linejoin:miter;stroke-opacity:1" d="M 641.847,604.763 623.305,614.034 z" id="boundary" inkscape:connector-curvature="0" />
	<path style="fill:none;stroke:red;stroke-width:1px;stroke-linecap:butt;stroke-linejoin:miter;stroke-opacity:1" d="M 623.305,614.034 604.763,617.742 z" id="boundary" inkscape:connector-curvature="0" />
	<path style="fill:none;stroke:red;stroke-width:1px;stroke-linecap:butt;stroke-linejoin:miter;stroke-opacity:1" d="M 604.763,617.742 586.221,617.742 z" id="boundary" inkscape:connector-curvature="0" />
	<path style="fill:none;stroke:red;stroke-width:1px;stroke-linecap:butt;stroke-linejoin:miter;stroke-opacity:1" d="M 586.221,617.742 567.679,617.742 z" id="boundary" inkscape:connector-curvature="0" />
	<path style="fill:none;stroke:red;stroke-width:1px;stroke-linecap:butt;stroke-linejoin:miter;stroke-opacity:1" d="M 567.679,617.742 549.136,617.742 z" id="boundary" inkscape:connector-curvature="0" />
	<path style="fill:none;stroke:red;stroke-width:1px;stroke-linecap:butt;stroke-linejoin:miter;stroke-opacity:1" d="M 549.136,617.742 532.449,627.013 z" id="boundary" inkscape:connector-curvature="0" />
	<path style="fill:none;stroke:red;stroke-width:1px;stroke-linecap:butt;stroke-linejoin:miter;stroke-opacity:1" d="M 532.449,627.013 513.907,627.013 z" id="boundary" inkscape:connector-curvature="0" />
	<path style="fill:none;stroke:red;stroke-width:1px;stroke-linecap:butt;stroke-linejoin:miter;stroke-opacity:1" d="M 513.907,627.013 495.364,627.013 z" id="boundary" inkscape:connector-curvature="0" />
	<path style="fill:none;stroke:red;stroke-width:1px;stroke-linecap:butt;stroke-linejoin:miter;stroke-opacity:1" d="M 495.364,627.013 476.822,627.013 z" id="boundary" inkscape:connector-curvature="0" />
	<path style="fill:none;stroke:red;stroke-width:1px;stroke-linecap:butt;stroke-linejoin:miter;stroke-opacity:1" d="M 476.822,627.013 458.28,627.013 z" id="boundary" inkscape:connector-curvature="0" />
	<path style="fill:none;stroke:red;stroke-width:1px;stroke-linecap:butt;stroke-linejoin:miter;stroke-opacity:1" d="M 458.28,627.013 441.593,636.284 z" id="boundary" inkscape:connector-curvature="0" />
	<path style="fill:none;stroke:red;stroke-width:1px;stroke-linecap:butt;stroke-linejoin:miter;stroke-opacity:1" d="M 441.593,636.284 441.593,654.826 z" id="boundary" inkscape:connector-curvature="0" />
	<path style="fill:none;stroke:red;stroke-width:1px;stroke-linecap:butt;stroke-linejoin:miter;stroke-opacity:1" d="M 441.593,654.826 430.467,686.348 z" id="boundary" inkscape:connector-curvature="0" />
	<path style="fill:none;stroke:red;stroke-width:1px;stroke-linecap:butt;stroke-linejoin:miter;stroke-opacity:1" d="M 430.467,686.348 411.925,691.91 z" id="boundary" inkscape:connector-curvature="0" />
	<path style="fill:none;stroke:red;stroke-width:1px;stroke-linecap:butt;stroke-linejoin:miter;stroke-opacity:1" d="M 411.925,691.91 395.237,701.181 z" id="boundary" inkscape:connector-curvature="0" />
	<path style="fill:none;stroke:red;stroke-width:1px;stroke-linecap:butt;stroke-linejoin:miter;stroke-opacity:1" d="M 395.237,701.181 376.695,701.181 z" id="boundary" inkscape:connector-curvature="0" />
	<path style="fill:none;stroke:red;stroke-width:1px;stroke-linecap:butt;stroke-linejoin:miter;stroke-opacity:1" d="M 376.695,701.181 360.007,710.452 z" id="boundary" inkscape:connector-curvature="0" />
	<path style="fill:none;stroke:red;stroke-width:1px;stroke-linecap:butt;stroke-linejoin:miter;stroke-opacity:1" d="M 360.007,710.452 341.465,710.452 z" id="boundary" inkscape:connector-curvature="0" />
	<path style="fill:none;stroke:red;stroke-width:1px;stroke-linecap:butt;stroke-linejoin:miter;stroke-opacity:1" d="M 341.465,710.452 324.778,719.723 z" id="boundary" inkscape:connector-curvature="0" />
	<path style="fill:none;stroke:red;stroke-width:1px;stroke-linecap:butt;stroke-linejoin:miter;stroke-opacity:1" d="M 324.778,719.723 306.236,719.723 z" id="boundary" inkscape:connector-curvature="0" />
	<path style="fill:none;stroke:red;stroke-width:1px;stroke-linecap:butt;stroke-linejoin:miter;stroke-opacity:1" d="M 306.236,719.723 287.693,719.723 z" id="boundary" inkscape:connector-curvature="0" />
	<path style="fill:none;stroke:red;stroke-width:1px;stroke-linecap:butt;stroke-linejoin:miter;stroke-opacity:1" d="M 287.693,719.723 269.151,719.723 z" id="boundary" inkscape:connector-curvature="0" />
	<path style="fill:none;stroke:red;stroke-width:1px;stroke-linecap:butt;stroke-linejoin:miter;stroke-opacity:1" d="M 269.151,719.723 250.609,719.723 z" id="boundary" inkscape:connector-curvature="0" />
	<path style="fill:none;stroke:red;stroke-width:1px;stroke-linecap:butt;stroke-linejoin:miter;stroke-opacity:1" d="M 250.609,719.723 232.067,719.723 z" id="boundary" inkscape:connector-curvature="0" />
	<path style="fill:none;stroke:red;stroke-width:1px;stroke-linecap:butt;stroke-linejoin:miter;stroke-opacity:1" d="M 232.067,719.723 213.525,719.723 z" id="boundary" inkscape:connector-curvature="0" />
	<path style="fill:none;stroke:red;stroke-width:1px;stroke-linecap:butt;stroke-linejoin:miter;stroke-opacity:1" d="M 213.525,719.723 194.983,719.723 z" id="boundary" inkscape:connector-curvature="0" />
	<path style="fill:none;stroke:red;stroke-width:1px;stroke-linecap:butt;stroke-linejoin:miter;stroke-opacity:1" d="M 194.983,719.723 176.441,727.14 z" id="boundary" inkscape:connector-curvature="0" />
	<path style="fill:none;stroke:red;stroke-width:1px;stroke-linecap:butt;stroke-linejoin:miter;stroke-opacity:1" d="M 176.441,727.14 161.607,738.265 z" id="boundary" inkscape:connector-curvature="0" />
	<path style="fill:none;stroke:red;stroke-width:1px;stroke-linecap:butt;stroke-linejoin:miter;stroke-opacity:1" d="M 161.607,738.265 144.92,728.994 z" id="boundary" inkscape:connector-curvature="0" />
	<path style="fill:none;stroke:red;stroke-width:1px;stroke-linecap:butt;stroke-linejoin:miter;stroke-opacity:1" d="M 144.92,728.994 126.378,728.994 z" id="boundary" inkscape:connector-curvature="0" />
	<path style="fill:none;stroke:red;stroke-width:1px;stroke-linecap:butt;stroke-linejoin:miter;stroke-opacity:1" d="M 126.378,728.994 109.69,738.265 z" id="boundary" inkscape:connector-curvature="0" />
	<path style="fill:none;stroke:red;stroke-width:1px;stroke-linecap:butt;stroke-linejoin:miter;stroke-opacity:1" d="M 109.69,738.265 91.1477,738.265 z" id="boundary" inkscape:connector-curvature="0" />
	<path style="fill:none;stroke:red;stroke-width:1px;stroke-linecap:butt;stroke-linejoin:miter;stroke-opacity:1" d="M 91.1477,738.265 74.4598,728.994 z" id="boundary" inkscape:connector-curvature="0" />
	<path style="fill:none;stroke:red;stroke-width:1px;stroke-linecap:butt;stroke-linejoin:miter;stroke-opacity:1" d="M 74.4598,728.994 55.9178,728.994 z" id="boundary" inkscape:connector-curvature="0" />
	<path style="fill:none;stroke:red;stroke-width:1px;stroke-linecap:butt;stroke-linejoin:miter;stroke-opacity:1" d="M 55.9178,728.994 37.3757,728.994 z" id="boundary" inkscape:connector-curvature="0" />
	<path style="fill:none;stroke:red;stroke-width:1px;stroke-linecap:butt;stroke-linejoin:miter;stroke-opacity:1" d="M 37.3757,728.994 18.8336,727.14 z" id="boundary" inkscape:connector-curvature="0" />
	<path style="fill:none;stroke:red;stroke-width:1px;stroke-linecap:butt;stroke-linejoin:miter;stroke-opacity:1" d="M 18.8336,727.14 4,714.161 z" id="boundary" inkscape:connector-curvature="0" />
	<path style="fill:none;stroke:red;stroke-width:1px;stroke-linecap:butt;stroke-linejoin:miter;stroke-opacity:1" d="M 4,714.161 13.271,695.619 z" id="boundary" inkscape:connector-curvature="0" />
	<path style="fill:none;stroke:red;stroke-width:1px;stroke-linecap:butt;stroke-linejoin:miter;stroke-opacity:1" d="M 13.271,695.619 28.1047,680.785 z" id="boundary" inkscape:connector-curvature="0" />
	<path style="fill:none;stroke:red;stroke-width:1px;stroke-linecap:butt;stroke-linejoin:miter;stroke-opacity:1" d="M 28.1047,680.785 46.6467,680.785 z" id="boundary" inkscape:connector-curvature="0" />
	<path style="fill:none;stroke:red;stroke-width:1px;stroke-linecap:butt;stroke-linejoin:miter;stroke-opacity:1" d="M 46.6467,680.785 52.2093,699.327 z" id="boundary" inkscape:connector-curvature="0" />
	<path style="fill:none;stroke:red;stroke-width:1px;stroke-linecap:butt;stroke-linejoin:miter;stroke-opacity:1" d="M 52.2093,699.327 70.7514,699.327 z" id="boundary" inkscape:connector-curvature="0" />
	<path style="fill:none;stroke:red;stroke-width:1px;stroke-linecap:butt;stroke-linejoin:miter;stroke-opacity:1" d="M 70.7514,699.327 87.4393,708.598 z" id="boundary" inkscape:connector-curvature="0" />
	<path style="fill:none;stroke:red;stroke-width:1px;stroke-linecap:butt;stroke-linejoin:miter;stroke-opacity:1" d="M 87.4393,708.598 105.981,708.598 z" id="boundary" inkscape:connector-curvature="0" />
	<path style="fill:none;stroke:red;stroke-width:1px;stroke-linecap:butt;stroke-linejoin:miter;stroke-opacity:1" d="M 105.981,708.598 124.523,704.89 z" id="boundary" inkscape:connector-curvature="0" />
	<path style="fill:none;stroke:red;stroke-width:1px;stroke-linecap:butt;stroke-linejoin:miter;stroke-opacity:1" d="M 124.523,704.89 143.065,699.327 z" id="boundary" inkscape:connector-curvature="0" />
	<path style="fill:none;stroke:red;stroke-width:1px;stroke-linecap:butt;stroke-linejoin:miter;stroke-opacity:1" d="M 143.065,699.327 159.753,690.056 z" id="boundary" inkscape:connector-curvature="0" />
	<path style="fill:none;stroke:red;stroke-width:1px;stroke-linecap:butt;stroke-linejoin:miter;stroke-opacity:1" d="M 159.753,690.056 178.295,690.056 z" id="boundary" inkscape:connector-curvature="0" />
	<path style="fill:none;stroke:red;stroke-width:1px;stroke-linecap:butt;stroke-linejoin:miter;stroke-opacity:1" d="M 178.295,690.056 189.421,664.097 z" id="boundary" inkscape:connector-curvature="0" />
	<path style="fill:none;stroke:red;stroke-width:1px;stroke-linecap:butt;stroke-linejoin:miter;stroke-opacity:1" d="M 189.421,664.097 189.421,645.555 z" id="boundary" inkscape:connector-curvature="0" />
	<path style="fill:none;stroke:red;stroke-width:1px;stroke-linecap:butt;stroke-linejoin:miter;stroke-opacity:1" d="M 189.421,645.555 189.421,627.013 z" id="boundary" inkscape:connector-curvature="0" />
	<path style="fill:none;stroke:red;stroke-width:1px;stroke-linecap:butt;stroke-linejoin:miter;stroke-opacity:1" d="M 189.421,627.013 172.733,617.742 z" id="boundary" inkscape:connector-curvature="0" />
	<path style="fill:none;stroke:red;stroke-width:1px;stroke-linecap:butt;stroke-linejoin:miter;stroke-opacity:1" d="M 172.733,617.742 154.191,617.742 z" id="boundary" inkscape:connector-curvature="0" />
	<path style="fill:none;stroke:red;stroke-width:1px;stroke-linecap:butt;stroke-linejoin:miter;stroke-opacity:1" d="M 154.191,617.742 135.649,612.179 z" id="boundary" inkscape:connector-curvature="0" />
	<path style="fill:none;stroke:red;stroke-width:1px;stroke-linecap:butt;stroke-linejoin:miter;stroke-opacity:1" d="M 135.649,612.179 120.815,599.2 z" id="boundary" inkscape:connector-curvature="0" />
	<path style="fill:none;stroke:red;stroke-width:1px;stroke-linecap:butt;stroke-linejoin:miter;stroke-opacity:1" d="M 120.815,599.2 102.273,597.346 z" id="boundary" inkscape:connector-curvature="0" />
	<path style="fill:none;stroke:red;stroke-width:1px;stroke-linecap:butt;stroke-linejoin:miter;stroke-opacity:1" d="M 102.273,597.346 83.7308,599.2 z" id="boundary" inkscape:connector-curvature="0" />
	<path style="fill:none;stroke:red;stroke-width:1px;stroke-linecap:butt;stroke-linejoin:miter;stroke-opacity:1" d="M 83.7308,599.2 70.7514,584.366 z" id="boundary" inkscape:connector-curvature="0" />
	<path style="fill:none;stroke:red;stroke-width:1px;stroke-linecap:butt;stroke-linejoin:miter;stroke-opacity:1" d="M 70.7514,584.366 52.2093,586.221 z" id="boundary" inkscape:connector-curvature="0" />
	<path style="fill:none;stroke:red;stroke-width:1px;stroke-linecap:butt;stroke-linejoin:miter;stroke-opacity:1" d="M 52.2093,586.221 41.0841,571.387 z" id="boundary" inkscape:connector-curvature="0" />
	<path style="fill:none;stroke:red;stroke-width:1px;stroke-linecap:butt;stroke-linejoin:miter;stroke-opacity:1" d="M 41.0841,571.387 31.8131,554.699 z" id="boundary" inkscape:connector-curvature="0" />
	<path style="fill:none;stroke:red;stroke-width:1px;stroke-linecap:butt;stroke-linejoin:miter;stroke-opacity:1" d="M 31.8131,554.699 22.5421,538.011 z" id="boundary" inkscape:connector-curvature="0" />
	<path style="fill:none;stroke:red;stroke-width:1px;stroke-linecap:butt;stroke-linejoin:miter;stroke-opacity:1" d="M 22.5421,538.011 22.5421,519.469 z" id="boundary" inkscape:connector-curvature="0" />
	<path style="fill:none;stroke:red;stroke-width:1px;stroke-linecap:butt;stroke-linejoin:miter;stroke-opacity:1" d="M 22.5421,519.469 22.5421,500.927 z" id="boundary" inkscape:connector-curvature="0" />
	<path style="fill:none;stroke:red;stroke-width:1px;stroke-linecap:butt;stroke-linejoin:miter;stroke-opacity:1" d="M 22.5421,500.927 22.5421,482.385 z" id="boundary" inkscape:connector-curvature="0" />
	<path style="fill:none;stroke:red;stroke-width:1px;stroke-linecap:butt;stroke-linejoin:miter;stroke-opacity:1" d="M 22.5421,482.385 22.5421,463.843 z" id="boundary" inkscape:connector-curvature="0" />
	<path style="fill:none;stroke:red;stroke-width:1px;stroke-linecap:butt;stroke-linejoin:miter;stroke-opacity:1" d="M 22.5421,463.843 22.5421,445.301 z" id="boundary" inkscape:connector-curvature="0" />
	<path style="fill:none;stroke:red;stroke-width:1px;stroke-linecap:butt;stroke-linejoin:miter;stroke-opacity:1" d="M 22.5421,445.301 31.8131,426.759 z" id="boundary" inkscape:connector-curvature="0" />
	<path style="fill:none;stroke:red;stroke-width:1px;stroke-linecap:butt;stroke-linejoin:miter;stroke-opacity:1" d="M 31.8131,426.759 31.8131,408.217 z" id="boundary" inkscape:connector-curvature="0" />
	<path style="fill:none;stroke:red;stroke-width:1px;stroke-linecap:butt;stroke-linejoin:miter;stroke-opacity:1" d="M 31.8131,408.217 41.0841,380.404 z" id="boundary" inkscape:connector-curvature="0" />
	<path style="fill:none;stroke:red;stroke-width:1px;stroke-linecap:butt;stroke-linejoin:miter;stroke-opacity:1" d="M 41.0841,380.404 50.3551,361.862 z" id="boundary" inkscape:connector-curvature="0" />
	<path style="fill:none;stroke:red;stroke-width:1px;stroke-linecap:butt;stroke-linejoin:miter;stroke-opacity:1" d="M 50.3551,361.862 50.3551,343.32 z" id="boundary" inkscape:connector-curvature="0" />
	<path style="fill:none;stroke:red;stroke-width:1px;stroke-linecap:butt;stroke-linejoin:miter;stroke-opacity:1" d="M 50.3551,343.32 59.6262,324.778 z" id="boundary" inkscape:connector-curvature="0" />
	<path style="fill:none;stroke:red;stroke-width:1px;stroke-linecap:butt;stroke-linejoin:miter;stroke-opacity:1" d="M 59.6262,324.778 68.8972,306.236 z" id="boundary" inkscape:connector-curvature="0" />
	<path style="fill:none;stroke:red;stroke-width:1px;stroke-linecap:butt;stroke-linejoin:miter;stroke-opacity:1" d="M 68.8972,306.236 87.4393,287.693 z" id="boundary" inkscape:connector-curvature="0" />
	<path style="fill:none;stroke:red;stroke-width:1px;stroke-linecap:butt;stroke-linejoin:miter;stroke-opacity:1" d="M 87.4393,287.693 105.981,278.422 z" id="boundary" inkscape:connector-curvature="0" />
	<path style="fill:none;stroke:red;stroke-width:1px;stroke-linecap:butt;stroke-linejoin:miter;stroke-opacity:1" d="M 105.981,278.422 120.815,263.589 z" id="boundary" inkscape:connector-curvature="0" />
	<path style="fill:none;stroke:red;stroke-width:1px;stroke-linecap:butt;stroke-linejoin:miter;stroke-opacity:1" d="M 120.815,263.589 135.649,248.755 z" id="boundary" inkscape:connector-curvature="0" />
	<path style="fill:none;stroke:red;stroke-width:1px;stroke-linecap:butt;stroke-linejoin:miter;stroke-opacity:1" d="M 135.649,248.755 154.191,239.484 z" id="boundary" inkscape:connector-curvature="0" />
	<path style="fill:none;stroke:red;stroke-width:1px;stroke-linecap:butt;stroke-linejoin:miter;stroke-opacity:1" d="M 154.191,239.484 169.024,226.505 z" id="boundary" inkscape:connector-curvature="0" />
	<path style="fill:none;stroke:red;stroke-width:1px;stroke-linecap:butt;stroke-linejoin:miter;stroke-opacity:1" d="M 169.024,226.505 182.004,211.671 z" id="boundary" inkscape:connector-curvature="0" />
	<path style="fill:none;stroke:red;stroke-width:1px;stroke-linecap:butt;stroke-linejoin:miter;stroke-opacity:1" d="M 182.004,211.671 198.692,194.983 z" id="boundary" inkscape:connector-curvature="0" />
	<path style="fill:none;stroke:red;stroke-width:1px;stroke-linecap:butt;stroke-linejoin:miter;stroke-opacity:1" d="M 198.692,194.983 217.234,189.421 z" id="boundary" inkscape:connector-curvature="0" />
	<path style="fill:none;stroke:red;stroke-width:1px;stroke-linecap:butt;stroke-linejoin:miter;stroke-opacity:1" d="M 217.234,189.421 235.776,189.421 z" id="boundary" inkscape:connector-curvature="0" />
	<path style="fill:none;stroke:red;stroke-width:1px;stroke-linecap:butt;stroke-linejoin:miter;stroke-opacity:1" d="M 235.776,189.421 254.318,189.421 z" id="boundary" inkscape:connector-curvature="0" />
	<path style="fill:none;stroke:red;stroke-width:1px;stroke-linecap:butt;stroke-linejoin:miter;stroke-opacity:1" d="M 254.318,189.421 272.86,189.421 z" id="boundary" inkscape:connector-curvature="0" />
	<path style="fill:none;stroke:red;stroke-width:1px;stroke-linecap:butt;stroke-linejoin:miter;stroke-opacity:1" d="M 272.86,189.421 291.402,189.421 z" id="boundary" inkscape:connector-curvature="0" />
	<path style="fill:none;stroke:red;stroke-width:1px;stroke-linecap:butt;stroke-linejoin:miter;stroke-opacity:1" d="M 291.402,189.421 309.944,189.421 z" id="boundary" inkscape:connector-curvature="0" />
	<path style="fill:none;stroke:red;stroke-width:1px;stroke-linecap:butt;stroke-linejoin:miter;stroke-opacity:1" d="M 309.944,189.421 326.632,180.15 z" id="boundary" inkscape:connector-curvature="0" />
	<path style="fill:none;stroke:red;stroke-width:1px;stroke-linecap:butt;stroke-linejoin:miter;stroke-opacity:1" d="M 326.632,180.15 345.174,180.15 z" id="boundary" inkscape:connector-curvature="0" />
	<path style="fill:none;stroke:red;stroke-width:1px;stroke-linecap:butt;stroke-linejoin:miter;stroke-opacity:1" d="M 345.174,180.15 361.862,170.879 z" id="boundary" inkscape:connector-curvature="0" />
	<path style="fill:none;stroke:red;stroke-width:1px;stroke-linecap:butt;stroke-linejoin:miter;stroke-opacity:1" d="M 361.862,170.879 380.404,170.879 z" id="boundary" inkscape:connector-curvature="0" />
	<path style="fill:none;stroke:red;stroke-width:1px;stroke-linecap:butt;stroke-linejoin:miter;stroke-opacity:1" d="M 380.404,170.879 397.092,161.607 z" id="boundary" inkscape:connector-curvature="0" />
	<path style="fill:none;stroke:red;stroke-width:1px;stroke-linecap:butt;stroke-linejoin:miter;stroke-opacity:1" d="M 397.092,161.607 395.237,130.086 z" id="boundary" inkscape:connector-curvature="0" />
	<path style="fill:none;stroke:red;stroke-width:1px;stroke-linecap:butt;stroke-linejoin:miter;stroke-opacity:1" d="M 395.237,130.086 380.404,117.107 z" id="boundary" inkscape:connector-curvature="0" />
	<path style="fill:none;stroke:red;stroke-width:1px;stroke-linecap:butt;stroke-linejoin:miter;stroke-opacity:1" d="M 380.404,117.107 374.841,98.5645 z" id="boundary" inkscape:connector-curvature="0" />
	<path style="fill:none;stroke:red;stroke-width:1px;stroke-linecap:butt;stroke-linejoin:miter;stroke-opacity:1" d="M 374.841,98.5645 374.841,80.0224 z" id="boundary" inkscape:connector-curvature="0" />
	<path style="fill:none;stroke:red;stroke-width:1px;stroke-linecap:butt;stroke-linejoin:miter;stroke-opacity:1" d="M 374.841,80.0224 371.133,61.4804 z" id="boundary" inkscape:connector-curvature="0" />
	<path style="fill:none;stroke:red;stroke-width:1px;stroke-linecap:butt;stroke-linejoin:miter;stroke-opacity:1" d="M 371.133,61.4804 352.591,61.4804 z" id="boundary" inkscape:connector-curvature="0" />
	<path style="fill:none;stroke:red;stroke-width:1px;stroke-linecap:butt;stroke-linejoin:miter;stroke-opacity:1" d="M 352.591,61.4804 334.049,68.8972 z" id="boundary" inkscape:connector-curvature="0" />
	<path style="fill:none;stroke:red;stroke-width:1px;stroke-linecap:butt;stroke-linejoin:miter;stroke-opacity:1" d="M 334.049,68.8972 319.215,55.9178 z" id="boundary" inkscape:connector-curvature="0" />
	<path style="fill:none;stroke:red;stroke-width:1px;stroke-linecap:butt;stroke-linejoin:miter;stroke-opacity:1" d="M 319.215,55.9178 328.486,37.3757 z" id="boundary" inkscape:connector-curvature="0" />
	<path style="fill:none;stroke:red;stroke-width:1px;stroke-linecap:butt;stroke-linejoin:miter;stroke-opacity:1" d="M 328.486,37.3757 347.028,28.1047 z" id="boundary" inkscape:connector-curvature="0" />
	<path style="fill:none;stroke:red;stroke-width:1px;stroke-linecap:butt;stroke-linejoin:miter;stroke-opacity:1" d="M 347.028,28.1047 365.57,28.1047 z" id="boundary" inkscape:connector-curvature="0" />
	<path style="fill:none;stroke:red;stroke-width:1px;stroke-linecap:butt;stroke-linejoin:miter;stroke-opacity:1" d="M 365.57,28.1047 384.112,18.8336 z" id="boundary" inkscape:connector-curvature="0" />
	<path style="fill:none;stroke:red;stroke-width:1px;stroke-linecap:butt;stroke-linejoin:miter;stroke-opacity:1" d="M 384.112,18.8336 398.946,4 z" id="boundary" inkscape:connector-curvature="0" />
	<path style="fill:none;stroke:red;stroke-width:1px;stroke-linecap:butt;stroke-linejoin:miter;stroke-opacity:1" d="M 398.946,4 415.634,13.271 z" id="boundary" inkscape:connector-curvature="0" />
	<path style="fill:none;stroke:red;stroke-width:1px;stroke-linecap:butt;stroke-linejoin:miter;stroke-opacity:1" d="M 415.634,13.271 434.176,13.271 z" id="boundary" inkscape:connector-curvature="0" />
	<path style="fill:none;stroke:red;stroke-width:1px;stroke-linecap:butt;stroke-linejoin:miter;stroke-opacity:1" d="M 434.176,13.271 452.718,13.271 z" id="boundary" inkscape:connector-curvature="0" />
	<path style="fill:none;stroke:red;stroke-width:1px;stroke-linecap:butt;stroke-linejoin:miter;stroke-opacity:1" d="M 452.718,13.271 467.551,26.2505 z" id="boundary" inkscape:connector-curvature="0" />
	<path style="fill:none;stroke:red;stroke-width:1px;stroke-linecap:butt;stroke-linejoin:miter;stroke-opacity:1" d="M 467.551,26.2505 469.406,44.7925 z" id="boundary" inkscape:connector-curvature="0" />
	<path style="fill:none;stroke:red;stroke-width:1px;stroke-linecap:butt;stroke-linejoin:miter;stroke-opacity:1" d="M 469.406,44.7925 450.864,61.4804 z" id="boundary" inkscape:connector-curvature="0" />
	<path style="fill:none;stroke:red;stroke-width:1px;stroke-linecap:butt;stroke-linejoin:miter;stroke-opacity:1" d="M 450.864,61.4804 439.738,80.0224 z" id="boundary" inkscape:connector-curvature="0" />
	<path style="fill:none;stroke:red;stroke-width:1px;stroke-linecap:butt;stroke-linejoin:miter;stroke-opacity:1" d="M 439.738,80.0224 423.05,89.2935 z" id="boundary" inkscape:connector-curvature="0" />
	<path style="fill:none;stroke:red;stroke-width:1px;stroke-linecap:butt;stroke-linejoin:miter;stroke-opacity:1" d="M 423.05,89.2935 456.426,89.2935 z" id="boundary" inkscape:connector-curvature="0" />
	<path style="fill:none;stroke:red;stroke-width:1px;stroke-linecap:butt;stroke-linejoin:miter;stroke-opacity:1" d="M 456.426,89.2935 465.697,113.398 z" id="boundary" inkscape:connector-curvature="0" />
	<path style="fill:none;stroke:red;stroke-width:1px;stroke-linecap:butt;stroke-linejoin:miter;stroke-opacity:1" d="M 465.697,113.398 450.864,126.378 z" id="boundary" inkscape:connector-curvature="0" />
	<path style="fill:none;stroke:red;stroke-width:1px;stroke-linecap:butt;stroke-linejoin:miter;stroke-opacity:1" d="M 450.864,126.378 432.321,135.649 z" id="boundary" inkscape:connector-curvature="0" />
	<path style="fill:none;stroke:red;stroke-width:1px;stroke-linecap:butt;stroke-linejoin:miter;stroke-opacity:1" d="M 432.321,135.649 441.593,152.336 z" id="boundary" inkscape:connector-curvature="0" />
	<path style="fill:none;stroke:red;stroke-width:1px;stroke-linecap:butt;stroke-linejoin:miter;stroke-opacity:1" d="M 441.593,152.336 456.426,163.462 z" id="boundary" inkscape:connector-curvature="0" />
	<path style="fill:none;stroke:red;stroke-width:1px;stroke-linecap:butt;stroke-linejoin:miter;stroke-opacity:1" d="M 456.426,163.462 474.968,170.879 z" id="boundary" inkscape:connector-curvature="0" />
	<path style="fill:none;stroke:red;stroke-width:1px;stroke-linecap:butt;stroke-linejoin:miter;stroke-opacity:1" d="M 474.968,170.879 491.656,161.607 z" id="boundary" inkscape:connector-curvature="0" />
	<path style="fill:none;stroke:red;stroke-width:1px;stroke-linecap:butt;stroke-linejoin:miter;stroke-opacity:1" d="M 491.656,161.607 510.198,161.607 z" id="boundary" inkscape:connector-curvature="0" />
	<path style="fill:none;stroke:red;stroke-width:1px;stroke-linecap:butt;stroke-linejoin:miter;stroke-opacity:1" d="M 510.198,161.607 528.74,161.607 z" id="boundary" inkscape:connector-curvature="0" />
	<path style="fill:none;stroke:red;stroke-width:1px;stroke-linecap:butt;stroke-linejoin:miter;stroke-opacity:1" d="M 528.74,161.607 547.282,161.607 z" id="boundary" inkscape:connector-curvature="0" />
	<path style="fill:none;stroke:red;stroke-width:1px;stroke-linecap:butt;stroke-linejoin:miter;stroke-opacity:1" d="M 547.282,161.607 565.824,161.607 z" id="boundary" inkscape:connector-curvature="0" />
	<path style="fill:none;stroke:red;stroke-width:1px;stroke-linecap:butt;stroke-linejoin:miter;stroke-opacity:1" d="M 565.824,161.607 584.366,161.607 z" id="boundary" inkscape:connector-curvature="0" />
	<path style="fill:none;stroke:red;stroke-width:1px;stroke-linecap:butt;stroke-linejoin:miter;stroke-opacity:1" d="M 584.366,161.607 602.908,161.607 z" id="boundary" inkscape:connector-curvature="0" />
	<path style="fill:none;stroke:red;stroke-width:1px;stroke-linecap:butt;stroke-linejoin:miter;stroke-opacity:1" d="M 602.908,161.607 621.45,161.607 z" id="boundary" inkscape:connector-curvature="0" />
	<path style="fill:none;stroke:red;stroke-width:1px;stroke-linecap:butt;stroke-linejoin:miter;stroke-opacity:1" d="M 621.45,161.607 627.013,180.15 z" id="boundary" inkscape:connector-curvature="0" />
	<path style="fill:none;stroke:red;stroke-width:1px;stroke-linecap:butt;stroke-linejoin:miter;stroke-opacity:1" d="M 627.013,180.15 636.284,196.837 z" id="boundary" inkscape:connector-curvature="0" />
	<path style="fill:none;stroke:red;stroke-width:1px;stroke-linecap:butt;stroke-linejoin:miter;stroke-opacity:1" d="M 636.284,196.837 651.118,207.963 z" id="boundary" inkscape:connector-curvature="0" />
	<path style="fill:none;stroke:red;stroke-width:1px;stroke-linecap:butt;stroke-linejoin:miter;stroke-opacity:1" d="M 651.118,207.963 669.66,207.963 z" id="boundary" inkscape:connector-curvature="0" />
	<path style="fill:none;stroke:red;stroke-width:1px;stroke-linecap:butt;stroke-linejoin:miter;stroke-opacity:1" d="M 669.66,207.963 688.202,209.817 z" id="boundary" inkscape:connector-curvature="0" />
	<path style="fill:none;stroke:red;stroke-width:1px;stroke-linecap:butt;stroke-linejoin:miter;stroke-opacity:1" d="M 688.202,209.817 691.91,228.359 z" id="boundary" inkscape:connector-curvature="0" />
	<path style="fill:none;stroke:red;stroke-width:1px;stroke-linecap:butt;stroke-linejoin:miter;stroke-opacity:1" d="M 691.91,228.359 682.639,256.172 z" id="boundary" inkscape:connector-curvature="0" />
	<path style="fill:none;stroke:red;stroke-width:1px;stroke-linecap:butt;stroke-linejoin:miter;stroke-opacity:1" d="M 682.639,256.172 673.368,274.714 z" id="boundary" inkscape:connector-curvature="0" />
	<path style="fill:none;stroke:red;stroke-width:1px;stroke-linecap:butt;stroke-linejoin:miter;stroke-opacity:1" d="M 673.368,274.714 654.826,274.714 z" id="boundary" inkscape:connector-curvature="0" />
	<path style="fill:none;stroke:red;stroke-width:1px;stroke-linecap:butt;stroke-linejoin:miter;stroke-opacity:1" d="M 654.826,274.714 636.284,274.714 z" id="boundary" inkscape:connector-curvature="0" />
	<path style="fill:none;stroke:red;stroke-width:1px;stroke-linecap:butt;stroke-linejoin:miter;stroke-opacity:1" d="M 636.284,274.714 645.555,291.402 z" id="boundary" inkscape:connector-curvature="0" />
	<path style="fill:none;stroke:red;stroke-width:1px;stroke-linecap:butt;stroke-linejoin:miter;stroke-opacity:1" d="M 645.555,291.402 664.097,296.964 z" id="boundary" inkscape:connector-curvature="0" />
	<path style="fill:none;stroke:red;stroke-width:1px;stroke-linecap:butt;stroke-linejoin:miter;stroke-opacity:1" d="M 664.097,296.964 682.639,300.673 z" id="boundary" inkscape:connector-curvature="0" />
	<path style="fill:none;stroke:red;stroke-width:1px;stroke-linecap:butt;stroke-linejoin:miter;stroke-opacity:1" d="M 682.639,300.673 699.327,291.402 z" id="boundary" inkscape:connector-curvature="0" />
	<path style="fill:none;stroke:red;stroke-width:1px;stroke-linecap:butt;stroke-linejoin:miter;stroke-opacity:1" d="M 699.327,291.402 717.869,291.402 z" id="boundary" inkscape:connector-curvature="0" />
	<path style="fill:none;stroke:red;stroke-width:1px;stroke-linecap:butt;stroke-linejoin:miter;stroke-opacity:1" d="M 717.869,291.402 736.411,291.402 z" id="boundary" inkscape:connector-curvature="0" />
	<path style="fill:none;stroke:red;stroke-width:1px;stroke-linecap:butt;stroke-linejoin:miter;stroke-opacity:1" d="M 736.411,291.402 754.953,291.402 z" id="boundary" inkscape:connector-curvature="0" />
	<path style="fill:none;stroke:red;stroke-width:1px;stroke-linecap:butt;stroke-linejoin:miter;stroke-opacity:1" d="M 754.953,291.402 773.495,291.402 z" id="boundary" inkscape:connector-curvature="0" />
	<path style="fill:none;stroke:red;stroke-width:1px;stroke-linecap:butt;stroke-linejoin:miter;stroke-opacity:1" d="M 773.495,291.402 792.037,291.402 z" id="boundary" inkscape:connector-curvature="0" />
	<path style="fill:none;stroke:red;stroke-width:1px;stroke-linecap:butt;stroke-linejoin:miter;stroke-opacity:1" d="M 792.037,291.402 810.579,291.402 z" id="boundary" inkscape:connector-curvature="0" />
	<path style="fill:none;stroke:red;stroke-width:1px;stroke-linecap:butt;stroke-linejoin:miter;stroke-opacity:1" d="M 810.579,291.402 829.121,291.402 z" id="boundary" inkscape:connector-curvature="0" />
	<path style="fill:none;stroke:red;stroke-width:1px;stroke-linecap:butt;stroke-linejoin:miter;stroke-opacity:1" d="M 829.121,291.402 847.664,291.402 z" id="boundary" inkscape:connector-curvature="0" />
	<path style="fill:none;stroke:red;stroke-width:1px;stroke-linecap:butt;stroke-linejoin:miter;stroke-opacity:1" d="M 847.664,291.402 866.206,291.402 z" id="boundary" inkscape:connector-curvature="0" />
	<path style="fill:none;stroke:red;stroke-width:1px;stroke-linecap:butt;stroke-linejoin:miter;stroke-opacity:1" d="M 866.206,291.402 884.748,291.402 z" id="boundary" inkscape:connector-curvature="0" />
	<path style="fill:none;stroke:red;stroke-width:1px;stroke-linecap:butt;stroke-linejoin:miter;stroke-opacity:1" d="M 884.748,291.402 903.29,291.402 z" id="boundary" inkscape:connector-curvature="0" />
	<path style="fill:none;stroke:red;stroke-width:1px;stroke-linecap:butt;stroke-linejoin:miter;stroke-opacity:1" d="M 903.29,291.402 919.978,300.673 z" id="boundary" inkscape:connector-curvature="0" />
	<path style="fill:none;stroke:red;stroke-width:1px;stroke-linecap:butt;stroke-linejoin:miter;stroke-opacity:1" d="M 919.978,300.673 936.665,291.402 z" id="boundary" inkscape:connector-curvature="0" />
	<path style="fill:none;stroke:red;stroke-width:1px;stroke-linecap:butt;stroke-linejoin:miter;stroke-opacity:1" d="M 936.665,291.402 955.207,282.131 z" id="boundary" inkscape:connector-curvature="0" />
	<path style="fill:none;stroke:red;stroke-width:1px;stroke-linecap:butt;stroke-linejoin:miter;stroke-opacity:1" d="M 955.207,282.131 971.895,272.86 z" id="boundary" inkscape:connector-curvature="0" />
	<path style="fill:none;stroke:red;stroke-width:1px;stroke-linecap:butt;stroke-linejoin:miter;stroke-opacity:1" d="M 971.895,272.86 988.583,282.131 z" id="boundary" inkscape:connector-curvature="0" />
	<circle cx="4" cy="714.161" r="4" fill="#0" id="circle0"/>
	<circle cx="13.271" cy="695.619" r="4" fill="#0" id="circle1"/>
	<circle cx="18.8336" cy="727.14" r="4" fill="#0" id="circle2"/>
	<circle cx="22.5421" cy="445.301" r="4" fill="#0" id="circle3"/>
	<circle cx="22.5421" cy="463.843" r="4" fill="#0" id="circle4"/>
	<circle cx="22.5421" cy="482.385" r="4" fill="#0" id="circle5"/>
	<circle cx="22.5421" cy="500.927" r="4" fill="#0" id="circle6"/>
	<circle cx="22.5421" cy="519.469" r="4" fill="#0" id="circle7"/>
	<circle cx="22.5421" cy="538.011" r="4" fill="#0" id="circle8"/>
	<circle cx="28.1047" cy="680.785" r="4" fill="#0" id="circle9"/>
	<circle cx="31.8131" cy="408.217" r="4" fill="#0" id="circle10"/>
	<circle cx="31.8131" cy="426.759" r="4" fill="#0" id="circle11"/>
	<circle cx="31.8131" cy="554.699" r="4" fill="#0" id="circle12"/>
	<circle cx="37.3757" cy="728.994" r="4" fill="#0" id="circle13"/>
	<circle cx="41.0841" cy="380.404" r="4" fill="#0" id="circle14"/>
	<circle cx="41.0841" cy="571.387" r="4" fill="#0" id="circle15"/>
	<circle cx="46.6467" cy="680.785" r="4" fill="#0" id="circle16"/>
	<circle cx="50.3551" cy="343.32" r="4" fill="#0" id="circle17"/>
	<circle cx="50.3551" cy="361.862" r="4" fill="#0" id="circle18"/>
	<circle cx="52.2093" cy="586.221" r="4" fill="#0" id="circle19"/>
	<circle cx="52.2093" cy="699.327" r="4" fill="#0" id="circle20"/>
	<circle cx="55.9178" cy="728.994" r="4" fill="#0" id="circle21"/>
	<circle cx="59.6262" cy="324.778" r="4" fill="#0" id="circle22"/>
	<circle cx="68.8972" cy="306.236" r="4" fill="#0" id="circle23"/>
	<circle cx="70.7514" cy="584.366" r="4" fill="#0" id="circle24"/>
	<circle cx="70.7514" cy="699.327" r="4" fill="#0" id="circle25"/>
	<circle cx="74.4598" cy="728.994" r="4" fill="#0" id="circle26"/>
	<circle cx="83.7308" cy="599.2" r="4" fill="#0" id="circle27"/>
	<circle cx="87.4393" cy="287.693" r="4" fill="#0" id="circle28"/>
	<circle cx="87.4393" cy="708.598" r="4" fill="#0" id="circle29"/>
	<circle cx="91.1477" cy="738.265" r="4" fill="#0" id="circle30"/>
	<circle cx="102.273" cy="597.346" r="4" fill="#0" id="circle31"/>
	<circle cx="105.981" cy="278.422" r="4" fill="#0" id="circle32"/>
	<circle cx="105.981" cy="708.598" r="4" fill="#0" id="circle33"/>
	<circle cx="109.69" cy="738.265" r="4" fill="#0" id="circle34"/>
	<circle cx="120.815" cy="263.589" r="4" fill="#0" id="circle35"/>
	<circle cx="120.815" cy="599.2" r="4" fill="#0" id="circle36"/>
	<circle cx="124.523" cy="704.89" r="4" fill="#0" id="circle37"/>
	<circle cx="126.378" cy="728.994" r="4" fill="#0" id="circle38"/>
	<circle cx="135.649" cy="248.755" r="4" fill="#0" id="circle39"/>
	<circle cx="135.649" cy="612.179" r="4" fill="#0" id="circle40"/>
	<circle cx="143.065" cy="699.327" r="4" fill="#0" id="circle41"/>
	<circle cx="144.92" cy="728.994" r="4" fill="#0" id="circle42"/>
	<circle cx="154.191" cy="239.484" r="4" fill="#0" id="circle43"/>
	<circle cx="154.191" cy="617.742" r="4" fill="#0" id="circle44"/>
	<circle cx="159.753" cy="690.056" r="4" fill="#0" id="circle45"/>
	<circle cx="161.607" cy="738.265" r="4" fill="#0" id="circle46"/>
	<circle cx="169.024" cy="226.505" r="4" fill="#0" id="circle47"/>
	<circle cx="172.733" cy="617.742" r="4" fill="#0" id="circle48"/>
	<circle cx="176.441" cy="727.14" r="4" fill="#0" id="circle49"/>
	<circle cx="178.295" cy="690.056" r="4" fill="#0" id="circle50"/>
	<circle cx="182.004" cy="211.671" r="4" fill="#0" id="circle51"/>
	<circle cx="189.421" cy="627.013" r="4" fill="#0" id="circle52"/>
	<circle cx="189.421" cy="645.555" r="4" fill="#0" id="circle53"/>
	<circle cx="189.421" cy="664.097" r="4" fill="#0" id="circle54"/>
	<circle cx="194.983" cy="719.723" r="4" fill="#0" id="circle55"/>
	<circle cx="198.692" cy="194.983" r="4" fill="#0" id="circle56"/>
	<circle cx="213.525" cy="719.723" r="4" fill="#0" id="circle57"/>
	<circle cx="217.234" cy="189.421" r="4" fill="#0" id="circle58"/>
	<circle cx="232.067" cy="719.723" r="4" fill="#0" id="circle59"/>
	<circle cx="235.776" cy="189.421" r="4" fill="#0" id="circle60"/>
	<circle cx="250.609" cy="719.723" r="4" fill="#0" id="circle61"/>
	<circle cx="254.318" cy="189.421" r="4" fill="#0" id="circle62"/>
	<circle cx="269.151" cy="719.723" r="4" fill="#0" id="circle63"/>
	<circle cx="272.86" cy="189.421" r="4" fill="#0" id="circle64"/>
	<circle cx="287.693" cy="719.723" r="4" fill="#0" id="circle65"/>
	<circle cx="291.402" cy="189.421" r="4" fill="#0" id="circle66"/>
	<circle cx="306.236" cy="719.723" r="4" fill="#0" id="circle67"/>
	<circle cx="309.944" cy="189.421" r="4" fill="#0" id="circle68"/>
	<circle cx="319.215" cy="55.9178" r="4" fill="#0" id="circle69"/>
	<circle cx="324.778" cy="719.723" r="4" fill="#0" id="circle70"/>
	<circle cx="326.632" cy="180.15" r="4" fill="#0" id="circle71"/>
	<circle cx="328.486" cy="37.3757" r="4" fill="#0" id="circle72"/>
	<circle cx="334.049" cy="68.8972" r="4" fill="#0" id="circle73"/>
	<circle cx="341.465" cy="710.452" r="4" fill="#0" id="circle74"/>
	<circle cx="345.174" cy="180.15" r="4" fill="#0" id="circle75"/>
	<circle cx="347.028" cy="28.1047" r="4" fill="#0" id="circle76"/>
	<circle cx="352.591" cy="61.4804" r="4" fill="#0" id="circle77"/>
	<circle cx="360.007" cy="710.452" r="4" fill="#0" id="circle78"/>
	<circle cx="361.862" cy="170.879" r="4" fill="#0" id="circle79"/>
	<circle cx="365.57" cy="28.1047" r="4" fill="#0" id="circle80"/>
	<circle cx="371.133" cy="61.4804" r="4" fill="#0" id="circle81"/>
	<circle cx="374.841" cy="80.0224" r="4" fill="#0" id="circle82"/>
	<circle cx="374.841" cy="98.5645" r="4" fill="#0" id="circle83"/>
	<circle cx="376.695" cy="701.181" r="4" fill="#0" id="circle84"/>
	<circle cx="380.404" cy="117.107" r="4" fill="#0" id="circle85"/>
	<circle cx="380.404" cy="170.879" r="4" fill="#0" id="circle86"/>
	<circle cx="384.112" cy="18.8336" r="4" fill="#0" id="circle87"/>
	<circle cx="395.237" cy="130.086" r="4" fill="#0" id="circle88"/>
	<circle cx="395.237" cy="701.181" r="4" fill="#0" id="circle89"/>
	<circle cx="397.092" cy="161.607" r="4" fill="#0" id="circle90"/>
	<circle cx="398.946" cy="4" r="4" fill="#0" id="circle91"/>
	<circle cx="411.925" cy="691.91" r="4" fill="#0" id="circle92"/>
	<circle cx="415.634" cy="13.271" r="4" fill="#0" id="circle93"/>
	<circle cx="423.05" cy="89.2935" r="4" fill="#0" id="circle94"/>
	<circle cx="430.467" cy="686.348" r="4" fill="#0" id="circle95"/>
	<circle cx="432.321" cy="135.649" r="4" fill="#0" id="circle96"/>
	<circle cx="434.176" cy="13.271" r="4" fill="#0" id="circle97"/>
	<circle cx="439.738" cy="80.0224" r="4" fill="#0" id="circle98"/>
	<circle cx="441.593" cy="152.336" r="4" fill="#0" id="circle99"/>
	<circle cx="441.593" cy="636.284" r="4" fill="#0" id="circle100"/>
	<circle cx="441.593" cy="654.826" r="4" fill="#0" id="circle101"/>
	<circle cx="450.864" cy="61.4804" r="4" fill="#0" id="circle102"/>
	<circle cx="450.864" cy="126.378" r="4" fill="#0" id="circle103"/>
	<circle cx="452.718" cy="13.271" r="4" fill="#0" id="circle104"/>
	<circle cx="456.426" cy="89.2935" r="4" fill="#0" id="circle105"/>
	<circle cx="456.426" cy="163.462" r="4" fill="#0" id="circle106"/>
	<circle cx="458.28" cy="627.013" r="4" fill="#0" id="circle107"/>
	<circle cx="465.697" cy="113.398" r="4" fill="#0" id="circle108"/>
	<circle cx="467.551" cy="26.2505" r="4" fill="#0" id="circle109"/>
	<circle cx="469.406" cy="44.7925" r="4" fill="#0" id="circle110"/>
	<circle cx="474.968" cy="170.879" r="4" fill="#0" id="circle111"/>
	<circle cx="476.822" cy="627.013" r="4" fill="#0" id="circle112"/>
	<circle cx="491.656" cy="161.607" r="4" fill="#0" id="circle113"/>
	<circle cx="495.364" cy="627.013" r="4" fill="#0" id="circle114"/>
	<circle cx="510.198" cy="161.607" r="4" fill="#0" id="circle115"/>
	<circle cx="513.907" cy="627.013" r="4" fill="#0" id="circle116"/>
	<circle cx="528.74" cy="161.607" r="4" fill="#0" id="circle117"/>
	<circle cx="532.449" cy="627.013" r="4" fill="#0" id="circle118"/>
	<circle cx="547.282" cy="161.607" r="4" fill="#0" id="circle119"/>
	<circle cx="549.136" cy="617.742" r="4" fill="#0" id="circle120"/>
	<circle cx="565.824" cy="161.607" r="4" fill="#0" id="circle121"/>
	<circle cx="567.679" cy="617.742" r="4" fill="#0" id="circle122"/>
	<circle cx="584.366" cy="161.607" r="4" fill="#0" id="circle123"/>
	<circle cx="586.221" cy="617.742" r="4" fill="#0" id="circle124"/>
	<circle cx="602.908" cy="161.607" r="4" fill="#0" id="circle125"/>
	<circle cx="604.763" cy="617.742" r="4" fill="#0" id="circle126"/>
	<circle cx="621.45" cy="161.607" r="4" fill="#0" id="circle127"/>
	<circle cx="623.305" cy="614.034" r="4" fill="#0" id="circle128"/>
	<circle cx="627.013" cy="180.15" r="4" fill="#0" id="circle129"/>
	<circle cx="636.284" cy="196.837" r="4" fill="#0" id="circle130"/>
	<circle cx="636.284" cy="274.714" r="4" fill="#0" id="circle131"/>
	<circle cx="641.847" cy="604.763" r="4" fill="#0" id="circle132"/>
	<circle cx="645.555" cy="291.402" r="4" fill="#0" id="circle133"/>
	<circle cx="651.118" cy="207.963" r="4" fill="#0" id="circle134"/>
	<circle cx="654.826" cy="274.714" r="4" fill="#0" id="circle135"/>
	<circle cx="660.389" cy="599.2" r="4" fill="#0" id="circle136"/>
	<circle cx="664.097" cy="296.964" r="4" fill="#0" id="circle137"/>
	<circle cx="669.66" cy="207.963" r="4" fill="#0" id="circle138"/>
	<circle cx="673.368" cy="274.714" r="4" fill="#0" id="circle139"/>
	<circle cx="678.931" cy="599.2" r="4" fill="#0" id="circle140"/>
	<circle cx="682.639" cy="256.172" r="4" fill="#0" id="circle141"/>
	<circle cx="682.639" cy="300.673" r="4" fill="#0" id="circle142"/>
	<circle cx="688.202" cy="209.817" r="4" fill="#0" id="circle143"/>
	<circle cx="691.91" cy="228.359" r="4" fill="#0" id="circle144"/>
	<circle cx="697.473" cy="599.2" r="4" fill="#0" id="circle145"/>
	<circle cx="699.327" cy="291.402" r="4" fill="#0" id="circle146"/>
	<circle cx="714.161" cy="589.929" r="4" fill="#0" id="circle147"/>
	<circle cx="717.869" cy="291.402" r="4" fill="#0" id="circle148"/>
	<circle cx="719.723" cy="450.864" r="4" fill="#0" id="circle149"/>
	<circle cx="719.723" cy="469.406" r="4" fill="#0" id="circle150"/>
	<circle cx="719.723" cy="487.948" r="4" fill="#0" id="circle151"/>
	<circle cx="732.703" cy="589.929" r="4" fill="#0" id="circle152"/>
	<circle cx="736.411" cy="291.402" r="4" fill="#0" id="circle153"/>
	<circle cx="738.265" cy="441.593" r="4" fill="#0" id="circle154"/>
	<circle cx="738.265" cy="489.802" r="4" fill="#0" id="circle155"/>
	<circle cx="751.245" cy="589.929" r="4" fill="#0" id="circle156"/>
	<circle cx="753.099" cy="428.613" r="4" fill="#0" id="circle157"/>
	<circle cx="754.953" cy="291.402" r="4" fill="#0" id="circle158"/>
	<circle cx="756.807" cy="491.656" r="4" fill="#0" id="circle159"/>
	<circle cx="766.079" cy="508.344" r="4" fill="#0" id="circle160"/>
	<circle cx="767.933" cy="580.658" r="4" fill="#0" id="circle161"/>
	<circle cx="771.641" cy="419.342" r="4" fill="#0" id="circle162"/>
	<circle cx="771.641" cy="526.886" r="4" fill="#0" id="circle163"/>
	<circle cx="773.495" cy="291.402" r="4" fill="#0" id="circle164"/>
	<circle cx="780.912" cy="543.574" r="4" fill="#0" id="circle165"/>
	<circle cx="782.766" cy="565.824" r="4" fill="#0" id="circle166"/>
	<circle cx="790.183" cy="413.779" r="4" fill="#0" id="circle167"/>
	<circle cx="792.037" cy="291.402" r="4" fill="#0" id="circle168"/>
	<circle cx="806.871" cy="402.654" r="4" fill="#0" id="circle169"/>
	<circle cx="810.579" cy="291.402" r="4" fill="#0" id="circle170"/>
	<circle cx="821.705" cy="385.966" r="4" fill="#0" id="circle171"/>
	<circle cx="829.121" cy="291.402" r="4" fill="#0" id="circle172"/>
	<circle cx="840.247" cy="376.695" r="4" fill="#0" id="circle173"/>
	<circle cx="847.664" cy="291.402" r="4" fill="#0" id="circle174"/>
	<circle cx="858.789" cy="376.695" r="4" fill="#0" id="circle175"/>
	<circle cx="866.206" cy="291.402" r="4" fill="#0" id="circle176"/>
	<circle cx="873.622" cy="363.716" r="4" fill="#0" id="circle177"/>
	<circle cx="884.748" cy="291.402" r="4" fill="#0" id="circle178"/>
	<circle cx="892.164" cy="354.445" r="4" fill="#0" id="circle179"/>
	<circle cx="903.29" cy="291.402" r="4" fill="#0" id="circle180"/>
	<circle cx="910.707" cy="354.445" r="4" fill="#0" id="circle181"/>
	<circle cx="919.978" cy="300.673" r="4" fill="#0" id="circle182"/>
	<circle cx="929.249" cy="345.174" r="4" fill="#0" id="circle183"/>
	<circle cx="936.665" cy="291.402" r="4" fill="#0" id="circle184"/>
	<circle cx="940.374" cy="330.34" r="4" fill="#0" id="circle185"/>
	<circle cx="955.207" cy="282.131" r="4" fill="#0" id="circle186"/>
	<circle cx="958.916" cy="324.778" r="4" fill="#0" id="circle187"/>
	<circle cx="971.895" cy="272.86" r="4" fill="#0" id="circle188"/>
	<circle cx="977.458" cy="315.507" r="4" fill="#0" id="circle189"/>
	<circle cx="988.583" cy="282.131" r="4" fill="#0" id="circle190"/>
	<circle cx="996" cy="306.236" r="4" fill="#0" id="circle191"/>
	</g>
</svg>