<?xml version="1.0" encoding="UTF-8" standalone="no"?>
<!-- Created with CurveBenchmark -->
<svg
	xmlns:dc="http://purl.org/dc/elements/1.1/"
	xmlns:cc="http://creativecommons.org/ns#"
	xmlns:rdf="http://www.w3.org/1999/02/22-rdf-syntax-ns#"
	xmlns:svg="http://www.w3.org/2000/svg"
	xmlns="http://www.w3.org/2000/svg"
	xmlns:sodipodi="http://sodipodi.sourceforge.net/DTD/sodipodi-0.dtd"
	xmlns:inkscape="http://www.inkscape.org/namespaces/inkscape"
	width="1000"
	height="1000"
	id="svg2"
	version="1.1"
	sodipodi:docname="manifold/connect2d-bird54.png.txt">
<defs
	id="defs4" />
<metadata
	id="metadata7">
	<rdf:RDF>
		<cc:Work
			rdf:about="">
			<dc:format>image/svg+xml</dc:format>
			<dc:type
				rdf:resource="http://purl.org/dc/dcmitype/StillImage" />
			<dc:title></dc:title>
		</cc:Work>
	</rdf:RDF>
</metadata>
<g
	inkscape:label="Layer 1"
	inkscape:groupmode="layer"
	id="layer1">
	<path style="fill:none;stroke:red;stroke-width:1px;stroke-linecap:butt;stroke-linejoin:miter;stroke-opacity:1" d="M 989.651,242.08 978.541,259.539 z" id="boundary" inkscape:connector-curvature="0" />
	<path style="fill:none;stroke:red;stroke-width:1px;stroke-linecap:butt;stroke-linejoin:miter;stroke-opacity:1" d="M 978.541,259.539 962.669,259.539 z" id="boundary" inkscape:connector-curvature="0" />
	<path style="fill:none;stroke:red;stroke-width:1px;stroke-linecap:butt;stroke-linejoin:miter;stroke-opacity:1" d="M 962.669,259.539 948.384,267.475 z" id="boundary" inkscape:connector-curvature="0" />
	<path style="fill:none;stroke:red;stroke-width:1px;stroke-linecap:butt;stroke-linejoin:miter;stroke-opacity:1" d="M 948.384,267.475 932.512,270.65 z" id="boundary" inkscape:connector-curvature="0" />
	<path style="fill:none;stroke:red;stroke-width:1px;stroke-linecap:butt;stroke-linejoin:miter;stroke-opacity:1" d="M 932.512,270.65 916.64,275.411 z" id="boundary" inkscape:connector-curvature="0" />
	<path style="fill:none;stroke:red;stroke-width:1px;stroke-linecap:butt;stroke-linejoin:miter;stroke-opacity:1" d="M 916.64,275.411 902.355,283.347 z" id="boundary" inkscape:connector-curvature="0" />
	<path style="fill:none;stroke:red;stroke-width:1px;stroke-linecap:butt;stroke-linejoin:miter;stroke-opacity:1" d="M 902.355,283.347 915.053,292.87 z" id="boundary" inkscape:connector-curvature="0" />
	<path style="fill:none;stroke:red;stroke-width:1px;stroke-linecap:butt;stroke-linejoin:miter;stroke-opacity:1" d="M 915.053,292.87 930.925,299.219 z" id="boundary" inkscape:connector-curvature="0" />
	<path style="fill:none;stroke:red;stroke-width:1px;stroke-linecap:butt;stroke-linejoin:miter;stroke-opacity:1" d="M 930.925,299.219 946.797,305.568 z" id="boundary" inkscape:connector-curvature="0" />
	<path style="fill:none;stroke:red;stroke-width:1px;stroke-linecap:butt;stroke-linejoin:miter;stroke-opacity:1" d="M 946.797,305.568 962.669,305.568 z" id="boundary" inkscape:connector-curvature="0" />
	<path style="fill:none;stroke:red;stroke-width:1px;stroke-linecap:butt;stroke-linejoin:miter;stroke-opacity:1" d="M 962.669,305.568 980.128,313.504 z" id="boundary" inkscape:connector-curvature="0" />
	<path style="fill:none;stroke:red;stroke-width:1px;stroke-linecap:butt;stroke-linejoin:miter;stroke-opacity:1" d="M 980.128,313.504 996,316.678 z" id="boundary" inkscape:connector-curvature="0" />
	<path style="fill:none;stroke:red;stroke-width:1px;stroke-linecap:butt;stroke-linejoin:miter;stroke-opacity:1" d="M 996,316.678 981.715,330.963 z" id="boundary" inkscape:connector-curvature="0" />
	<path style="fill:none;stroke:red;stroke-width:1px;stroke-linecap:butt;stroke-linejoin:miter;stroke-opacity:1" d="M 981.715,330.963 967.43,323.027 z" id="boundary" inkscape:connector-curvature="0" />
	<path style="fill:none;stroke:red;stroke-width:1px;stroke-linecap:butt;stroke-linejoin:miter;stroke-opacity:1" d="M 967.43,323.027 951.558,323.027 z" id="boundary" inkscape:connector-curvature="0" />
	<path style="fill:none;stroke:red;stroke-width:1px;stroke-linecap:butt;stroke-linejoin:miter;stroke-opacity:1" d="M 951.558,323.027 935.686,323.027 z" id="boundary" inkscape:connector-curvature="0" />
	<path style="fill:none;stroke:red;stroke-width:1px;stroke-linecap:butt;stroke-linejoin:miter;stroke-opacity:1" d="M 935.686,323.027 919.814,323.027 z" id="boundary" inkscape:connector-curvature="0" />
	<path style="fill:none;stroke:red;stroke-width:1px;stroke-linecap:butt;stroke-linejoin:miter;stroke-opacity:1" d="M 919.814,323.027 903.942,323.027 z" id="boundary" inkscape:connector-curvature="0" />
	<path style="fill:none;stroke:red;stroke-width:1px;stroke-linecap:butt;stroke-linejoin:miter;stroke-opacity:1" d="M 903.942,323.027 888.07,323.027 z" id="boundary" inkscape:connector-curvature="0" />
	<path style="fill:none;stroke:red;stroke-width:1px;stroke-linecap:butt;stroke-linejoin:miter;stroke-opacity:1" d="M 888.07,323.027 872.198,323.027 z" id="boundary" inkscape:connector-curvature="0" />
	<path style="fill:none;stroke:red;stroke-width:1px;stroke-linecap:butt;stroke-linejoin:miter;stroke-opacity:1" d="M 872.198,323.027 857.914,330.963 z" id="boundary" inkscape:connector-curvature="0" />
	<path style="fill:none;stroke:red;stroke-width:1px;stroke-linecap:butt;stroke-linejoin:miter;stroke-opacity:1" d="M 857.914,330.963 842.042,330.963 z" id="boundary" inkscape:connector-curvature="0" />
	<path style="fill:none;stroke:red;stroke-width:1px;stroke-linecap:butt;stroke-linejoin:miter;stroke-opacity:1" d="M 842.042,330.963 826.17,337.312 z" id="boundary" inkscape:connector-curvature="0" />
	<path style="fill:none;stroke:red;stroke-width:1px;stroke-linecap:butt;stroke-linejoin:miter;stroke-opacity:1" d="M 826.17,337.312 810.298,338.899 z" id="boundary" inkscape:connector-curvature="0" />
	<path style="fill:none;stroke:red;stroke-width:1px;stroke-linecap:butt;stroke-linejoin:miter;stroke-opacity:1" d="M 810.298,338.899 794.426,345.248 z" id="boundary" inkscape:connector-curvature="0" />
	<path style="fill:none;stroke:red;stroke-width:1px;stroke-linecap:butt;stroke-linejoin:miter;stroke-opacity:1" d="M 794.426,345.248 778.554,346.835 z" id="boundary" inkscape:connector-curvature="0" />
	<path style="fill:none;stroke:red;stroke-width:1px;stroke-linecap:butt;stroke-linejoin:miter;stroke-opacity:1" d="M 778.554,346.835 764.269,354.771 z" id="boundary" inkscape:connector-curvature="0" />
	<path style="fill:none;stroke:red;stroke-width:1px;stroke-linecap:butt;stroke-linejoin:miter;stroke-opacity:1" d="M 764.269,354.771 748.397,354.771 z" id="boundary" inkscape:connector-curvature="0" />
	<path style="fill:none;stroke:red;stroke-width:1px;stroke-linecap:butt;stroke-linejoin:miter;stroke-opacity:1" d="M 748.397,354.771 734.112,362.707 z" id="boundary" inkscape:connector-curvature="0" />
	<path style="fill:none;stroke:red;stroke-width:1px;stroke-linecap:butt;stroke-linejoin:miter;stroke-opacity:1" d="M 734.112,362.707 719.827,370.643 z" id="boundary" inkscape:connector-curvature="0" />
	<path style="fill:none;stroke:red;stroke-width:1px;stroke-linecap:butt;stroke-linejoin:miter;stroke-opacity:1" d="M 719.827,370.643 703.955,370.643 z" id="boundary" inkscape:connector-curvature="0" />
	<path style="fill:none;stroke:red;stroke-width:1px;stroke-linecap:butt;stroke-linejoin:miter;stroke-opacity:1" d="M 703.955,370.643 688.083,378.579 z" id="boundary" inkscape:connector-curvature="0" />
	<path style="fill:none;stroke:red;stroke-width:1px;stroke-linecap:butt;stroke-linejoin:miter;stroke-opacity:1" d="M 688.083,378.579 672.211,378.579 z" id="boundary" inkscape:connector-curvature="0" />
	<path style="fill:none;stroke:red;stroke-width:1px;stroke-linecap:butt;stroke-linejoin:miter;stroke-opacity:1" d="M 672.211,378.579 657.926,386.515 z" id="boundary" inkscape:connector-curvature="0" />
	<path style="fill:none;stroke:red;stroke-width:1px;stroke-linecap:butt;stroke-linejoin:miter;stroke-opacity:1" d="M 657.926,386.515 642.054,386.515 z" id="boundary" inkscape:connector-curvature="0" />
	<path style="fill:none;stroke:red;stroke-width:1px;stroke-linecap:butt;stroke-linejoin:miter;stroke-opacity:1" d="M 642.054,386.515 627.77,394.451 z" id="boundary" inkscape:connector-curvature="0" />
	<path style="fill:none;stroke:red;stroke-width:1px;stroke-linecap:butt;stroke-linejoin:miter;stroke-opacity:1" d="M 627.77,394.451 611.898,394.451 z" id="boundary" inkscape:connector-curvature="0" />
	<path style="fill:none;stroke:red;stroke-width:1px;stroke-linecap:butt;stroke-linejoin:miter;stroke-opacity:1" d="M 611.898,394.451 597.613,402.387 z" id="boundary" inkscape:connector-curvature="0" />
	<path style="fill:none;stroke:red;stroke-width:1px;stroke-linecap:butt;stroke-linejoin:miter;stroke-opacity:1" d="M 597.613,402.387 581.741,407.149 z" id="boundary" inkscape:connector-curvature="0" />
	<path style="fill:none;stroke:red;stroke-width:1px;stroke-linecap:butt;stroke-linejoin:miter;stroke-opacity:1" d="M 581.741,407.149 569.043,418.259 z" id="boundary" inkscape:connector-curvature="0" />
	<path style="fill:none;stroke:red;stroke-width:1px;stroke-linecap:butt;stroke-linejoin:miter;stroke-opacity:1" d="M 569.043,418.259 576.979,432.544 z" id="boundary" inkscape:connector-curvature="0" />
	<path style="fill:none;stroke:red;stroke-width:1px;stroke-linecap:butt;stroke-linejoin:miter;stroke-opacity:1" d="M 576.979,432.544 584.915,446.829 z" id="boundary" inkscape:connector-curvature="0" />
	<path style="fill:none;stroke:red;stroke-width:1px;stroke-linecap:butt;stroke-linejoin:miter;stroke-opacity:1" d="M 584.915,446.829 597.613,457.939 z" id="boundary" inkscape:connector-curvature="0" />
	<path style="fill:none;stroke:red;stroke-width:1px;stroke-linecap:butt;stroke-linejoin:miter;stroke-opacity:1" d="M 597.613,457.939 608.723,470.637 z" id="boundary" inkscape:connector-curvature="0" />
	<path style="fill:none;stroke:red;stroke-width:1px;stroke-linecap:butt;stroke-linejoin:miter;stroke-opacity:1" d="M 608.723,470.637 616.659,484.922 z" id="boundary" inkscape:connector-curvature="0" />
	<path style="fill:none;stroke:red;stroke-width:1px;stroke-linecap:butt;stroke-linejoin:miter;stroke-opacity:1" d="M 616.659,484.922 627.77,497.619 z" id="boundary" inkscape:connector-curvature="0" />
	<path style="fill:none;stroke:red;stroke-width:1px;stroke-linecap:butt;stroke-linejoin:miter;stroke-opacity:1" d="M 627.77,497.619 640.467,508.73 z" id="boundary" inkscape:connector-curvature="0" />
	<path style="fill:none;stroke:red;stroke-width:1px;stroke-linecap:butt;stroke-linejoin:miter;stroke-opacity:1" d="M 640.467,508.73 656.339,511.904 z" id="boundary" inkscape:connector-curvature="0" />
	<path style="fill:none;stroke:red;stroke-width:1px;stroke-linecap:butt;stroke-linejoin:miter;stroke-opacity:1" d="M 656.339,511.904 672.211,516.666 z" id="boundary" inkscape:connector-curvature="0" />
	<path style="fill:none;stroke:red;stroke-width:1px;stroke-linecap:butt;stroke-linejoin:miter;stroke-opacity:1" d="M 672.211,516.666 664.275,545.235 z" id="boundary" inkscape:connector-curvature="0" />
	<path style="fill:none;stroke:red;stroke-width:1px;stroke-linecap:butt;stroke-linejoin:miter;stroke-opacity:1" d="M 664.275,545.235 664.275,561.107 z" id="boundary" inkscape:connector-curvature="0" />
	<path style="fill:none;stroke:red;stroke-width:1px;stroke-linecap:butt;stroke-linejoin:miter;stroke-opacity:1" d="M 664.275,561.107 667.45,576.979 z" id="boundary" inkscape:connector-curvature="0" />
	<path style="fill:none;stroke:red;stroke-width:1px;stroke-linecap:butt;stroke-linejoin:miter;stroke-opacity:1" d="M 667.45,576.979 675.386,591.264 z" id="boundary" inkscape:connector-curvature="0" />
	<path style="fill:none;stroke:red;stroke-width:1px;stroke-linecap:butt;stroke-linejoin:miter;stroke-opacity:1" d="M 675.386,591.264 680.147,607.136 z" id="boundary" inkscape:connector-curvature="0" />
	<path style="fill:none;stroke:red;stroke-width:1px;stroke-linecap:butt;stroke-linejoin:miter;stroke-opacity:1" d="M 680.147,607.136 688.083,621.421 z" id="boundary" inkscape:connector-curvature="0" />
	<path style="fill:none;stroke:red;stroke-width:1px;stroke-linecap:butt;stroke-linejoin:miter;stroke-opacity:1" d="M 688.083,621.421 680.147,648.403 z" id="boundary" inkscape:connector-curvature="0" />
	<path style="fill:none;stroke:red;stroke-width:1px;stroke-linecap:butt;stroke-linejoin:miter;stroke-opacity:1" d="M 680.147,648.403 664.275,656.339 z" id="boundary" inkscape:connector-curvature="0" />
	<path style="fill:none;stroke:red;stroke-width:1px;stroke-linecap:butt;stroke-linejoin:miter;stroke-opacity:1" d="M 664.275,656.339 654.752,643.642 z" id="boundary" inkscape:connector-curvature="0" />
	<path style="fill:none;stroke:red;stroke-width:1px;stroke-linecap:butt;stroke-linejoin:miter;stroke-opacity:1" d="M 654.752,643.642 662.688,629.357 z" id="boundary" inkscape:connector-curvature="0" />
	<path style="fill:none;stroke:red;stroke-width:1px;stroke-linecap:butt;stroke-linejoin:miter;stroke-opacity:1" d="M 662.688,629.357 662.688,613.485 z" id="boundary" inkscape:connector-curvature="0" />
	<path style="fill:none;stroke:red;stroke-width:1px;stroke-linecap:butt;stroke-linejoin:miter;stroke-opacity:1" d="M 662.688,613.485 654.752,599.2 z" id="boundary" inkscape:connector-curvature="0" />
	<path style="fill:none;stroke:red;stroke-width:1px;stroke-linecap:butt;stroke-linejoin:miter;stroke-opacity:1" d="M 654.752,599.2 646.816,584.915 z" id="boundary" inkscape:connector-curvature="0" />
	<path style="fill:none;stroke:red;stroke-width:1px;stroke-linecap:butt;stroke-linejoin:miter;stroke-opacity:1" d="M 646.816,584.915 632.531,592.851 z" id="boundary" inkscape:connector-curvature="0" />
	<path style="fill:none;stroke:red;stroke-width:1px;stroke-linecap:butt;stroke-linejoin:miter;stroke-opacity:1" d="M 632.531,592.851 621.421,605.549 z" id="boundary" inkscape:connector-curvature="0" />
	<path style="fill:none;stroke:red;stroke-width:1px;stroke-linecap:butt;stroke-linejoin:miter;stroke-opacity:1" d="M 621.421,605.549 613.485,621.421 z" id="boundary" inkscape:connector-curvature="0" />
	<path style="fill:none;stroke:red;stroke-width:1px;stroke-linecap:butt;stroke-linejoin:miter;stroke-opacity:1" d="M 613.485,621.421 600.787,632.531 z" id="boundary" inkscape:connector-curvature="0" />
	<path style="fill:none;stroke:red;stroke-width:1px;stroke-linecap:butt;stroke-linejoin:miter;stroke-opacity:1" d="M 600.787,632.531 586.502,640.467 z" id="boundary" inkscape:connector-curvature="0" />
	<path style="fill:none;stroke:red;stroke-width:1px;stroke-linecap:butt;stroke-linejoin:miter;stroke-opacity:1" d="M 586.502,640.467 572.218,648.403 z" id="boundary" inkscape:connector-curvature="0" />
	<path style="fill:none;stroke:red;stroke-width:1px;stroke-linecap:butt;stroke-linejoin:miter;stroke-opacity:1" d="M 572.218,648.403 556.346,654.752 z" id="boundary" inkscape:connector-curvature="0" />
	<path style="fill:none;stroke:red;stroke-width:1px;stroke-linecap:butt;stroke-linejoin:miter;stroke-opacity:1" d="M 556.346,654.752 543.648,643.642 z" id="boundary" inkscape:connector-curvature="0" />
	<path style="fill:none;stroke:red;stroke-width:1px;stroke-linecap:butt;stroke-linejoin:miter;stroke-opacity:1" d="M 543.648,643.642 556.346,630.944 z" id="boundary" inkscape:connector-curvature="0" />
	<path style="fill:none;stroke:red;stroke-width:1px;stroke-linecap:butt;stroke-linejoin:miter;stroke-opacity:1" d="M 556.346,630.944 572.218,623.008 z" id="boundary" inkscape:connector-curvature="0" />
	<path style="fill:none;stroke:red;stroke-width:1px;stroke-linecap:butt;stroke-linejoin:miter;stroke-opacity:1" d="M 572.218,623.008 584.915,610.31 z" id="boundary" inkscape:connector-curvature="0" />
	<path style="fill:none;stroke:red;stroke-width:1px;stroke-linecap:butt;stroke-linejoin:miter;stroke-opacity:1" d="M 584.915,610.31 597.613,599.2 z" id="boundary" inkscape:connector-curvature="0" />
	<path style="fill:none;stroke:red;stroke-width:1px;stroke-linecap:butt;stroke-linejoin:miter;stroke-opacity:1" d="M 597.613,599.2 607.136,580.154 z" id="boundary" inkscape:connector-curvature="0" />
	<path style="fill:none;stroke:red;stroke-width:1px;stroke-linecap:butt;stroke-linejoin:miter;stroke-opacity:1" d="M 607.136,580.154 615.072,556.346 z" id="boundary" inkscape:connector-curvature="0" />
	<path style="fill:none;stroke:red;stroke-width:1px;stroke-linecap:butt;stroke-linejoin:miter;stroke-opacity:1" d="M 615.072,556.346 623.008,530.95 z" id="boundary" inkscape:connector-curvature="0" />
	<path style="fill:none;stroke:red;stroke-width:1px;stroke-linecap:butt;stroke-linejoin:miter;stroke-opacity:1" d="M 623.008,530.95 615.072,516.666 z" id="boundary" inkscape:connector-curvature="0" />
	<path style="fill:none;stroke:red;stroke-width:1px;stroke-linecap:butt;stroke-linejoin:miter;stroke-opacity:1" d="M 615.072,516.666 603.962,503.968 z" id="boundary" inkscape:connector-curvature="0" />
	<path style="fill:none;stroke:red;stroke-width:1px;stroke-linecap:butt;stroke-linejoin:miter;stroke-opacity:1" d="M 603.962,503.968 591.264,492.858 z" id="boundary" inkscape:connector-curvature="0" />
	<path style="fill:none;stroke:red;stroke-width:1px;stroke-linecap:butt;stroke-linejoin:miter;stroke-opacity:1" d="M 591.264,492.858 584.915,476.986 z" id="boundary" inkscape:connector-curvature="0" />
	<path style="fill:none;stroke:red;stroke-width:1px;stroke-linecap:butt;stroke-linejoin:miter;stroke-opacity:1" d="M 584.915,476.986 572.218,465.875 z" id="boundary" inkscape:connector-curvature="0" />
	<path style="fill:none;stroke:red;stroke-width:1px;stroke-linecap:butt;stroke-linejoin:miter;stroke-opacity:1" d="M 572.218,465.875 565.869,450.003 z" id="boundary" inkscape:connector-curvature="0" />
	<path style="fill:none;stroke:red;stroke-width:1px;stroke-linecap:butt;stroke-linejoin:miter;stroke-opacity:1" d="M 565.869,450.003 551.584,442.067 z" id="boundary" inkscape:connector-curvature="0" />
	<path style="fill:none;stroke:red;stroke-width:1px;stroke-linecap:butt;stroke-linejoin:miter;stroke-opacity:1" d="M 551.584,442.067 538.886,432.544 z" id="boundary" inkscape:connector-curvature="0" />
	<path style="fill:none;stroke:red;stroke-width:1px;stroke-linecap:butt;stroke-linejoin:miter;stroke-opacity:1" d="M 538.886,432.544 524.602,424.608 z" id="boundary" inkscape:connector-curvature="0" />
	<path style="fill:none;stroke:red;stroke-width:1px;stroke-linecap:butt;stroke-linejoin:miter;stroke-opacity:1" d="M 524.602,424.608 508.73,418.259 z" id="boundary" inkscape:connector-curvature="0" />
	<path style="fill:none;stroke:red;stroke-width:1px;stroke-linecap:butt;stroke-linejoin:miter;stroke-opacity:1" d="M 508.73,418.259 494.445,426.195 z" id="boundary" inkscape:connector-curvature="0" />
	<path style="fill:none;stroke:red;stroke-width:1px;stroke-linecap:butt;stroke-linejoin:miter;stroke-opacity:1" d="M 494.445,426.195 478.573,426.195 z" id="boundary" inkscape:connector-curvature="0" />
	<path style="fill:none;stroke:red;stroke-width:1px;stroke-linecap:butt;stroke-linejoin:miter;stroke-opacity:1" d="M 478.573,426.195 464.288,434.131 z" id="boundary" inkscape:connector-curvature="0" />
	<path style="fill:none;stroke:red;stroke-width:1px;stroke-linecap:butt;stroke-linejoin:miter;stroke-opacity:1" d="M 464.288,434.131 450.003,442.067 z" id="boundary" inkscape:connector-curvature="0" />
	<path style="fill:none;stroke:red;stroke-width:1px;stroke-linecap:butt;stroke-linejoin:miter;stroke-opacity:1" d="M 450.003,442.067 450.003,457.939 z" id="boundary" inkscape:connector-curvature="0" />
	<path style="fill:none;stroke:red;stroke-width:1px;stroke-linecap:butt;stroke-linejoin:miter;stroke-opacity:1" d="M 450.003,457.939 450.003,473.811 z" id="boundary" inkscape:connector-curvature="0" />
	<path style="fill:none;stroke:red;stroke-width:1px;stroke-linecap:butt;stroke-linejoin:miter;stroke-opacity:1" d="M 450.003,473.811 442.067,497.619 z" id="boundary" inkscape:connector-curvature="0" />
	<path style="fill:none;stroke:red;stroke-width:1px;stroke-linecap:butt;stroke-linejoin:miter;stroke-opacity:1" d="M 442.067,497.619 442.067,513.491 z" id="boundary" inkscape:connector-curvature="0" />
	<path style="fill:none;stroke:red;stroke-width:1px;stroke-linecap:butt;stroke-linejoin:miter;stroke-opacity:1" d="M 442.067,513.491 438.893,542.061 z" id="boundary" inkscape:connector-curvature="0" />
	<path style="fill:none;stroke:red;stroke-width:1px;stroke-linecap:butt;stroke-linejoin:miter;stroke-opacity:1" d="M 438.893,542.061 426.195,553.171 z" id="boundary" inkscape:connector-curvature="0" />
	<path style="fill:none;stroke:red;stroke-width:1px;stroke-linecap:butt;stroke-linejoin:miter;stroke-opacity:1" d="M 426.195,553.171 418.259,569.043 z" id="boundary" inkscape:connector-curvature="0" />
	<path style="fill:none;stroke:red;stroke-width:1px;stroke-linecap:butt;stroke-linejoin:miter;stroke-opacity:1" d="M 418.259,569.043 410.323,584.915 z" id="boundary" inkscape:connector-curvature="0" />
	<path style="fill:none;stroke:red;stroke-width:1px;stroke-linecap:butt;stroke-linejoin:miter;stroke-opacity:1" d="M 410.323,584.915 403.974,600.787 z" id="boundary" inkscape:connector-curvature="0" />
	<path style="fill:none;stroke:red;stroke-width:1px;stroke-linecap:butt;stroke-linejoin:miter;stroke-opacity:1" d="M 403.974,600.787 394.451,616.659 z" id="boundary" inkscape:connector-curvature="0" />
	<path style="fill:none;stroke:red;stroke-width:1px;stroke-linecap:butt;stroke-linejoin:miter;stroke-opacity:1" d="M 394.451,616.659 397.626,632.531 z" id="boundary" inkscape:connector-curvature="0" />
	<path style="fill:none;stroke:red;stroke-width:1px;stroke-linecap:butt;stroke-linejoin:miter;stroke-opacity:1" d="M 397.626,632.531 397.626,662.688 z" id="boundary" inkscape:connector-curvature="0" />
	<path style="fill:none;stroke:red;stroke-width:1px;stroke-linecap:butt;stroke-linejoin:miter;stroke-opacity:1" d="M 397.626,662.688 381.754,656.339 z" id="boundary" inkscape:connector-curvature="0" />
	<path style="fill:none;stroke:red;stroke-width:1px;stroke-linecap:butt;stroke-linejoin:miter;stroke-opacity:1" d="M 381.754,656.339 367.469,664.275 z" id="boundary" inkscape:connector-curvature="0" />
	<path style="fill:none;stroke:red;stroke-width:1px;stroke-linecap:butt;stroke-linejoin:miter;stroke-opacity:1" d="M 367.469,664.275 351.597,664.275 z" id="boundary" inkscape:connector-curvature="0" />
	<path style="fill:none;stroke:red;stroke-width:1px;stroke-linecap:butt;stroke-linejoin:miter;stroke-opacity:1" d="M 351.597,664.275 335.725,664.275 z" id="boundary" inkscape:connector-curvature="0" />
	<path style="fill:none;stroke:red;stroke-width:1px;stroke-linecap:butt;stroke-linejoin:miter;stroke-opacity:1" d="M 335.725,664.275 321.44,672.211 z" id="boundary" inkscape:connector-curvature="0" />
	<path style="fill:none;stroke:red;stroke-width:1px;stroke-linecap:butt;stroke-linejoin:miter;stroke-opacity:1" d="M 321.44,672.211 305.568,672.211 z" id="boundary" inkscape:connector-curvature="0" />
	<path style="fill:none;stroke:red;stroke-width:1px;stroke-linecap:butt;stroke-linejoin:miter;stroke-opacity:1" d="M 305.568,672.211 289.696,672.211 z" id="boundary" inkscape:connector-curvature="0" />
	<path style="fill:none;stroke:red;stroke-width:1px;stroke-linecap:butt;stroke-linejoin:miter;stroke-opacity:1" d="M 289.696,672.211 275.411,664.275 z" id="boundary" inkscape:connector-curvature="0" />
	<path style="fill:none;stroke:red;stroke-width:1px;stroke-linecap:butt;stroke-linejoin:miter;stroke-opacity:1" d="M 275.411,664.275 265.888,651.578 z" id="boundary" inkscape:connector-curvature="0" />
	<path style="fill:none;stroke:red;stroke-width:1px;stroke-linecap:butt;stroke-linejoin:miter;stroke-opacity:1" d="M 265.888,651.578 281.76,646.816 z" id="boundary" inkscape:connector-curvature="0" />
	<path style="fill:none;stroke:red;stroke-width:1px;stroke-linecap:butt;stroke-linejoin:miter;stroke-opacity:1" d="M 281.76,646.816 296.045,638.88 z" id="boundary" inkscape:connector-curvature="0" />
	<path style="fill:none;stroke:red;stroke-width:1px;stroke-linecap:butt;stroke-linejoin:miter;stroke-opacity:1" d="M 296.045,638.88 311.917,638.88 z" id="boundary" inkscape:connector-curvature="0" />
	<path style="fill:none;stroke:red;stroke-width:1px;stroke-linecap:butt;stroke-linejoin:miter;stroke-opacity:1" d="M 311.917,638.88 327.789,638.88 z" id="boundary" inkscape:connector-curvature="0" />
	<path style="fill:none;stroke:red;stroke-width:1px;stroke-linecap:butt;stroke-linejoin:miter;stroke-opacity:1" d="M 327.789,638.88 343.661,638.88 z" id="boundary" inkscape:connector-curvature="0" />
	<path style="fill:none;stroke:red;stroke-width:1px;stroke-linecap:butt;stroke-linejoin:miter;stroke-opacity:1" d="M 343.661,638.88 357.946,630.944 z" id="boundary" inkscape:connector-curvature="0" />
	<path style="fill:none;stroke:red;stroke-width:1px;stroke-linecap:butt;stroke-linejoin:miter;stroke-opacity:1" d="M 357.946,630.944 370.643,618.246 z" id="boundary" inkscape:connector-curvature="0" />
	<path style="fill:none;stroke:red;stroke-width:1px;stroke-linecap:butt;stroke-linejoin:miter;stroke-opacity:1" d="M 370.643,618.246 378.579,602.374 z" id="boundary" inkscape:connector-curvature="0" />
	<path style="fill:none;stroke:red;stroke-width:1px;stroke-linecap:butt;stroke-linejoin:miter;stroke-opacity:1" d="M 378.579,602.374 391.277,591.264 z" id="boundary" inkscape:connector-curvature="0" />
	<path style="fill:none;stroke:red;stroke-width:1px;stroke-linecap:butt;stroke-linejoin:miter;stroke-opacity:1" d="M 391.277,591.264 397.626,575.392 z" id="boundary" inkscape:connector-curvature="0" />
	<path style="fill:none;stroke:red;stroke-width:1px;stroke-linecap:butt;stroke-linejoin:miter;stroke-opacity:1" d="M 397.626,575.392 405.562,559.52 z" id="boundary" inkscape:connector-curvature="0" />
	<path style="fill:none;stroke:red;stroke-width:1px;stroke-linecap:butt;stroke-linejoin:miter;stroke-opacity:1" d="M 405.562,559.52 413.498,543.648 z" id="boundary" inkscape:connector-curvature="0" />
	<path style="fill:none;stroke:red;stroke-width:1px;stroke-linecap:butt;stroke-linejoin:miter;stroke-opacity:1" d="M 413.498,543.648 421.434,527.776 z" id="boundary" inkscape:connector-curvature="0" />
	<path style="fill:none;stroke:red;stroke-width:1px;stroke-linecap:butt;stroke-linejoin:miter;stroke-opacity:1" d="M 421.434,527.776 424.608,500.794 z" id="boundary" inkscape:connector-curvature="0" />
	<path style="fill:none;stroke:red;stroke-width:1px;stroke-linecap:butt;stroke-linejoin:miter;stroke-opacity:1" d="M 424.608,500.794 424.608,484.922 z" id="boundary" inkscape:connector-curvature="0" />
	<path style="fill:none;stroke:red;stroke-width:1px;stroke-linecap:butt;stroke-linejoin:miter;stroke-opacity:1" d="M 424.608,484.922 432.544,470.637 z" id="boundary" inkscape:connector-curvature="0" />
	<path style="fill:none;stroke:red;stroke-width:1px;stroke-linecap:butt;stroke-linejoin:miter;stroke-opacity:1" d="M 432.544,470.637 432.544,454.765 z" id="boundary" inkscape:connector-curvature="0" />
	<path style="fill:none;stroke:red;stroke-width:1px;stroke-linecap:butt;stroke-linejoin:miter;stroke-opacity:1" d="M 432.544,454.765 423.021,442.067 z" id="boundary" inkscape:connector-curvature="0" />
	<path style="fill:none;stroke:red;stroke-width:1px;stroke-linecap:butt;stroke-linejoin:miter;stroke-opacity:1" d="M 423.021,442.067 410.323,430.957 z" id="boundary" inkscape:connector-curvature="0" />
	<path style="fill:none;stroke:red;stroke-width:1px;stroke-linecap:butt;stroke-linejoin:miter;stroke-opacity:1" d="M 410.323,430.957 396.038,423.021 z" id="boundary" inkscape:connector-curvature="0" />
	<path style="fill:none;stroke:red;stroke-width:1px;stroke-linecap:butt;stroke-linejoin:miter;stroke-opacity:1" d="M 396.038,423.021 380.166,416.672 z" id="boundary" inkscape:connector-curvature="0" />
	<path style="fill:none;stroke:red;stroke-width:1px;stroke-linecap:butt;stroke-linejoin:miter;stroke-opacity:1" d="M 380.166,416.672 365.882,408.736 z" id="boundary" inkscape:connector-curvature="0" />
	<path style="fill:none;stroke:red;stroke-width:1px;stroke-linecap:butt;stroke-linejoin:miter;stroke-opacity:1" d="M 365.882,408.736 353.184,397.626 z" id="boundary" inkscape:connector-curvature="0" />
	<path style="fill:none;stroke:red;stroke-width:1px;stroke-linecap:butt;stroke-linejoin:miter;stroke-opacity:1" d="M 353.184,397.626 338.899,389.69 z" id="boundary" inkscape:connector-curvature="0" />
	<path style="fill:none;stroke:red;stroke-width:1px;stroke-linecap:butt;stroke-linejoin:miter;stroke-opacity:1" d="M 338.899,389.69 323.027,383.341 z" id="boundary" inkscape:connector-curvature="0" />
	<path style="fill:none;stroke:red;stroke-width:1px;stroke-linecap:butt;stroke-linejoin:miter;stroke-opacity:1" d="M 323.027,383.341 311.917,370.643 z" id="boundary" inkscape:connector-curvature="0" />
	<path style="fill:none;stroke:red;stroke-width:1px;stroke-linecap:butt;stroke-linejoin:miter;stroke-opacity:1" d="M 311.917,370.643 296.045,370.643 z" id="boundary" inkscape:connector-curvature="0" />
	<path style="fill:none;stroke:red;stroke-width:1px;stroke-linecap:butt;stroke-linejoin:miter;stroke-opacity:1" d="M 296.045,370.643 281.76,362.707 z" id="boundary" inkscape:connector-curvature="0" />
	<path style="fill:none;stroke:red;stroke-width:1px;stroke-linecap:butt;stroke-linejoin:miter;stroke-opacity:1" d="M 281.76,362.707 269.062,353.184 z" id="boundary" inkscape:connector-curvature="0" />
	<path style="fill:none;stroke:red;stroke-width:1px;stroke-linecap:butt;stroke-linejoin:miter;stroke-opacity:1" d="M 269.062,353.184 254.778,345.248 z" id="boundary" inkscape:connector-curvature="0" />
	<path style="fill:none;stroke:red;stroke-width:1px;stroke-linecap:butt;stroke-linejoin:miter;stroke-opacity:1" d="M 254.778,345.248 238.906,338.899 z" id="boundary" inkscape:connector-curvature="0" />
	<path style="fill:none;stroke:red;stroke-width:1px;stroke-linecap:butt;stroke-linejoin:miter;stroke-opacity:1" d="M 238.906,338.899 227.795,326.202 z" id="boundary" inkscape:connector-curvature="0" />
	<path style="fill:none;stroke:red;stroke-width:1px;stroke-linecap:butt;stroke-linejoin:miter;stroke-opacity:1" d="M 227.795,326.202 215.098,315.091 z" id="boundary" inkscape:connector-curvature="0" />
	<path style="fill:none;stroke:red;stroke-width:1px;stroke-linecap:butt;stroke-linejoin:miter;stroke-opacity:1" d="M 215.098,315.091 208.749,299.219 z" id="boundary" inkscape:connector-curvature="0" />
	<path style="fill:none;stroke:red;stroke-width:1px;stroke-linecap:butt;stroke-linejoin:miter;stroke-opacity:1" d="M 208.749,299.219 196.051,288.109 z" id="boundary" inkscape:connector-curvature="0" />
	<path style="fill:none;stroke:red;stroke-width:1px;stroke-linecap:butt;stroke-linejoin:miter;stroke-opacity:1" d="M 196.051,288.109 186.528,275.411 z" id="boundary" inkscape:connector-curvature="0" />
	<path style="fill:none;stroke:red;stroke-width:1px;stroke-linecap:butt;stroke-linejoin:miter;stroke-opacity:1" d="M 186.528,275.411 186.528,259.539 z" id="boundary" inkscape:connector-curvature="0" />
	<path style="fill:none;stroke:red;stroke-width:1px;stroke-linecap:butt;stroke-linejoin:miter;stroke-opacity:1" d="M 186.528,259.539 173.83,250.016 z" id="boundary" inkscape:connector-curvature="0" />
	<path style="fill:none;stroke:red;stroke-width:1px;stroke-linecap:butt;stroke-linejoin:miter;stroke-opacity:1" d="M 173.83,250.016 170.656,234.144 z" id="boundary" inkscape:connector-curvature="0" />
	<path style="fill:none;stroke:red;stroke-width:1px;stroke-linecap:butt;stroke-linejoin:miter;stroke-opacity:1" d="M 170.656,234.144 162.72,219.859 z" id="boundary" inkscape:connector-curvature="0" />
	<path style="fill:none;stroke:red;stroke-width:1px;stroke-linecap:butt;stroke-linejoin:miter;stroke-opacity:1" d="M 162.72,219.859 159.546,203.987 z" id="boundary" inkscape:connector-curvature="0" />
	<path style="fill:none;stroke:red;stroke-width:1px;stroke-linecap:butt;stroke-linejoin:miter;stroke-opacity:1" d="M 159.546,203.987 154.784,188.115 z" id="boundary" inkscape:connector-curvature="0" />
	<path style="fill:none;stroke:red;stroke-width:1px;stroke-linecap:butt;stroke-linejoin:miter;stroke-opacity:1" d="M 154.784,188.115 154.784,172.243 z" id="boundary" inkscape:connector-curvature="0" />
	<path style="fill:none;stroke:red;stroke-width:1px;stroke-linecap:butt;stroke-linejoin:miter;stroke-opacity:1" d="M 154.784,172.243 154.784,156.371 z" id="boundary" inkscape:connector-curvature="0" />
	<path style="fill:none;stroke:red;stroke-width:1px;stroke-linecap:butt;stroke-linejoin:miter;stroke-opacity:1" d="M 154.784,156.371 154.784,140.499 z" id="boundary" inkscape:connector-curvature="0" />
	<path style="fill:none;stroke:red;stroke-width:1px;stroke-linecap:butt;stroke-linejoin:miter;stroke-opacity:1" d="M 154.784,140.499 153.197,124.627 z" id="boundary" inkscape:connector-curvature="0" />
	<path style="fill:none;stroke:red;stroke-width:1px;stroke-linecap:butt;stroke-linejoin:miter;stroke-opacity:1" d="M 153.197,124.627 138.912,116.691 z" id="boundary" inkscape:connector-curvature="0" />
	<path style="fill:none;stroke:red;stroke-width:1px;stroke-linecap:butt;stroke-linejoin:miter;stroke-opacity:1" d="M 138.912,116.691 123.04,116.691 z" id="boundary" inkscape:connector-curvature="0" />
	<path style="fill:none;stroke:red;stroke-width:1px;stroke-linecap:butt;stroke-linejoin:miter;stroke-opacity:1" d="M 123.04,116.691 107.168,116.691 z" id="boundary" inkscape:connector-curvature="0" />
	<path style="fill:none;stroke:red;stroke-width:1px;stroke-linecap:butt;stroke-linejoin:miter;stroke-opacity:1" d="M 107.168,116.691 91.296,119.866 z" id="boundary" inkscape:connector-curvature="0" />
	<path style="fill:none;stroke:red;stroke-width:1px;stroke-linecap:butt;stroke-linejoin:miter;stroke-opacity:1" d="M 91.296,119.866 75.424,124.627 z" id="boundary" inkscape:connector-curvature="0" />
	<path style="fill:none;stroke:red;stroke-width:1px;stroke-linecap:butt;stroke-linejoin:miter;stroke-opacity:1" d="M 75.424,124.627 59.552,127.802 z" id="boundary" inkscape:connector-curvature="0" />
	<path style="fill:none;stroke:red;stroke-width:1px;stroke-linecap:butt;stroke-linejoin:miter;stroke-opacity:1" d="M 59.552,127.802 43.68,135.738 z" id="boundary" inkscape:connector-curvature="0" />
	<path style="fill:none;stroke:red;stroke-width:1px;stroke-linecap:butt;stroke-linejoin:miter;stroke-opacity:1" d="M 43.68,135.738 27.808,140.499 z" id="boundary" inkscape:connector-curvature="0" />
	<path style="fill:none;stroke:red;stroke-width:1px;stroke-linecap:butt;stroke-linejoin:miter;stroke-opacity:1" d="M 27.808,140.499 13.5232,148.435 z" id="boundary" inkscape:connector-curvature="0" />
	<path style="fill:none;stroke:red;stroke-width:1px;stroke-linecap:butt;stroke-linejoin:miter;stroke-opacity:1" d="M 13.5232,148.435 4,135.738 z" id="boundary" inkscape:connector-curvature="0" />
	<path style="fill:none;stroke:red;stroke-width:1px;stroke-linecap:butt;stroke-linejoin:miter;stroke-opacity:1" d="M 4,135.738 16.6976,123.04 z" id="boundary" inkscape:connector-curvature="0" />
	<path style="fill:none;stroke:red;stroke-width:1px;stroke-linecap:butt;stroke-linejoin:miter;stroke-opacity:1" d="M 16.6976,123.04 32.5696,115.104 z" id="boundary" inkscape:connector-curvature="0" />
	<path style="fill:none;stroke:red;stroke-width:1px;stroke-linecap:butt;stroke-linejoin:miter;stroke-opacity:1" d="M 32.5696,115.104 48.4416,107.168 z" id="boundary" inkscape:connector-curvature="0" />
	<path style="fill:none;stroke:red;stroke-width:1px;stroke-linecap:butt;stroke-linejoin:miter;stroke-opacity:1" d="M 48.4416,107.168 64.3136,99.232 z" id="boundary" inkscape:connector-curvature="0" />
	<path style="fill:none;stroke:red;stroke-width:1px;stroke-linecap:butt;stroke-linejoin:miter;stroke-opacity:1" d="M 64.3136,99.232 80.1856,91.296 z" id="boundary" inkscape:connector-curvature="0" />
	<path style="fill:none;stroke:red;stroke-width:1px;stroke-linecap:butt;stroke-linejoin:miter;stroke-opacity:1" d="M 80.1856,91.296 96.0576,83.36 z" id="boundary" inkscape:connector-curvature="0" />
	<path style="fill:none;stroke:red;stroke-width:1px;stroke-linecap:butt;stroke-linejoin:miter;stroke-opacity:1" d="M 96.0576,83.36 111.93,75.424 z" id="boundary" inkscape:connector-curvature="0" />
	<path style="fill:none;stroke:red;stroke-width:1px;stroke-linecap:butt;stroke-linejoin:miter;stroke-opacity:1" d="M 111.93,75.424 119.866,59.552 z" id="boundary" inkscape:connector-curvature="0" />
	<path style="fill:none;stroke:red;stroke-width:1px;stroke-linecap:butt;stroke-linejoin:miter;stroke-opacity:1" d="M 119.866,59.552 123.04,40.5056 z" id="boundary" inkscape:connector-curvature="0" />
	<path style="fill:none;stroke:red;stroke-width:1px;stroke-linecap:butt;stroke-linejoin:miter;stroke-opacity:1" d="M 123.04,40.5056 135.738,27.808 z" id="boundary" inkscape:connector-curvature="0" />
	<path style="fill:none;stroke:red;stroke-width:1px;stroke-linecap:butt;stroke-linejoin:miter;stroke-opacity:1" d="M 135.738,27.808 150.022,19.872 z" id="boundary" inkscape:connector-curvature="0" />
	<path style="fill:none;stroke:red;stroke-width:1px;stroke-linecap:butt;stroke-linejoin:miter;stroke-opacity:1" d="M 150.022,19.872 164.307,11.936 z" id="boundary" inkscape:connector-curvature="0" />
	<path style="fill:none;stroke:red;stroke-width:1px;stroke-linecap:butt;stroke-linejoin:miter;stroke-opacity:1" d="M 164.307,11.936 180.179,7.1744 z" id="boundary" inkscape:connector-curvature="0" />
	<path style="fill:none;stroke:red;stroke-width:1px;stroke-linecap:butt;stroke-linejoin:miter;stroke-opacity:1" d="M 180.179,7.1744 196.051,4 z" id="boundary" inkscape:connector-curvature="0" />
	<path style="fill:none;stroke:red;stroke-width:1px;stroke-linecap:butt;stroke-linejoin:miter;stroke-opacity:1" d="M 196.051,4 211.923,4 z" id="boundary" inkscape:connector-curvature="0" />
	<path style="fill:none;stroke:red;stroke-width:1px;stroke-linecap:butt;stroke-linejoin:miter;stroke-opacity:1" d="M 211.923,4 227.795,4 z" id="boundary" inkscape:connector-curvature="0" />
	<path style="fill:none;stroke:red;stroke-width:1px;stroke-linecap:butt;stroke-linejoin:miter;stroke-opacity:1" d="M 227.795,4 242.08,11.936 z" id="boundary" inkscape:connector-curvature="0" />
	<path style="fill:none;stroke:red;stroke-width:1px;stroke-linecap:butt;stroke-linejoin:miter;stroke-opacity:1" d="M 242.08,11.936 256.365,19.872 z" id="boundary" inkscape:connector-curvature="0" />
	<path style="fill:none;stroke:red;stroke-width:1px;stroke-linecap:butt;stroke-linejoin:miter;stroke-opacity:1" d="M 256.365,19.872 270.65,27.808 z" id="boundary" inkscape:connector-curvature="0" />
	<path style="fill:none;stroke:red;stroke-width:1px;stroke-linecap:butt;stroke-linejoin:miter;stroke-opacity:1" d="M 270.65,27.808 275.411,43.68 z" id="boundary" inkscape:connector-curvature="0" />
	<path style="fill:none;stroke:red;stroke-width:1px;stroke-linecap:butt;stroke-linejoin:miter;stroke-opacity:1" d="M 275.411,43.68 283.347,57.9648 z" id="boundary" inkscape:connector-curvature="0" />
	<path style="fill:none;stroke:red;stroke-width:1px;stroke-linecap:butt;stroke-linejoin:miter;stroke-opacity:1" d="M 283.347,57.9648 291.283,72.2496 z" id="boundary" inkscape:connector-curvature="0" />
	<path style="fill:none;stroke:red;stroke-width:1px;stroke-linecap:butt;stroke-linejoin:miter;stroke-opacity:1" d="M 291.283,72.2496 297.632,88.1216 z" id="boundary" inkscape:connector-curvature="0" />
	<path style="fill:none;stroke:red;stroke-width:1px;stroke-linecap:butt;stroke-linejoin:miter;stroke-opacity:1" d="M 297.632,88.1216 310.33,99.232 z" id="boundary" inkscape:connector-curvature="0" />
	<path style="fill:none;stroke:red;stroke-width:1px;stroke-linecap:butt;stroke-linejoin:miter;stroke-opacity:1" d="M 310.33,99.232 324.614,107.168 z" id="boundary" inkscape:connector-curvature="0" />
	<path style="fill:none;stroke:red;stroke-width:1px;stroke-linecap:butt;stroke-linejoin:miter;stroke-opacity:1" d="M 324.614,107.168 340.486,107.168 z" id="boundary" inkscape:connector-curvature="0" />
	<path style="fill:none;stroke:red;stroke-width:1px;stroke-linecap:butt;stroke-linejoin:miter;stroke-opacity:1" d="M 340.486,107.168 356.358,107.168 z" id="boundary" inkscape:connector-curvature="0" />
	<path style="fill:none;stroke:red;stroke-width:1px;stroke-linecap:butt;stroke-linejoin:miter;stroke-opacity:1" d="M 356.358,107.168 372.23,107.168 z" id="boundary" inkscape:connector-curvature="0" />
	<path style="fill:none;stroke:red;stroke-width:1px;stroke-linecap:butt;stroke-linejoin:miter;stroke-opacity:1" d="M 372.23,107.168 388.102,107.168 z" id="boundary" inkscape:connector-curvature="0" />
	<path style="fill:none;stroke:red;stroke-width:1px;stroke-linecap:butt;stroke-linejoin:miter;stroke-opacity:1" d="M 388.102,107.168 403.974,107.168 z" id="boundary" inkscape:connector-curvature="0" />
	<path style="fill:none;stroke:red;stroke-width:1px;stroke-linecap:butt;stroke-linejoin:miter;stroke-opacity:1" d="M 403.974,107.168 419.846,107.168 z" id="boundary" inkscape:connector-curvature="0" />
	<path style="fill:none;stroke:red;stroke-width:1px;stroke-linecap:butt;stroke-linejoin:miter;stroke-opacity:1" d="M 419.846,107.168 435.718,107.168 z" id="boundary" inkscape:connector-curvature="0" />
	<path style="fill:none;stroke:red;stroke-width:1px;stroke-linecap:butt;stroke-linejoin:miter;stroke-opacity:1" d="M 435.718,107.168 450.003,115.104 z" id="boundary" inkscape:connector-curvature="0" />
	<path style="fill:none;stroke:red;stroke-width:1px;stroke-linecap:butt;stroke-linejoin:miter;stroke-opacity:1" d="M 450.003,115.104 465.875,115.104 z" id="boundary" inkscape:connector-curvature="0" />
	<path style="fill:none;stroke:red;stroke-width:1px;stroke-linecap:butt;stroke-linejoin:miter;stroke-opacity:1" d="M 465.875,115.104 481.747,119.866 z" id="boundary" inkscape:connector-curvature="0" />
	<path style="fill:none;stroke:red;stroke-width:1px;stroke-linecap:butt;stroke-linejoin:miter;stroke-opacity:1" d="M 481.747,119.866 497.619,123.04 z" id="boundary" inkscape:connector-curvature="0" />
	<path style="fill:none;stroke:red;stroke-width:1px;stroke-linecap:butt;stroke-linejoin:miter;stroke-opacity:1" d="M 497.619,123.04 513.491,127.802 z" id="boundary" inkscape:connector-curvature="0" />
	<path style="fill:none;stroke:red;stroke-width:1px;stroke-linecap:butt;stroke-linejoin:miter;stroke-opacity:1" d="M 513.491,127.802 529.363,130.976 z" id="boundary" inkscape:connector-curvature="0" />
	<path style="fill:none;stroke:red;stroke-width:1px;stroke-linecap:butt;stroke-linejoin:miter;stroke-opacity:1" d="M 529.363,130.976 543.648,138.912 z" id="boundary" inkscape:connector-curvature="0" />
	<path style="fill:none;stroke:red;stroke-width:1px;stroke-linecap:butt;stroke-linejoin:miter;stroke-opacity:1" d="M 543.648,138.912 559.52,142.086 z" id="boundary" inkscape:connector-curvature="0" />
	<path style="fill:none;stroke:red;stroke-width:1px;stroke-linecap:butt;stroke-linejoin:miter;stroke-opacity:1" d="M 559.52,142.086 575.392,146.848 z" id="boundary" inkscape:connector-curvature="0" />
	<path style="fill:none;stroke:red;stroke-width:1px;stroke-linecap:butt;stroke-linejoin:miter;stroke-opacity:1" d="M 575.392,146.848 589.677,154.784 z" id="boundary" inkscape:connector-curvature="0" />
	<path style="fill:none;stroke:red;stroke-width:1px;stroke-linecap:butt;stroke-linejoin:miter;stroke-opacity:1" d="M 589.677,154.784 605.549,156.371 z" id="boundary" inkscape:connector-curvature="0" />
	<path style="fill:none;stroke:red;stroke-width:1px;stroke-linecap:butt;stroke-linejoin:miter;stroke-opacity:1" d="M 605.549,156.371 619.834,164.307 z" id="boundary" inkscape:connector-curvature="0" />
	<path style="fill:none;stroke:red;stroke-width:1px;stroke-linecap:butt;stroke-linejoin:miter;stroke-opacity:1" d="M 619.834,164.307 635.706,170.656 z" id="boundary" inkscape:connector-curvature="0" />
	<path style="fill:none;stroke:red;stroke-width:1px;stroke-linecap:butt;stroke-linejoin:miter;stroke-opacity:1" d="M 635.706,170.656 651.578,170.656 z" id="boundary" inkscape:connector-curvature="0" />
	<path style="fill:none;stroke:red;stroke-width:1px;stroke-linecap:butt;stroke-linejoin:miter;stroke-opacity:1" d="M 651.578,170.656 662.688,183.354 z" id="boundary" inkscape:connector-curvature="0" />
	<path style="fill:none;stroke:red;stroke-width:1px;stroke-linecap:butt;stroke-linejoin:miter;stroke-opacity:1" d="M 662.688,183.354 678.56,189.702 z" id="boundary" inkscape:connector-curvature="0" />
	<path style="fill:none;stroke:red;stroke-width:1px;stroke-linecap:butt;stroke-linejoin:miter;stroke-opacity:1" d="M 678.56,189.702 692.845,197.638 z" id="boundary" inkscape:connector-curvature="0" />
	<path style="fill:none;stroke:red;stroke-width:1px;stroke-linecap:butt;stroke-linejoin:miter;stroke-opacity:1" d="M 692.845,197.638 708.717,203.987 z" id="boundary" inkscape:connector-curvature="0" />
	<path style="fill:none;stroke:red;stroke-width:1px;stroke-linecap:butt;stroke-linejoin:miter;stroke-opacity:1" d="M 708.717,203.987 723.002,211.923 z" id="boundary" inkscape:connector-curvature="0" />
	<path style="fill:none;stroke:red;stroke-width:1px;stroke-linecap:butt;stroke-linejoin:miter;stroke-opacity:1" d="M 723.002,211.923 735.699,223.034 z" id="boundary" inkscape:connector-curvature="0" />
	<path style="fill:none;stroke:red;stroke-width:1px;stroke-linecap:butt;stroke-linejoin:miter;stroke-opacity:1" d="M 735.699,223.034 751.571,226.208 z" id="boundary" inkscape:connector-curvature="0" />
	<path style="fill:none;stroke:red;stroke-width:1px;stroke-linecap:butt;stroke-linejoin:miter;stroke-opacity:1" d="M 751.571,226.208 767.443,230.97 z" id="boundary" inkscape:connector-curvature="0" />
	<path style="fill:none;stroke:red;stroke-width:1px;stroke-linecap:butt;stroke-linejoin:miter;stroke-opacity:1" d="M 767.443,230.97 783.315,234.144 z" id="boundary" inkscape:connector-curvature="0" />
	<path style="fill:none;stroke:red;stroke-width:1px;stroke-linecap:butt;stroke-linejoin:miter;stroke-opacity:1" d="M 783.315,234.144 799.187,238.906 z" id="boundary" inkscape:connector-curvature="0" />
	<path style="fill:none;stroke:red;stroke-width:1px;stroke-linecap:butt;stroke-linejoin:miter;stroke-opacity:1" d="M 799.187,238.906 815.059,242.08 z" id="boundary" inkscape:connector-curvature="0" />
	<path style="fill:none;stroke:red;stroke-width:1px;stroke-linecap:butt;stroke-linejoin:miter;stroke-opacity:1" d="M 815.059,242.08 830.931,242.08 z" id="boundary" inkscape:connector-curvature="0" />
	<path style="fill:none;stroke:red;stroke-width:1px;stroke-linecap:butt;stroke-linejoin:miter;stroke-opacity:1" d="M 830.931,242.08 846.803,242.08 z" id="boundary" inkscape:connector-curvature="0" />
	<path style="fill:none;stroke:red;stroke-width:1px;stroke-linecap:butt;stroke-linejoin:miter;stroke-opacity:1" d="M 846.803,242.08 862.675,242.08 z" id="boundary" inkscape:connector-curvature="0" />
	<path style="fill:none;stroke:red;stroke-width:1px;stroke-linecap:butt;stroke-linejoin:miter;stroke-opacity:1" d="M 862.675,242.08 878.547,242.08 z" id="boundary" inkscape:connector-curvature="0" />
	<path style="fill:none;stroke:red;stroke-width:1px;stroke-linecap:butt;stroke-linejoin:miter;stroke-opacity:1" d="M 878.547,242.08 894.419,242.08 z" id="boundary" inkscape:connector-curvature="0" />
	<path style="fill:none;stroke:red;stroke-width:1px;stroke-linecap:butt;stroke-linejoin:miter;stroke-opacity:1" d="M 894.419,242.08 910.291,242.08 z" id="boundary" inkscape:connector-curvature="0" />
	<path style="fill:none;stroke:red;stroke-width:1px;stroke-linecap:butt;stroke-linejoin:miter;stroke-opacity:1" d="M 910.291,242.08 926.163,242.08 z" id="boundary" inkscape:connector-curvature="0" />
	<path style="fill:none;stroke:red;stroke-width:1px;stroke-linecap:butt;stroke-linejoin:miter;stroke-opacity:1" d="M 926.163,242.08 942.035,242.08 z" id="boundary" inkscape:connector-curvature="0" />
	<path style="fill:none;stroke:red;stroke-width:1px;stroke-linecap:butt;stroke-linejoin:miter;stroke-opacity:1" d="M 942.035,242.08 957.907,242.08 z" id="boundary" inkscape:connector-curvature="0" />
	<path style="fill:none;stroke:red;stroke-width:1px;stroke-linecap:butt;stroke-linejoin:miter;stroke-opacity:1" d="M 957.907,242.08 973.779,242.08 z" id="boundary" inkscape:connector-curvature="0" />
	<path style="fill:none;stroke:red;stroke-width:1px;stroke-linecap:butt;stroke-linejoin:miter;stroke-opacity:1" d="M 973.779,242.08 989.651,242.08 z" id="boundary" inkscape:connector-curvature="0" />
	<circle cx="4" cy="135.738" r="4" fill="#0" id="circle0"/>
	<circle cx="13.5232" cy="148.435" r="4" fill="#0" id="circle1"/>
	<circle cx="16.6976" cy="123.04" r="4" fill="#0" id="circle2"/>
	<circle cx="27.808" cy="140.499" r="4" fill="#0" id="circle3"/>
	<circle cx="32.5696" cy="115.104" r="4" fill="#0" id="circle4"/>
	<circle cx="43.68" cy="135.738" r="4" fill="#0" id="circle5"/>
	<circle cx="48.4416" cy="107.168" r="4" fill="#0" id="circle6"/>
	<circle cx="59.552" cy="127.802" r="4" fill="#0" id="circle7"/>
	<circle cx="64.3136" cy="99.232" r="4" fill="#0" id="circle8"/>
	<circle cx="75.424" cy="124.627" r="4" fill="#0" id="circle9"/>
	<circle cx="80.1856" cy="91.296" r="4" fill="#0" id="circle10"/>
	<circle cx="91.296" cy="119.866" r="4" fill="#0" id="circle11"/>
	<circle cx="96.0576" cy="83.36" r="4" fill="#0" id="circle12"/>
	<circle cx="107.168" cy="116.691" r="4" fill="#0" id="circle13"/>
	<circle cx="111.93" cy="75.424" r="4" fill="#0" id="circle14"/>
	<circle cx="119.866" cy="59.552" r="4" fill="#0" id="circle15"/>
	<circle cx="123.04" cy="40.5056" r="4" fill="#0" id="circle16"/>
	<circle cx="123.04" cy="116.691" r="4" fill="#0" id="circle17"/>
	<circle cx="135.738" cy="27.808" r="4" fill="#0" id="circle18"/>
	<circle cx="138.912" cy="116.691" r="4" fill="#0" id="circle19"/>
	<circle cx="150.022" cy="19.872" r="4" fill="#0" id="circle20"/>
	<circle cx="153.197" cy="124.627" r="4" fill="#0" id="circle21"/>
	<circle cx="154.784" cy="140.499" r="4" fill="#0" id="circle22"/>
	<circle cx="154.784" cy="156.371" r="4" fill="#0" id="circle23"/>
	<circle cx="154.784" cy="172.243" r="4" fill="#0" id="circle24"/>
	<circle cx="154.784" cy="188.115" r="4" fill="#0" id="circle25"/>
	<circle cx="159.546" cy="203.987" r="4" fill="#0" id="circle26"/>
	<circle cx="162.72" cy="219.859" r="4" fill="#0" id="circle27"/>
	<circle cx="164.307" cy="11.936" r="4" fill="#0" id="circle28"/>
	<circle cx="170.656" cy="234.144" r="4" fill="#0" id="circle29"/>
	<circle cx="173.83" cy="250.016" r="4" fill="#0" id="circle30"/>
	<circle cx="180.179" cy="7.1744" r="4" fill="#0" id="circle31"/>
	<circle cx="186.528" cy="259.539" r="4" fill="#0" id="circle32"/>
	<circle cx="186.528" cy="275.411" r="4" fill="#0" id="circle33"/>
	<circle cx="196.051" cy="4" r="4" fill="#0" id="circle34"/>
	<circle cx="196.051" cy="288.109" r="4" fill="#0" id="circle35"/>
	<circle cx="208.749" cy="299.219" r="4" fill="#0" id="circle36"/>
	<circle cx="211.923" cy="4" r="4" fill="#0" id="circle37"/>
	<circle cx="215.098" cy="315.091" r="4" fill="#0" id="circle38"/>
	<circle cx="227.795" cy="4" r="4" fill="#0" id="circle39"/>
	<circle cx="227.795" cy="326.202" r="4" fill="#0" id="circle40"/>
	<circle cx="238.906" cy="338.899" r="4" fill="#0" id="circle41"/>
	<circle cx="242.08" cy="11.936" r="4" fill="#0" id="circle42"/>
	<circle cx="254.778" cy="345.248" r="4" fill="#0" id="circle43"/>
	<circle cx="256.365" cy="19.872" r="4" fill="#0" id="circle44"/>
	<circle cx="265.888" cy="651.578" r="4" fill="#0" id="circle45"/>
	<circle cx="269.062" cy="353.184" r="4" fill="#0" id="circle46"/>
	<circle cx="270.65" cy="27.808" r="4" fill="#0" id="circle47"/>
	<circle cx="275.411" cy="43.68" r="4" fill="#0" id="circle48"/>
	<circle cx="275.411" cy="664.275" r="4" fill="#0" id="circle49"/>
	<circle cx="281.76" cy="362.707" r="4" fill="#0" id="circle50"/>
	<circle cx="281.76" cy="646.816" r="4" fill="#0" id="circle51"/>
	<circle cx="283.347" cy="57.9648" r="4" fill="#0" id="circle52"/>
	<circle cx="289.696" cy="672.211" r="4" fill="#0" id="circle53"/>
	<circle cx="291.283" cy="72.2496" r="4" fill="#0" id="circle54"/>
	<circle cx="296.045" cy="370.643" r="4" fill="#0" id="circle55"/>
	<circle cx="296.045" cy="638.88" r="4" fill="#0" id="circle56"/>
	<circle cx="297.632" cy="88.1216" r="4" fill="#0" id="circle57"/>
	<circle cx="305.568" cy="672.211" r="4" fill="#0" id="circle58"/>
	<circle cx="310.33" cy="99.232" r="4" fill="#0" id="circle59"/>
	<circle cx="311.917" cy="370.643" r="4" fill="#0" id="circle60"/>
	<circle cx="311.917" cy="638.88" r="4" fill="#0" id="circle61"/>
	<circle cx="321.44" cy="672.211" r="4" fill="#0" id="circle62"/>
	<circle cx="323.027" cy="383.341" r="4" fill="#0" id="circle63"/>
	<circle cx="324.614" cy="107.168" r="4" fill="#0" id="circle64"/>
	<circle cx="327.789" cy="638.88" r="4" fill="#0" id="circle65"/>
	<circle cx="335.725" cy="664.275" r="4" fill="#0" id="circle66"/>
	<circle cx="338.899" cy="389.69" r="4" fill="#0" id="circle67"/>
	<circle cx="340.486" cy="107.168" r="4" fill="#0" id="circle68"/>
	<circle cx="343.661" cy="638.88" r="4" fill="#0" id="circle69"/>
	<circle cx="351.597" cy="664.275" r="4" fill="#0" id="circle70"/>
	<circle cx="353.184" cy="397.626" r="4" fill="#0" id="circle71"/>
	<circle cx="356.358" cy="107.168" r="4" fill="#0" id="circle72"/>
	<circle cx="357.946" cy="630.944" r="4" fill="#0" id="circle73"/>
	<circle cx="365.882" cy="408.736" r="4" fill="#0" id="circle74"/>
	<circle cx="367.469" cy="664.275" r="4" fill="#0" id="circle75"/>
	<circle cx="370.643" cy="618.246" r="4" fill="#0" id="circle76"/>
	<circle cx="372.23" cy="107.168" r="4" fill="#0" id="circle77"/>
	<circle cx="378.579" cy="602.374" r="4" fill="#0" id="circle78"/>
	<circle cx="380.166" cy="416.672" r="4" fill="#0" id="circle79"/>
	<circle cx="381.754" cy="656.339" r="4" fill="#0" id="circle80"/>
	<circle cx="388.102" cy="107.168" r="4" fill="#0" id="circle81"/>
	<circle cx="391.277" cy="591.264" r="4" fill="#0" id="circle82"/>
	<circle cx="394.451" cy="616.659" r="4" fill="#0" id="circle83"/>
	<circle cx="396.038" cy="423.021" r="4" fill="#0" id="circle84"/>
	<circle cx="397.626" cy="575.392" r="4" fill="#0" id="circle85"/>
	<circle cx="397.626" cy="632.531" r="4" fill="#0" id="circle86"/>
	<circle cx="397.626" cy="662.688" r="4" fill="#0" id="circle87"/>
	<circle cx="403.974" cy="107.168" r="4" fill="#0" id="circle88"/>
	<circle cx="403.974" cy="600.787" r="4" fill="#0" id="circle89"/>
	<circle cx="405.562" cy="559.52" r="4" fill="#0" id="circle90"/>
	<circle cx="410.323" cy="430.957" r="4" fill="#0" id="circle91"/>
	<circle cx="410.323" cy="584.915" r="4" fill="#0" id="circle92"/>
	<circle cx="413.498" cy="543.648" r="4" fill="#0" id="circle93"/>
	<circle cx="418.259" cy="569.043" r="4" fill="#0" id="circle94"/>
	<circle cx="419.846" cy="107.168" r="4" fill="#0" id="circle95"/>
	<circle cx="421.434" cy="527.776" r="4" fill="#0" id="circle96"/>
	<circle cx="423.021" cy="442.067" r="4" fill="#0" id="circle97"/>
	<circle cx="424.608" cy="484.922" r="4" fill="#0" id="circle98"/>
	<circle cx="424.608" cy="500.794" r="4" fill="#0" id="circle99"/>
	<circle cx="426.195" cy="553.171" r="4" fill="#0" id="circle100"/>
	<circle cx="432.544" cy="454.765" r="4" fill="#0" id="circle101"/>
	<circle cx="432.544" cy="470.637" r="4" fill="#0" id="circle102"/>
	<circle cx="435.718" cy="107.168" r="4" fill="#0" id="circle103"/>
	<circle cx="438.893" cy="542.061" r="4" fill="#0" id="circle104"/>
	<circle cx="442.067" cy="497.619" r="4" fill="#0" id="circle105"/>
	<circle cx="442.067" cy="513.491" r="4" fill="#0" id="circle106"/>
	<circle cx="450.003" cy="115.104" r="4" fill="#0" id="circle107"/>
	<circle cx="450.003" cy="442.067" r="4" fill="#0" id="circle108"/>
	<circle cx="450.003" cy="457.939" r="4" fill="#0" id="circle109"/>
	<circle cx="450.003" cy="473.811" r="4" fill="#0" id="circle110"/>
	<circle cx="464.288" cy="434.131" r="4" fill="#0" id="circle111"/>
	<circle cx="465.875" cy="115.104" r="4" fill="#0" id="circle112"/>
	<circle cx="478.573" cy="426.195" r="4" fill="#0" id="circle113"/>
	<circle cx="481.747" cy="119.866" r="4" fill="#0" id="circle114"/>
	<circle cx="494.445" cy="426.195" r="4" fill="#0" id="circle115"/>
	<circle cx="497.619" cy="123.04" r="4" fill="#0" id="circle116"/>
	<circle cx="508.73" cy="418.259" r="4" fill="#0" id="circle117"/>
	<circle cx="513.491" cy="127.802" r="4" fill="#0" id="circle118"/>
	<circle cx="524.602" cy="424.608" r="4" fill="#0" id="circle119"/>
	<circle cx="529.363" cy="130.976" r="4" fill="#0" id="circle120"/>
	<circle cx="538.886" cy="432.544" r="4" fill="#0" id="circle121"/>
	<circle cx="543.648" cy="138.912" r="4" fill="#0" id="circle122"/>
	<circle cx="543.648" cy="643.642" r="4" fill="#0" id="circle123"/>
	<circle cx="551.584" cy="442.067" r="4" fill="#0" id="circle124"/>
	<circle cx="556.346" cy="630.944" r="4" fill="#0" id="circle125"/>
	<circle cx="556.346" cy="654.752" r="4" fill="#0" id="circle126"/>
	<circle cx="559.52" cy="142.086" r="4" fill="#0" id="circle127"/>
	<circle cx="565.869" cy="450.003" r="4" fill="#0" id="circle128"/>
	<circle cx="569.043" cy="418.259" r="4" fill="#0" id="circle129"/>
	<circle cx="572.218" cy="465.875" r="4" fill="#0" id="circle130"/>
	<circle cx="572.218" cy="623.008" r="4" fill="#0" id="circle131"/>
	<circle cx="572.218" cy="648.403" r="4" fill="#0" id="circle132"/>
	<circle cx="575.392" cy="146.848" r="4" fill="#0" id="circle133"/>
	<circle cx="576.979" cy="432.544" r="4" fill="#0" id="circle134"/>
	<circle cx="581.741" cy="407.149" r="4" fill="#0" id="circle135"/>
	<circle cx="584.915" cy="446.829" r="4" fill="#0" id="circle136"/>
	<circle cx="584.915" cy="476.986" r="4" fill="#0" id="circle137"/>
	<circle cx="584.915" cy="610.31" r="4" fill="#0" id="circle138"/>
	<circle cx="586.502" cy="640.467" r="4" fill="#0" id="circle139"/>
	<circle cx="589.677" cy="154.784" r="4" fill="#0" id="circle140"/>
	<circle cx="591.264" cy="492.858" r="4" fill="#0" id="circle141"/>
	<circle cx="597.613" cy="402.387" r="4" fill="#0" id="circle142"/>
	<circle cx="597.613" cy="457.939" r="4" fill="#0" id="circle143"/>
	<circle cx="597.613" cy="599.2" r="4" fill="#0" id="circle144"/>
	<circle cx="600.787" cy="632.531" r="4" fill="#0" id="circle145"/>
	<circle cx="603.962" cy="503.968" r="4" fill="#0" id="circle146"/>
	<circle cx="605.549" cy="156.371" r="4" fill="#0" id="circle147"/>
	<circle cx="607.136" cy="580.154" r="4" fill="#0" id="circle148"/>
	<circle cx="608.723" cy="470.637" r="4" fill="#0" id="circle149"/>
	<circle cx="611.898" cy="394.451" r="4" fill="#0" id="circle150"/>
	<circle cx="613.485" cy="621.421" r="4" fill="#0" id="circle151"/>
	<circle cx="615.072" cy="516.666" r="4" fill="#0" id="circle152"/>
	<circle cx="615.072" cy="556.346" r="4" fill="#0" id="circle153"/>
	<circle cx="616.659" cy="484.922" r="4" fill="#0" id="circle154"/>
	<circle cx="619.834" cy="164.307" r="4" fill="#0" id="circle155"/>
	<circle cx="621.421" cy="605.549" r="4" fill="#0" id="circle156"/>
	<circle cx="623.008" cy="530.95" r="4" fill="#0" id="circle157"/>
	<circle cx="627.77" cy="394.451" r="4" fill="#0" id="circle158"/>
	<circle cx="627.77" cy="497.619" r="4" fill="#0" id="circle159"/>
	<circle cx="632.531" cy="592.851" r="4" fill="#0" id="circle160"/>
	<circle cx="635.706" cy="170.656" r="4" fill="#0" id="circle161"/>
	<circle cx="640.467" cy="508.73" r="4" fill="#0" id="circle162"/>
	<circle cx="642.054" cy="386.515" r="4" fill="#0" id="circle163"/>
	<circle cx="646.816" cy="584.915" r="4" fill="#0" id="circle164"/>
	<circle cx="651.578" cy="170.656" r="4" fill="#0" id="circle165"/>
	<circle cx="654.752" cy="599.2" r="4" fill="#0" id="circle166"/>
	<circle cx="654.752" cy="643.642" r="4" fill="#0" id="circle167"/>
	<circle cx="656.339" cy="511.904" r="4" fill="#0" id="circle168"/>
	<circle cx="657.926" cy="386.515" r="4" fill="#0" id="circle169"/>
	<circle cx="662.688" cy="183.354" r="4" fill="#0" id="circle170"/>
	<circle cx="662.688" cy="613.485" r="4" fill="#0" id="circle171"/>
	<circle cx="662.688" cy="629.357" r="4" fill="#0" id="circle172"/>
	<circle cx="664.275" cy="545.235" r="4" fill="#0" id="circle173"/>
	<circle cx="664.275" cy="561.107" r="4" fill="#0" id="circle174"/>
	<circle cx="664.275" cy="656.339" r="4" fill="#0" id="circle175"/>
	<circle cx="667.45" cy="576.979" r="4" fill="#0" id="circle176"/>
	<circle cx="672.211" cy="378.579" r="4" fill="#0" id="circle177"/>
	<circle cx="672.211" cy="516.666" r="4" fill="#0" id="circle178"/>
	<circle cx="675.386" cy="591.264" r="4" fill="#0" id="circle179"/>
	<circle cx="678.56" cy="189.702" r="4" fill="#0" id="circle180"/>
	<circle cx="680.147" cy="607.136" r="4" fill="#0" id="circle181"/>
	<circle cx="680.147" cy="648.403" r="4" fill="#0" id="circle182"/>
	<circle cx="688.083" cy="378.579" r="4" fill="#0" id="circle183"/>
	<circle cx="688.083" cy="621.421" r="4" fill="#0" id="circle184"/>
	<circle cx="692.845" cy="197.638" r="4" fill="#0" id="circle185"/>
	<circle cx="703.955" cy="370.643" r="4" fill="#0" id="circle186"/>
	<circle cx="708.717" cy="203.987" r="4" fill="#0" id="circle187"/>
	<circle cx="719.827" cy="370.643" r="4" fill="#0" id="circle188"/>
	<circle cx="723.002" cy="211.923" r="4" fill="#0" id="circle189"/>
	<circle cx="734.112" cy="362.707" r="4" fill="#0" id="circle190"/>
	<circle cx="735.699" cy="223.034" r="4" fill="#0" id="circle191"/>
	<circle cx="748.397" cy="354.771" r="4" fill="#0" id="circle192"/>
	<circle cx="751.571" cy="226.208" r="4" fill="#0" id="circle193"/>
	<circle cx="764.269" cy="354.771" r="4" fill="#0" id="circle194"/>
	<circle cx="767.443" cy="230.97" r="4" fill="#0" id="circle195"/>
	<circle cx="778.554" cy="346.835" r="4" fill="#0" id="circle196"/>
	<circle cx="783.315" cy="234.144" r="4" fill="#0" id="circle197"/>
	<circle cx="794.426" cy="345.248" r="4" fill="#0" id="circle198"/>
	<circle cx="799.187" cy="238.906" r="4" fill="#0" id="circle199"/>
	<circle cx="810.298" cy="338.899" r="4" fill="#0" id="circle200"/>
	<circle cx="815.059" cy="242.08" r="4" fill="#0" id="circle201"/>
	<circle cx="826.17" cy="337.312" r="4" fill="#0" id="circle202"/>
	<circle cx="830.931" cy="242.08" r="4" fill="#0" id="circle203"/>
	<circle cx="842.042" cy="330.963" r="4" fill="#0" id="circle204"/>
	<circle cx="846.803" cy="242.08" r="4" fill="#0" id="circle205"/>
	<circle cx="857.914" cy="330.963" r="4" fill="#0" id="circle206"/>
	<circle cx="862.675" cy="242.08" r="4" fill="#0" id="circle207"/>
	<circle cx="872.198" cy="323.027" r="4" fill="#0" id="circle208"/>
	<circle cx="878.547" cy="242.08" r="4" fill="#0" id="circle209"/>
	<circle cx="888.07" cy="323.027" r="4" fill="#0" id="circle210"/>
	<circle cx="894.419" cy="242.08" r="4" fill="#0" id="circle211"/>
	<circle cx="902.355" cy="283.347" r="4" fill="#0" id="circle212"/>
	<circle cx="903.942" cy="323.027" r="4" fill="#0" id="circle213"/>
	<circle cx="910.291" cy="242.08" r="4" fill="#0" id="circle214"/>
	<circle cx="915.053" cy="292.87" r="4" fill="#0" id="circle215"/>
	<circle cx="916.64" cy="275.411" r="4" fill="#0" id="circle216"/>
	<circle cx="919.814" cy="323.027" r="4" fill="#0" id="circle217"/>
	<circle cx="926.163" cy="242.08" r="4" fill="#0" id="circle218"/>
	<circle cx="930.925" cy="299.219" r="4" fill="#0" id="circle219"/>
	<circle cx="932.512" cy="270.65" r="4" fill="#0" id="circle220"/>
	<circle cx="935.686" cy="323.027" r="4" fill="#0" id="circle221"/>
	<circle cx="942.035" cy="242.08" r="4" fill="#0" id="circle222"/>
	<circle cx="946.797" cy="305.568" r="4" fill="#0" id="circle223"/>
	<circle cx="948.384" cy="267.475" r="4" fill="#0" id="circle224"/>
	<circle cx="951.558" cy="323.027" r="4" fill="#0" id="circle225"/>
	<circle cx="957.907" cy="242.08" r="4" fill="#0" id="circle226"/>
	<circle cx="962.669" cy="259.539" r="4" fill="#0" id="circle227"/>
	<circle cx="962.669" cy="305.568" r="4" fill="#0" id="circle228"/>
	<circle cx="967.43" cy="323.027" r="4" fill="#0" id="circle229"/>
	<circle cx="973.779" cy="242.08" r="4" fill="#0" id="circle230"/>
	<circle cx="978.541" cy="259.539" r="4" fill="#0" id="circle231"/>
	<circle cx="980.128" cy="313.504" r="4" fill="#0" id="circle232"/>
	<circle cx="981.715" cy="330.963" r="4" fill="#0" id="circle233"/>
	<circle cx="989.651" cy="242.08" r="4" fill="#0" id="circle234"/>
	<circle cx="996" cy="316.678" r="4" fill="#0" id="circle235"/>
	</g>
</svg>