<?xml version="1.0" encoding="UTF-8" standalone="no"?>
<!-- Created with CurveBenchmark -->
<svg
	xmlns:dc="http://purl.org/dc/elements/1.1/"
	xmlns:cc="http://creativecommons.org/ns#"
	xmlns:rdf="http://www.w3.org/1999/02/22-rdf-syntax-ns#"
	xmlns:svg="http://www.w3.org/2000/svg"
	xmlns="http://www.w3.org/2000/svg"
	xmlns:sodipodi="http://sodipodi.sourceforge.net/DTD/sodipodi-0.dtd"
	xmlns:inkscape="http://www.inkscape.org/namespaces/inkscape"
	width="1000"
	height="1000"
	id="svg2"
	version="1.1"
	sodipodi:docname="manifold/connect2d-elephant02.png.txt">
<defs
	id="defs4" />
<metadata
	id="metadata7">
	<rdf:RDF>
		<cc:Work
			rdf:about="">
			<dc:format>image/svg+xml</dc:format>
			<dc:type
				rdf:resource="http://purl.org/dc/dcmitype/StillImage" />
			<dc:title></dc:title>
		</cc:Work>
	</rdf:RDF>
</metadata>
<g
	inkscape:label="Layer 1"
	inkscape:groupmode="layer"
	id="layer1">
	<path style="fill:none;stroke:red;stroke-width:1px;stroke-linecap:butt;stroke-linejoin:miter;stroke-opacity:1" d="M 996,583.284 984.896,611.045 z" id="boundary" inkscape:connector-curvature="0" />
	<path style="fill:none;stroke:red;stroke-width:1px;stroke-linecap:butt;stroke-linejoin:miter;stroke-opacity:1" d="M 984.896,611.045 975.642,594.388 z" id="boundary" inkscape:connector-curvature="0" />
	<path style="fill:none;stroke:red;stroke-width:1px;stroke-linecap:butt;stroke-linejoin:miter;stroke-opacity:1" d="M 975.642,594.388 966.388,577.731 z" id="boundary" inkscape:connector-curvature="0" />
	<path style="fill:none;stroke:red;stroke-width:1px;stroke-linecap:butt;stroke-linejoin:miter;stroke-opacity:1" d="M 966.388,577.731 966.388,559.224 z" id="boundary" inkscape:connector-curvature="0" />
	<path style="fill:none;stroke:red;stroke-width:1px;stroke-linecap:butt;stroke-linejoin:miter;stroke-opacity:1" d="M 966.388,559.224 931.224,549.97 z" id="boundary" inkscape:connector-curvature="0" />
	<path style="fill:none;stroke:red;stroke-width:1px;stroke-linecap:butt;stroke-linejoin:miter;stroke-opacity:1" d="M 931.224,549.97 931.224,568.478 z" id="boundary" inkscape:connector-curvature="0" />
	<path style="fill:none;stroke:red;stroke-width:1px;stroke-linecap:butt;stroke-linejoin:miter;stroke-opacity:1" d="M 931.224,568.478 931.224,586.985 z" id="boundary" inkscape:connector-curvature="0" />
	<path style="fill:none;stroke:red;stroke-width:1px;stroke-linecap:butt;stroke-linejoin:miter;stroke-opacity:1" d="M 931.224,586.985 931.224,605.493 z" id="boundary" inkscape:connector-curvature="0" />
	<path style="fill:none;stroke:red;stroke-width:1px;stroke-linecap:butt;stroke-linejoin:miter;stroke-opacity:1" d="M 931.224,605.493 931.224,624 z" id="boundary" inkscape:connector-curvature="0" />
	<path style="fill:none;stroke:red;stroke-width:1px;stroke-linecap:butt;stroke-linejoin:miter;stroke-opacity:1" d="M 931.224,624 934.925,642.507 z" id="boundary" inkscape:connector-curvature="0" />
	<path style="fill:none;stroke:red;stroke-width:1px;stroke-linecap:butt;stroke-linejoin:miter;stroke-opacity:1" d="M 934.925,642.507 940.478,661.015 z" id="boundary" inkscape:connector-curvature="0" />
	<path style="fill:none;stroke:red;stroke-width:1px;stroke-linecap:butt;stroke-linejoin:miter;stroke-opacity:1" d="M 940.478,661.015 940.478,679.522 z" id="boundary" inkscape:connector-curvature="0" />
	<path style="fill:none;stroke:red;stroke-width:1px;stroke-linecap:butt;stroke-linejoin:miter;stroke-opacity:1" d="M 940.478,679.522 936.776,712.836 z" id="boundary" inkscape:connector-curvature="0" />
	<path style="fill:none;stroke:red;stroke-width:1px;stroke-linecap:butt;stroke-linejoin:miter;stroke-opacity:1" d="M 936.776,712.836 918.269,716.537 z" id="boundary" inkscape:connector-curvature="0" />
	<path style="fill:none;stroke:red;stroke-width:1px;stroke-linecap:butt;stroke-linejoin:miter;stroke-opacity:1" d="M 918.269,716.537 901.612,725.791 z" id="boundary" inkscape:connector-curvature="0" />
	<path style="fill:none;stroke:red;stroke-width:1px;stroke-linecap:butt;stroke-linejoin:miter;stroke-opacity:1" d="M 901.612,725.791 883.104,725.791 z" id="boundary" inkscape:connector-curvature="0" />
	<path style="fill:none;stroke:red;stroke-width:1px;stroke-linecap:butt;stroke-linejoin:miter;stroke-opacity:1" d="M 883.104,725.791 864.597,725.791 z" id="boundary" inkscape:connector-curvature="0" />
	<path style="fill:none;stroke:red;stroke-width:1px;stroke-linecap:butt;stroke-linejoin:miter;stroke-opacity:1" d="M 864.597,725.791 846.09,720.239 z" id="boundary" inkscape:connector-curvature="0" />
	<path style="fill:none;stroke:red;stroke-width:1px;stroke-linecap:butt;stroke-linejoin:miter;stroke-opacity:1" d="M 846.09,720.239 846.09,701.731 z" id="boundary" inkscape:connector-curvature="0" />
	<path style="fill:none;stroke:red;stroke-width:1px;stroke-linecap:butt;stroke-linejoin:miter;stroke-opacity:1" d="M 846.09,701.731 855.343,673.97 z" id="boundary" inkscape:connector-curvature="0" />
	<path style="fill:none;stroke:red;stroke-width:1px;stroke-linecap:butt;stroke-linejoin:miter;stroke-opacity:1" d="M 855.343,673.97 855.343,655.463 z" id="boundary" inkscape:connector-curvature="0" />
	<path style="fill:none;stroke:red;stroke-width:1px;stroke-linecap:butt;stroke-linejoin:miter;stroke-opacity:1" d="M 855.343,655.463 846.09,638.806 z" id="boundary" inkscape:connector-curvature="0" />
	<path style="fill:none;stroke:red;stroke-width:1px;stroke-linecap:butt;stroke-linejoin:miter;stroke-opacity:1" d="M 846.09,638.806 846.09,620.299 z" id="boundary" inkscape:connector-curvature="0" />
	<path style="fill:none;stroke:red;stroke-width:1px;stroke-linecap:butt;stroke-linejoin:miter;stroke-opacity:1" d="M 846.09,620.299 846.09,601.791 z" id="boundary" inkscape:connector-curvature="0" />
	<path style="fill:none;stroke:red;stroke-width:1px;stroke-linecap:butt;stroke-linejoin:miter;stroke-opacity:1" d="M 846.09,601.791 840.537,583.284 z" id="boundary" inkscape:connector-curvature="0" />
	<path style="fill:none;stroke:red;stroke-width:1px;stroke-linecap:butt;stroke-linejoin:miter;stroke-opacity:1" d="M 840.537,583.284 829.433,568.478 z" id="boundary" inkscape:connector-curvature="0" />
	<path style="fill:none;stroke:red;stroke-width:1px;stroke-linecap:butt;stroke-linejoin:miter;stroke-opacity:1" d="M 829.433,568.478 820.179,596.239 z" id="boundary" inkscape:connector-curvature="0" />
	<path style="fill:none;stroke:red;stroke-width:1px;stroke-linecap:butt;stroke-linejoin:miter;stroke-opacity:1" d="M 820.179,596.239 744.299,549.97 z" id="boundary" inkscape:connector-curvature="0" />
	<path style="fill:none;stroke:red;stroke-width:1px;stroke-linecap:butt;stroke-linejoin:miter;stroke-opacity:1" d="M 744.299,549.97 725.791,553.672 z" id="boundary" inkscape:connector-curvature="0" />
	<path style="fill:none;stroke:red;stroke-width:1px;stroke-linecap:butt;stroke-linejoin:miter;stroke-opacity:1" d="M 725.791,553.672 707.284,549.97 z" id="boundary" inkscape:connector-curvature="0" />
	<path style="fill:none;stroke:red;stroke-width:1px;stroke-linecap:butt;stroke-linejoin:miter;stroke-opacity:1" d="M 707.284,549.97 690.627,559.224 z" id="boundary" inkscape:connector-curvature="0" />
	<path style="fill:none;stroke:red;stroke-width:1px;stroke-linecap:butt;stroke-linejoin:miter;stroke-opacity:1" d="M 690.627,559.224 681.373,577.731 z" id="boundary" inkscape:connector-curvature="0" />
	<path style="fill:none;stroke:red;stroke-width:1px;stroke-linecap:butt;stroke-linejoin:miter;stroke-opacity:1" d="M 681.373,577.731 735.045,572.179 z" id="boundary" inkscape:connector-curvature="0" />
	<path style="fill:none;stroke:red;stroke-width:1px;stroke-linecap:butt;stroke-linejoin:miter;stroke-opacity:1" d="M 735.045,572.179 735.045,590.687 z" id="boundary" inkscape:connector-curvature="0" />
	<path style="fill:none;stroke:red;stroke-width:1px;stroke-linecap:butt;stroke-linejoin:miter;stroke-opacity:1" d="M 735.045,590.687 725.791,609.194 z" id="boundary" inkscape:connector-curvature="0" />
	<path style="fill:none;stroke:red;stroke-width:1px;stroke-linecap:butt;stroke-linejoin:miter;stroke-opacity:1" d="M 725.791,609.194 681.373,596.239 z" id="boundary" inkscape:connector-curvature="0" />
	<path style="fill:none;stroke:red;stroke-width:1px;stroke-linecap:butt;stroke-linejoin:miter;stroke-opacity:1" d="M 681.373,596.239 681.373,614.746 z" id="boundary" inkscape:connector-curvature="0" />
	<path style="fill:none;stroke:red;stroke-width:1px;stroke-linecap:butt;stroke-linejoin:miter;stroke-opacity:1" d="M 681.373,614.746 681.373,633.254 z" id="boundary" inkscape:connector-curvature="0" />
	<path style="fill:none;stroke:red;stroke-width:1px;stroke-linecap:butt;stroke-linejoin:miter;stroke-opacity:1" d="M 681.373,633.254 681.373,651.761 z" id="boundary" inkscape:connector-curvature="0" />
	<path style="fill:none;stroke:red;stroke-width:1px;stroke-linecap:butt;stroke-linejoin:miter;stroke-opacity:1" d="M 681.373,651.761 681.373,670.269 z" id="boundary" inkscape:connector-curvature="0" />
	<path style="fill:none;stroke:red;stroke-width:1px;stroke-linecap:butt;stroke-linejoin:miter;stroke-opacity:1" d="M 681.373,670.269 725.791,655.463 z" id="boundary" inkscape:connector-curvature="0" />
	<path style="fill:none;stroke:red;stroke-width:1px;stroke-linecap:butt;stroke-linejoin:miter;stroke-opacity:1" d="M 725.791,655.463 725.791,636.955 z" id="boundary" inkscape:connector-curvature="0" />
	<path style="fill:none;stroke:red;stroke-width:1px;stroke-linecap:butt;stroke-linejoin:miter;stroke-opacity:1" d="M 725.791,636.955 810.925,624 z" id="boundary" inkscape:connector-curvature="0" />
	<path style="fill:none;stroke:red;stroke-width:1px;stroke-linecap:butt;stroke-linejoin:miter;stroke-opacity:1" d="M 810.925,624 810.925,642.507 z" id="boundary" inkscape:connector-curvature="0" />
	<path style="fill:none;stroke:red;stroke-width:1px;stroke-linecap:butt;stroke-linejoin:miter;stroke-opacity:1" d="M 810.925,642.507 801.672,670.269 z" id="boundary" inkscape:connector-curvature="0" />
	<path style="fill:none;stroke:red;stroke-width:1px;stroke-linecap:butt;stroke-linejoin:miter;stroke-opacity:1" d="M 801.672,670.269 810.925,686.925 z" id="boundary" inkscape:connector-curvature="0" />
	<path style="fill:none;stroke:red;stroke-width:1px;stroke-linecap:butt;stroke-linejoin:miter;stroke-opacity:1" d="M 810.925,686.925 810.925,705.433 z" id="boundary" inkscape:connector-curvature="0" />
	<path style="fill:none;stroke:red;stroke-width:1px;stroke-linecap:butt;stroke-linejoin:miter;stroke-opacity:1" d="M 810.925,705.433 809.075,729.493 z" id="boundary" inkscape:connector-curvature="0" />
	<path style="fill:none;stroke:red;stroke-width:1px;stroke-linecap:butt;stroke-linejoin:miter;stroke-opacity:1" d="M 809.075,729.493 792.418,738.746 z" id="boundary" inkscape:connector-curvature="0" />
	<path style="fill:none;stroke:red;stroke-width:1px;stroke-linecap:butt;stroke-linejoin:miter;stroke-opacity:1" d="M 792.418,738.746 773.91,738.746 z" id="boundary" inkscape:connector-curvature="0" />
	<path style="fill:none;stroke:red;stroke-width:1px;stroke-linecap:butt;stroke-linejoin:miter;stroke-opacity:1" d="M 773.91,738.746 755.403,738.746 z" id="boundary" inkscape:connector-curvature="0" />
	<path style="fill:none;stroke:red;stroke-width:1px;stroke-linecap:butt;stroke-linejoin:miter;stroke-opacity:1" d="M 755.403,738.746 736.896,738.746 z" id="boundary" inkscape:connector-curvature="0" />
	<path style="fill:none;stroke:red;stroke-width:1px;stroke-linecap:butt;stroke-linejoin:miter;stroke-opacity:1" d="M 736.896,738.746 718.388,738.746 z" id="boundary" inkscape:connector-curvature="0" />
	<path style="fill:none;stroke:red;stroke-width:1px;stroke-linecap:butt;stroke-linejoin:miter;stroke-opacity:1" d="M 718.388,738.746 707.284,714.687 z" id="boundary" inkscape:connector-curvature="0" />
	<path style="fill:none;stroke:red;stroke-width:1px;stroke-linecap:butt;stroke-linejoin:miter;stroke-opacity:1" d="M 707.284,714.687 716.537,683.224 z" id="boundary" inkscape:connector-curvature="0" />
	<path style="fill:none;stroke:red;stroke-width:1px;stroke-linecap:butt;stroke-linejoin:miter;stroke-opacity:1" d="M 716.537,683.224 690.627,705.433 z" id="boundary" inkscape:connector-curvature="0" />
	<path style="fill:none;stroke:red;stroke-width:1px;stroke-linecap:butt;stroke-linejoin:miter;stroke-opacity:1" d="M 690.627,705.433 681.373,688.776 z" id="boundary" inkscape:connector-curvature="0" />
	<path style="fill:none;stroke:red;stroke-width:1px;stroke-linecap:butt;stroke-linejoin:miter;stroke-opacity:1" d="M 681.373,688.776 690.627,723.94 z" id="boundary" inkscape:connector-curvature="0" />
	<path style="fill:none;stroke:red;stroke-width:1px;stroke-linecap:butt;stroke-linejoin:miter;stroke-opacity:1" d="M 690.627,723.94 699.881,740.597 z" id="boundary" inkscape:connector-curvature="0" />
	<path style="fill:none;stroke:red;stroke-width:1px;stroke-linecap:butt;stroke-linejoin:miter;stroke-opacity:1" d="M 699.881,740.597 699.881,762.806 z" id="boundary" inkscape:connector-curvature="0" />
	<path style="fill:none;stroke:red;stroke-width:1px;stroke-linecap:butt;stroke-linejoin:miter;stroke-opacity:1" d="M 699.881,762.806 694.328,788.716 z" id="boundary" inkscape:connector-curvature="0" />
	<path style="fill:none;stroke:red;stroke-width:1px;stroke-linecap:butt;stroke-linejoin:miter;stroke-opacity:1" d="M 694.328,788.716 675.821,797.97 z" id="boundary" inkscape:connector-curvature="0" />
	<path style="fill:none;stroke:red;stroke-width:1px;stroke-linecap:butt;stroke-linejoin:miter;stroke-opacity:1" d="M 675.821,797.97 657.313,799.821 z" id="boundary" inkscape:connector-curvature="0" />
	<path style="fill:none;stroke:red;stroke-width:1px;stroke-linecap:butt;stroke-linejoin:miter;stroke-opacity:1" d="M 657.313,799.821 638.806,807.224 z" id="boundary" inkscape:connector-curvature="0" />
	<path style="fill:none;stroke:red;stroke-width:1px;stroke-linecap:butt;stroke-linejoin:miter;stroke-opacity:1" d="M 638.806,807.224 620.299,807.224 z" id="boundary" inkscape:connector-curvature="0" />
	<path style="fill:none;stroke:red;stroke-width:1px;stroke-linecap:butt;stroke-linejoin:miter;stroke-opacity:1" d="M 620.299,807.224 601.791,807.224 z" id="boundary" inkscape:connector-curvature="0" />
	<path style="fill:none;stroke:red;stroke-width:1px;stroke-linecap:butt;stroke-linejoin:miter;stroke-opacity:1" d="M 601.791,807.224 583.284,807.224 z" id="boundary" inkscape:connector-curvature="0" />
	<path style="fill:none;stroke:red;stroke-width:1px;stroke-linecap:butt;stroke-linejoin:miter;stroke-opacity:1" d="M 583.284,807.224 564.776,807.224 z" id="boundary" inkscape:connector-curvature="0" />
	<path style="fill:none;stroke:red;stroke-width:1px;stroke-linecap:butt;stroke-linejoin:miter;stroke-opacity:1" d="M 564.776,807.224 549.97,794.269 z" id="boundary" inkscape:connector-curvature="0" />
	<path style="fill:none;stroke:red;stroke-width:1px;stroke-linecap:butt;stroke-linejoin:miter;stroke-opacity:1" d="M 549.97,794.269 549.97,775.761 z" id="boundary" inkscape:connector-curvature="0" />
	<path style="fill:none;stroke:red;stroke-width:1px;stroke-linecap:butt;stroke-linejoin:miter;stroke-opacity:1" d="M 549.97,775.761 549.97,757.254 z" id="boundary" inkscape:connector-curvature="0" />
	<path style="fill:none;stroke:red;stroke-width:1px;stroke-linecap:butt;stroke-linejoin:miter;stroke-opacity:1" d="M 549.97,757.254 568.478,738.746 z" id="boundary" inkscape:connector-curvature="0" />
	<path style="fill:none;stroke:red;stroke-width:1px;stroke-linecap:butt;stroke-linejoin:miter;stroke-opacity:1" d="M 568.478,738.746 568.478,720.239 z" id="boundary" inkscape:connector-curvature="0" />
	<path style="fill:none;stroke:red;stroke-width:1px;stroke-linecap:butt;stroke-linejoin:miter;stroke-opacity:1" d="M 568.478,720.239 577.731,699.881 z" id="boundary" inkscape:connector-curvature="0" />
	<path style="fill:none;stroke:red;stroke-width:1px;stroke-linecap:butt;stroke-linejoin:miter;stroke-opacity:1" d="M 577.731,699.881 577.731,681.373 z" id="boundary" inkscape:connector-curvature="0" />
	<path style="fill:none;stroke:red;stroke-width:1px;stroke-linecap:butt;stroke-linejoin:miter;stroke-opacity:1" d="M 577.731,681.373 568.478,664.716 z" id="boundary" inkscape:connector-curvature="0" />
	<path style="fill:none;stroke:red;stroke-width:1px;stroke-linecap:butt;stroke-linejoin:miter;stroke-opacity:1" d="M 568.478,664.716 568.478,646.209 z" id="boundary" inkscape:connector-curvature="0" />
	<path style="fill:none;stroke:red;stroke-width:1px;stroke-linecap:butt;stroke-linejoin:miter;stroke-opacity:1" d="M 568.478,646.209 568.478,622.149 z" id="boundary" inkscape:connector-curvature="0" />
	<path style="fill:none;stroke:red;stroke-width:1px;stroke-linecap:butt;stroke-linejoin:miter;stroke-opacity:1" d="M 568.478,622.149 564.776,603.642 z" id="boundary" inkscape:connector-curvature="0" />
	<path style="fill:none;stroke:red;stroke-width:1px;stroke-linecap:butt;stroke-linejoin:miter;stroke-opacity:1" d="M 564.776,603.642 549.97,590.687 z" id="boundary" inkscape:connector-curvature="0" />
	<path style="fill:none;stroke:red;stroke-width:1px;stroke-linecap:butt;stroke-linejoin:miter;stroke-opacity:1" d="M 549.97,590.687 542.567,572.179 z" id="boundary" inkscape:connector-curvature="0" />
	<path style="fill:none;stroke:red;stroke-width:1px;stroke-linecap:butt;stroke-linejoin:miter;stroke-opacity:1" d="M 542.567,572.179 533.313,555.522 z" id="boundary" inkscape:connector-curvature="0" />
	<path style="fill:none;stroke:red;stroke-width:1px;stroke-linecap:butt;stroke-linejoin:miter;stroke-opacity:1" d="M 533.313,555.522 522.209,540.716 z" id="boundary" inkscape:connector-curvature="0" />
	<path style="fill:none;stroke:red;stroke-width:1px;stroke-linecap:butt;stroke-linejoin:miter;stroke-opacity:1" d="M 522.209,540.716 505.552,531.463 z" id="boundary" inkscape:connector-curvature="0" />
	<path style="fill:none;stroke:red;stroke-width:1px;stroke-linecap:butt;stroke-linejoin:miter;stroke-opacity:1" d="M 505.552,531.463 487.045,540.716 z" id="boundary" inkscape:connector-curvature="0" />
	<path style="fill:none;stroke:red;stroke-width:1px;stroke-linecap:butt;stroke-linejoin:miter;stroke-opacity:1" d="M 487.045,540.716 468.537,540.716 z" id="boundary" inkscape:connector-curvature="0" />
	<path style="fill:none;stroke:red;stroke-width:1px;stroke-linecap:butt;stroke-linejoin:miter;stroke-opacity:1" d="M 468.537,540.716 455.582,555.522 z" id="boundary" inkscape:connector-curvature="0" />
	<path style="fill:none;stroke:red;stroke-width:1px;stroke-linecap:butt;stroke-linejoin:miter;stroke-opacity:1" d="M 455.582,555.522 437.075,564.776 z" id="boundary" inkscape:connector-curvature="0" />
	<path style="fill:none;stroke:red;stroke-width:1px;stroke-linecap:butt;stroke-linejoin:miter;stroke-opacity:1" d="M 437.075,564.776 422.269,577.731 z" id="boundary" inkscape:connector-curvature="0" />
	<path style="fill:none;stroke:red;stroke-width:1px;stroke-linecap:butt;stroke-linejoin:miter;stroke-opacity:1" d="M 422.269,577.731 413.015,596.239 z" id="boundary" inkscape:connector-curvature="0" />
	<path style="fill:none;stroke:red;stroke-width:1px;stroke-linecap:butt;stroke-linejoin:miter;stroke-opacity:1" d="M 413.015,596.239 403.761,614.746 z" id="boundary" inkscape:connector-curvature="0" />
	<path style="fill:none;stroke:red;stroke-width:1px;stroke-linecap:butt;stroke-linejoin:miter;stroke-opacity:1" d="M 403.761,614.746 394.507,633.254 z" id="boundary" inkscape:connector-curvature="0" />
	<path style="fill:none;stroke:red;stroke-width:1px;stroke-linecap:butt;stroke-linejoin:miter;stroke-opacity:1" d="M 394.507,633.254 385.254,651.761 z" id="boundary" inkscape:connector-curvature="0" />
	<path style="fill:none;stroke:red;stroke-width:1px;stroke-linecap:butt;stroke-linejoin:miter;stroke-opacity:1" d="M 385.254,651.761 376,679.522 z" id="boundary" inkscape:connector-curvature="0" />
	<path style="fill:none;stroke:red;stroke-width:1px;stroke-linecap:butt;stroke-linejoin:miter;stroke-opacity:1" d="M 376,679.522 366.746,698.03 z" id="boundary" inkscape:connector-curvature="0" />
	<path style="fill:none;stroke:red;stroke-width:1px;stroke-linecap:butt;stroke-linejoin:miter;stroke-opacity:1" d="M 366.746,698.03 357.493,716.537 z" id="boundary" inkscape:connector-curvature="0" />
	<path style="fill:none;stroke:red;stroke-width:1px;stroke-linecap:butt;stroke-linejoin:miter;stroke-opacity:1" d="M 357.493,716.537 361.194,735.045 z" id="boundary" inkscape:connector-curvature="0" />
	<path style="fill:none;stroke:red;stroke-width:1px;stroke-linecap:butt;stroke-linejoin:miter;stroke-opacity:1" d="M 361.194,735.045 353.791,759.104 z" id="boundary" inkscape:connector-curvature="0" />
	<path style="fill:none;stroke:red;stroke-width:1px;stroke-linecap:butt;stroke-linejoin:miter;stroke-opacity:1" d="M 353.791,759.104 335.284,762.806 z" id="boundary" inkscape:connector-curvature="0" />
	<path style="fill:none;stroke:red;stroke-width:1px;stroke-linecap:butt;stroke-linejoin:miter;stroke-opacity:1" d="M 335.284,762.806 316.776,768.358 z" id="boundary" inkscape:connector-curvature="0" />
	<path style="fill:none;stroke:red;stroke-width:1px;stroke-linecap:butt;stroke-linejoin:miter;stroke-opacity:1" d="M 316.776,768.358 298.269,772.06 z" id="boundary" inkscape:connector-curvature="0" />
	<path style="fill:none;stroke:red;stroke-width:1px;stroke-linecap:butt;stroke-linejoin:miter;stroke-opacity:1" d="M 298.269,772.06 279.761,772.06 z" id="boundary" inkscape:connector-curvature="0" />
	<path style="fill:none;stroke:red;stroke-width:1px;stroke-linecap:butt;stroke-linejoin:miter;stroke-opacity:1" d="M 279.761,772.06 261.254,772.06 z" id="boundary" inkscape:connector-curvature="0" />
	<path style="fill:none;stroke:red;stroke-width:1px;stroke-linecap:butt;stroke-linejoin:miter;stroke-opacity:1" d="M 261.254,772.06 242.746,772.06 z" id="boundary" inkscape:connector-curvature="0" />
	<path style="fill:none;stroke:red;stroke-width:1px;stroke-linecap:butt;stroke-linejoin:miter;stroke-opacity:1" d="M 242.746,772.06 226.09,762.806 z" id="boundary" inkscape:connector-curvature="0" />
	<path style="fill:none;stroke:red;stroke-width:1px;stroke-linecap:butt;stroke-linejoin:miter;stroke-opacity:1" d="M 226.09,762.806 207.582,757.254 z" id="boundary" inkscape:connector-curvature="0" />
	<path style="fill:none;stroke:red;stroke-width:1px;stroke-linecap:butt;stroke-linejoin:miter;stroke-opacity:1" d="M 207.582,757.254 216.836,738.746 z" id="boundary" inkscape:connector-curvature="0" />
	<path style="fill:none;stroke:red;stroke-width:1px;stroke-linecap:butt;stroke-linejoin:miter;stroke-opacity:1" d="M 216.836,738.746 231.642,723.94 z" id="boundary" inkscape:connector-curvature="0" />
	<path style="fill:none;stroke:red;stroke-width:1px;stroke-linecap:butt;stroke-linejoin:miter;stroke-opacity:1" d="M 231.642,723.94 246.448,709.134 z" id="boundary" inkscape:connector-curvature="0" />
	<path style="fill:none;stroke:red;stroke-width:1px;stroke-linecap:butt;stroke-linejoin:miter;stroke-opacity:1" d="M 246.448,709.134 261.254,696.179 z" id="boundary" inkscape:connector-curvature="0" />
	<path style="fill:none;stroke:red;stroke-width:1px;stroke-linecap:butt;stroke-linejoin:miter;stroke-opacity:1" d="M 261.254,696.179 272.358,664.716 z" id="boundary" inkscape:connector-curvature="0" />
	<path style="fill:none;stroke:red;stroke-width:1px;stroke-linecap:butt;stroke-linejoin:miter;stroke-opacity:1" d="M 272.358,664.716 281.612,636.955 z" id="boundary" inkscape:connector-curvature="0" />
	<path style="fill:none;stroke:red;stroke-width:1px;stroke-linecap:butt;stroke-linejoin:miter;stroke-opacity:1" d="M 281.612,636.955 290.866,609.194 z" id="boundary" inkscape:connector-curvature="0" />
	<path style="fill:none;stroke:red;stroke-width:1px;stroke-linecap:butt;stroke-linejoin:miter;stroke-opacity:1" d="M 290.866,609.194 300.119,590.687 z" id="boundary" inkscape:connector-curvature="0" />
	<path style="fill:none;stroke:red;stroke-width:1px;stroke-linecap:butt;stroke-linejoin:miter;stroke-opacity:1" d="M 300.119,590.687 300.119,572.179 z" id="boundary" inkscape:connector-curvature="0" />
	<path style="fill:none;stroke:red;stroke-width:1px;stroke-linecap:butt;stroke-linejoin:miter;stroke-opacity:1" d="M 300.119,572.179 309.373,553.672 z" id="boundary" inkscape:connector-curvature="0" />
	<path style="fill:none;stroke:red;stroke-width:1px;stroke-linecap:butt;stroke-linejoin:miter;stroke-opacity:1" d="M 309.373,553.672 309.373,535.164 z" id="boundary" inkscape:connector-curvature="0" />
	<path style="fill:none;stroke:red;stroke-width:1px;stroke-linecap:butt;stroke-linejoin:miter;stroke-opacity:1" d="M 309.373,535.164 318.627,507.403 z" id="boundary" inkscape:connector-curvature="0" />
	<path style="fill:none;stroke:red;stroke-width:1px;stroke-linecap:butt;stroke-linejoin:miter;stroke-opacity:1" d="M 318.627,507.403 318.627,488.896 z" id="boundary" inkscape:connector-curvature="0" />
	<path style="fill:none;stroke:red;stroke-width:1px;stroke-linecap:butt;stroke-linejoin:miter;stroke-opacity:1" d="M 318.627,488.896 327.881,466.687 z" id="boundary" inkscape:connector-curvature="0" />
	<path style="fill:none;stroke:red;stroke-width:1px;stroke-linecap:butt;stroke-linejoin:miter;stroke-opacity:1" d="M 327.881,466.687 327.881,448.179 z" id="boundary" inkscape:connector-curvature="0" />
	<path style="fill:none;stroke:red;stroke-width:1px;stroke-linecap:butt;stroke-linejoin:miter;stroke-opacity:1" d="M 327.881,448.179 327.881,429.672 z" id="boundary" inkscape:connector-curvature="0" />
	<path style="fill:none;stroke:red;stroke-width:1px;stroke-linecap:butt;stroke-linejoin:miter;stroke-opacity:1" d="M 327.881,429.672 327.881,411.164 z" id="boundary" inkscape:connector-curvature="0" />
	<path style="fill:none;stroke:red;stroke-width:1px;stroke-linecap:butt;stroke-linejoin:miter;stroke-opacity:1" d="M 327.881,411.164 327.881,392.657 z" id="boundary" inkscape:connector-curvature="0" />
	<path style="fill:none;stroke:red;stroke-width:1px;stroke-linecap:butt;stroke-linejoin:miter;stroke-opacity:1" d="M 327.881,392.657 318.627,376 z" id="boundary" inkscape:connector-curvature="0" />
	<path style="fill:none;stroke:red;stroke-width:1px;stroke-linecap:butt;stroke-linejoin:miter;stroke-opacity:1" d="M 318.627,376 318.627,357.493 z" id="boundary" inkscape:connector-curvature="0" />
	<path style="fill:none;stroke:red;stroke-width:1px;stroke-linecap:butt;stroke-linejoin:miter;stroke-opacity:1" d="M 318.627,357.493 309.373,340.836 z" id="boundary" inkscape:connector-curvature="0" />
	<path style="fill:none;stroke:red;stroke-width:1px;stroke-linecap:butt;stroke-linejoin:miter;stroke-opacity:1" d="M 309.373,340.836 309.373,318.627 z" id="boundary" inkscape:connector-curvature="0" />
	<path style="fill:none;stroke:red;stroke-width:1px;stroke-linecap:butt;stroke-linejoin:miter;stroke-opacity:1" d="M 309.373,318.627 292.716,327.881 z" id="boundary" inkscape:connector-curvature="0" />
	<path style="fill:none;stroke:red;stroke-width:1px;stroke-linecap:butt;stroke-linejoin:miter;stroke-opacity:1" d="M 292.716,327.881 274.209,337.134 z" id="boundary" inkscape:connector-curvature="0" />
	<path style="fill:none;stroke:red;stroke-width:1px;stroke-linecap:butt;stroke-linejoin:miter;stroke-opacity:1" d="M 274.209,337.134 272.358,359.343 z" id="boundary" inkscape:connector-curvature="0" />
	<path style="fill:none;stroke:red;stroke-width:1px;stroke-linecap:butt;stroke-linejoin:miter;stroke-opacity:1" d="M 272.358,359.343 263.104,377.851 z" id="boundary" inkscape:connector-curvature="0" />
	<path style="fill:none;stroke:red;stroke-width:1px;stroke-linecap:butt;stroke-linejoin:miter;stroke-opacity:1" d="M 263.104,377.851 244.597,376 z" id="boundary" inkscape:connector-curvature="0" />
	<path style="fill:none;stroke:red;stroke-width:1px;stroke-linecap:butt;stroke-linejoin:miter;stroke-opacity:1" d="M 244.597,376 229.791,364.896 z" id="boundary" inkscape:connector-curvature="0" />
	<path style="fill:none;stroke:red;stroke-width:1px;stroke-linecap:butt;stroke-linejoin:miter;stroke-opacity:1" d="M 229.791,364.896 211.284,370.448 z" id="boundary" inkscape:connector-curvature="0" />
	<path style="fill:none;stroke:red;stroke-width:1px;stroke-linecap:butt;stroke-linejoin:miter;stroke-opacity:1" d="M 211.284,370.448 214.985,342.687 z" id="boundary" inkscape:connector-curvature="0" />
	<path style="fill:none;stroke:red;stroke-width:1px;stroke-linecap:butt;stroke-linejoin:miter;stroke-opacity:1" d="M 214.985,342.687 200.179,355.642 z" id="boundary" inkscape:connector-curvature="0" />
	<path style="fill:none;stroke:red;stroke-width:1px;stroke-linecap:butt;stroke-linejoin:miter;stroke-opacity:1" d="M 200.179,355.642 187.224,379.701 z" id="boundary" inkscape:connector-curvature="0" />
	<path style="fill:none;stroke:red;stroke-width:1px;stroke-linecap:butt;stroke-linejoin:miter;stroke-opacity:1" d="M 187.224,379.701 172.418,392.657 z" id="boundary" inkscape:connector-curvature="0" />
	<path style="fill:none;stroke:red;stroke-width:1px;stroke-linecap:butt;stroke-linejoin:miter;stroke-opacity:1" d="M 172.418,392.657 159.463,407.463 z" id="boundary" inkscape:connector-curvature="0" />
	<path style="fill:none;stroke:red;stroke-width:1px;stroke-linecap:butt;stroke-linejoin:miter;stroke-opacity:1" d="M 159.463,407.463 144.657,420.418 z" id="boundary" inkscape:connector-curvature="0" />
	<path style="fill:none;stroke:red;stroke-width:1px;stroke-linecap:butt;stroke-linejoin:miter;stroke-opacity:1" d="M 144.657,420.418 126.149,429.672 z" id="boundary" inkscape:connector-curvature="0" />
	<path style="fill:none;stroke:red;stroke-width:1px;stroke-linecap:butt;stroke-linejoin:miter;stroke-opacity:1" d="M 126.149,429.672 107.642,438.925 z" id="boundary" inkscape:connector-curvature="0" />
	<path style="fill:none;stroke:red;stroke-width:1px;stroke-linecap:butt;stroke-linejoin:miter;stroke-opacity:1" d="M 107.642,438.925 96.5373,457.433 z" id="boundary" inkscape:connector-curvature="0" />
	<path style="fill:none;stroke:red;stroke-width:1px;stroke-linecap:butt;stroke-linejoin:miter;stroke-opacity:1" d="M 96.5373,457.433 79.8806,466.687 z" id="boundary" inkscape:connector-curvature="0" />
	<path style="fill:none;stroke:red;stroke-width:1px;stroke-linecap:butt;stroke-linejoin:miter;stroke-opacity:1" d="M 79.8806,466.687 65.0746,483.343 z" id="boundary" inkscape:connector-curvature="0" />
	<path style="fill:none;stroke:red;stroke-width:1px;stroke-linecap:butt;stroke-linejoin:miter;stroke-opacity:1" d="M 65.0746,483.343 46.5672,492.597 z" id="boundary" inkscape:connector-curvature="0" />
	<path style="fill:none;stroke:red;stroke-width:1px;stroke-linecap:butt;stroke-linejoin:miter;stroke-opacity:1" d="M 46.5672,492.597 31.7612,507.403 z" id="boundary" inkscape:connector-curvature="0" />
	<path style="fill:none;stroke:red;stroke-width:1px;stroke-linecap:butt;stroke-linejoin:miter;stroke-opacity:1" d="M 31.7612,507.403 13.2537,505.552 z" id="boundary" inkscape:connector-curvature="0" />
	<path style="fill:none;stroke:red;stroke-width:1px;stroke-linecap:butt;stroke-linejoin:miter;stroke-opacity:1" d="M 13.2537,505.552 4,488.896 z" id="boundary" inkscape:connector-curvature="0" />
	<path style="fill:none;stroke:red;stroke-width:1px;stroke-linecap:butt;stroke-linejoin:miter;stroke-opacity:1" d="M 4,488.896 18.806,474.09 z" id="boundary" inkscape:connector-curvature="0" />
	<path style="fill:none;stroke:red;stroke-width:1px;stroke-linecap:butt;stroke-linejoin:miter;stroke-opacity:1" d="M 18.806,474.09 33.6119,459.284 z" id="boundary" inkscape:connector-curvature="0" />
	<path style="fill:none;stroke:red;stroke-width:1px;stroke-linecap:butt;stroke-linejoin:miter;stroke-opacity:1" d="M 33.6119,459.284 52.1194,450.03 z" id="boundary" inkscape:connector-curvature="0" />
	<path style="fill:none;stroke:red;stroke-width:1px;stroke-linecap:butt;stroke-linejoin:miter;stroke-opacity:1" d="M 52.1194,450.03 70.6269,440.776 z" id="boundary" inkscape:connector-curvature="0" />
	<path style="fill:none;stroke:red;stroke-width:1px;stroke-linecap:butt;stroke-linejoin:miter;stroke-opacity:1" d="M 70.6269,440.776 79.8806,422.269 z" id="boundary" inkscape:connector-curvature="0" />
	<path style="fill:none;stroke:red;stroke-width:1px;stroke-linecap:butt;stroke-linejoin:miter;stroke-opacity:1" d="M 79.8806,422.269 98.3881,413.015 z" id="boundary" inkscape:connector-curvature="0" />
	<path style="fill:none;stroke:red;stroke-width:1px;stroke-linecap:butt;stroke-linejoin:miter;stroke-opacity:1" d="M 98.3881,413.015 113.194,400.06 z" id="boundary" inkscape:connector-curvature="0" />
	<path style="fill:none;stroke:red;stroke-width:1px;stroke-linecap:butt;stroke-linejoin:miter;stroke-opacity:1" d="M 113.194,400.06 126.149,385.254 z" id="boundary" inkscape:connector-curvature="0" />
	<path style="fill:none;stroke:red;stroke-width:1px;stroke-linecap:butt;stroke-linejoin:miter;stroke-opacity:1" d="M 126.149,385.254 135.403,366.746 z" id="boundary" inkscape:connector-curvature="0" />
	<path style="fill:none;stroke:red;stroke-width:1px;stroke-linecap:butt;stroke-linejoin:miter;stroke-opacity:1" d="M 135.403,366.746 150.209,353.791 z" id="boundary" inkscape:connector-curvature="0" />
	<path style="fill:none;stroke:red;stroke-width:1px;stroke-linecap:butt;stroke-linejoin:miter;stroke-opacity:1" d="M 150.209,353.791 157.612,335.284 z" id="boundary" inkscape:connector-curvature="0" />
	<path style="fill:none;stroke:red;stroke-width:1px;stroke-linecap:butt;stroke-linejoin:miter;stroke-opacity:1" d="M 157.612,335.284 166.866,316.776 z" id="boundary" inkscape:connector-curvature="0" />
	<path style="fill:none;stroke:red;stroke-width:1px;stroke-linecap:butt;stroke-linejoin:miter;stroke-opacity:1" d="M 166.866,316.776 170.567,285.313 z" id="boundary" inkscape:connector-curvature="0" />
	<path style="fill:none;stroke:red;stroke-width:1px;stroke-linecap:butt;stroke-linejoin:miter;stroke-opacity:1" d="M 170.567,285.313 179.821,266.806 z" id="boundary" inkscape:connector-curvature="0" />
	<path style="fill:none;stroke:red;stroke-width:1px;stroke-linecap:butt;stroke-linejoin:miter;stroke-opacity:1" d="M 179.821,266.806 189.075,239.045 z" id="boundary" inkscape:connector-curvature="0" />
	<path style="fill:none;stroke:red;stroke-width:1px;stroke-linecap:butt;stroke-linejoin:miter;stroke-opacity:1" d="M 189.075,239.045 189.075,220.537 z" id="boundary" inkscape:connector-curvature="0" />
	<path style="fill:none;stroke:red;stroke-width:1px;stroke-linecap:butt;stroke-linejoin:miter;stroke-opacity:1" d="M 189.075,220.537 198.328,202.03 z" id="boundary" inkscape:connector-curvature="0" />
	<path style="fill:none;stroke:red;stroke-width:1px;stroke-linecap:butt;stroke-linejoin:miter;stroke-opacity:1" d="M 198.328,202.03 198.328,183.522 z" id="boundary" inkscape:connector-curvature="0" />
	<path style="fill:none;stroke:red;stroke-width:1px;stroke-linecap:butt;stroke-linejoin:miter;stroke-opacity:1" d="M 198.328,183.522 207.582,155.761 z" id="boundary" inkscape:connector-curvature="0" />
	<path style="fill:none;stroke:red;stroke-width:1px;stroke-linecap:butt;stroke-linejoin:miter;stroke-opacity:1" d="M 207.582,155.761 207.582,137.254 z" id="boundary" inkscape:connector-curvature="0" />
	<path style="fill:none;stroke:red;stroke-width:1px;stroke-linecap:butt;stroke-linejoin:miter;stroke-opacity:1" d="M 207.582,137.254 222.388,122.448 z" id="boundary" inkscape:connector-curvature="0" />
	<path style="fill:none;stroke:red;stroke-width:1px;stroke-linecap:butt;stroke-linejoin:miter;stroke-opacity:1" d="M 222.388,122.448 226.09,100.239 z" id="boundary" inkscape:connector-curvature="0" />
	<path style="fill:none;stroke:red;stroke-width:1px;stroke-linecap:butt;stroke-linejoin:miter;stroke-opacity:1" d="M 226.09,100.239 235.343,81.7313 z" id="boundary" inkscape:connector-curvature="0" />
	<path style="fill:none;stroke:red;stroke-width:1px;stroke-linecap:butt;stroke-linejoin:miter;stroke-opacity:1" d="M 235.343,81.7313 250.149,66.9254 z" id="boundary" inkscape:connector-curvature="0" />
	<path style="fill:none;stroke:red;stroke-width:1px;stroke-linecap:butt;stroke-linejoin:miter;stroke-opacity:1" d="M 250.149,66.9254 253.851,44.7164 z" id="boundary" inkscape:connector-curvature="0" />
	<path style="fill:none;stroke:red;stroke-width:1px;stroke-linecap:butt;stroke-linejoin:miter;stroke-opacity:1" d="M 253.851,44.7164 268.657,29.9104 z" id="boundary" inkscape:connector-curvature="0" />
	<path style="fill:none;stroke:red;stroke-width:1px;stroke-linecap:butt;stroke-linejoin:miter;stroke-opacity:1" d="M 268.657,29.9104 287.164,20.6567 z" id="boundary" inkscape:connector-curvature="0" />
	<path style="fill:none;stroke:red;stroke-width:1px;stroke-linecap:butt;stroke-linejoin:miter;stroke-opacity:1" d="M 287.164,20.6567 305.672,20.6567 z" id="boundary" inkscape:connector-curvature="0" />
	<path style="fill:none;stroke:red;stroke-width:1px;stroke-linecap:butt;stroke-linejoin:miter;stroke-opacity:1" d="M 305.672,20.6567 324.179,20.6567 z" id="boundary" inkscape:connector-curvature="0" />
	<path style="fill:none;stroke:red;stroke-width:1px;stroke-linecap:butt;stroke-linejoin:miter;stroke-opacity:1" d="M 324.179,20.6567 342.687,20.6567 z" id="boundary" inkscape:connector-curvature="0" />
	<path style="fill:none;stroke:red;stroke-width:1px;stroke-linecap:butt;stroke-linejoin:miter;stroke-opacity:1" d="M 342.687,20.6567 361.194,20.6567 z" id="boundary" inkscape:connector-curvature="0" />
	<path style="fill:none;stroke:red;stroke-width:1px;stroke-linecap:butt;stroke-linejoin:miter;stroke-opacity:1" d="M 361.194,20.6567 377.851,11.403 z" id="boundary" inkscape:connector-curvature="0" />
	<path style="fill:none;stroke:red;stroke-width:1px;stroke-linecap:butt;stroke-linejoin:miter;stroke-opacity:1" d="M 377.851,11.403 396.358,4 z" id="boundary" inkscape:connector-curvature="0" />
	<path style="fill:none;stroke:red;stroke-width:1px;stroke-linecap:butt;stroke-linejoin:miter;stroke-opacity:1" d="M 396.358,4 414.866,4 z" id="boundary" inkscape:connector-curvature="0" />
	<path style="fill:none;stroke:red;stroke-width:1px;stroke-linecap:butt;stroke-linejoin:miter;stroke-opacity:1" d="M 414.866,4 433.373,11.403 z" id="boundary" inkscape:connector-curvature="0" />
	<path style="fill:none;stroke:red;stroke-width:1px;stroke-linecap:butt;stroke-linejoin:miter;stroke-opacity:1" d="M 433.373,11.403 451.881,11.403 z" id="boundary" inkscape:connector-curvature="0" />
	<path style="fill:none;stroke:red;stroke-width:1px;stroke-linecap:butt;stroke-linejoin:miter;stroke-opacity:1" d="M 451.881,11.403 470.388,11.403 z" id="boundary" inkscape:connector-curvature="0" />
	<path style="fill:none;stroke:red;stroke-width:1px;stroke-linecap:butt;stroke-linejoin:miter;stroke-opacity:1" d="M 470.388,11.403 485.194,24.3582 z" id="boundary" inkscape:connector-curvature="0" />
	<path style="fill:none;stroke:red;stroke-width:1px;stroke-linecap:butt;stroke-linejoin:miter;stroke-opacity:1" d="M 485.194,24.3582 503.701,24.3582 z" id="boundary" inkscape:connector-curvature="0" />
	<path style="fill:none;stroke:red;stroke-width:1px;stroke-linecap:butt;stroke-linejoin:miter;stroke-opacity:1" d="M 503.701,24.3582 522.209,29.9104 z" id="boundary" inkscape:connector-curvature="0" />
	<path style="fill:none;stroke:red;stroke-width:1px;stroke-linecap:butt;stroke-linejoin:miter;stroke-opacity:1" d="M 522.209,29.9104 537.015,41.0149 z" id="boundary" inkscape:connector-curvature="0" />
	<path style="fill:none;stroke:red;stroke-width:1px;stroke-linecap:butt;stroke-linejoin:miter;stroke-opacity:1" d="M 537.015,41.0149 542.567,59.5224 z" id="boundary" inkscape:connector-curvature="0" />
	<path style="fill:none;stroke:red;stroke-width:1px;stroke-linecap:butt;stroke-linejoin:miter;stroke-opacity:1" d="M 542.567,59.5224 551.821,76.1791 z" id="boundary" inkscape:connector-curvature="0" />
	<path style="fill:none;stroke:red;stroke-width:1px;stroke-linecap:butt;stroke-linejoin:miter;stroke-opacity:1" d="M 551.821,76.1791 568.478,85.4328 z" id="boundary" inkscape:connector-curvature="0" />
	<path style="fill:none;stroke:red;stroke-width:1px;stroke-linecap:butt;stroke-linejoin:miter;stroke-opacity:1" d="M 568.478,85.4328 586.985,85.4328 z" id="boundary" inkscape:connector-curvature="0" />
	<path style="fill:none;stroke:red;stroke-width:1px;stroke-linecap:butt;stroke-linejoin:miter;stroke-opacity:1" d="M 586.985,85.4328 605.493,89.1343 z" id="boundary" inkscape:connector-curvature="0" />
	<path style="fill:none;stroke:red;stroke-width:1px;stroke-linecap:butt;stroke-linejoin:miter;stroke-opacity:1" d="M 605.493,89.1343 624,94.6866 z" id="boundary" inkscape:connector-curvature="0" />
	<path style="fill:none;stroke:red;stroke-width:1px;stroke-linecap:butt;stroke-linejoin:miter;stroke-opacity:1" d="M 624,94.6866 642.507,94.6866 z" id="boundary" inkscape:connector-curvature="0" />
	<path style="fill:none;stroke:red;stroke-width:1px;stroke-linecap:butt;stroke-linejoin:miter;stroke-opacity:1" d="M 642.507,94.6866 661.015,94.6866 z" id="boundary" inkscape:connector-curvature="0" />
	<path style="fill:none;stroke:red;stroke-width:1px;stroke-linecap:butt;stroke-linejoin:miter;stroke-opacity:1" d="M 661.015,94.6866 677.672,103.94 z" id="boundary" inkscape:connector-curvature="0" />
	<path style="fill:none;stroke:red;stroke-width:1px;stroke-linecap:butt;stroke-linejoin:miter;stroke-opacity:1" d="M 677.672,103.94 696.179,103.94 z" id="boundary" inkscape:connector-curvature="0" />
	<path style="fill:none;stroke:red;stroke-width:1px;stroke-linecap:butt;stroke-linejoin:miter;stroke-opacity:1" d="M 696.179,103.94 714.687,103.94 z" id="boundary" inkscape:connector-curvature="0" />
	<path style="fill:none;stroke:red;stroke-width:1px;stroke-linecap:butt;stroke-linejoin:miter;stroke-opacity:1" d="M 714.687,103.94 733.194,103.94 z" id="boundary" inkscape:connector-curvature="0" />
	<path style="fill:none;stroke:red;stroke-width:1px;stroke-linecap:butt;stroke-linejoin:miter;stroke-opacity:1" d="M 733.194,103.94 751.701,103.94 z" id="boundary" inkscape:connector-curvature="0" />
	<path style="fill:none;stroke:red;stroke-width:1px;stroke-linecap:butt;stroke-linejoin:miter;stroke-opacity:1" d="M 751.701,103.94 770.209,105.791 z" id="boundary" inkscape:connector-curvature="0" />
	<path style="fill:none;stroke:red;stroke-width:1px;stroke-linecap:butt;stroke-linejoin:miter;stroke-opacity:1" d="M 770.209,105.791 786.866,115.045 z" id="boundary" inkscape:connector-curvature="0" />
	<path style="fill:none;stroke:red;stroke-width:1px;stroke-linecap:butt;stroke-linejoin:miter;stroke-opacity:1" d="M 786.866,115.045 801.672,128 z" id="boundary" inkscape:connector-curvature="0" />
	<path style="fill:none;stroke:red;stroke-width:1px;stroke-linecap:butt;stroke-linejoin:miter;stroke-opacity:1" d="M 801.672,128 818.328,137.254 z" id="boundary" inkscape:connector-curvature="0" />
	<path style="fill:none;stroke:red;stroke-width:1px;stroke-linecap:butt;stroke-linejoin:miter;stroke-opacity:1" d="M 818.328,137.254 836.836,144.657 z" id="boundary" inkscape:connector-curvature="0" />
	<path style="fill:none;stroke:red;stroke-width:1px;stroke-linecap:butt;stroke-linejoin:miter;stroke-opacity:1" d="M 836.836,144.657 853.493,153.91 z" id="boundary" inkscape:connector-curvature="0" />
	<path style="fill:none;stroke:red;stroke-width:1px;stroke-linecap:butt;stroke-linejoin:miter;stroke-opacity:1" d="M 853.493,153.91 862.746,170.567 z" id="boundary" inkscape:connector-curvature="0" />
	<path style="fill:none;stroke:red;stroke-width:1px;stroke-linecap:butt;stroke-linejoin:miter;stroke-opacity:1" d="M 862.746,170.567 875.701,185.373 z" id="boundary" inkscape:connector-curvature="0" />
	<path style="fill:none;stroke:red;stroke-width:1px;stroke-linecap:butt;stroke-linejoin:miter;stroke-opacity:1" d="M 875.701,185.373 884.955,202.03 z" id="boundary" inkscape:connector-curvature="0" />
	<path style="fill:none;stroke:red;stroke-width:1px;stroke-linecap:butt;stroke-linejoin:miter;stroke-opacity:1" d="M 884.955,202.03 897.91,216.836 z" id="boundary" inkscape:connector-curvature="0" />
	<path style="fill:none;stroke:red;stroke-width:1px;stroke-linecap:butt;stroke-linejoin:miter;stroke-opacity:1" d="M 897.91,216.836 907.164,233.493 z" id="boundary" inkscape:connector-curvature="0" />
	<path style="fill:none;stroke:red;stroke-width:1px;stroke-linecap:butt;stroke-linejoin:miter;stroke-opacity:1" d="M 907.164,233.493 923.821,242.746 z" id="boundary" inkscape:connector-curvature="0" />
	<path style="fill:none;stroke:red;stroke-width:1px;stroke-linecap:butt;stroke-linejoin:miter;stroke-opacity:1" d="M 923.821,242.746 931.224,261.254 z" id="boundary" inkscape:connector-curvature="0" />
	<path style="fill:none;stroke:red;stroke-width:1px;stroke-linecap:butt;stroke-linejoin:miter;stroke-opacity:1" d="M 931.224,261.254 946.03,272.358 z" id="boundary" inkscape:connector-curvature="0" />
	<path style="fill:none;stroke:red;stroke-width:1px;stroke-linecap:butt;stroke-linejoin:miter;stroke-opacity:1" d="M 946.03,272.358 958.985,287.164 z" id="boundary" inkscape:connector-curvature="0" />
	<path style="fill:none;stroke:red;stroke-width:1px;stroke-linecap:butt;stroke-linejoin:miter;stroke-opacity:1" d="M 958.985,287.164 958.985,305.672 z" id="boundary" inkscape:connector-curvature="0" />
	<path style="fill:none;stroke:red;stroke-width:1px;stroke-linecap:butt;stroke-linejoin:miter;stroke-opacity:1" d="M 958.985,305.672 968.239,322.328 z" id="boundary" inkscape:connector-curvature="0" />
	<path style="fill:none;stroke:red;stroke-width:1px;stroke-linecap:butt;stroke-linejoin:miter;stroke-opacity:1" d="M 968.239,322.328 975.642,340.836 z" id="boundary" inkscape:connector-curvature="0" />
	<path style="fill:none;stroke:red;stroke-width:1px;stroke-linecap:butt;stroke-linejoin:miter;stroke-opacity:1" d="M 975.642,340.836 968.239,364.896 z" id="boundary" inkscape:connector-curvature="0" />
	<path style="fill:none;stroke:red;stroke-width:1px;stroke-linecap:butt;stroke-linejoin:miter;stroke-opacity:1" d="M 968.239,364.896 977.493,381.552 z" id="boundary" inkscape:connector-curvature="0" />
	<path style="fill:none;stroke:red;stroke-width:1px;stroke-linecap:butt;stroke-linejoin:miter;stroke-opacity:1" d="M 977.493,381.552 977.493,400.06 z" id="boundary" inkscape:connector-curvature="0" />
	<path style="fill:none;stroke:red;stroke-width:1px;stroke-linecap:butt;stroke-linejoin:miter;stroke-opacity:1" d="M 977.493,400.06 968.239,420.418 z" id="boundary" inkscape:connector-curvature="0" />
	<path style="fill:none;stroke:red;stroke-width:1px;stroke-linecap:butt;stroke-linejoin:miter;stroke-opacity:1" d="M 968.239,420.418 968.239,448.179 z" id="boundary" inkscape:connector-curvature="0" />
	<path style="fill:none;stroke:red;stroke-width:1px;stroke-linecap:butt;stroke-linejoin:miter;stroke-opacity:1" d="M 968.239,448.179 968.239,466.687 z" id="boundary" inkscape:connector-curvature="0" />
	<path style="fill:none;stroke:red;stroke-width:1px;stroke-linecap:butt;stroke-linejoin:miter;stroke-opacity:1" d="M 968.239,466.687 962.687,492.597 z" id="boundary" inkscape:connector-curvature="0" />
	<path style="fill:none;stroke:red;stroke-width:1px;stroke-linecap:butt;stroke-linejoin:miter;stroke-opacity:1" d="M 962.687,492.597 968.239,511.104 z" id="boundary" inkscape:connector-curvature="0" />
	<path style="fill:none;stroke:red;stroke-width:1px;stroke-linecap:butt;stroke-linejoin:miter;stroke-opacity:1" d="M 968.239,511.104 947.881,503.701 z" id="boundary" inkscape:connector-curvature="0" />
	<path style="fill:none;stroke:red;stroke-width:1px;stroke-linecap:butt;stroke-linejoin:miter;stroke-opacity:1" d="M 947.881,503.701 940.478,485.194 z" id="boundary" inkscape:connector-curvature="0" />
	<path style="fill:none;stroke:red;stroke-width:1px;stroke-linecap:butt;stroke-linejoin:miter;stroke-opacity:1" d="M 940.478,485.194 931.224,512.955 z" id="boundary" inkscape:connector-curvature="0" />
	<path style="fill:none;stroke:red;stroke-width:1px;stroke-linecap:butt;stroke-linejoin:miter;stroke-opacity:1" d="M 931.224,512.955 931.224,531.463 z" id="boundary" inkscape:connector-curvature="0" />
	<path style="fill:none;stroke:red;stroke-width:1px;stroke-linecap:butt;stroke-linejoin:miter;stroke-opacity:1" d="M 931.224,531.463 949.731,524.06 z" id="boundary" inkscape:connector-curvature="0" />
	<path style="fill:none;stroke:red;stroke-width:1px;stroke-linecap:butt;stroke-linejoin:miter;stroke-opacity:1" d="M 949.731,524.06 957.134,542.567 z" id="boundary" inkscape:connector-curvature="0" />
	<path style="fill:none;stroke:red;stroke-width:1px;stroke-linecap:butt;stroke-linejoin:miter;stroke-opacity:1" d="M 957.134,542.567 975.642,542.567 z" id="boundary" inkscape:connector-curvature="0" />
	<path style="fill:none;stroke:red;stroke-width:1px;stroke-linecap:butt;stroke-linejoin:miter;stroke-opacity:1" d="M 975.642,542.567 983.045,568.478 z" id="boundary" inkscape:connector-curvature="0" />
	<path style="fill:none;stroke:red;stroke-width:1px;stroke-linecap:butt;stroke-linejoin:miter;stroke-opacity:1" d="M 983.045,568.478 996,583.284 z" id="boundary" inkscape:connector-curvature="0" />
	<circle cx="4" cy="488.896" r="4" fill="#0" id="circle0"/>
	<circle cx="13.2537" cy="505.552" r="4" fill="#0" id="circle1"/>
	<circle cx="18.806" cy="474.09" r="4" fill="#0" id="circle2"/>
	<circle cx="31.7612" cy="507.403" r="4" fill="#0" id="circle3"/>
	<circle cx="33.6119" cy="459.284" r="4" fill="#0" id="circle4"/>
	<circle cx="46.5672" cy="492.597" r="4" fill="#0" id="circle5"/>
	<circle cx="52.1194" cy="450.03" r="4" fill="#0" id="circle6"/>
	<circle cx="65.0746" cy="483.343" r="4" fill="#0" id="circle7"/>
	<circle cx="70.6269" cy="440.776" r="4" fill="#0" id="circle8"/>
	<circle cx="79.8806" cy="422.269" r="4" fill="#0" id="circle9"/>
	<circle cx="79.8806" cy="466.687" r="4" fill="#0" id="circle10"/>
	<circle cx="96.5373" cy="457.433" r="4" fill="#0" id="circle11"/>
	<circle cx="98.3881" cy="413.015" r="4" fill="#0" id="circle12"/>
	<circle cx="107.642" cy="438.925" r="4" fill="#0" id="circle13"/>
	<circle cx="113.194" cy="400.06" r="4" fill="#0" id="circle14"/>
	<circle cx="126.149" cy="385.254" r="4" fill="#0" id="circle15"/>
	<circle cx="126.149" cy="429.672" r="4" fill="#0" id="circle16"/>
	<circle cx="135.403" cy="366.746" r="4" fill="#0" id="circle17"/>
	<circle cx="144.657" cy="420.418" r="4" fill="#0" id="circle18"/>
	<circle cx="150.209" cy="353.791" r="4" fill="#0" id="circle19"/>
	<circle cx="157.612" cy="335.284" r="4" fill="#0" id="circle20"/>
	<circle cx="159.463" cy="407.463" r="4" fill="#0" id="circle21"/>
	<circle cx="166.866" cy="316.776" r="4" fill="#0" id="circle22"/>
	<circle cx="170.567" cy="285.313" r="4" fill="#0" id="circle23"/>
	<circle cx="172.418" cy="392.657" r="4" fill="#0" id="circle24"/>
	<circle cx="179.821" cy="266.806" r="4" fill="#0" id="circle25"/>
	<circle cx="187.224" cy="379.701" r="4" fill="#0" id="circle26"/>
	<circle cx="189.075" cy="220.537" r="4" fill="#0" id="circle27"/>
	<circle cx="189.075" cy="239.045" r="4" fill="#0" id="circle28"/>
	<circle cx="198.328" cy="183.522" r="4" fill="#0" id="circle29"/>
	<circle cx="198.328" cy="202.03" r="4" fill="#0" id="circle30"/>
	<circle cx="200.179" cy="355.642" r="4" fill="#0" id="circle31"/>
	<circle cx="207.582" cy="137.254" r="4" fill="#0" id="circle32"/>
	<circle cx="207.582" cy="155.761" r="4" fill="#0" id="circle33"/>
	<circle cx="207.582" cy="757.254" r="4" fill="#0" id="circle34"/>
	<circle cx="211.284" cy="370.448" r="4" fill="#0" id="circle35"/>
	<circle cx="214.985" cy="342.687" r="4" fill="#0" id="circle36"/>
	<circle cx="216.836" cy="738.746" r="4" fill="#0" id="circle37"/>
	<circle cx="222.388" cy="122.448" r="4" fill="#0" id="circle38"/>
	<circle cx="226.09" cy="100.239" r="4" fill="#0" id="circle39"/>
	<circle cx="226.09" cy="762.806" r="4" fill="#0" id="circle40"/>
	<circle cx="229.791" cy="364.896" r="4" fill="#0" id="circle41"/>
	<circle cx="231.642" cy="723.94" r="4" fill="#0" id="circle42"/>
	<circle cx="235.343" cy="81.7313" r="4" fill="#0" id="circle43"/>
	<circle cx="242.746" cy="772.06" r="4" fill="#0" id="circle44"/>
	<circle cx="244.597" cy="376" r="4" fill="#0" id="circle45"/>
	<circle cx="246.448" cy="709.134" r="4" fill="#0" id="circle46"/>
	<circle cx="250.149" cy="66.9254" r="4" fill="#0" id="circle47"/>
	<circle cx="253.851" cy="44.7164" r="4" fill="#0" id="circle48"/>
	<circle cx="261.254" cy="696.179" r="4" fill="#0" id="circle49"/>
	<circle cx="261.254" cy="772.06" r="4" fill="#0" id="circle50"/>
	<circle cx="263.104" cy="377.851" r="4" fill="#0" id="circle51"/>
	<circle cx="268.657" cy="29.9104" r="4" fill="#0" id="circle52"/>
	<circle cx="272.358" cy="359.343" r="4" fill="#0" id="circle53"/>
	<circle cx="272.358" cy="664.716" r="4" fill="#0" id="circle54"/>
	<circle cx="274.209" cy="337.134" r="4" fill="#0" id="circle55"/>
	<circle cx="279.761" cy="772.06" r="4" fill="#0" id="circle56"/>
	<circle cx="281.612" cy="636.955" r="4" fill="#0" id="circle57"/>
	<circle cx="287.164" cy="20.6567" r="4" fill="#0" id="circle58"/>
	<circle cx="290.866" cy="609.194" r="4" fill="#0" id="circle59"/>
	<circle cx="292.716" cy="327.881" r="4" fill="#0" id="circle60"/>
	<circle cx="298.269" cy="772.06" r="4" fill="#0" id="circle61"/>
	<circle cx="300.119" cy="572.179" r="4" fill="#0" id="circle62"/>
	<circle cx="300.119" cy="590.687" r="4" fill="#0" id="circle63"/>
	<circle cx="305.672" cy="20.6567" r="4" fill="#0" id="circle64"/>
	<circle cx="309.373" cy="318.627" r="4" fill="#0" id="circle65"/>
	<circle cx="309.373" cy="340.836" r="4" fill="#0" id="circle66"/>
	<circle cx="309.373" cy="535.164" r="4" fill="#0" id="circle67"/>
	<circle cx="309.373" cy="553.672" r="4" fill="#0" id="circle68"/>
	<circle cx="316.776" cy="768.358" r="4" fill="#0" id="circle69"/>
	<circle cx="318.627" cy="357.493" r="4" fill="#0" id="circle70"/>
	<circle cx="318.627" cy="376" r="4" fill="#0" id="circle71"/>
	<circle cx="318.627" cy="488.896" r="4" fill="#0" id="circle72"/>
	<circle cx="318.627" cy="507.403" r="4" fill="#0" id="circle73"/>
	<circle cx="324.179" cy="20.6567" r="4" fill="#0" id="circle74"/>
	<circle cx="327.881" cy="392.657" r="4" fill="#0" id="circle75"/>
	<circle cx="327.881" cy="411.164" r="4" fill="#0" id="circle76"/>
	<circle cx="327.881" cy="429.672" r="4" fill="#0" id="circle77"/>
	<circle cx="327.881" cy="448.179" r="4" fill="#0" id="circle78"/>
	<circle cx="327.881" cy="466.687" r="4" fill="#0" id="circle79"/>
	<circle cx="335.284" cy="762.806" r="4" fill="#0" id="circle80"/>
	<circle cx="342.687" cy="20.6567" r="4" fill="#0" id="circle81"/>
	<circle cx="353.791" cy="759.104" r="4" fill="#0" id="circle82"/>
	<circle cx="357.493" cy="716.537" r="4" fill="#0" id="circle83"/>
	<circle cx="361.194" cy="20.6567" r="4" fill="#0" id="circle84"/>
	<circle cx="361.194" cy="735.045" r="4" fill="#0" id="circle85"/>
	<circle cx="366.746" cy="698.03" r="4" fill="#0" id="circle86"/>
	<circle cx="376" cy="679.522" r="4" fill="#0" id="circle87"/>
	<circle cx="377.851" cy="11.403" r="4" fill="#0" id="circle88"/>
	<circle cx="385.254" cy="651.761" r="4" fill="#0" id="circle89"/>
	<circle cx="394.507" cy="633.254" r="4" fill="#0" id="circle90"/>
	<circle cx="396.358" cy="4" r="4" fill="#0" id="circle91"/>
	<circle cx="403.761" cy="614.746" r="4" fill="#0" id="circle92"/>
	<circle cx="413.015" cy="596.239" r="4" fill="#0" id="circle93"/>
	<circle cx="414.866" cy="4" r="4" fill="#0" id="circle94"/>
	<circle cx="422.269" cy="577.731" r="4" fill="#0" id="circle95"/>
	<circle cx="433.373" cy="11.403" r="4" fill="#0" id="circle96"/>
	<circle cx="437.075" cy="564.776" r="4" fill="#0" id="circle97"/>
	<circle cx="451.881" cy="11.403" r="4" fill="#0" id="circle98"/>
	<circle cx="455.582" cy="555.522" r="4" fill="#0" id="circle99"/>
	<circle cx="468.537" cy="540.716" r="4" fill="#0" id="circle100"/>
	<circle cx="470.388" cy="11.403" r="4" fill="#0" id="circle101"/>
	<circle cx="485.194" cy="24.3582" r="4" fill="#0" id="circle102"/>
	<circle cx="487.045" cy="540.716" r="4" fill="#0" id="circle103"/>
	<circle cx="503.701" cy="24.3582" r="4" fill="#0" id="circle104"/>
	<circle cx="505.552" cy="531.463" r="4" fill="#0" id="circle105"/>
	<circle cx="522.209" cy="29.9104" r="4" fill="#0" id="circle106"/>
	<circle cx="522.209" cy="540.716" r="4" fill="#0" id="circle107"/>
	<circle cx="533.313" cy="555.522" r="4" fill="#0" id="circle108"/>
	<circle cx="537.015" cy="41.0149" r="4" fill="#0" id="circle109"/>
	<circle cx="542.567" cy="59.5224" r="4" fill="#0" id="circle110"/>
	<circle cx="542.567" cy="572.179" r="4" fill="#0" id="circle111"/>
	<circle cx="549.97" cy="590.687" r="4" fill="#0" id="circle112"/>
	<circle cx="549.97" cy="757.254" r="4" fill="#0" id="circle113"/>
	<circle cx="549.97" cy="775.761" r="4" fill="#0" id="circle114"/>
	<circle cx="549.97" cy="794.269" r="4" fill="#0" id="circle115"/>
	<circle cx="551.821" cy="76.1791" r="4" fill="#0" id="circle116"/>
	<circle cx="564.776" cy="603.642" r="4" fill="#0" id="circle117"/>
	<circle cx="564.776" cy="807.224" r="4" fill="#0" id="circle118"/>
	<circle cx="568.478" cy="85.4328" r="4" fill="#0" id="circle119"/>
	<circle cx="568.478" cy="622.149" r="4" fill="#0" id="circle120"/>
	<circle cx="568.478" cy="646.209" r="4" fill="#0" id="circle121"/>
	<circle cx="568.478" cy="664.716" r="4" fill="#0" id="circle122"/>
	<circle cx="568.478" cy="720.239" r="4" fill="#0" id="circle123"/>
	<circle cx="568.478" cy="738.746" r="4" fill="#0" id="circle124"/>
	<circle cx="577.731" cy="681.373" r="4" fill="#0" id="circle125"/>
	<circle cx="577.731" cy="699.881" r="4" fill="#0" id="circle126"/>
	<circle cx="583.284" cy="807.224" r="4" fill="#0" id="circle127"/>
	<circle cx="586.985" cy="85.4328" r="4" fill="#0" id="circle128"/>
	<circle cx="601.791" cy="807.224" r="4" fill="#0" id="circle129"/>
	<circle cx="605.493" cy="89.1343" r="4" fill="#0" id="circle130"/>
	<circle cx="620.299" cy="807.224" r="4" fill="#0" id="circle131"/>
	<circle cx="624" cy="94.6866" r="4" fill="#0" id="circle132"/>
	<circle cx="638.806" cy="807.224" r="4" fill="#0" id="circle133"/>
	<circle cx="642.507" cy="94.6866" r="4" fill="#0" id="circle134"/>
	<circle cx="657.313" cy="799.821" r="4" fill="#0" id="circle135"/>
	<circle cx="661.015" cy="94.6866" r="4" fill="#0" id="circle136"/>
	<circle cx="675.821" cy="797.97" r="4" fill="#0" id="circle137"/>
	<circle cx="677.672" cy="103.94" r="4" fill="#0" id="circle138"/>
	<circle cx="681.373" cy="577.731" r="4" fill="#0" id="circle139"/>
	<circle cx="681.373" cy="596.239" r="4" fill="#0" id="circle140"/>
	<circle cx="681.373" cy="614.746" r="4" fill="#0" id="circle141"/>
	<circle cx="681.373" cy="633.254" r="4" fill="#0" id="circle142"/>
	<circle cx="681.373" cy="651.761" r="4" fill="#0" id="circle143"/>
	<circle cx="681.373" cy="670.269" r="4" fill="#0" id="circle144"/>
	<circle cx="681.373" cy="688.776" r="4" fill="#0" id="circle145"/>
	<circle cx="690.627" cy="559.224" r="4" fill="#0" id="circle146"/>
	<circle cx="690.627" cy="705.433" r="4" fill="#0" id="circle147"/>
	<circle cx="690.627" cy="723.94" r="4" fill="#0" id="circle148"/>
	<circle cx="694.328" cy="788.716" r="4" fill="#0" id="circle149"/>
	<circle cx="696.179" cy="103.94" r="4" fill="#0" id="circle150"/>
	<circle cx="699.881" cy="740.597" r="4" fill="#0" id="circle151"/>
	<circle cx="699.881" cy="762.806" r="4" fill="#0" id="circle152"/>
	<circle cx="707.284" cy="549.97" r="4" fill="#0" id="circle153"/>
	<circle cx="707.284" cy="714.687" r="4" fill="#0" id="circle154"/>
	<circle cx="714.687" cy="103.94" r="4" fill="#0" id="circle155"/>
	<circle cx="716.537" cy="683.224" r="4" fill="#0" id="circle156"/>
	<circle cx="718.388" cy="738.746" r="4" fill="#0" id="circle157"/>
	<circle cx="725.791" cy="553.672" r="4" fill="#0" id="circle158"/>
	<circle cx="725.791" cy="609.194" r="4" fill="#0" id="circle159"/>
	<circle cx="725.791" cy="636.955" r="4" fill="#0" id="circle160"/>
	<circle cx="725.791" cy="655.463" r="4" fill="#0" id="circle161"/>
	<circle cx="733.194" cy="103.94" r="4" fill="#0" id="circle162"/>
	<circle cx="735.045" cy="572.179" r="4" fill="#0" id="circle163"/>
	<circle cx="735.045" cy="590.687" r="4" fill="#0" id="circle164"/>
	<circle cx="736.896" cy="738.746" r="4" fill="#0" id="circle165"/>
	<circle cx="744.299" cy="549.97" r="4" fill="#0" id="circle166"/>
	<circle cx="751.701" cy="103.94" r="4" fill="#0" id="circle167"/>
	<circle cx="755.403" cy="738.746" r="4" fill="#0" id="circle168"/>
	<circle cx="770.209" cy="105.791" r="4" fill="#0" id="circle169"/>
	<circle cx="773.91" cy="738.746" r="4" fill="#0" id="circle170"/>
	<circle cx="786.866" cy="115.045" r="4" fill="#0" id="circle171"/>
	<circle cx="792.418" cy="738.746" r="4" fill="#0" id="circle172"/>
	<circle cx="801.672" cy="128" r="4" fill="#0" id="circle173"/>
	<circle cx="801.672" cy="670.269" r="4" fill="#0" id="circle174"/>
	<circle cx="809.075" cy="729.493" r="4" fill="#0" id="circle175"/>
	<circle cx="810.925" cy="624" r="4" fill="#0" id="circle176"/>
	<circle cx="810.925" cy="642.507" r="4" fill="#0" id="circle177"/>
	<circle cx="810.925" cy="686.925" r="4" fill="#0" id="circle178"/>
	<circle cx="810.925" cy="705.433" r="4" fill="#0" id="circle179"/>
	<circle cx="818.328" cy="137.254" r="4" fill="#0" id="circle180"/>
	<circle cx="820.179" cy="596.239" r="4" fill="#0" id="circle181"/>
	<circle cx="829.433" cy="568.478" r="4" fill="#0" id="circle182"/>
	<circle cx="836.836" cy="144.657" r="4" fill="#0" id="circle183"/>
	<circle cx="840.537" cy="583.284" r="4" fill="#0" id="circle184"/>
	<circle cx="846.09" cy="601.791" r="4" fill="#0" id="circle185"/>
	<circle cx="846.09" cy="620.299" r="4" fill="#0" id="circle186"/>
	<circle cx="846.09" cy="638.806" r="4" fill="#0" id="circle187"/>
	<circle cx="846.09" cy="701.731" r="4" fill="#0" id="circle188"/>
	<circle cx="846.09" cy="720.239" r="4" fill="#0" id="circle189"/>
	<circle cx="853.493" cy="153.91" r="4" fill="#0" id="circle190"/>
	<circle cx="855.343" cy="655.463" r="4" fill="#0" id="circle191"/>
	<circle cx="855.343" cy="673.97" r="4" fill="#0" id="circle192"/>
	<circle cx="862.746" cy="170.567" r="4" fill="#0" id="circle193"/>
	<circle cx="864.597" cy="725.791" r="4" fill="#0" id="circle194"/>
	<circle cx="875.701" cy="185.373" r="4" fill="#0" id="circle195"/>
	<circle cx="883.104" cy="725.791" r="4" fill="#0" id="circle196"/>
	<circle cx="884.955" cy="202.03" r="4" fill="#0" id="circle197"/>
	<circle cx="897.91" cy="216.836" r="4" fill="#0" id="circle198"/>
	<circle cx="901.612" cy="725.791" r="4" fill="#0" id="circle199"/>
	<circle cx="907.164" cy="233.493" r="4" fill="#0" id="circle200"/>
	<circle cx="918.269" cy="716.537" r="4" fill="#0" id="circle201"/>
	<circle cx="923.821" cy="242.746" r="4" fill="#0" id="circle202"/>
	<circle cx="931.224" cy="261.254" r="4" fill="#0" id="circle203"/>
	<circle cx="931.224" cy="512.955" r="4" fill="#0" id="circle204"/>
	<circle cx="931.224" cy="531.463" r="4" fill="#0" id="circle205"/>
	<circle cx="931.224" cy="549.97" r="4" fill="#0" id="circle206"/>
	<circle cx="931.224" cy="568.478" r="4" fill="#0" id="circle207"/>
	<circle cx="931.224" cy="586.985" r="4" fill="#0" id="circle208"/>
	<circle cx="931.224" cy="605.493" r="4" fill="#0" id="circle209"/>
	<circle cx="931.224" cy="624" r="4" fill="#0" id="circle210"/>
	<circle cx="934.925" cy="642.507" r="4" fill="#0" id="circle211"/>
	<circle cx="936.776" cy="712.836" r="4" fill="#0" id="circle212"/>
	<circle cx="940.478" cy="485.194" r="4" fill="#0" id="circle213"/>
	<circle cx="940.478" cy="661.015" r="4" fill="#0" id="circle214"/>
	<circle cx="940.478" cy="679.522" r="4" fill="#0" id="circle215"/>
	<circle cx="946.03" cy="272.358" r="4" fill="#0" id="circle216"/>
	<circle cx="947.881" cy="503.701" r="4" fill="#0" id="circle217"/>
	<circle cx="949.731" cy="524.06" r="4" fill="#0" id="circle218"/>
	<circle cx="957.134" cy="542.567" r="4" fill="#0" id="circle219"/>
	<circle cx="958.985" cy="287.164" r="4" fill="#0" id="circle220"/>
	<circle cx="958.985" cy="305.672" r="4" fill="#0" id="circle221"/>
	<circle cx="962.687" cy="492.597" r="4" fill="#0" id="circle222"/>
	<circle cx="966.388" cy="559.224" r="4" fill="#0" id="circle223"/>
	<circle cx="966.388" cy="577.731" r="4" fill="#0" id="circle224"/>
	<circle cx="968.239" cy="322.328" r="4" fill="#0" id="circle225"/>
	<circle cx="968.239" cy="364.896" r="4" fill="#0" id="circle226"/>
	<circle cx="968.239" cy="420.418" r="4" fill="#0" id="circle227"/>
	<circle cx="968.239" cy="448.179" r="4" fill="#0" id="circle228"/>
	<circle cx="968.239" cy="466.687" r="4" fill="#0" id="circle229"/>
	<circle cx="968.239" cy="511.104" r="4" fill="#0" id="circle230"/>
	<circle cx="975.642" cy="340.836" r="4" fill="#0" id="circle231"/>
	<circle cx="975.642" cy="542.567" r="4" fill="#0" id="circle232"/>
	<circle cx="975.642" cy="594.388" r="4" fill="#0" id="circle233"/>
	<circle cx="977.493" cy="381.552" r="4" fill="#0" id="circle234"/>
	<circle cx="977.493" cy="400.06" r="4" fill="#0" id="circle235"/>
	<circle cx="983.045" cy="568.478" r="4" fill="#0" id="circle236"/>
	<circle cx="984.896" cy="611.045" r="4" fill="#0" id="circle237"/>
	<circle cx="996" cy="583.284" r="4" fill="#0" id="circle238"/>
	</g>
</svg>