<?xml version="1.0" encoding="UTF-8" standalone="no"?>
<!-- Created with CurveBenchmark -->
<svg
	xmlns:dc="http://purl.org/dc/elements/1.1/"
	xmlns:cc="http://creativecommons.org/ns#"
	xmlns:rdf="http://www.w3.org/1999/02/22-rdf-syntax-ns#"
	xmlns:svg="http://www.w3.org/2000/svg"
	xmlns="http://www.w3.org/2000/svg"
	xmlns:sodipodi="http://sodipodi.sourceforge.net/DTD/sodipodi-0.dtd"
	xmlns:inkscape="http://www.inkscape.org/namespaces/inkscape"
	width="1000"
	height="1000"
	id="svg2"
	version="1.1"
	sodipodi:docname="manifold/connect2d-television320.png.txt">
<defs
	id="defs4" />
<metadata
	id="metadata7">
	<rdf:RDF>
		<cc:Work
			rdf:about="">
			<dc:format>image/svg+xml</dc:format>
			<dc:type
				rdf:resource="http://purl.org/dc/dcmitype/StillImage" />
			<dc:title></dc:title>
		</cc:Work>
	</rdf:RDF>
</metadata>
<g
	inkscape:label="Layer 1"
	inkscape:groupmode="layer"
	id="layer1">
	<path style="fill:none;stroke:red;stroke-width:1px;stroke-linecap:butt;stroke-linejoin:miter;stroke-opacity:1" d="M 996,831.251 967.958,880.325 z" id="boundary" inkscape:connector-curvature="0" />
	<path style="fill:none;stroke:red;stroke-width:1px;stroke-linecap:butt;stroke-linejoin:miter;stroke-opacity:1" d="M 967.958,880.325 932.905,883.83 z" id="boundary" inkscape:connector-curvature="0" />
	<path style="fill:none;stroke:red;stroke-width:1px;stroke-linecap:butt;stroke-linejoin:miter;stroke-opacity:1" d="M 932.905,883.83 897.852,876.82 z" id="boundary" inkscape:connector-curvature="0" />
	<path style="fill:none;stroke:red;stroke-width:1px;stroke-linecap:butt;stroke-linejoin:miter;stroke-opacity:1" d="M 897.852,876.82 862.799,876.82 z" id="boundary" inkscape:connector-curvature="0" />
	<path style="fill:none;stroke:red;stroke-width:1px;stroke-linecap:butt;stroke-linejoin:miter;stroke-opacity:1" d="M 862.799,876.82 827.746,876.82 z" id="boundary" inkscape:connector-curvature="0" />
	<path style="fill:none;stroke:red;stroke-width:1px;stroke-linecap:butt;stroke-linejoin:miter;stroke-opacity:1" d="M 827.746,876.82 792.693,876.82 z" id="boundary" inkscape:connector-curvature="0" />
	<path style="fill:none;stroke:red;stroke-width:1px;stroke-linecap:butt;stroke-linejoin:miter;stroke-opacity:1" d="M 792.693,876.82 757.64,876.82 z" id="boundary" inkscape:connector-curvature="0" />
	<path style="fill:none;stroke:red;stroke-width:1px;stroke-linecap:butt;stroke-linejoin:miter;stroke-opacity:1" d="M 757.64,876.82 722.587,876.82 z" id="boundary" inkscape:connector-curvature="0" />
	<path style="fill:none;stroke:red;stroke-width:1px;stroke-linecap:butt;stroke-linejoin:miter;stroke-opacity:1" d="M 722.587,876.82 687.534,876.82 z" id="boundary" inkscape:connector-curvature="0" />
	<path style="fill:none;stroke:red;stroke-width:1px;stroke-linecap:butt;stroke-linejoin:miter;stroke-opacity:1" d="M 687.534,876.82 652.481,876.82 z" id="boundary" inkscape:connector-curvature="0" />
	<path style="fill:none;stroke:red;stroke-width:1px;stroke-linecap:butt;stroke-linejoin:miter;stroke-opacity:1" d="M 652.481,876.82 617.428,876.82 z" id="boundary" inkscape:connector-curvature="0" />
	<path style="fill:none;stroke:red;stroke-width:1px;stroke-linecap:butt;stroke-linejoin:miter;stroke-opacity:1" d="M 617.428,876.82 582.375,876.82 z" id="boundary" inkscape:connector-curvature="0" />
	<path style="fill:none;stroke:red;stroke-width:1px;stroke-linecap:butt;stroke-linejoin:miter;stroke-opacity:1" d="M 582.375,876.82 547.322,876.82 z" id="boundary" inkscape:connector-curvature="0" />
	<path style="fill:none;stroke:red;stroke-width:1px;stroke-linecap:butt;stroke-linejoin:miter;stroke-opacity:1" d="M 547.322,876.82 512.269,876.82 z" id="boundary" inkscape:connector-curvature="0" />
	<path style="fill:none;stroke:red;stroke-width:1px;stroke-linecap:butt;stroke-linejoin:miter;stroke-opacity:1" d="M 512.269,876.82 477.216,876.82 z" id="boundary" inkscape:connector-curvature="0" />
	<path style="fill:none;stroke:red;stroke-width:1px;stroke-linecap:butt;stroke-linejoin:miter;stroke-opacity:1" d="M 477.216,876.82 442.163,876.82 z" id="boundary" inkscape:connector-curvature="0" />
	<path style="fill:none;stroke:red;stroke-width:1px;stroke-linecap:butt;stroke-linejoin:miter;stroke-opacity:1" d="M 442.163,876.82 407.11,876.82 z" id="boundary" inkscape:connector-curvature="0" />
	<path style="fill:none;stroke:red;stroke-width:1px;stroke-linecap:butt;stroke-linejoin:miter;stroke-opacity:1" d="M 407.11,876.82 372.057,876.82 z" id="boundary" inkscape:connector-curvature="0" />
	<path style="fill:none;stroke:red;stroke-width:1px;stroke-linecap:butt;stroke-linejoin:miter;stroke-opacity:1" d="M 372.057,876.82 337.004,876.82 z" id="boundary" inkscape:connector-curvature="0" />
	<path style="fill:none;stroke:red;stroke-width:1px;stroke-linecap:butt;stroke-linejoin:miter;stroke-opacity:1" d="M 337.004,876.82 301.951,876.82 z" id="boundary" inkscape:connector-curvature="0" />
	<path style="fill:none;stroke:red;stroke-width:1px;stroke-linecap:butt;stroke-linejoin:miter;stroke-opacity:1" d="M 301.951,876.82 266.898,876.82 z" id="boundary" inkscape:connector-curvature="0" />
	<path style="fill:none;stroke:red;stroke-width:1px;stroke-linecap:butt;stroke-linejoin:miter;stroke-opacity:1" d="M 266.898,876.82 231.845,887.336 z" id="boundary" inkscape:connector-curvature="0" />
	<path style="fill:none;stroke:red;stroke-width:1px;stroke-linecap:butt;stroke-linejoin:miter;stroke-opacity:1" d="M 231.845,887.336 196.792,876.82 z" id="boundary" inkscape:connector-curvature="0" />
	<path style="fill:none;stroke:red;stroke-width:1px;stroke-linecap:butt;stroke-linejoin:miter;stroke-opacity:1" d="M 196.792,876.82 161.739,876.82 z" id="boundary" inkscape:connector-curvature="0" />
	<path style="fill:none;stroke:red;stroke-width:1px;stroke-linecap:butt;stroke-linejoin:miter;stroke-opacity:1" d="M 161.739,876.82 126.686,876.82 z" id="boundary" inkscape:connector-curvature="0" />
	<path style="fill:none;stroke:red;stroke-width:1px;stroke-linecap:butt;stroke-linejoin:miter;stroke-opacity:1" d="M 126.686,876.82 91.6325,876.82 z" id="boundary" inkscape:connector-curvature="0" />
	<path style="fill:none;stroke:red;stroke-width:1px;stroke-linecap:butt;stroke-linejoin:miter;stroke-opacity:1" d="M 91.6325,876.82 56.5795,887.336 z" id="boundary" inkscape:connector-curvature="0" />
	<path style="fill:none;stroke:red;stroke-width:1px;stroke-linecap:butt;stroke-linejoin:miter;stroke-opacity:1" d="M 56.5795,887.336 21.5265,876.82 z" id="boundary" inkscape:connector-curvature="0" />
	<path style="fill:none;stroke:red;stroke-width:1px;stroke-linecap:butt;stroke-linejoin:miter;stroke-opacity:1" d="M 21.5265,876.82 4,845.272 z" id="boundary" inkscape:connector-curvature="0" />
	<path style="fill:none;stroke:red;stroke-width:1px;stroke-linecap:butt;stroke-linejoin:miter;stroke-opacity:1" d="M 4,845.272 4,810.219 z" id="boundary" inkscape:connector-curvature="0" />
	<path style="fill:none;stroke:red;stroke-width:1px;stroke-linecap:butt;stroke-linejoin:miter;stroke-opacity:1" d="M 4,810.219 39.053,803.208 z" id="boundary" inkscape:connector-curvature="0" />
	<path style="fill:none;stroke:red;stroke-width:1px;stroke-linecap:butt;stroke-linejoin:miter;stroke-opacity:1" d="M 39.053,803.208 74.106,803.208 z" id="boundary" inkscape:connector-curvature="0" />
	<path style="fill:none;stroke:red;stroke-width:1px;stroke-linecap:butt;stroke-linejoin:miter;stroke-opacity:1" d="M 74.106,803.208 109.159,803.208 z" id="boundary" inkscape:connector-curvature="0" />
	<path style="fill:none;stroke:red;stroke-width:1px;stroke-linecap:butt;stroke-linejoin:miter;stroke-opacity:1" d="M 109.159,803.208 144.212,803.208 z" id="boundary" inkscape:connector-curvature="0" />
	<path style="fill:none;stroke:red;stroke-width:1px;stroke-linecap:butt;stroke-linejoin:miter;stroke-opacity:1" d="M 144.212,803.208 179.265,803.208 z" id="boundary" inkscape:connector-curvature="0" />
	<path style="fill:none;stroke:red;stroke-width:1px;stroke-linecap:butt;stroke-linejoin:miter;stroke-opacity:1" d="M 179.265,803.208 214.318,803.208 z" id="boundary" inkscape:connector-curvature="0" />
	<path style="fill:none;stroke:red;stroke-width:1px;stroke-linecap:butt;stroke-linejoin:miter;stroke-opacity:1" d="M 214.318,803.208 249.371,803.208 z" id="boundary" inkscape:connector-curvature="0" />
	<path style="fill:none;stroke:red;stroke-width:1px;stroke-linecap:butt;stroke-linejoin:miter;stroke-opacity:1" d="M 249.371,803.208 284.424,803.208 z" id="boundary" inkscape:connector-curvature="0" />
	<path style="fill:none;stroke:red;stroke-width:1px;stroke-linecap:butt;stroke-linejoin:miter;stroke-opacity:1" d="M 284.424,803.208 319.477,803.208 z" id="boundary" inkscape:connector-curvature="0" />
	<path style="fill:none;stroke:red;stroke-width:1px;stroke-linecap:butt;stroke-linejoin:miter;stroke-opacity:1" d="M 319.477,803.208 354.53,799.703 z" id="boundary" inkscape:connector-curvature="0" />
	<path style="fill:none;stroke:red;stroke-width:1px;stroke-linecap:butt;stroke-linejoin:miter;stroke-opacity:1" d="M 354.53,799.703 354.53,764.65 z" id="boundary" inkscape:connector-curvature="0" />
	<path style="fill:none;stroke:red;stroke-width:1px;stroke-linecap:butt;stroke-linejoin:miter;stroke-opacity:1" d="M 354.53,764.65 344.014,729.597 z" id="boundary" inkscape:connector-curvature="0" />
	<path style="fill:none;stroke:red;stroke-width:1px;stroke-linecap:butt;stroke-linejoin:miter;stroke-opacity:1" d="M 344.014,729.597 308.961,729.597 z" id="boundary" inkscape:connector-curvature="0" />
	<path style="fill:none;stroke:red;stroke-width:1px;stroke-linecap:butt;stroke-linejoin:miter;stroke-opacity:1" d="M 308.961,729.597 273.908,729.597 z" id="boundary" inkscape:connector-curvature="0" />
	<path style="fill:none;stroke:red;stroke-width:1px;stroke-linecap:butt;stroke-linejoin:miter;stroke-opacity:1" d="M 273.908,729.597 238.855,729.597 z" id="boundary" inkscape:connector-curvature="0" />
	<path style="fill:none;stroke:red;stroke-width:1px;stroke-linecap:butt;stroke-linejoin:miter;stroke-opacity:1" d="M 238.855,729.597 203.802,729.597 z" id="boundary" inkscape:connector-curvature="0" />
	<path style="fill:none;stroke:red;stroke-width:1px;stroke-linecap:butt;stroke-linejoin:miter;stroke-opacity:1" d="M 203.802,729.597 168.749,729.597 z" id="boundary" inkscape:connector-curvature="0" />
	<path style="fill:none;stroke:red;stroke-width:1px;stroke-linecap:butt;stroke-linejoin:miter;stroke-opacity:1" d="M 168.749,729.597 133.696,729.597 z" id="boundary" inkscape:connector-curvature="0" />
	<path style="fill:none;stroke:red;stroke-width:1px;stroke-linecap:butt;stroke-linejoin:miter;stroke-opacity:1" d="M 133.696,729.597 116.17,698.049 z" id="boundary" inkscape:connector-curvature="0" />
	<path style="fill:none;stroke:red;stroke-width:1px;stroke-linecap:butt;stroke-linejoin:miter;stroke-opacity:1" d="M 116.17,698.049 151.223,698.049 z" id="boundary" inkscape:connector-curvature="0" />
	<path style="fill:none;stroke:red;stroke-width:1px;stroke-linecap:butt;stroke-linejoin:miter;stroke-opacity:1" d="M 151.223,698.049 186.276,698.049 z" id="boundary" inkscape:connector-curvature="0" />
	<path style="fill:none;stroke:red;stroke-width:1px;stroke-linecap:butt;stroke-linejoin:miter;stroke-opacity:1" d="M 186.276,698.049 221.329,698.049 z" id="boundary" inkscape:connector-curvature="0" />
	<path style="fill:none;stroke:red;stroke-width:1px;stroke-linecap:butt;stroke-linejoin:miter;stroke-opacity:1" d="M 221.329,698.049 256.382,698.049 z" id="boundary" inkscape:connector-curvature="0" />
	<path style="fill:none;stroke:red;stroke-width:1px;stroke-linecap:butt;stroke-linejoin:miter;stroke-opacity:1" d="M 256.382,698.049 291.435,698.049 z" id="boundary" inkscape:connector-curvature="0" />
	<path style="fill:none;stroke:red;stroke-width:1px;stroke-linecap:butt;stroke-linejoin:miter;stroke-opacity:1" d="M 291.435,698.049 326.488,698.049 z" id="boundary" inkscape:connector-curvature="0" />
	<path style="fill:none;stroke:red;stroke-width:1px;stroke-linecap:butt;stroke-linejoin:miter;stroke-opacity:1" d="M 326.488,698.049 354.53,655.986 z" id="boundary" inkscape:connector-curvature="0" />
	<path style="fill:none;stroke:red;stroke-width:1px;stroke-linecap:butt;stroke-linejoin:miter;stroke-opacity:1" d="M 354.53,655.986 354.53,620.933 z" id="boundary" inkscape:connector-curvature="0" />
	<path style="fill:none;stroke:red;stroke-width:1px;stroke-linecap:butt;stroke-linejoin:miter;stroke-opacity:1" d="M 354.53,620.933 319.477,617.428 z" id="boundary" inkscape:connector-curvature="0" />
	<path style="fill:none;stroke:red;stroke-width:1px;stroke-linecap:butt;stroke-linejoin:miter;stroke-opacity:1" d="M 319.477,617.428 284.424,617.428 z" id="boundary" inkscape:connector-curvature="0" />
	<path style="fill:none;stroke:red;stroke-width:1px;stroke-linecap:butt;stroke-linejoin:miter;stroke-opacity:1" d="M 284.424,617.428 249.371,617.428 z" id="boundary" inkscape:connector-curvature="0" />
	<path style="fill:none;stroke:red;stroke-width:1px;stroke-linecap:butt;stroke-linejoin:miter;stroke-opacity:1" d="M 249.371,617.428 214.318,617.428 z" id="boundary" inkscape:connector-curvature="0" />
	<path style="fill:none;stroke:red;stroke-width:1px;stroke-linecap:butt;stroke-linejoin:miter;stroke-opacity:1" d="M 214.318,617.428 179.265,617.428 z" id="boundary" inkscape:connector-curvature="0" />
	<path style="fill:none;stroke:red;stroke-width:1px;stroke-linecap:butt;stroke-linejoin:miter;stroke-opacity:1" d="M 179.265,617.428 144.212,617.428 z" id="boundary" inkscape:connector-curvature="0" />
	<path style="fill:none;stroke:red;stroke-width:1px;stroke-linecap:butt;stroke-linejoin:miter;stroke-opacity:1" d="M 144.212,617.428 116.17,592.89 z" id="boundary" inkscape:connector-curvature="0" />
	<path style="fill:none;stroke:red;stroke-width:1px;stroke-linecap:butt;stroke-linejoin:miter;stroke-opacity:1" d="M 116.17,592.89 161.739,585.88 z" id="boundary" inkscape:connector-curvature="0" />
	<path style="fill:none;stroke:red;stroke-width:1px;stroke-linecap:butt;stroke-linejoin:miter;stroke-opacity:1" d="M 161.739,585.88 196.792,585.88 z" id="boundary" inkscape:connector-curvature="0" />
	<path style="fill:none;stroke:red;stroke-width:1px;stroke-linecap:butt;stroke-linejoin:miter;stroke-opacity:1" d="M 196.792,585.88 231.845,585.88 z" id="boundary" inkscape:connector-curvature="0" />
	<path style="fill:none;stroke:red;stroke-width:1px;stroke-linecap:butt;stroke-linejoin:miter;stroke-opacity:1" d="M 231.845,585.88 266.898,585.88 z" id="boundary" inkscape:connector-curvature="0" />
	<path style="fill:none;stroke:red;stroke-width:1px;stroke-linecap:butt;stroke-linejoin:miter;stroke-opacity:1" d="M 266.898,585.88 301.951,585.88 z" id="boundary" inkscape:connector-curvature="0" />
	<path style="fill:none;stroke:red;stroke-width:1px;stroke-linecap:butt;stroke-linejoin:miter;stroke-opacity:1" d="M 301.951,585.88 337.004,585.88 z" id="boundary" inkscape:connector-curvature="0" />
	<path style="fill:none;stroke:red;stroke-width:1px;stroke-linecap:butt;stroke-linejoin:miter;stroke-opacity:1" d="M 337.004,585.88 354.53,536.806 z" id="boundary" inkscape:connector-curvature="0" />
	<path style="fill:none;stroke:red;stroke-width:1px;stroke-linecap:butt;stroke-linejoin:miter;stroke-opacity:1" d="M 354.53,536.806 354.53,501.753 z" id="boundary" inkscape:connector-curvature="0" />
	<path style="fill:none;stroke:red;stroke-width:1px;stroke-linecap:butt;stroke-linejoin:miter;stroke-opacity:1" d="M 354.53,501.753 337.004,470.205 z" id="boundary" inkscape:connector-curvature="0" />
	<path style="fill:none;stroke:red;stroke-width:1px;stroke-linecap:butt;stroke-linejoin:miter;stroke-opacity:1" d="M 337.004,470.205 301.951,470.205 z" id="boundary" inkscape:connector-curvature="0" />
	<path style="fill:none;stroke:red;stroke-width:1px;stroke-linecap:butt;stroke-linejoin:miter;stroke-opacity:1" d="M 301.951,470.205 266.898,470.205 z" id="boundary" inkscape:connector-curvature="0" />
	<path style="fill:none;stroke:red;stroke-width:1px;stroke-linecap:butt;stroke-linejoin:miter;stroke-opacity:1" d="M 266.898,470.205 231.845,470.205 z" id="boundary" inkscape:connector-curvature="0" />
	<path style="fill:none;stroke:red;stroke-width:1px;stroke-linecap:butt;stroke-linejoin:miter;stroke-opacity:1" d="M 231.845,470.205 196.792,470.205 z" id="boundary" inkscape:connector-curvature="0" />
	<path style="fill:none;stroke:red;stroke-width:1px;stroke-linecap:butt;stroke-linejoin:miter;stroke-opacity:1" d="M 196.792,470.205 161.739,466.7 z" id="boundary" inkscape:connector-curvature="0" />
	<path style="fill:none;stroke:red;stroke-width:1px;stroke-linecap:butt;stroke-linejoin:miter;stroke-opacity:1" d="M 161.739,466.7 158.233,431.647 z" id="boundary" inkscape:connector-curvature="0" />
	<path style="fill:none;stroke:red;stroke-width:1px;stroke-linecap:butt;stroke-linejoin:miter;stroke-opacity:1" d="M 158.233,431.647 158.233,396.594 z" id="boundary" inkscape:connector-curvature="0" />
	<path style="fill:none;stroke:red;stroke-width:1px;stroke-linecap:butt;stroke-linejoin:miter;stroke-opacity:1" d="M 158.233,396.594 158.233,361.541 z" id="boundary" inkscape:connector-curvature="0" />
	<path style="fill:none;stroke:red;stroke-width:1px;stroke-linecap:butt;stroke-linejoin:miter;stroke-opacity:1" d="M 158.233,361.541 158.233,326.488 z" id="boundary" inkscape:connector-curvature="0" />
	<path style="fill:none;stroke:red;stroke-width:1px;stroke-linecap:butt;stroke-linejoin:miter;stroke-opacity:1" d="M 158.233,326.488 158.233,291.435 z" id="boundary" inkscape:connector-curvature="0" />
	<path style="fill:none;stroke:red;stroke-width:1px;stroke-linecap:butt;stroke-linejoin:miter;stroke-opacity:1" d="M 158.233,291.435 158.233,256.382 z" id="boundary" inkscape:connector-curvature="0" />
	<path style="fill:none;stroke:red;stroke-width:1px;stroke-linecap:butt;stroke-linejoin:miter;stroke-opacity:1" d="M 158.233,256.382 158.233,221.329 z" id="boundary" inkscape:connector-curvature="0" />
	<path style="fill:none;stroke:red;stroke-width:1px;stroke-linecap:butt;stroke-linejoin:miter;stroke-opacity:1" d="M 158.233,221.329 158.233,186.276 z" id="boundary" inkscape:connector-curvature="0" />
	<path style="fill:none;stroke:red;stroke-width:1px;stroke-linecap:butt;stroke-linejoin:miter;stroke-opacity:1" d="M 158.233,186.276 158.233,151.223 z" id="boundary" inkscape:connector-curvature="0" />
	<path style="fill:none;stroke:red;stroke-width:1px;stroke-linecap:butt;stroke-linejoin:miter;stroke-opacity:1" d="M 158.233,151.223 158.233,116.17 z" id="boundary" inkscape:connector-curvature="0" />
	<path style="fill:none;stroke:red;stroke-width:1px;stroke-linecap:butt;stroke-linejoin:miter;stroke-opacity:1" d="M 158.233,116.17 158.233,81.1166 z" id="boundary" inkscape:connector-curvature="0" />
	<path style="fill:none;stroke:red;stroke-width:1px;stroke-linecap:butt;stroke-linejoin:miter;stroke-opacity:1" d="M 158.233,81.1166 158.233,46.0636 z" id="boundary" inkscape:connector-curvature="0" />
	<path style="fill:none;stroke:red;stroke-width:1px;stroke-linecap:butt;stroke-linejoin:miter;stroke-opacity:1" d="M 158.233,46.0636 158.233,11.0106 z" id="boundary" inkscape:connector-curvature="0" />
	<path style="fill:none;stroke:red;stroke-width:1px;stroke-linecap:butt;stroke-linejoin:miter;stroke-opacity:1" d="M 158.233,11.0106 193.286,4 z" id="boundary" inkscape:connector-curvature="0" />
	<path style="fill:none;stroke:red;stroke-width:1px;stroke-linecap:butt;stroke-linejoin:miter;stroke-opacity:1" d="M 193.286,4 228.339,4 z" id="boundary" inkscape:connector-curvature="0" />
	<path style="fill:none;stroke:red;stroke-width:1px;stroke-linecap:butt;stroke-linejoin:miter;stroke-opacity:1" d="M 228.339,4 263.392,4 z" id="boundary" inkscape:connector-curvature="0" />
	<path style="fill:none;stroke:red;stroke-width:1px;stroke-linecap:butt;stroke-linejoin:miter;stroke-opacity:1" d="M 263.392,4 298.445,4 z" id="boundary" inkscape:connector-curvature="0" />
	<path style="fill:none;stroke:red;stroke-width:1px;stroke-linecap:butt;stroke-linejoin:miter;stroke-opacity:1" d="M 298.445,4 333.498,4 z" id="boundary" inkscape:connector-curvature="0" />
	<path style="fill:none;stroke:red;stroke-width:1px;stroke-linecap:butt;stroke-linejoin:miter;stroke-opacity:1" d="M 333.498,4 368.551,4 z" id="boundary" inkscape:connector-curvature="0" />
	<path style="fill:none;stroke:red;stroke-width:1px;stroke-linecap:butt;stroke-linejoin:miter;stroke-opacity:1" d="M 368.551,4 403.604,4 z" id="boundary" inkscape:connector-curvature="0" />
	<path style="fill:none;stroke:red;stroke-width:1px;stroke-linecap:butt;stroke-linejoin:miter;stroke-opacity:1" d="M 403.604,4 438.657,4 z" id="boundary" inkscape:connector-curvature="0" />
	<path style="fill:none;stroke:red;stroke-width:1px;stroke-linecap:butt;stroke-linejoin:miter;stroke-opacity:1" d="M 438.657,4 473.71,4 z" id="boundary" inkscape:connector-curvature="0" />
	<path style="fill:none;stroke:red;stroke-width:1px;stroke-linecap:butt;stroke-linejoin:miter;stroke-opacity:1" d="M 473.71,4 508.763,4 z" id="boundary" inkscape:connector-curvature="0" />
	<path style="fill:none;stroke:red;stroke-width:1px;stroke-linecap:butt;stroke-linejoin:miter;stroke-opacity:1" d="M 508.763,4 543.816,4 z" id="boundary" inkscape:connector-curvature="0" />
	<path style="fill:none;stroke:red;stroke-width:1px;stroke-linecap:butt;stroke-linejoin:miter;stroke-opacity:1" d="M 543.816,4 578.869,4 z" id="boundary" inkscape:connector-curvature="0" />
	<path style="fill:none;stroke:red;stroke-width:1px;stroke-linecap:butt;stroke-linejoin:miter;stroke-opacity:1" d="M 578.869,4 613.922,4 z" id="boundary" inkscape:connector-curvature="0" />
	<path style="fill:none;stroke:red;stroke-width:1px;stroke-linecap:butt;stroke-linejoin:miter;stroke-opacity:1" d="M 613.922,4 648.975,4 z" id="boundary" inkscape:connector-curvature="0" />
	<path style="fill:none;stroke:red;stroke-width:1px;stroke-linecap:butt;stroke-linejoin:miter;stroke-opacity:1" d="M 648.975,4 684.028,4 z" id="boundary" inkscape:connector-curvature="0" />
	<path style="fill:none;stroke:red;stroke-width:1px;stroke-linecap:butt;stroke-linejoin:miter;stroke-opacity:1" d="M 684.028,4 719.081,4 z" id="boundary" inkscape:connector-curvature="0" />
	<path style="fill:none;stroke:red;stroke-width:1px;stroke-linecap:butt;stroke-linejoin:miter;stroke-opacity:1" d="M 719.081,4 754.134,4 z" id="boundary" inkscape:connector-curvature="0" />
	<path style="fill:none;stroke:red;stroke-width:1px;stroke-linecap:butt;stroke-linejoin:miter;stroke-opacity:1" d="M 754.134,4 789.187,4 z" id="boundary" inkscape:connector-curvature="0" />
	<path style="fill:none;stroke:red;stroke-width:1px;stroke-linecap:butt;stroke-linejoin:miter;stroke-opacity:1" d="M 789.187,4 820.735,21.5265 z" id="boundary" inkscape:connector-curvature="0" />
	<path style="fill:none;stroke:red;stroke-width:1px;stroke-linecap:butt;stroke-linejoin:miter;stroke-opacity:1" d="M 820.735,21.5265 820.735,56.5795 z" id="boundary" inkscape:connector-curvature="0" />
	<path style="fill:none;stroke:red;stroke-width:1px;stroke-linecap:butt;stroke-linejoin:miter;stroke-opacity:1" d="M 820.735,56.5795 820.735,91.6325 z" id="boundary" inkscape:connector-curvature="0" />
	<path style="fill:none;stroke:red;stroke-width:1px;stroke-linecap:butt;stroke-linejoin:miter;stroke-opacity:1" d="M 820.735,91.6325 820.735,126.686 z" id="boundary" inkscape:connector-curvature="0" />
	<path style="fill:none;stroke:red;stroke-width:1px;stroke-linecap:butt;stroke-linejoin:miter;stroke-opacity:1" d="M 820.735,126.686 820.735,161.739 z" id="boundary" inkscape:connector-curvature="0" />
	<path style="fill:none;stroke:red;stroke-width:1px;stroke-linecap:butt;stroke-linejoin:miter;stroke-opacity:1" d="M 820.735,161.739 820.735,196.792 z" id="boundary" inkscape:connector-curvature="0" />
	<path style="fill:none;stroke:red;stroke-width:1px;stroke-linecap:butt;stroke-linejoin:miter;stroke-opacity:1" d="M 820.735,196.792 820.735,231.845 z" id="boundary" inkscape:connector-curvature="0" />
	<path style="fill:none;stroke:red;stroke-width:1px;stroke-linecap:butt;stroke-linejoin:miter;stroke-opacity:1" d="M 820.735,231.845 820.735,266.898 z" id="boundary" inkscape:connector-curvature="0" />
	<path style="fill:none;stroke:red;stroke-width:1px;stroke-linecap:butt;stroke-linejoin:miter;stroke-opacity:1" d="M 820.735,266.898 820.735,301.951 z" id="boundary" inkscape:connector-curvature="0" />
	<path style="fill:none;stroke:red;stroke-width:1px;stroke-linecap:butt;stroke-linejoin:miter;stroke-opacity:1" d="M 820.735,301.951 820.735,337.004 z" id="boundary" inkscape:connector-curvature="0" />
	<path style="fill:none;stroke:red;stroke-width:1px;stroke-linecap:butt;stroke-linejoin:miter;stroke-opacity:1" d="M 820.735,337.004 820.735,372.057 z" id="boundary" inkscape:connector-curvature="0" />
	<path style="fill:none;stroke:red;stroke-width:1px;stroke-linecap:butt;stroke-linejoin:miter;stroke-opacity:1" d="M 820.735,372.057 820.735,407.11 z" id="boundary" inkscape:connector-curvature="0" />
	<path style="fill:none;stroke:red;stroke-width:1px;stroke-linecap:butt;stroke-linejoin:miter;stroke-opacity:1" d="M 820.735,407.11 820.735,442.163 z" id="boundary" inkscape:connector-curvature="0" />
	<path style="fill:none;stroke:red;stroke-width:1px;stroke-linecap:butt;stroke-linejoin:miter;stroke-opacity:1" d="M 820.735,442.163 792.693,470.205 z" id="boundary" inkscape:connector-curvature="0" />
	<path style="fill:none;stroke:red;stroke-width:1px;stroke-linecap:butt;stroke-linejoin:miter;stroke-opacity:1" d="M 792.693,470.205 757.64,470.205 z" id="boundary" inkscape:connector-curvature="0" />
	<path style="fill:none;stroke:red;stroke-width:1px;stroke-linecap:butt;stroke-linejoin:miter;stroke-opacity:1" d="M 757.64,470.205 722.587,470.205 z" id="boundary" inkscape:connector-curvature="0" />
	<path style="fill:none;stroke:red;stroke-width:1px;stroke-linecap:butt;stroke-linejoin:miter;stroke-opacity:1" d="M 722.587,470.205 687.534,470.205 z" id="boundary" inkscape:connector-curvature="0" />
	<path style="fill:none;stroke:red;stroke-width:1px;stroke-linecap:butt;stroke-linejoin:miter;stroke-opacity:1" d="M 687.534,470.205 652.481,470.205 z" id="boundary" inkscape:connector-curvature="0" />
	<path style="fill:none;stroke:red;stroke-width:1px;stroke-linecap:butt;stroke-linejoin:miter;stroke-opacity:1" d="M 652.481,470.205 617.428,470.205 z" id="boundary" inkscape:connector-curvature="0" />
	<path style="fill:none;stroke:red;stroke-width:1px;stroke-linecap:butt;stroke-linejoin:miter;stroke-opacity:1" d="M 617.428,470.205 582.375,470.205 z" id="boundary" inkscape:connector-curvature="0" />
	<path style="fill:none;stroke:red;stroke-width:1px;stroke-linecap:butt;stroke-linejoin:miter;stroke-opacity:1" d="M 582.375,470.205 547.322,473.71 z" id="boundary" inkscape:connector-curvature="0" />
	<path style="fill:none;stroke:red;stroke-width:1px;stroke-linecap:butt;stroke-linejoin:miter;stroke-opacity:1" d="M 547.322,473.71 547.322,508.763 z" id="boundary" inkscape:connector-curvature="0" />
	<path style="fill:none;stroke:red;stroke-width:1px;stroke-linecap:butt;stroke-linejoin:miter;stroke-opacity:1" d="M 547.322,508.763 547.322,543.816 z" id="boundary" inkscape:connector-curvature="0" />
	<path style="fill:none;stroke:red;stroke-width:1px;stroke-linecap:butt;stroke-linejoin:miter;stroke-opacity:1" d="M 547.322,543.816 547.322,578.869 z" id="boundary" inkscape:connector-curvature="0" />
	<path style="fill:none;stroke:red;stroke-width:1px;stroke-linecap:butt;stroke-linejoin:miter;stroke-opacity:1" d="M 547.322,578.869 582.375,585.88 z" id="boundary" inkscape:connector-curvature="0" />
	<path style="fill:none;stroke:red;stroke-width:1px;stroke-linecap:butt;stroke-linejoin:miter;stroke-opacity:1" d="M 582.375,585.88 617.428,585.88 z" id="boundary" inkscape:connector-curvature="0" />
	<path style="fill:none;stroke:red;stroke-width:1px;stroke-linecap:butt;stroke-linejoin:miter;stroke-opacity:1" d="M 617.428,585.88 652.481,585.88 z" id="boundary" inkscape:connector-curvature="0" />
	<path style="fill:none;stroke:red;stroke-width:1px;stroke-linecap:butt;stroke-linejoin:miter;stroke-opacity:1" d="M 652.481,585.88 687.534,585.88 z" id="boundary" inkscape:connector-curvature="0" />
	<path style="fill:none;stroke:red;stroke-width:1px;stroke-linecap:butt;stroke-linejoin:miter;stroke-opacity:1" d="M 687.534,585.88 722.587,585.88 z" id="boundary" inkscape:connector-curvature="0" />
	<path style="fill:none;stroke:red;stroke-width:1px;stroke-linecap:butt;stroke-linejoin:miter;stroke-opacity:1" d="M 722.587,585.88 757.64,585.88 z" id="boundary" inkscape:connector-curvature="0" />
	<path style="fill:none;stroke:red;stroke-width:1px;stroke-linecap:butt;stroke-linejoin:miter;stroke-opacity:1" d="M 757.64,585.88 792.693,585.88 z" id="boundary" inkscape:connector-curvature="0" />
	<path style="fill:none;stroke:red;stroke-width:1px;stroke-linecap:butt;stroke-linejoin:miter;stroke-opacity:1" d="M 792.693,585.88 827.746,585.88 z" id="boundary" inkscape:connector-curvature="0" />
	<path style="fill:none;stroke:red;stroke-width:1px;stroke-linecap:butt;stroke-linejoin:miter;stroke-opacity:1" d="M 827.746,585.88 862.799,585.88 z" id="boundary" inkscape:connector-curvature="0" />
	<path style="fill:none;stroke:red;stroke-width:1px;stroke-linecap:butt;stroke-linejoin:miter;stroke-opacity:1" d="M 862.799,585.88 897.852,585.88 z" id="boundary" inkscape:connector-curvature="0" />
	<path style="fill:none;stroke:red;stroke-width:1px;stroke-linecap:butt;stroke-linejoin:miter;stroke-opacity:1" d="M 897.852,585.88 932.905,585.88 z" id="boundary" inkscape:connector-curvature="0" />
	<path style="fill:none;stroke:red;stroke-width:1px;stroke-linecap:butt;stroke-linejoin:miter;stroke-opacity:1" d="M 932.905,585.88 950.431,617.428 z" id="boundary" inkscape:connector-curvature="0" />
	<path style="fill:none;stroke:red;stroke-width:1px;stroke-linecap:butt;stroke-linejoin:miter;stroke-opacity:1" d="M 950.431,617.428 915.378,617.428 z" id="boundary" inkscape:connector-curvature="0" />
	<path style="fill:none;stroke:red;stroke-width:1px;stroke-linecap:butt;stroke-linejoin:miter;stroke-opacity:1" d="M 915.378,617.428 880.325,617.428 z" id="boundary" inkscape:connector-curvature="0" />
	<path style="fill:none;stroke:red;stroke-width:1px;stroke-linecap:butt;stroke-linejoin:miter;stroke-opacity:1" d="M 880.325,617.428 845.272,617.428 z" id="boundary" inkscape:connector-curvature="0" />
	<path style="fill:none;stroke:red;stroke-width:1px;stroke-linecap:butt;stroke-linejoin:miter;stroke-opacity:1" d="M 845.272,617.428 810.219,617.428 z" id="boundary" inkscape:connector-curvature="0" />
	<path style="fill:none;stroke:red;stroke-width:1px;stroke-linecap:butt;stroke-linejoin:miter;stroke-opacity:1" d="M 810.219,617.428 775.166,617.428 z" id="boundary" inkscape:connector-curvature="0" />
	<path style="fill:none;stroke:red;stroke-width:1px;stroke-linecap:butt;stroke-linejoin:miter;stroke-opacity:1" d="M 775.166,617.428 740.113,617.428 z" id="boundary" inkscape:connector-curvature="0" />
	<path style="fill:none;stroke:red;stroke-width:1px;stroke-linecap:butt;stroke-linejoin:miter;stroke-opacity:1" d="M 740.113,617.428 705.06,617.428 z" id="boundary" inkscape:connector-curvature="0" />
	<path style="fill:none;stroke:red;stroke-width:1px;stroke-linecap:butt;stroke-linejoin:miter;stroke-opacity:1" d="M 705.06,617.428 670.007,617.428 z" id="boundary" inkscape:connector-curvature="0" />
	<path style="fill:none;stroke:red;stroke-width:1px;stroke-linecap:butt;stroke-linejoin:miter;stroke-opacity:1" d="M 670.007,617.428 634.954,617.428 z" id="boundary" inkscape:connector-curvature="0" />
	<path style="fill:none;stroke:red;stroke-width:1px;stroke-linecap:butt;stroke-linejoin:miter;stroke-opacity:1" d="M 634.954,617.428 599.901,617.428 z" id="boundary" inkscape:connector-curvature="0" />
	<path style="fill:none;stroke:red;stroke-width:1px;stroke-linecap:butt;stroke-linejoin:miter;stroke-opacity:1" d="M 599.901,617.428 547.322,620.933 z" id="boundary" inkscape:connector-curvature="0" />
	<path style="fill:none;stroke:red;stroke-width:1px;stroke-linecap:butt;stroke-linejoin:miter;stroke-opacity:1" d="M 547.322,620.933 547.322,655.986 z" id="boundary" inkscape:connector-curvature="0" />
	<path style="fill:none;stroke:red;stroke-width:1px;stroke-linecap:butt;stroke-linejoin:miter;stroke-opacity:1" d="M 547.322,655.986 547.322,691.039 z" id="boundary" inkscape:connector-curvature="0" />
	<path style="fill:none;stroke:red;stroke-width:1px;stroke-linecap:butt;stroke-linejoin:miter;stroke-opacity:1" d="M 547.322,691.039 582.375,698.049 z" id="boundary" inkscape:connector-curvature="0" />
	<path style="fill:none;stroke:red;stroke-width:1px;stroke-linecap:butt;stroke-linejoin:miter;stroke-opacity:1" d="M 582.375,698.049 617.428,698.049 z" id="boundary" inkscape:connector-curvature="0" />
	<path style="fill:none;stroke:red;stroke-width:1px;stroke-linecap:butt;stroke-linejoin:miter;stroke-opacity:1" d="M 617.428,698.049 652.481,698.049 z" id="boundary" inkscape:connector-curvature="0" />
	<path style="fill:none;stroke:red;stroke-width:1px;stroke-linecap:butt;stroke-linejoin:miter;stroke-opacity:1" d="M 652.481,698.049 687.534,698.049 z" id="boundary" inkscape:connector-curvature="0" />
	<path style="fill:none;stroke:red;stroke-width:1px;stroke-linecap:butt;stroke-linejoin:miter;stroke-opacity:1" d="M 687.534,698.049 722.587,698.049 z" id="boundary" inkscape:connector-curvature="0" />
	<path style="fill:none;stroke:red;stroke-width:1px;stroke-linecap:butt;stroke-linejoin:miter;stroke-opacity:1" d="M 722.587,698.049 757.64,698.049 z" id="boundary" inkscape:connector-curvature="0" />
	<path style="fill:none;stroke:red;stroke-width:1px;stroke-linecap:butt;stroke-linejoin:miter;stroke-opacity:1" d="M 757.64,698.049 792.693,698.049 z" id="boundary" inkscape:connector-curvature="0" />
	<path style="fill:none;stroke:red;stroke-width:1px;stroke-linecap:butt;stroke-linejoin:miter;stroke-opacity:1" d="M 792.693,698.049 827.746,698.049 z" id="boundary" inkscape:connector-curvature="0" />
	<path style="fill:none;stroke:red;stroke-width:1px;stroke-linecap:butt;stroke-linejoin:miter;stroke-opacity:1" d="M 827.746,698.049 862.799,698.049 z" id="boundary" inkscape:connector-curvature="0" />
	<path style="fill:none;stroke:red;stroke-width:1px;stroke-linecap:butt;stroke-linejoin:miter;stroke-opacity:1" d="M 862.799,698.049 897.852,698.049 z" id="boundary" inkscape:connector-curvature="0" />
	<path style="fill:none;stroke:red;stroke-width:1px;stroke-linecap:butt;stroke-linejoin:miter;stroke-opacity:1" d="M 897.852,698.049 932.905,698.049 z" id="boundary" inkscape:connector-curvature="0" />
	<path style="fill:none;stroke:red;stroke-width:1px;stroke-linecap:butt;stroke-linejoin:miter;stroke-opacity:1" d="M 932.905,698.049 915.378,729.597 z" id="boundary" inkscape:connector-curvature="0" />
	<path style="fill:none;stroke:red;stroke-width:1px;stroke-linecap:butt;stroke-linejoin:miter;stroke-opacity:1" d="M 915.378,729.597 880.325,729.597 z" id="boundary" inkscape:connector-curvature="0" />
	<path style="fill:none;stroke:red;stroke-width:1px;stroke-linecap:butt;stroke-linejoin:miter;stroke-opacity:1" d="M 880.325,729.597 845.272,729.597 z" id="boundary" inkscape:connector-curvature="0" />
	<path style="fill:none;stroke:red;stroke-width:1px;stroke-linecap:butt;stroke-linejoin:miter;stroke-opacity:1" d="M 845.272,729.597 810.219,729.597 z" id="boundary" inkscape:connector-curvature="0" />
	<path style="fill:none;stroke:red;stroke-width:1px;stroke-linecap:butt;stroke-linejoin:miter;stroke-opacity:1" d="M 810.219,729.597 775.166,729.597 z" id="boundary" inkscape:connector-curvature="0" />
	<path style="fill:none;stroke:red;stroke-width:1px;stroke-linecap:butt;stroke-linejoin:miter;stroke-opacity:1" d="M 775.166,729.597 740.113,729.597 z" id="boundary" inkscape:connector-curvature="0" />
	<path style="fill:none;stroke:red;stroke-width:1px;stroke-linecap:butt;stroke-linejoin:miter;stroke-opacity:1" d="M 740.113,729.597 705.06,729.597 z" id="boundary" inkscape:connector-curvature="0" />
	<path style="fill:none;stroke:red;stroke-width:1px;stroke-linecap:butt;stroke-linejoin:miter;stroke-opacity:1" d="M 705.06,729.597 670.007,729.597 z" id="boundary" inkscape:connector-curvature="0" />
	<path style="fill:none;stroke:red;stroke-width:1px;stroke-linecap:butt;stroke-linejoin:miter;stroke-opacity:1" d="M 670.007,729.597 634.954,729.597 z" id="boundary" inkscape:connector-curvature="0" />
	<path style="fill:none;stroke:red;stroke-width:1px;stroke-linecap:butt;stroke-linejoin:miter;stroke-opacity:1" d="M 634.954,729.597 599.901,729.597 z" id="boundary" inkscape:connector-curvature="0" />
	<path style="fill:none;stroke:red;stroke-width:1px;stroke-linecap:butt;stroke-linejoin:miter;stroke-opacity:1" d="M 599.901,729.597 547.322,733.102 z" id="boundary" inkscape:connector-curvature="0" />
	<path style="fill:none;stroke:red;stroke-width:1px;stroke-linecap:butt;stroke-linejoin:miter;stroke-opacity:1" d="M 547.322,733.102 547.322,768.155 z" id="boundary" inkscape:connector-curvature="0" />
	<path style="fill:none;stroke:red;stroke-width:1px;stroke-linecap:butt;stroke-linejoin:miter;stroke-opacity:1" d="M 547.322,768.155 550.827,803.208 z" id="boundary" inkscape:connector-curvature="0" />
	<path style="fill:none;stroke:red;stroke-width:1px;stroke-linecap:butt;stroke-linejoin:miter;stroke-opacity:1" d="M 550.827,803.208 585.88,803.208 z" id="boundary" inkscape:connector-curvature="0" />
	<path style="fill:none;stroke:red;stroke-width:1px;stroke-linecap:butt;stroke-linejoin:miter;stroke-opacity:1" d="M 585.88,803.208 620.933,803.208 z" id="boundary" inkscape:connector-curvature="0" />
	<path style="fill:none;stroke:red;stroke-width:1px;stroke-linecap:butt;stroke-linejoin:miter;stroke-opacity:1" d="M 620.933,803.208 655.986,803.208 z" id="boundary" inkscape:connector-curvature="0" />
	<path style="fill:none;stroke:red;stroke-width:1px;stroke-linecap:butt;stroke-linejoin:miter;stroke-opacity:1" d="M 655.986,803.208 691.039,803.208 z" id="boundary" inkscape:connector-curvature="0" />
	<path style="fill:none;stroke:red;stroke-width:1px;stroke-linecap:butt;stroke-linejoin:miter;stroke-opacity:1" d="M 691.039,803.208 726.092,803.208 z" id="boundary" inkscape:connector-curvature="0" />
	<path style="fill:none;stroke:red;stroke-width:1px;stroke-linecap:butt;stroke-linejoin:miter;stroke-opacity:1" d="M 726.092,803.208 761.145,803.208 z" id="boundary" inkscape:connector-curvature="0" />
	<path style="fill:none;stroke:red;stroke-width:1px;stroke-linecap:butt;stroke-linejoin:miter;stroke-opacity:1" d="M 761.145,803.208 796.198,803.208 z" id="boundary" inkscape:connector-curvature="0" />
	<path style="fill:none;stroke:red;stroke-width:1px;stroke-linecap:butt;stroke-linejoin:miter;stroke-opacity:1" d="M 796.198,803.208 831.251,803.208 z" id="boundary" inkscape:connector-curvature="0" />
	<path style="fill:none;stroke:red;stroke-width:1px;stroke-linecap:butt;stroke-linejoin:miter;stroke-opacity:1" d="M 831.251,803.208 866.304,803.208 z" id="boundary" inkscape:connector-curvature="0" />
	<path style="fill:none;stroke:red;stroke-width:1px;stroke-linecap:butt;stroke-linejoin:miter;stroke-opacity:1" d="M 866.304,803.208 901.357,803.208 z" id="boundary" inkscape:connector-curvature="0" />
	<path style="fill:none;stroke:red;stroke-width:1px;stroke-linecap:butt;stroke-linejoin:miter;stroke-opacity:1" d="M 901.357,803.208 936.41,803.208 z" id="boundary" inkscape:connector-curvature="0" />
	<path style="fill:none;stroke:red;stroke-width:1px;stroke-linecap:butt;stroke-linejoin:miter;stroke-opacity:1" d="M 936.41,803.208 971.463,803.208 z" id="boundary" inkscape:connector-curvature="0" />
	<path style="fill:none;stroke:red;stroke-width:1px;stroke-linecap:butt;stroke-linejoin:miter;stroke-opacity:1" d="M 971.463,803.208 996,831.251 z" id="boundary" inkscape:connector-curvature="0" />
	<circle cx="4" cy="810.219" r="4" fill="#0" id="circle0"/>
	<circle cx="4" cy="845.272" r="4" fill="#0" id="circle1"/>
	<circle cx="21.5265" cy="876.82" r="4" fill="#0" id="circle2"/>
	<circle cx="39.053" cy="803.208" r="4" fill="#0" id="circle3"/>
	<circle cx="56.5795" cy="887.336" r="4" fill="#0" id="circle4"/>
	<circle cx="74.106" cy="803.208" r="4" fill="#0" id="circle5"/>
	<circle cx="91.6325" cy="876.82" r="4" fill="#0" id="circle6"/>
	<circle cx="109.159" cy="803.208" r="4" fill="#0" id="circle7"/>
	<circle cx="116.17" cy="592.89" r="4" fill="#0" id="circle8"/>
	<circle cx="116.17" cy="698.049" r="4" fill="#0" id="circle9"/>
	<circle cx="126.686" cy="876.82" r="4" fill="#0" id="circle10"/>
	<circle cx="133.696" cy="729.597" r="4" fill="#0" id="circle11"/>
	<circle cx="144.212" cy="617.428" r="4" fill="#0" id="circle12"/>
	<circle cx="144.212" cy="803.208" r="4" fill="#0" id="circle13"/>
	<circle cx="151.223" cy="698.049" r="4" fill="#0" id="circle14"/>
	<circle cx="158.233" cy="11.0106" r="4" fill="#0" id="circle15"/>
	<circle cx="158.233" cy="46.0636" r="4" fill="#0" id="circle16"/>
	<circle cx="158.233" cy="81.1166" r="4" fill="#0" id="circle17"/>
	<circle cx="158.233" cy="116.17" r="4" fill="#0" id="circle18"/>
	<circle cx="158.233" cy="151.223" r="4" fill="#0" id="circle19"/>
	<circle cx="158.233" cy="186.276" r="4" fill="#0" id="circle20"/>
	<circle cx="158.233" cy="221.329" r="4" fill="#0" id="circle21"/>
	<circle cx="158.233" cy="256.382" r="4" fill="#0" id="circle22"/>
	<circle cx="158.233" cy="291.435" r="4" fill="#0" id="circle23"/>
	<circle cx="158.233" cy="326.488" r="4" fill="#0" id="circle24"/>
	<circle cx="158.233" cy="361.541" r="4" fill="#0" id="circle25"/>
	<circle cx="158.233" cy="396.594" r="4" fill="#0" id="circle26"/>
	<circle cx="158.233" cy="431.647" r="4" fill="#0" id="circle27"/>
	<circle cx="161.739" cy="466.7" r="4" fill="#0" id="circle28"/>
	<circle cx="161.739" cy="585.88" r="4" fill="#0" id="circle29"/>
	<circle cx="161.739" cy="876.82" r="4" fill="#0" id="circle30"/>
	<circle cx="168.749" cy="729.597" r="4" fill="#0" id="circle31"/>
	<circle cx="179.265" cy="617.428" r="4" fill="#0" id="circle32"/>
	<circle cx="179.265" cy="803.208" r="4" fill="#0" id="circle33"/>
	<circle cx="186.276" cy="698.049" r="4" fill="#0" id="circle34"/>
	<circle cx="193.286" cy="4" r="4" fill="#0" id="circle35"/>
	<circle cx="196.792" cy="470.205" r="4" fill="#0" id="circle36"/>
	<circle cx="196.792" cy="585.88" r="4" fill="#0" id="circle37"/>
	<circle cx="196.792" cy="876.82" r="4" fill="#0" id="circle38"/>
	<circle cx="203.802" cy="729.597" r="4" fill="#0" id="circle39"/>
	<circle cx="214.318" cy="617.428" r="4" fill="#0" id="circle40"/>
	<circle cx="214.318" cy="803.208" r="4" fill="#0" id="circle41"/>
	<circle cx="221.329" cy="698.049" r="4" fill="#0" id="circle42"/>
	<circle cx="228.339" cy="4" r="4" fill="#0" id="circle43"/>
	<circle cx="231.845" cy="470.205" r="4" fill="#0" id="circle44"/>
	<circle cx="231.845" cy="585.88" r="4" fill="#0" id="circle45"/>
	<circle cx="231.845" cy="887.336" r="4" fill="#0" id="circle46"/>
	<circle cx="238.855" cy="729.597" r="4" fill="#0" id="circle47"/>
	<circle cx="249.371" cy="617.428" r="4" fill="#0" id="circle48"/>
	<circle cx="249.371" cy="803.208" r="4" fill="#0" id="circle49"/>
	<circle cx="256.382" cy="698.049" r="4" fill="#0" id="circle50"/>
	<circle cx="263.392" cy="4" r="4" fill="#0" id="circle51"/>
	<circle cx="266.898" cy="470.205" r="4" fill="#0" id="circle52"/>
	<circle cx="266.898" cy="585.88" r="4" fill="#0" id="circle53"/>
	<circle cx="266.898" cy="876.82" r="4" fill="#0" id="circle54"/>
	<circle cx="273.908" cy="729.597" r="4" fill="#0" id="circle55"/>
	<circle cx="284.424" cy="617.428" r="4" fill="#0" id="circle56"/>
	<circle cx="284.424" cy="803.208" r="4" fill="#0" id="circle57"/>
	<circle cx="291.435" cy="698.049" r="4" fill="#0" id="circle58"/>
	<circle cx="298.445" cy="4" r="4" fill="#0" id="circle59"/>
	<circle cx="301.951" cy="470.205" r="4" fill="#0" id="circle60"/>
	<circle cx="301.951" cy="585.88" r="4" fill="#0" id="circle61"/>
	<circle cx="301.951" cy="876.82" r="4" fill="#0" id="circle62"/>
	<circle cx="308.961" cy="729.597" r="4" fill="#0" id="circle63"/>
	<circle cx="319.477" cy="617.428" r="4" fill="#0" id="circle64"/>
	<circle cx="319.477" cy="803.208" r="4" fill="#0" id="circle65"/>
	<circle cx="326.488" cy="698.049" r="4" fill="#0" id="circle66"/>
	<circle cx="333.498" cy="4" r="4" fill="#0" id="circle67"/>
	<circle cx="337.004" cy="470.205" r="4" fill="#0" id="circle68"/>
	<circle cx="337.004" cy="585.88" r="4" fill="#0" id="circle69"/>
	<circle cx="337.004" cy="876.82" r="4" fill="#0" id="circle70"/>
	<circle cx="344.014" cy="729.597" r="4" fill="#0" id="circle71"/>
	<circle cx="354.53" cy="501.753" r="4" fill="#0" id="circle72"/>
	<circle cx="354.53" cy="536.806" r="4" fill="#0" id="circle73"/>
	<circle cx="354.53" cy="620.933" r="4" fill="#0" id="circle74"/>
	<circle cx="354.53" cy="655.986" r="4" fill="#0" id="circle75"/>
	<circle cx="354.53" cy="764.65" r="4" fill="#0" id="circle76"/>
	<circle cx="354.53" cy="799.703" r="4" fill="#0" id="circle77"/>
	<circle cx="368.551" cy="4" r="4" fill="#0" id="circle78"/>
	<circle cx="372.057" cy="876.82" r="4" fill="#0" id="circle79"/>
	<circle cx="403.604" cy="4" r="4" fill="#0" id="circle80"/>
	<circle cx="407.11" cy="876.82" r="4" fill="#0" id="circle81"/>
	<circle cx="438.657" cy="4" r="4" fill="#0" id="circle82"/>
	<circle cx="442.163" cy="876.82" r="4" fill="#0" id="circle83"/>
	<circle cx="473.71" cy="4" r="4" fill="#0" id="circle84"/>
	<circle cx="477.216" cy="876.82" r="4" fill="#0" id="circle85"/>
	<circle cx="508.763" cy="4" r="4" fill="#0" id="circle86"/>
	<circle cx="512.269" cy="876.82" r="4" fill="#0" id="circle87"/>
	<circle cx="543.816" cy="4" r="4" fill="#0" id="circle88"/>
	<circle cx="547.322" cy="473.71" r="4" fill="#0" id="circle89"/>
	<circle cx="547.322" cy="508.763" r="4" fill="#0" id="circle90"/>
	<circle cx="547.322" cy="543.816" r="4" fill="#0" id="circle91"/>
	<circle cx="547.322" cy="578.869" r="4" fill="#0" id="circle92"/>
	<circle cx="547.322" cy="620.933" r="4" fill="#0" id="circle93"/>
	<circle cx="547.322" cy="655.986" r="4" fill="#0" id="circle94"/>
	<circle cx="547.322" cy="691.039" r="4" fill="#0" id="circle95"/>
	<circle cx="547.322" cy="733.102" r="4" fill="#0" id="circle96"/>
	<circle cx="547.322" cy="768.155" r="4" fill="#0" id="circle97"/>
	<circle cx="547.322" cy="876.82" r="4" fill="#0" id="circle98"/>
	<circle cx="550.827" cy="803.208" r="4" fill="#0" id="circle99"/>
	<circle cx="578.869" cy="4" r="4" fill="#0" id="circle100"/>
	<circle cx="582.375" cy="470.205" r="4" fill="#0" id="circle101"/>
	<circle cx="582.375" cy="585.88" r="4" fill="#0" id="circle102"/>
	<circle cx="582.375" cy="698.049" r="4" fill="#0" id="circle103"/>
	<circle cx="582.375" cy="876.82" r="4" fill="#0" id="circle104"/>
	<circle cx="585.88" cy="803.208" r="4" fill="#0" id="circle105"/>
	<circle cx="599.901" cy="617.428" r="4" fill="#0" id="circle106"/>
	<circle cx="599.901" cy="729.597" r="4" fill="#0" id="circle107"/>
	<circle cx="613.922" cy="4" r="4" fill="#0" id="circle108"/>
	<circle cx="617.428" cy="470.205" r="4" fill="#0" id="circle109"/>
	<circle cx="617.428" cy="585.88" r="4" fill="#0" id="circle110"/>
	<circle cx="617.428" cy="698.049" r="4" fill="#0" id="circle111"/>
	<circle cx="617.428" cy="876.82" r="4" fill="#0" id="circle112"/>
	<circle cx="620.933" cy="803.208" r="4" fill="#0" id="circle113"/>
	<circle cx="634.954" cy="617.428" r="4" fill="#0" id="circle114"/>
	<circle cx="634.954" cy="729.597" r="4" fill="#0" id="circle115"/>
	<circle cx="648.975" cy="4" r="4" fill="#0" id="circle116"/>
	<circle cx="652.481" cy="470.205" r="4" fill="#0" id="circle117"/>
	<circle cx="652.481" cy="585.88" r="4" fill="#0" id="circle118"/>
	<circle cx="652.481" cy="698.049" r="4" fill="#0" id="circle119"/>
	<circle cx="652.481" cy="876.82" r="4" fill="#0" id="circle120"/>
	<circle cx="655.986" cy="803.208" r="4" fill="#0" id="circle121"/>
	<circle cx="670.007" cy="617.428" r="4" fill="#0" id="circle122"/>
	<circle cx="670.007" cy="729.597" r="4" fill="#0" id="circle123"/>
	<circle cx="684.028" cy="4" r="4" fill="#0" id="circle124"/>
	<circle cx="687.534" cy="470.205" r="4" fill="#0" id="circle125"/>
	<circle cx="687.534" cy="585.88" r="4" fill="#0" id="circle126"/>
	<circle cx="687.534" cy="698.049" r="4" fill="#0" id="circle127"/>
	<circle cx="687.534" cy="876.82" r="4" fill="#0" id="circle128"/>
	<circle cx="691.039" cy="803.208" r="4" fill="#0" id="circle129"/>
	<circle cx="705.06" cy="617.428" r="4" fill="#0" id="circle130"/>
	<circle cx="705.06" cy="729.597" r="4" fill="#0" id="circle131"/>
	<circle cx="719.081" cy="4" r="4" fill="#0" id="circle132"/>
	<circle cx="722.587" cy="470.205" r="4" fill="#0" id="circle133"/>
	<circle cx="722.587" cy="585.88" r="4" fill="#0" id="circle134"/>
	<circle cx="722.587" cy="698.049" r="4" fill="#0" id="circle135"/>
	<circle cx="722.587" cy="876.82" r="4" fill="#0" id="circle136"/>
	<circle cx="726.092" cy="803.208" r="4" fill="#0" id="circle137"/>
	<circle cx="740.113" cy="617.428" r="4" fill="#0" id="circle138"/>
	<circle cx="740.113" cy="729.597" r="4" fill="#0" id="circle139"/>
	<circle cx="754.134" cy="4" r="4" fill="#0" id="circle140"/>
	<circle cx="757.64" cy="470.205" r="4" fill="#0" id="circle141"/>
	<circle cx="757.64" cy="585.88" r="4" fill="#0" id="circle142"/>
	<circle cx="757.64" cy="698.049" r="4" fill="#0" id="circle143"/>
	<circle cx="757.64" cy="876.82" r="4" fill="#0" id="circle144"/>
	<circle cx="761.145" cy="803.208" r="4" fill="#0" id="circle145"/>
	<circle cx="775.166" cy="617.428" r="4" fill="#0" id="circle146"/>
	<circle cx="775.166" cy="729.597" r="4" fill="#0" id="circle147"/>
	<circle cx="789.187" cy="4" r="4" fill="#0" id="circle148"/>
	<circle cx="792.693" cy="470.205" r="4" fill="#0" id="circle149"/>
	<circle cx="792.693" cy="585.88" r="4" fill="#0" id="circle150"/>
	<circle cx="792.693" cy="698.049" r="4" fill="#0" id="circle151"/>
	<circle cx="792.693" cy="876.82" r="4" fill="#0" id="circle152"/>
	<circle cx="796.198" cy="803.208" r="4" fill="#0" id="circle153"/>
	<circle cx="810.219" cy="617.428" r="4" fill="#0" id="circle154"/>
	<circle cx="810.219" cy="729.597" r="4" fill="#0" id="circle155"/>
	<circle cx="820.735" cy="21.5265" r="4" fill="#0" id="circle156"/>
	<circle cx="820.735" cy="56.5795" r="4" fill="#0" id="circle157"/>
	<circle cx="820.735" cy="91.6325" r="4" fill="#0" id="circle158"/>
	<circle cx="820.735" cy="126.686" r="4" fill="#0" id="circle159"/>
	<circle cx="820.735" cy="161.739" r="4" fill="#0" id="circle160"/>
	<circle cx="820.735" cy="196.792" r="4" fill="#0" id="circle161"/>
	<circle cx="820.735" cy="231.845" r="4" fill="#0" id="circle162"/>
	<circle cx="820.735" cy="266.898" r="4" fill="#0" id="circle163"/>
	<circle cx="820.735" cy="301.951" r="4" fill="#0" id="circle164"/>
	<circle cx="820.735" cy="337.004" r="4" fill="#0" id="circle165"/>
	<circle cx="820.735" cy="372.057" r="4" fill="#0" id="circle166"/>
	<circle cx="820.735" cy="407.11" r="4" fill="#0" id="circle167"/>
	<circle cx="820.735" cy="442.163" r="4" fill="#0" id="circle168"/>
	<circle cx="827.746" cy="585.88" r="4" fill="#0" id="circle169"/>
	<circle cx="827.746" cy="698.049" r="4" fill="#0" id="circle170"/>
	<circle cx="827.746" cy="876.82" r="4" fill="#0" id="circle171"/>
	<circle cx="831.251" cy="803.208" r="4" fill="#0" id="circle172"/>
	<circle cx="845.272" cy="617.428" r="4" fill="#0" id="circle173"/>
	<circle cx="845.272" cy="729.597" r="4" fill="#0" id="circle174"/>
	<circle cx="862.799" cy="585.88" r="4" fill="#0" id="circle175"/>
	<circle cx="862.799" cy="698.049" r="4" fill="#0" id="circle176"/>
	<circle cx="862.799" cy="876.82" r="4" fill="#0" id="circle177"/>
	<circle cx="866.304" cy="803.208" r="4" fill="#0" id="circle178"/>
	<circle cx="880.325" cy="617.428" r="4" fill="#0" id="circle179"/>
	<circle cx="880.325" cy="729.597" r="4" fill="#0" id="circle180"/>
	<circle cx="897.852" cy="585.88" r="4" fill="#0" id="circle181"/>
	<circle cx="897.852" cy="698.049" r="4" fill="#0" id="circle182"/>
	<circle cx="897.852" cy="876.82" r="4" fill="#0" id="circle183"/>
	<circle cx="901.357" cy="803.208" r="4" fill="#0" id="circle184"/>
	<circle cx="915.378" cy="617.428" r="4" fill="#0" id="circle185"/>
	<circle cx="915.378" cy="729.597" r="4" fill="#0" id="circle186"/>
	<circle cx="932.905" cy="585.88" r="4" fill="#0" id="circle187"/>
	<circle cx="932.905" cy="698.049" r="4" fill="#0" id="circle188"/>
	<circle cx="932.905" cy="883.83" r="4" fill="#0" id="circle189"/>
	<circle cx="936.41" cy="803.208" r="4" fill="#0" id="circle190"/>
	<circle cx="950.431" cy="617.428" r="4" fill="#0" id="circle191"/>
	<circle cx="967.958" cy="880.325" r="4" fill="#0" id="circle192"/>
	<circle cx="971.463" cy="803.208" r="4" fill="#0" id="circle193"/>
	<circle cx="996" cy="831.251" r="4" fill="#0" id="circle194"/>
	</g>
</svg>