<?xml version="1.0" encoding="UTF-8" standalone="no"?>
<!-- Created with CurveBenchmark -->
<svg
	xmlns:dc="http://purl.org/dc/elements/1.1/"
	xmlns:cc="http://creativecommons.org/ns#"
	xmlns:rdf="http://www.w3.org/1999/02/22-rdf-syntax-ns#"
	xmlns:svg="http://www.w3.org/2000/svg"
	xmlns="http://www.w3.org/2000/svg"
	xmlns:sodipodi="http://sodipodi.sourceforge.net/DTD/sodipodi-0.dtd"
	xmlns:inkscape="http://www.inkscape.org/namespaces/inkscape"
	width="1000"
	height="1000"
	id="svg2"
	version="1.1"
	sodipodi:docname="manifold/connect2d-bird55.png.txt">
<defs
	id="defs4" />
<metadata
	id="metadata7">
	<rdf:RDF>
		<cc:Work
			rdf:about="">
			<dc:format>image/svg+xml</dc:format>
			<dc:type
				rdf:resource="http://purl.org/dc/dcmitype/StillImage" />
			<dc:title></dc:title>
		</cc:Work>
	</rdf:RDF>
</metadata>
<g
	inkscape:label="Layer 1"
	inkscape:groupmode="layer"
	id="layer1">
	<path style="fill:none;stroke:red;stroke-width:1px;stroke-linecap:butt;stroke-linejoin:miter;stroke-opacity:1" d="M 994.611,4 996,30.3978 z" id="boundary" inkscape:connector-curvature="0" />
	<path style="fill:none;stroke:red;stroke-width:1px;stroke-linecap:butt;stroke-linejoin:miter;stroke-opacity:1" d="M 996,30.3978 989.053,44.2913 z" id="boundary" inkscape:connector-curvature="0" />
	<path style="fill:none;stroke:red;stroke-width:1px;stroke-linecap:butt;stroke-linejoin:miter;stroke-opacity:1" d="M 989.053,44.2913 977.938,54.0168 z" id="boundary" inkscape:connector-curvature="0" />
	<path style="fill:none;stroke:red;stroke-width:1px;stroke-linecap:butt;stroke-linejoin:miter;stroke-opacity:1" d="M 977.938,54.0168 970.992,67.9104 z" id="boundary" inkscape:connector-curvature="0" />
	<path style="fill:none;stroke:red;stroke-width:1px;stroke-linecap:butt;stroke-linejoin:miter;stroke-opacity:1" d="M 970.992,67.9104 957.098,74.8571 z" id="boundary" inkscape:connector-curvature="0" />
	<path style="fill:none;stroke:red;stroke-width:1px;stroke-linecap:butt;stroke-linejoin:miter;stroke-opacity:1" d="M 957.098,74.8571 944.594,88.7507 z" id="boundary" inkscape:connector-curvature="0" />
	<path style="fill:none;stroke:red;stroke-width:1px;stroke-linecap:butt;stroke-linejoin:miter;stroke-opacity:1" d="M 944.594,88.7507 932.09,95.6975 z" id="boundary" inkscape:connector-curvature="0" />
	<path style="fill:none;stroke:red;stroke-width:1px;stroke-linecap:butt;stroke-linejoin:miter;stroke-opacity:1" d="M 932.09,95.6975 925.143,108.202 z" id="boundary" inkscape:connector-curvature="0" />
	<path style="fill:none;stroke:red;stroke-width:1px;stroke-linecap:butt;stroke-linejoin:miter;stroke-opacity:1" d="M 925.143,108.202 914.028,116.538 z" id="boundary" inkscape:connector-curvature="0" />
	<path style="fill:none;stroke:red;stroke-width:1px;stroke-linecap:butt;stroke-linejoin:miter;stroke-opacity:1" d="M 914.028,116.538 905.692,127.653 z" id="boundary" inkscape:connector-curvature="0" />
	<path style="fill:none;stroke:red;stroke-width:1px;stroke-linecap:butt;stroke-linejoin:miter;stroke-opacity:1" d="M 905.692,127.653 894.577,137.378 z" id="boundary" inkscape:connector-curvature="0" />
	<path style="fill:none;stroke:red;stroke-width:1px;stroke-linecap:butt;stroke-linejoin:miter;stroke-opacity:1" d="M 894.577,137.378 887.63,151.272 z" id="boundary" inkscape:connector-curvature="0" />
	<path style="fill:none;stroke:red;stroke-width:1px;stroke-linecap:butt;stroke-linejoin:miter;stroke-opacity:1" d="M 887.63,151.272 880.683,172.112 z" id="boundary" inkscape:connector-curvature="0" />
	<path style="fill:none;stroke:red;stroke-width:1px;stroke-linecap:butt;stroke-linejoin:miter;stroke-opacity:1" d="M 880.683,172.112 873.737,186.006 z" id="boundary" inkscape:connector-curvature="0" />
	<path style="fill:none;stroke:red;stroke-width:1px;stroke-linecap:butt;stroke-linejoin:miter;stroke-opacity:1" d="M 873.737,186.006 866.79,199.899 z" id="boundary" inkscape:connector-curvature="0" />
	<path style="fill:none;stroke:red;stroke-width:1px;stroke-linecap:butt;stroke-linejoin:miter;stroke-opacity:1" d="M 866.79,199.899 859.843,220.739 z" id="boundary" inkscape:connector-curvature="0" />
	<path style="fill:none;stroke:red;stroke-width:1px;stroke-linecap:butt;stroke-linejoin:miter;stroke-opacity:1" d="M 859.843,220.739 852.896,234.633 z" id="boundary" inkscape:connector-curvature="0" />
	<path style="fill:none;stroke:red;stroke-width:1px;stroke-linecap:butt;stroke-linejoin:miter;stroke-opacity:1" d="M 852.896,234.633 845.95,248.527 z" id="boundary" inkscape:connector-curvature="0" />
	<path style="fill:none;stroke:red;stroke-width:1px;stroke-linecap:butt;stroke-linejoin:miter;stroke-opacity:1" d="M 845.95,248.527 839.003,262.42 z" id="boundary" inkscape:connector-curvature="0" />
	<path style="fill:none;stroke:red;stroke-width:1px;stroke-linecap:butt;stroke-linejoin:miter;stroke-opacity:1" d="M 839.003,262.42 825.109,269.367 z" id="boundary" inkscape:connector-curvature="0" />
	<path style="fill:none;stroke:red;stroke-width:1px;stroke-linecap:butt;stroke-linejoin:miter;stroke-opacity:1" d="M 825.109,269.367 816.773,283.261 z" id="boundary" inkscape:connector-curvature="0" />
	<path style="fill:none;stroke:red;stroke-width:1px;stroke-linecap:butt;stroke-linejoin:miter;stroke-opacity:1" d="M 816.773,283.261 804.269,290.207 z" id="boundary" inkscape:connector-curvature="0" />
	<path style="fill:none;stroke:red;stroke-width:1px;stroke-linecap:butt;stroke-linejoin:miter;stroke-opacity:1" d="M 804.269,290.207 797.322,304.101 z" id="boundary" inkscape:connector-curvature="0" />
	<path style="fill:none;stroke:red;stroke-width:1px;stroke-linecap:butt;stroke-linejoin:miter;stroke-opacity:1" d="M 797.322,304.101 790.375,317.994 z" id="boundary" inkscape:connector-curvature="0" />
	<path style="fill:none;stroke:red;stroke-width:1px;stroke-linecap:butt;stroke-linejoin:miter;stroke-opacity:1" d="M 790.375,317.994 783.429,331.888 z" id="boundary" inkscape:connector-curvature="0" />
	<path style="fill:none;stroke:red;stroke-width:1px;stroke-linecap:butt;stroke-linejoin:miter;stroke-opacity:1" d="M 783.429,331.888 780.65,349.95 z" id="boundary" inkscape:connector-curvature="0" />
	<path style="fill:none;stroke:red;stroke-width:1px;stroke-linecap:butt;stroke-linejoin:miter;stroke-opacity:1" d="M 780.65,349.95 769.535,359.675 z" id="boundary" inkscape:connector-curvature="0" />
	<path style="fill:none;stroke:red;stroke-width:1px;stroke-linecap:butt;stroke-linejoin:miter;stroke-opacity:1" d="M 769.535,359.675 762.588,373.569 z" id="boundary" inkscape:connector-curvature="0" />
	<path style="fill:none;stroke:red;stroke-width:1px;stroke-linecap:butt;stroke-linejoin:miter;stroke-opacity:1" d="M 762.588,373.569 759.81,391.63 z" id="boundary" inkscape:connector-curvature="0" />
	<path style="fill:none;stroke:red;stroke-width:1px;stroke-linecap:butt;stroke-linejoin:miter;stroke-opacity:1" d="M 759.81,391.63 748.695,401.356 z" id="boundary" inkscape:connector-curvature="0" />
	<path style="fill:none;stroke:red;stroke-width:1px;stroke-linecap:butt;stroke-linejoin:miter;stroke-opacity:1" d="M 748.695,401.356 741.748,415.249 z" id="boundary" inkscape:connector-curvature="0" />
	<path style="fill:none;stroke:red;stroke-width:1px;stroke-linecap:butt;stroke-linejoin:miter;stroke-opacity:1" d="M 741.748,415.249 734.801,429.143 z" id="boundary" inkscape:connector-curvature="0" />
	<path style="fill:none;stroke:red;stroke-width:1px;stroke-linecap:butt;stroke-linejoin:miter;stroke-opacity:1" d="M 734.801,429.143 720.908,436.09 z" id="boundary" inkscape:connector-curvature="0" />
	<path style="fill:none;stroke:red;stroke-width:1px;stroke-linecap:butt;stroke-linejoin:miter;stroke-opacity:1" d="M 720.908,436.09 720.908,449.983 z" id="boundary" inkscape:connector-curvature="0" />
	<path style="fill:none;stroke:red;stroke-width:1px;stroke-linecap:butt;stroke-linejoin:miter;stroke-opacity:1" d="M 720.908,449.983 727.854,462.487 z" id="boundary" inkscape:connector-curvature="0" />
	<path style="fill:none;stroke:red;stroke-width:1px;stroke-linecap:butt;stroke-linejoin:miter;stroke-opacity:1" d="M 727.854,462.487 741.748,466.655 z" id="boundary" inkscape:connector-curvature="0" />
	<path style="fill:none;stroke:red;stroke-width:1px;stroke-linecap:butt;stroke-linejoin:miter;stroke-opacity:1" d="M 741.748,466.655 751.473,477.77 z" id="boundary" inkscape:connector-curvature="0" />
	<path style="fill:none;stroke:red;stroke-width:1px;stroke-linecap:butt;stroke-linejoin:miter;stroke-opacity:1" d="M 751.473,477.77 755.641,491.664 z" id="boundary" inkscape:connector-curvature="0" />
	<path style="fill:none;stroke:red;stroke-width:1px;stroke-linecap:butt;stroke-linejoin:miter;stroke-opacity:1" d="M 755.641,491.664 762.588,504.168 z" id="boundary" inkscape:connector-curvature="0" />
	<path style="fill:none;stroke:red;stroke-width:1px;stroke-linecap:butt;stroke-linejoin:miter;stroke-opacity:1" d="M 762.588,504.168 762.588,518.062 z" id="boundary" inkscape:connector-curvature="0" />
	<path style="fill:none;stroke:red;stroke-width:1px;stroke-linecap:butt;stroke-linejoin:miter;stroke-opacity:1" d="M 762.588,518.062 769.535,530.566 z" id="boundary" inkscape:connector-curvature="0" />
	<path style="fill:none;stroke:red;stroke-width:1px;stroke-linecap:butt;stroke-linejoin:miter;stroke-opacity:1" d="M 769.535,530.566 762.588,547.238 z" id="boundary" inkscape:connector-curvature="0" />
	<path style="fill:none;stroke:red;stroke-width:1px;stroke-linecap:butt;stroke-linejoin:miter;stroke-opacity:1" d="M 762.588,547.238 755.641,568.078 z" id="boundary" inkscape:connector-curvature="0" />
	<path style="fill:none;stroke:red;stroke-width:1px;stroke-linecap:butt;stroke-linejoin:miter;stroke-opacity:1" d="M 755.641,568.078 755.641,581.972 z" id="boundary" inkscape:connector-curvature="0" />
	<path style="fill:none;stroke:red;stroke-width:1px;stroke-linecap:butt;stroke-linejoin:miter;stroke-opacity:1" d="M 755.641,581.972 748.695,595.866 z" id="boundary" inkscape:connector-curvature="0" />
	<path style="fill:none;stroke:red;stroke-width:1px;stroke-linecap:butt;stroke-linejoin:miter;stroke-opacity:1" d="M 748.695,595.866 748.695,609.759 z" id="boundary" inkscape:connector-curvature="0" />
	<path style="fill:none;stroke:red;stroke-width:1px;stroke-linecap:butt;stroke-linejoin:miter;stroke-opacity:1" d="M 748.695,609.759 748.695,623.653 z" id="boundary" inkscape:connector-curvature="0" />
	<path style="fill:none;stroke:red;stroke-width:1px;stroke-linecap:butt;stroke-linejoin:miter;stroke-opacity:1" d="M 748.695,623.653 748.695,637.546 z" id="boundary" inkscape:connector-curvature="0" />
	<path style="fill:none;stroke:red;stroke-width:1px;stroke-linecap:butt;stroke-linejoin:miter;stroke-opacity:1" d="M 748.695,637.546 751.473,651.44 z" id="boundary" inkscape:connector-curvature="0" />
	<path style="fill:none;stroke:red;stroke-width:1px;stroke-linecap:butt;stroke-linejoin:miter;stroke-opacity:1" d="M 751.473,651.44 740.359,665.333 z" id="boundary" inkscape:connector-curvature="0" />
	<path style="fill:none;stroke:red;stroke-width:1px;stroke-linecap:butt;stroke-linejoin:miter;stroke-opacity:1" d="M 740.359,665.333 726.465,665.333 z" id="boundary" inkscape:connector-curvature="0" />
	<path style="fill:none;stroke:red;stroke-width:1px;stroke-linecap:butt;stroke-linejoin:miter;stroke-opacity:1" d="M 726.465,665.333 712.571,661.165 z" id="boundary" inkscape:connector-curvature="0" />
	<path style="fill:none;stroke:red;stroke-width:1px;stroke-linecap:butt;stroke-linejoin:miter;stroke-opacity:1" d="M 712.571,661.165 712.571,647.272 z" id="boundary" inkscape:connector-curvature="0" />
	<path style="fill:none;stroke:red;stroke-width:1px;stroke-linecap:butt;stroke-linejoin:miter;stroke-opacity:1" d="M 712.571,647.272 719.518,626.431 z" id="boundary" inkscape:connector-curvature="0" />
	<path style="fill:none;stroke:red;stroke-width:1px;stroke-linecap:butt;stroke-linejoin:miter;stroke-opacity:1" d="M 719.518,626.431 726.465,605.591 z" id="boundary" inkscape:connector-curvature="0" />
	<path style="fill:none;stroke:red;stroke-width:1px;stroke-linecap:butt;stroke-linejoin:miter;stroke-opacity:1" d="M 726.465,605.591 726.465,591.697 z" id="boundary" inkscape:connector-curvature="0" />
	<path style="fill:none;stroke:red;stroke-width:1px;stroke-linecap:butt;stroke-linejoin:miter;stroke-opacity:1" d="M 726.465,591.697 733.412,577.804 z" id="boundary" inkscape:connector-curvature="0" />
	<path style="fill:none;stroke:red;stroke-width:1px;stroke-linecap:butt;stroke-linejoin:miter;stroke-opacity:1" d="M 733.412,577.804 733.412,563.91 z" id="boundary" inkscape:connector-curvature="0" />
	<path style="fill:none;stroke:red;stroke-width:1px;stroke-linecap:butt;stroke-linejoin:miter;stroke-opacity:1" d="M 733.412,563.91 733.412,550.017 z" id="boundary" inkscape:connector-curvature="0" />
	<path style="fill:none;stroke:red;stroke-width:1px;stroke-linecap:butt;stroke-linejoin:miter;stroke-opacity:1" d="M 733.412,550.017 740.359,537.513 z" id="boundary" inkscape:connector-curvature="0" />
	<path style="fill:none;stroke:red;stroke-width:1px;stroke-linecap:butt;stroke-linejoin:miter;stroke-opacity:1" d="M 740.359,537.513 740.359,523.619 z" id="boundary" inkscape:connector-curvature="0" />
	<path style="fill:none;stroke:red;stroke-width:1px;stroke-linecap:butt;stroke-linejoin:miter;stroke-opacity:1" d="M 740.359,523.619 733.412,511.115 z" id="boundary" inkscape:connector-curvature="0" />
	<path style="fill:none;stroke:red;stroke-width:1px;stroke-linecap:butt;stroke-linejoin:miter;stroke-opacity:1" d="M 733.412,511.115 733.412,497.221 z" id="boundary" inkscape:connector-curvature="0" />
	<path style="fill:none;stroke:red;stroke-width:1px;stroke-linecap:butt;stroke-linejoin:miter;stroke-opacity:1" d="M 733.412,497.221 730.633,483.328 z" id="boundary" inkscape:connector-curvature="0" />
	<path style="fill:none;stroke:red;stroke-width:1px;stroke-linecap:butt;stroke-linejoin:miter;stroke-opacity:1" d="M 730.633,483.328 716.739,477.77 z" id="boundary" inkscape:connector-curvature="0" />
	<path style="fill:none;stroke:red;stroke-width:1px;stroke-linecap:butt;stroke-linejoin:miter;stroke-opacity:1" d="M 716.739,477.77 704.235,470.824 z" id="boundary" inkscape:connector-curvature="0" />
	<path style="fill:none;stroke:red;stroke-width:1px;stroke-linecap:butt;stroke-linejoin:miter;stroke-opacity:1" d="M 704.235,470.824 690.342,474.992 z" id="boundary" inkscape:connector-curvature="0" />
	<path style="fill:none;stroke:red;stroke-width:1px;stroke-linecap:butt;stroke-linejoin:miter;stroke-opacity:1" d="M 690.342,474.992 676.448,477.77 z" id="boundary" inkscape:connector-curvature="0" />
	<path style="fill:none;stroke:red;stroke-width:1px;stroke-linecap:butt;stroke-linejoin:miter;stroke-opacity:1" d="M 676.448,477.77 663.944,484.717 z" id="boundary" inkscape:connector-curvature="0" />
	<path style="fill:none;stroke:red;stroke-width:1px;stroke-linecap:butt;stroke-linejoin:miter;stroke-opacity:1" d="M 663.944,484.717 651.44,491.664 z" id="boundary" inkscape:connector-curvature="0" />
	<path style="fill:none;stroke:red;stroke-width:1px;stroke-linecap:butt;stroke-linejoin:miter;stroke-opacity:1" d="M 651.44,491.664 651.44,505.557 z" id="boundary" inkscape:connector-curvature="0" />
	<path style="fill:none;stroke:red;stroke-width:1px;stroke-linecap:butt;stroke-linejoin:miter;stroke-opacity:1" d="M 651.44,505.557 651.44,519.451 z" id="boundary" inkscape:connector-curvature="0" />
	<path style="fill:none;stroke:red;stroke-width:1px;stroke-linecap:butt;stroke-linejoin:miter;stroke-opacity:1" d="M 651.44,519.451 651.44,533.345 z" id="boundary" inkscape:connector-curvature="0" />
	<path style="fill:none;stroke:red;stroke-width:1px;stroke-linecap:butt;stroke-linejoin:miter;stroke-opacity:1" d="M 651.44,533.345 644.493,547.238 z" id="boundary" inkscape:connector-curvature="0" />
	<path style="fill:none;stroke:red;stroke-width:1px;stroke-linecap:butt;stroke-linejoin:miter;stroke-opacity:1" d="M 644.493,547.238 637.546,568.078 z" id="boundary" inkscape:connector-curvature="0" />
	<path style="fill:none;stroke:red;stroke-width:1px;stroke-linecap:butt;stroke-linejoin:miter;stroke-opacity:1" d="M 637.546,568.078 627.821,586.14 z" id="boundary" inkscape:connector-curvature="0" />
	<path style="fill:none;stroke:red;stroke-width:1px;stroke-linecap:butt;stroke-linejoin:miter;stroke-opacity:1" d="M 627.821,586.14 620.874,600.034 z" id="boundary" inkscape:connector-curvature="0" />
	<path style="fill:none;stroke:red;stroke-width:1px;stroke-linecap:butt;stroke-linejoin:miter;stroke-opacity:1" d="M 620.874,600.034 609.759,609.759 z" id="boundary" inkscape:connector-curvature="0" />
	<path style="fill:none;stroke:red;stroke-width:1px;stroke-linecap:butt;stroke-linejoin:miter;stroke-opacity:1" d="M 609.759,609.759 606.98,627.821 z" id="boundary" inkscape:connector-curvature="0" />
	<path style="fill:none;stroke:red;stroke-width:1px;stroke-linecap:butt;stroke-linejoin:miter;stroke-opacity:1" d="M 606.98,627.821 595.866,637.546 z" id="boundary" inkscape:connector-curvature="0" />
	<path style="fill:none;stroke:red;stroke-width:1px;stroke-linecap:butt;stroke-linejoin:miter;stroke-opacity:1" d="M 595.866,637.546 595.866,651.44 z" id="boundary" inkscape:connector-curvature="0" />
	<path style="fill:none;stroke:red;stroke-width:1px;stroke-linecap:butt;stroke-linejoin:miter;stroke-opacity:1" d="M 595.866,651.44 595.866,665.333 z" id="boundary" inkscape:connector-curvature="0" />
	<path style="fill:none;stroke:red;stroke-width:1px;stroke-linecap:butt;stroke-linejoin:miter;stroke-opacity:1" d="M 595.866,665.333 581.972,679.227 z" id="boundary" inkscape:connector-curvature="0" />
	<path style="fill:none;stroke:red;stroke-width:1px;stroke-linecap:butt;stroke-linejoin:miter;stroke-opacity:1" d="M 581.972,679.227 569.468,686.174 z" id="boundary" inkscape:connector-curvature="0" />
	<path style="fill:none;stroke:red;stroke-width:1px;stroke-linecap:butt;stroke-linejoin:miter;stroke-opacity:1" d="M 569.468,686.174 556.964,693.12 z" id="boundary" inkscape:connector-curvature="0" />
	<path style="fill:none;stroke:red;stroke-width:1px;stroke-linecap:butt;stroke-linejoin:miter;stroke-opacity:1" d="M 556.964,693.12 543.07,691.731 z" id="boundary" inkscape:connector-curvature="0" />
	<path style="fill:none;stroke:red;stroke-width:1px;stroke-linecap:butt;stroke-linejoin:miter;stroke-opacity:1" d="M 543.07,691.731 531.955,682.006 z" id="boundary" inkscape:connector-curvature="0" />
	<path style="fill:none;stroke:red;stroke-width:1px;stroke-linecap:butt;stroke-linejoin:miter;stroke-opacity:1" d="M 531.955,682.006 543.07,670.891 z" id="boundary" inkscape:connector-curvature="0" />
	<path style="fill:none;stroke:red;stroke-width:1px;stroke-linecap:butt;stroke-linejoin:miter;stroke-opacity:1" d="M 543.07,670.891 554.185,659.776 z" id="boundary" inkscape:connector-curvature="0" />
	<path style="fill:none;stroke:red;stroke-width:1px;stroke-linecap:butt;stroke-linejoin:miter;stroke-opacity:1" d="M 554.185,659.776 565.3,650.05 z" id="boundary" inkscape:connector-curvature="0" />
	<path style="fill:none;stroke:red;stroke-width:1px;stroke-linecap:butt;stroke-linejoin:miter;stroke-opacity:1" d="M 565.3,650.05 573.636,633.378 z" id="boundary" inkscape:connector-curvature="0" />
	<path style="fill:none;stroke:red;stroke-width:1px;stroke-linecap:butt;stroke-linejoin:miter;stroke-opacity:1" d="M 573.636,633.378 584.751,622.263 z" id="boundary" inkscape:connector-curvature="0" />
	<path style="fill:none;stroke:red;stroke-width:1px;stroke-linecap:butt;stroke-linejoin:miter;stroke-opacity:1" d="M 584.751,622.263 591.697,608.37 z" id="boundary" inkscape:connector-curvature="0" />
	<path style="fill:none;stroke:red;stroke-width:1px;stroke-linecap:butt;stroke-linejoin:miter;stroke-opacity:1" d="M 591.697,608.37 598.644,594.476 z" id="boundary" inkscape:connector-curvature="0" />
	<path style="fill:none;stroke:red;stroke-width:1px;stroke-linecap:butt;stroke-linejoin:miter;stroke-opacity:1" d="M 598.644,594.476 605.591,580.583 z" id="boundary" inkscape:connector-curvature="0" />
	<path style="fill:none;stroke:red;stroke-width:1px;stroke-linecap:butt;stroke-linejoin:miter;stroke-opacity:1" d="M 605.591,580.583 615.317,563.91 z" id="boundary" inkscape:connector-curvature="0" />
	<path style="fill:none;stroke:red;stroke-width:1px;stroke-linecap:butt;stroke-linejoin:miter;stroke-opacity:1" d="M 615.317,563.91 622.263,550.017 z" id="boundary" inkscape:connector-curvature="0" />
	<path style="fill:none;stroke:red;stroke-width:1px;stroke-linecap:butt;stroke-linejoin:miter;stroke-opacity:1" d="M 622.263,550.017 629.21,533.345 z" id="boundary" inkscape:connector-curvature="0" />
	<path style="fill:none;stroke:red;stroke-width:1px;stroke-linecap:butt;stroke-linejoin:miter;stroke-opacity:1" d="M 629.21,533.345 629.21,519.451 z" id="boundary" inkscape:connector-curvature="0" />
	<path style="fill:none;stroke:red;stroke-width:1px;stroke-linecap:butt;stroke-linejoin:miter;stroke-opacity:1" d="M 629.21,519.451 626.431,505.557 z" id="boundary" inkscape:connector-curvature="0" />
	<path style="fill:none;stroke:red;stroke-width:1px;stroke-linecap:butt;stroke-linejoin:miter;stroke-opacity:1" d="M 626.431,505.557 612.538,505.557 z" id="boundary" inkscape:connector-curvature="0" />
	<path style="fill:none;stroke:red;stroke-width:1px;stroke-linecap:butt;stroke-linejoin:miter;stroke-opacity:1" d="M 612.538,505.557 598.644,511.115 z" id="boundary" inkscape:connector-curvature="0" />
	<path style="fill:none;stroke:red;stroke-width:1px;stroke-linecap:butt;stroke-linejoin:miter;stroke-opacity:1" d="M 598.644,511.115 584.751,518.062 z" id="boundary" inkscape:connector-curvature="0" />
	<path style="fill:none;stroke:red;stroke-width:1px;stroke-linecap:butt;stroke-linejoin:miter;stroke-opacity:1" d="M 584.751,518.062 570.857,519.451 z" id="boundary" inkscape:connector-curvature="0" />
	<path style="fill:none;stroke:red;stroke-width:1px;stroke-linecap:butt;stroke-linejoin:miter;stroke-opacity:1" d="M 570.857,519.451 558.353,526.398 z" id="boundary" inkscape:connector-curvature="0" />
	<path style="fill:none;stroke:red;stroke-width:1px;stroke-linecap:butt;stroke-linejoin:miter;stroke-opacity:1" d="M 558.353,526.398 544.459,526.398 z" id="boundary" inkscape:connector-curvature="0" />
	<path style="fill:none;stroke:red;stroke-width:1px;stroke-linecap:butt;stroke-linejoin:miter;stroke-opacity:1" d="M 544.459,526.398 530.566,526.398 z" id="boundary" inkscape:connector-curvature="0" />
	<path style="fill:none;stroke:red;stroke-width:1px;stroke-linecap:butt;stroke-linejoin:miter;stroke-opacity:1" d="M 530.566,526.398 516.672,526.398 z" id="boundary" inkscape:connector-curvature="0" />
	<path style="fill:none;stroke:red;stroke-width:1px;stroke-linecap:butt;stroke-linejoin:miter;stroke-opacity:1" d="M 516.672,526.398 502.779,526.398 z" id="boundary" inkscape:connector-curvature="0" />
	<path style="fill:none;stroke:red;stroke-width:1px;stroke-linecap:butt;stroke-linejoin:miter;stroke-opacity:1" d="M 502.779,526.398 488.885,526.398 z" id="boundary" inkscape:connector-curvature="0" />
	<path style="fill:none;stroke:red;stroke-width:1px;stroke-linecap:butt;stroke-linejoin:miter;stroke-opacity:1" d="M 488.885,526.398 474.992,526.398 z" id="boundary" inkscape:connector-curvature="0" />
	<path style="fill:none;stroke:red;stroke-width:1px;stroke-linecap:butt;stroke-linejoin:miter;stroke-opacity:1" d="M 474.992,526.398 461.098,526.398 z" id="boundary" inkscape:connector-curvature="0" />
	<path style="fill:none;stroke:red;stroke-width:1px;stroke-linecap:butt;stroke-linejoin:miter;stroke-opacity:1" d="M 461.098,526.398 448.594,519.451 z" id="boundary" inkscape:connector-curvature="0" />
	<path style="fill:none;stroke:red;stroke-width:1px;stroke-linecap:butt;stroke-linejoin:miter;stroke-opacity:1" d="M 448.594,519.451 434.7,519.451 z" id="boundary" inkscape:connector-curvature="0" />
	<path style="fill:none;stroke:red;stroke-width:1px;stroke-linecap:butt;stroke-linejoin:miter;stroke-opacity:1" d="M 434.7,519.451 422.196,512.504 z" id="boundary" inkscape:connector-curvature="0" />
	<path style="fill:none;stroke:red;stroke-width:1px;stroke-linecap:butt;stroke-linejoin:miter;stroke-opacity:1" d="M 422.196,512.504 409.692,505.557 z" id="boundary" inkscape:connector-curvature="0" />
	<path style="fill:none;stroke:red;stroke-width:1px;stroke-linecap:butt;stroke-linejoin:miter;stroke-opacity:1" d="M 409.692,505.557 395.798,505.557 z" id="boundary" inkscape:connector-curvature="0" />
	<path style="fill:none;stroke:red;stroke-width:1px;stroke-linecap:butt;stroke-linejoin:miter;stroke-opacity:1" d="M 395.798,505.557 383.294,498.611 z" id="boundary" inkscape:connector-curvature="0" />
	<path style="fill:none;stroke:red;stroke-width:1px;stroke-linecap:butt;stroke-linejoin:miter;stroke-opacity:1" d="M 383.294,498.611 369.401,498.611 z" id="boundary" inkscape:connector-curvature="0" />
	<path style="fill:none;stroke:red;stroke-width:1px;stroke-linecap:butt;stroke-linejoin:miter;stroke-opacity:1" d="M 369.401,498.611 356.896,491.664 z" id="boundary" inkscape:connector-curvature="0" />
	<path style="fill:none;stroke:red;stroke-width:1px;stroke-linecap:butt;stroke-linejoin:miter;stroke-opacity:1" d="M 356.896,491.664 344.392,484.717 z" id="boundary" inkscape:connector-curvature="0" />
	<path style="fill:none;stroke:red;stroke-width:1px;stroke-linecap:butt;stroke-linejoin:miter;stroke-opacity:1" d="M 344.392,484.717 331.888,477.77 z" id="boundary" inkscape:connector-curvature="0" />
	<path style="fill:none;stroke:red;stroke-width:1px;stroke-linecap:butt;stroke-linejoin:miter;stroke-opacity:1" d="M 331.888,477.77 317.994,473.602 z" id="boundary" inkscape:connector-curvature="0" />
	<path style="fill:none;stroke:red;stroke-width:1px;stroke-linecap:butt;stroke-linejoin:miter;stroke-opacity:1" d="M 317.994,473.602 304.101,468.045 z" id="boundary" inkscape:connector-curvature="0" />
	<path style="fill:none;stroke:red;stroke-width:1px;stroke-linecap:butt;stroke-linejoin:miter;stroke-opacity:1" d="M 304.101,468.045 295.765,456.93 z" id="boundary" inkscape:connector-curvature="0" />
	<path style="fill:none;stroke:red;stroke-width:1px;stroke-linecap:butt;stroke-linejoin:miter;stroke-opacity:1" d="M 295.765,456.93 281.871,452.762 z" id="boundary" inkscape:connector-curvature="0" />
	<path style="fill:none;stroke:red;stroke-width:1px;stroke-linecap:butt;stroke-linejoin:miter;stroke-opacity:1" d="M 281.871,452.762 269.367,445.815 z" id="boundary" inkscape:connector-curvature="0" />
	<path style="fill:none;stroke:red;stroke-width:1px;stroke-linecap:butt;stroke-linejoin:miter;stroke-opacity:1" d="M 269.367,445.815 255.473,443.036 z" id="boundary" inkscape:connector-curvature="0" />
	<path style="fill:none;stroke:red;stroke-width:1px;stroke-linecap:butt;stroke-linejoin:miter;stroke-opacity:1" d="M 255.473,443.036 241.58,443.036 z" id="boundary" inkscape:connector-curvature="0" />
	<path style="fill:none;stroke:red;stroke-width:1px;stroke-linecap:butt;stroke-linejoin:miter;stroke-opacity:1" d="M 241.58,443.036 227.686,443.036 z" id="boundary" inkscape:connector-curvature="0" />
	<path style="fill:none;stroke:red;stroke-width:1px;stroke-linecap:butt;stroke-linejoin:miter;stroke-opacity:1" d="M 227.686,443.036 213.793,438.868 z" id="boundary" inkscape:connector-curvature="0" />
	<path style="fill:none;stroke:red;stroke-width:1px;stroke-linecap:butt;stroke-linejoin:miter;stroke-opacity:1" d="M 213.793,438.868 199.899,436.09 z" id="boundary" inkscape:connector-curvature="0" />
	<path style="fill:none;stroke:red;stroke-width:1px;stroke-linecap:butt;stroke-linejoin:miter;stroke-opacity:1" d="M 199.899,436.09 187.395,429.143 z" id="boundary" inkscape:connector-curvature="0" />
	<path style="fill:none;stroke:red;stroke-width:1px;stroke-linecap:butt;stroke-linejoin:miter;stroke-opacity:1" d="M 187.395,429.143 174.891,422.196 z" id="boundary" inkscape:connector-curvature="0" />
	<path style="fill:none;stroke:red;stroke-width:1px;stroke-linecap:butt;stroke-linejoin:miter;stroke-opacity:1" d="M 174.891,422.196 162.387,415.249 z" id="boundary" inkscape:connector-curvature="0" />
	<path style="fill:none;stroke:red;stroke-width:1px;stroke-linecap:butt;stroke-linejoin:miter;stroke-opacity:1" d="M 162.387,415.249 149.882,408.303 z" id="boundary" inkscape:connector-curvature="0" />
	<path style="fill:none;stroke:red;stroke-width:1px;stroke-linecap:butt;stroke-linejoin:miter;stroke-opacity:1" d="M 149.882,408.303 135.989,408.303 z" id="boundary" inkscape:connector-curvature="0" />
	<path style="fill:none;stroke:red;stroke-width:1px;stroke-linecap:butt;stroke-linejoin:miter;stroke-opacity:1" d="M 135.989,408.303 122.095,408.303 z" id="boundary" inkscape:connector-curvature="0" />
	<path style="fill:none;stroke:red;stroke-width:1px;stroke-linecap:butt;stroke-linejoin:miter;stroke-opacity:1" d="M 122.095,408.303 109.591,415.249 z" id="boundary" inkscape:connector-curvature="0" />
	<path style="fill:none;stroke:red;stroke-width:1px;stroke-linecap:butt;stroke-linejoin:miter;stroke-opacity:1" d="M 109.591,415.249 95.6975,415.249 z" id="boundary" inkscape:connector-curvature="0" />
	<path style="fill:none;stroke:red;stroke-width:1px;stroke-linecap:butt;stroke-linejoin:miter;stroke-opacity:1" d="M 95.6975,415.249 81.8039,415.249 z" id="boundary" inkscape:connector-curvature="0" />
	<path style="fill:none;stroke:red;stroke-width:1px;stroke-linecap:butt;stroke-linejoin:miter;stroke-opacity:1" d="M 81.8039,415.249 67.9104,422.196 z" id="boundary" inkscape:connector-curvature="0" />
	<path style="fill:none;stroke:red;stroke-width:1px;stroke-linecap:butt;stroke-linejoin:miter;stroke-opacity:1" d="M 67.9104,422.196 54.0168,422.196 z" id="boundary" inkscape:connector-curvature="0" />
	<path style="fill:none;stroke:red;stroke-width:1px;stroke-linecap:butt;stroke-linejoin:miter;stroke-opacity:1" d="M 54.0168,422.196 40.1232,422.196 z" id="boundary" inkscape:connector-curvature="0" />
	<path style="fill:none;stroke:red;stroke-width:1px;stroke-linecap:butt;stroke-linejoin:miter;stroke-opacity:1" d="M 40.1232,422.196 26.2297,429.143 z" id="boundary" inkscape:connector-curvature="0" />
	<path style="fill:none;stroke:red;stroke-width:1px;stroke-linecap:butt;stroke-linejoin:miter;stroke-opacity:1" d="M 26.2297,429.143 12.3361,429.143 z" id="boundary" inkscape:connector-curvature="0" />
	<path style="fill:none;stroke:red;stroke-width:1px;stroke-linecap:butt;stroke-linejoin:miter;stroke-opacity:1" d="M 12.3361,429.143 4,418.028 z" id="boundary" inkscape:connector-curvature="0" />
	<path style="fill:none;stroke:red;stroke-width:1px;stroke-linecap:butt;stroke-linejoin:miter;stroke-opacity:1" d="M 4,418.028 15.1148,406.913 z" id="boundary" inkscape:connector-curvature="0" />
	<path style="fill:none;stroke:red;stroke-width:1px;stroke-linecap:butt;stroke-linejoin:miter;stroke-opacity:1" d="M 15.1148,406.913 29.0084,406.913 z" id="boundary" inkscape:connector-curvature="0" />
	<path style="fill:none;stroke:red;stroke-width:1px;stroke-linecap:butt;stroke-linejoin:miter;stroke-opacity:1" d="M 29.0084,406.913 41.5126,399.966 z" id="boundary" inkscape:connector-curvature="0" />
	<path style="fill:none;stroke:red;stroke-width:1px;stroke-linecap:butt;stroke-linejoin:miter;stroke-opacity:1" d="M 41.5126,399.966 55.4062,399.966 z" id="boundary" inkscape:connector-curvature="0" />
	<path style="fill:none;stroke:red;stroke-width:1px;stroke-linecap:butt;stroke-linejoin:miter;stroke-opacity:1" d="M 55.4062,399.966 69.2997,399.966 z" id="boundary" inkscape:connector-curvature="0" />
	<path style="fill:none;stroke:red;stroke-width:1px;stroke-linecap:butt;stroke-linejoin:miter;stroke-opacity:1" d="M 69.2997,399.966 81.8039,393.02 z" id="boundary" inkscape:connector-curvature="0" />
	<path style="fill:none;stroke:red;stroke-width:1px;stroke-linecap:butt;stroke-linejoin:miter;stroke-opacity:1" d="M 81.8039,393.02 95.6975,388.852 z" id="boundary" inkscape:connector-curvature="0" />
	<path style="fill:none;stroke:red;stroke-width:1px;stroke-linecap:butt;stroke-linejoin:miter;stroke-opacity:1" d="M 95.6975,388.852 109.591,386.073 z" id="boundary" inkscape:connector-curvature="0" />
	<path style="fill:none;stroke:red;stroke-width:1px;stroke-linecap:butt;stroke-linejoin:miter;stroke-opacity:1" d="M 109.591,386.073 122.095,379.126 z" id="boundary" inkscape:connector-curvature="0" />
	<path style="fill:none;stroke:red;stroke-width:1px;stroke-linecap:butt;stroke-linejoin:miter;stroke-opacity:1" d="M 122.095,379.126 134.599,372.179 z" id="boundary" inkscape:connector-curvature="0" />
	<path style="fill:none;stroke:red;stroke-width:1px;stroke-linecap:butt;stroke-linejoin:miter;stroke-opacity:1" d="M 134.599,372.179 142.936,355.507 z" id="boundary" inkscape:connector-curvature="0" />
	<path style="fill:none;stroke:red;stroke-width:1px;stroke-linecap:butt;stroke-linejoin:miter;stroke-opacity:1" d="M 142.936,355.507 149.882,334.667 z" id="boundary" inkscape:connector-curvature="0" />
	<path style="fill:none;stroke:red;stroke-width:1px;stroke-linecap:butt;stroke-linejoin:miter;stroke-opacity:1" d="M 149.882,334.667 160.997,323.552 z" id="boundary" inkscape:connector-curvature="0" />
	<path style="fill:none;stroke:red;stroke-width:1px;stroke-linecap:butt;stroke-linejoin:miter;stroke-opacity:1" d="M 160.997,323.552 167.944,309.658 z" id="boundary" inkscape:connector-curvature="0" />
	<path style="fill:none;stroke:red;stroke-width:1px;stroke-linecap:butt;stroke-linejoin:miter;stroke-opacity:1" d="M 167.944,309.658 177.669,292.986 z" id="boundary" inkscape:connector-curvature="0" />
	<path style="fill:none;stroke:red;stroke-width:1px;stroke-linecap:butt;stroke-linejoin:miter;stroke-opacity:1" d="M 177.669,292.986 191.563,286.039 z" id="boundary" inkscape:connector-curvature="0" />
	<path style="fill:none;stroke:red;stroke-width:1px;stroke-linecap:butt;stroke-linejoin:miter;stroke-opacity:1" d="M 191.563,286.039 205.457,279.092 z" id="boundary" inkscape:connector-curvature="0" />
	<path style="fill:none;stroke:red;stroke-width:1px;stroke-linecap:butt;stroke-linejoin:miter;stroke-opacity:1" d="M 205.457,279.092 219.35,274.924 z" id="boundary" inkscape:connector-curvature="0" />
	<path style="fill:none;stroke:red;stroke-width:1px;stroke-linecap:butt;stroke-linejoin:miter;stroke-opacity:1" d="M 219.35,274.924 233.244,274.924 z" id="boundary" inkscape:connector-curvature="0" />
	<path style="fill:none;stroke:red;stroke-width:1px;stroke-linecap:butt;stroke-linejoin:miter;stroke-opacity:1" d="M 233.244,274.924 247.137,274.924 z" id="boundary" inkscape:connector-curvature="0" />
	<path style="fill:none;stroke:red;stroke-width:1px;stroke-linecap:butt;stroke-linejoin:miter;stroke-opacity:1" d="M 247.137,274.924 261.031,274.924 z" id="boundary" inkscape:connector-curvature="0" />
	<path style="fill:none;stroke:red;stroke-width:1px;stroke-linecap:butt;stroke-linejoin:miter;stroke-opacity:1" d="M 261.031,274.924 274.924,277.703 z" id="boundary" inkscape:connector-curvature="0" />
	<path style="fill:none;stroke:red;stroke-width:1px;stroke-linecap:butt;stroke-linejoin:miter;stroke-opacity:1" d="M 274.924,277.703 288.818,281.871 z" id="boundary" inkscape:connector-curvature="0" />
	<path style="fill:none;stroke:red;stroke-width:1px;stroke-linecap:butt;stroke-linejoin:miter;stroke-opacity:1" d="M 288.818,281.871 301.322,288.818 z" id="boundary" inkscape:connector-curvature="0" />
	<path style="fill:none;stroke:red;stroke-width:1px;stroke-linecap:butt;stroke-linejoin:miter;stroke-opacity:1" d="M 301.322,288.818 313.826,295.765 z" id="boundary" inkscape:connector-curvature="0" />
	<path style="fill:none;stroke:red;stroke-width:1px;stroke-linecap:butt;stroke-linejoin:miter;stroke-opacity:1" d="M 313.826,295.765 326.331,302.711 z" id="boundary" inkscape:connector-curvature="0" />
	<path style="fill:none;stroke:red;stroke-width:1px;stroke-linecap:butt;stroke-linejoin:miter;stroke-opacity:1" d="M 326.331,302.711 337.445,312.437 z" id="boundary" inkscape:connector-curvature="0" />
	<path style="fill:none;stroke:red;stroke-width:1px;stroke-linecap:butt;stroke-linejoin:miter;stroke-opacity:1" d="M 337.445,312.437 345.782,323.552 z" id="boundary" inkscape:connector-curvature="0" />
	<path style="fill:none;stroke:red;stroke-width:1px;stroke-linecap:butt;stroke-linejoin:miter;stroke-opacity:1" d="M 345.782,323.552 359.675,323.552 z" id="boundary" inkscape:connector-curvature="0" />
	<path style="fill:none;stroke:red;stroke-width:1px;stroke-linecap:butt;stroke-linejoin:miter;stroke-opacity:1" d="M 359.675,323.552 372.179,313.826 z" id="boundary" inkscape:connector-curvature="0" />
	<path style="fill:none;stroke:red;stroke-width:1px;stroke-linecap:butt;stroke-linejoin:miter;stroke-opacity:1" d="M 372.179,313.826 379.126,299.933 z" id="boundary" inkscape:connector-curvature="0" />
	<path style="fill:none;stroke:red;stroke-width:1px;stroke-linecap:butt;stroke-linejoin:miter;stroke-opacity:1" d="M 379.126,299.933 390.241,288.818 z" id="boundary" inkscape:connector-curvature="0" />
	<path style="fill:none;stroke:red;stroke-width:1px;stroke-linecap:butt;stroke-linejoin:miter;stroke-opacity:1" d="M 390.241,288.818 401.356,277.703 z" id="boundary" inkscape:connector-curvature="0" />
	<path style="fill:none;stroke:red;stroke-width:1px;stroke-linecap:butt;stroke-linejoin:miter;stroke-opacity:1" d="M 401.356,277.703 412.471,267.978 z" id="boundary" inkscape:connector-curvature="0" />
	<path style="fill:none;stroke:red;stroke-width:1px;stroke-linecap:butt;stroke-linejoin:miter;stroke-opacity:1" d="M 412.471,267.978 424.975,261.031 z" id="boundary" inkscape:connector-curvature="0" />
	<path style="fill:none;stroke:red;stroke-width:1px;stroke-linecap:butt;stroke-linejoin:miter;stroke-opacity:1" d="M 424.975,261.031 436.09,249.916 z" id="boundary" inkscape:connector-curvature="0" />
	<path style="fill:none;stroke:red;stroke-width:1px;stroke-linecap:butt;stroke-linejoin:miter;stroke-opacity:1" d="M 436.09,249.916 449.983,242.969 z" id="boundary" inkscape:connector-curvature="0" />
	<path style="fill:none;stroke:red;stroke-width:1px;stroke-linecap:butt;stroke-linejoin:miter;stroke-opacity:1" d="M 449.983,242.969 462.487,230.465 z" id="boundary" inkscape:connector-curvature="0" />
	<path style="fill:none;stroke:red;stroke-width:1px;stroke-linecap:butt;stroke-linejoin:miter;stroke-opacity:1" d="M 462.487,230.465 476.381,226.297 z" id="boundary" inkscape:connector-curvature="0" />
	<path style="fill:none;stroke:red;stroke-width:1px;stroke-linecap:butt;stroke-linejoin:miter;stroke-opacity:1" d="M 476.381,226.297 488.885,219.35 z" id="boundary" inkscape:connector-curvature="0" />
	<path style="fill:none;stroke:red;stroke-width:1px;stroke-linecap:butt;stroke-linejoin:miter;stroke-opacity:1" d="M 488.885,219.35 501.389,212.403 z" id="boundary" inkscape:connector-curvature="0" />
	<path style="fill:none;stroke:red;stroke-width:1px;stroke-linecap:butt;stroke-linejoin:miter;stroke-opacity:1" d="M 501.389,212.403 512.504,201.289 z" id="boundary" inkscape:connector-curvature="0" />
	<path style="fill:none;stroke:red;stroke-width:1px;stroke-linecap:butt;stroke-linejoin:miter;stroke-opacity:1" d="M 512.504,201.289 526.398,194.342 z" id="boundary" inkscape:connector-curvature="0" />
	<path style="fill:none;stroke:red;stroke-width:1px;stroke-linecap:butt;stroke-linejoin:miter;stroke-opacity:1" d="M 526.398,194.342 537.513,184.616 z" id="boundary" inkscape:connector-curvature="0" />
	<path style="fill:none;stroke:red;stroke-width:1px;stroke-linecap:butt;stroke-linejoin:miter;stroke-opacity:1" d="M 537.513,184.616 550.017,177.669 z" id="boundary" inkscape:connector-curvature="0" />
	<path style="fill:none;stroke:red;stroke-width:1px;stroke-linecap:butt;stroke-linejoin:miter;stroke-opacity:1" d="M 550.017,177.669 563.91,177.669 z" id="boundary" inkscape:connector-curvature="0" />
	<path style="fill:none;stroke:red;stroke-width:1px;stroke-linecap:butt;stroke-linejoin:miter;stroke-opacity:1" d="M 563.91,177.669 575.025,166.555 z" id="boundary" inkscape:connector-curvature="0" />
	<path style="fill:none;stroke:red;stroke-width:1px;stroke-linecap:butt;stroke-linejoin:miter;stroke-opacity:1" d="M 575.025,166.555 588.919,163.776 z" id="boundary" inkscape:connector-curvature="0" />
	<path style="fill:none;stroke:red;stroke-width:1px;stroke-linecap:butt;stroke-linejoin:miter;stroke-opacity:1" d="M 588.919,163.776 601.423,156.829 z" id="boundary" inkscape:connector-curvature="0" />
	<path style="fill:none;stroke:red;stroke-width:1px;stroke-linecap:butt;stroke-linejoin:miter;stroke-opacity:1" d="M 601.423,156.829 615.317,156.829 z" id="boundary" inkscape:connector-curvature="0" />
	<path style="fill:none;stroke:red;stroke-width:1px;stroke-linecap:butt;stroke-linejoin:miter;stroke-opacity:1" d="M 615.317,156.829 629.21,154.05 z" id="boundary" inkscape:connector-curvature="0" />
	<path style="fill:none;stroke:red;stroke-width:1px;stroke-linecap:butt;stroke-linejoin:miter;stroke-opacity:1" d="M 629.21,154.05 643.104,149.882 z" id="boundary" inkscape:connector-curvature="0" />
	<path style="fill:none;stroke:red;stroke-width:1px;stroke-linecap:butt;stroke-linejoin:miter;stroke-opacity:1" d="M 643.104,149.882 655.608,142.936 z" id="boundary" inkscape:connector-curvature="0" />
	<path style="fill:none;stroke:red;stroke-width:1px;stroke-linecap:butt;stroke-linejoin:miter;stroke-opacity:1" d="M 655.608,142.936 669.501,142.936 z" id="boundary" inkscape:connector-curvature="0" />
	<path style="fill:none;stroke:red;stroke-width:1px;stroke-linecap:butt;stroke-linejoin:miter;stroke-opacity:1" d="M 669.501,142.936 682.006,135.989 z" id="boundary" inkscape:connector-curvature="0" />
	<path style="fill:none;stroke:red;stroke-width:1px;stroke-linecap:butt;stroke-linejoin:miter;stroke-opacity:1" d="M 682.006,135.989 695.899,135.989 z" id="boundary" inkscape:connector-curvature="0" />
	<path style="fill:none;stroke:red;stroke-width:1px;stroke-linecap:butt;stroke-linejoin:miter;stroke-opacity:1" d="M 695.899,135.989 708.403,129.042 z" id="boundary" inkscape:connector-curvature="0" />
	<path style="fill:none;stroke:red;stroke-width:1px;stroke-linecap:butt;stroke-linejoin:miter;stroke-opacity:1" d="M 708.403,129.042 722.297,123.485 z" id="boundary" inkscape:connector-curvature="0" />
	<path style="fill:none;stroke:red;stroke-width:1px;stroke-linecap:butt;stroke-linejoin:miter;stroke-opacity:1" d="M 722.297,123.485 736.19,122.095 z" id="boundary" inkscape:connector-curvature="0" />
	<path style="fill:none;stroke:red;stroke-width:1px;stroke-linecap:butt;stroke-linejoin:miter;stroke-opacity:1" d="M 736.19,122.095 750.084,116.538 z" id="boundary" inkscape:connector-curvature="0" />
	<path style="fill:none;stroke:red;stroke-width:1px;stroke-linecap:butt;stroke-linejoin:miter;stroke-opacity:1" d="M 750.084,116.538 763.978,109.591 z" id="boundary" inkscape:connector-curvature="0" />
	<path style="fill:none;stroke:red;stroke-width:1px;stroke-linecap:butt;stroke-linejoin:miter;stroke-opacity:1" d="M 763.978,109.591 777.871,108.202 z" id="boundary" inkscape:connector-curvature="0" />
	<path style="fill:none;stroke:red;stroke-width:1px;stroke-linecap:butt;stroke-linejoin:miter;stroke-opacity:1" d="M 777.871,108.202 790.375,101.255 z" id="boundary" inkscape:connector-curvature="0" />
	<path style="fill:none;stroke:red;stroke-width:1px;stroke-linecap:butt;stroke-linejoin:miter;stroke-opacity:1" d="M 790.375,101.255 802.88,94.3081 z" id="boundary" inkscape:connector-curvature="0" />
	<path style="fill:none;stroke:red;stroke-width:1px;stroke-linecap:butt;stroke-linejoin:miter;stroke-opacity:1" d="M 802.88,94.3081 815.384,87.3613 z" id="boundary" inkscape:connector-curvature="0" />
	<path style="fill:none;stroke:red;stroke-width:1px;stroke-linecap:butt;stroke-linejoin:miter;stroke-opacity:1" d="M 815.384,87.3613 827.888,80.4146 z" id="boundary" inkscape:connector-curvature="0" />
	<path style="fill:none;stroke:red;stroke-width:1px;stroke-linecap:butt;stroke-linejoin:miter;stroke-opacity:1" d="M 827.888,80.4146 841.782,73.4678 z" id="boundary" inkscape:connector-curvature="0" />
	<path style="fill:none;stroke:red;stroke-width:1px;stroke-linecap:butt;stroke-linejoin:miter;stroke-opacity:1" d="M 841.782,73.4678 855.675,73.4678 z" id="boundary" inkscape:connector-curvature="0" />
	<path style="fill:none;stroke:red;stroke-width:1px;stroke-linecap:butt;stroke-linejoin:miter;stroke-opacity:1" d="M 855.675,73.4678 869.569,66.521 z" id="boundary" inkscape:connector-curvature="0" />
	<path style="fill:none;stroke:red;stroke-width:1px;stroke-linecap:butt;stroke-linejoin:miter;stroke-opacity:1" d="M 869.569,66.521 883.462,66.521 z" id="boundary" inkscape:connector-curvature="0" />
	<path style="fill:none;stroke:red;stroke-width:1px;stroke-linecap:butt;stroke-linejoin:miter;stroke-opacity:1" d="M 883.462,66.521 895.966,59.5742 z" id="boundary" inkscape:connector-curvature="0" />
	<path style="fill:none;stroke:red;stroke-width:1px;stroke-linecap:butt;stroke-linejoin:miter;stroke-opacity:1" d="M 895.966,59.5742 908.471,52.6275 z" id="boundary" inkscape:connector-curvature="0" />
	<path style="fill:none;stroke:red;stroke-width:1px;stroke-linecap:butt;stroke-linejoin:miter;stroke-opacity:1" d="M 908.471,52.6275 922.364,52.6275 z" id="boundary" inkscape:connector-curvature="0" />
	<path style="fill:none;stroke:red;stroke-width:1px;stroke-linecap:butt;stroke-linejoin:miter;stroke-opacity:1" d="M 922.364,52.6275 934.868,42.902 z" id="boundary" inkscape:connector-curvature="0" />
	<path style="fill:none;stroke:red;stroke-width:1px;stroke-linecap:butt;stroke-linejoin:miter;stroke-opacity:1" d="M 934.868,42.902 945.983,31.7871 z" id="boundary" inkscape:connector-curvature="0" />
	<path style="fill:none;stroke:red;stroke-width:1px;stroke-linecap:butt;stroke-linejoin:miter;stroke-opacity:1" d="M 945.983,31.7871 959.877,24.8403 z" id="boundary" inkscape:connector-curvature="0" />
	<path style="fill:none;stroke:red;stroke-width:1px;stroke-linecap:butt;stroke-linejoin:miter;stroke-opacity:1" d="M 959.877,24.8403 966.824,10.9468 z" id="boundary" inkscape:connector-curvature="0" />
	<path style="fill:none;stroke:red;stroke-width:1px;stroke-linecap:butt;stroke-linejoin:miter;stroke-opacity:1" d="M 966.824,10.9468 980.717,4 z" id="boundary" inkscape:connector-curvature="0" />
	<path style="fill:none;stroke:red;stroke-width:1px;stroke-linecap:butt;stroke-linejoin:miter;stroke-opacity:1" d="M 980.717,4 994.611,4 z" id="boundary" inkscape:connector-curvature="0" />
	<circle cx="4" cy="418.028" r="4" fill="#0" id="circle0"/>
	<circle cx="12.3361" cy="429.143" r="4" fill="#0" id="circle1"/>
	<circle cx="15.1148" cy="406.913" r="4" fill="#0" id="circle2"/>
	<circle cx="26.2297" cy="429.143" r="4" fill="#0" id="circle3"/>
	<circle cx="29.0084" cy="406.913" r="4" fill="#0" id="circle4"/>
	<circle cx="40.1232" cy="422.196" r="4" fill="#0" id="circle5"/>
	<circle cx="41.5126" cy="399.966" r="4" fill="#0" id="circle6"/>
	<circle cx="54.0168" cy="422.196" r="4" fill="#0" id="circle7"/>
	<circle cx="55.4062" cy="399.966" r="4" fill="#0" id="circle8"/>
	<circle cx="67.9104" cy="422.196" r="4" fill="#0" id="circle9"/>
	<circle cx="69.2997" cy="399.966" r="4" fill="#0" id="circle10"/>
	<circle cx="81.8039" cy="393.02" r="4" fill="#0" id="circle11"/>
	<circle cx="81.8039" cy="415.249" r="4" fill="#0" id="circle12"/>
	<circle cx="95.6975" cy="388.852" r="4" fill="#0" id="circle13"/>
	<circle cx="95.6975" cy="415.249" r="4" fill="#0" id="circle14"/>
	<circle cx="109.591" cy="386.073" r="4" fill="#0" id="circle15"/>
	<circle cx="109.591" cy="415.249" r="4" fill="#0" id="circle16"/>
	<circle cx="122.095" cy="379.126" r="4" fill="#0" id="circle17"/>
	<circle cx="122.095" cy="408.303" r="4" fill="#0" id="circle18"/>
	<circle cx="134.599" cy="372.179" r="4" fill="#0" id="circle19"/>
	<circle cx="135.989" cy="408.303" r="4" fill="#0" id="circle20"/>
	<circle cx="142.936" cy="355.507" r="4" fill="#0" id="circle21"/>
	<circle cx="149.882" cy="334.667" r="4" fill="#0" id="circle22"/>
	<circle cx="149.882" cy="408.303" r="4" fill="#0" id="circle23"/>
	<circle cx="160.997" cy="323.552" r="4" fill="#0" id="circle24"/>
	<circle cx="162.387" cy="415.249" r="4" fill="#0" id="circle25"/>
	<circle cx="167.944" cy="309.658" r="4" fill="#0" id="circle26"/>
	<circle cx="174.891" cy="422.196" r="4" fill="#0" id="circle27"/>
	<circle cx="177.669" cy="292.986" r="4" fill="#0" id="circle28"/>
	<circle cx="187.395" cy="429.143" r="4" fill="#0" id="circle29"/>
	<circle cx="191.563" cy="286.039" r="4" fill="#0" id="circle30"/>
	<circle cx="199.899" cy="436.09" r="4" fill="#0" id="circle31"/>
	<circle cx="205.457" cy="279.092" r="4" fill="#0" id="circle32"/>
	<circle cx="213.793" cy="438.868" r="4" fill="#0" id="circle33"/>
	<circle cx="219.35" cy="274.924" r="4" fill="#0" id="circle34"/>
	<circle cx="227.686" cy="443.036" r="4" fill="#0" id="circle35"/>
	<circle cx="233.244" cy="274.924" r="4" fill="#0" id="circle36"/>
	<circle cx="241.58" cy="443.036" r="4" fill="#0" id="circle37"/>
	<circle cx="247.137" cy="274.924" r="4" fill="#0" id="circle38"/>
	<circle cx="255.473" cy="443.036" r="4" fill="#0" id="circle39"/>
	<circle cx="261.031" cy="274.924" r="4" fill="#0" id="circle40"/>
	<circle cx="269.367" cy="445.815" r="4" fill="#0" id="circle41"/>
	<circle cx="274.924" cy="277.703" r="4" fill="#0" id="circle42"/>
	<circle cx="281.871" cy="452.762" r="4" fill="#0" id="circle43"/>
	<circle cx="288.818" cy="281.871" r="4" fill="#0" id="circle44"/>
	<circle cx="295.765" cy="456.93" r="4" fill="#0" id="circle45"/>
	<circle cx="301.322" cy="288.818" r="4" fill="#0" id="circle46"/>
	<circle cx="304.101" cy="468.045" r="4" fill="#0" id="circle47"/>
	<circle cx="313.826" cy="295.765" r="4" fill="#0" id="circle48"/>
	<circle cx="317.994" cy="473.602" r="4" fill="#0" id="circle49"/>
	<circle cx="326.331" cy="302.711" r="4" fill="#0" id="circle50"/>
	<circle cx="331.888" cy="477.77" r="4" fill="#0" id="circle51"/>
	<circle cx="337.445" cy="312.437" r="4" fill="#0" id="circle52"/>
	<circle cx="344.392" cy="484.717" r="4" fill="#0" id="circle53"/>
	<circle cx="345.782" cy="323.552" r="4" fill="#0" id="circle54"/>
	<circle cx="356.896" cy="491.664" r="4" fill="#0" id="circle55"/>
	<circle cx="359.675" cy="323.552" r="4" fill="#0" id="circle56"/>
	<circle cx="369.401" cy="498.611" r="4" fill="#0" id="circle57"/>
	<circle cx="372.179" cy="313.826" r="4" fill="#0" id="circle58"/>
	<circle cx="379.126" cy="299.933" r="4" fill="#0" id="circle59"/>
	<circle cx="383.294" cy="498.611" r="4" fill="#0" id="circle60"/>
	<circle cx="390.241" cy="288.818" r="4" fill="#0" id="circle61"/>
	<circle cx="395.798" cy="505.557" r="4" fill="#0" id="circle62"/>
	<circle cx="401.356" cy="277.703" r="4" fill="#0" id="circle63"/>
	<circle cx="409.692" cy="505.557" r="4" fill="#0" id="circle64"/>
	<circle cx="412.471" cy="267.978" r="4" fill="#0" id="circle65"/>
	<circle cx="422.196" cy="512.504" r="4" fill="#0" id="circle66"/>
	<circle cx="424.975" cy="261.031" r="4" fill="#0" id="circle67"/>
	<circle cx="434.7" cy="519.451" r="4" fill="#0" id="circle68"/>
	<circle cx="436.09" cy="249.916" r="4" fill="#0" id="circle69"/>
	<circle cx="448.594" cy="519.451" r="4" fill="#0" id="circle70"/>
	<circle cx="449.983" cy="242.969" r="4" fill="#0" id="circle71"/>
	<circle cx="461.098" cy="526.398" r="4" fill="#0" id="circle72"/>
	<circle cx="462.487" cy="230.465" r="4" fill="#0" id="circle73"/>
	<circle cx="474.992" cy="526.398" r="4" fill="#0" id="circle74"/>
	<circle cx="476.381" cy="226.297" r="4" fill="#0" id="circle75"/>
	<circle cx="488.885" cy="219.35" r="4" fill="#0" id="circle76"/>
	<circle cx="488.885" cy="526.398" r="4" fill="#0" id="circle77"/>
	<circle cx="501.389" cy="212.403" r="4" fill="#0" id="circle78"/>
	<circle cx="502.779" cy="526.398" r="4" fill="#0" id="circle79"/>
	<circle cx="512.504" cy="201.289" r="4" fill="#0" id="circle80"/>
	<circle cx="516.672" cy="526.398" r="4" fill="#0" id="circle81"/>
	<circle cx="526.398" cy="194.342" r="4" fill="#0" id="circle82"/>
	<circle cx="530.566" cy="526.398" r="4" fill="#0" id="circle83"/>
	<circle cx="531.955" cy="682.006" r="4" fill="#0" id="circle84"/>
	<circle cx="537.513" cy="184.616" r="4" fill="#0" id="circle85"/>
	<circle cx="543.07" cy="670.891" r="4" fill="#0" id="circle86"/>
	<circle cx="543.07" cy="691.731" r="4" fill="#0" id="circle87"/>
	<circle cx="544.459" cy="526.398" r="4" fill="#0" id="circle88"/>
	<circle cx="550.017" cy="177.669" r="4" fill="#0" id="circle89"/>
	<circle cx="554.185" cy="659.776" r="4" fill="#0" id="circle90"/>
	<circle cx="556.964" cy="693.12" r="4" fill="#0" id="circle91"/>
	<circle cx="558.353" cy="526.398" r="4" fill="#0" id="circle92"/>
	<circle cx="563.91" cy="177.669" r="4" fill="#0" id="circle93"/>
	<circle cx="565.3" cy="650.05" r="4" fill="#0" id="circle94"/>
	<circle cx="569.468" cy="686.174" r="4" fill="#0" id="circle95"/>
	<circle cx="570.857" cy="519.451" r="4" fill="#0" id="circle96"/>
	<circle cx="573.636" cy="633.378" r="4" fill="#0" id="circle97"/>
	<circle cx="575.025" cy="166.555" r="4" fill="#0" id="circle98"/>
	<circle cx="581.972" cy="679.227" r="4" fill="#0" id="circle99"/>
	<circle cx="584.751" cy="518.062" r="4" fill="#0" id="circle100"/>
	<circle cx="584.751" cy="622.263" r="4" fill="#0" id="circle101"/>
	<circle cx="588.919" cy="163.776" r="4" fill="#0" id="circle102"/>
	<circle cx="591.697" cy="608.37" r="4" fill="#0" id="circle103"/>
	<circle cx="595.866" cy="637.546" r="4" fill="#0" id="circle104"/>
	<circle cx="595.866" cy="651.44" r="4" fill="#0" id="circle105"/>
	<circle cx="595.866" cy="665.333" r="4" fill="#0" id="circle106"/>
	<circle cx="598.644" cy="511.115" r="4" fill="#0" id="circle107"/>
	<circle cx="598.644" cy="594.476" r="4" fill="#0" id="circle108"/>
	<circle cx="601.423" cy="156.829" r="4" fill="#0" id="circle109"/>
	<circle cx="605.591" cy="580.583" r="4" fill="#0" id="circle110"/>
	<circle cx="606.98" cy="627.821" r="4" fill="#0" id="circle111"/>
	<circle cx="609.759" cy="609.759" r="4" fill="#0" id="circle112"/>
	<circle cx="612.538" cy="505.557" r="4" fill="#0" id="circle113"/>
	<circle cx="615.317" cy="156.829" r="4" fill="#0" id="circle114"/>
	<circle cx="615.317" cy="563.91" r="4" fill="#0" id="circle115"/>
	<circle cx="620.874" cy="600.034" r="4" fill="#0" id="circle116"/>
	<circle cx="622.263" cy="550.017" r="4" fill="#0" id="circle117"/>
	<circle cx="626.431" cy="505.557" r="4" fill="#0" id="circle118"/>
	<circle cx="627.821" cy="586.14" r="4" fill="#0" id="circle119"/>
	<circle cx="629.21" cy="154.05" r="4" fill="#0" id="circle120"/>
	<circle cx="629.21" cy="519.451" r="4" fill="#0" id="circle121"/>
	<circle cx="629.21" cy="533.345" r="4" fill="#0" id="circle122"/>
	<circle cx="637.546" cy="568.078" r="4" fill="#0" id="circle123"/>
	<circle cx="643.104" cy="149.882" r="4" fill="#0" id="circle124"/>
	<circle cx="644.493" cy="547.238" r="4" fill="#0" id="circle125"/>
	<circle cx="651.44" cy="491.664" r="4" fill="#0" id="circle126"/>
	<circle cx="651.44" cy="505.557" r="4" fill="#0" id="circle127"/>
	<circle cx="651.44" cy="519.451" r="4" fill="#0" id="circle128"/>
	<circle cx="651.44" cy="533.345" r="4" fill="#0" id="circle129"/>
	<circle cx="655.608" cy="142.936" r="4" fill="#0" id="circle130"/>
	<circle cx="663.944" cy="484.717" r="4" fill="#0" id="circle131"/>
	<circle cx="669.501" cy="142.936" r="4" fill="#0" id="circle132"/>
	<circle cx="676.448" cy="477.77" r="4" fill="#0" id="circle133"/>
	<circle cx="682.006" cy="135.989" r="4" fill="#0" id="circle134"/>
	<circle cx="690.342" cy="474.992" r="4" fill="#0" id="circle135"/>
	<circle cx="695.899" cy="135.989" r="4" fill="#0" id="circle136"/>
	<circle cx="704.235" cy="470.824" r="4" fill="#0" id="circle137"/>
	<circle cx="708.403" cy="129.042" r="4" fill="#0" id="circle138"/>
	<circle cx="712.571" cy="647.272" r="4" fill="#0" id="circle139"/>
	<circle cx="712.571" cy="661.165" r="4" fill="#0" id="circle140"/>
	<circle cx="716.739" cy="477.77" r="4" fill="#0" id="circle141"/>
	<circle cx="719.518" cy="626.431" r="4" fill="#0" id="circle142"/>
	<circle cx="720.908" cy="436.09" r="4" fill="#0" id="circle143"/>
	<circle cx="720.908" cy="449.983" r="4" fill="#0" id="circle144"/>
	<circle cx="722.297" cy="123.485" r="4" fill="#0" id="circle145"/>
	<circle cx="726.465" cy="591.697" r="4" fill="#0" id="circle146"/>
	<circle cx="726.465" cy="605.591" r="4" fill="#0" id="circle147"/>
	<circle cx="726.465" cy="665.333" r="4" fill="#0" id="circle148"/>
	<circle cx="727.854" cy="462.487" r="4" fill="#0" id="circle149"/>
	<circle cx="730.633" cy="483.328" r="4" fill="#0" id="circle150"/>
	<circle cx="733.412" cy="497.221" r="4" fill="#0" id="circle151"/>
	<circle cx="733.412" cy="511.115" r="4" fill="#0" id="circle152"/>
	<circle cx="733.412" cy="550.017" r="4" fill="#0" id="circle153"/>
	<circle cx="733.412" cy="563.91" r="4" fill="#0" id="circle154"/>
	<circle cx="733.412" cy="577.804" r="4" fill="#0" id="circle155"/>
	<circle cx="734.801" cy="429.143" r="4" fill="#0" id="circle156"/>
	<circle cx="736.19" cy="122.095" r="4" fill="#0" id="circle157"/>
	<circle cx="740.359" cy="523.619" r="4" fill="#0" id="circle158"/>
	<circle cx="740.359" cy="537.513" r="4" fill="#0" id="circle159"/>
	<circle cx="740.359" cy="665.333" r="4" fill="#0" id="circle160"/>
	<circle cx="741.748" cy="415.249" r="4" fill="#0" id="circle161"/>
	<circle cx="741.748" cy="466.655" r="4" fill="#0" id="circle162"/>
	<circle cx="748.695" cy="401.356" r="4" fill="#0" id="circle163"/>
	<circle cx="748.695" cy="595.866" r="4" fill="#0" id="circle164"/>
	<circle cx="748.695" cy="609.759" r="4" fill="#0" id="circle165"/>
	<circle cx="748.695" cy="623.653" r="4" fill="#0" id="circle166"/>
	<circle cx="748.695" cy="637.546" r="4" fill="#0" id="circle167"/>
	<circle cx="750.084" cy="116.538" r="4" fill="#0" id="circle168"/>
	<circle cx="751.473" cy="477.77" r="4" fill="#0" id="circle169"/>
	<circle cx="751.473" cy="651.44" r="4" fill="#0" id="circle170"/>
	<circle cx="755.641" cy="491.664" r="4" fill="#0" id="circle171"/>
	<circle cx="755.641" cy="568.078" r="4" fill="#0" id="circle172"/>
	<circle cx="755.641" cy="581.972" r="4" fill="#0" id="circle173"/>
	<circle cx="759.81" cy="391.63" r="4" fill="#0" id="circle174"/>
	<circle cx="762.588" cy="373.569" r="4" fill="#0" id="circle175"/>
	<circle cx="762.588" cy="504.168" r="4" fill="#0" id="circle176"/>
	<circle cx="762.588" cy="518.062" r="4" fill="#0" id="circle177"/>
	<circle cx="762.588" cy="547.238" r="4" fill="#0" id="circle178"/>
	<circle cx="763.978" cy="109.591" r="4" fill="#0" id="circle179"/>
	<circle cx="769.535" cy="359.675" r="4" fill="#0" id="circle180"/>
	<circle cx="769.535" cy="530.566" r="4" fill="#0" id="circle181"/>
	<circle cx="777.871" cy="108.202" r="4" fill="#0" id="circle182"/>
	<circle cx="780.65" cy="349.95" r="4" fill="#0" id="circle183"/>
	<circle cx="783.429" cy="331.888" r="4" fill="#0" id="circle184"/>
	<circle cx="790.375" cy="101.255" r="4" fill="#0" id="circle185"/>
	<circle cx="790.375" cy="317.994" r="4" fill="#0" id="circle186"/>
	<circle cx="797.322" cy="304.101" r="4" fill="#0" id="circle187"/>
	<circle cx="802.88" cy="94.3081" r="4" fill="#0" id="circle188"/>
	<circle cx="804.269" cy="290.207" r="4" fill="#0" id="circle189"/>
	<circle cx="815.384" cy="87.3613" r="4" fill="#0" id="circle190"/>
	<circle cx="816.773" cy="283.261" r="4" fill="#0" id="circle191"/>
	<circle cx="825.109" cy="269.367" r="4" fill="#0" id="circle192"/>
	<circle cx="827.888" cy="80.4146" r="4" fill="#0" id="circle193"/>
	<circle cx="839.003" cy="262.42" r="4" fill="#0" id="circle194"/>
	<circle cx="841.782" cy="73.4678" r="4" fill="#0" id="circle195"/>
	<circle cx="845.95" cy="248.527" r="4" fill="#0" id="circle196"/>
	<circle cx="852.896" cy="234.633" r="4" fill="#0" id="circle197"/>
	<circle cx="855.675" cy="73.4678" r="4" fill="#0" id="circle198"/>
	<circle cx="859.843" cy="220.739" r="4" fill="#0" id="circle199"/>
	<circle cx="866.79" cy="199.899" r="4" fill="#0" id="circle200"/>
	<circle cx="869.569" cy="66.521" r="4" fill="#0" id="circle201"/>
	<circle cx="873.737" cy="186.006" r="4" fill="#0" id="circle202"/>
	<circle cx="880.683" cy="172.112" r="4" fill="#0" id="circle203"/>
	<circle cx="883.462" cy="66.521" r="4" fill="#0" id="circle204"/>
	<circle cx="887.63" cy="151.272" r="4" fill="#0" id="circle205"/>
	<circle cx="894.577" cy="137.378" r="4" fill="#0" id="circle206"/>
	<circle cx="895.966" cy="59.5742" r="4" fill="#0" id="circle207"/>
	<circle cx="905.692" cy="127.653" r="4" fill="#0" id="circle208"/>
	<circle cx="908.471" cy="52.6275" r="4" fill="#0" id="circle209"/>
	<circle cx="914.028" cy="116.538" r="4" fill="#0" id="circle210"/>
	<circle cx="922.364" cy="52.6275" r="4" fill="#0" id="circle211"/>
	<circle cx="925.143" cy="108.202" r="4" fill="#0" id="circle212"/>
	<circle cx="932.09" cy="95.6975" r="4" fill="#0" id="circle213"/>
	<circle cx="934.868" cy="42.902" r="4" fill="#0" id="circle214"/>
	<circle cx="944.594" cy="88.7507" r="4" fill="#0" id="circle215"/>
	<circle cx="945.983" cy="31.7871" r="4" fill="#0" id="circle216"/>
	<circle cx="957.098" cy="74.8571" r="4" fill="#0" id="circle217"/>
	<circle cx="959.877" cy="24.8403" r="4" fill="#0" id="circle218"/>
	<circle cx="966.824" cy="10.9468" r="4" fill="#0" id="circle219"/>
	<circle cx="970.992" cy="67.9104" r="4" fill="#0" id="circle220"/>
	<circle cx="977.938" cy="54.0168" r="4" fill="#0" id="circle221"/>
	<circle cx="980.717" cy="4" r="4" fill="#0" id="circle222"/>
	<circle cx="989.053" cy="44.2913" r="4" fill="#0" id="circle223"/>
	<circle cx="994.611" cy="4" r="4" fill="#0" id="circle224"/>
	<circle cx="996" cy="30.3978" r="4" fill="#0" id="circle225"/>
	</g>
</svg>