<?xml version="1.0" encoding="UTF-8" standalone="no"?>
<!-- Created with CurveBenchmark -->
<svg
	xmlns:dc="http://purl.org/dc/elements/1.1/"
	xmlns:cc="http://creativecommons.org/ns#"
	xmlns:rdf="http://www.w3.org/1999/02/22-rdf-syntax-ns#"
	xmlns:svg="http://www.w3.org/2000/svg"
	xmlns="http://www.w3.org/2000/svg"
	xmlns:sodipodi="http://sodipodi.sourceforge.net/DTD/sodipodi-0.dtd"
	xmlns:inkscape="http://www.inkscape.org/namespaces/inkscape"
	width="1000"
	height="1000"
	id="svg2"
	version="1.1"
	sodipodi:docname="manifold/connect2d-Bone04.png.txt">
<defs
	id="defs4" />
<metadata
	id="metadata7">
	<rdf:RDF>
		<cc:Work
			rdf:about="">
			<dc:format>image/svg+xml</dc:format>
			<dc:type
				rdf:resource="http://purl.org/dc/dcmitype/StillImage" />
			<dc:title></dc:title>
		</cc:Work>
	</rdf:RDF>
</metadata>
<g
	inkscape:label="Layer 1"
	inkscape:groupmode="layer"
	id="layer1">
	<path style="fill:none;stroke:red;stroke-width:1px;stroke-linecap:butt;stroke-linejoin:miter;stroke-opacity:1" d="M 805.427,172.453 805.427,201.379 z" id="boundary" inkscape:connector-curvature="0" />
	<path style="fill:none;stroke:red;stroke-width:1px;stroke-linecap:butt;stroke-linejoin:miter;stroke-opacity:1" d="M 805.427,201.379 793.516,214.991 z" id="boundary" inkscape:connector-curvature="0" />
	<path style="fill:none;stroke:red;stroke-width:1px;stroke-linecap:butt;stroke-linejoin:miter;stroke-opacity:1" d="M 793.516,214.991 779.904,226.902 z" id="boundary" inkscape:connector-curvature="0" />
	<path style="fill:none;stroke:red;stroke-width:1px;stroke-linecap:butt;stroke-linejoin:miter;stroke-opacity:1" d="M 779.904,226.902 766.292,250.724 z" id="boundary" inkscape:connector-curvature="0" />
	<path style="fill:none;stroke:red;stroke-width:1px;stroke-linecap:butt;stroke-linejoin:miter;stroke-opacity:1" d="M 766.292,250.724 752.679,260.933 z" id="boundary" inkscape:connector-curvature="0" />
	<path style="fill:none;stroke:red;stroke-width:1px;stroke-linecap:butt;stroke-linejoin:miter;stroke-opacity:1" d="M 752.679,260.933 735.664,260.933 z" id="boundary" inkscape:connector-curvature="0" />
	<path style="fill:none;stroke:red;stroke-width:1px;stroke-linecap:butt;stroke-linejoin:miter;stroke-opacity:1" d="M 735.664,260.933 718.648,255.828 z" id="boundary" inkscape:connector-curvature="0" />
	<path style="fill:none;stroke:red;stroke-width:1px;stroke-linecap:butt;stroke-linejoin:miter;stroke-opacity:1" d="M 718.648,255.828 703.334,247.321 z" id="boundary" inkscape:connector-curvature="0" />
	<path style="fill:none;stroke:red;stroke-width:1px;stroke-linecap:butt;stroke-linejoin:miter;stroke-opacity:1" d="M 703.334,247.321 686.319,243.918 z" id="boundary" inkscape:connector-curvature="0" />
	<path style="fill:none;stroke:red;stroke-width:1px;stroke-linecap:butt;stroke-linejoin:miter;stroke-opacity:1" d="M 686.319,243.918 669.304,243.918 z" id="boundary" inkscape:connector-curvature="0" />
	<path style="fill:none;stroke:red;stroke-width:1px;stroke-linecap:butt;stroke-linejoin:miter;stroke-opacity:1" d="M 669.304,243.918 652.288,238.813 z" id="boundary" inkscape:connector-curvature="0" />
	<path style="fill:none;stroke:red;stroke-width:1px;stroke-linecap:butt;stroke-linejoin:miter;stroke-opacity:1" d="M 652.288,238.813 635.273,235.41 z" id="boundary" inkscape:connector-curvature="0" />
	<path style="fill:none;stroke:red;stroke-width:1px;stroke-linecap:butt;stroke-linejoin:miter;stroke-opacity:1" d="M 635.273,235.41 618.257,243.918 z" id="boundary" inkscape:connector-curvature="0" />
	<path style="fill:none;stroke:red;stroke-width:1px;stroke-linecap:butt;stroke-linejoin:miter;stroke-opacity:1" d="M 618.257,243.918 609.75,260.933 z" id="boundary" inkscape:connector-curvature="0" />
	<path style="fill:none;stroke:red;stroke-width:1px;stroke-linecap:butt;stroke-linejoin:miter;stroke-opacity:1" d="M 609.75,260.933 597.839,283.053 z" id="boundary" inkscape:connector-curvature="0" />
	<path style="fill:none;stroke:red;stroke-width:1px;stroke-linecap:butt;stroke-linejoin:miter;stroke-opacity:1" d="M 597.839,283.053 589.331,300.069 z" id="boundary" inkscape:connector-curvature="0" />
	<path style="fill:none;stroke:red;stroke-width:1px;stroke-linecap:butt;stroke-linejoin:miter;stroke-opacity:1" d="M 589.331,300.069 575.719,311.979 z" id="boundary" inkscape:connector-curvature="0" />
	<path style="fill:none;stroke:red;stroke-width:1px;stroke-linecap:butt;stroke-linejoin:miter;stroke-opacity:1" d="M 575.719,311.979 563.808,334.099 z" id="boundary" inkscape:connector-curvature="0" />
	<path style="fill:none;stroke:red;stroke-width:1px;stroke-linecap:butt;stroke-linejoin:miter;stroke-opacity:1" d="M 563.808,334.099 550.196,346.01 z" id="boundary" inkscape:connector-curvature="0" />
	<path style="fill:none;stroke:red;stroke-width:1px;stroke-linecap:butt;stroke-linejoin:miter;stroke-opacity:1" d="M 550.196,346.01 541.688,363.026 z" id="boundary" inkscape:connector-curvature="0" />
	<path style="fill:none;stroke:red;stroke-width:1px;stroke-linecap:butt;stroke-linejoin:miter;stroke-opacity:1" d="M 541.688,363.026 529.777,376.638 z" id="boundary" inkscape:connector-curvature="0" />
	<path style="fill:none;stroke:red;stroke-width:1px;stroke-linecap:butt;stroke-linejoin:miter;stroke-opacity:1" d="M 529.777,376.638 521.269,393.654 z" id="boundary" inkscape:connector-curvature="0" />
	<path style="fill:none;stroke:red;stroke-width:1px;stroke-linecap:butt;stroke-linejoin:miter;stroke-opacity:1" d="M 521.269,393.654 512.762,410.669 z" id="boundary" inkscape:connector-curvature="0" />
	<path style="fill:none;stroke:red;stroke-width:1px;stroke-linecap:butt;stroke-linejoin:miter;stroke-opacity:1" d="M 512.762,410.669 499.149,422.58 z" id="boundary" inkscape:connector-curvature="0" />
	<path style="fill:none;stroke:red;stroke-width:1px;stroke-linecap:butt;stroke-linejoin:miter;stroke-opacity:1" d="M 499.149,422.58 490.642,439.595 z" id="boundary" inkscape:connector-curvature="0" />
	<path style="fill:none;stroke:red;stroke-width:1px;stroke-linecap:butt;stroke-linejoin:miter;stroke-opacity:1" d="M 490.642,439.595 478.731,453.208 z" id="boundary" inkscape:connector-curvature="0" />
	<path style="fill:none;stroke:red;stroke-width:1px;stroke-linecap:butt;stroke-linejoin:miter;stroke-opacity:1" d="M 478.731,453.208 470.223,470.223 z" id="boundary" inkscape:connector-curvature="0" />
	<path style="fill:none;stroke:red;stroke-width:1px;stroke-linecap:butt;stroke-linejoin:miter;stroke-opacity:1" d="M 470.223,470.223 461.715,487.238 z" id="boundary" inkscape:connector-curvature="0" />
	<path style="fill:none;stroke:red;stroke-width:1px;stroke-linecap:butt;stroke-linejoin:miter;stroke-opacity:1" d="M 461.715,487.238 448.103,499.149 z" id="boundary" inkscape:connector-curvature="0" />
	<path style="fill:none;stroke:red;stroke-width:1px;stroke-linecap:butt;stroke-linejoin:miter;stroke-opacity:1" d="M 448.103,499.149 436.192,521.269 z" id="boundary" inkscape:connector-curvature="0" />
	<path style="fill:none;stroke:red;stroke-width:1px;stroke-linecap:butt;stroke-linejoin:miter;stroke-opacity:1" d="M 436.192,521.269 427.684,538.285 z" id="boundary" inkscape:connector-curvature="0" />
	<path style="fill:none;stroke:red;stroke-width:1px;stroke-linecap:butt;stroke-linejoin:miter;stroke-opacity:1" d="M 427.684,538.285 419.177,555.3 z" id="boundary" inkscape:connector-curvature="0" />
	<path style="fill:none;stroke:red;stroke-width:1px;stroke-linecap:butt;stroke-linejoin:miter;stroke-opacity:1" d="M 419.177,555.3 405.564,567.211 z" id="boundary" inkscape:connector-curvature="0" />
	<path style="fill:none;stroke:red;stroke-width:1px;stroke-linecap:butt;stroke-linejoin:miter;stroke-opacity:1" d="M 405.564,567.211 393.654,580.823 z" id="boundary" inkscape:connector-curvature="0" />
	<path style="fill:none;stroke:red;stroke-width:1px;stroke-linecap:butt;stroke-linejoin:miter;stroke-opacity:1" d="M 393.654,580.823 380.041,592.734 z" id="boundary" inkscape:connector-curvature="0" />
	<path style="fill:none;stroke:red;stroke-width:1px;stroke-linecap:butt;stroke-linejoin:miter;stroke-opacity:1" d="M 380.041,592.734 371.533,609.75 z" id="boundary" inkscape:connector-curvature="0" />
	<path style="fill:none;stroke:red;stroke-width:1px;stroke-linecap:butt;stroke-linejoin:miter;stroke-opacity:1" d="M 371.533,609.75 359.623,631.87 z" id="boundary" inkscape:connector-curvature="0" />
	<path style="fill:none;stroke:red;stroke-width:1px;stroke-linecap:butt;stroke-linejoin:miter;stroke-opacity:1" d="M 359.623,631.87 351.115,648.885 z" id="boundary" inkscape:connector-curvature="0" />
	<path style="fill:none;stroke:red;stroke-width:1px;stroke-linecap:butt;stroke-linejoin:miter;stroke-opacity:1" d="M 351.115,648.885 337.503,660.796 z" id="boundary" inkscape:connector-curvature="0" />
	<path style="fill:none;stroke:red;stroke-width:1px;stroke-linecap:butt;stroke-linejoin:miter;stroke-opacity:1" d="M 337.503,660.796 328.995,677.811 z" id="boundary" inkscape:connector-curvature="0" />
	<path style="fill:none;stroke:red;stroke-width:1px;stroke-linecap:butt;stroke-linejoin:miter;stroke-opacity:1" d="M 328.995,677.811 320.487,694.827 z" id="boundary" inkscape:connector-curvature="0" />
	<path style="fill:none;stroke:red;stroke-width:1px;stroke-linecap:butt;stroke-linejoin:miter;stroke-opacity:1" d="M 320.487,694.827 308.576,708.439 z" id="boundary" inkscape:connector-curvature="0" />
	<path style="fill:none;stroke:red;stroke-width:1px;stroke-linecap:butt;stroke-linejoin:miter;stroke-opacity:1" d="M 308.576,708.439 300.069,725.455 z" id="boundary" inkscape:connector-curvature="0" />
	<path style="fill:none;stroke:red;stroke-width:1px;stroke-linecap:butt;stroke-linejoin:miter;stroke-opacity:1" d="M 300.069,725.455 286.456,737.365 z" id="boundary" inkscape:connector-curvature="0" />
	<path style="fill:none;stroke:red;stroke-width:1px;stroke-linecap:butt;stroke-linejoin:miter;stroke-opacity:1" d="M 286.456,737.365 277.949,754.381 z" id="boundary" inkscape:connector-curvature="0" />
	<path style="fill:none;stroke:red;stroke-width:1px;stroke-linecap:butt;stroke-linejoin:miter;stroke-opacity:1" d="M 277.949,754.381 269.441,771.396 z" id="boundary" inkscape:connector-curvature="0" />
	<path style="fill:none;stroke:red;stroke-width:1px;stroke-linecap:butt;stroke-linejoin:miter;stroke-opacity:1" d="M 269.441,771.396 257.53,785.009 z" id="boundary" inkscape:connector-curvature="0" />
	<path style="fill:none;stroke:red;stroke-width:1px;stroke-linecap:butt;stroke-linejoin:miter;stroke-opacity:1" d="M 257.53,785.009 243.918,796.919 z" id="boundary" inkscape:connector-curvature="0" />
	<path style="fill:none;stroke:red;stroke-width:1px;stroke-linecap:butt;stroke-linejoin:miter;stroke-opacity:1" d="M 243.918,796.919 235.41,813.935 z" id="boundary" inkscape:connector-curvature="0" />
	<path style="fill:none;stroke:red;stroke-width:1px;stroke-linecap:butt;stroke-linejoin:miter;stroke-opacity:1" d="M 235.41,813.935 226.902,830.95 z" id="boundary" inkscape:connector-curvature="0" />
	<path style="fill:none;stroke:red;stroke-width:1px;stroke-linecap:butt;stroke-linejoin:miter;stroke-opacity:1" d="M 226.902,830.95 226.902,847.966 z" id="boundary" inkscape:connector-curvature="0" />
	<path style="fill:none;stroke:red;stroke-width:1px;stroke-linecap:butt;stroke-linejoin:miter;stroke-opacity:1" d="M 226.902,847.966 235.41,863.28 z" id="boundary" inkscape:connector-curvature="0" />
	<path style="fill:none;stroke:red;stroke-width:1px;stroke-linecap:butt;stroke-linejoin:miter;stroke-opacity:1" d="M 235.41,863.28 235.41,880.295 z" id="boundary" inkscape:connector-curvature="0" />
	<path style="fill:none;stroke:red;stroke-width:1px;stroke-linecap:butt;stroke-linejoin:miter;stroke-opacity:1" d="M 235.41,880.295 235.41,897.31 z" id="boundary" inkscape:connector-curvature="0" />
	<path style="fill:none;stroke:red;stroke-width:1px;stroke-linecap:butt;stroke-linejoin:miter;stroke-opacity:1" d="M 235.41,897.31 243.918,912.624 z" id="boundary" inkscape:connector-curvature="0" />
	<path style="fill:none;stroke:red;stroke-width:1px;stroke-linecap:butt;stroke-linejoin:miter;stroke-opacity:1" d="M 243.918,912.624 243.918,929.64 z" id="boundary" inkscape:connector-curvature="0" />
	<path style="fill:none;stroke:red;stroke-width:1px;stroke-linecap:butt;stroke-linejoin:miter;stroke-opacity:1" d="M 243.918,929.64 235.41,950.058 z" id="boundary" inkscape:connector-curvature="0" />
	<path style="fill:none;stroke:red;stroke-width:1px;stroke-linecap:butt;stroke-linejoin:miter;stroke-opacity:1" d="M 235.41,950.058 223.499,963.671 z" id="boundary" inkscape:connector-curvature="0" />
	<path style="fill:none;stroke:red;stroke-width:1px;stroke-linecap:butt;stroke-linejoin:miter;stroke-opacity:1" d="M 223.499,963.671 209.887,975.581 z" id="boundary" inkscape:connector-curvature="0" />
	<path style="fill:none;stroke:red;stroke-width:1px;stroke-linecap:butt;stroke-linejoin:miter;stroke-opacity:1" d="M 209.887,975.581 192.871,984.089 z" id="boundary" inkscape:connector-curvature="0" />
	<path style="fill:none;stroke:red;stroke-width:1px;stroke-linecap:butt;stroke-linejoin:miter;stroke-opacity:1" d="M 192.871,984.089 175.856,992.597 z" id="boundary" inkscape:connector-curvature="0" />
	<path style="fill:none;stroke:red;stroke-width:1px;stroke-linecap:butt;stroke-linejoin:miter;stroke-opacity:1" d="M 175.856,992.597 158.84,996 z" id="boundary" inkscape:connector-curvature="0" />
	<path style="fill:none;stroke:red;stroke-width:1px;stroke-linecap:butt;stroke-linejoin:miter;stroke-opacity:1" d="M 158.84,996 141.825,992.597 z" id="boundary" inkscape:connector-curvature="0" />
	<path style="fill:none;stroke:red;stroke-width:1px;stroke-linecap:butt;stroke-linejoin:miter;stroke-opacity:1" d="M 141.825,992.597 126.511,984.089 z" id="boundary" inkscape:connector-curvature="0" />
	<path style="fill:none;stroke:red;stroke-width:1px;stroke-linecap:butt;stroke-linejoin:miter;stroke-opacity:1" d="M 126.511,984.089 111.197,975.581 z" id="boundary" inkscape:connector-curvature="0" />
	<path style="fill:none;stroke:red;stroke-width:1px;stroke-linecap:butt;stroke-linejoin:miter;stroke-opacity:1" d="M 111.197,975.581 94.1818,973.88 z" id="boundary" inkscape:connector-curvature="0" />
	<path style="fill:none;stroke:red;stroke-width:1px;stroke-linecap:butt;stroke-linejoin:miter;stroke-opacity:1" d="M 94.1818,973.88 80.5695,961.969 z" id="boundary" inkscape:connector-curvature="0" />
	<path style="fill:none;stroke:red;stroke-width:1px;stroke-linecap:butt;stroke-linejoin:miter;stroke-opacity:1" d="M 80.5695,961.969 89.0772,936.446 z" id="boundary" inkscape:connector-curvature="0" />
	<path style="fill:none;stroke:red;stroke-width:1px;stroke-linecap:butt;stroke-linejoin:miter;stroke-opacity:1" d="M 89.0772,936.446 97.5849,912.624 z" id="boundary" inkscape:connector-curvature="0" />
	<path style="fill:none;stroke:red;stroke-width:1px;stroke-linecap:butt;stroke-linejoin:miter;stroke-opacity:1" d="M 97.5849,912.624 85.6741,899.012 z" id="boundary" inkscape:connector-curvature="0" />
	<path style="fill:none;stroke:red;stroke-width:1px;stroke-linecap:butt;stroke-linejoin:miter;stroke-opacity:1" d="M 85.6741,899.012 68.6587,899.012 z" id="boundary" inkscape:connector-curvature="0" />
	<path style="fill:none;stroke:red;stroke-width:1px;stroke-linecap:butt;stroke-linejoin:miter;stroke-opacity:1" d="M 68.6587,899.012 51.6432,899.012 z" id="boundary" inkscape:connector-curvature="0" />
	<path style="fill:none;stroke:red;stroke-width:1px;stroke-linecap:butt;stroke-linejoin:miter;stroke-opacity:1" d="M 51.6432,899.012 36.3293,890.504 z" id="boundary" inkscape:connector-curvature="0" />
	<path style="fill:none;stroke:red;stroke-width:1px;stroke-linecap:butt;stroke-linejoin:miter;stroke-opacity:1" d="M 36.3293,890.504 21.0154,881.997 z" id="boundary" inkscape:connector-curvature="0" />
	<path style="fill:none;stroke:red;stroke-width:1px;stroke-linecap:butt;stroke-linejoin:miter;stroke-opacity:1" d="M 21.0154,881.997 12.5077,866.683 z" id="boundary" inkscape:connector-curvature="0" />
	<path style="fill:none;stroke:red;stroke-width:1px;stroke-linecap:butt;stroke-linejoin:miter;stroke-opacity:1" d="M 12.5077,866.683 12.5077,849.667 z" id="boundary" inkscape:connector-curvature="0" />
	<path style="fill:none;stroke:red;stroke-width:1px;stroke-linecap:butt;stroke-linejoin:miter;stroke-opacity:1" d="M 12.5077,849.667 4,834.353 z" id="boundary" inkscape:connector-curvature="0" />
	<path style="fill:none;stroke:red;stroke-width:1px;stroke-linecap:butt;stroke-linejoin:miter;stroke-opacity:1" d="M 4,834.353 4,817.338 z" id="boundary" inkscape:connector-curvature="0" />
	<path style="fill:none;stroke:red;stroke-width:1px;stroke-linecap:butt;stroke-linejoin:miter;stroke-opacity:1" d="M 4,817.338 12.5077,800.322 z" id="boundary" inkscape:connector-curvature="0" />
	<path style="fill:none;stroke:red;stroke-width:1px;stroke-linecap:butt;stroke-linejoin:miter;stroke-opacity:1" d="M 12.5077,800.322 26.1201,786.71 z" id="boundary" inkscape:connector-curvature="0" />
	<path style="fill:none;stroke:red;stroke-width:1px;stroke-linecap:butt;stroke-linejoin:miter;stroke-opacity:1" d="M 26.1201,786.71 39.7324,773.098 z" id="boundary" inkscape:connector-curvature="0" />
	<path style="fill:none;stroke:red;stroke-width:1px;stroke-linecap:butt;stroke-linejoin:miter;stroke-opacity:1" d="M 39.7324,773.098 53.3448,761.187 z" id="boundary" inkscape:connector-curvature="0" />
	<path style="fill:none;stroke:red;stroke-width:1px;stroke-linecap:butt;stroke-linejoin:miter;stroke-opacity:1" d="M 53.3448,761.187 68.6587,752.679 z" id="boundary" inkscape:connector-curvature="0" />
	<path style="fill:none;stroke:red;stroke-width:1px;stroke-linecap:butt;stroke-linejoin:miter;stroke-opacity:1" d="M 68.6587,752.679 83.9726,761.187 z" id="boundary" inkscape:connector-curvature="0" />
	<path style="fill:none;stroke:red;stroke-width:1px;stroke-linecap:butt;stroke-linejoin:miter;stroke-opacity:1" d="M 83.9726,761.187 99.2864,769.695 z" id="boundary" inkscape:connector-curvature="0" />
	<path style="fill:none;stroke:red;stroke-width:1px;stroke-linecap:butt;stroke-linejoin:miter;stroke-opacity:1" d="M 99.2864,769.695 116.302,769.695 z" id="boundary" inkscape:connector-curvature="0" />
	<path style="fill:none;stroke:red;stroke-width:1px;stroke-linecap:butt;stroke-linejoin:miter;stroke-opacity:1" d="M 116.302,769.695 131.616,778.202 z" id="boundary" inkscape:connector-curvature="0" />
	<path style="fill:none;stroke:red;stroke-width:1px;stroke-linecap:butt;stroke-linejoin:miter;stroke-opacity:1" d="M 131.616,778.202 145.228,788.412 z" id="boundary" inkscape:connector-curvature="0" />
	<path style="fill:none;stroke:red;stroke-width:1px;stroke-linecap:butt;stroke-linejoin:miter;stroke-opacity:1" d="M 145.228,788.412 160.542,779.904 z" id="boundary" inkscape:connector-curvature="0" />
	<path style="fill:none;stroke:red;stroke-width:1px;stroke-linecap:butt;stroke-linejoin:miter;stroke-opacity:1" d="M 160.542,779.904 174.154,766.292 z" id="boundary" inkscape:connector-curvature="0" />
	<path style="fill:none;stroke:red;stroke-width:1px;stroke-linecap:butt;stroke-linejoin:miter;stroke-opacity:1" d="M 174.154,766.292 187.767,752.679 z" id="boundary" inkscape:connector-curvature="0" />
	<path style="fill:none;stroke:red;stroke-width:1px;stroke-linecap:butt;stroke-linejoin:miter;stroke-opacity:1" d="M 187.767,752.679 196.274,735.664 z" id="boundary" inkscape:connector-curvature="0" />
	<path style="fill:none;stroke:red;stroke-width:1px;stroke-linecap:butt;stroke-linejoin:miter;stroke-opacity:1" d="M 196.274,735.664 204.782,718.648 z" id="boundary" inkscape:connector-curvature="0" />
	<path style="fill:none;stroke:red;stroke-width:1px;stroke-linecap:butt;stroke-linejoin:miter;stroke-opacity:1" d="M 204.782,718.648 216.693,698.23 z" id="boundary" inkscape:connector-curvature="0" />
	<path style="fill:none;stroke:red;stroke-width:1px;stroke-linecap:butt;stroke-linejoin:miter;stroke-opacity:1" d="M 216.693,698.23 230.305,684.617 z" id="boundary" inkscape:connector-curvature="0" />
	<path style="fill:none;stroke:red;stroke-width:1px;stroke-linecap:butt;stroke-linejoin:miter;stroke-opacity:1" d="M 230.305,684.617 238.813,667.602 z" id="boundary" inkscape:connector-curvature="0" />
	<path style="fill:none;stroke:red;stroke-width:1px;stroke-linecap:butt;stroke-linejoin:miter;stroke-opacity:1" d="M 238.813,667.602 247.321,650.587 z" id="boundary" inkscape:connector-curvature="0" />
	<path style="fill:none;stroke:red;stroke-width:1px;stroke-linecap:butt;stroke-linejoin:miter;stroke-opacity:1" d="M 247.321,650.587 259.232,630.168 z" id="boundary" inkscape:connector-curvature="0" />
	<path style="fill:none;stroke:red;stroke-width:1px;stroke-linecap:butt;stroke-linejoin:miter;stroke-opacity:1" d="M 259.232,630.168 267.739,613.153 z" id="boundary" inkscape:connector-curvature="0" />
	<path style="fill:none;stroke:red;stroke-width:1px;stroke-linecap:butt;stroke-linejoin:miter;stroke-opacity:1" d="M 267.739,613.153 281.352,599.54 z" id="boundary" inkscape:connector-curvature="0" />
	<path style="fill:none;stroke:red;stroke-width:1px;stroke-linecap:butt;stroke-linejoin:miter;stroke-opacity:1" d="M 281.352,599.54 293.262,579.122 z" id="boundary" inkscape:connector-curvature="0" />
	<path style="fill:none;stroke:red;stroke-width:1px;stroke-linecap:butt;stroke-linejoin:miter;stroke-opacity:1" d="M 293.262,579.122 301.77,562.106 z" id="boundary" inkscape:connector-curvature="0" />
	<path style="fill:none;stroke:red;stroke-width:1px;stroke-linecap:butt;stroke-linejoin:miter;stroke-opacity:1" d="M 301.77,562.106 315.383,548.494 z" id="boundary" inkscape:connector-curvature="0" />
	<path style="fill:none;stroke:red;stroke-width:1px;stroke-linecap:butt;stroke-linejoin:miter;stroke-opacity:1" d="M 315.383,548.494 323.89,531.479 z" id="boundary" inkscape:connector-curvature="0" />
	<path style="fill:none;stroke:red;stroke-width:1px;stroke-linecap:butt;stroke-linejoin:miter;stroke-opacity:1" d="M 323.89,531.479 335.801,511.06 z" id="boundary" inkscape:connector-curvature="0" />
	<path style="fill:none;stroke:red;stroke-width:1px;stroke-linecap:butt;stroke-linejoin:miter;stroke-opacity:1" d="M 335.801,511.06 344.309,494.045 z" id="boundary" inkscape:connector-curvature="0" />
	<path style="fill:none;stroke:red;stroke-width:1px;stroke-linecap:butt;stroke-linejoin:miter;stroke-opacity:1" d="M 344.309,494.045 357.921,480.432 z" id="boundary" inkscape:connector-curvature="0" />
	<path style="fill:none;stroke:red;stroke-width:1px;stroke-linecap:butt;stroke-linejoin:miter;stroke-opacity:1" d="M 357.921,480.432 369.832,460.014 z" id="boundary" inkscape:connector-curvature="0" />
	<path style="fill:none;stroke:red;stroke-width:1px;stroke-linecap:butt;stroke-linejoin:miter;stroke-opacity:1" d="M 369.832,460.014 378.34,442.998 z" id="boundary" inkscape:connector-curvature="0" />
	<path style="fill:none;stroke:red;stroke-width:1px;stroke-linecap:butt;stroke-linejoin:miter;stroke-opacity:1" d="M 378.34,442.998 391.952,429.386 z" id="boundary" inkscape:connector-curvature="0" />
	<path style="fill:none;stroke:red;stroke-width:1px;stroke-linecap:butt;stroke-linejoin:miter;stroke-opacity:1" d="M 391.952,429.386 400.46,412.37 z" id="boundary" inkscape:connector-curvature="0" />
	<path style="fill:none;stroke:red;stroke-width:1px;stroke-linecap:butt;stroke-linejoin:miter;stroke-opacity:1" d="M 400.46,412.37 414.072,398.758 z" id="boundary" inkscape:connector-curvature="0" />
	<path style="fill:none;stroke:red;stroke-width:1px;stroke-linecap:butt;stroke-linejoin:miter;stroke-opacity:1" d="M 414.072,398.758 422.58,381.743 z" id="boundary" inkscape:connector-curvature="0" />
	<path style="fill:none;stroke:red;stroke-width:1px;stroke-linecap:butt;stroke-linejoin:miter;stroke-opacity:1" d="M 422.58,381.743 431.087,364.727 z" id="boundary" inkscape:connector-curvature="0" />
	<path style="fill:none;stroke:red;stroke-width:1px;stroke-linecap:butt;stroke-linejoin:miter;stroke-opacity:1" d="M 431.087,364.727 444.7,352.816 z" id="boundary" inkscape:connector-curvature="0" />
	<path style="fill:none;stroke:red;stroke-width:1px;stroke-linecap:butt;stroke-linejoin:miter;stroke-opacity:1" d="M 444.7,352.816 451.506,335.801 z" id="boundary" inkscape:connector-curvature="0" />
	<path style="fill:none;stroke:red;stroke-width:1px;stroke-linecap:butt;stroke-linejoin:miter;stroke-opacity:1" d="M 451.506,335.801 460.014,318.786 z" id="boundary" inkscape:connector-curvature="0" />
	<path style="fill:none;stroke:red;stroke-width:1px;stroke-linecap:butt;stroke-linejoin:miter;stroke-opacity:1" d="M 460.014,318.786 471.925,298.367 z" id="boundary" inkscape:connector-curvature="0" />
	<path style="fill:none;stroke:red;stroke-width:1px;stroke-linecap:butt;stroke-linejoin:miter;stroke-opacity:1" d="M 471.925,298.367 480.432,281.352 z" id="boundary" inkscape:connector-curvature="0" />
	<path style="fill:none;stroke:red;stroke-width:1px;stroke-linecap:butt;stroke-linejoin:miter;stroke-opacity:1" d="M 480.432,281.352 494.045,267.739 z" id="boundary" inkscape:connector-curvature="0" />
	<path style="fill:none;stroke:red;stroke-width:1px;stroke-linecap:butt;stroke-linejoin:miter;stroke-opacity:1" d="M 494.045,267.739 502.552,250.724 z" id="boundary" inkscape:connector-curvature="0" />
	<path style="fill:none;stroke:red;stroke-width:1px;stroke-linecap:butt;stroke-linejoin:miter;stroke-opacity:1" d="M 502.552,250.724 514.463,230.305 z" id="boundary" inkscape:connector-curvature="0" />
	<path style="fill:none;stroke:red;stroke-width:1px;stroke-linecap:butt;stroke-linejoin:miter;stroke-opacity:1" d="M 514.463,230.305 522.971,213.29 z" id="boundary" inkscape:connector-curvature="0" />
	<path style="fill:none;stroke:red;stroke-width:1px;stroke-linecap:butt;stroke-linejoin:miter;stroke-opacity:1" d="M 522.971,213.29 536.583,199.678 z" id="boundary" inkscape:connector-curvature="0" />
	<path style="fill:none;stroke:red;stroke-width:1px;stroke-linecap:butt;stroke-linejoin:miter;stroke-opacity:1" d="M 536.583,199.678 545.091,182.662 z" id="boundary" inkscape:connector-curvature="0" />
	<path style="fill:none;stroke:red;stroke-width:1px;stroke-linecap:butt;stroke-linejoin:miter;stroke-opacity:1" d="M 545.091,182.662 548.494,162.244 z" id="boundary" inkscape:connector-curvature="0" />
	<path style="fill:none;stroke:red;stroke-width:1px;stroke-linecap:butt;stroke-linejoin:miter;stroke-opacity:1" d="M 548.494,162.244 548.494,145.228 z" id="boundary" inkscape:connector-curvature="0" />
	<path style="fill:none;stroke:red;stroke-width:1px;stroke-linecap:butt;stroke-linejoin:miter;stroke-opacity:1" d="M 548.494,145.228 548.494,128.213 z" id="boundary" inkscape:connector-curvature="0" />
	<path style="fill:none;stroke:red;stroke-width:1px;stroke-linecap:butt;stroke-linejoin:miter;stroke-opacity:1" d="M 548.494,128.213 548.494,111.197 z" id="boundary" inkscape:connector-curvature="0" />
	<path style="fill:none;stroke:red;stroke-width:1px;stroke-linecap:butt;stroke-linejoin:miter;stroke-opacity:1" d="M 548.494,111.197 548.494,94.1818 z" id="boundary" inkscape:connector-curvature="0" />
	<path style="fill:none;stroke:red;stroke-width:1px;stroke-linecap:butt;stroke-linejoin:miter;stroke-opacity:1" d="M 548.494,94.1818 548.494,77.1664 z" id="boundary" inkscape:connector-curvature="0" />
	<path style="fill:none;stroke:red;stroke-width:1px;stroke-linecap:butt;stroke-linejoin:miter;stroke-opacity:1" d="M 548.494,77.1664 557.002,60.1509 z" id="boundary" inkscape:connector-curvature="0" />
	<path style="fill:none;stroke:red;stroke-width:1px;stroke-linecap:butt;stroke-linejoin:miter;stroke-opacity:1" d="M 557.002,60.1509 557.002,43.1355 z" id="boundary" inkscape:connector-curvature="0" />
	<path style="fill:none;stroke:red;stroke-width:1px;stroke-linecap:butt;stroke-linejoin:miter;stroke-opacity:1" d="M 557.002,43.1355 557.002,26.1201 z" id="boundary" inkscape:connector-curvature="0" />
	<path style="fill:none;stroke:red;stroke-width:1px;stroke-linecap:butt;stroke-linejoin:miter;stroke-opacity:1" d="M 557.002,26.1201 557.002,9.10463 z" id="boundary" inkscape:connector-curvature="0" />
	<path style="fill:none;stroke:red;stroke-width:1px;stroke-linecap:butt;stroke-linejoin:miter;stroke-opacity:1" d="M 557.002,9.10463 574.017,4 z" id="boundary" inkscape:connector-curvature="0" />
	<path style="fill:none;stroke:red;stroke-width:1px;stroke-linecap:butt;stroke-linejoin:miter;stroke-opacity:1" d="M 574.017,4 591.033,4 z" id="boundary" inkscape:connector-curvature="0" />
	<path style="fill:none;stroke:red;stroke-width:1px;stroke-linecap:butt;stroke-linejoin:miter;stroke-opacity:1" d="M 591.033,4 608.048,4 z" id="boundary" inkscape:connector-curvature="0" />
	<path style="fill:none;stroke:red;stroke-width:1px;stroke-linecap:butt;stroke-linejoin:miter;stroke-opacity:1" d="M 608.048,4 625.063,4 z" id="boundary" inkscape:connector-curvature="0" />
	<path style="fill:none;stroke:red;stroke-width:1px;stroke-linecap:butt;stroke-linejoin:miter;stroke-opacity:1" d="M 625.063,4 642.079,4 z" id="boundary" inkscape:connector-curvature="0" />
	<path style="fill:none;stroke:red;stroke-width:1px;stroke-linecap:butt;stroke-linejoin:miter;stroke-opacity:1" d="M 642.079,4 659.094,7.40309 z" id="boundary" inkscape:connector-curvature="0" />
	<path style="fill:none;stroke:red;stroke-width:1px;stroke-linecap:butt;stroke-linejoin:miter;stroke-opacity:1" d="M 659.094,7.40309 669.304,21.0154 z" id="boundary" inkscape:connector-curvature="0" />
	<path style="fill:none;stroke:red;stroke-width:1px;stroke-linecap:butt;stroke-linejoin:miter;stroke-opacity:1" d="M 669.304,21.0154 677.811,36.3293 z" id="boundary" inkscape:connector-curvature="0" />
	<path style="fill:none;stroke:red;stroke-width:1px;stroke-linecap:butt;stroke-linejoin:miter;stroke-opacity:1" d="M 677.811,36.3293 686.319,51.6432 z" id="boundary" inkscape:connector-curvature="0" />
	<path style="fill:none;stroke:red;stroke-width:1px;stroke-linecap:butt;stroke-linejoin:miter;stroke-opacity:1" d="M 686.319,51.6432 693.125,68.6587 z" id="boundary" inkscape:connector-curvature="0" />
	<path style="fill:none;stroke:red;stroke-width:1px;stroke-linecap:butt;stroke-linejoin:miter;stroke-opacity:1" d="M 693.125,68.6587 706.738,80.5695 z" id="boundary" inkscape:connector-curvature="0" />
	<path style="fill:none;stroke:red;stroke-width:1px;stroke-linecap:butt;stroke-linejoin:miter;stroke-opacity:1" d="M 706.738,80.5695 723.753,80.5695 z" id="boundary" inkscape:connector-curvature="0" />
	<path style="fill:none;stroke:red;stroke-width:1px;stroke-linecap:butt;stroke-linejoin:miter;stroke-opacity:1" d="M 723.753,80.5695 740.768,80.5695 z" id="boundary" inkscape:connector-curvature="0" />
	<path style="fill:none;stroke:red;stroke-width:1px;stroke-linecap:butt;stroke-linejoin:miter;stroke-opacity:1" d="M 740.768,80.5695 756.082,89.0772 z" id="boundary" inkscape:connector-curvature="0" />
	<path style="fill:none;stroke:red;stroke-width:1px;stroke-linecap:butt;stroke-linejoin:miter;stroke-opacity:1" d="M 756.082,89.0772 771.396,97.5849 z" id="boundary" inkscape:connector-curvature="0" />
	<path style="fill:none;stroke:red;stroke-width:1px;stroke-linecap:butt;stroke-linejoin:miter;stroke-opacity:1" d="M 771.396,97.5849 785.009,107.794 z" id="boundary" inkscape:connector-curvature="0" />
	<path style="fill:none;stroke:red;stroke-width:1px;stroke-linecap:butt;stroke-linejoin:miter;stroke-opacity:1" d="M 785.009,107.794 788.412,124.81 z" id="boundary" inkscape:connector-curvature="0" />
	<path style="fill:none;stroke:red;stroke-width:1px;stroke-linecap:butt;stroke-linejoin:miter;stroke-opacity:1" d="M 788.412,124.81 796.919,140.123 z" id="boundary" inkscape:connector-curvature="0" />
	<path style="fill:none;stroke:red;stroke-width:1px;stroke-linecap:butt;stroke-linejoin:miter;stroke-opacity:1" d="M 796.919,140.123 805.427,155.437 z" id="boundary" inkscape:connector-curvature="0" />
	<path style="fill:none;stroke:red;stroke-width:1px;stroke-linecap:butt;stroke-linejoin:miter;stroke-opacity:1" d="M 805.427,155.437 805.427,172.453 z" id="boundary" inkscape:connector-curvature="0" />
	<circle cx="4" cy="817.338" r="4" fill="#0" id="circle0"/>
	<circle cx="4" cy="834.353" r="4" fill="#0" id="circle1"/>
	<circle cx="12.5077" cy="800.322" r="4" fill="#0" id="circle2"/>
	<circle cx="12.5077" cy="849.667" r="4" fill="#0" id="circle3"/>
	<circle cx="12.5077" cy="866.683" r="4" fill="#0" id="circle4"/>
	<circle cx="21.0154" cy="881.997" r="4" fill="#0" id="circle5"/>
	<circle cx="26.1201" cy="786.71" r="4" fill="#0" id="circle6"/>
	<circle cx="36.3293" cy="890.504" r="4" fill="#0" id="circle7"/>
	<circle cx="39.7324" cy="773.098" r="4" fill="#0" id="circle8"/>
	<circle cx="51.6432" cy="899.012" r="4" fill="#0" id="circle9"/>
	<circle cx="53.3448" cy="761.187" r="4" fill="#0" id="circle10"/>
	<circle cx="68.6587" cy="752.679" r="4" fill="#0" id="circle11"/>
	<circle cx="68.6587" cy="899.012" r="4" fill="#0" id="circle12"/>
	<circle cx="80.5695" cy="961.969" r="4" fill="#0" id="circle13"/>
	<circle cx="83.9726" cy="761.187" r="4" fill="#0" id="circle14"/>
	<circle cx="85.6741" cy="899.012" r="4" fill="#0" id="circle15"/>
	<circle cx="89.0772" cy="936.446" r="4" fill="#0" id="circle16"/>
	<circle cx="94.1818" cy="973.88" r="4" fill="#0" id="circle17"/>
	<circle cx="97.5849" cy="912.624" r="4" fill="#0" id="circle18"/>
	<circle cx="99.2864" cy="769.695" r="4" fill="#0" id="circle19"/>
	<circle cx="111.197" cy="975.581" r="4" fill="#0" id="circle20"/>
	<circle cx="116.302" cy="769.695" r="4" fill="#0" id="circle21"/>
	<circle cx="126.511" cy="984.089" r="4" fill="#0" id="circle22"/>
	<circle cx="131.616" cy="778.202" r="4" fill="#0" id="circle23"/>
	<circle cx="141.825" cy="992.597" r="4" fill="#0" id="circle24"/>
	<circle cx="145.228" cy="788.412" r="4" fill="#0" id="circle25"/>
	<circle cx="158.84" cy="996" r="4" fill="#0" id="circle26"/>
	<circle cx="160.542" cy="779.904" r="4" fill="#0" id="circle27"/>
	<circle cx="174.154" cy="766.292" r="4" fill="#0" id="circle28"/>
	<circle cx="175.856" cy="992.597" r="4" fill="#0" id="circle29"/>
	<circle cx="187.767" cy="752.679" r="4" fill="#0" id="circle30"/>
	<circle cx="192.871" cy="984.089" r="4" fill="#0" id="circle31"/>
	<circle cx="196.274" cy="735.664" r="4" fill="#0" id="circle32"/>
	<circle cx="204.782" cy="718.648" r="4" fill="#0" id="circle33"/>
	<circle cx="209.887" cy="975.581" r="4" fill="#0" id="circle34"/>
	<circle cx="216.693" cy="698.23" r="4" fill="#0" id="circle35"/>
	<circle cx="223.499" cy="963.671" r="4" fill="#0" id="circle36"/>
	<circle cx="226.902" cy="830.95" r="4" fill="#0" id="circle37"/>
	<circle cx="226.902" cy="847.966" r="4" fill="#0" id="circle38"/>
	<circle cx="230.305" cy="684.617" r="4" fill="#0" id="circle39"/>
	<circle cx="235.41" cy="813.935" r="4" fill="#0" id="circle40"/>
	<circle cx="235.41" cy="863.28" r="4" fill="#0" id="circle41"/>
	<circle cx="235.41" cy="880.295" r="4" fill="#0" id="circle42"/>
	<circle cx="235.41" cy="897.31" r="4" fill="#0" id="circle43"/>
	<circle cx="235.41" cy="950.058" r="4" fill="#0" id="circle44"/>
	<circle cx="238.813" cy="667.602" r="4" fill="#0" id="circle45"/>
	<circle cx="243.918" cy="796.919" r="4" fill="#0" id="circle46"/>
	<circle cx="243.918" cy="912.624" r="4" fill="#0" id="circle47"/>
	<circle cx="243.918" cy="929.64" r="4" fill="#0" id="circle48"/>
	<circle cx="247.321" cy="650.587" r="4" fill="#0" id="circle49"/>
	<circle cx="257.53" cy="785.009" r="4" fill="#0" id="circle50"/>
	<circle cx="259.232" cy="630.168" r="4" fill="#0" id="circle51"/>
	<circle cx="267.739" cy="613.153" r="4" fill="#0" id="circle52"/>
	<circle cx="269.441" cy="771.396" r="4" fill="#0" id="circle53"/>
	<circle cx="277.949" cy="754.381" r="4" fill="#0" id="circle54"/>
	<circle cx="281.352" cy="599.54" r="4" fill="#0" id="circle55"/>
	<circle cx="286.456" cy="737.365" r="4" fill="#0" id="circle56"/>
	<circle cx="293.262" cy="579.122" r="4" fill="#0" id="circle57"/>
	<circle cx="300.069" cy="725.455" r="4" fill="#0" id="circle58"/>
	<circle cx="301.77" cy="562.106" r="4" fill="#0" id="circle59"/>
	<circle cx="308.576" cy="708.439" r="4" fill="#0" id="circle60"/>
	<circle cx="315.383" cy="548.494" r="4" fill="#0" id="circle61"/>
	<circle cx="320.487" cy="694.827" r="4" fill="#0" id="circle62"/>
	<circle cx="323.89" cy="531.479" r="4" fill="#0" id="circle63"/>
	<circle cx="328.995" cy="677.811" r="4" fill="#0" id="circle64"/>
	<circle cx="335.801" cy="511.06" r="4" fill="#0" id="circle65"/>
	<circle cx="337.503" cy="660.796" r="4" fill="#0" id="circle66"/>
	<circle cx="344.309" cy="494.045" r="4" fill="#0" id="circle67"/>
	<circle cx="351.115" cy="648.885" r="4" fill="#0" id="circle68"/>
	<circle cx="357.921" cy="480.432" r="4" fill="#0" id="circle69"/>
	<circle cx="359.623" cy="631.87" r="4" fill="#0" id="circle70"/>
	<circle cx="369.832" cy="460.014" r="4" fill="#0" id="circle71"/>
	<circle cx="371.533" cy="609.75" r="4" fill="#0" id="circle72"/>
	<circle cx="378.34" cy="442.998" r="4" fill="#0" id="circle73"/>
	<circle cx="380.041" cy="592.734" r="4" fill="#0" id="circle74"/>
	<circle cx="391.952" cy="429.386" r="4" fill="#0" id="circle75"/>
	<circle cx="393.654" cy="580.823" r="4" fill="#0" id="circle76"/>
	<circle cx="400.46" cy="412.37" r="4" fill="#0" id="circle77"/>
	<circle cx="405.564" cy="567.211" r="4" fill="#0" id="circle78"/>
	<circle cx="414.072" cy="398.758" r="4" fill="#0" id="circle79"/>
	<circle cx="419.177" cy="555.3" r="4" fill="#0" id="circle80"/>
	<circle cx="422.58" cy="381.743" r="4" fill="#0" id="circle81"/>
	<circle cx="427.684" cy="538.285" r="4" fill="#0" id="circle82"/>
	<circle cx="431.087" cy="364.727" r="4" fill="#0" id="circle83"/>
	<circle cx="436.192" cy="521.269" r="4" fill="#0" id="circle84"/>
	<circle cx="444.7" cy="352.816" r="4" fill="#0" id="circle85"/>
	<circle cx="448.103" cy="499.149" r="4" fill="#0" id="circle86"/>
	<circle cx="451.506" cy="335.801" r="4" fill="#0" id="circle87"/>
	<circle cx="460.014" cy="318.786" r="4" fill="#0" id="circle88"/>
	<circle cx="461.715" cy="487.238" r="4" fill="#0" id="circle89"/>
	<circle cx="470.223" cy="470.223" r="4" fill="#0" id="circle90"/>
	<circle cx="471.925" cy="298.367" r="4" fill="#0" id="circle91"/>
	<circle cx="478.731" cy="453.208" r="4" fill="#0" id="circle92"/>
	<circle cx="480.432" cy="281.352" r="4" fill="#0" id="circle93"/>
	<circle cx="490.642" cy="439.595" r="4" fill="#0" id="circle94"/>
	<circle cx="494.045" cy="267.739" r="4" fill="#0" id="circle95"/>
	<circle cx="499.149" cy="422.58" r="4" fill="#0" id="circle96"/>
	<circle cx="502.552" cy="250.724" r="4" fill="#0" id="circle97"/>
	<circle cx="512.762" cy="410.669" r="4" fill="#0" id="circle98"/>
	<circle cx="514.463" cy="230.305" r="4" fill="#0" id="circle99"/>
	<circle cx="521.269" cy="393.654" r="4" fill="#0" id="circle100"/>
	<circle cx="522.971" cy="213.29" r="4" fill="#0" id="circle101"/>
	<circle cx="529.777" cy="376.638" r="4" fill="#0" id="circle102"/>
	<circle cx="536.583" cy="199.678" r="4" fill="#0" id="circle103"/>
	<circle cx="541.688" cy="363.026" r="4" fill="#0" id="circle104"/>
	<circle cx="545.091" cy="182.662" r="4" fill="#0" id="circle105"/>
	<circle cx="548.494" cy="77.1664" r="4" fill="#0" id="circle106"/>
	<circle cx="548.494" cy="94.1818" r="4" fill="#0" id="circle107"/>
	<circle cx="548.494" cy="111.197" r="4" fill="#0" id="circle108"/>
	<circle cx="548.494" cy="128.213" r="4" fill="#0" id="circle109"/>
	<circle cx="548.494" cy="145.228" r="4" fill="#0" id="circle110"/>
	<circle cx="548.494" cy="162.244" r="4" fill="#0" id="circle111"/>
	<circle cx="550.196" cy="346.01" r="4" fill="#0" id="circle112"/>
	<circle cx="557.002" cy="9.10463" r="4" fill="#0" id="circle113"/>
	<circle cx="557.002" cy="26.1201" r="4" fill="#0" id="circle114"/>
	<circle cx="557.002" cy="43.1355" r="4" fill="#0" id="circle115"/>
	<circle cx="557.002" cy="60.1509" r="4" fill="#0" id="circle116"/>
	<circle cx="563.808" cy="334.099" r="4" fill="#0" id="circle117"/>
	<circle cx="574.017" cy="4" r="4" fill="#0" id="circle118"/>
	<circle cx="575.719" cy="311.979" r="4" fill="#0" id="circle119"/>
	<circle cx="589.331" cy="300.069" r="4" fill="#0" id="circle120"/>
	<circle cx="591.033" cy="4" r="4" fill="#0" id="circle121"/>
	<circle cx="597.839" cy="283.053" r="4" fill="#0" id="circle122"/>
	<circle cx="608.048" cy="4" r="4" fill="#0" id="circle123"/>
	<circle cx="609.75" cy="260.933" r="4" fill="#0" id="circle124"/>
	<circle cx="618.257" cy="243.918" r="4" fill="#0" id="circle125"/>
	<circle cx="625.063" cy="4" r="4" fill="#0" id="circle126"/>
	<circle cx="635.273" cy="235.41" r="4" fill="#0" id="circle127"/>
	<circle cx="642.079" cy="4" r="4" fill="#0" id="circle128"/>
	<circle cx="652.288" cy="238.813" r="4" fill="#0" id="circle129"/>
	<circle cx="659.094" cy="7.40309" r="4" fill="#0" id="circle130"/>
	<circle cx="669.304" cy="21.0154" r="4" fill="#0" id="circle131"/>
	<circle cx="669.304" cy="243.918" r="4" fill="#0" id="circle132"/>
	<circle cx="677.811" cy="36.3293" r="4" fill="#0" id="circle133"/>
	<circle cx="686.319" cy="51.6432" r="4" fill="#0" id="circle134"/>
	<circle cx="686.319" cy="243.918" r="4" fill="#0" id="circle135"/>
	<circle cx="693.125" cy="68.6587" r="4" fill="#0" id="circle136"/>
	<circle cx="703.334" cy="247.321" r="4" fill="#0" id="circle137"/>
	<circle cx="706.738" cy="80.5695" r="4" fill="#0" id="circle138"/>
	<circle cx="718.648" cy="255.828" r="4" fill="#0" id="circle139"/>
	<circle cx="723.753" cy="80.5695" r="4" fill="#0" id="circle140"/>
	<circle cx="735.664" cy="260.933" r="4" fill="#0" id="circle141"/>
	<circle cx="740.768" cy="80.5695" r="4" fill="#0" id="circle142"/>
	<circle cx="752.679" cy="260.933" r="4" fill="#0" id="circle143"/>
	<circle cx="756.082" cy="89.0772" r="4" fill="#0" id="circle144"/>
	<circle cx="766.292" cy="250.724" r="4" fill="#0" id="circle145"/>
	<circle cx="771.396" cy="97.5849" r="4" fill="#0" id="circle146"/>
	<circle cx="779.904" cy="226.902" r="4" fill="#0" id="circle147"/>
	<circle cx="785.009" cy="107.794" r="4" fill="#0" id="circle148"/>
	<circle cx="788.412" cy="124.81" r="4" fill="#0" id="circle149"/>
	<circle cx="793.516" cy="214.991" r="4" fill="#0" id="circle150"/>
	<circle cx="796.919" cy="140.123" r="4" fill="#0" id="circle151"/>
	<circle cx="805.427" cy="155.437" r="4" fill="#0" id="circle152"/>
	<circle cx="805.427" cy="172.453" r="4" fill="#0" id="circle153"/>
	<circle cx="805.427" cy="201.379" r="4" fill="#0" id="circle154"/>
	</g>
</svg>