<?xml version="1.0" encoding="UTF-8" standalone="no"?>
<!-- Created with CurveBenchmark -->
<svg
	xmlns:dc="http://purl.org/dc/elements/1.1/"
	xmlns:cc="http://creativecommons.org/ns#"
	xmlns:rdf="http://www.w3.org/1999/02/22-rdf-syntax-ns#"
	xmlns:svg="http://www.w3.org/2000/svg"
	xmlns="http://www.w3.org/2000/svg"
	xmlns:sodipodi="http://sodipodi.sourceforge.net/DTD/sodipodi-0.dtd"
	xmlns:inkscape="http://www.inkscape.org/namespaces/inkscape"
	width="1000"
	height="1000"
	id="svg2"
	version="1.1"
	sodipodi:docname="manifold/connect2d-hammer30.png.txt">
<defs
	id="defs4" />
<metadata
	id="metadata7">
	<rdf:RDF>
		<cc:Work
			rdf:about="">
			<dc:format>image/svg+xml</dc:format>
			<dc:type
				rdf:resource="http://purl.org/dc/dcmitype/StillImage" />
			<dc:title></dc:title>
		</cc:Work>
	</rdf:RDF>
</metadata>
<g
	inkscape:label="Layer 1"
	inkscape:groupmode="layer"
	id="layer1">
	<path style="fill:none;stroke:red;stroke-width:1px;stroke-linecap:butt;stroke-linejoin:miter;stroke-opacity:1" d="M 996,187.395 979.328,212.403 z" id="boundary" inkscape:connector-curvature="0" />
	<path style="fill:none;stroke:red;stroke-width:1px;stroke-linecap:butt;stroke-linejoin:miter;stroke-opacity:1" d="M 979.328,212.403 962.655,224.908 z" id="boundary" inkscape:connector-curvature="0" />
	<path style="fill:none;stroke:red;stroke-width:1px;stroke-linecap:butt;stroke-linejoin:miter;stroke-opacity:1" d="M 962.655,224.908 941.815,224.908 z" id="boundary" inkscape:connector-curvature="0" />
	<path style="fill:none;stroke:red;stroke-width:1px;stroke-linecap:butt;stroke-linejoin:miter;stroke-opacity:1" d="M 941.815,224.908 923.059,235.328 z" id="boundary" inkscape:connector-curvature="0" />
	<path style="fill:none;stroke:red;stroke-width:1px;stroke-linecap:butt;stroke-linejoin:miter;stroke-opacity:1" d="M 923.059,235.328 948.067,245.748 z" id="boundary" inkscape:connector-curvature="0" />
	<path style="fill:none;stroke:red;stroke-width:1px;stroke-linecap:butt;stroke-linejoin:miter;stroke-opacity:1" d="M 948.067,245.748 943.899,277.008 z" id="boundary" inkscape:connector-curvature="0" />
	<path style="fill:none;stroke:red;stroke-width:1px;stroke-linecap:butt;stroke-linejoin:miter;stroke-opacity:1" d="M 943.899,277.008 929.311,293.681 z" id="boundary" inkscape:connector-curvature="0" />
	<path style="fill:none;stroke:red;stroke-width:1px;stroke-linecap:butt;stroke-linejoin:miter;stroke-opacity:1" d="M 929.311,293.681 908.471,304.101 z" id="boundary" inkscape:connector-curvature="0" />
	<path style="fill:none;stroke:red;stroke-width:1px;stroke-linecap:butt;stroke-linejoin:miter;stroke-opacity:1" d="M 908.471,304.101 887.63,314.521 z" id="boundary" inkscape:connector-curvature="0" />
	<path style="fill:none;stroke:red;stroke-width:1px;stroke-linecap:butt;stroke-linejoin:miter;stroke-opacity:1" d="M 887.63,314.521 870.958,329.109 z" id="boundary" inkscape:connector-curvature="0" />
	<path style="fill:none;stroke:red;stroke-width:1px;stroke-linecap:butt;stroke-linejoin:miter;stroke-opacity:1" d="M 870.958,329.109 856.37,345.782 z" id="boundary" inkscape:connector-curvature="0" />
	<path style="fill:none;stroke:red;stroke-width:1px;stroke-linecap:butt;stroke-linejoin:miter;stroke-opacity:1" d="M 856.37,345.782 845.95,366.622 z" id="boundary" inkscape:connector-curvature="0" />
	<path style="fill:none;stroke:red;stroke-width:1px;stroke-linecap:butt;stroke-linejoin:miter;stroke-opacity:1" d="M 845.95,366.622 829.277,381.21 z" id="boundary" inkscape:connector-curvature="0" />
	<path style="fill:none;stroke:red;stroke-width:1px;stroke-linecap:butt;stroke-linejoin:miter;stroke-opacity:1" d="M 829.277,381.21 810.521,391.63 z" id="boundary" inkscape:connector-curvature="0" />
	<path style="fill:none;stroke:red;stroke-width:1px;stroke-linecap:butt;stroke-linejoin:miter;stroke-opacity:1" d="M 810.521,391.63 791.765,402.05 z" id="boundary" inkscape:connector-curvature="0" />
	<path style="fill:none;stroke:red;stroke-width:1px;stroke-linecap:butt;stroke-linejoin:miter;stroke-opacity:1" d="M 791.765,402.05 773.008,391.63 z" id="boundary" inkscape:connector-curvature="0" />
	<path style="fill:none;stroke:red;stroke-width:1px;stroke-linecap:butt;stroke-linejoin:miter;stroke-opacity:1" d="M 773.008,391.63 754.252,381.21 z" id="boundary" inkscape:connector-curvature="0" />
	<path style="fill:none;stroke:red;stroke-width:1px;stroke-linecap:butt;stroke-linejoin:miter;stroke-opacity:1" d="M 754.252,381.21 743.832,362.454 z" id="boundary" inkscape:connector-curvature="0" />
	<path style="fill:none;stroke:red;stroke-width:1px;stroke-linecap:butt;stroke-linejoin:miter;stroke-opacity:1" d="M 743.832,362.454 733.412,343.697 z" id="boundary" inkscape:connector-curvature="0" />
	<path style="fill:none;stroke:red;stroke-width:1px;stroke-linecap:butt;stroke-linejoin:miter;stroke-opacity:1" d="M 733.412,343.697 733.412,322.857 z" id="boundary" inkscape:connector-curvature="0" />
	<path style="fill:none;stroke:red;stroke-width:1px;stroke-linecap:butt;stroke-linejoin:miter;stroke-opacity:1" d="M 733.412,322.857 733.412,302.017 z" id="boundary" inkscape:connector-curvature="0" />
	<path style="fill:none;stroke:red;stroke-width:1px;stroke-linecap:butt;stroke-linejoin:miter;stroke-opacity:1" d="M 733.412,302.017 750.084,287.429 z" id="boundary" inkscape:connector-curvature="0" />
	<path style="fill:none;stroke:red;stroke-width:1px;stroke-linecap:butt;stroke-linejoin:miter;stroke-opacity:1" d="M 750.084,287.429 745.916,266.588 z" id="boundary" inkscape:connector-curvature="0" />
	<path style="fill:none;stroke:red;stroke-width:1px;stroke-linecap:butt;stroke-linejoin:miter;stroke-opacity:1" d="M 745.916,266.588 729.244,254.084 z" id="boundary" inkscape:connector-curvature="0" />
	<path style="fill:none;stroke:red;stroke-width:1px;stroke-linecap:butt;stroke-linejoin:miter;stroke-opacity:1" d="M 729.244,254.084 708.403,245.748 z" id="boundary" inkscape:connector-curvature="0" />
	<path style="fill:none;stroke:red;stroke-width:1px;stroke-linecap:butt;stroke-linejoin:miter;stroke-opacity:1" d="M 708.403,245.748 693.815,229.076 z" id="boundary" inkscape:connector-curvature="0" />
	<path style="fill:none;stroke:red;stroke-width:1px;stroke-linecap:butt;stroke-linejoin:miter;stroke-opacity:1" d="M 693.815,229.076 677.143,214.487 z" id="boundary" inkscape:connector-curvature="0" />
	<path style="fill:none;stroke:red;stroke-width:1px;stroke-linecap:butt;stroke-linejoin:miter;stroke-opacity:1" d="M 677.143,214.487 662.555,197.815 z" id="boundary" inkscape:connector-curvature="0" />
	<path style="fill:none;stroke:red;stroke-width:1px;stroke-linecap:butt;stroke-linejoin:miter;stroke-opacity:1" d="M 662.555,197.815 641.714,189.479 z" id="boundary" inkscape:connector-curvature="0" />
	<path style="fill:none;stroke:red;stroke-width:1px;stroke-linecap:butt;stroke-linejoin:miter;stroke-opacity:1" d="M 641.714,189.479 629.21,172.807 z" id="boundary" inkscape:connector-curvature="0" />
	<path style="fill:none;stroke:red;stroke-width:1px;stroke-linecap:butt;stroke-linejoin:miter;stroke-opacity:1" d="M 629.21,172.807 608.37,164.471 z" id="boundary" inkscape:connector-curvature="0" />
	<path style="fill:none;stroke:red;stroke-width:1px;stroke-linecap:butt;stroke-linejoin:miter;stroke-opacity:1" d="M 608.37,164.471 591.697,151.966 z" id="boundary" inkscape:connector-curvature="0" />
	<path style="fill:none;stroke:red;stroke-width:1px;stroke-linecap:butt;stroke-linejoin:miter;stroke-opacity:1" d="M 591.697,151.966 572.941,141.546 z" id="boundary" inkscape:connector-curvature="0" />
	<path style="fill:none;stroke:red;stroke-width:1px;stroke-linecap:butt;stroke-linejoin:miter;stroke-opacity:1" d="M 572.941,141.546 552.101,139.462 z" id="boundary" inkscape:connector-curvature="0" />
	<path style="fill:none;stroke:red;stroke-width:1px;stroke-linecap:butt;stroke-linejoin:miter;stroke-opacity:1" d="M 552.101,139.462 531.261,131.126 z" id="boundary" inkscape:connector-curvature="0" />
	<path style="fill:none;stroke:red;stroke-width:1px;stroke-linecap:butt;stroke-linejoin:miter;stroke-opacity:1" d="M 531.261,131.126 512.504,120.706 z" id="boundary" inkscape:connector-curvature="0" />
	<path style="fill:none;stroke:red;stroke-width:1px;stroke-linecap:butt;stroke-linejoin:miter;stroke-opacity:1" d="M 512.504,120.706 493.748,110.286 z" id="boundary" inkscape:connector-curvature="0" />
	<path style="fill:none;stroke:red;stroke-width:1px;stroke-linecap:butt;stroke-linejoin:miter;stroke-opacity:1" d="M 493.748,110.286 472.908,110.286 z" id="boundary" inkscape:connector-curvature="0" />
	<path style="fill:none;stroke:red;stroke-width:1px;stroke-linecap:butt;stroke-linejoin:miter;stroke-opacity:1" d="M 472.908,110.286 454.151,99.8655 z" id="boundary" inkscape:connector-curvature="0" />
	<path style="fill:none;stroke:red;stroke-width:1px;stroke-linecap:butt;stroke-linejoin:miter;stroke-opacity:1" d="M 454.151,99.8655 433.311,99.8655 z" id="boundary" inkscape:connector-curvature="0" />
	<path style="fill:none;stroke:red;stroke-width:1px;stroke-linecap:butt;stroke-linejoin:miter;stroke-opacity:1" d="M 433.311,99.8655 412.471,93.6134 z" id="boundary" inkscape:connector-curvature="0" />
	<path style="fill:none;stroke:red;stroke-width:1px;stroke-linecap:butt;stroke-linejoin:miter;stroke-opacity:1" d="M 412.471,93.6134 391.63,89.4454 z" id="boundary" inkscape:connector-curvature="0" />
	<path style="fill:none;stroke:red;stroke-width:1px;stroke-linecap:butt;stroke-linejoin:miter;stroke-opacity:1" d="M 391.63,89.4454 370.79,93.6134 z" id="boundary" inkscape:connector-curvature="0" />
	<path style="fill:none;stroke:red;stroke-width:1px;stroke-linecap:butt;stroke-linejoin:miter;stroke-opacity:1" d="M 370.79,93.6134 349.95,89.4454 z" id="boundary" inkscape:connector-curvature="0" />
	<path style="fill:none;stroke:red;stroke-width:1px;stroke-linecap:butt;stroke-linejoin:miter;stroke-opacity:1" d="M 349.95,89.4454 329.109,89.4454 z" id="boundary" inkscape:connector-curvature="0" />
	<path style="fill:none;stroke:red;stroke-width:1px;stroke-linecap:butt;stroke-linejoin:miter;stroke-opacity:1" d="M 329.109,89.4454 308.269,89.4454 z" id="boundary" inkscape:connector-curvature="0" />
	<path style="fill:none;stroke:red;stroke-width:1px;stroke-linecap:butt;stroke-linejoin:miter;stroke-opacity:1" d="M 308.269,89.4454 287.429,89.4454 z" id="boundary" inkscape:connector-curvature="0" />
	<path style="fill:none;stroke:red;stroke-width:1px;stroke-linecap:butt;stroke-linejoin:miter;stroke-opacity:1" d="M 287.429,89.4454 266.588,89.4454 z" id="boundary" inkscape:connector-curvature="0" />
	<path style="fill:none;stroke:red;stroke-width:1px;stroke-linecap:butt;stroke-linejoin:miter;stroke-opacity:1" d="M 266.588,89.4454 245.748,89.4454 z" id="boundary" inkscape:connector-curvature="0" />
	<path style="fill:none;stroke:red;stroke-width:1px;stroke-linecap:butt;stroke-linejoin:miter;stroke-opacity:1" d="M 245.748,89.4454 224.908,89.4454 z" id="boundary" inkscape:connector-curvature="0" />
	<path style="fill:none;stroke:red;stroke-width:1px;stroke-linecap:butt;stroke-linejoin:miter;stroke-opacity:1" d="M 224.908,89.4454 204.067,93.6134 z" id="boundary" inkscape:connector-curvature="0" />
	<path style="fill:none;stroke:red;stroke-width:1px;stroke-linecap:butt;stroke-linejoin:miter;stroke-opacity:1" d="M 204.067,93.6134 183.227,89.4454 z" id="boundary" inkscape:connector-curvature="0" />
	<path style="fill:none;stroke:red;stroke-width:1px;stroke-linecap:butt;stroke-linejoin:miter;stroke-opacity:1" d="M 183.227,89.4454 162.387,89.4454 z" id="boundary" inkscape:connector-curvature="0" />
	<path style="fill:none;stroke:red;stroke-width:1px;stroke-linecap:butt;stroke-linejoin:miter;stroke-opacity:1" d="M 162.387,89.4454 141.546,89.4454 z" id="boundary" inkscape:connector-curvature="0" />
	<path style="fill:none;stroke:red;stroke-width:1px;stroke-linecap:butt;stroke-linejoin:miter;stroke-opacity:1" d="M 141.546,89.4454 120.706,89.4454 z" id="boundary" inkscape:connector-curvature="0" />
	<path style="fill:none;stroke:red;stroke-width:1px;stroke-linecap:butt;stroke-linejoin:miter;stroke-opacity:1" d="M 120.706,89.4454 99.8655,89.4454 z" id="boundary" inkscape:connector-curvature="0" />
	<path style="fill:none;stroke:red;stroke-width:1px;stroke-linecap:butt;stroke-linejoin:miter;stroke-opacity:1" d="M 99.8655,89.4454 79.0252,89.4454 z" id="boundary" inkscape:connector-curvature="0" />
	<path style="fill:none;stroke:red;stroke-width:1px;stroke-linecap:butt;stroke-linejoin:miter;stroke-opacity:1" d="M 79.0252,89.4454 58.1849,89.4454 z" id="boundary" inkscape:connector-curvature="0" />
	<path style="fill:none;stroke:red;stroke-width:1px;stroke-linecap:butt;stroke-linejoin:miter;stroke-opacity:1" d="M 58.1849,89.4454 37.3445,93.6134 z" id="boundary" inkscape:connector-curvature="0" />
	<path style="fill:none;stroke:red;stroke-width:1px;stroke-linecap:butt;stroke-linejoin:miter;stroke-opacity:1" d="M 37.3445,93.6134 16.5042,89.4454 z" id="boundary" inkscape:connector-curvature="0" />
	<path style="fill:none;stroke:red;stroke-width:1px;stroke-linecap:butt;stroke-linejoin:miter;stroke-opacity:1" d="M 16.5042,89.4454 4,72.7731 z" id="boundary" inkscape:connector-curvature="0" />
	<path style="fill:none;stroke:red;stroke-width:1px;stroke-linecap:butt;stroke-linejoin:miter;stroke-opacity:1" d="M 4,72.7731 4,51.9328 z" id="boundary" inkscape:connector-curvature="0" />
	<path style="fill:none;stroke:red;stroke-width:1px;stroke-linecap:butt;stroke-linejoin:miter;stroke-opacity:1" d="M 4,51.9328 4,31.0924 z" id="boundary" inkscape:connector-curvature="0" />
	<path style="fill:none;stroke:red;stroke-width:1px;stroke-linecap:butt;stroke-linejoin:miter;stroke-opacity:1" d="M 4,31.0924 4,10.2521 z" id="boundary" inkscape:connector-curvature="0" />
	<path style="fill:none;stroke:red;stroke-width:1px;stroke-linecap:butt;stroke-linejoin:miter;stroke-opacity:1" d="M 4,10.2521 24.8403,4 z" id="boundary" inkscape:connector-curvature="0" />
	<path style="fill:none;stroke:red;stroke-width:1px;stroke-linecap:butt;stroke-linejoin:miter;stroke-opacity:1" d="M 24.8403,4 45.6807,4 z" id="boundary" inkscape:connector-curvature="0" />
	<path style="fill:none;stroke:red;stroke-width:1px;stroke-linecap:butt;stroke-linejoin:miter;stroke-opacity:1" d="M 45.6807,4 66.521,4 z" id="boundary" inkscape:connector-curvature="0" />
	<path style="fill:none;stroke:red;stroke-width:1px;stroke-linecap:butt;stroke-linejoin:miter;stroke-opacity:1" d="M 66.521,4 87.3613,4 z" id="boundary" inkscape:connector-curvature="0" />
	<path style="fill:none;stroke:red;stroke-width:1px;stroke-linecap:butt;stroke-linejoin:miter;stroke-opacity:1" d="M 87.3613,4 106.118,14.4202 z" id="boundary" inkscape:connector-curvature="0" />
	<path style="fill:none;stroke:red;stroke-width:1px;stroke-linecap:butt;stroke-linejoin:miter;stroke-opacity:1" d="M 106.118,14.4202 126.958,14.4202 z" id="boundary" inkscape:connector-curvature="0" />
	<path style="fill:none;stroke:red;stroke-width:1px;stroke-linecap:butt;stroke-linejoin:miter;stroke-opacity:1" d="M 126.958,14.4202 145.714,4 z" id="boundary" inkscape:connector-curvature="0" />
	<path style="fill:none;stroke:red;stroke-width:1px;stroke-linecap:butt;stroke-linejoin:miter;stroke-opacity:1" d="M 145.714,4 164.471,14.4202 z" id="boundary" inkscape:connector-curvature="0" />
	<path style="fill:none;stroke:red;stroke-width:1px;stroke-linecap:butt;stroke-linejoin:miter;stroke-opacity:1" d="M 164.471,14.4202 185.311,14.4202 z" id="boundary" inkscape:connector-curvature="0" />
	<path style="fill:none;stroke:red;stroke-width:1px;stroke-linecap:butt;stroke-linejoin:miter;stroke-opacity:1" d="M 185.311,14.4202 206.151,14.4202 z" id="boundary" inkscape:connector-curvature="0" />
	<path style="fill:none;stroke:red;stroke-width:1px;stroke-linecap:butt;stroke-linejoin:miter;stroke-opacity:1" d="M 206.151,14.4202 226.992,14.4202 z" id="boundary" inkscape:connector-curvature="0" />
	<path style="fill:none;stroke:red;stroke-width:1px;stroke-linecap:butt;stroke-linejoin:miter;stroke-opacity:1" d="M 226.992,14.4202 247.832,14.4202 z" id="boundary" inkscape:connector-curvature="0" />
	<path style="fill:none;stroke:red;stroke-width:1px;stroke-linecap:butt;stroke-linejoin:miter;stroke-opacity:1" d="M 247.832,14.4202 268.672,14.4202 z" id="boundary" inkscape:connector-curvature="0" />
	<path style="fill:none;stroke:red;stroke-width:1px;stroke-linecap:butt;stroke-linejoin:miter;stroke-opacity:1" d="M 268.672,14.4202 289.513,14.4202 z" id="boundary" inkscape:connector-curvature="0" />
	<path style="fill:none;stroke:red;stroke-width:1px;stroke-linecap:butt;stroke-linejoin:miter;stroke-opacity:1" d="M 289.513,14.4202 310.353,14.4202 z" id="boundary" inkscape:connector-curvature="0" />
	<path style="fill:none;stroke:red;stroke-width:1px;stroke-linecap:butt;stroke-linejoin:miter;stroke-opacity:1" d="M 310.353,14.4202 331.193,14.4202 z" id="boundary" inkscape:connector-curvature="0" />
	<path style="fill:none;stroke:red;stroke-width:1px;stroke-linecap:butt;stroke-linejoin:miter;stroke-opacity:1" d="M 331.193,14.4202 352.034,14.4202 z" id="boundary" inkscape:connector-curvature="0" />
	<path style="fill:none;stroke:red;stroke-width:1px;stroke-linecap:butt;stroke-linejoin:miter;stroke-opacity:1" d="M 352.034,14.4202 372.874,14.4202 z" id="boundary" inkscape:connector-curvature="0" />
	<path style="fill:none;stroke:red;stroke-width:1px;stroke-linecap:butt;stroke-linejoin:miter;stroke-opacity:1" d="M 372.874,14.4202 393.714,14.4202 z" id="boundary" inkscape:connector-curvature="0" />
	<path style="fill:none;stroke:red;stroke-width:1px;stroke-linecap:butt;stroke-linejoin:miter;stroke-opacity:1" d="M 393.714,14.4202 414.555,14.4202 z" id="boundary" inkscape:connector-curvature="0" />
	<path style="fill:none;stroke:red;stroke-width:1px;stroke-linecap:butt;stroke-linejoin:miter;stroke-opacity:1" d="M 414.555,14.4202 433.311,24.8403 z" id="boundary" inkscape:connector-curvature="0" />
	<path style="fill:none;stroke:red;stroke-width:1px;stroke-linecap:butt;stroke-linejoin:miter;stroke-opacity:1" d="M 433.311,24.8403 454.151,24.8403 z" id="boundary" inkscape:connector-curvature="0" />
	<path style="fill:none;stroke:red;stroke-width:1px;stroke-linecap:butt;stroke-linejoin:miter;stroke-opacity:1" d="M 454.151,24.8403 474.992,31.0924 z" id="boundary" inkscape:connector-curvature="0" />
	<path style="fill:none;stroke:red;stroke-width:1px;stroke-linecap:butt;stroke-linejoin:miter;stroke-opacity:1" d="M 474.992,31.0924 493.748,41.5126 z" id="boundary" inkscape:connector-curvature="0" />
	<path style="fill:none;stroke:red;stroke-width:1px;stroke-linecap:butt;stroke-linejoin:miter;stroke-opacity:1" d="M 493.748,41.5126 514.588,45.6807 z" id="boundary" inkscape:connector-curvature="0" />
	<path style="fill:none;stroke:red;stroke-width:1px;stroke-linecap:butt;stroke-linejoin:miter;stroke-opacity:1" d="M 514.588,45.6807 533.345,56.1008 z" id="boundary" inkscape:connector-curvature="0" />
	<path style="fill:none;stroke:red;stroke-width:1px;stroke-linecap:butt;stroke-linejoin:miter;stroke-opacity:1" d="M 533.345,56.1008 554.185,58.1849 z" id="boundary" inkscape:connector-curvature="0" />
	<path style="fill:none;stroke:red;stroke-width:1px;stroke-linecap:butt;stroke-linejoin:miter;stroke-opacity:1" d="M 554.185,58.1849 572.941,68.605 z" id="boundary" inkscape:connector-curvature="0" />
	<path style="fill:none;stroke:red;stroke-width:1px;stroke-linecap:butt;stroke-linejoin:miter;stroke-opacity:1" d="M 572.941,68.605 593.782,76.9412 z" id="boundary" inkscape:connector-curvature="0" />
	<path style="fill:none;stroke:red;stroke-width:1px;stroke-linecap:butt;stroke-linejoin:miter;stroke-opacity:1" d="M 593.782,76.9412 612.538,87.3613 z" id="boundary" inkscape:connector-curvature="0" />
	<path style="fill:none;stroke:red;stroke-width:1px;stroke-linecap:butt;stroke-linejoin:miter;stroke-opacity:1" d="M 612.538,87.3613 631.294,97.7815 z" id="boundary" inkscape:connector-curvature="0" />
	<path style="fill:none;stroke:red;stroke-width:1px;stroke-linecap:butt;stroke-linejoin:miter;stroke-opacity:1" d="M 631.294,97.7815 652.134,104.034 z" id="boundary" inkscape:connector-curvature="0" />
	<path style="fill:none;stroke:red;stroke-width:1px;stroke-linecap:butt;stroke-linejoin:miter;stroke-opacity:1" d="M 652.134,104.034 672.975,108.202 z" id="boundary" inkscape:connector-curvature="0" />
	<path style="fill:none;stroke:red;stroke-width:1px;stroke-linecap:butt;stroke-linejoin:miter;stroke-opacity:1" d="M 672.975,108.202 691.731,118.622 z" id="boundary" inkscape:connector-curvature="0" />
	<path style="fill:none;stroke:red;stroke-width:1px;stroke-linecap:butt;stroke-linejoin:miter;stroke-opacity:1" d="M 691.731,118.622 710.487,129.042 z" id="boundary" inkscape:connector-curvature="0" />
	<path style="fill:none;stroke:red;stroke-width:1px;stroke-linecap:butt;stroke-linejoin:miter;stroke-opacity:1" d="M 710.487,129.042 729.244,139.462 z" id="boundary" inkscape:connector-curvature="0" />
	<path style="fill:none;stroke:red;stroke-width:1px;stroke-linecap:butt;stroke-linejoin:miter;stroke-opacity:1" d="M 729.244,139.462 750.084,139.462 z" id="boundary" inkscape:connector-curvature="0" />
	<path style="fill:none;stroke:red;stroke-width:1px;stroke-linecap:butt;stroke-linejoin:miter;stroke-opacity:1" d="M 750.084,139.462 764.672,156.134 z" id="boundary" inkscape:connector-curvature="0" />
	<path style="fill:none;stroke:red;stroke-width:1px;stroke-linecap:butt;stroke-linejoin:miter;stroke-opacity:1" d="M 764.672,156.134 785.513,145.714 z" id="boundary" inkscape:connector-curvature="0" />
	<path style="fill:none;stroke:red;stroke-width:1px;stroke-linecap:butt;stroke-linejoin:miter;stroke-opacity:1" d="M 785.513,145.714 795.933,124.874 z" id="boundary" inkscape:connector-curvature="0" />
	<path style="fill:none;stroke:red;stroke-width:1px;stroke-linecap:butt;stroke-linejoin:miter;stroke-opacity:1" d="M 795.933,124.874 806.353,104.034 z" id="boundary" inkscape:connector-curvature="0" />
	<path style="fill:none;stroke:red;stroke-width:1px;stroke-linecap:butt;stroke-linejoin:miter;stroke-opacity:1" d="M 806.353,104.034 816.773,83.1933 z" id="boundary" inkscape:connector-curvature="0" />
	<path style="fill:none;stroke:red;stroke-width:1px;stroke-linecap:butt;stroke-linejoin:miter;stroke-opacity:1" d="M 816.773,83.1933 837.613,76.9412 z" id="boundary" inkscape:connector-curvature="0" />
	<path style="fill:none;stroke:red;stroke-width:1px;stroke-linecap:butt;stroke-linejoin:miter;stroke-opacity:1" d="M 837.613,76.9412 858.454,76.9412 z" id="boundary" inkscape:connector-curvature="0" />
	<path style="fill:none;stroke:red;stroke-width:1px;stroke-linecap:butt;stroke-linejoin:miter;stroke-opacity:1" d="M 858.454,76.9412 877.21,87.3613 z" id="boundary" inkscape:connector-curvature="0" />
	<path style="fill:none;stroke:red;stroke-width:1px;stroke-linecap:butt;stroke-linejoin:miter;stroke-opacity:1" d="M 877.21,87.3613 895.966,97.7815 z" id="boundary" inkscape:connector-curvature="0" />
	<path style="fill:none;stroke:red;stroke-width:1px;stroke-linecap:butt;stroke-linejoin:miter;stroke-opacity:1" d="M 895.966,97.7815 912.639,110.286 z" id="boundary" inkscape:connector-curvature="0" />
	<path style="fill:none;stroke:red;stroke-width:1px;stroke-linecap:butt;stroke-linejoin:miter;stroke-opacity:1" d="M 912.639,110.286 923.059,129.042 z" id="boundary" inkscape:connector-curvature="0" />
	<path style="fill:none;stroke:red;stroke-width:1px;stroke-linecap:butt;stroke-linejoin:miter;stroke-opacity:1" d="M 923.059,129.042 943.899,129.042 z" id="boundary" inkscape:connector-curvature="0" />
	<path style="fill:none;stroke:red;stroke-width:1px;stroke-linecap:butt;stroke-linejoin:miter;stroke-opacity:1" d="M 943.899,129.042 962.655,139.462 z" id="boundary" inkscape:connector-curvature="0" />
	<path style="fill:none;stroke:red;stroke-width:1px;stroke-linecap:butt;stroke-linejoin:miter;stroke-opacity:1" d="M 962.655,139.462 981.412,149.882 z" id="boundary" inkscape:connector-curvature="0" />
	<path style="fill:none;stroke:red;stroke-width:1px;stroke-linecap:butt;stroke-linejoin:miter;stroke-opacity:1" d="M 981.412,149.882 996,166.555 z" id="boundary" inkscape:connector-curvature="0" />
	<path style="fill:none;stroke:red;stroke-width:1px;stroke-linecap:butt;stroke-linejoin:miter;stroke-opacity:1" d="M 996,166.555 996,187.395 z" id="boundary" inkscape:connector-curvature="0" />
	<circle cx="4" cy="10.2521" r="4" fill="#0" id="circle0"/>
	<circle cx="4" cy="31.0924" r="4" fill="#0" id="circle1"/>
	<circle cx="4" cy="51.9328" r="4" fill="#0" id="circle2"/>
	<circle cx="4" cy="72.7731" r="4" fill="#0" id="circle3"/>
	<circle cx="16.5042" cy="89.4454" r="4" fill="#0" id="circle4"/>
	<circle cx="24.8403" cy="4" r="4" fill="#0" id="circle5"/>
	<circle cx="37.3445" cy="93.6134" r="4" fill="#0" id="circle6"/>
	<circle cx="45.6807" cy="4" r="4" fill="#0" id="circle7"/>
	<circle cx="58.1849" cy="89.4454" r="4" fill="#0" id="circle8"/>
	<circle cx="66.521" cy="4" r="4" fill="#0" id="circle9"/>
	<circle cx="79.0252" cy="89.4454" r="4" fill="#0" id="circle10"/>
	<circle cx="87.3613" cy="4" r="4" fill="#0" id="circle11"/>
	<circle cx="99.8655" cy="89.4454" r="4" fill="#0" id="circle12"/>
	<circle cx="106.118" cy="14.4202" r="4" fill="#0" id="circle13"/>
	<circle cx="120.706" cy="89.4454" r="4" fill="#0" id="circle14"/>
	<circle cx="126.958" cy="14.4202" r="4" fill="#0" id="circle15"/>
	<circle cx="141.546" cy="89.4454" r="4" fill="#0" id="circle16"/>
	<circle cx="145.714" cy="4" r="4" fill="#0" id="circle17"/>
	<circle cx="162.387" cy="89.4454" r="4" fill="#0" id="circle18"/>
	<circle cx="164.471" cy="14.4202" r="4" fill="#0" id="circle19"/>
	<circle cx="183.227" cy="89.4454" r="4" fill="#0" id="circle20"/>
	<circle cx="185.311" cy="14.4202" r="4" fill="#0" id="circle21"/>
	<circle cx="204.067" cy="93.6134" r="4" fill="#0" id="circle22"/>
	<circle cx="206.151" cy="14.4202" r="4" fill="#0" id="circle23"/>
	<circle cx="224.908" cy="89.4454" r="4" fill="#0" id="circle24"/>
	<circle cx="226.992" cy="14.4202" r="4" fill="#0" id="circle25"/>
	<circle cx="245.748" cy="89.4454" r="4" fill="#0" id="circle26"/>
	<circle cx="247.832" cy="14.4202" r="4" fill="#0" id="circle27"/>
	<circle cx="266.588" cy="89.4454" r="4" fill="#0" id="circle28"/>
	<circle cx="268.672" cy="14.4202" r="4" fill="#0" id="circle29"/>
	<circle cx="287.429" cy="89.4454" r="4" fill="#0" id="circle30"/>
	<circle cx="289.513" cy="14.4202" r="4" fill="#0" id="circle31"/>
	<circle cx="308.269" cy="89.4454" r="4" fill="#0" id="circle32"/>
	<circle cx="310.353" cy="14.4202" r="4" fill="#0" id="circle33"/>
	<circle cx="329.109" cy="89.4454" r="4" fill="#0" id="circle34"/>
	<circle cx="331.193" cy="14.4202" r="4" fill="#0" id="circle35"/>
	<circle cx="349.95" cy="89.4454" r="4" fill="#0" id="circle36"/>
	<circle cx="352.034" cy="14.4202" r="4" fill="#0" id="circle37"/>
	<circle cx="370.79" cy="93.6134" r="4" fill="#0" id="circle38"/>
	<circle cx="372.874" cy="14.4202" r="4" fill="#0" id="circle39"/>
	<circle cx="391.63" cy="89.4454" r="4" fill="#0" id="circle40"/>
	<circle cx="393.714" cy="14.4202" r="4" fill="#0" id="circle41"/>
	<circle cx="412.471" cy="93.6134" r="4" fill="#0" id="circle42"/>
	<circle cx="414.555" cy="14.4202" r="4" fill="#0" id="circle43"/>
	<circle cx="433.311" cy="24.8403" r="4" fill="#0" id="circle44"/>
	<circle cx="433.311" cy="99.8655" r="4" fill="#0" id="circle45"/>
	<circle cx="454.151" cy="24.8403" r="4" fill="#0" id="circle46"/>
	<circle cx="454.151" cy="99.8655" r="4" fill="#0" id="circle47"/>
	<circle cx="472.908" cy="110.286" r="4" fill="#0" id="circle48"/>
	<circle cx="474.992" cy="31.0924" r="4" fill="#0" id="circle49"/>
	<circle cx="493.748" cy="41.5126" r="4" fill="#0" id="circle50"/>
	<circle cx="493.748" cy="110.286" r="4" fill="#0" id="circle51"/>
	<circle cx="512.504" cy="120.706" r="4" fill="#0" id="circle52"/>
	<circle cx="514.588" cy="45.6807" r="4" fill="#0" id="circle53"/>
	<circle cx="531.261" cy="131.126" r="4" fill="#0" id="circle54"/>
	<circle cx="533.345" cy="56.1008" r="4" fill="#0" id="circle55"/>
	<circle cx="552.101" cy="139.462" r="4" fill="#0" id="circle56"/>
	<circle cx="554.185" cy="58.1849" r="4" fill="#0" id="circle57"/>
	<circle cx="572.941" cy="68.605" r="4" fill="#0" id="circle58"/>
	<circle cx="572.941" cy="141.546" r="4" fill="#0" id="circle59"/>
	<circle cx="591.697" cy="151.966" r="4" fill="#0" id="circle60"/>
	<circle cx="593.782" cy="76.9412" r="4" fill="#0" id="circle61"/>
	<circle cx="608.37" cy="164.471" r="4" fill="#0" id="circle62"/>
	<circle cx="612.538" cy="87.3613" r="4" fill="#0" id="circle63"/>
	<circle cx="629.21" cy="172.807" r="4" fill="#0" id="circle64"/>
	<circle cx="631.294" cy="97.7815" r="4" fill="#0" id="circle65"/>
	<circle cx="641.714" cy="189.479" r="4" fill="#0" id="circle66"/>
	<circle cx="652.134" cy="104.034" r="4" fill="#0" id="circle67"/>
	<circle cx="662.555" cy="197.815" r="4" fill="#0" id="circle68"/>
	<circle cx="672.975" cy="108.202" r="4" fill="#0" id="circle69"/>
	<circle cx="677.143" cy="214.487" r="4" fill="#0" id="circle70"/>
	<circle cx="691.731" cy="118.622" r="4" fill="#0" id="circle71"/>
	<circle cx="693.815" cy="229.076" r="4" fill="#0" id="circle72"/>
	<circle cx="708.403" cy="245.748" r="4" fill="#0" id="circle73"/>
	<circle cx="710.487" cy="129.042" r="4" fill="#0" id="circle74"/>
	<circle cx="729.244" cy="139.462" r="4" fill="#0" id="circle75"/>
	<circle cx="729.244" cy="254.084" r="4" fill="#0" id="circle76"/>
	<circle cx="733.412" cy="302.017" r="4" fill="#0" id="circle77"/>
	<circle cx="733.412" cy="322.857" r="4" fill="#0" id="circle78"/>
	<circle cx="733.412" cy="343.697" r="4" fill="#0" id="circle79"/>
	<circle cx="743.832" cy="362.454" r="4" fill="#0" id="circle80"/>
	<circle cx="745.916" cy="266.588" r="4" fill="#0" id="circle81"/>
	<circle cx="750.084" cy="139.462" r="4" fill="#0" id="circle82"/>
	<circle cx="750.084" cy="287.429" r="4" fill="#0" id="circle83"/>
	<circle cx="754.252" cy="381.21" r="4" fill="#0" id="circle84"/>
	<circle cx="764.672" cy="156.134" r="4" fill="#0" id="circle85"/>
	<circle cx="773.008" cy="391.63" r="4" fill="#0" id="circle86"/>
	<circle cx="785.513" cy="145.714" r="4" fill="#0" id="circle87"/>
	<circle cx="791.765" cy="402.05" r="4" fill="#0" id="circle88"/>
	<circle cx="795.933" cy="124.874" r="4" fill="#0" id="circle89"/>
	<circle cx="806.353" cy="104.034" r="4" fill="#0" id="circle90"/>
	<circle cx="810.521" cy="391.63" r="4" fill="#0" id="circle91"/>
	<circle cx="816.773" cy="83.1933" r="4" fill="#0" id="circle92"/>
	<circle cx="829.277" cy="381.21" r="4" fill="#0" id="circle93"/>
	<circle cx="837.613" cy="76.9412" r="4" fill="#0" id="circle94"/>
	<circle cx="845.95" cy="366.622" r="4" fill="#0" id="circle95"/>
	<circle cx="856.37" cy="345.782" r="4" fill="#0" id="circle96"/>
	<circle cx="858.454" cy="76.9412" r="4" fill="#0" id="circle97"/>
	<circle cx="870.958" cy="329.109" r="4" fill="#0" id="circle98"/>
	<circle cx="877.21" cy="87.3613" r="4" fill="#0" id="circle99"/>
	<circle cx="887.63" cy="314.521" r="4" fill="#0" id="circle100"/>
	<circle cx="895.966" cy="97.7815" r="4" fill="#0" id="circle101"/>
	<circle cx="908.471" cy="304.101" r="4" fill="#0" id="circle102"/>
	<circle cx="912.639" cy="110.286" r="4" fill="#0" id="circle103"/>
	<circle cx="923.059" cy="129.042" r="4" fill="#0" id="circle104"/>
	<circle cx="923.059" cy="235.328" r="4" fill="#0" id="circle105"/>
	<circle cx="929.311" cy="293.681" r="4" fill="#0" id="circle106"/>
	<circle cx="941.815" cy="224.908" r="4" fill="#0" id="circle107"/>
	<circle cx="943.899" cy="129.042" r="4" fill="#0" id="circle108"/>
	<circle cx="943.899" cy="277.008" r="4" fill="#0" id="circle109"/>
	<circle cx="948.067" cy="245.748" r="4" fill="#0" id="circle110"/>
	<circle cx="962.655" cy="139.462" r="4" fill="#0" id="circle111"/>
	<circle cx="962.655" cy="224.908" r="4" fill="#0" id="circle112"/>
	<circle cx="979.328" cy="212.403" r="4" fill="#0" id="circle113"/>
	<circle cx="981.412" cy="149.882" r="4" fill="#0" id="circle114"/>
	<circle cx="996" cy="166.555" r="4" fill="#0" id="circle115"/>
	<circle cx="996" cy="187.395" r="4" fill="#0" id="circle116"/>
	</g>
</svg>