<?xml version="1.0" encoding="UTF-8" standalone="no"?>
<!-- Created with CurveBenchmark -->
<svg
	xmlns:dc="http://purl.org/dc/elements/1.1/"
	xmlns:cc="http://creativecommons.org/ns#"
	xmlns:rdf="http://www.w3.org/1999/02/22-rdf-syntax-ns#"
	xmlns:svg="http://www.w3.org/2000/svg"
	xmlns="http://www.w3.org/2000/svg"
	xmlns:sodipodi="http://sodipodi.sourceforge.net/DTD/sodipodi-0.dtd"
	xmlns:inkscape="http://www.inkscape.org/namespaces/inkscape"
	width="1000"
	height="1000"
	id="svg2"
	version="1.1"
	sodipodi:docname="manifold/connect2d-car06.png.txt">
<defs
	id="defs4" />
<metadata
	id="metadata7">
	<rdf:RDF>
		<cc:Work
			rdf:about="">
			<dc:format>image/svg+xml</dc:format>
			<dc:type
				rdf:resource="http://purl.org/dc/dcmitype/StillImage" />
			<dc:title></dc:title>
		</cc:Work>
	</rdf:RDF>
</metadata>
<g
	inkscape:label="Layer 1"
	inkscape:groupmode="layer"
	id="layer1">
	<path style="fill:none;stroke:red;stroke-width:1px;stroke-linecap:butt;stroke-linejoin:miter;stroke-opacity:1" d="M 996,250.65 996,268.653 z" id="boundary" inkscape:connector-curvature="0" />
	<path style="fill:none;stroke:red;stroke-width:1px;stroke-linecap:butt;stroke-linejoin:miter;stroke-opacity:1" d="M 996,268.653 986.998,284.857 z" id="boundary" inkscape:connector-curvature="0" />
	<path style="fill:none;stroke:red;stroke-width:1px;stroke-linecap:butt;stroke-linejoin:miter;stroke-opacity:1" d="M 986.998,284.857 977.996,302.86 z" id="boundary" inkscape:connector-curvature="0" />
	<path style="fill:none;stroke:red;stroke-width:1px;stroke-linecap:butt;stroke-linejoin:miter;stroke-opacity:1" d="M 977.996,302.86 959.993,320.864 z" id="boundary" inkscape:connector-curvature="0" />
	<path style="fill:none;stroke:red;stroke-width:1px;stroke-linecap:butt;stroke-linejoin:miter;stroke-opacity:1" d="M 959.993,320.864 947.39,344.269 z" id="boundary" inkscape:connector-curvature="0" />
	<path style="fill:none;stroke:red;stroke-width:1px;stroke-linecap:butt;stroke-linejoin:miter;stroke-opacity:1" d="M 947.39,344.269 932.987,356.871 z" id="boundary" inkscape:connector-curvature="0" />
	<path style="fill:none;stroke:red;stroke-width:1px;stroke-linecap:butt;stroke-linejoin:miter;stroke-opacity:1" d="M 932.987,356.871 920.385,371.274 z" id="boundary" inkscape:connector-curvature="0" />
	<path style="fill:none;stroke:red;stroke-width:1px;stroke-linecap:butt;stroke-linejoin:miter;stroke-opacity:1" d="M 920.385,371.274 905.982,383.877 z" id="boundary" inkscape:connector-curvature="0" />
	<path style="fill:none;stroke:red;stroke-width:1px;stroke-linecap:butt;stroke-linejoin:miter;stroke-opacity:1" d="M 905.982,383.877 893.379,407.281 z" id="boundary" inkscape:connector-curvature="0" />
	<path style="fill:none;stroke:red;stroke-width:1px;stroke-linecap:butt;stroke-linejoin:miter;stroke-opacity:1" d="M 893.379,407.281 878.976,419.884 z" id="boundary" inkscape:connector-curvature="0" />
	<path style="fill:none;stroke:red;stroke-width:1px;stroke-linecap:butt;stroke-linejoin:miter;stroke-opacity:1" d="M 878.976,419.884 860.973,428.886 z" id="boundary" inkscape:connector-curvature="0" />
	<path style="fill:none;stroke:red;stroke-width:1px;stroke-linecap:butt;stroke-linejoin:miter;stroke-opacity:1" d="M 860.973,428.886 846.57,445.089 z" id="boundary" inkscape:connector-curvature="0" />
	<path style="fill:none;stroke:red;stroke-width:1px;stroke-linecap:butt;stroke-linejoin:miter;stroke-opacity:1" d="M 846.57,445.089 828.566,446.889 z" id="boundary" inkscape:connector-curvature="0" />
	<path style="fill:none;stroke:red;stroke-width:1px;stroke-linecap:butt;stroke-linejoin:miter;stroke-opacity:1" d="M 828.566,446.889 810.563,446.889 z" id="boundary" inkscape:connector-curvature="0" />
	<path style="fill:none;stroke:red;stroke-width:1px;stroke-linecap:butt;stroke-linejoin:miter;stroke-opacity:1" d="M 810.563,446.889 796.16,436.087 z" id="boundary" inkscape:connector-curvature="0" />
	<path style="fill:none;stroke:red;stroke-width:1px;stroke-linecap:butt;stroke-linejoin:miter;stroke-opacity:1" d="M 796.16,436.087 792.559,418.083 z" id="boundary" inkscape:connector-curvature="0" />
	<path style="fill:none;stroke:red;stroke-width:1px;stroke-linecap:butt;stroke-linejoin:miter;stroke-opacity:1" d="M 792.559,418.083 774.555,418.083 z" id="boundary" inkscape:connector-curvature="0" />
	<path style="fill:none;stroke:red;stroke-width:1px;stroke-linecap:butt;stroke-linejoin:miter;stroke-opacity:1" d="M 774.555,418.083 756.552,418.083 z" id="boundary" inkscape:connector-curvature="0" />
	<path style="fill:none;stroke:red;stroke-width:1px;stroke-linecap:butt;stroke-linejoin:miter;stroke-opacity:1" d="M 756.552,418.083 738.548,418.083 z" id="boundary" inkscape:connector-curvature="0" />
	<path style="fill:none;stroke:red;stroke-width:1px;stroke-linecap:butt;stroke-linejoin:miter;stroke-opacity:1" d="M 738.548,418.083 720.544,418.083 z" id="boundary" inkscape:connector-curvature="0" />
	<path style="fill:none;stroke:red;stroke-width:1px;stroke-linecap:butt;stroke-linejoin:miter;stroke-opacity:1" d="M 720.544,418.083 702.541,419.884 z" id="boundary" inkscape:connector-curvature="0" />
	<path style="fill:none;stroke:red;stroke-width:1px;stroke-linecap:butt;stroke-linejoin:miter;stroke-opacity:1" d="M 702.541,419.884 686.338,410.882 z" id="boundary" inkscape:connector-curvature="0" />
	<path style="fill:none;stroke:red;stroke-width:1px;stroke-linecap:butt;stroke-linejoin:miter;stroke-opacity:1" d="M 686.338,410.882 668.334,410.882 z" id="boundary" inkscape:connector-curvature="0" />
	<path style="fill:none;stroke:red;stroke-width:1px;stroke-linecap:butt;stroke-linejoin:miter;stroke-opacity:1" d="M 668.334,410.882 650.33,410.882 z" id="boundary" inkscape:connector-curvature="0" />
	<path style="fill:none;stroke:red;stroke-width:1px;stroke-linecap:butt;stroke-linejoin:miter;stroke-opacity:1" d="M 650.33,410.882 632.327,410.882 z" id="boundary" inkscape:connector-curvature="0" />
	<path style="fill:none;stroke:red;stroke-width:1px;stroke-linecap:butt;stroke-linejoin:miter;stroke-opacity:1" d="M 632.327,410.882 614.323,410.882 z" id="boundary" inkscape:connector-curvature="0" />
	<path style="fill:none;stroke:red;stroke-width:1px;stroke-linecap:butt;stroke-linejoin:miter;stroke-opacity:1" d="M 614.323,410.882 596.319,410.882 z" id="boundary" inkscape:connector-curvature="0" />
	<path style="fill:none;stroke:red;stroke-width:1px;stroke-linecap:butt;stroke-linejoin:miter;stroke-opacity:1" d="M 596.319,410.882 578.316,410.882 z" id="boundary" inkscape:connector-curvature="0" />
	<path style="fill:none;stroke:red;stroke-width:1px;stroke-linecap:butt;stroke-linejoin:miter;stroke-opacity:1" d="M 578.316,410.882 560.312,416.283 z" id="boundary" inkscape:connector-curvature="0" />
	<path style="fill:none;stroke:red;stroke-width:1px;stroke-linecap:butt;stroke-linejoin:miter;stroke-opacity:1" d="M 560.312,416.283 545.909,428.886 z" id="boundary" inkscape:connector-curvature="0" />
	<path style="fill:none;stroke:red;stroke-width:1px;stroke-linecap:butt;stroke-linejoin:miter;stroke-opacity:1" d="M 545.909,428.886 531.506,445.089 z" id="boundary" inkscape:connector-curvature="0" />
	<path style="fill:none;stroke:red;stroke-width:1px;stroke-linecap:butt;stroke-linejoin:miter;stroke-opacity:1" d="M 531.506,445.089 522.505,463.093 z" id="boundary" inkscape:connector-curvature="0" />
	<path style="fill:none;stroke:red;stroke-width:1px;stroke-linecap:butt;stroke-linejoin:miter;stroke-opacity:1" d="M 522.505,463.093 504.501,464.893 z" id="boundary" inkscape:connector-curvature="0" />
	<path style="fill:none;stroke:red;stroke-width:1px;stroke-linecap:butt;stroke-linejoin:miter;stroke-opacity:1" d="M 504.501,464.893 486.497,464.893 z" id="boundary" inkscape:connector-curvature="0" />
	<path style="fill:none;stroke:red;stroke-width:1px;stroke-linecap:butt;stroke-linejoin:miter;stroke-opacity:1" d="M 486.497,464.893 468.494,464.893 z" id="boundary" inkscape:connector-curvature="0" />
	<path style="fill:none;stroke:red;stroke-width:1px;stroke-linecap:butt;stroke-linejoin:miter;stroke-opacity:1" d="M 468.494,464.893 452.29,473.895 z" id="boundary" inkscape:connector-curvature="0" />
	<path style="fill:none;stroke:red;stroke-width:1px;stroke-linecap:butt;stroke-linejoin:miter;stroke-opacity:1" d="M 452.29,473.895 437.887,461.292 z" id="boundary" inkscape:connector-curvature="0" />
	<path style="fill:none;stroke:red;stroke-width:1px;stroke-linecap:butt;stroke-linejoin:miter;stroke-opacity:1" d="M 437.887,461.292 425.285,446.889 z" id="boundary" inkscape:connector-curvature="0" />
	<path style="fill:none;stroke:red;stroke-width:1px;stroke-linecap:butt;stroke-linejoin:miter;stroke-opacity:1" d="M 425.285,446.889 410.882,434.287 z" id="boundary" inkscape:connector-curvature="0" />
	<path style="fill:none;stroke:red;stroke-width:1px;stroke-linecap:butt;stroke-linejoin:miter;stroke-opacity:1" d="M 410.882,434.287 400.08,419.884 z" id="boundary" inkscape:connector-curvature="0" />
	<path style="fill:none;stroke:red;stroke-width:1px;stroke-linecap:butt;stroke-linejoin:miter;stroke-opacity:1" d="M 400.08,419.884 400.08,401.88 z" id="boundary" inkscape:connector-curvature="0" />
	<path style="fill:none;stroke:red;stroke-width:1px;stroke-linecap:butt;stroke-linejoin:miter;stroke-opacity:1" d="M 400.08,401.88 383.877,410.882 z" id="boundary" inkscape:connector-curvature="0" />
	<path style="fill:none;stroke:red;stroke-width:1px;stroke-linecap:butt;stroke-linejoin:miter;stroke-opacity:1" d="M 383.877,410.882 365.873,410.882 z" id="boundary" inkscape:connector-curvature="0" />
	<path style="fill:none;stroke:red;stroke-width:1px;stroke-linecap:butt;stroke-linejoin:miter;stroke-opacity:1" d="M 365.873,410.882 347.869,410.882 z" id="boundary" inkscape:connector-curvature="0" />
	<path style="fill:none;stroke:red;stroke-width:1px;stroke-linecap:butt;stroke-linejoin:miter;stroke-opacity:1" d="M 347.869,410.882 329.866,410.882 z" id="boundary" inkscape:connector-curvature="0" />
	<path style="fill:none;stroke:red;stroke-width:1px;stroke-linecap:butt;stroke-linejoin:miter;stroke-opacity:1" d="M 329.866,410.882 311.862,410.882 z" id="boundary" inkscape:connector-curvature="0" />
	<path style="fill:none;stroke:red;stroke-width:1px;stroke-linecap:butt;stroke-linejoin:miter;stroke-opacity:1" d="M 311.862,410.882 293.858,410.882 z" id="boundary" inkscape:connector-curvature="0" />
	<path style="fill:none;stroke:red;stroke-width:1px;stroke-linecap:butt;stroke-linejoin:miter;stroke-opacity:1" d="M 293.858,410.882 275.855,410.882 z" id="boundary" inkscape:connector-curvature="0" />
	<path style="fill:none;stroke:red;stroke-width:1px;stroke-linecap:butt;stroke-linejoin:miter;stroke-opacity:1" d="M 275.855,410.882 257.851,410.882 z" id="boundary" inkscape:connector-curvature="0" />
	<path style="fill:none;stroke:red;stroke-width:1px;stroke-linecap:butt;stroke-linejoin:miter;stroke-opacity:1" d="M 257.851,410.882 239.848,414.483 z" id="boundary" inkscape:connector-curvature="0" />
	<path style="fill:none;stroke:red;stroke-width:1px;stroke-linecap:butt;stroke-linejoin:miter;stroke-opacity:1" d="M 239.848,414.483 221.844,410.882 z" id="boundary" inkscape:connector-curvature="0" />
	<path style="fill:none;stroke:red;stroke-width:1px;stroke-linecap:butt;stroke-linejoin:miter;stroke-opacity:1" d="M 221.844,410.882 203.84,410.882 z" id="boundary" inkscape:connector-curvature="0" />
	<path style="fill:none;stroke:red;stroke-width:1px;stroke-linecap:butt;stroke-linejoin:miter;stroke-opacity:1" d="M 203.84,410.882 185.837,410.882 z" id="boundary" inkscape:connector-curvature="0" />
	<path style="fill:none;stroke:red;stroke-width:1px;stroke-linecap:butt;stroke-linejoin:miter;stroke-opacity:1" d="M 185.837,410.882 167.833,410.882 z" id="boundary" inkscape:connector-curvature="0" />
	<path style="fill:none;stroke:red;stroke-width:1px;stroke-linecap:butt;stroke-linejoin:miter;stroke-opacity:1" d="M 167.833,410.882 155.23,425.285 z" id="boundary" inkscape:connector-curvature="0" />
	<path style="fill:none;stroke:red;stroke-width:1px;stroke-linecap:butt;stroke-linejoin:miter;stroke-opacity:1" d="M 155.23,425.285 137.227,434.287 z" id="boundary" inkscape:connector-curvature="0" />
	<path style="fill:none;stroke:red;stroke-width:1px;stroke-linecap:butt;stroke-linejoin:miter;stroke-opacity:1" d="M 137.227,434.287 122.824,446.889 z" id="boundary" inkscape:connector-curvature="0" />
	<path style="fill:none;stroke:red;stroke-width:1px;stroke-linecap:butt;stroke-linejoin:miter;stroke-opacity:1" d="M 122.824,446.889 104.82,446.889 z" id="boundary" inkscape:connector-curvature="0" />
	<path style="fill:none;stroke:red;stroke-width:1px;stroke-linecap:butt;stroke-linejoin:miter;stroke-opacity:1" d="M 104.82,446.889 86.8167,455.891 z" id="boundary" inkscape:connector-curvature="0" />
	<path style="fill:none;stroke:red;stroke-width:1px;stroke-linecap:butt;stroke-linejoin:miter;stroke-opacity:1" d="M 86.8167,455.891 68.8131,455.891 z" id="boundary" inkscape:connector-curvature="0" />
	<path style="fill:none;stroke:red;stroke-width:1px;stroke-linecap:butt;stroke-linejoin:miter;stroke-opacity:1" d="M 68.8131,455.891 50.8094,450.49 z" id="boundary" inkscape:connector-curvature="0" />
	<path style="fill:none;stroke:red;stroke-width:1px;stroke-linecap:butt;stroke-linejoin:miter;stroke-opacity:1" d="M 50.8094,450.49 40.0073,436.087 z" id="boundary" inkscape:connector-curvature="0" />
	<path style="fill:none;stroke:red;stroke-width:1px;stroke-linecap:butt;stroke-linejoin:miter;stroke-opacity:1" d="M 40.0073,436.087 40.0073,418.083 z" id="boundary" inkscape:connector-curvature="0" />
	<path style="fill:none;stroke:red;stroke-width:1px;stroke-linecap:butt;stroke-linejoin:miter;stroke-opacity:1" d="M 40.0073,418.083 34.6062,400.08 z" id="boundary" inkscape:connector-curvature="0" />
	<path style="fill:none;stroke:red;stroke-width:1px;stroke-linecap:butt;stroke-linejoin:miter;stroke-opacity:1" d="M 34.6062,400.08 27.4047,382.076 z" id="boundary" inkscape:connector-curvature="0" />
	<path style="fill:none;stroke:red;stroke-width:1px;stroke-linecap:butt;stroke-linejoin:miter;stroke-opacity:1" d="M 27.4047,382.076 13.0018,369.474 z" id="boundary" inkscape:connector-curvature="0" />
	<path style="fill:none;stroke:red;stroke-width:1px;stroke-linecap:butt;stroke-linejoin:miter;stroke-opacity:1" d="M 13.0018,369.474 13.0018,342.468 z" id="boundary" inkscape:connector-curvature="0" />
	<path style="fill:none;stroke:red;stroke-width:1px;stroke-linecap:butt;stroke-linejoin:miter;stroke-opacity:1" d="M 13.0018,342.468 22.0036,320.864 z" id="boundary" inkscape:connector-curvature="0" />
	<path style="fill:none;stroke:red;stroke-width:1px;stroke-linecap:butt;stroke-linejoin:miter;stroke-opacity:1" d="M 22.0036,320.864 13.0018,304.661 z" id="boundary" inkscape:connector-curvature="0" />
	<path style="fill:none;stroke:red;stroke-width:1px;stroke-linecap:butt;stroke-linejoin:miter;stroke-opacity:1" d="M 13.0018,304.661 13.0018,286.657 z" id="boundary" inkscape:connector-curvature="0" />
	<path style="fill:none;stroke:red;stroke-width:1px;stroke-linecap:butt;stroke-linejoin:miter;stroke-opacity:1" d="M 13.0018,286.657 4,270.454 z" id="boundary" inkscape:connector-curvature="0" />
	<path style="fill:none;stroke:red;stroke-width:1px;stroke-linecap:butt;stroke-linejoin:miter;stroke-opacity:1" d="M 4,270.454 4,252.45 z" id="boundary" inkscape:connector-curvature="0" />
	<path style="fill:none;stroke:red;stroke-width:1px;stroke-linecap:butt;stroke-linejoin:miter;stroke-opacity:1" d="M 4,252.45 4,234.446 z" id="boundary" inkscape:connector-curvature="0" />
	<path style="fill:none;stroke:red;stroke-width:1px;stroke-linecap:butt;stroke-linejoin:miter;stroke-opacity:1" d="M 4,234.446 18.4029,220.044 z" id="boundary" inkscape:connector-curvature="0" />
	<path style="fill:none;stroke:red;stroke-width:1px;stroke-linecap:butt;stroke-linejoin:miter;stroke-opacity:1" d="M 18.4029,220.044 31.0054,198.439 z" id="boundary" inkscape:connector-curvature="0" />
	<path style="fill:none;stroke:red;stroke-width:1px;stroke-linecap:butt;stroke-linejoin:miter;stroke-opacity:1" d="M 31.0054,198.439 49.0091,189.437 z" id="boundary" inkscape:connector-curvature="0" />
	<path style="fill:none;stroke:red;stroke-width:1px;stroke-linecap:butt;stroke-linejoin:miter;stroke-opacity:1" d="M 49.0091,189.437 67.0127,189.437 z" id="boundary" inkscape:connector-curvature="0" />
	<path style="fill:none;stroke:red;stroke-width:1px;stroke-linecap:butt;stroke-linejoin:miter;stroke-opacity:1" d="M 67.0127,189.437 85.0163,184.036 z" id="boundary" inkscape:connector-curvature="0" />
	<path style="fill:none;stroke:red;stroke-width:1px;stroke-linecap:butt;stroke-linejoin:miter;stroke-opacity:1" d="M 85.0163,184.036 103.02,180.436 z" id="boundary" inkscape:connector-curvature="0" />
	<path style="fill:none;stroke:red;stroke-width:1px;stroke-linecap:butt;stroke-linejoin:miter;stroke-opacity:1" d="M 103.02,180.436 121.024,180.436 z" id="boundary" inkscape:connector-curvature="0" />
	<path style="fill:none;stroke:red;stroke-width:1px;stroke-linecap:butt;stroke-linejoin:miter;stroke-opacity:1" d="M 121.024,180.436 139.027,175.034 z" id="boundary" inkscape:connector-curvature="0" />
	<path style="fill:none;stroke:red;stroke-width:1px;stroke-linecap:butt;stroke-linejoin:miter;stroke-opacity:1" d="M 139.027,175.034 157.031,175.034 z" id="boundary" inkscape:connector-curvature="0" />
	<path style="fill:none;stroke:red;stroke-width:1px;stroke-linecap:butt;stroke-linejoin:miter;stroke-opacity:1" d="M 157.031,175.034 173.234,166.033 z" id="boundary" inkscape:connector-curvature="0" />
	<path style="fill:none;stroke:red;stroke-width:1px;stroke-linecap:butt;stroke-linejoin:miter;stroke-opacity:1" d="M 173.234,166.033 191.238,166.033 z" id="boundary" inkscape:connector-curvature="0" />
	<path style="fill:none;stroke:red;stroke-width:1px;stroke-linecap:butt;stroke-linejoin:miter;stroke-opacity:1" d="M 191.238,166.033 209.241,166.033 z" id="boundary" inkscape:connector-curvature="0" />
	<path style="fill:none;stroke:red;stroke-width:1px;stroke-linecap:butt;stroke-linejoin:miter;stroke-opacity:1" d="M 209.241,166.033 227.245,166.033 z" id="boundary" inkscape:connector-curvature="0" />
	<path style="fill:none;stroke:red;stroke-width:1px;stroke-linecap:butt;stroke-linejoin:miter;stroke-opacity:1" d="M 227.245,166.033 245.249,166.033 z" id="boundary" inkscape:connector-curvature="0" />
	<path style="fill:none;stroke:red;stroke-width:1px;stroke-linecap:butt;stroke-linejoin:miter;stroke-opacity:1" d="M 245.249,166.033 261.452,157.031 z" id="boundary" inkscape:connector-curvature="0" />
	<path style="fill:none;stroke:red;stroke-width:1px;stroke-linecap:butt;stroke-linejoin:miter;stroke-opacity:1" d="M 261.452,157.031 275.855,142.628 z" id="boundary" inkscape:connector-curvature="0" />
	<path style="fill:none;stroke:red;stroke-width:1px;stroke-linecap:butt;stroke-linejoin:miter;stroke-opacity:1" d="M 275.855,142.628 293.858,133.626 z" id="boundary" inkscape:connector-curvature="0" />
	<path style="fill:none;stroke:red;stroke-width:1px;stroke-linecap:butt;stroke-linejoin:miter;stroke-opacity:1" d="M 293.858,133.626 311.862,124.624 z" id="boundary" inkscape:connector-curvature="0" />
	<path style="fill:none;stroke:red;stroke-width:1px;stroke-linecap:butt;stroke-linejoin:miter;stroke-opacity:1" d="M 311.862,124.624 329.866,121.024 z" id="boundary" inkscape:connector-curvature="0" />
	<path style="fill:none;stroke:red;stroke-width:1px;stroke-linecap:butt;stroke-linejoin:miter;stroke-opacity:1" d="M 329.866,121.024 347.869,115.623 z" id="boundary" inkscape:connector-curvature="0" />
	<path style="fill:none;stroke:red;stroke-width:1px;stroke-linecap:butt;stroke-linejoin:miter;stroke-opacity:1" d="M 347.869,115.623 365.873,112.022 z" id="boundary" inkscape:connector-curvature="0" />
	<path style="fill:none;stroke:red;stroke-width:1px;stroke-linecap:butt;stroke-linejoin:miter;stroke-opacity:1" d="M 365.873,112.022 383.877,112.022 z" id="boundary" inkscape:connector-curvature="0" />
	<path style="fill:none;stroke:red;stroke-width:1px;stroke-linecap:butt;stroke-linejoin:miter;stroke-opacity:1" d="M 383.877,112.022 400.08,103.02 z" id="boundary" inkscape:connector-curvature="0" />
	<path style="fill:none;stroke:red;stroke-width:1px;stroke-linecap:butt;stroke-linejoin:miter;stroke-opacity:1" d="M 400.08,103.02 418.083,106.621 z" id="boundary" inkscape:connector-curvature="0" />
	<path style="fill:none;stroke:red;stroke-width:1px;stroke-linecap:butt;stroke-linejoin:miter;stroke-opacity:1" d="M 418.083,106.621 428.886,121.024 z" id="boundary" inkscape:connector-curvature="0" />
	<path style="fill:none;stroke:red;stroke-width:1px;stroke-linecap:butt;stroke-linejoin:miter;stroke-opacity:1" d="M 428.886,121.024 446.889,126.425 z" id="boundary" inkscape:connector-curvature="0" />
	<path style="fill:none;stroke:red;stroke-width:1px;stroke-linecap:butt;stroke-linejoin:miter;stroke-opacity:1" d="M 446.889,126.425 454.091,108.421 z" id="boundary" inkscape:connector-curvature="0" />
	<path style="fill:none;stroke:red;stroke-width:1px;stroke-linecap:butt;stroke-linejoin:miter;stroke-opacity:1" d="M 454.091,108.421 472.094,99.4192 z" id="boundary" inkscape:connector-curvature="0" />
	<path style="fill:none;stroke:red;stroke-width:1px;stroke-linecap:butt;stroke-linejoin:miter;stroke-opacity:1" d="M 472.094,99.4192 472.094,81.4156 z" id="boundary" inkscape:connector-curvature="0" />
	<path style="fill:none;stroke:red;stroke-width:1px;stroke-linecap:butt;stroke-linejoin:miter;stroke-opacity:1" d="M 472.094,81.4156 472.094,63.412 z" id="boundary" inkscape:connector-curvature="0" />
	<path style="fill:none;stroke:red;stroke-width:1px;stroke-linecap:butt;stroke-linejoin:miter;stroke-opacity:1" d="M 472.094,63.412 472.094,45.4083 z" id="boundary" inkscape:connector-curvature="0" />
	<path style="fill:none;stroke:red;stroke-width:1px;stroke-linecap:butt;stroke-linejoin:miter;stroke-opacity:1" d="M 472.094,45.4083 486.497,31.0054 z" id="boundary" inkscape:connector-curvature="0" />
	<path style="fill:none;stroke:red;stroke-width:1px;stroke-linecap:butt;stroke-linejoin:miter;stroke-opacity:1" d="M 486.497,31.0054 504.501,22.0036 z" id="boundary" inkscape:connector-curvature="0" />
	<path style="fill:none;stroke:red;stroke-width:1px;stroke-linecap:butt;stroke-linejoin:miter;stroke-opacity:1" d="M 504.501,22.0036 518.904,7.60073 z" id="boundary" inkscape:connector-curvature="0" />
	<path style="fill:none;stroke:red;stroke-width:1px;stroke-linecap:butt;stroke-linejoin:miter;stroke-opacity:1" d="M 518.904,7.60073 536.907,4 z" id="boundary" inkscape:connector-curvature="0" />
	<path style="fill:none;stroke:red;stroke-width:1px;stroke-linecap:butt;stroke-linejoin:miter;stroke-opacity:1" d="M 536.907,4 554.911,9.40109 z" id="boundary" inkscape:connector-curvature="0" />
	<path style="fill:none;stroke:red;stroke-width:1px;stroke-linecap:butt;stroke-linejoin:miter;stroke-opacity:1" d="M 554.911,9.40109 572.915,13.0018 z" id="boundary" inkscape:connector-curvature="0" />
	<path style="fill:none;stroke:red;stroke-width:1px;stroke-linecap:butt;stroke-linejoin:miter;stroke-opacity:1" d="M 572.915,13.0018 590.918,13.0018 z" id="boundary" inkscape:connector-curvature="0" />
	<path style="fill:none;stroke:red;stroke-width:1px;stroke-linecap:butt;stroke-linejoin:miter;stroke-opacity:1" d="M 590.918,13.0018 608.922,13.0018 z" id="boundary" inkscape:connector-curvature="0" />
	<path style="fill:none;stroke:red;stroke-width:1px;stroke-linecap:butt;stroke-linejoin:miter;stroke-opacity:1" d="M 608.922,13.0018 626.926,13.0018 z" id="boundary" inkscape:connector-curvature="0" />
	<path style="fill:none;stroke:red;stroke-width:1px;stroke-linecap:butt;stroke-linejoin:miter;stroke-opacity:1" d="M 626.926,13.0018 644.929,13.0018 z" id="boundary" inkscape:connector-curvature="0" />
	<path style="fill:none;stroke:red;stroke-width:1px;stroke-linecap:butt;stroke-linejoin:miter;stroke-opacity:1" d="M 644.929,13.0018 662.933,13.0018 z" id="boundary" inkscape:connector-curvature="0" />
	<path style="fill:none;stroke:red;stroke-width:1px;stroke-linecap:butt;stroke-linejoin:miter;stroke-opacity:1" d="M 662.933,13.0018 680.936,13.0018 z" id="boundary" inkscape:connector-curvature="0" />
	<path style="fill:none;stroke:red;stroke-width:1px;stroke-linecap:butt;stroke-linejoin:miter;stroke-opacity:1" d="M 680.936,13.0018 698.94,13.0018 z" id="boundary" inkscape:connector-curvature="0" />
	<path style="fill:none;stroke:red;stroke-width:1px;stroke-linecap:butt;stroke-linejoin:miter;stroke-opacity:1" d="M 698.94,13.0018 716.944,13.0018 z" id="boundary" inkscape:connector-curvature="0" />
	<path style="fill:none;stroke:red;stroke-width:1px;stroke-linecap:butt;stroke-linejoin:miter;stroke-opacity:1" d="M 716.944,13.0018 734.947,13.0018 z" id="boundary" inkscape:connector-curvature="0" />
	<path style="fill:none;stroke:red;stroke-width:1px;stroke-linecap:butt;stroke-linejoin:miter;stroke-opacity:1" d="M 734.947,13.0018 751.151,22.0036 z" id="boundary" inkscape:connector-curvature="0" />
	<path style="fill:none;stroke:red;stroke-width:1px;stroke-linecap:butt;stroke-linejoin:miter;stroke-opacity:1" d="M 751.151,22.0036 761.953,36.4065 z" id="boundary" inkscape:connector-curvature="0" />
	<path style="fill:none;stroke:red;stroke-width:1px;stroke-linecap:butt;stroke-linejoin:miter;stroke-opacity:1" d="M 761.953,36.4065 761.953,54.4102 z" id="boundary" inkscape:connector-curvature="0" />
	<path style="fill:none;stroke:red;stroke-width:1px;stroke-linecap:butt;stroke-linejoin:miter;stroke-opacity:1" d="M 761.953,54.4102 761.953,72.4138 z" id="boundary" inkscape:connector-curvature="0" />
	<path style="fill:none;stroke:red;stroke-width:1px;stroke-linecap:butt;stroke-linejoin:miter;stroke-opacity:1" d="M 761.953,72.4138 761.953,90.4174 z" id="boundary" inkscape:connector-curvature="0" />
	<path style="fill:none;stroke:red;stroke-width:1px;stroke-linecap:butt;stroke-linejoin:miter;stroke-opacity:1" d="M 761.953,90.4174 774.555,104.82 z" id="boundary" inkscape:connector-curvature="0" />
	<path style="fill:none;stroke:red;stroke-width:1px;stroke-linecap:butt;stroke-linejoin:miter;stroke-opacity:1" d="M 774.555,104.82 788.958,117.423 z" id="boundary" inkscape:connector-curvature="0" />
	<path style="fill:none;stroke:red;stroke-width:1px;stroke-linecap:butt;stroke-linejoin:miter;stroke-opacity:1" d="M 788.958,117.423 801.561,131.826 z" id="boundary" inkscape:connector-curvature="0" />
	<path style="fill:none;stroke:red;stroke-width:1px;stroke-linecap:butt;stroke-linejoin:miter;stroke-opacity:1" d="M 801.561,131.826 819.564,139.027 z" id="boundary" inkscape:connector-curvature="0" />
	<path style="fill:none;stroke:red;stroke-width:1px;stroke-linecap:butt;stroke-linejoin:miter;stroke-opacity:1" d="M 819.564,139.027 835.768,148.029 z" id="boundary" inkscape:connector-curvature="0" />
	<path style="fill:none;stroke:red;stroke-width:1px;stroke-linecap:butt;stroke-linejoin:miter;stroke-opacity:1" d="M 835.768,148.029 853.771,148.029 z" id="boundary" inkscape:connector-curvature="0" />
	<path style="fill:none;stroke:red;stroke-width:1px;stroke-linecap:butt;stroke-linejoin:miter;stroke-opacity:1" d="M 853.771,148.029 871.775,148.029 z" id="boundary" inkscape:connector-curvature="0" />
	<path style="fill:none;stroke:red;stroke-width:1px;stroke-linecap:butt;stroke-linejoin:miter;stroke-opacity:1" d="M 871.775,148.029 887.978,157.031 z" id="boundary" inkscape:connector-curvature="0" />
	<path style="fill:none;stroke:red;stroke-width:1px;stroke-linecap:butt;stroke-linejoin:miter;stroke-opacity:1" d="M 887.978,157.031 905.982,157.031 z" id="boundary" inkscape:connector-curvature="0" />
	<path style="fill:none;stroke:red;stroke-width:1px;stroke-linecap:butt;stroke-linejoin:miter;stroke-opacity:1" d="M 905.982,157.031 922.185,166.033 z" id="boundary" inkscape:connector-curvature="0" />
	<path style="fill:none;stroke:red;stroke-width:1px;stroke-linecap:butt;stroke-linejoin:miter;stroke-opacity:1" d="M 922.185,166.033 940.189,160.632 z" id="boundary" inkscape:connector-curvature="0" />
	<path style="fill:none;stroke:red;stroke-width:1px;stroke-linecap:butt;stroke-linejoin:miter;stroke-opacity:1" d="M 940.189,160.632 958.192,160.632 z" id="boundary" inkscape:connector-curvature="0" />
	<path style="fill:none;stroke:red;stroke-width:1px;stroke-linecap:butt;stroke-linejoin:miter;stroke-opacity:1" d="M 958.192,160.632 976.196,166.033 z" id="boundary" inkscape:connector-curvature="0" />
	<path style="fill:none;stroke:red;stroke-width:1px;stroke-linecap:butt;stroke-linejoin:miter;stroke-opacity:1" d="M 976.196,166.033 986.998,180.436 z" id="boundary" inkscape:connector-curvature="0" />
	<path style="fill:none;stroke:red;stroke-width:1px;stroke-linecap:butt;stroke-linejoin:miter;stroke-opacity:1" d="M 986.998,180.436 996,196.639 z" id="boundary" inkscape:connector-curvature="0" />
	<path style="fill:none;stroke:red;stroke-width:1px;stroke-linecap:butt;stroke-linejoin:miter;stroke-opacity:1" d="M 996,196.639 996,214.642 z" id="boundary" inkscape:connector-curvature="0" />
	<path style="fill:none;stroke:red;stroke-width:1px;stroke-linecap:butt;stroke-linejoin:miter;stroke-opacity:1" d="M 996,214.642 996,232.646 z" id="boundary" inkscape:connector-curvature="0" />
	<path style="fill:none;stroke:red;stroke-width:1px;stroke-linecap:butt;stroke-linejoin:miter;stroke-opacity:1" d="M 996,232.646 996,250.65 z" id="boundary" inkscape:connector-curvature="0" />
	<circle cx="4" cy="234.446" r="4" fill="#0" id="circle0"/>
	<circle cx="4" cy="252.45" r="4" fill="#0" id="circle1"/>
	<circle cx="4" cy="270.454" r="4" fill="#0" id="circle2"/>
	<circle cx="13.0018" cy="286.657" r="4" fill="#0" id="circle3"/>
	<circle cx="13.0018" cy="304.661" r="4" fill="#0" id="circle4"/>
	<circle cx="13.0018" cy="342.468" r="4" fill="#0" id="circle5"/>
	<circle cx="13.0018" cy="369.474" r="4" fill="#0" id="circle6"/>
	<circle cx="18.4029" cy="220.044" r="4" fill="#0" id="circle7"/>
	<circle cx="22.0036" cy="320.864" r="4" fill="#0" id="circle8"/>
	<circle cx="27.4047" cy="382.076" r="4" fill="#0" id="circle9"/>
	<circle cx="31.0054" cy="198.439" r="4" fill="#0" id="circle10"/>
	<circle cx="34.6062" cy="400.08" r="4" fill="#0" id="circle11"/>
	<circle cx="40.0073" cy="418.083" r="4" fill="#0" id="circle12"/>
	<circle cx="40.0073" cy="436.087" r="4" fill="#0" id="circle13"/>
	<circle cx="49.0091" cy="189.437" r="4" fill="#0" id="circle14"/>
	<circle cx="50.8094" cy="450.49" r="4" fill="#0" id="circle15"/>
	<circle cx="67.0127" cy="189.437" r="4" fill="#0" id="circle16"/>
	<circle cx="68.8131" cy="455.891" r="4" fill="#0" id="circle17"/>
	<circle cx="85.0163" cy="184.036" r="4" fill="#0" id="circle18"/>
	<circle cx="86.8167" cy="455.891" r="4" fill="#0" id="circle19"/>
	<circle cx="103.02" cy="180.436" r="4" fill="#0" id="circle20"/>
	<circle cx="104.82" cy="446.889" r="4" fill="#0" id="circle21"/>
	<circle cx="121.024" cy="180.436" r="4" fill="#0" id="circle22"/>
	<circle cx="122.824" cy="446.889" r="4" fill="#0" id="circle23"/>
	<circle cx="137.227" cy="434.287" r="4" fill="#0" id="circle24"/>
	<circle cx="139.027" cy="175.034" r="4" fill="#0" id="circle25"/>
	<circle cx="155.23" cy="425.285" r="4" fill="#0" id="circle26"/>
	<circle cx="157.031" cy="175.034" r="4" fill="#0" id="circle27"/>
	<circle cx="167.833" cy="410.882" r="4" fill="#0" id="circle28"/>
	<circle cx="173.234" cy="166.033" r="4" fill="#0" id="circle29"/>
	<circle cx="185.837" cy="410.882" r="4" fill="#0" id="circle30"/>
	<circle cx="191.238" cy="166.033" r="4" fill="#0" id="circle31"/>
	<circle cx="203.84" cy="410.882" r="4" fill="#0" id="circle32"/>
	<circle cx="209.241" cy="166.033" r="4" fill="#0" id="circle33"/>
	<circle cx="221.844" cy="410.882" r="4" fill="#0" id="circle34"/>
	<circle cx="227.245" cy="166.033" r="4" fill="#0" id="circle35"/>
	<circle cx="239.848" cy="414.483" r="4" fill="#0" id="circle36"/>
	<circle cx="245.249" cy="166.033" r="4" fill="#0" id="circle37"/>
	<circle cx="257.851" cy="410.882" r="4" fill="#0" id="circle38"/>
	<circle cx="261.452" cy="157.031" r="4" fill="#0" id="circle39"/>
	<circle cx="275.855" cy="142.628" r="4" fill="#0" id="circle40"/>
	<circle cx="275.855" cy="410.882" r="4" fill="#0" id="circle41"/>
	<circle cx="293.858" cy="133.626" r="4" fill="#0" id="circle42"/>
	<circle cx="293.858" cy="410.882" r="4" fill="#0" id="circle43"/>
	<circle cx="311.862" cy="124.624" r="4" fill="#0" id="circle44"/>
	<circle cx="311.862" cy="410.882" r="4" fill="#0" id="circle45"/>
	<circle cx="329.866" cy="121.024" r="4" fill="#0" id="circle46"/>
	<circle cx="329.866" cy="410.882" r="4" fill="#0" id="circle47"/>
	<circle cx="347.869" cy="115.623" r="4" fill="#0" id="circle48"/>
	<circle cx="347.869" cy="410.882" r="4" fill="#0" id="circle49"/>
	<circle cx="365.873" cy="112.022" r="4" fill="#0" id="circle50"/>
	<circle cx="365.873" cy="410.882" r="4" fill="#0" id="circle51"/>
	<circle cx="383.877" cy="112.022" r="4" fill="#0" id="circle52"/>
	<circle cx="383.877" cy="410.882" r="4" fill="#0" id="circle53"/>
	<circle cx="400.08" cy="103.02" r="4" fill="#0" id="circle54"/>
	<circle cx="400.08" cy="401.88" r="4" fill="#0" id="circle55"/>
	<circle cx="400.08" cy="419.884" r="4" fill="#0" id="circle56"/>
	<circle cx="410.882" cy="434.287" r="4" fill="#0" id="circle57"/>
	<circle cx="418.083" cy="106.621" r="4" fill="#0" id="circle58"/>
	<circle cx="425.285" cy="446.889" r="4" fill="#0" id="circle59"/>
	<circle cx="428.886" cy="121.024" r="4" fill="#0" id="circle60"/>
	<circle cx="437.887" cy="461.292" r="4" fill="#0" id="circle61"/>
	<circle cx="446.889" cy="126.425" r="4" fill="#0" id="circle62"/>
	<circle cx="452.29" cy="473.895" r="4" fill="#0" id="circle63"/>
	<circle cx="454.091" cy="108.421" r="4" fill="#0" id="circle64"/>
	<circle cx="468.494" cy="464.893" r="4" fill="#0" id="circle65"/>
	<circle cx="472.094" cy="45.4083" r="4" fill="#0" id="circle66"/>
	<circle cx="472.094" cy="63.412" r="4" fill="#0" id="circle67"/>
	<circle cx="472.094" cy="81.4156" r="4" fill="#0" id="circle68"/>
	<circle cx="472.094" cy="99.4192" r="4" fill="#0" id="circle69"/>
	<circle cx="486.497" cy="31.0054" r="4" fill="#0" id="circle70"/>
	<circle cx="486.497" cy="464.893" r="4" fill="#0" id="circle71"/>
	<circle cx="504.501" cy="22.0036" r="4" fill="#0" id="circle72"/>
	<circle cx="504.501" cy="464.893" r="4" fill="#0" id="circle73"/>
	<circle cx="518.904" cy="7.60073" r="4" fill="#0" id="circle74"/>
	<circle cx="522.505" cy="463.093" r="4" fill="#0" id="circle75"/>
	<circle cx="531.506" cy="445.089" r="4" fill="#0" id="circle76"/>
	<circle cx="536.907" cy="4" r="4" fill="#0" id="circle77"/>
	<circle cx="545.909" cy="428.886" r="4" fill="#0" id="circle78"/>
	<circle cx="554.911" cy="9.40109" r="4" fill="#0" id="circle79"/>
	<circle cx="560.312" cy="416.283" r="4" fill="#0" id="circle80"/>
	<circle cx="572.915" cy="13.0018" r="4" fill="#0" id="circle81"/>
	<circle cx="578.316" cy="410.882" r="4" fill="#0" id="circle82"/>
	<circle cx="590.918" cy="13.0018" r="4" fill="#0" id="circle83"/>
	<circle cx="596.319" cy="410.882" r="4" fill="#0" id="circle84"/>
	<circle cx="608.922" cy="13.0018" r="4" fill="#0" id="circle85"/>
	<circle cx="614.323" cy="410.882" r="4" fill="#0" id="circle86"/>
	<circle cx="626.926" cy="13.0018" r="4" fill="#0" id="circle87"/>
	<circle cx="632.327" cy="410.882" r="4" fill="#0" id="circle88"/>
	<circle cx="644.929" cy="13.0018" r="4" fill="#0" id="circle89"/>
	<circle cx="650.33" cy="410.882" r="4" fill="#0" id="circle90"/>
	<circle cx="662.933" cy="13.0018" r="4" fill="#0" id="circle91"/>
	<circle cx="668.334" cy="410.882" r="4" fill="#0" id="circle92"/>
	<circle cx="680.936" cy="13.0018" r="4" fill="#0" id="circle93"/>
	<circle cx="686.338" cy="410.882" r="4" fill="#0" id="circle94"/>
	<circle cx="698.94" cy="13.0018" r="4" fill="#0" id="circle95"/>
	<circle cx="702.541" cy="419.884" r="4" fill="#0" id="circle96"/>
	<circle cx="716.944" cy="13.0018" r="4" fill="#0" id="circle97"/>
	<circle cx="720.544" cy="418.083" r="4" fill="#0" id="circle98"/>
	<circle cx="734.947" cy="13.0018" r="4" fill="#0" id="circle99"/>
	<circle cx="738.548" cy="418.083" r="4" fill="#0" id="circle100"/>
	<circle cx="751.151" cy="22.0036" r="4" fill="#0" id="circle101"/>
	<circle cx="756.552" cy="418.083" r="4" fill="#0" id="circle102"/>
	<circle cx="761.953" cy="36.4065" r="4" fill="#0" id="circle103"/>
	<circle cx="761.953" cy="54.4102" r="4" fill="#0" id="circle104"/>
	<circle cx="761.953" cy="72.4138" r="4" fill="#0" id="circle105"/>
	<circle cx="761.953" cy="90.4174" r="4" fill="#0" id="circle106"/>
	<circle cx="774.555" cy="104.82" r="4" fill="#0" id="circle107"/>
	<circle cx="774.555" cy="418.083" r="4" fill="#0" id="circle108"/>
	<circle cx="788.958" cy="117.423" r="4" fill="#0" id="circle109"/>
	<circle cx="792.559" cy="418.083" r="4" fill="#0" id="circle110"/>
	<circle cx="796.16" cy="436.087" r="4" fill="#0" id="circle111"/>
	<circle cx="801.561" cy="131.826" r="4" fill="#0" id="circle112"/>
	<circle cx="810.563" cy="446.889" r="4" fill="#0" id="circle113"/>
	<circle cx="819.564" cy="139.027" r="4" fill="#0" id="circle114"/>
	<circle cx="828.566" cy="446.889" r="4" fill="#0" id="circle115"/>
	<circle cx="835.768" cy="148.029" r="4" fill="#0" id="circle116"/>
	<circle cx="846.57" cy="445.089" r="4" fill="#0" id="circle117"/>
	<circle cx="853.771" cy="148.029" r="4" fill="#0" id="circle118"/>
	<circle cx="860.973" cy="428.886" r="4" fill="#0" id="circle119"/>
	<circle cx="871.775" cy="148.029" r="4" fill="#0" id="circle120"/>
	<circle cx="878.976" cy="419.884" r="4" fill="#0" id="circle121"/>
	<circle cx="887.978" cy="157.031" r="4" fill="#0" id="circle122"/>
	<circle cx="893.379" cy="407.281" r="4" fill="#0" id="circle123"/>
	<circle cx="905.982" cy="157.031" r="4" fill="#0" id="circle124"/>
	<circle cx="905.982" cy="383.877" r="4" fill="#0" id="circle125"/>
	<circle cx="920.385" cy="371.274" r="4" fill="#0" id="circle126"/>
	<circle cx="922.185" cy="166.033" r="4" fill="#0" id="circle127"/>
	<circle cx="932.987" cy="356.871" r="4" fill="#0" id="circle128"/>
	<circle cx="940.189" cy="160.632" r="4" fill="#0" id="circle129"/>
	<circle cx="947.39" cy="344.269" r="4" fill="#0" id="circle130"/>
	<circle cx="958.192" cy="160.632" r="4" fill="#0" id="circle131"/>
	<circle cx="959.993" cy="320.864" r="4" fill="#0" id="circle132"/>
	<circle cx="976.196" cy="166.033" r="4" fill="#0" id="circle133"/>
	<circle cx="977.996" cy="302.86" r="4" fill="#0" id="circle134"/>
	<circle cx="986.998" cy="180.436" r="4" fill="#0" id="circle135"/>
	<circle cx="986.998" cy="284.857" r="4" fill="#0" id="circle136"/>
	<circle cx="996" cy="196.639" r="4" fill="#0" id="circle137"/>
	<circle cx="996" cy="214.642" r="4" fill="#0" id="circle138"/>
	<circle cx="996" cy="232.646" r="4" fill="#0" id="circle139"/>
	<circle cx="996" cy="250.65" r="4" fill="#0" id="circle140"/>
	<circle cx="996" cy="268.653" r="4" fill="#0" id="circle141"/>
	</g>
</svg>