<?xml version="1.0" encoding="UTF-8" standalone="no"?>
<!-- Created with CurveBenchmark -->
<svg
	xmlns:dc="http://purl.org/dc/elements/1.1/"
	xmlns:cc="http://creativecommons.org/ns#"
	xmlns:rdf="http://www.w3.org/1999/02/22-rdf-syntax-ns#"
	xmlns:svg="http://www.w3.org/2000/svg"
	xmlns="http://www.w3.org/2000/svg"
	xmlns:sodipodi="http://sodipodi.sourceforge.net/DTD/sodipodi-0.dtd"
	xmlns:inkscape="http://www.inkscape.org/namespaces/inkscape"
	width="1000"
	height="1000"
	id="svg2"
	version="1.1"
	sodipodi:docname="manifold/connect2d-kitchenknifebinary38.png.txt">
<defs
	id="defs4" />
<metadata
	id="metadata7">
	<rdf:RDF>
		<cc:Work
			rdf:about="">
			<dc:format>image/svg+xml</dc:format>
			<dc:type
				rdf:resource="http://purl.org/dc/dcmitype/StillImage" />
			<dc:title></dc:title>
		</cc:Work>
	</rdf:RDF>
</metadata>
<g
	inkscape:label="Layer 1"
	inkscape:groupmode="layer"
	id="layer1">
	<path style="fill:none;stroke:red;stroke-width:1px;stroke-linecap:butt;stroke-linejoin:miter;stroke-opacity:1" d="M 988.834,36.7595 996,44.9494 z" id="boundary" inkscape:connector-curvature="0" />
	<path style="fill:none;stroke:red;stroke-width:1px;stroke-linecap:butt;stroke-linejoin:miter;stroke-opacity:1" d="M 996,44.9494 994.976,55.1868 z" id="boundary" inkscape:connector-curvature="0" />
	<path style="fill:none;stroke:red;stroke-width:1px;stroke-linecap:butt;stroke-linejoin:miter;stroke-opacity:1" d="M 994.976,55.1868 986.786,63.3767 z" id="boundary" inkscape:connector-curvature="0" />
	<path style="fill:none;stroke:red;stroke-width:1px;stroke-linecap:butt;stroke-linejoin:miter;stroke-opacity:1" d="M 986.786,63.3767 976.549,68.4954 z" id="boundary" inkscape:connector-curvature="0" />
	<path style="fill:none;stroke:red;stroke-width:1px;stroke-linecap:butt;stroke-linejoin:miter;stroke-opacity:1" d="M 976.549,68.4954 966.312,72.5903 z" id="boundary" inkscape:connector-curvature="0" />
	<path style="fill:none;stroke:red;stroke-width:1px;stroke-linecap:butt;stroke-linejoin:miter;stroke-opacity:1" d="M 966.312,72.5903 956.074,74.6378 z" id="boundary" inkscape:connector-curvature="0" />
	<path style="fill:none;stroke:red;stroke-width:1px;stroke-linecap:butt;stroke-linejoin:miter;stroke-opacity:1" d="M 956.074,74.6378 945.837,77.709 z" id="boundary" inkscape:connector-curvature="0" />
	<path style="fill:none;stroke:red;stroke-width:1px;stroke-linecap:butt;stroke-linejoin:miter;stroke-opacity:1" d="M 945.837,77.709 935.6,79.7564 z" id="boundary" inkscape:connector-curvature="0" />
	<path style="fill:none;stroke:red;stroke-width:1px;stroke-linecap:butt;stroke-linejoin:miter;stroke-opacity:1" d="M 935.6,79.7564 925.362,82.8277 z" id="boundary" inkscape:connector-curvature="0" />
	<path style="fill:none;stroke:red;stroke-width:1px;stroke-linecap:butt;stroke-linejoin:miter;stroke-opacity:1" d="M 925.362,82.8277 915.125,84.8751 z" id="boundary" inkscape:connector-curvature="0" />
	<path style="fill:none;stroke:red;stroke-width:1px;stroke-linecap:butt;stroke-linejoin:miter;stroke-opacity:1" d="M 915.125,84.8751 904.888,85.8989 z" id="boundary" inkscape:connector-curvature="0" />
	<path style="fill:none;stroke:red;stroke-width:1px;stroke-linecap:butt;stroke-linejoin:miter;stroke-opacity:1" d="M 904.888,85.8989 894.65,86.9226 z" id="boundary" inkscape:connector-curvature="0" />
	<path style="fill:none;stroke:red;stroke-width:1px;stroke-linecap:butt;stroke-linejoin:miter;stroke-opacity:1" d="M 894.65,86.9226 884.413,86.9226 z" id="boundary" inkscape:connector-curvature="0" />
	<path style="fill:none;stroke:red;stroke-width:1px;stroke-linecap:butt;stroke-linejoin:miter;stroke-opacity:1" d="M 884.413,86.9226 874.175,86.9226 z" id="boundary" inkscape:connector-curvature="0" />
	<path style="fill:none;stroke:red;stroke-width:1px;stroke-linecap:butt;stroke-linejoin:miter;stroke-opacity:1" d="M 874.175,86.9226 863.938,86.9226 z" id="boundary" inkscape:connector-curvature="0" />
	<path style="fill:none;stroke:red;stroke-width:1px;stroke-linecap:butt;stroke-linejoin:miter;stroke-opacity:1" d="M 863.938,86.9226 853.701,86.9226 z" id="boundary" inkscape:connector-curvature="0" />
	<path style="fill:none;stroke:red;stroke-width:1px;stroke-linecap:butt;stroke-linejoin:miter;stroke-opacity:1" d="M 853.701,86.9226 843.463,86.9226 z" id="boundary" inkscape:connector-curvature="0" />
	<path style="fill:none;stroke:red;stroke-width:1px;stroke-linecap:butt;stroke-linejoin:miter;stroke-opacity:1" d="M 843.463,86.9226 833.226,86.9226 z" id="boundary" inkscape:connector-curvature="0" />
	<path style="fill:none;stroke:red;stroke-width:1px;stroke-linecap:butt;stroke-linejoin:miter;stroke-opacity:1" d="M 833.226,86.9226 822.989,85.8989 z" id="boundary" inkscape:connector-curvature="0" />
	<path style="fill:none;stroke:red;stroke-width:1px;stroke-linecap:butt;stroke-linejoin:miter;stroke-opacity:1" d="M 822.989,85.8989 812.751,85.8989 z" id="boundary" inkscape:connector-curvature="0" />
	<path style="fill:none;stroke:red;stroke-width:1px;stroke-linecap:butt;stroke-linejoin:miter;stroke-opacity:1" d="M 812.751,85.8989 802.514,85.8989 z" id="boundary" inkscape:connector-curvature="0" />
	<path style="fill:none;stroke:red;stroke-width:1px;stroke-linecap:butt;stroke-linejoin:miter;stroke-opacity:1" d="M 802.514,85.8989 792.277,85.8989 z" id="boundary" inkscape:connector-curvature="0" />
	<path style="fill:none;stroke:red;stroke-width:1px;stroke-linecap:butt;stroke-linejoin:miter;stroke-opacity:1" d="M 792.277,85.8989 782.039,84.8751 z" id="boundary" inkscape:connector-curvature="0" />
	<path style="fill:none;stroke:red;stroke-width:1px;stroke-linecap:butt;stroke-linejoin:miter;stroke-opacity:1" d="M 782.039,84.8751 771.802,83.8514 z" id="boundary" inkscape:connector-curvature="0" />
	<path style="fill:none;stroke:red;stroke-width:1px;stroke-linecap:butt;stroke-linejoin:miter;stroke-opacity:1" d="M 771.802,83.8514 761.564,82.8277 z" id="boundary" inkscape:connector-curvature="0" />
	<path style="fill:none;stroke:red;stroke-width:1px;stroke-linecap:butt;stroke-linejoin:miter;stroke-opacity:1" d="M 761.564,82.8277 751.327,80.7802 z" id="boundary" inkscape:connector-curvature="0" />
	<path style="fill:none;stroke:red;stroke-width:1px;stroke-linecap:butt;stroke-linejoin:miter;stroke-opacity:1" d="M 751.327,80.7802 741.09,79.7564 z" id="boundary" inkscape:connector-curvature="0" />
	<path style="fill:none;stroke:red;stroke-width:1px;stroke-linecap:butt;stroke-linejoin:miter;stroke-opacity:1" d="M 741.09,79.7564 730.852,77.709 z" id="boundary" inkscape:connector-curvature="0" />
	<path style="fill:none;stroke:red;stroke-width:1px;stroke-linecap:butt;stroke-linejoin:miter;stroke-opacity:1" d="M 730.852,77.709 720.615,75.6615 z" id="boundary" inkscape:connector-curvature="0" />
	<path style="fill:none;stroke:red;stroke-width:1px;stroke-linecap:butt;stroke-linejoin:miter;stroke-opacity:1" d="M 720.615,75.6615 710.378,75.6615 z" id="boundary" inkscape:connector-curvature="0" />
	<path style="fill:none;stroke:red;stroke-width:1px;stroke-linecap:butt;stroke-linejoin:miter;stroke-opacity:1" d="M 710.378,75.6615 700.14,74.6378 z" id="boundary" inkscape:connector-curvature="0" />
	<path style="fill:none;stroke:red;stroke-width:1px;stroke-linecap:butt;stroke-linejoin:miter;stroke-opacity:1" d="M 700.14,74.6378 689.903,74.6378 z" id="boundary" inkscape:connector-curvature="0" />
	<path style="fill:none;stroke:red;stroke-width:1px;stroke-linecap:butt;stroke-linejoin:miter;stroke-opacity:1" d="M 689.903,74.6378 679.666,74.6378 z" id="boundary" inkscape:connector-curvature="0" />
	<path style="fill:none;stroke:red;stroke-width:1px;stroke-linecap:butt;stroke-linejoin:miter;stroke-opacity:1" d="M 679.666,74.6378 669.428,76.6852 z" id="boundary" inkscape:connector-curvature="0" />
	<path style="fill:none;stroke:red;stroke-width:1px;stroke-linecap:butt;stroke-linejoin:miter;stroke-opacity:1" d="M 669.428,76.6852 659.191,78.7327 z" id="boundary" inkscape:connector-curvature="0" />
	<path style="fill:none;stroke:red;stroke-width:1px;stroke-linecap:butt;stroke-linejoin:miter;stroke-opacity:1" d="M 659.191,78.7327 648.954,82.8277 z" id="boundary" inkscape:connector-curvature="0" />
	<path style="fill:none;stroke:red;stroke-width:1px;stroke-linecap:butt;stroke-linejoin:miter;stroke-opacity:1" d="M 648.954,82.8277 638.716,85.8989 z" id="boundary" inkscape:connector-curvature="0" />
	<path style="fill:none;stroke:red;stroke-width:1px;stroke-linecap:butt;stroke-linejoin:miter;stroke-opacity:1" d="M 638.716,85.8989 628.479,91.0175 z" id="boundary" inkscape:connector-curvature="0" />
	<path style="fill:none;stroke:red;stroke-width:1px;stroke-linecap:butt;stroke-linejoin:miter;stroke-opacity:1" d="M 628.479,91.0175 619.265,97.16 z" id="boundary" inkscape:connector-curvature="0" />
	<path style="fill:none;stroke:red;stroke-width:1px;stroke-linecap:butt;stroke-linejoin:miter;stroke-opacity:1" d="M 619.265,97.16 611.075,104.326 z" id="boundary" inkscape:connector-curvature="0" />
	<path style="fill:none;stroke:red;stroke-width:1px;stroke-linecap:butt;stroke-linejoin:miter;stroke-opacity:1" d="M 611.075,104.326 602.885,110.469 z" id="boundary" inkscape:connector-curvature="0" />
	<path style="fill:none;stroke:red;stroke-width:1px;stroke-linecap:butt;stroke-linejoin:miter;stroke-opacity:1" d="M 602.885,110.469 592.648,113.54 z" id="boundary" inkscape:connector-curvature="0" />
	<path style="fill:none;stroke:red;stroke-width:1px;stroke-linecap:butt;stroke-linejoin:miter;stroke-opacity:1" d="M 592.648,113.54 582.411,117.635 z" id="boundary" inkscape:connector-curvature="0" />
	<path style="fill:none;stroke:red;stroke-width:1px;stroke-linecap:butt;stroke-linejoin:miter;stroke-opacity:1" d="M 582.411,117.635 575.245,125.825 z" id="boundary" inkscape:connector-curvature="0" />
	<path style="fill:none;stroke:red;stroke-width:1px;stroke-linecap:butt;stroke-linejoin:miter;stroke-opacity:1" d="M 575.245,125.825 569.102,135.038 z" id="boundary" inkscape:connector-curvature="0" />
	<path style="fill:none;stroke:red;stroke-width:1px;stroke-linecap:butt;stroke-linejoin:miter;stroke-opacity:1" d="M 569.102,135.038 563.983,144.252 z" id="boundary" inkscape:connector-curvature="0" />
	<path style="fill:none;stroke:red;stroke-width:1px;stroke-linecap:butt;stroke-linejoin:miter;stroke-opacity:1" d="M 563.983,144.252 558.865,154.489 z" id="boundary" inkscape:connector-curvature="0" />
	<path style="fill:none;stroke:red;stroke-width:1px;stroke-linecap:butt;stroke-linejoin:miter;stroke-opacity:1" d="M 558.865,154.489 554.77,165.75 z" id="boundary" inkscape:connector-curvature="0" />
	<path style="fill:none;stroke:red;stroke-width:1px;stroke-linecap:butt;stroke-linejoin:miter;stroke-opacity:1" d="M 554.77,165.75 551.699,175.988 z" id="boundary" inkscape:connector-curvature="0" />
	<path style="fill:none;stroke:red;stroke-width:1px;stroke-linecap:butt;stroke-linejoin:miter;stroke-opacity:1" d="M 551.699,175.988 547.604,189.296 z" id="boundary" inkscape:connector-curvature="0" />
	<path style="fill:none;stroke:red;stroke-width:1px;stroke-linecap:butt;stroke-linejoin:miter;stroke-opacity:1" d="M 547.604,189.296 539.414,196.462 z" id="boundary" inkscape:connector-curvature="0" />
	<path style="fill:none;stroke:red;stroke-width:1px;stroke-linecap:butt;stroke-linejoin:miter;stroke-opacity:1" d="M 539.414,196.462 529.176,197.486 z" id="boundary" inkscape:connector-curvature="0" />
	<path style="fill:none;stroke:red;stroke-width:1px;stroke-linecap:butt;stroke-linejoin:miter;stroke-opacity:1" d="M 529.176,197.486 518.939,197.486 z" id="boundary" inkscape:connector-curvature="0" />
	<path style="fill:none;stroke:red;stroke-width:1px;stroke-linecap:butt;stroke-linejoin:miter;stroke-opacity:1" d="M 518.939,197.486 508.702,197.486 z" id="boundary" inkscape:connector-curvature="0" />
	<path style="fill:none;stroke:red;stroke-width:1px;stroke-linecap:butt;stroke-linejoin:miter;stroke-opacity:1" d="M 508.702,197.486 498.464,197.486 z" id="boundary" inkscape:connector-curvature="0" />
	<path style="fill:none;stroke:red;stroke-width:1px;stroke-linecap:butt;stroke-linejoin:miter;stroke-opacity:1" d="M 498.464,197.486 488.227,197.486 z" id="boundary" inkscape:connector-curvature="0" />
	<path style="fill:none;stroke:red;stroke-width:1px;stroke-linecap:butt;stroke-linejoin:miter;stroke-opacity:1" d="M 488.227,197.486 477.99,197.486 z" id="boundary" inkscape:connector-curvature="0" />
	<path style="fill:none;stroke:red;stroke-width:1px;stroke-linecap:butt;stroke-linejoin:miter;stroke-opacity:1" d="M 477.99,197.486 467.752,196.462 z" id="boundary" inkscape:connector-curvature="0" />
	<path style="fill:none;stroke:red;stroke-width:1px;stroke-linecap:butt;stroke-linejoin:miter;stroke-opacity:1" d="M 467.752,196.462 457.515,196.462 z" id="boundary" inkscape:connector-curvature="0" />
	<path style="fill:none;stroke:red;stroke-width:1px;stroke-linecap:butt;stroke-linejoin:miter;stroke-opacity:1" d="M 457.515,196.462 447.278,195.439 z" id="boundary" inkscape:connector-curvature="0" />
	<path style="fill:none;stroke:red;stroke-width:1px;stroke-linecap:butt;stroke-linejoin:miter;stroke-opacity:1" d="M 447.278,195.439 437.04,195.439 z" id="boundary" inkscape:connector-curvature="0" />
	<path style="fill:none;stroke:red;stroke-width:1px;stroke-linecap:butt;stroke-linejoin:miter;stroke-opacity:1" d="M 437.04,195.439 426.803,194.415 z" id="boundary" inkscape:connector-curvature="0" />
	<path style="fill:none;stroke:red;stroke-width:1px;stroke-linecap:butt;stroke-linejoin:miter;stroke-opacity:1" d="M 426.803,194.415 416.566,193.391 z" id="boundary" inkscape:connector-curvature="0" />
	<path style="fill:none;stroke:red;stroke-width:1px;stroke-linecap:butt;stroke-linejoin:miter;stroke-opacity:1" d="M 416.566,193.391 406.328,192.367 z" id="boundary" inkscape:connector-curvature="0" />
	<path style="fill:none;stroke:red;stroke-width:1px;stroke-linecap:butt;stroke-linejoin:miter;stroke-opacity:1" d="M 406.328,192.367 396.091,192.367 z" id="boundary" inkscape:connector-curvature="0" />
	<path style="fill:none;stroke:red;stroke-width:1px;stroke-linecap:butt;stroke-linejoin:miter;stroke-opacity:1" d="M 396.091,192.367 385.853,191.344 z" id="boundary" inkscape:connector-curvature="0" />
	<path style="fill:none;stroke:red;stroke-width:1px;stroke-linecap:butt;stroke-linejoin:miter;stroke-opacity:1" d="M 385.853,191.344 375.616,190.32 z" id="boundary" inkscape:connector-curvature="0" />
	<path style="fill:none;stroke:red;stroke-width:1px;stroke-linecap:butt;stroke-linejoin:miter;stroke-opacity:1" d="M 375.616,190.32 365.379,189.296 z" id="boundary" inkscape:connector-curvature="0" />
	<path style="fill:none;stroke:red;stroke-width:1px;stroke-linecap:butt;stroke-linejoin:miter;stroke-opacity:1" d="M 365.379,189.296 355.141,188.272 z" id="boundary" inkscape:connector-curvature="0" />
	<path style="fill:none;stroke:red;stroke-width:1px;stroke-linecap:butt;stroke-linejoin:miter;stroke-opacity:1" d="M 355.141,188.272 344.904,187.249 z" id="boundary" inkscape:connector-curvature="0" />
	<path style="fill:none;stroke:red;stroke-width:1px;stroke-linecap:butt;stroke-linejoin:miter;stroke-opacity:1" d="M 344.904,187.249 334.667,185.201 z" id="boundary" inkscape:connector-curvature="0" />
	<path style="fill:none;stroke:red;stroke-width:1px;stroke-linecap:butt;stroke-linejoin:miter;stroke-opacity:1" d="M 334.667,185.201 324.429,184.178 z" id="boundary" inkscape:connector-curvature="0" />
	<path style="fill:none;stroke:red;stroke-width:1px;stroke-linecap:butt;stroke-linejoin:miter;stroke-opacity:1" d="M 324.429,184.178 314.192,183.154 z" id="boundary" inkscape:connector-curvature="0" />
	<path style="fill:none;stroke:red;stroke-width:1px;stroke-linecap:butt;stroke-linejoin:miter;stroke-opacity:1" d="M 314.192,183.154 303.955,182.13 z" id="boundary" inkscape:connector-curvature="0" />
	<path style="fill:none;stroke:red;stroke-width:1px;stroke-linecap:butt;stroke-linejoin:miter;stroke-opacity:1" d="M 303.955,182.13 293.717,181.106 z" id="boundary" inkscape:connector-curvature="0" />
	<path style="fill:none;stroke:red;stroke-width:1px;stroke-linecap:butt;stroke-linejoin:miter;stroke-opacity:1" d="M 293.717,181.106 283.48,180.083 z" id="boundary" inkscape:connector-curvature="0" />
	<path style="fill:none;stroke:red;stroke-width:1px;stroke-linecap:butt;stroke-linejoin:miter;stroke-opacity:1" d="M 283.48,180.083 273.243,178.035 z" id="boundary" inkscape:connector-curvature="0" />
	<path style="fill:none;stroke:red;stroke-width:1px;stroke-linecap:butt;stroke-linejoin:miter;stroke-opacity:1" d="M 273.243,178.035 263.005,177.011 z" id="boundary" inkscape:connector-curvature="0" />
	<path style="fill:none;stroke:red;stroke-width:1px;stroke-linecap:butt;stroke-linejoin:miter;stroke-opacity:1" d="M 263.005,177.011 252.768,175.988 z" id="boundary" inkscape:connector-curvature="0" />
	<path style="fill:none;stroke:red;stroke-width:1px;stroke-linecap:butt;stroke-linejoin:miter;stroke-opacity:1" d="M 252.768,175.988 242.53,173.94 z" id="boundary" inkscape:connector-curvature="0" />
	<path style="fill:none;stroke:red;stroke-width:1px;stroke-linecap:butt;stroke-linejoin:miter;stroke-opacity:1" d="M 242.53,173.94 232.293,172.916 z" id="boundary" inkscape:connector-curvature="0" />
	<path style="fill:none;stroke:red;stroke-width:1px;stroke-linecap:butt;stroke-linejoin:miter;stroke-opacity:1" d="M 232.293,172.916 222.056,171.893 z" id="boundary" inkscape:connector-curvature="0" />
	<path style="fill:none;stroke:red;stroke-width:1px;stroke-linecap:butt;stroke-linejoin:miter;stroke-opacity:1" d="M 222.056,171.893 211.818,169.845 z" id="boundary" inkscape:connector-curvature="0" />
	<path style="fill:none;stroke:red;stroke-width:1px;stroke-linecap:butt;stroke-linejoin:miter;stroke-opacity:1" d="M 211.818,169.845 201.581,167.798 z" id="boundary" inkscape:connector-curvature="0" />
	<path style="fill:none;stroke:red;stroke-width:1px;stroke-linecap:butt;stroke-linejoin:miter;stroke-opacity:1" d="M 201.581,167.798 191.344,166.774 z" id="boundary" inkscape:connector-curvature="0" />
	<path style="fill:none;stroke:red;stroke-width:1px;stroke-linecap:butt;stroke-linejoin:miter;stroke-opacity:1" d="M 191.344,166.774 181.106,164.727 z" id="boundary" inkscape:connector-curvature="0" />
	<path style="fill:none;stroke:red;stroke-width:1px;stroke-linecap:butt;stroke-linejoin:miter;stroke-opacity:1" d="M 181.106,164.727 170.869,163.703 z" id="boundary" inkscape:connector-curvature="0" />
	<path style="fill:none;stroke:red;stroke-width:1px;stroke-linecap:butt;stroke-linejoin:miter;stroke-opacity:1" d="M 170.869,163.703 160.632,161.655 z" id="boundary" inkscape:connector-curvature="0" />
	<path style="fill:none;stroke:red;stroke-width:1px;stroke-linecap:butt;stroke-linejoin:miter;stroke-opacity:1" d="M 160.632,161.655 150.394,159.608 z" id="boundary" inkscape:connector-curvature="0" />
	<path style="fill:none;stroke:red;stroke-width:1px;stroke-linecap:butt;stroke-linejoin:miter;stroke-opacity:1" d="M 150.394,159.608 140.157,157.56 z" id="boundary" inkscape:connector-curvature="0" />
	<path style="fill:none;stroke:red;stroke-width:1px;stroke-linecap:butt;stroke-linejoin:miter;stroke-opacity:1" d="M 140.157,157.56 129.92,156.537 z" id="boundary" inkscape:connector-curvature="0" />
	<path style="fill:none;stroke:red;stroke-width:1px;stroke-linecap:butt;stroke-linejoin:miter;stroke-opacity:1" d="M 129.92,156.537 119.682,154.489 z" id="boundary" inkscape:connector-curvature="0" />
	<path style="fill:none;stroke:red;stroke-width:1px;stroke-linecap:butt;stroke-linejoin:miter;stroke-opacity:1" d="M 119.682,154.489 109.445,152.442 z" id="boundary" inkscape:connector-curvature="0" />
	<path style="fill:none;stroke:red;stroke-width:1px;stroke-linecap:butt;stroke-linejoin:miter;stroke-opacity:1" d="M 109.445,152.442 99.2074,150.394 z" id="boundary" inkscape:connector-curvature="0" />
	<path style="fill:none;stroke:red;stroke-width:1px;stroke-linecap:butt;stroke-linejoin:miter;stroke-opacity:1" d="M 99.2074,150.394 88.9701,147.323 z" id="boundary" inkscape:connector-curvature="0" />
	<path style="fill:none;stroke:red;stroke-width:1px;stroke-linecap:butt;stroke-linejoin:miter;stroke-opacity:1" d="M 88.9701,147.323 78.7327,145.276 z" id="boundary" inkscape:connector-curvature="0" />
	<path style="fill:none;stroke:red;stroke-width:1px;stroke-linecap:butt;stroke-linejoin:miter;stroke-opacity:1" d="M 78.7327,145.276 68.4954,142.204 z" id="boundary" inkscape:connector-curvature="0" />
	<path style="fill:none;stroke:red;stroke-width:1px;stroke-linecap:butt;stroke-linejoin:miter;stroke-opacity:1" d="M 68.4954,142.204 58.258,139.133 z" id="boundary" inkscape:connector-curvature="0" />
	<path style="fill:none;stroke:red;stroke-width:1px;stroke-linecap:butt;stroke-linejoin:miter;stroke-opacity:1" d="M 58.258,139.133 48.0206,136.062 z" id="boundary" inkscape:connector-curvature="0" />
	<path style="fill:none;stroke:red;stroke-width:1px;stroke-linecap:butt;stroke-linejoin:miter;stroke-opacity:1" d="M 48.0206,136.062 37.7833,132.991 z" id="boundary" inkscape:connector-curvature="0" />
	<path style="fill:none;stroke:red;stroke-width:1px;stroke-linecap:butt;stroke-linejoin:miter;stroke-opacity:1" d="M 37.7833,132.991 27.5459,128.896 z" id="boundary" inkscape:connector-curvature="0" />
	<path style="fill:none;stroke:red;stroke-width:1px;stroke-linecap:butt;stroke-linejoin:miter;stroke-opacity:1" d="M 27.5459,128.896 17.3086,124.801 z" id="boundary" inkscape:connector-curvature="0" />
	<path style="fill:none;stroke:red;stroke-width:1px;stroke-linecap:butt;stroke-linejoin:miter;stroke-opacity:1" d="M 17.3086,124.801 7.07121,120.706 z" id="boundary" inkscape:connector-curvature="0" />
	<path style="fill:none;stroke:red;stroke-width:1px;stroke-linecap:butt;stroke-linejoin:miter;stroke-opacity:1" d="M 7.07121,120.706 4,110.469 z" id="boundary" inkscape:connector-curvature="0" />
	<path style="fill:none;stroke:red;stroke-width:1px;stroke-linecap:butt;stroke-linejoin:miter;stroke-opacity:1" d="M 4,110.469 12.1899,102.279 z" id="boundary" inkscape:connector-curvature="0" />
	<path style="fill:none;stroke:red;stroke-width:1px;stroke-linecap:butt;stroke-linejoin:miter;stroke-opacity:1" d="M 12.1899,102.279 20.3798,95.1125 z" id="boundary" inkscape:connector-curvature="0" />
	<path style="fill:none;stroke:red;stroke-width:1px;stroke-linecap:butt;stroke-linejoin:miter;stroke-opacity:1" d="M 20.3798,95.1125 28.5697,88.9701 z" id="boundary" inkscape:connector-curvature="0" />
	<path style="fill:none;stroke:red;stroke-width:1px;stroke-linecap:butt;stroke-linejoin:miter;stroke-opacity:1" d="M 28.5697,88.9701 37.7833,82.8277 z" id="boundary" inkscape:connector-curvature="0" />
	<path style="fill:none;stroke:red;stroke-width:1px;stroke-linecap:butt;stroke-linejoin:miter;stroke-opacity:1" d="M 37.7833,82.8277 48.0206,77.709 z" id="boundary" inkscape:connector-curvature="0" />
	<path style="fill:none;stroke:red;stroke-width:1px;stroke-linecap:butt;stroke-linejoin:miter;stroke-opacity:1" d="M 48.0206,77.709 58.258,73.614 z" id="boundary" inkscape:connector-curvature="0" />
	<path style="fill:none;stroke:red;stroke-width:1px;stroke-linecap:butt;stroke-linejoin:miter;stroke-opacity:1" d="M 58.258,73.614 68.4954,69.5191 z" id="boundary" inkscape:connector-curvature="0" />
	<path style="fill:none;stroke:red;stroke-width:1px;stroke-linecap:butt;stroke-linejoin:miter;stroke-opacity:1" d="M 68.4954,69.5191 78.7327,66.4479 z" id="boundary" inkscape:connector-curvature="0" />
	<path style="fill:none;stroke:red;stroke-width:1px;stroke-linecap:butt;stroke-linejoin:miter;stroke-opacity:1" d="M 78.7327,66.4479 88.9701,64.4004 z" id="boundary" inkscape:connector-curvature="0" />
	<path style="fill:none;stroke:red;stroke-width:1px;stroke-linecap:butt;stroke-linejoin:miter;stroke-opacity:1" d="M 88.9701,64.4004 99.2074,62.3529 z" id="boundary" inkscape:connector-curvature="0" />
	<path style="fill:none;stroke:red;stroke-width:1px;stroke-linecap:butt;stroke-linejoin:miter;stroke-opacity:1" d="M 99.2074,62.3529 109.445,60.3055 z" id="boundary" inkscape:connector-curvature="0" />
	<path style="fill:none;stroke:red;stroke-width:1px;stroke-linecap:butt;stroke-linejoin:miter;stroke-opacity:1" d="M 109.445,60.3055 119.682,58.258 z" id="boundary" inkscape:connector-curvature="0" />
	<path style="fill:none;stroke:red;stroke-width:1px;stroke-linecap:butt;stroke-linejoin:miter;stroke-opacity:1" d="M 119.682,58.258 129.92,56.2105 z" id="boundary" inkscape:connector-curvature="0" />
	<path style="fill:none;stroke:red;stroke-width:1px;stroke-linecap:butt;stroke-linejoin:miter;stroke-opacity:1" d="M 129.92,56.2105 140.157,55.1868 z" id="boundary" inkscape:connector-curvature="0" />
	<path style="fill:none;stroke:red;stroke-width:1px;stroke-linecap:butt;stroke-linejoin:miter;stroke-opacity:1" d="M 140.157,55.1868 150.394,53.1393 z" id="boundary" inkscape:connector-curvature="0" />
	<path style="fill:none;stroke:red;stroke-width:1px;stroke-linecap:butt;stroke-linejoin:miter;stroke-opacity:1" d="M 150.394,53.1393 160.632,52.1156 z" id="boundary" inkscape:connector-curvature="0" />
	<path style="fill:none;stroke:red;stroke-width:1px;stroke-linecap:butt;stroke-linejoin:miter;stroke-opacity:1" d="M 160.632,52.1156 170.869,50.0681 z" id="boundary" inkscape:connector-curvature="0" />
	<path style="fill:none;stroke:red;stroke-width:1px;stroke-linecap:butt;stroke-linejoin:miter;stroke-opacity:1" d="M 170.869,50.0681 181.106,49.0444 z" id="boundary" inkscape:connector-curvature="0" />
	<path style="fill:none;stroke:red;stroke-width:1px;stroke-linecap:butt;stroke-linejoin:miter;stroke-opacity:1" d="M 181.106,49.0444 191.344,48.0206 z" id="boundary" inkscape:connector-curvature="0" />
	<path style="fill:none;stroke:red;stroke-width:1px;stroke-linecap:butt;stroke-linejoin:miter;stroke-opacity:1" d="M 191.344,48.0206 201.581,46.9969 z" id="boundary" inkscape:connector-curvature="0" />
	<path style="fill:none;stroke:red;stroke-width:1px;stroke-linecap:butt;stroke-linejoin:miter;stroke-opacity:1" d="M 201.581,46.9969 211.818,45.9732 z" id="boundary" inkscape:connector-curvature="0" />
	<path style="fill:none;stroke:red;stroke-width:1px;stroke-linecap:butt;stroke-linejoin:miter;stroke-opacity:1" d="M 211.818,45.9732 222.056,43.9257 z" id="boundary" inkscape:connector-curvature="0" />
	<path style="fill:none;stroke:red;stroke-width:1px;stroke-linecap:butt;stroke-linejoin:miter;stroke-opacity:1" d="M 222.056,43.9257 232.293,42.902 z" id="boundary" inkscape:connector-curvature="0" />
	<path style="fill:none;stroke:red;stroke-width:1px;stroke-linecap:butt;stroke-linejoin:miter;stroke-opacity:1" d="M 232.293,42.902 242.53,41.8782 z" id="boundary" inkscape:connector-curvature="0" />
	<path style="fill:none;stroke:red;stroke-width:1px;stroke-linecap:butt;stroke-linejoin:miter;stroke-opacity:1" d="M 242.53,41.8782 252.768,40.8545 z" id="boundary" inkscape:connector-curvature="0" />
	<path style="fill:none;stroke:red;stroke-width:1px;stroke-linecap:butt;stroke-linejoin:miter;stroke-opacity:1" d="M 252.768,40.8545 263.005,39.8308 z" id="boundary" inkscape:connector-curvature="0" />
	<path style="fill:none;stroke:red;stroke-width:1px;stroke-linecap:butt;stroke-linejoin:miter;stroke-opacity:1" d="M 263.005,39.8308 273.243,38.807 z" id="boundary" inkscape:connector-curvature="0" />
	<path style="fill:none;stroke:red;stroke-width:1px;stroke-linecap:butt;stroke-linejoin:miter;stroke-opacity:1" d="M 273.243,38.807 283.48,37.7833 z" id="boundary" inkscape:connector-curvature="0" />
	<path style="fill:none;stroke:red;stroke-width:1px;stroke-linecap:butt;stroke-linejoin:miter;stroke-opacity:1" d="M 283.48,37.7833 293.717,37.7833 z" id="boundary" inkscape:connector-curvature="0" />
	<path style="fill:none;stroke:red;stroke-width:1px;stroke-linecap:butt;stroke-linejoin:miter;stroke-opacity:1" d="M 293.717,37.7833 303.955,36.7595 z" id="boundary" inkscape:connector-curvature="0" />
	<path style="fill:none;stroke:red;stroke-width:1px;stroke-linecap:butt;stroke-linejoin:miter;stroke-opacity:1" d="M 303.955,36.7595 314.192,35.7358 z" id="boundary" inkscape:connector-curvature="0" />
	<path style="fill:none;stroke:red;stroke-width:1px;stroke-linecap:butt;stroke-linejoin:miter;stroke-opacity:1" d="M 314.192,35.7358 324.429,34.7121 z" id="boundary" inkscape:connector-curvature="0" />
	<path style="fill:none;stroke:red;stroke-width:1px;stroke-linecap:butt;stroke-linejoin:miter;stroke-opacity:1" d="M 324.429,34.7121 334.667,33.6883 z" id="boundary" inkscape:connector-curvature="0" />
	<path style="fill:none;stroke:red;stroke-width:1px;stroke-linecap:butt;stroke-linejoin:miter;stroke-opacity:1" d="M 334.667,33.6883 344.904,32.6646 z" id="boundary" inkscape:connector-curvature="0" />
	<path style="fill:none;stroke:red;stroke-width:1px;stroke-linecap:butt;stroke-linejoin:miter;stroke-opacity:1" d="M 344.904,32.6646 355.141,32.6646 z" id="boundary" inkscape:connector-curvature="0" />
	<path style="fill:none;stroke:red;stroke-width:1px;stroke-linecap:butt;stroke-linejoin:miter;stroke-opacity:1" d="M 355.141,32.6646 365.379,31.6409 z" id="boundary" inkscape:connector-curvature="0" />
	<path style="fill:none;stroke:red;stroke-width:1px;stroke-linecap:butt;stroke-linejoin:miter;stroke-opacity:1" d="M 365.379,31.6409 375.616,30.6171 z" id="boundary" inkscape:connector-curvature="0" />
	<path style="fill:none;stroke:red;stroke-width:1px;stroke-linecap:butt;stroke-linejoin:miter;stroke-opacity:1" d="M 375.616,30.6171 385.853,29.5934 z" id="boundary" inkscape:connector-curvature="0" />
	<path style="fill:none;stroke:red;stroke-width:1px;stroke-linecap:butt;stroke-linejoin:miter;stroke-opacity:1" d="M 385.853,29.5934 396.091,29.5934 z" id="boundary" inkscape:connector-curvature="0" />
	<path style="fill:none;stroke:red;stroke-width:1px;stroke-linecap:butt;stroke-linejoin:miter;stroke-opacity:1" d="M 396.091,29.5934 406.328,28.5697 z" id="boundary" inkscape:connector-curvature="0" />
	<path style="fill:none;stroke:red;stroke-width:1px;stroke-linecap:butt;stroke-linejoin:miter;stroke-opacity:1" d="M 406.328,28.5697 416.566,27.5459 z" id="boundary" inkscape:connector-curvature="0" />
	<path style="fill:none;stroke:red;stroke-width:1px;stroke-linecap:butt;stroke-linejoin:miter;stroke-opacity:1" d="M 416.566,27.5459 426.803,27.5459 z" id="boundary" inkscape:connector-curvature="0" />
	<path style="fill:none;stroke:red;stroke-width:1px;stroke-linecap:butt;stroke-linejoin:miter;stroke-opacity:1" d="M 426.803,27.5459 437.04,26.5222 z" id="boundary" inkscape:connector-curvature="0" />
	<path style="fill:none;stroke:red;stroke-width:1px;stroke-linecap:butt;stroke-linejoin:miter;stroke-opacity:1" d="M 437.04,26.5222 447.278,25.4985 z" id="boundary" inkscape:connector-curvature="0" />
	<path style="fill:none;stroke:red;stroke-width:1px;stroke-linecap:butt;stroke-linejoin:miter;stroke-opacity:1" d="M 447.278,25.4985 457.515,25.4985 z" id="boundary" inkscape:connector-curvature="0" />
	<path style="fill:none;stroke:red;stroke-width:1px;stroke-linecap:butt;stroke-linejoin:miter;stroke-opacity:1" d="M 457.515,25.4985 467.752,24.4747 z" id="boundary" inkscape:connector-curvature="0" />
	<path style="fill:none;stroke:red;stroke-width:1px;stroke-linecap:butt;stroke-linejoin:miter;stroke-opacity:1" d="M 467.752,24.4747 477.99,23.451 z" id="boundary" inkscape:connector-curvature="0" />
	<path style="fill:none;stroke:red;stroke-width:1px;stroke-linecap:butt;stroke-linejoin:miter;stroke-opacity:1" d="M 477.99,23.451 488.227,23.451 z" id="boundary" inkscape:connector-curvature="0" />
	<path style="fill:none;stroke:red;stroke-width:1px;stroke-linecap:butt;stroke-linejoin:miter;stroke-opacity:1" d="M 488.227,23.451 498.464,22.4272 z" id="boundary" inkscape:connector-curvature="0" />
	<path style="fill:none;stroke:red;stroke-width:1px;stroke-linecap:butt;stroke-linejoin:miter;stroke-opacity:1" d="M 498.464,22.4272 508.702,21.4035 z" id="boundary" inkscape:connector-curvature="0" />
	<path style="fill:none;stroke:red;stroke-width:1px;stroke-linecap:butt;stroke-linejoin:miter;stroke-opacity:1" d="M 508.702,21.4035 518.939,20.3798 z" id="boundary" inkscape:connector-curvature="0" />
	<path style="fill:none;stroke:red;stroke-width:1px;stroke-linecap:butt;stroke-linejoin:miter;stroke-opacity:1" d="M 518.939,20.3798 529.176,20.3798 z" id="boundary" inkscape:connector-curvature="0" />
	<path style="fill:none;stroke:red;stroke-width:1px;stroke-linecap:butt;stroke-linejoin:miter;stroke-opacity:1" d="M 529.176,20.3798 539.414,19.356 z" id="boundary" inkscape:connector-curvature="0" />
	<path style="fill:none;stroke:red;stroke-width:1px;stroke-linecap:butt;stroke-linejoin:miter;stroke-opacity:1" d="M 539.414,19.356 549.651,17.3086 z" id="boundary" inkscape:connector-curvature="0" />
	<path style="fill:none;stroke:red;stroke-width:1px;stroke-linecap:butt;stroke-linejoin:miter;stroke-opacity:1" d="M 549.651,17.3086 559.889,13.2136 z" id="boundary" inkscape:connector-curvature="0" />
	<path style="fill:none;stroke:red;stroke-width:1px;stroke-linecap:butt;stroke-linejoin:miter;stroke-opacity:1" d="M 559.889,13.2136 570.126,10.1424 z" id="boundary" inkscape:connector-curvature="0" />
	<path style="fill:none;stroke:red;stroke-width:1px;stroke-linecap:butt;stroke-linejoin:miter;stroke-opacity:1" d="M 570.126,10.1424 580.363,11.1662 z" id="boundary" inkscape:connector-curvature="0" />
	<path style="fill:none;stroke:red;stroke-width:1px;stroke-linecap:butt;stroke-linejoin:miter;stroke-opacity:1" d="M 580.363,11.1662 590.601,11.1662 z" id="boundary" inkscape:connector-curvature="0" />
	<path style="fill:none;stroke:red;stroke-width:1px;stroke-linecap:butt;stroke-linejoin:miter;stroke-opacity:1" d="M 590.601,11.1662 600.838,11.1662 z" id="boundary" inkscape:connector-curvature="0" />
	<path style="fill:none;stroke:red;stroke-width:1px;stroke-linecap:butt;stroke-linejoin:miter;stroke-opacity:1" d="M 600.838,11.1662 611.075,11.1662 z" id="boundary" inkscape:connector-curvature="0" />
	<path style="fill:none;stroke:red;stroke-width:1px;stroke-linecap:butt;stroke-linejoin:miter;stroke-opacity:1" d="M 611.075,11.1662 621.313,11.1662 z" id="boundary" inkscape:connector-curvature="0" />
	<path style="fill:none;stroke:red;stroke-width:1px;stroke-linecap:butt;stroke-linejoin:miter;stroke-opacity:1" d="M 621.313,11.1662 631.55,11.1662 z" id="boundary" inkscape:connector-curvature="0" />
	<path style="fill:none;stroke:red;stroke-width:1px;stroke-linecap:butt;stroke-linejoin:miter;stroke-opacity:1" d="M 631.55,11.1662 641.787,11.1662 z" id="boundary" inkscape:connector-curvature="0" />
	<path style="fill:none;stroke:red;stroke-width:1px;stroke-linecap:butt;stroke-linejoin:miter;stroke-opacity:1" d="M 641.787,11.1662 652.025,10.1424 z" id="boundary" inkscape:connector-curvature="0" />
	<path style="fill:none;stroke:red;stroke-width:1px;stroke-linecap:butt;stroke-linejoin:miter;stroke-opacity:1" d="M 652.025,10.1424 662.262,10.1424 z" id="boundary" inkscape:connector-curvature="0" />
	<path style="fill:none;stroke:red;stroke-width:1px;stroke-linecap:butt;stroke-linejoin:miter;stroke-opacity:1" d="M 662.262,10.1424 672.499,9.11868 z" id="boundary" inkscape:connector-curvature="0" />
	<path style="fill:none;stroke:red;stroke-width:1px;stroke-linecap:butt;stroke-linejoin:miter;stroke-opacity:1" d="M 672.499,9.11868 682.737,8.09494 z" id="boundary" inkscape:connector-curvature="0" />
	<path style="fill:none;stroke:red;stroke-width:1px;stroke-linecap:butt;stroke-linejoin:miter;stroke-opacity:1" d="M 682.737,8.09494 692.974,8.09494 z" id="boundary" inkscape:connector-curvature="0" />
	<path style="fill:none;stroke:red;stroke-width:1px;stroke-linecap:butt;stroke-linejoin:miter;stroke-opacity:1" d="M 692.974,8.09494 703.212,7.07121 z" id="boundary" inkscape:connector-curvature="0" />
	<path style="fill:none;stroke:red;stroke-width:1px;stroke-linecap:butt;stroke-linejoin:miter;stroke-opacity:1" d="M 703.212,7.07121 713.449,6.04747 z" id="boundary" inkscape:connector-curvature="0" />
	<path style="fill:none;stroke:red;stroke-width:1px;stroke-linecap:butt;stroke-linejoin:miter;stroke-opacity:1" d="M 713.449,6.04747 723.686,6.04747 z" id="boundary" inkscape:connector-curvature="0" />
	<path style="fill:none;stroke:red;stroke-width:1px;stroke-linecap:butt;stroke-linejoin:miter;stroke-opacity:1" d="M 723.686,6.04747 733.924,6.04747 z" id="boundary" inkscape:connector-curvature="0" />
	<path style="fill:none;stroke:red;stroke-width:1px;stroke-linecap:butt;stroke-linejoin:miter;stroke-opacity:1" d="M 733.924,6.04747 744.161,5.02374 z" id="boundary" inkscape:connector-curvature="0" />
	<path style="fill:none;stroke:red;stroke-width:1px;stroke-linecap:butt;stroke-linejoin:miter;stroke-opacity:1" d="M 744.161,5.02374 754.398,5.02374 z" id="boundary" inkscape:connector-curvature="0" />
	<path style="fill:none;stroke:red;stroke-width:1px;stroke-linecap:butt;stroke-linejoin:miter;stroke-opacity:1" d="M 754.398,5.02374 764.636,5.02374 z" id="boundary" inkscape:connector-curvature="0" />
	<path style="fill:none;stroke:red;stroke-width:1px;stroke-linecap:butt;stroke-linejoin:miter;stroke-opacity:1" d="M 764.636,5.02374 774.873,4 z" id="boundary" inkscape:connector-curvature="0" />
	<path style="fill:none;stroke:red;stroke-width:1px;stroke-linecap:butt;stroke-linejoin:miter;stroke-opacity:1" d="M 774.873,4 785.11,4 z" id="boundary" inkscape:connector-curvature="0" />
	<path style="fill:none;stroke:red;stroke-width:1px;stroke-linecap:butt;stroke-linejoin:miter;stroke-opacity:1" d="M 785.11,4 795.348,5.02374 z" id="boundary" inkscape:connector-curvature="0" />
	<path style="fill:none;stroke:red;stroke-width:1px;stroke-linecap:butt;stroke-linejoin:miter;stroke-opacity:1" d="M 795.348,5.02374 805.585,5.02374 z" id="boundary" inkscape:connector-curvature="0" />
	<path style="fill:none;stroke:red;stroke-width:1px;stroke-linecap:butt;stroke-linejoin:miter;stroke-opacity:1" d="M 805.585,5.02374 815.822,6.04747 z" id="boundary" inkscape:connector-curvature="0" />
	<path style="fill:none;stroke:red;stroke-width:1px;stroke-linecap:butt;stroke-linejoin:miter;stroke-opacity:1" d="M 815.822,6.04747 826.06,6.04747 z" id="boundary" inkscape:connector-curvature="0" />
	<path style="fill:none;stroke:red;stroke-width:1px;stroke-linecap:butt;stroke-linejoin:miter;stroke-opacity:1" d="M 826.06,6.04747 836.297,7.07121 z" id="boundary" inkscape:connector-curvature="0" />
	<path style="fill:none;stroke:red;stroke-width:1px;stroke-linecap:butt;stroke-linejoin:miter;stroke-opacity:1" d="M 836.297,7.07121 846.535,8.09494 z" id="boundary" inkscape:connector-curvature="0" />
	<path style="fill:none;stroke:red;stroke-width:1px;stroke-linecap:butt;stroke-linejoin:miter;stroke-opacity:1" d="M 846.535,8.09494 856.772,8.09494 z" id="boundary" inkscape:connector-curvature="0" />
	<path style="fill:none;stroke:red;stroke-width:1px;stroke-linecap:butt;stroke-linejoin:miter;stroke-opacity:1" d="M 856.772,8.09494 867.009,9.11868 z" id="boundary" inkscape:connector-curvature="0" />
	<path style="fill:none;stroke:red;stroke-width:1px;stroke-linecap:butt;stroke-linejoin:miter;stroke-opacity:1" d="M 867.009,9.11868 877.247,10.1424 z" id="boundary" inkscape:connector-curvature="0" />
	<path style="fill:none;stroke:red;stroke-width:1px;stroke-linecap:butt;stroke-linejoin:miter;stroke-opacity:1" d="M 877.247,10.1424 887.484,11.1662 z" id="boundary" inkscape:connector-curvature="0" />
	<path style="fill:none;stroke:red;stroke-width:1px;stroke-linecap:butt;stroke-linejoin:miter;stroke-opacity:1" d="M 887.484,11.1662 897.721,13.2136 z" id="boundary" inkscape:connector-curvature="0" />
	<path style="fill:none;stroke:red;stroke-width:1px;stroke-linecap:butt;stroke-linejoin:miter;stroke-opacity:1" d="M 897.721,13.2136 907.959,14.2374 z" id="boundary" inkscape:connector-curvature="0" />
	<path style="fill:none;stroke:red;stroke-width:1px;stroke-linecap:butt;stroke-linejoin:miter;stroke-opacity:1" d="M 907.959,14.2374 918.196,16.2848 z" id="boundary" inkscape:connector-curvature="0" />
	<path style="fill:none;stroke:red;stroke-width:1px;stroke-linecap:butt;stroke-linejoin:miter;stroke-opacity:1" d="M 918.196,16.2848 928.433,18.3323 z" id="boundary" inkscape:connector-curvature="0" />
	<path style="fill:none;stroke:red;stroke-width:1px;stroke-linecap:butt;stroke-linejoin:miter;stroke-opacity:1" d="M 928.433,18.3323 938.671,20.3798 z" id="boundary" inkscape:connector-curvature="0" />
	<path style="fill:none;stroke:red;stroke-width:1px;stroke-linecap:butt;stroke-linejoin:miter;stroke-opacity:1" d="M 938.671,20.3798 948.908,22.4272 z" id="boundary" inkscape:connector-curvature="0" />
	<path style="fill:none;stroke:red;stroke-width:1px;stroke-linecap:butt;stroke-linejoin:miter;stroke-opacity:1" d="M 948.908,22.4272 959.146,25.4985 z" id="boundary" inkscape:connector-curvature="0" />
	<path style="fill:none;stroke:red;stroke-width:1px;stroke-linecap:butt;stroke-linejoin:miter;stroke-opacity:1" d="M 959.146,25.4985 969.383,28.5697 z" id="boundary" inkscape:connector-curvature="0" />
	<path style="fill:none;stroke:red;stroke-width:1px;stroke-linecap:butt;stroke-linejoin:miter;stroke-opacity:1" d="M 969.383,28.5697 979.62,31.6409 z" id="boundary" inkscape:connector-curvature="0" />
	<path style="fill:none;stroke:red;stroke-width:1px;stroke-linecap:butt;stroke-linejoin:miter;stroke-opacity:1" d="M 979.62,31.6409 988.834,36.7595 z" id="boundary" inkscape:connector-curvature="0" />
	<circle cx="4" cy="110.469" r="4" fill="#0" id="circle0"/>
	<circle cx="7.07121" cy="120.706" r="4" fill="#0" id="circle1"/>
	<circle cx="12.1899" cy="102.279" r="4" fill="#0" id="circle2"/>
	<circle cx="17.3086" cy="124.801" r="4" fill="#0" id="circle3"/>
	<circle cx="20.3798" cy="95.1125" r="4" fill="#0" id="circle4"/>
	<circle cx="27.5459" cy="128.896" r="4" fill="#0" id="circle5"/>
	<circle cx="28.5697" cy="88.9701" r="4" fill="#0" id="circle6"/>
	<circle cx="37.7833" cy="82.8277" r="4" fill="#0" id="circle7"/>
	<circle cx="37.7833" cy="132.991" r="4" fill="#0" id="circle8"/>
	<circle cx="48.0206" cy="77.709" r="4" fill="#0" id="circle9"/>
	<circle cx="48.0206" cy="136.062" r="4" fill="#0" id="circle10"/>
	<circle cx="58.258" cy="73.614" r="4" fill="#0" id="circle11"/>
	<circle cx="58.258" cy="139.133" r="4" fill="#0" id="circle12"/>
	<circle cx="68.4954" cy="69.5191" r="4" fill="#0" id="circle13"/>
	<circle cx="68.4954" cy="142.204" r="4" fill="#0" id="circle14"/>
	<circle cx="78.7327" cy="66.4479" r="4" fill="#0" id="circle15"/>
	<circle cx="78.7327" cy="145.276" r="4" fill="#0" id="circle16"/>
	<circle cx="88.9701" cy="64.4004" r="4" fill="#0" id="circle17"/>
	<circle cx="88.9701" cy="147.323" r="4" fill="#0" id="circle18"/>
	<circle cx="99.2074" cy="62.3529" r="4" fill="#0" id="circle19"/>
	<circle cx="99.2074" cy="150.394" r="4" fill="#0" id="circle20"/>
	<circle cx="109.445" cy="60.3055" r="4" fill="#0" id="circle21"/>
	<circle cx="109.445" cy="152.442" r="4" fill="#0" id="circle22"/>
	<circle cx="119.682" cy="58.258" r="4" fill="#0" id="circle23"/>
	<circle cx="119.682" cy="154.489" r="4" fill="#0" id="circle24"/>
	<circle cx="129.92" cy="56.2105" r="4" fill="#0" id="circle25"/>
	<circle cx="129.92" cy="156.537" r="4" fill="#0" id="circle26"/>
	<circle cx="140.157" cy="55.1868" r="4" fill="#0" id="circle27"/>
	<circle cx="140.157" cy="157.56" r="4" fill="#0" id="circle28"/>
	<circle cx="150.394" cy="53.1393" r="4" fill="#0" id="circle29"/>
	<circle cx="150.394" cy="159.608" r="4" fill="#0" id="circle30"/>
	<circle cx="160.632" cy="52.1156" r="4" fill="#0" id="circle31"/>
	<circle cx="160.632" cy="161.655" r="4" fill="#0" id="circle32"/>
	<circle cx="170.869" cy="50.0681" r="4" fill="#0" id="circle33"/>
	<circle cx="170.869" cy="163.703" r="4" fill="#0" id="circle34"/>
	<circle cx="181.106" cy="49.0444" r="4" fill="#0" id="circle35"/>
	<circle cx="181.106" cy="164.727" r="4" fill="#0" id="circle36"/>
	<circle cx="191.344" cy="48.0206" r="4" fill="#0" id="circle37"/>
	<circle cx="191.344" cy="166.774" r="4" fill="#0" id="circle38"/>
	<circle cx="201.581" cy="46.9969" r="4" fill="#0" id="circle39"/>
	<circle cx="201.581" cy="167.798" r="4" fill="#0" id="circle40"/>
	<circle cx="211.818" cy="45.9732" r="4" fill="#0" id="circle41"/>
	<circle cx="211.818" cy="169.845" r="4" fill="#0" id="circle42"/>
	<circle cx="222.056" cy="43.9257" r="4" fill="#0" id="circle43"/>
	<circle cx="222.056" cy="171.893" r="4" fill="#0" id="circle44"/>
	<circle cx="232.293" cy="42.902" r="4" fill="#0" id="circle45"/>
	<circle cx="232.293" cy="172.916" r="4" fill="#0" id="circle46"/>
	<circle cx="242.53" cy="41.8782" r="4" fill="#0" id="circle47"/>
	<circle cx="242.53" cy="173.94" r="4" fill="#0" id="circle48"/>
	<circle cx="252.768" cy="40.8545" r="4" fill="#0" id="circle49"/>
	<circle cx="252.768" cy="175.988" r="4" fill="#0" id="circle50"/>
	<circle cx="263.005" cy="39.8308" r="4" fill="#0" id="circle51"/>
	<circle cx="263.005" cy="177.011" r="4" fill="#0" id="circle52"/>
	<circle cx="273.243" cy="38.807" r="4" fill="#0" id="circle53"/>
	<circle cx="273.243" cy="178.035" r="4" fill="#0" id="circle54"/>
	<circle cx="283.48" cy="37.7833" r="4" fill="#0" id="circle55"/>
	<circle cx="283.48" cy="180.083" r="4" fill="#0" id="circle56"/>
	<circle cx="293.717" cy="37.7833" r="4" fill="#0" id="circle57"/>
	<circle cx="293.717" cy="181.106" r="4" fill="#0" id="circle58"/>
	<circle cx="303.955" cy="36.7595" r="4" fill="#0" id="circle59"/>
	<circle cx="303.955" cy="182.13" r="4" fill="#0" id="circle60"/>
	<circle cx="314.192" cy="35.7358" r="4" fill="#0" id="circle61"/>
	<circle cx="314.192" cy="183.154" r="4" fill="#0" id="circle62"/>
	<circle cx="324.429" cy="34.7121" r="4" fill="#0" id="circle63"/>
	<circle cx="324.429" cy="184.178" r="4" fill="#0" id="circle64"/>
	<circle cx="334.667" cy="33.6883" r="4" fill="#0" id="circle65"/>
	<circle cx="334.667" cy="185.201" r="4" fill="#0" id="circle66"/>
	<circle cx="344.904" cy="32.6646" r="4" fill="#0" id="circle67"/>
	<circle cx="344.904" cy="187.249" r="4" fill="#0" id="circle68"/>
	<circle cx="355.141" cy="32.6646" r="4" fill="#0" id="circle69"/>
	<circle cx="355.141" cy="188.272" r="4" fill="#0" id="circle70"/>
	<circle cx="365.379" cy="31.6409" r="4" fill="#0" id="circle71"/>
	<circle cx="365.379" cy="189.296" r="4" fill="#0" id="circle72"/>
	<circle cx="375.616" cy="30.6171" r="4" fill="#0" id="circle73"/>
	<circle cx="375.616" cy="190.32" r="4" fill="#0" id="circle74"/>
	<circle cx="385.853" cy="29.5934" r="4" fill="#0" id="circle75"/>
	<circle cx="385.853" cy="191.344" r="4" fill="#0" id="circle76"/>
	<circle cx="396.091" cy="29.5934" r="4" fill="#0" id="circle77"/>
	<circle cx="396.091" cy="192.367" r="4" fill="#0" id="circle78"/>
	<circle cx="406.328" cy="28.5697" r="4" fill="#0" id="circle79"/>
	<circle cx="406.328" cy="192.367" r="4" fill="#0" id="circle80"/>
	<circle cx="416.566" cy="27.5459" r="4" fill="#0" id="circle81"/>
	<circle cx="416.566" cy="193.391" r="4" fill="#0" id="circle82"/>
	<circle cx="426.803" cy="27.5459" r="4" fill="#0" id="circle83"/>
	<circle cx="426.803" cy="194.415" r="4" fill="#0" id="circle84"/>
	<circle cx="437.04" cy="26.5222" r="4" fill="#0" id="circle85"/>
	<circle cx="437.04" cy="195.439" r="4" fill="#0" id="circle86"/>
	<circle cx="447.278" cy="25.4985" r="4" fill="#0" id="circle87"/>
	<circle cx="447.278" cy="195.439" r="4" fill="#0" id="circle88"/>
	<circle cx="457.515" cy="25.4985" r="4" fill="#0" id="circle89"/>
	<circle cx="457.515" cy="196.462" r="4" fill="#0" id="circle90"/>
	<circle cx="467.752" cy="24.4747" r="4" fill="#0" id="circle91"/>
	<circle cx="467.752" cy="196.462" r="4" fill="#0" id="circle92"/>
	<circle cx="477.99" cy="23.451" r="4" fill="#0" id="circle93"/>
	<circle cx="477.99" cy="197.486" r="4" fill="#0" id="circle94"/>
	<circle cx="488.227" cy="23.451" r="4" fill="#0" id="circle95"/>
	<circle cx="488.227" cy="197.486" r="4" fill="#0" id="circle96"/>
	<circle cx="498.464" cy="22.4272" r="4" fill="#0" id="circle97"/>
	<circle cx="498.464" cy="197.486" r="4" fill="#0" id="circle98"/>
	<circle cx="508.702" cy="21.4035" r="4" fill="#0" id="circle99"/>
	<circle cx="508.702" cy="197.486" r="4" fill="#0" id="circle100"/>
	<circle cx="518.939" cy="20.3798" r="4" fill="#0" id="circle101"/>
	<circle cx="518.939" cy="197.486" r="4" fill="#0" id="circle102"/>
	<circle cx="529.176" cy="20.3798" r="4" fill="#0" id="circle103"/>
	<circle cx="529.176" cy="197.486" r="4" fill="#0" id="circle104"/>
	<circle cx="539.414" cy="19.356" r="4" fill="#0" id="circle105"/>
	<circle cx="539.414" cy="196.462" r="4" fill="#0" id="circle106"/>
	<circle cx="547.604" cy="189.296" r="4" fill="#0" id="circle107"/>
	<circle cx="549.651" cy="17.3086" r="4" fill="#0" id="circle108"/>
	<circle cx="551.699" cy="175.988" r="4" fill="#0" id="circle109"/>
	<circle cx="554.77" cy="165.75" r="4" fill="#0" id="circle110"/>
	<circle cx="558.865" cy="154.489" r="4" fill="#0" id="circle111"/>
	<circle cx="559.889" cy="13.2136" r="4" fill="#0" id="circle112"/>
	<circle cx="563.983" cy="144.252" r="4" fill="#0" id="circle113"/>
	<circle cx="569.102" cy="135.038" r="4" fill="#0" id="circle114"/>
	<circle cx="570.126" cy="10.1424" r="4" fill="#0" id="circle115"/>
	<circle cx="575.245" cy="125.825" r="4" fill="#0" id="circle116"/>
	<circle cx="580.363" cy="11.1662" r="4" fill="#0" id="circle117"/>
	<circle cx="582.411" cy="117.635" r="4" fill="#0" id="circle118"/>
	<circle cx="590.601" cy="11.1662" r="4" fill="#0" id="circle119"/>
	<circle cx="592.648" cy="113.54" r="4" fill="#0" id="circle120"/>
	<circle cx="600.838" cy="11.1662" r="4" fill="#0" id="circle121"/>
	<circle cx="602.885" cy="110.469" r="4" fill="#0" id="circle122"/>
	<circle cx="611.075" cy="11.1662" r="4" fill="#0" id="circle123"/>
	<circle cx="611.075" cy="104.326" r="4" fill="#0" id="circle124"/>
	<circle cx="619.265" cy="97.16" r="4" fill="#0" id="circle125"/>
	<circle cx="621.313" cy="11.1662" r="4" fill="#0" id="circle126"/>
	<circle cx="628.479" cy="91.0175" r="4" fill="#0" id="circle127"/>
	<circle cx="631.55" cy="11.1662" r="4" fill="#0" id="circle128"/>
	<circle cx="638.716" cy="85.8989" r="4" fill="#0" id="circle129"/>
	<circle cx="641.787" cy="11.1662" r="4" fill="#0" id="circle130"/>
	<circle cx="648.954" cy="82.8277" r="4" fill="#0" id="circle131"/>
	<circle cx="652.025" cy="10.1424" r="4" fill="#0" id="circle132"/>
	<circle cx="659.191" cy="78.7327" r="4" fill="#0" id="circle133"/>
	<circle cx="662.262" cy="10.1424" r="4" fill="#0" id="circle134"/>
	<circle cx="669.428" cy="76.6852" r="4" fill="#0" id="circle135"/>
	<circle cx="672.499" cy="9.11868" r="4" fill="#0" id="circle136"/>
	<circle cx="679.666" cy="74.6378" r="4" fill="#0" id="circle137"/>
	<circle cx="682.737" cy="8.09494" r="4" fill="#0" id="circle138"/>
	<circle cx="689.903" cy="74.6378" r="4" fill="#0" id="circle139"/>
	<circle cx="692.974" cy="8.09494" r="4" fill="#0" id="circle140"/>
	<circle cx="700.14" cy="74.6378" r="4" fill="#0" id="circle141"/>
	<circle cx="703.212" cy="7.07121" r="4" fill="#0" id="circle142"/>
	<circle cx="710.378" cy="75.6615" r="4" fill="#0" id="circle143"/>
	<circle cx="713.449" cy="6.04747" r="4" fill="#0" id="circle144"/>
	<circle cx="720.615" cy="75.6615" r="4" fill="#0" id="circle145"/>
	<circle cx="723.686" cy="6.04747" r="4" fill="#0" id="circle146"/>
	<circle cx="730.852" cy="77.709" r="4" fill="#0" id="circle147"/>
	<circle cx="733.924" cy="6.04747" r="4" fill="#0" id="circle148"/>
	<circle cx="741.09" cy="79.7564" r="4" fill="#0" id="circle149"/>
	<circle cx="744.161" cy="5.02374" r="4" fill="#0" id="circle150"/>
	<circle cx="751.327" cy="80.7802" r="4" fill="#0" id="circle151"/>
	<circle cx="754.398" cy="5.02374" r="4" fill="#0" id="circle152"/>
	<circle cx="761.564" cy="82.8277" r="4" fill="#0" id="circle153"/>
	<circle cx="764.636" cy="5.02374" r="4" fill="#0" id="circle154"/>
	<circle cx="771.802" cy="83.8514" r="4" fill="#0" id="circle155"/>
	<circle cx="774.873" cy="4" r="4" fill="#0" id="circle156"/>
	<circle cx="782.039" cy="84.8751" r="4" fill="#0" id="circle157"/>
	<circle cx="785.11" cy="4" r="4" fill="#0" id="circle158"/>
	<circle cx="792.277" cy="85.8989" r="4" fill="#0" id="circle159"/>
	<circle cx="795.348" cy="5.02374" r="4" fill="#0" id="circle160"/>
	<circle cx="802.514" cy="85.8989" r="4" fill="#0" id="circle161"/>
	<circle cx="805.585" cy="5.02374" r="4" fill="#0" id="circle162"/>
	<circle cx="812.751" cy="85.8989" r="4" fill="#0" id="circle163"/>
	<circle cx="815.822" cy="6.04747" r="4" fill="#0" id="circle164"/>
	<circle cx="822.989" cy="85.8989" r="4" fill="#0" id="circle165"/>
	<circle cx="826.06" cy="6.04747" r="4" fill="#0" id="circle166"/>
	<circle cx="833.226" cy="86.9226" r="4" fill="#0" id="circle167"/>
	<circle cx="836.297" cy="7.07121" r="4" fill="#0" id="circle168"/>
	<circle cx="843.463" cy="86.9226" r="4" fill="#0" id="circle169"/>
	<circle cx="846.535" cy="8.09494" r="4" fill="#0" id="circle170"/>
	<circle cx="853.701" cy="86.9226" r="4" fill="#0" id="circle171"/>
	<circle cx="856.772" cy="8.09494" r="4" fill="#0" id="circle172"/>
	<circle cx="863.938" cy="86.9226" r="4" fill="#0" id="circle173"/>
	<circle cx="867.009" cy="9.11868" r="4" fill="#0" id="circle174"/>
	<circle cx="874.175" cy="86.9226" r="4" fill="#0" id="circle175"/>
	<circle cx="877.247" cy="10.1424" r="4" fill="#0" id="circle176"/>
	<circle cx="884.413" cy="86.9226" r="4" fill="#0" id="circle177"/>
	<circle cx="887.484" cy="11.1662" r="4" fill="#0" id="circle178"/>
	<circle cx="894.65" cy="86.9226" r="4" fill="#0" id="circle179"/>
	<circle cx="897.721" cy="13.2136" r="4" fill="#0" id="circle180"/>
	<circle cx="904.888" cy="85.8989" r="4" fill="#0" id="circle181"/>
	<circle cx="907.959" cy="14.2374" r="4" fill="#0" id="circle182"/>
	<circle cx="915.125" cy="84.8751" r="4" fill="#0" id="circle183"/>
	<circle cx="918.196" cy="16.2848" r="4" fill="#0" id="circle184"/>
	<circle cx="925.362" cy="82.8277" r="4" fill="#0" id="circle185"/>
	<circle cx="928.433" cy="18.3323" r="4" fill="#0" id="circle186"/>
	<circle cx="935.6" cy="79.7564" r="4" fill="#0" id="circle187"/>
	<circle cx="938.671" cy="20.3798" r="4" fill="#0" id="circle188"/>
	<circle cx="945.837" cy="77.709" r="4" fill="#0" id="circle189"/>
	<circle cx="948.908" cy="22.4272" r="4" fill="#0" id="circle190"/>
	<circle cx="956.074" cy="74.6378" r="4" fill="#0" id="circle191"/>
	<circle cx="959.146" cy="25.4985" r="4" fill="#0" id="circle192"/>
	<circle cx="966.312" cy="72.5903" r="4" fill="#0" id="circle193"/>
	<circle cx="969.383" cy="28.5697" r="4" fill="#0" id="circle194"/>
	<circle cx="976.549" cy="68.4954" r="4" fill="#0" id="circle195"/>
	<circle cx="979.62" cy="31.6409" r="4" fill="#0" id="circle196"/>
	<circle cx="986.786" cy="63.3767" r="4" fill="#0" id="circle197"/>
	<circle cx="988.834" cy="36.7595" r="4" fill="#0" id="circle198"/>
	<circle cx="994.976" cy="55.1868" r="4" fill="#0" id="circle199"/>
	<circle cx="996" cy="44.9494" r="4" fill="#0" id="circle200"/>
	</g>
</svg>