<?xml version="1.0" encoding="UTF-8" standalone="no"?>
<!-- Created with CurveBenchmark -->
<svg
	xmlns:dc="http://purl.org/dc/elements/1.1/"
	xmlns:cc="http://creativecommons.org/ns#"
	xmlns:rdf="http://www.w3.org/1999/02/22-rdf-syntax-ns#"
	xmlns:svg="http://www.w3.org/2000/svg"
	xmlns="http://www.w3.org/2000/svg"
	xmlns:sodipodi="http://sodipodi.sourceforge.net/DTD/sodipodi-0.dtd"
	xmlns:inkscape="http://www.inkscape.org/namespaces/inkscape"
	width="1000"
	height="1000"
	id="svg2"
	version="1.1"
	sodipodi:docname="manifold/connect2d-truck-17.png.txt">
<defs
	id="defs4" />
<metadata
	id="metadata7">
	<rdf:RDF>
		<cc:Work
			rdf:about="">
			<dc:format>image/svg+xml</dc:format>
			<dc:type
				rdf:resource="http://purl.org/dc/dcmitype/StillImage" />
			<dc:title></dc:title>
		</cc:Work>
	</rdf:RDF>
</metadata>
<g
	inkscape:label="Layer 1"
	inkscape:groupmode="layer"
	id="layer1">
	<path style="fill:none;stroke:red;stroke-width:1px;stroke-linecap:butt;stroke-linejoin:miter;stroke-opacity:1" d="M 983.6,278.571 996,292.743 z" id="boundary" inkscape:connector-curvature="0" />
	<path style="fill:none;stroke:red;stroke-width:1px;stroke-linecap:butt;stroke-linejoin:miter;stroke-opacity:1" d="M 996,292.743 988.914,324.629 z" id="boundary" inkscape:connector-curvature="0" />
	<path style="fill:none;stroke:red;stroke-width:1px;stroke-linecap:butt;stroke-linejoin:miter;stroke-opacity:1" d="M 988.914,324.629 976.514,347.657 z" id="boundary" inkscape:connector-curvature="0" />
	<path style="fill:none;stroke:red;stroke-width:1px;stroke-linecap:butt;stroke-linejoin:miter;stroke-opacity:1" d="M 976.514,347.657 962.343,360.057 z" id="boundary" inkscape:connector-curvature="0" />
	<path style="fill:none;stroke:red;stroke-width:1px;stroke-linecap:butt;stroke-linejoin:miter;stroke-opacity:1" d="M 962.343,360.057 944.629,360.057 z" id="boundary" inkscape:connector-curvature="0" />
	<path style="fill:none;stroke:red;stroke-width:1px;stroke-linecap:butt;stroke-linejoin:miter;stroke-opacity:1" d="M 944.629,360.057 944.629,377.771 z" id="boundary" inkscape:connector-curvature="0" />
	<path style="fill:none;stroke:red;stroke-width:1px;stroke-linecap:butt;stroke-linejoin:miter;stroke-opacity:1" d="M 944.629,377.771 944.629,395.486 z" id="boundary" inkscape:connector-curvature="0" />
	<path style="fill:none;stroke:red;stroke-width:1px;stroke-linecap:butt;stroke-linejoin:miter;stroke-opacity:1" d="M 944.629,395.486 944.629,413.2 z" id="boundary" inkscape:connector-curvature="0" />
	<path style="fill:none;stroke:red;stroke-width:1px;stroke-linecap:butt;stroke-linejoin:miter;stroke-opacity:1" d="M 944.629,413.2 935.771,430.914 z" id="boundary" inkscape:connector-curvature="0" />
	<path style="fill:none;stroke:red;stroke-width:1px;stroke-linecap:butt;stroke-linejoin:miter;stroke-opacity:1" d="M 935.771,430.914 926.914,457.486 z" id="boundary" inkscape:connector-curvature="0" />
	<path style="fill:none;stroke:red;stroke-width:1px;stroke-linecap:butt;stroke-linejoin:miter;stroke-opacity:1" d="M 926.914,457.486 918.057,475.2 z" id="boundary" inkscape:connector-curvature="0" />
	<path style="fill:none;stroke:red;stroke-width:1px;stroke-linecap:butt;stroke-linejoin:miter;stroke-opacity:1" d="M 918.057,475.2 902.114,484.057 z" id="boundary" inkscape:connector-curvature="0" />
	<path style="fill:none;stroke:red;stroke-width:1px;stroke-linecap:butt;stroke-linejoin:miter;stroke-opacity:1" d="M 902.114,484.057 886.171,492.914 z" id="boundary" inkscape:connector-curvature="0" />
	<path style="fill:none;stroke:red;stroke-width:1px;stroke-linecap:butt;stroke-linejoin:miter;stroke-opacity:1" d="M 886.171,492.914 868.457,492.914 z" id="boundary" inkscape:connector-curvature="0" />
	<path style="fill:none;stroke:red;stroke-width:1px;stroke-linecap:butt;stroke-linejoin:miter;stroke-opacity:1" d="M 868.457,492.914 850.743,492.914 z" id="boundary" inkscape:connector-curvature="0" />
	<path style="fill:none;stroke:red;stroke-width:1px;stroke-linecap:butt;stroke-linejoin:miter;stroke-opacity:1" d="M 850.743,492.914 838.343,478.743 z" id="boundary" inkscape:connector-curvature="0" />
	<path style="fill:none;stroke:red;stroke-width:1px;stroke-linecap:butt;stroke-linejoin:miter;stroke-opacity:1" d="M 838.343,478.743 827.714,464.571 z" id="boundary" inkscape:connector-curvature="0" />
	<path style="fill:none;stroke:red;stroke-width:1px;stroke-linecap:butt;stroke-linejoin:miter;stroke-opacity:1" d="M 827.714,464.571 818.857,448.629 z" id="boundary" inkscape:connector-curvature="0" />
	<path style="fill:none;stroke:red;stroke-width:1px;stroke-linecap:butt;stroke-linejoin:miter;stroke-opacity:1" d="M 818.857,448.629 811.771,430.914 z" id="boundary" inkscape:connector-curvature="0" />
	<path style="fill:none;stroke:red;stroke-width:1px;stroke-linecap:butt;stroke-linejoin:miter;stroke-opacity:1" d="M 811.771,430.914 794.057,430.914 z" id="boundary" inkscape:connector-curvature="0" />
	<path style="fill:none;stroke:red;stroke-width:1px;stroke-linecap:butt;stroke-linejoin:miter;stroke-opacity:1" d="M 794.057,430.914 776.343,430.914 z" id="boundary" inkscape:connector-curvature="0" />
	<path style="fill:none;stroke:red;stroke-width:1px;stroke-linecap:butt;stroke-linejoin:miter;stroke-opacity:1" d="M 776.343,430.914 758.629,430.914 z" id="boundary" inkscape:connector-curvature="0" />
	<path style="fill:none;stroke:red;stroke-width:1px;stroke-linecap:butt;stroke-linejoin:miter;stroke-opacity:1" d="M 758.629,430.914 744.457,446.857 z" id="boundary" inkscape:connector-curvature="0" />
	<path style="fill:none;stroke:red;stroke-width:1px;stroke-linecap:butt;stroke-linejoin:miter;stroke-opacity:1" d="M 744.457,446.857 726.743,455.714 z" id="boundary" inkscape:connector-curvature="0" />
	<path style="fill:none;stroke:red;stroke-width:1px;stroke-linecap:butt;stroke-linejoin:miter;stroke-opacity:1" d="M 726.743,455.714 709.029,457.486 z" id="boundary" inkscape:connector-curvature="0" />
	<path style="fill:none;stroke:red;stroke-width:1px;stroke-linecap:butt;stroke-linejoin:miter;stroke-opacity:1" d="M 709.029,457.486 691.314,457.486 z" id="boundary" inkscape:connector-curvature="0" />
	<path style="fill:none;stroke:red;stroke-width:1px;stroke-linecap:butt;stroke-linejoin:miter;stroke-opacity:1" d="M 691.314,457.486 673.6,455.714 z" id="boundary" inkscape:connector-curvature="0" />
	<path style="fill:none;stroke:red;stroke-width:1px;stroke-linecap:butt;stroke-linejoin:miter;stroke-opacity:1" d="M 673.6,455.714 655.886,448.629 z" id="boundary" inkscape:connector-curvature="0" />
	<path style="fill:none;stroke:red;stroke-width:1px;stroke-linecap:butt;stroke-linejoin:miter;stroke-opacity:1" d="M 655.886,448.629 643.486,434.457 z" id="boundary" inkscape:connector-curvature="0" />
	<path style="fill:none;stroke:red;stroke-width:1px;stroke-linecap:butt;stroke-linejoin:miter;stroke-opacity:1" d="M 643.486,434.457 625.771,430.914 z" id="boundary" inkscape:connector-curvature="0" />
	<path style="fill:none;stroke:red;stroke-width:1px;stroke-linecap:butt;stroke-linejoin:miter;stroke-opacity:1" d="M 625.771,430.914 608.057,430.914 z" id="boundary" inkscape:connector-curvature="0" />
	<path style="fill:none;stroke:red;stroke-width:1px;stroke-linecap:butt;stroke-linejoin:miter;stroke-opacity:1" d="M 608.057,430.914 602.743,455.714 z" id="boundary" inkscape:connector-curvature="0" />
	<path style="fill:none;stroke:red;stroke-width:1px;stroke-linecap:butt;stroke-linejoin:miter;stroke-opacity:1" d="M 602.743,455.714 593.886,473.429 z" id="boundary" inkscape:connector-curvature="0" />
	<path style="fill:none;stroke:red;stroke-width:1px;stroke-linecap:butt;stroke-linejoin:miter;stroke-opacity:1" d="M 593.886,473.429 579.714,487.6 z" id="boundary" inkscape:connector-curvature="0" />
	<path style="fill:none;stroke:red;stroke-width:1px;stroke-linecap:butt;stroke-linejoin:miter;stroke-opacity:1" d="M 579.714,487.6 562,496.457 z" id="boundary" inkscape:connector-curvature="0" />
	<path style="fill:none;stroke:red;stroke-width:1px;stroke-linecap:butt;stroke-linejoin:miter;stroke-opacity:1" d="M 562,496.457 544.286,501.771 z" id="boundary" inkscape:connector-curvature="0" />
	<path style="fill:none;stroke:red;stroke-width:1px;stroke-linecap:butt;stroke-linejoin:miter;stroke-opacity:1" d="M 544.286,501.771 528.343,510.629 z" id="boundary" inkscape:connector-curvature="0" />
	<path style="fill:none;stroke:red;stroke-width:1px;stroke-linecap:butt;stroke-linejoin:miter;stroke-opacity:1" d="M 528.343,510.629 510.629,510.629 z" id="boundary" inkscape:connector-curvature="0" />
	<path style="fill:none;stroke:red;stroke-width:1px;stroke-linecap:butt;stroke-linejoin:miter;stroke-opacity:1" d="M 510.629,510.629 492.914,510.629 z" id="boundary" inkscape:connector-curvature="0" />
	<path style="fill:none;stroke:red;stroke-width:1px;stroke-linecap:butt;stroke-linejoin:miter;stroke-opacity:1" d="M 492.914,510.629 475.2,510.629 z" id="boundary" inkscape:connector-curvature="0" />
	<path style="fill:none;stroke:red;stroke-width:1px;stroke-linecap:butt;stroke-linejoin:miter;stroke-opacity:1" d="M 475.2,510.629 457.486,510.629 z" id="boundary" inkscape:connector-curvature="0" />
	<path style="fill:none;stroke:red;stroke-width:1px;stroke-linecap:butt;stroke-linejoin:miter;stroke-opacity:1" d="M 457.486,510.629 439.771,510.629 z" id="boundary" inkscape:connector-curvature="0" />
	<path style="fill:none;stroke:red;stroke-width:1px;stroke-linecap:butt;stroke-linejoin:miter;stroke-opacity:1" d="M 439.771,510.629 422.057,510.629 z" id="boundary" inkscape:connector-curvature="0" />
	<path style="fill:none;stroke:red;stroke-width:1px;stroke-linecap:butt;stroke-linejoin:miter;stroke-opacity:1" d="M 422.057,510.629 404.343,510.629 z" id="boundary" inkscape:connector-curvature="0" />
	<path style="fill:none;stroke:red;stroke-width:1px;stroke-linecap:butt;stroke-linejoin:miter;stroke-opacity:1" d="M 404.343,510.629 390.171,500 z" id="boundary" inkscape:connector-curvature="0" />
	<path style="fill:none;stroke:red;stroke-width:1px;stroke-linecap:butt;stroke-linejoin:miter;stroke-opacity:1" d="M 390.171,500 376,487.6 z" id="boundary" inkscape:connector-curvature="0" />
	<path style="fill:none;stroke:red;stroke-width:1px;stroke-linecap:butt;stroke-linejoin:miter;stroke-opacity:1" d="M 376,487.6 367.143,471.657 z" id="boundary" inkscape:connector-curvature="0" />
	<path style="fill:none;stroke:red;stroke-width:1px;stroke-linecap:butt;stroke-linejoin:miter;stroke-opacity:1" d="M 367.143,471.657 356.514,457.486 z" id="boundary" inkscape:connector-curvature="0" />
	<path style="fill:none;stroke:red;stroke-width:1px;stroke-linecap:butt;stroke-linejoin:miter;stroke-opacity:1" d="M 356.514,457.486 338.8,457.486 z" id="boundary" inkscape:connector-curvature="0" />
	<path style="fill:none;stroke:red;stroke-width:1px;stroke-linecap:butt;stroke-linejoin:miter;stroke-opacity:1" d="M 338.8,457.486 321.086,457.486 z" id="boundary" inkscape:connector-curvature="0" />
	<path style="fill:none;stroke:red;stroke-width:1px;stroke-linecap:butt;stroke-linejoin:miter;stroke-opacity:1" d="M 321.086,457.486 303.371,457.486 z" id="boundary" inkscape:connector-curvature="0" />
	<path style="fill:none;stroke:red;stroke-width:1px;stroke-linecap:butt;stroke-linejoin:miter;stroke-opacity:1" d="M 303.371,457.486 285.657,457.486 z" id="boundary" inkscape:connector-curvature="0" />
	<path style="fill:none;stroke:red;stroke-width:1px;stroke-linecap:butt;stroke-linejoin:miter;stroke-opacity:1" d="M 285.657,457.486 267.943,462.8 z" id="boundary" inkscape:connector-curvature="0" />
	<path style="fill:none;stroke:red;stroke-width:1px;stroke-linecap:butt;stroke-linejoin:miter;stroke-opacity:1" d="M 267.943,462.8 253.771,475.2 z" id="boundary" inkscape:connector-curvature="0" />
	<path style="fill:none;stroke:red;stroke-width:1px;stroke-linecap:butt;stroke-linejoin:miter;stroke-opacity:1" d="M 253.771,475.2 236.057,484.057 z" id="boundary" inkscape:connector-curvature="0" />
	<path style="fill:none;stroke:red;stroke-width:1px;stroke-linecap:butt;stroke-linejoin:miter;stroke-opacity:1" d="M 236.057,484.057 218.343,492.914 z" id="boundary" inkscape:connector-curvature="0" />
	<path style="fill:none;stroke:red;stroke-width:1px;stroke-linecap:butt;stroke-linejoin:miter;stroke-opacity:1" d="M 218.343,492.914 200.629,501.771 z" id="boundary" inkscape:connector-curvature="0" />
	<path style="fill:none;stroke:red;stroke-width:1px;stroke-linecap:butt;stroke-linejoin:miter;stroke-opacity:1" d="M 200.629,501.771 182.914,510.629 z" id="boundary" inkscape:connector-curvature="0" />
	<path style="fill:none;stroke:red;stroke-width:1px;stroke-linecap:butt;stroke-linejoin:miter;stroke-opacity:1" d="M 182.914,510.629 166.971,501.771 z" id="boundary" inkscape:connector-curvature="0" />
	<path style="fill:none;stroke:red;stroke-width:1px;stroke-linecap:butt;stroke-linejoin:miter;stroke-opacity:1" d="M 166.971,501.771 151.029,492.914 z" id="boundary" inkscape:connector-curvature="0" />
	<path style="fill:none;stroke:red;stroke-width:1px;stroke-linecap:butt;stroke-linejoin:miter;stroke-opacity:1" d="M 151.029,492.914 133.314,492.914 z" id="boundary" inkscape:connector-curvature="0" />
	<path style="fill:none;stroke:red;stroke-width:1px;stroke-linecap:butt;stroke-linejoin:miter;stroke-opacity:1" d="M 133.314,492.914 124.457,508.857 z" id="boundary" inkscape:connector-curvature="0" />
	<path style="fill:none;stroke:red;stroke-width:1px;stroke-linecap:butt;stroke-linejoin:miter;stroke-opacity:1" d="M 124.457,508.857 106.743,517.714 z" id="boundary" inkscape:connector-curvature="0" />
	<path style="fill:none;stroke:red;stroke-width:1px;stroke-linecap:butt;stroke-linejoin:miter;stroke-opacity:1" d="M 106.743,517.714 89.0286,517.714 z" id="boundary" inkscape:connector-curvature="0" />
	<path style="fill:none;stroke:red;stroke-width:1px;stroke-linecap:butt;stroke-linejoin:miter;stroke-opacity:1" d="M 89.0286,517.714 71.3143,510.629 z" id="boundary" inkscape:connector-curvature="0" />
	<path style="fill:none;stroke:red;stroke-width:1px;stroke-linecap:butt;stroke-linejoin:miter;stroke-opacity:1" d="M 71.3143,510.629 66,492.914 z" id="boundary" inkscape:connector-curvature="0" />
	<path style="fill:none;stroke:red;stroke-width:1px;stroke-linecap:butt;stroke-linejoin:miter;stroke-opacity:1" d="M 66,492.914 57.1429,476.971 z" id="boundary" inkscape:connector-curvature="0" />
	<path style="fill:none;stroke:red;stroke-width:1px;stroke-linecap:butt;stroke-linejoin:miter;stroke-opacity:1" d="M 57.1429,476.971 57.1429,459.257 z" id="boundary" inkscape:connector-curvature="0" />
	<path style="fill:none;stroke:red;stroke-width:1px;stroke-linecap:butt;stroke-linejoin:miter;stroke-opacity:1" d="M 57.1429,459.257 48.2857,443.314 z" id="boundary" inkscape:connector-curvature="0" />
	<path style="fill:none;stroke:red;stroke-width:1px;stroke-linecap:butt;stroke-linejoin:miter;stroke-opacity:1" d="M 48.2857,443.314 48.2857,425.6 z" id="boundary" inkscape:connector-curvature="0" />
	<path style="fill:none;stroke:red;stroke-width:1px;stroke-linecap:butt;stroke-linejoin:miter;stroke-opacity:1" d="M 48.2857,425.6 48.2857,407.886 z" id="boundary" inkscape:connector-curvature="0" />
	<path style="fill:none;stroke:red;stroke-width:1px;stroke-linecap:butt;stroke-linejoin:miter;stroke-opacity:1" d="M 48.2857,407.886 48.2857,390.171 z" id="boundary" inkscape:connector-curvature="0" />
	<path style="fill:none;stroke:red;stroke-width:1px;stroke-linecap:butt;stroke-linejoin:miter;stroke-opacity:1" d="M 48.2857,390.171 57.1429,363.6 z" id="boundary" inkscape:connector-curvature="0" />
	<path style="fill:none;stroke:red;stroke-width:1px;stroke-linecap:butt;stroke-linejoin:miter;stroke-opacity:1" d="M 57.1429,363.6 66,345.886 z" id="boundary" inkscape:connector-curvature="0" />
	<path style="fill:none;stroke:red;stroke-width:1px;stroke-linecap:butt;stroke-linejoin:miter;stroke-opacity:1" d="M 66,345.886 83.7143,337.029 z" id="boundary" inkscape:connector-curvature="0" />
	<path style="fill:none;stroke:red;stroke-width:1px;stroke-linecap:butt;stroke-linejoin:miter;stroke-opacity:1" d="M 83.7143,337.029 101.429,331.714 z" id="boundary" inkscape:connector-curvature="0" />
	<path style="fill:none;stroke:red;stroke-width:1px;stroke-linecap:butt;stroke-linejoin:miter;stroke-opacity:1" d="M 101.429,331.714 119.143,319.314 z" id="boundary" inkscape:connector-curvature="0" />
	<path style="fill:none;stroke:red;stroke-width:1px;stroke-linecap:butt;stroke-linejoin:miter;stroke-opacity:1" d="M 119.143,319.314 128,299.829 z" id="boundary" inkscape:connector-curvature="0" />
	<path style="fill:none;stroke:red;stroke-width:1px;stroke-linecap:butt;stroke-linejoin:miter;stroke-opacity:1" d="M 128,299.829 113.829,289.2 z" id="boundary" inkscape:connector-curvature="0" />
	<path style="fill:none;stroke:red;stroke-width:1px;stroke-linecap:butt;stroke-linejoin:miter;stroke-opacity:1" d="M 113.829,289.2 96.1143,289.2 z" id="boundary" inkscape:connector-curvature="0" />
	<path style="fill:none;stroke:red;stroke-width:1px;stroke-linecap:butt;stroke-linejoin:miter;stroke-opacity:1" d="M 96.1143,289.2 78.4,289.2 z" id="boundary" inkscape:connector-curvature="0" />
	<path style="fill:none;stroke:red;stroke-width:1px;stroke-linecap:butt;stroke-linejoin:miter;stroke-opacity:1" d="M 78.4,289.2 60.6857,289.2 z" id="boundary" inkscape:connector-curvature="0" />
	<path style="fill:none;stroke:red;stroke-width:1px;stroke-linecap:butt;stroke-linejoin:miter;stroke-opacity:1" d="M 60.6857,289.2 42.9714,289.2 z" id="boundary" inkscape:connector-curvature="0" />
	<path style="fill:none;stroke:red;stroke-width:1px;stroke-linecap:butt;stroke-linejoin:miter;stroke-opacity:1" d="M 42.9714,289.2 25.2571,287.429 z" id="boundary" inkscape:connector-curvature="0" />
	<path style="fill:none;stroke:red;stroke-width:1px;stroke-linecap:butt;stroke-linejoin:miter;stroke-opacity:1" d="M 25.2571,287.429 12.8571,273.257 z" id="boundary" inkscape:connector-curvature="0" />
	<path style="fill:none;stroke:red;stroke-width:1px;stroke-linecap:butt;stroke-linejoin:miter;stroke-opacity:1" d="M 12.8571,273.257 4,257.314 z" id="boundary" inkscape:connector-curvature="0" />
	<path style="fill:none;stroke:red;stroke-width:1px;stroke-linecap:butt;stroke-linejoin:miter;stroke-opacity:1" d="M 4,257.314 4,239.6 z" id="boundary" inkscape:connector-curvature="0" />
	<path style="fill:none;stroke:red;stroke-width:1px;stroke-linecap:butt;stroke-linejoin:miter;stroke-opacity:1" d="M 4,239.6 4,221.886 z" id="boundary" inkscape:connector-curvature="0" />
	<path style="fill:none;stroke:red;stroke-width:1px;stroke-linecap:butt;stroke-linejoin:miter;stroke-opacity:1" d="M 4,221.886 12.8571,204.171 z" id="boundary" inkscape:connector-curvature="0" />
	<path style="fill:none;stroke:red;stroke-width:1px;stroke-linecap:butt;stroke-linejoin:miter;stroke-opacity:1" d="M 12.8571,204.171 27.0286,190 z" id="boundary" inkscape:connector-curvature="0" />
	<path style="fill:none;stroke:red;stroke-width:1px;stroke-linecap:butt;stroke-linejoin:miter;stroke-opacity:1" d="M 27.0286,190 42.9714,181.143 z" id="boundary" inkscape:connector-curvature="0" />
	<path style="fill:none;stroke:red;stroke-width:1px;stroke-linecap:butt;stroke-linejoin:miter;stroke-opacity:1" d="M 42.9714,181.143 58.9143,172.286 z" id="boundary" inkscape:connector-curvature="0" />
	<path style="fill:none;stroke:red;stroke-width:1px;stroke-linecap:butt;stroke-linejoin:miter;stroke-opacity:1" d="M 58.9143,172.286 76.6286,166.971 z" id="boundary" inkscape:connector-curvature="0" />
	<path style="fill:none;stroke:red;stroke-width:1px;stroke-linecap:butt;stroke-linejoin:miter;stroke-opacity:1" d="M 76.6286,166.971 94.3429,163.429 z" id="boundary" inkscape:connector-curvature="0" />
	<path style="fill:none;stroke:red;stroke-width:1px;stroke-linecap:butt;stroke-linejoin:miter;stroke-opacity:1" d="M 94.3429,163.429 112.057,158.114 z" id="boundary" inkscape:connector-curvature="0" />
	<path style="fill:none;stroke:red;stroke-width:1px;stroke-linecap:butt;stroke-linejoin:miter;stroke-opacity:1" d="M 112.057,158.114 129.771,149.257 z" id="boundary" inkscape:connector-curvature="0" />
	<path style="fill:none;stroke:red;stroke-width:1px;stroke-linecap:butt;stroke-linejoin:miter;stroke-opacity:1" d="M 129.771,149.257 147.486,140.4 z" id="boundary" inkscape:connector-curvature="0" />
	<path style="fill:none;stroke:red;stroke-width:1px;stroke-linecap:butt;stroke-linejoin:miter;stroke-opacity:1" d="M 147.486,140.4 165.2,131.543 z" id="boundary" inkscape:connector-curvature="0" />
	<path style="fill:none;stroke:red;stroke-width:1px;stroke-linecap:butt;stroke-linejoin:miter;stroke-opacity:1" d="M 165.2,131.543 182.914,122.686 z" id="boundary" inkscape:connector-curvature="0" />
	<path style="fill:none;stroke:red;stroke-width:1px;stroke-linecap:butt;stroke-linejoin:miter;stroke-opacity:1" d="M 182.914,122.686 200.629,119.143 z" id="boundary" inkscape:connector-curvature="0" />
	<path style="fill:none;stroke:red;stroke-width:1px;stroke-linecap:butt;stroke-linejoin:miter;stroke-opacity:1" d="M 200.629,119.143 216.571,110.286 z" id="boundary" inkscape:connector-curvature="0" />
	<path style="fill:none;stroke:red;stroke-width:1px;stroke-linecap:butt;stroke-linejoin:miter;stroke-opacity:1" d="M 216.571,110.286 234.286,110.286 z" id="boundary" inkscape:connector-curvature="0" />
	<path style="fill:none;stroke:red;stroke-width:1px;stroke-linecap:butt;stroke-linejoin:miter;stroke-opacity:1" d="M 234.286,110.286 252,110.286 z" id="boundary" inkscape:connector-curvature="0" />
	<path style="fill:none;stroke:red;stroke-width:1px;stroke-linecap:butt;stroke-linejoin:miter;stroke-opacity:1" d="M 252,110.286 269.714,110.286 z" id="boundary" inkscape:connector-curvature="0" />
	<path style="fill:none;stroke:red;stroke-width:1px;stroke-linecap:butt;stroke-linejoin:miter;stroke-opacity:1" d="M 269.714,110.286 287.429,110.286 z" id="boundary" inkscape:connector-curvature="0" />
	<path style="fill:none;stroke:red;stroke-width:1px;stroke-linecap:butt;stroke-linejoin:miter;stroke-opacity:1" d="M 287.429,110.286 305.143,110.286 z" id="boundary" inkscape:connector-curvature="0" />
	<path style="fill:none;stroke:red;stroke-width:1px;stroke-linecap:butt;stroke-linejoin:miter;stroke-opacity:1" d="M 305.143,110.286 322.857,110.286 z" id="boundary" inkscape:connector-curvature="0" />
	<path style="fill:none;stroke:red;stroke-width:1px;stroke-linecap:butt;stroke-linejoin:miter;stroke-opacity:1" d="M 322.857,110.286 340.571,110.286 z" id="boundary" inkscape:connector-curvature="0" />
	<path style="fill:none;stroke:red;stroke-width:1px;stroke-linecap:butt;stroke-linejoin:miter;stroke-opacity:1" d="M 340.571,110.286 358.286,110.286 z" id="boundary" inkscape:connector-curvature="0" />
	<path style="fill:none;stroke:red;stroke-width:1px;stroke-linecap:butt;stroke-linejoin:miter;stroke-opacity:1" d="M 358.286,110.286 376,110.286 z" id="boundary" inkscape:connector-curvature="0" />
	<path style="fill:none;stroke:red;stroke-width:1px;stroke-linecap:butt;stroke-linejoin:miter;stroke-opacity:1" d="M 376,110.286 393.714,110.286 z" id="boundary" inkscape:connector-curvature="0" />
	<path style="fill:none;stroke:red;stroke-width:1px;stroke-linecap:butt;stroke-linejoin:miter;stroke-opacity:1" d="M 393.714,110.286 411.429,110.286 z" id="boundary" inkscape:connector-curvature="0" />
	<path style="fill:none;stroke:red;stroke-width:1px;stroke-linecap:butt;stroke-linejoin:miter;stroke-opacity:1" d="M 411.429,110.286 429.143,110.286 z" id="boundary" inkscape:connector-curvature="0" />
	<path style="fill:none;stroke:red;stroke-width:1px;stroke-linecap:butt;stroke-linejoin:miter;stroke-opacity:1" d="M 429.143,110.286 445.086,101.429 z" id="boundary" inkscape:connector-curvature="0" />
	<path style="fill:none;stroke:red;stroke-width:1px;stroke-linecap:butt;stroke-linejoin:miter;stroke-opacity:1" d="M 445.086,101.429 457.486,87.2571 z" id="boundary" inkscape:connector-curvature="0" />
	<path style="fill:none;stroke:red;stroke-width:1px;stroke-linecap:butt;stroke-linejoin:miter;stroke-opacity:1" d="M 457.486,87.2571 466.343,69.5429 z" id="boundary" inkscape:connector-curvature="0" />
	<path style="fill:none;stroke:red;stroke-width:1px;stroke-linecap:butt;stroke-linejoin:miter;stroke-opacity:1" d="M 466.343,69.5429 484.057,60.6857 z" id="boundary" inkscape:connector-curvature="0" />
	<path style="fill:none;stroke:red;stroke-width:1px;stroke-linecap:butt;stroke-linejoin:miter;stroke-opacity:1" d="M 484.057,60.6857 498.229,48.2857 z" id="boundary" inkscape:connector-curvature="0" />
	<path style="fill:none;stroke:red;stroke-width:1px;stroke-linecap:butt;stroke-linejoin:miter;stroke-opacity:1" d="M 498.229,48.2857 500,27.0286 z" id="boundary" inkscape:connector-curvature="0" />
	<path style="fill:none;stroke:red;stroke-width:1px;stroke-linecap:butt;stroke-linejoin:miter;stroke-opacity:1" d="M 500,27.0286 514.171,12.8571 z" id="boundary" inkscape:connector-curvature="0" />
	<path style="fill:none;stroke:red;stroke-width:1px;stroke-linecap:butt;stroke-linejoin:miter;stroke-opacity:1" d="M 514.171,12.8571 530.114,4 z" id="boundary" inkscape:connector-curvature="0" />
	<path style="fill:none;stroke:red;stroke-width:1px;stroke-linecap:butt;stroke-linejoin:miter;stroke-opacity:1" d="M 530.114,4 547.829,4 z" id="boundary" inkscape:connector-curvature="0" />
	<path style="fill:none;stroke:red;stroke-width:1px;stroke-linecap:butt;stroke-linejoin:miter;stroke-opacity:1" d="M 547.829,4 565.543,4 z" id="boundary" inkscape:connector-curvature="0" />
	<path style="fill:none;stroke:red;stroke-width:1px;stroke-linecap:butt;stroke-linejoin:miter;stroke-opacity:1" d="M 565.543,4 583.257,4 z" id="boundary" inkscape:connector-curvature="0" />
	<path style="fill:none;stroke:red;stroke-width:1px;stroke-linecap:butt;stroke-linejoin:miter;stroke-opacity:1" d="M 583.257,4 600.971,4 z" id="boundary" inkscape:connector-curvature="0" />
	<path style="fill:none;stroke:red;stroke-width:1px;stroke-linecap:butt;stroke-linejoin:miter;stroke-opacity:1" d="M 600.971,4 618.686,4 z" id="boundary" inkscape:connector-curvature="0" />
	<path style="fill:none;stroke:red;stroke-width:1px;stroke-linecap:butt;stroke-linejoin:miter;stroke-opacity:1" d="M 618.686,4 636.4,4 z" id="boundary" inkscape:connector-curvature="0" />
	<path style="fill:none;stroke:red;stroke-width:1px;stroke-linecap:butt;stroke-linejoin:miter;stroke-opacity:1" d="M 636.4,4 654.114,4 z" id="boundary" inkscape:connector-curvature="0" />
	<path style="fill:none;stroke:red;stroke-width:1px;stroke-linecap:butt;stroke-linejoin:miter;stroke-opacity:1" d="M 654.114,4 671.829,4 z" id="boundary" inkscape:connector-curvature="0" />
	<path style="fill:none;stroke:red;stroke-width:1px;stroke-linecap:butt;stroke-linejoin:miter;stroke-opacity:1" d="M 671.829,4 689.543,4 z" id="boundary" inkscape:connector-curvature="0" />
	<path style="fill:none;stroke:red;stroke-width:1px;stroke-linecap:butt;stroke-linejoin:miter;stroke-opacity:1" d="M 689.543,4 707.257,4 z" id="boundary" inkscape:connector-curvature="0" />
	<path style="fill:none;stroke:red;stroke-width:1px;stroke-linecap:butt;stroke-linejoin:miter;stroke-opacity:1" d="M 707.257,4 723.2,12.8571 z" id="boundary" inkscape:connector-curvature="0" />
	<path style="fill:none;stroke:red;stroke-width:1px;stroke-linecap:butt;stroke-linejoin:miter;stroke-opacity:1" d="M 723.2,12.8571 740.914,18.1714 z" id="boundary" inkscape:connector-curvature="0" />
	<path style="fill:none;stroke:red;stroke-width:1px;stroke-linecap:butt;stroke-linejoin:miter;stroke-opacity:1" d="M 740.914,18.1714 748,35.8857 z" id="boundary" inkscape:connector-curvature="0" />
	<path style="fill:none;stroke:red;stroke-width:1px;stroke-linecap:butt;stroke-linejoin:miter;stroke-opacity:1" d="M 748,35.8857 749.771,53.6 z" id="boundary" inkscape:connector-curvature="0" />
	<path style="fill:none;stroke:red;stroke-width:1px;stroke-linecap:butt;stroke-linejoin:miter;stroke-opacity:1" d="M 749.771,53.6 749.771,71.3143 z" id="boundary" inkscape:connector-curvature="0" />
	<path style="fill:none;stroke:red;stroke-width:1px;stroke-linecap:butt;stroke-linejoin:miter;stroke-opacity:1" d="M 749.771,71.3143 749.771,89.0286 z" id="boundary" inkscape:connector-curvature="0" />
	<path style="fill:none;stroke:red;stroke-width:1px;stroke-linecap:butt;stroke-linejoin:miter;stroke-opacity:1" d="M 749.771,89.0286 749.771,106.743 z" id="boundary" inkscape:connector-curvature="0" />
	<path style="fill:none;stroke:red;stroke-width:1px;stroke-linecap:butt;stroke-linejoin:miter;stroke-opacity:1" d="M 749.771,106.743 749.771,124.457 z" id="boundary" inkscape:connector-curvature="0" />
	<path style="fill:none;stroke:red;stroke-width:1px;stroke-linecap:butt;stroke-linejoin:miter;stroke-opacity:1" d="M 749.771,124.457 767.486,128 z" id="boundary" inkscape:connector-curvature="0" />
	<path style="fill:none;stroke:red;stroke-width:1px;stroke-linecap:butt;stroke-linejoin:miter;stroke-opacity:1" d="M 767.486,128 783.429,136.857 z" id="boundary" inkscape:connector-curvature="0" />
	<path style="fill:none;stroke:red;stroke-width:1px;stroke-linecap:butt;stroke-linejoin:miter;stroke-opacity:1" d="M 783.429,136.857 797.6,147.486 z" id="boundary" inkscape:connector-curvature="0" />
	<path style="fill:none;stroke:red;stroke-width:1px;stroke-linecap:butt;stroke-linejoin:miter;stroke-opacity:1" d="M 797.6,147.486 811.771,159.886 z" id="boundary" inkscape:connector-curvature="0" />
	<path style="fill:none;stroke:red;stroke-width:1px;stroke-linecap:butt;stroke-linejoin:miter;stroke-opacity:1" d="M 811.771,159.886 820.629,175.829 z" id="boundary" inkscape:connector-curvature="0" />
	<path style="fill:none;stroke:red;stroke-width:1px;stroke-linecap:butt;stroke-linejoin:miter;stroke-opacity:1" d="M 820.629,175.829 825.943,193.543 z" id="boundary" inkscape:connector-curvature="0" />
	<path style="fill:none;stroke:red;stroke-width:1px;stroke-linecap:butt;stroke-linejoin:miter;stroke-opacity:1" d="M 825.943,193.543 843.657,200.629 z" id="boundary" inkscape:connector-curvature="0" />
	<path style="fill:none;stroke:red;stroke-width:1px;stroke-linecap:butt;stroke-linejoin:miter;stroke-opacity:1" d="M 843.657,200.629 850.743,218.343 z" id="boundary" inkscape:connector-curvature="0" />
	<path style="fill:none;stroke:red;stroke-width:1px;stroke-linecap:butt;stroke-linejoin:miter;stroke-opacity:1" d="M 850.743,218.343 859.6,234.286 z" id="boundary" inkscape:connector-curvature="0" />
	<path style="fill:none;stroke:red;stroke-width:1px;stroke-linecap:butt;stroke-linejoin:miter;stroke-opacity:1" d="M 859.6,234.286 864.914,252 z" id="boundary" inkscape:connector-curvature="0" />
	<path style="fill:none;stroke:red;stroke-width:1px;stroke-linecap:butt;stroke-linejoin:miter;stroke-opacity:1" d="M 864.914,252 879.086,262.629 z" id="boundary" inkscape:connector-curvature="0" />
	<path style="fill:none;stroke:red;stroke-width:1px;stroke-linecap:butt;stroke-linejoin:miter;stroke-opacity:1" d="M 879.086,262.629 896.8,269.714 z" id="boundary" inkscape:connector-curvature="0" />
	<path style="fill:none;stroke:red;stroke-width:1px;stroke-linecap:butt;stroke-linejoin:miter;stroke-opacity:1" d="M 896.8,269.714 914.514,269.714 z" id="boundary" inkscape:connector-curvature="0" />
	<path style="fill:none;stroke:red;stroke-width:1px;stroke-linecap:butt;stroke-linejoin:miter;stroke-opacity:1" d="M 914.514,269.714 932.229,269.714 z" id="boundary" inkscape:connector-curvature="0" />
	<path style="fill:none;stroke:red;stroke-width:1px;stroke-linecap:butt;stroke-linejoin:miter;stroke-opacity:1" d="M 932.229,269.714 949.943,269.714 z" id="boundary" inkscape:connector-curvature="0" />
	<path style="fill:none;stroke:red;stroke-width:1px;stroke-linecap:butt;stroke-linejoin:miter;stroke-opacity:1" d="M 949.943,269.714 967.657,269.714 z" id="boundary" inkscape:connector-curvature="0" />
	<path style="fill:none;stroke:red;stroke-width:1px;stroke-linecap:butt;stroke-linejoin:miter;stroke-opacity:1" d="M 967.657,269.714 983.6,278.571 z" id="boundary" inkscape:connector-curvature="0" />
	<circle cx="4" cy="221.886" r="4" fill="#0" id="circle0"/>
	<circle cx="4" cy="239.6" r="4" fill="#0" id="circle1"/>
	<circle cx="4" cy="257.314" r="4" fill="#0" id="circle2"/>
	<circle cx="12.8571" cy="204.171" r="4" fill="#0" id="circle3"/>
	<circle cx="12.8571" cy="273.257" r="4" fill="#0" id="circle4"/>
	<circle cx="25.2571" cy="287.429" r="4" fill="#0" id="circle5"/>
	<circle cx="27.0286" cy="190" r="4" fill="#0" id="circle6"/>
	<circle cx="42.9714" cy="181.143" r="4" fill="#0" id="circle7"/>
	<circle cx="42.9714" cy="289.2" r="4" fill="#0" id="circle8"/>
	<circle cx="48.2857" cy="390.171" r="4" fill="#0" id="circle9"/>
	<circle cx="48.2857" cy="407.886" r="4" fill="#0" id="circle10"/>
	<circle cx="48.2857" cy="425.6" r="4" fill="#0" id="circle11"/>
	<circle cx="48.2857" cy="443.314" r="4" fill="#0" id="circle12"/>
	<circle cx="57.1429" cy="363.6" r="4" fill="#0" id="circle13"/>
	<circle cx="57.1429" cy="459.257" r="4" fill="#0" id="circle14"/>
	<circle cx="57.1429" cy="476.971" r="4" fill="#0" id="circle15"/>
	<circle cx="58.9143" cy="172.286" r="4" fill="#0" id="circle16"/>
	<circle cx="60.6857" cy="289.2" r="4" fill="#0" id="circle17"/>
	<circle cx="66" cy="345.886" r="4" fill="#0" id="circle18"/>
	<circle cx="66" cy="492.914" r="4" fill="#0" id="circle19"/>
	<circle cx="71.3143" cy="510.629" r="4" fill="#0" id="circle20"/>
	<circle cx="76.6286" cy="166.971" r="4" fill="#0" id="circle21"/>
	<circle cx="78.4" cy="289.2" r="4" fill="#0" id="circle22"/>
	<circle cx="83.7143" cy="337.029" r="4" fill="#0" id="circle23"/>
	<circle cx="89.0286" cy="517.714" r="4" fill="#0" id="circle24"/>
	<circle cx="94.3429" cy="163.429" r="4" fill="#0" id="circle25"/>
	<circle cx="96.1143" cy="289.2" r="4" fill="#0" id="circle26"/>
	<circle cx="101.429" cy="331.714" r="4" fill="#0" id="circle27"/>
	<circle cx="106.743" cy="517.714" r="4" fill="#0" id="circle28"/>
	<circle cx="112.057" cy="158.114" r="4" fill="#0" id="circle29"/>
	<circle cx="113.829" cy="289.2" r="4" fill="#0" id="circle30"/>
	<circle cx="119.143" cy="319.314" r="4" fill="#0" id="circle31"/>
	<circle cx="124.457" cy="508.857" r="4" fill="#0" id="circle32"/>
	<circle cx="128" cy="299.829" r="4" fill="#0" id="circle33"/>
	<circle cx="129.771" cy="149.257" r="4" fill="#0" id="circle34"/>
	<circle cx="133.314" cy="492.914" r="4" fill="#0" id="circle35"/>
	<circle cx="147.486" cy="140.4" r="4" fill="#0" id="circle36"/>
	<circle cx="151.029" cy="492.914" r="4" fill="#0" id="circle37"/>
	<circle cx="165.2" cy="131.543" r="4" fill="#0" id="circle38"/>
	<circle cx="166.971" cy="501.771" r="4" fill="#0" id="circle39"/>
	<circle cx="182.914" cy="122.686" r="4" fill="#0" id="circle40"/>
	<circle cx="182.914" cy="510.629" r="4" fill="#0" id="circle41"/>
	<circle cx="200.629" cy="119.143" r="4" fill="#0" id="circle42"/>
	<circle cx="200.629" cy="501.771" r="4" fill="#0" id="circle43"/>
	<circle cx="216.571" cy="110.286" r="4" fill="#0" id="circle44"/>
	<circle cx="218.343" cy="492.914" r="4" fill="#0" id="circle45"/>
	<circle cx="234.286" cy="110.286" r="4" fill="#0" id="circle46"/>
	<circle cx="236.057" cy="484.057" r="4" fill="#0" id="circle47"/>
	<circle cx="252" cy="110.286" r="4" fill="#0" id="circle48"/>
	<circle cx="253.771" cy="475.2" r="4" fill="#0" id="circle49"/>
	<circle cx="267.943" cy="462.8" r="4" fill="#0" id="circle50"/>
	<circle cx="269.714" cy="110.286" r="4" fill="#0" id="circle51"/>
	<circle cx="285.657" cy="457.486" r="4" fill="#0" id="circle52"/>
	<circle cx="287.429" cy="110.286" r="4" fill="#0" id="circle53"/>
	<circle cx="303.371" cy="457.486" r="4" fill="#0" id="circle54"/>
	<circle cx="305.143" cy="110.286" r="4" fill="#0" id="circle55"/>
	<circle cx="321.086" cy="457.486" r="4" fill="#0" id="circle56"/>
	<circle cx="322.857" cy="110.286" r="4" fill="#0" id="circle57"/>
	<circle cx="338.8" cy="457.486" r="4" fill="#0" id="circle58"/>
	<circle cx="340.571" cy="110.286" r="4" fill="#0" id="circle59"/>
	<circle cx="356.514" cy="457.486" r="4" fill="#0" id="circle60"/>
	<circle cx="358.286" cy="110.286" r="4" fill="#0" id="circle61"/>
	<circle cx="367.143" cy="471.657" r="4" fill="#0" id="circle62"/>
	<circle cx="376" cy="110.286" r="4" fill="#0" id="circle63"/>
	<circle cx="376" cy="487.6" r="4" fill="#0" id="circle64"/>
	<circle cx="390.171" cy="500" r="4" fill="#0" id="circle65"/>
	<circle cx="393.714" cy="110.286" r="4" fill="#0" id="circle66"/>
	<circle cx="404.343" cy="510.629" r="4" fill="#0" id="circle67"/>
	<circle cx="411.429" cy="110.286" r="4" fill="#0" id="circle68"/>
	<circle cx="422.057" cy="510.629" r="4" fill="#0" id="circle69"/>
	<circle cx="429.143" cy="110.286" r="4" fill="#0" id="circle70"/>
	<circle cx="439.771" cy="510.629" r="4" fill="#0" id="circle71"/>
	<circle cx="445.086" cy="101.429" r="4" fill="#0" id="circle72"/>
	<circle cx="457.486" cy="87.2571" r="4" fill="#0" id="circle73"/>
	<circle cx="457.486" cy="510.629" r="4" fill="#0" id="circle74"/>
	<circle cx="466.343" cy="69.5429" r="4" fill="#0" id="circle75"/>
	<circle cx="475.2" cy="510.629" r="4" fill="#0" id="circle76"/>
	<circle cx="484.057" cy="60.6857" r="4" fill="#0" id="circle77"/>
	<circle cx="492.914" cy="510.629" r="4" fill="#0" id="circle78"/>
	<circle cx="498.229" cy="48.2857" r="4" fill="#0" id="circle79"/>
	<circle cx="500" cy="27.0286" r="4" fill="#0" id="circle80"/>
	<circle cx="510.629" cy="510.629" r="4" fill="#0" id="circle81"/>
	<circle cx="514.171" cy="12.8571" r="4" fill="#0" id="circle82"/>
	<circle cx="528.343" cy="510.629" r="4" fill="#0" id="circle83"/>
	<circle cx="530.114" cy="4" r="4" fill="#0" id="circle84"/>
	<circle cx="544.286" cy="501.771" r="4" fill="#0" id="circle85"/>
	<circle cx="547.829" cy="4" r="4" fill="#0" id="circle86"/>
	<circle cx="562" cy="496.457" r="4" fill="#0" id="circle87"/>
	<circle cx="565.543" cy="4" r="4" fill="#0" id="circle88"/>
	<circle cx="579.714" cy="487.6" r="4" fill="#0" id="circle89"/>
	<circle cx="583.257" cy="4" r="4" fill="#0" id="circle90"/>
	<circle cx="593.886" cy="473.429" r="4" fill="#0" id="circle91"/>
	<circle cx="600.971" cy="4" r="4" fill="#0" id="circle92"/>
	<circle cx="602.743" cy="455.714" r="4" fill="#0" id="circle93"/>
	<circle cx="608.057" cy="430.914" r="4" fill="#0" id="circle94"/>
	<circle cx="618.686" cy="4" r="4" fill="#0" id="circle95"/>
	<circle cx="625.771" cy="430.914" r="4" fill="#0" id="circle96"/>
	<circle cx="636.4" cy="4" r="4" fill="#0" id="circle97"/>
	<circle cx="643.486" cy="434.457" r="4" fill="#0" id="circle98"/>
	<circle cx="654.114" cy="4" r="4" fill="#0" id="circle99"/>
	<circle cx="655.886" cy="448.629" r="4" fill="#0" id="circle100"/>
	<circle cx="671.829" cy="4" r="4" fill="#0" id="circle101"/>
	<circle cx="673.6" cy="455.714" r="4" fill="#0" id="circle102"/>
	<circle cx="689.543" cy="4" r="4" fill="#0" id="circle103"/>
	<circle cx="691.314" cy="457.486" r="4" fill="#0" id="circle104"/>
	<circle cx="707.257" cy="4" r="4" fill="#0" id="circle105"/>
	<circle cx="709.029" cy="457.486" r="4" fill="#0" id="circle106"/>
	<circle cx="723.2" cy="12.8571" r="4" fill="#0" id="circle107"/>
	<circle cx="726.743" cy="455.714" r="4" fill="#0" id="circle108"/>
	<circle cx="740.914" cy="18.1714" r="4" fill="#0" id="circle109"/>
	<circle cx="744.457" cy="446.857" r="4" fill="#0" id="circle110"/>
	<circle cx="748" cy="35.8857" r="4" fill="#0" id="circle111"/>
	<circle cx="749.771" cy="53.6" r="4" fill="#0" id="circle112"/>
	<circle cx="749.771" cy="71.3143" r="4" fill="#0" id="circle113"/>
	<circle cx="749.771" cy="89.0286" r="4" fill="#0" id="circle114"/>
	<circle cx="749.771" cy="106.743" r="4" fill="#0" id="circle115"/>
	<circle cx="749.771" cy="124.457" r="4" fill="#0" id="circle116"/>
	<circle cx="758.629" cy="430.914" r="4" fill="#0" id="circle117"/>
	<circle cx="767.486" cy="128" r="4" fill="#0" id="circle118"/>
	<circle cx="776.343" cy="430.914" r="4" fill="#0" id="circle119"/>
	<circle cx="783.429" cy="136.857" r="4" fill="#0" id="circle120"/>
	<circle cx="794.057" cy="430.914" r="4" fill="#0" id="circle121"/>
	<circle cx="797.6" cy="147.486" r="4" fill="#0" id="circle122"/>
	<circle cx="811.771" cy="159.886" r="4" fill="#0" id="circle123"/>
	<circle cx="811.771" cy="430.914" r="4" fill="#0" id="circle124"/>
	<circle cx="818.857" cy="448.629" r="4" fill="#0" id="circle125"/>
	<circle cx="820.629" cy="175.829" r="4" fill="#0" id="circle126"/>
	<circle cx="825.943" cy="193.543" r="4" fill="#0" id="circle127"/>
	<circle cx="827.714" cy="464.571" r="4" fill="#0" id="circle128"/>
	<circle cx="838.343" cy="478.743" r="4" fill="#0" id="circle129"/>
	<circle cx="843.657" cy="200.629" r="4" fill="#0" id="circle130"/>
	<circle cx="850.743" cy="218.343" r="4" fill="#0" id="circle131"/>
	<circle cx="850.743" cy="492.914" r="4" fill="#0" id="circle132"/>
	<circle cx="859.6" cy="234.286" r="4" fill="#0" id="circle133"/>
	<circle cx="864.914" cy="252" r="4" fill="#0" id="circle134"/>
	<circle cx="868.457" cy="492.914" r="4" fill="#0" id="circle135"/>
	<circle cx="879.086" cy="262.629" r="4" fill="#0" id="circle136"/>
	<circle cx="886.171" cy="492.914" r="4" fill="#0" id="circle137"/>
	<circle cx="896.8" cy="269.714" r="4" fill="#0" id="circle138"/>
	<circle cx="902.114" cy="484.057" r="4" fill="#0" id="circle139"/>
	<circle cx="914.514" cy="269.714" r="4" fill="#0" id="circle140"/>
	<circle cx="918.057" cy="475.2" r="4" fill="#0" id="circle141"/>
	<circle cx="926.914" cy="457.486" r="4" fill="#0" id="circle142"/>
	<circle cx="932.229" cy="269.714" r="4" fill="#0" id="circle143"/>
	<circle cx="935.771" cy="430.914" r="4" fill="#0" id="circle144"/>
	<circle cx="944.629" cy="360.057" r="4" fill="#0" id="circle145"/>
	<circle cx="944.629" cy="377.771" r="4" fill="#0" id="circle146"/>
	<circle cx="944.629" cy="395.486" r="4" fill="#0" id="circle147"/>
	<circle cx="944.629" cy="413.2" r="4" fill="#0" id="circle148"/>
	<circle cx="949.943" cy="269.714" r="4" fill="#0" id="circle149"/>
	<circle cx="962.343" cy="360.057" r="4" fill="#0" id="circle150"/>
	<circle cx="967.657" cy="269.714" r="4" fill="#0" id="circle151"/>
	<circle cx="976.514" cy="347.657" r="4" fill="#0" id="circle152"/>
	<circle cx="983.6" cy="278.571" r="4" fill="#0" id="circle153"/>
	<circle cx="988.914" cy="324.629" r="4" fill="#0" id="circle154"/>
	<circle cx="996" cy="292.743" r="4" fill="#0" id="circle155"/>
	</g>
</svg>