<?xml version="1.0" encoding="UTF-8" standalone="no"?>
<!-- Created with CurveBenchmark -->
<svg
	xmlns:dc="http://purl.org/dc/elements/1.1/"
	xmlns:cc="http://creativecommons.org/ns#"
	xmlns:rdf="http://www.w3.org/1999/02/22-rdf-syntax-ns#"
	xmlns:svg="http://www.w3.org/2000/svg"
	xmlns="http://www.w3.org/2000/svg"
	xmlns:sodipodi="http://sodipodi.sourceforge.net/DTD/sodipodi-0.dtd"
	xmlns:inkscape="http://www.inkscape.org/namespaces/inkscape"
	width="1000"
	height="1000"
	id="svg2"
	version="1.1"
	sodipodi:docname="manifold/connect2d-textbox36.png.txt">
<defs
	id="defs4" />
<metadata
	id="metadata7">
	<rdf:RDF>
		<cc:Work
			rdf:about="">
			<dc:format>image/svg+xml</dc:format>
			<dc:type
				rdf:resource="http://purl.org/dc/dcmitype/StillImage" />
			<dc:title></dc:title>
		</cc:Work>
	</rdf:RDF>
</metadata>
<g
	inkscape:label="Layer 1"
	inkscape:groupmode="layer"
	id="layer1">
	<path style="fill:none;stroke:red;stroke-width:1px;stroke-linecap:butt;stroke-linejoin:miter;stroke-opacity:1" d="M 996,680.201 996,698.043 z" id="boundary" inkscape:connector-curvature="0" />
	<path style="fill:none;stroke:red;stroke-width:1px;stroke-linecap:butt;stroke-linejoin:miter;stroke-opacity:1" d="M 996,698.043 978.158,715.885 z" id="boundary" inkscape:connector-curvature="0" />
	<path style="fill:none;stroke:red;stroke-width:1px;stroke-linecap:butt;stroke-linejoin:miter;stroke-opacity:1" d="M 978.158,715.885 978.158,733.727 z" id="boundary" inkscape:connector-curvature="0" />
	<path style="fill:none;stroke:red;stroke-width:1px;stroke-linecap:butt;stroke-linejoin:miter;stroke-opacity:1" d="M 978.158,733.727 969.237,751.568 z" id="boundary" inkscape:connector-curvature="0" />
	<path style="fill:none;stroke:red;stroke-width:1px;stroke-linecap:butt;stroke-linejoin:miter;stroke-opacity:1" d="M 969.237,751.568 969.237,769.41 z" id="boundary" inkscape:connector-curvature="0" />
	<path style="fill:none;stroke:red;stroke-width:1px;stroke-linecap:butt;stroke-linejoin:miter;stroke-opacity:1" d="M 969.237,769.41 951.396,778.331 z" id="boundary" inkscape:connector-curvature="0" />
	<path style="fill:none;stroke:red;stroke-width:1px;stroke-linecap:butt;stroke-linejoin:miter;stroke-opacity:1" d="M 951.396,778.331 942.475,805.094 z" id="boundary" inkscape:connector-curvature="0" />
	<path style="fill:none;stroke:red;stroke-width:1px;stroke-linecap:butt;stroke-linejoin:miter;stroke-opacity:1" d="M 942.475,805.094 924.633,822.935 z" id="boundary" inkscape:connector-curvature="0" />
	<path style="fill:none;stroke:red;stroke-width:1px;stroke-linecap:butt;stroke-linejoin:miter;stroke-opacity:1" d="M 924.633,822.935 915.712,840.777 z" id="boundary" inkscape:connector-curvature="0" />
	<path style="fill:none;stroke:red;stroke-width:1px;stroke-linecap:butt;stroke-linejoin:miter;stroke-opacity:1" d="M 915.712,840.777 897.871,858.619 z" id="boundary" inkscape:connector-curvature="0" />
	<path style="fill:none;stroke:red;stroke-width:1px;stroke-linecap:butt;stroke-linejoin:miter;stroke-opacity:1" d="M 897.871,858.619 880.029,867.54 z" id="boundary" inkscape:connector-curvature="0" />
	<path style="fill:none;stroke:red;stroke-width:1px;stroke-linecap:butt;stroke-linejoin:miter;stroke-opacity:1" d="M 880.029,867.54 872.892,885.381 z" id="boundary" inkscape:connector-curvature="0" />
	<path style="fill:none;stroke:red;stroke-width:1px;stroke-linecap:butt;stroke-linejoin:miter;stroke-opacity:1" d="M 872.892,885.381 855.05,885.381 z" id="boundary" inkscape:connector-curvature="0" />
	<path style="fill:none;stroke:red;stroke-width:1px;stroke-linecap:butt;stroke-linejoin:miter;stroke-opacity:1" d="M 855.05,885.381 838.993,894.302 z" id="boundary" inkscape:connector-curvature="0" />
	<path style="fill:none;stroke:red;stroke-width:1px;stroke-linecap:butt;stroke-linejoin:miter;stroke-opacity:1" d="M 838.993,894.302 824.719,906.791 z" id="boundary" inkscape:connector-curvature="0" />
	<path style="fill:none;stroke:red;stroke-width:1px;stroke-linecap:butt;stroke-linejoin:miter;stroke-opacity:1" d="M 824.719,906.791 806.878,912.144 z" id="boundary" inkscape:connector-curvature="0" />
	<path style="fill:none;stroke:red;stroke-width:1px;stroke-linecap:butt;stroke-linejoin:miter;stroke-opacity:1" d="M 806.878,912.144 789.036,912.144 z" id="boundary" inkscape:connector-curvature="0" />
	<path style="fill:none;stroke:red;stroke-width:1px;stroke-linecap:butt;stroke-linejoin:miter;stroke-opacity:1" d="M 789.036,912.144 772.978,921.065 z" id="boundary" inkscape:connector-curvature="0" />
	<path style="fill:none;stroke:red;stroke-width:1px;stroke-linecap:butt;stroke-linejoin:miter;stroke-opacity:1" d="M 772.978,921.065 755.137,921.065 z" id="boundary" inkscape:connector-curvature="0" />
	<path style="fill:none;stroke:red;stroke-width:1px;stroke-linecap:butt;stroke-linejoin:miter;stroke-opacity:1" d="M 755.137,921.065 744.432,938.906 z" id="boundary" inkscape:connector-curvature="0" />
	<path style="fill:none;stroke:red;stroke-width:1px;stroke-linecap:butt;stroke-linejoin:miter;stroke-opacity:1" d="M 744.432,938.906 726.59,938.906 z" id="boundary" inkscape:connector-curvature="0" />
	<path style="fill:none;stroke:red;stroke-width:1px;stroke-linecap:butt;stroke-linejoin:miter;stroke-opacity:1" d="M 726.59,938.906 710.532,947.827 z" id="boundary" inkscape:connector-curvature="0" />
	<path style="fill:none;stroke:red;stroke-width:1px;stroke-linecap:butt;stroke-linejoin:miter;stroke-opacity:1" d="M 710.532,947.827 692.691,947.827 z" id="boundary" inkscape:connector-curvature="0" />
	<path style="fill:none;stroke:red;stroke-width:1px;stroke-linecap:butt;stroke-linejoin:miter;stroke-opacity:1" d="M 692.691,947.827 674.849,947.827 z" id="boundary" inkscape:connector-curvature="0" />
	<path style="fill:none;stroke:red;stroke-width:1px;stroke-linecap:butt;stroke-linejoin:miter;stroke-opacity:1" d="M 674.849,947.827 657.007,947.827 z" id="boundary" inkscape:connector-curvature="0" />
	<path style="fill:none;stroke:red;stroke-width:1px;stroke-linecap:butt;stroke-linejoin:miter;stroke-opacity:1" d="M 657.007,947.827 640.95,965.669 z" id="boundary" inkscape:connector-curvature="0" />
	<path style="fill:none;stroke:red;stroke-width:1px;stroke-linecap:butt;stroke-linejoin:miter;stroke-opacity:1" d="M 640.95,965.669 623.108,965.669 z" id="boundary" inkscape:connector-curvature="0" />
	<path style="fill:none;stroke:red;stroke-width:1px;stroke-linecap:butt;stroke-linejoin:miter;stroke-opacity:1" d="M 623.108,965.669 605.266,965.669 z" id="boundary" inkscape:connector-curvature="0" />
	<path style="fill:none;stroke:red;stroke-width:1px;stroke-linecap:butt;stroke-linejoin:miter;stroke-opacity:1" d="M 605.266,965.669 587.424,965.669 z" id="boundary" inkscape:connector-curvature="0" />
	<path style="fill:none;stroke:red;stroke-width:1px;stroke-linecap:butt;stroke-linejoin:miter;stroke-opacity:1" d="M 587.424,965.669 569.583,965.669 z" id="boundary" inkscape:connector-curvature="0" />
	<path style="fill:none;stroke:red;stroke-width:1px;stroke-linecap:butt;stroke-linejoin:miter;stroke-opacity:1" d="M 569.583,965.669 551.741,965.669 z" id="boundary" inkscape:connector-curvature="0" />
	<path style="fill:none;stroke:red;stroke-width:1px;stroke-linecap:butt;stroke-linejoin:miter;stroke-opacity:1" d="M 551.741,965.669 535.683,974.59 z" id="boundary" inkscape:connector-curvature="0" />
	<path style="fill:none;stroke:red;stroke-width:1px;stroke-linecap:butt;stroke-linejoin:miter;stroke-opacity:1" d="M 535.683,974.59 517.842,974.59 z" id="boundary" inkscape:connector-curvature="0" />
	<path style="fill:none;stroke:red;stroke-width:1px;stroke-linecap:butt;stroke-linejoin:miter;stroke-opacity:1" d="M 517.842,974.59 500,974.59 z" id="boundary" inkscape:connector-curvature="0" />
	<path style="fill:none;stroke:red;stroke-width:1px;stroke-linecap:butt;stroke-linejoin:miter;stroke-opacity:1" d="M 500,974.59 482.158,974.59 z" id="boundary" inkscape:connector-curvature="0" />
	<path style="fill:none;stroke:red;stroke-width:1px;stroke-linecap:butt;stroke-linejoin:miter;stroke-opacity:1" d="M 482.158,974.59 464.317,972.806 z" id="boundary" inkscape:connector-curvature="0" />
	<path style="fill:none;stroke:red;stroke-width:1px;stroke-linecap:butt;stroke-linejoin:miter;stroke-opacity:1" d="M 464.317,972.806 446.475,965.669 z" id="boundary" inkscape:connector-curvature="0" />
	<path style="fill:none;stroke:red;stroke-width:1px;stroke-linecap:butt;stroke-linejoin:miter;stroke-opacity:1" d="M 446.475,965.669 428.633,965.669 z" id="boundary" inkscape:connector-curvature="0" />
	<path style="fill:none;stroke:red;stroke-width:1px;stroke-linecap:butt;stroke-linejoin:miter;stroke-opacity:1" d="M 428.633,965.669 410.791,965.669 z" id="boundary" inkscape:connector-curvature="0" />
	<path style="fill:none;stroke:red;stroke-width:1px;stroke-linecap:butt;stroke-linejoin:miter;stroke-opacity:1" d="M 410.791,965.669 392.95,965.669 z" id="boundary" inkscape:connector-curvature="0" />
	<path style="fill:none;stroke:red;stroke-width:1px;stroke-linecap:butt;stroke-linejoin:miter;stroke-opacity:1" d="M 392.95,965.669 375.108,965.669 z" id="boundary" inkscape:connector-curvature="0" />
	<path style="fill:none;stroke:red;stroke-width:1px;stroke-linecap:butt;stroke-linejoin:miter;stroke-opacity:1" d="M 375.108,965.669 357.266,963.885 z" id="boundary" inkscape:connector-curvature="0" />
	<path style="fill:none;stroke:red;stroke-width:1px;stroke-linecap:butt;stroke-linejoin:miter;stroke-opacity:1" d="M 357.266,963.885 348.345,947.827 z" id="boundary" inkscape:connector-curvature="0" />
	<path style="fill:none;stroke:red;stroke-width:1px;stroke-linecap:butt;stroke-linejoin:miter;stroke-opacity:1" d="M 348.345,947.827 330.504,947.827 z" id="boundary" inkscape:connector-curvature="0" />
	<path style="fill:none;stroke:red;stroke-width:1px;stroke-linecap:butt;stroke-linejoin:miter;stroke-opacity:1" d="M 330.504,947.827 312.662,947.827 z" id="boundary" inkscape:connector-curvature="0" />
	<path style="fill:none;stroke:red;stroke-width:1px;stroke-linecap:butt;stroke-linejoin:miter;stroke-opacity:1" d="M 312.662,947.827 294.82,946.043 z" id="boundary" inkscape:connector-curvature="0" />
	<path style="fill:none;stroke:red;stroke-width:1px;stroke-linecap:butt;stroke-linejoin:miter;stroke-opacity:1" d="M 294.82,946.043 276.978,938.906 z" id="boundary" inkscape:connector-curvature="0" />
	<path style="fill:none;stroke:red;stroke-width:1px;stroke-linecap:butt;stroke-linejoin:miter;stroke-opacity:1" d="M 276.978,938.906 259.137,937.122 z" id="boundary" inkscape:connector-curvature="0" />
	<path style="fill:none;stroke:red;stroke-width:1px;stroke-linecap:butt;stroke-linejoin:miter;stroke-opacity:1" d="M 259.137,937.122 250.216,921.065 z" id="boundary" inkscape:connector-curvature="0" />
	<path style="fill:none;stroke:red;stroke-width:1px;stroke-linecap:butt;stroke-linejoin:miter;stroke-opacity:1" d="M 250.216,921.065 232.374,921.065 z" id="boundary" inkscape:connector-curvature="0" />
	<path style="fill:none;stroke:red;stroke-width:1px;stroke-linecap:butt;stroke-linejoin:miter;stroke-opacity:1" d="M 232.374,921.065 214.532,919.281 z" id="boundary" inkscape:connector-curvature="0" />
	<path style="fill:none;stroke:red;stroke-width:1px;stroke-linecap:butt;stroke-linejoin:miter;stroke-opacity:1" d="M 214.532,919.281 196.691,912.144 z" id="boundary" inkscape:connector-curvature="0" />
	<path style="fill:none;stroke:red;stroke-width:1px;stroke-linecap:butt;stroke-linejoin:miter;stroke-opacity:1" d="M 196.691,912.144 178.849,910.36 z" id="boundary" inkscape:connector-curvature="0" />
	<path style="fill:none;stroke:red;stroke-width:1px;stroke-linecap:butt;stroke-linejoin:miter;stroke-opacity:1" d="M 178.849,910.36 169.928,894.302 z" id="boundary" inkscape:connector-curvature="0" />
	<path style="fill:none;stroke:red;stroke-width:1px;stroke-linecap:butt;stroke-linejoin:miter;stroke-opacity:1" d="M 169.928,894.302 152.086,892.518 z" id="boundary" inkscape:connector-curvature="0" />
	<path style="fill:none;stroke:red;stroke-width:1px;stroke-linecap:butt;stroke-linejoin:miter;stroke-opacity:1" d="M 152.086,892.518 134.245,885.381 z" id="boundary" inkscape:connector-curvature="0" />
	<path style="fill:none;stroke:red;stroke-width:1px;stroke-linecap:butt;stroke-linejoin:miter;stroke-opacity:1" d="M 134.245,885.381 119.971,872.892 z" id="boundary" inkscape:connector-curvature="0" />
	<path style="fill:none;stroke:red;stroke-width:1px;stroke-linecap:butt;stroke-linejoin:miter;stroke-opacity:1" d="M 119.971,872.892 107.482,858.619 z" id="boundary" inkscape:connector-curvature="0" />
	<path style="fill:none;stroke:red;stroke-width:1px;stroke-linecap:butt;stroke-linejoin:miter;stroke-opacity:1" d="M 107.482,858.619 93.2086,847.914 z" id="boundary" inkscape:connector-curvature="0" />
	<path style="fill:none;stroke:red;stroke-width:1px;stroke-linecap:butt;stroke-linejoin:miter;stroke-opacity:1" d="M 93.2086,847.914 84.2878,831.856 z" id="boundary" inkscape:connector-curvature="0" />
	<path style="fill:none;stroke:red;stroke-width:1px;stroke-linecap:butt;stroke-linejoin:miter;stroke-opacity:1" d="M 84.2878,831.856 66.446,826.504 z" id="boundary" inkscape:connector-curvature="0" />
	<path style="fill:none;stroke:red;stroke-width:1px;stroke-linecap:butt;stroke-linejoin:miter;stroke-opacity:1" d="M 66.446,826.504 57.5252,810.446 z" id="boundary" inkscape:connector-curvature="0" />
	<path style="fill:none;stroke:red;stroke-width:1px;stroke-linecap:butt;stroke-linejoin:miter;stroke-opacity:1" d="M 57.5252,810.446 41.4676,801.525 z" id="boundary" inkscape:connector-curvature="0" />
	<path style="fill:none;stroke:red;stroke-width:1px;stroke-linecap:butt;stroke-linejoin:miter;stroke-opacity:1" d="M 41.4676,801.525 39.6835,783.683 z" id="boundary" inkscape:connector-curvature="0" />
	<path style="fill:none;stroke:red;stroke-width:1px;stroke-linecap:butt;stroke-linejoin:miter;stroke-opacity:1" d="M 39.6835,783.683 30.7626,767.626 z" id="boundary" inkscape:connector-curvature="0" />
	<path style="fill:none;stroke:red;stroke-width:1px;stroke-linecap:butt;stroke-linejoin:miter;stroke-opacity:1" d="M 30.7626,767.626 21.8417,751.568 z" id="boundary" inkscape:connector-curvature="0" />
	<path style="fill:none;stroke:red;stroke-width:1px;stroke-linecap:butt;stroke-linejoin:miter;stroke-opacity:1" d="M 21.8417,751.568 12.9209,735.511 z" id="boundary" inkscape:connector-curvature="0" />
	<path style="fill:none;stroke:red;stroke-width:1px;stroke-linecap:butt;stroke-linejoin:miter;stroke-opacity:1" d="M 12.9209,735.511 12.9209,717.669 z" id="boundary" inkscape:connector-curvature="0" />
	<path style="fill:none;stroke:red;stroke-width:1px;stroke-linecap:butt;stroke-linejoin:miter;stroke-opacity:1" d="M 12.9209,717.669 4,701.612 z" id="boundary" inkscape:connector-curvature="0" />
	<path style="fill:none;stroke:red;stroke-width:1px;stroke-linecap:butt;stroke-linejoin:miter;stroke-opacity:1" d="M 4,701.612 4,683.77 z" id="boundary" inkscape:connector-curvature="0" />
	<path style="fill:none;stroke:red;stroke-width:1px;stroke-linecap:butt;stroke-linejoin:miter;stroke-opacity:1" d="M 4,683.77 4,665.928 z" id="boundary" inkscape:connector-curvature="0" />
	<path style="fill:none;stroke:red;stroke-width:1px;stroke-linecap:butt;stroke-linejoin:miter;stroke-opacity:1" d="M 4,665.928 12.9209,648.086 z" id="boundary" inkscape:connector-curvature="0" />
	<path style="fill:none;stroke:red;stroke-width:1px;stroke-linecap:butt;stroke-linejoin:miter;stroke-opacity:1" d="M 12.9209,648.086 12.9209,630.245 z" id="boundary" inkscape:connector-curvature="0" />
	<path style="fill:none;stroke:red;stroke-width:1px;stroke-linecap:butt;stroke-linejoin:miter;stroke-opacity:1" d="M 12.9209,630.245 30.7626,621.324 z" id="boundary" inkscape:connector-curvature="0" />
	<path style="fill:none;stroke:red;stroke-width:1px;stroke-linecap:butt;stroke-linejoin:miter;stroke-opacity:1" d="M 30.7626,621.324 30.7626,603.482 z" id="boundary" inkscape:connector-curvature="0" />
	<path style="fill:none;stroke:red;stroke-width:1px;stroke-linecap:butt;stroke-linejoin:miter;stroke-opacity:1" d="M 30.7626,603.482 39.6835,585.64 z" id="boundary" inkscape:connector-curvature="0" />
	<path style="fill:none;stroke:red;stroke-width:1px;stroke-linecap:butt;stroke-linejoin:miter;stroke-opacity:1" d="M 39.6835,585.64 57.5252,576.719 z" id="boundary" inkscape:connector-curvature="0" />
	<path style="fill:none;stroke:red;stroke-width:1px;stroke-linecap:butt;stroke-linejoin:miter;stroke-opacity:1" d="M 57.5252,576.719 57.5252,558.878 z" id="boundary" inkscape:connector-curvature="0" />
	<path style="fill:none;stroke:red;stroke-width:1px;stroke-linecap:butt;stroke-linejoin:miter;stroke-opacity:1" d="M 57.5252,558.878 71.7986,544.604 z" id="boundary" inkscape:connector-curvature="0" />
	<path style="fill:none;stroke:red;stroke-width:1px;stroke-linecap:butt;stroke-linejoin:miter;stroke-opacity:1" d="M 71.7986,544.604 86.0719,530.331 z" id="boundary" inkscape:connector-curvature="0" />
	<path style="fill:none;stroke:red;stroke-width:1px;stroke-linecap:butt;stroke-linejoin:miter;stroke-opacity:1" d="M 86.0719,530.331 103.914,526.763 z" id="boundary" inkscape:connector-curvature="0" />
	<path style="fill:none;stroke:red;stroke-width:1px;stroke-linecap:butt;stroke-linejoin:miter;stroke-opacity:1" d="M 103.914,526.763 119.971,514.273 z" id="boundary" inkscape:connector-curvature="0" />
	<path style="fill:none;stroke:red;stroke-width:1px;stroke-linecap:butt;stroke-linejoin:miter;stroke-opacity:1" d="M 119.971,514.273 137.813,508.921 z" id="boundary" inkscape:connector-curvature="0" />
	<path style="fill:none;stroke:red;stroke-width:1px;stroke-linecap:butt;stroke-linejoin:miter;stroke-opacity:1" d="M 137.813,508.921 148.518,494.647 z" id="boundary" inkscape:connector-curvature="0" />
	<path style="fill:none;stroke:red;stroke-width:1px;stroke-linecap:butt;stroke-linejoin:miter;stroke-opacity:1" d="M 148.518,494.647 166.36,491.079 z" id="boundary" inkscape:connector-curvature="0" />
	<path style="fill:none;stroke:red;stroke-width:1px;stroke-linecap:butt;stroke-linejoin:miter;stroke-opacity:1" d="M 166.36,491.079 182.417,482.158 z" id="boundary" inkscape:connector-curvature="0" />
	<path style="fill:none;stroke:red;stroke-width:1px;stroke-linecap:butt;stroke-linejoin:miter;stroke-opacity:1" d="M 182.417,482.158 200.259,482.158 z" id="boundary" inkscape:connector-curvature="0" />
	<path style="fill:none;stroke:red;stroke-width:1px;stroke-linecap:butt;stroke-linejoin:miter;stroke-opacity:1" d="M 200.259,482.158 210.964,467.885 z" id="boundary" inkscape:connector-curvature="0" />
	<path style="fill:none;stroke:red;stroke-width:1px;stroke-linecap:butt;stroke-linejoin:miter;stroke-opacity:1" d="M 210.964,467.885 228.806,464.317 z" id="boundary" inkscape:connector-curvature="0" />
	<path style="fill:none;stroke:red;stroke-width:1px;stroke-linecap:butt;stroke-linejoin:miter;stroke-opacity:1" d="M 228.806,464.317 244.863,455.396 z" id="boundary" inkscape:connector-curvature="0" />
	<path style="fill:none;stroke:red;stroke-width:1px;stroke-linecap:butt;stroke-linejoin:miter;stroke-opacity:1" d="M 244.863,455.396 262.705,455.396 z" id="boundary" inkscape:connector-curvature="0" />
	<path style="fill:none;stroke:red;stroke-width:1px;stroke-linecap:butt;stroke-linejoin:miter;stroke-opacity:1" d="M 262.705,455.396 280.547,455.396 z" id="boundary" inkscape:connector-curvature="0" />
	<path style="fill:none;stroke:red;stroke-width:1px;stroke-linecap:butt;stroke-linejoin:miter;stroke-opacity:1" d="M 280.547,455.396 291.252,441.122 z" id="boundary" inkscape:connector-curvature="0" />
	<path style="fill:none;stroke:red;stroke-width:1px;stroke-linecap:butt;stroke-linejoin:miter;stroke-opacity:1" d="M 291.252,441.122 309.094,437.554 z" id="boundary" inkscape:connector-curvature="0" />
	<path style="fill:none;stroke:red;stroke-width:1px;stroke-linecap:butt;stroke-linejoin:miter;stroke-opacity:1" d="M 309.094,437.554 326.935,437.554 z" id="boundary" inkscape:connector-curvature="0" />
	<path style="fill:none;stroke:red;stroke-width:1px;stroke-linecap:butt;stroke-linejoin:miter;stroke-opacity:1" d="M 326.935,437.554 344.777,432.201 z" id="boundary" inkscape:connector-curvature="0" />
	<path style="fill:none;stroke:red;stroke-width:1px;stroke-linecap:butt;stroke-linejoin:miter;stroke-opacity:1" d="M 344.777,432.201 362.619,428.633 z" id="boundary" inkscape:connector-curvature="0" />
	<path style="fill:none;stroke:red;stroke-width:1px;stroke-linecap:butt;stroke-linejoin:miter;stroke-opacity:1" d="M 362.619,428.633 380.46,428.633 z" id="boundary" inkscape:connector-curvature="0" />
	<path style="fill:none;stroke:red;stroke-width:1px;stroke-linecap:butt;stroke-linejoin:miter;stroke-opacity:1" d="M 380.46,428.633 396.518,416.144 z" id="boundary" inkscape:connector-curvature="0" />
	<path style="fill:none;stroke:red;stroke-width:1px;stroke-linecap:butt;stroke-linejoin:miter;stroke-opacity:1" d="M 396.518,416.144 414.36,410.791 z" id="boundary" inkscape:connector-curvature="0" />
	<path style="fill:none;stroke:red;stroke-width:1px;stroke-linecap:butt;stroke-linejoin:miter;stroke-opacity:1" d="M 414.36,410.791 423.281,389.381 z" id="boundary" inkscape:connector-curvature="0" />
	<path style="fill:none;stroke:red;stroke-width:1px;stroke-linecap:butt;stroke-linejoin:miter;stroke-opacity:1" d="M 423.281,389.381 432.201,362.619 z" id="boundary" inkscape:connector-curvature="0" />
	<path style="fill:none;stroke:red;stroke-width:1px;stroke-linecap:butt;stroke-linejoin:miter;stroke-opacity:1" d="M 432.201,362.619 432.201,344.777 z" id="boundary" inkscape:connector-curvature="0" />
	<path style="fill:none;stroke:red;stroke-width:1px;stroke-linecap:butt;stroke-linejoin:miter;stroke-opacity:1" d="M 432.201,344.777 441.122,326.935 z" id="boundary" inkscape:connector-curvature="0" />
	<path style="fill:none;stroke:red;stroke-width:1px;stroke-linecap:butt;stroke-linejoin:miter;stroke-opacity:1" d="M 441.122,326.935 441.122,309.094 z" id="boundary" inkscape:connector-curvature="0" />
	<path style="fill:none;stroke:red;stroke-width:1px;stroke-linecap:butt;stroke-linejoin:miter;stroke-opacity:1" d="M 441.122,309.094 441.122,291.252 z" id="boundary" inkscape:connector-curvature="0" />
	<path style="fill:none;stroke:red;stroke-width:1px;stroke-linecap:butt;stroke-linejoin:miter;stroke-opacity:1" d="M 441.122,291.252 458.964,273.41 z" id="boundary" inkscape:connector-curvature="0" />
	<path style="fill:none;stroke:red;stroke-width:1px;stroke-linecap:butt;stroke-linejoin:miter;stroke-opacity:1" d="M 458.964,273.41 458.964,255.568 z" id="boundary" inkscape:connector-curvature="0" />
	<path style="fill:none;stroke:red;stroke-width:1px;stroke-linecap:butt;stroke-linejoin:miter;stroke-opacity:1" d="M 458.964,255.568 458.964,237.727 z" id="boundary" inkscape:connector-curvature="0" />
	<path style="fill:none;stroke:red;stroke-width:1px;stroke-linecap:butt;stroke-linejoin:miter;stroke-opacity:1" d="M 458.964,237.727 467.885,219.885 z" id="boundary" inkscape:connector-curvature="0" />
	<path style="fill:none;stroke:red;stroke-width:1px;stroke-linecap:butt;stroke-linejoin:miter;stroke-opacity:1" d="M 467.885,219.885 467.885,202.043 z" id="boundary" inkscape:connector-curvature="0" />
	<path style="fill:none;stroke:red;stroke-width:1px;stroke-linecap:butt;stroke-linejoin:miter;stroke-opacity:1" d="M 467.885,202.043 467.885,184.201 z" id="boundary" inkscape:connector-curvature="0" />
	<path style="fill:none;stroke:red;stroke-width:1px;stroke-linecap:butt;stroke-linejoin:miter;stroke-opacity:1" d="M 467.885,184.201 485.727,166.36 z" id="boundary" inkscape:connector-curvature="0" />
	<path style="fill:none;stroke:red;stroke-width:1px;stroke-linecap:butt;stroke-linejoin:miter;stroke-opacity:1" d="M 485.727,166.36 485.727,148.518 z" id="boundary" inkscape:connector-curvature="0" />
	<path style="fill:none;stroke:red;stroke-width:1px;stroke-linecap:butt;stroke-linejoin:miter;stroke-opacity:1" d="M 485.727,148.518 485.727,130.676 z" id="boundary" inkscape:connector-curvature="0" />
	<path style="fill:none;stroke:red;stroke-width:1px;stroke-linecap:butt;stroke-linejoin:miter;stroke-opacity:1" d="M 485.727,130.676 494.647,112.835 z" id="boundary" inkscape:connector-curvature="0" />
	<path style="fill:none;stroke:red;stroke-width:1px;stroke-linecap:butt;stroke-linejoin:miter;stroke-opacity:1" d="M 494.647,112.835 494.647,94.9928 z" id="boundary" inkscape:connector-curvature="0" />
	<path style="fill:none;stroke:red;stroke-width:1px;stroke-linecap:butt;stroke-linejoin:miter;stroke-opacity:1" d="M 494.647,94.9928 494.647,77.1511 z" id="boundary" inkscape:connector-curvature="0" />
	<path style="fill:none;stroke:red;stroke-width:1px;stroke-linecap:butt;stroke-linejoin:miter;stroke-opacity:1" d="M 494.647,77.1511 512.489,68.2302 z" id="boundary" inkscape:connector-curvature="0" />
	<path style="fill:none;stroke:red;stroke-width:1px;stroke-linecap:butt;stroke-linejoin:miter;stroke-opacity:1" d="M 512.489,68.2302 512.489,50.3885 z" id="boundary" inkscape:connector-curvature="0" />
	<path style="fill:none;stroke:red;stroke-width:1px;stroke-linecap:butt;stroke-linejoin:miter;stroke-opacity:1" d="M 512.489,50.3885 512.489,32.5468 z" id="boundary" inkscape:connector-curvature="0" />
	<path style="fill:none;stroke:red;stroke-width:1px;stroke-linecap:butt;stroke-linejoin:miter;stroke-opacity:1" d="M 512.489,32.5468 521.41,5.78417 z" id="boundary" inkscape:connector-curvature="0" />
	<path style="fill:none;stroke:red;stroke-width:1px;stroke-linecap:butt;stroke-linejoin:miter;stroke-opacity:1" d="M 521.41,5.78417 539.252,4 z" id="boundary" inkscape:connector-curvature="0" />
	<path style="fill:none;stroke:red;stroke-width:1px;stroke-linecap:butt;stroke-linejoin:miter;stroke-opacity:1" d="M 539.252,4 541.036,21.8417 z" id="boundary" inkscape:connector-curvature="0" />
	<path style="fill:none;stroke:red;stroke-width:1px;stroke-linecap:butt;stroke-linejoin:miter;stroke-opacity:1" d="M 541.036,21.8417 546.388,39.6835 z" id="boundary" inkscape:connector-curvature="0" />
	<path style="fill:none;stroke:red;stroke-width:1px;stroke-linecap:butt;stroke-linejoin:miter;stroke-opacity:1" d="M 546.388,39.6835 549.957,57.5252 z" id="boundary" inkscape:connector-curvature="0" />
	<path style="fill:none;stroke:red;stroke-width:1px;stroke-linecap:butt;stroke-linejoin:miter;stroke-opacity:1" d="M 549.957,57.5252 549.957,75.3669 z" id="boundary" inkscape:connector-curvature="0" />
	<path style="fill:none;stroke:red;stroke-width:1px;stroke-linecap:butt;stroke-linejoin:miter;stroke-opacity:1" d="M 549.957,75.3669 549.957,93.2086 z" id="boundary" inkscape:connector-curvature="0" />
	<path style="fill:none;stroke:red;stroke-width:1px;stroke-linecap:butt;stroke-linejoin:miter;stroke-opacity:1" d="M 549.957,93.2086 566.014,102.129 z" id="boundary" inkscape:connector-curvature="0" />
	<path style="fill:none;stroke:red;stroke-width:1px;stroke-linecap:butt;stroke-linejoin:miter;stroke-opacity:1" d="M 566.014,102.129 567.799,119.971 z" id="boundary" inkscape:connector-curvature="0" />
	<path style="fill:none;stroke:red;stroke-width:1px;stroke-linecap:butt;stroke-linejoin:miter;stroke-opacity:1" d="M 567.799,119.971 567.799,137.813 z" id="boundary" inkscape:connector-curvature="0" />
	<path style="fill:none;stroke:red;stroke-width:1px;stroke-linecap:butt;stroke-linejoin:miter;stroke-opacity:1" d="M 567.799,137.813 567.799,155.655 z" id="boundary" inkscape:connector-curvature="0" />
	<path style="fill:none;stroke:red;stroke-width:1px;stroke-linecap:butt;stroke-linejoin:miter;stroke-opacity:1" d="M 567.799,155.655 567.799,173.496 z" id="boundary" inkscape:connector-curvature="0" />
	<path style="fill:none;stroke:red;stroke-width:1px;stroke-linecap:butt;stroke-linejoin:miter;stroke-opacity:1" d="M 567.799,173.496 576.719,189.554 z" id="boundary" inkscape:connector-curvature="0" />
	<path style="fill:none;stroke:red;stroke-width:1px;stroke-linecap:butt;stroke-linejoin:miter;stroke-opacity:1" d="M 576.719,189.554 576.719,207.396 z" id="boundary" inkscape:connector-curvature="0" />
	<path style="fill:none;stroke:red;stroke-width:1px;stroke-linecap:butt;stroke-linejoin:miter;stroke-opacity:1" d="M 576.719,207.396 576.719,225.237 z" id="boundary" inkscape:connector-curvature="0" />
	<path style="fill:none;stroke:red;stroke-width:1px;stroke-linecap:butt;stroke-linejoin:miter;stroke-opacity:1" d="M 576.719,225.237 580.288,243.079 z" id="boundary" inkscape:connector-curvature="0" />
	<path style="fill:none;stroke:red;stroke-width:1px;stroke-linecap:butt;stroke-linejoin:miter;stroke-opacity:1" d="M 580.288,243.079 585.64,260.921 z" id="boundary" inkscape:connector-curvature="0" />
	<path style="fill:none;stroke:red;stroke-width:1px;stroke-linecap:butt;stroke-linejoin:miter;stroke-opacity:1" d="M 585.64,260.921 585.64,278.763 z" id="boundary" inkscape:connector-curvature="0" />
	<path style="fill:none;stroke:red;stroke-width:1px;stroke-linecap:butt;stroke-linejoin:miter;stroke-opacity:1" d="M 585.64,278.763 585.64,296.604 z" id="boundary" inkscape:connector-curvature="0" />
	<path style="fill:none;stroke:red;stroke-width:1px;stroke-linecap:butt;stroke-linejoin:miter;stroke-opacity:1" d="M 585.64,296.604 594.561,312.662 z" id="boundary" inkscape:connector-curvature="0" />
	<path style="fill:none;stroke:red;stroke-width:1px;stroke-linecap:butt;stroke-linejoin:miter;stroke-opacity:1" d="M 594.561,312.662 603.482,328.719 z" id="boundary" inkscape:connector-curvature="0" />
	<path style="fill:none;stroke:red;stroke-width:1px;stroke-linecap:butt;stroke-linejoin:miter;stroke-opacity:1" d="M 603.482,328.719 603.482,346.561 z" id="boundary" inkscape:connector-curvature="0" />
	<path style="fill:none;stroke:red;stroke-width:1px;stroke-linecap:butt;stroke-linejoin:miter;stroke-opacity:1" d="M 603.482,346.561 603.482,364.403 z" id="boundary" inkscape:connector-curvature="0" />
	<path style="fill:none;stroke:red;stroke-width:1px;stroke-linecap:butt;stroke-linejoin:miter;stroke-opacity:1" d="M 603.482,364.403 603.482,382.245 z" id="boundary" inkscape:connector-curvature="0" />
	<path style="fill:none;stroke:red;stroke-width:1px;stroke-linecap:butt;stroke-linejoin:miter;stroke-opacity:1" d="M 603.482,382.245 612.403,398.302 z" id="boundary" inkscape:connector-curvature="0" />
	<path style="fill:none;stroke:red;stroke-width:1px;stroke-linecap:butt;stroke-linejoin:miter;stroke-opacity:1" d="M 612.403,398.302 624.892,412.576 z" id="boundary" inkscape:connector-curvature="0" />
	<path style="fill:none;stroke:red;stroke-width:1px;stroke-linecap:butt;stroke-linejoin:miter;stroke-opacity:1" d="M 624.892,412.576 633.813,428.633 z" id="boundary" inkscape:connector-curvature="0" />
	<path style="fill:none;stroke:red;stroke-width:1px;stroke-linecap:butt;stroke-linejoin:miter;stroke-opacity:1" d="M 633.813,428.633 651.655,428.633 z" id="boundary" inkscape:connector-curvature="0" />
	<path style="fill:none;stroke:red;stroke-width:1px;stroke-linecap:butt;stroke-linejoin:miter;stroke-opacity:1" d="M 651.655,428.633 669.496,428.633 z" id="boundary" inkscape:connector-curvature="0" />
	<path style="fill:none;stroke:red;stroke-width:1px;stroke-linecap:butt;stroke-linejoin:miter;stroke-opacity:1" d="M 669.496,428.633 685.554,437.554 z" id="boundary" inkscape:connector-curvature="0" />
	<path style="fill:none;stroke:red;stroke-width:1px;stroke-linecap:butt;stroke-linejoin:miter;stroke-opacity:1" d="M 685.554,437.554 703.396,437.554 z" id="boundary" inkscape:connector-curvature="0" />
	<path style="fill:none;stroke:red;stroke-width:1px;stroke-linecap:butt;stroke-linejoin:miter;stroke-opacity:1" d="M 703.396,437.554 721.237,437.554 z" id="boundary" inkscape:connector-curvature="0" />
	<path style="fill:none;stroke:red;stroke-width:1px;stroke-linecap:butt;stroke-linejoin:miter;stroke-opacity:1" d="M 721.237,437.554 737.295,446.475 z" id="boundary" inkscape:connector-curvature="0" />
	<path style="fill:none;stroke:red;stroke-width:1px;stroke-linecap:butt;stroke-linejoin:miter;stroke-opacity:1" d="M 737.295,446.475 753.353,455.396 z" id="boundary" inkscape:connector-curvature="0" />
	<path style="fill:none;stroke:red;stroke-width:1px;stroke-linecap:butt;stroke-linejoin:miter;stroke-opacity:1" d="M 753.353,455.396 771.194,455.396 z" id="boundary" inkscape:connector-curvature="0" />
	<path style="fill:none;stroke:red;stroke-width:1px;stroke-linecap:butt;stroke-linejoin:miter;stroke-opacity:1" d="M 771.194,455.396 787.252,464.317 z" id="boundary" inkscape:connector-curvature="0" />
	<path style="fill:none;stroke:red;stroke-width:1px;stroke-linecap:butt;stroke-linejoin:miter;stroke-opacity:1" d="M 787.252,464.317 805.094,466.101 z" id="boundary" inkscape:connector-curvature="0" />
	<path style="fill:none;stroke:red;stroke-width:1px;stroke-linecap:butt;stroke-linejoin:miter;stroke-opacity:1" d="M 805.094,466.101 814.014,482.158 z" id="boundary" inkscape:connector-curvature="0" />
	<path style="fill:none;stroke:red;stroke-width:1px;stroke-linecap:butt;stroke-linejoin:miter;stroke-opacity:1" d="M 814.014,482.158 831.856,483.942 z" id="boundary" inkscape:connector-curvature="0" />
	<path style="fill:none;stroke:red;stroke-width:1px;stroke-linecap:butt;stroke-linejoin:miter;stroke-opacity:1" d="M 831.856,483.942 849.698,491.079 z" id="boundary" inkscape:connector-curvature="0" />
	<path style="fill:none;stroke:red;stroke-width:1px;stroke-linecap:butt;stroke-linejoin:miter;stroke-opacity:1" d="M 849.698,491.079 862.187,505.353 z" id="boundary" inkscape:connector-curvature="0" />
	<path style="fill:none;stroke:red;stroke-width:1px;stroke-linecap:butt;stroke-linejoin:miter;stroke-opacity:1" d="M 862.187,505.353 880.029,508.921 z" id="boundary" inkscape:connector-curvature="0" />
	<path style="fill:none;stroke:red;stroke-width:1px;stroke-linecap:butt;stroke-linejoin:miter;stroke-opacity:1" d="M 880.029,508.921 894.302,519.626 z" id="boundary" inkscape:connector-curvature="0" />
	<path style="fill:none;stroke:red;stroke-width:1px;stroke-linecap:butt;stroke-linejoin:miter;stroke-opacity:1" d="M 894.302,519.626 910.36,528.547 z" id="boundary" inkscape:connector-curvature="0" />
	<path style="fill:none;stroke:red;stroke-width:1px;stroke-linecap:butt;stroke-linejoin:miter;stroke-opacity:1" d="M 910.36,528.547 919.281,544.604 z" id="boundary" inkscape:connector-curvature="0" />
	<path style="fill:none;stroke:red;stroke-width:1px;stroke-linecap:butt;stroke-linejoin:miter;stroke-opacity:1" d="M 919.281,544.604 924.633,562.446 z" id="boundary" inkscape:connector-curvature="0" />
	<path style="fill:none;stroke:red;stroke-width:1px;stroke-linecap:butt;stroke-linejoin:miter;stroke-opacity:1" d="M 924.633,562.446 938.906,573.151 z" id="boundary" inkscape:connector-curvature="0" />
	<path style="fill:none;stroke:red;stroke-width:1px;stroke-linecap:butt;stroke-linejoin:miter;stroke-opacity:1" d="M 938.906,573.151 951.396,587.424 z" id="boundary" inkscape:connector-curvature="0" />
	<path style="fill:none;stroke:red;stroke-width:1px;stroke-linecap:butt;stroke-linejoin:miter;stroke-opacity:1" d="M 951.396,587.424 965.669,599.914 z" id="boundary" inkscape:connector-curvature="0" />
	<path style="fill:none;stroke:red;stroke-width:1px;stroke-linecap:butt;stroke-linejoin:miter;stroke-opacity:1" d="M 965.669,599.914 969.237,617.755 z" id="boundary" inkscape:connector-curvature="0" />
	<path style="fill:none;stroke:red;stroke-width:1px;stroke-linecap:butt;stroke-linejoin:miter;stroke-opacity:1" d="M 969.237,617.755 978.158,633.813 z" id="boundary" inkscape:connector-curvature="0" />
	<path style="fill:none;stroke:red;stroke-width:1px;stroke-linecap:butt;stroke-linejoin:miter;stroke-opacity:1" d="M 978.158,633.813 978.158,651.655 z" id="boundary" inkscape:connector-curvature="0" />
	<path style="fill:none;stroke:red;stroke-width:1px;stroke-linecap:butt;stroke-linejoin:miter;stroke-opacity:1" d="M 978.158,651.655 992.432,662.36 z" id="boundary" inkscape:connector-curvature="0" />
	<path style="fill:none;stroke:red;stroke-width:1px;stroke-linecap:butt;stroke-linejoin:miter;stroke-opacity:1" d="M 992.432,662.36 996,680.201 z" id="boundary" inkscape:connector-curvature="0" />
	<circle cx="4" cy="665.928" r="4" fill="#0" id="circle0"/>
	<circle cx="4" cy="683.77" r="4" fill="#0" id="circle1"/>
	<circle cx="4" cy="701.612" r="4" fill="#0" id="circle2"/>
	<circle cx="12.9209" cy="630.245" r="4" fill="#0" id="circle3"/>
	<circle cx="12.9209" cy="648.086" r="4" fill="#0" id="circle4"/>
	<circle cx="12.9209" cy="717.669" r="4" fill="#0" id="circle5"/>
	<circle cx="12.9209" cy="735.511" r="4" fill="#0" id="circle6"/>
	<circle cx="21.8417" cy="751.568" r="4" fill="#0" id="circle7"/>
	<circle cx="30.7626" cy="603.482" r="4" fill="#0" id="circle8"/>
	<circle cx="30.7626" cy="621.324" r="4" fill="#0" id="circle9"/>
	<circle cx="30.7626" cy="767.626" r="4" fill="#0" id="circle10"/>
	<circle cx="39.6835" cy="585.64" r="4" fill="#0" id="circle11"/>
	<circle cx="39.6835" cy="783.683" r="4" fill="#0" id="circle12"/>
	<circle cx="41.4676" cy="801.525" r="4" fill="#0" id="circle13"/>
	<circle cx="57.5252" cy="558.878" r="4" fill="#0" id="circle14"/>
	<circle cx="57.5252" cy="576.719" r="4" fill="#0" id="circle15"/>
	<circle cx="57.5252" cy="810.446" r="4" fill="#0" id="circle16"/>
	<circle cx="66.446" cy="826.504" r="4" fill="#0" id="circle17"/>
	<circle cx="71.7986" cy="544.604" r="4" fill="#0" id="circle18"/>
	<circle cx="84.2878" cy="831.856" r="4" fill="#0" id="circle19"/>
	<circle cx="86.0719" cy="530.331" r="4" fill="#0" id="circle20"/>
	<circle cx="93.2086" cy="847.914" r="4" fill="#0" id="circle21"/>
	<circle cx="103.914" cy="526.763" r="4" fill="#0" id="circle22"/>
	<circle cx="107.482" cy="858.619" r="4" fill="#0" id="circle23"/>
	<circle cx="119.971" cy="514.273" r="4" fill="#0" id="circle24"/>
	<circle cx="119.971" cy="872.892" r="4" fill="#0" id="circle25"/>
	<circle cx="134.245" cy="885.381" r="4" fill="#0" id="circle26"/>
	<circle cx="137.813" cy="508.921" r="4" fill="#0" id="circle27"/>
	<circle cx="148.518" cy="494.647" r="4" fill="#0" id="circle28"/>
	<circle cx="152.086" cy="892.518" r="4" fill="#0" id="circle29"/>
	<circle cx="166.36" cy="491.079" r="4" fill="#0" id="circle30"/>
	<circle cx="169.928" cy="894.302" r="4" fill="#0" id="circle31"/>
	<circle cx="178.849" cy="910.36" r="4" fill="#0" id="circle32"/>
	<circle cx="182.417" cy="482.158" r="4" fill="#0" id="circle33"/>
	<circle cx="196.691" cy="912.144" r="4" fill="#0" id="circle34"/>
	<circle cx="200.259" cy="482.158" r="4" fill="#0" id="circle35"/>
	<circle cx="210.964" cy="467.885" r="4" fill="#0" id="circle36"/>
	<circle cx="214.532" cy="919.281" r="4" fill="#0" id="circle37"/>
	<circle cx="228.806" cy="464.317" r="4" fill="#0" id="circle38"/>
	<circle cx="232.374" cy="921.065" r="4" fill="#0" id="circle39"/>
	<circle cx="244.863" cy="455.396" r="4" fill="#0" id="circle40"/>
	<circle cx="250.216" cy="921.065" r="4" fill="#0" id="circle41"/>
	<circle cx="259.137" cy="937.122" r="4" fill="#0" id="circle42"/>
	<circle cx="262.705" cy="455.396" r="4" fill="#0" id="circle43"/>
	<circle cx="276.978" cy="938.906" r="4" fill="#0" id="circle44"/>
	<circle cx="280.547" cy="455.396" r="4" fill="#0" id="circle45"/>
	<circle cx="291.252" cy="441.122" r="4" fill="#0" id="circle46"/>
	<circle cx="294.82" cy="946.043" r="4" fill="#0" id="circle47"/>
	<circle cx="309.094" cy="437.554" r="4" fill="#0" id="circle48"/>
	<circle cx="312.662" cy="947.827" r="4" fill="#0" id="circle49"/>
	<circle cx="326.935" cy="437.554" r="4" fill="#0" id="circle50"/>
	<circle cx="330.504" cy="947.827" r="4" fill="#0" id="circle51"/>
	<circle cx="344.777" cy="432.201" r="4" fill="#0" id="circle52"/>
	<circle cx="348.345" cy="947.827" r="4" fill="#0" id="circle53"/>
	<circle cx="357.266" cy="963.885" r="4" fill="#0" id="circle54"/>
	<circle cx="362.619" cy="428.633" r="4" fill="#0" id="circle55"/>
	<circle cx="375.108" cy="965.669" r="4" fill="#0" id="circle56"/>
	<circle cx="380.46" cy="428.633" r="4" fill="#0" id="circle57"/>
	<circle cx="392.95" cy="965.669" r="4" fill="#0" id="circle58"/>
	<circle cx="396.518" cy="416.144" r="4" fill="#0" id="circle59"/>
	<circle cx="410.791" cy="965.669" r="4" fill="#0" id="circle60"/>
	<circle cx="414.36" cy="410.791" r="4" fill="#0" id="circle61"/>
	<circle cx="423.281" cy="389.381" r="4" fill="#0" id="circle62"/>
	<circle cx="428.633" cy="965.669" r="4" fill="#0" id="circle63"/>
	<circle cx="432.201" cy="344.777" r="4" fill="#0" id="circle64"/>
	<circle cx="432.201" cy="362.619" r="4" fill="#0" id="circle65"/>
	<circle cx="441.122" cy="291.252" r="4" fill="#0" id="circle66"/>
	<circle cx="441.122" cy="309.094" r="4" fill="#0" id="circle67"/>
	<circle cx="441.122" cy="326.935" r="4" fill="#0" id="circle68"/>
	<circle cx="446.475" cy="965.669" r="4" fill="#0" id="circle69"/>
	<circle cx="458.964" cy="237.727" r="4" fill="#0" id="circle70"/>
	<circle cx="458.964" cy="255.568" r="4" fill="#0" id="circle71"/>
	<circle cx="458.964" cy="273.41" r="4" fill="#0" id="circle72"/>
	<circle cx="464.317" cy="972.806" r="4" fill="#0" id="circle73"/>
	<circle cx="467.885" cy="184.201" r="4" fill="#0" id="circle74"/>
	<circle cx="467.885" cy="202.043" r="4" fill="#0" id="circle75"/>
	<circle cx="467.885" cy="219.885" r="4" fill="#0" id="circle76"/>
	<circle cx="482.158" cy="974.59" r="4" fill="#0" id="circle77"/>
	<circle cx="485.727" cy="130.676" r="4" fill="#0" id="circle78"/>
	<circle cx="485.727" cy="148.518" r="4" fill="#0" id="circle79"/>
	<circle cx="485.727" cy="166.36" r="4" fill="#0" id="circle80"/>
	<circle cx="494.647" cy="77.1511" r="4" fill="#0" id="circle81"/>
	<circle cx="494.647" cy="94.9928" r="4" fill="#0" id="circle82"/>
	<circle cx="494.647" cy="112.835" r="4" fill="#0" id="circle83"/>
	<circle cx="500" cy="974.59" r="4" fill="#0" id="circle84"/>
	<circle cx="512.489" cy="32.5468" r="4" fill="#0" id="circle85"/>
	<circle cx="512.489" cy="50.3885" r="4" fill="#0" id="circle86"/>
	<circle cx="512.489" cy="68.2302" r="4" fill="#0" id="circle87"/>
	<circle cx="517.842" cy="974.59" r="4" fill="#0" id="circle88"/>
	<circle cx="521.41" cy="5.78417" r="4" fill="#0" id="circle89"/>
	<circle cx="535.683" cy="974.59" r="4" fill="#0" id="circle90"/>
	<circle cx="539.252" cy="4" r="4" fill="#0" id="circle91"/>
	<circle cx="541.036" cy="21.8417" r="4" fill="#0" id="circle92"/>
	<circle cx="546.388" cy="39.6835" r="4" fill="#0" id="circle93"/>
	<circle cx="549.957" cy="57.5252" r="4" fill="#0" id="circle94"/>
	<circle cx="549.957" cy="75.3669" r="4" fill="#0" id="circle95"/>
	<circle cx="549.957" cy="93.2086" r="4" fill="#0" id="circle96"/>
	<circle cx="551.741" cy="965.669" r="4" fill="#0" id="circle97"/>
	<circle cx="566.014" cy="102.129" r="4" fill="#0" id="circle98"/>
	<circle cx="567.799" cy="119.971" r="4" fill="#0" id="circle99"/>
	<circle cx="567.799" cy="137.813" r="4" fill="#0" id="circle100"/>
	<circle cx="567.799" cy="155.655" r="4" fill="#0" id="circle101"/>
	<circle cx="567.799" cy="173.496" r="4" fill="#0" id="circle102"/>
	<circle cx="569.583" cy="965.669" r="4" fill="#0" id="circle103"/>
	<circle cx="576.719" cy="189.554" r="4" fill="#0" id="circle104"/>
	<circle cx="576.719" cy="207.396" r="4" fill="#0" id="circle105"/>
	<circle cx="576.719" cy="225.237" r="4" fill="#0" id="circle106"/>
	<circle cx="580.288" cy="243.079" r="4" fill="#0" id="circle107"/>
	<circle cx="585.64" cy="260.921" r="4" fill="#0" id="circle108"/>
	<circle cx="585.64" cy="278.763" r="4" fill="#0" id="circle109"/>
	<circle cx="585.64" cy="296.604" r="4" fill="#0" id="circle110"/>
	<circle cx="587.424" cy="965.669" r="4" fill="#0" id="circle111"/>
	<circle cx="594.561" cy="312.662" r="4" fill="#0" id="circle112"/>
	<circle cx="603.482" cy="328.719" r="4" fill="#0" id="circle113"/>
	<circle cx="603.482" cy="346.561" r="4" fill="#0" id="circle114"/>
	<circle cx="603.482" cy="364.403" r="4" fill="#0" id="circle115"/>
	<circle cx="603.482" cy="382.245" r="4" fill="#0" id="circle116"/>
	<circle cx="605.266" cy="965.669" r="4" fill="#0" id="circle117"/>
	<circle cx="612.403" cy="398.302" r="4" fill="#0" id="circle118"/>
	<circle cx="623.108" cy="965.669" r="4" fill="#0" id="circle119"/>
	<circle cx="624.892" cy="412.576" r="4" fill="#0" id="circle120"/>
	<circle cx="633.813" cy="428.633" r="4" fill="#0" id="circle121"/>
	<circle cx="640.95" cy="965.669" r="4" fill="#0" id="circle122"/>
	<circle cx="651.655" cy="428.633" r="4" fill="#0" id="circle123"/>
	<circle cx="657.007" cy="947.827" r="4" fill="#0" id="circle124"/>
	<circle cx="669.496" cy="428.633" r="4" fill="#0" id="circle125"/>
	<circle cx="674.849" cy="947.827" r="4" fill="#0" id="circle126"/>
	<circle cx="685.554" cy="437.554" r="4" fill="#0" id="circle127"/>
	<circle cx="692.691" cy="947.827" r="4" fill="#0" id="circle128"/>
	<circle cx="703.396" cy="437.554" r="4" fill="#0" id="circle129"/>
	<circle cx="710.532" cy="947.827" r="4" fill="#0" id="circle130"/>
	<circle cx="721.237" cy="437.554" r="4" fill="#0" id="circle131"/>
	<circle cx="726.59" cy="938.906" r="4" fill="#0" id="circle132"/>
	<circle cx="737.295" cy="446.475" r="4" fill="#0" id="circle133"/>
	<circle cx="744.432" cy="938.906" r="4" fill="#0" id="circle134"/>
	<circle cx="753.353" cy="455.396" r="4" fill="#0" id="circle135"/>
	<circle cx="755.137" cy="921.065" r="4" fill="#0" id="circle136"/>
	<circle cx="771.194" cy="455.396" r="4" fill="#0" id="circle137"/>
	<circle cx="772.978" cy="921.065" r="4" fill="#0" id="circle138"/>
	<circle cx="787.252" cy="464.317" r="4" fill="#0" id="circle139"/>
	<circle cx="789.036" cy="912.144" r="4" fill="#0" id="circle140"/>
	<circle cx="805.094" cy="466.101" r="4" fill="#0" id="circle141"/>
	<circle cx="806.878" cy="912.144" r="4" fill="#0" id="circle142"/>
	<circle cx="814.014" cy="482.158" r="4" fill="#0" id="circle143"/>
	<circle cx="824.719" cy="906.791" r="4" fill="#0" id="circle144"/>
	<circle cx="831.856" cy="483.942" r="4" fill="#0" id="circle145"/>
	<circle cx="838.993" cy="894.302" r="4" fill="#0" id="circle146"/>
	<circle cx="849.698" cy="491.079" r="4" fill="#0" id="circle147"/>
	<circle cx="855.05" cy="885.381" r="4" fill="#0" id="circle148"/>
	<circle cx="862.187" cy="505.353" r="4" fill="#0" id="circle149"/>
	<circle cx="872.892" cy="885.381" r="4" fill="#0" id="circle150"/>
	<circle cx="880.029" cy="508.921" r="4" fill="#0" id="circle151"/>
	<circle cx="880.029" cy="867.54" r="4" fill="#0" id="circle152"/>
	<circle cx="894.302" cy="519.626" r="4" fill="#0" id="circle153"/>
	<circle cx="897.871" cy="858.619" r="4" fill="#0" id="circle154"/>
	<circle cx="910.36" cy="528.547" r="4" fill="#0" id="circle155"/>
	<circle cx="915.712" cy="840.777" r="4" fill="#0" id="circle156"/>
	<circle cx="919.281" cy="544.604" r="4" fill="#0" id="circle157"/>
	<circle cx="924.633" cy="562.446" r="4" fill="#0" id="circle158"/>
	<circle cx="924.633" cy="822.935" r="4" fill="#0" id="circle159"/>
	<circle cx="938.906" cy="573.151" r="4" fill="#0" id="circle160"/>
	<circle cx="942.475" cy="805.094" r="4" fill="#0" id="circle161"/>
	<circle cx="951.396" cy="587.424" r="4" fill="#0" id="circle162"/>
	<circle cx="951.396" cy="778.331" r="4" fill="#0" id="circle163"/>
	<circle cx="965.669" cy="599.914" r="4" fill="#0" id="circle164"/>
	<circle cx="969.237" cy="617.755" r="4" fill="#0" id="circle165"/>
	<circle cx="969.237" cy="751.568" r="4" fill="#0" id="circle166"/>
	<circle cx="969.237" cy="769.41" r="4" fill="#0" id="circle167"/>
	<circle cx="978.158" cy="633.813" r="4" fill="#0" id="circle168"/>
	<circle cx="978.158" cy="651.655" r="4" fill="#0" id="circle169"/>
	<circle cx="978.158" cy="715.885" r="4" fill="#0" id="circle170"/>
	<circle cx="978.158" cy="733.727" r="4" fill="#0" id="circle171"/>
	<circle cx="992.432" cy="662.36" r="4" fill="#0" id="circle172"/>
	<circle cx="996" cy="680.201" r="4" fill="#0" id="circle173"/>
	<circle cx="996" cy="698.043" r="4" fill="#0" id="circle174"/>
	</g>
</svg>