<?xml version="1.0" encoding="UTF-8" standalone="no"?>
<!-- Created with CurveBenchmark -->
<svg
	xmlns:dc="http://purl.org/dc/elements/1.1/"
	xmlns:cc="http://creativecommons.org/ns#"
	xmlns:rdf="http://www.w3.org/1999/02/22-rdf-syntax-ns#"
	xmlns:svg="http://www.w3.org/2000/svg"
	xmlns="http://www.w3.org/2000/svg"
	xmlns:sodipodi="http://sodipodi.sourceforge.net/DTD/sodipodi-0.dtd"
	xmlns:inkscape="http://www.inkscape.org/namespaces/inkscape"
	width="1000"
	height="1000"
	id="svg2"
	version="1.1"
	sodipodi:docname="manifold/connect2d-bed220.png.txt">
<defs
	id="defs4" />
<metadata
	id="metadata7">
	<rdf:RDF>
		<cc:Work
			rdf:about="">
			<dc:format>image/svg+xml</dc:format>
			<dc:type
				rdf:resource="http://purl.org/dc/dcmitype/StillImage" />
			<dc:title></dc:title>
		</cc:Work>
	</rdf:RDF>
</metadata>
<g
	inkscape:label="Layer 1"
	inkscape:groupmode="layer"
	id="layer1">
	<path style="fill:none;stroke:red;stroke-width:1px;stroke-linecap:butt;stroke-linejoin:miter;stroke-opacity:1" d="M 996,145.477 987.678,160.456 z" id="boundary" inkscape:connector-curvature="0" />
	<path style="fill:none;stroke:red;stroke-width:1px;stroke-linecap:butt;stroke-linejoin:miter;stroke-opacity:1" d="M 987.678,160.456 987.678,177.101 z" id="boundary" inkscape:connector-curvature="0" />
	<path style="fill:none;stroke:red;stroke-width:1px;stroke-linecap:butt;stroke-linejoin:miter;stroke-opacity:1" d="M 987.678,177.101 984.349,207.06 z" id="boundary" inkscape:connector-curvature="0" />
	<path style="fill:none;stroke:red;stroke-width:1px;stroke-linecap:butt;stroke-linejoin:miter;stroke-opacity:1" d="M 984.349,207.06 984.349,223.705 z" id="boundary" inkscape:connector-curvature="0" />
	<path style="fill:none;stroke:red;stroke-width:1px;stroke-linecap:butt;stroke-linejoin:miter;stroke-opacity:1" d="M 984.349,223.705 984.349,240.349 z" id="boundary" inkscape:connector-curvature="0" />
	<path style="fill:none;stroke:red;stroke-width:1px;stroke-linecap:butt;stroke-linejoin:miter;stroke-opacity:1" d="M 984.349,240.349 984.349,256.993 z" id="boundary" inkscape:connector-curvature="0" />
	<path style="fill:none;stroke:red;stroke-width:1px;stroke-linecap:butt;stroke-linejoin:miter;stroke-opacity:1" d="M 984.349,256.993 987.678,273.638 z" id="boundary" inkscape:connector-curvature="0" />
	<path style="fill:none;stroke:red;stroke-width:1px;stroke-linecap:butt;stroke-linejoin:miter;stroke-opacity:1" d="M 987.678,273.638 987.678,290.282 z" id="boundary" inkscape:connector-curvature="0" />
	<path style="fill:none;stroke:red;stroke-width:1px;stroke-linecap:butt;stroke-linejoin:miter;stroke-opacity:1" d="M 987.678,290.282 991.007,306.926 z" id="boundary" inkscape:connector-curvature="0" />
	<path style="fill:none;stroke:red;stroke-width:1px;stroke-linecap:butt;stroke-linejoin:miter;stroke-opacity:1" d="M 991.007,306.926 991.007,323.57 z" id="boundary" inkscape:connector-curvature="0" />
	<path style="fill:none;stroke:red;stroke-width:1px;stroke-linecap:butt;stroke-linejoin:miter;stroke-opacity:1" d="M 991.007,323.57 994.336,340.215 z" id="boundary" inkscape:connector-curvature="0" />
	<path style="fill:none;stroke:red;stroke-width:1px;stroke-linecap:butt;stroke-linejoin:miter;stroke-opacity:1" d="M 994.336,340.215 994.336,356.859 z" id="boundary" inkscape:connector-curvature="0" />
	<path style="fill:none;stroke:red;stroke-width:1px;stroke-linecap:butt;stroke-linejoin:miter;stroke-opacity:1" d="M 994.336,356.859 994.336,373.503 z" id="boundary" inkscape:connector-curvature="0" />
	<path style="fill:none;stroke:red;stroke-width:1px;stroke-linecap:butt;stroke-linejoin:miter;stroke-opacity:1" d="M 994.336,373.503 994.336,390.148 z" id="boundary" inkscape:connector-curvature="0" />
	<path style="fill:none;stroke:red;stroke-width:1px;stroke-linecap:butt;stroke-linejoin:miter;stroke-opacity:1" d="M 994.336,390.148 994.336,406.792 z" id="boundary" inkscape:connector-curvature="0" />
	<path style="fill:none;stroke:red;stroke-width:1px;stroke-linecap:butt;stroke-linejoin:miter;stroke-opacity:1" d="M 994.336,406.792 994.336,423.436 z" id="boundary" inkscape:connector-curvature="0" />
	<path style="fill:none;stroke:red;stroke-width:1px;stroke-linecap:butt;stroke-linejoin:miter;stroke-opacity:1" d="M 994.336,423.436 994.336,440.081 z" id="boundary" inkscape:connector-curvature="0" />
	<path style="fill:none;stroke:red;stroke-width:1px;stroke-linecap:butt;stroke-linejoin:miter;stroke-opacity:1" d="M 994.336,440.081 991.007,460.054 z" id="boundary" inkscape:connector-curvature="0" />
	<path style="fill:none;stroke:red;stroke-width:1px;stroke-linecap:butt;stroke-linejoin:miter;stroke-opacity:1" d="M 991.007,460.054 991.007,476.698 z" id="boundary" inkscape:connector-curvature="0" />
	<path style="fill:none;stroke:red;stroke-width:1px;stroke-linecap:butt;stroke-linejoin:miter;stroke-opacity:1" d="M 991.007,476.698 991.007,506.658 z" id="boundary" inkscape:connector-curvature="0" />
	<path style="fill:none;stroke:red;stroke-width:1px;stroke-linecap:butt;stroke-linejoin:miter;stroke-opacity:1" d="M 991.007,506.658 976.027,514.98 z" id="boundary" inkscape:connector-curvature="0" />
	<path style="fill:none;stroke:red;stroke-width:1px;stroke-linecap:butt;stroke-linejoin:miter;stroke-opacity:1" d="M 976.027,514.98 976.027,498.336 z" id="boundary" inkscape:connector-curvature="0" />
	<path style="fill:none;stroke:red;stroke-width:1px;stroke-linecap:butt;stroke-linejoin:miter;stroke-opacity:1" d="M 976.027,498.336 972.698,481.691 z" id="boundary" inkscape:connector-curvature="0" />
	<path style="fill:none;stroke:red;stroke-width:1px;stroke-linecap:butt;stroke-linejoin:miter;stroke-opacity:1" d="M 972.698,481.691 972.698,465.047 z" id="boundary" inkscape:connector-curvature="0" />
	<path style="fill:none;stroke:red;stroke-width:1px;stroke-linecap:butt;stroke-linejoin:miter;stroke-opacity:1" d="M 972.698,465.047 971.034,448.403 z" id="boundary" inkscape:connector-curvature="0" />
	<path style="fill:none;stroke:red;stroke-width:1px;stroke-linecap:butt;stroke-linejoin:miter;stroke-opacity:1" d="M 971.034,448.403 954.389,448.403 z" id="boundary" inkscape:connector-curvature="0" />
	<path style="fill:none;stroke:red;stroke-width:1px;stroke-linecap:butt;stroke-linejoin:miter;stroke-opacity:1" d="M 954.389,448.403 937.745,448.403 z" id="boundary" inkscape:connector-curvature="0" />
	<path style="fill:none;stroke:red;stroke-width:1px;stroke-linecap:butt;stroke-linejoin:miter;stroke-opacity:1" d="M 937.745,448.403 921.101,448.403 z" id="boundary" inkscape:connector-curvature="0" />
	<path style="fill:none;stroke:red;stroke-width:1px;stroke-linecap:butt;stroke-linejoin:miter;stroke-opacity:1" d="M 921.101,448.403 904.456,448.403 z" id="boundary" inkscape:connector-curvature="0" />
	<path style="fill:none;stroke:red;stroke-width:1px;stroke-linecap:butt;stroke-linejoin:miter;stroke-opacity:1" d="M 904.456,448.403 887.812,448.403 z" id="boundary" inkscape:connector-curvature="0" />
	<path style="fill:none;stroke:red;stroke-width:1px;stroke-linecap:butt;stroke-linejoin:miter;stroke-opacity:1" d="M 887.812,448.403 871.168,448.403 z" id="boundary" inkscape:connector-curvature="0" />
	<path style="fill:none;stroke:red;stroke-width:1px;stroke-linecap:butt;stroke-linejoin:miter;stroke-opacity:1" d="M 871.168,448.403 854.523,448.403 z" id="boundary" inkscape:connector-curvature="0" />
	<path style="fill:none;stroke:red;stroke-width:1px;stroke-linecap:butt;stroke-linejoin:miter;stroke-opacity:1" d="M 854.523,448.403 837.879,448.403 z" id="boundary" inkscape:connector-curvature="0" />
	<path style="fill:none;stroke:red;stroke-width:1px;stroke-linecap:butt;stroke-linejoin:miter;stroke-opacity:1" d="M 837.879,448.403 821.235,448.403 z" id="boundary" inkscape:connector-curvature="0" />
	<path style="fill:none;stroke:red;stroke-width:1px;stroke-linecap:butt;stroke-linejoin:miter;stroke-opacity:1" d="M 821.235,448.403 804.591,448.403 z" id="boundary" inkscape:connector-curvature="0" />
	<path style="fill:none;stroke:red;stroke-width:1px;stroke-linecap:butt;stroke-linejoin:miter;stroke-opacity:1" d="M 804.591,448.403 787.946,448.403 z" id="boundary" inkscape:connector-curvature="0" />
	<path style="fill:none;stroke:red;stroke-width:1px;stroke-linecap:butt;stroke-linejoin:miter;stroke-opacity:1" d="M 787.946,448.403 771.302,448.403 z" id="boundary" inkscape:connector-curvature="0" />
	<path style="fill:none;stroke:red;stroke-width:1px;stroke-linecap:butt;stroke-linejoin:miter;stroke-opacity:1" d="M 771.302,448.403 754.658,448.403 z" id="boundary" inkscape:connector-curvature="0" />
	<path style="fill:none;stroke:red;stroke-width:1px;stroke-linecap:butt;stroke-linejoin:miter;stroke-opacity:1" d="M 754.658,448.403 738.013,448.403 z" id="boundary" inkscape:connector-curvature="0" />
	<path style="fill:none;stroke:red;stroke-width:1px;stroke-linecap:butt;stroke-linejoin:miter;stroke-opacity:1" d="M 738.013,448.403 721.369,448.403 z" id="boundary" inkscape:connector-curvature="0" />
	<path style="fill:none;stroke:red;stroke-width:1px;stroke-linecap:butt;stroke-linejoin:miter;stroke-opacity:1" d="M 721.369,448.403 704.725,448.403 z" id="boundary" inkscape:connector-curvature="0" />
	<path style="fill:none;stroke:red;stroke-width:1px;stroke-linecap:butt;stroke-linejoin:miter;stroke-opacity:1" d="M 704.725,448.403 688.081,448.403 z" id="boundary" inkscape:connector-curvature="0" />
	<path style="fill:none;stroke:red;stroke-width:1px;stroke-linecap:butt;stroke-linejoin:miter;stroke-opacity:1" d="M 688.081,448.403 671.436,448.403 z" id="boundary" inkscape:connector-curvature="0" />
	<path style="fill:none;stroke:red;stroke-width:1px;stroke-linecap:butt;stroke-linejoin:miter;stroke-opacity:1" d="M 671.436,448.403 654.792,448.403 z" id="boundary" inkscape:connector-curvature="0" />
	<path style="fill:none;stroke:red;stroke-width:1px;stroke-linecap:butt;stroke-linejoin:miter;stroke-opacity:1" d="M 654.792,448.403 638.148,448.403 z" id="boundary" inkscape:connector-curvature="0" />
	<path style="fill:none;stroke:red;stroke-width:1px;stroke-linecap:butt;stroke-linejoin:miter;stroke-opacity:1" d="M 638.148,448.403 621.503,448.403 z" id="boundary" inkscape:connector-curvature="0" />
	<path style="fill:none;stroke:red;stroke-width:1px;stroke-linecap:butt;stroke-linejoin:miter;stroke-opacity:1" d="M 621.503,448.403 604.859,448.403 z" id="boundary" inkscape:connector-curvature="0" />
	<path style="fill:none;stroke:red;stroke-width:1px;stroke-linecap:butt;stroke-linejoin:miter;stroke-opacity:1" d="M 604.859,448.403 588.215,448.403 z" id="boundary" inkscape:connector-curvature="0" />
	<path style="fill:none;stroke:red;stroke-width:1px;stroke-linecap:butt;stroke-linejoin:miter;stroke-opacity:1" d="M 588.215,448.403 571.57,450.067 z" id="boundary" inkscape:connector-curvature="0" />
	<path style="fill:none;stroke:red;stroke-width:1px;stroke-linecap:butt;stroke-linejoin:miter;stroke-opacity:1" d="M 571.57,450.067 566.577,471.705 z" id="boundary" inkscape:connector-curvature="0" />
	<path style="fill:none;stroke:red;stroke-width:1px;stroke-linecap:butt;stroke-linejoin:miter;stroke-opacity:1" d="M 566.577,471.705 564.913,488.349 z" id="boundary" inkscape:connector-curvature="0" />
	<path style="fill:none;stroke:red;stroke-width:1px;stroke-linecap:butt;stroke-linejoin:miter;stroke-opacity:1" d="M 564.913,488.349 549.933,509.987 z" id="boundary" inkscape:connector-curvature="0" />
	<path style="fill:none;stroke:red;stroke-width:1px;stroke-linecap:butt;stroke-linejoin:miter;stroke-opacity:1" d="M 549.933,509.987 549.933,480.027 z" id="boundary" inkscape:connector-curvature="0" />
	<path style="fill:none;stroke:red;stroke-width:1px;stroke-linecap:butt;stroke-linejoin:miter;stroke-opacity:1" d="M 549.933,480.027 549.933,463.383 z" id="boundary" inkscape:connector-curvature="0" />
	<path style="fill:none;stroke:red;stroke-width:1px;stroke-linecap:butt;stroke-linejoin:miter;stroke-opacity:1" d="M 549.933,463.383 538.282,448.403 z" id="boundary" inkscape:connector-curvature="0" />
	<path style="fill:none;stroke:red;stroke-width:1px;stroke-linecap:butt;stroke-linejoin:miter;stroke-opacity:1" d="M 538.282,448.403 521.638,448.403 z" id="boundary" inkscape:connector-curvature="0" />
	<path style="fill:none;stroke:red;stroke-width:1px;stroke-linecap:butt;stroke-linejoin:miter;stroke-opacity:1" d="M 521.638,448.403 504.993,450.067 z" id="boundary" inkscape:connector-curvature="0" />
	<path style="fill:none;stroke:red;stroke-width:1px;stroke-linecap:butt;stroke-linejoin:miter;stroke-opacity:1" d="M 504.993,450.067 504.993,466.711 z" id="boundary" inkscape:connector-curvature="0" />
	<path style="fill:none;stroke:red;stroke-width:1px;stroke-linecap:butt;stroke-linejoin:miter;stroke-opacity:1" d="M 504.993,466.711 503.329,485.02 z" id="boundary" inkscape:connector-curvature="0" />
	<path style="fill:none;stroke:red;stroke-width:1px;stroke-linecap:butt;stroke-linejoin:miter;stroke-opacity:1" d="M 503.329,485.02 500,501.664 z" id="boundary" inkscape:connector-curvature="0" />
	<path style="fill:none;stroke:red;stroke-width:1px;stroke-linecap:butt;stroke-linejoin:miter;stroke-opacity:1" d="M 500,501.664 486.685,513.315 z" id="boundary" inkscape:connector-curvature="0" />
	<path style="fill:none;stroke:red;stroke-width:1px;stroke-linecap:butt;stroke-linejoin:miter;stroke-opacity:1" d="M 486.685,513.315 486.685,491.678 z" id="boundary" inkscape:connector-curvature="0" />
	<path style="fill:none;stroke:red;stroke-width:1px;stroke-linecap:butt;stroke-linejoin:miter;stroke-opacity:1" d="M 486.685,491.678 480.027,475.034 z" id="boundary" inkscape:connector-curvature="0" />
	<path style="fill:none;stroke:red;stroke-width:1px;stroke-linecap:butt;stroke-linejoin:miter;stroke-opacity:1" d="M 480.027,475.034 478.362,458.389 z" id="boundary" inkscape:connector-curvature="0" />
	<path style="fill:none;stroke:red;stroke-width:1px;stroke-linecap:butt;stroke-linejoin:miter;stroke-opacity:1" d="M 478.362,458.389 461.718,455.06 z" id="boundary" inkscape:connector-curvature="0" />
	<path style="fill:none;stroke:red;stroke-width:1px;stroke-linecap:butt;stroke-linejoin:miter;stroke-opacity:1" d="M 461.718,455.06 445.074,456.725 z" id="boundary" inkscape:connector-curvature="0" />
	<path style="fill:none;stroke:red;stroke-width:1px;stroke-linecap:butt;stroke-linejoin:miter;stroke-opacity:1" d="M 445.074,456.725 428.43,460.054 z" id="boundary" inkscape:connector-curvature="0" />
	<path style="fill:none;stroke:red;stroke-width:1px;stroke-linecap:butt;stroke-linejoin:miter;stroke-opacity:1" d="M 428.43,460.054 411.785,468.376 z" id="boundary" inkscape:connector-curvature="0" />
	<path style="fill:none;stroke:red;stroke-width:1px;stroke-linecap:butt;stroke-linejoin:miter;stroke-opacity:1" d="M 411.785,468.376 396.805,460.054 z" id="boundary" inkscape:connector-curvature="0" />
	<path style="fill:none;stroke:red;stroke-width:1px;stroke-linecap:butt;stroke-linejoin:miter;stroke-opacity:1" d="M 396.805,460.054 381.826,451.732 z" id="boundary" inkscape:connector-curvature="0" />
	<path style="fill:none;stroke:red;stroke-width:1px;stroke-linecap:butt;stroke-linejoin:miter;stroke-opacity:1" d="M 381.826,451.732 365.181,451.732 z" id="boundary" inkscape:connector-curvature="0" />
	<path style="fill:none;stroke:red;stroke-width:1px;stroke-linecap:butt;stroke-linejoin:miter;stroke-opacity:1" d="M 365.181,451.732 348.537,456.725 z" id="boundary" inkscape:connector-curvature="0" />
	<path style="fill:none;stroke:red;stroke-width:1px;stroke-linecap:butt;stroke-linejoin:miter;stroke-opacity:1" d="M 348.537,456.725 333.557,465.047 z" id="boundary" inkscape:connector-curvature="0" />
	<path style="fill:none;stroke:red;stroke-width:1px;stroke-linecap:butt;stroke-linejoin:miter;stroke-opacity:1" d="M 333.557,465.047 316.913,471.705 z" id="boundary" inkscape:connector-curvature="0" />
	<path style="fill:none;stroke:red;stroke-width:1px;stroke-linecap:butt;stroke-linejoin:miter;stroke-opacity:1" d="M 316.913,471.705 300.268,478.362 z" id="boundary" inkscape:connector-curvature="0" />
	<path style="fill:none;stroke:red;stroke-width:1px;stroke-linecap:butt;stroke-linejoin:miter;stroke-opacity:1" d="M 300.268,478.362 283.624,485.02 z" id="boundary" inkscape:connector-curvature="0" />
	<path style="fill:none;stroke:red;stroke-width:1px;stroke-linecap:butt;stroke-linejoin:miter;stroke-opacity:1" d="M 283.624,485.02 266.98,485.02 z" id="boundary" inkscape:connector-curvature="0" />
	<path style="fill:none;stroke:red;stroke-width:1px;stroke-linecap:butt;stroke-linejoin:miter;stroke-opacity:1" d="M 266.98,485.02 250.336,488.349 z" id="boundary" inkscape:connector-curvature="0" />
	<path style="fill:none;stroke:red;stroke-width:1px;stroke-linecap:butt;stroke-linejoin:miter;stroke-opacity:1" d="M 250.336,488.349 233.691,485.02 z" id="boundary" inkscape:connector-curvature="0" />
	<path style="fill:none;stroke:red;stroke-width:1px;stroke-linecap:butt;stroke-linejoin:miter;stroke-opacity:1" d="M 233.691,485.02 217.047,480.027 z" id="boundary" inkscape:connector-curvature="0" />
	<path style="fill:none;stroke:red;stroke-width:1px;stroke-linecap:butt;stroke-linejoin:miter;stroke-opacity:1" d="M 217.047,480.027 200.403,473.369 z" id="boundary" inkscape:connector-curvature="0" />
	<path style="fill:none;stroke:red;stroke-width:1px;stroke-linecap:butt;stroke-linejoin:miter;stroke-opacity:1" d="M 200.403,473.369 183.758,466.711 z" id="boundary" inkscape:connector-curvature="0" />
	<path style="fill:none;stroke:red;stroke-width:1px;stroke-linecap:butt;stroke-linejoin:miter;stroke-opacity:1" d="M 183.758,466.711 168.779,458.389 z" id="boundary" inkscape:connector-curvature="0" />
	<path style="fill:none;stroke:red;stroke-width:1px;stroke-linecap:butt;stroke-linejoin:miter;stroke-opacity:1" d="M 168.779,458.389 152.134,451.732 z" id="boundary" inkscape:connector-curvature="0" />
	<path style="fill:none;stroke:red;stroke-width:1px;stroke-linecap:butt;stroke-linejoin:miter;stroke-opacity:1" d="M 152.134,451.732 135.49,451.732 z" id="boundary" inkscape:connector-curvature="0" />
	<path style="fill:none;stroke:red;stroke-width:1px;stroke-linecap:butt;stroke-linejoin:miter;stroke-opacity:1" d="M 135.49,451.732 118.846,456.725 z" id="boundary" inkscape:connector-curvature="0" />
	<path style="fill:none;stroke:red;stroke-width:1px;stroke-linecap:butt;stroke-linejoin:miter;stroke-opacity:1" d="M 118.846,456.725 102.201,468.376 z" id="boundary" inkscape:connector-curvature="0" />
	<path style="fill:none;stroke:red;stroke-width:1px;stroke-linecap:butt;stroke-linejoin:miter;stroke-opacity:1" d="M 102.201,468.376 85.557,461.718 z" id="boundary" inkscape:connector-curvature="0" />
	<path style="fill:none;stroke:red;stroke-width:1px;stroke-linecap:butt;stroke-linejoin:miter;stroke-opacity:1" d="M 85.557,461.718 68.9128,455.06 z" id="boundary" inkscape:connector-curvature="0" />
	<path style="fill:none;stroke:red;stroke-width:1px;stroke-linecap:butt;stroke-linejoin:miter;stroke-opacity:1" d="M 68.9128,455.06 52.2685,455.06 z" id="boundary" inkscape:connector-curvature="0" />
	<path style="fill:none;stroke:red;stroke-width:1px;stroke-linecap:butt;stroke-linejoin:miter;stroke-opacity:1" d="M 52.2685,455.06 35.6242,456.725 z" id="boundary" inkscape:connector-curvature="0" />
	<path style="fill:none;stroke:red;stroke-width:1px;stroke-linecap:butt;stroke-linejoin:miter;stroke-opacity:1" d="M 35.6242,456.725 28.9664,473.369 z" id="boundary" inkscape:connector-curvature="0" />
	<path style="fill:none;stroke:red;stroke-width:1px;stroke-linecap:butt;stroke-linejoin:miter;stroke-opacity:1" d="M 28.9664,473.369 27.302,514.98 z" id="boundary" inkscape:connector-curvature="0" />
	<path style="fill:none;stroke:red;stroke-width:1px;stroke-linecap:butt;stroke-linejoin:miter;stroke-opacity:1" d="M 27.302,514.98 10.6577,513.315 z" id="boundary" inkscape:connector-curvature="0" />
	<path style="fill:none;stroke:red;stroke-width:1px;stroke-linecap:butt;stroke-linejoin:miter;stroke-opacity:1" d="M 10.6577,513.315 15.651,493.342 z" id="boundary" inkscape:connector-curvature="0" />
	<path style="fill:none;stroke:red;stroke-width:1px;stroke-linecap:butt;stroke-linejoin:miter;stroke-opacity:1" d="M 15.651,493.342 10.6577,476.698 z" id="boundary" inkscape:connector-curvature="0" />
	<path style="fill:none;stroke:red;stroke-width:1px;stroke-linecap:butt;stroke-linejoin:miter;stroke-opacity:1" d="M 10.6577,476.698 17.3154,460.054 z" id="boundary" inkscape:connector-curvature="0" />
	<path style="fill:none;stroke:red;stroke-width:1px;stroke-linecap:butt;stroke-linejoin:miter;stroke-opacity:1" d="M 17.3154,460.054 23.9732,436.752 z" id="boundary" inkscape:connector-curvature="0" />
	<path style="fill:none;stroke:red;stroke-width:1px;stroke-linecap:butt;stroke-linejoin:miter;stroke-opacity:1" d="M 23.9732,436.752 23.9732,420.107 z" id="boundary" inkscape:connector-curvature="0" />
	<path style="fill:none;stroke:red;stroke-width:1px;stroke-linecap:butt;stroke-linejoin:miter;stroke-opacity:1" d="M 23.9732,420.107 23.9732,403.463 z" id="boundary" inkscape:connector-curvature="0" />
	<path style="fill:none;stroke:red;stroke-width:1px;stroke-linecap:butt;stroke-linejoin:miter;stroke-opacity:1" d="M 23.9732,403.463 23.9732,386.819 z" id="boundary" inkscape:connector-curvature="0" />
	<path style="fill:none;stroke:red;stroke-width:1px;stroke-linecap:butt;stroke-linejoin:miter;stroke-opacity:1" d="M 23.9732,386.819 17.3154,370.174 z" id="boundary" inkscape:connector-curvature="0" />
	<path style="fill:none;stroke:red;stroke-width:1px;stroke-linecap:butt;stroke-linejoin:miter;stroke-opacity:1" d="M 17.3154,370.174 15.651,353.53 z" id="boundary" inkscape:connector-curvature="0" />
	<path style="fill:none;stroke:red;stroke-width:1px;stroke-linecap:butt;stroke-linejoin:miter;stroke-opacity:1" d="M 15.651,353.53 4,340.215 z" id="boundary" inkscape:connector-curvature="0" />
	<path style="fill:none;stroke:red;stroke-width:1px;stroke-linecap:butt;stroke-linejoin:miter;stroke-opacity:1" d="M 4,340.215 4,323.57 z" id="boundary" inkscape:connector-curvature="0" />
	<path style="fill:none;stroke:red;stroke-width:1px;stroke-linecap:butt;stroke-linejoin:miter;stroke-opacity:1" d="M 4,323.57 17.3154,310.255 z" id="boundary" inkscape:connector-curvature="0" />
	<path style="fill:none;stroke:red;stroke-width:1px;stroke-linecap:butt;stroke-linejoin:miter;stroke-opacity:1" d="M 17.3154,310.255 30.6309,300.268 z" id="boundary" inkscape:connector-curvature="0" />
	<path style="fill:none;stroke:red;stroke-width:1px;stroke-linecap:butt;stroke-linejoin:miter;stroke-opacity:1" d="M 30.6309,300.268 47.2752,293.611 z" id="boundary" inkscape:connector-curvature="0" />
	<path style="fill:none;stroke:red;stroke-width:1px;stroke-linecap:butt;stroke-linejoin:miter;stroke-opacity:1" d="M 47.2752,293.611 63.9195,290.282 z" id="boundary" inkscape:connector-curvature="0" />
	<path style="fill:none;stroke:red;stroke-width:1px;stroke-linecap:butt;stroke-linejoin:miter;stroke-opacity:1" d="M 63.9195,290.282 80.5638,283.624 z" id="boundary" inkscape:connector-curvature="0" />
	<path style="fill:none;stroke:red;stroke-width:1px;stroke-linecap:butt;stroke-linejoin:miter;stroke-opacity:1" d="M 80.5638,283.624 97.2081,280.295 z" id="boundary" inkscape:connector-curvature="0" />
	<path style="fill:none;stroke:red;stroke-width:1px;stroke-linecap:butt;stroke-linejoin:miter;stroke-opacity:1" d="M 97.2081,280.295 113.852,276.966 z" id="boundary" inkscape:connector-curvature="0" />
	<path style="fill:none;stroke:red;stroke-width:1px;stroke-linecap:butt;stroke-linejoin:miter;stroke-opacity:1" d="M 113.852,276.966 130.497,273.638 z" id="boundary" inkscape:connector-curvature="0" />
	<path style="fill:none;stroke:red;stroke-width:1px;stroke-linecap:butt;stroke-linejoin:miter;stroke-opacity:1" d="M 130.497,273.638 147.141,273.638 z" id="boundary" inkscape:connector-curvature="0" />
	<path style="fill:none;stroke:red;stroke-width:1px;stroke-linecap:butt;stroke-linejoin:miter;stroke-opacity:1" d="M 147.141,273.638 163.785,270.309 z" id="boundary" inkscape:connector-curvature="0" />
	<path style="fill:none;stroke:red;stroke-width:1px;stroke-linecap:butt;stroke-linejoin:miter;stroke-opacity:1" d="M 163.785,270.309 180.43,270.309 z" id="boundary" inkscape:connector-curvature="0" />
	<path style="fill:none;stroke:red;stroke-width:1px;stroke-linecap:butt;stroke-linejoin:miter;stroke-opacity:1" d="M 180.43,270.309 193.745,260.322 z" id="boundary" inkscape:connector-curvature="0" />
	<path style="fill:none;stroke:red;stroke-width:1px;stroke-linecap:butt;stroke-linejoin:miter;stroke-opacity:1" d="M 193.745,260.322 210.389,255.329 z" id="boundary" inkscape:connector-curvature="0" />
	<path style="fill:none;stroke:red;stroke-width:1px;stroke-linecap:butt;stroke-linejoin:miter;stroke-opacity:1" d="M 210.389,255.329 225.369,245.342 z" id="boundary" inkscape:connector-curvature="0" />
	<path style="fill:none;stroke:red;stroke-width:1px;stroke-linecap:butt;stroke-linejoin:miter;stroke-opacity:1" d="M 225.369,245.342 240.349,237.02 z" id="boundary" inkscape:connector-curvature="0" />
	<path style="fill:none;stroke:red;stroke-width:1px;stroke-linecap:butt;stroke-linejoin:miter;stroke-opacity:1" d="M 240.349,237.02 253.664,227.034 z" id="boundary" inkscape:connector-curvature="0" />
	<path style="fill:none;stroke:red;stroke-width:1px;stroke-linecap:butt;stroke-linejoin:miter;stroke-opacity:1" d="M 253.664,227.034 270.309,232.027 z" id="boundary" inkscape:connector-curvature="0" />
	<path style="fill:none;stroke:red;stroke-width:1px;stroke-linecap:butt;stroke-linejoin:miter;stroke-opacity:1" d="M 270.309,232.027 286.953,238.685 z" id="boundary" inkscape:connector-curvature="0" />
	<path style="fill:none;stroke:red;stroke-width:1px;stroke-linecap:butt;stroke-linejoin:miter;stroke-opacity:1" d="M 286.953,238.685 298.604,252 z" id="boundary" inkscape:connector-curvature="0" />
	<path style="fill:none;stroke:red;stroke-width:1px;stroke-linecap:butt;stroke-linejoin:miter;stroke-opacity:1" d="M 298.604,252 315.248,253.664 z" id="boundary" inkscape:connector-curvature="0" />
	<path style="fill:none;stroke:red;stroke-width:1px;stroke-linecap:butt;stroke-linejoin:miter;stroke-opacity:1" d="M 315.248,253.664 325.235,266.98 z" id="boundary" inkscape:connector-curvature="0" />
	<path style="fill:none;stroke:red;stroke-width:1px;stroke-linecap:butt;stroke-linejoin:miter;stroke-opacity:1" d="M 325.235,266.98 341.879,270.309 z" id="boundary" inkscape:connector-curvature="0" />
	<path style="fill:none;stroke:red;stroke-width:1px;stroke-linecap:butt;stroke-linejoin:miter;stroke-opacity:1" d="M 341.879,270.309 358.523,270.309 z" id="boundary" inkscape:connector-curvature="0" />
	<path style="fill:none;stroke:red;stroke-width:1px;stroke-linecap:butt;stroke-linejoin:miter;stroke-opacity:1" d="M 358.523,270.309 375.168,273.638 z" id="boundary" inkscape:connector-curvature="0" />
	<path style="fill:none;stroke:red;stroke-width:1px;stroke-linecap:butt;stroke-linejoin:miter;stroke-opacity:1" d="M 375.168,273.638 391.812,273.638 z" id="boundary" inkscape:connector-curvature="0" />
	<path style="fill:none;stroke:red;stroke-width:1px;stroke-linecap:butt;stroke-linejoin:miter;stroke-opacity:1" d="M 391.812,273.638 408.456,276.966 z" id="boundary" inkscape:connector-curvature="0" />
	<path style="fill:none;stroke:red;stroke-width:1px;stroke-linecap:butt;stroke-linejoin:miter;stroke-opacity:1" d="M 408.456,276.966 425.101,283.624 z" id="boundary" inkscape:connector-curvature="0" />
	<path style="fill:none;stroke:red;stroke-width:1px;stroke-linecap:butt;stroke-linejoin:miter;stroke-opacity:1" d="M 425.101,283.624 441.745,285.289 z" id="boundary" inkscape:connector-curvature="0" />
	<path style="fill:none;stroke:red;stroke-width:1px;stroke-linecap:butt;stroke-linejoin:miter;stroke-opacity:1" d="M 441.745,285.289 450.067,270.309 z" id="boundary" inkscape:connector-curvature="0" />
	<path style="fill:none;stroke:red;stroke-width:1px;stroke-linecap:butt;stroke-linejoin:miter;stroke-opacity:1" d="M 450.067,270.309 465.047,261.987 z" id="boundary" inkscape:connector-curvature="0" />
	<path style="fill:none;stroke:red;stroke-width:1px;stroke-linecap:butt;stroke-linejoin:miter;stroke-opacity:1" d="M 465.047,261.987 478.362,250.336 z" id="boundary" inkscape:connector-curvature="0" />
	<path style="fill:none;stroke:red;stroke-width:1px;stroke-linecap:butt;stroke-linejoin:miter;stroke-opacity:1" d="M 478.362,250.336 491.678,238.685 z" id="boundary" inkscape:connector-curvature="0" />
	<path style="fill:none;stroke:red;stroke-width:1px;stroke-linecap:butt;stroke-linejoin:miter;stroke-opacity:1" d="M 491.678,238.685 504.993,228.698 z" id="boundary" inkscape:connector-curvature="0" />
	<path style="fill:none;stroke:red;stroke-width:1px;stroke-linecap:butt;stroke-linejoin:miter;stroke-opacity:1" d="M 504.993,228.698 521.638,222.04 z" id="boundary" inkscape:connector-curvature="0" />
	<path style="fill:none;stroke:red;stroke-width:1px;stroke-linecap:butt;stroke-linejoin:miter;stroke-opacity:1" d="M 521.638,222.04 536.617,213.718 z" id="boundary" inkscape:connector-curvature="0" />
	<path style="fill:none;stroke:red;stroke-width:1px;stroke-linecap:butt;stroke-linejoin:miter;stroke-opacity:1" d="M 536.617,213.718 553.262,210.389 z" id="boundary" inkscape:connector-curvature="0" />
	<path style="fill:none;stroke:red;stroke-width:1px;stroke-linecap:butt;stroke-linejoin:miter;stroke-opacity:1" d="M 553.262,210.389 563.248,190.416 z" id="boundary" inkscape:connector-curvature="0" />
	<path style="fill:none;stroke:red;stroke-width:1px;stroke-linecap:butt;stroke-linejoin:miter;stroke-opacity:1" d="M 563.248,190.416 563.248,173.772 z" id="boundary" inkscape:connector-curvature="0" />
	<path style="fill:none;stroke:red;stroke-width:1px;stroke-linecap:butt;stroke-linejoin:miter;stroke-opacity:1" d="M 563.248,173.772 561.584,157.128 z" id="boundary" inkscape:connector-curvature="0" />
	<path style="fill:none;stroke:red;stroke-width:1px;stroke-linecap:butt;stroke-linejoin:miter;stroke-opacity:1" d="M 561.584,157.128 548.268,147.141 z" id="boundary" inkscape:connector-curvature="0" />
	<path style="fill:none;stroke:red;stroke-width:1px;stroke-linecap:butt;stroke-linejoin:miter;stroke-opacity:1" d="M 548.268,147.141 546.604,130.497 z" id="boundary" inkscape:connector-curvature="0" />
	<path style="fill:none;stroke:red;stroke-width:1px;stroke-linecap:butt;stroke-linejoin:miter;stroke-opacity:1" d="M 546.604,130.497 556.591,117.181 z" id="boundary" inkscape:connector-curvature="0" />
	<path style="fill:none;stroke:red;stroke-width:1px;stroke-linecap:butt;stroke-linejoin:miter;stroke-opacity:1" d="M 556.591,117.181 569.906,107.195 z" id="boundary" inkscape:connector-curvature="0" />
	<path style="fill:none;stroke:red;stroke-width:1px;stroke-linecap:butt;stroke-linejoin:miter;stroke-opacity:1" d="M 569.906,107.195 584.886,98.8725 z" id="boundary" inkscape:connector-curvature="0" />
	<path style="fill:none;stroke:red;stroke-width:1px;stroke-linecap:butt;stroke-linejoin:miter;stroke-opacity:1" d="M 584.886,98.8725 599.866,90.5503 z" id="boundary" inkscape:connector-curvature="0" />
	<path style="fill:none;stroke:red;stroke-width:1px;stroke-linecap:butt;stroke-linejoin:miter;stroke-opacity:1" d="M 599.866,90.5503 616.51,83.8926 z" id="boundary" inkscape:connector-curvature="0" />
	<path style="fill:none;stroke:red;stroke-width:1px;stroke-linecap:butt;stroke-linejoin:miter;stroke-opacity:1" d="M 616.51,83.8926 633.154,80.5638 z" id="boundary" inkscape:connector-curvature="0" />
	<path style="fill:none;stroke:red;stroke-width:1px;stroke-linecap:butt;stroke-linejoin:miter;stroke-opacity:1" d="M 633.154,80.5638 649.799,73.906 z" id="boundary" inkscape:connector-curvature="0" />
	<path style="fill:none;stroke:red;stroke-width:1px;stroke-linecap:butt;stroke-linejoin:miter;stroke-opacity:1" d="M 649.799,73.906 666.443,70.5772 z" id="boundary" inkscape:connector-curvature="0" />
	<path style="fill:none;stroke:red;stroke-width:1px;stroke-linecap:butt;stroke-linejoin:miter;stroke-opacity:1" d="M 666.443,70.5772 683.087,67.2483 z" id="boundary" inkscape:connector-curvature="0" />
	<path style="fill:none;stroke:red;stroke-width:1px;stroke-linecap:butt;stroke-linejoin:miter;stroke-opacity:1" d="M 683.087,67.2483 699.732,53.9329 z" id="boundary" inkscape:connector-curvature="0" />
	<path style="fill:none;stroke:red;stroke-width:1px;stroke-linecap:butt;stroke-linejoin:miter;stroke-opacity:1" d="M 699.732,53.9329 713.047,43.9463 z" id="boundary" inkscape:connector-curvature="0" />
	<path style="fill:none;stroke:red;stroke-width:1px;stroke-linecap:butt;stroke-linejoin:miter;stroke-opacity:1" d="M 713.047,43.9463 729.691,37.2886 z" id="boundary" inkscape:connector-curvature="0" />
	<path style="fill:none;stroke:red;stroke-width:1px;stroke-linecap:butt;stroke-linejoin:miter;stroke-opacity:1" d="M 729.691,37.2886 743.007,27.302 z" id="boundary" inkscape:connector-curvature="0" />
	<path style="fill:none;stroke:red;stroke-width:1px;stroke-linecap:butt;stroke-linejoin:miter;stroke-opacity:1" d="M 743.007,27.302 752.993,7.32886 z" id="boundary" inkscape:connector-curvature="0" />
	<path style="fill:none;stroke:red;stroke-width:1px;stroke-linecap:butt;stroke-linejoin:miter;stroke-opacity:1" d="M 752.993,7.32886 769.638,4 z" id="boundary" inkscape:connector-curvature="0" />
	<path style="fill:none;stroke:red;stroke-width:1px;stroke-linecap:butt;stroke-linejoin:miter;stroke-opacity:1" d="M 769.638,4 782.953,15.651 z" id="boundary" inkscape:connector-curvature="0" />
	<path style="fill:none;stroke:red;stroke-width:1px;stroke-linecap:butt;stroke-linejoin:miter;stroke-opacity:1" d="M 782.953,15.651 789.611,32.2953 z" id="boundary" inkscape:connector-curvature="0" />
	<path style="fill:none;stroke:red;stroke-width:1px;stroke-linecap:butt;stroke-linejoin:miter;stroke-opacity:1" d="M 789.611,32.2953 806.255,38.953 z" id="boundary" inkscape:connector-curvature="0" />
	<path style="fill:none;stroke:red;stroke-width:1px;stroke-linecap:butt;stroke-linejoin:miter;stroke-opacity:1" d="M 806.255,38.953 822.899,45.6107 z" id="boundary" inkscape:connector-curvature="0" />
	<path style="fill:none;stroke:red;stroke-width:1px;stroke-linecap:butt;stroke-linejoin:miter;stroke-opacity:1" d="M 822.899,45.6107 834.55,58.9262 z" id="boundary" inkscape:connector-curvature="0" />
	<path style="fill:none;stroke:red;stroke-width:1px;stroke-linecap:butt;stroke-linejoin:miter;stroke-opacity:1" d="M 834.55,58.9262 849.53,67.2483 z" id="boundary" inkscape:connector-curvature="0" />
	<path style="fill:none;stroke:red;stroke-width:1px;stroke-linecap:butt;stroke-linejoin:miter;stroke-opacity:1" d="M 849.53,67.2483 866.174,70.5772 z" id="boundary" inkscape:connector-curvature="0" />
	<path style="fill:none;stroke:red;stroke-width:1px;stroke-linecap:butt;stroke-linejoin:miter;stroke-opacity:1" d="M 866.174,70.5772 882.819,72.2416 z" id="boundary" inkscape:connector-curvature="0" />
	<path style="fill:none;stroke:red;stroke-width:1px;stroke-linecap:butt;stroke-linejoin:miter;stroke-opacity:1" d="M 882.819,72.2416 899.463,77.2349 z" id="boundary" inkscape:connector-curvature="0" />
	<path style="fill:none;stroke:red;stroke-width:1px;stroke-linecap:butt;stroke-linejoin:miter;stroke-opacity:1" d="M 899.463,77.2349 916.107,80.5638 z" id="boundary" inkscape:connector-curvature="0" />
	<path style="fill:none;stroke:red;stroke-width:1px;stroke-linecap:butt;stroke-linejoin:miter;stroke-opacity:1" d="M 916.107,80.5638 932.752,87.2215 z" id="boundary" inkscape:connector-curvature="0" />
	<path style="fill:none;stroke:red;stroke-width:1px;stroke-linecap:butt;stroke-linejoin:miter;stroke-opacity:1" d="M 932.752,87.2215 947.732,95.5436 z" id="boundary" inkscape:connector-curvature="0" />
	<path style="fill:none;stroke:red;stroke-width:1px;stroke-linecap:butt;stroke-linejoin:miter;stroke-opacity:1" d="M 947.732,95.5436 964.376,100.537 z" id="boundary" inkscape:connector-curvature="0" />
	<path style="fill:none;stroke:red;stroke-width:1px;stroke-linecap:butt;stroke-linejoin:miter;stroke-opacity:1" d="M 964.376,100.537 977.691,110.523 z" id="boundary" inkscape:connector-curvature="0" />
	<path style="fill:none;stroke:red;stroke-width:1px;stroke-linecap:butt;stroke-linejoin:miter;stroke-opacity:1" d="M 977.691,110.523 992.671,118.846 z" id="boundary" inkscape:connector-curvature="0" />
	<path style="fill:none;stroke:red;stroke-width:1px;stroke-linecap:butt;stroke-linejoin:miter;stroke-opacity:1" d="M 992.671,118.846 996,145.477 z" id="boundary" inkscape:connector-curvature="0" />
	<circle cx="4" cy="323.57" r="4" fill="#0" id="circle0"/>
	<circle cx="4" cy="340.215" r="4" fill="#0" id="circle1"/>
	<circle cx="10.6577" cy="476.698" r="4" fill="#0" id="circle2"/>
	<circle cx="10.6577" cy="513.315" r="4" fill="#0" id="circle3"/>
	<circle cx="15.651" cy="353.53" r="4" fill="#0" id="circle4"/>
	<circle cx="15.651" cy="493.342" r="4" fill="#0" id="circle5"/>
	<circle cx="17.3154" cy="310.255" r="4" fill="#0" id="circle6"/>
	<circle cx="17.3154" cy="370.174" r="4" fill="#0" id="circle7"/>
	<circle cx="17.3154" cy="460.054" r="4" fill="#0" id="circle8"/>
	<circle cx="23.9732" cy="386.819" r="4" fill="#0" id="circle9"/>
	<circle cx="23.9732" cy="403.463" r="4" fill="#0" id="circle10"/>
	<circle cx="23.9732" cy="420.107" r="4" fill="#0" id="circle11"/>
	<circle cx="23.9732" cy="436.752" r="4" fill="#0" id="circle12"/>
	<circle cx="27.302" cy="514.98" r="4" fill="#0" id="circle13"/>
	<circle cx="28.9664" cy="473.369" r="4" fill="#0" id="circle14"/>
	<circle cx="30.6309" cy="300.268" r="4" fill="#0" id="circle15"/>
	<circle cx="35.6242" cy="456.725" r="4" fill="#0" id="circle16"/>
	<circle cx="47.2752" cy="293.611" r="4" fill="#0" id="circle17"/>
	<circle cx="52.2685" cy="455.06" r="4" fill="#0" id="circle18"/>
	<circle cx="63.9195" cy="290.282" r="4" fill="#0" id="circle19"/>
	<circle cx="68.9128" cy="455.06" r="4" fill="#0" id="circle20"/>
	<circle cx="80.5638" cy="283.624" r="4" fill="#0" id="circle21"/>
	<circle cx="85.557" cy="461.718" r="4" fill="#0" id="circle22"/>
	<circle cx="97.2081" cy="280.295" r="4" fill="#0" id="circle23"/>
	<circle cx="102.201" cy="468.376" r="4" fill="#0" id="circle24"/>
	<circle cx="113.852" cy="276.966" r="4" fill="#0" id="circle25"/>
	<circle cx="118.846" cy="456.725" r="4" fill="#0" id="circle26"/>
	<circle cx="130.497" cy="273.638" r="4" fill="#0" id="circle27"/>
	<circle cx="135.49" cy="451.732" r="4" fill="#0" id="circle28"/>
	<circle cx="147.141" cy="273.638" r="4" fill="#0" id="circle29"/>
	<circle cx="152.134" cy="451.732" r="4" fill="#0" id="circle30"/>
	<circle cx="163.785" cy="270.309" r="4" fill="#0" id="circle31"/>
	<circle cx="168.779" cy="458.389" r="4" fill="#0" id="circle32"/>
	<circle cx="180.43" cy="270.309" r="4" fill="#0" id="circle33"/>
	<circle cx="183.758" cy="466.711" r="4" fill="#0" id="circle34"/>
	<circle cx="193.745" cy="260.322" r="4" fill="#0" id="circle35"/>
	<circle cx="200.403" cy="473.369" r="4" fill="#0" id="circle36"/>
	<circle cx="210.389" cy="255.329" r="4" fill="#0" id="circle37"/>
	<circle cx="217.047" cy="480.027" r="4" fill="#0" id="circle38"/>
	<circle cx="225.369" cy="245.342" r="4" fill="#0" id="circle39"/>
	<circle cx="233.691" cy="485.02" r="4" fill="#0" id="circle40"/>
	<circle cx="240.349" cy="237.02" r="4" fill="#0" id="circle41"/>
	<circle cx="250.336" cy="488.349" r="4" fill="#0" id="circle42"/>
	<circle cx="253.664" cy="227.034" r="4" fill="#0" id="circle43"/>
	<circle cx="266.98" cy="485.02" r="4" fill="#0" id="circle44"/>
	<circle cx="270.309" cy="232.027" r="4" fill="#0" id="circle45"/>
	<circle cx="283.624" cy="485.02" r="4" fill="#0" id="circle46"/>
	<circle cx="286.953" cy="238.685" r="4" fill="#0" id="circle47"/>
	<circle cx="298.604" cy="252" r="4" fill="#0" id="circle48"/>
	<circle cx="300.268" cy="478.362" r="4" fill="#0" id="circle49"/>
	<circle cx="315.248" cy="253.664" r="4" fill="#0" id="circle50"/>
	<circle cx="316.913" cy="471.705" r="4" fill="#0" id="circle51"/>
	<circle cx="325.235" cy="266.98" r="4" fill="#0" id="circle52"/>
	<circle cx="333.557" cy="465.047" r="4" fill="#0" id="circle53"/>
	<circle cx="341.879" cy="270.309" r="4" fill="#0" id="circle54"/>
	<circle cx="348.537" cy="456.725" r="4" fill="#0" id="circle55"/>
	<circle cx="358.523" cy="270.309" r="4" fill="#0" id="circle56"/>
	<circle cx="365.181" cy="451.732" r="4" fill="#0" id="circle57"/>
	<circle cx="375.168" cy="273.638" r="4" fill="#0" id="circle58"/>
	<circle cx="381.826" cy="451.732" r="4" fill="#0" id="circle59"/>
	<circle cx="391.812" cy="273.638" r="4" fill="#0" id="circle60"/>
	<circle cx="396.805" cy="460.054" r="4" fill="#0" id="circle61"/>
	<circle cx="408.456" cy="276.966" r="4" fill="#0" id="circle62"/>
	<circle cx="411.785" cy="468.376" r="4" fill="#0" id="circle63"/>
	<circle cx="425.101" cy="283.624" r="4" fill="#0" id="circle64"/>
	<circle cx="428.43" cy="460.054" r="4" fill="#0" id="circle65"/>
	<circle cx="441.745" cy="285.289" r="4" fill="#0" id="circle66"/>
	<circle cx="445.074" cy="456.725" r="4" fill="#0" id="circle67"/>
	<circle cx="450.067" cy="270.309" r="4" fill="#0" id="circle68"/>
	<circle cx="461.718" cy="455.06" r="4" fill="#0" id="circle69"/>
	<circle cx="465.047" cy="261.987" r="4" fill="#0" id="circle70"/>
	<circle cx="478.362" cy="250.336" r="4" fill="#0" id="circle71"/>
	<circle cx="478.362" cy="458.389" r="4" fill="#0" id="circle72"/>
	<circle cx="480.027" cy="475.034" r="4" fill="#0" id="circle73"/>
	<circle cx="486.685" cy="491.678" r="4" fill="#0" id="circle74"/>
	<circle cx="486.685" cy="513.315" r="4" fill="#0" id="circle75"/>
	<circle cx="491.678" cy="238.685" r="4" fill="#0" id="circle76"/>
	<circle cx="500" cy="501.664" r="4" fill="#0" id="circle77"/>
	<circle cx="503.329" cy="485.02" r="4" fill="#0" id="circle78"/>
	<circle cx="504.993" cy="228.698" r="4" fill="#0" id="circle79"/>
	<circle cx="504.993" cy="450.067" r="4" fill="#0" id="circle80"/>
	<circle cx="504.993" cy="466.711" r="4" fill="#0" id="circle81"/>
	<circle cx="521.638" cy="222.04" r="4" fill="#0" id="circle82"/>
	<circle cx="521.638" cy="448.403" r="4" fill="#0" id="circle83"/>
	<circle cx="536.617" cy="213.718" r="4" fill="#0" id="circle84"/>
	<circle cx="538.282" cy="448.403" r="4" fill="#0" id="circle85"/>
	<circle cx="546.604" cy="130.497" r="4" fill="#0" id="circle86"/>
	<circle cx="548.268" cy="147.141" r="4" fill="#0" id="circle87"/>
	<circle cx="549.933" cy="463.383" r="4" fill="#0" id="circle88"/>
	<circle cx="549.933" cy="480.027" r="4" fill="#0" id="circle89"/>
	<circle cx="549.933" cy="509.987" r="4" fill="#0" id="circle90"/>
	<circle cx="553.262" cy="210.389" r="4" fill="#0" id="circle91"/>
	<circle cx="556.591" cy="117.181" r="4" fill="#0" id="circle92"/>
	<circle cx="561.584" cy="157.128" r="4" fill="#0" id="circle93"/>
	<circle cx="563.248" cy="173.772" r="4" fill="#0" id="circle94"/>
	<circle cx="563.248" cy="190.416" r="4" fill="#0" id="circle95"/>
	<circle cx="564.913" cy="488.349" r="4" fill="#0" id="circle96"/>
	<circle cx="566.577" cy="471.705" r="4" fill="#0" id="circle97"/>
	<circle cx="569.906" cy="107.195" r="4" fill="#0" id="circle98"/>
	<circle cx="571.57" cy="450.067" r="4" fill="#0" id="circle99"/>
	<circle cx="584.886" cy="98.8725" r="4" fill="#0" id="circle100"/>
	<circle cx="588.215" cy="448.403" r="4" fill="#0" id="circle101"/>
	<circle cx="599.866" cy="90.5503" r="4" fill="#0" id="circle102"/>
	<circle cx="604.859" cy="448.403" r="4" fill="#0" id="circle103"/>
	<circle cx="616.51" cy="83.8926" r="4" fill="#0" id="circle104"/>
	<circle cx="621.503" cy="448.403" r="4" fill="#0" id="circle105"/>
	<circle cx="633.154" cy="80.5638" r="4" fill="#0" id="circle106"/>
	<circle cx="638.148" cy="448.403" r="4" fill="#0" id="circle107"/>
	<circle cx="649.799" cy="73.906" r="4" fill="#0" id="circle108"/>
	<circle cx="654.792" cy="448.403" r="4" fill="#0" id="circle109"/>
	<circle cx="666.443" cy="70.5772" r="4" fill="#0" id="circle110"/>
	<circle cx="671.436" cy="448.403" r="4" fill="#0" id="circle111"/>
	<circle cx="683.087" cy="67.2483" r="4" fill="#0" id="circle112"/>
	<circle cx="688.081" cy="448.403" r="4" fill="#0" id="circle113"/>
	<circle cx="699.732" cy="53.9329" r="4" fill="#0" id="circle114"/>
	<circle cx="704.725" cy="448.403" r="4" fill="#0" id="circle115"/>
	<circle cx="713.047" cy="43.9463" r="4" fill="#0" id="circle116"/>
	<circle cx="721.369" cy="448.403" r="4" fill="#0" id="circle117"/>
	<circle cx="729.691" cy="37.2886" r="4" fill="#0" id="circle118"/>
	<circle cx="738.013" cy="448.403" r="4" fill="#0" id="circle119"/>
	<circle cx="743.007" cy="27.302" r="4" fill="#0" id="circle120"/>
	<circle cx="752.993" cy="7.32886" r="4" fill="#0" id="circle121"/>
	<circle cx="754.658" cy="448.403" r="4" fill="#0" id="circle122"/>
	<circle cx="769.638" cy="4" r="4" fill="#0" id="circle123"/>
	<circle cx="771.302" cy="448.403" r="4" fill="#0" id="circle124"/>
	<circle cx="782.953" cy="15.651" r="4" fill="#0" id="circle125"/>
	<circle cx="787.946" cy="448.403" r="4" fill="#0" id="circle126"/>
	<circle cx="789.611" cy="32.2953" r="4" fill="#0" id="circle127"/>
	<circle cx="804.591" cy="448.403" r="4" fill="#0" id="circle128"/>
	<circle cx="806.255" cy="38.953" r="4" fill="#0" id="circle129"/>
	<circle cx="821.235" cy="448.403" r="4" fill="#0" id="circle130"/>
	<circle cx="822.899" cy="45.6107" r="4" fill="#0" id="circle131"/>
	<circle cx="834.55" cy="58.9262" r="4" fill="#0" id="circle132"/>
	<circle cx="837.879" cy="448.403" r="4" fill="#0" id="circle133"/>
	<circle cx="849.53" cy="67.2483" r="4" fill="#0" id="circle134"/>
	<circle cx="854.523" cy="448.403" r="4" fill="#0" id="circle135"/>
	<circle cx="866.174" cy="70.5772" r="4" fill="#0" id="circle136"/>
	<circle cx="871.168" cy="448.403" r="4" fill="#0" id="circle137"/>
	<circle cx="882.819" cy="72.2416" r="4" fill="#0" id="circle138"/>
	<circle cx="887.812" cy="448.403" r="4" fill="#0" id="circle139"/>
	<circle cx="899.463" cy="77.2349" r="4" fill="#0" id="circle140"/>
	<circle cx="904.456" cy="448.403" r="4" fill="#0" id="circle141"/>
	<circle cx="916.107" cy="80.5638" r="4" fill="#0" id="circle142"/>
	<circle cx="921.101" cy="448.403" r="4" fill="#0" id="circle143"/>
	<circle cx="932.752" cy="87.2215" r="4" fill="#0" id="circle144"/>
	<circle cx="937.745" cy="448.403" r="4" fill="#0" id="circle145"/>
	<circle cx="947.732" cy="95.5436" r="4" fill="#0" id="circle146"/>
	<circle cx="954.389" cy="448.403" r="4" fill="#0" id="circle147"/>
	<circle cx="964.376" cy="100.537" r="4" fill="#0" id="circle148"/>
	<circle cx="971.034" cy="448.403" r="4" fill="#0" id="circle149"/>
	<circle cx="972.698" cy="465.047" r="4" fill="#0" id="circle150"/>
	<circle cx="972.698" cy="481.691" r="4" fill="#0" id="circle151"/>
	<circle cx="976.027" cy="498.336" r="4" fill="#0" id="circle152"/>
	<circle cx="976.027" cy="514.98" r="4" fill="#0" id="circle153"/>
	<circle cx="977.691" cy="110.523" r="4" fill="#0" id="circle154"/>
	<circle cx="984.349" cy="207.06" r="4" fill="#0" id="circle155"/>
	<circle cx="984.349" cy="223.705" r="4" fill="#0" id="circle156"/>
	<circle cx="984.349" cy="240.349" r="4" fill="#0" id="circle157"/>
	<circle cx="984.349" cy="256.993" r="4" fill="#0" id="circle158"/>
	<circle cx="987.678" cy="160.456" r="4" fill="#0" id="circle159"/>
	<circle cx="987.678" cy="177.101" r="4" fill="#0" id="circle160"/>
	<circle cx="987.678" cy="273.638" r="4" fill="#0" id="circle161"/>
	<circle cx="987.678" cy="290.282" r="4" fill="#0" id="circle162"/>
	<circle cx="991.007" cy="306.926" r="4" fill="#0" id="circle163"/>
	<circle cx="991.007" cy="323.57" r="4" fill="#0" id="circle164"/>
	<circle cx="991.007" cy="460.054" r="4" fill="#0" id="circle165"/>
	<circle cx="991.007" cy="476.698" r="4" fill="#0" id="circle166"/>
	<circle cx="991.007" cy="506.658" r="4" fill="#0" id="circle167"/>
	<circle cx="992.671" cy="118.846" r="4" fill="#0" id="circle168"/>
	<circle cx="994.336" cy="340.215" r="4" fill="#0" id="circle169"/>
	<circle cx="994.336" cy="356.859" r="4" fill="#0" id="circle170"/>
	<circle cx="994.336" cy="373.503" r="4" fill="#0" id="circle171"/>
	<circle cx="994.336" cy="390.148" r="4" fill="#0" id="circle172"/>
	<circle cx="994.336" cy="406.792" r="4" fill="#0" id="circle173"/>
	<circle cx="994.336" cy="423.436" r="4" fill="#0" id="circle174"/>
	<circle cx="994.336" cy="440.081" r="4" fill="#0" id="circle175"/>
	<circle cx="996" cy="145.477" r="4" fill="#0" id="circle176"/>
	</g>
</svg>