<?xml version="1.0" encoding="UTF-8" standalone="no"?>
<!-- Created with CurveBenchmark -->
<svg
	xmlns:dc="http://purl.org/dc/elements/1.1/"
	xmlns:cc="http://creativecommons.org/ns#"
	xmlns:rdf="http://www.w3.org/1999/02/22-rdf-syntax-ns#"
	xmlns:svg="http://www.w3.org/2000/svg"
	xmlns="http://www.w3.org/2000/svg"
	xmlns:sodipodi="http://sodipodi.sourceforge.net/DTD/sodipodi-0.dtd"
	xmlns:inkscape="http://www.inkscape.org/namespaces/inkscape"
	width="1000"
	height="1000"
	id="svg2"
	version="1.1"
	sodipodi:docname="manifold/connect2d-classic01.png.txt">
<defs
	id="defs4" />
<metadata
	id="metadata7">
	<rdf:RDF>
		<cc:Work
			rdf:about="">
			<dc:format>image/svg+xml</dc:format>
			<dc:type
				rdf:resource="http://purl.org/dc/dcmitype/StillImage" />
			<dc:title></dc:title>
		</cc:Work>
	</rdf:RDF>
</metadata>
<g
	inkscape:label="Layer 1"
	inkscape:groupmode="layer"
	id="layer1">
	<path style="fill:none;stroke:red;stroke-width:1px;stroke-linecap:butt;stroke-linejoin:miter;stroke-opacity:1" d="M 996,277.213 992.333,301.05 z" id="boundary" inkscape:connector-curvature="0" />
	<path style="fill:none;stroke:red;stroke-width:1px;stroke-linecap:butt;stroke-linejoin:miter;stroke-opacity:1" d="M 992.333,301.05 973.996,304.717 z" id="boundary" inkscape:connector-curvature="0" />
	<path style="fill:none;stroke:red;stroke-width:1px;stroke-linecap:butt;stroke-linejoin:miter;stroke-opacity:1" d="M 973.996,304.717 957.494,295.549 z" id="boundary" inkscape:connector-curvature="0" />
	<path style="fill:none;stroke:red;stroke-width:1px;stroke-linecap:butt;stroke-linejoin:miter;stroke-opacity:1" d="M 957.494,295.549 940.991,304.717 z" id="boundary" inkscape:connector-curvature="0" />
	<path style="fill:none;stroke:red;stroke-width:1px;stroke-linecap:butt;stroke-linejoin:miter;stroke-opacity:1" d="M 940.991,304.717 929.989,323.054 z" id="boundary" inkscape:connector-curvature="0" />
	<path style="fill:none;stroke:red;stroke-width:1px;stroke-linecap:butt;stroke-linejoin:miter;stroke-opacity:1" d="M 929.989,323.054 913.486,332.222 z" id="boundary" inkscape:connector-curvature="0" />
	<path style="fill:none;stroke:red;stroke-width:1px;stroke-linecap:butt;stroke-linejoin:miter;stroke-opacity:1" d="M 913.486,332.222 904.318,350.558 z" id="boundary" inkscape:connector-curvature="0" />
	<path style="fill:none;stroke:red;stroke-width:1px;stroke-linecap:butt;stroke-linejoin:miter;stroke-opacity:1" d="M 904.318,350.558 895.15,368.895 z" id="boundary" inkscape:connector-curvature="0" />
	<path style="fill:none;stroke:red;stroke-width:1px;stroke-linecap:butt;stroke-linejoin:miter;stroke-opacity:1" d="M 895.15,368.895 882.314,383.564 z" id="boundary" inkscape:connector-curvature="0" />
	<path style="fill:none;stroke:red;stroke-width:1px;stroke-linecap:butt;stroke-linejoin:miter;stroke-opacity:1" d="M 882.314,383.564 867.645,396.399 z" id="boundary" inkscape:connector-curvature="0" />
	<path style="fill:none;stroke:red;stroke-width:1px;stroke-linecap:butt;stroke-linejoin:miter;stroke-opacity:1" d="M 867.645,396.399 851.142,405.567 z" id="boundary" inkscape:connector-curvature="0" />
	<path style="fill:none;stroke:red;stroke-width:1px;stroke-linecap:butt;stroke-linejoin:miter;stroke-opacity:1" d="M 851.142,405.567 832.806,405.567 z" id="boundary" inkscape:connector-curvature="0" />
	<path style="fill:none;stroke:red;stroke-width:1px;stroke-linecap:butt;stroke-linejoin:miter;stroke-opacity:1" d="M 832.806,405.567 814.47,405.567 z" id="boundary" inkscape:connector-curvature="0" />
	<path style="fill:none;stroke:red;stroke-width:1px;stroke-linecap:butt;stroke-linejoin:miter;stroke-opacity:1" d="M 814.47,405.567 797.967,396.399 z" id="boundary" inkscape:connector-curvature="0" />
	<path style="fill:none;stroke:red;stroke-width:1px;stroke-linecap:butt;stroke-linejoin:miter;stroke-opacity:1" d="M 797.967,396.399 781.464,387.231 z" id="boundary" inkscape:connector-curvature="0" />
	<path style="fill:none;stroke:red;stroke-width:1px;stroke-linecap:butt;stroke-linejoin:miter;stroke-opacity:1" d="M 781.464,387.231 766.795,374.396 z" id="boundary" inkscape:connector-curvature="0" />
	<path style="fill:none;stroke:red;stroke-width:1px;stroke-linecap:butt;stroke-linejoin:miter;stroke-opacity:1" d="M 766.795,374.396 755.793,359.726 z" id="boundary" inkscape:connector-curvature="0" />
	<path style="fill:none;stroke:red;stroke-width:1px;stroke-linecap:butt;stroke-linejoin:miter;stroke-opacity:1" d="M 755.793,359.726 748.458,341.39 z" id="boundary" inkscape:connector-curvature="0" />
	<path style="fill:none;stroke:red;stroke-width:1px;stroke-linecap:butt;stroke-linejoin:miter;stroke-opacity:1" d="M 748.458,341.39 730.122,341.39 z" id="boundary" inkscape:connector-curvature="0" />
	<path style="fill:none;stroke:red;stroke-width:1px;stroke-linecap:butt;stroke-linejoin:miter;stroke-opacity:1" d="M 730.122,341.39 720.954,359.726 z" id="boundary" inkscape:connector-curvature="0" />
	<path style="fill:none;stroke:red;stroke-width:1px;stroke-linecap:butt;stroke-linejoin:miter;stroke-opacity:1" d="M 720.954,359.726 704.451,368.895 z" id="boundary" inkscape:connector-curvature="0" />
	<path style="fill:none;stroke:red;stroke-width:1px;stroke-linecap:butt;stroke-linejoin:miter;stroke-opacity:1" d="M 704.451,368.895 687.948,378.063 z" id="boundary" inkscape:connector-curvature="0" />
	<path style="fill:none;stroke:red;stroke-width:1px;stroke-linecap:butt;stroke-linejoin:miter;stroke-opacity:1" d="M 687.948,378.063 671.445,387.231 z" id="boundary" inkscape:connector-curvature="0" />
	<path style="fill:none;stroke:red;stroke-width:1px;stroke-linecap:butt;stroke-linejoin:miter;stroke-opacity:1" d="M 671.445,387.231 653.109,387.231 z" id="boundary" inkscape:connector-curvature="0" />
	<path style="fill:none;stroke:red;stroke-width:1px;stroke-linecap:butt;stroke-linejoin:miter;stroke-opacity:1" d="M 653.109,387.231 636.606,378.063 z" id="boundary" inkscape:connector-curvature="0" />
	<path style="fill:none;stroke:red;stroke-width:1px;stroke-linecap:butt;stroke-linejoin:miter;stroke-opacity:1" d="M 636.606,378.063 620.104,368.895 z" id="boundary" inkscape:connector-curvature="0" />
	<path style="fill:none;stroke:red;stroke-width:1px;stroke-linecap:butt;stroke-linejoin:miter;stroke-opacity:1" d="M 620.104,368.895 609.102,354.226 z" id="boundary" inkscape:connector-curvature="0" />
	<path style="fill:none;stroke:red;stroke-width:1px;stroke-linecap:butt;stroke-linejoin:miter;stroke-opacity:1" d="M 609.102,354.226 599.933,337.723 z" id="boundary" inkscape:connector-curvature="0" />
	<path style="fill:none;stroke:red;stroke-width:1px;stroke-linecap:butt;stroke-linejoin:miter;stroke-opacity:1" d="M 599.933,337.723 588.932,323.054 z" id="boundary" inkscape:connector-curvature="0" />
	<path style="fill:none;stroke:red;stroke-width:1px;stroke-linecap:butt;stroke-linejoin:miter;stroke-opacity:1" d="M 588.932,323.054 572.429,332.222 z" id="boundary" inkscape:connector-curvature="0" />
	<path style="fill:none;stroke:red;stroke-width:1px;stroke-linecap:butt;stroke-linejoin:miter;stroke-opacity:1" d="M 572.429,332.222 554.092,332.222 z" id="boundary" inkscape:connector-curvature="0" />
	<path style="fill:none;stroke:red;stroke-width:1px;stroke-linecap:butt;stroke-linejoin:miter;stroke-opacity:1" d="M 554.092,332.222 535.756,332.222 z" id="boundary" inkscape:connector-curvature="0" />
	<path style="fill:none;stroke:red;stroke-width:1px;stroke-linecap:butt;stroke-linejoin:miter;stroke-opacity:1" d="M 535.756,332.222 517.42,332.222 z" id="boundary" inkscape:connector-curvature="0" />
	<path style="fill:none;stroke:red;stroke-width:1px;stroke-linecap:butt;stroke-linejoin:miter;stroke-opacity:1" d="M 517.42,332.222 499.083,332.222 z" id="boundary" inkscape:connector-curvature="0" />
	<path style="fill:none;stroke:red;stroke-width:1px;stroke-linecap:butt;stroke-linejoin:miter;stroke-opacity:1" d="M 499.083,332.222 480.747,332.222 z" id="boundary" inkscape:connector-curvature="0" />
	<path style="fill:none;stroke:red;stroke-width:1px;stroke-linecap:butt;stroke-linejoin:miter;stroke-opacity:1" d="M 480.747,332.222 462.41,332.222 z" id="boundary" inkscape:connector-curvature="0" />
	<path style="fill:none;stroke:red;stroke-width:1px;stroke-linecap:butt;stroke-linejoin:miter;stroke-opacity:1" d="M 462.41,332.222 444.074,332.222 z" id="boundary" inkscape:connector-curvature="0" />
	<path style="fill:none;stroke:red;stroke-width:1px;stroke-linecap:butt;stroke-linejoin:miter;stroke-opacity:1" d="M 444.074,332.222 425.738,332.222 z" id="boundary" inkscape:connector-curvature="0" />
	<path style="fill:none;stroke:red;stroke-width:1px;stroke-linecap:butt;stroke-linejoin:miter;stroke-opacity:1" d="M 425.738,332.222 407.401,335.889 z" id="boundary" inkscape:connector-curvature="0" />
	<path style="fill:none;stroke:red;stroke-width:1px;stroke-linecap:butt;stroke-linejoin:miter;stroke-opacity:1" d="M 407.401,335.889 389.065,341.39 z" id="boundary" inkscape:connector-curvature="0" />
	<path style="fill:none;stroke:red;stroke-width:1px;stroke-linecap:butt;stroke-linejoin:miter;stroke-opacity:1" d="M 389.065,341.39 370.728,341.39 z" id="boundary" inkscape:connector-curvature="0" />
	<path style="fill:none;stroke:red;stroke-width:1px;stroke-linecap:butt;stroke-linejoin:miter;stroke-opacity:1" d="M 370.728,341.39 354.226,350.558 z" id="boundary" inkscape:connector-curvature="0" />
	<path style="fill:none;stroke:red;stroke-width:1px;stroke-linecap:butt;stroke-linejoin:miter;stroke-opacity:1" d="M 354.226,350.558 345.057,368.895 z" id="boundary" inkscape:connector-curvature="0" />
	<path style="fill:none;stroke:red;stroke-width:1px;stroke-linecap:butt;stroke-linejoin:miter;stroke-opacity:1" d="M 345.057,368.895 326.721,387.231 z" id="boundary" inkscape:connector-curvature="0" />
	<path style="fill:none;stroke:red;stroke-width:1px;stroke-linecap:butt;stroke-linejoin:miter;stroke-opacity:1" d="M 326.721,387.231 319.386,405.567 z" id="boundary" inkscape:connector-curvature="0" />
	<path style="fill:none;stroke:red;stroke-width:1px;stroke-linecap:butt;stroke-linejoin:miter;stroke-opacity:1" d="M 319.386,405.567 302.884,414.736 z" id="boundary" inkscape:connector-curvature="0" />
	<path style="fill:none;stroke:red;stroke-width:1px;stroke-linecap:butt;stroke-linejoin:miter;stroke-opacity:1" d="M 302.884,414.736 284.547,422.07 z" id="boundary" inkscape:connector-curvature="0" />
	<path style="fill:none;stroke:red;stroke-width:1px;stroke-linecap:butt;stroke-linejoin:miter;stroke-opacity:1" d="M 284.547,422.07 266.211,422.07 z" id="boundary" inkscape:connector-curvature="0" />
	<path style="fill:none;stroke:red;stroke-width:1px;stroke-linecap:butt;stroke-linejoin:miter;stroke-opacity:1" d="M 266.211,422.07 247.874,422.07 z" id="boundary" inkscape:connector-curvature="0" />
	<path style="fill:none;stroke:red;stroke-width:1px;stroke-linecap:butt;stroke-linejoin:miter;stroke-opacity:1" d="M 247.874,422.07 229.538,414.736 z" id="boundary" inkscape:connector-curvature="0" />
	<path style="fill:none;stroke:red;stroke-width:1px;stroke-linecap:butt;stroke-linejoin:miter;stroke-opacity:1" d="M 229.538,414.736 216.702,400.067 z" id="boundary" inkscape:connector-curvature="0" />
	<path style="fill:none;stroke:red;stroke-width:1px;stroke-linecap:butt;stroke-linejoin:miter;stroke-opacity:1" d="M 216.702,400.067 202.033,387.231 z" id="boundary" inkscape:connector-curvature="0" />
	<path style="fill:none;stroke:red;stroke-width:1px;stroke-linecap:butt;stroke-linejoin:miter;stroke-opacity:1" d="M 202.033,387.231 196.532,368.895 z" id="boundary" inkscape:connector-curvature="0" />
	<path style="fill:none;stroke:red;stroke-width:1px;stroke-linecap:butt;stroke-linejoin:miter;stroke-opacity:1" d="M 196.532,368.895 180.03,378.063 z" id="boundary" inkscape:connector-curvature="0" />
	<path style="fill:none;stroke:red;stroke-width:1px;stroke-linecap:butt;stroke-linejoin:miter;stroke-opacity:1" d="M 180.03,378.063 163.527,387.231 z" id="boundary" inkscape:connector-curvature="0" />
	<path style="fill:none;stroke:red;stroke-width:1px;stroke-linecap:butt;stroke-linejoin:miter;stroke-opacity:1" d="M 163.527,387.231 147.024,396.399 z" id="boundary" inkscape:connector-curvature="0" />
	<path style="fill:none;stroke:red;stroke-width:1px;stroke-linecap:butt;stroke-linejoin:miter;stroke-opacity:1" d="M 147.024,396.399 128.688,396.399 z" id="boundary" inkscape:connector-curvature="0" />
	<path style="fill:none;stroke:red;stroke-width:1px;stroke-linecap:butt;stroke-linejoin:miter;stroke-opacity:1" d="M 128.688,396.399 110.351,394.566 z" id="boundary" inkscape:connector-curvature="0" />
	<path style="fill:none;stroke:red;stroke-width:1px;stroke-linecap:butt;stroke-linejoin:miter;stroke-opacity:1" d="M 110.351,394.566 92.0148,387.231 z" id="boundary" inkscape:connector-curvature="0" />
	<path style="fill:none;stroke:red;stroke-width:1px;stroke-linecap:butt;stroke-linejoin:miter;stroke-opacity:1" d="M 92.0148,387.231 77.3457,376.229 z" id="boundary" inkscape:connector-curvature="0" />
	<path style="fill:none;stroke:red;stroke-width:1px;stroke-linecap:butt;stroke-linejoin:miter;stroke-opacity:1" d="M 77.3457,376.229 62.6765,365.227 z" id="boundary" inkscape:connector-curvature="0" />
	<path style="fill:none;stroke:red;stroke-width:1px;stroke-linecap:butt;stroke-linejoin:miter;stroke-opacity:1" d="M 62.6765,365.227 53.5083,348.725 z" id="boundary" inkscape:connector-curvature="0" />
	<path style="fill:none;stroke:red;stroke-width:1px;stroke-linecap:butt;stroke-linejoin:miter;stroke-opacity:1" d="M 53.5083,348.725 49.841,330.388 z" id="boundary" inkscape:connector-curvature="0" />
	<path style="fill:none;stroke:red;stroke-width:1px;stroke-linecap:butt;stroke-linejoin:miter;stroke-opacity:1" d="M 49.841,330.388 40.6728,313.885 z" id="boundary" inkscape:connector-curvature="0" />
	<path style="fill:none;stroke:red;stroke-width:1px;stroke-linecap:butt;stroke-linejoin:miter;stroke-opacity:1" d="M 40.6728,313.885 22.3364,313.885 z" id="boundary" inkscape:connector-curvature="0" />
	<path style="fill:none;stroke:red;stroke-width:1px;stroke-linecap:butt;stroke-linejoin:miter;stroke-opacity:1" d="M 22.3364,313.885 4,308.384 z" id="boundary" inkscape:connector-curvature="0" />
	<path style="fill:none;stroke:red;stroke-width:1px;stroke-linecap:butt;stroke-linejoin:miter;stroke-opacity:1" d="M 4,308.384 13.1682,288.214 z" id="boundary" inkscape:connector-curvature="0" />
	<path style="fill:none;stroke:red;stroke-width:1px;stroke-linecap:butt;stroke-linejoin:miter;stroke-opacity:1" d="M 13.1682,288.214 4,271.712 z" id="boundary" inkscape:connector-curvature="0" />
	<path style="fill:none;stroke:red;stroke-width:1px;stroke-linecap:butt;stroke-linejoin:miter;stroke-opacity:1" d="M 4,271.712 22.3364,266.211 z" id="boundary" inkscape:connector-curvature="0" />
	<path style="fill:none;stroke:red;stroke-width:1px;stroke-linecap:butt;stroke-linejoin:miter;stroke-opacity:1" d="M 22.3364,266.211 38.8392,275.379 z" id="boundary" inkscape:connector-curvature="0" />
	<path style="fill:none;stroke:red;stroke-width:1px;stroke-linecap:butt;stroke-linejoin:miter;stroke-opacity:1" d="M 38.8392,275.379 51.6747,260.71 z" id="boundary" inkscape:connector-curvature="0" />
	<path style="fill:none;stroke:red;stroke-width:1px;stroke-linecap:butt;stroke-linejoin:miter;stroke-opacity:1" d="M 51.6747,260.71 66.3438,247.874 z" id="boundary" inkscape:connector-curvature="0" />
	<path style="fill:none;stroke:red;stroke-width:1px;stroke-linecap:butt;stroke-linejoin:miter;stroke-opacity:1" d="M 66.3438,247.874 49.841,235.039 z" id="boundary" inkscape:connector-curvature="0" />
	<path style="fill:none;stroke:red;stroke-width:1px;stroke-linecap:butt;stroke-linejoin:miter;stroke-opacity:1" d="M 49.841,235.039 49.841,216.702 z" id="boundary" inkscape:connector-curvature="0" />
	<path style="fill:none;stroke:red;stroke-width:1px;stroke-linecap:butt;stroke-linejoin:miter;stroke-opacity:1" d="M 49.841,216.702 64.5102,202.033 z" id="boundary" inkscape:connector-curvature="0" />
	<path style="fill:none;stroke:red;stroke-width:1px;stroke-linecap:butt;stroke-linejoin:miter;stroke-opacity:1" d="M 64.5102,202.033 82.8466,192.865 z" id="boundary" inkscape:connector-curvature="0" />
	<path style="fill:none;stroke:red;stroke-width:1px;stroke-linecap:butt;stroke-linejoin:miter;stroke-opacity:1" d="M 82.8466,192.865 101.183,192.865 z" id="boundary" inkscape:connector-curvature="0" />
	<path style="fill:none;stroke:red;stroke-width:1px;stroke-linecap:butt;stroke-linejoin:miter;stroke-opacity:1" d="M 101.183,192.865 114.018,170.861 z" id="boundary" inkscape:connector-curvature="0" />
	<path style="fill:none;stroke:red;stroke-width:1px;stroke-linecap:butt;stroke-linejoin:miter;stroke-opacity:1" d="M 114.018,170.861 128.688,156.192 z" id="boundary" inkscape:connector-curvature="0" />
	<path style="fill:none;stroke:red;stroke-width:1px;stroke-linecap:butt;stroke-linejoin:miter;stroke-opacity:1" d="M 128.688,156.192 147.024,156.192 z" id="boundary" inkscape:connector-curvature="0" />
	<path style="fill:none;stroke:red;stroke-width:1px;stroke-linecap:butt;stroke-linejoin:miter;stroke-opacity:1" d="M 147.024,156.192 161.693,141.523 z" id="boundary" inkscape:connector-curvature="0" />
	<path style="fill:none;stroke:red;stroke-width:1px;stroke-linecap:butt;stroke-linejoin:miter;stroke-opacity:1" d="M 161.693,141.523 176.362,128.688 z" id="boundary" inkscape:connector-curvature="0" />
	<path style="fill:none;stroke:red;stroke-width:1px;stroke-linecap:butt;stroke-linejoin:miter;stroke-opacity:1" d="M 176.362,128.688 178.196,106.684 z" id="boundary" inkscape:connector-curvature="0" />
	<path style="fill:none;stroke:red;stroke-width:1px;stroke-linecap:butt;stroke-linejoin:miter;stroke-opacity:1" d="M 178.196,106.684 196.532,104.85 z" id="boundary" inkscape:connector-curvature="0" />
	<path style="fill:none;stroke:red;stroke-width:1px;stroke-linecap:butt;stroke-linejoin:miter;stroke-opacity:1" d="M 196.532,104.85 207.534,119.519 z" id="boundary" inkscape:connector-curvature="0" />
	<path style="fill:none;stroke:red;stroke-width:1px;stroke-linecap:butt;stroke-linejoin:miter;stroke-opacity:1" d="M 207.534,119.519 225.871,119.519 z" id="boundary" inkscape:connector-curvature="0" />
	<path style="fill:none;stroke:red;stroke-width:1px;stroke-linecap:butt;stroke-linejoin:miter;stroke-opacity:1" d="M 225.871,119.519 242.373,128.688 z" id="boundary" inkscape:connector-curvature="0" />
	<path style="fill:none;stroke:red;stroke-width:1px;stroke-linecap:butt;stroke-linejoin:miter;stroke-opacity:1" d="M 242.373,128.688 260.71,123.187 z" id="boundary" inkscape:connector-curvature="0" />
	<path style="fill:none;stroke:red;stroke-width:1px;stroke-linecap:butt;stroke-linejoin:miter;stroke-opacity:1" d="M 260.71,123.187 279.046,119.519 z" id="boundary" inkscape:connector-curvature="0" />
	<path style="fill:none;stroke:red;stroke-width:1px;stroke-linecap:butt;stroke-linejoin:miter;stroke-opacity:1" d="M 279.046,119.519 295.549,128.688 z" id="boundary" inkscape:connector-curvature="0" />
	<path style="fill:none;stroke:red;stroke-width:1px;stroke-linecap:butt;stroke-linejoin:miter;stroke-opacity:1" d="M 295.549,128.688 312.052,119.519 z" id="boundary" inkscape:connector-curvature="0" />
	<path style="fill:none;stroke:red;stroke-width:1px;stroke-linecap:butt;stroke-linejoin:miter;stroke-opacity:1" d="M 312.052,119.519 330.388,119.519 z" id="boundary" inkscape:connector-curvature="0" />
	<path style="fill:none;stroke:red;stroke-width:1px;stroke-linecap:butt;stroke-linejoin:miter;stroke-opacity:1" d="M 330.388,119.519 348.725,119.519 z" id="boundary" inkscape:connector-curvature="0" />
	<path style="fill:none;stroke:red;stroke-width:1px;stroke-linecap:butt;stroke-linejoin:miter;stroke-opacity:1" d="M 348.725,119.519 372.562,128.688 z" id="boundary" inkscape:connector-curvature="0" />
	<path style="fill:none;stroke:red;stroke-width:1px;stroke-linecap:butt;stroke-linejoin:miter;stroke-opacity:1" d="M 372.562,128.688 367.061,110.351 z" id="boundary" inkscape:connector-curvature="0" />
	<path style="fill:none;stroke:red;stroke-width:1px;stroke-linecap:butt;stroke-linejoin:miter;stroke-opacity:1" d="M 367.061,110.351 381.73,95.6821 z" id="boundary" inkscape:connector-curvature="0" />
	<path style="fill:none;stroke:red;stroke-width:1px;stroke-linecap:butt;stroke-linejoin:miter;stroke-opacity:1" d="M 381.73,95.6821 389.065,70.0111 z" id="boundary" inkscape:connector-curvature="0" />
	<path style="fill:none;stroke:red;stroke-width:1px;stroke-linecap:butt;stroke-linejoin:miter;stroke-opacity:1" d="M 389.065,70.0111 379.896,42.5065 z" id="boundary" inkscape:connector-curvature="0" />
	<path style="fill:none;stroke:red;stroke-width:1px;stroke-linecap:butt;stroke-linejoin:miter;stroke-opacity:1" d="M 379.896,42.5065 398.233,37.0055 z" id="boundary" inkscape:connector-curvature="0" />
	<path style="fill:none;stroke:red;stroke-width:1px;stroke-linecap:butt;stroke-linejoin:miter;stroke-opacity:1" d="M 398.233,37.0055 416.569,33.3383 z" id="boundary" inkscape:connector-curvature="0" />
	<path style="fill:none;stroke:red;stroke-width:1px;stroke-linecap:butt;stroke-linejoin:miter;stroke-opacity:1" d="M 416.569,33.3383 434.906,31.5046 z" id="boundary" inkscape:connector-curvature="0" />
	<path style="fill:none;stroke:red;stroke-width:1px;stroke-linecap:butt;stroke-linejoin:miter;stroke-opacity:1" d="M 434.906,31.5046 453.242,27.8373 z" id="boundary" inkscape:connector-curvature="0" />
	<path style="fill:none;stroke:red;stroke-width:1px;stroke-linecap:butt;stroke-linejoin:miter;stroke-opacity:1" d="M 453.242,27.8373 471.579,24.1701 z" id="boundary" inkscape:connector-curvature="0" />
	<path style="fill:none;stroke:red;stroke-width:1px;stroke-linecap:butt;stroke-linejoin:miter;stroke-opacity:1" d="M 471.579,24.1701 489.915,27.8373 z" id="boundary" inkscape:connector-curvature="0" />
	<path style="fill:none;stroke:red;stroke-width:1px;stroke-linecap:butt;stroke-linejoin:miter;stroke-opacity:1" d="M 489.915,27.8373 506.418,18.6691 z" id="boundary" inkscape:connector-curvature="0" />
	<path style="fill:none;stroke:red;stroke-width:1px;stroke-linecap:butt;stroke-linejoin:miter;stroke-opacity:1" d="M 506.418,18.6691 522.921,27.8373 z" id="boundary" inkscape:connector-curvature="0" />
	<path style="fill:none;stroke:red;stroke-width:1px;stroke-linecap:butt;stroke-linejoin:miter;stroke-opacity:1" d="M 522.921,27.8373 539.423,18.6691 z" id="boundary" inkscape:connector-curvature="0" />
	<path style="fill:none;stroke:red;stroke-width:1px;stroke-linecap:butt;stroke-linejoin:miter;stroke-opacity:1" d="M 539.423,18.6691 557.76,18.6691 z" id="boundary" inkscape:connector-curvature="0" />
	<path style="fill:none;stroke:red;stroke-width:1px;stroke-linecap:butt;stroke-linejoin:miter;stroke-opacity:1" d="M 557.76,18.6691 576.096,18.6691 z" id="boundary" inkscape:connector-curvature="0" />
	<path style="fill:none;stroke:red;stroke-width:1px;stroke-linecap:butt;stroke-linejoin:miter;stroke-opacity:1" d="M 576.096,18.6691 592.599,9.50092 z" id="boundary" inkscape:connector-curvature="0" />
	<path style="fill:none;stroke:red;stroke-width:1px;stroke-linecap:butt;stroke-linejoin:miter;stroke-opacity:1" d="M 592.599,9.50092 610.935,9.50092 z" id="boundary" inkscape:connector-curvature="0" />
	<path style="fill:none;stroke:red;stroke-width:1px;stroke-linecap:butt;stroke-linejoin:miter;stroke-opacity:1" d="M 610.935,9.50092 629.272,9.50092 z" id="boundary" inkscape:connector-curvature="0" />
	<path style="fill:none;stroke:red;stroke-width:1px;stroke-linecap:butt;stroke-linejoin:miter;stroke-opacity:1" d="M 629.272,9.50092 647.608,9.50092 z" id="boundary" inkscape:connector-curvature="0" />
	<path style="fill:none;stroke:red;stroke-width:1px;stroke-linecap:butt;stroke-linejoin:miter;stroke-opacity:1" d="M 647.608,9.50092 665.945,9.50092 z" id="boundary" inkscape:connector-curvature="0" />
	<path style="fill:none;stroke:red;stroke-width:1px;stroke-linecap:butt;stroke-linejoin:miter;stroke-opacity:1" d="M 665.945,9.50092 684.281,4 z" id="boundary" inkscape:connector-curvature="0" />
	<path style="fill:none;stroke:red;stroke-width:1px;stroke-linecap:butt;stroke-linejoin:miter;stroke-opacity:1" d="M 684.281,4 702.617,4 z" id="boundary" inkscape:connector-curvature="0" />
	<path style="fill:none;stroke:red;stroke-width:1px;stroke-linecap:butt;stroke-linejoin:miter;stroke-opacity:1" d="M 702.617,4 720.954,4 z" id="boundary" inkscape:connector-curvature="0" />
	<path style="fill:none;stroke:red;stroke-width:1px;stroke-linecap:butt;stroke-linejoin:miter;stroke-opacity:1" d="M 720.954,4 739.29,4 z" id="boundary" inkscape:connector-curvature="0" />
	<path style="fill:none;stroke:red;stroke-width:1px;stroke-linecap:butt;stroke-linejoin:miter;stroke-opacity:1" d="M 739.29,4 757.627,4 z" id="boundary" inkscape:connector-curvature="0" />
	<path style="fill:none;stroke:red;stroke-width:1px;stroke-linecap:butt;stroke-linejoin:miter;stroke-opacity:1" d="M 757.627,4 775.963,4 z" id="boundary" inkscape:connector-curvature="0" />
	<path style="fill:none;stroke:red;stroke-width:1px;stroke-linecap:butt;stroke-linejoin:miter;stroke-opacity:1" d="M 775.963,4 794.299,4 z" id="boundary" inkscape:connector-curvature="0" />
	<path style="fill:none;stroke:red;stroke-width:1px;stroke-linecap:butt;stroke-linejoin:miter;stroke-opacity:1" d="M 794.299,4 812.636,4 z" id="boundary" inkscape:connector-curvature="0" />
	<path style="fill:none;stroke:red;stroke-width:1px;stroke-linecap:butt;stroke-linejoin:miter;stroke-opacity:1" d="M 812.636,4 830.972,4 z" id="boundary" inkscape:connector-curvature="0" />
	<path style="fill:none;stroke:red;stroke-width:1px;stroke-linecap:butt;stroke-linejoin:miter;stroke-opacity:1" d="M 830.972,4 849.309,9.50092 z" id="boundary" inkscape:connector-curvature="0" />
	<path style="fill:none;stroke:red;stroke-width:1px;stroke-linecap:butt;stroke-linejoin:miter;stroke-opacity:1" d="M 849.309,9.50092 867.645,9.50092 z" id="boundary" inkscape:connector-curvature="0" />
	<path style="fill:none;stroke:red;stroke-width:1px;stroke-linecap:butt;stroke-linejoin:miter;stroke-opacity:1" d="M 867.645,9.50092 885.982,9.50092 z" id="boundary" inkscape:connector-curvature="0" />
	<path style="fill:none;stroke:red;stroke-width:1px;stroke-linecap:butt;stroke-linejoin:miter;stroke-opacity:1" d="M 885.982,9.50092 904.318,15.0018 z" id="boundary" inkscape:connector-curvature="0" />
	<path style="fill:none;stroke:red;stroke-width:1px;stroke-linecap:butt;stroke-linejoin:miter;stroke-opacity:1" d="M 904.318,15.0018 922.654,18.6691 z" id="boundary" inkscape:connector-curvature="0" />
	<path style="fill:none;stroke:red;stroke-width:1px;stroke-linecap:butt;stroke-linejoin:miter;stroke-opacity:1" d="M 922.654,18.6691 931.823,35.1719 z" id="boundary" inkscape:connector-curvature="0" />
	<path style="fill:none;stroke:red;stroke-width:1px;stroke-linecap:butt;stroke-linejoin:miter;stroke-opacity:1" d="M 931.823,35.1719 931.823,53.5083 z" id="boundary" inkscape:connector-curvature="0" />
	<path style="fill:none;stroke:red;stroke-width:1px;stroke-linecap:butt;stroke-linejoin:miter;stroke-opacity:1" d="M 931.823,53.5083 931.823,71.8447 z" id="boundary" inkscape:connector-curvature="0" />
	<path style="fill:none;stroke:red;stroke-width:1px;stroke-linecap:butt;stroke-linejoin:miter;stroke-opacity:1" d="M 931.823,71.8447 922.654,93.8484 z" id="boundary" inkscape:connector-curvature="0" />
	<path style="fill:none;stroke:red;stroke-width:1px;stroke-linecap:butt;stroke-linejoin:miter;stroke-opacity:1" d="M 922.654,93.8484 922.654,121.353 z" id="boundary" inkscape:connector-curvature="0" />
	<path style="fill:none;stroke:red;stroke-width:1px;stroke-linecap:butt;stroke-linejoin:miter;stroke-opacity:1" d="M 922.654,121.353 922.654,139.689 z" id="boundary" inkscape:connector-curvature="0" />
	<path style="fill:none;stroke:red;stroke-width:1px;stroke-linecap:butt;stroke-linejoin:miter;stroke-opacity:1" d="M 922.654,139.689 940.991,147.024 z" id="boundary" inkscape:connector-curvature="0" />
	<path style="fill:none;stroke:red;stroke-width:1px;stroke-linecap:butt;stroke-linejoin:miter;stroke-opacity:1" d="M 940.991,147.024 959.327,147.024 z" id="boundary" inkscape:connector-curvature="0" />
	<path style="fill:none;stroke:red;stroke-width:1px;stroke-linecap:butt;stroke-linejoin:miter;stroke-opacity:1" d="M 959.327,147.024 968.495,163.527 z" id="boundary" inkscape:connector-curvature="0" />
	<path style="fill:none;stroke:red;stroke-width:1px;stroke-linecap:butt;stroke-linejoin:miter;stroke-opacity:1" d="M 968.495,163.527 968.495,181.863 z" id="boundary" inkscape:connector-curvature="0" />
	<path style="fill:none;stroke:red;stroke-width:1px;stroke-linecap:butt;stroke-linejoin:miter;stroke-opacity:1" d="M 968.495,181.863 968.495,200.2 z" id="boundary" inkscape:connector-curvature="0" />
	<path style="fill:none;stroke:red;stroke-width:1px;stroke-linecap:butt;stroke-linejoin:miter;stroke-opacity:1" d="M 968.495,200.2 968.495,218.536 z" id="boundary" inkscape:connector-curvature="0" />
	<path style="fill:none;stroke:red;stroke-width:1px;stroke-linecap:butt;stroke-linejoin:miter;stroke-opacity:1" d="M 968.495,218.536 968.495,236.872 z" id="boundary" inkscape:connector-curvature="0" />
	<path style="fill:none;stroke:red;stroke-width:1px;stroke-linecap:butt;stroke-linejoin:miter;stroke-opacity:1" d="M 968.495,236.872 968.495,255.209 z" id="boundary" inkscape:connector-curvature="0" />
	<path style="fill:none;stroke:red;stroke-width:1px;stroke-linecap:butt;stroke-linejoin:miter;stroke-opacity:1" d="M 968.495,255.209 986.832,257.043 z" id="boundary" inkscape:connector-curvature="0" />
	<path style="fill:none;stroke:red;stroke-width:1px;stroke-linecap:butt;stroke-linejoin:miter;stroke-opacity:1" d="M 986.832,257.043 996,277.213 z" id="boundary" inkscape:connector-curvature="0" />
	<circle cx="4" cy="271.712" r="4" fill="#0" id="circle0"/>
	<circle cx="4" cy="308.384" r="4" fill="#0" id="circle1"/>
	<circle cx="13.1682" cy="288.214" r="4" fill="#0" id="circle2"/>
	<circle cx="22.3364" cy="266.211" r="4" fill="#0" id="circle3"/>
	<circle cx="22.3364" cy="313.885" r="4" fill="#0" id="circle4"/>
	<circle cx="38.8392" cy="275.379" r="4" fill="#0" id="circle5"/>
	<circle cx="40.6728" cy="313.885" r="4" fill="#0" id="circle6"/>
	<circle cx="49.841" cy="216.702" r="4" fill="#0" id="circle7"/>
	<circle cx="49.841" cy="235.039" r="4" fill="#0" id="circle8"/>
	<circle cx="49.841" cy="330.388" r="4" fill="#0" id="circle9"/>
	<circle cx="51.6747" cy="260.71" r="4" fill="#0" id="circle10"/>
	<circle cx="53.5083" cy="348.725" r="4" fill="#0" id="circle11"/>
	<circle cx="62.6765" cy="365.227" r="4" fill="#0" id="circle12"/>
	<circle cx="64.5102" cy="202.033" r="4" fill="#0" id="circle13"/>
	<circle cx="66.3438" cy="247.874" r="4" fill="#0" id="circle14"/>
	<circle cx="77.3457" cy="376.229" r="4" fill="#0" id="circle15"/>
	<circle cx="82.8466" cy="192.865" r="4" fill="#0" id="circle16"/>
	<circle cx="92.0148" cy="387.231" r="4" fill="#0" id="circle17"/>
	<circle cx="101.183" cy="192.865" r="4" fill="#0" id="circle18"/>
	<circle cx="110.351" cy="394.566" r="4" fill="#0" id="circle19"/>
	<circle cx="114.018" cy="170.861" r="4" fill="#0" id="circle20"/>
	<circle cx="128.688" cy="156.192" r="4" fill="#0" id="circle21"/>
	<circle cx="128.688" cy="396.399" r="4" fill="#0" id="circle22"/>
	<circle cx="147.024" cy="156.192" r="4" fill="#0" id="circle23"/>
	<circle cx="147.024" cy="396.399" r="4" fill="#0" id="circle24"/>
	<circle cx="161.693" cy="141.523" r="4" fill="#0" id="circle25"/>
	<circle cx="163.527" cy="387.231" r="4" fill="#0" id="circle26"/>
	<circle cx="176.362" cy="128.688" r="4" fill="#0" id="circle27"/>
	<circle cx="178.196" cy="106.684" r="4" fill="#0" id="circle28"/>
	<circle cx="180.03" cy="378.063" r="4" fill="#0" id="circle29"/>
	<circle cx="196.532" cy="104.85" r="4" fill="#0" id="circle30"/>
	<circle cx="196.532" cy="368.895" r="4" fill="#0" id="circle31"/>
	<circle cx="202.033" cy="387.231" r="4" fill="#0" id="circle32"/>
	<circle cx="207.534" cy="119.519" r="4" fill="#0" id="circle33"/>
	<circle cx="216.702" cy="400.067" r="4" fill="#0" id="circle34"/>
	<circle cx="225.871" cy="119.519" r="4" fill="#0" id="circle35"/>
	<circle cx="229.538" cy="414.736" r="4" fill="#0" id="circle36"/>
	<circle cx="242.373" cy="128.688" r="4" fill="#0" id="circle37"/>
	<circle cx="247.874" cy="422.07" r="4" fill="#0" id="circle38"/>
	<circle cx="260.71" cy="123.187" r="4" fill="#0" id="circle39"/>
	<circle cx="266.211" cy="422.07" r="4" fill="#0" id="circle40"/>
	<circle cx="279.046" cy="119.519" r="4" fill="#0" id="circle41"/>
	<circle cx="284.547" cy="422.07" r="4" fill="#0" id="circle42"/>
	<circle cx="295.549" cy="128.688" r="4" fill="#0" id="circle43"/>
	<circle cx="302.884" cy="414.736" r="4" fill="#0" id="circle44"/>
	<circle cx="312.052" cy="119.519" r="4" fill="#0" id="circle45"/>
	<circle cx="319.386" cy="405.567" r="4" fill="#0" id="circle46"/>
	<circle cx="326.721" cy="387.231" r="4" fill="#0" id="circle47"/>
	<circle cx="330.388" cy="119.519" r="4" fill="#0" id="circle48"/>
	<circle cx="345.057" cy="368.895" r="4" fill="#0" id="circle49"/>
	<circle cx="348.725" cy="119.519" r="4" fill="#0" id="circle50"/>
	<circle cx="354.226" cy="350.558" r="4" fill="#0" id="circle51"/>
	<circle cx="367.061" cy="110.351" r="4" fill="#0" id="circle52"/>
	<circle cx="370.728" cy="341.39" r="4" fill="#0" id="circle53"/>
	<circle cx="372.562" cy="128.688" r="4" fill="#0" id="circle54"/>
	<circle cx="379.896" cy="42.5065" r="4" fill="#0" id="circle55"/>
	<circle cx="381.73" cy="95.6821" r="4" fill="#0" id="circle56"/>
	<circle cx="389.065" cy="70.0111" r="4" fill="#0" id="circle57"/>
	<circle cx="389.065" cy="341.39" r="4" fill="#0" id="circle58"/>
	<circle cx="398.233" cy="37.0055" r="4" fill="#0" id="circle59"/>
	<circle cx="407.401" cy="335.889" r="4" fill="#0" id="circle60"/>
	<circle cx="416.569" cy="33.3383" r="4" fill="#0" id="circle61"/>
	<circle cx="425.738" cy="332.222" r="4" fill="#0" id="circle62"/>
	<circle cx="434.906" cy="31.5046" r="4" fill="#0" id="circle63"/>
	<circle cx="444.074" cy="332.222" r="4" fill="#0" id="circle64"/>
	<circle cx="453.242" cy="27.8373" r="4" fill="#0" id="circle65"/>
	<circle cx="462.41" cy="332.222" r="4" fill="#0" id="circle66"/>
	<circle cx="471.579" cy="24.1701" r="4" fill="#0" id="circle67"/>
	<circle cx="480.747" cy="332.222" r="4" fill="#0" id="circle68"/>
	<circle cx="489.915" cy="27.8373" r="4" fill="#0" id="circle69"/>
	<circle cx="499.083" cy="332.222" r="4" fill="#0" id="circle70"/>
	<circle cx="506.418" cy="18.6691" r="4" fill="#0" id="circle71"/>
	<circle cx="517.42" cy="332.222" r="4" fill="#0" id="circle72"/>
	<circle cx="522.921" cy="27.8373" r="4" fill="#0" id="circle73"/>
	<circle cx="535.756" cy="332.222" r="4" fill="#0" id="circle74"/>
	<circle cx="539.423" cy="18.6691" r="4" fill="#0" id="circle75"/>
	<circle cx="554.092" cy="332.222" r="4" fill="#0" id="circle76"/>
	<circle cx="557.76" cy="18.6691" r="4" fill="#0" id="circle77"/>
	<circle cx="572.429" cy="332.222" r="4" fill="#0" id="circle78"/>
	<circle cx="576.096" cy="18.6691" r="4" fill="#0" id="circle79"/>
	<circle cx="588.932" cy="323.054" r="4" fill="#0" id="circle80"/>
	<circle cx="592.599" cy="9.50092" r="4" fill="#0" id="circle81"/>
	<circle cx="599.933" cy="337.723" r="4" fill="#0" id="circle82"/>
	<circle cx="609.102" cy="354.226" r="4" fill="#0" id="circle83"/>
	<circle cx="610.935" cy="9.50092" r="4" fill="#0" id="circle84"/>
	<circle cx="620.104" cy="368.895" r="4" fill="#0" id="circle85"/>
	<circle cx="629.272" cy="9.50092" r="4" fill="#0" id="circle86"/>
	<circle cx="636.606" cy="378.063" r="4" fill="#0" id="circle87"/>
	<circle cx="647.608" cy="9.50092" r="4" fill="#0" id="circle88"/>
	<circle cx="653.109" cy="387.231" r="4" fill="#0" id="circle89"/>
	<circle cx="665.945" cy="9.50092" r="4" fill="#0" id="circle90"/>
	<circle cx="671.445" cy="387.231" r="4" fill="#0" id="circle91"/>
	<circle cx="684.281" cy="4" r="4" fill="#0" id="circle92"/>
	<circle cx="687.948" cy="378.063" r="4" fill="#0" id="circle93"/>
	<circle cx="702.617" cy="4" r="4" fill="#0" id="circle94"/>
	<circle cx="704.451" cy="368.895" r="4" fill="#0" id="circle95"/>
	<circle cx="720.954" cy="4" r="4" fill="#0" id="circle96"/>
	<circle cx="720.954" cy="359.726" r="4" fill="#0" id="circle97"/>
	<circle cx="730.122" cy="341.39" r="4" fill="#0" id="circle98"/>
	<circle cx="739.29" cy="4" r="4" fill="#0" id="circle99"/>
	<circle cx="748.458" cy="341.39" r="4" fill="#0" id="circle100"/>
	<circle cx="755.793" cy="359.726" r="4" fill="#0" id="circle101"/>
	<circle cx="757.627" cy="4" r="4" fill="#0" id="circle102"/>
	<circle cx="766.795" cy="374.396" r="4" fill="#0" id="circle103"/>
	<circle cx="775.963" cy="4" r="4" fill="#0" id="circle104"/>
	<circle cx="781.464" cy="387.231" r="4" fill="#0" id="circle105"/>
	<circle cx="794.299" cy="4" r="4" fill="#0" id="circle106"/>
	<circle cx="797.967" cy="396.399" r="4" fill="#0" id="circle107"/>
	<circle cx="812.636" cy="4" r="4" fill="#0" id="circle108"/>
	<circle cx="814.47" cy="405.567" r="4" fill="#0" id="circle109"/>
	<circle cx="830.972" cy="4" r="4" fill="#0" id="circle110"/>
	<circle cx="832.806" cy="405.567" r="4" fill="#0" id="circle111"/>
	<circle cx="849.309" cy="9.50092" r="4" fill="#0" id="circle112"/>
	<circle cx="851.142" cy="405.567" r="4" fill="#0" id="circle113"/>
	<circle cx="867.645" cy="9.50092" r="4" fill="#0" id="circle114"/>
	<circle cx="867.645" cy="396.399" r="4" fill="#0" id="circle115"/>
	<circle cx="882.314" cy="383.564" r="4" fill="#0" id="circle116"/>
	<circle cx="885.982" cy="9.50092" r="4" fill="#0" id="circle117"/>
	<circle cx="895.15" cy="368.895" r="4" fill="#0" id="circle118"/>
	<circle cx="904.318" cy="15.0018" r="4" fill="#0" id="circle119"/>
	<circle cx="904.318" cy="350.558" r="4" fill="#0" id="circle120"/>
	<circle cx="913.486" cy="332.222" r="4" fill="#0" id="circle121"/>
	<circle cx="922.654" cy="18.6691" r="4" fill="#0" id="circle122"/>
	<circle cx="922.654" cy="93.8484" r="4" fill="#0" id="circle123"/>
	<circle cx="922.654" cy="121.353" r="4" fill="#0" id="circle124"/>
	<circle cx="922.654" cy="139.689" r="4" fill="#0" id="circle125"/>
	<circle cx="929.989" cy="323.054" r="4" fill="#0" id="circle126"/>
	<circle cx="931.823" cy="35.1719" r="4" fill="#0" id="circle127"/>
	<circle cx="931.823" cy="53.5083" r="4" fill="#0" id="circle128"/>
	<circle cx="931.823" cy="71.8447" r="4" fill="#0" id="circle129"/>
	<circle cx="940.991" cy="147.024" r="4" fill="#0" id="circle130"/>
	<circle cx="940.991" cy="304.717" r="4" fill="#0" id="circle131"/>
	<circle cx="957.494" cy="295.549" r="4" fill="#0" id="circle132"/>
	<circle cx="959.327" cy="147.024" r="4" fill="#0" id="circle133"/>
	<circle cx="968.495" cy="163.527" r="4" fill="#0" id="circle134"/>
	<circle cx="968.495" cy="181.863" r="4" fill="#0" id="circle135"/>
	<circle cx="968.495" cy="200.2" r="4" fill="#0" id="circle136"/>
	<circle cx="968.495" cy="218.536" r="4" fill="#0" id="circle137"/>
	<circle cx="968.495" cy="236.872" r="4" fill="#0" id="circle138"/>
	<circle cx="968.495" cy="255.209" r="4" fill="#0" id="circle139"/>
	<circle cx="973.996" cy="304.717" r="4" fill="#0" id="circle140"/>
	<circle cx="986.832" cy="257.043" r="4" fill="#0" id="circle141"/>
	<circle cx="992.333" cy="301.05" r="4" fill="#0" id="circle142"/>
	<circle cx="996" cy="277.213" r="4" fill="#0" id="circle143"/>
	</g>
</svg>