<?xml version="1.0" encoding="UTF-8" standalone="no"?>
<!-- Created with CurveBenchmark -->
<svg
	xmlns:dc="http://purl.org/dc/elements/1.1/"
	xmlns:cc="http://creativecommons.org/ns#"
	xmlns:rdf="http://www.w3.org/1999/02/22-rdf-syntax-ns#"
	xmlns:svg="http://www.w3.org/2000/svg"
	xmlns="http://www.w3.org/2000/svg"
	xmlns:sodipodi="http://sodipodi.sourceforge.net/DTD/sodipodi-0.dtd"
	xmlns:inkscape="http://www.inkscape.org/namespaces/inkscape"
	width="1000"
	height="1000"
	id="svg2"
	version="1.1"
	sodipodi:docname="manifold/connect2d-dude7occ4.png.txt">
<defs
	id="defs4" />
<metadata
	id="metadata7">
	<rdf:RDF>
		<cc:Work
			rdf:about="">
			<dc:format>image/svg+xml</dc:format>
			<dc:type
				rdf:resource="http://purl.org/dc/dcmitype/StillImage" />
			<dc:title></dc:title>
		</cc:Work>
	</rdf:RDF>
</metadata>
<g
	inkscape:label="Layer 1"
	inkscape:groupmode="layer"
	id="layer1">
	<path style="fill:none;stroke:red;stroke-width:1px;stroke-linecap:butt;stroke-linejoin:miter;stroke-opacity:1" d="M 808.422,932.873 808.422,950.909 z" id="boundary" inkscape:connector-curvature="0" />
	<path style="fill:none;stroke:red;stroke-width:1px;stroke-linecap:butt;stroke-linejoin:miter;stroke-opacity:1" d="M 808.422,950.909 799.404,974.356 z" id="boundary" inkscape:connector-curvature="0" />
	<path style="fill:none;stroke:red;stroke-width:1px;stroke-linecap:butt;stroke-linejoin:miter;stroke-opacity:1" d="M 799.404,974.356 788.582,996 z" id="boundary" inkscape:connector-curvature="0" />
	<path style="fill:none;stroke:red;stroke-width:1px;stroke-linecap:butt;stroke-linejoin:miter;stroke-opacity:1" d="M 788.582,996 770.545,996 z" id="boundary" inkscape:connector-curvature="0" />
	<path style="fill:none;stroke:red;stroke-width:1px;stroke-linecap:butt;stroke-linejoin:miter;stroke-opacity:1" d="M 770.545,996 757.92,981.571 z" id="boundary" inkscape:connector-curvature="0" />
	<path style="fill:none;stroke:red;stroke-width:1px;stroke-linecap:butt;stroke-linejoin:miter;stroke-opacity:1" d="M 757.92,981.571 748.902,965.338 z" id="boundary" inkscape:connector-curvature="0" />
	<path style="fill:none;stroke:red;stroke-width:1px;stroke-linecap:butt;stroke-linejoin:miter;stroke-opacity:1" d="M 748.902,965.338 743.491,947.302 z" id="boundary" inkscape:connector-curvature="0" />
	<path style="fill:none;stroke:red;stroke-width:1px;stroke-linecap:butt;stroke-linejoin:miter;stroke-opacity:1" d="M 743.491,947.302 743.491,929.265 z" id="boundary" inkscape:connector-curvature="0" />
	<path style="fill:none;stroke:red;stroke-width:1px;stroke-linecap:butt;stroke-linejoin:miter;stroke-opacity:1" d="M 743.491,929.265 734.473,913.033 z" id="boundary" inkscape:connector-curvature="0" />
	<path style="fill:none;stroke:red;stroke-width:1px;stroke-linecap:butt;stroke-linejoin:miter;stroke-opacity:1" d="M 734.473,913.033 725.455,896.8 z" id="boundary" inkscape:connector-curvature="0" />
	<path style="fill:none;stroke:red;stroke-width:1px;stroke-linecap:butt;stroke-linejoin:miter;stroke-opacity:1" d="M 725.455,896.8 725.455,878.764 z" id="boundary" inkscape:connector-curvature="0" />
	<path style="fill:none;stroke:red;stroke-width:1px;stroke-linecap:butt;stroke-linejoin:miter;stroke-opacity:1" d="M 725.455,878.764 716.436,862.531 z" id="boundary" inkscape:connector-curvature="0" />
	<path style="fill:none;stroke:red;stroke-width:1px;stroke-linecap:butt;stroke-linejoin:miter;stroke-opacity:1" d="M 716.436,862.531 707.418,846.298 z" id="boundary" inkscape:connector-curvature="0" />
	<path style="fill:none;stroke:red;stroke-width:1px;stroke-linecap:butt;stroke-linejoin:miter;stroke-opacity:1" d="M 707.418,846.298 698.4,830.065 z" id="boundary" inkscape:connector-curvature="0" />
	<path style="fill:none;stroke:red;stroke-width:1px;stroke-linecap:butt;stroke-linejoin:miter;stroke-opacity:1" d="M 698.4,830.065 689.382,813.833 z" id="boundary" inkscape:connector-curvature="0" />
	<path style="fill:none;stroke:red;stroke-width:1px;stroke-linecap:butt;stroke-linejoin:miter;stroke-opacity:1" d="M 689.382,813.833 680.364,797.6 z" id="boundary" inkscape:connector-curvature="0" />
	<path style="fill:none;stroke:red;stroke-width:1px;stroke-linecap:butt;stroke-linejoin:miter;stroke-opacity:1" d="M 680.364,797.6 667.738,783.171 z" id="boundary" inkscape:connector-curvature="0" />
	<path style="fill:none;stroke:red;stroke-width:1px;stroke-linecap:butt;stroke-linejoin:miter;stroke-opacity:1" d="M 667.738,783.171 658.72,766.938 z" id="boundary" inkscape:connector-curvature="0" />
	<path style="fill:none;stroke:red;stroke-width:1px;stroke-linecap:butt;stroke-linejoin:miter;stroke-opacity:1" d="M 658.72,766.938 642.487,757.92 z" id="boundary" inkscape:connector-curvature="0" />
	<path style="fill:none;stroke:red;stroke-width:1px;stroke-linecap:butt;stroke-linejoin:miter;stroke-opacity:1" d="M 642.487,757.92 628.058,745.295 z" id="boundary" inkscape:connector-curvature="0" />
	<path style="fill:none;stroke:red;stroke-width:1px;stroke-linecap:butt;stroke-linejoin:miter;stroke-opacity:1" d="M 628.058,745.295 617.236,730.865 z" id="boundary" inkscape:connector-curvature="0" />
	<path style="fill:none;stroke:red;stroke-width:1px;stroke-linecap:butt;stroke-linejoin:miter;stroke-opacity:1" d="M 617.236,730.865 602.807,720.044 z" id="boundary" inkscape:connector-curvature="0" />
	<path style="fill:none;stroke:red;stroke-width:1px;stroke-linecap:butt;stroke-linejoin:miter;stroke-opacity:1" d="M 602.807,720.044 586.575,711.025 z" id="boundary" inkscape:connector-curvature="0" />
	<path style="fill:none;stroke:red;stroke-width:1px;stroke-linecap:butt;stroke-linejoin:miter;stroke-opacity:1" d="M 586.575,711.025 572.145,698.4 z" id="boundary" inkscape:connector-curvature="0" />
	<path style="fill:none;stroke:red;stroke-width:1px;stroke-linecap:butt;stroke-linejoin:miter;stroke-opacity:1" d="M 572.145,698.4 555.913,689.382 z" id="boundary" inkscape:connector-curvature="0" />
	<path style="fill:none;stroke:red;stroke-width:1px;stroke-linecap:butt;stroke-linejoin:miter;stroke-opacity:1" d="M 555.913,689.382 541.484,676.756 z" id="boundary" inkscape:connector-curvature="0" />
	<path style="fill:none;stroke:red;stroke-width:1px;stroke-linecap:butt;stroke-linejoin:miter;stroke-opacity:1" d="M 541.484,676.756 528.858,662.327 z" id="boundary" inkscape:connector-curvature="0" />
	<path style="fill:none;stroke:red;stroke-width:1px;stroke-linecap:butt;stroke-linejoin:miter;stroke-opacity:1" d="M 528.858,662.327 510.822,655.113 z" id="boundary" inkscape:connector-curvature="0" />
	<path style="fill:none;stroke:red;stroke-width:1px;stroke-linecap:butt;stroke-linejoin:miter;stroke-opacity:1" d="M 510.822,655.113 498.196,640.684 z" id="boundary" inkscape:connector-curvature="0" />
	<path style="fill:none;stroke:red;stroke-width:1px;stroke-linecap:butt;stroke-linejoin:miter;stroke-opacity:1" d="M 498.196,640.684 481.964,631.665 z" id="boundary" inkscape:connector-curvature="0" />
	<path style="fill:none;stroke:red;stroke-width:1px;stroke-linecap:butt;stroke-linejoin:miter;stroke-opacity:1" d="M 481.964,631.665 463.927,631.665 z" id="boundary" inkscape:connector-curvature="0" />
	<path style="fill:none;stroke:red;stroke-width:1px;stroke-linecap:butt;stroke-linejoin:miter;stroke-opacity:1" d="M 463.927,631.665 445.891,631.665 z" id="boundary" inkscape:connector-curvature="0" />
	<path style="fill:none;stroke:red;stroke-width:1px;stroke-linecap:butt;stroke-linejoin:miter;stroke-opacity:1" d="M 445.891,631.665 429.658,640.684 z" id="boundary" inkscape:connector-curvature="0" />
	<path style="fill:none;stroke:red;stroke-width:1px;stroke-linecap:butt;stroke-linejoin:miter;stroke-opacity:1" d="M 429.658,640.684 411.622,649.702 z" id="boundary" inkscape:connector-curvature="0" />
	<path style="fill:none;stroke:red;stroke-width:1px;stroke-linecap:butt;stroke-linejoin:miter;stroke-opacity:1" d="M 411.622,649.702 398.996,664.131 z" id="boundary" inkscape:connector-curvature="0" />
	<path style="fill:none;stroke:red;stroke-width:1px;stroke-linecap:butt;stroke-linejoin:miter;stroke-opacity:1" d="M 398.996,664.131 384.567,676.756 z" id="boundary" inkscape:connector-curvature="0" />
	<path style="fill:none;stroke:red;stroke-width:1px;stroke-linecap:butt;stroke-linejoin:miter;stroke-opacity:1" d="M 384.567,676.756 371.942,691.185 z" id="boundary" inkscape:connector-curvature="0" />
	<path style="fill:none;stroke:red;stroke-width:1px;stroke-linecap:butt;stroke-linejoin:miter;stroke-opacity:1" d="M 371.942,691.185 357.513,703.811 z" id="boundary" inkscape:connector-curvature="0" />
	<path style="fill:none;stroke:red;stroke-width:1px;stroke-linecap:butt;stroke-linejoin:miter;stroke-opacity:1" d="M 357.513,703.811 344.887,718.24 z" id="boundary" inkscape:connector-curvature="0" />
	<path style="fill:none;stroke:red;stroke-width:1px;stroke-linecap:butt;stroke-linejoin:miter;stroke-opacity:1" d="M 344.887,718.24 330.458,730.865 z" id="boundary" inkscape:connector-curvature="0" />
	<path style="fill:none;stroke:red;stroke-width:1px;stroke-linecap:butt;stroke-linejoin:miter;stroke-opacity:1" d="M 330.458,730.865 317.833,745.295 z" id="boundary" inkscape:connector-curvature="0" />
	<path style="fill:none;stroke:red;stroke-width:1px;stroke-linecap:butt;stroke-linejoin:miter;stroke-opacity:1" d="M 317.833,745.295 299.796,754.313 z" id="boundary" inkscape:connector-curvature="0" />
	<path style="fill:none;stroke:red;stroke-width:1px;stroke-linecap:butt;stroke-linejoin:miter;stroke-opacity:1" d="M 299.796,754.313 285.367,766.938 z" id="boundary" inkscape:connector-curvature="0" />
	<path style="fill:none;stroke:red;stroke-width:1px;stroke-linecap:butt;stroke-linejoin:miter;stroke-opacity:1" d="M 285.367,766.938 272.742,781.367 z" id="boundary" inkscape:connector-curvature="0" />
	<path style="fill:none;stroke:red;stroke-width:1px;stroke-linecap:butt;stroke-linejoin:miter;stroke-opacity:1" d="M 272.742,781.367 254.705,790.385 z" id="boundary" inkscape:connector-curvature="0" />
	<path style="fill:none;stroke:red;stroke-width:1px;stroke-linecap:butt;stroke-linejoin:miter;stroke-opacity:1" d="M 254.705,790.385 236.669,799.404 z" id="boundary" inkscape:connector-curvature="0" />
	<path style="fill:none;stroke:red;stroke-width:1px;stroke-linecap:butt;stroke-linejoin:miter;stroke-opacity:1" d="M 236.669,799.404 218.633,808.422 z" id="boundary" inkscape:connector-curvature="0" />
	<path style="fill:none;stroke:red;stroke-width:1px;stroke-linecap:butt;stroke-linejoin:miter;stroke-opacity:1" d="M 218.633,808.422 200.596,817.44 z" id="boundary" inkscape:connector-curvature="0" />
	<path style="fill:none;stroke:red;stroke-width:1px;stroke-linecap:butt;stroke-linejoin:miter;stroke-opacity:1" d="M 200.596,817.44 182.56,821.047 z" id="boundary" inkscape:connector-curvature="0" />
	<path style="fill:none;stroke:red;stroke-width:1px;stroke-linecap:butt;stroke-linejoin:miter;stroke-opacity:1" d="M 182.56,821.047 166.327,830.065 z" id="boundary" inkscape:connector-curvature="0" />
	<path style="fill:none;stroke:red;stroke-width:1px;stroke-linecap:butt;stroke-linejoin:miter;stroke-opacity:1" d="M 166.327,830.065 148.291,830.065 z" id="boundary" inkscape:connector-curvature="0" />
	<path style="fill:none;stroke:red;stroke-width:1px;stroke-linecap:butt;stroke-linejoin:miter;stroke-opacity:1" d="M 148.291,830.065 132.058,839.084 z" id="boundary" inkscape:connector-curvature="0" />
	<path style="fill:none;stroke:red;stroke-width:1px;stroke-linecap:butt;stroke-linejoin:miter;stroke-opacity:1" d="M 132.058,839.084 114.022,839.084 z" id="boundary" inkscape:connector-curvature="0" />
	<path style="fill:none;stroke:red;stroke-width:1px;stroke-linecap:butt;stroke-linejoin:miter;stroke-opacity:1" d="M 114.022,839.084 97.7891,848.102 z" id="boundary" inkscape:connector-curvature="0" />
	<path style="fill:none;stroke:red;stroke-width:1px;stroke-linecap:butt;stroke-linejoin:miter;stroke-opacity:1" d="M 97.7891,848.102 79.7527,848.102 z" id="boundary" inkscape:connector-curvature="0" />
	<path style="fill:none;stroke:red;stroke-width:1px;stroke-linecap:butt;stroke-linejoin:miter;stroke-opacity:1" d="M 79.7527,848.102 61.7164,844.495 z" id="boundary" inkscape:connector-curvature="0" />
	<path style="fill:none;stroke:red;stroke-width:1px;stroke-linecap:butt;stroke-linejoin:miter;stroke-opacity:1" d="M 61.7164,844.495 43.68,839.084 z" id="boundary" inkscape:connector-curvature="0" />
	<path style="fill:none;stroke:red;stroke-width:1px;stroke-linecap:butt;stroke-linejoin:miter;stroke-opacity:1" d="M 43.68,839.084 25.6436,837.28 z" id="boundary" inkscape:connector-curvature="0" />
	<path style="fill:none;stroke:red;stroke-width:1px;stroke-linecap:butt;stroke-linejoin:miter;stroke-opacity:1" d="M 25.6436,837.28 13.0182,822.851 z" id="boundary" inkscape:connector-curvature="0" />
	<path style="fill:none;stroke:red;stroke-width:1px;stroke-linecap:butt;stroke-linejoin:miter;stroke-opacity:1" d="M 13.0182,822.851 4,806.618 z" id="boundary" inkscape:connector-curvature="0" />
	<path style="fill:none;stroke:red;stroke-width:1px;stroke-linecap:butt;stroke-linejoin:miter;stroke-opacity:1" d="M 4,806.618 18.4291,792.189 z" id="boundary" inkscape:connector-curvature="0" />
	<path style="fill:none;stroke:red;stroke-width:1px;stroke-linecap:butt;stroke-linejoin:miter;stroke-opacity:1" d="M 18.4291,792.189 34.6618,783.171 z" id="boundary" inkscape:connector-curvature="0" />
	<path style="fill:none;stroke:red;stroke-width:1px;stroke-linecap:butt;stroke-linejoin:miter;stroke-opacity:1" d="M 34.6618,783.171 50.8945,774.153 z" id="boundary" inkscape:connector-curvature="0" />
	<path style="fill:none;stroke:red;stroke-width:1px;stroke-linecap:butt;stroke-linejoin:miter;stroke-opacity:1" d="M 50.8945,774.153 68.9309,768.742 z" id="boundary" inkscape:connector-curvature="0" />
	<path style="fill:none;stroke:red;stroke-width:1px;stroke-linecap:butt;stroke-linejoin:miter;stroke-opacity:1" d="M 68.9309,768.742 86.9673,765.135 z" id="boundary" inkscape:connector-curvature="0" />
	<path style="fill:none;stroke:red;stroke-width:1px;stroke-linecap:butt;stroke-linejoin:miter;stroke-opacity:1" d="M 86.9673,765.135 105.004,765.135 z" id="boundary" inkscape:connector-curvature="0" />
	<path style="fill:none;stroke:red;stroke-width:1px;stroke-linecap:butt;stroke-linejoin:miter;stroke-opacity:1" d="M 105.004,765.135 121.236,756.116 z" id="boundary" inkscape:connector-curvature="0" />
	<path style="fill:none;stroke:red;stroke-width:1px;stroke-linecap:butt;stroke-linejoin:miter;stroke-opacity:1" d="M 121.236,756.116 139.273,752.509 z" id="boundary" inkscape:connector-curvature="0" />
	<path style="fill:none;stroke:red;stroke-width:1px;stroke-linecap:butt;stroke-linejoin:miter;stroke-opacity:1" d="M 139.273,752.509 157.309,743.491 z" id="boundary" inkscape:connector-curvature="0" />
	<path style="fill:none;stroke:red;stroke-width:1px;stroke-linecap:butt;stroke-linejoin:miter;stroke-opacity:1" d="M 157.309,743.491 175.345,734.473 z" id="boundary" inkscape:connector-curvature="0" />
	<path style="fill:none;stroke:red;stroke-width:1px;stroke-linecap:butt;stroke-linejoin:miter;stroke-opacity:1" d="M 175.345,734.473 189.775,720.044 z" id="boundary" inkscape:connector-curvature="0" />
	<path style="fill:none;stroke:red;stroke-width:1px;stroke-linecap:butt;stroke-linejoin:miter;stroke-opacity:1" d="M 189.775,720.044 207.811,711.025 z" id="boundary" inkscape:connector-curvature="0" />
	<path style="fill:none;stroke:red;stroke-width:1px;stroke-linecap:butt;stroke-linejoin:miter;stroke-opacity:1" d="M 207.811,711.025 222.24,696.596 z" id="boundary" inkscape:connector-curvature="0" />
	<path style="fill:none;stroke:red;stroke-width:1px;stroke-linecap:butt;stroke-linejoin:miter;stroke-opacity:1" d="M 222.24,696.596 236.669,683.971 z" id="boundary" inkscape:connector-curvature="0" />
	<path style="fill:none;stroke:red;stroke-width:1px;stroke-linecap:butt;stroke-linejoin:miter;stroke-opacity:1" d="M 236.669,683.971 249.295,669.542 z" id="boundary" inkscape:connector-curvature="0" />
	<path style="fill:none;stroke:red;stroke-width:1px;stroke-linecap:butt;stroke-linejoin:miter;stroke-opacity:1" d="M 249.295,669.542 263.724,656.916 z" id="boundary" inkscape:connector-curvature="0" />
	<path style="fill:none;stroke:red;stroke-width:1px;stroke-linecap:butt;stroke-linejoin:miter;stroke-opacity:1" d="M 263.724,656.916 276.349,642.487 z" id="boundary" inkscape:connector-curvature="0" />
	<path style="fill:none;stroke:red;stroke-width:1px;stroke-linecap:butt;stroke-linejoin:miter;stroke-opacity:1" d="M 276.349,642.487 290.778,629.862 z" id="boundary" inkscape:connector-curvature="0" />
	<path style="fill:none;stroke:red;stroke-width:1px;stroke-linecap:butt;stroke-linejoin:miter;stroke-opacity:1" d="M 290.778,629.862 303.404,615.433 z" id="boundary" inkscape:connector-curvature="0" />
	<path style="fill:none;stroke:red;stroke-width:1px;stroke-linecap:butt;stroke-linejoin:miter;stroke-opacity:1" d="M 303.404,615.433 317.833,602.807 z" id="boundary" inkscape:connector-curvature="0" />
	<path style="fill:none;stroke:red;stroke-width:1px;stroke-linecap:butt;stroke-linejoin:miter;stroke-opacity:1" d="M 317.833,602.807 325.047,584.771 z" id="boundary" inkscape:connector-curvature="0" />
	<path style="fill:none;stroke:red;stroke-width:1px;stroke-linecap:butt;stroke-linejoin:miter;stroke-opacity:1" d="M 325.047,584.771 339.476,570.342 z" id="boundary" inkscape:connector-curvature="0" />
	<path style="fill:none;stroke:red;stroke-width:1px;stroke-linecap:butt;stroke-linejoin:miter;stroke-opacity:1" d="M 339.476,570.342 346.691,545.091 z" id="boundary" inkscape:connector-curvature="0" />
	<path style="fill:none;stroke:red;stroke-width:1px;stroke-linecap:butt;stroke-linejoin:miter;stroke-opacity:1" d="M 346.691,545.091 355.709,527.055 z" id="boundary" inkscape:connector-curvature="0" />
	<path style="fill:none;stroke:red;stroke-width:1px;stroke-linecap:butt;stroke-linejoin:miter;stroke-opacity:1" d="M 355.709,527.055 364.727,501.804 z" id="boundary" inkscape:connector-curvature="0" />
	<path style="fill:none;stroke:red;stroke-width:1px;stroke-linecap:butt;stroke-linejoin:miter;stroke-opacity:1" d="M 364.727,501.804 364.727,483.767 z" id="boundary" inkscape:connector-curvature="0" />
	<path style="fill:none;stroke:red;stroke-width:1px;stroke-linecap:butt;stroke-linejoin:miter;stroke-opacity:1" d="M 364.727,483.767 355.709,467.535 z" id="boundary" inkscape:connector-curvature="0" />
	<path style="fill:none;stroke:red;stroke-width:1px;stroke-linecap:butt;stroke-linejoin:miter;stroke-opacity:1" d="M 355.709,467.535 352.102,449.498 z" id="boundary" inkscape:connector-curvature="0" />
	<path style="fill:none;stroke:red;stroke-width:1px;stroke-linecap:butt;stroke-linejoin:miter;stroke-opacity:1" d="M 352.102,449.498 343.084,433.265 z" id="boundary" inkscape:connector-curvature="0" />
	<path style="fill:none;stroke:red;stroke-width:1px;stroke-linecap:butt;stroke-linejoin:miter;stroke-opacity:1" d="M 343.084,433.265 337.673,415.229 z" id="boundary" inkscape:connector-curvature="0" />
	<path style="fill:none;stroke:red;stroke-width:1px;stroke-linecap:butt;stroke-linejoin:miter;stroke-opacity:1" d="M 337.673,415.229 334.065,397.193 z" id="boundary" inkscape:connector-curvature="0" />
	<path style="fill:none;stroke:red;stroke-width:1px;stroke-linecap:butt;stroke-linejoin:miter;stroke-opacity:1" d="M 334.065,397.193 328.655,379.156 z" id="boundary" inkscape:connector-curvature="0" />
	<path style="fill:none;stroke:red;stroke-width:1px;stroke-linecap:butt;stroke-linejoin:miter;stroke-opacity:1" d="M 328.655,379.156 319.636,362.924 z" id="boundary" inkscape:connector-curvature="0" />
	<path style="fill:none;stroke:red;stroke-width:1px;stroke-linecap:butt;stroke-linejoin:miter;stroke-opacity:1" d="M 319.636,362.924 310.618,346.691 z" id="boundary" inkscape:connector-curvature="0" />
	<path style="fill:none;stroke:red;stroke-width:1px;stroke-linecap:butt;stroke-linejoin:miter;stroke-opacity:1" d="M 310.618,346.691 310.618,328.655 z" id="boundary" inkscape:connector-curvature="0" />
	<path style="fill:none;stroke:red;stroke-width:1px;stroke-linecap:butt;stroke-linejoin:miter;stroke-opacity:1" d="M 310.618,328.655 301.6,312.422 z" id="boundary" inkscape:connector-curvature="0" />
	<path style="fill:none;stroke:red;stroke-width:1px;stroke-linecap:butt;stroke-linejoin:miter;stroke-opacity:1" d="M 301.6,312.422 290.778,297.993 z" id="boundary" inkscape:connector-curvature="0" />
	<path style="fill:none;stroke:red;stroke-width:1px;stroke-linecap:butt;stroke-linejoin:miter;stroke-opacity:1" d="M 290.778,297.993 272.742,297.993 z" id="boundary" inkscape:connector-curvature="0" />
	<path style="fill:none;stroke:red;stroke-width:1px;stroke-linecap:butt;stroke-linejoin:miter;stroke-opacity:1" d="M 272.742,297.993 256.509,307.011 z" id="boundary" inkscape:connector-curvature="0" />
	<path style="fill:none;stroke:red;stroke-width:1px;stroke-linecap:butt;stroke-linejoin:miter;stroke-opacity:1" d="M 256.509,307.011 240.276,316.029 z" id="boundary" inkscape:connector-curvature="0" />
	<path style="fill:none;stroke:red;stroke-width:1px;stroke-linecap:butt;stroke-linejoin:miter;stroke-opacity:1" d="M 240.276,316.029 227.651,330.458 z" id="boundary" inkscape:connector-curvature="0" />
	<path style="fill:none;stroke:red;stroke-width:1px;stroke-linecap:butt;stroke-linejoin:miter;stroke-opacity:1" d="M 227.651,330.458 213.222,343.084 z" id="boundary" inkscape:connector-curvature="0" />
	<path style="fill:none;stroke:red;stroke-width:1px;stroke-linecap:butt;stroke-linejoin:miter;stroke-opacity:1" d="M 213.222,343.084 198.793,368.335 z" id="boundary" inkscape:connector-curvature="0" />
	<path style="fill:none;stroke:red;stroke-width:1px;stroke-linecap:butt;stroke-linejoin:miter;stroke-opacity:1" d="M 198.793,368.335 184.364,382.764 z" id="boundary" inkscape:connector-curvature="0" />
	<path style="fill:none;stroke:red;stroke-width:1px;stroke-linecap:butt;stroke-linejoin:miter;stroke-opacity:1" d="M 184.364,382.764 169.935,397.193 z" id="boundary" inkscape:connector-curvature="0" />
	<path style="fill:none;stroke:red;stroke-width:1px;stroke-linecap:butt;stroke-linejoin:miter;stroke-opacity:1" d="M 169.935,397.193 153.702,406.211 z" id="boundary" inkscape:connector-curvature="0" />
	<path style="fill:none;stroke:red;stroke-width:1px;stroke-linecap:butt;stroke-linejoin:miter;stroke-opacity:1" d="M 153.702,406.211 144.684,422.444 z" id="boundary" inkscape:connector-curvature="0" />
	<path style="fill:none;stroke:red;stroke-width:1px;stroke-linecap:butt;stroke-linejoin:miter;stroke-opacity:1" d="M 144.684,422.444 130.255,436.873 z" id="boundary" inkscape:connector-curvature="0" />
	<path style="fill:none;stroke:red;stroke-width:1px;stroke-linecap:butt;stroke-linejoin:miter;stroke-opacity:1" d="M 130.255,436.873 112.218,433.265 z" id="boundary" inkscape:connector-curvature="0" />
	<path style="fill:none;stroke:red;stroke-width:1px;stroke-linecap:butt;stroke-linejoin:miter;stroke-opacity:1" d="M 112.218,433.265 94.1818,427.855 z" id="boundary" inkscape:connector-curvature="0" />
	<path style="fill:none;stroke:red;stroke-width:1px;stroke-linecap:butt;stroke-linejoin:miter;stroke-opacity:1" d="M 94.1818,427.855 94.1818,409.818 z" id="boundary" inkscape:connector-curvature="0" />
	<path style="fill:none;stroke:red;stroke-width:1px;stroke-linecap:butt;stroke-linejoin:miter;stroke-opacity:1" d="M 94.1818,409.818 103.2,391.782 z" id="boundary" inkscape:connector-curvature="0" />
	<path style="fill:none;stroke:red;stroke-width:1px;stroke-linecap:butt;stroke-linejoin:miter;stroke-opacity:1" d="M 103.2,391.782 112.218,373.745 z" id="boundary" inkscape:connector-curvature="0" />
	<path style="fill:none;stroke:red;stroke-width:1px;stroke-linecap:butt;stroke-linejoin:miter;stroke-opacity:1" d="M 112.218,373.745 126.647,359.316 z" id="boundary" inkscape:connector-curvature="0" />
	<path style="fill:none;stroke:red;stroke-width:1px;stroke-linecap:butt;stroke-linejoin:miter;stroke-opacity:1" d="M 126.647,359.316 135.665,341.28 z" id="boundary" inkscape:connector-curvature="0" />
	<path style="fill:none;stroke:red;stroke-width:1px;stroke-linecap:butt;stroke-linejoin:miter;stroke-opacity:1" d="M 135.665,341.28 148.291,319.636 z" id="boundary" inkscape:connector-curvature="0" />
	<path style="fill:none;stroke:red;stroke-width:1px;stroke-linecap:butt;stroke-linejoin:miter;stroke-opacity:1" d="M 148.291,319.636 157.309,301.6 z" id="boundary" inkscape:connector-curvature="0" />
	<path style="fill:none;stroke:red;stroke-width:1px;stroke-linecap:butt;stroke-linejoin:miter;stroke-opacity:1" d="M 157.309,301.6 171.738,287.171 z" id="boundary" inkscape:connector-curvature="0" />
	<path style="fill:none;stroke:red;stroke-width:1px;stroke-linecap:butt;stroke-linejoin:miter;stroke-opacity:1" d="M 171.738,287.171 180.756,269.135 z" id="boundary" inkscape:connector-curvature="0" />
	<path style="fill:none;stroke:red;stroke-width:1px;stroke-linecap:butt;stroke-linejoin:miter;stroke-opacity:1" d="M 180.756,269.135 189.775,251.098 z" id="boundary" inkscape:connector-curvature="0" />
	<path style="fill:none;stroke:red;stroke-width:1px;stroke-linecap:butt;stroke-linejoin:miter;stroke-opacity:1" d="M 189.775,251.098 198.793,233.062 z" id="boundary" inkscape:connector-curvature="0" />
	<path style="fill:none;stroke:red;stroke-width:1px;stroke-linecap:butt;stroke-linejoin:miter;stroke-opacity:1" d="M 198.793,233.062 213.222,218.633 z" id="boundary" inkscape:connector-curvature="0" />
	<path style="fill:none;stroke:red;stroke-width:1px;stroke-linecap:butt;stroke-linejoin:miter;stroke-opacity:1" d="M 213.222,218.633 227.651,206.007 z" id="boundary" inkscape:connector-curvature="0" />
	<path style="fill:none;stroke:red;stroke-width:1px;stroke-linecap:butt;stroke-linejoin:miter;stroke-opacity:1" d="M 227.651,206.007 243.884,196.989 z" id="boundary" inkscape:connector-curvature="0" />
	<path style="fill:none;stroke:red;stroke-width:1px;stroke-linecap:butt;stroke-linejoin:miter;stroke-opacity:1" d="M 243.884,196.989 260.116,187.971 z" id="boundary" inkscape:connector-curvature="0" />
	<path style="fill:none;stroke:red;stroke-width:1px;stroke-linecap:butt;stroke-linejoin:miter;stroke-opacity:1" d="M 260.116,187.971 276.349,178.953 z" id="boundary" inkscape:connector-curvature="0" />
	<path style="fill:none;stroke:red;stroke-width:1px;stroke-linecap:butt;stroke-linejoin:miter;stroke-opacity:1" d="M 276.349,178.953 292.582,169.935 z" id="boundary" inkscape:connector-curvature="0" />
	<path style="fill:none;stroke:red;stroke-width:1px;stroke-linecap:butt;stroke-linejoin:miter;stroke-opacity:1" d="M 292.582,169.935 310.618,169.935 z" id="boundary" inkscape:connector-curvature="0" />
	<path style="fill:none;stroke:red;stroke-width:1px;stroke-linecap:butt;stroke-linejoin:miter;stroke-opacity:1" d="M 310.618,169.935 328.655,169.935 z" id="boundary" inkscape:connector-curvature="0" />
	<path style="fill:none;stroke:red;stroke-width:1px;stroke-linecap:butt;stroke-linejoin:miter;stroke-opacity:1" d="M 328.655,169.935 339.476,155.505 z" id="boundary" inkscape:connector-curvature="0" />
	<path style="fill:none;stroke:red;stroke-width:1px;stroke-linecap:butt;stroke-linejoin:miter;stroke-opacity:1" d="M 339.476,155.505 346.691,128.451 z" id="boundary" inkscape:connector-curvature="0" />
	<path style="fill:none;stroke:red;stroke-width:1px;stroke-linecap:butt;stroke-linejoin:miter;stroke-opacity:1" d="M 346.691,128.451 337.673,112.218 z" id="boundary" inkscape:connector-curvature="0" />
	<path style="fill:none;stroke:red;stroke-width:1px;stroke-linecap:butt;stroke-linejoin:miter;stroke-opacity:1" d="M 337.673,112.218 337.673,94.1818 z" id="boundary" inkscape:connector-curvature="0" />
	<path style="fill:none;stroke:red;stroke-width:1px;stroke-linecap:butt;stroke-linejoin:miter;stroke-opacity:1" d="M 337.673,94.1818 337.673,76.1455 z" id="boundary" inkscape:connector-curvature="0" />
	<path style="fill:none;stroke:red;stroke-width:1px;stroke-linecap:butt;stroke-linejoin:miter;stroke-opacity:1" d="M 337.673,76.1455 346.691,58.1091 z" id="boundary" inkscape:connector-curvature="0" />
	<path style="fill:none;stroke:red;stroke-width:1px;stroke-linecap:butt;stroke-linejoin:miter;stroke-opacity:1" d="M 346.691,58.1091 355.709,40.0727 z" id="boundary" inkscape:connector-curvature="0" />
	<path style="fill:none;stroke:red;stroke-width:1px;stroke-linecap:butt;stroke-linejoin:miter;stroke-opacity:1" d="M 355.709,40.0727 370.138,25.6436 z" id="boundary" inkscape:connector-curvature="0" />
	<path style="fill:none;stroke:red;stroke-width:1px;stroke-linecap:butt;stroke-linejoin:miter;stroke-opacity:1" d="M 370.138,25.6436 386.371,16.6255 z" id="boundary" inkscape:connector-curvature="0" />
	<path style="fill:none;stroke:red;stroke-width:1px;stroke-linecap:butt;stroke-linejoin:miter;stroke-opacity:1" d="M 386.371,16.6255 402.604,7.60727 z" id="boundary" inkscape:connector-curvature="0" />
	<path style="fill:none;stroke:red;stroke-width:1px;stroke-linecap:butt;stroke-linejoin:miter;stroke-opacity:1" d="M 402.604,7.60727 420.64,4 z" id="boundary" inkscape:connector-curvature="0" />
	<path style="fill:none;stroke:red;stroke-width:1px;stroke-linecap:butt;stroke-linejoin:miter;stroke-opacity:1" d="M 420.64,4 438.676,7.60727 z" id="boundary" inkscape:connector-curvature="0" />
	<path style="fill:none;stroke:red;stroke-width:1px;stroke-linecap:butt;stroke-linejoin:miter;stroke-opacity:1" d="M 438.676,7.60727 453.105,18.4291 z" id="boundary" inkscape:connector-curvature="0" />
	<path style="fill:none;stroke:red;stroke-width:1px;stroke-linecap:butt;stroke-linejoin:miter;stroke-opacity:1" d="M 453.105,18.4291 465.731,32.8582 z" id="boundary" inkscape:connector-curvature="0" />
	<path style="fill:none;stroke:red;stroke-width:1px;stroke-linecap:butt;stroke-linejoin:miter;stroke-opacity:1" d="M 465.731,32.8582 474.749,49.0909 z" id="boundary" inkscape:connector-curvature="0" />
	<path style="fill:none;stroke:red;stroke-width:1px;stroke-linecap:butt;stroke-linejoin:miter;stroke-opacity:1" d="M 474.749,49.0909 483.767,65.3236 z" id="boundary" inkscape:connector-curvature="0" />
	<path style="fill:none;stroke:red;stroke-width:1px;stroke-linecap:butt;stroke-linejoin:miter;stroke-opacity:1" d="M 483.767,65.3236 492.785,81.5564 z" id="boundary" inkscape:connector-curvature="0" />
	<path style="fill:none;stroke:red;stroke-width:1px;stroke-linecap:butt;stroke-linejoin:miter;stroke-opacity:1" d="M 492.785,81.5564 492.785,99.5927 z" id="boundary" inkscape:connector-curvature="0" />
	<path style="fill:none;stroke:red;stroke-width:1px;stroke-linecap:butt;stroke-linejoin:miter;stroke-opacity:1" d="M 492.785,99.5927 483.767,117.629 z" id="boundary" inkscape:connector-curvature="0" />
	<path style="fill:none;stroke:red;stroke-width:1px;stroke-linecap:butt;stroke-linejoin:miter;stroke-opacity:1" d="M 483.767,117.629 492.785,133.862 z" id="boundary" inkscape:connector-curvature="0" />
	<path style="fill:none;stroke:red;stroke-width:1px;stroke-linecap:butt;stroke-linejoin:miter;stroke-opacity:1" d="M 492.785,133.862 501.804,150.095 z" id="boundary" inkscape:connector-curvature="0" />
	<path style="fill:none;stroke:red;stroke-width:1px;stroke-linecap:butt;stroke-linejoin:miter;stroke-opacity:1" d="M 501.804,150.095 519.84,157.309 z" id="boundary" inkscape:connector-curvature="0" />
	<path style="fill:none;stroke:red;stroke-width:1px;stroke-linecap:butt;stroke-linejoin:miter;stroke-opacity:1" d="M 519.84,157.309 537.876,160.916 z" id="boundary" inkscape:connector-curvature="0" />
	<path style="fill:none;stroke:red;stroke-width:1px;stroke-linecap:butt;stroke-linejoin:miter;stroke-opacity:1" d="M 537.876,160.916 555.913,160.916 z" id="boundary" inkscape:connector-curvature="0" />
	<path style="fill:none;stroke:red;stroke-width:1px;stroke-linecap:butt;stroke-linejoin:miter;stroke-opacity:1" d="M 555.913,160.916 573.949,160.916 z" id="boundary" inkscape:connector-curvature="0" />
	<path style="fill:none;stroke:red;stroke-width:1px;stroke-linecap:butt;stroke-linejoin:miter;stroke-opacity:1" d="M 573.949,160.916 591.985,166.327 z" id="boundary" inkscape:connector-curvature="0" />
	<path style="fill:none;stroke:red;stroke-width:1px;stroke-linecap:butt;stroke-linejoin:miter;stroke-opacity:1" d="M 591.985,166.327 608.218,175.345 z" id="boundary" inkscape:connector-curvature="0" />
	<path style="fill:none;stroke:red;stroke-width:1px;stroke-linecap:butt;stroke-linejoin:miter;stroke-opacity:1" d="M 608.218,175.345 622.647,187.971 z" id="boundary" inkscape:connector-curvature="0" />
	<path style="fill:none;stroke:red;stroke-width:1px;stroke-linecap:butt;stroke-linejoin:miter;stroke-opacity:1" d="M 622.647,187.971 638.88,196.989 z" id="boundary" inkscape:connector-curvature="0" />
	<path style="fill:none;stroke:red;stroke-width:1px;stroke-linecap:butt;stroke-linejoin:miter;stroke-opacity:1" d="M 638.88,196.989 646.095,215.025 z" id="boundary" inkscape:connector-curvature="0" />
	<path style="fill:none;stroke:red;stroke-width:1px;stroke-linecap:butt;stroke-linejoin:miter;stroke-opacity:1" d="M 646.095,215.025 660.524,225.847 z" id="boundary" inkscape:connector-curvature="0" />
	<path style="fill:none;stroke:red;stroke-width:1px;stroke-linecap:butt;stroke-linejoin:miter;stroke-opacity:1" d="M 660.524,225.847 673.149,240.276 z" id="boundary" inkscape:connector-curvature="0" />
	<path style="fill:none;stroke:red;stroke-width:1px;stroke-linecap:butt;stroke-linejoin:miter;stroke-opacity:1" d="M 673.149,240.276 687.578,252.902 z" id="boundary" inkscape:connector-curvature="0" />
	<path style="fill:none;stroke:red;stroke-width:1px;stroke-linecap:butt;stroke-linejoin:miter;stroke-opacity:1" d="M 687.578,252.902 700.204,267.331 z" id="boundary" inkscape:connector-curvature="0" />
	<path style="fill:none;stroke:red;stroke-width:1px;stroke-linecap:butt;stroke-linejoin:miter;stroke-opacity:1" d="M 700.204,267.331 714.633,279.956 z" id="boundary" inkscape:connector-curvature="0" />
	<path style="fill:none;stroke:red;stroke-width:1px;stroke-linecap:butt;stroke-linejoin:miter;stroke-opacity:1" d="M 714.633,279.956 721.847,297.993 z" id="boundary" inkscape:connector-curvature="0" />
	<path style="fill:none;stroke:red;stroke-width:1px;stroke-linecap:butt;stroke-linejoin:miter;stroke-opacity:1" d="M 721.847,297.993 736.276,310.618 z" id="boundary" inkscape:connector-curvature="0" />
	<path style="fill:none;stroke:red;stroke-width:1px;stroke-linecap:butt;stroke-linejoin:miter;stroke-opacity:1" d="M 736.276,310.618 743.491,328.655 z" id="boundary" inkscape:connector-curvature="0" />
	<path style="fill:none;stroke:red;stroke-width:1px;stroke-linecap:butt;stroke-linejoin:miter;stroke-opacity:1" d="M 743.491,328.655 757.92,341.28 z" id="boundary" inkscape:connector-curvature="0" />
	<path style="fill:none;stroke:red;stroke-width:1px;stroke-linecap:butt;stroke-linejoin:miter;stroke-opacity:1" d="M 757.92,341.28 770.545,355.709 z" id="boundary" inkscape:connector-curvature="0" />
	<path style="fill:none;stroke:red;stroke-width:1px;stroke-linecap:butt;stroke-linejoin:miter;stroke-opacity:1" d="M 770.545,355.709 781.367,370.138 z" id="boundary" inkscape:connector-curvature="0" />
	<path style="fill:none;stroke:red;stroke-width:1px;stroke-linecap:butt;stroke-linejoin:miter;stroke-opacity:1" d="M 781.367,370.138 790.385,386.371 z" id="boundary" inkscape:connector-curvature="0" />
	<path style="fill:none;stroke:red;stroke-width:1px;stroke-linecap:butt;stroke-linejoin:miter;stroke-opacity:1" d="M 790.385,386.371 799.404,402.604 z" id="boundary" inkscape:connector-curvature="0" />
	<path style="fill:none;stroke:red;stroke-width:1px;stroke-linecap:butt;stroke-linejoin:miter;stroke-opacity:1" d="M 799.404,402.604 786.778,420.64 z" id="boundary" inkscape:connector-curvature="0" />
	<path style="fill:none;stroke:red;stroke-width:1px;stroke-linecap:butt;stroke-linejoin:miter;stroke-opacity:1" d="M 786.778,420.64 768.742,424.247 z" id="boundary" inkscape:connector-curvature="0" />
	<path style="fill:none;stroke:red;stroke-width:1px;stroke-linecap:butt;stroke-linejoin:miter;stroke-opacity:1" d="M 768.742,424.247 752.509,415.229 z" id="boundary" inkscape:connector-curvature="0" />
	<path style="fill:none;stroke:red;stroke-width:1px;stroke-linecap:butt;stroke-linejoin:miter;stroke-opacity:1" d="M 752.509,415.229 736.276,406.211 z" id="boundary" inkscape:connector-curvature="0" />
	<path style="fill:none;stroke:red;stroke-width:1px;stroke-linecap:butt;stroke-linejoin:miter;stroke-opacity:1" d="M 736.276,406.211 721.847,395.389 z" id="boundary" inkscape:connector-curvature="0" />
	<path style="fill:none;stroke:red;stroke-width:1px;stroke-linecap:butt;stroke-linejoin:miter;stroke-opacity:1" d="M 721.847,395.389 703.811,388.175 z" id="boundary" inkscape:connector-curvature="0" />
	<path style="fill:none;stroke:red;stroke-width:1px;stroke-linecap:butt;stroke-linejoin:miter;stroke-opacity:1" d="M 703.811,388.175 696.596,370.138 z" id="boundary" inkscape:connector-curvature="0" />
	<path style="fill:none;stroke:red;stroke-width:1px;stroke-linecap:butt;stroke-linejoin:miter;stroke-opacity:1" d="M 696.596,370.138 682.167,357.513 z" id="boundary" inkscape:connector-curvature="0" />
	<path style="fill:none;stroke:red;stroke-width:1px;stroke-linecap:butt;stroke-linejoin:miter;stroke-opacity:1" d="M 682.167,357.513 671.345,343.084 z" id="boundary" inkscape:connector-curvature="0" />
	<path style="fill:none;stroke:red;stroke-width:1px;stroke-linecap:butt;stroke-linejoin:miter;stroke-opacity:1" d="M 671.345,343.084 656.916,332.262 z" id="boundary" inkscape:connector-curvature="0" />
	<path style="fill:none;stroke:red;stroke-width:1px;stroke-linecap:butt;stroke-linejoin:miter;stroke-opacity:1" d="M 656.916,332.262 644.291,317.833 z" id="boundary" inkscape:connector-curvature="0" />
	<path style="fill:none;stroke:red;stroke-width:1px;stroke-linecap:butt;stroke-linejoin:miter;stroke-opacity:1" d="M 644.291,317.833 635.273,301.6 z" id="boundary" inkscape:connector-curvature="0" />
	<path style="fill:none;stroke:red;stroke-width:1px;stroke-linecap:butt;stroke-linejoin:miter;stroke-opacity:1" d="M 635.273,301.6 619.04,292.582 z" id="boundary" inkscape:connector-curvature="0" />
	<path style="fill:none;stroke:red;stroke-width:1px;stroke-linecap:butt;stroke-linejoin:miter;stroke-opacity:1" d="M 619.04,292.582 604.611,279.956 z" id="boundary" inkscape:connector-curvature="0" />
	<path style="fill:none;stroke:red;stroke-width:1px;stroke-linecap:butt;stroke-linejoin:miter;stroke-opacity:1" d="M 604.611,279.956 588.378,270.938 z" id="boundary" inkscape:connector-curvature="0" />
	<path style="fill:none;stroke:red;stroke-width:1px;stroke-linecap:butt;stroke-linejoin:miter;stroke-opacity:1" d="M 588.378,270.938 572.145,279.956 z" id="boundary" inkscape:connector-curvature="0" />
	<path style="fill:none;stroke:red;stroke-width:1px;stroke-linecap:butt;stroke-linejoin:miter;stroke-opacity:1" d="M 572.145,279.956 555.913,288.975 z" id="boundary" inkscape:connector-curvature="0" />
	<path style="fill:none;stroke:red;stroke-width:1px;stroke-linecap:butt;stroke-linejoin:miter;stroke-opacity:1" d="M 555.913,288.975 546.895,307.011 z" id="boundary" inkscape:connector-curvature="0" />
	<path style="fill:none;stroke:red;stroke-width:1px;stroke-linecap:butt;stroke-linejoin:miter;stroke-opacity:1" d="M 546.895,307.011 546.895,325.047 z" id="boundary" inkscape:connector-curvature="0" />
	<path style="fill:none;stroke:red;stroke-width:1px;stroke-linecap:butt;stroke-linejoin:miter;stroke-opacity:1" d="M 546.895,325.047 546.895,343.084 z" id="boundary" inkscape:connector-curvature="0" />
	<path style="fill:none;stroke:red;stroke-width:1px;stroke-linecap:butt;stroke-linejoin:miter;stroke-opacity:1" d="M 546.895,343.084 537.876,370.138 z" id="boundary" inkscape:connector-curvature="0" />
	<path style="fill:none;stroke:red;stroke-width:1px;stroke-linecap:butt;stroke-linejoin:miter;stroke-opacity:1" d="M 537.876,370.138 537.876,388.175 z" id="boundary" inkscape:connector-curvature="0" />
	<path style="fill:none;stroke:red;stroke-width:1px;stroke-linecap:butt;stroke-linejoin:miter;stroke-opacity:1" d="M 537.876,388.175 537.876,406.211 z" id="boundary" inkscape:connector-curvature="0" />
	<path style="fill:none;stroke:red;stroke-width:1px;stroke-linecap:butt;stroke-linejoin:miter;stroke-opacity:1" d="M 537.876,406.211 528.858,424.247 z" id="boundary" inkscape:connector-curvature="0" />
	<path style="fill:none;stroke:red;stroke-width:1px;stroke-linecap:butt;stroke-linejoin:miter;stroke-opacity:1" d="M 528.858,424.247 528.858,442.284 z" id="boundary" inkscape:connector-curvature="0" />
	<path style="fill:none;stroke:red;stroke-width:1px;stroke-linecap:butt;stroke-linejoin:miter;stroke-opacity:1" d="M 528.858,442.284 528.858,460.32 z" id="boundary" inkscape:connector-curvature="0" />
	<path style="fill:none;stroke:red;stroke-width:1px;stroke-linecap:butt;stroke-linejoin:miter;stroke-opacity:1" d="M 528.858,460.32 528.858,478.356 z" id="boundary" inkscape:connector-curvature="0" />
	<path style="fill:none;stroke:red;stroke-width:1px;stroke-linecap:butt;stroke-linejoin:miter;stroke-opacity:1" d="M 528.858,478.356 528.858,496.393 z" id="boundary" inkscape:connector-curvature="0" />
	<path style="fill:none;stroke:red;stroke-width:1px;stroke-linecap:butt;stroke-linejoin:miter;stroke-opacity:1" d="M 528.858,496.393 532.465,514.429 z" id="boundary" inkscape:connector-curvature="0" />
	<path style="fill:none;stroke:red;stroke-width:1px;stroke-linecap:butt;stroke-linejoin:miter;stroke-opacity:1" d="M 532.465,514.429 541.484,530.662 z" id="boundary" inkscape:connector-curvature="0" />
	<path style="fill:none;stroke:red;stroke-width:1px;stroke-linecap:butt;stroke-linejoin:miter;stroke-opacity:1" d="M 541.484,530.662 554.109,545.091 z" id="boundary" inkscape:connector-curvature="0" />
	<path style="fill:none;stroke:red;stroke-width:1px;stroke-linecap:butt;stroke-linejoin:miter;stroke-opacity:1" d="M 554.109,545.091 568.538,557.716 z" id="boundary" inkscape:connector-curvature="0" />
	<path style="fill:none;stroke:red;stroke-width:1px;stroke-linecap:butt;stroke-linejoin:miter;stroke-opacity:1" d="M 568.538,557.716 581.164,572.145 z" id="boundary" inkscape:connector-curvature="0" />
	<path style="fill:none;stroke:red;stroke-width:1px;stroke-linecap:butt;stroke-linejoin:miter;stroke-opacity:1" d="M 581.164,572.145 591.985,586.575 z" id="boundary" inkscape:connector-curvature="0" />
	<path style="fill:none;stroke:red;stroke-width:1px;stroke-linecap:butt;stroke-linejoin:miter;stroke-opacity:1" d="M 591.985,586.575 601.004,602.807 z" id="boundary" inkscape:connector-curvature="0" />
	<path style="fill:none;stroke:red;stroke-width:1px;stroke-linecap:butt;stroke-linejoin:miter;stroke-opacity:1" d="M 601.004,602.807 619.04,608.218 z" id="boundary" inkscape:connector-curvature="0" />
	<path style="fill:none;stroke:red;stroke-width:1px;stroke-linecap:butt;stroke-linejoin:miter;stroke-opacity:1" d="M 619.04,608.218 631.665,622.647 z" id="boundary" inkscape:connector-curvature="0" />
	<path style="fill:none;stroke:red;stroke-width:1px;stroke-linecap:butt;stroke-linejoin:miter;stroke-opacity:1" d="M 631.665,622.647 646.095,635.273 z" id="boundary" inkscape:connector-curvature="0" />
	<path style="fill:none;stroke:red;stroke-width:1px;stroke-linecap:butt;stroke-linejoin:miter;stroke-opacity:1" d="M 646.095,635.273 658.72,649.702 z" id="boundary" inkscape:connector-curvature="0" />
	<path style="fill:none;stroke:red;stroke-width:1px;stroke-linecap:butt;stroke-linejoin:miter;stroke-opacity:1" d="M 658.72,649.702 676.756,656.916 z" id="boundary" inkscape:connector-curvature="0" />
	<path style="fill:none;stroke:red;stroke-width:1px;stroke-linecap:butt;stroke-linejoin:miter;stroke-opacity:1" d="M 676.756,656.916 689.382,671.345 z" id="boundary" inkscape:connector-curvature="0" />
	<path style="fill:none;stroke:red;stroke-width:1px;stroke-linecap:butt;stroke-linejoin:miter;stroke-opacity:1" d="M 689.382,671.345 703.811,683.971 z" id="boundary" inkscape:connector-curvature="0" />
	<path style="fill:none;stroke:red;stroke-width:1px;stroke-linecap:butt;stroke-linejoin:miter;stroke-opacity:1" d="M 703.811,683.971 709.222,702.007 z" id="boundary" inkscape:connector-curvature="0" />
	<path style="fill:none;stroke:red;stroke-width:1px;stroke-linecap:butt;stroke-linejoin:miter;stroke-opacity:1" d="M 709.222,702.007 723.651,712.829 z" id="boundary" inkscape:connector-curvature="0" />
	<path style="fill:none;stroke:red;stroke-width:1px;stroke-linecap:butt;stroke-linejoin:miter;stroke-opacity:1" d="M 723.651,712.829 736.276,727.258 z" id="boundary" inkscape:connector-curvature="0" />
	<path style="fill:none;stroke:red;stroke-width:1px;stroke-linecap:butt;stroke-linejoin:miter;stroke-opacity:1" d="M 736.276,727.258 745.295,743.491 z" id="boundary" inkscape:connector-curvature="0" />
	<path style="fill:none;stroke:red;stroke-width:1px;stroke-linecap:butt;stroke-linejoin:miter;stroke-opacity:1" d="M 745.295,743.491 754.313,759.724 z" id="boundary" inkscape:connector-curvature="0" />
	<path style="fill:none;stroke:red;stroke-width:1px;stroke-linecap:butt;stroke-linejoin:miter;stroke-opacity:1" d="M 754.313,759.724 765.135,774.153 z" id="boundary" inkscape:connector-curvature="0" />
	<path style="fill:none;stroke:red;stroke-width:1px;stroke-linecap:butt;stroke-linejoin:miter;stroke-opacity:1" d="M 765.135,774.153 772.349,792.189 z" id="boundary" inkscape:connector-curvature="0" />
	<path style="fill:none;stroke:red;stroke-width:1px;stroke-linecap:butt;stroke-linejoin:miter;stroke-opacity:1" d="M 772.349,792.189 781.367,808.422 z" id="boundary" inkscape:connector-curvature="0" />
	<path style="fill:none;stroke:red;stroke-width:1px;stroke-linecap:butt;stroke-linejoin:miter;stroke-opacity:1" d="M 781.367,808.422 790.385,824.655 z" id="boundary" inkscape:connector-curvature="0" />
	<path style="fill:none;stroke:red;stroke-width:1px;stroke-linecap:butt;stroke-linejoin:miter;stroke-opacity:1" d="M 790.385,824.655 797.6,842.691 z" id="boundary" inkscape:connector-curvature="0" />
	<path style="fill:none;stroke:red;stroke-width:1px;stroke-linecap:butt;stroke-linejoin:miter;stroke-opacity:1" d="M 797.6,842.691 799.404,860.727 z" id="boundary" inkscape:connector-curvature="0" />
	<path style="fill:none;stroke:red;stroke-width:1px;stroke-linecap:butt;stroke-linejoin:miter;stroke-opacity:1" d="M 799.404,860.727 799.404,878.764 z" id="boundary" inkscape:connector-curvature="0" />
	<path style="fill:none;stroke:red;stroke-width:1px;stroke-linecap:butt;stroke-linejoin:miter;stroke-opacity:1" d="M 799.404,878.764 806.618,896.8 z" id="boundary" inkscape:connector-curvature="0" />
	<path style="fill:none;stroke:red;stroke-width:1px;stroke-linecap:butt;stroke-linejoin:miter;stroke-opacity:1" d="M 806.618,896.8 808.422,914.836 z" id="boundary" inkscape:connector-curvature="0" />
	<path style="fill:none;stroke:red;stroke-width:1px;stroke-linecap:butt;stroke-linejoin:miter;stroke-opacity:1" d="M 808.422,914.836 808.422,932.873 z" id="boundary" inkscape:connector-curvature="0" />
	<circle cx="4" cy="806.618" r="4" fill="#0" id="circle0"/>
	<circle cx="13.0182" cy="822.851" r="4" fill="#0" id="circle1"/>
	<circle cx="18.4291" cy="792.189" r="4" fill="#0" id="circle2"/>
	<circle cx="25.6436" cy="837.28" r="4" fill="#0" id="circle3"/>
	<circle cx="34.6618" cy="783.171" r="4" fill="#0" id="circle4"/>
	<circle cx="43.68" cy="839.084" r="4" fill="#0" id="circle5"/>
	<circle cx="50.8945" cy="774.153" r="4" fill="#0" id="circle6"/>
	<circle cx="61.7164" cy="844.495" r="4" fill="#0" id="circle7"/>
	<circle cx="68.9309" cy="768.742" r="4" fill="#0" id="circle8"/>
	<circle cx="79.7527" cy="848.102" r="4" fill="#0" id="circle9"/>
	<circle cx="86.9673" cy="765.135" r="4" fill="#0" id="circle10"/>
	<circle cx="94.1818" cy="409.818" r="4" fill="#0" id="circle11"/>
	<circle cx="94.1818" cy="427.855" r="4" fill="#0" id="circle12"/>
	<circle cx="97.7891" cy="848.102" r="4" fill="#0" id="circle13"/>
	<circle cx="103.2" cy="391.782" r="4" fill="#0" id="circle14"/>
	<circle cx="105.004" cy="765.135" r="4" fill="#0" id="circle15"/>
	<circle cx="112.218" cy="373.745" r="4" fill="#0" id="circle16"/>
	<circle cx="112.218" cy="433.265" r="4" fill="#0" id="circle17"/>
	<circle cx="114.022" cy="839.084" r="4" fill="#0" id="circle18"/>
	<circle cx="121.236" cy="756.116" r="4" fill="#0" id="circle19"/>
	<circle cx="126.647" cy="359.316" r="4" fill="#0" id="circle20"/>
	<circle cx="130.255" cy="436.873" r="4" fill="#0" id="circle21"/>
	<circle cx="132.058" cy="839.084" r="4" fill="#0" id="circle22"/>
	<circle cx="135.665" cy="341.28" r="4" fill="#0" id="circle23"/>
	<circle cx="139.273" cy="752.509" r="4" fill="#0" id="circle24"/>
	<circle cx="144.684" cy="422.444" r="4" fill="#0" id="circle25"/>
	<circle cx="148.291" cy="319.636" r="4" fill="#0" id="circle26"/>
	<circle cx="148.291" cy="830.065" r="4" fill="#0" id="circle27"/>
	<circle cx="153.702" cy="406.211" r="4" fill="#0" id="circle28"/>
	<circle cx="157.309" cy="301.6" r="4" fill="#0" id="circle29"/>
	<circle cx="157.309" cy="743.491" r="4" fill="#0" id="circle30"/>
	<circle cx="166.327" cy="830.065" r="4" fill="#0" id="circle31"/>
	<circle cx="169.935" cy="397.193" r="4" fill="#0" id="circle32"/>
	<circle cx="171.738" cy="287.171" r="4" fill="#0" id="circle33"/>
	<circle cx="175.345" cy="734.473" r="4" fill="#0" id="circle34"/>
	<circle cx="180.756" cy="269.135" r="4" fill="#0" id="circle35"/>
	<circle cx="182.56" cy="821.047" r="4" fill="#0" id="circle36"/>
	<circle cx="184.364" cy="382.764" r="4" fill="#0" id="circle37"/>
	<circle cx="189.775" cy="251.098" r="4" fill="#0" id="circle38"/>
	<circle cx="189.775" cy="720.044" r="4" fill="#0" id="circle39"/>
	<circle cx="198.793" cy="233.062" r="4" fill="#0" id="circle40"/>
	<circle cx="198.793" cy="368.335" r="4" fill="#0" id="circle41"/>
	<circle cx="200.596" cy="817.44" r="4" fill="#0" id="circle42"/>
	<circle cx="207.811" cy="711.025" r="4" fill="#0" id="circle43"/>
	<circle cx="213.222" cy="218.633" r="4" fill="#0" id="circle44"/>
	<circle cx="213.222" cy="343.084" r="4" fill="#0" id="circle45"/>
	<circle cx="218.633" cy="808.422" r="4" fill="#0" id="circle46"/>
	<circle cx="222.24" cy="696.596" r="4" fill="#0" id="circle47"/>
	<circle cx="227.651" cy="206.007" r="4" fill="#0" id="circle48"/>
	<circle cx="227.651" cy="330.458" r="4" fill="#0" id="circle49"/>
	<circle cx="236.669" cy="683.971" r="4" fill="#0" id="circle50"/>
	<circle cx="236.669" cy="799.404" r="4" fill="#0" id="circle51"/>
	<circle cx="240.276" cy="316.029" r="4" fill="#0" id="circle52"/>
	<circle cx="243.884" cy="196.989" r="4" fill="#0" id="circle53"/>
	<circle cx="249.295" cy="669.542" r="4" fill="#0" id="circle54"/>
	<circle cx="254.705" cy="790.385" r="4" fill="#0" id="circle55"/>
	<circle cx="256.509" cy="307.011" r="4" fill="#0" id="circle56"/>
	<circle cx="260.116" cy="187.971" r="4" fill="#0" id="circle57"/>
	<circle cx="263.724" cy="656.916" r="4" fill="#0" id="circle58"/>
	<circle cx="272.742" cy="297.993" r="4" fill="#0" id="circle59"/>
	<circle cx="272.742" cy="781.367" r="4" fill="#0" id="circle60"/>
	<circle cx="276.349" cy="178.953" r="4" fill="#0" id="circle61"/>
	<circle cx="276.349" cy="642.487" r="4" fill="#0" id="circle62"/>
	<circle cx="285.367" cy="766.938" r="4" fill="#0" id="circle63"/>
	<circle cx="290.778" cy="297.993" r="4" fill="#0" id="circle64"/>
	<circle cx="290.778" cy="629.862" r="4" fill="#0" id="circle65"/>
	<circle cx="292.582" cy="169.935" r="4" fill="#0" id="circle66"/>
	<circle cx="299.796" cy="754.313" r="4" fill="#0" id="circle67"/>
	<circle cx="301.6" cy="312.422" r="4" fill="#0" id="circle68"/>
	<circle cx="303.404" cy="615.433" r="4" fill="#0" id="circle69"/>
	<circle cx="310.618" cy="169.935" r="4" fill="#0" id="circle70"/>
	<circle cx="310.618" cy="328.655" r="4" fill="#0" id="circle71"/>
	<circle cx="310.618" cy="346.691" r="4" fill="#0" id="circle72"/>
	<circle cx="317.833" cy="602.807" r="4" fill="#0" id="circle73"/>
	<circle cx="317.833" cy="745.295" r="4" fill="#0" id="circle74"/>
	<circle cx="319.636" cy="362.924" r="4" fill="#0" id="circle75"/>
	<circle cx="325.047" cy="584.771" r="4" fill="#0" id="circle76"/>
	<circle cx="328.655" cy="169.935" r="4" fill="#0" id="circle77"/>
	<circle cx="328.655" cy="379.156" r="4" fill="#0" id="circle78"/>
	<circle cx="330.458" cy="730.865" r="4" fill="#0" id="circle79"/>
	<circle cx="334.065" cy="397.193" r="4" fill="#0" id="circle80"/>
	<circle cx="337.673" cy="76.1455" r="4" fill="#0" id="circle81"/>
	<circle cx="337.673" cy="94.1818" r="4" fill="#0" id="circle82"/>
	<circle cx="337.673" cy="112.218" r="4" fill="#0" id="circle83"/>
	<circle cx="337.673" cy="415.229" r="4" fill="#0" id="circle84"/>
	<circle cx="339.476" cy="155.505" r="4" fill="#0" id="circle85"/>
	<circle cx="339.476" cy="570.342" r="4" fill="#0" id="circle86"/>
	<circle cx="343.084" cy="433.265" r="4" fill="#0" id="circle87"/>
	<circle cx="344.887" cy="718.24" r="4" fill="#0" id="circle88"/>
	<circle cx="346.691" cy="58.1091" r="4" fill="#0" id="circle89"/>
	<circle cx="346.691" cy="128.451" r="4" fill="#0" id="circle90"/>
	<circle cx="346.691" cy="545.091" r="4" fill="#0" id="circle91"/>
	<circle cx="352.102" cy="449.498" r="4" fill="#0" id="circle92"/>
	<circle cx="355.709" cy="40.0727" r="4" fill="#0" id="circle93"/>
	<circle cx="355.709" cy="467.535" r="4" fill="#0" id="circle94"/>
	<circle cx="355.709" cy="527.055" r="4" fill="#0" id="circle95"/>
	<circle cx="357.513" cy="703.811" r="4" fill="#0" id="circle96"/>
	<circle cx="364.727" cy="483.767" r="4" fill="#0" id="circle97"/>
	<circle cx="364.727" cy="501.804" r="4" fill="#0" id="circle98"/>
	<circle cx="370.138" cy="25.6436" r="4" fill="#0" id="circle99"/>
	<circle cx="371.942" cy="691.185" r="4" fill="#0" id="circle100"/>
	<circle cx="384.567" cy="676.756" r="4" fill="#0" id="circle101"/>
	<circle cx="386.371" cy="16.6255" r="4" fill="#0" id="circle102"/>
	<circle cx="398.996" cy="664.131" r="4" fill="#0" id="circle103"/>
	<circle cx="402.604" cy="7.60727" r="4" fill="#0" id="circle104"/>
	<circle cx="411.622" cy="649.702" r="4" fill="#0" id="circle105"/>
	<circle cx="420.64" cy="4" r="4" fill="#0" id="circle106"/>
	<circle cx="429.658" cy="640.684" r="4" fill="#0" id="circle107"/>
	<circle cx="438.676" cy="7.60727" r="4" fill="#0" id="circle108"/>
	<circle cx="445.891" cy="631.665" r="4" fill="#0" id="circle109"/>
	<circle cx="453.105" cy="18.4291" r="4" fill="#0" id="circle110"/>
	<circle cx="463.927" cy="631.665" r="4" fill="#0" id="circle111"/>
	<circle cx="465.731" cy="32.8582" r="4" fill="#0" id="circle112"/>
	<circle cx="474.749" cy="49.0909" r="4" fill="#0" id="circle113"/>
	<circle cx="481.964" cy="631.665" r="4" fill="#0" id="circle114"/>
	<circle cx="483.767" cy="65.3236" r="4" fill="#0" id="circle115"/>
	<circle cx="483.767" cy="117.629" r="4" fill="#0" id="circle116"/>
	<circle cx="492.785" cy="81.5564" r="4" fill="#0" id="circle117"/>
	<circle cx="492.785" cy="99.5927" r="4" fill="#0" id="circle118"/>
	<circle cx="492.785" cy="133.862" r="4" fill="#0" id="circle119"/>
	<circle cx="498.196" cy="640.684" r="4" fill="#0" id="circle120"/>
	<circle cx="501.804" cy="150.095" r="4" fill="#0" id="circle121"/>
	<circle cx="510.822" cy="655.113" r="4" fill="#0" id="circle122"/>
	<circle cx="519.84" cy="157.309" r="4" fill="#0" id="circle123"/>
	<circle cx="528.858" cy="424.247" r="4" fill="#0" id="circle124"/>
	<circle cx="528.858" cy="442.284" r="4" fill="#0" id="circle125"/>
	<circle cx="528.858" cy="460.32" r="4" fill="#0" id="circle126"/>
	<circle cx="528.858" cy="478.356" r="4" fill="#0" id="circle127"/>
	<circle cx="528.858" cy="496.393" r="4" fill="#0" id="circle128"/>
	<circle cx="528.858" cy="662.327" r="4" fill="#0" id="circle129"/>
	<circle cx="532.465" cy="514.429" r="4" fill="#0" id="circle130"/>
	<circle cx="537.876" cy="160.916" r="4" fill="#0" id="circle131"/>
	<circle cx="537.876" cy="370.138" r="4" fill="#0" id="circle132"/>
	<circle cx="537.876" cy="388.175" r="4" fill="#0" id="circle133"/>
	<circle cx="537.876" cy="406.211" r="4" fill="#0" id="circle134"/>
	<circle cx="541.484" cy="530.662" r="4" fill="#0" id="circle135"/>
	<circle cx="541.484" cy="676.756" r="4" fill="#0" id="circle136"/>
	<circle cx="546.895" cy="307.011" r="4" fill="#0" id="circle137"/>
	<circle cx="546.895" cy="325.047" r="4" fill="#0" id="circle138"/>
	<circle cx="546.895" cy="343.084" r="4" fill="#0" id="circle139"/>
	<circle cx="554.109" cy="545.091" r="4" fill="#0" id="circle140"/>
	<circle cx="555.913" cy="160.916" r="4" fill="#0" id="circle141"/>
	<circle cx="555.913" cy="288.975" r="4" fill="#0" id="circle142"/>
	<circle cx="555.913" cy="689.382" r="4" fill="#0" id="circle143"/>
	<circle cx="568.538" cy="557.716" r="4" fill="#0" id="circle144"/>
	<circle cx="572.145" cy="279.956" r="4" fill="#0" id="circle145"/>
	<circle cx="572.145" cy="698.4" r="4" fill="#0" id="circle146"/>
	<circle cx="573.949" cy="160.916" r="4" fill="#0" id="circle147"/>
	<circle cx="581.164" cy="572.145" r="4" fill="#0" id="circle148"/>
	<circle cx="586.575" cy="711.025" r="4" fill="#0" id="circle149"/>
	<circle cx="588.378" cy="270.938" r="4" fill="#0" id="circle150"/>
	<circle cx="591.985" cy="166.327" r="4" fill="#0" id="circle151"/>
	<circle cx="591.985" cy="586.575" r="4" fill="#0" id="circle152"/>
	<circle cx="601.004" cy="602.807" r="4" fill="#0" id="circle153"/>
	<circle cx="602.807" cy="720.044" r="4" fill="#0" id="circle154"/>
	<circle cx="604.611" cy="279.956" r="4" fill="#0" id="circle155"/>
	<circle cx="608.218" cy="175.345" r="4" fill="#0" id="circle156"/>
	<circle cx="617.236" cy="730.865" r="4" fill="#0" id="circle157"/>
	<circle cx="619.04" cy="292.582" r="4" fill="#0" id="circle158"/>
	<circle cx="619.04" cy="608.218" r="4" fill="#0" id="circle159"/>
	<circle cx="622.647" cy="187.971" r="4" fill="#0" id="circle160"/>
	<circle cx="628.058" cy="745.295" r="4" fill="#0" id="circle161"/>
	<circle cx="631.665" cy="622.647" r="4" fill="#0" id="circle162"/>
	<circle cx="635.273" cy="301.6" r="4" fill="#0" id="circle163"/>
	<circle cx="638.88" cy="196.989" r="4" fill="#0" id="circle164"/>
	<circle cx="642.487" cy="757.92" r="4" fill="#0" id="circle165"/>
	<circle cx="644.291" cy="317.833" r="4" fill="#0" id="circle166"/>
	<circle cx="646.095" cy="215.025" r="4" fill="#0" id="circle167"/>
	<circle cx="646.095" cy="635.273" r="4" fill="#0" id="circle168"/>
	<circle cx="656.916" cy="332.262" r="4" fill="#0" id="circle169"/>
	<circle cx="658.72" cy="649.702" r="4" fill="#0" id="circle170"/>
	<circle cx="658.72" cy="766.938" r="4" fill="#0" id="circle171"/>
	<circle cx="660.524" cy="225.847" r="4" fill="#0" id="circle172"/>
	<circle cx="667.738" cy="783.171" r="4" fill="#0" id="circle173"/>
	<circle cx="671.345" cy="343.084" r="4" fill="#0" id="circle174"/>
	<circle cx="673.149" cy="240.276" r="4" fill="#0" id="circle175"/>
	<circle cx="676.756" cy="656.916" r="4" fill="#0" id="circle176"/>
	<circle cx="680.364" cy="797.6" r="4" fill="#0" id="circle177"/>
	<circle cx="682.167" cy="357.513" r="4" fill="#0" id="circle178"/>
	<circle cx="687.578" cy="252.902" r="4" fill="#0" id="circle179"/>
	<circle cx="689.382" cy="671.345" r="4" fill="#0" id="circle180"/>
	<circle cx="689.382" cy="813.833" r="4" fill="#0" id="circle181"/>
	<circle cx="696.596" cy="370.138" r="4" fill="#0" id="circle182"/>
	<circle cx="698.4" cy="830.065" r="4" fill="#0" id="circle183"/>
	<circle cx="700.204" cy="267.331" r="4" fill="#0" id="circle184"/>
	<circle cx="703.811" cy="388.175" r="4" fill="#0" id="circle185"/>
	<circle cx="703.811" cy="683.971" r="4" fill="#0" id="circle186"/>
	<circle cx="707.418" cy="846.298" r="4" fill="#0" id="circle187"/>
	<circle cx="709.222" cy="702.007" r="4" fill="#0" id="circle188"/>
	<circle cx="714.633" cy="279.956" r="4" fill="#0" id="circle189"/>
	<circle cx="716.436" cy="862.531" r="4" fill="#0" id="circle190"/>
	<circle cx="721.847" cy="297.993" r="4" fill="#0" id="circle191"/>
	<circle cx="721.847" cy="395.389" r="4" fill="#0" id="circle192"/>
	<circle cx="723.651" cy="712.829" r="4" fill="#0" id="circle193"/>
	<circle cx="725.455" cy="878.764" r="4" fill="#0" id="circle194"/>
	<circle cx="725.455" cy="896.8" r="4" fill="#0" id="circle195"/>
	<circle cx="734.473" cy="913.033" r="4" fill="#0" id="circle196"/>
	<circle cx="736.276" cy="310.618" r="4" fill="#0" id="circle197"/>
	<circle cx="736.276" cy="406.211" r="4" fill="#0" id="circle198"/>
	<circle cx="736.276" cy="727.258" r="4" fill="#0" id="circle199"/>
	<circle cx="743.491" cy="328.655" r="4" fill="#0" id="circle200"/>
	<circle cx="743.491" cy="929.265" r="4" fill="#0" id="circle201"/>
	<circle cx="743.491" cy="947.302" r="4" fill="#0" id="circle202"/>
	<circle cx="745.295" cy="743.491" r="4" fill="#0" id="circle203"/>
	<circle cx="748.902" cy="965.338" r="4" fill="#0" id="circle204"/>
	<circle cx="752.509" cy="415.229" r="4" fill="#0" id="circle205"/>
	<circle cx="754.313" cy="759.724" r="4" fill="#0" id="circle206"/>
	<circle cx="757.92" cy="341.28" r="4" fill="#0" id="circle207"/>
	<circle cx="757.92" cy="981.571" r="4" fill="#0" id="circle208"/>
	<circle cx="765.135" cy="774.153" r="4" fill="#0" id="circle209"/>
	<circle cx="768.742" cy="424.247" r="4" fill="#0" id="circle210"/>
	<circle cx="770.545" cy="355.709" r="4" fill="#0" id="circle211"/>
	<circle cx="770.545" cy="996" r="4" fill="#0" id="circle212"/>
	<circle cx="772.349" cy="792.189" r="4" fill="#0" id="circle213"/>
	<circle cx="781.367" cy="370.138" r="4" fill="#0" id="circle214"/>
	<circle cx="781.367" cy="808.422" r="4" fill="#0" id="circle215"/>
	<circle cx="786.778" cy="420.64" r="4" fill="#0" id="circle216"/>
	<circle cx="788.582" cy="996" r="4" fill="#0" id="circle217"/>
	<circle cx="790.385" cy="386.371" r="4" fill="#0" id="circle218"/>
	<circle cx="790.385" cy="824.655" r="4" fill="#0" id="circle219"/>
	<circle cx="797.6" cy="842.691" r="4" fill="#0" id="circle220"/>
	<circle cx="799.404" cy="402.604" r="4" fill="#0" id="circle221"/>
	<circle cx="799.404" cy="860.727" r="4" fill="#0" id="circle222"/>
	<circle cx="799.404" cy="878.764" r="4" fill="#0" id="circle223"/>
	<circle cx="799.404" cy="974.356" r="4" fill="#0" id="circle224"/>
	<circle cx="806.618" cy="896.8" r="4" fill="#0" id="circle225"/>
	<circle cx="808.422" cy="914.836" r="4" fill="#0" id="circle226"/>
	<circle cx="808.422" cy="932.873" r="4" fill="#0" id="circle227"/>
	<circle cx="808.422" cy="950.909" r="4" fill="#0" id="circle228"/>
	</g>
</svg>