<?xml version="1.0" encoding="UTF-8" standalone="no"?>
<!-- Created with CurveBenchmark -->
<svg
	xmlns:dc="http://purl.org/dc/elements/1.1/"
	xmlns:cc="http://creativecommons.org/ns#"
	xmlns:rdf="http://www.w3.org/1999/02/22-rdf-syntax-ns#"
	xmlns:svg="http://www.w3.org/2000/svg"
	xmlns="http://www.w3.org/2000/svg"
	xmlns:sodipodi="http://sodipodi.sourceforge.net/DTD/sodipodi-0.dtd"
	xmlns:inkscape="http://www.inkscape.org/namespaces/inkscape"
	width="1000"
	height="1000"
	id="svg2"
	version="1.1"
	sodipodi:docname="manifold/connect2d-cat32.png.txt">
<defs
	id="defs4" />
<metadata
	id="metadata7">
	<rdf:RDF>
		<cc:Work
			rdf:about="">
			<dc:format>image/svg+xml</dc:format>
			<dc:type
				rdf:resource="http://purl.org/dc/dcmitype/StillImage" />
			<dc:title></dc:title>
		</cc:Work>
	</rdf:RDF>
</metadata>
<g
	inkscape:label="Layer 1"
	inkscape:groupmode="layer"
	id="layer1">
	<path style="fill:none;stroke:red;stroke-width:1px;stroke-linecap:butt;stroke-linejoin:miter;stroke-opacity:1" d="M 996,182.588 984.838,193.75 z" id="boundary" inkscape:connector-curvature="0" />
	<path style="fill:none;stroke:red;stroke-width:1px;stroke-linecap:butt;stroke-linejoin:miter;stroke-opacity:1" d="M 984.838,193.75 972.281,200.726 z" id="boundary" inkscape:connector-curvature="0" />
	<path style="fill:none;stroke:red;stroke-width:1px;stroke-linecap:butt;stroke-linejoin:miter;stroke-opacity:1" d="M 972.281,200.726 959.724,193.75 z" id="boundary" inkscape:connector-curvature="0" />
	<path style="fill:none;stroke:red;stroke-width:1px;stroke-linecap:butt;stroke-linejoin:miter;stroke-opacity:1" d="M 959.724,193.75 947.167,186.774 z" id="boundary" inkscape:connector-curvature="0" />
	<path style="fill:none;stroke:red;stroke-width:1px;stroke-linecap:butt;stroke-linejoin:miter;stroke-opacity:1" d="M 947.167,186.774 934.61,179.797 z" id="boundary" inkscape:connector-curvature="0" />
	<path style="fill:none;stroke:red;stroke-width:1px;stroke-linecap:butt;stroke-linejoin:miter;stroke-opacity:1" d="M 934.61,179.797 920.658,177.007 z" id="boundary" inkscape:connector-curvature="0" />
	<path style="fill:none;stroke:red;stroke-width:1px;stroke-linecap:butt;stroke-linejoin:miter;stroke-opacity:1" d="M 920.658,177.007 906.706,172.821 z" id="boundary" inkscape:connector-curvature="0" />
	<path style="fill:none;stroke:red;stroke-width:1px;stroke-linecap:butt;stroke-linejoin:miter;stroke-opacity:1" d="M 906.706,172.821 892.754,172.821 z" id="boundary" inkscape:connector-curvature="0" />
	<path style="fill:none;stroke:red;stroke-width:1px;stroke-linecap:butt;stroke-linejoin:miter;stroke-opacity:1" d="M 892.754,172.821 880.197,179.797 z" id="boundary" inkscape:connector-curvature="0" />
	<path style="fill:none;stroke:red;stroke-width:1px;stroke-linecap:butt;stroke-linejoin:miter;stroke-opacity:1" d="M 880.197,179.797 867.64,186.774 z" id="boundary" inkscape:connector-curvature="0" />
	<path style="fill:none;stroke:red;stroke-width:1px;stroke-linecap:butt;stroke-linejoin:miter;stroke-opacity:1" d="M 867.64,186.774 855.083,193.75 z" id="boundary" inkscape:connector-curvature="0" />
	<path style="fill:none;stroke:red;stroke-width:1px;stroke-linecap:butt;stroke-linejoin:miter;stroke-opacity:1" d="M 855.083,193.75 842.526,200.726 z" id="boundary" inkscape:connector-curvature="0" />
	<path style="fill:none;stroke:red;stroke-width:1px;stroke-linecap:butt;stroke-linejoin:miter;stroke-opacity:1" d="M 842.526,200.726 829.969,207.702 z" id="boundary" inkscape:connector-curvature="0" />
	<path style="fill:none;stroke:red;stroke-width:1px;stroke-linecap:butt;stroke-linejoin:miter;stroke-opacity:1" d="M 829.969,207.702 817.412,214.678 z" id="boundary" inkscape:connector-curvature="0" />
	<path style="fill:none;stroke:red;stroke-width:1px;stroke-linecap:butt;stroke-linejoin:miter;stroke-opacity:1" d="M 817.412,214.678 803.46,220.259 z" id="boundary" inkscape:connector-curvature="0" />
	<path style="fill:none;stroke:red;stroke-width:1px;stroke-linecap:butt;stroke-linejoin:miter;stroke-opacity:1" d="M 803.46,220.259 789.508,221.654 z" id="boundary" inkscape:connector-curvature="0" />
	<path style="fill:none;stroke:red;stroke-width:1px;stroke-linecap:butt;stroke-linejoin:miter;stroke-opacity:1" d="M 789.508,221.654 775.556,221.654 z" id="boundary" inkscape:connector-curvature="0" />
	<path style="fill:none;stroke:red;stroke-width:1px;stroke-linecap:butt;stroke-linejoin:miter;stroke-opacity:1" d="M 775.556,221.654 761.603,221.654 z" id="boundary" inkscape:connector-curvature="0" />
	<path style="fill:none;stroke:red;stroke-width:1px;stroke-linecap:butt;stroke-linejoin:miter;stroke-opacity:1" d="M 761.603,221.654 747.651,221.654 z" id="boundary" inkscape:connector-curvature="0" />
	<path style="fill:none;stroke:red;stroke-width:1px;stroke-linecap:butt;stroke-linejoin:miter;stroke-opacity:1" d="M 747.651,221.654 735.094,214.678 z" id="boundary" inkscape:connector-curvature="0" />
	<path style="fill:none;stroke:red;stroke-width:1px;stroke-linecap:butt;stroke-linejoin:miter;stroke-opacity:1" d="M 735.094,214.678 722.537,207.702 z" id="boundary" inkscape:connector-curvature="0" />
	<path style="fill:none;stroke:red;stroke-width:1px;stroke-linecap:butt;stroke-linejoin:miter;stroke-opacity:1" d="M 722.537,207.702 708.585,207.702 z" id="boundary" inkscape:connector-curvature="0" />
	<path style="fill:none;stroke:red;stroke-width:1px;stroke-linecap:butt;stroke-linejoin:miter;stroke-opacity:1" d="M 708.585,207.702 696.028,200.726 z" id="boundary" inkscape:connector-curvature="0" />
	<path style="fill:none;stroke:red;stroke-width:1px;stroke-linecap:butt;stroke-linejoin:miter;stroke-opacity:1" d="M 696.028,200.726 684.866,192.354 z" id="boundary" inkscape:connector-curvature="0" />
	<path style="fill:none;stroke:red;stroke-width:1px;stroke-linecap:butt;stroke-linejoin:miter;stroke-opacity:1" d="M 684.866,192.354 670.914,186.774 z" id="boundary" inkscape:connector-curvature="0" />
	<path style="fill:none;stroke:red;stroke-width:1px;stroke-linecap:butt;stroke-linejoin:miter;stroke-opacity:1" d="M 670.914,186.774 656.962,186.774 z" id="boundary" inkscape:connector-curvature="0" />
	<path style="fill:none;stroke:red;stroke-width:1px;stroke-linecap:butt;stroke-linejoin:miter;stroke-opacity:1" d="M 656.962,186.774 645.8,196.54 z" id="boundary" inkscape:connector-curvature="0" />
	<path style="fill:none;stroke:red;stroke-width:1px;stroke-linecap:butt;stroke-linejoin:miter;stroke-opacity:1" d="M 645.8,196.54 631.848,200.726 z" id="boundary" inkscape:connector-curvature="0" />
	<path style="fill:none;stroke:red;stroke-width:1px;stroke-linecap:butt;stroke-linejoin:miter;stroke-opacity:1" d="M 631.848,200.726 619.291,207.702 z" id="boundary" inkscape:connector-curvature="0" />
	<path style="fill:none;stroke:red;stroke-width:1px;stroke-linecap:butt;stroke-linejoin:miter;stroke-opacity:1" d="M 619.291,207.702 605.339,214.678 z" id="boundary" inkscape:connector-curvature="0" />
	<path style="fill:none;stroke:red;stroke-width:1px;stroke-linecap:butt;stroke-linejoin:miter;stroke-opacity:1" d="M 605.339,214.678 594.177,227.235 z" id="boundary" inkscape:connector-curvature="0" />
	<path style="fill:none;stroke:red;stroke-width:1px;stroke-linecap:butt;stroke-linejoin:miter;stroke-opacity:1" d="M 594.177,227.235 583.015,235.606 z" id="boundary" inkscape:connector-curvature="0" />
	<path style="fill:none;stroke:red;stroke-width:1px;stroke-linecap:butt;stroke-linejoin:miter;stroke-opacity:1" d="M 583.015,235.606 570.459,242.582 z" id="boundary" inkscape:connector-curvature="0" />
	<path style="fill:none;stroke:red;stroke-width:1px;stroke-linecap:butt;stroke-linejoin:miter;stroke-opacity:1" d="M 570.459,242.582 556.506,249.558 z" id="boundary" inkscape:connector-curvature="0" />
	<path style="fill:none;stroke:red;stroke-width:1px;stroke-linecap:butt;stroke-linejoin:miter;stroke-opacity:1" d="M 556.506,249.558 542.554,263.511 z" id="boundary" inkscape:connector-curvature="0" />
	<path style="fill:none;stroke:red;stroke-width:1px;stroke-linecap:butt;stroke-linejoin:miter;stroke-opacity:1" d="M 542.554,263.511 535.578,277.463 z" id="boundary" inkscape:connector-curvature="0" />
	<path style="fill:none;stroke:red;stroke-width:1px;stroke-linecap:butt;stroke-linejoin:miter;stroke-opacity:1" d="M 535.578,277.463 528.602,291.415 z" id="boundary" inkscape:connector-curvature="0" />
	<path style="fill:none;stroke:red;stroke-width:1px;stroke-linecap:butt;stroke-linejoin:miter;stroke-opacity:1" d="M 528.602,291.415 521.626,305.367 z" id="boundary" inkscape:connector-curvature="0" />
	<path style="fill:none;stroke:red;stroke-width:1px;stroke-linecap:butt;stroke-linejoin:miter;stroke-opacity:1" d="M 521.626,305.367 514.65,319.319 z" id="boundary" inkscape:connector-curvature="0" />
	<path style="fill:none;stroke:red;stroke-width:1px;stroke-linecap:butt;stroke-linejoin:miter;stroke-opacity:1" d="M 514.65,319.319 507.674,333.271 z" id="boundary" inkscape:connector-curvature="0" />
	<path style="fill:none;stroke:red;stroke-width:1px;stroke-linecap:butt;stroke-linejoin:miter;stroke-opacity:1" d="M 507.674,333.271 500.698,347.224 z" id="boundary" inkscape:connector-curvature="0" />
	<path style="fill:none;stroke:red;stroke-width:1px;stroke-linecap:butt;stroke-linejoin:miter;stroke-opacity:1" d="M 500.698,347.224 488.141,354.2 z" id="boundary" inkscape:connector-curvature="0" />
	<path style="fill:none;stroke:red;stroke-width:1px;stroke-linecap:butt;stroke-linejoin:miter;stroke-opacity:1" d="M 488.141,354.2 475.584,361.176 z" id="boundary" inkscape:connector-curvature="0" />
	<path style="fill:none;stroke:red;stroke-width:1px;stroke-linecap:butt;stroke-linejoin:miter;stroke-opacity:1" d="M 475.584,361.176 464.422,370.942 z" id="boundary" inkscape:connector-curvature="0" />
	<path style="fill:none;stroke:red;stroke-width:1px;stroke-linecap:butt;stroke-linejoin:miter;stroke-opacity:1" d="M 464.422,370.942 450.47,375.128 z" id="boundary" inkscape:connector-curvature="0" />
	<path style="fill:none;stroke:red;stroke-width:1px;stroke-linecap:butt;stroke-linejoin:miter;stroke-opacity:1" d="M 450.47,375.128 436.518,375.128 z" id="boundary" inkscape:connector-curvature="0" />
	<path style="fill:none;stroke:red;stroke-width:1px;stroke-linecap:butt;stroke-linejoin:miter;stroke-opacity:1" d="M 436.518,375.128 429.541,362.571 z" id="boundary" inkscape:connector-curvature="0" />
	<path style="fill:none;stroke:red;stroke-width:1px;stroke-linecap:butt;stroke-linejoin:miter;stroke-opacity:1" d="M 429.541,362.571 422.565,350.014 z" id="boundary" inkscape:connector-curvature="0" />
	<path style="fill:none;stroke:red;stroke-width:1px;stroke-linecap:butt;stroke-linejoin:miter;stroke-opacity:1" d="M 422.565,350.014 433.727,338.852 z" id="boundary" inkscape:connector-curvature="0" />
	<path style="fill:none;stroke:red;stroke-width:1px;stroke-linecap:butt;stroke-linejoin:miter;stroke-opacity:1" d="M 433.727,338.852 447.679,331.876 z" id="boundary" inkscape:connector-curvature="0" />
	<path style="fill:none;stroke:red;stroke-width:1px;stroke-linecap:butt;stroke-linejoin:miter;stroke-opacity:1" d="M 447.679,331.876 461.632,324.9 z" id="boundary" inkscape:connector-curvature="0" />
	<path style="fill:none;stroke:red;stroke-width:1px;stroke-linecap:butt;stroke-linejoin:miter;stroke-opacity:1" d="M 461.632,324.9 472.793,313.738 z" id="boundary" inkscape:connector-curvature="0" />
	<path style="fill:none;stroke:red;stroke-width:1px;stroke-linecap:butt;stroke-linejoin:miter;stroke-opacity:1" d="M 472.793,313.738 479.769,299.786 z" id="boundary" inkscape:connector-curvature="0" />
	<path style="fill:none;stroke:red;stroke-width:1px;stroke-linecap:butt;stroke-linejoin:miter;stroke-opacity:1" d="M 479.769,299.786 485.35,280.253 z" id="boundary" inkscape:connector-curvature="0" />
	<path style="fill:none;stroke:red;stroke-width:1px;stroke-linecap:butt;stroke-linejoin:miter;stroke-opacity:1" d="M 485.35,280.253 485.35,266.301 z" id="boundary" inkscape:connector-curvature="0" />
	<path style="fill:none;stroke:red;stroke-width:1px;stroke-linecap:butt;stroke-linejoin:miter;stroke-opacity:1" d="M 485.35,266.301 485.35,242.582 z" id="boundary" inkscape:connector-curvature="0" />
	<path style="fill:none;stroke:red;stroke-width:1px;stroke-linecap:butt;stroke-linejoin:miter;stroke-opacity:1" d="M 485.35,242.582 472.793,249.558 z" id="boundary" inkscape:connector-curvature="0" />
	<path style="fill:none;stroke:red;stroke-width:1px;stroke-linecap:butt;stroke-linejoin:miter;stroke-opacity:1" d="M 472.793,249.558 465.817,270.487 z" id="boundary" inkscape:connector-curvature="0" />
	<path style="fill:none;stroke:red;stroke-width:1px;stroke-linecap:butt;stroke-linejoin:miter;stroke-opacity:1" d="M 465.817,270.487 465.817,284.439 z" id="boundary" inkscape:connector-curvature="0" />
	<path style="fill:none;stroke:red;stroke-width:1px;stroke-linecap:butt;stroke-linejoin:miter;stroke-opacity:1" d="M 465.817,284.439 458.841,298.391 z" id="boundary" inkscape:connector-curvature="0" />
	<path style="fill:none;stroke:red;stroke-width:1px;stroke-linecap:butt;stroke-linejoin:miter;stroke-opacity:1" d="M 458.841,298.391 447.679,310.948 z" id="boundary" inkscape:connector-curvature="0" />
	<path style="fill:none;stroke:red;stroke-width:1px;stroke-linecap:butt;stroke-linejoin:miter;stroke-opacity:1" d="M 447.679,310.948 435.122,319.319 z" id="boundary" inkscape:connector-curvature="0" />
	<path style="fill:none;stroke:red;stroke-width:1px;stroke-linecap:butt;stroke-linejoin:miter;stroke-opacity:1" d="M 435.122,319.319 422.565,326.295 z" id="boundary" inkscape:connector-curvature="0" />
	<path style="fill:none;stroke:red;stroke-width:1px;stroke-linecap:butt;stroke-linejoin:miter;stroke-opacity:1" d="M 422.565,326.295 408.613,329.086 z" id="boundary" inkscape:connector-curvature="0" />
	<path style="fill:none;stroke:red;stroke-width:1px;stroke-linecap:butt;stroke-linejoin:miter;stroke-opacity:1" d="M 408.613,329.086 394.661,333.271 z" id="boundary" inkscape:connector-curvature="0" />
	<path style="fill:none;stroke:red;stroke-width:1px;stroke-linecap:butt;stroke-linejoin:miter;stroke-opacity:1" d="M 394.661,333.271 380.709,329.086 z" id="boundary" inkscape:connector-curvature="0" />
	<path style="fill:none;stroke:red;stroke-width:1px;stroke-linecap:butt;stroke-linejoin:miter;stroke-opacity:1" d="M 380.709,329.086 380.709,315.134 z" id="boundary" inkscape:connector-curvature="0" />
	<path style="fill:none;stroke:red;stroke-width:1px;stroke-linecap:butt;stroke-linejoin:miter;stroke-opacity:1" d="M 380.709,315.134 391.871,303.972 z" id="boundary" inkscape:connector-curvature="0" />
	<path style="fill:none;stroke:red;stroke-width:1px;stroke-linecap:butt;stroke-linejoin:miter;stroke-opacity:1" d="M 391.871,303.972 403.032,292.81 z" id="boundary" inkscape:connector-curvature="0" />
	<path style="fill:none;stroke:red;stroke-width:1px;stroke-linecap:butt;stroke-linejoin:miter;stroke-opacity:1" d="M 403.032,292.81 416.985,285.834 z" id="boundary" inkscape:connector-curvature="0" />
	<path style="fill:none;stroke:red;stroke-width:1px;stroke-linecap:butt;stroke-linejoin:miter;stroke-opacity:1" d="M 416.985,285.834 429.541,266.301 z" id="boundary" inkscape:connector-curvature="0" />
	<path style="fill:none;stroke:red;stroke-width:1px;stroke-linecap:butt;stroke-linejoin:miter;stroke-opacity:1" d="M 429.541,266.301 423.961,252.349 z" id="boundary" inkscape:connector-curvature="0" />
	<path style="fill:none;stroke:red;stroke-width:1px;stroke-linecap:butt;stroke-linejoin:miter;stroke-opacity:1" d="M 423.961,252.349 410.008,249.558 z" id="boundary" inkscape:connector-curvature="0" />
	<path style="fill:none;stroke:red;stroke-width:1px;stroke-linecap:butt;stroke-linejoin:miter;stroke-opacity:1" d="M 410.008,249.558 396.056,256.534 z" id="boundary" inkscape:connector-curvature="0" />
	<path style="fill:none;stroke:red;stroke-width:1px;stroke-linecap:butt;stroke-linejoin:miter;stroke-opacity:1" d="M 396.056,256.534 383.499,263.511 z" id="boundary" inkscape:connector-curvature="0" />
	<path style="fill:none;stroke:red;stroke-width:1px;stroke-linecap:butt;stroke-linejoin:miter;stroke-opacity:1" d="M 383.499,263.511 370.942,270.487 z" id="boundary" inkscape:connector-curvature="0" />
	<path style="fill:none;stroke:red;stroke-width:1px;stroke-linecap:butt;stroke-linejoin:miter;stroke-opacity:1" d="M 370.942,270.487 358.385,277.463 z" id="boundary" inkscape:connector-curvature="0" />
	<path style="fill:none;stroke:red;stroke-width:1px;stroke-linecap:butt;stroke-linejoin:miter;stroke-opacity:1" d="M 358.385,277.463 345.828,284.439 z" id="boundary" inkscape:connector-curvature="0" />
	<path style="fill:none;stroke:red;stroke-width:1px;stroke-linecap:butt;stroke-linejoin:miter;stroke-opacity:1" d="M 345.828,284.439 333.271,291.415 z" id="boundary" inkscape:connector-curvature="0" />
	<path style="fill:none;stroke:red;stroke-width:1px;stroke-linecap:butt;stroke-linejoin:miter;stroke-opacity:1" d="M 333.271,291.415 333.271,305.367 z" id="boundary" inkscape:connector-curvature="0" />
	<path style="fill:none;stroke:red;stroke-width:1px;stroke-linecap:butt;stroke-linejoin:miter;stroke-opacity:1" d="M 333.271,305.367 336.062,319.319 z" id="boundary" inkscape:connector-curvature="0" />
	<path style="fill:none;stroke:red;stroke-width:1px;stroke-linecap:butt;stroke-linejoin:miter;stroke-opacity:1" d="M 336.062,319.319 343.038,331.876 z" id="boundary" inkscape:connector-curvature="0" />
	<path style="fill:none;stroke:red;stroke-width:1px;stroke-linecap:butt;stroke-linejoin:miter;stroke-opacity:1" d="M 343.038,331.876 347.224,345.828 z" id="boundary" inkscape:connector-curvature="0" />
	<path style="fill:none;stroke:red;stroke-width:1px;stroke-linecap:butt;stroke-linejoin:miter;stroke-opacity:1" d="M 347.224,345.828 361.176,350.014 z" id="boundary" inkscape:connector-curvature="0" />
	<path style="fill:none;stroke:red;stroke-width:1px;stroke-linecap:butt;stroke-linejoin:miter;stroke-opacity:1" d="M 361.176,350.014 372.338,359.781 z" id="boundary" inkscape:connector-curvature="0" />
	<path style="fill:none;stroke:red;stroke-width:1px;stroke-linecap:butt;stroke-linejoin:miter;stroke-opacity:1" d="M 372.338,359.781 386.29,361.176 z" id="boundary" inkscape:connector-curvature="0" />
	<path style="fill:none;stroke:red;stroke-width:1px;stroke-linecap:butt;stroke-linejoin:miter;stroke-opacity:1" d="M 386.29,361.176 396.056,372.338 z" id="boundary" inkscape:connector-curvature="0" />
	<path style="fill:none;stroke:red;stroke-width:1px;stroke-linecap:butt;stroke-linejoin:miter;stroke-opacity:1" d="M 396.056,372.338 393.266,386.29 z" id="boundary" inkscape:connector-curvature="0" />
	<path style="fill:none;stroke:red;stroke-width:1px;stroke-linecap:butt;stroke-linejoin:miter;stroke-opacity:1" d="M 393.266,386.29 379.314,389.08 z" id="boundary" inkscape:connector-curvature="0" />
	<path style="fill:none;stroke:red;stroke-width:1px;stroke-linecap:butt;stroke-linejoin:miter;stroke-opacity:1" d="M 379.314,389.08 365.361,389.08 z" id="boundary" inkscape:connector-curvature="0" />
	<path style="fill:none;stroke:red;stroke-width:1px;stroke-linecap:butt;stroke-linejoin:miter;stroke-opacity:1" d="M 365.361,389.08 351.409,389.08 z" id="boundary" inkscape:connector-curvature="0" />
	<path style="fill:none;stroke:red;stroke-width:1px;stroke-linecap:butt;stroke-linejoin:miter;stroke-opacity:1" d="M 351.409,389.08 340.248,379.314 z" id="boundary" inkscape:connector-curvature="0" />
	<path style="fill:none;stroke:red;stroke-width:1px;stroke-linecap:butt;stroke-linejoin:miter;stroke-opacity:1" d="M 340.248,379.314 330.481,368.152 z" id="boundary" inkscape:connector-curvature="0" />
	<path style="fill:none;stroke:red;stroke-width:1px;stroke-linecap:butt;stroke-linejoin:miter;stroke-opacity:1" d="M 330.481,368.152 319.319,358.385 z" id="boundary" inkscape:connector-curvature="0" />
	<path style="fill:none;stroke:red;stroke-width:1px;stroke-linecap:butt;stroke-linejoin:miter;stroke-opacity:1" d="M 319.319,358.385 310.948,347.224 z" id="boundary" inkscape:connector-curvature="0" />
	<path style="fill:none;stroke:red;stroke-width:1px;stroke-linecap:butt;stroke-linejoin:miter;stroke-opacity:1" d="M 310.948,347.224 299.786,337.457 z" id="boundary" inkscape:connector-curvature="0" />
	<path style="fill:none;stroke:red;stroke-width:1px;stroke-linecap:butt;stroke-linejoin:miter;stroke-opacity:1" d="M 299.786,337.457 285.834,333.271 z" id="boundary" inkscape:connector-curvature="0" />
	<path style="fill:none;stroke:red;stroke-width:1px;stroke-linecap:butt;stroke-linejoin:miter;stroke-opacity:1" d="M 285.834,333.271 273.277,326.295 z" id="boundary" inkscape:connector-curvature="0" />
	<path style="fill:none;stroke:red;stroke-width:1px;stroke-linecap:butt;stroke-linejoin:miter;stroke-opacity:1" d="M 273.277,326.295 267.696,312.343 z" id="boundary" inkscape:connector-curvature="0" />
	<path style="fill:none;stroke:red;stroke-width:1px;stroke-linecap:butt;stroke-linejoin:miter;stroke-opacity:1" d="M 267.696,312.343 255.139,305.367 z" id="boundary" inkscape:connector-curvature="0" />
	<path style="fill:none;stroke:red;stroke-width:1px;stroke-linecap:butt;stroke-linejoin:miter;stroke-opacity:1" d="M 255.139,305.367 242.582,312.343 z" id="boundary" inkscape:connector-curvature="0" />
	<path style="fill:none;stroke:red;stroke-width:1px;stroke-linecap:butt;stroke-linejoin:miter;stroke-opacity:1" d="M 242.582,312.343 242.582,326.295 z" id="boundary" inkscape:connector-curvature="0" />
	<path style="fill:none;stroke:red;stroke-width:1px;stroke-linecap:butt;stroke-linejoin:miter;stroke-opacity:1" d="M 242.582,326.295 249.558,338.852 z" id="boundary" inkscape:connector-curvature="0" />
	<path style="fill:none;stroke:red;stroke-width:1px;stroke-linecap:butt;stroke-linejoin:miter;stroke-opacity:1" d="M 249.558,338.852 256.534,351.409 z" id="boundary" inkscape:connector-curvature="0" />
	<path style="fill:none;stroke:red;stroke-width:1px;stroke-linecap:butt;stroke-linejoin:miter;stroke-opacity:1" d="M 256.534,351.409 270.487,356.99 z" id="boundary" inkscape:connector-curvature="0" />
	<path style="fill:none;stroke:red;stroke-width:1px;stroke-linecap:butt;stroke-linejoin:miter;stroke-opacity:1" d="M 270.487,356.99 284.439,359.781 z" id="boundary" inkscape:connector-curvature="0" />
	<path style="fill:none;stroke:red;stroke-width:1px;stroke-linecap:butt;stroke-linejoin:miter;stroke-opacity:1" d="M 284.439,359.781 298.391,363.966 z" id="boundary" inkscape:connector-curvature="0" />
	<path style="fill:none;stroke:red;stroke-width:1px;stroke-linecap:butt;stroke-linejoin:miter;stroke-opacity:1" d="M 298.391,363.966 303.972,377.918 z" id="boundary" inkscape:connector-curvature="0" />
	<path style="fill:none;stroke:red;stroke-width:1px;stroke-linecap:butt;stroke-linejoin:miter;stroke-opacity:1" d="M 303.972,377.918 294.205,389.08 z" id="boundary" inkscape:connector-curvature="0" />
	<path style="fill:none;stroke:red;stroke-width:1px;stroke-linecap:butt;stroke-linejoin:miter;stroke-opacity:1" d="M 294.205,389.08 280.253,389.08 z" id="boundary" inkscape:connector-curvature="0" />
	<path style="fill:none;stroke:red;stroke-width:1px;stroke-linecap:butt;stroke-linejoin:miter;stroke-opacity:1" d="M 280.253,389.08 266.301,389.08 z" id="boundary" inkscape:connector-curvature="0" />
	<path style="fill:none;stroke:red;stroke-width:1px;stroke-linecap:butt;stroke-linejoin:miter;stroke-opacity:1" d="M 266.301,389.08 253.744,382.104 z" id="boundary" inkscape:connector-curvature="0" />
	<path style="fill:none;stroke:red;stroke-width:1px;stroke-linecap:butt;stroke-linejoin:miter;stroke-opacity:1" d="M 253.744,382.104 241.187,375.128 z" id="boundary" inkscape:connector-curvature="0" />
	<path style="fill:none;stroke:red;stroke-width:1px;stroke-linecap:butt;stroke-linejoin:miter;stroke-opacity:1" d="M 241.187,375.128 227.235,370.942 z" id="boundary" inkscape:connector-curvature="0" />
	<path style="fill:none;stroke:red;stroke-width:1px;stroke-linecap:butt;stroke-linejoin:miter;stroke-opacity:1" d="M 227.235,370.942 221.654,356.99 z" id="boundary" inkscape:connector-curvature="0" />
	<path style="fill:none;stroke:red;stroke-width:1px;stroke-linecap:butt;stroke-linejoin:miter;stroke-opacity:1" d="M 221.654,356.99 210.492,347.224 z" id="boundary" inkscape:connector-curvature="0" />
	<path style="fill:none;stroke:red;stroke-width:1px;stroke-linecap:butt;stroke-linejoin:miter;stroke-opacity:1" d="M 210.492,347.224 206.307,333.271 z" id="boundary" inkscape:connector-curvature="0" />
	<path style="fill:none;stroke:red;stroke-width:1px;stroke-linecap:butt;stroke-linejoin:miter;stroke-opacity:1" d="M 206.307,333.271 206.307,319.319 z" id="boundary" inkscape:connector-curvature="0" />
	<path style="fill:none;stroke:red;stroke-width:1px;stroke-linecap:butt;stroke-linejoin:miter;stroke-opacity:1" d="M 206.307,319.319 199.331,306.762 z" id="boundary" inkscape:connector-curvature="0" />
	<path style="fill:none;stroke:red;stroke-width:1px;stroke-linecap:butt;stroke-linejoin:miter;stroke-opacity:1" d="M 199.331,306.762 192.354,294.205 z" id="boundary" inkscape:connector-curvature="0" />
	<path style="fill:none;stroke:red;stroke-width:1px;stroke-linecap:butt;stroke-linejoin:miter;stroke-opacity:1" d="M 192.354,294.205 192.354,280.253 z" id="boundary" inkscape:connector-curvature="0" />
	<path style="fill:none;stroke:red;stroke-width:1px;stroke-linecap:butt;stroke-linejoin:miter;stroke-opacity:1" d="M 192.354,280.253 192.354,266.301 z" id="boundary" inkscape:connector-curvature="0" />
	<path style="fill:none;stroke:red;stroke-width:1px;stroke-linecap:butt;stroke-linejoin:miter;stroke-opacity:1" d="M 192.354,266.301 186.774,252.349 z" id="boundary" inkscape:connector-curvature="0" />
	<path style="fill:none;stroke:red;stroke-width:1px;stroke-linecap:butt;stroke-linejoin:miter;stroke-opacity:1" d="M 186.774,252.349 175.612,242.582 z" id="boundary" inkscape:connector-curvature="0" />
	<path style="fill:none;stroke:red;stroke-width:1px;stroke-linecap:butt;stroke-linejoin:miter;stroke-opacity:1" d="M 175.612,242.582 163.055,235.606 z" id="boundary" inkscape:connector-curvature="0" />
	<path style="fill:none;stroke:red;stroke-width:1px;stroke-linecap:butt;stroke-linejoin:miter;stroke-opacity:1" d="M 163.055,235.606 151.893,225.84 z" id="boundary" inkscape:connector-curvature="0" />
	<path style="fill:none;stroke:red;stroke-width:1px;stroke-linecap:butt;stroke-linejoin:miter;stroke-opacity:1" d="M 151.893,225.84 142.127,214.678 z" id="boundary" inkscape:connector-curvature="0" />
	<path style="fill:none;stroke:red;stroke-width:1px;stroke-linecap:butt;stroke-linejoin:miter;stroke-opacity:1" d="M 142.127,214.678 130.965,204.911 z" id="boundary" inkscape:connector-curvature="0" />
	<path style="fill:none;stroke:red;stroke-width:1px;stroke-linecap:butt;stroke-linejoin:miter;stroke-opacity:1" d="M 130.965,204.911 121.198,193.75 z" id="boundary" inkscape:connector-curvature="0" />
	<path style="fill:none;stroke:red;stroke-width:1px;stroke-linecap:butt;stroke-linejoin:miter;stroke-opacity:1" d="M 121.198,193.75 108.641,186.774 z" id="boundary" inkscape:connector-curvature="0" />
	<path style="fill:none;stroke:red;stroke-width:1px;stroke-linecap:butt;stroke-linejoin:miter;stroke-opacity:1" d="M 108.641,186.774 96.0844,179.797 z" id="boundary" inkscape:connector-curvature="0" />
	<path style="fill:none;stroke:red;stroke-width:1px;stroke-linecap:butt;stroke-linejoin:miter;stroke-opacity:1" d="M 96.0844,179.797 83.5274,172.821 z" id="boundary" inkscape:connector-curvature="0" />
	<path style="fill:none;stroke:red;stroke-width:1px;stroke-linecap:butt;stroke-linejoin:miter;stroke-opacity:1" d="M 83.5274,172.821 70.9705,165.845 z" id="boundary" inkscape:connector-curvature="0" />
	<path style="fill:none;stroke:red;stroke-width:1px;stroke-linecap:butt;stroke-linejoin:miter;stroke-opacity:1" d="M 70.9705,165.845 57.0183,165.845 z" id="boundary" inkscape:connector-curvature="0" />
	<path style="fill:none;stroke:red;stroke-width:1px;stroke-linecap:butt;stroke-linejoin:miter;stroke-opacity:1" d="M 57.0183,165.845 43.0661,165.845 z" id="boundary" inkscape:connector-curvature="0" />
	<path style="fill:none;stroke:red;stroke-width:1px;stroke-linecap:butt;stroke-linejoin:miter;stroke-opacity:1" d="M 43.0661,165.845 30.5091,158.869 z" id="boundary" inkscape:connector-curvature="0" />
	<path style="fill:none;stroke:red;stroke-width:1px;stroke-linecap:butt;stroke-linejoin:miter;stroke-opacity:1" d="M 30.5091,158.869 17.9522,151.893 z" id="boundary" inkscape:connector-curvature="0" />
	<path style="fill:none;stroke:red;stroke-width:1px;stroke-linecap:butt;stroke-linejoin:miter;stroke-opacity:1" d="M 17.9522,151.893 10.9761,139.336 z" id="boundary" inkscape:connector-curvature="0" />
	<path style="fill:none;stroke:red;stroke-width:1px;stroke-linecap:butt;stroke-linejoin:miter;stroke-opacity:1" d="M 10.9761,139.336 4,126.779 z" id="boundary" inkscape:connector-curvature="0" />
	<path style="fill:none;stroke:red;stroke-width:1px;stroke-linecap:butt;stroke-linejoin:miter;stroke-opacity:1" d="M 4,126.779 4,112.827 z" id="boundary" inkscape:connector-curvature="0" />
	<path style="fill:none;stroke:red;stroke-width:1px;stroke-linecap:butt;stroke-linejoin:miter;stroke-opacity:1" d="M 4,112.827 17.9522,105.851 z" id="boundary" inkscape:connector-curvature="0" />
	<path style="fill:none;stroke:red;stroke-width:1px;stroke-linecap:butt;stroke-linejoin:miter;stroke-opacity:1" d="M 17.9522,105.851 29.1139,94.6892 z" id="boundary" inkscape:connector-curvature="0" />
	<path style="fill:none;stroke:red;stroke-width:1px;stroke-linecap:butt;stroke-linejoin:miter;stroke-opacity:1" d="M 29.1139,94.6892 38.8805,77.9466 z" id="boundary" inkscape:connector-curvature="0" />
	<path style="fill:none;stroke:red;stroke-width:1px;stroke-linecap:butt;stroke-linejoin:miter;stroke-opacity:1" d="M 38.8805,77.9466 50.0422,66.7848 z" id="boundary" inkscape:connector-curvature="0" />
	<path style="fill:none;stroke:red;stroke-width:1px;stroke-linecap:butt;stroke-linejoin:miter;stroke-opacity:1" d="M 50.0422,66.7848 61.2039,55.6231 z" id="boundary" inkscape:connector-curvature="0" />
	<path style="fill:none;stroke:red;stroke-width:1px;stroke-linecap:butt;stroke-linejoin:miter;stroke-opacity:1" d="M 61.2039,55.6231 72.3657,45.8565 z" id="boundary" inkscape:connector-curvature="0" />
	<path style="fill:none;stroke:red;stroke-width:1px;stroke-linecap:butt;stroke-linejoin:miter;stroke-opacity:1" d="M 72.3657,45.8565 86.3179,45.8565 z" id="boundary" inkscape:connector-curvature="0" />
	<path style="fill:none;stroke:red;stroke-width:1px;stroke-linecap:butt;stroke-linejoin:miter;stroke-opacity:1" d="M 86.3179,45.8565 87.7131,22.1378 z" id="boundary" inkscape:connector-curvature="0" />
	<path style="fill:none;stroke:red;stroke-width:1px;stroke-linecap:butt;stroke-linejoin:miter;stroke-opacity:1" d="M 87.7131,22.1378 87.7131,8.18565 z" id="boundary" inkscape:connector-curvature="0" />
	<path style="fill:none;stroke:red;stroke-width:1px;stroke-linecap:butt;stroke-linejoin:miter;stroke-opacity:1" d="M 87.7131,8.18565 101.665,4 z" id="boundary" inkscape:connector-curvature="0" />
	<path style="fill:none;stroke:red;stroke-width:1px;stroke-linecap:butt;stroke-linejoin:miter;stroke-opacity:1" d="M 101.665,4 112.827,12.3713 z" id="boundary" inkscape:connector-curvature="0" />
	<path style="fill:none;stroke:red;stroke-width:1px;stroke-linecap:butt;stroke-linejoin:miter;stroke-opacity:1" d="M 112.827,12.3713 123.989,22.1378 z" id="boundary" inkscape:connector-curvature="0" />
	<path style="fill:none;stroke:red;stroke-width:1px;stroke-linecap:butt;stroke-linejoin:miter;stroke-opacity:1" d="M 123.989,22.1378 130.965,34.6948 z" id="boundary" inkscape:connector-curvature="0" />
	<path style="fill:none;stroke:red;stroke-width:1px;stroke-linecap:butt;stroke-linejoin:miter;stroke-opacity:1" d="M 130.965,34.6948 135.15,48.647 z" id="boundary" inkscape:connector-curvature="0" />
	<path style="fill:none;stroke:red;stroke-width:1px;stroke-linecap:butt;stroke-linejoin:miter;stroke-opacity:1" d="M 135.15,48.647 143.522,59.8087 z" id="boundary" inkscape:connector-curvature="0" />
	<path style="fill:none;stroke:red;stroke-width:1px;stroke-linecap:butt;stroke-linejoin:miter;stroke-opacity:1" d="M 143.522,59.8087 157.474,62.5992 z" id="boundary" inkscape:connector-curvature="0" />
	<path style="fill:none;stroke:red;stroke-width:1px;stroke-linecap:butt;stroke-linejoin:miter;stroke-opacity:1" d="M 157.474,62.5992 165.845,73.7609 z" id="boundary" inkscape:connector-curvature="0" />
	<path style="fill:none;stroke:red;stroke-width:1px;stroke-linecap:butt;stroke-linejoin:miter;stroke-opacity:1" d="M 165.845,73.7609 179.797,77.9466 z" id="boundary" inkscape:connector-curvature="0" />
	<path style="fill:none;stroke:red;stroke-width:1px;stroke-linecap:butt;stroke-linejoin:miter;stroke-opacity:1" d="M 179.797,77.9466 192.354,84.9226 z" id="boundary" inkscape:connector-curvature="0" />
	<path style="fill:none;stroke:red;stroke-width:1px;stroke-linecap:butt;stroke-linejoin:miter;stroke-opacity:1" d="M 192.354,84.9226 203.516,94.6892 z" id="boundary" inkscape:connector-curvature="0" />
	<path style="fill:none;stroke:red;stroke-width:1px;stroke-linecap:butt;stroke-linejoin:miter;stroke-opacity:1" d="M 203.516,94.6892 217.468,94.6892 z" id="boundary" inkscape:connector-curvature="0" />
	<path style="fill:none;stroke:red;stroke-width:1px;stroke-linecap:butt;stroke-linejoin:miter;stroke-opacity:1" d="M 217.468,94.6892 230.025,101.665 z" id="boundary" inkscape:connector-curvature="0" />
	<path style="fill:none;stroke:red;stroke-width:1px;stroke-linecap:butt;stroke-linejoin:miter;stroke-opacity:1" d="M 230.025,101.665 243.977,103.06 z" id="boundary" inkscape:connector-curvature="0" />
	<path style="fill:none;stroke:red;stroke-width:1px;stroke-linecap:butt;stroke-linejoin:miter;stroke-opacity:1" d="M 243.977,103.06 257.93,101.665 z" id="boundary" inkscape:connector-curvature="0" />
	<path style="fill:none;stroke:red;stroke-width:1px;stroke-linecap:butt;stroke-linejoin:miter;stroke-opacity:1" d="M 257.93,101.665 271.882,101.665 z" id="boundary" inkscape:connector-curvature="0" />
	<path style="fill:none;stroke:red;stroke-width:1px;stroke-linecap:butt;stroke-linejoin:miter;stroke-opacity:1" d="M 271.882,101.665 285.834,101.665 z" id="boundary" inkscape:connector-curvature="0" />
	<path style="fill:none;stroke:red;stroke-width:1px;stroke-linecap:butt;stroke-linejoin:miter;stroke-opacity:1" d="M 285.834,101.665 298.391,108.641 z" id="boundary" inkscape:connector-curvature="0" />
	<path style="fill:none;stroke:red;stroke-width:1px;stroke-linecap:butt;stroke-linejoin:miter;stroke-opacity:1" d="M 298.391,108.641 310.948,98.8748 z" id="boundary" inkscape:connector-curvature="0" />
	<path style="fill:none;stroke:red;stroke-width:1px;stroke-linecap:butt;stroke-linejoin:miter;stroke-opacity:1" d="M 310.948,98.8748 324.9,94.6892 z" id="boundary" inkscape:connector-curvature="0" />
	<path style="fill:none;stroke:red;stroke-width:1px;stroke-linecap:butt;stroke-linejoin:miter;stroke-opacity:1" d="M 324.9,94.6892 338.852,91.8987 z" id="boundary" inkscape:connector-curvature="0" />
	<path style="fill:none;stroke:red;stroke-width:1px;stroke-linecap:butt;stroke-linejoin:miter;stroke-opacity:1" d="M 338.852,91.8987 352.805,87.7131 z" id="boundary" inkscape:connector-curvature="0" />
	<path style="fill:none;stroke:red;stroke-width:1px;stroke-linecap:butt;stroke-linejoin:miter;stroke-opacity:1" d="M 352.805,87.7131 365.361,80.737 z" id="boundary" inkscape:connector-curvature="0" />
	<path style="fill:none;stroke:red;stroke-width:1px;stroke-linecap:butt;stroke-linejoin:miter;stroke-opacity:1" d="M 365.361,80.737 377.918,73.7609 z" id="boundary" inkscape:connector-curvature="0" />
	<path style="fill:none;stroke:red;stroke-width:1px;stroke-linecap:butt;stroke-linejoin:miter;stroke-opacity:1" d="M 377.918,73.7609 391.871,66.7848 z" id="boundary" inkscape:connector-curvature="0" />
	<path style="fill:none;stroke:red;stroke-width:1px;stroke-linecap:butt;stroke-linejoin:miter;stroke-opacity:1" d="M 391.871,66.7848 404.428,59.8087 z" id="boundary" inkscape:connector-curvature="0" />
	<path style="fill:none;stroke:red;stroke-width:1px;stroke-linecap:butt;stroke-linejoin:miter;stroke-opacity:1" d="M 404.428,59.8087 416.985,52.8326 z" id="boundary" inkscape:connector-curvature="0" />
	<path style="fill:none;stroke:red;stroke-width:1px;stroke-linecap:butt;stroke-linejoin:miter;stroke-opacity:1" d="M 416.985,52.8326 430.937,52.8326 z" id="boundary" inkscape:connector-curvature="0" />
	<path style="fill:none;stroke:red;stroke-width:1px;stroke-linecap:butt;stroke-linejoin:miter;stroke-opacity:1" d="M 430.937,52.8326 443.494,45.8565 z" id="boundary" inkscape:connector-curvature="0" />
	<path style="fill:none;stroke:red;stroke-width:1px;stroke-linecap:butt;stroke-linejoin:miter;stroke-opacity:1" d="M 443.494,45.8565 456.051,38.8805 z" id="boundary" inkscape:connector-curvature="0" />
	<path style="fill:none;stroke:red;stroke-width:1px;stroke-linecap:butt;stroke-linejoin:miter;stroke-opacity:1" d="M 456.051,38.8805 470.003,38.8805 z" id="boundary" inkscape:connector-curvature="0" />
	<path style="fill:none;stroke:red;stroke-width:1px;stroke-linecap:butt;stroke-linejoin:miter;stroke-opacity:1" d="M 470.003,38.8805 483.955,38.8805 z" id="boundary" inkscape:connector-curvature="0" />
	<path style="fill:none;stroke:red;stroke-width:1px;stroke-linecap:butt;stroke-linejoin:miter;stroke-opacity:1" d="M 483.955,38.8805 496.512,31.9044 z" id="boundary" inkscape:connector-curvature="0" />
	<path style="fill:none;stroke:red;stroke-width:1px;stroke-linecap:butt;stroke-linejoin:miter;stroke-opacity:1" d="M 496.512,31.9044 510.464,24.9283 z" id="boundary" inkscape:connector-curvature="0" />
	<path style="fill:none;stroke:red;stroke-width:1px;stroke-linecap:butt;stroke-linejoin:miter;stroke-opacity:1" d="M 510.464,24.9283 524.416,24.9283 z" id="boundary" inkscape:connector-curvature="0" />
	<path style="fill:none;stroke:red;stroke-width:1px;stroke-linecap:butt;stroke-linejoin:miter;stroke-opacity:1" d="M 524.416,24.9283 536.973,31.9044 z" id="boundary" inkscape:connector-curvature="0" />
	<path style="fill:none;stroke:red;stroke-width:1px;stroke-linecap:butt;stroke-linejoin:miter;stroke-opacity:1" d="M 536.973,31.9044 549.53,38.8805 z" id="boundary" inkscape:connector-curvature="0" />
	<path style="fill:none;stroke:red;stroke-width:1px;stroke-linecap:butt;stroke-linejoin:miter;stroke-opacity:1" d="M 549.53,38.8805 563.482,36.09 z" id="boundary" inkscape:connector-curvature="0" />
	<path style="fill:none;stroke:red;stroke-width:1px;stroke-linecap:butt;stroke-linejoin:miter;stroke-opacity:1" d="M 563.482,36.09 577.435,38.8805 z" id="boundary" inkscape:connector-curvature="0" />
	<path style="fill:none;stroke:red;stroke-width:1px;stroke-linecap:butt;stroke-linejoin:miter;stroke-opacity:1" d="M 577.435,38.8805 589.992,45.8565 z" id="boundary" inkscape:connector-curvature="0" />
	<path style="fill:none;stroke:red;stroke-width:1px;stroke-linecap:butt;stroke-linejoin:miter;stroke-opacity:1" d="M 589.992,45.8565 601.153,54.2278 z" id="boundary" inkscape:connector-curvature="0" />
	<path style="fill:none;stroke:red;stroke-width:1px;stroke-linecap:butt;stroke-linejoin:miter;stroke-opacity:1" d="M 601.153,54.2278 615.105,59.8087 z" id="boundary" inkscape:connector-curvature="0" />
	<path style="fill:none;stroke:red;stroke-width:1px;stroke-linecap:butt;stroke-linejoin:miter;stroke-opacity:1" d="M 615.105,59.8087 624.872,70.9705 z" id="boundary" inkscape:connector-curvature="0" />
	<path style="fill:none;stroke:red;stroke-width:1px;stroke-linecap:butt;stroke-linejoin:miter;stroke-opacity:1" d="M 624.872,70.9705 638.824,76.5513 z" id="boundary" inkscape:connector-curvature="0" />
	<path style="fill:none;stroke:red;stroke-width:1px;stroke-linecap:butt;stroke-linejoin:miter;stroke-opacity:1" d="M 638.824,76.5513 644.405,90.5035 z" id="boundary" inkscape:connector-curvature="0" />
	<path style="fill:none;stroke:red;stroke-width:1px;stroke-linecap:butt;stroke-linejoin:miter;stroke-opacity:1" d="M 644.405,90.5035 654.172,101.665 z" id="boundary" inkscape:connector-curvature="0" />
	<path style="fill:none;stroke:red;stroke-width:1px;stroke-linecap:butt;stroke-linejoin:miter;stroke-opacity:1" d="M 654.172,101.665 666.729,108.641 z" id="boundary" inkscape:connector-curvature="0" />
	<path style="fill:none;stroke:red;stroke-width:1px;stroke-linecap:butt;stroke-linejoin:miter;stroke-opacity:1" d="M 666.729,108.641 675.1,119.803 z" id="boundary" inkscape:connector-curvature="0" />
	<path style="fill:none;stroke:red;stroke-width:1px;stroke-linecap:butt;stroke-linejoin:miter;stroke-opacity:1" d="M 675.1,119.803 684.866,130.965 z" id="boundary" inkscape:connector-curvature="0" />
	<path style="fill:none;stroke:red;stroke-width:1px;stroke-linecap:butt;stroke-linejoin:miter;stroke-opacity:1" d="M 684.866,130.965 696.028,140.731 z" id="boundary" inkscape:connector-curvature="0" />
	<path style="fill:none;stroke:red;stroke-width:1px;stroke-linecap:butt;stroke-linejoin:miter;stroke-opacity:1" d="M 696.028,140.731 708.585,147.707 z" id="boundary" inkscape:connector-curvature="0" />
	<path style="fill:none;stroke:red;stroke-width:1px;stroke-linecap:butt;stroke-linejoin:miter;stroke-opacity:1" d="M 708.585,147.707 719.747,157.474 z" id="boundary" inkscape:connector-curvature="0" />
	<path style="fill:none;stroke:red;stroke-width:1px;stroke-linecap:butt;stroke-linejoin:miter;stroke-opacity:1" d="M 719.747,157.474 732.304,164.45 z" id="boundary" inkscape:connector-curvature="0" />
	<path style="fill:none;stroke:red;stroke-width:1px;stroke-linecap:butt;stroke-linejoin:miter;stroke-opacity:1" d="M 732.304,164.45 744.861,171.426 z" id="boundary" inkscape:connector-curvature="0" />
	<path style="fill:none;stroke:red;stroke-width:1px;stroke-linecap:butt;stroke-linejoin:miter;stroke-opacity:1" d="M 744.861,171.426 757.418,178.402 z" id="boundary" inkscape:connector-curvature="0" />
	<path style="fill:none;stroke:red;stroke-width:1px;stroke-linecap:butt;stroke-linejoin:miter;stroke-opacity:1" d="M 757.418,178.402 769.975,171.426 z" id="boundary" inkscape:connector-curvature="0" />
	<path style="fill:none;stroke:red;stroke-width:1px;stroke-linecap:butt;stroke-linejoin:miter;stroke-opacity:1" d="M 769.975,171.426 783.927,171.426 z" id="boundary" inkscape:connector-curvature="0" />
	<path style="fill:none;stroke:red;stroke-width:1px;stroke-linecap:butt;stroke-linejoin:miter;stroke-opacity:1" d="M 783.927,171.426 797.879,172.821 z" id="boundary" inkscape:connector-curvature="0" />
	<path style="fill:none;stroke:red;stroke-width:1px;stroke-linecap:butt;stroke-linejoin:miter;stroke-opacity:1" d="M 797.879,172.821 811.831,171.426 z" id="boundary" inkscape:connector-curvature="0" />
	<path style="fill:none;stroke:red;stroke-width:1px;stroke-linecap:butt;stroke-linejoin:miter;stroke-opacity:1" d="M 811.831,171.426 824.388,164.45 z" id="boundary" inkscape:connector-curvature="0" />
	<path style="fill:none;stroke:red;stroke-width:1px;stroke-linecap:butt;stroke-linejoin:miter;stroke-opacity:1" d="M 824.388,164.45 836.945,157.474 z" id="boundary" inkscape:connector-curvature="0" />
	<path style="fill:none;stroke:red;stroke-width:1px;stroke-linecap:butt;stroke-linejoin:miter;stroke-opacity:1" d="M 836.945,157.474 849.502,150.498 z" id="boundary" inkscape:connector-curvature="0" />
	<path style="fill:none;stroke:red;stroke-width:1px;stroke-linecap:butt;stroke-linejoin:miter;stroke-opacity:1" d="M 849.502,150.498 862.059,140.731 z" id="boundary" inkscape:connector-curvature="0" />
	<path style="fill:none;stroke:red;stroke-width:1px;stroke-linecap:butt;stroke-linejoin:miter;stroke-opacity:1" d="M 862.059,140.731 876.011,136.546 z" id="boundary" inkscape:connector-curvature="0" />
	<path style="fill:none;stroke:red;stroke-width:1px;stroke-linecap:butt;stroke-linejoin:miter;stroke-opacity:1" d="M 876.011,136.546 888.568,129.57 z" id="boundary" inkscape:connector-curvature="0" />
	<path style="fill:none;stroke:red;stroke-width:1px;stroke-linecap:butt;stroke-linejoin:miter;stroke-opacity:1" d="M 888.568,129.57 902.52,129.57 z" id="boundary" inkscape:connector-curvature="0" />
	<path style="fill:none;stroke:red;stroke-width:1px;stroke-linecap:butt;stroke-linejoin:miter;stroke-opacity:1" d="M 902.52,129.57 916.473,129.57 z" id="boundary" inkscape:connector-curvature="0" />
	<path style="fill:none;stroke:red;stroke-width:1px;stroke-linecap:butt;stroke-linejoin:miter;stroke-opacity:1" d="M 916.473,129.57 930.425,129.57 z" id="boundary" inkscape:connector-curvature="0" />
	<path style="fill:none;stroke:red;stroke-width:1px;stroke-linecap:butt;stroke-linejoin:miter;stroke-opacity:1" d="M 930.425,129.57 942.982,136.546 z" id="boundary" inkscape:connector-curvature="0" />
	<path style="fill:none;stroke:red;stroke-width:1px;stroke-linecap:butt;stroke-linejoin:miter;stroke-opacity:1" d="M 942.982,136.546 955.539,143.522 z" id="boundary" inkscape:connector-curvature="0" />
	<path style="fill:none;stroke:red;stroke-width:1px;stroke-linecap:butt;stroke-linejoin:miter;stroke-opacity:1" d="M 955.539,143.522 968.096,150.498 z" id="boundary" inkscape:connector-curvature="0" />
	<path style="fill:none;stroke:red;stroke-width:1px;stroke-linecap:butt;stroke-linejoin:miter;stroke-opacity:1" d="M 968.096,150.498 979.257,158.869 z" id="boundary" inkscape:connector-curvature="0" />
	<path style="fill:none;stroke:red;stroke-width:1px;stroke-linecap:butt;stroke-linejoin:miter;stroke-opacity:1" d="M 979.257,158.869 989.024,170.031 z" id="boundary" inkscape:connector-curvature="0" />
	<path style="fill:none;stroke:red;stroke-width:1px;stroke-linecap:butt;stroke-linejoin:miter;stroke-opacity:1" d="M 989.024,170.031 996,182.588 z" id="boundary" inkscape:connector-curvature="0" />
	<circle cx="4" cy="112.827" r="4" fill="#0" id="circle0"/>
	<circle cx="4" cy="126.779" r="4" fill="#0" id="circle1"/>
	<circle cx="10.9761" cy="139.336" r="4" fill="#0" id="circle2"/>
	<circle cx="17.9522" cy="105.851" r="4" fill="#0" id="circle3"/>
	<circle cx="17.9522" cy="151.893" r="4" fill="#0" id="circle4"/>
	<circle cx="29.1139" cy="94.6892" r="4" fill="#0" id="circle5"/>
	<circle cx="30.5091" cy="158.869" r="4" fill="#0" id="circle6"/>
	<circle cx="38.8805" cy="77.9466" r="4" fill="#0" id="circle7"/>
	<circle cx="43.0661" cy="165.845" r="4" fill="#0" id="circle8"/>
	<circle cx="50.0422" cy="66.7848" r="4" fill="#0" id="circle9"/>
	<circle cx="57.0183" cy="165.845" r="4" fill="#0" id="circle10"/>
	<circle cx="61.2039" cy="55.6231" r="4" fill="#0" id="circle11"/>
	<circle cx="70.9705" cy="165.845" r="4" fill="#0" id="circle12"/>
	<circle cx="72.3657" cy="45.8565" r="4" fill="#0" id="circle13"/>
	<circle cx="83.5274" cy="172.821" r="4" fill="#0" id="circle14"/>
	<circle cx="86.3179" cy="45.8565" r="4" fill="#0" id="circle15"/>
	<circle cx="87.7131" cy="8.18565" r="4" fill="#0" id="circle16"/>
	<circle cx="87.7131" cy="22.1378" r="4" fill="#0" id="circle17"/>
	<circle cx="96.0844" cy="179.797" r="4" fill="#0" id="circle18"/>
	<circle cx="101.665" cy="4" r="4" fill="#0" id="circle19"/>
	<circle cx="108.641" cy="186.774" r="4" fill="#0" id="circle20"/>
	<circle cx="112.827" cy="12.3713" r="4" fill="#0" id="circle21"/>
	<circle cx="121.198" cy="193.75" r="4" fill="#0" id="circle22"/>
	<circle cx="123.989" cy="22.1378" r="4" fill="#0" id="circle23"/>
	<circle cx="130.965" cy="34.6948" r="4" fill="#0" id="circle24"/>
	<circle cx="130.965" cy="204.911" r="4" fill="#0" id="circle25"/>
	<circle cx="135.15" cy="48.647" r="4" fill="#0" id="circle26"/>
	<circle cx="142.127" cy="214.678" r="4" fill="#0" id="circle27"/>
	<circle cx="143.522" cy="59.8087" r="4" fill="#0" id="circle28"/>
	<circle cx="151.893" cy="225.84" r="4" fill="#0" id="circle29"/>
	<circle cx="157.474" cy="62.5992" r="4" fill="#0" id="circle30"/>
	<circle cx="163.055" cy="235.606" r="4" fill="#0" id="circle31"/>
	<circle cx="165.845" cy="73.7609" r="4" fill="#0" id="circle32"/>
	<circle cx="175.612" cy="242.582" r="4" fill="#0" id="circle33"/>
	<circle cx="179.797" cy="77.9466" r="4" fill="#0" id="circle34"/>
	<circle cx="186.774" cy="252.349" r="4" fill="#0" id="circle35"/>
	<circle cx="192.354" cy="84.9226" r="4" fill="#0" id="circle36"/>
	<circle cx="192.354" cy="266.301" r="4" fill="#0" id="circle37"/>
	<circle cx="192.354" cy="280.253" r="4" fill="#0" id="circle38"/>
	<circle cx="192.354" cy="294.205" r="4" fill="#0" id="circle39"/>
	<circle cx="199.331" cy="306.762" r="4" fill="#0" id="circle40"/>
	<circle cx="203.516" cy="94.6892" r="4" fill="#0" id="circle41"/>
	<circle cx="206.307" cy="319.319" r="4" fill="#0" id="circle42"/>
	<circle cx="206.307" cy="333.271" r="4" fill="#0" id="circle43"/>
	<circle cx="210.492" cy="347.224" r="4" fill="#0" id="circle44"/>
	<circle cx="217.468" cy="94.6892" r="4" fill="#0" id="circle45"/>
	<circle cx="221.654" cy="356.99" r="4" fill="#0" id="circle46"/>
	<circle cx="227.235" cy="370.942" r="4" fill="#0" id="circle47"/>
	<circle cx="230.025" cy="101.665" r="4" fill="#0" id="circle48"/>
	<circle cx="241.187" cy="375.128" r="4" fill="#0" id="circle49"/>
	<circle cx="242.582" cy="312.343" r="4" fill="#0" id="circle50"/>
	<circle cx="242.582" cy="326.295" r="4" fill="#0" id="circle51"/>
	<circle cx="243.977" cy="103.06" r="4" fill="#0" id="circle52"/>
	<circle cx="249.558" cy="338.852" r="4" fill="#0" id="circle53"/>
	<circle cx="253.744" cy="382.104" r="4" fill="#0" id="circle54"/>
	<circle cx="255.139" cy="305.367" r="4" fill="#0" id="circle55"/>
	<circle cx="256.534" cy="351.409" r="4" fill="#0" id="circle56"/>
	<circle cx="257.93" cy="101.665" r="4" fill="#0" id="circle57"/>
	<circle cx="266.301" cy="389.08" r="4" fill="#0" id="circle58"/>
	<circle cx="267.696" cy="312.343" r="4" fill="#0" id="circle59"/>
	<circle cx="270.487" cy="356.99" r="4" fill="#0" id="circle60"/>
	<circle cx="271.882" cy="101.665" r="4" fill="#0" id="circle61"/>
	<circle cx="273.277" cy="326.295" r="4" fill="#0" id="circle62"/>
	<circle cx="280.253" cy="389.08" r="4" fill="#0" id="circle63"/>
	<circle cx="284.439" cy="359.781" r="4" fill="#0" id="circle64"/>
	<circle cx="285.834" cy="101.665" r="4" fill="#0" id="circle65"/>
	<circle cx="285.834" cy="333.271" r="4" fill="#0" id="circle66"/>
	<circle cx="294.205" cy="389.08" r="4" fill="#0" id="circle67"/>
	<circle cx="298.391" cy="108.641" r="4" fill="#0" id="circle68"/>
	<circle cx="298.391" cy="363.966" r="4" fill="#0" id="circle69"/>
	<circle cx="299.786" cy="337.457" r="4" fill="#0" id="circle70"/>
	<circle cx="303.972" cy="377.918" r="4" fill="#0" id="circle71"/>
	<circle cx="310.948" cy="98.8748" r="4" fill="#0" id="circle72"/>
	<circle cx="310.948" cy="347.224" r="4" fill="#0" id="circle73"/>
	<circle cx="319.319" cy="358.385" r="4" fill="#0" id="circle74"/>
	<circle cx="324.9" cy="94.6892" r="4" fill="#0" id="circle75"/>
	<circle cx="330.481" cy="368.152" r="4" fill="#0" id="circle76"/>
	<circle cx="333.271" cy="291.415" r="4" fill="#0" id="circle77"/>
	<circle cx="333.271" cy="305.367" r="4" fill="#0" id="circle78"/>
	<circle cx="336.062" cy="319.319" r="4" fill="#0" id="circle79"/>
	<circle cx="338.852" cy="91.8987" r="4" fill="#0" id="circle80"/>
	<circle cx="340.248" cy="379.314" r="4" fill="#0" id="circle81"/>
	<circle cx="343.038" cy="331.876" r="4" fill="#0" id="circle82"/>
	<circle cx="345.828" cy="284.439" r="4" fill="#0" id="circle83"/>
	<circle cx="347.224" cy="345.828" r="4" fill="#0" id="circle84"/>
	<circle cx="351.409" cy="389.08" r="4" fill="#0" id="circle85"/>
	<circle cx="352.805" cy="87.7131" r="4" fill="#0" id="circle86"/>
	<circle cx="358.385" cy="277.463" r="4" fill="#0" id="circle87"/>
	<circle cx="361.176" cy="350.014" r="4" fill="#0" id="circle88"/>
	<circle cx="365.361" cy="80.737" r="4" fill="#0" id="circle89"/>
	<circle cx="365.361" cy="389.08" r="4" fill="#0" id="circle90"/>
	<circle cx="370.942" cy="270.487" r="4" fill="#0" id="circle91"/>
	<circle cx="372.338" cy="359.781" r="4" fill="#0" id="circle92"/>
	<circle cx="377.918" cy="73.7609" r="4" fill="#0" id="circle93"/>
	<circle cx="379.314" cy="389.08" r="4" fill="#0" id="circle94"/>
	<circle cx="380.709" cy="315.134" r="4" fill="#0" id="circle95"/>
	<circle cx="380.709" cy="329.086" r="4" fill="#0" id="circle96"/>
	<circle cx="383.499" cy="263.511" r="4" fill="#0" id="circle97"/>
	<circle cx="386.29" cy="361.176" r="4" fill="#0" id="circle98"/>
	<circle cx="391.871" cy="66.7848" r="4" fill="#0" id="circle99"/>
	<circle cx="391.871" cy="303.972" r="4" fill="#0" id="circle100"/>
	<circle cx="393.266" cy="386.29" r="4" fill="#0" id="circle101"/>
	<circle cx="394.661" cy="333.271" r="4" fill="#0" id="circle102"/>
	<circle cx="396.056" cy="256.534" r="4" fill="#0" id="circle103"/>
	<circle cx="396.056" cy="372.338" r="4" fill="#0" id="circle104"/>
	<circle cx="403.032" cy="292.81" r="4" fill="#0" id="circle105"/>
	<circle cx="404.428" cy="59.8087" r="4" fill="#0" id="circle106"/>
	<circle cx="408.613" cy="329.086" r="4" fill="#0" id="circle107"/>
	<circle cx="410.008" cy="249.558" r="4" fill="#0" id="circle108"/>
	<circle cx="416.985" cy="52.8326" r="4" fill="#0" id="circle109"/>
	<circle cx="416.985" cy="285.834" r="4" fill="#0" id="circle110"/>
	<circle cx="422.565" cy="326.295" r="4" fill="#0" id="circle111"/>
	<circle cx="422.565" cy="350.014" r="4" fill="#0" id="circle112"/>
	<circle cx="423.961" cy="252.349" r="4" fill="#0" id="circle113"/>
	<circle cx="429.541" cy="266.301" r="4" fill="#0" id="circle114"/>
	<circle cx="429.541" cy="362.571" r="4" fill="#0" id="circle115"/>
	<circle cx="430.937" cy="52.8326" r="4" fill="#0" id="circle116"/>
	<circle cx="433.727" cy="338.852" r="4" fill="#0" id="circle117"/>
	<circle cx="435.122" cy="319.319" r="4" fill="#0" id="circle118"/>
	<circle cx="436.518" cy="375.128" r="4" fill="#0" id="circle119"/>
	<circle cx="443.494" cy="45.8565" r="4" fill="#0" id="circle120"/>
	<circle cx="447.679" cy="310.948" r="4" fill="#0" id="circle121"/>
	<circle cx="447.679" cy="331.876" r="4" fill="#0" id="circle122"/>
	<circle cx="450.47" cy="375.128" r="4" fill="#0" id="circle123"/>
	<circle cx="456.051" cy="38.8805" r="4" fill="#0" id="circle124"/>
	<circle cx="458.841" cy="298.391" r="4" fill="#0" id="circle125"/>
	<circle cx="461.632" cy="324.9" r="4" fill="#0" id="circle126"/>
	<circle cx="464.422" cy="370.942" r="4" fill="#0" id="circle127"/>
	<circle cx="465.817" cy="270.487" r="4" fill="#0" id="circle128"/>
	<circle cx="465.817" cy="284.439" r="4" fill="#0" id="circle129"/>
	<circle cx="470.003" cy="38.8805" r="4" fill="#0" id="circle130"/>
	<circle cx="472.793" cy="249.558" r="4" fill="#0" id="circle131"/>
	<circle cx="472.793" cy="313.738" r="4" fill="#0" id="circle132"/>
	<circle cx="475.584" cy="361.176" r="4" fill="#0" id="circle133"/>
	<circle cx="479.769" cy="299.786" r="4" fill="#0" id="circle134"/>
	<circle cx="483.955" cy="38.8805" r="4" fill="#0" id="circle135"/>
	<circle cx="485.35" cy="242.582" r="4" fill="#0" id="circle136"/>
	<circle cx="485.35" cy="266.301" r="4" fill="#0" id="circle137"/>
	<circle cx="485.35" cy="280.253" r="4" fill="#0" id="circle138"/>
	<circle cx="488.141" cy="354.2" r="4" fill="#0" id="circle139"/>
	<circle cx="496.512" cy="31.9044" r="4" fill="#0" id="circle140"/>
	<circle cx="500.698" cy="347.224" r="4" fill="#0" id="circle141"/>
	<circle cx="507.674" cy="333.271" r="4" fill="#0" id="circle142"/>
	<circle cx="510.464" cy="24.9283" r="4" fill="#0" id="circle143"/>
	<circle cx="514.65" cy="319.319" r="4" fill="#0" id="circle144"/>
	<circle cx="521.626" cy="305.367" r="4" fill="#0" id="circle145"/>
	<circle cx="524.416" cy="24.9283" r="4" fill="#0" id="circle146"/>
	<circle cx="528.602" cy="291.415" r="4" fill="#0" id="circle147"/>
	<circle cx="535.578" cy="277.463" r="4" fill="#0" id="circle148"/>
	<circle cx="536.973" cy="31.9044" r="4" fill="#0" id="circle149"/>
	<circle cx="542.554" cy="263.511" r="4" fill="#0" id="circle150"/>
	<circle cx="549.53" cy="38.8805" r="4" fill="#0" id="circle151"/>
	<circle cx="556.506" cy="249.558" r="4" fill="#0" id="circle152"/>
	<circle cx="563.482" cy="36.09" r="4" fill="#0" id="circle153"/>
	<circle cx="570.459" cy="242.582" r="4" fill="#0" id="circle154"/>
	<circle cx="577.435" cy="38.8805" r="4" fill="#0" id="circle155"/>
	<circle cx="583.015" cy="235.606" r="4" fill="#0" id="circle156"/>
	<circle cx="589.992" cy="45.8565" r="4" fill="#0" id="circle157"/>
	<circle cx="594.177" cy="227.235" r="4" fill="#0" id="circle158"/>
	<circle cx="601.153" cy="54.2278" r="4" fill="#0" id="circle159"/>
	<circle cx="605.339" cy="214.678" r="4" fill="#0" id="circle160"/>
	<circle cx="615.105" cy="59.8087" r="4" fill="#0" id="circle161"/>
	<circle cx="619.291" cy="207.702" r="4" fill="#0" id="circle162"/>
	<circle cx="624.872" cy="70.9705" r="4" fill="#0" id="circle163"/>
	<circle cx="631.848" cy="200.726" r="4" fill="#0" id="circle164"/>
	<circle cx="638.824" cy="76.5513" r="4" fill="#0" id="circle165"/>
	<circle cx="644.405" cy="90.5035" r="4" fill="#0" id="circle166"/>
	<circle cx="645.8" cy="196.54" r="4" fill="#0" id="circle167"/>
	<circle cx="654.172" cy="101.665" r="4" fill="#0" id="circle168"/>
	<circle cx="656.962" cy="186.774" r="4" fill="#0" id="circle169"/>
	<circle cx="666.729" cy="108.641" r="4" fill="#0" id="circle170"/>
	<circle cx="670.914" cy="186.774" r="4" fill="#0" id="circle171"/>
	<circle cx="675.1" cy="119.803" r="4" fill="#0" id="circle172"/>
	<circle cx="684.866" cy="130.965" r="4" fill="#0" id="circle173"/>
	<circle cx="684.866" cy="192.354" r="4" fill="#0" id="circle174"/>
	<circle cx="696.028" cy="140.731" r="4" fill="#0" id="circle175"/>
	<circle cx="696.028" cy="200.726" r="4" fill="#0" id="circle176"/>
	<circle cx="708.585" cy="147.707" r="4" fill="#0" id="circle177"/>
	<circle cx="708.585" cy="207.702" r="4" fill="#0" id="circle178"/>
	<circle cx="719.747" cy="157.474" r="4" fill="#0" id="circle179"/>
	<circle cx="722.537" cy="207.702" r="4" fill="#0" id="circle180"/>
	<circle cx="732.304" cy="164.45" r="4" fill="#0" id="circle181"/>
	<circle cx="735.094" cy="214.678" r="4" fill="#0" id="circle182"/>
	<circle cx="744.861" cy="171.426" r="4" fill="#0" id="circle183"/>
	<circle cx="747.651" cy="221.654" r="4" fill="#0" id="circle184"/>
	<circle cx="757.418" cy="178.402" r="4" fill="#0" id="circle185"/>
	<circle cx="761.603" cy="221.654" r="4" fill="#0" id="circle186"/>
	<circle cx="769.975" cy="171.426" r="4" fill="#0" id="circle187"/>
	<circle cx="775.556" cy="221.654" r="4" fill="#0" id="circle188"/>
	<circle cx="783.927" cy="171.426" r="4" fill="#0" id="circle189"/>
	<circle cx="789.508" cy="221.654" r="4" fill="#0" id="circle190"/>
	<circle cx="797.879" cy="172.821" r="4" fill="#0" id="circle191"/>
	<circle cx="803.46" cy="220.259" r="4" fill="#0" id="circle192"/>
	<circle cx="811.831" cy="171.426" r="4" fill="#0" id="circle193"/>
	<circle cx="817.412" cy="214.678" r="4" fill="#0" id="circle194"/>
	<circle cx="824.388" cy="164.45" r="4" fill="#0" id="circle195"/>
	<circle cx="829.969" cy="207.702" r="4" fill="#0" id="circle196"/>
	<circle cx="836.945" cy="157.474" r="4" fill="#0" id="circle197"/>
	<circle cx="842.526" cy="200.726" r="4" fill="#0" id="circle198"/>
	<circle cx="849.502" cy="150.498" r="4" fill="#0" id="circle199"/>
	<circle cx="855.083" cy="193.75" r="4" fill="#0" id="circle200"/>
	<circle cx="862.059" cy="140.731" r="4" fill="#0" id="circle201"/>
	<circle cx="867.64" cy="186.774" r="4" fill="#0" id="circle202"/>
	<circle cx="876.011" cy="136.546" r="4" fill="#0" id="circle203"/>
	<circle cx="880.197" cy="179.797" r="4" fill="#0" id="circle204"/>
	<circle cx="888.568" cy="129.57" r="4" fill="#0" id="circle205"/>
	<circle cx="892.754" cy="172.821" r="4" fill="#0" id="circle206"/>
	<circle cx="902.52" cy="129.57" r="4" fill="#0" id="circle207"/>
	<circle cx="906.706" cy="172.821" r="4" fill="#0" id="circle208"/>
	<circle cx="916.473" cy="129.57" r="4" fill="#0" id="circle209"/>
	<circle cx="920.658" cy="177.007" r="4" fill="#0" id="circle210"/>
	<circle cx="930.425" cy="129.57" r="4" fill="#0" id="circle211"/>
	<circle cx="934.61" cy="179.797" r="4" fill="#0" id="circle212"/>
	<circle cx="942.982" cy="136.546" r="4" fill="#0" id="circle213"/>
	<circle cx="947.167" cy="186.774" r="4" fill="#0" id="circle214"/>
	<circle cx="955.539" cy="143.522" r="4" fill="#0" id="circle215"/>
	<circle cx="959.724" cy="193.75" r="4" fill="#0" id="circle216"/>
	<circle cx="968.096" cy="150.498" r="4" fill="#0" id="circle217"/>
	<circle cx="972.281" cy="200.726" r="4" fill="#0" id="circle218"/>
	<circle cx="979.257" cy="158.869" r="4" fill="#0" id="circle219"/>
	<circle cx="984.838" cy="193.75" r="4" fill="#0" id="circle220"/>
	<circle cx="989.024" cy="170.031" r="4" fill="#0" id="circle221"/>
	<circle cx="996" cy="182.588" r="4" fill="#0" id="circle222"/>
	</g>
</svg>