<?xml version="1.0" encoding="UTF-8" standalone="no"?>
<!-- Created with CurveBenchmark -->
<svg
	xmlns:dc="http://purl.org/dc/elements/1.1/"
	xmlns:cc="http://creativecommons.org/ns#"
	xmlns:rdf="http://www.w3.org/1999/02/22-rdf-syntax-ns#"
	xmlns:svg="http://www.w3.org/2000/svg"
	xmlns="http://www.w3.org/2000/svg"
	xmlns:sodipodi="http://sodipodi.sourceforge.net/DTD/sodipodi-0.dtd"
	xmlns:inkscape="http://www.inkscape.org/namespaces/inkscape"
	width="1000"
	height="1000"
	id="svg2"
	version="1.1"
	sodipodi:docname="manifold/connect2d-hand2occ3.png.txt">
<defs
	id="defs4" />
<metadata
	id="metadata7">
	<rdf:RDF>
		<cc:Work
			rdf:about="">
			<dc:format>image/svg+xml</dc:format>
			<dc:type
				rdf:resource="http://purl.org/dc/dcmitype/StillImage" />
			<dc:title></dc:title>
		</cc:Work>
	</rdf:RDF>
</metadata>
<g
	inkscape:label="Layer 1"
	inkscape:groupmode="layer"
	id="layer1">
	<path style="fill:none;stroke:red;stroke-width:1px;stroke-linecap:butt;stroke-linejoin:miter;stroke-opacity:1" d="M 861.946,321.605 857.821,352.541 z" id="boundary" inkscape:connector-curvature="0" />
	<path style="fill:none;stroke:red;stroke-width:1px;stroke-linecap:butt;stroke-linejoin:miter;stroke-opacity:1" d="M 857.821,352.541 841.322,366.977 z" id="boundary" inkscape:connector-curvature="0" />
	<path style="fill:none;stroke:red;stroke-width:1px;stroke-linecap:butt;stroke-linejoin:miter;stroke-opacity:1" d="M 841.322,366.977 841.322,387.601 z" id="boundary" inkscape:connector-curvature="0" />
	<path style="fill:none;stroke:red;stroke-width:1px;stroke-linecap:butt;stroke-linejoin:miter;stroke-opacity:1" d="M 841.322,387.601 841.322,408.225 z" id="boundary" inkscape:connector-curvature="0" />
	<path style="fill:none;stroke:red;stroke-width:1px;stroke-linecap:butt;stroke-linejoin:miter;stroke-opacity:1" d="M 841.322,408.225 841.322,428.848 z" id="boundary" inkscape:connector-curvature="0" />
	<path style="fill:none;stroke:red;stroke-width:1px;stroke-linecap:butt;stroke-linejoin:miter;stroke-opacity:1" d="M 841.322,428.848 841.322,449.472 z" id="boundary" inkscape:connector-curvature="0" />
	<path style="fill:none;stroke:red;stroke-width:1px;stroke-linecap:butt;stroke-linejoin:miter;stroke-opacity:1" d="M 841.322,449.472 837.198,486.595 z" id="boundary" inkscape:connector-curvature="0" />
	<path style="fill:none;stroke:red;stroke-width:1px;stroke-linecap:butt;stroke-linejoin:miter;stroke-opacity:1" d="M 837.198,486.595 820.699,501.031 z" id="boundary" inkscape:connector-curvature="0" />
	<path style="fill:none;stroke:red;stroke-width:1px;stroke-linecap:butt;stroke-linejoin:miter;stroke-opacity:1" d="M 820.699,501.031 820.699,521.655 z" id="boundary" inkscape:connector-curvature="0" />
	<path style="fill:none;stroke:red;stroke-width:1px;stroke-linecap:butt;stroke-linejoin:miter;stroke-opacity:1" d="M 820.699,521.655 820.699,542.279 z" id="boundary" inkscape:connector-curvature="0" />
	<path style="fill:none;stroke:red;stroke-width:1px;stroke-linecap:butt;stroke-linejoin:miter;stroke-opacity:1" d="M 820.699,542.279 810.387,573.214 z" id="boundary" inkscape:connector-curvature="0" />
	<path style="fill:none;stroke:red;stroke-width:1px;stroke-linecap:butt;stroke-linejoin:miter;stroke-opacity:1" d="M 810.387,573.214 810.387,593.838 z" id="boundary" inkscape:connector-curvature="0" />
	<path style="fill:none;stroke:red;stroke-width:1px;stroke-linecap:butt;stroke-linejoin:miter;stroke-opacity:1" d="M 810.387,593.838 810.387,614.462 z" id="boundary" inkscape:connector-curvature="0" />
	<path style="fill:none;stroke:red;stroke-width:1px;stroke-linecap:butt;stroke-linejoin:miter;stroke-opacity:1" d="M 810.387,614.462 800.075,635.085 z" id="boundary" inkscape:connector-curvature="0" />
	<path style="fill:none;stroke:red;stroke-width:1px;stroke-linecap:butt;stroke-linejoin:miter;stroke-opacity:1" d="M 800.075,635.085 800.075,655.709 z" id="boundary" inkscape:connector-curvature="0" />
	<path style="fill:none;stroke:red;stroke-width:1px;stroke-linecap:butt;stroke-linejoin:miter;stroke-opacity:1" d="M 800.075,655.709 789.763,686.644 z" id="boundary" inkscape:connector-curvature="0" />
	<path style="fill:none;stroke:red;stroke-width:1px;stroke-linecap:butt;stroke-linejoin:miter;stroke-opacity:1" d="M 789.763,686.644 779.451,717.58 z" id="boundary" inkscape:connector-curvature="0" />
	<path style="fill:none;stroke:red;stroke-width:1px;stroke-linecap:butt;stroke-linejoin:miter;stroke-opacity:1" d="M 779.451,717.58 769.139,738.204 z" id="boundary" inkscape:connector-curvature="0" />
	<path style="fill:none;stroke:red;stroke-width:1px;stroke-linecap:butt;stroke-linejoin:miter;stroke-opacity:1" d="M 769.139,738.204 758.827,758.827 z" id="boundary" inkscape:connector-curvature="0" />
	<path style="fill:none;stroke:red;stroke-width:1px;stroke-linecap:butt;stroke-linejoin:miter;stroke-opacity:1" d="M 758.827,758.827 748.516,789.763 z" id="boundary" inkscape:connector-curvature="0" />
	<path style="fill:none;stroke:red;stroke-width:1px;stroke-linecap:butt;stroke-linejoin:miter;stroke-opacity:1" d="M 748.516,789.763 748.516,810.387 z" id="boundary" inkscape:connector-curvature="0" />
	<path style="fill:none;stroke:red;stroke-width:1px;stroke-linecap:butt;stroke-linejoin:miter;stroke-opacity:1" d="M 748.516,810.387 744.391,837.198 z" id="boundary" inkscape:connector-curvature="0" />
	<path style="fill:none;stroke:red;stroke-width:1px;stroke-linecap:butt;stroke-linejoin:miter;stroke-opacity:1" d="M 744.391,837.198 727.892,851.634 z" id="boundary" inkscape:connector-curvature="0" />
	<path style="fill:none;stroke:red;stroke-width:1px;stroke-linecap:butt;stroke-linejoin:miter;stroke-opacity:1" d="M 727.892,851.634 723.767,878.445 z" id="boundary" inkscape:connector-curvature="0" />
	<path style="fill:none;stroke:red;stroke-width:1px;stroke-linecap:butt;stroke-linejoin:miter;stroke-opacity:1" d="M 723.767,878.445 713.455,899.069 z" id="boundary" inkscape:connector-curvature="0" />
	<path style="fill:none;stroke:red;stroke-width:1px;stroke-linecap:butt;stroke-linejoin:miter;stroke-opacity:1" d="M 713.455,899.069 696.956,913.505 z" id="boundary" inkscape:connector-curvature="0" />
	<path style="fill:none;stroke:red;stroke-width:1px;stroke-linecap:butt;stroke-linejoin:miter;stroke-opacity:1" d="M 696.956,913.505 676.333,923.817 z" id="boundary" inkscape:connector-curvature="0" />
	<path style="fill:none;stroke:red;stroke-width:1px;stroke-linecap:butt;stroke-linejoin:miter;stroke-opacity:1" d="M 676.333,923.817 666.021,954.753 z" id="boundary" inkscape:connector-curvature="0" />
	<path style="fill:none;stroke:red;stroke-width:1px;stroke-linecap:butt;stroke-linejoin:miter;stroke-opacity:1" d="M 666.021,954.753 659.834,993.938 z" id="boundary" inkscape:connector-curvature="0" />
	<path style="fill:none;stroke:red;stroke-width:1px;stroke-linecap:butt;stroke-linejoin:miter;stroke-opacity:1" d="M 659.834,993.938 639.21,996 z" id="boundary" inkscape:connector-curvature="0" />
	<path style="fill:none;stroke:red;stroke-width:1px;stroke-linecap:butt;stroke-linejoin:miter;stroke-opacity:1" d="M 639.21,996 618.586,996 z" id="boundary" inkscape:connector-curvature="0" />
	<path style="fill:none;stroke:red;stroke-width:1px;stroke-linecap:butt;stroke-linejoin:miter;stroke-opacity:1" d="M 618.586,996 597.963,996 z" id="boundary" inkscape:connector-curvature="0" />
	<path style="fill:none;stroke:red;stroke-width:1px;stroke-linecap:butt;stroke-linejoin:miter;stroke-opacity:1" d="M 597.963,996 577.339,996 z" id="boundary" inkscape:connector-curvature="0" />
	<path style="fill:none;stroke:red;stroke-width:1px;stroke-linecap:butt;stroke-linejoin:miter;stroke-opacity:1" d="M 577.339,996 556.715,996 z" id="boundary" inkscape:connector-curvature="0" />
	<path style="fill:none;stroke:red;stroke-width:1px;stroke-linecap:butt;stroke-linejoin:miter;stroke-opacity:1" d="M 556.715,996 536.091,996 z" id="boundary" inkscape:connector-curvature="0" />
	<path style="fill:none;stroke:red;stroke-width:1px;stroke-linecap:butt;stroke-linejoin:miter;stroke-opacity:1" d="M 536.091,996 515.468,996 z" id="boundary" inkscape:connector-curvature="0" />
	<path style="fill:none;stroke:red;stroke-width:1px;stroke-linecap:butt;stroke-linejoin:miter;stroke-opacity:1" d="M 515.468,996 494.844,996 z" id="boundary" inkscape:connector-curvature="0" />
	<path style="fill:none;stroke:red;stroke-width:1px;stroke-linecap:butt;stroke-linejoin:miter;stroke-opacity:1" d="M 494.844,996 474.22,996 z" id="boundary" inkscape:connector-curvature="0" />
	<path style="fill:none;stroke:red;stroke-width:1px;stroke-linecap:butt;stroke-linejoin:miter;stroke-opacity:1" d="M 474.22,996 453.597,996 z" id="boundary" inkscape:connector-curvature="0" />
	<path style="fill:none;stroke:red;stroke-width:1px;stroke-linecap:butt;stroke-linejoin:miter;stroke-opacity:1" d="M 453.597,996 432.973,996 z" id="boundary" inkscape:connector-curvature="0" />
	<path style="fill:none;stroke:red;stroke-width:1px;stroke-linecap:butt;stroke-linejoin:miter;stroke-opacity:1" d="M 432.973,996 412.349,996 z" id="boundary" inkscape:connector-curvature="0" />
	<path style="fill:none;stroke:red;stroke-width:1px;stroke-linecap:butt;stroke-linejoin:miter;stroke-opacity:1" d="M 412.349,996 391.726,996 z" id="boundary" inkscape:connector-curvature="0" />
	<path style="fill:none;stroke:red;stroke-width:1px;stroke-linecap:butt;stroke-linejoin:miter;stroke-opacity:1" d="M 391.726,996 371.102,996 z" id="boundary" inkscape:connector-curvature="0" />
	<path style="fill:none;stroke:red;stroke-width:1px;stroke-linecap:butt;stroke-linejoin:miter;stroke-opacity:1" d="M 371.102,996 350.478,996 z" id="boundary" inkscape:connector-curvature="0" />
	<path style="fill:none;stroke:red;stroke-width:1px;stroke-linecap:butt;stroke-linejoin:miter;stroke-opacity:1" d="M 350.478,996 329.854,996 z" id="boundary" inkscape:connector-curvature="0" />
	<path style="fill:none;stroke:red;stroke-width:1px;stroke-linecap:butt;stroke-linejoin:miter;stroke-opacity:1" d="M 329.854,996 309.231,996 z" id="boundary" inkscape:connector-curvature="0" />
	<path style="fill:none;stroke:red;stroke-width:1px;stroke-linecap:butt;stroke-linejoin:miter;stroke-opacity:1" d="M 309.231,996 288.607,996 z" id="boundary" inkscape:connector-curvature="0" />
	<path style="fill:none;stroke:red;stroke-width:1px;stroke-linecap:butt;stroke-linejoin:miter;stroke-opacity:1" d="M 288.607,996 267.983,996 z" id="boundary" inkscape:connector-curvature="0" />
	<path style="fill:none;stroke:red;stroke-width:1px;stroke-linecap:butt;stroke-linejoin:miter;stroke-opacity:1" d="M 267.983,996 251.484,981.563 z" id="boundary" inkscape:connector-curvature="0" />
	<path style="fill:none;stroke:red;stroke-width:1px;stroke-linecap:butt;stroke-linejoin:miter;stroke-opacity:1" d="M 251.484,981.563 239.11,965.064 z" id="boundary" inkscape:connector-curvature="0" />
	<path style="fill:none;stroke:red;stroke-width:1px;stroke-linecap:butt;stroke-linejoin:miter;stroke-opacity:1" d="M 239.11,965.064 222.611,950.628 z" id="boundary" inkscape:connector-curvature="0" />
	<path style="fill:none;stroke:red;stroke-width:1px;stroke-linecap:butt;stroke-linejoin:miter;stroke-opacity:1" d="M 222.611,950.628 210.237,934.129 z" id="boundary" inkscape:connector-curvature="0" />
	<path style="fill:none;stroke:red;stroke-width:1px;stroke-linecap:butt;stroke-linejoin:miter;stroke-opacity:1" d="M 210.237,934.129 199.925,915.568 z" id="boundary" inkscape:connector-curvature="0" />
	<path style="fill:none;stroke:red;stroke-width:1px;stroke-linecap:butt;stroke-linejoin:miter;stroke-opacity:1" d="M 199.925,915.568 189.613,897.006 z" id="boundary" inkscape:connector-curvature="0" />
	<path style="fill:none;stroke:red;stroke-width:1px;stroke-linecap:butt;stroke-linejoin:miter;stroke-opacity:1" d="M 189.613,897.006 179.301,878.445 z" id="boundary" inkscape:connector-curvature="0" />
	<path style="fill:none;stroke:red;stroke-width:1px;stroke-linecap:butt;stroke-linejoin:miter;stroke-opacity:1" d="M 179.301,878.445 171.052,857.821 z" id="boundary" inkscape:connector-curvature="0" />
	<path style="fill:none;stroke:red;stroke-width:1px;stroke-linecap:butt;stroke-linejoin:miter;stroke-opacity:1" d="M 171.052,857.821 168.99,837.198 z" id="boundary" inkscape:connector-curvature="0" />
	<path style="fill:none;stroke:red;stroke-width:1px;stroke-linecap:butt;stroke-linejoin:miter;stroke-opacity:1" d="M 168.99,837.198 160.74,816.574 z" id="boundary" inkscape:connector-curvature="0" />
	<path style="fill:none;stroke:red;stroke-width:1px;stroke-linecap:butt;stroke-linejoin:miter;stroke-opacity:1" d="M 160.74,816.574 158.678,795.95 z" id="boundary" inkscape:connector-curvature="0" />
	<path style="fill:none;stroke:red;stroke-width:1px;stroke-linecap:butt;stroke-linejoin:miter;stroke-opacity:1" d="M 158.678,795.95 150.428,775.326 z" id="boundary" inkscape:connector-curvature="0" />
	<path style="fill:none;stroke:red;stroke-width:1px;stroke-linecap:butt;stroke-linejoin:miter;stroke-opacity:1" d="M 150.428,775.326 138.054,758.827 z" id="boundary" inkscape:connector-curvature="0" />
	<path style="fill:none;stroke:red;stroke-width:1px;stroke-linecap:butt;stroke-linejoin:miter;stroke-opacity:1" d="M 138.054,758.827 127.742,740.266 z" id="boundary" inkscape:connector-curvature="0" />
	<path style="fill:none;stroke:red;stroke-width:1px;stroke-linecap:butt;stroke-linejoin:miter;stroke-opacity:1" d="M 127.742,740.266 127.742,719.642 z" id="boundary" inkscape:connector-curvature="0" />
	<path style="fill:none;stroke:red;stroke-width:1px;stroke-linecap:butt;stroke-linejoin:miter;stroke-opacity:1" d="M 127.742,719.642 117.43,701.081 z" id="boundary" inkscape:connector-curvature="0" />
	<path style="fill:none;stroke:red;stroke-width:1px;stroke-linecap:butt;stroke-linejoin:miter;stroke-opacity:1" d="M 117.43,701.081 107.119,682.52 z" id="boundary" inkscape:connector-curvature="0" />
	<path style="fill:none;stroke:red;stroke-width:1px;stroke-linecap:butt;stroke-linejoin:miter;stroke-opacity:1" d="M 107.119,682.52 98.869,661.896 z" id="boundary" inkscape:connector-curvature="0" />
	<path style="fill:none;stroke:red;stroke-width:1px;stroke-linecap:butt;stroke-linejoin:miter;stroke-opacity:1" d="M 98.869,661.896 90.6195,641.272 z" id="boundary" inkscape:connector-curvature="0" />
	<path style="fill:none;stroke:red;stroke-width:1px;stroke-linecap:butt;stroke-linejoin:miter;stroke-opacity:1" d="M 90.6195,641.272 80.3077,622.711 z" id="boundary" inkscape:connector-curvature="0" />
	<path style="fill:none;stroke:red;stroke-width:1px;stroke-linecap:butt;stroke-linejoin:miter;stroke-opacity:1" d="M 80.3077,622.711 65.8711,606.212 z" id="boundary" inkscape:connector-curvature="0" />
	<path style="fill:none;stroke:red;stroke-width:1px;stroke-linecap:butt;stroke-linejoin:miter;stroke-opacity:1" d="M 65.8711,606.212 55.5593,587.651 z" id="boundary" inkscape:connector-curvature="0" />
	<path style="fill:none;stroke:red;stroke-width:1px;stroke-linecap:butt;stroke-linejoin:miter;stroke-opacity:1" d="M 55.5593,587.651 47.3098,567.027 z" id="boundary" inkscape:connector-curvature="0" />
	<path style="fill:none;stroke:red;stroke-width:1px;stroke-linecap:butt;stroke-linejoin:miter;stroke-opacity:1" d="M 47.3098,567.027 30.8108,552.59 z" id="boundary" inkscape:connector-curvature="0" />
	<path style="fill:none;stroke:red;stroke-width:1px;stroke-linecap:butt;stroke-linejoin:miter;stroke-opacity:1" d="M 30.8108,552.59 24.6237,531.967 z" id="boundary" inkscape:connector-curvature="0" />
	<path style="fill:none;stroke:red;stroke-width:1px;stroke-linecap:butt;stroke-linejoin:miter;stroke-opacity:1" d="M 24.6237,531.967 14.3119,513.405 z" id="boundary" inkscape:connector-curvature="0" />
	<path style="fill:none;stroke:red;stroke-width:1px;stroke-linecap:butt;stroke-linejoin:miter;stroke-opacity:1" d="M 14.3119,513.405 4,494.844 z" id="boundary" inkscape:connector-curvature="0" />
	<path style="fill:none;stroke:red;stroke-width:1px;stroke-linecap:butt;stroke-linejoin:miter;stroke-opacity:1" d="M 4,494.844 14.3119,474.22 z" id="boundary" inkscape:connector-curvature="0" />
	<path style="fill:none;stroke:red;stroke-width:1px;stroke-linecap:butt;stroke-linejoin:miter;stroke-opacity:1" d="M 14.3119,474.22 24.6237,453.597 z" id="boundary" inkscape:connector-curvature="0" />
	<path style="fill:none;stroke:red;stroke-width:1px;stroke-linecap:butt;stroke-linejoin:miter;stroke-opacity:1" d="M 24.6237,453.597 41.1227,437.098 z" id="boundary" inkscape:connector-curvature="0" />
	<path style="fill:none;stroke:red;stroke-width:1px;stroke-linecap:butt;stroke-linejoin:miter;stroke-opacity:1" d="M 41.1227,437.098 51.4345,416.474 z" id="boundary" inkscape:connector-curvature="0" />
	<path style="fill:none;stroke:red;stroke-width:1px;stroke-linecap:butt;stroke-linejoin:miter;stroke-opacity:1" d="M 51.4345,416.474 65.8711,432.973 z" id="boundary" inkscape:connector-curvature="0" />
	<path style="fill:none;stroke:red;stroke-width:1px;stroke-linecap:butt;stroke-linejoin:miter;stroke-opacity:1" d="M 65.8711,432.973 76.183,451.534 z" id="boundary" inkscape:connector-curvature="0" />
	<path style="fill:none;stroke:red;stroke-width:1px;stroke-linecap:butt;stroke-linejoin:miter;stroke-opacity:1" d="M 76.183,451.534 88.5572,468.033 z" id="boundary" inkscape:connector-curvature="0" />
	<path style="fill:none;stroke:red;stroke-width:1px;stroke-linecap:butt;stroke-linejoin:miter;stroke-opacity:1" d="M 88.5572,468.033 98.869,486.595 z" id="boundary" inkscape:connector-curvature="0" />
	<path style="fill:none;stroke:red;stroke-width:1px;stroke-linecap:butt;stroke-linejoin:miter;stroke-opacity:1" d="M 98.869,486.595 115.368,501.031 z" id="boundary" inkscape:connector-curvature="0" />
	<path style="fill:none;stroke:red;stroke-width:1px;stroke-linecap:butt;stroke-linejoin:miter;stroke-opacity:1" d="M 115.368,501.031 129.805,517.53 z" id="boundary" inkscape:connector-curvature="0" />
	<path style="fill:none;stroke:red;stroke-width:1px;stroke-linecap:butt;stroke-linejoin:miter;stroke-opacity:1" d="M 129.805,517.53 140.116,536.091 z" id="boundary" inkscape:connector-curvature="0" />
	<path style="fill:none;stroke:red;stroke-width:1px;stroke-linecap:butt;stroke-linejoin:miter;stroke-opacity:1" d="M 140.116,536.091 154.553,552.59 z" id="boundary" inkscape:connector-curvature="0" />
	<path style="fill:none;stroke:red;stroke-width:1px;stroke-linecap:butt;stroke-linejoin:miter;stroke-opacity:1" d="M 154.553,552.59 158.678,519.593 z" id="boundary" inkscape:connector-curvature="0" />
	<path style="fill:none;stroke:red;stroke-width:1px;stroke-linecap:butt;stroke-linejoin:miter;stroke-opacity:1" d="M 158.678,519.593 148.366,501.031 z" id="boundary" inkscape:connector-curvature="0" />
	<path style="fill:none;stroke:red;stroke-width:1px;stroke-linecap:butt;stroke-linejoin:miter;stroke-opacity:1" d="M 148.366,501.031 138.054,482.47 z" id="boundary" inkscape:connector-curvature="0" />
	<path style="fill:none;stroke:red;stroke-width:1px;stroke-linecap:butt;stroke-linejoin:miter;stroke-opacity:1" d="M 138.054,482.47 127.742,463.909 z" id="boundary" inkscape:connector-curvature="0" />
	<path style="fill:none;stroke:red;stroke-width:1px;stroke-linecap:butt;stroke-linejoin:miter;stroke-opacity:1" d="M 127.742,463.909 113.306,447.41 z" id="boundary" inkscape:connector-curvature="0" />
	<path style="fill:none;stroke:red;stroke-width:1px;stroke-linecap:butt;stroke-linejoin:miter;stroke-opacity:1" d="M 113.306,447.41 102.994,428.848 z" id="boundary" inkscape:connector-curvature="0" />
	<path style="fill:none;stroke:red;stroke-width:1px;stroke-linecap:butt;stroke-linejoin:miter;stroke-opacity:1" d="M 102.994,428.848 96.8067,408.225 z" id="boundary" inkscape:connector-curvature="0" />
	<path style="fill:none;stroke:red;stroke-width:1px;stroke-linecap:butt;stroke-linejoin:miter;stroke-opacity:1" d="M 96.8067,408.225 86.4948,389.663 z" id="boundary" inkscape:connector-curvature="0" />
	<path style="fill:none;stroke:red;stroke-width:1px;stroke-linecap:butt;stroke-linejoin:miter;stroke-opacity:1" d="M 86.4948,389.663 76.183,371.102 z" id="boundary" inkscape:connector-curvature="0" />
	<path style="fill:none;stroke:red;stroke-width:1px;stroke-linecap:butt;stroke-linejoin:miter;stroke-opacity:1" d="M 76.183,371.102 92.6819,354.603 z" id="boundary" inkscape:connector-curvature="0" />
	<path style="fill:none;stroke:red;stroke-width:1px;stroke-linecap:butt;stroke-linejoin:miter;stroke-opacity:1" d="M 92.6819,354.603 102.994,333.979 z" id="boundary" inkscape:connector-curvature="0" />
	<path style="fill:none;stroke:red;stroke-width:1px;stroke-linecap:butt;stroke-linejoin:miter;stroke-opacity:1" d="M 102.994,333.979 113.306,313.356 z" id="boundary" inkscape:connector-curvature="0" />
	<path style="fill:none;stroke:red;stroke-width:1px;stroke-linecap:butt;stroke-linejoin:miter;stroke-opacity:1" d="M 113.306,313.356 127.742,288.607 z" id="boundary" inkscape:connector-curvature="0" />
	<path style="fill:none;stroke:red;stroke-width:1px;stroke-linecap:butt;stroke-linejoin:miter;stroke-opacity:1" d="M 127.742,288.607 148.366,286.545 z" id="boundary" inkscape:connector-curvature="0" />
	<path style="fill:none;stroke:red;stroke-width:1px;stroke-linecap:butt;stroke-linejoin:miter;stroke-opacity:1" d="M 148.366,286.545 160.74,303.044 z" id="boundary" inkscape:connector-curvature="0" />
	<path style="fill:none;stroke:red;stroke-width:1px;stroke-linecap:butt;stroke-linejoin:miter;stroke-opacity:1" d="M 160.74,303.044 171.052,321.605 z" id="boundary" inkscape:connector-curvature="0" />
	<path style="fill:none;stroke:red;stroke-width:1px;stroke-linecap:butt;stroke-linejoin:miter;stroke-opacity:1" d="M 171.052,321.605 181.364,340.166 z" id="boundary" inkscape:connector-curvature="0" />
	<path style="fill:none;stroke:red;stroke-width:1px;stroke-linecap:butt;stroke-linejoin:miter;stroke-opacity:1" d="M 181.364,340.166 195.8,356.665 z" id="boundary" inkscape:connector-curvature="0" />
	<path style="fill:none;stroke:red;stroke-width:1px;stroke-linecap:butt;stroke-linejoin:miter;stroke-opacity:1" d="M 195.8,356.665 206.112,375.227 z" id="boundary" inkscape:connector-curvature="0" />
	<path style="fill:none;stroke:red;stroke-width:1px;stroke-linecap:butt;stroke-linejoin:miter;stroke-opacity:1" d="M 206.112,375.227 212.299,395.85 z" id="boundary" inkscape:connector-curvature="0" />
	<path style="fill:none;stroke:red;stroke-width:1px;stroke-linecap:butt;stroke-linejoin:miter;stroke-opacity:1" d="M 212.299,395.85 228.798,408.225 z" id="boundary" inkscape:connector-curvature="0" />
	<path style="fill:none;stroke:red;stroke-width:1px;stroke-linecap:butt;stroke-linejoin:miter;stroke-opacity:1" d="M 228.798,408.225 239.11,426.786 z" id="boundary" inkscape:connector-curvature="0" />
	<path style="fill:none;stroke:red;stroke-width:1px;stroke-linecap:butt;stroke-linejoin:miter;stroke-opacity:1" d="M 239.11,426.786 251.484,402.037 z" id="boundary" inkscape:connector-curvature="0" />
	<path style="fill:none;stroke:red;stroke-width:1px;stroke-linecap:butt;stroke-linejoin:miter;stroke-opacity:1" d="M 251.484,402.037 241.173,383.476 z" id="boundary" inkscape:connector-curvature="0" />
	<path style="fill:none;stroke:red;stroke-width:1px;stroke-linecap:butt;stroke-linejoin:miter;stroke-opacity:1" d="M 241.173,383.476 232.923,362.852 z" id="boundary" inkscape:connector-curvature="0" />
	<path style="fill:none;stroke:red;stroke-width:1px;stroke-linecap:butt;stroke-linejoin:miter;stroke-opacity:1" d="M 232.923,362.852 230.861,342.229 z" id="boundary" inkscape:connector-curvature="0" />
	<path style="fill:none;stroke:red;stroke-width:1px;stroke-linecap:butt;stroke-linejoin:miter;stroke-opacity:1" d="M 230.861,342.229 220.549,323.667 z" id="boundary" inkscape:connector-curvature="0" />
	<path style="fill:none;stroke:red;stroke-width:1px;stroke-linecap:butt;stroke-linejoin:miter;stroke-opacity:1" d="M 220.549,323.667 210.237,305.106 z" id="boundary" inkscape:connector-curvature="0" />
	<path style="fill:none;stroke:red;stroke-width:1px;stroke-linecap:butt;stroke-linejoin:miter;stroke-opacity:1" d="M 210.237,305.106 210.237,284.482 z" id="boundary" inkscape:connector-curvature="0" />
	<path style="fill:none;stroke:red;stroke-width:1px;stroke-linecap:butt;stroke-linejoin:miter;stroke-opacity:1" d="M 210.237,284.482 199.925,265.921 z" id="boundary" inkscape:connector-curvature="0" />
	<path style="fill:none;stroke:red;stroke-width:1px;stroke-linecap:butt;stroke-linejoin:miter;stroke-opacity:1" d="M 199.925,265.921 199.925,245.297 z" id="boundary" inkscape:connector-curvature="0" />
	<path style="fill:none;stroke:red;stroke-width:1px;stroke-linecap:butt;stroke-linejoin:miter;stroke-opacity:1" d="M 199.925,245.297 199.925,224.674 z" id="boundary" inkscape:connector-curvature="0" />
	<path style="fill:none;stroke:red;stroke-width:1px;stroke-linecap:butt;stroke-linejoin:miter;stroke-opacity:1" d="M 199.925,224.674 199.925,204.05 z" id="boundary" inkscape:connector-curvature="0" />
	<path style="fill:none;stroke:red;stroke-width:1px;stroke-linecap:butt;stroke-linejoin:miter;stroke-opacity:1" d="M 199.925,204.05 189.613,185.489 z" id="boundary" inkscape:connector-curvature="0" />
	<path style="fill:none;stroke:red;stroke-width:1px;stroke-linecap:butt;stroke-linejoin:miter;stroke-opacity:1" d="M 189.613,185.489 206.112,168.99 z" id="boundary" inkscape:connector-curvature="0" />
	<path style="fill:none;stroke:red;stroke-width:1px;stroke-linecap:butt;stroke-linejoin:miter;stroke-opacity:1" d="M 206.112,168.99 216.424,148.366 z" id="boundary" inkscape:connector-curvature="0" />
	<path style="fill:none;stroke:red;stroke-width:1px;stroke-linecap:butt;stroke-linejoin:miter;stroke-opacity:1" d="M 216.424,148.366 226.736,127.742 z" id="boundary" inkscape:connector-curvature="0" />
	<path style="fill:none;stroke:red;stroke-width:1px;stroke-linecap:butt;stroke-linejoin:miter;stroke-opacity:1" d="M 226.736,127.742 241.173,102.994 z" id="boundary" inkscape:connector-curvature="0" />
	<path style="fill:none;stroke:red;stroke-width:1px;stroke-linecap:butt;stroke-linejoin:miter;stroke-opacity:1" d="M 241.173,102.994 251.484,82.3701 z" id="boundary" inkscape:connector-curvature="0" />
	<path style="fill:none;stroke:red;stroke-width:1px;stroke-linecap:butt;stroke-linejoin:miter;stroke-opacity:1" d="M 251.484,82.3701 272.108,90.6195 z" id="boundary" inkscape:connector-curvature="0" />
	<path style="fill:none;stroke:red;stroke-width:1px;stroke-linecap:butt;stroke-linejoin:miter;stroke-opacity:1" d="M 272.108,90.6195 274.17,111.243 z" id="boundary" inkscape:connector-curvature="0" />
	<path style="fill:none;stroke:red;stroke-width:1px;stroke-linecap:butt;stroke-linejoin:miter;stroke-opacity:1" d="M 274.17,111.243 284.482,129.805 z" id="boundary" inkscape:connector-curvature="0" />
	<path style="fill:none;stroke:red;stroke-width:1px;stroke-linecap:butt;stroke-linejoin:miter;stroke-opacity:1" d="M 284.482,129.805 288.607,150.428 z" id="boundary" inkscape:connector-curvature="0" />
	<path style="fill:none;stroke:red;stroke-width:1px;stroke-linecap:butt;stroke-linejoin:miter;stroke-opacity:1" d="M 288.607,150.428 298.919,168.99 z" id="boundary" inkscape:connector-curvature="0" />
	<path style="fill:none;stroke:red;stroke-width:1px;stroke-linecap:butt;stroke-linejoin:miter;stroke-opacity:1" d="M 298.919,168.99 305.106,189.613 z" id="boundary" inkscape:connector-curvature="0" />
	<path style="fill:none;stroke:red;stroke-width:1px;stroke-linecap:butt;stroke-linejoin:miter;stroke-opacity:1" d="M 305.106,189.613 315.418,208.175 z" id="boundary" inkscape:connector-curvature="0" />
	<path style="fill:none;stroke:red;stroke-width:1px;stroke-linecap:butt;stroke-linejoin:miter;stroke-opacity:1" d="M 315.418,208.175 315.418,228.798 z" id="boundary" inkscape:connector-curvature="0" />
	<path style="fill:none;stroke:red;stroke-width:1px;stroke-linecap:butt;stroke-linejoin:miter;stroke-opacity:1" d="M 315.418,228.798 325.73,247.36 z" id="boundary" inkscape:connector-curvature="0" />
	<path style="fill:none;stroke:red;stroke-width:1px;stroke-linecap:butt;stroke-linejoin:miter;stroke-opacity:1" d="M 325.73,247.36 325.73,267.983 z" id="boundary" inkscape:connector-curvature="0" />
	<path style="fill:none;stroke:red;stroke-width:1px;stroke-linecap:butt;stroke-linejoin:miter;stroke-opacity:1" d="M 325.73,267.983 336.042,286.545 z" id="boundary" inkscape:connector-curvature="0" />
	<path style="fill:none;stroke:red;stroke-width:1px;stroke-linecap:butt;stroke-linejoin:miter;stroke-opacity:1" d="M 336.042,286.545 342.229,307.168 z" id="boundary" inkscape:connector-curvature="0" />
	<path style="fill:none;stroke:red;stroke-width:1px;stroke-linecap:butt;stroke-linejoin:miter;stroke-opacity:1" d="M 342.229,307.168 346.353,327.792 z" id="boundary" inkscape:connector-curvature="0" />
	<path style="fill:none;stroke:red;stroke-width:1px;stroke-linecap:butt;stroke-linejoin:miter;stroke-opacity:1" d="M 346.353,327.792 352.541,348.416 z" id="boundary" inkscape:connector-curvature="0" />
	<path style="fill:none;stroke:red;stroke-width:1px;stroke-linecap:butt;stroke-linejoin:miter;stroke-opacity:1" d="M 352.541,348.416 356.665,369.04 z" id="boundary" inkscape:connector-curvature="0" />
	<path style="fill:none;stroke:red;stroke-width:1px;stroke-linecap:butt;stroke-linejoin:miter;stroke-opacity:1" d="M 356.665,369.04 362.852,389.663 z" id="boundary" inkscape:connector-curvature="0" />
	<path style="fill:none;stroke:red;stroke-width:1px;stroke-linecap:butt;stroke-linejoin:miter;stroke-opacity:1" d="M 362.852,389.663 383.476,395.85 z" id="boundary" inkscape:connector-curvature="0" />
	<path style="fill:none;stroke:red;stroke-width:1px;stroke-linecap:butt;stroke-linejoin:miter;stroke-opacity:1" d="M 383.476,395.85 395.85,371.102 z" id="boundary" inkscape:connector-curvature="0" />
	<path style="fill:none;stroke:red;stroke-width:1px;stroke-linecap:butt;stroke-linejoin:miter;stroke-opacity:1" d="M 395.85,371.102 395.85,350.478 z" id="boundary" inkscape:connector-curvature="0" />
	<path style="fill:none;stroke:red;stroke-width:1px;stroke-linecap:butt;stroke-linejoin:miter;stroke-opacity:1" d="M 395.85,350.478 395.85,329.854 z" id="boundary" inkscape:connector-curvature="0" />
	<path style="fill:none;stroke:red;stroke-width:1px;stroke-linecap:butt;stroke-linejoin:miter;stroke-opacity:1" d="M 395.85,329.854 385.538,311.293 z" id="boundary" inkscape:connector-curvature="0" />
	<path style="fill:none;stroke:red;stroke-width:1px;stroke-linecap:butt;stroke-linejoin:miter;stroke-opacity:1" d="M 385.538,311.293 385.538,290.669 z" id="boundary" inkscape:connector-curvature="0" />
	<path style="fill:none;stroke:red;stroke-width:1px;stroke-linecap:butt;stroke-linejoin:miter;stroke-opacity:1" d="M 385.538,290.669 375.227,272.108 z" id="boundary" inkscape:connector-curvature="0" />
	<path style="fill:none;stroke:red;stroke-width:1px;stroke-linecap:butt;stroke-linejoin:miter;stroke-opacity:1" d="M 375.227,272.108 369.04,251.484 z" id="boundary" inkscape:connector-curvature="0" />
	<path style="fill:none;stroke:red;stroke-width:1px;stroke-linecap:butt;stroke-linejoin:miter;stroke-opacity:1" d="M 369.04,251.484 364.915,230.861 z" id="boundary" inkscape:connector-curvature="0" />
	<path style="fill:none;stroke:red;stroke-width:1px;stroke-linecap:butt;stroke-linejoin:miter;stroke-opacity:1" d="M 364.915,230.861 364.915,210.237 z" id="boundary" inkscape:connector-curvature="0" />
	<path style="fill:none;stroke:red;stroke-width:1px;stroke-linecap:butt;stroke-linejoin:miter;stroke-opacity:1" d="M 364.915,210.237 364.915,189.613 z" id="boundary" inkscape:connector-curvature="0" />
	<path style="fill:none;stroke:red;stroke-width:1px;stroke-linecap:butt;stroke-linejoin:miter;stroke-opacity:1" d="M 364.915,189.613 364.915,168.99 z" id="boundary" inkscape:connector-curvature="0" />
	<path style="fill:none;stroke:red;stroke-width:1px;stroke-linecap:butt;stroke-linejoin:miter;stroke-opacity:1" d="M 364.915,168.99 364.915,148.366 z" id="boundary" inkscape:connector-curvature="0" />
	<path style="fill:none;stroke:red;stroke-width:1px;stroke-linecap:butt;stroke-linejoin:miter;stroke-opacity:1" d="M 364.915,148.366 354.603,129.805 z" id="boundary" inkscape:connector-curvature="0" />
	<path style="fill:none;stroke:red;stroke-width:1px;stroke-linecap:butt;stroke-linejoin:miter;stroke-opacity:1" d="M 354.603,129.805 354.603,109.181 z" id="boundary" inkscape:connector-curvature="0" />
	<path style="fill:none;stroke:red;stroke-width:1px;stroke-linecap:butt;stroke-linejoin:miter;stroke-opacity:1" d="M 354.603,109.181 344.291,90.6195 z" id="boundary" inkscape:connector-curvature="0" />
	<path style="fill:none;stroke:red;stroke-width:1px;stroke-linecap:butt;stroke-linejoin:miter;stroke-opacity:1" d="M 344.291,90.6195 344.291,69.9958 z" id="boundary" inkscape:connector-curvature="0" />
	<path style="fill:none;stroke:red;stroke-width:1px;stroke-linecap:butt;stroke-linejoin:miter;stroke-opacity:1" d="M 344.291,69.9958 333.979,51.4345 z" id="boundary" inkscape:connector-curvature="0" />
	<path style="fill:none;stroke:red;stroke-width:1px;stroke-linecap:butt;stroke-linejoin:miter;stroke-opacity:1" d="M 333.979,51.4345 333.979,30.8108 z" id="boundary" inkscape:connector-curvature="0" />
	<path style="fill:none;stroke:red;stroke-width:1px;stroke-linecap:butt;stroke-linejoin:miter;stroke-opacity:1" d="M 333.979,30.8108 350.478,14.3119 z" id="boundary" inkscape:connector-curvature="0" />
	<path style="fill:none;stroke:red;stroke-width:1px;stroke-linecap:butt;stroke-linejoin:miter;stroke-opacity:1" d="M 350.478,14.3119 369.04,4 z" id="boundary" inkscape:connector-curvature="0" />
	<path style="fill:none;stroke:red;stroke-width:1px;stroke-linecap:butt;stroke-linejoin:miter;stroke-opacity:1" d="M 369.04,4 387.601,14.3119 z" id="boundary" inkscape:connector-curvature="0" />
	<path style="fill:none;stroke:red;stroke-width:1px;stroke-linecap:butt;stroke-linejoin:miter;stroke-opacity:1" d="M 387.601,14.3119 406.162,24.6237 z" id="boundary" inkscape:connector-curvature="0" />
	<path style="fill:none;stroke:red;stroke-width:1px;stroke-linecap:butt;stroke-linejoin:miter;stroke-opacity:1" d="M 406.162,24.6237 426.786,28.7484 z" id="boundary" inkscape:connector-curvature="0" />
	<path style="fill:none;stroke:red;stroke-width:1px;stroke-linecap:butt;stroke-linejoin:miter;stroke-opacity:1" d="M 426.786,28.7484 435.035,49.3721 z" id="boundary" inkscape:connector-curvature="0" />
	<path style="fill:none;stroke:red;stroke-width:1px;stroke-linecap:butt;stroke-linejoin:miter;stroke-opacity:1" d="M 435.035,49.3721 445.347,67.9335 z" id="boundary" inkscape:connector-curvature="0" />
	<path style="fill:none;stroke:red;stroke-width:1px;stroke-linecap:butt;stroke-linejoin:miter;stroke-opacity:1" d="M 445.347,67.9335 459.784,84.4324 z" id="boundary" inkscape:connector-curvature="0" />
	<path style="fill:none;stroke:red;stroke-width:1px;stroke-linecap:butt;stroke-linejoin:miter;stroke-opacity:1" d="M 459.784,84.4324 459.784,105.056 z" id="boundary" inkscape:connector-curvature="0" />
	<path style="fill:none;stroke:red;stroke-width:1px;stroke-linecap:butt;stroke-linejoin:miter;stroke-opacity:1" d="M 459.784,105.056 470.096,123.617 z" id="boundary" inkscape:connector-curvature="0" />
	<path style="fill:none;stroke:red;stroke-width:1px;stroke-linecap:butt;stroke-linejoin:miter;stroke-opacity:1" d="M 470.096,123.617 470.096,144.241 z" id="boundary" inkscape:connector-curvature="0" />
	<path style="fill:none;stroke:red;stroke-width:1px;stroke-linecap:butt;stroke-linejoin:miter;stroke-opacity:1" d="M 470.096,144.241 478.345,164.865 z" id="boundary" inkscape:connector-curvature="0" />
	<path style="fill:none;stroke:red;stroke-width:1px;stroke-linecap:butt;stroke-linejoin:miter;stroke-opacity:1" d="M 478.345,164.865 488.657,183.426 z" id="boundary" inkscape:connector-curvature="0" />
	<path style="fill:none;stroke:red;stroke-width:1px;stroke-linecap:butt;stroke-linejoin:miter;stroke-opacity:1" d="M 488.657,183.426 490.719,204.05 z" id="boundary" inkscape:connector-curvature="0" />
	<path style="fill:none;stroke:red;stroke-width:1px;stroke-linecap:butt;stroke-linejoin:miter;stroke-opacity:1" d="M 490.719,204.05 490.719,224.674 z" id="boundary" inkscape:connector-curvature="0" />
	<path style="fill:none;stroke:red;stroke-width:1px;stroke-linecap:butt;stroke-linejoin:miter;stroke-opacity:1" d="M 490.719,224.674 501.031,243.235 z" id="boundary" inkscape:connector-curvature="0" />
	<path style="fill:none;stroke:red;stroke-width:1px;stroke-linecap:butt;stroke-linejoin:miter;stroke-opacity:1" d="M 501.031,243.235 501.031,263.859 z" id="boundary" inkscape:connector-curvature="0" />
	<path style="fill:none;stroke:red;stroke-width:1px;stroke-linecap:butt;stroke-linejoin:miter;stroke-opacity:1" d="M 501.031,263.859 501.031,284.482 z" id="boundary" inkscape:connector-curvature="0" />
	<path style="fill:none;stroke:red;stroke-width:1px;stroke-linecap:butt;stroke-linejoin:miter;stroke-opacity:1" d="M 501.031,284.482 511.343,303.044 z" id="boundary" inkscape:connector-curvature="0" />
	<path style="fill:none;stroke:red;stroke-width:1px;stroke-linecap:butt;stroke-linejoin:miter;stroke-opacity:1" d="M 511.343,303.044 511.343,323.667 z" id="boundary" inkscape:connector-curvature="0" />
	<path style="fill:none;stroke:red;stroke-width:1px;stroke-linecap:butt;stroke-linejoin:miter;stroke-opacity:1" d="M 511.343,323.667 511.343,344.291 z" id="boundary" inkscape:connector-curvature="0" />
	<path style="fill:none;stroke:red;stroke-width:1px;stroke-linecap:butt;stroke-linejoin:miter;stroke-opacity:1" d="M 511.343,344.291 521.655,362.852 z" id="boundary" inkscape:connector-curvature="0" />
	<path style="fill:none;stroke:red;stroke-width:1px;stroke-linecap:butt;stroke-linejoin:miter;stroke-opacity:1" d="M 521.655,362.852 521.655,383.476 z" id="boundary" inkscape:connector-curvature="0" />
	<path style="fill:none;stroke:red;stroke-width:1px;stroke-linecap:butt;stroke-linejoin:miter;stroke-opacity:1" d="M 521.655,383.476 531.967,402.037 z" id="boundary" inkscape:connector-curvature="0" />
	<path style="fill:none;stroke:red;stroke-width:1px;stroke-linecap:butt;stroke-linejoin:miter;stroke-opacity:1" d="M 531.967,402.037 540.216,422.661 z" id="boundary" inkscape:connector-curvature="0" />
	<path style="fill:none;stroke:red;stroke-width:1px;stroke-linecap:butt;stroke-linejoin:miter;stroke-opacity:1" d="M 540.216,422.661 542.279,443.285 z" id="boundary" inkscape:connector-curvature="0" />
	<path style="fill:none;stroke:red;stroke-width:1px;stroke-linecap:butt;stroke-linejoin:miter;stroke-opacity:1" d="M 542.279,443.285 550.528,463.909 z" id="boundary" inkscape:connector-curvature="0" />
	<path style="fill:none;stroke:red;stroke-width:1px;stroke-linecap:butt;stroke-linejoin:miter;stroke-opacity:1" d="M 550.528,463.909 562.902,480.407 z" id="boundary" inkscape:connector-curvature="0" />
	<path style="fill:none;stroke:red;stroke-width:1px;stroke-linecap:butt;stroke-linejoin:miter;stroke-opacity:1" d="M 562.902,480.407 567.027,501.031 z" id="boundary" inkscape:connector-curvature="0" />
	<path style="fill:none;stroke:red;stroke-width:1px;stroke-linecap:butt;stroke-linejoin:miter;stroke-opacity:1" d="M 567.027,501.031 577.339,519.593 z" id="boundary" inkscape:connector-curvature="0" />
	<path style="fill:none;stroke:red;stroke-width:1px;stroke-linecap:butt;stroke-linejoin:miter;stroke-opacity:1" d="M 577.339,519.593 583.526,540.216 z" id="boundary" inkscape:connector-curvature="0" />
	<path style="fill:none;stroke:red;stroke-width:1px;stroke-linecap:butt;stroke-linejoin:miter;stroke-opacity:1" d="M 583.526,540.216 600.025,552.59 z" id="boundary" inkscape:connector-curvature="0" />
	<path style="fill:none;stroke:red;stroke-width:1px;stroke-linecap:butt;stroke-linejoin:miter;stroke-opacity:1" d="M 600.025,552.59 614.462,569.089 z" id="boundary" inkscape:connector-curvature="0" />
	<path style="fill:none;stroke:red;stroke-width:1px;stroke-linecap:butt;stroke-linejoin:miter;stroke-opacity:1" d="M 614.462,569.089 630.96,583.526 z" id="boundary" inkscape:connector-curvature="0" />
	<path style="fill:none;stroke:red;stroke-width:1px;stroke-linecap:butt;stroke-linejoin:miter;stroke-opacity:1" d="M 630.96,583.526 651.584,591.775 z" id="boundary" inkscape:connector-curvature="0" />
	<path style="fill:none;stroke:red;stroke-width:1px;stroke-linecap:butt;stroke-linejoin:miter;stroke-opacity:1" d="M 651.584,591.775 670.146,581.464 z" id="boundary" inkscape:connector-curvature="0" />
	<path style="fill:none;stroke:red;stroke-width:1px;stroke-linecap:butt;stroke-linejoin:miter;stroke-opacity:1" d="M 670.146,581.464 680.457,560.84 z" id="boundary" inkscape:connector-curvature="0" />
	<path style="fill:none;stroke:red;stroke-width:1px;stroke-linecap:butt;stroke-linejoin:miter;stroke-opacity:1" d="M 680.457,560.84 690.769,540.216 z" id="boundary" inkscape:connector-curvature="0" />
	<path style="fill:none;stroke:red;stroke-width:1px;stroke-linecap:butt;stroke-linejoin:miter;stroke-opacity:1" d="M 690.769,540.216 694.894,505.156 z" id="boundary" inkscape:connector-curvature="0" />
	<path style="fill:none;stroke:red;stroke-width:1px;stroke-linecap:butt;stroke-linejoin:miter;stroke-opacity:1" d="M 694.894,505.156 705.206,474.22 z" id="boundary" inkscape:connector-curvature="0" />
	<path style="fill:none;stroke:red;stroke-width:1px;stroke-linecap:butt;stroke-linejoin:miter;stroke-opacity:1" d="M 705.206,474.22 705.206,453.597 z" id="boundary" inkscape:connector-curvature="0" />
	<path style="fill:none;stroke:red;stroke-width:1px;stroke-linecap:butt;stroke-linejoin:miter;stroke-opacity:1" d="M 705.206,453.597 715.518,432.973 z" id="boundary" inkscape:connector-curvature="0" />
	<path style="fill:none;stroke:red;stroke-width:1px;stroke-linecap:butt;stroke-linejoin:miter;stroke-opacity:1" d="M 715.518,432.973 715.518,412.349 z" id="boundary" inkscape:connector-curvature="0" />
	<path style="fill:none;stroke:red;stroke-width:1px;stroke-linecap:butt;stroke-linejoin:miter;stroke-opacity:1" d="M 715.518,412.349 715.518,391.726 z" id="boundary" inkscape:connector-curvature="0" />
	<path style="fill:none;stroke:red;stroke-width:1px;stroke-linecap:butt;stroke-linejoin:miter;stroke-opacity:1" d="M 715.518,391.726 725.83,371.102 z" id="boundary" inkscape:connector-curvature="0" />
	<path style="fill:none;stroke:red;stroke-width:1px;stroke-linecap:butt;stroke-linejoin:miter;stroke-opacity:1" d="M 725.83,371.102 742.328,354.603 z" id="boundary" inkscape:connector-curvature="0" />
	<path style="fill:none;stroke:red;stroke-width:1px;stroke-linecap:butt;stroke-linejoin:miter;stroke-opacity:1" d="M 742.328,354.603 756.765,329.854 z" id="boundary" inkscape:connector-curvature="0" />
	<path style="fill:none;stroke:red;stroke-width:1px;stroke-linecap:butt;stroke-linejoin:miter;stroke-opacity:1" d="M 756.765,329.854 773.264,313.356 z" id="boundary" inkscape:connector-curvature="0" />
	<path style="fill:none;stroke:red;stroke-width:1px;stroke-linecap:butt;stroke-linejoin:miter;stroke-opacity:1" d="M 773.264,313.356 791.825,303.044 z" id="boundary" inkscape:connector-curvature="0" />
	<path style="fill:none;stroke:red;stroke-width:1px;stroke-linecap:butt;stroke-linejoin:miter;stroke-opacity:1" d="M 791.825,303.044 810.387,292.732 z" id="boundary" inkscape:connector-curvature="0" />
	<path style="fill:none;stroke:red;stroke-width:1px;stroke-linecap:butt;stroke-linejoin:miter;stroke-opacity:1" d="M 810.387,292.732 831.01,292.732 z" id="boundary" inkscape:connector-curvature="0" />
	<path style="fill:none;stroke:red;stroke-width:1px;stroke-linecap:butt;stroke-linejoin:miter;stroke-opacity:1" d="M 831.01,292.732 847.509,305.106 z" id="boundary" inkscape:connector-curvature="0" />
	<path style="fill:none;stroke:red;stroke-width:1px;stroke-linecap:butt;stroke-linejoin:miter;stroke-opacity:1" d="M 847.509,305.106 861.946,321.605 z" id="boundary" inkscape:connector-curvature="0" />
	<circle cx="4" cy="494.844" r="4" fill="#0" id="circle0"/>
	<circle cx="14.3119" cy="474.22" r="4" fill="#0" id="circle1"/>
	<circle cx="14.3119" cy="513.405" r="4" fill="#0" id="circle2"/>
	<circle cx="24.6237" cy="453.597" r="4" fill="#0" id="circle3"/>
	<circle cx="24.6237" cy="531.967" r="4" fill="#0" id="circle4"/>
	<circle cx="30.8108" cy="552.59" r="4" fill="#0" id="circle5"/>
	<circle cx="41.1227" cy="437.098" r="4" fill="#0" id="circle6"/>
	<circle cx="47.3098" cy="567.027" r="4" fill="#0" id="circle7"/>
	<circle cx="51.4345" cy="416.474" r="4" fill="#0" id="circle8"/>
	<circle cx="55.5593" cy="587.651" r="4" fill="#0" id="circle9"/>
	<circle cx="65.8711" cy="432.973" r="4" fill="#0" id="circle10"/>
	<circle cx="65.8711" cy="606.212" r="4" fill="#0" id="circle11"/>
	<circle cx="76.183" cy="371.102" r="4" fill="#0" id="circle12"/>
	<circle cx="76.183" cy="451.534" r="4" fill="#0" id="circle13"/>
	<circle cx="80.3077" cy="622.711" r="4" fill="#0" id="circle14"/>
	<circle cx="86.4948" cy="389.663" r="4" fill="#0" id="circle15"/>
	<circle cx="88.5572" cy="468.033" r="4" fill="#0" id="circle16"/>
	<circle cx="90.6195" cy="641.272" r="4" fill="#0" id="circle17"/>
	<circle cx="92.6819" cy="354.603" r="4" fill="#0" id="circle18"/>
	<circle cx="96.8067" cy="408.225" r="4" fill="#0" id="circle19"/>
	<circle cx="98.869" cy="486.595" r="4" fill="#0" id="circle20"/>
	<circle cx="98.869" cy="661.896" r="4" fill="#0" id="circle21"/>
	<circle cx="102.994" cy="333.979" r="4" fill="#0" id="circle22"/>
	<circle cx="102.994" cy="428.848" r="4" fill="#0" id="circle23"/>
	<circle cx="107.119" cy="682.52" r="4" fill="#0" id="circle24"/>
	<circle cx="113.306" cy="313.356" r="4" fill="#0" id="circle25"/>
	<circle cx="113.306" cy="447.41" r="4" fill="#0" id="circle26"/>
	<circle cx="115.368" cy="501.031" r="4" fill="#0" id="circle27"/>
	<circle cx="117.43" cy="701.081" r="4" fill="#0" id="circle28"/>
	<circle cx="127.742" cy="288.607" r="4" fill="#0" id="circle29"/>
	<circle cx="127.742" cy="463.909" r="4" fill="#0" id="circle30"/>
	<circle cx="127.742" cy="719.642" r="4" fill="#0" id="circle31"/>
	<circle cx="127.742" cy="740.266" r="4" fill="#0" id="circle32"/>
	<circle cx="129.805" cy="517.53" r="4" fill="#0" id="circle33"/>
	<circle cx="138.054" cy="482.47" r="4" fill="#0" id="circle34"/>
	<circle cx="138.054" cy="758.827" r="4" fill="#0" id="circle35"/>
	<circle cx="140.116" cy="536.091" r="4" fill="#0" id="circle36"/>
	<circle cx="148.366" cy="286.545" r="4" fill="#0" id="circle37"/>
	<circle cx="148.366" cy="501.031" r="4" fill="#0" id="circle38"/>
	<circle cx="150.428" cy="775.326" r="4" fill="#0" id="circle39"/>
	<circle cx="154.553" cy="552.59" r="4" fill="#0" id="circle40"/>
	<circle cx="158.678" cy="519.593" r="4" fill="#0" id="circle41"/>
	<circle cx="158.678" cy="795.95" r="4" fill="#0" id="circle42"/>
	<circle cx="160.74" cy="303.044" r="4" fill="#0" id="circle43"/>
	<circle cx="160.74" cy="816.574" r="4" fill="#0" id="circle44"/>
	<circle cx="168.99" cy="837.198" r="4" fill="#0" id="circle45"/>
	<circle cx="171.052" cy="321.605" r="4" fill="#0" id="circle46"/>
	<circle cx="171.052" cy="857.821" r="4" fill="#0" id="circle47"/>
	<circle cx="179.301" cy="878.445" r="4" fill="#0" id="circle48"/>
	<circle cx="181.364" cy="340.166" r="4" fill="#0" id="circle49"/>
	<circle cx="189.613" cy="185.489" r="4" fill="#0" id="circle50"/>
	<circle cx="189.613" cy="897.006" r="4" fill="#0" id="circle51"/>
	<circle cx="195.8" cy="356.665" r="4" fill="#0" id="circle52"/>
	<circle cx="199.925" cy="204.05" r="4" fill="#0" id="circle53"/>
	<circle cx="199.925" cy="224.674" r="4" fill="#0" id="circle54"/>
	<circle cx="199.925" cy="245.297" r="4" fill="#0" id="circle55"/>
	<circle cx="199.925" cy="265.921" r="4" fill="#0" id="circle56"/>
	<circle cx="199.925" cy="915.568" r="4" fill="#0" id="circle57"/>
	<circle cx="206.112" cy="168.99" r="4" fill="#0" id="circle58"/>
	<circle cx="206.112" cy="375.227" r="4" fill="#0" id="circle59"/>
	<circle cx="210.237" cy="284.482" r="4" fill="#0" id="circle60"/>
	<circle cx="210.237" cy="305.106" r="4" fill="#0" id="circle61"/>
	<circle cx="210.237" cy="934.129" r="4" fill="#0" id="circle62"/>
	<circle cx="212.299" cy="395.85" r="4" fill="#0" id="circle63"/>
	<circle cx="216.424" cy="148.366" r="4" fill="#0" id="circle64"/>
	<circle cx="220.549" cy="323.667" r="4" fill="#0" id="circle65"/>
	<circle cx="222.611" cy="950.628" r="4" fill="#0" id="circle66"/>
	<circle cx="226.736" cy="127.742" r="4" fill="#0" id="circle67"/>
	<circle cx="228.798" cy="408.225" r="4" fill="#0" id="circle68"/>
	<circle cx="230.861" cy="342.229" r="4" fill="#0" id="circle69"/>
	<circle cx="232.923" cy="362.852" r="4" fill="#0" id="circle70"/>
	<circle cx="239.11" cy="426.786" r="4" fill="#0" id="circle71"/>
	<circle cx="239.11" cy="965.064" r="4" fill="#0" id="circle72"/>
	<circle cx="241.173" cy="102.994" r="4" fill="#0" id="circle73"/>
	<circle cx="241.173" cy="383.476" r="4" fill="#0" id="circle74"/>
	<circle cx="251.484" cy="82.3701" r="4" fill="#0" id="circle75"/>
	<circle cx="251.484" cy="402.037" r="4" fill="#0" id="circle76"/>
	<circle cx="251.484" cy="981.563" r="4" fill="#0" id="circle77"/>
	<circle cx="267.983" cy="996" r="4" fill="#0" id="circle78"/>
	<circle cx="272.108" cy="90.6195" r="4" fill="#0" id="circle79"/>
	<circle cx="274.17" cy="111.243" r="4" fill="#0" id="circle80"/>
	<circle cx="284.482" cy="129.805" r="4" fill="#0" id="circle81"/>
	<circle cx="288.607" cy="150.428" r="4" fill="#0" id="circle82"/>
	<circle cx="288.607" cy="996" r="4" fill="#0" id="circle83"/>
	<circle cx="298.919" cy="168.99" r="4" fill="#0" id="circle84"/>
	<circle cx="305.106" cy="189.613" r="4" fill="#0" id="circle85"/>
	<circle cx="309.231" cy="996" r="4" fill="#0" id="circle86"/>
	<circle cx="315.418" cy="208.175" r="4" fill="#0" id="circle87"/>
	<circle cx="315.418" cy="228.798" r="4" fill="#0" id="circle88"/>
	<circle cx="325.73" cy="247.36" r="4" fill="#0" id="circle89"/>
	<circle cx="325.73" cy="267.983" r="4" fill="#0" id="circle90"/>
	<circle cx="329.854" cy="996" r="4" fill="#0" id="circle91"/>
	<circle cx="333.979" cy="30.8108" r="4" fill="#0" id="circle92"/>
	<circle cx="333.979" cy="51.4345" r="4" fill="#0" id="circle93"/>
	<circle cx="336.042" cy="286.545" r="4" fill="#0" id="circle94"/>
	<circle cx="342.229" cy="307.168" r="4" fill="#0" id="circle95"/>
	<circle cx="344.291" cy="69.9958" r="4" fill="#0" id="circle96"/>
	<circle cx="344.291" cy="90.6195" r="4" fill="#0" id="circle97"/>
	<circle cx="346.353" cy="327.792" r="4" fill="#0" id="circle98"/>
	<circle cx="350.478" cy="14.3119" r="4" fill="#0" id="circle99"/>
	<circle cx="350.478" cy="996" r="4" fill="#0" id="circle100"/>
	<circle cx="352.541" cy="348.416" r="4" fill="#0" id="circle101"/>
	<circle cx="354.603" cy="109.181" r="4" fill="#0" id="circle102"/>
	<circle cx="354.603" cy="129.805" r="4" fill="#0" id="circle103"/>
	<circle cx="356.665" cy="369.04" r="4" fill="#0" id="circle104"/>
	<circle cx="362.852" cy="389.663" r="4" fill="#0" id="circle105"/>
	<circle cx="364.915" cy="148.366" r="4" fill="#0" id="circle106"/>
	<circle cx="364.915" cy="168.99" r="4" fill="#0" id="circle107"/>
	<circle cx="364.915" cy="189.613" r="4" fill="#0" id="circle108"/>
	<circle cx="364.915" cy="210.237" r="4" fill="#0" id="circle109"/>
	<circle cx="364.915" cy="230.861" r="4" fill="#0" id="circle110"/>
	<circle cx="369.04" cy="4" r="4" fill="#0" id="circle111"/>
	<circle cx="369.04" cy="251.484" r="4" fill="#0" id="circle112"/>
	<circle cx="371.102" cy="996" r="4" fill="#0" id="circle113"/>
	<circle cx="375.227" cy="272.108" r="4" fill="#0" id="circle114"/>
	<circle cx="383.476" cy="395.85" r="4" fill="#0" id="circle115"/>
	<circle cx="385.538" cy="290.669" r="4" fill="#0" id="circle116"/>
	<circle cx="385.538" cy="311.293" r="4" fill="#0" id="circle117"/>
	<circle cx="387.601" cy="14.3119" r="4" fill="#0" id="circle118"/>
	<circle cx="391.726" cy="996" r="4" fill="#0" id="circle119"/>
	<circle cx="395.85" cy="329.854" r="4" fill="#0" id="circle120"/>
	<circle cx="395.85" cy="350.478" r="4" fill="#0" id="circle121"/>
	<circle cx="395.85" cy="371.102" r="4" fill="#0" id="circle122"/>
	<circle cx="406.162" cy="24.6237" r="4" fill="#0" id="circle123"/>
	<circle cx="412.349" cy="996" r="4" fill="#0" id="circle124"/>
	<circle cx="426.786" cy="28.7484" r="4" fill="#0" id="circle125"/>
	<circle cx="432.973" cy="996" r="4" fill="#0" id="circle126"/>
	<circle cx="435.035" cy="49.3721" r="4" fill="#0" id="circle127"/>
	<circle cx="445.347" cy="67.9335" r="4" fill="#0" id="circle128"/>
	<circle cx="453.597" cy="996" r="4" fill="#0" id="circle129"/>
	<circle cx="459.784" cy="84.4324" r="4" fill="#0" id="circle130"/>
	<circle cx="459.784" cy="105.056" r="4" fill="#0" id="circle131"/>
	<circle cx="470.096" cy="123.617" r="4" fill="#0" id="circle132"/>
	<circle cx="470.096" cy="144.241" r="4" fill="#0" id="circle133"/>
	<circle cx="474.22" cy="996" r="4" fill="#0" id="circle134"/>
	<circle cx="478.345" cy="164.865" r="4" fill="#0" id="circle135"/>
	<circle cx="488.657" cy="183.426" r="4" fill="#0" id="circle136"/>
	<circle cx="490.719" cy="204.05" r="4" fill="#0" id="circle137"/>
	<circle cx="490.719" cy="224.674" r="4" fill="#0" id="circle138"/>
	<circle cx="494.844" cy="996" r="4" fill="#0" id="circle139"/>
	<circle cx="501.031" cy="243.235" r="4" fill="#0" id="circle140"/>
	<circle cx="501.031" cy="263.859" r="4" fill="#0" id="circle141"/>
	<circle cx="501.031" cy="284.482" r="4" fill="#0" id="circle142"/>
	<circle cx="511.343" cy="303.044" r="4" fill="#0" id="circle143"/>
	<circle cx="511.343" cy="323.667" r="4" fill="#0" id="circle144"/>
	<circle cx="511.343" cy="344.291" r="4" fill="#0" id="circle145"/>
	<circle cx="515.468" cy="996" r="4" fill="#0" id="circle146"/>
	<circle cx="521.655" cy="362.852" r="4" fill="#0" id="circle147"/>
	<circle cx="521.655" cy="383.476" r="4" fill="#0" id="circle148"/>
	<circle cx="531.967" cy="402.037" r="4" fill="#0" id="circle149"/>
	<circle cx="536.091" cy="996" r="4" fill="#0" id="circle150"/>
	<circle cx="540.216" cy="422.661" r="4" fill="#0" id="circle151"/>
	<circle cx="542.279" cy="443.285" r="4" fill="#0" id="circle152"/>
	<circle cx="550.528" cy="463.909" r="4" fill="#0" id="circle153"/>
	<circle cx="556.715" cy="996" r="4" fill="#0" id="circle154"/>
	<circle cx="562.902" cy="480.407" r="4" fill="#0" id="circle155"/>
	<circle cx="567.027" cy="501.031" r="4" fill="#0" id="circle156"/>
	<circle cx="577.339" cy="519.593" r="4" fill="#0" id="circle157"/>
	<circle cx="577.339" cy="996" r="4" fill="#0" id="circle158"/>
	<circle cx="583.526" cy="540.216" r="4" fill="#0" id="circle159"/>
	<circle cx="597.963" cy="996" r="4" fill="#0" id="circle160"/>
	<circle cx="600.025" cy="552.59" r="4" fill="#0" id="circle161"/>
	<circle cx="614.462" cy="569.089" r="4" fill="#0" id="circle162"/>
	<circle cx="618.586" cy="996" r="4" fill="#0" id="circle163"/>
	<circle cx="630.96" cy="583.526" r="4" fill="#0" id="circle164"/>
	<circle cx="639.21" cy="996" r="4" fill="#0" id="circle165"/>
	<circle cx="651.584" cy="591.775" r="4" fill="#0" id="circle166"/>
	<circle cx="659.834" cy="993.938" r="4" fill="#0" id="circle167"/>
	<circle cx="666.021" cy="954.753" r="4" fill="#0" id="circle168"/>
	<circle cx="670.146" cy="581.464" r="4" fill="#0" id="circle169"/>
	<circle cx="676.333" cy="923.817" r="4" fill="#0" id="circle170"/>
	<circle cx="680.457" cy="560.84" r="4" fill="#0" id="circle171"/>
	<circle cx="690.769" cy="540.216" r="4" fill="#0" id="circle172"/>
	<circle cx="694.894" cy="505.156" r="4" fill="#0" id="circle173"/>
	<circle cx="696.956" cy="913.505" r="4" fill="#0" id="circle174"/>
	<circle cx="705.206" cy="453.597" r="4" fill="#0" id="circle175"/>
	<circle cx="705.206" cy="474.22" r="4" fill="#0" id="circle176"/>
	<circle cx="713.455" cy="899.069" r="4" fill="#0" id="circle177"/>
	<circle cx="715.518" cy="391.726" r="4" fill="#0" id="circle178"/>
	<circle cx="715.518" cy="412.349" r="4" fill="#0" id="circle179"/>
	<circle cx="715.518" cy="432.973" r="4" fill="#0" id="circle180"/>
	<circle cx="723.767" cy="878.445" r="4" fill="#0" id="circle181"/>
	<circle cx="725.83" cy="371.102" r="4" fill="#0" id="circle182"/>
	<circle cx="727.892" cy="851.634" r="4" fill="#0" id="circle183"/>
	<circle cx="742.328" cy="354.603" r="4" fill="#0" id="circle184"/>
	<circle cx="744.391" cy="837.198" r="4" fill="#0" id="circle185"/>
	<circle cx="748.516" cy="789.763" r="4" fill="#0" id="circle186"/>
	<circle cx="748.516" cy="810.387" r="4" fill="#0" id="circle187"/>
	<circle cx="756.765" cy="329.854" r="4" fill="#0" id="circle188"/>
	<circle cx="758.827" cy="758.827" r="4" fill="#0" id="circle189"/>
	<circle cx="769.139" cy="738.204" r="4" fill="#0" id="circle190"/>
	<circle cx="773.264" cy="313.356" r="4" fill="#0" id="circle191"/>
	<circle cx="779.451" cy="717.58" r="4" fill="#0" id="circle192"/>
	<circle cx="789.763" cy="686.644" r="4" fill="#0" id="circle193"/>
	<circle cx="791.825" cy="303.044" r="4" fill="#0" id="circle194"/>
	<circle cx="800.075" cy="635.085" r="4" fill="#0" id="circle195"/>
	<circle cx="800.075" cy="655.709" r="4" fill="#0" id="circle196"/>
	<circle cx="810.387" cy="292.732" r="4" fill="#0" id="circle197"/>
	<circle cx="810.387" cy="573.214" r="4" fill="#0" id="circle198"/>
	<circle cx="810.387" cy="593.838" r="4" fill="#0" id="circle199"/>
	<circle cx="810.387" cy="614.462" r="4" fill="#0" id="circle200"/>
	<circle cx="820.699" cy="501.031" r="4" fill="#0" id="circle201"/>
	<circle cx="820.699" cy="521.655" r="4" fill="#0" id="circle202"/>
	<circle cx="820.699" cy="542.279" r="4" fill="#0" id="circle203"/>
	<circle cx="831.01" cy="292.732" r="4" fill="#0" id="circle204"/>
	<circle cx="837.198" cy="486.595" r="4" fill="#0" id="circle205"/>
	<circle cx="841.322" cy="366.977" r="4" fill="#0" id="circle206"/>
	<circle cx="841.322" cy="387.601" r="4" fill="#0" id="circle207"/>
	<circle cx="841.322" cy="408.225" r="4" fill="#0" id="circle208"/>
	<circle cx="841.322" cy="428.848" r="4" fill="#0" id="circle209"/>
	<circle cx="841.322" cy="449.472" r="4" fill="#0" id="circle210"/>
	<circle cx="847.509" cy="305.106" r="4" fill="#0" id="circle211"/>
	<circle cx="857.821" cy="352.541" r="4" fill="#0" id="circle212"/>
	<circle cx="861.946" cy="321.605" r="4" fill="#0" id="circle213"/>
	</g>
</svg>