<?xml version="1.0" encoding="UTF-8" standalone="no"?>
<!-- Created with CurveBenchmark -->
<svg
	xmlns:dc="http://purl.org/dc/elements/1.1/"
	xmlns:cc="http://creativecommons.org/ns#"
	xmlns:rdf="http://www.w3.org/1999/02/22-rdf-syntax-ns#"
	xmlns:svg="http://www.w3.org/2000/svg"
	xmlns="http://www.w3.org/2000/svg"
	xmlns:sodipodi="http://sodipodi.sourceforge.net/DTD/sodipodi-0.dtd"
	xmlns:inkscape="http://www.inkscape.org/namespaces/inkscape"
	width="1000"
	height="1000"
	id="svg2"
	version="1.1"
	sodipodi:docname="manifold/connect2d-textbox37.png.txt">
<defs
	id="defs4" />
<metadata
	id="metadata7">
	<rdf:RDF>
		<cc:Work
			rdf:about="">
			<dc:format>image/svg+xml</dc:format>
			<dc:type
				rdf:resource="http://purl.org/dc/dcmitype/StillImage" />
			<dc:title></dc:title>
		</cc:Work>
	</rdf:RDF>
</metadata>
<g
	inkscape:label="Layer 1"
	inkscape:groupmode="layer"
	id="layer1">
	<path style="fill:none;stroke:red;stroke-width:1px;stroke-linecap:butt;stroke-linejoin:miter;stroke-opacity:1" d="M 996,463.909 996,484.532 z" id="boundary" inkscape:connector-curvature="0" />
	<path style="fill:none;stroke:red;stroke-width:1px;stroke-linecap:butt;stroke-linejoin:miter;stroke-opacity:1" d="M 996,484.532 985.688,521.655 z" id="boundary" inkscape:connector-curvature="0" />
	<path style="fill:none;stroke:red;stroke-width:1px;stroke-linecap:butt;stroke-linejoin:miter;stroke-opacity:1" d="M 985.688,521.655 965.064,521.655 z" id="boundary" inkscape:connector-curvature="0" />
	<path style="fill:none;stroke:red;stroke-width:1px;stroke-linecap:butt;stroke-linejoin:miter;stroke-opacity:1" d="M 965.064,521.655 950.628,548.466 z" id="boundary" inkscape:connector-curvature="0" />
	<path style="fill:none;stroke:red;stroke-width:1px;stroke-linecap:butt;stroke-linejoin:miter;stroke-opacity:1" d="M 950.628,548.466 934.129,562.902 z" id="boundary" inkscape:connector-curvature="0" />
	<path style="fill:none;stroke:red;stroke-width:1px;stroke-linecap:butt;stroke-linejoin:miter;stroke-opacity:1" d="M 934.129,562.902 913.505,562.902 z" id="boundary" inkscape:connector-curvature="0" />
	<path style="fill:none;stroke:red;stroke-width:1px;stroke-linecap:butt;stroke-linejoin:miter;stroke-opacity:1" d="M 913.505,562.902 897.006,583.526 z" id="boundary" inkscape:connector-curvature="0" />
	<path style="fill:none;stroke:red;stroke-width:1px;stroke-linecap:butt;stroke-linejoin:miter;stroke-opacity:1" d="M 897.006,583.526 880.507,597.963 z" id="boundary" inkscape:connector-curvature="0" />
	<path style="fill:none;stroke:red;stroke-width:1px;stroke-linecap:butt;stroke-linejoin:miter;stroke-opacity:1" d="M 880.507,597.963 859.884,604.15 z" id="boundary" inkscape:connector-curvature="0" />
	<path style="fill:none;stroke:red;stroke-width:1px;stroke-linecap:butt;stroke-linejoin:miter;stroke-opacity:1" d="M 859.884,604.15 839.26,604.15 z" id="boundary" inkscape:connector-curvature="0" />
	<path style="fill:none;stroke:red;stroke-width:1px;stroke-linecap:butt;stroke-linejoin:miter;stroke-opacity:1" d="M 839.26,604.15 818.636,604.15 z" id="boundary" inkscape:connector-curvature="0" />
	<path style="fill:none;stroke:red;stroke-width:1px;stroke-linecap:butt;stroke-linejoin:miter;stroke-opacity:1" d="M 818.636,604.15 798.012,604.15 z" id="boundary" inkscape:connector-curvature="0" />
	<path style="fill:none;stroke:red;stroke-width:1px;stroke-linecap:butt;stroke-linejoin:miter;stroke-opacity:1" d="M 798.012,604.15 777.389,604.15 z" id="boundary" inkscape:connector-curvature="0" />
	<path style="fill:none;stroke:red;stroke-width:1px;stroke-linecap:butt;stroke-linejoin:miter;stroke-opacity:1" d="M 777.389,604.15 756.765,604.15 z" id="boundary" inkscape:connector-curvature="0" />
	<path style="fill:none;stroke:red;stroke-width:1px;stroke-linecap:butt;stroke-linejoin:miter;stroke-opacity:1" d="M 756.765,604.15 736.141,604.15 z" id="boundary" inkscape:connector-curvature="0" />
	<path style="fill:none;stroke:red;stroke-width:1px;stroke-linecap:butt;stroke-linejoin:miter;stroke-opacity:1" d="M 736.141,604.15 715.518,604.15 z" id="boundary" inkscape:connector-curvature="0" />
	<path style="fill:none;stroke:red;stroke-width:1px;stroke-linecap:butt;stroke-linejoin:miter;stroke-opacity:1" d="M 715.518,604.15 694.894,604.15 z" id="boundary" inkscape:connector-curvature="0" />
	<path style="fill:none;stroke:red;stroke-width:1px;stroke-linecap:butt;stroke-linejoin:miter;stroke-opacity:1" d="M 694.894,604.15 674.27,604.15 z" id="boundary" inkscape:connector-curvature="0" />
	<path style="fill:none;stroke:red;stroke-width:1px;stroke-linecap:butt;stroke-linejoin:miter;stroke-opacity:1" d="M 674.27,604.15 653.647,604.15 z" id="boundary" inkscape:connector-curvature="0" />
	<path style="fill:none;stroke:red;stroke-width:1px;stroke-linecap:butt;stroke-linejoin:miter;stroke-opacity:1" d="M 653.647,604.15 633.023,604.15 z" id="boundary" inkscape:connector-curvature="0" />
	<path style="fill:none;stroke:red;stroke-width:1px;stroke-linecap:butt;stroke-linejoin:miter;stroke-opacity:1" d="M 633.023,604.15 612.399,604.15 z" id="boundary" inkscape:connector-curvature="0" />
	<path style="fill:none;stroke:red;stroke-width:1px;stroke-linecap:butt;stroke-linejoin:miter;stroke-opacity:1" d="M 612.399,604.15 591.775,604.15 z" id="boundary" inkscape:connector-curvature="0" />
	<path style="fill:none;stroke:red;stroke-width:1px;stroke-linecap:butt;stroke-linejoin:miter;stroke-opacity:1" d="M 591.775,604.15 573.214,614.462 z" id="boundary" inkscape:connector-curvature="0" />
	<path style="fill:none;stroke:red;stroke-width:1px;stroke-linecap:butt;stroke-linejoin:miter;stroke-opacity:1" d="M 573.214,614.462 552.59,614.462 z" id="boundary" inkscape:connector-curvature="0" />
	<path style="fill:none;stroke:red;stroke-width:1px;stroke-linecap:butt;stroke-linejoin:miter;stroke-opacity:1" d="M 552.59,614.462 531.967,614.462 z" id="boundary" inkscape:connector-curvature="0" />
	<path style="fill:none;stroke:red;stroke-width:1px;stroke-linecap:butt;stroke-linejoin:miter;stroke-opacity:1" d="M 531.967,614.462 511.343,614.462 z" id="boundary" inkscape:connector-curvature="0" />
	<path style="fill:none;stroke:red;stroke-width:1px;stroke-linecap:butt;stroke-linejoin:miter;stroke-opacity:1" d="M 511.343,614.462 490.719,614.462 z" id="boundary" inkscape:connector-curvature="0" />
	<path style="fill:none;stroke:red;stroke-width:1px;stroke-linecap:butt;stroke-linejoin:miter;stroke-opacity:1" d="M 490.719,614.462 470.096,614.462 z" id="boundary" inkscape:connector-curvature="0" />
	<path style="fill:none;stroke:red;stroke-width:1px;stroke-linecap:butt;stroke-linejoin:miter;stroke-opacity:1" d="M 470.096,614.462 449.472,614.462 z" id="boundary" inkscape:connector-curvature="0" />
	<path style="fill:none;stroke:red;stroke-width:1px;stroke-linecap:butt;stroke-linejoin:miter;stroke-opacity:1" d="M 449.472,614.462 449.472,635.085 z" id="boundary" inkscape:connector-curvature="0" />
	<path style="fill:none;stroke:red;stroke-width:1px;stroke-linecap:butt;stroke-linejoin:miter;stroke-opacity:1" d="M 449.472,635.085 459.784,653.647 z" id="boundary" inkscape:connector-curvature="0" />
	<path style="fill:none;stroke:red;stroke-width:1px;stroke-linecap:butt;stroke-linejoin:miter;stroke-opacity:1" d="M 459.784,653.647 459.784,674.27 z" id="boundary" inkscape:connector-curvature="0" />
	<path style="fill:none;stroke:red;stroke-width:1px;stroke-linecap:butt;stroke-linejoin:miter;stroke-opacity:1" d="M 459.784,674.27 459.784,694.894 z" id="boundary" inkscape:connector-curvature="0" />
	<path style="fill:none;stroke:red;stroke-width:1px;stroke-linecap:butt;stroke-linejoin:miter;stroke-opacity:1" d="M 459.784,694.894 470.096,713.455 z" id="boundary" inkscape:connector-curvature="0" />
	<path style="fill:none;stroke:red;stroke-width:1px;stroke-linecap:butt;stroke-linejoin:miter;stroke-opacity:1" d="M 470.096,713.455 470.096,734.079 z" id="boundary" inkscape:connector-curvature="0" />
	<path style="fill:none;stroke:red;stroke-width:1px;stroke-linecap:butt;stroke-linejoin:miter;stroke-opacity:1" d="M 470.096,734.079 470.096,754.703 z" id="boundary" inkscape:connector-curvature="0" />
	<path style="fill:none;stroke:red;stroke-width:1px;stroke-linecap:butt;stroke-linejoin:miter;stroke-opacity:1" d="M 470.096,754.703 480.407,773.264 z" id="boundary" inkscape:connector-curvature="0" />
	<path style="fill:none;stroke:red;stroke-width:1px;stroke-linecap:butt;stroke-linejoin:miter;stroke-opacity:1" d="M 480.407,773.264 490.719,791.825 z" id="boundary" inkscape:connector-curvature="0" />
	<path style="fill:none;stroke:red;stroke-width:1px;stroke-linecap:butt;stroke-linejoin:miter;stroke-opacity:1" d="M 490.719,791.825 490.719,812.449 z" id="boundary" inkscape:connector-curvature="0" />
	<path style="fill:none;stroke:red;stroke-width:1px;stroke-linecap:butt;stroke-linejoin:miter;stroke-opacity:1" d="M 490.719,812.449 488.657,835.135 z" id="boundary" inkscape:connector-curvature="0" />
	<path style="fill:none;stroke:red;stroke-width:1px;stroke-linecap:butt;stroke-linejoin:miter;stroke-opacity:1" d="M 488.657,835.135 468.033,835.135 z" id="boundary" inkscape:connector-curvature="0" />
	<path style="fill:none;stroke:red;stroke-width:1px;stroke-linecap:butt;stroke-linejoin:miter;stroke-opacity:1" d="M 468.033,835.135 457.721,816.574 z" id="boundary" inkscape:connector-curvature="0" />
	<path style="fill:none;stroke:red;stroke-width:1px;stroke-linecap:butt;stroke-linejoin:miter;stroke-opacity:1" d="M 457.721,816.574 443.285,800.075 z" id="boundary" inkscape:connector-curvature="0" />
	<path style="fill:none;stroke:red;stroke-width:1px;stroke-linecap:butt;stroke-linejoin:miter;stroke-opacity:1" d="M 443.285,800.075 424.723,789.763 z" id="boundary" inkscape:connector-curvature="0" />
	<path style="fill:none;stroke:red;stroke-width:1px;stroke-linecap:butt;stroke-linejoin:miter;stroke-opacity:1" d="M 424.723,789.763 408.225,775.326 z" id="boundary" inkscape:connector-curvature="0" />
	<path style="fill:none;stroke:red;stroke-width:1px;stroke-linecap:butt;stroke-linejoin:miter;stroke-opacity:1" d="M 408.225,775.326 389.663,765.015 z" id="boundary" inkscape:connector-curvature="0" />
	<path style="fill:none;stroke:red;stroke-width:1px;stroke-linecap:butt;stroke-linejoin:miter;stroke-opacity:1" d="M 389.663,765.015 377.289,748.516 z" id="boundary" inkscape:connector-curvature="0" />
	<path style="fill:none;stroke:red;stroke-width:1px;stroke-linecap:butt;stroke-linejoin:miter;stroke-opacity:1" d="M 377.289,748.516 356.665,742.328 z" id="boundary" inkscape:connector-curvature="0" />
	<path style="fill:none;stroke:red;stroke-width:1px;stroke-linecap:butt;stroke-linejoin:miter;stroke-opacity:1" d="M 356.665,742.328 340.166,727.892 z" id="boundary" inkscape:connector-curvature="0" />
	<path style="fill:none;stroke:red;stroke-width:1px;stroke-linecap:butt;stroke-linejoin:miter;stroke-opacity:1" d="M 340.166,727.892 319.543,727.892 z" id="boundary" inkscape:connector-curvature="0" />
	<path style="fill:none;stroke:red;stroke-width:1px;stroke-linecap:butt;stroke-linejoin:miter;stroke-opacity:1" d="M 319.543,727.892 313.356,707.268 z" id="boundary" inkscape:connector-curvature="0" />
	<path style="fill:none;stroke:red;stroke-width:1px;stroke-linecap:butt;stroke-linejoin:miter;stroke-opacity:1" d="M 313.356,707.268 294.794,696.956 z" id="boundary" inkscape:connector-curvature="0" />
	<path style="fill:none;stroke:red;stroke-width:1px;stroke-linecap:butt;stroke-linejoin:miter;stroke-opacity:1" d="M 294.794,696.956 274.17,690.769 z" id="boundary" inkscape:connector-curvature="0" />
	<path style="fill:none;stroke:red;stroke-width:1px;stroke-linecap:butt;stroke-linejoin:miter;stroke-opacity:1" d="M 274.17,690.769 257.672,676.333 z" id="boundary" inkscape:connector-curvature="0" />
	<path style="fill:none;stroke:red;stroke-width:1px;stroke-linecap:butt;stroke-linejoin:miter;stroke-opacity:1" d="M 257.672,676.333 249.422,655.709 z" id="boundary" inkscape:connector-curvature="0" />
	<path style="fill:none;stroke:red;stroke-width:1px;stroke-linecap:butt;stroke-linejoin:miter;stroke-opacity:1" d="M 249.422,655.709 230.861,645.397 z" id="boundary" inkscape:connector-curvature="0" />
	<path style="fill:none;stroke:red;stroke-width:1px;stroke-linecap:butt;stroke-linejoin:miter;stroke-opacity:1" d="M 230.861,645.397 220.549,626.836 z" id="boundary" inkscape:connector-curvature="0" />
	<path style="fill:none;stroke:red;stroke-width:1px;stroke-linecap:butt;stroke-linejoin:miter;stroke-opacity:1" d="M 220.549,626.836 204.05,614.462 z" id="boundary" inkscape:connector-curvature="0" />
	<path style="fill:none;stroke:red;stroke-width:1px;stroke-linecap:butt;stroke-linejoin:miter;stroke-opacity:1" d="M 204.05,614.462 183.426,614.462 z" id="boundary" inkscape:connector-curvature="0" />
	<path style="fill:none;stroke:red;stroke-width:1px;stroke-linecap:butt;stroke-linejoin:miter;stroke-opacity:1" d="M 183.426,614.462 162.802,614.462 z" id="boundary" inkscape:connector-curvature="0" />
	<path style="fill:none;stroke:red;stroke-width:1px;stroke-linecap:butt;stroke-linejoin:miter;stroke-opacity:1" d="M 162.802,614.462 142.179,614.462 z" id="boundary" inkscape:connector-curvature="0" />
	<path style="fill:none;stroke:red;stroke-width:1px;stroke-linecap:butt;stroke-linejoin:miter;stroke-opacity:1" d="M 142.179,614.462 121.555,614.462 z" id="boundary" inkscape:connector-curvature="0" />
	<path style="fill:none;stroke:red;stroke-width:1px;stroke-linecap:butt;stroke-linejoin:miter;stroke-opacity:1" d="M 121.555,614.462 100.931,612.399 z" id="boundary" inkscape:connector-curvature="0" />
	<path style="fill:none;stroke:red;stroke-width:1px;stroke-linecap:butt;stroke-linejoin:miter;stroke-opacity:1" d="M 100.931,612.399 86.4948,595.9 z" id="boundary" inkscape:connector-curvature="0" />
	<path style="fill:none;stroke:red;stroke-width:1px;stroke-linecap:butt;stroke-linejoin:miter;stroke-opacity:1" d="M 86.4948,595.9 69.9958,583.526 z" id="boundary" inkscape:connector-curvature="0" />
	<path style="fill:none;stroke:red;stroke-width:1px;stroke-linecap:butt;stroke-linejoin:miter;stroke-opacity:1" d="M 69.9958,583.526 49.3721,581.464 z" id="boundary" inkscape:connector-curvature="0" />
	<path style="fill:none;stroke:red;stroke-width:1px;stroke-linecap:butt;stroke-linejoin:miter;stroke-opacity:1" d="M 49.3721,581.464 41.1227,560.84 z" id="boundary" inkscape:connector-curvature="0" />
	<path style="fill:none;stroke:red;stroke-width:1px;stroke-linecap:butt;stroke-linejoin:miter;stroke-opacity:1" d="M 41.1227,560.84 30.8108,542.279 z" id="boundary" inkscape:connector-curvature="0" />
	<path style="fill:none;stroke:red;stroke-width:1px;stroke-linecap:butt;stroke-linejoin:miter;stroke-opacity:1" d="M 30.8108,542.279 24.6237,521.655 z" id="boundary" inkscape:connector-curvature="0" />
	<path style="fill:none;stroke:red;stroke-width:1px;stroke-linecap:butt;stroke-linejoin:miter;stroke-opacity:1" d="M 24.6237,521.655 24.6237,501.031 z" id="boundary" inkscape:connector-curvature="0" />
	<path style="fill:none;stroke:red;stroke-width:1px;stroke-linecap:butt;stroke-linejoin:miter;stroke-opacity:1" d="M 24.6237,501.031 24.6237,480.407 z" id="boundary" inkscape:connector-curvature="0" />
	<path style="fill:none;stroke:red;stroke-width:1px;stroke-linecap:butt;stroke-linejoin:miter;stroke-opacity:1" d="M 24.6237,480.407 24.6237,459.784 z" id="boundary" inkscape:connector-curvature="0" />
	<path style="fill:none;stroke:red;stroke-width:1px;stroke-linecap:butt;stroke-linejoin:miter;stroke-opacity:1" d="M 24.6237,459.784 24.6237,439.16 z" id="boundary" inkscape:connector-curvature="0" />
	<path style="fill:none;stroke:red;stroke-width:1px;stroke-linecap:butt;stroke-linejoin:miter;stroke-opacity:1" d="M 24.6237,439.16 24.6237,418.536 z" id="boundary" inkscape:connector-curvature="0" />
	<path style="fill:none;stroke:red;stroke-width:1px;stroke-linecap:butt;stroke-linejoin:miter;stroke-opacity:1" d="M 24.6237,418.536 24.6237,397.913 z" id="boundary" inkscape:connector-curvature="0" />
	<path style="fill:none;stroke:red;stroke-width:1px;stroke-linecap:butt;stroke-linejoin:miter;stroke-opacity:1" d="M 24.6237,397.913 24.6237,377.289 z" id="boundary" inkscape:connector-curvature="0" />
	<path style="fill:none;stroke:red;stroke-width:1px;stroke-linecap:butt;stroke-linejoin:miter;stroke-opacity:1" d="M 24.6237,377.289 24.6237,356.665 z" id="boundary" inkscape:connector-curvature="0" />
	<path style="fill:none;stroke:red;stroke-width:1px;stroke-linecap:butt;stroke-linejoin:miter;stroke-opacity:1" d="M 24.6237,356.665 24.6237,336.042 z" id="boundary" inkscape:connector-curvature="0" />
	<path style="fill:none;stroke:red;stroke-width:1px;stroke-linecap:butt;stroke-linejoin:miter;stroke-opacity:1" d="M 24.6237,336.042 24.6237,315.418 z" id="boundary" inkscape:connector-curvature="0" />
	<path style="fill:none;stroke:red;stroke-width:1px;stroke-linecap:butt;stroke-linejoin:miter;stroke-opacity:1" d="M 24.6237,315.418 4,309.231 z" id="boundary" inkscape:connector-curvature="0" />
	<path style="fill:none;stroke:red;stroke-width:1px;stroke-linecap:butt;stroke-linejoin:miter;stroke-opacity:1" d="M 4,309.231 4,288.607 z" id="boundary" inkscape:connector-curvature="0" />
	<path style="fill:none;stroke:red;stroke-width:1px;stroke-linecap:butt;stroke-linejoin:miter;stroke-opacity:1" d="M 4,288.607 4,267.983 z" id="boundary" inkscape:connector-curvature="0" />
	<path style="fill:none;stroke:red;stroke-width:1px;stroke-linecap:butt;stroke-linejoin:miter;stroke-opacity:1" d="M 4,267.983 4,247.36 z" id="boundary" inkscape:connector-curvature="0" />
	<path style="fill:none;stroke:red;stroke-width:1px;stroke-linecap:butt;stroke-linejoin:miter;stroke-opacity:1" d="M 4,247.36 4,226.736 z" id="boundary" inkscape:connector-curvature="0" />
	<path style="fill:none;stroke:red;stroke-width:1px;stroke-linecap:butt;stroke-linejoin:miter;stroke-opacity:1" d="M 4,226.736 4,206.112 z" id="boundary" inkscape:connector-curvature="0" />
	<path style="fill:none;stroke:red;stroke-width:1px;stroke-linecap:butt;stroke-linejoin:miter;stroke-opacity:1" d="M 4,206.112 4,185.489 z" id="boundary" inkscape:connector-curvature="0" />
	<path style="fill:none;stroke:red;stroke-width:1px;stroke-linecap:butt;stroke-linejoin:miter;stroke-opacity:1" d="M 4,185.489 4,164.865 z" id="boundary" inkscape:connector-curvature="0" />
	<path style="fill:none;stroke:red;stroke-width:1px;stroke-linecap:butt;stroke-linejoin:miter;stroke-opacity:1" d="M 4,164.865 4,144.241 z" id="boundary" inkscape:connector-curvature="0" />
	<path style="fill:none;stroke:red;stroke-width:1px;stroke-linecap:butt;stroke-linejoin:miter;stroke-opacity:1" d="M 4,144.241 4,123.617 z" id="boundary" inkscape:connector-curvature="0" />
	<path style="fill:none;stroke:red;stroke-width:1px;stroke-linecap:butt;stroke-linejoin:miter;stroke-opacity:1" d="M 4,123.617 24.6237,113.306 z" id="boundary" inkscape:connector-curvature="0" />
	<path style="fill:none;stroke:red;stroke-width:1px;stroke-linecap:butt;stroke-linejoin:miter;stroke-opacity:1" d="M 24.6237,113.306 24.6237,92.6819 z" id="boundary" inkscape:connector-curvature="0" />
	<path style="fill:none;stroke:red;stroke-width:1px;stroke-linecap:butt;stroke-linejoin:miter;stroke-opacity:1" d="M 24.6237,92.6819 41.1227,76.183 z" id="boundary" inkscape:connector-curvature="0" />
	<path style="fill:none;stroke:red;stroke-width:1px;stroke-linecap:butt;stroke-linejoin:miter;stroke-opacity:1" d="M 41.1227,76.183 61.7464,76.183 z" id="boundary" inkscape:connector-curvature="0" />
	<path style="fill:none;stroke:red;stroke-width:1px;stroke-linecap:butt;stroke-linejoin:miter;stroke-opacity:1" d="M 61.7464,76.183 78.2453,59.684 z" id="boundary" inkscape:connector-curvature="0" />
	<path style="fill:none;stroke:red;stroke-width:1px;stroke-linecap:butt;stroke-linejoin:miter;stroke-opacity:1" d="M 78.2453,59.684 98.869,49.3721 z" id="boundary" inkscape:connector-curvature="0" />
	<path style="fill:none;stroke:red;stroke-width:1px;stroke-linecap:butt;stroke-linejoin:miter;stroke-opacity:1" d="M 98.869,49.3721 119.493,45.2474 z" id="boundary" inkscape:connector-curvature="0" />
	<path style="fill:none;stroke:red;stroke-width:1px;stroke-linecap:butt;stroke-linejoin:miter;stroke-opacity:1" d="M 119.493,45.2474 140.116,45.2474 z" id="boundary" inkscape:connector-curvature="0" />
	<path style="fill:none;stroke:red;stroke-width:1px;stroke-linecap:butt;stroke-linejoin:miter;stroke-opacity:1" d="M 140.116,45.2474 160.74,45.2474 z" id="boundary" inkscape:connector-curvature="0" />
	<path style="fill:none;stroke:red;stroke-width:1px;stroke-linecap:butt;stroke-linejoin:miter;stroke-opacity:1" d="M 160.74,45.2474 181.364,45.2474 z" id="boundary" inkscape:connector-curvature="0" />
	<path style="fill:none;stroke:red;stroke-width:1px;stroke-linecap:butt;stroke-linejoin:miter;stroke-opacity:1" d="M 181.364,45.2474 201.988,45.2474 z" id="boundary" inkscape:connector-curvature="0" />
	<path style="fill:none;stroke:red;stroke-width:1px;stroke-linecap:butt;stroke-linejoin:miter;stroke-opacity:1" d="M 201.988,45.2474 222.611,45.2474 z" id="boundary" inkscape:connector-curvature="0" />
	<path style="fill:none;stroke:red;stroke-width:1px;stroke-linecap:butt;stroke-linejoin:miter;stroke-opacity:1" d="M 222.611,45.2474 243.235,45.2474 z" id="boundary" inkscape:connector-curvature="0" />
	<path style="fill:none;stroke:red;stroke-width:1px;stroke-linecap:butt;stroke-linejoin:miter;stroke-opacity:1" d="M 243.235,45.2474 263.859,45.2474 z" id="boundary" inkscape:connector-curvature="0" />
	<path style="fill:none;stroke:red;stroke-width:1px;stroke-linecap:butt;stroke-linejoin:miter;stroke-opacity:1" d="M 263.859,45.2474 284.482,45.2474 z" id="boundary" inkscape:connector-curvature="0" />
	<path style="fill:none;stroke:red;stroke-width:1px;stroke-linecap:butt;stroke-linejoin:miter;stroke-opacity:1" d="M 284.482,45.2474 305.106,45.2474 z" id="boundary" inkscape:connector-curvature="0" />
	<path style="fill:none;stroke:red;stroke-width:1px;stroke-linecap:butt;stroke-linejoin:miter;stroke-opacity:1" d="M 305.106,45.2474 325.73,45.2474 z" id="boundary" inkscape:connector-curvature="0" />
	<path style="fill:none;stroke:red;stroke-width:1px;stroke-linecap:butt;stroke-linejoin:miter;stroke-opacity:1" d="M 325.73,45.2474 346.353,45.2474 z" id="boundary" inkscape:connector-curvature="0" />
	<path style="fill:none;stroke:red;stroke-width:1px;stroke-linecap:butt;stroke-linejoin:miter;stroke-opacity:1" d="M 346.353,45.2474 364.915,34.9356 z" id="boundary" inkscape:connector-curvature="0" />
	<path style="fill:none;stroke:red;stroke-width:1px;stroke-linecap:butt;stroke-linejoin:miter;stroke-opacity:1" d="M 364.915,34.9356 385.538,34.9356 z" id="boundary" inkscape:connector-curvature="0" />
	<path style="fill:none;stroke:red;stroke-width:1px;stroke-linecap:butt;stroke-linejoin:miter;stroke-opacity:1" d="M 385.538,34.9356 406.162,34.9356 z" id="boundary" inkscape:connector-curvature="0" />
	<path style="fill:none;stroke:red;stroke-width:1px;stroke-linecap:butt;stroke-linejoin:miter;stroke-opacity:1" d="M 406.162,34.9356 426.786,34.9356 z" id="boundary" inkscape:connector-curvature="0" />
	<path style="fill:none;stroke:red;stroke-width:1px;stroke-linecap:butt;stroke-linejoin:miter;stroke-opacity:1" d="M 426.786,34.9356 447.41,34.9356 z" id="boundary" inkscape:connector-curvature="0" />
	<path style="fill:none;stroke:red;stroke-width:1px;stroke-linecap:butt;stroke-linejoin:miter;stroke-opacity:1" d="M 447.41,34.9356 468.033,34.9356 z" id="boundary" inkscape:connector-curvature="0" />
	<path style="fill:none;stroke:red;stroke-width:1px;stroke-linecap:butt;stroke-linejoin:miter;stroke-opacity:1" d="M 468.033,34.9356 488.657,34.9356 z" id="boundary" inkscape:connector-curvature="0" />
	<path style="fill:none;stroke:red;stroke-width:1px;stroke-linecap:butt;stroke-linejoin:miter;stroke-opacity:1" d="M 488.657,34.9356 509.281,34.9356 z" id="boundary" inkscape:connector-curvature="0" />
	<path style="fill:none;stroke:red;stroke-width:1px;stroke-linecap:butt;stroke-linejoin:miter;stroke-opacity:1" d="M 509.281,34.9356 529.904,34.9356 z" id="boundary" inkscape:connector-curvature="0" />
	<path style="fill:none;stroke:red;stroke-width:1px;stroke-linecap:butt;stroke-linejoin:miter;stroke-opacity:1" d="M 529.904,34.9356 550.528,34.9356 z" id="boundary" inkscape:connector-curvature="0" />
	<path style="fill:none;stroke:red;stroke-width:1px;stroke-linecap:butt;stroke-linejoin:miter;stroke-opacity:1" d="M 550.528,34.9356 571.152,34.9356 z" id="boundary" inkscape:connector-curvature="0" />
	<path style="fill:none;stroke:red;stroke-width:1px;stroke-linecap:butt;stroke-linejoin:miter;stroke-opacity:1" d="M 571.152,34.9356 591.775,34.9356 z" id="boundary" inkscape:connector-curvature="0" />
	<path style="fill:none;stroke:red;stroke-width:1px;stroke-linecap:butt;stroke-linejoin:miter;stroke-opacity:1" d="M 591.775,34.9356 612.399,34.9356 z" id="boundary" inkscape:connector-curvature="0" />
	<path style="fill:none;stroke:red;stroke-width:1px;stroke-linecap:butt;stroke-linejoin:miter;stroke-opacity:1" d="M 612.399,34.9356 633.023,34.9356 z" id="boundary" inkscape:connector-curvature="0" />
	<path style="fill:none;stroke:red;stroke-width:1px;stroke-linecap:butt;stroke-linejoin:miter;stroke-opacity:1" d="M 633.023,34.9356 653.647,34.9356 z" id="boundary" inkscape:connector-curvature="0" />
	<path style="fill:none;stroke:red;stroke-width:1px;stroke-linecap:butt;stroke-linejoin:miter;stroke-opacity:1" d="M 653.647,34.9356 674.27,34.9356 z" id="boundary" inkscape:connector-curvature="0" />
	<path style="fill:none;stroke:red;stroke-width:1px;stroke-linecap:butt;stroke-linejoin:miter;stroke-opacity:1" d="M 674.27,34.9356 694.894,34.9356 z" id="boundary" inkscape:connector-curvature="0" />
	<path style="fill:none;stroke:red;stroke-width:1px;stroke-linecap:butt;stroke-linejoin:miter;stroke-opacity:1" d="M 694.894,34.9356 715.518,34.9356 z" id="boundary" inkscape:connector-curvature="0" />
	<path style="fill:none;stroke:red;stroke-width:1px;stroke-linecap:butt;stroke-linejoin:miter;stroke-opacity:1" d="M 715.518,34.9356 736.141,34.9356 z" id="boundary" inkscape:connector-curvature="0" />
	<path style="fill:none;stroke:red;stroke-width:1px;stroke-linecap:butt;stroke-linejoin:miter;stroke-opacity:1" d="M 736.141,34.9356 756.765,34.9356 z" id="boundary" inkscape:connector-curvature="0" />
	<path style="fill:none;stroke:red;stroke-width:1px;stroke-linecap:butt;stroke-linejoin:miter;stroke-opacity:1" d="M 756.765,34.9356 777.389,30.8108 z" id="boundary" inkscape:connector-curvature="0" />
	<path style="fill:none;stroke:red;stroke-width:1px;stroke-linecap:butt;stroke-linejoin:miter;stroke-opacity:1" d="M 777.389,30.8108 777.389,10.1871 z" id="boundary" inkscape:connector-curvature="0" />
	<path style="fill:none;stroke:red;stroke-width:1px;stroke-linecap:butt;stroke-linejoin:miter;stroke-opacity:1" d="M 777.389,10.1871 798.012,4 z" id="boundary" inkscape:connector-curvature="0" />
	<path style="fill:none;stroke:red;stroke-width:1px;stroke-linecap:butt;stroke-linejoin:miter;stroke-opacity:1" d="M 798.012,4 818.636,4 z" id="boundary" inkscape:connector-curvature="0" />
	<path style="fill:none;stroke:red;stroke-width:1px;stroke-linecap:butt;stroke-linejoin:miter;stroke-opacity:1" d="M 818.636,4 839.26,4 z" id="boundary" inkscape:connector-curvature="0" />
	<path style="fill:none;stroke:red;stroke-width:1px;stroke-linecap:butt;stroke-linejoin:miter;stroke-opacity:1" d="M 839.26,4 859.884,4 z" id="boundary" inkscape:connector-curvature="0" />
	<path style="fill:none;stroke:red;stroke-width:1px;stroke-linecap:butt;stroke-linejoin:miter;stroke-opacity:1" d="M 859.884,4 880.507,8.12474 z" id="boundary" inkscape:connector-curvature="0" />
	<path style="fill:none;stroke:red;stroke-width:1px;stroke-linecap:butt;stroke-linejoin:miter;stroke-opacity:1" d="M 880.507,8.12474 882.57,28.7484 z" id="boundary" inkscape:connector-curvature="0" />
	<path style="fill:none;stroke:red;stroke-width:1px;stroke-linecap:butt;stroke-linejoin:miter;stroke-opacity:1" d="M 882.57,28.7484 903.193,34.9356 z" id="boundary" inkscape:connector-curvature="0" />
	<path style="fill:none;stroke:red;stroke-width:1px;stroke-linecap:butt;stroke-linejoin:miter;stroke-opacity:1" d="M 903.193,34.9356 921.755,45.2474 z" id="boundary" inkscape:connector-curvature="0" />
	<path style="fill:none;stroke:red;stroke-width:1px;stroke-linecap:butt;stroke-linejoin:miter;stroke-opacity:1" d="M 921.755,45.2474 942.378,49.3721 z" id="boundary" inkscape:connector-curvature="0" />
	<path style="fill:none;stroke:red;stroke-width:1px;stroke-linecap:butt;stroke-linejoin:miter;stroke-opacity:1" d="M 942.378,49.3721 954.753,65.8711 z" id="boundary" inkscape:connector-curvature="0" />
	<path style="fill:none;stroke:red;stroke-width:1px;stroke-linecap:butt;stroke-linejoin:miter;stroke-opacity:1" d="M 954.753,65.8711 965.064,84.4324 z" id="boundary" inkscape:connector-curvature="0" />
	<path style="fill:none;stroke:red;stroke-width:1px;stroke-linecap:butt;stroke-linejoin:miter;stroke-opacity:1" d="M 965.064,84.4324 981.563,96.8067 z" id="boundary" inkscape:connector-curvature="0" />
	<path style="fill:none;stroke:red;stroke-width:1px;stroke-linecap:butt;stroke-linejoin:miter;stroke-opacity:1" d="M 981.563,96.8067 996,113.306 z" id="boundary" inkscape:connector-curvature="0" />
	<path style="fill:none;stroke:red;stroke-width:1px;stroke-linecap:butt;stroke-linejoin:miter;stroke-opacity:1" d="M 996,113.306 996,133.929 z" id="boundary" inkscape:connector-curvature="0" />
	<path style="fill:none;stroke:red;stroke-width:1px;stroke-linecap:butt;stroke-linejoin:miter;stroke-opacity:1" d="M 996,133.929 996,154.553 z" id="boundary" inkscape:connector-curvature="0" />
	<path style="fill:none;stroke:red;stroke-width:1px;stroke-linecap:butt;stroke-linejoin:miter;stroke-opacity:1" d="M 996,154.553 996,175.177 z" id="boundary" inkscape:connector-curvature="0" />
	<path style="fill:none;stroke:red;stroke-width:1px;stroke-linecap:butt;stroke-linejoin:miter;stroke-opacity:1" d="M 996,175.177 996,195.8 z" id="boundary" inkscape:connector-curvature="0" />
	<path style="fill:none;stroke:red;stroke-width:1px;stroke-linecap:butt;stroke-linejoin:miter;stroke-opacity:1" d="M 996,195.8 996,216.424 z" id="boundary" inkscape:connector-curvature="0" />
	<path style="fill:none;stroke:red;stroke-width:1px;stroke-linecap:butt;stroke-linejoin:miter;stroke-opacity:1" d="M 996,216.424 996,237.048 z" id="boundary" inkscape:connector-curvature="0" />
	<path style="fill:none;stroke:red;stroke-width:1px;stroke-linecap:butt;stroke-linejoin:miter;stroke-opacity:1" d="M 996,237.048 996,257.672 z" id="boundary" inkscape:connector-curvature="0" />
	<path style="fill:none;stroke:red;stroke-width:1px;stroke-linecap:butt;stroke-linejoin:miter;stroke-opacity:1" d="M 996,257.672 996,278.295 z" id="boundary" inkscape:connector-curvature="0" />
	<path style="fill:none;stroke:red;stroke-width:1px;stroke-linecap:butt;stroke-linejoin:miter;stroke-opacity:1" d="M 996,278.295 996,298.919 z" id="boundary" inkscape:connector-curvature="0" />
	<path style="fill:none;stroke:red;stroke-width:1px;stroke-linecap:butt;stroke-linejoin:miter;stroke-opacity:1" d="M 996,298.919 996,319.543 z" id="boundary" inkscape:connector-curvature="0" />
	<path style="fill:none;stroke:red;stroke-width:1px;stroke-linecap:butt;stroke-linejoin:miter;stroke-opacity:1" d="M 996,319.543 996,340.166 z" id="boundary" inkscape:connector-curvature="0" />
	<path style="fill:none;stroke:red;stroke-width:1px;stroke-linecap:butt;stroke-linejoin:miter;stroke-opacity:1" d="M 996,340.166 996,360.79 z" id="boundary" inkscape:connector-curvature="0" />
	<path style="fill:none;stroke:red;stroke-width:1px;stroke-linecap:butt;stroke-linejoin:miter;stroke-opacity:1" d="M 996,360.79 996,381.414 z" id="boundary" inkscape:connector-curvature="0" />
	<path style="fill:none;stroke:red;stroke-width:1px;stroke-linecap:butt;stroke-linejoin:miter;stroke-opacity:1" d="M 996,381.414 996,402.037 z" id="boundary" inkscape:connector-curvature="0" />
	<path style="fill:none;stroke:red;stroke-width:1px;stroke-linecap:butt;stroke-linejoin:miter;stroke-opacity:1" d="M 996,402.037 996,422.661 z" id="boundary" inkscape:connector-curvature="0" />
	<path style="fill:none;stroke:red;stroke-width:1px;stroke-linecap:butt;stroke-linejoin:miter;stroke-opacity:1" d="M 996,422.661 996,443.285 z" id="boundary" inkscape:connector-curvature="0" />
	<path style="fill:none;stroke:red;stroke-width:1px;stroke-linecap:butt;stroke-linejoin:miter;stroke-opacity:1" d="M 996,443.285 996,463.909 z" id="boundary" inkscape:connector-curvature="0" />
	<circle cx="4" cy="123.617" r="4" fill="#0" id="circle0"/>
	<circle cx="4" cy="144.241" r="4" fill="#0" id="circle1"/>
	<circle cx="4" cy="164.865" r="4" fill="#0" id="circle2"/>
	<circle cx="4" cy="185.489" r="4" fill="#0" id="circle3"/>
	<circle cx="4" cy="206.112" r="4" fill="#0" id="circle4"/>
	<circle cx="4" cy="226.736" r="4" fill="#0" id="circle5"/>
	<circle cx="4" cy="247.36" r="4" fill="#0" id="circle6"/>
	<circle cx="4" cy="267.983" r="4" fill="#0" id="circle7"/>
	<circle cx="4" cy="288.607" r="4" fill="#0" id="circle8"/>
	<circle cx="4" cy="309.231" r="4" fill="#0" id="circle9"/>
	<circle cx="24.6237" cy="92.6819" r="4" fill="#0" id="circle10"/>
	<circle cx="24.6237" cy="113.306" r="4" fill="#0" id="circle11"/>
	<circle cx="24.6237" cy="315.418" r="4" fill="#0" id="circle12"/>
	<circle cx="24.6237" cy="336.042" r="4" fill="#0" id="circle13"/>
	<circle cx="24.6237" cy="356.665" r="4" fill="#0" id="circle14"/>
	<circle cx="24.6237" cy="377.289" r="4" fill="#0" id="circle15"/>
	<circle cx="24.6237" cy="397.913" r="4" fill="#0" id="circle16"/>
	<circle cx="24.6237" cy="418.536" r="4" fill="#0" id="circle17"/>
	<circle cx="24.6237" cy="439.16" r="4" fill="#0" id="circle18"/>
	<circle cx="24.6237" cy="459.784" r="4" fill="#0" id="circle19"/>
	<circle cx="24.6237" cy="480.407" r="4" fill="#0" id="circle20"/>
	<circle cx="24.6237" cy="501.031" r="4" fill="#0" id="circle21"/>
	<circle cx="24.6237" cy="521.655" r="4" fill="#0" id="circle22"/>
	<circle cx="30.8108" cy="542.279" r="4" fill="#0" id="circle23"/>
	<circle cx="41.1227" cy="76.183" r="4" fill="#0" id="circle24"/>
	<circle cx="41.1227" cy="560.84" r="4" fill="#0" id="circle25"/>
	<circle cx="49.3721" cy="581.464" r="4" fill="#0" id="circle26"/>
	<circle cx="61.7464" cy="76.183" r="4" fill="#0" id="circle27"/>
	<circle cx="69.9958" cy="583.526" r="4" fill="#0" id="circle28"/>
	<circle cx="78.2453" cy="59.684" r="4" fill="#0" id="circle29"/>
	<circle cx="86.4948" cy="595.9" r="4" fill="#0" id="circle30"/>
	<circle cx="98.869" cy="49.3721" r="4" fill="#0" id="circle31"/>
	<circle cx="100.931" cy="612.399" r="4" fill="#0" id="circle32"/>
	<circle cx="119.493" cy="45.2474" r="4" fill="#0" id="circle33"/>
	<circle cx="121.555" cy="614.462" r="4" fill="#0" id="circle34"/>
	<circle cx="140.116" cy="45.2474" r="4" fill="#0" id="circle35"/>
	<circle cx="142.179" cy="614.462" r="4" fill="#0" id="circle36"/>
	<circle cx="160.74" cy="45.2474" r="4" fill="#0" id="circle37"/>
	<circle cx="162.802" cy="614.462" r="4" fill="#0" id="circle38"/>
	<circle cx="181.364" cy="45.2474" r="4" fill="#0" id="circle39"/>
	<circle cx="183.426" cy="614.462" r="4" fill="#0" id="circle40"/>
	<circle cx="201.988" cy="45.2474" r="4" fill="#0" id="circle41"/>
	<circle cx="204.05" cy="614.462" r="4" fill="#0" id="circle42"/>
	<circle cx="220.549" cy="626.836" r="4" fill="#0" id="circle43"/>
	<circle cx="222.611" cy="45.2474" r="4" fill="#0" id="circle44"/>
	<circle cx="230.861" cy="645.397" r="4" fill="#0" id="circle45"/>
	<circle cx="243.235" cy="45.2474" r="4" fill="#0" id="circle46"/>
	<circle cx="249.422" cy="655.709" r="4" fill="#0" id="circle47"/>
	<circle cx="257.672" cy="676.333" r="4" fill="#0" id="circle48"/>
	<circle cx="263.859" cy="45.2474" r="4" fill="#0" id="circle49"/>
	<circle cx="274.17" cy="690.769" r="4" fill="#0" id="circle50"/>
	<circle cx="284.482" cy="45.2474" r="4" fill="#0" id="circle51"/>
	<circle cx="294.794" cy="696.956" r="4" fill="#0" id="circle52"/>
	<circle cx="305.106" cy="45.2474" r="4" fill="#0" id="circle53"/>
	<circle cx="313.356" cy="707.268" r="4" fill="#0" id="circle54"/>
	<circle cx="319.543" cy="727.892" r="4" fill="#0" id="circle55"/>
	<circle cx="325.73" cy="45.2474" r="4" fill="#0" id="circle56"/>
	<circle cx="340.166" cy="727.892" r="4" fill="#0" id="circle57"/>
	<circle cx="346.353" cy="45.2474" r="4" fill="#0" id="circle58"/>
	<circle cx="356.665" cy="742.328" r="4" fill="#0" id="circle59"/>
	<circle cx="364.915" cy="34.9356" r="4" fill="#0" id="circle60"/>
	<circle cx="377.289" cy="748.516" r="4" fill="#0" id="circle61"/>
	<circle cx="385.538" cy="34.9356" r="4" fill="#0" id="circle62"/>
	<circle cx="389.663" cy="765.015" r="4" fill="#0" id="circle63"/>
	<circle cx="406.162" cy="34.9356" r="4" fill="#0" id="circle64"/>
	<circle cx="408.225" cy="775.326" r="4" fill="#0" id="circle65"/>
	<circle cx="424.723" cy="789.763" r="4" fill="#0" id="circle66"/>
	<circle cx="426.786" cy="34.9356" r="4" fill="#0" id="circle67"/>
	<circle cx="443.285" cy="800.075" r="4" fill="#0" id="circle68"/>
	<circle cx="447.41" cy="34.9356" r="4" fill="#0" id="circle69"/>
	<circle cx="449.472" cy="614.462" r="4" fill="#0" id="circle70"/>
	<circle cx="449.472" cy="635.085" r="4" fill="#0" id="circle71"/>
	<circle cx="457.721" cy="816.574" r="4" fill="#0" id="circle72"/>
	<circle cx="459.784" cy="653.647" r="4" fill="#0" id="circle73"/>
	<circle cx="459.784" cy="674.27" r="4" fill="#0" id="circle74"/>
	<circle cx="459.784" cy="694.894" r="4" fill="#0" id="circle75"/>
	<circle cx="468.033" cy="34.9356" r="4" fill="#0" id="circle76"/>
	<circle cx="468.033" cy="835.135" r="4" fill="#0" id="circle77"/>
	<circle cx="470.096" cy="614.462" r="4" fill="#0" id="circle78"/>
	<circle cx="470.096" cy="713.455" r="4" fill="#0" id="circle79"/>
	<circle cx="470.096" cy="734.079" r="4" fill="#0" id="circle80"/>
	<circle cx="470.096" cy="754.703" r="4" fill="#0" id="circle81"/>
	<circle cx="480.407" cy="773.264" r="4" fill="#0" id="circle82"/>
	<circle cx="488.657" cy="34.9356" r="4" fill="#0" id="circle83"/>
	<circle cx="488.657" cy="835.135" r="4" fill="#0" id="circle84"/>
	<circle cx="490.719" cy="614.462" r="4" fill="#0" id="circle85"/>
	<circle cx="490.719" cy="791.825" r="4" fill="#0" id="circle86"/>
	<circle cx="490.719" cy="812.449" r="4" fill="#0" id="circle87"/>
	<circle cx="509.281" cy="34.9356" r="4" fill="#0" id="circle88"/>
	<circle cx="511.343" cy="614.462" r="4" fill="#0" id="circle89"/>
	<circle cx="529.904" cy="34.9356" r="4" fill="#0" id="circle90"/>
	<circle cx="531.967" cy="614.462" r="4" fill="#0" id="circle91"/>
	<circle cx="550.528" cy="34.9356" r="4" fill="#0" id="circle92"/>
	<circle cx="552.59" cy="614.462" r="4" fill="#0" id="circle93"/>
	<circle cx="571.152" cy="34.9356" r="4" fill="#0" id="circle94"/>
	<circle cx="573.214" cy="614.462" r="4" fill="#0" id="circle95"/>
	<circle cx="591.775" cy="34.9356" r="4" fill="#0" id="circle96"/>
	<circle cx="591.775" cy="604.15" r="4" fill="#0" id="circle97"/>
	<circle cx="612.399" cy="34.9356" r="4" fill="#0" id="circle98"/>
	<circle cx="612.399" cy="604.15" r="4" fill="#0" id="circle99"/>
	<circle cx="633.023" cy="34.9356" r="4" fill="#0" id="circle100"/>
	<circle cx="633.023" cy="604.15" r="4" fill="#0" id="circle101"/>
	<circle cx="653.647" cy="34.9356" r="4" fill="#0" id="circle102"/>
	<circle cx="653.647" cy="604.15" r="4" fill="#0" id="circle103"/>
	<circle cx="674.27" cy="34.9356" r="4" fill="#0" id="circle104"/>
	<circle cx="674.27" cy="604.15" r="4" fill="#0" id="circle105"/>
	<circle cx="694.894" cy="34.9356" r="4" fill="#0" id="circle106"/>
	<circle cx="694.894" cy="604.15" r="4" fill="#0" id="circle107"/>
	<circle cx="715.518" cy="34.9356" r="4" fill="#0" id="circle108"/>
	<circle cx="715.518" cy="604.15" r="4" fill="#0" id="circle109"/>
	<circle cx="736.141" cy="34.9356" r="4" fill="#0" id="circle110"/>
	<circle cx="736.141" cy="604.15" r="4" fill="#0" id="circle111"/>
	<circle cx="756.765" cy="34.9356" r="4" fill="#0" id="circle112"/>
	<circle cx="756.765" cy="604.15" r="4" fill="#0" id="circle113"/>
	<circle cx="777.389" cy="10.1871" r="4" fill="#0" id="circle114"/>
	<circle cx="777.389" cy="30.8108" r="4" fill="#0" id="circle115"/>
	<circle cx="777.389" cy="604.15" r="4" fill="#0" id="circle116"/>
	<circle cx="798.012" cy="4" r="4" fill="#0" id="circle117"/>
	<circle cx="798.012" cy="604.15" r="4" fill="#0" id="circle118"/>
	<circle cx="818.636" cy="4" r="4" fill="#0" id="circle119"/>
	<circle cx="818.636" cy="604.15" r="4" fill="#0" id="circle120"/>
	<circle cx="839.26" cy="4" r="4" fill="#0" id="circle121"/>
	<circle cx="839.26" cy="604.15" r="4" fill="#0" id="circle122"/>
	<circle cx="859.884" cy="4" r="4" fill="#0" id="circle123"/>
	<circle cx="859.884" cy="604.15" r="4" fill="#0" id="circle124"/>
	<circle cx="880.507" cy="8.12474" r="4" fill="#0" id="circle125"/>
	<circle cx="880.507" cy="597.963" r="4" fill="#0" id="circle126"/>
	<circle cx="882.57" cy="28.7484" r="4" fill="#0" id="circle127"/>
	<circle cx="897.006" cy="583.526" r="4" fill="#0" id="circle128"/>
	<circle cx="903.193" cy="34.9356" r="4" fill="#0" id="circle129"/>
	<circle cx="913.505" cy="562.902" r="4" fill="#0" id="circle130"/>
	<circle cx="921.755" cy="45.2474" r="4" fill="#0" id="circle131"/>
	<circle cx="934.129" cy="562.902" r="4" fill="#0" id="circle132"/>
	<circle cx="942.378" cy="49.3721" r="4" fill="#0" id="circle133"/>
	<circle cx="950.628" cy="548.466" r="4" fill="#0" id="circle134"/>
	<circle cx="954.753" cy="65.8711" r="4" fill="#0" id="circle135"/>
	<circle cx="965.064" cy="84.4324" r="4" fill="#0" id="circle136"/>
	<circle cx="965.064" cy="521.655" r="4" fill="#0" id="circle137"/>
	<circle cx="981.563" cy="96.8067" r="4" fill="#0" id="circle138"/>
	<circle cx="985.688" cy="521.655" r="4" fill="#0" id="circle139"/>
	<circle cx="996" cy="113.306" r="4" fill="#0" id="circle140"/>
	<circle cx="996" cy="133.929" r="4" fill="#0" id="circle141"/>
	<circle cx="996" cy="154.553" r="4" fill="#0" id="circle142"/>
	<circle cx="996" cy="175.177" r="4" fill="#0" id="circle143"/>
	<circle cx="996" cy="195.8" r="4" fill="#0" id="circle144"/>
	<circle cx="996" cy="216.424" r="4" fill="#0" id="circle145"/>
	<circle cx="996" cy="237.048" r="4" fill="#0" id="circle146"/>
	<circle cx="996" cy="257.672" r="4" fill="#0" id="circle147"/>
	<circle cx="996" cy="278.295" r="4" fill="#0" id="circle148"/>
	<circle cx="996" cy="298.919" r="4" fill="#0" id="circle149"/>
	<circle cx="996" cy="319.543" r="4" fill="#0" id="circle150"/>
	<circle cx="996" cy="340.166" r="4" fill="#0" id="circle151"/>
	<circle cx="996" cy="360.79" r="4" fill="#0" id="circle152"/>
	<circle cx="996" cy="381.414" r="4" fill="#0" id="circle153"/>
	<circle cx="996" cy="402.037" r="4" fill="#0" id="circle154"/>
	<circle cx="996" cy="422.661" r="4" fill="#0" id="circle155"/>
	<circle cx="996" cy="443.285" r="4" fill="#0" id="circle156"/>
	<circle cx="996" cy="463.909" r="4" fill="#0" id="circle157"/>
	<circle cx="996" cy="484.532" r="4" fill="#0" id="circle158"/>
	</g>
</svg>