<?xml version="1.0" encoding="UTF-8" standalone="no"?>
<!-- Created with CurveBenchmark -->
<svg
	xmlns:dc="http://purl.org/dc/elements/1.1/"
	xmlns:cc="http://creativecommons.org/ns#"
	xmlns:rdf="http://www.w3.org/1999/02/22-rdf-syntax-ns#"
	xmlns:svg="http://www.w3.org/2000/svg"
	xmlns="http://www.w3.org/2000/svg"
	xmlns:sodipodi="http://sodipodi.sourceforge.net/DTD/sodipodi-0.dtd"
	xmlns:inkscape="http://www.inkscape.org/namespaces/inkscape"
	width="1000"
	height="1000"
	id="svg2"
	version="1.1"
	sodipodi:docname="manifold/connect2d-Misk03.png.txt">
<defs
	id="defs4" />
<metadata
	id="metadata7">
	<rdf:RDF>
		<cc:Work
			rdf:about="">
			<dc:format>image/svg+xml</dc:format>
			<dc:type
				rdf:resource="http://purl.org/dc/dcmitype/StillImage" />
			<dc:title></dc:title>
		</cc:Work>
	</rdf:RDF>
</metadata>
<g
	inkscape:label="Layer 1"
	inkscape:groupmode="layer"
	id="layer1">
	<path style="fill:none;stroke:red;stroke-width:1px;stroke-linecap:butt;stroke-linejoin:miter;stroke-opacity:1" d="M 795.933,159.052 789.264,180.726 z" id="boundary" inkscape:connector-curvature="0" />
	<path style="fill:none;stroke:red;stroke-width:1px;stroke-linecap:butt;stroke-linejoin:miter;stroke-opacity:1" d="M 789.264,180.726 780.928,205.734 z" id="boundary" inkscape:connector-curvature="0" />
	<path style="fill:none;stroke:red;stroke-width:1px;stroke-linecap:butt;stroke-linejoin:miter;stroke-opacity:1" d="M 780.928,205.734 772.592,222.407 z" id="boundary" inkscape:connector-curvature="0" />
	<path style="fill:none;stroke:red;stroke-width:1px;stroke-linecap:butt;stroke-linejoin:miter;stroke-opacity:1" d="M 772.592,222.407 764.255,239.079 z" id="boundary" inkscape:connector-curvature="0" />
	<path style="fill:none;stroke:red;stroke-width:1px;stroke-linecap:butt;stroke-linejoin:miter;stroke-opacity:1" d="M 764.255,239.079 755.919,255.751 z" id="boundary" inkscape:connector-curvature="0" />
	<path style="fill:none;stroke:red;stroke-width:1px;stroke-linecap:butt;stroke-linejoin:miter;stroke-opacity:1" d="M 755.919,255.751 764.255,270.756 z" id="boundary" inkscape:connector-curvature="0" />
	<path style="fill:none;stroke:red;stroke-width:1px;stroke-linecap:butt;stroke-linejoin:miter;stroke-opacity:1" d="M 764.255,270.756 772.592,285.761 z" id="boundary" inkscape:connector-curvature="0" />
	<path style="fill:none;stroke:red;stroke-width:1px;stroke-linecap:butt;stroke-linejoin:miter;stroke-opacity:1" d="M 772.592,285.761 789.264,292.43 z" id="boundary" inkscape:connector-curvature="0" />
	<path style="fill:none;stroke:red;stroke-width:1px;stroke-linecap:butt;stroke-linejoin:miter;stroke-opacity:1" d="M 789.264,292.43 800.934,305.768 z" id="boundary" inkscape:connector-curvature="0" />
	<path style="fill:none;stroke:red;stroke-width:1px;stroke-linecap:butt;stroke-linejoin:miter;stroke-opacity:1" d="M 800.934,305.768 809.271,320.773 z" id="boundary" inkscape:connector-curvature="0" />
	<path style="fill:none;stroke:red;stroke-width:1px;stroke-linecap:butt;stroke-linejoin:miter;stroke-opacity:1" d="M 809.271,320.773 805.936,347.449 z" id="boundary" inkscape:connector-curvature="0" />
	<path style="fill:none;stroke:red;stroke-width:1px;stroke-linecap:butt;stroke-linejoin:miter;stroke-opacity:1" d="M 805.936,347.449 802.602,369.123 z" id="boundary" inkscape:connector-curvature="0" />
	<path style="fill:none;stroke:red;stroke-width:1px;stroke-linecap:butt;stroke-linejoin:miter;stroke-opacity:1" d="M 802.602,369.123 789.264,380.793 z" id="boundary" inkscape:connector-curvature="0" />
	<path style="fill:none;stroke:red;stroke-width:1px;stroke-linecap:butt;stroke-linejoin:miter;stroke-opacity:1" d="M 789.264,380.793 772.592,397.466 z" id="boundary" inkscape:connector-curvature="0" />
	<path style="fill:none;stroke:red;stroke-width:1px;stroke-linecap:butt;stroke-linejoin:miter;stroke-opacity:1" d="M 772.592,397.466 759.254,412.471 z" id="boundary" inkscape:connector-curvature="0" />
	<path style="fill:none;stroke:red;stroke-width:1px;stroke-linecap:butt;stroke-linejoin:miter;stroke-opacity:1" d="M 759.254,412.471 742.582,420.807 z" id="boundary" inkscape:connector-curvature="0" />
	<path style="fill:none;stroke:red;stroke-width:1px;stroke-linecap:butt;stroke-linejoin:miter;stroke-opacity:1" d="M 742.582,420.807 729.244,430.81 z" id="boundary" inkscape:connector-curvature="0" />
	<path style="fill:none;stroke:red;stroke-width:1px;stroke-linecap:butt;stroke-linejoin:miter;stroke-opacity:1" d="M 729.244,430.81 714.239,439.146 z" id="boundary" inkscape:connector-curvature="0" />
	<path style="fill:none;stroke:red;stroke-width:1px;stroke-linecap:butt;stroke-linejoin:miter;stroke-opacity:1" d="M 714.239,439.146 697.566,439.146 z" id="boundary" inkscape:connector-curvature="0" />
	<path style="fill:none;stroke:red;stroke-width:1px;stroke-linecap:butt;stroke-linejoin:miter;stroke-opacity:1" d="M 697.566,439.146 705.903,454.151 z" id="boundary" inkscape:connector-curvature="0" />
	<path style="fill:none;stroke:red;stroke-width:1px;stroke-linecap:butt;stroke-linejoin:miter;stroke-opacity:1" d="M 705.903,454.151 705.903,470.824 z" id="boundary" inkscape:connector-curvature="0" />
	<path style="fill:none;stroke:red;stroke-width:1px;stroke-linecap:butt;stroke-linejoin:miter;stroke-opacity:1" d="M 705.903,470.824 714.239,485.829 z" id="boundary" inkscape:connector-curvature="0" />
	<path style="fill:none;stroke:red;stroke-width:1px;stroke-linecap:butt;stroke-linejoin:miter;stroke-opacity:1" d="M 714.239,485.829 722.575,500.834 z" id="boundary" inkscape:connector-curvature="0" />
	<path style="fill:none;stroke:red;stroke-width:1px;stroke-linecap:butt;stroke-linejoin:miter;stroke-opacity:1" d="M 722.575,500.834 734.245,514.171 z" id="boundary" inkscape:connector-curvature="0" />
	<path style="fill:none;stroke:red;stroke-width:1px;stroke-linecap:butt;stroke-linejoin:miter;stroke-opacity:1" d="M 734.245,514.171 742.582,529.176 z" id="boundary" inkscape:connector-curvature="0" />
	<path style="fill:none;stroke:red;stroke-width:1px;stroke-linecap:butt;stroke-linejoin:miter;stroke-opacity:1" d="M 742.582,529.176 754.252,542.514 z" id="boundary" inkscape:connector-curvature="0" />
	<path style="fill:none;stroke:red;stroke-width:1px;stroke-linecap:butt;stroke-linejoin:miter;stroke-opacity:1" d="M 754.252,542.514 767.59,554.185 z" id="boundary" inkscape:connector-curvature="0" />
	<path style="fill:none;stroke:red;stroke-width:1px;stroke-linecap:butt;stroke-linejoin:miter;stroke-opacity:1" d="M 767.59,554.185 779.261,567.523 z" id="boundary" inkscape:connector-curvature="0" />
	<path style="fill:none;stroke:red;stroke-width:1px;stroke-linecap:butt;stroke-linejoin:miter;stroke-opacity:1" d="M 779.261,567.523 792.598,579.193 z" id="boundary" inkscape:connector-curvature="0" />
	<path style="fill:none;stroke:red;stroke-width:1px;stroke-linecap:butt;stroke-linejoin:miter;stroke-opacity:1" d="M 792.598,579.193 797.6,595.866 z" id="boundary" inkscape:connector-curvature="0" />
	<path style="fill:none;stroke:red;stroke-width:1px;stroke-linecap:butt;stroke-linejoin:miter;stroke-opacity:1" d="M 797.6,595.866 805.936,610.871 z" id="boundary" inkscape:connector-curvature="0" />
	<path style="fill:none;stroke:red;stroke-width:1px;stroke-linecap:butt;stroke-linejoin:miter;stroke-opacity:1" d="M 805.936,610.871 805.936,630.877 z" id="boundary" inkscape:connector-curvature="0" />
	<path style="fill:none;stroke:red;stroke-width:1px;stroke-linecap:butt;stroke-linejoin:miter;stroke-opacity:1" d="M 805.936,630.877 805.936,655.886 z" id="boundary" inkscape:connector-curvature="0" />
	<path style="fill:none;stroke:red;stroke-width:1px;stroke-linecap:butt;stroke-linejoin:miter;stroke-opacity:1" d="M 805.936,655.886 805.936,680.894 z" id="boundary" inkscape:connector-curvature="0" />
	<path style="fill:none;stroke:red;stroke-width:1px;stroke-linecap:butt;stroke-linejoin:miter;stroke-opacity:1" d="M 805.936,680.894 797.6,705.903 z" id="boundary" inkscape:connector-curvature="0" />
	<path style="fill:none;stroke:red;stroke-width:1px;stroke-linecap:butt;stroke-linejoin:miter;stroke-opacity:1" d="M 797.6,705.903 780.928,722.575 z" id="boundary" inkscape:connector-curvature="0" />
	<path style="fill:none;stroke:red;stroke-width:1px;stroke-linecap:butt;stroke-linejoin:miter;stroke-opacity:1" d="M 780.928,722.575 764.255,722.575 z" id="boundary" inkscape:connector-curvature="0" />
	<path style="fill:none;stroke:red;stroke-width:1px;stroke-linecap:butt;stroke-linejoin:miter;stroke-opacity:1" d="M 764.255,722.575 750.918,712.571 z" id="boundary" inkscape:connector-curvature="0" />
	<path style="fill:none;stroke:red;stroke-width:1px;stroke-linecap:butt;stroke-linejoin:miter;stroke-opacity:1" d="M 750.918,712.571 734.245,705.903 z" id="boundary" inkscape:connector-curvature="0" />
	<path style="fill:none;stroke:red;stroke-width:1px;stroke-linecap:butt;stroke-linejoin:miter;stroke-opacity:1" d="M 734.245,705.903 722.575,692.565 z" id="boundary" inkscape:connector-curvature="0" />
	<path style="fill:none;stroke:red;stroke-width:1px;stroke-linecap:butt;stroke-linejoin:miter;stroke-opacity:1" d="M 722.575,692.565 705.903,689.23 z" id="boundary" inkscape:connector-curvature="0" />
	<path style="fill:none;stroke:red;stroke-width:1px;stroke-linecap:butt;stroke-linejoin:miter;stroke-opacity:1" d="M 705.903,689.23 689.23,689.23 z" id="boundary" inkscape:connector-curvature="0" />
	<path style="fill:none;stroke:red;stroke-width:1px;stroke-linecap:butt;stroke-linejoin:miter;stroke-opacity:1" d="M 689.23,689.23 677.56,702.568 z" id="boundary" inkscape:connector-curvature="0" />
	<path style="fill:none;stroke:red;stroke-width:1px;stroke-linecap:butt;stroke-linejoin:miter;stroke-opacity:1" d="M 677.56,702.568 664.222,714.239 z" id="boundary" inkscape:connector-curvature="0" />
	<path style="fill:none;stroke:red;stroke-width:1px;stroke-linecap:butt;stroke-linejoin:miter;stroke-opacity:1" d="M 664.222,714.239 655.886,730.911 z" id="boundary" inkscape:connector-curvature="0" />
	<path style="fill:none;stroke:red;stroke-width:1px;stroke-linecap:butt;stroke-linejoin:miter;stroke-opacity:1" d="M 655.886,730.911 647.55,747.583 z" id="boundary" inkscape:connector-curvature="0" />
	<path style="fill:none;stroke:red;stroke-width:1px;stroke-linecap:butt;stroke-linejoin:miter;stroke-opacity:1" d="M 647.55,747.583 639.213,772.592 z" id="boundary" inkscape:connector-curvature="0" />
	<path style="fill:none;stroke:red;stroke-width:1px;stroke-linecap:butt;stroke-linejoin:miter;stroke-opacity:1" d="M 639.213,772.592 647.55,787.597 z" id="boundary" inkscape:connector-curvature="0" />
	<path style="fill:none;stroke:red;stroke-width:1px;stroke-linecap:butt;stroke-linejoin:miter;stroke-opacity:1" d="M 647.55,787.597 662.555,795.933 z" id="boundary" inkscape:connector-curvature="0" />
	<path style="fill:none;stroke:red;stroke-width:1px;stroke-linecap:butt;stroke-linejoin:miter;stroke-opacity:1" d="M 662.555,795.933 677.56,804.269 z" id="boundary" inkscape:connector-curvature="0" />
	<path style="fill:none;stroke:red;stroke-width:1px;stroke-linecap:butt;stroke-linejoin:miter;stroke-opacity:1" d="M 677.56,804.269 692.565,812.605 z" id="boundary" inkscape:connector-curvature="0" />
	<path style="fill:none;stroke:red;stroke-width:1px;stroke-linecap:butt;stroke-linejoin:miter;stroke-opacity:1" d="M 692.565,812.605 707.57,820.941 z" id="boundary" inkscape:connector-curvature="0" />
	<path style="fill:none;stroke:red;stroke-width:1px;stroke-linecap:butt;stroke-linejoin:miter;stroke-opacity:1" d="M 707.57,820.941 722.575,829.277 z" id="boundary" inkscape:connector-curvature="0" />
	<path style="fill:none;stroke:red;stroke-width:1px;stroke-linecap:butt;stroke-linejoin:miter;stroke-opacity:1" d="M 722.575,829.277 737.58,837.613 z" id="boundary" inkscape:connector-curvature="0" />
	<path style="fill:none;stroke:red;stroke-width:1px;stroke-linecap:butt;stroke-linejoin:miter;stroke-opacity:1" d="M 737.58,837.613 747.583,850.951 z" id="boundary" inkscape:connector-curvature="0" />
	<path style="fill:none;stroke:red;stroke-width:1px;stroke-linecap:butt;stroke-linejoin:miter;stroke-opacity:1" d="M 747.583,850.951 762.588,859.287 z" id="boundary" inkscape:connector-curvature="0" />
	<path style="fill:none;stroke:red;stroke-width:1px;stroke-linecap:butt;stroke-linejoin:miter;stroke-opacity:1" d="M 762.588,859.287 760.921,885.963 z" id="boundary" inkscape:connector-curvature="0" />
	<path style="fill:none;stroke:red;stroke-width:1px;stroke-linecap:butt;stroke-linejoin:miter;stroke-opacity:1" d="M 760.921,885.963 747.583,897.634 z" id="boundary" inkscape:connector-curvature="0" />
	<path style="fill:none;stroke:red;stroke-width:1px;stroke-linecap:butt;stroke-linejoin:miter;stroke-opacity:1" d="M 747.583,897.634 730.911,905.97 z" id="boundary" inkscape:connector-curvature="0" />
	<path style="fill:none;stroke:red;stroke-width:1px;stroke-linecap:butt;stroke-linejoin:miter;stroke-opacity:1" d="M 730.911,905.97 714.239,914.306 z" id="boundary" inkscape:connector-curvature="0" />
	<path style="fill:none;stroke:red;stroke-width:1px;stroke-linecap:butt;stroke-linejoin:miter;stroke-opacity:1" d="M 714.239,914.306 697.566,922.642 z" id="boundary" inkscape:connector-curvature="0" />
	<path style="fill:none;stroke:red;stroke-width:1px;stroke-linecap:butt;stroke-linejoin:miter;stroke-opacity:1" d="M 697.566,922.642 684.229,937.647 z" id="boundary" inkscape:connector-curvature="0" />
	<path style="fill:none;stroke:red;stroke-width:1px;stroke-linecap:butt;stroke-linejoin:miter;stroke-opacity:1" d="M 684.229,937.647 667.556,939.314 z" id="boundary" inkscape:connector-curvature="0" />
	<path style="fill:none;stroke:red;stroke-width:1px;stroke-linecap:butt;stroke-linejoin:miter;stroke-opacity:1" d="M 667.556,939.314 652.551,947.65 z" id="boundary" inkscape:connector-curvature="0" />
	<path style="fill:none;stroke:red;stroke-width:1px;stroke-linecap:butt;stroke-linejoin:miter;stroke-opacity:1" d="M 652.551,947.65 637.546,955.987 z" id="boundary" inkscape:connector-curvature="0" />
	<path style="fill:none;stroke:red;stroke-width:1px;stroke-linecap:butt;stroke-linejoin:miter;stroke-opacity:1" d="M 637.546,955.987 622.541,964.323 z" id="boundary" inkscape:connector-curvature="0" />
	<path style="fill:none;stroke:red;stroke-width:1px;stroke-linecap:butt;stroke-linejoin:miter;stroke-opacity:1" d="M 622.541,964.323 605.869,964.323 z" id="boundary" inkscape:connector-curvature="0" />
	<path style="fill:none;stroke:red;stroke-width:1px;stroke-linecap:butt;stroke-linejoin:miter;stroke-opacity:1" d="M 605.869,964.323 589.197,972.659 z" id="boundary" inkscape:connector-curvature="0" />
	<path style="fill:none;stroke:red;stroke-width:1px;stroke-linecap:butt;stroke-linejoin:miter;stroke-opacity:1" d="M 589.197,972.659 574.192,980.995 z" id="boundary" inkscape:connector-curvature="0" />
	<path style="fill:none;stroke:red;stroke-width:1px;stroke-linecap:butt;stroke-linejoin:miter;stroke-opacity:1" d="M 574.192,980.995 557.519,980.995 z" id="boundary" inkscape:connector-curvature="0" />
	<path style="fill:none;stroke:red;stroke-width:1px;stroke-linecap:butt;stroke-linejoin:miter;stroke-opacity:1" d="M 557.519,980.995 542.514,989.331 z" id="boundary" inkscape:connector-curvature="0" />
	<path style="fill:none;stroke:red;stroke-width:1px;stroke-linecap:butt;stroke-linejoin:miter;stroke-opacity:1" d="M 542.514,989.331 525.842,989.331 z" id="boundary" inkscape:connector-curvature="0" />
	<path style="fill:none;stroke:red;stroke-width:1px;stroke-linecap:butt;stroke-linejoin:miter;stroke-opacity:1" d="M 525.842,989.331 509.17,996 z" id="boundary" inkscape:connector-curvature="0" />
	<path style="fill:none;stroke:red;stroke-width:1px;stroke-linecap:butt;stroke-linejoin:miter;stroke-opacity:1" d="M 509.17,996 492.497,989.331 z" id="boundary" inkscape:connector-curvature="0" />
	<path style="fill:none;stroke:red;stroke-width:1px;stroke-linecap:butt;stroke-linejoin:miter;stroke-opacity:1" d="M 492.497,989.331 475.825,996 z" id="boundary" inkscape:connector-curvature="0" />
	<path style="fill:none;stroke:red;stroke-width:1px;stroke-linecap:butt;stroke-linejoin:miter;stroke-opacity:1" d="M 475.825,996 459.153,989.331 z" id="boundary" inkscape:connector-curvature="0" />
	<path style="fill:none;stroke:red;stroke-width:1px;stroke-linecap:butt;stroke-linejoin:miter;stroke-opacity:1" d="M 459.153,989.331 442.481,989.331 z" id="boundary" inkscape:connector-curvature="0" />
	<path style="fill:none;stroke:red;stroke-width:1px;stroke-linecap:butt;stroke-linejoin:miter;stroke-opacity:1" d="M 442.481,989.331 430.81,975.993 z" id="boundary" inkscape:connector-curvature="0" />
	<path style="fill:none;stroke:red;stroke-width:1px;stroke-linecap:butt;stroke-linejoin:miter;stroke-opacity:1" d="M 430.81,975.993 414.138,972.659 z" id="boundary" inkscape:connector-curvature="0" />
	<path style="fill:none;stroke:red;stroke-width:1px;stroke-linecap:butt;stroke-linejoin:miter;stroke-opacity:1" d="M 414.138,972.659 399.133,964.323 z" id="boundary" inkscape:connector-curvature="0" />
	<path style="fill:none;stroke:red;stroke-width:1px;stroke-linecap:butt;stroke-linejoin:miter;stroke-opacity:1" d="M 399.133,964.323 382.461,960.988 z" id="boundary" inkscape:connector-curvature="0" />
	<path style="fill:none;stroke:red;stroke-width:1px;stroke-linecap:butt;stroke-linejoin:miter;stroke-opacity:1" d="M 382.461,960.988 365.788,955.987 z" id="boundary" inkscape:connector-curvature="0" />
	<path style="fill:none;stroke:red;stroke-width:1px;stroke-linecap:butt;stroke-linejoin:miter;stroke-opacity:1" d="M 365.788,955.987 350.783,947.65 z" id="boundary" inkscape:connector-curvature="0" />
	<path style="fill:none;stroke:red;stroke-width:1px;stroke-linecap:butt;stroke-linejoin:miter;stroke-opacity:1" d="M 350.783,947.65 335.778,939.314 z" id="boundary" inkscape:connector-curvature="0" />
	<path style="fill:none;stroke:red;stroke-width:1px;stroke-linecap:butt;stroke-linejoin:miter;stroke-opacity:1" d="M 335.778,939.314 320.773,930.978 z" id="boundary" inkscape:connector-curvature="0" />
	<path style="fill:none;stroke:red;stroke-width:1px;stroke-linecap:butt;stroke-linejoin:miter;stroke-opacity:1" d="M 320.773,930.978 304.101,930.978 z" id="boundary" inkscape:connector-curvature="0" />
	<path style="fill:none;stroke:red;stroke-width:1px;stroke-linecap:butt;stroke-linejoin:miter;stroke-opacity:1" d="M 304.101,930.978 289.096,922.642 z" id="boundary" inkscape:connector-curvature="0" />
	<path style="fill:none;stroke:red;stroke-width:1px;stroke-linecap:butt;stroke-linejoin:miter;stroke-opacity:1" d="M 289.096,922.642 274.091,914.306 z" id="boundary" inkscape:connector-curvature="0" />
	<path style="fill:none;stroke:red;stroke-width:1px;stroke-linecap:butt;stroke-linejoin:miter;stroke-opacity:1" d="M 274.091,914.306 257.418,914.306 z" id="boundary" inkscape:connector-curvature="0" />
	<path style="fill:none;stroke:red;stroke-width:1px;stroke-linecap:butt;stroke-linejoin:miter;stroke-opacity:1" d="M 257.418,914.306 240.746,910.971 z" id="boundary" inkscape:connector-curvature="0" />
	<path style="fill:none;stroke:red;stroke-width:1px;stroke-linecap:butt;stroke-linejoin:miter;stroke-opacity:1" d="M 240.746,910.971 224.074,905.97 z" id="boundary" inkscape:connector-curvature="0" />
	<path style="fill:none;stroke:red;stroke-width:1px;stroke-linecap:butt;stroke-linejoin:miter;stroke-opacity:1" d="M 224.074,905.97 209.069,897.634 z" id="boundary" inkscape:connector-curvature="0" />
	<path style="fill:none;stroke:red;stroke-width:1px;stroke-linecap:butt;stroke-linejoin:miter;stroke-opacity:1" d="M 209.069,897.634 197.398,884.296 z" id="boundary" inkscape:connector-curvature="0" />
	<path style="fill:none;stroke:red;stroke-width:1px;stroke-linecap:butt;stroke-linejoin:miter;stroke-opacity:1" d="M 197.398,884.296 189.062,869.291 z" id="boundary" inkscape:connector-curvature="0" />
	<path style="fill:none;stroke:red;stroke-width:1px;stroke-linecap:butt;stroke-linejoin:miter;stroke-opacity:1" d="M 189.062,869.291 179.059,855.953 z" id="boundary" inkscape:connector-curvature="0" />
	<path style="fill:none;stroke:red;stroke-width:1px;stroke-linecap:butt;stroke-linejoin:miter;stroke-opacity:1" d="M 179.059,855.953 170.723,840.948 z" id="boundary" inkscape:connector-curvature="0" />
	<path style="fill:none;stroke:red;stroke-width:1px;stroke-linecap:butt;stroke-linejoin:miter;stroke-opacity:1" d="M 170.723,840.948 162.387,825.943 z" id="boundary" inkscape:connector-curvature="0" />
	<path style="fill:none;stroke:red;stroke-width:1px;stroke-linecap:butt;stroke-linejoin:miter;stroke-opacity:1" d="M 162.387,825.943 155.718,809.271 z" id="boundary" inkscape:connector-curvature="0" />
	<path style="fill:none;stroke:red;stroke-width:1px;stroke-linecap:butt;stroke-linejoin:miter;stroke-opacity:1" d="M 155.718,809.271 142.38,797.6 z" id="boundary" inkscape:connector-curvature="0" />
	<path style="fill:none;stroke:red;stroke-width:1px;stroke-linecap:butt;stroke-linejoin:miter;stroke-opacity:1" d="M 142.38,797.6 137.378,780.928 z" id="boundary" inkscape:connector-curvature="0" />
	<path style="fill:none;stroke:red;stroke-width:1px;stroke-linecap:butt;stroke-linejoin:miter;stroke-opacity:1" d="M 137.378,780.928 120.706,780.928 z" id="boundary" inkscape:connector-curvature="0" />
	<path style="fill:none;stroke:red;stroke-width:1px;stroke-linecap:butt;stroke-linejoin:miter;stroke-opacity:1" d="M 120.706,780.928 104.034,775.926 z" id="boundary" inkscape:connector-curvature="0" />
	<path style="fill:none;stroke:red;stroke-width:1px;stroke-linecap:butt;stroke-linejoin:miter;stroke-opacity:1" d="M 104.034,775.926 87.3613,780.928 z" id="boundary" inkscape:connector-curvature="0" />
	<path style="fill:none;stroke:red;stroke-width:1px;stroke-linecap:butt;stroke-linejoin:miter;stroke-opacity:1" d="M 87.3613,780.928 70.6891,777.593 z" id="boundary" inkscape:connector-curvature="0" />
	<path style="fill:none;stroke:red;stroke-width:1px;stroke-linecap:butt;stroke-linejoin:miter;stroke-opacity:1" d="M 70.6891,777.593 62.3529,762.588 z" id="boundary" inkscape:connector-curvature="0" />
	<path style="fill:none;stroke:red;stroke-width:1px;stroke-linecap:butt;stroke-linejoin:miter;stroke-opacity:1" d="M 62.3529,762.588 54.0168,747.583 z" id="boundary" inkscape:connector-curvature="0" />
	<path style="fill:none;stroke:red;stroke-width:1px;stroke-linecap:butt;stroke-linejoin:miter;stroke-opacity:1" d="M 54.0168,747.583 45.6807,732.578 z" id="boundary" inkscape:connector-curvature="0" />
	<path style="fill:none;stroke:red;stroke-width:1px;stroke-linecap:butt;stroke-linejoin:miter;stroke-opacity:1" d="M 45.6807,732.578 45.6807,715.906 z" id="boundary" inkscape:connector-curvature="0" />
	<path style="fill:none;stroke:red;stroke-width:1px;stroke-linecap:butt;stroke-linejoin:miter;stroke-opacity:1" d="M 45.6807,715.906 37.3445,700.901 z" id="boundary" inkscape:connector-curvature="0" />
	<path style="fill:none;stroke:red;stroke-width:1px;stroke-linecap:butt;stroke-linejoin:miter;stroke-opacity:1" d="M 37.3445,700.901 37.3445,684.229 z" id="boundary" inkscape:connector-curvature="0" />
	<path style="fill:none;stroke:red;stroke-width:1px;stroke-linecap:butt;stroke-linejoin:miter;stroke-opacity:1" d="M 37.3445,684.229 45.6807,659.22 z" id="boundary" inkscape:connector-curvature="0" />
	<path style="fill:none;stroke:red;stroke-width:1px;stroke-linecap:butt;stroke-linejoin:miter;stroke-opacity:1" d="M 45.6807,659.22 54.0168,634.212 z" id="boundary" inkscape:connector-curvature="0" />
	<path style="fill:none;stroke:red;stroke-width:1px;stroke-linecap:butt;stroke-linejoin:miter;stroke-opacity:1" d="M 54.0168,634.212 62.3529,617.539 z" id="boundary" inkscape:connector-curvature="0" />
	<path style="fill:none;stroke:red;stroke-width:1px;stroke-linecap:butt;stroke-linejoin:miter;stroke-opacity:1" d="M 62.3529,617.539 75.6908,604.202 z" id="boundary" inkscape:connector-curvature="0" />
	<path style="fill:none;stroke:red;stroke-width:1px;stroke-linecap:butt;stroke-linejoin:miter;stroke-opacity:1" d="M 75.6908,604.202 84.0269,587.529 z" id="boundary" inkscape:connector-curvature="0" />
	<path style="fill:none;stroke:red;stroke-width:1px;stroke-linecap:butt;stroke-linejoin:miter;stroke-opacity:1" d="M 84.0269,587.529 92.363,570.857 z" id="boundary" inkscape:connector-curvature="0" />
	<path style="fill:none;stroke:red;stroke-width:1px;stroke-linecap:butt;stroke-linejoin:miter;stroke-opacity:1" d="M 92.363,570.857 100.699,554.185 z" id="boundary" inkscape:connector-curvature="0" />
	<path style="fill:none;stroke:red;stroke-width:1px;stroke-linecap:butt;stroke-linejoin:miter;stroke-opacity:1" d="M 100.699,554.185 109.035,537.513 z" id="boundary" inkscape:connector-curvature="0" />
	<path style="fill:none;stroke:red;stroke-width:1px;stroke-linecap:butt;stroke-linejoin:miter;stroke-opacity:1" d="M 109.035,537.513 112.37,517.506 z" id="boundary" inkscape:connector-curvature="0" />
	<path style="fill:none;stroke:red;stroke-width:1px;stroke-linecap:butt;stroke-linejoin:miter;stroke-opacity:1" d="M 112.37,517.506 120.706,500.834 z" id="boundary" inkscape:connector-curvature="0" />
	<path style="fill:none;stroke:red;stroke-width:1px;stroke-linecap:butt;stroke-linejoin:miter;stroke-opacity:1" d="M 120.706,500.834 120.706,484.161 z" id="boundary" inkscape:connector-curvature="0" />
	<path style="fill:none;stroke:red;stroke-width:1px;stroke-linecap:butt;stroke-linejoin:miter;stroke-opacity:1" d="M 120.706,484.161 129.042,459.153 z" id="boundary" inkscape:connector-curvature="0" />
	<path style="fill:none;stroke:red;stroke-width:1px;stroke-linecap:butt;stroke-linejoin:miter;stroke-opacity:1" d="M 129.042,459.153 129.042,434.145 z" id="boundary" inkscape:connector-curvature="0" />
	<path style="fill:none;stroke:red;stroke-width:1px;stroke-linecap:butt;stroke-linejoin:miter;stroke-opacity:1" d="M 129.042,434.145 129.042,417.472 z" id="boundary" inkscape:connector-curvature="0" />
	<path style="fill:none;stroke:red;stroke-width:1px;stroke-linecap:butt;stroke-linejoin:miter;stroke-opacity:1" d="M 129.042,417.472 129.042,397.466 z" id="boundary" inkscape:connector-curvature="0" />
	<path style="fill:none;stroke:red;stroke-width:1px;stroke-linecap:butt;stroke-linejoin:miter;stroke-opacity:1" d="M 129.042,397.466 129.042,380.793 z" id="boundary" inkscape:connector-curvature="0" />
	<path style="fill:none;stroke:red;stroke-width:1px;stroke-linecap:butt;stroke-linejoin:miter;stroke-opacity:1" d="M 129.042,380.793 129.042,364.121 z" id="boundary" inkscape:connector-curvature="0" />
	<path style="fill:none;stroke:red;stroke-width:1px;stroke-linecap:butt;stroke-linejoin:miter;stroke-opacity:1" d="M 129.042,364.121 120.706,349.116 z" id="boundary" inkscape:connector-curvature="0" />
	<path style="fill:none;stroke:red;stroke-width:1px;stroke-linecap:butt;stroke-linejoin:miter;stroke-opacity:1" d="M 120.706,349.116 112.37,334.111 z" id="boundary" inkscape:connector-curvature="0" />
	<path style="fill:none;stroke:red;stroke-width:1px;stroke-linecap:butt;stroke-linejoin:miter;stroke-opacity:1" d="M 112.37,334.111 105.701,317.439 z" id="boundary" inkscape:connector-curvature="0" />
	<path style="fill:none;stroke:red;stroke-width:1px;stroke-linecap:butt;stroke-linejoin:miter;stroke-opacity:1" d="M 105.701,317.439 97.3647,302.434 z" id="boundary" inkscape:connector-curvature="0" />
	<path style="fill:none;stroke:red;stroke-width:1px;stroke-linecap:butt;stroke-linejoin:miter;stroke-opacity:1" d="M 97.3647,302.434 85.6941,289.096 z" id="boundary" inkscape:connector-curvature="0" />
	<path style="fill:none;stroke:red;stroke-width:1px;stroke-linecap:butt;stroke-linejoin:miter;stroke-opacity:1" d="M 85.6941,289.096 72.3563,277.425 z" id="boundary" inkscape:connector-curvature="0" />
	<path style="fill:none;stroke:red;stroke-width:1px;stroke-linecap:butt;stroke-linejoin:miter;stroke-opacity:1" d="M 72.3563,277.425 60.6857,264.087 z" id="boundary" inkscape:connector-curvature="0" />
	<path style="fill:none;stroke:red;stroke-width:1px;stroke-linecap:butt;stroke-linejoin:miter;stroke-opacity:1" d="M 60.6857,264.087 47.3479,252.417 z" id="boundary" inkscape:connector-curvature="0" />
	<path style="fill:none;stroke:red;stroke-width:1px;stroke-linecap:butt;stroke-linejoin:miter;stroke-opacity:1" d="M 47.3479,252.417 35.6773,239.079 z" id="boundary" inkscape:connector-curvature="0" />
	<path style="fill:none;stroke:red;stroke-width:1px;stroke-linecap:butt;stroke-linejoin:miter;stroke-opacity:1" d="M 35.6773,239.079 20.6723,230.743 z" id="boundary" inkscape:connector-curvature="0" />
	<path style="fill:none;stroke:red;stroke-width:1px;stroke-linecap:butt;stroke-linejoin:miter;stroke-opacity:1" d="M 20.6723,230.743 12.3361,215.738 z" id="boundary" inkscape:connector-curvature="0" />
	<path style="fill:none;stroke:red;stroke-width:1px;stroke-linecap:butt;stroke-linejoin:miter;stroke-opacity:1" d="M 12.3361,215.738 4,200.733 z" id="boundary" inkscape:connector-curvature="0" />
	<path style="fill:none;stroke:red;stroke-width:1px;stroke-linecap:butt;stroke-linejoin:miter;stroke-opacity:1" d="M 4,200.733 17.3378,187.395 z" id="boundary" inkscape:connector-curvature="0" />
	<path style="fill:none;stroke:red;stroke-width:1px;stroke-linecap:butt;stroke-linejoin:miter;stroke-opacity:1" d="M 17.3378,187.395 30.6756,174.057 z" id="boundary" inkscape:connector-curvature="0" />
	<path style="fill:none;stroke:red;stroke-width:1px;stroke-linecap:butt;stroke-linejoin:miter;stroke-opacity:1" d="M 30.6756,174.057 44.0134,162.387 z" id="boundary" inkscape:connector-curvature="0" />
	<path style="fill:none;stroke:red;stroke-width:1px;stroke-linecap:butt;stroke-linejoin:miter;stroke-opacity:1" d="M 44.0134,162.387 59.0185,154.05 z" id="boundary" inkscape:connector-curvature="0" />
	<path style="fill:none;stroke:red;stroke-width:1px;stroke-linecap:butt;stroke-linejoin:miter;stroke-opacity:1" d="M 59.0185,154.05 75.6908,145.714 z" id="boundary" inkscape:connector-curvature="0" />
	<path style="fill:none;stroke:red;stroke-width:1px;stroke-linecap:butt;stroke-linejoin:miter;stroke-opacity:1" d="M 75.6908,145.714 89.0286,132.376 z" id="boundary" inkscape:connector-curvature="0" />
	<path style="fill:none;stroke:red;stroke-width:1px;stroke-linecap:butt;stroke-linejoin:miter;stroke-opacity:1" d="M 89.0286,132.376 102.366,120.706 z" id="boundary" inkscape:connector-curvature="0" />
	<path style="fill:none;stroke:red;stroke-width:1px;stroke-linecap:butt;stroke-linejoin:miter;stroke-opacity:1" d="M 102.366,120.706 114.037,107.368 z" id="boundary" inkscape:connector-curvature="0" />
	<path style="fill:none;stroke:red;stroke-width:1px;stroke-linecap:butt;stroke-linejoin:miter;stroke-opacity:1" d="M 114.037,107.368 127.375,95.6975 z" id="boundary" inkscape:connector-curvature="0" />
	<path style="fill:none;stroke:red;stroke-width:1px;stroke-linecap:butt;stroke-linejoin:miter;stroke-opacity:1" d="M 127.375,95.6975 142.38,87.3613 z" id="boundary" inkscape:connector-curvature="0" />
	<path style="fill:none;stroke:red;stroke-width:1px;stroke-linecap:butt;stroke-linejoin:miter;stroke-opacity:1" d="M 142.38,87.3613 157.385,79.0252 z" id="boundary" inkscape:connector-curvature="0" />
	<path style="fill:none;stroke:red;stroke-width:1px;stroke-linecap:butt;stroke-linejoin:miter;stroke-opacity:1" d="M 157.385,79.0252 170.723,67.3546 z" id="boundary" inkscape:connector-curvature="0" />
	<path style="fill:none;stroke:red;stroke-width:1px;stroke-linecap:butt;stroke-linejoin:miter;stroke-opacity:1" d="M 170.723,67.3546 184.061,54.0168 z" id="boundary" inkscape:connector-curvature="0" />
	<path style="fill:none;stroke:red;stroke-width:1px;stroke-linecap:butt;stroke-linejoin:miter;stroke-opacity:1" d="M 184.061,54.0168 200.733,45.6807 z" id="boundary" inkscape:connector-curvature="0" />
	<path style="fill:none;stroke:red;stroke-width:1px;stroke-linecap:butt;stroke-linejoin:miter;stroke-opacity:1" d="M 200.733,45.6807 217.405,37.3445 z" id="boundary" inkscape:connector-curvature="0" />
	<path style="fill:none;stroke:red;stroke-width:1px;stroke-linecap:butt;stroke-linejoin:miter;stroke-opacity:1" d="M 217.405,37.3445 234.077,29.0084 z" id="boundary" inkscape:connector-curvature="0" />
	<path style="fill:none;stroke:red;stroke-width:1px;stroke-linecap:butt;stroke-linejoin:miter;stroke-opacity:1" d="M 234.077,29.0084 250.75,20.6723 z" id="boundary" inkscape:connector-curvature="0" />
	<path style="fill:none;stroke:red;stroke-width:1px;stroke-linecap:butt;stroke-linejoin:miter;stroke-opacity:1" d="M 250.75,20.6723 267.422,12.3361 z" id="boundary" inkscape:connector-curvature="0" />
	<path style="fill:none;stroke:red;stroke-width:1px;stroke-linecap:butt;stroke-linejoin:miter;stroke-opacity:1" d="M 267.422,12.3361 284.094,4 z" id="boundary" inkscape:connector-curvature="0" />
	<path style="fill:none;stroke:red;stroke-width:1px;stroke-linecap:butt;stroke-linejoin:miter;stroke-opacity:1" d="M 284.094,4 300.766,4 z" id="boundary" inkscape:connector-curvature="0" />
	<path style="fill:none;stroke:red;stroke-width:1px;stroke-linecap:butt;stroke-linejoin:miter;stroke-opacity:1" d="M 300.766,4 317.439,4 z" id="boundary" inkscape:connector-curvature="0" />
	<path style="fill:none;stroke:red;stroke-width:1px;stroke-linecap:butt;stroke-linejoin:miter;stroke-opacity:1" d="M 317.439,4 334.111,4 z" id="boundary" inkscape:connector-curvature="0" />
	<path style="fill:none;stroke:red;stroke-width:1px;stroke-linecap:butt;stroke-linejoin:miter;stroke-opacity:1" d="M 334.111,4 350.783,4 z" id="boundary" inkscape:connector-curvature="0" />
	<path style="fill:none;stroke:red;stroke-width:1px;stroke-linecap:butt;stroke-linejoin:miter;stroke-opacity:1" d="M 350.783,4 367.455,4 z" id="boundary" inkscape:connector-curvature="0" />
	<path style="fill:none;stroke:red;stroke-width:1px;stroke-linecap:butt;stroke-linejoin:miter;stroke-opacity:1" d="M 367.455,4 384.128,4 z" id="boundary" inkscape:connector-curvature="0" />
	<path style="fill:none;stroke:red;stroke-width:1px;stroke-linecap:butt;stroke-linejoin:miter;stroke-opacity:1" d="M 384.128,4 400.8,4 z" id="boundary" inkscape:connector-curvature="0" />
	<path style="fill:none;stroke:red;stroke-width:1px;stroke-linecap:butt;stroke-linejoin:miter;stroke-opacity:1" d="M 400.8,4 415.805,12.3361 z" id="boundary" inkscape:connector-curvature="0" />
	<path style="fill:none;stroke:red;stroke-width:1px;stroke-linecap:butt;stroke-linejoin:miter;stroke-opacity:1" d="M 415.805,12.3361 432.477,12.3361 z" id="boundary" inkscape:connector-curvature="0" />
	<path style="fill:none;stroke:red;stroke-width:1px;stroke-linecap:butt;stroke-linejoin:miter;stroke-opacity:1" d="M 432.477,12.3361 447.482,20.6723 z" id="boundary" inkscape:connector-curvature="0" />
	<path style="fill:none;stroke:red;stroke-width:1px;stroke-linecap:butt;stroke-linejoin:miter;stroke-opacity:1" d="M 447.482,20.6723 464.155,20.6723 z" id="boundary" inkscape:connector-curvature="0" />
	<path style="fill:none;stroke:red;stroke-width:1px;stroke-linecap:butt;stroke-linejoin:miter;stroke-opacity:1" d="M 464.155,20.6723 477.492,30.6756 z" id="boundary" inkscape:connector-curvature="0" />
	<path style="fill:none;stroke:red;stroke-width:1px;stroke-linecap:butt;stroke-linejoin:miter;stroke-opacity:1" d="M 477.492,30.6756 494.165,30.6756 z" id="boundary" inkscape:connector-curvature="0" />
	<path style="fill:none;stroke:red;stroke-width:1px;stroke-linecap:butt;stroke-linejoin:miter;stroke-opacity:1" d="M 494.165,30.6756 505.835,44.0134 z" id="boundary" inkscape:connector-curvature="0" />
	<path style="fill:none;stroke:red;stroke-width:1px;stroke-linecap:butt;stroke-linejoin:miter;stroke-opacity:1" d="M 505.835,44.0134 519.173,54.0168 z" id="boundary" inkscape:connector-curvature="0" />
	<path style="fill:none;stroke:red;stroke-width:1px;stroke-linecap:butt;stroke-linejoin:miter;stroke-opacity:1" d="M 519.173,54.0168 534.178,62.3529 z" id="boundary" inkscape:connector-curvature="0" />
	<path style="fill:none;stroke:red;stroke-width:1px;stroke-linecap:butt;stroke-linejoin:miter;stroke-opacity:1" d="M 534.178,62.3529 545.849,75.6908 z" id="boundary" inkscape:connector-curvature="0" />
	<path style="fill:none;stroke:red;stroke-width:1px;stroke-linecap:butt;stroke-linejoin:miter;stroke-opacity:1" d="M 545.849,75.6908 559.187,87.3613 z" id="boundary" inkscape:connector-curvature="0" />
	<path style="fill:none;stroke:red;stroke-width:1px;stroke-linecap:butt;stroke-linejoin:miter;stroke-opacity:1" d="M 559.187,87.3613 572.524,97.3647 z" id="boundary" inkscape:connector-curvature="0" />
	<path style="fill:none;stroke:red;stroke-width:1px;stroke-linecap:butt;stroke-linejoin:miter;stroke-opacity:1" d="M 572.524,97.3647 585.862,107.368 z" id="boundary" inkscape:connector-curvature="0" />
	<path style="fill:none;stroke:red;stroke-width:1px;stroke-linecap:butt;stroke-linejoin:miter;stroke-opacity:1" d="M 585.862,107.368 597.533,120.706 z" id="boundary" inkscape:connector-curvature="0" />
	<path style="fill:none;stroke:red;stroke-width:1px;stroke-linecap:butt;stroke-linejoin:miter;stroke-opacity:1" d="M 597.533,120.706 610.871,130.709 z" id="boundary" inkscape:connector-curvature="0" />
	<path style="fill:none;stroke:red;stroke-width:1px;stroke-linecap:butt;stroke-linejoin:miter;stroke-opacity:1" d="M 610.871,130.709 625.876,139.045 z" id="boundary" inkscape:connector-curvature="0" />
	<path style="fill:none;stroke:red;stroke-width:1px;stroke-linecap:butt;stroke-linejoin:miter;stroke-opacity:1" d="M 625.876,139.045 642.548,145.714 z" id="boundary" inkscape:connector-curvature="0" />
	<path style="fill:none;stroke:red;stroke-width:1px;stroke-linecap:butt;stroke-linejoin:miter;stroke-opacity:1" d="M 642.548,145.714 657.553,154.05 z" id="boundary" inkscape:connector-curvature="0" />
	<path style="fill:none;stroke:red;stroke-width:1px;stroke-linecap:butt;stroke-linejoin:miter;stroke-opacity:1" d="M 657.553,154.05 674.225,154.05 z" id="boundary" inkscape:connector-curvature="0" />
	<path style="fill:none;stroke:red;stroke-width:1px;stroke-linecap:butt;stroke-linejoin:miter;stroke-opacity:1" d="M 674.225,154.05 690.897,154.05 z" id="boundary" inkscape:connector-curvature="0" />
	<path style="fill:none;stroke:red;stroke-width:1px;stroke-linecap:butt;stroke-linejoin:miter;stroke-opacity:1" d="M 690.897,154.05 707.57,154.05 z" id="boundary" inkscape:connector-curvature="0" />
	<path style="fill:none;stroke:red;stroke-width:1px;stroke-linecap:butt;stroke-linejoin:miter;stroke-opacity:1" d="M 707.57,154.05 722.575,145.714 z" id="boundary" inkscape:connector-curvature="0" />
	<path style="fill:none;stroke:red;stroke-width:1px;stroke-linecap:butt;stroke-linejoin:miter;stroke-opacity:1" d="M 722.575,145.714 739.247,145.714 z" id="boundary" inkscape:connector-curvature="0" />
	<path style="fill:none;stroke:red;stroke-width:1px;stroke-linecap:butt;stroke-linejoin:miter;stroke-opacity:1" d="M 739.247,145.714 755.919,142.38 z" id="boundary" inkscape:connector-curvature="0" />
	<path style="fill:none;stroke:red;stroke-width:1px;stroke-linecap:butt;stroke-linejoin:miter;stroke-opacity:1" d="M 755.919,142.38 772.592,142.38 z" id="boundary" inkscape:connector-curvature="0" />
	<path style="fill:none;stroke:red;stroke-width:1px;stroke-linecap:butt;stroke-linejoin:miter;stroke-opacity:1" d="M 772.592,142.38 789.264,142.38 z" id="boundary" inkscape:connector-curvature="0" />
	<path style="fill:none;stroke:red;stroke-width:1px;stroke-linecap:butt;stroke-linejoin:miter;stroke-opacity:1" d="M 789.264,142.38 795.933,159.052 z" id="boundary" inkscape:connector-curvature="0" />
	<circle cx="4" cy="200.733" r="4" fill="#0" id="circle0"/>
	<circle cx="12.3361" cy="215.738" r="4" fill="#0" id="circle1"/>
	<circle cx="17.3378" cy="187.395" r="4" fill="#0" id="circle2"/>
	<circle cx="20.6723" cy="230.743" r="4" fill="#0" id="circle3"/>
	<circle cx="30.6756" cy="174.057" r="4" fill="#0" id="circle4"/>
	<circle cx="35.6773" cy="239.079" r="4" fill="#0" id="circle5"/>
	<circle cx="37.3445" cy="684.229" r="4" fill="#0" id="circle6"/>
	<circle cx="37.3445" cy="700.901" r="4" fill="#0" id="circle7"/>
	<circle cx="44.0134" cy="162.387" r="4" fill="#0" id="circle8"/>
	<circle cx="45.6807" cy="659.22" r="4" fill="#0" id="circle9"/>
	<circle cx="45.6807" cy="715.906" r="4" fill="#0" id="circle10"/>
	<circle cx="45.6807" cy="732.578" r="4" fill="#0" id="circle11"/>
	<circle cx="47.3479" cy="252.417" r="4" fill="#0" id="circle12"/>
	<circle cx="54.0168" cy="634.212" r="4" fill="#0" id="circle13"/>
	<circle cx="54.0168" cy="747.583" r="4" fill="#0" id="circle14"/>
	<circle cx="59.0185" cy="154.05" r="4" fill="#0" id="circle15"/>
	<circle cx="60.6857" cy="264.087" r="4" fill="#0" id="circle16"/>
	<circle cx="62.3529" cy="617.539" r="4" fill="#0" id="circle17"/>
	<circle cx="62.3529" cy="762.588" r="4" fill="#0" id="circle18"/>
	<circle cx="70.6891" cy="777.593" r="4" fill="#0" id="circle19"/>
	<circle cx="72.3563" cy="277.425" r="4" fill="#0" id="circle20"/>
	<circle cx="75.6908" cy="145.714" r="4" fill="#0" id="circle21"/>
	<circle cx="75.6908" cy="604.202" r="4" fill="#0" id="circle22"/>
	<circle cx="84.0269" cy="587.529" r="4" fill="#0" id="circle23"/>
	<circle cx="85.6941" cy="289.096" r="4" fill="#0" id="circle24"/>
	<circle cx="87.3613" cy="780.928" r="4" fill="#0" id="circle25"/>
	<circle cx="89.0286" cy="132.376" r="4" fill="#0" id="circle26"/>
	<circle cx="92.363" cy="570.857" r="4" fill="#0" id="circle27"/>
	<circle cx="97.3647" cy="302.434" r="4" fill="#0" id="circle28"/>
	<circle cx="100.699" cy="554.185" r="4" fill="#0" id="circle29"/>
	<circle cx="102.366" cy="120.706" r="4" fill="#0" id="circle30"/>
	<circle cx="104.034" cy="775.926" r="4" fill="#0" id="circle31"/>
	<circle cx="105.701" cy="317.439" r="4" fill="#0" id="circle32"/>
	<circle cx="109.035" cy="537.513" r="4" fill="#0" id="circle33"/>
	<circle cx="112.37" cy="334.111" r="4" fill="#0" id="circle34"/>
	<circle cx="112.37" cy="517.506" r="4" fill="#0" id="circle35"/>
	<circle cx="114.037" cy="107.368" r="4" fill="#0" id="circle36"/>
	<circle cx="120.706" cy="349.116" r="4" fill="#0" id="circle37"/>
	<circle cx="120.706" cy="484.161" r="4" fill="#0" id="circle38"/>
	<circle cx="120.706" cy="500.834" r="4" fill="#0" id="circle39"/>
	<circle cx="120.706" cy="780.928" r="4" fill="#0" id="circle40"/>
	<circle cx="127.375" cy="95.6975" r="4" fill="#0" id="circle41"/>
	<circle cx="129.042" cy="364.121" r="4" fill="#0" id="circle42"/>
	<circle cx="129.042" cy="380.793" r="4" fill="#0" id="circle43"/>
	<circle cx="129.042" cy="397.466" r="4" fill="#0" id="circle44"/>
	<circle cx="129.042" cy="417.472" r="4" fill="#0" id="circle45"/>
	<circle cx="129.042" cy="434.145" r="4" fill="#0" id="circle46"/>
	<circle cx="129.042" cy="459.153" r="4" fill="#0" id="circle47"/>
	<circle cx="137.378" cy="780.928" r="4" fill="#0" id="circle48"/>
	<circle cx="142.38" cy="87.3613" r="4" fill="#0" id="circle49"/>
	<circle cx="142.38" cy="797.6" r="4" fill="#0" id="circle50"/>
	<circle cx="155.718" cy="809.271" r="4" fill="#0" id="circle51"/>
	<circle cx="157.385" cy="79.0252" r="4" fill="#0" id="circle52"/>
	<circle cx="162.387" cy="825.943" r="4" fill="#0" id="circle53"/>
	<circle cx="170.723" cy="67.3546" r="4" fill="#0" id="circle54"/>
	<circle cx="170.723" cy="840.948" r="4" fill="#0" id="circle55"/>
	<circle cx="179.059" cy="855.953" r="4" fill="#0" id="circle56"/>
	<circle cx="184.061" cy="54.0168" r="4" fill="#0" id="circle57"/>
	<circle cx="189.062" cy="869.291" r="4" fill="#0" id="circle58"/>
	<circle cx="197.398" cy="884.296" r="4" fill="#0" id="circle59"/>
	<circle cx="200.733" cy="45.6807" r="4" fill="#0" id="circle60"/>
	<circle cx="209.069" cy="897.634" r="4" fill="#0" id="circle61"/>
	<circle cx="217.405" cy="37.3445" r="4" fill="#0" id="circle62"/>
	<circle cx="224.074" cy="905.97" r="4" fill="#0" id="circle63"/>
	<circle cx="234.077" cy="29.0084" r="4" fill="#0" id="circle64"/>
	<circle cx="240.746" cy="910.971" r="4" fill="#0" id="circle65"/>
	<circle cx="250.75" cy="20.6723" r="4" fill="#0" id="circle66"/>
	<circle cx="257.418" cy="914.306" r="4" fill="#0" id="circle67"/>
	<circle cx="267.422" cy="12.3361" r="4" fill="#0" id="circle68"/>
	<circle cx="274.091" cy="914.306" r="4" fill="#0" id="circle69"/>
	<circle cx="284.094" cy="4" r="4" fill="#0" id="circle70"/>
	<circle cx="289.096" cy="922.642" r="4" fill="#0" id="circle71"/>
	<circle cx="300.766" cy="4" r="4" fill="#0" id="circle72"/>
	<circle cx="304.101" cy="930.978" r="4" fill="#0" id="circle73"/>
	<circle cx="317.439" cy="4" r="4" fill="#0" id="circle74"/>
	<circle cx="320.773" cy="930.978" r="4" fill="#0" id="circle75"/>
	<circle cx="334.111" cy="4" r="4" fill="#0" id="circle76"/>
	<circle cx="335.778" cy="939.314" r="4" fill="#0" id="circle77"/>
	<circle cx="350.783" cy="4" r="4" fill="#0" id="circle78"/>
	<circle cx="350.783" cy="947.65" r="4" fill="#0" id="circle79"/>
	<circle cx="365.788" cy="955.987" r="4" fill="#0" id="circle80"/>
	<circle cx="367.455" cy="4" r="4" fill="#0" id="circle81"/>
	<circle cx="382.461" cy="960.988" r="4" fill="#0" id="circle82"/>
	<circle cx="384.128" cy="4" r="4" fill="#0" id="circle83"/>
	<circle cx="399.133" cy="964.323" r="4" fill="#0" id="circle84"/>
	<circle cx="400.8" cy="4" r="4" fill="#0" id="circle85"/>
	<circle cx="414.138" cy="972.659" r="4" fill="#0" id="circle86"/>
	<circle cx="415.805" cy="12.3361" r="4" fill="#0" id="circle87"/>
	<circle cx="430.81" cy="975.993" r="4" fill="#0" id="circle88"/>
	<circle cx="432.477" cy="12.3361" r="4" fill="#0" id="circle89"/>
	<circle cx="442.481" cy="989.331" r="4" fill="#0" id="circle90"/>
	<circle cx="447.482" cy="20.6723" r="4" fill="#0" id="circle91"/>
	<circle cx="459.153" cy="989.331" r="4" fill="#0" id="circle92"/>
	<circle cx="464.155" cy="20.6723" r="4" fill="#0" id="circle93"/>
	<circle cx="475.825" cy="996" r="4" fill="#0" id="circle94"/>
	<circle cx="477.492" cy="30.6756" r="4" fill="#0" id="circle95"/>
	<circle cx="492.497" cy="989.331" r="4" fill="#0" id="circle96"/>
	<circle cx="494.165" cy="30.6756" r="4" fill="#0" id="circle97"/>
	<circle cx="505.835" cy="44.0134" r="4" fill="#0" id="circle98"/>
	<circle cx="509.17" cy="996" r="4" fill="#0" id="circle99"/>
	<circle cx="519.173" cy="54.0168" r="4" fill="#0" id="circle100"/>
	<circle cx="525.842" cy="989.331" r="4" fill="#0" id="circle101"/>
	<circle cx="534.178" cy="62.3529" r="4" fill="#0" id="circle102"/>
	<circle cx="542.514" cy="989.331" r="4" fill="#0" id="circle103"/>
	<circle cx="545.849" cy="75.6908" r="4" fill="#0" id="circle104"/>
	<circle cx="557.519" cy="980.995" r="4" fill="#0" id="circle105"/>
	<circle cx="559.187" cy="87.3613" r="4" fill="#0" id="circle106"/>
	<circle cx="572.524" cy="97.3647" r="4" fill="#0" id="circle107"/>
	<circle cx="574.192" cy="980.995" r="4" fill="#0" id="circle108"/>
	<circle cx="585.862" cy="107.368" r="4" fill="#0" id="circle109"/>
	<circle cx="589.197" cy="972.659" r="4" fill="#0" id="circle110"/>
	<circle cx="597.533" cy="120.706" r="4" fill="#0" id="circle111"/>
	<circle cx="605.869" cy="964.323" r="4" fill="#0" id="circle112"/>
	<circle cx="610.871" cy="130.709" r="4" fill="#0" id="circle113"/>
	<circle cx="622.541" cy="964.323" r="4" fill="#0" id="circle114"/>
	<circle cx="625.876" cy="139.045" r="4" fill="#0" id="circle115"/>
	<circle cx="637.546" cy="955.987" r="4" fill="#0" id="circle116"/>
	<circle cx="639.213" cy="772.592" r="4" fill="#0" id="circle117"/>
	<circle cx="642.548" cy="145.714" r="4" fill="#0" id="circle118"/>
	<circle cx="647.55" cy="747.583" r="4" fill="#0" id="circle119"/>
	<circle cx="647.55" cy="787.597" r="4" fill="#0" id="circle120"/>
	<circle cx="652.551" cy="947.65" r="4" fill="#0" id="circle121"/>
	<circle cx="655.886" cy="730.911" r="4" fill="#0" id="circle122"/>
	<circle cx="657.553" cy="154.05" r="4" fill="#0" id="circle123"/>
	<circle cx="662.555" cy="795.933" r="4" fill="#0" id="circle124"/>
	<circle cx="664.222" cy="714.239" r="4" fill="#0" id="circle125"/>
	<circle cx="667.556" cy="939.314" r="4" fill="#0" id="circle126"/>
	<circle cx="674.225" cy="154.05" r="4" fill="#0" id="circle127"/>
	<circle cx="677.56" cy="702.568" r="4" fill="#0" id="circle128"/>
	<circle cx="677.56" cy="804.269" r="4" fill="#0" id="circle129"/>
	<circle cx="684.229" cy="937.647" r="4" fill="#0" id="circle130"/>
	<circle cx="689.23" cy="689.23" r="4" fill="#0" id="circle131"/>
	<circle cx="690.897" cy="154.05" r="4" fill="#0" id="circle132"/>
	<circle cx="692.565" cy="812.605" r="4" fill="#0" id="circle133"/>
	<circle cx="697.566" cy="439.146" r="4" fill="#0" id="circle134"/>
	<circle cx="697.566" cy="922.642" r="4" fill="#0" id="circle135"/>
	<circle cx="705.903" cy="454.151" r="4" fill="#0" id="circle136"/>
	<circle cx="705.903" cy="470.824" r="4" fill="#0" id="circle137"/>
	<circle cx="705.903" cy="689.23" r="4" fill="#0" id="circle138"/>
	<circle cx="707.57" cy="154.05" r="4" fill="#0" id="circle139"/>
	<circle cx="707.57" cy="820.941" r="4" fill="#0" id="circle140"/>
	<circle cx="714.239" cy="439.146" r="4" fill="#0" id="circle141"/>
	<circle cx="714.239" cy="485.829" r="4" fill="#0" id="circle142"/>
	<circle cx="714.239" cy="914.306" r="4" fill="#0" id="circle143"/>
	<circle cx="722.575" cy="145.714" r="4" fill="#0" id="circle144"/>
	<circle cx="722.575" cy="500.834" r="4" fill="#0" id="circle145"/>
	<circle cx="722.575" cy="692.565" r="4" fill="#0" id="circle146"/>
	<circle cx="722.575" cy="829.277" r="4" fill="#0" id="circle147"/>
	<circle cx="729.244" cy="430.81" r="4" fill="#0" id="circle148"/>
	<circle cx="730.911" cy="905.97" r="4" fill="#0" id="circle149"/>
	<circle cx="734.245" cy="514.171" r="4" fill="#0" id="circle150"/>
	<circle cx="734.245" cy="705.903" r="4" fill="#0" id="circle151"/>
	<circle cx="737.58" cy="837.613" r="4" fill="#0" id="circle152"/>
	<circle cx="739.247" cy="145.714" r="4" fill="#0" id="circle153"/>
	<circle cx="742.582" cy="420.807" r="4" fill="#0" id="circle154"/>
	<circle cx="742.582" cy="529.176" r="4" fill="#0" id="circle155"/>
	<circle cx="747.583" cy="850.951" r="4" fill="#0" id="circle156"/>
	<circle cx="747.583" cy="897.634" r="4" fill="#0" id="circle157"/>
	<circle cx="750.918" cy="712.571" r="4" fill="#0" id="circle158"/>
	<circle cx="754.252" cy="542.514" r="4" fill="#0" id="circle159"/>
	<circle cx="755.919" cy="142.38" r="4" fill="#0" id="circle160"/>
	<circle cx="755.919" cy="255.751" r="4" fill="#0" id="circle161"/>
	<circle cx="759.254" cy="412.471" r="4" fill="#0" id="circle162"/>
	<circle cx="760.921" cy="885.963" r="4" fill="#0" id="circle163"/>
	<circle cx="762.588" cy="859.287" r="4" fill="#0" id="circle164"/>
	<circle cx="764.255" cy="239.079" r="4" fill="#0" id="circle165"/>
	<circle cx="764.255" cy="270.756" r="4" fill="#0" id="circle166"/>
	<circle cx="764.255" cy="722.575" r="4" fill="#0" id="circle167"/>
	<circle cx="767.59" cy="554.185" r="4" fill="#0" id="circle168"/>
	<circle cx="772.592" cy="142.38" r="4" fill="#0" id="circle169"/>
	<circle cx="772.592" cy="222.407" r="4" fill="#0" id="circle170"/>
	<circle cx="772.592" cy="285.761" r="4" fill="#0" id="circle171"/>
	<circle cx="772.592" cy="397.466" r="4" fill="#0" id="circle172"/>
	<circle cx="779.261" cy="567.523" r="4" fill="#0" id="circle173"/>
	<circle cx="780.928" cy="205.734" r="4" fill="#0" id="circle174"/>
	<circle cx="780.928" cy="722.575" r="4" fill="#0" id="circle175"/>
	<circle cx="789.264" cy="142.38" r="4" fill="#0" id="circle176"/>
	<circle cx="789.264" cy="180.726" r="4" fill="#0" id="circle177"/>
	<circle cx="789.264" cy="292.43" r="4" fill="#0" id="circle178"/>
	<circle cx="789.264" cy="380.793" r="4" fill="#0" id="circle179"/>
	<circle cx="792.598" cy="579.193" r="4" fill="#0" id="circle180"/>
	<circle cx="795.933" cy="159.052" r="4" fill="#0" id="circle181"/>
	<circle cx="797.6" cy="595.866" r="4" fill="#0" id="circle182"/>
	<circle cx="797.6" cy="705.903" r="4" fill="#0" id="circle183"/>
	<circle cx="800.934" cy="305.768" r="4" fill="#0" id="circle184"/>
	<circle cx="802.602" cy="369.123" r="4" fill="#0" id="circle185"/>
	<circle cx="805.936" cy="347.449" r="4" fill="#0" id="circle186"/>
	<circle cx="805.936" cy="610.871" r="4" fill="#0" id="circle187"/>
	<circle cx="805.936" cy="630.877" r="4" fill="#0" id="circle188"/>
	<circle cx="805.936" cy="655.886" r="4" fill="#0" id="circle189"/>
	<circle cx="805.936" cy="680.894" r="4" fill="#0" id="circle190"/>
	<circle cx="809.271" cy="320.773" r="4" fill="#0" id="circle191"/>
	</g>
</svg>