<?xml version="1.0" encoding="UTF-8" standalone="no"?>
<!-- Created with CurveBenchmark -->
<svg
	xmlns:dc="http://purl.org/dc/elements/1.1/"
	xmlns:cc="http://creativecommons.org/ns#"
	xmlns:rdf="http://www.w3.org/1999/02/22-rdf-syntax-ns#"
	xmlns:svg="http://www.w3.org/2000/svg"
	xmlns="http://www.w3.org/2000/svg"
	xmlns:sodipodi="http://sodipodi.sourceforge.net/DTD/sodipodi-0.dtd"
	xmlns:inkscape="http://www.inkscape.org/namespaces/inkscape"
	width="1000"
	height="1000"
	id="svg2"
	version="1.1"
	sodipodi:docname="manifold/connect2d-key06.png.txt">
<defs
	id="defs4" />
<metadata
	id="metadata7">
	<rdf:RDF>
		<cc:Work
			rdf:about="">
			<dc:format>image/svg+xml</dc:format>
			<dc:type
				rdf:resource="http://purl.org/dc/dcmitype/StillImage" />
			<dc:title></dc:title>
		</cc:Work>
	</rdf:RDF>
</metadata>
<g
	inkscape:label="Layer 1"
	inkscape:groupmode="layer"
	id="layer1">
	<path style="fill:none;stroke:red;stroke-width:1px;stroke-linecap:butt;stroke-linejoin:miter;stroke-opacity:1" d="M 996,205.763 996,230.049 z" id="boundary" inkscape:connector-curvature="0" />
	<path style="fill:none;stroke:red;stroke-width:1px;stroke-linecap:butt;stroke-linejoin:miter;stroke-opacity:1" d="M 996,230.049 990.395,256.203 z" id="boundary" inkscape:connector-curvature="0" />
	<path style="fill:none;stroke:red;stroke-width:1px;stroke-linecap:butt;stroke-linejoin:miter;stroke-opacity:1" d="M 990.395,256.203 971.714,265.544 z" id="boundary" inkscape:connector-curvature="0" />
	<path style="fill:none;stroke:red;stroke-width:1px;stroke-linecap:butt;stroke-linejoin:miter;stroke-opacity:1" d="M 971.714,265.544 956.768,280.49 z" id="boundary" inkscape:connector-curvature="0" />
	<path style="fill:none;stroke:red;stroke-width:1px;stroke-linecap:butt;stroke-linejoin:miter;stroke-opacity:1" d="M 956.768,280.49 941.823,295.435 z" id="boundary" inkscape:connector-curvature="0" />
	<path style="fill:none;stroke:red;stroke-width:1px;stroke-linecap:butt;stroke-linejoin:miter;stroke-opacity:1" d="M 941.823,295.435 925.009,304.776 z" id="boundary" inkscape:connector-curvature="0" />
	<path style="fill:none;stroke:red;stroke-width:1px;stroke-linecap:butt;stroke-linejoin:miter;stroke-opacity:1" d="M 925.009,304.776 906.328,304.776 z" id="boundary" inkscape:connector-curvature="0" />
	<path style="fill:none;stroke:red;stroke-width:1px;stroke-linecap:butt;stroke-linejoin:miter;stroke-opacity:1" d="M 906.328,304.776 887.646,304.776 z" id="boundary" inkscape:connector-curvature="0" />
	<path style="fill:none;stroke:red;stroke-width:1px;stroke-linecap:butt;stroke-linejoin:miter;stroke-opacity:1" d="M 887.646,304.776 868.964,304.776 z" id="boundary" inkscape:connector-curvature="0" />
	<path style="fill:none;stroke:red;stroke-width:1px;stroke-linecap:butt;stroke-linejoin:miter;stroke-opacity:1" d="M 868.964,304.776 852.151,295.435 z" id="boundary" inkscape:connector-curvature="0" />
	<path style="fill:none;stroke:red;stroke-width:1px;stroke-linecap:butt;stroke-linejoin:miter;stroke-opacity:1" d="M 852.151,295.435 835.337,286.094 z" id="boundary" inkscape:connector-curvature="0" />
	<path style="fill:none;stroke:red;stroke-width:1px;stroke-linecap:butt;stroke-linejoin:miter;stroke-opacity:1" d="M 835.337,286.094 816.655,286.094 z" id="boundary" inkscape:connector-curvature="0" />
	<path style="fill:none;stroke:red;stroke-width:1px;stroke-linecap:butt;stroke-linejoin:miter;stroke-opacity:1" d="M 816.655,286.094 799.842,295.435 z" id="boundary" inkscape:connector-curvature="0" />
	<path style="fill:none;stroke:red;stroke-width:1px;stroke-linecap:butt;stroke-linejoin:miter;stroke-opacity:1" d="M 799.842,295.435 781.16,304.776 z" id="boundary" inkscape:connector-curvature="0" />
	<path style="fill:none;stroke:red;stroke-width:1px;stroke-linecap:butt;stroke-linejoin:miter;stroke-opacity:1" d="M 781.16,304.776 764.347,295.435 z" id="boundary" inkscape:connector-curvature="0" />
	<path style="fill:none;stroke:red;stroke-width:1px;stroke-linecap:butt;stroke-linejoin:miter;stroke-opacity:1" d="M 764.347,295.435 747.533,304.776 z" id="boundary" inkscape:connector-curvature="0" />
	<path style="fill:none;stroke:red;stroke-width:1px;stroke-linecap:butt;stroke-linejoin:miter;stroke-opacity:1" d="M 747.533,304.776 732.588,293.567 z" id="boundary" inkscape:connector-curvature="0" />
	<path style="fill:none;stroke:red;stroke-width:1px;stroke-linecap:butt;stroke-linejoin:miter;stroke-opacity:1" d="M 732.588,293.567 723.247,276.753 z" id="boundary" inkscape:connector-curvature="0" />
	<path style="fill:none;stroke:red;stroke-width:1px;stroke-linecap:butt;stroke-linejoin:miter;stroke-opacity:1" d="M 723.247,276.753 704.565,276.753 z" id="boundary" inkscape:connector-curvature="0" />
	<path style="fill:none;stroke:red;stroke-width:1px;stroke-linecap:butt;stroke-linejoin:miter;stroke-opacity:1" d="M 704.565,276.753 685.883,276.753 z" id="boundary" inkscape:connector-curvature="0" />
	<path style="fill:none;stroke:red;stroke-width:1px;stroke-linecap:butt;stroke-linejoin:miter;stroke-opacity:1" d="M 685.883,276.753 667.202,276.753 z" id="boundary" inkscape:connector-curvature="0" />
	<path style="fill:none;stroke:red;stroke-width:1px;stroke-linecap:butt;stroke-linejoin:miter;stroke-opacity:1" d="M 667.202,276.753 650.388,286.094 z" id="boundary" inkscape:connector-curvature="0" />
	<path style="fill:none;stroke:red;stroke-width:1px;stroke-linecap:butt;stroke-linejoin:miter;stroke-opacity:1" d="M 650.388,286.094 637.311,301.04 z" id="boundary" inkscape:connector-curvature="0" />
	<path style="fill:none;stroke:red;stroke-width:1px;stroke-linecap:butt;stroke-linejoin:miter;stroke-opacity:1" d="M 637.311,301.04 618.629,304.776 z" id="boundary" inkscape:connector-curvature="0" />
	<path style="fill:none;stroke:red;stroke-width:1px;stroke-linecap:butt;stroke-linejoin:miter;stroke-opacity:1" d="M 618.629,304.776 599.947,301.04 z" id="boundary" inkscape:connector-curvature="0" />
	<path style="fill:none;stroke:red;stroke-width:1px;stroke-linecap:butt;stroke-linejoin:miter;stroke-opacity:1" d="M 599.947,301.04 581.266,304.776 z" id="boundary" inkscape:connector-curvature="0" />
	<path style="fill:none;stroke:red;stroke-width:1px;stroke-linecap:butt;stroke-linejoin:miter;stroke-opacity:1" d="M 581.266,304.776 562.584,304.776 z" id="boundary" inkscape:connector-curvature="0" />
	<path style="fill:none;stroke:red;stroke-width:1px;stroke-linecap:butt;stroke-linejoin:miter;stroke-opacity:1" d="M 562.584,304.776 543.902,304.776 z" id="boundary" inkscape:connector-curvature="0" />
	<path style="fill:none;stroke:red;stroke-width:1px;stroke-linecap:butt;stroke-linejoin:miter;stroke-opacity:1" d="M 543.902,304.776 525.22,310.38 z" id="boundary" inkscape:connector-curvature="0" />
	<path style="fill:none;stroke:red;stroke-width:1px;stroke-linecap:butt;stroke-linejoin:miter;stroke-opacity:1" d="M 525.22,310.38 510.275,323.458 z" id="boundary" inkscape:connector-curvature="0" />
	<path style="fill:none;stroke:red;stroke-width:1px;stroke-linecap:butt;stroke-linejoin:miter;stroke-opacity:1" d="M 510.275,323.458 495.33,340.271 z" id="boundary" inkscape:connector-curvature="0" />
	<path style="fill:none;stroke:red;stroke-width:1px;stroke-linecap:butt;stroke-linejoin:miter;stroke-opacity:1" d="M 495.33,340.271 476.648,342.139 z" id="boundary" inkscape:connector-curvature="0" />
	<path style="fill:none;stroke:red;stroke-width:1px;stroke-linecap:butt;stroke-linejoin:miter;stroke-opacity:1" d="M 476.648,342.139 463.571,327.194 z" id="boundary" inkscape:connector-curvature="0" />
	<path style="fill:none;stroke:red;stroke-width:1px;stroke-linecap:butt;stroke-linejoin:miter;stroke-opacity:1" d="M 463.571,327.194 444.889,323.458 z" id="boundary" inkscape:connector-curvature="0" />
	<path style="fill:none;stroke:red;stroke-width:1px;stroke-linecap:butt;stroke-linejoin:miter;stroke-opacity:1" d="M 444.889,323.458 426.207,323.458 z" id="boundary" inkscape:connector-curvature="0" />
	<path style="fill:none;stroke:red;stroke-width:1px;stroke-linecap:butt;stroke-linejoin:miter;stroke-opacity:1" d="M 426.207,323.458 407.525,323.458 z" id="boundary" inkscape:connector-curvature="0" />
	<path style="fill:none;stroke:red;stroke-width:1px;stroke-linecap:butt;stroke-linejoin:miter;stroke-opacity:1" d="M 407.525,323.458 388.844,332.798 z" id="boundary" inkscape:connector-curvature="0" />
	<path style="fill:none;stroke:red;stroke-width:1px;stroke-linecap:butt;stroke-linejoin:miter;stroke-opacity:1" d="M 388.844,332.798 375.766,347.744 z" id="boundary" inkscape:connector-curvature="0" />
	<path style="fill:none;stroke:red;stroke-width:1px;stroke-linecap:butt;stroke-linejoin:miter;stroke-opacity:1" d="M 375.766,347.744 360.821,360.821 z" id="boundary" inkscape:connector-curvature="0" />
	<path style="fill:none;stroke:red;stroke-width:1px;stroke-linecap:butt;stroke-linejoin:miter;stroke-opacity:1" d="M 360.821,360.821 349.612,379.503 z" id="boundary" inkscape:connector-curvature="0" />
	<path style="fill:none;stroke:red;stroke-width:1px;stroke-linecap:butt;stroke-linejoin:miter;stroke-opacity:1" d="M 349.612,379.503 332.798,388.844 z" id="boundary" inkscape:connector-curvature="0" />
	<path style="fill:none;stroke:red;stroke-width:1px;stroke-linecap:butt;stroke-linejoin:miter;stroke-opacity:1" d="M 332.798,388.844 314.117,398.185 z" id="boundary" inkscape:connector-curvature="0" />
	<path style="fill:none;stroke:red;stroke-width:1px;stroke-linecap:butt;stroke-linejoin:miter;stroke-opacity:1" d="M 314.117,398.185 302.908,416.866 z" id="boundary" inkscape:connector-curvature="0" />
	<path style="fill:none;stroke:red;stroke-width:1px;stroke-linecap:butt;stroke-linejoin:miter;stroke-opacity:1" d="M 302.908,416.866 286.094,426.207 z" id="boundary" inkscape:connector-curvature="0" />
	<path style="fill:none;stroke:red;stroke-width:1px;stroke-linecap:butt;stroke-linejoin:miter;stroke-opacity:1" d="M 286.094,426.207 271.149,443.021 z" id="boundary" inkscape:connector-curvature="0" />
	<path style="fill:none;stroke:red;stroke-width:1px;stroke-linecap:butt;stroke-linejoin:miter;stroke-opacity:1" d="M 271.149,443.021 252.467,443.021 z" id="boundary" inkscape:connector-curvature="0" />
	<path style="fill:none;stroke:red;stroke-width:1px;stroke-linecap:butt;stroke-linejoin:miter;stroke-opacity:1" d="M 252.467,443.021 233.785,443.021 z" id="boundary" inkscape:connector-curvature="0" />
	<path style="fill:none;stroke:red;stroke-width:1px;stroke-linecap:butt;stroke-linejoin:miter;stroke-opacity:1" d="M 233.785,443.021 215.104,444.889 z" id="boundary" inkscape:connector-curvature="0" />
	<path style="fill:none;stroke:red;stroke-width:1px;stroke-linecap:butt;stroke-linejoin:miter;stroke-opacity:1" d="M 215.104,444.889 196.422,444.889 z" id="boundary" inkscape:connector-curvature="0" />
	<path style="fill:none;stroke:red;stroke-width:1px;stroke-linecap:butt;stroke-linejoin:miter;stroke-opacity:1" d="M 196.422,444.889 177.74,444.889 z" id="boundary" inkscape:connector-curvature="0" />
	<path style="fill:none;stroke:red;stroke-width:1px;stroke-linecap:butt;stroke-linejoin:miter;stroke-opacity:1" d="M 177.74,444.889 159.058,443.021 z" id="boundary" inkscape:connector-curvature="0" />
	<path style="fill:none;stroke:red;stroke-width:1px;stroke-linecap:butt;stroke-linejoin:miter;stroke-opacity:1" d="M 159.058,443.021 142.245,433.68 z" id="boundary" inkscape:connector-curvature="0" />
	<path style="fill:none;stroke:red;stroke-width:1px;stroke-linecap:butt;stroke-linejoin:miter;stroke-opacity:1" d="M 142.245,433.68 127.299,422.471 z" id="boundary" inkscape:connector-curvature="0" />
	<path style="fill:none;stroke:red;stroke-width:1px;stroke-linecap:butt;stroke-linejoin:miter;stroke-opacity:1" d="M 127.299,422.471 116.09,407.525 z" id="boundary" inkscape:connector-curvature="0" />
	<path style="fill:none;stroke:red;stroke-width:1px;stroke-linecap:butt;stroke-linejoin:miter;stroke-opacity:1" d="M 116.09,407.525 99.2768,398.185 z" id="boundary" inkscape:connector-curvature="0" />
	<path style="fill:none;stroke:red;stroke-width:1px;stroke-linecap:butt;stroke-linejoin:miter;stroke-opacity:1" d="M 99.2768,398.185 80.5951,401.921 z" id="boundary" inkscape:connector-curvature="0" />
	<path style="fill:none;stroke:red;stroke-width:1px;stroke-linecap:butt;stroke-linejoin:miter;stroke-opacity:1" d="M 80.5951,401.921 61.9134,394.448 z" id="boundary" inkscape:connector-curvature="0" />
	<path style="fill:none;stroke:red;stroke-width:1px;stroke-linecap:butt;stroke-linejoin:miter;stroke-opacity:1" d="M 61.9134,394.448 50.7043,379.503 z" id="boundary" inkscape:connector-curvature="0" />
	<path style="fill:none;stroke:red;stroke-width:1px;stroke-linecap:butt;stroke-linejoin:miter;stroke-opacity:1" d="M 50.7043,379.503 50.7043,360.821 z" id="boundary" inkscape:connector-curvature="0" />
	<path style="fill:none;stroke:red;stroke-width:1px;stroke-linecap:butt;stroke-linejoin:miter;stroke-opacity:1" d="M 50.7043,360.821 35.7589,349.612 z" id="boundary" inkscape:connector-curvature="0" />
	<path style="fill:none;stroke:red;stroke-width:1px;stroke-linecap:butt;stroke-linejoin:miter;stroke-opacity:1" d="M 35.7589,349.612 32.0226,330.93 z" id="boundary" inkscape:connector-curvature="0" />
	<path style="fill:none;stroke:red;stroke-width:1px;stroke-linecap:butt;stroke-linejoin:miter;stroke-opacity:1" d="M 32.0226,330.93 22.6817,314.117 z" id="boundary" inkscape:connector-curvature="0" />
	<path style="fill:none;stroke:red;stroke-width:1px;stroke-linecap:butt;stroke-linejoin:miter;stroke-opacity:1" d="M 22.6817,314.117 13.3409,297.303 z" id="boundary" inkscape:connector-curvature="0" />
	<path style="fill:none;stroke:red;stroke-width:1px;stroke-linecap:butt;stroke-linejoin:miter;stroke-opacity:1" d="M 13.3409,297.303 13.3409,278.621 z" id="boundary" inkscape:connector-curvature="0" />
	<path style="fill:none;stroke:red;stroke-width:1px;stroke-linecap:butt;stroke-linejoin:miter;stroke-opacity:1" d="M 13.3409,278.621 4,261.808 z" id="boundary" inkscape:connector-curvature="0" />
	<path style="fill:none;stroke:red;stroke-width:1px;stroke-linecap:butt;stroke-linejoin:miter;stroke-opacity:1" d="M 4,261.808 4,243.126 z" id="boundary" inkscape:connector-curvature="0" />
	<path style="fill:none;stroke:red;stroke-width:1px;stroke-linecap:butt;stroke-linejoin:miter;stroke-opacity:1" d="M 4,243.126 13.3409,213.235 z" id="boundary" inkscape:connector-curvature="0" />
	<path style="fill:none;stroke:red;stroke-width:1px;stroke-linecap:butt;stroke-linejoin:miter;stroke-opacity:1" d="M 13.3409,213.235 4,196.422 z" id="boundary" inkscape:connector-curvature="0" />
	<path style="fill:none;stroke:red;stroke-width:1px;stroke-linecap:butt;stroke-linejoin:miter;stroke-opacity:1" d="M 4,196.422 4,177.74 z" id="boundary" inkscape:connector-curvature="0" />
	<path style="fill:none;stroke:red;stroke-width:1px;stroke-linecap:butt;stroke-linejoin:miter;stroke-opacity:1" d="M 4,177.74 18.9454,162.795 z" id="boundary" inkscape:connector-curvature="0" />
	<path style="fill:none;stroke:red;stroke-width:1px;stroke-linecap:butt;stroke-linejoin:miter;stroke-opacity:1" d="M 18.9454,162.795 13.3409,140.377 z" id="boundary" inkscape:connector-curvature="0" />
	<path style="fill:none;stroke:red;stroke-width:1px;stroke-linecap:butt;stroke-linejoin:miter;stroke-opacity:1" d="M 13.3409,140.377 32.0226,121.695 z" id="boundary" inkscape:connector-curvature="0" />
	<path style="fill:none;stroke:red;stroke-width:1px;stroke-linecap:butt;stroke-linejoin:miter;stroke-opacity:1" d="M 32.0226,121.695 32.0226,103.013 z" id="boundary" inkscape:connector-curvature="0" />
	<path style="fill:none;stroke:red;stroke-width:1px;stroke-linecap:butt;stroke-linejoin:miter;stroke-opacity:1" d="M 32.0226,103.013 41.3635,84.3315 z" id="boundary" inkscape:connector-curvature="0" />
	<path style="fill:none;stroke:red;stroke-width:1px;stroke-linecap:butt;stroke-linejoin:miter;stroke-opacity:1" d="M 41.3635,84.3315 50.7043,65.6497 z" id="boundary" inkscape:connector-curvature="0" />
	<path style="fill:none;stroke:red;stroke-width:1px;stroke-linecap:butt;stroke-linejoin:miter;stroke-opacity:1" d="M 50.7043,65.6497 65.6497,50.7043 z" id="boundary" inkscape:connector-curvature="0" />
	<path style="fill:none;stroke:red;stroke-width:1px;stroke-linecap:butt;stroke-linejoin:miter;stroke-opacity:1" d="M 65.6497,50.7043 84.3315,41.3635 z" id="boundary" inkscape:connector-curvature="0" />
	<path style="fill:none;stroke:red;stroke-width:1px;stroke-linecap:butt;stroke-linejoin:miter;stroke-opacity:1" d="M 84.3315,41.3635 103.013,41.3635 z" id="boundary" inkscape:connector-curvature="0" />
	<path style="fill:none;stroke:red;stroke-width:1px;stroke-linecap:butt;stroke-linejoin:miter;stroke-opacity:1" d="M 103.013,41.3635 119.827,32.0226 z" id="boundary" inkscape:connector-curvature="0" />
	<path style="fill:none;stroke:red;stroke-width:1px;stroke-linecap:butt;stroke-linejoin:miter;stroke-opacity:1" d="M 119.827,32.0226 134.772,18.9454 z" id="boundary" inkscape:connector-curvature="0" />
	<path style="fill:none;stroke:red;stroke-width:1px;stroke-linecap:butt;stroke-linejoin:miter;stroke-opacity:1" d="M 134.772,18.9454 153.454,18.9454 z" id="boundary" inkscape:connector-curvature="0" />
	<path style="fill:none;stroke:red;stroke-width:1px;stroke-linecap:butt;stroke-linejoin:miter;stroke-opacity:1" d="M 153.454,18.9454 172.136,9.60452 z" id="boundary" inkscape:connector-curvature="0" />
	<path style="fill:none;stroke:red;stroke-width:1px;stroke-linecap:butt;stroke-linejoin:miter;stroke-opacity:1" d="M 172.136,9.60452 190.817,4 z" id="boundary" inkscape:connector-curvature="0" />
	<path style="fill:none;stroke:red;stroke-width:1px;stroke-linecap:butt;stroke-linejoin:miter;stroke-opacity:1" d="M 190.817,4 209.499,4 z" id="boundary" inkscape:connector-curvature="0" />
	<path style="fill:none;stroke:red;stroke-width:1px;stroke-linecap:butt;stroke-linejoin:miter;stroke-opacity:1" d="M 209.499,4 228.181,4 z" id="boundary" inkscape:connector-curvature="0" />
	<path style="fill:none;stroke:red;stroke-width:1px;stroke-linecap:butt;stroke-linejoin:miter;stroke-opacity:1" d="M 228.181,4 246.863,4 z" id="boundary" inkscape:connector-curvature="0" />
	<path style="fill:none;stroke:red;stroke-width:1px;stroke-linecap:butt;stroke-linejoin:miter;stroke-opacity:1" d="M 246.863,4 265.544,4 z" id="boundary" inkscape:connector-curvature="0" />
	<path style="fill:none;stroke:red;stroke-width:1px;stroke-linecap:butt;stroke-linejoin:miter;stroke-opacity:1" d="M 265.544,4 280.49,15.209 z" id="boundary" inkscape:connector-curvature="0" />
	<path style="fill:none;stroke:red;stroke-width:1px;stroke-linecap:butt;stroke-linejoin:miter;stroke-opacity:1" d="M 280.49,15.209 299.171,22.6817 z" id="boundary" inkscape:connector-curvature="0" />
	<path style="fill:none;stroke:red;stroke-width:1px;stroke-linecap:butt;stroke-linejoin:miter;stroke-opacity:1" d="M 299.171,22.6817 317.853,22.6817 z" id="boundary" inkscape:connector-curvature="0" />
	<path style="fill:none;stroke:red;stroke-width:1px;stroke-linecap:butt;stroke-linejoin:miter;stroke-opacity:1" d="M 317.853,22.6817 330.93,37.6271 z" id="boundary" inkscape:connector-curvature="0" />
	<path style="fill:none;stroke:red;stroke-width:1px;stroke-linecap:butt;stroke-linejoin:miter;stroke-opacity:1" d="M 330.93,37.6271 345.876,50.7043 z" id="boundary" inkscape:connector-curvature="0" />
	<path style="fill:none;stroke:red;stroke-width:1px;stroke-linecap:butt;stroke-linejoin:miter;stroke-opacity:1" d="M 345.876,50.7043 351.48,69.3861 z" id="boundary" inkscape:connector-curvature="0" />
	<path style="fill:none;stroke:red;stroke-width:1px;stroke-linecap:butt;stroke-linejoin:miter;stroke-opacity:1" d="M 351.48,69.3861 370.162,74.9906 z" id="boundary" inkscape:connector-curvature="0" />
	<path style="fill:none;stroke:red;stroke-width:1px;stroke-linecap:butt;stroke-linejoin:miter;stroke-opacity:1" d="M 370.162,74.9906 379.503,91.8041 z" id="boundary" inkscape:connector-curvature="0" />
	<path style="fill:none;stroke:red;stroke-width:1px;stroke-linecap:butt;stroke-linejoin:miter;stroke-opacity:1" d="M 379.503,91.8041 396.316,101.145 z" id="boundary" inkscape:connector-curvature="0" />
	<path style="fill:none;stroke:red;stroke-width:1px;stroke-linecap:butt;stroke-linejoin:miter;stroke-opacity:1" d="M 396.316,101.145 407.525,116.09 z" id="boundary" inkscape:connector-curvature="0" />
	<path style="fill:none;stroke:red;stroke-width:1px;stroke-linecap:butt;stroke-linejoin:miter;stroke-opacity:1" d="M 407.525,116.09 407.525,134.772 z" id="boundary" inkscape:connector-curvature="0" />
	<path style="fill:none;stroke:red;stroke-width:1px;stroke-linecap:butt;stroke-linejoin:miter;stroke-opacity:1" d="M 407.525,134.772 422.471,145.981 z" id="boundary" inkscape:connector-curvature="0" />
	<path style="fill:none;stroke:red;stroke-width:1px;stroke-linecap:butt;stroke-linejoin:miter;stroke-opacity:1" d="M 422.471,145.981 441.153,144.113 z" id="boundary" inkscape:connector-curvature="0" />
	<path style="fill:none;stroke:red;stroke-width:1px;stroke-linecap:butt;stroke-linejoin:miter;stroke-opacity:1" d="M 441.153,144.113 459.834,144.113 z" id="boundary" inkscape:connector-curvature="0" />
	<path style="fill:none;stroke:red;stroke-width:1px;stroke-linecap:butt;stroke-linejoin:miter;stroke-opacity:1" d="M 459.834,144.113 478.516,144.113 z" id="boundary" inkscape:connector-curvature="0" />
	<path style="fill:none;stroke:red;stroke-width:1px;stroke-linecap:butt;stroke-linejoin:miter;stroke-opacity:1" d="M 478.516,144.113 497.198,144.113 z" id="boundary" inkscape:connector-curvature="0" />
	<path style="fill:none;stroke:red;stroke-width:1px;stroke-linecap:butt;stroke-linejoin:miter;stroke-opacity:1" d="M 497.198,144.113 515.879,144.113 z" id="boundary" inkscape:connector-curvature="0" />
	<path style="fill:none;stroke:red;stroke-width:1px;stroke-linecap:butt;stroke-linejoin:miter;stroke-opacity:1" d="M 515.879,144.113 534.561,144.113 z" id="boundary" inkscape:connector-curvature="0" />
	<path style="fill:none;stroke:red;stroke-width:1px;stroke-linecap:butt;stroke-linejoin:miter;stroke-opacity:1" d="M 534.561,144.113 553.243,144.113 z" id="boundary" inkscape:connector-curvature="0" />
	<path style="fill:none;stroke:red;stroke-width:1px;stroke-linecap:butt;stroke-linejoin:miter;stroke-opacity:1" d="M 553.243,144.113 570.056,153.454 z" id="boundary" inkscape:connector-curvature="0" />
	<path style="fill:none;stroke:red;stroke-width:1px;stroke-linecap:butt;stroke-linejoin:miter;stroke-opacity:1" d="M 570.056,153.454 588.738,153.454 z" id="boundary" inkscape:connector-curvature="0" />
	<path style="fill:none;stroke:red;stroke-width:1px;stroke-linecap:butt;stroke-linejoin:miter;stroke-opacity:1" d="M 588.738,153.454 607.42,153.454 z" id="boundary" inkscape:connector-curvature="0" />
	<path style="fill:none;stroke:red;stroke-width:1px;stroke-linecap:butt;stroke-linejoin:miter;stroke-opacity:1" d="M 607.42,153.454 626.102,153.454 z" id="boundary" inkscape:connector-curvature="0" />
	<path style="fill:none;stroke:red;stroke-width:1px;stroke-linecap:butt;stroke-linejoin:miter;stroke-opacity:1" d="M 626.102,153.454 644.783,153.454 z" id="boundary" inkscape:connector-curvature="0" />
	<path style="fill:none;stroke:red;stroke-width:1px;stroke-linecap:butt;stroke-linejoin:miter;stroke-opacity:1" d="M 644.783,153.454 663.465,153.454 z" id="boundary" inkscape:connector-curvature="0" />
	<path style="fill:none;stroke:red;stroke-width:1px;stroke-linecap:butt;stroke-linejoin:miter;stroke-opacity:1" d="M 663.465,153.454 682.147,153.454 z" id="boundary" inkscape:connector-curvature="0" />
	<path style="fill:none;stroke:red;stroke-width:1px;stroke-linecap:butt;stroke-linejoin:miter;stroke-opacity:1" d="M 682.147,153.454 698.96,162.795 z" id="boundary" inkscape:connector-curvature="0" />
	<path style="fill:none;stroke:red;stroke-width:1px;stroke-linecap:butt;stroke-linejoin:miter;stroke-opacity:1" d="M 698.96,162.795 717.642,162.795 z" id="boundary" inkscape:connector-curvature="0" />
	<path style="fill:none;stroke:red;stroke-width:1px;stroke-linecap:butt;stroke-linejoin:miter;stroke-opacity:1" d="M 717.642,162.795 736.324,162.795 z" id="boundary" inkscape:connector-curvature="0" />
	<path style="fill:none;stroke:red;stroke-width:1px;stroke-linecap:butt;stroke-linejoin:miter;stroke-opacity:1" d="M 736.324,162.795 755.006,162.795 z" id="boundary" inkscape:connector-curvature="0" />
	<path style="fill:none;stroke:red;stroke-width:1px;stroke-linecap:butt;stroke-linejoin:miter;stroke-opacity:1" d="M 755.006,162.795 773.687,162.795 z" id="boundary" inkscape:connector-curvature="0" />
	<path style="fill:none;stroke:red;stroke-width:1px;stroke-linecap:butt;stroke-linejoin:miter;stroke-opacity:1" d="M 773.687,162.795 792.369,162.795 z" id="boundary" inkscape:connector-curvature="0" />
	<path style="fill:none;stroke:red;stroke-width:1px;stroke-linecap:butt;stroke-linejoin:miter;stroke-opacity:1" d="M 792.369,162.795 811.051,162.795 z" id="boundary" inkscape:connector-curvature="0" />
	<path style="fill:none;stroke:red;stroke-width:1px;stroke-linecap:butt;stroke-linejoin:miter;stroke-opacity:1" d="M 811.051,162.795 829.733,155.322 z" id="boundary" inkscape:connector-curvature="0" />
	<path style="fill:none;stroke:red;stroke-width:1px;stroke-linecap:butt;stroke-linejoin:miter;stroke-opacity:1" d="M 829.733,155.322 848.414,153.454 z" id="boundary" inkscape:connector-curvature="0" />
	<path style="fill:none;stroke:red;stroke-width:1px;stroke-linecap:butt;stroke-linejoin:miter;stroke-opacity:1" d="M 848.414,153.454 865.228,162.795 z" id="boundary" inkscape:connector-curvature="0" />
	<path style="fill:none;stroke:red;stroke-width:1px;stroke-linecap:butt;stroke-linejoin:miter;stroke-opacity:1" d="M 865.228,162.795 883.91,162.795 z" id="boundary" inkscape:connector-curvature="0" />
	<path style="fill:none;stroke:red;stroke-width:1px;stroke-linecap:butt;stroke-linejoin:miter;stroke-opacity:1" d="M 883.91,162.795 902.591,162.795 z" id="boundary" inkscape:connector-curvature="0" />
	<path style="fill:none;stroke:red;stroke-width:1px;stroke-linecap:butt;stroke-linejoin:miter;stroke-opacity:1" d="M 902.591,162.795 921.273,162.795 z" id="boundary" inkscape:connector-curvature="0" />
	<path style="fill:none;stroke:red;stroke-width:1px;stroke-linecap:butt;stroke-linejoin:miter;stroke-opacity:1" d="M 921.273,162.795 939.955,168.399 z" id="boundary" inkscape:connector-curvature="0" />
	<path style="fill:none;stroke:red;stroke-width:1px;stroke-linecap:butt;stroke-linejoin:miter;stroke-opacity:1" d="M 939.955,168.399 958.637,172.136 z" id="boundary" inkscape:connector-curvature="0" />
	<path style="fill:none;stroke:red;stroke-width:1px;stroke-linecap:butt;stroke-linejoin:miter;stroke-opacity:1" d="M 958.637,172.136 975.45,181.476 z" id="boundary" inkscape:connector-curvature="0" />
	<path style="fill:none;stroke:red;stroke-width:1px;stroke-linecap:butt;stroke-linejoin:miter;stroke-opacity:1" d="M 975.45,181.476 977.318,200.158 z" id="boundary" inkscape:connector-curvature="0" />
	<path style="fill:none;stroke:red;stroke-width:1px;stroke-linecap:butt;stroke-linejoin:miter;stroke-opacity:1" d="M 977.318,200.158 996,205.763 z" id="boundary" inkscape:connector-curvature="0" />
	<circle cx="4" cy="177.74" r="4" fill="#0" id="circle0"/>
	<circle cx="4" cy="196.422" r="4" fill="#0" id="circle1"/>
	<circle cx="4" cy="243.126" r="4" fill="#0" id="circle2"/>
	<circle cx="4" cy="261.808" r="4" fill="#0" id="circle3"/>
	<circle cx="13.3409" cy="140.377" r="4" fill="#0" id="circle4"/>
	<circle cx="13.3409" cy="213.235" r="4" fill="#0" id="circle5"/>
	<circle cx="13.3409" cy="278.621" r="4" fill="#0" id="circle6"/>
	<circle cx="13.3409" cy="297.303" r="4" fill="#0" id="circle7"/>
	<circle cx="18.9454" cy="162.795" r="4" fill="#0" id="circle8"/>
	<circle cx="22.6817" cy="314.117" r="4" fill="#0" id="circle9"/>
	<circle cx="32.0226" cy="103.013" r="4" fill="#0" id="circle10"/>
	<circle cx="32.0226" cy="121.695" r="4" fill="#0" id="circle11"/>
	<circle cx="32.0226" cy="330.93" r="4" fill="#0" id="circle12"/>
	<circle cx="35.7589" cy="349.612" r="4" fill="#0" id="circle13"/>
	<circle cx="41.3635" cy="84.3315" r="4" fill="#0" id="circle14"/>
	<circle cx="50.7043" cy="65.6497" r="4" fill="#0" id="circle15"/>
	<circle cx="50.7043" cy="360.821" r="4" fill="#0" id="circle16"/>
	<circle cx="50.7043" cy="379.503" r="4" fill="#0" id="circle17"/>
	<circle cx="61.9134" cy="394.448" r="4" fill="#0" id="circle18"/>
	<circle cx="65.6497" cy="50.7043" r="4" fill="#0" id="circle19"/>
	<circle cx="80.5951" cy="401.921" r="4" fill="#0" id="circle20"/>
	<circle cx="84.3315" cy="41.3635" r="4" fill="#0" id="circle21"/>
	<circle cx="99.2768" cy="398.185" r="4" fill="#0" id="circle22"/>
	<circle cx="103.013" cy="41.3635" r="4" fill="#0" id="circle23"/>
	<circle cx="116.09" cy="407.525" r="4" fill="#0" id="circle24"/>
	<circle cx="119.827" cy="32.0226" r="4" fill="#0" id="circle25"/>
	<circle cx="127.299" cy="422.471" r="4" fill="#0" id="circle26"/>
	<circle cx="134.772" cy="18.9454" r="4" fill="#0" id="circle27"/>
	<circle cx="142.245" cy="433.68" r="4" fill="#0" id="circle28"/>
	<circle cx="153.454" cy="18.9454" r="4" fill="#0" id="circle29"/>
	<circle cx="159.058" cy="443.021" r="4" fill="#0" id="circle30"/>
	<circle cx="172.136" cy="9.60452" r="4" fill="#0" id="circle31"/>
	<circle cx="177.74" cy="444.889" r="4" fill="#0" id="circle32"/>
	<circle cx="190.817" cy="4" r="4" fill="#0" id="circle33"/>
	<circle cx="196.422" cy="444.889" r="4" fill="#0" id="circle34"/>
	<circle cx="209.499" cy="4" r="4" fill="#0" id="circle35"/>
	<circle cx="215.104" cy="444.889" r="4" fill="#0" id="circle36"/>
	<circle cx="228.181" cy="4" r="4" fill="#0" id="circle37"/>
	<circle cx="233.785" cy="443.021" r="4" fill="#0" id="circle38"/>
	<circle cx="246.863" cy="4" r="4" fill="#0" id="circle39"/>
	<circle cx="252.467" cy="443.021" r="4" fill="#0" id="circle40"/>
	<circle cx="265.544" cy="4" r="4" fill="#0" id="circle41"/>
	<circle cx="271.149" cy="443.021" r="4" fill="#0" id="circle42"/>
	<circle cx="280.49" cy="15.209" r="4" fill="#0" id="circle43"/>
	<circle cx="286.094" cy="426.207" r="4" fill="#0" id="circle44"/>
	<circle cx="299.171" cy="22.6817" r="4" fill="#0" id="circle45"/>
	<circle cx="302.908" cy="416.866" r="4" fill="#0" id="circle46"/>
	<circle cx="314.117" cy="398.185" r="4" fill="#0" id="circle47"/>
	<circle cx="317.853" cy="22.6817" r="4" fill="#0" id="circle48"/>
	<circle cx="330.93" cy="37.6271" r="4" fill="#0" id="circle49"/>
	<circle cx="332.798" cy="388.844" r="4" fill="#0" id="circle50"/>
	<circle cx="345.876" cy="50.7043" r="4" fill="#0" id="circle51"/>
	<circle cx="349.612" cy="379.503" r="4" fill="#0" id="circle52"/>
	<circle cx="351.48" cy="69.3861" r="4" fill="#0" id="circle53"/>
	<circle cx="360.821" cy="360.821" r="4" fill="#0" id="circle54"/>
	<circle cx="370.162" cy="74.9906" r="4" fill="#0" id="circle55"/>
	<circle cx="375.766" cy="347.744" r="4" fill="#0" id="circle56"/>
	<circle cx="379.503" cy="91.8041" r="4" fill="#0" id="circle57"/>
	<circle cx="388.844" cy="332.798" r="4" fill="#0" id="circle58"/>
	<circle cx="396.316" cy="101.145" r="4" fill="#0" id="circle59"/>
	<circle cx="407.525" cy="116.09" r="4" fill="#0" id="circle60"/>
	<circle cx="407.525" cy="134.772" r="4" fill="#0" id="circle61"/>
	<circle cx="407.525" cy="323.458" r="4" fill="#0" id="circle62"/>
	<circle cx="422.471" cy="145.981" r="4" fill="#0" id="circle63"/>
	<circle cx="426.207" cy="323.458" r="4" fill="#0" id="circle64"/>
	<circle cx="441.153" cy="144.113" r="4" fill="#0" id="circle65"/>
	<circle cx="444.889" cy="323.458" r="4" fill="#0" id="circle66"/>
	<circle cx="459.834" cy="144.113" r="4" fill="#0" id="circle67"/>
	<circle cx="463.571" cy="327.194" r="4" fill="#0" id="circle68"/>
	<circle cx="476.648" cy="342.139" r="4" fill="#0" id="circle69"/>
	<circle cx="478.516" cy="144.113" r="4" fill="#0" id="circle70"/>
	<circle cx="495.33" cy="340.271" r="4" fill="#0" id="circle71"/>
	<circle cx="497.198" cy="144.113" r="4" fill="#0" id="circle72"/>
	<circle cx="510.275" cy="323.458" r="4" fill="#0" id="circle73"/>
	<circle cx="515.879" cy="144.113" r="4" fill="#0" id="circle74"/>
	<circle cx="525.22" cy="310.38" r="4" fill="#0" id="circle75"/>
	<circle cx="534.561" cy="144.113" r="4" fill="#0" id="circle76"/>
	<circle cx="543.902" cy="304.776" r="4" fill="#0" id="circle77"/>
	<circle cx="553.243" cy="144.113" r="4" fill="#0" id="circle78"/>
	<circle cx="562.584" cy="304.776" r="4" fill="#0" id="circle79"/>
	<circle cx="570.056" cy="153.454" r="4" fill="#0" id="circle80"/>
	<circle cx="581.266" cy="304.776" r="4" fill="#0" id="circle81"/>
	<circle cx="588.738" cy="153.454" r="4" fill="#0" id="circle82"/>
	<circle cx="599.947" cy="301.04" r="4" fill="#0" id="circle83"/>
	<circle cx="607.42" cy="153.454" r="4" fill="#0" id="circle84"/>
	<circle cx="618.629" cy="304.776" r="4" fill="#0" id="circle85"/>
	<circle cx="626.102" cy="153.454" r="4" fill="#0" id="circle86"/>
	<circle cx="637.311" cy="301.04" r="4" fill="#0" id="circle87"/>
	<circle cx="644.783" cy="153.454" r="4" fill="#0" id="circle88"/>
	<circle cx="650.388" cy="286.094" r="4" fill="#0" id="circle89"/>
	<circle cx="663.465" cy="153.454" r="4" fill="#0" id="circle90"/>
	<circle cx="667.202" cy="276.753" r="4" fill="#0" id="circle91"/>
	<circle cx="682.147" cy="153.454" r="4" fill="#0" id="circle92"/>
	<circle cx="685.883" cy="276.753" r="4" fill="#0" id="circle93"/>
	<circle cx="698.96" cy="162.795" r="4" fill="#0" id="circle94"/>
	<circle cx="704.565" cy="276.753" r="4" fill="#0" id="circle95"/>
	<circle cx="717.642" cy="162.795" r="4" fill="#0" id="circle96"/>
	<circle cx="723.247" cy="276.753" r="4" fill="#0" id="circle97"/>
	<circle cx="732.588" cy="293.567" r="4" fill="#0" id="circle98"/>
	<circle cx="736.324" cy="162.795" r="4" fill="#0" id="circle99"/>
	<circle cx="747.533" cy="304.776" r="4" fill="#0" id="circle100"/>
	<circle cx="755.006" cy="162.795" r="4" fill="#0" id="circle101"/>
	<circle cx="764.347" cy="295.435" r="4" fill="#0" id="circle102"/>
	<circle cx="773.687" cy="162.795" r="4" fill="#0" id="circle103"/>
	<circle cx="781.16" cy="304.776" r="4" fill="#0" id="circle104"/>
	<circle cx="792.369" cy="162.795" r="4" fill="#0" id="circle105"/>
	<circle cx="799.842" cy="295.435" r="4" fill="#0" id="circle106"/>
	<circle cx="811.051" cy="162.795" r="4" fill="#0" id="circle107"/>
	<circle cx="816.655" cy="286.094" r="4" fill="#0" id="circle108"/>
	<circle cx="829.733" cy="155.322" r="4" fill="#0" id="circle109"/>
	<circle cx="835.337" cy="286.094" r="4" fill="#0" id="circle110"/>
	<circle cx="848.414" cy="153.454" r="4" fill="#0" id="circle111"/>
	<circle cx="852.151" cy="295.435" r="4" fill="#0" id="circle112"/>
	<circle cx="865.228" cy="162.795" r="4" fill="#0" id="circle113"/>
	<circle cx="868.964" cy="304.776" r="4" fill="#0" id="circle114"/>
	<circle cx="883.91" cy="162.795" r="4" fill="#0" id="circle115"/>
	<circle cx="887.646" cy="304.776" r="4" fill="#0" id="circle116"/>
	<circle cx="902.591" cy="162.795" r="4" fill="#0" id="circle117"/>
	<circle cx="906.328" cy="304.776" r="4" fill="#0" id="circle118"/>
	<circle cx="921.273" cy="162.795" r="4" fill="#0" id="circle119"/>
	<circle cx="925.009" cy="304.776" r="4" fill="#0" id="circle120"/>
	<circle cx="939.955" cy="168.399" r="4" fill="#0" id="circle121"/>
	<circle cx="941.823" cy="295.435" r="4" fill="#0" id="circle122"/>
	<circle cx="956.768" cy="280.49" r="4" fill="#0" id="circle123"/>
	<circle cx="958.637" cy="172.136" r="4" fill="#0" id="circle124"/>
	<circle cx="971.714" cy="265.544" r="4" fill="#0" id="circle125"/>
	<circle cx="975.45" cy="181.476" r="4" fill="#0" id="circle126"/>
	<circle cx="977.318" cy="200.158" r="4" fill="#0" id="circle127"/>
	<circle cx="990.395" cy="256.203" r="4" fill="#0" id="circle128"/>
	<circle cx="996" cy="205.763" r="4" fill="#0" id="circle129"/>
	<circle cx="996" cy="230.049" r="4" fill="#0" id="circle130"/>
	</g>
</svg>