<?xml version="1.0" encoding="UTF-8" standalone="no"?>
<!-- Created with CurveBenchmark -->
<svg
	xmlns:dc="http://purl.org/dc/elements/1.1/"
	xmlns:cc="http://creativecommons.org/ns#"
	xmlns:rdf="http://www.w3.org/1999/02/22-rdf-syntax-ns#"
	xmlns:svg="http://www.w3.org/2000/svg"
	xmlns="http://www.w3.org/2000/svg"
	xmlns:sodipodi="http://sodipodi.sourceforge.net/DTD/sodipodi-0.dtd"
	xmlns:inkscape="http://www.inkscape.org/namespaces/inkscape"
	width="1000"
	height="1000"
	id="svg2"
	version="1.1"
	sodipodi:docname="manifold/connect2d-rat09.png.txt">
<defs
	id="defs4" />
<metadata
	id="metadata7">
	<rdf:RDF>
		<cc:Work
			rdf:about="">
			<dc:format>image/svg+xml</dc:format>
			<dc:type
				rdf:resource="http://purl.org/dc/dcmitype/StillImage" />
			<dc:title></dc:title>
		</cc:Work>
	</rdf:RDF>
</metadata>
<g
	inkscape:label="Layer 1"
	inkscape:groupmode="layer"
	id="layer1">
	<path style="fill:none;stroke:red;stroke-width:1px;stroke-linecap:butt;stroke-linejoin:miter;stroke-opacity:1" d="M 761.617,517.331 748.413,533.837 z" id="boundary" inkscape:connector-curvature="0" />
	<path style="fill:none;stroke:red;stroke-width:1px;stroke-linecap:butt;stroke-linejoin:miter;stroke-opacity:1" d="M 748.413,533.837 731.907,533.837 z" id="boundary" inkscape:connector-curvature="0" />
	<path style="fill:none;stroke:red;stroke-width:1px;stroke-linecap:butt;stroke-linejoin:miter;stroke-opacity:1" d="M 731.907,533.837 722.003,550.343 z" id="boundary" inkscape:connector-curvature="0" />
	<path style="fill:none;stroke:red;stroke-width:1px;stroke-linecap:butt;stroke-linejoin:miter;stroke-opacity:1" d="M 722.003,550.343 707.148,558.596 z" id="boundary" inkscape:connector-curvature="0" />
	<path style="fill:none;stroke:red;stroke-width:1px;stroke-linecap:butt;stroke-linejoin:miter;stroke-opacity:1" d="M 707.148,558.596 698.895,583.354 z" id="boundary" inkscape:connector-curvature="0" />
	<path style="fill:none;stroke:red;stroke-width:1px;stroke-linecap:butt;stroke-linejoin:miter;stroke-opacity:1" d="M 698.895,583.354 690.642,599.86 z" id="boundary" inkscape:connector-curvature="0" />
	<path style="fill:none;stroke:red;stroke-width:1px;stroke-linecap:butt;stroke-linejoin:miter;stroke-opacity:1" d="M 690.642,599.86 690.642,616.366 z" id="boundary" inkscape:connector-curvature="0" />
	<path style="fill:none;stroke:red;stroke-width:1px;stroke-linecap:butt;stroke-linejoin:miter;stroke-opacity:1" d="M 690.642,616.366 690.642,632.872 z" id="boundary" inkscape:connector-curvature="0" />
	<path style="fill:none;stroke:red;stroke-width:1px;stroke-linecap:butt;stroke-linejoin:miter;stroke-opacity:1" d="M 690.642,632.872 690.642,649.378 z" id="boundary" inkscape:connector-curvature="0" />
	<path style="fill:none;stroke:red;stroke-width:1px;stroke-linecap:butt;stroke-linejoin:miter;stroke-opacity:1" d="M 690.642,649.378 690.642,665.884 z" id="boundary" inkscape:connector-curvature="0" />
	<path style="fill:none;stroke:red;stroke-width:1px;stroke-linecap:butt;stroke-linejoin:miter;stroke-opacity:1" d="M 690.642,665.884 690.642,682.389 z" id="boundary" inkscape:connector-curvature="0" />
	<path style="fill:none;stroke:red;stroke-width:1px;stroke-linecap:butt;stroke-linejoin:miter;stroke-opacity:1" d="M 690.642,682.389 690.642,698.895 z" id="boundary" inkscape:connector-curvature="0" />
	<path style="fill:none;stroke:red;stroke-width:1px;stroke-linecap:butt;stroke-linejoin:miter;stroke-opacity:1" d="M 690.642,698.895 682.389,715.401 z" id="boundary" inkscape:connector-curvature="0" />
	<path style="fill:none;stroke:red;stroke-width:1px;stroke-linecap:butt;stroke-linejoin:miter;stroke-opacity:1" d="M 682.389,715.401 674.136,740.16 z" id="boundary" inkscape:connector-curvature="0" />
	<path style="fill:none;stroke:red;stroke-width:1px;stroke-linecap:butt;stroke-linejoin:miter;stroke-opacity:1" d="M 674.136,740.16 665.884,756.666 z" id="boundary" inkscape:connector-curvature="0" />
	<path style="fill:none;stroke:red;stroke-width:1px;stroke-linecap:butt;stroke-linejoin:miter;stroke-opacity:1" d="M 665.884,756.666 649.378,773.171 z" id="boundary" inkscape:connector-curvature="0" />
	<path style="fill:none;stroke:red;stroke-width:1px;stroke-linecap:butt;stroke-linejoin:miter;stroke-opacity:1" d="M 649.378,773.171 649.378,789.677 z" id="boundary" inkscape:connector-curvature="0" />
	<path style="fill:none;stroke:red;stroke-width:1px;stroke-linecap:butt;stroke-linejoin:miter;stroke-opacity:1" d="M 649.378,789.677 634.522,797.93 z" id="boundary" inkscape:connector-curvature="0" />
	<path style="fill:none;stroke:red;stroke-width:1px;stroke-linecap:butt;stroke-linejoin:miter;stroke-opacity:1" d="M 634.522,797.93 619.667,806.183 z" id="boundary" inkscape:connector-curvature="0" />
	<path style="fill:none;stroke:red;stroke-width:1px;stroke-linecap:butt;stroke-linejoin:miter;stroke-opacity:1" d="M 619.667,806.183 603.161,812.785 z" id="boundary" inkscape:connector-curvature="0" />
	<path style="fill:none;stroke:red;stroke-width:1px;stroke-linecap:butt;stroke-linejoin:miter;stroke-opacity:1" d="M 603.161,812.785 586.656,814.436 z" id="boundary" inkscape:connector-curvature="0" />
	<path style="fill:none;stroke:red;stroke-width:1px;stroke-linecap:butt;stroke-linejoin:miter;stroke-opacity:1" d="M 586.656,814.436 573.451,825.99 z" id="boundary" inkscape:connector-curvature="0" />
	<path style="fill:none;stroke:red;stroke-width:1px;stroke-linecap:butt;stroke-linejoin:miter;stroke-opacity:1" d="M 573.451,825.99 556.945,822.689 z" id="boundary" inkscape:connector-curvature="0" />
	<path style="fill:none;stroke:red;stroke-width:1px;stroke-linecap:butt;stroke-linejoin:miter;stroke-opacity:1" d="M 556.945,822.689 542.09,830.942 z" id="boundary" inkscape:connector-curvature="0" />
	<path style="fill:none;stroke:red;stroke-width:1px;stroke-linecap:butt;stroke-linejoin:miter;stroke-opacity:1" d="M 542.09,830.942 525.584,830.942 z" id="boundary" inkscape:connector-curvature="0" />
	<path style="fill:none;stroke:red;stroke-width:1px;stroke-linecap:butt;stroke-linejoin:miter;stroke-opacity:1" d="M 525.584,830.942 509.078,830.942 z" id="boundary" inkscape:connector-curvature="0" />
	<path style="fill:none;stroke:red;stroke-width:1px;stroke-linecap:butt;stroke-linejoin:miter;stroke-opacity:1" d="M 509.078,830.942 492.572,830.942 z" id="boundary" inkscape:connector-curvature="0" />
	<path style="fill:none;stroke:red;stroke-width:1px;stroke-linecap:butt;stroke-linejoin:miter;stroke-opacity:1" d="M 492.572,830.942 476.067,830.942 z" id="boundary" inkscape:connector-curvature="0" />
	<path style="fill:none;stroke:red;stroke-width:1px;stroke-linecap:butt;stroke-linejoin:miter;stroke-opacity:1" d="M 476.067,830.942 459.561,825.99 z" id="boundary" inkscape:connector-curvature="0" />
	<path style="fill:none;stroke:red;stroke-width:1px;stroke-linecap:butt;stroke-linejoin:miter;stroke-opacity:1" d="M 459.561,825.99 443.055,822.689 z" id="boundary" inkscape:connector-curvature="0" />
	<path style="fill:none;stroke:red;stroke-width:1px;stroke-linecap:butt;stroke-linejoin:miter;stroke-opacity:1" d="M 443.055,822.689 426.549,822.689 z" id="boundary" inkscape:connector-curvature="0" />
	<path style="fill:none;stroke:red;stroke-width:1px;stroke-linecap:butt;stroke-linejoin:miter;stroke-opacity:1" d="M 426.549,822.689 423.248,844.146 z" id="boundary" inkscape:connector-curvature="0" />
	<path style="fill:none;stroke:red;stroke-width:1px;stroke-linecap:butt;stroke-linejoin:miter;stroke-opacity:1" d="M 423.248,844.146 410.043,855.7 z" id="boundary" inkscape:connector-curvature="0" />
	<path style="fill:none;stroke:red;stroke-width:1px;stroke-linecap:butt;stroke-linejoin:miter;stroke-opacity:1" d="M 410.043,855.7 401.79,872.206 z" id="boundary" inkscape:connector-curvature="0" />
	<path style="fill:none;stroke:red;stroke-width:1px;stroke-linecap:butt;stroke-linejoin:miter;stroke-opacity:1" d="M 401.79,872.206 393.537,888.712 z" id="boundary" inkscape:connector-curvature="0" />
	<path style="fill:none;stroke:red;stroke-width:1px;stroke-linecap:butt;stroke-linejoin:miter;stroke-opacity:1" d="M 393.537,888.712 377.032,905.218 z" id="boundary" inkscape:connector-curvature="0" />
	<path style="fill:none;stroke:red;stroke-width:1px;stroke-linecap:butt;stroke-linejoin:miter;stroke-opacity:1" d="M 377.032,905.218 380.333,921.724 z" id="boundary" inkscape:connector-curvature="0" />
	<path style="fill:none;stroke:red;stroke-width:1px;stroke-linecap:butt;stroke-linejoin:miter;stroke-opacity:1" d="M 380.333,921.724 396.839,928.326 z" id="boundary" inkscape:connector-curvature="0" />
	<path style="fill:none;stroke:red;stroke-width:1px;stroke-linecap:butt;stroke-linejoin:miter;stroke-opacity:1" d="M 396.839,928.326 411.694,936.579 z" id="boundary" inkscape:connector-curvature="0" />
	<path style="fill:none;stroke:red;stroke-width:1px;stroke-linecap:butt;stroke-linejoin:miter;stroke-opacity:1" d="M 411.694,936.579 428.2,936.579 z" id="boundary" inkscape:connector-curvature="0" />
	<path style="fill:none;stroke:red;stroke-width:1px;stroke-linecap:butt;stroke-linejoin:miter;stroke-opacity:1" d="M 428.2,936.579 444.705,936.579 z" id="boundary" inkscape:connector-curvature="0" />
	<path style="fill:none;stroke:red;stroke-width:1px;stroke-linecap:butt;stroke-linejoin:miter;stroke-opacity:1" d="M 444.705,936.579 461.211,936.579 z" id="boundary" inkscape:connector-curvature="0" />
	<path style="fill:none;stroke:red;stroke-width:1px;stroke-linecap:butt;stroke-linejoin:miter;stroke-opacity:1" d="M 461.211,936.579 477.717,936.579 z" id="boundary" inkscape:connector-curvature="0" />
	<path style="fill:none;stroke:red;stroke-width:1px;stroke-linecap:butt;stroke-linejoin:miter;stroke-opacity:1" d="M 477.717,936.579 494.223,929.977 z" id="boundary" inkscape:connector-curvature="0" />
	<path style="fill:none;stroke:red;stroke-width:1px;stroke-linecap:butt;stroke-linejoin:miter;stroke-opacity:1" d="M 494.223,929.977 510.729,928.326 z" id="boundary" inkscape:connector-curvature="0" />
	<path style="fill:none;stroke:red;stroke-width:1px;stroke-linecap:butt;stroke-linejoin:miter;stroke-opacity:1" d="M 510.729,928.326 527.235,928.326 z" id="boundary" inkscape:connector-curvature="0" />
	<path style="fill:none;stroke:red;stroke-width:1px;stroke-linecap:butt;stroke-linejoin:miter;stroke-opacity:1" d="M 527.235,928.326 543.74,928.326 z" id="boundary" inkscape:connector-curvature="0" />
	<path style="fill:none;stroke:red;stroke-width:1px;stroke-linecap:butt;stroke-linejoin:miter;stroke-opacity:1" d="M 543.74,928.326 558.596,936.579 z" id="boundary" inkscape:connector-curvature="0" />
	<path style="fill:none;stroke:red;stroke-width:1px;stroke-linecap:butt;stroke-linejoin:miter;stroke-opacity:1" d="M 558.596,936.579 558.596,953.085 z" id="boundary" inkscape:connector-curvature="0" />
	<path style="fill:none;stroke:red;stroke-width:1px;stroke-linecap:butt;stroke-linejoin:miter;stroke-opacity:1" d="M 558.596,953.085 566.849,967.94 z" id="boundary" inkscape:connector-curvature="0" />
	<path style="fill:none;stroke:red;stroke-width:1px;stroke-linecap:butt;stroke-linejoin:miter;stroke-opacity:1" d="M 566.849,967.94 570.15,986.097 z" id="boundary" inkscape:connector-curvature="0" />
	<path style="fill:none;stroke:red;stroke-width:1px;stroke-linecap:butt;stroke-linejoin:miter;stroke-opacity:1" d="M 570.15,986.097 553.644,987.747 z" id="boundary" inkscape:connector-curvature="0" />
	<path style="fill:none;stroke:red;stroke-width:1px;stroke-linecap:butt;stroke-linejoin:miter;stroke-opacity:1" d="M 553.644,987.747 537.138,994.349 z" id="boundary" inkscape:connector-curvature="0" />
	<path style="fill:none;stroke:red;stroke-width:1px;stroke-linecap:butt;stroke-linejoin:miter;stroke-opacity:1" d="M 537.138,994.349 520.632,996 z" id="boundary" inkscape:connector-curvature="0" />
	<path style="fill:none;stroke:red;stroke-width:1px;stroke-linecap:butt;stroke-linejoin:miter;stroke-opacity:1" d="M 520.632,996 504.126,996 z" id="boundary" inkscape:connector-curvature="0" />
	<path style="fill:none;stroke:red;stroke-width:1px;stroke-linecap:butt;stroke-linejoin:miter;stroke-opacity:1" d="M 504.126,996 487.621,996 z" id="boundary" inkscape:connector-curvature="0" />
	<path style="fill:none;stroke:red;stroke-width:1px;stroke-linecap:butt;stroke-linejoin:miter;stroke-opacity:1" d="M 487.621,996 471.115,996 z" id="boundary" inkscape:connector-curvature="0" />
	<path style="fill:none;stroke:red;stroke-width:1px;stroke-linecap:butt;stroke-linejoin:miter;stroke-opacity:1" d="M 471.115,996 454.609,996 z" id="boundary" inkscape:connector-curvature="0" />
	<path style="fill:none;stroke:red;stroke-width:1px;stroke-linecap:butt;stroke-linejoin:miter;stroke-opacity:1" d="M 454.609,996 439.754,987.747 z" id="boundary" inkscape:connector-curvature="0" />
	<path style="fill:none;stroke:red;stroke-width:1px;stroke-linecap:butt;stroke-linejoin:miter;stroke-opacity:1" d="M 439.754,987.747 423.248,987.747 z" id="boundary" inkscape:connector-curvature="0" />
	<path style="fill:none;stroke:red;stroke-width:1px;stroke-linecap:butt;stroke-linejoin:miter;stroke-opacity:1" d="M 423.248,987.747 408.393,979.494 z" id="boundary" inkscape:connector-curvature="0" />
	<path style="fill:none;stroke:red;stroke-width:1px;stroke-linecap:butt;stroke-linejoin:miter;stroke-opacity:1" d="M 408.393,979.494 391.887,979.494 z" id="boundary" inkscape:connector-curvature="0" />
	<path style="fill:none;stroke:red;stroke-width:1px;stroke-linecap:butt;stroke-linejoin:miter;stroke-opacity:1" d="M 391.887,979.494 375.381,979.494 z" id="boundary" inkscape:connector-curvature="0" />
	<path style="fill:none;stroke:red;stroke-width:1px;stroke-linecap:butt;stroke-linejoin:miter;stroke-opacity:1" d="M 375.381,979.494 358.875,979.494 z" id="boundary" inkscape:connector-curvature="0" />
	<path style="fill:none;stroke:red;stroke-width:1px;stroke-linecap:butt;stroke-linejoin:miter;stroke-opacity:1" d="M 358.875,979.494 342.369,979.494 z" id="boundary" inkscape:connector-curvature="0" />
	<path style="fill:none;stroke:red;stroke-width:1px;stroke-linecap:butt;stroke-linejoin:miter;stroke-opacity:1" d="M 342.369,979.494 334.116,964.639 z" id="boundary" inkscape:connector-curvature="0" />
	<path style="fill:none;stroke:red;stroke-width:1px;stroke-linecap:butt;stroke-linejoin:miter;stroke-opacity:1" d="M 334.116,964.639 325.864,949.784 z" id="boundary" inkscape:connector-curvature="0" />
	<path style="fill:none;stroke:red;stroke-width:1px;stroke-linecap:butt;stroke-linejoin:miter;stroke-opacity:1" d="M 325.864,949.784 325.864,933.278 z" id="boundary" inkscape:connector-curvature="0" />
	<path style="fill:none;stroke:red;stroke-width:1px;stroke-linecap:butt;stroke-linejoin:miter;stroke-opacity:1" d="M 325.864,933.278 334.116,916.772 z" id="boundary" inkscape:connector-curvature="0" />
	<path style="fill:none;stroke:red;stroke-width:1px;stroke-linecap:butt;stroke-linejoin:miter;stroke-opacity:1" d="M 334.116,916.772 342.369,900.266 z" id="boundary" inkscape:connector-curvature="0" />
	<path style="fill:none;stroke:red;stroke-width:1px;stroke-linecap:butt;stroke-linejoin:miter;stroke-opacity:1" d="M 342.369,900.266 350.622,882.11 z" id="boundary" inkscape:connector-curvature="0" />
	<path style="fill:none;stroke:red;stroke-width:1px;stroke-linecap:butt;stroke-linejoin:miter;stroke-opacity:1" d="M 350.622,882.11 350.622,865.604 z" id="boundary" inkscape:connector-curvature="0" />
	<path style="fill:none;stroke:red;stroke-width:1px;stroke-linecap:butt;stroke-linejoin:miter;stroke-opacity:1" d="M 350.622,865.604 337.418,855.7 z" id="boundary" inkscape:connector-curvature="0" />
	<path style="fill:none;stroke:red;stroke-width:1px;stroke-linecap:butt;stroke-linejoin:miter;stroke-opacity:1" d="M 337.418,855.7 320.912,855.7 z" id="boundary" inkscape:connector-curvature="0" />
	<path style="fill:none;stroke:red;stroke-width:1px;stroke-linecap:butt;stroke-linejoin:miter;stroke-opacity:1" d="M 320.912,855.7 304.406,855.7 z" id="boundary" inkscape:connector-curvature="0" />
	<path style="fill:none;stroke:red;stroke-width:1px;stroke-linecap:butt;stroke-linejoin:miter;stroke-opacity:1" d="M 304.406,855.7 289.551,863.953 z" id="boundary" inkscape:connector-curvature="0" />
	<path style="fill:none;stroke:red;stroke-width:1px;stroke-linecap:butt;stroke-linejoin:miter;stroke-opacity:1" d="M 289.551,863.953 277.997,850.749 z" id="boundary" inkscape:connector-curvature="0" />
	<path style="fill:none;stroke:red;stroke-width:1px;stroke-linecap:butt;stroke-linejoin:miter;stroke-opacity:1" d="M 277.997,850.749 261.491,847.448 z" id="boundary" inkscape:connector-curvature="0" />
	<path style="fill:none;stroke:red;stroke-width:1px;stroke-linecap:butt;stroke-linejoin:miter;stroke-opacity:1" d="M 261.491,847.448 258.19,877.158 z" id="boundary" inkscape:connector-curvature="0" />
	<path style="fill:none;stroke:red;stroke-width:1px;stroke-linecap:butt;stroke-linejoin:miter;stroke-opacity:1" d="M 258.19,877.158 244.985,888.712 z" id="boundary" inkscape:connector-curvature="0" />
	<path style="fill:none;stroke:red;stroke-width:1px;stroke-linecap:butt;stroke-linejoin:miter;stroke-opacity:1" d="M 244.985,888.712 244.985,905.218 z" id="boundary" inkscape:connector-curvature="0" />
	<path style="fill:none;stroke:red;stroke-width:1px;stroke-linecap:butt;stroke-linejoin:miter;stroke-opacity:1" d="M 244.985,905.218 244.985,921.724 z" id="boundary" inkscape:connector-curvature="0" />
	<path style="fill:none;stroke:red;stroke-width:1px;stroke-linecap:butt;stroke-linejoin:miter;stroke-opacity:1" d="M 244.985,921.724 241.684,951.434 z" id="boundary" inkscape:connector-curvature="0" />
	<path style="fill:none;stroke:red;stroke-width:1px;stroke-linecap:butt;stroke-linejoin:miter;stroke-opacity:1" d="M 241.684,951.434 228.479,962.988 z" id="boundary" inkscape:connector-curvature="0" />
	<path style="fill:none;stroke:red;stroke-width:1px;stroke-linecap:butt;stroke-linejoin:miter;stroke-opacity:1" d="M 228.479,962.988 211.973,962.988 z" id="boundary" inkscape:connector-curvature="0" />
	<path style="fill:none;stroke:red;stroke-width:1px;stroke-linecap:butt;stroke-linejoin:miter;stroke-opacity:1" d="M 211.973,962.988 195.468,962.988 z" id="boundary" inkscape:connector-curvature="0" />
	<path style="fill:none;stroke:red;stroke-width:1px;stroke-linecap:butt;stroke-linejoin:miter;stroke-opacity:1" d="M 195.468,962.988 180.612,971.241 z" id="boundary" inkscape:connector-curvature="0" />
	<path style="fill:none;stroke:red;stroke-width:1px;stroke-linecap:butt;stroke-linejoin:miter;stroke-opacity:1" d="M 180.612,971.241 165.757,979.494 z" id="boundary" inkscape:connector-curvature="0" />
	<path style="fill:none;stroke:red;stroke-width:1px;stroke-linecap:butt;stroke-linejoin:miter;stroke-opacity:1" d="M 165.757,979.494 149.251,979.494 z" id="boundary" inkscape:connector-curvature="0" />
	<path style="fill:none;stroke:red;stroke-width:1px;stroke-linecap:butt;stroke-linejoin:miter;stroke-opacity:1" d="M 149.251,979.494 132.745,979.494 z" id="boundary" inkscape:connector-curvature="0" />
	<path style="fill:none;stroke:red;stroke-width:1px;stroke-linecap:butt;stroke-linejoin:miter;stroke-opacity:1" d="M 132.745,979.494 116.24,979.494 z" id="boundary" inkscape:connector-curvature="0" />
	<path style="fill:none;stroke:red;stroke-width:1px;stroke-linecap:butt;stroke-linejoin:miter;stroke-opacity:1" d="M 116.24,979.494 99.7338,979.494 z" id="boundary" inkscape:connector-curvature="0" />
	<path style="fill:none;stroke:red;stroke-width:1px;stroke-linecap:butt;stroke-linejoin:miter;stroke-opacity:1" d="M 99.7338,979.494 83.228,979.494 z" id="boundary" inkscape:connector-curvature="0" />
	<path style="fill:none;stroke:red;stroke-width:1px;stroke-linecap:butt;stroke-linejoin:miter;stroke-opacity:1" d="M 83.228,979.494 66.7221,979.494 z" id="boundary" inkscape:connector-curvature="0" />
	<path style="fill:none;stroke:red;stroke-width:1px;stroke-linecap:butt;stroke-linejoin:miter;stroke-opacity:1" d="M 66.7221,979.494 50.2163,979.494 z" id="boundary" inkscape:connector-curvature="0" />
	<path style="fill:none;stroke:red;stroke-width:1px;stroke-linecap:butt;stroke-linejoin:miter;stroke-opacity:1" d="M 50.2163,979.494 33.7105,979.494 z" id="boundary" inkscape:connector-curvature="0" />
	<path style="fill:none;stroke:red;stroke-width:1px;stroke-linecap:butt;stroke-linejoin:miter;stroke-opacity:1" d="M 33.7105,979.494 17.2047,977.844 z" id="boundary" inkscape:connector-curvature="0" />
	<path style="fill:none;stroke:red;stroke-width:1px;stroke-linecap:butt;stroke-linejoin:miter;stroke-opacity:1" d="M 17.2047,977.844 4,966.29 z" id="boundary" inkscape:connector-curvature="0" />
	<path style="fill:none;stroke:red;stroke-width:1px;stroke-linecap:butt;stroke-linejoin:miter;stroke-opacity:1" d="M 4,966.29 4,949.784 z" id="boundary" inkscape:connector-curvature="0" />
	<path style="fill:none;stroke:red;stroke-width:1px;stroke-linecap:butt;stroke-linejoin:miter;stroke-opacity:1" d="M 4,949.784 20.5058,941.531 z" id="boundary" inkscape:connector-curvature="0" />
	<path style="fill:none;stroke:red;stroke-width:1px;stroke-linecap:butt;stroke-linejoin:miter;stroke-opacity:1" d="M 20.5058,941.531 37.0116,933.278 z" id="boundary" inkscape:connector-curvature="0" />
	<path style="fill:none;stroke:red;stroke-width:1px;stroke-linecap:butt;stroke-linejoin:miter;stroke-opacity:1" d="M 37.0116,933.278 53.5175,928.326 z" id="boundary" inkscape:connector-curvature="0" />
	<path style="fill:none;stroke:red;stroke-width:1px;stroke-linecap:butt;stroke-linejoin:miter;stroke-opacity:1" d="M 53.5175,928.326 70.0233,928.326 z" id="boundary" inkscape:connector-curvature="0" />
	<path style="fill:none;stroke:red;stroke-width:1px;stroke-linecap:butt;stroke-linejoin:miter;stroke-opacity:1" d="M 70.0233,928.326 86.5291,928.326 z" id="boundary" inkscape:connector-curvature="0" />
	<path style="fill:none;stroke:red;stroke-width:1px;stroke-linecap:butt;stroke-linejoin:miter;stroke-opacity:1" d="M 86.5291,928.326 103.035,928.326 z" id="boundary" inkscape:connector-curvature="0" />
	<path style="fill:none;stroke:red;stroke-width:1px;stroke-linecap:butt;stroke-linejoin:miter;stroke-opacity:1" d="M 103.035,928.326 119.541,928.326 z" id="boundary" inkscape:connector-curvature="0" />
	<path style="fill:none;stroke:red;stroke-width:1px;stroke-linecap:butt;stroke-linejoin:miter;stroke-opacity:1" d="M 119.541,928.326 136.047,931.627 z" id="boundary" inkscape:connector-curvature="0" />
	<path style="fill:none;stroke:red;stroke-width:1px;stroke-linecap:butt;stroke-linejoin:miter;stroke-opacity:1" d="M 136.047,931.627 152.552,933.278 z" id="boundary" inkscape:connector-curvature="0" />
	<path style="fill:none;stroke:red;stroke-width:1px;stroke-linecap:butt;stroke-linejoin:miter;stroke-opacity:1" d="M 152.552,933.278 169.058,936.579 z" id="boundary" inkscape:connector-curvature="0" />
	<path style="fill:none;stroke:red;stroke-width:1px;stroke-linecap:butt;stroke-linejoin:miter;stroke-opacity:1" d="M 169.058,936.579 185.564,933.278 z" id="boundary" inkscape:connector-curvature="0" />
	<path style="fill:none;stroke:red;stroke-width:1px;stroke-linecap:butt;stroke-linejoin:miter;stroke-opacity:1" d="M 185.564,933.278 185.564,916.772 z" id="boundary" inkscape:connector-curvature="0" />
	<path style="fill:none;stroke:red;stroke-width:1px;stroke-linecap:butt;stroke-linejoin:miter;stroke-opacity:1" d="M 185.564,916.772 185.564,900.266 z" id="boundary" inkscape:connector-curvature="0" />
	<path style="fill:none;stroke:red;stroke-width:1px;stroke-linecap:butt;stroke-linejoin:miter;stroke-opacity:1" d="M 185.564,900.266 185.564,883.76 z" id="boundary" inkscape:connector-curvature="0" />
	<path style="fill:none;stroke:red;stroke-width:1px;stroke-linecap:butt;stroke-linejoin:miter;stroke-opacity:1" d="M 185.564,883.76 177.311,857.351 z" id="boundary" inkscape:connector-curvature="0" />
	<path style="fill:none;stroke:red;stroke-width:1px;stroke-linecap:butt;stroke-linejoin:miter;stroke-opacity:1" d="M 177.311,857.351 169.058,842.496 z" id="boundary" inkscape:connector-curvature="0" />
	<path style="fill:none;stroke:red;stroke-width:1px;stroke-linecap:butt;stroke-linejoin:miter;stroke-opacity:1" d="M 169.058,842.496 160.805,825.99 z" id="boundary" inkscape:connector-curvature="0" />
	<path style="fill:none;stroke:red;stroke-width:1px;stroke-linecap:butt;stroke-linejoin:miter;stroke-opacity:1" d="M 160.805,825.99 160.805,809.484 z" id="boundary" inkscape:connector-curvature="0" />
	<path style="fill:none;stroke:red;stroke-width:1px;stroke-linecap:butt;stroke-linejoin:miter;stroke-opacity:1" d="M 160.805,809.484 160.805,792.978 z" id="boundary" inkscape:connector-curvature="0" />
	<path style="fill:none;stroke:red;stroke-width:1px;stroke-linecap:butt;stroke-linejoin:miter;stroke-opacity:1" d="M 160.805,792.978 160.805,776.473 z" id="boundary" inkscape:connector-curvature="0" />
	<path style="fill:none;stroke:red;stroke-width:1px;stroke-linecap:butt;stroke-linejoin:miter;stroke-opacity:1" d="M 160.805,776.473 160.805,751.714 z" id="boundary" inkscape:connector-curvature="0" />
	<path style="fill:none;stroke:red;stroke-width:1px;stroke-linecap:butt;stroke-linejoin:miter;stroke-opacity:1" d="M 160.805,751.714 169.058,726.955 z" id="boundary" inkscape:connector-curvature="0" />
	<path style="fill:none;stroke:red;stroke-width:1px;stroke-linecap:butt;stroke-linejoin:miter;stroke-opacity:1" d="M 169.058,726.955 182.263,713.75 z" id="boundary" inkscape:connector-curvature="0" />
	<path style="fill:none;stroke:red;stroke-width:1px;stroke-linecap:butt;stroke-linejoin:miter;stroke-opacity:1" d="M 182.263,713.75 185.564,693.943 z" id="boundary" inkscape:connector-curvature="0" />
	<path style="fill:none;stroke:red;stroke-width:1px;stroke-linecap:butt;stroke-linejoin:miter;stroke-opacity:1" d="M 185.564,693.943 185.564,677.438 z" id="boundary" inkscape:connector-curvature="0" />
	<path style="fill:none;stroke:red;stroke-width:1px;stroke-linecap:butt;stroke-linejoin:miter;stroke-opacity:1" d="M 185.564,677.438 202.07,660.932 z" id="boundary" inkscape:connector-curvature="0" />
	<path style="fill:none;stroke:red;stroke-width:1px;stroke-linecap:butt;stroke-linejoin:miter;stroke-opacity:1" d="M 202.07,660.932 215.275,647.727 z" id="boundary" inkscape:connector-curvature="0" />
	<path style="fill:none;stroke:red;stroke-width:1px;stroke-linecap:butt;stroke-linejoin:miter;stroke-opacity:1" d="M 215.275,647.727 215.275,616.366 z" id="boundary" inkscape:connector-curvature="0" />
	<path style="fill:none;stroke:red;stroke-width:1px;stroke-linecap:butt;stroke-linejoin:miter;stroke-opacity:1" d="M 215.275,616.366 200.419,608.113 z" id="boundary" inkscape:connector-curvature="0" />
	<path style="fill:none;stroke:red;stroke-width:1px;stroke-linecap:butt;stroke-linejoin:miter;stroke-opacity:1" d="M 200.419,608.113 183.913,608.113 z" id="boundary" inkscape:connector-curvature="0" />
	<path style="fill:none;stroke:red;stroke-width:1px;stroke-linecap:butt;stroke-linejoin:miter;stroke-opacity:1" d="M 183.913,608.113 167.408,613.065 z" id="boundary" inkscape:connector-curvature="0" />
	<path style="fill:none;stroke:red;stroke-width:1px;stroke-linecap:butt;stroke-linejoin:miter;stroke-opacity:1" d="M 167.408,613.065 154.203,624.619 z" id="boundary" inkscape:connector-curvature="0" />
	<path style="fill:none;stroke:red;stroke-width:1px;stroke-linecap:butt;stroke-linejoin:miter;stroke-opacity:1" d="M 154.203,624.619 140.998,639.474 z" id="boundary" inkscape:connector-curvature="0" />
	<path style="fill:none;stroke:red;stroke-width:1px;stroke-linecap:butt;stroke-linejoin:miter;stroke-opacity:1" d="M 140.998,639.474 124.493,641.125 z" id="boundary" inkscape:connector-curvature="0" />
	<path style="fill:none;stroke:red;stroke-width:1px;stroke-linecap:butt;stroke-linejoin:miter;stroke-opacity:1" d="M 124.493,641.125 109.637,649.378 z" id="boundary" inkscape:connector-curvature="0" />
	<path style="fill:none;stroke:red;stroke-width:1px;stroke-linecap:butt;stroke-linejoin:miter;stroke-opacity:1" d="M 109.637,649.378 94.782,641.125 z" id="boundary" inkscape:connector-curvature="0" />
	<path style="fill:none;stroke:red;stroke-width:1px;stroke-linecap:butt;stroke-linejoin:miter;stroke-opacity:1" d="M 94.782,641.125 86.5291,626.27 z" id="boundary" inkscape:connector-curvature="0" />
	<path style="fill:none;stroke:red;stroke-width:1px;stroke-linecap:butt;stroke-linejoin:miter;stroke-opacity:1" d="M 86.5291,626.27 78.2762,611.414 z" id="boundary" inkscape:connector-curvature="0" />
	<path style="fill:none;stroke:red;stroke-width:1px;stroke-linecap:butt;stroke-linejoin:miter;stroke-opacity:1" d="M 78.2762,611.414 78.2762,594.908 z" id="boundary" inkscape:connector-curvature="0" />
	<path style="fill:none;stroke:red;stroke-width:1px;stroke-linecap:butt;stroke-linejoin:miter;stroke-opacity:1" d="M 78.2762,594.908 78.2762,578.403 z" id="boundary" inkscape:connector-curvature="0" />
	<path style="fill:none;stroke:red;stroke-width:1px;stroke-linecap:butt;stroke-linejoin:miter;stroke-opacity:1" d="M 78.2762,578.403 91.4809,565.198 z" id="boundary" inkscape:connector-curvature="0" />
	<path style="fill:none;stroke:red;stroke-width:1px;stroke-linecap:butt;stroke-linejoin:miter;stroke-opacity:1" d="M 91.4809,565.198 99.7338,548.692 z" id="boundary" inkscape:connector-curvature="0" />
	<path style="fill:none;stroke:red;stroke-width:1px;stroke-linecap:butt;stroke-linejoin:miter;stroke-opacity:1" d="M 99.7338,548.692 107.987,532.186 z" id="boundary" inkscape:connector-curvature="0" />
	<path style="fill:none;stroke:red;stroke-width:1px;stroke-linecap:butt;stroke-linejoin:miter;stroke-opacity:1" d="M 107.987,532.186 119.541,512.379 z" id="boundary" inkscape:connector-curvature="0" />
	<path style="fill:none;stroke:red;stroke-width:1px;stroke-linecap:butt;stroke-linejoin:miter;stroke-opacity:1" d="M 119.541,512.379 127.794,495.874 z" id="boundary" inkscape:connector-curvature="0" />
	<path style="fill:none;stroke:red;stroke-width:1px;stroke-linecap:butt;stroke-linejoin:miter;stroke-opacity:1" d="M 127.794,495.874 136.047,479.368 z" id="boundary" inkscape:connector-curvature="0" />
	<path style="fill:none;stroke:red;stroke-width:1px;stroke-linecap:butt;stroke-linejoin:miter;stroke-opacity:1" d="M 136.047,479.368 136.047,462.862 z" id="boundary" inkscape:connector-curvature="0" />
	<path style="fill:none;stroke:red;stroke-width:1px;stroke-linecap:butt;stroke-linejoin:miter;stroke-opacity:1" d="M 136.047,462.862 136.047,446.356 z" id="boundary" inkscape:connector-curvature="0" />
	<path style="fill:none;stroke:red;stroke-width:1px;stroke-linecap:butt;stroke-linejoin:miter;stroke-opacity:1" d="M 136.047,446.356 136.047,429.85 z" id="boundary" inkscape:connector-curvature="0" />
	<path style="fill:none;stroke:red;stroke-width:1px;stroke-linecap:butt;stroke-linejoin:miter;stroke-opacity:1" d="M 136.047,429.85 136.047,405.092 z" id="boundary" inkscape:connector-curvature="0" />
	<path style="fill:none;stroke:red;stroke-width:1px;stroke-linecap:butt;stroke-linejoin:miter;stroke-opacity:1" d="M 136.047,405.092 149.251,391.887 z" id="boundary" inkscape:connector-curvature="0" />
	<path style="fill:none;stroke:red;stroke-width:1px;stroke-linecap:butt;stroke-linejoin:miter;stroke-opacity:1" d="M 149.251,391.887 152.552,363.827 z" id="boundary" inkscape:connector-curvature="0" />
	<path style="fill:none;stroke:red;stroke-width:1px;stroke-linecap:butt;stroke-linejoin:miter;stroke-opacity:1" d="M 152.552,363.827 160.805,347.321 z" id="boundary" inkscape:connector-curvature="0" />
	<path style="fill:none;stroke:red;stroke-width:1px;stroke-linecap:butt;stroke-linejoin:miter;stroke-opacity:1" d="M 160.805,347.321 174.01,334.116 z" id="boundary" inkscape:connector-curvature="0" />
	<path style="fill:none;stroke:red;stroke-width:1px;stroke-linecap:butt;stroke-linejoin:miter;stroke-opacity:1" d="M 174.01,334.116 177.311,302.755 z" id="boundary" inkscape:connector-curvature="0" />
	<path style="fill:none;stroke:red;stroke-width:1px;stroke-linecap:butt;stroke-linejoin:miter;stroke-opacity:1" d="M 177.311,302.755 177.311,286.25 z" id="boundary" inkscape:connector-curvature="0" />
	<path style="fill:none;stroke:red;stroke-width:1px;stroke-linecap:butt;stroke-linejoin:miter;stroke-opacity:1" d="M 177.311,286.25 175.661,269.744 z" id="boundary" inkscape:connector-curvature="0" />
	<path style="fill:none;stroke:red;stroke-width:1px;stroke-linecap:butt;stroke-linejoin:miter;stroke-opacity:1" d="M 175.661,269.744 159.155,269.744 z" id="boundary" inkscape:connector-curvature="0" />
	<path style="fill:none;stroke:red;stroke-width:1px;stroke-linecap:butt;stroke-linejoin:miter;stroke-opacity:1" d="M 159.155,269.744 145.95,258.19 z" id="boundary" inkscape:connector-curvature="0" />
	<path style="fill:none;stroke:red;stroke-width:1px;stroke-linecap:butt;stroke-linejoin:miter;stroke-opacity:1" d="M 145.95,258.19 136.047,244.985 z" id="boundary" inkscape:connector-curvature="0" />
	<path style="fill:none;stroke:red;stroke-width:1px;stroke-linecap:butt;stroke-linejoin:miter;stroke-opacity:1" d="M 136.047,244.985 122.842,235.082 z" id="boundary" inkscape:connector-curvature="0" />
	<path style="fill:none;stroke:red;stroke-width:1px;stroke-linecap:butt;stroke-linejoin:miter;stroke-opacity:1" d="M 122.842,235.082 116.24,218.576 z" id="boundary" inkscape:connector-curvature="0" />
	<path style="fill:none;stroke:red;stroke-width:1px;stroke-linecap:butt;stroke-linejoin:miter;stroke-opacity:1" d="M 116.24,218.576 103.035,207.022 z" id="boundary" inkscape:connector-curvature="0" />
	<path style="fill:none;stroke:red;stroke-width:1px;stroke-linecap:butt;stroke-linejoin:miter;stroke-opacity:1" d="M 103.035,207.022 104.686,187.215 z" id="boundary" inkscape:connector-curvature="0" />
	<path style="fill:none;stroke:red;stroke-width:1px;stroke-linecap:butt;stroke-linejoin:miter;stroke-opacity:1" d="M 104.686,187.215 94.782,174.01 z" id="boundary" inkscape:connector-curvature="0" />
	<path style="fill:none;stroke:red;stroke-width:1px;stroke-linecap:butt;stroke-linejoin:miter;stroke-opacity:1" d="M 94.782,174.01 94.782,157.504 z" id="boundary" inkscape:connector-curvature="0" />
	<path style="fill:none;stroke:red;stroke-width:1px;stroke-linecap:butt;stroke-linejoin:miter;stroke-opacity:1" d="M 94.782,157.504 94.782,140.998 z" id="boundary" inkscape:connector-curvature="0" />
	<path style="fill:none;stroke:red;stroke-width:1px;stroke-linecap:butt;stroke-linejoin:miter;stroke-opacity:1" d="M 94.782,140.998 94.782,124.493 z" id="boundary" inkscape:connector-curvature="0" />
	<path style="fill:none;stroke:red;stroke-width:1px;stroke-linecap:butt;stroke-linejoin:miter;stroke-opacity:1" d="M 94.782,124.493 94.782,107.987 z" id="boundary" inkscape:connector-curvature="0" />
	<path style="fill:none;stroke:red;stroke-width:1px;stroke-linecap:butt;stroke-linejoin:miter;stroke-opacity:1" d="M 94.782,107.987 94.782,91.4809 z" id="boundary" inkscape:connector-curvature="0" />
	<path style="fill:none;stroke:red;stroke-width:1px;stroke-linecap:butt;stroke-linejoin:miter;stroke-opacity:1" d="M 94.782,91.4809 94.782,74.975 z" id="boundary" inkscape:connector-curvature="0" />
	<path style="fill:none;stroke:red;stroke-width:1px;stroke-linecap:butt;stroke-linejoin:miter;stroke-opacity:1" d="M 94.782,74.975 107.987,61.7704 z" id="boundary" inkscape:connector-curvature="0" />
	<path style="fill:none;stroke:red;stroke-width:1px;stroke-linecap:butt;stroke-linejoin:miter;stroke-opacity:1" d="M 107.987,61.7704 116.24,45.2646 z" id="boundary" inkscape:connector-curvature="0" />
	<path style="fill:none;stroke:red;stroke-width:1px;stroke-linecap:butt;stroke-linejoin:miter;stroke-opacity:1" d="M 116.24,45.2646 132.745,37.0116 z" id="boundary" inkscape:connector-curvature="0" />
	<path style="fill:none;stroke:red;stroke-width:1px;stroke-linecap:butt;stroke-linejoin:miter;stroke-opacity:1" d="M 132.745,37.0116 145.95,23.807 z" id="boundary" inkscape:connector-curvature="0" />
	<path style="fill:none;stroke:red;stroke-width:1px;stroke-linecap:butt;stroke-linejoin:miter;stroke-opacity:1" d="M 145.95,23.807 162.456,20.5058 z" id="boundary" inkscape:connector-curvature="0" />
	<path style="fill:none;stroke:red;stroke-width:1px;stroke-linecap:butt;stroke-linejoin:miter;stroke-opacity:1" d="M 162.456,20.5058 178.962,15.5541 z" id="boundary" inkscape:connector-curvature="0" />
	<path style="fill:none;stroke:red;stroke-width:1px;stroke-linecap:butt;stroke-linejoin:miter;stroke-opacity:1" d="M 178.962,15.5541 195.468,12.2529 z" id="boundary" inkscape:connector-curvature="0" />
	<path style="fill:none;stroke:red;stroke-width:1px;stroke-linecap:butt;stroke-linejoin:miter;stroke-opacity:1" d="M 195.468,12.2529 211.973,8.95175 z" id="boundary" inkscape:connector-curvature="0" />
	<path style="fill:none;stroke:red;stroke-width:1px;stroke-linecap:butt;stroke-linejoin:miter;stroke-opacity:1" d="M 211.973,8.95175 228.479,7.30116 z" id="boundary" inkscape:connector-curvature="0" />
	<path style="fill:none;stroke:red;stroke-width:1px;stroke-linecap:butt;stroke-linejoin:miter;stroke-opacity:1" d="M 228.479,7.30116 244.985,4 z" id="boundary" inkscape:connector-curvature="0" />
	<path style="fill:none;stroke:red;stroke-width:1px;stroke-linecap:butt;stroke-linejoin:miter;stroke-opacity:1" d="M 244.985,4 261.491,4 z" id="boundary" inkscape:connector-curvature="0" />
	<path style="fill:none;stroke:red;stroke-width:1px;stroke-linecap:butt;stroke-linejoin:miter;stroke-opacity:1" d="M 261.491,4 277.997,8.95175 z" id="boundary" inkscape:connector-curvature="0" />
	<path style="fill:none;stroke:red;stroke-width:1px;stroke-linecap:butt;stroke-linejoin:miter;stroke-opacity:1" d="M 277.997,8.95175 284.599,25.4576 z" id="boundary" inkscape:connector-curvature="0" />
	<path style="fill:none;stroke:red;stroke-width:1px;stroke-linecap:butt;stroke-linejoin:miter;stroke-opacity:1" d="M 284.599,25.4576 297.804,37.0116 z" id="boundary" inkscape:connector-curvature="0" />
	<path style="fill:none;stroke:red;stroke-width:1px;stroke-linecap:butt;stroke-linejoin:miter;stroke-opacity:1" d="M 297.804,37.0116 302.755,53.5175 z" id="boundary" inkscape:connector-curvature="0" />
	<path style="fill:none;stroke:red;stroke-width:1px;stroke-linecap:butt;stroke-linejoin:miter;stroke-opacity:1" d="M 302.755,53.5175 315.96,63.421 z" id="boundary" inkscape:connector-curvature="0" />
	<path style="fill:none;stroke:red;stroke-width:1px;stroke-linecap:butt;stroke-linejoin:miter;stroke-opacity:1" d="M 315.96,63.421 319.261,88.1797 z" id="boundary" inkscape:connector-curvature="0" />
	<path style="fill:none;stroke:red;stroke-width:1px;stroke-linecap:butt;stroke-linejoin:miter;stroke-opacity:1" d="M 319.261,88.1797 327.514,103.035 z" id="boundary" inkscape:connector-curvature="0" />
	<path style="fill:none;stroke:red;stroke-width:1px;stroke-linecap:butt;stroke-linejoin:miter;stroke-opacity:1" d="M 327.514,103.035 327.514,119.541 z" id="boundary" inkscape:connector-curvature="0" />
	<path style="fill:none;stroke:red;stroke-width:1px;stroke-linecap:butt;stroke-linejoin:miter;stroke-opacity:1" d="M 327.514,119.541 335.767,134.396 z" id="boundary" inkscape:connector-curvature="0" />
	<path style="fill:none;stroke:red;stroke-width:1px;stroke-linecap:butt;stroke-linejoin:miter;stroke-opacity:1" d="M 335.767,134.396 352.273,140.998 z" id="boundary" inkscape:connector-curvature="0" />
	<path style="fill:none;stroke:red;stroke-width:1px;stroke-linecap:butt;stroke-linejoin:miter;stroke-opacity:1" d="M 352.273,140.998 365.478,152.552 z" id="boundary" inkscape:connector-curvature="0" />
	<path style="fill:none;stroke:red;stroke-width:1px;stroke-linecap:butt;stroke-linejoin:miter;stroke-opacity:1" d="M 365.478,152.552 381.983,152.552 z" id="boundary" inkscape:connector-curvature="0" />
	<path style="fill:none;stroke:red;stroke-width:1px;stroke-linecap:butt;stroke-linejoin:miter;stroke-opacity:1" d="M 381.983,152.552 393.537,139.348 z" id="boundary" inkscape:connector-curvature="0" />
	<path style="fill:none;stroke:red;stroke-width:1px;stroke-linecap:butt;stroke-linejoin:miter;stroke-opacity:1" d="M 393.537,139.348 406.742,127.794 z" id="boundary" inkscape:connector-curvature="0" />
	<path style="fill:none;stroke:red;stroke-width:1px;stroke-linecap:butt;stroke-linejoin:miter;stroke-opacity:1" d="M 406.742,127.794 413.344,111.288 z" id="boundary" inkscape:connector-curvature="0" />
	<path style="fill:none;stroke:red;stroke-width:1px;stroke-linecap:butt;stroke-linejoin:miter;stroke-opacity:1" d="M 413.344,111.288 421.597,94.782 z" id="boundary" inkscape:connector-curvature="0" />
	<path style="fill:none;stroke:red;stroke-width:1px;stroke-linecap:butt;stroke-linejoin:miter;stroke-opacity:1" d="M 421.597,94.782 434.802,81.5774 z" id="boundary" inkscape:connector-curvature="0" />
	<path style="fill:none;stroke:red;stroke-width:1px;stroke-linecap:butt;stroke-linejoin:miter;stroke-opacity:1" d="M 434.802,81.5774 448.007,70.0233 z" id="boundary" inkscape:connector-curvature="0" />
	<path style="fill:none;stroke:red;stroke-width:1px;stroke-linecap:butt;stroke-linejoin:miter;stroke-opacity:1" d="M 448.007,70.0233 462.862,61.7704 z" id="boundary" inkscape:connector-curvature="0" />
	<path style="fill:none;stroke:red;stroke-width:1px;stroke-linecap:butt;stroke-linejoin:miter;stroke-opacity:1" d="M 462.862,61.7704 479.368,61.7704 z" id="boundary" inkscape:connector-curvature="0" />
	<path style="fill:none;stroke:red;stroke-width:1px;stroke-linecap:butt;stroke-linejoin:miter;stroke-opacity:1" d="M 479.368,61.7704 495.874,53.5175 z" id="boundary" inkscape:connector-curvature="0" />
	<path style="fill:none;stroke:red;stroke-width:1px;stroke-linecap:butt;stroke-linejoin:miter;stroke-opacity:1" d="M 495.874,53.5175 512.379,53.5175 z" id="boundary" inkscape:connector-curvature="0" />
	<path style="fill:none;stroke:red;stroke-width:1px;stroke-linecap:butt;stroke-linejoin:miter;stroke-opacity:1" d="M 512.379,53.5175 527.235,45.2646 z" id="boundary" inkscape:connector-curvature="0" />
	<path style="fill:none;stroke:red;stroke-width:1px;stroke-linecap:butt;stroke-linejoin:miter;stroke-opacity:1" d="M 527.235,45.2646 542.09,53.5175 z" id="boundary" inkscape:connector-curvature="0" />
	<path style="fill:none;stroke:red;stroke-width:1px;stroke-linecap:butt;stroke-linejoin:miter;stroke-opacity:1" d="M 542.09,53.5175 558.596,50.2163 z" id="boundary" inkscape:connector-curvature="0" />
	<path style="fill:none;stroke:red;stroke-width:1px;stroke-linecap:butt;stroke-linejoin:miter;stroke-opacity:1" d="M 558.596,50.2163 570.15,63.421 z" id="boundary" inkscape:connector-curvature="0" />
	<path style="fill:none;stroke:red;stroke-width:1px;stroke-linecap:butt;stroke-linejoin:miter;stroke-opacity:1" d="M 570.15,63.421 583.354,74.975 z" id="boundary" inkscape:connector-curvature="0" />
	<path style="fill:none;stroke:red;stroke-width:1px;stroke-linecap:butt;stroke-linejoin:miter;stroke-opacity:1" d="M 583.354,74.975 594.908,88.1797 z" id="boundary" inkscape:connector-curvature="0" />
	<path style="fill:none;stroke:red;stroke-width:1px;stroke-linecap:butt;stroke-linejoin:miter;stroke-opacity:1" d="M 594.908,88.1797 608.113,99.7338 z" id="boundary" inkscape:connector-curvature="0" />
	<path style="fill:none;stroke:red;stroke-width:1px;stroke-linecap:butt;stroke-linejoin:miter;stroke-opacity:1" d="M 608.113,99.7338 622.968,107.987 z" id="boundary" inkscape:connector-curvature="0" />
	<path style="fill:none;stroke:red;stroke-width:1px;stroke-linecap:butt;stroke-linejoin:miter;stroke-opacity:1" d="M 622.968,107.987 631.221,122.842 z" id="boundary" inkscape:connector-curvature="0" />
	<path style="fill:none;stroke:red;stroke-width:1px;stroke-linecap:butt;stroke-linejoin:miter;stroke-opacity:1" d="M 631.221,122.842 632.872,145.95 z" id="boundary" inkscape:connector-curvature="0" />
	<path style="fill:none;stroke:red;stroke-width:1px;stroke-linecap:butt;stroke-linejoin:miter;stroke-opacity:1" d="M 632.872,145.95 641.125,160.805 z" id="boundary" inkscape:connector-curvature="0" />
	<path style="fill:none;stroke:red;stroke-width:1px;stroke-linecap:butt;stroke-linejoin:miter;stroke-opacity:1" d="M 641.125,160.805 649.378,175.661 z" id="boundary" inkscape:connector-curvature="0" />
	<path style="fill:none;stroke:red;stroke-width:1px;stroke-linecap:butt;stroke-linejoin:miter;stroke-opacity:1" d="M 649.378,175.661 641.125,195.468 z" id="boundary" inkscape:connector-curvature="0" />
	<path style="fill:none;stroke:red;stroke-width:1px;stroke-linecap:butt;stroke-linejoin:miter;stroke-opacity:1" d="M 641.125,195.468 649.378,210.323 z" id="boundary" inkscape:connector-curvature="0" />
	<path style="fill:none;stroke:red;stroke-width:1px;stroke-linecap:butt;stroke-linejoin:miter;stroke-opacity:1" d="M 649.378,210.323 649.378,226.829 z" id="boundary" inkscape:connector-curvature="0" />
	<path style="fill:none;stroke:red;stroke-width:1px;stroke-linecap:butt;stroke-linejoin:miter;stroke-opacity:1" d="M 649.378,226.829 649.378,243.334 z" id="boundary" inkscape:connector-curvature="0" />
	<path style="fill:none;stroke:red;stroke-width:1px;stroke-linecap:butt;stroke-linejoin:miter;stroke-opacity:1" d="M 649.378,243.334 649.378,259.84 z" id="boundary" inkscape:connector-curvature="0" />
	<path style="fill:none;stroke:red;stroke-width:1px;stroke-linecap:butt;stroke-linejoin:miter;stroke-opacity:1" d="M 649.378,259.84 641.125,277.997 z" id="boundary" inkscape:connector-curvature="0" />
	<path style="fill:none;stroke:red;stroke-width:1px;stroke-linecap:butt;stroke-linejoin:miter;stroke-opacity:1" d="M 641.125,277.997 632.872,294.502 z" id="boundary" inkscape:connector-curvature="0" />
	<path style="fill:none;stroke:red;stroke-width:1px;stroke-linecap:butt;stroke-linejoin:miter;stroke-opacity:1" d="M 632.872,294.502 616.366,294.502 z" id="boundary" inkscape:connector-curvature="0" />
	<path style="fill:none;stroke:red;stroke-width:1px;stroke-linecap:butt;stroke-linejoin:miter;stroke-opacity:1" d="M 616.366,294.502 604.812,311.008 z" id="boundary" inkscape:connector-curvature="0" />
	<path style="fill:none;stroke:red;stroke-width:1px;stroke-linecap:butt;stroke-linejoin:miter;stroke-opacity:1" d="M 604.812,311.008 588.306,315.96 z" id="boundary" inkscape:connector-curvature="0" />
	<path style="fill:none;stroke:red;stroke-width:1px;stroke-linecap:butt;stroke-linejoin:miter;stroke-opacity:1" d="M 588.306,315.96 571.8,315.96 z" id="boundary" inkscape:connector-curvature="0" />
	<path style="fill:none;stroke:red;stroke-width:1px;stroke-linecap:butt;stroke-linejoin:miter;stroke-opacity:1" d="M 571.8,315.96 558.596,327.514 z" id="boundary" inkscape:connector-curvature="0" />
	<path style="fill:none;stroke:red;stroke-width:1px;stroke-linecap:butt;stroke-linejoin:miter;stroke-opacity:1" d="M 558.596,327.514 542.09,327.514 z" id="boundary" inkscape:connector-curvature="0" />
	<path style="fill:none;stroke:red;stroke-width:1px;stroke-linecap:butt;stroke-linejoin:miter;stroke-opacity:1" d="M 542.09,327.514 525.584,327.514 z" id="boundary" inkscape:connector-curvature="0" />
	<path style="fill:none;stroke:red;stroke-width:1px;stroke-linecap:butt;stroke-linejoin:miter;stroke-opacity:1" d="M 525.584,327.514 509.078,327.514 z" id="boundary" inkscape:connector-curvature="0" />
	<path style="fill:none;stroke:red;stroke-width:1px;stroke-linecap:butt;stroke-linejoin:miter;stroke-opacity:1" d="M 509.078,327.514 492.572,327.514 z" id="boundary" inkscape:connector-curvature="0" />
	<path style="fill:none;stroke:red;stroke-width:1px;stroke-linecap:butt;stroke-linejoin:miter;stroke-opacity:1" d="M 492.572,327.514 476.067,327.514 z" id="boundary" inkscape:connector-curvature="0" />
	<path style="fill:none;stroke:red;stroke-width:1px;stroke-linecap:butt;stroke-linejoin:miter;stroke-opacity:1" d="M 476.067,327.514 459.561,327.514 z" id="boundary" inkscape:connector-curvature="0" />
	<path style="fill:none;stroke:red;stroke-width:1px;stroke-linecap:butt;stroke-linejoin:miter;stroke-opacity:1" d="M 459.561,327.514 459.561,344.02 z" id="boundary" inkscape:connector-curvature="0" />
	<path style="fill:none;stroke:red;stroke-width:1px;stroke-linecap:butt;stroke-linejoin:miter;stroke-opacity:1" d="M 459.561,344.02 451.308,360.526 z" id="boundary" inkscape:connector-curvature="0" />
	<path style="fill:none;stroke:red;stroke-width:1px;stroke-linecap:butt;stroke-linejoin:miter;stroke-opacity:1" d="M 451.308,360.526 443.055,377.032 z" id="boundary" inkscape:connector-curvature="0" />
	<path style="fill:none;stroke:red;stroke-width:1px;stroke-linecap:butt;stroke-linejoin:miter;stroke-opacity:1" d="M 443.055,377.032 434.802,393.537 z" id="boundary" inkscape:connector-curvature="0" />
	<path style="fill:none;stroke:red;stroke-width:1px;stroke-linecap:butt;stroke-linejoin:miter;stroke-opacity:1" d="M 434.802,393.537 434.802,410.043 z" id="boundary" inkscape:connector-curvature="0" />
	<path style="fill:none;stroke:red;stroke-width:1px;stroke-linecap:butt;stroke-linejoin:miter;stroke-opacity:1" d="M 434.802,410.043 418.296,418.296 z" id="boundary" inkscape:connector-curvature="0" />
	<path style="fill:none;stroke:red;stroke-width:1px;stroke-linecap:butt;stroke-linejoin:miter;stroke-opacity:1" d="M 418.296,418.296 418.296,434.802 z" id="boundary" inkscape:connector-curvature="0" />
	<path style="fill:none;stroke:red;stroke-width:1px;stroke-linecap:butt;stroke-linejoin:miter;stroke-opacity:1" d="M 418.296,434.802 406.742,448.007 z" id="boundary" inkscape:connector-curvature="0" />
	<path style="fill:none;stroke:red;stroke-width:1px;stroke-linecap:butt;stroke-linejoin:miter;stroke-opacity:1" d="M 406.742,448.007 393.537,459.561 z" id="boundary" inkscape:connector-curvature="0" />
	<path style="fill:none;stroke:red;stroke-width:1px;stroke-linecap:butt;stroke-linejoin:miter;stroke-opacity:1" d="M 393.537,459.561 401.79,474.416 z" id="boundary" inkscape:connector-curvature="0" />
	<path style="fill:none;stroke:red;stroke-width:1px;stroke-linecap:butt;stroke-linejoin:miter;stroke-opacity:1" d="M 401.79,474.416 416.646,482.669 z" id="boundary" inkscape:connector-curvature="0" />
	<path style="fill:none;stroke:red;stroke-width:1px;stroke-linecap:butt;stroke-linejoin:miter;stroke-opacity:1" d="M 416.646,482.669 433.151,485.97 z" id="boundary" inkscape:connector-curvature="0" />
	<path style="fill:none;stroke:red;stroke-width:1px;stroke-linecap:butt;stroke-linejoin:miter;stroke-opacity:1" d="M 433.151,485.97 443.055,499.175 z" id="boundary" inkscape:connector-curvature="0" />
	<path style="fill:none;stroke:red;stroke-width:1px;stroke-linecap:butt;stroke-linejoin:miter;stroke-opacity:1" d="M 443.055,499.175 457.91,507.428 z" id="boundary" inkscape:connector-curvature="0" />
	<path style="fill:none;stroke:red;stroke-width:1px;stroke-linecap:butt;stroke-linejoin:miter;stroke-opacity:1" d="M 457.91,507.428 472.765,515.681 z" id="boundary" inkscape:connector-curvature="0" />
	<path style="fill:none;stroke:red;stroke-width:1px;stroke-linecap:butt;stroke-linejoin:miter;stroke-opacity:1" d="M 472.765,515.681 487.621,523.933 z" id="boundary" inkscape:connector-curvature="0" />
	<path style="fill:none;stroke:red;stroke-width:1px;stroke-linecap:butt;stroke-linejoin:miter;stroke-opacity:1" d="M 487.621,523.933 492.572,540.439 z" id="boundary" inkscape:connector-curvature="0" />
	<path style="fill:none;stroke:red;stroke-width:1px;stroke-linecap:butt;stroke-linejoin:miter;stroke-opacity:1" d="M 492.572,540.439 500.825,555.295 z" id="boundary" inkscape:connector-curvature="0" />
	<path style="fill:none;stroke:red;stroke-width:1px;stroke-linecap:butt;stroke-linejoin:miter;stroke-opacity:1" d="M 500.825,555.295 500.825,571.8 z" id="boundary" inkscape:connector-curvature="0" />
	<path style="fill:none;stroke:red;stroke-width:1px;stroke-linecap:butt;stroke-linejoin:miter;stroke-opacity:1" d="M 500.825,571.8 517.331,573.451 z" id="boundary" inkscape:connector-curvature="0" />
	<path style="fill:none;stroke:red;stroke-width:1px;stroke-linecap:butt;stroke-linejoin:miter;stroke-opacity:1" d="M 517.331,573.451 533.837,573.451 z" id="boundary" inkscape:connector-curvature="0" />
	<path style="fill:none;stroke:red;stroke-width:1px;stroke-linecap:butt;stroke-linejoin:miter;stroke-opacity:1" d="M 533.837,573.451 550.343,573.451 z" id="boundary" inkscape:connector-curvature="0" />
	<path style="fill:none;stroke:red;stroke-width:1px;stroke-linecap:butt;stroke-linejoin:miter;stroke-opacity:1" d="M 550.343,573.451 566.849,573.451 z" id="boundary" inkscape:connector-curvature="0" />
	<path style="fill:none;stroke:red;stroke-width:1px;stroke-linecap:butt;stroke-linejoin:miter;stroke-opacity:1" d="M 566.849,573.451 583.354,573.451 z" id="boundary" inkscape:connector-curvature="0" />
	<path style="fill:none;stroke:red;stroke-width:1px;stroke-linecap:butt;stroke-linejoin:miter;stroke-opacity:1" d="M 583.354,573.451 599.86,578.403 z" id="boundary" inkscape:connector-curvature="0" />
	<path style="fill:none;stroke:red;stroke-width:1px;stroke-linecap:butt;stroke-linejoin:miter;stroke-opacity:1" d="M 599.86,578.403 606.463,594.908 z" id="boundary" inkscape:connector-curvature="0" />
	<path style="fill:none;stroke:red;stroke-width:1px;stroke-linecap:butt;stroke-linejoin:miter;stroke-opacity:1" d="M 606.463,594.908 606.463,611.414 z" id="boundary" inkscape:connector-curvature="0" />
	<path style="fill:none;stroke:red;stroke-width:1px;stroke-linecap:butt;stroke-linejoin:miter;stroke-opacity:1" d="M 606.463,611.414 589.957,619.667 z" id="boundary" inkscape:connector-curvature="0" />
	<path style="fill:none;stroke:red;stroke-width:1px;stroke-linecap:butt;stroke-linejoin:miter;stroke-opacity:1" d="M 589.957,619.667 573.451,616.366 z" id="boundary" inkscape:connector-curvature="0" />
	<path style="fill:none;stroke:red;stroke-width:1px;stroke-linecap:butt;stroke-linejoin:miter;stroke-opacity:1" d="M 573.451,616.366 556.945,616.366 z" id="boundary" inkscape:connector-curvature="0" />
	<path style="fill:none;stroke:red;stroke-width:1px;stroke-linecap:butt;stroke-linejoin:miter;stroke-opacity:1" d="M 556.945,616.366 540.439,616.366 z" id="boundary" inkscape:connector-curvature="0" />
	<path style="fill:none;stroke:red;stroke-width:1px;stroke-linecap:butt;stroke-linejoin:miter;stroke-opacity:1" d="M 540.439,616.366 523.933,616.366 z" id="boundary" inkscape:connector-curvature="0" />
	<path style="fill:none;stroke:red;stroke-width:1px;stroke-linecap:butt;stroke-linejoin:miter;stroke-opacity:1" d="M 523.933,616.366 507.428,611.414 z" id="boundary" inkscape:connector-curvature="0" />
	<path style="fill:none;stroke:red;stroke-width:1px;stroke-linecap:butt;stroke-linejoin:miter;stroke-opacity:1" d="M 507.428,611.414 495.874,598.21 z" id="boundary" inkscape:connector-curvature="0" />
	<path style="fill:none;stroke:red;stroke-width:1px;stroke-linecap:butt;stroke-linejoin:miter;stroke-opacity:1" d="M 495.874,598.21 482.669,586.656 z" id="boundary" inkscape:connector-curvature="0" />
	<path style="fill:none;stroke:red;stroke-width:1px;stroke-linecap:butt;stroke-linejoin:miter;stroke-opacity:1" d="M 482.669,586.656 467.814,578.403 z" id="boundary" inkscape:connector-curvature="0" />
	<path style="fill:none;stroke:red;stroke-width:1px;stroke-linecap:butt;stroke-linejoin:miter;stroke-opacity:1" d="M 467.814,578.403 459.561,563.547 z" id="boundary" inkscape:connector-curvature="0" />
	<path style="fill:none;stroke:red;stroke-width:1px;stroke-linecap:butt;stroke-linejoin:miter;stroke-opacity:1" d="M 459.561,563.547 448.007,550.343 z" id="boundary" inkscape:connector-curvature="0" />
	<path style="fill:none;stroke:red;stroke-width:1px;stroke-linecap:butt;stroke-linejoin:miter;stroke-opacity:1" d="M 448.007,550.343 434.802,538.789 z" id="boundary" inkscape:connector-curvature="0" />
	<path style="fill:none;stroke:red;stroke-width:1px;stroke-linecap:butt;stroke-linejoin:miter;stroke-opacity:1" d="M 434.802,538.789 424.899,525.584 z" id="boundary" inkscape:connector-curvature="0" />
	<path style="fill:none;stroke:red;stroke-width:1px;stroke-linecap:butt;stroke-linejoin:miter;stroke-opacity:1" d="M 424.899,525.584 408.393,525.584 z" id="boundary" inkscape:connector-curvature="0" />
	<path style="fill:none;stroke:red;stroke-width:1px;stroke-linecap:butt;stroke-linejoin:miter;stroke-opacity:1" d="M 408.393,525.584 393.537,533.837 z" id="boundary" inkscape:connector-curvature="0" />
	<path style="fill:none;stroke:red;stroke-width:1px;stroke-linecap:butt;stroke-linejoin:miter;stroke-opacity:1" d="M 393.537,533.837 393.537,550.343 z" id="boundary" inkscape:connector-curvature="0" />
	<path style="fill:none;stroke:red;stroke-width:1px;stroke-linecap:butt;stroke-linejoin:miter;stroke-opacity:1" d="M 393.537,550.343 393.537,566.849 z" id="boundary" inkscape:connector-curvature="0" />
	<path style="fill:none;stroke:red;stroke-width:1px;stroke-linecap:butt;stroke-linejoin:miter;stroke-opacity:1" d="M 393.537,566.849 393.537,583.354 z" id="boundary" inkscape:connector-curvature="0" />
	<path style="fill:none;stroke:red;stroke-width:1px;stroke-linecap:butt;stroke-linejoin:miter;stroke-opacity:1" d="M 393.537,583.354 393.537,599.86 z" id="boundary" inkscape:connector-curvature="0" />
	<path style="fill:none;stroke:red;stroke-width:1px;stroke-linecap:butt;stroke-linejoin:miter;stroke-opacity:1" d="M 393.537,599.86 393.537,616.366 z" id="boundary" inkscape:connector-curvature="0" />
	<path style="fill:none;stroke:red;stroke-width:1px;stroke-linecap:butt;stroke-linejoin:miter;stroke-opacity:1" d="M 393.537,616.366 401.79,631.221 z" id="boundary" inkscape:connector-curvature="0" />
	<path style="fill:none;stroke:red;stroke-width:1px;stroke-linecap:butt;stroke-linejoin:miter;stroke-opacity:1" d="M 401.79,631.221 401.79,647.727 z" id="boundary" inkscape:connector-curvature="0" />
	<path style="fill:none;stroke:red;stroke-width:1px;stroke-linecap:butt;stroke-linejoin:miter;stroke-opacity:1" d="M 401.79,647.727 410.043,665.884 z" id="boundary" inkscape:connector-curvature="0" />
	<path style="fill:none;stroke:red;stroke-width:1px;stroke-linecap:butt;stroke-linejoin:miter;stroke-opacity:1" d="M 410.043,665.884 418.296,680.739 z" id="boundary" inkscape:connector-curvature="0" />
	<path style="fill:none;stroke:red;stroke-width:1px;stroke-linecap:butt;stroke-linejoin:miter;stroke-opacity:1" d="M 418.296,680.739 418.296,697.245 z" id="boundary" inkscape:connector-curvature="0" />
	<path style="fill:none;stroke:red;stroke-width:1px;stroke-linecap:butt;stroke-linejoin:miter;stroke-opacity:1" d="M 418.296,697.245 418.296,715.401 z" id="boundary" inkscape:connector-curvature="0" />
	<path style="fill:none;stroke:red;stroke-width:1px;stroke-linecap:butt;stroke-linejoin:miter;stroke-opacity:1" d="M 418.296,715.401 426.549,730.256 z" id="boundary" inkscape:connector-curvature="0" />
	<path style="fill:none;stroke:red;stroke-width:1px;stroke-linecap:butt;stroke-linejoin:miter;stroke-opacity:1" d="M 426.549,730.256 426.549,756.666 z" id="boundary" inkscape:connector-curvature="0" />
	<path style="fill:none;stroke:red;stroke-width:1px;stroke-linecap:butt;stroke-linejoin:miter;stroke-opacity:1" d="M 426.549,756.666 439.754,766.569 z" id="boundary" inkscape:connector-curvature="0" />
	<path style="fill:none;stroke:red;stroke-width:1px;stroke-linecap:butt;stroke-linejoin:miter;stroke-opacity:1" d="M 439.754,766.569 449.657,779.774 z" id="boundary" inkscape:connector-curvature="0" />
	<path style="fill:none;stroke:red;stroke-width:1px;stroke-linecap:butt;stroke-linejoin:miter;stroke-opacity:1" d="M 449.657,779.774 466.163,779.774 z" id="boundary" inkscape:connector-curvature="0" />
	<path style="fill:none;stroke:red;stroke-width:1px;stroke-linecap:butt;stroke-linejoin:miter;stroke-opacity:1" d="M 466.163,779.774 481.018,771.521 z" id="boundary" inkscape:connector-curvature="0" />
	<path style="fill:none;stroke:red;stroke-width:1px;stroke-linecap:butt;stroke-linejoin:miter;stroke-opacity:1" d="M 481.018,771.521 495.874,763.268 z" id="boundary" inkscape:connector-curvature="0" />
	<path style="fill:none;stroke:red;stroke-width:1px;stroke-linecap:butt;stroke-linejoin:miter;stroke-opacity:1" d="M 495.874,763.268 512.379,763.268 z" id="boundary" inkscape:connector-curvature="0" />
	<path style="fill:none;stroke:red;stroke-width:1px;stroke-linecap:butt;stroke-linejoin:miter;stroke-opacity:1" d="M 512.379,763.268 528.885,763.268 z" id="boundary" inkscape:connector-curvature="0" />
	<path style="fill:none;stroke:red;stroke-width:1px;stroke-linecap:butt;stroke-linejoin:miter;stroke-opacity:1" d="M 528.885,763.268 545.391,763.268 z" id="boundary" inkscape:connector-curvature="0" />
	<path style="fill:none;stroke:red;stroke-width:1px;stroke-linecap:butt;stroke-linejoin:miter;stroke-opacity:1" d="M 545.391,763.268 561.897,763.268 z" id="boundary" inkscape:connector-curvature="0" />
	<path style="fill:none;stroke:red;stroke-width:1px;stroke-linecap:butt;stroke-linejoin:miter;stroke-opacity:1" d="M 561.897,763.268 578.403,763.268 z" id="boundary" inkscape:connector-curvature="0" />
	<path style="fill:none;stroke:red;stroke-width:1px;stroke-linecap:butt;stroke-linejoin:miter;stroke-opacity:1" d="M 578.403,763.268 594.908,763.268 z" id="boundary" inkscape:connector-curvature="0" />
	<path style="fill:none;stroke:red;stroke-width:1px;stroke-linecap:butt;stroke-linejoin:miter;stroke-opacity:1" d="M 594.908,763.268 603.161,746.762 z" id="boundary" inkscape:connector-curvature="0" />
	<path style="fill:none;stroke:red;stroke-width:1px;stroke-linecap:butt;stroke-linejoin:miter;stroke-opacity:1" d="M 603.161,746.762 619.667,738.509 z" id="boundary" inkscape:connector-curvature="0" />
	<path style="fill:none;stroke:red;stroke-width:1px;stroke-linecap:butt;stroke-linejoin:miter;stroke-opacity:1" d="M 619.667,738.509 622.968,718.702 z" id="boundary" inkscape:connector-curvature="0" />
	<path style="fill:none;stroke:red;stroke-width:1px;stroke-linecap:butt;stroke-linejoin:miter;stroke-opacity:1" d="M 622.968,718.702 639.474,708.799 z" id="boundary" inkscape:connector-curvature="0" />
	<path style="fill:none;stroke:red;stroke-width:1px;stroke-linecap:butt;stroke-linejoin:miter;stroke-opacity:1" d="M 639.474,708.799 631.221,693.943 z" id="boundary" inkscape:connector-curvature="0" />
	<path style="fill:none;stroke:red;stroke-width:1px;stroke-linecap:butt;stroke-linejoin:miter;stroke-opacity:1" d="M 631.221,693.943 647.727,685.691 z" id="boundary" inkscape:connector-curvature="0" />
	<path style="fill:none;stroke:red;stroke-width:1px;stroke-linecap:butt;stroke-linejoin:miter;stroke-opacity:1" d="M 647.727,685.691 647.727,669.185 z" id="boundary" inkscape:connector-curvature="0" />
	<path style="fill:none;stroke:red;stroke-width:1px;stroke-linecap:butt;stroke-linejoin:miter;stroke-opacity:1" d="M 647.727,669.185 647.727,652.679 z" id="boundary" inkscape:connector-curvature="0" />
	<path style="fill:none;stroke:red;stroke-width:1px;stroke-linecap:butt;stroke-linejoin:miter;stroke-opacity:1" d="M 647.727,652.679 647.727,636.173 z" id="boundary" inkscape:connector-curvature="0" />
	<path style="fill:none;stroke:red;stroke-width:1px;stroke-linecap:butt;stroke-linejoin:miter;stroke-opacity:1" d="M 647.727,636.173 647.727,619.667 z" id="boundary" inkscape:connector-curvature="0" />
	<path style="fill:none;stroke:red;stroke-width:1px;stroke-linecap:butt;stroke-linejoin:miter;stroke-opacity:1" d="M 647.727,619.667 647.727,603.161 z" id="boundary" inkscape:connector-curvature="0" />
	<path style="fill:none;stroke:red;stroke-width:1px;stroke-linecap:butt;stroke-linejoin:miter;stroke-opacity:1" d="M 647.727,603.161 647.727,586.656 z" id="boundary" inkscape:connector-curvature="0" />
	<path style="fill:none;stroke:red;stroke-width:1px;stroke-linecap:butt;stroke-linejoin:miter;stroke-opacity:1" d="M 647.727,586.656 647.727,570.15 z" id="boundary" inkscape:connector-curvature="0" />
	<path style="fill:none;stroke:red;stroke-width:1px;stroke-linecap:butt;stroke-linejoin:miter;stroke-opacity:1" d="M 647.727,570.15 660.932,556.945 z" id="boundary" inkscape:connector-curvature="0" />
	<path style="fill:none;stroke:red;stroke-width:1px;stroke-linecap:butt;stroke-linejoin:miter;stroke-opacity:1" d="M 660.932,556.945 669.185,540.439 z" id="boundary" inkscape:connector-curvature="0" />
	<path style="fill:none;stroke:red;stroke-width:1px;stroke-linecap:butt;stroke-linejoin:miter;stroke-opacity:1" d="M 669.185,540.439 677.438,523.933 z" id="boundary" inkscape:connector-curvature="0" />
	<path style="fill:none;stroke:red;stroke-width:1px;stroke-linecap:butt;stroke-linejoin:miter;stroke-opacity:1" d="M 677.438,523.933 692.293,515.681 z" id="boundary" inkscape:connector-curvature="0" />
	<path style="fill:none;stroke:red;stroke-width:1px;stroke-linecap:butt;stroke-linejoin:miter;stroke-opacity:1" d="M 692.293,515.681 707.148,507.428 z" id="boundary" inkscape:connector-curvature="0" />
	<path style="fill:none;stroke:red;stroke-width:1px;stroke-linecap:butt;stroke-linejoin:miter;stroke-opacity:1" d="M 707.148,507.428 722.003,495.874 z" id="boundary" inkscape:connector-curvature="0" />
	<path style="fill:none;stroke:red;stroke-width:1px;stroke-linecap:butt;stroke-linejoin:miter;stroke-opacity:1" d="M 722.003,495.874 738.509,494.223 z" id="boundary" inkscape:connector-curvature="0" />
	<path style="fill:none;stroke:red;stroke-width:1px;stroke-linecap:butt;stroke-linejoin:miter;stroke-opacity:1" d="M 738.509,494.223 748.413,507.428 z" id="boundary" inkscape:connector-curvature="0" />
	<path style="fill:none;stroke:red;stroke-width:1px;stroke-linecap:butt;stroke-linejoin:miter;stroke-opacity:1" d="M 748.413,507.428 761.617,517.331 z" id="boundary" inkscape:connector-curvature="0" />
	<circle cx="4" cy="949.784" r="4" fill="#0" id="circle0"/>
	<circle cx="4" cy="966.29" r="4" fill="#0" id="circle1"/>
	<circle cx="17.2047" cy="977.844" r="4" fill="#0" id="circle2"/>
	<circle cx="20.5058" cy="941.531" r="4" fill="#0" id="circle3"/>
	<circle cx="33.7105" cy="979.494" r="4" fill="#0" id="circle4"/>
	<circle cx="37.0116" cy="933.278" r="4" fill="#0" id="circle5"/>
	<circle cx="50.2163" cy="979.494" r="4" fill="#0" id="circle6"/>
	<circle cx="53.5175" cy="928.326" r="4" fill="#0" id="circle7"/>
	<circle cx="66.7221" cy="979.494" r="4" fill="#0" id="circle8"/>
	<circle cx="70.0233" cy="928.326" r="4" fill="#0" id="circle9"/>
	<circle cx="78.2762" cy="578.403" r="4" fill="#0" id="circle10"/>
	<circle cx="78.2762" cy="594.908" r="4" fill="#0" id="circle11"/>
	<circle cx="78.2762" cy="611.414" r="4" fill="#0" id="circle12"/>
	<circle cx="83.228" cy="979.494" r="4" fill="#0" id="circle13"/>
	<circle cx="86.5291" cy="626.27" r="4" fill="#0" id="circle14"/>
	<circle cx="86.5291" cy="928.326" r="4" fill="#0" id="circle15"/>
	<circle cx="91.4809" cy="565.198" r="4" fill="#0" id="circle16"/>
	<circle cx="94.782" cy="74.975" r="4" fill="#0" id="circle17"/>
	<circle cx="94.782" cy="91.4809" r="4" fill="#0" id="circle18"/>
	<circle cx="94.782" cy="107.987" r="4" fill="#0" id="circle19"/>
	<circle cx="94.782" cy="124.493" r="4" fill="#0" id="circle20"/>
	<circle cx="94.782" cy="140.998" r="4" fill="#0" id="circle21"/>
	<circle cx="94.782" cy="157.504" r="4" fill="#0" id="circle22"/>
	<circle cx="94.782" cy="174.01" r="4" fill="#0" id="circle23"/>
	<circle cx="94.782" cy="641.125" r="4" fill="#0" id="circle24"/>
	<circle cx="99.7338" cy="548.692" r="4" fill="#0" id="circle25"/>
	<circle cx="99.7338" cy="979.494" r="4" fill="#0" id="circle26"/>
	<circle cx="103.035" cy="207.022" r="4" fill="#0" id="circle27"/>
	<circle cx="103.035" cy="928.326" r="4" fill="#0" id="circle28"/>
	<circle cx="104.686" cy="187.215" r="4" fill="#0" id="circle29"/>
	<circle cx="107.987" cy="61.7704" r="4" fill="#0" id="circle30"/>
	<circle cx="107.987" cy="532.186" r="4" fill="#0" id="circle31"/>
	<circle cx="109.637" cy="649.378" r="4" fill="#0" id="circle32"/>
	<circle cx="116.24" cy="45.2646" r="4" fill="#0" id="circle33"/>
	<circle cx="116.24" cy="218.576" r="4" fill="#0" id="circle34"/>
	<circle cx="116.24" cy="979.494" r="4" fill="#0" id="circle35"/>
	<circle cx="119.541" cy="512.379" r="4" fill="#0" id="circle36"/>
	<circle cx="119.541" cy="928.326" r="4" fill="#0" id="circle37"/>
	<circle cx="122.842" cy="235.082" r="4" fill="#0" id="circle38"/>
	<circle cx="124.493" cy="641.125" r="4" fill="#0" id="circle39"/>
	<circle cx="127.794" cy="495.874" r="4" fill="#0" id="circle40"/>
	<circle cx="132.745" cy="37.0116" r="4" fill="#0" id="circle41"/>
	<circle cx="132.745" cy="979.494" r="4" fill="#0" id="circle42"/>
	<circle cx="136.047" cy="244.985" r="4" fill="#0" id="circle43"/>
	<circle cx="136.047" cy="405.092" r="4" fill="#0" id="circle44"/>
	<circle cx="136.047" cy="429.85" r="4" fill="#0" id="circle45"/>
	<circle cx="136.047" cy="446.356" r="4" fill="#0" id="circle46"/>
	<circle cx="136.047" cy="462.862" r="4" fill="#0" id="circle47"/>
	<circle cx="136.047" cy="479.368" r="4" fill="#0" id="circle48"/>
	<circle cx="136.047" cy="931.627" r="4" fill="#0" id="circle49"/>
	<circle cx="140.998" cy="639.474" r="4" fill="#0" id="circle50"/>
	<circle cx="145.95" cy="23.807" r="4" fill="#0" id="circle51"/>
	<circle cx="145.95" cy="258.19" r="4" fill="#0" id="circle52"/>
	<circle cx="149.251" cy="391.887" r="4" fill="#0" id="circle53"/>
	<circle cx="149.251" cy="979.494" r="4" fill="#0" id="circle54"/>
	<circle cx="152.552" cy="363.827" r="4" fill="#0" id="circle55"/>
	<circle cx="152.552" cy="933.278" r="4" fill="#0" id="circle56"/>
	<circle cx="154.203" cy="624.619" r="4" fill="#0" id="circle57"/>
	<circle cx="159.155" cy="269.744" r="4" fill="#0" id="circle58"/>
	<circle cx="160.805" cy="347.321" r="4" fill="#0" id="circle59"/>
	<circle cx="160.805" cy="751.714" r="4" fill="#0" id="circle60"/>
	<circle cx="160.805" cy="776.473" r="4" fill="#0" id="circle61"/>
	<circle cx="160.805" cy="792.978" r="4" fill="#0" id="circle62"/>
	<circle cx="160.805" cy="809.484" r="4" fill="#0" id="circle63"/>
	<circle cx="160.805" cy="825.99" r="4" fill="#0" id="circle64"/>
	<circle cx="162.456" cy="20.5058" r="4" fill="#0" id="circle65"/>
	<circle cx="165.757" cy="979.494" r="4" fill="#0" id="circle66"/>
	<circle cx="167.408" cy="613.065" r="4" fill="#0" id="circle67"/>
	<circle cx="169.058" cy="726.955" r="4" fill="#0" id="circle68"/>
	<circle cx="169.058" cy="842.496" r="4" fill="#0" id="circle69"/>
	<circle cx="169.058" cy="936.579" r="4" fill="#0" id="circle70"/>
	<circle cx="174.01" cy="334.116" r="4" fill="#0" id="circle71"/>
	<circle cx="175.661" cy="269.744" r="4" fill="#0" id="circle72"/>
	<circle cx="177.311" cy="286.25" r="4" fill="#0" id="circle73"/>
	<circle cx="177.311" cy="302.755" r="4" fill="#0" id="circle74"/>
	<circle cx="177.311" cy="857.351" r="4" fill="#0" id="circle75"/>
	<circle cx="178.962" cy="15.5541" r="4" fill="#0" id="circle76"/>
	<circle cx="180.612" cy="971.241" r="4" fill="#0" id="circle77"/>
	<circle cx="182.263" cy="713.75" r="4" fill="#0" id="circle78"/>
	<circle cx="183.913" cy="608.113" r="4" fill="#0" id="circle79"/>
	<circle cx="185.564" cy="677.438" r="4" fill="#0" id="circle80"/>
	<circle cx="185.564" cy="693.943" r="4" fill="#0" id="circle81"/>
	<circle cx="185.564" cy="883.76" r="4" fill="#0" id="circle82"/>
	<circle cx="185.564" cy="900.266" r="4" fill="#0" id="circle83"/>
	<circle cx="185.564" cy="916.772" r="4" fill="#0" id="circle84"/>
	<circle cx="185.564" cy="933.278" r="4" fill="#0" id="circle85"/>
	<circle cx="195.468" cy="12.2529" r="4" fill="#0" id="circle86"/>
	<circle cx="195.468" cy="962.988" r="4" fill="#0" id="circle87"/>
	<circle cx="200.419" cy="608.113" r="4" fill="#0" id="circle88"/>
	<circle cx="202.07" cy="660.932" r="4" fill="#0" id="circle89"/>
	<circle cx="211.973" cy="8.95175" r="4" fill="#0" id="circle90"/>
	<circle cx="211.973" cy="962.988" r="4" fill="#0" id="circle91"/>
	<circle cx="215.275" cy="616.366" r="4" fill="#0" id="circle92"/>
	<circle cx="215.275" cy="647.727" r="4" fill="#0" id="circle93"/>
	<circle cx="228.479" cy="7.30116" r="4" fill="#0" id="circle94"/>
	<circle cx="228.479" cy="962.988" r="4" fill="#0" id="circle95"/>
	<circle cx="241.684" cy="951.434" r="4" fill="#0" id="circle96"/>
	<circle cx="244.985" cy="4" r="4" fill="#0" id="circle97"/>
	<circle cx="244.985" cy="888.712" r="4" fill="#0" id="circle98"/>
	<circle cx="244.985" cy="905.218" r="4" fill="#0" id="circle99"/>
	<circle cx="244.985" cy="921.724" r="4" fill="#0" id="circle100"/>
	<circle cx="258.19" cy="877.158" r="4" fill="#0" id="circle101"/>
	<circle cx="261.491" cy="4" r="4" fill="#0" id="circle102"/>
	<circle cx="261.491" cy="847.448" r="4" fill="#0" id="circle103"/>
	<circle cx="277.997" cy="8.95175" r="4" fill="#0" id="circle104"/>
	<circle cx="277.997" cy="850.749" r="4" fill="#0" id="circle105"/>
	<circle cx="284.599" cy="25.4576" r="4" fill="#0" id="circle106"/>
	<circle cx="289.551" cy="863.953" r="4" fill="#0" id="circle107"/>
	<circle cx="297.804" cy="37.0116" r="4" fill="#0" id="circle108"/>
	<circle cx="302.755" cy="53.5175" r="4" fill="#0" id="circle109"/>
	<circle cx="304.406" cy="855.7" r="4" fill="#0" id="circle110"/>
	<circle cx="315.96" cy="63.421" r="4" fill="#0" id="circle111"/>
	<circle cx="319.261" cy="88.1797" r="4" fill="#0" id="circle112"/>
	<circle cx="320.912" cy="855.7" r="4" fill="#0" id="circle113"/>
	<circle cx="325.864" cy="933.278" r="4" fill="#0" id="circle114"/>
	<circle cx="325.864" cy="949.784" r="4" fill="#0" id="circle115"/>
	<circle cx="327.514" cy="103.035" r="4" fill="#0" id="circle116"/>
	<circle cx="327.514" cy="119.541" r="4" fill="#0" id="circle117"/>
	<circle cx="334.116" cy="916.772" r="4" fill="#0" id="circle118"/>
	<circle cx="334.116" cy="964.639" r="4" fill="#0" id="circle119"/>
	<circle cx="335.767" cy="134.396" r="4" fill="#0" id="circle120"/>
	<circle cx="337.418" cy="855.7" r="4" fill="#0" id="circle121"/>
	<circle cx="342.369" cy="900.266" r="4" fill="#0" id="circle122"/>
	<circle cx="342.369" cy="979.494" r="4" fill="#0" id="circle123"/>
	<circle cx="350.622" cy="865.604" r="4" fill="#0" id="circle124"/>
	<circle cx="350.622" cy="882.11" r="4" fill="#0" id="circle125"/>
	<circle cx="352.273" cy="140.998" r="4" fill="#0" id="circle126"/>
	<circle cx="358.875" cy="979.494" r="4" fill="#0" id="circle127"/>
	<circle cx="365.478" cy="152.552" r="4" fill="#0" id="circle128"/>
	<circle cx="375.381" cy="979.494" r="4" fill="#0" id="circle129"/>
	<circle cx="377.032" cy="905.218" r="4" fill="#0" id="circle130"/>
	<circle cx="380.333" cy="921.724" r="4" fill="#0" id="circle131"/>
	<circle cx="381.983" cy="152.552" r="4" fill="#0" id="circle132"/>
	<circle cx="391.887" cy="979.494" r="4" fill="#0" id="circle133"/>
	<circle cx="393.537" cy="139.348" r="4" fill="#0" id="circle134"/>
	<circle cx="393.537" cy="459.561" r="4" fill="#0" id="circle135"/>
	<circle cx="393.537" cy="533.837" r="4" fill="#0" id="circle136"/>
	<circle cx="393.537" cy="550.343" r="4" fill="#0" id="circle137"/>
	<circle cx="393.537" cy="566.849" r="4" fill="#0" id="circle138"/>
	<circle cx="393.537" cy="583.354" r="4" fill="#0" id="circle139"/>
	<circle cx="393.537" cy="599.86" r="4" fill="#0" id="circle140"/>
	<circle cx="393.537" cy="616.366" r="4" fill="#0" id="circle141"/>
	<circle cx="393.537" cy="888.712" r="4" fill="#0" id="circle142"/>
	<circle cx="396.839" cy="928.326" r="4" fill="#0" id="circle143"/>
	<circle cx="401.79" cy="474.416" r="4" fill="#0" id="circle144"/>
	<circle cx="401.79" cy="631.221" r="4" fill="#0" id="circle145"/>
	<circle cx="401.79" cy="647.727" r="4" fill="#0" id="circle146"/>
	<circle cx="401.79" cy="872.206" r="4" fill="#0" id="circle147"/>
	<circle cx="406.742" cy="127.794" r="4" fill="#0" id="circle148"/>
	<circle cx="406.742" cy="448.007" r="4" fill="#0" id="circle149"/>
	<circle cx="408.393" cy="525.584" r="4" fill="#0" id="circle150"/>
	<circle cx="408.393" cy="979.494" r="4" fill="#0" id="circle151"/>
	<circle cx="410.043" cy="665.884" r="4" fill="#0" id="circle152"/>
	<circle cx="410.043" cy="855.7" r="4" fill="#0" id="circle153"/>
	<circle cx="411.694" cy="936.579" r="4" fill="#0" id="circle154"/>
	<circle cx="413.344" cy="111.288" r="4" fill="#0" id="circle155"/>
	<circle cx="416.646" cy="482.669" r="4" fill="#0" id="circle156"/>
	<circle cx="418.296" cy="418.296" r="4" fill="#0" id="circle157"/>
	<circle cx="418.296" cy="434.802" r="4" fill="#0" id="circle158"/>
	<circle cx="418.296" cy="680.739" r="4" fill="#0" id="circle159"/>
	<circle cx="418.296" cy="697.245" r="4" fill="#0" id="circle160"/>
	<circle cx="418.296" cy="715.401" r="4" fill="#0" id="circle161"/>
	<circle cx="421.597" cy="94.782" r="4" fill="#0" id="circle162"/>
	<circle cx="423.248" cy="844.146" r="4" fill="#0" id="circle163"/>
	<circle cx="423.248" cy="987.747" r="4" fill="#0" id="circle164"/>
	<circle cx="424.899" cy="525.584" r="4" fill="#0" id="circle165"/>
	<circle cx="426.549" cy="730.256" r="4" fill="#0" id="circle166"/>
	<circle cx="426.549" cy="756.666" r="4" fill="#0" id="circle167"/>
	<circle cx="426.549" cy="822.689" r="4" fill="#0" id="circle168"/>
	<circle cx="428.2" cy="936.579" r="4" fill="#0" id="circle169"/>
	<circle cx="433.151" cy="485.97" r="4" fill="#0" id="circle170"/>
	<circle cx="434.802" cy="81.5774" r="4" fill="#0" id="circle171"/>
	<circle cx="434.802" cy="393.537" r="4" fill="#0" id="circle172"/>
	<circle cx="434.802" cy="410.043" r="4" fill="#0" id="circle173"/>
	<circle cx="434.802" cy="538.789" r="4" fill="#0" id="circle174"/>
	<circle cx="439.754" cy="766.569" r="4" fill="#0" id="circle175"/>
	<circle cx="439.754" cy="987.747" r="4" fill="#0" id="circle176"/>
	<circle cx="443.055" cy="377.032" r="4" fill="#0" id="circle177"/>
	<circle cx="443.055" cy="499.175" r="4" fill="#0" id="circle178"/>
	<circle cx="443.055" cy="822.689" r="4" fill="#0" id="circle179"/>
	<circle cx="444.705" cy="936.579" r="4" fill="#0" id="circle180"/>
	<circle cx="448.007" cy="70.0233" r="4" fill="#0" id="circle181"/>
	<circle cx="448.007" cy="550.343" r="4" fill="#0" id="circle182"/>
	<circle cx="449.657" cy="779.774" r="4" fill="#0" id="circle183"/>
	<circle cx="451.308" cy="360.526" r="4" fill="#0" id="circle184"/>
	<circle cx="454.609" cy="996" r="4" fill="#0" id="circle185"/>
	<circle cx="457.91" cy="507.428" r="4" fill="#0" id="circle186"/>
	<circle cx="459.561" cy="327.514" r="4" fill="#0" id="circle187"/>
	<circle cx="459.561" cy="344.02" r="4" fill="#0" id="circle188"/>
	<circle cx="459.561" cy="563.547" r="4" fill="#0" id="circle189"/>
	<circle cx="459.561" cy="825.99" r="4" fill="#0" id="circle190"/>
	<circle cx="461.211" cy="936.579" r="4" fill="#0" id="circle191"/>
	<circle cx="462.862" cy="61.7704" r="4" fill="#0" id="circle192"/>
	<circle cx="466.163" cy="779.774" r="4" fill="#0" id="circle193"/>
	<circle cx="467.814" cy="578.403" r="4" fill="#0" id="circle194"/>
	<circle cx="471.115" cy="996" r="4" fill="#0" id="circle195"/>
	<circle cx="472.765" cy="515.681" r="4" fill="#0" id="circle196"/>
	<circle cx="476.067" cy="327.514" r="4" fill="#0" id="circle197"/>
	<circle cx="476.067" cy="830.942" r="4" fill="#0" id="circle198"/>
	<circle cx="477.717" cy="936.579" r="4" fill="#0" id="circle199"/>
	<circle cx="479.368" cy="61.7704" r="4" fill="#0" id="circle200"/>
	<circle cx="481.018" cy="771.521" r="4" fill="#0" id="circle201"/>
	<circle cx="482.669" cy="586.656" r="4" fill="#0" id="circle202"/>
	<circle cx="487.621" cy="523.933" r="4" fill="#0" id="circle203"/>
	<circle cx="487.621" cy="996" r="4" fill="#0" id="circle204"/>
	<circle cx="492.572" cy="327.514" r="4" fill="#0" id="circle205"/>
	<circle cx="492.572" cy="540.439" r="4" fill="#0" id="circle206"/>
	<circle cx="492.572" cy="830.942" r="4" fill="#0" id="circle207"/>
	<circle cx="494.223" cy="929.977" r="4" fill="#0" id="circle208"/>
	<circle cx="495.874" cy="53.5175" r="4" fill="#0" id="circle209"/>
	<circle cx="495.874" cy="598.21" r="4" fill="#0" id="circle210"/>
	<circle cx="495.874" cy="763.268" r="4" fill="#0" id="circle211"/>
	<circle cx="500.825" cy="555.295" r="4" fill="#0" id="circle212"/>
	<circle cx="500.825" cy="571.8" r="4" fill="#0" id="circle213"/>
	<circle cx="504.126" cy="996" r="4" fill="#0" id="circle214"/>
	<circle cx="507.428" cy="611.414" r="4" fill="#0" id="circle215"/>
	<circle cx="509.078" cy="327.514" r="4" fill="#0" id="circle216"/>
	<circle cx="509.078" cy="830.942" r="4" fill="#0" id="circle217"/>
	<circle cx="510.729" cy="928.326" r="4" fill="#0" id="circle218"/>
	<circle cx="512.379" cy="53.5175" r="4" fill="#0" id="circle219"/>
	<circle cx="512.379" cy="763.268" r="4" fill="#0" id="circle220"/>
	<circle cx="517.331" cy="573.451" r="4" fill="#0" id="circle221"/>
	<circle cx="520.632" cy="996" r="4" fill="#0" id="circle222"/>
	<circle cx="523.933" cy="616.366" r="4" fill="#0" id="circle223"/>
	<circle cx="525.584" cy="327.514" r="4" fill="#0" id="circle224"/>
	<circle cx="525.584" cy="830.942" r="4" fill="#0" id="circle225"/>
	<circle cx="527.235" cy="45.2646" r="4" fill="#0" id="circle226"/>
	<circle cx="527.235" cy="928.326" r="4" fill="#0" id="circle227"/>
	<circle cx="528.885" cy="763.268" r="4" fill="#0" id="circle228"/>
	<circle cx="533.837" cy="573.451" r="4" fill="#0" id="circle229"/>
	<circle cx="537.138" cy="994.349" r="4" fill="#0" id="circle230"/>
	<circle cx="540.439" cy="616.366" r="4" fill="#0" id="circle231"/>
	<circle cx="542.09" cy="53.5175" r="4" fill="#0" id="circle232"/>
	<circle cx="542.09" cy="327.514" r="4" fill="#0" id="circle233"/>
	<circle cx="542.09" cy="830.942" r="4" fill="#0" id="circle234"/>
	<circle cx="543.74" cy="928.326" r="4" fill="#0" id="circle235"/>
	<circle cx="545.391" cy="763.268" r="4" fill="#0" id="circle236"/>
	<circle cx="550.343" cy="573.451" r="4" fill="#0" id="circle237"/>
	<circle cx="553.644" cy="987.747" r="4" fill="#0" id="circle238"/>
	<circle cx="556.945" cy="616.366" r="4" fill="#0" id="circle239"/>
	<circle cx="556.945" cy="822.689" r="4" fill="#0" id="circle240"/>
	<circle cx="558.596" cy="50.2163" r="4" fill="#0" id="circle241"/>
	<circle cx="558.596" cy="327.514" r="4" fill="#0" id="circle242"/>
	<circle cx="558.596" cy="936.579" r="4" fill="#0" id="circle243"/>
	<circle cx="558.596" cy="953.085" r="4" fill="#0" id="circle244"/>
	<circle cx="561.897" cy="763.268" r="4" fill="#0" id="circle245"/>
	<circle cx="566.849" cy="573.451" r="4" fill="#0" id="circle246"/>
	<circle cx="566.849" cy="967.94" r="4" fill="#0" id="circle247"/>
	<circle cx="570.15" cy="63.421" r="4" fill="#0" id="circle248"/>
	<circle cx="570.15" cy="986.097" r="4" fill="#0" id="circle249"/>
	<circle cx="571.8" cy="315.96" r="4" fill="#0" id="circle250"/>
	<circle cx="573.451" cy="616.366" r="4" fill="#0" id="circle251"/>
	<circle cx="573.451" cy="825.99" r="4" fill="#0" id="circle252"/>
	<circle cx="578.403" cy="763.268" r="4" fill="#0" id="circle253"/>
	<circle cx="583.354" cy="74.975" r="4" fill="#0" id="circle254"/>
	<circle cx="583.354" cy="573.451" r="4" fill="#0" id="circle255"/>
	<circle cx="586.656" cy="814.436" r="4" fill="#0" id="circle256"/>
	<circle cx="588.306" cy="315.96" r="4" fill="#0" id="circle257"/>
	<circle cx="589.957" cy="619.667" r="4" fill="#0" id="circle258"/>
	<circle cx="594.908" cy="88.1797" r="4" fill="#0" id="circle259"/>
	<circle cx="594.908" cy="763.268" r="4" fill="#0" id="circle260"/>
	<circle cx="599.86" cy="578.403" r="4" fill="#0" id="circle261"/>
	<circle cx="603.161" cy="746.762" r="4" fill="#0" id="circle262"/>
	<circle cx="603.161" cy="812.785" r="4" fill="#0" id="circle263"/>
	<circle cx="604.812" cy="311.008" r="4" fill="#0" id="circle264"/>
	<circle cx="606.463" cy="594.908" r="4" fill="#0" id="circle265"/>
	<circle cx="606.463" cy="611.414" r="4" fill="#0" id="circle266"/>
	<circle cx="608.113" cy="99.7338" r="4" fill="#0" id="circle267"/>
	<circle cx="616.366" cy="294.502" r="4" fill="#0" id="circle268"/>
	<circle cx="619.667" cy="738.509" r="4" fill="#0" id="circle269"/>
	<circle cx="619.667" cy="806.183" r="4" fill="#0" id="circle270"/>
	<circle cx="622.968" cy="107.987" r="4" fill="#0" id="circle271"/>
	<circle cx="622.968" cy="718.702" r="4" fill="#0" id="circle272"/>
	<circle cx="631.221" cy="122.842" r="4" fill="#0" id="circle273"/>
	<circle cx="631.221" cy="693.943" r="4" fill="#0" id="circle274"/>
	<circle cx="632.872" cy="145.95" r="4" fill="#0" id="circle275"/>
	<circle cx="632.872" cy="294.502" r="4" fill="#0" id="circle276"/>
	<circle cx="634.522" cy="797.93" r="4" fill="#0" id="circle277"/>
	<circle cx="639.474" cy="708.799" r="4" fill="#0" id="circle278"/>
	<circle cx="641.125" cy="160.805" r="4" fill="#0" id="circle279"/>
	<circle cx="641.125" cy="195.468" r="4" fill="#0" id="circle280"/>
	<circle cx="641.125" cy="277.997" r="4" fill="#0" id="circle281"/>
	<circle cx="647.727" cy="570.15" r="4" fill="#0" id="circle282"/>
	<circle cx="647.727" cy="586.656" r="4" fill="#0" id="circle283"/>
	<circle cx="647.727" cy="603.161" r="4" fill="#0" id="circle284"/>
	<circle cx="647.727" cy="619.667" r="4" fill="#0" id="circle285"/>
	<circle cx="647.727" cy="636.173" r="4" fill="#0" id="circle286"/>
	<circle cx="647.727" cy="652.679" r="4" fill="#0" id="circle287"/>
	<circle cx="647.727" cy="669.185" r="4" fill="#0" id="circle288"/>
	<circle cx="647.727" cy="685.691" r="4" fill="#0" id="circle289"/>
	<circle cx="649.378" cy="175.661" r="4" fill="#0" id="circle290"/>
	<circle cx="649.378" cy="210.323" r="4" fill="#0" id="circle291"/>
	<circle cx="649.378" cy="226.829" r="4" fill="#0" id="circle292"/>
	<circle cx="649.378" cy="243.334" r="4" fill="#0" id="circle293"/>
	<circle cx="649.378" cy="259.84" r="4" fill="#0" id="circle294"/>
	<circle cx="649.378" cy="773.171" r="4" fill="#0" id="circle295"/>
	<circle cx="649.378" cy="789.677" r="4" fill="#0" id="circle296"/>
	<circle cx="660.932" cy="556.945" r="4" fill="#0" id="circle297"/>
	<circle cx="665.884" cy="756.666" r="4" fill="#0" id="circle298"/>
	<circle cx="669.185" cy="540.439" r="4" fill="#0" id="circle299"/>
	<circle cx="674.136" cy="740.16" r="4" fill="#0" id="circle300"/>
	<circle cx="677.438" cy="523.933" r="4" fill="#0" id="circle301"/>
	<circle cx="682.389" cy="715.401" r="4" fill="#0" id="circle302"/>
	<circle cx="690.642" cy="599.86" r="4" fill="#0" id="circle303"/>
	<circle cx="690.642" cy="616.366" r="4" fill="#0" id="circle304"/>
	<circle cx="690.642" cy="632.872" r="4" fill="#0" id="circle305"/>
	<circle cx="690.642" cy="649.378" r="4" fill="#0" id="circle306"/>
	<circle cx="690.642" cy="665.884" r="4" fill="#0" id="circle307"/>
	<circle cx="690.642" cy="682.389" r="4" fill="#0" id="circle308"/>
	<circle cx="690.642" cy="698.895" r="4" fill="#0" id="circle309"/>
	<circle cx="692.293" cy="515.681" r="4" fill="#0" id="circle310"/>
	<circle cx="698.895" cy="583.354" r="4" fill="#0" id="circle311"/>
	<circle cx="707.148" cy="507.428" r="4" fill="#0" id="circle312"/>
	<circle cx="707.148" cy="558.596" r="4" fill="#0" id="circle313"/>
	<circle cx="722.003" cy="495.874" r="4" fill="#0" id="circle314"/>
	<circle cx="722.003" cy="550.343" r="4" fill="#0" id="circle315"/>
	<circle cx="731.907" cy="533.837" r="4" fill="#0" id="circle316"/>
	<circle cx="738.509" cy="494.223" r="4" fill="#0" id="circle317"/>
	<circle cx="748.413" cy="507.428" r="4" fill="#0" id="circle318"/>
	<circle cx="748.413" cy="533.837" r="4" fill="#0" id="circle319"/>
	<circle cx="761.617" cy="517.331" r="4" fill="#0" id="circle320"/>
	</g>
</svg>