<?xml version="1.0" encoding="UTF-8" standalone="no"?>
<!-- Created with CurveBenchmark -->
<svg
	xmlns:dc="http://purl.org/dc/elements/1.1/"
	xmlns:cc="http://creativecommons.org/ns#"
	xmlns:rdf="http://www.w3.org/1999/02/22-rdf-syntax-ns#"
	xmlns:svg="http://www.w3.org/2000/svg"
	xmlns="http://www.w3.org/2000/svg"
	xmlns:sodipodi="http://sodipodi.sourceforge.net/DTD/sodipodi-0.dtd"
	xmlns:inkscape="http://www.inkscape.org/namespaces/inkscape"
	width="1000"
	height="1000"
	id="svg2"
	version="1.1"
	sodipodi:docname="manifold/connect2d-television155.png.txt">
<defs
	id="defs4" />
<metadata
	id="metadata7">
	<rdf:RDF>
		<cc:Work
			rdf:about="">
			<dc:format>image/svg+xml</dc:format>
			<dc:type
				rdf:resource="http://purl.org/dc/dcmitype/StillImage" />
			<dc:title></dc:title>
		</cc:Work>
	</rdf:RDF>
</metadata>
<g
	inkscape:label="Layer 1"
	inkscape:groupmode="layer"
	id="layer1">
	<path style="fill:none;stroke:red;stroke-width:1px;stroke-linecap:butt;stroke-linejoin:miter;stroke-opacity:1" d="M 996,799.564 969.809,822.482 z" id="boundary" inkscape:connector-curvature="0" />
	<path style="fill:none;stroke:red;stroke-width:1px;stroke-linecap:butt;stroke-linejoin:miter;stroke-opacity:1" d="M 969.809,822.482 937.069,819.208 z" id="boundary" inkscape:connector-curvature="0" />
	<path style="fill:none;stroke:red;stroke-width:1px;stroke-linecap:butt;stroke-linejoin:miter;stroke-opacity:1" d="M 937.069,819.208 904.33,819.208 z" id="boundary" inkscape:connector-curvature="0" />
	<path style="fill:none;stroke:red;stroke-width:1px;stroke-linecap:butt;stroke-linejoin:miter;stroke-opacity:1" d="M 904.33,819.208 871.591,819.208 z" id="boundary" inkscape:connector-curvature="0" />
	<path style="fill:none;stroke:red;stroke-width:1px;stroke-linecap:butt;stroke-linejoin:miter;stroke-opacity:1" d="M 871.591,819.208 838.851,825.756 z" id="boundary" inkscape:connector-curvature="0" />
	<path style="fill:none;stroke:red;stroke-width:1px;stroke-linecap:butt;stroke-linejoin:miter;stroke-opacity:1" d="M 838.851,825.756 806.112,819.208 z" id="boundary" inkscape:connector-curvature="0" />
	<path style="fill:none;stroke:red;stroke-width:1px;stroke-linecap:butt;stroke-linejoin:miter;stroke-opacity:1" d="M 806.112,819.208 773.373,819.208 z" id="boundary" inkscape:connector-curvature="0" />
	<path style="fill:none;stroke:red;stroke-width:1px;stroke-linecap:butt;stroke-linejoin:miter;stroke-opacity:1" d="M 773.373,819.208 740.634,819.208 z" id="boundary" inkscape:connector-curvature="0" />
	<path style="fill:none;stroke:red;stroke-width:1px;stroke-linecap:butt;stroke-linejoin:miter;stroke-opacity:1" d="M 740.634,819.208 707.894,819.208 z" id="boundary" inkscape:connector-curvature="0" />
	<path style="fill:none;stroke:red;stroke-width:1px;stroke-linecap:butt;stroke-linejoin:miter;stroke-opacity:1" d="M 707.894,819.208 675.155,819.208 z" id="boundary" inkscape:connector-curvature="0" />
	<path style="fill:none;stroke:red;stroke-width:1px;stroke-linecap:butt;stroke-linejoin:miter;stroke-opacity:1" d="M 675.155,819.208 642.416,819.208 z" id="boundary" inkscape:connector-curvature="0" />
	<path style="fill:none;stroke:red;stroke-width:1px;stroke-linecap:butt;stroke-linejoin:miter;stroke-opacity:1" d="M 642.416,819.208 609.677,819.208 z" id="boundary" inkscape:connector-curvature="0" />
	<path style="fill:none;stroke:red;stroke-width:1px;stroke-linecap:butt;stroke-linejoin:miter;stroke-opacity:1" d="M 609.677,819.208 576.937,819.208 z" id="boundary" inkscape:connector-curvature="0" />
	<path style="fill:none;stroke:red;stroke-width:1px;stroke-linecap:butt;stroke-linejoin:miter;stroke-opacity:1" d="M 576.937,819.208 544.198,819.208 z" id="boundary" inkscape:connector-curvature="0" />
	<path style="fill:none;stroke:red;stroke-width:1px;stroke-linecap:butt;stroke-linejoin:miter;stroke-opacity:1" d="M 544.198,819.208 511.459,819.208 z" id="boundary" inkscape:connector-curvature="0" />
	<path style="fill:none;stroke:red;stroke-width:1px;stroke-linecap:butt;stroke-linejoin:miter;stroke-opacity:1" d="M 511.459,819.208 478.719,819.208 z" id="boundary" inkscape:connector-curvature="0" />
	<path style="fill:none;stroke:red;stroke-width:1px;stroke-linecap:butt;stroke-linejoin:miter;stroke-opacity:1" d="M 478.719,819.208 445.98,819.208 z" id="boundary" inkscape:connector-curvature="0" />
	<path style="fill:none;stroke:red;stroke-width:1px;stroke-linecap:butt;stroke-linejoin:miter;stroke-opacity:1" d="M 445.98,819.208 413.241,819.208 z" id="boundary" inkscape:connector-curvature="0" />
	<path style="fill:none;stroke:red;stroke-width:1px;stroke-linecap:butt;stroke-linejoin:miter;stroke-opacity:1" d="M 413.241,819.208 380.502,819.208 z" id="boundary" inkscape:connector-curvature="0" />
	<path style="fill:none;stroke:red;stroke-width:1px;stroke-linecap:butt;stroke-linejoin:miter;stroke-opacity:1" d="M 380.502,819.208 347.762,819.208 z" id="boundary" inkscape:connector-curvature="0" />
	<path style="fill:none;stroke:red;stroke-width:1px;stroke-linecap:butt;stroke-linejoin:miter;stroke-opacity:1" d="M 347.762,819.208 315.023,819.208 z" id="boundary" inkscape:connector-curvature="0" />
	<path style="fill:none;stroke:red;stroke-width:1px;stroke-linecap:butt;stroke-linejoin:miter;stroke-opacity:1" d="M 315.023,819.208 282.284,819.208 z" id="boundary" inkscape:connector-curvature="0" />
	<path style="fill:none;stroke:red;stroke-width:1px;stroke-linecap:butt;stroke-linejoin:miter;stroke-opacity:1" d="M 282.284,819.208 249.545,819.208 z" id="boundary" inkscape:connector-curvature="0" />
	<path style="fill:none;stroke:red;stroke-width:1px;stroke-linecap:butt;stroke-linejoin:miter;stroke-opacity:1" d="M 249.545,819.208 216.805,819.208 z" id="boundary" inkscape:connector-curvature="0" />
	<path style="fill:none;stroke:red;stroke-width:1px;stroke-linecap:butt;stroke-linejoin:miter;stroke-opacity:1" d="M 216.805,819.208 184.066,819.208 z" id="boundary" inkscape:connector-curvature="0" />
	<path style="fill:none;stroke:red;stroke-width:1px;stroke-linecap:butt;stroke-linejoin:miter;stroke-opacity:1" d="M 184.066,819.208 151.327,819.208 z" id="boundary" inkscape:connector-curvature="0" />
	<path style="fill:none;stroke:red;stroke-width:1px;stroke-linecap:butt;stroke-linejoin:miter;stroke-opacity:1" d="M 151.327,819.208 118.587,819.208 z" id="boundary" inkscape:connector-curvature="0" />
	<path style="fill:none;stroke:red;stroke-width:1px;stroke-linecap:butt;stroke-linejoin:miter;stroke-opacity:1" d="M 118.587,819.208 85.8482,819.208 z" id="boundary" inkscape:connector-curvature="0" />
	<path style="fill:none;stroke:red;stroke-width:1px;stroke-linecap:butt;stroke-linejoin:miter;stroke-opacity:1" d="M 85.8482,819.208 53.1089,832.304 z" id="boundary" inkscape:connector-curvature="0" />
	<path style="fill:none;stroke:red;stroke-width:1px;stroke-linecap:butt;stroke-linejoin:miter;stroke-opacity:1" d="M 53.1089,832.304 20.3696,819.208 z" id="boundary" inkscape:connector-curvature="0" />
	<path style="fill:none;stroke:red;stroke-width:1px;stroke-linecap:butt;stroke-linejoin:miter;stroke-opacity:1" d="M 20.3696,819.208 4,789.743 z" id="boundary" inkscape:connector-curvature="0" />
	<path style="fill:none;stroke:red;stroke-width:1px;stroke-linecap:butt;stroke-linejoin:miter;stroke-opacity:1" d="M 4,789.743 4,757.003 z" id="boundary" inkscape:connector-curvature="0" />
	<path style="fill:none;stroke:red;stroke-width:1px;stroke-linecap:butt;stroke-linejoin:miter;stroke-opacity:1" d="M 4,757.003 36.7393,750.455 z" id="boundary" inkscape:connector-curvature="0" />
	<path style="fill:none;stroke:red;stroke-width:1px;stroke-linecap:butt;stroke-linejoin:miter;stroke-opacity:1" d="M 36.7393,750.455 69.4785,750.455 z" id="boundary" inkscape:connector-curvature="0" />
	<path style="fill:none;stroke:red;stroke-width:1px;stroke-linecap:butt;stroke-linejoin:miter;stroke-opacity:1" d="M 69.4785,750.455 102.218,750.455 z" id="boundary" inkscape:connector-curvature="0" />
	<path style="fill:none;stroke:red;stroke-width:1px;stroke-linecap:butt;stroke-linejoin:miter;stroke-opacity:1" d="M 102.218,750.455 134.957,750.455 z" id="boundary" inkscape:connector-curvature="0" />
	<path style="fill:none;stroke:red;stroke-width:1px;stroke-linecap:butt;stroke-linejoin:miter;stroke-opacity:1" d="M 134.957,750.455 167.696,750.455 z" id="boundary" inkscape:connector-curvature="0" />
	<path style="fill:none;stroke:red;stroke-width:1px;stroke-linecap:butt;stroke-linejoin:miter;stroke-opacity:1" d="M 167.696,750.455 200.436,750.455 z" id="boundary" inkscape:connector-curvature="0" />
	<path style="fill:none;stroke:red;stroke-width:1px;stroke-linecap:butt;stroke-linejoin:miter;stroke-opacity:1" d="M 200.436,750.455 233.175,750.455 z" id="boundary" inkscape:connector-curvature="0" />
	<path style="fill:none;stroke:red;stroke-width:1px;stroke-linecap:butt;stroke-linejoin:miter;stroke-opacity:1" d="M 233.175,750.455 265.914,750.455 z" id="boundary" inkscape:connector-curvature="0" />
	<path style="fill:none;stroke:red;stroke-width:1px;stroke-linecap:butt;stroke-linejoin:miter;stroke-opacity:1" d="M 265.914,750.455 292.106,770.099 z" id="boundary" inkscape:connector-curvature="0" />
	<path style="fill:none;stroke:red;stroke-width:1px;stroke-linecap:butt;stroke-linejoin:miter;stroke-opacity:1" d="M 292.106,770.099 318.297,750.455 z" id="boundary" inkscape:connector-curvature="0" />
	<path style="fill:none;stroke:red;stroke-width:1px;stroke-linecap:butt;stroke-linejoin:miter;stroke-opacity:1" d="M 318.297,750.455 344.488,770.099 z" id="boundary" inkscape:connector-curvature="0" />
	<path style="fill:none;stroke:red;stroke-width:1px;stroke-linecap:butt;stroke-linejoin:miter;stroke-opacity:1" d="M 344.488,770.099 370.68,750.455 z" id="boundary" inkscape:connector-curvature="0" />
	<path style="fill:none;stroke:red;stroke-width:1px;stroke-linecap:butt;stroke-linejoin:miter;stroke-opacity:1" d="M 370.68,750.455 396.871,770.099 z" id="boundary" inkscape:connector-curvature="0" />
	<path style="fill:none;stroke:red;stroke-width:1px;stroke-linecap:butt;stroke-linejoin:miter;stroke-opacity:1" d="M 396.871,770.099 423.063,750.455 z" id="boundary" inkscape:connector-curvature="0" />
	<path style="fill:none;stroke:red;stroke-width:1px;stroke-linecap:butt;stroke-linejoin:miter;stroke-opacity:1" d="M 423.063,750.455 436.158,714.442 z" id="boundary" inkscape:connector-curvature="0" />
	<path style="fill:none;stroke:red;stroke-width:1px;stroke-linecap:butt;stroke-linejoin:miter;stroke-opacity:1" d="M 436.158,714.442 426.337,681.703 z" id="boundary" inkscape:connector-curvature="0" />
	<path style="fill:none;stroke:red;stroke-width:1px;stroke-linecap:butt;stroke-linejoin:miter;stroke-opacity:1" d="M 426.337,681.703 393.597,681.703 z" id="boundary" inkscape:connector-curvature="0" />
	<path style="fill:none;stroke:red;stroke-width:1px;stroke-linecap:butt;stroke-linejoin:miter;stroke-opacity:1" d="M 393.597,681.703 360.858,681.703 z" id="boundary" inkscape:connector-curvature="0" />
	<path style="fill:none;stroke:red;stroke-width:1px;stroke-linecap:butt;stroke-linejoin:miter;stroke-opacity:1" d="M 360.858,681.703 328.119,681.703 z" id="boundary" inkscape:connector-curvature="0" />
	<path style="fill:none;stroke:red;stroke-width:1px;stroke-linecap:butt;stroke-linejoin:miter;stroke-opacity:1" d="M 328.119,681.703 295.38,681.703 z" id="boundary" inkscape:connector-curvature="0" />
	<path style="fill:none;stroke:red;stroke-width:1px;stroke-linecap:butt;stroke-linejoin:miter;stroke-opacity:1" d="M 295.38,681.703 262.64,681.703 z" id="boundary" inkscape:connector-curvature="0" />
	<path style="fill:none;stroke:red;stroke-width:1px;stroke-linecap:butt;stroke-linejoin:miter;stroke-opacity:1" d="M 262.64,681.703 229.901,681.703 z" id="boundary" inkscape:connector-curvature="0" />
	<path style="fill:none;stroke:red;stroke-width:1px;stroke-linecap:butt;stroke-linejoin:miter;stroke-opacity:1" d="M 229.901,681.703 197.162,681.703 z" id="boundary" inkscape:connector-curvature="0" />
	<path style="fill:none;stroke:red;stroke-width:1px;stroke-linecap:butt;stroke-linejoin:miter;stroke-opacity:1" d="M 197.162,681.703 164.422,681.703 z" id="boundary" inkscape:connector-curvature="0" />
	<path style="fill:none;stroke:red;stroke-width:1px;stroke-linecap:butt;stroke-linejoin:miter;stroke-opacity:1" d="M 164.422,681.703 131.683,681.703 z" id="boundary" inkscape:connector-curvature="0" />
	<path style="fill:none;stroke:red;stroke-width:1px;stroke-linecap:butt;stroke-linejoin:miter;stroke-opacity:1" d="M 131.683,681.703 98.9439,681.703 z" id="boundary" inkscape:connector-curvature="0" />
	<path style="fill:none;stroke:red;stroke-width:1px;stroke-linecap:butt;stroke-linejoin:miter;stroke-opacity:1" d="M 98.9439,681.703 66.2046,681.703 z" id="boundary" inkscape:connector-curvature="0" />
	<path style="fill:none;stroke:red;stroke-width:1px;stroke-linecap:butt;stroke-linejoin:miter;stroke-opacity:1" d="M 66.2046,681.703 49.835,652.238 z" id="boundary" inkscape:connector-curvature="0" />
	<path style="fill:none;stroke:red;stroke-width:1px;stroke-linecap:butt;stroke-linejoin:miter;stroke-opacity:1" d="M 49.835,652.238 82.5743,652.238 z" id="boundary" inkscape:connector-curvature="0" />
	<path style="fill:none;stroke:red;stroke-width:1px;stroke-linecap:butt;stroke-linejoin:miter;stroke-opacity:1" d="M 82.5743,652.238 115.314,652.238 z" id="boundary" inkscape:connector-curvature="0" />
	<path style="fill:none;stroke:red;stroke-width:1px;stroke-linecap:butt;stroke-linejoin:miter;stroke-opacity:1" d="M 115.314,652.238 148.053,652.238 z" id="boundary" inkscape:connector-curvature="0" />
	<path style="fill:none;stroke:red;stroke-width:1px;stroke-linecap:butt;stroke-linejoin:miter;stroke-opacity:1" d="M 148.053,652.238 180.792,652.238 z" id="boundary" inkscape:connector-curvature="0" />
	<path style="fill:none;stroke:red;stroke-width:1px;stroke-linecap:butt;stroke-linejoin:miter;stroke-opacity:1" d="M 180.792,652.238 213.531,652.238 z" id="boundary" inkscape:connector-curvature="0" />
	<path style="fill:none;stroke:red;stroke-width:1px;stroke-linecap:butt;stroke-linejoin:miter;stroke-opacity:1" d="M 213.531,652.238 246.271,652.238 z" id="boundary" inkscape:connector-curvature="0" />
	<path style="fill:none;stroke:red;stroke-width:1px;stroke-linecap:butt;stroke-linejoin:miter;stroke-opacity:1" d="M 246.271,652.238 279.01,652.238 z" id="boundary" inkscape:connector-curvature="0" />
	<path style="fill:none;stroke:red;stroke-width:1px;stroke-linecap:butt;stroke-linejoin:miter;stroke-opacity:1" d="M 279.01,652.238 311.749,652.238 z" id="boundary" inkscape:connector-curvature="0" />
	<path style="fill:none;stroke:red;stroke-width:1px;stroke-linecap:butt;stroke-linejoin:miter;stroke-opacity:1" d="M 311.749,652.238 344.488,652.238 z" id="boundary" inkscape:connector-curvature="0" />
	<path style="fill:none;stroke:red;stroke-width:1px;stroke-linecap:butt;stroke-linejoin:miter;stroke-opacity:1" d="M 344.488,652.238 377.228,652.238 z" id="boundary" inkscape:connector-curvature="0" />
	<path style="fill:none;stroke:red;stroke-width:1px;stroke-linecap:butt;stroke-linejoin:miter;stroke-opacity:1" d="M 377.228,652.238 409.967,652.238 z" id="boundary" inkscape:connector-curvature="0" />
	<path style="fill:none;stroke:red;stroke-width:1px;stroke-linecap:butt;stroke-linejoin:miter;stroke-opacity:1" d="M 409.967,652.238 436.158,612.95 z" id="boundary" inkscape:connector-curvature="0" />
	<path style="fill:none;stroke:red;stroke-width:1px;stroke-linecap:butt;stroke-linejoin:miter;stroke-opacity:1" d="M 436.158,612.95 436.158,580.211 z" id="boundary" inkscape:connector-curvature="0" />
	<path style="fill:none;stroke:red;stroke-width:1px;stroke-linecap:butt;stroke-linejoin:miter;stroke-opacity:1" d="M 436.158,580.211 403.419,576.937 z" id="boundary" inkscape:connector-curvature="0" />
	<path style="fill:none;stroke:red;stroke-width:1px;stroke-linecap:butt;stroke-linejoin:miter;stroke-opacity:1" d="M 403.419,576.937 370.68,576.937 z" id="boundary" inkscape:connector-curvature="0" />
	<path style="fill:none;stroke:red;stroke-width:1px;stroke-linecap:butt;stroke-linejoin:miter;stroke-opacity:1" d="M 370.68,576.937 337.941,576.937 z" id="boundary" inkscape:connector-curvature="0" />
	<path style="fill:none;stroke:red;stroke-width:1px;stroke-linecap:butt;stroke-linejoin:miter;stroke-opacity:1" d="M 337.941,576.937 305.201,576.937 z" id="boundary" inkscape:connector-curvature="0" />
	<path style="fill:none;stroke:red;stroke-width:1px;stroke-linecap:butt;stroke-linejoin:miter;stroke-opacity:1" d="M 305.201,576.937 272.462,576.937 z" id="boundary" inkscape:connector-curvature="0" />
	<path style="fill:none;stroke:red;stroke-width:1px;stroke-linecap:butt;stroke-linejoin:miter;stroke-opacity:1" d="M 272.462,576.937 239.723,576.937 z" id="boundary" inkscape:connector-curvature="0" />
	<path style="fill:none;stroke:red;stroke-width:1px;stroke-linecap:butt;stroke-linejoin:miter;stroke-opacity:1" d="M 239.723,576.937 206.983,576.937 z" id="boundary" inkscape:connector-curvature="0" />
	<path style="fill:none;stroke:red;stroke-width:1px;stroke-linecap:butt;stroke-linejoin:miter;stroke-opacity:1" d="M 206.983,576.937 174.244,576.937 z" id="boundary" inkscape:connector-curvature="0" />
	<path style="fill:none;stroke:red;stroke-width:1px;stroke-linecap:butt;stroke-linejoin:miter;stroke-opacity:1" d="M 174.244,576.937 141.505,576.937 z" id="boundary" inkscape:connector-curvature="0" />
	<path style="fill:none;stroke:red;stroke-width:1px;stroke-linecap:butt;stroke-linejoin:miter;stroke-opacity:1" d="M 141.505,576.937 108.766,576.937 z" id="boundary" inkscape:connector-curvature="0" />
	<path style="fill:none;stroke:red;stroke-width:1px;stroke-linecap:butt;stroke-linejoin:miter;stroke-opacity:1" d="M 108.766,576.937 76.0264,576.937 z" id="boundary" inkscape:connector-curvature="0" />
	<path style="fill:none;stroke:red;stroke-width:1px;stroke-linecap:butt;stroke-linejoin:miter;stroke-opacity:1" d="M 76.0264,576.937 49.835,554.02 z" id="boundary" inkscape:connector-curvature="0" />
	<path style="fill:none;stroke:red;stroke-width:1px;stroke-linecap:butt;stroke-linejoin:miter;stroke-opacity:1" d="M 49.835,554.02 92.396,547.472 z" id="boundary" inkscape:connector-curvature="0" />
	<path style="fill:none;stroke:red;stroke-width:1px;stroke-linecap:butt;stroke-linejoin:miter;stroke-opacity:1" d="M 92.396,547.472 125.135,547.472 z" id="boundary" inkscape:connector-curvature="0" />
	<path style="fill:none;stroke:red;stroke-width:1px;stroke-linecap:butt;stroke-linejoin:miter;stroke-opacity:1" d="M 125.135,547.472 157.875,547.472 z" id="boundary" inkscape:connector-curvature="0" />
	<path style="fill:none;stroke:red;stroke-width:1px;stroke-linecap:butt;stroke-linejoin:miter;stroke-opacity:1" d="M 157.875,547.472 190.614,547.472 z" id="boundary" inkscape:connector-curvature="0" />
	<path style="fill:none;stroke:red;stroke-width:1px;stroke-linecap:butt;stroke-linejoin:miter;stroke-opacity:1" d="M 190.614,547.472 223.353,547.472 z" id="boundary" inkscape:connector-curvature="0" />
	<path style="fill:none;stroke:red;stroke-width:1px;stroke-linecap:butt;stroke-linejoin:miter;stroke-opacity:1" d="M 223.353,547.472 256.092,547.472 z" id="boundary" inkscape:connector-curvature="0" />
	<path style="fill:none;stroke:red;stroke-width:1px;stroke-linecap:butt;stroke-linejoin:miter;stroke-opacity:1" d="M 256.092,547.472 288.832,547.472 z" id="boundary" inkscape:connector-curvature="0" />
	<path style="fill:none;stroke:red;stroke-width:1px;stroke-linecap:butt;stroke-linejoin:miter;stroke-opacity:1" d="M 288.832,547.472 321.571,547.472 z" id="boundary" inkscape:connector-curvature="0" />
	<path style="fill:none;stroke:red;stroke-width:1px;stroke-linecap:butt;stroke-linejoin:miter;stroke-opacity:1" d="M 321.571,547.472 354.31,547.472 z" id="boundary" inkscape:connector-curvature="0" />
	<path style="fill:none;stroke:red;stroke-width:1px;stroke-linecap:butt;stroke-linejoin:miter;stroke-opacity:1" d="M 354.31,547.472 387.05,547.472 z" id="boundary" inkscape:connector-curvature="0" />
	<path style="fill:none;stroke:red;stroke-width:1px;stroke-linecap:butt;stroke-linejoin:miter;stroke-opacity:1" d="M 387.05,547.472 419.789,547.472 z" id="boundary" inkscape:connector-curvature="0" />
	<path style="fill:none;stroke:red;stroke-width:1px;stroke-linecap:butt;stroke-linejoin:miter;stroke-opacity:1" d="M 419.789,547.472 436.158,498.363 z" id="boundary" inkscape:connector-curvature="0" />
	<path style="fill:none;stroke:red;stroke-width:1px;stroke-linecap:butt;stroke-linejoin:miter;stroke-opacity:1" d="M 436.158,498.363 436.158,465.624 z" id="boundary" inkscape:connector-curvature="0" />
	<path style="fill:none;stroke:red;stroke-width:1px;stroke-linecap:butt;stroke-linejoin:miter;stroke-opacity:1" d="M 436.158,465.624 413.241,439.432 z" id="boundary" inkscape:connector-curvature="0" />
	<path style="fill:none;stroke:red;stroke-width:1px;stroke-linecap:butt;stroke-linejoin:miter;stroke-opacity:1" d="M 413.241,439.432 380.502,439.432 z" id="boundary" inkscape:connector-curvature="0" />
	<path style="fill:none;stroke:red;stroke-width:1px;stroke-linecap:butt;stroke-linejoin:miter;stroke-opacity:1" d="M 380.502,439.432 347.762,439.432 z" id="boundary" inkscape:connector-curvature="0" />
	<path style="fill:none;stroke:red;stroke-width:1px;stroke-linecap:butt;stroke-linejoin:miter;stroke-opacity:1" d="M 347.762,439.432 315.023,439.432 z" id="boundary" inkscape:connector-curvature="0" />
	<path style="fill:none;stroke:red;stroke-width:1px;stroke-linecap:butt;stroke-linejoin:miter;stroke-opacity:1" d="M 315.023,439.432 282.284,439.432 z" id="boundary" inkscape:connector-curvature="0" />
	<path style="fill:none;stroke:red;stroke-width:1px;stroke-linecap:butt;stroke-linejoin:miter;stroke-opacity:1" d="M 282.284,439.432 249.545,439.432 z" id="boundary" inkscape:connector-curvature="0" />
	<path style="fill:none;stroke:red;stroke-width:1px;stroke-linecap:butt;stroke-linejoin:miter;stroke-opacity:1" d="M 249.545,439.432 216.805,439.432 z" id="boundary" inkscape:connector-curvature="0" />
	<path style="fill:none;stroke:red;stroke-width:1px;stroke-linecap:butt;stroke-linejoin:miter;stroke-opacity:1" d="M 216.805,439.432 184.066,439.432 z" id="boundary" inkscape:connector-curvature="0" />
	<path style="fill:none;stroke:red;stroke-width:1px;stroke-linecap:butt;stroke-linejoin:miter;stroke-opacity:1" d="M 184.066,439.432 151.327,436.158 z" id="boundary" inkscape:connector-curvature="0" />
	<path style="fill:none;stroke:red;stroke-width:1px;stroke-linecap:butt;stroke-linejoin:miter;stroke-opacity:1" d="M 151.327,436.158 148.053,403.419 z" id="boundary" inkscape:connector-curvature="0" />
	<path style="fill:none;stroke:red;stroke-width:1px;stroke-linecap:butt;stroke-linejoin:miter;stroke-opacity:1" d="M 148.053,403.419 148.053,370.68 z" id="boundary" inkscape:connector-curvature="0" />
	<path style="fill:none;stroke:red;stroke-width:1px;stroke-linecap:butt;stroke-linejoin:miter;stroke-opacity:1" d="M 148.053,370.68 148.053,337.941 z" id="boundary" inkscape:connector-curvature="0" />
	<path style="fill:none;stroke:red;stroke-width:1px;stroke-linecap:butt;stroke-linejoin:miter;stroke-opacity:1" d="M 148.053,337.941 148.053,305.201 z" id="boundary" inkscape:connector-curvature="0" />
	<path style="fill:none;stroke:red;stroke-width:1px;stroke-linecap:butt;stroke-linejoin:miter;stroke-opacity:1" d="M 148.053,305.201 148.053,272.462 z" id="boundary" inkscape:connector-curvature="0" />
	<path style="fill:none;stroke:red;stroke-width:1px;stroke-linecap:butt;stroke-linejoin:miter;stroke-opacity:1" d="M 148.053,272.462 148.053,239.723 z" id="boundary" inkscape:connector-curvature="0" />
	<path style="fill:none;stroke:red;stroke-width:1px;stroke-linecap:butt;stroke-linejoin:miter;stroke-opacity:1" d="M 148.053,239.723 148.053,206.983 z" id="boundary" inkscape:connector-curvature="0" />
	<path style="fill:none;stroke:red;stroke-width:1px;stroke-linecap:butt;stroke-linejoin:miter;stroke-opacity:1" d="M 148.053,206.983 148.053,174.244 z" id="boundary" inkscape:connector-curvature="0" />
	<path style="fill:none;stroke:red;stroke-width:1px;stroke-linecap:butt;stroke-linejoin:miter;stroke-opacity:1" d="M 148.053,174.244 148.053,141.505 z" id="boundary" inkscape:connector-curvature="0" />
	<path style="fill:none;stroke:red;stroke-width:1px;stroke-linecap:butt;stroke-linejoin:miter;stroke-opacity:1" d="M 148.053,141.505 148.053,108.766 z" id="boundary" inkscape:connector-curvature="0" />
	<path style="fill:none;stroke:red;stroke-width:1px;stroke-linecap:butt;stroke-linejoin:miter;stroke-opacity:1" d="M 148.053,108.766 148.053,76.0264 z" id="boundary" inkscape:connector-curvature="0" />
	<path style="fill:none;stroke:red;stroke-width:1px;stroke-linecap:butt;stroke-linejoin:miter;stroke-opacity:1" d="M 148.053,76.0264 148.053,43.2871 z" id="boundary" inkscape:connector-curvature="0" />
	<path style="fill:none;stroke:red;stroke-width:1px;stroke-linecap:butt;stroke-linejoin:miter;stroke-opacity:1" d="M 148.053,43.2871 148.053,10.5479 z" id="boundary" inkscape:connector-curvature="0" />
	<path style="fill:none;stroke:red;stroke-width:1px;stroke-linecap:butt;stroke-linejoin:miter;stroke-opacity:1" d="M 148.053,10.5479 180.792,4 z" id="boundary" inkscape:connector-curvature="0" />
	<path style="fill:none;stroke:red;stroke-width:1px;stroke-linecap:butt;stroke-linejoin:miter;stroke-opacity:1" d="M 180.792,4 213.531,4 z" id="boundary" inkscape:connector-curvature="0" />
	<path style="fill:none;stroke:red;stroke-width:1px;stroke-linecap:butt;stroke-linejoin:miter;stroke-opacity:1" d="M 213.531,4 246.271,4 z" id="boundary" inkscape:connector-curvature="0" />
	<path style="fill:none;stroke:red;stroke-width:1px;stroke-linecap:butt;stroke-linejoin:miter;stroke-opacity:1" d="M 246.271,4 279.01,4 z" id="boundary" inkscape:connector-curvature="0" />
	<path style="fill:none;stroke:red;stroke-width:1px;stroke-linecap:butt;stroke-linejoin:miter;stroke-opacity:1" d="M 279.01,4 311.749,4 z" id="boundary" inkscape:connector-curvature="0" />
	<path style="fill:none;stroke:red;stroke-width:1px;stroke-linecap:butt;stroke-linejoin:miter;stroke-opacity:1" d="M 311.749,4 344.488,4 z" id="boundary" inkscape:connector-curvature="0" />
	<path style="fill:none;stroke:red;stroke-width:1px;stroke-linecap:butt;stroke-linejoin:miter;stroke-opacity:1" d="M 344.488,4 377.228,4 z" id="boundary" inkscape:connector-curvature="0" />
	<path style="fill:none;stroke:red;stroke-width:1px;stroke-linecap:butt;stroke-linejoin:miter;stroke-opacity:1" d="M 377.228,4 409.967,4 z" id="boundary" inkscape:connector-curvature="0" />
	<path style="fill:none;stroke:red;stroke-width:1px;stroke-linecap:butt;stroke-linejoin:miter;stroke-opacity:1" d="M 409.967,4 442.706,4 z" id="boundary" inkscape:connector-curvature="0" />
	<path style="fill:none;stroke:red;stroke-width:1px;stroke-linecap:butt;stroke-linejoin:miter;stroke-opacity:1" d="M 442.706,4 475.446,4 z" id="boundary" inkscape:connector-curvature="0" />
	<path style="fill:none;stroke:red;stroke-width:1px;stroke-linecap:butt;stroke-linejoin:miter;stroke-opacity:1" d="M 475.446,4 508.185,4 z" id="boundary" inkscape:connector-curvature="0" />
	<path style="fill:none;stroke:red;stroke-width:1px;stroke-linecap:butt;stroke-linejoin:miter;stroke-opacity:1" d="M 508.185,4 540.924,4 z" id="boundary" inkscape:connector-curvature="0" />
	<path style="fill:none;stroke:red;stroke-width:1px;stroke-linecap:butt;stroke-linejoin:miter;stroke-opacity:1" d="M 540.924,4 573.663,4 z" id="boundary" inkscape:connector-curvature="0" />
	<path style="fill:none;stroke:red;stroke-width:1px;stroke-linecap:butt;stroke-linejoin:miter;stroke-opacity:1" d="M 573.663,4 606.403,4 z" id="boundary" inkscape:connector-curvature="0" />
	<path style="fill:none;stroke:red;stroke-width:1px;stroke-linecap:butt;stroke-linejoin:miter;stroke-opacity:1" d="M 606.403,4 639.142,4 z" id="boundary" inkscape:connector-curvature="0" />
	<path style="fill:none;stroke:red;stroke-width:1px;stroke-linecap:butt;stroke-linejoin:miter;stroke-opacity:1" d="M 639.142,4 671.881,4 z" id="boundary" inkscape:connector-curvature="0" />
	<path style="fill:none;stroke:red;stroke-width:1px;stroke-linecap:butt;stroke-linejoin:miter;stroke-opacity:1" d="M 671.881,4 704.62,4 z" id="boundary" inkscape:connector-curvature="0" />
	<path style="fill:none;stroke:red;stroke-width:1px;stroke-linecap:butt;stroke-linejoin:miter;stroke-opacity:1" d="M 704.62,4 737.36,4 z" id="boundary" inkscape:connector-curvature="0" />
	<path style="fill:none;stroke:red;stroke-width:1px;stroke-linecap:butt;stroke-linejoin:miter;stroke-opacity:1" d="M 737.36,4 770.099,4 z" id="boundary" inkscape:connector-curvature="0" />
	<path style="fill:none;stroke:red;stroke-width:1px;stroke-linecap:butt;stroke-linejoin:miter;stroke-opacity:1" d="M 770.099,4 802.838,4 z" id="boundary" inkscape:connector-curvature="0" />
	<path style="fill:none;stroke:red;stroke-width:1px;stroke-linecap:butt;stroke-linejoin:miter;stroke-opacity:1" d="M 802.838,4 835.578,4 z" id="boundary" inkscape:connector-curvature="0" />
	<path style="fill:none;stroke:red;stroke-width:1px;stroke-linecap:butt;stroke-linejoin:miter;stroke-opacity:1" d="M 835.578,4 868.317,13.8218 z" id="boundary" inkscape:connector-curvature="0" />
	<path style="fill:none;stroke:red;stroke-width:1px;stroke-linecap:butt;stroke-linejoin:miter;stroke-opacity:1" d="M 868.317,13.8218 871.591,46.5611 z" id="boundary" inkscape:connector-curvature="0" />
	<path style="fill:none;stroke:red;stroke-width:1px;stroke-linecap:butt;stroke-linejoin:miter;stroke-opacity:1" d="M 871.591,46.5611 871.591,79.3003 z" id="boundary" inkscape:connector-curvature="0" />
	<path style="fill:none;stroke:red;stroke-width:1px;stroke-linecap:butt;stroke-linejoin:miter;stroke-opacity:1" d="M 871.591,79.3003 871.591,112.04 z" id="boundary" inkscape:connector-curvature="0" />
	<path style="fill:none;stroke:red;stroke-width:1px;stroke-linecap:butt;stroke-linejoin:miter;stroke-opacity:1" d="M 871.591,112.04 871.591,144.779 z" id="boundary" inkscape:connector-curvature="0" />
	<path style="fill:none;stroke:red;stroke-width:1px;stroke-linecap:butt;stroke-linejoin:miter;stroke-opacity:1" d="M 871.591,144.779 871.591,177.518 z" id="boundary" inkscape:connector-curvature="0" />
	<path style="fill:none;stroke:red;stroke-width:1px;stroke-linecap:butt;stroke-linejoin:miter;stroke-opacity:1" d="M 871.591,177.518 871.591,210.257 z" id="boundary" inkscape:connector-curvature="0" />
	<path style="fill:none;stroke:red;stroke-width:1px;stroke-linecap:butt;stroke-linejoin:miter;stroke-opacity:1" d="M 871.591,210.257 871.591,242.997 z" id="boundary" inkscape:connector-curvature="0" />
	<path style="fill:none;stroke:red;stroke-width:1px;stroke-linecap:butt;stroke-linejoin:miter;stroke-opacity:1" d="M 871.591,242.997 871.591,275.736 z" id="boundary" inkscape:connector-curvature="0" />
	<path style="fill:none;stroke:red;stroke-width:1px;stroke-linecap:butt;stroke-linejoin:miter;stroke-opacity:1" d="M 871.591,275.736 871.591,308.475 z" id="boundary" inkscape:connector-curvature="0" />
	<path style="fill:none;stroke:red;stroke-width:1px;stroke-linecap:butt;stroke-linejoin:miter;stroke-opacity:1" d="M 871.591,308.475 871.591,341.215 z" id="boundary" inkscape:connector-curvature="0" />
	<path style="fill:none;stroke:red;stroke-width:1px;stroke-linecap:butt;stroke-linejoin:miter;stroke-opacity:1" d="M 871.591,341.215 871.591,373.954 z" id="boundary" inkscape:connector-curvature="0" />
	<path style="fill:none;stroke:red;stroke-width:1px;stroke-linecap:butt;stroke-linejoin:miter;stroke-opacity:1" d="M 871.591,373.954 858.495,436.158 z" id="boundary" inkscape:connector-curvature="0" />
	<path style="fill:none;stroke:red;stroke-width:1px;stroke-linecap:butt;stroke-linejoin:miter;stroke-opacity:1" d="M 858.495,436.158 825.756,439.432 z" id="boundary" inkscape:connector-curvature="0" />
	<path style="fill:none;stroke:red;stroke-width:1px;stroke-linecap:butt;stroke-linejoin:miter;stroke-opacity:1" d="M 825.756,439.432 793.017,439.432 z" id="boundary" inkscape:connector-curvature="0" />
	<path style="fill:none;stroke:red;stroke-width:1px;stroke-linecap:butt;stroke-linejoin:miter;stroke-opacity:1" d="M 793.017,439.432 760.277,439.432 z" id="boundary" inkscape:connector-curvature="0" />
	<path style="fill:none;stroke:red;stroke-width:1px;stroke-linecap:butt;stroke-linejoin:miter;stroke-opacity:1" d="M 760.277,439.432 727.538,439.432 z" id="boundary" inkscape:connector-curvature="0" />
	<path style="fill:none;stroke:red;stroke-width:1px;stroke-linecap:butt;stroke-linejoin:miter;stroke-opacity:1" d="M 727.538,439.432 694.799,439.432 z" id="boundary" inkscape:connector-curvature="0" />
	<path style="fill:none;stroke:red;stroke-width:1px;stroke-linecap:butt;stroke-linejoin:miter;stroke-opacity:1" d="M 694.799,439.432 662.059,439.432 z" id="boundary" inkscape:connector-curvature="0" />
	<path style="fill:none;stroke:red;stroke-width:1px;stroke-linecap:butt;stroke-linejoin:miter;stroke-opacity:1" d="M 662.059,439.432 629.32,442.706 z" id="boundary" inkscape:connector-curvature="0" />
	<path style="fill:none;stroke:red;stroke-width:1px;stroke-linecap:butt;stroke-linejoin:miter;stroke-opacity:1" d="M 629.32,442.706 629.32,475.446 z" id="boundary" inkscape:connector-curvature="0" />
	<path style="fill:none;stroke:red;stroke-width:1px;stroke-linecap:butt;stroke-linejoin:miter;stroke-opacity:1" d="M 629.32,475.446 629.32,508.185 z" id="boundary" inkscape:connector-curvature="0" />
	<path style="fill:none;stroke:red;stroke-width:1px;stroke-linecap:butt;stroke-linejoin:miter;stroke-opacity:1" d="M 629.32,508.185 629.32,540.924 z" id="boundary" inkscape:connector-curvature="0" />
	<path style="fill:none;stroke:red;stroke-width:1px;stroke-linecap:butt;stroke-linejoin:miter;stroke-opacity:1" d="M 629.32,540.924 662.059,547.472 z" id="boundary" inkscape:connector-curvature="0" />
	<path style="fill:none;stroke:red;stroke-width:1px;stroke-linecap:butt;stroke-linejoin:miter;stroke-opacity:1" d="M 662.059,547.472 694.799,547.472 z" id="boundary" inkscape:connector-curvature="0" />
	<path style="fill:none;stroke:red;stroke-width:1px;stroke-linecap:butt;stroke-linejoin:miter;stroke-opacity:1" d="M 694.799,547.472 727.538,547.472 z" id="boundary" inkscape:connector-curvature="0" />
	<path style="fill:none;stroke:red;stroke-width:1px;stroke-linecap:butt;stroke-linejoin:miter;stroke-opacity:1" d="M 727.538,547.472 760.277,547.472 z" id="boundary" inkscape:connector-curvature="0" />
	<path style="fill:none;stroke:red;stroke-width:1px;stroke-linecap:butt;stroke-linejoin:miter;stroke-opacity:1" d="M 760.277,547.472 793.017,547.472 z" id="boundary" inkscape:connector-curvature="0" />
	<path style="fill:none;stroke:red;stroke-width:1px;stroke-linecap:butt;stroke-linejoin:miter;stroke-opacity:1" d="M 793.017,547.472 825.756,547.472 z" id="boundary" inkscape:connector-curvature="0" />
	<path style="fill:none;stroke:red;stroke-width:1px;stroke-linecap:butt;stroke-linejoin:miter;stroke-opacity:1" d="M 825.756,547.472 858.495,547.472 z" id="boundary" inkscape:connector-curvature="0" />
	<path style="fill:none;stroke:red;stroke-width:1px;stroke-linecap:butt;stroke-linejoin:miter;stroke-opacity:1" d="M 858.495,547.472 891.234,547.472 z" id="boundary" inkscape:connector-curvature="0" />
	<path style="fill:none;stroke:red;stroke-width:1px;stroke-linecap:butt;stroke-linejoin:miter;stroke-opacity:1" d="M 891.234,547.472 874.865,576.937 z" id="boundary" inkscape:connector-curvature="0" />
	<path style="fill:none;stroke:red;stroke-width:1px;stroke-linecap:butt;stroke-linejoin:miter;stroke-opacity:1" d="M 874.865,576.937 842.125,576.937 z" id="boundary" inkscape:connector-curvature="0" />
	<path style="fill:none;stroke:red;stroke-width:1px;stroke-linecap:butt;stroke-linejoin:miter;stroke-opacity:1" d="M 842.125,576.937 809.386,576.937 z" id="boundary" inkscape:connector-curvature="0" />
	<path style="fill:none;stroke:red;stroke-width:1px;stroke-linecap:butt;stroke-linejoin:miter;stroke-opacity:1" d="M 809.386,576.937 776.647,576.937 z" id="boundary" inkscape:connector-curvature="0" />
	<path style="fill:none;stroke:red;stroke-width:1px;stroke-linecap:butt;stroke-linejoin:miter;stroke-opacity:1" d="M 776.647,576.937 743.908,576.937 z" id="boundary" inkscape:connector-curvature="0" />
	<path style="fill:none;stroke:red;stroke-width:1px;stroke-linecap:butt;stroke-linejoin:miter;stroke-opacity:1" d="M 743.908,576.937 711.168,576.937 z" id="boundary" inkscape:connector-curvature="0" />
	<path style="fill:none;stroke:red;stroke-width:1px;stroke-linecap:butt;stroke-linejoin:miter;stroke-opacity:1" d="M 711.168,576.937 678.429,576.937 z" id="boundary" inkscape:connector-curvature="0" />
	<path style="fill:none;stroke:red;stroke-width:1px;stroke-linecap:butt;stroke-linejoin:miter;stroke-opacity:1" d="M 678.429,576.937 629.32,580.211 z" id="boundary" inkscape:connector-curvature="0" />
	<path style="fill:none;stroke:red;stroke-width:1px;stroke-linecap:butt;stroke-linejoin:miter;stroke-opacity:1" d="M 629.32,580.211 629.32,612.95 z" id="boundary" inkscape:connector-curvature="0" />
	<path style="fill:none;stroke:red;stroke-width:1px;stroke-linecap:butt;stroke-linejoin:miter;stroke-opacity:1" d="M 629.32,612.95 629.32,645.69 z" id="boundary" inkscape:connector-curvature="0" />
	<path style="fill:none;stroke:red;stroke-width:1px;stroke-linecap:butt;stroke-linejoin:miter;stroke-opacity:1" d="M 629.32,645.69 662.059,652.238 z" id="boundary" inkscape:connector-curvature="0" />
	<path style="fill:none;stroke:red;stroke-width:1px;stroke-linecap:butt;stroke-linejoin:miter;stroke-opacity:1" d="M 662.059,652.238 694.799,652.238 z" id="boundary" inkscape:connector-curvature="0" />
	<path style="fill:none;stroke:red;stroke-width:1px;stroke-linecap:butt;stroke-linejoin:miter;stroke-opacity:1" d="M 694.799,652.238 727.538,652.238 z" id="boundary" inkscape:connector-curvature="0" />
	<path style="fill:none;stroke:red;stroke-width:1px;stroke-linecap:butt;stroke-linejoin:miter;stroke-opacity:1" d="M 727.538,652.238 760.277,652.238 z" id="boundary" inkscape:connector-curvature="0" />
	<path style="fill:none;stroke:red;stroke-width:1px;stroke-linecap:butt;stroke-linejoin:miter;stroke-opacity:1" d="M 760.277,652.238 793.017,652.238 z" id="boundary" inkscape:connector-curvature="0" />
	<path style="fill:none;stroke:red;stroke-width:1px;stroke-linecap:butt;stroke-linejoin:miter;stroke-opacity:1" d="M 793.017,652.238 825.756,652.238 z" id="boundary" inkscape:connector-curvature="0" />
	<path style="fill:none;stroke:red;stroke-width:1px;stroke-linecap:butt;stroke-linejoin:miter;stroke-opacity:1" d="M 825.756,652.238 858.495,652.238 z" id="boundary" inkscape:connector-curvature="0" />
	<path style="fill:none;stroke:red;stroke-width:1px;stroke-linecap:butt;stroke-linejoin:miter;stroke-opacity:1" d="M 858.495,652.238 891.234,652.238 z" id="boundary" inkscape:connector-curvature="0" />
	<path style="fill:none;stroke:red;stroke-width:1px;stroke-linecap:butt;stroke-linejoin:miter;stroke-opacity:1" d="M 891.234,652.238 874.865,681.703 z" id="boundary" inkscape:connector-curvature="0" />
	<path style="fill:none;stroke:red;stroke-width:1px;stroke-linecap:butt;stroke-linejoin:miter;stroke-opacity:1" d="M 874.865,681.703 842.125,681.703 z" id="boundary" inkscape:connector-curvature="0" />
	<path style="fill:none;stroke:red;stroke-width:1px;stroke-linecap:butt;stroke-linejoin:miter;stroke-opacity:1" d="M 842.125,681.703 809.386,681.703 z" id="boundary" inkscape:connector-curvature="0" />
	<path style="fill:none;stroke:red;stroke-width:1px;stroke-linecap:butt;stroke-linejoin:miter;stroke-opacity:1" d="M 809.386,681.703 776.647,681.703 z" id="boundary" inkscape:connector-curvature="0" />
	<path style="fill:none;stroke:red;stroke-width:1px;stroke-linecap:butt;stroke-linejoin:miter;stroke-opacity:1" d="M 776.647,681.703 743.908,681.703 z" id="boundary" inkscape:connector-curvature="0" />
	<path style="fill:none;stroke:red;stroke-width:1px;stroke-linecap:butt;stroke-linejoin:miter;stroke-opacity:1" d="M 743.908,681.703 711.168,681.703 z" id="boundary" inkscape:connector-curvature="0" />
	<path style="fill:none;stroke:red;stroke-width:1px;stroke-linecap:butt;stroke-linejoin:miter;stroke-opacity:1" d="M 711.168,681.703 678.429,681.703 z" id="boundary" inkscape:connector-curvature="0" />
	<path style="fill:none;stroke:red;stroke-width:1px;stroke-linecap:butt;stroke-linejoin:miter;stroke-opacity:1" d="M 678.429,681.703 629.32,684.977 z" id="boundary" inkscape:connector-curvature="0" />
	<path style="fill:none;stroke:red;stroke-width:1px;stroke-linecap:butt;stroke-linejoin:miter;stroke-opacity:1" d="M 629.32,684.977 629.32,717.716 z" id="boundary" inkscape:connector-curvature="0" />
	<path style="fill:none;stroke:red;stroke-width:1px;stroke-linecap:butt;stroke-linejoin:miter;stroke-opacity:1" d="M 629.32,717.716 632.594,750.455 z" id="boundary" inkscape:connector-curvature="0" />
	<path style="fill:none;stroke:red;stroke-width:1px;stroke-linecap:butt;stroke-linejoin:miter;stroke-opacity:1" d="M 632.594,750.455 658.785,770.099 z" id="boundary" inkscape:connector-curvature="0" />
	<path style="fill:none;stroke:red;stroke-width:1px;stroke-linecap:butt;stroke-linejoin:miter;stroke-opacity:1" d="M 658.785,770.099 684.977,750.455 z" id="boundary" inkscape:connector-curvature="0" />
	<path style="fill:none;stroke:red;stroke-width:1px;stroke-linecap:butt;stroke-linejoin:miter;stroke-opacity:1" d="M 684.977,750.455 711.168,770.099 z" id="boundary" inkscape:connector-curvature="0" />
	<path style="fill:none;stroke:red;stroke-width:1px;stroke-linecap:butt;stroke-linejoin:miter;stroke-opacity:1" d="M 711.168,770.099 737.36,750.455 z" id="boundary" inkscape:connector-curvature="0" />
	<path style="fill:none;stroke:red;stroke-width:1px;stroke-linecap:butt;stroke-linejoin:miter;stroke-opacity:1" d="M 737.36,750.455 770.099,750.455 z" id="boundary" inkscape:connector-curvature="0" />
	<path style="fill:none;stroke:red;stroke-width:1px;stroke-linecap:butt;stroke-linejoin:miter;stroke-opacity:1" d="M 770.099,750.455 802.838,750.455 z" id="boundary" inkscape:connector-curvature="0" />
	<path style="fill:none;stroke:red;stroke-width:1px;stroke-linecap:butt;stroke-linejoin:miter;stroke-opacity:1" d="M 802.838,750.455 835.578,750.455 z" id="boundary" inkscape:connector-curvature="0" />
	<path style="fill:none;stroke:red;stroke-width:1px;stroke-linecap:butt;stroke-linejoin:miter;stroke-opacity:1" d="M 835.578,750.455 868.317,750.455 z" id="boundary" inkscape:connector-curvature="0" />
	<path style="fill:none;stroke:red;stroke-width:1px;stroke-linecap:butt;stroke-linejoin:miter;stroke-opacity:1" d="M 868.317,750.455 901.056,750.455 z" id="boundary" inkscape:connector-curvature="0" />
	<path style="fill:none;stroke:red;stroke-width:1px;stroke-linecap:butt;stroke-linejoin:miter;stroke-opacity:1" d="M 901.056,750.455 933.795,750.455 z" id="boundary" inkscape:connector-curvature="0" />
	<path style="fill:none;stroke:red;stroke-width:1px;stroke-linecap:butt;stroke-linejoin:miter;stroke-opacity:1" d="M 933.795,750.455 966.535,750.455 z" id="boundary" inkscape:connector-curvature="0" />
	<path style="fill:none;stroke:red;stroke-width:1px;stroke-linecap:butt;stroke-linejoin:miter;stroke-opacity:1" d="M 966.535,750.455 996,766.825 z" id="boundary" inkscape:connector-curvature="0" />
	<path style="fill:none;stroke:red;stroke-width:1px;stroke-linecap:butt;stroke-linejoin:miter;stroke-opacity:1" d="M 996,766.825 996,799.564 z" id="boundary" inkscape:connector-curvature="0" />
	<circle cx="4" cy="757.003" r="4" fill="#0" id="circle0"/>
	<circle cx="4" cy="789.743" r="4" fill="#0" id="circle1"/>
	<circle cx="20.3696" cy="819.208" r="4" fill="#0" id="circle2"/>
	<circle cx="36.7393" cy="750.455" r="4" fill="#0" id="circle3"/>
	<circle cx="49.835" cy="554.02" r="4" fill="#0" id="circle4"/>
	<circle cx="49.835" cy="652.238" r="4" fill="#0" id="circle5"/>
	<circle cx="53.1089" cy="832.304" r="4" fill="#0" id="circle6"/>
	<circle cx="66.2046" cy="681.703" r="4" fill="#0" id="circle7"/>
	<circle cx="69.4785" cy="750.455" r="4" fill="#0" id="circle8"/>
	<circle cx="76.0264" cy="576.937" r="4" fill="#0" id="circle9"/>
	<circle cx="82.5743" cy="652.238" r="4" fill="#0" id="circle10"/>
	<circle cx="85.8482" cy="819.208" r="4" fill="#0" id="circle11"/>
	<circle cx="92.396" cy="547.472" r="4" fill="#0" id="circle12"/>
	<circle cx="98.9439" cy="681.703" r="4" fill="#0" id="circle13"/>
	<circle cx="102.218" cy="750.455" r="4" fill="#0" id="circle14"/>
	<circle cx="108.766" cy="576.937" r="4" fill="#0" id="circle15"/>
	<circle cx="115.314" cy="652.238" r="4" fill="#0" id="circle16"/>
	<circle cx="118.587" cy="819.208" r="4" fill="#0" id="circle17"/>
	<circle cx="125.135" cy="547.472" r="4" fill="#0" id="circle18"/>
	<circle cx="131.683" cy="681.703" r="4" fill="#0" id="circle19"/>
	<circle cx="134.957" cy="750.455" r="4" fill="#0" id="circle20"/>
	<circle cx="141.505" cy="576.937" r="4" fill="#0" id="circle21"/>
	<circle cx="148.053" cy="10.5479" r="4" fill="#0" id="circle22"/>
	<circle cx="148.053" cy="43.2871" r="4" fill="#0" id="circle23"/>
	<circle cx="148.053" cy="76.0264" r="4" fill="#0" id="circle24"/>
	<circle cx="148.053" cy="108.766" r="4" fill="#0" id="circle25"/>
	<circle cx="148.053" cy="141.505" r="4" fill="#0" id="circle26"/>
	<circle cx="148.053" cy="174.244" r="4" fill="#0" id="circle27"/>
	<circle cx="148.053" cy="206.983" r="4" fill="#0" id="circle28"/>
	<circle cx="148.053" cy="239.723" r="4" fill="#0" id="circle29"/>
	<circle cx="148.053" cy="272.462" r="4" fill="#0" id="circle30"/>
	<circle cx="148.053" cy="305.201" r="4" fill="#0" id="circle31"/>
	<circle cx="148.053" cy="337.941" r="4" fill="#0" id="circle32"/>
	<circle cx="148.053" cy="370.68" r="4" fill="#0" id="circle33"/>
	<circle cx="148.053" cy="403.419" r="4" fill="#0" id="circle34"/>
	<circle cx="148.053" cy="652.238" r="4" fill="#0" id="circle35"/>
	<circle cx="151.327" cy="436.158" r="4" fill="#0" id="circle36"/>
	<circle cx="151.327" cy="819.208" r="4" fill="#0" id="circle37"/>
	<circle cx="157.875" cy="547.472" r="4" fill="#0" id="circle38"/>
	<circle cx="164.422" cy="681.703" r="4" fill="#0" id="circle39"/>
	<circle cx="167.696" cy="750.455" r="4" fill="#0" id="circle40"/>
	<circle cx="174.244" cy="576.937" r="4" fill="#0" id="circle41"/>
	<circle cx="180.792" cy="4" r="4" fill="#0" id="circle42"/>
	<circle cx="180.792" cy="652.238" r="4" fill="#0" id="circle43"/>
	<circle cx="184.066" cy="439.432" r="4" fill="#0" id="circle44"/>
	<circle cx="184.066" cy="819.208" r="4" fill="#0" id="circle45"/>
	<circle cx="190.614" cy="547.472" r="4" fill="#0" id="circle46"/>
	<circle cx="197.162" cy="681.703" r="4" fill="#0" id="circle47"/>
	<circle cx="200.436" cy="750.455" r="4" fill="#0" id="circle48"/>
	<circle cx="206.983" cy="576.937" r="4" fill="#0" id="circle49"/>
	<circle cx="213.531" cy="4" r="4" fill="#0" id="circle50"/>
	<circle cx="213.531" cy="652.238" r="4" fill="#0" id="circle51"/>
	<circle cx="216.805" cy="439.432" r="4" fill="#0" id="circle52"/>
	<circle cx="216.805" cy="819.208" r="4" fill="#0" id="circle53"/>
	<circle cx="223.353" cy="547.472" r="4" fill="#0" id="circle54"/>
	<circle cx="229.901" cy="681.703" r="4" fill="#0" id="circle55"/>
	<circle cx="233.175" cy="750.455" r="4" fill="#0" id="circle56"/>
	<circle cx="239.723" cy="576.937" r="4" fill="#0" id="circle57"/>
	<circle cx="246.271" cy="4" r="4" fill="#0" id="circle58"/>
	<circle cx="246.271" cy="652.238" r="4" fill="#0" id="circle59"/>
	<circle cx="249.545" cy="439.432" r="4" fill="#0" id="circle60"/>
	<circle cx="249.545" cy="819.208" r="4" fill="#0" id="circle61"/>
	<circle cx="256.092" cy="547.472" r="4" fill="#0" id="circle62"/>
	<circle cx="262.64" cy="681.703" r="4" fill="#0" id="circle63"/>
	<circle cx="265.914" cy="750.455" r="4" fill="#0" id="circle64"/>
	<circle cx="272.462" cy="576.937" r="4" fill="#0" id="circle65"/>
	<circle cx="279.01" cy="4" r="4" fill="#0" id="circle66"/>
	<circle cx="279.01" cy="652.238" r="4" fill="#0" id="circle67"/>
	<circle cx="282.284" cy="439.432" r="4" fill="#0" id="circle68"/>
	<circle cx="282.284" cy="819.208" r="4" fill="#0" id="circle69"/>
	<circle cx="288.832" cy="547.472" r="4" fill="#0" id="circle70"/>
	<circle cx="292.106" cy="770.099" r="4" fill="#0" id="circle71"/>
	<circle cx="295.38" cy="681.703" r="4" fill="#0" id="circle72"/>
	<circle cx="305.201" cy="576.937" r="4" fill="#0" id="circle73"/>
	<circle cx="311.749" cy="4" r="4" fill="#0" id="circle74"/>
	<circle cx="311.749" cy="652.238" r="4" fill="#0" id="circle75"/>
	<circle cx="315.023" cy="439.432" r="4" fill="#0" id="circle76"/>
	<circle cx="315.023" cy="819.208" r="4" fill="#0" id="circle77"/>
	<circle cx="318.297" cy="750.455" r="4" fill="#0" id="circle78"/>
	<circle cx="321.571" cy="547.472" r="4" fill="#0" id="circle79"/>
	<circle cx="328.119" cy="681.703" r="4" fill="#0" id="circle80"/>
	<circle cx="337.941" cy="576.937" r="4" fill="#0" id="circle81"/>
	<circle cx="344.488" cy="4" r="4" fill="#0" id="circle82"/>
	<circle cx="344.488" cy="652.238" r="4" fill="#0" id="circle83"/>
	<circle cx="344.488" cy="770.099" r="4" fill="#0" id="circle84"/>
	<circle cx="347.762" cy="439.432" r="4" fill="#0" id="circle85"/>
	<circle cx="347.762" cy="819.208" r="4" fill="#0" id="circle86"/>
	<circle cx="354.31" cy="547.472" r="4" fill="#0" id="circle87"/>
	<circle cx="360.858" cy="681.703" r="4" fill="#0" id="circle88"/>
	<circle cx="370.68" cy="576.937" r="4" fill="#0" id="circle89"/>
	<circle cx="370.68" cy="750.455" r="4" fill="#0" id="circle90"/>
	<circle cx="377.228" cy="4" r="4" fill="#0" id="circle91"/>
	<circle cx="377.228" cy="652.238" r="4" fill="#0" id="circle92"/>
	<circle cx="380.502" cy="439.432" r="4" fill="#0" id="circle93"/>
	<circle cx="380.502" cy="819.208" r="4" fill="#0" id="circle94"/>
	<circle cx="387.05" cy="547.472" r="4" fill="#0" id="circle95"/>
	<circle cx="393.597" cy="681.703" r="4" fill="#0" id="circle96"/>
	<circle cx="396.871" cy="770.099" r="4" fill="#0" id="circle97"/>
	<circle cx="403.419" cy="576.937" r="4" fill="#0" id="circle98"/>
	<circle cx="409.967" cy="4" r="4" fill="#0" id="circle99"/>
	<circle cx="409.967" cy="652.238" r="4" fill="#0" id="circle100"/>
	<circle cx="413.241" cy="439.432" r="4" fill="#0" id="circle101"/>
	<circle cx="413.241" cy="819.208" r="4" fill="#0" id="circle102"/>
	<circle cx="419.789" cy="547.472" r="4" fill="#0" id="circle103"/>
	<circle cx="423.063" cy="750.455" r="4" fill="#0" id="circle104"/>
	<circle cx="426.337" cy="681.703" r="4" fill="#0" id="circle105"/>
	<circle cx="436.158" cy="465.624" r="4" fill="#0" id="circle106"/>
	<circle cx="436.158" cy="498.363" r="4" fill="#0" id="circle107"/>
	<circle cx="436.158" cy="580.211" r="4" fill="#0" id="circle108"/>
	<circle cx="436.158" cy="612.95" r="4" fill="#0" id="circle109"/>
	<circle cx="436.158" cy="714.442" r="4" fill="#0" id="circle110"/>
	<circle cx="442.706" cy="4" r="4" fill="#0" id="circle111"/>
	<circle cx="445.98" cy="819.208" r="4" fill="#0" id="circle112"/>
	<circle cx="475.446" cy="4" r="4" fill="#0" id="circle113"/>
	<circle cx="478.719" cy="819.208" r="4" fill="#0" id="circle114"/>
	<circle cx="508.185" cy="4" r="4" fill="#0" id="circle115"/>
	<circle cx="511.459" cy="819.208" r="4" fill="#0" id="circle116"/>
	<circle cx="540.924" cy="4" r="4" fill="#0" id="circle117"/>
	<circle cx="544.198" cy="819.208" r="4" fill="#0" id="circle118"/>
	<circle cx="573.663" cy="4" r="4" fill="#0" id="circle119"/>
	<circle cx="576.937" cy="819.208" r="4" fill="#0" id="circle120"/>
	<circle cx="606.403" cy="4" r="4" fill="#0" id="circle121"/>
	<circle cx="609.677" cy="819.208" r="4" fill="#0" id="circle122"/>
	<circle cx="629.32" cy="442.706" r="4" fill="#0" id="circle123"/>
	<circle cx="629.32" cy="475.446" r="4" fill="#0" id="circle124"/>
	<circle cx="629.32" cy="508.185" r="4" fill="#0" id="circle125"/>
	<circle cx="629.32" cy="540.924" r="4" fill="#0" id="circle126"/>
	<circle cx="629.32" cy="580.211" r="4" fill="#0" id="circle127"/>
	<circle cx="629.32" cy="612.95" r="4" fill="#0" id="circle128"/>
	<circle cx="629.32" cy="645.69" r="4" fill="#0" id="circle129"/>
	<circle cx="629.32" cy="684.977" r="4" fill="#0" id="circle130"/>
	<circle cx="629.32" cy="717.716" r="4" fill="#0" id="circle131"/>
	<circle cx="632.594" cy="750.455" r="4" fill="#0" id="circle132"/>
	<circle cx="639.142" cy="4" r="4" fill="#0" id="circle133"/>
	<circle cx="642.416" cy="819.208" r="4" fill="#0" id="circle134"/>
	<circle cx="658.785" cy="770.099" r="4" fill="#0" id="circle135"/>
	<circle cx="662.059" cy="439.432" r="4" fill="#0" id="circle136"/>
	<circle cx="662.059" cy="547.472" r="4" fill="#0" id="circle137"/>
	<circle cx="662.059" cy="652.238" r="4" fill="#0" id="circle138"/>
	<circle cx="671.881" cy="4" r="4" fill="#0" id="circle139"/>
	<circle cx="675.155" cy="819.208" r="4" fill="#0" id="circle140"/>
	<circle cx="678.429" cy="576.937" r="4" fill="#0" id="circle141"/>
	<circle cx="678.429" cy="681.703" r="4" fill="#0" id="circle142"/>
	<circle cx="684.977" cy="750.455" r="4" fill="#0" id="circle143"/>
	<circle cx="694.799" cy="439.432" r="4" fill="#0" id="circle144"/>
	<circle cx="694.799" cy="547.472" r="4" fill="#0" id="circle145"/>
	<circle cx="694.799" cy="652.238" r="4" fill="#0" id="circle146"/>
	<circle cx="704.62" cy="4" r="4" fill="#0" id="circle147"/>
	<circle cx="707.894" cy="819.208" r="4" fill="#0" id="circle148"/>
	<circle cx="711.168" cy="576.937" r="4" fill="#0" id="circle149"/>
	<circle cx="711.168" cy="681.703" r="4" fill="#0" id="circle150"/>
	<circle cx="711.168" cy="770.099" r="4" fill="#0" id="circle151"/>
	<circle cx="727.538" cy="439.432" r="4" fill="#0" id="circle152"/>
	<circle cx="727.538" cy="547.472" r="4" fill="#0" id="circle153"/>
	<circle cx="727.538" cy="652.238" r="4" fill="#0" id="circle154"/>
	<circle cx="737.36" cy="4" r="4" fill="#0" id="circle155"/>
	<circle cx="737.36" cy="750.455" r="4" fill="#0" id="circle156"/>
	<circle cx="740.634" cy="819.208" r="4" fill="#0" id="circle157"/>
	<circle cx="743.908" cy="576.937" r="4" fill="#0" id="circle158"/>
	<circle cx="743.908" cy="681.703" r="4" fill="#0" id="circle159"/>
	<circle cx="760.277" cy="439.432" r="4" fill="#0" id="circle160"/>
	<circle cx="760.277" cy="547.472" r="4" fill="#0" id="circle161"/>
	<circle cx="760.277" cy="652.238" r="4" fill="#0" id="circle162"/>
	<circle cx="770.099" cy="4" r="4" fill="#0" id="circle163"/>
	<circle cx="770.099" cy="750.455" r="4" fill="#0" id="circle164"/>
	<circle cx="773.373" cy="819.208" r="4" fill="#0" id="circle165"/>
	<circle cx="776.647" cy="576.937" r="4" fill="#0" id="circle166"/>
	<circle cx="776.647" cy="681.703" r="4" fill="#0" id="circle167"/>
	<circle cx="793.017" cy="439.432" r="4" fill="#0" id="circle168"/>
	<circle cx="793.017" cy="547.472" r="4" fill="#0" id="circle169"/>
	<circle cx="793.017" cy="652.238" r="4" fill="#0" id="circle170"/>
	<circle cx="802.838" cy="4" r="4" fill="#0" id="circle171"/>
	<circle cx="802.838" cy="750.455" r="4" fill="#0" id="circle172"/>
	<circle cx="806.112" cy="819.208" r="4" fill="#0" id="circle173"/>
	<circle cx="809.386" cy="576.937" r="4" fill="#0" id="circle174"/>
	<circle cx="809.386" cy="681.703" r="4" fill="#0" id="circle175"/>
	<circle cx="825.756" cy="439.432" r="4" fill="#0" id="circle176"/>
	<circle cx="825.756" cy="547.472" r="4" fill="#0" id="circle177"/>
	<circle cx="825.756" cy="652.238" r="4" fill="#0" id="circle178"/>
	<circle cx="835.578" cy="4" r="4" fill="#0" id="circle179"/>
	<circle cx="835.578" cy="750.455" r="4" fill="#0" id="circle180"/>
	<circle cx="838.851" cy="825.756" r="4" fill="#0" id="circle181"/>
	<circle cx="842.125" cy="576.937" r="4" fill="#0" id="circle182"/>
	<circle cx="842.125" cy="681.703" r="4" fill="#0" id="circle183"/>
	<circle cx="858.495" cy="436.158" r="4" fill="#0" id="circle184"/>
	<circle cx="858.495" cy="547.472" r="4" fill="#0" id="circle185"/>
	<circle cx="858.495" cy="652.238" r="4" fill="#0" id="circle186"/>
	<circle cx="868.317" cy="13.8218" r="4" fill="#0" id="circle187"/>
	<circle cx="868.317" cy="750.455" r="4" fill="#0" id="circle188"/>
	<circle cx="871.591" cy="46.5611" r="4" fill="#0" id="circle189"/>
	<circle cx="871.591" cy="79.3003" r="4" fill="#0" id="circle190"/>
	<circle cx="871.591" cy="112.04" r="4" fill="#0" id="circle191"/>
	<circle cx="871.591" cy="144.779" r="4" fill="#0" id="circle192"/>
	<circle cx="871.591" cy="177.518" r="4" fill="#0" id="circle193"/>
	<circle cx="871.591" cy="210.257" r="4" fill="#0" id="circle194"/>
	<circle cx="871.591" cy="242.997" r="4" fill="#0" id="circle195"/>
	<circle cx="871.591" cy="275.736" r="4" fill="#0" id="circle196"/>
	<circle cx="871.591" cy="308.475" r="4" fill="#0" id="circle197"/>
	<circle cx="871.591" cy="341.215" r="4" fill="#0" id="circle198"/>
	<circle cx="871.591" cy="373.954" r="4" fill="#0" id="circle199"/>
	<circle cx="871.591" cy="819.208" r="4" fill="#0" id="circle200"/>
	<circle cx="874.865" cy="576.937" r="4" fill="#0" id="circle201"/>
	<circle cx="874.865" cy="681.703" r="4" fill="#0" id="circle202"/>
	<circle cx="891.234" cy="547.472" r="4" fill="#0" id="circle203"/>
	<circle cx="891.234" cy="652.238" r="4" fill="#0" id="circle204"/>
	<circle cx="901.056" cy="750.455" r="4" fill="#0" id="circle205"/>
	<circle cx="904.33" cy="819.208" r="4" fill="#0" id="circle206"/>
	<circle cx="933.795" cy="750.455" r="4" fill="#0" id="circle207"/>
	<circle cx="937.069" cy="819.208" r="4" fill="#0" id="circle208"/>
	<circle cx="966.535" cy="750.455" r="4" fill="#0" id="circle209"/>
	<circle cx="969.809" cy="822.482" r="4" fill="#0" id="circle210"/>
	<circle cx="996" cy="766.825" r="4" fill="#0" id="circle211"/>
	<circle cx="996" cy="799.564" r="4" fill="#0" id="circle212"/>
	</g>
</svg>