<?xml version="1.0" encoding="UTF-8" standalone="no"?>
<!-- Created with CurveBenchmark -->
<svg
	xmlns:dc="http://purl.org/dc/elements/1.1/"
	xmlns:cc="http://creativecommons.org/ns#"
	xmlns:rdf="http://www.w3.org/1999/02/22-rdf-syntax-ns#"
	xmlns:svg="http://www.w3.org/2000/svg"
	xmlns="http://www.w3.org/2000/svg"
	xmlns:sodipodi="http://sodipodi.sourceforge.net/DTD/sodipodi-0.dtd"
	xmlns:inkscape="http://www.inkscape.org/namespaces/inkscape"
	width="1000"
	height="1000"
	id="svg2"
	version="1.1"
	sodipodi:docname="manifold/connect2d-face11.png.txt">
<defs
	id="defs4" />
<metadata
	id="metadata7">
	<rdf:RDF>
		<cc:Work
			rdf:about="">
			<dc:format>image/svg+xml</dc:format>
			<dc:type
				rdf:resource="http://purl.org/dc/dcmitype/StillImage" />
			<dc:title></dc:title>
		</cc:Work>
	</rdf:RDF>
</metadata>
<g
	inkscape:label="Layer 1"
	inkscape:groupmode="layer"
	id="layer1">
	<path style="fill:none;stroke:red;stroke-width:1px;stroke-linecap:butt;stroke-linejoin:miter;stroke-opacity:1" d="M 619.498,449.254 611.314,472.172 z" id="boundary" inkscape:connector-curvature="0" />
	<path style="fill:none;stroke:red;stroke-width:1px;stroke-linecap:butt;stroke-linejoin:miter;stroke-opacity:1" d="M 611.314,472.172 611.314,488.541 z" id="boundary" inkscape:connector-curvature="0" />
	<path style="fill:none;stroke:red;stroke-width:1px;stroke-linecap:butt;stroke-linejoin:miter;stroke-opacity:1" d="M 611.314,488.541 611.314,504.911 z" id="boundary" inkscape:connector-curvature="0" />
	<path style="fill:none;stroke:red;stroke-width:1px;stroke-linecap:butt;stroke-linejoin:miter;stroke-opacity:1" d="M 611.314,504.911 611.314,521.281 z" id="boundary" inkscape:connector-curvature="0" />
	<path style="fill:none;stroke:red;stroke-width:1px;stroke-linecap:butt;stroke-linejoin:miter;stroke-opacity:1" d="M 611.314,521.281 603.129,545.835 z" id="boundary" inkscape:connector-curvature="0" />
	<path style="fill:none;stroke:red;stroke-width:1px;stroke-linecap:butt;stroke-linejoin:miter;stroke-opacity:1" d="M 603.129,545.835 594.944,570.389 z" id="boundary" inkscape:connector-curvature="0" />
	<path style="fill:none;stroke:red;stroke-width:1px;stroke-linecap:butt;stroke-linejoin:miter;stroke-opacity:1" d="M 594.944,570.389 583.485,591.67 z" id="boundary" inkscape:connector-curvature="0" />
	<path style="fill:none;stroke:red;stroke-width:1px;stroke-linecap:butt;stroke-linejoin:miter;stroke-opacity:1" d="M 583.485,591.67 570.389,603.129 z" id="boundary" inkscape:connector-curvature="0" />
	<path style="fill:none;stroke:red;stroke-width:1px;stroke-linecap:butt;stroke-linejoin:miter;stroke-opacity:1" d="M 570.389,603.129 554.02,611.314 z" id="boundary" inkscape:connector-curvature="0" />
	<path style="fill:none;stroke:red;stroke-width:1px;stroke-linecap:butt;stroke-linejoin:miter;stroke-opacity:1" d="M 554.02,611.314 554.02,627.683 z" id="boundary" inkscape:connector-curvature="0" />
	<path style="fill:none;stroke:red;stroke-width:1px;stroke-linecap:butt;stroke-linejoin:miter;stroke-opacity:1" d="M 554.02,627.683 545.835,652.238 z" id="boundary" inkscape:connector-curvature="0" />
	<path style="fill:none;stroke:red;stroke-width:1px;stroke-linecap:butt;stroke-linejoin:miter;stroke-opacity:1" d="M 545.835,652.238 542.561,681.703 z" id="boundary" inkscape:connector-curvature="0" />
	<path style="fill:none;stroke:red;stroke-width:1px;stroke-linecap:butt;stroke-linejoin:miter;stroke-opacity:1" d="M 542.561,681.703 529.465,693.162 z" id="boundary" inkscape:connector-curvature="0" />
	<path style="fill:none;stroke:red;stroke-width:1px;stroke-linecap:butt;stroke-linejoin:miter;stroke-opacity:1" d="M 529.465,693.162 521.281,709.531 z" id="boundary" inkscape:connector-curvature="0" />
	<path style="fill:none;stroke:red;stroke-width:1px;stroke-linecap:butt;stroke-linejoin:miter;stroke-opacity:1" d="M 521.281,709.531 513.096,734.086 z" id="boundary" inkscape:connector-curvature="0" />
	<path style="fill:none;stroke:red;stroke-width:1px;stroke-linecap:butt;stroke-linejoin:miter;stroke-opacity:1" d="M 513.096,734.086 513.096,750.455 z" id="boundary" inkscape:connector-curvature="0" />
	<path style="fill:none;stroke:red;stroke-width:1px;stroke-linecap:butt;stroke-linejoin:miter;stroke-opacity:1" d="M 513.096,750.455 513.096,766.825 z" id="boundary" inkscape:connector-curvature="0" />
	<path style="fill:none;stroke:red;stroke-width:1px;stroke-linecap:butt;stroke-linejoin:miter;stroke-opacity:1" d="M 513.096,766.825 513.096,783.195 z" id="boundary" inkscape:connector-curvature="0" />
	<path style="fill:none;stroke:red;stroke-width:1px;stroke-linecap:butt;stroke-linejoin:miter;stroke-opacity:1" d="M 513.096,783.195 513.096,799.564 z" id="boundary" inkscape:connector-curvature="0" />
	<path style="fill:none;stroke:red;stroke-width:1px;stroke-linecap:butt;stroke-linejoin:miter;stroke-opacity:1" d="M 513.096,799.564 513.096,815.934 z" id="boundary" inkscape:connector-curvature="0" />
	<path style="fill:none;stroke:red;stroke-width:1px;stroke-linecap:butt;stroke-linejoin:miter;stroke-opacity:1" d="M 513.096,815.934 504.911,832.304 z" id="boundary" inkscape:connector-curvature="0" />
	<path style="fill:none;stroke:red;stroke-width:1px;stroke-linecap:butt;stroke-linejoin:miter;stroke-opacity:1" d="M 504.911,832.304 496.726,856.858 z" id="boundary" inkscape:connector-curvature="0" />
	<path style="fill:none;stroke:red;stroke-width:1px;stroke-linecap:butt;stroke-linejoin:miter;stroke-opacity:1" d="M 496.726,856.858 485.267,869.954 z" id="boundary" inkscape:connector-curvature="0" />
	<path style="fill:none;stroke:red;stroke-width:1px;stroke-linecap:butt;stroke-linejoin:miter;stroke-opacity:1" d="M 485.267,869.954 477.083,886.323 z" id="boundary" inkscape:connector-curvature="0" />
	<path style="fill:none;stroke:red;stroke-width:1px;stroke-linecap:butt;stroke-linejoin:miter;stroke-opacity:1" d="M 477.083,886.323 463.987,897.782 z" id="boundary" inkscape:connector-curvature="0" />
	<path style="fill:none;stroke:red;stroke-width:1px;stroke-linecap:butt;stroke-linejoin:miter;stroke-opacity:1" d="M 463.987,897.782 455.802,914.152 z" id="boundary" inkscape:connector-curvature="0" />
	<path style="fill:none;stroke:red;stroke-width:1px;stroke-linecap:butt;stroke-linejoin:miter;stroke-opacity:1" d="M 455.802,914.152 449.254,930.521 z" id="boundary" inkscape:connector-curvature="0" />
	<path style="fill:none;stroke:red;stroke-width:1px;stroke-linecap:butt;stroke-linejoin:miter;stroke-opacity:1" d="M 449.254,930.521 434.521,938.706 z" id="boundary" inkscape:connector-curvature="0" />
	<path style="fill:none;stroke:red;stroke-width:1px;stroke-linecap:butt;stroke-linejoin:miter;stroke-opacity:1" d="M 434.521,938.706 421.426,950.165 z" id="boundary" inkscape:connector-curvature="0" />
	<path style="fill:none;stroke:red;stroke-width:1px;stroke-linecap:butt;stroke-linejoin:miter;stroke-opacity:1" d="M 421.426,950.165 405.056,958.35 z" id="boundary" inkscape:connector-curvature="0" />
	<path style="fill:none;stroke:red;stroke-width:1px;stroke-linecap:butt;stroke-linejoin:miter;stroke-opacity:1" d="M 405.056,958.35 388.686,966.535 z" id="boundary" inkscape:connector-curvature="0" />
	<path style="fill:none;stroke:red;stroke-width:1px;stroke-linecap:butt;stroke-linejoin:miter;stroke-opacity:1" d="M 388.686,966.535 375.591,979.63 z" id="boundary" inkscape:connector-curvature="0" />
	<path style="fill:none;stroke:red;stroke-width:1px;stroke-linecap:butt;stroke-linejoin:miter;stroke-opacity:1" d="M 375.591,979.63 360.858,987.815 z" id="boundary" inkscape:connector-curvature="0" />
	<path style="fill:none;stroke:red;stroke-width:1px;stroke-linecap:butt;stroke-linejoin:miter;stroke-opacity:1" d="M 360.858,987.815 344.488,994.363 z" id="boundary" inkscape:connector-curvature="0" />
	<path style="fill:none;stroke:red;stroke-width:1px;stroke-linecap:butt;stroke-linejoin:miter;stroke-opacity:1" d="M 344.488,994.363 328.119,996 z" id="boundary" inkscape:connector-curvature="0" />
	<path style="fill:none;stroke:red;stroke-width:1px;stroke-linecap:butt;stroke-linejoin:miter;stroke-opacity:1" d="M 328.119,996 311.749,996 z" id="boundary" inkscape:connector-curvature="0" />
	<path style="fill:none;stroke:red;stroke-width:1px;stroke-linecap:butt;stroke-linejoin:miter;stroke-opacity:1" d="M 311.749,996 295.38,996 z" id="boundary" inkscape:connector-curvature="0" />
	<path style="fill:none;stroke:red;stroke-width:1px;stroke-linecap:butt;stroke-linejoin:miter;stroke-opacity:1" d="M 295.38,996 283.921,982.904 z" id="boundary" inkscape:connector-curvature="0" />
	<path style="fill:none;stroke:red;stroke-width:1px;stroke-linecap:butt;stroke-linejoin:miter;stroke-opacity:1" d="M 283.921,982.904 267.551,976.356 z" id="boundary" inkscape:connector-curvature="0" />
	<path style="fill:none;stroke:red;stroke-width:1px;stroke-linecap:butt;stroke-linejoin:miter;stroke-opacity:1" d="M 267.551,976.356 256.092,963.261 z" id="boundary" inkscape:connector-curvature="0" />
	<path style="fill:none;stroke:red;stroke-width:1px;stroke-linecap:butt;stroke-linejoin:miter;stroke-opacity:1" d="M 256.092,963.261 242.997,951.802 z" id="boundary" inkscape:connector-curvature="0" />
	<path style="fill:none;stroke:red;stroke-width:1px;stroke-linecap:butt;stroke-linejoin:miter;stroke-opacity:1" d="M 242.997,951.802 233.175,938.706 z" id="boundary" inkscape:connector-curvature="0" />
	<path style="fill:none;stroke:red;stroke-width:1px;stroke-linecap:butt;stroke-linejoin:miter;stroke-opacity:1" d="M 233.175,938.706 216.805,933.795 z" id="boundary" inkscape:connector-curvature="0" />
	<path style="fill:none;stroke:red;stroke-width:1px;stroke-linecap:butt;stroke-linejoin:miter;stroke-opacity:1" d="M 216.805,933.795 205.347,920.7 z" id="boundary" inkscape:connector-curvature="0" />
	<path style="fill:none;stroke:red;stroke-width:1px;stroke-linecap:butt;stroke-linejoin:miter;stroke-opacity:1" d="M 205.347,920.7 192.251,909.241 z" id="boundary" inkscape:connector-curvature="0" />
	<path style="fill:none;stroke:red;stroke-width:1px;stroke-linecap:butt;stroke-linejoin:miter;stroke-opacity:1" d="M 192.251,909.241 180.792,896.145 z" id="boundary" inkscape:connector-curvature="0" />
	<path style="fill:none;stroke:red;stroke-width:1px;stroke-linecap:butt;stroke-linejoin:miter;stroke-opacity:1" d="M 180.792,896.145 167.696,884.686 z" id="boundary" inkscape:connector-curvature="0" />
	<path style="fill:none;stroke:red;stroke-width:1px;stroke-linecap:butt;stroke-linejoin:miter;stroke-opacity:1" d="M 167.696,884.686 159.512,869.954 z" id="boundary" inkscape:connector-curvature="0" />
	<path style="fill:none;stroke:red;stroke-width:1px;stroke-linecap:butt;stroke-linejoin:miter;stroke-opacity:1" d="M 159.512,869.954 151.327,855.221 z" id="boundary" inkscape:connector-curvature="0" />
	<path style="fill:none;stroke:red;stroke-width:1px;stroke-linecap:butt;stroke-linejoin:miter;stroke-opacity:1" d="M 151.327,855.221 143.142,840.488 z" id="boundary" inkscape:connector-curvature="0" />
	<path style="fill:none;stroke:red;stroke-width:1px;stroke-linecap:butt;stroke-linejoin:miter;stroke-opacity:1" d="M 143.142,840.488 143.142,824.119 z" id="boundary" inkscape:connector-curvature="0" />
	<path style="fill:none;stroke:red;stroke-width:1px;stroke-linecap:butt;stroke-linejoin:miter;stroke-opacity:1" d="M 143.142,824.119 143.142,807.749 z" id="boundary" inkscape:connector-curvature="0" />
	<path style="fill:none;stroke:red;stroke-width:1px;stroke-linecap:butt;stroke-linejoin:miter;stroke-opacity:1" d="M 143.142,807.749 143.142,791.38 z" id="boundary" inkscape:connector-curvature="0" />
	<path style="fill:none;stroke:red;stroke-width:1px;stroke-linecap:butt;stroke-linejoin:miter;stroke-opacity:1" d="M 143.142,791.38 143.142,775.01 z" id="boundary" inkscape:connector-curvature="0" />
	<path style="fill:none;stroke:red;stroke-width:1px;stroke-linecap:butt;stroke-linejoin:miter;stroke-opacity:1" d="M 143.142,775.01 143.142,758.64 z" id="boundary" inkscape:connector-curvature="0" />
	<path style="fill:none;stroke:red;stroke-width:1px;stroke-linecap:butt;stroke-linejoin:miter;stroke-opacity:1" d="M 143.142,758.64 126.772,753.729 z" id="boundary" inkscape:connector-curvature="0" />
	<path style="fill:none;stroke:red;stroke-width:1px;stroke-linecap:butt;stroke-linejoin:miter;stroke-opacity:1" d="M 126.772,753.729 118.587,738.997 z" id="boundary" inkscape:connector-curvature="0" />
	<path style="fill:none;stroke:red;stroke-width:1px;stroke-linecap:butt;stroke-linejoin:miter;stroke-opacity:1" d="M 118.587,738.997 110.403,724.264 z" id="boundary" inkscape:connector-curvature="0" />
	<path style="fill:none;stroke:red;stroke-width:1px;stroke-linecap:butt;stroke-linejoin:miter;stroke-opacity:1" d="M 110.403,724.264 102.218,709.531 z" id="boundary" inkscape:connector-curvature="0" />
	<path style="fill:none;stroke:red;stroke-width:1px;stroke-linecap:butt;stroke-linejoin:miter;stroke-opacity:1" d="M 102.218,709.531 98.9439,693.162 z" id="boundary" inkscape:connector-curvature="0" />
	<path style="fill:none;stroke:red;stroke-width:1px;stroke-linecap:butt;stroke-linejoin:miter;stroke-opacity:1" d="M 98.9439,693.162 94.033,676.792 z" id="boundary" inkscape:connector-curvature="0" />
	<path style="fill:none;stroke:red;stroke-width:1px;stroke-linecap:butt;stroke-linejoin:miter;stroke-opacity:1" d="M 94.033,676.792 94.033,660.422 z" id="boundary" inkscape:connector-curvature="0" />
	<path style="fill:none;stroke:red;stroke-width:1px;stroke-linecap:butt;stroke-linejoin:miter;stroke-opacity:1" d="M 94.033,660.422 92.396,644.053 z" id="boundary" inkscape:connector-curvature="0" />
	<path style="fill:none;stroke:red;stroke-width:1px;stroke-linecap:butt;stroke-linejoin:miter;stroke-opacity:1" d="M 92.396,644.053 79.3003,632.594 z" id="boundary" inkscape:connector-curvature="0" />
	<path style="fill:none;stroke:red;stroke-width:1px;stroke-linecap:butt;stroke-linejoin:miter;stroke-opacity:1" d="M 79.3003,632.594 69.4785,619.498 z" id="boundary" inkscape:connector-curvature="0" />
	<path style="fill:none;stroke:red;stroke-width:1px;stroke-linecap:butt;stroke-linejoin:miter;stroke-opacity:1" d="M 69.4785,619.498 61.2937,604.766 z" id="boundary" inkscape:connector-curvature="0" />
	<path style="fill:none;stroke:red;stroke-width:1px;stroke-linecap:butt;stroke-linejoin:miter;stroke-opacity:1" d="M 61.2937,604.766 53.1089,590.033 z" id="boundary" inkscape:connector-curvature="0" />
	<path style="fill:none;stroke:red;stroke-width:1px;stroke-linecap:butt;stroke-linejoin:miter;stroke-opacity:1" d="M 53.1089,590.033 44.9241,575.3 z" id="boundary" inkscape:connector-curvature="0" />
	<path style="fill:none;stroke:red;stroke-width:1px;stroke-linecap:butt;stroke-linejoin:miter;stroke-opacity:1" d="M 44.9241,575.3 36.7393,560.568 z" id="boundary" inkscape:connector-curvature="0" />
	<path style="fill:none;stroke:red;stroke-width:1px;stroke-linecap:butt;stroke-linejoin:miter;stroke-opacity:1" d="M 36.7393,560.568 33.4653,544.198 z" id="boundary" inkscape:connector-curvature="0" />
	<path style="fill:none;stroke:red;stroke-width:1px;stroke-linecap:butt;stroke-linejoin:miter;stroke-opacity:1" d="M 33.4653,544.198 25.2805,529.465 z" id="boundary" inkscape:connector-curvature="0" />
	<path style="fill:none;stroke:red;stroke-width:1px;stroke-linecap:butt;stroke-linejoin:miter;stroke-opacity:1" d="M 25.2805,529.465 20.3696,513.096 z" id="boundary" inkscape:connector-curvature="0" />
	<path style="fill:none;stroke:red;stroke-width:1px;stroke-linecap:butt;stroke-linejoin:miter;stroke-opacity:1" d="M 20.3696,513.096 12.1848,498.363 z" id="boundary" inkscape:connector-curvature="0" />
	<path style="fill:none;stroke:red;stroke-width:1px;stroke-linecap:butt;stroke-linejoin:miter;stroke-opacity:1" d="M 12.1848,498.363 4,483.63 z" id="boundary" inkscape:connector-curvature="0" />
	<path style="fill:none;stroke:red;stroke-width:1px;stroke-linecap:butt;stroke-linejoin:miter;stroke-opacity:1" d="M 4,483.63 4,467.261 z" id="boundary" inkscape:connector-curvature="0" />
	<path style="fill:none;stroke:red;stroke-width:1px;stroke-linecap:butt;stroke-linejoin:miter;stroke-opacity:1" d="M 4,467.261 4,450.891 z" id="boundary" inkscape:connector-curvature="0" />
	<path style="fill:none;stroke:red;stroke-width:1px;stroke-linecap:butt;stroke-linejoin:miter;stroke-opacity:1" d="M 4,450.891 17.0957,437.795 z" id="boundary" inkscape:connector-curvature="0" />
	<path style="fill:none;stroke:red;stroke-width:1px;stroke-linecap:butt;stroke-linejoin:miter;stroke-opacity:1" d="M 17.0957,437.795 31.8284,429.611 z" id="boundary" inkscape:connector-curvature="0" />
	<path style="fill:none;stroke:red;stroke-width:1px;stroke-linecap:butt;stroke-linejoin:miter;stroke-opacity:1" d="M 31.8284,429.611 36.7393,409.967 z" id="boundary" inkscape:connector-curvature="0" />
	<path style="fill:none;stroke:red;stroke-width:1px;stroke-linecap:butt;stroke-linejoin:miter;stroke-opacity:1" d="M 36.7393,409.967 36.7393,393.597 z" id="boundary" inkscape:connector-curvature="0" />
	<path style="fill:none;stroke:red;stroke-width:1px;stroke-linecap:butt;stroke-linejoin:miter;stroke-opacity:1" d="M 36.7393,393.597 36.7393,377.228 z" id="boundary" inkscape:connector-curvature="0" />
	<path style="fill:none;stroke:red;stroke-width:1px;stroke-linecap:butt;stroke-linejoin:miter;stroke-opacity:1" d="M 36.7393,377.228 36.7393,360.858 z" id="boundary" inkscape:connector-curvature="0" />
	<path style="fill:none;stroke:red;stroke-width:1px;stroke-linecap:butt;stroke-linejoin:miter;stroke-opacity:1" d="M 36.7393,360.858 36.7393,344.488 z" id="boundary" inkscape:connector-curvature="0" />
	<path style="fill:none;stroke:red;stroke-width:1px;stroke-linecap:butt;stroke-linejoin:miter;stroke-opacity:1" d="M 36.7393,344.488 36.7393,328.119 z" id="boundary" inkscape:connector-curvature="0" />
	<path style="fill:none;stroke:red;stroke-width:1px;stroke-linecap:butt;stroke-linejoin:miter;stroke-opacity:1" d="M 36.7393,328.119 36.7393,311.749 z" id="boundary" inkscape:connector-curvature="0" />
	<path style="fill:none;stroke:red;stroke-width:1px;stroke-linecap:butt;stroke-linejoin:miter;stroke-opacity:1" d="M 36.7393,311.749 36.7393,295.38 z" id="boundary" inkscape:connector-curvature="0" />
	<path style="fill:none;stroke:red;stroke-width:1px;stroke-linecap:butt;stroke-linejoin:miter;stroke-opacity:1" d="M 36.7393,295.38 36.7393,279.01 z" id="boundary" inkscape:connector-curvature="0" />
	<path style="fill:none;stroke:red;stroke-width:1px;stroke-linecap:butt;stroke-linejoin:miter;stroke-opacity:1" d="M 36.7393,279.01 36.7393,262.64 z" id="boundary" inkscape:connector-curvature="0" />
	<path style="fill:none;stroke:red;stroke-width:1px;stroke-linecap:butt;stroke-linejoin:miter;stroke-opacity:1" d="M 36.7393,262.64 44.9241,238.086 z" id="boundary" inkscape:connector-curvature="0" />
	<path style="fill:none;stroke:red;stroke-width:1px;stroke-linecap:butt;stroke-linejoin:miter;stroke-opacity:1" d="M 44.9241,238.086 44.9241,221.716 z" id="boundary" inkscape:connector-curvature="0" />
	<path style="fill:none;stroke:red;stroke-width:1px;stroke-linecap:butt;stroke-linejoin:miter;stroke-opacity:1" d="M 44.9241,221.716 53.1089,197.162 z" id="boundary" inkscape:connector-curvature="0" />
	<path style="fill:none;stroke:red;stroke-width:1px;stroke-linecap:butt;stroke-linejoin:miter;stroke-opacity:1" d="M 53.1089,197.162 53.1089,180.792 z" id="boundary" inkscape:connector-curvature="0" />
	<path style="fill:none;stroke:red;stroke-width:1px;stroke-linecap:butt;stroke-linejoin:miter;stroke-opacity:1" d="M 53.1089,180.792 61.2937,156.238 z" id="boundary" inkscape:connector-curvature="0" />
	<path style="fill:none;stroke:red;stroke-width:1px;stroke-linecap:butt;stroke-linejoin:miter;stroke-opacity:1" d="M 61.2937,156.238 69.4785,139.868 z" id="boundary" inkscape:connector-curvature="0" />
	<path style="fill:none;stroke:red;stroke-width:1px;stroke-linecap:butt;stroke-linejoin:miter;stroke-opacity:1" d="M 69.4785,139.868 82.5743,126.772 z" id="boundary" inkscape:connector-curvature="0" />
	<path style="fill:none;stroke:red;stroke-width:1px;stroke-linecap:butt;stroke-linejoin:miter;stroke-opacity:1" d="M 82.5743,126.772 94.033,107.129 z" id="boundary" inkscape:connector-curvature="0" />
	<path style="fill:none;stroke:red;stroke-width:1px;stroke-linecap:butt;stroke-linejoin:miter;stroke-opacity:1" d="M 94.033,107.129 107.129,94.033 z" id="boundary" inkscape:connector-curvature="0" />
	<path style="fill:none;stroke:red;stroke-width:1px;stroke-linecap:butt;stroke-linejoin:miter;stroke-opacity:1" d="M 107.129,94.033 118.587,74.3894 z" id="boundary" inkscape:connector-curvature="0" />
	<path style="fill:none;stroke:red;stroke-width:1px;stroke-linecap:butt;stroke-linejoin:miter;stroke-opacity:1" d="M 118.587,74.3894 131.683,61.2937 z" id="boundary" inkscape:connector-curvature="0" />
	<path style="fill:none;stroke:red;stroke-width:1px;stroke-linecap:butt;stroke-linejoin:miter;stroke-opacity:1" d="M 131.683,61.2937 146.416,53.1089 z" id="boundary" inkscape:connector-curvature="0" />
	<path style="fill:none;stroke:red;stroke-width:1px;stroke-linecap:butt;stroke-linejoin:miter;stroke-opacity:1" d="M 146.416,53.1089 159.512,41.6502 z" id="boundary" inkscape:connector-curvature="0" />
	<path style="fill:none;stroke:red;stroke-width:1px;stroke-linecap:butt;stroke-linejoin:miter;stroke-opacity:1" d="M 159.512,41.6502 172.607,28.5545 z" id="boundary" inkscape:connector-curvature="0" />
	<path style="fill:none;stroke:red;stroke-width:1px;stroke-linecap:butt;stroke-linejoin:miter;stroke-opacity:1" d="M 172.607,28.5545 188.977,20.3696 z" id="boundary" inkscape:connector-curvature="0" />
	<path style="fill:none;stroke:red;stroke-width:1px;stroke-linecap:butt;stroke-linejoin:miter;stroke-opacity:1" d="M 188.977,20.3696 205.347,20.3696 z" id="boundary" inkscape:connector-curvature="0" />
	<path style="fill:none;stroke:red;stroke-width:1px;stroke-linecap:butt;stroke-linejoin:miter;stroke-opacity:1" d="M 205.347,20.3696 220.079,12.1848 z" id="boundary" inkscape:connector-curvature="0" />
	<path style="fill:none;stroke:red;stroke-width:1px;stroke-linecap:butt;stroke-linejoin:miter;stroke-opacity:1" d="M 220.079,12.1848 234.812,4 z" id="boundary" inkscape:connector-curvature="0" />
	<path style="fill:none;stroke:red;stroke-width:1px;stroke-linecap:butt;stroke-linejoin:miter;stroke-opacity:1" d="M 234.812,4 251.182,4 z" id="boundary" inkscape:connector-curvature="0" />
	<path style="fill:none;stroke:red;stroke-width:1px;stroke-linecap:butt;stroke-linejoin:miter;stroke-opacity:1" d="M 251.182,4 267.551,4 z" id="boundary" inkscape:connector-curvature="0" />
	<path style="fill:none;stroke:red;stroke-width:1px;stroke-linecap:butt;stroke-linejoin:miter;stroke-opacity:1" d="M 267.551,4 283.921,4 z" id="boundary" inkscape:connector-curvature="0" />
	<path style="fill:none;stroke:red;stroke-width:1px;stroke-linecap:butt;stroke-linejoin:miter;stroke-opacity:1" d="M 283.921,4 300.29,4 z" id="boundary" inkscape:connector-curvature="0" />
	<path style="fill:none;stroke:red;stroke-width:1px;stroke-linecap:butt;stroke-linejoin:miter;stroke-opacity:1" d="M 300.29,4 316.66,4 z" id="boundary" inkscape:connector-curvature="0" />
	<path style="fill:none;stroke:red;stroke-width:1px;stroke-linecap:butt;stroke-linejoin:miter;stroke-opacity:1" d="M 316.66,4 333.03,4 z" id="boundary" inkscape:connector-curvature="0" />
	<path style="fill:none;stroke:red;stroke-width:1px;stroke-linecap:butt;stroke-linejoin:miter;stroke-opacity:1" d="M 333.03,4 349.399,4 z" id="boundary" inkscape:connector-curvature="0" />
	<path style="fill:none;stroke:red;stroke-width:1px;stroke-linecap:butt;stroke-linejoin:miter;stroke-opacity:1" d="M 349.399,4 364.132,12.1848 z" id="boundary" inkscape:connector-curvature="0" />
	<path style="fill:none;stroke:red;stroke-width:1px;stroke-linecap:butt;stroke-linejoin:miter;stroke-opacity:1" d="M 364.132,12.1848 377.228,22.0066 z" id="boundary" inkscape:connector-curvature="0" />
	<path style="fill:none;stroke:red;stroke-width:1px;stroke-linecap:butt;stroke-linejoin:miter;stroke-opacity:1" d="M 377.228,22.0066 390.323,33.4653 z" id="boundary" inkscape:connector-curvature="0" />
	<path style="fill:none;stroke:red;stroke-width:1px;stroke-linecap:butt;stroke-linejoin:miter;stroke-opacity:1" d="M 390.323,33.4653 403.419,44.9241 z" id="boundary" inkscape:connector-curvature="0" />
	<path style="fill:none;stroke:red;stroke-width:1px;stroke-linecap:butt;stroke-linejoin:miter;stroke-opacity:1" d="M 403.419,44.9241 419.789,44.9241 z" id="boundary" inkscape:connector-curvature="0" />
	<path style="fill:none;stroke:red;stroke-width:1px;stroke-linecap:butt;stroke-linejoin:miter;stroke-opacity:1" d="M 419.789,44.9241 434.521,36.7393 z" id="boundary" inkscape:connector-curvature="0" />
	<path style="fill:none;stroke:red;stroke-width:1px;stroke-linecap:butt;stroke-linejoin:miter;stroke-opacity:1" d="M 434.521,36.7393 449.254,44.9241 z" id="boundary" inkscape:connector-curvature="0" />
	<path style="fill:none;stroke:red;stroke-width:1px;stroke-linecap:butt;stroke-linejoin:miter;stroke-opacity:1" d="M 449.254,44.9241 465.624,44.9241 z" id="boundary" inkscape:connector-curvature="0" />
	<path style="fill:none;stroke:red;stroke-width:1px;stroke-linecap:butt;stroke-linejoin:miter;stroke-opacity:1" d="M 465.624,44.9241 480.356,53.1089 z" id="boundary" inkscape:connector-curvature="0" />
	<path style="fill:none;stroke:red;stroke-width:1px;stroke-linecap:butt;stroke-linejoin:miter;stroke-opacity:1" d="M 480.356,53.1089 495.089,61.2937 z" id="boundary" inkscape:connector-curvature="0" />
	<path style="fill:none;stroke:red;stroke-width:1px;stroke-linecap:butt;stroke-linejoin:miter;stroke-opacity:1" d="M 495.089,61.2937 508.185,71.1155 z" id="boundary" inkscape:connector-curvature="0" />
	<path style="fill:none;stroke:red;stroke-width:1px;stroke-linecap:butt;stroke-linejoin:miter;stroke-opacity:1" d="M 508.185,71.1155 521.281,82.5743 z" id="boundary" inkscape:connector-curvature="0" />
	<path style="fill:none;stroke:red;stroke-width:1px;stroke-linecap:butt;stroke-linejoin:miter;stroke-opacity:1" d="M 521.281,82.5743 532.739,95.67 z" id="boundary" inkscape:connector-curvature="0" />
	<path style="fill:none;stroke:red;stroke-width:1px;stroke-linecap:butt;stroke-linejoin:miter;stroke-opacity:1" d="M 532.739,95.67 540.924,110.403 z" id="boundary" inkscape:connector-curvature="0" />
	<path style="fill:none;stroke:red;stroke-width:1px;stroke-linecap:butt;stroke-linejoin:miter;stroke-opacity:1" d="M 540.924,110.403 545.835,126.772 z" id="boundary" inkscape:connector-curvature="0" />
	<path style="fill:none;stroke:red;stroke-width:1px;stroke-linecap:butt;stroke-linejoin:miter;stroke-opacity:1" d="M 545.835,126.772 554.02,141.505 z" id="boundary" inkscape:connector-curvature="0" />
	<path style="fill:none;stroke:red;stroke-width:1px;stroke-linecap:butt;stroke-linejoin:miter;stroke-opacity:1" d="M 554.02,141.505 562.205,156.238 z" id="boundary" inkscape:connector-curvature="0" />
	<path style="fill:none;stroke:red;stroke-width:1px;stroke-linecap:butt;stroke-linejoin:miter;stroke-opacity:1" d="M 562.205,156.238 562.205,172.607 z" id="boundary" inkscape:connector-curvature="0" />
	<path style="fill:none;stroke:red;stroke-width:1px;stroke-linecap:butt;stroke-linejoin:miter;stroke-opacity:1" d="M 562.205,172.607 570.389,187.34 z" id="boundary" inkscape:connector-curvature="0" />
	<path style="fill:none;stroke:red;stroke-width:1px;stroke-linecap:butt;stroke-linejoin:miter;stroke-opacity:1" d="M 570.389,187.34 570.389,203.71 z" id="boundary" inkscape:connector-curvature="0" />
	<path style="fill:none;stroke:red;stroke-width:1px;stroke-linecap:butt;stroke-linejoin:miter;stroke-opacity:1" d="M 570.389,203.71 570.389,220.079 z" id="boundary" inkscape:connector-curvature="0" />
	<path style="fill:none;stroke:red;stroke-width:1px;stroke-linecap:butt;stroke-linejoin:miter;stroke-opacity:1" d="M 570.389,220.079 570.389,236.449 z" id="boundary" inkscape:connector-curvature="0" />
	<path style="fill:none;stroke:red;stroke-width:1px;stroke-linecap:butt;stroke-linejoin:miter;stroke-opacity:1" d="M 570.389,236.449 570.389,252.818 z" id="boundary" inkscape:connector-curvature="0" />
	<path style="fill:none;stroke:red;stroke-width:1px;stroke-linecap:butt;stroke-linejoin:miter;stroke-opacity:1" d="M 570.389,252.818 570.389,269.188 z" id="boundary" inkscape:connector-curvature="0" />
	<path style="fill:none;stroke:red;stroke-width:1px;stroke-linecap:butt;stroke-linejoin:miter;stroke-opacity:1" d="M 570.389,269.188 570.389,285.558 z" id="boundary" inkscape:connector-curvature="0" />
	<path style="fill:none;stroke:red;stroke-width:1px;stroke-linecap:butt;stroke-linejoin:miter;stroke-opacity:1" d="M 570.389,285.558 578.574,300.29 z" id="boundary" inkscape:connector-curvature="0" />
	<path style="fill:none;stroke:red;stroke-width:1px;stroke-linecap:butt;stroke-linejoin:miter;stroke-opacity:1" d="M 578.574,300.29 578.574,316.66 z" id="boundary" inkscape:connector-curvature="0" />
	<path style="fill:none;stroke:red;stroke-width:1px;stroke-linecap:butt;stroke-linejoin:miter;stroke-opacity:1" d="M 578.574,316.66 578.574,333.03 z" id="boundary" inkscape:connector-curvature="0" />
	<path style="fill:none;stroke:red;stroke-width:1px;stroke-linecap:butt;stroke-linejoin:miter;stroke-opacity:1" d="M 578.574,333.03 578.574,349.399 z" id="boundary" inkscape:connector-curvature="0" />
	<path style="fill:none;stroke:red;stroke-width:1px;stroke-linecap:butt;stroke-linejoin:miter;stroke-opacity:1" d="M 578.574,349.399 578.574,365.769 z" id="boundary" inkscape:connector-curvature="0" />
	<path style="fill:none;stroke:red;stroke-width:1px;stroke-linecap:butt;stroke-linejoin:miter;stroke-opacity:1" d="M 578.574,365.769 586.759,380.502 z" id="boundary" inkscape:connector-curvature="0" />
	<path style="fill:none;stroke:red;stroke-width:1px;stroke-linecap:butt;stroke-linejoin:miter;stroke-opacity:1" d="M 586.759,380.502 601.492,388.686 z" id="boundary" inkscape:connector-curvature="0" />
	<path style="fill:none;stroke:red;stroke-width:1px;stroke-linecap:butt;stroke-linejoin:miter;stroke-opacity:1" d="M 601.492,388.686 611.314,401.782 z" id="boundary" inkscape:connector-curvature="0" />
	<path style="fill:none;stroke:red;stroke-width:1px;stroke-linecap:butt;stroke-linejoin:miter;stroke-opacity:1" d="M 611.314,401.782 619.498,416.515 z" id="boundary" inkscape:connector-curvature="0" />
	<path style="fill:none;stroke:red;stroke-width:1px;stroke-linecap:butt;stroke-linejoin:miter;stroke-opacity:1" d="M 619.498,416.515 619.498,432.884 z" id="boundary" inkscape:connector-curvature="0" />
	<path style="fill:none;stroke:red;stroke-width:1px;stroke-linecap:butt;stroke-linejoin:miter;stroke-opacity:1" d="M 619.498,432.884 619.498,449.254 z" id="boundary" inkscape:connector-curvature="0" />
	<circle cx="4" cy="450.891" r="4" fill="#0" id="circle0"/>
	<circle cx="4" cy="467.261" r="4" fill="#0" id="circle1"/>
	<circle cx="4" cy="483.63" r="4" fill="#0" id="circle2"/>
	<circle cx="12.1848" cy="498.363" r="4" fill="#0" id="circle3"/>
	<circle cx="17.0957" cy="437.795" r="4" fill="#0" id="circle4"/>
	<circle cx="20.3696" cy="513.096" r="4" fill="#0" id="circle5"/>
	<circle cx="25.2805" cy="529.465" r="4" fill="#0" id="circle6"/>
	<circle cx="31.8284" cy="429.611" r="4" fill="#0" id="circle7"/>
	<circle cx="33.4653" cy="544.198" r="4" fill="#0" id="circle8"/>
	<circle cx="36.7393" cy="262.64" r="4" fill="#0" id="circle9"/>
	<circle cx="36.7393" cy="279.01" r="4" fill="#0" id="circle10"/>
	<circle cx="36.7393" cy="295.38" r="4" fill="#0" id="circle11"/>
	<circle cx="36.7393" cy="311.749" r="4" fill="#0" id="circle12"/>
	<circle cx="36.7393" cy="328.119" r="4" fill="#0" id="circle13"/>
	<circle cx="36.7393" cy="344.488" r="4" fill="#0" id="circle14"/>
	<circle cx="36.7393" cy="360.858" r="4" fill="#0" id="circle15"/>
	<circle cx="36.7393" cy="377.228" r="4" fill="#0" id="circle16"/>
	<circle cx="36.7393" cy="393.597" r="4" fill="#0" id="circle17"/>
	<circle cx="36.7393" cy="409.967" r="4" fill="#0" id="circle18"/>
	<circle cx="36.7393" cy="560.568" r="4" fill="#0" id="circle19"/>
	<circle cx="44.9241" cy="221.716" r="4" fill="#0" id="circle20"/>
	<circle cx="44.9241" cy="238.086" r="4" fill="#0" id="circle21"/>
	<circle cx="44.9241" cy="575.3" r="4" fill="#0" id="circle22"/>
	<circle cx="53.1089" cy="180.792" r="4" fill="#0" id="circle23"/>
	<circle cx="53.1089" cy="197.162" r="4" fill="#0" id="circle24"/>
	<circle cx="53.1089" cy="590.033" r="4" fill="#0" id="circle25"/>
	<circle cx="61.2937" cy="156.238" r="4" fill="#0" id="circle26"/>
	<circle cx="61.2937" cy="604.766" r="4" fill="#0" id="circle27"/>
	<circle cx="69.4785" cy="139.868" r="4" fill="#0" id="circle28"/>
	<circle cx="69.4785" cy="619.498" r="4" fill="#0" id="circle29"/>
	<circle cx="79.3003" cy="632.594" r="4" fill="#0" id="circle30"/>
	<circle cx="82.5743" cy="126.772" r="4" fill="#0" id="circle31"/>
	<circle cx="92.396" cy="644.053" r="4" fill="#0" id="circle32"/>
	<circle cx="94.033" cy="107.129" r="4" fill="#0" id="circle33"/>
	<circle cx="94.033" cy="660.422" r="4" fill="#0" id="circle34"/>
	<circle cx="94.033" cy="676.792" r="4" fill="#0" id="circle35"/>
	<circle cx="98.9439" cy="693.162" r="4" fill="#0" id="circle36"/>
	<circle cx="102.218" cy="709.531" r="4" fill="#0" id="circle37"/>
	<circle cx="107.129" cy="94.033" r="4" fill="#0" id="circle38"/>
	<circle cx="110.403" cy="724.264" r="4" fill="#0" id="circle39"/>
	<circle cx="118.587" cy="74.3894" r="4" fill="#0" id="circle40"/>
	<circle cx="118.587" cy="738.997" r="4" fill="#0" id="circle41"/>
	<circle cx="126.772" cy="753.729" r="4" fill="#0" id="circle42"/>
	<circle cx="131.683" cy="61.2937" r="4" fill="#0" id="circle43"/>
	<circle cx="143.142" cy="758.64" r="4" fill="#0" id="circle44"/>
	<circle cx="143.142" cy="775.01" r="4" fill="#0" id="circle45"/>
	<circle cx="143.142" cy="791.38" r="4" fill="#0" id="circle46"/>
	<circle cx="143.142" cy="807.749" r="4" fill="#0" id="circle47"/>
	<circle cx="143.142" cy="824.119" r="4" fill="#0" id="circle48"/>
	<circle cx="143.142" cy="840.488" r="4" fill="#0" id="circle49"/>
	<circle cx="146.416" cy="53.1089" r="4" fill="#0" id="circle50"/>
	<circle cx="151.327" cy="855.221" r="4" fill="#0" id="circle51"/>
	<circle cx="159.512" cy="41.6502" r="4" fill="#0" id="circle52"/>
	<circle cx="159.512" cy="869.954" r="4" fill="#0" id="circle53"/>
	<circle cx="167.696" cy="884.686" r="4" fill="#0" id="circle54"/>
	<circle cx="172.607" cy="28.5545" r="4" fill="#0" id="circle55"/>
	<circle cx="180.792" cy="896.145" r="4" fill="#0" id="circle56"/>
	<circle cx="188.977" cy="20.3696" r="4" fill="#0" id="circle57"/>
	<circle cx="192.251" cy="909.241" r="4" fill="#0" id="circle58"/>
	<circle cx="205.347" cy="20.3696" r="4" fill="#0" id="circle59"/>
	<circle cx="205.347" cy="920.7" r="4" fill="#0" id="circle60"/>
	<circle cx="216.805" cy="933.795" r="4" fill="#0" id="circle61"/>
	<circle cx="220.079" cy="12.1848" r="4" fill="#0" id="circle62"/>
	<circle cx="233.175" cy="938.706" r="4" fill="#0" id="circle63"/>
	<circle cx="234.812" cy="4" r="4" fill="#0" id="circle64"/>
	<circle cx="242.997" cy="951.802" r="4" fill="#0" id="circle65"/>
	<circle cx="251.182" cy="4" r="4" fill="#0" id="circle66"/>
	<circle cx="256.092" cy="963.261" r="4" fill="#0" id="circle67"/>
	<circle cx="267.551" cy="4" r="4" fill="#0" id="circle68"/>
	<circle cx="267.551" cy="976.356" r="4" fill="#0" id="circle69"/>
	<circle cx="283.921" cy="4" r="4" fill="#0" id="circle70"/>
	<circle cx="283.921" cy="982.904" r="4" fill="#0" id="circle71"/>
	<circle cx="295.38" cy="996" r="4" fill="#0" id="circle72"/>
	<circle cx="300.29" cy="4" r="4" fill="#0" id="circle73"/>
	<circle cx="311.749" cy="996" r="4" fill="#0" id="circle74"/>
	<circle cx="316.66" cy="4" r="4" fill="#0" id="circle75"/>
	<circle cx="328.119" cy="996" r="4" fill="#0" id="circle76"/>
	<circle cx="333.03" cy="4" r="4" fill="#0" id="circle77"/>
	<circle cx="344.488" cy="994.363" r="4" fill="#0" id="circle78"/>
	<circle cx="349.399" cy="4" r="4" fill="#0" id="circle79"/>
	<circle cx="360.858" cy="987.815" r="4" fill="#0" id="circle80"/>
	<circle cx="364.132" cy="12.1848" r="4" fill="#0" id="circle81"/>
	<circle cx="375.591" cy="979.63" r="4" fill="#0" id="circle82"/>
	<circle cx="377.228" cy="22.0066" r="4" fill="#0" id="circle83"/>
	<circle cx="388.686" cy="966.535" r="4" fill="#0" id="circle84"/>
	<circle cx="390.323" cy="33.4653" r="4" fill="#0" id="circle85"/>
	<circle cx="403.419" cy="44.9241" r="4" fill="#0" id="circle86"/>
	<circle cx="405.056" cy="958.35" r="4" fill="#0" id="circle87"/>
	<circle cx="419.789" cy="44.9241" r="4" fill="#0" id="circle88"/>
	<circle cx="421.426" cy="950.165" r="4" fill="#0" id="circle89"/>
	<circle cx="434.521" cy="36.7393" r="4" fill="#0" id="circle90"/>
	<circle cx="434.521" cy="938.706" r="4" fill="#0" id="circle91"/>
	<circle cx="449.254" cy="44.9241" r="4" fill="#0" id="circle92"/>
	<circle cx="449.254" cy="930.521" r="4" fill="#0" id="circle93"/>
	<circle cx="455.802" cy="914.152" r="4" fill="#0" id="circle94"/>
	<circle cx="463.987" cy="897.782" r="4" fill="#0" id="circle95"/>
	<circle cx="465.624" cy="44.9241" r="4" fill="#0" id="circle96"/>
	<circle cx="477.083" cy="886.323" r="4" fill="#0" id="circle97"/>
	<circle cx="480.356" cy="53.1089" r="4" fill="#0" id="circle98"/>
	<circle cx="485.267" cy="869.954" r="4" fill="#0" id="circle99"/>
	<circle cx="495.089" cy="61.2937" r="4" fill="#0" id="circle100"/>
	<circle cx="496.726" cy="856.858" r="4" fill="#0" id="circle101"/>
	<circle cx="504.911" cy="832.304" r="4" fill="#0" id="circle102"/>
	<circle cx="508.185" cy="71.1155" r="4" fill="#0" id="circle103"/>
	<circle cx="513.096" cy="734.086" r="4" fill="#0" id="circle104"/>
	<circle cx="513.096" cy="750.455" r="4" fill="#0" id="circle105"/>
	<circle cx="513.096" cy="766.825" r="4" fill="#0" id="circle106"/>
	<circle cx="513.096" cy="783.195" r="4" fill="#0" id="circle107"/>
	<circle cx="513.096" cy="799.564" r="4" fill="#0" id="circle108"/>
	<circle cx="513.096" cy="815.934" r="4" fill="#0" id="circle109"/>
	<circle cx="521.281" cy="82.5743" r="4" fill="#0" id="circle110"/>
	<circle cx="521.281" cy="709.531" r="4" fill="#0" id="circle111"/>
	<circle cx="529.465" cy="693.162" r="4" fill="#0" id="circle112"/>
	<circle cx="532.739" cy="95.67" r="4" fill="#0" id="circle113"/>
	<circle cx="540.924" cy="110.403" r="4" fill="#0" id="circle114"/>
	<circle cx="542.561" cy="681.703" r="4" fill="#0" id="circle115"/>
	<circle cx="545.835" cy="126.772" r="4" fill="#0" id="circle116"/>
	<circle cx="545.835" cy="652.238" r="4" fill="#0" id="circle117"/>
	<circle cx="554.02" cy="141.505" r="4" fill="#0" id="circle118"/>
	<circle cx="554.02" cy="611.314" r="4" fill="#0" id="circle119"/>
	<circle cx="554.02" cy="627.683" r="4" fill="#0" id="circle120"/>
	<circle cx="562.205" cy="156.238" r="4" fill="#0" id="circle121"/>
	<circle cx="562.205" cy="172.607" r="4" fill="#0" id="circle122"/>
	<circle cx="570.389" cy="187.34" r="4" fill="#0" id="circle123"/>
	<circle cx="570.389" cy="203.71" r="4" fill="#0" id="circle124"/>
	<circle cx="570.389" cy="220.079" r="4" fill="#0" id="circle125"/>
	<circle cx="570.389" cy="236.449" r="4" fill="#0" id="circle126"/>
	<circle cx="570.389" cy="252.818" r="4" fill="#0" id="circle127"/>
	<circle cx="570.389" cy="269.188" r="4" fill="#0" id="circle128"/>
	<circle cx="570.389" cy="285.558" r="4" fill="#0" id="circle129"/>
	<circle cx="570.389" cy="603.129" r="4" fill="#0" id="circle130"/>
	<circle cx="578.574" cy="300.29" r="4" fill="#0" id="circle131"/>
	<circle cx="578.574" cy="316.66" r="4" fill="#0" id="circle132"/>
	<circle cx="578.574" cy="333.03" r="4" fill="#0" id="circle133"/>
	<circle cx="578.574" cy="349.399" r="4" fill="#0" id="circle134"/>
	<circle cx="578.574" cy="365.769" r="4" fill="#0" id="circle135"/>
	<circle cx="583.485" cy="591.67" r="4" fill="#0" id="circle136"/>
	<circle cx="586.759" cy="380.502" r="4" fill="#0" id="circle137"/>
	<circle cx="594.944" cy="570.389" r="4" fill="#0" id="circle138"/>
	<circle cx="601.492" cy="388.686" r="4" fill="#0" id="circle139"/>
	<circle cx="603.129" cy="545.835" r="4" fill="#0" id="circle140"/>
	<circle cx="611.314" cy="401.782" r="4" fill="#0" id="circle141"/>
	<circle cx="611.314" cy="472.172" r="4" fill="#0" id="circle142"/>
	<circle cx="611.314" cy="488.541" r="4" fill="#0" id="circle143"/>
	<circle cx="611.314" cy="504.911" r="4" fill="#0" id="circle144"/>
	<circle cx="611.314" cy="521.281" r="4" fill="#0" id="circle145"/>
	<circle cx="619.498" cy="416.515" r="4" fill="#0" id="circle146"/>
	<circle cx="619.498" cy="432.884" r="4" fill="#0" id="circle147"/>
	<circle cx="619.498" cy="449.254" r="4" fill="#0" id="circle148"/>
	</g>
</svg>