<?xml version="1.0" encoding="UTF-8" standalone="no"?>
<!-- Created with CurveBenchmark -->
<svg
	xmlns:dc="http://purl.org/dc/elements/1.1/"
	xmlns:cc="http://creativecommons.org/ns#"
	xmlns:rdf="http://www.w3.org/1999/02/22-rdf-syntax-ns#"
	xmlns:svg="http://www.w3.org/2000/svg"
	xmlns="http://www.w3.org/2000/svg"
	xmlns:sodipodi="http://sodipodi.sourceforge.net/DTD/sodipodi-0.dtd"
	xmlns:inkscape="http://www.inkscape.org/namespaces/inkscape"
	width="1000"
	height="1000"
	id="svg2"
	version="1.1"
	sodipodi:docname="manifold/connect2d-teddy185.png.txt">
<defs
	id="defs4" />
<metadata
	id="metadata7">
	<rdf:RDF>
		<cc:Work
			rdf:about="">
			<dc:format>image/svg+xml</dc:format>
			<dc:type
				rdf:resource="http://purl.org/dc/dcmitype/StillImage" />
			<dc:title></dc:title>
		</cc:Work>
	</rdf:RDF>
</metadata>
<g
	inkscape:label="Layer 1"
	inkscape:groupmode="layer"
	id="layer1">
	<path style="fill:none;stroke:red;stroke-width:1px;stroke-linecap:butt;stroke-linejoin:miter;stroke-opacity:1" d="M 849.037,899.909 843.385,936.65 z" id="boundary" inkscape:connector-curvature="0" />
	<path style="fill:none;stroke:red;stroke-width:1px;stroke-linecap:butt;stroke-linejoin:miter;stroke-opacity:1" d="M 843.385,936.65 820.775,959.259 z" id="boundary" inkscape:connector-curvature="0" />
	<path style="fill:none;stroke:red;stroke-width:1px;stroke-linecap:butt;stroke-linejoin:miter;stroke-opacity:1" d="M 820.775,959.259 798.165,979.043 z" id="boundary" inkscape:connector-curvature="0" />
	<path style="fill:none;stroke:red;stroke-width:1px;stroke-linecap:butt;stroke-linejoin:miter;stroke-opacity:1" d="M 798.165,979.043 769.903,990.348 z" id="boundary" inkscape:connector-curvature="0" />
	<path style="fill:none;stroke:red;stroke-width:1px;stroke-linecap:butt;stroke-linejoin:miter;stroke-opacity:1" d="M 769.903,990.348 741.641,996 z" id="boundary" inkscape:connector-curvature="0" />
	<path style="fill:none;stroke:red;stroke-width:1px;stroke-linecap:butt;stroke-linejoin:miter;stroke-opacity:1" d="M 741.641,996 713.379,996 z" id="boundary" inkscape:connector-curvature="0" />
	<path style="fill:none;stroke:red;stroke-width:1px;stroke-linecap:butt;stroke-linejoin:miter;stroke-opacity:1" d="M 713.379,996 685.117,996 z" id="boundary" inkscape:connector-curvature="0" />
	<path style="fill:none;stroke:red;stroke-width:1px;stroke-linecap:butt;stroke-linejoin:miter;stroke-opacity:1" d="M 685.117,996 656.855,996 z" id="boundary" inkscape:connector-curvature="0" />
	<path style="fill:none;stroke:red;stroke-width:1px;stroke-linecap:butt;stroke-linejoin:miter;stroke-opacity:1" d="M 656.855,996 628.593,984.695 z" id="boundary" inkscape:connector-curvature="0" />
	<path style="fill:none;stroke:red;stroke-width:1px;stroke-linecap:butt;stroke-linejoin:miter;stroke-opacity:1" d="M 628.593,984.695 600.33,973.39 z" id="boundary" inkscape:connector-curvature="0" />
	<path style="fill:none;stroke:red;stroke-width:1px;stroke-linecap:butt;stroke-linejoin:miter;stroke-opacity:1" d="M 600.33,973.39 572.068,967.738 z" id="boundary" inkscape:connector-curvature="0" />
	<path style="fill:none;stroke:red;stroke-width:1px;stroke-linecap:butt;stroke-linejoin:miter;stroke-opacity:1" d="M 572.068,967.738 543.806,970.564 z" id="boundary" inkscape:connector-curvature="0" />
	<path style="fill:none;stroke:red;stroke-width:1px;stroke-linecap:butt;stroke-linejoin:miter;stroke-opacity:1" d="M 543.806,970.564 515.544,973.39 z" id="boundary" inkscape:connector-curvature="0" />
	<path style="fill:none;stroke:red;stroke-width:1px;stroke-linecap:butt;stroke-linejoin:miter;stroke-opacity:1" d="M 515.544,973.39 487.282,973.39 z" id="boundary" inkscape:connector-curvature="0" />
	<path style="fill:none;stroke:red;stroke-width:1px;stroke-linecap:butt;stroke-linejoin:miter;stroke-opacity:1" d="M 487.282,973.39 459.02,979.043 z" id="boundary" inkscape:connector-curvature="0" />
	<path style="fill:none;stroke:red;stroke-width:1px;stroke-linecap:butt;stroke-linejoin:miter;stroke-opacity:1" d="M 459.02,979.043 430.758,984.695 z" id="boundary" inkscape:connector-curvature="0" />
	<path style="fill:none;stroke:red;stroke-width:1px;stroke-linecap:butt;stroke-linejoin:miter;stroke-opacity:1" d="M 430.758,984.695 402.496,987.521 z" id="boundary" inkscape:connector-curvature="0" />
	<path style="fill:none;stroke:red;stroke-width:1px;stroke-linecap:butt;stroke-linejoin:miter;stroke-opacity:1" d="M 402.496,987.521 374.234,990.348 z" id="boundary" inkscape:connector-curvature="0" />
	<path style="fill:none;stroke:red;stroke-width:1px;stroke-linecap:butt;stroke-linejoin:miter;stroke-opacity:1" d="M 374.234,990.348 345.972,996 z" id="boundary" inkscape:connector-curvature="0" />
	<path style="fill:none;stroke:red;stroke-width:1px;stroke-linecap:butt;stroke-linejoin:miter;stroke-opacity:1" d="M 345.972,996 317.709,996 z" id="boundary" inkscape:connector-curvature="0" />
	<path style="fill:none;stroke:red;stroke-width:1px;stroke-linecap:butt;stroke-linejoin:miter;stroke-opacity:1" d="M 317.709,996 289.447,996 z" id="boundary" inkscape:connector-curvature="0" />
	<path style="fill:none;stroke:red;stroke-width:1px;stroke-linecap:butt;stroke-linejoin:miter;stroke-opacity:1" d="M 289.447,996 261.185,996 z" id="boundary" inkscape:connector-curvature="0" />
	<path style="fill:none;stroke:red;stroke-width:1px;stroke-linecap:butt;stroke-linejoin:miter;stroke-opacity:1" d="M 261.185,996 232.923,996 z" id="boundary" inkscape:connector-curvature="0" />
	<path style="fill:none;stroke:red;stroke-width:1px;stroke-linecap:butt;stroke-linejoin:miter;stroke-opacity:1" d="M 232.923,996 204.661,996 z" id="boundary" inkscape:connector-curvature="0" />
	<path style="fill:none;stroke:red;stroke-width:1px;stroke-linecap:butt;stroke-linejoin:miter;stroke-opacity:1" d="M 204.661,996 176.399,996 z" id="boundary" inkscape:connector-curvature="0" />
	<path style="fill:none;stroke:red;stroke-width:1px;stroke-linecap:butt;stroke-linejoin:miter;stroke-opacity:1" d="M 176.399,996 148.137,987.521 z" id="boundary" inkscape:connector-curvature="0" />
	<path style="fill:none;stroke:red;stroke-width:1px;stroke-linecap:butt;stroke-linejoin:miter;stroke-opacity:1" d="M 148.137,987.521 125.527,970.564 z" id="boundary" inkscape:connector-curvature="0" />
	<path style="fill:none;stroke:red;stroke-width:1px;stroke-linecap:butt;stroke-linejoin:miter;stroke-opacity:1" d="M 125.527,970.564 117.048,942.302 z" id="boundary" inkscape:connector-curvature="0" />
	<path style="fill:none;stroke:red;stroke-width:1px;stroke-linecap:butt;stroke-linejoin:miter;stroke-opacity:1" d="M 117.048,942.302 111.396,914.04 z" id="boundary" inkscape:connector-curvature="0" />
	<path style="fill:none;stroke:red;stroke-width:1px;stroke-linecap:butt;stroke-linejoin:miter;stroke-opacity:1" d="M 111.396,914.04 111.396,885.778 z" id="boundary" inkscape:connector-curvature="0" />
	<path style="fill:none;stroke:red;stroke-width:1px;stroke-linecap:butt;stroke-linejoin:miter;stroke-opacity:1" d="M 111.396,885.778 111.396,857.516 z" id="boundary" inkscape:connector-curvature="0" />
	<path style="fill:none;stroke:red;stroke-width:1px;stroke-linecap:butt;stroke-linejoin:miter;stroke-opacity:1" d="M 111.396,857.516 117.048,823.601 z" id="boundary" inkscape:connector-curvature="0" />
	<path style="fill:none;stroke:red;stroke-width:1px;stroke-linecap:butt;stroke-linejoin:miter;stroke-opacity:1" d="M 117.048,823.601 125.527,784.034 z" id="boundary" inkscape:connector-curvature="0" />
	<path style="fill:none;stroke:red;stroke-width:1px;stroke-linecap:butt;stroke-linejoin:miter;stroke-opacity:1" d="M 125.527,784.034 117.048,755.772 z" id="boundary" inkscape:connector-curvature="0" />
	<path style="fill:none;stroke:red;stroke-width:1px;stroke-linecap:butt;stroke-linejoin:miter;stroke-opacity:1" d="M 117.048,755.772 128.353,727.51 z" id="boundary" inkscape:connector-curvature="0" />
	<path style="fill:none;stroke:red;stroke-width:1px;stroke-linecap:butt;stroke-linejoin:miter;stroke-opacity:1" d="M 128.353,727.51 128.353,699.248 z" id="boundary" inkscape:connector-curvature="0" />
	<path style="fill:none;stroke:red;stroke-width:1px;stroke-linecap:butt;stroke-linejoin:miter;stroke-opacity:1" d="M 128.353,699.248 125.527,668.16 z" id="boundary" inkscape:connector-curvature="0" />
	<path style="fill:none;stroke:red;stroke-width:1px;stroke-linecap:butt;stroke-linejoin:miter;stroke-opacity:1" d="M 125.527,668.16 100.091,654.028 z" id="boundary" inkscape:connector-curvature="0" />
	<path style="fill:none;stroke:red;stroke-width:1px;stroke-linecap:butt;stroke-linejoin:miter;stroke-opacity:1" d="M 100.091,654.028 74.6553,639.897 z" id="boundary" inkscape:connector-curvature="0" />
	<path style="fill:none;stroke:red;stroke-width:1px;stroke-linecap:butt;stroke-linejoin:miter;stroke-opacity:1" d="M 74.6553,639.897 52.0456,620.114 z" id="boundary" inkscape:connector-curvature="0" />
	<path style="fill:none;stroke:red;stroke-width:1px;stroke-linecap:butt;stroke-linejoin:miter;stroke-opacity:1" d="M 52.0456,620.114 32.2621,597.504 z" id="boundary" inkscape:connector-curvature="0" />
	<path style="fill:none;stroke:red;stroke-width:1px;stroke-linecap:butt;stroke-linejoin:miter;stroke-opacity:1" d="M 32.2621,597.504 12.4786,574.895 z" id="boundary" inkscape:connector-curvature="0" />
	<path style="fill:none;stroke:red;stroke-width:1px;stroke-linecap:butt;stroke-linejoin:miter;stroke-opacity:1" d="M 12.4786,574.895 6.82621,546.632 z" id="boundary" inkscape:connector-curvature="0" />
	<path style="fill:none;stroke:red;stroke-width:1px;stroke-linecap:butt;stroke-linejoin:miter;stroke-opacity:1" d="M 6.82621,546.632 4,518.37 z" id="boundary" inkscape:connector-curvature="0" />
	<path style="fill:none;stroke:red;stroke-width:1px;stroke-linecap:butt;stroke-linejoin:miter;stroke-opacity:1" d="M 4,518.37 4,490.108 z" id="boundary" inkscape:connector-curvature="0" />
	<path style="fill:none;stroke:red;stroke-width:1px;stroke-linecap:butt;stroke-linejoin:miter;stroke-opacity:1" d="M 4,490.108 18.1311,464.672 z" id="boundary" inkscape:connector-curvature="0" />
	<path style="fill:none;stroke:red;stroke-width:1px;stroke-linecap:butt;stroke-linejoin:miter;stroke-opacity:1" d="M 18.1311,464.672 35.0883,442.063 z" id="boundary" inkscape:connector-curvature="0" />
	<path style="fill:none;stroke:red;stroke-width:1px;stroke-linecap:butt;stroke-linejoin:miter;stroke-opacity:1" d="M 35.0883,442.063 57.698,419.453 z" id="boundary" inkscape:connector-curvature="0" />
	<path style="fill:none;stroke:red;stroke-width:1px;stroke-linecap:butt;stroke-linejoin:miter;stroke-opacity:1" d="M 57.698,419.453 80.3077,399.67 z" id="boundary" inkscape:connector-curvature="0" />
	<path style="fill:none;stroke:red;stroke-width:1px;stroke-linecap:butt;stroke-linejoin:miter;stroke-opacity:1" d="M 80.3077,399.67 108.57,385.538 z" id="boundary" inkscape:connector-curvature="0" />
	<path style="fill:none;stroke:red;stroke-width:1px;stroke-linecap:butt;stroke-linejoin:miter;stroke-opacity:1" d="M 108.57,385.538 128.353,362.929 z" id="boundary" inkscape:connector-curvature="0" />
	<path style="fill:none;stroke:red;stroke-width:1px;stroke-linecap:butt;stroke-linejoin:miter;stroke-opacity:1" d="M 128.353,362.929 114.222,337.493 z" id="boundary" inkscape:connector-curvature="0" />
	<path style="fill:none;stroke:red;stroke-width:1px;stroke-linecap:butt;stroke-linejoin:miter;stroke-opacity:1" d="M 114.222,337.493 105.744,309.231 z" id="boundary" inkscape:connector-curvature="0" />
	<path style="fill:none;stroke:red;stroke-width:1px;stroke-linecap:butt;stroke-linejoin:miter;stroke-opacity:1" d="M 105.744,309.231 94.4387,280.969 z" id="boundary" inkscape:connector-curvature="0" />
	<path style="fill:none;stroke:red;stroke-width:1px;stroke-linecap:butt;stroke-linejoin:miter;stroke-opacity:1" d="M 94.4387,280.969 94.4387,252.707 z" id="boundary" inkscape:connector-curvature="0" />
	<path style="fill:none;stroke:red;stroke-width:1px;stroke-linecap:butt;stroke-linejoin:miter;stroke-opacity:1" d="M 94.4387,252.707 94.4387,224.444 z" id="boundary" inkscape:connector-curvature="0" />
	<path style="fill:none;stroke:red;stroke-width:1px;stroke-linecap:butt;stroke-linejoin:miter;stroke-opacity:1" d="M 94.4387,224.444 94.4387,196.182 z" id="boundary" inkscape:connector-curvature="0" />
	<path style="fill:none;stroke:red;stroke-width:1px;stroke-linecap:butt;stroke-linejoin:miter;stroke-opacity:1" d="M 94.4387,196.182 83.1339,145.311 z" id="boundary" inkscape:connector-curvature="0" />
	<path style="fill:none;stroke:red;stroke-width:1px;stroke-linecap:butt;stroke-linejoin:miter;stroke-opacity:1" d="M 83.1339,145.311 71.8291,117.048 z" id="boundary" inkscape:connector-curvature="0" />
	<path style="fill:none;stroke:red;stroke-width:1px;stroke-linecap:butt;stroke-linejoin:miter;stroke-opacity:1" d="M 71.8291,117.048 69.0028,88.7863 z" id="boundary" inkscape:connector-curvature="0" />
	<path style="fill:none;stroke:red;stroke-width:1px;stroke-linecap:butt;stroke-linejoin:miter;stroke-opacity:1" d="M 69.0028,88.7863 66.1766,60.5242 z" id="boundary" inkscape:connector-curvature="0" />
	<path style="fill:none;stroke:red;stroke-width:1px;stroke-linecap:butt;stroke-linejoin:miter;stroke-opacity:1" d="M 66.1766,60.5242 83.1339,32.2621 z" id="boundary" inkscape:connector-curvature="0" />
	<path style="fill:none;stroke:red;stroke-width:1px;stroke-linecap:butt;stroke-linejoin:miter;stroke-opacity:1" d="M 83.1339,32.2621 108.57,18.1311 z" id="boundary" inkscape:connector-curvature="0" />
	<path style="fill:none;stroke:red;stroke-width:1px;stroke-linecap:butt;stroke-linejoin:miter;stroke-opacity:1" d="M 108.57,18.1311 136.832,9.65242 z" id="boundary" inkscape:connector-curvature="0" />
	<path style="fill:none;stroke:red;stroke-width:1px;stroke-linecap:butt;stroke-linejoin:miter;stroke-opacity:1" d="M 136.832,9.65242 165.094,4 z" id="boundary" inkscape:connector-curvature="0" />
	<path style="fill:none;stroke:red;stroke-width:1px;stroke-linecap:butt;stroke-linejoin:miter;stroke-opacity:1" d="M 165.094,4 193.356,9.65242 z" id="boundary" inkscape:connector-curvature="0" />
	<path style="fill:none;stroke:red;stroke-width:1px;stroke-linecap:butt;stroke-linejoin:miter;stroke-opacity:1" d="M 193.356,9.65242 221.618,20.9573 z" id="boundary" inkscape:connector-curvature="0" />
	<path style="fill:none;stroke:red;stroke-width:1px;stroke-linecap:butt;stroke-linejoin:miter;stroke-opacity:1" d="M 221.618,20.9573 247.054,35.0883 z" id="boundary" inkscape:connector-curvature="0" />
	<path style="fill:none;stroke:red;stroke-width:1px;stroke-linecap:butt;stroke-linejoin:miter;stroke-opacity:1" d="M 247.054,35.0883 275.316,43.567 z" id="boundary" inkscape:connector-curvature="0" />
	<path style="fill:none;stroke:red;stroke-width:1px;stroke-linecap:butt;stroke-linejoin:miter;stroke-opacity:1" d="M 275.316,43.567 303.578,43.567 z" id="boundary" inkscape:connector-curvature="0" />
	<path style="fill:none;stroke:red;stroke-width:1px;stroke-linecap:butt;stroke-linejoin:miter;stroke-opacity:1" d="M 303.578,43.567 331.84,37.9145 z" id="boundary" inkscape:connector-curvature="0" />
	<path style="fill:none;stroke:red;stroke-width:1px;stroke-linecap:butt;stroke-linejoin:miter;stroke-opacity:1" d="M 331.84,37.9145 360.103,43.567 z" id="boundary" inkscape:connector-curvature="0" />
	<path style="fill:none;stroke:red;stroke-width:1px;stroke-linecap:butt;stroke-linejoin:miter;stroke-opacity:1" d="M 360.103,43.567 385.538,29.4359 z" id="boundary" inkscape:connector-curvature="0" />
	<path style="fill:none;stroke:red;stroke-width:1px;stroke-linecap:butt;stroke-linejoin:miter;stroke-opacity:1" d="M 385.538,29.4359 410.974,15.3048 z" id="boundary" inkscape:connector-curvature="0" />
	<path style="fill:none;stroke:red;stroke-width:1px;stroke-linecap:butt;stroke-linejoin:miter;stroke-opacity:1" d="M 410.974,15.3048 439.236,9.65242 z" id="boundary" inkscape:connector-curvature="0" />
	<path style="fill:none;stroke:red;stroke-width:1px;stroke-linecap:butt;stroke-linejoin:miter;stroke-opacity:1" d="M 439.236,9.65242 467.499,4 z" id="boundary" inkscape:connector-curvature="0" />
	<path style="fill:none;stroke:red;stroke-width:1px;stroke-linecap:butt;stroke-linejoin:miter;stroke-opacity:1" d="M 467.499,4 495.761,15.3048 z" id="boundary" inkscape:connector-curvature="0" />
	<path style="fill:none;stroke:red;stroke-width:1px;stroke-linecap:butt;stroke-linejoin:miter;stroke-opacity:1" d="M 495.761,15.3048 521.197,29.4359 z" id="boundary" inkscape:connector-curvature="0" />
	<path style="fill:none;stroke:red;stroke-width:1px;stroke-linecap:butt;stroke-linejoin:miter;stroke-opacity:1" d="M 521.197,29.4359 543.806,49.2194 z" id="boundary" inkscape:connector-curvature="0" />
	<path style="fill:none;stroke:red;stroke-width:1px;stroke-linecap:butt;stroke-linejoin:miter;stroke-opacity:1" d="M 543.806,49.2194 549.459,77.4815 z" id="boundary" inkscape:connector-curvature="0" />
	<path style="fill:none;stroke:red;stroke-width:1px;stroke-linecap:butt;stroke-linejoin:miter;stroke-opacity:1" d="M 549.459,77.4815 549.459,105.744 z" id="boundary" inkscape:connector-curvature="0" />
	<path style="fill:none;stroke:red;stroke-width:1px;stroke-linecap:butt;stroke-linejoin:miter;stroke-opacity:1" d="M 549.459,105.744 538.154,134.006 z" id="boundary" inkscape:connector-curvature="0" />
	<path style="fill:none;stroke:red;stroke-width:1px;stroke-linecap:butt;stroke-linejoin:miter;stroke-opacity:1" d="M 538.154,134.006 526.849,167.92 z" id="boundary" inkscape:connector-curvature="0" />
	<path style="fill:none;stroke:red;stroke-width:1px;stroke-linecap:butt;stroke-linejoin:miter;stroke-opacity:1" d="M 526.849,167.92 526.849,196.182 z" id="boundary" inkscape:connector-curvature="0" />
	<path style="fill:none;stroke:red;stroke-width:1px;stroke-linecap:butt;stroke-linejoin:miter;stroke-opacity:1" d="M 526.849,196.182 540.98,221.618 z" id="boundary" inkscape:connector-curvature="0" />
	<path style="fill:none;stroke:red;stroke-width:1px;stroke-linecap:butt;stroke-linejoin:miter;stroke-opacity:1" d="M 540.98,221.618 549.459,249.88 z" id="boundary" inkscape:connector-curvature="0" />
	<path style="fill:none;stroke:red;stroke-width:1px;stroke-linecap:butt;stroke-linejoin:miter;stroke-opacity:1" d="M 549.459,249.88 549.459,278.142 z" id="boundary" inkscape:connector-curvature="0" />
	<path style="fill:none;stroke:red;stroke-width:1px;stroke-linecap:butt;stroke-linejoin:miter;stroke-opacity:1" d="M 549.459,278.142 549.459,309.231 z" id="boundary" inkscape:connector-curvature="0" />
	<path style="fill:none;stroke:red;stroke-width:1px;stroke-linecap:butt;stroke-linejoin:miter;stroke-opacity:1" d="M 549.459,309.231 532.501,343.145 z" id="boundary" inkscape:connector-curvature="0" />
	<path style="fill:none;stroke:red;stroke-width:1px;stroke-linecap:butt;stroke-linejoin:miter;stroke-opacity:1" d="M 532.501,343.145 518.37,368.581 z" id="boundary" inkscape:connector-curvature="0" />
	<path style="fill:none;stroke:red;stroke-width:1px;stroke-linecap:butt;stroke-linejoin:miter;stroke-opacity:1" d="M 518.37,368.581 543.806,382.712 z" id="boundary" inkscape:connector-curvature="0" />
	<path style="fill:none;stroke:red;stroke-width:1px;stroke-linecap:butt;stroke-linejoin:miter;stroke-opacity:1" d="M 543.806,382.712 572.068,388.365 z" id="boundary" inkscape:connector-curvature="0" />
	<path style="fill:none;stroke:red;stroke-width:1px;stroke-linecap:butt;stroke-linejoin:miter;stroke-opacity:1" d="M 572.068,388.365 600.33,399.67 z" id="boundary" inkscape:connector-curvature="0" />
	<path style="fill:none;stroke:red;stroke-width:1px;stroke-linecap:butt;stroke-linejoin:miter;stroke-opacity:1" d="M 600.33,399.67 617.288,422.279 z" id="boundary" inkscape:connector-curvature="0" />
	<path style="fill:none;stroke:red;stroke-width:1px;stroke-linecap:butt;stroke-linejoin:miter;stroke-opacity:1" d="M 617.288,422.279 645.55,427.932 z" id="boundary" inkscape:connector-curvature="0" />
	<path style="fill:none;stroke:red;stroke-width:1px;stroke-linecap:butt;stroke-linejoin:miter;stroke-opacity:1" d="M 645.55,427.932 673.812,433.584 z" id="boundary" inkscape:connector-curvature="0" />
	<path style="fill:none;stroke:red;stroke-width:1px;stroke-linecap:butt;stroke-linejoin:miter;stroke-opacity:1" d="M 673.812,433.584 702.074,433.584 z" id="boundary" inkscape:connector-curvature="0" />
	<path style="fill:none;stroke:red;stroke-width:1px;stroke-linecap:butt;stroke-linejoin:miter;stroke-opacity:1" d="M 702.074,433.584 730.336,439.236 z" id="boundary" inkscape:connector-curvature="0" />
	<path style="fill:none;stroke:red;stroke-width:1px;stroke-linecap:butt;stroke-linejoin:miter;stroke-opacity:1" d="M 730.336,439.236 758.598,450.541 z" id="boundary" inkscape:connector-curvature="0" />
	<path style="fill:none;stroke:red;stroke-width:1px;stroke-linecap:butt;stroke-linejoin:miter;stroke-opacity:1" d="M 758.598,450.541 786.86,456.194 z" id="boundary" inkscape:connector-curvature="0" />
	<path style="fill:none;stroke:red;stroke-width:1px;stroke-linecap:butt;stroke-linejoin:miter;stroke-opacity:1" d="M 786.86,456.194 798.165,484.456 z" id="boundary" inkscape:connector-curvature="0" />
	<path style="fill:none;stroke:red;stroke-width:1px;stroke-linecap:butt;stroke-linejoin:miter;stroke-opacity:1" d="M 798.165,484.456 803.818,512.718 z" id="boundary" inkscape:connector-curvature="0" />
	<path style="fill:none;stroke:red;stroke-width:1px;stroke-linecap:butt;stroke-linejoin:miter;stroke-opacity:1" d="M 803.818,512.718 803.818,552.285 z" id="boundary" inkscape:connector-curvature="0" />
	<path style="fill:none;stroke:red;stroke-width:1px;stroke-linecap:butt;stroke-linejoin:miter;stroke-opacity:1" d="M 803.818,552.285 786.86,580.547 z" id="boundary" inkscape:connector-curvature="0" />
	<path style="fill:none;stroke:red;stroke-width:1px;stroke-linecap:butt;stroke-linejoin:miter;stroke-opacity:1" d="M 786.86,580.547 764.251,608.809 z" id="boundary" inkscape:connector-curvature="0" />
	<path style="fill:none;stroke:red;stroke-width:1px;stroke-linecap:butt;stroke-linejoin:miter;stroke-opacity:1" d="M 764.251,608.809 738.815,622.94 z" id="boundary" inkscape:connector-curvature="0" />
	<path style="fill:none;stroke:red;stroke-width:1px;stroke-linecap:butt;stroke-linejoin:miter;stroke-opacity:1" d="M 738.815,622.94 710.553,634.245 z" id="boundary" inkscape:connector-curvature="0" />
	<path style="fill:none;stroke:red;stroke-width:1px;stroke-linecap:butt;stroke-linejoin:miter;stroke-opacity:1" d="M 710.553,634.245 682.291,645.55 z" id="boundary" inkscape:connector-curvature="0" />
	<path style="fill:none;stroke:red;stroke-width:1px;stroke-linecap:butt;stroke-linejoin:miter;stroke-opacity:1" d="M 682.291,645.55 654.028,651.202 z" id="boundary" inkscape:connector-curvature="0" />
	<path style="fill:none;stroke:red;stroke-width:1px;stroke-linecap:butt;stroke-linejoin:miter;stroke-opacity:1" d="M 654.028,651.202 625.766,662.507 z" id="boundary" inkscape:connector-curvature="0" />
	<path style="fill:none;stroke:red;stroke-width:1px;stroke-linecap:butt;stroke-linejoin:miter;stroke-opacity:1" d="M 625.766,662.507 597.504,656.855 z" id="boundary" inkscape:connector-curvature="0" />
	<path style="fill:none;stroke:red;stroke-width:1px;stroke-linecap:butt;stroke-linejoin:miter;stroke-opacity:1" d="M 597.504,656.855 569.242,656.855 z" id="boundary" inkscape:connector-curvature="0" />
	<path style="fill:none;stroke:red;stroke-width:1px;stroke-linecap:butt;stroke-linejoin:miter;stroke-opacity:1" d="M 569.242,656.855 572.068,685.117 z" id="boundary" inkscape:connector-curvature="0" />
	<path style="fill:none;stroke:red;stroke-width:1px;stroke-linecap:butt;stroke-linejoin:miter;stroke-opacity:1" d="M 572.068,685.117 577.721,713.379 z" id="boundary" inkscape:connector-curvature="0" />
	<path style="fill:none;stroke:red;stroke-width:1px;stroke-linecap:butt;stroke-linejoin:miter;stroke-opacity:1" d="M 577.721,713.379 605.983,721.858 z" id="boundary" inkscape:connector-curvature="0" />
	<path style="fill:none;stroke:red;stroke-width:1px;stroke-linecap:butt;stroke-linejoin:miter;stroke-opacity:1" d="M 605.983,721.858 634.245,727.51 z" id="boundary" inkscape:connector-curvature="0" />
	<path style="fill:none;stroke:red;stroke-width:1px;stroke-linecap:butt;stroke-linejoin:miter;stroke-opacity:1" d="M 634.245,727.51 662.507,735.989 z" id="boundary" inkscape:connector-curvature="0" />
	<path style="fill:none;stroke:red;stroke-width:1px;stroke-linecap:butt;stroke-linejoin:miter;stroke-opacity:1" d="M 662.507,735.989 690.769,727.51 z" id="boundary" inkscape:connector-curvature="0" />
	<path style="fill:none;stroke:red;stroke-width:1px;stroke-linecap:butt;stroke-linejoin:miter;stroke-opacity:1" d="M 690.769,727.51 719.031,727.51 z" id="boundary" inkscape:connector-curvature="0" />
	<path style="fill:none;stroke:red;stroke-width:1px;stroke-linecap:butt;stroke-linejoin:miter;stroke-opacity:1" d="M 719.031,727.51 747.293,727.51 z" id="boundary" inkscape:connector-curvature="0" />
	<path style="fill:none;stroke:red;stroke-width:1px;stroke-linecap:butt;stroke-linejoin:miter;stroke-opacity:1" d="M 747.293,727.51 775.556,727.51 z" id="boundary" inkscape:connector-curvature="0" />
	<path style="fill:none;stroke:red;stroke-width:1px;stroke-linecap:butt;stroke-linejoin:miter;stroke-opacity:1" d="M 775.556,727.51 803.818,738.815 z" id="boundary" inkscape:connector-curvature="0" />
	<path style="fill:none;stroke:red;stroke-width:1px;stroke-linecap:butt;stroke-linejoin:miter;stroke-opacity:1" d="M 803.818,738.815 823.601,761.425 z" id="boundary" inkscape:connector-curvature="0" />
	<path style="fill:none;stroke:red;stroke-width:1px;stroke-linecap:butt;stroke-linejoin:miter;stroke-opacity:1" d="M 823.601,761.425 837.732,786.86 z" id="boundary" inkscape:connector-curvature="0" />
	<path style="fill:none;stroke:red;stroke-width:1px;stroke-linecap:butt;stroke-linejoin:miter;stroke-opacity:1" d="M 837.732,786.86 843.385,815.123 z" id="boundary" inkscape:connector-curvature="0" />
	<path style="fill:none;stroke:red;stroke-width:1px;stroke-linecap:butt;stroke-linejoin:miter;stroke-opacity:1" d="M 843.385,815.123 849.037,843.385 z" id="boundary" inkscape:connector-curvature="0" />
	<path style="fill:none;stroke:red;stroke-width:1px;stroke-linecap:butt;stroke-linejoin:miter;stroke-opacity:1" d="M 849.037,843.385 849.037,871.647 z" id="boundary" inkscape:connector-curvature="0" />
	<path style="fill:none;stroke:red;stroke-width:1px;stroke-linecap:butt;stroke-linejoin:miter;stroke-opacity:1" d="M 849.037,871.647 849.037,899.909 z" id="boundary" inkscape:connector-curvature="0" />
	<circle cx="4" cy="490.108" r="4" fill="#0" id="circle0"/>
	<circle cx="4" cy="518.37" r="4" fill="#0" id="circle1"/>
	<circle cx="6.82621" cy="546.632" r="4" fill="#0" id="circle2"/>
	<circle cx="12.4786" cy="574.895" r="4" fill="#0" id="circle3"/>
	<circle cx="18.1311" cy="464.672" r="4" fill="#0" id="circle4"/>
	<circle cx="32.2621" cy="597.504" r="4" fill="#0" id="circle5"/>
	<circle cx="35.0883" cy="442.063" r="4" fill="#0" id="circle6"/>
	<circle cx="52.0456" cy="620.114" r="4" fill="#0" id="circle7"/>
	<circle cx="57.698" cy="419.453" r="4" fill="#0" id="circle8"/>
	<circle cx="66.1766" cy="60.5242" r="4" fill="#0" id="circle9"/>
	<circle cx="69.0028" cy="88.7863" r="4" fill="#0" id="circle10"/>
	<circle cx="71.8291" cy="117.048" r="4" fill="#0" id="circle11"/>
	<circle cx="74.6553" cy="639.897" r="4" fill="#0" id="circle12"/>
	<circle cx="80.3077" cy="399.67" r="4" fill="#0" id="circle13"/>
	<circle cx="83.1339" cy="32.2621" r="4" fill="#0" id="circle14"/>
	<circle cx="83.1339" cy="145.311" r="4" fill="#0" id="circle15"/>
	<circle cx="94.4387" cy="196.182" r="4" fill="#0" id="circle16"/>
	<circle cx="94.4387" cy="224.444" r="4" fill="#0" id="circle17"/>
	<circle cx="94.4387" cy="252.707" r="4" fill="#0" id="circle18"/>
	<circle cx="94.4387" cy="280.969" r="4" fill="#0" id="circle19"/>
	<circle cx="100.091" cy="654.028" r="4" fill="#0" id="circle20"/>
	<circle cx="105.744" cy="309.231" r="4" fill="#0" id="circle21"/>
	<circle cx="108.57" cy="18.1311" r="4" fill="#0" id="circle22"/>
	<circle cx="108.57" cy="385.538" r="4" fill="#0" id="circle23"/>
	<circle cx="111.396" cy="857.516" r="4" fill="#0" id="circle24"/>
	<circle cx="111.396" cy="885.778" r="4" fill="#0" id="circle25"/>
	<circle cx="111.396" cy="914.04" r="4" fill="#0" id="circle26"/>
	<circle cx="114.222" cy="337.493" r="4" fill="#0" id="circle27"/>
	<circle cx="117.048" cy="755.772" r="4" fill="#0" id="circle28"/>
	<circle cx="117.048" cy="823.601" r="4" fill="#0" id="circle29"/>
	<circle cx="117.048" cy="942.302" r="4" fill="#0" id="circle30"/>
	<circle cx="125.527" cy="668.16" r="4" fill="#0" id="circle31"/>
	<circle cx="125.527" cy="784.034" r="4" fill="#0" id="circle32"/>
	<circle cx="125.527" cy="970.564" r="4" fill="#0" id="circle33"/>
	<circle cx="128.353" cy="362.929" r="4" fill="#0" id="circle34"/>
	<circle cx="128.353" cy="699.248" r="4" fill="#0" id="circle35"/>
	<circle cx="128.353" cy="727.51" r="4" fill="#0" id="circle36"/>
	<circle cx="136.832" cy="9.65242" r="4" fill="#0" id="circle37"/>
	<circle cx="148.137" cy="987.521" r="4" fill="#0" id="circle38"/>
	<circle cx="165.094" cy="4" r="4" fill="#0" id="circle39"/>
	<circle cx="176.399" cy="996" r="4" fill="#0" id="circle40"/>
	<circle cx="193.356" cy="9.65242" r="4" fill="#0" id="circle41"/>
	<circle cx="204.661" cy="996" r="4" fill="#0" id="circle42"/>
	<circle cx="221.618" cy="20.9573" r="4" fill="#0" id="circle43"/>
	<circle cx="232.923" cy="996" r="4" fill="#0" id="circle44"/>
	<circle cx="247.054" cy="35.0883" r="4" fill="#0" id="circle45"/>
	<circle cx="261.185" cy="996" r="4" fill="#0" id="circle46"/>
	<circle cx="275.316" cy="43.567" r="4" fill="#0" id="circle47"/>
	<circle cx="289.447" cy="996" r="4" fill="#0" id="circle48"/>
	<circle cx="303.578" cy="43.567" r="4" fill="#0" id="circle49"/>
	<circle cx="317.709" cy="996" r="4" fill="#0" id="circle50"/>
	<circle cx="331.84" cy="37.9145" r="4" fill="#0" id="circle51"/>
	<circle cx="345.972" cy="996" r="4" fill="#0" id="circle52"/>
	<circle cx="360.103" cy="43.567" r="4" fill="#0" id="circle53"/>
	<circle cx="374.234" cy="990.348" r="4" fill="#0" id="circle54"/>
	<circle cx="385.538" cy="29.4359" r="4" fill="#0" id="circle55"/>
	<circle cx="402.496" cy="987.521" r="4" fill="#0" id="circle56"/>
	<circle cx="410.974" cy="15.3048" r="4" fill="#0" id="circle57"/>
	<circle cx="430.758" cy="984.695" r="4" fill="#0" id="circle58"/>
	<circle cx="439.236" cy="9.65242" r="4" fill="#0" id="circle59"/>
	<circle cx="459.02" cy="979.043" r="4" fill="#0" id="circle60"/>
	<circle cx="467.499" cy="4" r="4" fill="#0" id="circle61"/>
	<circle cx="487.282" cy="973.39" r="4" fill="#0" id="circle62"/>
	<circle cx="495.761" cy="15.3048" r="4" fill="#0" id="circle63"/>
	<circle cx="515.544" cy="973.39" r="4" fill="#0" id="circle64"/>
	<circle cx="518.37" cy="368.581" r="4" fill="#0" id="circle65"/>
	<circle cx="521.197" cy="29.4359" r="4" fill="#0" id="circle66"/>
	<circle cx="526.849" cy="167.92" r="4" fill="#0" id="circle67"/>
	<circle cx="526.849" cy="196.182" r="4" fill="#0" id="circle68"/>
	<circle cx="532.501" cy="343.145" r="4" fill="#0" id="circle69"/>
	<circle cx="538.154" cy="134.006" r="4" fill="#0" id="circle70"/>
	<circle cx="540.98" cy="221.618" r="4" fill="#0" id="circle71"/>
	<circle cx="543.806" cy="49.2194" r="4" fill="#0" id="circle72"/>
	<circle cx="543.806" cy="382.712" r="4" fill="#0" id="circle73"/>
	<circle cx="543.806" cy="970.564" r="4" fill="#0" id="circle74"/>
	<circle cx="549.459" cy="77.4815" r="4" fill="#0" id="circle75"/>
	<circle cx="549.459" cy="105.744" r="4" fill="#0" id="circle76"/>
	<circle cx="549.459" cy="249.88" r="4" fill="#0" id="circle77"/>
	<circle cx="549.459" cy="278.142" r="4" fill="#0" id="circle78"/>
	<circle cx="549.459" cy="309.231" r="4" fill="#0" id="circle79"/>
	<circle cx="569.242" cy="656.855" r="4" fill="#0" id="circle80"/>
	<circle cx="572.068" cy="388.365" r="4" fill="#0" id="circle81"/>
	<circle cx="572.068" cy="685.117" r="4" fill="#0" id="circle82"/>
	<circle cx="572.068" cy="967.738" r="4" fill="#0" id="circle83"/>
	<circle cx="577.721" cy="713.379" r="4" fill="#0" id="circle84"/>
	<circle cx="597.504" cy="656.855" r="4" fill="#0" id="circle85"/>
	<circle cx="600.33" cy="399.67" r="4" fill="#0" id="circle86"/>
	<circle cx="600.33" cy="973.39" r="4" fill="#0" id="circle87"/>
	<circle cx="605.983" cy="721.858" r="4" fill="#0" id="circle88"/>
	<circle cx="617.288" cy="422.279" r="4" fill="#0" id="circle89"/>
	<circle cx="625.766" cy="662.507" r="4" fill="#0" id="circle90"/>
	<circle cx="628.593" cy="984.695" r="4" fill="#0" id="circle91"/>
	<circle cx="634.245" cy="727.51" r="4" fill="#0" id="circle92"/>
	<circle cx="645.55" cy="427.932" r="4" fill="#0" id="circle93"/>
	<circle cx="654.028" cy="651.202" r="4" fill="#0" id="circle94"/>
	<circle cx="656.855" cy="996" r="4" fill="#0" id="circle95"/>
	<circle cx="662.507" cy="735.989" r="4" fill="#0" id="circle96"/>
	<circle cx="673.812" cy="433.584" r="4" fill="#0" id="circle97"/>
	<circle cx="682.291" cy="645.55" r="4" fill="#0" id="circle98"/>
	<circle cx="685.117" cy="996" r="4" fill="#0" id="circle99"/>
	<circle cx="690.769" cy="727.51" r="4" fill="#0" id="circle100"/>
	<circle cx="702.074" cy="433.584" r="4" fill="#0" id="circle101"/>
	<circle cx="710.553" cy="634.245" r="4" fill="#0" id="circle102"/>
	<circle cx="713.379" cy="996" r="4" fill="#0" id="circle103"/>
	<circle cx="719.031" cy="727.51" r="4" fill="#0" id="circle104"/>
	<circle cx="730.336" cy="439.236" r="4" fill="#0" id="circle105"/>
	<circle cx="738.815" cy="622.94" r="4" fill="#0" id="circle106"/>
	<circle cx="741.641" cy="996" r="4" fill="#0" id="circle107"/>
	<circle cx="747.293" cy="727.51" r="4" fill="#0" id="circle108"/>
	<circle cx="758.598" cy="450.541" r="4" fill="#0" id="circle109"/>
	<circle cx="764.251" cy="608.809" r="4" fill="#0" id="circle110"/>
	<circle cx="769.903" cy="990.348" r="4" fill="#0" id="circle111"/>
	<circle cx="775.556" cy="727.51" r="4" fill="#0" id="circle112"/>
	<circle cx="786.86" cy="456.194" r="4" fill="#0" id="circle113"/>
	<circle cx="786.86" cy="580.547" r="4" fill="#0" id="circle114"/>
	<circle cx="798.165" cy="484.456" r="4" fill="#0" id="circle115"/>
	<circle cx="798.165" cy="979.043" r="4" fill="#0" id="circle116"/>
	<circle cx="803.818" cy="512.718" r="4" fill="#0" id="circle117"/>
	<circle cx="803.818" cy="552.285" r="4" fill="#0" id="circle118"/>
	<circle cx="803.818" cy="738.815" r="4" fill="#0" id="circle119"/>
	<circle cx="820.775" cy="959.259" r="4" fill="#0" id="circle120"/>
	<circle cx="823.601" cy="761.425" r="4" fill="#0" id="circle121"/>
	<circle cx="837.732" cy="786.86" r="4" fill="#0" id="circle122"/>
	<circle cx="843.385" cy="815.123" r="4" fill="#0" id="circle123"/>
	<circle cx="843.385" cy="936.65" r="4" fill="#0" id="circle124"/>
	<circle cx="849.037" cy="843.385" r="4" fill="#0" id="circle125"/>
	<circle cx="849.037" cy="871.647" r="4" fill="#0" id="circle126"/>
	<circle cx="849.037" cy="899.909" r="4" fill="#0" id="circle127"/>
	</g>
</svg>