<?xml version="1.0" encoding="UTF-8" standalone="no"?>
<!-- Created with CurveBenchmark -->
<svg
	xmlns:dc="http://purl.org/dc/elements/1.1/"
	xmlns:cc="http://creativecommons.org/ns#"
	xmlns:rdf="http://www.w3.org/1999/02/22-rdf-syntax-ns#"
	xmlns:svg="http://www.w3.org/2000/svg"
	xmlns="http://www.w3.org/2000/svg"
	xmlns:sodipodi="http://sodipodi.sourceforge.net/DTD/sodipodi-0.dtd"
	xmlns:inkscape="http://www.inkscape.org/namespaces/inkscape"
	width="1000"
	height="1000"
	id="svg2"
	version="1.1"
	sodipodi:docname="manifold/connect2d-textbox60.png.txt">
<defs
	id="defs4" />
<metadata
	id="metadata7">
	<rdf:RDF>
		<cc:Work
			rdf:about="">
			<dc:format>image/svg+xml</dc:format>
			<dc:type
				rdf:resource="http://purl.org/dc/dcmitype/StillImage" />
			<dc:title></dc:title>
		</cc:Work>
	</rdf:RDF>
</metadata>
<g
	inkscape:label="Layer 1"
	inkscape:groupmode="layer"
	id="layer1">
	<path style="fill:none;stroke:red;stroke-width:1px;stroke-linecap:butt;stroke-linejoin:miter;stroke-opacity:1" d="M 996,437.416 986.659,454.23 z" id="boundary" inkscape:connector-curvature="0" />
	<path style="fill:none;stroke:red;stroke-width:1px;stroke-linecap:butt;stroke-linejoin:miter;stroke-opacity:1" d="M 986.659,454.23 986.659,472.911 z" id="boundary" inkscape:connector-curvature="0" />
	<path style="fill:none;stroke:red;stroke-width:1px;stroke-linecap:butt;stroke-linejoin:miter;stroke-opacity:1" d="M 986.659,472.911 967.977,491.593 z" id="boundary" inkscape:connector-curvature="0" />
	<path style="fill:none;stroke:red;stroke-width:1px;stroke-linecap:butt;stroke-linejoin:miter;stroke-opacity:1" d="M 967.977,491.593 967.977,510.275 z" id="boundary" inkscape:connector-curvature="0" />
	<path style="fill:none;stroke:red;stroke-width:1px;stroke-linecap:butt;stroke-linejoin:miter;stroke-opacity:1" d="M 967.977,510.275 953.032,528.957 z" id="boundary" inkscape:connector-curvature="0" />
	<path style="fill:none;stroke:red;stroke-width:1px;stroke-linecap:butt;stroke-linejoin:miter;stroke-opacity:1" d="M 953.032,528.957 938.087,542.034 z" id="boundary" inkscape:connector-curvature="0" />
	<path style="fill:none;stroke:red;stroke-width:1px;stroke-linecap:butt;stroke-linejoin:miter;stroke-opacity:1" d="M 938.087,542.034 928.746,560.716 z" id="boundary" inkscape:connector-curvature="0" />
	<path style="fill:none;stroke:red;stroke-width:1px;stroke-linecap:butt;stroke-linejoin:miter;stroke-opacity:1" d="M 928.746,560.716 910.064,570.056 z" id="boundary" inkscape:connector-curvature="0" />
	<path style="fill:none;stroke:red;stroke-width:1px;stroke-linecap:butt;stroke-linejoin:miter;stroke-opacity:1" d="M 910.064,570.056 891.382,575.661 z" id="boundary" inkscape:connector-curvature="0" />
	<path style="fill:none;stroke:red;stroke-width:1px;stroke-linecap:butt;stroke-linejoin:miter;stroke-opacity:1" d="M 891.382,575.661 872.701,575.661 z" id="boundary" inkscape:connector-curvature="0" />
	<path style="fill:none;stroke:red;stroke-width:1px;stroke-linecap:butt;stroke-linejoin:miter;stroke-opacity:1" d="M 872.701,575.661 855.887,585.002 z" id="boundary" inkscape:connector-curvature="0" />
	<path style="fill:none;stroke:red;stroke-width:1px;stroke-linecap:butt;stroke-linejoin:miter;stroke-opacity:1" d="M 855.887,585.002 855.887,603.684 z" id="boundary" inkscape:connector-curvature="0" />
	<path style="fill:none;stroke:red;stroke-width:1px;stroke-linecap:butt;stroke-linejoin:miter;stroke-opacity:1" d="M 855.887,603.684 846.546,631.706 z" id="boundary" inkscape:connector-curvature="0" />
	<path style="fill:none;stroke:red;stroke-width:1px;stroke-linecap:butt;stroke-linejoin:miter;stroke-opacity:1" d="M 846.546,631.706 846.546,650.388 z" id="boundary" inkscape:connector-curvature="0" />
	<path style="fill:none;stroke:red;stroke-width:1px;stroke-linecap:butt;stroke-linejoin:miter;stroke-opacity:1" d="M 846.546,650.388 827.864,669.07 z" id="boundary" inkscape:connector-curvature="0" />
	<path style="fill:none;stroke:red;stroke-width:1px;stroke-linecap:butt;stroke-linejoin:miter;stroke-opacity:1" d="M 827.864,669.07 824.128,693.356 z" id="boundary" inkscape:connector-curvature="0" />
	<path style="fill:none;stroke:red;stroke-width:1px;stroke-linecap:butt;stroke-linejoin:miter;stroke-opacity:1" d="M 824.128,693.356 809.183,706.433 z" id="boundary" inkscape:connector-curvature="0" />
	<path style="fill:none;stroke:red;stroke-width:1px;stroke-linecap:butt;stroke-linejoin:miter;stroke-opacity:1" d="M 809.183,706.433 790.501,725.115 z" id="boundary" inkscape:connector-curvature="0" />
	<path style="fill:none;stroke:red;stroke-width:1px;stroke-linecap:butt;stroke-linejoin:miter;stroke-opacity:1" d="M 790.501,725.115 775.556,743.797 z" id="boundary" inkscape:connector-curvature="0" />
	<path style="fill:none;stroke:red;stroke-width:1px;stroke-linecap:butt;stroke-linejoin:miter;stroke-opacity:1" d="M 775.556,743.797 756.874,743.797 z" id="boundary" inkscape:connector-curvature="0" />
	<path style="fill:none;stroke:red;stroke-width:1px;stroke-linecap:butt;stroke-linejoin:miter;stroke-opacity:1" d="M 756.874,743.797 738.192,751.269 z" id="boundary" inkscape:connector-curvature="0" />
	<path style="fill:none;stroke:red;stroke-width:1px;stroke-linecap:butt;stroke-linejoin:miter;stroke-opacity:1" d="M 738.192,751.269 719.51,753.137 z" id="boundary" inkscape:connector-curvature="0" />
	<path style="fill:none;stroke:red;stroke-width:1px;stroke-linecap:butt;stroke-linejoin:miter;stroke-opacity:1" d="M 719.51,753.137 702.697,743.797 z" id="boundary" inkscape:connector-curvature="0" />
	<path style="fill:none;stroke:red;stroke-width:1px;stroke-linecap:butt;stroke-linejoin:miter;stroke-opacity:1" d="M 702.697,743.797 685.883,734.456 z" id="boundary" inkscape:connector-curvature="0" />
	<path style="fill:none;stroke:red;stroke-width:1px;stroke-linecap:butt;stroke-linejoin:miter;stroke-opacity:1" d="M 685.883,734.456 669.07,725.115 z" id="boundary" inkscape:connector-curvature="0" />
	<path style="fill:none;stroke:red;stroke-width:1px;stroke-linecap:butt;stroke-linejoin:miter;stroke-opacity:1" d="M 669.07,725.115 650.388,725.115 z" id="boundary" inkscape:connector-curvature="0" />
	<path style="fill:none;stroke:red;stroke-width:1px;stroke-linecap:butt;stroke-linejoin:miter;stroke-opacity:1" d="M 650.388,725.115 641.047,753.137 z" id="boundary" inkscape:connector-curvature="0" />
	<path style="fill:none;stroke:red;stroke-width:1px;stroke-linecap:butt;stroke-linejoin:miter;stroke-opacity:1" d="M 641.047,753.137 629.838,771.819 z" id="boundary" inkscape:connector-curvature="0" />
	<path style="fill:none;stroke:red;stroke-width:1px;stroke-linecap:butt;stroke-linejoin:miter;stroke-opacity:1" d="M 629.838,771.819 618.629,786.765 z" id="boundary" inkscape:connector-curvature="0" />
	<path style="fill:none;stroke:red;stroke-width:1px;stroke-linecap:butt;stroke-linejoin:miter;stroke-opacity:1" d="M 618.629,786.765 609.288,805.446 z" id="boundary" inkscape:connector-curvature="0" />
	<path style="fill:none;stroke:red;stroke-width:1px;stroke-linecap:butt;stroke-linejoin:miter;stroke-opacity:1" d="M 609.288,805.446 594.343,818.524 z" id="boundary" inkscape:connector-curvature="0" />
	<path style="fill:none;stroke:red;stroke-width:1px;stroke-linecap:butt;stroke-linejoin:miter;stroke-opacity:1" d="M 594.343,818.524 575.661,818.524 z" id="boundary" inkscape:connector-curvature="0" />
	<path style="fill:none;stroke:red;stroke-width:1px;stroke-linecap:butt;stroke-linejoin:miter;stroke-opacity:1" d="M 575.661,818.524 556.979,827.864 z" id="boundary" inkscape:connector-curvature="0" />
	<path style="fill:none;stroke:red;stroke-width:1px;stroke-linecap:butt;stroke-linejoin:miter;stroke-opacity:1" d="M 556.979,827.864 538.298,827.864 z" id="boundary" inkscape:connector-curvature="0" />
	<path style="fill:none;stroke:red;stroke-width:1px;stroke-linecap:butt;stroke-linejoin:miter;stroke-opacity:1" d="M 538.298,827.864 534.561,852.151 z" id="boundary" inkscape:connector-curvature="0" />
	<path style="fill:none;stroke:red;stroke-width:1px;stroke-linecap:butt;stroke-linejoin:miter;stroke-opacity:1" d="M 534.561,852.151 515.879,855.887 z" id="boundary" inkscape:connector-curvature="0" />
	<path style="fill:none;stroke:red;stroke-width:1px;stroke-linecap:butt;stroke-linejoin:miter;stroke-opacity:1" d="M 515.879,855.887 497.198,855.887 z" id="boundary" inkscape:connector-curvature="0" />
	<path style="fill:none;stroke:red;stroke-width:1px;stroke-linecap:butt;stroke-linejoin:miter;stroke-opacity:1" d="M 497.198,855.887 480.384,846.546 z" id="boundary" inkscape:connector-curvature="0" />
	<path style="fill:none;stroke:red;stroke-width:1px;stroke-linecap:butt;stroke-linejoin:miter;stroke-opacity:1" d="M 480.384,846.546 472.911,827.864 z" id="boundary" inkscape:connector-curvature="0" />
	<path style="fill:none;stroke:red;stroke-width:1px;stroke-linecap:butt;stroke-linejoin:miter;stroke-opacity:1" d="M 472.911,827.864 454.23,827.864 z" id="boundary" inkscape:connector-curvature="0" />
	<path style="fill:none;stroke:red;stroke-width:1px;stroke-linecap:butt;stroke-linejoin:miter;stroke-opacity:1" d="M 454.23,827.864 435.548,822.26 z" id="boundary" inkscape:connector-curvature="0" />
	<path style="fill:none;stroke:red;stroke-width:1px;stroke-linecap:butt;stroke-linejoin:miter;stroke-opacity:1" d="M 435.548,822.26 416.866,814.787 z" id="boundary" inkscape:connector-curvature="0" />
	<path style="fill:none;stroke:red;stroke-width:1px;stroke-linecap:butt;stroke-linejoin:miter;stroke-opacity:1" d="M 416.866,814.787 405.657,799.842 z" id="boundary" inkscape:connector-curvature="0" />
	<path style="fill:none;stroke:red;stroke-width:1px;stroke-linecap:butt;stroke-linejoin:miter;stroke-opacity:1" d="M 405.657,799.842 401.921,781.16 z" id="boundary" inkscape:connector-curvature="0" />
	<path style="fill:none;stroke:red;stroke-width:1px;stroke-linecap:butt;stroke-linejoin:miter;stroke-opacity:1" d="M 401.921,781.16 385.107,771.819 z" id="boundary" inkscape:connector-curvature="0" />
	<path style="fill:none;stroke:red;stroke-width:1px;stroke-linecap:butt;stroke-linejoin:miter;stroke-opacity:1" d="M 385.107,771.819 368.294,781.16 z" id="boundary" inkscape:connector-curvature="0" />
	<path style="fill:none;stroke:red;stroke-width:1px;stroke-linecap:butt;stroke-linejoin:miter;stroke-opacity:1" d="M 368.294,781.16 351.48,790.501 z" id="boundary" inkscape:connector-curvature="0" />
	<path style="fill:none;stroke:red;stroke-width:1px;stroke-linecap:butt;stroke-linejoin:miter;stroke-opacity:1" d="M 351.48,790.501 332.798,790.501 z" id="boundary" inkscape:connector-curvature="0" />
	<path style="fill:none;stroke:red;stroke-width:1px;stroke-linecap:butt;stroke-linejoin:miter;stroke-opacity:1" d="M 332.798,790.501 314.117,790.501 z" id="boundary" inkscape:connector-curvature="0" />
	<path style="fill:none;stroke:red;stroke-width:1px;stroke-linecap:butt;stroke-linejoin:miter;stroke-opacity:1" d="M 314.117,790.501 314.117,809.183 z" id="boundary" inkscape:connector-curvature="0" />
	<path style="fill:none;stroke:red;stroke-width:1px;stroke-linecap:butt;stroke-linejoin:miter;stroke-opacity:1" d="M 314.117,809.183 295.435,818.524 z" id="boundary" inkscape:connector-curvature="0" />
	<path style="fill:none;stroke:red;stroke-width:1px;stroke-linecap:butt;stroke-linejoin:miter;stroke-opacity:1" d="M 295.435,818.524 289.831,854.019 z" id="boundary" inkscape:connector-curvature="0" />
	<path style="fill:none;stroke:red;stroke-width:1px;stroke-linecap:butt;stroke-linejoin:miter;stroke-opacity:1" d="M 289.831,854.019 274.885,865.228 z" id="boundary" inkscape:connector-curvature="0" />
	<path style="fill:none;stroke:red;stroke-width:1px;stroke-linecap:butt;stroke-linejoin:miter;stroke-opacity:1" d="M 274.885,865.228 256.203,868.964 z" id="boundary" inkscape:connector-curvature="0" />
	<path style="fill:none;stroke:red;stroke-width:1px;stroke-linecap:butt;stroke-linejoin:miter;stroke-opacity:1" d="M 256.203,868.964 237.522,874.569 z" id="boundary" inkscape:connector-curvature="0" />
	<path style="fill:none;stroke:red;stroke-width:1px;stroke-linecap:butt;stroke-linejoin:miter;stroke-opacity:1" d="M 237.522,874.569 226.313,889.514 z" id="boundary" inkscape:connector-curvature="0" />
	<path style="fill:none;stroke:red;stroke-width:1px;stroke-linecap:butt;stroke-linejoin:miter;stroke-opacity:1" d="M 226.313,889.514 207.631,898.855 z" id="boundary" inkscape:connector-curvature="0" />
	<path style="fill:none;stroke:red;stroke-width:1px;stroke-linecap:butt;stroke-linejoin:miter;stroke-opacity:1" d="M 207.631,898.855 188.949,902.591 z" id="boundary" inkscape:connector-curvature="0" />
	<path style="fill:none;stroke:red;stroke-width:1px;stroke-linecap:butt;stroke-linejoin:miter;stroke-opacity:1" d="M 188.949,902.591 170.267,902.591 z" id="boundary" inkscape:connector-curvature="0" />
	<path style="fill:none;stroke:red;stroke-width:1px;stroke-linecap:butt;stroke-linejoin:miter;stroke-opacity:1" d="M 170.267,902.591 153.454,893.25 z" id="boundary" inkscape:connector-curvature="0" />
	<path style="fill:none;stroke:red;stroke-width:1px;stroke-linecap:butt;stroke-linejoin:miter;stroke-opacity:1" d="M 153.454,893.25 134.772,893.25 z" id="boundary" inkscape:connector-curvature="0" />
	<path style="fill:none;stroke:red;stroke-width:1px;stroke-linecap:butt;stroke-linejoin:miter;stroke-opacity:1" d="M 134.772,893.25 125.431,876.437 z" id="boundary" inkscape:connector-curvature="0" />
	<path style="fill:none;stroke:red;stroke-width:1px;stroke-linecap:butt;stroke-linejoin:miter;stroke-opacity:1" d="M 125.431,876.437 116.09,859.623 z" id="boundary" inkscape:connector-curvature="0" />
	<path style="fill:none;stroke:red;stroke-width:1px;stroke-linecap:butt;stroke-linejoin:miter;stroke-opacity:1" d="M 116.09,859.623 116.09,840.942 z" id="boundary" inkscape:connector-curvature="0" />
	<path style="fill:none;stroke:red;stroke-width:1px;stroke-linecap:butt;stroke-linejoin:miter;stroke-opacity:1" d="M 116.09,840.942 116.09,822.26 z" id="boundary" inkscape:connector-curvature="0" />
	<path style="fill:none;stroke:red;stroke-width:1px;stroke-linecap:butt;stroke-linejoin:miter;stroke-opacity:1" d="M 116.09,822.26 125.431,803.578 z" id="boundary" inkscape:connector-curvature="0" />
	<path style="fill:none;stroke:red;stroke-width:1px;stroke-linecap:butt;stroke-linejoin:miter;stroke-opacity:1" d="M 125.431,803.578 125.431,784.896 z" id="boundary" inkscape:connector-curvature="0" />
	<path style="fill:none;stroke:red;stroke-width:1px;stroke-linecap:butt;stroke-linejoin:miter;stroke-opacity:1" d="M 125.431,784.896 144.113,779.292 z" id="boundary" inkscape:connector-curvature="0" />
	<path style="fill:none;stroke:red;stroke-width:1px;stroke-linecap:butt;stroke-linejoin:miter;stroke-opacity:1" d="M 144.113,779.292 153.454,756.874 z" id="boundary" inkscape:connector-curvature="0" />
	<path style="fill:none;stroke:red;stroke-width:1px;stroke-linecap:butt;stroke-linejoin:miter;stroke-opacity:1" d="M 153.454,756.874 168.399,741.928 z" id="boundary" inkscape:connector-curvature="0" />
	<path style="fill:none;stroke:red;stroke-width:1px;stroke-linecap:butt;stroke-linejoin:miter;stroke-opacity:1" d="M 168.399,741.928 162.795,719.51 z" id="boundary" inkscape:connector-curvature="0" />
	<path style="fill:none;stroke:red;stroke-width:1px;stroke-linecap:butt;stroke-linejoin:miter;stroke-opacity:1" d="M 162.795,719.51 155.322,700.829 z" id="boundary" inkscape:connector-curvature="0" />
	<path style="fill:none;stroke:red;stroke-width:1px;stroke-linecap:butt;stroke-linejoin:miter;stroke-opacity:1" d="M 155.322,700.829 136.64,697.092 z" id="boundary" inkscape:connector-curvature="0" />
	<path style="fill:none;stroke:red;stroke-width:1px;stroke-linecap:butt;stroke-linejoin:miter;stroke-opacity:1" d="M 136.64,697.092 117.959,691.488 z" id="boundary" inkscape:connector-curvature="0" />
	<path style="fill:none;stroke:red;stroke-width:1px;stroke-linecap:butt;stroke-linejoin:miter;stroke-opacity:1" d="M 117.959,691.488 99.2768,687.751 z" id="boundary" inkscape:connector-curvature="0" />
	<path style="fill:none;stroke:red;stroke-width:1px;stroke-linecap:butt;stroke-linejoin:miter;stroke-opacity:1" d="M 99.2768,687.751 88.0678,672.806 z" id="boundary" inkscape:connector-curvature="0" />
	<path style="fill:none;stroke:red;stroke-width:1px;stroke-linecap:butt;stroke-linejoin:miter;stroke-opacity:1" d="M 88.0678,672.806 74.9906,657.861 z" id="boundary" inkscape:connector-curvature="0" />
	<path style="fill:none;stroke:red;stroke-width:1px;stroke-linecap:butt;stroke-linejoin:miter;stroke-opacity:1" d="M 74.9906,657.861 56.3089,650.388 z" id="boundary" inkscape:connector-curvature="0" />
	<path style="fill:none;stroke:red;stroke-width:1px;stroke-linecap:butt;stroke-linejoin:miter;stroke-opacity:1" d="M 56.3089,650.388 50.7043,631.706 z" id="boundary" inkscape:connector-curvature="0" />
	<path style="fill:none;stroke:red;stroke-width:1px;stroke-linecap:butt;stroke-linejoin:miter;stroke-opacity:1" d="M 50.7043,631.706 32.0226,624.234 z" id="boundary" inkscape:connector-curvature="0" />
	<path style="fill:none;stroke:red;stroke-width:1px;stroke-linecap:butt;stroke-linejoin:miter;stroke-opacity:1" d="M 32.0226,624.234 32.0226,605.552 z" id="boundary" inkscape:connector-curvature="0" />
	<path style="fill:none;stroke:red;stroke-width:1px;stroke-linecap:butt;stroke-linejoin:miter;stroke-opacity:1" d="M 32.0226,605.552 22.6817,588.738 z" id="boundary" inkscape:connector-curvature="0" />
	<path style="fill:none;stroke:red;stroke-width:1px;stroke-linecap:butt;stroke-linejoin:miter;stroke-opacity:1" d="M 22.6817,588.738 22.6817,570.056 z" id="boundary" inkscape:connector-curvature="0" />
	<path style="fill:none;stroke:red;stroke-width:1px;stroke-linecap:butt;stroke-linejoin:miter;stroke-opacity:1" d="M 22.6817,570.056 22.6817,551.375 z" id="boundary" inkscape:connector-curvature="0" />
	<path style="fill:none;stroke:red;stroke-width:1px;stroke-linecap:butt;stroke-linejoin:miter;stroke-opacity:1" d="M 22.6817,551.375 32.0226,532.693 z" id="boundary" inkscape:connector-curvature="0" />
	<path style="fill:none;stroke:red;stroke-width:1px;stroke-linecap:butt;stroke-linejoin:miter;stroke-opacity:1" d="M 32.0226,532.693 50.7043,510.275 z" id="boundary" inkscape:connector-curvature="0" />
	<path style="fill:none;stroke:red;stroke-width:1px;stroke-linecap:butt;stroke-linejoin:miter;stroke-opacity:1" d="M 50.7043,510.275 46.968,491.593 z" id="boundary" inkscape:connector-curvature="0" />
	<path style="fill:none;stroke:red;stroke-width:1px;stroke-linecap:butt;stroke-linejoin:miter;stroke-opacity:1" d="M 46.968,491.593 32.0226,480.384 z" id="boundary" inkscape:connector-curvature="0" />
	<path style="fill:none;stroke:red;stroke-width:1px;stroke-linecap:butt;stroke-linejoin:miter;stroke-opacity:1" d="M 32.0226,480.384 22.6817,463.571 z" id="boundary" inkscape:connector-curvature="0" />
	<path style="fill:none;stroke:red;stroke-width:1px;stroke-linecap:butt;stroke-linejoin:miter;stroke-opacity:1" d="M 22.6817,463.571 15.209,444.889 z" id="boundary" inkscape:connector-curvature="0" />
	<path style="fill:none;stroke:red;stroke-width:1px;stroke-linecap:butt;stroke-linejoin:miter;stroke-opacity:1" d="M 15.209,444.889 4,429.944 z" id="boundary" inkscape:connector-curvature="0" />
	<path style="fill:none;stroke:red;stroke-width:1px;stroke-linecap:butt;stroke-linejoin:miter;stroke-opacity:1" d="M 4,429.944 4,411.262 z" id="boundary" inkscape:connector-curvature="0" />
	<path style="fill:none;stroke:red;stroke-width:1px;stroke-linecap:butt;stroke-linejoin:miter;stroke-opacity:1" d="M 4,411.262 4,392.58 z" id="boundary" inkscape:connector-curvature="0" />
	<path style="fill:none;stroke:red;stroke-width:1px;stroke-linecap:butt;stroke-linejoin:miter;stroke-opacity:1" d="M 4,392.58 22.6817,373.898 z" id="boundary" inkscape:connector-curvature="0" />
	<path style="fill:none;stroke:red;stroke-width:1px;stroke-linecap:butt;stroke-linejoin:miter;stroke-opacity:1" d="M 22.6817,373.898 22.6817,355.217 z" id="boundary" inkscape:connector-curvature="0" />
	<path style="fill:none;stroke:red;stroke-width:1px;stroke-linecap:butt;stroke-linejoin:miter;stroke-opacity:1" d="M 22.6817,355.217 32.0226,327.194 z" id="boundary" inkscape:connector-curvature="0" />
	<path style="fill:none;stroke:red;stroke-width:1px;stroke-linecap:butt;stroke-linejoin:miter;stroke-opacity:1" d="M 32.0226,327.194 50.7043,308.512 z" id="boundary" inkscape:connector-curvature="0" />
	<path style="fill:none;stroke:red;stroke-width:1px;stroke-linecap:butt;stroke-linejoin:miter;stroke-opacity:1" d="M 50.7043,308.512 69.3861,289.831 z" id="boundary" inkscape:connector-curvature="0" />
	<path style="fill:none;stroke:red;stroke-width:1px;stroke-linecap:butt;stroke-linejoin:miter;stroke-opacity:1" d="M 69.3861,289.831 88.0678,280.49 z" id="boundary" inkscape:connector-curvature="0" />
	<path style="fill:none;stroke:red;stroke-width:1px;stroke-linecap:butt;stroke-linejoin:miter;stroke-opacity:1" d="M 88.0678,280.49 88.0678,261.808 z" id="boundary" inkscape:connector-curvature="0" />
	<path style="fill:none;stroke:red;stroke-width:1px;stroke-linecap:butt;stroke-linejoin:miter;stroke-opacity:1" d="M 88.0678,261.808 88.0678,243.126 z" id="boundary" inkscape:connector-curvature="0" />
	<path style="fill:none;stroke:red;stroke-width:1px;stroke-linecap:butt;stroke-linejoin:miter;stroke-opacity:1" d="M 88.0678,243.126 106.75,233.785 z" id="boundary" inkscape:connector-curvature="0" />
	<path style="fill:none;stroke:red;stroke-width:1px;stroke-linecap:butt;stroke-linejoin:miter;stroke-opacity:1" d="M 106.75,233.785 106.75,215.104 z" id="boundary" inkscape:connector-curvature="0" />
	<path style="fill:none;stroke:red;stroke-width:1px;stroke-linecap:butt;stroke-linejoin:miter;stroke-opacity:1" d="M 106.75,215.104 106.75,196.422 z" id="boundary" inkscape:connector-curvature="0" />
	<path style="fill:none;stroke:red;stroke-width:1px;stroke-linecap:butt;stroke-linejoin:miter;stroke-opacity:1" d="M 106.75,196.422 116.09,168.399 z" id="boundary" inkscape:connector-curvature="0" />
	<path style="fill:none;stroke:red;stroke-width:1px;stroke-linecap:butt;stroke-linejoin:miter;stroke-opacity:1" d="M 116.09,168.399 125.431,149.718 z" id="boundary" inkscape:connector-curvature="0" />
	<path style="fill:none;stroke:red;stroke-width:1px;stroke-linecap:butt;stroke-linejoin:miter;stroke-opacity:1" d="M 125.431,149.718 144.113,144.113 z" id="boundary" inkscape:connector-curvature="0" />
	<path style="fill:none;stroke:red;stroke-width:1px;stroke-linecap:butt;stroke-linejoin:miter;stroke-opacity:1" d="M 144.113,144.113 155.322,129.168 z" id="boundary" inkscape:connector-curvature="0" />
	<path style="fill:none;stroke:red;stroke-width:1px;stroke-linecap:butt;stroke-linejoin:miter;stroke-opacity:1" d="M 155.322,129.168 170.267,116.09 z" id="boundary" inkscape:connector-curvature="0" />
	<path style="fill:none;stroke:red;stroke-width:1px;stroke-linecap:butt;stroke-linejoin:miter;stroke-opacity:1" d="M 170.267,116.09 188.949,116.09 z" id="boundary" inkscape:connector-curvature="0" />
	<path style="fill:none;stroke:red;stroke-width:1px;stroke-linecap:butt;stroke-linejoin:miter;stroke-opacity:1" d="M 188.949,116.09 205.763,106.75 z" id="boundary" inkscape:connector-curvature="0" />
	<path style="fill:none;stroke:red;stroke-width:1px;stroke-linecap:butt;stroke-linejoin:miter;stroke-opacity:1" d="M 205.763,106.75 209.499,84.3315 z" id="boundary" inkscape:connector-curvature="0" />
	<path style="fill:none;stroke:red;stroke-width:1px;stroke-linecap:butt;stroke-linejoin:miter;stroke-opacity:1" d="M 209.499,84.3315 228.181,78.7269 z" id="boundary" inkscape:connector-curvature="0" />
	<path style="fill:none;stroke:red;stroke-width:1px;stroke-linecap:butt;stroke-linejoin:miter;stroke-opacity:1" d="M 228.181,78.7269 246.863,78.7269 z" id="boundary" inkscape:connector-curvature="0" />
	<path style="fill:none;stroke:red;stroke-width:1px;stroke-linecap:butt;stroke-linejoin:miter;stroke-opacity:1" d="M 246.863,78.7269 265.544,78.7269 z" id="boundary" inkscape:connector-curvature="0" />
	<path style="fill:none;stroke:red;stroke-width:1px;stroke-linecap:butt;stroke-linejoin:miter;stroke-opacity:1" d="M 265.544,78.7269 284.226,78.7269 z" id="boundary" inkscape:connector-curvature="0" />
	<path style="fill:none;stroke:red;stroke-width:1px;stroke-linecap:butt;stroke-linejoin:miter;stroke-opacity:1" d="M 284.226,78.7269 302.908,78.7269 z" id="boundary" inkscape:connector-curvature="0" />
	<path style="fill:none;stroke:red;stroke-width:1px;stroke-linecap:butt;stroke-linejoin:miter;stroke-opacity:1" d="M 302.908,78.7269 314.117,93.6723 z" id="boundary" inkscape:connector-curvature="0" />
	<path style="fill:none;stroke:red;stroke-width:1px;stroke-linecap:butt;stroke-linejoin:miter;stroke-opacity:1" d="M 314.117,93.6723 329.062,106.75 z" id="boundary" inkscape:connector-curvature="0" />
	<path style="fill:none;stroke:red;stroke-width:1px;stroke-linecap:butt;stroke-linejoin:miter;stroke-opacity:1" d="M 329.062,106.75 330.93,84.3315 z" id="boundary" inkscape:connector-curvature="0" />
	<path style="fill:none;stroke:red;stroke-width:1px;stroke-linecap:butt;stroke-linejoin:miter;stroke-opacity:1" d="M 330.93,84.3315 349.612,78.7269 z" id="boundary" inkscape:connector-curvature="0" />
	<path style="fill:none;stroke:red;stroke-width:1px;stroke-linecap:butt;stroke-linejoin:miter;stroke-opacity:1" d="M 349.612,78.7269 360.821,63.7815 z" id="boundary" inkscape:connector-curvature="0" />
	<path style="fill:none;stroke:red;stroke-width:1px;stroke-linecap:butt;stroke-linejoin:miter;stroke-opacity:1" d="M 360.821,63.7815 370.162,45.0998 z" id="boundary" inkscape:connector-curvature="0" />
	<path style="fill:none;stroke:red;stroke-width:1px;stroke-linecap:butt;stroke-linejoin:miter;stroke-opacity:1" d="M 370.162,45.0998 388.844,41.3635 z" id="boundary" inkscape:connector-curvature="0" />
	<path style="fill:none;stroke:red;stroke-width:1px;stroke-linecap:butt;stroke-linejoin:miter;stroke-opacity:1" d="M 388.844,41.3635 407.525,35.7589 z" id="boundary" inkscape:connector-curvature="0" />
	<path style="fill:none;stroke:red;stroke-width:1px;stroke-linecap:butt;stroke-linejoin:miter;stroke-opacity:1" d="M 407.525,35.7589 426.207,32.0226 z" id="boundary" inkscape:connector-curvature="0" />
	<path style="fill:none;stroke:red;stroke-width:1px;stroke-linecap:butt;stroke-linejoin:miter;stroke-opacity:1" d="M 426.207,32.0226 444.889,32.0226 z" id="boundary" inkscape:connector-curvature="0" />
	<path style="fill:none;stroke:red;stroke-width:1px;stroke-linecap:butt;stroke-linejoin:miter;stroke-opacity:1" d="M 444.889,32.0226 461.702,41.3635 z" id="boundary" inkscape:connector-curvature="0" />
	<path style="fill:none;stroke:red;stroke-width:1px;stroke-linecap:butt;stroke-linejoin:miter;stroke-opacity:1" d="M 461.702,41.3635 480.384,41.3635 z" id="boundary" inkscape:connector-curvature="0" />
	<path style="fill:none;stroke:red;stroke-width:1px;stroke-linecap:butt;stroke-linejoin:miter;stroke-opacity:1" d="M 480.384,41.3635 491.593,56.3089 z" id="boundary" inkscape:connector-curvature="0" />
	<path style="fill:none;stroke:red;stroke-width:1px;stroke-linecap:butt;stroke-linejoin:miter;stroke-opacity:1" d="M 491.593,56.3089 510.275,60.0452 z" id="boundary" inkscape:connector-curvature="0" />
	<path style="fill:none;stroke:red;stroke-width:1px;stroke-linecap:butt;stroke-linejoin:miter;stroke-opacity:1" d="M 510.275,60.0452 527.089,69.3861 z" id="boundary" inkscape:connector-curvature="0" />
	<path style="fill:none;stroke:red;stroke-width:1px;stroke-linecap:butt;stroke-linejoin:miter;stroke-opacity:1" d="M 527.089,69.3861 527.089,46.968 z" id="boundary" inkscape:connector-curvature="0" />
	<path style="fill:none;stroke:red;stroke-width:1px;stroke-linecap:butt;stroke-linejoin:miter;stroke-opacity:1" d="M 527.089,46.968 542.034,32.0226 z" id="boundary" inkscape:connector-curvature="0" />
	<path style="fill:none;stroke:red;stroke-width:1px;stroke-linecap:butt;stroke-linejoin:miter;stroke-opacity:1" d="M 542.034,32.0226 560.716,32.0226 z" id="boundary" inkscape:connector-curvature="0" />
	<path style="fill:none;stroke:red;stroke-width:1px;stroke-linecap:butt;stroke-linejoin:miter;stroke-opacity:1" d="M 560.716,32.0226 573.793,9.60452 z" id="boundary" inkscape:connector-curvature="0" />
	<path style="fill:none;stroke:red;stroke-width:1px;stroke-linecap:butt;stroke-linejoin:miter;stroke-opacity:1" d="M 573.793,9.60452 592.475,4 z" id="boundary" inkscape:connector-curvature="0" />
	<path style="fill:none;stroke:red;stroke-width:1px;stroke-linecap:butt;stroke-linejoin:miter;stroke-opacity:1" d="M 592.475,4 611.156,4 z" id="boundary" inkscape:connector-curvature="0" />
	<path style="fill:none;stroke:red;stroke-width:1px;stroke-linecap:butt;stroke-linejoin:miter;stroke-opacity:1" d="M 611.156,4 622.365,18.9454 z" id="boundary" inkscape:connector-curvature="0" />
	<path style="fill:none;stroke:red;stroke-width:1px;stroke-linecap:butt;stroke-linejoin:miter;stroke-opacity:1" d="M 622.365,18.9454 641.047,22.6817 z" id="boundary" inkscape:connector-curvature="0" />
	<path style="fill:none;stroke:red;stroke-width:1px;stroke-linecap:butt;stroke-linejoin:miter;stroke-opacity:1" d="M 641.047,22.6817 657.861,32.0226 z" id="boundary" inkscape:connector-curvature="0" />
	<path style="fill:none;stroke:red;stroke-width:1px;stroke-linecap:butt;stroke-linejoin:miter;stroke-opacity:1" d="M 657.861,32.0226 676.542,32.0226 z" id="boundary" inkscape:connector-curvature="0" />
	<path style="fill:none;stroke:red;stroke-width:1px;stroke-linecap:butt;stroke-linejoin:miter;stroke-opacity:1" d="M 676.542,32.0226 693.356,41.3635 z" id="boundary" inkscape:connector-curvature="0" />
	<path style="fill:none;stroke:red;stroke-width:1px;stroke-linecap:butt;stroke-linejoin:miter;stroke-opacity:1" d="M 693.356,41.3635 710.169,32.0226 z" id="boundary" inkscape:connector-curvature="0" />
	<path style="fill:none;stroke:red;stroke-width:1px;stroke-linecap:butt;stroke-linejoin:miter;stroke-opacity:1" d="M 710.169,32.0226 728.851,22.6817 z" id="boundary" inkscape:connector-curvature="0" />
	<path style="fill:none;stroke:red;stroke-width:1px;stroke-linecap:butt;stroke-linejoin:miter;stroke-opacity:1" d="M 728.851,22.6817 743.797,7.73635 z" id="boundary" inkscape:connector-curvature="0" />
	<path style="fill:none;stroke:red;stroke-width:1px;stroke-linecap:butt;stroke-linejoin:miter;stroke-opacity:1" d="M 743.797,7.73635 762.478,4 z" id="boundary" inkscape:connector-curvature="0" />
	<path style="fill:none;stroke:red;stroke-width:1px;stroke-linecap:butt;stroke-linejoin:miter;stroke-opacity:1" d="M 762.478,4 781.16,4 z" id="boundary" inkscape:connector-curvature="0" />
	<path style="fill:none;stroke:red;stroke-width:1px;stroke-linecap:butt;stroke-linejoin:miter;stroke-opacity:1" d="M 781.16,4 790.501,20.8136 z" id="boundary" inkscape:connector-curvature="0" />
	<path style="fill:none;stroke:red;stroke-width:1px;stroke-linecap:butt;stroke-linejoin:miter;stroke-opacity:1" d="M 790.501,20.8136 809.183,22.6817 z" id="boundary" inkscape:connector-curvature="0" />
	<path style="fill:none;stroke:red;stroke-width:1px;stroke-linecap:butt;stroke-linejoin:miter;stroke-opacity:1" d="M 809.183,22.6817 827.864,28.2863 z" id="boundary" inkscape:connector-curvature="0" />
	<path style="fill:none;stroke:red;stroke-width:1px;stroke-linecap:butt;stroke-linejoin:miter;stroke-opacity:1" d="M 827.864,28.2863 844.678,37.6271 z" id="boundary" inkscape:connector-curvature="0" />
	<path style="fill:none;stroke:red;stroke-width:1px;stroke-linecap:butt;stroke-linejoin:miter;stroke-opacity:1" d="M 844.678,37.6271 846.546,56.3089 z" id="boundary" inkscape:connector-curvature="0" />
	<path style="fill:none;stroke:red;stroke-width:1px;stroke-linecap:butt;stroke-linejoin:miter;stroke-opacity:1" d="M 846.546,56.3089 855.887,73.1224 z" id="boundary" inkscape:connector-curvature="0" />
	<path style="fill:none;stroke:red;stroke-width:1px;stroke-linecap:butt;stroke-linejoin:miter;stroke-opacity:1" d="M 855.887,73.1224 865.228,89.936 z" id="boundary" inkscape:connector-curvature="0" />
	<path style="fill:none;stroke:red;stroke-width:1px;stroke-linecap:butt;stroke-linejoin:miter;stroke-opacity:1" d="M 865.228,89.936 865.228,108.618 z" id="boundary" inkscape:connector-curvature="0" />
	<path style="fill:none;stroke:red;stroke-width:1px;stroke-linecap:butt;stroke-linejoin:miter;stroke-opacity:1" d="M 865.228,108.618 883.91,116.09 z" id="boundary" inkscape:connector-curvature="0" />
	<path style="fill:none;stroke:red;stroke-width:1px;stroke-linecap:butt;stroke-linejoin:miter;stroke-opacity:1" d="M 883.91,116.09 902.591,121.695 z" id="boundary" inkscape:connector-curvature="0" />
	<path style="fill:none;stroke:red;stroke-width:1px;stroke-linecap:butt;stroke-linejoin:miter;stroke-opacity:1" d="M 902.591,121.695 921.273,125.431 z" id="boundary" inkscape:connector-curvature="0" />
	<path style="fill:none;stroke:red;stroke-width:1px;stroke-linecap:butt;stroke-linejoin:miter;stroke-opacity:1" d="M 921.273,125.431 930.614,142.245 z" id="boundary" inkscape:connector-curvature="0" />
	<path style="fill:none;stroke:red;stroke-width:1px;stroke-linecap:butt;stroke-linejoin:miter;stroke-opacity:1" d="M 930.614,142.245 939.955,159.058 z" id="boundary" inkscape:connector-curvature="0" />
	<path style="fill:none;stroke:red;stroke-width:1px;stroke-linecap:butt;stroke-linejoin:miter;stroke-opacity:1" d="M 939.955,159.058 949.296,175.872 z" id="boundary" inkscape:connector-curvature="0" />
	<path style="fill:none;stroke:red;stroke-width:1px;stroke-linecap:butt;stroke-linejoin:miter;stroke-opacity:1" d="M 949.296,175.872 949.296,194.554 z" id="boundary" inkscape:connector-curvature="0" />
	<path style="fill:none;stroke:red;stroke-width:1px;stroke-linecap:butt;stroke-linejoin:miter;stroke-opacity:1" d="M 949.296,194.554 949.296,213.235 z" id="boundary" inkscape:connector-curvature="0" />
	<path style="fill:none;stroke:red;stroke-width:1px;stroke-linecap:butt;stroke-linejoin:miter;stroke-opacity:1" d="M 949.296,213.235 960.505,228.181 z" id="boundary" inkscape:connector-curvature="0" />
	<path style="fill:none;stroke:red;stroke-width:1px;stroke-linecap:butt;stroke-linejoin:miter;stroke-opacity:1" d="M 960.505,228.181 967.977,246.863 z" id="boundary" inkscape:connector-curvature="0" />
	<path style="fill:none;stroke:red;stroke-width:1px;stroke-linecap:butt;stroke-linejoin:miter;stroke-opacity:1" d="M 967.977,246.863 967.977,265.544 z" id="boundary" inkscape:connector-curvature="0" />
	<path style="fill:none;stroke:red;stroke-width:1px;stroke-linecap:butt;stroke-linejoin:miter;stroke-opacity:1" d="M 967.977,265.544 967.977,284.226 z" id="boundary" inkscape:connector-curvature="0" />
	<path style="fill:none;stroke:red;stroke-width:1px;stroke-linecap:butt;stroke-linejoin:miter;stroke-opacity:1" d="M 967.977,284.226 949.296,304.776 z" id="boundary" inkscape:connector-curvature="0" />
	<path style="fill:none;stroke:red;stroke-width:1px;stroke-linecap:butt;stroke-linejoin:miter;stroke-opacity:1" d="M 949.296,304.776 949.296,323.458 z" id="boundary" inkscape:connector-curvature="0" />
	<path style="fill:none;stroke:red;stroke-width:1px;stroke-linecap:butt;stroke-linejoin:miter;stroke-opacity:1" d="M 949.296,323.458 964.241,334.667 z" id="boundary" inkscape:connector-curvature="0" />
	<path style="fill:none;stroke:red;stroke-width:1px;stroke-linecap:butt;stroke-linejoin:miter;stroke-opacity:1" d="M 964.241,334.667 967.977,353.348 z" id="boundary" inkscape:connector-curvature="0" />
	<path style="fill:none;stroke:red;stroke-width:1px;stroke-linecap:butt;stroke-linejoin:miter;stroke-opacity:1" d="M 967.977,353.348 984.791,362.689 z" id="boundary" inkscape:connector-curvature="0" />
	<path style="fill:none;stroke:red;stroke-width:1px;stroke-linecap:butt;stroke-linejoin:miter;stroke-opacity:1" d="M 984.791,362.689 986.659,381.371 z" id="boundary" inkscape:connector-curvature="0" />
	<path style="fill:none;stroke:red;stroke-width:1px;stroke-linecap:butt;stroke-linejoin:miter;stroke-opacity:1" d="M 986.659,381.371 992.264,400.053 z" id="boundary" inkscape:connector-curvature="0" />
	<path style="fill:none;stroke:red;stroke-width:1px;stroke-linecap:butt;stroke-linejoin:miter;stroke-opacity:1" d="M 992.264,400.053 996,418.734 z" id="boundary" inkscape:connector-curvature="0" />
	<path style="fill:none;stroke:red;stroke-width:1px;stroke-linecap:butt;stroke-linejoin:miter;stroke-opacity:1" d="M 996,418.734 996,437.416 z" id="boundary" inkscape:connector-curvature="0" />
	<circle cx="4" cy="392.58" r="4" fill="#0" id="circle0"/>
	<circle cx="4" cy="411.262" r="4" fill="#0" id="circle1"/>
	<circle cx="4" cy="429.944" r="4" fill="#0" id="circle2"/>
	<circle cx="15.209" cy="444.889" r="4" fill="#0" id="circle3"/>
	<circle cx="22.6817" cy="355.217" r="4" fill="#0" id="circle4"/>
	<circle cx="22.6817" cy="373.898" r="4" fill="#0" id="circle5"/>
	<circle cx="22.6817" cy="463.571" r="4" fill="#0" id="circle6"/>
	<circle cx="22.6817" cy="551.375" r="4" fill="#0" id="circle7"/>
	<circle cx="22.6817" cy="570.056" r="4" fill="#0" id="circle8"/>
	<circle cx="22.6817" cy="588.738" r="4" fill="#0" id="circle9"/>
	<circle cx="32.0226" cy="327.194" r="4" fill="#0" id="circle10"/>
	<circle cx="32.0226" cy="480.384" r="4" fill="#0" id="circle11"/>
	<circle cx="32.0226" cy="532.693" r="4" fill="#0" id="circle12"/>
	<circle cx="32.0226" cy="605.552" r="4" fill="#0" id="circle13"/>
	<circle cx="32.0226" cy="624.234" r="4" fill="#0" id="circle14"/>
	<circle cx="46.968" cy="491.593" r="4" fill="#0" id="circle15"/>
	<circle cx="50.7043" cy="308.512" r="4" fill="#0" id="circle16"/>
	<circle cx="50.7043" cy="510.275" r="4" fill="#0" id="circle17"/>
	<circle cx="50.7043" cy="631.706" r="4" fill="#0" id="circle18"/>
	<circle cx="56.3089" cy="650.388" r="4" fill="#0" id="circle19"/>
	<circle cx="69.3861" cy="289.831" r="4" fill="#0" id="circle20"/>
	<circle cx="74.9906" cy="657.861" r="4" fill="#0" id="circle21"/>
	<circle cx="88.0678" cy="243.126" r="4" fill="#0" id="circle22"/>
	<circle cx="88.0678" cy="261.808" r="4" fill="#0" id="circle23"/>
	<circle cx="88.0678" cy="280.49" r="4" fill="#0" id="circle24"/>
	<circle cx="88.0678" cy="672.806" r="4" fill="#0" id="circle25"/>
	<circle cx="99.2768" cy="687.751" r="4" fill="#0" id="circle26"/>
	<circle cx="106.75" cy="196.422" r="4" fill="#0" id="circle27"/>
	<circle cx="106.75" cy="215.104" r="4" fill="#0" id="circle28"/>
	<circle cx="106.75" cy="233.785" r="4" fill="#0" id="circle29"/>
	<circle cx="116.09" cy="168.399" r="4" fill="#0" id="circle30"/>
	<circle cx="116.09" cy="822.26" r="4" fill="#0" id="circle31"/>
	<circle cx="116.09" cy="840.942" r="4" fill="#0" id="circle32"/>
	<circle cx="116.09" cy="859.623" r="4" fill="#0" id="circle33"/>
	<circle cx="117.959" cy="691.488" r="4" fill="#0" id="circle34"/>
	<circle cx="125.431" cy="149.718" r="4" fill="#0" id="circle35"/>
	<circle cx="125.431" cy="784.896" r="4" fill="#0" id="circle36"/>
	<circle cx="125.431" cy="803.578" r="4" fill="#0" id="circle37"/>
	<circle cx="125.431" cy="876.437" r="4" fill="#0" id="circle38"/>
	<circle cx="134.772" cy="893.25" r="4" fill="#0" id="circle39"/>
	<circle cx="136.64" cy="697.092" r="4" fill="#0" id="circle40"/>
	<circle cx="144.113" cy="144.113" r="4" fill="#0" id="circle41"/>
	<circle cx="144.113" cy="779.292" r="4" fill="#0" id="circle42"/>
	<circle cx="153.454" cy="756.874" r="4" fill="#0" id="circle43"/>
	<circle cx="153.454" cy="893.25" r="4" fill="#0" id="circle44"/>
	<circle cx="155.322" cy="129.168" r="4" fill="#0" id="circle45"/>
	<circle cx="155.322" cy="700.829" r="4" fill="#0" id="circle46"/>
	<circle cx="162.795" cy="719.51" r="4" fill="#0" id="circle47"/>
	<circle cx="168.399" cy="741.928" r="4" fill="#0" id="circle48"/>
	<circle cx="170.267" cy="116.09" r="4" fill="#0" id="circle49"/>
	<circle cx="170.267" cy="902.591" r="4" fill="#0" id="circle50"/>
	<circle cx="188.949" cy="116.09" r="4" fill="#0" id="circle51"/>
	<circle cx="188.949" cy="902.591" r="4" fill="#0" id="circle52"/>
	<circle cx="205.763" cy="106.75" r="4" fill="#0" id="circle53"/>
	<circle cx="207.631" cy="898.855" r="4" fill="#0" id="circle54"/>
	<circle cx="209.499" cy="84.3315" r="4" fill="#0" id="circle55"/>
	<circle cx="226.313" cy="889.514" r="4" fill="#0" id="circle56"/>
	<circle cx="228.181" cy="78.7269" r="4" fill="#0" id="circle57"/>
	<circle cx="237.522" cy="874.569" r="4" fill="#0" id="circle58"/>
	<circle cx="246.863" cy="78.7269" r="4" fill="#0" id="circle59"/>
	<circle cx="256.203" cy="868.964" r="4" fill="#0" id="circle60"/>
	<circle cx="265.544" cy="78.7269" r="4" fill="#0" id="circle61"/>
	<circle cx="274.885" cy="865.228" r="4" fill="#0" id="circle62"/>
	<circle cx="284.226" cy="78.7269" r="4" fill="#0" id="circle63"/>
	<circle cx="289.831" cy="854.019" r="4" fill="#0" id="circle64"/>
	<circle cx="295.435" cy="818.524" r="4" fill="#0" id="circle65"/>
	<circle cx="302.908" cy="78.7269" r="4" fill="#0" id="circle66"/>
	<circle cx="314.117" cy="93.6723" r="4" fill="#0" id="circle67"/>
	<circle cx="314.117" cy="790.501" r="4" fill="#0" id="circle68"/>
	<circle cx="314.117" cy="809.183" r="4" fill="#0" id="circle69"/>
	<circle cx="329.062" cy="106.75" r="4" fill="#0" id="circle70"/>
	<circle cx="330.93" cy="84.3315" r="4" fill="#0" id="circle71"/>
	<circle cx="332.798" cy="790.501" r="4" fill="#0" id="circle72"/>
	<circle cx="349.612" cy="78.7269" r="4" fill="#0" id="circle73"/>
	<circle cx="351.48" cy="790.501" r="4" fill="#0" id="circle74"/>
	<circle cx="360.821" cy="63.7815" r="4" fill="#0" id="circle75"/>
	<circle cx="368.294" cy="781.16" r="4" fill="#0" id="circle76"/>
	<circle cx="370.162" cy="45.0998" r="4" fill="#0" id="circle77"/>
	<circle cx="385.107" cy="771.819" r="4" fill="#0" id="circle78"/>
	<circle cx="388.844" cy="41.3635" r="4" fill="#0" id="circle79"/>
	<circle cx="401.921" cy="781.16" r="4" fill="#0" id="circle80"/>
	<circle cx="405.657" cy="799.842" r="4" fill="#0" id="circle81"/>
	<circle cx="407.525" cy="35.7589" r="4" fill="#0" id="circle82"/>
	<circle cx="416.866" cy="814.787" r="4" fill="#0" id="circle83"/>
	<circle cx="426.207" cy="32.0226" r="4" fill="#0" id="circle84"/>
	<circle cx="435.548" cy="822.26" r="4" fill="#0" id="circle85"/>
	<circle cx="444.889" cy="32.0226" r="4" fill="#0" id="circle86"/>
	<circle cx="454.23" cy="827.864" r="4" fill="#0" id="circle87"/>
	<circle cx="461.702" cy="41.3635" r="4" fill="#0" id="circle88"/>
	<circle cx="472.911" cy="827.864" r="4" fill="#0" id="circle89"/>
	<circle cx="480.384" cy="41.3635" r="4" fill="#0" id="circle90"/>
	<circle cx="480.384" cy="846.546" r="4" fill="#0" id="circle91"/>
	<circle cx="491.593" cy="56.3089" r="4" fill="#0" id="circle92"/>
	<circle cx="497.198" cy="855.887" r="4" fill="#0" id="circle93"/>
	<circle cx="510.275" cy="60.0452" r="4" fill="#0" id="circle94"/>
	<circle cx="515.879" cy="855.887" r="4" fill="#0" id="circle95"/>
	<circle cx="527.089" cy="46.968" r="4" fill="#0" id="circle96"/>
	<circle cx="527.089" cy="69.3861" r="4" fill="#0" id="circle97"/>
	<circle cx="534.561" cy="852.151" r="4" fill="#0" id="circle98"/>
	<circle cx="538.298" cy="827.864" r="4" fill="#0" id="circle99"/>
	<circle cx="542.034" cy="32.0226" r="4" fill="#0" id="circle100"/>
	<circle cx="556.979" cy="827.864" r="4" fill="#0" id="circle101"/>
	<circle cx="560.716" cy="32.0226" r="4" fill="#0" id="circle102"/>
	<circle cx="573.793" cy="9.60452" r="4" fill="#0" id="circle103"/>
	<circle cx="575.661" cy="818.524" r="4" fill="#0" id="circle104"/>
	<circle cx="592.475" cy="4" r="4" fill="#0" id="circle105"/>
	<circle cx="594.343" cy="818.524" r="4" fill="#0" id="circle106"/>
	<circle cx="609.288" cy="805.446" r="4" fill="#0" id="circle107"/>
	<circle cx="611.156" cy="4" r="4" fill="#0" id="circle108"/>
	<circle cx="618.629" cy="786.765" r="4" fill="#0" id="circle109"/>
	<circle cx="622.365" cy="18.9454" r="4" fill="#0" id="circle110"/>
	<circle cx="629.838" cy="771.819" r="4" fill="#0" id="circle111"/>
	<circle cx="641.047" cy="22.6817" r="4" fill="#0" id="circle112"/>
	<circle cx="641.047" cy="753.137" r="4" fill="#0" id="circle113"/>
	<circle cx="650.388" cy="725.115" r="4" fill="#0" id="circle114"/>
	<circle cx="657.861" cy="32.0226" r="4" fill="#0" id="circle115"/>
	<circle cx="669.07" cy="725.115" r="4" fill="#0" id="circle116"/>
	<circle cx="676.542" cy="32.0226" r="4" fill="#0" id="circle117"/>
	<circle cx="685.883" cy="734.456" r="4" fill="#0" id="circle118"/>
	<circle cx="693.356" cy="41.3635" r="4" fill="#0" id="circle119"/>
	<circle cx="702.697" cy="743.797" r="4" fill="#0" id="circle120"/>
	<circle cx="710.169" cy="32.0226" r="4" fill="#0" id="circle121"/>
	<circle cx="719.51" cy="753.137" r="4" fill="#0" id="circle122"/>
	<circle cx="728.851" cy="22.6817" r="4" fill="#0" id="circle123"/>
	<circle cx="738.192" cy="751.269" r="4" fill="#0" id="circle124"/>
	<circle cx="743.797" cy="7.73635" r="4" fill="#0" id="circle125"/>
	<circle cx="756.874" cy="743.797" r="4" fill="#0" id="circle126"/>
	<circle cx="762.478" cy="4" r="4" fill="#0" id="circle127"/>
	<circle cx="775.556" cy="743.797" r="4" fill="#0" id="circle128"/>
	<circle cx="781.16" cy="4" r="4" fill="#0" id="circle129"/>
	<circle cx="790.501" cy="20.8136" r="4" fill="#0" id="circle130"/>
	<circle cx="790.501" cy="725.115" r="4" fill="#0" id="circle131"/>
	<circle cx="809.183" cy="22.6817" r="4" fill="#0" id="circle132"/>
	<circle cx="809.183" cy="706.433" r="4" fill="#0" id="circle133"/>
	<circle cx="824.128" cy="693.356" r="4" fill="#0" id="circle134"/>
	<circle cx="827.864" cy="28.2863" r="4" fill="#0" id="circle135"/>
	<circle cx="827.864" cy="669.07" r="4" fill="#0" id="circle136"/>
	<circle cx="844.678" cy="37.6271" r="4" fill="#0" id="circle137"/>
	<circle cx="846.546" cy="56.3089" r="4" fill="#0" id="circle138"/>
	<circle cx="846.546" cy="631.706" r="4" fill="#0" id="circle139"/>
	<circle cx="846.546" cy="650.388" r="4" fill="#0" id="circle140"/>
	<circle cx="855.887" cy="73.1224" r="4" fill="#0" id="circle141"/>
	<circle cx="855.887" cy="585.002" r="4" fill="#0" id="circle142"/>
	<circle cx="855.887" cy="603.684" r="4" fill="#0" id="circle143"/>
	<circle cx="865.228" cy="89.936" r="4" fill="#0" id="circle144"/>
	<circle cx="865.228" cy="108.618" r="4" fill="#0" id="circle145"/>
	<circle cx="872.701" cy="575.661" r="4" fill="#0" id="circle146"/>
	<circle cx="883.91" cy="116.09" r="4" fill="#0" id="circle147"/>
	<circle cx="891.382" cy="575.661" r="4" fill="#0" id="circle148"/>
	<circle cx="902.591" cy="121.695" r="4" fill="#0" id="circle149"/>
	<circle cx="910.064" cy="570.056" r="4" fill="#0" id="circle150"/>
	<circle cx="921.273" cy="125.431" r="4" fill="#0" id="circle151"/>
	<circle cx="928.746" cy="560.716" r="4" fill="#0" id="circle152"/>
	<circle cx="930.614" cy="142.245" r="4" fill="#0" id="circle153"/>
	<circle cx="938.087" cy="542.034" r="4" fill="#0" id="circle154"/>
	<circle cx="939.955" cy="159.058" r="4" fill="#0" id="circle155"/>
	<circle cx="949.296" cy="175.872" r="4" fill="#0" id="circle156"/>
	<circle cx="949.296" cy="194.554" r="4" fill="#0" id="circle157"/>
	<circle cx="949.296" cy="213.235" r="4" fill="#0" id="circle158"/>
	<circle cx="949.296" cy="304.776" r="4" fill="#0" id="circle159"/>
	<circle cx="949.296" cy="323.458" r="4" fill="#0" id="circle160"/>
	<circle cx="953.032" cy="528.957" r="4" fill="#0" id="circle161"/>
	<circle cx="960.505" cy="228.181" r="4" fill="#0" id="circle162"/>
	<circle cx="964.241" cy="334.667" r="4" fill="#0" id="circle163"/>
	<circle cx="967.977" cy="246.863" r="4" fill="#0" id="circle164"/>
	<circle cx="967.977" cy="265.544" r="4" fill="#0" id="circle165"/>
	<circle cx="967.977" cy="284.226" r="4" fill="#0" id="circle166"/>
	<circle cx="967.977" cy="353.348" r="4" fill="#0" id="circle167"/>
	<circle cx="967.977" cy="491.593" r="4" fill="#0" id="circle168"/>
	<circle cx="967.977" cy="510.275" r="4" fill="#0" id="circle169"/>
	<circle cx="984.791" cy="362.689" r="4" fill="#0" id="circle170"/>
	<circle cx="986.659" cy="381.371" r="4" fill="#0" id="circle171"/>
	<circle cx="986.659" cy="454.23" r="4" fill="#0" id="circle172"/>
	<circle cx="986.659" cy="472.911" r="4" fill="#0" id="circle173"/>
	<circle cx="992.264" cy="400.053" r="4" fill="#0" id="circle174"/>
	<circle cx="996" cy="418.734" r="4" fill="#0" id="circle175"/>
	<circle cx="996" cy="437.416" r="4" fill="#0" id="circle176"/>
	</g>
</svg>