<?xml version="1.0" encoding="UTF-8" standalone="no"?>
<!-- Created with CurveBenchmark -->
<svg
	xmlns:dc="http://purl.org/dc/elements/1.1/"
	xmlns:cc="http://creativecommons.org/ns#"
	xmlns:rdf="http://www.w3.org/1999/02/22-rdf-syntax-ns#"
	xmlns:svg="http://www.w3.org/2000/svg"
	xmlns="http://www.w3.org/2000/svg"
	xmlns:sodipodi="http://sodipodi.sourceforge.net/DTD/sodipodi-0.dtd"
	xmlns:inkscape="http://www.inkscape.org/namespaces/inkscape"
	width="1000"
	height="1000"
	id="svg2"
	version="1.1"
	sodipodi:docname="manifold/connect2d-teddy220.png.txt">
<defs
	id="defs4" />
<metadata
	id="metadata7">
	<rdf:RDF>
		<cc:Work
			rdf:about="">
			<dc:format>image/svg+xml</dc:format>
			<dc:type
				rdf:resource="http://purl.org/dc/dcmitype/StillImage" />
			<dc:title></dc:title>
		</cc:Work>
	</rdf:RDF>
</metadata>
<g
	inkscape:label="Layer 1"
	inkscape:groupmode="layer"
	id="layer1">
	<path style="fill:none;stroke:red;stroke-width:1px;stroke-linecap:butt;stroke-linejoin:miter;stroke-opacity:1" d="M 914.04,507.066 914.04,538.154 z" id="boundary" inkscape:connector-curvature="0" />
	<path style="fill:none;stroke:red;stroke-width:1px;stroke-linecap:butt;stroke-linejoin:miter;stroke-opacity:1" d="M 914.04,538.154 902.735,566.416 z" id="boundary" inkscape:connector-curvature="0" />
	<path style="fill:none;stroke:red;stroke-width:1px;stroke-linecap:butt;stroke-linejoin:miter;stroke-opacity:1" d="M 902.735,566.416 885.778,589.026 z" id="boundary" inkscape:connector-curvature="0" />
	<path style="fill:none;stroke:red;stroke-width:1px;stroke-linecap:butt;stroke-linejoin:miter;stroke-opacity:1" d="M 885.778,589.026 863.168,605.983 z" id="boundary" inkscape:connector-curvature="0" />
	<path style="fill:none;stroke:red;stroke-width:1px;stroke-linecap:butt;stroke-linejoin:miter;stroke-opacity:1" d="M 863.168,605.983 840.558,622.94 z" id="boundary" inkscape:connector-curvature="0" />
	<path style="fill:none;stroke:red;stroke-width:1px;stroke-linecap:butt;stroke-linejoin:miter;stroke-opacity:1" d="M 840.558,622.94 817.949,639.897 z" id="boundary" inkscape:connector-curvature="0" />
	<path style="fill:none;stroke:red;stroke-width:1px;stroke-linecap:butt;stroke-linejoin:miter;stroke-opacity:1" d="M 817.949,639.897 789.687,651.202 z" id="boundary" inkscape:connector-curvature="0" />
	<path style="fill:none;stroke:red;stroke-width:1px;stroke-linecap:butt;stroke-linejoin:miter;stroke-opacity:1" d="M 789.687,651.202 761.425,662.507 z" id="boundary" inkscape:connector-curvature="0" />
	<path style="fill:none;stroke:red;stroke-width:1px;stroke-linecap:butt;stroke-linejoin:miter;stroke-opacity:1" d="M 761.425,662.507 733.162,662.507 z" id="boundary" inkscape:connector-curvature="0" />
	<path style="fill:none;stroke:red;stroke-width:1px;stroke-linecap:butt;stroke-linejoin:miter;stroke-opacity:1" d="M 733.162,662.507 704.9,668.16 z" id="boundary" inkscape:connector-curvature="0" />
	<path style="fill:none;stroke:red;stroke-width:1px;stroke-linecap:butt;stroke-linejoin:miter;stroke-opacity:1" d="M 704.9,668.16 676.638,662.507 z" id="boundary" inkscape:connector-curvature="0" />
	<path style="fill:none;stroke:red;stroke-width:1px;stroke-linecap:butt;stroke-linejoin:miter;stroke-opacity:1" d="M 676.638,662.507 679.464,690.769 z" id="boundary" inkscape:connector-curvature="0" />
	<path style="fill:none;stroke:red;stroke-width:1px;stroke-linecap:butt;stroke-linejoin:miter;stroke-opacity:1" d="M 679.464,690.769 693.595,716.205 z" id="boundary" inkscape:connector-curvature="0" />
	<path style="fill:none;stroke:red;stroke-width:1px;stroke-linecap:butt;stroke-linejoin:miter;stroke-opacity:1" d="M 693.595,716.205 721.858,719.031 z" id="boundary" inkscape:connector-curvature="0" />
	<path style="fill:none;stroke:red;stroke-width:1px;stroke-linecap:butt;stroke-linejoin:miter;stroke-opacity:1" d="M 721.858,719.031 750.12,727.51 z" id="boundary" inkscape:connector-curvature="0" />
	<path style="fill:none;stroke:red;stroke-width:1px;stroke-linecap:butt;stroke-linejoin:miter;stroke-opacity:1" d="M 750.12,727.51 778.382,727.51 z" id="boundary" inkscape:connector-curvature="0" />
	<path style="fill:none;stroke:red;stroke-width:1px;stroke-linecap:butt;stroke-linejoin:miter;stroke-opacity:1" d="M 778.382,727.51 806.644,727.51 z" id="boundary" inkscape:connector-curvature="0" />
	<path style="fill:none;stroke:red;stroke-width:1px;stroke-linecap:butt;stroke-linejoin:miter;stroke-opacity:1" d="M 806.644,727.51 829.254,744.467 z" id="boundary" inkscape:connector-curvature="0" />
	<path style="fill:none;stroke:red;stroke-width:1px;stroke-linecap:butt;stroke-linejoin:miter;stroke-opacity:1" d="M 829.254,744.467 854.689,758.598 z" id="boundary" inkscape:connector-curvature="0" />
	<path style="fill:none;stroke:red;stroke-width:1px;stroke-linecap:butt;stroke-linejoin:miter;stroke-opacity:1" d="M 854.689,758.598 865.994,786.86 z" id="boundary" inkscape:connector-curvature="0" />
	<path style="fill:none;stroke:red;stroke-width:1px;stroke-linecap:butt;stroke-linejoin:miter;stroke-opacity:1" d="M 865.994,786.86 877.299,815.123 z" id="boundary" inkscape:connector-curvature="0" />
	<path style="fill:none;stroke:red;stroke-width:1px;stroke-linecap:butt;stroke-linejoin:miter;stroke-opacity:1" d="M 877.299,815.123 882.952,843.385 z" id="boundary" inkscape:connector-curvature="0" />
	<path style="fill:none;stroke:red;stroke-width:1px;stroke-linecap:butt;stroke-linejoin:miter;stroke-opacity:1" d="M 882.952,843.385 882.952,885.778 z" id="boundary" inkscape:connector-curvature="0" />
	<path style="fill:none;stroke:red;stroke-width:1px;stroke-linecap:butt;stroke-linejoin:miter;stroke-opacity:1" d="M 882.952,885.778 882.952,914.04 z" id="boundary" inkscape:connector-curvature="0" />
	<path style="fill:none;stroke:red;stroke-width:1px;stroke-linecap:butt;stroke-linejoin:miter;stroke-opacity:1" d="M 882.952,914.04 863.168,962.085 z" id="boundary" inkscape:connector-curvature="0" />
	<path style="fill:none;stroke:red;stroke-width:1px;stroke-linecap:butt;stroke-linejoin:miter;stroke-opacity:1" d="M 863.168,962.085 840.558,979.043 z" id="boundary" inkscape:connector-curvature="0" />
	<path style="fill:none;stroke:red;stroke-width:1px;stroke-linecap:butt;stroke-linejoin:miter;stroke-opacity:1" d="M 840.558,979.043 817.949,996 z" id="boundary" inkscape:connector-curvature="0" />
	<path style="fill:none;stroke:red;stroke-width:1px;stroke-linecap:butt;stroke-linejoin:miter;stroke-opacity:1" d="M 817.949,996 789.687,996 z" id="boundary" inkscape:connector-curvature="0" />
	<path style="fill:none;stroke:red;stroke-width:1px;stroke-linecap:butt;stroke-linejoin:miter;stroke-opacity:1" d="M 789.687,996 761.425,996 z" id="boundary" inkscape:connector-curvature="0" />
	<path style="fill:none;stroke:red;stroke-width:1px;stroke-linecap:butt;stroke-linejoin:miter;stroke-opacity:1" d="M 761.425,996 733.162,996 z" id="boundary" inkscape:connector-curvature="0" />
	<path style="fill:none;stroke:red;stroke-width:1px;stroke-linecap:butt;stroke-linejoin:miter;stroke-opacity:1" d="M 733.162,996 704.9,996 z" id="boundary" inkscape:connector-curvature="0" />
	<path style="fill:none;stroke:red;stroke-width:1px;stroke-linecap:butt;stroke-linejoin:miter;stroke-opacity:1" d="M 704.9,996 676.638,984.695 z" id="boundary" inkscape:connector-curvature="0" />
	<path style="fill:none;stroke:red;stroke-width:1px;stroke-linecap:butt;stroke-linejoin:miter;stroke-opacity:1" d="M 676.638,984.695 648.376,973.39 z" id="boundary" inkscape:connector-curvature="0" />
	<path style="fill:none;stroke:red;stroke-width:1px;stroke-linecap:butt;stroke-linejoin:miter;stroke-opacity:1" d="M 648.376,973.39 620.114,979.043 z" id="boundary" inkscape:connector-curvature="0" />
	<path style="fill:none;stroke:red;stroke-width:1px;stroke-linecap:butt;stroke-linejoin:miter;stroke-opacity:1" d="M 620.114,979.043 591.852,984.695 z" id="boundary" inkscape:connector-curvature="0" />
	<path style="fill:none;stroke:red;stroke-width:1px;stroke-linecap:butt;stroke-linejoin:miter;stroke-opacity:1" d="M 591.852,984.695 563.59,990.348 z" id="boundary" inkscape:connector-curvature="0" />
	<path style="fill:none;stroke:red;stroke-width:1px;stroke-linecap:butt;stroke-linejoin:miter;stroke-opacity:1" d="M 563.59,990.348 535.328,990.348 z" id="boundary" inkscape:connector-curvature="0" />
	<path style="fill:none;stroke:red;stroke-width:1px;stroke-linecap:butt;stroke-linejoin:miter;stroke-opacity:1" d="M 535.328,990.348 507.066,996 z" id="boundary" inkscape:connector-curvature="0" />
	<path style="fill:none;stroke:red;stroke-width:1px;stroke-linecap:butt;stroke-linejoin:miter;stroke-opacity:1" d="M 507.066,996 478.803,996 z" id="boundary" inkscape:connector-curvature="0" />
	<path style="fill:none;stroke:red;stroke-width:1px;stroke-linecap:butt;stroke-linejoin:miter;stroke-opacity:1" d="M 478.803,996 450.541,996 z" id="boundary" inkscape:connector-curvature="0" />
	<path style="fill:none;stroke:red;stroke-width:1px;stroke-linecap:butt;stroke-linejoin:miter;stroke-opacity:1" d="M 450.541,996 422.279,996 z" id="boundary" inkscape:connector-curvature="0" />
	<path style="fill:none;stroke:red;stroke-width:1px;stroke-linecap:butt;stroke-linejoin:miter;stroke-opacity:1" d="M 422.279,996 394.017,996 z" id="boundary" inkscape:connector-curvature="0" />
	<path style="fill:none;stroke:red;stroke-width:1px;stroke-linecap:butt;stroke-linejoin:miter;stroke-opacity:1" d="M 394.017,996 365.755,990.348 z" id="boundary" inkscape:connector-curvature="0" />
	<path style="fill:none;stroke:red;stroke-width:1px;stroke-linecap:butt;stroke-linejoin:miter;stroke-opacity:1" d="M 365.755,990.348 337.493,984.695 z" id="boundary" inkscape:connector-curvature="0" />
	<path style="fill:none;stroke:red;stroke-width:1px;stroke-linecap:butt;stroke-linejoin:miter;stroke-opacity:1" d="M 337.493,984.695 309.231,979.043 z" id="boundary" inkscape:connector-curvature="0" />
	<path style="fill:none;stroke:red;stroke-width:1px;stroke-linecap:butt;stroke-linejoin:miter;stroke-opacity:1" d="M 309.231,979.043 280.969,973.39 z" id="boundary" inkscape:connector-curvature="0" />
	<path style="fill:none;stroke:red;stroke-width:1px;stroke-linecap:butt;stroke-linejoin:miter;stroke-opacity:1" d="M 280.969,973.39 252.707,979.043 z" id="boundary" inkscape:connector-curvature="0" />
	<path style="fill:none;stroke:red;stroke-width:1px;stroke-linecap:butt;stroke-linejoin:miter;stroke-opacity:1" d="M 252.707,979.043 230.097,996 z" id="boundary" inkscape:connector-curvature="0" />
	<path style="fill:none;stroke:red;stroke-width:1px;stroke-linecap:butt;stroke-linejoin:miter;stroke-opacity:1" d="M 230.097,996 201.835,996 z" id="boundary" inkscape:connector-curvature="0" />
	<path style="fill:none;stroke:red;stroke-width:1px;stroke-linecap:butt;stroke-linejoin:miter;stroke-opacity:1" d="M 201.835,996 173.573,996 z" id="boundary" inkscape:connector-curvature="0" />
	<path style="fill:none;stroke:red;stroke-width:1px;stroke-linecap:butt;stroke-linejoin:miter;stroke-opacity:1" d="M 173.573,996 145.311,996 z" id="boundary" inkscape:connector-curvature="0" />
	<path style="fill:none;stroke:red;stroke-width:1px;stroke-linecap:butt;stroke-linejoin:miter;stroke-opacity:1" d="M 145.311,996 117.048,996 z" id="boundary" inkscape:connector-curvature="0" />
	<path style="fill:none;stroke:red;stroke-width:1px;stroke-linecap:butt;stroke-linejoin:miter;stroke-opacity:1" d="M 117.048,996 88.7863,987.521 z" id="boundary" inkscape:connector-curvature="0" />
	<path style="fill:none;stroke:red;stroke-width:1px;stroke-linecap:butt;stroke-linejoin:miter;stroke-opacity:1" d="M 88.7863,987.521 66.1766,967.738 z" id="boundary" inkscape:connector-curvature="0" />
	<path style="fill:none;stroke:red;stroke-width:1px;stroke-linecap:butt;stroke-linejoin:miter;stroke-opacity:1" d="M 66.1766,967.738 43.567,947.954 z" id="boundary" inkscape:connector-curvature="0" />
	<path style="fill:none;stroke:red;stroke-width:1px;stroke-linecap:butt;stroke-linejoin:miter;stroke-opacity:1" d="M 43.567,947.954 37.9145,919.692 z" id="boundary" inkscape:connector-curvature="0" />
	<path style="fill:none;stroke:red;stroke-width:1px;stroke-linecap:butt;stroke-linejoin:miter;stroke-opacity:1" d="M 37.9145,919.692 37.9145,891.43 z" id="boundary" inkscape:connector-curvature="0" />
	<path style="fill:none;stroke:red;stroke-width:1px;stroke-linecap:butt;stroke-linejoin:miter;stroke-opacity:1" d="M 37.9145,891.43 37.9145,863.168 z" id="boundary" inkscape:connector-curvature="0" />
	<path style="fill:none;stroke:red;stroke-width:1px;stroke-linecap:butt;stroke-linejoin:miter;stroke-opacity:1" d="M 37.9145,863.168 37.9145,834.906 z" id="boundary" inkscape:connector-curvature="0" />
	<path style="fill:none;stroke:red;stroke-width:1px;stroke-linecap:butt;stroke-linejoin:miter;stroke-opacity:1" d="M 37.9145,834.906 49.2194,795.339 z" id="boundary" inkscape:connector-curvature="0" />
	<path style="fill:none;stroke:red;stroke-width:1px;stroke-linecap:butt;stroke-linejoin:miter;stroke-opacity:1" d="M 49.2194,795.339 60.5242,761.425 z" id="boundary" inkscape:connector-curvature="0" />
	<path style="fill:none;stroke:red;stroke-width:1px;stroke-linecap:butt;stroke-linejoin:miter;stroke-opacity:1" d="M 60.5242,761.425 85.9601,747.293 z" id="boundary" inkscape:connector-curvature="0" />
	<path style="fill:none;stroke:red;stroke-width:1px;stroke-linecap:butt;stroke-linejoin:miter;stroke-opacity:1" d="M 85.9601,747.293 111.396,733.162 z" id="boundary" inkscape:connector-curvature="0" />
	<path style="fill:none;stroke:red;stroke-width:1px;stroke-linecap:butt;stroke-linejoin:miter;stroke-opacity:1" d="M 111.396,733.162 139.658,727.51 z" id="boundary" inkscape:connector-curvature="0" />
	<path style="fill:none;stroke:red;stroke-width:1px;stroke-linecap:butt;stroke-linejoin:miter;stroke-opacity:1" d="M 139.658,727.51 167.92,727.51 z" id="boundary" inkscape:connector-curvature="0" />
	<path style="fill:none;stroke:red;stroke-width:1px;stroke-linecap:butt;stroke-linejoin:miter;stroke-opacity:1" d="M 167.92,727.51 196.182,721.858 z" id="boundary" inkscape:connector-curvature="0" />
	<path style="fill:none;stroke:red;stroke-width:1px;stroke-linecap:butt;stroke-linejoin:miter;stroke-opacity:1" d="M 196.182,721.858 224.444,716.205 z" id="boundary" inkscape:connector-curvature="0" />
	<path style="fill:none;stroke:red;stroke-width:1px;stroke-linecap:butt;stroke-linejoin:miter;stroke-opacity:1" d="M 224.444,716.205 241.402,690.769 z" id="boundary" inkscape:connector-curvature="0" />
	<path style="fill:none;stroke:red;stroke-width:1px;stroke-linecap:butt;stroke-linejoin:miter;stroke-opacity:1" d="M 241.402,690.769 224.444,668.16 z" id="boundary" inkscape:connector-curvature="0" />
	<path style="fill:none;stroke:red;stroke-width:1px;stroke-linecap:butt;stroke-linejoin:miter;stroke-opacity:1" d="M 224.444,668.16 196.182,670.986 z" id="boundary" inkscape:connector-curvature="0" />
	<path style="fill:none;stroke:red;stroke-width:1px;stroke-linecap:butt;stroke-linejoin:miter;stroke-opacity:1" d="M 196.182,670.986 167.92,662.507 z" id="boundary" inkscape:connector-curvature="0" />
	<path style="fill:none;stroke:red;stroke-width:1px;stroke-linecap:butt;stroke-linejoin:miter;stroke-opacity:1" d="M 167.92,662.507 139.658,654.028 z" id="boundary" inkscape:connector-curvature="0" />
	<path style="fill:none;stroke:red;stroke-width:1px;stroke-linecap:butt;stroke-linejoin:miter;stroke-opacity:1" d="M 139.658,654.028 111.396,642.724 z" id="boundary" inkscape:connector-curvature="0" />
	<path style="fill:none;stroke:red;stroke-width:1px;stroke-linecap:butt;stroke-linejoin:miter;stroke-opacity:1" d="M 111.396,642.724 85.9601,628.593 z" id="boundary" inkscape:connector-curvature="0" />
	<path style="fill:none;stroke:red;stroke-width:1px;stroke-linecap:butt;stroke-linejoin:miter;stroke-opacity:1" d="M 85.9601,628.593 63.3504,611.635 z" id="boundary" inkscape:connector-curvature="0" />
	<path style="fill:none;stroke:red;stroke-width:1px;stroke-linecap:butt;stroke-linejoin:miter;stroke-opacity:1" d="M 63.3504,611.635 40.7407,591.852 z" id="boundary" inkscape:connector-curvature="0" />
	<path style="fill:none;stroke:red;stroke-width:1px;stroke-linecap:butt;stroke-linejoin:miter;stroke-opacity:1" d="M 40.7407,591.852 20.9573,569.242 z" id="boundary" inkscape:connector-curvature="0" />
	<path style="fill:none;stroke:red;stroke-width:1px;stroke-linecap:butt;stroke-linejoin:miter;stroke-opacity:1" d="M 20.9573,569.242 9.65242,540.98 z" id="boundary" inkscape:connector-curvature="0" />
	<path style="fill:none;stroke:red;stroke-width:1px;stroke-linecap:butt;stroke-linejoin:miter;stroke-opacity:1" d="M 9.65242,540.98 4,512.718 z" id="boundary" inkscape:connector-curvature="0" />
	<path style="fill:none;stroke:red;stroke-width:1px;stroke-linecap:butt;stroke-linejoin:miter;stroke-opacity:1" d="M 4,512.718 15.3048,484.456 z" id="boundary" inkscape:connector-curvature="0" />
	<path style="fill:none;stroke:red;stroke-width:1px;stroke-linecap:butt;stroke-linejoin:miter;stroke-opacity:1" d="M 15.3048,484.456 32.2621,461.846 z" id="boundary" inkscape:connector-curvature="0" />
	<path style="fill:none;stroke:red;stroke-width:1px;stroke-linecap:butt;stroke-linejoin:miter;stroke-opacity:1" d="M 32.2621,461.846 57.698,447.715 z" id="boundary" inkscape:connector-curvature="0" />
	<path style="fill:none;stroke:red;stroke-width:1px;stroke-linecap:butt;stroke-linejoin:miter;stroke-opacity:1" d="M 57.698,447.715 85.9601,439.236 z" id="boundary" inkscape:connector-curvature="0" />
	<path style="fill:none;stroke:red;stroke-width:1px;stroke-linecap:butt;stroke-linejoin:miter;stroke-opacity:1" d="M 85.9601,439.236 114.222,433.584 z" id="boundary" inkscape:connector-curvature="0" />
	<path style="fill:none;stroke:red;stroke-width:1px;stroke-linecap:butt;stroke-linejoin:miter;stroke-opacity:1" d="M 114.222,433.584 131.179,408.148 z" id="boundary" inkscape:connector-curvature="0" />
	<path style="fill:none;stroke:red;stroke-width:1px;stroke-linecap:butt;stroke-linejoin:miter;stroke-opacity:1" d="M 131.179,408.148 159.442,396.843 z" id="boundary" inkscape:connector-curvature="0" />
	<path style="fill:none;stroke:red;stroke-width:1px;stroke-linecap:butt;stroke-linejoin:miter;stroke-opacity:1" d="M 159.442,396.843 187.704,388.365 z" id="boundary" inkscape:connector-curvature="0" />
	<path style="fill:none;stroke:red;stroke-width:1px;stroke-linecap:butt;stroke-linejoin:miter;stroke-opacity:1" d="M 187.704,388.365 215.966,382.712 z" id="boundary" inkscape:connector-curvature="0" />
	<path style="fill:none;stroke:red;stroke-width:1px;stroke-linecap:butt;stroke-linejoin:miter;stroke-opacity:1" d="M 215.966,382.712 244.228,377.06 z" id="boundary" inkscape:connector-curvature="0" />
	<path style="fill:none;stroke:red;stroke-width:1px;stroke-linecap:butt;stroke-linejoin:miter;stroke-opacity:1" d="M 244.228,377.06 230.097,337.493 z" id="boundary" inkscape:connector-curvature="0" />
	<path style="fill:none;stroke:red;stroke-width:1px;stroke-linecap:butt;stroke-linejoin:miter;stroke-opacity:1" d="M 230.097,337.493 224.444,309.231 z" id="boundary" inkscape:connector-curvature="0" />
	<path style="fill:none;stroke:red;stroke-width:1px;stroke-linecap:butt;stroke-linejoin:miter;stroke-opacity:1" d="M 224.444,309.231 218.792,280.969 z" id="boundary" inkscape:connector-curvature="0" />
	<path style="fill:none;stroke:red;stroke-width:1px;stroke-linecap:butt;stroke-linejoin:miter;stroke-opacity:1" d="M 218.792,280.969 218.792,252.707 z" id="boundary" inkscape:connector-curvature="0" />
	<path style="fill:none;stroke:red;stroke-width:1px;stroke-linecap:butt;stroke-linejoin:miter;stroke-opacity:1" d="M 218.792,252.707 218.792,224.444 z" id="boundary" inkscape:connector-curvature="0" />
	<path style="fill:none;stroke:red;stroke-width:1px;stroke-linecap:butt;stroke-linejoin:miter;stroke-opacity:1" d="M 218.792,224.444 218.792,196.182 z" id="boundary" inkscape:connector-curvature="0" />
	<path style="fill:none;stroke:red;stroke-width:1px;stroke-linecap:butt;stroke-linejoin:miter;stroke-opacity:1" d="M 218.792,196.182 207.487,167.92 z" id="boundary" inkscape:connector-curvature="0" />
	<path style="fill:none;stroke:red;stroke-width:1px;stroke-linecap:butt;stroke-linejoin:miter;stroke-opacity:1" d="M 207.487,167.92 196.182,139.658 z" id="boundary" inkscape:connector-curvature="0" />
	<path style="fill:none;stroke:red;stroke-width:1px;stroke-linecap:butt;stroke-linejoin:miter;stroke-opacity:1" d="M 196.182,139.658 184.877,111.396 z" id="boundary" inkscape:connector-curvature="0" />
	<path style="fill:none;stroke:red;stroke-width:1px;stroke-linecap:butt;stroke-linejoin:miter;stroke-opacity:1" d="M 184.877,111.396 184.877,83.1339 z" id="boundary" inkscape:connector-curvature="0" />
	<path style="fill:none;stroke:red;stroke-width:1px;stroke-linecap:butt;stroke-linejoin:miter;stroke-opacity:1" d="M 184.877,83.1339 184.877,54.8718 z" id="boundary" inkscape:connector-curvature="0" />
	<path style="fill:none;stroke:red;stroke-width:1px;stroke-linecap:butt;stroke-linejoin:miter;stroke-opacity:1" d="M 184.877,54.8718 207.487,32.2621 z" id="boundary" inkscape:connector-curvature="0" />
	<path style="fill:none;stroke:red;stroke-width:1px;stroke-linecap:butt;stroke-linejoin:miter;stroke-opacity:1" d="M 207.487,32.2621 230.097,15.3048 z" id="boundary" inkscape:connector-curvature="0" />
	<path style="fill:none;stroke:red;stroke-width:1px;stroke-linecap:butt;stroke-linejoin:miter;stroke-opacity:1" d="M 230.097,15.3048 258.359,9.65242 z" id="boundary" inkscape:connector-curvature="0" />
	<path style="fill:none;stroke:red;stroke-width:1px;stroke-linecap:butt;stroke-linejoin:miter;stroke-opacity:1" d="M 258.359,9.65242 286.621,4 z" id="boundary" inkscape:connector-curvature="0" />
	<path style="fill:none;stroke:red;stroke-width:1px;stroke-linecap:butt;stroke-linejoin:miter;stroke-opacity:1" d="M 286.621,4 314.883,9.65242 z" id="boundary" inkscape:connector-curvature="0" />
	<path style="fill:none;stroke:red;stroke-width:1px;stroke-linecap:butt;stroke-linejoin:miter;stroke-opacity:1" d="M 314.883,9.65242 343.145,18.1311 z" id="boundary" inkscape:connector-curvature="0" />
	<path style="fill:none;stroke:red;stroke-width:1px;stroke-linecap:butt;stroke-linejoin:miter;stroke-opacity:1" d="M 343.145,18.1311 368.581,32.2621 z" id="boundary" inkscape:connector-curvature="0" />
	<path style="fill:none;stroke:red;stroke-width:1px;stroke-linecap:butt;stroke-linejoin:miter;stroke-opacity:1" d="M 368.581,32.2621 396.843,43.567 z" id="boundary" inkscape:connector-curvature="0" />
	<path style="fill:none;stroke:red;stroke-width:1px;stroke-linecap:butt;stroke-linejoin:miter;stroke-opacity:1" d="M 396.843,43.567 425.105,43.567 z" id="boundary" inkscape:connector-curvature="0" />
	<path style="fill:none;stroke:red;stroke-width:1px;stroke-linecap:butt;stroke-linejoin:miter;stroke-opacity:1" d="M 425.105,43.567 453.368,40.7407 z" id="boundary" inkscape:connector-curvature="0" />
	<path style="fill:none;stroke:red;stroke-width:1px;stroke-linecap:butt;stroke-linejoin:miter;stroke-opacity:1" d="M 453.368,40.7407 481.63,43.567 z" id="boundary" inkscape:connector-curvature="0" />
	<path style="fill:none;stroke:red;stroke-width:1px;stroke-linecap:butt;stroke-linejoin:miter;stroke-opacity:1" d="M 481.63,43.567 509.892,43.567 z" id="boundary" inkscape:connector-curvature="0" />
	<path style="fill:none;stroke:red;stroke-width:1px;stroke-linecap:butt;stroke-linejoin:miter;stroke-opacity:1" d="M 509.892,43.567 538.154,37.9145 z" id="boundary" inkscape:connector-curvature="0" />
	<path style="fill:none;stroke:red;stroke-width:1px;stroke-linecap:butt;stroke-linejoin:miter;stroke-opacity:1" d="M 538.154,37.9145 566.416,23.7835 z" id="boundary" inkscape:connector-curvature="0" />
	<path style="fill:none;stroke:red;stroke-width:1px;stroke-linecap:butt;stroke-linejoin:miter;stroke-opacity:1" d="M 566.416,23.7835 594.678,12.4786 z" id="boundary" inkscape:connector-curvature="0" />
	<path style="fill:none;stroke:red;stroke-width:1px;stroke-linecap:butt;stroke-linejoin:miter;stroke-opacity:1" d="M 594.678,12.4786 622.94,6.82621 z" id="boundary" inkscape:connector-curvature="0" />
	<path style="fill:none;stroke:red;stroke-width:1px;stroke-linecap:butt;stroke-linejoin:miter;stroke-opacity:1" d="M 622.94,6.82621 651.202,4 z" id="boundary" inkscape:connector-curvature="0" />
	<path style="fill:none;stroke:red;stroke-width:1px;stroke-linecap:butt;stroke-linejoin:miter;stroke-opacity:1" d="M 651.202,4 679.464,15.3048 z" id="boundary" inkscape:connector-curvature="0" />
	<path style="fill:none;stroke:red;stroke-width:1px;stroke-linecap:butt;stroke-linejoin:miter;stroke-opacity:1" d="M 679.464,15.3048 707.726,26.6097 z" id="boundary" inkscape:connector-curvature="0" />
	<path style="fill:none;stroke:red;stroke-width:1px;stroke-linecap:butt;stroke-linejoin:miter;stroke-opacity:1" d="M 707.726,26.6097 727.51,49.2194 z" id="boundary" inkscape:connector-curvature="0" />
	<path style="fill:none;stroke:red;stroke-width:1px;stroke-linecap:butt;stroke-linejoin:miter;stroke-opacity:1" d="M 727.51,49.2194 735.989,77.4815 z" id="boundary" inkscape:connector-curvature="0" />
	<path style="fill:none;stroke:red;stroke-width:1px;stroke-linecap:butt;stroke-linejoin:miter;stroke-opacity:1" d="M 735.989,77.4815 735.989,105.744 z" id="boundary" inkscape:connector-curvature="0" />
	<path style="fill:none;stroke:red;stroke-width:1px;stroke-linecap:butt;stroke-linejoin:miter;stroke-opacity:1" d="M 735.989,105.744 724.684,134.006 z" id="boundary" inkscape:connector-curvature="0" />
	<path style="fill:none;stroke:red;stroke-width:1px;stroke-linecap:butt;stroke-linejoin:miter;stroke-opacity:1" d="M 724.684,134.006 713.379,162.268 z" id="boundary" inkscape:connector-curvature="0" />
	<path style="fill:none;stroke:red;stroke-width:1px;stroke-linecap:butt;stroke-linejoin:miter;stroke-opacity:1" d="M 713.379,162.268 702.074,190.53 z" id="boundary" inkscape:connector-curvature="0" />
	<path style="fill:none;stroke:red;stroke-width:1px;stroke-linecap:butt;stroke-linejoin:miter;stroke-opacity:1" d="M 702.074,190.53 702.074,218.792 z" id="boundary" inkscape:connector-curvature="0" />
	<path style="fill:none;stroke:red;stroke-width:1px;stroke-linecap:butt;stroke-linejoin:miter;stroke-opacity:1" d="M 702.074,218.792 704.9,247.054 z" id="boundary" inkscape:connector-curvature="0" />
	<path style="fill:none;stroke:red;stroke-width:1px;stroke-linecap:butt;stroke-linejoin:miter;stroke-opacity:1" d="M 704.9,247.054 702.074,275.316 z" id="boundary" inkscape:connector-curvature="0" />
	<path style="fill:none;stroke:red;stroke-width:1px;stroke-linecap:butt;stroke-linejoin:miter;stroke-opacity:1" d="M 702.074,275.316 696.422,314.883 z" id="boundary" inkscape:connector-curvature="0" />
	<path style="fill:none;stroke:red;stroke-width:1px;stroke-linecap:butt;stroke-linejoin:miter;stroke-opacity:1" d="M 696.422,314.883 685.117,343.145 z" id="boundary" inkscape:connector-curvature="0" />
	<path style="fill:none;stroke:red;stroke-width:1px;stroke-linecap:butt;stroke-linejoin:miter;stroke-opacity:1" d="M 685.117,343.145 670.986,368.581 z" id="boundary" inkscape:connector-curvature="0" />
	<path style="fill:none;stroke:red;stroke-width:1px;stroke-linecap:butt;stroke-linejoin:miter;stroke-opacity:1" d="M 670.986,368.581 696.422,382.712 z" id="boundary" inkscape:connector-curvature="0" />
	<path style="fill:none;stroke:red;stroke-width:1px;stroke-linecap:butt;stroke-linejoin:miter;stroke-opacity:1" d="M 696.422,382.712 724.684,382.712 z" id="boundary" inkscape:connector-curvature="0" />
	<path style="fill:none;stroke:red;stroke-width:1px;stroke-linecap:butt;stroke-linejoin:miter;stroke-opacity:1" d="M 724.684,382.712 752.946,394.017 z" id="boundary" inkscape:connector-curvature="0" />
	<path style="fill:none;stroke:red;stroke-width:1px;stroke-linecap:butt;stroke-linejoin:miter;stroke-opacity:1" d="M 752.946,394.017 781.208,405.322 z" id="boundary" inkscape:connector-curvature="0" />
	<path style="fill:none;stroke:red;stroke-width:1px;stroke-linecap:butt;stroke-linejoin:miter;stroke-opacity:1" d="M 781.208,405.322 800.991,427.932 z" id="boundary" inkscape:connector-curvature="0" />
	<path style="fill:none;stroke:red;stroke-width:1px;stroke-linecap:butt;stroke-linejoin:miter;stroke-opacity:1" d="M 800.991,427.932 829.254,436.41 z" id="boundary" inkscape:connector-curvature="0" />
	<path style="fill:none;stroke:red;stroke-width:1px;stroke-linecap:butt;stroke-linejoin:miter;stroke-opacity:1" d="M 829.254,436.41 857.516,444.889 z" id="boundary" inkscape:connector-curvature="0" />
	<path style="fill:none;stroke:red;stroke-width:1px;stroke-linecap:butt;stroke-linejoin:miter;stroke-opacity:1" d="M 857.516,444.889 882.952,459.02 z" id="boundary" inkscape:connector-curvature="0" />
	<path style="fill:none;stroke:red;stroke-width:1px;stroke-linecap:butt;stroke-linejoin:miter;stroke-opacity:1" d="M 882.952,459.02 905.561,478.803 z" id="boundary" inkscape:connector-curvature="0" />
	<path style="fill:none;stroke:red;stroke-width:1px;stroke-linecap:butt;stroke-linejoin:miter;stroke-opacity:1" d="M 905.561,478.803 914.04,507.066 z" id="boundary" inkscape:connector-curvature="0" />
	<circle cx="4" cy="512.718" r="4" fill="#0" id="circle0"/>
	<circle cx="9.65242" cy="540.98" r="4" fill="#0" id="circle1"/>
	<circle cx="15.3048" cy="484.456" r="4" fill="#0" id="circle2"/>
	<circle cx="20.9573" cy="569.242" r="4" fill="#0" id="circle3"/>
	<circle cx="32.2621" cy="461.846" r="4" fill="#0" id="circle4"/>
	<circle cx="37.9145" cy="834.906" r="4" fill="#0" id="circle5"/>
	<circle cx="37.9145" cy="863.168" r="4" fill="#0" id="circle6"/>
	<circle cx="37.9145" cy="891.43" r="4" fill="#0" id="circle7"/>
	<circle cx="37.9145" cy="919.692" r="4" fill="#0" id="circle8"/>
	<circle cx="40.7407" cy="591.852" r="4" fill="#0" id="circle9"/>
	<circle cx="43.567" cy="947.954" r="4" fill="#0" id="circle10"/>
	<circle cx="49.2194" cy="795.339" r="4" fill="#0" id="circle11"/>
	<circle cx="57.698" cy="447.715" r="4" fill="#0" id="circle12"/>
	<circle cx="60.5242" cy="761.425" r="4" fill="#0" id="circle13"/>
	<circle cx="63.3504" cy="611.635" r="4" fill="#0" id="circle14"/>
	<circle cx="66.1766" cy="967.738" r="4" fill="#0" id="circle15"/>
	<circle cx="85.9601" cy="439.236" r="4" fill="#0" id="circle16"/>
	<circle cx="85.9601" cy="628.593" r="4" fill="#0" id="circle17"/>
	<circle cx="85.9601" cy="747.293" r="4" fill="#0" id="circle18"/>
	<circle cx="88.7863" cy="987.521" r="4" fill="#0" id="circle19"/>
	<circle cx="111.396" cy="642.724" r="4" fill="#0" id="circle20"/>
	<circle cx="111.396" cy="733.162" r="4" fill="#0" id="circle21"/>
	<circle cx="114.222" cy="433.584" r="4" fill="#0" id="circle22"/>
	<circle cx="117.048" cy="996" r="4" fill="#0" id="circle23"/>
	<circle cx="131.179" cy="408.148" r="4" fill="#0" id="circle24"/>
	<circle cx="139.658" cy="654.028" r="4" fill="#0" id="circle25"/>
	<circle cx="139.658" cy="727.51" r="4" fill="#0" id="circle26"/>
	<circle cx="145.311" cy="996" r="4" fill="#0" id="circle27"/>
	<circle cx="159.442" cy="396.843" r="4" fill="#0" id="circle28"/>
	<circle cx="167.92" cy="662.507" r="4" fill="#0" id="circle29"/>
	<circle cx="167.92" cy="727.51" r="4" fill="#0" id="circle30"/>
	<circle cx="173.573" cy="996" r="4" fill="#0" id="circle31"/>
	<circle cx="184.877" cy="54.8718" r="4" fill="#0" id="circle32"/>
	<circle cx="184.877" cy="83.1339" r="4" fill="#0" id="circle33"/>
	<circle cx="184.877" cy="111.396" r="4" fill="#0" id="circle34"/>
	<circle cx="187.704" cy="388.365" r="4" fill="#0" id="circle35"/>
	<circle cx="196.182" cy="139.658" r="4" fill="#0" id="circle36"/>
	<circle cx="196.182" cy="670.986" r="4" fill="#0" id="circle37"/>
	<circle cx="196.182" cy="721.858" r="4" fill="#0" id="circle38"/>
	<circle cx="201.835" cy="996" r="4" fill="#0" id="circle39"/>
	<circle cx="207.487" cy="32.2621" r="4" fill="#0" id="circle40"/>
	<circle cx="207.487" cy="167.92" r="4" fill="#0" id="circle41"/>
	<circle cx="215.966" cy="382.712" r="4" fill="#0" id="circle42"/>
	<circle cx="218.792" cy="196.182" r="4" fill="#0" id="circle43"/>
	<circle cx="218.792" cy="224.444" r="4" fill="#0" id="circle44"/>
	<circle cx="218.792" cy="252.707" r="4" fill="#0" id="circle45"/>
	<circle cx="218.792" cy="280.969" r="4" fill="#0" id="circle46"/>
	<circle cx="224.444" cy="309.231" r="4" fill="#0" id="circle47"/>
	<circle cx="224.444" cy="668.16" r="4" fill="#0" id="circle48"/>
	<circle cx="224.444" cy="716.205" r="4" fill="#0" id="circle49"/>
	<circle cx="230.097" cy="15.3048" r="4" fill="#0" id="circle50"/>
	<circle cx="230.097" cy="337.493" r="4" fill="#0" id="circle51"/>
	<circle cx="230.097" cy="996" r="4" fill="#0" id="circle52"/>
	<circle cx="241.402" cy="690.769" r="4" fill="#0" id="circle53"/>
	<circle cx="244.228" cy="377.06" r="4" fill="#0" id="circle54"/>
	<circle cx="252.707" cy="979.043" r="4" fill="#0" id="circle55"/>
	<circle cx="258.359" cy="9.65242" r="4" fill="#0" id="circle56"/>
	<circle cx="280.969" cy="973.39" r="4" fill="#0" id="circle57"/>
	<circle cx="286.621" cy="4" r="4" fill="#0" id="circle58"/>
	<circle cx="309.231" cy="979.043" r="4" fill="#0" id="circle59"/>
	<circle cx="314.883" cy="9.65242" r="4" fill="#0" id="circle60"/>
	<circle cx="337.493" cy="984.695" r="4" fill="#0" id="circle61"/>
	<circle cx="343.145" cy="18.1311" r="4" fill="#0" id="circle62"/>
	<circle cx="365.755" cy="990.348" r="4" fill="#0" id="circle63"/>
	<circle cx="368.581" cy="32.2621" r="4" fill="#0" id="circle64"/>
	<circle cx="394.017" cy="996" r="4" fill="#0" id="circle65"/>
	<circle cx="396.843" cy="43.567" r="4" fill="#0" id="circle66"/>
	<circle cx="422.279" cy="996" r="4" fill="#0" id="circle67"/>
	<circle cx="425.105" cy="43.567" r="4" fill="#0" id="circle68"/>
	<circle cx="450.541" cy="996" r="4" fill="#0" id="circle69"/>
	<circle cx="453.368" cy="40.7407" r="4" fill="#0" id="circle70"/>
	<circle cx="478.803" cy="996" r="4" fill="#0" id="circle71"/>
	<circle cx="481.63" cy="43.567" r="4" fill="#0" id="circle72"/>
	<circle cx="507.066" cy="996" r="4" fill="#0" id="circle73"/>
	<circle cx="509.892" cy="43.567" r="4" fill="#0" id="circle74"/>
	<circle cx="535.328" cy="990.348" r="4" fill="#0" id="circle75"/>
	<circle cx="538.154" cy="37.9145" r="4" fill="#0" id="circle76"/>
	<circle cx="563.59" cy="990.348" r="4" fill="#0" id="circle77"/>
	<circle cx="566.416" cy="23.7835" r="4" fill="#0" id="circle78"/>
	<circle cx="591.852" cy="984.695" r="4" fill="#0" id="circle79"/>
	<circle cx="594.678" cy="12.4786" r="4" fill="#0" id="circle80"/>
	<circle cx="620.114" cy="979.043" r="4" fill="#0" id="circle81"/>
	<circle cx="622.94" cy="6.82621" r="4" fill="#0" id="circle82"/>
	<circle cx="648.376" cy="973.39" r="4" fill="#0" id="circle83"/>
	<circle cx="651.202" cy="4" r="4" fill="#0" id="circle84"/>
	<circle cx="670.986" cy="368.581" r="4" fill="#0" id="circle85"/>
	<circle cx="676.638" cy="662.507" r="4" fill="#0" id="circle86"/>
	<circle cx="676.638" cy="984.695" r="4" fill="#0" id="circle87"/>
	<circle cx="679.464" cy="15.3048" r="4" fill="#0" id="circle88"/>
	<circle cx="679.464" cy="690.769" r="4" fill="#0" id="circle89"/>
	<circle cx="685.117" cy="343.145" r="4" fill="#0" id="circle90"/>
	<circle cx="693.595" cy="716.205" r="4" fill="#0" id="circle91"/>
	<circle cx="696.422" cy="314.883" r="4" fill="#0" id="circle92"/>
	<circle cx="696.422" cy="382.712" r="4" fill="#0" id="circle93"/>
	<circle cx="702.074" cy="190.53" r="4" fill="#0" id="circle94"/>
	<circle cx="702.074" cy="218.792" r="4" fill="#0" id="circle95"/>
	<circle cx="702.074" cy="275.316" r="4" fill="#0" id="circle96"/>
	<circle cx="704.9" cy="247.054" r="4" fill="#0" id="circle97"/>
	<circle cx="704.9" cy="668.16" r="4" fill="#0" id="circle98"/>
	<circle cx="704.9" cy="996" r="4" fill="#0" id="circle99"/>
	<circle cx="707.726" cy="26.6097" r="4" fill="#0" id="circle100"/>
	<circle cx="713.379" cy="162.268" r="4" fill="#0" id="circle101"/>
	<circle cx="721.858" cy="719.031" r="4" fill="#0" id="circle102"/>
	<circle cx="724.684" cy="134.006" r="4" fill="#0" id="circle103"/>
	<circle cx="724.684" cy="382.712" r="4" fill="#0" id="circle104"/>
	<circle cx="727.51" cy="49.2194" r="4" fill="#0" id="circle105"/>
	<circle cx="733.162" cy="662.507" r="4" fill="#0" id="circle106"/>
	<circle cx="733.162" cy="996" r="4" fill="#0" id="circle107"/>
	<circle cx="735.989" cy="77.4815" r="4" fill="#0" id="circle108"/>
	<circle cx="735.989" cy="105.744" r="4" fill="#0" id="circle109"/>
	<circle cx="750.12" cy="727.51" r="4" fill="#0" id="circle110"/>
	<circle cx="752.946" cy="394.017" r="4" fill="#0" id="circle111"/>
	<circle cx="761.425" cy="662.507" r="4" fill="#0" id="circle112"/>
	<circle cx="761.425" cy="996" r="4" fill="#0" id="circle113"/>
	<circle cx="778.382" cy="727.51" r="4" fill="#0" id="circle114"/>
	<circle cx="781.208" cy="405.322" r="4" fill="#0" id="circle115"/>
	<circle cx="789.687" cy="651.202" r="4" fill="#0" id="circle116"/>
	<circle cx="789.687" cy="996" r="4" fill="#0" id="circle117"/>
	<circle cx="800.991" cy="427.932" r="4" fill="#0" id="circle118"/>
	<circle cx="806.644" cy="727.51" r="4" fill="#0" id="circle119"/>
	<circle cx="817.949" cy="639.897" r="4" fill="#0" id="circle120"/>
	<circle cx="817.949" cy="996" r="4" fill="#0" id="circle121"/>
	<circle cx="829.254" cy="436.41" r="4" fill="#0" id="circle122"/>
	<circle cx="829.254" cy="744.467" r="4" fill="#0" id="circle123"/>
	<circle cx="840.558" cy="622.94" r="4" fill="#0" id="circle124"/>
	<circle cx="840.558" cy="979.043" r="4" fill="#0" id="circle125"/>
	<circle cx="854.689" cy="758.598" r="4" fill="#0" id="circle126"/>
	<circle cx="857.516" cy="444.889" r="4" fill="#0" id="circle127"/>
	<circle cx="863.168" cy="605.983" r="4" fill="#0" id="circle128"/>
	<circle cx="863.168" cy="962.085" r="4" fill="#0" id="circle129"/>
	<circle cx="865.994" cy="786.86" r="4" fill="#0" id="circle130"/>
	<circle cx="877.299" cy="815.123" r="4" fill="#0" id="circle131"/>
	<circle cx="882.952" cy="459.02" r="4" fill="#0" id="circle132"/>
	<circle cx="882.952" cy="843.385" r="4" fill="#0" id="circle133"/>
	<circle cx="882.952" cy="885.778" r="4" fill="#0" id="circle134"/>
	<circle cx="882.952" cy="914.04" r="4" fill="#0" id="circle135"/>
	<circle cx="885.778" cy="589.026" r="4" fill="#0" id="circle136"/>
	<circle cx="902.735" cy="566.416" r="4" fill="#0" id="circle137"/>
	<circle cx="905.561" cy="478.803" r="4" fill="#0" id="circle138"/>
	<circle cx="914.04" cy="507.066" r="4" fill="#0" id="circle139"/>
	<circle cx="914.04" cy="538.154" r="4" fill="#0" id="circle140"/>
	</g>
</svg>