<?xml version="1.0" encoding="UTF-8" standalone="no"?>
<!-- Created with CurveBenchmark -->
<svg
	xmlns:dc="http://purl.org/dc/elements/1.1/"
	xmlns:cc="http://creativecommons.org/ns#"
	xmlns:rdf="http://www.w3.org/1999/02/22-rdf-syntax-ns#"
	xmlns:svg="http://www.w3.org/2000/svg"
	xmlns="http://www.w3.org/2000/svg"
	xmlns:sodipodi="http://sodipodi.sourceforge.net/DTD/sodipodi-0.dtd"
	xmlns:inkscape="http://www.inkscape.org/namespaces/inkscape"
	width="1000"
	height="1000"
	id="svg2"
	version="1.1"
	sodipodi:docname="manifold/connect2d-personal_car-4.png.txt">
<defs
	id="defs4" />
<metadata
	id="metadata7">
	<rdf:RDF>
		<cc:Work
			rdf:about="">
			<dc:format>image/svg+xml</dc:format>
			<dc:type
				rdf:resource="http://purl.org/dc/dcmitype/StillImage" />
			<dc:title></dc:title>
		</cc:Work>
	</rdf:RDF>
</metadata>
<g
	inkscape:label="Layer 1"
	inkscape:groupmode="layer"
	id="layer1">
	<path style="fill:none;stroke:red;stroke-width:1px;stroke-linecap:butt;stroke-linejoin:miter;stroke-opacity:1" d="M 996,221.538 996,228.422 z" id="boundary" inkscape:connector-curvature="0" />
	<path style="fill:none;stroke:red;stroke-width:1px;stroke-linecap:butt;stroke-linejoin:miter;stroke-opacity:1" d="M 996,228.422 992.558,238.748 z" id="boundary" inkscape:connector-curvature="0" />
	<path style="fill:none;stroke:red;stroke-width:1px;stroke-linecap:butt;stroke-linejoin:miter;stroke-opacity:1" d="M 992.558,238.748 989.116,245.632 z" id="boundary" inkscape:connector-curvature="0" />
	<path style="fill:none;stroke:red;stroke-width:1px;stroke-linecap:butt;stroke-linejoin:miter;stroke-opacity:1" d="M 989.116,245.632 985.674,255.958 z" id="boundary" inkscape:connector-curvature="0" />
	<path style="fill:none;stroke:red;stroke-width:1px;stroke-linecap:butt;stroke-linejoin:miter;stroke-opacity:1" d="M 985.674,255.958 982.232,266.285 z" id="boundary" inkscape:connector-curvature="0" />
	<path style="fill:none;stroke:red;stroke-width:1px;stroke-linecap:butt;stroke-linejoin:miter;stroke-opacity:1" d="M 982.232,266.285 982.232,273.169 z" id="boundary" inkscape:connector-curvature="0" />
	<path style="fill:none;stroke:red;stroke-width:1px;stroke-linecap:butt;stroke-linejoin:miter;stroke-opacity:1" d="M 982.232,273.169 982.232,280.053 z" id="boundary" inkscape:connector-curvature="0" />
	<path style="fill:none;stroke:red;stroke-width:1px;stroke-linecap:butt;stroke-linejoin:miter;stroke-opacity:1" d="M 982.232,280.053 982.232,286.937 z" id="boundary" inkscape:connector-curvature="0" />
	<path style="fill:none;stroke:red;stroke-width:1px;stroke-linecap:butt;stroke-linejoin:miter;stroke-opacity:1" d="M 982.232,286.937 982.232,293.821 z" id="boundary" inkscape:connector-curvature="0" />
	<path style="fill:none;stroke:red;stroke-width:1px;stroke-linecap:butt;stroke-linejoin:miter;stroke-opacity:1" d="M 982.232,293.821 978.79,304.147 z" id="boundary" inkscape:connector-curvature="0" />
	<path style="fill:none;stroke:red;stroke-width:1px;stroke-linecap:butt;stroke-linejoin:miter;stroke-opacity:1" d="M 978.79,304.147 975.348,311.031 z" id="boundary" inkscape:connector-curvature="0" />
	<path style="fill:none;stroke:red;stroke-width:1px;stroke-linecap:butt;stroke-linejoin:miter;stroke-opacity:1" d="M 975.348,311.031 969.84,317.227 z" id="boundary" inkscape:connector-curvature="0" />
	<path style="fill:none;stroke:red;stroke-width:1px;stroke-linecap:butt;stroke-linejoin:miter;stroke-opacity:1" d="M 969.84,317.227 964.333,321.357 z" id="boundary" inkscape:connector-curvature="0" />
	<path style="fill:none;stroke:red;stroke-width:1px;stroke-linecap:butt;stroke-linejoin:miter;stroke-opacity:1" d="M 964.333,321.357 958.137,324.799 z" id="boundary" inkscape:connector-curvature="0" />
	<path style="fill:none;stroke:red;stroke-width:1px;stroke-linecap:butt;stroke-linejoin:miter;stroke-opacity:1" d="M 958.137,324.799 951.253,328.241 z" id="boundary" inkscape:connector-curvature="0" />
	<path style="fill:none;stroke:red;stroke-width:1px;stroke-linecap:butt;stroke-linejoin:miter;stroke-opacity:1" d="M 951.253,328.241 945.058,331.684 z" id="boundary" inkscape:connector-curvature="0" />
	<path style="fill:none;stroke:red;stroke-width:1px;stroke-linecap:butt;stroke-linejoin:miter;stroke-opacity:1" d="M 945.058,331.684 938.862,335.126 z" id="boundary" inkscape:connector-curvature="0" />
	<path style="fill:none;stroke:red;stroke-width:1px;stroke-linecap:butt;stroke-linejoin:miter;stroke-opacity:1" d="M 938.862,335.126 932.666,338.568 z" id="boundary" inkscape:connector-curvature="0" />
	<path style="fill:none;stroke:red;stroke-width:1px;stroke-linecap:butt;stroke-linejoin:miter;stroke-opacity:1" d="M 932.666,338.568 926.471,342.01 z" id="boundary" inkscape:connector-curvature="0" />
	<path style="fill:none;stroke:red;stroke-width:1px;stroke-linecap:butt;stroke-linejoin:miter;stroke-opacity:1" d="M 926.471,342.01 920.275,345.452 z" id="boundary" inkscape:connector-curvature="0" />
	<path style="fill:none;stroke:red;stroke-width:1px;stroke-linecap:butt;stroke-linejoin:miter;stroke-opacity:1" d="M 920.275,345.452 914.079,348.894 z" id="boundary" inkscape:connector-curvature="0" />
	<path style="fill:none;stroke:red;stroke-width:1px;stroke-linecap:butt;stroke-linejoin:miter;stroke-opacity:1" d="M 914.079,348.894 907.195,348.894 z" id="boundary" inkscape:connector-curvature="0" />
	<path style="fill:none;stroke:red;stroke-width:1px;stroke-linecap:butt;stroke-linejoin:miter;stroke-opacity:1" d="M 907.195,348.894 900.311,348.894 z" id="boundary" inkscape:connector-curvature="0" />
	<path style="fill:none;stroke:red;stroke-width:1px;stroke-linecap:butt;stroke-linejoin:miter;stroke-opacity:1" d="M 900.311,348.894 894.115,352.336 z" id="boundary" inkscape:connector-curvature="0" />
	<path style="fill:none;stroke:red;stroke-width:1px;stroke-linecap:butt;stroke-linejoin:miter;stroke-opacity:1" d="M 894.115,352.336 887.231,352.336 z" id="boundary" inkscape:connector-curvature="0" />
	<path style="fill:none;stroke:red;stroke-width:1px;stroke-linecap:butt;stroke-linejoin:miter;stroke-opacity:1" d="M 887.231,352.336 880.347,352.336 z" id="boundary" inkscape:connector-curvature="0" />
	<path style="fill:none;stroke:red;stroke-width:1px;stroke-linecap:butt;stroke-linejoin:miter;stroke-opacity:1" d="M 880.347,352.336 873.463,352.336 z" id="boundary" inkscape:connector-curvature="0" />
	<path style="fill:none;stroke:red;stroke-width:1px;stroke-linecap:butt;stroke-linejoin:miter;stroke-opacity:1" d="M 873.463,352.336 866.579,355.09 z" id="boundary" inkscape:connector-curvature="0" />
	<path style="fill:none;stroke:red;stroke-width:1px;stroke-linecap:butt;stroke-linejoin:miter;stroke-opacity:1" d="M 866.579,355.09 859.695,355.778 z" id="boundary" inkscape:connector-curvature="0" />
	<path style="fill:none;stroke:red;stroke-width:1px;stroke-linecap:butt;stroke-linejoin:miter;stroke-opacity:1" d="M 859.695,355.778 852.811,355.778 z" id="boundary" inkscape:connector-curvature="0" />
	<path style="fill:none;stroke:red;stroke-width:1px;stroke-linecap:butt;stroke-linejoin:miter;stroke-opacity:1" d="M 852.811,355.778 845.926,355.778 z" id="boundary" inkscape:connector-curvature="0" />
	<path style="fill:none;stroke:red;stroke-width:1px;stroke-linecap:butt;stroke-linejoin:miter;stroke-opacity:1" d="M 845.926,355.778 839.042,358.532 z" id="boundary" inkscape:connector-curvature="0" />
	<path style="fill:none;stroke:red;stroke-width:1px;stroke-linecap:butt;stroke-linejoin:miter;stroke-opacity:1" d="M 839.042,358.532 832.158,358.532 z" id="boundary" inkscape:connector-curvature="0" />
	<path style="fill:none;stroke:red;stroke-width:1px;stroke-linecap:butt;stroke-linejoin:miter;stroke-opacity:1" d="M 832.158,358.532 825.274,355.778 z" id="boundary" inkscape:connector-curvature="0" />
	<path style="fill:none;stroke:red;stroke-width:1px;stroke-linecap:butt;stroke-linejoin:miter;stroke-opacity:1" d="M 825.274,355.778 819.078,352.336 z" id="boundary" inkscape:connector-curvature="0" />
	<path style="fill:none;stroke:red;stroke-width:1px;stroke-linecap:butt;stroke-linejoin:miter;stroke-opacity:1" d="M 819.078,352.336 813.571,347.517 z" id="boundary" inkscape:connector-curvature="0" />
	<path style="fill:none;stroke:red;stroke-width:1px;stroke-linecap:butt;stroke-linejoin:miter;stroke-opacity:1" d="M 813.571,347.517 808.752,342.01 z" id="boundary" inkscape:connector-curvature="0" />
	<path style="fill:none;stroke:red;stroke-width:1px;stroke-linecap:butt;stroke-linejoin:miter;stroke-opacity:1" d="M 808.752,342.01 803.245,337.191 z" id="boundary" inkscape:connector-curvature="0" />
	<path style="fill:none;stroke:red;stroke-width:1px;stroke-linecap:butt;stroke-linejoin:miter;stroke-opacity:1" d="M 803.245,337.191 798.426,331.684 z" id="boundary" inkscape:connector-curvature="0" />
	<path style="fill:none;stroke:red;stroke-width:1px;stroke-linecap:butt;stroke-linejoin:miter;stroke-opacity:1" d="M 798.426,331.684 792.23,328.241 z" id="boundary" inkscape:connector-curvature="0" />
	<path style="fill:none;stroke:red;stroke-width:1px;stroke-linecap:butt;stroke-linejoin:miter;stroke-opacity:1" d="M 792.23,328.241 785.346,326.176 z" id="boundary" inkscape:connector-curvature="0" />
	<path style="fill:none;stroke:red;stroke-width:1px;stroke-linecap:butt;stroke-linejoin:miter;stroke-opacity:1" d="M 785.346,326.176 779.151,322.734 z" id="boundary" inkscape:connector-curvature="0" />
	<path style="fill:none;stroke:red;stroke-width:1px;stroke-linecap:butt;stroke-linejoin:miter;stroke-opacity:1" d="M 779.151,322.734 772.266,321.357 z" id="boundary" inkscape:connector-curvature="0" />
	<path style="fill:none;stroke:red;stroke-width:1px;stroke-linecap:butt;stroke-linejoin:miter;stroke-opacity:1" d="M 772.266,321.357 765.382,321.357 z" id="boundary" inkscape:connector-curvature="0" />
	<path style="fill:none;stroke:red;stroke-width:1px;stroke-linecap:butt;stroke-linejoin:miter;stroke-opacity:1" d="M 765.382,321.357 758.498,321.357 z" id="boundary" inkscape:connector-curvature="0" />
	<path style="fill:none;stroke:red;stroke-width:1px;stroke-linecap:butt;stroke-linejoin:miter;stroke-opacity:1" d="M 758.498,321.357 751.614,321.357 z" id="boundary" inkscape:connector-curvature="0" />
	<path style="fill:none;stroke:red;stroke-width:1px;stroke-linecap:butt;stroke-linejoin:miter;stroke-opacity:1" d="M 751.614,321.357 745.418,324.799 z" id="boundary" inkscape:connector-curvature="0" />
	<path style="fill:none;stroke:red;stroke-width:1px;stroke-linecap:butt;stroke-linejoin:miter;stroke-opacity:1" d="M 745.418,324.799 738.534,324.799 z" id="boundary" inkscape:connector-curvature="0" />
	<path style="fill:none;stroke:red;stroke-width:1px;stroke-linecap:butt;stroke-linejoin:miter;stroke-opacity:1" d="M 738.534,324.799 731.65,324.799 z" id="boundary" inkscape:connector-curvature="0" />
	<path style="fill:none;stroke:red;stroke-width:1px;stroke-linecap:butt;stroke-linejoin:miter;stroke-opacity:1" d="M 731.65,324.799 724.766,324.799 z" id="boundary" inkscape:connector-curvature="0" />
	<path style="fill:none;stroke:red;stroke-width:1px;stroke-linecap:butt;stroke-linejoin:miter;stroke-opacity:1" d="M 724.766,324.799 717.882,324.799 z" id="boundary" inkscape:connector-curvature="0" />
	<path style="fill:none;stroke:red;stroke-width:1px;stroke-linecap:butt;stroke-linejoin:miter;stroke-opacity:1" d="M 717.882,324.799 710.998,324.799 z" id="boundary" inkscape:connector-curvature="0" />
	<path style="fill:none;stroke:red;stroke-width:1px;stroke-linecap:butt;stroke-linejoin:miter;stroke-opacity:1" d="M 710.998,324.799 704.802,328.241 z" id="boundary" inkscape:connector-curvature="0" />
	<path style="fill:none;stroke:red;stroke-width:1px;stroke-linecap:butt;stroke-linejoin:miter;stroke-opacity:1" d="M 704.802,328.241 697.918,328.241 z" id="boundary" inkscape:connector-curvature="0" />
	<path style="fill:none;stroke:red;stroke-width:1px;stroke-linecap:butt;stroke-linejoin:miter;stroke-opacity:1" d="M 697.918,328.241 691.034,328.241 z" id="boundary" inkscape:connector-curvature="0" />
	<path style="fill:none;stroke:red;stroke-width:1px;stroke-linecap:butt;stroke-linejoin:miter;stroke-opacity:1" d="M 691.034,328.241 684.15,328.241 z" id="boundary" inkscape:connector-curvature="0" />
	<path style="fill:none;stroke:red;stroke-width:1px;stroke-linecap:butt;stroke-linejoin:miter;stroke-opacity:1" d="M 684.15,328.241 677.266,328.241 z" id="boundary" inkscape:connector-curvature="0" />
	<path style="fill:none;stroke:red;stroke-width:1px;stroke-linecap:butt;stroke-linejoin:miter;stroke-opacity:1" d="M 677.266,328.241 670.382,330.995 z" id="boundary" inkscape:connector-curvature="0" />
	<path style="fill:none;stroke:red;stroke-width:1px;stroke-linecap:butt;stroke-linejoin:miter;stroke-opacity:1" d="M 670.382,330.995 663.498,331.684 z" id="boundary" inkscape:connector-curvature="0" />
	<path style="fill:none;stroke:red;stroke-width:1px;stroke-linecap:butt;stroke-linejoin:miter;stroke-opacity:1" d="M 663.498,331.684 656.613,331.684 z" id="boundary" inkscape:connector-curvature="0" />
	<path style="fill:none;stroke:red;stroke-width:1px;stroke-linecap:butt;stroke-linejoin:miter;stroke-opacity:1" d="M 656.613,331.684 649.729,331.684 z" id="boundary" inkscape:connector-curvature="0" />
	<path style="fill:none;stroke:red;stroke-width:1px;stroke-linecap:butt;stroke-linejoin:miter;stroke-opacity:1" d="M 649.729,331.684 642.845,331.684 z" id="boundary" inkscape:connector-curvature="0" />
	<path style="fill:none;stroke:red;stroke-width:1px;stroke-linecap:butt;stroke-linejoin:miter;stroke-opacity:1" d="M 642.845,331.684 635.961,331.684 z" id="boundary" inkscape:connector-curvature="0" />
	<path style="fill:none;stroke:red;stroke-width:1px;stroke-linecap:butt;stroke-linejoin:miter;stroke-opacity:1" d="M 635.961,331.684 629.077,331.684 z" id="boundary" inkscape:connector-curvature="0" />
	<path style="fill:none;stroke:red;stroke-width:1px;stroke-linecap:butt;stroke-linejoin:miter;stroke-opacity:1" d="M 629.077,331.684 622.881,335.126 z" id="boundary" inkscape:connector-curvature="0" />
	<path style="fill:none;stroke:red;stroke-width:1px;stroke-linecap:butt;stroke-linejoin:miter;stroke-opacity:1" d="M 622.881,335.126 615.997,335.126 z" id="boundary" inkscape:connector-curvature="0" />
	<path style="fill:none;stroke:red;stroke-width:1px;stroke-linecap:butt;stroke-linejoin:miter;stroke-opacity:1" d="M 615.997,335.126 609.113,337.191 z" id="boundary" inkscape:connector-curvature="0" />
	<path style="fill:none;stroke:red;stroke-width:1px;stroke-linecap:butt;stroke-linejoin:miter;stroke-opacity:1" d="M 609.113,337.191 602.229,340.633 z" id="boundary" inkscape:connector-curvature="0" />
	<path style="fill:none;stroke:red;stroke-width:1px;stroke-linecap:butt;stroke-linejoin:miter;stroke-opacity:1" d="M 602.229,340.633 595.345,344.075 z" id="boundary" inkscape:connector-curvature="0" />
	<path style="fill:none;stroke:red;stroke-width:1px;stroke-linecap:butt;stroke-linejoin:miter;stroke-opacity:1" d="M 595.345,344.075 591.903,350.959 z" id="boundary" inkscape:connector-curvature="0" />
	<path style="fill:none;stroke:red;stroke-width:1px;stroke-linecap:butt;stroke-linejoin:miter;stroke-opacity:1" d="M 591.903,350.959 586.396,355.778 z" id="boundary" inkscape:connector-curvature="0" />
	<path style="fill:none;stroke:red;stroke-width:1px;stroke-linecap:butt;stroke-linejoin:miter;stroke-opacity:1" d="M 586.396,355.778 581.577,361.285 z" id="boundary" inkscape:connector-curvature="0" />
	<path style="fill:none;stroke:red;stroke-width:1px;stroke-linecap:butt;stroke-linejoin:miter;stroke-opacity:1" d="M 581.577,361.285 576.069,366.104 z" id="boundary" inkscape:connector-curvature="0" />
	<path style="fill:none;stroke:red;stroke-width:1px;stroke-linecap:butt;stroke-linejoin:miter;stroke-opacity:1" d="M 576.069,366.104 569.874,369.546 z" id="boundary" inkscape:connector-curvature="0" />
	<path style="fill:none;stroke:red;stroke-width:1px;stroke-linecap:butt;stroke-linejoin:miter;stroke-opacity:1" d="M 569.874,369.546 563.678,372.988 z" id="boundary" inkscape:connector-curvature="0" />
	<path style="fill:none;stroke:red;stroke-width:1px;stroke-linecap:butt;stroke-linejoin:miter;stroke-opacity:1" d="M 563.678,372.988 557.482,376.43 z" id="boundary" inkscape:connector-curvature="0" />
	<path style="fill:none;stroke:red;stroke-width:1px;stroke-linecap:butt;stroke-linejoin:miter;stroke-opacity:1" d="M 557.482,376.43 550.598,378.495 z" id="boundary" inkscape:connector-curvature="0" />
	<path style="fill:none;stroke:red;stroke-width:1px;stroke-linecap:butt;stroke-linejoin:miter;stroke-opacity:1" d="M 550.598,378.495 543.714,379.872 z" id="boundary" inkscape:connector-curvature="0" />
	<path style="fill:none;stroke:red;stroke-width:1px;stroke-linecap:butt;stroke-linejoin:miter;stroke-opacity:1" d="M 543.714,379.872 536.83,381.938 z" id="boundary" inkscape:connector-curvature="0" />
	<path style="fill:none;stroke:red;stroke-width:1px;stroke-linecap:butt;stroke-linejoin:miter;stroke-opacity:1" d="M 536.83,381.938 529.946,383.314 z" id="boundary" inkscape:connector-curvature="0" />
	<path style="fill:none;stroke:red;stroke-width:1px;stroke-linecap:butt;stroke-linejoin:miter;stroke-opacity:1" d="M 529.946,383.314 523.062,383.314 z" id="boundary" inkscape:connector-curvature="0" />
	<path style="fill:none;stroke:red;stroke-width:1px;stroke-linecap:butt;stroke-linejoin:miter;stroke-opacity:1" d="M 523.062,383.314 516.178,383.314 z" id="boundary" inkscape:connector-curvature="0" />
	<path style="fill:none;stroke:red;stroke-width:1px;stroke-linecap:butt;stroke-linejoin:miter;stroke-opacity:1" d="M 516.178,383.314 509.294,383.314 z" id="boundary" inkscape:connector-curvature="0" />
	<path style="fill:none;stroke:red;stroke-width:1px;stroke-linecap:butt;stroke-linejoin:miter;stroke-opacity:1" d="M 509.294,383.314 502.409,385.38 z" id="boundary" inkscape:connector-curvature="0" />
	<path style="fill:none;stroke:red;stroke-width:1px;stroke-linecap:butt;stroke-linejoin:miter;stroke-opacity:1" d="M 502.409,385.38 495.525,386.756 z" id="boundary" inkscape:connector-curvature="0" />
	<path style="fill:none;stroke:red;stroke-width:1px;stroke-linecap:butt;stroke-linejoin:miter;stroke-opacity:1" d="M 495.525,386.756 489.33,383.314 z" id="boundary" inkscape:connector-curvature="0" />
	<path style="fill:none;stroke:red;stroke-width:1px;stroke-linecap:butt;stroke-linejoin:miter;stroke-opacity:1" d="M 489.33,383.314 482.446,381.249 z" id="boundary" inkscape:connector-curvature="0" />
	<path style="fill:none;stroke:red;stroke-width:1px;stroke-linecap:butt;stroke-linejoin:miter;stroke-opacity:1" d="M 482.446,381.249 476.25,377.807 z" id="boundary" inkscape:connector-curvature="0" />
	<path style="fill:none;stroke:red;stroke-width:1px;stroke-linecap:butt;stroke-linejoin:miter;stroke-opacity:1" d="M 476.25,377.807 470.743,372.988 z" id="boundary" inkscape:connector-curvature="0" />
	<path style="fill:none;stroke:red;stroke-width:1px;stroke-linecap:butt;stroke-linejoin:miter;stroke-opacity:1" d="M 470.743,372.988 464.547,369.546 z" id="boundary" inkscape:connector-curvature="0" />
	<path style="fill:none;stroke:red;stroke-width:1px;stroke-linecap:butt;stroke-linejoin:miter;stroke-opacity:1" d="M 464.547,369.546 458.351,366.104 z" id="boundary" inkscape:connector-curvature="0" />
	<path style="fill:none;stroke:red;stroke-width:1px;stroke-linecap:butt;stroke-linejoin:miter;stroke-opacity:1" d="M 458.351,366.104 451.467,364.039 z" id="boundary" inkscape:connector-curvature="0" />
	<path style="fill:none;stroke:red;stroke-width:1px;stroke-linecap:butt;stroke-linejoin:miter;stroke-opacity:1" d="M 451.467,364.039 445.271,360.597 z" id="boundary" inkscape:connector-curvature="0" />
	<path style="fill:none;stroke:red;stroke-width:1px;stroke-linecap:butt;stroke-linejoin:miter;stroke-opacity:1" d="M 445.271,360.597 439.764,355.778 z" id="boundary" inkscape:connector-curvature="0" />
	<path style="fill:none;stroke:red;stroke-width:1px;stroke-linecap:butt;stroke-linejoin:miter;stroke-opacity:1" d="M 439.764,355.778 433.568,352.336 z" id="boundary" inkscape:connector-curvature="0" />
	<path style="fill:none;stroke:red;stroke-width:1px;stroke-linecap:butt;stroke-linejoin:miter;stroke-opacity:1" d="M 433.568,352.336 428.061,347.517 z" id="boundary" inkscape:connector-curvature="0" />
	<path style="fill:none;stroke:red;stroke-width:1px;stroke-linecap:butt;stroke-linejoin:miter;stroke-opacity:1" d="M 428.061,347.517 425.307,340.633 z" id="boundary" inkscape:connector-curvature="0" />
	<path style="fill:none;stroke:red;stroke-width:1px;stroke-linecap:butt;stroke-linejoin:miter;stroke-opacity:1" d="M 425.307,340.633 421.865,334.437 z" id="boundary" inkscape:connector-curvature="0" />
	<path style="fill:none;stroke:red;stroke-width:1px;stroke-linecap:butt;stroke-linejoin:miter;stroke-opacity:1" d="M 421.865,334.437 419.112,327.553 z" id="boundary" inkscape:connector-curvature="0" />
	<path style="fill:none;stroke:red;stroke-width:1px;stroke-linecap:butt;stroke-linejoin:miter;stroke-opacity:1" d="M 419.112,327.553 413.604,322.734 z" id="boundary" inkscape:connector-curvature="0" />
	<path style="fill:none;stroke:red;stroke-width:1px;stroke-linecap:butt;stroke-linejoin:miter;stroke-opacity:1" d="M 413.604,322.734 408.786,317.227 z" id="boundary" inkscape:connector-curvature="0" />
	<path style="fill:none;stroke:red;stroke-width:1px;stroke-linecap:butt;stroke-linejoin:miter;stroke-opacity:1" d="M 408.786,317.227 401.901,314.473 z" id="boundary" inkscape:connector-curvature="0" />
	<path style="fill:none;stroke:red;stroke-width:1px;stroke-linecap:butt;stroke-linejoin:miter;stroke-opacity:1" d="M 401.901,314.473 395.017,314.473 z" id="boundary" inkscape:connector-curvature="0" />
	<path style="fill:none;stroke:red;stroke-width:1px;stroke-linecap:butt;stroke-linejoin:miter;stroke-opacity:1" d="M 395.017,314.473 388.133,314.473 z" id="boundary" inkscape:connector-curvature="0" />
	<path style="fill:none;stroke:red;stroke-width:1px;stroke-linecap:butt;stroke-linejoin:miter;stroke-opacity:1" d="M 388.133,314.473 381.249,314.473 z" id="boundary" inkscape:connector-curvature="0" />
	<path style="fill:none;stroke:red;stroke-width:1px;stroke-linecap:butt;stroke-linejoin:miter;stroke-opacity:1" d="M 381.249,314.473 374.365,314.473 z" id="boundary" inkscape:connector-curvature="0" />
	<path style="fill:none;stroke:red;stroke-width:1px;stroke-linecap:butt;stroke-linejoin:miter;stroke-opacity:1" d="M 374.365,314.473 367.481,314.473 z" id="boundary" inkscape:connector-curvature="0" />
	<path style="fill:none;stroke:red;stroke-width:1px;stroke-linecap:butt;stroke-linejoin:miter;stroke-opacity:1" d="M 367.481,314.473 360.597,314.473 z" id="boundary" inkscape:connector-curvature="0" />
	<path style="fill:none;stroke:red;stroke-width:1px;stroke-linecap:butt;stroke-linejoin:miter;stroke-opacity:1" d="M 360.597,314.473 353.713,314.473 z" id="boundary" inkscape:connector-curvature="0" />
	<path style="fill:none;stroke:red;stroke-width:1px;stroke-linecap:butt;stroke-linejoin:miter;stroke-opacity:1" d="M 353.713,314.473 346.829,314.473 z" id="boundary" inkscape:connector-curvature="0" />
	<path style="fill:none;stroke:red;stroke-width:1px;stroke-linecap:butt;stroke-linejoin:miter;stroke-opacity:1" d="M 346.829,314.473 339.944,314.473 z" id="boundary" inkscape:connector-curvature="0" />
	<path style="fill:none;stroke:red;stroke-width:1px;stroke-linecap:butt;stroke-linejoin:miter;stroke-opacity:1" d="M 339.944,314.473 333.749,311.031 z" id="boundary" inkscape:connector-curvature="0" />
	<path style="fill:none;stroke:red;stroke-width:1px;stroke-linecap:butt;stroke-linejoin:miter;stroke-opacity:1" d="M 333.749,311.031 326.865,311.031 z" id="boundary" inkscape:connector-curvature="0" />
	<path style="fill:none;stroke:red;stroke-width:1px;stroke-linecap:butt;stroke-linejoin:miter;stroke-opacity:1" d="M 326.865,311.031 319.981,311.031 z" id="boundary" inkscape:connector-curvature="0" />
	<path style="fill:none;stroke:red;stroke-width:1px;stroke-linecap:butt;stroke-linejoin:miter;stroke-opacity:1" d="M 319.981,311.031 313.096,311.031 z" id="boundary" inkscape:connector-curvature="0" />
	<path style="fill:none;stroke:red;stroke-width:1px;stroke-linecap:butt;stroke-linejoin:miter;stroke-opacity:1" d="M 313.096,311.031 306.212,311.031 z" id="boundary" inkscape:connector-curvature="0" />
	<path style="fill:none;stroke:red;stroke-width:1px;stroke-linecap:butt;stroke-linejoin:miter;stroke-opacity:1" d="M 306.212,311.031 299.328,311.031 z" id="boundary" inkscape:connector-curvature="0" />
	<path style="fill:none;stroke:red;stroke-width:1px;stroke-linecap:butt;stroke-linejoin:miter;stroke-opacity:1" d="M 299.328,311.031 292.444,311.031 z" id="boundary" inkscape:connector-curvature="0" />
	<path style="fill:none;stroke:red;stroke-width:1px;stroke-linecap:butt;stroke-linejoin:miter;stroke-opacity:1" d="M 292.444,311.031 285.56,311.031 z" id="boundary" inkscape:connector-curvature="0" />
	<path style="fill:none;stroke:red;stroke-width:1px;stroke-linecap:butt;stroke-linejoin:miter;stroke-opacity:1" d="M 285.56,311.031 278.676,311.031 z" id="boundary" inkscape:connector-curvature="0" />
	<path style="fill:none;stroke:red;stroke-width:1px;stroke-linecap:butt;stroke-linejoin:miter;stroke-opacity:1" d="M 278.676,311.031 272.48,307.589 z" id="boundary" inkscape:connector-curvature="0" />
	<path style="fill:none;stroke:red;stroke-width:1px;stroke-linecap:butt;stroke-linejoin:miter;stroke-opacity:1" d="M 272.48,307.589 265.596,307.589 z" id="boundary" inkscape:connector-curvature="0" />
	<path style="fill:none;stroke:red;stroke-width:1px;stroke-linecap:butt;stroke-linejoin:miter;stroke-opacity:1" d="M 265.596,307.589 258.712,307.589 z" id="boundary" inkscape:connector-curvature="0" />
	<path style="fill:none;stroke:red;stroke-width:1px;stroke-linecap:butt;stroke-linejoin:miter;stroke-opacity:1" d="M 258.712,307.589 251.828,307.589 z" id="boundary" inkscape:connector-curvature="0" />
	<path style="fill:none;stroke:red;stroke-width:1px;stroke-linecap:butt;stroke-linejoin:miter;stroke-opacity:1" d="M 251.828,307.589 244.944,307.589 z" id="boundary" inkscape:connector-curvature="0" />
	<path style="fill:none;stroke:red;stroke-width:1px;stroke-linecap:butt;stroke-linejoin:miter;stroke-opacity:1" d="M 244.944,307.589 238.06,307.589 z" id="boundary" inkscape:connector-curvature="0" />
	<path style="fill:none;stroke:red;stroke-width:1px;stroke-linecap:butt;stroke-linejoin:miter;stroke-opacity:1" d="M 238.06,307.589 231.864,304.147 z" id="boundary" inkscape:connector-curvature="0" />
	<path style="fill:none;stroke:red;stroke-width:1px;stroke-linecap:butt;stroke-linejoin:miter;stroke-opacity:1" d="M 231.864,304.147 224.98,304.147 z" id="boundary" inkscape:connector-curvature="0" />
	<path style="fill:none;stroke:red;stroke-width:1px;stroke-linecap:butt;stroke-linejoin:miter;stroke-opacity:1" d="M 224.98,304.147 218.096,302.082 z" id="boundary" inkscape:connector-curvature="0" />
	<path style="fill:none;stroke:red;stroke-width:1px;stroke-linecap:butt;stroke-linejoin:miter;stroke-opacity:1" d="M 218.096,302.082 211.212,300.705 z" id="boundary" inkscape:connector-curvature="0" />
	<path style="fill:none;stroke:red;stroke-width:1px;stroke-linecap:butt;stroke-linejoin:miter;stroke-opacity:1" d="M 211.212,300.705 205.016,297.263 z" id="boundary" inkscape:connector-curvature="0" />
	<path style="fill:none;stroke:red;stroke-width:1px;stroke-linecap:butt;stroke-linejoin:miter;stroke-opacity:1" d="M 205.016,297.263 198.132,295.886 z" id="boundary" inkscape:connector-curvature="0" />
	<path style="fill:none;stroke:red;stroke-width:1px;stroke-linecap:butt;stroke-linejoin:miter;stroke-opacity:1" d="M 198.132,295.886 191.248,293.821 z" id="boundary" inkscape:connector-curvature="0" />
	<path style="fill:none;stroke:red;stroke-width:1px;stroke-linecap:butt;stroke-linejoin:miter;stroke-opacity:1" d="M 191.248,293.821 185.052,290.379 z" id="boundary" inkscape:connector-curvature="0" />
	<path style="fill:none;stroke:red;stroke-width:1px;stroke-linecap:butt;stroke-linejoin:miter;stroke-opacity:1" d="M 185.052,290.379 178.168,293.133 z" id="boundary" inkscape:connector-curvature="0" />
	<path style="fill:none;stroke:red;stroke-width:1px;stroke-linecap:butt;stroke-linejoin:miter;stroke-opacity:1" d="M 178.168,293.133 171.284,296.575 z" id="boundary" inkscape:connector-curvature="0" />
	<path style="fill:none;stroke:red;stroke-width:1px;stroke-linecap:butt;stroke-linejoin:miter;stroke-opacity:1" d="M 171.284,296.575 167.842,303.459 z" id="boundary" inkscape:connector-curvature="0" />
	<path style="fill:none;stroke:red;stroke-width:1px;stroke-linecap:butt;stroke-linejoin:miter;stroke-opacity:1" d="M 167.842,303.459 164.4,310.343 z" id="boundary" inkscape:connector-curvature="0" />
	<path style="fill:none;stroke:red;stroke-width:1px;stroke-linecap:butt;stroke-linejoin:miter;stroke-opacity:1" d="M 164.4,310.343 160.958,317.227 z" id="boundary" inkscape:connector-curvature="0" />
	<path style="fill:none;stroke:red;stroke-width:1px;stroke-linecap:butt;stroke-linejoin:miter;stroke-opacity:1" d="M 160.958,317.227 154.762,321.357 z" id="boundary" inkscape:connector-curvature="0" />
	<path style="fill:none;stroke:red;stroke-width:1px;stroke-linecap:butt;stroke-linejoin:miter;stroke-opacity:1" d="M 154.762,321.357 148.566,324.799 z" id="boundary" inkscape:connector-curvature="0" />
	<path style="fill:none;stroke:red;stroke-width:1px;stroke-linecap:butt;stroke-linejoin:miter;stroke-opacity:1" d="M 148.566,324.799 142.371,328.241 z" id="boundary" inkscape:connector-curvature="0" />
	<path style="fill:none;stroke:red;stroke-width:1px;stroke-linecap:butt;stroke-linejoin:miter;stroke-opacity:1" d="M 142.371,328.241 135.486,328.241 z" id="boundary" inkscape:connector-curvature="0" />
	<path style="fill:none;stroke:red;stroke-width:1px;stroke-linecap:butt;stroke-linejoin:miter;stroke-opacity:1" d="M 135.486,328.241 128.602,331.684 z" id="boundary" inkscape:connector-curvature="0" />
	<path style="fill:none;stroke:red;stroke-width:1px;stroke-linecap:butt;stroke-linejoin:miter;stroke-opacity:1" d="M 128.602,331.684 121.718,331.684 z" id="boundary" inkscape:connector-curvature="0" />
	<path style="fill:none;stroke:red;stroke-width:1px;stroke-linecap:butt;stroke-linejoin:miter;stroke-opacity:1" d="M 121.718,331.684 114.834,331.684 z" id="boundary" inkscape:connector-curvature="0" />
	<path style="fill:none;stroke:red;stroke-width:1px;stroke-linecap:butt;stroke-linejoin:miter;stroke-opacity:1" d="M 114.834,331.684 107.95,331.684 z" id="boundary" inkscape:connector-curvature="0" />
	<path style="fill:none;stroke:red;stroke-width:1px;stroke-linecap:butt;stroke-linejoin:miter;stroke-opacity:1" d="M 107.95,331.684 101.066,335.126 z" id="boundary" inkscape:connector-curvature="0" />
	<path style="fill:none;stroke:red;stroke-width:1px;stroke-linecap:butt;stroke-linejoin:miter;stroke-opacity:1" d="M 101.066,335.126 94.1818,335.126 z" id="boundary" inkscape:connector-curvature="0" />
	<path style="fill:none;stroke:red;stroke-width:1px;stroke-linecap:butt;stroke-linejoin:miter;stroke-opacity:1" d="M 94.1818,335.126 87.2977,335.126 z" id="boundary" inkscape:connector-curvature="0" />
	<path style="fill:none;stroke:red;stroke-width:1px;stroke-linecap:butt;stroke-linejoin:miter;stroke-opacity:1" d="M 87.2977,335.126 80.4136,335.126 z" id="boundary" inkscape:connector-curvature="0" />
	<path style="fill:none;stroke:red;stroke-width:1px;stroke-linecap:butt;stroke-linejoin:miter;stroke-opacity:1" d="M 80.4136,335.126 73.5295,335.126 z" id="boundary" inkscape:connector-curvature="0" />
	<path style="fill:none;stroke:red;stroke-width:1px;stroke-linecap:butt;stroke-linejoin:miter;stroke-opacity:1" d="M 73.5295,335.126 67.3338,331.684 z" id="boundary" inkscape:connector-curvature="0" />
	<path style="fill:none;stroke:red;stroke-width:1px;stroke-linecap:butt;stroke-linejoin:miter;stroke-opacity:1" d="M 67.3338,331.684 61.1381,328.241 z" id="boundary" inkscape:connector-curvature="0" />
	<path style="fill:none;stroke:red;stroke-width:1px;stroke-linecap:butt;stroke-linejoin:miter;stroke-opacity:1" d="M 61.1381,328.241 54.9424,324.799 z" id="boundary" inkscape:connector-curvature="0" />
	<path style="fill:none;stroke:red;stroke-width:1px;stroke-linecap:butt;stroke-linejoin:miter;stroke-opacity:1" d="M 54.9424,324.799 48.7467,321.357 z" id="boundary" inkscape:connector-curvature="0" />
	<path style="fill:none;stroke:red;stroke-width:1px;stroke-linecap:butt;stroke-linejoin:miter;stroke-opacity:1" d="M 48.7467,321.357 43.2394,317.227 z" id="boundary" inkscape:connector-curvature="0" />
	<path style="fill:none;stroke:red;stroke-width:1px;stroke-linecap:butt;stroke-linejoin:miter;stroke-opacity:1" d="M 43.2394,317.227 37.0437,313.785 z" id="boundary" inkscape:connector-curvature="0" />
	<path style="fill:none;stroke:red;stroke-width:1px;stroke-linecap:butt;stroke-linejoin:miter;stroke-opacity:1" d="M 37.0437,313.785 31.5364,308.966 z" id="boundary" inkscape:connector-curvature="0" />
	<path style="fill:none;stroke:red;stroke-width:1px;stroke-linecap:butt;stroke-linejoin:miter;stroke-opacity:1" d="M 31.5364,308.966 26.7176,303.459 z" id="boundary" inkscape:connector-curvature="0" />
	<path style="fill:none;stroke:red;stroke-width:1px;stroke-linecap:butt;stroke-linejoin:miter;stroke-opacity:1" d="M 26.7176,303.459 23.2755,297.263 z" id="boundary" inkscape:connector-curvature="0" />
	<path style="fill:none;stroke:red;stroke-width:1px;stroke-linecap:butt;stroke-linejoin:miter;stroke-opacity:1" d="M 23.2755,297.263 21.2103,290.379 z" id="boundary" inkscape:connector-curvature="0" />
	<path style="fill:none;stroke:red;stroke-width:1px;stroke-linecap:butt;stroke-linejoin:miter;stroke-opacity:1" d="M 21.2103,290.379 19.8334,283.495 z" id="boundary" inkscape:connector-curvature="0" />
	<path style="fill:none;stroke:red;stroke-width:1px;stroke-linecap:butt;stroke-linejoin:miter;stroke-opacity:1" d="M 19.8334,283.495 17.7682,276.611 z" id="boundary" inkscape:connector-curvature="0" />
	<path style="fill:none;stroke:red;stroke-width:1px;stroke-linecap:butt;stroke-linejoin:miter;stroke-opacity:1" d="M 17.7682,276.611 16.3914,269.727 z" id="boundary" inkscape:connector-curvature="0" />
	<path style="fill:none;stroke:red;stroke-width:1px;stroke-linecap:butt;stroke-linejoin:miter;stroke-opacity:1" d="M 16.3914,269.727 14.3262,262.842 z" id="boundary" inkscape:connector-curvature="0" />
	<path style="fill:none;stroke:red;stroke-width:1px;stroke-linecap:butt;stroke-linejoin:miter;stroke-opacity:1" d="M 14.3262,262.842 12.9493,255.958 z" id="boundary" inkscape:connector-curvature="0" />
	<path style="fill:none;stroke:red;stroke-width:1px;stroke-linecap:butt;stroke-linejoin:miter;stroke-opacity:1" d="M 12.9493,255.958 10.8841,249.074 z" id="boundary" inkscape:connector-curvature="0" />
	<path style="fill:none;stroke:red;stroke-width:1px;stroke-linecap:butt;stroke-linejoin:miter;stroke-opacity:1" d="M 10.8841,249.074 10.8841,242.19 z" id="boundary" inkscape:connector-curvature="0" />
	<path style="fill:none;stroke:red;stroke-width:1px;stroke-linecap:butt;stroke-linejoin:miter;stroke-opacity:1" d="M 10.8841,242.19 7.44205,235.994 z" id="boundary" inkscape:connector-curvature="0" />
	<path style="fill:none;stroke:red;stroke-width:1px;stroke-linecap:butt;stroke-linejoin:miter;stroke-opacity:1" d="M 7.44205,235.994 7.44205,229.11 z" id="boundary" inkscape:connector-curvature="0" />
	<path style="fill:none;stroke:red;stroke-width:1px;stroke-linecap:butt;stroke-linejoin:miter;stroke-opacity:1" d="M 7.44205,229.11 7.44205,222.226 z" id="boundary" inkscape:connector-curvature="0" />
	<path style="fill:none;stroke:red;stroke-width:1px;stroke-linecap:butt;stroke-linejoin:miter;stroke-opacity:1" d="M 7.44205,222.226 4,216.031 z" id="boundary" inkscape:connector-curvature="0" />
	<path style="fill:none;stroke:red;stroke-width:1px;stroke-linecap:butt;stroke-linejoin:miter;stroke-opacity:1" d="M 4,216.031 4,209.146 z" id="boundary" inkscape:connector-curvature="0" />
	<path style="fill:none;stroke:red;stroke-width:1px;stroke-linecap:butt;stroke-linejoin:miter;stroke-opacity:1" d="M 4,209.146 4,202.262 z" id="boundary" inkscape:connector-curvature="0" />
	<path style="fill:none;stroke:red;stroke-width:1px;stroke-linecap:butt;stroke-linejoin:miter;stroke-opacity:1" d="M 4,202.262 4,195.378 z" id="boundary" inkscape:connector-curvature="0" />
	<path style="fill:none;stroke:red;stroke-width:1px;stroke-linecap:butt;stroke-linejoin:miter;stroke-opacity:1" d="M 4,195.378 4,188.494 z" id="boundary" inkscape:connector-curvature="0" />
	<path style="fill:none;stroke:red;stroke-width:1px;stroke-linecap:butt;stroke-linejoin:miter;stroke-opacity:1" d="M 4,188.494 4,181.61 z" id="boundary" inkscape:connector-curvature="0" />
	<path style="fill:none;stroke:red;stroke-width:1px;stroke-linecap:butt;stroke-linejoin:miter;stroke-opacity:1" d="M 4,181.61 4,174.726 z" id="boundary" inkscape:connector-curvature="0" />
	<path style="fill:none;stroke:red;stroke-width:1px;stroke-linecap:butt;stroke-linejoin:miter;stroke-opacity:1" d="M 4,174.726 7.44205,164.4 z" id="boundary" inkscape:connector-curvature="0" />
	<path style="fill:none;stroke:red;stroke-width:1px;stroke-linecap:butt;stroke-linejoin:miter;stroke-opacity:1" d="M 7.44205,164.4 10.8841,157.516 z" id="boundary" inkscape:connector-curvature="0" />
	<path style="fill:none;stroke:red;stroke-width:1px;stroke-linecap:butt;stroke-linejoin:miter;stroke-opacity:1" d="M 10.8841,157.516 16.3914,152.008 z" id="boundary" inkscape:connector-curvature="0" />
	<path style="fill:none;stroke:red;stroke-width:1px;stroke-linecap:butt;stroke-linejoin:miter;stroke-opacity:1" d="M 16.3914,152.008 21.8987,146.501 z" id="boundary" inkscape:connector-curvature="0" />
	<path style="fill:none;stroke:red;stroke-width:1px;stroke-linecap:butt;stroke-linejoin:miter;stroke-opacity:1" d="M 21.8987,146.501 27.406,141.682 z" id="boundary" inkscape:connector-curvature="0" />
	<path style="fill:none;stroke:red;stroke-width:1px;stroke-linecap:butt;stroke-linejoin:miter;stroke-opacity:1" d="M 27.406,141.682 32.2248,136.175 z" id="boundary" inkscape:connector-curvature="0" />
	<path style="fill:none;stroke:red;stroke-width:1px;stroke-linecap:butt;stroke-linejoin:miter;stroke-opacity:1" d="M 32.2248,136.175 37.7321,131.356 z" id="boundary" inkscape:connector-curvature="0" />
	<path style="fill:none;stroke:red;stroke-width:1px;stroke-linecap:butt;stroke-linejoin:miter;stroke-opacity:1" d="M 37.7321,131.356 42.551,125.849 z" id="boundary" inkscape:connector-curvature="0" />
	<path style="fill:none;stroke:red;stroke-width:1px;stroke-linecap:butt;stroke-linejoin:miter;stroke-opacity:1" d="M 42.551,125.849 48.0583,121.03 z" id="boundary" inkscape:connector-curvature="0" />
	<path style="fill:none;stroke:red;stroke-width:1px;stroke-linecap:butt;stroke-linejoin:miter;stroke-opacity:1" d="M 48.0583,121.03 54.254,117.588 z" id="boundary" inkscape:connector-curvature="0" />
	<path style="fill:none;stroke:red;stroke-width:1px;stroke-linecap:butt;stroke-linejoin:miter;stroke-opacity:1" d="M 54.254,117.588 61.1381,114.146 z" id="boundary" inkscape:connector-curvature="0" />
	<path style="fill:none;stroke:red;stroke-width:1px;stroke-linecap:butt;stroke-linejoin:miter;stroke-opacity:1" d="M 61.1381,114.146 68.0222,110.704 z" id="boundary" inkscape:connector-curvature="0" />
	<path style="fill:none;stroke:red;stroke-width:1px;stroke-linecap:butt;stroke-linejoin:miter;stroke-opacity:1" d="M 68.0222,110.704 74.9063,110.704 z" id="boundary" inkscape:connector-curvature="0" />
	<path style="fill:none;stroke:red;stroke-width:1px;stroke-linecap:butt;stroke-linejoin:miter;stroke-opacity:1" d="M 74.9063,110.704 81.102,107.262 z" id="boundary" inkscape:connector-curvature="0" />
	<path style="fill:none;stroke:red;stroke-width:1px;stroke-linecap:butt;stroke-linejoin:miter;stroke-opacity:1" d="M 81.102,107.262 87.2977,103.82 z" id="boundary" inkscape:connector-curvature="0" />
	<path style="fill:none;stroke:red;stroke-width:1px;stroke-linecap:butt;stroke-linejoin:miter;stroke-opacity:1" d="M 87.2977,103.82 93.4934,100.378 z" id="boundary" inkscape:connector-curvature="0" />
	<path style="fill:none;stroke:red;stroke-width:1px;stroke-linecap:butt;stroke-linejoin:miter;stroke-opacity:1" d="M 93.4934,100.378 99.6891,96.9355 z" id="boundary" inkscape:connector-curvature="0" />
	<path style="fill:none;stroke:red;stroke-width:1px;stroke-linecap:butt;stroke-linejoin:miter;stroke-opacity:1" d="M 99.6891,96.9355 105.885,93.4934 z" id="boundary" inkscape:connector-curvature="0" />
	<path style="fill:none;stroke:red;stroke-width:1px;stroke-linecap:butt;stroke-linejoin:miter;stroke-opacity:1" d="M 105.885,93.4934 112.769,90.0514 z" id="boundary" inkscape:connector-curvature="0" />
	<path style="fill:none;stroke:red;stroke-width:1px;stroke-linecap:butt;stroke-linejoin:miter;stroke-opacity:1" d="M 112.769,90.0514 119.653,86.6093 z" id="boundary" inkscape:connector-curvature="0" />
	<path style="fill:none;stroke:red;stroke-width:1px;stroke-linecap:butt;stroke-linejoin:miter;stroke-opacity:1" d="M 119.653,86.6093 126.537,83.1672 z" id="boundary" inkscape:connector-curvature="0" />
	<path style="fill:none;stroke:red;stroke-width:1px;stroke-linecap:butt;stroke-linejoin:miter;stroke-opacity:1" d="M 126.537,83.1672 133.421,79.7252 z" id="boundary" inkscape:connector-curvature="0" />
	<path style="fill:none;stroke:red;stroke-width:1px;stroke-linecap:butt;stroke-linejoin:miter;stroke-opacity:1" d="M 133.421,79.7252 140.305,76.2831 z" id="boundary" inkscape:connector-curvature="0" />
	<path style="fill:none;stroke:red;stroke-width:1px;stroke-linecap:butt;stroke-linejoin:miter;stroke-opacity:1" d="M 140.305,76.2831 147.189,72.8411 z" id="boundary" inkscape:connector-curvature="0" />
	<path style="fill:none;stroke:red;stroke-width:1px;stroke-linecap:butt;stroke-linejoin:miter;stroke-opacity:1" d="M 147.189,72.8411 154.074,69.399 z" id="boundary" inkscape:connector-curvature="0" />
	<path style="fill:none;stroke:red;stroke-width:1px;stroke-linecap:butt;stroke-linejoin:miter;stroke-opacity:1" d="M 154.074,69.399 160.958,65.957 z" id="boundary" inkscape:connector-curvature="0" />
	<path style="fill:none;stroke:red;stroke-width:1px;stroke-linecap:butt;stroke-linejoin:miter;stroke-opacity:1" d="M 160.958,65.957 167.842,62.5149 z" id="boundary" inkscape:connector-curvature="0" />
	<path style="fill:none;stroke:red;stroke-width:1px;stroke-linecap:butt;stroke-linejoin:miter;stroke-opacity:1" d="M 167.842,62.5149 174.726,59.0729 z" id="boundary" inkscape:connector-curvature="0" />
	<path style="fill:none;stroke:red;stroke-width:1px;stroke-linecap:butt;stroke-linejoin:miter;stroke-opacity:1" d="M 174.726,59.0729 181.61,55.6308 z" id="boundary" inkscape:connector-curvature="0" />
	<path style="fill:none;stroke:red;stroke-width:1px;stroke-linecap:butt;stroke-linejoin:miter;stroke-opacity:1" d="M 181.61,55.6308 188.494,55.6308 z" id="boundary" inkscape:connector-curvature="0" />
	<path style="fill:none;stroke:red;stroke-width:1px;stroke-linecap:butt;stroke-linejoin:miter;stroke-opacity:1" d="M 188.494,55.6308 194.69,52.1888 z" id="boundary" inkscape:connector-curvature="0" />
	<path style="fill:none;stroke:red;stroke-width:1px;stroke-linecap:butt;stroke-linejoin:miter;stroke-opacity:1" d="M 194.69,52.1888 201.574,49.4351 z" id="boundary" inkscape:connector-curvature="0" />
	<path style="fill:none;stroke:red;stroke-width:1px;stroke-linecap:butt;stroke-linejoin:miter;stroke-opacity:1" d="M 201.574,49.4351 208.458,48.7467 z" id="boundary" inkscape:connector-curvature="0" />
	<path style="fill:none;stroke:red;stroke-width:1px;stroke-linecap:butt;stroke-linejoin:miter;stroke-opacity:1" d="M 208.458,48.7467 214.654,45.3046 z" id="boundary" inkscape:connector-curvature="0" />
	<path style="fill:none;stroke:red;stroke-width:1px;stroke-linecap:butt;stroke-linejoin:miter;stroke-opacity:1" d="M 214.654,45.3046 221.538,43.2394 z" id="boundary" inkscape:connector-curvature="0" />
	<path style="fill:none;stroke:red;stroke-width:1px;stroke-linecap:butt;stroke-linejoin:miter;stroke-opacity:1" d="M 221.538,43.2394 228.422,41.8626 z" id="boundary" inkscape:connector-curvature="0" />
	<path style="fill:none;stroke:red;stroke-width:1px;stroke-linecap:butt;stroke-linejoin:miter;stroke-opacity:1" d="M 228.422,41.8626 234.618,38.4205 z" id="boundary" inkscape:connector-curvature="0" />
	<path style="fill:none;stroke:red;stroke-width:1px;stroke-linecap:butt;stroke-linejoin:miter;stroke-opacity:1" d="M 234.618,38.4205 241.502,37.0437 z" id="boundary" inkscape:connector-curvature="0" />
	<path style="fill:none;stroke:red;stroke-width:1px;stroke-linecap:butt;stroke-linejoin:miter;stroke-opacity:1" d="M 241.502,37.0437 248.386,34.9785 z" id="boundary" inkscape:connector-curvature="0" />
	<path style="fill:none;stroke:red;stroke-width:1px;stroke-linecap:butt;stroke-linejoin:miter;stroke-opacity:1" d="M 248.386,34.9785 254.582,31.5364 z" id="boundary" inkscape:connector-curvature="0" />
	<path style="fill:none;stroke:red;stroke-width:1px;stroke-linecap:butt;stroke-linejoin:miter;stroke-opacity:1" d="M 254.582,31.5364 261.466,31.5364 z" id="boundary" inkscape:connector-curvature="0" />
	<path style="fill:none;stroke:red;stroke-width:1px;stroke-linecap:butt;stroke-linejoin:miter;stroke-opacity:1" d="M 261.466,31.5364 267.661,28.0944 z" id="boundary" inkscape:connector-curvature="0" />
	<path style="fill:none;stroke:red;stroke-width:1px;stroke-linecap:butt;stroke-linejoin:miter;stroke-opacity:1" d="M 267.661,28.0944 274.545,28.0944 z" id="boundary" inkscape:connector-curvature="0" />
	<path style="fill:none;stroke:red;stroke-width:1px;stroke-linecap:butt;stroke-linejoin:miter;stroke-opacity:1" d="M 274.545,28.0944 280.741,24.6523 z" id="boundary" inkscape:connector-curvature="0" />
	<path style="fill:none;stroke:red;stroke-width:1px;stroke-linecap:butt;stroke-linejoin:miter;stroke-opacity:1" d="M 280.741,24.6523 287.625,21.8987 z" id="boundary" inkscape:connector-curvature="0" />
	<path style="fill:none;stroke:red;stroke-width:1px;stroke-linecap:butt;stroke-linejoin:miter;stroke-opacity:1" d="M 287.625,21.8987 294.509,21.2103 z" id="boundary" inkscape:connector-curvature="0" />
	<path style="fill:none;stroke:red;stroke-width:1px;stroke-linecap:butt;stroke-linejoin:miter;stroke-opacity:1" d="M 294.509,21.2103 300.705,17.7682 z" id="boundary" inkscape:connector-curvature="0" />
	<path style="fill:none;stroke:red;stroke-width:1px;stroke-linecap:butt;stroke-linejoin:miter;stroke-opacity:1" d="M 300.705,17.7682 307.589,17.7682 z" id="boundary" inkscape:connector-curvature="0" />
	<path style="fill:none;stroke:red;stroke-width:1px;stroke-linecap:butt;stroke-linejoin:miter;stroke-opacity:1" d="M 307.589,17.7682 314.473,17.7682 z" id="boundary" inkscape:connector-curvature="0" />
	<path style="fill:none;stroke:red;stroke-width:1px;stroke-linecap:butt;stroke-linejoin:miter;stroke-opacity:1" d="M 314.473,17.7682 321.357,17.7682 z" id="boundary" inkscape:connector-curvature="0" />
	<path style="fill:none;stroke:red;stroke-width:1px;stroke-linecap:butt;stroke-linejoin:miter;stroke-opacity:1" d="M 321.357,17.7682 328.241,17.7682 z" id="boundary" inkscape:connector-curvature="0" />
	<path style="fill:none;stroke:red;stroke-width:1px;stroke-linecap:butt;stroke-linejoin:miter;stroke-opacity:1" d="M 328.241,17.7682 335.126,17.7682 z" id="boundary" inkscape:connector-curvature="0" />
	<path style="fill:none;stroke:red;stroke-width:1px;stroke-linecap:butt;stroke-linejoin:miter;stroke-opacity:1" d="M 335.126,17.7682 342.01,17.7682 z" id="boundary" inkscape:connector-curvature="0" />
	<path style="fill:none;stroke:red;stroke-width:1px;stroke-linecap:butt;stroke-linejoin:miter;stroke-opacity:1" d="M 342.01,17.7682 348.205,14.3262 z" id="boundary" inkscape:connector-curvature="0" />
	<path style="fill:none;stroke:red;stroke-width:1px;stroke-linecap:butt;stroke-linejoin:miter;stroke-opacity:1" d="M 348.205,14.3262 355.09,14.3262 z" id="boundary" inkscape:connector-curvature="0" />
	<path style="fill:none;stroke:red;stroke-width:1px;stroke-linecap:butt;stroke-linejoin:miter;stroke-opacity:1" d="M 355.09,14.3262 361.974,14.3262 z" id="boundary" inkscape:connector-curvature="0" />
	<path style="fill:none;stroke:red;stroke-width:1px;stroke-linecap:butt;stroke-linejoin:miter;stroke-opacity:1" d="M 361.974,14.3262 368.858,14.3262 z" id="boundary" inkscape:connector-curvature="0" />
	<path style="fill:none;stroke:red;stroke-width:1px;stroke-linecap:butt;stroke-linejoin:miter;stroke-opacity:1" d="M 368.858,14.3262 375.742,12.9493 z" id="boundary" inkscape:connector-curvature="0" />
	<path style="fill:none;stroke:red;stroke-width:1px;stroke-linecap:butt;stroke-linejoin:miter;stroke-opacity:1" d="M 375.742,12.9493 382.626,10.8841 z" id="boundary" inkscape:connector-curvature="0" />
	<path style="fill:none;stroke:red;stroke-width:1px;stroke-linecap:butt;stroke-linejoin:miter;stroke-opacity:1" d="M 382.626,10.8841 389.51,10.8841 z" id="boundary" inkscape:connector-curvature="0" />
	<path style="fill:none;stroke:red;stroke-width:1px;stroke-linecap:butt;stroke-linejoin:miter;stroke-opacity:1" d="M 389.51,10.8841 396.394,10.8841 z" id="boundary" inkscape:connector-curvature="0" />
	<path style="fill:none;stroke:red;stroke-width:1px;stroke-linecap:butt;stroke-linejoin:miter;stroke-opacity:1" d="M 396.394,10.8841 403.278,10.8841 z" id="boundary" inkscape:connector-curvature="0" />
	<path style="fill:none;stroke:red;stroke-width:1px;stroke-linecap:butt;stroke-linejoin:miter;stroke-opacity:1" d="M 403.278,10.8841 409.474,7.44205 z" id="boundary" inkscape:connector-curvature="0" />
	<path style="fill:none;stroke:red;stroke-width:1px;stroke-linecap:butt;stroke-linejoin:miter;stroke-opacity:1" d="M 409.474,7.44205 416.358,7.44205 z" id="boundary" inkscape:connector-curvature="0" />
	<path style="fill:none;stroke:red;stroke-width:1px;stroke-linecap:butt;stroke-linejoin:miter;stroke-opacity:1" d="M 416.358,7.44205 423.242,7.44205 z" id="boundary" inkscape:connector-curvature="0" />
	<path style="fill:none;stroke:red;stroke-width:1px;stroke-linecap:butt;stroke-linejoin:miter;stroke-opacity:1" d="M 423.242,7.44205 430.126,7.44205 z" id="boundary" inkscape:connector-curvature="0" />
	<path style="fill:none;stroke:red;stroke-width:1px;stroke-linecap:butt;stroke-linejoin:miter;stroke-opacity:1" d="M 430.126,7.44205 437.01,7.44205 z" id="boundary" inkscape:connector-curvature="0" />
	<path style="fill:none;stroke:red;stroke-width:1px;stroke-linecap:butt;stroke-linejoin:miter;stroke-opacity:1" d="M 437.01,7.44205 443.206,4 z" id="boundary" inkscape:connector-curvature="0" />
	<path style="fill:none;stroke:red;stroke-width:1px;stroke-linecap:butt;stroke-linejoin:miter;stroke-opacity:1" d="M 443.206,4 450.09,4 z" id="boundary" inkscape:connector-curvature="0" />
	<path style="fill:none;stroke:red;stroke-width:1px;stroke-linecap:butt;stroke-linejoin:miter;stroke-opacity:1" d="M 450.09,4 456.974,4 z" id="boundary" inkscape:connector-curvature="0" />
	<path style="fill:none;stroke:red;stroke-width:1px;stroke-linecap:butt;stroke-linejoin:miter;stroke-opacity:1" d="M 456.974,4 463.17,7.44205 z" id="boundary" inkscape:connector-curvature="0" />
	<path style="fill:none;stroke:red;stroke-width:1px;stroke-linecap:butt;stroke-linejoin:miter;stroke-opacity:1" d="M 463.17,7.44205 470.054,7.44205 z" id="boundary" inkscape:connector-curvature="0" />
	<path style="fill:none;stroke:red;stroke-width:1px;stroke-linecap:butt;stroke-linejoin:miter;stroke-opacity:1" d="M 470.054,7.44205 476.25,10.8841 z" id="boundary" inkscape:connector-curvature="0" />
	<path style="fill:none;stroke:red;stroke-width:1px;stroke-linecap:butt;stroke-linejoin:miter;stroke-opacity:1" d="M 476.25,10.8841 482.446,14.3262 z" id="boundary" inkscape:connector-curvature="0" />
	<path style="fill:none;stroke:red;stroke-width:1px;stroke-linecap:butt;stroke-linejoin:miter;stroke-opacity:1" d="M 482.446,14.3262 488.641,17.7682 z" id="boundary" inkscape:connector-curvature="0" />
	<path style="fill:none;stroke:red;stroke-width:1px;stroke-linecap:butt;stroke-linejoin:miter;stroke-opacity:1" d="M 488.641,17.7682 495.525,18.4566 z" id="boundary" inkscape:connector-curvature="0" />
	<path style="fill:none;stroke:red;stroke-width:1px;stroke-linecap:butt;stroke-linejoin:miter;stroke-opacity:1" d="M 495.525,18.4566 502.409,21.2103 z" id="boundary" inkscape:connector-curvature="0" />
	<path style="fill:none;stroke:red;stroke-width:1px;stroke-linecap:butt;stroke-linejoin:miter;stroke-opacity:1" d="M 502.409,21.2103 508.605,24.6523 z" id="boundary" inkscape:connector-curvature="0" />
	<path style="fill:none;stroke:red;stroke-width:1px;stroke-linecap:butt;stroke-linejoin:miter;stroke-opacity:1" d="M 508.605,24.6523 515.489,24.6523 z" id="boundary" inkscape:connector-curvature="0" />
	<path style="fill:none;stroke:red;stroke-width:1px;stroke-linecap:butt;stroke-linejoin:miter;stroke-opacity:1" d="M 515.489,24.6523 522.373,24.6523 z" id="boundary" inkscape:connector-curvature="0" />
	<path style="fill:none;stroke:red;stroke-width:1px;stroke-linecap:butt;stroke-linejoin:miter;stroke-opacity:1" d="M 522.373,24.6523 528.569,28.0944 z" id="boundary" inkscape:connector-curvature="0" />
	<path style="fill:none;stroke:red;stroke-width:1px;stroke-linecap:butt;stroke-linejoin:miter;stroke-opacity:1" d="M 528.569,28.0944 535.453,28.0944 z" id="boundary" inkscape:connector-curvature="0" />
	<path style="fill:none;stroke:red;stroke-width:1px;stroke-linecap:butt;stroke-linejoin:miter;stroke-opacity:1" d="M 535.453,28.0944 541.649,31.5364 z" id="boundary" inkscape:connector-curvature="0" />
	<path style="fill:none;stroke:red;stroke-width:1px;stroke-linecap:butt;stroke-linejoin:miter;stroke-opacity:1" d="M 541.649,31.5364 548.533,31.5364 z" id="boundary" inkscape:connector-curvature="0" />
	<path style="fill:none;stroke:red;stroke-width:1px;stroke-linecap:butt;stroke-linejoin:miter;stroke-opacity:1" d="M 548.533,31.5364 554.729,34.9785 z" id="boundary" inkscape:connector-curvature="0" />
	<path style="fill:none;stroke:red;stroke-width:1px;stroke-linecap:butt;stroke-linejoin:miter;stroke-opacity:1" d="M 554.729,34.9785 561.613,34.9785 z" id="boundary" inkscape:connector-curvature="0" />
	<path style="fill:none;stroke:red;stroke-width:1px;stroke-linecap:butt;stroke-linejoin:miter;stroke-opacity:1" d="M 561.613,34.9785 568.497,36.3553 z" id="boundary" inkscape:connector-curvature="0" />
	<path style="fill:none;stroke:red;stroke-width:1px;stroke-linecap:butt;stroke-linejoin:miter;stroke-opacity:1" d="M 568.497,36.3553 575.381,38.4205 z" id="boundary" inkscape:connector-curvature="0" />
	<path style="fill:none;stroke:red;stroke-width:1px;stroke-linecap:butt;stroke-linejoin:miter;stroke-opacity:1" d="M 575.381,38.4205 582.265,38.4205 z" id="boundary" inkscape:connector-curvature="0" />
	<path style="fill:none;stroke:red;stroke-width:1px;stroke-linecap:butt;stroke-linejoin:miter;stroke-opacity:1" d="M 582.265,38.4205 588.461,41.8626 z" id="boundary" inkscape:connector-curvature="0" />
	<path style="fill:none;stroke:red;stroke-width:1px;stroke-linecap:butt;stroke-linejoin:miter;stroke-opacity:1" d="M 588.461,41.8626 595.345,41.8626 z" id="boundary" inkscape:connector-curvature="0" />
	<path style="fill:none;stroke:red;stroke-width:1px;stroke-linecap:butt;stroke-linejoin:miter;stroke-opacity:1" d="M 595.345,41.8626 602.229,41.8626 z" id="boundary" inkscape:connector-curvature="0" />
	<path style="fill:none;stroke:red;stroke-width:1px;stroke-linecap:butt;stroke-linejoin:miter;stroke-opacity:1" d="M 602.229,41.8626 609.113,41.8626 z" id="boundary" inkscape:connector-curvature="0" />
	<path style="fill:none;stroke:red;stroke-width:1px;stroke-linecap:butt;stroke-linejoin:miter;stroke-opacity:1" d="M 609.113,41.8626 615.997,41.8626 z" id="boundary" inkscape:connector-curvature="0" />
	<path style="fill:none;stroke:red;stroke-width:1px;stroke-linecap:butt;stroke-linejoin:miter;stroke-opacity:1" d="M 615.997,41.8626 622.881,41.8626 z" id="boundary" inkscape:connector-curvature="0" />
	<path style="fill:none;stroke:red;stroke-width:1px;stroke-linecap:butt;stroke-linejoin:miter;stroke-opacity:1" d="M 622.881,41.8626 629.765,41.8626 z" id="boundary" inkscape:connector-curvature="0" />
	<path style="fill:none;stroke:red;stroke-width:1px;stroke-linecap:butt;stroke-linejoin:miter;stroke-opacity:1" d="M 629.765,41.8626 636.65,42.551 z" id="boundary" inkscape:connector-curvature="0" />
	<path style="fill:none;stroke:red;stroke-width:1px;stroke-linecap:butt;stroke-linejoin:miter;stroke-opacity:1" d="M 636.65,42.551 642.845,45.9931 z" id="boundary" inkscape:connector-curvature="0" />
	<path style="fill:none;stroke:red;stroke-width:1px;stroke-linecap:butt;stroke-linejoin:miter;stroke-opacity:1" d="M 642.845,45.9931 649.729,48.7467 z" id="boundary" inkscape:connector-curvature="0" />
	<path style="fill:none;stroke:red;stroke-width:1px;stroke-linecap:butt;stroke-linejoin:miter;stroke-opacity:1" d="M 649.729,48.7467 655.925,52.1888 z" id="boundary" inkscape:connector-curvature="0" />
	<path style="fill:none;stroke:red;stroke-width:1px;stroke-linecap:butt;stroke-linejoin:miter;stroke-opacity:1" d="M 655.925,52.1888 662.121,55.6308 z" id="boundary" inkscape:connector-curvature="0" />
	<path style="fill:none;stroke:red;stroke-width:1px;stroke-linecap:butt;stroke-linejoin:miter;stroke-opacity:1" d="M 662.121,55.6308 668.316,59.0729 z" id="boundary" inkscape:connector-curvature="0" />
	<path style="fill:none;stroke:red;stroke-width:1px;stroke-linecap:butt;stroke-linejoin:miter;stroke-opacity:1" d="M 668.316,59.0729 675.201,60.4497 z" id="boundary" inkscape:connector-curvature="0" />
	<path style="fill:none;stroke:red;stroke-width:1px;stroke-linecap:butt;stroke-linejoin:miter;stroke-opacity:1" d="M 675.201,60.4497 681.396,63.8917 z" id="boundary" inkscape:connector-curvature="0" />
	<path style="fill:none;stroke:red;stroke-width:1px;stroke-linecap:butt;stroke-linejoin:miter;stroke-opacity:1" d="M 681.396,63.8917 688.28,66.6454 z" id="boundary" inkscape:connector-curvature="0" />
	<path style="fill:none;stroke:red;stroke-width:1px;stroke-linecap:butt;stroke-linejoin:miter;stroke-opacity:1" d="M 688.28,66.6454 694.476,70.0874 z" id="boundary" inkscape:connector-curvature="0" />
	<path style="fill:none;stroke:red;stroke-width:1px;stroke-linecap:butt;stroke-linejoin:miter;stroke-opacity:1" d="M 694.476,70.0874 701.36,72.8411 z" id="boundary" inkscape:connector-curvature="0" />
	<path style="fill:none;stroke:red;stroke-width:1px;stroke-linecap:butt;stroke-linejoin:miter;stroke-opacity:1" d="M 701.36,72.8411 707.556,76.2831 z" id="boundary" inkscape:connector-curvature="0" />
	<path style="fill:none;stroke:red;stroke-width:1px;stroke-linecap:butt;stroke-linejoin:miter;stroke-opacity:1" d="M 707.556,76.2831 714.44,76.2831 z" id="boundary" inkscape:connector-curvature="0" />
	<path style="fill:none;stroke:red;stroke-width:1px;stroke-linecap:butt;stroke-linejoin:miter;stroke-opacity:1" d="M 714.44,76.2831 720.636,72.8411 z" id="boundary" inkscape:connector-curvature="0" />
	<path style="fill:none;stroke:red;stroke-width:1px;stroke-linecap:butt;stroke-linejoin:miter;stroke-opacity:1" d="M 720.636,72.8411 727.52,72.8411 z" id="boundary" inkscape:connector-curvature="0" />
	<path style="fill:none;stroke:red;stroke-width:1px;stroke-linecap:butt;stroke-linejoin:miter;stroke-opacity:1" d="M 727.52,72.8411 734.404,72.8411 z" id="boundary" inkscape:connector-curvature="0" />
	<path style="fill:none;stroke:red;stroke-width:1px;stroke-linecap:butt;stroke-linejoin:miter;stroke-opacity:1" d="M 734.404,72.8411 740.6,76.2831 z" id="boundary" inkscape:connector-curvature="0" />
	<path style="fill:none;stroke:red;stroke-width:1px;stroke-linecap:butt;stroke-linejoin:miter;stroke-opacity:1" d="M 740.6,76.2831 746.795,79.7252 z" id="boundary" inkscape:connector-curvature="0" />
	<path style="fill:none;stroke:red;stroke-width:1px;stroke-linecap:butt;stroke-linejoin:miter;stroke-opacity:1" d="M 746.795,79.7252 753.679,80.4136 z" id="boundary" inkscape:connector-curvature="0" />
	<path style="fill:none;stroke:red;stroke-width:1px;stroke-linecap:butt;stroke-linejoin:miter;stroke-opacity:1" d="M 753.679,80.4136 758.498,85.9209 z" id="boundary" inkscape:connector-curvature="0" />
	<path style="fill:none;stroke:red;stroke-width:1px;stroke-linecap:butt;stroke-linejoin:miter;stroke-opacity:1" d="M 758.498,85.9209 764.006,90.7398 z" id="boundary" inkscape:connector-curvature="0" />
	<path style="fill:none;stroke:red;stroke-width:1px;stroke-linecap:butt;stroke-linejoin:miter;stroke-opacity:1" d="M 764.006,90.7398 770.201,94.1818 z" id="boundary" inkscape:connector-curvature="0" />
	<path style="fill:none;stroke:red;stroke-width:1px;stroke-linecap:butt;stroke-linejoin:miter;stroke-opacity:1" d="M 770.201,94.1818 777.085,96.9355 z" id="boundary" inkscape:connector-curvature="0" />
	<path style="fill:none;stroke:red;stroke-width:1px;stroke-linecap:butt;stroke-linejoin:miter;stroke-opacity:1" d="M 777.085,96.9355 783.969,96.9355 z" id="boundary" inkscape:connector-curvature="0" />
	<path style="fill:none;stroke:red;stroke-width:1px;stroke-linecap:butt;stroke-linejoin:miter;stroke-opacity:1" d="M 783.969,96.9355 790.165,100.378 z" id="boundary" inkscape:connector-curvature="0" />
	<path style="fill:none;stroke:red;stroke-width:1px;stroke-linecap:butt;stroke-linejoin:miter;stroke-opacity:1" d="M 790.165,100.378 796.361,96.9355 z" id="boundary" inkscape:connector-curvature="0" />
	<path style="fill:none;stroke:red;stroke-width:1px;stroke-linecap:butt;stroke-linejoin:miter;stroke-opacity:1" d="M 796.361,96.9355 803.245,96.9355 z" id="boundary" inkscape:connector-curvature="0" />
	<path style="fill:none;stroke:red;stroke-width:1px;stroke-linecap:butt;stroke-linejoin:miter;stroke-opacity:1" d="M 803.245,96.9355 810.129,96.9355 z" id="boundary" inkscape:connector-curvature="0" />
	<path style="fill:none;stroke:red;stroke-width:1px;stroke-linecap:butt;stroke-linejoin:miter;stroke-opacity:1" d="M 810.129,96.9355 817.013,94.8702 z" id="boundary" inkscape:connector-curvature="0" />
	<path style="fill:none;stroke:red;stroke-width:1px;stroke-linecap:butt;stroke-linejoin:miter;stroke-opacity:1" d="M 817.013,94.8702 823.897,93.4934 z" id="boundary" inkscape:connector-curvature="0" />
	<path style="fill:none;stroke:red;stroke-width:1px;stroke-linecap:butt;stroke-linejoin:miter;stroke-opacity:1" d="M 823.897,93.4934 830.781,93.4934 z" id="boundary" inkscape:connector-curvature="0" />
	<path style="fill:none;stroke:red;stroke-width:1px;stroke-linecap:butt;stroke-linejoin:miter;stroke-opacity:1" d="M 830.781,93.4934 837.666,93.4934 z" id="boundary" inkscape:connector-curvature="0" />
	<path style="fill:none;stroke:red;stroke-width:1px;stroke-linecap:butt;stroke-linejoin:miter;stroke-opacity:1" d="M 837.666,93.4934 844.55,93.4934 z" id="boundary" inkscape:connector-curvature="0" />
	<path style="fill:none;stroke:red;stroke-width:1px;stroke-linecap:butt;stroke-linejoin:miter;stroke-opacity:1" d="M 844.55,93.4934 851.434,93.4934 z" id="boundary" inkscape:connector-curvature="0" />
	<path style="fill:none;stroke:red;stroke-width:1px;stroke-linecap:butt;stroke-linejoin:miter;stroke-opacity:1" d="M 851.434,93.4934 858.318,93.4934 z" id="boundary" inkscape:connector-curvature="0" />
	<path style="fill:none;stroke:red;stroke-width:1px;stroke-linecap:butt;stroke-linejoin:miter;stroke-opacity:1" d="M 858.318,93.4934 865.202,93.4934 z" id="boundary" inkscape:connector-curvature="0" />
	<path style="fill:none;stroke:red;stroke-width:1px;stroke-linecap:butt;stroke-linejoin:miter;stroke-opacity:1" d="M 865.202,93.4934 871.398,90.0514 z" id="boundary" inkscape:connector-curvature="0" />
	<path style="fill:none;stroke:red;stroke-width:1px;stroke-linecap:butt;stroke-linejoin:miter;stroke-opacity:1" d="M 871.398,90.0514 878.282,90.0514 z" id="boundary" inkscape:connector-curvature="0" />
	<path style="fill:none;stroke:red;stroke-width:1px;stroke-linecap:butt;stroke-linejoin:miter;stroke-opacity:1" d="M 878.282,90.0514 885.166,90.0514 z" id="boundary" inkscape:connector-curvature="0" />
	<path style="fill:none;stroke:red;stroke-width:1px;stroke-linecap:butt;stroke-linejoin:miter;stroke-opacity:1" d="M 885.166,90.0514 892.05,91.4282 z" id="boundary" inkscape:connector-curvature="0" />
	<path style="fill:none;stroke:red;stroke-width:1px;stroke-linecap:butt;stroke-linejoin:miter;stroke-opacity:1" d="M 892.05,91.4282 898.246,94.8702 z" id="boundary" inkscape:connector-curvature="0" />
	<path style="fill:none;stroke:red;stroke-width:1px;stroke-linecap:butt;stroke-linejoin:miter;stroke-opacity:1" d="M 898.246,94.8702 905.13,97.6239 z" id="boundary" inkscape:connector-curvature="0" />
	<path style="fill:none;stroke:red;stroke-width:1px;stroke-linecap:butt;stroke-linejoin:miter;stroke-opacity:1" d="M 905.13,97.6239 911.325,101.066 z" id="boundary" inkscape:connector-curvature="0" />
	<path style="fill:none;stroke:red;stroke-width:1px;stroke-linecap:butt;stroke-linejoin:miter;stroke-opacity:1" d="M 911.325,101.066 916.833,105.885 z" id="boundary" inkscape:connector-curvature="0" />
	<path style="fill:none;stroke:red;stroke-width:1px;stroke-linecap:butt;stroke-linejoin:miter;stroke-opacity:1" d="M 916.833,105.885 921.652,111.392 z" id="boundary" inkscape:connector-curvature="0" />
	<path style="fill:none;stroke:red;stroke-width:1px;stroke-linecap:butt;stroke-linejoin:miter;stroke-opacity:1" d="M 921.652,111.392 927.159,116.211 z" id="boundary" inkscape:connector-curvature="0" />
	<path style="fill:none;stroke:red;stroke-width:1px;stroke-linecap:butt;stroke-linejoin:miter;stroke-opacity:1" d="M 927.159,116.211 932.666,121.03 z" id="boundary" inkscape:connector-curvature="0" />
	<path style="fill:none;stroke:red;stroke-width:1px;stroke-linecap:butt;stroke-linejoin:miter;stroke-opacity:1" d="M 932.666,121.03 938.862,124.472 z" id="boundary" inkscape:connector-curvature="0" />
	<path style="fill:none;stroke:red;stroke-width:1px;stroke-linecap:butt;stroke-linejoin:miter;stroke-opacity:1" d="M 938.862,124.472 943.681,129.979 z" id="boundary" inkscape:connector-curvature="0" />
	<path style="fill:none;stroke:red;stroke-width:1px;stroke-linecap:butt;stroke-linejoin:miter;stroke-opacity:1" d="M 943.681,129.979 949.188,134.798 z" id="boundary" inkscape:connector-curvature="0" />
	<path style="fill:none;stroke:red;stroke-width:1px;stroke-linecap:butt;stroke-linejoin:miter;stroke-opacity:1" d="M 949.188,134.798 954.007,140.305 z" id="boundary" inkscape:connector-curvature="0" />
	<path style="fill:none;stroke:red;stroke-width:1px;stroke-linecap:butt;stroke-linejoin:miter;stroke-opacity:1" d="M 954.007,140.305 959.514,145.124 z" id="boundary" inkscape:connector-curvature="0" />
	<path style="fill:none;stroke:red;stroke-width:1px;stroke-linecap:butt;stroke-linejoin:miter;stroke-opacity:1" d="M 959.514,145.124 961.579,152.008 z" id="boundary" inkscape:connector-curvature="0" />
	<path style="fill:none;stroke:red;stroke-width:1px;stroke-linecap:butt;stroke-linejoin:miter;stroke-opacity:1" d="M 961.579,152.008 965.022,158.204 z" id="boundary" inkscape:connector-curvature="0" />
	<path style="fill:none;stroke:red;stroke-width:1px;stroke-linecap:butt;stroke-linejoin:miter;stroke-opacity:1" d="M 965.022,158.204 968.464,164.4 z" id="boundary" inkscape:connector-curvature="0" />
	<path style="fill:none;stroke:red;stroke-width:1px;stroke-linecap:butt;stroke-linejoin:miter;stroke-opacity:1" d="M 968.464,164.4 973.282,169.907 z" id="boundary" inkscape:connector-curvature="0" />
	<path style="fill:none;stroke:red;stroke-width:1px;stroke-linecap:butt;stroke-linejoin:miter;stroke-opacity:1" d="M 973.282,169.907 976.724,176.103 z" id="boundary" inkscape:connector-curvature="0" />
	<path style="fill:none;stroke:red;stroke-width:1px;stroke-linecap:butt;stroke-linejoin:miter;stroke-opacity:1" d="M 976.724,176.103 978.79,182.987 z" id="boundary" inkscape:connector-curvature="0" />
	<path style="fill:none;stroke:red;stroke-width:1px;stroke-linecap:butt;stroke-linejoin:miter;stroke-opacity:1" d="M 978.79,182.987 982.232,189.183 z" id="boundary" inkscape:connector-curvature="0" />
	<path style="fill:none;stroke:red;stroke-width:1px;stroke-linecap:butt;stroke-linejoin:miter;stroke-opacity:1" d="M 982.232,189.183 985.674,195.378 z" id="boundary" inkscape:connector-curvature="0" />
	<path style="fill:none;stroke:red;stroke-width:1px;stroke-linecap:butt;stroke-linejoin:miter;stroke-opacity:1" d="M 985.674,195.378 989.116,201.574 z" id="boundary" inkscape:connector-curvature="0" />
	<path style="fill:none;stroke:red;stroke-width:1px;stroke-linecap:butt;stroke-linejoin:miter;stroke-opacity:1" d="M 989.116,201.574 991.181,208.458 z" id="boundary" inkscape:connector-curvature="0" />
	<path style="fill:none;stroke:red;stroke-width:1px;stroke-linecap:butt;stroke-linejoin:miter;stroke-opacity:1" d="M 991.181,208.458 994.623,214.654 z" id="boundary" inkscape:connector-curvature="0" />
	<path style="fill:none;stroke:red;stroke-width:1px;stroke-linecap:butt;stroke-linejoin:miter;stroke-opacity:1" d="M 994.623,214.654 996,221.538 z" id="boundary" inkscape:connector-curvature="0" />
	<circle cx="4" cy="174.726" r="4" fill="#0" id="circle0"/>
	<circle cx="4" cy="181.61" r="4" fill="#0" id="circle1"/>
	<circle cx="4" cy="188.494" r="4" fill="#0" id="circle2"/>
	<circle cx="4" cy="195.378" r="4" fill="#0" id="circle3"/>
	<circle cx="4" cy="202.262" r="4" fill="#0" id="circle4"/>
	<circle cx="4" cy="209.146" r="4" fill="#0" id="circle5"/>
	<circle cx="4" cy="216.031" r="4" fill="#0" id="circle6"/>
	<circle cx="7.44205" cy="164.4" r="4" fill="#0" id="circle7"/>
	<circle cx="7.44205" cy="222.226" r="4" fill="#0" id="circle8"/>
	<circle cx="7.44205" cy="229.11" r="4" fill="#0" id="circle9"/>
	<circle cx="7.44205" cy="235.994" r="4" fill="#0" id="circle10"/>
	<circle cx="10.8841" cy="157.516" r="4" fill="#0" id="circle11"/>
	<circle cx="10.8841" cy="242.19" r="4" fill="#0" id="circle12"/>
	<circle cx="10.8841" cy="249.074" r="4" fill="#0" id="circle13"/>
	<circle cx="12.9493" cy="255.958" r="4" fill="#0" id="circle14"/>
	<circle cx="14.3262" cy="262.842" r="4" fill="#0" id="circle15"/>
	<circle cx="16.3914" cy="152.008" r="4" fill="#0" id="circle16"/>
	<circle cx="16.3914" cy="269.727" r="4" fill="#0" id="circle17"/>
	<circle cx="17.7682" cy="276.611" r="4" fill="#0" id="circle18"/>
	<circle cx="19.8334" cy="283.495" r="4" fill="#0" id="circle19"/>
	<circle cx="21.2103" cy="290.379" r="4" fill="#0" id="circle20"/>
	<circle cx="21.8987" cy="146.501" r="4" fill="#0" id="circle21"/>
	<circle cx="23.2755" cy="297.263" r="4" fill="#0" id="circle22"/>
	<circle cx="26.7176" cy="303.459" r="4" fill="#0" id="circle23"/>
	<circle cx="27.406" cy="141.682" r="4" fill="#0" id="circle24"/>
	<circle cx="31.5364" cy="308.966" r="4" fill="#0" id="circle25"/>
	<circle cx="32.2248" cy="136.175" r="4" fill="#0" id="circle26"/>
	<circle cx="37.0437" cy="313.785" r="4" fill="#0" id="circle27"/>
	<circle cx="37.7321" cy="131.356" r="4" fill="#0" id="circle28"/>
	<circle cx="42.551" cy="125.849" r="4" fill="#0" id="circle29"/>
	<circle cx="43.2394" cy="317.227" r="4" fill="#0" id="circle30"/>
	<circle cx="48.0583" cy="121.03" r="4" fill="#0" id="circle31"/>
	<circle cx="48.7467" cy="321.357" r="4" fill="#0" id="circle32"/>
	<circle cx="54.254" cy="117.588" r="4" fill="#0" id="circle33"/>
	<circle cx="54.9424" cy="324.799" r="4" fill="#0" id="circle34"/>
	<circle cx="61.1381" cy="114.146" r="4" fill="#0" id="circle35"/>
	<circle cx="61.1381" cy="328.241" r="4" fill="#0" id="circle36"/>
	<circle cx="67.3338" cy="331.684" r="4" fill="#0" id="circle37"/>
	<circle cx="68.0222" cy="110.704" r="4" fill="#0" id="circle38"/>
	<circle cx="73.5295" cy="335.126" r="4" fill="#0" id="circle39"/>
	<circle cx="74.9063" cy="110.704" r="4" fill="#0" id="circle40"/>
	<circle cx="80.4136" cy="335.126" r="4" fill="#0" id="circle41"/>
	<circle cx="81.102" cy="107.262" r="4" fill="#0" id="circle42"/>
	<circle cx="87.2977" cy="103.82" r="4" fill="#0" id="circle43"/>
	<circle cx="87.2977" cy="335.126" r="4" fill="#0" id="circle44"/>
	<circle cx="93.4934" cy="100.378" r="4" fill="#0" id="circle45"/>
	<circle cx="94.1818" cy="335.126" r="4" fill="#0" id="circle46"/>
	<circle cx="99.6891" cy="96.9355" r="4" fill="#0" id="circle47"/>
	<circle cx="101.066" cy="335.126" r="4" fill="#0" id="circle48"/>
	<circle cx="105.885" cy="93.4934" r="4" fill="#0" id="circle49"/>
	<circle cx="107.95" cy="331.684" r="4" fill="#0" id="circle50"/>
	<circle cx="112.769" cy="90.0514" r="4" fill="#0" id="circle51"/>
	<circle cx="114.834" cy="331.684" r="4" fill="#0" id="circle52"/>
	<circle cx="119.653" cy="86.6093" r="4" fill="#0" id="circle53"/>
	<circle cx="121.718" cy="331.684" r="4" fill="#0" id="circle54"/>
	<circle cx="126.537" cy="83.1672" r="4" fill="#0" id="circle55"/>
	<circle cx="128.602" cy="331.684" r="4" fill="#0" id="circle56"/>
	<circle cx="133.421" cy="79.7252" r="4" fill="#0" id="circle57"/>
	<circle cx="135.486" cy="328.241" r="4" fill="#0" id="circle58"/>
	<circle cx="140.305" cy="76.2831" r="4" fill="#0" id="circle59"/>
	<circle cx="142.371" cy="328.241" r="4" fill="#0" id="circle60"/>
	<circle cx="147.189" cy="72.8411" r="4" fill="#0" id="circle61"/>
	<circle cx="148.566" cy="324.799" r="4" fill="#0" id="circle62"/>
	<circle cx="154.074" cy="69.399" r="4" fill="#0" id="circle63"/>
	<circle cx="154.762" cy="321.357" r="4" fill="#0" id="circle64"/>
	<circle cx="160.958" cy="65.957" r="4" fill="#0" id="circle65"/>
	<circle cx="160.958" cy="317.227" r="4" fill="#0" id="circle66"/>
	<circle cx="164.4" cy="310.343" r="4" fill="#0" id="circle67"/>
	<circle cx="167.842" cy="62.5149" r="4" fill="#0" id="circle68"/>
	<circle cx="167.842" cy="303.459" r="4" fill="#0" id="circle69"/>
	<circle cx="171.284" cy="296.575" r="4" fill="#0" id="circle70"/>
	<circle cx="174.726" cy="59.0729" r="4" fill="#0" id="circle71"/>
	<circle cx="178.168" cy="293.133" r="4" fill="#0" id="circle72"/>
	<circle cx="181.61" cy="55.6308" r="4" fill="#0" id="circle73"/>
	<circle cx="185.052" cy="290.379" r="4" fill="#0" id="circle74"/>
	<circle cx="188.494" cy="55.6308" r="4" fill="#0" id="circle75"/>
	<circle cx="191.248" cy="293.821" r="4" fill="#0" id="circle76"/>
	<circle cx="194.69" cy="52.1888" r="4" fill="#0" id="circle77"/>
	<circle cx="198.132" cy="295.886" r="4" fill="#0" id="circle78"/>
	<circle cx="201.574" cy="49.4351" r="4" fill="#0" id="circle79"/>
	<circle cx="205.016" cy="297.263" r="4" fill="#0" id="circle80"/>
	<circle cx="208.458" cy="48.7467" r="4" fill="#0" id="circle81"/>
	<circle cx="211.212" cy="300.705" r="4" fill="#0" id="circle82"/>
	<circle cx="214.654" cy="45.3046" r="4" fill="#0" id="circle83"/>
	<circle cx="218.096" cy="302.082" r="4" fill="#0" id="circle84"/>
	<circle cx="221.538" cy="43.2394" r="4" fill="#0" id="circle85"/>
	<circle cx="224.98" cy="304.147" r="4" fill="#0" id="circle86"/>
	<circle cx="228.422" cy="41.8626" r="4" fill="#0" id="circle87"/>
	<circle cx="231.864" cy="304.147" r="4" fill="#0" id="circle88"/>
	<circle cx="234.618" cy="38.4205" r="4" fill="#0" id="circle89"/>
	<circle cx="238.06" cy="307.589" r="4" fill="#0" id="circle90"/>
	<circle cx="241.502" cy="37.0437" r="4" fill="#0" id="circle91"/>
	<circle cx="244.944" cy="307.589" r="4" fill="#0" id="circle92"/>
	<circle cx="248.386" cy="34.9785" r="4" fill="#0" id="circle93"/>
	<circle cx="251.828" cy="307.589" r="4" fill="#0" id="circle94"/>
	<circle cx="254.582" cy="31.5364" r="4" fill="#0" id="circle95"/>
	<circle cx="258.712" cy="307.589" r="4" fill="#0" id="circle96"/>
	<circle cx="261.466" cy="31.5364" r="4" fill="#0" id="circle97"/>
	<circle cx="265.596" cy="307.589" r="4" fill="#0" id="circle98"/>
	<circle cx="267.661" cy="28.0944" r="4" fill="#0" id="circle99"/>
	<circle cx="272.48" cy="307.589" r="4" fill="#0" id="circle100"/>
	<circle cx="274.545" cy="28.0944" r="4" fill="#0" id="circle101"/>
	<circle cx="278.676" cy="311.031" r="4" fill="#0" id="circle102"/>
	<circle cx="280.741" cy="24.6523" r="4" fill="#0" id="circle103"/>
	<circle cx="285.56" cy="311.031" r="4" fill="#0" id="circle104"/>
	<circle cx="287.625" cy="21.8987" r="4" fill="#0" id="circle105"/>
	<circle cx="292.444" cy="311.031" r="4" fill="#0" id="circle106"/>
	<circle cx="294.509" cy="21.2103" r="4" fill="#0" id="circle107"/>
	<circle cx="299.328" cy="311.031" r="4" fill="#0" id="circle108"/>
	<circle cx="300.705" cy="17.7682" r="4" fill="#0" id="circle109"/>
	<circle cx="306.212" cy="311.031" r="4" fill="#0" id="circle110"/>
	<circle cx="307.589" cy="17.7682" r="4" fill="#0" id="circle111"/>
	<circle cx="313.096" cy="311.031" r="4" fill="#0" id="circle112"/>
	<circle cx="314.473" cy="17.7682" r="4" fill="#0" id="circle113"/>
	<circle cx="319.981" cy="311.031" r="4" fill="#0" id="circle114"/>
	<circle cx="321.357" cy="17.7682" r="4" fill="#0" id="circle115"/>
	<circle cx="326.865" cy="311.031" r="4" fill="#0" id="circle116"/>
	<circle cx="328.241" cy="17.7682" r="4" fill="#0" id="circle117"/>
	<circle cx="333.749" cy="311.031" r="4" fill="#0" id="circle118"/>
	<circle cx="335.126" cy="17.7682" r="4" fill="#0" id="circle119"/>
	<circle cx="339.944" cy="314.473" r="4" fill="#0" id="circle120"/>
	<circle cx="342.01" cy="17.7682" r="4" fill="#0" id="circle121"/>
	<circle cx="346.829" cy="314.473" r="4" fill="#0" id="circle122"/>
	<circle cx="348.205" cy="14.3262" r="4" fill="#0" id="circle123"/>
	<circle cx="353.713" cy="314.473" r="4" fill="#0" id="circle124"/>
	<circle cx="355.09" cy="14.3262" r="4" fill="#0" id="circle125"/>
	<circle cx="360.597" cy="314.473" r="4" fill="#0" id="circle126"/>
	<circle cx="361.974" cy="14.3262" r="4" fill="#0" id="circle127"/>
	<circle cx="367.481" cy="314.473" r="4" fill="#0" id="circle128"/>
	<circle cx="368.858" cy="14.3262" r="4" fill="#0" id="circle129"/>
	<circle cx="374.365" cy="314.473" r="4" fill="#0" id="circle130"/>
	<circle cx="375.742" cy="12.9493" r="4" fill="#0" id="circle131"/>
	<circle cx="381.249" cy="314.473" r="4" fill="#0" id="circle132"/>
	<circle cx="382.626" cy="10.8841" r="4" fill="#0" id="circle133"/>
	<circle cx="388.133" cy="314.473" r="4" fill="#0" id="circle134"/>
	<circle cx="389.51" cy="10.8841" r="4" fill="#0" id="circle135"/>
	<circle cx="395.017" cy="314.473" r="4" fill="#0" id="circle136"/>
	<circle cx="396.394" cy="10.8841" r="4" fill="#0" id="circle137"/>
	<circle cx="401.901" cy="314.473" r="4" fill="#0" id="circle138"/>
	<circle cx="403.278" cy="10.8841" r="4" fill="#0" id="circle139"/>
	<circle cx="408.786" cy="317.227" r="4" fill="#0" id="circle140"/>
	<circle cx="409.474" cy="7.44205" r="4" fill="#0" id="circle141"/>
	<circle cx="413.604" cy="322.734" r="4" fill="#0" id="circle142"/>
	<circle cx="416.358" cy="7.44205" r="4" fill="#0" id="circle143"/>
	<circle cx="419.112" cy="327.553" r="4" fill="#0" id="circle144"/>
	<circle cx="421.865" cy="334.437" r="4" fill="#0" id="circle145"/>
	<circle cx="423.242" cy="7.44205" r="4" fill="#0" id="circle146"/>
	<circle cx="425.307" cy="340.633" r="4" fill="#0" id="circle147"/>
	<circle cx="428.061" cy="347.517" r="4" fill="#0" id="circle148"/>
	<circle cx="430.126" cy="7.44205" r="4" fill="#0" id="circle149"/>
	<circle cx="433.568" cy="352.336" r="4" fill="#0" id="circle150"/>
	<circle cx="437.01" cy="7.44205" r="4" fill="#0" id="circle151"/>
	<circle cx="439.764" cy="355.778" r="4" fill="#0" id="circle152"/>
	<circle cx="443.206" cy="4" r="4" fill="#0" id="circle153"/>
	<circle cx="445.271" cy="360.597" r="4" fill="#0" id="circle154"/>
	<circle cx="450.09" cy="4" r="4" fill="#0" id="circle155"/>
	<circle cx="451.467" cy="364.039" r="4" fill="#0" id="circle156"/>
	<circle cx="456.974" cy="4" r="4" fill="#0" id="circle157"/>
	<circle cx="458.351" cy="366.104" r="4" fill="#0" id="circle158"/>
	<circle cx="463.17" cy="7.44205" r="4" fill="#0" id="circle159"/>
	<circle cx="464.547" cy="369.546" r="4" fill="#0" id="circle160"/>
	<circle cx="470.054" cy="7.44205" r="4" fill="#0" id="circle161"/>
	<circle cx="470.743" cy="372.988" r="4" fill="#0" id="circle162"/>
	<circle cx="476.25" cy="10.8841" r="4" fill="#0" id="circle163"/>
	<circle cx="476.25" cy="377.807" r="4" fill="#0" id="circle164"/>
	<circle cx="482.446" cy="14.3262" r="4" fill="#0" id="circle165"/>
	<circle cx="482.446" cy="381.249" r="4" fill="#0" id="circle166"/>
	<circle cx="488.641" cy="17.7682" r="4" fill="#0" id="circle167"/>
	<circle cx="489.33" cy="383.314" r="4" fill="#0" id="circle168"/>
	<circle cx="495.525" cy="18.4566" r="4" fill="#0" id="circle169"/>
	<circle cx="495.525" cy="386.756" r="4" fill="#0" id="circle170"/>
	<circle cx="502.409" cy="21.2103" r="4" fill="#0" id="circle171"/>
	<circle cx="502.409" cy="385.38" r="4" fill="#0" id="circle172"/>
	<circle cx="508.605" cy="24.6523" r="4" fill="#0" id="circle173"/>
	<circle cx="509.294" cy="383.314" r="4" fill="#0" id="circle174"/>
	<circle cx="515.489" cy="24.6523" r="4" fill="#0" id="circle175"/>
	<circle cx="516.178" cy="383.314" r="4" fill="#0" id="circle176"/>
	<circle cx="522.373" cy="24.6523" r="4" fill="#0" id="circle177"/>
	<circle cx="523.062" cy="383.314" r="4" fill="#0" id="circle178"/>
	<circle cx="528.569" cy="28.0944" r="4" fill="#0" id="circle179"/>
	<circle cx="529.946" cy="383.314" r="4" fill="#0" id="circle180"/>
	<circle cx="535.453" cy="28.0944" r="4" fill="#0" id="circle181"/>
	<circle cx="536.83" cy="381.938" r="4" fill="#0" id="circle182"/>
	<circle cx="541.649" cy="31.5364" r="4" fill="#0" id="circle183"/>
	<circle cx="543.714" cy="379.872" r="4" fill="#0" id="circle184"/>
	<circle cx="548.533" cy="31.5364" r="4" fill="#0" id="circle185"/>
	<circle cx="550.598" cy="378.495" r="4" fill="#0" id="circle186"/>
	<circle cx="554.729" cy="34.9785" r="4" fill="#0" id="circle187"/>
	<circle cx="557.482" cy="376.43" r="4" fill="#0" id="circle188"/>
	<circle cx="561.613" cy="34.9785" r="4" fill="#0" id="circle189"/>
	<circle cx="563.678" cy="372.988" r="4" fill="#0" id="circle190"/>
	<circle cx="568.497" cy="36.3553" r="4" fill="#0" id="circle191"/>
	<circle cx="569.874" cy="369.546" r="4" fill="#0" id="circle192"/>
	<circle cx="575.381" cy="38.4205" r="4" fill="#0" id="circle193"/>
	<circle cx="576.069" cy="366.104" r="4" fill="#0" id="circle194"/>
	<circle cx="581.577" cy="361.285" r="4" fill="#0" id="circle195"/>
	<circle cx="582.265" cy="38.4205" r="4" fill="#0" id="circle196"/>
	<circle cx="586.396" cy="355.778" r="4" fill="#0" id="circle197"/>
	<circle cx="588.461" cy="41.8626" r="4" fill="#0" id="circle198"/>
	<circle cx="591.903" cy="350.959" r="4" fill="#0" id="circle199"/>
	<circle cx="595.345" cy="41.8626" r="4" fill="#0" id="circle200"/>
	<circle cx="595.345" cy="344.075" r="4" fill="#0" id="circle201"/>
	<circle cx="602.229" cy="41.8626" r="4" fill="#0" id="circle202"/>
	<circle cx="602.229" cy="340.633" r="4" fill="#0" id="circle203"/>
	<circle cx="609.113" cy="41.8626" r="4" fill="#0" id="circle204"/>
	<circle cx="609.113" cy="337.191" r="4" fill="#0" id="circle205"/>
	<circle cx="615.997" cy="41.8626" r="4" fill="#0" id="circle206"/>
	<circle cx="615.997" cy="335.126" r="4" fill="#0" id="circle207"/>
	<circle cx="622.881" cy="41.8626" r="4" fill="#0" id="circle208"/>
	<circle cx="622.881" cy="335.126" r="4" fill="#0" id="circle209"/>
	<circle cx="629.077" cy="331.684" r="4" fill="#0" id="circle210"/>
	<circle cx="629.765" cy="41.8626" r="4" fill="#0" id="circle211"/>
	<circle cx="635.961" cy="331.684" r="4" fill="#0" id="circle212"/>
	<circle cx="636.65" cy="42.551" r="4" fill="#0" id="circle213"/>
	<circle cx="642.845" cy="45.9931" r="4" fill="#0" id="circle214"/>
	<circle cx="642.845" cy="331.684" r="4" fill="#0" id="circle215"/>
	<circle cx="649.729" cy="48.7467" r="4" fill="#0" id="circle216"/>
	<circle cx="649.729" cy="331.684" r="4" fill="#0" id="circle217"/>
	<circle cx="655.925" cy="52.1888" r="4" fill="#0" id="circle218"/>
	<circle cx="656.613" cy="331.684" r="4" fill="#0" id="circle219"/>
	<circle cx="662.121" cy="55.6308" r="4" fill="#0" id="circle220"/>
	<circle cx="663.498" cy="331.684" r="4" fill="#0" id="circle221"/>
	<circle cx="668.316" cy="59.0729" r="4" fill="#0" id="circle222"/>
	<circle cx="670.382" cy="330.995" r="4" fill="#0" id="circle223"/>
	<circle cx="675.201" cy="60.4497" r="4" fill="#0" id="circle224"/>
	<circle cx="677.266" cy="328.241" r="4" fill="#0" id="circle225"/>
	<circle cx="681.396" cy="63.8917" r="4" fill="#0" id="circle226"/>
	<circle cx="684.15" cy="328.241" r="4" fill="#0" id="circle227"/>
	<circle cx="688.28" cy="66.6454" r="4" fill="#0" id="circle228"/>
	<circle cx="691.034" cy="328.241" r="4" fill="#0" id="circle229"/>
	<circle cx="694.476" cy="70.0874" r="4" fill="#0" id="circle230"/>
	<circle cx="697.918" cy="328.241" r="4" fill="#0" id="circle231"/>
	<circle cx="701.36" cy="72.8411" r="4" fill="#0" id="circle232"/>
	<circle cx="704.802" cy="328.241" r="4" fill="#0" id="circle233"/>
	<circle cx="707.556" cy="76.2831" r="4" fill="#0" id="circle234"/>
	<circle cx="710.998" cy="324.799" r="4" fill="#0" id="circle235"/>
	<circle cx="714.44" cy="76.2831" r="4" fill="#0" id="circle236"/>
	<circle cx="717.882" cy="324.799" r="4" fill="#0" id="circle237"/>
	<circle cx="720.636" cy="72.8411" r="4" fill="#0" id="circle238"/>
	<circle cx="724.766" cy="324.799" r="4" fill="#0" id="circle239"/>
	<circle cx="727.52" cy="72.8411" r="4" fill="#0" id="circle240"/>
	<circle cx="731.65" cy="324.799" r="4" fill="#0" id="circle241"/>
	<circle cx="734.404" cy="72.8411" r="4" fill="#0" id="circle242"/>
	<circle cx="738.534" cy="324.799" r="4" fill="#0" id="circle243"/>
	<circle cx="740.6" cy="76.2831" r="4" fill="#0" id="circle244"/>
	<circle cx="745.418" cy="324.799" r="4" fill="#0" id="circle245"/>
	<circle cx="746.795" cy="79.7252" r="4" fill="#0" id="circle246"/>
	<circle cx="751.614" cy="321.357" r="4" fill="#0" id="circle247"/>
	<circle cx="753.679" cy="80.4136" r="4" fill="#0" id="circle248"/>
	<circle cx="758.498" cy="85.9209" r="4" fill="#0" id="circle249"/>
	<circle cx="758.498" cy="321.357" r="4" fill="#0" id="circle250"/>
	<circle cx="764.006" cy="90.7398" r="4" fill="#0" id="circle251"/>
	<circle cx="765.382" cy="321.357" r="4" fill="#0" id="circle252"/>
	<circle cx="770.201" cy="94.1818" r="4" fill="#0" id="circle253"/>
	<circle cx="772.266" cy="321.357" r="4" fill="#0" id="circle254"/>
	<circle cx="777.085" cy="96.9355" r="4" fill="#0" id="circle255"/>
	<circle cx="779.151" cy="322.734" r="4" fill="#0" id="circle256"/>
	<circle cx="783.969" cy="96.9355" r="4" fill="#0" id="circle257"/>
	<circle cx="785.346" cy="326.176" r="4" fill="#0" id="circle258"/>
	<circle cx="790.165" cy="100.378" r="4" fill="#0" id="circle259"/>
	<circle cx="792.23" cy="328.241" r="4" fill="#0" id="circle260"/>
	<circle cx="796.361" cy="96.9355" r="4" fill="#0" id="circle261"/>
	<circle cx="798.426" cy="331.684" r="4" fill="#0" id="circle262"/>
	<circle cx="803.245" cy="96.9355" r="4" fill="#0" id="circle263"/>
	<circle cx="803.245" cy="337.191" r="4" fill="#0" id="circle264"/>
	<circle cx="808.752" cy="342.01" r="4" fill="#0" id="circle265"/>
	<circle cx="810.129" cy="96.9355" r="4" fill="#0" id="circle266"/>
	<circle cx="813.571" cy="347.517" r="4" fill="#0" id="circle267"/>
	<circle cx="817.013" cy="94.8702" r="4" fill="#0" id="circle268"/>
	<circle cx="819.078" cy="352.336" r="4" fill="#0" id="circle269"/>
	<circle cx="823.897" cy="93.4934" r="4" fill="#0" id="circle270"/>
	<circle cx="825.274" cy="355.778" r="4" fill="#0" id="circle271"/>
	<circle cx="830.781" cy="93.4934" r="4" fill="#0" id="circle272"/>
	<circle cx="832.158" cy="358.532" r="4" fill="#0" id="circle273"/>
	<circle cx="837.666" cy="93.4934" r="4" fill="#0" id="circle274"/>
	<circle cx="839.042" cy="358.532" r="4" fill="#0" id="circle275"/>
	<circle cx="844.55" cy="93.4934" r="4" fill="#0" id="circle276"/>
	<circle cx="845.926" cy="355.778" r="4" fill="#0" id="circle277"/>
	<circle cx="851.434" cy="93.4934" r="4" fill="#0" id="circle278"/>
	<circle cx="852.811" cy="355.778" r="4" fill="#0" id="circle279"/>
	<circle cx="858.318" cy="93.4934" r="4" fill="#0" id="circle280"/>
	<circle cx="859.695" cy="355.778" r="4" fill="#0" id="circle281"/>
	<circle cx="865.202" cy="93.4934" r="4" fill="#0" id="circle282"/>
	<circle cx="866.579" cy="355.09" r="4" fill="#0" id="circle283"/>
	<circle cx="871.398" cy="90.0514" r="4" fill="#0" id="circle284"/>
	<circle cx="873.463" cy="352.336" r="4" fill="#0" id="circle285"/>
	<circle cx="878.282" cy="90.0514" r="4" fill="#0" id="circle286"/>
	<circle cx="880.347" cy="352.336" r="4" fill="#0" id="circle287"/>
	<circle cx="885.166" cy="90.0514" r="4" fill="#0" id="circle288"/>
	<circle cx="887.231" cy="352.336" r="4" fill="#0" id="circle289"/>
	<circle cx="892.05" cy="91.4282" r="4" fill="#0" id="circle290"/>
	<circle cx="894.115" cy="352.336" r="4" fill="#0" id="circle291"/>
	<circle cx="898.246" cy="94.8702" r="4" fill="#0" id="circle292"/>
	<circle cx="900.311" cy="348.894" r="4" fill="#0" id="circle293"/>
	<circle cx="905.13" cy="97.6239" r="4" fill="#0" id="circle294"/>
	<circle cx="907.195" cy="348.894" r="4" fill="#0" id="circle295"/>
	<circle cx="911.325" cy="101.066" r="4" fill="#0" id="circle296"/>
	<circle cx="914.079" cy="348.894" r="4" fill="#0" id="circle297"/>
	<circle cx="916.833" cy="105.885" r="4" fill="#0" id="circle298"/>
	<circle cx="920.275" cy="345.452" r="4" fill="#0" id="circle299"/>
	<circle cx="921.652" cy="111.392" r="4" fill="#0" id="circle300"/>
	<circle cx="926.471" cy="342.01" r="4" fill="#0" id="circle301"/>
	<circle cx="927.159" cy="116.211" r="4" fill="#0" id="circle302"/>
	<circle cx="932.666" cy="121.03" r="4" fill="#0" id="circle303"/>
	<circle cx="932.666" cy="338.568" r="4" fill="#0" id="circle304"/>
	<circle cx="938.862" cy="124.472" r="4" fill="#0" id="circle305"/>
	<circle cx="938.862" cy="335.126" r="4" fill="#0" id="circle306"/>
	<circle cx="943.681" cy="129.979" r="4" fill="#0" id="circle307"/>
	<circle cx="945.058" cy="331.684" r="4" fill="#0" id="circle308"/>
	<circle cx="949.188" cy="134.798" r="4" fill="#0" id="circle309"/>
	<circle cx="951.253" cy="328.241" r="4" fill="#0" id="circle310"/>
	<circle cx="954.007" cy="140.305" r="4" fill="#0" id="circle311"/>
	<circle cx="958.137" cy="324.799" r="4" fill="#0" id="circle312"/>
	<circle cx="959.514" cy="145.124" r="4" fill="#0" id="circle313"/>
	<circle cx="961.579" cy="152.008" r="4" fill="#0" id="circle314"/>
	<circle cx="964.333" cy="321.357" r="4" fill="#0" id="circle315"/>
	<circle cx="965.022" cy="158.204" r="4" fill="#0" id="circle316"/>
	<circle cx="968.464" cy="164.4" r="4" fill="#0" id="circle317"/>
	<circle cx="969.84" cy="317.227" r="4" fill="#0" id="circle318"/>
	<circle cx="973.282" cy="169.907" r="4" fill="#0" id="circle319"/>
	<circle cx="975.348" cy="311.031" r="4" fill="#0" id="circle320"/>
	<circle cx="976.724" cy="176.103" r="4" fill="#0" id="circle321"/>
	<circle cx="978.79" cy="182.987" r="4" fill="#0" id="circle322"/>
	<circle cx="978.79" cy="304.147" r="4" fill="#0" id="circle323"/>
	<circle cx="982.232" cy="189.183" r="4" fill="#0" id="circle324"/>
	<circle cx="982.232" cy="266.285" r="4" fill="#0" id="circle325"/>
	<circle cx="982.232" cy="273.169" r="4" fill="#0" id="circle326"/>
	<circle cx="982.232" cy="280.053" r="4" fill="#0" id="circle327"/>
	<circle cx="982.232" cy="286.937" r="4" fill="#0" id="circle328"/>
	<circle cx="982.232" cy="293.821" r="4" fill="#0" id="circle329"/>
	<circle cx="985.674" cy="195.378" r="4" fill="#0" id="circle330"/>
	<circle cx="985.674" cy="255.958" r="4" fill="#0" id="circle331"/>
	<circle cx="989.116" cy="201.574" r="4" fill="#0" id="circle332"/>
	<circle cx="989.116" cy="245.632" r="4" fill="#0" id="circle333"/>
	<circle cx="991.181" cy="208.458" r="4" fill="#0" id="circle334"/>
	<circle cx="992.558" cy="238.748" r="4" fill="#0" id="circle335"/>
	<circle cx="994.623" cy="214.654" r="4" fill="#0" id="circle336"/>
	<circle cx="996" cy="221.538" r="4" fill="#0" id="circle337"/>
	<circle cx="996" cy="228.422" r="4" fill="#0" id="circle338"/>
	</g>
</svg>