<?xml version="1.0" encoding="UTF-8" standalone="no"?>
<!-- Created with CurveBenchmark -->
<svg
	xmlns:dc="http://purl.org/dc/elements/1.1/"
	xmlns:cc="http://creativecommons.org/ns#"
	xmlns:rdf="http://www.w3.org/1999/02/22-rdf-syntax-ns#"
	xmlns:svg="http://www.w3.org/2000/svg"
	xmlns="http://www.w3.org/2000/svg"
	xmlns:sodipodi="http://sodipodi.sourceforge.net/DTD/sodipodi-0.dtd"
	xmlns:inkscape="http://www.inkscape.org/namespaces/inkscape"
	width="1000"
	height="1000"
	id="svg2"
	version="1.1"
	sodipodi:docname="manifold/connect2d-ray0465.png.txt">
<defs
	id="defs4" />
<metadata
	id="metadata7">
	<rdf:RDF>
		<cc:Work
			rdf:about="">
			<dc:format>image/svg+xml</dc:format>
			<dc:type
				rdf:resource="http://purl.org/dc/dcmitype/StillImage" />
			<dc:title></dc:title>
		</cc:Work>
	</rdf:RDF>
</metadata>
<g
	inkscape:label="Layer 1"
	inkscape:groupmode="layer"
	id="layer1">
	<path style="fill:none;stroke:red;stroke-width:1px;stroke-linecap:butt;stroke-linejoin:miter;stroke-opacity:1" d="M 996,169.551 984.268,186.497 z" id="boundary" inkscape:connector-curvature="0" />
	<path style="fill:none;stroke:red;stroke-width:1px;stroke-linecap:butt;stroke-linejoin:miter;stroke-opacity:1" d="M 984.268,186.497 981.661,173.461 z" id="boundary" inkscape:connector-curvature="0" />
	<path style="fill:none;stroke:red;stroke-width:1px;stroke-linecap:butt;stroke-linejoin:miter;stroke-opacity:1" d="M 981.661,173.461 981.661,160.426 z" id="boundary" inkscape:connector-curvature="0" />
	<path style="fill:none;stroke:red;stroke-width:1px;stroke-linecap:butt;stroke-linejoin:miter;stroke-opacity:1" d="M 981.661,160.426 981.661,147.39 z" id="boundary" inkscape:connector-curvature="0" />
	<path style="fill:none;stroke:red;stroke-width:1px;stroke-linecap:butt;stroke-linejoin:miter;stroke-opacity:1" d="M 981.661,147.39 975.143,135.658 z" id="boundary" inkscape:connector-curvature="0" />
	<path style="fill:none;stroke:red;stroke-width:1px;stroke-linecap:butt;stroke-linejoin:miter;stroke-opacity:1" d="M 975.143,135.658 962.108,138.265 z" id="boundary" inkscape:connector-curvature="0" />
	<path style="fill:none;stroke:red;stroke-width:1px;stroke-linecap:butt;stroke-linejoin:miter;stroke-opacity:1" d="M 962.108,138.265 949.072,144.783 z" id="boundary" inkscape:connector-curvature="0" />
	<path style="fill:none;stroke:red;stroke-width:1px;stroke-linecap:butt;stroke-linejoin:miter;stroke-opacity:1" d="M 949.072,144.783 942.555,133.051 z" id="boundary" inkscape:connector-curvature="0" />
	<path style="fill:none;stroke:red;stroke-width:1px;stroke-linecap:butt;stroke-linejoin:miter;stroke-opacity:1" d="M 942.555,133.051 942.555,120.016 z" id="boundary" inkscape:connector-curvature="0" />
	<path style="fill:none;stroke:red;stroke-width:1px;stroke-linecap:butt;stroke-linejoin:miter;stroke-opacity:1" d="M 942.555,120.016 942.555,106.98 z" id="boundary" inkscape:connector-curvature="0" />
	<path style="fill:none;stroke:red;stroke-width:1px;stroke-linecap:butt;stroke-linejoin:miter;stroke-opacity:1" d="M 942.555,106.98 942.555,93.9448 z" id="boundary" inkscape:connector-curvature="0" />
	<path style="fill:none;stroke:red;stroke-width:1px;stroke-linecap:butt;stroke-linejoin:miter;stroke-opacity:1" d="M 942.555,93.9448 937.34,80.9093 z" id="boundary" inkscape:connector-curvature="0" />
	<path style="fill:none;stroke:red;stroke-width:1px;stroke-linecap:butt;stroke-linejoin:miter;stroke-opacity:1" d="M 937.34,80.9093 929.519,70.4809 z" id="boundary" inkscape:connector-curvature="0" />
	<path style="fill:none;stroke:red;stroke-width:1px;stroke-linecap:butt;stroke-linejoin:miter;stroke-opacity:1" d="M 929.519,70.4809 917.787,63.9632 z" id="boundary" inkscape:connector-curvature="0" />
	<path style="fill:none;stroke:red;stroke-width:1px;stroke-linecap:butt;stroke-linejoin:miter;stroke-opacity:1" d="M 917.787,63.9632 917.787,76.9987 z" id="boundary" inkscape:connector-curvature="0" />
	<path style="fill:none;stroke:red;stroke-width:1px;stroke-linecap:butt;stroke-linejoin:miter;stroke-opacity:1" d="M 917.787,76.9987 904.752,86.1235 z" id="boundary" inkscape:connector-curvature="0" />
	<path style="fill:none;stroke:red;stroke-width:1px;stroke-linecap:butt;stroke-linejoin:miter;stroke-opacity:1" d="M 904.752,86.1235 894.323,76.9987 z" id="boundary" inkscape:connector-curvature="0" />
	<path style="fill:none;stroke:red;stroke-width:1px;stroke-linecap:butt;stroke-linejoin:miter;stroke-opacity:1" d="M 894.323,76.9987 885.198,66.5703 z" id="boundary" inkscape:connector-curvature="0" />
	<path style="fill:none;stroke:red;stroke-width:1px;stroke-linecap:butt;stroke-linejoin:miter;stroke-opacity:1" d="M 885.198,66.5703 878.681,54.8384 z" id="boundary" inkscape:connector-curvature="0" />
	<path style="fill:none;stroke:red;stroke-width:1px;stroke-linecap:butt;stroke-linejoin:miter;stroke-opacity:1" d="M 878.681,54.8384 869.556,44.41 z" id="boundary" inkscape:connector-curvature="0" />
	<path style="fill:none;stroke:red;stroke-width:1px;stroke-linecap:butt;stroke-linejoin:miter;stroke-opacity:1" d="M 869.556,44.41 857.824,37.8922 z" id="boundary" inkscape:connector-curvature="0" />
	<path style="fill:none;stroke:red;stroke-width:1px;stroke-linecap:butt;stroke-linejoin:miter;stroke-opacity:1" d="M 857.824,37.8922 846.092,31.3745 z" id="boundary" inkscape:connector-curvature="0" />
	<path style="fill:none;stroke:red;stroke-width:1px;stroke-linecap:butt;stroke-linejoin:miter;stroke-opacity:1" d="M 846.092,31.3745 833.057,31.3745 z" id="boundary" inkscape:connector-curvature="0" />
	<path style="fill:none;stroke:red;stroke-width:1px;stroke-linecap:butt;stroke-linejoin:miter;stroke-opacity:1" d="M 833.057,31.3745 820.021,31.3745 z" id="boundary" inkscape:connector-curvature="0" />
	<path style="fill:none;stroke:red;stroke-width:1px;stroke-linecap:butt;stroke-linejoin:miter;stroke-opacity:1" d="M 820.021,31.3745 806.986,31.3745 z" id="boundary" inkscape:connector-curvature="0" />
	<path style="fill:none;stroke:red;stroke-width:1px;stroke-linecap:butt;stroke-linejoin:miter;stroke-opacity:1" d="M 806.986,31.3745 793.95,31.3745 z" id="boundary" inkscape:connector-curvature="0" />
	<path style="fill:none;stroke:red;stroke-width:1px;stroke-linecap:butt;stroke-linejoin:miter;stroke-opacity:1" d="M 793.95,31.3745 780.915,31.3745 z" id="boundary" inkscape:connector-curvature="0" />
	<path style="fill:none;stroke:red;stroke-width:1px;stroke-linecap:butt;stroke-linejoin:miter;stroke-opacity:1" d="M 780.915,31.3745 767.879,31.3745 z" id="boundary" inkscape:connector-curvature="0" />
	<path style="fill:none;stroke:red;stroke-width:1px;stroke-linecap:butt;stroke-linejoin:miter;stroke-opacity:1" d="M 767.879,31.3745 754.844,31.3745 z" id="boundary" inkscape:connector-curvature="0" />
	<path style="fill:none;stroke:red;stroke-width:1px;stroke-linecap:butt;stroke-linejoin:miter;stroke-opacity:1" d="M 754.844,31.3745 743.112,37.8922 z" id="boundary" inkscape:connector-curvature="0" />
	<path style="fill:none;stroke:red;stroke-width:1px;stroke-linecap:butt;stroke-linejoin:miter;stroke-opacity:1" d="M 743.112,37.8922 730.076,37.8922 z" id="boundary" inkscape:connector-curvature="0" />
	<path style="fill:none;stroke:red;stroke-width:1px;stroke-linecap:butt;stroke-linejoin:miter;stroke-opacity:1" d="M 730.076,37.8922 718.344,44.41 z" id="boundary" inkscape:connector-curvature="0" />
	<path style="fill:none;stroke:red;stroke-width:1px;stroke-linecap:butt;stroke-linejoin:miter;stroke-opacity:1" d="M 718.344,44.41 706.612,50.9277 z" id="boundary" inkscape:connector-curvature="0" />
	<path style="fill:none;stroke:red;stroke-width:1px;stroke-linecap:butt;stroke-linejoin:miter;stroke-opacity:1" d="M 706.612,50.9277 694.88,57.4455 z" id="boundary" inkscape:connector-curvature="0" />
	<path style="fill:none;stroke:red;stroke-width:1px;stroke-linecap:butt;stroke-linejoin:miter;stroke-opacity:1" d="M 694.88,57.4455 681.845,60.0526 z" id="boundary" inkscape:connector-curvature="0" />
	<path style="fill:none;stroke:red;stroke-width:1px;stroke-linecap:butt;stroke-linejoin:miter;stroke-opacity:1" d="M 681.845,60.0526 668.809,66.5703 z" id="boundary" inkscape:connector-curvature="0" />
	<path style="fill:none;stroke:red;stroke-width:1px;stroke-linecap:butt;stroke-linejoin:miter;stroke-opacity:1" d="M 668.809,66.5703 658.381,76.9987 z" id="boundary" inkscape:connector-curvature="0" />
	<path style="fill:none;stroke:red;stroke-width:1px;stroke-linecap:butt;stroke-linejoin:miter;stroke-opacity:1" d="M 658.381,76.9987 646.649,83.5164 z" id="boundary" inkscape:connector-curvature="0" />
	<path style="fill:none;stroke:red;stroke-width:1px;stroke-linecap:butt;stroke-linejoin:miter;stroke-opacity:1" d="M 646.649,83.5164 636.221,92.6413 z" id="boundary" inkscape:connector-curvature="0" />
	<path style="fill:none;stroke:red;stroke-width:1px;stroke-linecap:butt;stroke-linejoin:miter;stroke-opacity:1" d="M 636.221,92.6413 629.703,105.677 z" id="boundary" inkscape:connector-curvature="0" />
	<path style="fill:none;stroke:red;stroke-width:1px;stroke-linecap:butt;stroke-linejoin:miter;stroke-opacity:1" d="M 629.703,105.677 616.668,109.587 z" id="boundary" inkscape:connector-curvature="0" />
	<path style="fill:none;stroke:red;stroke-width:1px;stroke-linecap:butt;stroke-linejoin:miter;stroke-opacity:1" d="M 616.668,109.587 608.846,120.016 z" id="boundary" inkscape:connector-curvature="0" />
	<path style="fill:none;stroke:red;stroke-width:1px;stroke-linecap:butt;stroke-linejoin:miter;stroke-opacity:1" d="M 608.846,120.016 598.418,129.141 z" id="boundary" inkscape:connector-curvature="0" />
	<path style="fill:none;stroke:red;stroke-width:1px;stroke-linecap:butt;stroke-linejoin:miter;stroke-opacity:1" d="M 598.418,129.141 589.293,139.569 z" id="boundary" inkscape:connector-curvature="0" />
	<path style="fill:none;stroke:red;stroke-width:1px;stroke-linecap:butt;stroke-linejoin:miter;stroke-opacity:1" d="M 589.293,139.569 578.865,148.694 z" id="boundary" inkscape:connector-curvature="0" />
	<path style="fill:none;stroke:red;stroke-width:1px;stroke-linecap:butt;stroke-linejoin:miter;stroke-opacity:1" d="M 578.865,148.694 569.74,159.122 z" id="boundary" inkscape:connector-curvature="0" />
	<path style="fill:none;stroke:red;stroke-width:1px;stroke-linecap:butt;stroke-linejoin:miter;stroke-opacity:1" d="M 569.74,159.122 559.311,168.247 z" id="boundary" inkscape:connector-curvature="0" />
	<path style="fill:none;stroke:red;stroke-width:1px;stroke-linecap:butt;stroke-linejoin:miter;stroke-opacity:1" d="M 559.311,168.247 559.311,181.283 z" id="boundary" inkscape:connector-curvature="0" />
	<path style="fill:none;stroke:red;stroke-width:1px;stroke-linecap:butt;stroke-linejoin:miter;stroke-opacity:1" d="M 559.311,181.283 559.311,194.318 z" id="boundary" inkscape:connector-curvature="0" />
	<path style="fill:none;stroke:red;stroke-width:1px;stroke-linecap:butt;stroke-linejoin:miter;stroke-opacity:1" d="M 559.311,194.318 561.919,207.353 z" id="boundary" inkscape:connector-curvature="0" />
	<path style="fill:none;stroke:red;stroke-width:1px;stroke-linecap:butt;stroke-linejoin:miter;stroke-opacity:1" d="M 561.919,207.353 565.829,220.389 z" id="boundary" inkscape:connector-curvature="0" />
	<path style="fill:none;stroke:red;stroke-width:1px;stroke-linecap:butt;stroke-linejoin:miter;stroke-opacity:1" d="M 565.829,220.389 565.829,233.424 z" id="boundary" inkscape:connector-curvature="0" />
	<path style="fill:none;stroke:red;stroke-width:1px;stroke-linecap:butt;stroke-linejoin:miter;stroke-opacity:1" d="M 565.829,233.424 565.829,246.46 z" id="boundary" inkscape:connector-curvature="0" />
	<path style="fill:none;stroke:red;stroke-width:1px;stroke-linecap:butt;stroke-linejoin:miter;stroke-opacity:1" d="M 565.829,246.46 559.311,266.013 z" id="boundary" inkscape:connector-curvature="0" />
	<path style="fill:none;stroke:red;stroke-width:1px;stroke-linecap:butt;stroke-linejoin:miter;stroke-opacity:1" d="M 559.311,266.013 559.311,279.049 z" id="boundary" inkscape:connector-curvature="0" />
	<path style="fill:none;stroke:red;stroke-width:1px;stroke-linecap:butt;stroke-linejoin:miter;stroke-opacity:1" d="M 559.311,279.049 561.919,292.084 z" id="boundary" inkscape:connector-curvature="0" />
	<path style="fill:none;stroke:red;stroke-width:1px;stroke-linecap:butt;stroke-linejoin:miter;stroke-opacity:1" d="M 561.919,292.084 574.954,297.298 z" id="boundary" inkscape:connector-curvature="0" />
	<path style="fill:none;stroke:red;stroke-width:1px;stroke-linecap:butt;stroke-linejoin:miter;stroke-opacity:1" d="M 574.954,297.298 584.079,307.727 z" id="boundary" inkscape:connector-curvature="0" />
	<path style="fill:none;stroke:red;stroke-width:1px;stroke-linecap:butt;stroke-linejoin:miter;stroke-opacity:1" d="M 584.079,307.727 594.507,316.852 z" id="boundary" inkscape:connector-curvature="0" />
	<path style="fill:none;stroke:red;stroke-width:1px;stroke-linecap:butt;stroke-linejoin:miter;stroke-opacity:1" d="M 594.507,316.852 603.632,327.28 z" id="boundary" inkscape:connector-curvature="0" />
	<path style="fill:none;stroke:red;stroke-width:1px;stroke-linecap:butt;stroke-linejoin:miter;stroke-opacity:1" d="M 603.632,327.28 611.453,337.708 z" id="boundary" inkscape:connector-curvature="0" />
	<path style="fill:none;stroke:red;stroke-width:1px;stroke-linecap:butt;stroke-linejoin:miter;stroke-opacity:1" d="M 611.453,337.708 614.06,350.744 z" id="boundary" inkscape:connector-curvature="0" />
	<path style="fill:none;stroke:red;stroke-width:1px;stroke-linecap:butt;stroke-linejoin:miter;stroke-opacity:1" d="M 614.06,350.744 620.578,362.476 z" id="boundary" inkscape:connector-curvature="0" />
	<path style="fill:none;stroke:red;stroke-width:1px;stroke-linecap:butt;stroke-linejoin:miter;stroke-opacity:1" d="M 620.578,362.476 624.489,375.511 z" id="boundary" inkscape:connector-curvature="0" />
	<path style="fill:none;stroke:red;stroke-width:1px;stroke-linecap:butt;stroke-linejoin:miter;stroke-opacity:1" d="M 624.489,375.511 631.007,387.243 z" id="boundary" inkscape:connector-curvature="0" />
	<path style="fill:none;stroke:red;stroke-width:1px;stroke-linecap:butt;stroke-linejoin:miter;stroke-opacity:1" d="M 631.007,387.243 637.524,398.975 z" id="boundary" inkscape:connector-curvature="0" />
	<path style="fill:none;stroke:red;stroke-width:1px;stroke-linecap:butt;stroke-linejoin:miter;stroke-opacity:1" d="M 637.524,398.975 637.524,412.011 z" id="boundary" inkscape:connector-curvature="0" />
	<path style="fill:none;stroke:red;stroke-width:1px;stroke-linecap:butt;stroke-linejoin:miter;stroke-opacity:1" d="M 637.524,412.011 642.739,425.046 z" id="boundary" inkscape:connector-curvature="0" />
	<path style="fill:none;stroke:red;stroke-width:1px;stroke-linecap:butt;stroke-linejoin:miter;stroke-opacity:1" d="M 642.739,425.046 650.56,435.474 z" id="boundary" inkscape:connector-curvature="0" />
	<path style="fill:none;stroke:red;stroke-width:1px;stroke-linecap:butt;stroke-linejoin:miter;stroke-opacity:1" d="M 650.56,435.474 653.167,448.51 z" id="boundary" inkscape:connector-curvature="0" />
	<path style="fill:none;stroke:red;stroke-width:1px;stroke-linecap:butt;stroke-linejoin:miter;stroke-opacity:1" d="M 653.167,448.51 659.685,460.242 z" id="boundary" inkscape:connector-curvature="0" />
	<path style="fill:none;stroke:red;stroke-width:1px;stroke-linecap:butt;stroke-linejoin:miter;stroke-opacity:1" d="M 659.685,460.242 663.595,473.277 z" id="boundary" inkscape:connector-curvature="0" />
	<path style="fill:none;stroke:red;stroke-width:1px;stroke-linecap:butt;stroke-linejoin:miter;stroke-opacity:1" d="M 663.595,473.277 663.595,486.313 z" id="boundary" inkscape:connector-curvature="0" />
	<path style="fill:none;stroke:red;stroke-width:1px;stroke-linecap:butt;stroke-linejoin:miter;stroke-opacity:1" d="M 663.595,486.313 663.595,499.348 z" id="boundary" inkscape:connector-curvature="0" />
	<path style="fill:none;stroke:red;stroke-width:1px;stroke-linecap:butt;stroke-linejoin:miter;stroke-opacity:1" d="M 663.595,499.348 670.113,511.08 z" id="boundary" inkscape:connector-curvature="0" />
	<path style="fill:none;stroke:red;stroke-width:1px;stroke-linecap:butt;stroke-linejoin:miter;stroke-opacity:1" d="M 670.113,511.08 670.113,524.116 z" id="boundary" inkscape:connector-curvature="0" />
	<path style="fill:none;stroke:red;stroke-width:1px;stroke-linecap:butt;stroke-linejoin:miter;stroke-opacity:1" d="M 670.113,524.116 670.113,537.151 z" id="boundary" inkscape:connector-curvature="0" />
	<path style="fill:none;stroke:red;stroke-width:1px;stroke-linecap:butt;stroke-linejoin:miter;stroke-opacity:1" d="M 670.113,537.151 670.113,550.187 z" id="boundary" inkscape:connector-curvature="0" />
	<path style="fill:none;stroke:red;stroke-width:1px;stroke-linecap:butt;stroke-linejoin:miter;stroke-opacity:1" d="M 670.113,550.187 670.113,563.222 z" id="boundary" inkscape:connector-curvature="0" />
	<path style="fill:none;stroke:red;stroke-width:1px;stroke-linecap:butt;stroke-linejoin:miter;stroke-opacity:1" d="M 670.113,563.222 670.113,576.258 z" id="boundary" inkscape:connector-curvature="0" />
	<path style="fill:none;stroke:red;stroke-width:1px;stroke-linecap:butt;stroke-linejoin:miter;stroke-opacity:1" d="M 670.113,576.258 663.595,591.9 z" id="boundary" inkscape:connector-curvature="0" />
	<path style="fill:none;stroke:red;stroke-width:1px;stroke-linecap:butt;stroke-linejoin:miter;stroke-opacity:1" d="M 663.595,591.9 663.595,604.936 z" id="boundary" inkscape:connector-curvature="0" />
	<path style="fill:none;stroke:red;stroke-width:1px;stroke-linecap:butt;stroke-linejoin:miter;stroke-opacity:1" d="M 663.595,604.936 657.078,624.489 z" id="boundary" inkscape:connector-curvature="0" />
	<path style="fill:none;stroke:red;stroke-width:1px;stroke-linecap:butt;stroke-linejoin:miter;stroke-opacity:1" d="M 657.078,624.489 650.56,637.524 z" id="boundary" inkscape:connector-curvature="0" />
	<path style="fill:none;stroke:red;stroke-width:1px;stroke-linecap:butt;stroke-linejoin:miter;stroke-opacity:1" d="M 650.56,637.524 641.435,647.953 z" id="boundary" inkscape:connector-curvature="0" />
	<path style="fill:none;stroke:red;stroke-width:1px;stroke-linecap:butt;stroke-linejoin:miter;stroke-opacity:1" d="M 641.435,647.953 631.007,657.078 z" id="boundary" inkscape:connector-curvature="0" />
	<path style="fill:none;stroke:red;stroke-width:1px;stroke-linecap:butt;stroke-linejoin:miter;stroke-opacity:1" d="M 631.007,657.078 620.578,668.809 z" id="boundary" inkscape:connector-curvature="0" />
	<path style="fill:none;stroke:red;stroke-width:1px;stroke-linecap:butt;stroke-linejoin:miter;stroke-opacity:1" d="M 620.578,668.809 607.543,670.113 z" id="boundary" inkscape:connector-curvature="0" />
	<path style="fill:none;stroke:red;stroke-width:1px;stroke-linecap:butt;stroke-linejoin:miter;stroke-opacity:1" d="M 607.543,670.113 597.114,679.238 z" id="boundary" inkscape:connector-curvature="0" />
	<path style="fill:none;stroke:red;stroke-width:1px;stroke-linecap:butt;stroke-linejoin:miter;stroke-opacity:1" d="M 597.114,679.238 584.079,685.756 z" id="boundary" inkscape:connector-curvature="0" />
	<path style="fill:none;stroke:red;stroke-width:1px;stroke-linecap:butt;stroke-linejoin:miter;stroke-opacity:1" d="M 584.079,685.756 573.65,696.184 z" id="boundary" inkscape:connector-curvature="0" />
	<path style="fill:none;stroke:red;stroke-width:1px;stroke-linecap:butt;stroke-linejoin:miter;stroke-opacity:1" d="M 573.65,696.184 560.615,696.184 z" id="boundary" inkscape:connector-curvature="0" />
	<path style="fill:none;stroke:red;stroke-width:1px;stroke-linecap:butt;stroke-linejoin:miter;stroke-opacity:1" d="M 560.615,696.184 547.58,696.184 z" id="boundary" inkscape:connector-curvature="0" />
	<path style="fill:none;stroke:red;stroke-width:1px;stroke-linecap:butt;stroke-linejoin:miter;stroke-opacity:1" d="M 547.58,696.184 534.544,696.184 z" id="boundary" inkscape:connector-curvature="0" />
	<path style="fill:none;stroke:red;stroke-width:1px;stroke-linecap:butt;stroke-linejoin:miter;stroke-opacity:1" d="M 534.544,696.184 522.812,702.702 z" id="boundary" inkscape:connector-curvature="0" />
	<path style="fill:none;stroke:red;stroke-width:1px;stroke-linecap:butt;stroke-linejoin:miter;stroke-opacity:1" d="M 522.812,702.702 509.777,702.702 z" id="boundary" inkscape:connector-curvature="0" />
	<path style="fill:none;stroke:red;stroke-width:1px;stroke-linecap:butt;stroke-linejoin:miter;stroke-opacity:1" d="M 509.777,702.702 498.045,709.219 z" id="boundary" inkscape:connector-curvature="0" />
	<path style="fill:none;stroke:red;stroke-width:1px;stroke-linecap:butt;stroke-linejoin:miter;stroke-opacity:1" d="M 498.045,709.219 485.009,709.219 z" id="boundary" inkscape:connector-curvature="0" />
	<path style="fill:none;stroke:red;stroke-width:1px;stroke-linecap:butt;stroke-linejoin:miter;stroke-opacity:1" d="M 485.009,709.219 473.277,715.737 z" id="boundary" inkscape:connector-curvature="0" />
	<path style="fill:none;stroke:red;stroke-width:1px;stroke-linecap:butt;stroke-linejoin:miter;stroke-opacity:1" d="M 473.277,715.737 460.242,715.737 z" id="boundary" inkscape:connector-curvature="0" />
	<path style="fill:none;stroke:red;stroke-width:1px;stroke-linecap:butt;stroke-linejoin:miter;stroke-opacity:1" d="M 460.242,715.737 447.206,715.737 z" id="boundary" inkscape:connector-curvature="0" />
	<path style="fill:none;stroke:red;stroke-width:1px;stroke-linecap:butt;stroke-linejoin:miter;stroke-opacity:1" d="M 447.206,715.737 435.474,722.255 z" id="boundary" inkscape:connector-curvature="0" />
	<path style="fill:none;stroke:red;stroke-width:1px;stroke-linecap:butt;stroke-linejoin:miter;stroke-opacity:1" d="M 435.474,722.255 422.439,722.255 z" id="boundary" inkscape:connector-curvature="0" />
	<path style="fill:none;stroke:red;stroke-width:1px;stroke-linecap:butt;stroke-linejoin:miter;stroke-opacity:1" d="M 422.439,722.255 409.403,722.255 z" id="boundary" inkscape:connector-curvature="0" />
	<path style="fill:none;stroke:red;stroke-width:1px;stroke-linecap:butt;stroke-linejoin:miter;stroke-opacity:1" d="M 409.403,722.255 396.368,722.255 z" id="boundary" inkscape:connector-curvature="0" />
	<path style="fill:none;stroke:red;stroke-width:1px;stroke-linecap:butt;stroke-linejoin:miter;stroke-opacity:1" d="M 396.368,722.255 383.332,728.773 z" id="boundary" inkscape:connector-curvature="0" />
	<path style="fill:none;stroke:red;stroke-width:1px;stroke-linecap:butt;stroke-linejoin:miter;stroke-opacity:1" d="M 383.332,728.773 370.297,728.773 z" id="boundary" inkscape:connector-curvature="0" />
	<path style="fill:none;stroke:red;stroke-width:1px;stroke-linecap:butt;stroke-linejoin:miter;stroke-opacity:1" d="M 370.297,728.773 357.261,735.29 z" id="boundary" inkscape:connector-curvature="0" />
	<path style="fill:none;stroke:red;stroke-width:1px;stroke-linecap:butt;stroke-linejoin:miter;stroke-opacity:1" d="M 357.261,735.29 344.226,735.29 z" id="boundary" inkscape:connector-curvature="0" />
	<path style="fill:none;stroke:red;stroke-width:1px;stroke-linecap:butt;stroke-linejoin:miter;stroke-opacity:1" d="M 344.226,735.29 332.494,741.808 z" id="boundary" inkscape:connector-curvature="0" />
	<path style="fill:none;stroke:red;stroke-width:1px;stroke-linecap:butt;stroke-linejoin:miter;stroke-opacity:1" d="M 332.494,741.808 319.459,741.808 z" id="boundary" inkscape:connector-curvature="0" />
	<path style="fill:none;stroke:red;stroke-width:1px;stroke-linecap:butt;stroke-linejoin:miter;stroke-opacity:1" d="M 319.459,741.808 307.727,748.326 z" id="boundary" inkscape:connector-curvature="0" />
	<path style="fill:none;stroke:red;stroke-width:1px;stroke-linecap:butt;stroke-linejoin:miter;stroke-opacity:1" d="M 307.727,748.326 294.691,748.326 z" id="boundary" inkscape:connector-curvature="0" />
	<path style="fill:none;stroke:red;stroke-width:1px;stroke-linecap:butt;stroke-linejoin:miter;stroke-opacity:1" d="M 294.691,748.326 281.656,748.326 z" id="boundary" inkscape:connector-curvature="0" />
	<path style="fill:none;stroke:red;stroke-width:1px;stroke-linecap:butt;stroke-linejoin:miter;stroke-opacity:1" d="M 281.656,748.326 268.62,748.326 z" id="boundary" inkscape:connector-curvature="0" />
	<path style="fill:none;stroke:red;stroke-width:1px;stroke-linecap:butt;stroke-linejoin:miter;stroke-opacity:1" d="M 268.62,748.326 255.585,748.326 z" id="boundary" inkscape:connector-curvature="0" />
	<path style="fill:none;stroke:red;stroke-width:1px;stroke-linecap:butt;stroke-linejoin:miter;stroke-opacity:1" d="M 255.585,748.326 242.549,748.326 z" id="boundary" inkscape:connector-curvature="0" />
	<path style="fill:none;stroke:red;stroke-width:1px;stroke-linecap:butt;stroke-linejoin:miter;stroke-opacity:1" d="M 242.549,748.326 229.514,748.326 z" id="boundary" inkscape:connector-curvature="0" />
	<path style="fill:none;stroke:red;stroke-width:1px;stroke-linecap:butt;stroke-linejoin:miter;stroke-opacity:1" d="M 229.514,748.326 216.478,748.326 z" id="boundary" inkscape:connector-curvature="0" />
	<path style="fill:none;stroke:red;stroke-width:1px;stroke-linecap:butt;stroke-linejoin:miter;stroke-opacity:1" d="M 216.478,748.326 203.443,748.326 z" id="boundary" inkscape:connector-curvature="0" />
	<path style="fill:none;stroke:red;stroke-width:1px;stroke-linecap:butt;stroke-linejoin:miter;stroke-opacity:1" d="M 203.443,748.326 191.711,754.844 z" id="boundary" inkscape:connector-curvature="0" />
	<path style="fill:none;stroke:red;stroke-width:1px;stroke-linecap:butt;stroke-linejoin:miter;stroke-opacity:1" d="M 191.711,754.844 178.675,758.754 z" id="boundary" inkscape:connector-curvature="0" />
	<path style="fill:none;stroke:red;stroke-width:1px;stroke-linecap:butt;stroke-linejoin:miter;stroke-opacity:1" d="M 178.675,758.754 165.64,765.272 z" id="boundary" inkscape:connector-curvature="0" />
	<path style="fill:none;stroke:red;stroke-width:1px;stroke-linecap:butt;stroke-linejoin:miter;stroke-opacity:1" d="M 165.64,765.272 155.212,774.397 z" id="boundary" inkscape:connector-curvature="0" />
	<path style="fill:none;stroke:red;stroke-width:1px;stroke-linecap:butt;stroke-linejoin:miter;stroke-opacity:1" d="M 155.212,774.397 142.176,774.397 z" id="boundary" inkscape:connector-curvature="0" />
	<path style="fill:none;stroke:red;stroke-width:1px;stroke-linecap:butt;stroke-linejoin:miter;stroke-opacity:1" d="M 142.176,774.397 131.748,786.129 z" id="boundary" inkscape:connector-curvature="0" />
	<path style="fill:none;stroke:red;stroke-width:1px;stroke-linecap:butt;stroke-linejoin:miter;stroke-opacity:1" d="M 131.748,786.129 118.712,792.647 z" id="boundary" inkscape:connector-curvature="0" />
	<path style="fill:none;stroke:red;stroke-width:1px;stroke-linecap:butt;stroke-linejoin:miter;stroke-opacity:1" d="M 118.712,792.647 108.284,783.522 z" id="boundary" inkscape:connector-curvature="0" />
	<path style="fill:none;stroke:red;stroke-width:1px;stroke-linecap:butt;stroke-linejoin:miter;stroke-opacity:1" d="M 108.284,783.522 108.284,770.486 z" id="boundary" inkscape:connector-curvature="0" />
	<path style="fill:none;stroke:red;stroke-width:1px;stroke-linecap:butt;stroke-linejoin:miter;stroke-opacity:1" d="M 108.284,770.486 108.284,757.451 z" id="boundary" inkscape:connector-curvature="0" />
	<path style="fill:none;stroke:red;stroke-width:1px;stroke-linecap:butt;stroke-linejoin:miter;stroke-opacity:1" d="M 108.284,757.451 114.802,733.987 z" id="boundary" inkscape:connector-curvature="0" />
	<path style="fill:none;stroke:red;stroke-width:1px;stroke-linecap:butt;stroke-linejoin:miter;stroke-opacity:1" d="M 114.802,733.987 114.802,720.951 z" id="boundary" inkscape:connector-curvature="0" />
	<path style="fill:none;stroke:red;stroke-width:1px;stroke-linecap:butt;stroke-linejoin:miter;stroke-opacity:1" d="M 114.802,720.951 114.802,707.916 z" id="boundary" inkscape:connector-curvature="0" />
	<path style="fill:none;stroke:red;stroke-width:1px;stroke-linecap:butt;stroke-linejoin:miter;stroke-opacity:1" d="M 114.802,707.916 110.891,694.88 z" id="boundary" inkscape:connector-curvature="0" />
	<path style="fill:none;stroke:red;stroke-width:1px;stroke-linecap:butt;stroke-linejoin:miter;stroke-opacity:1" d="M 110.891,694.88 108.284,681.845 z" id="boundary" inkscape:connector-curvature="0" />
	<path style="fill:none;stroke:red;stroke-width:1px;stroke-linecap:butt;stroke-linejoin:miter;stroke-opacity:1" d="M 108.284,681.845 105.677,668.809 z" id="boundary" inkscape:connector-curvature="0" />
	<path style="fill:none;stroke:red;stroke-width:1px;stroke-linecap:butt;stroke-linejoin:miter;stroke-opacity:1" d="M 105.677,668.809 99.159,657.078 z" id="boundary" inkscape:connector-curvature="0" />
	<path style="fill:none;stroke:red;stroke-width:1px;stroke-linecap:butt;stroke-linejoin:miter;stroke-opacity:1" d="M 99.159,657.078 93.9448,644.042 z" id="boundary" inkscape:connector-curvature="0" />
	<path style="fill:none;stroke:red;stroke-width:1px;stroke-linecap:butt;stroke-linejoin:miter;stroke-opacity:1" d="M 93.9448,644.042 83.5164,634.917 z" id="boundary" inkscape:connector-curvature="0" />
	<path style="fill:none;stroke:red;stroke-width:1px;stroke-linecap:butt;stroke-linejoin:miter;stroke-opacity:1" d="M 83.5164,634.917 82.2129,621.882 z" id="boundary" inkscape:connector-curvature="0" />
	<path style="fill:none;stroke:red;stroke-width:1px;stroke-linecap:butt;stroke-linejoin:miter;stroke-opacity:1" d="M 82.2129,621.882 76.9987,608.846 z" id="boundary" inkscape:connector-curvature="0" />
	<path style="fill:none;stroke:red;stroke-width:1px;stroke-linecap:butt;stroke-linejoin:miter;stroke-opacity:1" d="M 76.9987,608.846 75.6951,595.811 z" id="boundary" inkscape:connector-curvature="0" />
	<path style="fill:none;stroke:red;stroke-width:1px;stroke-linecap:butt;stroke-linejoin:miter;stroke-opacity:1" d="M 75.6951,595.811 69.1774,584.079 z" id="boundary" inkscape:connector-curvature="0" />
	<path style="fill:none;stroke:red;stroke-width:1px;stroke-linecap:butt;stroke-linejoin:miter;stroke-opacity:1" d="M 69.1774,584.079 62.6597,572.347 z" id="boundary" inkscape:connector-curvature="0" />
	<path style="fill:none;stroke:red;stroke-width:1px;stroke-linecap:butt;stroke-linejoin:miter;stroke-opacity:1" d="M 62.6597,572.347 60.0526,559.311 z" id="boundary" inkscape:connector-curvature="0" />
	<path style="fill:none;stroke:red;stroke-width:1px;stroke-linecap:butt;stroke-linejoin:miter;stroke-opacity:1" d="M 60.0526,559.311 56.1419,546.276 z" id="boundary" inkscape:connector-curvature="0" />
	<path style="fill:none;stroke:red;stroke-width:1px;stroke-linecap:butt;stroke-linejoin:miter;stroke-opacity:1" d="M 56.1419,546.276 56.1419,533.24 z" id="boundary" inkscape:connector-curvature="0" />
	<path style="fill:none;stroke:red;stroke-width:1px;stroke-linecap:butt;stroke-linejoin:miter;stroke-opacity:1" d="M 56.1419,533.24 56.1419,520.205 z" id="boundary" inkscape:connector-curvature="0" />
	<path style="fill:none;stroke:red;stroke-width:1px;stroke-linecap:butt;stroke-linejoin:miter;stroke-opacity:1" d="M 56.1419,520.205 56.1419,507.17 z" id="boundary" inkscape:connector-curvature="0" />
	<path style="fill:none;stroke:red;stroke-width:1px;stroke-linecap:butt;stroke-linejoin:miter;stroke-opacity:1" d="M 56.1419,507.17 56.1419,494.134 z" id="boundary" inkscape:connector-curvature="0" />
	<path style="fill:none;stroke:red;stroke-width:1px;stroke-linecap:butt;stroke-linejoin:miter;stroke-opacity:1" d="M 56.1419,494.134 49.6242,482.402 z" id="boundary" inkscape:connector-curvature="0" />
	<path style="fill:none;stroke:red;stroke-width:1px;stroke-linecap:butt;stroke-linejoin:miter;stroke-opacity:1" d="M 49.6242,482.402 43.1064,470.67 z" id="boundary" inkscape:connector-curvature="0" />
	<path style="fill:none;stroke:red;stroke-width:1px;stroke-linecap:butt;stroke-linejoin:miter;stroke-opacity:1" d="M 43.1064,470.67 37.8922,457.635 z" id="boundary" inkscape:connector-curvature="0" />
	<path style="fill:none;stroke:red;stroke-width:1px;stroke-linecap:butt;stroke-linejoin:miter;stroke-opacity:1" d="M 37.8922,457.635 31.3745,445.903 z" id="boundary" inkscape:connector-curvature="0" />
	<path style="fill:none;stroke:red;stroke-width:1px;stroke-linecap:butt;stroke-linejoin:miter;stroke-opacity:1" d="M 31.3745,445.903 30.071,432.867 z" id="boundary" inkscape:connector-curvature="0" />
	<path style="fill:none;stroke:red;stroke-width:1px;stroke-linecap:butt;stroke-linejoin:miter;stroke-opacity:1" d="M 30.071,432.867 30.071,419.832 z" id="boundary" inkscape:connector-curvature="0" />
	<path style="fill:none;stroke:red;stroke-width:1px;stroke-linecap:butt;stroke-linejoin:miter;stroke-opacity:1" d="M 30.071,419.832 23.5532,408.1 z" id="boundary" inkscape:connector-curvature="0" />
	<path style="fill:none;stroke:red;stroke-width:1px;stroke-linecap:butt;stroke-linejoin:miter;stroke-opacity:1" d="M 23.5532,408.1 17.0355,396.368 z" id="boundary" inkscape:connector-curvature="0" />
	<path style="fill:none;stroke:red;stroke-width:1px;stroke-linecap:butt;stroke-linejoin:miter;stroke-opacity:1" d="M 17.0355,396.368 10.5177,384.636 z" id="boundary" inkscape:connector-curvature="0" />
	<path style="fill:none;stroke:red;stroke-width:1px;stroke-linecap:butt;stroke-linejoin:miter;stroke-opacity:1" d="M 10.5177,384.636 10.5177,371.601 z" id="boundary" inkscape:connector-curvature="0" />
	<path style="fill:none;stroke:red;stroke-width:1px;stroke-linecap:butt;stroke-linejoin:miter;stroke-opacity:1" d="M 10.5177,371.601 4,359.869 z" id="boundary" inkscape:connector-curvature="0" />
	<path style="fill:none;stroke:red;stroke-width:1px;stroke-linecap:butt;stroke-linejoin:miter;stroke-opacity:1" d="M 4,359.869 4,346.833 z" id="boundary" inkscape:connector-curvature="0" />
	<path style="fill:none;stroke:red;stroke-width:1px;stroke-linecap:butt;stroke-linejoin:miter;stroke-opacity:1" d="M 4,346.833 4,333.798 z" id="boundary" inkscape:connector-curvature="0" />
	<path style="fill:none;stroke:red;stroke-width:1px;stroke-linecap:butt;stroke-linejoin:miter;stroke-opacity:1" d="M 4,333.798 4,320.762 z" id="boundary" inkscape:connector-curvature="0" />
	<path style="fill:none;stroke:red;stroke-width:1px;stroke-linecap:butt;stroke-linejoin:miter;stroke-opacity:1" d="M 4,320.762 4,307.727 z" id="boundary" inkscape:connector-curvature="0" />
	<path style="fill:none;stroke:red;stroke-width:1px;stroke-linecap:butt;stroke-linejoin:miter;stroke-opacity:1" d="M 4,307.727 4,294.691 z" id="boundary" inkscape:connector-curvature="0" />
	<path style="fill:none;stroke:red;stroke-width:1px;stroke-linecap:butt;stroke-linejoin:miter;stroke-opacity:1" d="M 4,294.691 4,281.656 z" id="boundary" inkscape:connector-curvature="0" />
	<path style="fill:none;stroke:red;stroke-width:1px;stroke-linecap:butt;stroke-linejoin:miter;stroke-opacity:1" d="M 4,281.656 4,268.62 z" id="boundary" inkscape:connector-curvature="0" />
	<path style="fill:none;stroke:red;stroke-width:1px;stroke-linecap:butt;stroke-linejoin:miter;stroke-opacity:1" d="M 4,268.62 4,255.585 z" id="boundary" inkscape:connector-curvature="0" />
	<path style="fill:none;stroke:red;stroke-width:1px;stroke-linecap:butt;stroke-linejoin:miter;stroke-opacity:1" d="M 4,255.585 14.4284,245.156 z" id="boundary" inkscape:connector-curvature="0" />
	<path style="fill:none;stroke:red;stroke-width:1px;stroke-linecap:butt;stroke-linejoin:miter;stroke-opacity:1" d="M 14.4284,245.156 24.8568,234.728 z" id="boundary" inkscape:connector-curvature="0" />
	<path style="fill:none;stroke:red;stroke-width:1px;stroke-linecap:butt;stroke-linejoin:miter;stroke-opacity:1" d="M 24.8568,234.728 31.3745,221.693 z" id="boundary" inkscape:connector-curvature="0" />
	<path style="fill:none;stroke:red;stroke-width:1px;stroke-linecap:butt;stroke-linejoin:miter;stroke-opacity:1" d="M 31.3745,221.693 41.8029,212.568 z" id="boundary" inkscape:connector-curvature="0" />
	<path style="fill:none;stroke:red;stroke-width:1px;stroke-linecap:butt;stroke-linejoin:miter;stroke-opacity:1" d="M 41.8029,212.568 54.8384,212.568 z" id="boundary" inkscape:connector-curvature="0" />
	<path style="fill:none;stroke:red;stroke-width:1px;stroke-linecap:butt;stroke-linejoin:miter;stroke-opacity:1" d="M 54.8384,212.568 60.0526,199.532 z" id="boundary" inkscape:connector-curvature="0" />
	<path style="fill:none;stroke:red;stroke-width:1px;stroke-linecap:butt;stroke-linejoin:miter;stroke-opacity:1" d="M 60.0526,199.532 71.7845,193.014 z" id="boundary" inkscape:connector-curvature="0" />
	<path style="fill:none;stroke:red;stroke-width:1px;stroke-linecap:butt;stroke-linejoin:miter;stroke-opacity:1" d="M 71.7845,193.014 83.5164,186.497 z" id="boundary" inkscape:connector-curvature="0" />
	<path style="fill:none;stroke:red;stroke-width:1px;stroke-linecap:butt;stroke-linejoin:miter;stroke-opacity:1" d="M 83.5164,186.497 96.5519,186.497 z" id="boundary" inkscape:connector-curvature="0" />
	<path style="fill:none;stroke:red;stroke-width:1px;stroke-linecap:butt;stroke-linejoin:miter;stroke-opacity:1" d="M 96.5519,186.497 108.284,177.372 z" id="boundary" inkscape:connector-curvature="0" />
	<path style="fill:none;stroke:red;stroke-width:1px;stroke-linecap:butt;stroke-linejoin:miter;stroke-opacity:1" d="M 108.284,177.372 121.319,170.854 z" id="boundary" inkscape:connector-curvature="0" />
	<path style="fill:none;stroke:red;stroke-width:1px;stroke-linecap:butt;stroke-linejoin:miter;stroke-opacity:1" d="M 121.319,170.854 134.355,164.336 z" id="boundary" inkscape:connector-curvature="0" />
	<path style="fill:none;stroke:red;stroke-width:1px;stroke-linecap:butt;stroke-linejoin:miter;stroke-opacity:1" d="M 134.355,164.336 147.39,160.426 z" id="boundary" inkscape:connector-curvature="0" />
	<path style="fill:none;stroke:red;stroke-width:1px;stroke-linecap:butt;stroke-linejoin:miter;stroke-opacity:1" d="M 147.39,160.426 160.426,157.819 z" id="boundary" inkscape:connector-curvature="0" />
	<path style="fill:none;stroke:red;stroke-width:1px;stroke-linecap:butt;stroke-linejoin:miter;stroke-opacity:1" d="M 160.426,157.819 173.461,153.908 z" id="boundary" inkscape:connector-curvature="0" />
	<path style="fill:none;stroke:red;stroke-width:1px;stroke-linecap:butt;stroke-linejoin:miter;stroke-opacity:1" d="M 173.461,153.908 186.497,151.301 z" id="boundary" inkscape:connector-curvature="0" />
	<path style="fill:none;stroke:red;stroke-width:1px;stroke-linecap:butt;stroke-linejoin:miter;stroke-opacity:1" d="M 186.497,151.301 199.532,147.39 z" id="boundary" inkscape:connector-curvature="0" />
	<path style="fill:none;stroke:red;stroke-width:1px;stroke-linecap:butt;stroke-linejoin:miter;stroke-opacity:1" d="M 199.532,147.39 212.568,147.39 z" id="boundary" inkscape:connector-curvature="0" />
	<path style="fill:none;stroke:red;stroke-width:1px;stroke-linecap:butt;stroke-linejoin:miter;stroke-opacity:1" d="M 212.568,147.39 224.3,140.873 z" id="boundary" inkscape:connector-curvature="0" />
	<path style="fill:none;stroke:red;stroke-width:1px;stroke-linecap:butt;stroke-linejoin:miter;stroke-opacity:1" d="M 224.3,140.873 237.335,140.873 z" id="boundary" inkscape:connector-curvature="0" />
	<path style="fill:none;stroke:red;stroke-width:1px;stroke-linecap:butt;stroke-linejoin:miter;stroke-opacity:1" d="M 237.335,140.873 250.371,140.873 z" id="boundary" inkscape:connector-curvature="0" />
	<path style="fill:none;stroke:red;stroke-width:1px;stroke-linecap:butt;stroke-linejoin:miter;stroke-opacity:1" d="M 250.371,140.873 263.406,140.873 z" id="boundary" inkscape:connector-curvature="0" />
	<path style="fill:none;stroke:red;stroke-width:1px;stroke-linecap:butt;stroke-linejoin:miter;stroke-opacity:1" d="M 263.406,140.873 275.138,147.39 z" id="boundary" inkscape:connector-curvature="0" />
	<path style="fill:none;stroke:red;stroke-width:1px;stroke-linecap:butt;stroke-linejoin:miter;stroke-opacity:1" d="M 275.138,147.39 288.173,147.39 z" id="boundary" inkscape:connector-curvature="0" />
	<path style="fill:none;stroke:red;stroke-width:1px;stroke-linecap:butt;stroke-linejoin:miter;stroke-opacity:1" d="M 288.173,147.39 299.905,153.908 z" id="boundary" inkscape:connector-curvature="0" />
	<path style="fill:none;stroke:red;stroke-width:1px;stroke-linecap:butt;stroke-linejoin:miter;stroke-opacity:1" d="M 299.905,153.908 311.637,160.426 z" id="boundary" inkscape:connector-curvature="0" />
	<path style="fill:none;stroke:red;stroke-width:1px;stroke-linecap:butt;stroke-linejoin:miter;stroke-opacity:1" d="M 311.637,160.426 324.673,164.336 z" id="boundary" inkscape:connector-curvature="0" />
	<path style="fill:none;stroke:red;stroke-width:1px;stroke-linecap:butt;stroke-linejoin:miter;stroke-opacity:1" d="M 324.673,164.336 337.708,166.943 z" id="boundary" inkscape:connector-curvature="0" />
	<path style="fill:none;stroke:red;stroke-width:1px;stroke-linecap:butt;stroke-linejoin:miter;stroke-opacity:1" d="M 337.708,166.943 349.44,157.819 z" id="boundary" inkscape:connector-curvature="0" />
	<path style="fill:none;stroke:red;stroke-width:1px;stroke-linecap:butt;stroke-linejoin:miter;stroke-opacity:1" d="M 349.44,157.819 355.958,144.783 z" id="boundary" inkscape:connector-curvature="0" />
	<path style="fill:none;stroke:red;stroke-width:1px;stroke-linecap:butt;stroke-linejoin:miter;stroke-opacity:1" d="M 355.958,144.783 368.993,138.265 z" id="boundary" inkscape:connector-curvature="0" />
	<path style="fill:none;stroke:red;stroke-width:1px;stroke-linecap:butt;stroke-linejoin:miter;stroke-opacity:1" d="M 368.993,138.265 379.422,127.837 z" id="boundary" inkscape:connector-curvature="0" />
	<path style="fill:none;stroke:red;stroke-width:1px;stroke-linecap:butt;stroke-linejoin:miter;stroke-opacity:1" d="M 379.422,127.837 391.154,121.319 z" id="boundary" inkscape:connector-curvature="0" />
	<path style="fill:none;stroke:red;stroke-width:1px;stroke-linecap:butt;stroke-linejoin:miter;stroke-opacity:1" d="M 391.154,121.319 402.886,114.802 z" id="boundary" inkscape:connector-curvature="0" />
	<path style="fill:none;stroke:red;stroke-width:1px;stroke-linecap:butt;stroke-linejoin:miter;stroke-opacity:1" d="M 402.886,114.802 414.618,108.284 z" id="boundary" inkscape:connector-curvature="0" />
	<path style="fill:none;stroke:red;stroke-width:1px;stroke-linecap:butt;stroke-linejoin:miter;stroke-opacity:1" d="M 414.618,108.284 427.653,108.284 z" id="boundary" inkscape:connector-curvature="0" />
	<path style="fill:none;stroke:red;stroke-width:1px;stroke-linecap:butt;stroke-linejoin:miter;stroke-opacity:1" d="M 427.653,108.284 440.689,108.284 z" id="boundary" inkscape:connector-curvature="0" />
	<path style="fill:none;stroke:red;stroke-width:1px;stroke-linecap:butt;stroke-linejoin:miter;stroke-opacity:1" d="M 440.689,108.284 453.724,110.891 z" id="boundary" inkscape:connector-curvature="0" />
	<path style="fill:none;stroke:red;stroke-width:1px;stroke-linecap:butt;stroke-linejoin:miter;stroke-opacity:1" d="M 453.724,110.891 455.028,123.926 z" id="boundary" inkscape:connector-curvature="0" />
	<path style="fill:none;stroke:red;stroke-width:1px;stroke-linecap:butt;stroke-linejoin:miter;stroke-opacity:1" d="M 455.028,123.926 462.849,134.355 z" id="boundary" inkscape:connector-curvature="0" />
	<path style="fill:none;stroke:red;stroke-width:1px;stroke-linecap:butt;stroke-linejoin:miter;stroke-opacity:1" d="M 462.849,134.355 475.884,134.355 z" id="boundary" inkscape:connector-curvature="0" />
	<path style="fill:none;stroke:red;stroke-width:1px;stroke-linecap:butt;stroke-linejoin:miter;stroke-opacity:1" d="M 475.884,134.355 482.402,122.623 z" id="boundary" inkscape:connector-curvature="0" />
	<path style="fill:none;stroke:red;stroke-width:1px;stroke-linecap:butt;stroke-linejoin:miter;stroke-opacity:1" d="M 482.402,122.623 492.83,112.194 z" id="boundary" inkscape:connector-curvature="0" />
	<path style="fill:none;stroke:red;stroke-width:1px;stroke-linecap:butt;stroke-linejoin:miter;stroke-opacity:1" d="M 492.83,112.194 505.866,105.677 z" id="boundary" inkscape:connector-curvature="0" />
	<path style="fill:none;stroke:red;stroke-width:1px;stroke-linecap:butt;stroke-linejoin:miter;stroke-opacity:1" d="M 505.866,105.677 516.294,95.2484 z" id="boundary" inkscape:connector-curvature="0" />
	<path style="fill:none;stroke:red;stroke-width:1px;stroke-linecap:butt;stroke-linejoin:miter;stroke-opacity:1" d="M 516.294,95.2484 526.723,84.82 z" id="boundary" inkscape:connector-curvature="0" />
	<path style="fill:none;stroke:red;stroke-width:1px;stroke-linecap:butt;stroke-linejoin:miter;stroke-opacity:1" d="M 526.723,84.82 539.758,78.3022 z" id="boundary" inkscape:connector-curvature="0" />
	<path style="fill:none;stroke:red;stroke-width:1px;stroke-linecap:butt;stroke-linejoin:miter;stroke-opacity:1" d="M 539.758,78.3022 550.187,69.1774 z" id="boundary" inkscape:connector-curvature="0" />
	<path style="fill:none;stroke:red;stroke-width:1px;stroke-linecap:butt;stroke-linejoin:miter;stroke-opacity:1" d="M 550.187,69.1774 559.311,58.749 z" id="boundary" inkscape:connector-curvature="0" />
	<path style="fill:none;stroke:red;stroke-width:1px;stroke-linecap:butt;stroke-linejoin:miter;stroke-opacity:1" d="M 559.311,58.749 572.347,56.1419 z" id="boundary" inkscape:connector-curvature="0" />
	<path style="fill:none;stroke:red;stroke-width:1px;stroke-linecap:butt;stroke-linejoin:miter;stroke-opacity:1" d="M 572.347,56.1419 584.079,47.0171 z" id="boundary" inkscape:connector-curvature="0" />
	<path style="fill:none;stroke:red;stroke-width:1px;stroke-linecap:butt;stroke-linejoin:miter;stroke-opacity:1" d="M 584.079,47.0171 597.114,40.4993 z" id="boundary" inkscape:connector-curvature="0" />
	<path style="fill:none;stroke:red;stroke-width:1px;stroke-linecap:butt;stroke-linejoin:miter;stroke-opacity:1" d="M 597.114,40.4993 610.15,33.9816 z" id="boundary" inkscape:connector-curvature="0" />
	<path style="fill:none;stroke:red;stroke-width:1px;stroke-linecap:butt;stroke-linejoin:miter;stroke-opacity:1" d="M 610.15,33.9816 623.185,30.071 z" id="boundary" inkscape:connector-curvature="0" />
	<path style="fill:none;stroke:red;stroke-width:1px;stroke-linecap:butt;stroke-linejoin:miter;stroke-opacity:1" d="M 623.185,30.071 634.917,23.5532 z" id="boundary" inkscape:connector-curvature="0" />
	<path style="fill:none;stroke:red;stroke-width:1px;stroke-linecap:butt;stroke-linejoin:miter;stroke-opacity:1" d="M 634.917,23.5532 646.649,17.0355 z" id="boundary" inkscape:connector-curvature="0" />
	<path style="fill:none;stroke:red;stroke-width:1px;stroke-linecap:butt;stroke-linejoin:miter;stroke-opacity:1" d="M 646.649,17.0355 659.685,10.5177 z" id="boundary" inkscape:connector-curvature="0" />
	<path style="fill:none;stroke:red;stroke-width:1px;stroke-linecap:butt;stroke-linejoin:miter;stroke-opacity:1" d="M 659.685,10.5177 671.417,4 z" id="boundary" inkscape:connector-curvature="0" />
	<path style="fill:none;stroke:red;stroke-width:1px;stroke-linecap:butt;stroke-linejoin:miter;stroke-opacity:1" d="M 671.417,4 684.452,4 z" id="boundary" inkscape:connector-curvature="0" />
	<path style="fill:none;stroke:red;stroke-width:1px;stroke-linecap:butt;stroke-linejoin:miter;stroke-opacity:1" d="M 684.452,4 697.488,4 z" id="boundary" inkscape:connector-curvature="0" />
	<path style="fill:none;stroke:red;stroke-width:1px;stroke-linecap:butt;stroke-linejoin:miter;stroke-opacity:1" d="M 697.488,4 710.523,4 z" id="boundary" inkscape:connector-curvature="0" />
	<path style="fill:none;stroke:red;stroke-width:1px;stroke-linecap:butt;stroke-linejoin:miter;stroke-opacity:1" d="M 710.523,4 723.558,4 z" id="boundary" inkscape:connector-curvature="0" />
	<path style="fill:none;stroke:red;stroke-width:1px;stroke-linecap:butt;stroke-linejoin:miter;stroke-opacity:1" d="M 723.558,4 736.594,4 z" id="boundary" inkscape:connector-curvature="0" />
	<path style="fill:none;stroke:red;stroke-width:1px;stroke-linecap:butt;stroke-linejoin:miter;stroke-opacity:1" d="M 736.594,4 749.629,4 z" id="boundary" inkscape:connector-curvature="0" />
	<path style="fill:none;stroke:red;stroke-width:1px;stroke-linecap:butt;stroke-linejoin:miter;stroke-opacity:1" d="M 749.629,4 762.665,4 z" id="boundary" inkscape:connector-curvature="0" />
	<path style="fill:none;stroke:red;stroke-width:1px;stroke-linecap:butt;stroke-linejoin:miter;stroke-opacity:1" d="M 762.665,4 775.7,4 z" id="boundary" inkscape:connector-curvature="0" />
	<path style="fill:none;stroke:red;stroke-width:1px;stroke-linecap:butt;stroke-linejoin:miter;stroke-opacity:1" d="M 775.7,4 788.736,4 z" id="boundary" inkscape:connector-curvature="0" />
	<path style="fill:none;stroke:red;stroke-width:1px;stroke-linecap:butt;stroke-linejoin:miter;stroke-opacity:1" d="M 788.736,4 801.771,4 z" id="boundary" inkscape:connector-curvature="0" />
	<path style="fill:none;stroke:red;stroke-width:1px;stroke-linecap:butt;stroke-linejoin:miter;stroke-opacity:1" d="M 801.771,4 814.807,4 z" id="boundary" inkscape:connector-curvature="0" />
	<path style="fill:none;stroke:red;stroke-width:1px;stroke-linecap:butt;stroke-linejoin:miter;stroke-opacity:1" d="M 814.807,4 827.842,4 z" id="boundary" inkscape:connector-curvature="0" />
	<path style="fill:none;stroke:red;stroke-width:1px;stroke-linecap:butt;stroke-linejoin:miter;stroke-opacity:1" d="M 827.842,4 840.878,4 z" id="boundary" inkscape:connector-curvature="0" />
	<path style="fill:none;stroke:red;stroke-width:1px;stroke-linecap:butt;stroke-linejoin:miter;stroke-opacity:1" d="M 840.878,4 853.913,4 z" id="boundary" inkscape:connector-curvature="0" />
	<path style="fill:none;stroke:red;stroke-width:1px;stroke-linecap:butt;stroke-linejoin:miter;stroke-opacity:1" d="M 853.913,4 866.949,4 z" id="boundary" inkscape:connector-curvature="0" />
	<path style="fill:none;stroke:red;stroke-width:1px;stroke-linecap:butt;stroke-linejoin:miter;stroke-opacity:1" d="M 866.949,4 878.681,10.5177 z" id="boundary" inkscape:connector-curvature="0" />
	<path style="fill:none;stroke:red;stroke-width:1px;stroke-linecap:butt;stroke-linejoin:miter;stroke-opacity:1" d="M 878.681,10.5177 891.716,14.4284 z" id="boundary" inkscape:connector-curvature="0" />
	<path style="fill:none;stroke:red;stroke-width:1px;stroke-linecap:butt;stroke-linejoin:miter;stroke-opacity:1" d="M 891.716,14.4284 903.448,20.9461 z" id="boundary" inkscape:connector-curvature="0" />
	<path style="fill:none;stroke:red;stroke-width:1px;stroke-linecap:butt;stroke-linejoin:miter;stroke-opacity:1" d="M 903.448,20.9461 913.876,30.071 z" id="boundary" inkscape:connector-curvature="0" />
	<path style="fill:none;stroke:red;stroke-width:1px;stroke-linecap:butt;stroke-linejoin:miter;stroke-opacity:1" d="M 913.876,30.071 925.608,36.5887 z" id="boundary" inkscape:connector-curvature="0" />
	<path style="fill:none;stroke:red;stroke-width:1px;stroke-linecap:butt;stroke-linejoin:miter;stroke-opacity:1" d="M 925.608,36.5887 936.037,45.7135 z" id="boundary" inkscape:connector-curvature="0" />
	<path style="fill:none;stroke:red;stroke-width:1px;stroke-linecap:butt;stroke-linejoin:miter;stroke-opacity:1" d="M 936.037,45.7135 947.769,52.2313 z" id="boundary" inkscape:connector-curvature="0" />
	<path style="fill:none;stroke:red;stroke-width:1px;stroke-linecap:butt;stroke-linejoin:miter;stroke-opacity:1" d="M 947.769,52.2313 956.894,62.6597 z" id="boundary" inkscape:connector-curvature="0" />
	<path style="fill:none;stroke:red;stroke-width:1px;stroke-linecap:butt;stroke-linejoin:miter;stroke-opacity:1" d="M 956.894,62.6597 963.411,74.3916 z" id="boundary" inkscape:connector-curvature="0" />
	<path style="fill:none;stroke:red;stroke-width:1px;stroke-linecap:butt;stroke-linejoin:miter;stroke-opacity:1" d="M 963.411,74.3916 973.84,83.5164 z" id="boundary" inkscape:connector-curvature="0" />
	<path style="fill:none;stroke:red;stroke-width:1px;stroke-linecap:butt;stroke-linejoin:miter;stroke-opacity:1" d="M 973.84,83.5164 982.965,93.9448 z" id="boundary" inkscape:connector-curvature="0" />
	<path style="fill:none;stroke:red;stroke-width:1px;stroke-linecap:butt;stroke-linejoin:miter;stroke-opacity:1" d="M 982.965,93.9448 982.965,106.98 z" id="boundary" inkscape:connector-curvature="0" />
	<path style="fill:none;stroke:red;stroke-width:1px;stroke-linecap:butt;stroke-linejoin:miter;stroke-opacity:1" d="M 982.965,106.98 989.482,118.712 z" id="boundary" inkscape:connector-curvature="0" />
	<path style="fill:none;stroke:red;stroke-width:1px;stroke-linecap:butt;stroke-linejoin:miter;stroke-opacity:1" d="M 989.482,118.712 989.482,131.748 z" id="boundary" inkscape:connector-curvature="0" />
	<path style="fill:none;stroke:red;stroke-width:1px;stroke-linecap:butt;stroke-linejoin:miter;stroke-opacity:1" d="M 989.482,131.748 996,143.48 z" id="boundary" inkscape:connector-curvature="0" />
	<path style="fill:none;stroke:red;stroke-width:1px;stroke-linecap:butt;stroke-linejoin:miter;stroke-opacity:1" d="M 996,143.48 996,156.515 z" id="boundary" inkscape:connector-curvature="0" />
	<path style="fill:none;stroke:red;stroke-width:1px;stroke-linecap:butt;stroke-linejoin:miter;stroke-opacity:1" d="M 996,156.515 996,169.551 z" id="boundary" inkscape:connector-curvature="0" />
	<circle cx="4" cy="255.585" r="4" fill="#0" id="circle0"/>
	<circle cx="4" cy="268.62" r="4" fill="#0" id="circle1"/>
	<circle cx="4" cy="281.656" r="4" fill="#0" id="circle2"/>
	<circle cx="4" cy="294.691" r="4" fill="#0" id="circle3"/>
	<circle cx="4" cy="307.727" r="4" fill="#0" id="circle4"/>
	<circle cx="4" cy="320.762" r="4" fill="#0" id="circle5"/>
	<circle cx="4" cy="333.798" r="4" fill="#0" id="circle6"/>
	<circle cx="4" cy="346.833" r="4" fill="#0" id="circle7"/>
	<circle cx="4" cy="359.869" r="4" fill="#0" id="circle8"/>
	<circle cx="10.5177" cy="371.601" r="4" fill="#0" id="circle9"/>
	<circle cx="10.5177" cy="384.636" r="4" fill="#0" id="circle10"/>
	<circle cx="14.4284" cy="245.156" r="4" fill="#0" id="circle11"/>
	<circle cx="17.0355" cy="396.368" r="4" fill="#0" id="circle12"/>
	<circle cx="23.5532" cy="408.1" r="4" fill="#0" id="circle13"/>
	<circle cx="24.8568" cy="234.728" r="4" fill="#0" id="circle14"/>
	<circle cx="30.071" cy="419.832" r="4" fill="#0" id="circle15"/>
	<circle cx="30.071" cy="432.867" r="4" fill="#0" id="circle16"/>
	<circle cx="31.3745" cy="221.693" r="4" fill="#0" id="circle17"/>
	<circle cx="31.3745" cy="445.903" r="4" fill="#0" id="circle18"/>
	<circle cx="37.8922" cy="457.635" r="4" fill="#0" id="circle19"/>
	<circle cx="41.8029" cy="212.568" r="4" fill="#0" id="circle20"/>
	<circle cx="43.1064" cy="470.67" r="4" fill="#0" id="circle21"/>
	<circle cx="49.6242" cy="482.402" r="4" fill="#0" id="circle22"/>
	<circle cx="54.8384" cy="212.568" r="4" fill="#0" id="circle23"/>
	<circle cx="56.1419" cy="494.134" r="4" fill="#0" id="circle24"/>
	<circle cx="56.1419" cy="507.17" r="4" fill="#0" id="circle25"/>
	<circle cx="56.1419" cy="520.205" r="4" fill="#0" id="circle26"/>
	<circle cx="56.1419" cy="533.24" r="4" fill="#0" id="circle27"/>
	<circle cx="56.1419" cy="546.276" r="4" fill="#0" id="circle28"/>
	<circle cx="60.0526" cy="199.532" r="4" fill="#0" id="circle29"/>
	<circle cx="60.0526" cy="559.311" r="4" fill="#0" id="circle30"/>
	<circle cx="62.6597" cy="572.347" r="4" fill="#0" id="circle31"/>
	<circle cx="69.1774" cy="584.079" r="4" fill="#0" id="circle32"/>
	<circle cx="71.7845" cy="193.014" r="4" fill="#0" id="circle33"/>
	<circle cx="75.6951" cy="595.811" r="4" fill="#0" id="circle34"/>
	<circle cx="76.9987" cy="608.846" r="4" fill="#0" id="circle35"/>
	<circle cx="82.2129" cy="621.882" r="4" fill="#0" id="circle36"/>
	<circle cx="83.5164" cy="186.497" r="4" fill="#0" id="circle37"/>
	<circle cx="83.5164" cy="634.917" r="4" fill="#0" id="circle38"/>
	<circle cx="93.9448" cy="644.042" r="4" fill="#0" id="circle39"/>
	<circle cx="96.5519" cy="186.497" r="4" fill="#0" id="circle40"/>
	<circle cx="99.159" cy="657.078" r="4" fill="#0" id="circle41"/>
	<circle cx="105.677" cy="668.809" r="4" fill="#0" id="circle42"/>
	<circle cx="108.284" cy="177.372" r="4" fill="#0" id="circle43"/>
	<circle cx="108.284" cy="681.845" r="4" fill="#0" id="circle44"/>
	<circle cx="108.284" cy="757.451" r="4" fill="#0" id="circle45"/>
	<circle cx="108.284" cy="770.486" r="4" fill="#0" id="circle46"/>
	<circle cx="108.284" cy="783.522" r="4" fill="#0" id="circle47"/>
	<circle cx="110.891" cy="694.88" r="4" fill="#0" id="circle48"/>
	<circle cx="114.802" cy="707.916" r="4" fill="#0" id="circle49"/>
	<circle cx="114.802" cy="720.951" r="4" fill="#0" id="circle50"/>
	<circle cx="114.802" cy="733.987" r="4" fill="#0" id="circle51"/>
	<circle cx="118.712" cy="792.647" r="4" fill="#0" id="circle52"/>
	<circle cx="121.319" cy="170.854" r="4" fill="#0" id="circle53"/>
	<circle cx="131.748" cy="786.129" r="4" fill="#0" id="circle54"/>
	<circle cx="134.355" cy="164.336" r="4" fill="#0" id="circle55"/>
	<circle cx="142.176" cy="774.397" r="4" fill="#0" id="circle56"/>
	<circle cx="147.39" cy="160.426" r="4" fill="#0" id="circle57"/>
	<circle cx="155.212" cy="774.397" r="4" fill="#0" id="circle58"/>
	<circle cx="160.426" cy="157.819" r="4" fill="#0" id="circle59"/>
	<circle cx="165.64" cy="765.272" r="4" fill="#0" id="circle60"/>
	<circle cx="173.461" cy="153.908" r="4" fill="#0" id="circle61"/>
	<circle cx="178.675" cy="758.754" r="4" fill="#0" id="circle62"/>
	<circle cx="186.497" cy="151.301" r="4" fill="#0" id="circle63"/>
	<circle cx="191.711" cy="754.844" r="4" fill="#0" id="circle64"/>
	<circle cx="199.532" cy="147.39" r="4" fill="#0" id="circle65"/>
	<circle cx="203.443" cy="748.326" r="4" fill="#0" id="circle66"/>
	<circle cx="212.568" cy="147.39" r="4" fill="#0" id="circle67"/>
	<circle cx="216.478" cy="748.326" r="4" fill="#0" id="circle68"/>
	<circle cx="224.3" cy="140.873" r="4" fill="#0" id="circle69"/>
	<circle cx="229.514" cy="748.326" r="4" fill="#0" id="circle70"/>
	<circle cx="237.335" cy="140.873" r="4" fill="#0" id="circle71"/>
	<circle cx="242.549" cy="748.326" r="4" fill="#0" id="circle72"/>
	<circle cx="250.371" cy="140.873" r="4" fill="#0" id="circle73"/>
	<circle cx="255.585" cy="748.326" r="4" fill="#0" id="circle74"/>
	<circle cx="263.406" cy="140.873" r="4" fill="#0" id="circle75"/>
	<circle cx="268.62" cy="748.326" r="4" fill="#0" id="circle76"/>
	<circle cx="275.138" cy="147.39" r="4" fill="#0" id="circle77"/>
	<circle cx="281.656" cy="748.326" r="4" fill="#0" id="circle78"/>
	<circle cx="288.173" cy="147.39" r="4" fill="#0" id="circle79"/>
	<circle cx="294.691" cy="748.326" r="4" fill="#0" id="circle80"/>
	<circle cx="299.905" cy="153.908" r="4" fill="#0" id="circle81"/>
	<circle cx="307.727" cy="748.326" r="4" fill="#0" id="circle82"/>
	<circle cx="311.637" cy="160.426" r="4" fill="#0" id="circle83"/>
	<circle cx="319.459" cy="741.808" r="4" fill="#0" id="circle84"/>
	<circle cx="324.673" cy="164.336" r="4" fill="#0" id="circle85"/>
	<circle cx="332.494" cy="741.808" r="4" fill="#0" id="circle86"/>
	<circle cx="337.708" cy="166.943" r="4" fill="#0" id="circle87"/>
	<circle cx="344.226" cy="735.29" r="4" fill="#0" id="circle88"/>
	<circle cx="349.44" cy="157.819" r="4" fill="#0" id="circle89"/>
	<circle cx="355.958" cy="144.783" r="4" fill="#0" id="circle90"/>
	<circle cx="357.261" cy="735.29" r="4" fill="#0" id="circle91"/>
	<circle cx="368.993" cy="138.265" r="4" fill="#0" id="circle92"/>
	<circle cx="370.297" cy="728.773" r="4" fill="#0" id="circle93"/>
	<circle cx="379.422" cy="127.837" r="4" fill="#0" id="circle94"/>
	<circle cx="383.332" cy="728.773" r="4" fill="#0" id="circle95"/>
	<circle cx="391.154" cy="121.319" r="4" fill="#0" id="circle96"/>
	<circle cx="396.368" cy="722.255" r="4" fill="#0" id="circle97"/>
	<circle cx="402.886" cy="114.802" r="4" fill="#0" id="circle98"/>
	<circle cx="409.403" cy="722.255" r="4" fill="#0" id="circle99"/>
	<circle cx="414.618" cy="108.284" r="4" fill="#0" id="circle100"/>
	<circle cx="422.439" cy="722.255" r="4" fill="#0" id="circle101"/>
	<circle cx="427.653" cy="108.284" r="4" fill="#0" id="circle102"/>
	<circle cx="435.474" cy="722.255" r="4" fill="#0" id="circle103"/>
	<circle cx="440.689" cy="108.284" r="4" fill="#0" id="circle104"/>
	<circle cx="447.206" cy="715.737" r="4" fill="#0" id="circle105"/>
	<circle cx="453.724" cy="110.891" r="4" fill="#0" id="circle106"/>
	<circle cx="455.028" cy="123.926" r="4" fill="#0" id="circle107"/>
	<circle cx="460.242" cy="715.737" r="4" fill="#0" id="circle108"/>
	<circle cx="462.849" cy="134.355" r="4" fill="#0" id="circle109"/>
	<circle cx="473.277" cy="715.737" r="4" fill="#0" id="circle110"/>
	<circle cx="475.884" cy="134.355" r="4" fill="#0" id="circle111"/>
	<circle cx="482.402" cy="122.623" r="4" fill="#0" id="circle112"/>
	<circle cx="485.009" cy="709.219" r="4" fill="#0" id="circle113"/>
	<circle cx="492.83" cy="112.194" r="4" fill="#0" id="circle114"/>
	<circle cx="498.045" cy="709.219" r="4" fill="#0" id="circle115"/>
	<circle cx="505.866" cy="105.677" r="4" fill="#0" id="circle116"/>
	<circle cx="509.777" cy="702.702" r="4" fill="#0" id="circle117"/>
	<circle cx="516.294" cy="95.2484" r="4" fill="#0" id="circle118"/>
	<circle cx="522.812" cy="702.702" r="4" fill="#0" id="circle119"/>
	<circle cx="526.723" cy="84.82" r="4" fill="#0" id="circle120"/>
	<circle cx="534.544" cy="696.184" r="4" fill="#0" id="circle121"/>
	<circle cx="539.758" cy="78.3022" r="4" fill="#0" id="circle122"/>
	<circle cx="547.58" cy="696.184" r="4" fill="#0" id="circle123"/>
	<circle cx="550.187" cy="69.1774" r="4" fill="#0" id="circle124"/>
	<circle cx="559.311" cy="58.749" r="4" fill="#0" id="circle125"/>
	<circle cx="559.311" cy="168.247" r="4" fill="#0" id="circle126"/>
	<circle cx="559.311" cy="181.283" r="4" fill="#0" id="circle127"/>
	<circle cx="559.311" cy="194.318" r="4" fill="#0" id="circle128"/>
	<circle cx="559.311" cy="266.013" r="4" fill="#0" id="circle129"/>
	<circle cx="559.311" cy="279.049" r="4" fill="#0" id="circle130"/>
	<circle cx="560.615" cy="696.184" r="4" fill="#0" id="circle131"/>
	<circle cx="561.919" cy="207.353" r="4" fill="#0" id="circle132"/>
	<circle cx="561.919" cy="292.084" r="4" fill="#0" id="circle133"/>
	<circle cx="565.829" cy="220.389" r="4" fill="#0" id="circle134"/>
	<circle cx="565.829" cy="233.424" r="4" fill="#0" id="circle135"/>
	<circle cx="565.829" cy="246.46" r="4" fill="#0" id="circle136"/>
	<circle cx="569.74" cy="159.122" r="4" fill="#0" id="circle137"/>
	<circle cx="572.347" cy="56.1419" r="4" fill="#0" id="circle138"/>
	<circle cx="573.65" cy="696.184" r="4" fill="#0" id="circle139"/>
	<circle cx="574.954" cy="297.298" r="4" fill="#0" id="circle140"/>
	<circle cx="578.865" cy="148.694" r="4" fill="#0" id="circle141"/>
	<circle cx="584.079" cy="47.0171" r="4" fill="#0" id="circle142"/>
	<circle cx="584.079" cy="307.727" r="4" fill="#0" id="circle143"/>
	<circle cx="584.079" cy="685.756" r="4" fill="#0" id="circle144"/>
	<circle cx="589.293" cy="139.569" r="4" fill="#0" id="circle145"/>
	<circle cx="594.507" cy="316.852" r="4" fill="#0" id="circle146"/>
	<circle cx="597.114" cy="40.4993" r="4" fill="#0" id="circle147"/>
	<circle cx="597.114" cy="679.238" r="4" fill="#0" id="circle148"/>
	<circle cx="598.418" cy="129.141" r="4" fill="#0" id="circle149"/>
	<circle cx="603.632" cy="327.28" r="4" fill="#0" id="circle150"/>
	<circle cx="607.543" cy="670.113" r="4" fill="#0" id="circle151"/>
	<circle cx="608.846" cy="120.016" r="4" fill="#0" id="circle152"/>
	<circle cx="610.15" cy="33.9816" r="4" fill="#0" id="circle153"/>
	<circle cx="611.453" cy="337.708" r="4" fill="#0" id="circle154"/>
	<circle cx="614.06" cy="350.744" r="4" fill="#0" id="circle155"/>
	<circle cx="616.668" cy="109.587" r="4" fill="#0" id="circle156"/>
	<circle cx="620.578" cy="362.476" r="4" fill="#0" id="circle157"/>
	<circle cx="620.578" cy="668.809" r="4" fill="#0" id="circle158"/>
	<circle cx="623.185" cy="30.071" r="4" fill="#0" id="circle159"/>
	<circle cx="624.489" cy="375.511" r="4" fill="#0" id="circle160"/>
	<circle cx="629.703" cy="105.677" r="4" fill="#0" id="circle161"/>
	<circle cx="631.007" cy="387.243" r="4" fill="#0" id="circle162"/>
	<circle cx="631.007" cy="657.078" r="4" fill="#0" id="circle163"/>
	<circle cx="634.917" cy="23.5532" r="4" fill="#0" id="circle164"/>
	<circle cx="636.221" cy="92.6413" r="4" fill="#0" id="circle165"/>
	<circle cx="637.524" cy="398.975" r="4" fill="#0" id="circle166"/>
	<circle cx="637.524" cy="412.011" r="4" fill="#0" id="circle167"/>
	<circle cx="641.435" cy="647.953" r="4" fill="#0" id="circle168"/>
	<circle cx="642.739" cy="425.046" r="4" fill="#0" id="circle169"/>
	<circle cx="646.649" cy="17.0355" r="4" fill="#0" id="circle170"/>
	<circle cx="646.649" cy="83.5164" r="4" fill="#0" id="circle171"/>
	<circle cx="650.56" cy="435.474" r="4" fill="#0" id="circle172"/>
	<circle cx="650.56" cy="637.524" r="4" fill="#0" id="circle173"/>
	<circle cx="653.167" cy="448.51" r="4" fill="#0" id="circle174"/>
	<circle cx="657.078" cy="624.489" r="4" fill="#0" id="circle175"/>
	<circle cx="658.381" cy="76.9987" r="4" fill="#0" id="circle176"/>
	<circle cx="659.685" cy="10.5177" r="4" fill="#0" id="circle177"/>
	<circle cx="659.685" cy="460.242" r="4" fill="#0" id="circle178"/>
	<circle cx="663.595" cy="473.277" r="4" fill="#0" id="circle179"/>
	<circle cx="663.595" cy="486.313" r="4" fill="#0" id="circle180"/>
	<circle cx="663.595" cy="499.348" r="4" fill="#0" id="circle181"/>
	<circle cx="663.595" cy="591.9" r="4" fill="#0" id="circle182"/>
	<circle cx="663.595" cy="604.936" r="4" fill="#0" id="circle183"/>
	<circle cx="668.809" cy="66.5703" r="4" fill="#0" id="circle184"/>
	<circle cx="670.113" cy="511.08" r="4" fill="#0" id="circle185"/>
	<circle cx="670.113" cy="524.116" r="4" fill="#0" id="circle186"/>
	<circle cx="670.113" cy="537.151" r="4" fill="#0" id="circle187"/>
	<circle cx="670.113" cy="550.187" r="4" fill="#0" id="circle188"/>
	<circle cx="670.113" cy="563.222" r="4" fill="#0" id="circle189"/>
	<circle cx="670.113" cy="576.258" r="4" fill="#0" id="circle190"/>
	<circle cx="671.417" cy="4" r="4" fill="#0" id="circle191"/>
	<circle cx="681.845" cy="60.0526" r="4" fill="#0" id="circle192"/>
	<circle cx="684.452" cy="4" r="4" fill="#0" id="circle193"/>
	<circle cx="694.88" cy="57.4455" r="4" fill="#0" id="circle194"/>
	<circle cx="697.488" cy="4" r="4" fill="#0" id="circle195"/>
	<circle cx="706.612" cy="50.9277" r="4" fill="#0" id="circle196"/>
	<circle cx="710.523" cy="4" r="4" fill="#0" id="circle197"/>
	<circle cx="718.344" cy="44.41" r="4" fill="#0" id="circle198"/>
	<circle cx="723.558" cy="4" r="4" fill="#0" id="circle199"/>
	<circle cx="730.076" cy="37.8922" r="4" fill="#0" id="circle200"/>
	<circle cx="736.594" cy="4" r="4" fill="#0" id="circle201"/>
	<circle cx="743.112" cy="37.8922" r="4" fill="#0" id="circle202"/>
	<circle cx="749.629" cy="4" r="4" fill="#0" id="circle203"/>
	<circle cx="754.844" cy="31.3745" r="4" fill="#0" id="circle204"/>
	<circle cx="762.665" cy="4" r="4" fill="#0" id="circle205"/>
	<circle cx="767.879" cy="31.3745" r="4" fill="#0" id="circle206"/>
	<circle cx="775.7" cy="4" r="4" fill="#0" id="circle207"/>
	<circle cx="780.915" cy="31.3745" r="4" fill="#0" id="circle208"/>
	<circle cx="788.736" cy="4" r="4" fill="#0" id="circle209"/>
	<circle cx="793.95" cy="31.3745" r="4" fill="#0" id="circle210"/>
	<circle cx="801.771" cy="4" r="4" fill="#0" id="circle211"/>
	<circle cx="806.986" cy="31.3745" r="4" fill="#0" id="circle212"/>
	<circle cx="814.807" cy="4" r="4" fill="#0" id="circle213"/>
	<circle cx="820.021" cy="31.3745" r="4" fill="#0" id="circle214"/>
	<circle cx="827.842" cy="4" r="4" fill="#0" id="circle215"/>
	<circle cx="833.057" cy="31.3745" r="4" fill="#0" id="circle216"/>
	<circle cx="840.878" cy="4" r="4" fill="#0" id="circle217"/>
	<circle cx="846.092" cy="31.3745" r="4" fill="#0" id="circle218"/>
	<circle cx="853.913" cy="4" r="4" fill="#0" id="circle219"/>
	<circle cx="857.824" cy="37.8922" r="4" fill="#0" id="circle220"/>
	<circle cx="866.949" cy="4" r="4" fill="#0" id="circle221"/>
	<circle cx="869.556" cy="44.41" r="4" fill="#0" id="circle222"/>
	<circle cx="878.681" cy="10.5177" r="4" fill="#0" id="circle223"/>
	<circle cx="878.681" cy="54.8384" r="4" fill="#0" id="circle224"/>
	<circle cx="885.198" cy="66.5703" r="4" fill="#0" id="circle225"/>
	<circle cx="891.716" cy="14.4284" r="4" fill="#0" id="circle226"/>
	<circle cx="894.323" cy="76.9987" r="4" fill="#0" id="circle227"/>
	<circle cx="903.448" cy="20.9461" r="4" fill="#0" id="circle228"/>
	<circle cx="904.752" cy="86.1235" r="4" fill="#0" id="circle229"/>
	<circle cx="913.876" cy="30.071" r="4" fill="#0" id="circle230"/>
	<circle cx="917.787" cy="63.9632" r="4" fill="#0" id="circle231"/>
	<circle cx="917.787" cy="76.9987" r="4" fill="#0" id="circle232"/>
	<circle cx="925.608" cy="36.5887" r="4" fill="#0" id="circle233"/>
	<circle cx="929.519" cy="70.4809" r="4" fill="#0" id="circle234"/>
	<circle cx="936.037" cy="45.7135" r="4" fill="#0" id="circle235"/>
	<circle cx="937.34" cy="80.9093" r="4" fill="#0" id="circle236"/>
	<circle cx="942.555" cy="93.9448" r="4" fill="#0" id="circle237"/>
	<circle cx="942.555" cy="106.98" r="4" fill="#0" id="circle238"/>
	<circle cx="942.555" cy="120.016" r="4" fill="#0" id="circle239"/>
	<circle cx="942.555" cy="133.051" r="4" fill="#0" id="circle240"/>
	<circle cx="947.769" cy="52.2313" r="4" fill="#0" id="circle241"/>
	<circle cx="949.072" cy="144.783" r="4" fill="#0" id="circle242"/>
	<circle cx="956.894" cy="62.6597" r="4" fill="#0" id="circle243"/>
	<circle cx="962.108" cy="138.265" r="4" fill="#0" id="circle244"/>
	<circle cx="963.411" cy="74.3916" r="4" fill="#0" id="circle245"/>
	<circle cx="973.84" cy="83.5164" r="4" fill="#0" id="circle246"/>
	<circle cx="975.143" cy="135.658" r="4" fill="#0" id="circle247"/>
	<circle cx="981.661" cy="147.39" r="4" fill="#0" id="circle248"/>
	<circle cx="981.661" cy="160.426" r="4" fill="#0" id="circle249"/>
	<circle cx="981.661" cy="173.461" r="4" fill="#0" id="circle250"/>
	<circle cx="982.965" cy="93.9448" r="4" fill="#0" id="circle251"/>
	<circle cx="982.965" cy="106.98" r="4" fill="#0" id="circle252"/>
	<circle cx="984.268" cy="186.497" r="4" fill="#0" id="circle253"/>
	<circle cx="989.482" cy="118.712" r="4" fill="#0" id="circle254"/>
	<circle cx="989.482" cy="131.748" r="4" fill="#0" id="circle255"/>
	<circle cx="996" cy="143.48" r="4" fill="#0" id="circle256"/>
	<circle cx="996" cy="156.515" r="4" fill="#0" id="circle257"/>
	<circle cx="996" cy="169.551" r="4" fill="#0" id="circle258"/>
	</g>
</svg>