<?xml version="1.0" encoding="UTF-8" standalone="no"?>
<!-- Created with CurveBenchmark -->
<svg
	xmlns:dc="http://purl.org/dc/elements/1.1/"
	xmlns:cc="http://creativecommons.org/ns#"
	xmlns:rdf="http://www.w3.org/1999/02/22-rdf-syntax-ns#"
	xmlns:svg="http://www.w3.org/2000/svg"
	xmlns="http://www.w3.org/2000/svg"
	xmlns:sodipodi="http://sodipodi.sourceforge.net/DTD/sodipodi-0.dtd"
	xmlns:inkscape="http://www.inkscape.org/namespaces/inkscape"
	width="1000"
	height="1000"
	id="svg2"
	version="1.1"
	sodipodi:docname="manifold/connect2d-harrierocc2.png.txt">
<defs
	id="defs4" />
<metadata
	id="metadata7">
	<rdf:RDF>
		<cc:Work
			rdf:about="">
			<dc:format>image/svg+xml</dc:format>
			<dc:type
				rdf:resource="http://purl.org/dc/dcmitype/StillImage" />
			<dc:title></dc:title>
		</cc:Work>
	</rdf:RDF>
</metadata>
<g
	inkscape:label="Layer 1"
	inkscape:groupmode="layer"
	id="layer1">
	<path style="fill:none;stroke:red;stroke-width:1px;stroke-linecap:butt;stroke-linejoin:miter;stroke-opacity:1" d="M 971.252,43.185 954.753,57.6216 z" id="boundary" inkscape:connector-curvature="0" />
	<path style="fill:none;stroke:red;stroke-width:1px;stroke-linecap:butt;stroke-linejoin:miter;stroke-opacity:1" d="M 954.753,57.6216 944.441,78.2453 z" id="boundary" inkscape:connector-curvature="0" />
	<path style="fill:none;stroke:red;stroke-width:1px;stroke-linecap:butt;stroke-linejoin:miter;stroke-opacity:1" d="M 944.441,78.2453 934.129,98.869 z" id="boundary" inkscape:connector-curvature="0" />
	<path style="fill:none;stroke:red;stroke-width:1px;stroke-linecap:butt;stroke-linejoin:miter;stroke-opacity:1" d="M 934.129,98.869 934.129,119.493 z" id="boundary" inkscape:connector-curvature="0" />
	<path style="fill:none;stroke:red;stroke-width:1px;stroke-linecap:butt;stroke-linejoin:miter;stroke-opacity:1" d="M 934.129,119.493 919.692,135.992 z" id="boundary" inkscape:connector-curvature="0" />
	<path style="fill:none;stroke:red;stroke-width:1px;stroke-linecap:butt;stroke-linejoin:miter;stroke-opacity:1" d="M 919.692,135.992 903.193,150.428 z" id="boundary" inkscape:connector-curvature="0" />
	<path style="fill:none;stroke:red;stroke-width:1px;stroke-linecap:butt;stroke-linejoin:miter;stroke-opacity:1" d="M 903.193,150.428 888.757,166.927 z" id="boundary" inkscape:connector-curvature="0" />
	<path style="fill:none;stroke:red;stroke-width:1px;stroke-linecap:butt;stroke-linejoin:miter;stroke-opacity:1" d="M 888.757,166.927 872.258,181.364 z" id="boundary" inkscape:connector-curvature="0" />
	<path style="fill:none;stroke:red;stroke-width:1px;stroke-linecap:butt;stroke-linejoin:miter;stroke-opacity:1" d="M 872.258,181.364 857.821,197.863 z" id="boundary" inkscape:connector-curvature="0" />
	<path style="fill:none;stroke:red;stroke-width:1px;stroke-linecap:butt;stroke-linejoin:miter;stroke-opacity:1" d="M 857.821,197.863 841.322,212.299 z" id="boundary" inkscape:connector-curvature="0" />
	<path style="fill:none;stroke:red;stroke-width:1px;stroke-linecap:butt;stroke-linejoin:miter;stroke-opacity:1" d="M 841.322,212.299 826.886,228.798 z" id="boundary" inkscape:connector-curvature="0" />
	<path style="fill:none;stroke:red;stroke-width:1px;stroke-linecap:butt;stroke-linejoin:miter;stroke-opacity:1" d="M 826.886,228.798 810.387,243.235 z" id="boundary" inkscape:connector-curvature="0" />
	<path style="fill:none;stroke:red;stroke-width:1px;stroke-linecap:butt;stroke-linejoin:miter;stroke-opacity:1" d="M 810.387,243.235 814.511,263.859 z" id="boundary" inkscape:connector-curvature="0" />
	<path style="fill:none;stroke:red;stroke-width:1px;stroke-linecap:butt;stroke-linejoin:miter;stroke-opacity:1" d="M 814.511,263.859 835.135,272.108 z" id="boundary" inkscape:connector-curvature="0" />
	<path style="fill:none;stroke:red;stroke-width:1px;stroke-linecap:butt;stroke-linejoin:miter;stroke-opacity:1" d="M 835.135,272.108 841.322,292.732 z" id="boundary" inkscape:connector-curvature="0" />
	<path style="fill:none;stroke:red;stroke-width:1px;stroke-linecap:butt;stroke-linejoin:miter;stroke-opacity:1" d="M 841.322,292.732 831.01,315.418 z" id="boundary" inkscape:connector-curvature="0" />
	<path style="fill:none;stroke:red;stroke-width:1px;stroke-linecap:butt;stroke-linejoin:miter;stroke-opacity:1" d="M 831.01,315.418 816.574,331.917 z" id="boundary" inkscape:connector-curvature="0" />
	<path style="fill:none;stroke:red;stroke-width:1px;stroke-linecap:butt;stroke-linejoin:miter;stroke-opacity:1" d="M 816.574,331.917 800.075,346.353 z" id="boundary" inkscape:connector-curvature="0" />
	<path style="fill:none;stroke:red;stroke-width:1px;stroke-linecap:butt;stroke-linejoin:miter;stroke-opacity:1" d="M 800.075,346.353 785.638,362.852 z" id="boundary" inkscape:connector-curvature="0" />
	<path style="fill:none;stroke:red;stroke-width:1px;stroke-linecap:butt;stroke-linejoin:miter;stroke-opacity:1" d="M 785.638,362.852 769.139,377.289 z" id="boundary" inkscape:connector-curvature="0" />
	<path style="fill:none;stroke:red;stroke-width:1px;stroke-linecap:butt;stroke-linejoin:miter;stroke-opacity:1" d="M 769.139,377.289 754.703,393.788 z" id="boundary" inkscape:connector-curvature="0" />
	<path style="fill:none;stroke:red;stroke-width:1px;stroke-linecap:butt;stroke-linejoin:miter;stroke-opacity:1" d="M 754.703,393.788 738.204,408.225 z" id="boundary" inkscape:connector-curvature="0" />
	<path style="fill:none;stroke:red;stroke-width:1px;stroke-linecap:butt;stroke-linejoin:miter;stroke-opacity:1" d="M 738.204,408.225 727.892,428.848 z" id="boundary" inkscape:connector-curvature="0" />
	<path style="fill:none;stroke:red;stroke-width:1px;stroke-linecap:butt;stroke-linejoin:miter;stroke-opacity:1" d="M 727.892,428.848 713.455,445.347 z" id="boundary" inkscape:connector-curvature="0" />
	<path style="fill:none;stroke:red;stroke-width:1px;stroke-linecap:butt;stroke-linejoin:miter;stroke-opacity:1" d="M 713.455,445.347 696.956,459.784 z" id="boundary" inkscape:connector-curvature="0" />
	<path style="fill:none;stroke:red;stroke-width:1px;stroke-linecap:butt;stroke-linejoin:miter;stroke-opacity:1" d="M 696.956,459.784 729.954,457.721 z" id="boundary" inkscape:connector-curvature="0" />
	<path style="fill:none;stroke:red;stroke-width:1px;stroke-linecap:butt;stroke-linejoin:miter;stroke-opacity:1" d="M 729.954,457.721 746.453,443.285 z" id="boundary" inkscape:connector-curvature="0" />
	<path style="fill:none;stroke:red;stroke-width:1px;stroke-linecap:butt;stroke-linejoin:miter;stroke-opacity:1" d="M 746.453,443.285 762.952,426.786 z" id="boundary" inkscape:connector-curvature="0" />
	<path style="fill:none;stroke:red;stroke-width:1px;stroke-linecap:butt;stroke-linejoin:miter;stroke-opacity:1" d="M 762.952,426.786 783.576,416.474 z" id="boundary" inkscape:connector-curvature="0" />
	<path style="fill:none;stroke:red;stroke-width:1px;stroke-linecap:butt;stroke-linejoin:miter;stroke-opacity:1" d="M 783.576,416.474 804.2,406.162 z" id="boundary" inkscape:connector-curvature="0" />
	<path style="fill:none;stroke:red;stroke-width:1px;stroke-linecap:butt;stroke-linejoin:miter;stroke-opacity:1" d="M 804.2,406.162 824.823,406.162 z" id="boundary" inkscape:connector-curvature="0" />
	<path style="fill:none;stroke:red;stroke-width:1px;stroke-linecap:butt;stroke-linejoin:miter;stroke-opacity:1" d="M 824.823,406.162 831.01,428.848 z" id="boundary" inkscape:connector-curvature="0" />
	<path style="fill:none;stroke:red;stroke-width:1px;stroke-linecap:butt;stroke-linejoin:miter;stroke-opacity:1" d="M 831.01,428.848 816.574,455.659 z" id="boundary" inkscape:connector-curvature="0" />
	<path style="fill:none;stroke:red;stroke-width:1px;stroke-linecap:butt;stroke-linejoin:miter;stroke-opacity:1" d="M 816.574,455.659 800.075,470.096 z" id="boundary" inkscape:connector-curvature="0" />
	<path style="fill:none;stroke:red;stroke-width:1px;stroke-linecap:butt;stroke-linejoin:miter;stroke-opacity:1" d="M 800.075,470.096 785.638,496.906 z" id="boundary" inkscape:connector-curvature="0" />
	<path style="fill:none;stroke:red;stroke-width:1px;stroke-linecap:butt;stroke-linejoin:miter;stroke-opacity:1" d="M 785.638,496.906 769.139,511.343 z" id="boundary" inkscape:connector-curvature="0" />
	<path style="fill:none;stroke:red;stroke-width:1px;stroke-linecap:butt;stroke-linejoin:miter;stroke-opacity:1" d="M 769.139,511.343 754.703,527.842 z" id="boundary" inkscape:connector-curvature="0" />
	<path style="fill:none;stroke:red;stroke-width:1px;stroke-linecap:butt;stroke-linejoin:miter;stroke-opacity:1" d="M 754.703,527.842 738.204,542.279 z" id="boundary" inkscape:connector-curvature="0" />
	<path style="fill:none;stroke:red;stroke-width:1px;stroke-linecap:butt;stroke-linejoin:miter;stroke-opacity:1" d="M 738.204,542.279 723.767,558.778 z" id="boundary" inkscape:connector-curvature="0" />
	<path style="fill:none;stroke:red;stroke-width:1px;stroke-linecap:butt;stroke-linejoin:miter;stroke-opacity:1" d="M 723.767,558.778 707.268,573.214 z" id="boundary" inkscape:connector-curvature="0" />
	<path style="fill:none;stroke:red;stroke-width:1px;stroke-linecap:butt;stroke-linejoin:miter;stroke-opacity:1" d="M 707.268,573.214 717.58,591.775 z" id="boundary" inkscape:connector-curvature="0" />
	<path style="fill:none;stroke:red;stroke-width:1px;stroke-linecap:butt;stroke-linejoin:miter;stroke-opacity:1" d="M 717.58,591.775 717.58,612.399 z" id="boundary" inkscape:connector-curvature="0" />
	<path style="fill:none;stroke:red;stroke-width:1px;stroke-linecap:butt;stroke-linejoin:miter;stroke-opacity:1" d="M 717.58,612.399 717.58,633.023 z" id="boundary" inkscape:connector-curvature="0" />
	<path style="fill:none;stroke:red;stroke-width:1px;stroke-linecap:butt;stroke-linejoin:miter;stroke-opacity:1" d="M 717.58,633.023 736.141,622.711 z" id="boundary" inkscape:connector-curvature="0" />
	<path style="fill:none;stroke:red;stroke-width:1px;stroke-linecap:butt;stroke-linejoin:miter;stroke-opacity:1" d="M 736.141,622.711 754.703,612.399 z" id="boundary" inkscape:connector-curvature="0" />
	<path style="fill:none;stroke:red;stroke-width:1px;stroke-linecap:butt;stroke-linejoin:miter;stroke-opacity:1" d="M 754.703,612.399 758.827,635.085 z" id="boundary" inkscape:connector-curvature="0" />
	<path style="fill:none;stroke:red;stroke-width:1px;stroke-linecap:butt;stroke-linejoin:miter;stroke-opacity:1" d="M 758.827,635.085 744.391,651.584 z" id="boundary" inkscape:connector-curvature="0" />
	<path style="fill:none;stroke:red;stroke-width:1px;stroke-linecap:butt;stroke-linejoin:miter;stroke-opacity:1" d="M 744.391,651.584 727.892,666.021 z" id="boundary" inkscape:connector-curvature="0" />
	<path style="fill:none;stroke:red;stroke-width:1px;stroke-linecap:butt;stroke-linejoin:miter;stroke-opacity:1" d="M 727.892,666.021 727.892,686.644 z" id="boundary" inkscape:connector-curvature="0" />
	<path style="fill:none;stroke:red;stroke-width:1px;stroke-linecap:butt;stroke-linejoin:miter;stroke-opacity:1" d="M 727.892,686.644 777.389,670.146 z" id="boundary" inkscape:connector-curvature="0" />
	<path style="fill:none;stroke:red;stroke-width:1px;stroke-linecap:butt;stroke-linejoin:miter;stroke-opacity:1" d="M 777.389,670.146 798.012,659.834 z" id="boundary" inkscape:connector-curvature="0" />
	<path style="fill:none;stroke:red;stroke-width:1px;stroke-linecap:butt;stroke-linejoin:miter;stroke-opacity:1" d="M 798.012,659.834 810.387,676.333 z" id="boundary" inkscape:connector-curvature="0" />
	<path style="fill:none;stroke:red;stroke-width:1px;stroke-linecap:butt;stroke-linejoin:miter;stroke-opacity:1" d="M 810.387,676.333 793.888,696.956 z" id="boundary" inkscape:connector-curvature="0" />
	<path style="fill:none;stroke:red;stroke-width:1px;stroke-linecap:butt;stroke-linejoin:miter;stroke-opacity:1" d="M 793.888,696.956 773.264,694.894 z" id="boundary" inkscape:connector-curvature="0" />
	<path style="fill:none;stroke:red;stroke-width:1px;stroke-linecap:butt;stroke-linejoin:miter;stroke-opacity:1" d="M 773.264,694.894 756.765,711.393 z" id="boundary" inkscape:connector-curvature="0" />
	<path style="fill:none;stroke:red;stroke-width:1px;stroke-linecap:butt;stroke-linejoin:miter;stroke-opacity:1" d="M 756.765,711.393 727.892,707.268 z" id="boundary" inkscape:connector-curvature="0" />
	<path style="fill:none;stroke:red;stroke-width:1px;stroke-linecap:butt;stroke-linejoin:miter;stroke-opacity:1" d="M 727.892,707.268 738.204,725.83 z" id="boundary" inkscape:connector-curvature="0" />
	<path style="fill:none;stroke:red;stroke-width:1px;stroke-linecap:butt;stroke-linejoin:miter;stroke-opacity:1" d="M 738.204,725.83 769.139,727.892 z" id="boundary" inkscape:connector-curvature="0" />
	<path style="fill:none;stroke:red;stroke-width:1px;stroke-linecap:butt;stroke-linejoin:miter;stroke-opacity:1" d="M 769.139,727.892 754.703,744.391 z" id="boundary" inkscape:connector-curvature="0" />
	<path style="fill:none;stroke:red;stroke-width:1px;stroke-linecap:butt;stroke-linejoin:miter;stroke-opacity:1" d="M 754.703,744.391 738.204,758.827 z" id="boundary" inkscape:connector-curvature="0" />
	<path style="fill:none;stroke:red;stroke-width:1px;stroke-linecap:butt;stroke-linejoin:miter;stroke-opacity:1" d="M 738.204,758.827 738.204,779.451 z" id="boundary" inkscape:connector-curvature="0" />
	<path style="fill:none;stroke:red;stroke-width:1px;stroke-linecap:butt;stroke-linejoin:miter;stroke-opacity:1" d="M 738.204,779.451 748.516,798.012 z" id="boundary" inkscape:connector-curvature="0" />
	<path style="fill:none;stroke:red;stroke-width:1px;stroke-linecap:butt;stroke-linejoin:miter;stroke-opacity:1" d="M 748.516,798.012 738.204,831.01 z" id="boundary" inkscape:connector-curvature="0" />
	<path style="fill:none;stroke:red;stroke-width:1px;stroke-linecap:butt;stroke-linejoin:miter;stroke-opacity:1" d="M 738.204,831.01 727.892,861.946 z" id="boundary" inkscape:connector-curvature="0" />
	<path style="fill:none;stroke:red;stroke-width:1px;stroke-linecap:butt;stroke-linejoin:miter;stroke-opacity:1" d="M 727.892,861.946 713.455,878.445 z" id="boundary" inkscape:connector-curvature="0" />
	<path style="fill:none;stroke:red;stroke-width:1px;stroke-linecap:butt;stroke-linejoin:miter;stroke-opacity:1" d="M 713.455,878.445 696.956,892.881 z" id="boundary" inkscape:connector-curvature="0" />
	<path style="fill:none;stroke:red;stroke-width:1px;stroke-linecap:butt;stroke-linejoin:miter;stroke-opacity:1" d="M 696.956,892.881 676.333,886.694 z" id="boundary" inkscape:connector-curvature="0" />
	<path style="fill:none;stroke:red;stroke-width:1px;stroke-linecap:butt;stroke-linejoin:miter;stroke-opacity:1" d="M 676.333,886.694 659.834,872.258 z" id="boundary" inkscape:connector-curvature="0" />
	<path style="fill:none;stroke:red;stroke-width:1px;stroke-linecap:butt;stroke-linejoin:miter;stroke-opacity:1" d="M 659.834,872.258 653.647,851.634 z" id="boundary" inkscape:connector-curvature="0" />
	<path style="fill:none;stroke:red;stroke-width:1px;stroke-linecap:butt;stroke-linejoin:miter;stroke-opacity:1" d="M 653.647,851.634 637.148,839.26 z" id="boundary" inkscape:connector-curvature="0" />
	<path style="fill:none;stroke:red;stroke-width:1px;stroke-linecap:butt;stroke-linejoin:miter;stroke-opacity:1" d="M 637.148,839.26 628.898,818.636 z" id="boundary" inkscape:connector-curvature="0" />
	<path style="fill:none;stroke:red;stroke-width:1px;stroke-linecap:butt;stroke-linejoin:miter;stroke-opacity:1" d="M 628.898,818.636 612.399,804.2 z" id="boundary" inkscape:connector-curvature="0" />
	<path style="fill:none;stroke:red;stroke-width:1px;stroke-linecap:butt;stroke-linejoin:miter;stroke-opacity:1" d="M 612.399,804.2 602.087,785.638 z" id="boundary" inkscape:connector-curvature="0" />
	<path style="fill:none;stroke:red;stroke-width:1px;stroke-linecap:butt;stroke-linejoin:miter;stroke-opacity:1" d="M 602.087,785.638 589.713,769.139 z" id="boundary" inkscape:connector-curvature="0" />
	<path style="fill:none;stroke:red;stroke-width:1px;stroke-linecap:butt;stroke-linejoin:miter;stroke-opacity:1" d="M 589.713,769.139 573.214,754.703 z" id="boundary" inkscape:connector-curvature="0" />
	<path style="fill:none;stroke:red;stroke-width:1px;stroke-linecap:butt;stroke-linejoin:miter;stroke-opacity:1" d="M 573.214,754.703 558.778,738.204 z" id="boundary" inkscape:connector-curvature="0" />
	<path style="fill:none;stroke:red;stroke-width:1px;stroke-linecap:butt;stroke-linejoin:miter;stroke-opacity:1" d="M 558.778,738.204 538.154,734.079 z" id="boundary" inkscape:connector-curvature="0" />
	<path style="fill:none;stroke:red;stroke-width:1px;stroke-linecap:butt;stroke-linejoin:miter;stroke-opacity:1" d="M 538.154,734.079 527.842,754.703 z" id="boundary" inkscape:connector-curvature="0" />
	<path style="fill:none;stroke:red;stroke-width:1px;stroke-linecap:butt;stroke-linejoin:miter;stroke-opacity:1" d="M 527.842,754.703 511.343,769.139 z" id="boundary" inkscape:connector-curvature="0" />
	<path style="fill:none;stroke:red;stroke-width:1px;stroke-linecap:butt;stroke-linejoin:miter;stroke-opacity:1" d="M 511.343,769.139 490.719,765.015 z" id="boundary" inkscape:connector-curvature="0" />
	<path style="fill:none;stroke:red;stroke-width:1px;stroke-linecap:butt;stroke-linejoin:miter;stroke-opacity:1" d="M 490.719,765.015 478.345,748.516 z" id="boundary" inkscape:connector-curvature="0" />
	<path style="fill:none;stroke:red;stroke-width:1px;stroke-linecap:butt;stroke-linejoin:miter;stroke-opacity:1" d="M 478.345,748.516 468.033,729.954 z" id="boundary" inkscape:connector-curvature="0" />
	<path style="fill:none;stroke:red;stroke-width:1px;stroke-linecap:butt;stroke-linejoin:miter;stroke-opacity:1" d="M 468.033,729.954 457.721,711.393 z" id="boundary" inkscape:connector-curvature="0" />
	<path style="fill:none;stroke:red;stroke-width:1px;stroke-linecap:butt;stroke-linejoin:miter;stroke-opacity:1" d="M 457.721,711.393 474.22,694.894 z" id="boundary" inkscape:connector-curvature="0" />
	<path style="fill:none;stroke:red;stroke-width:1px;stroke-linecap:butt;stroke-linejoin:miter;stroke-opacity:1" d="M 474.22,694.894 459.784,676.333 z" id="boundary" inkscape:connector-curvature="0" />
	<path style="fill:none;stroke:red;stroke-width:1px;stroke-linecap:butt;stroke-linejoin:miter;stroke-opacity:1" d="M 459.784,676.333 439.16,676.333 z" id="boundary" inkscape:connector-curvature="0" />
	<path style="fill:none;stroke:red;stroke-width:1px;stroke-linecap:butt;stroke-linejoin:miter;stroke-opacity:1" d="M 439.16,676.333 418.536,676.333 z" id="boundary" inkscape:connector-curvature="0" />
	<path style="fill:none;stroke:red;stroke-width:1px;stroke-linecap:butt;stroke-linejoin:miter;stroke-opacity:1" d="M 418.536,676.333 397.913,676.333 z" id="boundary" inkscape:connector-curvature="0" />
	<path style="fill:none;stroke:red;stroke-width:1px;stroke-linecap:butt;stroke-linejoin:miter;stroke-opacity:1" d="M 397.913,676.333 383.476,692.832 z" id="boundary" inkscape:connector-curvature="0" />
	<path style="fill:none;stroke:red;stroke-width:1px;stroke-linecap:butt;stroke-linejoin:miter;stroke-opacity:1" d="M 383.476,692.832 362.852,703.143 z" id="boundary" inkscape:connector-curvature="0" />
	<path style="fill:none;stroke:red;stroke-width:1px;stroke-linecap:butt;stroke-linejoin:miter;stroke-opacity:1" d="M 362.852,703.143 346.353,717.58 z" id="boundary" inkscape:connector-curvature="0" />
	<path style="fill:none;stroke:red;stroke-width:1px;stroke-linecap:butt;stroke-linejoin:miter;stroke-opacity:1" d="M 346.353,717.58 329.854,736.141 z" id="boundary" inkscape:connector-curvature="0" />
	<path style="fill:none;stroke:red;stroke-width:1px;stroke-linecap:butt;stroke-linejoin:miter;stroke-opacity:1" d="M 329.854,736.141 309.231,746.453 z" id="boundary" inkscape:connector-curvature="0" />
	<path style="fill:none;stroke:red;stroke-width:1px;stroke-linecap:butt;stroke-linejoin:miter;stroke-opacity:1" d="M 309.231,746.453 292.732,758.827 z" id="boundary" inkscape:connector-curvature="0" />
	<path style="fill:none;stroke:red;stroke-width:1px;stroke-linecap:butt;stroke-linejoin:miter;stroke-opacity:1" d="M 292.732,758.827 274.17,769.139 z" id="boundary" inkscape:connector-curvature="0" />
	<path style="fill:none;stroke:red;stroke-width:1px;stroke-linecap:butt;stroke-linejoin:miter;stroke-opacity:1" d="M 274.17,769.139 263.859,789.763 z" id="boundary" inkscape:connector-curvature="0" />
	<path style="fill:none;stroke:red;stroke-width:1px;stroke-linecap:butt;stroke-linejoin:miter;stroke-opacity:1" d="M 263.859,789.763 274.17,808.324 z" id="boundary" inkscape:connector-curvature="0" />
	<path style="fill:none;stroke:red;stroke-width:1px;stroke-linecap:butt;stroke-linejoin:miter;stroke-opacity:1" d="M 274.17,808.324 274.17,828.948 z" id="boundary" inkscape:connector-curvature="0" />
	<path style="fill:none;stroke:red;stroke-width:1px;stroke-linecap:butt;stroke-linejoin:miter;stroke-opacity:1" d="M 274.17,828.948 274.17,849.572 z" id="boundary" inkscape:connector-curvature="0" />
	<path style="fill:none;stroke:red;stroke-width:1px;stroke-linecap:butt;stroke-linejoin:miter;stroke-opacity:1" d="M 274.17,849.572 274.17,870.195 z" id="boundary" inkscape:connector-curvature="0" />
	<path style="fill:none;stroke:red;stroke-width:1px;stroke-linecap:butt;stroke-linejoin:miter;stroke-opacity:1" d="M 274.17,870.195 274.17,890.819 z" id="boundary" inkscape:connector-curvature="0" />
	<path style="fill:none;stroke:red;stroke-width:1px;stroke-linecap:butt;stroke-linejoin:miter;stroke-opacity:1" d="M 274.17,890.819 274.17,911.443 z" id="boundary" inkscape:connector-curvature="0" />
	<path style="fill:none;stroke:red;stroke-width:1px;stroke-linecap:butt;stroke-linejoin:miter;stroke-opacity:1" d="M 274.17,911.443 284.482,930.004 z" id="boundary" inkscape:connector-curvature="0" />
	<path style="fill:none;stroke:red;stroke-width:1px;stroke-linecap:butt;stroke-linejoin:miter;stroke-opacity:1" d="M 284.482,930.004 284.482,950.628 z" id="boundary" inkscape:connector-curvature="0" />
	<path style="fill:none;stroke:red;stroke-width:1px;stroke-linecap:butt;stroke-linejoin:miter;stroke-opacity:1" d="M 284.482,950.628 284.482,971.252 z" id="boundary" inkscape:connector-curvature="0" />
	<path style="fill:none;stroke:red;stroke-width:1px;stroke-linecap:butt;stroke-linejoin:miter;stroke-opacity:1" d="M 284.482,971.252 267.983,993.938 z" id="boundary" inkscape:connector-curvature="0" />
	<path style="fill:none;stroke:red;stroke-width:1px;stroke-linecap:butt;stroke-linejoin:miter;stroke-opacity:1" d="M 267.983,993.938 247.36,996 z" id="boundary" inkscape:connector-curvature="0" />
	<path style="fill:none;stroke:red;stroke-width:1px;stroke-linecap:butt;stroke-linejoin:miter;stroke-opacity:1" d="M 247.36,996 241.173,975.376 z" id="boundary" inkscape:connector-curvature="0" />
	<path style="fill:none;stroke:red;stroke-width:1px;stroke-linecap:butt;stroke-linejoin:miter;stroke-opacity:1" d="M 241.173,975.376 224.674,963.002 z" id="boundary" inkscape:connector-curvature="0" />
	<path style="fill:none;stroke:red;stroke-width:1px;stroke-linecap:butt;stroke-linejoin:miter;stroke-opacity:1" d="M 224.674,963.002 216.424,942.378 z" id="boundary" inkscape:connector-curvature="0" />
	<path style="fill:none;stroke:red;stroke-width:1px;stroke-linecap:butt;stroke-linejoin:miter;stroke-opacity:1" d="M 216.424,942.378 199.925,927.942 z" id="boundary" inkscape:connector-curvature="0" />
	<path style="fill:none;stroke:red;stroke-width:1px;stroke-linecap:butt;stroke-linejoin:miter;stroke-opacity:1" d="M 199.925,927.942 189.613,909.38 z" id="boundary" inkscape:connector-curvature="0" />
	<path style="fill:none;stroke:red;stroke-width:1px;stroke-linecap:butt;stroke-linejoin:miter;stroke-opacity:1" d="M 189.613,909.38 175.177,892.881 z" id="boundary" inkscape:connector-curvature="0" />
	<path style="fill:none;stroke:red;stroke-width:1px;stroke-linecap:butt;stroke-linejoin:miter;stroke-opacity:1" d="M 175.177,892.881 168.99,872.258 z" id="boundary" inkscape:connector-curvature="0" />
	<path style="fill:none;stroke:red;stroke-width:1px;stroke-linecap:butt;stroke-linejoin:miter;stroke-opacity:1" d="M 168.99,872.258 150.428,861.946 z" id="boundary" inkscape:connector-curvature="0" />
	<path style="fill:none;stroke:red;stroke-width:1px;stroke-linecap:butt;stroke-linejoin:miter;stroke-opacity:1" d="M 150.428,861.946 133.929,880.507 z" id="boundary" inkscape:connector-curvature="0" />
	<path style="fill:none;stroke:red;stroke-width:1px;stroke-linecap:butt;stroke-linejoin:miter;stroke-opacity:1" d="M 133.929,880.507 117.43,897.006 z" id="boundary" inkscape:connector-curvature="0" />
	<path style="fill:none;stroke:red;stroke-width:1px;stroke-linecap:butt;stroke-linejoin:miter;stroke-opacity:1" d="M 117.43,897.006 96.8067,905.256 z" id="boundary" inkscape:connector-curvature="0" />
	<path style="fill:none;stroke:red;stroke-width:1px;stroke-linecap:butt;stroke-linejoin:miter;stroke-opacity:1" d="M 96.8067,905.256 86.4948,886.694 z" id="boundary" inkscape:connector-curvature="0" />
	<path style="fill:none;stroke:red;stroke-width:1px;stroke-linecap:butt;stroke-linejoin:miter;stroke-opacity:1" d="M 86.4948,886.694 102.994,870.195 z" id="boundary" inkscape:connector-curvature="0" />
	<path style="fill:none;stroke:red;stroke-width:1px;stroke-linecap:butt;stroke-linejoin:miter;stroke-opacity:1" d="M 102.994,870.195 119.493,853.696 z" id="boundary" inkscape:connector-curvature="0" />
	<path style="fill:none;stroke:red;stroke-width:1px;stroke-linecap:butt;stroke-linejoin:miter;stroke-opacity:1" d="M 119.493,853.696 119.493,824.823 z" id="boundary" inkscape:connector-curvature="0" />
	<path style="fill:none;stroke:red;stroke-width:1px;stroke-linecap:butt;stroke-linejoin:miter;stroke-opacity:1" d="M 119.493,824.823 102.994,810.387 z" id="boundary" inkscape:connector-curvature="0" />
	<path style="fill:none;stroke:red;stroke-width:1px;stroke-linecap:butt;stroke-linejoin:miter;stroke-opacity:1" d="M 102.994,810.387 84.4324,800.075 z" id="boundary" inkscape:connector-curvature="0" />
	<path style="fill:none;stroke:red;stroke-width:1px;stroke-linecap:butt;stroke-linejoin:miter;stroke-opacity:1" d="M 84.4324,800.075 67.9335,785.638 z" id="boundary" inkscape:connector-curvature="0" />
	<path style="fill:none;stroke:red;stroke-width:1px;stroke-linecap:butt;stroke-linejoin:miter;stroke-opacity:1" d="M 67.9335,785.638 55.5593,769.139 z" id="boundary" inkscape:connector-curvature="0" />
	<path style="fill:none;stroke:red;stroke-width:1px;stroke-linecap:butt;stroke-linejoin:miter;stroke-opacity:1" d="M 55.5593,769.139 36.9979,758.827 z" id="boundary" inkscape:connector-curvature="0" />
	<path style="fill:none;stroke:red;stroke-width:1px;stroke-linecap:butt;stroke-linejoin:miter;stroke-opacity:1" d="M 36.9979,758.827 20.499,746.453 z" id="boundary" inkscape:connector-curvature="0" />
	<path style="fill:none;stroke:red;stroke-width:1px;stroke-linecap:butt;stroke-linejoin:miter;stroke-opacity:1" d="M 20.499,746.453 4,732.017 z" id="boundary" inkscape:connector-curvature="0" />
	<path style="fill:none;stroke:red;stroke-width:1px;stroke-linecap:butt;stroke-linejoin:miter;stroke-opacity:1" d="M 4,732.017 4,711.393 z" id="boundary" inkscape:connector-curvature="0" />
	<path style="fill:none;stroke:red;stroke-width:1px;stroke-linecap:butt;stroke-linejoin:miter;stroke-opacity:1" d="M 4,711.393 24.6237,705.206 z" id="boundary" inkscape:connector-curvature="0" />
	<path style="fill:none;stroke:red;stroke-width:1px;stroke-linecap:butt;stroke-linejoin:miter;stroke-opacity:1" d="M 24.6237,705.206 45.2474,705.206 z" id="boundary" inkscape:connector-curvature="0" />
	<path style="fill:none;stroke:red;stroke-width:1px;stroke-linecap:butt;stroke-linejoin:miter;stroke-opacity:1" d="M 45.2474,705.206 65.8711,705.206 z" id="boundary" inkscape:connector-curvature="0" />
	<path style="fill:none;stroke:red;stroke-width:1px;stroke-linecap:butt;stroke-linejoin:miter;stroke-opacity:1" d="M 65.8711,705.206 86.4948,709.331 z" id="boundary" inkscape:connector-curvature="0" />
	<path style="fill:none;stroke:red;stroke-width:1px;stroke-linecap:butt;stroke-linejoin:miter;stroke-opacity:1" d="M 86.4948,709.331 107.119,715.518 z" id="boundary" inkscape:connector-curvature="0" />
	<path style="fill:none;stroke:red;stroke-width:1px;stroke-linecap:butt;stroke-linejoin:miter;stroke-opacity:1" d="M 107.119,715.518 127.742,715.518 z" id="boundary" inkscape:connector-curvature="0" />
	<path style="fill:none;stroke:red;stroke-width:1px;stroke-linecap:butt;stroke-linejoin:miter;stroke-opacity:1" d="M 127.742,715.518 148.366,719.642 z" id="boundary" inkscape:connector-curvature="0" />
	<path style="fill:none;stroke:red;stroke-width:1px;stroke-linecap:butt;stroke-linejoin:miter;stroke-opacity:1" d="M 148.366,719.642 168.99,725.83 z" id="boundary" inkscape:connector-curvature="0" />
	<path style="fill:none;stroke:red;stroke-width:1px;stroke-linecap:butt;stroke-linejoin:miter;stroke-opacity:1" d="M 168.99,725.83 189.613,725.83 z" id="boundary" inkscape:connector-curvature="0" />
	<path style="fill:none;stroke:red;stroke-width:1px;stroke-linecap:butt;stroke-linejoin:miter;stroke-opacity:1" d="M 189.613,725.83 210.237,725.83 z" id="boundary" inkscape:connector-curvature="0" />
	<path style="fill:none;stroke:red;stroke-width:1px;stroke-linecap:butt;stroke-linejoin:miter;stroke-opacity:1" d="M 210.237,725.83 228.798,715.518 z" id="boundary" inkscape:connector-curvature="0" />
	<path style="fill:none;stroke:red;stroke-width:1px;stroke-linecap:butt;stroke-linejoin:miter;stroke-opacity:1" d="M 228.798,715.518 241.173,690.769 z" id="boundary" inkscape:connector-curvature="0" />
	<path style="fill:none;stroke:red;stroke-width:1px;stroke-linecap:butt;stroke-linejoin:miter;stroke-opacity:1" d="M 241.173,690.769 257.672,674.27 z" id="boundary" inkscape:connector-curvature="0" />
	<path style="fill:none;stroke:red;stroke-width:1px;stroke-linecap:butt;stroke-linejoin:miter;stroke-opacity:1" d="M 257.672,674.27 272.108,649.522 z" id="boundary" inkscape:connector-curvature="0" />
	<path style="fill:none;stroke:red;stroke-width:1px;stroke-linecap:butt;stroke-linejoin:miter;stroke-opacity:1" d="M 272.108,649.522 288.607,633.023 z" id="boundary" inkscape:connector-curvature="0" />
	<path style="fill:none;stroke:red;stroke-width:1px;stroke-linecap:butt;stroke-linejoin:miter;stroke-opacity:1" d="M 288.607,633.023 298.919,612.399 z" id="boundary" inkscape:connector-curvature="0" />
	<path style="fill:none;stroke:red;stroke-width:1px;stroke-linecap:butt;stroke-linejoin:miter;stroke-opacity:1" d="M 298.919,612.399 315.418,595.9 z" id="boundary" inkscape:connector-curvature="0" />
	<path style="fill:none;stroke:red;stroke-width:1px;stroke-linecap:butt;stroke-linejoin:miter;stroke-opacity:1" d="M 315.418,595.9 325.73,575.277 z" id="boundary" inkscape:connector-curvature="0" />
	<path style="fill:none;stroke:red;stroke-width:1px;stroke-linecap:butt;stroke-linejoin:miter;stroke-opacity:1" d="M 325.73,575.277 342.229,560.84 z" id="boundary" inkscape:connector-curvature="0" />
	<path style="fill:none;stroke:red;stroke-width:1px;stroke-linecap:butt;stroke-linejoin:miter;stroke-opacity:1" d="M 342.229,560.84 342.229,521.655 z" id="boundary" inkscape:connector-curvature="0" />
	<path style="fill:none;stroke:red;stroke-width:1px;stroke-linecap:butt;stroke-linejoin:miter;stroke-opacity:1" d="M 342.229,521.655 325.73,507.218 z" id="boundary" inkscape:connector-curvature="0" />
	<path style="fill:none;stroke:red;stroke-width:1px;stroke-linecap:butt;stroke-linejoin:miter;stroke-opacity:1" d="M 325.73,507.218 313.356,490.719 z" id="boundary" inkscape:connector-curvature="0" />
	<path style="fill:none;stroke:red;stroke-width:1px;stroke-linecap:butt;stroke-linejoin:miter;stroke-opacity:1" d="M 313.356,490.719 294.794,480.407 z" id="boundary" inkscape:connector-curvature="0" />
	<path style="fill:none;stroke:red;stroke-width:1px;stroke-linecap:butt;stroke-linejoin:miter;stroke-opacity:1" d="M 294.794,480.407 288.607,509.281 z" id="boundary" inkscape:connector-curvature="0" />
	<path style="fill:none;stroke:red;stroke-width:1px;stroke-linecap:butt;stroke-linejoin:miter;stroke-opacity:1" d="M 288.607,509.281 272.108,521.655 z" id="boundary" inkscape:connector-curvature="0" />
	<path style="fill:none;stroke:red;stroke-width:1px;stroke-linecap:butt;stroke-linejoin:miter;stroke-opacity:1" d="M 272.108,521.655 251.484,515.468 z" id="boundary" inkscape:connector-curvature="0" />
	<path style="fill:none;stroke:red;stroke-width:1px;stroke-linecap:butt;stroke-linejoin:miter;stroke-opacity:1" d="M 251.484,515.468 237.048,498.969 z" id="boundary" inkscape:connector-curvature="0" />
	<path style="fill:none;stroke:red;stroke-width:1px;stroke-linecap:butt;stroke-linejoin:miter;stroke-opacity:1" d="M 237.048,498.969 220.549,484.532 z" id="boundary" inkscape:connector-curvature="0" />
	<path style="fill:none;stroke:red;stroke-width:1px;stroke-linecap:butt;stroke-linejoin:miter;stroke-opacity:1" d="M 220.549,484.532 220.549,463.909 z" id="boundary" inkscape:connector-curvature="0" />
	<path style="fill:none;stroke:red;stroke-width:1px;stroke-linecap:butt;stroke-linejoin:miter;stroke-opacity:1" d="M 220.549,463.909 241.173,453.597 z" id="boundary" inkscape:connector-curvature="0" />
	<path style="fill:none;stroke:red;stroke-width:1px;stroke-linecap:butt;stroke-linejoin:miter;stroke-opacity:1" d="M 241.173,453.597 261.796,428.848 z" id="boundary" inkscape:connector-curvature="0" />
	<path style="fill:none;stroke:red;stroke-width:1px;stroke-linecap:butt;stroke-linejoin:miter;stroke-opacity:1" d="M 261.796,428.848 245.297,416.474 z" id="boundary" inkscape:connector-curvature="0" />
	<path style="fill:none;stroke:red;stroke-width:1px;stroke-linecap:butt;stroke-linejoin:miter;stroke-opacity:1" d="M 245.297,416.474 230.861,399.975 z" id="boundary" inkscape:connector-curvature="0" />
	<path style="fill:none;stroke:red;stroke-width:1px;stroke-linecap:butt;stroke-linejoin:miter;stroke-opacity:1" d="M 230.861,399.975 214.362,387.601 z" id="boundary" inkscape:connector-curvature="0" />
	<path style="fill:none;stroke:red;stroke-width:1px;stroke-linecap:butt;stroke-linejoin:miter;stroke-opacity:1" d="M 214.362,387.601 195.8,377.289 z" id="boundary" inkscape:connector-curvature="0" />
	<path style="fill:none;stroke:red;stroke-width:1px;stroke-linecap:butt;stroke-linejoin:miter;stroke-opacity:1" d="M 195.8,377.289 181.364,360.79 z" id="boundary" inkscape:connector-curvature="0" />
	<path style="fill:none;stroke:red;stroke-width:1px;stroke-linecap:butt;stroke-linejoin:miter;stroke-opacity:1" d="M 181.364,360.79 160.74,352.541 z" id="boundary" inkscape:connector-curvature="0" />
	<path style="fill:none;stroke:red;stroke-width:1px;stroke-linecap:butt;stroke-linejoin:miter;stroke-opacity:1" d="M 160.74,352.541 148.366,336.042 z" id="boundary" inkscape:connector-curvature="0" />
	<path style="fill:none;stroke:red;stroke-width:1px;stroke-linecap:butt;stroke-linejoin:miter;stroke-opacity:1" d="M 148.366,336.042 129.805,325.73 z" id="boundary" inkscape:connector-curvature="0" />
	<path style="fill:none;stroke:red;stroke-width:1px;stroke-linecap:butt;stroke-linejoin:miter;stroke-opacity:1" d="M 129.805,325.73 113.306,313.356 z" id="boundary" inkscape:connector-curvature="0" />
	<path style="fill:none;stroke:red;stroke-width:1px;stroke-linecap:butt;stroke-linejoin:miter;stroke-opacity:1" d="M 113.306,313.356 96.8067,298.919 z" id="boundary" inkscape:connector-curvature="0" />
	<path style="fill:none;stroke:red;stroke-width:1px;stroke-linecap:butt;stroke-linejoin:miter;stroke-opacity:1" d="M 96.8067,298.919 113.306,282.42 z" id="boundary" inkscape:connector-curvature="0" />
	<path style="fill:none;stroke:red;stroke-width:1px;stroke-linecap:butt;stroke-linejoin:miter;stroke-opacity:1" d="M 113.306,282.42 129.805,265.921 z" id="boundary" inkscape:connector-curvature="0" />
	<path style="fill:none;stroke:red;stroke-width:1px;stroke-linecap:butt;stroke-linejoin:miter;stroke-opacity:1" d="M 129.805,265.921 146.304,251.484 z" id="boundary" inkscape:connector-curvature="0" />
	<path style="fill:none;stroke:red;stroke-width:1px;stroke-linecap:butt;stroke-linejoin:miter;stroke-opacity:1" d="M 146.304,251.484 164.865,241.173 z" id="boundary" inkscape:connector-curvature="0" />
	<path style="fill:none;stroke:red;stroke-width:1px;stroke-linecap:butt;stroke-linejoin:miter;stroke-opacity:1" d="M 164.865,241.173 185.489,241.173 z" id="boundary" inkscape:connector-curvature="0" />
	<path style="fill:none;stroke:red;stroke-width:1px;stroke-linecap:butt;stroke-linejoin:miter;stroke-opacity:1" d="M 185.489,241.173 206.112,241.173 z" id="boundary" inkscape:connector-curvature="0" />
	<path style="fill:none;stroke:red;stroke-width:1px;stroke-linecap:butt;stroke-linejoin:miter;stroke-opacity:1" d="M 206.112,241.173 226.736,241.173 z" id="boundary" inkscape:connector-curvature="0" />
	<path style="fill:none;stroke:red;stroke-width:1px;stroke-linecap:butt;stroke-linejoin:miter;stroke-opacity:1" d="M 226.736,241.173 247.36,230.861 z" id="boundary" inkscape:connector-curvature="0" />
	<path style="fill:none;stroke:red;stroke-width:1px;stroke-linecap:butt;stroke-linejoin:miter;stroke-opacity:1" d="M 247.36,230.861 263.859,214.362 z" id="boundary" inkscape:connector-curvature="0" />
	<path style="fill:none;stroke:red;stroke-width:1px;stroke-linecap:butt;stroke-linejoin:miter;stroke-opacity:1" d="M 263.859,214.362 274.17,193.738 z" id="boundary" inkscape:connector-curvature="0" />
	<path style="fill:none;stroke:red;stroke-width:1px;stroke-linecap:butt;stroke-linejoin:miter;stroke-opacity:1" d="M 274.17,193.738 290.669,179.301 z" id="boundary" inkscape:connector-curvature="0" />
	<path style="fill:none;stroke:red;stroke-width:1px;stroke-linecap:butt;stroke-linejoin:miter;stroke-opacity:1" d="M 290.669,179.301 300.981,208.175 z" id="boundary" inkscape:connector-curvature="0" />
	<path style="fill:none;stroke:red;stroke-width:1px;stroke-linecap:butt;stroke-linejoin:miter;stroke-opacity:1" d="M 300.981,208.175 284.482,222.611 z" id="boundary" inkscape:connector-curvature="0" />
	<path style="fill:none;stroke:red;stroke-width:1px;stroke-linecap:butt;stroke-linejoin:miter;stroke-opacity:1" d="M 284.482,222.611 263.859,243.235 z" id="boundary" inkscape:connector-curvature="0" />
	<path style="fill:none;stroke:red;stroke-width:1px;stroke-linecap:butt;stroke-linejoin:miter;stroke-opacity:1" d="M 263.859,243.235 274.17,261.796 z" id="boundary" inkscape:connector-curvature="0" />
	<path style="fill:none;stroke:red;stroke-width:1px;stroke-linecap:butt;stroke-linejoin:miter;stroke-opacity:1" d="M 274.17,261.796 294.794,261.796 z" id="boundary" inkscape:connector-curvature="0" />
	<path style="fill:none;stroke:red;stroke-width:1px;stroke-linecap:butt;stroke-linejoin:miter;stroke-opacity:1" d="M 294.794,261.796 315.418,255.609 z" id="boundary" inkscape:connector-curvature="0" />
	<path style="fill:none;stroke:red;stroke-width:1px;stroke-linecap:butt;stroke-linejoin:miter;stroke-opacity:1" d="M 315.418,255.609 331.917,241.173 z" id="boundary" inkscape:connector-curvature="0" />
	<path style="fill:none;stroke:red;stroke-width:1px;stroke-linecap:butt;stroke-linejoin:miter;stroke-opacity:1" d="M 331.917,241.173 346.353,224.674 z" id="boundary" inkscape:connector-curvature="0" />
	<path style="fill:none;stroke:red;stroke-width:1px;stroke-linecap:butt;stroke-linejoin:miter;stroke-opacity:1" d="M 346.353,224.674 366.977,226.736 z" id="boundary" inkscape:connector-curvature="0" />
	<path style="fill:none;stroke:red;stroke-width:1px;stroke-linecap:butt;stroke-linejoin:miter;stroke-opacity:1" d="M 366.977,226.736 352.541,249.422 z" id="boundary" inkscape:connector-curvature="0" />
	<path style="fill:none;stroke:red;stroke-width:1px;stroke-linecap:butt;stroke-linejoin:miter;stroke-opacity:1" d="M 352.541,249.422 336.042,263.859 z" id="boundary" inkscape:connector-curvature="0" />
	<path style="fill:none;stroke:red;stroke-width:1px;stroke-linecap:butt;stroke-linejoin:miter;stroke-opacity:1" d="M 336.042,263.859 356.665,272.108 z" id="boundary" inkscape:connector-curvature="0" />
	<path style="fill:none;stroke:red;stroke-width:1px;stroke-linecap:butt;stroke-linejoin:miter;stroke-opacity:1" d="M 356.665,272.108 377.289,278.295 z" id="boundary" inkscape:connector-curvature="0" />
	<path style="fill:none;stroke:red;stroke-width:1px;stroke-linecap:butt;stroke-linejoin:miter;stroke-opacity:1" d="M 377.289,278.295 397.913,282.42 z" id="boundary" inkscape:connector-curvature="0" />
	<path style="fill:none;stroke:red;stroke-width:1px;stroke-linecap:butt;stroke-linejoin:miter;stroke-opacity:1" d="M 397.913,282.42 416.474,272.108 z" id="boundary" inkscape:connector-curvature="0" />
	<path style="fill:none;stroke:red;stroke-width:1px;stroke-linecap:butt;stroke-linejoin:miter;stroke-opacity:1" d="M 416.474,272.108 435.035,261.796 z" id="boundary" inkscape:connector-curvature="0" />
	<path style="fill:none;stroke:red;stroke-width:1px;stroke-linecap:butt;stroke-linejoin:miter;stroke-opacity:1" d="M 435.035,261.796 443.285,241.173 z" id="boundary" inkscape:connector-curvature="0" />
	<path style="fill:none;stroke:red;stroke-width:1px;stroke-linecap:butt;stroke-linejoin:miter;stroke-opacity:1" d="M 443.285,241.173 459.784,224.674 z" id="boundary" inkscape:connector-curvature="0" />
	<path style="fill:none;stroke:red;stroke-width:1px;stroke-linecap:butt;stroke-linejoin:miter;stroke-opacity:1" d="M 459.784,224.674 476.283,210.237 z" id="boundary" inkscape:connector-curvature="0" />
	<path style="fill:none;stroke:red;stroke-width:1px;stroke-linecap:butt;stroke-linejoin:miter;stroke-opacity:1" d="M 476.283,210.237 490.719,193.738 z" id="boundary" inkscape:connector-curvature="0" />
	<path style="fill:none;stroke:red;stroke-width:1px;stroke-linecap:butt;stroke-linejoin:miter;stroke-opacity:1" d="M 490.719,193.738 507.218,179.301 z" id="boundary" inkscape:connector-curvature="0" />
	<path style="fill:none;stroke:red;stroke-width:1px;stroke-linecap:butt;stroke-linejoin:miter;stroke-opacity:1" d="M 507.218,179.301 525.78,168.99 z" id="boundary" inkscape:connector-curvature="0" />
	<path style="fill:none;stroke:red;stroke-width:1px;stroke-linecap:butt;stroke-linejoin:miter;stroke-opacity:1" d="M 525.78,168.99 544.341,158.678 z" id="boundary" inkscape:connector-curvature="0" />
	<path style="fill:none;stroke:red;stroke-width:1px;stroke-linecap:butt;stroke-linejoin:miter;stroke-opacity:1" d="M 544.341,158.678 562.902,148.366 z" id="boundary" inkscape:connector-curvature="0" />
	<path style="fill:none;stroke:red;stroke-width:1px;stroke-linecap:butt;stroke-linejoin:miter;stroke-opacity:1" d="M 562.902,148.366 583.526,148.366 z" id="boundary" inkscape:connector-curvature="0" />
	<path style="fill:none;stroke:red;stroke-width:1px;stroke-linecap:butt;stroke-linejoin:miter;stroke-opacity:1" d="M 583.526,148.366 604.15,148.366 z" id="boundary" inkscape:connector-curvature="0" />
	<path style="fill:none;stroke:red;stroke-width:1px;stroke-linecap:butt;stroke-linejoin:miter;stroke-opacity:1" d="M 604.15,148.366 624.773,148.366 z" id="boundary" inkscape:connector-curvature="0" />
	<path style="fill:none;stroke:red;stroke-width:1px;stroke-linecap:butt;stroke-linejoin:miter;stroke-opacity:1" d="M 624.773,148.366 645.397,148.366 z" id="boundary" inkscape:connector-curvature="0" />
	<path style="fill:none;stroke:red;stroke-width:1px;stroke-linecap:butt;stroke-linejoin:miter;stroke-opacity:1" d="M 645.397,148.366 666.021,148.366 z" id="boundary" inkscape:connector-curvature="0" />
	<path style="fill:none;stroke:red;stroke-width:1px;stroke-linecap:butt;stroke-linejoin:miter;stroke-opacity:1" d="M 666.021,148.366 686.644,148.366 z" id="boundary" inkscape:connector-curvature="0" />
	<path style="fill:none;stroke:red;stroke-width:1px;stroke-linecap:butt;stroke-linejoin:miter;stroke-opacity:1" d="M 686.644,148.366 707.268,148.366 z" id="boundary" inkscape:connector-curvature="0" />
	<path style="fill:none;stroke:red;stroke-width:1px;stroke-linecap:butt;stroke-linejoin:miter;stroke-opacity:1" d="M 707.268,148.366 723.767,160.74 z" id="boundary" inkscape:connector-curvature="0" />
	<path style="fill:none;stroke:red;stroke-width:1px;stroke-linecap:butt;stroke-linejoin:miter;stroke-opacity:1" d="M 723.767,160.74 732.017,181.364 z" id="boundary" inkscape:connector-curvature="0" />
	<path style="fill:none;stroke:red;stroke-width:1px;stroke-linecap:butt;stroke-linejoin:miter;stroke-opacity:1" d="M 732.017,181.364 752.64,179.301 z" id="boundary" inkscape:connector-curvature="0" />
	<path style="fill:none;stroke:red;stroke-width:1px;stroke-linecap:butt;stroke-linejoin:miter;stroke-opacity:1" d="M 752.64,179.301 769.139,162.802 z" id="boundary" inkscape:connector-curvature="0" />
	<path style="fill:none;stroke:red;stroke-width:1px;stroke-linecap:butt;stroke-linejoin:miter;stroke-opacity:1" d="M 769.139,162.802 785.638,148.366 z" id="boundary" inkscape:connector-curvature="0" />
	<path style="fill:none;stroke:red;stroke-width:1px;stroke-linecap:butt;stroke-linejoin:miter;stroke-opacity:1" d="M 785.638,148.366 800.075,131.867 z" id="boundary" inkscape:connector-curvature="0" />
	<path style="fill:none;stroke:red;stroke-width:1px;stroke-linecap:butt;stroke-linejoin:miter;stroke-opacity:1" d="M 800.075,131.867 816.574,117.43 z" id="boundary" inkscape:connector-curvature="0" />
	<path style="fill:none;stroke:red;stroke-width:1px;stroke-linecap:butt;stroke-linejoin:miter;stroke-opacity:1" d="M 816.574,117.43 831.01,100.931 z" id="boundary" inkscape:connector-curvature="0" />
	<path style="fill:none;stroke:red;stroke-width:1px;stroke-linecap:butt;stroke-linejoin:miter;stroke-opacity:1" d="M 831.01,100.931 847.509,86.4948 z" id="boundary" inkscape:connector-curvature="0" />
	<path style="fill:none;stroke:red;stroke-width:1px;stroke-linecap:butt;stroke-linejoin:miter;stroke-opacity:1" d="M 847.509,86.4948 861.946,69.9958 z" id="boundary" inkscape:connector-curvature="0" />
	<path style="fill:none;stroke:red;stroke-width:1px;stroke-linecap:butt;stroke-linejoin:miter;stroke-opacity:1" d="M 861.946,69.9958 878.445,55.5593 z" id="boundary" inkscape:connector-curvature="0" />
	<path style="fill:none;stroke:red;stroke-width:1px;stroke-linecap:butt;stroke-linejoin:miter;stroke-opacity:1" d="M 878.445,55.5593 892.881,39.0603 z" id="boundary" inkscape:connector-curvature="0" />
	<path style="fill:none;stroke:red;stroke-width:1px;stroke-linecap:butt;stroke-linejoin:miter;stroke-opacity:1" d="M 892.881,39.0603 909.38,24.6237 z" id="boundary" inkscape:connector-curvature="0" />
	<path style="fill:none;stroke:red;stroke-width:1px;stroke-linecap:butt;stroke-linejoin:miter;stroke-opacity:1" d="M 909.38,24.6237 927.942,14.3119 z" id="boundary" inkscape:connector-curvature="0" />
	<path style="fill:none;stroke:red;stroke-width:1px;stroke-linecap:butt;stroke-linejoin:miter;stroke-opacity:1" d="M 927.942,14.3119 948.565,4 z" id="boundary" inkscape:connector-curvature="0" />
	<path style="fill:none;stroke:red;stroke-width:1px;stroke-linecap:butt;stroke-linejoin:miter;stroke-opacity:1" d="M 948.565,4 969.189,4 z" id="boundary" inkscape:connector-curvature="0" />
	<path style="fill:none;stroke:red;stroke-width:1px;stroke-linecap:butt;stroke-linejoin:miter;stroke-opacity:1" d="M 969.189,4 971.252,43.185 z" id="boundary" inkscape:connector-curvature="0" />
	<circle cx="4" cy="711.393" r="4" fill="#0" id="circle0"/>
	<circle cx="4" cy="732.017" r="4" fill="#0" id="circle1"/>
	<circle cx="20.499" cy="746.453" r="4" fill="#0" id="circle2"/>
	<circle cx="24.6237" cy="705.206" r="4" fill="#0" id="circle3"/>
	<circle cx="36.9979" cy="758.827" r="4" fill="#0" id="circle4"/>
	<circle cx="45.2474" cy="705.206" r="4" fill="#0" id="circle5"/>
	<circle cx="55.5593" cy="769.139" r="4" fill="#0" id="circle6"/>
	<circle cx="65.8711" cy="705.206" r="4" fill="#0" id="circle7"/>
	<circle cx="67.9335" cy="785.638" r="4" fill="#0" id="circle8"/>
	<circle cx="84.4324" cy="800.075" r="4" fill="#0" id="circle9"/>
	<circle cx="86.4948" cy="709.331" r="4" fill="#0" id="circle10"/>
	<circle cx="86.4948" cy="886.694" r="4" fill="#0" id="circle11"/>
	<circle cx="96.8067" cy="298.919" r="4" fill="#0" id="circle12"/>
	<circle cx="96.8067" cy="905.256" r="4" fill="#0" id="circle13"/>
	<circle cx="102.994" cy="810.387" r="4" fill="#0" id="circle14"/>
	<circle cx="102.994" cy="870.195" r="4" fill="#0" id="circle15"/>
	<circle cx="107.119" cy="715.518" r="4" fill="#0" id="circle16"/>
	<circle cx="113.306" cy="282.42" r="4" fill="#0" id="circle17"/>
	<circle cx="113.306" cy="313.356" r="4" fill="#0" id="circle18"/>
	<circle cx="117.43" cy="897.006" r="4" fill="#0" id="circle19"/>
	<circle cx="119.493" cy="824.823" r="4" fill="#0" id="circle20"/>
	<circle cx="119.493" cy="853.696" r="4" fill="#0" id="circle21"/>
	<circle cx="127.742" cy="715.518" r="4" fill="#0" id="circle22"/>
	<circle cx="129.805" cy="265.921" r="4" fill="#0" id="circle23"/>
	<circle cx="129.805" cy="325.73" r="4" fill="#0" id="circle24"/>
	<circle cx="133.929" cy="880.507" r="4" fill="#0" id="circle25"/>
	<circle cx="146.304" cy="251.484" r="4" fill="#0" id="circle26"/>
	<circle cx="148.366" cy="336.042" r="4" fill="#0" id="circle27"/>
	<circle cx="148.366" cy="719.642" r="4" fill="#0" id="circle28"/>
	<circle cx="150.428" cy="861.946" r="4" fill="#0" id="circle29"/>
	<circle cx="160.74" cy="352.541" r="4" fill="#0" id="circle30"/>
	<circle cx="164.865" cy="241.173" r="4" fill="#0" id="circle31"/>
	<circle cx="168.99" cy="725.83" r="4" fill="#0" id="circle32"/>
	<circle cx="168.99" cy="872.258" r="4" fill="#0" id="circle33"/>
	<circle cx="175.177" cy="892.881" r="4" fill="#0" id="circle34"/>
	<circle cx="181.364" cy="360.79" r="4" fill="#0" id="circle35"/>
	<circle cx="185.489" cy="241.173" r="4" fill="#0" id="circle36"/>
	<circle cx="189.613" cy="725.83" r="4" fill="#0" id="circle37"/>
	<circle cx="189.613" cy="909.38" r="4" fill="#0" id="circle38"/>
	<circle cx="195.8" cy="377.289" r="4" fill="#0" id="circle39"/>
	<circle cx="199.925" cy="927.942" r="4" fill="#0" id="circle40"/>
	<circle cx="206.112" cy="241.173" r="4" fill="#0" id="circle41"/>
	<circle cx="210.237" cy="725.83" r="4" fill="#0" id="circle42"/>
	<circle cx="214.362" cy="387.601" r="4" fill="#0" id="circle43"/>
	<circle cx="216.424" cy="942.378" r="4" fill="#0" id="circle44"/>
	<circle cx="220.549" cy="463.909" r="4" fill="#0" id="circle45"/>
	<circle cx="220.549" cy="484.532" r="4" fill="#0" id="circle46"/>
	<circle cx="224.674" cy="963.002" r="4" fill="#0" id="circle47"/>
	<circle cx="226.736" cy="241.173" r="4" fill="#0" id="circle48"/>
	<circle cx="228.798" cy="715.518" r="4" fill="#0" id="circle49"/>
	<circle cx="230.861" cy="399.975" r="4" fill="#0" id="circle50"/>
	<circle cx="237.048" cy="498.969" r="4" fill="#0" id="circle51"/>
	<circle cx="241.173" cy="453.597" r="4" fill="#0" id="circle52"/>
	<circle cx="241.173" cy="690.769" r="4" fill="#0" id="circle53"/>
	<circle cx="241.173" cy="975.376" r="4" fill="#0" id="circle54"/>
	<circle cx="245.297" cy="416.474" r="4" fill="#0" id="circle55"/>
	<circle cx="247.36" cy="230.861" r="4" fill="#0" id="circle56"/>
	<circle cx="247.36" cy="996" r="4" fill="#0" id="circle57"/>
	<circle cx="251.484" cy="515.468" r="4" fill="#0" id="circle58"/>
	<circle cx="257.672" cy="674.27" r="4" fill="#0" id="circle59"/>
	<circle cx="261.796" cy="428.848" r="4" fill="#0" id="circle60"/>
	<circle cx="263.859" cy="214.362" r="4" fill="#0" id="circle61"/>
	<circle cx="263.859" cy="243.235" r="4" fill="#0" id="circle62"/>
	<circle cx="263.859" cy="789.763" r="4" fill="#0" id="circle63"/>
	<circle cx="267.983" cy="993.938" r="4" fill="#0" id="circle64"/>
	<circle cx="272.108" cy="521.655" r="4" fill="#0" id="circle65"/>
	<circle cx="272.108" cy="649.522" r="4" fill="#0" id="circle66"/>
	<circle cx="274.17" cy="193.738" r="4" fill="#0" id="circle67"/>
	<circle cx="274.17" cy="261.796" r="4" fill="#0" id="circle68"/>
	<circle cx="274.17" cy="769.139" r="4" fill="#0" id="circle69"/>
	<circle cx="274.17" cy="808.324" r="4" fill="#0" id="circle70"/>
	<circle cx="274.17" cy="828.948" r="4" fill="#0" id="circle71"/>
	<circle cx="274.17" cy="849.572" r="4" fill="#0" id="circle72"/>
	<circle cx="274.17" cy="870.195" r="4" fill="#0" id="circle73"/>
	<circle cx="274.17" cy="890.819" r="4" fill="#0" id="circle74"/>
	<circle cx="274.17" cy="911.443" r="4" fill="#0" id="circle75"/>
	<circle cx="284.482" cy="222.611" r="4" fill="#0" id="circle76"/>
	<circle cx="284.482" cy="930.004" r="4" fill="#0" id="circle77"/>
	<circle cx="284.482" cy="950.628" r="4" fill="#0" id="circle78"/>
	<circle cx="284.482" cy="971.252" r="4" fill="#0" id="circle79"/>
	<circle cx="288.607" cy="509.281" r="4" fill="#0" id="circle80"/>
	<circle cx="288.607" cy="633.023" r="4" fill="#0" id="circle81"/>
	<circle cx="290.669" cy="179.301" r="4" fill="#0" id="circle82"/>
	<circle cx="292.732" cy="758.827" r="4" fill="#0" id="circle83"/>
	<circle cx="294.794" cy="261.796" r="4" fill="#0" id="circle84"/>
	<circle cx="294.794" cy="480.407" r="4" fill="#0" id="circle85"/>
	<circle cx="298.919" cy="612.399" r="4" fill="#0" id="circle86"/>
	<circle cx="300.981" cy="208.175" r="4" fill="#0" id="circle87"/>
	<circle cx="309.231" cy="746.453" r="4" fill="#0" id="circle88"/>
	<circle cx="313.356" cy="490.719" r="4" fill="#0" id="circle89"/>
	<circle cx="315.418" cy="255.609" r="4" fill="#0" id="circle90"/>
	<circle cx="315.418" cy="595.9" r="4" fill="#0" id="circle91"/>
	<circle cx="325.73" cy="507.218" r="4" fill="#0" id="circle92"/>
	<circle cx="325.73" cy="575.277" r="4" fill="#0" id="circle93"/>
	<circle cx="329.854" cy="736.141" r="4" fill="#0" id="circle94"/>
	<circle cx="331.917" cy="241.173" r="4" fill="#0" id="circle95"/>
	<circle cx="336.042" cy="263.859" r="4" fill="#0" id="circle96"/>
	<circle cx="342.229" cy="521.655" r="4" fill="#0" id="circle97"/>
	<circle cx="342.229" cy="560.84" r="4" fill="#0" id="circle98"/>
	<circle cx="346.353" cy="224.674" r="4" fill="#0" id="circle99"/>
	<circle cx="346.353" cy="717.58" r="4" fill="#0" id="circle100"/>
	<circle cx="352.541" cy="249.422" r="4" fill="#0" id="circle101"/>
	<circle cx="356.665" cy="272.108" r="4" fill="#0" id="circle102"/>
	<circle cx="362.852" cy="703.143" r="4" fill="#0" id="circle103"/>
	<circle cx="366.977" cy="226.736" r="4" fill="#0" id="circle104"/>
	<circle cx="377.289" cy="278.295" r="4" fill="#0" id="circle105"/>
	<circle cx="383.476" cy="692.832" r="4" fill="#0" id="circle106"/>
	<circle cx="397.913" cy="282.42" r="4" fill="#0" id="circle107"/>
	<circle cx="397.913" cy="676.333" r="4" fill="#0" id="circle108"/>
	<circle cx="416.474" cy="272.108" r="4" fill="#0" id="circle109"/>
	<circle cx="418.536" cy="676.333" r="4" fill="#0" id="circle110"/>
	<circle cx="435.035" cy="261.796" r="4" fill="#0" id="circle111"/>
	<circle cx="439.16" cy="676.333" r="4" fill="#0" id="circle112"/>
	<circle cx="443.285" cy="241.173" r="4" fill="#0" id="circle113"/>
	<circle cx="457.721" cy="711.393" r="4" fill="#0" id="circle114"/>
	<circle cx="459.784" cy="224.674" r="4" fill="#0" id="circle115"/>
	<circle cx="459.784" cy="676.333" r="4" fill="#0" id="circle116"/>
	<circle cx="468.033" cy="729.954" r="4" fill="#0" id="circle117"/>
	<circle cx="474.22" cy="694.894" r="4" fill="#0" id="circle118"/>
	<circle cx="476.283" cy="210.237" r="4" fill="#0" id="circle119"/>
	<circle cx="478.345" cy="748.516" r="4" fill="#0" id="circle120"/>
	<circle cx="490.719" cy="193.738" r="4" fill="#0" id="circle121"/>
	<circle cx="490.719" cy="765.015" r="4" fill="#0" id="circle122"/>
	<circle cx="507.218" cy="179.301" r="4" fill="#0" id="circle123"/>
	<circle cx="511.343" cy="769.139" r="4" fill="#0" id="circle124"/>
	<circle cx="525.78" cy="168.99" r="4" fill="#0" id="circle125"/>
	<circle cx="527.842" cy="754.703" r="4" fill="#0" id="circle126"/>
	<circle cx="538.154" cy="734.079" r="4" fill="#0" id="circle127"/>
	<circle cx="544.341" cy="158.678" r="4" fill="#0" id="circle128"/>
	<circle cx="558.778" cy="738.204" r="4" fill="#0" id="circle129"/>
	<circle cx="562.902" cy="148.366" r="4" fill="#0" id="circle130"/>
	<circle cx="573.214" cy="754.703" r="4" fill="#0" id="circle131"/>
	<circle cx="583.526" cy="148.366" r="4" fill="#0" id="circle132"/>
	<circle cx="589.713" cy="769.139" r="4" fill="#0" id="circle133"/>
	<circle cx="602.087" cy="785.638" r="4" fill="#0" id="circle134"/>
	<circle cx="604.15" cy="148.366" r="4" fill="#0" id="circle135"/>
	<circle cx="612.399" cy="804.2" r="4" fill="#0" id="circle136"/>
	<circle cx="624.773" cy="148.366" r="4" fill="#0" id="circle137"/>
	<circle cx="628.898" cy="818.636" r="4" fill="#0" id="circle138"/>
	<circle cx="637.148" cy="839.26" r="4" fill="#0" id="circle139"/>
	<circle cx="645.397" cy="148.366" r="4" fill="#0" id="circle140"/>
	<circle cx="653.647" cy="851.634" r="4" fill="#0" id="circle141"/>
	<circle cx="659.834" cy="872.258" r="4" fill="#0" id="circle142"/>
	<circle cx="666.021" cy="148.366" r="4" fill="#0" id="circle143"/>
	<circle cx="676.333" cy="886.694" r="4" fill="#0" id="circle144"/>
	<circle cx="686.644" cy="148.366" r="4" fill="#0" id="circle145"/>
	<circle cx="696.956" cy="459.784" r="4" fill="#0" id="circle146"/>
	<circle cx="696.956" cy="892.881" r="4" fill="#0" id="circle147"/>
	<circle cx="707.268" cy="148.366" r="4" fill="#0" id="circle148"/>
	<circle cx="707.268" cy="573.214" r="4" fill="#0" id="circle149"/>
	<circle cx="713.455" cy="445.347" r="4" fill="#0" id="circle150"/>
	<circle cx="713.455" cy="878.445" r="4" fill="#0" id="circle151"/>
	<circle cx="717.58" cy="591.775" r="4" fill="#0" id="circle152"/>
	<circle cx="717.58" cy="612.399" r="4" fill="#0" id="circle153"/>
	<circle cx="717.58" cy="633.023" r="4" fill="#0" id="circle154"/>
	<circle cx="723.767" cy="160.74" r="4" fill="#0" id="circle155"/>
	<circle cx="723.767" cy="558.778" r="4" fill="#0" id="circle156"/>
	<circle cx="727.892" cy="428.848" r="4" fill="#0" id="circle157"/>
	<circle cx="727.892" cy="666.021" r="4" fill="#0" id="circle158"/>
	<circle cx="727.892" cy="686.644" r="4" fill="#0" id="circle159"/>
	<circle cx="727.892" cy="707.268" r="4" fill="#0" id="circle160"/>
	<circle cx="727.892" cy="861.946" r="4" fill="#0" id="circle161"/>
	<circle cx="729.954" cy="457.721" r="4" fill="#0" id="circle162"/>
	<circle cx="732.017" cy="181.364" r="4" fill="#0" id="circle163"/>
	<circle cx="736.141" cy="622.711" r="4" fill="#0" id="circle164"/>
	<circle cx="738.204" cy="408.225" r="4" fill="#0" id="circle165"/>
	<circle cx="738.204" cy="542.279" r="4" fill="#0" id="circle166"/>
	<circle cx="738.204" cy="725.83" r="4" fill="#0" id="circle167"/>
	<circle cx="738.204" cy="758.827" r="4" fill="#0" id="circle168"/>
	<circle cx="738.204" cy="779.451" r="4" fill="#0" id="circle169"/>
	<circle cx="738.204" cy="831.01" r="4" fill="#0" id="circle170"/>
	<circle cx="744.391" cy="651.584" r="4" fill="#0" id="circle171"/>
	<circle cx="746.453" cy="443.285" r="4" fill="#0" id="circle172"/>
	<circle cx="748.516" cy="798.012" r="4" fill="#0" id="circle173"/>
	<circle cx="752.64" cy="179.301" r="4" fill="#0" id="circle174"/>
	<circle cx="754.703" cy="393.788" r="4" fill="#0" id="circle175"/>
	<circle cx="754.703" cy="527.842" r="4" fill="#0" id="circle176"/>
	<circle cx="754.703" cy="612.399" r="4" fill="#0" id="circle177"/>
	<circle cx="754.703" cy="744.391" r="4" fill="#0" id="circle178"/>
	<circle cx="756.765" cy="711.393" r="4" fill="#0" id="circle179"/>
	<circle cx="758.827" cy="635.085" r="4" fill="#0" id="circle180"/>
	<circle cx="762.952" cy="426.786" r="4" fill="#0" id="circle181"/>
	<circle cx="769.139" cy="162.802" r="4" fill="#0" id="circle182"/>
	<circle cx="769.139" cy="377.289" r="4" fill="#0" id="circle183"/>
	<circle cx="769.139" cy="511.343" r="4" fill="#0" id="circle184"/>
	<circle cx="769.139" cy="727.892" r="4" fill="#0" id="circle185"/>
	<circle cx="773.264" cy="694.894" r="4" fill="#0" id="circle186"/>
	<circle cx="777.389" cy="670.146" r="4" fill="#0" id="circle187"/>
	<circle cx="783.576" cy="416.474" r="4" fill="#0" id="circle188"/>
	<circle cx="785.638" cy="148.366" r="4" fill="#0" id="circle189"/>
	<circle cx="785.638" cy="362.852" r="4" fill="#0" id="circle190"/>
	<circle cx="785.638" cy="496.906" r="4" fill="#0" id="circle191"/>
	<circle cx="793.888" cy="696.956" r="4" fill="#0" id="circle192"/>
	<circle cx="798.012" cy="659.834" r="4" fill="#0" id="circle193"/>
	<circle cx="800.075" cy="131.867" r="4" fill="#0" id="circle194"/>
	<circle cx="800.075" cy="346.353" r="4" fill="#0" id="circle195"/>
	<circle cx="800.075" cy="470.096" r="4" fill="#0" id="circle196"/>
	<circle cx="804.2" cy="406.162" r="4" fill="#0" id="circle197"/>
	<circle cx="810.387" cy="243.235" r="4" fill="#0" id="circle198"/>
	<circle cx="810.387" cy="676.333" r="4" fill="#0" id="circle199"/>
	<circle cx="814.511" cy="263.859" r="4" fill="#0" id="circle200"/>
	<circle cx="816.574" cy="117.43" r="4" fill="#0" id="circle201"/>
	<circle cx="816.574" cy="331.917" r="4" fill="#0" id="circle202"/>
	<circle cx="816.574" cy="455.659" r="4" fill="#0" id="circle203"/>
	<circle cx="824.823" cy="406.162" r="4" fill="#0" id="circle204"/>
	<circle cx="826.886" cy="228.798" r="4" fill="#0" id="circle205"/>
	<circle cx="831.01" cy="100.931" r="4" fill="#0" id="circle206"/>
	<circle cx="831.01" cy="315.418" r="4" fill="#0" id="circle207"/>
	<circle cx="831.01" cy="428.848" r="4" fill="#0" id="circle208"/>
	<circle cx="835.135" cy="272.108" r="4" fill="#0" id="circle209"/>
	<circle cx="841.322" cy="212.299" r="4" fill="#0" id="circle210"/>
	<circle cx="841.322" cy="292.732" r="4" fill="#0" id="circle211"/>
	<circle cx="847.509" cy="86.4948" r="4" fill="#0" id="circle212"/>
	<circle cx="857.821" cy="197.863" r="4" fill="#0" id="circle213"/>
	<circle cx="861.946" cy="69.9958" r="4" fill="#0" id="circle214"/>
	<circle cx="872.258" cy="181.364" r="4" fill="#0" id="circle215"/>
	<circle cx="878.445" cy="55.5593" r="4" fill="#0" id="circle216"/>
	<circle cx="888.757" cy="166.927" r="4" fill="#0" id="circle217"/>
	<circle cx="892.881" cy="39.0603" r="4" fill="#0" id="circle218"/>
	<circle cx="903.193" cy="150.428" r="4" fill="#0" id="circle219"/>
	<circle cx="909.38" cy="24.6237" r="4" fill="#0" id="circle220"/>
	<circle cx="919.692" cy="135.992" r="4" fill="#0" id="circle221"/>
	<circle cx="927.942" cy="14.3119" r="4" fill="#0" id="circle222"/>
	<circle cx="934.129" cy="98.869" r="4" fill="#0" id="circle223"/>
	<circle cx="934.129" cy="119.493" r="4" fill="#0" id="circle224"/>
	<circle cx="944.441" cy="78.2453" r="4" fill="#0" id="circle225"/>
	<circle cx="948.565" cy="4" r="4" fill="#0" id="circle226"/>
	<circle cx="954.753" cy="57.6216" r="4" fill="#0" id="circle227"/>
	<circle cx="969.189" cy="4" r="4" fill="#0" id="circle228"/>
	<circle cx="971.252" cy="43.185" r="4" fill="#0" id="circle229"/>
	</g>
</svg>