<?xml version="1.0" encoding="UTF-8" standalone="no"?>
<!-- Created with CurveBenchmark -->
<svg
	xmlns:dc="http://purl.org/dc/elements/1.1/"
	xmlns:cc="http://creativecommons.org/ns#"
	xmlns:rdf="http://www.w3.org/1999/02/22-rdf-syntax-ns#"
	xmlns:svg="http://www.w3.org/2000/svg"
	xmlns="http://www.w3.org/2000/svg"
	xmlns:sodipodi="http://sodipodi.sourceforge.net/DTD/sodipodi-0.dtd"
	xmlns:inkscape="http://www.inkscape.org/namespaces/inkscape"
	width="1000"
	height="1000"
	id="svg2"
	version="1.1"
	sodipodi:docname="manifold/connect2d-kk0739.png.txt">
<defs
	id="defs4" />
<metadata
	id="metadata7">
	<rdf:RDF>
		<cc:Work
			rdf:about="">
			<dc:format>image/svg+xml</dc:format>
			<dc:type
				rdf:resource="http://purl.org/dc/dcmitype/StillImage" />
			<dc:title></dc:title>
		</cc:Work>
	</rdf:RDF>
</metadata>
<g
	inkscape:label="Layer 1"
	inkscape:groupmode="layer"
	id="layer1">
	<path style="fill:none;stroke:red;stroke-width:1px;stroke-linecap:butt;stroke-linejoin:miter;stroke-opacity:1" d="M 996,422.45 983.075,433.759 z" id="boundary" inkscape:connector-curvature="0" />
	<path style="fill:none;stroke:red;stroke-width:1px;stroke-linecap:butt;stroke-linejoin:miter;stroke-opacity:1" d="M 983.075,433.759 966.919,433.759 z" id="boundary" inkscape:connector-curvature="0" />
	<path style="fill:none;stroke:red;stroke-width:1px;stroke-linecap:butt;stroke-linejoin:miter;stroke-opacity:1" d="M 966.919,433.759 950.762,433.759 z" id="boundary" inkscape:connector-curvature="0" />
	<path style="fill:none;stroke:red;stroke-width:1px;stroke-linecap:butt;stroke-linejoin:miter;stroke-opacity:1" d="M 950.762,433.759 934.606,433.759 z" id="boundary" inkscape:connector-curvature="0" />
	<path style="fill:none;stroke:red;stroke-width:1px;stroke-linecap:butt;stroke-linejoin:miter;stroke-opacity:1" d="M 934.606,433.759 918.45,433.759 z" id="boundary" inkscape:connector-curvature="0" />
	<path style="fill:none;stroke:red;stroke-width:1px;stroke-linecap:butt;stroke-linejoin:miter;stroke-opacity:1" d="M 918.45,433.759 902.293,433.759 z" id="boundary" inkscape:connector-curvature="0" />
	<path style="fill:none;stroke:red;stroke-width:1px;stroke-linecap:butt;stroke-linejoin:miter;stroke-opacity:1" d="M 902.293,433.759 886.137,433.759 z" id="boundary" inkscape:connector-curvature="0" />
	<path style="fill:none;stroke:red;stroke-width:1px;stroke-linecap:butt;stroke-linejoin:miter;stroke-opacity:1" d="M 886.137,433.759 869.98,433.759 z" id="boundary" inkscape:connector-curvature="0" />
	<path style="fill:none;stroke:red;stroke-width:1px;stroke-linecap:butt;stroke-linejoin:miter;stroke-opacity:1" d="M 869.98,433.759 853.824,433.759 z" id="boundary" inkscape:connector-curvature="0" />
	<path style="fill:none;stroke:red;stroke-width:1px;stroke-linecap:butt;stroke-linejoin:miter;stroke-opacity:1" d="M 853.824,433.759 837.668,433.759 z" id="boundary" inkscape:connector-curvature="0" />
	<path style="fill:none;stroke:red;stroke-width:1px;stroke-linecap:butt;stroke-linejoin:miter;stroke-opacity:1" d="M 837.668,433.759 821.511,433.759 z" id="boundary" inkscape:connector-curvature="0" />
	<path style="fill:none;stroke:red;stroke-width:1px;stroke-linecap:butt;stroke-linejoin:miter;stroke-opacity:1" d="M 821.511,433.759 805.355,433.759 z" id="boundary" inkscape:connector-curvature="0" />
	<path style="fill:none;stroke:red;stroke-width:1px;stroke-linecap:butt;stroke-linejoin:miter;stroke-opacity:1" d="M 805.355,433.759 789.199,433.759 z" id="boundary" inkscape:connector-curvature="0" />
	<path style="fill:none;stroke:red;stroke-width:1px;stroke-linecap:butt;stroke-linejoin:miter;stroke-opacity:1" d="M 789.199,433.759 773.042,433.759 z" id="boundary" inkscape:connector-curvature="0" />
	<path style="fill:none;stroke:red;stroke-width:1px;stroke-linecap:butt;stroke-linejoin:miter;stroke-opacity:1" d="M 773.042,433.759 756.886,433.759 z" id="boundary" inkscape:connector-curvature="0" />
	<path style="fill:none;stroke:red;stroke-width:1px;stroke-linecap:butt;stroke-linejoin:miter;stroke-opacity:1" d="M 756.886,433.759 740.73,433.759 z" id="boundary" inkscape:connector-curvature="0" />
	<path style="fill:none;stroke:red;stroke-width:1px;stroke-linecap:butt;stroke-linejoin:miter;stroke-opacity:1" d="M 740.73,433.759 724.573,433.759 z" id="boundary" inkscape:connector-curvature="0" />
	<path style="fill:none;stroke:red;stroke-width:1px;stroke-linecap:butt;stroke-linejoin:miter;stroke-opacity:1" d="M 724.573,433.759 708.417,433.759 z" id="boundary" inkscape:connector-curvature="0" />
	<path style="fill:none;stroke:red;stroke-width:1px;stroke-linecap:butt;stroke-linejoin:miter;stroke-opacity:1" d="M 708.417,433.759 692.261,433.759 z" id="boundary" inkscape:connector-curvature="0" />
	<path style="fill:none;stroke:red;stroke-width:1px;stroke-linecap:butt;stroke-linejoin:miter;stroke-opacity:1" d="M 692.261,433.759 680.951,446.684 z" id="boundary" inkscape:connector-curvature="0" />
	<path style="fill:none;stroke:red;stroke-width:1px;stroke-linecap:butt;stroke-linejoin:miter;stroke-opacity:1" d="M 680.951,446.684 668.026,457.993 z" id="boundary" inkscape:connector-curvature="0" />
	<path style="fill:none;stroke:red;stroke-width:1px;stroke-linecap:butt;stroke-linejoin:miter;stroke-opacity:1" d="M 668.026,457.993 655.101,472.534 z" id="boundary" inkscape:connector-curvature="0" />
	<path style="fill:none;stroke:red;stroke-width:1px;stroke-linecap:butt;stroke-linejoin:miter;stroke-opacity:1" d="M 655.101,472.534 638.945,480.612 z" id="boundary" inkscape:connector-curvature="0" />
	<path style="fill:none;stroke:red;stroke-width:1px;stroke-linecap:butt;stroke-linejoin:miter;stroke-opacity:1" d="M 638.945,480.612 626.02,490.306 z" id="boundary" inkscape:connector-curvature="0" />
	<path style="fill:none;stroke:red;stroke-width:1px;stroke-linecap:butt;stroke-linejoin:miter;stroke-opacity:1" d="M 626.02,490.306 609.863,493.537 z" id="boundary" inkscape:connector-curvature="0" />
	<path style="fill:none;stroke:red;stroke-width:1px;stroke-linecap:butt;stroke-linejoin:miter;stroke-opacity:1" d="M 609.863,493.537 593.707,498.384 z" id="boundary" inkscape:connector-curvature="0" />
	<path style="fill:none;stroke:red;stroke-width:1px;stroke-linecap:butt;stroke-linejoin:miter;stroke-opacity:1" d="M 593.707,498.384 584.013,511.309 z" id="boundary" inkscape:connector-curvature="0" />
	<path style="fill:none;stroke:red;stroke-width:1px;stroke-linecap:butt;stroke-linejoin:miter;stroke-opacity:1" d="M 584.013,511.309 571.088,522.619 z" id="boundary" inkscape:connector-curvature="0" />
	<path style="fill:none;stroke:red;stroke-width:1px;stroke-linecap:butt;stroke-linejoin:miter;stroke-opacity:1" d="M 571.088,522.619 567.857,543.622 z" id="boundary" inkscape:connector-curvature="0" />
	<path style="fill:none;stroke:red;stroke-width:1px;stroke-linecap:butt;stroke-linejoin:miter;stroke-opacity:1" d="M 567.857,543.622 554.932,554.932 z" id="boundary" inkscape:connector-curvature="0" />
	<path style="fill:none;stroke:red;stroke-width:1px;stroke-linecap:butt;stroke-linejoin:miter;stroke-opacity:1" d="M 554.932,554.932 551.7,575.935 z" id="boundary" inkscape:connector-curvature="0" />
	<path style="fill:none;stroke:red;stroke-width:1px;stroke-linecap:butt;stroke-linejoin:miter;stroke-opacity:1" d="M 551.7,575.935 538.775,587.244 z" id="boundary" inkscape:connector-curvature="0" />
	<path style="fill:none;stroke:red;stroke-width:1px;stroke-linecap:butt;stroke-linejoin:miter;stroke-opacity:1" d="M 538.775,587.244 538.775,603.401 z" id="boundary" inkscape:connector-curvature="0" />
	<path style="fill:none;stroke:red;stroke-width:1px;stroke-linecap:butt;stroke-linejoin:miter;stroke-opacity:1" d="M 538.775,603.401 527.466,616.326 z" id="boundary" inkscape:connector-curvature="0" />
	<path style="fill:none;stroke:red;stroke-width:1px;stroke-linecap:butt;stroke-linejoin:miter;stroke-opacity:1" d="M 527.466,616.326 514.541,627.635 z" id="boundary" inkscape:connector-curvature="0" />
	<path style="fill:none;stroke:red;stroke-width:1px;stroke-linecap:butt;stroke-linejoin:miter;stroke-opacity:1" d="M 514.541,627.635 503.231,640.56 z" id="boundary" inkscape:connector-curvature="0" />
	<path style="fill:none;stroke:red;stroke-width:1px;stroke-linecap:butt;stroke-linejoin:miter;stroke-opacity:1" d="M 503.231,640.56 490.306,651.87 z" id="boundary" inkscape:connector-curvature="0" />
	<path style="fill:none;stroke:red;stroke-width:1px;stroke-linecap:butt;stroke-linejoin:miter;stroke-opacity:1" d="M 490.306,651.87 477.381,666.41 z" id="boundary" inkscape:connector-curvature="0" />
	<path style="fill:none;stroke:red;stroke-width:1px;stroke-linecap:butt;stroke-linejoin:miter;stroke-opacity:1" d="M 477.381,666.41 464.456,676.104 z" id="boundary" inkscape:connector-curvature="0" />
	<path style="fill:none;stroke:red;stroke-width:1px;stroke-linecap:butt;stroke-linejoin:miter;stroke-opacity:1" d="M 464.456,676.104 449.915,684.182 z" id="boundary" inkscape:connector-curvature="0" />
	<path style="fill:none;stroke:red;stroke-width:1px;stroke-linecap:butt;stroke-linejoin:miter;stroke-opacity:1" d="M 449.915,684.182 438.606,697.107 z" id="boundary" inkscape:connector-curvature="0" />
	<path style="fill:none;stroke:red;stroke-width:1px;stroke-linecap:butt;stroke-linejoin:miter;stroke-opacity:1" d="M 438.606,697.107 422.45,705.186 z" id="boundary" inkscape:connector-curvature="0" />
	<path style="fill:none;stroke:red;stroke-width:1px;stroke-linecap:butt;stroke-linejoin:miter;stroke-opacity:1" d="M 422.45,705.186 409.524,716.495 z" id="boundary" inkscape:connector-curvature="0" />
	<path style="fill:none;stroke:red;stroke-width:1px;stroke-linecap:butt;stroke-linejoin:miter;stroke-opacity:1" d="M 409.524,716.495 398.215,729.42 z" id="boundary" inkscape:connector-curvature="0" />
	<path style="fill:none;stroke:red;stroke-width:1px;stroke-linecap:butt;stroke-linejoin:miter;stroke-opacity:1" d="M 398.215,729.42 385.29,740.73 z" id="boundary" inkscape:connector-curvature="0" />
	<path style="fill:none;stroke:red;stroke-width:1px;stroke-linecap:butt;stroke-linejoin:miter;stroke-opacity:1" d="M 385.29,740.73 372.365,755.27 z" id="boundary" inkscape:connector-curvature="0" />
	<path style="fill:none;stroke:red;stroke-width:1px;stroke-linecap:butt;stroke-linejoin:miter;stroke-opacity:1" d="M 372.365,755.27 357.824,764.964 z" id="boundary" inkscape:connector-curvature="0" />
	<path style="fill:none;stroke:red;stroke-width:1px;stroke-linecap:butt;stroke-linejoin:miter;stroke-opacity:1" d="M 357.824,764.964 343.283,773.042 z" id="boundary" inkscape:connector-curvature="0" />
	<path style="fill:none;stroke:red;stroke-width:1px;stroke-linecap:butt;stroke-linejoin:miter;stroke-opacity:1" d="M 343.283,773.042 327.127,768.195 z" id="boundary" inkscape:connector-curvature="0" />
	<path style="fill:none;stroke:red;stroke-width:1px;stroke-linecap:butt;stroke-linejoin:miter;stroke-opacity:1" d="M 327.127,768.195 312.586,760.117 z" id="boundary" inkscape:connector-curvature="0" />
	<path style="fill:none;stroke:red;stroke-width:1px;stroke-linecap:butt;stroke-linejoin:miter;stroke-opacity:1" d="M 312.586,760.117 299.661,748.808 z" id="boundary" inkscape:connector-curvature="0" />
	<path style="fill:none;stroke:red;stroke-width:1px;stroke-linecap:butt;stroke-linejoin:miter;stroke-opacity:1" d="M 299.661,748.808 288.352,735.883 z" id="boundary" inkscape:connector-curvature="0" />
	<path style="fill:none;stroke:red;stroke-width:1px;stroke-linecap:butt;stroke-linejoin:miter;stroke-opacity:1" d="M 288.352,735.883 278.658,722.958 z" id="boundary" inkscape:connector-curvature="0" />
	<path style="fill:none;stroke:red;stroke-width:1px;stroke-linecap:butt;stroke-linejoin:miter;stroke-opacity:1" d="M 278.658,722.958 270.58,708.417 z" id="boundary" inkscape:connector-curvature="0" />
	<path style="fill:none;stroke:red;stroke-width:1px;stroke-linecap:butt;stroke-linejoin:miter;stroke-opacity:1" d="M 270.58,708.417 262.502,693.876 z" id="boundary" inkscape:connector-curvature="0" />
	<path style="fill:none;stroke:red;stroke-width:1px;stroke-linecap:butt;stroke-linejoin:miter;stroke-opacity:1" d="M 262.502,693.876 254.423,679.336 z" id="boundary" inkscape:connector-curvature="0" />
	<path style="fill:none;stroke:red;stroke-width:1px;stroke-linecap:butt;stroke-linejoin:miter;stroke-opacity:1" d="M 254.423,679.336 246.345,664.795 z" id="boundary" inkscape:connector-curvature="0" />
	<path style="fill:none;stroke:red;stroke-width:1px;stroke-linecap:butt;stroke-linejoin:miter;stroke-opacity:1" d="M 246.345,664.795 235.036,651.87 z" id="boundary" inkscape:connector-curvature="0" />
	<path style="fill:none;stroke:red;stroke-width:1px;stroke-linecap:butt;stroke-linejoin:miter;stroke-opacity:1" d="M 235.036,651.87 230.189,635.713 z" id="boundary" inkscape:connector-curvature="0" />
	<path style="fill:none;stroke:red;stroke-width:1px;stroke-linecap:butt;stroke-linejoin:miter;stroke-opacity:1" d="M 230.189,635.713 217.264,624.404 z" id="boundary" inkscape:connector-curvature="0" />
	<path style="fill:none;stroke:red;stroke-width:1px;stroke-linecap:butt;stroke-linejoin:miter;stroke-opacity:1" d="M 217.264,624.404 209.186,609.863 z" id="boundary" inkscape:connector-curvature="0" />
	<path style="fill:none;stroke:red;stroke-width:1px;stroke-linecap:butt;stroke-linejoin:miter;stroke-opacity:1" d="M 209.186,609.863 197.876,596.938 z" id="boundary" inkscape:connector-curvature="0" />
	<path style="fill:none;stroke:red;stroke-width:1px;stroke-linecap:butt;stroke-linejoin:miter;stroke-opacity:1" d="M 197.876,596.938 189.798,582.397 z" id="boundary" inkscape:connector-curvature="0" />
	<path style="fill:none;stroke:red;stroke-width:1px;stroke-linecap:butt;stroke-linejoin:miter;stroke-opacity:1" d="M 189.798,582.397 181.72,567.857 z" id="boundary" inkscape:connector-curvature="0" />
	<path style="fill:none;stroke:red;stroke-width:1px;stroke-linecap:butt;stroke-linejoin:miter;stroke-opacity:1" d="M 181.72,567.857 172.026,554.932 z" id="boundary" inkscape:connector-curvature="0" />
	<path style="fill:none;stroke:red;stroke-width:1px;stroke-linecap:butt;stroke-linejoin:miter;stroke-opacity:1" d="M 172.026,554.932 159.101,543.622 z" id="boundary" inkscape:connector-curvature="0" />
	<path style="fill:none;stroke:red;stroke-width:1px;stroke-linecap:butt;stroke-linejoin:miter;stroke-opacity:1" d="M 159.101,543.622 149.407,530.697 z" id="boundary" inkscape:connector-curvature="0" />
	<path style="fill:none;stroke:red;stroke-width:1px;stroke-linecap:butt;stroke-linejoin:miter;stroke-opacity:1" d="M 149.407,530.697 136.482,521.003 z" id="boundary" inkscape:connector-curvature="0" />
	<path style="fill:none;stroke:red;stroke-width:1px;stroke-linecap:butt;stroke-linejoin:miter;stroke-opacity:1" d="M 136.482,521.003 130.02,504.847 z" id="boundary" inkscape:connector-curvature="0" />
	<path style="fill:none;stroke:red;stroke-width:1px;stroke-linecap:butt;stroke-linejoin:miter;stroke-opacity:1" d="M 130.02,504.847 117.094,493.537 z" id="boundary" inkscape:connector-curvature="0" />
	<path style="fill:none;stroke:red;stroke-width:1px;stroke-linecap:butt;stroke-linejoin:miter;stroke-opacity:1" d="M 117.094,493.537 105.785,480.612 z" id="boundary" inkscape:connector-curvature="0" />
	<path style="fill:none;stroke:red;stroke-width:1px;stroke-linecap:butt;stroke-linejoin:miter;stroke-opacity:1" d="M 105.785,480.612 97.7068,466.072 z" id="boundary" inkscape:connector-curvature="0" />
	<path style="fill:none;stroke:red;stroke-width:1px;stroke-linecap:butt;stroke-linejoin:miter;stroke-opacity:1" d="M 97.7068,466.072 91.2443,449.915 z" id="boundary" inkscape:connector-curvature="0" />
	<path style="fill:none;stroke:red;stroke-width:1px;stroke-linecap:butt;stroke-linejoin:miter;stroke-opacity:1" d="M 91.2443,449.915 78.3192,438.606 z" id="boundary" inkscape:connector-curvature="0" />
	<path style="fill:none;stroke:red;stroke-width:1px;stroke-linecap:butt;stroke-linejoin:miter;stroke-opacity:1" d="M 78.3192,438.606 68.6254,425.681 z" id="boundary" inkscape:connector-curvature="0" />
	<path style="fill:none;stroke:red;stroke-width:1px;stroke-linecap:butt;stroke-linejoin:miter;stroke-opacity:1" d="M 68.6254,425.681 54.0847,417.603 z" id="boundary" inkscape:connector-curvature="0" />
	<path style="fill:none;stroke:red;stroke-width:1px;stroke-linecap:butt;stroke-linejoin:miter;stroke-opacity:1" d="M 54.0847,417.603 41.1596,407.909 z" id="boundary" inkscape:connector-curvature="0" />
	<path style="fill:none;stroke:red;stroke-width:1px;stroke-linecap:butt;stroke-linejoin:miter;stroke-opacity:1" d="M 41.1596,407.909 25.0033,401.446 z" id="boundary" inkscape:connector-curvature="0" />
	<path style="fill:none;stroke:red;stroke-width:1px;stroke-linecap:butt;stroke-linejoin:miter;stroke-opacity:1" d="M 25.0033,401.446 20.1564,385.29 z" id="boundary" inkscape:connector-curvature="0" />
	<path style="fill:none;stroke:red;stroke-width:1px;stroke-linecap:butt;stroke-linejoin:miter;stroke-opacity:1" d="M 20.1564,385.29 4,380.443 z" id="boundary" inkscape:connector-curvature="0" />
	<path style="fill:none;stroke:red;stroke-width:1px;stroke-linecap:butt;stroke-linejoin:miter;stroke-opacity:1" d="M 4,380.443 12.0782,364.287 z" id="boundary" inkscape:connector-curvature="0" />
	<path style="fill:none;stroke:red;stroke-width:1px;stroke-linecap:butt;stroke-linejoin:miter;stroke-opacity:1" d="M 12.0782,364.287 25.0033,351.362 z" id="boundary" inkscape:connector-curvature="0" />
	<path style="fill:none;stroke:red;stroke-width:1px;stroke-linecap:butt;stroke-linejoin:miter;stroke-opacity:1" d="M 25.0033,351.362 39.544,343.283 z" id="boundary" inkscape:connector-curvature="0" />
	<path style="fill:none;stroke:red;stroke-width:1px;stroke-linecap:butt;stroke-linejoin:miter;stroke-opacity:1" d="M 39.544,343.283 52.4691,331.974 z" id="boundary" inkscape:connector-curvature="0" />
	<path style="fill:none;stroke:red;stroke-width:1px;stroke-linecap:butt;stroke-linejoin:miter;stroke-opacity:1" d="M 52.4691,331.974 65.3941,319.049 z" id="boundary" inkscape:connector-curvature="0" />
	<path style="fill:none;stroke:red;stroke-width:1px;stroke-linecap:butt;stroke-linejoin:miter;stroke-opacity:1" d="M 65.3941,319.049 81.5505,310.971 z" id="boundary" inkscape:connector-curvature="0" />
	<path style="fill:none;stroke:red;stroke-width:1px;stroke-linecap:butt;stroke-linejoin:miter;stroke-opacity:1" d="M 81.5505,310.971 94.4756,298.046 z" id="boundary" inkscape:connector-curvature="0" />
	<path style="fill:none;stroke:red;stroke-width:1px;stroke-linecap:butt;stroke-linejoin:miter;stroke-opacity:1" d="M 94.4756,298.046 107.401,286.736 z" id="boundary" inkscape:connector-curvature="0" />
	<path style="fill:none;stroke:red;stroke-width:1px;stroke-linecap:butt;stroke-linejoin:miter;stroke-opacity:1" d="M 107.401,286.736 118.71,273.811 z" id="boundary" inkscape:connector-curvature="0" />
	<path style="fill:none;stroke:red;stroke-width:1px;stroke-linecap:butt;stroke-linejoin:miter;stroke-opacity:1" d="M 118.71,273.811 131.635,262.502 z" id="boundary" inkscape:connector-curvature="0" />
	<path style="fill:none;stroke:red;stroke-width:1px;stroke-linecap:butt;stroke-linejoin:miter;stroke-opacity:1" d="M 131.635,262.502 142.945,249.577 z" id="boundary" inkscape:connector-curvature="0" />
	<path style="fill:none;stroke:red;stroke-width:1px;stroke-linecap:butt;stroke-linejoin:miter;stroke-opacity:1" d="M 142.945,249.577 155.87,238.267 z" id="boundary" inkscape:connector-curvature="0" />
	<path style="fill:none;stroke:red;stroke-width:1px;stroke-linecap:butt;stroke-linejoin:miter;stroke-opacity:1" d="M 155.87,238.267 167.179,225.342 z" id="boundary" inkscape:connector-curvature="0" />
	<path style="fill:none;stroke:red;stroke-width:1px;stroke-linecap:butt;stroke-linejoin:miter;stroke-opacity:1" d="M 167.179,225.342 180.104,214.033 z" id="boundary" inkscape:connector-curvature="0" />
	<path style="fill:none;stroke:red;stroke-width:1px;stroke-linecap:butt;stroke-linejoin:miter;stroke-opacity:1" d="M 180.104,214.033 194.645,205.954 z" id="boundary" inkscape:connector-curvature="0" />
	<path style="fill:none;stroke:red;stroke-width:1px;stroke-linecap:butt;stroke-linejoin:miter;stroke-opacity:1" d="M 194.645,205.954 207.57,193.029 z" id="boundary" inkscape:connector-curvature="0" />
	<path style="fill:none;stroke:red;stroke-width:1px;stroke-linecap:butt;stroke-linejoin:miter;stroke-opacity:1" d="M 207.57,193.029 220.495,181.72 z" id="boundary" inkscape:connector-curvature="0" />
	<path style="fill:none;stroke:red;stroke-width:1px;stroke-linecap:butt;stroke-linejoin:miter;stroke-opacity:1" d="M 220.495,181.72 231.805,168.795 z" id="boundary" inkscape:connector-curvature="0" />
	<path style="fill:none;stroke:red;stroke-width:1px;stroke-linecap:butt;stroke-linejoin:miter;stroke-opacity:1" d="M 231.805,168.795 244.73,157.485 z" id="boundary" inkscape:connector-curvature="0" />
	<path style="fill:none;stroke:red;stroke-width:1px;stroke-linecap:butt;stroke-linejoin:miter;stroke-opacity:1" d="M 244.73,157.485 251.192,141.329 z" id="boundary" inkscape:connector-curvature="0" />
	<path style="fill:none;stroke:red;stroke-width:1px;stroke-linecap:butt;stroke-linejoin:miter;stroke-opacity:1" d="M 251.192,141.329 264.117,128.404 z" id="boundary" inkscape:connector-curvature="0" />
	<path style="fill:none;stroke:red;stroke-width:1px;stroke-linecap:butt;stroke-linejoin:miter;stroke-opacity:1" d="M 264.117,128.404 277.042,117.094 z" id="boundary" inkscape:connector-curvature="0" />
	<path style="fill:none;stroke:red;stroke-width:1px;stroke-linecap:butt;stroke-linejoin:miter;stroke-opacity:1" d="M 277.042,117.094 286.736,97.7068 z" id="boundary" inkscape:connector-curvature="0" />
	<path style="fill:none;stroke:red;stroke-width:1px;stroke-linecap:butt;stroke-linejoin:miter;stroke-opacity:1" d="M 286.736,97.7068 299.661,84.7818 z" id="boundary" inkscape:connector-curvature="0" />
	<path style="fill:none;stroke:red;stroke-width:1px;stroke-linecap:butt;stroke-linejoin:miter;stroke-opacity:1" d="M 299.661,84.7818 307.739,68.6254 z" id="boundary" inkscape:connector-curvature="0" />
	<path style="fill:none;stroke:red;stroke-width:1px;stroke-linecap:butt;stroke-linejoin:miter;stroke-opacity:1" d="M 307.739,68.6254 319.049,41.1596 z" id="boundary" inkscape:connector-curvature="0" />
	<path style="fill:none;stroke:red;stroke-width:1px;stroke-linecap:butt;stroke-linejoin:miter;stroke-opacity:1" d="M 319.049,41.1596 331.974,28.2345 z" id="boundary" inkscape:connector-curvature="0" />
	<path style="fill:none;stroke:red;stroke-width:1px;stroke-linecap:butt;stroke-linejoin:miter;stroke-opacity:1" d="M 331.974,28.2345 346.515,20.1564 z" id="boundary" inkscape:connector-curvature="0" />
	<path style="fill:none;stroke:red;stroke-width:1px;stroke-linecap:butt;stroke-linejoin:miter;stroke-opacity:1" d="M 346.515,20.1564 361.055,12.0782 z" id="boundary" inkscape:connector-curvature="0" />
	<path style="fill:none;stroke:red;stroke-width:1px;stroke-linecap:butt;stroke-linejoin:miter;stroke-opacity:1" d="M 361.055,12.0782 375.596,4 z" id="boundary" inkscape:connector-curvature="0" />
	<path style="fill:none;stroke:red;stroke-width:1px;stroke-linecap:butt;stroke-linejoin:miter;stroke-opacity:1" d="M 375.596,4 391.752,4 z" id="boundary" inkscape:connector-curvature="0" />
	<path style="fill:none;stroke:red;stroke-width:1px;stroke-linecap:butt;stroke-linejoin:miter;stroke-opacity:1" d="M 391.752,4 404.678,13.6938 z" id="boundary" inkscape:connector-curvature="0" />
	<path style="fill:none;stroke:red;stroke-width:1px;stroke-linecap:butt;stroke-linejoin:miter;stroke-opacity:1" d="M 404.678,13.6938 417.603,25.0033 z" id="boundary" inkscape:connector-curvature="0" />
	<path style="fill:none;stroke:red;stroke-width:1px;stroke-linecap:butt;stroke-linejoin:miter;stroke-opacity:1" d="M 417.603,25.0033 428.912,37.9283 z" id="boundary" inkscape:connector-curvature="0" />
	<path style="fill:none;stroke:red;stroke-width:1px;stroke-linecap:butt;stroke-linejoin:miter;stroke-opacity:1" d="M 428.912,37.9283 436.99,52.4691 z" id="boundary" inkscape:connector-curvature="0" />
	<path style="fill:none;stroke:red;stroke-width:1px;stroke-linecap:butt;stroke-linejoin:miter;stroke-opacity:1" d="M 436.99,52.4691 448.3,65.3941 z" id="boundary" inkscape:connector-curvature="0" />
	<path style="fill:none;stroke:red;stroke-width:1px;stroke-linecap:butt;stroke-linejoin:miter;stroke-opacity:1" d="M 448.3,65.3941 457.993,78.3192 z" id="boundary" inkscape:connector-curvature="0" />
	<path style="fill:none;stroke:red;stroke-width:1px;stroke-linecap:butt;stroke-linejoin:miter;stroke-opacity:1" d="M 457.993,78.3192 470.919,88.013 z" id="boundary" inkscape:connector-curvature="0" />
	<path style="fill:none;stroke:red;stroke-width:1px;stroke-linecap:butt;stroke-linejoin:miter;stroke-opacity:1" d="M 470.919,88.013 482.228,100.938 z" id="boundary" inkscape:connector-curvature="0" />
	<path style="fill:none;stroke:red;stroke-width:1px;stroke-linecap:butt;stroke-linejoin:miter;stroke-opacity:1" d="M 482.228,100.938 490.306,115.479 z" id="boundary" inkscape:connector-curvature="0" />
	<path style="fill:none;stroke:red;stroke-width:1px;stroke-linecap:butt;stroke-linejoin:miter;stroke-opacity:1" d="M 490.306,115.479 503.231,126.788 z" id="boundary" inkscape:connector-curvature="0" />
	<path style="fill:none;stroke:red;stroke-width:1px;stroke-linecap:butt;stroke-linejoin:miter;stroke-opacity:1" d="M 503.231,126.788 514.541,139.713 z" id="boundary" inkscape:connector-curvature="0" />
	<path style="fill:none;stroke:red;stroke-width:1px;stroke-linecap:butt;stroke-linejoin:miter;stroke-opacity:1" d="M 514.541,139.713 527.466,151.023 z" id="boundary" inkscape:connector-curvature="0" />
	<path style="fill:none;stroke:red;stroke-width:1px;stroke-linecap:butt;stroke-linejoin:miter;stroke-opacity:1" d="M 527.466,151.023 538.775,163.948 z" id="boundary" inkscape:connector-curvature="0" />
	<path style="fill:none;stroke:red;stroke-width:1px;stroke-linecap:butt;stroke-linejoin:miter;stroke-opacity:1" d="M 538.775,163.948 546.853,178.489 z" id="boundary" inkscape:connector-curvature="0" />
	<path style="fill:none;stroke:red;stroke-width:1px;stroke-linecap:butt;stroke-linejoin:miter;stroke-opacity:1" d="M 546.853,178.489 554.932,193.029 z" id="boundary" inkscape:connector-curvature="0" />
	<path style="fill:none;stroke:red;stroke-width:1px;stroke-linecap:butt;stroke-linejoin:miter;stroke-opacity:1" d="M 554.932,193.029 563.01,207.57 z" id="boundary" inkscape:connector-curvature="0" />
	<path style="fill:none;stroke:red;stroke-width:1px;stroke-linecap:butt;stroke-linejoin:miter;stroke-opacity:1" d="M 563.01,207.57 571.088,222.111 z" id="boundary" inkscape:connector-curvature="0" />
	<path style="fill:none;stroke:red;stroke-width:1px;stroke-linecap:butt;stroke-linejoin:miter;stroke-opacity:1" d="M 571.088,222.111 571.088,238.267 z" id="boundary" inkscape:connector-curvature="0" />
	<path style="fill:none;stroke:red;stroke-width:1px;stroke-linecap:butt;stroke-linejoin:miter;stroke-opacity:1" d="M 571.088,238.267 584.013,247.961 z" id="boundary" inkscape:connector-curvature="0" />
	<path style="fill:none;stroke:red;stroke-width:1px;stroke-linecap:butt;stroke-linejoin:miter;stroke-opacity:1" d="M 584.013,247.961 587.244,264.117 z" id="boundary" inkscape:connector-curvature="0" />
	<path style="fill:none;stroke:red;stroke-width:1px;stroke-linecap:butt;stroke-linejoin:miter;stroke-opacity:1" d="M 587.244,264.117 590.476,280.274 z" id="boundary" inkscape:connector-curvature="0" />
	<path style="fill:none;stroke:red;stroke-width:1px;stroke-linecap:butt;stroke-linejoin:miter;stroke-opacity:1" d="M 590.476,280.274 598.554,294.814 z" id="boundary" inkscape:connector-curvature="0" />
	<path style="fill:none;stroke:red;stroke-width:1px;stroke-linecap:butt;stroke-linejoin:miter;stroke-opacity:1" d="M 598.554,294.814 603.401,310.971 z" id="boundary" inkscape:connector-curvature="0" />
	<path style="fill:none;stroke:red;stroke-width:1px;stroke-linecap:butt;stroke-linejoin:miter;stroke-opacity:1" d="M 603.401,310.971 616.326,320.664 z" id="boundary" inkscape:connector-curvature="0" />
	<path style="fill:none;stroke:red;stroke-width:1px;stroke-linecap:butt;stroke-linejoin:miter;stroke-opacity:1" d="M 616.326,320.664 632.482,327.127 z" id="boundary" inkscape:connector-curvature="0" />
	<path style="fill:none;stroke:red;stroke-width:1px;stroke-linecap:butt;stroke-linejoin:miter;stroke-opacity:1" d="M 632.482,327.127 647.023,335.205 z" id="boundary" inkscape:connector-curvature="0" />
	<path style="fill:none;stroke:red;stroke-width:1px;stroke-linecap:butt;stroke-linejoin:miter;stroke-opacity:1" d="M 647.023,335.205 658.332,348.13 z" id="boundary" inkscape:connector-curvature="0" />
	<path style="fill:none;stroke:red;stroke-width:1px;stroke-linecap:butt;stroke-linejoin:miter;stroke-opacity:1" d="M 658.332,348.13 668.026,361.055 z" id="boundary" inkscape:connector-curvature="0" />
	<path style="fill:none;stroke:red;stroke-width:1px;stroke-linecap:butt;stroke-linejoin:miter;stroke-opacity:1" d="M 668.026,361.055 676.104,375.596 z" id="boundary" inkscape:connector-curvature="0" />
	<path style="fill:none;stroke:red;stroke-width:1px;stroke-linecap:butt;stroke-linejoin:miter;stroke-opacity:1" d="M 676.104,375.596 690.645,383.674 z" id="boundary" inkscape:connector-curvature="0" />
	<path style="fill:none;stroke:red;stroke-width:1px;stroke-linecap:butt;stroke-linejoin:miter;stroke-opacity:1" d="M 690.645,383.674 705.186,391.752 z" id="boundary" inkscape:connector-curvature="0" />
	<path style="fill:none;stroke:red;stroke-width:1px;stroke-linecap:butt;stroke-linejoin:miter;stroke-opacity:1" d="M 705.186,391.752 721.342,391.752 z" id="boundary" inkscape:connector-curvature="0" />
	<path style="fill:none;stroke:red;stroke-width:1px;stroke-linecap:butt;stroke-linejoin:miter;stroke-opacity:1" d="M 721.342,391.752 737.498,391.752 z" id="boundary" inkscape:connector-curvature="0" />
	<path style="fill:none;stroke:red;stroke-width:1px;stroke-linecap:butt;stroke-linejoin:miter;stroke-opacity:1" d="M 737.498,391.752 752.039,399.831 z" id="boundary" inkscape:connector-curvature="0" />
	<path style="fill:none;stroke:red;stroke-width:1px;stroke-linecap:butt;stroke-linejoin:miter;stroke-opacity:1" d="M 752.039,399.831 768.195,399.831 z" id="boundary" inkscape:connector-curvature="0" />
	<path style="fill:none;stroke:red;stroke-width:1px;stroke-linecap:butt;stroke-linejoin:miter;stroke-opacity:1" d="M 768.195,399.831 784.352,399.831 z" id="boundary" inkscape:connector-curvature="0" />
	<path style="fill:none;stroke:red;stroke-width:1px;stroke-linecap:butt;stroke-linejoin:miter;stroke-opacity:1" d="M 784.352,399.831 798.893,407.909 z" id="boundary" inkscape:connector-curvature="0" />
	<path style="fill:none;stroke:red;stroke-width:1px;stroke-linecap:butt;stroke-linejoin:miter;stroke-opacity:1" d="M 798.893,407.909 815.049,407.909 z" id="boundary" inkscape:connector-curvature="0" />
	<path style="fill:none;stroke:red;stroke-width:1px;stroke-linecap:butt;stroke-linejoin:miter;stroke-opacity:1" d="M 815.049,407.909 831.205,407.909 z" id="boundary" inkscape:connector-curvature="0" />
	<path style="fill:none;stroke:red;stroke-width:1px;stroke-linecap:butt;stroke-linejoin:miter;stroke-opacity:1" d="M 831.205,407.909 847.362,407.909 z" id="boundary" inkscape:connector-curvature="0" />
	<path style="fill:none;stroke:red;stroke-width:1px;stroke-linecap:butt;stroke-linejoin:miter;stroke-opacity:1" d="M 847.362,407.909 863.518,407.909 z" id="boundary" inkscape:connector-curvature="0" />
	<path style="fill:none;stroke:red;stroke-width:1px;stroke-linecap:butt;stroke-linejoin:miter;stroke-opacity:1" d="M 863.518,407.909 879.674,407.909 z" id="boundary" inkscape:connector-curvature="0" />
	<path style="fill:none;stroke:red;stroke-width:1px;stroke-linecap:butt;stroke-linejoin:miter;stroke-opacity:1" d="M 879.674,407.909 895.831,401.446 z" id="boundary" inkscape:connector-curvature="0" />
	<path style="fill:none;stroke:red;stroke-width:1px;stroke-linecap:butt;stroke-linejoin:miter;stroke-opacity:1" d="M 895.831,401.446 911.987,399.831 z" id="boundary" inkscape:connector-curvature="0" />
	<path style="fill:none;stroke:red;stroke-width:1px;stroke-linecap:butt;stroke-linejoin:miter;stroke-opacity:1" d="M 911.987,399.831 926.528,391.752 z" id="boundary" inkscape:connector-curvature="0" />
	<path style="fill:none;stroke:red;stroke-width:1px;stroke-linecap:butt;stroke-linejoin:miter;stroke-opacity:1" d="M 926.528,391.752 939.453,401.446 z" id="boundary" inkscape:connector-curvature="0" />
	<path style="fill:none;stroke:red;stroke-width:1px;stroke-linecap:butt;stroke-linejoin:miter;stroke-opacity:1" d="M 939.453,401.446 955.609,407.909 z" id="boundary" inkscape:connector-curvature="0" />
	<path style="fill:none;stroke:red;stroke-width:1px;stroke-linecap:butt;stroke-linejoin:miter;stroke-opacity:1" d="M 955.609,407.909 971.765,407.909 z" id="boundary" inkscape:connector-curvature="0" />
	<path style="fill:none;stroke:red;stroke-width:1px;stroke-linecap:butt;stroke-linejoin:miter;stroke-opacity:1" d="M 971.765,407.909 987.922,407.909 z" id="boundary" inkscape:connector-curvature="0" />
	<path style="fill:none;stroke:red;stroke-width:1px;stroke-linecap:butt;stroke-linejoin:miter;stroke-opacity:1" d="M 987.922,407.909 996,422.45 z" id="boundary" inkscape:connector-curvature="0" />
	<circle cx="4" cy="380.443" r="4" fill="#0" id="circle0"/>
	<circle cx="12.0782" cy="364.287" r="4" fill="#0" id="circle1"/>
	<circle cx="20.1564" cy="385.29" r="4" fill="#0" id="circle2"/>
	<circle cx="25.0033" cy="351.362" r="4" fill="#0" id="circle3"/>
	<circle cx="25.0033" cy="401.446" r="4" fill="#0" id="circle4"/>
	<circle cx="39.544" cy="343.283" r="4" fill="#0" id="circle5"/>
	<circle cx="41.1596" cy="407.909" r="4" fill="#0" id="circle6"/>
	<circle cx="52.4691" cy="331.974" r="4" fill="#0" id="circle7"/>
	<circle cx="54.0847" cy="417.603" r="4" fill="#0" id="circle8"/>
	<circle cx="65.3941" cy="319.049" r="4" fill="#0" id="circle9"/>
	<circle cx="68.6254" cy="425.681" r="4" fill="#0" id="circle10"/>
	<circle cx="78.3192" cy="438.606" r="4" fill="#0" id="circle11"/>
	<circle cx="81.5505" cy="310.971" r="4" fill="#0" id="circle12"/>
	<circle cx="91.2443" cy="449.915" r="4" fill="#0" id="circle13"/>
	<circle cx="94.4756" cy="298.046" r="4" fill="#0" id="circle14"/>
	<circle cx="97.7068" cy="466.072" r="4" fill="#0" id="circle15"/>
	<circle cx="105.785" cy="480.612" r="4" fill="#0" id="circle16"/>
	<circle cx="107.401" cy="286.736" r="4" fill="#0" id="circle17"/>
	<circle cx="117.094" cy="493.537" r="4" fill="#0" id="circle18"/>
	<circle cx="118.71" cy="273.811" r="4" fill="#0" id="circle19"/>
	<circle cx="130.02" cy="504.847" r="4" fill="#0" id="circle20"/>
	<circle cx="131.635" cy="262.502" r="4" fill="#0" id="circle21"/>
	<circle cx="136.482" cy="521.003" r="4" fill="#0" id="circle22"/>
	<circle cx="142.945" cy="249.577" r="4" fill="#0" id="circle23"/>
	<circle cx="149.407" cy="530.697" r="4" fill="#0" id="circle24"/>
	<circle cx="155.87" cy="238.267" r="4" fill="#0" id="circle25"/>
	<circle cx="159.101" cy="543.622" r="4" fill="#0" id="circle26"/>
	<circle cx="167.179" cy="225.342" r="4" fill="#0" id="circle27"/>
	<circle cx="172.026" cy="554.932" r="4" fill="#0" id="circle28"/>
	<circle cx="180.104" cy="214.033" r="4" fill="#0" id="circle29"/>
	<circle cx="181.72" cy="567.857" r="4" fill="#0" id="circle30"/>
	<circle cx="189.798" cy="582.397" r="4" fill="#0" id="circle31"/>
	<circle cx="194.645" cy="205.954" r="4" fill="#0" id="circle32"/>
	<circle cx="197.876" cy="596.938" r="4" fill="#0" id="circle33"/>
	<circle cx="207.57" cy="193.029" r="4" fill="#0" id="circle34"/>
	<circle cx="209.186" cy="609.863" r="4" fill="#0" id="circle35"/>
	<circle cx="217.264" cy="624.404" r="4" fill="#0" id="circle36"/>
	<circle cx="220.495" cy="181.72" r="4" fill="#0" id="circle37"/>
	<circle cx="230.189" cy="635.713" r="4" fill="#0" id="circle38"/>
	<circle cx="231.805" cy="168.795" r="4" fill="#0" id="circle39"/>
	<circle cx="235.036" cy="651.87" r="4" fill="#0" id="circle40"/>
	<circle cx="244.73" cy="157.485" r="4" fill="#0" id="circle41"/>
	<circle cx="246.345" cy="664.795" r="4" fill="#0" id="circle42"/>
	<circle cx="251.192" cy="141.329" r="4" fill="#0" id="circle43"/>
	<circle cx="254.423" cy="679.336" r="4" fill="#0" id="circle44"/>
	<circle cx="262.502" cy="693.876" r="4" fill="#0" id="circle45"/>
	<circle cx="264.117" cy="128.404" r="4" fill="#0" id="circle46"/>
	<circle cx="270.58" cy="708.417" r="4" fill="#0" id="circle47"/>
	<circle cx="277.042" cy="117.094" r="4" fill="#0" id="circle48"/>
	<circle cx="278.658" cy="722.958" r="4" fill="#0" id="circle49"/>
	<circle cx="286.736" cy="97.7068" r="4" fill="#0" id="circle50"/>
	<circle cx="288.352" cy="735.883" r="4" fill="#0" id="circle51"/>
	<circle cx="299.661" cy="84.7818" r="4" fill="#0" id="circle52"/>
	<circle cx="299.661" cy="748.808" r="4" fill="#0" id="circle53"/>
	<circle cx="307.739" cy="68.6254" r="4" fill="#0" id="circle54"/>
	<circle cx="312.586" cy="760.117" r="4" fill="#0" id="circle55"/>
	<circle cx="319.049" cy="41.1596" r="4" fill="#0" id="circle56"/>
	<circle cx="327.127" cy="768.195" r="4" fill="#0" id="circle57"/>
	<circle cx="331.974" cy="28.2345" r="4" fill="#0" id="circle58"/>
	<circle cx="343.283" cy="773.042" r="4" fill="#0" id="circle59"/>
	<circle cx="346.515" cy="20.1564" r="4" fill="#0" id="circle60"/>
	<circle cx="357.824" cy="764.964" r="4" fill="#0" id="circle61"/>
	<circle cx="361.055" cy="12.0782" r="4" fill="#0" id="circle62"/>
	<circle cx="372.365" cy="755.27" r="4" fill="#0" id="circle63"/>
	<circle cx="375.596" cy="4" r="4" fill="#0" id="circle64"/>
	<circle cx="385.29" cy="740.73" r="4" fill="#0" id="circle65"/>
	<circle cx="391.752" cy="4" r="4" fill="#0" id="circle66"/>
	<circle cx="398.215" cy="729.42" r="4" fill="#0" id="circle67"/>
	<circle cx="404.678" cy="13.6938" r="4" fill="#0" id="circle68"/>
	<circle cx="409.524" cy="716.495" r="4" fill="#0" id="circle69"/>
	<circle cx="417.603" cy="25.0033" r="4" fill="#0" id="circle70"/>
	<circle cx="422.45" cy="705.186" r="4" fill="#0" id="circle71"/>
	<circle cx="428.912" cy="37.9283" r="4" fill="#0" id="circle72"/>
	<circle cx="436.99" cy="52.4691" r="4" fill="#0" id="circle73"/>
	<circle cx="438.606" cy="697.107" r="4" fill="#0" id="circle74"/>
	<circle cx="448.3" cy="65.3941" r="4" fill="#0" id="circle75"/>
	<circle cx="449.915" cy="684.182" r="4" fill="#0" id="circle76"/>
	<circle cx="457.993" cy="78.3192" r="4" fill="#0" id="circle77"/>
	<circle cx="464.456" cy="676.104" r="4" fill="#0" id="circle78"/>
	<circle cx="470.919" cy="88.013" r="4" fill="#0" id="circle79"/>
	<circle cx="477.381" cy="666.41" r="4" fill="#0" id="circle80"/>
	<circle cx="482.228" cy="100.938" r="4" fill="#0" id="circle81"/>
	<circle cx="490.306" cy="115.479" r="4" fill="#0" id="circle82"/>
	<circle cx="490.306" cy="651.87" r="4" fill="#0" id="circle83"/>
	<circle cx="503.231" cy="126.788" r="4" fill="#0" id="circle84"/>
	<circle cx="503.231" cy="640.56" r="4" fill="#0" id="circle85"/>
	<circle cx="514.541" cy="139.713" r="4" fill="#0" id="circle86"/>
	<circle cx="514.541" cy="627.635" r="4" fill="#0" id="circle87"/>
	<circle cx="527.466" cy="151.023" r="4" fill="#0" id="circle88"/>
	<circle cx="527.466" cy="616.326" r="4" fill="#0" id="circle89"/>
	<circle cx="538.775" cy="163.948" r="4" fill="#0" id="circle90"/>
	<circle cx="538.775" cy="587.244" r="4" fill="#0" id="circle91"/>
	<circle cx="538.775" cy="603.401" r="4" fill="#0" id="circle92"/>
	<circle cx="546.853" cy="178.489" r="4" fill="#0" id="circle93"/>
	<circle cx="551.7" cy="575.935" r="4" fill="#0" id="circle94"/>
	<circle cx="554.932" cy="193.029" r="4" fill="#0" id="circle95"/>
	<circle cx="554.932" cy="554.932" r="4" fill="#0" id="circle96"/>
	<circle cx="563.01" cy="207.57" r="4" fill="#0" id="circle97"/>
	<circle cx="567.857" cy="543.622" r="4" fill="#0" id="circle98"/>
	<circle cx="571.088" cy="222.111" r="4" fill="#0" id="circle99"/>
	<circle cx="571.088" cy="238.267" r="4" fill="#0" id="circle100"/>
	<circle cx="571.088" cy="522.619" r="4" fill="#0" id="circle101"/>
	<circle cx="584.013" cy="247.961" r="4" fill="#0" id="circle102"/>
	<circle cx="584.013" cy="511.309" r="4" fill="#0" id="circle103"/>
	<circle cx="587.244" cy="264.117" r="4" fill="#0" id="circle104"/>
	<circle cx="590.476" cy="280.274" r="4" fill="#0" id="circle105"/>
	<circle cx="593.707" cy="498.384" r="4" fill="#0" id="circle106"/>
	<circle cx="598.554" cy="294.814" r="4" fill="#0" id="circle107"/>
	<circle cx="603.401" cy="310.971" r="4" fill="#0" id="circle108"/>
	<circle cx="609.863" cy="493.537" r="4" fill="#0" id="circle109"/>
	<circle cx="616.326" cy="320.664" r="4" fill="#0" id="circle110"/>
	<circle cx="626.02" cy="490.306" r="4" fill="#0" id="circle111"/>
	<circle cx="632.482" cy="327.127" r="4" fill="#0" id="circle112"/>
	<circle cx="638.945" cy="480.612" r="4" fill="#0" id="circle113"/>
	<circle cx="647.023" cy="335.205" r="4" fill="#0" id="circle114"/>
	<circle cx="655.101" cy="472.534" r="4" fill="#0" id="circle115"/>
	<circle cx="658.332" cy="348.13" r="4" fill="#0" id="circle116"/>
	<circle cx="668.026" cy="361.055" r="4" fill="#0" id="circle117"/>
	<circle cx="668.026" cy="457.993" r="4" fill="#0" id="circle118"/>
	<circle cx="676.104" cy="375.596" r="4" fill="#0" id="circle119"/>
	<circle cx="680.951" cy="446.684" r="4" fill="#0" id="circle120"/>
	<circle cx="690.645" cy="383.674" r="4" fill="#0" id="circle121"/>
	<circle cx="692.261" cy="433.759" r="4" fill="#0" id="circle122"/>
	<circle cx="705.186" cy="391.752" r="4" fill="#0" id="circle123"/>
	<circle cx="708.417" cy="433.759" r="4" fill="#0" id="circle124"/>
	<circle cx="721.342" cy="391.752" r="4" fill="#0" id="circle125"/>
	<circle cx="724.573" cy="433.759" r="4" fill="#0" id="circle126"/>
	<circle cx="737.498" cy="391.752" r="4" fill="#0" id="circle127"/>
	<circle cx="740.73" cy="433.759" r="4" fill="#0" id="circle128"/>
	<circle cx="752.039" cy="399.831" r="4" fill="#0" id="circle129"/>
	<circle cx="756.886" cy="433.759" r="4" fill="#0" id="circle130"/>
	<circle cx="768.195" cy="399.831" r="4" fill="#0" id="circle131"/>
	<circle cx="773.042" cy="433.759" r="4" fill="#0" id="circle132"/>
	<circle cx="784.352" cy="399.831" r="4" fill="#0" id="circle133"/>
	<circle cx="789.199" cy="433.759" r="4" fill="#0" id="circle134"/>
	<circle cx="798.893" cy="407.909" r="4" fill="#0" id="circle135"/>
	<circle cx="805.355" cy="433.759" r="4" fill="#0" id="circle136"/>
	<circle cx="815.049" cy="407.909" r="4" fill="#0" id="circle137"/>
	<circle cx="821.511" cy="433.759" r="4" fill="#0" id="circle138"/>
	<circle cx="831.205" cy="407.909" r="4" fill="#0" id="circle139"/>
	<circle cx="837.668" cy="433.759" r="4" fill="#0" id="circle140"/>
	<circle cx="847.362" cy="407.909" r="4" fill="#0" id="circle141"/>
	<circle cx="853.824" cy="433.759" r="4" fill="#0" id="circle142"/>
	<circle cx="863.518" cy="407.909" r="4" fill="#0" id="circle143"/>
	<circle cx="869.98" cy="433.759" r="4" fill="#0" id="circle144"/>
	<circle cx="879.674" cy="407.909" r="4" fill="#0" id="circle145"/>
	<circle cx="886.137" cy="433.759" r="4" fill="#0" id="circle146"/>
	<circle cx="895.831" cy="401.446" r="4" fill="#0" id="circle147"/>
	<circle cx="902.293" cy="433.759" r="4" fill="#0" id="circle148"/>
	<circle cx="911.987" cy="399.831" r="4" fill="#0" id="circle149"/>
	<circle cx="918.45" cy="433.759" r="4" fill="#0" id="circle150"/>
	<circle cx="926.528" cy="391.752" r="4" fill="#0" id="circle151"/>
	<circle cx="934.606" cy="433.759" r="4" fill="#0" id="circle152"/>
	<circle cx="939.453" cy="401.446" r="4" fill="#0" id="circle153"/>
	<circle cx="950.762" cy="433.759" r="4" fill="#0" id="circle154"/>
	<circle cx="955.609" cy="407.909" r="4" fill="#0" id="circle155"/>
	<circle cx="966.919" cy="433.759" r="4" fill="#0" id="circle156"/>
	<circle cx="971.765" cy="407.909" r="4" fill="#0" id="circle157"/>
	<circle cx="983.075" cy="433.759" r="4" fill="#0" id="circle158"/>
	<circle cx="987.922" cy="407.909" r="4" fill="#0" id="circle159"/>
	<circle cx="996" cy="422.45" r="4" fill="#0" id="circle160"/>
	</g>
</svg>