<?xml version="1.0" encoding="UTF-8" standalone="no"?>
<!-- Created with CurveBenchmark -->
<svg
	xmlns:dc="http://purl.org/dc/elements/1.1/"
	xmlns:cc="http://creativecommons.org/ns#"
	xmlns:rdf="http://www.w3.org/1999/02/22-rdf-syntax-ns#"
	xmlns:svg="http://www.w3.org/2000/svg"
	xmlns="http://www.w3.org/2000/svg"
	xmlns:sodipodi="http://sodipodi.sourceforge.net/DTD/sodipodi-0.dtd"
	xmlns:inkscape="http://www.inkscape.org/namespaces/inkscape"
	width="1000"
	height="1000"
	id="svg2"
	version="1.1"
	sodipodi:docname="manifold/connect2d-fish-20.png.txt">
<defs
	id="defs4" />
<metadata
	id="metadata7">
	<rdf:RDF>
		<cc:Work
			rdf:about="">
			<dc:format>image/svg+xml</dc:format>
			<dc:type
				rdf:resource="http://purl.org/dc/dcmitype/StillImage" />
			<dc:title></dc:title>
		</cc:Work>
	</rdf:RDF>
</metadata>
<g
	inkscape:label="Layer 1"
	inkscape:groupmode="layer"
	id="layer1">
	<path style="fill:none;stroke:red;stroke-width:1px;stroke-linecap:butt;stroke-linejoin:miter;stroke-opacity:1" d="M 996,152.021 996,160.677 z" id="boundary" inkscape:connector-curvature="0" />
	<path style="fill:none;stroke:red;stroke-width:1px;stroke-linecap:butt;stroke-linejoin:miter;stroke-opacity:1" d="M 996,160.677 989.075,168.468 z" id="boundary" inkscape:connector-curvature="0" />
	<path style="fill:none;stroke:red;stroke-width:1px;stroke-linecap:butt;stroke-linejoin:miter;stroke-opacity:1" d="M 989.075,168.468 982.15,175.393 z" id="boundary" inkscape:connector-curvature="0" />
	<path style="fill:none;stroke:red;stroke-width:1px;stroke-linecap:butt;stroke-linejoin:miter;stroke-opacity:1" d="M 982.15,175.393 975.225,182.318 z" id="boundary" inkscape:connector-curvature="0" />
	<path style="fill:none;stroke:red;stroke-width:1px;stroke-linecap:butt;stroke-linejoin:miter;stroke-opacity:1" d="M 975.225,182.318 967.435,186.646 z" id="boundary" inkscape:connector-curvature="0" />
	<path style="fill:none;stroke:red;stroke-width:1px;stroke-linecap:butt;stroke-linejoin:miter;stroke-opacity:1" d="M 967.435,186.646 959.644,190.974 z" id="boundary" inkscape:connector-curvature="0" />
	<path style="fill:none;stroke:red;stroke-width:1px;stroke-linecap:butt;stroke-linejoin:miter;stroke-opacity:1" d="M 959.644,190.974 950.988,193.571 z" id="boundary" inkscape:connector-curvature="0" />
	<path style="fill:none;stroke:red;stroke-width:1px;stroke-linecap:butt;stroke-linejoin:miter;stroke-opacity:1" d="M 950.988,193.571 942.332,197.899 z" id="boundary" inkscape:connector-curvature="0" />
	<path style="fill:none;stroke:red;stroke-width:1px;stroke-linecap:butt;stroke-linejoin:miter;stroke-opacity:1" d="M 942.332,197.899 935.407,203.958 z" id="boundary" inkscape:connector-curvature="0" />
	<path style="fill:none;stroke:red;stroke-width:1px;stroke-linecap:butt;stroke-linejoin:miter;stroke-opacity:1" d="M 935.407,203.958 926.75,208.286 z" id="boundary" inkscape:connector-curvature="0" />
	<path style="fill:none;stroke:red;stroke-width:1px;stroke-linecap:butt;stroke-linejoin:miter;stroke-opacity:1" d="M 926.75,208.286 918.094,208.286 z" id="boundary" inkscape:connector-curvature="0" />
	<path style="fill:none;stroke:red;stroke-width:1px;stroke-linecap:butt;stroke-linejoin:miter;stroke-opacity:1" d="M 918.094,208.286 909.438,212.614 z" id="boundary" inkscape:connector-curvature="0" />
	<path style="fill:none;stroke:red;stroke-width:1px;stroke-linecap:butt;stroke-linejoin:miter;stroke-opacity:1" d="M 909.438,212.614 900.782,212.614 z" id="boundary" inkscape:connector-curvature="0" />
	<path style="fill:none;stroke:red;stroke-width:1px;stroke-linecap:butt;stroke-linejoin:miter;stroke-opacity:1" d="M 900.782,212.614 892.126,212.614 z" id="boundary" inkscape:connector-curvature="0" />
	<path style="fill:none;stroke:red;stroke-width:1px;stroke-linecap:butt;stroke-linejoin:miter;stroke-opacity:1" d="M 892.126,212.614 883.469,216.942 z" id="boundary" inkscape:connector-curvature="0" />
	<path style="fill:none;stroke:red;stroke-width:1px;stroke-linecap:butt;stroke-linejoin:miter;stroke-opacity:1" d="M 883.469,216.942 874.813,216.942 z" id="boundary" inkscape:connector-curvature="0" />
	<path style="fill:none;stroke:red;stroke-width:1px;stroke-linecap:butt;stroke-linejoin:miter;stroke-opacity:1" d="M 874.813,216.942 866.157,216.942 z" id="boundary" inkscape:connector-curvature="0" />
	<path style="fill:none;stroke:red;stroke-width:1px;stroke-linecap:butt;stroke-linejoin:miter;stroke-opacity:1" d="M 866.157,216.942 857.501,216.942 z" id="boundary" inkscape:connector-curvature="0" />
	<path style="fill:none;stroke:red;stroke-width:1px;stroke-linecap:butt;stroke-linejoin:miter;stroke-opacity:1" d="M 857.501,216.942 857.501,225.599 z" id="boundary" inkscape:connector-curvature="0" />
	<path style="fill:none;stroke:red;stroke-width:1px;stroke-linecap:butt;stroke-linejoin:miter;stroke-opacity:1" d="M 857.501,225.599 853.173,234.255 z" id="boundary" inkscape:connector-curvature="0" />
	<path style="fill:none;stroke:red;stroke-width:1px;stroke-linecap:butt;stroke-linejoin:miter;stroke-opacity:1" d="M 853.173,234.255 845.382,246.373 z" id="boundary" inkscape:connector-curvature="0" />
	<path style="fill:none;stroke:red;stroke-width:1px;stroke-linecap:butt;stroke-linejoin:miter;stroke-opacity:1" d="M 845.382,246.373 839.323,257.627 z" id="boundary" inkscape:connector-curvature="0" />
	<path style="fill:none;stroke:red;stroke-width:1px;stroke-linecap:butt;stroke-linejoin:miter;stroke-opacity:1" d="M 839.323,257.627 839.323,266.283 z" id="boundary" inkscape:connector-curvature="0" />
	<path style="fill:none;stroke:red;stroke-width:1px;stroke-linecap:butt;stroke-linejoin:miter;stroke-opacity:1" d="M 839.323,266.283 834.129,273.208 z" id="boundary" inkscape:connector-curvature="0" />
	<path style="fill:none;stroke:red;stroke-width:1px;stroke-linecap:butt;stroke-linejoin:miter;stroke-opacity:1" d="M 834.129,273.208 828.935,286.192 z" id="boundary" inkscape:connector-curvature="0" />
	<path style="fill:none;stroke:red;stroke-width:1px;stroke-linecap:butt;stroke-linejoin:miter;stroke-opacity:1" d="M 828.935,286.192 826.339,277.536 z" id="boundary" inkscape:connector-curvature="0" />
	<path style="fill:none;stroke:red;stroke-width:1px;stroke-linecap:butt;stroke-linejoin:miter;stroke-opacity:1" d="M 826.339,277.536 826.339,268.88 z" id="boundary" inkscape:connector-curvature="0" />
	<path style="fill:none;stroke:red;stroke-width:1px;stroke-linecap:butt;stroke-linejoin:miter;stroke-opacity:1" d="M 826.339,268.88 818.548,273.208 z" id="boundary" inkscape:connector-curvature="0" />
	<path style="fill:none;stroke:red;stroke-width:1px;stroke-linecap:butt;stroke-linejoin:miter;stroke-opacity:1" d="M 818.548,273.208 813.354,266.283 z" id="boundary" inkscape:connector-curvature="0" />
	<path style="fill:none;stroke:red;stroke-width:1px;stroke-linecap:butt;stroke-linejoin:miter;stroke-opacity:1" d="M 813.354,266.283 820.279,259.358 z" id="boundary" inkscape:connector-curvature="0" />
	<path style="fill:none;stroke:red;stroke-width:1px;stroke-linecap:butt;stroke-linejoin:miter;stroke-opacity:1" d="M 820.279,259.358 827.204,252.433 z" id="boundary" inkscape:connector-curvature="0" />
	<path style="fill:none;stroke:red;stroke-width:1px;stroke-linecap:butt;stroke-linejoin:miter;stroke-opacity:1" d="M 827.204,252.433 835.86,248.105 z" id="boundary" inkscape:connector-curvature="0" />
	<path style="fill:none;stroke:red;stroke-width:1px;stroke-linecap:butt;stroke-linejoin:miter;stroke-opacity:1" d="M 835.86,248.105 840.188,239.449 z" id="boundary" inkscape:connector-curvature="0" />
	<path style="fill:none;stroke:red;stroke-width:1px;stroke-linecap:butt;stroke-linejoin:miter;stroke-opacity:1" d="M 840.188,239.449 841.92,225.599 z" id="boundary" inkscape:connector-curvature="0" />
	<path style="fill:none;stroke:red;stroke-width:1px;stroke-linecap:butt;stroke-linejoin:miter;stroke-opacity:1" d="M 841.92,225.599 834.129,229.927 z" id="boundary" inkscape:connector-curvature="0" />
	<path style="fill:none;stroke:red;stroke-width:1px;stroke-linecap:butt;stroke-linejoin:miter;stroke-opacity:1" d="M 834.129,229.927 825.473,229.927 z" id="boundary" inkscape:connector-curvature="0" />
	<path style="fill:none;stroke:red;stroke-width:1px;stroke-linecap:butt;stroke-linejoin:miter;stroke-opacity:1" d="M 825.473,229.927 817.682,234.255 z" id="boundary" inkscape:connector-curvature="0" />
	<path style="fill:none;stroke:red;stroke-width:1px;stroke-linecap:butt;stroke-linejoin:miter;stroke-opacity:1" d="M 817.682,234.255 809.026,234.255 z" id="boundary" inkscape:connector-curvature="0" />
	<path style="fill:none;stroke:red;stroke-width:1px;stroke-linecap:butt;stroke-linejoin:miter;stroke-opacity:1" d="M 809.026,234.255 801.236,238.583 z" id="boundary" inkscape:connector-curvature="0" />
	<path style="fill:none;stroke:red;stroke-width:1px;stroke-linecap:butt;stroke-linejoin:miter;stroke-opacity:1" d="M 801.236,238.583 792.579,238.583 z" id="boundary" inkscape:connector-curvature="0" />
	<path style="fill:none;stroke:red;stroke-width:1px;stroke-linecap:butt;stroke-linejoin:miter;stroke-opacity:1" d="M 792.579,238.583 784.789,242.911 z" id="boundary" inkscape:connector-curvature="0" />
	<path style="fill:none;stroke:red;stroke-width:1px;stroke-linecap:butt;stroke-linejoin:miter;stroke-opacity:1" d="M 784.789,242.911 776.133,242.911 z" id="boundary" inkscape:connector-curvature="0" />
	<path style="fill:none;stroke:red;stroke-width:1px;stroke-linecap:butt;stroke-linejoin:miter;stroke-opacity:1" d="M 776.133,242.911 767.476,242.911 z" id="boundary" inkscape:connector-curvature="0" />
	<path style="fill:none;stroke:red;stroke-width:1px;stroke-linecap:butt;stroke-linejoin:miter;stroke-opacity:1" d="M 767.476,242.911 759.686,247.239 z" id="boundary" inkscape:connector-curvature="0" />
	<path style="fill:none;stroke:red;stroke-width:1px;stroke-linecap:butt;stroke-linejoin:miter;stroke-opacity:1" d="M 759.686,247.239 751.03,247.239 z" id="boundary" inkscape:connector-curvature="0" />
	<path style="fill:none;stroke:red;stroke-width:1px;stroke-linecap:butt;stroke-linejoin:miter;stroke-opacity:1" d="M 751.03,247.239 743.239,251.567 z" id="boundary" inkscape:connector-curvature="0" />
	<path style="fill:none;stroke:red;stroke-width:1px;stroke-linecap:butt;stroke-linejoin:miter;stroke-opacity:1" d="M 743.239,251.567 734.583,251.567 z" id="boundary" inkscape:connector-curvature="0" />
	<path style="fill:none;stroke:red;stroke-width:1px;stroke-linecap:butt;stroke-linejoin:miter;stroke-opacity:1" d="M 734.583,251.567 726.792,247.239 z" id="boundary" inkscape:connector-curvature="0" />
	<path style="fill:none;stroke:red;stroke-width:1px;stroke-linecap:butt;stroke-linejoin:miter;stroke-opacity:1" d="M 726.792,247.239 719.002,251.567 z" id="boundary" inkscape:connector-curvature="0" />
	<path style="fill:none;stroke:red;stroke-width:1px;stroke-linecap:butt;stroke-linejoin:miter;stroke-opacity:1" d="M 719.002,251.567 710.346,251.567 z" id="boundary" inkscape:connector-curvature="0" />
	<path style="fill:none;stroke:red;stroke-width:1px;stroke-linecap:butt;stroke-linejoin:miter;stroke-opacity:1" d="M 710.346,251.567 701.689,251.567 z" id="boundary" inkscape:connector-curvature="0" />
	<path style="fill:none;stroke:red;stroke-width:1px;stroke-linecap:butt;stroke-linejoin:miter;stroke-opacity:1" d="M 701.689,251.567 693.033,251.567 z" id="boundary" inkscape:connector-curvature="0" />
	<path style="fill:none;stroke:red;stroke-width:1px;stroke-linecap:butt;stroke-linejoin:miter;stroke-opacity:1" d="M 693.033,251.567 684.377,251.567 z" id="boundary" inkscape:connector-curvature="0" />
	<path style="fill:none;stroke:red;stroke-width:1px;stroke-linecap:butt;stroke-linejoin:miter;stroke-opacity:1" d="M 684.377,251.567 675.721,251.567 z" id="boundary" inkscape:connector-curvature="0" />
	<path style="fill:none;stroke:red;stroke-width:1px;stroke-linecap:butt;stroke-linejoin:miter;stroke-opacity:1" d="M 675.721,251.567 667.065,251.567 z" id="boundary" inkscape:connector-curvature="0" />
	<path style="fill:none;stroke:red;stroke-width:1px;stroke-linecap:butt;stroke-linejoin:miter;stroke-opacity:1" d="M 667.065,251.567 658.408,251.567 z" id="boundary" inkscape:connector-curvature="0" />
	<path style="fill:none;stroke:red;stroke-width:1px;stroke-linecap:butt;stroke-linejoin:miter;stroke-opacity:1" d="M 658.408,251.567 649.752,251.567 z" id="boundary" inkscape:connector-curvature="0" />
	<path style="fill:none;stroke:red;stroke-width:1px;stroke-linecap:butt;stroke-linejoin:miter;stroke-opacity:1" d="M 649.752,251.567 641.096,251.567 z" id="boundary" inkscape:connector-curvature="0" />
	<path style="fill:none;stroke:red;stroke-width:1px;stroke-linecap:butt;stroke-linejoin:miter;stroke-opacity:1" d="M 641.096,251.567 632.44,251.567 z" id="boundary" inkscape:connector-curvature="0" />
	<path style="fill:none;stroke:red;stroke-width:1px;stroke-linecap:butt;stroke-linejoin:miter;stroke-opacity:1" d="M 632.44,251.567 623.784,251.567 z" id="boundary" inkscape:connector-curvature="0" />
	<path style="fill:none;stroke:red;stroke-width:1px;stroke-linecap:butt;stroke-linejoin:miter;stroke-opacity:1" d="M 623.784,251.567 615.127,251.567 z" id="boundary" inkscape:connector-curvature="0" />
	<path style="fill:none;stroke:red;stroke-width:1px;stroke-linecap:butt;stroke-linejoin:miter;stroke-opacity:1" d="M 615.127,251.567 606.471,251.567 z" id="boundary" inkscape:connector-curvature="0" />
	<path style="fill:none;stroke:red;stroke-width:1px;stroke-linecap:butt;stroke-linejoin:miter;stroke-opacity:1" d="M 606.471,251.567 597.815,251.567 z" id="boundary" inkscape:connector-curvature="0" />
	<path style="fill:none;stroke:red;stroke-width:1px;stroke-linecap:butt;stroke-linejoin:miter;stroke-opacity:1" d="M 597.815,251.567 589.159,251.567 z" id="boundary" inkscape:connector-curvature="0" />
	<path style="fill:none;stroke:red;stroke-width:1px;stroke-linecap:butt;stroke-linejoin:miter;stroke-opacity:1" d="M 589.159,251.567 580.503,251.567 z" id="boundary" inkscape:connector-curvature="0" />
	<path style="fill:none;stroke:red;stroke-width:1px;stroke-linecap:butt;stroke-linejoin:miter;stroke-opacity:1" d="M 580.503,251.567 571.846,248.97 z" id="boundary" inkscape:connector-curvature="0" />
	<path style="fill:none;stroke:red;stroke-width:1px;stroke-linecap:butt;stroke-linejoin:miter;stroke-opacity:1" d="M 571.846,248.97 563.19,247.239 z" id="boundary" inkscape:connector-curvature="0" />
	<path style="fill:none;stroke:red;stroke-width:1px;stroke-linecap:butt;stroke-linejoin:miter;stroke-opacity:1" d="M 563.19,247.239 554.534,247.239 z" id="boundary" inkscape:connector-curvature="0" />
	<path style="fill:none;stroke:red;stroke-width:1px;stroke-linecap:butt;stroke-linejoin:miter;stroke-opacity:1" d="M 554.534,247.239 545.878,247.239 z" id="boundary" inkscape:connector-curvature="0" />
	<path style="fill:none;stroke:red;stroke-width:1px;stroke-linecap:butt;stroke-linejoin:miter;stroke-opacity:1" d="M 545.878,247.239 537.222,247.239 z" id="boundary" inkscape:connector-curvature="0" />
	<path style="fill:none;stroke:red;stroke-width:1px;stroke-linecap:butt;stroke-linejoin:miter;stroke-opacity:1" d="M 537.222,247.239 528.565,247.239 z" id="boundary" inkscape:connector-curvature="0" />
	<path style="fill:none;stroke:red;stroke-width:1px;stroke-linecap:butt;stroke-linejoin:miter;stroke-opacity:1" d="M 528.565,247.239 519.909,247.239 z" id="boundary" inkscape:connector-curvature="0" />
	<path style="fill:none;stroke:red;stroke-width:1px;stroke-linecap:butt;stroke-linejoin:miter;stroke-opacity:1" d="M 519.909,247.239 519.909,255.895 z" id="boundary" inkscape:connector-curvature="0" />
	<path style="fill:none;stroke:red;stroke-width:1px;stroke-linecap:butt;stroke-linejoin:miter;stroke-opacity:1" d="M 519.909,255.895 519.044,266.283 z" id="boundary" inkscape:connector-curvature="0" />
	<path style="fill:none;stroke:red;stroke-width:1px;stroke-linecap:butt;stroke-linejoin:miter;stroke-opacity:1" d="M 519.044,266.283 510.387,264.551 z" id="boundary" inkscape:connector-curvature="0" />
	<path style="fill:none;stroke:red;stroke-width:1px;stroke-linecap:butt;stroke-linejoin:miter;stroke-opacity:1" d="M 510.387,264.551 501.731,266.283 z" id="boundary" inkscape:connector-curvature="0" />
	<path style="fill:none;stroke:red;stroke-width:1px;stroke-linecap:butt;stroke-linejoin:miter;stroke-opacity:1" d="M 501.731,266.283 493.075,264.551 z" id="boundary" inkscape:connector-curvature="0" />
	<path style="fill:none;stroke:red;stroke-width:1px;stroke-linecap:butt;stroke-linejoin:miter;stroke-opacity:1" d="M 493.075,264.551 489.613,255.895 z" id="boundary" inkscape:connector-curvature="0" />
	<path style="fill:none;stroke:red;stroke-width:1px;stroke-linecap:butt;stroke-linejoin:miter;stroke-opacity:1" d="M 489.613,255.895 480.956,260.223 z" id="boundary" inkscape:connector-curvature="0" />
	<path style="fill:none;stroke:red;stroke-width:1px;stroke-linecap:butt;stroke-linejoin:miter;stroke-opacity:1" d="M 480.956,260.223 474.897,267.148 z" id="boundary" inkscape:connector-curvature="0" />
	<path style="fill:none;stroke:red;stroke-width:1px;stroke-linecap:butt;stroke-linejoin:miter;stroke-opacity:1" d="M 474.897,267.148 466.241,268.88 z" id="boundary" inkscape:connector-curvature="0" />
	<path style="fill:none;stroke:red;stroke-width:1px;stroke-linecap:butt;stroke-linejoin:miter;stroke-opacity:1" d="M 466.241,268.88 458.45,273.208 z" id="boundary" inkscape:connector-curvature="0" />
	<path style="fill:none;stroke:red;stroke-width:1px;stroke-linecap:butt;stroke-linejoin:miter;stroke-opacity:1" d="M 458.45,273.208 449.794,273.208 z" id="boundary" inkscape:connector-curvature="0" />
	<path style="fill:none;stroke:red;stroke-width:1px;stroke-linecap:butt;stroke-linejoin:miter;stroke-opacity:1" d="M 449.794,273.208 442.003,277.536 z" id="boundary" inkscape:connector-curvature="0" />
	<path style="fill:none;stroke:red;stroke-width:1px;stroke-linecap:butt;stroke-linejoin:miter;stroke-opacity:1" d="M 442.003,277.536 433.347,277.536 z" id="boundary" inkscape:connector-curvature="0" />
	<path style="fill:none;stroke:red;stroke-width:1px;stroke-linecap:butt;stroke-linejoin:miter;stroke-opacity:1" d="M 433.347,277.536 424.691,277.536 z" id="boundary" inkscape:connector-curvature="0" />
	<path style="fill:none;stroke:red;stroke-width:1px;stroke-linecap:butt;stroke-linejoin:miter;stroke-opacity:1" d="M 424.691,277.536 416.901,281.864 z" id="boundary" inkscape:connector-curvature="0" />
	<path style="fill:none;stroke:red;stroke-width:1px;stroke-linecap:butt;stroke-linejoin:miter;stroke-opacity:1" d="M 416.901,281.864 408.244,281.864 z" id="boundary" inkscape:connector-curvature="0" />
	<path style="fill:none;stroke:red;stroke-width:1px;stroke-linecap:butt;stroke-linejoin:miter;stroke-opacity:1" d="M 408.244,281.864 399.588,284.461 z" id="boundary" inkscape:connector-curvature="0" />
	<path style="fill:none;stroke:red;stroke-width:1px;stroke-linecap:butt;stroke-linejoin:miter;stroke-opacity:1" d="M 399.588,284.461 390.932,281.864 z" id="boundary" inkscape:connector-curvature="0" />
	<path style="fill:none;stroke:red;stroke-width:1px;stroke-linecap:butt;stroke-linejoin:miter;stroke-opacity:1" d="M 390.932,281.864 382.276,281.864 z" id="boundary" inkscape:connector-curvature="0" />
	<path style="fill:none;stroke:red;stroke-width:1px;stroke-linecap:butt;stroke-linejoin:miter;stroke-opacity:1" d="M 382.276,281.864 373.62,281.864 z" id="boundary" inkscape:connector-curvature="0" />
	<path style="fill:none;stroke:red;stroke-width:1px;stroke-linecap:butt;stroke-linejoin:miter;stroke-opacity:1" d="M 373.62,281.864 364.963,281.864 z" id="boundary" inkscape:connector-curvature="0" />
	<path style="fill:none;stroke:red;stroke-width:1px;stroke-linecap:butt;stroke-linejoin:miter;stroke-opacity:1" d="M 364.963,281.864 356.307,284.461 z" id="boundary" inkscape:connector-curvature="0" />
	<path style="fill:none;stroke:red;stroke-width:1px;stroke-linecap:butt;stroke-linejoin:miter;stroke-opacity:1" d="M 356.307,284.461 347.651,286.192 z" id="boundary" inkscape:connector-curvature="0" />
	<path style="fill:none;stroke:red;stroke-width:1px;stroke-linecap:butt;stroke-linejoin:miter;stroke-opacity:1" d="M 347.651,286.192 338.995,286.192 z" id="boundary" inkscape:connector-curvature="0" />
	<path style="fill:none;stroke:red;stroke-width:1px;stroke-linecap:butt;stroke-linejoin:miter;stroke-opacity:1" d="M 338.995,286.192 331.204,281.864 z" id="boundary" inkscape:connector-curvature="0" />
	<path style="fill:none;stroke:red;stroke-width:1px;stroke-linecap:butt;stroke-linejoin:miter;stroke-opacity:1" d="M 331.204,281.864 322.548,280.998 z" id="boundary" inkscape:connector-curvature="0" />
	<path style="fill:none;stroke:red;stroke-width:1px;stroke-linecap:butt;stroke-linejoin:miter;stroke-opacity:1" d="M 322.548,280.998 313.892,277.536 z" id="boundary" inkscape:connector-curvature="0" />
	<path style="fill:none;stroke:red;stroke-width:1px;stroke-linecap:butt;stroke-linejoin:miter;stroke-opacity:1" d="M 313.892,277.536 305.236,277.536 z" id="boundary" inkscape:connector-curvature="0" />
	<path style="fill:none;stroke:red;stroke-width:1px;stroke-linecap:butt;stroke-linejoin:miter;stroke-opacity:1" d="M 305.236,277.536 296.579,276.67 z" id="boundary" inkscape:connector-curvature="0" />
	<path style="fill:none;stroke:red;stroke-width:1px;stroke-linecap:butt;stroke-linejoin:miter;stroke-opacity:1" d="M 296.579,276.67 287.923,273.208 z" id="boundary" inkscape:connector-curvature="0" />
	<path style="fill:none;stroke:red;stroke-width:1px;stroke-linecap:butt;stroke-linejoin:miter;stroke-opacity:1" d="M 287.923,273.208 279.267,273.208 z" id="boundary" inkscape:connector-curvature="0" />
	<path style="fill:none;stroke:red;stroke-width:1px;stroke-linecap:butt;stroke-linejoin:miter;stroke-opacity:1" d="M 279.267,273.208 271.476,268.88 z" id="boundary" inkscape:connector-curvature="0" />
	<path style="fill:none;stroke:red;stroke-width:1px;stroke-linecap:butt;stroke-linejoin:miter;stroke-opacity:1" d="M 271.476,268.88 263.686,264.551 z" id="boundary" inkscape:connector-curvature="0" />
	<path style="fill:none;stroke:red;stroke-width:1px;stroke-linecap:butt;stroke-linejoin:miter;stroke-opacity:1" d="M 263.686,264.551 256.761,258.492 z" id="boundary" inkscape:connector-curvature="0" />
	<path style="fill:none;stroke:red;stroke-width:1px;stroke-linecap:butt;stroke-linejoin:miter;stroke-opacity:1" d="M 256.761,258.492 248.105,255.03 z" id="boundary" inkscape:connector-curvature="0" />
	<path style="fill:none;stroke:red;stroke-width:1px;stroke-linecap:butt;stroke-linejoin:miter;stroke-opacity:1" d="M 248.105,255.03 240.314,250.702 z" id="boundary" inkscape:connector-curvature="0" />
	<path style="fill:none;stroke:red;stroke-width:1px;stroke-linecap:butt;stroke-linejoin:miter;stroke-opacity:1" d="M 240.314,250.702 231.658,247.239 z" id="boundary" inkscape:connector-curvature="0" />
	<path style="fill:none;stroke:red;stroke-width:1px;stroke-linecap:butt;stroke-linejoin:miter;stroke-opacity:1" d="M 231.658,247.239 223.867,242.911 z" id="boundary" inkscape:connector-curvature="0" />
	<path style="fill:none;stroke:red;stroke-width:1px;stroke-linecap:butt;stroke-linejoin:miter;stroke-opacity:1" d="M 223.867,242.911 216.077,238.583 z" id="boundary" inkscape:connector-curvature="0" />
	<path style="fill:none;stroke:red;stroke-width:1px;stroke-linecap:butt;stroke-linejoin:miter;stroke-opacity:1" d="M 216.077,238.583 208.286,234.255 z" id="boundary" inkscape:connector-curvature="0" />
	<path style="fill:none;stroke:red;stroke-width:1px;stroke-linecap:butt;stroke-linejoin:miter;stroke-opacity:1" d="M 208.286,234.255 201.361,229.061 z" id="boundary" inkscape:connector-curvature="0" />
	<path style="fill:none;stroke:red;stroke-width:1px;stroke-linecap:butt;stroke-linejoin:miter;stroke-opacity:1" d="M 201.361,229.061 194.436,223.002 z" id="boundary" inkscape:connector-curvature="0" />
	<path style="fill:none;stroke:red;stroke-width:1px;stroke-linecap:butt;stroke-linejoin:miter;stroke-opacity:1" d="M 194.436,223.002 194.436,214.346 z" id="boundary" inkscape:connector-curvature="0" />
	<path style="fill:none;stroke:red;stroke-width:1px;stroke-linecap:butt;stroke-linejoin:miter;stroke-opacity:1" d="M 194.436,214.346 201.361,208.286 z" id="boundary" inkscape:connector-curvature="0" />
	<path style="fill:none;stroke:red;stroke-width:1px;stroke-linecap:butt;stroke-linejoin:miter;stroke-opacity:1" d="M 201.361,208.286 210.017,208.286 z" id="boundary" inkscape:connector-curvature="0" />
	<path style="fill:none;stroke:red;stroke-width:1px;stroke-linecap:butt;stroke-linejoin:miter;stroke-opacity:1" d="M 210.017,208.286 192.705,203.092 z" id="boundary" inkscape:connector-curvature="0" />
	<path style="fill:none;stroke:red;stroke-width:1px;stroke-linecap:butt;stroke-linejoin:miter;stroke-opacity:1" d="M 192.705,203.092 184.049,199.63 z" id="boundary" inkscape:connector-curvature="0" />
	<path style="fill:none;stroke:red;stroke-width:1px;stroke-linecap:butt;stroke-linejoin:miter;stroke-opacity:1" d="M 184.049,199.63 176.258,195.302 z" id="boundary" inkscape:connector-curvature="0" />
	<path style="fill:none;stroke:red;stroke-width:1px;stroke-linecap:butt;stroke-linejoin:miter;stroke-opacity:1" d="M 176.258,195.302 168.468,190.974 z" id="boundary" inkscape:connector-curvature="0" />
	<path style="fill:none;stroke:red;stroke-width:1px;stroke-linecap:butt;stroke-linejoin:miter;stroke-opacity:1" d="M 168.468,190.974 159.812,192.705 z" id="boundary" inkscape:connector-curvature="0" />
	<path style="fill:none;stroke:red;stroke-width:1px;stroke-linecap:butt;stroke-linejoin:miter;stroke-opacity:1" d="M 159.812,192.705 151.155,195.302 z" id="boundary" inkscape:connector-curvature="0" />
	<path style="fill:none;stroke:red;stroke-width:1px;stroke-linecap:butt;stroke-linejoin:miter;stroke-opacity:1" d="M 151.155,195.302 142.499,195.302 z" id="boundary" inkscape:connector-curvature="0" />
	<path style="fill:none;stroke:red;stroke-width:1px;stroke-linecap:butt;stroke-linejoin:miter;stroke-opacity:1" d="M 142.499,195.302 133.843,195.302 z" id="boundary" inkscape:connector-curvature="0" />
	<path style="fill:none;stroke:red;stroke-width:1px;stroke-linecap:butt;stroke-linejoin:miter;stroke-opacity:1" d="M 133.843,195.302 125.187,195.302 z" id="boundary" inkscape:connector-curvature="0" />
	<path style="fill:none;stroke:red;stroke-width:1px;stroke-linecap:butt;stroke-linejoin:miter;stroke-opacity:1" d="M 125.187,195.302 117.396,199.63 z" id="boundary" inkscape:connector-curvature="0" />
	<path style="fill:none;stroke:red;stroke-width:1px;stroke-linecap:butt;stroke-linejoin:miter;stroke-opacity:1" d="M 117.396,199.63 108.74,199.63 z" id="boundary" inkscape:connector-curvature="0" />
	<path style="fill:none;stroke:red;stroke-width:1px;stroke-linecap:butt;stroke-linejoin:miter;stroke-opacity:1" d="M 108.74,199.63 100.084,199.63 z" id="boundary" inkscape:connector-curvature="0" />
	<path style="fill:none;stroke:red;stroke-width:1px;stroke-linecap:butt;stroke-linejoin:miter;stroke-opacity:1" d="M 100.084,199.63 91.4276,203.958 z" id="boundary" inkscape:connector-curvature="0" />
	<path style="fill:none;stroke:red;stroke-width:1px;stroke-linecap:butt;stroke-linejoin:miter;stroke-opacity:1" d="M 91.4276,203.958 82.7714,203.958 z" id="boundary" inkscape:connector-curvature="0" />
	<path style="fill:none;stroke:red;stroke-width:1px;stroke-linecap:butt;stroke-linejoin:miter;stroke-opacity:1" d="M 82.7714,203.958 74.1152,203.958 z" id="boundary" inkscape:connector-curvature="0" />
	<path style="fill:none;stroke:red;stroke-width:1px;stroke-linecap:butt;stroke-linejoin:miter;stroke-opacity:1" d="M 74.1152,203.958 65.459,203.958 z" id="boundary" inkscape:connector-curvature="0" />
	<path style="fill:none;stroke:red;stroke-width:1px;stroke-linecap:butt;stroke-linejoin:miter;stroke-opacity:1" d="M 65.459,203.958 56.8028,203.958 z" id="boundary" inkscape:connector-curvature="0" />
	<path style="fill:none;stroke:red;stroke-width:1px;stroke-linecap:butt;stroke-linejoin:miter;stroke-opacity:1" d="M 56.8028,203.958 48.1466,203.958 z" id="boundary" inkscape:connector-curvature="0" />
	<path style="fill:none;stroke:red;stroke-width:1px;stroke-linecap:butt;stroke-linejoin:miter;stroke-opacity:1" d="M 48.1466,203.958 39.4904,203.958 z" id="boundary" inkscape:connector-curvature="0" />
	<path style="fill:none;stroke:red;stroke-width:1px;stroke-linecap:butt;stroke-linejoin:miter;stroke-opacity:1" d="M 39.4904,203.958 30.8342,206.555 z" id="boundary" inkscape:connector-curvature="0" />
	<path style="fill:none;stroke:red;stroke-width:1px;stroke-linecap:butt;stroke-linejoin:miter;stroke-opacity:1" d="M 30.8342,206.555 24.7749,199.63 z" id="boundary" inkscape:connector-curvature="0" />
	<path style="fill:none;stroke:red;stroke-width:1px;stroke-linecap:butt;stroke-linejoin:miter;stroke-opacity:1" d="M 24.7749,199.63 17.8499,193.571 z" id="boundary" inkscape:connector-curvature="0" />
	<path style="fill:none;stroke:red;stroke-width:1px;stroke-linecap:butt;stroke-linejoin:miter;stroke-opacity:1" d="M 17.8499,193.571 12.6562,186.646 z" id="boundary" inkscape:connector-curvature="0" />
	<path style="fill:none;stroke:red;stroke-width:1px;stroke-linecap:butt;stroke-linejoin:miter;stroke-opacity:1" d="M 12.6562,186.646 8.3281,178.855 z" id="boundary" inkscape:connector-curvature="0" />
	<path style="fill:none;stroke:red;stroke-width:1px;stroke-linecap:butt;stroke-linejoin:miter;stroke-opacity:1" d="M 8.3281,178.855 8.3281,170.199 z" id="boundary" inkscape:connector-curvature="0" />
	<path style="fill:none;stroke:red;stroke-width:1px;stroke-linecap:butt;stroke-linejoin:miter;stroke-opacity:1" d="M 8.3281,170.199 4,162.408 z" id="boundary" inkscape:connector-curvature="0" />
	<path style="fill:none;stroke:red;stroke-width:1px;stroke-linecap:butt;stroke-linejoin:miter;stroke-opacity:1" d="M 4,162.408 4,153.752 z" id="boundary" inkscape:connector-curvature="0" />
	<path style="fill:none;stroke:red;stroke-width:1px;stroke-linecap:butt;stroke-linejoin:miter;stroke-opacity:1" d="M 4,153.752 4,145.096 z" id="boundary" inkscape:connector-curvature="0" />
	<path style="fill:none;stroke:red;stroke-width:1px;stroke-linecap:butt;stroke-linejoin:miter;stroke-opacity:1" d="M 4,145.096 8.3281,136.44 z" id="boundary" inkscape:connector-curvature="0" />
	<path style="fill:none;stroke:red;stroke-width:1px;stroke-linecap:butt;stroke-linejoin:miter;stroke-opacity:1" d="M 8.3281,136.44 8.3281,127.784 z" id="boundary" inkscape:connector-curvature="0" />
	<path style="fill:none;stroke:red;stroke-width:1px;stroke-linecap:butt;stroke-linejoin:miter;stroke-opacity:1" d="M 8.3281,127.784 8.3281,119.127 z" id="boundary" inkscape:connector-curvature="0" />
	<path style="fill:none;stroke:red;stroke-width:1px;stroke-linecap:butt;stroke-linejoin:miter;stroke-opacity:1" d="M 8.3281,119.127 12.6562,110.471 z" id="boundary" inkscape:connector-curvature="0" />
	<path style="fill:none;stroke:red;stroke-width:1px;stroke-linecap:butt;stroke-linejoin:miter;stroke-opacity:1" d="M 12.6562,110.471 12.6562,101.815 z" id="boundary" inkscape:connector-curvature="0" />
	<path style="fill:none;stroke:red;stroke-width:1px;stroke-linecap:butt;stroke-linejoin:miter;stroke-opacity:1" d="M 12.6562,101.815 12.6562,93.1588 z" id="boundary" inkscape:connector-curvature="0" />
	<path style="fill:none;stroke:red;stroke-width:1px;stroke-linecap:butt;stroke-linejoin:miter;stroke-opacity:1" d="M 12.6562,93.1588 16.9843,84.5026 z" id="boundary" inkscape:connector-curvature="0" />
	<path style="fill:none;stroke:red;stroke-width:1px;stroke-linecap:butt;stroke-linejoin:miter;stroke-opacity:1" d="M 16.9843,84.5026 21.3124,75.8464 z" id="boundary" inkscape:connector-curvature="0" />
	<path style="fill:none;stroke:red;stroke-width:1px;stroke-linecap:butt;stroke-linejoin:miter;stroke-opacity:1" d="M 21.3124,75.8464 25.6405,67.1902 z" id="boundary" inkscape:connector-curvature="0" />
	<path style="fill:none;stroke:red;stroke-width:1px;stroke-linecap:butt;stroke-linejoin:miter;stroke-opacity:1" d="M 25.6405,67.1902 32.5654,60.2653 z" id="boundary" inkscape:connector-curvature="0" />
	<path style="fill:none;stroke:red;stroke-width:1px;stroke-linecap:butt;stroke-linejoin:miter;stroke-opacity:1" d="M 32.5654,60.2653 41.2216,60.2653 z" id="boundary" inkscape:connector-curvature="0" />
	<path style="fill:none;stroke:red;stroke-width:1px;stroke-linecap:butt;stroke-linejoin:miter;stroke-opacity:1" d="M 41.2216,60.2653 49.8778,60.2653 z" id="boundary" inkscape:connector-curvature="0" />
	<path style="fill:none;stroke:red;stroke-width:1px;stroke-linecap:butt;stroke-linejoin:miter;stroke-opacity:1" d="M 49.8778,60.2653 58.534,60.2653 z" id="boundary" inkscape:connector-curvature="0" />
	<path style="fill:none;stroke:red;stroke-width:1px;stroke-linecap:butt;stroke-linejoin:miter;stroke-opacity:1" d="M 58.534,60.2653 66.3246,64.5934 z" id="boundary" inkscape:connector-curvature="0" />
	<path style="fill:none;stroke:red;stroke-width:1px;stroke-linecap:butt;stroke-linejoin:miter;stroke-opacity:1" d="M 66.3246,64.5934 74.9808,64.5934 z" id="boundary" inkscape:connector-curvature="0" />
	<path style="fill:none;stroke:red;stroke-width:1px;stroke-linecap:butt;stroke-linejoin:miter;stroke-opacity:1" d="M 74.9808,64.5934 81.9058,70.6527 z" id="boundary" inkscape:connector-curvature="0" />
	<path style="fill:none;stroke:red;stroke-width:1px;stroke-linecap:butt;stroke-linejoin:miter;stroke-opacity:1" d="M 81.9058,70.6527 89.6963,74.9808 z" id="boundary" inkscape:connector-curvature="0" />
	<path style="fill:none;stroke:red;stroke-width:1px;stroke-linecap:butt;stroke-linejoin:miter;stroke-opacity:1" d="M 89.6963,74.9808 98.3525,77.5777 z" id="boundary" inkscape:connector-curvature="0" />
	<path style="fill:none;stroke:red;stroke-width:1px;stroke-linecap:butt;stroke-linejoin:miter;stroke-opacity:1" d="M 98.3525,77.5777 106.143,81.9058 z" id="boundary" inkscape:connector-curvature="0" />
	<path style="fill:none;stroke:red;stroke-width:1px;stroke-linecap:butt;stroke-linejoin:miter;stroke-opacity:1" d="M 106.143,81.9058 114.799,81.9058 z" id="boundary" inkscape:connector-curvature="0" />
	<path style="fill:none;stroke:red;stroke-width:1px;stroke-linecap:butt;stroke-linejoin:miter;stroke-opacity:1" d="M 114.799,81.9058 122.59,86.2339 z" id="boundary" inkscape:connector-curvature="0" />
	<path style="fill:none;stroke:red;stroke-width:1px;stroke-linecap:butt;stroke-linejoin:miter;stroke-opacity:1" d="M 122.59,86.2339 130.38,90.562 z" id="boundary" inkscape:connector-curvature="0" />
	<path style="fill:none;stroke:red;stroke-width:1px;stroke-linecap:butt;stroke-linejoin:miter;stroke-opacity:1" d="M 130.38,90.562 139.037,93.1588 z" id="boundary" inkscape:connector-curvature="0" />
	<path style="fill:none;stroke:red;stroke-width:1px;stroke-linecap:butt;stroke-linejoin:miter;stroke-opacity:1" d="M 139.037,93.1588 145.962,99.2182 z" id="boundary" inkscape:connector-curvature="0" />
	<path style="fill:none;stroke:red;stroke-width:1px;stroke-linecap:butt;stroke-linejoin:miter;stroke-opacity:1" d="M 145.962,99.2182 154.618,100.084 z" id="boundary" inkscape:connector-curvature="0" />
	<path style="fill:none;stroke:red;stroke-width:1px;stroke-linecap:butt;stroke-linejoin:miter;stroke-opacity:1" d="M 154.618,100.084 163.274,103.546 z" id="boundary" inkscape:connector-curvature="0" />
	<path style="fill:none;stroke:red;stroke-width:1px;stroke-linecap:butt;stroke-linejoin:miter;stroke-opacity:1" d="M 163.274,103.546 171.065,107.874 z" id="boundary" inkscape:connector-curvature="0" />
	<path style="fill:none;stroke:red;stroke-width:1px;stroke-linecap:butt;stroke-linejoin:miter;stroke-opacity:1" d="M 171.065,107.874 179.721,107.874 z" id="boundary" inkscape:connector-curvature="0" />
	<path style="fill:none;stroke:red;stroke-width:1px;stroke-linecap:butt;stroke-linejoin:miter;stroke-opacity:1" d="M 179.721,107.874 188.377,107.874 z" id="boundary" inkscape:connector-curvature="0" />
	<path style="fill:none;stroke:red;stroke-width:1px;stroke-linecap:butt;stroke-linejoin:miter;stroke-opacity:1" d="M 188.377,107.874 197.033,107.874 z" id="boundary" inkscape:connector-curvature="0" />
	<path style="fill:none;stroke:red;stroke-width:1px;stroke-linecap:butt;stroke-linejoin:miter;stroke-opacity:1" d="M 197.033,107.874 205.689,103.546 z" id="boundary" inkscape:connector-curvature="0" />
	<path style="fill:none;stroke:red;stroke-width:1px;stroke-linecap:butt;stroke-linejoin:miter;stroke-opacity:1" d="M 205.689,103.546 214.346,103.546 z" id="boundary" inkscape:connector-curvature="0" />
	<path style="fill:none;stroke:red;stroke-width:1px;stroke-linecap:butt;stroke-linejoin:miter;stroke-opacity:1" d="M 214.346,103.546 222.136,99.2182 z" id="boundary" inkscape:connector-curvature="0" />
	<path style="fill:none;stroke:red;stroke-width:1px;stroke-linecap:butt;stroke-linejoin:miter;stroke-opacity:1" d="M 222.136,99.2182 216.077,92.2932 z" id="boundary" inkscape:connector-curvature="0" />
	<path style="fill:none;stroke:red;stroke-width:1px;stroke-linecap:butt;stroke-linejoin:miter;stroke-opacity:1" d="M 216.077,92.2932 211.749,84.5026 z" id="boundary" inkscape:connector-curvature="0" />
	<path style="fill:none;stroke:red;stroke-width:1px;stroke-linecap:butt;stroke-linejoin:miter;stroke-opacity:1" d="M 211.749,84.5026 211.749,75.8464 z" id="boundary" inkscape:connector-curvature="0" />
	<path style="fill:none;stroke:red;stroke-width:1px;stroke-linecap:butt;stroke-linejoin:miter;stroke-opacity:1" d="M 211.749,75.8464 211.749,67.1902 z" id="boundary" inkscape:connector-curvature="0" />
	<path style="fill:none;stroke:red;stroke-width:1px;stroke-linecap:butt;stroke-linejoin:miter;stroke-opacity:1" d="M 211.749,67.1902 220.405,62.8621 z" id="boundary" inkscape:connector-curvature="0" />
	<path style="fill:none;stroke:red;stroke-width:1px;stroke-linecap:butt;stroke-linejoin:miter;stroke-opacity:1" d="M 220.405,62.8621 229.061,60.2653 z" id="boundary" inkscape:connector-curvature="0" />
	<path style="fill:none;stroke:red;stroke-width:1px;stroke-linecap:butt;stroke-linejoin:miter;stroke-opacity:1" d="M 229.061,60.2653 236.852,55.9372 z" id="boundary" inkscape:connector-curvature="0" />
	<path style="fill:none;stroke:red;stroke-width:1px;stroke-linecap:butt;stroke-linejoin:miter;stroke-opacity:1" d="M 236.852,55.9372 245.508,55.9372 z" id="boundary" inkscape:connector-curvature="0" />
	<path style="fill:none;stroke:red;stroke-width:1px;stroke-linecap:butt;stroke-linejoin:miter;stroke-opacity:1" d="M 245.508,55.9372 253.298,51.6091 z" id="boundary" inkscape:connector-curvature="0" />
	<path style="fill:none;stroke:red;stroke-width:1px;stroke-linecap:butt;stroke-linejoin:miter;stroke-opacity:1" d="M 253.298,51.6091 261.955,47.281 z" id="boundary" inkscape:connector-curvature="0" />
	<path style="fill:none;stroke:red;stroke-width:1px;stroke-linecap:butt;stroke-linejoin:miter;stroke-opacity:1" d="M 261.955,47.281 270.611,42.9529 z" id="boundary" inkscape:connector-curvature="0" />
	<path style="fill:none;stroke:red;stroke-width:1px;stroke-linecap:butt;stroke-linejoin:miter;stroke-opacity:1" d="M 270.611,42.9529 279.267,42.9529 z" id="boundary" inkscape:connector-curvature="0" />
	<path style="fill:none;stroke:red;stroke-width:1px;stroke-linecap:butt;stroke-linejoin:miter;stroke-opacity:1" d="M 279.267,42.9529 287.923,42.9529 z" id="boundary" inkscape:connector-curvature="0" />
	<path style="fill:none;stroke:red;stroke-width:1px;stroke-linecap:butt;stroke-linejoin:miter;stroke-opacity:1" d="M 287.923,42.9529 296.579,42.9529 z" id="boundary" inkscape:connector-curvature="0" />
	<path style="fill:none;stroke:red;stroke-width:1px;stroke-linecap:butt;stroke-linejoin:miter;stroke-opacity:1" d="M 296.579,42.9529 304.37,38.6248 z" id="boundary" inkscape:connector-curvature="0" />
	<path style="fill:none;stroke:red;stroke-width:1px;stroke-linecap:butt;stroke-linejoin:miter;stroke-opacity:1" d="M 304.37,38.6248 313.026,38.6248 z" id="boundary" inkscape:connector-curvature="0" />
	<path style="fill:none;stroke:red;stroke-width:1px;stroke-linecap:butt;stroke-linejoin:miter;stroke-opacity:1" d="M 313.026,38.6248 321.682,38.6248 z" id="boundary" inkscape:connector-curvature="0" />
	<path style="fill:none;stroke:red;stroke-width:1px;stroke-linecap:butt;stroke-linejoin:miter;stroke-opacity:1" d="M 321.682,38.6248 330.339,38.6248 z" id="boundary" inkscape:connector-curvature="0" />
	<path style="fill:none;stroke:red;stroke-width:1px;stroke-linecap:butt;stroke-linejoin:miter;stroke-opacity:1" d="M 330.339,38.6248 338.995,38.6248 z" id="boundary" inkscape:connector-curvature="0" />
	<path style="fill:none;stroke:red;stroke-width:1px;stroke-linecap:butt;stroke-linejoin:miter;stroke-opacity:1" d="M 338.995,38.6248 347.651,38.6248 z" id="boundary" inkscape:connector-curvature="0" />
	<path style="fill:none;stroke:red;stroke-width:1px;stroke-linecap:butt;stroke-linejoin:miter;stroke-opacity:1" d="M 347.651,38.6248 356.307,38.6248 z" id="boundary" inkscape:connector-curvature="0" />
	<path style="fill:none;stroke:red;stroke-width:1px;stroke-linecap:butt;stroke-linejoin:miter;stroke-opacity:1" d="M 356.307,38.6248 364.963,38.6248 z" id="boundary" inkscape:connector-curvature="0" />
	<path style="fill:none;stroke:red;stroke-width:1px;stroke-linecap:butt;stroke-linejoin:miter;stroke-opacity:1" d="M 364.963,38.6248 373.62,38.6248 z" id="boundary" inkscape:connector-curvature="0" />
	<path style="fill:none;stroke:red;stroke-width:1px;stroke-linecap:butt;stroke-linejoin:miter;stroke-opacity:1" d="M 373.62,38.6248 382.276,38.6248 z" id="boundary" inkscape:connector-curvature="0" />
	<path style="fill:none;stroke:red;stroke-width:1px;stroke-linecap:butt;stroke-linejoin:miter;stroke-opacity:1" d="M 382.276,38.6248 390.932,38.6248 z" id="boundary" inkscape:connector-curvature="0" />
	<path style="fill:none;stroke:red;stroke-width:1px;stroke-linecap:butt;stroke-linejoin:miter;stroke-opacity:1" d="M 390.932,38.6248 398.723,34.2967 z" id="boundary" inkscape:connector-curvature="0" />
	<path style="fill:none;stroke:red;stroke-width:1px;stroke-linecap:butt;stroke-linejoin:miter;stroke-opacity:1" d="M 398.723,34.2967 407.379,34.2967 z" id="boundary" inkscape:connector-curvature="0" />
	<path style="fill:none;stroke:red;stroke-width:1px;stroke-linecap:butt;stroke-linejoin:miter;stroke-opacity:1" d="M 407.379,34.2967 416.035,31.6998 z" id="boundary" inkscape:connector-curvature="0" />
	<path style="fill:none;stroke:red;stroke-width:1px;stroke-linecap:butt;stroke-linejoin:miter;stroke-opacity:1" d="M 416.035,31.6998 424.691,29.9686 z" id="boundary" inkscape:connector-curvature="0" />
	<path style="fill:none;stroke:red;stroke-width:1px;stroke-linecap:butt;stroke-linejoin:miter;stroke-opacity:1" d="M 424.691,29.9686 432.482,25.6405 z" id="boundary" inkscape:connector-curvature="0" />
	<path style="fill:none;stroke:red;stroke-width:1px;stroke-linecap:butt;stroke-linejoin:miter;stroke-opacity:1" d="M 432.482,25.6405 441.138,23.9092 z" id="boundary" inkscape:connector-curvature="0" />
	<path style="fill:none;stroke:red;stroke-width:1px;stroke-linecap:butt;stroke-linejoin:miter;stroke-opacity:1" d="M 441.138,23.9092 449.794,21.3124 z" id="boundary" inkscape:connector-curvature="0" />
	<path style="fill:none;stroke:red;stroke-width:1px;stroke-linecap:butt;stroke-linejoin:miter;stroke-opacity:1" d="M 449.794,21.3124 458.45,21.3124 z" id="boundary" inkscape:connector-curvature="0" />
	<path style="fill:none;stroke:red;stroke-width:1px;stroke-linecap:butt;stroke-linejoin:miter;stroke-opacity:1" d="M 458.45,21.3124 467.106,19.5812 z" id="boundary" inkscape:connector-curvature="0" />
	<path style="fill:none;stroke:red;stroke-width:1px;stroke-linecap:butt;stroke-linejoin:miter;stroke-opacity:1" d="M 467.106,19.5812 475.763,16.9843 z" id="boundary" inkscape:connector-curvature="0" />
	<path style="fill:none;stroke:red;stroke-width:1px;stroke-linecap:butt;stroke-linejoin:miter;stroke-opacity:1" d="M 475.763,16.9843 483.553,21.3124 z" id="boundary" inkscape:connector-curvature="0" />
	<path style="fill:none;stroke:red;stroke-width:1px;stroke-linecap:butt;stroke-linejoin:miter;stroke-opacity:1" d="M 483.553,21.3124 492.209,21.3124 z" id="boundary" inkscape:connector-curvature="0" />
	<path style="fill:none;stroke:red;stroke-width:1px;stroke-linecap:butt;stroke-linejoin:miter;stroke-opacity:1" d="M 492.209,21.3124 500.866,22.178 z" id="boundary" inkscape:connector-curvature="0" />
	<path style="fill:none;stroke:red;stroke-width:1px;stroke-linecap:butt;stroke-linejoin:miter;stroke-opacity:1" d="M 500.866,22.178 506.925,29.103 z" id="boundary" inkscape:connector-curvature="0" />
	<path style="fill:none;stroke:red;stroke-width:1px;stroke-linecap:butt;stroke-linejoin:miter;stroke-opacity:1" d="M 506.925,29.103 511.253,36.8935 z" id="boundary" inkscape:connector-curvature="0" />
	<path style="fill:none;stroke:red;stroke-width:1px;stroke-linecap:butt;stroke-linejoin:miter;stroke-opacity:1" d="M 511.253,36.8935 517.312,43.8185 z" id="boundary" inkscape:connector-curvature="0" />
	<path style="fill:none;stroke:red;stroke-width:1px;stroke-linecap:butt;stroke-linejoin:miter;stroke-opacity:1" d="M 517.312,43.8185 519.909,52.4747 z" id="boundary" inkscape:connector-curvature="0" />
	<path style="fill:none;stroke:red;stroke-width:1px;stroke-linecap:butt;stroke-linejoin:miter;stroke-opacity:1" d="M 519.909,52.4747 528.565,55.9372 z" id="boundary" inkscape:connector-curvature="0" />
	<path style="fill:none;stroke:red;stroke-width:1px;stroke-linecap:butt;stroke-linejoin:miter;stroke-opacity:1" d="M 528.565,55.9372 533.759,48.1466 z" id="boundary" inkscape:connector-curvature="0" />
	<path style="fill:none;stroke:red;stroke-width:1px;stroke-linecap:butt;stroke-linejoin:miter;stroke-opacity:1" d="M 533.759,48.1466 540.684,41.2216 z" id="boundary" inkscape:connector-curvature="0" />
	<path style="fill:none;stroke:red;stroke-width:1px;stroke-linecap:butt;stroke-linejoin:miter;stroke-opacity:1" d="M 540.684,41.2216 549.34,36.8935 z" id="boundary" inkscape:connector-curvature="0" />
	<path style="fill:none;stroke:red;stroke-width:1px;stroke-linecap:butt;stroke-linejoin:miter;stroke-opacity:1" d="M 549.34,36.8935 557.997,34.2967 z" id="boundary" inkscape:connector-curvature="0" />
	<path style="fill:none;stroke:red;stroke-width:1px;stroke-linecap:butt;stroke-linejoin:miter;stroke-opacity:1" d="M 557.997,34.2967 566.653,32.5654 z" id="boundary" inkscape:connector-curvature="0" />
	<path style="fill:none;stroke:red;stroke-width:1px;stroke-linecap:butt;stroke-linejoin:miter;stroke-opacity:1" d="M 566.653,32.5654 575.309,29.9686 z" id="boundary" inkscape:connector-curvature="0" />
	<path style="fill:none;stroke:red;stroke-width:1px;stroke-linecap:butt;stroke-linejoin:miter;stroke-opacity:1" d="M 575.309,29.9686 583.965,29.9686 z" id="boundary" inkscape:connector-curvature="0" />
	<path style="fill:none;stroke:red;stroke-width:1px;stroke-linecap:butt;stroke-linejoin:miter;stroke-opacity:1" d="M 583.965,29.9686 591.756,25.6405 z" id="boundary" inkscape:connector-curvature="0" />
	<path style="fill:none;stroke:red;stroke-width:1px;stroke-linecap:butt;stroke-linejoin:miter;stroke-opacity:1" d="M 591.756,25.6405 600.412,25.6405 z" id="boundary" inkscape:connector-curvature="0" />
	<path style="fill:none;stroke:red;stroke-width:1px;stroke-linecap:butt;stroke-linejoin:miter;stroke-opacity:1" d="M 600.412,25.6405 608.202,21.3124 z" id="boundary" inkscape:connector-curvature="0" />
	<path style="fill:none;stroke:red;stroke-width:1px;stroke-linecap:butt;stroke-linejoin:miter;stroke-opacity:1" d="M 608.202,21.3124 616.859,21.3124 z" id="boundary" inkscape:connector-curvature="0" />
	<path style="fill:none;stroke:red;stroke-width:1px;stroke-linecap:butt;stroke-linejoin:miter;stroke-opacity:1" d="M 616.859,21.3124 625.515,21.3124 z" id="boundary" inkscape:connector-curvature="0" />
	<path style="fill:none;stroke:red;stroke-width:1px;stroke-linecap:butt;stroke-linejoin:miter;stroke-opacity:1" d="M 625.515,21.3124 634.171,21.3124 z" id="boundary" inkscape:connector-curvature="0" />
	<path style="fill:none;stroke:red;stroke-width:1px;stroke-linecap:butt;stroke-linejoin:miter;stroke-opacity:1" d="M 634.171,21.3124 642.827,21.3124 z" id="boundary" inkscape:connector-curvature="0" />
	<path style="fill:none;stroke:red;stroke-width:1px;stroke-linecap:butt;stroke-linejoin:miter;stroke-opacity:1" d="M 642.827,21.3124 651.483,16.9843 z" id="boundary" inkscape:connector-curvature="0" />
	<path style="fill:none;stroke:red;stroke-width:1px;stroke-linecap:butt;stroke-linejoin:miter;stroke-opacity:1" d="M 651.483,16.9843 660.14,16.9843 z" id="boundary" inkscape:connector-curvature="0" />
	<path style="fill:none;stroke:red;stroke-width:1px;stroke-linecap:butt;stroke-linejoin:miter;stroke-opacity:1" d="M 660.14,16.9843 668.796,16.9843 z" id="boundary" inkscape:connector-curvature="0" />
	<path style="fill:none;stroke:red;stroke-width:1px;stroke-linecap:butt;stroke-linejoin:miter;stroke-opacity:1" d="M 668.796,16.9843 677.452,16.9843 z" id="boundary" inkscape:connector-curvature="0" />
	<path style="fill:none;stroke:red;stroke-width:1px;stroke-linecap:butt;stroke-linejoin:miter;stroke-opacity:1" d="M 677.452,16.9843 686.108,12.6562 z" id="boundary" inkscape:connector-curvature="0" />
	<path style="fill:none;stroke:red;stroke-width:1px;stroke-linecap:butt;stroke-linejoin:miter;stroke-opacity:1" d="M 686.108,12.6562 694.764,12.6562 z" id="boundary" inkscape:connector-curvature="0" />
	<path style="fill:none;stroke:red;stroke-width:1px;stroke-linecap:butt;stroke-linejoin:miter;stroke-opacity:1" d="M 694.764,12.6562 703.421,12.6562 z" id="boundary" inkscape:connector-curvature="0" />
	<path style="fill:none;stroke:red;stroke-width:1px;stroke-linecap:butt;stroke-linejoin:miter;stroke-opacity:1" d="M 703.421,12.6562 712.077,12.6562 z" id="boundary" inkscape:connector-curvature="0" />
	<path style="fill:none;stroke:red;stroke-width:1px;stroke-linecap:butt;stroke-linejoin:miter;stroke-opacity:1" d="M 712.077,12.6562 720.733,8.3281 z" id="boundary" inkscape:connector-curvature="0" />
	<path style="fill:none;stroke:red;stroke-width:1px;stroke-linecap:butt;stroke-linejoin:miter;stroke-opacity:1" d="M 720.733,8.3281 729.389,8.3281 z" id="boundary" inkscape:connector-curvature="0" />
	<path style="fill:none;stroke:red;stroke-width:1px;stroke-linecap:butt;stroke-linejoin:miter;stroke-opacity:1" d="M 729.389,8.3281 737.18,4 z" id="boundary" inkscape:connector-curvature="0" />
	<path style="fill:none;stroke:red;stroke-width:1px;stroke-linecap:butt;stroke-linejoin:miter;stroke-opacity:1" d="M 737.18,4 745.836,4 z" id="boundary" inkscape:connector-curvature="0" />
	<path style="fill:none;stroke:red;stroke-width:1px;stroke-linecap:butt;stroke-linejoin:miter;stroke-opacity:1" d="M 745.836,4 754.492,4 z" id="boundary" inkscape:connector-curvature="0" />
	<path style="fill:none;stroke:red;stroke-width:1px;stroke-linecap:butt;stroke-linejoin:miter;stroke-opacity:1" d="M 754.492,4 763.148,4 z" id="boundary" inkscape:connector-curvature="0" />
	<path style="fill:none;stroke:red;stroke-width:1px;stroke-linecap:butt;stroke-linejoin:miter;stroke-opacity:1" d="M 763.148,4 770.939,8.3281 z" id="boundary" inkscape:connector-curvature="0" />
	<path style="fill:none;stroke:red;stroke-width:1px;stroke-linecap:butt;stroke-linejoin:miter;stroke-opacity:1" d="M 770.939,8.3281 777.864,13.5218 z" id="boundary" inkscape:connector-curvature="0" />
	<path style="fill:none;stroke:red;stroke-width:1px;stroke-linecap:butt;stroke-linejoin:miter;stroke-opacity:1" d="M 777.864,13.5218 785.654,17.8499 z" id="boundary" inkscape:connector-curvature="0" />
	<path style="fill:none;stroke:red;stroke-width:1px;stroke-linecap:butt;stroke-linejoin:miter;stroke-opacity:1" d="M 785.654,17.8499 792.579,23.9092 z" id="boundary" inkscape:connector-curvature="0" />
	<path style="fill:none;stroke:red;stroke-width:1px;stroke-linecap:butt;stroke-linejoin:miter;stroke-opacity:1" d="M 792.579,23.9092 796.042,32.5654 z" id="boundary" inkscape:connector-curvature="0" />
	<path style="fill:none;stroke:red;stroke-width:1px;stroke-linecap:butt;stroke-linejoin:miter;stroke-opacity:1" d="M 796.042,32.5654 800.37,40.356 z" id="boundary" inkscape:connector-curvature="0" />
	<path style="fill:none;stroke:red;stroke-width:1px;stroke-linecap:butt;stroke-linejoin:miter;stroke-opacity:1" d="M 800.37,40.356 805.564,47.281 z" id="boundary" inkscape:connector-curvature="0" />
	<path style="fill:none;stroke:red;stroke-width:1px;stroke-linecap:butt;stroke-linejoin:miter;stroke-opacity:1" d="M 805.564,47.281 809.892,55.0716 z" id="boundary" inkscape:connector-curvature="0" />
	<path style="fill:none;stroke:red;stroke-width:1px;stroke-linecap:butt;stroke-linejoin:miter;stroke-opacity:1" d="M 809.892,55.0716 818.548,55.9372 z" id="boundary" inkscape:connector-curvature="0" />
	<path style="fill:none;stroke:red;stroke-width:1px;stroke-linecap:butt;stroke-linejoin:miter;stroke-opacity:1" d="M 818.548,55.9372 827.204,55.9372 z" id="boundary" inkscape:connector-curvature="0" />
	<path style="fill:none;stroke:red;stroke-width:1px;stroke-linecap:butt;stroke-linejoin:miter;stroke-opacity:1" d="M 827.204,55.9372 835.86,55.9372 z" id="boundary" inkscape:connector-curvature="0" />
	<path style="fill:none;stroke:red;stroke-width:1px;stroke-linecap:butt;stroke-linejoin:miter;stroke-opacity:1" d="M 835.86,55.9372 843.651,51.6091 z" id="boundary" inkscape:connector-curvature="0" />
	<path style="fill:none;stroke:red;stroke-width:1px;stroke-linecap:butt;stroke-linejoin:miter;stroke-opacity:1" d="M 843.651,51.6091 852.307,49.8778 z" id="boundary" inkscape:connector-curvature="0" />
	<path style="fill:none;stroke:red;stroke-width:1px;stroke-linecap:butt;stroke-linejoin:miter;stroke-opacity:1" d="M 852.307,49.8778 860.963,47.281 z" id="boundary" inkscape:connector-curvature="0" />
	<path style="fill:none;stroke:red;stroke-width:1px;stroke-linecap:butt;stroke-linejoin:miter;stroke-opacity:1" d="M 860.963,47.281 868.754,42.9529 z" id="boundary" inkscape:connector-curvature="0" />
	<path style="fill:none;stroke:red;stroke-width:1px;stroke-linecap:butt;stroke-linejoin:miter;stroke-opacity:1" d="M 868.754,42.9529 877.41,42.9529 z" id="boundary" inkscape:connector-curvature="0" />
	<path style="fill:none;stroke:red;stroke-width:1px;stroke-linecap:butt;stroke-linejoin:miter;stroke-opacity:1" d="M 877.41,42.9529 886.066,42.9529 z" id="boundary" inkscape:connector-curvature="0" />
	<path style="fill:none;stroke:red;stroke-width:1px;stroke-linecap:butt;stroke-linejoin:miter;stroke-opacity:1" d="M 886.066,42.9529 894.723,42.9529 z" id="boundary" inkscape:connector-curvature="0" />
	<path style="fill:none;stroke:red;stroke-width:1px;stroke-linecap:butt;stroke-linejoin:miter;stroke-opacity:1" d="M 894.723,42.9529 903.379,42.9529 z" id="boundary" inkscape:connector-curvature="0" />
	<path style="fill:none;stroke:red;stroke-width:1px;stroke-linecap:butt;stroke-linejoin:miter;stroke-opacity:1" d="M 903.379,42.9529 911.169,38.6248 z" id="boundary" inkscape:connector-curvature="0" />
	<path style="fill:none;stroke:red;stroke-width:1px;stroke-linecap:butt;stroke-linejoin:miter;stroke-opacity:1" d="M 911.169,38.6248 919.825,38.6248 z" id="boundary" inkscape:connector-curvature="0" />
	<path style="fill:none;stroke:red;stroke-width:1px;stroke-linecap:butt;stroke-linejoin:miter;stroke-opacity:1" d="M 919.825,38.6248 927.616,42.9529 z" id="boundary" inkscape:connector-curvature="0" />
	<path style="fill:none;stroke:red;stroke-width:1px;stroke-linecap:butt;stroke-linejoin:miter;stroke-opacity:1" d="M 927.616,42.9529 936.272,42.9529 z" id="boundary" inkscape:connector-curvature="0" />
	<path style="fill:none;stroke:red;stroke-width:1px;stroke-linecap:butt;stroke-linejoin:miter;stroke-opacity:1" d="M 936.272,42.9529 943.197,49.0122 z" id="boundary" inkscape:connector-curvature="0" />
	<path style="fill:none;stroke:red;stroke-width:1px;stroke-linecap:butt;stroke-linejoin:miter;stroke-opacity:1" d="M 943.197,49.0122 948.391,55.9372 z" id="boundary" inkscape:connector-curvature="0" />
	<path style="fill:none;stroke:red;stroke-width:1px;stroke-linecap:butt;stroke-linejoin:miter;stroke-opacity:1" d="M 948.391,55.9372 955.316,61.1309 z" id="boundary" inkscape:connector-curvature="0" />
	<path style="fill:none;stroke:red;stroke-width:1px;stroke-linecap:butt;stroke-linejoin:miter;stroke-opacity:1" d="M 955.316,61.1309 961.375,68.0558 z" id="boundary" inkscape:connector-curvature="0" />
	<path style="fill:none;stroke:red;stroke-width:1px;stroke-linecap:butt;stroke-linejoin:miter;stroke-opacity:1" d="M 961.375,68.0558 965.703,75.8464 z" id="boundary" inkscape:connector-curvature="0" />
	<path style="fill:none;stroke:red;stroke-width:1px;stroke-linecap:butt;stroke-linejoin:miter;stroke-opacity:1" d="M 965.703,75.8464 971.763,82.7714 z" id="boundary" inkscape:connector-curvature="0" />
	<path style="fill:none;stroke:red;stroke-width:1px;stroke-linecap:butt;stroke-linejoin:miter;stroke-opacity:1" d="M 971.763,82.7714 978.688,88.8307 z" id="boundary" inkscape:connector-curvature="0" />
	<path style="fill:none;stroke:red;stroke-width:1px;stroke-linecap:butt;stroke-linejoin:miter;stroke-opacity:1" d="M 978.688,88.8307 982.15,97.4869 z" id="boundary" inkscape:connector-curvature="0" />
	<path style="fill:none;stroke:red;stroke-width:1px;stroke-linecap:butt;stroke-linejoin:miter;stroke-opacity:1" d="M 982.15,97.4869 986.478,105.277 z" id="boundary" inkscape:connector-curvature="0" />
	<path style="fill:none;stroke:red;stroke-width:1px;stroke-linecap:butt;stroke-linejoin:miter;stroke-opacity:1" d="M 986.478,105.277 989.941,113.934 z" id="boundary" inkscape:connector-curvature="0" />
	<path style="fill:none;stroke:red;stroke-width:1px;stroke-linecap:butt;stroke-linejoin:miter;stroke-opacity:1" d="M 989.941,113.934 991.672,122.59 z" id="boundary" inkscape:connector-curvature="0" />
	<path style="fill:none;stroke:red;stroke-width:1px;stroke-linecap:butt;stroke-linejoin:miter;stroke-opacity:1" d="M 991.672,122.59 996,130.38 z" id="boundary" inkscape:connector-curvature="0" />
	<path style="fill:none;stroke:red;stroke-width:1px;stroke-linecap:butt;stroke-linejoin:miter;stroke-opacity:1" d="M 996,130.38 996,139.037 z" id="boundary" inkscape:connector-curvature="0" />
	<path style="fill:none;stroke:red;stroke-width:1px;stroke-linecap:butt;stroke-linejoin:miter;stroke-opacity:1" d="M 996,139.037 996,152.021 z" id="boundary" inkscape:connector-curvature="0" />
	<circle cx="4" cy="145.096" r="4" fill="#0" id="circle0"/>
	<circle cx="4" cy="153.752" r="4" fill="#0" id="circle1"/>
	<circle cx="4" cy="162.408" r="4" fill="#0" id="circle2"/>
	<circle cx="8.3281" cy="119.127" r="4" fill="#0" id="circle3"/>
	<circle cx="8.3281" cy="127.784" r="4" fill="#0" id="circle4"/>
	<circle cx="8.3281" cy="136.44" r="4" fill="#0" id="circle5"/>
	<circle cx="8.3281" cy="170.199" r="4" fill="#0" id="circle6"/>
	<circle cx="8.3281" cy="178.855" r="4" fill="#0" id="circle7"/>
	<circle cx="12.6562" cy="93.1588" r="4" fill="#0" id="circle8"/>
	<circle cx="12.6562" cy="101.815" r="4" fill="#0" id="circle9"/>
	<circle cx="12.6562" cy="110.471" r="4" fill="#0" id="circle10"/>
	<circle cx="12.6562" cy="186.646" r="4" fill="#0" id="circle11"/>
	<circle cx="16.9843" cy="84.5026" r="4" fill="#0" id="circle12"/>
	<circle cx="17.8499" cy="193.571" r="4" fill="#0" id="circle13"/>
	<circle cx="21.3124" cy="75.8464" r="4" fill="#0" id="circle14"/>
	<circle cx="24.7749" cy="199.63" r="4" fill="#0" id="circle15"/>
	<circle cx="25.6405" cy="67.1902" r="4" fill="#0" id="circle16"/>
	<circle cx="30.8342" cy="206.555" r="4" fill="#0" id="circle17"/>
	<circle cx="32.5654" cy="60.2653" r="4" fill="#0" id="circle18"/>
	<circle cx="39.4904" cy="203.958" r="4" fill="#0" id="circle19"/>
	<circle cx="41.2216" cy="60.2653" r="4" fill="#0" id="circle20"/>
	<circle cx="48.1466" cy="203.958" r="4" fill="#0" id="circle21"/>
	<circle cx="49.8778" cy="60.2653" r="4" fill="#0" id="circle22"/>
	<circle cx="56.8028" cy="203.958" r="4" fill="#0" id="circle23"/>
	<circle cx="58.534" cy="60.2653" r="4" fill="#0" id="circle24"/>
	<circle cx="65.459" cy="203.958" r="4" fill="#0" id="circle25"/>
	<circle cx="66.3246" cy="64.5934" r="4" fill="#0" id="circle26"/>
	<circle cx="74.1152" cy="203.958" r="4" fill="#0" id="circle27"/>
	<circle cx="74.9808" cy="64.5934" r="4" fill="#0" id="circle28"/>
	<circle cx="81.9058" cy="70.6527" r="4" fill="#0" id="circle29"/>
	<circle cx="82.7714" cy="203.958" r="4" fill="#0" id="circle30"/>
	<circle cx="89.6963" cy="74.9808" r="4" fill="#0" id="circle31"/>
	<circle cx="91.4276" cy="203.958" r="4" fill="#0" id="circle32"/>
	<circle cx="98.3525" cy="77.5777" r="4" fill="#0" id="circle33"/>
	<circle cx="100.084" cy="199.63" r="4" fill="#0" id="circle34"/>
	<circle cx="106.143" cy="81.9058" r="4" fill="#0" id="circle35"/>
	<circle cx="108.74" cy="199.63" r="4" fill="#0" id="circle36"/>
	<circle cx="114.799" cy="81.9058" r="4" fill="#0" id="circle37"/>
	<circle cx="117.396" cy="199.63" r="4" fill="#0" id="circle38"/>
	<circle cx="122.59" cy="86.2339" r="4" fill="#0" id="circle39"/>
	<circle cx="125.187" cy="195.302" r="4" fill="#0" id="circle40"/>
	<circle cx="130.38" cy="90.562" r="4" fill="#0" id="circle41"/>
	<circle cx="133.843" cy="195.302" r="4" fill="#0" id="circle42"/>
	<circle cx="139.037" cy="93.1588" r="4" fill="#0" id="circle43"/>
	<circle cx="142.499" cy="195.302" r="4" fill="#0" id="circle44"/>
	<circle cx="145.962" cy="99.2182" r="4" fill="#0" id="circle45"/>
	<circle cx="151.155" cy="195.302" r="4" fill="#0" id="circle46"/>
	<circle cx="154.618" cy="100.084" r="4" fill="#0" id="circle47"/>
	<circle cx="159.812" cy="192.705" r="4" fill="#0" id="circle48"/>
	<circle cx="163.274" cy="103.546" r="4" fill="#0" id="circle49"/>
	<circle cx="168.468" cy="190.974" r="4" fill="#0" id="circle50"/>
	<circle cx="171.065" cy="107.874" r="4" fill="#0" id="circle51"/>
	<circle cx="176.258" cy="195.302" r="4" fill="#0" id="circle52"/>
	<circle cx="179.721" cy="107.874" r="4" fill="#0" id="circle53"/>
	<circle cx="184.049" cy="199.63" r="4" fill="#0" id="circle54"/>
	<circle cx="188.377" cy="107.874" r="4" fill="#0" id="circle55"/>
	<circle cx="192.705" cy="203.092" r="4" fill="#0" id="circle56"/>
	<circle cx="194.436" cy="214.346" r="4" fill="#0" id="circle57"/>
	<circle cx="194.436" cy="223.002" r="4" fill="#0" id="circle58"/>
	<circle cx="197.033" cy="107.874" r="4" fill="#0" id="circle59"/>
	<circle cx="201.361" cy="208.286" r="4" fill="#0" id="circle60"/>
	<circle cx="201.361" cy="229.061" r="4" fill="#0" id="circle61"/>
	<circle cx="205.689" cy="103.546" r="4" fill="#0" id="circle62"/>
	<circle cx="208.286" cy="234.255" r="4" fill="#0" id="circle63"/>
	<circle cx="210.017" cy="208.286" r="4" fill="#0" id="circle64"/>
	<circle cx="211.749" cy="67.1902" r="4" fill="#0" id="circle65"/>
	<circle cx="211.749" cy="75.8464" r="4" fill="#0" id="circle66"/>
	<circle cx="211.749" cy="84.5026" r="4" fill="#0" id="circle67"/>
	<circle cx="214.346" cy="103.546" r="4" fill="#0" id="circle68"/>
	<circle cx="216.077" cy="92.2932" r="4" fill="#0" id="circle69"/>
	<circle cx="216.077" cy="238.583" r="4" fill="#0" id="circle70"/>
	<circle cx="220.405" cy="62.8621" r="4" fill="#0" id="circle71"/>
	<circle cx="222.136" cy="99.2182" r="4" fill="#0" id="circle72"/>
	<circle cx="223.867" cy="242.911" r="4" fill="#0" id="circle73"/>
	<circle cx="229.061" cy="60.2653" r="4" fill="#0" id="circle74"/>
	<circle cx="231.658" cy="247.239" r="4" fill="#0" id="circle75"/>
	<circle cx="236.852" cy="55.9372" r="4" fill="#0" id="circle76"/>
	<circle cx="240.314" cy="250.702" r="4" fill="#0" id="circle77"/>
	<circle cx="245.508" cy="55.9372" r="4" fill="#0" id="circle78"/>
	<circle cx="248.105" cy="255.03" r="4" fill="#0" id="circle79"/>
	<circle cx="253.298" cy="51.6091" r="4" fill="#0" id="circle80"/>
	<circle cx="256.761" cy="258.492" r="4" fill="#0" id="circle81"/>
	<circle cx="261.955" cy="47.281" r="4" fill="#0" id="circle82"/>
	<circle cx="263.686" cy="264.551" r="4" fill="#0" id="circle83"/>
	<circle cx="270.611" cy="42.9529" r="4" fill="#0" id="circle84"/>
	<circle cx="271.476" cy="268.88" r="4" fill="#0" id="circle85"/>
	<circle cx="279.267" cy="42.9529" r="4" fill="#0" id="circle86"/>
	<circle cx="279.267" cy="273.208" r="4" fill="#0" id="circle87"/>
	<circle cx="287.923" cy="42.9529" r="4" fill="#0" id="circle88"/>
	<circle cx="287.923" cy="273.208" r="4" fill="#0" id="circle89"/>
	<circle cx="296.579" cy="42.9529" r="4" fill="#0" id="circle90"/>
	<circle cx="296.579" cy="276.67" r="4" fill="#0" id="circle91"/>
	<circle cx="304.37" cy="38.6248" r="4" fill="#0" id="circle92"/>
	<circle cx="305.236" cy="277.536" r="4" fill="#0" id="circle93"/>
	<circle cx="313.026" cy="38.6248" r="4" fill="#0" id="circle94"/>
	<circle cx="313.892" cy="277.536" r="4" fill="#0" id="circle95"/>
	<circle cx="321.682" cy="38.6248" r="4" fill="#0" id="circle96"/>
	<circle cx="322.548" cy="280.998" r="4" fill="#0" id="circle97"/>
	<circle cx="330.339" cy="38.6248" r="4" fill="#0" id="circle98"/>
	<circle cx="331.204" cy="281.864" r="4" fill="#0" id="circle99"/>
	<circle cx="338.995" cy="38.6248" r="4" fill="#0" id="circle100"/>
	<circle cx="338.995" cy="286.192" r="4" fill="#0" id="circle101"/>
	<circle cx="347.651" cy="38.6248" r="4" fill="#0" id="circle102"/>
	<circle cx="347.651" cy="286.192" r="4" fill="#0" id="circle103"/>
	<circle cx="356.307" cy="38.6248" r="4" fill="#0" id="circle104"/>
	<circle cx="356.307" cy="284.461" r="4" fill="#0" id="circle105"/>
	<circle cx="364.963" cy="38.6248" r="4" fill="#0" id="circle106"/>
	<circle cx="364.963" cy="281.864" r="4" fill="#0" id="circle107"/>
	<circle cx="373.62" cy="38.6248" r="4" fill="#0" id="circle108"/>
	<circle cx="373.62" cy="281.864" r="4" fill="#0" id="circle109"/>
	<circle cx="382.276" cy="38.6248" r="4" fill="#0" id="circle110"/>
	<circle cx="382.276" cy="281.864" r="4" fill="#0" id="circle111"/>
	<circle cx="390.932" cy="38.6248" r="4" fill="#0" id="circle112"/>
	<circle cx="390.932" cy="281.864" r="4" fill="#0" id="circle113"/>
	<circle cx="398.723" cy="34.2967" r="4" fill="#0" id="circle114"/>
	<circle cx="399.588" cy="284.461" r="4" fill="#0" id="circle115"/>
	<circle cx="407.379" cy="34.2967" r="4" fill="#0" id="circle116"/>
	<circle cx="408.244" cy="281.864" r="4" fill="#0" id="circle117"/>
	<circle cx="416.035" cy="31.6998" r="4" fill="#0" id="circle118"/>
	<circle cx="416.901" cy="281.864" r="4" fill="#0" id="circle119"/>
	<circle cx="424.691" cy="29.9686" r="4" fill="#0" id="circle120"/>
	<circle cx="424.691" cy="277.536" r="4" fill="#0" id="circle121"/>
	<circle cx="432.482" cy="25.6405" r="4" fill="#0" id="circle122"/>
	<circle cx="433.347" cy="277.536" r="4" fill="#0" id="circle123"/>
	<circle cx="441.138" cy="23.9092" r="4" fill="#0" id="circle124"/>
	<circle cx="442.003" cy="277.536" r="4" fill="#0" id="circle125"/>
	<circle cx="449.794" cy="21.3124" r="4" fill="#0" id="circle126"/>
	<circle cx="449.794" cy="273.208" r="4" fill="#0" id="circle127"/>
	<circle cx="458.45" cy="21.3124" r="4" fill="#0" id="circle128"/>
	<circle cx="458.45" cy="273.208" r="4" fill="#0" id="circle129"/>
	<circle cx="466.241" cy="268.88" r="4" fill="#0" id="circle130"/>
	<circle cx="467.106" cy="19.5812" r="4" fill="#0" id="circle131"/>
	<circle cx="474.897" cy="267.148" r="4" fill="#0" id="circle132"/>
	<circle cx="475.763" cy="16.9843" r="4" fill="#0" id="circle133"/>
	<circle cx="480.956" cy="260.223" r="4" fill="#0" id="circle134"/>
	<circle cx="483.553" cy="21.3124" r="4" fill="#0" id="circle135"/>
	<circle cx="489.613" cy="255.895" r="4" fill="#0" id="circle136"/>
	<circle cx="492.209" cy="21.3124" r="4" fill="#0" id="circle137"/>
	<circle cx="493.075" cy="264.551" r="4" fill="#0" id="circle138"/>
	<circle cx="500.866" cy="22.178" r="4" fill="#0" id="circle139"/>
	<circle cx="501.731" cy="266.283" r="4" fill="#0" id="circle140"/>
	<circle cx="506.925" cy="29.103" r="4" fill="#0" id="circle141"/>
	<circle cx="510.387" cy="264.551" r="4" fill="#0" id="circle142"/>
	<circle cx="511.253" cy="36.8935" r="4" fill="#0" id="circle143"/>
	<circle cx="517.312" cy="43.8185" r="4" fill="#0" id="circle144"/>
	<circle cx="519.044" cy="266.283" r="4" fill="#0" id="circle145"/>
	<circle cx="519.909" cy="52.4747" r="4" fill="#0" id="circle146"/>
	<circle cx="519.909" cy="247.239" r="4" fill="#0" id="circle147"/>
	<circle cx="519.909" cy="255.895" r="4" fill="#0" id="circle148"/>
	<circle cx="528.565" cy="55.9372" r="4" fill="#0" id="circle149"/>
	<circle cx="528.565" cy="247.239" r="4" fill="#0" id="circle150"/>
	<circle cx="533.759" cy="48.1466" r="4" fill="#0" id="circle151"/>
	<circle cx="537.222" cy="247.239" r="4" fill="#0" id="circle152"/>
	<circle cx="540.684" cy="41.2216" r="4" fill="#0" id="circle153"/>
	<circle cx="545.878" cy="247.239" r="4" fill="#0" id="circle154"/>
	<circle cx="549.34" cy="36.8935" r="4" fill="#0" id="circle155"/>
	<circle cx="554.534" cy="247.239" r="4" fill="#0" id="circle156"/>
	<circle cx="557.997" cy="34.2967" r="4" fill="#0" id="circle157"/>
	<circle cx="563.19" cy="247.239" r="4" fill="#0" id="circle158"/>
	<circle cx="566.653" cy="32.5654" r="4" fill="#0" id="circle159"/>
	<circle cx="571.846" cy="248.97" r="4" fill="#0" id="circle160"/>
	<circle cx="575.309" cy="29.9686" r="4" fill="#0" id="circle161"/>
	<circle cx="580.503" cy="251.567" r="4" fill="#0" id="circle162"/>
	<circle cx="583.965" cy="29.9686" r="4" fill="#0" id="circle163"/>
	<circle cx="589.159" cy="251.567" r="4" fill="#0" id="circle164"/>
	<circle cx="591.756" cy="25.6405" r="4" fill="#0" id="circle165"/>
	<circle cx="597.815" cy="251.567" r="4" fill="#0" id="circle166"/>
	<circle cx="600.412" cy="25.6405" r="4" fill="#0" id="circle167"/>
	<circle cx="606.471" cy="251.567" r="4" fill="#0" id="circle168"/>
	<circle cx="608.202" cy="21.3124" r="4" fill="#0" id="circle169"/>
	<circle cx="615.127" cy="251.567" r="4" fill="#0" id="circle170"/>
	<circle cx="616.859" cy="21.3124" r="4" fill="#0" id="circle171"/>
	<circle cx="623.784" cy="251.567" r="4" fill="#0" id="circle172"/>
	<circle cx="625.515" cy="21.3124" r="4" fill="#0" id="circle173"/>
	<circle cx="632.44" cy="251.567" r="4" fill="#0" id="circle174"/>
	<circle cx="634.171" cy="21.3124" r="4" fill="#0" id="circle175"/>
	<circle cx="641.096" cy="251.567" r="4" fill="#0" id="circle176"/>
	<circle cx="642.827" cy="21.3124" r="4" fill="#0" id="circle177"/>
	<circle cx="649.752" cy="251.567" r="4" fill="#0" id="circle178"/>
	<circle cx="651.483" cy="16.9843" r="4" fill="#0" id="circle179"/>
	<circle cx="658.408" cy="251.567" r="4" fill="#0" id="circle180"/>
	<circle cx="660.14" cy="16.9843" r="4" fill="#0" id="circle181"/>
	<circle cx="667.065" cy="251.567" r="4" fill="#0" id="circle182"/>
	<circle cx="668.796" cy="16.9843" r="4" fill="#0" id="circle183"/>
	<circle cx="675.721" cy="251.567" r="4" fill="#0" id="circle184"/>
	<circle cx="677.452" cy="16.9843" r="4" fill="#0" id="circle185"/>
	<circle cx="684.377" cy="251.567" r="4" fill="#0" id="circle186"/>
	<circle cx="686.108" cy="12.6562" r="4" fill="#0" id="circle187"/>
	<circle cx="693.033" cy="251.567" r="4" fill="#0" id="circle188"/>
	<circle cx="694.764" cy="12.6562" r="4" fill="#0" id="circle189"/>
	<circle cx="701.689" cy="251.567" r="4" fill="#0" id="circle190"/>
	<circle cx="703.421" cy="12.6562" r="4" fill="#0" id="circle191"/>
	<circle cx="710.346" cy="251.567" r="4" fill="#0" id="circle192"/>
	<circle cx="712.077" cy="12.6562" r="4" fill="#0" id="circle193"/>
	<circle cx="719.002" cy="251.567" r="4" fill="#0" id="circle194"/>
	<circle cx="720.733" cy="8.3281" r="4" fill="#0" id="circle195"/>
	<circle cx="726.792" cy="247.239" r="4" fill="#0" id="circle196"/>
	<circle cx="729.389" cy="8.3281" r="4" fill="#0" id="circle197"/>
	<circle cx="734.583" cy="251.567" r="4" fill="#0" id="circle198"/>
	<circle cx="737.18" cy="4" r="4" fill="#0" id="circle199"/>
	<circle cx="743.239" cy="251.567" r="4" fill="#0" id="circle200"/>
	<circle cx="745.836" cy="4" r="4" fill="#0" id="circle201"/>
	<circle cx="751.03" cy="247.239" r="4" fill="#0" id="circle202"/>
	<circle cx="754.492" cy="4" r="4" fill="#0" id="circle203"/>
	<circle cx="759.686" cy="247.239" r="4" fill="#0" id="circle204"/>
	<circle cx="763.148" cy="4" r="4" fill="#0" id="circle205"/>
	<circle cx="767.476" cy="242.911" r="4" fill="#0" id="circle206"/>
	<circle cx="770.939" cy="8.3281" r="4" fill="#0" id="circle207"/>
	<circle cx="776.133" cy="242.911" r="4" fill="#0" id="circle208"/>
	<circle cx="777.864" cy="13.5218" r="4" fill="#0" id="circle209"/>
	<circle cx="784.789" cy="242.911" r="4" fill="#0" id="circle210"/>
	<circle cx="785.654" cy="17.8499" r="4" fill="#0" id="circle211"/>
	<circle cx="792.579" cy="23.9092" r="4" fill="#0" id="circle212"/>
	<circle cx="792.579" cy="238.583" r="4" fill="#0" id="circle213"/>
	<circle cx="796.042" cy="32.5654" r="4" fill="#0" id="circle214"/>
	<circle cx="800.37" cy="40.356" r="4" fill="#0" id="circle215"/>
	<circle cx="801.236" cy="238.583" r="4" fill="#0" id="circle216"/>
	<circle cx="805.564" cy="47.281" r="4" fill="#0" id="circle217"/>
	<circle cx="809.026" cy="234.255" r="4" fill="#0" id="circle218"/>
	<circle cx="809.892" cy="55.0716" r="4" fill="#0" id="circle219"/>
	<circle cx="813.354" cy="266.283" r="4" fill="#0" id="circle220"/>
	<circle cx="817.682" cy="234.255" r="4" fill="#0" id="circle221"/>
	<circle cx="818.548" cy="55.9372" r="4" fill="#0" id="circle222"/>
	<circle cx="818.548" cy="273.208" r="4" fill="#0" id="circle223"/>
	<circle cx="820.279" cy="259.358" r="4" fill="#0" id="circle224"/>
	<circle cx="825.473" cy="229.927" r="4" fill="#0" id="circle225"/>
	<circle cx="826.339" cy="268.88" r="4" fill="#0" id="circle226"/>
	<circle cx="826.339" cy="277.536" r="4" fill="#0" id="circle227"/>
	<circle cx="827.204" cy="55.9372" r="4" fill="#0" id="circle228"/>
	<circle cx="827.204" cy="252.433" r="4" fill="#0" id="circle229"/>
	<circle cx="828.935" cy="286.192" r="4" fill="#0" id="circle230"/>
	<circle cx="834.129" cy="229.927" r="4" fill="#0" id="circle231"/>
	<circle cx="834.129" cy="273.208" r="4" fill="#0" id="circle232"/>
	<circle cx="835.86" cy="55.9372" r="4" fill="#0" id="circle233"/>
	<circle cx="835.86" cy="248.105" r="4" fill="#0" id="circle234"/>
	<circle cx="839.323" cy="257.627" r="4" fill="#0" id="circle235"/>
	<circle cx="839.323" cy="266.283" r="4" fill="#0" id="circle236"/>
	<circle cx="840.188" cy="239.449" r="4" fill="#0" id="circle237"/>
	<circle cx="841.92" cy="225.599" r="4" fill="#0" id="circle238"/>
	<circle cx="843.651" cy="51.6091" r="4" fill="#0" id="circle239"/>
	<circle cx="845.382" cy="246.373" r="4" fill="#0" id="circle240"/>
	<circle cx="852.307" cy="49.8778" r="4" fill="#0" id="circle241"/>
	<circle cx="853.173" cy="234.255" r="4" fill="#0" id="circle242"/>
	<circle cx="857.501" cy="216.942" r="4" fill="#0" id="circle243"/>
	<circle cx="857.501" cy="225.599" r="4" fill="#0" id="circle244"/>
	<circle cx="860.963" cy="47.281" r="4" fill="#0" id="circle245"/>
	<circle cx="866.157" cy="216.942" r="4" fill="#0" id="circle246"/>
	<circle cx="868.754" cy="42.9529" r="4" fill="#0" id="circle247"/>
	<circle cx="874.813" cy="216.942" r="4" fill="#0" id="circle248"/>
	<circle cx="877.41" cy="42.9529" r="4" fill="#0" id="circle249"/>
	<circle cx="883.469" cy="216.942" r="4" fill="#0" id="circle250"/>
	<circle cx="886.066" cy="42.9529" r="4" fill="#0" id="circle251"/>
	<circle cx="892.126" cy="212.614" r="4" fill="#0" id="circle252"/>
	<circle cx="894.723" cy="42.9529" r="4" fill="#0" id="circle253"/>
	<circle cx="900.782" cy="212.614" r="4" fill="#0" id="circle254"/>
	<circle cx="903.379" cy="42.9529" r="4" fill="#0" id="circle255"/>
	<circle cx="909.438" cy="212.614" r="4" fill="#0" id="circle256"/>
	<circle cx="911.169" cy="38.6248" r="4" fill="#0" id="circle257"/>
	<circle cx="918.094" cy="208.286" r="4" fill="#0" id="circle258"/>
	<circle cx="919.825" cy="38.6248" r="4" fill="#0" id="circle259"/>
	<circle cx="926.75" cy="208.286" r="4" fill="#0" id="circle260"/>
	<circle cx="927.616" cy="42.9529" r="4" fill="#0" id="circle261"/>
	<circle cx="935.407" cy="203.958" r="4" fill="#0" id="circle262"/>
	<circle cx="936.272" cy="42.9529" r="4" fill="#0" id="circle263"/>
	<circle cx="942.332" cy="197.899" r="4" fill="#0" id="circle264"/>
	<circle cx="943.197" cy="49.0122" r="4" fill="#0" id="circle265"/>
	<circle cx="948.391" cy="55.9372" r="4" fill="#0" id="circle266"/>
	<circle cx="950.988" cy="193.571" r="4" fill="#0" id="circle267"/>
	<circle cx="955.316" cy="61.1309" r="4" fill="#0" id="circle268"/>
	<circle cx="959.644" cy="190.974" r="4" fill="#0" id="circle269"/>
	<circle cx="961.375" cy="68.0558" r="4" fill="#0" id="circle270"/>
	<circle cx="965.703" cy="75.8464" r="4" fill="#0" id="circle271"/>
	<circle cx="967.435" cy="186.646" r="4" fill="#0" id="circle272"/>
	<circle cx="971.763" cy="82.7714" r="4" fill="#0" id="circle273"/>
	<circle cx="975.225" cy="182.318" r="4" fill="#0" id="circle274"/>
	<circle cx="978.688" cy="88.8307" r="4" fill="#0" id="circle275"/>
	<circle cx="982.15" cy="97.4869" r="4" fill="#0" id="circle276"/>
	<circle cx="982.15" cy="175.393" r="4" fill="#0" id="circle277"/>
	<circle cx="986.478" cy="105.277" r="4" fill="#0" id="circle278"/>
	<circle cx="989.075" cy="168.468" r="4" fill="#0" id="circle279"/>
	<circle cx="989.941" cy="113.934" r="4" fill="#0" id="circle280"/>
	<circle cx="991.672" cy="122.59" r="4" fill="#0" id="circle281"/>
	<circle cx="996" cy="130.38" r="4" fill="#0" id="circle282"/>
	<circle cx="996" cy="139.037" r="4" fill="#0" id="circle283"/>
	<circle cx="996" cy="152.021" r="4" fill="#0" id="circle284"/>
	<circle cx="996" cy="160.677" r="4" fill="#0" id="circle285"/>
	</g>
</svg>