<?xml version="1.0" encoding="UTF-8" standalone="no"?>
<!-- Created with CurveBenchmark -->
<svg
	xmlns:dc="http://purl.org/dc/elements/1.1/"
	xmlns:cc="http://creativecommons.org/ns#"
	xmlns:rdf="http://www.w3.org/1999/02/22-rdf-syntax-ns#"
	xmlns:svg="http://www.w3.org/2000/svg"
	xmlns="http://www.w3.org/2000/svg"
	xmlns:sodipodi="http://sodipodi.sourceforge.net/DTD/sodipodi-0.dtd"
	xmlns:inkscape="http://www.inkscape.org/namespaces/inkscape"
	width="1000"
	height="1000"
	id="svg2"
	version="1.1"
	sodipodi:docname="manifold/connect2d-hammer120.png.txt">
<defs
	id="defs4" />
<metadata
	id="metadata7">
	<rdf:RDF>
		<cc:Work
			rdf:about="">
			<dc:format>image/svg+xml</dc:format>
			<dc:type
				rdf:resource="http://purl.org/dc/dcmitype/StillImage" />
			<dc:title></dc:title>
		</cc:Work>
	</rdf:RDF>
</metadata>
<g
	inkscape:label="Layer 1"
	inkscape:groupmode="layer"
	id="layer1">
	<path style="fill:none;stroke:red;stroke-width:1px;stroke-linecap:butt;stroke-linejoin:miter;stroke-opacity:1" d="M 259.907,101.762 268.533,130.516 z" id="boundary" inkscape:connector-curvature="0" />
	<path style="fill:none;stroke:red;stroke-width:1px;stroke-linecap:butt;stroke-linejoin:miter;stroke-opacity:1" d="M 268.533,130.516 254.157,179.397 z" id="boundary" inkscape:connector-curvature="0" />
	<path style="fill:none;stroke:red;stroke-width:1px;stroke-linecap:butt;stroke-linejoin:miter;stroke-opacity:1" d="M 254.157,179.397 225.403,179.397 z" id="boundary" inkscape:connector-curvature="0" />
	<path style="fill:none;stroke:red;stroke-width:1px;stroke-linecap:butt;stroke-linejoin:miter;stroke-opacity:1" d="M 225.403,179.397 196.649,179.397 z" id="boundary" inkscape:connector-curvature="0" />
	<path style="fill:none;stroke:red;stroke-width:1px;stroke-linecap:butt;stroke-linejoin:miter;stroke-opacity:1" d="M 196.649,179.397 173.646,199.525 z" id="boundary" inkscape:connector-curvature="0" />
	<path style="fill:none;stroke:red;stroke-width:1px;stroke-linecap:butt;stroke-linejoin:miter;stroke-opacity:1" d="M 173.646,199.525 167.896,245.53 z" id="boundary" inkscape:connector-curvature="0" />
	<path style="fill:none;stroke:red;stroke-width:1px;stroke-linecap:butt;stroke-linejoin:miter;stroke-opacity:1" d="M 167.896,245.53 167.896,274.284 z" id="boundary" inkscape:connector-curvature="0" />
	<path style="fill:none;stroke:red;stroke-width:1px;stroke-linecap:butt;stroke-linejoin:miter;stroke-opacity:1" d="M 167.896,274.284 167.896,303.038 z" id="boundary" inkscape:connector-curvature="0" />
	<path style="fill:none;stroke:red;stroke-width:1px;stroke-linecap:butt;stroke-linejoin:miter;stroke-opacity:1" d="M 167.896,303.038 167.896,331.791 z" id="boundary" inkscape:connector-curvature="0" />
	<path style="fill:none;stroke:red;stroke-width:1px;stroke-linecap:butt;stroke-linejoin:miter;stroke-opacity:1" d="M 167.896,331.791 167.896,360.545 z" id="boundary" inkscape:connector-curvature="0" />
	<path style="fill:none;stroke:red;stroke-width:1px;stroke-linecap:butt;stroke-linejoin:miter;stroke-opacity:1" d="M 167.896,360.545 167.896,389.299 z" id="boundary" inkscape:connector-curvature="0" />
	<path style="fill:none;stroke:red;stroke-width:1px;stroke-linecap:butt;stroke-linejoin:miter;stroke-opacity:1" d="M 167.896,389.299 167.896,418.052 z" id="boundary" inkscape:connector-curvature="0" />
	<path style="fill:none;stroke:red;stroke-width:1px;stroke-linecap:butt;stroke-linejoin:miter;stroke-opacity:1" d="M 167.896,418.052 176.522,446.806 z" id="boundary" inkscape:connector-curvature="0" />
	<path style="fill:none;stroke:red;stroke-width:1px;stroke-linecap:butt;stroke-linejoin:miter;stroke-opacity:1" d="M 176.522,446.806 190.899,472.684 z" id="boundary" inkscape:connector-curvature="0" />
	<path style="fill:none;stroke:red;stroke-width:1px;stroke-linecap:butt;stroke-linejoin:miter;stroke-opacity:1" d="M 190.899,472.684 190.899,501.438 z" id="boundary" inkscape:connector-curvature="0" />
	<path style="fill:none;stroke:red;stroke-width:1px;stroke-linecap:butt;stroke-linejoin:miter;stroke-opacity:1" d="M 190.899,501.438 190.899,530.191 z" id="boundary" inkscape:connector-curvature="0" />
	<path style="fill:none;stroke:red;stroke-width:1px;stroke-linecap:butt;stroke-linejoin:miter;stroke-opacity:1" d="M 190.899,530.191 190.899,558.945 z" id="boundary" inkscape:connector-curvature="0" />
	<path style="fill:none;stroke:red;stroke-width:1px;stroke-linecap:butt;stroke-linejoin:miter;stroke-opacity:1" d="M 190.899,558.945 190.899,587.699 z" id="boundary" inkscape:connector-curvature="0" />
	<path style="fill:none;stroke:red;stroke-width:1px;stroke-linecap:butt;stroke-linejoin:miter;stroke-opacity:1" d="M 190.899,587.699 190.899,616.452 z" id="boundary" inkscape:connector-curvature="0" />
	<path style="fill:none;stroke:red;stroke-width:1px;stroke-linecap:butt;stroke-linejoin:miter;stroke-opacity:1" d="M 190.899,616.452 190.899,645.206 z" id="boundary" inkscape:connector-curvature="0" />
	<path style="fill:none;stroke:red;stroke-width:1px;stroke-linecap:butt;stroke-linejoin:miter;stroke-opacity:1" d="M 190.899,645.206 190.899,673.959 z" id="boundary" inkscape:connector-curvature="0" />
	<path style="fill:none;stroke:red;stroke-width:1px;stroke-linecap:butt;stroke-linejoin:miter;stroke-opacity:1" d="M 190.899,673.959 190.899,702.713 z" id="boundary" inkscape:connector-curvature="0" />
	<path style="fill:none;stroke:red;stroke-width:1px;stroke-linecap:butt;stroke-linejoin:miter;stroke-opacity:1" d="M 190.899,702.713 190.899,731.467 z" id="boundary" inkscape:connector-curvature="0" />
	<path style="fill:none;stroke:red;stroke-width:1px;stroke-linecap:butt;stroke-linejoin:miter;stroke-opacity:1" d="M 190.899,731.467 190.899,760.22 z" id="boundary" inkscape:connector-curvature="0" />
	<path style="fill:none;stroke:red;stroke-width:1px;stroke-linecap:butt;stroke-linejoin:miter;stroke-opacity:1" d="M 190.899,760.22 190.899,788.974 z" id="boundary" inkscape:connector-curvature="0" />
	<path style="fill:none;stroke:red;stroke-width:1px;stroke-linecap:butt;stroke-linejoin:miter;stroke-opacity:1" d="M 190.899,788.974 190.899,817.728 z" id="boundary" inkscape:connector-curvature="0" />
	<path style="fill:none;stroke:red;stroke-width:1px;stroke-linecap:butt;stroke-linejoin:miter;stroke-opacity:1" d="M 190.899,817.728 190.899,846.481 z" id="boundary" inkscape:connector-curvature="0" />
	<path style="fill:none;stroke:red;stroke-width:1px;stroke-linecap:butt;stroke-linejoin:miter;stroke-opacity:1" d="M 190.899,846.481 190.899,875.235 z" id="boundary" inkscape:connector-curvature="0" />
	<path style="fill:none;stroke:red;stroke-width:1px;stroke-linecap:butt;stroke-linejoin:miter;stroke-opacity:1" d="M 190.899,875.235 190.899,903.988 z" id="boundary" inkscape:connector-curvature="0" />
	<path style="fill:none;stroke:red;stroke-width:1px;stroke-linecap:butt;stroke-linejoin:miter;stroke-opacity:1" d="M 190.899,903.988 196.649,932.742 z" id="boundary" inkscape:connector-curvature="0" />
	<path style="fill:none;stroke:red;stroke-width:1px;stroke-linecap:butt;stroke-linejoin:miter;stroke-opacity:1" d="M 196.649,932.742 196.649,961.496 z" id="boundary" inkscape:connector-curvature="0" />
	<path style="fill:none;stroke:red;stroke-width:1px;stroke-linecap:butt;stroke-linejoin:miter;stroke-opacity:1" d="M 196.649,961.496 202.4,990.249 z" id="boundary" inkscape:connector-curvature="0" />
	<path style="fill:none;stroke:red;stroke-width:1px;stroke-linecap:butt;stroke-linejoin:miter;stroke-opacity:1" d="M 202.4,990.249 173.646,996 z" id="boundary" inkscape:connector-curvature="0" />
	<path style="fill:none;stroke:red;stroke-width:1px;stroke-linecap:butt;stroke-linejoin:miter;stroke-opacity:1" d="M 173.646,996 144.893,996 z" id="boundary" inkscape:connector-curvature="0" />
	<path style="fill:none;stroke:red;stroke-width:1px;stroke-linecap:butt;stroke-linejoin:miter;stroke-opacity:1" d="M 144.893,996 116.139,996 z" id="boundary" inkscape:connector-curvature="0" />
	<path style="fill:none;stroke:red;stroke-width:1px;stroke-linecap:butt;stroke-linejoin:miter;stroke-opacity:1" d="M 116.139,996 87.3855,996 z" id="boundary" inkscape:connector-curvature="0" />
	<path style="fill:none;stroke:red;stroke-width:1px;stroke-linecap:butt;stroke-linejoin:miter;stroke-opacity:1" d="M 87.3855,996 61.5072,981.623 z" id="boundary" inkscape:connector-curvature="0" />
	<path style="fill:none;stroke:red;stroke-width:1px;stroke-linecap:butt;stroke-linejoin:miter;stroke-opacity:1" d="M 61.5072,981.623 67.258,941.368 z" id="boundary" inkscape:connector-curvature="0" />
	<path style="fill:none;stroke:red;stroke-width:1px;stroke-linecap:butt;stroke-linejoin:miter;stroke-opacity:1" d="M 67.258,941.368 67.258,912.614 z" id="boundary" inkscape:connector-curvature="0" />
	<path style="fill:none;stroke:red;stroke-width:1px;stroke-linecap:butt;stroke-linejoin:miter;stroke-opacity:1" d="M 67.258,912.614 67.258,883.861 z" id="boundary" inkscape:connector-curvature="0" />
	<path style="fill:none;stroke:red;stroke-width:1px;stroke-linecap:butt;stroke-linejoin:miter;stroke-opacity:1" d="M 67.258,883.861 73.0087,843.606 z" id="boundary" inkscape:connector-curvature="0" />
	<path style="fill:none;stroke:red;stroke-width:1px;stroke-linecap:butt;stroke-linejoin:miter;stroke-opacity:1" d="M 73.0087,843.606 73.0087,814.852 z" id="boundary" inkscape:connector-curvature="0" />
	<path style="fill:none;stroke:red;stroke-width:1px;stroke-linecap:butt;stroke-linejoin:miter;stroke-opacity:1" d="M 73.0087,814.852 73.0087,786.099 z" id="boundary" inkscape:connector-curvature="0" />
	<path style="fill:none;stroke:red;stroke-width:1px;stroke-linecap:butt;stroke-linejoin:miter;stroke-opacity:1" d="M 73.0087,786.099 73.0087,757.345 z" id="boundary" inkscape:connector-curvature="0" />
	<path style="fill:none;stroke:red;stroke-width:1px;stroke-linecap:butt;stroke-linejoin:miter;stroke-opacity:1" d="M 73.0087,757.345 73.0087,728.591 z" id="boundary" inkscape:connector-curvature="0" />
	<path style="fill:none;stroke:red;stroke-width:1px;stroke-linecap:butt;stroke-linejoin:miter;stroke-opacity:1" d="M 73.0087,728.591 73.0087,699.838 z" id="boundary" inkscape:connector-curvature="0" />
	<path style="fill:none;stroke:red;stroke-width:1px;stroke-linecap:butt;stroke-linejoin:miter;stroke-opacity:1" d="M 73.0087,699.838 67.258,671.084 z" id="boundary" inkscape:connector-curvature="0" />
	<path style="fill:none;stroke:red;stroke-width:1px;stroke-linecap:butt;stroke-linejoin:miter;stroke-opacity:1" d="M 67.258,671.084 67.258,642.33 z" id="boundary" inkscape:connector-curvature="0" />
	<path style="fill:none;stroke:red;stroke-width:1px;stroke-linecap:butt;stroke-linejoin:miter;stroke-opacity:1" d="M 67.258,642.33 67.258,613.577 z" id="boundary" inkscape:connector-curvature="0" />
	<path style="fill:none;stroke:red;stroke-width:1px;stroke-linecap:butt;stroke-linejoin:miter;stroke-opacity:1" d="M 67.258,613.577 67.258,584.823 z" id="boundary" inkscape:connector-curvature="0" />
	<path style="fill:none;stroke:red;stroke-width:1px;stroke-linecap:butt;stroke-linejoin:miter;stroke-opacity:1" d="M 67.258,584.823 67.258,556.07 z" id="boundary" inkscape:connector-curvature="0" />
	<path style="fill:none;stroke:red;stroke-width:1px;stroke-linecap:butt;stroke-linejoin:miter;stroke-opacity:1" d="M 67.258,556.07 73.0087,527.316 z" id="boundary" inkscape:connector-curvature="0" />
	<path style="fill:none;stroke:red;stroke-width:1px;stroke-linecap:butt;stroke-linejoin:miter;stroke-opacity:1" d="M 73.0087,527.316 73.0087,498.562 z" id="boundary" inkscape:connector-curvature="0" />
	<path style="fill:none;stroke:red;stroke-width:1px;stroke-linecap:butt;stroke-linejoin:miter;stroke-opacity:1" d="M 73.0087,498.562 73.0087,469.809 z" id="boundary" inkscape:connector-curvature="0" />
	<path style="fill:none;stroke:red;stroke-width:1px;stroke-linecap:butt;stroke-linejoin:miter;stroke-opacity:1" d="M 73.0087,469.809 84.5101,441.055 z" id="boundary" inkscape:connector-curvature="0" />
	<path style="fill:none;stroke:red;stroke-width:1px;stroke-linecap:butt;stroke-linejoin:miter;stroke-opacity:1" d="M 84.5101,441.055 96.0116,403.675 z" id="boundary" inkscape:connector-curvature="0" />
	<path style="fill:none;stroke:red;stroke-width:1px;stroke-linecap:butt;stroke-linejoin:miter;stroke-opacity:1" d="M 96.0116,403.675 96.0116,374.922 z" id="boundary" inkscape:connector-curvature="0" />
	<path style="fill:none;stroke:red;stroke-width:1px;stroke-linecap:butt;stroke-linejoin:miter;stroke-opacity:1" d="M 96.0116,374.922 96.0116,346.168 z" id="boundary" inkscape:connector-curvature="0" />
	<path style="fill:none;stroke:red;stroke-width:1px;stroke-linecap:butt;stroke-linejoin:miter;stroke-opacity:1" d="M 96.0116,346.168 96.0116,317.414 z" id="boundary" inkscape:connector-curvature="0" />
	<path style="fill:none;stroke:red;stroke-width:1px;stroke-linecap:butt;stroke-linejoin:miter;stroke-opacity:1" d="M 96.0116,317.414 96.0116,288.661 z" id="boundary" inkscape:connector-curvature="0" />
	<path style="fill:none;stroke:red;stroke-width:1px;stroke-linecap:butt;stroke-linejoin:miter;stroke-opacity:1" d="M 96.0116,288.661 96.0116,259.907 z" id="boundary" inkscape:connector-curvature="0" />
	<path style="fill:none;stroke:red;stroke-width:1px;stroke-linecap:butt;stroke-linejoin:miter;stroke-opacity:1" d="M 96.0116,259.907 90.2609,231.154 z" id="boundary" inkscape:connector-curvature="0" />
	<path style="fill:none;stroke:red;stroke-width:1px;stroke-linecap:butt;stroke-linejoin:miter;stroke-opacity:1" d="M 90.2609,231.154 90.2609,202.4 z" id="boundary" inkscape:connector-curvature="0" />
	<path style="fill:none;stroke:red;stroke-width:1px;stroke-linecap:butt;stroke-linejoin:miter;stroke-opacity:1" d="M 90.2609,202.4 78.7594,173.646 z" id="boundary" inkscape:connector-curvature="0" />
	<path style="fill:none;stroke:red;stroke-width:1px;stroke-linecap:butt;stroke-linejoin:miter;stroke-opacity:1" d="M 78.7594,173.646 67.258,144.893 z" id="boundary" inkscape:connector-curvature="0" />
	<path style="fill:none;stroke:red;stroke-width:1px;stroke-linecap:butt;stroke-linejoin:miter;stroke-opacity:1" d="M 67.258,144.893 67.258,116.139 z" id="boundary" inkscape:connector-curvature="0" />
	<path style="fill:none;stroke:red;stroke-width:1px;stroke-linecap:butt;stroke-linejoin:miter;stroke-opacity:1" d="M 67.258,116.139 50.0058,93.1362 z" id="boundary" inkscape:connector-curvature="0" />
	<path style="fill:none;stroke:red;stroke-width:1px;stroke-linecap:butt;stroke-linejoin:miter;stroke-opacity:1" d="M 50.0058,93.1362 21.2522,84.5101 z" id="boundary" inkscape:connector-curvature="0" />
	<path style="fill:none;stroke:red;stroke-width:1px;stroke-linecap:butt;stroke-linejoin:miter;stroke-opacity:1" d="M 21.2522,84.5101 4,61.5072 z" id="boundary" inkscape:connector-curvature="0" />
	<path style="fill:none;stroke:red;stroke-width:1px;stroke-linecap:butt;stroke-linejoin:miter;stroke-opacity:1" d="M 4,61.5072 4,32.7536 z" id="boundary" inkscape:connector-curvature="0" />
	<path style="fill:none;stroke:red;stroke-width:1px;stroke-linecap:butt;stroke-linejoin:miter;stroke-opacity:1" d="M 4,32.7536 21.2522,9.75072 z" id="boundary" inkscape:connector-curvature="0" />
	<path style="fill:none;stroke:red;stroke-width:1px;stroke-linecap:butt;stroke-linejoin:miter;stroke-opacity:1" d="M 21.2522,9.75072 50.0058,4 z" id="boundary" inkscape:connector-curvature="0" />
	<path style="fill:none;stroke:red;stroke-width:1px;stroke-linecap:butt;stroke-linejoin:miter;stroke-opacity:1" d="M 50.0058,4 78.7594,4 z" id="boundary" inkscape:connector-curvature="0" />
	<path style="fill:none;stroke:red;stroke-width:1px;stroke-linecap:butt;stroke-linejoin:miter;stroke-opacity:1" d="M 78.7594,4 107.513,4 z" id="boundary" inkscape:connector-curvature="0" />
	<path style="fill:none;stroke:red;stroke-width:1px;stroke-linecap:butt;stroke-linejoin:miter;stroke-opacity:1" d="M 107.513,4 136.267,4 z" id="boundary" inkscape:connector-curvature="0" />
	<path style="fill:none;stroke:red;stroke-width:1px;stroke-linecap:butt;stroke-linejoin:miter;stroke-opacity:1" d="M 136.267,4 165.02,4 z" id="boundary" inkscape:connector-curvature="0" />
	<path style="fill:none;stroke:red;stroke-width:1px;stroke-linecap:butt;stroke-linejoin:miter;stroke-opacity:1" d="M 165.02,4 193.774,4 z" id="boundary" inkscape:connector-curvature="0" />
	<path style="fill:none;stroke:red;stroke-width:1px;stroke-linecap:butt;stroke-linejoin:miter;stroke-opacity:1" d="M 193.774,4 216.777,24.1275 z" id="boundary" inkscape:connector-curvature="0" />
	<path style="fill:none;stroke:red;stroke-width:1px;stroke-linecap:butt;stroke-linejoin:miter;stroke-opacity:1" d="M 216.777,24.1275 234.029,47.1304 z" id="boundary" inkscape:connector-curvature="0" />
	<path style="fill:none;stroke:red;stroke-width:1px;stroke-linecap:butt;stroke-linejoin:miter;stroke-opacity:1" d="M 234.029,47.1304 248.406,73.0087 z" id="boundary" inkscape:connector-curvature="0" />
	<path style="fill:none;stroke:red;stroke-width:1px;stroke-linecap:butt;stroke-linejoin:miter;stroke-opacity:1" d="M 248.406,73.0087 259.907,101.762 z" id="boundary" inkscape:connector-curvature="0" />
	<circle cx="4" cy="32.7536" r="4" fill="#0" id="circle0"/>
	<circle cx="4" cy="61.5072" r="4" fill="#0" id="circle1"/>
	<circle cx="21.2522" cy="9.75072" r="4" fill="#0" id="circle2"/>
	<circle cx="21.2522" cy="84.5101" r="4" fill="#0" id="circle3"/>
	<circle cx="50.0058" cy="4" r="4" fill="#0" id="circle4"/>
	<circle cx="50.0058" cy="93.1362" r="4" fill="#0" id="circle5"/>
	<circle cx="61.5072" cy="981.623" r="4" fill="#0" id="circle6"/>
	<circle cx="67.258" cy="116.139" r="4" fill="#0" id="circle7"/>
	<circle cx="67.258" cy="144.893" r="4" fill="#0" id="circle8"/>
	<circle cx="67.258" cy="556.07" r="4" fill="#0" id="circle9"/>
	<circle cx="67.258" cy="584.823" r="4" fill="#0" id="circle10"/>
	<circle cx="67.258" cy="613.577" r="4" fill="#0" id="circle11"/>
	<circle cx="67.258" cy="642.33" r="4" fill="#0" id="circle12"/>
	<circle cx="67.258" cy="671.084" r="4" fill="#0" id="circle13"/>
	<circle cx="67.258" cy="883.861" r="4" fill="#0" id="circle14"/>
	<circle cx="67.258" cy="912.614" r="4" fill="#0" id="circle15"/>
	<circle cx="67.258" cy="941.368" r="4" fill="#0" id="circle16"/>
	<circle cx="73.0087" cy="469.809" r="4" fill="#0" id="circle17"/>
	<circle cx="73.0087" cy="498.562" r="4" fill="#0" id="circle18"/>
	<circle cx="73.0087" cy="527.316" r="4" fill="#0" id="circle19"/>
	<circle cx="73.0087" cy="699.838" r="4" fill="#0" id="circle20"/>
	<circle cx="73.0087" cy="728.591" r="4" fill="#0" id="circle21"/>
	<circle cx="73.0087" cy="757.345" r="4" fill="#0" id="circle22"/>
	<circle cx="73.0087" cy="786.099" r="4" fill="#0" id="circle23"/>
	<circle cx="73.0087" cy="814.852" r="4" fill="#0" id="circle24"/>
	<circle cx="73.0087" cy="843.606" r="4" fill="#0" id="circle25"/>
	<circle cx="78.7594" cy="4" r="4" fill="#0" id="circle26"/>
	<circle cx="78.7594" cy="173.646" r="4" fill="#0" id="circle27"/>
	<circle cx="84.5101" cy="441.055" r="4" fill="#0" id="circle28"/>
	<circle cx="87.3855" cy="996" r="4" fill="#0" id="circle29"/>
	<circle cx="90.2609" cy="202.4" r="4" fill="#0" id="circle30"/>
	<circle cx="90.2609" cy="231.154" r="4" fill="#0" id="circle31"/>
	<circle cx="96.0116" cy="259.907" r="4" fill="#0" id="circle32"/>
	<circle cx="96.0116" cy="288.661" r="4" fill="#0" id="circle33"/>
	<circle cx="96.0116" cy="317.414" r="4" fill="#0" id="circle34"/>
	<circle cx="96.0116" cy="346.168" r="4" fill="#0" id="circle35"/>
	<circle cx="96.0116" cy="374.922" r="4" fill="#0" id="circle36"/>
	<circle cx="96.0116" cy="403.675" r="4" fill="#0" id="circle37"/>
	<circle cx="107.513" cy="4" r="4" fill="#0" id="circle38"/>
	<circle cx="116.139" cy="996" r="4" fill="#0" id="circle39"/>
	<circle cx="136.267" cy="4" r="4" fill="#0" id="circle40"/>
	<circle cx="144.893" cy="996" r="4" fill="#0" id="circle41"/>
	<circle cx="165.02" cy="4" r="4" fill="#0" id="circle42"/>
	<circle cx="167.896" cy="245.53" r="4" fill="#0" id="circle43"/>
	<circle cx="167.896" cy="274.284" r="4" fill="#0" id="circle44"/>
	<circle cx="167.896" cy="303.038" r="4" fill="#0" id="circle45"/>
	<circle cx="167.896" cy="331.791" r="4" fill="#0" id="circle46"/>
	<circle cx="167.896" cy="360.545" r="4" fill="#0" id="circle47"/>
	<circle cx="167.896" cy="389.299" r="4" fill="#0" id="circle48"/>
	<circle cx="167.896" cy="418.052" r="4" fill="#0" id="circle49"/>
	<circle cx="173.646" cy="199.525" r="4" fill="#0" id="circle50"/>
	<circle cx="173.646" cy="996" r="4" fill="#0" id="circle51"/>
	<circle cx="176.522" cy="446.806" r="4" fill="#0" id="circle52"/>
	<circle cx="190.899" cy="472.684" r="4" fill="#0" id="circle53"/>
	<circle cx="190.899" cy="501.438" r="4" fill="#0" id="circle54"/>
	<circle cx="190.899" cy="530.191" r="4" fill="#0" id="circle55"/>
	<circle cx="190.899" cy="558.945" r="4" fill="#0" id="circle56"/>
	<circle cx="190.899" cy="587.699" r="4" fill="#0" id="circle57"/>
	<circle cx="190.899" cy="616.452" r="4" fill="#0" id="circle58"/>
	<circle cx="190.899" cy="645.206" r="4" fill="#0" id="circle59"/>
	<circle cx="190.899" cy="673.959" r="4" fill="#0" id="circle60"/>
	<circle cx="190.899" cy="702.713" r="4" fill="#0" id="circle61"/>
	<circle cx="190.899" cy="731.467" r="4" fill="#0" id="circle62"/>
	<circle cx="190.899" cy="760.22" r="4" fill="#0" id="circle63"/>
	<circle cx="190.899" cy="788.974" r="4" fill="#0" id="circle64"/>
	<circle cx="190.899" cy="817.728" r="4" fill="#0" id="circle65"/>
	<circle cx="190.899" cy="846.481" r="4" fill="#0" id="circle66"/>
	<circle cx="190.899" cy="875.235" r="4" fill="#0" id="circle67"/>
	<circle cx="190.899" cy="903.988" r="4" fill="#0" id="circle68"/>
	<circle cx="193.774" cy="4" r="4" fill="#0" id="circle69"/>
	<circle cx="196.649" cy="179.397" r="4" fill="#0" id="circle70"/>
	<circle cx="196.649" cy="932.742" r="4" fill="#0" id="circle71"/>
	<circle cx="196.649" cy="961.496" r="4" fill="#0" id="circle72"/>
	<circle cx="202.4" cy="990.249" r="4" fill="#0" id="circle73"/>
	<circle cx="216.777" cy="24.1275" r="4" fill="#0" id="circle74"/>
	<circle cx="225.403" cy="179.397" r="4" fill="#0" id="circle75"/>
	<circle cx="234.029" cy="47.1304" r="4" fill="#0" id="circle76"/>
	<circle cx="248.406" cy="73.0087" r="4" fill="#0" id="circle77"/>
	<circle cx="254.157" cy="179.397" r="4" fill="#0" id="circle78"/>
	<circle cx="259.907" cy="101.762" r="4" fill="#0" id="circle79"/>
	<circle cx="268.533" cy="130.516" r="4" fill="#0" id="circle80"/>
	</g>
</svg>