<?xml version="1.0" encoding="UTF-8" standalone="no"?>
<!-- Created with CurveBenchmark -->
<svg
	xmlns:dc="http://purl.org/dc/elements/1.1/"
	xmlns:cc="http://creativecommons.org/ns#"
	xmlns:rdf="http://www.w3.org/1999/02/22-rdf-syntax-ns#"
	xmlns:svg="http://www.w3.org/2000/svg"
	xmlns="http://www.w3.org/2000/svg"
	xmlns:sodipodi="http://sodipodi.sourceforge.net/DTD/sodipodi-0.dtd"
	xmlns:inkscape="http://www.inkscape.org/namespaces/inkscape"
	width="1000"
	height="1000"
	id="svg2"
	version="1.1"
	sodipodi:docname="manifold/connect2d-television080.png.txt">
<defs
	id="defs4" />
<metadata
	id="metadata7">
	<rdf:RDF>
		<cc:Work
			rdf:about="">
			<dc:format>image/svg+xml</dc:format>
			<dc:type
				rdf:resource="http://purl.org/dc/dcmitype/StillImage" />
			<dc:title></dc:title>
		</cc:Work>
	</rdf:RDF>
</metadata>
<g
	inkscape:label="Layer 1"
	inkscape:groupmode="layer"
	id="layer1">
	<path style="fill:none;stroke:red;stroke-width:1px;stroke-linecap:butt;stroke-linejoin:miter;stroke-opacity:1" d="M 431.383,109.866 431.383,149.075 z" id="boundary" inkscape:connector-curvature="0" />
	<path style="fill:none;stroke:red;stroke-width:1px;stroke-linecap:butt;stroke-linejoin:miter;stroke-opacity:1" d="M 431.383,149.075 431.383,188.285 z" id="boundary" inkscape:connector-curvature="0" />
	<path style="fill:none;stroke:red;stroke-width:1px;stroke-linecap:butt;stroke-linejoin:miter;stroke-opacity:1" d="M 431.383,188.285 431.383,227.494 z" id="boundary" inkscape:connector-curvature="0" />
	<path style="fill:none;stroke:red;stroke-width:1px;stroke-linecap:butt;stroke-linejoin:miter;stroke-opacity:1" d="M 431.383,227.494 431.383,266.704 z" id="boundary" inkscape:connector-curvature="0" />
	<path style="fill:none;stroke:red;stroke-width:1px;stroke-linecap:butt;stroke-linejoin:miter;stroke-opacity:1" d="M 431.383,266.704 431.383,305.913 z" id="boundary" inkscape:connector-curvature="0" />
	<path style="fill:none;stroke:red;stroke-width:1px;stroke-linecap:butt;stroke-linejoin:miter;stroke-opacity:1" d="M 431.383,305.913 431.383,345.123 z" id="boundary" inkscape:connector-curvature="0" />
	<path style="fill:none;stroke:red;stroke-width:1px;stroke-linecap:butt;stroke-linejoin:miter;stroke-opacity:1" d="M 431.383,345.123 431.383,384.332 z" id="boundary" inkscape:connector-curvature="0" />
	<path style="fill:none;stroke:red;stroke-width:1px;stroke-linecap:butt;stroke-linejoin:miter;stroke-opacity:1" d="M 431.383,384.332 431.383,423.542 z" id="boundary" inkscape:connector-curvature="0" />
	<path style="fill:none;stroke:red;stroke-width:1px;stroke-linecap:butt;stroke-linejoin:miter;stroke-opacity:1" d="M 431.383,423.542 431.383,462.751 z" id="boundary" inkscape:connector-curvature="0" />
	<path style="fill:none;stroke:red;stroke-width:1px;stroke-linecap:butt;stroke-linejoin:miter;stroke-opacity:1" d="M 431.383,462.751 431.383,501.96 z" id="boundary" inkscape:connector-curvature="0" />
	<path style="fill:none;stroke:red;stroke-width:1px;stroke-linecap:butt;stroke-linejoin:miter;stroke-opacity:1" d="M 431.383,501.96 431.383,541.17 z" id="boundary" inkscape:connector-curvature="0" />
	<path style="fill:none;stroke:red;stroke-width:1px;stroke-linecap:butt;stroke-linejoin:miter;stroke-opacity:1" d="M 431.383,541.17 431.383,580.379 z" id="boundary" inkscape:connector-curvature="0" />
	<path style="fill:none;stroke:red;stroke-width:1px;stroke-linecap:butt;stroke-linejoin:miter;stroke-opacity:1" d="M 431.383,580.379 431.383,619.589 z" id="boundary" inkscape:connector-curvature="0" />
	<path style="fill:none;stroke:red;stroke-width:1px;stroke-linecap:butt;stroke-linejoin:miter;stroke-opacity:1" d="M 431.383,619.589 431.383,694.087 z" id="boundary" inkscape:connector-curvature="0" />
	<path style="fill:none;stroke:red;stroke-width:1px;stroke-linecap:butt;stroke-linejoin:miter;stroke-opacity:1" d="M 431.383,694.087 431.383,733.296 z" id="boundary" inkscape:connector-curvature="0" />
	<path style="fill:none;stroke:red;stroke-width:1px;stroke-linecap:butt;stroke-linejoin:miter;stroke-opacity:1" d="M 431.383,733.296 431.383,772.506 z" id="boundary" inkscape:connector-curvature="0" />
	<path style="fill:none;stroke:red;stroke-width:1px;stroke-linecap:butt;stroke-linejoin:miter;stroke-opacity:1" d="M 431.383,772.506 431.383,811.715 z" id="boundary" inkscape:connector-curvature="0" />
	<path style="fill:none;stroke:red;stroke-width:1px;stroke-linecap:butt;stroke-linejoin:miter;stroke-opacity:1" d="M 431.383,811.715 431.383,850.925 z" id="boundary" inkscape:connector-curvature="0" />
	<path style="fill:none;stroke:red;stroke-width:1px;stroke-linecap:butt;stroke-linejoin:miter;stroke-opacity:1" d="M 431.383,850.925 431.383,890.134 z" id="boundary" inkscape:connector-curvature="0" />
	<path style="fill:none;stroke:red;stroke-width:1px;stroke-linecap:butt;stroke-linejoin:miter;stroke-opacity:1" d="M 431.383,890.134 470.593,897.976 z" id="boundary" inkscape:connector-curvature="0" />
	<path style="fill:none;stroke:red;stroke-width:1px;stroke-linecap:butt;stroke-linejoin:miter;stroke-opacity:1" d="M 470.593,897.976 509.802,897.976 z" id="boundary" inkscape:connector-curvature="0" />
	<path style="fill:none;stroke:red;stroke-width:1px;stroke-linecap:butt;stroke-linejoin:miter;stroke-opacity:1" d="M 509.802,897.976 549.012,897.976 z" id="boundary" inkscape:connector-curvature="0" />
	<path style="fill:none;stroke:red;stroke-width:1px;stroke-linecap:butt;stroke-linejoin:miter;stroke-opacity:1" d="M 549.012,897.976 580.379,921.502 z" id="boundary" inkscape:connector-curvature="0" />
	<path style="fill:none;stroke:red;stroke-width:1px;stroke-linecap:butt;stroke-linejoin:miter;stroke-opacity:1" d="M 580.379,921.502 572.538,968.553 z" id="boundary" inkscape:connector-curvature="0" />
	<path style="fill:none;stroke:red;stroke-width:1px;stroke-linecap:butt;stroke-linejoin:miter;stroke-opacity:1" d="M 572.538,968.553 533.328,980.316 z" id="boundary" inkscape:connector-curvature="0" />
	<path style="fill:none;stroke:red;stroke-width:1px;stroke-linecap:butt;stroke-linejoin:miter;stroke-opacity:1" d="M 533.328,980.316 494.119,980.316 z" id="boundary" inkscape:connector-curvature="0" />
	<path style="fill:none;stroke:red;stroke-width:1px;stroke-linecap:butt;stroke-linejoin:miter;stroke-opacity:1" d="M 494.119,980.316 454.909,980.316 z" id="boundary" inkscape:connector-curvature="0" />
	<path style="fill:none;stroke:red;stroke-width:1px;stroke-linecap:butt;stroke-linejoin:miter;stroke-opacity:1" d="M 454.909,980.316 415.7,980.316 z" id="boundary" inkscape:connector-curvature="0" />
	<path style="fill:none;stroke:red;stroke-width:1px;stroke-linecap:butt;stroke-linejoin:miter;stroke-opacity:1" d="M 415.7,980.316 376.49,984.237 z" id="boundary" inkscape:connector-curvature="0" />
	<path style="fill:none;stroke:red;stroke-width:1px;stroke-linecap:butt;stroke-linejoin:miter;stroke-opacity:1" d="M 376.49,984.237 337.281,988.158 z" id="boundary" inkscape:connector-curvature="0" />
	<path style="fill:none;stroke:red;stroke-width:1px;stroke-linecap:butt;stroke-linejoin:miter;stroke-opacity:1" d="M 337.281,988.158 298.071,980.316 z" id="boundary" inkscape:connector-curvature="0" />
	<path style="fill:none;stroke:red;stroke-width:1px;stroke-linecap:butt;stroke-linejoin:miter;stroke-opacity:1" d="M 298.071,980.316 258.862,984.237 z" id="boundary" inkscape:connector-curvature="0" />
	<path style="fill:none;stroke:red;stroke-width:1px;stroke-linecap:butt;stroke-linejoin:miter;stroke-opacity:1" d="M 258.862,984.237 219.652,980.316 z" id="boundary" inkscape:connector-curvature="0" />
	<path style="fill:none;stroke:red;stroke-width:1px;stroke-linecap:butt;stroke-linejoin:miter;stroke-opacity:1" d="M 219.652,980.316 180.443,980.316 z" id="boundary" inkscape:connector-curvature="0" />
	<path style="fill:none;stroke:red;stroke-width:1px;stroke-linecap:butt;stroke-linejoin:miter;stroke-opacity:1" d="M 180.443,980.316 141.233,980.316 z" id="boundary" inkscape:connector-curvature="0" />
	<path style="fill:none;stroke:red;stroke-width:1px;stroke-linecap:butt;stroke-linejoin:miter;stroke-opacity:1" d="M 141.233,980.316 102.024,980.316 z" id="boundary" inkscape:connector-curvature="0" />
	<path style="fill:none;stroke:red;stroke-width:1px;stroke-linecap:butt;stroke-linejoin:miter;stroke-opacity:1" d="M 102.024,980.316 62.8142,996 z" id="boundary" inkscape:connector-curvature="0" />
	<path style="fill:none;stroke:red;stroke-width:1px;stroke-linecap:butt;stroke-linejoin:miter;stroke-opacity:1" d="M 62.8142,996 23.6047,980.316 z" id="boundary" inkscape:connector-curvature="0" />
	<path style="fill:none;stroke:red;stroke-width:1px;stroke-linecap:butt;stroke-linejoin:miter;stroke-opacity:1" d="M 23.6047,980.316 4,945.028 z" id="boundary" inkscape:connector-curvature="0" />
	<path style="fill:none;stroke:red;stroke-width:1px;stroke-linecap:butt;stroke-linejoin:miter;stroke-opacity:1" d="M 4,945.028 4,905.818 z" id="boundary" inkscape:connector-curvature="0" />
	<path style="fill:none;stroke:red;stroke-width:1px;stroke-linecap:butt;stroke-linejoin:miter;stroke-opacity:1" d="M 4,905.818 43.2095,897.976 z" id="boundary" inkscape:connector-curvature="0" />
	<path style="fill:none;stroke:red;stroke-width:1px;stroke-linecap:butt;stroke-linejoin:miter;stroke-opacity:1" d="M 43.2095,897.976 82.419,897.976 z" id="boundary" inkscape:connector-curvature="0" />
	<path style="fill:none;stroke:red;stroke-width:1px;stroke-linecap:butt;stroke-linejoin:miter;stroke-opacity:1" d="M 82.419,897.976 121.628,897.976 z" id="boundary" inkscape:connector-curvature="0" />
	<path style="fill:none;stroke:red;stroke-width:1px;stroke-linecap:butt;stroke-linejoin:miter;stroke-opacity:1" d="M 121.628,897.976 160.838,897.976 z" id="boundary" inkscape:connector-curvature="0" />
	<path style="fill:none;stroke:red;stroke-width:1px;stroke-linecap:butt;stroke-linejoin:miter;stroke-opacity:1" d="M 160.838,897.976 200.047,897.976 z" id="boundary" inkscape:connector-curvature="0" />
	<path style="fill:none;stroke:red;stroke-width:1px;stroke-linecap:butt;stroke-linejoin:miter;stroke-opacity:1" d="M 200.047,897.976 239.257,897.976 z" id="boundary" inkscape:connector-curvature="0" />
	<path style="fill:none;stroke:red;stroke-width:1px;stroke-linecap:butt;stroke-linejoin:miter;stroke-opacity:1" d="M 239.257,897.976 278.466,897.976 z" id="boundary" inkscape:connector-curvature="0" />
	<path style="fill:none;stroke:red;stroke-width:1px;stroke-linecap:butt;stroke-linejoin:miter;stroke-opacity:1" d="M 278.466,897.976 317.676,858.767 z" id="boundary" inkscape:connector-curvature="0" />
	<path style="fill:none;stroke:red;stroke-width:1px;stroke-linecap:butt;stroke-linejoin:miter;stroke-opacity:1" d="M 317.676,858.767 317.676,819.557 z" id="boundary" inkscape:connector-curvature="0" />
	<path style="fill:none;stroke:red;stroke-width:1px;stroke-linecap:butt;stroke-linejoin:miter;stroke-opacity:1" d="M 317.676,819.557 278.466,815.636 z" id="boundary" inkscape:connector-curvature="0" />
	<path style="fill:none;stroke:red;stroke-width:1px;stroke-linecap:butt;stroke-linejoin:miter;stroke-opacity:1" d="M 278.466,815.636 239.257,815.636 z" id="boundary" inkscape:connector-curvature="0" />
	<path style="fill:none;stroke:red;stroke-width:1px;stroke-linecap:butt;stroke-linejoin:miter;stroke-opacity:1" d="M 239.257,815.636 200.047,815.636 z" id="boundary" inkscape:connector-curvature="0" />
	<path style="fill:none;stroke:red;stroke-width:1px;stroke-linecap:butt;stroke-linejoin:miter;stroke-opacity:1" d="M 200.047,815.636 160.838,815.636 z" id="boundary" inkscape:connector-curvature="0" />
	<path style="fill:none;stroke:red;stroke-width:1px;stroke-linecap:butt;stroke-linejoin:miter;stroke-opacity:1" d="M 160.838,815.636 121.628,815.636 z" id="boundary" inkscape:connector-curvature="0" />
	<path style="fill:none;stroke:red;stroke-width:1px;stroke-linecap:butt;stroke-linejoin:miter;stroke-opacity:1" d="M 121.628,815.636 82.419,815.636 z" id="boundary" inkscape:connector-curvature="0" />
	<path style="fill:none;stroke:red;stroke-width:1px;stroke-linecap:butt;stroke-linejoin:miter;stroke-opacity:1" d="M 82.419,815.636 43.2095,815.636 z" id="boundary" inkscape:connector-curvature="0" />
	<path style="fill:none;stroke:red;stroke-width:1px;stroke-linecap:butt;stroke-linejoin:miter;stroke-opacity:1" d="M 43.2095,815.636 11.8419,788.19 z" id="boundary" inkscape:connector-curvature="0" />
	<path style="fill:none;stroke:red;stroke-width:1px;stroke-linecap:butt;stroke-linejoin:miter;stroke-opacity:1" d="M 11.8419,788.19 62.8142,780.348 z" id="boundary" inkscape:connector-curvature="0" />
	<path style="fill:none;stroke:red;stroke-width:1px;stroke-linecap:butt;stroke-linejoin:miter;stroke-opacity:1" d="M 62.8142,780.348 102.024,780.348 z" id="boundary" inkscape:connector-curvature="0" />
	<path style="fill:none;stroke:red;stroke-width:1px;stroke-linecap:butt;stroke-linejoin:miter;stroke-opacity:1" d="M 102.024,780.348 141.233,780.348 z" id="boundary" inkscape:connector-curvature="0" />
	<path style="fill:none;stroke:red;stroke-width:1px;stroke-linecap:butt;stroke-linejoin:miter;stroke-opacity:1" d="M 141.233,780.348 180.443,780.348 z" id="boundary" inkscape:connector-curvature="0" />
	<path style="fill:none;stroke:red;stroke-width:1px;stroke-linecap:butt;stroke-linejoin:miter;stroke-opacity:1" d="M 180.443,780.348 219.652,780.348 z" id="boundary" inkscape:connector-curvature="0" />
	<path style="fill:none;stroke:red;stroke-width:1px;stroke-linecap:butt;stroke-linejoin:miter;stroke-opacity:1" d="M 219.652,780.348 258.862,780.348 z" id="boundary" inkscape:connector-curvature="0" />
	<path style="fill:none;stroke:red;stroke-width:1px;stroke-linecap:butt;stroke-linejoin:miter;stroke-opacity:1" d="M 258.862,780.348 298.071,780.348 z" id="boundary" inkscape:connector-curvature="0" />
	<path style="fill:none;stroke:red;stroke-width:1px;stroke-linecap:butt;stroke-linejoin:miter;stroke-opacity:1" d="M 298.071,780.348 317.676,709.771 z" id="boundary" inkscape:connector-curvature="0" />
	<path style="fill:none;stroke:red;stroke-width:1px;stroke-linecap:butt;stroke-linejoin:miter;stroke-opacity:1" d="M 317.676,709.771 282.387,690.166 z" id="boundary" inkscape:connector-curvature="0" />
	<path style="fill:none;stroke:red;stroke-width:1px;stroke-linecap:butt;stroke-linejoin:miter;stroke-opacity:1" d="M 282.387,690.166 243.178,690.166 z" id="boundary" inkscape:connector-curvature="0" />
	<path style="fill:none;stroke:red;stroke-width:1px;stroke-linecap:butt;stroke-linejoin:miter;stroke-opacity:1" d="M 243.178,690.166 203.968,690.166 z" id="boundary" inkscape:connector-curvature="0" />
	<path style="fill:none;stroke:red;stroke-width:1px;stroke-linecap:butt;stroke-linejoin:miter;stroke-opacity:1" d="M 203.968,690.166 164.759,690.166 z" id="boundary" inkscape:connector-curvature="0" />
	<path style="fill:none;stroke:red;stroke-width:1px;stroke-linecap:butt;stroke-linejoin:miter;stroke-opacity:1" d="M 164.759,690.166 125.549,690.166 z" id="boundary" inkscape:connector-curvature="0" />
	<path style="fill:none;stroke:red;stroke-width:1px;stroke-linecap:butt;stroke-linejoin:miter;stroke-opacity:1" d="M 125.549,690.166 86.3399,690.166 z" id="boundary" inkscape:connector-curvature="0" />
	<path style="fill:none;stroke:red;stroke-width:1px;stroke-linecap:butt;stroke-linejoin:miter;stroke-opacity:1" d="M 86.3399,690.166 47.1304,690.166 z" id="boundary" inkscape:connector-curvature="0" />
	<path style="fill:none;stroke:red;stroke-width:1px;stroke-linecap:butt;stroke-linejoin:miter;stroke-opacity:1" d="M 47.1304,690.166 11.8419,670.561 z" id="boundary" inkscape:connector-curvature="0" />
	<path style="fill:none;stroke:red;stroke-width:1px;stroke-linecap:butt;stroke-linejoin:miter;stroke-opacity:1" d="M 11.8419,670.561 66.7352,654.877 z" id="boundary" inkscape:connector-curvature="0" />
	<path style="fill:none;stroke:red;stroke-width:1px;stroke-linecap:butt;stroke-linejoin:miter;stroke-opacity:1" d="M 66.7352,654.877 105.945,654.877 z" id="boundary" inkscape:connector-curvature="0" />
	<path style="fill:none;stroke:red;stroke-width:1px;stroke-linecap:butt;stroke-linejoin:miter;stroke-opacity:1" d="M 105.945,654.877 145.154,654.877 z" id="boundary" inkscape:connector-curvature="0" />
	<path style="fill:none;stroke:red;stroke-width:1px;stroke-linecap:butt;stroke-linejoin:miter;stroke-opacity:1" d="M 145.154,654.877 184.364,654.877 z" id="boundary" inkscape:connector-curvature="0" />
	<path style="fill:none;stroke:red;stroke-width:1px;stroke-linecap:butt;stroke-linejoin:miter;stroke-opacity:1" d="M 184.364,654.877 223.573,654.877 z" id="boundary" inkscape:connector-curvature="0" />
	<path style="fill:none;stroke:red;stroke-width:1px;stroke-linecap:butt;stroke-linejoin:miter;stroke-opacity:1" d="M 223.573,654.877 262.783,654.877 z" id="boundary" inkscape:connector-curvature="0" />
	<path style="fill:none;stroke:red;stroke-width:1px;stroke-linecap:butt;stroke-linejoin:miter;stroke-opacity:1" d="M 262.783,654.877 301.992,654.877 z" id="boundary" inkscape:connector-curvature="0" />
	<path style="fill:none;stroke:red;stroke-width:1px;stroke-linecap:butt;stroke-linejoin:miter;stroke-opacity:1" d="M 301.992,654.877 317.676,603.905 z" id="boundary" inkscape:connector-curvature="0" />
	<path style="fill:none;stroke:red;stroke-width:1px;stroke-linecap:butt;stroke-linejoin:miter;stroke-opacity:1" d="M 317.676,603.905 317.676,564.696 z" id="boundary" inkscape:connector-curvature="0" />
	<path style="fill:none;stroke:red;stroke-width:1px;stroke-linecap:butt;stroke-linejoin:miter;stroke-opacity:1" d="M 317.676,564.696 309.834,525.486 z" id="boundary" inkscape:connector-curvature="0" />
	<path style="fill:none;stroke:red;stroke-width:1px;stroke-linecap:butt;stroke-linejoin:miter;stroke-opacity:1" d="M 309.834,525.486 270.625,525.486 z" id="boundary" inkscape:connector-curvature="0" />
	<path style="fill:none;stroke:red;stroke-width:1px;stroke-linecap:butt;stroke-linejoin:miter;stroke-opacity:1" d="M 270.625,525.486 231.415,525.486 z" id="boundary" inkscape:connector-curvature="0" />
	<path style="fill:none;stroke:red;stroke-width:1px;stroke-linecap:butt;stroke-linejoin:miter;stroke-opacity:1" d="M 231.415,525.486 200.047,498.04 z" id="boundary" inkscape:connector-curvature="0" />
	<path style="fill:none;stroke:red;stroke-width:1px;stroke-linecap:butt;stroke-linejoin:miter;stroke-opacity:1" d="M 200.047,498.04 200.047,458.83 z" id="boundary" inkscape:connector-curvature="0" />
	<path style="fill:none;stroke:red;stroke-width:1px;stroke-linecap:butt;stroke-linejoin:miter;stroke-opacity:1" d="M 200.047,458.83 200.047,419.621 z" id="boundary" inkscape:connector-curvature="0" />
	<path style="fill:none;stroke:red;stroke-width:1px;stroke-linecap:butt;stroke-linejoin:miter;stroke-opacity:1" d="M 200.047,419.621 200.047,380.411 z" id="boundary" inkscape:connector-curvature="0" />
	<path style="fill:none;stroke:red;stroke-width:1px;stroke-linecap:butt;stroke-linejoin:miter;stroke-opacity:1" d="M 200.047,380.411 200.047,341.202 z" id="boundary" inkscape:connector-curvature="0" />
	<path style="fill:none;stroke:red;stroke-width:1px;stroke-linecap:butt;stroke-linejoin:miter;stroke-opacity:1" d="M 200.047,341.202 200.047,301.992 z" id="boundary" inkscape:connector-curvature="0" />
	<path style="fill:none;stroke:red;stroke-width:1px;stroke-linecap:butt;stroke-linejoin:miter;stroke-opacity:1" d="M 200.047,301.992 200.047,262.783 z" id="boundary" inkscape:connector-curvature="0" />
	<path style="fill:none;stroke:red;stroke-width:1px;stroke-linecap:butt;stroke-linejoin:miter;stroke-opacity:1" d="M 200.047,262.783 200.047,223.573 z" id="boundary" inkscape:connector-curvature="0" />
	<path style="fill:none;stroke:red;stroke-width:1px;stroke-linecap:butt;stroke-linejoin:miter;stroke-opacity:1" d="M 200.047,223.573 200.047,184.364 z" id="boundary" inkscape:connector-curvature="0" />
	<path style="fill:none;stroke:red;stroke-width:1px;stroke-linecap:butt;stroke-linejoin:miter;stroke-opacity:1" d="M 200.047,184.364 200.047,145.154 z" id="boundary" inkscape:connector-curvature="0" />
	<path style="fill:none;stroke:red;stroke-width:1px;stroke-linecap:butt;stroke-linejoin:miter;stroke-opacity:1" d="M 200.047,145.154 200.047,105.945 z" id="boundary" inkscape:connector-curvature="0" />
	<path style="fill:none;stroke:red;stroke-width:1px;stroke-linecap:butt;stroke-linejoin:miter;stroke-opacity:1" d="M 200.047,105.945 200.047,66.7352 z" id="boundary" inkscape:connector-curvature="0" />
	<path style="fill:none;stroke:red;stroke-width:1px;stroke-linecap:butt;stroke-linejoin:miter;stroke-opacity:1" d="M 200.047,66.7352 200.047,27.5257 z" id="boundary" inkscape:connector-curvature="0" />
	<path style="fill:none;stroke:red;stroke-width:1px;stroke-linecap:butt;stroke-linejoin:miter;stroke-opacity:1" d="M 200.047,27.5257 231.415,4 z" id="boundary" inkscape:connector-curvature="0" />
	<path style="fill:none;stroke:red;stroke-width:1px;stroke-linecap:butt;stroke-linejoin:miter;stroke-opacity:1" d="M 231.415,4 270.625,4 z" id="boundary" inkscape:connector-curvature="0" />
	<path style="fill:none;stroke:red;stroke-width:1px;stroke-linecap:butt;stroke-linejoin:miter;stroke-opacity:1" d="M 270.625,4 309.834,4 z" id="boundary" inkscape:connector-curvature="0" />
	<path style="fill:none;stroke:red;stroke-width:1px;stroke-linecap:butt;stroke-linejoin:miter;stroke-opacity:1" d="M 309.834,4 349.043,4 z" id="boundary" inkscape:connector-curvature="0" />
	<path style="fill:none;stroke:red;stroke-width:1px;stroke-linecap:butt;stroke-linejoin:miter;stroke-opacity:1" d="M 349.043,4 388.253,4 z" id="boundary" inkscape:connector-curvature="0" />
	<path style="fill:none;stroke:red;stroke-width:1px;stroke-linecap:butt;stroke-linejoin:miter;stroke-opacity:1" d="M 388.253,4 407.858,39.2885 z" id="boundary" inkscape:connector-curvature="0" />
	<path style="fill:none;stroke:red;stroke-width:1px;stroke-linecap:butt;stroke-linejoin:miter;stroke-opacity:1" d="M 407.858,39.2885 407.858,78.498 z" id="boundary" inkscape:connector-curvature="0" />
	<path style="fill:none;stroke:red;stroke-width:1px;stroke-linecap:butt;stroke-linejoin:miter;stroke-opacity:1" d="M 407.858,78.498 431.383,109.866 z" id="boundary" inkscape:connector-curvature="0" />
	<circle cx="4" cy="905.818" r="4" fill="#0" id="circle0"/>
	<circle cx="4" cy="945.028" r="4" fill="#0" id="circle1"/>
	<circle cx="11.8419" cy="670.561" r="4" fill="#0" id="circle2"/>
	<circle cx="11.8419" cy="788.19" r="4" fill="#0" id="circle3"/>
	<circle cx="23.6047" cy="980.316" r="4" fill="#0" id="circle4"/>
	<circle cx="43.2095" cy="815.636" r="4" fill="#0" id="circle5"/>
	<circle cx="43.2095" cy="897.976" r="4" fill="#0" id="circle6"/>
	<circle cx="47.1304" cy="690.166" r="4" fill="#0" id="circle7"/>
	<circle cx="62.8142" cy="780.348" r="4" fill="#0" id="circle8"/>
	<circle cx="62.8142" cy="996" r="4" fill="#0" id="circle9"/>
	<circle cx="66.7352" cy="654.877" r="4" fill="#0" id="circle10"/>
	<circle cx="82.419" cy="815.636" r="4" fill="#0" id="circle11"/>
	<circle cx="82.419" cy="897.976" r="4" fill="#0" id="circle12"/>
	<circle cx="86.3399" cy="690.166" r="4" fill="#0" id="circle13"/>
	<circle cx="102.024" cy="780.348" r="4" fill="#0" id="circle14"/>
	<circle cx="102.024" cy="980.316" r="4" fill="#0" id="circle15"/>
	<circle cx="105.945" cy="654.877" r="4" fill="#0" id="circle16"/>
	<circle cx="121.628" cy="815.636" r="4" fill="#0" id="circle17"/>
	<circle cx="121.628" cy="897.976" r="4" fill="#0" id="circle18"/>
	<circle cx="125.549" cy="690.166" r="4" fill="#0" id="circle19"/>
	<circle cx="141.233" cy="780.348" r="4" fill="#0" id="circle20"/>
	<circle cx="141.233" cy="980.316" r="4" fill="#0" id="circle21"/>
	<circle cx="145.154" cy="654.877" r="4" fill="#0" id="circle22"/>
	<circle cx="160.838" cy="815.636" r="4" fill="#0" id="circle23"/>
	<circle cx="160.838" cy="897.976" r="4" fill="#0" id="circle24"/>
	<circle cx="164.759" cy="690.166" r="4" fill="#0" id="circle25"/>
	<circle cx="180.443" cy="780.348" r="4" fill="#0" id="circle26"/>
	<circle cx="180.443" cy="980.316" r="4" fill="#0" id="circle27"/>
	<circle cx="184.364" cy="654.877" r="4" fill="#0" id="circle28"/>
	<circle cx="200.047" cy="27.5257" r="4" fill="#0" id="circle29"/>
	<circle cx="200.047" cy="66.7352" r="4" fill="#0" id="circle30"/>
	<circle cx="200.047" cy="105.945" r="4" fill="#0" id="circle31"/>
	<circle cx="200.047" cy="145.154" r="4" fill="#0" id="circle32"/>
	<circle cx="200.047" cy="184.364" r="4" fill="#0" id="circle33"/>
	<circle cx="200.047" cy="223.573" r="4" fill="#0" id="circle34"/>
	<circle cx="200.047" cy="262.783" r="4" fill="#0" id="circle35"/>
	<circle cx="200.047" cy="301.992" r="4" fill="#0" id="circle36"/>
	<circle cx="200.047" cy="341.202" r="4" fill="#0" id="circle37"/>
	<circle cx="200.047" cy="380.411" r="4" fill="#0" id="circle38"/>
	<circle cx="200.047" cy="419.621" r="4" fill="#0" id="circle39"/>
	<circle cx="200.047" cy="458.83" r="4" fill="#0" id="circle40"/>
	<circle cx="200.047" cy="498.04" r="4" fill="#0" id="circle41"/>
	<circle cx="200.047" cy="815.636" r="4" fill="#0" id="circle42"/>
	<circle cx="200.047" cy="897.976" r="4" fill="#0" id="circle43"/>
	<circle cx="203.968" cy="690.166" r="4" fill="#0" id="circle44"/>
	<circle cx="219.652" cy="780.348" r="4" fill="#0" id="circle45"/>
	<circle cx="219.652" cy="980.316" r="4" fill="#0" id="circle46"/>
	<circle cx="223.573" cy="654.877" r="4" fill="#0" id="circle47"/>
	<circle cx="231.415" cy="4" r="4" fill="#0" id="circle48"/>
	<circle cx="231.415" cy="525.486" r="4" fill="#0" id="circle49"/>
	<circle cx="239.257" cy="815.636" r="4" fill="#0" id="circle50"/>
	<circle cx="239.257" cy="897.976" r="4" fill="#0" id="circle51"/>
	<circle cx="243.178" cy="690.166" r="4" fill="#0" id="circle52"/>
	<circle cx="258.862" cy="780.348" r="4" fill="#0" id="circle53"/>
	<circle cx="258.862" cy="984.237" r="4" fill="#0" id="circle54"/>
	<circle cx="262.783" cy="654.877" r="4" fill="#0" id="circle55"/>
	<circle cx="270.625" cy="4" r="4" fill="#0" id="circle56"/>
	<circle cx="270.625" cy="525.486" r="4" fill="#0" id="circle57"/>
	<circle cx="278.466" cy="815.636" r="4" fill="#0" id="circle58"/>
	<circle cx="278.466" cy="897.976" r="4" fill="#0" id="circle59"/>
	<circle cx="282.387" cy="690.166" r="4" fill="#0" id="circle60"/>
	<circle cx="298.071" cy="780.348" r="4" fill="#0" id="circle61"/>
	<circle cx="298.071" cy="980.316" r="4" fill="#0" id="circle62"/>
	<circle cx="301.992" cy="654.877" r="4" fill="#0" id="circle63"/>
	<circle cx="309.834" cy="4" r="4" fill="#0" id="circle64"/>
	<circle cx="309.834" cy="525.486" r="4" fill="#0" id="circle65"/>
	<circle cx="317.676" cy="564.696" r="4" fill="#0" id="circle66"/>
	<circle cx="317.676" cy="603.905" r="4" fill="#0" id="circle67"/>
	<circle cx="317.676" cy="709.771" r="4" fill="#0" id="circle68"/>
	<circle cx="317.676" cy="819.557" r="4" fill="#0" id="circle69"/>
	<circle cx="317.676" cy="858.767" r="4" fill="#0" id="circle70"/>
	<circle cx="337.281" cy="988.158" r="4" fill="#0" id="circle71"/>
	<circle cx="349.043" cy="4" r="4" fill="#0" id="circle72"/>
	<circle cx="376.49" cy="984.237" r="4" fill="#0" id="circle73"/>
	<circle cx="388.253" cy="4" r="4" fill="#0" id="circle74"/>
	<circle cx="407.858" cy="39.2885" r="4" fill="#0" id="circle75"/>
	<circle cx="407.858" cy="78.498" r="4" fill="#0" id="circle76"/>
	<circle cx="415.7" cy="980.316" r="4" fill="#0" id="circle77"/>
	<circle cx="431.383" cy="109.866" r="4" fill="#0" id="circle78"/>
	<circle cx="431.383" cy="149.075" r="4" fill="#0" id="circle79"/>
	<circle cx="431.383" cy="188.285" r="4" fill="#0" id="circle80"/>
	<circle cx="431.383" cy="227.494" r="4" fill="#0" id="circle81"/>
	<circle cx="431.383" cy="266.704" r="4" fill="#0" id="circle82"/>
	<circle cx="431.383" cy="305.913" r="4" fill="#0" id="circle83"/>
	<circle cx="431.383" cy="345.123" r="4" fill="#0" id="circle84"/>
	<circle cx="431.383" cy="384.332" r="4" fill="#0" id="circle85"/>
	<circle cx="431.383" cy="423.542" r="4" fill="#0" id="circle86"/>
	<circle cx="431.383" cy="462.751" r="4" fill="#0" id="circle87"/>
	<circle cx="431.383" cy="501.96" r="4" fill="#0" id="circle88"/>
	<circle cx="431.383" cy="541.17" r="4" fill="#0" id="circle89"/>
	<circle cx="431.383" cy="580.379" r="4" fill="#0" id="circle90"/>
	<circle cx="431.383" cy="619.589" r="4" fill="#0" id="circle91"/>
	<circle cx="431.383" cy="694.087" r="4" fill="#0" id="circle92"/>
	<circle cx="431.383" cy="733.296" r="4" fill="#0" id="circle93"/>
	<circle cx="431.383" cy="772.506" r="4" fill="#0" id="circle94"/>
	<circle cx="431.383" cy="811.715" r="4" fill="#0" id="circle95"/>
	<circle cx="431.383" cy="850.925" r="4" fill="#0" id="circle96"/>
	<circle cx="431.383" cy="890.134" r="4" fill="#0" id="circle97"/>
	<circle cx="454.909" cy="980.316" r="4" fill="#0" id="circle98"/>
	<circle cx="470.593" cy="897.976" r="4" fill="#0" id="circle99"/>
	<circle cx="494.119" cy="980.316" r="4" fill="#0" id="circle100"/>
	<circle cx="509.802" cy="897.976" r="4" fill="#0" id="circle101"/>
	<circle cx="533.328" cy="980.316" r="4" fill="#0" id="circle102"/>
	<circle cx="549.012" cy="897.976" r="4" fill="#0" id="circle103"/>
	<circle cx="572.538" cy="968.553" r="4" fill="#0" id="circle104"/>
	<circle cx="580.379" cy="921.502" r="4" fill="#0" id="circle105"/>
	</g>
</svg>