<?xml version="1.0" encoding="UTF-8" standalone="no"?>
<!-- Created with CurveBenchmark -->
<svg
	xmlns:dc="http://purl.org/dc/elements/1.1/"
	xmlns:cc="http://creativecommons.org/ns#"
	xmlns:rdf="http://www.w3.org/1999/02/22-rdf-syntax-ns#"
	xmlns:svg="http://www.w3.org/2000/svg"
	xmlns="http://www.w3.org/2000/svg"
	xmlns:sodipodi="http://sodipodi.sourceforge.net/DTD/sodipodi-0.dtd"
	xmlns:inkscape="http://www.inkscape.org/namespaces/inkscape"
	width="1000"
	height="1000"
	id="svg2"
	version="1.1"
	sodipodi:docname="manifold/connect2d-calf1.png.txt">
<defs
	id="defs4" />
<metadata
	id="metadata7">
	<rdf:RDF>
		<cc:Work
			rdf:about="">
			<dc:format>image/svg+xml</dc:format>
			<dc:type
				rdf:resource="http://purl.org/dc/dcmitype/StillImage" />
			<dc:title></dc:title>
		</cc:Work>
	</rdf:RDF>
</metadata>
<g
	inkscape:label="Layer 1"
	inkscape:groupmode="layer"
	id="layer1">
	<path style="fill:none;stroke:red;stroke-width:1px;stroke-linecap:butt;stroke-linejoin:miter;stroke-opacity:1" d="M 996,645.533 986.1,673.253 z" id="boundary" inkscape:connector-curvature="0" />
	<path style="fill:none;stroke:red;stroke-width:1px;stroke-linecap:butt;stroke-linejoin:miter;stroke-opacity:1" d="M 986.1,673.253 966.299,669.293 z" id="boundary" inkscape:connector-curvature="0" />
	<path style="fill:none;stroke:red;stroke-width:1px;stroke-linecap:butt;stroke-linejoin:miter;stroke-opacity:1" d="M 966.299,669.293 946.499,669.293 z" id="boundary" inkscape:connector-curvature="0" />
	<path style="fill:none;stroke:red;stroke-width:1px;stroke-linecap:butt;stroke-linejoin:miter;stroke-opacity:1" d="M 946.499,669.293 934.619,653.453 z" id="boundary" inkscape:connector-curvature="0" />
	<path style="fill:none;stroke:red;stroke-width:1px;stroke-linecap:butt;stroke-linejoin:miter;stroke-opacity:1" d="M 934.619,653.453 934.619,633.653 z" id="boundary" inkscape:connector-curvature="0" />
	<path style="fill:none;stroke:red;stroke-width:1px;stroke-linecap:butt;stroke-linejoin:miter;stroke-opacity:1" d="M 934.619,633.653 944.519,599.992 z" id="boundary" inkscape:connector-curvature="0" />
	<path style="fill:none;stroke:red;stroke-width:1px;stroke-linecap:butt;stroke-linejoin:miter;stroke-opacity:1" d="M 944.519,599.992 940.559,580.192 z" id="boundary" inkscape:connector-curvature="0" />
	<path style="fill:none;stroke:red;stroke-width:1px;stroke-linecap:butt;stroke-linejoin:miter;stroke-opacity:1" d="M 940.559,580.192 934.619,560.391 z" id="boundary" inkscape:connector-curvature="0" />
	<path style="fill:none;stroke:red;stroke-width:1px;stroke-linecap:butt;stroke-linejoin:miter;stroke-opacity:1" d="M 934.619,560.391 934.619,540.591 z" id="boundary" inkscape:connector-curvature="0" />
	<path style="fill:none;stroke:red;stroke-width:1px;stroke-linecap:butt;stroke-linejoin:miter;stroke-opacity:1" d="M 934.619,540.591 934.619,520.79 z" id="boundary" inkscape:connector-curvature="0" />
	<path style="fill:none;stroke:red;stroke-width:1px;stroke-linecap:butt;stroke-linejoin:miter;stroke-opacity:1" d="M 934.619,520.79 924.719,502.97 z" id="boundary" inkscape:connector-curvature="0" />
	<path style="fill:none;stroke:red;stroke-width:1px;stroke-linecap:butt;stroke-linejoin:miter;stroke-opacity:1" d="M 924.719,502.97 924.719,483.17 z" id="boundary" inkscape:connector-curvature="0" />
	<path style="fill:none;stroke:red;stroke-width:1px;stroke-linecap:butt;stroke-linejoin:miter;stroke-opacity:1" d="M 924.719,483.17 914.818,465.349 z" id="boundary" inkscape:connector-curvature="0" />
	<path style="fill:none;stroke:red;stroke-width:1px;stroke-linecap:butt;stroke-linejoin:miter;stroke-opacity:1" d="M 914.818,465.349 906.898,445.549 z" id="boundary" inkscape:connector-curvature="0" />
	<path style="fill:none;stroke:red;stroke-width:1px;stroke-linecap:butt;stroke-linejoin:miter;stroke-opacity:1" d="M 906.898,445.549 891.058,431.689 z" id="boundary" inkscape:connector-curvature="0" />
	<path style="fill:none;stroke:red;stroke-width:1px;stroke-linecap:butt;stroke-linejoin:miter;stroke-opacity:1" d="M 891.058,431.689 885.118,411.888 z" id="boundary" inkscape:connector-curvature="0" />
	<path style="fill:none;stroke:red;stroke-width:1px;stroke-linecap:butt;stroke-linejoin:miter;stroke-opacity:1" d="M 885.118,411.888 867.297,382.188 z" id="boundary" inkscape:connector-curvature="0" />
	<path style="fill:none;stroke:red;stroke-width:1px;stroke-linecap:butt;stroke-linejoin:miter;stroke-opacity:1" d="M 867.297,382.188 867.297,401.988 z" id="boundary" inkscape:connector-curvature="0" />
	<path style="fill:none;stroke:red;stroke-width:1px;stroke-linecap:butt;stroke-linejoin:miter;stroke-opacity:1" d="M 867.297,401.988 867.297,421.788 z" id="boundary" inkscape:connector-curvature="0" />
	<path style="fill:none;stroke:red;stroke-width:1px;stroke-linecap:butt;stroke-linejoin:miter;stroke-opacity:1" d="M 867.297,421.788 867.297,441.589 z" id="boundary" inkscape:connector-curvature="0" />
	<path style="fill:none;stroke:red;stroke-width:1px;stroke-linecap:butt;stroke-linejoin:miter;stroke-opacity:1" d="M 867.297,441.589 867.297,461.389 z" id="boundary" inkscape:connector-curvature="0" />
	<path style="fill:none;stroke:red;stroke-width:1px;stroke-linecap:butt;stroke-linejoin:miter;stroke-opacity:1" d="M 867.297,461.389 867.297,481.19 z" id="boundary" inkscape:connector-curvature="0" />
	<path style="fill:none;stroke:red;stroke-width:1px;stroke-linecap:butt;stroke-linejoin:miter;stroke-opacity:1" d="M 867.297,481.19 867.297,500.99 z" id="boundary" inkscape:connector-curvature="0" />
	<path style="fill:none;stroke:red;stroke-width:1px;stroke-linecap:butt;stroke-linejoin:miter;stroke-opacity:1" d="M 867.297,500.99 867.297,520.79 z" id="boundary" inkscape:connector-curvature="0" />
	<path style="fill:none;stroke:red;stroke-width:1px;stroke-linecap:butt;stroke-linejoin:miter;stroke-opacity:1" d="M 867.297,520.79 867.297,540.591 z" id="boundary" inkscape:connector-curvature="0" />
	<path style="fill:none;stroke:red;stroke-width:1px;stroke-linecap:butt;stroke-linejoin:miter;stroke-opacity:1" d="M 867.297,540.591 857.397,560.391 z" id="boundary" inkscape:connector-curvature="0" />
	<path style="fill:none;stroke:red;stroke-width:1px;stroke-linecap:butt;stroke-linejoin:miter;stroke-opacity:1" d="M 857.397,560.391 855.417,594.052 z" id="boundary" inkscape:connector-curvature="0" />
	<path style="fill:none;stroke:red;stroke-width:1px;stroke-linecap:butt;stroke-linejoin:miter;stroke-opacity:1" d="M 855.417,594.052 845.517,613.852 z" id="boundary" inkscape:connector-curvature="0" />
	<path style="fill:none;stroke:red;stroke-width:1px;stroke-linecap:butt;stroke-linejoin:miter;stroke-opacity:1" d="M 845.517,613.852 825.717,619.792 z" id="boundary" inkscape:connector-curvature="0" />
	<path style="fill:none;stroke:red;stroke-width:1px;stroke-linecap:butt;stroke-linejoin:miter;stroke-opacity:1" d="M 825.717,619.792 805.916,611.872 z" id="boundary" inkscape:connector-curvature="0" />
	<path style="fill:none;stroke:red;stroke-width:1px;stroke-linecap:butt;stroke-linejoin:miter;stroke-opacity:1" d="M 805.916,611.872 796.016,594.052 z" id="boundary" inkscape:connector-curvature="0" />
	<path style="fill:none;stroke:red;stroke-width:1px;stroke-linecap:butt;stroke-linejoin:miter;stroke-opacity:1" d="M 796.016,594.052 805.916,574.251 z" id="boundary" inkscape:connector-curvature="0" />
	<path style="fill:none;stroke:red;stroke-width:1px;stroke-linecap:butt;stroke-linejoin:miter;stroke-opacity:1" d="M 805.916,574.251 805.916,554.451 z" id="boundary" inkscape:connector-curvature="0" />
	<path style="fill:none;stroke:red;stroke-width:1px;stroke-linecap:butt;stroke-linejoin:miter;stroke-opacity:1" d="M 805.916,554.451 805.916,534.651 z" id="boundary" inkscape:connector-curvature="0" />
	<path style="fill:none;stroke:red;stroke-width:1px;stroke-linecap:butt;stroke-linejoin:miter;stroke-opacity:1" d="M 805.916,534.651 815.816,512.87 z" id="boundary" inkscape:connector-curvature="0" />
	<path style="fill:none;stroke:red;stroke-width:1px;stroke-linecap:butt;stroke-linejoin:miter;stroke-opacity:1" d="M 815.816,512.87 805.916,495.05 z" id="boundary" inkscape:connector-curvature="0" />
	<path style="fill:none;stroke:red;stroke-width:1px;stroke-linecap:butt;stroke-linejoin:miter;stroke-opacity:1" d="M 805.916,495.05 805.916,473.269 z" id="boundary" inkscape:connector-curvature="0" />
	<path style="fill:none;stroke:red;stroke-width:1px;stroke-linecap:butt;stroke-linejoin:miter;stroke-opacity:1" d="M 805.916,473.269 805.916,453.469 z" id="boundary" inkscape:connector-curvature="0" />
	<path style="fill:none;stroke:red;stroke-width:1px;stroke-linecap:butt;stroke-linejoin:miter;stroke-opacity:1" d="M 805.916,453.469 796.016,435.649 z" id="boundary" inkscape:connector-curvature="0" />
	<path style="fill:none;stroke:red;stroke-width:1px;stroke-linecap:butt;stroke-linejoin:miter;stroke-opacity:1" d="M 796.016,435.649 796.016,403.968 z" id="boundary" inkscape:connector-curvature="0" />
	<path style="fill:none;stroke:red;stroke-width:1px;stroke-linecap:butt;stroke-linejoin:miter;stroke-opacity:1" d="M 796.016,403.968 796.016,384.168 z" id="boundary" inkscape:connector-curvature="0" />
	<path style="fill:none;stroke:red;stroke-width:1px;stroke-linecap:butt;stroke-linejoin:miter;stroke-opacity:1" d="M 796.016,384.168 786.116,366.347 z" id="boundary" inkscape:connector-curvature="0" />
	<path style="fill:none;stroke:red;stroke-width:1px;stroke-linecap:butt;stroke-linejoin:miter;stroke-opacity:1" d="M 786.116,366.347 776.216,348.527 z" id="boundary" inkscape:connector-curvature="0" />
	<path style="fill:none;stroke:red;stroke-width:1px;stroke-linecap:butt;stroke-linejoin:miter;stroke-opacity:1" d="M 776.216,348.527 762.355,332.687 z" id="boundary" inkscape:connector-curvature="0" />
	<path style="fill:none;stroke:red;stroke-width:1px;stroke-linecap:butt;stroke-linejoin:miter;stroke-opacity:1" d="M 762.355,332.687 742.555,340.607 z" id="boundary" inkscape:connector-curvature="0" />
	<path style="fill:none;stroke:red;stroke-width:1px;stroke-linecap:butt;stroke-linejoin:miter;stroke-opacity:1" d="M 742.555,340.607 722.754,350.507 z" id="boundary" inkscape:connector-curvature="0" />
	<path style="fill:none;stroke:red;stroke-width:1px;stroke-linecap:butt;stroke-linejoin:miter;stroke-opacity:1" d="M 722.754,350.507 706.914,362.387 z" id="boundary" inkscape:connector-curvature="0" />
	<path style="fill:none;stroke:red;stroke-width:1px;stroke-linecap:butt;stroke-linejoin:miter;stroke-opacity:1" d="M 706.914,362.387 687.114,362.387 z" id="boundary" inkscape:connector-curvature="0" />
	<path style="fill:none;stroke:red;stroke-width:1px;stroke-linecap:butt;stroke-linejoin:miter;stroke-opacity:1" d="M 687.114,362.387 669.293,372.287 z" id="boundary" inkscape:connector-curvature="0" />
	<path style="fill:none;stroke:red;stroke-width:1px;stroke-linecap:butt;stroke-linejoin:miter;stroke-opacity:1" d="M 669.293,372.287 649.493,372.287 z" id="boundary" inkscape:connector-curvature="0" />
	<path style="fill:none;stroke:red;stroke-width:1px;stroke-linecap:butt;stroke-linejoin:miter;stroke-opacity:1" d="M 649.493,372.287 629.693,372.287 z" id="boundary" inkscape:connector-curvature="0" />
	<path style="fill:none;stroke:red;stroke-width:1px;stroke-linecap:butt;stroke-linejoin:miter;stroke-opacity:1" d="M 629.693,372.287 609.892,372.287 z" id="boundary" inkscape:connector-curvature="0" />
	<path style="fill:none;stroke:red;stroke-width:1px;stroke-linecap:butt;stroke-linejoin:miter;stroke-opacity:1" d="M 609.892,372.287 590.092,372.287 z" id="boundary" inkscape:connector-curvature="0" />
	<path style="fill:none;stroke:red;stroke-width:1px;stroke-linecap:butt;stroke-linejoin:miter;stroke-opacity:1" d="M 590.092,372.287 570.291,372.287 z" id="boundary" inkscape:connector-curvature="0" />
	<path style="fill:none;stroke:red;stroke-width:1px;stroke-linecap:butt;stroke-linejoin:miter;stroke-opacity:1" d="M 570.291,372.287 560.391,401.988 z" id="boundary" inkscape:connector-curvature="0" />
	<path style="fill:none;stroke:red;stroke-width:1px;stroke-linecap:butt;stroke-linejoin:miter;stroke-opacity:1" d="M 560.391,401.988 550.491,431.689 z" id="boundary" inkscape:connector-curvature="0" />
	<path style="fill:none;stroke:red;stroke-width:1px;stroke-linecap:butt;stroke-linejoin:miter;stroke-opacity:1" d="M 550.491,431.689 550.491,451.489 z" id="boundary" inkscape:connector-curvature="0" />
	<path style="fill:none;stroke:red;stroke-width:1px;stroke-linecap:butt;stroke-linejoin:miter;stroke-opacity:1" d="M 550.491,451.489 540.591,471.289 z" id="boundary" inkscape:connector-curvature="0" />
	<path style="fill:none;stroke:red;stroke-width:1px;stroke-linecap:butt;stroke-linejoin:miter;stroke-opacity:1" d="M 540.591,471.289 540.591,491.09 z" id="boundary" inkscape:connector-curvature="0" />
	<path style="fill:none;stroke:red;stroke-width:1px;stroke-linecap:butt;stroke-linejoin:miter;stroke-opacity:1" d="M 540.591,491.09 530.691,510.89 z" id="boundary" inkscape:connector-curvature="0" />
	<path style="fill:none;stroke:red;stroke-width:1px;stroke-linecap:butt;stroke-linejoin:miter;stroke-opacity:1" d="M 530.691,510.89 520.79,540.591 z" id="boundary" inkscape:connector-curvature="0" />
	<path style="fill:none;stroke:red;stroke-width:1px;stroke-linecap:butt;stroke-linejoin:miter;stroke-opacity:1" d="M 520.79,540.591 520.79,570.291 z" id="boundary" inkscape:connector-curvature="0" />
	<path style="fill:none;stroke:red;stroke-width:1px;stroke-linecap:butt;stroke-linejoin:miter;stroke-opacity:1" d="M 520.79,570.291 520.79,590.092 z" id="boundary" inkscape:connector-curvature="0" />
	<path style="fill:none;stroke:red;stroke-width:1px;stroke-linecap:butt;stroke-linejoin:miter;stroke-opacity:1" d="M 520.79,590.092 510.89,609.892 z" id="boundary" inkscape:connector-curvature="0" />
	<path style="fill:none;stroke:red;stroke-width:1px;stroke-linecap:butt;stroke-linejoin:miter;stroke-opacity:1" d="M 510.89,609.892 510.89,629.693 z" id="boundary" inkscape:connector-curvature="0" />
	<path style="fill:none;stroke:red;stroke-width:1px;stroke-linecap:butt;stroke-linejoin:miter;stroke-opacity:1" d="M 510.89,629.693 510.89,649.493 z" id="boundary" inkscape:connector-curvature="0" />
	<path style="fill:none;stroke:red;stroke-width:1px;stroke-linecap:butt;stroke-linejoin:miter;stroke-opacity:1" d="M 510.89,649.493 500.99,669.293 z" id="boundary" inkscape:connector-curvature="0" />
	<path style="fill:none;stroke:red;stroke-width:1px;stroke-linecap:butt;stroke-linejoin:miter;stroke-opacity:1" d="M 500.99,669.293 500.99,689.094 z" id="boundary" inkscape:connector-curvature="0" />
	<path style="fill:none;stroke:red;stroke-width:1px;stroke-linecap:butt;stroke-linejoin:miter;stroke-opacity:1" d="M 500.99,689.094 491.09,708.894 z" id="boundary" inkscape:connector-curvature="0" />
	<path style="fill:none;stroke:red;stroke-width:1px;stroke-linecap:butt;stroke-linejoin:miter;stroke-opacity:1" d="M 491.09,708.894 471.289,708.894 z" id="boundary" inkscape:connector-curvature="0" />
	<path style="fill:none;stroke:red;stroke-width:1px;stroke-linecap:butt;stroke-linejoin:miter;stroke-opacity:1" d="M 471.289,708.894 451.489,708.894 z" id="boundary" inkscape:connector-curvature="0" />
	<path style="fill:none;stroke:red;stroke-width:1px;stroke-linecap:butt;stroke-linejoin:miter;stroke-opacity:1" d="M 451.489,708.894 439.609,693.054 z" id="boundary" inkscape:connector-curvature="0" />
	<path style="fill:none;stroke:red;stroke-width:1px;stroke-linecap:butt;stroke-linejoin:miter;stroke-opacity:1" d="M 439.609,693.054 439.609,673.253 z" id="boundary" inkscape:connector-curvature="0" />
	<path style="fill:none;stroke:red;stroke-width:1px;stroke-linecap:butt;stroke-linejoin:miter;stroke-opacity:1" d="M 439.609,673.253 449.509,653.453 z" id="boundary" inkscape:connector-curvature="0" />
	<path style="fill:none;stroke:red;stroke-width:1px;stroke-linecap:butt;stroke-linejoin:miter;stroke-opacity:1" d="M 449.509,653.453 459.409,633.653 z" id="boundary" inkscape:connector-curvature="0" />
	<path style="fill:none;stroke:red;stroke-width:1px;stroke-linecap:butt;stroke-linejoin:miter;stroke-opacity:1" d="M 459.409,633.653 459.409,613.852 z" id="boundary" inkscape:connector-curvature="0" />
	<path style="fill:none;stroke:red;stroke-width:1px;stroke-linecap:butt;stroke-linejoin:miter;stroke-opacity:1" d="M 459.409,613.852 469.309,594.052 z" id="boundary" inkscape:connector-curvature="0" />
	<path style="fill:none;stroke:red;stroke-width:1px;stroke-linecap:butt;stroke-linejoin:miter;stroke-opacity:1" d="M 469.309,594.052 469.309,574.251 z" id="boundary" inkscape:connector-curvature="0" />
	<path style="fill:none;stroke:red;stroke-width:1px;stroke-linecap:butt;stroke-linejoin:miter;stroke-opacity:1" d="M 469.309,574.251 479.21,540.591 z" id="boundary" inkscape:connector-curvature="0" />
	<path style="fill:none;stroke:red;stroke-width:1px;stroke-linecap:butt;stroke-linejoin:miter;stroke-opacity:1" d="M 479.21,540.591 479.21,520.79 z" id="boundary" inkscape:connector-curvature="0" />
	<path style="fill:none;stroke:red;stroke-width:1px;stroke-linecap:butt;stroke-linejoin:miter;stroke-opacity:1" d="M 479.21,520.79 479.21,500.99 z" id="boundary" inkscape:connector-curvature="0" />
	<path style="fill:none;stroke:red;stroke-width:1px;stroke-linecap:butt;stroke-linejoin:miter;stroke-opacity:1" d="M 479.21,500.99 489.11,471.289 z" id="boundary" inkscape:connector-curvature="0" />
	<path style="fill:none;stroke:red;stroke-width:1px;stroke-linecap:butt;stroke-linejoin:miter;stroke-opacity:1" d="M 489.11,471.289 489.11,451.489 z" id="boundary" inkscape:connector-curvature="0" />
	<path style="fill:none;stroke:red;stroke-width:1px;stroke-linecap:butt;stroke-linejoin:miter;stroke-opacity:1" d="M 489.11,451.489 471.289,441.589 z" id="boundary" inkscape:connector-curvature="0" />
	<path style="fill:none;stroke:red;stroke-width:1px;stroke-linecap:butt;stroke-linejoin:miter;stroke-opacity:1" d="M 471.289,441.589 461.389,471.289 z" id="boundary" inkscape:connector-curvature="0" />
	<path style="fill:none;stroke:red;stroke-width:1px;stroke-linecap:butt;stroke-linejoin:miter;stroke-opacity:1" d="M 461.389,471.289 461.389,491.09 z" id="boundary" inkscape:connector-curvature="0" />
	<path style="fill:none;stroke:red;stroke-width:1px;stroke-linecap:butt;stroke-linejoin:miter;stroke-opacity:1" d="M 461.389,491.09 461.389,510.89 z" id="boundary" inkscape:connector-curvature="0" />
	<path style="fill:none;stroke:red;stroke-width:1px;stroke-linecap:butt;stroke-linejoin:miter;stroke-opacity:1" d="M 461.389,510.89 451.489,540.591 z" id="boundary" inkscape:connector-curvature="0" />
	<path style="fill:none;stroke:red;stroke-width:1px;stroke-linecap:butt;stroke-linejoin:miter;stroke-opacity:1" d="M 451.489,540.591 441.589,570.291 z" id="boundary" inkscape:connector-curvature="0" />
	<path style="fill:none;stroke:red;stroke-width:1px;stroke-linecap:butt;stroke-linejoin:miter;stroke-opacity:1" d="M 441.589,570.291 441.589,590.092 z" id="boundary" inkscape:connector-curvature="0" />
	<path style="fill:none;stroke:red;stroke-width:1px;stroke-linecap:butt;stroke-linejoin:miter;stroke-opacity:1" d="M 441.589,590.092 431.689,609.892 z" id="boundary" inkscape:connector-curvature="0" />
	<path style="fill:none;stroke:red;stroke-width:1px;stroke-linecap:butt;stroke-linejoin:miter;stroke-opacity:1" d="M 431.689,609.892 421.788,629.693 z" id="boundary" inkscape:connector-curvature="0" />
	<path style="fill:none;stroke:red;stroke-width:1px;stroke-linecap:butt;stroke-linejoin:miter;stroke-opacity:1" d="M 421.788,629.693 411.888,649.493 z" id="boundary" inkscape:connector-curvature="0" />
	<path style="fill:none;stroke:red;stroke-width:1px;stroke-linecap:butt;stroke-linejoin:miter;stroke-opacity:1" d="M 411.888,649.493 392.088,649.493 z" id="boundary" inkscape:connector-curvature="0" />
	<path style="fill:none;stroke:red;stroke-width:1px;stroke-linecap:butt;stroke-linejoin:miter;stroke-opacity:1" d="M 392.088,649.493 372.287,649.493 z" id="boundary" inkscape:connector-curvature="0" />
	<path style="fill:none;stroke:red;stroke-width:1px;stroke-linecap:butt;stroke-linejoin:miter;stroke-opacity:1" d="M 372.287,649.493 360.407,633.653 z" id="boundary" inkscape:connector-curvature="0" />
	<path style="fill:none;stroke:red;stroke-width:1px;stroke-linecap:butt;stroke-linejoin:miter;stroke-opacity:1" d="M 360.407,633.653 380.208,613.852 z" id="boundary" inkscape:connector-curvature="0" />
	<path style="fill:none;stroke:red;stroke-width:1px;stroke-linecap:butt;stroke-linejoin:miter;stroke-opacity:1" d="M 380.208,613.852 380.208,594.052 z" id="boundary" inkscape:connector-curvature="0" />
	<path style="fill:none;stroke:red;stroke-width:1px;stroke-linecap:butt;stroke-linejoin:miter;stroke-opacity:1" d="M 380.208,594.052 400.008,574.251 z" id="boundary" inkscape:connector-curvature="0" />
	<path style="fill:none;stroke:red;stroke-width:1px;stroke-linecap:butt;stroke-linejoin:miter;stroke-opacity:1" d="M 400.008,574.251 409.908,554.451 z" id="boundary" inkscape:connector-curvature="0" />
	<path style="fill:none;stroke:red;stroke-width:1px;stroke-linecap:butt;stroke-linejoin:miter;stroke-opacity:1" d="M 409.908,554.451 419.808,524.75 z" id="boundary" inkscape:connector-curvature="0" />
	<path style="fill:none;stroke:red;stroke-width:1px;stroke-linecap:butt;stroke-linejoin:miter;stroke-opacity:1" d="M 419.808,524.75 419.808,504.95 z" id="boundary" inkscape:connector-curvature="0" />
	<path style="fill:none;stroke:red;stroke-width:1px;stroke-linecap:butt;stroke-linejoin:miter;stroke-opacity:1" d="M 419.808,504.95 419.808,485.15 z" id="boundary" inkscape:connector-curvature="0" />
	<path style="fill:none;stroke:red;stroke-width:1px;stroke-linecap:butt;stroke-linejoin:miter;stroke-opacity:1" d="M 419.808,485.15 429.709,455.449 z" id="boundary" inkscape:connector-curvature="0" />
	<path style="fill:none;stroke:red;stroke-width:1px;stroke-linecap:butt;stroke-linejoin:miter;stroke-opacity:1" d="M 429.709,455.449 429.709,435.649 z" id="boundary" inkscape:connector-curvature="0" />
	<path style="fill:none;stroke:red;stroke-width:1px;stroke-linecap:butt;stroke-linejoin:miter;stroke-opacity:1" d="M 429.709,435.649 429.709,415.848 z" id="boundary" inkscape:connector-curvature="0" />
	<path style="fill:none;stroke:red;stroke-width:1px;stroke-linecap:butt;stroke-linejoin:miter;stroke-opacity:1" d="M 429.709,415.848 439.609,396.048 z" id="boundary" inkscape:connector-curvature="0" />
	<path style="fill:none;stroke:red;stroke-width:1px;stroke-linecap:butt;stroke-linejoin:miter;stroke-opacity:1" d="M 439.609,396.048 425.749,380.208 z" id="boundary" inkscape:connector-curvature="0" />
	<path style="fill:none;stroke:red;stroke-width:1px;stroke-linecap:butt;stroke-linejoin:miter;stroke-opacity:1" d="M 425.749,380.208 409.908,366.347 z" id="boundary" inkscape:connector-curvature="0" />
	<path style="fill:none;stroke:red;stroke-width:1px;stroke-linecap:butt;stroke-linejoin:miter;stroke-opacity:1" d="M 409.908,366.347 392.088,356.447 z" id="boundary" inkscape:connector-curvature="0" />
	<path style="fill:none;stroke:red;stroke-width:1px;stroke-linecap:butt;stroke-linejoin:miter;stroke-opacity:1" d="M 392.088,356.447 372.287,348.527 z" id="boundary" inkscape:connector-curvature="0" />
	<path style="fill:none;stroke:red;stroke-width:1px;stroke-linecap:butt;stroke-linejoin:miter;stroke-opacity:1" d="M 372.287,348.527 358.427,332.687 z" id="boundary" inkscape:connector-curvature="0" />
	<path style="fill:none;stroke:red;stroke-width:1px;stroke-linecap:butt;stroke-linejoin:miter;stroke-opacity:1" d="M 358.427,332.687 340.607,322.786 z" id="boundary" inkscape:connector-curvature="0" />
	<path style="fill:none;stroke:red;stroke-width:1px;stroke-linecap:butt;stroke-linejoin:miter;stroke-opacity:1" d="M 340.607,322.786 322.786,312.886 z" id="boundary" inkscape:connector-curvature="0" />
	<path style="fill:none;stroke:red;stroke-width:1px;stroke-linecap:butt;stroke-linejoin:miter;stroke-opacity:1" d="M 322.786,312.886 304.966,302.986 z" id="boundary" inkscape:connector-curvature="0" />
	<path style="fill:none;stroke:red;stroke-width:1px;stroke-linecap:butt;stroke-linejoin:miter;stroke-opacity:1" d="M 304.966,302.986 287.146,293.086 z" id="boundary" inkscape:connector-curvature="0" />
	<path style="fill:none;stroke:red;stroke-width:1px;stroke-linecap:butt;stroke-linejoin:miter;stroke-opacity:1" d="M 287.146,293.086 269.325,283.186 z" id="boundary" inkscape:connector-curvature="0" />
	<path style="fill:none;stroke:red;stroke-width:1px;stroke-linecap:butt;stroke-linejoin:miter;stroke-opacity:1" d="M 269.325,283.186 251.505,273.285 z" id="boundary" inkscape:connector-curvature="0" />
	<path style="fill:none;stroke:red;stroke-width:1px;stroke-linecap:butt;stroke-linejoin:miter;stroke-opacity:1" d="M 251.505,273.285 231.705,267.345 z" id="boundary" inkscape:connector-curvature="0" />
	<path style="fill:none;stroke:red;stroke-width:1px;stroke-linecap:butt;stroke-linejoin:miter;stroke-opacity:1" d="M 231.705,267.345 213.884,257.445 z" id="boundary" inkscape:connector-curvature="0" />
	<path style="fill:none;stroke:red;stroke-width:1px;stroke-linecap:butt;stroke-linejoin:miter;stroke-opacity:1" d="M 213.884,257.445 194.084,249.525 z" id="boundary" inkscape:connector-curvature="0" />
	<path style="fill:none;stroke:red;stroke-width:1px;stroke-linecap:butt;stroke-linejoin:miter;stroke-opacity:1" d="M 194.084,249.525 180.224,233.685 z" id="boundary" inkscape:connector-curvature="0" />
	<path style="fill:none;stroke:red;stroke-width:1px;stroke-linecap:butt;stroke-linejoin:miter;stroke-opacity:1" d="M 180.224,233.685 162.403,223.784 z" id="boundary" inkscape:connector-curvature="0" />
	<path style="fill:none;stroke:red;stroke-width:1px;stroke-linecap:butt;stroke-linejoin:miter;stroke-opacity:1" d="M 162.403,223.784 142.603,223.784 z" id="boundary" inkscape:connector-curvature="0" />
	<path style="fill:none;stroke:red;stroke-width:1px;stroke-linecap:butt;stroke-linejoin:miter;stroke-opacity:1" d="M 142.603,223.784 124.782,213.884 z" id="boundary" inkscape:connector-curvature="0" />
	<path style="fill:none;stroke:red;stroke-width:1px;stroke-linecap:butt;stroke-linejoin:miter;stroke-opacity:1" d="M 124.782,213.884 104.982,209.924 z" id="boundary" inkscape:connector-curvature="0" />
	<path style="fill:none;stroke:red;stroke-width:1px;stroke-linecap:butt;stroke-linejoin:miter;stroke-opacity:1" d="M 104.982,209.924 87.1617,200.024 z" id="boundary" inkscape:connector-curvature="0" />
	<path style="fill:none;stroke:red;stroke-width:1px;stroke-linecap:butt;stroke-linejoin:miter;stroke-opacity:1" d="M 87.1617,200.024 67.3613,194.084 z" id="boundary" inkscape:connector-curvature="0" />
	<path style="fill:none;stroke:red;stroke-width:1px;stroke-linecap:butt;stroke-linejoin:miter;stroke-opacity:1" d="M 67.3613,194.084 47.5609,190.124 z" id="boundary" inkscape:connector-curvature="0" />
	<path style="fill:none;stroke:red;stroke-width:1px;stroke-linecap:butt;stroke-linejoin:miter;stroke-opacity:1" d="M 47.5609,190.124 27.7605,182.204 z" id="boundary" inkscape:connector-curvature="0" />
	<path style="fill:none;stroke:red;stroke-width:1px;stroke-linecap:butt;stroke-linejoin:miter;stroke-opacity:1" d="M 27.7605,182.204 13.9002,166.363 z" id="boundary" inkscape:connector-curvature="0" />
	<path style="fill:none;stroke:red;stroke-width:1px;stroke-linecap:butt;stroke-linejoin:miter;stroke-opacity:1" d="M 13.9002,166.363 4,148.543 z" id="boundary" inkscape:connector-curvature="0" />
	<path style="fill:none;stroke:red;stroke-width:1px;stroke-linecap:butt;stroke-linejoin:miter;stroke-opacity:1" d="M 4,148.543 4,128.743 z" id="boundary" inkscape:connector-curvature="0" />
	<path style="fill:none;stroke:red;stroke-width:1px;stroke-linecap:butt;stroke-linejoin:miter;stroke-opacity:1" d="M 4,128.743 4,108.942 z" id="boundary" inkscape:connector-curvature="0" />
	<path style="fill:none;stroke:red;stroke-width:1px;stroke-linecap:butt;stroke-linejoin:miter;stroke-opacity:1" d="M 4,108.942 23.8004,99.0419 z" id="boundary" inkscape:connector-curvature="0" />
	<path style="fill:none;stroke:red;stroke-width:1px;stroke-linecap:butt;stroke-linejoin:miter;stroke-opacity:1" d="M 23.8004,99.0419 43.6008,93.1018 z" id="boundary" inkscape:connector-curvature="0" />
	<path style="fill:none;stroke:red;stroke-width:1px;stroke-linecap:butt;stroke-linejoin:miter;stroke-opacity:1" d="M 43.6008,93.1018 61.4212,83.2016 z" id="boundary" inkscape:connector-curvature="0" />
	<path style="fill:none;stroke:red;stroke-width:1px;stroke-linecap:butt;stroke-linejoin:miter;stroke-opacity:1" d="M 61.4212,83.2016 79.2415,73.3014 z" id="boundary" inkscape:connector-curvature="0" />
	<path style="fill:none;stroke:red;stroke-width:1px;stroke-linecap:butt;stroke-linejoin:miter;stroke-opacity:1" d="M 79.2415,73.3014 99.0419,63.4012 z" id="boundary" inkscape:connector-curvature="0" />
	<path style="fill:none;stroke:red;stroke-width:1px;stroke-linecap:butt;stroke-linejoin:miter;stroke-opacity:1" d="M 99.0419,63.4012 114.882,47.5609 z" id="boundary" inkscape:connector-curvature="0" />
	<path style="fill:none;stroke:red;stroke-width:1px;stroke-linecap:butt;stroke-linejoin:miter;stroke-opacity:1" d="M 114.882,47.5609 130.723,33.7006 z" id="boundary" inkscape:connector-curvature="0" />
	<path style="fill:none;stroke:red;stroke-width:1px;stroke-linecap:butt;stroke-linejoin:miter;stroke-opacity:1" d="M 130.723,33.7006 148.543,23.8004 z" id="boundary" inkscape:connector-curvature="0" />
	<path style="fill:none;stroke:red;stroke-width:1px;stroke-linecap:butt;stroke-linejoin:miter;stroke-opacity:1" d="M 148.543,23.8004 164.383,7.96008 z" id="boundary" inkscape:connector-curvature="0" />
	<path style="fill:none;stroke:red;stroke-width:1px;stroke-linecap:butt;stroke-linejoin:miter;stroke-opacity:1" d="M 164.383,7.96008 184.184,4 z" id="boundary" inkscape:connector-curvature="0" />
	<path style="fill:none;stroke:red;stroke-width:1px;stroke-linecap:butt;stroke-linejoin:miter;stroke-opacity:1" d="M 184.184,4 203.984,4 z" id="boundary" inkscape:connector-curvature="0" />
	<path style="fill:none;stroke:red;stroke-width:1px;stroke-linecap:butt;stroke-linejoin:miter;stroke-opacity:1" d="M 203.984,4 223.784,9.94012 z" id="boundary" inkscape:connector-curvature="0" />
	<path style="fill:none;stroke:red;stroke-width:1px;stroke-linecap:butt;stroke-linejoin:miter;stroke-opacity:1" d="M 223.784,9.94012 239.625,23.8004 z" id="boundary" inkscape:connector-curvature="0" />
	<path style="fill:none;stroke:red;stroke-width:1px;stroke-linecap:butt;stroke-linejoin:miter;stroke-opacity:1" d="M 239.625,23.8004 257.445,33.7006 z" id="boundary" inkscape:connector-curvature="0" />
	<path style="fill:none;stroke:red;stroke-width:1px;stroke-linecap:butt;stroke-linejoin:miter;stroke-opacity:1" d="M 257.445,33.7006 267.345,13.9002 z" id="boundary" inkscape:connector-curvature="0" />
	<path style="fill:none;stroke:red;stroke-width:1px;stroke-linecap:butt;stroke-linejoin:miter;stroke-opacity:1" d="M 267.345,13.9002 287.146,13.9002 z" id="boundary" inkscape:connector-curvature="0" />
	<path style="fill:none;stroke:red;stroke-width:1px;stroke-linecap:butt;stroke-linejoin:miter;stroke-opacity:1" d="M 287.146,13.9002 306.946,13.9002 z" id="boundary" inkscape:connector-curvature="0" />
	<path style="fill:none;stroke:red;stroke-width:1px;stroke-linecap:butt;stroke-linejoin:miter;stroke-opacity:1" d="M 306.946,13.9002 326.747,13.9002 z" id="boundary" inkscape:connector-curvature="0" />
	<path style="fill:none;stroke:red;stroke-width:1px;stroke-linecap:butt;stroke-linejoin:miter;stroke-opacity:1" d="M 326.747,13.9002 332.687,33.7006 z" id="boundary" inkscape:connector-curvature="0" />
	<path style="fill:none;stroke:red;stroke-width:1px;stroke-linecap:butt;stroke-linejoin:miter;stroke-opacity:1" d="M 332.687,33.7006 332.687,53.501 z" id="boundary" inkscape:connector-curvature="0" />
	<path style="fill:none;stroke:red;stroke-width:1px;stroke-linecap:butt;stroke-linejoin:miter;stroke-opacity:1" d="M 332.687,53.501 332.687,73.3014 z" id="boundary" inkscape:connector-curvature="0" />
	<path style="fill:none;stroke:red;stroke-width:1px;stroke-linecap:butt;stroke-linejoin:miter;stroke-opacity:1" d="M 332.687,73.3014 348.527,85.1816 z" id="boundary" inkscape:connector-curvature="0" />
	<path style="fill:none;stroke:red;stroke-width:1px;stroke-linecap:butt;stroke-linejoin:miter;stroke-opacity:1" d="M 348.527,85.1816 368.327,93.1018 z" id="boundary" inkscape:connector-curvature="0" />
	<path style="fill:none;stroke:red;stroke-width:1px;stroke-linecap:butt;stroke-linejoin:miter;stroke-opacity:1" d="M 368.327,93.1018 388.128,93.1018 z" id="boundary" inkscape:connector-curvature="0" />
	<path style="fill:none;stroke:red;stroke-width:1px;stroke-linecap:butt;stroke-linejoin:miter;stroke-opacity:1" d="M 388.128,93.1018 407.928,93.1018 z" id="boundary" inkscape:connector-curvature="0" />
	<path style="fill:none;stroke:red;stroke-width:1px;stroke-linecap:butt;stroke-linejoin:miter;stroke-opacity:1" d="M 407.928,93.1018 425.749,103.002 z" id="boundary" inkscape:connector-curvature="0" />
	<path style="fill:none;stroke:red;stroke-width:1px;stroke-linecap:butt;stroke-linejoin:miter;stroke-opacity:1" d="M 425.749,103.002 445.549,103.002 z" id="boundary" inkscape:connector-curvature="0" />
	<path style="fill:none;stroke:red;stroke-width:1px;stroke-linecap:butt;stroke-linejoin:miter;stroke-opacity:1" d="M 445.549,103.002 465.349,103.002 z" id="boundary" inkscape:connector-curvature="0" />
	<path style="fill:none;stroke:red;stroke-width:1px;stroke-linecap:butt;stroke-linejoin:miter;stroke-opacity:1" d="M 465.349,103.002 485.15,103.002 z" id="boundary" inkscape:connector-curvature="0" />
	<path style="fill:none;stroke:red;stroke-width:1px;stroke-linecap:butt;stroke-linejoin:miter;stroke-opacity:1" d="M 485.15,103.002 504.95,103.002 z" id="boundary" inkscape:connector-curvature="0" />
	<path style="fill:none;stroke:red;stroke-width:1px;stroke-linecap:butt;stroke-linejoin:miter;stroke-opacity:1" d="M 504.95,103.002 524.75,103.002 z" id="boundary" inkscape:connector-curvature="0" />
	<path style="fill:none;stroke:red;stroke-width:1px;stroke-linecap:butt;stroke-linejoin:miter;stroke-opacity:1" d="M 524.75,103.002 544.551,103.002 z" id="boundary" inkscape:connector-curvature="0" />
	<path style="fill:none;stroke:red;stroke-width:1px;stroke-linecap:butt;stroke-linejoin:miter;stroke-opacity:1" d="M 544.551,103.002 564.351,103.002 z" id="boundary" inkscape:connector-curvature="0" />
	<path style="fill:none;stroke:red;stroke-width:1px;stroke-linecap:butt;stroke-linejoin:miter;stroke-opacity:1" d="M 564.351,103.002 584.152,103.002 z" id="boundary" inkscape:connector-curvature="0" />
	<path style="fill:none;stroke:red;stroke-width:1px;stroke-linecap:butt;stroke-linejoin:miter;stroke-opacity:1" d="M 584.152,103.002 603.952,103.002 z" id="boundary" inkscape:connector-curvature="0" />
	<path style="fill:none;stroke:red;stroke-width:1px;stroke-linecap:butt;stroke-linejoin:miter;stroke-opacity:1" d="M 603.952,103.002 623.752,103.002 z" id="boundary" inkscape:connector-curvature="0" />
	<path style="fill:none;stroke:red;stroke-width:1px;stroke-linecap:butt;stroke-linejoin:miter;stroke-opacity:1" d="M 623.752,103.002 643.553,103.002 z" id="boundary" inkscape:connector-curvature="0" />
	<path style="fill:none;stroke:red;stroke-width:1px;stroke-linecap:butt;stroke-linejoin:miter;stroke-opacity:1" d="M 643.553,103.002 663.353,103.002 z" id="boundary" inkscape:connector-curvature="0" />
	<path style="fill:none;stroke:red;stroke-width:1px;stroke-linecap:butt;stroke-linejoin:miter;stroke-opacity:1" d="M 663.353,103.002 683.154,103.002 z" id="boundary" inkscape:connector-curvature="0" />
	<path style="fill:none;stroke:red;stroke-width:1px;stroke-linecap:butt;stroke-linejoin:miter;stroke-opacity:1" d="M 683.154,103.002 702.954,103.002 z" id="boundary" inkscape:connector-curvature="0" />
	<path style="fill:none;stroke:red;stroke-width:1px;stroke-linecap:butt;stroke-linejoin:miter;stroke-opacity:1" d="M 702.954,103.002 722.754,103.002 z" id="boundary" inkscape:connector-curvature="0" />
	<path style="fill:none;stroke:red;stroke-width:1px;stroke-linecap:butt;stroke-linejoin:miter;stroke-opacity:1" d="M 722.754,103.002 742.555,103.002 z" id="boundary" inkscape:connector-curvature="0" />
	<path style="fill:none;stroke:red;stroke-width:1px;stroke-linecap:butt;stroke-linejoin:miter;stroke-opacity:1" d="M 742.555,103.002 762.355,103.002 z" id="boundary" inkscape:connector-curvature="0" />
	<path style="fill:none;stroke:red;stroke-width:1px;stroke-linecap:butt;stroke-linejoin:miter;stroke-opacity:1" d="M 762.355,103.002 782.156,103.002 z" id="boundary" inkscape:connector-curvature="0" />
	<path style="fill:none;stroke:red;stroke-width:1px;stroke-linecap:butt;stroke-linejoin:miter;stroke-opacity:1" d="M 782.156,103.002 801.956,103.002 z" id="boundary" inkscape:connector-curvature="0" />
	<path style="fill:none;stroke:red;stroke-width:1px;stroke-linecap:butt;stroke-linejoin:miter;stroke-opacity:1" d="M 801.956,103.002 821.756,103.002 z" id="boundary" inkscape:connector-curvature="0" />
	<path style="fill:none;stroke:red;stroke-width:1px;stroke-linecap:butt;stroke-linejoin:miter;stroke-opacity:1" d="M 821.756,103.002 841.557,103.002 z" id="boundary" inkscape:connector-curvature="0" />
	<path style="fill:none;stroke:red;stroke-width:1px;stroke-linecap:butt;stroke-linejoin:miter;stroke-opacity:1" d="M 841.557,103.002 861.357,103.002 z" id="boundary" inkscape:connector-curvature="0" />
	<path style="fill:none;stroke:red;stroke-width:1px;stroke-linecap:butt;stroke-linejoin:miter;stroke-opacity:1" d="M 861.357,103.002 881.158,103.002 z" id="boundary" inkscape:connector-curvature="0" />
	<path style="fill:none;stroke:red;stroke-width:1px;stroke-linecap:butt;stroke-linejoin:miter;stroke-opacity:1" d="M 881.158,103.002 898.978,112.902 z" id="boundary" inkscape:connector-curvature="0" />
	<path style="fill:none;stroke:red;stroke-width:1px;stroke-linecap:butt;stroke-linejoin:miter;stroke-opacity:1" d="M 898.978,112.902 906.898,132.703 z" id="boundary" inkscape:connector-curvature="0" />
	<path style="fill:none;stroke:red;stroke-width:1px;stroke-linecap:butt;stroke-linejoin:miter;stroke-opacity:1" d="M 906.898,132.703 924.719,142.603 z" id="boundary" inkscape:connector-curvature="0" />
	<path style="fill:none;stroke:red;stroke-width:1px;stroke-linecap:butt;stroke-linejoin:miter;stroke-opacity:1" d="M 924.719,142.603 936.599,158.443 z" id="boundary" inkscape:connector-curvature="0" />
	<path style="fill:none;stroke:red;stroke-width:1px;stroke-linecap:butt;stroke-linejoin:miter;stroke-opacity:1" d="M 936.599,158.443 936.599,178.244 z" id="boundary" inkscape:connector-curvature="0" />
	<path style="fill:none;stroke:red;stroke-width:1px;stroke-linecap:butt;stroke-linejoin:miter;stroke-opacity:1" d="M 936.599,178.244 946.499,196.064 z" id="boundary" inkscape:connector-curvature="0" />
	<path style="fill:none;stroke:red;stroke-width:1px;stroke-linecap:butt;stroke-linejoin:miter;stroke-opacity:1" d="M 946.499,196.064 946.499,215.864 z" id="boundary" inkscape:connector-curvature="0" />
	<path style="fill:none;stroke:red;stroke-width:1px;stroke-linecap:butt;stroke-linejoin:miter;stroke-opacity:1" d="M 946.499,215.864 946.499,235.665 z" id="boundary" inkscape:connector-curvature="0" />
	<path style="fill:none;stroke:red;stroke-width:1px;stroke-linecap:butt;stroke-linejoin:miter;stroke-opacity:1" d="M 946.499,235.665 946.499,255.465 z" id="boundary" inkscape:connector-curvature="0" />
	<path style="fill:none;stroke:red;stroke-width:1px;stroke-linecap:butt;stroke-linejoin:miter;stroke-opacity:1" d="M 946.499,255.465 946.499,275.265 z" id="boundary" inkscape:connector-curvature="0" />
	<path style="fill:none;stroke:red;stroke-width:1px;stroke-linecap:butt;stroke-linejoin:miter;stroke-opacity:1" d="M 946.499,275.265 946.499,295.066 z" id="boundary" inkscape:connector-curvature="0" />
	<path style="fill:none;stroke:red;stroke-width:1px;stroke-linecap:butt;stroke-linejoin:miter;stroke-opacity:1" d="M 946.499,295.066 946.499,314.866 z" id="boundary" inkscape:connector-curvature="0" />
	<path style="fill:none;stroke:red;stroke-width:1px;stroke-linecap:butt;stroke-linejoin:miter;stroke-opacity:1" d="M 946.499,314.866 946.499,334.667 z" id="boundary" inkscape:connector-curvature="0" />
	<path style="fill:none;stroke:red;stroke-width:1px;stroke-linecap:butt;stroke-linejoin:miter;stroke-opacity:1" d="M 946.499,334.667 952.439,354.467 z" id="boundary" inkscape:connector-curvature="0" />
	<path style="fill:none;stroke:red;stroke-width:1px;stroke-linecap:butt;stroke-linejoin:miter;stroke-opacity:1" d="M 952.439,354.467 962.339,372.287 z" id="boundary" inkscape:connector-curvature="0" />
	<path style="fill:none;stroke:red;stroke-width:1px;stroke-linecap:butt;stroke-linejoin:miter;stroke-opacity:1" d="M 962.339,372.287 970.259,392.088 z" id="boundary" inkscape:connector-curvature="0" />
	<path style="fill:none;stroke:red;stroke-width:1px;stroke-linecap:butt;stroke-linejoin:miter;stroke-opacity:1" d="M 970.259,392.088 976.2,411.888 z" id="boundary" inkscape:connector-curvature="0" />
	<path style="fill:none;stroke:red;stroke-width:1px;stroke-linecap:butt;stroke-linejoin:miter;stroke-opacity:1" d="M 976.2,411.888 976.2,431.689 z" id="boundary" inkscape:connector-curvature="0" />
	<path style="fill:none;stroke:red;stroke-width:1px;stroke-linecap:butt;stroke-linejoin:miter;stroke-opacity:1" d="M 976.2,431.689 976.2,451.489 z" id="boundary" inkscape:connector-curvature="0" />
	<path style="fill:none;stroke:red;stroke-width:1px;stroke-linecap:butt;stroke-linejoin:miter;stroke-opacity:1" d="M 976.2,451.489 976.2,471.289 z" id="boundary" inkscape:connector-curvature="0" />
	<path style="fill:none;stroke:red;stroke-width:1px;stroke-linecap:butt;stroke-linejoin:miter;stroke-opacity:1" d="M 976.2,471.289 976.2,491.09 z" id="boundary" inkscape:connector-curvature="0" />
	<path style="fill:none;stroke:red;stroke-width:1px;stroke-linecap:butt;stroke-linejoin:miter;stroke-opacity:1" d="M 976.2,491.09 986.1,508.91 z" id="boundary" inkscape:connector-curvature="0" />
	<path style="fill:none;stroke:red;stroke-width:1px;stroke-linecap:butt;stroke-linejoin:miter;stroke-opacity:1" d="M 986.1,508.91 986.1,528.711 z" id="boundary" inkscape:connector-curvature="0" />
	<path style="fill:none;stroke:red;stroke-width:1px;stroke-linecap:butt;stroke-linejoin:miter;stroke-opacity:1" d="M 986.1,528.711 986.1,548.511 z" id="boundary" inkscape:connector-curvature="0" />
	<path style="fill:none;stroke:red;stroke-width:1px;stroke-linecap:butt;stroke-linejoin:miter;stroke-opacity:1" d="M 986.1,548.511 996,566.331 z" id="boundary" inkscape:connector-curvature="0" />
	<path style="fill:none;stroke:red;stroke-width:1px;stroke-linecap:butt;stroke-linejoin:miter;stroke-opacity:1" d="M 996,566.331 996,586.132 z" id="boundary" inkscape:connector-curvature="0" />
	<path style="fill:none;stroke:red;stroke-width:1px;stroke-linecap:butt;stroke-linejoin:miter;stroke-opacity:1" d="M 996,586.132 996,605.932 z" id="boundary" inkscape:connector-curvature="0" />
	<path style="fill:none;stroke:red;stroke-width:1px;stroke-linecap:butt;stroke-linejoin:miter;stroke-opacity:1" d="M 996,605.932 996,625.733 z" id="boundary" inkscape:connector-curvature="0" />
	<path style="fill:none;stroke:red;stroke-width:1px;stroke-linecap:butt;stroke-linejoin:miter;stroke-opacity:1" d="M 996,625.733 996,645.533 z" id="boundary" inkscape:connector-curvature="0" />
	<circle cx="4" cy="108.942" r="4" fill="#0" id="circle0"/>
	<circle cx="4" cy="128.743" r="4" fill="#0" id="circle1"/>
	<circle cx="4" cy="148.543" r="4" fill="#0" id="circle2"/>
	<circle cx="13.9002" cy="166.363" r="4" fill="#0" id="circle3"/>
	<circle cx="23.8004" cy="99.0419" r="4" fill="#0" id="circle4"/>
	<circle cx="27.7605" cy="182.204" r="4" fill="#0" id="circle5"/>
	<circle cx="43.6008" cy="93.1018" r="4" fill="#0" id="circle6"/>
	<circle cx="47.5609" cy="190.124" r="4" fill="#0" id="circle7"/>
	<circle cx="61.4212" cy="83.2016" r="4" fill="#0" id="circle8"/>
	<circle cx="67.3613" cy="194.084" r="4" fill="#0" id="circle9"/>
	<circle cx="79.2415" cy="73.3014" r="4" fill="#0" id="circle10"/>
	<circle cx="87.1617" cy="200.024" r="4" fill="#0" id="circle11"/>
	<circle cx="99.0419" cy="63.4012" r="4" fill="#0" id="circle12"/>
	<circle cx="104.982" cy="209.924" r="4" fill="#0" id="circle13"/>
	<circle cx="114.882" cy="47.5609" r="4" fill="#0" id="circle14"/>
	<circle cx="124.782" cy="213.884" r="4" fill="#0" id="circle15"/>
	<circle cx="130.723" cy="33.7006" r="4" fill="#0" id="circle16"/>
	<circle cx="142.603" cy="223.784" r="4" fill="#0" id="circle17"/>
	<circle cx="148.543" cy="23.8004" r="4" fill="#0" id="circle18"/>
	<circle cx="162.403" cy="223.784" r="4" fill="#0" id="circle19"/>
	<circle cx="164.383" cy="7.96008" r="4" fill="#0" id="circle20"/>
	<circle cx="180.224" cy="233.685" r="4" fill="#0" id="circle21"/>
	<circle cx="184.184" cy="4" r="4" fill="#0" id="circle22"/>
	<circle cx="194.084" cy="249.525" r="4" fill="#0" id="circle23"/>
	<circle cx="203.984" cy="4" r="4" fill="#0" id="circle24"/>
	<circle cx="213.884" cy="257.445" r="4" fill="#0" id="circle25"/>
	<circle cx="223.784" cy="9.94012" r="4" fill="#0" id="circle26"/>
	<circle cx="231.705" cy="267.345" r="4" fill="#0" id="circle27"/>
	<circle cx="239.625" cy="23.8004" r="4" fill="#0" id="circle28"/>
	<circle cx="251.505" cy="273.285" r="4" fill="#0" id="circle29"/>
	<circle cx="257.445" cy="33.7006" r="4" fill="#0" id="circle30"/>
	<circle cx="267.345" cy="13.9002" r="4" fill="#0" id="circle31"/>
	<circle cx="269.325" cy="283.186" r="4" fill="#0" id="circle32"/>
	<circle cx="287.146" cy="13.9002" r="4" fill="#0" id="circle33"/>
	<circle cx="287.146" cy="293.086" r="4" fill="#0" id="circle34"/>
	<circle cx="304.966" cy="302.986" r="4" fill="#0" id="circle35"/>
	<circle cx="306.946" cy="13.9002" r="4" fill="#0" id="circle36"/>
	<circle cx="322.786" cy="312.886" r="4" fill="#0" id="circle37"/>
	<circle cx="326.747" cy="13.9002" r="4" fill="#0" id="circle38"/>
	<circle cx="332.687" cy="33.7006" r="4" fill="#0" id="circle39"/>
	<circle cx="332.687" cy="53.501" r="4" fill="#0" id="circle40"/>
	<circle cx="332.687" cy="73.3014" r="4" fill="#0" id="circle41"/>
	<circle cx="340.607" cy="322.786" r="4" fill="#0" id="circle42"/>
	<circle cx="348.527" cy="85.1816" r="4" fill="#0" id="circle43"/>
	<circle cx="358.427" cy="332.687" r="4" fill="#0" id="circle44"/>
	<circle cx="360.407" cy="633.653" r="4" fill="#0" id="circle45"/>
	<circle cx="368.327" cy="93.1018" r="4" fill="#0" id="circle46"/>
	<circle cx="372.287" cy="348.527" r="4" fill="#0" id="circle47"/>
	<circle cx="372.287" cy="649.493" r="4" fill="#0" id="circle48"/>
	<circle cx="380.208" cy="594.052" r="4" fill="#0" id="circle49"/>
	<circle cx="380.208" cy="613.852" r="4" fill="#0" id="circle50"/>
	<circle cx="388.128" cy="93.1018" r="4" fill="#0" id="circle51"/>
	<circle cx="392.088" cy="356.447" r="4" fill="#0" id="circle52"/>
	<circle cx="392.088" cy="649.493" r="4" fill="#0" id="circle53"/>
	<circle cx="400.008" cy="574.251" r="4" fill="#0" id="circle54"/>
	<circle cx="407.928" cy="93.1018" r="4" fill="#0" id="circle55"/>
	<circle cx="409.908" cy="366.347" r="4" fill="#0" id="circle56"/>
	<circle cx="409.908" cy="554.451" r="4" fill="#0" id="circle57"/>
	<circle cx="411.888" cy="649.493" r="4" fill="#0" id="circle58"/>
	<circle cx="419.808" cy="485.15" r="4" fill="#0" id="circle59"/>
	<circle cx="419.808" cy="504.95" r="4" fill="#0" id="circle60"/>
	<circle cx="419.808" cy="524.75" r="4" fill="#0" id="circle61"/>
	<circle cx="421.788" cy="629.693" r="4" fill="#0" id="circle62"/>
	<circle cx="425.749" cy="103.002" r="4" fill="#0" id="circle63"/>
	<circle cx="425.749" cy="380.208" r="4" fill="#0" id="circle64"/>
	<circle cx="429.709" cy="415.848" r="4" fill="#0" id="circle65"/>
	<circle cx="429.709" cy="435.649" r="4" fill="#0" id="circle66"/>
	<circle cx="429.709" cy="455.449" r="4" fill="#0" id="circle67"/>
	<circle cx="431.689" cy="609.892" r="4" fill="#0" id="circle68"/>
	<circle cx="439.609" cy="396.048" r="4" fill="#0" id="circle69"/>
	<circle cx="439.609" cy="673.253" r="4" fill="#0" id="circle70"/>
	<circle cx="439.609" cy="693.054" r="4" fill="#0" id="circle71"/>
	<circle cx="441.589" cy="570.291" r="4" fill="#0" id="circle72"/>
	<circle cx="441.589" cy="590.092" r="4" fill="#0" id="circle73"/>
	<circle cx="445.549" cy="103.002" r="4" fill="#0" id="circle74"/>
	<circle cx="449.509" cy="653.453" r="4" fill="#0" id="circle75"/>
	<circle cx="451.489" cy="540.591" r="4" fill="#0" id="circle76"/>
	<circle cx="451.489" cy="708.894" r="4" fill="#0" id="circle77"/>
	<circle cx="459.409" cy="613.852" r="4" fill="#0" id="circle78"/>
	<circle cx="459.409" cy="633.653" r="4" fill="#0" id="circle79"/>
	<circle cx="461.389" cy="471.289" r="4" fill="#0" id="circle80"/>
	<circle cx="461.389" cy="491.09" r="4" fill="#0" id="circle81"/>
	<circle cx="461.389" cy="510.89" r="4" fill="#0" id="circle82"/>
	<circle cx="465.349" cy="103.002" r="4" fill="#0" id="circle83"/>
	<circle cx="469.309" cy="574.251" r="4" fill="#0" id="circle84"/>
	<circle cx="469.309" cy="594.052" r="4" fill="#0" id="circle85"/>
	<circle cx="471.289" cy="441.589" r="4" fill="#0" id="circle86"/>
	<circle cx="471.289" cy="708.894" r="4" fill="#0" id="circle87"/>
	<circle cx="479.21" cy="500.99" r="4" fill="#0" id="circle88"/>
	<circle cx="479.21" cy="520.79" r="4" fill="#0" id="circle89"/>
	<circle cx="479.21" cy="540.591" r="4" fill="#0" id="circle90"/>
	<circle cx="485.15" cy="103.002" r="4" fill="#0" id="circle91"/>
	<circle cx="489.11" cy="451.489" r="4" fill="#0" id="circle92"/>
	<circle cx="489.11" cy="471.289" r="4" fill="#0" id="circle93"/>
	<circle cx="491.09" cy="708.894" r="4" fill="#0" id="circle94"/>
	<circle cx="500.99" cy="669.293" r="4" fill="#0" id="circle95"/>
	<circle cx="500.99" cy="689.094" r="4" fill="#0" id="circle96"/>
	<circle cx="504.95" cy="103.002" r="4" fill="#0" id="circle97"/>
	<circle cx="510.89" cy="609.892" r="4" fill="#0" id="circle98"/>
	<circle cx="510.89" cy="629.693" r="4" fill="#0" id="circle99"/>
	<circle cx="510.89" cy="649.493" r="4" fill="#0" id="circle100"/>
	<circle cx="520.79" cy="540.591" r="4" fill="#0" id="circle101"/>
	<circle cx="520.79" cy="570.291" r="4" fill="#0" id="circle102"/>
	<circle cx="520.79" cy="590.092" r="4" fill="#0" id="circle103"/>
	<circle cx="524.75" cy="103.002" r="4" fill="#0" id="circle104"/>
	<circle cx="530.691" cy="510.89" r="4" fill="#0" id="circle105"/>
	<circle cx="540.591" cy="471.289" r="4" fill="#0" id="circle106"/>
	<circle cx="540.591" cy="491.09" r="4" fill="#0" id="circle107"/>
	<circle cx="544.551" cy="103.002" r="4" fill="#0" id="circle108"/>
	<circle cx="550.491" cy="431.689" r="4" fill="#0" id="circle109"/>
	<circle cx="550.491" cy="451.489" r="4" fill="#0" id="circle110"/>
	<circle cx="560.391" cy="401.988" r="4" fill="#0" id="circle111"/>
	<circle cx="564.351" cy="103.002" r="4" fill="#0" id="circle112"/>
	<circle cx="570.291" cy="372.287" r="4" fill="#0" id="circle113"/>
	<circle cx="584.152" cy="103.002" r="4" fill="#0" id="circle114"/>
	<circle cx="590.092" cy="372.287" r="4" fill="#0" id="circle115"/>
	<circle cx="603.952" cy="103.002" r="4" fill="#0" id="circle116"/>
	<circle cx="609.892" cy="372.287" r="4" fill="#0" id="circle117"/>
	<circle cx="623.752" cy="103.002" r="4" fill="#0" id="circle118"/>
	<circle cx="629.693" cy="372.287" r="4" fill="#0" id="circle119"/>
	<circle cx="643.553" cy="103.002" r="4" fill="#0" id="circle120"/>
	<circle cx="649.493" cy="372.287" r="4" fill="#0" id="circle121"/>
	<circle cx="663.353" cy="103.002" r="4" fill="#0" id="circle122"/>
	<circle cx="669.293" cy="372.287" r="4" fill="#0" id="circle123"/>
	<circle cx="683.154" cy="103.002" r="4" fill="#0" id="circle124"/>
	<circle cx="687.114" cy="362.387" r="4" fill="#0" id="circle125"/>
	<circle cx="702.954" cy="103.002" r="4" fill="#0" id="circle126"/>
	<circle cx="706.914" cy="362.387" r="4" fill="#0" id="circle127"/>
	<circle cx="722.754" cy="103.002" r="4" fill="#0" id="circle128"/>
	<circle cx="722.754" cy="350.507" r="4" fill="#0" id="circle129"/>
	<circle cx="742.555" cy="103.002" r="4" fill="#0" id="circle130"/>
	<circle cx="742.555" cy="340.607" r="4" fill="#0" id="circle131"/>
	<circle cx="762.355" cy="103.002" r="4" fill="#0" id="circle132"/>
	<circle cx="762.355" cy="332.687" r="4" fill="#0" id="circle133"/>
	<circle cx="776.216" cy="348.527" r="4" fill="#0" id="circle134"/>
	<circle cx="782.156" cy="103.002" r="4" fill="#0" id="circle135"/>
	<circle cx="786.116" cy="366.347" r="4" fill="#0" id="circle136"/>
	<circle cx="796.016" cy="384.168" r="4" fill="#0" id="circle137"/>
	<circle cx="796.016" cy="403.968" r="4" fill="#0" id="circle138"/>
	<circle cx="796.016" cy="435.649" r="4" fill="#0" id="circle139"/>
	<circle cx="796.016" cy="594.052" r="4" fill="#0" id="circle140"/>
	<circle cx="801.956" cy="103.002" r="4" fill="#0" id="circle141"/>
	<circle cx="805.916" cy="453.469" r="4" fill="#0" id="circle142"/>
	<circle cx="805.916" cy="473.269" r="4" fill="#0" id="circle143"/>
	<circle cx="805.916" cy="495.05" r="4" fill="#0" id="circle144"/>
	<circle cx="805.916" cy="534.651" r="4" fill="#0" id="circle145"/>
	<circle cx="805.916" cy="554.451" r="4" fill="#0" id="circle146"/>
	<circle cx="805.916" cy="574.251" r="4" fill="#0" id="circle147"/>
	<circle cx="805.916" cy="611.872" r="4" fill="#0" id="circle148"/>
	<circle cx="815.816" cy="512.87" r="4" fill="#0" id="circle149"/>
	<circle cx="821.756" cy="103.002" r="4" fill="#0" id="circle150"/>
	<circle cx="825.717" cy="619.792" r="4" fill="#0" id="circle151"/>
	<circle cx="841.557" cy="103.002" r="4" fill="#0" id="circle152"/>
	<circle cx="845.517" cy="613.852" r="4" fill="#0" id="circle153"/>
	<circle cx="855.417" cy="594.052" r="4" fill="#0" id="circle154"/>
	<circle cx="857.397" cy="560.391" r="4" fill="#0" id="circle155"/>
	<circle cx="861.357" cy="103.002" r="4" fill="#0" id="circle156"/>
	<circle cx="867.297" cy="382.188" r="4" fill="#0" id="circle157"/>
	<circle cx="867.297" cy="401.988" r="4" fill="#0" id="circle158"/>
	<circle cx="867.297" cy="421.788" r="4" fill="#0" id="circle159"/>
	<circle cx="867.297" cy="441.589" r="4" fill="#0" id="circle160"/>
	<circle cx="867.297" cy="461.389" r="4" fill="#0" id="circle161"/>
	<circle cx="867.297" cy="481.19" r="4" fill="#0" id="circle162"/>
	<circle cx="867.297" cy="500.99" r="4" fill="#0" id="circle163"/>
	<circle cx="867.297" cy="520.79" r="4" fill="#0" id="circle164"/>
	<circle cx="867.297" cy="540.591" r="4" fill="#0" id="circle165"/>
	<circle cx="881.158" cy="103.002" r="4" fill="#0" id="circle166"/>
	<circle cx="885.118" cy="411.888" r="4" fill="#0" id="circle167"/>
	<circle cx="891.058" cy="431.689" r="4" fill="#0" id="circle168"/>
	<circle cx="898.978" cy="112.902" r="4" fill="#0" id="circle169"/>
	<circle cx="906.898" cy="132.703" r="4" fill="#0" id="circle170"/>
	<circle cx="906.898" cy="445.549" r="4" fill="#0" id="circle171"/>
	<circle cx="914.818" cy="465.349" r="4" fill="#0" id="circle172"/>
	<circle cx="924.719" cy="142.603" r="4" fill="#0" id="circle173"/>
	<circle cx="924.719" cy="483.17" r="4" fill="#0" id="circle174"/>
	<circle cx="924.719" cy="502.97" r="4" fill="#0" id="circle175"/>
	<circle cx="934.619" cy="520.79" r="4" fill="#0" id="circle176"/>
	<circle cx="934.619" cy="540.591" r="4" fill="#0" id="circle177"/>
	<circle cx="934.619" cy="560.391" r="4" fill="#0" id="circle178"/>
	<circle cx="934.619" cy="633.653" r="4" fill="#0" id="circle179"/>
	<circle cx="934.619" cy="653.453" r="4" fill="#0" id="circle180"/>
	<circle cx="936.599" cy="158.443" r="4" fill="#0" id="circle181"/>
	<circle cx="936.599" cy="178.244" r="4" fill="#0" id="circle182"/>
	<circle cx="940.559" cy="580.192" r="4" fill="#0" id="circle183"/>
	<circle cx="944.519" cy="599.992" r="4" fill="#0" id="circle184"/>
	<circle cx="946.499" cy="196.064" r="4" fill="#0" id="circle185"/>
	<circle cx="946.499" cy="215.864" r="4" fill="#0" id="circle186"/>
	<circle cx="946.499" cy="235.665" r="4" fill="#0" id="circle187"/>
	<circle cx="946.499" cy="255.465" r="4" fill="#0" id="circle188"/>
	<circle cx="946.499" cy="275.265" r="4" fill="#0" id="circle189"/>
	<circle cx="946.499" cy="295.066" r="4" fill="#0" id="circle190"/>
	<circle cx="946.499" cy="314.866" r="4" fill="#0" id="circle191"/>
	<circle cx="946.499" cy="334.667" r="4" fill="#0" id="circle192"/>
	<circle cx="946.499" cy="669.293" r="4" fill="#0" id="circle193"/>
	<circle cx="952.439" cy="354.467" r="4" fill="#0" id="circle194"/>
	<circle cx="962.339" cy="372.287" r="4" fill="#0" id="circle195"/>
	<circle cx="966.299" cy="669.293" r="4" fill="#0" id="circle196"/>
	<circle cx="970.259" cy="392.088" r="4" fill="#0" id="circle197"/>
	<circle cx="976.2" cy="411.888" r="4" fill="#0" id="circle198"/>
	<circle cx="976.2" cy="431.689" r="4" fill="#0" id="circle199"/>
	<circle cx="976.2" cy="451.489" r="4" fill="#0" id="circle200"/>
	<circle cx="976.2" cy="471.289" r="4" fill="#0" id="circle201"/>
	<circle cx="976.2" cy="491.09" r="4" fill="#0" id="circle202"/>
	<circle cx="986.1" cy="508.91" r="4" fill="#0" id="circle203"/>
	<circle cx="986.1" cy="528.711" r="4" fill="#0" id="circle204"/>
	<circle cx="986.1" cy="548.511" r="4" fill="#0" id="circle205"/>
	<circle cx="986.1" cy="673.253" r="4" fill="#0" id="circle206"/>
	<circle cx="996" cy="566.331" r="4" fill="#0" id="circle207"/>
	<circle cx="996" cy="586.132" r="4" fill="#0" id="circle208"/>
	<circle cx="996" cy="605.932" r="4" fill="#0" id="circle209"/>
	<circle cx="996" cy="625.733" r="4" fill="#0" id="circle210"/>
	<circle cx="996" cy="645.533" r="4" fill="#0" id="circle211"/>
	</g>
</svg>