<?xml version="1.0" encoding="UTF-8" standalone="no"?>
<!-- Created with CurveBenchmark -->
<svg
	xmlns:dc="http://purl.org/dc/elements/1.1/"
	xmlns:cc="http://creativecommons.org/ns#"
	xmlns:rdf="http://www.w3.org/1999/02/22-rdf-syntax-ns#"
	xmlns:svg="http://www.w3.org/2000/svg"
	xmlns="http://www.w3.org/2000/svg"
	xmlns:sodipodi="http://sodipodi.sourceforge.net/DTD/sodipodi-0.dtd"
	xmlns:inkscape="http://www.inkscape.org/namespaces/inkscape"
	width="1000"
	height="1000"
	id="svg2"
	version="1.1"
	sodipodi:docname="manifold/connect2d-key16.png.txt">
<defs
	id="defs4" />
<metadata
	id="metadata7">
	<rdf:RDF>
		<cc:Work
			rdf:about="">
			<dc:format>image/svg+xml</dc:format>
			<dc:type
				rdf:resource="http://purl.org/dc/dcmitype/StillImage" />
			<dc:title></dc:title>
		</cc:Work>
	</rdf:RDF>
</metadata>
<g
	inkscape:label="Layer 1"
	inkscape:groupmode="layer"
	id="layer1">
	<path style="fill:none;stroke:red;stroke-width:1px;stroke-linecap:butt;stroke-linejoin:miter;stroke-opacity:1" d="M 996,245.866 996,263.392 z" id="boundary" inkscape:connector-curvature="0" />
	<path style="fill:none;stroke:red;stroke-width:1px;stroke-linecap:butt;stroke-linejoin:miter;stroke-opacity:1" d="M 996,263.392 987.237,294.94 z" id="boundary" inkscape:connector-curvature="0" />
	<path style="fill:none;stroke:red;stroke-width:1px;stroke-linecap:butt;stroke-linejoin:miter;stroke-opacity:1" d="M 987.237,294.94 973.216,319.477 z" id="boundary" inkscape:connector-curvature="0" />
	<path style="fill:none;stroke:red;stroke-width:1px;stroke-linecap:butt;stroke-linejoin:miter;stroke-opacity:1" d="M 973.216,319.477 959.194,329.993 z" id="boundary" inkscape:connector-curvature="0" />
	<path style="fill:none;stroke:red;stroke-width:1px;stroke-linecap:butt;stroke-linejoin:miter;stroke-opacity:1" d="M 959.194,329.993 943.42,338.756 z" id="boundary" inkscape:connector-curvature="0" />
	<path style="fill:none;stroke:red;stroke-width:1px;stroke-linecap:butt;stroke-linejoin:miter;stroke-opacity:1" d="M 943.42,338.756 927.647,347.519 z" id="boundary" inkscape:connector-curvature="0" />
	<path style="fill:none;stroke:red;stroke-width:1px;stroke-linecap:butt;stroke-linejoin:miter;stroke-opacity:1" d="M 927.647,347.519 910.12,347.519 z" id="boundary" inkscape:connector-curvature="0" />
	<path style="fill:none;stroke:red;stroke-width:1px;stroke-linecap:butt;stroke-linejoin:miter;stroke-opacity:1" d="M 910.12,347.519 892.594,347.519 z" id="boundary" inkscape:connector-curvature="0" />
	<path style="fill:none;stroke:red;stroke-width:1px;stroke-linecap:butt;stroke-linejoin:miter;stroke-opacity:1" d="M 892.594,347.519 875.067,347.519 z" id="boundary" inkscape:connector-curvature="0" />
	<path style="fill:none;stroke:red;stroke-width:1px;stroke-linecap:butt;stroke-linejoin:miter;stroke-opacity:1" d="M 875.067,347.519 857.541,347.519 z" id="boundary" inkscape:connector-curvature="0" />
	<path style="fill:none;stroke:red;stroke-width:1px;stroke-linecap:butt;stroke-linejoin:miter;stroke-opacity:1" d="M 857.541,347.519 840.014,347.519 z" id="boundary" inkscape:connector-curvature="0" />
	<path style="fill:none;stroke:red;stroke-width:1px;stroke-linecap:butt;stroke-linejoin:miter;stroke-opacity:1" d="M 840.014,347.519 822.488,347.519 z" id="boundary" inkscape:connector-curvature="0" />
	<path style="fill:none;stroke:red;stroke-width:1px;stroke-linecap:butt;stroke-linejoin:miter;stroke-opacity:1" d="M 822.488,347.519 804.961,347.519 z" id="boundary" inkscape:connector-curvature="0" />
	<path style="fill:none;stroke:red;stroke-width:1px;stroke-linecap:butt;stroke-linejoin:miter;stroke-opacity:1" d="M 804.961,347.519 787.435,347.519 z" id="boundary" inkscape:connector-curvature="0" />
	<path style="fill:none;stroke:red;stroke-width:1px;stroke-linecap:butt;stroke-linejoin:miter;stroke-opacity:1" d="M 787.435,347.519 769.908,347.519 z" id="boundary" inkscape:connector-curvature="0" />
	<path style="fill:none;stroke:red;stroke-width:1px;stroke-linecap:butt;stroke-linejoin:miter;stroke-opacity:1" d="M 769.908,347.519 752.382,347.519 z" id="boundary" inkscape:connector-curvature="0" />
	<path style="fill:none;stroke:red;stroke-width:1px;stroke-linecap:butt;stroke-linejoin:miter;stroke-opacity:1" d="M 752.382,347.519 734.855,347.519 z" id="boundary" inkscape:connector-curvature="0" />
	<path style="fill:none;stroke:red;stroke-width:1px;stroke-linecap:butt;stroke-linejoin:miter;stroke-opacity:1" d="M 734.855,347.519 717.329,347.519 z" id="boundary" inkscape:connector-curvature="0" />
	<path style="fill:none;stroke:red;stroke-width:1px;stroke-linecap:butt;stroke-linejoin:miter;stroke-opacity:1" d="M 717.329,347.519 701.555,338.756 z" id="boundary" inkscape:connector-curvature="0" />
	<path style="fill:none;stroke:red;stroke-width:1px;stroke-linecap:butt;stroke-linejoin:miter;stroke-opacity:1" d="M 701.555,338.756 684.028,338.756 z" id="boundary" inkscape:connector-curvature="0" />
	<path style="fill:none;stroke:red;stroke-width:1px;stroke-linecap:butt;stroke-linejoin:miter;stroke-opacity:1" d="M 684.028,338.756 666.502,338.756 z" id="boundary" inkscape:connector-curvature="0" />
	<path style="fill:none;stroke:red;stroke-width:1px;stroke-linecap:butt;stroke-linejoin:miter;stroke-opacity:1" d="M 666.502,338.756 648.975,338.756 z" id="boundary" inkscape:connector-curvature="0" />
	<path style="fill:none;stroke:red;stroke-width:1px;stroke-linecap:butt;stroke-linejoin:miter;stroke-opacity:1" d="M 648.975,338.756 631.449,338.756 z" id="boundary" inkscape:connector-curvature="0" />
	<path style="fill:none;stroke:red;stroke-width:1px;stroke-linecap:butt;stroke-linejoin:miter;stroke-opacity:1" d="M 631.449,338.756 613.922,338.756 z" id="boundary" inkscape:connector-curvature="0" />
	<path style="fill:none;stroke:red;stroke-width:1px;stroke-linecap:butt;stroke-linejoin:miter;stroke-opacity:1" d="M 613.922,338.756 596.396,338.756 z" id="boundary" inkscape:connector-curvature="0" />
	<path style="fill:none;stroke:red;stroke-width:1px;stroke-linecap:butt;stroke-linejoin:miter;stroke-opacity:1" d="M 596.396,338.756 578.869,338.756 z" id="boundary" inkscape:connector-curvature="0" />
	<path style="fill:none;stroke:red;stroke-width:1px;stroke-linecap:butt;stroke-linejoin:miter;stroke-opacity:1" d="M 578.869,338.756 561.343,338.756 z" id="boundary" inkscape:connector-curvature="0" />
	<path style="fill:none;stroke:red;stroke-width:1px;stroke-linecap:butt;stroke-linejoin:miter;stroke-opacity:1" d="M 561.343,338.756 545.569,329.993 z" id="boundary" inkscape:connector-curvature="0" />
	<path style="fill:none;stroke:red;stroke-width:1px;stroke-linecap:butt;stroke-linejoin:miter;stroke-opacity:1" d="M 545.569,329.993 528.042,335.251 z" id="boundary" inkscape:connector-curvature="0" />
	<path style="fill:none;stroke:red;stroke-width:1px;stroke-linecap:butt;stroke-linejoin:miter;stroke-opacity:1" d="M 528.042,335.251 514.021,347.519 z" id="boundary" inkscape:connector-curvature="0" />
	<path style="fill:none;stroke:red;stroke-width:1px;stroke-linecap:butt;stroke-linejoin:miter;stroke-opacity:1" d="M 514.021,347.519 505.258,365.046 z" id="boundary" inkscape:connector-curvature="0" />
	<path style="fill:none;stroke:red;stroke-width:1px;stroke-linecap:butt;stroke-linejoin:miter;stroke-opacity:1" d="M 505.258,365.046 489.484,373.809 z" id="boundary" inkscape:connector-curvature="0" />
	<path style="fill:none;stroke:red;stroke-width:1px;stroke-linecap:butt;stroke-linejoin:miter;stroke-opacity:1" d="M 489.484,373.809 471.958,372.057 z" id="boundary" inkscape:connector-curvature="0" />
	<path style="fill:none;stroke:red;stroke-width:1px;stroke-linecap:butt;stroke-linejoin:miter;stroke-opacity:1" d="M 471.958,372.057 456.184,363.293 z" id="boundary" inkscape:connector-curvature="0" />
	<path style="fill:none;stroke:red;stroke-width:1px;stroke-linecap:butt;stroke-linejoin:miter;stroke-opacity:1" d="M 456.184,363.293 447.42,347.519 z" id="boundary" inkscape:connector-curvature="0" />
	<path style="fill:none;stroke:red;stroke-width:1px;stroke-linecap:butt;stroke-linejoin:miter;stroke-opacity:1" d="M 447.42,347.519 431.647,338.756 z" id="boundary" inkscape:connector-curvature="0" />
	<path style="fill:none;stroke:red;stroke-width:1px;stroke-linecap:butt;stroke-linejoin:miter;stroke-opacity:1" d="M 431.647,338.756 415.873,347.519 z" id="boundary" inkscape:connector-curvature="0" />
	<path style="fill:none;stroke:red;stroke-width:1px;stroke-linecap:butt;stroke-linejoin:miter;stroke-opacity:1" d="M 415.873,347.519 405.357,361.541 z" id="boundary" inkscape:connector-curvature="0" />
	<path style="fill:none;stroke:red;stroke-width:1px;stroke-linecap:butt;stroke-linejoin:miter;stroke-opacity:1" d="M 405.357,361.541 391.336,373.809 z" id="boundary" inkscape:connector-curvature="0" />
	<path style="fill:none;stroke:red;stroke-width:1px;stroke-linecap:butt;stroke-linejoin:miter;stroke-opacity:1" d="M 391.336,373.809 373.809,382.572 z" id="boundary" inkscape:connector-curvature="0" />
	<path style="fill:none;stroke:red;stroke-width:1px;stroke-linecap:butt;stroke-linejoin:miter;stroke-opacity:1" d="M 373.809,382.572 359.788,398.346 z" id="boundary" inkscape:connector-curvature="0" />
	<path style="fill:none;stroke:red;stroke-width:1px;stroke-linecap:butt;stroke-linejoin:miter;stroke-opacity:1" d="M 359.788,398.346 345.767,412.367 z" id="boundary" inkscape:connector-curvature="0" />
	<path style="fill:none;stroke:red;stroke-width:1px;stroke-linecap:butt;stroke-linejoin:miter;stroke-opacity:1" d="M 345.767,412.367 331.746,426.389 z" id="boundary" inkscape:connector-curvature="0" />
	<path style="fill:none;stroke:red;stroke-width:1px;stroke-linecap:butt;stroke-linejoin:miter;stroke-opacity:1" d="M 331.746,426.389 314.219,426.389 z" id="boundary" inkscape:connector-curvature="0" />
	<path style="fill:none;stroke:red;stroke-width:1px;stroke-linecap:butt;stroke-linejoin:miter;stroke-opacity:1" d="M 314.219,426.389 298.445,435.152 z" id="boundary" inkscape:connector-curvature="0" />
	<path style="fill:none;stroke:red;stroke-width:1px;stroke-linecap:butt;stroke-linejoin:miter;stroke-opacity:1" d="M 298.445,435.152 280.919,435.152 z" id="boundary" inkscape:connector-curvature="0" />
	<path style="fill:none;stroke:red;stroke-width:1px;stroke-linecap:butt;stroke-linejoin:miter;stroke-opacity:1" d="M 280.919,435.152 265.145,443.915 z" id="boundary" inkscape:connector-curvature="0" />
	<path style="fill:none;stroke:red;stroke-width:1px;stroke-linecap:butt;stroke-linejoin:miter;stroke-opacity:1" d="M 265.145,443.915 247.618,449.173 z" id="boundary" inkscape:connector-curvature="0" />
	<path style="fill:none;stroke:red;stroke-width:1px;stroke-linecap:butt;stroke-linejoin:miter;stroke-opacity:1" d="M 247.618,449.173 230.092,452.678 z" id="boundary" inkscape:connector-curvature="0" />
	<path style="fill:none;stroke:red;stroke-width:1px;stroke-linecap:butt;stroke-linejoin:miter;stroke-opacity:1" d="M 230.092,452.678 212.565,452.678 z" id="boundary" inkscape:connector-curvature="0" />
	<path style="fill:none;stroke:red;stroke-width:1px;stroke-linecap:butt;stroke-linejoin:miter;stroke-opacity:1" d="M 212.565,452.678 195.039,452.678 z" id="boundary" inkscape:connector-curvature="0" />
	<path style="fill:none;stroke:red;stroke-width:1px;stroke-linecap:butt;stroke-linejoin:miter;stroke-opacity:1" d="M 195.039,452.678 179.265,443.915 z" id="boundary" inkscape:connector-curvature="0" />
	<path style="fill:none;stroke:red;stroke-width:1px;stroke-linecap:butt;stroke-linejoin:miter;stroke-opacity:1" d="M 179.265,443.915 161.739,443.915 z" id="boundary" inkscape:connector-curvature="0" />
	<path style="fill:none;stroke:red;stroke-width:1px;stroke-linecap:butt;stroke-linejoin:miter;stroke-opacity:1" d="M 161.739,443.915 145.965,435.152 z" id="boundary" inkscape:connector-curvature="0" />
	<path style="fill:none;stroke:red;stroke-width:1px;stroke-linecap:butt;stroke-linejoin:miter;stroke-opacity:1" d="M 145.965,435.152 128.438,431.647 z" id="boundary" inkscape:connector-curvature="0" />
	<path style="fill:none;stroke:red;stroke-width:1px;stroke-linecap:butt;stroke-linejoin:miter;stroke-opacity:1" d="M 128.438,431.647 116.17,417.625 z" id="boundary" inkscape:connector-curvature="0" />
	<path style="fill:none;stroke:red;stroke-width:1px;stroke-linecap:butt;stroke-linejoin:miter;stroke-opacity:1" d="M 116.17,417.625 102.148,405.357 z" id="boundary" inkscape:connector-curvature="0" />
	<path style="fill:none;stroke:red;stroke-width:1px;stroke-linecap:butt;stroke-linejoin:miter;stroke-opacity:1" d="M 102.148,405.357 91.6325,391.336 z" id="boundary" inkscape:connector-curvature="0" />
	<path style="fill:none;stroke:red;stroke-width:1px;stroke-linecap:butt;stroke-linejoin:miter;stroke-opacity:1" d="M 91.6325,391.336 74.106,386.078 z" id="boundary" inkscape:connector-curvature="0" />
	<path style="fill:none;stroke:red;stroke-width:1px;stroke-linecap:butt;stroke-linejoin:miter;stroke-opacity:1" d="M 74.106,386.078 61.8375,372.057 z" id="boundary" inkscape:connector-curvature="0" />
	<path style="fill:none;stroke:red;stroke-width:1px;stroke-linecap:butt;stroke-linejoin:miter;stroke-opacity:1" d="M 61.8375,372.057 53.0742,356.283 z" id="boundary" inkscape:connector-curvature="0" />
	<path style="fill:none;stroke:red;stroke-width:1px;stroke-linecap:butt;stroke-linejoin:miter;stroke-opacity:1" d="M 53.0742,356.283 39.053,344.014 z" id="boundary" inkscape:connector-curvature="0" />
	<path style="fill:none;stroke:red;stroke-width:1px;stroke-linecap:butt;stroke-linejoin:miter;stroke-opacity:1" d="M 39.053,344.014 30.2898,328.24 z" id="boundary" inkscape:connector-curvature="0" />
	<path style="fill:none;stroke:red;stroke-width:1px;stroke-linecap:butt;stroke-linejoin:miter;stroke-opacity:1" d="M 30.2898,328.24 21.5265,312.466 z" id="boundary" inkscape:connector-curvature="0" />
	<path style="fill:none;stroke:red;stroke-width:1px;stroke-linecap:butt;stroke-linejoin:miter;stroke-opacity:1" d="M 21.5265,312.466 21.5265,294.94 z" id="boundary" inkscape:connector-curvature="0" />
	<path style="fill:none;stroke:red;stroke-width:1px;stroke-linecap:butt;stroke-linejoin:miter;stroke-opacity:1" d="M 21.5265,294.94 12.7633,279.166 z" id="boundary" inkscape:connector-curvature="0" />
	<path style="fill:none;stroke:red;stroke-width:1px;stroke-linecap:butt;stroke-linejoin:miter;stroke-opacity:1" d="M 12.7633,279.166 12.7633,261.64 z" id="boundary" inkscape:connector-curvature="0" />
	<path style="fill:none;stroke:red;stroke-width:1px;stroke-linecap:butt;stroke-linejoin:miter;stroke-opacity:1" d="M 12.7633,261.64 4,245.866 z" id="boundary" inkscape:connector-curvature="0" />
	<path style="fill:none;stroke:red;stroke-width:1px;stroke-linecap:butt;stroke-linejoin:miter;stroke-opacity:1" d="M 4,245.866 12.7633,219.576 z" id="boundary" inkscape:connector-curvature="0" />
	<path style="fill:none;stroke:red;stroke-width:1px;stroke-linecap:butt;stroke-linejoin:miter;stroke-opacity:1" d="M 12.7633,219.576 12.7633,202.049 z" id="boundary" inkscape:connector-curvature="0" />
	<path style="fill:none;stroke:red;stroke-width:1px;stroke-linecap:butt;stroke-linejoin:miter;stroke-opacity:1" d="M 12.7633,202.049 12.7633,184.523 z" id="boundary" inkscape:connector-curvature="0" />
	<path style="fill:none;stroke:red;stroke-width:1px;stroke-linecap:butt;stroke-linejoin:miter;stroke-opacity:1" d="M 12.7633,184.523 21.5265,158.233 z" id="boundary" inkscape:connector-curvature="0" />
	<path style="fill:none;stroke:red;stroke-width:1px;stroke-linecap:butt;stroke-linejoin:miter;stroke-opacity:1" d="M 21.5265,158.233 21.5265,140.707 z" id="boundary" inkscape:connector-curvature="0" />
	<path style="fill:none;stroke:red;stroke-width:1px;stroke-linecap:butt;stroke-linejoin:miter;stroke-opacity:1" d="M 21.5265,140.707 30.2898,123.18 z" id="boundary" inkscape:connector-curvature="0" />
	<path style="fill:none;stroke:red;stroke-width:1px;stroke-linecap:butt;stroke-linejoin:miter;stroke-opacity:1" d="M 30.2898,123.18 44.311,109.159 z" id="boundary" inkscape:connector-curvature="0" />
	<path style="fill:none;stroke:red;stroke-width:1px;stroke-linecap:butt;stroke-linejoin:miter;stroke-opacity:1" d="M 44.311,109.159 56.5795,88.1272 z" id="boundary" inkscape:connector-curvature="0" />
	<path style="fill:none;stroke:red;stroke-width:1px;stroke-linecap:butt;stroke-linejoin:miter;stroke-opacity:1" d="M 56.5795,88.1272 70.6007,74.106 z" id="boundary" inkscape:connector-curvature="0" />
	<path style="fill:none;stroke:red;stroke-width:1px;stroke-linecap:butt;stroke-linejoin:miter;stroke-opacity:1" d="M 70.6007,74.106 84.6219,60.0848 z" id="boundary" inkscape:connector-curvature="0" />
	<path style="fill:none;stroke:red;stroke-width:1px;stroke-linecap:butt;stroke-linejoin:miter;stroke-opacity:1" d="M 84.6219,60.0848 102.148,51.3216 z" id="boundary" inkscape:connector-curvature="0" />
	<path style="fill:none;stroke:red;stroke-width:1px;stroke-linecap:butt;stroke-linejoin:miter;stroke-opacity:1" d="M 102.148,51.3216 116.17,39.053 z" id="boundary" inkscape:connector-curvature="0" />
	<path style="fill:none;stroke:red;stroke-width:1px;stroke-linecap:butt;stroke-linejoin:miter;stroke-opacity:1" d="M 116.17,39.053 128.438,25.0318 z" id="boundary" inkscape:connector-curvature="0" />
	<path style="fill:none;stroke:red;stroke-width:1px;stroke-linecap:butt;stroke-linejoin:miter;stroke-opacity:1" d="M 128.438,25.0318 145.965,16.2686 z" id="boundary" inkscape:connector-curvature="0" />
	<path style="fill:none;stroke:red;stroke-width:1px;stroke-linecap:butt;stroke-linejoin:miter;stroke-opacity:1" d="M 145.965,16.2686 163.491,12.7633 z" id="boundary" inkscape:connector-curvature="0" />
	<path style="fill:none;stroke:red;stroke-width:1px;stroke-linecap:butt;stroke-linejoin:miter;stroke-opacity:1" d="M 163.491,12.7633 181.018,7.5053 z" id="boundary" inkscape:connector-curvature="0" />
	<path style="fill:none;stroke:red;stroke-width:1px;stroke-linecap:butt;stroke-linejoin:miter;stroke-opacity:1" d="M 181.018,7.5053 198.544,4 z" id="boundary" inkscape:connector-curvature="0" />
	<path style="fill:none;stroke:red;stroke-width:1px;stroke-linecap:butt;stroke-linejoin:miter;stroke-opacity:1" d="M 198.544,4 216.071,4 z" id="boundary" inkscape:connector-curvature="0" />
	<path style="fill:none;stroke:red;stroke-width:1px;stroke-linecap:butt;stroke-linejoin:miter;stroke-opacity:1" d="M 216.071,4 231.845,12.7633 z" id="boundary" inkscape:connector-curvature="0" />
	<path style="fill:none;stroke:red;stroke-width:1px;stroke-linecap:butt;stroke-linejoin:miter;stroke-opacity:1" d="M 231.845,12.7633 249.371,12.7633 z" id="boundary" inkscape:connector-curvature="0" />
	<path style="fill:none;stroke:red;stroke-width:1px;stroke-linecap:butt;stroke-linejoin:miter;stroke-opacity:1" d="M 249.371,12.7633 266.898,16.2686 z" id="boundary" inkscape:connector-curvature="0" />
	<path style="fill:none;stroke:red;stroke-width:1px;stroke-linecap:butt;stroke-linejoin:miter;stroke-opacity:1" d="M 266.898,16.2686 284.424,21.5265 z" id="boundary" inkscape:connector-curvature="0" />
	<path style="fill:none;stroke:red;stroke-width:1px;stroke-linecap:butt;stroke-linejoin:miter;stroke-opacity:1" d="M 284.424,21.5265 298.445,32.0424 z" id="boundary" inkscape:connector-curvature="0" />
	<path style="fill:none;stroke:red;stroke-width:1px;stroke-linecap:butt;stroke-linejoin:miter;stroke-opacity:1" d="M 298.445,32.0424 315.972,39.053 z" id="boundary" inkscape:connector-curvature="0" />
	<path style="fill:none;stroke:red;stroke-width:1px;stroke-linecap:butt;stroke-linejoin:miter;stroke-opacity:1" d="M 315.972,39.053 331.746,47.8163 z" id="boundary" inkscape:connector-curvature="0" />
	<path style="fill:none;stroke:red;stroke-width:1px;stroke-linecap:butt;stroke-linejoin:miter;stroke-opacity:1" d="M 331.746,47.8163 345.767,60.0848 z" id="boundary" inkscape:connector-curvature="0" />
	<path style="fill:none;stroke:red;stroke-width:1px;stroke-linecap:butt;stroke-linejoin:miter;stroke-opacity:1" d="M 345.767,60.0848 361.541,68.8481 z" id="boundary" inkscape:connector-curvature="0" />
	<path style="fill:none;stroke:red;stroke-width:1px;stroke-linecap:butt;stroke-linejoin:miter;stroke-opacity:1" d="M 361.541,68.8481 373.809,82.8693 z" id="boundary" inkscape:connector-curvature="0" />
	<path style="fill:none;stroke:red;stroke-width:1px;stroke-linecap:butt;stroke-linejoin:miter;stroke-opacity:1" d="M 373.809,82.8693 387.83,93.3852 z" id="boundary" inkscape:connector-curvature="0" />
	<path style="fill:none;stroke:red;stroke-width:1px;stroke-linecap:butt;stroke-linejoin:miter;stroke-opacity:1" d="M 387.83,93.3852 400.099,107.406 z" id="boundary" inkscape:connector-curvature="0" />
	<path style="fill:none;stroke:red;stroke-width:1px;stroke-linecap:butt;stroke-linejoin:miter;stroke-opacity:1" d="M 400.099,107.406 408.862,123.18 z" id="boundary" inkscape:connector-curvature="0" />
	<path style="fill:none;stroke:red;stroke-width:1px;stroke-linecap:butt;stroke-linejoin:miter;stroke-opacity:1" d="M 408.862,123.18 417.625,138.954 z" id="boundary" inkscape:connector-curvature="0" />
	<path style="fill:none;stroke:red;stroke-width:1px;stroke-linecap:butt;stroke-linejoin:miter;stroke-opacity:1" d="M 417.625,138.954 428.141,152.975 z" id="boundary" inkscape:connector-curvature="0" />
	<path style="fill:none;stroke:red;stroke-width:1px;stroke-linecap:butt;stroke-linejoin:miter;stroke-opacity:1" d="M 428.141,152.975 445.668,152.975 z" id="boundary" inkscape:connector-curvature="0" />
	<path style="fill:none;stroke:red;stroke-width:1px;stroke-linecap:butt;stroke-linejoin:miter;stroke-opacity:1" d="M 445.668,152.975 459.689,140.707 z" id="boundary" inkscape:connector-curvature="0" />
	<path style="fill:none;stroke:red;stroke-width:1px;stroke-linecap:butt;stroke-linejoin:miter;stroke-opacity:1" d="M 459.689,140.707 473.71,126.686 z" id="boundary" inkscape:connector-curvature="0" />
	<path style="fill:none;stroke:red;stroke-width:1px;stroke-linecap:butt;stroke-linejoin:miter;stroke-opacity:1" d="M 473.71,126.686 491.237,126.686 z" id="boundary" inkscape:connector-curvature="0" />
	<path style="fill:none;stroke:red;stroke-width:1px;stroke-linecap:butt;stroke-linejoin:miter;stroke-opacity:1" d="M 491.237,126.686 508.763,126.686 z" id="boundary" inkscape:connector-curvature="0" />
	<path style="fill:none;stroke:red;stroke-width:1px;stroke-linecap:butt;stroke-linejoin:miter;stroke-opacity:1" d="M 508.763,126.686 522.784,137.201 z" id="boundary" inkscape:connector-curvature="0" />
	<path style="fill:none;stroke:red;stroke-width:1px;stroke-linecap:butt;stroke-linejoin:miter;stroke-opacity:1" d="M 522.784,137.201 531.548,152.975 z" id="boundary" inkscape:connector-curvature="0" />
	<path style="fill:none;stroke:red;stroke-width:1px;stroke-linecap:butt;stroke-linejoin:miter;stroke-opacity:1" d="M 531.548,152.975 531.548,170.502 z" id="boundary" inkscape:connector-curvature="0" />
	<path style="fill:none;stroke:red;stroke-width:1px;stroke-linecap:butt;stroke-linejoin:miter;stroke-opacity:1" d="M 531.548,170.502 549.074,170.502 z" id="boundary" inkscape:connector-curvature="0" />
	<path style="fill:none;stroke:red;stroke-width:1px;stroke-linecap:butt;stroke-linejoin:miter;stroke-opacity:1" d="M 549.074,170.502 566.601,170.502 z" id="boundary" inkscape:connector-curvature="0" />
	<path style="fill:none;stroke:red;stroke-width:1px;stroke-linecap:butt;stroke-linejoin:miter;stroke-opacity:1" d="M 566.601,170.502 584.127,170.502 z" id="boundary" inkscape:connector-curvature="0" />
	<path style="fill:none;stroke:red;stroke-width:1px;stroke-linecap:butt;stroke-linejoin:miter;stroke-opacity:1" d="M 584.127,170.502 601.654,170.502 z" id="boundary" inkscape:connector-curvature="0" />
	<path style="fill:none;stroke:red;stroke-width:1px;stroke-linecap:butt;stroke-linejoin:miter;stroke-opacity:1" d="M 601.654,170.502 619.18,170.502 z" id="boundary" inkscape:connector-curvature="0" />
	<path style="fill:none;stroke:red;stroke-width:1px;stroke-linecap:butt;stroke-linejoin:miter;stroke-opacity:1" d="M 619.18,170.502 636.707,175.76 z" id="boundary" inkscape:connector-curvature="0" />
	<path style="fill:none;stroke:red;stroke-width:1px;stroke-linecap:butt;stroke-linejoin:miter;stroke-opacity:1" d="M 636.707,175.76 654.233,179.265 z" id="boundary" inkscape:connector-curvature="0" />
	<path style="fill:none;stroke:red;stroke-width:1px;stroke-linecap:butt;stroke-linejoin:miter;stroke-opacity:1" d="M 654.233,179.265 671.76,179.265 z" id="boundary" inkscape:connector-curvature="0" />
	<path style="fill:none;stroke:red;stroke-width:1px;stroke-linecap:butt;stroke-linejoin:miter;stroke-opacity:1" d="M 671.76,179.265 689.286,179.265 z" id="boundary" inkscape:connector-curvature="0" />
	<path style="fill:none;stroke:red;stroke-width:1px;stroke-linecap:butt;stroke-linejoin:miter;stroke-opacity:1" d="M 689.286,179.265 706.813,179.265 z" id="boundary" inkscape:connector-curvature="0" />
	<path style="fill:none;stroke:red;stroke-width:1px;stroke-linecap:butt;stroke-linejoin:miter;stroke-opacity:1" d="M 706.813,179.265 724.339,179.265 z" id="boundary" inkscape:connector-curvature="0" />
	<path style="fill:none;stroke:red;stroke-width:1px;stroke-linecap:butt;stroke-linejoin:miter;stroke-opacity:1" d="M 724.339,179.265 741.866,179.265 z" id="boundary" inkscape:connector-curvature="0" />
	<path style="fill:none;stroke:red;stroke-width:1px;stroke-linecap:butt;stroke-linejoin:miter;stroke-opacity:1" d="M 741.866,179.265 759.392,179.265 z" id="boundary" inkscape:connector-curvature="0" />
	<path style="fill:none;stroke:red;stroke-width:1px;stroke-linecap:butt;stroke-linejoin:miter;stroke-opacity:1" d="M 759.392,179.265 776.919,179.265 z" id="boundary" inkscape:connector-curvature="0" />
	<path style="fill:none;stroke:red;stroke-width:1px;stroke-linecap:butt;stroke-linejoin:miter;stroke-opacity:1" d="M 776.919,179.265 794.445,179.265 z" id="boundary" inkscape:connector-curvature="0" />
	<path style="fill:none;stroke:red;stroke-width:1px;stroke-linecap:butt;stroke-linejoin:miter;stroke-opacity:1" d="M 794.445,179.265 811.972,179.265 z" id="boundary" inkscape:connector-curvature="0" />
	<path style="fill:none;stroke:red;stroke-width:1px;stroke-linecap:butt;stroke-linejoin:miter;stroke-opacity:1" d="M 811.972,179.265 829.498,179.265 z" id="boundary" inkscape:connector-curvature="0" />
	<path style="fill:none;stroke:red;stroke-width:1px;stroke-linecap:butt;stroke-linejoin:miter;stroke-opacity:1" d="M 829.498,179.265 847.025,179.265 z" id="boundary" inkscape:connector-curvature="0" />
	<path style="fill:none;stroke:red;stroke-width:1px;stroke-linecap:butt;stroke-linejoin:miter;stroke-opacity:1" d="M 847.025,179.265 864.551,179.265 z" id="boundary" inkscape:connector-curvature="0" />
	<path style="fill:none;stroke:red;stroke-width:1px;stroke-linecap:butt;stroke-linejoin:miter;stroke-opacity:1" d="M 864.551,179.265 882.078,179.265 z" id="boundary" inkscape:connector-curvature="0" />
	<path style="fill:none;stroke:red;stroke-width:1px;stroke-linecap:butt;stroke-linejoin:miter;stroke-opacity:1" d="M 882.078,179.265 899.604,179.265 z" id="boundary" inkscape:connector-curvature="0" />
	<path style="fill:none;stroke:red;stroke-width:1px;stroke-linecap:butt;stroke-linejoin:miter;stroke-opacity:1" d="M 899.604,179.265 917.131,179.265 z" id="boundary" inkscape:connector-curvature="0" />
	<path style="fill:none;stroke:red;stroke-width:1px;stroke-linecap:butt;stroke-linejoin:miter;stroke-opacity:1" d="M 917.131,179.265 932.905,188.028 z" id="boundary" inkscape:connector-curvature="0" />
	<path style="fill:none;stroke:red;stroke-width:1px;stroke-linecap:butt;stroke-linejoin:miter;stroke-opacity:1" d="M 932.905,188.028 950.431,191.534 z" id="boundary" inkscape:connector-curvature="0" />
	<path style="fill:none;stroke:red;stroke-width:1px;stroke-linecap:butt;stroke-linejoin:miter;stroke-opacity:1" d="M 950.431,191.534 960.947,205.555 z" id="boundary" inkscape:connector-curvature="0" />
	<path style="fill:none;stroke:red;stroke-width:1px;stroke-linecap:butt;stroke-linejoin:miter;stroke-opacity:1" d="M 960.947,205.555 974.968,216.071 z" id="boundary" inkscape:connector-curvature="0" />
	<path style="fill:none;stroke:red;stroke-width:1px;stroke-linecap:butt;stroke-linejoin:miter;stroke-opacity:1" d="M 974.968,216.071 987.237,230.092 z" id="boundary" inkscape:connector-curvature="0" />
	<path style="fill:none;stroke:red;stroke-width:1px;stroke-linecap:butt;stroke-linejoin:miter;stroke-opacity:1" d="M 987.237,230.092 996,245.866 z" id="boundary" inkscape:connector-curvature="0" />
	<circle cx="4" cy="245.866" r="4" fill="#0" id="circle0"/>
	<circle cx="12.7633" cy="184.523" r="4" fill="#0" id="circle1"/>
	<circle cx="12.7633" cy="202.049" r="4" fill="#0" id="circle2"/>
	<circle cx="12.7633" cy="219.576" r="4" fill="#0" id="circle3"/>
	<circle cx="12.7633" cy="261.64" r="4" fill="#0" id="circle4"/>
	<circle cx="12.7633" cy="279.166" r="4" fill="#0" id="circle5"/>
	<circle cx="21.5265" cy="140.707" r="4" fill="#0" id="circle6"/>
	<circle cx="21.5265" cy="158.233" r="4" fill="#0" id="circle7"/>
	<circle cx="21.5265" cy="294.94" r="4" fill="#0" id="circle8"/>
	<circle cx="21.5265" cy="312.466" r="4" fill="#0" id="circle9"/>
	<circle cx="30.2898" cy="123.18" r="4" fill="#0" id="circle10"/>
	<circle cx="30.2898" cy="328.24" r="4" fill="#0" id="circle11"/>
	<circle cx="39.053" cy="344.014" r="4" fill="#0" id="circle12"/>
	<circle cx="44.311" cy="109.159" r="4" fill="#0" id="circle13"/>
	<circle cx="53.0742" cy="356.283" r="4" fill="#0" id="circle14"/>
	<circle cx="56.5795" cy="88.1272" r="4" fill="#0" id="circle15"/>
	<circle cx="61.8375" cy="372.057" r="4" fill="#0" id="circle16"/>
	<circle cx="70.6007" cy="74.106" r="4" fill="#0" id="circle17"/>
	<circle cx="74.106" cy="386.078" r="4" fill="#0" id="circle18"/>
	<circle cx="84.6219" cy="60.0848" r="4" fill="#0" id="circle19"/>
	<circle cx="91.6325" cy="391.336" r="4" fill="#0" id="circle20"/>
	<circle cx="102.148" cy="51.3216" r="4" fill="#0" id="circle21"/>
	<circle cx="102.148" cy="405.357" r="4" fill="#0" id="circle22"/>
	<circle cx="116.17" cy="39.053" r="4" fill="#0" id="circle23"/>
	<circle cx="116.17" cy="417.625" r="4" fill="#0" id="circle24"/>
	<circle cx="128.438" cy="25.0318" r="4" fill="#0" id="circle25"/>
	<circle cx="128.438" cy="431.647" r="4" fill="#0" id="circle26"/>
	<circle cx="145.965" cy="16.2686" r="4" fill="#0" id="circle27"/>
	<circle cx="145.965" cy="435.152" r="4" fill="#0" id="circle28"/>
	<circle cx="161.739" cy="443.915" r="4" fill="#0" id="circle29"/>
	<circle cx="163.491" cy="12.7633" r="4" fill="#0" id="circle30"/>
	<circle cx="179.265" cy="443.915" r="4" fill="#0" id="circle31"/>
	<circle cx="181.018" cy="7.5053" r="4" fill="#0" id="circle32"/>
	<circle cx="195.039" cy="452.678" r="4" fill="#0" id="circle33"/>
	<circle cx="198.544" cy="4" r="4" fill="#0" id="circle34"/>
	<circle cx="212.565" cy="452.678" r="4" fill="#0" id="circle35"/>
	<circle cx="216.071" cy="4" r="4" fill="#0" id="circle36"/>
	<circle cx="230.092" cy="452.678" r="4" fill="#0" id="circle37"/>
	<circle cx="231.845" cy="12.7633" r="4" fill="#0" id="circle38"/>
	<circle cx="247.618" cy="449.173" r="4" fill="#0" id="circle39"/>
	<circle cx="249.371" cy="12.7633" r="4" fill="#0" id="circle40"/>
	<circle cx="265.145" cy="443.915" r="4" fill="#0" id="circle41"/>
	<circle cx="266.898" cy="16.2686" r="4" fill="#0" id="circle42"/>
	<circle cx="280.919" cy="435.152" r="4" fill="#0" id="circle43"/>
	<circle cx="284.424" cy="21.5265" r="4" fill="#0" id="circle44"/>
	<circle cx="298.445" cy="32.0424" r="4" fill="#0" id="circle45"/>
	<circle cx="298.445" cy="435.152" r="4" fill="#0" id="circle46"/>
	<circle cx="314.219" cy="426.389" r="4" fill="#0" id="circle47"/>
	<circle cx="315.972" cy="39.053" r="4" fill="#0" id="circle48"/>
	<circle cx="331.746" cy="47.8163" r="4" fill="#0" id="circle49"/>
	<circle cx="331.746" cy="426.389" r="4" fill="#0" id="circle50"/>
	<circle cx="345.767" cy="60.0848" r="4" fill="#0" id="circle51"/>
	<circle cx="345.767" cy="412.367" r="4" fill="#0" id="circle52"/>
	<circle cx="359.788" cy="398.346" r="4" fill="#0" id="circle53"/>
	<circle cx="361.541" cy="68.8481" r="4" fill="#0" id="circle54"/>
	<circle cx="373.809" cy="82.8693" r="4" fill="#0" id="circle55"/>
	<circle cx="373.809" cy="382.572" r="4" fill="#0" id="circle56"/>
	<circle cx="387.83" cy="93.3852" r="4" fill="#0" id="circle57"/>
	<circle cx="391.336" cy="373.809" r="4" fill="#0" id="circle58"/>
	<circle cx="400.099" cy="107.406" r="4" fill="#0" id="circle59"/>
	<circle cx="405.357" cy="361.541" r="4" fill="#0" id="circle60"/>
	<circle cx="408.862" cy="123.18" r="4" fill="#0" id="circle61"/>
	<circle cx="415.873" cy="347.519" r="4" fill="#0" id="circle62"/>
	<circle cx="417.625" cy="138.954" r="4" fill="#0" id="circle63"/>
	<circle cx="428.141" cy="152.975" r="4" fill="#0" id="circle64"/>
	<circle cx="431.647" cy="338.756" r="4" fill="#0" id="circle65"/>
	<circle cx="445.668" cy="152.975" r="4" fill="#0" id="circle66"/>
	<circle cx="447.42" cy="347.519" r="4" fill="#0" id="circle67"/>
	<circle cx="456.184" cy="363.293" r="4" fill="#0" id="circle68"/>
	<circle cx="459.689" cy="140.707" r="4" fill="#0" id="circle69"/>
	<circle cx="471.958" cy="372.057" r="4" fill="#0" id="circle70"/>
	<circle cx="473.71" cy="126.686" r="4" fill="#0" id="circle71"/>
	<circle cx="489.484" cy="373.809" r="4" fill="#0" id="circle72"/>
	<circle cx="491.237" cy="126.686" r="4" fill="#0" id="circle73"/>
	<circle cx="505.258" cy="365.046" r="4" fill="#0" id="circle74"/>
	<circle cx="508.763" cy="126.686" r="4" fill="#0" id="circle75"/>
	<circle cx="514.021" cy="347.519" r="4" fill="#0" id="circle76"/>
	<circle cx="522.784" cy="137.201" r="4" fill="#0" id="circle77"/>
	<circle cx="528.042" cy="335.251" r="4" fill="#0" id="circle78"/>
	<circle cx="531.548" cy="152.975" r="4" fill="#0" id="circle79"/>
	<circle cx="531.548" cy="170.502" r="4" fill="#0" id="circle80"/>
	<circle cx="545.569" cy="329.993" r="4" fill="#0" id="circle81"/>
	<circle cx="549.074" cy="170.502" r="4" fill="#0" id="circle82"/>
	<circle cx="561.343" cy="338.756" r="4" fill="#0" id="circle83"/>
	<circle cx="566.601" cy="170.502" r="4" fill="#0" id="circle84"/>
	<circle cx="578.869" cy="338.756" r="4" fill="#0" id="circle85"/>
	<circle cx="584.127" cy="170.502" r="4" fill="#0" id="circle86"/>
	<circle cx="596.396" cy="338.756" r="4" fill="#0" id="circle87"/>
	<circle cx="601.654" cy="170.502" r="4" fill="#0" id="circle88"/>
	<circle cx="613.922" cy="338.756" r="4" fill="#0" id="circle89"/>
	<circle cx="619.18" cy="170.502" r="4" fill="#0" id="circle90"/>
	<circle cx="631.449" cy="338.756" r="4" fill="#0" id="circle91"/>
	<circle cx="636.707" cy="175.76" r="4" fill="#0" id="circle92"/>
	<circle cx="648.975" cy="338.756" r="4" fill="#0" id="circle93"/>
	<circle cx="654.233" cy="179.265" r="4" fill="#0" id="circle94"/>
	<circle cx="666.502" cy="338.756" r="4" fill="#0" id="circle95"/>
	<circle cx="671.76" cy="179.265" r="4" fill="#0" id="circle96"/>
	<circle cx="684.028" cy="338.756" r="4" fill="#0" id="circle97"/>
	<circle cx="689.286" cy="179.265" r="4" fill="#0" id="circle98"/>
	<circle cx="701.555" cy="338.756" r="4" fill="#0" id="circle99"/>
	<circle cx="706.813" cy="179.265" r="4" fill="#0" id="circle100"/>
	<circle cx="717.329" cy="347.519" r="4" fill="#0" id="circle101"/>
	<circle cx="724.339" cy="179.265" r="4" fill="#0" id="circle102"/>
	<circle cx="734.855" cy="347.519" r="4" fill="#0" id="circle103"/>
	<circle cx="741.866" cy="179.265" r="4" fill="#0" id="circle104"/>
	<circle cx="752.382" cy="347.519" r="4" fill="#0" id="circle105"/>
	<circle cx="759.392" cy="179.265" r="4" fill="#0" id="circle106"/>
	<circle cx="769.908" cy="347.519" r="4" fill="#0" id="circle107"/>
	<circle cx="776.919" cy="179.265" r="4" fill="#0" id="circle108"/>
	<circle cx="787.435" cy="347.519" r="4" fill="#0" id="circle109"/>
	<circle cx="794.445" cy="179.265" r="4" fill="#0" id="circle110"/>
	<circle cx="804.961" cy="347.519" r="4" fill="#0" id="circle111"/>
	<circle cx="811.972" cy="179.265" r="4" fill="#0" id="circle112"/>
	<circle cx="822.488" cy="347.519" r="4" fill="#0" id="circle113"/>
	<circle cx="829.498" cy="179.265" r="4" fill="#0" id="circle114"/>
	<circle cx="840.014" cy="347.519" r="4" fill="#0" id="circle115"/>
	<circle cx="847.025" cy="179.265" r="4" fill="#0" id="circle116"/>
	<circle cx="857.541" cy="347.519" r="4" fill="#0" id="circle117"/>
	<circle cx="864.551" cy="179.265" r="4" fill="#0" id="circle118"/>
	<circle cx="875.067" cy="347.519" r="4" fill="#0" id="circle119"/>
	<circle cx="882.078" cy="179.265" r="4" fill="#0" id="circle120"/>
	<circle cx="892.594" cy="347.519" r="4" fill="#0" id="circle121"/>
	<circle cx="899.604" cy="179.265" r="4" fill="#0" id="circle122"/>
	<circle cx="910.12" cy="347.519" r="4" fill="#0" id="circle123"/>
	<circle cx="917.131" cy="179.265" r="4" fill="#0" id="circle124"/>
	<circle cx="927.647" cy="347.519" r="4" fill="#0" id="circle125"/>
	<circle cx="932.905" cy="188.028" r="4" fill="#0" id="circle126"/>
	<circle cx="943.42" cy="338.756" r="4" fill="#0" id="circle127"/>
	<circle cx="950.431" cy="191.534" r="4" fill="#0" id="circle128"/>
	<circle cx="959.194" cy="329.993" r="4" fill="#0" id="circle129"/>
	<circle cx="960.947" cy="205.555" r="4" fill="#0" id="circle130"/>
	<circle cx="973.216" cy="319.477" r="4" fill="#0" id="circle131"/>
	<circle cx="974.968" cy="216.071" r="4" fill="#0" id="circle132"/>
	<circle cx="987.237" cy="230.092" r="4" fill="#0" id="circle133"/>
	<circle cx="987.237" cy="294.94" r="4" fill="#0" id="circle134"/>
	<circle cx="996" cy="245.866" r="4" fill="#0" id="circle135"/>
	<circle cx="996" cy="263.392" r="4" fill="#0" id="circle136"/>
	</g>
</svg>