<?xml version="1.0" encoding="UTF-8" standalone="no"?>
<!-- Created with CurveBenchmark -->
<svg
	xmlns:dc="http://purl.org/dc/elements/1.1/"
	xmlns:cc="http://creativecommons.org/ns#"
	xmlns:rdf="http://www.w3.org/1999/02/22-rdf-syntax-ns#"
	xmlns:svg="http://www.w3.org/2000/svg"
	xmlns="http://www.w3.org/2000/svg"
	xmlns:sodipodi="http://sodipodi.sourceforge.net/DTD/sodipodi-0.dtd"
	xmlns:inkscape="http://www.inkscape.org/namespaces/inkscape"
	width="1000"
	height="1000"
	id="svg2"
	version="1.1"
	sodipodi:docname="manifold/connect2d-cthand12.png.txt">
<defs
	id="defs4" />
<metadata
	id="metadata7">
	<rdf:RDF>
		<cc:Work
			rdf:about="">
			<dc:format>image/svg+xml</dc:format>
			<dc:type
				rdf:resource="http://purl.org/dc/dcmitype/StillImage" />
			<dc:title></dc:title>
		</cc:Work>
	</rdf:RDF>
</metadata>
<g
	inkscape:label="Layer 1"
	inkscape:groupmode="layer"
	id="layer1">
	<path style="fill:none;stroke:red;stroke-width:1px;stroke-linecap:butt;stroke-linejoin:miter;stroke-opacity:1" d="M 699.504,467.669 699.504,483.44 z" id="boundary" inkscape:connector-curvature="0" />
	<path style="fill:none;stroke:red;stroke-width:1px;stroke-linecap:butt;stroke-linejoin:miter;stroke-opacity:1" d="M 699.504,483.44 696.35,511.828 z" id="boundary" inkscape:connector-curvature="0" />
	<path style="fill:none;stroke:red;stroke-width:1px;stroke-linecap:butt;stroke-linejoin:miter;stroke-opacity:1" d="M 696.35,511.828 683.733,522.868 z" id="boundary" inkscape:connector-curvature="0" />
	<path style="fill:none;stroke:red;stroke-width:1px;stroke-linecap:butt;stroke-linejoin:miter;stroke-opacity:1" d="M 683.733,522.868 675.847,538.639 z" id="boundary" inkscape:connector-curvature="0" />
	<path style="fill:none;stroke:red;stroke-width:1px;stroke-linecap:butt;stroke-linejoin:miter;stroke-opacity:1" d="M 675.847,538.639 667.962,554.41 z" id="boundary" inkscape:connector-curvature="0" />
	<path style="fill:none;stroke:red;stroke-width:1px;stroke-linecap:butt;stroke-linejoin:miter;stroke-opacity:1" d="M 667.962,554.41 664.808,582.798 z" id="boundary" inkscape:connector-curvature="0" />
	<path style="fill:none;stroke:red;stroke-width:1px;stroke-linecap:butt;stroke-linejoin:miter;stroke-opacity:1" d="M 664.808,582.798 652.191,593.838 z" id="boundary" inkscape:connector-curvature="0" />
	<path style="fill:none;stroke:red;stroke-width:1px;stroke-linecap:butt;stroke-linejoin:miter;stroke-opacity:1" d="M 652.191,593.838 649.037,614.34 z" id="boundary" inkscape:connector-curvature="0" />
	<path style="fill:none;stroke:red;stroke-width:1px;stroke-linecap:butt;stroke-linejoin:miter;stroke-opacity:1" d="M 649.037,614.34 636.42,625.38 z" id="boundary" inkscape:connector-curvature="0" />
	<path style="fill:none;stroke:red;stroke-width:1px;stroke-linecap:butt;stroke-linejoin:miter;stroke-opacity:1" d="M 636.42,625.38 636.42,641.151 z" id="boundary" inkscape:connector-curvature="0" />
	<path style="fill:none;stroke:red;stroke-width:1px;stroke-linecap:butt;stroke-linejoin:miter;stroke-opacity:1" d="M 636.42,641.151 625.38,661.653 z" id="boundary" inkscape:connector-curvature="0" />
	<path style="fill:none;stroke:red;stroke-width:1px;stroke-linecap:butt;stroke-linejoin:miter;stroke-opacity:1" d="M 625.38,661.653 617.494,677.424 z" id="boundary" inkscape:connector-curvature="0" />
	<path style="fill:none;stroke:red;stroke-width:1px;stroke-linecap:butt;stroke-linejoin:miter;stroke-opacity:1" d="M 617.494,677.424 604.878,688.464 z" id="boundary" inkscape:connector-curvature="0" />
	<path style="fill:none;stroke:red;stroke-width:1px;stroke-linecap:butt;stroke-linejoin:miter;stroke-opacity:1" d="M 604.878,688.464 604.878,704.235 z" id="boundary" inkscape:connector-curvature="0" />
	<path style="fill:none;stroke:red;stroke-width:1px;stroke-linecap:butt;stroke-linejoin:miter;stroke-opacity:1" d="M 604.878,704.235 596.992,727.892 z" id="boundary" inkscape:connector-curvature="0" />
	<path style="fill:none;stroke:red;stroke-width:1px;stroke-linecap:butt;stroke-linejoin:miter;stroke-opacity:1" d="M 596.992,727.892 593.838,748.394 z" id="boundary" inkscape:connector-curvature="0" />
	<path style="fill:none;stroke:red;stroke-width:1px;stroke-linecap:butt;stroke-linejoin:miter;stroke-opacity:1" d="M 593.838,748.394 585.952,764.165 z" id="boundary" inkscape:connector-curvature="0" />
	<path style="fill:none;stroke:red;stroke-width:1px;stroke-linecap:butt;stroke-linejoin:miter;stroke-opacity:1" d="M 585.952,764.165 578.067,779.936 z" id="boundary" inkscape:connector-curvature="0" />
	<path style="fill:none;stroke:red;stroke-width:1px;stroke-linecap:butt;stroke-linejoin:miter;stroke-opacity:1" d="M 578.067,779.936 565.45,790.976 z" id="boundary" inkscape:connector-curvature="0" />
	<path style="fill:none;stroke:red;stroke-width:1px;stroke-linecap:butt;stroke-linejoin:miter;stroke-opacity:1" d="M 565.45,790.976 557.564,806.747 z" id="boundary" inkscape:connector-curvature="0" />
	<path style="fill:none;stroke:red;stroke-width:1px;stroke-linecap:butt;stroke-linejoin:miter;stroke-opacity:1" d="M 557.564,806.747 546.525,819.364 z" id="boundary" inkscape:connector-curvature="0" />
	<path style="fill:none;stroke:red;stroke-width:1px;stroke-linecap:butt;stroke-linejoin:miter;stroke-opacity:1" d="M 546.525,819.364 533.908,830.404 z" id="boundary" inkscape:connector-curvature="0" />
	<path style="fill:none;stroke:red;stroke-width:1px;stroke-linecap:butt;stroke-linejoin:miter;stroke-opacity:1" d="M 533.908,830.404 533.908,846.175 z" id="boundary" inkscape:connector-curvature="0" />
	<path style="fill:none;stroke:red;stroke-width:1px;stroke-linecap:butt;stroke-linejoin:miter;stroke-opacity:1" d="M 533.908,846.175 522.868,858.792 z" id="boundary" inkscape:connector-curvature="0" />
	<path style="fill:none;stroke:red;stroke-width:1px;stroke-linecap:butt;stroke-linejoin:miter;stroke-opacity:1" d="M 522.868,858.792 514.983,874.563 z" id="boundary" inkscape:connector-curvature="0" />
	<path style="fill:none;stroke:red;stroke-width:1px;stroke-linecap:butt;stroke-linejoin:miter;stroke-opacity:1" d="M 514.983,874.563 507.097,890.334 z" id="boundary" inkscape:connector-curvature="0" />
	<path style="fill:none;stroke:red;stroke-width:1px;stroke-linecap:butt;stroke-linejoin:miter;stroke-opacity:1" d="M 507.097,890.334 494.48,901.374 z" id="boundary" inkscape:connector-curvature="0" />
	<path style="fill:none;stroke:red;stroke-width:1px;stroke-linecap:butt;stroke-linejoin:miter;stroke-opacity:1" d="M 494.48,901.374 488.172,917.145 z" id="boundary" inkscape:connector-curvature="0" />
	<path style="fill:none;stroke:red;stroke-width:1px;stroke-linecap:butt;stroke-linejoin:miter;stroke-opacity:1" d="M 488.172,917.145 473.978,925.03 z" id="boundary" inkscape:connector-curvature="0" />
	<path style="fill:none;stroke:red;stroke-width:1px;stroke-linecap:butt;stroke-linejoin:miter;stroke-opacity:1" d="M 473.978,925.03 466.092,939.224 z" id="boundary" inkscape:connector-curvature="0" />
	<path style="fill:none;stroke:red;stroke-width:1px;stroke-linecap:butt;stroke-linejoin:miter;stroke-opacity:1" d="M 466.092,939.224 453.475,948.687 z" id="boundary" inkscape:connector-curvature="0" />
	<path style="fill:none;stroke:red;stroke-width:1px;stroke-linecap:butt;stroke-linejoin:miter;stroke-opacity:1" d="M 453.475,948.687 439.281,956.572 z" id="boundary" inkscape:connector-curvature="0" />
	<path style="fill:none;stroke:red;stroke-width:1px;stroke-linecap:butt;stroke-linejoin:miter;stroke-opacity:1" d="M 439.281,956.572 426.665,970.766 z" id="boundary" inkscape:connector-curvature="0" />
	<path style="fill:none;stroke:red;stroke-width:1px;stroke-linecap:butt;stroke-linejoin:miter;stroke-opacity:1" d="M 426.665,970.766 414.048,980.229 z" id="boundary" inkscape:connector-curvature="0" />
	<path style="fill:none;stroke:red;stroke-width:1px;stroke-linecap:butt;stroke-linejoin:miter;stroke-opacity:1" d="M 414.048,980.229 399.854,988.114 z" id="boundary" inkscape:connector-curvature="0" />
	<path style="fill:none;stroke:red;stroke-width:1px;stroke-linecap:butt;stroke-linejoin:miter;stroke-opacity:1" d="M 399.854,988.114 384.083,996 z" id="boundary" inkscape:connector-curvature="0" />
	<path style="fill:none;stroke:red;stroke-width:1px;stroke-linecap:butt;stroke-linejoin:miter;stroke-opacity:1" d="M 384.083,996 369.889,988.114 z" id="boundary" inkscape:connector-curvature="0" />
	<path style="fill:none;stroke:red;stroke-width:1px;stroke-linecap:butt;stroke-linejoin:miter;stroke-opacity:1" d="M 369.889,988.114 354.118,988.114 z" id="boundary" inkscape:connector-curvature="0" />
	<path style="fill:none;stroke:red;stroke-width:1px;stroke-linecap:butt;stroke-linejoin:miter;stroke-opacity:1" d="M 354.118,988.114 338.347,984.96 z" id="boundary" inkscape:connector-curvature="0" />
	<path style="fill:none;stroke:red;stroke-width:1px;stroke-linecap:butt;stroke-linejoin:miter;stroke-opacity:1" d="M 338.347,984.96 322.576,980.229 z" id="boundary" inkscape:connector-curvature="0" />
	<path style="fill:none;stroke:red;stroke-width:1px;stroke-linecap:butt;stroke-linejoin:miter;stroke-opacity:1" d="M 322.576,980.229 306.804,980.229 z" id="boundary" inkscape:connector-curvature="0" />
	<path style="fill:none;stroke:red;stroke-width:1px;stroke-linecap:butt;stroke-linejoin:miter;stroke-opacity:1" d="M 306.804,980.229 291.033,977.075 z" id="boundary" inkscape:connector-curvature="0" />
	<path style="fill:none;stroke:red;stroke-width:1px;stroke-linecap:butt;stroke-linejoin:miter;stroke-opacity:1" d="M 291.033,977.075 275.262,972.343 z" id="boundary" inkscape:connector-curvature="0" />
	<path style="fill:none;stroke:red;stroke-width:1px;stroke-linecap:butt;stroke-linejoin:miter;stroke-opacity:1" d="M 275.262,972.343 259.491,972.343 z" id="boundary" inkscape:connector-curvature="0" />
	<path style="fill:none;stroke:red;stroke-width:1px;stroke-linecap:butt;stroke-linejoin:miter;stroke-opacity:1" d="M 259.491,972.343 243.72,972.343 z" id="boundary" inkscape:connector-curvature="0" />
	<path style="fill:none;stroke:red;stroke-width:1px;stroke-linecap:butt;stroke-linejoin:miter;stroke-opacity:1" d="M 243.72,972.343 229.526,964.458 z" id="boundary" inkscape:connector-curvature="0" />
	<path style="fill:none;stroke:red;stroke-width:1px;stroke-linecap:butt;stroke-linejoin:miter;stroke-opacity:1" d="M 229.526,964.458 213.755,964.458 z" id="boundary" inkscape:connector-curvature="0" />
	<path style="fill:none;stroke:red;stroke-width:1px;stroke-linecap:butt;stroke-linejoin:miter;stroke-opacity:1" d="M 213.755,964.458 197.984,964.458 z" id="boundary" inkscape:connector-curvature="0" />
	<path style="fill:none;stroke:red;stroke-width:1px;stroke-linecap:butt;stroke-linejoin:miter;stroke-opacity:1" d="M 197.984,964.458 183.79,956.572 z" id="boundary" inkscape:connector-curvature="0" />
	<path style="fill:none;stroke:red;stroke-width:1px;stroke-linecap:butt;stroke-linejoin:miter;stroke-opacity:1" d="M 183.79,956.572 168.019,956.572 z" id="boundary" inkscape:connector-curvature="0" />
	<path style="fill:none;stroke:red;stroke-width:1px;stroke-linecap:butt;stroke-linejoin:miter;stroke-opacity:1" d="M 168.019,956.572 152.248,956.572 z" id="boundary" inkscape:connector-curvature="0" />
	<path style="fill:none;stroke:red;stroke-width:1px;stroke-linecap:butt;stroke-linejoin:miter;stroke-opacity:1" d="M 152.248,956.572 136.477,956.572 z" id="boundary" inkscape:connector-curvature="0" />
	<path style="fill:none;stroke:red;stroke-width:1px;stroke-linecap:butt;stroke-linejoin:miter;stroke-opacity:1" d="M 136.477,956.572 120.706,956.572 z" id="boundary" inkscape:connector-curvature="0" />
	<path style="fill:none;stroke:red;stroke-width:1px;stroke-linecap:butt;stroke-linejoin:miter;stroke-opacity:1" d="M 120.706,956.572 104.935,956.572 z" id="boundary" inkscape:connector-curvature="0" />
	<path style="fill:none;stroke:red;stroke-width:1px;stroke-linecap:butt;stroke-linejoin:miter;stroke-opacity:1" d="M 104.935,956.572 90.7409,948.687 z" id="boundary" inkscape:connector-curvature="0" />
	<path style="fill:none;stroke:red;stroke-width:1px;stroke-linecap:butt;stroke-linejoin:miter;stroke-opacity:1" d="M 90.7409,948.687 74.9698,943.955 z" id="boundary" inkscape:connector-curvature="0" />
	<path style="fill:none;stroke:red;stroke-width:1px;stroke-linecap:butt;stroke-linejoin:miter;stroke-opacity:1" d="M 74.9698,943.955 74.9698,928.184 z" id="boundary" inkscape:connector-curvature="0" />
	<path style="fill:none;stroke:red;stroke-width:1px;stroke-linecap:butt;stroke-linejoin:miter;stroke-opacity:1" d="M 74.9698,928.184 82.8553,909.259 z" id="boundary" inkscape:connector-curvature="0" />
	<path style="fill:none;stroke:red;stroke-width:1px;stroke-linecap:butt;stroke-linejoin:miter;stroke-opacity:1" d="M 82.8553,909.259 82.8553,893.488 z" id="boundary" inkscape:connector-curvature="0" />
	<path style="fill:none;stroke:red;stroke-width:1px;stroke-linecap:butt;stroke-linejoin:miter;stroke-opacity:1" d="M 82.8553,893.488 82.8553,877.717 z" id="boundary" inkscape:connector-curvature="0" />
	<path style="fill:none;stroke:red;stroke-width:1px;stroke-linecap:butt;stroke-linejoin:miter;stroke-opacity:1" d="M 82.8553,877.717 79.7011,861.946 z" id="boundary" inkscape:connector-curvature="0" />
	<path style="fill:none;stroke:red;stroke-width:1px;stroke-linecap:butt;stroke-linejoin:miter;stroke-opacity:1" d="M 79.7011,861.946 74.9698,846.175 z" id="boundary" inkscape:connector-curvature="0" />
	<path style="fill:none;stroke:red;stroke-width:1px;stroke-linecap:butt;stroke-linejoin:miter;stroke-opacity:1" d="M 74.9698,846.175 74.9698,830.404 z" id="boundary" inkscape:connector-curvature="0" />
	<path style="fill:none;stroke:red;stroke-width:1px;stroke-linecap:butt;stroke-linejoin:miter;stroke-opacity:1" d="M 74.9698,830.404 67.0843,816.21 z" id="boundary" inkscape:connector-curvature="0" />
	<path style="fill:none;stroke:red;stroke-width:1px;stroke-linecap:butt;stroke-linejoin:miter;stroke-opacity:1" d="M 67.0843,816.21 67.0843,800.439 z" id="boundary" inkscape:connector-curvature="0" />
	<path style="fill:none;stroke:red;stroke-width:1px;stroke-linecap:butt;stroke-linejoin:miter;stroke-opacity:1" d="M 67.0843,800.439 67.0843,784.668 z" id="boundary" inkscape:connector-curvature="0" />
	<path style="fill:none;stroke:red;stroke-width:1px;stroke-linecap:butt;stroke-linejoin:miter;stroke-opacity:1" d="M 67.0843,784.668 67.0843,768.897 z" id="boundary" inkscape:connector-curvature="0" />
	<path style="fill:none;stroke:red;stroke-width:1px;stroke-linecap:butt;stroke-linejoin:miter;stroke-opacity:1" d="M 67.0843,768.897 59.1987,754.703 z" id="boundary" inkscape:connector-curvature="0" />
	<path style="fill:none;stroke:red;stroke-width:1px;stroke-linecap:butt;stroke-linejoin:miter;stroke-opacity:1" d="M 59.1987,754.703 59.1987,738.932 z" id="boundary" inkscape:connector-curvature="0" />
	<path style="fill:none;stroke:red;stroke-width:1px;stroke-linecap:butt;stroke-linejoin:miter;stroke-opacity:1" d="M 59.1987,738.932 59.1987,723.161 z" id="boundary" inkscape:connector-curvature="0" />
	<path style="fill:none;stroke:red;stroke-width:1px;stroke-linecap:butt;stroke-linejoin:miter;stroke-opacity:1" d="M 59.1987,723.161 67.0843,705.812 z" id="boundary" inkscape:connector-curvature="0" />
	<path style="fill:none;stroke:red;stroke-width:1px;stroke-linecap:butt;stroke-linejoin:miter;stroke-opacity:1" d="M 67.0843,705.812 67.0843,690.041 z" id="boundary" inkscape:connector-curvature="0" />
	<path style="fill:none;stroke:red;stroke-width:1px;stroke-linecap:butt;stroke-linejoin:miter;stroke-opacity:1" d="M 67.0843,690.041 67.0843,674.27 z" id="boundary" inkscape:connector-curvature="0" />
	<path style="fill:none;stroke:red;stroke-width:1px;stroke-linecap:butt;stroke-linejoin:miter;stroke-opacity:1" d="M 67.0843,674.27 67.0843,658.499 z" id="boundary" inkscape:connector-curvature="0" />
	<path style="fill:none;stroke:red;stroke-width:1px;stroke-linecap:butt;stroke-linejoin:miter;stroke-opacity:1" d="M 67.0843,658.499 67.0843,642.728 z" id="boundary" inkscape:connector-curvature="0" />
	<path style="fill:none;stroke:red;stroke-width:1px;stroke-linecap:butt;stroke-linejoin:miter;stroke-opacity:1" d="M 67.0843,642.728 67.0843,626.957 z" id="boundary" inkscape:connector-curvature="0" />
	<path style="fill:none;stroke:red;stroke-width:1px;stroke-linecap:butt;stroke-linejoin:miter;stroke-opacity:1" d="M 67.0843,626.957 67.0843,611.186 z" id="boundary" inkscape:connector-curvature="0" />
	<path style="fill:none;stroke:red;stroke-width:1px;stroke-linecap:butt;stroke-linejoin:miter;stroke-opacity:1" d="M 67.0843,611.186 67.0843,595.415 z" id="boundary" inkscape:connector-curvature="0" />
	<path style="fill:none;stroke:red;stroke-width:1px;stroke-linecap:butt;stroke-linejoin:miter;stroke-opacity:1" d="M 67.0843,595.415 67.0843,579.644 z" id="boundary" inkscape:connector-curvature="0" />
	<path style="fill:none;stroke:red;stroke-width:1px;stroke-linecap:butt;stroke-linejoin:miter;stroke-opacity:1" d="M 67.0843,579.644 67.0843,563.873 z" id="boundary" inkscape:connector-curvature="0" />
	<path style="fill:none;stroke:red;stroke-width:1px;stroke-linecap:butt;stroke-linejoin:miter;stroke-opacity:1" d="M 67.0843,563.873 59.1987,549.679 z" id="boundary" inkscape:connector-curvature="0" />
	<path style="fill:none;stroke:red;stroke-width:1px;stroke-linecap:butt;stroke-linejoin:miter;stroke-opacity:1" d="M 59.1987,549.679 59.1987,533.908 z" id="boundary" inkscape:connector-curvature="0" />
	<path style="fill:none;stroke:red;stroke-width:1px;stroke-linecap:butt;stroke-linejoin:miter;stroke-opacity:1" d="M 59.1987,533.908 59.1987,518.137 z" id="boundary" inkscape:connector-curvature="0" />
	<path style="fill:none;stroke:red;stroke-width:1px;stroke-linecap:butt;stroke-linejoin:miter;stroke-opacity:1" d="M 59.1987,518.137 51.3132,503.943 z" id="boundary" inkscape:connector-curvature="0" />
	<path style="fill:none;stroke:red;stroke-width:1px;stroke-linecap:butt;stroke-linejoin:miter;stroke-opacity:1" d="M 51.3132,503.943 51.3132,488.172 z" id="boundary" inkscape:connector-curvature="0" />
	<path style="fill:none;stroke:red;stroke-width:1px;stroke-linecap:butt;stroke-linejoin:miter;stroke-opacity:1" d="M 51.3132,488.172 45.0048,472.401 z" id="boundary" inkscape:connector-curvature="0" />
	<path style="fill:none;stroke:red;stroke-width:1px;stroke-linecap:butt;stroke-linejoin:miter;stroke-opacity:1" d="M 45.0048,472.401 43.4277,456.63 z" id="boundary" inkscape:connector-curvature="0" />
	<path style="fill:none;stroke:red;stroke-width:1px;stroke-linecap:butt;stroke-linejoin:miter;stroke-opacity:1" d="M 43.4277,456.63 35.5421,442.436 z" id="boundary" inkscape:connector-curvature="0" />
	<path style="fill:none;stroke:red;stroke-width:1px;stroke-linecap:butt;stroke-linejoin:miter;stroke-opacity:1" d="M 35.5421,442.436 35.5421,426.665 z" id="boundary" inkscape:connector-curvature="0" />
	<path style="fill:none;stroke:red;stroke-width:1px;stroke-linecap:butt;stroke-linejoin:miter;stroke-opacity:1" d="M 35.5421,426.665 27.6566,412.471 z" id="boundary" inkscape:connector-curvature="0" />
	<path style="fill:none;stroke:red;stroke-width:1px;stroke-linecap:butt;stroke-linejoin:miter;stroke-opacity:1" d="M 27.6566,412.471 27.6566,396.7 z" id="boundary" inkscape:connector-curvature="0" />
	<path style="fill:none;stroke:red;stroke-width:1px;stroke-linecap:butt;stroke-linejoin:miter;stroke-opacity:1" d="M 27.6566,396.7 24.5024,380.928 z" id="boundary" inkscape:connector-curvature="0" />
	<path style="fill:none;stroke:red;stroke-width:1px;stroke-linecap:butt;stroke-linejoin:miter;stroke-opacity:1" d="M 24.5024,380.928 19.7711,365.157 z" id="boundary" inkscape:connector-curvature="0" />
	<path style="fill:none;stroke:red;stroke-width:1px;stroke-linecap:butt;stroke-linejoin:miter;stroke-opacity:1" d="M 19.7711,365.157 19.7711,349.386 z" id="boundary" inkscape:connector-curvature="0" />
	<path style="fill:none;stroke:red;stroke-width:1px;stroke-linecap:butt;stroke-linejoin:miter;stroke-opacity:1" d="M 19.7711,349.386 11.8855,335.192 z" id="boundary" inkscape:connector-curvature="0" />
	<path style="fill:none;stroke:red;stroke-width:1px;stroke-linecap:butt;stroke-linejoin:miter;stroke-opacity:1" d="M 11.8855,335.192 11.8855,319.421 z" id="boundary" inkscape:connector-curvature="0" />
	<path style="fill:none;stroke:red;stroke-width:1px;stroke-linecap:butt;stroke-linejoin:miter;stroke-opacity:1" d="M 11.8855,319.421 11.8855,303.65 z" id="boundary" inkscape:connector-curvature="0" />
	<path style="fill:none;stroke:red;stroke-width:1px;stroke-linecap:butt;stroke-linejoin:miter;stroke-opacity:1" d="M 11.8855,303.65 11.8855,287.879 z" id="boundary" inkscape:connector-curvature="0" />
	<path style="fill:none;stroke:red;stroke-width:1px;stroke-linecap:butt;stroke-linejoin:miter;stroke-opacity:1" d="M 11.8855,287.879 4,273.685 z" id="boundary" inkscape:connector-curvature="0" />
	<path style="fill:none;stroke:red;stroke-width:1px;stroke-linecap:butt;stroke-linejoin:miter;stroke-opacity:1" d="M 4,273.685 4,257.914 z" id="boundary" inkscape:connector-curvature="0" />
	<path style="fill:none;stroke:red;stroke-width:1px;stroke-linecap:butt;stroke-linejoin:miter;stroke-opacity:1" d="M 4,257.914 11.8855,242.143 z" id="boundary" inkscape:connector-curvature="0" />
	<path style="fill:none;stroke:red;stroke-width:1px;stroke-linecap:butt;stroke-linejoin:miter;stroke-opacity:1" d="M 11.8855,242.143 19.7711,226.372 z" id="boundary" inkscape:connector-curvature="0" />
	<path style="fill:none;stroke:red;stroke-width:1px;stroke-linecap:butt;stroke-linejoin:miter;stroke-opacity:1" d="M 19.7711,226.372 27.6566,202.715 z" id="boundary" inkscape:connector-curvature="0" />
	<path style="fill:none;stroke:red;stroke-width:1px;stroke-linecap:butt;stroke-linejoin:miter;stroke-opacity:1" d="M 27.6566,202.715 43.4277,209.024 z" id="boundary" inkscape:connector-curvature="0" />
	<path style="fill:none;stroke:red;stroke-width:1px;stroke-linecap:butt;stroke-linejoin:miter;stroke-opacity:1" d="M 43.4277,209.024 52.8903,221.641 z" id="boundary" inkscape:connector-curvature="0" />
	<path style="fill:none;stroke:red;stroke-width:1px;stroke-linecap:butt;stroke-linejoin:miter;stroke-opacity:1" d="M 52.8903,221.641 68.6614,226.372 z" id="boundary" inkscape:connector-curvature="0" />
	<path style="fill:none;stroke:red;stroke-width:1px;stroke-linecap:butt;stroke-linejoin:miter;stroke-opacity:1" d="M 68.6614,226.372 74.9698,242.143 z" id="boundary" inkscape:connector-curvature="0" />
	<path style="fill:none;stroke:red;stroke-width:1px;stroke-linecap:butt;stroke-linejoin:miter;stroke-opacity:1" d="M 74.9698,242.143 76.5469,257.914 z" id="boundary" inkscape:connector-curvature="0" />
	<path style="fill:none;stroke:red;stroke-width:1px;stroke-linecap:butt;stroke-linejoin:miter;stroke-opacity:1" d="M 76.5469,257.914 84.4324,272.108 z" id="boundary" inkscape:connector-curvature="0" />
	<path style="fill:none;stroke:red;stroke-width:1px;stroke-linecap:butt;stroke-linejoin:miter;stroke-opacity:1" d="M 84.4324,272.108 84.4324,287.879 z" id="boundary" inkscape:connector-curvature="0" />
	<path style="fill:none;stroke:red;stroke-width:1px;stroke-linecap:butt;stroke-linejoin:miter;stroke-opacity:1" d="M 84.4324,287.879 84.4324,303.65 z" id="boundary" inkscape:connector-curvature="0" />
	<path style="fill:none;stroke:red;stroke-width:1px;stroke-linecap:butt;stroke-linejoin:miter;stroke-opacity:1" d="M 84.4324,303.65 92.318,317.844 z" id="boundary" inkscape:connector-curvature="0" />
	<path style="fill:none;stroke:red;stroke-width:1px;stroke-linecap:butt;stroke-linejoin:miter;stroke-opacity:1" d="M 92.318,317.844 92.318,333.615 z" id="boundary" inkscape:connector-curvature="0" />
	<path style="fill:none;stroke:red;stroke-width:1px;stroke-linecap:butt;stroke-linejoin:miter;stroke-opacity:1" d="M 92.318,333.615 95.4722,349.386 z" id="boundary" inkscape:connector-curvature="0" />
	<path style="fill:none;stroke:red;stroke-width:1px;stroke-linecap:butt;stroke-linejoin:miter;stroke-opacity:1" d="M 95.4722,349.386 100.203,365.157 z" id="boundary" inkscape:connector-curvature="0" />
	<path style="fill:none;stroke:red;stroke-width:1px;stroke-linecap:butt;stroke-linejoin:miter;stroke-opacity:1" d="M 100.203,365.157 103.358,380.928 z" id="boundary" inkscape:connector-curvature="0" />
	<path style="fill:none;stroke:red;stroke-width:1px;stroke-linecap:butt;stroke-linejoin:miter;stroke-opacity:1" d="M 103.358,380.928 111.243,395.122 z" id="boundary" inkscape:connector-curvature="0" />
	<path style="fill:none;stroke:red;stroke-width:1px;stroke-linecap:butt;stroke-linejoin:miter;stroke-opacity:1" d="M 111.243,395.122 115.975,410.893 z" id="boundary" inkscape:connector-curvature="0" />
	<path style="fill:none;stroke:red;stroke-width:1px;stroke-linecap:butt;stroke-linejoin:miter;stroke-opacity:1" d="M 115.975,410.893 123.86,425.087 z" id="boundary" inkscape:connector-curvature="0" />
	<path style="fill:none;stroke:red;stroke-width:1px;stroke-linecap:butt;stroke-linejoin:miter;stroke-opacity:1" d="M 123.86,425.087 123.86,440.859 z" id="boundary" inkscape:connector-curvature="0" />
	<path style="fill:none;stroke:red;stroke-width:1px;stroke-linecap:butt;stroke-linejoin:miter;stroke-opacity:1" d="M 123.86,440.859 136.477,450.321 z" id="boundary" inkscape:connector-curvature="0" />
	<path style="fill:none;stroke:red;stroke-width:1px;stroke-linecap:butt;stroke-linejoin:miter;stroke-opacity:1" d="M 136.477,450.321 150.671,458.207 z" id="boundary" inkscape:connector-curvature="0" />
	<path style="fill:none;stroke:red;stroke-width:1px;stroke-linecap:butt;stroke-linejoin:miter;stroke-opacity:1" d="M 150.671,458.207 153.825,439.281 z" id="boundary" inkscape:connector-curvature="0" />
	<path style="fill:none;stroke:red;stroke-width:1px;stroke-linecap:butt;stroke-linejoin:miter;stroke-opacity:1" d="M 153.825,439.281 161.711,421.933 z" id="boundary" inkscape:connector-curvature="0" />
	<path style="fill:none;stroke:red;stroke-width:1px;stroke-linecap:butt;stroke-linejoin:miter;stroke-opacity:1" d="M 161.711,421.933 161.711,406.162 z" id="boundary" inkscape:connector-curvature="0" />
	<path style="fill:none;stroke:red;stroke-width:1px;stroke-linecap:butt;stroke-linejoin:miter;stroke-opacity:1" d="M 161.711,406.162 161.711,390.391 z" id="boundary" inkscape:connector-curvature="0" />
	<path style="fill:none;stroke:red;stroke-width:1px;stroke-linecap:butt;stroke-linejoin:miter;stroke-opacity:1" d="M 161.711,390.391 161.711,374.62 z" id="boundary" inkscape:connector-curvature="0" />
	<path style="fill:none;stroke:red;stroke-width:1px;stroke-linecap:butt;stroke-linejoin:miter;stroke-opacity:1" d="M 161.711,374.62 161.711,358.849 z" id="boundary" inkscape:connector-curvature="0" />
	<path style="fill:none;stroke:red;stroke-width:1px;stroke-linecap:butt;stroke-linejoin:miter;stroke-opacity:1" d="M 161.711,358.849 153.825,344.655 z" id="boundary" inkscape:connector-curvature="0" />
	<path style="fill:none;stroke:red;stroke-width:1px;stroke-linecap:butt;stroke-linejoin:miter;stroke-opacity:1" d="M 153.825,344.655 153.825,328.884 z" id="boundary" inkscape:connector-curvature="0" />
	<path style="fill:none;stroke:red;stroke-width:1px;stroke-linecap:butt;stroke-linejoin:miter;stroke-opacity:1" d="M 153.825,328.884 153.825,313.113 z" id="boundary" inkscape:connector-curvature="0" />
	<path style="fill:none;stroke:red;stroke-width:1px;stroke-linecap:butt;stroke-linejoin:miter;stroke-opacity:1" d="M 153.825,313.113 161.711,297.342 z" id="boundary" inkscape:connector-curvature="0" />
	<path style="fill:none;stroke:red;stroke-width:1px;stroke-linecap:butt;stroke-linejoin:miter;stroke-opacity:1" d="M 161.711,297.342 161.711,281.571 z" id="boundary" inkscape:connector-curvature="0" />
	<path style="fill:none;stroke:red;stroke-width:1px;stroke-linecap:butt;stroke-linejoin:miter;stroke-opacity:1" d="M 161.711,281.571 161.711,265.8 z" id="boundary" inkscape:connector-curvature="0" />
	<path style="fill:none;stroke:red;stroke-width:1px;stroke-linecap:butt;stroke-linejoin:miter;stroke-opacity:1" d="M 161.711,265.8 161.711,250.029 z" id="boundary" inkscape:connector-curvature="0" />
	<path style="fill:none;stroke:red;stroke-width:1px;stroke-linecap:butt;stroke-linejoin:miter;stroke-opacity:1" d="M 161.711,250.029 161.711,234.258 z" id="boundary" inkscape:connector-curvature="0" />
	<path style="fill:none;stroke:red;stroke-width:1px;stroke-linecap:butt;stroke-linejoin:miter;stroke-opacity:1" d="M 161.711,234.258 161.711,218.486 z" id="boundary" inkscape:connector-curvature="0" />
	<path style="fill:none;stroke:red;stroke-width:1px;stroke-linecap:butt;stroke-linejoin:miter;stroke-opacity:1" d="M 161.711,218.486 169.596,202.715 z" id="boundary" inkscape:connector-curvature="0" />
	<path style="fill:none;stroke:red;stroke-width:1px;stroke-linecap:butt;stroke-linejoin:miter;stroke-opacity:1" d="M 169.596,202.715 169.596,186.944 z" id="boundary" inkscape:connector-curvature="0" />
	<path style="fill:none;stroke:red;stroke-width:1px;stroke-linecap:butt;stroke-linejoin:miter;stroke-opacity:1" d="M 169.596,186.944 169.596,171.173 z" id="boundary" inkscape:connector-curvature="0" />
	<path style="fill:none;stroke:red;stroke-width:1px;stroke-linecap:butt;stroke-linejoin:miter;stroke-opacity:1" d="M 169.596,171.173 169.596,155.402 z" id="boundary" inkscape:connector-curvature="0" />
	<path style="fill:none;stroke:red;stroke-width:1px;stroke-linecap:butt;stroke-linejoin:miter;stroke-opacity:1" d="M 169.596,155.402 169.596,139.631 z" id="boundary" inkscape:connector-curvature="0" />
	<path style="fill:none;stroke:red;stroke-width:1px;stroke-linecap:butt;stroke-linejoin:miter;stroke-opacity:1" d="M 169.596,139.631 177.482,115.975 z" id="boundary" inkscape:connector-curvature="0" />
	<path style="fill:none;stroke:red;stroke-width:1px;stroke-linecap:butt;stroke-linejoin:miter;stroke-opacity:1" d="M 177.482,115.975 177.482,100.203 z" id="boundary" inkscape:connector-curvature="0" />
	<path style="fill:none;stroke:red;stroke-width:1px;stroke-linecap:butt;stroke-linejoin:miter;stroke-opacity:1" d="M 177.482,100.203 190.099,87.5866 z" id="boundary" inkscape:connector-curvature="0" />
	<path style="fill:none;stroke:red;stroke-width:1px;stroke-linecap:butt;stroke-linejoin:miter;stroke-opacity:1" d="M 190.099,87.5866 202.715,74.9698 z" id="boundary" inkscape:connector-curvature="0" />
	<path style="fill:none;stroke:red;stroke-width:1px;stroke-linecap:butt;stroke-linejoin:miter;stroke-opacity:1" d="M 202.715,74.9698 215.332,63.93 z" id="boundary" inkscape:connector-curvature="0" />
	<path style="fill:none;stroke:red;stroke-width:1px;stroke-linecap:butt;stroke-linejoin:miter;stroke-opacity:1" d="M 215.332,63.93 226.372,51.3132 z" id="boundary" inkscape:connector-curvature="0" />
	<path style="fill:none;stroke:red;stroke-width:1px;stroke-linecap:butt;stroke-linejoin:miter;stroke-opacity:1" d="M 226.372,51.3132 234.258,65.5072 z" id="boundary" inkscape:connector-curvature="0" />
	<path style="fill:none;stroke:red;stroke-width:1px;stroke-linecap:butt;stroke-linejoin:miter;stroke-opacity:1" d="M 234.258,65.5072 242.143,79.7011 z" id="boundary" inkscape:connector-curvature="0" />
	<path style="fill:none;stroke:red;stroke-width:1px;stroke-linecap:butt;stroke-linejoin:miter;stroke-opacity:1" d="M 242.143,79.7011 254.76,89.1638 z" id="boundary" inkscape:connector-curvature="0" />
	<path style="fill:none;stroke:red;stroke-width:1px;stroke-linecap:butt;stroke-linejoin:miter;stroke-opacity:1" d="M 254.76,89.1638 257.914,104.935 z" id="boundary" inkscape:connector-curvature="0" />
	<path style="fill:none;stroke:red;stroke-width:1px;stroke-linecap:butt;stroke-linejoin:miter;stroke-opacity:1" d="M 257.914,104.935 250.029,128.591 z" id="boundary" inkscape:connector-curvature="0" />
	<path style="fill:none;stroke:red;stroke-width:1px;stroke-linecap:butt;stroke-linejoin:miter;stroke-opacity:1" d="M 250.029,128.591 250.029,144.362 z" id="boundary" inkscape:connector-curvature="0" />
	<path style="fill:none;stroke:red;stroke-width:1px;stroke-linecap:butt;stroke-linejoin:miter;stroke-opacity:1" d="M 250.029,144.362 250.029,160.134 z" id="boundary" inkscape:connector-curvature="0" />
	<path style="fill:none;stroke:red;stroke-width:1px;stroke-linecap:butt;stroke-linejoin:miter;stroke-opacity:1" d="M 250.029,160.134 250.029,175.905 z" id="boundary" inkscape:connector-curvature="0" />
	<path style="fill:none;stroke:red;stroke-width:1px;stroke-linecap:butt;stroke-linejoin:miter;stroke-opacity:1" d="M 250.029,175.905 242.143,191.676 z" id="boundary" inkscape:connector-curvature="0" />
	<path style="fill:none;stroke:red;stroke-width:1px;stroke-linecap:butt;stroke-linejoin:miter;stroke-opacity:1" d="M 242.143,191.676 242.143,207.447 z" id="boundary" inkscape:connector-curvature="0" />
	<path style="fill:none;stroke:red;stroke-width:1px;stroke-linecap:butt;stroke-linejoin:miter;stroke-opacity:1" d="M 242.143,207.447 242.143,223.218 z" id="boundary" inkscape:connector-curvature="0" />
	<path style="fill:none;stroke:red;stroke-width:1px;stroke-linecap:butt;stroke-linejoin:miter;stroke-opacity:1" d="M 242.143,223.218 242.143,238.989 z" id="boundary" inkscape:connector-curvature="0" />
	<path style="fill:none;stroke:red;stroke-width:1px;stroke-linecap:butt;stroke-linejoin:miter;stroke-opacity:1" d="M 242.143,238.989 242.143,254.76 z" id="boundary" inkscape:connector-curvature="0" />
	<path style="fill:none;stroke:red;stroke-width:1px;stroke-linecap:butt;stroke-linejoin:miter;stroke-opacity:1" d="M 242.143,254.76 242.143,270.531 z" id="boundary" inkscape:connector-curvature="0" />
	<path style="fill:none;stroke:red;stroke-width:1px;stroke-linecap:butt;stroke-linejoin:miter;stroke-opacity:1" d="M 242.143,270.531 242.143,286.302 z" id="boundary" inkscape:connector-curvature="0" />
	<path style="fill:none;stroke:red;stroke-width:1px;stroke-linecap:butt;stroke-linejoin:miter;stroke-opacity:1" d="M 242.143,286.302 242.143,302.073 z" id="boundary" inkscape:connector-curvature="0" />
	<path style="fill:none;stroke:red;stroke-width:1px;stroke-linecap:butt;stroke-linejoin:miter;stroke-opacity:1" d="M 242.143,302.073 250.029,316.267 z" id="boundary" inkscape:connector-curvature="0" />
	<path style="fill:none;stroke:red;stroke-width:1px;stroke-linecap:butt;stroke-linejoin:miter;stroke-opacity:1" d="M 250.029,316.267 250.029,332.038 z" id="boundary" inkscape:connector-curvature="0" />
	<path style="fill:none;stroke:red;stroke-width:1px;stroke-linecap:butt;stroke-linejoin:miter;stroke-opacity:1" d="M 250.029,332.038 250.029,347.809 z" id="boundary" inkscape:connector-curvature="0" />
	<path style="fill:none;stroke:red;stroke-width:1px;stroke-linecap:butt;stroke-linejoin:miter;stroke-opacity:1" d="M 250.029,347.809 257.914,362.003 z" id="boundary" inkscape:connector-curvature="0" />
	<path style="fill:none;stroke:red;stroke-width:1px;stroke-linecap:butt;stroke-linejoin:miter;stroke-opacity:1" d="M 257.914,362.003 257.914,377.774 z" id="boundary" inkscape:connector-curvature="0" />
	<path style="fill:none;stroke:red;stroke-width:1px;stroke-linecap:butt;stroke-linejoin:miter;stroke-opacity:1" d="M 257.914,377.774 270.531,387.237 z" id="boundary" inkscape:connector-curvature="0" />
	<path style="fill:none;stroke:red;stroke-width:1px;stroke-linecap:butt;stroke-linejoin:miter;stroke-opacity:1" d="M 270.531,387.237 272.108,369.889 z" id="boundary" inkscape:connector-curvature="0" />
	<path style="fill:none;stroke:red;stroke-width:1px;stroke-linecap:butt;stroke-linejoin:miter;stroke-opacity:1" d="M 272.108,369.889 279.994,344.655 z" id="boundary" inkscape:connector-curvature="0" />
	<path style="fill:none;stroke:red;stroke-width:1px;stroke-linecap:butt;stroke-linejoin:miter;stroke-opacity:1" d="M 279.994,344.655 279.994,328.884 z" id="boundary" inkscape:connector-curvature="0" />
	<path style="fill:none;stroke:red;stroke-width:1px;stroke-linecap:butt;stroke-linejoin:miter;stroke-opacity:1" d="M 279.994,328.884 279.994,313.113 z" id="boundary" inkscape:connector-curvature="0" />
	<path style="fill:none;stroke:red;stroke-width:1px;stroke-linecap:butt;stroke-linejoin:miter;stroke-opacity:1" d="M 279.994,313.113 279.994,297.342 z" id="boundary" inkscape:connector-curvature="0" />
	<path style="fill:none;stroke:red;stroke-width:1px;stroke-linecap:butt;stroke-linejoin:miter;stroke-opacity:1" d="M 279.994,297.342 279.994,281.571 z" id="boundary" inkscape:connector-curvature="0" />
	<path style="fill:none;stroke:red;stroke-width:1px;stroke-linecap:butt;stroke-linejoin:miter;stroke-opacity:1" d="M 279.994,281.571 279.994,265.8 z" id="boundary" inkscape:connector-curvature="0" />
	<path style="fill:none;stroke:red;stroke-width:1px;stroke-linecap:butt;stroke-linejoin:miter;stroke-opacity:1" d="M 279.994,265.8 279.994,250.029 z" id="boundary" inkscape:connector-curvature="0" />
	<path style="fill:none;stroke:red;stroke-width:1px;stroke-linecap:butt;stroke-linejoin:miter;stroke-opacity:1" d="M 279.994,250.029 279.994,234.258 z" id="boundary" inkscape:connector-curvature="0" />
	<path style="fill:none;stroke:red;stroke-width:1px;stroke-linecap:butt;stroke-linejoin:miter;stroke-opacity:1" d="M 279.994,234.258 287.879,210.601 z" id="boundary" inkscape:connector-curvature="0" />
	<path style="fill:none;stroke:red;stroke-width:1px;stroke-linecap:butt;stroke-linejoin:miter;stroke-opacity:1" d="M 287.879,210.601 295.765,186.944 z" id="boundary" inkscape:connector-curvature="0" />
	<path style="fill:none;stroke:red;stroke-width:1px;stroke-linecap:butt;stroke-linejoin:miter;stroke-opacity:1" d="M 295.765,186.944 295.765,171.173 z" id="boundary" inkscape:connector-curvature="0" />
	<path style="fill:none;stroke:red;stroke-width:1px;stroke-linecap:butt;stroke-linejoin:miter;stroke-opacity:1" d="M 295.765,171.173 295.765,155.402 z" id="boundary" inkscape:connector-curvature="0" />
	<path style="fill:none;stroke:red;stroke-width:1px;stroke-linecap:butt;stroke-linejoin:miter;stroke-opacity:1" d="M 295.765,155.402 295.765,139.631 z" id="boundary" inkscape:connector-curvature="0" />
	<path style="fill:none;stroke:red;stroke-width:1px;stroke-linecap:butt;stroke-linejoin:miter;stroke-opacity:1" d="M 295.765,139.631 295.765,123.86 z" id="boundary" inkscape:connector-curvature="0" />
	<path style="fill:none;stroke:red;stroke-width:1px;stroke-linecap:butt;stroke-linejoin:miter;stroke-opacity:1" d="M 295.765,123.86 295.765,108.089 z" id="boundary" inkscape:connector-curvature="0" />
	<path style="fill:none;stroke:red;stroke-width:1px;stroke-linecap:butt;stroke-linejoin:miter;stroke-opacity:1" d="M 295.765,108.089 295.765,92.318 z" id="boundary" inkscape:connector-curvature="0" />
	<path style="fill:none;stroke:red;stroke-width:1px;stroke-linecap:butt;stroke-linejoin:miter;stroke-opacity:1" d="M 295.765,92.318 303.65,68.6614 z" id="boundary" inkscape:connector-curvature="0" />
	<path style="fill:none;stroke:red;stroke-width:1px;stroke-linecap:butt;stroke-linejoin:miter;stroke-opacity:1" d="M 303.65,68.6614 303.65,52.8903 z" id="boundary" inkscape:connector-curvature="0" />
	<path style="fill:none;stroke:red;stroke-width:1px;stroke-linecap:butt;stroke-linejoin:miter;stroke-opacity:1" d="M 303.65,52.8903 316.267,40.2734 z" id="boundary" inkscape:connector-curvature="0" />
	<path style="fill:none;stroke:red;stroke-width:1px;stroke-linecap:butt;stroke-linejoin:miter;stroke-opacity:1" d="M 316.267,40.2734 328.884,27.6566 z" id="boundary" inkscape:connector-curvature="0" />
	<path style="fill:none;stroke:red;stroke-width:1px;stroke-linecap:butt;stroke-linejoin:miter;stroke-opacity:1" d="M 328.884,27.6566 341.501,16.6169 z" id="boundary" inkscape:connector-curvature="0" />
	<path style="fill:none;stroke:red;stroke-width:1px;stroke-linecap:butt;stroke-linejoin:miter;stroke-opacity:1" d="M 341.501,16.6169 352.541,4 z" id="boundary" inkscape:connector-curvature="0" />
	<path style="fill:none;stroke:red;stroke-width:1px;stroke-linecap:butt;stroke-linejoin:miter;stroke-opacity:1" d="M 352.541,4 362.003,16.6169 z" id="boundary" inkscape:connector-curvature="0" />
	<path style="fill:none;stroke:red;stroke-width:1px;stroke-linecap:butt;stroke-linejoin:miter;stroke-opacity:1" d="M 362.003,16.6169 368.312,32.3879 z" id="boundary" inkscape:connector-curvature="0" />
	<path style="fill:none;stroke:red;stroke-width:1px;stroke-linecap:butt;stroke-linejoin:miter;stroke-opacity:1" d="M 368.312,32.3879 376.197,46.5819 z" id="boundary" inkscape:connector-curvature="0" />
	<path style="fill:none;stroke:red;stroke-width:1px;stroke-linecap:butt;stroke-linejoin:miter;stroke-opacity:1" d="M 376.197,46.5819 384.083,60.7758 z" id="boundary" inkscape:connector-curvature="0" />
	<path style="fill:none;stroke:red;stroke-width:1px;stroke-linecap:butt;stroke-linejoin:miter;stroke-opacity:1" d="M 384.083,60.7758 384.083,76.5469 z" id="boundary" inkscape:connector-curvature="0" />
	<path style="fill:none;stroke:red;stroke-width:1px;stroke-linecap:butt;stroke-linejoin:miter;stroke-opacity:1" d="M 384.083,76.5469 384.083,92.318 z" id="boundary" inkscape:connector-curvature="0" />
	<path style="fill:none;stroke:red;stroke-width:1px;stroke-linecap:butt;stroke-linejoin:miter;stroke-opacity:1" d="M 384.083,92.318 384.083,108.089 z" id="boundary" inkscape:connector-curvature="0" />
	<path style="fill:none;stroke:red;stroke-width:1px;stroke-linecap:butt;stroke-linejoin:miter;stroke-opacity:1" d="M 384.083,108.089 384.083,123.86 z" id="boundary" inkscape:connector-curvature="0" />
	<path style="fill:none;stroke:red;stroke-width:1px;stroke-linecap:butt;stroke-linejoin:miter;stroke-opacity:1" d="M 384.083,123.86 384.083,139.631 z" id="boundary" inkscape:connector-curvature="0" />
	<path style="fill:none;stroke:red;stroke-width:1px;stroke-linecap:butt;stroke-linejoin:miter;stroke-opacity:1" d="M 384.083,139.631 384.083,155.402 z" id="boundary" inkscape:connector-curvature="0" />
	<path style="fill:none;stroke:red;stroke-width:1px;stroke-linecap:butt;stroke-linejoin:miter;stroke-opacity:1" d="M 384.083,155.402 376.197,183.79 z" id="boundary" inkscape:connector-curvature="0" />
	<path style="fill:none;stroke:red;stroke-width:1px;stroke-linecap:butt;stroke-linejoin:miter;stroke-opacity:1" d="M 376.197,183.79 376.197,199.561 z" id="boundary" inkscape:connector-curvature="0" />
	<path style="fill:none;stroke:red;stroke-width:1px;stroke-linecap:butt;stroke-linejoin:miter;stroke-opacity:1" d="M 376.197,199.561 376.197,215.332 z" id="boundary" inkscape:connector-curvature="0" />
	<path style="fill:none;stroke:red;stroke-width:1px;stroke-linecap:butt;stroke-linejoin:miter;stroke-opacity:1" d="M 376.197,215.332 376.197,231.103 z" id="boundary" inkscape:connector-curvature="0" />
	<path style="fill:none;stroke:red;stroke-width:1px;stroke-linecap:butt;stroke-linejoin:miter;stroke-opacity:1" d="M 376.197,231.103 368.312,254.76 z" id="boundary" inkscape:connector-curvature="0" />
	<path style="fill:none;stroke:red;stroke-width:1px;stroke-linecap:butt;stroke-linejoin:miter;stroke-opacity:1" d="M 368.312,254.76 368.312,270.531 z" id="boundary" inkscape:connector-curvature="0" />
	<path style="fill:none;stroke:red;stroke-width:1px;stroke-linecap:butt;stroke-linejoin:miter;stroke-opacity:1" d="M 368.312,270.531 368.312,286.302 z" id="boundary" inkscape:connector-curvature="0" />
	<path style="fill:none;stroke:red;stroke-width:1px;stroke-linecap:butt;stroke-linejoin:miter;stroke-opacity:1" d="M 368.312,286.302 368.312,302.073 z" id="boundary" inkscape:connector-curvature="0" />
	<path style="fill:none;stroke:red;stroke-width:1px;stroke-linecap:butt;stroke-linejoin:miter;stroke-opacity:1" d="M 368.312,302.073 368.312,317.844 z" id="boundary" inkscape:connector-curvature="0" />
	<path style="fill:none;stroke:red;stroke-width:1px;stroke-linecap:butt;stroke-linejoin:miter;stroke-opacity:1" d="M 368.312,317.844 368.312,333.615 z" id="boundary" inkscape:connector-curvature="0" />
	<path style="fill:none;stroke:red;stroke-width:1px;stroke-linecap:butt;stroke-linejoin:miter;stroke-opacity:1" d="M 368.312,333.615 368.312,349.386 z" id="boundary" inkscape:connector-curvature="0" />
	<path style="fill:none;stroke:red;stroke-width:1px;stroke-linecap:butt;stroke-linejoin:miter;stroke-opacity:1" d="M 368.312,349.386 368.312,365.157 z" id="boundary" inkscape:connector-curvature="0" />
	<path style="fill:none;stroke:red;stroke-width:1px;stroke-linecap:butt;stroke-linejoin:miter;stroke-opacity:1" d="M 368.312,365.157 371.466,380.928 z" id="boundary" inkscape:connector-curvature="0" />
	<path style="fill:none;stroke:red;stroke-width:1px;stroke-linecap:butt;stroke-linejoin:miter;stroke-opacity:1" d="M 371.466,380.928 379.351,395.122 z" id="boundary" inkscape:connector-curvature="0" />
	<path style="fill:none;stroke:red;stroke-width:1px;stroke-linecap:butt;stroke-linejoin:miter;stroke-opacity:1" d="M 379.351,395.122 384.083,410.893 z" id="boundary" inkscape:connector-curvature="0" />
	<path style="fill:none;stroke:red;stroke-width:1px;stroke-linecap:butt;stroke-linejoin:miter;stroke-opacity:1" d="M 384.083,410.893 398.277,418.779 z" id="boundary" inkscape:connector-curvature="0" />
	<path style="fill:none;stroke:red;stroke-width:1px;stroke-linecap:butt;stroke-linejoin:miter;stroke-opacity:1" d="M 398.277,418.779 407.739,406.162 z" id="boundary" inkscape:connector-curvature="0" />
	<path style="fill:none;stroke:red;stroke-width:1px;stroke-linecap:butt;stroke-linejoin:miter;stroke-opacity:1" d="M 407.739,406.162 420.356,395.122 z" id="boundary" inkscape:connector-curvature="0" />
	<path style="fill:none;stroke:red;stroke-width:1px;stroke-linecap:butt;stroke-linejoin:miter;stroke-opacity:1" d="M 420.356,395.122 434.55,387.237 z" id="boundary" inkscape:connector-curvature="0" />
	<path style="fill:none;stroke:red;stroke-width:1px;stroke-linecap:butt;stroke-linejoin:miter;stroke-opacity:1" d="M 434.55,387.237 437.704,360.426 z" id="boundary" inkscape:connector-curvature="0" />
	<path style="fill:none;stroke:red;stroke-width:1px;stroke-linecap:butt;stroke-linejoin:miter;stroke-opacity:1" d="M 437.704,360.426 445.59,344.655 z" id="boundary" inkscape:connector-curvature="0" />
	<path style="fill:none;stroke:red;stroke-width:1px;stroke-linecap:butt;stroke-linejoin:miter;stroke-opacity:1" d="M 445.59,344.655 445.59,328.884 z" id="boundary" inkscape:connector-curvature="0" />
	<path style="fill:none;stroke:red;stroke-width:1px;stroke-linecap:butt;stroke-linejoin:miter;stroke-opacity:1" d="M 445.59,328.884 458.207,316.267 z" id="boundary" inkscape:connector-curvature="0" />
	<path style="fill:none;stroke:red;stroke-width:1px;stroke-linecap:butt;stroke-linejoin:miter;stroke-opacity:1" d="M 458.207,316.267 466.092,300.496 z" id="boundary" inkscape:connector-curvature="0" />
	<path style="fill:none;stroke:red;stroke-width:1px;stroke-linecap:butt;stroke-linejoin:miter;stroke-opacity:1" d="M 466.092,300.496 469.246,281.571 z" id="boundary" inkscape:connector-curvature="0" />
	<path style="fill:none;stroke:red;stroke-width:1px;stroke-linecap:butt;stroke-linejoin:miter;stroke-opacity:1" d="M 469.246,281.571 477.132,265.8 z" id="boundary" inkscape:connector-curvature="0" />
	<path style="fill:none;stroke:red;stroke-width:1px;stroke-linecap:butt;stroke-linejoin:miter;stroke-opacity:1" d="M 477.132,265.8 485.017,250.029 z" id="boundary" inkscape:connector-curvature="0" />
	<path style="fill:none;stroke:red;stroke-width:1px;stroke-linecap:butt;stroke-linejoin:miter;stroke-opacity:1" d="M 485.017,250.029 492.903,226.372 z" id="boundary" inkscape:connector-curvature="0" />
	<path style="fill:none;stroke:red;stroke-width:1px;stroke-linecap:butt;stroke-linejoin:miter;stroke-opacity:1" d="M 492.903,226.372 500.789,202.715 z" id="boundary" inkscape:connector-curvature="0" />
	<path style="fill:none;stroke:red;stroke-width:1px;stroke-linecap:butt;stroke-linejoin:miter;stroke-opacity:1" d="M 500.789,202.715 500.789,186.944 z" id="boundary" inkscape:connector-curvature="0" />
	<path style="fill:none;stroke:red;stroke-width:1px;stroke-linecap:butt;stroke-linejoin:miter;stroke-opacity:1" d="M 500.789,186.944 508.674,171.173 z" id="boundary" inkscape:connector-curvature="0" />
	<path style="fill:none;stroke:red;stroke-width:1px;stroke-linecap:butt;stroke-linejoin:miter;stroke-opacity:1" d="M 508.674,171.173 516.56,155.402 z" id="boundary" inkscape:connector-curvature="0" />
	<path style="fill:none;stroke:red;stroke-width:1px;stroke-linecap:butt;stroke-linejoin:miter;stroke-opacity:1" d="M 516.56,155.402 524.445,139.631 z" id="boundary" inkscape:connector-curvature="0" />
	<path style="fill:none;stroke:red;stroke-width:1px;stroke-linecap:butt;stroke-linejoin:miter;stroke-opacity:1" d="M 524.445,139.631 532.331,123.86 z" id="boundary" inkscape:connector-curvature="0" />
	<path style="fill:none;stroke:red;stroke-width:1px;stroke-linecap:butt;stroke-linejoin:miter;stroke-opacity:1" d="M 532.331,123.86 548.102,119.129 z" id="boundary" inkscape:connector-curvature="0" />
	<path style="fill:none;stroke:red;stroke-width:1px;stroke-linecap:butt;stroke-linejoin:miter;stroke-opacity:1" d="M 548.102,119.129 562.296,111.243 z" id="boundary" inkscape:connector-curvature="0" />
	<path style="fill:none;stroke:red;stroke-width:1px;stroke-linecap:butt;stroke-linejoin:miter;stroke-opacity:1" d="M 562.296,111.243 576.49,103.358 z" id="boundary" inkscape:connector-curvature="0" />
	<path style="fill:none;stroke:red;stroke-width:1px;stroke-linecap:butt;stroke-linejoin:miter;stroke-opacity:1" d="M 576.49,103.358 581.221,119.129 z" id="boundary" inkscape:connector-curvature="0" />
	<path style="fill:none;stroke:red;stroke-width:1px;stroke-linecap:butt;stroke-linejoin:miter;stroke-opacity:1" d="M 581.221,119.129 589.107,133.323 z" id="boundary" inkscape:connector-curvature="0" />
	<path style="fill:none;stroke:red;stroke-width:1px;stroke-linecap:butt;stroke-linejoin:miter;stroke-opacity:1" d="M 589.107,133.323 589.107,149.094 z" id="boundary" inkscape:connector-curvature="0" />
	<path style="fill:none;stroke:red;stroke-width:1px;stroke-linecap:butt;stroke-linejoin:miter;stroke-opacity:1" d="M 589.107,149.094 596.992,163.288 z" id="boundary" inkscape:connector-curvature="0" />
	<path style="fill:none;stroke:red;stroke-width:1px;stroke-linecap:butt;stroke-linejoin:miter;stroke-opacity:1" d="M 596.992,163.288 596.992,179.059 z" id="boundary" inkscape:connector-curvature="0" />
	<path style="fill:none;stroke:red;stroke-width:1px;stroke-linecap:butt;stroke-linejoin:miter;stroke-opacity:1" d="M 596.992,179.059 589.107,199.561 z" id="boundary" inkscape:connector-curvature="0" />
	<path style="fill:none;stroke:red;stroke-width:1px;stroke-linecap:butt;stroke-linejoin:miter;stroke-opacity:1" d="M 589.107,199.561 581.221,223.218 z" id="boundary" inkscape:connector-curvature="0" />
	<path style="fill:none;stroke:red;stroke-width:1px;stroke-linecap:butt;stroke-linejoin:miter;stroke-opacity:1" d="M 581.221,223.218 573.335,246.874 z" id="boundary" inkscape:connector-curvature="0" />
	<path style="fill:none;stroke:red;stroke-width:1px;stroke-linecap:butt;stroke-linejoin:miter;stroke-opacity:1" d="M 573.335,246.874 573.335,262.645 z" id="boundary" inkscape:connector-curvature="0" />
	<path style="fill:none;stroke:red;stroke-width:1px;stroke-linecap:butt;stroke-linejoin:miter;stroke-opacity:1" d="M 573.335,262.645 565.45,286.302 z" id="boundary" inkscape:connector-curvature="0" />
	<path style="fill:none;stroke:red;stroke-width:1px;stroke-linecap:butt;stroke-linejoin:miter;stroke-opacity:1" d="M 565.45,286.302 557.564,309.959 z" id="boundary" inkscape:connector-curvature="0" />
	<path style="fill:none;stroke:red;stroke-width:1px;stroke-linecap:butt;stroke-linejoin:miter;stroke-opacity:1" d="M 557.564,309.959 549.679,325.73 z" id="boundary" inkscape:connector-curvature="0" />
	<path style="fill:none;stroke:red;stroke-width:1px;stroke-linecap:butt;stroke-linejoin:miter;stroke-opacity:1" d="M 549.679,325.73 541.793,341.501 z" id="boundary" inkscape:connector-curvature="0" />
	<path style="fill:none;stroke:red;stroke-width:1px;stroke-linecap:butt;stroke-linejoin:miter;stroke-opacity:1" d="M 541.793,341.501 533.908,357.272 z" id="boundary" inkscape:connector-curvature="0" />
	<path style="fill:none;stroke:red;stroke-width:1px;stroke-linecap:butt;stroke-linejoin:miter;stroke-opacity:1" d="M 533.908,357.272 533.908,373.043 z" id="boundary" inkscape:connector-curvature="0" />
	<path style="fill:none;stroke:red;stroke-width:1px;stroke-linecap:butt;stroke-linejoin:miter;stroke-opacity:1" d="M 533.908,373.043 526.022,396.7 z" id="boundary" inkscape:connector-curvature="0" />
	<path style="fill:none;stroke:red;stroke-width:1px;stroke-linecap:butt;stroke-linejoin:miter;stroke-opacity:1" d="M 526.022,396.7 518.137,420.356 z" id="boundary" inkscape:connector-curvature="0" />
	<path style="fill:none;stroke:red;stroke-width:1px;stroke-linecap:butt;stroke-linejoin:miter;stroke-opacity:1" d="M 518.137,420.356 510.251,436.127 z" id="boundary" inkscape:connector-curvature="0" />
	<path style="fill:none;stroke:red;stroke-width:1px;stroke-linecap:butt;stroke-linejoin:miter;stroke-opacity:1" d="M 510.251,436.127 502.366,451.898 z" id="boundary" inkscape:connector-curvature="0" />
	<path style="fill:none;stroke:red;stroke-width:1px;stroke-linecap:butt;stroke-linejoin:miter;stroke-opacity:1" d="M 502.366,451.898 502.366,467.669 z" id="boundary" inkscape:connector-curvature="0" />
	<path style="fill:none;stroke:red;stroke-width:1px;stroke-linecap:butt;stroke-linejoin:miter;stroke-opacity:1" d="M 502.366,467.669 502.366,483.44 z" id="boundary" inkscape:connector-curvature="0" />
	<path style="fill:none;stroke:red;stroke-width:1px;stroke-linecap:butt;stroke-linejoin:miter;stroke-opacity:1" d="M 502.366,483.44 502.366,499.211 z" id="boundary" inkscape:connector-curvature="0" />
	<path style="fill:none;stroke:red;stroke-width:1px;stroke-linecap:butt;stroke-linejoin:miter;stroke-opacity:1" d="M 502.366,499.211 502.366,514.983 z" id="boundary" inkscape:connector-curvature="0" />
	<path style="fill:none;stroke:red;stroke-width:1px;stroke-linecap:butt;stroke-linejoin:miter;stroke-opacity:1" d="M 502.366,514.983 494.48,538.639 z" id="boundary" inkscape:connector-curvature="0" />
	<path style="fill:none;stroke:red;stroke-width:1px;stroke-linecap:butt;stroke-linejoin:miter;stroke-opacity:1" d="M 494.48,538.639 494.48,554.41 z" id="boundary" inkscape:connector-curvature="0" />
	<path style="fill:none;stroke:red;stroke-width:1px;stroke-linecap:butt;stroke-linejoin:miter;stroke-opacity:1" d="M 494.48,554.41 494.48,570.181 z" id="boundary" inkscape:connector-curvature="0" />
	<path style="fill:none;stroke:red;stroke-width:1px;stroke-linecap:butt;stroke-linejoin:miter;stroke-opacity:1" d="M 494.48,570.181 502.366,584.375 z" id="boundary" inkscape:connector-curvature="0" />
	<path style="fill:none;stroke:red;stroke-width:1px;stroke-linecap:butt;stroke-linejoin:miter;stroke-opacity:1" d="M 502.366,584.375 502.366,600.146 z" id="boundary" inkscape:connector-curvature="0" />
	<path style="fill:none;stroke:red;stroke-width:1px;stroke-linecap:butt;stroke-linejoin:miter;stroke-opacity:1" d="M 502.366,600.146 502.366,615.917 z" id="boundary" inkscape:connector-curvature="0" />
	<path style="fill:none;stroke:red;stroke-width:1px;stroke-linecap:butt;stroke-linejoin:miter;stroke-opacity:1" d="M 502.366,615.917 502.366,631.688 z" id="boundary" inkscape:connector-curvature="0" />
	<path style="fill:none;stroke:red;stroke-width:1px;stroke-linecap:butt;stroke-linejoin:miter;stroke-opacity:1" d="M 502.366,631.688 502.366,647.459 z" id="boundary" inkscape:connector-curvature="0" />
	<path style="fill:none;stroke:red;stroke-width:1px;stroke-linecap:butt;stroke-linejoin:miter;stroke-opacity:1" d="M 502.366,647.459 518.137,642.728 z" id="boundary" inkscape:connector-curvature="0" />
	<path style="fill:none;stroke:red;stroke-width:1px;stroke-linecap:butt;stroke-linejoin:miter;stroke-opacity:1" d="M 518.137,642.728 530.754,631.688 z" id="boundary" inkscape:connector-curvature="0" />
	<path style="fill:none;stroke:red;stroke-width:1px;stroke-linecap:butt;stroke-linejoin:miter;stroke-opacity:1" d="M 530.754,631.688 540.216,612.763 z" id="boundary" inkscape:connector-curvature="0" />
	<path style="fill:none;stroke:red;stroke-width:1px;stroke-linecap:butt;stroke-linejoin:miter;stroke-opacity:1" d="M 540.216,612.763 548.102,596.992 z" id="boundary" inkscape:connector-curvature="0" />
	<path style="fill:none;stroke:red;stroke-width:1px;stroke-linecap:butt;stroke-linejoin:miter;stroke-opacity:1" d="M 548.102,596.992 560.719,584.375 z" id="boundary" inkscape:connector-curvature="0" />
	<path style="fill:none;stroke:red;stroke-width:1px;stroke-linecap:butt;stroke-linejoin:miter;stroke-opacity:1" d="M 560.719,584.375 563.873,565.45 z" id="boundary" inkscape:connector-curvature="0" />
	<path style="fill:none;stroke:red;stroke-width:1px;stroke-linecap:butt;stroke-linejoin:miter;stroke-opacity:1" d="M 563.873,565.45 571.758,541.793 z" id="boundary" inkscape:connector-curvature="0" />
	<path style="fill:none;stroke:red;stroke-width:1px;stroke-linecap:butt;stroke-linejoin:miter;stroke-opacity:1" d="M 571.758,541.793 571.758,526.022 z" id="boundary" inkscape:connector-curvature="0" />
	<path style="fill:none;stroke:red;stroke-width:1px;stroke-linecap:butt;stroke-linejoin:miter;stroke-opacity:1" d="M 571.758,526.022 584.375,513.405 z" id="boundary" inkscape:connector-curvature="0" />
	<path style="fill:none;stroke:red;stroke-width:1px;stroke-linecap:butt;stroke-linejoin:miter;stroke-opacity:1" d="M 584.375,513.405 596.992,500.789 z" id="boundary" inkscape:connector-curvature="0" />
	<path style="fill:none;stroke:red;stroke-width:1px;stroke-linecap:butt;stroke-linejoin:miter;stroke-opacity:1" d="M 596.992,500.789 604.878,485.017 z" id="boundary" inkscape:connector-curvature="0" />
	<path style="fill:none;stroke:red;stroke-width:1px;stroke-linecap:butt;stroke-linejoin:miter;stroke-opacity:1" d="M 604.878,485.017 617.494,473.978 z" id="boundary" inkscape:connector-curvature="0" />
	<path style="fill:none;stroke:red;stroke-width:1px;stroke-linecap:butt;stroke-linejoin:miter;stroke-opacity:1" d="M 617.494,473.978 628.534,461.361 z" id="boundary" inkscape:connector-curvature="0" />
	<path style="fill:none;stroke:red;stroke-width:1px;stroke-linecap:butt;stroke-linejoin:miter;stroke-opacity:1" d="M 628.534,461.361 641.151,450.321 z" id="boundary" inkscape:connector-curvature="0" />
	<path style="fill:none;stroke:red;stroke-width:1px;stroke-linecap:butt;stroke-linejoin:miter;stroke-opacity:1" d="M 641.151,450.321 655.345,442.436 z" id="boundary" inkscape:connector-curvature="0" />
	<path style="fill:none;stroke:red;stroke-width:1px;stroke-linecap:butt;stroke-linejoin:miter;stroke-opacity:1" d="M 655.345,442.436 671.116,442.436 z" id="boundary" inkscape:connector-curvature="0" />
	<path style="fill:none;stroke:red;stroke-width:1px;stroke-linecap:butt;stroke-linejoin:miter;stroke-opacity:1" d="M 671.116,442.436 686.887,442.436 z" id="boundary" inkscape:connector-curvature="0" />
	<path style="fill:none;stroke:red;stroke-width:1px;stroke-linecap:butt;stroke-linejoin:miter;stroke-opacity:1" d="M 686.887,442.436 699.504,451.898 z" id="boundary" inkscape:connector-curvature="0" />
	<path style="fill:none;stroke:red;stroke-width:1px;stroke-linecap:butt;stroke-linejoin:miter;stroke-opacity:1" d="M 699.504,451.898 699.504,467.669 z" id="boundary" inkscape:connector-curvature="0" />
	<circle cx="4" cy="257.914" r="4" fill="#0" id="circle0"/>
	<circle cx="4" cy="273.685" r="4" fill="#0" id="circle1"/>
	<circle cx="11.8855" cy="242.143" r="4" fill="#0" id="circle2"/>
	<circle cx="11.8855" cy="287.879" r="4" fill="#0" id="circle3"/>
	<circle cx="11.8855" cy="303.65" r="4" fill="#0" id="circle4"/>
	<circle cx="11.8855" cy="319.421" r="4" fill="#0" id="circle5"/>
	<circle cx="11.8855" cy="335.192" r="4" fill="#0" id="circle6"/>
	<circle cx="19.7711" cy="226.372" r="4" fill="#0" id="circle7"/>
	<circle cx="19.7711" cy="349.386" r="4" fill="#0" id="circle8"/>
	<circle cx="19.7711" cy="365.157" r="4" fill="#0" id="circle9"/>
	<circle cx="24.5024" cy="380.928" r="4" fill="#0" id="circle10"/>
	<circle cx="27.6566" cy="202.715" r="4" fill="#0" id="circle11"/>
	<circle cx="27.6566" cy="396.7" r="4" fill="#0" id="circle12"/>
	<circle cx="27.6566" cy="412.471" r="4" fill="#0" id="circle13"/>
	<circle cx="35.5421" cy="426.665" r="4" fill="#0" id="circle14"/>
	<circle cx="35.5421" cy="442.436" r="4" fill="#0" id="circle15"/>
	<circle cx="43.4277" cy="209.024" r="4" fill="#0" id="circle16"/>
	<circle cx="43.4277" cy="456.63" r="4" fill="#0" id="circle17"/>
	<circle cx="45.0048" cy="472.401" r="4" fill="#0" id="circle18"/>
	<circle cx="51.3132" cy="488.172" r="4" fill="#0" id="circle19"/>
	<circle cx="51.3132" cy="503.943" r="4" fill="#0" id="circle20"/>
	<circle cx="52.8903" cy="221.641" r="4" fill="#0" id="circle21"/>
	<circle cx="59.1987" cy="518.137" r="4" fill="#0" id="circle22"/>
	<circle cx="59.1987" cy="533.908" r="4" fill="#0" id="circle23"/>
	<circle cx="59.1987" cy="549.679" r="4" fill="#0" id="circle24"/>
	<circle cx="59.1987" cy="723.161" r="4" fill="#0" id="circle25"/>
	<circle cx="59.1987" cy="738.932" r="4" fill="#0" id="circle26"/>
	<circle cx="59.1987" cy="754.703" r="4" fill="#0" id="circle27"/>
	<circle cx="67.0843" cy="563.873" r="4" fill="#0" id="circle28"/>
	<circle cx="67.0843" cy="579.644" r="4" fill="#0" id="circle29"/>
	<circle cx="67.0843" cy="595.415" r="4" fill="#0" id="circle30"/>
	<circle cx="67.0843" cy="611.186" r="4" fill="#0" id="circle31"/>
	<circle cx="67.0843" cy="626.957" r="4" fill="#0" id="circle32"/>
	<circle cx="67.0843" cy="642.728" r="4" fill="#0" id="circle33"/>
	<circle cx="67.0843" cy="658.499" r="4" fill="#0" id="circle34"/>
	<circle cx="67.0843" cy="674.27" r="4" fill="#0" id="circle35"/>
	<circle cx="67.0843" cy="690.041" r="4" fill="#0" id="circle36"/>
	<circle cx="67.0843" cy="705.812" r="4" fill="#0" id="circle37"/>
	<circle cx="67.0843" cy="768.897" r="4" fill="#0" id="circle38"/>
	<circle cx="67.0843" cy="784.668" r="4" fill="#0" id="circle39"/>
	<circle cx="67.0843" cy="800.439" r="4" fill="#0" id="circle40"/>
	<circle cx="67.0843" cy="816.21" r="4" fill="#0" id="circle41"/>
	<circle cx="68.6614" cy="226.372" r="4" fill="#0" id="circle42"/>
	<circle cx="74.9698" cy="242.143" r="4" fill="#0" id="circle43"/>
	<circle cx="74.9698" cy="830.404" r="4" fill="#0" id="circle44"/>
	<circle cx="74.9698" cy="846.175" r="4" fill="#0" id="circle45"/>
	<circle cx="74.9698" cy="928.184" r="4" fill="#0" id="circle46"/>
	<circle cx="74.9698" cy="943.955" r="4" fill="#0" id="circle47"/>
	<circle cx="76.5469" cy="257.914" r="4" fill="#0" id="circle48"/>
	<circle cx="79.7011" cy="861.946" r="4" fill="#0" id="circle49"/>
	<circle cx="82.8553" cy="877.717" r="4" fill="#0" id="circle50"/>
	<circle cx="82.8553" cy="893.488" r="4" fill="#0" id="circle51"/>
	<circle cx="82.8553" cy="909.259" r="4" fill="#0" id="circle52"/>
	<circle cx="84.4324" cy="272.108" r="4" fill="#0" id="circle53"/>
	<circle cx="84.4324" cy="287.879" r="4" fill="#0" id="circle54"/>
	<circle cx="84.4324" cy="303.65" r="4" fill="#0" id="circle55"/>
	<circle cx="90.7409" cy="948.687" r="4" fill="#0" id="circle56"/>
	<circle cx="92.318" cy="317.844" r="4" fill="#0" id="circle57"/>
	<circle cx="92.318" cy="333.615" r="4" fill="#0" id="circle58"/>
	<circle cx="95.4722" cy="349.386" r="4" fill="#0" id="circle59"/>
	<circle cx="100.203" cy="365.157" r="4" fill="#0" id="circle60"/>
	<circle cx="103.358" cy="380.928" r="4" fill="#0" id="circle61"/>
	<circle cx="104.935" cy="956.572" r="4" fill="#0" id="circle62"/>
	<circle cx="111.243" cy="395.122" r="4" fill="#0" id="circle63"/>
	<circle cx="115.975" cy="410.893" r="4" fill="#0" id="circle64"/>
	<circle cx="120.706" cy="956.572" r="4" fill="#0" id="circle65"/>
	<circle cx="123.86" cy="425.087" r="4" fill="#0" id="circle66"/>
	<circle cx="123.86" cy="440.859" r="4" fill="#0" id="circle67"/>
	<circle cx="136.477" cy="450.321" r="4" fill="#0" id="circle68"/>
	<circle cx="136.477" cy="956.572" r="4" fill="#0" id="circle69"/>
	<circle cx="150.671" cy="458.207" r="4" fill="#0" id="circle70"/>
	<circle cx="152.248" cy="956.572" r="4" fill="#0" id="circle71"/>
	<circle cx="153.825" cy="313.113" r="4" fill="#0" id="circle72"/>
	<circle cx="153.825" cy="328.884" r="4" fill="#0" id="circle73"/>
	<circle cx="153.825" cy="344.655" r="4" fill="#0" id="circle74"/>
	<circle cx="153.825" cy="439.281" r="4" fill="#0" id="circle75"/>
	<circle cx="161.711" cy="218.486" r="4" fill="#0" id="circle76"/>
	<circle cx="161.711" cy="234.258" r="4" fill="#0" id="circle77"/>
	<circle cx="161.711" cy="250.029" r="4" fill="#0" id="circle78"/>
	<circle cx="161.711" cy="265.8" r="4" fill="#0" id="circle79"/>
	<circle cx="161.711" cy="281.571" r="4" fill="#0" id="circle80"/>
	<circle cx="161.711" cy="297.342" r="4" fill="#0" id="circle81"/>
	<circle cx="161.711" cy="358.849" r="4" fill="#0" id="circle82"/>
	<circle cx="161.711" cy="374.62" r="4" fill="#0" id="circle83"/>
	<circle cx="161.711" cy="390.391" r="4" fill="#0" id="circle84"/>
	<circle cx="161.711" cy="406.162" r="4" fill="#0" id="circle85"/>
	<circle cx="161.711" cy="421.933" r="4" fill="#0" id="circle86"/>
	<circle cx="168.019" cy="956.572" r="4" fill="#0" id="circle87"/>
	<circle cx="169.596" cy="139.631" r="4" fill="#0" id="circle88"/>
	<circle cx="169.596" cy="155.402" r="4" fill="#0" id="circle89"/>
	<circle cx="169.596" cy="171.173" r="4" fill="#0" id="circle90"/>
	<circle cx="169.596" cy="186.944" r="4" fill="#0" id="circle91"/>
	<circle cx="169.596" cy="202.715" r="4" fill="#0" id="circle92"/>
	<circle cx="177.482" cy="100.203" r="4" fill="#0" id="circle93"/>
	<circle cx="177.482" cy="115.975" r="4" fill="#0" id="circle94"/>
	<circle cx="183.79" cy="956.572" r="4" fill="#0" id="circle95"/>
	<circle cx="190.099" cy="87.5866" r="4" fill="#0" id="circle96"/>
	<circle cx="197.984" cy="964.458" r="4" fill="#0" id="circle97"/>
	<circle cx="202.715" cy="74.9698" r="4" fill="#0" id="circle98"/>
	<circle cx="213.755" cy="964.458" r="4" fill="#0" id="circle99"/>
	<circle cx="215.332" cy="63.93" r="4" fill="#0" id="circle100"/>
	<circle cx="226.372" cy="51.3132" r="4" fill="#0" id="circle101"/>
	<circle cx="229.526" cy="964.458" r="4" fill="#0" id="circle102"/>
	<circle cx="234.258" cy="65.5072" r="4" fill="#0" id="circle103"/>
	<circle cx="242.143" cy="79.7011" r="4" fill="#0" id="circle104"/>
	<circle cx="242.143" cy="191.676" r="4" fill="#0" id="circle105"/>
	<circle cx="242.143" cy="207.447" r="4" fill="#0" id="circle106"/>
	<circle cx="242.143" cy="223.218" r="4" fill="#0" id="circle107"/>
	<circle cx="242.143" cy="238.989" r="4" fill="#0" id="circle108"/>
	<circle cx="242.143" cy="254.76" r="4" fill="#0" id="circle109"/>
	<circle cx="242.143" cy="270.531" r="4" fill="#0" id="circle110"/>
	<circle cx="242.143" cy="286.302" r="4" fill="#0" id="circle111"/>
	<circle cx="242.143" cy="302.073" r="4" fill="#0" id="circle112"/>
	<circle cx="243.72" cy="972.343" r="4" fill="#0" id="circle113"/>
	<circle cx="250.029" cy="128.591" r="4" fill="#0" id="circle114"/>
	<circle cx="250.029" cy="144.362" r="4" fill="#0" id="circle115"/>
	<circle cx="250.029" cy="160.134" r="4" fill="#0" id="circle116"/>
	<circle cx="250.029" cy="175.905" r="4" fill="#0" id="circle117"/>
	<circle cx="250.029" cy="316.267" r="4" fill="#0" id="circle118"/>
	<circle cx="250.029" cy="332.038" r="4" fill="#0" id="circle119"/>
	<circle cx="250.029" cy="347.809" r="4" fill="#0" id="circle120"/>
	<circle cx="254.76" cy="89.1638" r="4" fill="#0" id="circle121"/>
	<circle cx="257.914" cy="104.935" r="4" fill="#0" id="circle122"/>
	<circle cx="257.914" cy="362.003" r="4" fill="#0" id="circle123"/>
	<circle cx="257.914" cy="377.774" r="4" fill="#0" id="circle124"/>
	<circle cx="259.491" cy="972.343" r="4" fill="#0" id="circle125"/>
	<circle cx="270.531" cy="387.237" r="4" fill="#0" id="circle126"/>
	<circle cx="272.108" cy="369.889" r="4" fill="#0" id="circle127"/>
	<circle cx="275.262" cy="972.343" r="4" fill="#0" id="circle128"/>
	<circle cx="279.994" cy="234.258" r="4" fill="#0" id="circle129"/>
	<circle cx="279.994" cy="250.029" r="4" fill="#0" id="circle130"/>
	<circle cx="279.994" cy="265.8" r="4" fill="#0" id="circle131"/>
	<circle cx="279.994" cy="281.571" r="4" fill="#0" id="circle132"/>
	<circle cx="279.994" cy="297.342" r="4" fill="#0" id="circle133"/>
	<circle cx="279.994" cy="313.113" r="4" fill="#0" id="circle134"/>
	<circle cx="279.994" cy="328.884" r="4" fill="#0" id="circle135"/>
	<circle cx="279.994" cy="344.655" r="4" fill="#0" id="circle136"/>
	<circle cx="287.879" cy="210.601" r="4" fill="#0" id="circle137"/>
	<circle cx="291.033" cy="977.075" r="4" fill="#0" id="circle138"/>
	<circle cx="295.765" cy="92.318" r="4" fill="#0" id="circle139"/>
	<circle cx="295.765" cy="108.089" r="4" fill="#0" id="circle140"/>
	<circle cx="295.765" cy="123.86" r="4" fill="#0" id="circle141"/>
	<circle cx="295.765" cy="139.631" r="4" fill="#0" id="circle142"/>
	<circle cx="295.765" cy="155.402" r="4" fill="#0" id="circle143"/>
	<circle cx="295.765" cy="171.173" r="4" fill="#0" id="circle144"/>
	<circle cx="295.765" cy="186.944" r="4" fill="#0" id="circle145"/>
	<circle cx="303.65" cy="52.8903" r="4" fill="#0" id="circle146"/>
	<circle cx="303.65" cy="68.6614" r="4" fill="#0" id="circle147"/>
	<circle cx="306.804" cy="980.229" r="4" fill="#0" id="circle148"/>
	<circle cx="316.267" cy="40.2734" r="4" fill="#0" id="circle149"/>
	<circle cx="322.576" cy="980.229" r="4" fill="#0" id="circle150"/>
	<circle cx="328.884" cy="27.6566" r="4" fill="#0" id="circle151"/>
	<circle cx="338.347" cy="984.96" r="4" fill="#0" id="circle152"/>
	<circle cx="341.501" cy="16.6169" r="4" fill="#0" id="circle153"/>
	<circle cx="352.541" cy="4" r="4" fill="#0" id="circle154"/>
	<circle cx="354.118" cy="988.114" r="4" fill="#0" id="circle155"/>
	<circle cx="362.003" cy="16.6169" r="4" fill="#0" id="circle156"/>
	<circle cx="368.312" cy="32.3879" r="4" fill="#0" id="circle157"/>
	<circle cx="368.312" cy="254.76" r="4" fill="#0" id="circle158"/>
	<circle cx="368.312" cy="270.531" r="4" fill="#0" id="circle159"/>
	<circle cx="368.312" cy="286.302" r="4" fill="#0" id="circle160"/>
	<circle cx="368.312" cy="302.073" r="4" fill="#0" id="circle161"/>
	<circle cx="368.312" cy="317.844" r="4" fill="#0" id="circle162"/>
	<circle cx="368.312" cy="333.615" r="4" fill="#0" id="circle163"/>
	<circle cx="368.312" cy="349.386" r="4" fill="#0" id="circle164"/>
	<circle cx="368.312" cy="365.157" r="4" fill="#0" id="circle165"/>
	<circle cx="369.889" cy="988.114" r="4" fill="#0" id="circle166"/>
	<circle cx="371.466" cy="380.928" r="4" fill="#0" id="circle167"/>
	<circle cx="376.197" cy="46.5819" r="4" fill="#0" id="circle168"/>
	<circle cx="376.197" cy="183.79" r="4" fill="#0" id="circle169"/>
	<circle cx="376.197" cy="199.561" r="4" fill="#0" id="circle170"/>
	<circle cx="376.197" cy="215.332" r="4" fill="#0" id="circle171"/>
	<circle cx="376.197" cy="231.103" r="4" fill="#0" id="circle172"/>
	<circle cx="379.351" cy="395.122" r="4" fill="#0" id="circle173"/>
	<circle cx="384.083" cy="60.7758" r="4" fill="#0" id="circle174"/>
	<circle cx="384.083" cy="76.5469" r="4" fill="#0" id="circle175"/>
	<circle cx="384.083" cy="92.318" r="4" fill="#0" id="circle176"/>
	<circle cx="384.083" cy="108.089" r="4" fill="#0" id="circle177"/>
	<circle cx="384.083" cy="123.86" r="4" fill="#0" id="circle178"/>
	<circle cx="384.083" cy="139.631" r="4" fill="#0" id="circle179"/>
	<circle cx="384.083" cy="155.402" r="4" fill="#0" id="circle180"/>
	<circle cx="384.083" cy="410.893" r="4" fill="#0" id="circle181"/>
	<circle cx="384.083" cy="996" r="4" fill="#0" id="circle182"/>
	<circle cx="398.277" cy="418.779" r="4" fill="#0" id="circle183"/>
	<circle cx="399.854" cy="988.114" r="4" fill="#0" id="circle184"/>
	<circle cx="407.739" cy="406.162" r="4" fill="#0" id="circle185"/>
	<circle cx="414.048" cy="980.229" r="4" fill="#0" id="circle186"/>
	<circle cx="420.356" cy="395.122" r="4" fill="#0" id="circle187"/>
	<circle cx="426.665" cy="970.766" r="4" fill="#0" id="circle188"/>
	<circle cx="434.55" cy="387.237" r="4" fill="#0" id="circle189"/>
	<circle cx="437.704" cy="360.426" r="4" fill="#0" id="circle190"/>
	<circle cx="439.281" cy="956.572" r="4" fill="#0" id="circle191"/>
	<circle cx="445.59" cy="328.884" r="4" fill="#0" id="circle192"/>
	<circle cx="445.59" cy="344.655" r="4" fill="#0" id="circle193"/>
	<circle cx="453.475" cy="948.687" r="4" fill="#0" id="circle194"/>
	<circle cx="458.207" cy="316.267" r="4" fill="#0" id="circle195"/>
	<circle cx="466.092" cy="300.496" r="4" fill="#0" id="circle196"/>
	<circle cx="466.092" cy="939.224" r="4" fill="#0" id="circle197"/>
	<circle cx="469.246" cy="281.571" r="4" fill="#0" id="circle198"/>
	<circle cx="473.978" cy="925.03" r="4" fill="#0" id="circle199"/>
	<circle cx="477.132" cy="265.8" r="4" fill="#0" id="circle200"/>
	<circle cx="485.017" cy="250.029" r="4" fill="#0" id="circle201"/>
	<circle cx="488.172" cy="917.145" r="4" fill="#0" id="circle202"/>
	<circle cx="492.903" cy="226.372" r="4" fill="#0" id="circle203"/>
	<circle cx="494.48" cy="538.639" r="4" fill="#0" id="circle204"/>
	<circle cx="494.48" cy="554.41" r="4" fill="#0" id="circle205"/>
	<circle cx="494.48" cy="570.181" r="4" fill="#0" id="circle206"/>
	<circle cx="494.48" cy="901.374" r="4" fill="#0" id="circle207"/>
	<circle cx="500.789" cy="186.944" r="4" fill="#0" id="circle208"/>
	<circle cx="500.789" cy="202.715" r="4" fill="#0" id="circle209"/>
	<circle cx="502.366" cy="451.898" r="4" fill="#0" id="circle210"/>
	<circle cx="502.366" cy="467.669" r="4" fill="#0" id="circle211"/>
	<circle cx="502.366" cy="483.44" r="4" fill="#0" id="circle212"/>
	<circle cx="502.366" cy="499.211" r="4" fill="#0" id="circle213"/>
	<circle cx="502.366" cy="514.983" r="4" fill="#0" id="circle214"/>
	<circle cx="502.366" cy="584.375" r="4" fill="#0" id="circle215"/>
	<circle cx="502.366" cy="600.146" r="4" fill="#0" id="circle216"/>
	<circle cx="502.366" cy="615.917" r="4" fill="#0" id="circle217"/>
	<circle cx="502.366" cy="631.688" r="4" fill="#0" id="circle218"/>
	<circle cx="502.366" cy="647.459" r="4" fill="#0" id="circle219"/>
	<circle cx="507.097" cy="890.334" r="4" fill="#0" id="circle220"/>
	<circle cx="508.674" cy="171.173" r="4" fill="#0" id="circle221"/>
	<circle cx="510.251" cy="436.127" r="4" fill="#0" id="circle222"/>
	<circle cx="514.983" cy="874.563" r="4" fill="#0" id="circle223"/>
	<circle cx="516.56" cy="155.402" r="4" fill="#0" id="circle224"/>
	<circle cx="518.137" cy="420.356" r="4" fill="#0" id="circle225"/>
	<circle cx="518.137" cy="642.728" r="4" fill="#0" id="circle226"/>
	<circle cx="522.868" cy="858.792" r="4" fill="#0" id="circle227"/>
	<circle cx="524.445" cy="139.631" r="4" fill="#0" id="circle228"/>
	<circle cx="526.022" cy="396.7" r="4" fill="#0" id="circle229"/>
	<circle cx="530.754" cy="631.688" r="4" fill="#0" id="circle230"/>
	<circle cx="532.331" cy="123.86" r="4" fill="#0" id="circle231"/>
	<circle cx="533.908" cy="357.272" r="4" fill="#0" id="circle232"/>
	<circle cx="533.908" cy="373.043" r="4" fill="#0" id="circle233"/>
	<circle cx="533.908" cy="830.404" r="4" fill="#0" id="circle234"/>
	<circle cx="533.908" cy="846.175" r="4" fill="#0" id="circle235"/>
	<circle cx="540.216" cy="612.763" r="4" fill="#0" id="circle236"/>
	<circle cx="541.793" cy="341.501" r="4" fill="#0" id="circle237"/>
	<circle cx="546.525" cy="819.364" r="4" fill="#0" id="circle238"/>
	<circle cx="548.102" cy="119.129" r="4" fill="#0" id="circle239"/>
	<circle cx="548.102" cy="596.992" r="4" fill="#0" id="circle240"/>
	<circle cx="549.679" cy="325.73" r="4" fill="#0" id="circle241"/>
	<circle cx="557.564" cy="309.959" r="4" fill="#0" id="circle242"/>
	<circle cx="557.564" cy="806.747" r="4" fill="#0" id="circle243"/>
	<circle cx="560.719" cy="584.375" r="4" fill="#0" id="circle244"/>
	<circle cx="562.296" cy="111.243" r="4" fill="#0" id="circle245"/>
	<circle cx="563.873" cy="565.45" r="4" fill="#0" id="circle246"/>
	<circle cx="565.45" cy="286.302" r="4" fill="#0" id="circle247"/>
	<circle cx="565.45" cy="790.976" r="4" fill="#0" id="circle248"/>
	<circle cx="571.758" cy="526.022" r="4" fill="#0" id="circle249"/>
	<circle cx="571.758" cy="541.793" r="4" fill="#0" id="circle250"/>
	<circle cx="573.335" cy="246.874" r="4" fill="#0" id="circle251"/>
	<circle cx="573.335" cy="262.645" r="4" fill="#0" id="circle252"/>
	<circle cx="576.49" cy="103.358" r="4" fill="#0" id="circle253"/>
	<circle cx="578.067" cy="779.936" r="4" fill="#0" id="circle254"/>
	<circle cx="581.221" cy="119.129" r="4" fill="#0" id="circle255"/>
	<circle cx="581.221" cy="223.218" r="4" fill="#0" id="circle256"/>
	<circle cx="584.375" cy="513.405" r="4" fill="#0" id="circle257"/>
	<circle cx="585.952" cy="764.165" r="4" fill="#0" id="circle258"/>
	<circle cx="589.107" cy="133.323" r="4" fill="#0" id="circle259"/>
	<circle cx="589.107" cy="149.094" r="4" fill="#0" id="circle260"/>
	<circle cx="589.107" cy="199.561" r="4" fill="#0" id="circle261"/>
	<circle cx="593.838" cy="748.394" r="4" fill="#0" id="circle262"/>
	<circle cx="596.992" cy="163.288" r="4" fill="#0" id="circle263"/>
	<circle cx="596.992" cy="179.059" r="4" fill="#0" id="circle264"/>
	<circle cx="596.992" cy="500.789" r="4" fill="#0" id="circle265"/>
	<circle cx="596.992" cy="727.892" r="4" fill="#0" id="circle266"/>
	<circle cx="604.878" cy="485.017" r="4" fill="#0" id="circle267"/>
	<circle cx="604.878" cy="688.464" r="4" fill="#0" id="circle268"/>
	<circle cx="604.878" cy="704.235" r="4" fill="#0" id="circle269"/>
	<circle cx="617.494" cy="473.978" r="4" fill="#0" id="circle270"/>
	<circle cx="617.494" cy="677.424" r="4" fill="#0" id="circle271"/>
	<circle cx="625.38" cy="661.653" r="4" fill="#0" id="circle272"/>
	<circle cx="628.534" cy="461.361" r="4" fill="#0" id="circle273"/>
	<circle cx="636.42" cy="625.38" r="4" fill="#0" id="circle274"/>
	<circle cx="636.42" cy="641.151" r="4" fill="#0" id="circle275"/>
	<circle cx="641.151" cy="450.321" r="4" fill="#0" id="circle276"/>
	<circle cx="649.037" cy="614.34" r="4" fill="#0" id="circle277"/>
	<circle cx="652.191" cy="593.838" r="4" fill="#0" id="circle278"/>
	<circle cx="655.345" cy="442.436" r="4" fill="#0" id="circle279"/>
	<circle cx="664.808" cy="582.798" r="4" fill="#0" id="circle280"/>
	<circle cx="667.962" cy="554.41" r="4" fill="#0" id="circle281"/>
	<circle cx="671.116" cy="442.436" r="4" fill="#0" id="circle282"/>
	<circle cx="675.847" cy="538.639" r="4" fill="#0" id="circle283"/>
	<circle cx="683.733" cy="522.868" r="4" fill="#0" id="circle284"/>
	<circle cx="686.887" cy="442.436" r="4" fill="#0" id="circle285"/>
	<circle cx="696.35" cy="511.828" r="4" fill="#0" id="circle286"/>
	<circle cx="699.504" cy="451.898" r="4" fill="#0" id="circle287"/>
	<circle cx="699.504" cy="467.669" r="4" fill="#0" id="circle288"/>
	<circle cx="699.504" cy="483.44" r="4" fill="#0" id="circle289"/>
	</g>
</svg>