<?xml version="1.0" encoding="UTF-8" standalone="no"?>
<!-- Created with CurveBenchmark -->
<svg
	xmlns:dc="http://purl.org/dc/elements/1.1/"
	xmlns:cc="http://creativecommons.org/ns#"
	xmlns:rdf="http://www.w3.org/1999/02/22-rdf-syntax-ns#"
	xmlns:svg="http://www.w3.org/2000/svg"
	xmlns="http://www.w3.org/2000/svg"
	xmlns:sodipodi="http://sodipodi.sourceforge.net/DTD/sodipodi-0.dtd"
	xmlns:inkscape="http://www.inkscape.org/namespaces/inkscape"
	width="1000"
	height="1000"
	id="svg2"
	version="1.1"
	sodipodi:docname="manifold/crawl-pencil-1.png.txt">
<defs
	id="defs4" />
<metadata
	id="metadata7">
	<rdf:RDF>
		<cc:Work
			rdf:about="">
			<dc:format>image/svg+xml</dc:format>
			<dc:type
				rdf:resource="http://purl.org/dc/dcmitype/StillImage" />
			<dc:title></dc:title>
		</cc:Work>
	</rdf:RDF>
</metadata>
<g
	inkscape:label="Layer 1"
	inkscape:groupmode="layer"
	id="layer1">
	<path style="fill:none;stroke:red;stroke-width:1px;stroke-linecap:butt;stroke-linejoin:miter;stroke-opacity:1" d="M 4,73.0754 4,79.4713 z" id="boundary" inkscape:connector-curvature="0" />
	<path style="fill:none;stroke:red;stroke-width:1px;stroke-linecap:butt;stroke-linejoin:miter;stroke-opacity:1" d="M 4,79.4713 4,85.8672 z" id="boundary" inkscape:connector-curvature="0" />
	<path style="fill:none;stroke:red;stroke-width:1px;stroke-linecap:butt;stroke-linejoin:miter;stroke-opacity:1" d="M 4,85.8672 4,92.2631 z" id="boundary" inkscape:connector-curvature="0" />
	<path style="fill:none;stroke:red;stroke-width:1px;stroke-linecap:butt;stroke-linejoin:miter;stroke-opacity:1" d="M 4,92.2631 4,98.6589 z" id="boundary" inkscape:connector-curvature="0" />
	<path style="fill:none;stroke:red;stroke-width:1px;stroke-linecap:butt;stroke-linejoin:miter;stroke-opacity:1" d="M 4,98.6589 4,105.055 z" id="boundary" inkscape:connector-curvature="0" />
	<path style="fill:none;stroke:red;stroke-width:1px;stroke-linecap:butt;stroke-linejoin:miter;stroke-opacity:1" d="M 4,105.055 4,111.451 z" id="boundary" inkscape:connector-curvature="0" />
	<path style="fill:none;stroke:red;stroke-width:1px;stroke-linecap:butt;stroke-linejoin:miter;stroke-opacity:1" d="M 4,111.451 7.19794,117.207 z" id="boundary" inkscape:connector-curvature="0" />
	<path style="fill:none;stroke:red;stroke-width:1px;stroke-linecap:butt;stroke-linejoin:miter;stroke-opacity:1" d="M 7.19794,117.207 10.3959,122.963 z" id="boundary" inkscape:connector-curvature="0" />
	<path style="fill:none;stroke:red;stroke-width:1px;stroke-linecap:butt;stroke-linejoin:miter;stroke-opacity:1" d="M 10.3959,122.963 14.2334,128.08 z" id="boundary" inkscape:connector-curvature="0" />
	<path style="fill:none;stroke:red;stroke-width:1px;stroke-linecap:butt;stroke-linejoin:miter;stroke-opacity:1" d="M 14.2334,128.08 19.3501,132.557 z" id="boundary" inkscape:connector-curvature="0" />
	<path style="fill:none;stroke:red;stroke-width:1px;stroke-linecap:butt;stroke-linejoin:miter;stroke-opacity:1" d="M 19.3501,132.557 21.9084,138.953 z" id="boundary" inkscape:connector-curvature="0" />
	<path style="fill:none;stroke:red;stroke-width:1px;stroke-linecap:butt;stroke-linejoin:miter;stroke-opacity:1" d="M 21.9084,138.953 27.0251,143.43 z" id="boundary" inkscape:connector-curvature="0" />
	<path style="fill:none;stroke:red;stroke-width:1px;stroke-linecap:butt;stroke-linejoin:miter;stroke-opacity:1" d="M 27.0251,143.43 31.5023,148.547 z" id="boundary" inkscape:connector-curvature="0" />
	<path style="fill:none;stroke:red;stroke-width:1px;stroke-linecap:butt;stroke-linejoin:miter;stroke-opacity:1" d="M 31.5023,148.547 37.8981,151.105 z" id="boundary" inkscape:connector-curvature="0" />
	<path style="fill:none;stroke:red;stroke-width:1px;stroke-linecap:butt;stroke-linejoin:miter;stroke-opacity:1" d="M 37.8981,151.105 43.6544,154.303 z" id="boundary" inkscape:connector-curvature="0" />
	<path style="fill:none;stroke:red;stroke-width:1px;stroke-linecap:butt;stroke-linejoin:miter;stroke-opacity:1" d="M 43.6544,154.303 50.0503,156.861 z" id="boundary" inkscape:connector-curvature="0" />
	<path style="fill:none;stroke:red;stroke-width:1px;stroke-linecap:butt;stroke-linejoin:miter;stroke-opacity:1" d="M 50.0503,156.861 55.8066,160.059 z" id="boundary" inkscape:connector-curvature="0" />
	<path style="fill:none;stroke:red;stroke-width:1px;stroke-linecap:butt;stroke-linejoin:miter;stroke-opacity:1" d="M 55.8066,160.059 62.2025,161.338 z" id="boundary" inkscape:connector-curvature="0" />
	<path style="fill:none;stroke:red;stroke-width:1px;stroke-linecap:butt;stroke-linejoin:miter;stroke-opacity:1" d="M 62.2025,161.338 68.5983,162.618 z" id="boundary" inkscape:connector-curvature="0" />
	<path style="fill:none;stroke:red;stroke-width:1px;stroke-linecap:butt;stroke-linejoin:miter;stroke-opacity:1" d="M 68.5983,162.618 74.3546,165.816 z" id="boundary" inkscape:connector-curvature="0" />
	<path style="fill:none;stroke:red;stroke-width:1px;stroke-linecap:butt;stroke-linejoin:miter;stroke-opacity:1" d="M 74.3546,165.816 80.7505,167.734 z" id="boundary" inkscape:connector-curvature="0" />
	<path style="fill:none;stroke:red;stroke-width:1px;stroke-linecap:butt;stroke-linejoin:miter;stroke-opacity:1" d="M 80.7505,167.734 86.5068,170.932 z" id="boundary" inkscape:connector-curvature="0" />
	<path style="fill:none;stroke:red;stroke-width:1px;stroke-linecap:butt;stroke-linejoin:miter;stroke-opacity:1" d="M 86.5068,170.932 92.9026,170.932 z" id="boundary" inkscape:connector-curvature="0" />
	<path style="fill:none;stroke:red;stroke-width:1px;stroke-linecap:butt;stroke-linejoin:miter;stroke-opacity:1" d="M 92.9026,170.932 99.2985,170.932 z" id="boundary" inkscape:connector-curvature="0" />
	<path style="fill:none;stroke:red;stroke-width:1px;stroke-linecap:butt;stroke-linejoin:miter;stroke-opacity:1" d="M 99.2985,170.932 105.694,169.653 z" id="boundary" inkscape:connector-curvature="0" />
	<path style="fill:none;stroke:red;stroke-width:1px;stroke-linecap:butt;stroke-linejoin:miter;stroke-opacity:1" d="M 105.694,169.653 112.09,167.734 z" id="boundary" inkscape:connector-curvature="0" />
	<path style="fill:none;stroke:red;stroke-width:1px;stroke-linecap:butt;stroke-linejoin:miter;stroke-opacity:1" d="M 112.09,167.734 117.847,170.932 z" id="boundary" inkscape:connector-curvature="0" />
	<path style="fill:none;stroke:red;stroke-width:1px;stroke-linecap:butt;stroke-linejoin:miter;stroke-opacity:1" d="M 117.847,170.932 124.242,170.932 z" id="boundary" inkscape:connector-curvature="0" />
	<path style="fill:none;stroke:red;stroke-width:1px;stroke-linecap:butt;stroke-linejoin:miter;stroke-opacity:1" d="M 124.242,170.932 130.638,170.932 z" id="boundary" inkscape:connector-curvature="0" />
	<path style="fill:none;stroke:red;stroke-width:1px;stroke-linecap:butt;stroke-linejoin:miter;stroke-opacity:1" d="M 130.638,170.932 137.034,170.932 z" id="boundary" inkscape:connector-curvature="0" />
	<path style="fill:none;stroke:red;stroke-width:1px;stroke-linecap:butt;stroke-linejoin:miter;stroke-opacity:1" d="M 137.034,170.932 143.43,170.932 z" id="boundary" inkscape:connector-curvature="0" />
	<path style="fill:none;stroke:red;stroke-width:1px;stroke-linecap:butt;stroke-linejoin:miter;stroke-opacity:1" d="M 143.43,170.932 149.826,170.932 z" id="boundary" inkscape:connector-curvature="0" />
	<path style="fill:none;stroke:red;stroke-width:1px;stroke-linecap:butt;stroke-linejoin:miter;stroke-opacity:1" d="M 149.826,170.932 156.222,173.491 z" id="boundary" inkscape:connector-curvature="0" />
	<path style="fill:none;stroke:red;stroke-width:1px;stroke-linecap:butt;stroke-linejoin:miter;stroke-opacity:1" d="M 156.222,173.491 162.618,174.13 z" id="boundary" inkscape:connector-curvature="0" />
	<path style="fill:none;stroke:red;stroke-width:1px;stroke-linecap:butt;stroke-linejoin:miter;stroke-opacity:1" d="M 162.618,174.13 169.014,174.13 z" id="boundary" inkscape:connector-curvature="0" />
	<path style="fill:none;stroke:red;stroke-width:1px;stroke-linecap:butt;stroke-linejoin:miter;stroke-opacity:1" d="M 169.014,174.13 175.409,174.13 z" id="boundary" inkscape:connector-curvature="0" />
	<path style="fill:none;stroke:red;stroke-width:1px;stroke-linecap:butt;stroke-linejoin:miter;stroke-opacity:1" d="M 175.409,174.13 181.805,174.13 z" id="boundary" inkscape:connector-curvature="0" />
	<path style="fill:none;stroke:red;stroke-width:1px;stroke-linecap:butt;stroke-linejoin:miter;stroke-opacity:1" d="M 181.805,174.13 188.201,174.13 z" id="boundary" inkscape:connector-curvature="0" />
	<path style="fill:none;stroke:red;stroke-width:1px;stroke-linecap:butt;stroke-linejoin:miter;stroke-opacity:1" d="M 188.201,174.13 194.597,174.13 z" id="boundary" inkscape:connector-curvature="0" />
	<path style="fill:none;stroke:red;stroke-width:1px;stroke-linecap:butt;stroke-linejoin:miter;stroke-opacity:1" d="M 194.597,174.13 200.993,174.13 z" id="boundary" inkscape:connector-curvature="0" />
	<path style="fill:none;stroke:red;stroke-width:1px;stroke-linecap:butt;stroke-linejoin:miter;stroke-opacity:1" d="M 200.993,174.13 207.389,174.13 z" id="boundary" inkscape:connector-curvature="0" />
	<path style="fill:none;stroke:red;stroke-width:1px;stroke-linecap:butt;stroke-linejoin:miter;stroke-opacity:1" d="M 207.389,174.13 213.785,174.13 z" id="boundary" inkscape:connector-curvature="0" />
	<path style="fill:none;stroke:red;stroke-width:1px;stroke-linecap:butt;stroke-linejoin:miter;stroke-opacity:1" d="M 213.785,174.13 220.181,174.13 z" id="boundary" inkscape:connector-curvature="0" />
	<path style="fill:none;stroke:red;stroke-width:1px;stroke-linecap:butt;stroke-linejoin:miter;stroke-opacity:1" d="M 220.181,174.13 226.576,174.13 z" id="boundary" inkscape:connector-curvature="0" />
	<path style="fill:none;stroke:red;stroke-width:1px;stroke-linecap:butt;stroke-linejoin:miter;stroke-opacity:1" d="M 226.576,174.13 232.972,174.13 z" id="boundary" inkscape:connector-curvature="0" />
	<path style="fill:none;stroke:red;stroke-width:1px;stroke-linecap:butt;stroke-linejoin:miter;stroke-opacity:1" d="M 232.972,174.13 239.368,176.689 z" id="boundary" inkscape:connector-curvature="0" />
	<path style="fill:none;stroke:red;stroke-width:1px;stroke-linecap:butt;stroke-linejoin:miter;stroke-opacity:1" d="M 239.368,176.689 245.764,177.328 z" id="boundary" inkscape:connector-curvature="0" />
	<path style="fill:none;stroke:red;stroke-width:1px;stroke-linecap:butt;stroke-linejoin:miter;stroke-opacity:1" d="M 245.764,177.328 252.16,177.328 z" id="boundary" inkscape:connector-curvature="0" />
	<path style="fill:none;stroke:red;stroke-width:1px;stroke-linecap:butt;stroke-linejoin:miter;stroke-opacity:1" d="M 252.16,177.328 258.556,177.328 z" id="boundary" inkscape:connector-curvature="0" />
	<path style="fill:none;stroke:red;stroke-width:1px;stroke-linecap:butt;stroke-linejoin:miter;stroke-opacity:1" d="M 258.556,177.328 264.952,177.328 z" id="boundary" inkscape:connector-curvature="0" />
	<path style="fill:none;stroke:red;stroke-width:1px;stroke-linecap:butt;stroke-linejoin:miter;stroke-opacity:1" d="M 264.952,177.328 271.348,177.328 z" id="boundary" inkscape:connector-curvature="0" />
	<path style="fill:none;stroke:red;stroke-width:1px;stroke-linecap:butt;stroke-linejoin:miter;stroke-opacity:1" d="M 271.348,177.328 277.743,177.328 z" id="boundary" inkscape:connector-curvature="0" />
	<path style="fill:none;stroke:red;stroke-width:1px;stroke-linecap:butt;stroke-linejoin:miter;stroke-opacity:1" d="M 277.743,177.328 284.139,177.328 z" id="boundary" inkscape:connector-curvature="0" />
	<path style="fill:none;stroke:red;stroke-width:1px;stroke-linecap:butt;stroke-linejoin:miter;stroke-opacity:1" d="M 284.139,177.328 290.535,177.328 z" id="boundary" inkscape:connector-curvature="0" />
	<path style="fill:none;stroke:red;stroke-width:1px;stroke-linecap:butt;stroke-linejoin:miter;stroke-opacity:1" d="M 290.535,177.328 296.931,177.328 z" id="boundary" inkscape:connector-curvature="0" />
	<path style="fill:none;stroke:red;stroke-width:1px;stroke-linecap:butt;stroke-linejoin:miter;stroke-opacity:1" d="M 296.931,177.328 303.327,177.328 z" id="boundary" inkscape:connector-curvature="0" />
	<path style="fill:none;stroke:red;stroke-width:1px;stroke-linecap:butt;stroke-linejoin:miter;stroke-opacity:1" d="M 303.327,177.328 309.723,177.328 z" id="boundary" inkscape:connector-curvature="0" />
	<path style="fill:none;stroke:red;stroke-width:1px;stroke-linecap:butt;stroke-linejoin:miter;stroke-opacity:1" d="M 309.723,177.328 316.119,177.328 z" id="boundary" inkscape:connector-curvature="0" />
	<path style="fill:none;stroke:red;stroke-width:1px;stroke-linecap:butt;stroke-linejoin:miter;stroke-opacity:1" d="M 316.119,177.328 322.515,177.328 z" id="boundary" inkscape:connector-curvature="0" />
	<path style="fill:none;stroke:red;stroke-width:1px;stroke-linecap:butt;stroke-linejoin:miter;stroke-opacity:1" d="M 322.515,177.328 328.91,177.328 z" id="boundary" inkscape:connector-curvature="0" />
	<path style="fill:none;stroke:red;stroke-width:1px;stroke-linecap:butt;stroke-linejoin:miter;stroke-opacity:1" d="M 328.91,177.328 335.306,177.328 z" id="boundary" inkscape:connector-curvature="0" />
	<path style="fill:none;stroke:red;stroke-width:1px;stroke-linecap:butt;stroke-linejoin:miter;stroke-opacity:1" d="M 335.306,177.328 341.702,177.328 z" id="boundary" inkscape:connector-curvature="0" />
	<path style="fill:none;stroke:red;stroke-width:1px;stroke-linecap:butt;stroke-linejoin:miter;stroke-opacity:1" d="M 341.702,177.328 348.098,179.887 z" id="boundary" inkscape:connector-curvature="0" />
	<path style="fill:none;stroke:red;stroke-width:1px;stroke-linecap:butt;stroke-linejoin:miter;stroke-opacity:1" d="M 348.098,179.887 354.494,180.526 z" id="boundary" inkscape:connector-curvature="0" />
	<path style="fill:none;stroke:red;stroke-width:1px;stroke-linecap:butt;stroke-linejoin:miter;stroke-opacity:1" d="M 354.494,180.526 360.89,180.526 z" id="boundary" inkscape:connector-curvature="0" />
	<path style="fill:none;stroke:red;stroke-width:1px;stroke-linecap:butt;stroke-linejoin:miter;stroke-opacity:1" d="M 360.89,180.526 367.286,180.526 z" id="boundary" inkscape:connector-curvature="0" />
	<path style="fill:none;stroke:red;stroke-width:1px;stroke-linecap:butt;stroke-linejoin:miter;stroke-opacity:1" d="M 367.286,180.526 373.681,179.887 z" id="boundary" inkscape:connector-curvature="0" />
	<path style="fill:none;stroke:red;stroke-width:1px;stroke-linecap:butt;stroke-linejoin:miter;stroke-opacity:1" d="M 373.681,179.887 380.077,177.328 z" id="boundary" inkscape:connector-curvature="0" />
	<path style="fill:none;stroke:red;stroke-width:1px;stroke-linecap:butt;stroke-linejoin:miter;stroke-opacity:1" d="M 380.077,177.328 386.473,177.328 z" id="boundary" inkscape:connector-curvature="0" />
	<path style="fill:none;stroke:red;stroke-width:1px;stroke-linecap:butt;stroke-linejoin:miter;stroke-opacity:1" d="M 386.473,177.328 392.869,177.328 z" id="boundary" inkscape:connector-curvature="0" />
	<path style="fill:none;stroke:red;stroke-width:1px;stroke-linecap:butt;stroke-linejoin:miter;stroke-opacity:1" d="M 392.869,177.328 399.265,177.328 z" id="boundary" inkscape:connector-curvature="0" />
	<path style="fill:none;stroke:red;stroke-width:1px;stroke-linecap:butt;stroke-linejoin:miter;stroke-opacity:1" d="M 399.265,177.328 405.661,177.328 z" id="boundary" inkscape:connector-curvature="0" />
	<path style="fill:none;stroke:red;stroke-width:1px;stroke-linecap:butt;stroke-linejoin:miter;stroke-opacity:1" d="M 405.661,177.328 412.057,179.887 z" id="boundary" inkscape:connector-curvature="0" />
	<path style="fill:none;stroke:red;stroke-width:1px;stroke-linecap:butt;stroke-linejoin:miter;stroke-opacity:1" d="M 412.057,179.887 418.453,180.526 z" id="boundary" inkscape:connector-curvature="0" />
	<path style="fill:none;stroke:red;stroke-width:1px;stroke-linecap:butt;stroke-linejoin:miter;stroke-opacity:1" d="M 418.453,180.526 424.209,177.328 z" id="boundary" inkscape:connector-curvature="0" />
	<path style="fill:none;stroke:red;stroke-width:1px;stroke-linecap:butt;stroke-linejoin:miter;stroke-opacity:1" d="M 424.209,177.328 430.605,177.328 z" id="boundary" inkscape:connector-curvature="0" />
	<path style="fill:none;stroke:red;stroke-width:1px;stroke-linecap:butt;stroke-linejoin:miter;stroke-opacity:1" d="M 430.605,177.328 437.001,177.328 z" id="boundary" inkscape:connector-curvature="0" />
	<path style="fill:none;stroke:red;stroke-width:1px;stroke-linecap:butt;stroke-linejoin:miter;stroke-opacity:1" d="M 437.001,177.328 443.397,177.328 z" id="boundary" inkscape:connector-curvature="0" />
	<path style="fill:none;stroke:red;stroke-width:1px;stroke-linecap:butt;stroke-linejoin:miter;stroke-opacity:1" d="M 443.397,177.328 449.792,177.328 z" id="boundary" inkscape:connector-curvature="0" />
	<path style="fill:none;stroke:red;stroke-width:1px;stroke-linecap:butt;stroke-linejoin:miter;stroke-opacity:1" d="M 449.792,177.328 456.188,177.328 z" id="boundary" inkscape:connector-curvature="0" />
	<path style="fill:none;stroke:red;stroke-width:1px;stroke-linecap:butt;stroke-linejoin:miter;stroke-opacity:1" d="M 4,73.0754 7.19794,66.6796 z" id="boundary" inkscape:connector-curvature="0" />
	<path style="fill:none;stroke:red;stroke-width:1px;stroke-linecap:butt;stroke-linejoin:miter;stroke-opacity:1" d="M 7.19794,66.6796 10.3959,60.2837 z" id="boundary" inkscape:connector-curvature="0" />
	<path style="fill:none;stroke:red;stroke-width:1px;stroke-linecap:butt;stroke-linejoin:miter;stroke-opacity:1" d="M 456.188,177.328 461.305,172.211 z" id="boundary" inkscape:connector-curvature="0" />
	<path style="fill:none;stroke:red;stroke-width:1px;stroke-linecap:butt;stroke-linejoin:miter;stroke-opacity:1" d="M 461.305,172.211 466.422,167.734 z" id="boundary" inkscape:connector-curvature="0" />
	<path style="fill:none;stroke:red;stroke-width:1px;stroke-linecap:butt;stroke-linejoin:miter;stroke-opacity:1" d="M 466.422,167.734 472.178,164.536 z" id="boundary" inkscape:connector-curvature="0" />
	<path style="fill:none;stroke:red;stroke-width:1px;stroke-linecap:butt;stroke-linejoin:miter;stroke-opacity:1" d="M 472.178,164.536 478.574,164.536 z" id="boundary" inkscape:connector-curvature="0" />
	<path style="fill:none;stroke:red;stroke-width:1px;stroke-linecap:butt;stroke-linejoin:miter;stroke-opacity:1" d="M 478.574,164.536 484.33,161.338 z" id="boundary" inkscape:connector-curvature="0" />
	<path style="fill:none;stroke:red;stroke-width:1px;stroke-linecap:butt;stroke-linejoin:miter;stroke-opacity:1" d="M 484.33,161.338 490.726,161.338 z" id="boundary" inkscape:connector-curvature="0" />
	<path style="fill:none;stroke:red;stroke-width:1px;stroke-linecap:butt;stroke-linejoin:miter;stroke-opacity:1" d="M 490.726,161.338 497.122,161.338 z" id="boundary" inkscape:connector-curvature="0" />
	<path style="fill:none;stroke:red;stroke-width:1px;stroke-linecap:butt;stroke-linejoin:miter;stroke-opacity:1" d="M 497.122,161.338 503.518,161.338 z" id="boundary" inkscape:connector-curvature="0" />
	<path style="fill:none;stroke:red;stroke-width:1px;stroke-linecap:butt;stroke-linejoin:miter;stroke-opacity:1" d="M 503.518,161.338 509.914,161.338 z" id="boundary" inkscape:connector-curvature="0" />
	<path style="fill:none;stroke:red;stroke-width:1px;stroke-linecap:butt;stroke-linejoin:miter;stroke-opacity:1" d="M 509.914,161.338 516.309,161.338 z" id="boundary" inkscape:connector-curvature="0" />
	<path style="fill:none;stroke:red;stroke-width:1px;stroke-linecap:butt;stroke-linejoin:miter;stroke-opacity:1" d="M 516.309,161.338 522.705,161.338 z" id="boundary" inkscape:connector-curvature="0" />
	<path style="fill:none;stroke:red;stroke-width:1px;stroke-linecap:butt;stroke-linejoin:miter;stroke-opacity:1" d="M 522.705,161.338 529.101,161.338 z" id="boundary" inkscape:connector-curvature="0" />
	<path style="fill:none;stroke:red;stroke-width:1px;stroke-linecap:butt;stroke-linejoin:miter;stroke-opacity:1" d="M 529.101,161.338 535.497,161.338 z" id="boundary" inkscape:connector-curvature="0" />
	<path style="fill:none;stroke:red;stroke-width:1px;stroke-linecap:butt;stroke-linejoin:miter;stroke-opacity:1" d="M 535.497,161.338 541.893,161.338 z" id="boundary" inkscape:connector-curvature="0" />
	<path style="fill:none;stroke:red;stroke-width:1px;stroke-linecap:butt;stroke-linejoin:miter;stroke-opacity:1" d="M 541.893,161.338 548.289,161.338 z" id="boundary" inkscape:connector-curvature="0" />
	<path style="fill:none;stroke:red;stroke-width:1px;stroke-linecap:butt;stroke-linejoin:miter;stroke-opacity:1" d="M 548.289,161.338 554.685,161.338 z" id="boundary" inkscape:connector-curvature="0" />
	<path style="fill:none;stroke:red;stroke-width:1px;stroke-linecap:butt;stroke-linejoin:miter;stroke-opacity:1" d="M 554.685,161.338 561.081,161.338 z" id="boundary" inkscape:connector-curvature="0" />
	<path style="fill:none;stroke:red;stroke-width:1px;stroke-linecap:butt;stroke-linejoin:miter;stroke-opacity:1" d="M 561.081,161.338 567.476,161.338 z" id="boundary" inkscape:connector-curvature="0" />
	<path style="fill:none;stroke:red;stroke-width:1px;stroke-linecap:butt;stroke-linejoin:miter;stroke-opacity:1" d="M 567.476,161.338 573.872,161.338 z" id="boundary" inkscape:connector-curvature="0" />
	<path style="fill:none;stroke:red;stroke-width:1px;stroke-linecap:butt;stroke-linejoin:miter;stroke-opacity:1" d="M 573.872,161.338 580.268,161.338 z" id="boundary" inkscape:connector-curvature="0" />
	<path style="fill:none;stroke:red;stroke-width:1px;stroke-linecap:butt;stroke-linejoin:miter;stroke-opacity:1" d="M 580.268,161.338 586.664,161.338 z" id="boundary" inkscape:connector-curvature="0" />
	<path style="fill:none;stroke:red;stroke-width:1px;stroke-linecap:butt;stroke-linejoin:miter;stroke-opacity:1" d="M 586.664,161.338 593.06,161.338 z" id="boundary" inkscape:connector-curvature="0" />
	<path style="fill:none;stroke:red;stroke-width:1px;stroke-linecap:butt;stroke-linejoin:miter;stroke-opacity:1" d="M 593.06,161.338 599.456,161.338 z" id="boundary" inkscape:connector-curvature="0" />
	<path style="fill:none;stroke:red;stroke-width:1px;stroke-linecap:butt;stroke-linejoin:miter;stroke-opacity:1" d="M 599.456,161.338 605.852,161.338 z" id="boundary" inkscape:connector-curvature="0" />
	<path style="fill:none;stroke:red;stroke-width:1px;stroke-linecap:butt;stroke-linejoin:miter;stroke-opacity:1" d="M 605.852,161.338 612.248,161.338 z" id="boundary" inkscape:connector-curvature="0" />
	<path style="fill:none;stroke:red;stroke-width:1px;stroke-linecap:butt;stroke-linejoin:miter;stroke-opacity:1" d="M 612.248,161.338 618.643,161.338 z" id="boundary" inkscape:connector-curvature="0" />
	<path style="fill:none;stroke:red;stroke-width:1px;stroke-linecap:butt;stroke-linejoin:miter;stroke-opacity:1" d="M 618.643,161.338 625.039,161.338 z" id="boundary" inkscape:connector-curvature="0" />
	<path style="fill:none;stroke:red;stroke-width:1px;stroke-linecap:butt;stroke-linejoin:miter;stroke-opacity:1" d="M 625.039,161.338 631.435,161.338 z" id="boundary" inkscape:connector-curvature="0" />
	<path style="fill:none;stroke:red;stroke-width:1px;stroke-linecap:butt;stroke-linejoin:miter;stroke-opacity:1" d="M 631.435,161.338 637.831,161.338 z" id="boundary" inkscape:connector-curvature="0" />
	<path style="fill:none;stroke:red;stroke-width:1px;stroke-linecap:butt;stroke-linejoin:miter;stroke-opacity:1" d="M 637.831,161.338 644.227,161.338 z" id="boundary" inkscape:connector-curvature="0" />
	<path style="fill:none;stroke:red;stroke-width:1px;stroke-linecap:butt;stroke-linejoin:miter;stroke-opacity:1" d="M 644.227,161.338 650.623,161.338 z" id="boundary" inkscape:connector-curvature="0" />
	<path style="fill:none;stroke:red;stroke-width:1px;stroke-linecap:butt;stroke-linejoin:miter;stroke-opacity:1" d="M 650.623,161.338 657.019,161.338 z" id="boundary" inkscape:connector-curvature="0" />
	<path style="fill:none;stroke:red;stroke-width:1px;stroke-linecap:butt;stroke-linejoin:miter;stroke-opacity:1" d="M 657.019,161.338 663.415,161.338 z" id="boundary" inkscape:connector-curvature="0" />
	<path style="fill:none;stroke:red;stroke-width:1px;stroke-linecap:butt;stroke-linejoin:miter;stroke-opacity:1" d="M 663.415,161.338 669.171,158.141 z" id="boundary" inkscape:connector-curvature="0" />
	<path style="fill:none;stroke:red;stroke-width:1px;stroke-linecap:butt;stroke-linejoin:miter;stroke-opacity:1" d="M 669.171,158.141 675.567,158.141 z" id="boundary" inkscape:connector-curvature="0" />
	<path style="fill:none;stroke:red;stroke-width:1px;stroke-linecap:butt;stroke-linejoin:miter;stroke-opacity:1" d="M 675.567,158.141 681.963,158.141 z" id="boundary" inkscape:connector-curvature="0" />
	<path style="fill:none;stroke:red;stroke-width:1px;stroke-linecap:butt;stroke-linejoin:miter;stroke-opacity:1" d="M 681.963,158.141 688.358,158.141 z" id="boundary" inkscape:connector-curvature="0" />
	<path style="fill:none;stroke:red;stroke-width:1px;stroke-linecap:butt;stroke-linejoin:miter;stroke-opacity:1" d="M 688.358,158.141 694.754,158.141 z" id="boundary" inkscape:connector-curvature="0" />
	<path style="fill:none;stroke:red;stroke-width:1px;stroke-linecap:butt;stroke-linejoin:miter;stroke-opacity:1" d="M 694.754,158.141 701.15,158.141 z" id="boundary" inkscape:connector-curvature="0" />
	<path style="fill:none;stroke:red;stroke-width:1px;stroke-linecap:butt;stroke-linejoin:miter;stroke-opacity:1" d="M 701.15,158.141 706.907,161.338 z" id="boundary" inkscape:connector-curvature="0" />
	<path style="fill:none;stroke:red;stroke-width:1px;stroke-linecap:butt;stroke-linejoin:miter;stroke-opacity:1" d="M 706.907,161.338 713.302,160.059 z" id="boundary" inkscape:connector-curvature="0" />
	<path style="fill:none;stroke:red;stroke-width:1px;stroke-linecap:butt;stroke-linejoin:miter;stroke-opacity:1" d="M 713.302,160.059 719.698,158.141 z" id="boundary" inkscape:connector-curvature="0" />
	<path style="fill:none;stroke:red;stroke-width:1px;stroke-linecap:butt;stroke-linejoin:miter;stroke-opacity:1" d="M 719.698,158.141 726.094,158.141 z" id="boundary" inkscape:connector-curvature="0" />
	<path style="fill:none;stroke:red;stroke-width:1px;stroke-linecap:butt;stroke-linejoin:miter;stroke-opacity:1" d="M 726.094,158.141 732.49,158.141 z" id="boundary" inkscape:connector-curvature="0" />
	<path style="fill:none;stroke:red;stroke-width:1px;stroke-linecap:butt;stroke-linejoin:miter;stroke-opacity:1" d="M 732.49,158.141 738.886,158.141 z" id="boundary" inkscape:connector-curvature="0" />
	<path style="fill:none;stroke:red;stroke-width:1px;stroke-linecap:butt;stroke-linejoin:miter;stroke-opacity:1" d="M 738.886,158.141 745.282,158.141 z" id="boundary" inkscape:connector-curvature="0" />
	<path style="fill:none;stroke:red;stroke-width:1px;stroke-linecap:butt;stroke-linejoin:miter;stroke-opacity:1" d="M 745.282,158.141 751.678,158.141 z" id="boundary" inkscape:connector-curvature="0" />
	<path style="fill:none;stroke:red;stroke-width:1px;stroke-linecap:butt;stroke-linejoin:miter;stroke-opacity:1" d="M 751.678,158.141 758.074,158.141 z" id="boundary" inkscape:connector-curvature="0" />
	<path style="fill:none;stroke:red;stroke-width:1px;stroke-linecap:butt;stroke-linejoin:miter;stroke-opacity:1" d="M 758.074,158.141 764.469,158.141 z" id="boundary" inkscape:connector-curvature="0" />
	<path style="fill:none;stroke:red;stroke-width:1px;stroke-linecap:butt;stroke-linejoin:miter;stroke-opacity:1" d="M 764.469,158.141 770.865,158.141 z" id="boundary" inkscape:connector-curvature="0" />
	<path style="fill:none;stroke:red;stroke-width:1px;stroke-linecap:butt;stroke-linejoin:miter;stroke-opacity:1" d="M 770.865,158.141 777.261,158.141 z" id="boundary" inkscape:connector-curvature="0" />
	<path style="fill:none;stroke:red;stroke-width:1px;stroke-linecap:butt;stroke-linejoin:miter;stroke-opacity:1" d="M 777.261,158.141 783.657,156.861 z" id="boundary" inkscape:connector-curvature="0" />
	<path style="fill:none;stroke:red;stroke-width:1px;stroke-linecap:butt;stroke-linejoin:miter;stroke-opacity:1" d="M 783.657,156.861 790.053,154.943 z" id="boundary" inkscape:connector-curvature="0" />
	<path style="fill:none;stroke:red;stroke-width:1px;stroke-linecap:butt;stroke-linejoin:miter;stroke-opacity:1" d="M 790.053,154.943 796.449,154.943 z" id="boundary" inkscape:connector-curvature="0" />
	<path style="fill:none;stroke:red;stroke-width:1px;stroke-linecap:butt;stroke-linejoin:miter;stroke-opacity:1" d="M 796.449,154.943 802.845,154.943 z" id="boundary" inkscape:connector-curvature="0" />
	<path style="fill:none;stroke:red;stroke-width:1px;stroke-linecap:butt;stroke-linejoin:miter;stroke-opacity:1" d="M 802.845,154.943 809.24,154.943 z" id="boundary" inkscape:connector-curvature="0" />
	<path style="fill:none;stroke:red;stroke-width:1px;stroke-linecap:butt;stroke-linejoin:miter;stroke-opacity:1" d="M 809.24,154.943 815.636,154.943 z" id="boundary" inkscape:connector-curvature="0" />
	<path style="fill:none;stroke:red;stroke-width:1px;stroke-linecap:butt;stroke-linejoin:miter;stroke-opacity:1" d="M 815.636,154.943 822.032,154.943 z" id="boundary" inkscape:connector-curvature="0" />
	<path style="fill:none;stroke:red;stroke-width:1px;stroke-linecap:butt;stroke-linejoin:miter;stroke-opacity:1" d="M 822.032,154.943 828.428,154.943 z" id="boundary" inkscape:connector-curvature="0" />
	<path style="fill:none;stroke:red;stroke-width:1px;stroke-linecap:butt;stroke-linejoin:miter;stroke-opacity:1" d="M 828.428,154.943 834.824,154.943 z" id="boundary" inkscape:connector-curvature="0" />
	<path style="fill:none;stroke:red;stroke-width:1px;stroke-linecap:butt;stroke-linejoin:miter;stroke-opacity:1" d="M 834.824,154.943 841.22,154.943 z" id="boundary" inkscape:connector-curvature="0" />
	<path style="fill:none;stroke:red;stroke-width:1px;stroke-linecap:butt;stroke-linejoin:miter;stroke-opacity:1" d="M 841.22,154.943 847.616,154.943 z" id="boundary" inkscape:connector-curvature="0" />
	<path style="fill:none;stroke:red;stroke-width:1px;stroke-linecap:butt;stroke-linejoin:miter;stroke-opacity:1" d="M 847.616,154.943 854.012,154.943 z" id="boundary" inkscape:connector-curvature="0" />
	<path style="fill:none;stroke:red;stroke-width:1px;stroke-linecap:butt;stroke-linejoin:miter;stroke-opacity:1" d="M 854.012,154.943 859.768,151.745 z" id="boundary" inkscape:connector-curvature="0" />
	<path style="fill:none;stroke:red;stroke-width:1px;stroke-linecap:butt;stroke-linejoin:miter;stroke-opacity:1" d="M 859.768,151.745 866.164,151.745 z" id="boundary" inkscape:connector-curvature="0" />
	<path style="fill:none;stroke:red;stroke-width:1px;stroke-linecap:butt;stroke-linejoin:miter;stroke-opacity:1" d="M 866.164,151.745 872.56,151.745 z" id="boundary" inkscape:connector-curvature="0" />
	<path style="fill:none;stroke:red;stroke-width:1px;stroke-linecap:butt;stroke-linejoin:miter;stroke-opacity:1" d="M 872.56,151.745 878.956,151.105 z" id="boundary" inkscape:connector-curvature="0" />
	<path style="fill:none;stroke:red;stroke-width:1px;stroke-linecap:butt;stroke-linejoin:miter;stroke-opacity:1" d="M 878.956,151.105 885.351,148.547 z" id="boundary" inkscape:connector-curvature="0" />
	<path style="fill:none;stroke:red;stroke-width:1px;stroke-linecap:butt;stroke-linejoin:miter;stroke-opacity:1" d="M 885.351,148.547 891.747,148.547 z" id="boundary" inkscape:connector-curvature="0" />
	<path style="fill:none;stroke:red;stroke-width:1px;stroke-linecap:butt;stroke-linejoin:miter;stroke-opacity:1" d="M 891.747,148.547 898.143,148.547 z" id="boundary" inkscape:connector-curvature="0" />
	<path style="fill:none;stroke:red;stroke-width:1px;stroke-linecap:butt;stroke-linejoin:miter;stroke-opacity:1" d="M 898.143,148.547 904.539,147.907 z" id="boundary" inkscape:connector-curvature="0" />
	<path style="fill:none;stroke:red;stroke-width:1px;stroke-linecap:butt;stroke-linejoin:miter;stroke-opacity:1" d="M 904.539,147.907 910.935,145.349 z" id="boundary" inkscape:connector-curvature="0" />
	<path style="fill:none;stroke:red;stroke-width:1px;stroke-linecap:butt;stroke-linejoin:miter;stroke-opacity:1" d="M 910.935,145.349 917.331,145.349 z" id="boundary" inkscape:connector-curvature="0" />
	<path style="fill:none;stroke:red;stroke-width:1px;stroke-linecap:butt;stroke-linejoin:miter;stroke-opacity:1" d="M 917.331,145.349 923.087,142.151 z" id="boundary" inkscape:connector-curvature="0" />
	<path style="fill:none;stroke:red;stroke-width:1px;stroke-linecap:butt;stroke-linejoin:miter;stroke-opacity:1" d="M 923.087,142.151 929.483,142.151 z" id="boundary" inkscape:connector-curvature="0" />
	<path style="fill:none;stroke:red;stroke-width:1px;stroke-linecap:butt;stroke-linejoin:miter;stroke-opacity:1" d="M 929.483,142.151 935.879,142.151 z" id="boundary" inkscape:connector-curvature="0" />
	<path style="fill:none;stroke:red;stroke-width:1px;stroke-linecap:butt;stroke-linejoin:miter;stroke-opacity:1" d="M 935.879,142.151 941.635,138.953 z" id="boundary" inkscape:connector-curvature="0" />
	<path style="fill:none;stroke:red;stroke-width:1px;stroke-linecap:butt;stroke-linejoin:miter;stroke-opacity:1" d="M 941.635,138.953 948.031,135.755 z" id="boundary" inkscape:connector-curvature="0" />
	<path style="fill:none;stroke:red;stroke-width:1px;stroke-linecap:butt;stroke-linejoin:miter;stroke-opacity:1" d="M 948.031,135.755 954.427,135.755 z" id="boundary" inkscape:connector-curvature="0" />
	<path style="fill:none;stroke:red;stroke-width:1px;stroke-linecap:butt;stroke-linejoin:miter;stroke-opacity:1" d="M 954.427,135.755 960.183,132.557 z" id="boundary" inkscape:connector-curvature="0" />
	<path style="fill:none;stroke:red;stroke-width:1px;stroke-linecap:butt;stroke-linejoin:miter;stroke-opacity:1" d="M 960.183,132.557 965.3,128.72 z" id="boundary" inkscape:connector-curvature="0" />
	<path style="fill:none;stroke:red;stroke-width:1px;stroke-linecap:butt;stroke-linejoin:miter;stroke-opacity:1" d="M 10.3959,60.2837 15.5126,55.167 z" id="boundary" inkscape:connector-curvature="0" />
	<path style="fill:none;stroke:red;stroke-width:1px;stroke-linecap:butt;stroke-linejoin:miter;stroke-opacity:1" d="M 15.5126,55.167 20.6293,50.0503 z" id="boundary" inkscape:connector-curvature="0" />
	<path style="fill:none;stroke:red;stroke-width:1px;stroke-linecap:butt;stroke-linejoin:miter;stroke-opacity:1" d="M 20.6293,50.0503 25.746,45.5732 z" id="boundary" inkscape:connector-curvature="0" />
	<path style="fill:none;stroke:red;stroke-width:1px;stroke-linecap:butt;stroke-linejoin:miter;stroke-opacity:1" d="M 25.746,45.5732 30.2231,40.4565 z" id="boundary" inkscape:connector-curvature="0" />
	<path style="fill:none;stroke:red;stroke-width:1px;stroke-linecap:butt;stroke-linejoin:miter;stroke-opacity:1" d="M 30.2231,40.4565 36.619,37.2585 z" id="boundary" inkscape:connector-curvature="0" />
	<path style="fill:none;stroke:red;stroke-width:1px;stroke-linecap:butt;stroke-linejoin:miter;stroke-opacity:1" d="M 36.619,37.2585 43.0148,34.0606 z" id="boundary" inkscape:connector-curvature="0" />
	<path style="fill:none;stroke:red;stroke-width:1px;stroke-linecap:butt;stroke-linejoin:miter;stroke-opacity:1" d="M 43.0148,34.0606 49.4107,32.7814 z" id="boundary" inkscape:connector-curvature="0" />
	<path style="fill:none;stroke:red;stroke-width:1px;stroke-linecap:butt;stroke-linejoin:miter;stroke-opacity:1" d="M 49.4107,32.7814 55.167,29.5835 z" id="boundary" inkscape:connector-curvature="0" />
	<path style="fill:none;stroke:red;stroke-width:1px;stroke-linecap:butt;stroke-linejoin:miter;stroke-opacity:1" d="M 55.167,29.5835 61.5629,28.3043 z" id="boundary" inkscape:connector-curvature="0" />
	<path style="fill:none;stroke:red;stroke-width:1px;stroke-linecap:butt;stroke-linejoin:miter;stroke-opacity:1" d="M 61.5629,28.3043 67.9587,26.3856 z" id="boundary" inkscape:connector-curvature="0" />
	<path style="fill:none;stroke:red;stroke-width:1px;stroke-linecap:butt;stroke-linejoin:miter;stroke-opacity:1" d="M 67.9587,26.3856 74.3546,25.1064 z" id="boundary" inkscape:connector-curvature="0" />
	<path style="fill:none;stroke:red;stroke-width:1px;stroke-linecap:butt;stroke-linejoin:miter;stroke-opacity:1" d="M 74.3546,25.1064 80.7505,23.1876 z" id="boundary" inkscape:connector-curvature="0" />
	<path style="fill:none;stroke:red;stroke-width:1px;stroke-linecap:butt;stroke-linejoin:miter;stroke-opacity:1" d="M 80.7505,23.1876 86.5068,19.9897 z" id="boundary" inkscape:connector-curvature="0" />
	<path style="fill:none;stroke:red;stroke-width:1px;stroke-linecap:butt;stroke-linejoin:miter;stroke-opacity:1" d="M 86.5068,19.9897 92.2631,16.7917 z" id="boundary" inkscape:connector-curvature="0" />
	<path style="fill:none;stroke:red;stroke-width:1px;stroke-linecap:butt;stroke-linejoin:miter;stroke-opacity:1" d="M 92.2631,16.7917 98.6589,16.7917 z" id="boundary" inkscape:connector-curvature="0" />
	<path style="fill:none;stroke:red;stroke-width:1px;stroke-linecap:butt;stroke-linejoin:miter;stroke-opacity:1" d="M 98.6589,16.7917 105.055,16.7917 z" id="boundary" inkscape:connector-curvature="0" />
	<path style="fill:none;stroke:red;stroke-width:1px;stroke-linecap:butt;stroke-linejoin:miter;stroke-opacity:1" d="M 105.055,16.7917 110.811,19.9897 z" id="boundary" inkscape:connector-curvature="0" />
	<path style="fill:none;stroke:red;stroke-width:1px;stroke-linecap:butt;stroke-linejoin:miter;stroke-opacity:1" d="M 110.811,19.9897 117.207,19.9897 z" id="boundary" inkscape:connector-curvature="0" />
	<path style="fill:none;stroke:red;stroke-width:1px;stroke-linecap:butt;stroke-linejoin:miter;stroke-opacity:1" d="M 117.207,19.9897 123.603,19.9897 z" id="boundary" inkscape:connector-curvature="0" />
	<path style="fill:none;stroke:red;stroke-width:1px;stroke-linecap:butt;stroke-linejoin:miter;stroke-opacity:1" d="M 123.603,19.9897 129.359,16.7917 z" id="boundary" inkscape:connector-curvature="0" />
	<path style="fill:none;stroke:red;stroke-width:1px;stroke-linecap:butt;stroke-linejoin:miter;stroke-opacity:1" d="M 129.359,16.7917 135.755,16.7917 z" id="boundary" inkscape:connector-curvature="0" />
	<path style="fill:none;stroke:red;stroke-width:1px;stroke-linecap:butt;stroke-linejoin:miter;stroke-opacity:1" d="M 135.755,16.7917 142.151,16.7917 z" id="boundary" inkscape:connector-curvature="0" />
	<path style="fill:none;stroke:red;stroke-width:1px;stroke-linecap:butt;stroke-linejoin:miter;stroke-opacity:1" d="M 142.151,16.7917 147.907,13.5938 z" id="boundary" inkscape:connector-curvature="0" />
	<path style="fill:none;stroke:red;stroke-width:1px;stroke-linecap:butt;stroke-linejoin:miter;stroke-opacity:1" d="M 147.907,13.5938 154.303,13.5938 z" id="boundary" inkscape:connector-curvature="0" />
	<path style="fill:none;stroke:red;stroke-width:1px;stroke-linecap:butt;stroke-linejoin:miter;stroke-opacity:1" d="M 154.303,13.5938 160.699,13.5938 z" id="boundary" inkscape:connector-curvature="0" />
	<path style="fill:none;stroke:red;stroke-width:1px;stroke-linecap:butt;stroke-linejoin:miter;stroke-opacity:1" d="M 160.699,13.5938 167.095,13.5938 z" id="boundary" inkscape:connector-curvature="0" />
	<path style="fill:none;stroke:red;stroke-width:1px;stroke-linecap:butt;stroke-linejoin:miter;stroke-opacity:1" d="M 167.095,13.5938 173.491,13.5938 z" id="boundary" inkscape:connector-curvature="0" />
	<path style="fill:none;stroke:red;stroke-width:1px;stroke-linecap:butt;stroke-linejoin:miter;stroke-opacity:1" d="M 173.491,13.5938 179.887,13.5938 z" id="boundary" inkscape:connector-curvature="0" />
	<path style="fill:none;stroke:red;stroke-width:1px;stroke-linecap:butt;stroke-linejoin:miter;stroke-opacity:1" d="M 179.887,13.5938 185.643,10.3959 z" id="boundary" inkscape:connector-curvature="0" />
	<path style="fill:none;stroke:red;stroke-width:1px;stroke-linecap:butt;stroke-linejoin:miter;stroke-opacity:1" d="M 185.643,10.3959 192.039,10.3959 z" id="boundary" inkscape:connector-curvature="0" />
	<path style="fill:none;stroke:red;stroke-width:1px;stroke-linecap:butt;stroke-linejoin:miter;stroke-opacity:1" d="M 192.039,10.3959 198.435,10.3959 z" id="boundary" inkscape:connector-curvature="0" />
	<path style="fill:none;stroke:red;stroke-width:1px;stroke-linecap:butt;stroke-linejoin:miter;stroke-opacity:1" d="M 198.435,10.3959 204.83,10.3959 z" id="boundary" inkscape:connector-curvature="0" />
	<path style="fill:none;stroke:red;stroke-width:1px;stroke-linecap:butt;stroke-linejoin:miter;stroke-opacity:1" d="M 204.83,10.3959 211.226,10.3959 z" id="boundary" inkscape:connector-curvature="0" />
	<path style="fill:none;stroke:red;stroke-width:1px;stroke-linecap:butt;stroke-linejoin:miter;stroke-opacity:1" d="M 211.226,10.3959 217.622,10.3959 z" id="boundary" inkscape:connector-curvature="0" />
	<path style="fill:none;stroke:red;stroke-width:1px;stroke-linecap:butt;stroke-linejoin:miter;stroke-opacity:1" d="M 217.622,10.3959 224.018,10.3959 z" id="boundary" inkscape:connector-curvature="0" />
	<path style="fill:none;stroke:red;stroke-width:1px;stroke-linecap:butt;stroke-linejoin:miter;stroke-opacity:1" d="M 224.018,10.3959 230.414,10.3959 z" id="boundary" inkscape:connector-curvature="0" />
	<path style="fill:none;stroke:red;stroke-width:1px;stroke-linecap:butt;stroke-linejoin:miter;stroke-opacity:1" d="M 230.414,10.3959 236.81,10.3959 z" id="boundary" inkscape:connector-curvature="0" />
	<path style="fill:none;stroke:red;stroke-width:1px;stroke-linecap:butt;stroke-linejoin:miter;stroke-opacity:1" d="M 236.81,10.3959 243.206,10.3959 z" id="boundary" inkscape:connector-curvature="0" />
	<path style="fill:none;stroke:red;stroke-width:1px;stroke-linecap:butt;stroke-linejoin:miter;stroke-opacity:1" d="M 243.206,10.3959 249.602,10.3959 z" id="boundary" inkscape:connector-curvature="0" />
	<path style="fill:none;stroke:red;stroke-width:1px;stroke-linecap:butt;stroke-linejoin:miter;stroke-opacity:1" d="M 249.602,10.3959 255.358,7.19794 z" id="boundary" inkscape:connector-curvature="0" />
	<path style="fill:none;stroke:red;stroke-width:1px;stroke-linecap:butt;stroke-linejoin:miter;stroke-opacity:1" d="M 255.358,7.19794 261.754,7.19794 z" id="boundary" inkscape:connector-curvature="0" />
	<path style="fill:none;stroke:red;stroke-width:1px;stroke-linecap:butt;stroke-linejoin:miter;stroke-opacity:1" d="M 261.754,7.19794 268.15,7.19794 z" id="boundary" inkscape:connector-curvature="0" />
	<path style="fill:none;stroke:red;stroke-width:1px;stroke-linecap:butt;stroke-linejoin:miter;stroke-opacity:1" d="M 268.15,7.19794 274.545,7.19794 z" id="boundary" inkscape:connector-curvature="0" />
	<path style="fill:none;stroke:red;stroke-width:1px;stroke-linecap:butt;stroke-linejoin:miter;stroke-opacity:1" d="M 274.545,7.19794 280.941,7.19794 z" id="boundary" inkscape:connector-curvature="0" />
	<path style="fill:none;stroke:red;stroke-width:1px;stroke-linecap:butt;stroke-linejoin:miter;stroke-opacity:1" d="M 280.941,7.19794 287.337,7.19794 z" id="boundary" inkscape:connector-curvature="0" />
	<path style="fill:none;stroke:red;stroke-width:1px;stroke-linecap:butt;stroke-linejoin:miter;stroke-opacity:1" d="M 287.337,7.19794 293.733,7.19794 z" id="boundary" inkscape:connector-curvature="0" />
	<path style="fill:none;stroke:red;stroke-width:1px;stroke-linecap:butt;stroke-linejoin:miter;stroke-opacity:1" d="M 293.733,7.19794 300.129,7.19794 z" id="boundary" inkscape:connector-curvature="0" />
	<path style="fill:none;stroke:red;stroke-width:1px;stroke-linecap:butt;stroke-linejoin:miter;stroke-opacity:1" d="M 300.129,7.19794 306.525,7.19794 z" id="boundary" inkscape:connector-curvature="0" />
	<path style="fill:none;stroke:red;stroke-width:1px;stroke-linecap:butt;stroke-linejoin:miter;stroke-opacity:1" d="M 306.525,7.19794 312.921,7.19794 z" id="boundary" inkscape:connector-curvature="0" />
	<path style="fill:none;stroke:red;stroke-width:1px;stroke-linecap:butt;stroke-linejoin:miter;stroke-opacity:1" d="M 312.921,7.19794 319.317,7.19794 z" id="boundary" inkscape:connector-curvature="0" />
	<path style="fill:none;stroke:red;stroke-width:1px;stroke-linecap:butt;stroke-linejoin:miter;stroke-opacity:1" d="M 319.317,7.19794 325.712,7.19794 z" id="boundary" inkscape:connector-curvature="0" />
	<path style="fill:none;stroke:red;stroke-width:1px;stroke-linecap:butt;stroke-linejoin:miter;stroke-opacity:1" d="M 325.712,7.19794 332.108,7.19794 z" id="boundary" inkscape:connector-curvature="0" />
	<path style="fill:none;stroke:red;stroke-width:1px;stroke-linecap:butt;stroke-linejoin:miter;stroke-opacity:1" d="M 332.108,7.19794 338.504,7.19794 z" id="boundary" inkscape:connector-curvature="0" />
	<path style="fill:none;stroke:red;stroke-width:1px;stroke-linecap:butt;stroke-linejoin:miter;stroke-opacity:1" d="M 338.504,7.19794 344.9,7.19794 z" id="boundary" inkscape:connector-curvature="0" />
	<path style="fill:none;stroke:red;stroke-width:1px;stroke-linecap:butt;stroke-linejoin:miter;stroke-opacity:1" d="M 344.9,7.19794 351.296,7.19794 z" id="boundary" inkscape:connector-curvature="0" />
	<path style="fill:none;stroke:red;stroke-width:1px;stroke-linecap:butt;stroke-linejoin:miter;stroke-opacity:1" d="M 351.296,7.19794 357.692,7.19794 z" id="boundary" inkscape:connector-curvature="0" />
	<path style="fill:none;stroke:red;stroke-width:1px;stroke-linecap:butt;stroke-linejoin:miter;stroke-opacity:1" d="M 357.692,7.19794 364.088,7.19794 z" id="boundary" inkscape:connector-curvature="0" />
	<path style="fill:none;stroke:red;stroke-width:1px;stroke-linecap:butt;stroke-linejoin:miter;stroke-opacity:1" d="M 364.088,7.19794 370.484,7.19794 z" id="boundary" inkscape:connector-curvature="0" />
	<path style="fill:none;stroke:red;stroke-width:1px;stroke-linecap:butt;stroke-linejoin:miter;stroke-opacity:1" d="M 370.484,7.19794 376.879,7.19794 z" id="boundary" inkscape:connector-curvature="0" />
	<path style="fill:none;stroke:red;stroke-width:1px;stroke-linecap:butt;stroke-linejoin:miter;stroke-opacity:1" d="M 376.879,7.19794 383.275,7.19794 z" id="boundary" inkscape:connector-curvature="0" />
	<path style="fill:none;stroke:red;stroke-width:1px;stroke-linecap:butt;stroke-linejoin:miter;stroke-opacity:1" d="M 383.275,7.19794 389.671,7.19794 z" id="boundary" inkscape:connector-curvature="0" />
	<path style="fill:none;stroke:red;stroke-width:1px;stroke-linecap:butt;stroke-linejoin:miter;stroke-opacity:1" d="M 389.671,7.19794 396.067,7.19794 z" id="boundary" inkscape:connector-curvature="0" />
	<path style="fill:none;stroke:red;stroke-width:1px;stroke-linecap:butt;stroke-linejoin:miter;stroke-opacity:1" d="M 396.067,7.19794 401.823,4 z" id="boundary" inkscape:connector-curvature="0" />
	<path style="fill:none;stroke:red;stroke-width:1px;stroke-linecap:butt;stroke-linejoin:miter;stroke-opacity:1" d="M 401.823,4 408.219,4 z" id="boundary" inkscape:connector-curvature="0" />
	<path style="fill:none;stroke:red;stroke-width:1px;stroke-linecap:butt;stroke-linejoin:miter;stroke-opacity:1" d="M 408.219,4 414.615,4 z" id="boundary" inkscape:connector-curvature="0" />
	<path style="fill:none;stroke:red;stroke-width:1px;stroke-linecap:butt;stroke-linejoin:miter;stroke-opacity:1" d="M 414.615,4 421.011,4 z" id="boundary" inkscape:connector-curvature="0" />
	<path style="fill:none;stroke:red;stroke-width:1px;stroke-linecap:butt;stroke-linejoin:miter;stroke-opacity:1" d="M 421.011,4 427.407,4 z" id="boundary" inkscape:connector-curvature="0" />
	<path style="fill:none;stroke:red;stroke-width:1px;stroke-linecap:butt;stroke-linejoin:miter;stroke-opacity:1" d="M 427.407,4 433.163,7.19794 z" id="boundary" inkscape:connector-curvature="0" />
	<path style="fill:none;stroke:red;stroke-width:1px;stroke-linecap:butt;stroke-linejoin:miter;stroke-opacity:1" d="M 433.163,7.19794 439.559,7.19794 z" id="boundary" inkscape:connector-curvature="0" />
	<path style="fill:none;stroke:red;stroke-width:1px;stroke-linecap:butt;stroke-linejoin:miter;stroke-opacity:1" d="M 439.559,7.19794 445.955,7.19794 z" id="boundary" inkscape:connector-curvature="0" />
	<path style="fill:none;stroke:red;stroke-width:1px;stroke-linecap:butt;stroke-linejoin:miter;stroke-opacity:1" d="M 445.955,7.19794 452.351,9.1167 z" id="boundary" inkscape:connector-curvature="0" />
	<path style="fill:none;stroke:red;stroke-width:1px;stroke-linecap:butt;stroke-linejoin:miter;stroke-opacity:1" d="M 452.351,9.1167 458.107,12.3146 z" id="boundary" inkscape:connector-curvature="0" />
	<path style="fill:none;stroke:red;stroke-width:1px;stroke-linecap:butt;stroke-linejoin:miter;stroke-opacity:1" d="M 458.107,12.3146 464.503,14.873 z" id="boundary" inkscape:connector-curvature="0" />
	<path style="fill:none;stroke:red;stroke-width:1px;stroke-linecap:butt;stroke-linejoin:miter;stroke-opacity:1" d="M 464.503,14.873 470.899,16.7917 z" id="boundary" inkscape:connector-curvature="0" />
	<path style="fill:none;stroke:red;stroke-width:1px;stroke-linecap:butt;stroke-linejoin:miter;stroke-opacity:1" d="M 470.899,16.7917 477.295,16.7917 z" id="boundary" inkscape:connector-curvature="0" />
	<path style="fill:none;stroke:red;stroke-width:1px;stroke-linecap:butt;stroke-linejoin:miter;stroke-opacity:1" d="M 477.295,16.7917 483.691,16.7917 z" id="boundary" inkscape:connector-curvature="0" />
	<path style="fill:none;stroke:red;stroke-width:1px;stroke-linecap:butt;stroke-linejoin:miter;stroke-opacity:1" d="M 483.691,16.7917 490.086,16.7917 z" id="boundary" inkscape:connector-curvature="0" />
	<path style="fill:none;stroke:red;stroke-width:1px;stroke-linecap:butt;stroke-linejoin:miter;stroke-opacity:1" d="M 490.086,16.7917 496.482,16.7917 z" id="boundary" inkscape:connector-curvature="0" />
	<path style="fill:none;stroke:red;stroke-width:1px;stroke-linecap:butt;stroke-linejoin:miter;stroke-opacity:1" d="M 496.482,16.7917 502.878,16.7917 z" id="boundary" inkscape:connector-curvature="0" />
	<path style="fill:none;stroke:red;stroke-width:1px;stroke-linecap:butt;stroke-linejoin:miter;stroke-opacity:1" d="M 502.878,16.7917 509.274,16.7917 z" id="boundary" inkscape:connector-curvature="0" />
	<path style="fill:none;stroke:red;stroke-width:1px;stroke-linecap:butt;stroke-linejoin:miter;stroke-opacity:1" d="M 509.274,16.7917 515.67,16.7917 z" id="boundary" inkscape:connector-curvature="0" />
	<path style="fill:none;stroke:red;stroke-width:1px;stroke-linecap:butt;stroke-linejoin:miter;stroke-opacity:1" d="M 515.67,16.7917 522.066,16.7917 z" id="boundary" inkscape:connector-curvature="0" />
	<path style="fill:none;stroke:red;stroke-width:1px;stroke-linecap:butt;stroke-linejoin:miter;stroke-opacity:1" d="M 522.066,16.7917 528.462,16.7917 z" id="boundary" inkscape:connector-curvature="0" />
	<path style="fill:none;stroke:red;stroke-width:1px;stroke-linecap:butt;stroke-linejoin:miter;stroke-opacity:1" d="M 528.462,16.7917 534.858,16.7917 z" id="boundary" inkscape:connector-curvature="0" />
	<path style="fill:none;stroke:red;stroke-width:1px;stroke-linecap:butt;stroke-linejoin:miter;stroke-opacity:1" d="M 534.858,16.7917 541.253,16.7917 z" id="boundary" inkscape:connector-curvature="0" />
	<path style="fill:none;stroke:red;stroke-width:1px;stroke-linecap:butt;stroke-linejoin:miter;stroke-opacity:1" d="M 541.253,16.7917 547.649,16.7917 z" id="boundary" inkscape:connector-curvature="0" />
	<path style="fill:none;stroke:red;stroke-width:1px;stroke-linecap:butt;stroke-linejoin:miter;stroke-opacity:1" d="M 547.649,16.7917 554.045,16.7917 z" id="boundary" inkscape:connector-curvature="0" />
	<path style="fill:none;stroke:red;stroke-width:1px;stroke-linecap:butt;stroke-linejoin:miter;stroke-opacity:1" d="M 554.045,16.7917 560.441,16.7917 z" id="boundary" inkscape:connector-curvature="0" />
	<path style="fill:none;stroke:red;stroke-width:1px;stroke-linecap:butt;stroke-linejoin:miter;stroke-opacity:1" d="M 560.441,16.7917 566.837,16.7917 z" id="boundary" inkscape:connector-curvature="0" />
	<path style="fill:none;stroke:red;stroke-width:1px;stroke-linecap:butt;stroke-linejoin:miter;stroke-opacity:1" d="M 566.837,16.7917 573.233,16.7917 z" id="boundary" inkscape:connector-curvature="0" />
	<path style="fill:none;stroke:red;stroke-width:1px;stroke-linecap:butt;stroke-linejoin:miter;stroke-opacity:1" d="M 573.233,16.7917 579.629,16.7917 z" id="boundary" inkscape:connector-curvature="0" />
	<path style="fill:none;stroke:red;stroke-width:1px;stroke-linecap:butt;stroke-linejoin:miter;stroke-opacity:1" d="M 579.629,16.7917 586.025,16.7917 z" id="boundary" inkscape:connector-curvature="0" />
	<path style="fill:none;stroke:red;stroke-width:1px;stroke-linecap:butt;stroke-linejoin:miter;stroke-opacity:1" d="M 586.025,16.7917 592.42,16.7917 z" id="boundary" inkscape:connector-curvature="0" />
	<path style="fill:none;stroke:red;stroke-width:1px;stroke-linecap:butt;stroke-linejoin:miter;stroke-opacity:1" d="M 592.42,16.7917 598.816,16.7917 z" id="boundary" inkscape:connector-curvature="0" />
	<path style="fill:none;stroke:red;stroke-width:1px;stroke-linecap:butt;stroke-linejoin:miter;stroke-opacity:1" d="M 598.816,16.7917 605.212,16.7917 z" id="boundary" inkscape:connector-curvature="0" />
	<path style="fill:none;stroke:red;stroke-width:1px;stroke-linecap:butt;stroke-linejoin:miter;stroke-opacity:1" d="M 605.212,16.7917 611.608,16.7917 z" id="boundary" inkscape:connector-curvature="0" />
	<path style="fill:none;stroke:red;stroke-width:1px;stroke-linecap:butt;stroke-linejoin:miter;stroke-opacity:1" d="M 611.608,16.7917 618.004,16.7917 z" id="boundary" inkscape:connector-curvature="0" />
	<path style="fill:none;stroke:red;stroke-width:1px;stroke-linecap:butt;stroke-linejoin:miter;stroke-opacity:1" d="M 618.004,16.7917 624.4,16.7917 z" id="boundary" inkscape:connector-curvature="0" />
	<path style="fill:none;stroke:red;stroke-width:1px;stroke-linecap:butt;stroke-linejoin:miter;stroke-opacity:1" d="M 624.4,16.7917 630.796,16.7917 z" id="boundary" inkscape:connector-curvature="0" />
	<path style="fill:none;stroke:red;stroke-width:1px;stroke-linecap:butt;stroke-linejoin:miter;stroke-opacity:1" d="M 630.796,16.7917 637.191,16.7917 z" id="boundary" inkscape:connector-curvature="0" />
	<path style="fill:none;stroke:red;stroke-width:1px;stroke-linecap:butt;stroke-linejoin:miter;stroke-opacity:1" d="M 637.191,16.7917 643.587,16.7917 z" id="boundary" inkscape:connector-curvature="0" />
	<path style="fill:none;stroke:red;stroke-width:1px;stroke-linecap:butt;stroke-linejoin:miter;stroke-opacity:1" d="M 643.587,16.7917 649.983,16.7917 z" id="boundary" inkscape:connector-curvature="0" />
	<path style="fill:none;stroke:red;stroke-width:1px;stroke-linecap:butt;stroke-linejoin:miter;stroke-opacity:1" d="M 649.983,16.7917 656.379,16.7917 z" id="boundary" inkscape:connector-curvature="0" />
	<path style="fill:none;stroke:red;stroke-width:1px;stroke-linecap:butt;stroke-linejoin:miter;stroke-opacity:1" d="M 656.379,16.7917 662.775,16.7917 z" id="boundary" inkscape:connector-curvature="0" />
	<path style="fill:none;stroke:red;stroke-width:1px;stroke-linecap:butt;stroke-linejoin:miter;stroke-opacity:1" d="M 662.775,16.7917 669.171,16.7917 z" id="boundary" inkscape:connector-curvature="0" />
	<path style="fill:none;stroke:red;stroke-width:1px;stroke-linecap:butt;stroke-linejoin:miter;stroke-opacity:1" d="M 669.171,16.7917 675.567,16.7917 z" id="boundary" inkscape:connector-curvature="0" />
	<path style="fill:none;stroke:red;stroke-width:1px;stroke-linecap:butt;stroke-linejoin:miter;stroke-opacity:1" d="M 675.567,16.7917 681.963,16.7917 z" id="boundary" inkscape:connector-curvature="0" />
	<path style="fill:none;stroke:red;stroke-width:1px;stroke-linecap:butt;stroke-linejoin:miter;stroke-opacity:1" d="M 681.963,16.7917 688.358,16.7917 z" id="boundary" inkscape:connector-curvature="0" />
	<path style="fill:none;stroke:red;stroke-width:1px;stroke-linecap:butt;stroke-linejoin:miter;stroke-opacity:1" d="M 688.358,16.7917 694.754,16.7917 z" id="boundary" inkscape:connector-curvature="0" />
	<path style="fill:none;stroke:red;stroke-width:1px;stroke-linecap:butt;stroke-linejoin:miter;stroke-opacity:1" d="M 694.754,16.7917 701.15,16.7917 z" id="boundary" inkscape:connector-curvature="0" />
	<path style="fill:none;stroke:red;stroke-width:1px;stroke-linecap:butt;stroke-linejoin:miter;stroke-opacity:1" d="M 701.15,16.7917 707.546,15.5126 z" id="boundary" inkscape:connector-curvature="0" />
	<path style="fill:none;stroke:red;stroke-width:1px;stroke-linecap:butt;stroke-linejoin:miter;stroke-opacity:1" d="M 707.546,15.5126 713.942,13.5938 z" id="boundary" inkscape:connector-curvature="0" />
	<path style="fill:none;stroke:red;stroke-width:1px;stroke-linecap:butt;stroke-linejoin:miter;stroke-opacity:1" d="M 713.942,13.5938 720.338,13.5938 z" id="boundary" inkscape:connector-curvature="0" />
	<path style="fill:none;stroke:red;stroke-width:1px;stroke-linecap:butt;stroke-linejoin:miter;stroke-opacity:1" d="M 720.338,13.5938 726.734,13.5938 z" id="boundary" inkscape:connector-curvature="0" />
	<path style="fill:none;stroke:red;stroke-width:1px;stroke-linecap:butt;stroke-linejoin:miter;stroke-opacity:1" d="M 726.734,13.5938 733.13,13.5938 z" id="boundary" inkscape:connector-curvature="0" />
	<path style="fill:none;stroke:red;stroke-width:1px;stroke-linecap:butt;stroke-linejoin:miter;stroke-opacity:1" d="M 733.13,13.5938 739.525,13.5938 z" id="boundary" inkscape:connector-curvature="0" />
	<path style="fill:none;stroke:red;stroke-width:1px;stroke-linecap:butt;stroke-linejoin:miter;stroke-opacity:1" d="M 739.525,13.5938 745.921,13.5938 z" id="boundary" inkscape:connector-curvature="0" />
	<path style="fill:none;stroke:red;stroke-width:1px;stroke-linecap:butt;stroke-linejoin:miter;stroke-opacity:1" d="M 745.921,13.5938 752.317,13.5938 z" id="boundary" inkscape:connector-curvature="0" />
	<path style="fill:none;stroke:red;stroke-width:1px;stroke-linecap:butt;stroke-linejoin:miter;stroke-opacity:1" d="M 752.317,13.5938 758.713,13.5938 z" id="boundary" inkscape:connector-curvature="0" />
	<path style="fill:none;stroke:red;stroke-width:1px;stroke-linecap:butt;stroke-linejoin:miter;stroke-opacity:1" d="M 758.713,13.5938 765.109,13.5938 z" id="boundary" inkscape:connector-curvature="0" />
	<path style="fill:none;stroke:red;stroke-width:1px;stroke-linecap:butt;stroke-linejoin:miter;stroke-opacity:1" d="M 765.109,13.5938 771.505,13.5938 z" id="boundary" inkscape:connector-curvature="0" />
	<path style="fill:none;stroke:red;stroke-width:1px;stroke-linecap:butt;stroke-linejoin:miter;stroke-opacity:1" d="M 771.505,13.5938 777.901,13.5938 z" id="boundary" inkscape:connector-curvature="0" />
	<path style="fill:none;stroke:red;stroke-width:1px;stroke-linecap:butt;stroke-linejoin:miter;stroke-opacity:1" d="M 777.901,13.5938 784.297,13.5938 z" id="boundary" inkscape:connector-curvature="0" />
	<path style="fill:none;stroke:red;stroke-width:1px;stroke-linecap:butt;stroke-linejoin:miter;stroke-opacity:1" d="M 784.297,13.5938 790.692,13.5938 z" id="boundary" inkscape:connector-curvature="0" />
	<path style="fill:none;stroke:red;stroke-width:1px;stroke-linecap:butt;stroke-linejoin:miter;stroke-opacity:1" d="M 790.692,13.5938 797.088,13.5938 z" id="boundary" inkscape:connector-curvature="0" />
	<path style="fill:none;stroke:red;stroke-width:1px;stroke-linecap:butt;stroke-linejoin:miter;stroke-opacity:1" d="M 797.088,13.5938 803.484,13.5938 z" id="boundary" inkscape:connector-curvature="0" />
	<path style="fill:none;stroke:red;stroke-width:1px;stroke-linecap:butt;stroke-linejoin:miter;stroke-opacity:1" d="M 803.484,13.5938 809.88,13.5938 z" id="boundary" inkscape:connector-curvature="0" />
	<path style="fill:none;stroke:red;stroke-width:1px;stroke-linecap:butt;stroke-linejoin:miter;stroke-opacity:1" d="M 809.88,13.5938 816.276,13.5938 z" id="boundary" inkscape:connector-curvature="0" />
	<path style="fill:none;stroke:red;stroke-width:1px;stroke-linecap:butt;stroke-linejoin:miter;stroke-opacity:1" d="M 816.276,13.5938 822.672,13.5938 z" id="boundary" inkscape:connector-curvature="0" />
	<path style="fill:none;stroke:red;stroke-width:1px;stroke-linecap:butt;stroke-linejoin:miter;stroke-opacity:1" d="M 822.672,13.5938 829.068,13.5938 z" id="boundary" inkscape:connector-curvature="0" />
	<path style="fill:none;stroke:red;stroke-width:1px;stroke-linecap:butt;stroke-linejoin:miter;stroke-opacity:1" d="M 829.068,13.5938 835.464,13.5938 z" id="boundary" inkscape:connector-curvature="0" />
	<path style="fill:none;stroke:red;stroke-width:1px;stroke-linecap:butt;stroke-linejoin:miter;stroke-opacity:1" d="M 835.464,13.5938 841.859,13.5938 z" id="boundary" inkscape:connector-curvature="0" />
	<path style="fill:none;stroke:red;stroke-width:1px;stroke-linecap:butt;stroke-linejoin:miter;stroke-opacity:1" d="M 841.859,13.5938 848.255,13.5938 z" id="boundary" inkscape:connector-curvature="0" />
	<path style="fill:none;stroke:red;stroke-width:1px;stroke-linecap:butt;stroke-linejoin:miter;stroke-opacity:1" d="M 848.255,13.5938 854.651,13.5938 z" id="boundary" inkscape:connector-curvature="0" />
	<path style="fill:none;stroke:red;stroke-width:1px;stroke-linecap:butt;stroke-linejoin:miter;stroke-opacity:1" d="M 854.651,13.5938 861.047,13.5938 z" id="boundary" inkscape:connector-curvature="0" />
	<path style="fill:none;stroke:red;stroke-width:1px;stroke-linecap:butt;stroke-linejoin:miter;stroke-opacity:1" d="M 861.047,13.5938 867.443,13.5938 z" id="boundary" inkscape:connector-curvature="0" />
	<path style="fill:none;stroke:red;stroke-width:1px;stroke-linecap:butt;stroke-linejoin:miter;stroke-opacity:1" d="M 867.443,13.5938 873.839,13.5938 z" id="boundary" inkscape:connector-curvature="0" />
	<path style="fill:none;stroke:red;stroke-width:1px;stroke-linecap:butt;stroke-linejoin:miter;stroke-opacity:1" d="M 873.839,13.5938 880.235,14.873 z" id="boundary" inkscape:connector-curvature="0" />
	<path style="fill:none;stroke:red;stroke-width:1px;stroke-linecap:butt;stroke-linejoin:miter;stroke-opacity:1" d="M 880.235,14.873 886.631,16.7917 z" id="boundary" inkscape:connector-curvature="0" />
	<path style="fill:none;stroke:red;stroke-width:1px;stroke-linecap:butt;stroke-linejoin:miter;stroke-opacity:1" d="M 886.631,16.7917 893.026,16.7917 z" id="boundary" inkscape:connector-curvature="0" />
	<path style="fill:none;stroke:red;stroke-width:1px;stroke-linecap:butt;stroke-linejoin:miter;stroke-opacity:1" d="M 893.026,16.7917 899.422,16.7917 z" id="boundary" inkscape:connector-curvature="0" />
	<path style="fill:none;stroke:red;stroke-width:1px;stroke-linecap:butt;stroke-linejoin:miter;stroke-opacity:1" d="M 899.422,16.7917 905.818,16.7917 z" id="boundary" inkscape:connector-curvature="0" />
	<path style="fill:none;stroke:red;stroke-width:1px;stroke-linecap:butt;stroke-linejoin:miter;stroke-opacity:1" d="M 905.818,16.7917 911.574,19.9897 z" id="boundary" inkscape:connector-curvature="0" />
	<path style="fill:none;stroke:red;stroke-width:1px;stroke-linecap:butt;stroke-linejoin:miter;stroke-opacity:1" d="M 911.574,19.9897 917.97,19.9897 z" id="boundary" inkscape:connector-curvature="0" />
	<path style="fill:none;stroke:red;stroke-width:1px;stroke-linecap:butt;stroke-linejoin:miter;stroke-opacity:1" d="M 917.97,19.9897 924.366,20.6293 z" id="boundary" inkscape:connector-curvature="0" />
	<path style="fill:none;stroke:red;stroke-width:1px;stroke-linecap:butt;stroke-linejoin:miter;stroke-opacity:1" d="M 924.366,20.6293 930.762,23.1876 z" id="boundary" inkscape:connector-curvature="0" />
	<path style="fill:none;stroke:red;stroke-width:1px;stroke-linecap:butt;stroke-linejoin:miter;stroke-opacity:1" d="M 930.762,23.1876 937.158,23.1876 z" id="boundary" inkscape:connector-curvature="0" />
	<path style="fill:none;stroke:red;stroke-width:1px;stroke-linecap:butt;stroke-linejoin:miter;stroke-opacity:1" d="M 937.158,23.1876 942.914,26.3856 z" id="boundary" inkscape:connector-curvature="0" />
	<path style="fill:none;stroke:red;stroke-width:1px;stroke-linecap:butt;stroke-linejoin:miter;stroke-opacity:1" d="M 942.914,26.3856 949.31,26.3856 z" id="boundary" inkscape:connector-curvature="0" />
	<path style="fill:none;stroke:red;stroke-width:1px;stroke-linecap:butt;stroke-linejoin:miter;stroke-opacity:1" d="M 949.31,26.3856 955.066,29.5835 z" id="boundary" inkscape:connector-curvature="0" />
	<path style="fill:none;stroke:red;stroke-width:1px;stroke-linecap:butt;stroke-linejoin:miter;stroke-opacity:1" d="M 955.066,29.5835 960.823,32.7814 z" id="boundary" inkscape:connector-curvature="0" />
	<path style="fill:none;stroke:red;stroke-width:1px;stroke-linecap:butt;stroke-linejoin:miter;stroke-opacity:1" d="M 960.823,32.7814 966.579,35.9794 z" id="boundary" inkscape:connector-curvature="0" />
	<path style="fill:none;stroke:red;stroke-width:1px;stroke-linecap:butt;stroke-linejoin:miter;stroke-opacity:1" d="M 966.579,35.9794 972.335,39.1773 z" id="boundary" inkscape:connector-curvature="0" />
	<path style="fill:none;stroke:red;stroke-width:1px;stroke-linecap:butt;stroke-linejoin:miter;stroke-opacity:1" d="M 972.335,39.1773 978.092,42.3752 z" id="boundary" inkscape:connector-curvature="0" />
	<path style="fill:none;stroke:red;stroke-width:1px;stroke-linecap:butt;stroke-linejoin:miter;stroke-opacity:1" d="M 978.092,42.3752 982.569,47.4919 z" id="boundary" inkscape:connector-curvature="0" />
	<path style="fill:none;stroke:red;stroke-width:1px;stroke-linecap:butt;stroke-linejoin:miter;stroke-opacity:1" d="M 982.569,47.4919 987.685,51.9691 z" id="boundary" inkscape:connector-curvature="0" />
	<path style="fill:none;stroke:red;stroke-width:1px;stroke-linecap:butt;stroke-linejoin:miter;stroke-opacity:1" d="M 987.685,51.9691 989.604,58.3649 z" id="boundary" inkscape:connector-curvature="0" />
	<path style="fill:none;stroke:red;stroke-width:1px;stroke-linecap:butt;stroke-linejoin:miter;stroke-opacity:1" d="M 989.604,58.3649 992.802,64.1212 z" id="boundary" inkscape:connector-curvature="0" />
	<path style="fill:none;stroke:red;stroke-width:1px;stroke-linecap:butt;stroke-linejoin:miter;stroke-opacity:1" d="M 992.802,64.1212 996,69.8775 z" id="boundary" inkscape:connector-curvature="0" />
	<path style="fill:none;stroke:red;stroke-width:1px;stroke-linecap:butt;stroke-linejoin:miter;stroke-opacity:1" d="M 965.3,128.72 970.417,122.963 z" id="boundary" inkscape:connector-curvature="0" />
	<path style="fill:none;stroke:red;stroke-width:1px;stroke-linecap:butt;stroke-linejoin:miter;stroke-opacity:1" d="M 970.417,122.963 976.812,119.765 z" id="boundary" inkscape:connector-curvature="0" />
	<path style="fill:none;stroke:red;stroke-width:1px;stroke-linecap:butt;stroke-linejoin:miter;stroke-opacity:1" d="M 976.812,119.765 980.01,113.369 z" id="boundary" inkscape:connector-curvature="0" />
	<path style="fill:none;stroke:red;stroke-width:1px;stroke-linecap:butt;stroke-linejoin:miter;stroke-opacity:1" d="M 980.01,113.369 985.127,108.892 z" id="boundary" inkscape:connector-curvature="0" />
	<path style="fill:none;stroke:red;stroke-width:1px;stroke-linecap:butt;stroke-linejoin:miter;stroke-opacity:1" d="M 985.127,108.892 988.325,102.496 z" id="boundary" inkscape:connector-curvature="0" />
	<path style="fill:none;stroke:red;stroke-width:1px;stroke-linecap:butt;stroke-linejoin:miter;stroke-opacity:1" d="M 988.325,102.496 991.523,96.1006 z" id="boundary" inkscape:connector-curvature="0" />
	<path style="fill:none;stroke:red;stroke-width:1px;stroke-linecap:butt;stroke-linejoin:miter;stroke-opacity:1" d="M 991.523,96.1006 992.802,87.7859 z" id="boundary" inkscape:connector-curvature="0" />
	<path style="fill:none;stroke:red;stroke-width:1px;stroke-linecap:butt;stroke-linejoin:miter;stroke-opacity:1" d="M 992.802,87.7859 992.802,81.3901 z" id="boundary" inkscape:connector-curvature="0" />
	<path style="fill:none;stroke:red;stroke-width:1px;stroke-linecap:butt;stroke-linejoin:miter;stroke-opacity:1" d="M 996,69.8775 992.802,81.3901 z" id="boundary" inkscape:connector-curvature="0" />
	<circle cx="4" cy="73.0754" r="4" fill="#0" id="circle0"/>
	<circle cx="4" cy="79.4713" r="4" fill="#0" id="circle1"/>
	<circle cx="4" cy="85.8672" r="4" fill="#0" id="circle2"/>
	<circle cx="4" cy="92.2631" r="4" fill="#0" id="circle3"/>
	<circle cx="4" cy="98.6589" r="4" fill="#0" id="circle4"/>
	<circle cx="4" cy="105.055" r="4" fill="#0" id="circle5"/>
	<circle cx="4" cy="111.451" r="4" fill="#0" id="circle6"/>
	<circle cx="7.19794" cy="66.6796" r="4" fill="#0" id="circle7"/>
	<circle cx="7.19794" cy="117.207" r="4" fill="#0" id="circle8"/>
	<circle cx="10.3959" cy="60.2837" r="4" fill="#0" id="circle9"/>
	<circle cx="10.3959" cy="122.963" r="4" fill="#0" id="circle10"/>
	<circle cx="14.2334" cy="128.08" r="4" fill="#0" id="circle11"/>
	<circle cx="15.5126" cy="55.167" r="4" fill="#0" id="circle12"/>
	<circle cx="19.3501" cy="132.557" r="4" fill="#0" id="circle13"/>
	<circle cx="20.6293" cy="50.0503" r="4" fill="#0" id="circle14"/>
	<circle cx="21.9084" cy="138.953" r="4" fill="#0" id="circle15"/>
	<circle cx="25.746" cy="45.5732" r="4" fill="#0" id="circle16"/>
	<circle cx="27.0251" cy="143.43" r="4" fill="#0" id="circle17"/>
	<circle cx="30.2231" cy="40.4565" r="4" fill="#0" id="circle18"/>
	<circle cx="31.5023" cy="148.547" r="4" fill="#0" id="circle19"/>
	<circle cx="36.619" cy="37.2585" r="4" fill="#0" id="circle20"/>
	<circle cx="37.8981" cy="151.105" r="4" fill="#0" id="circle21"/>
	<circle cx="43.0148" cy="34.0606" r="4" fill="#0" id="circle22"/>
	<circle cx="43.6544" cy="154.303" r="4" fill="#0" id="circle23"/>
	<circle cx="49.4107" cy="32.7814" r="4" fill="#0" id="circle24"/>
	<circle cx="50.0503" cy="156.861" r="4" fill="#0" id="circle25"/>
	<circle cx="55.167" cy="29.5835" r="4" fill="#0" id="circle26"/>
	<circle cx="55.8066" cy="160.059" r="4" fill="#0" id="circle27"/>
	<circle cx="61.5629" cy="28.3043" r="4" fill="#0" id="circle28"/>
	<circle cx="62.2025" cy="161.338" r="4" fill="#0" id="circle29"/>
	<circle cx="67.9587" cy="26.3856" r="4" fill="#0" id="circle30"/>
	<circle cx="68.5983" cy="162.618" r="4" fill="#0" id="circle31"/>
	<circle cx="74.3546" cy="25.1064" r="4" fill="#0" id="circle32"/>
	<circle cx="74.3546" cy="165.816" r="4" fill="#0" id="circle33"/>
	<circle cx="80.7505" cy="23.1876" r="4" fill="#0" id="circle34"/>
	<circle cx="80.7505" cy="167.734" r="4" fill="#0" id="circle35"/>
	<circle cx="86.5068" cy="19.9897" r="4" fill="#0" id="circle36"/>
	<circle cx="86.5068" cy="170.932" r="4" fill="#0" id="circle37"/>
	<circle cx="92.2631" cy="16.7917" r="4" fill="#0" id="circle38"/>
	<circle cx="92.9026" cy="170.932" r="4" fill="#0" id="circle39"/>
	<circle cx="98.6589" cy="16.7917" r="4" fill="#0" id="circle40"/>
	<circle cx="99.2985" cy="170.932" r="4" fill="#0" id="circle41"/>
	<circle cx="105.055" cy="16.7917" r="4" fill="#0" id="circle42"/>
	<circle cx="105.694" cy="169.653" r="4" fill="#0" id="circle43"/>
	<circle cx="110.811" cy="19.9897" r="4" fill="#0" id="circle44"/>
	<circle cx="112.09" cy="167.734" r="4" fill="#0" id="circle45"/>
	<circle cx="117.207" cy="19.9897" r="4" fill="#0" id="circle46"/>
	<circle cx="117.847" cy="170.932" r="4" fill="#0" id="circle47"/>
	<circle cx="123.603" cy="19.9897" r="4" fill="#0" id="circle48"/>
	<circle cx="124.242" cy="170.932" r="4" fill="#0" id="circle49"/>
	<circle cx="129.359" cy="16.7917" r="4" fill="#0" id="circle50"/>
	<circle cx="130.638" cy="170.932" r="4" fill="#0" id="circle51"/>
	<circle cx="135.755" cy="16.7917" r="4" fill="#0" id="circle52"/>
	<circle cx="137.034" cy="170.932" r="4" fill="#0" id="circle53"/>
	<circle cx="142.151" cy="16.7917" r="4" fill="#0" id="circle54"/>
	<circle cx="143.43" cy="170.932" r="4" fill="#0" id="circle55"/>
	<circle cx="147.907" cy="13.5938" r="4" fill="#0" id="circle56"/>
	<circle cx="149.826" cy="170.932" r="4" fill="#0" id="circle57"/>
	<circle cx="154.303" cy="13.5938" r="4" fill="#0" id="circle58"/>
	<circle cx="156.222" cy="173.491" r="4" fill="#0" id="circle59"/>
	<circle cx="160.699" cy="13.5938" r="4" fill="#0" id="circle60"/>
	<circle cx="162.618" cy="174.13" r="4" fill="#0" id="circle61"/>
	<circle cx="167.095" cy="13.5938" r="4" fill="#0" id="circle62"/>
	<circle cx="169.014" cy="174.13" r="4" fill="#0" id="circle63"/>
	<circle cx="173.491" cy="13.5938" r="4" fill="#0" id="circle64"/>
	<circle cx="175.409" cy="174.13" r="4" fill="#0" id="circle65"/>
	<circle cx="179.887" cy="13.5938" r="4" fill="#0" id="circle66"/>
	<circle cx="181.805" cy="174.13" r="4" fill="#0" id="circle67"/>
	<circle cx="185.643" cy="10.3959" r="4" fill="#0" id="circle68"/>
	<circle cx="188.201" cy="174.13" r="4" fill="#0" id="circle69"/>
	<circle cx="192.039" cy="10.3959" r="4" fill="#0" id="circle70"/>
	<circle cx="194.597" cy="174.13" r="4" fill="#0" id="circle71"/>
	<circle cx="198.435" cy="10.3959" r="4" fill="#0" id="circle72"/>
	<circle cx="200.993" cy="174.13" r="4" fill="#0" id="circle73"/>
	<circle cx="204.83" cy="10.3959" r="4" fill="#0" id="circle74"/>
	<circle cx="207.389" cy="174.13" r="4" fill="#0" id="circle75"/>
	<circle cx="211.226" cy="10.3959" r="4" fill="#0" id="circle76"/>
	<circle cx="213.785" cy="174.13" r="4" fill="#0" id="circle77"/>
	<circle cx="217.622" cy="10.3959" r="4" fill="#0" id="circle78"/>
	<circle cx="220.181" cy="174.13" r="4" fill="#0" id="circle79"/>
	<circle cx="224.018" cy="10.3959" r="4" fill="#0" id="circle80"/>
	<circle cx="226.576" cy="174.13" r="4" fill="#0" id="circle81"/>
	<circle cx="230.414" cy="10.3959" r="4" fill="#0" id="circle82"/>
	<circle cx="232.972" cy="174.13" r="4" fill="#0" id="circle83"/>
	<circle cx="236.81" cy="10.3959" r="4" fill="#0" id="circle84"/>
	<circle cx="239.368" cy="176.689" r="4" fill="#0" id="circle85"/>
	<circle cx="243.206" cy="10.3959" r="4" fill="#0" id="circle86"/>
	<circle cx="245.764" cy="177.328" r="4" fill="#0" id="circle87"/>
	<circle cx="249.602" cy="10.3959" r="4" fill="#0" id="circle88"/>
	<circle cx="252.16" cy="177.328" r="4" fill="#0" id="circle89"/>
	<circle cx="255.358" cy="7.19794" r="4" fill="#0" id="circle90"/>
	<circle cx="258.556" cy="177.328" r="4" fill="#0" id="circle91"/>
	<circle cx="261.754" cy="7.19794" r="4" fill="#0" id="circle92"/>
	<circle cx="264.952" cy="177.328" r="4" fill="#0" id="circle93"/>
	<circle cx="268.15" cy="7.19794" r="4" fill="#0" id="circle94"/>
	<circle cx="271.348" cy="177.328" r="4" fill="#0" id="circle95"/>
	<circle cx="274.545" cy="7.19794" r="4" fill="#0" id="circle96"/>
	<circle cx="277.743" cy="177.328" r="4" fill="#0" id="circle97"/>
	<circle cx="280.941" cy="7.19794" r="4" fill="#0" id="circle98"/>
	<circle cx="284.139" cy="177.328" r="4" fill="#0" id="circle99"/>
	<circle cx="287.337" cy="7.19794" r="4" fill="#0" id="circle100"/>
	<circle cx="290.535" cy="177.328" r="4" fill="#0" id="circle101"/>
	<circle cx="293.733" cy="7.19794" r="4" fill="#0" id="circle102"/>
	<circle cx="296.931" cy="177.328" r="4" fill="#0" id="circle103"/>
	<circle cx="300.129" cy="7.19794" r="4" fill="#0" id="circle104"/>
	<circle cx="303.327" cy="177.328" r="4" fill="#0" id="circle105"/>
	<circle cx="306.525" cy="7.19794" r="4" fill="#0" id="circle106"/>
	<circle cx="309.723" cy="177.328" r="4" fill="#0" id="circle107"/>
	<circle cx="312.921" cy="7.19794" r="4" fill="#0" id="circle108"/>
	<circle cx="316.119" cy="177.328" r="4" fill="#0" id="circle109"/>
	<circle cx="319.317" cy="7.19794" r="4" fill="#0" id="circle110"/>
	<circle cx="322.515" cy="177.328" r="4" fill="#0" id="circle111"/>
	<circle cx="325.712" cy="7.19794" r="4" fill="#0" id="circle112"/>
	<circle cx="328.91" cy="177.328" r="4" fill="#0" id="circle113"/>
	<circle cx="332.108" cy="7.19794" r="4" fill="#0" id="circle114"/>
	<circle cx="335.306" cy="177.328" r="4" fill="#0" id="circle115"/>
	<circle cx="338.504" cy="7.19794" r="4" fill="#0" id="circle116"/>
	<circle cx="341.702" cy="177.328" r="4" fill="#0" id="circle117"/>
	<circle cx="344.9" cy="7.19794" r="4" fill="#0" id="circle118"/>
	<circle cx="348.098" cy="179.887" r="4" fill="#0" id="circle119"/>
	<circle cx="351.296" cy="7.19794" r="4" fill="#0" id="circle120"/>
	<circle cx="354.494" cy="180.526" r="4" fill="#0" id="circle121"/>
	<circle cx="357.692" cy="7.19794" r="4" fill="#0" id="circle122"/>
	<circle cx="360.89" cy="180.526" r="4" fill="#0" id="circle123"/>
	<circle cx="364.088" cy="7.19794" r="4" fill="#0" id="circle124"/>
	<circle cx="367.286" cy="180.526" r="4" fill="#0" id="circle125"/>
	<circle cx="370.484" cy="7.19794" r="4" fill="#0" id="circle126"/>
	<circle cx="373.681" cy="179.887" r="4" fill="#0" id="circle127"/>
	<circle cx="376.879" cy="7.19794" r="4" fill="#0" id="circle128"/>
	<circle cx="380.077" cy="177.328" r="4" fill="#0" id="circle129"/>
	<circle cx="383.275" cy="7.19794" r="4" fill="#0" id="circle130"/>
	<circle cx="386.473" cy="177.328" r="4" fill="#0" id="circle131"/>
	<circle cx="389.671" cy="7.19794" r="4" fill="#0" id="circle132"/>
	<circle cx="392.869" cy="177.328" r="4" fill="#0" id="circle133"/>
	<circle cx="396.067" cy="7.19794" r="4" fill="#0" id="circle134"/>
	<circle cx="399.265" cy="177.328" r="4" fill="#0" id="circle135"/>
	<circle cx="401.823" cy="4" r="4" fill="#0" id="circle136"/>
	<circle cx="405.661" cy="177.328" r="4" fill="#0" id="circle137"/>
	<circle cx="408.219" cy="4" r="4" fill="#0" id="circle138"/>
	<circle cx="412.057" cy="179.887" r="4" fill="#0" id="circle139"/>
	<circle cx="414.615" cy="4" r="4" fill="#0" id="circle140"/>
	<circle cx="418.453" cy="180.526" r="4" fill="#0" id="circle141"/>
	<circle cx="421.011" cy="4" r="4" fill="#0" id="circle142"/>
	<circle cx="424.209" cy="177.328" r="4" fill="#0" id="circle143"/>
	<circle cx="427.407" cy="4" r="4" fill="#0" id="circle144"/>
	<circle cx="430.605" cy="177.328" r="4" fill="#0" id="circle145"/>
	<circle cx="433.163" cy="7.19794" r="4" fill="#0" id="circle146"/>
	<circle cx="437.001" cy="177.328" r="4" fill="#0" id="circle147"/>
	<circle cx="439.559" cy="7.19794" r="4" fill="#0" id="circle148"/>
	<circle cx="443.397" cy="177.328" r="4" fill="#0" id="circle149"/>
	<circle cx="445.955" cy="7.19794" r="4" fill="#0" id="circle150"/>
	<circle cx="449.792" cy="177.328" r="4" fill="#0" id="circle151"/>
	<circle cx="452.351" cy="9.1167" r="4" fill="#0" id="circle152"/>
	<circle cx="456.188" cy="177.328" r="4" fill="#0" id="circle153"/>
	<circle cx="458.107" cy="12.3146" r="4" fill="#0" id="circle154"/>
	<circle cx="461.305" cy="172.211" r="4" fill="#0" id="circle155"/>
	<circle cx="464.503" cy="14.873" r="4" fill="#0" id="circle156"/>
	<circle cx="466.422" cy="167.734" r="4" fill="#0" id="circle157"/>
	<circle cx="470.899" cy="16.7917" r="4" fill="#0" id="circle158"/>
	<circle cx="472.178" cy="164.536" r="4" fill="#0" id="circle159"/>
	<circle cx="477.295" cy="16.7917" r="4" fill="#0" id="circle160"/>
	<circle cx="478.574" cy="164.536" r="4" fill="#0" id="circle161"/>
	<circle cx="483.691" cy="16.7917" r="4" fill="#0" id="circle162"/>
	<circle cx="484.33" cy="161.338" r="4" fill="#0" id="circle163"/>
	<circle cx="490.086" cy="16.7917" r="4" fill="#0" id="circle164"/>
	<circle cx="490.726" cy="161.338" r="4" fill="#0" id="circle165"/>
	<circle cx="496.482" cy="16.7917" r="4" fill="#0" id="circle166"/>
	<circle cx="497.122" cy="161.338" r="4" fill="#0" id="circle167"/>
	<circle cx="502.878" cy="16.7917" r="4" fill="#0" id="circle168"/>
	<circle cx="503.518" cy="161.338" r="4" fill="#0" id="circle169"/>
	<circle cx="509.274" cy="16.7917" r="4" fill="#0" id="circle170"/>
	<circle cx="509.914" cy="161.338" r="4" fill="#0" id="circle171"/>
	<circle cx="515.67" cy="16.7917" r="4" fill="#0" id="circle172"/>
	<circle cx="516.309" cy="161.338" r="4" fill="#0" id="circle173"/>
	<circle cx="522.066" cy="16.7917" r="4" fill="#0" id="circle174"/>
	<circle cx="522.705" cy="161.338" r="4" fill="#0" id="circle175"/>
	<circle cx="528.462" cy="16.7917" r="4" fill="#0" id="circle176"/>
	<circle cx="529.101" cy="161.338" r="4" fill="#0" id="circle177"/>
	<circle cx="534.858" cy="16.7917" r="4" fill="#0" id="circle178"/>
	<circle cx="535.497" cy="161.338" r="4" fill="#0" id="circle179"/>
	<circle cx="541.253" cy="16.7917" r="4" fill="#0" id="circle180"/>
	<circle cx="541.893" cy="161.338" r="4" fill="#0" id="circle181"/>
	<circle cx="547.649" cy="16.7917" r="4" fill="#0" id="circle182"/>
	<circle cx="548.289" cy="161.338" r="4" fill="#0" id="circle183"/>
	<circle cx="554.045" cy="16.7917" r="4" fill="#0" id="circle184"/>
	<circle cx="554.685" cy="161.338" r="4" fill="#0" id="circle185"/>
	<circle cx="560.441" cy="16.7917" r="4" fill="#0" id="circle186"/>
	<circle cx="561.081" cy="161.338" r="4" fill="#0" id="circle187"/>
	<circle cx="566.837" cy="16.7917" r="4" fill="#0" id="circle188"/>
	<circle cx="567.476" cy="161.338" r="4" fill="#0" id="circle189"/>
	<circle cx="573.233" cy="16.7917" r="4" fill="#0" id="circle190"/>
	<circle cx="573.872" cy="161.338" r="4" fill="#0" id="circle191"/>
	<circle cx="579.629" cy="16.7917" r="4" fill="#0" id="circle192"/>
	<circle cx="580.268" cy="161.338" r="4" fill="#0" id="circle193"/>
	<circle cx="586.025" cy="16.7917" r="4" fill="#0" id="circle194"/>
	<circle cx="586.664" cy="161.338" r="4" fill="#0" id="circle195"/>
	<circle cx="592.42" cy="16.7917" r="4" fill="#0" id="circle196"/>
	<circle cx="593.06" cy="161.338" r="4" fill="#0" id="circle197"/>
	<circle cx="598.816" cy="16.7917" r="4" fill="#0" id="circle198"/>
	<circle cx="599.456" cy="161.338" r="4" fill="#0" id="circle199"/>
	<circle cx="605.212" cy="16.7917" r="4" fill="#0" id="circle200"/>
	<circle cx="605.852" cy="161.338" r="4" fill="#0" id="circle201"/>
	<circle cx="611.608" cy="16.7917" r="4" fill="#0" id="circle202"/>
	<circle cx="612.248" cy="161.338" r="4" fill="#0" id="circle203"/>
	<circle cx="618.004" cy="16.7917" r="4" fill="#0" id="circle204"/>
	<circle cx="618.643" cy="161.338" r="4" fill="#0" id="circle205"/>
	<circle cx="624.4" cy="16.7917" r="4" fill="#0" id="circle206"/>
	<circle cx="625.039" cy="161.338" r="4" fill="#0" id="circle207"/>
	<circle cx="630.796" cy="16.7917" r="4" fill="#0" id="circle208"/>
	<circle cx="631.435" cy="161.338" r="4" fill="#0" id="circle209"/>
	<circle cx="637.191" cy="16.7917" r="4" fill="#0" id="circle210"/>
	<circle cx="637.831" cy="161.338" r="4" fill="#0" id="circle211"/>
	<circle cx="643.587" cy="16.7917" r="4" fill="#0" id="circle212"/>
	<circle cx="644.227" cy="161.338" r="4" fill="#0" id="circle213"/>
	<circle cx="649.983" cy="16.7917" r="4" fill="#0" id="circle214"/>
	<circle cx="650.623" cy="161.338" r="4" fill="#0" id="circle215"/>
	<circle cx="656.379" cy="16.7917" r="4" fill="#0" id="circle216"/>
	<circle cx="657.019" cy="161.338" r="4" fill="#0" id="circle217"/>
	<circle cx="662.775" cy="16.7917" r="4" fill="#0" id="circle218"/>
	<circle cx="663.415" cy="161.338" r="4" fill="#0" id="circle219"/>
	<circle cx="669.171" cy="16.7917" r="4" fill="#0" id="circle220"/>
	<circle cx="669.171" cy="158.141" r="4" fill="#0" id="circle221"/>
	<circle cx="675.567" cy="16.7917" r="4" fill="#0" id="circle222"/>
	<circle cx="675.567" cy="158.141" r="4" fill="#0" id="circle223"/>
	<circle cx="681.963" cy="16.7917" r="4" fill="#0" id="circle224"/>
	<circle cx="681.963" cy="158.141" r="4" fill="#0" id="circle225"/>
	<circle cx="688.358" cy="16.7917" r="4" fill="#0" id="circle226"/>
	<circle cx="688.358" cy="158.141" r="4" fill="#0" id="circle227"/>
	<circle cx="694.754" cy="16.7917" r="4" fill="#0" id="circle228"/>
	<circle cx="694.754" cy="158.141" r="4" fill="#0" id="circle229"/>
	<circle cx="701.15" cy="16.7917" r="4" fill="#0" id="circle230"/>
	<circle cx="701.15" cy="158.141" r="4" fill="#0" id="circle231"/>
	<circle cx="706.907" cy="161.338" r="4" fill="#0" id="circle232"/>
	<circle cx="707.546" cy="15.5126" r="4" fill="#0" id="circle233"/>
	<circle cx="713.302" cy="160.059" r="4" fill="#0" id="circle234"/>
	<circle cx="713.942" cy="13.5938" r="4" fill="#0" id="circle235"/>
	<circle cx="719.698" cy="158.141" r="4" fill="#0" id="circle236"/>
	<circle cx="720.338" cy="13.5938" r="4" fill="#0" id="circle237"/>
	<circle cx="726.094" cy="158.141" r="4" fill="#0" id="circle238"/>
	<circle cx="726.734" cy="13.5938" r="4" fill="#0" id="circle239"/>
	<circle cx="732.49" cy="158.141" r="4" fill="#0" id="circle240"/>
	<circle cx="733.13" cy="13.5938" r="4" fill="#0" id="circle241"/>
	<circle cx="738.886" cy="158.141" r="4" fill="#0" id="circle242"/>
	<circle cx="739.525" cy="13.5938" r="4" fill="#0" id="circle243"/>
	<circle cx="745.282" cy="158.141" r="4" fill="#0" id="circle244"/>
	<circle cx="745.921" cy="13.5938" r="4" fill="#0" id="circle245"/>
	<circle cx="751.678" cy="158.141" r="4" fill="#0" id="circle246"/>
	<circle cx="752.317" cy="13.5938" r="4" fill="#0" id="circle247"/>
	<circle cx="758.074" cy="158.141" r="4" fill="#0" id="circle248"/>
	<circle cx="758.713" cy="13.5938" r="4" fill="#0" id="circle249"/>
	<circle cx="764.469" cy="158.141" r="4" fill="#0" id="circle250"/>
	<circle cx="765.109" cy="13.5938" r="4" fill="#0" id="circle251"/>
	<circle cx="770.865" cy="158.141" r="4" fill="#0" id="circle252"/>
	<circle cx="771.505" cy="13.5938" r="4" fill="#0" id="circle253"/>
	<circle cx="777.261" cy="158.141" r="4" fill="#0" id="circle254"/>
	<circle cx="777.901" cy="13.5938" r="4" fill="#0" id="circle255"/>
	<circle cx="783.657" cy="156.861" r="4" fill="#0" id="circle256"/>
	<circle cx="784.297" cy="13.5938" r="4" fill="#0" id="circle257"/>
	<circle cx="790.053" cy="154.943" r="4" fill="#0" id="circle258"/>
	<circle cx="790.692" cy="13.5938" r="4" fill="#0" id="circle259"/>
	<circle cx="796.449" cy="154.943" r="4" fill="#0" id="circle260"/>
	<circle cx="797.088" cy="13.5938" r="4" fill="#0" id="circle261"/>
	<circle cx="802.845" cy="154.943" r="4" fill="#0" id="circle262"/>
	<circle cx="803.484" cy="13.5938" r="4" fill="#0" id="circle263"/>
	<circle cx="809.24" cy="154.943" r="4" fill="#0" id="circle264"/>
	<circle cx="809.88" cy="13.5938" r="4" fill="#0" id="circle265"/>
	<circle cx="815.636" cy="154.943" r="4" fill="#0" id="circle266"/>
	<circle cx="816.276" cy="13.5938" r="4" fill="#0" id="circle267"/>
	<circle cx="822.032" cy="154.943" r="4" fill="#0" id="circle268"/>
	<circle cx="822.672" cy="13.5938" r="4" fill="#0" id="circle269"/>
	<circle cx="828.428" cy="154.943" r="4" fill="#0" id="circle270"/>
	<circle cx="829.068" cy="13.5938" r="4" fill="#0" id="circle271"/>
	<circle cx="834.824" cy="154.943" r="4" fill="#0" id="circle272"/>
	<circle cx="835.464" cy="13.5938" r="4" fill="#0" id="circle273"/>
	<circle cx="841.22" cy="154.943" r="4" fill="#0" id="circle274"/>
	<circle cx="841.859" cy="13.5938" r="4" fill="#0" id="circle275"/>
	<circle cx="847.616" cy="154.943" r="4" fill="#0" id="circle276"/>
	<circle cx="848.255" cy="13.5938" r="4" fill="#0" id="circle277"/>
	<circle cx="854.012" cy="154.943" r="4" fill="#0" id="circle278"/>
	<circle cx="854.651" cy="13.5938" r="4" fill="#0" id="circle279"/>
	<circle cx="859.768" cy="151.745" r="4" fill="#0" id="circle280"/>
	<circle cx="861.047" cy="13.5938" r="4" fill="#0" id="circle281"/>
	<circle cx="866.164" cy="151.745" r="4" fill="#0" id="circle282"/>
	<circle cx="867.443" cy="13.5938" r="4" fill="#0" id="circle283"/>
	<circle cx="872.56" cy="151.745" r="4" fill="#0" id="circle284"/>
	<circle cx="873.839" cy="13.5938" r="4" fill="#0" id="circle285"/>
	<circle cx="878.956" cy="151.105" r="4" fill="#0" id="circle286"/>
	<circle cx="880.235" cy="14.873" r="4" fill="#0" id="circle287"/>
	<circle cx="885.351" cy="148.547" r="4" fill="#0" id="circle288"/>
	<circle cx="886.631" cy="16.7917" r="4" fill="#0" id="circle289"/>
	<circle cx="891.747" cy="148.547" r="4" fill="#0" id="circle290"/>
	<circle cx="893.026" cy="16.7917" r="4" fill="#0" id="circle291"/>
	<circle cx="898.143" cy="148.547" r="4" fill="#0" id="circle292"/>
	<circle cx="899.422" cy="16.7917" r="4" fill="#0" id="circle293"/>
	<circle cx="904.539" cy="147.907" r="4" fill="#0" id="circle294"/>
	<circle cx="905.818" cy="16.7917" r="4" fill="#0" id="circle295"/>
	<circle cx="910.935" cy="145.349" r="4" fill="#0" id="circle296"/>
	<circle cx="911.574" cy="19.9897" r="4" fill="#0" id="circle297"/>
	<circle cx="917.331" cy="145.349" r="4" fill="#0" id="circle298"/>
	<circle cx="917.97" cy="19.9897" r="4" fill="#0" id="circle299"/>
	<circle cx="923.087" cy="142.151" r="4" fill="#0" id="circle300"/>
	<circle cx="924.366" cy="20.6293" r="4" fill="#0" id="circle301"/>
	<circle cx="929.483" cy="142.151" r="4" fill="#0" id="circle302"/>
	<circle cx="930.762" cy="23.1876" r="4" fill="#0" id="circle303"/>
	<circle cx="935.879" cy="142.151" r="4" fill="#0" id="circle304"/>
	<circle cx="937.158" cy="23.1876" r="4" fill="#0" id="circle305"/>
	<circle cx="941.635" cy="138.953" r="4" fill="#0" id="circle306"/>
	<circle cx="942.914" cy="26.3856" r="4" fill="#0" id="circle307"/>
	<circle cx="948.031" cy="135.755" r="4" fill="#0" id="circle308"/>
	<circle cx="949.31" cy="26.3856" r="4" fill="#0" id="circle309"/>
	<circle cx="954.427" cy="135.755" r="4" fill="#0" id="circle310"/>
	<circle cx="955.066" cy="29.5835" r="4" fill="#0" id="circle311"/>
	<circle cx="960.183" cy="132.557" r="4" fill="#0" id="circle312"/>
	<circle cx="960.823" cy="32.7814" r="4" fill="#0" id="circle313"/>
	<circle cx="965.3" cy="128.72" r="4" fill="#0" id="circle314"/>
	<circle cx="966.579" cy="35.9794" r="4" fill="#0" id="circle315"/>
	<circle cx="970.417" cy="122.963" r="4" fill="#0" id="circle316"/>
	<circle cx="972.335" cy="39.1773" r="4" fill="#0" id="circle317"/>
	<circle cx="976.812" cy="119.765" r="4" fill="#0" id="circle318"/>
	<circle cx="978.092" cy="42.3752" r="4" fill="#0" id="circle319"/>
	<circle cx="980.01" cy="113.369" r="4" fill="#0" id="circle320"/>
	<circle cx="982.569" cy="47.4919" r="4" fill="#0" id="circle321"/>
	<circle cx="985.127" cy="108.892" r="4" fill="#0" id="circle322"/>
	<circle cx="987.685" cy="51.9691" r="4" fill="#0" id="circle323"/>
	<circle cx="988.325" cy="102.496" r="4" fill="#0" id="circle324"/>
	<circle cx="989.604" cy="58.3649" r="4" fill="#0" id="circle325"/>
	<circle cx="991.523" cy="96.1006" r="4" fill="#0" id="circle326"/>
	<circle cx="992.802" cy="64.1212" r="4" fill="#0" id="circle327"/>
	<circle cx="992.802" cy="81.3901" r="4" fill="#0" id="circle328"/>
	<circle cx="992.802" cy="87.7859" r="4" fill="#0" id="circle329"/>
	<circle cx="996" cy="69.8775" r="4" fill="#0" id="circle330"/>
	</g>
</svg>