<?xml version="1.0" encoding="UTF-8" standalone="no"?>
<!-- Created with CurveBenchmark -->
<svg
	xmlns:dc="http://purl.org/dc/elements/1.1/"
	xmlns:cc="http://creativecommons.org/ns#"
	xmlns:rdf="http://www.w3.org/1999/02/22-rdf-syntax-ns#"
	xmlns:svg="http://www.w3.org/2000/svg"
	xmlns="http://www.w3.org/2000/svg"
	xmlns:sodipodi="http://sodipodi.sourceforge.net/DTD/sodipodi-0.dtd"
	xmlns:inkscape="http://www.inkscape.org/namespaces/inkscape"
	width="1000"
	height="1000"
	id="svg2"
	version="1.1"
	sodipodi:docname="manifold/crawl-cthand08.png.txt">
<defs
	id="defs4" />
<metadata
	id="metadata7">
	<rdf:RDF>
		<cc:Work
			rdf:about="">
			<dc:format>image/svg+xml</dc:format>
			<dc:type
				rdf:resource="http://purl.org/dc/dcmitype/StillImage" />
			<dc:title></dc:title>
		</cc:Work>
	</rdf:RDF>
</metadata>
<g
	inkscape:label="Layer 1"
	inkscape:groupmode="layer"
	id="layer1">
	<path style="fill:none;stroke:red;stroke-width:1px;stroke-linecap:butt;stroke-linejoin:miter;stroke-opacity:1" d="M 56.8853,290.863 44.0646,281.247 z" id="boundary" inkscape:connector-curvature="0" />
	<path style="fill:none;stroke:red;stroke-width:1px;stroke-linecap:butt;stroke-linejoin:miter;stroke-opacity:1" d="M 56.8853,290.863 64.8982,305.286 z" id="boundary" inkscape:connector-curvature="0" />
	<path style="fill:none;stroke:red;stroke-width:1px;stroke-linecap:butt;stroke-linejoin:miter;stroke-opacity:1" d="M 44.0646,281.247 28.0388,276.439 z" id="boundary" inkscape:connector-curvature="0" />
	<path style="fill:none;stroke:red;stroke-width:1px;stroke-linecap:butt;stroke-linejoin:miter;stroke-opacity:1" d="M 28.0388,276.439 12.0129,278.042 z" id="boundary" inkscape:connector-curvature="0" />
	<path style="fill:none;stroke:red;stroke-width:1px;stroke-linecap:butt;stroke-linejoin:miter;stroke-opacity:1" d="M 12.0129,278.042 12.0129,294.068 z" id="boundary" inkscape:connector-curvature="0" />
	<path style="fill:none;stroke:red;stroke-width:1px;stroke-linecap:butt;stroke-linejoin:miter;stroke-opacity:1" d="M 64.8982,305.286 76.1163,318.107 z" id="boundary" inkscape:connector-curvature="0" />
	<path style="fill:none;stroke:red;stroke-width:1px;stroke-linecap:butt;stroke-linejoin:miter;stroke-opacity:1" d="M 76.1163,318.107 84.1292,332.53 z" id="boundary" inkscape:connector-curvature="0" />
	<path style="fill:none;stroke:red;stroke-width:1px;stroke-linecap:butt;stroke-linejoin:miter;stroke-opacity:1" d="M 84.1292,332.53 90.5396,348.556 z" id="boundary" inkscape:connector-curvature="0" />
	<path style="fill:none;stroke:red;stroke-width:1px;stroke-linecap:butt;stroke-linejoin:miter;stroke-opacity:1" d="M 90.5396,348.556 101.758,361.376 z" id="boundary" inkscape:connector-curvature="0" />
	<path style="fill:none;stroke:red;stroke-width:1px;stroke-linecap:butt;stroke-linejoin:miter;stroke-opacity:1" d="M 101.758,361.376 101.758,377.402 z" id="boundary" inkscape:connector-curvature="0" />
	<path style="fill:none;stroke:red;stroke-width:1px;stroke-linecap:butt;stroke-linejoin:miter;stroke-opacity:1" d="M 101.758,377.402 114.578,387.018 z" id="boundary" inkscape:connector-curvature="0" />
	<path style="fill:none;stroke:red;stroke-width:1px;stroke-linecap:butt;stroke-linejoin:miter;stroke-opacity:1" d="M 114.578,387.018 120.989,403.044 z" id="boundary" inkscape:connector-curvature="0" />
	<path style="fill:none;stroke:red;stroke-width:1px;stroke-linecap:butt;stroke-linejoin:miter;stroke-opacity:1" d="M 120.989,403.044 133.809,414.262 z" id="boundary" inkscape:connector-curvature="0" />
	<path style="fill:none;stroke:red;stroke-width:1px;stroke-linecap:butt;stroke-linejoin:miter;stroke-opacity:1" d="M 133.809,414.262 140.22,430.288 z" id="boundary" inkscape:connector-curvature="0" />
	<path style="fill:none;stroke:red;stroke-width:1px;stroke-linecap:butt;stroke-linejoin:miter;stroke-opacity:1" d="M 140.22,430.288 149.835,443.108 z" id="boundary" inkscape:connector-curvature="0" />
	<path style="fill:none;stroke:red;stroke-width:1px;stroke-linecap:butt;stroke-linejoin:miter;stroke-opacity:1" d="M 149.835,443.108 162.656,452.724 z" id="boundary" inkscape:connector-curvature="0" />
	<path style="fill:none;stroke:red;stroke-width:1px;stroke-linecap:butt;stroke-linejoin:miter;stroke-opacity:1" d="M 162.656,452.724 165.861,468.75 z" id="boundary" inkscape:connector-curvature="0" />
	<path style="fill:none;stroke:red;stroke-width:1px;stroke-linecap:butt;stroke-linejoin:miter;stroke-opacity:1" d="M 165.861,468.75 175.477,481.57 z" id="boundary" inkscape:connector-curvature="0" />
	<path style="fill:none;stroke:red;stroke-width:1px;stroke-linecap:butt;stroke-linejoin:miter;stroke-opacity:1" d="M 175.477,481.57 191.502,481.57 z" id="boundary" inkscape:connector-curvature="0" />
	<path style="fill:none;stroke:red;stroke-width:1px;stroke-linecap:butt;stroke-linejoin:miter;stroke-opacity:1" d="M 191.502,481.57 207.528,481.57 z" id="boundary" inkscape:connector-curvature="0" />
	<path style="fill:none;stroke:red;stroke-width:1px;stroke-linecap:butt;stroke-linejoin:miter;stroke-opacity:1" d="M 207.528,481.57 220.349,462.339 z" id="boundary" inkscape:connector-curvature="0" />
	<path style="fill:none;stroke:red;stroke-width:1px;stroke-linecap:butt;stroke-linejoin:miter;stroke-opacity:1" d="M 12.0129,294.068 4,318.107 z" id="boundary" inkscape:connector-curvature="0" />
	<path style="fill:none;stroke:red;stroke-width:1px;stroke-linecap:butt;stroke-linejoin:miter;stroke-opacity:1" d="M 4,318.107 4,334.132 z" id="boundary" inkscape:connector-curvature="0" />
	<path style="fill:none;stroke:red;stroke-width:1px;stroke-linecap:butt;stroke-linejoin:miter;stroke-opacity:1" d="M 4,334.132 12.0129,348.556 z" id="boundary" inkscape:connector-curvature="0" />
	<path style="fill:none;stroke:red;stroke-width:1px;stroke-linecap:butt;stroke-linejoin:miter;stroke-opacity:1" d="M 12.0129,348.556 20.0258,362.979 z" id="boundary" inkscape:connector-curvature="0" />
	<path style="fill:none;stroke:red;stroke-width:1px;stroke-linecap:butt;stroke-linejoin:miter;stroke-opacity:1" d="M 20.0258,362.979 24.8336,379.005 z" id="boundary" inkscape:connector-curvature="0" />
	<path style="fill:none;stroke:red;stroke-width:1px;stroke-linecap:butt;stroke-linejoin:miter;stroke-opacity:1" d="M 24.8336,379.005 28.0388,395.031 z" id="boundary" inkscape:connector-curvature="0" />
	<path style="fill:none;stroke:red;stroke-width:1px;stroke-linecap:butt;stroke-linejoin:miter;stroke-opacity:1" d="M 28.0388,395.031 32.8465,411.057 z" id="boundary" inkscape:connector-curvature="0" />
	<path style="fill:none;stroke:red;stroke-width:1px;stroke-linecap:butt;stroke-linejoin:miter;stroke-opacity:1" d="M 32.8465,411.057 44.0646,423.877 z" id="boundary" inkscape:connector-curvature="0" />
	<path style="fill:none;stroke:red;stroke-width:1px;stroke-linecap:butt;stroke-linejoin:miter;stroke-opacity:1" d="M 44.0646,423.877 52.0775,438.3 z" id="boundary" inkscape:connector-curvature="0" />
	<path style="fill:none;stroke:red;stroke-width:1px;stroke-linecap:butt;stroke-linejoin:miter;stroke-opacity:1" d="M 52.0775,438.3 60.0905,452.724 z" id="boundary" inkscape:connector-curvature="0" />
	<path style="fill:none;stroke:red;stroke-width:1px;stroke-linecap:butt;stroke-linejoin:miter;stroke-opacity:1" d="M 60.0905,452.724 68.1034,467.147 z" id="boundary" inkscape:connector-curvature="0" />
	<path style="fill:none;stroke:red;stroke-width:1px;stroke-linecap:butt;stroke-linejoin:miter;stroke-opacity:1" d="M 68.1034,467.147 72.9111,483.173 z" id="boundary" inkscape:connector-curvature="0" />
	<path style="fill:none;stroke:red;stroke-width:1px;stroke-linecap:butt;stroke-linejoin:miter;stroke-opacity:1" d="M 72.9111,483.173 85.7318,494.391 z" id="boundary" inkscape:connector-curvature="0" />
	<path style="fill:none;stroke:red;stroke-width:1px;stroke-linecap:butt;stroke-linejoin:miter;stroke-opacity:1" d="M 85.7318,494.391 92.1422,510.417 z" id="boundary" inkscape:connector-curvature="0" />
	<path style="fill:none;stroke:red;stroke-width:1px;stroke-linecap:butt;stroke-linejoin:miter;stroke-opacity:1" d="M 92.1422,510.417 100.155,524.84 z" id="boundary" inkscape:connector-curvature="0" />
	<path style="fill:none;stroke:red;stroke-width:1px;stroke-linecap:butt;stroke-linejoin:miter;stroke-opacity:1" d="M 100.155,524.84 108.168,539.263 z" id="boundary" inkscape:connector-curvature="0" />
	<path style="fill:none;stroke:red;stroke-width:1px;stroke-linecap:butt;stroke-linejoin:miter;stroke-opacity:1" d="M 108.168,539.263 116.181,553.687 z" id="boundary" inkscape:connector-curvature="0" />
	<path style="fill:none;stroke:red;stroke-width:1px;stroke-linecap:butt;stroke-linejoin:miter;stroke-opacity:1" d="M 116.181,553.687 119.386,569.712 z" id="boundary" inkscape:connector-curvature="0" />
	<path style="fill:none;stroke:red;stroke-width:1px;stroke-linecap:butt;stroke-linejoin:miter;stroke-opacity:1" d="M 119.386,569.712 127.399,584.136 z" id="boundary" inkscape:connector-curvature="0" />
	<path style="fill:none;stroke:red;stroke-width:1px;stroke-linecap:butt;stroke-linejoin:miter;stroke-opacity:1" d="M 127.399,584.136 132.207,600.162 z" id="boundary" inkscape:connector-curvature="0" />
	<path style="fill:none;stroke:red;stroke-width:1px;stroke-linecap:butt;stroke-linejoin:miter;stroke-opacity:1" d="M 132.207,600.162 133.809,616.187 z" id="boundary" inkscape:connector-curvature="0" />
	<path style="fill:none;stroke:red;stroke-width:1px;stroke-linecap:butt;stroke-linejoin:miter;stroke-opacity:1" d="M 133.809,616.187 140.22,632.213 z" id="boundary" inkscape:connector-curvature="0" />
	<path style="fill:none;stroke:red;stroke-width:1px;stroke-linecap:butt;stroke-linejoin:miter;stroke-opacity:1" d="M 140.22,632.213 141.822,648.239 z" id="boundary" inkscape:connector-curvature="0" />
	<path style="fill:none;stroke:red;stroke-width:1px;stroke-linecap:butt;stroke-linejoin:miter;stroke-opacity:1" d="M 141.822,648.239 148.233,664.265 z" id="boundary" inkscape:connector-curvature="0" />
	<path style="fill:none;stroke:red;stroke-width:1px;stroke-linecap:butt;stroke-linejoin:miter;stroke-opacity:1" d="M 148.233,664.265 156.246,678.688 z" id="boundary" inkscape:connector-curvature="0" />
	<path style="fill:none;stroke:red;stroke-width:1px;stroke-linecap:butt;stroke-linejoin:miter;stroke-opacity:1" d="M 156.246,678.688 156.246,694.714 z" id="boundary" inkscape:connector-curvature="0" />
	<path style="fill:none;stroke:red;stroke-width:1px;stroke-linecap:butt;stroke-linejoin:miter;stroke-opacity:1" d="M 156.246,694.714 156.246,710.74 z" id="boundary" inkscape:connector-curvature="0" />
	<path style="fill:none;stroke:red;stroke-width:1px;stroke-linecap:butt;stroke-linejoin:miter;stroke-opacity:1" d="M 156.246,710.74 164.258,725.163 z" id="boundary" inkscape:connector-curvature="0" />
	<path style="fill:none;stroke:red;stroke-width:1px;stroke-linecap:butt;stroke-linejoin:miter;stroke-opacity:1" d="M 164.258,725.163 164.258,741.189 z" id="boundary" inkscape:connector-curvature="0" />
	<path style="fill:none;stroke:red;stroke-width:1px;stroke-linecap:butt;stroke-linejoin:miter;stroke-opacity:1" d="M 164.258,741.189 164.258,757.215 z" id="boundary" inkscape:connector-curvature="0" />
	<path style="fill:none;stroke:red;stroke-width:1px;stroke-linecap:butt;stroke-linejoin:miter;stroke-opacity:1" d="M 164.258,757.215 164.258,773.241 z" id="boundary" inkscape:connector-curvature="0" />
	<path style="fill:none;stroke:red;stroke-width:1px;stroke-linecap:butt;stroke-linejoin:miter;stroke-opacity:1" d="M 164.258,773.241 172.271,787.664 z" id="boundary" inkscape:connector-curvature="0" />
	<path style="fill:none;stroke:red;stroke-width:1px;stroke-linecap:butt;stroke-linejoin:miter;stroke-opacity:1" d="M 172.271,787.664 172.271,803.69 z" id="boundary" inkscape:connector-curvature="0" />
	<path style="fill:none;stroke:red;stroke-width:1px;stroke-linecap:butt;stroke-linejoin:miter;stroke-opacity:1" d="M 172.271,803.69 180.284,818.113 z" id="boundary" inkscape:connector-curvature="0" />
	<path style="fill:none;stroke:red;stroke-width:1px;stroke-linecap:butt;stroke-linejoin:miter;stroke-opacity:1" d="M 180.284,818.113 188.297,832.536 z" id="boundary" inkscape:connector-curvature="0" />
	<path style="fill:none;stroke:red;stroke-width:1px;stroke-linecap:butt;stroke-linejoin:miter;stroke-opacity:1" d="M 188.297,832.536 188.297,848.562 z" id="boundary" inkscape:connector-curvature="0" />
	<path style="fill:none;stroke:red;stroke-width:1px;stroke-linecap:butt;stroke-linejoin:miter;stroke-opacity:1" d="M 188.297,848.562 196.31,862.985 z" id="boundary" inkscape:connector-curvature="0" />
	<path style="fill:none;stroke:red;stroke-width:1px;stroke-linecap:butt;stroke-linejoin:miter;stroke-opacity:1" d="M 196.31,862.985 196.31,879.011 z" id="boundary" inkscape:connector-curvature="0" />
	<path style="fill:none;stroke:red;stroke-width:1px;stroke-linecap:butt;stroke-linejoin:miter;stroke-opacity:1" d="M 196.31,879.011 209.131,890.229 z" id="boundary" inkscape:connector-curvature="0" />
	<path style="fill:none;stroke:red;stroke-width:1px;stroke-linecap:butt;stroke-linejoin:miter;stroke-opacity:1" d="M 209.131,890.229 215.541,906.255 z" id="boundary" inkscape:connector-curvature="0" />
	<path style="fill:none;stroke:red;stroke-width:1px;stroke-linecap:butt;stroke-linejoin:miter;stroke-opacity:1" d="M 215.541,906.255 223.554,920.679 z" id="boundary" inkscape:connector-curvature="0" />
	<path style="fill:none;stroke:red;stroke-width:1px;stroke-linecap:butt;stroke-linejoin:miter;stroke-opacity:1" d="M 223.554,920.679 228.362,936.704 z" id="boundary" inkscape:connector-curvature="0" />
	<path style="fill:none;stroke:red;stroke-width:1px;stroke-linecap:butt;stroke-linejoin:miter;stroke-opacity:1" d="M 228.362,936.704 220.349,959.141 z" id="boundary" inkscape:connector-curvature="0" />
	<path style="fill:none;stroke:red;stroke-width:1px;stroke-linecap:butt;stroke-linejoin:miter;stroke-opacity:1" d="M 220.349,959.141 220.349,975.166 z" id="boundary" inkscape:connector-curvature="0" />
	<path style="fill:none;stroke:red;stroke-width:1px;stroke-linecap:butt;stroke-linejoin:miter;stroke-opacity:1" d="M 220.349,975.166 212.336,991.192 z" id="boundary" inkscape:connector-curvature="0" />
	<path style="fill:none;stroke:red;stroke-width:1px;stroke-linecap:butt;stroke-linejoin:miter;stroke-opacity:1" d="M 212.336,991.192 228.362,996 z" id="boundary" inkscape:connector-curvature="0" />
	<path style="fill:none;stroke:red;stroke-width:1px;stroke-linecap:butt;stroke-linejoin:miter;stroke-opacity:1" d="M 228.362,996 244.388,996 z" id="boundary" inkscape:connector-curvature="0" />
	<path style="fill:none;stroke:red;stroke-width:1px;stroke-linecap:butt;stroke-linejoin:miter;stroke-opacity:1" d="M 244.388,996 260.414,996 z" id="boundary" inkscape:connector-curvature="0" />
	<path style="fill:none;stroke:red;stroke-width:1px;stroke-linecap:butt;stroke-linejoin:miter;stroke-opacity:1" d="M 260.414,996 276.439,996 z" id="boundary" inkscape:connector-curvature="0" />
	<path style="fill:none;stroke:red;stroke-width:1px;stroke-linecap:butt;stroke-linejoin:miter;stroke-opacity:1" d="M 276.439,996 292.465,996 z" id="boundary" inkscape:connector-curvature="0" />
	<path style="fill:none;stroke:red;stroke-width:1px;stroke-linecap:butt;stroke-linejoin:miter;stroke-opacity:1" d="M 292.465,996 308.491,996 z" id="boundary" inkscape:connector-curvature="0" />
	<path style="fill:none;stroke:red;stroke-width:1px;stroke-linecap:butt;stroke-linejoin:miter;stroke-opacity:1" d="M 308.491,996 324.517,996 z" id="boundary" inkscape:connector-curvature="0" />
	<path style="fill:none;stroke:red;stroke-width:1px;stroke-linecap:butt;stroke-linejoin:miter;stroke-opacity:1" d="M 324.517,996 340.543,996 z" id="boundary" inkscape:connector-curvature="0" />
	<path style="fill:none;stroke:red;stroke-width:1px;stroke-linecap:butt;stroke-linejoin:miter;stroke-opacity:1" d="M 340.543,996 356.569,996 z" id="boundary" inkscape:connector-curvature="0" />
	<path style="fill:none;stroke:red;stroke-width:1px;stroke-linecap:butt;stroke-linejoin:miter;stroke-opacity:1" d="M 356.569,996 372.595,996 z" id="boundary" inkscape:connector-curvature="0" />
	<path style="fill:none;stroke:red;stroke-width:1px;stroke-linecap:butt;stroke-linejoin:miter;stroke-opacity:1" d="M 372.595,996 388.62,996 z" id="boundary" inkscape:connector-curvature="0" />
	<path style="fill:none;stroke:red;stroke-width:1px;stroke-linecap:butt;stroke-linejoin:miter;stroke-opacity:1" d="M 388.62,996 404.646,996 z" id="boundary" inkscape:connector-curvature="0" />
	<path style="fill:none;stroke:red;stroke-width:1px;stroke-linecap:butt;stroke-linejoin:miter;stroke-opacity:1" d="M 404.646,996 420.672,996 z" id="boundary" inkscape:connector-curvature="0" />
	<path style="fill:none;stroke:red;stroke-width:1px;stroke-linecap:butt;stroke-linejoin:miter;stroke-opacity:1" d="M 420.672,996 436.698,996 z" id="boundary" inkscape:connector-curvature="0" />
	<path style="fill:none;stroke:red;stroke-width:1px;stroke-linecap:butt;stroke-linejoin:miter;stroke-opacity:1" d="M 436.698,996 452.724,996 z" id="boundary" inkscape:connector-curvature="0" />
	<path style="fill:none;stroke:red;stroke-width:1px;stroke-linecap:butt;stroke-linejoin:miter;stroke-opacity:1" d="M 452.724,996 468.75,996 z" id="boundary" inkscape:connector-curvature="0" />
	<path style="fill:none;stroke:red;stroke-width:1px;stroke-linecap:butt;stroke-linejoin:miter;stroke-opacity:1" d="M 468.75,996 484.775,996 z" id="boundary" inkscape:connector-curvature="0" />
	<path style="fill:none;stroke:red;stroke-width:1px;stroke-linecap:butt;stroke-linejoin:miter;stroke-opacity:1" d="M 484.775,996 500.801,996 z" id="boundary" inkscape:connector-curvature="0" />
	<path style="fill:none;stroke:red;stroke-width:1px;stroke-linecap:butt;stroke-linejoin:miter;stroke-opacity:1" d="M 500.801,996 516.827,996 z" id="boundary" inkscape:connector-curvature="0" />
	<path style="fill:none;stroke:red;stroke-width:1px;stroke-linecap:butt;stroke-linejoin:miter;stroke-opacity:1" d="M 516.827,996 532.853,996 z" id="boundary" inkscape:connector-curvature="0" />
	<path style="fill:none;stroke:red;stroke-width:1px;stroke-linecap:butt;stroke-linejoin:miter;stroke-opacity:1" d="M 532.853,996 542.468,979.974 z" id="boundary" inkscape:connector-curvature="0" />
	<path style="fill:none;stroke:red;stroke-width:1px;stroke-linecap:butt;stroke-linejoin:miter;stroke-opacity:1" d="M 542.468,979.974 550.481,963.948 z" id="boundary" inkscape:connector-curvature="0" />
	<path style="fill:none;stroke:red;stroke-width:1px;stroke-linecap:butt;stroke-linejoin:miter;stroke-opacity:1" d="M 550.481,963.948 563.302,952.73 z" id="boundary" inkscape:connector-curvature="0" />
	<path style="fill:none;stroke:red;stroke-width:1px;stroke-linecap:butt;stroke-linejoin:miter;stroke-opacity:1" d="M 563.302,952.73 571.315,936.704 z" id="boundary" inkscape:connector-curvature="0" />
	<path style="fill:none;stroke:red;stroke-width:1px;stroke-linecap:butt;stroke-linejoin:miter;stroke-opacity:1" d="M 571.315,936.704 580.931,923.884 z" id="boundary" inkscape:connector-curvature="0" />
	<path style="fill:none;stroke:red;stroke-width:1px;stroke-linecap:butt;stroke-linejoin:miter;stroke-opacity:1" d="M 580.931,923.884 593.751,914.268 z" id="boundary" inkscape:connector-curvature="0" />
	<path style="fill:none;stroke:red;stroke-width:1px;stroke-linecap:butt;stroke-linejoin:miter;stroke-opacity:1" d="M 593.751,914.268 606.572,899.845 z" id="boundary" inkscape:connector-curvature="0" />
	<path style="fill:none;stroke:red;stroke-width:1px;stroke-linecap:butt;stroke-linejoin:miter;stroke-opacity:1" d="M 606.572,899.845 614.585,875.806 z" id="boundary" inkscape:connector-curvature="0" />
	<path style="fill:none;stroke:red;stroke-width:1px;stroke-linecap:butt;stroke-linejoin:miter;stroke-opacity:1" d="M 614.585,875.806 622.598,859.78 z" id="boundary" inkscape:connector-curvature="0" />
	<path style="fill:none;stroke:red;stroke-width:1px;stroke-linecap:butt;stroke-linejoin:miter;stroke-opacity:1" d="M 622.598,859.78 630.611,843.754 z" id="boundary" inkscape:connector-curvature="0" />
	<path style="fill:none;stroke:red;stroke-width:1px;stroke-linecap:butt;stroke-linejoin:miter;stroke-opacity:1" d="M 630.611,843.754 638.624,819.716 z" id="boundary" inkscape:connector-curvature="0" />
	<path style="fill:none;stroke:red;stroke-width:1px;stroke-linecap:butt;stroke-linejoin:miter;stroke-opacity:1" d="M 638.624,819.716 646.637,803.69 z" id="boundary" inkscape:connector-curvature="0" />
	<path style="fill:none;stroke:red;stroke-width:1px;stroke-linecap:butt;stroke-linejoin:miter;stroke-opacity:1" d="M 646.637,803.69 646.637,787.664 z" id="boundary" inkscape:connector-curvature="0" />
	<path style="fill:none;stroke:red;stroke-width:1px;stroke-linecap:butt;stroke-linejoin:miter;stroke-opacity:1" d="M 646.637,787.664 659.457,776.446 z" id="boundary" inkscape:connector-curvature="0" />
	<path style="fill:none;stroke:red;stroke-width:1px;stroke-linecap:butt;stroke-linejoin:miter;stroke-opacity:1" d="M 659.457,776.446 667.47,760.42 z" id="boundary" inkscape:connector-curvature="0" />
	<path style="fill:none;stroke:red;stroke-width:1px;stroke-linecap:butt;stroke-linejoin:miter;stroke-opacity:1" d="M 667.47,760.42 678.688,739.586 z" id="boundary" inkscape:connector-curvature="0" />
	<path style="fill:none;stroke:red;stroke-width:1px;stroke-linecap:butt;stroke-linejoin:miter;stroke-opacity:1" d="M 678.688,739.586 678.688,723.561 z" id="boundary" inkscape:connector-curvature="0" />
	<path style="fill:none;stroke:red;stroke-width:1px;stroke-linecap:butt;stroke-linejoin:miter;stroke-opacity:1" d="M 678.688,723.561 691.509,712.342 z" id="boundary" inkscape:connector-curvature="0" />
	<path style="fill:none;stroke:red;stroke-width:1px;stroke-linecap:butt;stroke-linejoin:miter;stroke-opacity:1" d="M 220.349,462.339 228.362,435.095 z" id="boundary" inkscape:connector-curvature="0" />
	<path style="fill:none;stroke:red;stroke-width:1px;stroke-linecap:butt;stroke-linejoin:miter;stroke-opacity:1" d="M 228.362,435.095 228.362,419.069 z" id="boundary" inkscape:connector-curvature="0" />
	<path style="fill:none;stroke:red;stroke-width:1px;stroke-linecap:butt;stroke-linejoin:miter;stroke-opacity:1" d="M 228.362,419.069 228.362,403.044 z" id="boundary" inkscape:connector-curvature="0" />
	<path style="fill:none;stroke:red;stroke-width:1px;stroke-linecap:butt;stroke-linejoin:miter;stroke-opacity:1" d="M 228.362,403.044 220.349,388.62 z" id="boundary" inkscape:connector-curvature="0" />
	<path style="fill:none;stroke:red;stroke-width:1px;stroke-linecap:butt;stroke-linejoin:miter;stroke-opacity:1" d="M 220.349,388.62 220.349,372.595 z" id="boundary" inkscape:connector-curvature="0" />
	<path style="fill:none;stroke:red;stroke-width:1px;stroke-linecap:butt;stroke-linejoin:miter;stroke-opacity:1" d="M 220.349,372.595 212.336,358.171 z" id="boundary" inkscape:connector-curvature="0" />
	<path style="fill:none;stroke:red;stroke-width:1px;stroke-linecap:butt;stroke-linejoin:miter;stroke-opacity:1" d="M 212.336,358.171 212.336,342.145 z" id="boundary" inkscape:connector-curvature="0" />
	<path style="fill:none;stroke:red;stroke-width:1px;stroke-linecap:butt;stroke-linejoin:miter;stroke-opacity:1" d="M 212.336,342.145 212.336,326.12 z" id="boundary" inkscape:connector-curvature="0" />
	<path style="fill:none;stroke:red;stroke-width:1px;stroke-linecap:butt;stroke-linejoin:miter;stroke-opacity:1" d="M 212.336,326.12 212.336,310.094 z" id="boundary" inkscape:connector-curvature="0" />
	<path style="fill:none;stroke:red;stroke-width:1px;stroke-linecap:butt;stroke-linejoin:miter;stroke-opacity:1" d="M 212.336,310.094 212.336,294.068 z" id="boundary" inkscape:connector-curvature="0" />
	<path style="fill:none;stroke:red;stroke-width:1px;stroke-linecap:butt;stroke-linejoin:miter;stroke-opacity:1" d="M 212.336,294.068 212.336,278.042 z" id="boundary" inkscape:connector-curvature="0" />
	<path style="fill:none;stroke:red;stroke-width:1px;stroke-linecap:butt;stroke-linejoin:miter;stroke-opacity:1" d="M 212.336,278.042 212.336,262.016 z" id="boundary" inkscape:connector-curvature="0" />
	<path style="fill:none;stroke:red;stroke-width:1px;stroke-linecap:butt;stroke-linejoin:miter;stroke-opacity:1" d="M 212.336,262.016 212.336,245.99 z" id="boundary" inkscape:connector-curvature="0" />
	<path style="fill:none;stroke:red;stroke-width:1px;stroke-linecap:butt;stroke-linejoin:miter;stroke-opacity:1" d="M 212.336,245.99 212.336,229.964 z" id="boundary" inkscape:connector-curvature="0" />
	<path style="fill:none;stroke:red;stroke-width:1px;stroke-linecap:butt;stroke-linejoin:miter;stroke-opacity:1" d="M 212.336,229.964 212.336,213.939 z" id="boundary" inkscape:connector-curvature="0" />
	<path style="fill:none;stroke:red;stroke-width:1px;stroke-linecap:butt;stroke-linejoin:miter;stroke-opacity:1" d="M 212.336,213.939 212.336,197.913 z" id="boundary" inkscape:connector-curvature="0" />
	<path style="fill:none;stroke:red;stroke-width:1px;stroke-linecap:butt;stroke-linejoin:miter;stroke-opacity:1" d="M 212.336,197.913 212.336,181.887 z" id="boundary" inkscape:connector-curvature="0" />
	<path style="fill:none;stroke:red;stroke-width:1px;stroke-linecap:butt;stroke-linejoin:miter;stroke-opacity:1" d="M 212.336,181.887 212.336,165.861 z" id="boundary" inkscape:connector-curvature="0" />
	<path style="fill:none;stroke:red;stroke-width:1px;stroke-linecap:butt;stroke-linejoin:miter;stroke-opacity:1" d="M 212.336,165.861 220.349,149.835 z" id="boundary" inkscape:connector-curvature="0" />
	<path style="fill:none;stroke:red;stroke-width:1px;stroke-linecap:butt;stroke-linejoin:miter;stroke-opacity:1" d="M 220.349,149.835 220.349,133.809 z" id="boundary" inkscape:connector-curvature="0" />
	<path style="fill:none;stroke:red;stroke-width:1px;stroke-linecap:butt;stroke-linejoin:miter;stroke-opacity:1" d="M 220.349,133.809 220.349,117.784 z" id="boundary" inkscape:connector-curvature="0" />
	<path style="fill:none;stroke:red;stroke-width:1px;stroke-linecap:butt;stroke-linejoin:miter;stroke-opacity:1" d="M 220.349,117.784 233.17,104.963 z" id="boundary" inkscape:connector-curvature="0" />
	<path style="fill:none;stroke:red;stroke-width:1px;stroke-linecap:butt;stroke-linejoin:miter;stroke-opacity:1" d="M 233.17,104.963 244.388,85.7318 z" id="boundary" inkscape:connector-curvature="0" />
	<path style="fill:none;stroke:red;stroke-width:1px;stroke-linecap:butt;stroke-linejoin:miter;stroke-opacity:1" d="M 244.388,85.7318 257.208,72.9111 z" id="boundary" inkscape:connector-curvature="0" />
	<path style="fill:none;stroke:red;stroke-width:1px;stroke-linecap:butt;stroke-linejoin:miter;stroke-opacity:1" d="M 257.208,72.9111 273.234,72.9111 z" id="boundary" inkscape:connector-curvature="0" />
	<path style="fill:none;stroke:red;stroke-width:1px;stroke-linecap:butt;stroke-linejoin:miter;stroke-opacity:1" d="M 273.234,72.9111 284.452,85.7318 z" id="boundary" inkscape:connector-curvature="0" />
	<path style="fill:none;stroke:red;stroke-width:1px;stroke-linecap:butt;stroke-linejoin:miter;stroke-opacity:1" d="M 284.452,85.7318 294.068,98.5525 z" id="boundary" inkscape:connector-curvature="0" />
	<path style="fill:none;stroke:red;stroke-width:1px;stroke-linecap:butt;stroke-linejoin:miter;stroke-opacity:1" d="M 294.068,98.5525 302.081,112.976 z" id="boundary" inkscape:connector-curvature="0" />
	<path style="fill:none;stroke:red;stroke-width:1px;stroke-linecap:butt;stroke-linejoin:miter;stroke-opacity:1" d="M 302.081,112.976 302.081,129.002 z" id="boundary" inkscape:connector-curvature="0" />
	<path style="fill:none;stroke:red;stroke-width:1px;stroke-linecap:butt;stroke-linejoin:miter;stroke-opacity:1" d="M 302.081,129.002 302.081,145.027 z" id="boundary" inkscape:connector-curvature="0" />
	<path style="fill:none;stroke:red;stroke-width:1px;stroke-linecap:butt;stroke-linejoin:miter;stroke-opacity:1" d="M 302.081,145.027 302.081,161.053 z" id="boundary" inkscape:connector-curvature="0" />
	<path style="fill:none;stroke:red;stroke-width:1px;stroke-linecap:butt;stroke-linejoin:miter;stroke-opacity:1" d="M 302.081,161.053 294.068,178.682 z" id="boundary" inkscape:connector-curvature="0" />
	<path style="fill:none;stroke:red;stroke-width:1px;stroke-linecap:butt;stroke-linejoin:miter;stroke-opacity:1" d="M 294.068,178.682 297.273,194.708 z" id="boundary" inkscape:connector-curvature="0" />
	<path style="fill:none;stroke:red;stroke-width:1px;stroke-linecap:butt;stroke-linejoin:miter;stroke-opacity:1" d="M 297.273,194.708 302.081,210.733 z" id="boundary" inkscape:connector-curvature="0" />
	<path style="fill:none;stroke:red;stroke-width:1px;stroke-linecap:butt;stroke-linejoin:miter;stroke-opacity:1" d="M 302.081,210.733 302.081,226.759 z" id="boundary" inkscape:connector-curvature="0" />
	<path style="fill:none;stroke:red;stroke-width:1px;stroke-linecap:butt;stroke-linejoin:miter;stroke-opacity:1" d="M 302.081,226.759 302.081,242.785 z" id="boundary" inkscape:connector-curvature="0" />
	<path style="fill:none;stroke:red;stroke-width:1px;stroke-linecap:butt;stroke-linejoin:miter;stroke-opacity:1" d="M 302.081,242.785 294.068,258.811 z" id="boundary" inkscape:connector-curvature="0" />
	<path style="fill:none;stroke:red;stroke-width:1px;stroke-linecap:butt;stroke-linejoin:miter;stroke-opacity:1" d="M 294.068,258.811 294.068,274.837 z" id="boundary" inkscape:connector-curvature="0" />
	<path style="fill:none;stroke:red;stroke-width:1px;stroke-linecap:butt;stroke-linejoin:miter;stroke-opacity:1" d="M 294.068,274.837 294.068,290.863 z" id="boundary" inkscape:connector-curvature="0" />
	<path style="fill:none;stroke:red;stroke-width:1px;stroke-linecap:butt;stroke-linejoin:miter;stroke-opacity:1" d="M 294.068,290.863 294.068,306.889 z" id="boundary" inkscape:connector-curvature="0" />
	<path style="fill:none;stroke:red;stroke-width:1px;stroke-linecap:butt;stroke-linejoin:miter;stroke-opacity:1" d="M 294.068,306.889 302.081,321.312 z" id="boundary" inkscape:connector-curvature="0" />
	<path style="fill:none;stroke:red;stroke-width:1px;stroke-linecap:butt;stroke-linejoin:miter;stroke-opacity:1" d="M 302.081,321.312 302.081,337.338 z" id="boundary" inkscape:connector-curvature="0" />
	<path style="fill:none;stroke:red;stroke-width:1px;stroke-linecap:butt;stroke-linejoin:miter;stroke-opacity:1" d="M 302.081,337.338 310.094,351.761 z" id="boundary" inkscape:connector-curvature="0" />
	<path style="fill:none;stroke:red;stroke-width:1px;stroke-linecap:butt;stroke-linejoin:miter;stroke-opacity:1" d="M 310.094,351.761 310.094,367.787 z" id="boundary" inkscape:connector-curvature="0" />
	<path style="fill:none;stroke:red;stroke-width:1px;stroke-linecap:butt;stroke-linejoin:miter;stroke-opacity:1" d="M 310.094,367.787 318.107,382.21 z" id="boundary" inkscape:connector-curvature="0" />
	<path style="fill:none;stroke:red;stroke-width:1px;stroke-linecap:butt;stroke-linejoin:miter;stroke-opacity:1" d="M 318.107,382.21 332.53,372.595 z" id="boundary" inkscape:connector-curvature="0" />
	<path style="fill:none;stroke:red;stroke-width:1px;stroke-linecap:butt;stroke-linejoin:miter;stroke-opacity:1" d="M 332.53,372.595 332.53,356.569 z" id="boundary" inkscape:connector-curvature="0" />
	<path style="fill:none;stroke:red;stroke-width:1px;stroke-linecap:butt;stroke-linejoin:miter;stroke-opacity:1" d="M 332.53,356.569 332.53,340.543 z" id="boundary" inkscape:connector-curvature="0" />
	<path style="fill:none;stroke:red;stroke-width:1px;stroke-linecap:butt;stroke-linejoin:miter;stroke-opacity:1" d="M 332.53,340.543 332.53,324.517 z" id="boundary" inkscape:connector-curvature="0" />
	<path style="fill:none;stroke:red;stroke-width:1px;stroke-linecap:butt;stroke-linejoin:miter;stroke-opacity:1" d="M 332.53,324.517 332.53,308.491 z" id="boundary" inkscape:connector-curvature="0" />
	<path style="fill:none;stroke:red;stroke-width:1px;stroke-linecap:butt;stroke-linejoin:miter;stroke-opacity:1" d="M 332.53,308.491 324.517,294.068 z" id="boundary" inkscape:connector-curvature="0" />
	<path style="fill:none;stroke:red;stroke-width:1px;stroke-linecap:butt;stroke-linejoin:miter;stroke-opacity:1" d="M 324.517,294.068 324.517,278.042 z" id="boundary" inkscape:connector-curvature="0" />
	<path style="fill:none;stroke:red;stroke-width:1px;stroke-linecap:butt;stroke-linejoin:miter;stroke-opacity:1" d="M 324.517,278.042 324.517,262.016 z" id="boundary" inkscape:connector-curvature="0" />
	<path style="fill:none;stroke:red;stroke-width:1px;stroke-linecap:butt;stroke-linejoin:miter;stroke-opacity:1" d="M 324.517,262.016 332.53,237.977 z" id="boundary" inkscape:connector-curvature="0" />
	<path style="fill:none;stroke:red;stroke-width:1px;stroke-linecap:butt;stroke-linejoin:miter;stroke-opacity:1" d="M 332.53,237.977 332.53,221.952 z" id="boundary" inkscape:connector-curvature="0" />
	<path style="fill:none;stroke:red;stroke-width:1px;stroke-linecap:butt;stroke-linejoin:miter;stroke-opacity:1" d="M 332.53,221.952 332.53,205.926 z" id="boundary" inkscape:connector-curvature="0" />
	<path style="fill:none;stroke:red;stroke-width:1px;stroke-linecap:butt;stroke-linejoin:miter;stroke-opacity:1" d="M 332.53,205.926 332.53,189.9 z" id="boundary" inkscape:connector-curvature="0" />
	<path style="fill:none;stroke:red;stroke-width:1px;stroke-linecap:butt;stroke-linejoin:miter;stroke-opacity:1" d="M 332.53,189.9 332.53,173.874 z" id="boundary" inkscape:connector-curvature="0" />
	<path style="fill:none;stroke:red;stroke-width:1px;stroke-linecap:butt;stroke-linejoin:miter;stroke-opacity:1" d="M 332.53,173.874 332.53,157.848 z" id="boundary" inkscape:connector-curvature="0" />
	<path style="fill:none;stroke:red;stroke-width:1px;stroke-linecap:butt;stroke-linejoin:miter;stroke-opacity:1" d="M 332.53,157.848 340.543,140.22 z" id="boundary" inkscape:connector-curvature="0" />
	<path style="fill:none;stroke:red;stroke-width:1px;stroke-linecap:butt;stroke-linejoin:miter;stroke-opacity:1" d="M 340.543,140.22 332.53,125.796 z" id="boundary" inkscape:connector-curvature="0" />
	<path style="fill:none;stroke:red;stroke-width:1px;stroke-linecap:butt;stroke-linejoin:miter;stroke-opacity:1" d="M 332.53,125.796 332.53,109.771 z" id="boundary" inkscape:connector-curvature="0" />
	<path style="fill:none;stroke:red;stroke-width:1px;stroke-linecap:butt;stroke-linejoin:miter;stroke-opacity:1" d="M 332.53,109.771 332.53,93.7447 z" id="boundary" inkscape:connector-curvature="0" />
	<path style="fill:none;stroke:red;stroke-width:1px;stroke-linecap:butt;stroke-linejoin:miter;stroke-opacity:1" d="M 332.53,93.7447 332.53,77.7189 z" id="boundary" inkscape:connector-curvature="0" />
	<path style="fill:none;stroke:red;stroke-width:1px;stroke-linecap:butt;stroke-linejoin:miter;stroke-opacity:1" d="M 332.53,77.7189 332.53,61.6931 z" id="boundary" inkscape:connector-curvature="0" />
	<path style="fill:none;stroke:red;stroke-width:1px;stroke-linecap:butt;stroke-linejoin:miter;stroke-opacity:1" d="M 332.53,61.6931 332.53,45.6672 z" id="boundary" inkscape:connector-curvature="0" />
	<path style="fill:none;stroke:red;stroke-width:1px;stroke-linecap:butt;stroke-linejoin:miter;stroke-opacity:1" d="M 332.53,45.6672 345.351,32.8465 z" id="boundary" inkscape:connector-curvature="0" />
	<path style="fill:none;stroke:red;stroke-width:1px;stroke-linecap:butt;stroke-linejoin:miter;stroke-opacity:1" d="M 345.351,32.8465 358.171,20.0258 z" id="boundary" inkscape:connector-curvature="0" />
	<path style="fill:none;stroke:red;stroke-width:1px;stroke-linecap:butt;stroke-linejoin:miter;stroke-opacity:1" d="M 358.171,20.0258 366.184,4 z" id="boundary" inkscape:connector-curvature="0" />
	<path style="fill:none;stroke:red;stroke-width:1px;stroke-linecap:butt;stroke-linejoin:miter;stroke-opacity:1" d="M 366.184,4 382.21,5.60258 z" id="boundary" inkscape:connector-curvature="0" />
	<path style="fill:none;stroke:red;stroke-width:1px;stroke-linecap:butt;stroke-linejoin:miter;stroke-opacity:1" d="M 382.21,5.60258 393.428,18.4233 z" id="boundary" inkscape:connector-curvature="0" />
	<path style="fill:none;stroke:red;stroke-width:1px;stroke-linecap:butt;stroke-linejoin:miter;stroke-opacity:1" d="M 393.428,18.4233 401.441,32.8465 z" id="boundary" inkscape:connector-curvature="0" />
	<path style="fill:none;stroke:red;stroke-width:1px;stroke-linecap:butt;stroke-linejoin:miter;stroke-opacity:1" d="M 401.441,32.8465 412.659,45.6672 z" id="boundary" inkscape:connector-curvature="0" />
	<path style="fill:none;stroke:red;stroke-width:1px;stroke-linecap:butt;stroke-linejoin:miter;stroke-opacity:1" d="M 412.659,45.6672 414.262,61.6931 z" id="boundary" inkscape:connector-curvature="0" />
	<path style="fill:none;stroke:red;stroke-width:1px;stroke-linecap:butt;stroke-linejoin:miter;stroke-opacity:1" d="M 414.262,61.6931 414.262,77.7189 z" id="boundary" inkscape:connector-curvature="0" />
	<path style="fill:none;stroke:red;stroke-width:1px;stroke-linecap:butt;stroke-linejoin:miter;stroke-opacity:1" d="M 414.262,77.7189 422.275,92.1422 z" id="boundary" inkscape:connector-curvature="0" />
	<path style="fill:none;stroke:red;stroke-width:1px;stroke-linecap:butt;stroke-linejoin:miter;stroke-opacity:1" d="M 422.275,92.1422 422.275,108.168 z" id="boundary" inkscape:connector-curvature="0" />
	<path style="fill:none;stroke:red;stroke-width:1px;stroke-linecap:butt;stroke-linejoin:miter;stroke-opacity:1" d="M 422.275,108.168 422.275,124.194 z" id="boundary" inkscape:connector-curvature="0" />
	<path style="fill:none;stroke:red;stroke-width:1px;stroke-linecap:butt;stroke-linejoin:miter;stroke-opacity:1" d="M 422.275,124.194 422.275,140.22 z" id="boundary" inkscape:connector-curvature="0" />
	<path style="fill:none;stroke:red;stroke-width:1px;stroke-linecap:butt;stroke-linejoin:miter;stroke-opacity:1" d="M 422.275,140.22 422.275,156.246 z" id="boundary" inkscape:connector-curvature="0" />
	<path style="fill:none;stroke:red;stroke-width:1px;stroke-linecap:butt;stroke-linejoin:miter;stroke-opacity:1" d="M 422.275,156.246 422.275,172.271 z" id="boundary" inkscape:connector-curvature="0" />
	<path style="fill:none;stroke:red;stroke-width:1px;stroke-linecap:butt;stroke-linejoin:miter;stroke-opacity:1" d="M 422.275,172.271 422.275,188.297 z" id="boundary" inkscape:connector-curvature="0" />
	<path style="fill:none;stroke:red;stroke-width:1px;stroke-linecap:butt;stroke-linejoin:miter;stroke-opacity:1" d="M 422.275,188.297 422.275,204.323 z" id="boundary" inkscape:connector-curvature="0" />
	<path style="fill:none;stroke:red;stroke-width:1px;stroke-linecap:butt;stroke-linejoin:miter;stroke-opacity:1" d="M 422.275,204.323 422.275,220.349 z" id="boundary" inkscape:connector-curvature="0" />
	<path style="fill:none;stroke:red;stroke-width:1px;stroke-linecap:butt;stroke-linejoin:miter;stroke-opacity:1" d="M 422.275,220.349 427.082,236.375 z" id="boundary" inkscape:connector-curvature="0" />
	<path style="fill:none;stroke:red;stroke-width:1px;stroke-linecap:butt;stroke-linejoin:miter;stroke-opacity:1" d="M 427.082,236.375 430.288,252.401 z" id="boundary" inkscape:connector-curvature="0" />
	<path style="fill:none;stroke:red;stroke-width:1px;stroke-linecap:butt;stroke-linejoin:miter;stroke-opacity:1" d="M 430.288,252.401 430.288,268.426 z" id="boundary" inkscape:connector-curvature="0" />
	<path style="fill:none;stroke:red;stroke-width:1px;stroke-linecap:butt;stroke-linejoin:miter;stroke-opacity:1" d="M 430.288,268.426 430.288,284.452 z" id="boundary" inkscape:connector-curvature="0" />
	<path style="fill:none;stroke:red;stroke-width:1px;stroke-linecap:butt;stroke-linejoin:miter;stroke-opacity:1" d="M 430.288,284.452 430.288,300.478 z" id="boundary" inkscape:connector-curvature="0" />
	<path style="fill:none;stroke:red;stroke-width:1px;stroke-linecap:butt;stroke-linejoin:miter;stroke-opacity:1" d="M 430.288,300.478 422.275,322.914 z" id="boundary" inkscape:connector-curvature="0" />
	<path style="fill:none;stroke:red;stroke-width:1px;stroke-linecap:butt;stroke-linejoin:miter;stroke-opacity:1" d="M 422.275,322.914 422.275,338.94 z" id="boundary" inkscape:connector-curvature="0" />
	<path style="fill:none;stroke:red;stroke-width:1px;stroke-linecap:butt;stroke-linejoin:miter;stroke-opacity:1" d="M 422.275,338.94 422.275,354.966 z" id="boundary" inkscape:connector-curvature="0" />
	<path style="fill:none;stroke:red;stroke-width:1px;stroke-linecap:butt;stroke-linejoin:miter;stroke-opacity:1" d="M 422.275,354.966 430.288,369.389 z" id="boundary" inkscape:connector-curvature="0" />
	<path style="fill:none;stroke:red;stroke-width:1px;stroke-linecap:butt;stroke-linejoin:miter;stroke-opacity:1" d="M 430.288,369.389 438.3,383.813 z" id="boundary" inkscape:connector-curvature="0" />
	<path style="fill:none;stroke:red;stroke-width:1px;stroke-linecap:butt;stroke-linejoin:miter;stroke-opacity:1" d="M 438.3,383.813 438.3,399.838 z" id="boundary" inkscape:connector-curvature="0" />
	<path style="fill:none;stroke:red;stroke-width:1px;stroke-linecap:butt;stroke-linejoin:miter;stroke-opacity:1" d="M 438.3,399.838 452.724,391.826 z" id="boundary" inkscape:connector-curvature="0" />
	<path style="fill:none;stroke:red;stroke-width:1px;stroke-linecap:butt;stroke-linejoin:miter;stroke-opacity:1" d="M 452.724,391.826 452.724,374.197 z" id="boundary" inkscape:connector-curvature="0" />
	<path style="fill:none;stroke:red;stroke-width:1px;stroke-linecap:butt;stroke-linejoin:miter;stroke-opacity:1" d="M 452.724,374.197 460.737,350.158 z" id="boundary" inkscape:connector-curvature="0" />
	<path style="fill:none;stroke:red;stroke-width:1px;stroke-linecap:butt;stroke-linejoin:miter;stroke-opacity:1" d="M 460.737,350.158 460.737,334.132 z" id="boundary" inkscape:connector-curvature="0" />
	<path style="fill:none;stroke:red;stroke-width:1px;stroke-linecap:butt;stroke-linejoin:miter;stroke-opacity:1" d="M 460.737,334.132 460.737,318.107 z" id="boundary" inkscape:connector-curvature="0" />
	<path style="fill:none;stroke:red;stroke-width:1px;stroke-linecap:butt;stroke-linejoin:miter;stroke-opacity:1" d="M 460.737,318.107 460.737,302.081 z" id="boundary" inkscape:connector-curvature="0" />
	<path style="fill:none;stroke:red;stroke-width:1px;stroke-linecap:butt;stroke-linejoin:miter;stroke-opacity:1" d="M 460.737,302.081 460.737,286.055 z" id="boundary" inkscape:connector-curvature="0" />
	<path style="fill:none;stroke:red;stroke-width:1px;stroke-linecap:butt;stroke-linejoin:miter;stroke-opacity:1" d="M 460.737,286.055 460.737,270.029 z" id="boundary" inkscape:connector-curvature="0" />
	<path style="fill:none;stroke:red;stroke-width:1px;stroke-linecap:butt;stroke-linejoin:miter;stroke-opacity:1" d="M 460.737,270.029 468.75,254.003 z" id="boundary" inkscape:connector-curvature="0" />
	<path style="fill:none;stroke:red;stroke-width:1px;stroke-linecap:butt;stroke-linejoin:miter;stroke-opacity:1" d="M 468.75,254.003 468.75,237.977 z" id="boundary" inkscape:connector-curvature="0" />
	<path style="fill:none;stroke:red;stroke-width:1px;stroke-linecap:butt;stroke-linejoin:miter;stroke-opacity:1" d="M 468.75,237.977 468.75,221.952 z" id="boundary" inkscape:connector-curvature="0" />
	<path style="fill:none;stroke:red;stroke-width:1px;stroke-linecap:butt;stroke-linejoin:miter;stroke-opacity:1" d="M 468.75,221.952 468.75,205.926 z" id="boundary" inkscape:connector-curvature="0" />
	<path style="fill:none;stroke:red;stroke-width:1px;stroke-linecap:butt;stroke-linejoin:miter;stroke-opacity:1" d="M 468.75,205.926 468.75,189.9 z" id="boundary" inkscape:connector-curvature="0" />
	<path style="fill:none;stroke:red;stroke-width:1px;stroke-linecap:butt;stroke-linejoin:miter;stroke-opacity:1" d="M 468.75,189.9 468.75,173.874 z" id="boundary" inkscape:connector-curvature="0" />
	<path style="fill:none;stroke:red;stroke-width:1px;stroke-linecap:butt;stroke-linejoin:miter;stroke-opacity:1" d="M 468.75,173.874 468.75,157.848 z" id="boundary" inkscape:connector-curvature="0" />
	<path style="fill:none;stroke:red;stroke-width:1px;stroke-linecap:butt;stroke-linejoin:miter;stroke-opacity:1" d="M 468.75,157.848 468.75,141.822 z" id="boundary" inkscape:connector-curvature="0" />
	<path style="fill:none;stroke:red;stroke-width:1px;stroke-linecap:butt;stroke-linejoin:miter;stroke-opacity:1" d="M 468.75,141.822 468.75,125.796 z" id="boundary" inkscape:connector-curvature="0" />
	<path style="fill:none;stroke:red;stroke-width:1px;stroke-linecap:butt;stroke-linejoin:miter;stroke-opacity:1" d="M 468.75,125.796 476.763,109.771 z" id="boundary" inkscape:connector-curvature="0" />
	<path style="fill:none;stroke:red;stroke-width:1px;stroke-linecap:butt;stroke-linejoin:miter;stroke-opacity:1" d="M 476.763,109.771 476.763,93.7447 z" id="boundary" inkscape:connector-curvature="0" />
	<path style="fill:none;stroke:red;stroke-width:1px;stroke-linecap:butt;stroke-linejoin:miter;stroke-opacity:1" d="M 476.763,93.7447 476.763,77.7189 z" id="boundary" inkscape:connector-curvature="0" />
	<path style="fill:none;stroke:red;stroke-width:1px;stroke-linecap:butt;stroke-linejoin:miter;stroke-opacity:1" d="M 476.763,77.7189 489.583,64.8982 z" id="boundary" inkscape:connector-curvature="0" />
	<path style="fill:none;stroke:red;stroke-width:1px;stroke-linecap:butt;stroke-linejoin:miter;stroke-opacity:1" d="M 489.583,64.8982 502.404,52.0775 z" id="boundary" inkscape:connector-curvature="0" />
	<path style="fill:none;stroke:red;stroke-width:1px;stroke-linecap:butt;stroke-linejoin:miter;stroke-opacity:1" d="M 502.404,52.0775 515.225,42.462 z" id="boundary" inkscape:connector-curvature="0" />
	<path style="fill:none;stroke:red;stroke-width:1px;stroke-linecap:butt;stroke-linejoin:miter;stroke-opacity:1" d="M 515.225,42.462 526.443,55.2827 z" id="boundary" inkscape:connector-curvature="0" />
	<path style="fill:none;stroke:red;stroke-width:1px;stroke-linecap:butt;stroke-linejoin:miter;stroke-opacity:1" d="M 526.443,55.2827 534.456,69.706 z" id="boundary" inkscape:connector-curvature="0" />
	<path style="fill:none;stroke:red;stroke-width:1px;stroke-linecap:butt;stroke-linejoin:miter;stroke-opacity:1" d="M 534.456,69.706 542.468,84.1292 z" id="boundary" inkscape:connector-curvature="0" />
	<path style="fill:none;stroke:red;stroke-width:1px;stroke-linecap:butt;stroke-linejoin:miter;stroke-opacity:1" d="M 542.468,84.1292 547.276,100.155 z" id="boundary" inkscape:connector-curvature="0" />
	<path style="fill:none;stroke:red;stroke-width:1px;stroke-linecap:butt;stroke-linejoin:miter;stroke-opacity:1" d="M 547.276,100.155 558.494,112.976 z" id="boundary" inkscape:connector-curvature="0" />
	<path style="fill:none;stroke:red;stroke-width:1px;stroke-linecap:butt;stroke-linejoin:miter;stroke-opacity:1" d="M 558.494,112.976 558.494,129.002 z" id="boundary" inkscape:connector-curvature="0" />
	<path style="fill:none;stroke:red;stroke-width:1px;stroke-linecap:butt;stroke-linejoin:miter;stroke-opacity:1" d="M 558.494,129.002 558.494,145.027 z" id="boundary" inkscape:connector-curvature="0" />
	<path style="fill:none;stroke:red;stroke-width:1px;stroke-linecap:butt;stroke-linejoin:miter;stroke-opacity:1" d="M 558.494,145.027 558.494,161.053 z" id="boundary" inkscape:connector-curvature="0" />
	<path style="fill:none;stroke:red;stroke-width:1px;stroke-linecap:butt;stroke-linejoin:miter;stroke-opacity:1" d="M 558.494,161.053 558.494,177.079 z" id="boundary" inkscape:connector-curvature="0" />
	<path style="fill:none;stroke:red;stroke-width:1px;stroke-linecap:butt;stroke-linejoin:miter;stroke-opacity:1" d="M 558.494,177.079 558.494,193.105 z" id="boundary" inkscape:connector-curvature="0" />
	<path style="fill:none;stroke:red;stroke-width:1px;stroke-linecap:butt;stroke-linejoin:miter;stroke-opacity:1" d="M 558.494,193.105 558.494,209.131 z" id="boundary" inkscape:connector-curvature="0" />
	<path style="fill:none;stroke:red;stroke-width:1px;stroke-linecap:butt;stroke-linejoin:miter;stroke-opacity:1" d="M 558.494,209.131 558.494,225.157 z" id="boundary" inkscape:connector-curvature="0" />
	<path style="fill:none;stroke:red;stroke-width:1px;stroke-linecap:butt;stroke-linejoin:miter;stroke-opacity:1" d="M 558.494,225.157 558.494,241.183 z" id="boundary" inkscape:connector-curvature="0" />
	<path style="fill:none;stroke:red;stroke-width:1px;stroke-linecap:butt;stroke-linejoin:miter;stroke-opacity:1" d="M 558.494,241.183 550.481,258.811 z" id="boundary" inkscape:connector-curvature="0" />
	<path style="fill:none;stroke:red;stroke-width:1px;stroke-linecap:butt;stroke-linejoin:miter;stroke-opacity:1" d="M 550.481,258.811 550.481,274.837 z" id="boundary" inkscape:connector-curvature="0" />
	<path style="fill:none;stroke:red;stroke-width:1px;stroke-linecap:butt;stroke-linejoin:miter;stroke-opacity:1" d="M 550.481,274.837 550.481,290.863 z" id="boundary" inkscape:connector-curvature="0" />
	<path style="fill:none;stroke:red;stroke-width:1px;stroke-linecap:butt;stroke-linejoin:miter;stroke-opacity:1" d="M 550.481,290.863 550.481,306.889 z" id="boundary" inkscape:connector-curvature="0" />
	<path style="fill:none;stroke:red;stroke-width:1px;stroke-linecap:butt;stroke-linejoin:miter;stroke-opacity:1" d="M 550.481,306.889 558.494,321.312 z" id="boundary" inkscape:connector-curvature="0" />
	<path style="fill:none;stroke:red;stroke-width:1px;stroke-linecap:butt;stroke-linejoin:miter;stroke-opacity:1" d="M 558.494,321.312 558.494,337.338 z" id="boundary" inkscape:connector-curvature="0" />
	<path style="fill:none;stroke:red;stroke-width:1px;stroke-linecap:butt;stroke-linejoin:miter;stroke-opacity:1" d="M 558.494,337.338 558.494,353.363 z" id="boundary" inkscape:connector-curvature="0" />
	<path style="fill:none;stroke:red;stroke-width:1px;stroke-linecap:butt;stroke-linejoin:miter;stroke-opacity:1" d="M 558.494,353.363 558.494,369.389 z" id="boundary" inkscape:connector-curvature="0" />
	<path style="fill:none;stroke:red;stroke-width:1px;stroke-linecap:butt;stroke-linejoin:miter;stroke-opacity:1" d="M 558.494,369.389 558.494,385.415 z" id="boundary" inkscape:connector-curvature="0" />
	<path style="fill:none;stroke:red;stroke-width:1px;stroke-linecap:butt;stroke-linejoin:miter;stroke-opacity:1" d="M 558.494,385.415 558.494,401.441 z" id="boundary" inkscape:connector-curvature="0" />
	<path style="fill:none;stroke:red;stroke-width:1px;stroke-linecap:butt;stroke-linejoin:miter;stroke-opacity:1" d="M 558.494,401.441 558.494,417.467 z" id="boundary" inkscape:connector-curvature="0" />
	<path style="fill:none;stroke:red;stroke-width:1px;stroke-linecap:butt;stroke-linejoin:miter;stroke-opacity:1" d="M 558.494,417.467 558.494,433.493 z" id="boundary" inkscape:connector-curvature="0" />
	<path style="fill:none;stroke:red;stroke-width:1px;stroke-linecap:butt;stroke-linejoin:miter;stroke-opacity:1" d="M 558.494,433.493 566.507,447.916 z" id="boundary" inkscape:connector-curvature="0" />
	<path style="fill:none;stroke:red;stroke-width:1px;stroke-linecap:butt;stroke-linejoin:miter;stroke-opacity:1" d="M 566.507,447.916 566.507,463.942 z" id="boundary" inkscape:connector-curvature="0" />
	<path style="fill:none;stroke:red;stroke-width:1px;stroke-linecap:butt;stroke-linejoin:miter;stroke-opacity:1" d="M 566.507,463.942 566.507,479.968 z" id="boundary" inkscape:connector-curvature="0" />
	<path style="fill:none;stroke:red;stroke-width:1px;stroke-linecap:butt;stroke-linejoin:miter;stroke-opacity:1" d="M 566.507,479.968 574.52,494.391 z" id="boundary" inkscape:connector-curvature="0" />
	<path style="fill:none;stroke:red;stroke-width:1px;stroke-linecap:butt;stroke-linejoin:miter;stroke-opacity:1" d="M 574.52,494.391 574.52,510.417 z" id="boundary" inkscape:connector-curvature="0" />
	<path style="fill:none;stroke:red;stroke-width:1px;stroke-linecap:butt;stroke-linejoin:miter;stroke-opacity:1" d="M 574.52,510.417 574.52,526.443 z" id="boundary" inkscape:connector-curvature="0" />
	<path style="fill:none;stroke:red;stroke-width:1px;stroke-linecap:butt;stroke-linejoin:miter;stroke-opacity:1" d="M 574.52,526.443 574.52,542.468 z" id="boundary" inkscape:connector-curvature="0" />
	<path style="fill:none;stroke:red;stroke-width:1px;stroke-linecap:butt;stroke-linejoin:miter;stroke-opacity:1" d="M 574.52,542.468 582.533,556.892 z" id="boundary" inkscape:connector-curvature="0" />
	<path style="fill:none;stroke:red;stroke-width:1px;stroke-linecap:butt;stroke-linejoin:miter;stroke-opacity:1" d="M 582.533,556.892 587.341,572.918 z" id="boundary" inkscape:connector-curvature="0" />
	<path style="fill:none;stroke:red;stroke-width:1px;stroke-linecap:butt;stroke-linejoin:miter;stroke-opacity:1" d="M 587.341,572.918 590.546,588.943 z" id="boundary" inkscape:connector-curvature="0" />
	<path style="fill:none;stroke:red;stroke-width:1px;stroke-linecap:butt;stroke-linejoin:miter;stroke-opacity:1" d="M 590.546,588.943 600.162,601.764 z" id="boundary" inkscape:connector-curvature="0" />
	<path style="fill:none;stroke:red;stroke-width:1px;stroke-linecap:butt;stroke-linejoin:miter;stroke-opacity:1" d="M 600.162,601.764 606.572,580.931 z" id="boundary" inkscape:connector-curvature="0" />
	<path style="fill:none;stroke:red;stroke-width:1px;stroke-linecap:butt;stroke-linejoin:miter;stroke-opacity:1" d="M 691.509,712.342 694.714,683.496 z" id="boundary" inkscape:connector-curvature="0" />
	<path style="fill:none;stroke:red;stroke-width:1px;stroke-linecap:butt;stroke-linejoin:miter;stroke-opacity:1" d="M 694.714,683.496 694.714,667.47 z" id="boundary" inkscape:connector-curvature="0" />
	<path style="fill:none;stroke:red;stroke-width:1px;stroke-linecap:butt;stroke-linejoin:miter;stroke-opacity:1" d="M 694.714,667.47 694.714,651.444 z" id="boundary" inkscape:connector-curvature="0" />
	<path style="fill:none;stroke:red;stroke-width:1px;stroke-linecap:butt;stroke-linejoin:miter;stroke-opacity:1" d="M 694.714,651.444 694.714,635.418 z" id="boundary" inkscape:connector-curvature="0" />
	<path style="fill:none;stroke:red;stroke-width:1px;stroke-linecap:butt;stroke-linejoin:miter;stroke-opacity:1" d="M 694.714,635.418 694.714,619.393 z" id="boundary" inkscape:connector-curvature="0" />
	<path style="fill:none;stroke:red;stroke-width:1px;stroke-linecap:butt;stroke-linejoin:miter;stroke-opacity:1" d="M 694.714,619.393 702.727,603.367 z" id="boundary" inkscape:connector-curvature="0" />
	<path style="fill:none;stroke:red;stroke-width:1px;stroke-linecap:butt;stroke-linejoin:miter;stroke-opacity:1" d="M 702.727,603.367 702.727,587.341 z" id="boundary" inkscape:connector-curvature="0" />
	<path style="fill:none;stroke:red;stroke-width:1px;stroke-linecap:butt;stroke-linejoin:miter;stroke-opacity:1" d="M 702.727,587.341 702.727,571.315 z" id="boundary" inkscape:connector-curvature="0" />
	<path style="fill:none;stroke:red;stroke-width:1px;stroke-linecap:butt;stroke-linejoin:miter;stroke-opacity:1" d="M 702.727,571.315 710.74,547.276 z" id="boundary" inkscape:connector-curvature="0" />
	<path style="fill:none;stroke:red;stroke-width:1px;stroke-linecap:butt;stroke-linejoin:miter;stroke-opacity:1" d="M 710.74,547.276 710.74,531.25 z" id="boundary" inkscape:connector-curvature="0" />
	<path style="fill:none;stroke:red;stroke-width:1px;stroke-linecap:butt;stroke-linejoin:miter;stroke-opacity:1" d="M 710.74,531.25 710.74,515.225 z" id="boundary" inkscape:connector-curvature="0" />
	<path style="fill:none;stroke:red;stroke-width:1px;stroke-linecap:butt;stroke-linejoin:miter;stroke-opacity:1" d="M 710.74,515.225 710.74,499.199 z" id="boundary" inkscape:connector-curvature="0" />
	<path style="fill:none;stroke:red;stroke-width:1px;stroke-linecap:butt;stroke-linejoin:miter;stroke-opacity:1" d="M 710.74,499.199 710.74,483.173 z" id="boundary" inkscape:connector-curvature="0" />
	<path style="fill:none;stroke:red;stroke-width:1px;stroke-linecap:butt;stroke-linejoin:miter;stroke-opacity:1" d="M 710.74,483.173 710.74,467.147 z" id="boundary" inkscape:connector-curvature="0" />
	<path style="fill:none;stroke:red;stroke-width:1px;stroke-linecap:butt;stroke-linejoin:miter;stroke-opacity:1" d="M 710.74,467.147 710.74,451.121 z" id="boundary" inkscape:connector-curvature="0" />
	<path style="fill:none;stroke:red;stroke-width:1px;stroke-linecap:butt;stroke-linejoin:miter;stroke-opacity:1" d="M 710.74,451.121 710.74,435.095 z" id="boundary" inkscape:connector-curvature="0" />
	<path style="fill:none;stroke:red;stroke-width:1px;stroke-linecap:butt;stroke-linejoin:miter;stroke-opacity:1" d="M 710.74,435.095 710.74,419.069 z" id="boundary" inkscape:connector-curvature="0" />
	<path style="fill:none;stroke:red;stroke-width:1px;stroke-linecap:butt;stroke-linejoin:miter;stroke-opacity:1" d="M 710.74,419.069 710.74,403.044 z" id="boundary" inkscape:connector-curvature="0" />
	<path style="fill:none;stroke:red;stroke-width:1px;stroke-linecap:butt;stroke-linejoin:miter;stroke-opacity:1" d="M 710.74,403.044 707.535,387.018 z" id="boundary" inkscape:connector-curvature="0" />
	<path style="fill:none;stroke:red;stroke-width:1px;stroke-linecap:butt;stroke-linejoin:miter;stroke-opacity:1" d="M 707.535,387.018 699.522,372.595 z" id="boundary" inkscape:connector-curvature="0" />
	<path style="fill:none;stroke:red;stroke-width:1px;stroke-linecap:butt;stroke-linejoin:miter;stroke-opacity:1" d="M 699.522,372.595 693.111,356.569 z" id="boundary" inkscape:connector-curvature="0" />
	<path style="fill:none;stroke:red;stroke-width:1px;stroke-linecap:butt;stroke-linejoin:miter;stroke-opacity:1" d="M 693.111,356.569 677.086,350.158 z" id="boundary" inkscape:connector-curvature="0" />
	<path style="fill:none;stroke:red;stroke-width:1px;stroke-linecap:butt;stroke-linejoin:miter;stroke-opacity:1" d="M 677.086,350.158 664.265,361.376 z" id="boundary" inkscape:connector-curvature="0" />
	<path style="fill:none;stroke:red;stroke-width:1px;stroke-linecap:butt;stroke-linejoin:miter;stroke-opacity:1" d="M 664.265,361.376 649.842,369.389 z" id="boundary" inkscape:connector-curvature="0" />
	<path style="fill:none;stroke:red;stroke-width:1px;stroke-linecap:butt;stroke-linejoin:miter;stroke-opacity:1" d="M 649.842,369.389 637.021,382.21 z" id="boundary" inkscape:connector-curvature="0" />
	<path style="fill:none;stroke:red;stroke-width:1px;stroke-linecap:butt;stroke-linejoin:miter;stroke-opacity:1" d="M 637.021,382.21 629.008,398.236 z" id="boundary" inkscape:connector-curvature="0" />
	<path style="fill:none;stroke:red;stroke-width:1px;stroke-linecap:butt;stroke-linejoin:miter;stroke-opacity:1" d="M 629.008,398.236 620.995,414.262 z" id="boundary" inkscape:connector-curvature="0" />
	<path style="fill:none;stroke:red;stroke-width:1px;stroke-linecap:butt;stroke-linejoin:miter;stroke-opacity:1" d="M 620.995,414.262 620.995,430.288 z" id="boundary" inkscape:connector-curvature="0" />
	<path style="fill:none;stroke:red;stroke-width:1px;stroke-linecap:butt;stroke-linejoin:miter;stroke-opacity:1" d="M 620.995,430.288 612.982,454.326 z" id="boundary" inkscape:connector-curvature="0" />
	<path style="fill:none;stroke:red;stroke-width:1px;stroke-linecap:butt;stroke-linejoin:miter;stroke-opacity:1" d="M 612.982,454.326 612.982,470.352 z" id="boundary" inkscape:connector-curvature="0" />
	<path style="fill:none;stroke:red;stroke-width:1px;stroke-linecap:butt;stroke-linejoin:miter;stroke-opacity:1" d="M 612.982,470.352 612.982,486.378 z" id="boundary" inkscape:connector-curvature="0" />
	<path style="fill:none;stroke:red;stroke-width:1px;stroke-linecap:butt;stroke-linejoin:miter;stroke-opacity:1" d="M 612.982,486.378 612.982,502.404 z" id="boundary" inkscape:connector-curvature="0" />
	<path style="fill:none;stroke:red;stroke-width:1px;stroke-linecap:butt;stroke-linejoin:miter;stroke-opacity:1" d="M 612.982,502.404 612.982,518.43 z" id="boundary" inkscape:connector-curvature="0" />
	<path style="fill:none;stroke:red;stroke-width:1px;stroke-linecap:butt;stroke-linejoin:miter;stroke-opacity:1" d="M 612.982,518.43 612.982,534.456 z" id="boundary" inkscape:connector-curvature="0" />
	<path style="fill:none;stroke:red;stroke-width:1px;stroke-linecap:butt;stroke-linejoin:miter;stroke-opacity:1" d="M 612.982,534.456 612.982,550.481 z" id="boundary" inkscape:connector-curvature="0" />
	<path style="fill:none;stroke:red;stroke-width:1px;stroke-linecap:butt;stroke-linejoin:miter;stroke-opacity:1" d="M 606.572,580.931 612.982,550.481 z" id="boundary" inkscape:connector-curvature="0" />
	<circle cx="4" cy="318.107" r="4" fill="#0" id="circle0"/>
	<circle cx="4" cy="334.132" r="4" fill="#0" id="circle1"/>
	<circle cx="12.0129" cy="278.042" r="4" fill="#0" id="circle2"/>
	<circle cx="12.0129" cy="294.068" r="4" fill="#0" id="circle3"/>
	<circle cx="12.0129" cy="348.556" r="4" fill="#0" id="circle4"/>
	<circle cx="20.0258" cy="362.979" r="4" fill="#0" id="circle5"/>
	<circle cx="24.8336" cy="379.005" r="4" fill="#0" id="circle6"/>
	<circle cx="28.0388" cy="276.439" r="4" fill="#0" id="circle7"/>
	<circle cx="28.0388" cy="395.031" r="4" fill="#0" id="circle8"/>
	<circle cx="32.8465" cy="411.057" r="4" fill="#0" id="circle9"/>
	<circle cx="44.0646" cy="281.247" r="4" fill="#0" id="circle10"/>
	<circle cx="44.0646" cy="423.877" r="4" fill="#0" id="circle11"/>
	<circle cx="52.0775" cy="438.3" r="4" fill="#0" id="circle12"/>
	<circle cx="56.8853" cy="290.863" r="4" fill="#0" id="circle13"/>
	<circle cx="60.0905" cy="452.724" r="4" fill="#0" id="circle14"/>
	<circle cx="64.8982" cy="305.286" r="4" fill="#0" id="circle15"/>
	<circle cx="68.1034" cy="467.147" r="4" fill="#0" id="circle16"/>
	<circle cx="72.9111" cy="483.173" r="4" fill="#0" id="circle17"/>
	<circle cx="76.1163" cy="318.107" r="4" fill="#0" id="circle18"/>
	<circle cx="84.1292" cy="332.53" r="4" fill="#0" id="circle19"/>
	<circle cx="85.7318" cy="494.391" r="4" fill="#0" id="circle20"/>
	<circle cx="90.5396" cy="348.556" r="4" fill="#0" id="circle21"/>
	<circle cx="92.1422" cy="510.417" r="4" fill="#0" id="circle22"/>
	<circle cx="100.155" cy="524.84" r="4" fill="#0" id="circle23"/>
	<circle cx="101.758" cy="361.376" r="4" fill="#0" id="circle24"/>
	<circle cx="101.758" cy="377.402" r="4" fill="#0" id="circle25"/>
	<circle cx="108.168" cy="539.263" r="4" fill="#0" id="circle26"/>
	<circle cx="114.578" cy="387.018" r="4" fill="#0" id="circle27"/>
	<circle cx="116.181" cy="553.687" r="4" fill="#0" id="circle28"/>
	<circle cx="119.386" cy="569.712" r="4" fill="#0" id="circle29"/>
	<circle cx="120.989" cy="403.044" r="4" fill="#0" id="circle30"/>
	<circle cx="127.399" cy="584.136" r="4" fill="#0" id="circle31"/>
	<circle cx="132.207" cy="600.162" r="4" fill="#0" id="circle32"/>
	<circle cx="133.809" cy="414.262" r="4" fill="#0" id="circle33"/>
	<circle cx="133.809" cy="616.187" r="4" fill="#0" id="circle34"/>
	<circle cx="140.22" cy="430.288" r="4" fill="#0" id="circle35"/>
	<circle cx="140.22" cy="632.213" r="4" fill="#0" id="circle36"/>
	<circle cx="141.822" cy="648.239" r="4" fill="#0" id="circle37"/>
	<circle cx="148.233" cy="664.265" r="4" fill="#0" id="circle38"/>
	<circle cx="149.835" cy="443.108" r="4" fill="#0" id="circle39"/>
	<circle cx="156.246" cy="678.688" r="4" fill="#0" id="circle40"/>
	<circle cx="156.246" cy="694.714" r="4" fill="#0" id="circle41"/>
	<circle cx="156.246" cy="710.74" r="4" fill="#0" id="circle42"/>
	<circle cx="162.656" cy="452.724" r="4" fill="#0" id="circle43"/>
	<circle cx="164.258" cy="725.163" r="4" fill="#0" id="circle44"/>
	<circle cx="164.258" cy="741.189" r="4" fill="#0" id="circle45"/>
	<circle cx="164.258" cy="757.215" r="4" fill="#0" id="circle46"/>
	<circle cx="164.258" cy="773.241" r="4" fill="#0" id="circle47"/>
	<circle cx="165.861" cy="468.75" r="4" fill="#0" id="circle48"/>
	<circle cx="172.271" cy="787.664" r="4" fill="#0" id="circle49"/>
	<circle cx="172.271" cy="803.69" r="4" fill="#0" id="circle50"/>
	<circle cx="175.477" cy="481.57" r="4" fill="#0" id="circle51"/>
	<circle cx="180.284" cy="818.113" r="4" fill="#0" id="circle52"/>
	<circle cx="188.297" cy="832.536" r="4" fill="#0" id="circle53"/>
	<circle cx="188.297" cy="848.562" r="4" fill="#0" id="circle54"/>
	<circle cx="191.502" cy="481.57" r="4" fill="#0" id="circle55"/>
	<circle cx="196.31" cy="862.985" r="4" fill="#0" id="circle56"/>
	<circle cx="196.31" cy="879.011" r="4" fill="#0" id="circle57"/>
	<circle cx="207.528" cy="481.57" r="4" fill="#0" id="circle58"/>
	<circle cx="209.131" cy="890.229" r="4" fill="#0" id="circle59"/>
	<circle cx="212.336" cy="165.861" r="4" fill="#0" id="circle60"/>
	<circle cx="212.336" cy="181.887" r="4" fill="#0" id="circle61"/>
	<circle cx="212.336" cy="197.913" r="4" fill="#0" id="circle62"/>
	<circle cx="212.336" cy="213.939" r="4" fill="#0" id="circle63"/>
	<circle cx="212.336" cy="229.964" r="4" fill="#0" id="circle64"/>
	<circle cx="212.336" cy="245.99" r="4" fill="#0" id="circle65"/>
	<circle cx="212.336" cy="262.016" r="4" fill="#0" id="circle66"/>
	<circle cx="212.336" cy="278.042" r="4" fill="#0" id="circle67"/>
	<circle cx="212.336" cy="294.068" r="4" fill="#0" id="circle68"/>
	<circle cx="212.336" cy="310.094" r="4" fill="#0" id="circle69"/>
	<circle cx="212.336" cy="326.12" r="4" fill="#0" id="circle70"/>
	<circle cx="212.336" cy="342.145" r="4" fill="#0" id="circle71"/>
	<circle cx="212.336" cy="358.171" r="4" fill="#0" id="circle72"/>
	<circle cx="212.336" cy="991.192" r="4" fill="#0" id="circle73"/>
	<circle cx="215.541" cy="906.255" r="4" fill="#0" id="circle74"/>
	<circle cx="220.349" cy="117.784" r="4" fill="#0" id="circle75"/>
	<circle cx="220.349" cy="133.809" r="4" fill="#0" id="circle76"/>
	<circle cx="220.349" cy="149.835" r="4" fill="#0" id="circle77"/>
	<circle cx="220.349" cy="372.595" r="4" fill="#0" id="circle78"/>
	<circle cx="220.349" cy="388.62" r="4" fill="#0" id="circle79"/>
	<circle cx="220.349" cy="462.339" r="4" fill="#0" id="circle80"/>
	<circle cx="220.349" cy="959.141" r="4" fill="#0" id="circle81"/>
	<circle cx="220.349" cy="975.166" r="4" fill="#0" id="circle82"/>
	<circle cx="223.554" cy="920.679" r="4" fill="#0" id="circle83"/>
	<circle cx="228.362" cy="403.044" r="4" fill="#0" id="circle84"/>
	<circle cx="228.362" cy="419.069" r="4" fill="#0" id="circle85"/>
	<circle cx="228.362" cy="435.095" r="4" fill="#0" id="circle86"/>
	<circle cx="228.362" cy="936.704" r="4" fill="#0" id="circle87"/>
	<circle cx="228.362" cy="996" r="4" fill="#0" id="circle88"/>
	<circle cx="233.17" cy="104.963" r="4" fill="#0" id="circle89"/>
	<circle cx="244.388" cy="85.7318" r="4" fill="#0" id="circle90"/>
	<circle cx="244.388" cy="996" r="4" fill="#0" id="circle91"/>
	<circle cx="257.208" cy="72.9111" r="4" fill="#0" id="circle92"/>
	<circle cx="260.414" cy="996" r="4" fill="#0" id="circle93"/>
	<circle cx="273.234" cy="72.9111" r="4" fill="#0" id="circle94"/>
	<circle cx="276.439" cy="996" r="4" fill="#0" id="circle95"/>
	<circle cx="284.452" cy="85.7318" r="4" fill="#0" id="circle96"/>
	<circle cx="292.465" cy="996" r="4" fill="#0" id="circle97"/>
	<circle cx="294.068" cy="98.5525" r="4" fill="#0" id="circle98"/>
	<circle cx="294.068" cy="178.682" r="4" fill="#0" id="circle99"/>
	<circle cx="294.068" cy="258.811" r="4" fill="#0" id="circle100"/>
	<circle cx="294.068" cy="274.837" r="4" fill="#0" id="circle101"/>
	<circle cx="294.068" cy="290.863" r="4" fill="#0" id="circle102"/>
	<circle cx="294.068" cy="306.889" r="4" fill="#0" id="circle103"/>
	<circle cx="297.273" cy="194.708" r="4" fill="#0" id="circle104"/>
	<circle cx="302.081" cy="112.976" r="4" fill="#0" id="circle105"/>
	<circle cx="302.081" cy="129.002" r="4" fill="#0" id="circle106"/>
	<circle cx="302.081" cy="145.027" r="4" fill="#0" id="circle107"/>
	<circle cx="302.081" cy="161.053" r="4" fill="#0" id="circle108"/>
	<circle cx="302.081" cy="210.733" r="4" fill="#0" id="circle109"/>
	<circle cx="302.081" cy="226.759" r="4" fill="#0" id="circle110"/>
	<circle cx="302.081" cy="242.785" r="4" fill="#0" id="circle111"/>
	<circle cx="302.081" cy="321.312" r="4" fill="#0" id="circle112"/>
	<circle cx="302.081" cy="337.338" r="4" fill="#0" id="circle113"/>
	<circle cx="308.491" cy="996" r="4" fill="#0" id="circle114"/>
	<circle cx="310.094" cy="351.761" r="4" fill="#0" id="circle115"/>
	<circle cx="310.094" cy="367.787" r="4" fill="#0" id="circle116"/>
	<circle cx="318.107" cy="382.21" r="4" fill="#0" id="circle117"/>
	<circle cx="324.517" cy="262.016" r="4" fill="#0" id="circle118"/>
	<circle cx="324.517" cy="278.042" r="4" fill="#0" id="circle119"/>
	<circle cx="324.517" cy="294.068" r="4" fill="#0" id="circle120"/>
	<circle cx="324.517" cy="996" r="4" fill="#0" id="circle121"/>
	<circle cx="332.53" cy="45.6672" r="4" fill="#0" id="circle122"/>
	<circle cx="332.53" cy="61.6931" r="4" fill="#0" id="circle123"/>
	<circle cx="332.53" cy="77.7189" r="4" fill="#0" id="circle124"/>
	<circle cx="332.53" cy="93.7447" r="4" fill="#0" id="circle125"/>
	<circle cx="332.53" cy="109.771" r="4" fill="#0" id="circle126"/>
	<circle cx="332.53" cy="125.796" r="4" fill="#0" id="circle127"/>
	<circle cx="332.53" cy="157.848" r="4" fill="#0" id="circle128"/>
	<circle cx="332.53" cy="173.874" r="4" fill="#0" id="circle129"/>
	<circle cx="332.53" cy="189.9" r="4" fill="#0" id="circle130"/>
	<circle cx="332.53" cy="205.926" r="4" fill="#0" id="circle131"/>
	<circle cx="332.53" cy="221.952" r="4" fill="#0" id="circle132"/>
	<circle cx="332.53" cy="237.977" r="4" fill="#0" id="circle133"/>
	<circle cx="332.53" cy="308.491" r="4" fill="#0" id="circle134"/>
	<circle cx="332.53" cy="324.517" r="4" fill="#0" id="circle135"/>
	<circle cx="332.53" cy="340.543" r="4" fill="#0" id="circle136"/>
	<circle cx="332.53" cy="356.569" r="4" fill="#0" id="circle137"/>
	<circle cx="332.53" cy="372.595" r="4" fill="#0" id="circle138"/>
	<circle cx="340.543" cy="140.22" r="4" fill="#0" id="circle139"/>
	<circle cx="340.543" cy="996" r="4" fill="#0" id="circle140"/>
	<circle cx="345.351" cy="32.8465" r="4" fill="#0" id="circle141"/>
	<circle cx="356.569" cy="996" r="4" fill="#0" id="circle142"/>
	<circle cx="358.171" cy="20.0258" r="4" fill="#0" id="circle143"/>
	<circle cx="366.184" cy="4" r="4" fill="#0" id="circle144"/>
	<circle cx="372.595" cy="996" r="4" fill="#0" id="circle145"/>
	<circle cx="382.21" cy="5.60258" r="4" fill="#0" id="circle146"/>
	<circle cx="388.62" cy="996" r="4" fill="#0" id="circle147"/>
	<circle cx="393.428" cy="18.4233" r="4" fill="#0" id="circle148"/>
	<circle cx="401.441" cy="32.8465" r="4" fill="#0" id="circle149"/>
	<circle cx="404.646" cy="996" r="4" fill="#0" id="circle150"/>
	<circle cx="412.659" cy="45.6672" r="4" fill="#0" id="circle151"/>
	<circle cx="414.262" cy="61.6931" r="4" fill="#0" id="circle152"/>
	<circle cx="414.262" cy="77.7189" r="4" fill="#0" id="circle153"/>
	<circle cx="420.672" cy="996" r="4" fill="#0" id="circle154"/>
	<circle cx="422.275" cy="92.1422" r="4" fill="#0" id="circle155"/>
	<circle cx="422.275" cy="108.168" r="4" fill="#0" id="circle156"/>
	<circle cx="422.275" cy="124.194" r="4" fill="#0" id="circle157"/>
	<circle cx="422.275" cy="140.22" r="4" fill="#0" id="circle158"/>
	<circle cx="422.275" cy="156.246" r="4" fill="#0" id="circle159"/>
	<circle cx="422.275" cy="172.271" r="4" fill="#0" id="circle160"/>
	<circle cx="422.275" cy="188.297" r="4" fill="#0" id="circle161"/>
	<circle cx="422.275" cy="204.323" r="4" fill="#0" id="circle162"/>
	<circle cx="422.275" cy="220.349" r="4" fill="#0" id="circle163"/>
	<circle cx="422.275" cy="322.914" r="4" fill="#0" id="circle164"/>
	<circle cx="422.275" cy="338.94" r="4" fill="#0" id="circle165"/>
	<circle cx="422.275" cy="354.966" r="4" fill="#0" id="circle166"/>
	<circle cx="427.082" cy="236.375" r="4" fill="#0" id="circle167"/>
	<circle cx="430.288" cy="252.401" r="4" fill="#0" id="circle168"/>
	<circle cx="430.288" cy="268.426" r="4" fill="#0" id="circle169"/>
	<circle cx="430.288" cy="284.452" r="4" fill="#0" id="circle170"/>
	<circle cx="430.288" cy="300.478" r="4" fill="#0" id="circle171"/>
	<circle cx="430.288" cy="369.389" r="4" fill="#0" id="circle172"/>
	<circle cx="436.698" cy="996" r="4" fill="#0" id="circle173"/>
	<circle cx="438.3" cy="383.813" r="4" fill="#0" id="circle174"/>
	<circle cx="438.3" cy="399.838" r="4" fill="#0" id="circle175"/>
	<circle cx="452.724" cy="374.197" r="4" fill="#0" id="circle176"/>
	<circle cx="452.724" cy="391.826" r="4" fill="#0" id="circle177"/>
	<circle cx="452.724" cy="996" r="4" fill="#0" id="circle178"/>
	<circle cx="460.737" cy="270.029" r="4" fill="#0" id="circle179"/>
	<circle cx="460.737" cy="286.055" r="4" fill="#0" id="circle180"/>
	<circle cx="460.737" cy="302.081" r="4" fill="#0" id="circle181"/>
	<circle cx="460.737" cy="318.107" r="4" fill="#0" id="circle182"/>
	<circle cx="460.737" cy="334.132" r="4" fill="#0" id="circle183"/>
	<circle cx="460.737" cy="350.158" r="4" fill="#0" id="circle184"/>
	<circle cx="468.75" cy="125.796" r="4" fill="#0" id="circle185"/>
	<circle cx="468.75" cy="141.822" r="4" fill="#0" id="circle186"/>
	<circle cx="468.75" cy="157.848" r="4" fill="#0" id="circle187"/>
	<circle cx="468.75" cy="173.874" r="4" fill="#0" id="circle188"/>
	<circle cx="468.75" cy="189.9" r="4" fill="#0" id="circle189"/>
	<circle cx="468.75" cy="205.926" r="4" fill="#0" id="circle190"/>
	<circle cx="468.75" cy="221.952" r="4" fill="#0" id="circle191"/>
	<circle cx="468.75" cy="237.977" r="4" fill="#0" id="circle192"/>
	<circle cx="468.75" cy="254.003" r="4" fill="#0" id="circle193"/>
	<circle cx="468.75" cy="996" r="4" fill="#0" id="circle194"/>
	<circle cx="476.763" cy="77.7189" r="4" fill="#0" id="circle195"/>
	<circle cx="476.763" cy="93.7447" r="4" fill="#0" id="circle196"/>
	<circle cx="476.763" cy="109.771" r="4" fill="#0" id="circle197"/>
	<circle cx="484.775" cy="996" r="4" fill="#0" id="circle198"/>
	<circle cx="489.583" cy="64.8982" r="4" fill="#0" id="circle199"/>
	<circle cx="500.801" cy="996" r="4" fill="#0" id="circle200"/>
	<circle cx="502.404" cy="52.0775" r="4" fill="#0" id="circle201"/>
	<circle cx="515.225" cy="42.462" r="4" fill="#0" id="circle202"/>
	<circle cx="516.827" cy="996" r="4" fill="#0" id="circle203"/>
	<circle cx="526.443" cy="55.2827" r="4" fill="#0" id="circle204"/>
	<circle cx="532.853" cy="996" r="4" fill="#0" id="circle205"/>
	<circle cx="534.456" cy="69.706" r="4" fill="#0" id="circle206"/>
	<circle cx="542.468" cy="84.1292" r="4" fill="#0" id="circle207"/>
	<circle cx="542.468" cy="979.974" r="4" fill="#0" id="circle208"/>
	<circle cx="547.276" cy="100.155" r="4" fill="#0" id="circle209"/>
	<circle cx="550.481" cy="258.811" r="4" fill="#0" id="circle210"/>
	<circle cx="550.481" cy="274.837" r="4" fill="#0" id="circle211"/>
	<circle cx="550.481" cy="290.863" r="4" fill="#0" id="circle212"/>
	<circle cx="550.481" cy="306.889" r="4" fill="#0" id="circle213"/>
	<circle cx="550.481" cy="963.948" r="4" fill="#0" id="circle214"/>
	<circle cx="558.494" cy="112.976" r="4" fill="#0" id="circle215"/>
	<circle cx="558.494" cy="129.002" r="4" fill="#0" id="circle216"/>
	<circle cx="558.494" cy="145.027" r="4" fill="#0" id="circle217"/>
	<circle cx="558.494" cy="161.053" r="4" fill="#0" id="circle218"/>
	<circle cx="558.494" cy="177.079" r="4" fill="#0" id="circle219"/>
	<circle cx="558.494" cy="193.105" r="4" fill="#0" id="circle220"/>
	<circle cx="558.494" cy="209.131" r="4" fill="#0" id="circle221"/>
	<circle cx="558.494" cy="225.157" r="4" fill="#0" id="circle222"/>
	<circle cx="558.494" cy="241.183" r="4" fill="#0" id="circle223"/>
	<circle cx="558.494" cy="321.312" r="4" fill="#0" id="circle224"/>
	<circle cx="558.494" cy="337.338" r="4" fill="#0" id="circle225"/>
	<circle cx="558.494" cy="353.363" r="4" fill="#0" id="circle226"/>
	<circle cx="558.494" cy="369.389" r="4" fill="#0" id="circle227"/>
	<circle cx="558.494" cy="385.415" r="4" fill="#0" id="circle228"/>
	<circle cx="558.494" cy="401.441" r="4" fill="#0" id="circle229"/>
	<circle cx="558.494" cy="417.467" r="4" fill="#0" id="circle230"/>
	<circle cx="558.494" cy="433.493" r="4" fill="#0" id="circle231"/>
	<circle cx="563.302" cy="952.73" r="4" fill="#0" id="circle232"/>
	<circle cx="566.507" cy="447.916" r="4" fill="#0" id="circle233"/>
	<circle cx="566.507" cy="463.942" r="4" fill="#0" id="circle234"/>
	<circle cx="566.507" cy="479.968" r="4" fill="#0" id="circle235"/>
	<circle cx="571.315" cy="936.704" r="4" fill="#0" id="circle236"/>
	<circle cx="574.52" cy="494.391" r="4" fill="#0" id="circle237"/>
	<circle cx="574.52" cy="510.417" r="4" fill="#0" id="circle238"/>
	<circle cx="574.52" cy="526.443" r="4" fill="#0" id="circle239"/>
	<circle cx="574.52" cy="542.468" r="4" fill="#0" id="circle240"/>
	<circle cx="580.931" cy="923.884" r="4" fill="#0" id="circle241"/>
	<circle cx="582.533" cy="556.892" r="4" fill="#0" id="circle242"/>
	<circle cx="587.341" cy="572.918" r="4" fill="#0" id="circle243"/>
	<circle cx="590.546" cy="588.943" r="4" fill="#0" id="circle244"/>
	<circle cx="593.751" cy="914.268" r="4" fill="#0" id="circle245"/>
	<circle cx="600.162" cy="601.764" r="4" fill="#0" id="circle246"/>
	<circle cx="606.572" cy="580.931" r="4" fill="#0" id="circle247"/>
	<circle cx="606.572" cy="899.845" r="4" fill="#0" id="circle248"/>
	<circle cx="612.982" cy="454.326" r="4" fill="#0" id="circle249"/>
	<circle cx="612.982" cy="470.352" r="4" fill="#0" id="circle250"/>
	<circle cx="612.982" cy="486.378" r="4" fill="#0" id="circle251"/>
	<circle cx="612.982" cy="502.404" r="4" fill="#0" id="circle252"/>
	<circle cx="612.982" cy="518.43" r="4" fill="#0" id="circle253"/>
	<circle cx="612.982" cy="534.456" r="4" fill="#0" id="circle254"/>
	<circle cx="612.982" cy="550.481" r="4" fill="#0" id="circle255"/>
	<circle cx="614.585" cy="875.806" r="4" fill="#0" id="circle256"/>
	<circle cx="620.995" cy="414.262" r="4" fill="#0" id="circle257"/>
	<circle cx="620.995" cy="430.288" r="4" fill="#0" id="circle258"/>
	<circle cx="622.598" cy="859.78" r="4" fill="#0" id="circle259"/>
	<circle cx="629.008" cy="398.236" r="4" fill="#0" id="circle260"/>
	<circle cx="630.611" cy="843.754" r="4" fill="#0" id="circle261"/>
	<circle cx="637.021" cy="382.21" r="4" fill="#0" id="circle262"/>
	<circle cx="638.624" cy="819.716" r="4" fill="#0" id="circle263"/>
	<circle cx="646.637" cy="787.664" r="4" fill="#0" id="circle264"/>
	<circle cx="646.637" cy="803.69" r="4" fill="#0" id="circle265"/>
	<circle cx="649.842" cy="369.389" r="4" fill="#0" id="circle266"/>
	<circle cx="659.457" cy="776.446" r="4" fill="#0" id="circle267"/>
	<circle cx="664.265" cy="361.376" r="4" fill="#0" id="circle268"/>
	<circle cx="667.47" cy="760.42" r="4" fill="#0" id="circle269"/>
	<circle cx="677.086" cy="350.158" r="4" fill="#0" id="circle270"/>
	<circle cx="678.688" cy="723.561" r="4" fill="#0" id="circle271"/>
	<circle cx="678.688" cy="739.586" r="4" fill="#0" id="circle272"/>
	<circle cx="691.509" cy="712.342" r="4" fill="#0" id="circle273"/>
	<circle cx="693.111" cy="356.569" r="4" fill="#0" id="circle274"/>
	<circle cx="694.714" cy="619.393" r="4" fill="#0" id="circle275"/>
	<circle cx="694.714" cy="635.418" r="4" fill="#0" id="circle276"/>
	<circle cx="694.714" cy="651.444" r="4" fill="#0" id="circle277"/>
	<circle cx="694.714" cy="667.47" r="4" fill="#0" id="circle278"/>
	<circle cx="694.714" cy="683.496" r="4" fill="#0" id="circle279"/>
	<circle cx="699.522" cy="372.595" r="4" fill="#0" id="circle280"/>
	<circle cx="702.727" cy="571.315" r="4" fill="#0" id="circle281"/>
	<circle cx="702.727" cy="587.341" r="4" fill="#0" id="circle282"/>
	<circle cx="702.727" cy="603.367" r="4" fill="#0" id="circle283"/>
	<circle cx="707.535" cy="387.018" r="4" fill="#0" id="circle284"/>
	<circle cx="710.74" cy="403.044" r="4" fill="#0" id="circle285"/>
	<circle cx="710.74" cy="419.069" r="4" fill="#0" id="circle286"/>
	<circle cx="710.74" cy="435.095" r="4" fill="#0" id="circle287"/>
	<circle cx="710.74" cy="451.121" r="4" fill="#0" id="circle288"/>
	<circle cx="710.74" cy="467.147" r="4" fill="#0" id="circle289"/>
	<circle cx="710.74" cy="483.173" r="4" fill="#0" id="circle290"/>
	<circle cx="710.74" cy="499.199" r="4" fill="#0" id="circle291"/>
	<circle cx="710.74" cy="515.225" r="4" fill="#0" id="circle292"/>
	<circle cx="710.74" cy="531.25" r="4" fill="#0" id="circle293"/>
	<circle cx="710.74" cy="547.276" r="4" fill="#0" id="circle294"/>
	</g>
</svg>