<?xml version="1.0" encoding="UTF-8" standalone="no"?>
<!-- Created with CurveBenchmark -->
<svg
	xmlns:dc="http://purl.org/dc/elements/1.1/"
	xmlns:cc="http://creativecommons.org/ns#"
	xmlns:rdf="http://www.w3.org/1999/02/22-rdf-syntax-ns#"
	xmlns:svg="http://www.w3.org/2000/svg"
	xmlns="http://www.w3.org/2000/svg"
	xmlns:sodipodi="http://sodipodi.sourceforge.net/DTD/sodipodi-0.dtd"
	xmlns:inkscape="http://www.inkscape.org/namespaces/inkscape"
	width="1000"
	height="1000"
	id="svg2"
	version="1.1"
	sodipodi:docname="manifold/crawl-brick19.png.txt">
<defs
	id="defs4" />
<metadata
	id="metadata7">
	<rdf:RDF>
		<cc:Work
			rdf:about="">
			<dc:format>image/svg+xml</dc:format>
			<dc:type
				rdf:resource="http://purl.org/dc/dcmitype/StillImage" />
			<dc:title></dc:title>
		</cc:Work>
	</rdf:RDF>
</metadata>
<g
	inkscape:label="Layer 1"
	inkscape:groupmode="layer"
	id="layer1">
	<path style="fill:none;stroke:red;stroke-width:1px;stroke-linecap:butt;stroke-linejoin:miter;stroke-opacity:1" d="M 13.2537,322.328 13.2537,303.821 z" id="boundary" inkscape:connector-curvature="0" />
	<path style="fill:none;stroke:red;stroke-width:1px;stroke-linecap:butt;stroke-linejoin:miter;stroke-opacity:1" d="M 13.2537,303.821 4,287.164 z" id="boundary" inkscape:connector-curvature="0" />
	<path style="fill:none;stroke:red;stroke-width:1px;stroke-linecap:butt;stroke-linejoin:miter;stroke-opacity:1" d="M 13.2537,322.328 22.5075,338.985 z" id="boundary" inkscape:connector-curvature="0" />
	<path style="fill:none;stroke:red;stroke-width:1px;stroke-linecap:butt;stroke-linejoin:miter;stroke-opacity:1" d="M 22.5075,338.985 22.5075,357.493 z" id="boundary" inkscape:connector-curvature="0" />
	<path style="fill:none;stroke:red;stroke-width:1px;stroke-linecap:butt;stroke-linejoin:miter;stroke-opacity:1" d="M 22.5075,357.493 28.0597,376 z" id="boundary" inkscape:connector-curvature="0" />
	<path style="fill:none;stroke:red;stroke-width:1px;stroke-linecap:butt;stroke-linejoin:miter;stroke-opacity:1" d="M 28.0597,376 44.7164,385.254 z" id="boundary" inkscape:connector-curvature="0" />
	<path style="fill:none;stroke:red;stroke-width:1px;stroke-linecap:butt;stroke-linejoin:miter;stroke-opacity:1" d="M 44.7164,385.254 61.3731,376 z" id="boundary" inkscape:connector-curvature="0" />
	<path style="fill:none;stroke:red;stroke-width:1px;stroke-linecap:butt;stroke-linejoin:miter;stroke-opacity:1" d="M 61.3731,376 79.8806,376 z" id="boundary" inkscape:connector-curvature="0" />
	<path style="fill:none;stroke:red;stroke-width:1px;stroke-linecap:butt;stroke-linejoin:miter;stroke-opacity:1" d="M 79.8806,376 98.3881,376 z" id="boundary" inkscape:connector-curvature="0" />
	<path style="fill:none;stroke:red;stroke-width:1px;stroke-linecap:butt;stroke-linejoin:miter;stroke-opacity:1" d="M 98.3881,376 116.896,376 z" id="boundary" inkscape:connector-curvature="0" />
	<path style="fill:none;stroke:red;stroke-width:1px;stroke-linecap:butt;stroke-linejoin:miter;stroke-opacity:1" d="M 116.896,376 135.403,376 z" id="boundary" inkscape:connector-curvature="0" />
	<path style="fill:none;stroke:red;stroke-width:1px;stroke-linecap:butt;stroke-linejoin:miter;stroke-opacity:1" d="M 135.403,376 153.91,376 z" id="boundary" inkscape:connector-curvature="0" />
	<path style="fill:none;stroke:red;stroke-width:1px;stroke-linecap:butt;stroke-linejoin:miter;stroke-opacity:1" d="M 153.91,376 172.418,366.746 z" id="boundary" inkscape:connector-curvature="0" />
	<path style="fill:none;stroke:red;stroke-width:1px;stroke-linecap:butt;stroke-linejoin:miter;stroke-opacity:1" d="M 172.418,366.746 190.925,366.746 z" id="boundary" inkscape:connector-curvature="0" />
	<path style="fill:none;stroke:red;stroke-width:1px;stroke-linecap:butt;stroke-linejoin:miter;stroke-opacity:1" d="M 190.925,366.746 209.433,366.746 z" id="boundary" inkscape:connector-curvature="0" />
	<path style="fill:none;stroke:red;stroke-width:1px;stroke-linecap:butt;stroke-linejoin:miter;stroke-opacity:1" d="M 209.433,366.746 227.94,366.746 z" id="boundary" inkscape:connector-curvature="0" />
	<path style="fill:none;stroke:red;stroke-width:1px;stroke-linecap:butt;stroke-linejoin:miter;stroke-opacity:1" d="M 227.94,366.746 246.448,370.448 z" id="boundary" inkscape:connector-curvature="0" />
	<path style="fill:none;stroke:red;stroke-width:1px;stroke-linecap:butt;stroke-linejoin:miter;stroke-opacity:1" d="M 246.448,370.448 263.104,379.701 z" id="boundary" inkscape:connector-curvature="0" />
	<path style="fill:none;stroke:red;stroke-width:1px;stroke-linecap:butt;stroke-linejoin:miter;stroke-opacity:1" d="M 263.104,379.701 281.612,385.254 z" id="boundary" inkscape:connector-curvature="0" />
	<path style="fill:none;stroke:red;stroke-width:1px;stroke-linecap:butt;stroke-linejoin:miter;stroke-opacity:1" d="M 281.612,385.254 298.269,394.507 z" id="boundary" inkscape:connector-curvature="0" />
	<path style="fill:none;stroke:red;stroke-width:1px;stroke-linecap:butt;stroke-linejoin:miter;stroke-opacity:1" d="M 298.269,394.507 314.925,403.761 z" id="boundary" inkscape:connector-curvature="0" />
	<path style="fill:none;stroke:red;stroke-width:1px;stroke-linecap:butt;stroke-linejoin:miter;stroke-opacity:1" d="M 314.925,403.761 331.582,413.015 z" id="boundary" inkscape:connector-curvature="0" />
	<path style="fill:none;stroke:red;stroke-width:1px;stroke-linecap:butt;stroke-linejoin:miter;stroke-opacity:1" d="M 331.582,413.015 348.239,422.269 z" id="boundary" inkscape:connector-curvature="0" />
	<path style="fill:none;stroke:red;stroke-width:1px;stroke-linecap:butt;stroke-linejoin:miter;stroke-opacity:1" d="M 348.239,422.269 366.746,425.97 z" id="boundary" inkscape:connector-curvature="0" />
	<path style="fill:none;stroke:red;stroke-width:1px;stroke-linecap:butt;stroke-linejoin:miter;stroke-opacity:1" d="M 366.746,425.97 385.254,431.522 z" id="boundary" inkscape:connector-curvature="0" />
	<path style="fill:none;stroke:red;stroke-width:1px;stroke-linecap:butt;stroke-linejoin:miter;stroke-opacity:1" d="M 385.254,431.522 403.761,431.522 z" id="boundary" inkscape:connector-curvature="0" />
	<path style="fill:none;stroke:red;stroke-width:1px;stroke-linecap:butt;stroke-linejoin:miter;stroke-opacity:1" d="M 403.761,431.522 422.269,431.522 z" id="boundary" inkscape:connector-curvature="0" />
	<path style="fill:none;stroke:red;stroke-width:1px;stroke-linecap:butt;stroke-linejoin:miter;stroke-opacity:1" d="M 422.269,431.522 438.925,422.269 z" id="boundary" inkscape:connector-curvature="0" />
	<path style="fill:none;stroke:red;stroke-width:1px;stroke-linecap:butt;stroke-linejoin:miter;stroke-opacity:1" d="M 438.925,422.269 455.582,413.015 z" id="boundary" inkscape:connector-curvature="0" />
	<path style="fill:none;stroke:red;stroke-width:1px;stroke-linecap:butt;stroke-linejoin:miter;stroke-opacity:1" d="M 455.582,413.015 474.09,413.015 z" id="boundary" inkscape:connector-curvature="0" />
	<path style="fill:none;stroke:red;stroke-width:1px;stroke-linecap:butt;stroke-linejoin:miter;stroke-opacity:1" d="M 474.09,413.015 492.597,413.015 z" id="boundary" inkscape:connector-curvature="0" />
	<path style="fill:none;stroke:red;stroke-width:1px;stroke-linecap:butt;stroke-linejoin:miter;stroke-opacity:1" d="M 492.597,413.015 511.104,413.015 z" id="boundary" inkscape:connector-curvature="0" />
	<path style="fill:none;stroke:red;stroke-width:1px;stroke-linecap:butt;stroke-linejoin:miter;stroke-opacity:1" d="M 511.104,413.015 529.612,413.015 z" id="boundary" inkscape:connector-curvature="0" />
	<path style="fill:none;stroke:red;stroke-width:1px;stroke-linecap:butt;stroke-linejoin:miter;stroke-opacity:1" d="M 529.612,413.015 548.119,413.015 z" id="boundary" inkscape:connector-curvature="0" />
	<path style="fill:none;stroke:red;stroke-width:1px;stroke-linecap:butt;stroke-linejoin:miter;stroke-opacity:1" d="M 548.119,413.015 566.627,413.015 z" id="boundary" inkscape:connector-curvature="0" />
	<path style="fill:none;stroke:red;stroke-width:1px;stroke-linecap:butt;stroke-linejoin:miter;stroke-opacity:1" d="M 566.627,413.015 585.134,413.015 z" id="boundary" inkscape:connector-curvature="0" />
	<path style="fill:none;stroke:red;stroke-width:1px;stroke-linecap:butt;stroke-linejoin:miter;stroke-opacity:1" d="M 585.134,413.015 603.642,413.015 z" id="boundary" inkscape:connector-curvature="0" />
	<path style="fill:none;stroke:red;stroke-width:1px;stroke-linecap:butt;stroke-linejoin:miter;stroke-opacity:1" d="M 603.642,413.015 622.149,409.313 z" id="boundary" inkscape:connector-curvature="0" />
	<path style="fill:none;stroke:red;stroke-width:1px;stroke-linecap:butt;stroke-linejoin:miter;stroke-opacity:1" d="M 622.149,409.313 640.657,403.761 z" id="boundary" inkscape:connector-curvature="0" />
	<path style="fill:none;stroke:red;stroke-width:1px;stroke-linecap:butt;stroke-linejoin:miter;stroke-opacity:1" d="M 640.657,403.761 659.164,403.761 z" id="boundary" inkscape:connector-curvature="0" />
	<path style="fill:none;stroke:red;stroke-width:1px;stroke-linecap:butt;stroke-linejoin:miter;stroke-opacity:1" d="M 659.164,403.761 677.672,403.761 z" id="boundary" inkscape:connector-curvature="0" />
	<path style="fill:none;stroke:red;stroke-width:1px;stroke-linecap:butt;stroke-linejoin:miter;stroke-opacity:1" d="M 677.672,403.761 696.179,403.761 z" id="boundary" inkscape:connector-curvature="0" />
	<path style="fill:none;stroke:red;stroke-width:1px;stroke-linecap:butt;stroke-linejoin:miter;stroke-opacity:1" d="M 696.179,403.761 709.134,418.567 z" id="boundary" inkscape:connector-curvature="0" />
	<path style="fill:none;stroke:red;stroke-width:1px;stroke-linecap:butt;stroke-linejoin:miter;stroke-opacity:1" d="M 709.134,418.567 723.94,431.522 z" id="boundary" inkscape:connector-curvature="0" />
	<path style="fill:none;stroke:red;stroke-width:1px;stroke-linecap:butt;stroke-linejoin:miter;stroke-opacity:1" d="M 723.94,431.522 740.597,440.776 z" id="boundary" inkscape:connector-curvature="0" />
	<path style="fill:none;stroke:red;stroke-width:1px;stroke-linecap:butt;stroke-linejoin:miter;stroke-opacity:1" d="M 740.597,440.776 759.104,448.179 z" id="boundary" inkscape:connector-curvature="0" />
	<path style="fill:none;stroke:red;stroke-width:1px;stroke-linecap:butt;stroke-linejoin:miter;stroke-opacity:1" d="M 759.104,448.179 777.612,450.03 z" id="boundary" inkscape:connector-curvature="0" />
	<path style="fill:none;stroke:red;stroke-width:1px;stroke-linecap:butt;stroke-linejoin:miter;stroke-opacity:1" d="M 777.612,450.03 796.119,450.03 z" id="boundary" inkscape:connector-curvature="0" />
	<path style="fill:none;stroke:red;stroke-width:1px;stroke-linecap:butt;stroke-linejoin:miter;stroke-opacity:1" d="M 796.119,450.03 814.627,448.179 z" id="boundary" inkscape:connector-curvature="0" />
	<path style="fill:none;stroke:red;stroke-width:1px;stroke-linecap:butt;stroke-linejoin:miter;stroke-opacity:1" d="M 814.627,448.179 833.134,440.776 z" id="boundary" inkscape:connector-curvature="0" />
	<path style="fill:none;stroke:red;stroke-width:1px;stroke-linecap:butt;stroke-linejoin:miter;stroke-opacity:1" d="M 833.134,440.776 851.642,440.776 z" id="boundary" inkscape:connector-curvature="0" />
	<path style="fill:none;stroke:red;stroke-width:1px;stroke-linecap:butt;stroke-linejoin:miter;stroke-opacity:1" d="M 851.642,440.776 868.299,431.522 z" id="boundary" inkscape:connector-curvature="0" />
	<path style="fill:none;stroke:red;stroke-width:1px;stroke-linecap:butt;stroke-linejoin:miter;stroke-opacity:1" d="M 868.299,431.522 884.955,422.269 z" id="boundary" inkscape:connector-curvature="0" />
	<path style="fill:none;stroke:red;stroke-width:1px;stroke-linecap:butt;stroke-linejoin:miter;stroke-opacity:1" d="M 884.955,422.269 903.463,422.269 z" id="boundary" inkscape:connector-curvature="0" />
	<path style="fill:none;stroke:red;stroke-width:1px;stroke-linecap:butt;stroke-linejoin:miter;stroke-opacity:1" d="M 903.463,422.269 921.97,422.269 z" id="boundary" inkscape:connector-curvature="0" />
	<path style="fill:none;stroke:red;stroke-width:1px;stroke-linecap:butt;stroke-linejoin:miter;stroke-opacity:1" d="M 4,287.164 18.806,272.358 z" id="boundary" inkscape:connector-curvature="0" />
	<path style="fill:none;stroke:red;stroke-width:1px;stroke-linecap:butt;stroke-linejoin:miter;stroke-opacity:1" d="M 18.806,272.358 33.6119,257.552 z" id="boundary" inkscape:connector-curvature="0" />
	<path style="fill:none;stroke:red;stroke-width:1px;stroke-linecap:butt;stroke-linejoin:miter;stroke-opacity:1" d="M 33.6119,257.552 48.4179,244.597 z" id="boundary" inkscape:connector-curvature="0" />
	<path style="fill:none;stroke:red;stroke-width:1px;stroke-linecap:butt;stroke-linejoin:miter;stroke-opacity:1" d="M 921.97,422.269 931.224,400.06 z" id="boundary" inkscape:connector-curvature="0" />
	<path style="fill:none;stroke:red;stroke-width:1px;stroke-linecap:butt;stroke-linejoin:miter;stroke-opacity:1" d="M 931.224,400.06 931.224,381.552 z" id="boundary" inkscape:connector-curvature="0" />
	<path style="fill:none;stroke:red;stroke-width:1px;stroke-linecap:butt;stroke-linejoin:miter;stroke-opacity:1" d="M 931.224,381.552 921.97,364.896 z" id="boundary" inkscape:connector-curvature="0" />
	<path style="fill:none;stroke:red;stroke-width:1px;stroke-linecap:butt;stroke-linejoin:miter;stroke-opacity:1" d="M 921.97,364.896 912.716,348.239 z" id="boundary" inkscape:connector-curvature="0" />
	<path style="fill:none;stroke:red;stroke-width:1px;stroke-linecap:butt;stroke-linejoin:miter;stroke-opacity:1" d="M 912.716,348.239 912.716,329.731 z" id="boundary" inkscape:connector-curvature="0" />
	<path style="fill:none;stroke:red;stroke-width:1px;stroke-linecap:butt;stroke-linejoin:miter;stroke-opacity:1" d="M 912.716,329.731 927.522,316.776 z" id="boundary" inkscape:connector-curvature="0" />
	<path style="fill:none;stroke:red;stroke-width:1px;stroke-linecap:butt;stroke-linejoin:miter;stroke-opacity:1" d="M 927.522,316.776 936.776,298.269 z" id="boundary" inkscape:connector-curvature="0" />
	<path style="fill:none;stroke:red;stroke-width:1px;stroke-linecap:butt;stroke-linejoin:miter;stroke-opacity:1" d="M 936.776,298.269 949.731,283.463 z" id="boundary" inkscape:connector-curvature="0" />
	<path style="fill:none;stroke:red;stroke-width:1px;stroke-linecap:butt;stroke-linejoin:miter;stroke-opacity:1" d="M 949.731,283.463 958.985,264.955 z" id="boundary" inkscape:connector-curvature="0" />
	<path style="fill:none;stroke:red;stroke-width:1px;stroke-linecap:butt;stroke-linejoin:miter;stroke-opacity:1" d="M 958.985,264.955 968.239,246.448 z" id="boundary" inkscape:connector-curvature="0" />
	<path style="fill:none;stroke:red;stroke-width:1px;stroke-linecap:butt;stroke-linejoin:miter;stroke-opacity:1" d="M 968.239,246.448 977.493,227.94 z" id="boundary" inkscape:connector-curvature="0" />
	<path style="fill:none;stroke:red;stroke-width:1px;stroke-linecap:butt;stroke-linejoin:miter;stroke-opacity:1" d="M 977.493,227.94 986.746,209.433 z" id="boundary" inkscape:connector-curvature="0" />
	<path style="fill:none;stroke:red;stroke-width:1px;stroke-linecap:butt;stroke-linejoin:miter;stroke-opacity:1" d="M 986.746,209.433 996,190.925 z" id="boundary" inkscape:connector-curvature="0" />
	<path style="fill:none;stroke:red;stroke-width:1px;stroke-linecap:butt;stroke-linejoin:miter;stroke-opacity:1" d="M 996,190.925 990.448,172.418 z" id="boundary" inkscape:connector-curvature="0" />
	<path style="fill:none;stroke:red;stroke-width:1px;stroke-linecap:butt;stroke-linejoin:miter;stroke-opacity:1" d="M 990.448,172.418 986.746,153.91 z" id="boundary" inkscape:connector-curvature="0" />
	<path style="fill:none;stroke:red;stroke-width:1px;stroke-linecap:butt;stroke-linejoin:miter;stroke-opacity:1" d="M 986.746,153.91 986.746,135.403 z" id="boundary" inkscape:connector-curvature="0" />
	<path style="fill:none;stroke:red;stroke-width:1px;stroke-linecap:butt;stroke-linejoin:miter;stroke-opacity:1" d="M 986.746,135.403 977.493,118.746 z" id="boundary" inkscape:connector-curvature="0" />
	<path style="fill:none;stroke:red;stroke-width:1px;stroke-linecap:butt;stroke-linejoin:miter;stroke-opacity:1" d="M 977.493,118.746 968.239,102.09 z" id="boundary" inkscape:connector-curvature="0" />
	<path style="fill:none;stroke:red;stroke-width:1px;stroke-linecap:butt;stroke-linejoin:miter;stroke-opacity:1" d="M 968.239,102.09 955.284,87.2836 z" id="boundary" inkscape:connector-curvature="0" />
	<path style="fill:none;stroke:red;stroke-width:1px;stroke-linecap:butt;stroke-linejoin:miter;stroke-opacity:1" d="M 955.284,87.2836 938.627,96.5373 z" id="boundary" inkscape:connector-curvature="0" />
	<path style="fill:none;stroke:red;stroke-width:1px;stroke-linecap:butt;stroke-linejoin:miter;stroke-opacity:1" d="M 938.627,96.5373 920.119,96.5373 z" id="boundary" inkscape:connector-curvature="0" />
	<path style="fill:none;stroke:red;stroke-width:1px;stroke-linecap:butt;stroke-linejoin:miter;stroke-opacity:1" d="M 920.119,96.5373 903.463,105.791 z" id="boundary" inkscape:connector-curvature="0" />
	<path style="fill:none;stroke:red;stroke-width:1px;stroke-linecap:butt;stroke-linejoin:miter;stroke-opacity:1" d="M 903.463,105.791 884.955,105.791 z" id="boundary" inkscape:connector-curvature="0" />
	<path style="fill:none;stroke:red;stroke-width:1px;stroke-linecap:butt;stroke-linejoin:miter;stroke-opacity:1" d="M 884.955,105.791 866.448,109.493 z" id="boundary" inkscape:connector-curvature="0" />
	<path style="fill:none;stroke:red;stroke-width:1px;stroke-linecap:butt;stroke-linejoin:miter;stroke-opacity:1" d="M 866.448,109.493 847.94,115.045 z" id="boundary" inkscape:connector-curvature="0" />
	<path style="fill:none;stroke:red;stroke-width:1px;stroke-linecap:butt;stroke-linejoin:miter;stroke-opacity:1" d="M 847.94,115.045 829.433,115.045 z" id="boundary" inkscape:connector-curvature="0" />
	<path style="fill:none;stroke:red;stroke-width:1px;stroke-linecap:butt;stroke-linejoin:miter;stroke-opacity:1" d="M 829.433,115.045 810.925,115.045 z" id="boundary" inkscape:connector-curvature="0" />
	<path style="fill:none;stroke:red;stroke-width:1px;stroke-linecap:butt;stroke-linejoin:miter;stroke-opacity:1" d="M 810.925,115.045 792.418,115.045 z" id="boundary" inkscape:connector-curvature="0" />
	<path style="fill:none;stroke:red;stroke-width:1px;stroke-linecap:butt;stroke-linejoin:miter;stroke-opacity:1" d="M 792.418,115.045 781.313,100.239 z" id="boundary" inkscape:connector-curvature="0" />
	<path style="fill:none;stroke:red;stroke-width:1px;stroke-linecap:butt;stroke-linejoin:miter;stroke-opacity:1" d="M 781.313,100.239 766.507,87.2836 z" id="boundary" inkscape:connector-curvature="0" />
	<path style="fill:none;stroke:red;stroke-width:1px;stroke-linecap:butt;stroke-linejoin:miter;stroke-opacity:1" d="M 766.507,87.2836 749.851,78.0299 z" id="boundary" inkscape:connector-curvature="0" />
	<path style="fill:none;stroke:red;stroke-width:1px;stroke-linecap:butt;stroke-linejoin:miter;stroke-opacity:1" d="M 749.851,78.0299 733.194,68.7761 z" id="boundary" inkscape:connector-curvature="0" />
	<path style="fill:none;stroke:red;stroke-width:1px;stroke-linecap:butt;stroke-linejoin:miter;stroke-opacity:1" d="M 733.194,68.7761 718.388,57.6716 z" id="boundary" inkscape:connector-curvature="0" />
	<path style="fill:none;stroke:red;stroke-width:1px;stroke-linecap:butt;stroke-linejoin:miter;stroke-opacity:1" d="M 718.388,57.6716 709.134,41.0149 z" id="boundary" inkscape:connector-curvature="0" />
	<path style="fill:none;stroke:red;stroke-width:1px;stroke-linecap:butt;stroke-linejoin:miter;stroke-opacity:1" d="M 709.134,41.0149 692.478,31.7612 z" id="boundary" inkscape:connector-curvature="0" />
	<path style="fill:none;stroke:red;stroke-width:1px;stroke-linecap:butt;stroke-linejoin:miter;stroke-opacity:1" d="M 692.478,31.7612 673.97,31.7612 z" id="boundary" inkscape:connector-curvature="0" />
	<path style="fill:none;stroke:red;stroke-width:1px;stroke-linecap:butt;stroke-linejoin:miter;stroke-opacity:1" d="M 673.97,31.7612 655.463,31.7612 z" id="boundary" inkscape:connector-curvature="0" />
	<path style="fill:none;stroke:red;stroke-width:1px;stroke-linecap:butt;stroke-linejoin:miter;stroke-opacity:1" d="M 655.463,31.7612 638.806,41.0149 z" id="boundary" inkscape:connector-curvature="0" />
	<path style="fill:none;stroke:red;stroke-width:1px;stroke-linecap:butt;stroke-linejoin:miter;stroke-opacity:1" d="M 638.806,41.0149 622.149,50.2687 z" id="boundary" inkscape:connector-curvature="0" />
	<path style="fill:none;stroke:red;stroke-width:1px;stroke-linecap:butt;stroke-linejoin:miter;stroke-opacity:1" d="M 622.149,50.2687 603.642,50.2687 z" id="boundary" inkscape:connector-curvature="0" />
	<path style="fill:none;stroke:red;stroke-width:1px;stroke-linecap:butt;stroke-linejoin:miter;stroke-opacity:1" d="M 603.642,50.2687 585.134,50.2687 z" id="boundary" inkscape:connector-curvature="0" />
	<path style="fill:none;stroke:red;stroke-width:1px;stroke-linecap:butt;stroke-linejoin:miter;stroke-opacity:1" d="M 585.134,50.2687 568.478,59.5224 z" id="boundary" inkscape:connector-curvature="0" />
	<path style="fill:none;stroke:red;stroke-width:1px;stroke-linecap:butt;stroke-linejoin:miter;stroke-opacity:1" d="M 568.478,59.5224 549.97,59.5224 z" id="boundary" inkscape:connector-curvature="0" />
	<path style="fill:none;stroke:red;stroke-width:1px;stroke-linecap:butt;stroke-linejoin:miter;stroke-opacity:1" d="M 549.97,59.5224 533.313,68.7761 z" id="boundary" inkscape:connector-curvature="0" />
	<path style="fill:none;stroke:red;stroke-width:1px;stroke-linecap:butt;stroke-linejoin:miter;stroke-opacity:1" d="M 533.313,68.7761 514.806,68.7761 z" id="boundary" inkscape:connector-curvature="0" />
	<path style="fill:none;stroke:red;stroke-width:1px;stroke-linecap:butt;stroke-linejoin:miter;stroke-opacity:1" d="M 514.806,68.7761 496.299,68.7761 z" id="boundary" inkscape:connector-curvature="0" />
	<path style="fill:none;stroke:red;stroke-width:1px;stroke-linecap:butt;stroke-linejoin:miter;stroke-opacity:1" d="M 496.299,68.7761 477.791,72.4776 z" id="boundary" inkscape:connector-curvature="0" />
	<path style="fill:none;stroke:red;stroke-width:1px;stroke-linecap:butt;stroke-linejoin:miter;stroke-opacity:1" d="M 477.791,72.4776 459.284,78.0299 z" id="boundary" inkscape:connector-curvature="0" />
	<path style="fill:none;stroke:red;stroke-width:1px;stroke-linecap:butt;stroke-linejoin:miter;stroke-opacity:1" d="M 459.284,78.0299 440.776,78.0299 z" id="boundary" inkscape:connector-curvature="0" />
	<path style="fill:none;stroke:red;stroke-width:1px;stroke-linecap:butt;stroke-linejoin:miter;stroke-opacity:1" d="M 440.776,78.0299 424.119,87.2836 z" id="boundary" inkscape:connector-curvature="0" />
	<path style="fill:none;stroke:red;stroke-width:1px;stroke-linecap:butt;stroke-linejoin:miter;stroke-opacity:1" d="M 424.119,87.2836 405.612,87.2836 z" id="boundary" inkscape:connector-curvature="0" />
	<path style="fill:none;stroke:red;stroke-width:1px;stroke-linecap:butt;stroke-linejoin:miter;stroke-opacity:1" d="M 405.612,87.2836 387.104,87.2836 z" id="boundary" inkscape:connector-curvature="0" />
	<path style="fill:none;stroke:red;stroke-width:1px;stroke-linecap:butt;stroke-linejoin:miter;stroke-opacity:1" d="M 387.104,87.2836 368.597,87.2836 z" id="boundary" inkscape:connector-curvature="0" />
	<path style="fill:none;stroke:red;stroke-width:1px;stroke-linecap:butt;stroke-linejoin:miter;stroke-opacity:1" d="M 368.597,87.2836 351.94,78.0299 z" id="boundary" inkscape:connector-curvature="0" />
	<path style="fill:none;stroke:red;stroke-width:1px;stroke-linecap:butt;stroke-linejoin:miter;stroke-opacity:1" d="M 351.94,78.0299 335.284,68.7761 z" id="boundary" inkscape:connector-curvature="0" />
	<path style="fill:none;stroke:red;stroke-width:1px;stroke-linecap:butt;stroke-linejoin:miter;stroke-opacity:1" d="M 335.284,68.7761 318.627,59.5224 z" id="boundary" inkscape:connector-curvature="0" />
	<path style="fill:none;stroke:red;stroke-width:1px;stroke-linecap:butt;stroke-linejoin:miter;stroke-opacity:1" d="M 318.627,59.5224 300.119,55.8209 z" id="boundary" inkscape:connector-curvature="0" />
	<path style="fill:none;stroke:red;stroke-width:1px;stroke-linecap:butt;stroke-linejoin:miter;stroke-opacity:1" d="M 300.119,55.8209 287.164,41.0149 z" id="boundary" inkscape:connector-curvature="0" />
	<path style="fill:none;stroke:red;stroke-width:1px;stroke-linecap:butt;stroke-linejoin:miter;stroke-opacity:1" d="M 287.164,41.0149 270.507,31.7612 z" id="boundary" inkscape:connector-curvature="0" />
	<path style="fill:none;stroke:red;stroke-width:1px;stroke-linecap:butt;stroke-linejoin:miter;stroke-opacity:1" d="M 270.507,31.7612 255.701,20.6567 z" id="boundary" inkscape:connector-curvature="0" />
	<path style="fill:none;stroke:red;stroke-width:1px;stroke-linecap:butt;stroke-linejoin:miter;stroke-opacity:1" d="M 255.701,20.6567 242.746,5.85075 z" id="boundary" inkscape:connector-curvature="0" />
	<path style="fill:none;stroke:red;stroke-width:1px;stroke-linecap:butt;stroke-linejoin:miter;stroke-opacity:1" d="M 242.746,5.85075 224.239,4 z" id="boundary" inkscape:connector-curvature="0" />
	<path style="fill:none;stroke:red;stroke-width:1px;stroke-linecap:butt;stroke-linejoin:miter;stroke-opacity:1" d="M 224.239,4 205.731,4 z" id="boundary" inkscape:connector-curvature="0" />
	<path style="fill:none;stroke:red;stroke-width:1px;stroke-linecap:butt;stroke-linejoin:miter;stroke-opacity:1" d="M 205.731,4 187.224,4 z" id="boundary" inkscape:connector-curvature="0" />
	<path style="fill:none;stroke:red;stroke-width:1px;stroke-linecap:butt;stroke-linejoin:miter;stroke-opacity:1" d="M 187.224,4 168.716,4 z" id="boundary" inkscape:connector-curvature="0" />
	<path style="fill:none;stroke:red;stroke-width:1px;stroke-linecap:butt;stroke-linejoin:miter;stroke-opacity:1" d="M 168.716,4 150.209,4 z" id="boundary" inkscape:connector-curvature="0" />
	<path style="fill:none;stroke:red;stroke-width:1px;stroke-linecap:butt;stroke-linejoin:miter;stroke-opacity:1" d="M 150.209,4 133.552,13.2537 z" id="boundary" inkscape:connector-curvature="0" />
	<path style="fill:none;stroke:red;stroke-width:1px;stroke-linecap:butt;stroke-linejoin:miter;stroke-opacity:1" d="M 133.552,13.2537 115.045,13.2537 z" id="boundary" inkscape:connector-curvature="0" />
	<path style="fill:none;stroke:red;stroke-width:1px;stroke-linecap:butt;stroke-linejoin:miter;stroke-opacity:1" d="M 115.045,13.2537 96.5373,18.806 z" id="boundary" inkscape:connector-curvature="0" />
	<path style="fill:none;stroke:red;stroke-width:1px;stroke-linecap:butt;stroke-linejoin:miter;stroke-opacity:1" d="M 96.5373,18.806 96.5373,37.3134 z" id="boundary" inkscape:connector-curvature="0" />
	<path style="fill:none;stroke:red;stroke-width:1px;stroke-linecap:butt;stroke-linejoin:miter;stroke-opacity:1" d="M 96.5373,37.3134 96.5373,55.8209 z" id="boundary" inkscape:connector-curvature="0" />
	<path style="fill:none;stroke:red;stroke-width:1px;stroke-linecap:butt;stroke-linejoin:miter;stroke-opacity:1" d="M 96.5373,55.8209 105.791,72.4776 z" id="boundary" inkscape:connector-curvature="0" />
	<path style="fill:none;stroke:red;stroke-width:1px;stroke-linecap:butt;stroke-linejoin:miter;stroke-opacity:1" d="M 105.791,72.4776 105.791,90.9851 z" id="boundary" inkscape:connector-curvature="0" />
	<path style="fill:none;stroke:red;stroke-width:1px;stroke-linecap:butt;stroke-linejoin:miter;stroke-opacity:1" d="M 105.791,90.9851 105.791,109.493 z" id="boundary" inkscape:connector-curvature="0" />
	<path style="fill:none;stroke:red;stroke-width:1px;stroke-linecap:butt;stroke-linejoin:miter;stroke-opacity:1" d="M 105.791,109.493 115.045,126.149 z" id="boundary" inkscape:connector-curvature="0" />
	<path style="fill:none;stroke:red;stroke-width:1px;stroke-linecap:butt;stroke-linejoin:miter;stroke-opacity:1" d="M 115.045,126.149 115.045,144.657 z" id="boundary" inkscape:connector-curvature="0" />
	<path style="fill:none;stroke:red;stroke-width:1px;stroke-linecap:butt;stroke-linejoin:miter;stroke-opacity:1" d="M 48.4179,244.597 59.5224,222.388 z" id="boundary" inkscape:connector-curvature="0" />
	<path style="fill:none;stroke:red;stroke-width:1px;stroke-linecap:butt;stroke-linejoin:miter;stroke-opacity:1" d="M 59.5224,222.388 68.7761,203.881 z" id="boundary" inkscape:connector-curvature="0" />
	<path style="fill:none;stroke:red;stroke-width:1px;stroke-linecap:butt;stroke-linejoin:miter;stroke-opacity:1" d="M 68.7761,203.881 83.5821,189.075 z" id="boundary" inkscape:connector-curvature="0" />
	<path style="fill:none;stroke:red;stroke-width:1px;stroke-linecap:butt;stroke-linejoin:miter;stroke-opacity:1" d="M 83.5821,189.075 96.5373,166.866 z" id="boundary" inkscape:connector-curvature="0" />
	<path style="fill:none;stroke:red;stroke-width:1px;stroke-linecap:butt;stroke-linejoin:miter;stroke-opacity:1" d="M 115.045,144.657 96.5373,166.866 z" id="boundary" inkscape:connector-curvature="0" />
	<circle cx="4" cy="287.164" r="4" fill="#0" id="circle0"/>
	<circle cx="13.2537" cy="303.821" r="4" fill="#0" id="circle1"/>
	<circle cx="13.2537" cy="322.328" r="4" fill="#0" id="circle2"/>
	<circle cx="18.806" cy="272.358" r="4" fill="#0" id="circle3"/>
	<circle cx="22.5075" cy="338.985" r="4" fill="#0" id="circle4"/>
	<circle cx="22.5075" cy="357.493" r="4" fill="#0" id="circle5"/>
	<circle cx="28.0597" cy="376" r="4" fill="#0" id="circle6"/>
	<circle cx="33.6119" cy="257.552" r="4" fill="#0" id="circle7"/>
	<circle cx="44.7164" cy="385.254" r="4" fill="#0" id="circle8"/>
	<circle cx="48.4179" cy="244.597" r="4" fill="#0" id="circle9"/>
	<circle cx="59.5224" cy="222.388" r="4" fill="#0" id="circle10"/>
	<circle cx="61.3731" cy="376" r="4" fill="#0" id="circle11"/>
	<circle cx="68.7761" cy="203.881" r="4" fill="#0" id="circle12"/>
	<circle cx="79.8806" cy="376" r="4" fill="#0" id="circle13"/>
	<circle cx="83.5821" cy="189.075" r="4" fill="#0" id="circle14"/>
	<circle cx="96.5373" cy="18.806" r="4" fill="#0" id="circle15"/>
	<circle cx="96.5373" cy="37.3134" r="4" fill="#0" id="circle16"/>
	<circle cx="96.5373" cy="55.8209" r="4" fill="#0" id="circle17"/>
	<circle cx="96.5373" cy="166.866" r="4" fill="#0" id="circle18"/>
	<circle cx="98.3881" cy="376" r="4" fill="#0" id="circle19"/>
	<circle cx="105.791" cy="72.4776" r="4" fill="#0" id="circle20"/>
	<circle cx="105.791" cy="90.9851" r="4" fill="#0" id="circle21"/>
	<circle cx="105.791" cy="109.493" r="4" fill="#0" id="circle22"/>
	<circle cx="115.045" cy="13.2537" r="4" fill="#0" id="circle23"/>
	<circle cx="115.045" cy="126.149" r="4" fill="#0" id="circle24"/>
	<circle cx="115.045" cy="144.657" r="4" fill="#0" id="circle25"/>
	<circle cx="116.896" cy="376" r="4" fill="#0" id="circle26"/>
	<circle cx="133.552" cy="13.2537" r="4" fill="#0" id="circle27"/>
	<circle cx="135.403" cy="376" r="4" fill="#0" id="circle28"/>
	<circle cx="150.209" cy="4" r="4" fill="#0" id="circle29"/>
	<circle cx="153.91" cy="376" r="4" fill="#0" id="circle30"/>
	<circle cx="168.716" cy="4" r="4" fill="#0" id="circle31"/>
	<circle cx="172.418" cy="366.746" r="4" fill="#0" id="circle32"/>
	<circle cx="187.224" cy="4" r="4" fill="#0" id="circle33"/>
	<circle cx="190.925" cy="366.746" r="4" fill="#0" id="circle34"/>
	<circle cx="205.731" cy="4" r="4" fill="#0" id="circle35"/>
	<circle cx="209.433" cy="366.746" r="4" fill="#0" id="circle36"/>
	<circle cx="224.239" cy="4" r="4" fill="#0" id="circle37"/>
	<circle cx="227.94" cy="366.746" r="4" fill="#0" id="circle38"/>
	<circle cx="242.746" cy="5.85075" r="4" fill="#0" id="circle39"/>
	<circle cx="246.448" cy="370.448" r="4" fill="#0" id="circle40"/>
	<circle cx="255.701" cy="20.6567" r="4" fill="#0" id="circle41"/>
	<circle cx="263.104" cy="379.701" r="4" fill="#0" id="circle42"/>
	<circle cx="270.507" cy="31.7612" r="4" fill="#0" id="circle43"/>
	<circle cx="281.612" cy="385.254" r="4" fill="#0" id="circle44"/>
	<circle cx="287.164" cy="41.0149" r="4" fill="#0" id="circle45"/>
	<circle cx="298.269" cy="394.507" r="4" fill="#0" id="circle46"/>
	<circle cx="300.119" cy="55.8209" r="4" fill="#0" id="circle47"/>
	<circle cx="314.925" cy="403.761" r="4" fill="#0" id="circle48"/>
	<circle cx="318.627" cy="59.5224" r="4" fill="#0" id="circle49"/>
	<circle cx="331.582" cy="413.015" r="4" fill="#0" id="circle50"/>
	<circle cx="335.284" cy="68.7761" r="4" fill="#0" id="circle51"/>
	<circle cx="348.239" cy="422.269" r="4" fill="#0" id="circle52"/>
	<circle cx="351.94" cy="78.0299" r="4" fill="#0" id="circle53"/>
	<circle cx="366.746" cy="425.97" r="4" fill="#0" id="circle54"/>
	<circle cx="368.597" cy="87.2836" r="4" fill="#0" id="circle55"/>
	<circle cx="385.254" cy="431.522" r="4" fill="#0" id="circle56"/>
	<circle cx="387.104" cy="87.2836" r="4" fill="#0" id="circle57"/>
	<circle cx="403.761" cy="431.522" r="4" fill="#0" id="circle58"/>
	<circle cx="405.612" cy="87.2836" r="4" fill="#0" id="circle59"/>
	<circle cx="422.269" cy="431.522" r="4" fill="#0" id="circle60"/>
	<circle cx="424.119" cy="87.2836" r="4" fill="#0" id="circle61"/>
	<circle cx="438.925" cy="422.269" r="4" fill="#0" id="circle62"/>
	<circle cx="440.776" cy="78.0299" r="4" fill="#0" id="circle63"/>
	<circle cx="455.582" cy="413.015" r="4" fill="#0" id="circle64"/>
	<circle cx="459.284" cy="78.0299" r="4" fill="#0" id="circle65"/>
	<circle cx="474.09" cy="413.015" r="4" fill="#0" id="circle66"/>
	<circle cx="477.791" cy="72.4776" r="4" fill="#0" id="circle67"/>
	<circle cx="492.597" cy="413.015" r="4" fill="#0" id="circle68"/>
	<circle cx="496.299" cy="68.7761" r="4" fill="#0" id="circle69"/>
	<circle cx="511.104" cy="413.015" r="4" fill="#0" id="circle70"/>
	<circle cx="514.806" cy="68.7761" r="4" fill="#0" id="circle71"/>
	<circle cx="529.612" cy="413.015" r="4" fill="#0" id="circle72"/>
	<circle cx="533.313" cy="68.7761" r="4" fill="#0" id="circle73"/>
	<circle cx="548.119" cy="413.015" r="4" fill="#0" id="circle74"/>
	<circle cx="549.97" cy="59.5224" r="4" fill="#0" id="circle75"/>
	<circle cx="566.627" cy="413.015" r="4" fill="#0" id="circle76"/>
	<circle cx="568.478" cy="59.5224" r="4" fill="#0" id="circle77"/>
	<circle cx="585.134" cy="50.2687" r="4" fill="#0" id="circle78"/>
	<circle cx="585.134" cy="413.015" r="4" fill="#0" id="circle79"/>
	<circle cx="603.642" cy="50.2687" r="4" fill="#0" id="circle80"/>
	<circle cx="603.642" cy="413.015" r="4" fill="#0" id="circle81"/>
	<circle cx="622.149" cy="50.2687" r="4" fill="#0" id="circle82"/>
	<circle cx="622.149" cy="409.313" r="4" fill="#0" id="circle83"/>
	<circle cx="638.806" cy="41.0149" r="4" fill="#0" id="circle84"/>
	<circle cx="640.657" cy="403.761" r="4" fill="#0" id="circle85"/>
	<circle cx="655.463" cy="31.7612" r="4" fill="#0" id="circle86"/>
	<circle cx="659.164" cy="403.761" r="4" fill="#0" id="circle87"/>
	<circle cx="673.97" cy="31.7612" r="4" fill="#0" id="circle88"/>
	<circle cx="677.672" cy="403.761" r="4" fill="#0" id="circle89"/>
	<circle cx="692.478" cy="31.7612" r="4" fill="#0" id="circle90"/>
	<circle cx="696.179" cy="403.761" r="4" fill="#0" id="circle91"/>
	<circle cx="709.134" cy="41.0149" r="4" fill="#0" id="circle92"/>
	<circle cx="709.134" cy="418.567" r="4" fill="#0" id="circle93"/>
	<circle cx="718.388" cy="57.6716" r="4" fill="#0" id="circle94"/>
	<circle cx="723.94" cy="431.522" r="4" fill="#0" id="circle95"/>
	<circle cx="733.194" cy="68.7761" r="4" fill="#0" id="circle96"/>
	<circle cx="740.597" cy="440.776" r="4" fill="#0" id="circle97"/>
	<circle cx="749.851" cy="78.0299" r="4" fill="#0" id="circle98"/>
	<circle cx="759.104" cy="448.179" r="4" fill="#0" id="circle99"/>
	<circle cx="766.507" cy="87.2836" r="4" fill="#0" id="circle100"/>
	<circle cx="777.612" cy="450.03" r="4" fill="#0" id="circle101"/>
	<circle cx="781.313" cy="100.239" r="4" fill="#0" id="circle102"/>
	<circle cx="792.418" cy="115.045" r="4" fill="#0" id="circle103"/>
	<circle cx="796.119" cy="450.03" r="4" fill="#0" id="circle104"/>
	<circle cx="810.925" cy="115.045" r="4" fill="#0" id="circle105"/>
	<circle cx="814.627" cy="448.179" r="4" fill="#0" id="circle106"/>
	<circle cx="829.433" cy="115.045" r="4" fill="#0" id="circle107"/>
	<circle cx="833.134" cy="440.776" r="4" fill="#0" id="circle108"/>
	<circle cx="847.94" cy="115.045" r="4" fill="#0" id="circle109"/>
	<circle cx="851.642" cy="440.776" r="4" fill="#0" id="circle110"/>
	<circle cx="866.448" cy="109.493" r="4" fill="#0" id="circle111"/>
	<circle cx="868.299" cy="431.522" r="4" fill="#0" id="circle112"/>
	<circle cx="884.955" cy="105.791" r="4" fill="#0" id="circle113"/>
	<circle cx="884.955" cy="422.269" r="4" fill="#0" id="circle114"/>
	<circle cx="903.463" cy="105.791" r="4" fill="#0" id="circle115"/>
	<circle cx="903.463" cy="422.269" r="4" fill="#0" id="circle116"/>
	<circle cx="912.716" cy="329.731" r="4" fill="#0" id="circle117"/>
	<circle cx="912.716" cy="348.239" r="4" fill="#0" id="circle118"/>
	<circle cx="920.119" cy="96.5373" r="4" fill="#0" id="circle119"/>
	<circle cx="921.97" cy="364.896" r="4" fill="#0" id="circle120"/>
	<circle cx="921.97" cy="422.269" r="4" fill="#0" id="circle121"/>
	<circle cx="927.522" cy="316.776" r="4" fill="#0" id="circle122"/>
	<circle cx="931.224" cy="381.552" r="4" fill="#0" id="circle123"/>
	<circle cx="931.224" cy="400.06" r="4" fill="#0" id="circle124"/>
	<circle cx="936.776" cy="298.269" r="4" fill="#0" id="circle125"/>
	<circle cx="938.627" cy="96.5373" r="4" fill="#0" id="circle126"/>
	<circle cx="949.731" cy="283.463" r="4" fill="#0" id="circle127"/>
	<circle cx="955.284" cy="87.2836" r="4" fill="#0" id="circle128"/>
	<circle cx="958.985" cy="264.955" r="4" fill="#0" id="circle129"/>
	<circle cx="968.239" cy="102.09" r="4" fill="#0" id="circle130"/>
	<circle cx="968.239" cy="246.448" r="4" fill="#0" id="circle131"/>
	<circle cx="977.493" cy="118.746" r="4" fill="#0" id="circle132"/>
	<circle cx="977.493" cy="227.94" r="4" fill="#0" id="circle133"/>
	<circle cx="986.746" cy="135.403" r="4" fill="#0" id="circle134"/>
	<circle cx="986.746" cy="153.91" r="4" fill="#0" id="circle135"/>
	<circle cx="986.746" cy="209.433" r="4" fill="#0" id="circle136"/>
	<circle cx="990.448" cy="172.418" r="4" fill="#0" id="circle137"/>
	<circle cx="996" cy="190.925" r="4" fill="#0" id="circle138"/>
	</g>
</svg>