<?xml version="1.0" encoding="UTF-8" standalone="no"?>
<!-- Created with CurveBenchmark -->
<svg
	xmlns:dc="http://purl.org/dc/elements/1.1/"
	xmlns:cc="http://creativecommons.org/ns#"
	xmlns:rdf="http://www.w3.org/1999/02/22-rdf-syntax-ns#"
	xmlns:svg="http://www.w3.org/2000/svg"
	xmlns="http://www.w3.org/2000/svg"
	xmlns:sodipodi="http://sodipodi.sourceforge.net/DTD/sodipodi-0.dtd"
	xmlns:inkscape="http://www.inkscape.org/namespaces/inkscape"
	width="1000"
	height="1000"
	id="svg2"
	version="1.1"
	sodipodi:docname="manifold/crawl-guitar205.png.txt">
<defs
	id="defs4" />
<metadata
	id="metadata7">
	<rdf:RDF>
		<cc:Work
			rdf:about="">
			<dc:format>image/svg+xml</dc:format>
			<dc:type
				rdf:resource="http://purl.org/dc/dcmitype/StillImage" />
			<dc:title></dc:title>
		</cc:Work>
	</rdf:RDF>
</metadata>
<g
	inkscape:label="Layer 1"
	inkscape:groupmode="layer"
	id="layer1">
	<path style="fill:none;stroke:red;stroke-width:1px;stroke-linecap:butt;stroke-linejoin:miter;stroke-opacity:1" d="M 4,823.018 4,858.32 z" id="boundary" inkscape:connector-curvature="0" />
	<path style="fill:none;stroke:red;stroke-width:1px;stroke-linecap:butt;stroke-linejoin:miter;stroke-opacity:1" d="M 4,823.018 11.0605,787.715 z" id="boundary" inkscape:connector-curvature="0" />
	<path style="fill:none;stroke:red;stroke-width:1px;stroke-linecap:butt;stroke-linejoin:miter;stroke-opacity:1" d="M 11.0605,787.715 28.7117,755.943 z" id="boundary" inkscape:connector-curvature="0" />
	<path style="fill:none;stroke:red;stroke-width:1px;stroke-linecap:butt;stroke-linejoin:miter;stroke-opacity:1" d="M 4,858.32 14.5907,893.623 z" id="boundary" inkscape:connector-curvature="0" />
	<path style="fill:none;stroke:red;stroke-width:1px;stroke-linecap:butt;stroke-linejoin:miter;stroke-opacity:1" d="M 14.5907,893.623 35.7722,921.865 z" id="boundary" inkscape:connector-curvature="0" />
	<path style="fill:none;stroke:red;stroke-width:1px;stroke-linecap:butt;stroke-linejoin:miter;stroke-opacity:1" d="M 35.7722,921.865 56.9537,950.107 z" id="boundary" inkscape:connector-curvature="0" />
	<path style="fill:none;stroke:red;stroke-width:1px;stroke-linecap:butt;stroke-linejoin:miter;stroke-opacity:1" d="M 56.9537,950.107 85.1957,971.288 z" id="boundary" inkscape:connector-curvature="0" />
	<path style="fill:none;stroke:red;stroke-width:1px;stroke-linecap:butt;stroke-linejoin:miter;stroke-opacity:1" d="M 85.1957,971.288 120.498,981.879 z" id="boundary" inkscape:connector-curvature="0" />
	<path style="fill:none;stroke:red;stroke-width:1px;stroke-linecap:butt;stroke-linejoin:miter;stroke-opacity:1" d="M 120.498,981.879 155.801,988.94 z" id="boundary" inkscape:connector-curvature="0" />
	<path style="fill:none;stroke:red;stroke-width:1px;stroke-linecap:butt;stroke-linejoin:miter;stroke-opacity:1" d="M 155.801,988.94 191.103,996 z" id="boundary" inkscape:connector-curvature="0" />
	<path style="fill:none;stroke:red;stroke-width:1px;stroke-linecap:butt;stroke-linejoin:miter;stroke-opacity:1" d="M 191.103,996 226.406,988.94 z" id="boundary" inkscape:connector-curvature="0" />
	<path style="fill:none;stroke:red;stroke-width:1px;stroke-linecap:butt;stroke-linejoin:miter;stroke-opacity:1" d="M 226.406,988.94 261.708,988.94 z" id="boundary" inkscape:connector-curvature="0" />
	<path style="fill:none;stroke:red;stroke-width:1px;stroke-linecap:butt;stroke-linejoin:miter;stroke-opacity:1" d="M 261.708,988.94 297.011,981.879 z" id="boundary" inkscape:connector-curvature="0" />
	<path style="fill:none;stroke:red;stroke-width:1px;stroke-linecap:butt;stroke-linejoin:miter;stroke-opacity:1" d="M 297.011,981.879 328.783,960.698 z" id="boundary" inkscape:connector-curvature="0" />
	<path style="fill:none;stroke:red;stroke-width:1px;stroke-linecap:butt;stroke-linejoin:miter;stroke-opacity:1" d="M 328.783,960.698 357.025,939.516 z" id="boundary" inkscape:connector-curvature="0" />
	<path style="fill:none;stroke:red;stroke-width:1px;stroke-linecap:butt;stroke-linejoin:miter;stroke-opacity:1" d="M 357.025,939.516 381.737,907.744 z" id="boundary" inkscape:connector-curvature="0" />
	<path style="fill:none;stroke:red;stroke-width:1px;stroke-linecap:butt;stroke-linejoin:miter;stroke-opacity:1" d="M 28.7117,755.943 46.363,717.11 z" id="boundary" inkscape:connector-curvature="0" />
	<path style="fill:none;stroke:red;stroke-width:1px;stroke-linecap:butt;stroke-linejoin:miter;stroke-opacity:1" d="M 46.363,717.11 64.0142,685.338 z" id="boundary" inkscape:connector-curvature="0" />
	<path style="fill:none;stroke:red;stroke-width:1px;stroke-linecap:butt;stroke-linejoin:miter;stroke-opacity:1" d="M 381.737,907.744 395.858,858.32 z" id="boundary" inkscape:connector-curvature="0" />
	<path style="fill:none;stroke:red;stroke-width:1px;stroke-linecap:butt;stroke-linejoin:miter;stroke-opacity:1" d="M 395.858,858.32 395.858,819.488 z" id="boundary" inkscape:connector-curvature="0" />
	<path style="fill:none;stroke:red;stroke-width:1px;stroke-linecap:butt;stroke-linejoin:miter;stroke-opacity:1" d="M 395.858,819.488 392.327,784.185 z" id="boundary" inkscape:connector-curvature="0" />
	<path style="fill:none;stroke:red;stroke-width:1px;stroke-linecap:butt;stroke-linejoin:miter;stroke-opacity:1" d="M 392.327,784.185 374.676,752.413 z" id="boundary" inkscape:connector-curvature="0" />
	<path style="fill:none;stroke:red;stroke-width:1px;stroke-linecap:butt;stroke-linejoin:miter;stroke-opacity:1" d="M 374.676,752.413 357.025,720.641 z" id="boundary" inkscape:connector-curvature="0" />
	<path style="fill:none;stroke:red;stroke-width:1px;stroke-linecap:butt;stroke-linejoin:miter;stroke-opacity:1" d="M 357.025,720.641 339.374,688.868 z" id="boundary" inkscape:connector-curvature="0" />
	<path style="fill:none;stroke:red;stroke-width:1px;stroke-linecap:butt;stroke-linejoin:miter;stroke-opacity:1" d="M 339.374,688.868 332.313,653.566 z" id="boundary" inkscape:connector-curvature="0" />
	<path style="fill:none;stroke:red;stroke-width:1px;stroke-linecap:butt;stroke-linejoin:miter;stroke-opacity:1" d="M 332.313,653.566 346.434,611.203 z" id="boundary" inkscape:connector-curvature="0" />
	<path style="fill:none;stroke:red;stroke-width:1px;stroke-linecap:butt;stroke-linejoin:miter;stroke-opacity:1" d="M 346.434,611.203 357.025,575.9 z" id="boundary" inkscape:connector-curvature="0" />
	<path style="fill:none;stroke:red;stroke-width:1px;stroke-linecap:butt;stroke-linejoin:miter;stroke-opacity:1" d="M 357.025,575.9 342.904,540.598 z" id="boundary" inkscape:connector-curvature="0" />
	<path style="fill:none;stroke:red;stroke-width:1px;stroke-linecap:butt;stroke-linejoin:miter;stroke-opacity:1" d="M 342.904,540.598 321.722,512.356 z" id="boundary" inkscape:connector-curvature="0" />
	<path style="fill:none;stroke:red;stroke-width:1px;stroke-linecap:butt;stroke-linejoin:miter;stroke-opacity:1" d="M 321.722,512.356 286.42,501.765 z" id="boundary" inkscape:connector-curvature="0" />
	<path style="fill:none;stroke:red;stroke-width:1px;stroke-linecap:butt;stroke-linejoin:miter;stroke-opacity:1" d="M 286.42,501.765 251.117,498.235 z" id="boundary" inkscape:connector-curvature="0" />
	<path style="fill:none;stroke:red;stroke-width:1px;stroke-linecap:butt;stroke-linejoin:miter;stroke-opacity:1" d="M 251.117,498.235 222.875,477.053 z" id="boundary" inkscape:connector-curvature="0" />
	<path style="fill:none;stroke:red;stroke-width:1px;stroke-linecap:butt;stroke-linejoin:miter;stroke-opacity:1" d="M 222.875,477.053 212.285,441.751 z" id="boundary" inkscape:connector-curvature="0" />
	<path style="fill:none;stroke:red;stroke-width:1px;stroke-linecap:butt;stroke-linejoin:miter;stroke-opacity:1" d="M 212.285,441.751 212.285,406.448 z" id="boundary" inkscape:connector-curvature="0" />
	<path style="fill:none;stroke:red;stroke-width:1px;stroke-linecap:butt;stroke-linejoin:miter;stroke-opacity:1" d="M 212.285,406.448 212.285,371.146 z" id="boundary" inkscape:connector-curvature="0" />
	<path style="fill:none;stroke:red;stroke-width:1px;stroke-linecap:butt;stroke-linejoin:miter;stroke-opacity:1" d="M 212.285,371.146 208.754,335.843 z" id="boundary" inkscape:connector-curvature="0" />
	<path style="fill:none;stroke:red;stroke-width:1px;stroke-linecap:butt;stroke-linejoin:miter;stroke-opacity:1" d="M 208.754,335.843 205.224,300.541 z" id="boundary" inkscape:connector-curvature="0" />
	<path style="fill:none;stroke:red;stroke-width:1px;stroke-linecap:butt;stroke-linejoin:miter;stroke-opacity:1" d="M 205.224,300.541 205.224,265.238 z" id="boundary" inkscape:connector-curvature="0" />
	<path style="fill:none;stroke:red;stroke-width:1px;stroke-linecap:butt;stroke-linejoin:miter;stroke-opacity:1" d="M 205.224,265.238 205.224,229.936 z" id="boundary" inkscape:connector-curvature="0" />
	<path style="fill:none;stroke:red;stroke-width:1px;stroke-linecap:butt;stroke-linejoin:miter;stroke-opacity:1" d="M 205.224,229.936 205.224,194.633 z" id="boundary" inkscape:connector-curvature="0" />
	<path style="fill:none;stroke:red;stroke-width:1px;stroke-linecap:butt;stroke-linejoin:miter;stroke-opacity:1" d="M 205.224,194.633 205.224,159.331 z" id="boundary" inkscape:connector-curvature="0" />
	<path style="fill:none;stroke:red;stroke-width:1px;stroke-linecap:butt;stroke-linejoin:miter;stroke-opacity:1" d="M 205.224,159.331 205.224,124.028 z" id="boundary" inkscape:connector-curvature="0" />
	<path style="fill:none;stroke:red;stroke-width:1px;stroke-linecap:butt;stroke-linejoin:miter;stroke-opacity:1" d="M 205.224,124.028 159.331,131.089 z" id="boundary" inkscape:connector-curvature="0" />
	<path style="fill:none;stroke:red;stroke-width:1px;stroke-linecap:butt;stroke-linejoin:miter;stroke-opacity:1" d="M 159.331,131.089 145.21,95.7865 z" id="boundary" inkscape:connector-curvature="0" />
	<path style="fill:none;stroke:red;stroke-width:1px;stroke-linecap:butt;stroke-linejoin:miter;stroke-opacity:1" d="M 145.21,95.7865 145.21,60.484 z" id="boundary" inkscape:connector-curvature="0" />
	<path style="fill:none;stroke:red;stroke-width:1px;stroke-linecap:butt;stroke-linejoin:miter;stroke-opacity:1" d="M 145.21,60.484 152.27,25.1815 z" id="boundary" inkscape:connector-curvature="0" />
	<path style="fill:none;stroke:red;stroke-width:1px;stroke-linecap:butt;stroke-linejoin:miter;stroke-opacity:1" d="M 152.27,25.1815 180.512,4 z" id="boundary" inkscape:connector-curvature="0" />
	<path style="fill:none;stroke:red;stroke-width:1px;stroke-linecap:butt;stroke-linejoin:miter;stroke-opacity:1" d="M 180.512,4 215.815,4 z" id="boundary" inkscape:connector-curvature="0" />
	<path style="fill:none;stroke:red;stroke-width:1px;stroke-linecap:butt;stroke-linejoin:miter;stroke-opacity:1" d="M 215.815,4 219.345,39.3025 z" id="boundary" inkscape:connector-curvature="0" />
	<path style="fill:none;stroke:red;stroke-width:1px;stroke-linecap:butt;stroke-linejoin:miter;stroke-opacity:1" d="M 219.345,39.3025 219.345,74.605 z" id="boundary" inkscape:connector-curvature="0" />
	<path style="fill:none;stroke:red;stroke-width:1px;stroke-linecap:butt;stroke-linejoin:miter;stroke-opacity:1" d="M 64.0142,685.338 53.4235,618.263 z" id="boundary" inkscape:connector-curvature="0" />
	<path style="fill:none;stroke:red;stroke-width:1px;stroke-linecap:butt;stroke-linejoin:miter;stroke-opacity:1" d="M 53.4235,618.263 46.363,582.961 z" id="boundary" inkscape:connector-curvature="0" />
	<path style="fill:none;stroke:red;stroke-width:1px;stroke-linecap:butt;stroke-linejoin:miter;stroke-opacity:1" d="M 46.363,582.961 46.363,547.658 z" id="boundary" inkscape:connector-curvature="0" />
	<path style="fill:none;stroke:red;stroke-width:1px;stroke-linecap:butt;stroke-linejoin:miter;stroke-opacity:1" d="M 46.363,547.658 81.6655,540.598 z" id="boundary" inkscape:connector-curvature="0" />
	<path style="fill:none;stroke:red;stroke-width:1px;stroke-linecap:butt;stroke-linejoin:miter;stroke-opacity:1" d="M 81.6655,540.598 113.438,558.249 z" id="boundary" inkscape:connector-curvature="0" />
	<path style="fill:none;stroke:red;stroke-width:1px;stroke-linecap:butt;stroke-linejoin:miter;stroke-opacity:1" d="M 113.438,558.249 145.21,540.598 z" id="boundary" inkscape:connector-curvature="0" />
	<path style="fill:none;stroke:red;stroke-width:1px;stroke-linecap:butt;stroke-linejoin:miter;stroke-opacity:1" d="M 145.21,540.598 152.27,491.174 z" id="boundary" inkscape:connector-curvature="0" />
	<path style="fill:none;stroke:red;stroke-width:1px;stroke-linecap:butt;stroke-linejoin:miter;stroke-opacity:1" d="M 152.27,491.174 152.27,455.872 z" id="boundary" inkscape:connector-curvature="0" />
	<path style="fill:none;stroke:red;stroke-width:1px;stroke-linecap:butt;stroke-linejoin:miter;stroke-opacity:1" d="M 152.27,455.872 152.27,420.569 z" id="boundary" inkscape:connector-curvature="0" />
	<path style="fill:none;stroke:red;stroke-width:1px;stroke-linecap:butt;stroke-linejoin:miter;stroke-opacity:1" d="M 152.27,420.569 152.27,385.267 z" id="boundary" inkscape:connector-curvature="0" />
	<path style="fill:none;stroke:red;stroke-width:1px;stroke-linecap:butt;stroke-linejoin:miter;stroke-opacity:1" d="M 152.27,385.267 152.27,349.964 z" id="boundary" inkscape:connector-curvature="0" />
	<path style="fill:none;stroke:red;stroke-width:1px;stroke-linecap:butt;stroke-linejoin:miter;stroke-opacity:1" d="M 152.27,349.964 152.27,314.662 z" id="boundary" inkscape:connector-curvature="0" />
	<path style="fill:none;stroke:red;stroke-width:1px;stroke-linecap:butt;stroke-linejoin:miter;stroke-opacity:1" d="M 152.27,314.662 152.27,279.359 z" id="boundary" inkscape:connector-curvature="0" />
	<path style="fill:none;stroke:red;stroke-width:1px;stroke-linecap:butt;stroke-linejoin:miter;stroke-opacity:1" d="M 152.27,279.359 152.27,244.057 z" id="boundary" inkscape:connector-curvature="0" />
	<path style="fill:none;stroke:red;stroke-width:1px;stroke-linecap:butt;stroke-linejoin:miter;stroke-opacity:1" d="M 152.27,244.057 152.27,208.754 z" id="boundary" inkscape:connector-curvature="0" />
	<path style="fill:none;stroke:red;stroke-width:1px;stroke-linecap:butt;stroke-linejoin:miter;stroke-opacity:1" d="M 152.27,208.754 152.27,173.452 z" id="boundary" inkscape:connector-curvature="0" />
	<circle cx="4" cy="823.018" r="4" fill="#0" id="circle0"/>
	<circle cx="4" cy="858.32" r="4" fill="#0" id="circle1"/>
	<circle cx="11.0605" cy="787.715" r="4" fill="#0" id="circle2"/>
	<circle cx="14.5907" cy="893.623" r="4" fill="#0" id="circle3"/>
	<circle cx="28.7117" cy="755.943" r="4" fill="#0" id="circle4"/>
	<circle cx="35.7722" cy="921.865" r="4" fill="#0" id="circle5"/>
	<circle cx="46.363" cy="547.658" r="4" fill="#0" id="circle6"/>
	<circle cx="46.363" cy="582.961" r="4" fill="#0" id="circle7"/>
	<circle cx="46.363" cy="717.11" r="4" fill="#0" id="circle8"/>
	<circle cx="53.4235" cy="618.263" r="4" fill="#0" id="circle9"/>
	<circle cx="56.9537" cy="950.107" r="4" fill="#0" id="circle10"/>
	<circle cx="64.0142" cy="685.338" r="4" fill="#0" id="circle11"/>
	<circle cx="81.6655" cy="540.598" r="4" fill="#0" id="circle12"/>
	<circle cx="85.1957" cy="971.288" r="4" fill="#0" id="circle13"/>
	<circle cx="113.438" cy="558.249" r="4" fill="#0" id="circle14"/>
	<circle cx="120.498" cy="981.879" r="4" fill="#0" id="circle15"/>
	<circle cx="145.21" cy="60.484" r="4" fill="#0" id="circle16"/>
	<circle cx="145.21" cy="95.7865" r="4" fill="#0" id="circle17"/>
	<circle cx="145.21" cy="540.598" r="4" fill="#0" id="circle18"/>
	<circle cx="152.27" cy="25.1815" r="4" fill="#0" id="circle19"/>
	<circle cx="152.27" cy="173.452" r="4" fill="#0" id="circle20"/>
	<circle cx="152.27" cy="208.754" r="4" fill="#0" id="circle21"/>
	<circle cx="152.27" cy="244.057" r="4" fill="#0" id="circle22"/>
	<circle cx="152.27" cy="279.359" r="4" fill="#0" id="circle23"/>
	<circle cx="152.27" cy="314.662" r="4" fill="#0" id="circle24"/>
	<circle cx="152.27" cy="349.964" r="4" fill="#0" id="circle25"/>
	<circle cx="152.27" cy="385.267" r="4" fill="#0" id="circle26"/>
	<circle cx="152.27" cy="420.569" r="4" fill="#0" id="circle27"/>
	<circle cx="152.27" cy="455.872" r="4" fill="#0" id="circle28"/>
	<circle cx="152.27" cy="491.174" r="4" fill="#0" id="circle29"/>
	<circle cx="155.801" cy="988.94" r="4" fill="#0" id="circle30"/>
	<circle cx="159.331" cy="131.089" r="4" fill="#0" id="circle31"/>
	<circle cx="180.512" cy="4" r="4" fill="#0" id="circle32"/>
	<circle cx="191.103" cy="996" r="4" fill="#0" id="circle33"/>
	<circle cx="205.224" cy="124.028" r="4" fill="#0" id="circle34"/>
	<circle cx="205.224" cy="159.331" r="4" fill="#0" id="circle35"/>
	<circle cx="205.224" cy="194.633" r="4" fill="#0" id="circle36"/>
	<circle cx="205.224" cy="229.936" r="4" fill="#0" id="circle37"/>
	<circle cx="205.224" cy="265.238" r="4" fill="#0" id="circle38"/>
	<circle cx="205.224" cy="300.541" r="4" fill="#0" id="circle39"/>
	<circle cx="208.754" cy="335.843" r="4" fill="#0" id="circle40"/>
	<circle cx="212.285" cy="371.146" r="4" fill="#0" id="circle41"/>
	<circle cx="212.285" cy="406.448" r="4" fill="#0" id="circle42"/>
	<circle cx="212.285" cy="441.751" r="4" fill="#0" id="circle43"/>
	<circle cx="215.815" cy="4" r="4" fill="#0" id="circle44"/>
	<circle cx="219.345" cy="39.3025" r="4" fill="#0" id="circle45"/>
	<circle cx="219.345" cy="74.605" r="4" fill="#0" id="circle46"/>
	<circle cx="222.875" cy="477.053" r="4" fill="#0" id="circle47"/>
	<circle cx="226.406" cy="988.94" r="4" fill="#0" id="circle48"/>
	<circle cx="251.117" cy="498.235" r="4" fill="#0" id="circle49"/>
	<circle cx="261.708" cy="988.94" r="4" fill="#0" id="circle50"/>
	<circle cx="286.42" cy="501.765" r="4" fill="#0" id="circle51"/>
	<circle cx="297.011" cy="981.879" r="4" fill="#0" id="circle52"/>
	<circle cx="321.722" cy="512.356" r="4" fill="#0" id="circle53"/>
	<circle cx="328.783" cy="960.698" r="4" fill="#0" id="circle54"/>
	<circle cx="332.313" cy="653.566" r="4" fill="#0" id="circle55"/>
	<circle cx="339.374" cy="688.868" r="4" fill="#0" id="circle56"/>
	<circle cx="342.904" cy="540.598" r="4" fill="#0" id="circle57"/>
	<circle cx="346.434" cy="611.203" r="4" fill="#0" id="circle58"/>
	<circle cx="357.025" cy="575.9" r="4" fill="#0" id="circle59"/>
	<circle cx="357.025" cy="720.641" r="4" fill="#0" id="circle60"/>
	<circle cx="357.025" cy="939.516" r="4" fill="#0" id="circle61"/>
	<circle cx="374.676" cy="752.413" r="4" fill="#0" id="circle62"/>
	<circle cx="381.737" cy="907.744" r="4" fill="#0" id="circle63"/>
	<circle cx="392.327" cy="784.185" r="4" fill="#0" id="circle64"/>
	<circle cx="395.858" cy="819.488" r="4" fill="#0" id="circle65"/>
	<circle cx="395.858" cy="858.32" r="4" fill="#0" id="circle66"/>
	</g>
</svg>