<?xml version="1.0" encoding="UTF-8" standalone="no"?>
<!-- Created with CurveBenchmark -->
<svg
	xmlns:dc="http://purl.org/dc/elements/1.1/"
	xmlns:cc="http://creativecommons.org/ns#"
	xmlns:rdf="http://www.w3.org/1999/02/22-rdf-syntax-ns#"
	xmlns:svg="http://www.w3.org/2000/svg"
	xmlns="http://www.w3.org/2000/svg"
	xmlns:sodipodi="http://sodipodi.sourceforge.net/DTD/sodipodi-0.dtd"
	xmlns:inkscape="http://www.inkscape.org/namespaces/inkscape"
	width="1000"
	height="1000"
	id="svg2"
	version="1.1"
	sodipodi:docname="manifold/crawl-bed085.png.txt">
<defs
	id="defs4" />
<metadata
	id="metadata7">
	<rdf:RDF>
		<cc:Work
			rdf:about="">
			<dc:format>image/svg+xml</dc:format>
			<dc:type
				rdf:resource="http://purl.org/dc/dcmitype/StillImage" />
			<dc:title></dc:title>
		</cc:Work>
	</rdf:RDF>
</metadata>
<g
	inkscape:label="Layer 1"
	inkscape:groupmode="layer"
	id="layer1">
	<path style="fill:none;stroke:red;stroke-width:1px;stroke-linecap:butt;stroke-linejoin:miter;stroke-opacity:1" d="M 7.77905,283.65 7.77905,264.754 z" id="boundary" inkscape:connector-curvature="0" />
	<path style="fill:none;stroke:red;stroke-width:1px;stroke-linecap:butt;stroke-linejoin:miter;stroke-opacity:1" d="M 7.77905,264.754 7.77905,245.859 z" id="boundary" inkscape:connector-curvature="0" />
	<path style="fill:none;stroke:red;stroke-width:1px;stroke-linecap:butt;stroke-linejoin:miter;stroke-opacity:1" d="M 7.77905,245.859 7.77905,226.964 z" id="boundary" inkscape:connector-curvature="0" />
	<path style="fill:none;stroke:red;stroke-width:1px;stroke-linecap:butt;stroke-linejoin:miter;stroke-opacity:1" d="M 7.77905,226.964 7.77905,208.069 z" id="boundary" inkscape:connector-curvature="0" />
	<path style="fill:none;stroke:red;stroke-width:1px;stroke-linecap:butt;stroke-linejoin:miter;stroke-opacity:1" d="M 7.77905,208.069 7.77905,189.173 z" id="boundary" inkscape:connector-curvature="0" />
	<path style="fill:none;stroke:red;stroke-width:1px;stroke-linecap:butt;stroke-linejoin:miter;stroke-opacity:1" d="M 7.77905,189.173 7.77905,170.278 z" id="boundary" inkscape:connector-curvature="0" />
	<path style="fill:none;stroke:red;stroke-width:1px;stroke-linecap:butt;stroke-linejoin:miter;stroke-opacity:1" d="M 7.77905,170.278 7.77905,151.383 z" id="boundary" inkscape:connector-curvature="0" />
	<path style="fill:none;stroke:red;stroke-width:1px;stroke-linecap:butt;stroke-linejoin:miter;stroke-opacity:1" d="M 7.77905,151.383 7.77905,132.488 z" id="boundary" inkscape:connector-curvature="0" />
	<path style="fill:none;stroke:red;stroke-width:1px;stroke-linecap:butt;stroke-linejoin:miter;stroke-opacity:1" d="M 7.77905,283.65 7.77905,302.545 z" id="boundary" inkscape:connector-curvature="0" />
	<path style="fill:none;stroke:red;stroke-width:1px;stroke-linecap:butt;stroke-linejoin:miter;stroke-opacity:1" d="M 7.77905,302.545 7.77905,321.44 z" id="boundary" inkscape:connector-curvature="0" />
	<path style="fill:none;stroke:red;stroke-width:1px;stroke-linecap:butt;stroke-linejoin:miter;stroke-opacity:1" d="M 7.77905,321.44 7.77905,340.335 z" id="boundary" inkscape:connector-curvature="0" />
	<path style="fill:none;stroke:red;stroke-width:1px;stroke-linecap:butt;stroke-linejoin:miter;stroke-opacity:1" d="M 7.77905,132.488 11.5581,113.592 z" id="boundary" inkscape:connector-curvature="0" />
	<path style="fill:none;stroke:red;stroke-width:1px;stroke-linecap:butt;stroke-linejoin:miter;stroke-opacity:1" d="M 7.77905,340.335 4,359.23 z" id="boundary" inkscape:connector-curvature="0" />
	<path style="fill:none;stroke:red;stroke-width:1px;stroke-linecap:butt;stroke-linejoin:miter;stroke-opacity:1" d="M 4,359.23 4,378.126 z" id="boundary" inkscape:connector-curvature="0" />
	<path style="fill:none;stroke:red;stroke-width:1px;stroke-linecap:butt;stroke-linejoin:miter;stroke-opacity:1" d="M 4,378.126 4,397.021 z" id="boundary" inkscape:connector-curvature="0" />
	<path style="fill:none;stroke:red;stroke-width:1px;stroke-linecap:butt;stroke-linejoin:miter;stroke-opacity:1" d="M 4,397.021 4,415.916 z" id="boundary" inkscape:connector-curvature="0" />
	<path style="fill:none;stroke:red;stroke-width:1px;stroke-linecap:butt;stroke-linejoin:miter;stroke-opacity:1" d="M 4,415.916 4,434.811 z" id="boundary" inkscape:connector-curvature="0" />
	<path style="fill:none;stroke:red;stroke-width:1px;stroke-linecap:butt;stroke-linejoin:miter;stroke-opacity:1" d="M 4,434.811 4,453.707 z" id="boundary" inkscape:connector-curvature="0" />
	<path style="fill:none;stroke:red;stroke-width:1px;stroke-linecap:butt;stroke-linejoin:miter;stroke-opacity:1" d="M 4,453.707 4,472.602 z" id="boundary" inkscape:connector-curvature="0" />
	<path style="fill:none;stroke:red;stroke-width:1px;stroke-linecap:butt;stroke-linejoin:miter;stroke-opacity:1" d="M 4,472.602 5.88952,491.497 z" id="boundary" inkscape:connector-curvature="0" />
	<path style="fill:none;stroke:red;stroke-width:1px;stroke-linecap:butt;stroke-linejoin:miter;stroke-opacity:1" d="M 5.88952,491.497 7.77905,510.392 z" id="boundary" inkscape:connector-curvature="0" />
	<path style="fill:none;stroke:red;stroke-width:1px;stroke-linecap:butt;stroke-linejoin:miter;stroke-opacity:1" d="M 7.77905,510.392 13.4476,529.288 z" id="boundary" inkscape:connector-curvature="0" />
	<path style="fill:none;stroke:red;stroke-width:1px;stroke-linecap:butt;stroke-linejoin:miter;stroke-opacity:1" d="M 13.4476,529.288 15.3371,551.962 z" id="boundary" inkscape:connector-curvature="0" />
	<path style="fill:none;stroke:red;stroke-width:1px;stroke-linecap:butt;stroke-linejoin:miter;stroke-opacity:1" d="M 15.3371,551.962 15.3371,570.857 z" id="boundary" inkscape:connector-curvature="0" />
	<path style="fill:none;stroke:red;stroke-width:1px;stroke-linecap:butt;stroke-linejoin:miter;stroke-opacity:1" d="M 15.3371,570.857 26.6743,585.973 z" id="boundary" inkscape:connector-curvature="0" />
	<path style="fill:none;stroke:red;stroke-width:1px;stroke-linecap:butt;stroke-linejoin:miter;stroke-opacity:1" d="M 26.6743,585.973 45.5695,574.636 z" id="boundary" inkscape:connector-curvature="0" />
	<path style="fill:none;stroke:red;stroke-width:1px;stroke-linecap:butt;stroke-linejoin:miter;stroke-opacity:1" d="M 45.5695,574.636 39.901,555.741 z" id="boundary" inkscape:connector-curvature="0" />
	<path style="fill:none;stroke:red;stroke-width:1px;stroke-linecap:butt;stroke-linejoin:miter;stroke-opacity:1" d="M 11.5581,113.592 19.1162,90.9181 z" id="boundary" inkscape:connector-curvature="0" />
	<path style="fill:none;stroke:red;stroke-width:1px;stroke-linecap:butt;stroke-linejoin:miter;stroke-opacity:1" d="M 19.1162,90.9181 28.5638,73.9124 z" id="boundary" inkscape:connector-curvature="0" />
	<path style="fill:none;stroke:red;stroke-width:1px;stroke-linecap:butt;stroke-linejoin:miter;stroke-opacity:1" d="M 28.5638,73.9124 41.7905,56.9067 z" id="boundary" inkscape:connector-curvature="0" />
	<path style="fill:none;stroke:red;stroke-width:1px;stroke-linecap:butt;stroke-linejoin:miter;stroke-opacity:1" d="M 39.901,555.741 43.68,527.398 z" id="boundary" inkscape:connector-curvature="0" />
	<path style="fill:none;stroke:red;stroke-width:1px;stroke-linecap:butt;stroke-linejoin:miter;stroke-opacity:1" d="M 43.68,527.398 41.7905,508.503 z" id="boundary" inkscape:connector-curvature="0" />
	<path style="fill:none;stroke:red;stroke-width:1px;stroke-linecap:butt;stroke-linejoin:miter;stroke-opacity:1" d="M 41.7905,508.503 60.6857,508.503 z" id="boundary" inkscape:connector-curvature="0" />
	<path style="fill:none;stroke:red;stroke-width:1px;stroke-linecap:butt;stroke-linejoin:miter;stroke-opacity:1" d="M 60.6857,508.503 68.2438,527.398 z" id="boundary" inkscape:connector-curvature="0" />
	<path style="fill:none;stroke:red;stroke-width:1px;stroke-linecap:butt;stroke-linejoin:miter;stroke-opacity:1" d="M 68.2438,527.398 96.5867,533.067 z" id="boundary" inkscape:connector-curvature="0" />
	<path style="fill:none;stroke:red;stroke-width:1px;stroke-linecap:butt;stroke-linejoin:miter;stroke-opacity:1" d="M 96.5867,533.067 96.5867,514.171 z" id="boundary" inkscape:connector-curvature="0" />
	<path style="fill:none;stroke:red;stroke-width:1px;stroke-linecap:butt;stroke-linejoin:miter;stroke-opacity:1" d="M 96.5867,514.171 115.482,512.282 z" id="boundary" inkscape:connector-curvature="0" />
	<path style="fill:none;stroke:red;stroke-width:1px;stroke-linecap:butt;stroke-linejoin:miter;stroke-opacity:1" d="M 115.482,512.282 134.377,512.282 z" id="boundary" inkscape:connector-curvature="0" />
	<path style="fill:none;stroke:red;stroke-width:1px;stroke-linecap:butt;stroke-linejoin:miter;stroke-opacity:1" d="M 134.377,512.282 153.272,512.282 z" id="boundary" inkscape:connector-curvature="0" />
	<path style="fill:none;stroke:red;stroke-width:1px;stroke-linecap:butt;stroke-linejoin:miter;stroke-opacity:1" d="M 153.272,512.282 172.168,512.282 z" id="boundary" inkscape:connector-curvature="0" />
	<path style="fill:none;stroke:red;stroke-width:1px;stroke-linecap:butt;stroke-linejoin:miter;stroke-opacity:1" d="M 172.168,512.282 191.063,512.282 z" id="boundary" inkscape:connector-curvature="0" />
	<path style="fill:none;stroke:red;stroke-width:1px;stroke-linecap:butt;stroke-linejoin:miter;stroke-opacity:1" d="M 191.063,512.282 209.958,512.282 z" id="boundary" inkscape:connector-curvature="0" />
	<path style="fill:none;stroke:red;stroke-width:1px;stroke-linecap:butt;stroke-linejoin:miter;stroke-opacity:1" d="M 209.958,512.282 228.853,512.282 z" id="boundary" inkscape:connector-curvature="0" />
	<path style="fill:none;stroke:red;stroke-width:1px;stroke-linecap:butt;stroke-linejoin:miter;stroke-opacity:1" d="M 228.853,512.282 247.749,512.282 z" id="boundary" inkscape:connector-curvature="0" />
	<path style="fill:none;stroke:red;stroke-width:1px;stroke-linecap:butt;stroke-linejoin:miter;stroke-opacity:1" d="M 247.749,512.282 266.644,512.282 z" id="boundary" inkscape:connector-curvature="0" />
	<path style="fill:none;stroke:red;stroke-width:1px;stroke-linecap:butt;stroke-linejoin:miter;stroke-opacity:1" d="M 266.644,512.282 285.539,512.282 z" id="boundary" inkscape:connector-curvature="0" />
	<path style="fill:none;stroke:red;stroke-width:1px;stroke-linecap:butt;stroke-linejoin:miter;stroke-opacity:1" d="M 285.539,512.282 304.434,512.282 z" id="boundary" inkscape:connector-curvature="0" />
	<path style="fill:none;stroke:red;stroke-width:1px;stroke-linecap:butt;stroke-linejoin:miter;stroke-opacity:1" d="M 304.434,512.282 323.33,512.282 z" id="boundary" inkscape:connector-curvature="0" />
	<path style="fill:none;stroke:red;stroke-width:1px;stroke-linecap:butt;stroke-linejoin:miter;stroke-opacity:1" d="M 323.33,512.282 342.225,512.282 z" id="boundary" inkscape:connector-curvature="0" />
	<path style="fill:none;stroke:red;stroke-width:1px;stroke-linecap:butt;stroke-linejoin:miter;stroke-opacity:1" d="M 342.225,512.282 361.12,512.282 z" id="boundary" inkscape:connector-curvature="0" />
	<path style="fill:none;stroke:red;stroke-width:1px;stroke-linecap:butt;stroke-linejoin:miter;stroke-opacity:1" d="M 361.12,512.282 380.015,512.282 z" id="boundary" inkscape:connector-curvature="0" />
	<path style="fill:none;stroke:red;stroke-width:1px;stroke-linecap:butt;stroke-linejoin:miter;stroke-opacity:1" d="M 380.015,512.282 398.91,512.282 z" id="boundary" inkscape:connector-curvature="0" />
	<path style="fill:none;stroke:red;stroke-width:1px;stroke-linecap:butt;stroke-linejoin:miter;stroke-opacity:1" d="M 398.91,512.282 417.806,512.282 z" id="boundary" inkscape:connector-curvature="0" />
	<path style="fill:none;stroke:red;stroke-width:1px;stroke-linecap:butt;stroke-linejoin:miter;stroke-opacity:1" d="M 417.806,512.282 436.701,512.282 z" id="boundary" inkscape:connector-curvature="0" />
	<path style="fill:none;stroke:red;stroke-width:1px;stroke-linecap:butt;stroke-linejoin:miter;stroke-opacity:1" d="M 436.701,512.282 455.596,512.282 z" id="boundary" inkscape:connector-curvature="0" />
	<path style="fill:none;stroke:red;stroke-width:1px;stroke-linecap:butt;stroke-linejoin:miter;stroke-opacity:1" d="M 455.596,512.282 474.491,512.282 z" id="boundary" inkscape:connector-curvature="0" />
	<path style="fill:none;stroke:red;stroke-width:1px;stroke-linecap:butt;stroke-linejoin:miter;stroke-opacity:1" d="M 474.491,512.282 493.387,512.282 z" id="boundary" inkscape:connector-curvature="0" />
	<path style="fill:none;stroke:red;stroke-width:1px;stroke-linecap:butt;stroke-linejoin:miter;stroke-opacity:1" d="M 493.387,512.282 512.282,512.282 z" id="boundary" inkscape:connector-curvature="0" />
	<path style="fill:none;stroke:red;stroke-width:1px;stroke-linecap:butt;stroke-linejoin:miter;stroke-opacity:1" d="M 512.282,512.282 531.177,512.282 z" id="boundary" inkscape:connector-curvature="0" />
	<path style="fill:none;stroke:red;stroke-width:1px;stroke-linecap:butt;stroke-linejoin:miter;stroke-opacity:1" d="M 531.177,512.282 550.072,512.282 z" id="boundary" inkscape:connector-curvature="0" />
	<path style="fill:none;stroke:red;stroke-width:1px;stroke-linecap:butt;stroke-linejoin:miter;stroke-opacity:1" d="M 550.072,512.282 568.968,512.282 z" id="boundary" inkscape:connector-curvature="0" />
	<path style="fill:none;stroke:red;stroke-width:1px;stroke-linecap:butt;stroke-linejoin:miter;stroke-opacity:1" d="M 568.968,512.282 587.863,512.282 z" id="boundary" inkscape:connector-curvature="0" />
	<path style="fill:none;stroke:red;stroke-width:1px;stroke-linecap:butt;stroke-linejoin:miter;stroke-opacity:1" d="M 587.863,512.282 606.758,512.282 z" id="boundary" inkscape:connector-curvature="0" />
	<path style="fill:none;stroke:red;stroke-width:1px;stroke-linecap:butt;stroke-linejoin:miter;stroke-opacity:1" d="M 606.758,512.282 625.653,512.282 z" id="boundary" inkscape:connector-curvature="0" />
	<path style="fill:none;stroke:red;stroke-width:1px;stroke-linecap:butt;stroke-linejoin:miter;stroke-opacity:1" d="M 625.653,512.282 644.549,512.282 z" id="boundary" inkscape:connector-curvature="0" />
	<path style="fill:none;stroke:red;stroke-width:1px;stroke-linecap:butt;stroke-linejoin:miter;stroke-opacity:1" d="M 644.549,512.282 663.444,512.282 z" id="boundary" inkscape:connector-curvature="0" />
	<path style="fill:none;stroke:red;stroke-width:1px;stroke-linecap:butt;stroke-linejoin:miter;stroke-opacity:1" d="M 663.444,512.282 682.339,512.282 z" id="boundary" inkscape:connector-curvature="0" />
	<path style="fill:none;stroke:red;stroke-width:1px;stroke-linecap:butt;stroke-linejoin:miter;stroke-opacity:1" d="M 682.339,512.282 701.234,512.282 z" id="boundary" inkscape:connector-curvature="0" />
	<path style="fill:none;stroke:red;stroke-width:1px;stroke-linecap:butt;stroke-linejoin:miter;stroke-opacity:1" d="M 701.234,512.282 720.13,512.282 z" id="boundary" inkscape:connector-curvature="0" />
	<path style="fill:none;stroke:red;stroke-width:1px;stroke-linecap:butt;stroke-linejoin:miter;stroke-opacity:1" d="M 720.13,512.282 739.025,512.282 z" id="boundary" inkscape:connector-curvature="0" />
	<path style="fill:none;stroke:red;stroke-width:1px;stroke-linecap:butt;stroke-linejoin:miter;stroke-opacity:1" d="M 739.025,512.282 757.92,512.282 z" id="boundary" inkscape:connector-curvature="0" />
	<path style="fill:none;stroke:red;stroke-width:1px;stroke-linecap:butt;stroke-linejoin:miter;stroke-opacity:1" d="M 757.92,512.282 776.815,512.282 z" id="boundary" inkscape:connector-curvature="0" />
	<path style="fill:none;stroke:red;stroke-width:1px;stroke-linecap:butt;stroke-linejoin:miter;stroke-opacity:1" d="M 776.815,512.282 795.71,512.282 z" id="boundary" inkscape:connector-curvature="0" />
	<path style="fill:none;stroke:red;stroke-width:1px;stroke-linecap:butt;stroke-linejoin:miter;stroke-opacity:1" d="M 795.71,512.282 814.606,512.282 z" id="boundary" inkscape:connector-curvature="0" />
	<path style="fill:none;stroke:red;stroke-width:1px;stroke-linecap:butt;stroke-linejoin:miter;stroke-opacity:1" d="M 814.606,512.282 833.501,512.282 z" id="boundary" inkscape:connector-curvature="0" />
	<path style="fill:none;stroke:red;stroke-width:1px;stroke-linecap:butt;stroke-linejoin:miter;stroke-opacity:1" d="M 833.501,512.282 852.396,512.282 z" id="boundary" inkscape:connector-curvature="0" />
	<path style="fill:none;stroke:red;stroke-width:1px;stroke-linecap:butt;stroke-linejoin:miter;stroke-opacity:1" d="M 852.396,512.282 871.291,512.282 z" id="boundary" inkscape:connector-curvature="0" />
	<path style="fill:none;stroke:red;stroke-width:1px;stroke-linecap:butt;stroke-linejoin:miter;stroke-opacity:1" d="M 871.291,512.282 890.187,512.282 z" id="boundary" inkscape:connector-curvature="0" />
	<path style="fill:none;stroke:red;stroke-width:1px;stroke-linecap:butt;stroke-linejoin:miter;stroke-opacity:1" d="M 890.187,512.282 899.634,529.288 z" id="boundary" inkscape:connector-curvature="0" />
	<path style="fill:none;stroke:red;stroke-width:1px;stroke-linecap:butt;stroke-linejoin:miter;stroke-opacity:1" d="M 899.634,529.288 903.413,548.183 z" id="boundary" inkscape:connector-curvature="0" />
	<path style="fill:none;stroke:red;stroke-width:1px;stroke-linecap:butt;stroke-linejoin:miter;stroke-opacity:1" d="M 903.413,548.183 903.413,567.078 z" id="boundary" inkscape:connector-curvature="0" />
	<path style="fill:none;stroke:red;stroke-width:1px;stroke-linecap:butt;stroke-linejoin:miter;stroke-opacity:1" d="M 903.413,567.078 912.861,584.084 z" id="boundary" inkscape:connector-curvature="0" />
	<path style="fill:none;stroke:red;stroke-width:1px;stroke-linecap:butt;stroke-linejoin:miter;stroke-opacity:1" d="M 912.861,584.084 931.756,582.194 z" id="boundary" inkscape:connector-curvature="0" />
	<path style="fill:none;stroke:red;stroke-width:1px;stroke-linecap:butt;stroke-linejoin:miter;stroke-opacity:1" d="M 931.756,582.194 927.977,563.299 z" id="boundary" inkscape:connector-curvature="0" />
	<path style="fill:none;stroke:red;stroke-width:1px;stroke-linecap:butt;stroke-linejoin:miter;stroke-opacity:1" d="M 927.977,563.299 939.314,548.183 z" id="boundary" inkscape:connector-curvature="0" />
	<path style="fill:none;stroke:red;stroke-width:1px;stroke-linecap:butt;stroke-linejoin:miter;stroke-opacity:1" d="M 939.314,548.183 958.21,548.183 z" id="boundary" inkscape:connector-curvature="0" />
	<path style="fill:none;stroke:red;stroke-width:1px;stroke-linecap:butt;stroke-linejoin:miter;stroke-opacity:1" d="M 958.21,548.183 963.878,567.078 z" id="boundary" inkscape:connector-curvature="0" />
	<path style="fill:none;stroke:red;stroke-width:1px;stroke-linecap:butt;stroke-linejoin:miter;stroke-opacity:1" d="M 963.878,567.078 973.326,584.084 z" id="boundary" inkscape:connector-curvature="0" />
	<path style="fill:none;stroke:red;stroke-width:1px;stroke-linecap:butt;stroke-linejoin:miter;stroke-opacity:1" d="M 973.326,584.084 992.221,582.194 z" id="boundary" inkscape:connector-curvature="0" />
	<path style="fill:none;stroke:red;stroke-width:1px;stroke-linecap:butt;stroke-linejoin:miter;stroke-opacity:1" d="M 992.221,582.194 988.442,559.52 z" id="boundary" inkscape:connector-curvature="0" />
	<path style="fill:none;stroke:red;stroke-width:1px;stroke-linecap:butt;stroke-linejoin:miter;stroke-opacity:1" d="M 988.442,559.52 996,533.067 z" id="boundary" inkscape:connector-curvature="0" />
	<path style="fill:none;stroke:red;stroke-width:1px;stroke-linecap:butt;stroke-linejoin:miter;stroke-opacity:1" d="M 996,533.067 988.442,514.171 z" id="boundary" inkscape:connector-curvature="0" />
	<path style="fill:none;stroke:red;stroke-width:1px;stroke-linecap:butt;stroke-linejoin:miter;stroke-opacity:1" d="M 988.442,514.171 988.442,495.276 z" id="boundary" inkscape:connector-curvature="0" />
	<path style="fill:none;stroke:red;stroke-width:1px;stroke-linecap:butt;stroke-linejoin:miter;stroke-opacity:1" d="M 988.442,495.276 992.221,461.265 z" id="boundary" inkscape:connector-curvature="0" />
	<path style="fill:none;stroke:red;stroke-width:1px;stroke-linecap:butt;stroke-linejoin:miter;stroke-opacity:1" d="M 992.221,461.265 992.221,442.37 z" id="boundary" inkscape:connector-curvature="0" />
	<path style="fill:none;stroke:red;stroke-width:1px;stroke-linecap:butt;stroke-linejoin:miter;stroke-opacity:1" d="M 992.221,442.37 992.221,423.474 z" id="boundary" inkscape:connector-curvature="0" />
	<path style="fill:none;stroke:red;stroke-width:1px;stroke-linecap:butt;stroke-linejoin:miter;stroke-opacity:1" d="M 992.221,423.474 992.221,404.579 z" id="boundary" inkscape:connector-curvature="0" />
	<path style="fill:none;stroke:red;stroke-width:1px;stroke-linecap:butt;stroke-linejoin:miter;stroke-opacity:1" d="M 992.221,404.579 992.221,385.684 z" id="boundary" inkscape:connector-curvature="0" />
	<path style="fill:none;stroke:red;stroke-width:1px;stroke-linecap:butt;stroke-linejoin:miter;stroke-opacity:1" d="M 992.221,385.684 992.221,361.12 z" id="boundary" inkscape:connector-curvature="0" />
	<path style="fill:none;stroke:red;stroke-width:1px;stroke-linecap:butt;stroke-linejoin:miter;stroke-opacity:1" d="M 992.221,361.12 988.442,342.225 z" id="boundary" inkscape:connector-curvature="0" />
	<path style="fill:none;stroke:red;stroke-width:1px;stroke-linecap:butt;stroke-linejoin:miter;stroke-opacity:1" d="M 988.442,342.225 984.663,323.33 z" id="boundary" inkscape:connector-curvature="0" />
	<path style="fill:none;stroke:red;stroke-width:1px;stroke-linecap:butt;stroke-linejoin:miter;stroke-opacity:1" d="M 984.663,323.33 973.326,308.213 z" id="boundary" inkscape:connector-curvature="0" />
	<path style="fill:none;stroke:red;stroke-width:1px;stroke-linecap:butt;stroke-linejoin:miter;stroke-opacity:1" d="M 973.326,308.213 965.768,289.318 z" id="boundary" inkscape:connector-curvature="0" />
	<path style="fill:none;stroke:red;stroke-width:1px;stroke-linecap:butt;stroke-linejoin:miter;stroke-opacity:1" d="M 965.768,289.318 961.989,270.423 z" id="boundary" inkscape:connector-curvature="0" />
	<path style="fill:none;stroke:red;stroke-width:1px;stroke-linecap:butt;stroke-linejoin:miter;stroke-opacity:1" d="M 961.989,270.423 952.541,253.417 z" id="boundary" inkscape:connector-curvature="0" />
	<path style="fill:none;stroke:red;stroke-width:1px;stroke-linecap:butt;stroke-linejoin:miter;stroke-opacity:1" d="M 952.541,253.417 933.646,257.196 z" id="boundary" inkscape:connector-curvature="0" />
	<path style="fill:none;stroke:red;stroke-width:1px;stroke-linecap:butt;stroke-linejoin:miter;stroke-opacity:1" d="M 933.646,257.196 927.977,281.76 z" id="boundary" inkscape:connector-curvature="0" />
	<path style="fill:none;stroke:red;stroke-width:1px;stroke-linecap:butt;stroke-linejoin:miter;stroke-opacity:1" d="M 927.977,281.76 924.198,300.655 z" id="boundary" inkscape:connector-curvature="0" />
	<path style="fill:none;stroke:red;stroke-width:1px;stroke-linecap:butt;stroke-linejoin:miter;stroke-opacity:1" d="M 924.198,300.655 909.082,315.771 z" id="boundary" inkscape:connector-curvature="0" />
	<path style="fill:none;stroke:red;stroke-width:1px;stroke-linecap:butt;stroke-linejoin:miter;stroke-opacity:1" d="M 909.082,315.771 899.634,332.777 z" id="boundary" inkscape:connector-curvature="0" />
	<path style="fill:none;stroke:red;stroke-width:1px;stroke-linecap:butt;stroke-linejoin:miter;stroke-opacity:1" d="M 899.634,332.777 882.629,347.893 z" id="boundary" inkscape:connector-curvature="0" />
	<path style="fill:none;stroke:red;stroke-width:1px;stroke-linecap:butt;stroke-linejoin:miter;stroke-opacity:1" d="M 882.629,347.893 863.733,347.893 z" id="boundary" inkscape:connector-curvature="0" />
	<path style="fill:none;stroke:red;stroke-width:1px;stroke-linecap:butt;stroke-linejoin:miter;stroke-opacity:1" d="M 863.733,347.893 844.838,344.114 z" id="boundary" inkscape:connector-curvature="0" />
	<path style="fill:none;stroke:red;stroke-width:1px;stroke-linecap:butt;stroke-linejoin:miter;stroke-opacity:1" d="M 844.838,344.114 825.943,344.114 z" id="boundary" inkscape:connector-curvature="0" />
	<path style="fill:none;stroke:red;stroke-width:1px;stroke-linecap:butt;stroke-linejoin:miter;stroke-opacity:1" d="M 825.943,344.114 807.048,340.335 z" id="boundary" inkscape:connector-curvature="0" />
	<path style="fill:none;stroke:red;stroke-width:1px;stroke-linecap:butt;stroke-linejoin:miter;stroke-opacity:1" d="M 807.048,340.335 788.152,340.335 z" id="boundary" inkscape:connector-curvature="0" />
	<path style="fill:none;stroke:red;stroke-width:1px;stroke-linecap:butt;stroke-linejoin:miter;stroke-opacity:1" d="M 788.152,340.335 769.257,340.335 z" id="boundary" inkscape:connector-curvature="0" />
	<path style="fill:none;stroke:red;stroke-width:1px;stroke-linecap:butt;stroke-linejoin:miter;stroke-opacity:1" d="M 769.257,340.335 750.362,340.335 z" id="boundary" inkscape:connector-curvature="0" />
	<path style="fill:none;stroke:red;stroke-width:1px;stroke-linecap:butt;stroke-linejoin:miter;stroke-opacity:1" d="M 750.362,340.335 731.467,340.335 z" id="boundary" inkscape:connector-curvature="0" />
	<path style="fill:none;stroke:red;stroke-width:1px;stroke-linecap:butt;stroke-linejoin:miter;stroke-opacity:1" d="M 731.467,340.335 712.571,336.556 z" id="boundary" inkscape:connector-curvature="0" />
	<path style="fill:none;stroke:red;stroke-width:1px;stroke-linecap:butt;stroke-linejoin:miter;stroke-opacity:1" d="M 712.571,336.556 693.676,336.556 z" id="boundary" inkscape:connector-curvature="0" />
	<path style="fill:none;stroke:red;stroke-width:1px;stroke-linecap:butt;stroke-linejoin:miter;stroke-opacity:1" d="M 693.676,336.556 674.781,336.556 z" id="boundary" inkscape:connector-curvature="0" />
	<path style="fill:none;stroke:red;stroke-width:1px;stroke-linecap:butt;stroke-linejoin:miter;stroke-opacity:1" d="M 674.781,336.556 655.886,336.556 z" id="boundary" inkscape:connector-curvature="0" />
	<path style="fill:none;stroke:red;stroke-width:1px;stroke-linecap:butt;stroke-linejoin:miter;stroke-opacity:1" d="M 655.886,336.556 636.99,336.556 z" id="boundary" inkscape:connector-curvature="0" />
	<path style="fill:none;stroke:red;stroke-width:1px;stroke-linecap:butt;stroke-linejoin:miter;stroke-opacity:1" d="M 636.99,336.556 618.095,336.556 z" id="boundary" inkscape:connector-curvature="0" />
	<path style="fill:none;stroke:red;stroke-width:1px;stroke-linecap:butt;stroke-linejoin:miter;stroke-opacity:1" d="M 618.095,336.556 599.2,336.556 z" id="boundary" inkscape:connector-curvature="0" />
	<path style="fill:none;stroke:red;stroke-width:1px;stroke-linecap:butt;stroke-linejoin:miter;stroke-opacity:1" d="M 599.2,336.556 580.305,336.556 z" id="boundary" inkscape:connector-curvature="0" />
	<path style="fill:none;stroke:red;stroke-width:1px;stroke-linecap:butt;stroke-linejoin:miter;stroke-opacity:1" d="M 580.305,336.556 561.41,336.556 z" id="boundary" inkscape:connector-curvature="0" />
	<path style="fill:none;stroke:red;stroke-width:1px;stroke-linecap:butt;stroke-linejoin:miter;stroke-opacity:1" d="M 561.41,336.556 542.514,336.556 z" id="boundary" inkscape:connector-curvature="0" />
	<path style="fill:none;stroke:red;stroke-width:1px;stroke-linecap:butt;stroke-linejoin:miter;stroke-opacity:1" d="M 542.514,336.556 523.619,336.556 z" id="boundary" inkscape:connector-curvature="0" />
	<path style="fill:none;stroke:red;stroke-width:1px;stroke-linecap:butt;stroke-linejoin:miter;stroke-opacity:1" d="M 523.619,336.556 504.724,336.556 z" id="boundary" inkscape:connector-curvature="0" />
	<path style="fill:none;stroke:red;stroke-width:1px;stroke-linecap:butt;stroke-linejoin:miter;stroke-opacity:1" d="M 504.724,336.556 485.829,336.556 z" id="boundary" inkscape:connector-curvature="0" />
	<path style="fill:none;stroke:red;stroke-width:1px;stroke-linecap:butt;stroke-linejoin:miter;stroke-opacity:1" d="M 485.829,336.556 466.933,336.556 z" id="boundary" inkscape:connector-curvature="0" />
	<path style="fill:none;stroke:red;stroke-width:1px;stroke-linecap:butt;stroke-linejoin:miter;stroke-opacity:1" d="M 466.933,336.556 448.038,336.556 z" id="boundary" inkscape:connector-curvature="0" />
	<path style="fill:none;stroke:red;stroke-width:1px;stroke-linecap:butt;stroke-linejoin:miter;stroke-opacity:1" d="M 448.038,336.556 429.143,336.556 z" id="boundary" inkscape:connector-curvature="0" />
	<path style="fill:none;stroke:red;stroke-width:1px;stroke-linecap:butt;stroke-linejoin:miter;stroke-opacity:1" d="M 429.143,336.556 410.248,332.777 z" id="boundary" inkscape:connector-curvature="0" />
	<path style="fill:none;stroke:red;stroke-width:1px;stroke-linecap:butt;stroke-linejoin:miter;stroke-opacity:1" d="M 410.248,332.777 395.131,319.55 z" id="boundary" inkscape:connector-curvature="0" />
	<path style="fill:none;stroke:red;stroke-width:1px;stroke-linecap:butt;stroke-linejoin:miter;stroke-opacity:1" d="M 395.131,319.55 385.684,302.545 z" id="boundary" inkscape:connector-curvature="0" />
	<path style="fill:none;stroke:red;stroke-width:1px;stroke-linecap:butt;stroke-linejoin:miter;stroke-opacity:1" d="M 385.684,302.545 376.236,285.539 z" id="boundary" inkscape:connector-curvature="0" />
	<path style="fill:none;stroke:red;stroke-width:1px;stroke-linecap:butt;stroke-linejoin:miter;stroke-opacity:1" d="M 376.236,285.539 363.01,270.423 z" id="boundary" inkscape:connector-curvature="0" />
	<path style="fill:none;stroke:red;stroke-width:1px;stroke-linecap:butt;stroke-linejoin:miter;stroke-opacity:1" d="M 363.01,270.423 347.893,259.086 z" id="boundary" inkscape:connector-curvature="0" />
	<path style="fill:none;stroke:red;stroke-width:1px;stroke-linecap:butt;stroke-linejoin:miter;stroke-opacity:1" d="M 347.893,259.086 330.888,249.638 z" id="boundary" inkscape:connector-curvature="0" />
	<path style="fill:none;stroke:red;stroke-width:1px;stroke-linecap:butt;stroke-linejoin:miter;stroke-opacity:1" d="M 330.888,249.638 311.992,242.08 z" id="boundary" inkscape:connector-curvature="0" />
	<path style="fill:none;stroke:red;stroke-width:1px;stroke-linecap:butt;stroke-linejoin:miter;stroke-opacity:1" d="M 311.992,242.08 293.097,234.522 z" id="boundary" inkscape:connector-curvature="0" />
	<path style="fill:none;stroke:red;stroke-width:1px;stroke-linecap:butt;stroke-linejoin:miter;stroke-opacity:1" d="M 293.097,234.522 274.202,230.743 z" id="boundary" inkscape:connector-curvature="0" />
	<path style="fill:none;stroke:red;stroke-width:1px;stroke-linecap:butt;stroke-linejoin:miter;stroke-opacity:1" d="M 274.202,230.743 255.307,230.743 z" id="boundary" inkscape:connector-curvature="0" />
	<path style="fill:none;stroke:red;stroke-width:1px;stroke-linecap:butt;stroke-linejoin:miter;stroke-opacity:1" d="M 255.307,230.743 236.411,234.522 z" id="boundary" inkscape:connector-curvature="0" />
	<path style="fill:none;stroke:red;stroke-width:1px;stroke-linecap:butt;stroke-linejoin:miter;stroke-opacity:1" d="M 236.411,234.522 217.516,234.522 z" id="boundary" inkscape:connector-curvature="0" />
	<path style="fill:none;stroke:red;stroke-width:1px;stroke-linecap:butt;stroke-linejoin:miter;stroke-opacity:1" d="M 217.516,234.522 198.621,230.743 z" id="boundary" inkscape:connector-curvature="0" />
	<path style="fill:none;stroke:red;stroke-width:1px;stroke-linecap:butt;stroke-linejoin:miter;stroke-opacity:1" d="M 198.621,230.743 183.505,219.406 z" id="boundary" inkscape:connector-curvature="0" />
	<path style="fill:none;stroke:red;stroke-width:1px;stroke-linecap:butt;stroke-linejoin:miter;stroke-opacity:1" d="M 183.505,219.406 164.61,211.848 z" id="boundary" inkscape:connector-curvature="0" />
	<path style="fill:none;stroke:red;stroke-width:1px;stroke-linecap:butt;stroke-linejoin:miter;stroke-opacity:1" d="M 164.61,211.848 145.714,208.069 z" id="boundary" inkscape:connector-curvature="0" />
	<path style="fill:none;stroke:red;stroke-width:1px;stroke-linecap:butt;stroke-linejoin:miter;stroke-opacity:1" d="M 145.714,208.069 126.819,208.069 z" id="boundary" inkscape:connector-curvature="0" />
	<path style="fill:none;stroke:red;stroke-width:1px;stroke-linecap:butt;stroke-linejoin:miter;stroke-opacity:1" d="M 126.819,208.069 107.924,215.627 z" id="boundary" inkscape:connector-curvature="0" />
	<path style="fill:none;stroke:red;stroke-width:1px;stroke-linecap:butt;stroke-linejoin:miter;stroke-opacity:1" d="M 107.924,215.627 89.0286,211.848 z" id="boundary" inkscape:connector-curvature="0" />
	<path style="fill:none;stroke:red;stroke-width:1px;stroke-linecap:butt;stroke-linejoin:miter;stroke-opacity:1" d="M 89.0286,211.848 92.8076,181.615 z" id="boundary" inkscape:connector-curvature="0" />
	<path style="fill:none;stroke:red;stroke-width:1px;stroke-linecap:butt;stroke-linejoin:miter;stroke-opacity:1" d="M 92.8076,181.615 100.366,153.272 z" id="boundary" inkscape:connector-curvature="0" />
	<path style="fill:none;stroke:red;stroke-width:1px;stroke-linecap:butt;stroke-linejoin:miter;stroke-opacity:1" d="M 100.366,153.272 96.5867,134.377 z" id="boundary" inkscape:connector-curvature="0" />
	<path style="fill:none;stroke:red;stroke-width:1px;stroke-linecap:butt;stroke-linejoin:miter;stroke-opacity:1" d="M 96.5867,134.377 92.8076,115.482 z" id="boundary" inkscape:connector-curvature="0" />
	<path style="fill:none;stroke:red;stroke-width:1px;stroke-linecap:butt;stroke-linejoin:miter;stroke-opacity:1" d="M 92.8076,115.482 89.0286,96.5867 z" id="boundary" inkscape:connector-curvature="0" />
	<path style="fill:none;stroke:red;stroke-width:1px;stroke-linecap:butt;stroke-linejoin:miter;stroke-opacity:1" d="M 89.0286,96.5867 81.4705,77.6914 z" id="boundary" inkscape:connector-curvature="0" />
	<path style="fill:none;stroke:red;stroke-width:1px;stroke-linecap:butt;stroke-linejoin:miter;stroke-opacity:1" d="M 81.4705,77.6914 81.4705,58.7962 z" id="boundary" inkscape:connector-curvature="0" />
	<path style="fill:none;stroke:red;stroke-width:1px;stroke-linecap:butt;stroke-linejoin:miter;stroke-opacity:1" d="M 81.4705,58.7962 77.6914,39.901 z" id="boundary" inkscape:connector-curvature="0" />
	<path style="fill:none;stroke:red;stroke-width:1px;stroke-linecap:butt;stroke-linejoin:miter;stroke-opacity:1" d="M 77.6914,39.901 77.6914,21.0057 z" id="boundary" inkscape:connector-curvature="0" />
	<path style="fill:none;stroke:red;stroke-width:1px;stroke-linecap:butt;stroke-linejoin:miter;stroke-opacity:1" d="M 77.6914,21.0057 68.2438,4 z" id="boundary" inkscape:connector-curvature="0" />
	<path style="fill:none;stroke:red;stroke-width:1px;stroke-linecap:butt;stroke-linejoin:miter;stroke-opacity:1" d="M 68.2438,4 49.3486,4 z" id="boundary" inkscape:connector-curvature="0" />
	<path style="fill:none;stroke:red;stroke-width:1px;stroke-linecap:butt;stroke-linejoin:miter;stroke-opacity:1" d="M 49.3486,4 49.3486,22.8952 z" id="boundary" inkscape:connector-curvature="0" />
	<path style="fill:none;stroke:red;stroke-width:1px;stroke-linecap:butt;stroke-linejoin:miter;stroke-opacity:1" d="M 49.3486,22.8952 41.7905,56.9067 z" id="boundary" inkscape:connector-curvature="0" />
	<path style="fill:none;stroke:red;stroke-width:1px;stroke-linecap:butt;stroke-linejoin:miter;stroke-opacity:1" d="M 92.8076,585.973 73.9124,582.194 z" id="boundary" inkscape:connector-curvature="0" />
	<path style="fill:none;stroke:red;stroke-width:1px;stroke-linecap:butt;stroke-linejoin:miter;stroke-opacity:1" d="M 73.9124,582.194 68.2438,563.299 z" id="boundary" inkscape:connector-curvature="0" />
	<path style="fill:none;stroke:red;stroke-width:1px;stroke-linecap:butt;stroke-linejoin:miter;stroke-opacity:1" d="M 68.2438,563.299 92.8076,559.52 z" id="boundary" inkscape:connector-curvature="0" />
	<circle cx="4" cy="359.23" r="4" fill="#0" id="circle0"/>
	<circle cx="4" cy="378.126" r="4" fill="#0" id="circle1"/>
	<circle cx="4" cy="397.021" r="4" fill="#0" id="circle2"/>
	<circle cx="4" cy="415.916" r="4" fill="#0" id="circle3"/>
	<circle cx="4" cy="434.811" r="4" fill="#0" id="circle4"/>
	<circle cx="4" cy="453.707" r="4" fill="#0" id="circle5"/>
	<circle cx="4" cy="472.602" r="4" fill="#0" id="circle6"/>
	<circle cx="5.88952" cy="491.497" r="4" fill="#0" id="circle7"/>
	<circle cx="7.77905" cy="132.488" r="4" fill="#0" id="circle8"/>
	<circle cx="7.77905" cy="151.383" r="4" fill="#0" id="circle9"/>
	<circle cx="7.77905" cy="170.278" r="4" fill="#0" id="circle10"/>
	<circle cx="7.77905" cy="189.173" r="4" fill="#0" id="circle11"/>
	<circle cx="7.77905" cy="208.069" r="4" fill="#0" id="circle12"/>
	<circle cx="7.77905" cy="226.964" r="4" fill="#0" id="circle13"/>
	<circle cx="7.77905" cy="245.859" r="4" fill="#0" id="circle14"/>
	<circle cx="7.77905" cy="264.754" r="4" fill="#0" id="circle15"/>
	<circle cx="7.77905" cy="283.65" r="4" fill="#0" id="circle16"/>
	<circle cx="7.77905" cy="302.545" r="4" fill="#0" id="circle17"/>
	<circle cx="7.77905" cy="321.44" r="4" fill="#0" id="circle18"/>
	<circle cx="7.77905" cy="340.335" r="4" fill="#0" id="circle19"/>
	<circle cx="7.77905" cy="510.392" r="4" fill="#0" id="circle20"/>
	<circle cx="11.5581" cy="113.592" r="4" fill="#0" id="circle21"/>
	<circle cx="13.4476" cy="529.288" r="4" fill="#0" id="circle22"/>
	<circle cx="15.3371" cy="551.962" r="4" fill="#0" id="circle23"/>
	<circle cx="15.3371" cy="570.857" r="4" fill="#0" id="circle24"/>
	<circle cx="19.1162" cy="90.9181" r="4" fill="#0" id="circle25"/>
	<circle cx="26.6743" cy="585.973" r="4" fill="#0" id="circle26"/>
	<circle cx="28.5638" cy="73.9124" r="4" fill="#0" id="circle27"/>
	<circle cx="39.901" cy="555.741" r="4" fill="#0" id="circle28"/>
	<circle cx="41.7905" cy="56.9067" r="4" fill="#0" id="circle29"/>
	<circle cx="41.7905" cy="508.503" r="4" fill="#0" id="circle30"/>
	<circle cx="43.68" cy="527.398" r="4" fill="#0" id="circle31"/>
	<circle cx="45.5695" cy="574.636" r="4" fill="#0" id="circle32"/>
	<circle cx="49.3486" cy="4" r="4" fill="#0" id="circle33"/>
	<circle cx="49.3486" cy="22.8952" r="4" fill="#0" id="circle34"/>
	<circle cx="60.6857" cy="508.503" r="4" fill="#0" id="circle35"/>
	<circle cx="68.2438" cy="4" r="4" fill="#0" id="circle36"/>
	<circle cx="68.2438" cy="527.398" r="4" fill="#0" id="circle37"/>
	<circle cx="68.2438" cy="563.299" r="4" fill="#0" id="circle38"/>
	<circle cx="73.9124" cy="582.194" r="4" fill="#0" id="circle39"/>
	<circle cx="77.6914" cy="21.0057" r="4" fill="#0" id="circle40"/>
	<circle cx="77.6914" cy="39.901" r="4" fill="#0" id="circle41"/>
	<circle cx="81.4705" cy="58.7962" r="4" fill="#0" id="circle42"/>
	<circle cx="81.4705" cy="77.6914" r="4" fill="#0" id="circle43"/>
	<circle cx="89.0286" cy="96.5867" r="4" fill="#0" id="circle44"/>
	<circle cx="89.0286" cy="211.848" r="4" fill="#0" id="circle45"/>
	<circle cx="92.8076" cy="115.482" r="4" fill="#0" id="circle46"/>
	<circle cx="92.8076" cy="181.615" r="4" fill="#0" id="circle47"/>
	<circle cx="92.8076" cy="559.52" r="4" fill="#0" id="circle48"/>
	<circle cx="92.8076" cy="585.973" r="4" fill="#0" id="circle49"/>
	<circle cx="96.5867" cy="134.377" r="4" fill="#0" id="circle50"/>
	<circle cx="96.5867" cy="514.171" r="4" fill="#0" id="circle51"/>
	<circle cx="96.5867" cy="533.067" r="4" fill="#0" id="circle52"/>
	<circle cx="100.366" cy="153.272" r="4" fill="#0" id="circle53"/>
	<circle cx="107.924" cy="215.627" r="4" fill="#0" id="circle54"/>
	<circle cx="115.482" cy="512.282" r="4" fill="#0" id="circle55"/>
	<circle cx="126.819" cy="208.069" r="4" fill="#0" id="circle56"/>
	<circle cx="134.377" cy="512.282" r="4" fill="#0" id="circle57"/>
	<circle cx="145.714" cy="208.069" r="4" fill="#0" id="circle58"/>
	<circle cx="153.272" cy="512.282" r="4" fill="#0" id="circle59"/>
	<circle cx="164.61" cy="211.848" r="4" fill="#0" id="circle60"/>
	<circle cx="172.168" cy="512.282" r="4" fill="#0" id="circle61"/>
	<circle cx="183.505" cy="219.406" r="4" fill="#0" id="circle62"/>
	<circle cx="191.063" cy="512.282" r="4" fill="#0" id="circle63"/>
	<circle cx="198.621" cy="230.743" r="4" fill="#0" id="circle64"/>
	<circle cx="209.958" cy="512.282" r="4" fill="#0" id="circle65"/>
	<circle cx="217.516" cy="234.522" r="4" fill="#0" id="circle66"/>
	<circle cx="228.853" cy="512.282" r="4" fill="#0" id="circle67"/>
	<circle cx="236.411" cy="234.522" r="4" fill="#0" id="circle68"/>
	<circle cx="247.749" cy="512.282" r="4" fill="#0" id="circle69"/>
	<circle cx="255.307" cy="230.743" r="4" fill="#0" id="circle70"/>
	<circle cx="266.644" cy="512.282" r="4" fill="#0" id="circle71"/>
	<circle cx="274.202" cy="230.743" r="4" fill="#0" id="circle72"/>
	<circle cx="285.539" cy="512.282" r="4" fill="#0" id="circle73"/>
	<circle cx="293.097" cy="234.522" r="4" fill="#0" id="circle74"/>
	<circle cx="304.434" cy="512.282" r="4" fill="#0" id="circle75"/>
	<circle cx="311.992" cy="242.08" r="4" fill="#0" id="circle76"/>
	<circle cx="323.33" cy="512.282" r="4" fill="#0" id="circle77"/>
	<circle cx="330.888" cy="249.638" r="4" fill="#0" id="circle78"/>
	<circle cx="342.225" cy="512.282" r="4" fill="#0" id="circle79"/>
	<circle cx="347.893" cy="259.086" r="4" fill="#0" id="circle80"/>
	<circle cx="361.12" cy="512.282" r="4" fill="#0" id="circle81"/>
	<circle cx="363.01" cy="270.423" r="4" fill="#0" id="circle82"/>
	<circle cx="376.236" cy="285.539" r="4" fill="#0" id="circle83"/>
	<circle cx="380.015" cy="512.282" r="4" fill="#0" id="circle84"/>
	<circle cx="385.684" cy="302.545" r="4" fill="#0" id="circle85"/>
	<circle cx="395.131" cy="319.55" r="4" fill="#0" id="circle86"/>
	<circle cx="398.91" cy="512.282" r="4" fill="#0" id="circle87"/>
	<circle cx="410.248" cy="332.777" r="4" fill="#0" id="circle88"/>
	<circle cx="417.806" cy="512.282" r="4" fill="#0" id="circle89"/>
	<circle cx="429.143" cy="336.556" r="4" fill="#0" id="circle90"/>
	<circle cx="436.701" cy="512.282" r="4" fill="#0" id="circle91"/>
	<circle cx="448.038" cy="336.556" r="4" fill="#0" id="circle92"/>
	<circle cx="455.596" cy="512.282" r="4" fill="#0" id="circle93"/>
	<circle cx="466.933" cy="336.556" r="4" fill="#0" id="circle94"/>
	<circle cx="474.491" cy="512.282" r="4" fill="#0" id="circle95"/>
	<circle cx="485.829" cy="336.556" r="4" fill="#0" id="circle96"/>
	<circle cx="493.387" cy="512.282" r="4" fill="#0" id="circle97"/>
	<circle cx="504.724" cy="336.556" r="4" fill="#0" id="circle98"/>
	<circle cx="512.282" cy="512.282" r="4" fill="#0" id="circle99"/>
	<circle cx="523.619" cy="336.556" r="4" fill="#0" id="circle100"/>
	<circle cx="531.177" cy="512.282" r="4" fill="#0" id="circle101"/>
	<circle cx="542.514" cy="336.556" r="4" fill="#0" id="circle102"/>
	<circle cx="550.072" cy="512.282" r="4" fill="#0" id="circle103"/>
	<circle cx="561.41" cy="336.556" r="4" fill="#0" id="circle104"/>
	<circle cx="568.968" cy="512.282" r="4" fill="#0" id="circle105"/>
	<circle cx="580.305" cy="336.556" r="4" fill="#0" id="circle106"/>
	<circle cx="587.863" cy="512.282" r="4" fill="#0" id="circle107"/>
	<circle cx="599.2" cy="336.556" r="4" fill="#0" id="circle108"/>
	<circle cx="606.758" cy="512.282" r="4" fill="#0" id="circle109"/>
	<circle cx="618.095" cy="336.556" r="4" fill="#0" id="circle110"/>
	<circle cx="625.653" cy="512.282" r="4" fill="#0" id="circle111"/>
	<circle cx="636.99" cy="336.556" r="4" fill="#0" id="circle112"/>
	<circle cx="644.549" cy="512.282" r="4" fill="#0" id="circle113"/>
	<circle cx="655.886" cy="336.556" r="4" fill="#0" id="circle114"/>
	<circle cx="663.444" cy="512.282" r="4" fill="#0" id="circle115"/>
	<circle cx="674.781" cy="336.556" r="4" fill="#0" id="circle116"/>
	<circle cx="682.339" cy="512.282" r="4" fill="#0" id="circle117"/>
	<circle cx="693.676" cy="336.556" r="4" fill="#0" id="circle118"/>
	<circle cx="701.234" cy="512.282" r="4" fill="#0" id="circle119"/>
	<circle cx="712.571" cy="336.556" r="4" fill="#0" id="circle120"/>
	<circle cx="720.13" cy="512.282" r="4" fill="#0" id="circle121"/>
	<circle cx="731.467" cy="340.335" r="4" fill="#0" id="circle122"/>
	<circle cx="739.025" cy="512.282" r="4" fill="#0" id="circle123"/>
	<circle cx="750.362" cy="340.335" r="4" fill="#0" id="circle124"/>
	<circle cx="757.92" cy="512.282" r="4" fill="#0" id="circle125"/>
	<circle cx="769.257" cy="340.335" r="4" fill="#0" id="circle126"/>
	<circle cx="776.815" cy="512.282" r="4" fill="#0" id="circle127"/>
	<circle cx="788.152" cy="340.335" r="4" fill="#0" id="circle128"/>
	<circle cx="795.71" cy="512.282" r="4" fill="#0" id="circle129"/>
	<circle cx="807.048" cy="340.335" r="4" fill="#0" id="circle130"/>
	<circle cx="814.606" cy="512.282" r="4" fill="#0" id="circle131"/>
	<circle cx="825.943" cy="344.114" r="4" fill="#0" id="circle132"/>
	<circle cx="833.501" cy="512.282" r="4" fill="#0" id="circle133"/>
	<circle cx="844.838" cy="344.114" r="4" fill="#0" id="circle134"/>
	<circle cx="852.396" cy="512.282" r="4" fill="#0" id="circle135"/>
	<circle cx="863.733" cy="347.893" r="4" fill="#0" id="circle136"/>
	<circle cx="871.291" cy="512.282" r="4" fill="#0" id="circle137"/>
	<circle cx="882.629" cy="347.893" r="4" fill="#0" id="circle138"/>
	<circle cx="890.187" cy="512.282" r="4" fill="#0" id="circle139"/>
	<circle cx="899.634" cy="332.777" r="4" fill="#0" id="circle140"/>
	<circle cx="899.634" cy="529.288" r="4" fill="#0" id="circle141"/>
	<circle cx="903.413" cy="548.183" r="4" fill="#0" id="circle142"/>
	<circle cx="903.413" cy="567.078" r="4" fill="#0" id="circle143"/>
	<circle cx="909.082" cy="315.771" r="4" fill="#0" id="circle144"/>
	<circle cx="912.861" cy="584.084" r="4" fill="#0" id="circle145"/>
	<circle cx="924.198" cy="300.655" r="4" fill="#0" id="circle146"/>
	<circle cx="927.977" cy="281.76" r="4" fill="#0" id="circle147"/>
	<circle cx="927.977" cy="563.299" r="4" fill="#0" id="circle148"/>
	<circle cx="931.756" cy="582.194" r="4" fill="#0" id="circle149"/>
	<circle cx="933.646" cy="257.196" r="4" fill="#0" id="circle150"/>
	<circle cx="939.314" cy="548.183" r="4" fill="#0" id="circle151"/>
	<circle cx="952.541" cy="253.417" r="4" fill="#0" id="circle152"/>
	<circle cx="958.21" cy="548.183" r="4" fill="#0" id="circle153"/>
	<circle cx="961.989" cy="270.423" r="4" fill="#0" id="circle154"/>
	<circle cx="963.878" cy="567.078" r="4" fill="#0" id="circle155"/>
	<circle cx="965.768" cy="289.318" r="4" fill="#0" id="circle156"/>
	<circle cx="973.326" cy="308.213" r="4" fill="#0" id="circle157"/>
	<circle cx="973.326" cy="584.084" r="4" fill="#0" id="circle158"/>
	<circle cx="984.663" cy="323.33" r="4" fill="#0" id="circle159"/>
	<circle cx="988.442" cy="342.225" r="4" fill="#0" id="circle160"/>
	<circle cx="988.442" cy="495.276" r="4" fill="#0" id="circle161"/>
	<circle cx="988.442" cy="514.171" r="4" fill="#0" id="circle162"/>
	<circle cx="988.442" cy="559.52" r="4" fill="#0" id="circle163"/>
	<circle cx="992.221" cy="361.12" r="4" fill="#0" id="circle164"/>
	<circle cx="992.221" cy="385.684" r="4" fill="#0" id="circle165"/>
	<circle cx="992.221" cy="404.579" r="4" fill="#0" id="circle166"/>
	<circle cx="992.221" cy="423.474" r="4" fill="#0" id="circle167"/>
	<circle cx="992.221" cy="442.37" r="4" fill="#0" id="circle168"/>
	<circle cx="992.221" cy="461.265" r="4" fill="#0" id="circle169"/>
	<circle cx="992.221" cy="582.194" r="4" fill="#0" id="circle170"/>
	<circle cx="996" cy="533.067" r="4" fill="#0" id="circle171"/>
	</g>
</svg>