<?xml version="1.0" encoding="UTF-8" standalone="no"?>
<!-- Created with CurveBenchmark -->
<svg
	xmlns:dc="http://purl.org/dc/elements/1.1/"
	xmlns:cc="http://creativecommons.org/ns#"
	xmlns:rdf="http://www.w3.org/1999/02/22-rdf-syntax-ns#"
	xmlns:svg="http://www.w3.org/2000/svg"
	xmlns="http://www.w3.org/2000/svg"
	xmlns:sodipodi="http://sodipodi.sourceforge.net/DTD/sodipodi-0.dtd"
	xmlns:inkscape="http://www.inkscape.org/namespaces/inkscape"
	width="1000"
	height="1000"
	id="svg2"
	version="1.1"
	sodipodi:docname="manifold/crawl-mountaincottontailocc2.png.txt">
<defs
	id="defs4" />
<metadata
	id="metadata7">
	<rdf:RDF>
		<cc:Work
			rdf:about="">
			<dc:format>image/svg+xml</dc:format>
			<dc:type
				rdf:resource="http://purl.org/dc/dcmitype/StillImage" />
			<dc:title></dc:title>
		</cc:Work>
	</rdf:RDF>
</metadata>
<g
	inkscape:label="Layer 1"
	inkscape:groupmode="layer"
	id="layer1">
	<path style="fill:none;stroke:red;stroke-width:1px;stroke-linecap:butt;stroke-linejoin:miter;stroke-opacity:1" d="M 4,354.118 4,374.958 z" id="boundary" inkscape:connector-curvature="0" />
	<path style="fill:none;stroke:red;stroke-width:1px;stroke-linecap:butt;stroke-linejoin:miter;stroke-opacity:1" d="M 4,374.958 4,395.798 z" id="boundary" inkscape:connector-curvature="0" />
	<path style="fill:none;stroke:red;stroke-width:1px;stroke-linecap:butt;stroke-linejoin:miter;stroke-opacity:1" d="M 4,395.798 4,416.639 z" id="boundary" inkscape:connector-curvature="0" />
	<path style="fill:none;stroke:red;stroke-width:1px;stroke-linecap:butt;stroke-linejoin:miter;stroke-opacity:1" d="M 4,416.639 20.6723,431.227 z" id="boundary" inkscape:connector-curvature="0" />
	<path style="fill:none;stroke:red;stroke-width:1px;stroke-linecap:butt;stroke-linejoin:miter;stroke-opacity:1" d="M 20.6723,431.227 35.2605,447.899 z" id="boundary" inkscape:connector-curvature="0" />
	<path style="fill:none;stroke:red;stroke-width:1px;stroke-linecap:butt;stroke-linejoin:miter;stroke-opacity:1" d="M 35.2605,447.899 56.1008,454.151 z" id="boundary" inkscape:connector-curvature="0" />
	<path style="fill:none;stroke:red;stroke-width:1px;stroke-linecap:butt;stroke-linejoin:miter;stroke-opacity:1" d="M 56.1008,454.151 74.8571,464.571 z" id="boundary" inkscape:connector-curvature="0" />
	<path style="fill:none;stroke:red;stroke-width:1px;stroke-linecap:butt;stroke-linejoin:miter;stroke-opacity:1" d="M 74.8571,464.571 93.6134,474.992 z" id="boundary" inkscape:connector-curvature="0" />
	<path style="fill:none;stroke:red;stroke-width:1px;stroke-linecap:butt;stroke-linejoin:miter;stroke-opacity:1" d="M 93.6134,474.992 112.37,464.571 z" id="boundary" inkscape:connector-curvature="0" />
	<path style="fill:none;stroke:red;stroke-width:1px;stroke-linecap:butt;stroke-linejoin:miter;stroke-opacity:1" d="M 112.37,464.571 129.042,477.076 z" id="boundary" inkscape:connector-curvature="0" />
	<path style="fill:none;stroke:red;stroke-width:1px;stroke-linecap:butt;stroke-linejoin:miter;stroke-opacity:1" d="M 129.042,477.076 149.882,474.992 z" id="boundary" inkscape:connector-curvature="0" />
	<path style="fill:none;stroke:red;stroke-width:1px;stroke-linecap:butt;stroke-linejoin:miter;stroke-opacity:1" d="M 149.882,474.992 168.639,485.412 z" id="boundary" inkscape:connector-curvature="0" />
	<path style="fill:none;stroke:red;stroke-width:1px;stroke-linecap:butt;stroke-linejoin:miter;stroke-opacity:1" d="M 168.639,485.412 187.395,495.832 z" id="boundary" inkscape:connector-curvature="0" />
	<path style="fill:none;stroke:red;stroke-width:1px;stroke-linecap:butt;stroke-linejoin:miter;stroke-opacity:1" d="M 187.395,495.832 201.983,512.504 z" id="boundary" inkscape:connector-curvature="0" />
	<path style="fill:none;stroke:red;stroke-width:1px;stroke-linecap:butt;stroke-linejoin:miter;stroke-opacity:1" d="M 201.983,512.504 218.655,527.092 z" id="boundary" inkscape:connector-curvature="0" />
	<path style="fill:none;stroke:red;stroke-width:1px;stroke-linecap:butt;stroke-linejoin:miter;stroke-opacity:1" d="M 218.655,527.092 235.328,541.681 z" id="boundary" inkscape:connector-curvature="0" />
	<path style="fill:none;stroke:red;stroke-width:1px;stroke-linecap:butt;stroke-linejoin:miter;stroke-opacity:1" d="M 235.328,541.681 249.916,558.353 z" id="boundary" inkscape:connector-curvature="0" />
	<path style="fill:none;stroke:red;stroke-width:1px;stroke-linecap:butt;stroke-linejoin:miter;stroke-opacity:1" d="M 249.916,558.353 264.504,575.025 z" id="boundary" inkscape:connector-curvature="0" />
	<path style="fill:none;stroke:red;stroke-width:1px;stroke-linecap:butt;stroke-linejoin:miter;stroke-opacity:1" d="M 4,354.118 14.4202,322.857 z" id="boundary" inkscape:connector-curvature="0" />
	<path style="fill:none;stroke:red;stroke-width:1px;stroke-linecap:butt;stroke-linejoin:miter;stroke-opacity:1" d="M 14.4202,322.857 24.8403,302.017 z" id="boundary" inkscape:connector-curvature="0" />
	<path style="fill:none;stroke:red;stroke-width:1px;stroke-linecap:butt;stroke-linejoin:miter;stroke-opacity:1" d="M 24.8403,302.017 24.8403,279.092 z" id="boundary" inkscape:connector-curvature="0" />
	<path style="fill:none;stroke:red;stroke-width:1px;stroke-linecap:butt;stroke-linejoin:miter;stroke-opacity:1" d="M 24.8403,279.092 14.4202,260.336 z" id="boundary" inkscape:connector-curvature="0" />
	<path style="fill:none;stroke:red;stroke-width:1px;stroke-linecap:butt;stroke-linejoin:miter;stroke-opacity:1" d="M 14.4202,260.336 45.6807,249.916 z" id="boundary" inkscape:connector-curvature="0" />
	<path style="fill:none;stroke:red;stroke-width:1px;stroke-linecap:butt;stroke-linejoin:miter;stroke-opacity:1" d="M 45.6807,249.916 45.6807,270.756 z" id="boundary" inkscape:connector-curvature="0" />
	<path style="fill:none;stroke:red;stroke-width:1px;stroke-linecap:butt;stroke-linejoin:miter;stroke-opacity:1" d="M 264.504,575.025 270.756,608.37 z" id="boundary" inkscape:connector-curvature="0" />
	<path style="fill:none;stroke:red;stroke-width:1px;stroke-linecap:butt;stroke-linejoin:miter;stroke-opacity:1" d="M 270.756,608.37 249.916,608.37 z" id="boundary" inkscape:connector-curvature="0" />
	<path style="fill:none;stroke:red;stroke-width:1px;stroke-linecap:butt;stroke-linejoin:miter;stroke-opacity:1" d="M 249.916,608.37 229.076,608.37 z" id="boundary" inkscape:connector-curvature="0" />
	<path style="fill:none;stroke:red;stroke-width:1px;stroke-linecap:butt;stroke-linejoin:miter;stroke-opacity:1" d="M 229.076,608.37 208.235,618.79 z" id="boundary" inkscape:connector-curvature="0" />
	<path style="fill:none;stroke:red;stroke-width:1px;stroke-linecap:butt;stroke-linejoin:miter;stroke-opacity:1" d="M 208.235,618.79 191.563,635.462 z" id="boundary" inkscape:connector-curvature="0" />
	<path style="fill:none;stroke:red;stroke-width:1px;stroke-linecap:butt;stroke-linejoin:miter;stroke-opacity:1" d="M 191.563,635.462 201.983,654.218 z" id="boundary" inkscape:connector-curvature="0" />
	<path style="fill:none;stroke:red;stroke-width:1px;stroke-linecap:butt;stroke-linejoin:miter;stroke-opacity:1" d="M 201.983,654.218 222.824,662.555 z" id="boundary" inkscape:connector-curvature="0" />
	<path style="fill:none;stroke:red;stroke-width:1px;stroke-linecap:butt;stroke-linejoin:miter;stroke-opacity:1" d="M 222.824,662.555 241.58,672.975 z" id="boundary" inkscape:connector-curvature="0" />
	<path style="fill:none;stroke:red;stroke-width:1px;stroke-linecap:butt;stroke-linejoin:miter;stroke-opacity:1" d="M 241.58,672.975 260.336,662.555 z" id="boundary" inkscape:connector-curvature="0" />
	<path style="fill:none;stroke:red;stroke-width:1px;stroke-linecap:butt;stroke-linejoin:miter;stroke-opacity:1" d="M 260.336,662.555 281.176,662.555 z" id="boundary" inkscape:connector-curvature="0" />
	<path style="fill:none;stroke:red;stroke-width:1px;stroke-linecap:butt;stroke-linejoin:miter;stroke-opacity:1" d="M 281.176,662.555 302.017,660.471 z" id="boundary" inkscape:connector-curvature="0" />
	<path style="fill:none;stroke:red;stroke-width:1px;stroke-linecap:butt;stroke-linejoin:miter;stroke-opacity:1" d="M 302.017,660.471 318.689,641.714 z" id="boundary" inkscape:connector-curvature="0" />
	<path style="fill:none;stroke:red;stroke-width:1px;stroke-linecap:butt;stroke-linejoin:miter;stroke-opacity:1" d="M 318.689,641.714 339.529,641.714 z" id="boundary" inkscape:connector-curvature="0" />
	<path style="fill:none;stroke:red;stroke-width:1px;stroke-linecap:butt;stroke-linejoin:miter;stroke-opacity:1" d="M 339.529,641.714 360.37,641.714 z" id="boundary" inkscape:connector-curvature="0" />
	<path style="fill:none;stroke:red;stroke-width:1px;stroke-linecap:butt;stroke-linejoin:miter;stroke-opacity:1" d="M 360.37,641.714 379.126,631.294 z" id="boundary" inkscape:connector-curvature="0" />
	<path style="fill:none;stroke:red;stroke-width:1px;stroke-linecap:butt;stroke-linejoin:miter;stroke-opacity:1" d="M 379.126,631.294 399.966,625.042 z" id="boundary" inkscape:connector-curvature="0" />
	<path style="fill:none;stroke:red;stroke-width:1px;stroke-linecap:butt;stroke-linejoin:miter;stroke-opacity:1" d="M 399.966,625.042 420.807,625.042 z" id="boundary" inkscape:connector-curvature="0" />
	<path style="fill:none;stroke:red;stroke-width:1px;stroke-linecap:butt;stroke-linejoin:miter;stroke-opacity:1" d="M 420.807,625.042 431.227,645.882 z" id="boundary" inkscape:connector-curvature="0" />
	<path style="fill:none;stroke:red;stroke-width:1px;stroke-linecap:butt;stroke-linejoin:miter;stroke-opacity:1" d="M 431.227,645.882 447.899,631.294 z" id="boundary" inkscape:connector-curvature="0" />
	<path style="fill:none;stroke:red;stroke-width:1px;stroke-linecap:butt;stroke-linejoin:miter;stroke-opacity:1" d="M 447.899,631.294 447.899,660.471 z" id="boundary" inkscape:connector-curvature="0" />
	<path style="fill:none;stroke:red;stroke-width:1px;stroke-linecap:butt;stroke-linejoin:miter;stroke-opacity:1" d="M 447.899,660.471 462.487,677.143 z" id="boundary" inkscape:connector-curvature="0" />
	<path style="fill:none;stroke:red;stroke-width:1px;stroke-linecap:butt;stroke-linejoin:miter;stroke-opacity:1" d="M 462.487,677.143 483.328,683.395 z" id="boundary" inkscape:connector-curvature="0" />
	<path style="fill:none;stroke:red;stroke-width:1px;stroke-linecap:butt;stroke-linejoin:miter;stroke-opacity:1" d="M 483.328,683.395 504.168,683.395 z" id="boundary" inkscape:connector-curvature="0" />
	<path style="fill:none;stroke:red;stroke-width:1px;stroke-linecap:butt;stroke-linejoin:miter;stroke-opacity:1" d="M 504.168,683.395 525.008,683.395 z" id="boundary" inkscape:connector-curvature="0" />
	<path style="fill:none;stroke:red;stroke-width:1px;stroke-linecap:butt;stroke-linejoin:miter;stroke-opacity:1" d="M 525.008,683.395 545.849,683.395 z" id="boundary" inkscape:connector-curvature="0" />
	<path style="fill:none;stroke:red;stroke-width:1px;stroke-linecap:butt;stroke-linejoin:miter;stroke-opacity:1" d="M 545.849,683.395 566.689,683.395 z" id="boundary" inkscape:connector-curvature="0" />
	<path style="fill:none;stroke:red;stroke-width:1px;stroke-linecap:butt;stroke-linejoin:miter;stroke-opacity:1" d="M 566.689,683.395 587.529,683.395 z" id="boundary" inkscape:connector-curvature="0" />
	<path style="fill:none;stroke:red;stroke-width:1px;stroke-linecap:butt;stroke-linejoin:miter;stroke-opacity:1" d="M 587.529,683.395 608.37,683.395 z" id="boundary" inkscape:connector-curvature="0" />
	<path style="fill:none;stroke:red;stroke-width:1px;stroke-linecap:butt;stroke-linejoin:miter;stroke-opacity:1" d="M 608.37,683.395 629.21,683.395 z" id="boundary" inkscape:connector-curvature="0" />
	<path style="fill:none;stroke:red;stroke-width:1px;stroke-linecap:butt;stroke-linejoin:miter;stroke-opacity:1" d="M 629.21,683.395 650.05,683.395 z" id="boundary" inkscape:connector-curvature="0" />
	<path style="fill:none;stroke:red;stroke-width:1px;stroke-linecap:butt;stroke-linejoin:miter;stroke-opacity:1" d="M 650.05,683.395 670.891,677.143 z" id="boundary" inkscape:connector-curvature="0" />
	<path style="fill:none;stroke:red;stroke-width:1px;stroke-linecap:butt;stroke-linejoin:miter;stroke-opacity:1" d="M 670.891,677.143 691.731,672.975 z" id="boundary" inkscape:connector-curvature="0" />
	<path style="fill:none;stroke:red;stroke-width:1px;stroke-linecap:butt;stroke-linejoin:miter;stroke-opacity:1" d="M 691.731,672.975 712.571,672.975 z" id="boundary" inkscape:connector-curvature="0" />
	<path style="fill:none;stroke:red;stroke-width:1px;stroke-linecap:butt;stroke-linejoin:miter;stroke-opacity:1" d="M 712.571,672.975 733.412,672.975 z" id="boundary" inkscape:connector-curvature="0" />
	<path style="fill:none;stroke:red;stroke-width:1px;stroke-linecap:butt;stroke-linejoin:miter;stroke-opacity:1" d="M 733.412,672.975 754.252,672.975 z" id="boundary" inkscape:connector-curvature="0" />
	<path style="fill:none;stroke:red;stroke-width:1px;stroke-linecap:butt;stroke-linejoin:miter;stroke-opacity:1" d="M 754.252,672.975 775.092,672.975 z" id="boundary" inkscape:connector-curvature="0" />
	<path style="fill:none;stroke:red;stroke-width:1px;stroke-linecap:butt;stroke-linejoin:miter;stroke-opacity:1" d="M 775.092,672.975 795.933,672.975 z" id="boundary" inkscape:connector-curvature="0" />
	<path style="fill:none;stroke:red;stroke-width:1px;stroke-linecap:butt;stroke-linejoin:miter;stroke-opacity:1" d="M 795.933,672.975 816.773,672.975 z" id="boundary" inkscape:connector-curvature="0" />
	<path style="fill:none;stroke:red;stroke-width:1px;stroke-linecap:butt;stroke-linejoin:miter;stroke-opacity:1" d="M 816.773,672.975 835.529,662.555 z" id="boundary" inkscape:connector-curvature="0" />
	<path style="fill:none;stroke:red;stroke-width:1px;stroke-linecap:butt;stroke-linejoin:miter;stroke-opacity:1" d="M 835.529,662.555 856.37,658.387 z" id="boundary" inkscape:connector-curvature="0" />
	<path style="fill:none;stroke:red;stroke-width:1px;stroke-linecap:butt;stroke-linejoin:miter;stroke-opacity:1" d="M 856.37,658.387 870.958,641.714 z" id="boundary" inkscape:connector-curvature="0" />
	<path style="fill:none;stroke:red;stroke-width:1px;stroke-linecap:butt;stroke-linejoin:miter;stroke-opacity:1" d="M 870.958,641.714 891.798,620.874 z" id="boundary" inkscape:connector-curvature="0" />
	<path style="fill:none;stroke:red;stroke-width:1px;stroke-linecap:butt;stroke-linejoin:miter;stroke-opacity:1" d="M 891.798,620.874 908.471,606.286 z" id="boundary" inkscape:connector-curvature="0" />
	<path style="fill:none;stroke:red;stroke-width:1px;stroke-linecap:butt;stroke-linejoin:miter;stroke-opacity:1" d="M 908.471,606.286 923.059,583.361 z" id="boundary" inkscape:connector-curvature="0" />
	<path style="fill:none;stroke:red;stroke-width:1px;stroke-linecap:butt;stroke-linejoin:miter;stroke-opacity:1" d="M 923.059,583.361 923.059,562.521 z" id="boundary" inkscape:connector-curvature="0" />
	<path style="fill:none;stroke:red;stroke-width:1px;stroke-linecap:butt;stroke-linejoin:miter;stroke-opacity:1" d="M 923.059,562.521 912.639,543.765 z" id="boundary" inkscape:connector-curvature="0" />
	<path style="fill:none;stroke:red;stroke-width:1px;stroke-linecap:butt;stroke-linejoin:miter;stroke-opacity:1" d="M 912.639,543.765 902.218,525.008 z" id="boundary" inkscape:connector-curvature="0" />
	<path style="fill:none;stroke:red;stroke-width:1px;stroke-linecap:butt;stroke-linejoin:miter;stroke-opacity:1" d="M 902.218,525.008 891.798,506.252 z" id="boundary" inkscape:connector-curvature="0" />
	<path style="fill:none;stroke:red;stroke-width:1px;stroke-linecap:butt;stroke-linejoin:miter;stroke-opacity:1" d="M 891.798,506.252 891.798,485.412 z" id="boundary" inkscape:connector-curvature="0" />
	<path style="fill:none;stroke:red;stroke-width:1px;stroke-linecap:butt;stroke-linejoin:miter;stroke-opacity:1" d="M 891.798,485.412 891.798,464.571 z" id="boundary" inkscape:connector-curvature="0" />
	<path style="fill:none;stroke:red;stroke-width:1px;stroke-linecap:butt;stroke-linejoin:miter;stroke-opacity:1" d="M 891.798,464.571 891.798,443.731 z" id="boundary" inkscape:connector-curvature="0" />
	<path style="fill:none;stroke:red;stroke-width:1px;stroke-linecap:butt;stroke-linejoin:miter;stroke-opacity:1" d="M 891.798,443.731 891.798,422.891 z" id="boundary" inkscape:connector-curvature="0" />
	<path style="fill:none;stroke:red;stroke-width:1px;stroke-linecap:butt;stroke-linejoin:miter;stroke-opacity:1" d="M 891.798,422.891 885.546,402.05 z" id="boundary" inkscape:connector-curvature="0" />
	<path style="fill:none;stroke:red;stroke-width:1px;stroke-linecap:butt;stroke-linejoin:miter;stroke-opacity:1" d="M 885.546,402.05 881.378,381.21 z" id="boundary" inkscape:connector-curvature="0" />
	<path style="fill:none;stroke:red;stroke-width:1px;stroke-linecap:butt;stroke-linejoin:miter;stroke-opacity:1" d="M 881.378,381.21 902.218,381.21 z" id="boundary" inkscape:connector-curvature="0" />
	<path style="fill:none;stroke:red;stroke-width:1px;stroke-linecap:butt;stroke-linejoin:miter;stroke-opacity:1" d="M 902.218,381.21 923.059,381.21 z" id="boundary" inkscape:connector-curvature="0" />
	<path style="fill:none;stroke:red;stroke-width:1px;stroke-linecap:butt;stroke-linejoin:miter;stroke-opacity:1" d="M 923.059,381.21 943.899,381.21 z" id="boundary" inkscape:connector-curvature="0" />
	<path style="fill:none;stroke:red;stroke-width:1px;stroke-linecap:butt;stroke-linejoin:miter;stroke-opacity:1" d="M 943.899,381.21 964.739,381.21 z" id="boundary" inkscape:connector-curvature="0" />
	<path style="fill:none;stroke:red;stroke-width:1px;stroke-linecap:butt;stroke-linejoin:miter;stroke-opacity:1" d="M 964.739,381.21 985.58,381.21 z" id="boundary" inkscape:connector-curvature="0" />
	<path style="fill:none;stroke:red;stroke-width:1px;stroke-linecap:butt;stroke-linejoin:miter;stroke-opacity:1" d="M 985.58,381.21 996,352.034 z" id="boundary" inkscape:connector-curvature="0" />
	<path style="fill:none;stroke:red;stroke-width:1px;stroke-linecap:butt;stroke-linejoin:miter;stroke-opacity:1" d="M 996,352.034 996,331.193 z" id="boundary" inkscape:connector-curvature="0" />
	<path style="fill:none;stroke:red;stroke-width:1px;stroke-linecap:butt;stroke-linejoin:miter;stroke-opacity:1" d="M 996,331.193 996,310.353 z" id="boundary" inkscape:connector-curvature="0" />
	<path style="fill:none;stroke:red;stroke-width:1px;stroke-linecap:butt;stroke-linejoin:miter;stroke-opacity:1" d="M 996,310.353 996,289.513 z" id="boundary" inkscape:connector-curvature="0" />
	<path style="fill:none;stroke:red;stroke-width:1px;stroke-linecap:butt;stroke-linejoin:miter;stroke-opacity:1" d="M 996,289.513 996,268.672 z" id="boundary" inkscape:connector-curvature="0" />
	<path style="fill:none;stroke:red;stroke-width:1px;stroke-linecap:butt;stroke-linejoin:miter;stroke-opacity:1" d="M 996,268.672 996,247.832 z" id="boundary" inkscape:connector-curvature="0" />
	<path style="fill:none;stroke:red;stroke-width:1px;stroke-linecap:butt;stroke-linejoin:miter;stroke-opacity:1" d="M 996,247.832 996,226.992 z" id="boundary" inkscape:connector-curvature="0" />
	<path style="fill:none;stroke:red;stroke-width:1px;stroke-linecap:butt;stroke-linejoin:miter;stroke-opacity:1" d="M 996,226.992 996,206.151 z" id="boundary" inkscape:connector-curvature="0" />
	<path style="fill:none;stroke:red;stroke-width:1px;stroke-linecap:butt;stroke-linejoin:miter;stroke-opacity:1" d="M 996,206.151 996,185.311 z" id="boundary" inkscape:connector-curvature="0" />
	<path style="fill:none;stroke:red;stroke-width:1px;stroke-linecap:butt;stroke-linejoin:miter;stroke-opacity:1" d="M 996,185.311 996,164.471 z" id="boundary" inkscape:connector-curvature="0" />
	<path style="fill:none;stroke:red;stroke-width:1px;stroke-linecap:butt;stroke-linejoin:miter;stroke-opacity:1" d="M 996,164.471 993.916,143.63 z" id="boundary" inkscape:connector-curvature="0" />
	<path style="fill:none;stroke:red;stroke-width:1px;stroke-linecap:butt;stroke-linejoin:miter;stroke-opacity:1" d="M 993.916,143.63 973.076,139.462 z" id="boundary" inkscape:connector-curvature="0" />
	<path style="fill:none;stroke:red;stroke-width:1px;stroke-linecap:butt;stroke-linejoin:miter;stroke-opacity:1" d="M 973.076,139.462 952.235,139.462 z" id="boundary" inkscape:connector-curvature="0" />
	<path style="fill:none;stroke:red;stroke-width:1px;stroke-linecap:butt;stroke-linejoin:miter;stroke-opacity:1" d="M 952.235,139.462 931.395,139.462 z" id="boundary" inkscape:connector-curvature="0" />
	<path style="fill:none;stroke:red;stroke-width:1px;stroke-linecap:butt;stroke-linejoin:miter;stroke-opacity:1" d="M 931.395,139.462 910.555,139.462 z" id="boundary" inkscape:connector-curvature="0" />
	<path style="fill:none;stroke:red;stroke-width:1px;stroke-linecap:butt;stroke-linejoin:miter;stroke-opacity:1" d="M 910.555,139.462 889.714,139.462 z" id="boundary" inkscape:connector-curvature="0" />
	<path style="fill:none;stroke:red;stroke-width:1px;stroke-linecap:butt;stroke-linejoin:miter;stroke-opacity:1" d="M 889.714,139.462 868.874,139.462 z" id="boundary" inkscape:connector-curvature="0" />
	<path style="fill:none;stroke:red;stroke-width:1px;stroke-linecap:butt;stroke-linejoin:miter;stroke-opacity:1" d="M 868.874,139.462 848.034,139.462 z" id="boundary" inkscape:connector-curvature="0" />
	<path style="fill:none;stroke:red;stroke-width:1px;stroke-linecap:butt;stroke-linejoin:miter;stroke-opacity:1" d="M 848.034,139.462 827.193,139.462 z" id="boundary" inkscape:connector-curvature="0" />
	<path style="fill:none;stroke:red;stroke-width:1px;stroke-linecap:butt;stroke-linejoin:miter;stroke-opacity:1" d="M 827.193,139.462 806.353,139.462 z" id="boundary" inkscape:connector-curvature="0" />
	<path style="fill:none;stroke:red;stroke-width:1px;stroke-linecap:butt;stroke-linejoin:miter;stroke-opacity:1" d="M 806.353,139.462 785.513,145.714 z" id="boundary" inkscape:connector-curvature="0" />
	<path style="fill:none;stroke:red;stroke-width:1px;stroke-linecap:butt;stroke-linejoin:miter;stroke-opacity:1" d="M 785.513,145.714 785.513,166.555 z" id="boundary" inkscape:connector-curvature="0" />
	<path style="fill:none;stroke:red;stroke-width:1px;stroke-linecap:butt;stroke-linejoin:miter;stroke-opacity:1" d="M 785.513,166.555 785.513,187.395 z" id="boundary" inkscape:connector-curvature="0" />
	<path style="fill:none;stroke:red;stroke-width:1px;stroke-linecap:butt;stroke-linejoin:miter;stroke-opacity:1" d="M 785.513,187.395 762.588,193.647 z" id="boundary" inkscape:connector-curvature="0" />
	<path style="fill:none;stroke:red;stroke-width:1px;stroke-linecap:butt;stroke-linejoin:miter;stroke-opacity:1" d="M 762.588,193.647 745.916,181.143 z" id="boundary" inkscape:connector-curvature="0" />
	<path style="fill:none;stroke:red;stroke-width:1px;stroke-linecap:butt;stroke-linejoin:miter;stroke-opacity:1" d="M 745.916,181.143 727.16,170.723 z" id="boundary" inkscape:connector-curvature="0" />
	<path style="fill:none;stroke:red;stroke-width:1px;stroke-linecap:butt;stroke-linejoin:miter;stroke-opacity:1" d="M 727.16,170.723 708.403,160.303 z" id="boundary" inkscape:connector-curvature="0" />
	<path style="fill:none;stroke:red;stroke-width:1px;stroke-linecap:butt;stroke-linejoin:miter;stroke-opacity:1" d="M 708.403,160.303 687.563,160.303 z" id="boundary" inkscape:connector-curvature="0" />
	<path style="fill:none;stroke:red;stroke-width:1px;stroke-linecap:butt;stroke-linejoin:miter;stroke-opacity:1" d="M 687.563,160.303 666.723,151.966 z" id="boundary" inkscape:connector-curvature="0" />
	<path style="fill:none;stroke:red;stroke-width:1px;stroke-linecap:butt;stroke-linejoin:miter;stroke-opacity:1" d="M 666.723,151.966 647.966,141.546 z" id="boundary" inkscape:connector-curvature="0" />
	<path style="fill:none;stroke:red;stroke-width:1px;stroke-linecap:butt;stroke-linejoin:miter;stroke-opacity:1" d="M 647.966,141.546 627.126,139.462 z" id="boundary" inkscape:connector-curvature="0" />
	<path style="fill:none;stroke:red;stroke-width:1px;stroke-linecap:butt;stroke-linejoin:miter;stroke-opacity:1" d="M 627.126,139.462 606.286,139.462 z" id="boundary" inkscape:connector-curvature="0" />
	<path style="fill:none;stroke:red;stroke-width:1px;stroke-linecap:butt;stroke-linejoin:miter;stroke-opacity:1" d="M 606.286,139.462 587.529,129.042 z" id="boundary" inkscape:connector-curvature="0" />
	<path style="fill:none;stroke:red;stroke-width:1px;stroke-linecap:butt;stroke-linejoin:miter;stroke-opacity:1" d="M 587.529,129.042 566.689,129.042 z" id="boundary" inkscape:connector-curvature="0" />
	<path style="fill:none;stroke:red;stroke-width:1px;stroke-linecap:butt;stroke-linejoin:miter;stroke-opacity:1" d="M 566.689,129.042 545.849,122.79 z" id="boundary" inkscape:connector-curvature="0" />
	<path style="fill:none;stroke:red;stroke-width:1px;stroke-linecap:butt;stroke-linejoin:miter;stroke-opacity:1" d="M 545.849,122.79 525.008,118.622 z" id="boundary" inkscape:connector-curvature="0" />
	<path style="fill:none;stroke:red;stroke-width:1px;stroke-linecap:butt;stroke-linejoin:miter;stroke-opacity:1" d="M 525.008,118.622 504.168,124.874 z" id="boundary" inkscape:connector-curvature="0" />
	<path style="fill:none;stroke:red;stroke-width:1px;stroke-linecap:butt;stroke-linejoin:miter;stroke-opacity:1" d="M 504.168,124.874 483.328,129.042 z" id="boundary" inkscape:connector-curvature="0" />
	<path style="fill:none;stroke:red;stroke-width:1px;stroke-linecap:butt;stroke-linejoin:miter;stroke-opacity:1" d="M 483.328,129.042 462.487,129.042 z" id="boundary" inkscape:connector-curvature="0" />
	<path style="fill:none;stroke:red;stroke-width:1px;stroke-linecap:butt;stroke-linejoin:miter;stroke-opacity:1" d="M 462.487,129.042 441.647,129.042 z" id="boundary" inkscape:connector-curvature="0" />
	<path style="fill:none;stroke:red;stroke-width:1px;stroke-linecap:butt;stroke-linejoin:miter;stroke-opacity:1" d="M 441.647,129.042 420.807,135.294 z" id="boundary" inkscape:connector-curvature="0" />
	<path style="fill:none;stroke:red;stroke-width:1px;stroke-linecap:butt;stroke-linejoin:miter;stroke-opacity:1" d="M 420.807,135.294 399.966,139.462 z" id="boundary" inkscape:connector-curvature="0" />
	<path style="fill:none;stroke:red;stroke-width:1px;stroke-linecap:butt;stroke-linejoin:miter;stroke-opacity:1" d="M 399.966,139.462 379.126,145.714 z" id="boundary" inkscape:connector-curvature="0" />
	<path style="fill:none;stroke:red;stroke-width:1px;stroke-linecap:butt;stroke-linejoin:miter;stroke-opacity:1" d="M 379.126,145.714 358.286,156.134 z" id="boundary" inkscape:connector-curvature="0" />
	<path style="fill:none;stroke:red;stroke-width:1px;stroke-linecap:butt;stroke-linejoin:miter;stroke-opacity:1" d="M 358.286,156.134 337.445,160.303 z" id="boundary" inkscape:connector-curvature="0" />
	<path style="fill:none;stroke:red;stroke-width:1px;stroke-linecap:butt;stroke-linejoin:miter;stroke-opacity:1" d="M 337.445,160.303 318.689,170.723 z" id="boundary" inkscape:connector-curvature="0" />
	<path style="fill:none;stroke:red;stroke-width:1px;stroke-linecap:butt;stroke-linejoin:miter;stroke-opacity:1" d="M 318.689,170.723 297.849,166.555 z" id="boundary" inkscape:connector-curvature="0" />
	<path style="fill:none;stroke:red;stroke-width:1px;stroke-linecap:butt;stroke-linejoin:miter;stroke-opacity:1" d="M 297.849,166.555 277.008,160.303 z" id="boundary" inkscape:connector-curvature="0" />
	<path style="fill:none;stroke:red;stroke-width:1px;stroke-linecap:butt;stroke-linejoin:miter;stroke-opacity:1" d="M 277.008,160.303 266.588,141.546 z" id="boundary" inkscape:connector-curvature="0" />
	<path style="fill:none;stroke:red;stroke-width:1px;stroke-linecap:butt;stroke-linejoin:miter;stroke-opacity:1" d="M 45.6807,270.756 66.521,239.496 z" id="boundary" inkscape:connector-curvature="0" />
	<path style="fill:none;stroke:red;stroke-width:1px;stroke-linecap:butt;stroke-linejoin:miter;stroke-opacity:1" d="M 66.521,239.496 83.1933,222.824 z" id="boundary" inkscape:connector-curvature="0" />
	<path style="fill:none;stroke:red;stroke-width:1px;stroke-linecap:butt;stroke-linejoin:miter;stroke-opacity:1" d="M 83.1933,222.824 99.8655,206.151 z" id="boundary" inkscape:connector-curvature="0" />
	<path style="fill:none;stroke:red;stroke-width:1px;stroke-linecap:butt;stroke-linejoin:miter;stroke-opacity:1" d="M 99.8655,206.151 120.706,195.731 z" id="boundary" inkscape:connector-curvature="0" />
	<path style="fill:none;stroke:red;stroke-width:1px;stroke-linecap:butt;stroke-linejoin:miter;stroke-opacity:1" d="M 120.706,195.731 137.378,181.143 z" id="boundary" inkscape:connector-curvature="0" />
	<path style="fill:none;stroke:red;stroke-width:1px;stroke-linecap:butt;stroke-linejoin:miter;stroke-opacity:1" d="M 137.378,181.143 139.462,143.63 z" id="boundary" inkscape:connector-curvature="0" />
	<path style="fill:none;stroke:red;stroke-width:1px;stroke-linecap:butt;stroke-linejoin:miter;stroke-opacity:1" d="M 139.462,143.63 129.042,124.874 z" id="boundary" inkscape:connector-curvature="0" />
	<path style="fill:none;stroke:red;stroke-width:1px;stroke-linecap:butt;stroke-linejoin:miter;stroke-opacity:1" d="M 129.042,124.874 129.042,104.034 z" id="boundary" inkscape:connector-curvature="0" />
	<path style="fill:none;stroke:red;stroke-width:1px;stroke-linecap:butt;stroke-linejoin:miter;stroke-opacity:1" d="M 129.042,104.034 129.042,83.1933 z" id="boundary" inkscape:connector-curvature="0" />
	<path style="fill:none;stroke:red;stroke-width:1px;stroke-linecap:butt;stroke-linejoin:miter;stroke-opacity:1" d="M 129.042,83.1933 129.042,62.3529 z" id="boundary" inkscape:connector-curvature="0" />
	<path style="fill:none;stroke:red;stroke-width:1px;stroke-linecap:butt;stroke-linejoin:miter;stroke-opacity:1" d="M 129.042,62.3529 129.042,41.5126 z" id="boundary" inkscape:connector-curvature="0" />
	<path style="fill:none;stroke:red;stroke-width:1px;stroke-linecap:butt;stroke-linejoin:miter;stroke-opacity:1" d="M 129.042,41.5126 139.462,20.6723 z" id="boundary" inkscape:connector-curvature="0" />
	<path style="fill:none;stroke:red;stroke-width:1px;stroke-linecap:butt;stroke-linejoin:miter;stroke-opacity:1" d="M 139.462,20.6723 160.303,10.2521 z" id="boundary" inkscape:connector-curvature="0" />
	<path style="fill:none;stroke:red;stroke-width:1px;stroke-linecap:butt;stroke-linejoin:miter;stroke-opacity:1" d="M 160.303,10.2521 181.143,4 z" id="boundary" inkscape:connector-curvature="0" />
	<path style="fill:none;stroke:red;stroke-width:1px;stroke-linecap:butt;stroke-linejoin:miter;stroke-opacity:1" d="M 181.143,4 201.983,4 z" id="boundary" inkscape:connector-curvature="0" />
	<path style="fill:none;stroke:red;stroke-width:1px;stroke-linecap:butt;stroke-linejoin:miter;stroke-opacity:1" d="M 201.983,4 222.824,4 z" id="boundary" inkscape:connector-curvature="0" />
	<path style="fill:none;stroke:red;stroke-width:1px;stroke-linecap:butt;stroke-linejoin:miter;stroke-opacity:1" d="M 222.824,4 243.664,8.16807 z" id="boundary" inkscape:connector-curvature="0" />
	<path style="fill:none;stroke:red;stroke-width:1px;stroke-linecap:butt;stroke-linejoin:miter;stroke-opacity:1" d="M 243.664,8.16807 256.168,24.8403 z" id="boundary" inkscape:connector-curvature="0" />
	<path style="fill:none;stroke:red;stroke-width:1px;stroke-linecap:butt;stroke-linejoin:miter;stroke-opacity:1" d="M 256.168,24.8403 266.588,43.5966 z" id="boundary" inkscape:connector-curvature="0" />
	<path style="fill:none;stroke:red;stroke-width:1px;stroke-linecap:butt;stroke-linejoin:miter;stroke-opacity:1" d="M 266.588,43.5966 277.008,62.3529 z" id="boundary" inkscape:connector-curvature="0" />
	<path style="fill:none;stroke:red;stroke-width:1px;stroke-linecap:butt;stroke-linejoin:miter;stroke-opacity:1" d="M 277.008,62.3529 277.008,83.1933 z" id="boundary" inkscape:connector-curvature="0" />
	<path style="fill:none;stroke:red;stroke-width:1px;stroke-linecap:butt;stroke-linejoin:miter;stroke-opacity:1" d="M 277.008,83.1933 277.008,104.034 z" id="boundary" inkscape:connector-curvature="0" />
	<path style="fill:none;stroke:red;stroke-width:1px;stroke-linecap:butt;stroke-linejoin:miter;stroke-opacity:1" d="M 277.008,104.034 266.588,141.546 z" id="boundary" inkscape:connector-curvature="0" />
	<circle cx="4" cy="354.118" r="4" fill="#0" id="circle0"/>
	<circle cx="4" cy="374.958" r="4" fill="#0" id="circle1"/>
	<circle cx="4" cy="395.798" r="4" fill="#0" id="circle2"/>
	<circle cx="4" cy="416.639" r="4" fill="#0" id="circle3"/>
	<circle cx="14.4202" cy="260.336" r="4" fill="#0" id="circle4"/>
	<circle cx="14.4202" cy="322.857" r="4" fill="#0" id="circle5"/>
	<circle cx="20.6723" cy="431.227" r="4" fill="#0" id="circle6"/>
	<circle cx="24.8403" cy="279.092" r="4" fill="#0" id="circle7"/>
	<circle cx="24.8403" cy="302.017" r="4" fill="#0" id="circle8"/>
	<circle cx="35.2605" cy="447.899" r="4" fill="#0" id="circle9"/>
	<circle cx="45.6807" cy="249.916" r="4" fill="#0" id="circle10"/>
	<circle cx="45.6807" cy="270.756" r="4" fill="#0" id="circle11"/>
	<circle cx="56.1008" cy="454.151" r="4" fill="#0" id="circle12"/>
	<circle cx="66.521" cy="239.496" r="4" fill="#0" id="circle13"/>
	<circle cx="74.8571" cy="464.571" r="4" fill="#0" id="circle14"/>
	<circle cx="83.1933" cy="222.824" r="4" fill="#0" id="circle15"/>
	<circle cx="93.6134" cy="474.992" r="4" fill="#0" id="circle16"/>
	<circle cx="99.8655" cy="206.151" r="4" fill="#0" id="circle17"/>
	<circle cx="112.37" cy="464.571" r="4" fill="#0" id="circle18"/>
	<circle cx="120.706" cy="195.731" r="4" fill="#0" id="circle19"/>
	<circle cx="129.042" cy="41.5126" r="4" fill="#0" id="circle20"/>
	<circle cx="129.042" cy="62.3529" r="4" fill="#0" id="circle21"/>
	<circle cx="129.042" cy="83.1933" r="4" fill="#0" id="circle22"/>
	<circle cx="129.042" cy="104.034" r="4" fill="#0" id="circle23"/>
	<circle cx="129.042" cy="124.874" r="4" fill="#0" id="circle24"/>
	<circle cx="129.042" cy="477.076" r="4" fill="#0" id="circle25"/>
	<circle cx="137.378" cy="181.143" r="4" fill="#0" id="circle26"/>
	<circle cx="139.462" cy="20.6723" r="4" fill="#0" id="circle27"/>
	<circle cx="139.462" cy="143.63" r="4" fill="#0" id="circle28"/>
	<circle cx="149.882" cy="474.992" r="4" fill="#0" id="circle29"/>
	<circle cx="160.303" cy="10.2521" r="4" fill="#0" id="circle30"/>
	<circle cx="168.639" cy="485.412" r="4" fill="#0" id="circle31"/>
	<circle cx="181.143" cy="4" r="4" fill="#0" id="circle32"/>
	<circle cx="187.395" cy="495.832" r="4" fill="#0" id="circle33"/>
	<circle cx="191.563" cy="635.462" r="4" fill="#0" id="circle34"/>
	<circle cx="201.983" cy="4" r="4" fill="#0" id="circle35"/>
	<circle cx="201.983" cy="512.504" r="4" fill="#0" id="circle36"/>
	<circle cx="201.983" cy="654.218" r="4" fill="#0" id="circle37"/>
	<circle cx="208.235" cy="618.79" r="4" fill="#0" id="circle38"/>
	<circle cx="218.655" cy="527.092" r="4" fill="#0" id="circle39"/>
	<circle cx="222.824" cy="4" r="4" fill="#0" id="circle40"/>
	<circle cx="222.824" cy="662.555" r="4" fill="#0" id="circle41"/>
	<circle cx="229.076" cy="608.37" r="4" fill="#0" id="circle42"/>
	<circle cx="235.328" cy="541.681" r="4" fill="#0" id="circle43"/>
	<circle cx="241.58" cy="672.975" r="4" fill="#0" id="circle44"/>
	<circle cx="243.664" cy="8.16807" r="4" fill="#0" id="circle45"/>
	<circle cx="249.916" cy="558.353" r="4" fill="#0" id="circle46"/>
	<circle cx="249.916" cy="608.37" r="4" fill="#0" id="circle47"/>
	<circle cx="256.168" cy="24.8403" r="4" fill="#0" id="circle48"/>
	<circle cx="260.336" cy="662.555" r="4" fill="#0" id="circle49"/>
	<circle cx="264.504" cy="575.025" r="4" fill="#0" id="circle50"/>
	<circle cx="266.588" cy="43.5966" r="4" fill="#0" id="circle51"/>
	<circle cx="266.588" cy="141.546" r="4" fill="#0" id="circle52"/>
	<circle cx="270.756" cy="608.37" r="4" fill="#0" id="circle53"/>
	<circle cx="277.008" cy="62.3529" r="4" fill="#0" id="circle54"/>
	<circle cx="277.008" cy="83.1933" r="4" fill="#0" id="circle55"/>
	<circle cx="277.008" cy="104.034" r="4" fill="#0" id="circle56"/>
	<circle cx="277.008" cy="160.303" r="4" fill="#0" id="circle57"/>
	<circle cx="281.176" cy="662.555" r="4" fill="#0" id="circle58"/>
	<circle cx="297.849" cy="166.555" r="4" fill="#0" id="circle59"/>
	<circle cx="302.017" cy="660.471" r="4" fill="#0" id="circle60"/>
	<circle cx="318.689" cy="170.723" r="4" fill="#0" id="circle61"/>
	<circle cx="318.689" cy="641.714" r="4" fill="#0" id="circle62"/>
	<circle cx="337.445" cy="160.303" r="4" fill="#0" id="circle63"/>
	<circle cx="339.529" cy="641.714" r="4" fill="#0" id="circle64"/>
	<circle cx="358.286" cy="156.134" r="4" fill="#0" id="circle65"/>
	<circle cx="360.37" cy="641.714" r="4" fill="#0" id="circle66"/>
	<circle cx="379.126" cy="145.714" r="4" fill="#0" id="circle67"/>
	<circle cx="379.126" cy="631.294" r="4" fill="#0" id="circle68"/>
	<circle cx="399.966" cy="139.462" r="4" fill="#0" id="circle69"/>
	<circle cx="399.966" cy="625.042" r="4" fill="#0" id="circle70"/>
	<circle cx="420.807" cy="135.294" r="4" fill="#0" id="circle71"/>
	<circle cx="420.807" cy="625.042" r="4" fill="#0" id="circle72"/>
	<circle cx="431.227" cy="645.882" r="4" fill="#0" id="circle73"/>
	<circle cx="441.647" cy="129.042" r="4" fill="#0" id="circle74"/>
	<circle cx="447.899" cy="631.294" r="4" fill="#0" id="circle75"/>
	<circle cx="447.899" cy="660.471" r="4" fill="#0" id="circle76"/>
	<circle cx="462.487" cy="129.042" r="4" fill="#0" id="circle77"/>
	<circle cx="462.487" cy="677.143" r="4" fill="#0" id="circle78"/>
	<circle cx="483.328" cy="129.042" r="4" fill="#0" id="circle79"/>
	<circle cx="483.328" cy="683.395" r="4" fill="#0" id="circle80"/>
	<circle cx="504.168" cy="124.874" r="4" fill="#0" id="circle81"/>
	<circle cx="504.168" cy="683.395" r="4" fill="#0" id="circle82"/>
	<circle cx="525.008" cy="118.622" r="4" fill="#0" id="circle83"/>
	<circle cx="525.008" cy="683.395" r="4" fill="#0" id="circle84"/>
	<circle cx="545.849" cy="122.79" r="4" fill="#0" id="circle85"/>
	<circle cx="545.849" cy="683.395" r="4" fill="#0" id="circle86"/>
	<circle cx="566.689" cy="129.042" r="4" fill="#0" id="circle87"/>
	<circle cx="566.689" cy="683.395" r="4" fill="#0" id="circle88"/>
	<circle cx="587.529" cy="129.042" r="4" fill="#0" id="circle89"/>
	<circle cx="587.529" cy="683.395" r="4" fill="#0" id="circle90"/>
	<circle cx="606.286" cy="139.462" r="4" fill="#0" id="circle91"/>
	<circle cx="608.37" cy="683.395" r="4" fill="#0" id="circle92"/>
	<circle cx="627.126" cy="139.462" r="4" fill="#0" id="circle93"/>
	<circle cx="629.21" cy="683.395" r="4" fill="#0" id="circle94"/>
	<circle cx="647.966" cy="141.546" r="4" fill="#0" id="circle95"/>
	<circle cx="650.05" cy="683.395" r="4" fill="#0" id="circle96"/>
	<circle cx="666.723" cy="151.966" r="4" fill="#0" id="circle97"/>
	<circle cx="670.891" cy="677.143" r="4" fill="#0" id="circle98"/>
	<circle cx="687.563" cy="160.303" r="4" fill="#0" id="circle99"/>
	<circle cx="691.731" cy="672.975" r="4" fill="#0" id="circle100"/>
	<circle cx="708.403" cy="160.303" r="4" fill="#0" id="circle101"/>
	<circle cx="712.571" cy="672.975" r="4" fill="#0" id="circle102"/>
	<circle cx="727.16" cy="170.723" r="4" fill="#0" id="circle103"/>
	<circle cx="733.412" cy="672.975" r="4" fill="#0" id="circle104"/>
	<circle cx="745.916" cy="181.143" r="4" fill="#0" id="circle105"/>
	<circle cx="754.252" cy="672.975" r="4" fill="#0" id="circle106"/>
	<circle cx="762.588" cy="193.647" r="4" fill="#0" id="circle107"/>
	<circle cx="775.092" cy="672.975" r="4" fill="#0" id="circle108"/>
	<circle cx="777.176" cy="210.319" r="4" fill="#0" id="circle109"/>
	<circle cx="785.513" cy="145.714" r="4" fill="#0" id="circle110"/>
	<circle cx="785.513" cy="166.555" r="4" fill="#0" id="circle111"/>
	<circle cx="785.513" cy="187.395" r="4" fill="#0" id="circle112"/>
	<circle cx="795.933" cy="672.975" r="4" fill="#0" id="circle113"/>
	<circle cx="806.353" cy="139.462" r="4" fill="#0" id="circle114"/>
	<circle cx="816.773" cy="672.975" r="4" fill="#0" id="circle115"/>
	<circle cx="827.193" cy="139.462" r="4" fill="#0" id="circle116"/>
	<circle cx="835.529" cy="662.555" r="4" fill="#0" id="circle117"/>
	<circle cx="848.034" cy="139.462" r="4" fill="#0" id="circle118"/>
	<circle cx="856.37" cy="658.387" r="4" fill="#0" id="circle119"/>
	<circle cx="868.874" cy="139.462" r="4" fill="#0" id="circle120"/>
	<circle cx="870.958" cy="641.714" r="4" fill="#0" id="circle121"/>
	<circle cx="881.378" cy="381.21" r="4" fill="#0" id="circle122"/>
	<circle cx="885.546" cy="402.05" r="4" fill="#0" id="circle123"/>
	<circle cx="889.714" cy="139.462" r="4" fill="#0" id="circle124"/>
	<circle cx="891.798" cy="422.891" r="4" fill="#0" id="circle125"/>
	<circle cx="891.798" cy="443.731" r="4" fill="#0" id="circle126"/>
	<circle cx="891.798" cy="464.571" r="4" fill="#0" id="circle127"/>
	<circle cx="891.798" cy="485.412" r="4" fill="#0" id="circle128"/>
	<circle cx="891.798" cy="506.252" r="4" fill="#0" id="circle129"/>
	<circle cx="891.798" cy="620.874" r="4" fill="#0" id="circle130"/>
	<circle cx="902.218" cy="381.21" r="4" fill="#0" id="circle131"/>
	<circle cx="902.218" cy="525.008" r="4" fill="#0" id="circle132"/>
	<circle cx="908.471" cy="606.286" r="4" fill="#0" id="circle133"/>
	<circle cx="910.555" cy="139.462" r="4" fill="#0" id="circle134"/>
	<circle cx="912.639" cy="543.765" r="4" fill="#0" id="circle135"/>
	<circle cx="923.059" cy="381.21" r="4" fill="#0" id="circle136"/>
	<circle cx="923.059" cy="562.521" r="4" fill="#0" id="circle137"/>
	<circle cx="923.059" cy="583.361" r="4" fill="#0" id="circle138"/>
	<circle cx="931.395" cy="139.462" r="4" fill="#0" id="circle139"/>
	<circle cx="943.899" cy="381.21" r="4" fill="#0" id="circle140"/>
	<circle cx="952.235" cy="139.462" r="4" fill="#0" id="circle141"/>
	<circle cx="964.739" cy="381.21" r="4" fill="#0" id="circle142"/>
	<circle cx="973.076" cy="139.462" r="4" fill="#0" id="circle143"/>
	<circle cx="985.58" cy="381.21" r="4" fill="#0" id="circle144"/>
	<circle cx="993.916" cy="143.63" r="4" fill="#0" id="circle145"/>
	<circle cx="996" cy="164.471" r="4" fill="#0" id="circle146"/>
	<circle cx="996" cy="185.311" r="4" fill="#0" id="circle147"/>
	<circle cx="996" cy="206.151" r="4" fill="#0" id="circle148"/>
	<circle cx="996" cy="226.992" r="4" fill="#0" id="circle149"/>
	<circle cx="996" cy="247.832" r="4" fill="#0" id="circle150"/>
	<circle cx="996" cy="268.672" r="4" fill="#0" id="circle151"/>
	<circle cx="996" cy="289.513" r="4" fill="#0" id="circle152"/>
	<circle cx="996" cy="310.353" r="4" fill="#0" id="circle153"/>
	<circle cx="996" cy="331.193" r="4" fill="#0" id="circle154"/>
	<circle cx="996" cy="352.034" r="4" fill="#0" id="circle155"/>
	</g>
</svg>