<?xml version="1.0" encoding="UTF-8" standalone="no"?>
<!-- Created with CurveBenchmark -->
<svg
	xmlns:dc="http://purl.org/dc/elements/1.1/"
	xmlns:cc="http://creativecommons.org/ns#"
	xmlns:rdf="http://www.w3.org/1999/02/22-rdf-syntax-ns#"
	xmlns:svg="http://www.w3.org/2000/svg"
	xmlns="http://www.w3.org/2000/svg"
	xmlns:sodipodi="http://sodipodi.sourceforge.net/DTD/sodipodi-0.dtd"
	xmlns:inkscape="http://www.inkscape.org/namespaces/inkscape"
	width="1000"
	height="1000"
	id="svg2"
	version="1.1"
	sodipodi:docname="manifold/crawl-carriage11.png.txt">
<defs
	id="defs4" />
<metadata
	id="metadata7">
	<rdf:RDF>
		<cc:Work
			rdf:about="">
			<dc:format>image/svg+xml</dc:format>
			<dc:type
				rdf:resource="http://purl.org/dc/dcmitype/StillImage" />
			<dc:title></dc:title>
		</cc:Work>
	</rdf:RDF>
</metadata>
<g
	inkscape:label="Layer 1"
	inkscape:groupmode="layer"
	id="layer1">
	<path style="fill:none;stroke:red;stroke-width:1px;stroke-linecap:butt;stroke-linejoin:miter;stroke-opacity:1" d="M 95.5436,350.201 95.5436,333.557 z" id="boundary" inkscape:connector-curvature="0" />
	<path style="fill:none;stroke:red;stroke-width:1px;stroke-linecap:butt;stroke-linejoin:miter;stroke-opacity:1" d="M 95.5436,333.557 95.5436,316.913 z" id="boundary" inkscape:connector-curvature="0" />
	<path style="fill:none;stroke:red;stroke-width:1px;stroke-linecap:butt;stroke-linejoin:miter;stroke-opacity:1" d="M 95.5436,316.913 95.5436,300.268 z" id="boundary" inkscape:connector-curvature="0" />
	<path style="fill:none;stroke:red;stroke-width:1px;stroke-linecap:butt;stroke-linejoin:miter;stroke-opacity:1" d="M 95.5436,300.268 95.5436,283.624 z" id="boundary" inkscape:connector-curvature="0" />
	<path style="fill:none;stroke:red;stroke-width:1px;stroke-linecap:butt;stroke-linejoin:miter;stroke-opacity:1" d="M 95.5436,350.201 108.859,361.852 z" id="boundary" inkscape:connector-curvature="0" />
	<path style="fill:none;stroke:red;stroke-width:1px;stroke-linecap:butt;stroke-linejoin:miter;stroke-opacity:1" d="M 108.859,361.852 120.51,375.168 z" id="boundary" inkscape:connector-curvature="0" />
	<path style="fill:none;stroke:red;stroke-width:1px;stroke-linecap:butt;stroke-linejoin:miter;stroke-opacity:1" d="M 120.51,375.168 137.154,380.161 z" id="boundary" inkscape:connector-curvature="0" />
	<path style="fill:none;stroke:red;stroke-width:1px;stroke-linecap:butt;stroke-linejoin:miter;stroke-opacity:1" d="M 137.154,380.161 142.148,396.805 z" id="boundary" inkscape:connector-curvature="0" />
	<path style="fill:none;stroke:red;stroke-width:1px;stroke-linecap:butt;stroke-linejoin:miter;stroke-opacity:1" d="M 142.148,396.805 157.128,388.483 z" id="boundary" inkscape:connector-curvature="0" />
	<path style="fill:none;stroke:red;stroke-width:1px;stroke-linecap:butt;stroke-linejoin:miter;stroke-opacity:1" d="M 95.5436,283.624 108.859,270.309 z" id="boundary" inkscape:connector-curvature="0" />
	<path style="fill:none;stroke:red;stroke-width:1px;stroke-linecap:butt;stroke-linejoin:miter;stroke-opacity:1" d="M 108.859,270.309 117.181,253.664 z" id="boundary" inkscape:connector-curvature="0" />
	<path style="fill:none;stroke:red;stroke-width:1px;stroke-linecap:butt;stroke-linejoin:miter;stroke-opacity:1" d="M 157.128,388.483 170.443,375.168 z" id="boundary" inkscape:connector-curvature="0" />
	<path style="fill:none;stroke:red;stroke-width:1px;stroke-linecap:butt;stroke-linejoin:miter;stroke-opacity:1" d="M 170.443,375.168 172.107,346.872 z" id="boundary" inkscape:connector-curvature="0" />
	<path style="fill:none;stroke:red;stroke-width:1px;stroke-linecap:butt;stroke-linejoin:miter;stroke-opacity:1" d="M 172.107,346.872 172.107,330.228 z" id="boundary" inkscape:connector-curvature="0" />
	<path style="fill:none;stroke:red;stroke-width:1px;stroke-linecap:butt;stroke-linejoin:miter;stroke-opacity:1" d="M 172.107,330.228 172.107,313.584 z" id="boundary" inkscape:connector-curvature="0" />
	<path style="fill:none;stroke:red;stroke-width:1px;stroke-linecap:butt;stroke-linejoin:miter;stroke-opacity:1" d="M 172.107,313.584 172.107,296.94 z" id="boundary" inkscape:connector-curvature="0" />
	<path style="fill:none;stroke:red;stroke-width:1px;stroke-linecap:butt;stroke-linejoin:miter;stroke-opacity:1" d="M 172.107,296.94 172.107,280.295 z" id="boundary" inkscape:connector-curvature="0" />
	<path style="fill:none;stroke:red;stroke-width:1px;stroke-linecap:butt;stroke-linejoin:miter;stroke-opacity:1" d="M 172.107,280.295 172.107,263.651 z" id="boundary" inkscape:connector-curvature="0" />
	<path style="fill:none;stroke:red;stroke-width:1px;stroke-linecap:butt;stroke-linejoin:miter;stroke-opacity:1" d="M 172.107,263.651 188.752,263.651 z" id="boundary" inkscape:connector-curvature="0" />
	<path style="fill:none;stroke:red;stroke-width:1px;stroke-linecap:butt;stroke-linejoin:miter;stroke-opacity:1" d="M 188.752,263.651 205.396,263.651 z" id="boundary" inkscape:connector-curvature="0" />
	<path style="fill:none;stroke:red;stroke-width:1px;stroke-linecap:butt;stroke-linejoin:miter;stroke-opacity:1" d="M 205.396,263.651 222.04,263.651 z" id="boundary" inkscape:connector-curvature="0" />
	<path style="fill:none;stroke:red;stroke-width:1px;stroke-linecap:butt;stroke-linejoin:miter;stroke-opacity:1" d="M 222.04,263.651 238.685,263.651 z" id="boundary" inkscape:connector-curvature="0" />
	<path style="fill:none;stroke:red;stroke-width:1px;stroke-linecap:butt;stroke-linejoin:miter;stroke-opacity:1" d="M 238.685,263.651 255.329,263.651 z" id="boundary" inkscape:connector-curvature="0" />
	<path style="fill:none;stroke:red;stroke-width:1px;stroke-linecap:butt;stroke-linejoin:miter;stroke-opacity:1" d="M 255.329,263.651 271.973,263.651 z" id="boundary" inkscape:connector-curvature="0" />
	<path style="fill:none;stroke:red;stroke-width:1px;stroke-linecap:butt;stroke-linejoin:miter;stroke-opacity:1" d="M 271.973,263.651 288.617,263.651 z" id="boundary" inkscape:connector-curvature="0" />
	<path style="fill:none;stroke:red;stroke-width:1px;stroke-linecap:butt;stroke-linejoin:miter;stroke-opacity:1" d="M 288.617,263.651 305.262,263.651 z" id="boundary" inkscape:connector-curvature="0" />
	<path style="fill:none;stroke:red;stroke-width:1px;stroke-linecap:butt;stroke-linejoin:miter;stroke-opacity:1" d="M 305.262,263.651 321.906,266.98 z" id="boundary" inkscape:connector-curvature="0" />
	<path style="fill:none;stroke:red;stroke-width:1px;stroke-linecap:butt;stroke-linejoin:miter;stroke-opacity:1" d="M 321.906,266.98 333.557,280.295 z" id="boundary" inkscape:connector-curvature="0" />
	<path style="fill:none;stroke:red;stroke-width:1px;stroke-linecap:butt;stroke-linejoin:miter;stroke-opacity:1" d="M 333.557,280.295 336.886,296.94 z" id="boundary" inkscape:connector-curvature="0" />
	<path style="fill:none;stroke:red;stroke-width:1px;stroke-linecap:butt;stroke-linejoin:miter;stroke-opacity:1" d="M 336.886,296.94 345.208,311.919 z" id="boundary" inkscape:connector-curvature="0" />
	<path style="fill:none;stroke:red;stroke-width:1px;stroke-linecap:butt;stroke-linejoin:miter;stroke-opacity:1" d="M 345.208,311.919 345.208,328.564 z" id="boundary" inkscape:connector-curvature="0" />
	<path style="fill:none;stroke:red;stroke-width:1px;stroke-linecap:butt;stroke-linejoin:miter;stroke-opacity:1" d="M 345.208,328.564 341.879,353.53 z" id="boundary" inkscape:connector-curvature="0" />
	<path style="fill:none;stroke:red;stroke-width:1px;stroke-linecap:butt;stroke-linejoin:miter;stroke-opacity:1" d="M 341.879,353.53 328.564,366.846 z" id="boundary" inkscape:connector-curvature="0" />
	<path style="fill:none;stroke:red;stroke-width:1px;stroke-linecap:butt;stroke-linejoin:miter;stroke-opacity:1" d="M 328.564,366.846 328.564,391.812 z" id="boundary" inkscape:connector-curvature="0" />
	<path style="fill:none;stroke:red;stroke-width:1px;stroke-linecap:butt;stroke-linejoin:miter;stroke-opacity:1" d="M 328.564,391.812 336.886,406.792 z" id="boundary" inkscape:connector-curvature="0" />
	<path style="fill:none;stroke:red;stroke-width:1px;stroke-linecap:butt;stroke-linejoin:miter;stroke-opacity:1" d="M 336.886,406.792 353.53,413.45 z" id="boundary" inkscape:connector-curvature="0" />
	<path style="fill:none;stroke:red;stroke-width:1px;stroke-linecap:butt;stroke-linejoin:miter;stroke-opacity:1" d="M 353.53,413.45 370.174,408.456 z" id="boundary" inkscape:connector-curvature="0" />
	<path style="fill:none;stroke:red;stroke-width:1px;stroke-linecap:butt;stroke-linejoin:miter;stroke-opacity:1" d="M 370.174,408.456 378.497,391.812 z" id="boundary" inkscape:connector-curvature="0" />
	<path style="fill:none;stroke:red;stroke-width:1px;stroke-linecap:butt;stroke-linejoin:miter;stroke-opacity:1" d="M 378.497,391.812 386.819,375.168 z" id="boundary" inkscape:connector-curvature="0" />
	<path style="fill:none;stroke:red;stroke-width:1px;stroke-linecap:butt;stroke-linejoin:miter;stroke-opacity:1" d="M 386.819,375.168 380.161,355.195 z" id="boundary" inkscape:connector-curvature="0" />
	<path style="fill:none;stroke:red;stroke-width:1px;stroke-linecap:butt;stroke-linejoin:miter;stroke-opacity:1" d="M 380.161,355.195 380.161,338.55 z" id="boundary" inkscape:connector-curvature="0" />
	<path style="fill:none;stroke:red;stroke-width:1px;stroke-linecap:butt;stroke-linejoin:miter;stroke-opacity:1" d="M 380.161,338.55 380.161,321.906 z" id="boundary" inkscape:connector-curvature="0" />
	<path style="fill:none;stroke:red;stroke-width:1px;stroke-linecap:butt;stroke-linejoin:miter;stroke-opacity:1" d="M 380.161,321.906 380.161,305.262 z" id="boundary" inkscape:connector-curvature="0" />
	<path style="fill:none;stroke:red;stroke-width:1px;stroke-linecap:butt;stroke-linejoin:miter;stroke-opacity:1" d="M 380.161,305.262 380.161,288.617 z" id="boundary" inkscape:connector-curvature="0" />
	<path style="fill:none;stroke:red;stroke-width:1px;stroke-linecap:butt;stroke-linejoin:miter;stroke-opacity:1" d="M 380.161,288.617 380.161,271.973 z" id="boundary" inkscape:connector-curvature="0" />
	<path style="fill:none;stroke:red;stroke-width:1px;stroke-linecap:butt;stroke-linejoin:miter;stroke-opacity:1" d="M 380.161,271.973 396.805,271.973 z" id="boundary" inkscape:connector-curvature="0" />
	<path style="fill:none;stroke:red;stroke-width:1px;stroke-linecap:butt;stroke-linejoin:miter;stroke-opacity:1" d="M 396.805,271.973 411.785,280.295 z" id="boundary" inkscape:connector-curvature="0" />
	<path style="fill:none;stroke:red;stroke-width:1px;stroke-linecap:butt;stroke-linejoin:miter;stroke-opacity:1" d="M 411.785,280.295 426.765,288.617 z" id="boundary" inkscape:connector-curvature="0" />
	<path style="fill:none;stroke:red;stroke-width:1px;stroke-linecap:butt;stroke-linejoin:miter;stroke-opacity:1" d="M 426.765,288.617 441.745,296.94 z" id="boundary" inkscape:connector-curvature="0" />
	<path style="fill:none;stroke:red;stroke-width:1px;stroke-linecap:butt;stroke-linejoin:miter;stroke-opacity:1" d="M 441.745,296.94 445.074,313.584 z" id="boundary" inkscape:connector-curvature="0" />
	<path style="fill:none;stroke:red;stroke-width:1px;stroke-linecap:butt;stroke-linejoin:miter;stroke-opacity:1" d="M 445.074,313.584 445.074,330.228 z" id="boundary" inkscape:connector-curvature="0" />
	<path style="fill:none;stroke:red;stroke-width:1px;stroke-linecap:butt;stroke-linejoin:miter;stroke-opacity:1" d="M 445.074,330.228 445.074,346.872 z" id="boundary" inkscape:connector-curvature="0" />
	<path style="fill:none;stroke:red;stroke-width:1px;stroke-linecap:butt;stroke-linejoin:miter;stroke-opacity:1" d="M 445.074,346.872 445.074,363.517 z" id="boundary" inkscape:connector-curvature="0" />
	<path style="fill:none;stroke:red;stroke-width:1px;stroke-linecap:butt;stroke-linejoin:miter;stroke-opacity:1" d="M 445.074,363.517 450.067,380.161 z" id="boundary" inkscape:connector-curvature="0" />
	<path style="fill:none;stroke:red;stroke-width:1px;stroke-linecap:butt;stroke-linejoin:miter;stroke-opacity:1" d="M 450.067,380.161 458.389,395.141 z" id="boundary" inkscape:connector-curvature="0" />
	<path style="fill:none;stroke:red;stroke-width:1px;stroke-linecap:butt;stroke-linejoin:miter;stroke-opacity:1" d="M 458.389,395.141 475.034,396.805 z" id="boundary" inkscape:connector-curvature="0" />
	<path style="fill:none;stroke:red;stroke-width:1px;stroke-linecap:butt;stroke-linejoin:miter;stroke-opacity:1" d="M 475.034,396.805 490.013,405.128 z" id="boundary" inkscape:connector-curvature="0" />
	<path style="fill:none;stroke:red;stroke-width:1px;stroke-linecap:butt;stroke-linejoin:miter;stroke-opacity:1" d="M 490.013,405.128 506.658,405.128 z" id="boundary" inkscape:connector-curvature="0" />
	<path style="fill:none;stroke:red;stroke-width:1px;stroke-linecap:butt;stroke-linejoin:miter;stroke-opacity:1" d="M 506.658,405.128 523.302,410.121 z" id="boundary" inkscape:connector-curvature="0" />
	<path style="fill:none;stroke:red;stroke-width:1px;stroke-linecap:butt;stroke-linejoin:miter;stroke-opacity:1" d="M 523.302,410.121 539.946,413.45 z" id="boundary" inkscape:connector-curvature="0" />
	<path style="fill:none;stroke:red;stroke-width:1px;stroke-linecap:butt;stroke-linejoin:miter;stroke-opacity:1" d="M 539.946,413.45 554.926,421.772 z" id="boundary" inkscape:connector-curvature="0" />
	<path style="fill:none;stroke:red;stroke-width:1px;stroke-linecap:butt;stroke-linejoin:miter;stroke-opacity:1" d="M 554.926,421.772 571.57,421.772 z" id="boundary" inkscape:connector-curvature="0" />
	<path style="fill:none;stroke:red;stroke-width:1px;stroke-linecap:butt;stroke-linejoin:miter;stroke-opacity:1" d="M 571.57,421.772 579.893,405.128 z" id="boundary" inkscape:connector-curvature="0" />
	<path style="fill:none;stroke:red;stroke-width:1px;stroke-linecap:butt;stroke-linejoin:miter;stroke-opacity:1" d="M 579.893,405.128 588.215,388.483 z" id="boundary" inkscape:connector-curvature="0" />
	<path style="fill:none;stroke:red;stroke-width:1px;stroke-linecap:butt;stroke-linejoin:miter;stroke-opacity:1" d="M 588.215,388.483 596.537,371.839 z" id="boundary" inkscape:connector-curvature="0" />
	<path style="fill:none;stroke:red;stroke-width:1px;stroke-linecap:butt;stroke-linejoin:miter;stroke-opacity:1" d="M 596.537,371.839 596.537,355.195 z" id="boundary" inkscape:connector-curvature="0" />
	<path style="fill:none;stroke:red;stroke-width:1px;stroke-linecap:butt;stroke-linejoin:miter;stroke-opacity:1" d="M 596.537,355.195 596.537,338.55 z" id="boundary" inkscape:connector-curvature="0" />
	<path style="fill:none;stroke:red;stroke-width:1px;stroke-linecap:butt;stroke-linejoin:miter;stroke-opacity:1" d="M 596.537,338.55 613.181,338.55 z" id="boundary" inkscape:connector-curvature="0" />
	<path style="fill:none;stroke:red;stroke-width:1px;stroke-linecap:butt;stroke-linejoin:miter;stroke-opacity:1" d="M 613.181,338.55 629.826,338.55 z" id="boundary" inkscape:connector-curvature="0" />
	<path style="fill:none;stroke:red;stroke-width:1px;stroke-linecap:butt;stroke-linejoin:miter;stroke-opacity:1" d="M 629.826,338.55 646.47,338.55 z" id="boundary" inkscape:connector-curvature="0" />
	<path style="fill:none;stroke:red;stroke-width:1px;stroke-linecap:butt;stroke-linejoin:miter;stroke-opacity:1" d="M 646.47,338.55 663.114,338.55 z" id="boundary" inkscape:connector-curvature="0" />
	<path style="fill:none;stroke:red;stroke-width:1px;stroke-linecap:butt;stroke-linejoin:miter;stroke-opacity:1" d="M 663.114,338.55 679.758,338.55 z" id="boundary" inkscape:connector-curvature="0" />
	<path style="fill:none;stroke:red;stroke-width:1px;stroke-linecap:butt;stroke-linejoin:miter;stroke-opacity:1" d="M 679.758,338.55 694.738,346.872 z" id="boundary" inkscape:connector-curvature="0" />
	<path style="fill:none;stroke:red;stroke-width:1px;stroke-linecap:butt;stroke-linejoin:miter;stroke-opacity:1" d="M 694.738,346.872 711.383,346.872 z" id="boundary" inkscape:connector-curvature="0" />
	<path style="fill:none;stroke:red;stroke-width:1px;stroke-linecap:butt;stroke-linejoin:miter;stroke-opacity:1" d="M 711.383,346.872 728.027,346.872 z" id="boundary" inkscape:connector-curvature="0" />
	<path style="fill:none;stroke:red;stroke-width:1px;stroke-linecap:butt;stroke-linejoin:miter;stroke-opacity:1" d="M 728.027,346.872 743.007,338.55 z" id="boundary" inkscape:connector-curvature="0" />
	<path style="fill:none;stroke:red;stroke-width:1px;stroke-linecap:butt;stroke-linejoin:miter;stroke-opacity:1" d="M 743.007,338.55 754.658,351.866 z" id="boundary" inkscape:connector-curvature="0" />
	<path style="fill:none;stroke:red;stroke-width:1px;stroke-linecap:butt;stroke-linejoin:miter;stroke-opacity:1" d="M 754.658,351.866 767.973,363.517 z" id="boundary" inkscape:connector-curvature="0" />
	<path style="fill:none;stroke:red;stroke-width:1px;stroke-linecap:butt;stroke-linejoin:miter;stroke-opacity:1" d="M 767.973,363.517 774.631,380.161 z" id="boundary" inkscape:connector-curvature="0" />
	<path style="fill:none;stroke:red;stroke-width:1px;stroke-linecap:butt;stroke-linejoin:miter;stroke-opacity:1" d="M 774.631,380.161 777.96,400.134 z" id="boundary" inkscape:connector-curvature="0" />
	<path style="fill:none;stroke:red;stroke-width:1px;stroke-linecap:butt;stroke-linejoin:miter;stroke-opacity:1" d="M 777.96,400.134 791.275,411.785 z" id="boundary" inkscape:connector-curvature="0" />
	<path style="fill:none;stroke:red;stroke-width:1px;stroke-linecap:butt;stroke-linejoin:miter;stroke-opacity:1" d="M 791.275,411.785 806.255,420.107 z" id="boundary" inkscape:connector-curvature="0" />
	<path style="fill:none;stroke:red;stroke-width:1px;stroke-linecap:butt;stroke-linejoin:miter;stroke-opacity:1" d="M 806.255,420.107 822.899,421.772 z" id="boundary" inkscape:connector-curvature="0" />
	<path style="fill:none;stroke:red;stroke-width:1px;stroke-linecap:butt;stroke-linejoin:miter;stroke-opacity:1" d="M 822.899,421.772 837.879,430.094 z" id="boundary" inkscape:connector-curvature="0" />
	<path style="fill:none;stroke:red;stroke-width:1px;stroke-linecap:butt;stroke-linejoin:miter;stroke-opacity:1" d="M 837.879,430.094 854.523,433.423 z" id="boundary" inkscape:connector-curvature="0" />
	<path style="fill:none;stroke:red;stroke-width:1px;stroke-linecap:butt;stroke-linejoin:miter;stroke-opacity:1" d="M 854.523,433.423 871.168,438.416 z" id="boundary" inkscape:connector-curvature="0" />
	<path style="fill:none;stroke:red;stroke-width:1px;stroke-linecap:butt;stroke-linejoin:miter;stroke-opacity:1" d="M 871.168,438.416 887.812,438.416 z" id="boundary" inkscape:connector-curvature="0" />
	<path style="fill:none;stroke:red;stroke-width:1px;stroke-linecap:butt;stroke-linejoin:miter;stroke-opacity:1" d="M 887.812,438.416 904.456,430.094 z" id="boundary" inkscape:connector-curvature="0" />
	<path style="fill:none;stroke:red;stroke-width:1px;stroke-linecap:butt;stroke-linejoin:miter;stroke-opacity:1" d="M 904.456,430.094 921.101,430.094 z" id="boundary" inkscape:connector-curvature="0" />
	<path style="fill:none;stroke:red;stroke-width:1px;stroke-linecap:butt;stroke-linejoin:miter;stroke-opacity:1" d="M 921.101,430.094 937.745,421.772 z" id="boundary" inkscape:connector-curvature="0" />
	<path style="fill:none;stroke:red;stroke-width:1px;stroke-linecap:butt;stroke-linejoin:miter;stroke-opacity:1" d="M 937.745,421.772 951.06,410.121 z" id="boundary" inkscape:connector-curvature="0" />
	<path style="fill:none;stroke:red;stroke-width:1px;stroke-linecap:butt;stroke-linejoin:miter;stroke-opacity:1" d="M 951.06,410.121 954.389,388.483 z" id="boundary" inkscape:connector-curvature="0" />
	<path style="fill:none;stroke:red;stroke-width:1px;stroke-linecap:butt;stroke-linejoin:miter;stroke-opacity:1" d="M 954.389,388.483 971.034,380.161 z" id="boundary" inkscape:connector-curvature="0" />
	<path style="fill:none;stroke:red;stroke-width:1px;stroke-linecap:butt;stroke-linejoin:miter;stroke-opacity:1" d="M 971.034,380.161 971.034,363.517 z" id="boundary" inkscape:connector-curvature="0" />
	<path style="fill:none;stroke:red;stroke-width:1px;stroke-linecap:butt;stroke-linejoin:miter;stroke-opacity:1" d="M 971.034,363.517 984.349,351.866 z" id="boundary" inkscape:connector-curvature="0" />
	<path style="fill:none;stroke:red;stroke-width:1px;stroke-linecap:butt;stroke-linejoin:miter;stroke-opacity:1" d="M 984.349,351.866 987.678,330.228 z" id="boundary" inkscape:connector-curvature="0" />
	<path style="fill:none;stroke:red;stroke-width:1px;stroke-linecap:butt;stroke-linejoin:miter;stroke-opacity:1" d="M 987.678,330.228 996,313.584 z" id="boundary" inkscape:connector-curvature="0" />
	<path style="fill:none;stroke:red;stroke-width:1px;stroke-linecap:butt;stroke-linejoin:miter;stroke-opacity:1" d="M 996,313.584 996,296.94 z" id="boundary" inkscape:connector-curvature="0" />
	<path style="fill:none;stroke:red;stroke-width:1px;stroke-linecap:butt;stroke-linejoin:miter;stroke-opacity:1" d="M 996,296.94 987.678,281.96 z" id="boundary" inkscape:connector-curvature="0" />
	<path style="fill:none;stroke:red;stroke-width:1px;stroke-linecap:butt;stroke-linejoin:miter;stroke-opacity:1" d="M 987.678,281.96 979.356,266.98 z" id="boundary" inkscape:connector-curvature="0" />
	<path style="fill:none;stroke:red;stroke-width:1px;stroke-linecap:butt;stroke-linejoin:miter;stroke-opacity:1" d="M 979.356,266.98 966.04,255.329 z" id="boundary" inkscape:connector-curvature="0" />
	<path style="fill:none;stroke:red;stroke-width:1px;stroke-linecap:butt;stroke-linejoin:miter;stroke-opacity:1" d="M 966.04,255.329 954.389,242.013 z" id="boundary" inkscape:connector-curvature="0" />
	<path style="fill:none;stroke:red;stroke-width:1px;stroke-linecap:butt;stroke-linejoin:miter;stroke-opacity:1" d="M 954.389,242.013 937.745,237.02 z" id="boundary" inkscape:connector-curvature="0" />
	<path style="fill:none;stroke:red;stroke-width:1px;stroke-linecap:butt;stroke-linejoin:miter;stroke-opacity:1" d="M 937.745,237.02 922.765,228.698 z" id="boundary" inkscape:connector-curvature="0" />
	<path style="fill:none;stroke:red;stroke-width:1px;stroke-linecap:butt;stroke-linejoin:miter;stroke-opacity:1" d="M 922.765,228.698 912.779,215.383 z" id="boundary" inkscape:connector-curvature="0" />
	<path style="fill:none;stroke:red;stroke-width:1px;stroke-linecap:butt;stroke-linejoin:miter;stroke-opacity:1" d="M 912.779,215.383 912.779,198.738 z" id="boundary" inkscape:connector-curvature="0" />
	<path style="fill:none;stroke:red;stroke-width:1px;stroke-linecap:butt;stroke-linejoin:miter;stroke-opacity:1" d="M 912.779,198.738 912.779,182.094 z" id="boundary" inkscape:connector-curvature="0" />
	<path style="fill:none;stroke:red;stroke-width:1px;stroke-linecap:butt;stroke-linejoin:miter;stroke-opacity:1" d="M 912.779,182.094 912.779,165.45 z" id="boundary" inkscape:connector-curvature="0" />
	<path style="fill:none;stroke:red;stroke-width:1px;stroke-linecap:butt;stroke-linejoin:miter;stroke-opacity:1" d="M 912.779,165.45 904.456,150.47 z" id="boundary" inkscape:connector-curvature="0" />
	<path style="fill:none;stroke:red;stroke-width:1px;stroke-linecap:butt;stroke-linejoin:miter;stroke-opacity:1" d="M 904.456,150.47 894.47,137.154 z" id="boundary" inkscape:connector-curvature="0" />
	<path style="fill:none;stroke:red;stroke-width:1px;stroke-linecap:butt;stroke-linejoin:miter;stroke-opacity:1" d="M 894.47,137.154 879.49,128.832 z" id="boundary" inkscape:connector-curvature="0" />
	<path style="fill:none;stroke:red;stroke-width:1px;stroke-linecap:butt;stroke-linejoin:miter;stroke-opacity:1" d="M 879.49,128.832 862.846,128.832 z" id="boundary" inkscape:connector-curvature="0" />
	<path style="fill:none;stroke:red;stroke-width:1px;stroke-linecap:butt;stroke-linejoin:miter;stroke-opacity:1" d="M 862.846,128.832 846.201,125.503 z" id="boundary" inkscape:connector-curvature="0" />
	<path style="fill:none;stroke:red;stroke-width:1px;stroke-linecap:butt;stroke-linejoin:miter;stroke-opacity:1" d="M 846.201,125.503 829.557,118.846 z" id="boundary" inkscape:connector-curvature="0" />
	<path style="fill:none;stroke:red;stroke-width:1px;stroke-linecap:butt;stroke-linejoin:miter;stroke-opacity:1" d="M 829.557,118.846 821.235,103.866 z" id="boundary" inkscape:connector-curvature="0" />
	<path style="fill:none;stroke:red;stroke-width:1px;stroke-linecap:butt;stroke-linejoin:miter;stroke-opacity:1" d="M 821.235,103.866 812.913,88.8859 z" id="boundary" inkscape:connector-curvature="0" />
	<path style="fill:none;stroke:red;stroke-width:1px;stroke-linecap:butt;stroke-linejoin:miter;stroke-opacity:1" d="M 812.913,88.8859 804.591,70.5772 z" id="boundary" inkscape:connector-curvature="0" />
	<path style="fill:none;stroke:red;stroke-width:1px;stroke-linecap:butt;stroke-linejoin:miter;stroke-opacity:1" d="M 804.591,70.5772 797.933,53.9329 z" id="boundary" inkscape:connector-curvature="0" />
	<path style="fill:none;stroke:red;stroke-width:1px;stroke-linecap:butt;stroke-linejoin:miter;stroke-opacity:1" d="M 797.933,53.9329 781.289,53.9329 z" id="boundary" inkscape:connector-curvature="0" />
	<path style="fill:none;stroke:red;stroke-width:1px;stroke-linecap:butt;stroke-linejoin:miter;stroke-opacity:1" d="M 781.289,53.9329 764.644,53.9329 z" id="boundary" inkscape:connector-curvature="0" />
	<path style="fill:none;stroke:red;stroke-width:1px;stroke-linecap:butt;stroke-linejoin:miter;stroke-opacity:1" d="M 764.644,53.9329 749.664,62.255 z" id="boundary" inkscape:connector-curvature="0" />
	<path style="fill:none;stroke:red;stroke-width:1px;stroke-linecap:butt;stroke-linejoin:miter;stroke-opacity:1" d="M 749.664,62.255 736.349,75.5705 z" id="boundary" inkscape:connector-curvature="0" />
	<path style="fill:none;stroke:red;stroke-width:1px;stroke-linecap:butt;stroke-linejoin:miter;stroke-opacity:1" d="M 736.349,75.5705 736.349,92.2148 z" id="boundary" inkscape:connector-curvature="0" />
	<path style="fill:none;stroke:red;stroke-width:1px;stroke-linecap:butt;stroke-linejoin:miter;stroke-opacity:1" d="M 736.349,92.2148 736.349,108.859 z" id="boundary" inkscape:connector-curvature="0" />
	<path style="fill:none;stroke:red;stroke-width:1px;stroke-linecap:butt;stroke-linejoin:miter;stroke-opacity:1" d="M 736.349,108.859 736.349,125.503 z" id="boundary" inkscape:connector-curvature="0" />
	<path style="fill:none;stroke:red;stroke-width:1px;stroke-linecap:butt;stroke-linejoin:miter;stroke-opacity:1" d="M 736.349,125.503 726.362,145.477 z" id="boundary" inkscape:connector-curvature="0" />
	<path style="fill:none;stroke:red;stroke-width:1px;stroke-linecap:butt;stroke-linejoin:miter;stroke-opacity:1" d="M 726.362,145.477 709.718,145.477 z" id="boundary" inkscape:connector-curvature="0" />
	<path style="fill:none;stroke:red;stroke-width:1px;stroke-linecap:butt;stroke-linejoin:miter;stroke-opacity:1" d="M 709.718,145.477 696.403,157.128 z" id="boundary" inkscape:connector-curvature="0" />
	<path style="fill:none;stroke:red;stroke-width:1px;stroke-linecap:butt;stroke-linejoin:miter;stroke-opacity:1" d="M 696.403,157.128 683.087,170.443 z" id="boundary" inkscape:connector-curvature="0" />
	<path style="fill:none;stroke:red;stroke-width:1px;stroke-linecap:butt;stroke-linejoin:miter;stroke-opacity:1" d="M 683.087,170.443 669.772,183.758 z" id="boundary" inkscape:connector-curvature="0" />
	<path style="fill:none;stroke:red;stroke-width:1px;stroke-linecap:butt;stroke-linejoin:miter;stroke-opacity:1" d="M 669.772,183.758 661.45,200.403 z" id="boundary" inkscape:connector-curvature="0" />
	<path style="fill:none;stroke:red;stroke-width:1px;stroke-linecap:butt;stroke-linejoin:miter;stroke-opacity:1" d="M 661.45,200.403 669.772,215.383 z" id="boundary" inkscape:connector-curvature="0" />
	<path style="fill:none;stroke:red;stroke-width:1px;stroke-linecap:butt;stroke-linejoin:miter;stroke-opacity:1" d="M 669.772,215.383 653.128,220.376 z" id="boundary" inkscape:connector-curvature="0" />
	<path style="fill:none;stroke:red;stroke-width:1px;stroke-linecap:butt;stroke-linejoin:miter;stroke-opacity:1" d="M 653.128,220.376 636.483,220.376 z" id="boundary" inkscape:connector-curvature="0" />
	<path style="fill:none;stroke:red;stroke-width:1px;stroke-linecap:butt;stroke-linejoin:miter;stroke-opacity:1" d="M 636.483,220.376 619.839,220.376 z" id="boundary" inkscape:connector-curvature="0" />
	<path style="fill:none;stroke:red;stroke-width:1px;stroke-linecap:butt;stroke-linejoin:miter;stroke-opacity:1" d="M 619.839,220.376 603.195,217.047 z" id="boundary" inkscape:connector-curvature="0" />
	<path style="fill:none;stroke:red;stroke-width:1px;stroke-linecap:butt;stroke-linejoin:miter;stroke-opacity:1" d="M 603.195,217.047 596.537,200.403 z" id="boundary" inkscape:connector-curvature="0" />
	<path style="fill:none;stroke:red;stroke-width:1px;stroke-linecap:butt;stroke-linejoin:miter;stroke-opacity:1" d="M 596.537,200.403 596.537,183.758 z" id="boundary" inkscape:connector-curvature="0" />
	<path style="fill:none;stroke:red;stroke-width:1px;stroke-linecap:butt;stroke-linejoin:miter;stroke-opacity:1" d="M 596.537,183.758 596.537,167.114 z" id="boundary" inkscape:connector-curvature="0" />
	<path style="fill:none;stroke:red;stroke-width:1px;stroke-linecap:butt;stroke-linejoin:miter;stroke-opacity:1" d="M 596.537,167.114 596.537,150.47 z" id="boundary" inkscape:connector-curvature="0" />
	<path style="fill:none;stroke:red;stroke-width:1px;stroke-linecap:butt;stroke-linejoin:miter;stroke-opacity:1" d="M 596.537,150.47 596.537,133.826 z" id="boundary" inkscape:connector-curvature="0" />
	<path style="fill:none;stroke:red;stroke-width:1px;stroke-linecap:butt;stroke-linejoin:miter;stroke-opacity:1" d="M 596.537,133.826 596.537,117.181 z" id="boundary" inkscape:connector-curvature="0" />
	<path style="fill:none;stroke:red;stroke-width:1px;stroke-linecap:butt;stroke-linejoin:miter;stroke-opacity:1" d="M 596.537,117.181 596.537,100.537 z" id="boundary" inkscape:connector-curvature="0" />
	<path style="fill:none;stroke:red;stroke-width:1px;stroke-linecap:butt;stroke-linejoin:miter;stroke-opacity:1" d="M 596.537,100.537 596.537,83.8926 z" id="boundary" inkscape:connector-curvature="0" />
	<path style="fill:none;stroke:red;stroke-width:1px;stroke-linecap:butt;stroke-linejoin:miter;stroke-opacity:1" d="M 596.537,83.8926 596.537,67.2483 z" id="boundary" inkscape:connector-curvature="0" />
	<path style="fill:none;stroke:red;stroke-width:1px;stroke-linecap:butt;stroke-linejoin:miter;stroke-opacity:1" d="M 596.537,67.2483 596.537,50.604 z" id="boundary" inkscape:connector-curvature="0" />
	<path style="fill:none;stroke:red;stroke-width:1px;stroke-linecap:butt;stroke-linejoin:miter;stroke-opacity:1" d="M 596.537,50.604 594.872,33.9597 z" id="boundary" inkscape:connector-curvature="0" />
	<path style="fill:none;stroke:red;stroke-width:1px;stroke-linecap:butt;stroke-linejoin:miter;stroke-opacity:1" d="M 594.872,33.9597 583.221,20.6443 z" id="boundary" inkscape:connector-curvature="0" />
	<path style="fill:none;stroke:red;stroke-width:1px;stroke-linecap:butt;stroke-linejoin:miter;stroke-opacity:1" d="M 583.221,20.6443 568.242,12.3221 z" id="boundary" inkscape:connector-curvature="0" />
	<path style="fill:none;stroke:red;stroke-width:1px;stroke-linecap:butt;stroke-linejoin:miter;stroke-opacity:1" d="M 568.242,12.3221 553.262,4 z" id="boundary" inkscape:connector-curvature="0" />
	<path style="fill:none;stroke:red;stroke-width:1px;stroke-linecap:butt;stroke-linejoin:miter;stroke-opacity:1" d="M 553.262,4 536.617,8.99329 z" id="boundary" inkscape:connector-curvature="0" />
	<path style="fill:none;stroke:red;stroke-width:1px;stroke-linecap:butt;stroke-linejoin:miter;stroke-opacity:1" d="M 536.617,8.99329 524.966,28.9664 z" id="boundary" inkscape:connector-curvature="0" />
	<path style="fill:none;stroke:red;stroke-width:1px;stroke-linecap:butt;stroke-linejoin:miter;stroke-opacity:1" d="M 524.966,28.9664 511.651,42.2819 z" id="boundary" inkscape:connector-curvature="0" />
	<path style="fill:none;stroke:red;stroke-width:1px;stroke-linecap:butt;stroke-linejoin:miter;stroke-opacity:1" d="M 511.651,42.2819 519.973,57.2617 z" id="boundary" inkscape:connector-curvature="0" />
	<path style="fill:none;stroke:red;stroke-width:1px;stroke-linecap:butt;stroke-linejoin:miter;stroke-opacity:1" d="M 519.973,57.2617 519.973,73.906 z" id="boundary" inkscape:connector-curvature="0" />
	<path style="fill:none;stroke:red;stroke-width:1px;stroke-linecap:butt;stroke-linejoin:miter;stroke-opacity:1" d="M 519.973,73.906 528.295,88.8859 z" id="boundary" inkscape:connector-curvature="0" />
	<path style="fill:none;stroke:red;stroke-width:1px;stroke-linecap:butt;stroke-linejoin:miter;stroke-opacity:1" d="M 528.295,88.8859 528.295,105.53 z" id="boundary" inkscape:connector-curvature="0" />
	<path style="fill:none;stroke:red;stroke-width:1px;stroke-linecap:butt;stroke-linejoin:miter;stroke-opacity:1" d="M 528.295,105.53 521.638,123.839 z" id="boundary" inkscape:connector-curvature="0" />
	<path style="fill:none;stroke:red;stroke-width:1px;stroke-linecap:butt;stroke-linejoin:miter;stroke-opacity:1" d="M 521.638,123.839 504.993,132.161 z" id="boundary" inkscape:connector-curvature="0" />
	<path style="fill:none;stroke:red;stroke-width:1px;stroke-linecap:butt;stroke-linejoin:miter;stroke-opacity:1" d="M 504.993,132.161 491.678,145.477 z" id="boundary" inkscape:connector-curvature="0" />
	<path style="fill:none;stroke:red;stroke-width:1px;stroke-linecap:butt;stroke-linejoin:miter;stroke-opacity:1" d="M 491.678,145.477 478.362,158.792 z" id="boundary" inkscape:connector-curvature="0" />
	<path style="fill:none;stroke:red;stroke-width:1px;stroke-linecap:butt;stroke-linejoin:miter;stroke-opacity:1" d="M 478.362,158.792 478.362,175.436 z" id="boundary" inkscape:connector-curvature="0" />
	<path style="fill:none;stroke:red;stroke-width:1px;stroke-linecap:butt;stroke-linejoin:miter;stroke-opacity:1" d="M 478.362,175.436 486.685,190.416 z" id="boundary" inkscape:connector-curvature="0" />
	<path style="fill:none;stroke:red;stroke-width:1px;stroke-linecap:butt;stroke-linejoin:miter;stroke-opacity:1" d="M 486.685,190.416 471.705,212.054 z" id="boundary" inkscape:connector-curvature="0" />
	<path style="fill:none;stroke:red;stroke-width:1px;stroke-linecap:butt;stroke-linejoin:miter;stroke-opacity:1" d="M 471.705,212.054 455.06,212.054 z" id="boundary" inkscape:connector-curvature="0" />
	<path style="fill:none;stroke:red;stroke-width:1px;stroke-linecap:butt;stroke-linejoin:miter;stroke-opacity:1" d="M 455.06,212.054 438.416,215.383 z" id="boundary" inkscape:connector-curvature="0" />
	<path style="fill:none;stroke:red;stroke-width:1px;stroke-linecap:butt;stroke-linejoin:miter;stroke-opacity:1" d="M 438.416,215.383 421.772,220.376 z" id="boundary" inkscape:connector-curvature="0" />
	<path style="fill:none;stroke:red;stroke-width:1px;stroke-linecap:butt;stroke-linejoin:miter;stroke-opacity:1" d="M 421.772,220.376 405.128,220.376 z" id="boundary" inkscape:connector-curvature="0" />
	<path style="fill:none;stroke:red;stroke-width:1px;stroke-linecap:butt;stroke-linejoin:miter;stroke-opacity:1" d="M 405.128,220.376 388.483,217.047 z" id="boundary" inkscape:connector-curvature="0" />
	<path style="fill:none;stroke:red;stroke-width:1px;stroke-linecap:butt;stroke-linejoin:miter;stroke-opacity:1" d="M 388.483,217.047 388.483,200.403 z" id="boundary" inkscape:connector-curvature="0" />
	<path style="fill:none;stroke:red;stroke-width:1px;stroke-linecap:butt;stroke-linejoin:miter;stroke-opacity:1" d="M 388.483,200.403 380.161,185.423 z" id="boundary" inkscape:connector-curvature="0" />
	<path style="fill:none;stroke:red;stroke-width:1px;stroke-linecap:butt;stroke-linejoin:miter;stroke-opacity:1" d="M 380.161,185.423 380.161,168.779 z" id="boundary" inkscape:connector-curvature="0" />
	<path style="fill:none;stroke:red;stroke-width:1px;stroke-linecap:butt;stroke-linejoin:miter;stroke-opacity:1" d="M 380.161,168.779 371.839,153.799 z" id="boundary" inkscape:connector-curvature="0" />
	<path style="fill:none;stroke:red;stroke-width:1px;stroke-linecap:butt;stroke-linejoin:miter;stroke-opacity:1" d="M 371.839,153.799 366.846,137.154 z" id="boundary" inkscape:connector-curvature="0" />
	<path style="fill:none;stroke:red;stroke-width:1px;stroke-linecap:butt;stroke-linejoin:miter;stroke-opacity:1" d="M 366.846,137.154 351.866,128.832 z" id="boundary" inkscape:connector-curvature="0" />
	<path style="fill:none;stroke:red;stroke-width:1px;stroke-linecap:butt;stroke-linejoin:miter;stroke-opacity:1" d="M 351.866,128.832 336.886,120.51 z" id="boundary" inkscape:connector-curvature="0" />
	<path style="fill:none;stroke:red;stroke-width:1px;stroke-linecap:butt;stroke-linejoin:miter;stroke-opacity:1" d="M 336.886,120.51 320.242,120.51 z" id="boundary" inkscape:connector-curvature="0" />
	<path style="fill:none;stroke:red;stroke-width:1px;stroke-linecap:butt;stroke-linejoin:miter;stroke-opacity:1" d="M 320.242,120.51 303.597,120.51 z" id="boundary" inkscape:connector-curvature="0" />
	<path style="fill:none;stroke:red;stroke-width:1px;stroke-linecap:butt;stroke-linejoin:miter;stroke-opacity:1" d="M 303.597,120.51 286.953,120.51 z" id="boundary" inkscape:connector-curvature="0" />
	<path style="fill:none;stroke:red;stroke-width:1px;stroke-linecap:butt;stroke-linejoin:miter;stroke-opacity:1" d="M 286.953,120.51 271.973,128.832 z" id="boundary" inkscape:connector-curvature="0" />
	<path style="fill:none;stroke:red;stroke-width:1px;stroke-linecap:butt;stroke-linejoin:miter;stroke-opacity:1" d="M 271.973,128.832 255.329,123.839 z" id="boundary" inkscape:connector-curvature="0" />
	<path style="fill:none;stroke:red;stroke-width:1px;stroke-linecap:butt;stroke-linejoin:miter;stroke-opacity:1" d="M 255.329,123.839 238.685,128.832 z" id="boundary" inkscape:connector-curvature="0" />
	<path style="fill:none;stroke:red;stroke-width:1px;stroke-linecap:butt;stroke-linejoin:miter;stroke-opacity:1" d="M 238.685,128.832 222.04,132.161 z" id="boundary" inkscape:connector-curvature="0" />
	<path style="fill:none;stroke:red;stroke-width:1px;stroke-linecap:butt;stroke-linejoin:miter;stroke-opacity:1" d="M 222.04,132.161 205.396,137.154 z" id="boundary" inkscape:connector-curvature="0" />
	<path style="fill:none;stroke:red;stroke-width:1px;stroke-linecap:butt;stroke-linejoin:miter;stroke-opacity:1" d="M 205.396,137.154 188.752,137.154 z" id="boundary" inkscape:connector-curvature="0" />
	<path style="fill:none;stroke:red;stroke-width:1px;stroke-linecap:butt;stroke-linejoin:miter;stroke-opacity:1" d="M 188.752,137.154 172.107,133.826 z" id="boundary" inkscape:connector-curvature="0" />
	<path style="fill:none;stroke:red;stroke-width:1px;stroke-linecap:butt;stroke-linejoin:miter;stroke-opacity:1" d="M 172.107,133.826 155.463,127.168 z" id="boundary" inkscape:connector-curvature="0" />
	<path style="fill:none;stroke:red;stroke-width:1px;stroke-linecap:butt;stroke-linejoin:miter;stroke-opacity:1" d="M 155.463,127.168 143.812,113.852 z" id="boundary" inkscape:connector-curvature="0" />
	<path style="fill:none;stroke:red;stroke-width:1px;stroke-linecap:butt;stroke-linejoin:miter;stroke-opacity:1" d="M 143.812,113.852 130.497,103.866 z" id="boundary" inkscape:connector-curvature="0" />
	<path style="fill:none;stroke:red;stroke-width:1px;stroke-linecap:butt;stroke-linejoin:miter;stroke-opacity:1" d="M 130.497,103.866 120.51,90.5503 z" id="boundary" inkscape:connector-curvature="0" />
	<path style="fill:none;stroke:red;stroke-width:1px;stroke-linecap:butt;stroke-linejoin:miter;stroke-opacity:1" d="M 120.51,90.5503 103.866,87.2215 z" id="boundary" inkscape:connector-curvature="0" />
	<path style="fill:none;stroke:red;stroke-width:1px;stroke-linecap:butt;stroke-linejoin:miter;stroke-opacity:1" d="M 103.866,87.2215 87.2215,87.2215 z" id="boundary" inkscape:connector-curvature="0" />
	<path style="fill:none;stroke:red;stroke-width:1px;stroke-linecap:butt;stroke-linejoin:miter;stroke-opacity:1" d="M 87.2215,87.2215 70.5772,87.2215 z" id="boundary" inkscape:connector-curvature="0" />
	<path style="fill:none;stroke:red;stroke-width:1px;stroke-linecap:butt;stroke-linejoin:miter;stroke-opacity:1" d="M 70.5772,87.2215 53.9329,92.2148 z" id="boundary" inkscape:connector-curvature="0" />
	<path style="fill:none;stroke:red;stroke-width:1px;stroke-linecap:butt;stroke-linejoin:miter;stroke-opacity:1" d="M 53.9329,92.2148 37.2886,100.537 z" id="boundary" inkscape:connector-curvature="0" />
	<path style="fill:none;stroke:red;stroke-width:1px;stroke-linecap:butt;stroke-linejoin:miter;stroke-opacity:1" d="M 117.181,253.664 105.53,227.034 z" id="boundary" inkscape:connector-curvature="0" />
	<path style="fill:none;stroke:red;stroke-width:1px;stroke-linecap:butt;stroke-linejoin:miter;stroke-opacity:1" d="M 105.53,227.034 98.8725,210.389 z" id="boundary" inkscape:connector-curvature="0" />
	<path style="fill:none;stroke:red;stroke-width:1px;stroke-linecap:butt;stroke-linejoin:miter;stroke-opacity:1" d="M 98.8725,210.389 90.5503,195.409 z" id="boundary" inkscape:connector-curvature="0" />
	<path style="fill:none;stroke:red;stroke-width:1px;stroke-linecap:butt;stroke-linejoin:miter;stroke-opacity:1" d="M 90.5503,195.409 87.2215,178.765 z" id="boundary" inkscape:connector-curvature="0" />
	<path style="fill:none;stroke:red;stroke-width:1px;stroke-linecap:butt;stroke-linejoin:miter;stroke-opacity:1" d="M 87.2215,178.765 78.8993,163.785 z" id="boundary" inkscape:connector-curvature="0" />
	<path style="fill:none;stroke:red;stroke-width:1px;stroke-linecap:butt;stroke-linejoin:miter;stroke-opacity:1" d="M 78.8993,163.785 62.255,163.785 z" id="boundary" inkscape:connector-curvature="0" />
	<path style="fill:none;stroke:red;stroke-width:1px;stroke-linecap:butt;stroke-linejoin:miter;stroke-opacity:1" d="M 62.255,163.785 45.6107,167.114 z" id="boundary" inkscape:connector-curvature="0" />
	<path style="fill:none;stroke:red;stroke-width:1px;stroke-linecap:butt;stroke-linejoin:miter;stroke-opacity:1" d="M 45.6107,167.114 28.9664,175.436 z" id="boundary" inkscape:connector-curvature="0" />
	<path style="fill:none;stroke:red;stroke-width:1px;stroke-linecap:butt;stroke-linejoin:miter;stroke-opacity:1" d="M 28.9664,175.436 12.3221,173.772 z" id="boundary" inkscape:connector-curvature="0" />
	<path style="fill:none;stroke:red;stroke-width:1px;stroke-linecap:butt;stroke-linejoin:miter;stroke-opacity:1" d="M 12.3221,173.772 4,158.792 z" id="boundary" inkscape:connector-curvature="0" />
	<path style="fill:none;stroke:red;stroke-width:1px;stroke-linecap:butt;stroke-linejoin:miter;stroke-opacity:1" d="M 4,158.792 12.3221,142.148 z" id="boundary" inkscape:connector-curvature="0" />
	<path style="fill:none;stroke:red;stroke-width:1px;stroke-linecap:butt;stroke-linejoin:miter;stroke-opacity:1" d="M 12.3221,142.148 25.6376,128.832 z" id="boundary" inkscape:connector-curvature="0" />
	<path style="fill:none;stroke:red;stroke-width:1px;stroke-linecap:butt;stroke-linejoin:miter;stroke-opacity:1" d="M 37.2886,100.537 25.6376,128.832 z" id="boundary" inkscape:connector-curvature="0" />
	<circle cx="4" cy="158.792" r="4" fill="#0" id="circle0"/>
	<circle cx="12.3221" cy="142.148" r="4" fill="#0" id="circle1"/>
	<circle cx="12.3221" cy="173.772" r="4" fill="#0" id="circle2"/>
	<circle cx="25.6376" cy="128.832" r="4" fill="#0" id="circle3"/>
	<circle cx="28.9664" cy="175.436" r="4" fill="#0" id="circle4"/>
	<circle cx="37.2886" cy="100.537" r="4" fill="#0" id="circle5"/>
	<circle cx="45.6107" cy="167.114" r="4" fill="#0" id="circle6"/>
	<circle cx="53.9329" cy="92.2148" r="4" fill="#0" id="circle7"/>
	<circle cx="62.255" cy="163.785" r="4" fill="#0" id="circle8"/>
	<circle cx="70.5772" cy="87.2215" r="4" fill="#0" id="circle9"/>
	<circle cx="78.8993" cy="163.785" r="4" fill="#0" id="circle10"/>
	<circle cx="87.2215" cy="87.2215" r="4" fill="#0" id="circle11"/>
	<circle cx="87.2215" cy="178.765" r="4" fill="#0" id="circle12"/>
	<circle cx="90.5503" cy="195.409" r="4" fill="#0" id="circle13"/>
	<circle cx="95.5436" cy="283.624" r="4" fill="#0" id="circle14"/>
	<circle cx="95.5436" cy="300.268" r="4" fill="#0" id="circle15"/>
	<circle cx="95.5436" cy="316.913" r="4" fill="#0" id="circle16"/>
	<circle cx="95.5436" cy="333.557" r="4" fill="#0" id="circle17"/>
	<circle cx="95.5436" cy="350.201" r="4" fill="#0" id="circle18"/>
	<circle cx="98.8725" cy="210.389" r="4" fill="#0" id="circle19"/>
	<circle cx="103.866" cy="87.2215" r="4" fill="#0" id="circle20"/>
	<circle cx="105.53" cy="227.034" r="4" fill="#0" id="circle21"/>
	<circle cx="108.859" cy="270.309" r="4" fill="#0" id="circle22"/>
	<circle cx="108.859" cy="361.852" r="4" fill="#0" id="circle23"/>
	<circle cx="117.181" cy="253.664" r="4" fill="#0" id="circle24"/>
	<circle cx="120.51" cy="90.5503" r="4" fill="#0" id="circle25"/>
	<circle cx="120.51" cy="375.168" r="4" fill="#0" id="circle26"/>
	<circle cx="130.497" cy="103.866" r="4" fill="#0" id="circle27"/>
	<circle cx="137.154" cy="380.161" r="4" fill="#0" id="circle28"/>
	<circle cx="142.148" cy="396.805" r="4" fill="#0" id="circle29"/>
	<circle cx="143.812" cy="113.852" r="4" fill="#0" id="circle30"/>
	<circle cx="155.463" cy="127.168" r="4" fill="#0" id="circle31"/>
	<circle cx="157.128" cy="388.483" r="4" fill="#0" id="circle32"/>
	<circle cx="170.443" cy="375.168" r="4" fill="#0" id="circle33"/>
	<circle cx="172.107" cy="133.826" r="4" fill="#0" id="circle34"/>
	<circle cx="172.107" cy="263.651" r="4" fill="#0" id="circle35"/>
	<circle cx="172.107" cy="280.295" r="4" fill="#0" id="circle36"/>
	<circle cx="172.107" cy="296.94" r="4" fill="#0" id="circle37"/>
	<circle cx="172.107" cy="313.584" r="4" fill="#0" id="circle38"/>
	<circle cx="172.107" cy="330.228" r="4" fill="#0" id="circle39"/>
	<circle cx="172.107" cy="346.872" r="4" fill="#0" id="circle40"/>
	<circle cx="188.752" cy="137.154" r="4" fill="#0" id="circle41"/>
	<circle cx="188.752" cy="263.651" r="4" fill="#0" id="circle42"/>
	<circle cx="205.396" cy="137.154" r="4" fill="#0" id="circle43"/>
	<circle cx="205.396" cy="263.651" r="4" fill="#0" id="circle44"/>
	<circle cx="222.04" cy="132.161" r="4" fill="#0" id="circle45"/>
	<circle cx="222.04" cy="263.651" r="4" fill="#0" id="circle46"/>
	<circle cx="238.685" cy="128.832" r="4" fill="#0" id="circle47"/>
	<circle cx="238.685" cy="263.651" r="4" fill="#0" id="circle48"/>
	<circle cx="255.329" cy="123.839" r="4" fill="#0" id="circle49"/>
	<circle cx="255.329" cy="263.651" r="4" fill="#0" id="circle50"/>
	<circle cx="271.973" cy="128.832" r="4" fill="#0" id="circle51"/>
	<circle cx="271.973" cy="263.651" r="4" fill="#0" id="circle52"/>
	<circle cx="286.953" cy="120.51" r="4" fill="#0" id="circle53"/>
	<circle cx="288.617" cy="263.651" r="4" fill="#0" id="circle54"/>
	<circle cx="303.597" cy="120.51" r="4" fill="#0" id="circle55"/>
	<circle cx="305.262" cy="263.651" r="4" fill="#0" id="circle56"/>
	<circle cx="320.242" cy="120.51" r="4" fill="#0" id="circle57"/>
	<circle cx="321.906" cy="266.98" r="4" fill="#0" id="circle58"/>
	<circle cx="328.564" cy="366.846" r="4" fill="#0" id="circle59"/>
	<circle cx="328.564" cy="391.812" r="4" fill="#0" id="circle60"/>
	<circle cx="333.557" cy="280.295" r="4" fill="#0" id="circle61"/>
	<circle cx="336.886" cy="120.51" r="4" fill="#0" id="circle62"/>
	<circle cx="336.886" cy="296.94" r="4" fill="#0" id="circle63"/>
	<circle cx="336.886" cy="406.792" r="4" fill="#0" id="circle64"/>
	<circle cx="341.879" cy="353.53" r="4" fill="#0" id="circle65"/>
	<circle cx="345.208" cy="311.919" r="4" fill="#0" id="circle66"/>
	<circle cx="345.208" cy="328.564" r="4" fill="#0" id="circle67"/>
	<circle cx="351.866" cy="128.832" r="4" fill="#0" id="circle68"/>
	<circle cx="353.53" cy="413.45" r="4" fill="#0" id="circle69"/>
	<circle cx="366.846" cy="137.154" r="4" fill="#0" id="circle70"/>
	<circle cx="370.174" cy="408.456" r="4" fill="#0" id="circle71"/>
	<circle cx="371.839" cy="153.799" r="4" fill="#0" id="circle72"/>
	<circle cx="378.497" cy="391.812" r="4" fill="#0" id="circle73"/>
	<circle cx="380.161" cy="168.779" r="4" fill="#0" id="circle74"/>
	<circle cx="380.161" cy="185.423" r="4" fill="#0" id="circle75"/>
	<circle cx="380.161" cy="271.973" r="4" fill="#0" id="circle76"/>
	<circle cx="380.161" cy="288.617" r="4" fill="#0" id="circle77"/>
	<circle cx="380.161" cy="305.262" r="4" fill="#0" id="circle78"/>
	<circle cx="380.161" cy="321.906" r="4" fill="#0" id="circle79"/>
	<circle cx="380.161" cy="338.55" r="4" fill="#0" id="circle80"/>
	<circle cx="380.161" cy="355.195" r="4" fill="#0" id="circle81"/>
	<circle cx="386.819" cy="375.168" r="4" fill="#0" id="circle82"/>
	<circle cx="388.483" cy="200.403" r="4" fill="#0" id="circle83"/>
	<circle cx="388.483" cy="217.047" r="4" fill="#0" id="circle84"/>
	<circle cx="396.805" cy="271.973" r="4" fill="#0" id="circle85"/>
	<circle cx="405.128" cy="220.376" r="4" fill="#0" id="circle86"/>
	<circle cx="411.785" cy="280.295" r="4" fill="#0" id="circle87"/>
	<circle cx="421.772" cy="220.376" r="4" fill="#0" id="circle88"/>
	<circle cx="426.765" cy="288.617" r="4" fill="#0" id="circle89"/>
	<circle cx="438.416" cy="215.383" r="4" fill="#0" id="circle90"/>
	<circle cx="441.745" cy="296.94" r="4" fill="#0" id="circle91"/>
	<circle cx="445.074" cy="313.584" r="4" fill="#0" id="circle92"/>
	<circle cx="445.074" cy="330.228" r="4" fill="#0" id="circle93"/>
	<circle cx="445.074" cy="346.872" r="4" fill="#0" id="circle94"/>
	<circle cx="445.074" cy="363.517" r="4" fill="#0" id="circle95"/>
	<circle cx="450.067" cy="380.161" r="4" fill="#0" id="circle96"/>
	<circle cx="455.06" cy="212.054" r="4" fill="#0" id="circle97"/>
	<circle cx="458.389" cy="395.141" r="4" fill="#0" id="circle98"/>
	<circle cx="471.705" cy="212.054" r="4" fill="#0" id="circle99"/>
	<circle cx="475.034" cy="396.805" r="4" fill="#0" id="circle100"/>
	<circle cx="478.362" cy="158.792" r="4" fill="#0" id="circle101"/>
	<circle cx="478.362" cy="175.436" r="4" fill="#0" id="circle102"/>
	<circle cx="486.685" cy="190.416" r="4" fill="#0" id="circle103"/>
	<circle cx="490.013" cy="405.128" r="4" fill="#0" id="circle104"/>
	<circle cx="491.678" cy="145.477" r="4" fill="#0" id="circle105"/>
	<circle cx="504.993" cy="132.161" r="4" fill="#0" id="circle106"/>
	<circle cx="506.658" cy="405.128" r="4" fill="#0" id="circle107"/>
	<circle cx="511.651" cy="42.2819" r="4" fill="#0" id="circle108"/>
	<circle cx="519.973" cy="57.2617" r="4" fill="#0" id="circle109"/>
	<circle cx="519.973" cy="73.906" r="4" fill="#0" id="circle110"/>
	<circle cx="521.638" cy="123.839" r="4" fill="#0" id="circle111"/>
	<circle cx="523.302" cy="410.121" r="4" fill="#0" id="circle112"/>
	<circle cx="524.966" cy="28.9664" r="4" fill="#0" id="circle113"/>
	<circle cx="528.295" cy="88.8859" r="4" fill="#0" id="circle114"/>
	<circle cx="528.295" cy="105.53" r="4" fill="#0" id="circle115"/>
	<circle cx="536.617" cy="8.99329" r="4" fill="#0" id="circle116"/>
	<circle cx="539.946" cy="413.45" r="4" fill="#0" id="circle117"/>
	<circle cx="553.262" cy="4" r="4" fill="#0" id="circle118"/>
	<circle cx="554.926" cy="421.772" r="4" fill="#0" id="circle119"/>
	<circle cx="568.242" cy="12.3221" r="4" fill="#0" id="circle120"/>
	<circle cx="571.57" cy="421.772" r="4" fill="#0" id="circle121"/>
	<circle cx="579.893" cy="405.128" r="4" fill="#0" id="circle122"/>
	<circle cx="583.221" cy="20.6443" r="4" fill="#0" id="circle123"/>
	<circle cx="588.215" cy="388.483" r="4" fill="#0" id="circle124"/>
	<circle cx="594.872" cy="33.9597" r="4" fill="#0" id="circle125"/>
	<circle cx="596.537" cy="50.604" r="4" fill="#0" id="circle126"/>
	<circle cx="596.537" cy="67.2483" r="4" fill="#0" id="circle127"/>
	<circle cx="596.537" cy="83.8926" r="4" fill="#0" id="circle128"/>
	<circle cx="596.537" cy="100.537" r="4" fill="#0" id="circle129"/>
	<circle cx="596.537" cy="117.181" r="4" fill="#0" id="circle130"/>
	<circle cx="596.537" cy="133.826" r="4" fill="#0" id="circle131"/>
	<circle cx="596.537" cy="150.47" r="4" fill="#0" id="circle132"/>
	<circle cx="596.537" cy="167.114" r="4" fill="#0" id="circle133"/>
	<circle cx="596.537" cy="183.758" r="4" fill="#0" id="circle134"/>
	<circle cx="596.537" cy="200.403" r="4" fill="#0" id="circle135"/>
	<circle cx="596.537" cy="338.55" r="4" fill="#0" id="circle136"/>
	<circle cx="596.537" cy="355.195" r="4" fill="#0" id="circle137"/>
	<circle cx="596.537" cy="371.839" r="4" fill="#0" id="circle138"/>
	<circle cx="603.195" cy="217.047" r="4" fill="#0" id="circle139"/>
	<circle cx="613.181" cy="338.55" r="4" fill="#0" id="circle140"/>
	<circle cx="619.839" cy="220.376" r="4" fill="#0" id="circle141"/>
	<circle cx="629.826" cy="338.55" r="4" fill="#0" id="circle142"/>
	<circle cx="636.483" cy="220.376" r="4" fill="#0" id="circle143"/>
	<circle cx="646.47" cy="338.55" r="4" fill="#0" id="circle144"/>
	<circle cx="653.128" cy="220.376" r="4" fill="#0" id="circle145"/>
	<circle cx="661.45" cy="200.403" r="4" fill="#0" id="circle146"/>
	<circle cx="663.114" cy="338.55" r="4" fill="#0" id="circle147"/>
	<circle cx="669.772" cy="183.758" r="4" fill="#0" id="circle148"/>
	<circle cx="669.772" cy="215.383" r="4" fill="#0" id="circle149"/>
	<circle cx="679.758" cy="338.55" r="4" fill="#0" id="circle150"/>
	<circle cx="683.087" cy="170.443" r="4" fill="#0" id="circle151"/>
	<circle cx="694.738" cy="346.872" r="4" fill="#0" id="circle152"/>
	<circle cx="696.403" cy="157.128" r="4" fill="#0" id="circle153"/>
	<circle cx="709.718" cy="145.477" r="4" fill="#0" id="circle154"/>
	<circle cx="711.383" cy="346.872" r="4" fill="#0" id="circle155"/>
	<circle cx="726.362" cy="145.477" r="4" fill="#0" id="circle156"/>
	<circle cx="728.027" cy="346.872" r="4" fill="#0" id="circle157"/>
	<circle cx="736.349" cy="75.5705" r="4" fill="#0" id="circle158"/>
	<circle cx="736.349" cy="92.2148" r="4" fill="#0" id="circle159"/>
	<circle cx="736.349" cy="108.859" r="4" fill="#0" id="circle160"/>
	<circle cx="736.349" cy="125.503" r="4" fill="#0" id="circle161"/>
	<circle cx="743.007" cy="338.55" r="4" fill="#0" id="circle162"/>
	<circle cx="749.664" cy="62.255" r="4" fill="#0" id="circle163"/>
	<circle cx="754.658" cy="351.866" r="4" fill="#0" id="circle164"/>
	<circle cx="764.644" cy="53.9329" r="4" fill="#0" id="circle165"/>
	<circle cx="767.973" cy="363.517" r="4" fill="#0" id="circle166"/>
	<circle cx="774.631" cy="380.161" r="4" fill="#0" id="circle167"/>
	<circle cx="777.96" cy="400.134" r="4" fill="#0" id="circle168"/>
	<circle cx="781.289" cy="53.9329" r="4" fill="#0" id="circle169"/>
	<circle cx="791.275" cy="411.785" r="4" fill="#0" id="circle170"/>
	<circle cx="797.933" cy="53.9329" r="4" fill="#0" id="circle171"/>
	<circle cx="804.591" cy="70.5772" r="4" fill="#0" id="circle172"/>
	<circle cx="806.255" cy="420.107" r="4" fill="#0" id="circle173"/>
	<circle cx="812.913" cy="88.8859" r="4" fill="#0" id="circle174"/>
	<circle cx="821.235" cy="103.866" r="4" fill="#0" id="circle175"/>
	<circle cx="822.899" cy="421.772" r="4" fill="#0" id="circle176"/>
	<circle cx="829.557" cy="118.846" r="4" fill="#0" id="circle177"/>
	<circle cx="837.879" cy="430.094" r="4" fill="#0" id="circle178"/>
	<circle cx="846.201" cy="125.503" r="4" fill="#0" id="circle179"/>
	<circle cx="854.523" cy="433.423" r="4" fill="#0" id="circle180"/>
	<circle cx="862.846" cy="128.832" r="4" fill="#0" id="circle181"/>
	<circle cx="871.168" cy="438.416" r="4" fill="#0" id="circle182"/>
	<circle cx="879.49" cy="128.832" r="4" fill="#0" id="circle183"/>
	<circle cx="887.812" cy="438.416" r="4" fill="#0" id="circle184"/>
	<circle cx="894.47" cy="137.154" r="4" fill="#0" id="circle185"/>
	<circle cx="904.456" cy="150.47" r="4" fill="#0" id="circle186"/>
	<circle cx="904.456" cy="430.094" r="4" fill="#0" id="circle187"/>
	<circle cx="912.779" cy="165.45" r="4" fill="#0" id="circle188"/>
	<circle cx="912.779" cy="182.094" r="4" fill="#0" id="circle189"/>
	<circle cx="912.779" cy="198.738" r="4" fill="#0" id="circle190"/>
	<circle cx="912.779" cy="215.383" r="4" fill="#0" id="circle191"/>
	<circle cx="921.101" cy="430.094" r="4" fill="#0" id="circle192"/>
	<circle cx="922.765" cy="228.698" r="4" fill="#0" id="circle193"/>
	<circle cx="937.745" cy="237.02" r="4" fill="#0" id="circle194"/>
	<circle cx="937.745" cy="421.772" r="4" fill="#0" id="circle195"/>
	<circle cx="951.06" cy="410.121" r="4" fill="#0" id="circle196"/>
	<circle cx="954.389" cy="242.013" r="4" fill="#0" id="circle197"/>
	<circle cx="954.389" cy="388.483" r="4" fill="#0" id="circle198"/>
	<circle cx="966.04" cy="255.329" r="4" fill="#0" id="circle199"/>
	<circle cx="971.034" cy="363.517" r="4" fill="#0" id="circle200"/>
	<circle cx="971.034" cy="380.161" r="4" fill="#0" id="circle201"/>
	<circle cx="979.356" cy="266.98" r="4" fill="#0" id="circle202"/>
	<circle cx="984.349" cy="351.866" r="4" fill="#0" id="circle203"/>
	<circle cx="987.678" cy="281.96" r="4" fill="#0" id="circle204"/>
	<circle cx="987.678" cy="330.228" r="4" fill="#0" id="circle205"/>
	<circle cx="996" cy="296.94" r="4" fill="#0" id="circle206"/>
	<circle cx="996" cy="313.584" r="4" fill="#0" id="circle207"/>
	</g>
</svg>