<?xml version="1.0" encoding="UTF-8" standalone="no"?>
<!-- Created with CurveBenchmark -->
<svg
	xmlns:dc="http://purl.org/dc/elements/1.1/"
	xmlns:cc="http://creativecommons.org/ns#"
	xmlns:rdf="http://www.w3.org/1999/02/22-rdf-syntax-ns#"
	xmlns:svg="http://www.w3.org/2000/svg"
	xmlns="http://www.w3.org/2000/svg"
	xmlns:sodipodi="http://sodipodi.sourceforge.net/DTD/sodipodi-0.dtd"
	xmlns:inkscape="http://www.inkscape.org/namespaces/inkscape"
	width="1000"
	height="1000"
	id="svg2"
	version="1.1"
	sodipodi:docname="manifold/crawl-cthand10.png.txt">
<defs
	id="defs4" />
<metadata
	id="metadata7">
	<rdf:RDF>
		<cc:Work
			rdf:about="">
			<dc:format>image/svg+xml</dc:format>
			<dc:type
				rdf:resource="http://purl.org/dc/dcmitype/StillImage" />
			<dc:title></dc:title>
		</cc:Work>
	</rdf:RDF>
</metadata>
<g
	inkscape:label="Layer 1"
	inkscape:groupmode="layer"
	id="layer1">
	<path style="fill:none;stroke:red;stroke-width:1px;stroke-linecap:butt;stroke-linejoin:miter;stroke-opacity:1" d="M 11.7987,297.233 11.7987,281.635 z" id="boundary" inkscape:connector-curvature="0" />
	<path style="fill:none;stroke:red;stroke-width:1px;stroke-linecap:butt;stroke-linejoin:miter;stroke-opacity:1" d="M 11.7987,281.635 27.3962,284.755 z" id="boundary" inkscape:connector-curvature="0" />
	<path style="fill:none;stroke:red;stroke-width:1px;stroke-linecap:butt;stroke-linejoin:miter;stroke-opacity:1" d="M 27.3962,284.755 42.9937,287.874 z" id="boundary" inkscape:connector-curvature="0" />
	<path style="fill:none;stroke:red;stroke-width:1px;stroke-linecap:butt;stroke-linejoin:miter;stroke-opacity:1" d="M 42.9937,287.874 52.3522,300.352 z" id="boundary" inkscape:connector-curvature="0" />
	<path style="fill:none;stroke:red;stroke-width:1px;stroke-linecap:butt;stroke-linejoin:miter;stroke-opacity:1" d="M 52.3522,300.352 60.1509,314.39 z" id="boundary" inkscape:connector-curvature="0" />
	<path style="fill:none;stroke:red;stroke-width:1px;stroke-linecap:butt;stroke-linejoin:miter;stroke-opacity:1" d="M 60.1509,314.39 67.9497,328.428 z" id="boundary" inkscape:connector-curvature="0" />
	<path style="fill:none;stroke:red;stroke-width:1px;stroke-linecap:butt;stroke-linejoin:miter;stroke-opacity:1" d="M 67.9497,328.428 78.8679,340.906 z" id="boundary" inkscape:connector-curvature="0" />
	<path style="fill:none;stroke:red;stroke-width:1px;stroke-linecap:butt;stroke-linejoin:miter;stroke-opacity:1" d="M 78.8679,340.906 83.5472,356.503 z" id="boundary" inkscape:connector-curvature="0" />
	<path style="fill:none;stroke:red;stroke-width:1px;stroke-linecap:butt;stroke-linejoin:miter;stroke-opacity:1" d="M 83.5472,356.503 91.3459,370.541 z" id="boundary" inkscape:connector-curvature="0" />
	<path style="fill:none;stroke:red;stroke-width:1px;stroke-linecap:butt;stroke-linejoin:miter;stroke-opacity:1" d="M 91.3459,370.541 99.1447,384.579 z" id="boundary" inkscape:connector-curvature="0" />
	<path style="fill:none;stroke:red;stroke-width:1px;stroke-linecap:butt;stroke-linejoin:miter;stroke-opacity:1" d="M 99.1447,384.579 106.943,398.616 z" id="boundary" inkscape:connector-curvature="0" />
	<path style="fill:none;stroke:red;stroke-width:1px;stroke-linecap:butt;stroke-linejoin:miter;stroke-opacity:1" d="M 106.943,398.616 117.862,411.094 z" id="boundary" inkscape:connector-curvature="0" />
	<path style="fill:none;stroke:red;stroke-width:1px;stroke-linecap:butt;stroke-linejoin:miter;stroke-opacity:1" d="M 117.862,411.094 125.66,425.132 z" id="boundary" inkscape:connector-curvature="0" />
	<path style="fill:none;stroke:red;stroke-width:1px;stroke-linecap:butt;stroke-linejoin:miter;stroke-opacity:1" d="M 125.66,425.132 136.579,437.61 z" id="boundary" inkscape:connector-curvature="0" />
	<path style="fill:none;stroke:red;stroke-width:1px;stroke-linecap:butt;stroke-linejoin:miter;stroke-opacity:1" d="M 136.579,437.61 145.937,450.088 z" id="boundary" inkscape:connector-curvature="0" />
	<path style="fill:none;stroke:red;stroke-width:1px;stroke-linecap:butt;stroke-linejoin:miter;stroke-opacity:1" d="M 145.937,450.088 153.736,464.126 z" id="boundary" inkscape:connector-curvature="0" />
	<path style="fill:none;stroke:red;stroke-width:1px;stroke-linecap:butt;stroke-linejoin:miter;stroke-opacity:1" d="M 153.736,464.126 166.214,473.484 z" id="boundary" inkscape:connector-curvature="0" />
	<path style="fill:none;stroke:red;stroke-width:1px;stroke-linecap:butt;stroke-linejoin:miter;stroke-opacity:1" d="M 166.214,473.484 180.252,481.283 z" id="boundary" inkscape:connector-curvature="0" />
	<path style="fill:none;stroke:red;stroke-width:1px;stroke-linecap:butt;stroke-linejoin:miter;stroke-opacity:1" d="M 180.252,481.283 195.849,487.522 z" id="boundary" inkscape:connector-curvature="0" />
	<path style="fill:none;stroke:red;stroke-width:1px;stroke-linecap:butt;stroke-linejoin:miter;stroke-opacity:1" d="M 195.849,487.522 198.969,471.925 z" id="boundary" inkscape:connector-curvature="0" />
	<path style="fill:none;stroke:red;stroke-width:1px;stroke-linecap:butt;stroke-linejoin:miter;stroke-opacity:1" d="M 198.969,471.925 194.289,456.327 z" id="boundary" inkscape:connector-curvature="0" />
	<path style="fill:none;stroke:red;stroke-width:1px;stroke-linecap:butt;stroke-linejoin:miter;stroke-opacity:1" d="M 194.289,456.327 191.17,440.73 z" id="boundary" inkscape:connector-curvature="0" />
	<path style="fill:none;stroke:red;stroke-width:1px;stroke-linecap:butt;stroke-linejoin:miter;stroke-opacity:1" d="M 191.17,440.73 191.17,425.132 z" id="boundary" inkscape:connector-curvature="0" />
	<path style="fill:none;stroke:red;stroke-width:1px;stroke-linecap:butt;stroke-linejoin:miter;stroke-opacity:1" d="M 191.17,425.132 183.371,411.094 z" id="boundary" inkscape:connector-curvature="0" />
	<path style="fill:none;stroke:red;stroke-width:1px;stroke-linecap:butt;stroke-linejoin:miter;stroke-opacity:1" d="M 183.371,411.094 183.371,395.497 z" id="boundary" inkscape:connector-curvature="0" />
	<path style="fill:none;stroke:red;stroke-width:1px;stroke-linecap:butt;stroke-linejoin:miter;stroke-opacity:1" d="M 183.371,395.497 175.572,381.459 z" id="boundary" inkscape:connector-curvature="0" />
	<path style="fill:none;stroke:red;stroke-width:1px;stroke-linecap:butt;stroke-linejoin:miter;stroke-opacity:1" d="M 175.572,381.459 167.774,367.421 z" id="boundary" inkscape:connector-curvature="0" />
	<path style="fill:none;stroke:red;stroke-width:1px;stroke-linecap:butt;stroke-linejoin:miter;stroke-opacity:1" d="M 167.774,367.421 167.774,351.824 z" id="boundary" inkscape:connector-curvature="0" />
	<path style="fill:none;stroke:red;stroke-width:1px;stroke-linecap:butt;stroke-linejoin:miter;stroke-opacity:1" d="M 167.774,351.824 167.774,336.226 z" id="boundary" inkscape:connector-curvature="0" />
	<path style="fill:none;stroke:red;stroke-width:1px;stroke-linecap:butt;stroke-linejoin:miter;stroke-opacity:1" d="M 167.774,336.226 167.774,320.629 z" id="boundary" inkscape:connector-curvature="0" />
	<path style="fill:none;stroke:red;stroke-width:1px;stroke-linecap:butt;stroke-linejoin:miter;stroke-opacity:1" d="M 167.774,320.629 159.975,306.591 z" id="boundary" inkscape:connector-curvature="0" />
	<path style="fill:none;stroke:red;stroke-width:1px;stroke-linecap:butt;stroke-linejoin:miter;stroke-opacity:1" d="M 159.975,306.591 159.975,290.994 z" id="boundary" inkscape:connector-curvature="0" />
	<path style="fill:none;stroke:red;stroke-width:1px;stroke-linecap:butt;stroke-linejoin:miter;stroke-opacity:1" d="M 159.975,290.994 159.975,275.396 z" id="boundary" inkscape:connector-curvature="0" />
	<path style="fill:none;stroke:red;stroke-width:1px;stroke-linecap:butt;stroke-linejoin:miter;stroke-opacity:1" d="M 159.975,275.396 152.176,261.358 z" id="boundary" inkscape:connector-curvature="0" />
	<path style="fill:none;stroke:red;stroke-width:1px;stroke-linecap:butt;stroke-linejoin:miter;stroke-opacity:1" d="M 152.176,261.358 152.176,245.761 z" id="boundary" inkscape:connector-curvature="0" />
	<path style="fill:none;stroke:red;stroke-width:1px;stroke-linecap:butt;stroke-linejoin:miter;stroke-opacity:1" d="M 152.176,245.761 144.377,231.723 z" id="boundary" inkscape:connector-curvature="0" />
	<path style="fill:none;stroke:red;stroke-width:1px;stroke-linecap:butt;stroke-linejoin:miter;stroke-opacity:1" d="M 144.377,231.723 144.377,216.126 z" id="boundary" inkscape:connector-curvature="0" />
	<path style="fill:none;stroke:red;stroke-width:1px;stroke-linecap:butt;stroke-linejoin:miter;stroke-opacity:1" d="M 144.377,216.126 144.377,200.528 z" id="boundary" inkscape:connector-curvature="0" />
	<path style="fill:none;stroke:red;stroke-width:1px;stroke-linecap:butt;stroke-linejoin:miter;stroke-opacity:1" d="M 144.377,200.528 136.579,186.491 z" id="boundary" inkscape:connector-curvature="0" />
	<path style="fill:none;stroke:red;stroke-width:1px;stroke-linecap:butt;stroke-linejoin:miter;stroke-opacity:1" d="M 136.579,186.491 136.579,170.893 z" id="boundary" inkscape:connector-curvature="0" />
	<path style="fill:none;stroke:red;stroke-width:1px;stroke-linecap:butt;stroke-linejoin:miter;stroke-opacity:1" d="M 136.579,170.893 136.579,155.296 z" id="boundary" inkscape:connector-curvature="0" />
	<path style="fill:none;stroke:red;stroke-width:1px;stroke-linecap:butt;stroke-linejoin:miter;stroke-opacity:1" d="M 136.579,155.296 128.78,141.258 z" id="boundary" inkscape:connector-curvature="0" />
	<path style="fill:none;stroke:red;stroke-width:1px;stroke-linecap:butt;stroke-linejoin:miter;stroke-opacity:1" d="M 128.78,141.258 141.258,128.78 z" id="boundary" inkscape:connector-curvature="0" />
	<path style="fill:none;stroke:red;stroke-width:1px;stroke-linecap:butt;stroke-linejoin:miter;stroke-opacity:1" d="M 141.258,128.78 144.377,110.063 z" id="boundary" inkscape:connector-curvature="0" />
	<path style="fill:none;stroke:red;stroke-width:1px;stroke-linecap:butt;stroke-linejoin:miter;stroke-opacity:1" d="M 144.377,110.063 152.176,94.4654 z" id="boundary" inkscape:connector-curvature="0" />
	<path style="fill:none;stroke:red;stroke-width:1px;stroke-linecap:butt;stroke-linejoin:miter;stroke-opacity:1" d="M 152.176,94.4654 159.975,78.8679 z" id="boundary" inkscape:connector-curvature="0" />
	<path style="fill:none;stroke:red;stroke-width:1px;stroke-linecap:butt;stroke-linejoin:miter;stroke-opacity:1" d="M 159.975,78.8679 175.572,85.1069 z" id="boundary" inkscape:connector-curvature="0" />
	<path style="fill:none;stroke:red;stroke-width:1px;stroke-linecap:butt;stroke-linejoin:miter;stroke-opacity:1" d="M 175.572,85.1069 184.931,97.5849 z" id="boundary" inkscape:connector-curvature="0" />
	<path style="fill:none;stroke:red;stroke-width:1px;stroke-linecap:butt;stroke-linejoin:miter;stroke-opacity:1" d="M 184.931,97.5849 197.409,106.943 z" id="boundary" inkscape:connector-curvature="0" />
	<path style="fill:none;stroke:red;stroke-width:1px;stroke-linecap:butt;stroke-linejoin:miter;stroke-opacity:1" d="M 197.409,106.943 203.648,122.541 z" id="boundary" inkscape:connector-curvature="0" />
	<path style="fill:none;stroke:red;stroke-width:1px;stroke-linecap:butt;stroke-linejoin:miter;stroke-opacity:1" d="M 203.648,122.541 211.447,136.579 z" id="boundary" inkscape:connector-curvature="0" />
	<path style="fill:none;stroke:red;stroke-width:1px;stroke-linecap:butt;stroke-linejoin:miter;stroke-opacity:1" d="M 211.447,136.579 216.126,152.176 z" id="boundary" inkscape:connector-curvature="0" />
	<path style="fill:none;stroke:red;stroke-width:1px;stroke-linecap:butt;stroke-linejoin:miter;stroke-opacity:1" d="M 216.126,152.176 216.126,167.774 z" id="boundary" inkscape:connector-curvature="0" />
	<path style="fill:none;stroke:red;stroke-width:1px;stroke-linecap:butt;stroke-linejoin:miter;stroke-opacity:1" d="M 216.126,167.774 216.126,183.371 z" id="boundary" inkscape:connector-curvature="0" />
	<path style="fill:none;stroke:red;stroke-width:1px;stroke-linecap:butt;stroke-linejoin:miter;stroke-opacity:1" d="M 216.126,183.371 223.925,197.409 z" id="boundary" inkscape:connector-curvature="0" />
	<path style="fill:none;stroke:red;stroke-width:1px;stroke-linecap:butt;stroke-linejoin:miter;stroke-opacity:1" d="M 223.925,197.409 223.925,213.006 z" id="boundary" inkscape:connector-curvature="0" />
	<path style="fill:none;stroke:red;stroke-width:1px;stroke-linecap:butt;stroke-linejoin:miter;stroke-opacity:1" d="M 223.925,213.006 231.723,227.044 z" id="boundary" inkscape:connector-curvature="0" />
	<path style="fill:none;stroke:red;stroke-width:1px;stroke-linecap:butt;stroke-linejoin:miter;stroke-opacity:1" d="M 231.723,227.044 231.723,242.642 z" id="boundary" inkscape:connector-curvature="0" />
	<path style="fill:none;stroke:red;stroke-width:1px;stroke-linecap:butt;stroke-linejoin:miter;stroke-opacity:1" d="M 231.723,242.642 239.522,256.679 z" id="boundary" inkscape:connector-curvature="0" />
	<path style="fill:none;stroke:red;stroke-width:1px;stroke-linecap:butt;stroke-linejoin:miter;stroke-opacity:1" d="M 239.522,256.679 244.201,272.277 z" id="boundary" inkscape:connector-curvature="0" />
	<path style="fill:none;stroke:red;stroke-width:1px;stroke-linecap:butt;stroke-linejoin:miter;stroke-opacity:1" d="M 244.201,272.277 247.321,287.874 z" id="boundary" inkscape:connector-curvature="0" />
	<path style="fill:none;stroke:red;stroke-width:1px;stroke-linecap:butt;stroke-linejoin:miter;stroke-opacity:1" d="M 247.321,287.874 247.321,303.472 z" id="boundary" inkscape:connector-curvature="0" />
	<path style="fill:none;stroke:red;stroke-width:1px;stroke-linecap:butt;stroke-linejoin:miter;stroke-opacity:1" d="M 247.321,303.472 255.119,317.509 z" id="boundary" inkscape:connector-curvature="0" />
	<path style="fill:none;stroke:red;stroke-width:1px;stroke-linecap:butt;stroke-linejoin:miter;stroke-opacity:1" d="M 255.119,317.509 258.239,333.107 z" id="boundary" inkscape:connector-curvature="0" />
	<path style="fill:none;stroke:red;stroke-width:1px;stroke-linecap:butt;stroke-linejoin:miter;stroke-opacity:1" d="M 258.239,333.107 266.038,347.145 z" id="boundary" inkscape:connector-curvature="0" />
	<path style="fill:none;stroke:red;stroke-width:1px;stroke-linecap:butt;stroke-linejoin:miter;stroke-opacity:1" d="M 266.038,347.145 270.717,362.742 z" id="boundary" inkscape:connector-curvature="0" />
	<path style="fill:none;stroke:red;stroke-width:1px;stroke-linecap:butt;stroke-linejoin:miter;stroke-opacity:1" d="M 270.717,362.742 283.195,372.101 z" id="boundary" inkscape:connector-curvature="0" />
	<path style="fill:none;stroke:red;stroke-width:1px;stroke-linecap:butt;stroke-linejoin:miter;stroke-opacity:1" d="M 283.195,372.101 289.434,387.698 z" id="boundary" inkscape:connector-curvature="0" />
	<path style="fill:none;stroke:red;stroke-width:1px;stroke-linecap:butt;stroke-linejoin:miter;stroke-opacity:1" d="M 289.434,387.698 301.912,398.616 z" id="boundary" inkscape:connector-curvature="0" />
	<path style="fill:none;stroke:red;stroke-width:1px;stroke-linecap:butt;stroke-linejoin:miter;stroke-opacity:1" d="M 301.912,398.616 315.95,381.459 z" id="boundary" inkscape:connector-curvature="0" />
	<path style="fill:none;stroke:red;stroke-width:1px;stroke-linecap:butt;stroke-linejoin:miter;stroke-opacity:1" d="M 315.95,381.459 315.95,365.862 z" id="boundary" inkscape:connector-curvature="0" />
	<path style="fill:none;stroke:red;stroke-width:1px;stroke-linecap:butt;stroke-linejoin:miter;stroke-opacity:1" d="M 315.95,365.862 315.95,350.264 z" id="boundary" inkscape:connector-curvature="0" />
	<path style="fill:none;stroke:red;stroke-width:1px;stroke-linecap:butt;stroke-linejoin:miter;stroke-opacity:1" d="M 315.95,350.264 315.95,334.667 z" id="boundary" inkscape:connector-curvature="0" />
	<path style="fill:none;stroke:red;stroke-width:1px;stroke-linecap:butt;stroke-linejoin:miter;stroke-opacity:1" d="M 315.95,334.667 315.95,319.069 z" id="boundary" inkscape:connector-curvature="0" />
	<path style="fill:none;stroke:red;stroke-width:1px;stroke-linecap:butt;stroke-linejoin:miter;stroke-opacity:1" d="M 315.95,319.069 315.95,303.472 z" id="boundary" inkscape:connector-curvature="0" />
	<path style="fill:none;stroke:red;stroke-width:1px;stroke-linecap:butt;stroke-linejoin:miter;stroke-opacity:1" d="M 315.95,303.472 315.95,287.874 z" id="boundary" inkscape:connector-curvature="0" />
	<path style="fill:none;stroke:red;stroke-width:1px;stroke-linecap:butt;stroke-linejoin:miter;stroke-opacity:1" d="M 315.95,287.874 308.151,273.836 z" id="boundary" inkscape:connector-curvature="0" />
	<path style="fill:none;stroke:red;stroke-width:1px;stroke-linecap:butt;stroke-linejoin:miter;stroke-opacity:1" d="M 308.151,273.836 308.151,258.239 z" id="boundary" inkscape:connector-curvature="0" />
	<path style="fill:none;stroke:red;stroke-width:1px;stroke-linecap:butt;stroke-linejoin:miter;stroke-opacity:1" d="M 308.151,258.239 315.95,234.843 z" id="boundary" inkscape:connector-curvature="0" />
	<path style="fill:none;stroke:red;stroke-width:1px;stroke-linecap:butt;stroke-linejoin:miter;stroke-opacity:1" d="M 315.95,234.843 315.95,219.245 z" id="boundary" inkscape:connector-curvature="0" />
	<path style="fill:none;stroke:red;stroke-width:1px;stroke-linecap:butt;stroke-linejoin:miter;stroke-opacity:1" d="M 315.95,219.245 315.95,203.648 z" id="boundary" inkscape:connector-curvature="0" />
	<path style="fill:none;stroke:red;stroke-width:1px;stroke-linecap:butt;stroke-linejoin:miter;stroke-opacity:1" d="M 315.95,203.648 315.95,188.05 z" id="boundary" inkscape:connector-curvature="0" />
	<path style="fill:none;stroke:red;stroke-width:1px;stroke-linecap:butt;stroke-linejoin:miter;stroke-opacity:1" d="M 315.95,188.05 315.95,172.453 z" id="boundary" inkscape:connector-curvature="0" />
	<path style="fill:none;stroke:red;stroke-width:1px;stroke-linecap:butt;stroke-linejoin:miter;stroke-opacity:1" d="M 315.95,172.453 315.95,156.855 z" id="boundary" inkscape:connector-curvature="0" />
	<path style="fill:none;stroke:red;stroke-width:1px;stroke-linecap:butt;stroke-linejoin:miter;stroke-opacity:1" d="M 315.95,156.855 315.95,141.258 z" id="boundary" inkscape:connector-curvature="0" />
	<path style="fill:none;stroke:red;stroke-width:1px;stroke-linecap:butt;stroke-linejoin:miter;stroke-opacity:1" d="M 315.95,141.258 315.95,125.66 z" id="boundary" inkscape:connector-curvature="0" />
	<path style="fill:none;stroke:red;stroke-width:1px;stroke-linecap:butt;stroke-linejoin:miter;stroke-opacity:1" d="M 315.95,125.66 315.95,110.063 z" id="boundary" inkscape:connector-curvature="0" />
	<path style="fill:none;stroke:red;stroke-width:1px;stroke-linecap:butt;stroke-linejoin:miter;stroke-opacity:1" d="M 315.95,110.063 315.95,94.4654 z" id="boundary" inkscape:connector-curvature="0" />
	<path style="fill:none;stroke:red;stroke-width:1px;stroke-linecap:butt;stroke-linejoin:miter;stroke-opacity:1" d="M 315.95,94.4654 315.95,78.8679 z" id="boundary" inkscape:connector-curvature="0" />
	<path style="fill:none;stroke:red;stroke-width:1px;stroke-linecap:butt;stroke-linejoin:miter;stroke-opacity:1" d="M 315.95,78.8679 315.95,63.2704 z" id="boundary" inkscape:connector-curvature="0" />
	<path style="fill:none;stroke:red;stroke-width:1px;stroke-linecap:butt;stroke-linejoin:miter;stroke-opacity:1" d="M 315.95,63.2704 315.95,47.673 z" id="boundary" inkscape:connector-curvature="0" />
	<path style="fill:none;stroke:red;stroke-width:1px;stroke-linecap:butt;stroke-linejoin:miter;stroke-opacity:1" d="M 315.95,47.673 328.428,35.195 z" id="boundary" inkscape:connector-curvature="0" />
	<path style="fill:none;stroke:red;stroke-width:1px;stroke-linecap:butt;stroke-linejoin:miter;stroke-opacity:1" d="M 328.428,35.195 339.346,16.478 z" id="boundary" inkscape:connector-curvature="0" />
	<path style="fill:none;stroke:red;stroke-width:1px;stroke-linecap:butt;stroke-linejoin:miter;stroke-opacity:1" d="M 339.346,16.478 351.824,4 z" id="boundary" inkscape:connector-curvature="0" />
	<path style="fill:none;stroke:red;stroke-width:1px;stroke-linecap:butt;stroke-linejoin:miter;stroke-opacity:1" d="M 351.824,4 367.421,4 z" id="boundary" inkscape:connector-curvature="0" />
	<path style="fill:none;stroke:red;stroke-width:1px;stroke-linecap:butt;stroke-linejoin:miter;stroke-opacity:1" d="M 367.421,4 378.34,16.478 z" id="boundary" inkscape:connector-curvature="0" />
	<path style="fill:none;stroke:red;stroke-width:1px;stroke-linecap:butt;stroke-linejoin:miter;stroke-opacity:1" d="M 378.34,16.478 379.899,32.0755 z" id="boundary" inkscape:connector-curvature="0" />
	<path style="fill:none;stroke:red;stroke-width:1px;stroke-linecap:butt;stroke-linejoin:miter;stroke-opacity:1" d="M 379.899,32.0755 390.818,44.5535 z" id="boundary" inkscape:connector-curvature="0" />
	<path style="fill:none;stroke:red;stroke-width:1px;stroke-linecap:butt;stroke-linejoin:miter;stroke-opacity:1" d="M 390.818,44.5535 395.497,60.1509 z" id="boundary" inkscape:connector-curvature="0" />
	<path style="fill:none;stroke:red;stroke-width:1px;stroke-linecap:butt;stroke-linejoin:miter;stroke-opacity:1" d="M 395.497,60.1509 395.497,75.7484 z" id="boundary" inkscape:connector-curvature="0" />
	<path style="fill:none;stroke:red;stroke-width:1px;stroke-linecap:butt;stroke-linejoin:miter;stroke-opacity:1" d="M 395.497,75.7484 403.296,89.7862 z" id="boundary" inkscape:connector-curvature="0" />
	<path style="fill:none;stroke:red;stroke-width:1px;stroke-linecap:butt;stroke-linejoin:miter;stroke-opacity:1" d="M 403.296,89.7862 403.296,105.384 z" id="boundary" inkscape:connector-curvature="0" />
	<path style="fill:none;stroke:red;stroke-width:1px;stroke-linecap:butt;stroke-linejoin:miter;stroke-opacity:1" d="M 403.296,105.384 403.296,120.981 z" id="boundary" inkscape:connector-curvature="0" />
	<path style="fill:none;stroke:red;stroke-width:1px;stroke-linecap:butt;stroke-linejoin:miter;stroke-opacity:1" d="M 403.296,120.981 403.296,136.579 z" id="boundary" inkscape:connector-curvature="0" />
	<path style="fill:none;stroke:red;stroke-width:1px;stroke-linecap:butt;stroke-linejoin:miter;stroke-opacity:1" d="M 403.296,136.579 403.296,152.176 z" id="boundary" inkscape:connector-curvature="0" />
	<path style="fill:none;stroke:red;stroke-width:1px;stroke-linecap:butt;stroke-linejoin:miter;stroke-opacity:1" d="M 403.296,152.176 403.296,167.774 z" id="boundary" inkscape:connector-curvature="0" />
	<path style="fill:none;stroke:red;stroke-width:1px;stroke-linecap:butt;stroke-linejoin:miter;stroke-opacity:1" d="M 403.296,167.774 403.296,183.371 z" id="boundary" inkscape:connector-curvature="0" />
	<path style="fill:none;stroke:red;stroke-width:1px;stroke-linecap:butt;stroke-linejoin:miter;stroke-opacity:1" d="M 403.296,183.371 403.296,198.969 z" id="boundary" inkscape:connector-curvature="0" />
	<path style="fill:none;stroke:red;stroke-width:1px;stroke-linecap:butt;stroke-linejoin:miter;stroke-opacity:1" d="M 403.296,198.969 403.296,214.566 z" id="boundary" inkscape:connector-curvature="0" />
	<path style="fill:none;stroke:red;stroke-width:1px;stroke-linecap:butt;stroke-linejoin:miter;stroke-opacity:1" d="M 403.296,214.566 403.296,230.164 z" id="boundary" inkscape:connector-curvature="0" />
	<path style="fill:none;stroke:red;stroke-width:1px;stroke-linecap:butt;stroke-linejoin:miter;stroke-opacity:1" d="M 403.296,230.164 411.094,244.201 z" id="boundary" inkscape:connector-curvature="0" />
	<path style="fill:none;stroke:red;stroke-width:1px;stroke-linecap:butt;stroke-linejoin:miter;stroke-opacity:1" d="M 411.094,244.201 411.094,259.799 z" id="boundary" inkscape:connector-curvature="0" />
	<path style="fill:none;stroke:red;stroke-width:1px;stroke-linecap:butt;stroke-linejoin:miter;stroke-opacity:1" d="M 411.094,259.799 411.094,275.396 z" id="boundary" inkscape:connector-curvature="0" />
	<path style="fill:none;stroke:red;stroke-width:1px;stroke-linecap:butt;stroke-linejoin:miter;stroke-opacity:1" d="M 411.094,275.396 411.094,290.994 z" id="boundary" inkscape:connector-curvature="0" />
	<path style="fill:none;stroke:red;stroke-width:1px;stroke-linecap:butt;stroke-linejoin:miter;stroke-opacity:1" d="M 411.094,290.994 411.094,306.591 z" id="boundary" inkscape:connector-curvature="0" />
	<path style="fill:none;stroke:red;stroke-width:1px;stroke-linecap:butt;stroke-linejoin:miter;stroke-opacity:1" d="M 411.094,306.591 411.094,322.189 z" id="boundary" inkscape:connector-curvature="0" />
	<path style="fill:none;stroke:red;stroke-width:1px;stroke-linecap:butt;stroke-linejoin:miter;stroke-opacity:1" d="M 411.094,322.189 411.094,337.786 z" id="boundary" inkscape:connector-curvature="0" />
	<path style="fill:none;stroke:red;stroke-width:1px;stroke-linecap:butt;stroke-linejoin:miter;stroke-opacity:1" d="M 411.094,337.786 411.094,353.384 z" id="boundary" inkscape:connector-curvature="0" />
	<path style="fill:none;stroke:red;stroke-width:1px;stroke-linecap:butt;stroke-linejoin:miter;stroke-opacity:1" d="M 411.094,353.384 411.094,368.981 z" id="boundary" inkscape:connector-curvature="0" />
	<path style="fill:none;stroke:red;stroke-width:1px;stroke-linecap:butt;stroke-linejoin:miter;stroke-opacity:1" d="M 411.094,368.981 418.893,383.019 z" id="boundary" inkscape:connector-curvature="0" />
	<path style="fill:none;stroke:red;stroke-width:1px;stroke-linecap:butt;stroke-linejoin:miter;stroke-opacity:1" d="M 418.893,383.019 426.692,397.057 z" id="boundary" inkscape:connector-curvature="0" />
	<path style="fill:none;stroke:red;stroke-width:1px;stroke-linecap:butt;stroke-linejoin:miter;stroke-opacity:1" d="M 426.692,397.057 442.289,389.258 z" id="boundary" inkscape:connector-curvature="0" />
	<path style="fill:none;stroke:red;stroke-width:1px;stroke-linecap:butt;stroke-linejoin:miter;stroke-opacity:1" d="M 442.289,389.258 448.528,367.421 z" id="boundary" inkscape:connector-curvature="0" />
	<path style="fill:none;stroke:red;stroke-width:1px;stroke-linecap:butt;stroke-linejoin:miter;stroke-opacity:1" d="M 448.528,367.421 456.327,351.824 z" id="boundary" inkscape:connector-curvature="0" />
	<path style="fill:none;stroke:red;stroke-width:1px;stroke-linecap:butt;stroke-linejoin:miter;stroke-opacity:1" d="M 456.327,351.824 456.327,336.226 z" id="boundary" inkscape:connector-curvature="0" />
	<path style="fill:none;stroke:red;stroke-width:1px;stroke-linecap:butt;stroke-linejoin:miter;stroke-opacity:1" d="M 456.327,336.226 456.327,320.629 z" id="boundary" inkscape:connector-curvature="0" />
	<path style="fill:none;stroke:red;stroke-width:1px;stroke-linecap:butt;stroke-linejoin:miter;stroke-opacity:1" d="M 456.327,320.629 464.126,305.031 z" id="boundary" inkscape:connector-curvature="0" />
	<path style="fill:none;stroke:red;stroke-width:1px;stroke-linecap:butt;stroke-linejoin:miter;stroke-opacity:1" d="M 464.126,305.031 464.126,289.434 z" id="boundary" inkscape:connector-curvature="0" />
	<path style="fill:none;stroke:red;stroke-width:1px;stroke-linecap:butt;stroke-linejoin:miter;stroke-opacity:1" d="M 464.126,289.434 464.126,273.836 z" id="boundary" inkscape:connector-curvature="0" />
	<path style="fill:none;stroke:red;stroke-width:1px;stroke-linecap:butt;stroke-linejoin:miter;stroke-opacity:1" d="M 464.126,273.836 471.925,258.239 z" id="boundary" inkscape:connector-curvature="0" />
	<path style="fill:none;stroke:red;stroke-width:1px;stroke-linecap:butt;stroke-linejoin:miter;stroke-opacity:1" d="M 471.925,258.239 479.723,242.642 z" id="boundary" inkscape:connector-curvature="0" />
	<path style="fill:none;stroke:red;stroke-width:1px;stroke-linecap:butt;stroke-linejoin:miter;stroke-opacity:1" d="M 479.723,242.642 479.723,227.044 z" id="boundary" inkscape:connector-curvature="0" />
	<path style="fill:none;stroke:red;stroke-width:1px;stroke-linecap:butt;stroke-linejoin:miter;stroke-opacity:1" d="M 479.723,227.044 479.723,211.447 z" id="boundary" inkscape:connector-curvature="0" />
	<path style="fill:none;stroke:red;stroke-width:1px;stroke-linecap:butt;stroke-linejoin:miter;stroke-opacity:1" d="M 479.723,211.447 479.723,195.849 z" id="boundary" inkscape:connector-curvature="0" />
	<path style="fill:none;stroke:red;stroke-width:1px;stroke-linecap:butt;stroke-linejoin:miter;stroke-opacity:1" d="M 479.723,195.849 479.723,180.252 z" id="boundary" inkscape:connector-curvature="0" />
	<path style="fill:none;stroke:red;stroke-width:1px;stroke-linecap:butt;stroke-linejoin:miter;stroke-opacity:1" d="M 479.723,180.252 479.723,164.654 z" id="boundary" inkscape:connector-curvature="0" />
	<path style="fill:none;stroke:red;stroke-width:1px;stroke-linecap:butt;stroke-linejoin:miter;stroke-opacity:1" d="M 479.723,164.654 479.723,149.057 z" id="boundary" inkscape:connector-curvature="0" />
	<path style="fill:none;stroke:red;stroke-width:1px;stroke-linecap:butt;stroke-linejoin:miter;stroke-opacity:1" d="M 479.723,149.057 479.723,133.459 z" id="boundary" inkscape:connector-curvature="0" />
	<path style="fill:none;stroke:red;stroke-width:1px;stroke-linecap:butt;stroke-linejoin:miter;stroke-opacity:1" d="M 479.723,133.459 479.723,117.862 z" id="boundary" inkscape:connector-curvature="0" />
	<path style="fill:none;stroke:red;stroke-width:1px;stroke-linecap:butt;stroke-linejoin:miter;stroke-opacity:1" d="M 479.723,117.862 487.522,94.4654 z" id="boundary" inkscape:connector-curvature="0" />
	<path style="fill:none;stroke:red;stroke-width:1px;stroke-linecap:butt;stroke-linejoin:miter;stroke-opacity:1" d="M 487.522,94.4654 487.522,78.8679 z" id="boundary" inkscape:connector-curvature="0" />
	<path style="fill:none;stroke:red;stroke-width:1px;stroke-linecap:butt;stroke-linejoin:miter;stroke-opacity:1" d="M 487.522,78.8679 503.119,71.0692 z" id="boundary" inkscape:connector-curvature="0" />
	<path style="fill:none;stroke:red;stroke-width:1px;stroke-linecap:butt;stroke-linejoin:miter;stroke-opacity:1" d="M 503.119,71.0692 515.597,58.5912 z" id="boundary" inkscape:connector-curvature="0" />
	<path style="fill:none;stroke:red;stroke-width:1px;stroke-linecap:butt;stroke-linejoin:miter;stroke-opacity:1" d="M 515.597,58.5912 528.075,46.1132 z" id="boundary" inkscape:connector-curvature="0" />
	<path style="fill:none;stroke:red;stroke-width:1px;stroke-linecap:butt;stroke-linejoin:miter;stroke-opacity:1" d="M 528.075,46.1132 543.673,47.673 z" id="boundary" inkscape:connector-curvature="0" />
	<path style="fill:none;stroke:red;stroke-width:1px;stroke-linecap:butt;stroke-linejoin:miter;stroke-opacity:1" d="M 543.673,47.673 549.912,63.2704 z" id="boundary" inkscape:connector-curvature="0" />
	<path style="fill:none;stroke:red;stroke-width:1px;stroke-linecap:butt;stroke-linejoin:miter;stroke-opacity:1" d="M 549.912,63.2704 551.472,78.8679 z" id="boundary" inkscape:connector-curvature="0" />
	<path style="fill:none;stroke:red;stroke-width:1px;stroke-linecap:butt;stroke-linejoin:miter;stroke-opacity:1" d="M 551.472,78.8679 557.711,94.4654 z" id="boundary" inkscape:connector-curvature="0" />
	<path style="fill:none;stroke:red;stroke-width:1px;stroke-linecap:butt;stroke-linejoin:miter;stroke-opacity:1" d="M 557.711,94.4654 565.509,108.503 z" id="boundary" inkscape:connector-curvature="0" />
	<path style="fill:none;stroke:red;stroke-width:1px;stroke-linecap:butt;stroke-linejoin:miter;stroke-opacity:1" d="M 565.509,108.503 574.868,120.981 z" id="boundary" inkscape:connector-curvature="0" />
	<path style="fill:none;stroke:red;stroke-width:1px;stroke-linecap:butt;stroke-linejoin:miter;stroke-opacity:1" d="M 574.868,120.981 574.868,136.579 z" id="boundary" inkscape:connector-curvature="0" />
	<path style="fill:none;stroke:red;stroke-width:1px;stroke-linecap:butt;stroke-linejoin:miter;stroke-opacity:1" d="M 574.868,136.579 574.868,152.176 z" id="boundary" inkscape:connector-curvature="0" />
	<path style="fill:none;stroke:red;stroke-width:1px;stroke-linecap:butt;stroke-linejoin:miter;stroke-opacity:1" d="M 574.868,152.176 574.868,167.774 z" id="boundary" inkscape:connector-curvature="0" />
	<path style="fill:none;stroke:red;stroke-width:1px;stroke-linecap:butt;stroke-linejoin:miter;stroke-opacity:1" d="M 574.868,167.774 567.069,184.931 z" id="boundary" inkscape:connector-curvature="0" />
	<path style="fill:none;stroke:red;stroke-width:1px;stroke-linecap:butt;stroke-linejoin:miter;stroke-opacity:1" d="M 567.069,184.931 567.069,200.528 z" id="boundary" inkscape:connector-curvature="0" />
	<path style="fill:none;stroke:red;stroke-width:1px;stroke-linecap:butt;stroke-linejoin:miter;stroke-opacity:1" d="M 567.069,200.528 567.069,216.126 z" id="boundary" inkscape:connector-curvature="0" />
	<path style="fill:none;stroke:red;stroke-width:1px;stroke-linecap:butt;stroke-linejoin:miter;stroke-opacity:1" d="M 567.069,216.126 567.069,231.723 z" id="boundary" inkscape:connector-curvature="0" />
	<path style="fill:none;stroke:red;stroke-width:1px;stroke-linecap:butt;stroke-linejoin:miter;stroke-opacity:1" d="M 567.069,231.723 567.069,247.321 z" id="boundary" inkscape:connector-curvature="0" />
	<path style="fill:none;stroke:red;stroke-width:1px;stroke-linecap:butt;stroke-linejoin:miter;stroke-opacity:1" d="M 567.069,247.321 559.27,270.717 z" id="boundary" inkscape:connector-curvature="0" />
	<path style="fill:none;stroke:red;stroke-width:1px;stroke-linecap:butt;stroke-linejoin:miter;stroke-opacity:1" d="M 559.27,270.717 559.27,286.314 z" id="boundary" inkscape:connector-curvature="0" />
	<path style="fill:none;stroke:red;stroke-width:1px;stroke-linecap:butt;stroke-linejoin:miter;stroke-opacity:1" d="M 559.27,286.314 559.27,301.912 z" id="boundary" inkscape:connector-curvature="0" />
	<path style="fill:none;stroke:red;stroke-width:1px;stroke-linecap:butt;stroke-linejoin:miter;stroke-opacity:1" d="M 559.27,301.912 551.472,317.509 z" id="boundary" inkscape:connector-curvature="0" />
	<path style="fill:none;stroke:red;stroke-width:1px;stroke-linecap:butt;stroke-linejoin:miter;stroke-opacity:1" d="M 551.472,317.509 551.472,333.107 z" id="boundary" inkscape:connector-curvature="0" />
	<path style="fill:none;stroke:red;stroke-width:1px;stroke-linecap:butt;stroke-linejoin:miter;stroke-opacity:1" d="M 551.472,333.107 551.472,348.704 z" id="boundary" inkscape:connector-curvature="0" />
	<path style="fill:none;stroke:red;stroke-width:1px;stroke-linecap:butt;stroke-linejoin:miter;stroke-opacity:1" d="M 551.472,348.704 551.472,364.302 z" id="boundary" inkscape:connector-curvature="0" />
	<path style="fill:none;stroke:red;stroke-width:1px;stroke-linecap:butt;stroke-linejoin:miter;stroke-opacity:1" d="M 551.472,364.302 551.472,379.899 z" id="boundary" inkscape:connector-curvature="0" />
	<path style="fill:none;stroke:red;stroke-width:1px;stroke-linecap:butt;stroke-linejoin:miter;stroke-opacity:1" d="M 551.472,379.899 551.472,395.497 z" id="boundary" inkscape:connector-curvature="0" />
	<path style="fill:none;stroke:red;stroke-width:1px;stroke-linecap:butt;stroke-linejoin:miter;stroke-opacity:1" d="M 551.472,395.497 551.472,411.094 z" id="boundary" inkscape:connector-curvature="0" />
	<path style="fill:none;stroke:red;stroke-width:1px;stroke-linecap:butt;stroke-linejoin:miter;stroke-opacity:1" d="M 551.472,411.094 551.472,426.692 z" id="boundary" inkscape:connector-curvature="0" />
	<path style="fill:none;stroke:red;stroke-width:1px;stroke-linecap:butt;stroke-linejoin:miter;stroke-opacity:1" d="M 551.472,426.692 551.472,442.289 z" id="boundary" inkscape:connector-curvature="0" />
	<path style="fill:none;stroke:red;stroke-width:1px;stroke-linecap:butt;stroke-linejoin:miter;stroke-opacity:1" d="M 551.472,442.289 551.472,457.887 z" id="boundary" inkscape:connector-curvature="0" />
	<path style="fill:none;stroke:red;stroke-width:1px;stroke-linecap:butt;stroke-linejoin:miter;stroke-opacity:1" d="M 551.472,457.887 551.472,473.484 z" id="boundary" inkscape:connector-curvature="0" />
	<path style="fill:none;stroke:red;stroke-width:1px;stroke-linecap:butt;stroke-linejoin:miter;stroke-opacity:1" d="M 551.472,473.484 551.472,489.082 z" id="boundary" inkscape:connector-curvature="0" />
	<path style="fill:none;stroke:red;stroke-width:1px;stroke-linecap:butt;stroke-linejoin:miter;stroke-opacity:1" d="M 551.472,489.082 551.472,504.679 z" id="boundary" inkscape:connector-curvature="0" />
	<path style="fill:none;stroke:red;stroke-width:1px;stroke-linecap:butt;stroke-linejoin:miter;stroke-opacity:1" d="M 551.472,504.679 559.27,518.717 z" id="boundary" inkscape:connector-curvature="0" />
	<path style="fill:none;stroke:red;stroke-width:1px;stroke-linecap:butt;stroke-linejoin:miter;stroke-opacity:1" d="M 559.27,518.717 559.27,534.314 z" id="boundary" inkscape:connector-curvature="0" />
	<path style="fill:none;stroke:red;stroke-width:1px;stroke-linecap:butt;stroke-linejoin:miter;stroke-opacity:1" d="M 559.27,534.314 567.069,548.352 z" id="boundary" inkscape:connector-curvature="0" />
	<path style="fill:none;stroke:red;stroke-width:1px;stroke-linecap:butt;stroke-linejoin:miter;stroke-opacity:1" d="M 567.069,548.352 574.868,562.39 z" id="boundary" inkscape:connector-curvature="0" />
	<path style="fill:none;stroke:red;stroke-width:1px;stroke-linecap:butt;stroke-linejoin:miter;stroke-opacity:1" d="M 574.868,562.39 581.107,577.987 z" id="boundary" inkscape:connector-curvature="0" />
	<path style="fill:none;stroke:red;stroke-width:1px;stroke-linecap:butt;stroke-linejoin:miter;stroke-opacity:1" d="M 581.107,577.987 588.906,592.025 z" id="boundary" inkscape:connector-curvature="0" />
	<path style="fill:none;stroke:red;stroke-width:1px;stroke-linecap:butt;stroke-linejoin:miter;stroke-opacity:1" d="M 588.906,592.025 595.145,607.623 z" id="boundary" inkscape:connector-curvature="0" />
	<path style="fill:none;stroke:red;stroke-width:1px;stroke-linecap:butt;stroke-linejoin:miter;stroke-opacity:1" d="M 595.145,607.623 606.063,620.101 z" id="boundary" inkscape:connector-curvature="0" />
	<path style="fill:none;stroke:red;stroke-width:1px;stroke-linecap:butt;stroke-linejoin:miter;stroke-opacity:1" d="M 606.063,620.101 613.862,634.138 z" id="boundary" inkscape:connector-curvature="0" />
	<path style="fill:none;stroke:red;stroke-width:1px;stroke-linecap:butt;stroke-linejoin:miter;stroke-opacity:1" d="M 613.862,634.138 629.459,627.899 z" id="boundary" inkscape:connector-curvature="0" />
	<path style="fill:none;stroke:red;stroke-width:1px;stroke-linecap:butt;stroke-linejoin:miter;stroke-opacity:1" d="M 629.459,627.899 645.057,623.22 z" id="boundary" inkscape:connector-curvature="0" />
	<path style="fill:none;stroke:red;stroke-width:1px;stroke-linecap:butt;stroke-linejoin:miter;stroke-opacity:1" d="M 645.057,623.22 659.094,609.182 z" id="boundary" inkscape:connector-curvature="0" />
	<path style="fill:none;stroke:red;stroke-width:1px;stroke-linecap:butt;stroke-linejoin:miter;stroke-opacity:1" d="M 659.094,609.182 674.692,601.384 z" id="boundary" inkscape:connector-curvature="0" />
	<path style="fill:none;stroke:red;stroke-width:1px;stroke-linecap:butt;stroke-linejoin:miter;stroke-opacity:1" d="M 674.692,601.384 682.491,577.987 z" id="boundary" inkscape:connector-curvature="0" />
	<path style="fill:none;stroke:red;stroke-width:1px;stroke-linecap:butt;stroke-linejoin:miter;stroke-opacity:1" d="M 682.491,577.987 690.289,562.39 z" id="boundary" inkscape:connector-curvature="0" />
	<path style="fill:none;stroke:red;stroke-width:1px;stroke-linecap:butt;stroke-linejoin:miter;stroke-opacity:1" d="M 690.289,562.39 698.088,538.994 z" id="boundary" inkscape:connector-curvature="0" />
	<path style="fill:none;stroke:red;stroke-width:1px;stroke-linecap:butt;stroke-linejoin:miter;stroke-opacity:1" d="M 698.088,538.994 710.566,526.516 z" id="boundary" inkscape:connector-curvature="0" />
	<path style="fill:none;stroke:red;stroke-width:1px;stroke-linecap:butt;stroke-linejoin:miter;stroke-opacity:1" d="M 710.566,526.516 713.686,507.799 z" id="boundary" inkscape:connector-curvature="0" />
	<path style="fill:none;stroke:red;stroke-width:1px;stroke-linecap:butt;stroke-linejoin:miter;stroke-opacity:1" d="M 713.686,507.799 729.283,492.201 z" id="boundary" inkscape:connector-curvature="0" />
	<path style="fill:none;stroke:red;stroke-width:1px;stroke-linecap:butt;stroke-linejoin:miter;stroke-opacity:1" d="M 729.283,492.201 741.761,479.723 z" id="boundary" inkscape:connector-curvature="0" />
	<path style="fill:none;stroke:red;stroke-width:1px;stroke-linecap:butt;stroke-linejoin:miter;stroke-opacity:1" d="M 741.761,479.723 754.239,467.245 z" id="boundary" inkscape:connector-curvature="0" />
	<path style="fill:none;stroke:red;stroke-width:1px;stroke-linecap:butt;stroke-linejoin:miter;stroke-opacity:1" d="M 754.239,467.245 766.717,456.327 z" id="boundary" inkscape:connector-curvature="0" />
	<path style="fill:none;stroke:red;stroke-width:1px;stroke-linecap:butt;stroke-linejoin:miter;stroke-opacity:1" d="M 766.717,456.327 777.635,443.849 z" id="boundary" inkscape:connector-curvature="0" />
	<path style="fill:none;stroke:red;stroke-width:1px;stroke-linecap:butt;stroke-linejoin:miter;stroke-opacity:1" d="M 777.635,443.849 793.233,440.73 z" id="boundary" inkscape:connector-curvature="0" />
	<path style="fill:none;stroke:red;stroke-width:1px;stroke-linecap:butt;stroke-linejoin:miter;stroke-opacity:1" d="M 793.233,440.73 808.83,440.73 z" id="boundary" inkscape:connector-curvature="0" />
	<path style="fill:none;stroke:red;stroke-width:1px;stroke-linecap:butt;stroke-linejoin:miter;stroke-opacity:1" d="M 808.83,440.73 824.428,445.409 z" id="boundary" inkscape:connector-curvature="0" />
	<path style="fill:none;stroke:red;stroke-width:1px;stroke-linecap:butt;stroke-linejoin:miter;stroke-opacity:1" d="M 824.428,445.409 824.428,461.006 z" id="boundary" inkscape:connector-curvature="0" />
	<path style="fill:none;stroke:red;stroke-width:1px;stroke-linecap:butt;stroke-linejoin:miter;stroke-opacity:1" d="M 824.428,461.006 832.226,475.044 z" id="boundary" inkscape:connector-curvature="0" />
	<path style="fill:none;stroke:red;stroke-width:1px;stroke-linecap:butt;stroke-linejoin:miter;stroke-opacity:1" d="M 832.226,475.044 832.226,490.642 z" id="boundary" inkscape:connector-curvature="0" />
	<path style="fill:none;stroke:red;stroke-width:1px;stroke-linecap:butt;stroke-linejoin:miter;stroke-opacity:1" d="M 832.226,490.642 824.428,504.679 z" id="boundary" inkscape:connector-curvature="0" />
	<path style="fill:none;stroke:red;stroke-width:1px;stroke-linecap:butt;stroke-linejoin:miter;stroke-opacity:1" d="M 824.428,504.679 816.629,520.277 z" id="boundary" inkscape:connector-curvature="0" />
	<path style="fill:none;stroke:red;stroke-width:1px;stroke-linecap:butt;stroke-linejoin:miter;stroke-opacity:1" d="M 816.629,520.277 808.83,543.673 z" id="boundary" inkscape:connector-curvature="0" />
	<path style="fill:none;stroke:red;stroke-width:1px;stroke-linecap:butt;stroke-linejoin:miter;stroke-opacity:1" d="M 808.83,543.673 801.031,559.27 z" id="boundary" inkscape:connector-curvature="0" />
	<path style="fill:none;stroke:red;stroke-width:1px;stroke-linecap:butt;stroke-linejoin:miter;stroke-opacity:1" d="M 801.031,559.27 793.233,574.868 z" id="boundary" inkscape:connector-curvature="0" />
	<path style="fill:none;stroke:red;stroke-width:1px;stroke-linecap:butt;stroke-linejoin:miter;stroke-opacity:1" d="M 793.233,574.868 790.113,595.145 z" id="boundary" inkscape:connector-curvature="0" />
	<path style="fill:none;stroke:red;stroke-width:1px;stroke-linecap:butt;stroke-linejoin:miter;stroke-opacity:1" d="M 790.113,595.145 777.635,606.063 z" id="boundary" inkscape:connector-curvature="0" />
	<path style="fill:none;stroke:red;stroke-width:1px;stroke-linecap:butt;stroke-linejoin:miter;stroke-opacity:1" d="M 777.635,606.063 777.635,621.66 z" id="boundary" inkscape:connector-curvature="0" />
	<path style="fill:none;stroke:red;stroke-width:1px;stroke-linecap:butt;stroke-linejoin:miter;stroke-opacity:1" d="M 777.635,621.66 762.038,637.258 z" id="boundary" inkscape:connector-curvature="0" />
	<path style="fill:none;stroke:red;stroke-width:1px;stroke-linecap:butt;stroke-linejoin:miter;stroke-opacity:1" d="M 762.038,637.258 754.239,652.855 z" id="boundary" inkscape:connector-curvature="0" />
	<path style="fill:none;stroke:red;stroke-width:1px;stroke-linecap:butt;stroke-linejoin:miter;stroke-opacity:1" d="M 754.239,652.855 746.44,668.453 z" id="boundary" inkscape:connector-curvature="0" />
	<path style="fill:none;stroke:red;stroke-width:1px;stroke-linecap:butt;stroke-linejoin:miter;stroke-opacity:1" d="M 746.44,668.453 743.321,688.73 z" id="boundary" inkscape:connector-curvature="0" />
	<path style="fill:none;stroke:red;stroke-width:1px;stroke-linecap:butt;stroke-linejoin:miter;stroke-opacity:1" d="M 743.321,688.73 735.522,704.327 z" id="boundary" inkscape:connector-curvature="0" />
	<path style="fill:none;stroke:red;stroke-width:1px;stroke-linecap:butt;stroke-linejoin:miter;stroke-opacity:1" d="M 735.522,704.327 723.044,715.245 z" id="boundary" inkscape:connector-curvature="0" />
	<path style="fill:none;stroke:red;stroke-width:1px;stroke-linecap:butt;stroke-linejoin:miter;stroke-opacity:1" d="M 723.044,715.245 715.245,730.843 z" id="boundary" inkscape:connector-curvature="0" />
	<path style="fill:none;stroke:red;stroke-width:1px;stroke-linecap:butt;stroke-linejoin:miter;stroke-opacity:1" d="M 715.245,730.843 707.447,754.239 z" id="boundary" inkscape:connector-curvature="0" />
	<path style="fill:none;stroke:red;stroke-width:1px;stroke-linecap:butt;stroke-linejoin:miter;stroke-opacity:1" d="M 707.447,754.239 696.528,766.717 z" id="boundary" inkscape:connector-curvature="0" />
	<path style="fill:none;stroke:red;stroke-width:1px;stroke-linecap:butt;stroke-linejoin:miter;stroke-opacity:1" d="M 696.528,766.717 684.05,777.635 z" id="boundary" inkscape:connector-curvature="0" />
	<path style="fill:none;stroke:red;stroke-width:1px;stroke-linecap:butt;stroke-linejoin:miter;stroke-opacity:1" d="M 684.05,777.635 676.252,801.031 z" id="boundary" inkscape:connector-curvature="0" />
	<path style="fill:none;stroke:red;stroke-width:1px;stroke-linecap:butt;stroke-linejoin:miter;stroke-opacity:1" d="M 676.252,801.031 660.654,808.83 z" id="boundary" inkscape:connector-curvature="0" />
	<path style="fill:none;stroke:red;stroke-width:1px;stroke-linecap:butt;stroke-linejoin:miter;stroke-opacity:1" d="M 660.654,808.83 652.855,824.428 z" id="boundary" inkscape:connector-curvature="0" />
	<path style="fill:none;stroke:red;stroke-width:1px;stroke-linecap:butt;stroke-linejoin:miter;stroke-opacity:1" d="M 652.855,824.428 641.937,836.906 z" id="boundary" inkscape:connector-curvature="0" />
	<path style="fill:none;stroke:red;stroke-width:1px;stroke-linecap:butt;stroke-linejoin:miter;stroke-opacity:1" d="M 641.937,836.906 634.138,852.503 z" id="boundary" inkscape:connector-curvature="0" />
	<path style="fill:none;stroke:red;stroke-width:1px;stroke-linecap:butt;stroke-linejoin:miter;stroke-opacity:1" d="M 634.138,852.503 626.34,868.101 z" id="boundary" inkscape:connector-curvature="0" />
	<path style="fill:none;stroke:red;stroke-width:1px;stroke-linecap:butt;stroke-linejoin:miter;stroke-opacity:1" d="M 626.34,868.101 613.862,879.019 z" id="boundary" inkscape:connector-curvature="0" />
	<path style="fill:none;stroke:red;stroke-width:1px;stroke-linecap:butt;stroke-linejoin:miter;stroke-opacity:1" d="M 613.862,879.019 606.063,894.616 z" id="boundary" inkscape:connector-curvature="0" />
	<path style="fill:none;stroke:red;stroke-width:1px;stroke-linecap:butt;stroke-linejoin:miter;stroke-opacity:1" d="M 606.063,894.616 595.145,907.094 z" id="boundary" inkscape:connector-curvature="0" />
	<path style="fill:none;stroke:red;stroke-width:1px;stroke-linecap:butt;stroke-linejoin:miter;stroke-opacity:1" d="M 595.145,907.094 582.667,918.013 z" id="boundary" inkscape:connector-curvature="0" />
	<path style="fill:none;stroke:red;stroke-width:1px;stroke-linecap:butt;stroke-linejoin:miter;stroke-opacity:1" d="M 582.667,918.013 567.069,933.61 z" id="boundary" inkscape:connector-curvature="0" />
	<path style="fill:none;stroke:red;stroke-width:1px;stroke-linecap:butt;stroke-linejoin:miter;stroke-opacity:1" d="M 567.069,933.61 551.472,941.409 z" id="boundary" inkscape:connector-curvature="0" />
	<path style="fill:none;stroke:red;stroke-width:1px;stroke-linecap:butt;stroke-linejoin:miter;stroke-opacity:1" d="M 551.472,941.409 538.994,955.447 z" id="boundary" inkscape:connector-curvature="0" />
	<path style="fill:none;stroke:red;stroke-width:1px;stroke-linecap:butt;stroke-linejoin:miter;stroke-opacity:1" d="M 538.994,955.447 531.195,971.044 z" id="boundary" inkscape:connector-curvature="0" />
	<path style="fill:none;stroke:red;stroke-width:1px;stroke-linecap:butt;stroke-linejoin:miter;stroke-opacity:1" d="M 531.195,971.044 515.597,978.843 z" id="boundary" inkscape:connector-curvature="0" />
	<path style="fill:none;stroke:red;stroke-width:1px;stroke-linecap:butt;stroke-linejoin:miter;stroke-opacity:1" d="M 515.597,978.843 507.799,994.44 z" id="boundary" inkscape:connector-curvature="0" />
	<path style="fill:none;stroke:red;stroke-width:1px;stroke-linecap:butt;stroke-linejoin:miter;stroke-opacity:1" d="M 507.799,994.44 492.201,996 z" id="boundary" inkscape:connector-curvature="0" />
	<path style="fill:none;stroke:red;stroke-width:1px;stroke-linecap:butt;stroke-linejoin:miter;stroke-opacity:1" d="M 492.201,996 476.604,996 z" id="boundary" inkscape:connector-curvature="0" />
	<path style="fill:none;stroke:red;stroke-width:1px;stroke-linecap:butt;stroke-linejoin:miter;stroke-opacity:1" d="M 476.604,996 462.566,988.201 z" id="boundary" inkscape:connector-curvature="0" />
	<path style="fill:none;stroke:red;stroke-width:1px;stroke-linecap:butt;stroke-linejoin:miter;stroke-opacity:1" d="M 462.566,988.201 446.969,988.201 z" id="boundary" inkscape:connector-curvature="0" />
	<path style="fill:none;stroke:red;stroke-width:1px;stroke-linecap:butt;stroke-linejoin:miter;stroke-opacity:1" d="M 446.969,988.201 431.371,988.201 z" id="boundary" inkscape:connector-curvature="0" />
	<path style="fill:none;stroke:red;stroke-width:1px;stroke-linecap:butt;stroke-linejoin:miter;stroke-opacity:1" d="M 431.371,988.201 415.774,988.201 z" id="boundary" inkscape:connector-curvature="0" />
	<path style="fill:none;stroke:red;stroke-width:1px;stroke-linecap:butt;stroke-linejoin:miter;stroke-opacity:1" d="M 415.774,988.201 400.176,988.201 z" id="boundary" inkscape:connector-curvature="0" />
	<path style="fill:none;stroke:red;stroke-width:1px;stroke-linecap:butt;stroke-linejoin:miter;stroke-opacity:1" d="M 400.176,988.201 386.138,980.403 z" id="boundary" inkscape:connector-curvature="0" />
	<path style="fill:none;stroke:red;stroke-width:1px;stroke-linecap:butt;stroke-linejoin:miter;stroke-opacity:1" d="M 386.138,980.403 370.541,980.403 z" id="boundary" inkscape:connector-curvature="0" />
	<path style="fill:none;stroke:red;stroke-width:1px;stroke-linecap:butt;stroke-linejoin:miter;stroke-opacity:1" d="M 370.541,980.403 354.943,980.403 z" id="boundary" inkscape:connector-curvature="0" />
	<path style="fill:none;stroke:red;stroke-width:1px;stroke-linecap:butt;stroke-linejoin:miter;stroke-opacity:1" d="M 354.943,980.403 339.346,980.403 z" id="boundary" inkscape:connector-curvature="0" />
	<path style="fill:none;stroke:red;stroke-width:1px;stroke-linecap:butt;stroke-linejoin:miter;stroke-opacity:1" d="M 339.346,980.403 323.748,980.403 z" id="boundary" inkscape:connector-curvature="0" />
	<path style="fill:none;stroke:red;stroke-width:1px;stroke-linecap:butt;stroke-linejoin:miter;stroke-opacity:1" d="M 323.748,980.403 309.711,972.604 z" id="boundary" inkscape:connector-curvature="0" />
	<path style="fill:none;stroke:red;stroke-width:1px;stroke-linecap:butt;stroke-linejoin:miter;stroke-opacity:1" d="M 309.711,972.604 294.113,972.604 z" id="boundary" inkscape:connector-curvature="0" />
	<path style="fill:none;stroke:red;stroke-width:1px;stroke-linecap:butt;stroke-linejoin:miter;stroke-opacity:1" d="M 294.113,972.604 278.516,972.604 z" id="boundary" inkscape:connector-curvature="0" />
	<path style="fill:none;stroke:red;stroke-width:1px;stroke-linecap:butt;stroke-linejoin:miter;stroke-opacity:1" d="M 278.516,972.604 262.918,972.604 z" id="boundary" inkscape:connector-curvature="0" />
	<path style="fill:none;stroke:red;stroke-width:1px;stroke-linecap:butt;stroke-linejoin:miter;stroke-opacity:1" d="M 262.918,972.604 247.321,972.604 z" id="boundary" inkscape:connector-curvature="0" />
	<path style="fill:none;stroke:red;stroke-width:1px;stroke-linecap:butt;stroke-linejoin:miter;stroke-opacity:1" d="M 247.321,972.604 231.723,972.604 z" id="boundary" inkscape:connector-curvature="0" />
	<path style="fill:none;stroke:red;stroke-width:1px;stroke-linecap:butt;stroke-linejoin:miter;stroke-opacity:1" d="M 231.723,972.604 216.126,972.604 z" id="boundary" inkscape:connector-curvature="0" />
	<path style="fill:none;stroke:red;stroke-width:1px;stroke-linecap:butt;stroke-linejoin:miter;stroke-opacity:1" d="M 216.126,972.604 200.528,972.604 z" id="boundary" inkscape:connector-curvature="0" />
	<path style="fill:none;stroke:red;stroke-width:1px;stroke-linecap:butt;stroke-linejoin:miter;stroke-opacity:1" d="M 200.528,972.604 191.17,960.126 z" id="boundary" inkscape:connector-curvature="0" />
	<path style="fill:none;stroke:red;stroke-width:1px;stroke-linecap:butt;stroke-linejoin:miter;stroke-opacity:1" d="M 191.17,960.126 198.969,936.73 z" id="boundary" inkscape:connector-curvature="0" />
	<path style="fill:none;stroke:red;stroke-width:1px;stroke-linecap:butt;stroke-linejoin:miter;stroke-opacity:1" d="M 11.7987,297.233 4,320.629 z" id="boundary" inkscape:connector-curvature="0" />
	<path style="fill:none;stroke:red;stroke-width:1px;stroke-linecap:butt;stroke-linejoin:miter;stroke-opacity:1" d="M 4,320.629 4,336.226 z" id="boundary" inkscape:connector-curvature="0" />
	<path style="fill:none;stroke:red;stroke-width:1px;stroke-linecap:butt;stroke-linejoin:miter;stroke-opacity:1" d="M 4,336.226 11.7987,350.264 z" id="boundary" inkscape:connector-curvature="0" />
	<path style="fill:none;stroke:red;stroke-width:1px;stroke-linecap:butt;stroke-linejoin:miter;stroke-opacity:1" d="M 11.7987,350.264 11.7987,365.862 z" id="boundary" inkscape:connector-curvature="0" />
	<path style="fill:none;stroke:red;stroke-width:1px;stroke-linecap:butt;stroke-linejoin:miter;stroke-opacity:1" d="M 11.7987,365.862 19.5975,379.899 z" id="boundary" inkscape:connector-curvature="0" />
	<path style="fill:none;stroke:red;stroke-width:1px;stroke-linecap:butt;stroke-linejoin:miter;stroke-opacity:1" d="M 19.5975,379.899 27.3962,393.937 z" id="boundary" inkscape:connector-curvature="0" />
	<path style="fill:none;stroke:red;stroke-width:1px;stroke-linecap:butt;stroke-linejoin:miter;stroke-opacity:1" d="M 27.3962,393.937 35.195,407.975 z" id="boundary" inkscape:connector-curvature="0" />
	<path style="fill:none;stroke:red;stroke-width:1px;stroke-linecap:butt;stroke-linejoin:miter;stroke-opacity:1" d="M 35.195,407.975 42.9937,422.013 z" id="boundary" inkscape:connector-curvature="0" />
	<path style="fill:none;stroke:red;stroke-width:1px;stroke-linecap:butt;stroke-linejoin:miter;stroke-opacity:1" d="M 42.9937,422.013 42.9937,437.61 z" id="boundary" inkscape:connector-curvature="0" />
	<path style="fill:none;stroke:red;stroke-width:1px;stroke-linecap:butt;stroke-linejoin:miter;stroke-opacity:1" d="M 42.9937,437.61 50.7925,451.648 z" id="boundary" inkscape:connector-curvature="0" />
	<path style="fill:none;stroke:red;stroke-width:1px;stroke-linecap:butt;stroke-linejoin:miter;stroke-opacity:1" d="M 50.7925,451.648 58.5912,465.686 z" id="boundary" inkscape:connector-curvature="0" />
	<path style="fill:none;stroke:red;stroke-width:1px;stroke-linecap:butt;stroke-linejoin:miter;stroke-opacity:1" d="M 58.5912,465.686 67.9497,478.164 z" id="boundary" inkscape:connector-curvature="0" />
	<path style="fill:none;stroke:red;stroke-width:1px;stroke-linecap:butt;stroke-linejoin:miter;stroke-opacity:1" d="M 67.9497,478.164 75.7484,492.201 z" id="boundary" inkscape:connector-curvature="0" />
	<path style="fill:none;stroke:red;stroke-width:1px;stroke-linecap:butt;stroke-linejoin:miter;stroke-opacity:1" d="M 75.7484,492.201 81.9874,507.799 z" id="boundary" inkscape:connector-curvature="0" />
	<path style="fill:none;stroke:red;stroke-width:1px;stroke-linecap:butt;stroke-linejoin:miter;stroke-opacity:1" d="M 81.9874,507.799 89.7862,521.836 z" id="boundary" inkscape:connector-curvature="0" />
	<path style="fill:none;stroke:red;stroke-width:1px;stroke-linecap:butt;stroke-linejoin:miter;stroke-opacity:1" d="M 89.7862,521.836 100.704,534.314 z" id="boundary" inkscape:connector-curvature="0" />
	<path style="fill:none;stroke:red;stroke-width:1px;stroke-linecap:butt;stroke-linejoin:miter;stroke-opacity:1" d="M 100.704,534.314 105.384,549.912 z" id="boundary" inkscape:connector-curvature="0" />
	<path style="fill:none;stroke:red;stroke-width:1px;stroke-linecap:butt;stroke-linejoin:miter;stroke-opacity:1" d="M 105.384,549.912 113.182,563.95 z" id="boundary" inkscape:connector-curvature="0" />
	<path style="fill:none;stroke:red;stroke-width:1px;stroke-linecap:butt;stroke-linejoin:miter;stroke-opacity:1" d="M 113.182,563.95 113.182,579.547 z" id="boundary" inkscape:connector-curvature="0" />
	<path style="fill:none;stroke:red;stroke-width:1px;stroke-linecap:butt;stroke-linejoin:miter;stroke-opacity:1" d="M 113.182,579.547 120.981,593.585 z" id="boundary" inkscape:connector-curvature="0" />
	<path style="fill:none;stroke:red;stroke-width:1px;stroke-linecap:butt;stroke-linejoin:miter;stroke-opacity:1" d="M 120.981,593.585 128.78,607.623 z" id="boundary" inkscape:connector-curvature="0" />
	<path style="fill:none;stroke:red;stroke-width:1px;stroke-linecap:butt;stroke-linejoin:miter;stroke-opacity:1" d="M 128.78,607.623 128.78,623.22 z" id="boundary" inkscape:connector-curvature="0" />
	<path style="fill:none;stroke:red;stroke-width:1px;stroke-linecap:butt;stroke-linejoin:miter;stroke-opacity:1" d="M 128.78,623.22 136.579,637.258 z" id="boundary" inkscape:connector-curvature="0" />
	<path style="fill:none;stroke:red;stroke-width:1px;stroke-linecap:butt;stroke-linejoin:miter;stroke-opacity:1" d="M 136.579,637.258 136.579,652.855 z" id="boundary" inkscape:connector-curvature="0" />
	<path style="fill:none;stroke:red;stroke-width:1px;stroke-linecap:butt;stroke-linejoin:miter;stroke-opacity:1" d="M 136.579,652.855 144.377,666.893 z" id="boundary" inkscape:connector-curvature="0" />
	<path style="fill:none;stroke:red;stroke-width:1px;stroke-linecap:butt;stroke-linejoin:miter;stroke-opacity:1" d="M 144.377,666.893 144.377,682.491 z" id="boundary" inkscape:connector-curvature="0" />
	<path style="fill:none;stroke:red;stroke-width:1px;stroke-linecap:butt;stroke-linejoin:miter;stroke-opacity:1" d="M 144.377,682.491 144.377,698.088 z" id="boundary" inkscape:connector-curvature="0" />
	<path style="fill:none;stroke:red;stroke-width:1px;stroke-linecap:butt;stroke-linejoin:miter;stroke-opacity:1" d="M 144.377,698.088 144.377,713.686 z" id="boundary" inkscape:connector-curvature="0" />
	<path style="fill:none;stroke:red;stroke-width:1px;stroke-linecap:butt;stroke-linejoin:miter;stroke-opacity:1" d="M 144.377,713.686 147.497,729.283 z" id="boundary" inkscape:connector-curvature="0" />
	<path style="fill:none;stroke:red;stroke-width:1px;stroke-linecap:butt;stroke-linejoin:miter;stroke-opacity:1" d="M 147.497,729.283 152.176,744.881 z" id="boundary" inkscape:connector-curvature="0" />
	<path style="fill:none;stroke:red;stroke-width:1px;stroke-linecap:butt;stroke-linejoin:miter;stroke-opacity:1" d="M 152.176,744.881 155.296,760.478 z" id="boundary" inkscape:connector-curvature="0" />
	<path style="fill:none;stroke:red;stroke-width:1px;stroke-linecap:butt;stroke-linejoin:miter;stroke-opacity:1" d="M 155.296,760.478 159.975,776.075 z" id="boundary" inkscape:connector-curvature="0" />
	<path style="fill:none;stroke:red;stroke-width:1px;stroke-linecap:butt;stroke-linejoin:miter;stroke-opacity:1" d="M 159.975,776.075 167.774,790.113 z" id="boundary" inkscape:connector-curvature="0" />
	<path style="fill:none;stroke:red;stroke-width:1px;stroke-linecap:butt;stroke-linejoin:miter;stroke-opacity:1" d="M 167.774,790.113 169.333,805.711 z" id="boundary" inkscape:connector-curvature="0" />
	<path style="fill:none;stroke:red;stroke-width:1px;stroke-linecap:butt;stroke-linejoin:miter;stroke-opacity:1" d="M 169.333,805.711 175.572,821.308 z" id="boundary" inkscape:connector-curvature="0" />
	<path style="fill:none;stroke:red;stroke-width:1px;stroke-linecap:butt;stroke-linejoin:miter;stroke-opacity:1" d="M 175.572,821.308 177.132,836.906 z" id="boundary" inkscape:connector-curvature="0" />
	<path style="fill:none;stroke:red;stroke-width:1px;stroke-linecap:butt;stroke-linejoin:miter;stroke-opacity:1" d="M 177.132,836.906 183.371,852.503 z" id="boundary" inkscape:connector-curvature="0" />
	<path style="fill:none;stroke:red;stroke-width:1px;stroke-linecap:butt;stroke-linejoin:miter;stroke-opacity:1" d="M 183.371,852.503 184.931,868.101 z" id="boundary" inkscape:connector-curvature="0" />
	<path style="fill:none;stroke:red;stroke-width:1px;stroke-linecap:butt;stroke-linejoin:miter;stroke-opacity:1" d="M 184.931,868.101 192.73,882.138 z" id="boundary" inkscape:connector-curvature="0" />
	<path style="fill:none;stroke:red;stroke-width:1px;stroke-linecap:butt;stroke-linejoin:miter;stroke-opacity:1" d="M 192.73,882.138 198.969,897.736 z" id="boundary" inkscape:connector-curvature="0" />
	<path style="fill:none;stroke:red;stroke-width:1px;stroke-linecap:butt;stroke-linejoin:miter;stroke-opacity:1" d="M 198.969,897.736 206.767,911.774 z" id="boundary" inkscape:connector-curvature="0" />
	<path style="fill:none;stroke:red;stroke-width:1px;stroke-linecap:butt;stroke-linejoin:miter;stroke-opacity:1" d="M 206.767,911.774 198.969,936.73 z" id="boundary" inkscape:connector-curvature="0" />
	<circle cx="4" cy="320.629" r="4" fill="#0" id="circle0"/>
	<circle cx="4" cy="336.226" r="4" fill="#0" id="circle1"/>
	<circle cx="11.7987" cy="281.635" r="4" fill="#0" id="circle2"/>
	<circle cx="11.7987" cy="297.233" r="4" fill="#0" id="circle3"/>
	<circle cx="11.7987" cy="350.264" r="4" fill="#0" id="circle4"/>
	<circle cx="11.7987" cy="365.862" r="4" fill="#0" id="circle5"/>
	<circle cx="19.5975" cy="379.899" r="4" fill="#0" id="circle6"/>
	<circle cx="27.3962" cy="284.755" r="4" fill="#0" id="circle7"/>
	<circle cx="27.3962" cy="393.937" r="4" fill="#0" id="circle8"/>
	<circle cx="35.195" cy="407.975" r="4" fill="#0" id="circle9"/>
	<circle cx="42.9937" cy="287.874" r="4" fill="#0" id="circle10"/>
	<circle cx="42.9937" cy="422.013" r="4" fill="#0" id="circle11"/>
	<circle cx="42.9937" cy="437.61" r="4" fill="#0" id="circle12"/>
	<circle cx="50.7925" cy="451.648" r="4" fill="#0" id="circle13"/>
	<circle cx="52.3522" cy="300.352" r="4" fill="#0" id="circle14"/>
	<circle cx="58.5912" cy="465.686" r="4" fill="#0" id="circle15"/>
	<circle cx="60.1509" cy="314.39" r="4" fill="#0" id="circle16"/>
	<circle cx="67.9497" cy="328.428" r="4" fill="#0" id="circle17"/>
	<circle cx="67.9497" cy="478.164" r="4" fill="#0" id="circle18"/>
	<circle cx="75.7484" cy="492.201" r="4" fill="#0" id="circle19"/>
	<circle cx="78.8679" cy="340.906" r="4" fill="#0" id="circle20"/>
	<circle cx="81.9874" cy="507.799" r="4" fill="#0" id="circle21"/>
	<circle cx="83.5472" cy="356.503" r="4" fill="#0" id="circle22"/>
	<circle cx="89.7862" cy="521.836" r="4" fill="#0" id="circle23"/>
	<circle cx="91.3459" cy="370.541" r="4" fill="#0" id="circle24"/>
	<circle cx="99.1447" cy="384.579" r="4" fill="#0" id="circle25"/>
	<circle cx="100.704" cy="534.314" r="4" fill="#0" id="circle26"/>
	<circle cx="105.384" cy="549.912" r="4" fill="#0" id="circle27"/>
	<circle cx="106.943" cy="398.616" r="4" fill="#0" id="circle28"/>
	<circle cx="113.182" cy="563.95" r="4" fill="#0" id="circle29"/>
	<circle cx="113.182" cy="579.547" r="4" fill="#0" id="circle30"/>
	<circle cx="117.862" cy="411.094" r="4" fill="#0" id="circle31"/>
	<circle cx="120.981" cy="593.585" r="4" fill="#0" id="circle32"/>
	<circle cx="125.66" cy="425.132" r="4" fill="#0" id="circle33"/>
	<circle cx="128.78" cy="141.258" r="4" fill="#0" id="circle34"/>
	<circle cx="128.78" cy="607.623" r="4" fill="#0" id="circle35"/>
	<circle cx="128.78" cy="623.22" r="4" fill="#0" id="circle36"/>
	<circle cx="136.579" cy="155.296" r="4" fill="#0" id="circle37"/>
	<circle cx="136.579" cy="170.893" r="4" fill="#0" id="circle38"/>
	<circle cx="136.579" cy="186.491" r="4" fill="#0" id="circle39"/>
	<circle cx="136.579" cy="437.61" r="4" fill="#0" id="circle40"/>
	<circle cx="136.579" cy="637.258" r="4" fill="#0" id="circle41"/>
	<circle cx="136.579" cy="652.855" r="4" fill="#0" id="circle42"/>
	<circle cx="141.258" cy="128.78" r="4" fill="#0" id="circle43"/>
	<circle cx="144.377" cy="110.063" r="4" fill="#0" id="circle44"/>
	<circle cx="144.377" cy="200.528" r="4" fill="#0" id="circle45"/>
	<circle cx="144.377" cy="216.126" r="4" fill="#0" id="circle46"/>
	<circle cx="144.377" cy="231.723" r="4" fill="#0" id="circle47"/>
	<circle cx="144.377" cy="666.893" r="4" fill="#0" id="circle48"/>
	<circle cx="144.377" cy="682.491" r="4" fill="#0" id="circle49"/>
	<circle cx="144.377" cy="698.088" r="4" fill="#0" id="circle50"/>
	<circle cx="144.377" cy="713.686" r="4" fill="#0" id="circle51"/>
	<circle cx="145.937" cy="450.088" r="4" fill="#0" id="circle52"/>
	<circle cx="147.497" cy="729.283" r="4" fill="#0" id="circle53"/>
	<circle cx="152.176" cy="94.4654" r="4" fill="#0" id="circle54"/>
	<circle cx="152.176" cy="245.761" r="4" fill="#0" id="circle55"/>
	<circle cx="152.176" cy="261.358" r="4" fill="#0" id="circle56"/>
	<circle cx="152.176" cy="744.881" r="4" fill="#0" id="circle57"/>
	<circle cx="153.736" cy="464.126" r="4" fill="#0" id="circle58"/>
	<circle cx="155.296" cy="760.478" r="4" fill="#0" id="circle59"/>
	<circle cx="159.975" cy="78.8679" r="4" fill="#0" id="circle60"/>
	<circle cx="159.975" cy="275.396" r="4" fill="#0" id="circle61"/>
	<circle cx="159.975" cy="290.994" r="4" fill="#0" id="circle62"/>
	<circle cx="159.975" cy="306.591" r="4" fill="#0" id="circle63"/>
	<circle cx="159.975" cy="776.075" r="4" fill="#0" id="circle64"/>
	<circle cx="166.214" cy="473.484" r="4" fill="#0" id="circle65"/>
	<circle cx="167.774" cy="320.629" r="4" fill="#0" id="circle66"/>
	<circle cx="167.774" cy="336.226" r="4" fill="#0" id="circle67"/>
	<circle cx="167.774" cy="351.824" r="4" fill="#0" id="circle68"/>
	<circle cx="167.774" cy="367.421" r="4" fill="#0" id="circle69"/>
	<circle cx="167.774" cy="790.113" r="4" fill="#0" id="circle70"/>
	<circle cx="169.333" cy="805.711" r="4" fill="#0" id="circle71"/>
	<circle cx="175.572" cy="85.1069" r="4" fill="#0" id="circle72"/>
	<circle cx="175.572" cy="381.459" r="4" fill="#0" id="circle73"/>
	<circle cx="175.572" cy="821.308" r="4" fill="#0" id="circle74"/>
	<circle cx="177.132" cy="836.906" r="4" fill="#0" id="circle75"/>
	<circle cx="180.252" cy="481.283" r="4" fill="#0" id="circle76"/>
	<circle cx="183.371" cy="395.497" r="4" fill="#0" id="circle77"/>
	<circle cx="183.371" cy="411.094" r="4" fill="#0" id="circle78"/>
	<circle cx="183.371" cy="852.503" r="4" fill="#0" id="circle79"/>
	<circle cx="184.931" cy="97.5849" r="4" fill="#0" id="circle80"/>
	<circle cx="184.931" cy="868.101" r="4" fill="#0" id="circle81"/>
	<circle cx="191.17" cy="425.132" r="4" fill="#0" id="circle82"/>
	<circle cx="191.17" cy="440.73" r="4" fill="#0" id="circle83"/>
	<circle cx="191.17" cy="960.126" r="4" fill="#0" id="circle84"/>
	<circle cx="192.73" cy="882.138" r="4" fill="#0" id="circle85"/>
	<circle cx="194.289" cy="456.327" r="4" fill="#0" id="circle86"/>
	<circle cx="195.849" cy="487.522" r="4" fill="#0" id="circle87"/>
	<circle cx="197.409" cy="106.943" r="4" fill="#0" id="circle88"/>
	<circle cx="198.969" cy="471.925" r="4" fill="#0" id="circle89"/>
	<circle cx="198.969" cy="897.736" r="4" fill="#0" id="circle90"/>
	<circle cx="198.969" cy="936.73" r="4" fill="#0" id="circle91"/>
	<circle cx="200.528" cy="972.604" r="4" fill="#0" id="circle92"/>
	<circle cx="203.648" cy="122.541" r="4" fill="#0" id="circle93"/>
	<circle cx="206.767" cy="911.774" r="4" fill="#0" id="circle94"/>
	<circle cx="211.447" cy="136.579" r="4" fill="#0" id="circle95"/>
	<circle cx="216.126" cy="152.176" r="4" fill="#0" id="circle96"/>
	<circle cx="216.126" cy="167.774" r="4" fill="#0" id="circle97"/>
	<circle cx="216.126" cy="183.371" r="4" fill="#0" id="circle98"/>
	<circle cx="216.126" cy="972.604" r="4" fill="#0" id="circle99"/>
	<circle cx="223.925" cy="197.409" r="4" fill="#0" id="circle100"/>
	<circle cx="223.925" cy="213.006" r="4" fill="#0" id="circle101"/>
	<circle cx="231.723" cy="227.044" r="4" fill="#0" id="circle102"/>
	<circle cx="231.723" cy="242.642" r="4" fill="#0" id="circle103"/>
	<circle cx="231.723" cy="972.604" r="4" fill="#0" id="circle104"/>
	<circle cx="239.522" cy="256.679" r="4" fill="#0" id="circle105"/>
	<circle cx="244.201" cy="272.277" r="4" fill="#0" id="circle106"/>
	<circle cx="247.321" cy="287.874" r="4" fill="#0" id="circle107"/>
	<circle cx="247.321" cy="303.472" r="4" fill="#0" id="circle108"/>
	<circle cx="247.321" cy="972.604" r="4" fill="#0" id="circle109"/>
	<circle cx="255.119" cy="317.509" r="4" fill="#0" id="circle110"/>
	<circle cx="258.239" cy="333.107" r="4" fill="#0" id="circle111"/>
	<circle cx="262.918" cy="972.604" r="4" fill="#0" id="circle112"/>
	<circle cx="266.038" cy="347.145" r="4" fill="#0" id="circle113"/>
	<circle cx="270.717" cy="362.742" r="4" fill="#0" id="circle114"/>
	<circle cx="278.516" cy="972.604" r="4" fill="#0" id="circle115"/>
	<circle cx="283.195" cy="372.101" r="4" fill="#0" id="circle116"/>
	<circle cx="289.434" cy="387.698" r="4" fill="#0" id="circle117"/>
	<circle cx="294.113" cy="972.604" r="4" fill="#0" id="circle118"/>
	<circle cx="301.912" cy="398.616" r="4" fill="#0" id="circle119"/>
	<circle cx="308.151" cy="258.239" r="4" fill="#0" id="circle120"/>
	<circle cx="308.151" cy="273.836" r="4" fill="#0" id="circle121"/>
	<circle cx="309.711" cy="972.604" r="4" fill="#0" id="circle122"/>
	<circle cx="315.95" cy="47.673" r="4" fill="#0" id="circle123"/>
	<circle cx="315.95" cy="63.2704" r="4" fill="#0" id="circle124"/>
	<circle cx="315.95" cy="78.8679" r="4" fill="#0" id="circle125"/>
	<circle cx="315.95" cy="94.4654" r="4" fill="#0" id="circle126"/>
	<circle cx="315.95" cy="110.063" r="4" fill="#0" id="circle127"/>
	<circle cx="315.95" cy="125.66" r="4" fill="#0" id="circle128"/>
	<circle cx="315.95" cy="141.258" r="4" fill="#0" id="circle129"/>
	<circle cx="315.95" cy="156.855" r="4" fill="#0" id="circle130"/>
	<circle cx="315.95" cy="172.453" r="4" fill="#0" id="circle131"/>
	<circle cx="315.95" cy="188.05" r="4" fill="#0" id="circle132"/>
	<circle cx="315.95" cy="203.648" r="4" fill="#0" id="circle133"/>
	<circle cx="315.95" cy="219.245" r="4" fill="#0" id="circle134"/>
	<circle cx="315.95" cy="234.843" r="4" fill="#0" id="circle135"/>
	<circle cx="315.95" cy="287.874" r="4" fill="#0" id="circle136"/>
	<circle cx="315.95" cy="303.472" r="4" fill="#0" id="circle137"/>
	<circle cx="315.95" cy="319.069" r="4" fill="#0" id="circle138"/>
	<circle cx="315.95" cy="334.667" r="4" fill="#0" id="circle139"/>
	<circle cx="315.95" cy="350.264" r="4" fill="#0" id="circle140"/>
	<circle cx="315.95" cy="365.862" r="4" fill="#0" id="circle141"/>
	<circle cx="315.95" cy="381.459" r="4" fill="#0" id="circle142"/>
	<circle cx="323.748" cy="980.403" r="4" fill="#0" id="circle143"/>
	<circle cx="328.428" cy="35.195" r="4" fill="#0" id="circle144"/>
	<circle cx="339.346" cy="16.478" r="4" fill="#0" id="circle145"/>
	<circle cx="339.346" cy="980.403" r="4" fill="#0" id="circle146"/>
	<circle cx="351.824" cy="4" r="4" fill="#0" id="circle147"/>
	<circle cx="354.943" cy="980.403" r="4" fill="#0" id="circle148"/>
	<circle cx="367.421" cy="4" r="4" fill="#0" id="circle149"/>
	<circle cx="370.541" cy="980.403" r="4" fill="#0" id="circle150"/>
	<circle cx="378.34" cy="16.478" r="4" fill="#0" id="circle151"/>
	<circle cx="379.899" cy="32.0755" r="4" fill="#0" id="circle152"/>
	<circle cx="386.138" cy="980.403" r="4" fill="#0" id="circle153"/>
	<circle cx="390.818" cy="44.5535" r="4" fill="#0" id="circle154"/>
	<circle cx="395.497" cy="60.1509" r="4" fill="#0" id="circle155"/>
	<circle cx="395.497" cy="75.7484" r="4" fill="#0" id="circle156"/>
	<circle cx="400.176" cy="988.201" r="4" fill="#0" id="circle157"/>
	<circle cx="403.296" cy="89.7862" r="4" fill="#0" id="circle158"/>
	<circle cx="403.296" cy="105.384" r="4" fill="#0" id="circle159"/>
	<circle cx="403.296" cy="120.981" r="4" fill="#0" id="circle160"/>
	<circle cx="403.296" cy="136.579" r="4" fill="#0" id="circle161"/>
	<circle cx="403.296" cy="152.176" r="4" fill="#0" id="circle162"/>
	<circle cx="403.296" cy="167.774" r="4" fill="#0" id="circle163"/>
	<circle cx="403.296" cy="183.371" r="4" fill="#0" id="circle164"/>
	<circle cx="403.296" cy="198.969" r="4" fill="#0" id="circle165"/>
	<circle cx="403.296" cy="214.566" r="4" fill="#0" id="circle166"/>
	<circle cx="403.296" cy="230.164" r="4" fill="#0" id="circle167"/>
	<circle cx="411.094" cy="244.201" r="4" fill="#0" id="circle168"/>
	<circle cx="411.094" cy="259.799" r="4" fill="#0" id="circle169"/>
	<circle cx="411.094" cy="275.396" r="4" fill="#0" id="circle170"/>
	<circle cx="411.094" cy="290.994" r="4" fill="#0" id="circle171"/>
	<circle cx="411.094" cy="306.591" r="4" fill="#0" id="circle172"/>
	<circle cx="411.094" cy="322.189" r="4" fill="#0" id="circle173"/>
	<circle cx="411.094" cy="337.786" r="4" fill="#0" id="circle174"/>
	<circle cx="411.094" cy="353.384" r="4" fill="#0" id="circle175"/>
	<circle cx="411.094" cy="368.981" r="4" fill="#0" id="circle176"/>
	<circle cx="415.774" cy="988.201" r="4" fill="#0" id="circle177"/>
	<circle cx="418.893" cy="383.019" r="4" fill="#0" id="circle178"/>
	<circle cx="426.692" cy="397.057" r="4" fill="#0" id="circle179"/>
	<circle cx="431.371" cy="988.201" r="4" fill="#0" id="circle180"/>
	<circle cx="442.289" cy="389.258" r="4" fill="#0" id="circle181"/>
	<circle cx="446.969" cy="988.201" r="4" fill="#0" id="circle182"/>
	<circle cx="448.528" cy="367.421" r="4" fill="#0" id="circle183"/>
	<circle cx="456.327" cy="320.629" r="4" fill="#0" id="circle184"/>
	<circle cx="456.327" cy="336.226" r="4" fill="#0" id="circle185"/>
	<circle cx="456.327" cy="351.824" r="4" fill="#0" id="circle186"/>
	<circle cx="462.566" cy="988.201" r="4" fill="#0" id="circle187"/>
	<circle cx="464.126" cy="273.836" r="4" fill="#0" id="circle188"/>
	<circle cx="464.126" cy="289.434" r="4" fill="#0" id="circle189"/>
	<circle cx="464.126" cy="305.031" r="4" fill="#0" id="circle190"/>
	<circle cx="471.925" cy="258.239" r="4" fill="#0" id="circle191"/>
	<circle cx="476.604" cy="996" r="4" fill="#0" id="circle192"/>
	<circle cx="479.723" cy="117.862" r="4" fill="#0" id="circle193"/>
	<circle cx="479.723" cy="133.459" r="4" fill="#0" id="circle194"/>
	<circle cx="479.723" cy="149.057" r="4" fill="#0" id="circle195"/>
	<circle cx="479.723" cy="164.654" r="4" fill="#0" id="circle196"/>
	<circle cx="479.723" cy="180.252" r="4" fill="#0" id="circle197"/>
	<circle cx="479.723" cy="195.849" r="4" fill="#0" id="circle198"/>
	<circle cx="479.723" cy="211.447" r="4" fill="#0" id="circle199"/>
	<circle cx="479.723" cy="227.044" r="4" fill="#0" id="circle200"/>
	<circle cx="479.723" cy="242.642" r="4" fill="#0" id="circle201"/>
	<circle cx="487.522" cy="78.8679" r="4" fill="#0" id="circle202"/>
	<circle cx="487.522" cy="94.4654" r="4" fill="#0" id="circle203"/>
	<circle cx="492.201" cy="996" r="4" fill="#0" id="circle204"/>
	<circle cx="503.119" cy="71.0692" r="4" fill="#0" id="circle205"/>
	<circle cx="507.799" cy="994.44" r="4" fill="#0" id="circle206"/>
	<circle cx="515.597" cy="58.5912" r="4" fill="#0" id="circle207"/>
	<circle cx="515.597" cy="978.843" r="4" fill="#0" id="circle208"/>
	<circle cx="528.075" cy="46.1132" r="4" fill="#0" id="circle209"/>
	<circle cx="531.195" cy="971.044" r="4" fill="#0" id="circle210"/>
	<circle cx="538.994" cy="955.447" r="4" fill="#0" id="circle211"/>
	<circle cx="543.673" cy="47.673" r="4" fill="#0" id="circle212"/>
	<circle cx="549.912" cy="63.2704" r="4" fill="#0" id="circle213"/>
	<circle cx="551.472" cy="78.8679" r="4" fill="#0" id="circle214"/>
	<circle cx="551.472" cy="317.509" r="4" fill="#0" id="circle215"/>
	<circle cx="551.472" cy="333.107" r="4" fill="#0" id="circle216"/>
	<circle cx="551.472" cy="348.704" r="4" fill="#0" id="circle217"/>
	<circle cx="551.472" cy="364.302" r="4" fill="#0" id="circle218"/>
	<circle cx="551.472" cy="379.899" r="4" fill="#0" id="circle219"/>
	<circle cx="551.472" cy="395.497" r="4" fill="#0" id="circle220"/>
	<circle cx="551.472" cy="411.094" r="4" fill="#0" id="circle221"/>
	<circle cx="551.472" cy="426.692" r="4" fill="#0" id="circle222"/>
	<circle cx="551.472" cy="442.289" r="4" fill="#0" id="circle223"/>
	<circle cx="551.472" cy="457.887" r="4" fill="#0" id="circle224"/>
	<circle cx="551.472" cy="473.484" r="4" fill="#0" id="circle225"/>
	<circle cx="551.472" cy="489.082" r="4" fill="#0" id="circle226"/>
	<circle cx="551.472" cy="504.679" r="4" fill="#0" id="circle227"/>
	<circle cx="551.472" cy="941.409" r="4" fill="#0" id="circle228"/>
	<circle cx="557.711" cy="94.4654" r="4" fill="#0" id="circle229"/>
	<circle cx="559.27" cy="270.717" r="4" fill="#0" id="circle230"/>
	<circle cx="559.27" cy="286.314" r="4" fill="#0" id="circle231"/>
	<circle cx="559.27" cy="301.912" r="4" fill="#0" id="circle232"/>
	<circle cx="559.27" cy="518.717" r="4" fill="#0" id="circle233"/>
	<circle cx="559.27" cy="534.314" r="4" fill="#0" id="circle234"/>
	<circle cx="565.509" cy="108.503" r="4" fill="#0" id="circle235"/>
	<circle cx="567.069" cy="184.931" r="4" fill="#0" id="circle236"/>
	<circle cx="567.069" cy="200.528" r="4" fill="#0" id="circle237"/>
	<circle cx="567.069" cy="216.126" r="4" fill="#0" id="circle238"/>
	<circle cx="567.069" cy="231.723" r="4" fill="#0" id="circle239"/>
	<circle cx="567.069" cy="247.321" r="4" fill="#0" id="circle240"/>
	<circle cx="567.069" cy="548.352" r="4" fill="#0" id="circle241"/>
	<circle cx="567.069" cy="933.61" r="4" fill="#0" id="circle242"/>
	<circle cx="574.868" cy="120.981" r="4" fill="#0" id="circle243"/>
	<circle cx="574.868" cy="136.579" r="4" fill="#0" id="circle244"/>
	<circle cx="574.868" cy="152.176" r="4" fill="#0" id="circle245"/>
	<circle cx="574.868" cy="167.774" r="4" fill="#0" id="circle246"/>
	<circle cx="574.868" cy="562.39" r="4" fill="#0" id="circle247"/>
	<circle cx="581.107" cy="577.987" r="4" fill="#0" id="circle248"/>
	<circle cx="582.667" cy="918.013" r="4" fill="#0" id="circle249"/>
	<circle cx="588.906" cy="592.025" r="4" fill="#0" id="circle250"/>
	<circle cx="595.145" cy="607.623" r="4" fill="#0" id="circle251"/>
	<circle cx="595.145" cy="907.094" r="4" fill="#0" id="circle252"/>
	<circle cx="606.063" cy="620.101" r="4" fill="#0" id="circle253"/>
	<circle cx="606.063" cy="894.616" r="4" fill="#0" id="circle254"/>
	<circle cx="613.862" cy="634.138" r="4" fill="#0" id="circle255"/>
	<circle cx="613.862" cy="879.019" r="4" fill="#0" id="circle256"/>
	<circle cx="626.34" cy="868.101" r="4" fill="#0" id="circle257"/>
	<circle cx="629.459" cy="627.899" r="4" fill="#0" id="circle258"/>
	<circle cx="634.138" cy="852.503" r="4" fill="#0" id="circle259"/>
	<circle cx="641.937" cy="836.906" r="4" fill="#0" id="circle260"/>
	<circle cx="645.057" cy="623.22" r="4" fill="#0" id="circle261"/>
	<circle cx="652.855" cy="824.428" r="4" fill="#0" id="circle262"/>
	<circle cx="659.094" cy="609.182" r="4" fill="#0" id="circle263"/>
	<circle cx="660.654" cy="808.83" r="4" fill="#0" id="circle264"/>
	<circle cx="674.692" cy="601.384" r="4" fill="#0" id="circle265"/>
	<circle cx="676.252" cy="801.031" r="4" fill="#0" id="circle266"/>
	<circle cx="682.491" cy="577.987" r="4" fill="#0" id="circle267"/>
	<circle cx="684.05" cy="777.635" r="4" fill="#0" id="circle268"/>
	<circle cx="690.289" cy="562.39" r="4" fill="#0" id="circle269"/>
	<circle cx="696.528" cy="766.717" r="4" fill="#0" id="circle270"/>
	<circle cx="698.088" cy="538.994" r="4" fill="#0" id="circle271"/>
	<circle cx="707.447" cy="754.239" r="4" fill="#0" id="circle272"/>
	<circle cx="710.566" cy="526.516" r="4" fill="#0" id="circle273"/>
	<circle cx="713.686" cy="507.799" r="4" fill="#0" id="circle274"/>
	<circle cx="715.245" cy="730.843" r="4" fill="#0" id="circle275"/>
	<circle cx="723.044" cy="715.245" r="4" fill="#0" id="circle276"/>
	<circle cx="729.283" cy="492.201" r="4" fill="#0" id="circle277"/>
	<circle cx="735.522" cy="704.327" r="4" fill="#0" id="circle278"/>
	<circle cx="741.761" cy="479.723" r="4" fill="#0" id="circle279"/>
	<circle cx="743.321" cy="688.73" r="4" fill="#0" id="circle280"/>
	<circle cx="746.44" cy="668.453" r="4" fill="#0" id="circle281"/>
	<circle cx="754.239" cy="467.245" r="4" fill="#0" id="circle282"/>
	<circle cx="754.239" cy="652.855" r="4" fill="#0" id="circle283"/>
	<circle cx="762.038" cy="637.258" r="4" fill="#0" id="circle284"/>
	<circle cx="766.717" cy="456.327" r="4" fill="#0" id="circle285"/>
	<circle cx="777.635" cy="443.849" r="4" fill="#0" id="circle286"/>
	<circle cx="777.635" cy="606.063" r="4" fill="#0" id="circle287"/>
	<circle cx="777.635" cy="621.66" r="4" fill="#0" id="circle288"/>
	<circle cx="790.113" cy="595.145" r="4" fill="#0" id="circle289"/>
	<circle cx="793.233" cy="440.73" r="4" fill="#0" id="circle290"/>
	<circle cx="793.233" cy="574.868" r="4" fill="#0" id="circle291"/>
	<circle cx="801.031" cy="559.27" r="4" fill="#0" id="circle292"/>
	<circle cx="808.83" cy="440.73" r="4" fill="#0" id="circle293"/>
	<circle cx="808.83" cy="543.673" r="4" fill="#0" id="circle294"/>
	<circle cx="816.629" cy="520.277" r="4" fill="#0" id="circle295"/>
	<circle cx="824.428" cy="445.409" r="4" fill="#0" id="circle296"/>
	<circle cx="824.428" cy="461.006" r="4" fill="#0" id="circle297"/>
	<circle cx="824.428" cy="504.679" r="4" fill="#0" id="circle298"/>
	<circle cx="832.226" cy="475.044" r="4" fill="#0" id="circle299"/>
	<circle cx="832.226" cy="490.642" r="4" fill="#0" id="circle300"/>
	</g>
</svg>