<?xml version="1.0" encoding="UTF-8" standalone="no"?>
<!-- Created with CurveBenchmark -->
<svg
	xmlns:dc="http://purl.org/dc/elements/1.1/"
	xmlns:cc="http://creativecommons.org/ns#"
	xmlns:rdf="http://www.w3.org/1999/02/22-rdf-syntax-ns#"
	xmlns:svg="http://www.w3.org/2000/svg"
	xmlns="http://www.w3.org/2000/svg"
	xmlns:sodipodi="http://sodipodi.sourceforge.net/DTD/sodipodi-0.dtd"
	xmlns:inkscape="http://www.inkscape.org/namespaces/inkscape"
	width="1000"
	height="1000"
	id="svg2"
	version="1.1"
	sodipodi:docname="manifold/crawl-tree-5.png.txt">
<defs
	id="defs4" />
<metadata
	id="metadata7">
	<rdf:RDF>
		<cc:Work
			rdf:about="">
			<dc:format>image/svg+xml</dc:format>
			<dc:type
				rdf:resource="http://purl.org/dc/dcmitype/StillImage" />
			<dc:title></dc:title>
		</cc:Work>
	</rdf:RDF>
</metadata>
<g
	inkscape:label="Layer 1"
	inkscape:groupmode="layer"
	id="layer1">
	<path style="fill:none;stroke:red;stroke-width:1px;stroke-linecap:butt;stroke-linejoin:miter;stroke-opacity:1" d="M 4,824.031 4,832.502 z" id="boundary" inkscape:connector-curvature="0" />
	<path style="fill:none;stroke:red;stroke-width:1px;stroke-linecap:butt;stroke-linejoin:miter;stroke-opacity:1" d="M 4,832.502 10.7771,838.432 z" id="boundary" inkscape:connector-curvature="0" />
	<path style="fill:none;stroke:red;stroke-width:1px;stroke-linecap:butt;stroke-linejoin:miter;stroke-opacity:1" d="M 10.7771,838.432 17.5542,843.515 z" id="boundary" inkscape:connector-curvature="0" />
	<path style="fill:none;stroke:red;stroke-width:1px;stroke-linecap:butt;stroke-linejoin:miter;stroke-opacity:1" d="M 17.5542,843.515 26.0256,843.515 z" id="boundary" inkscape:connector-curvature="0" />
	<path style="fill:none;stroke:red;stroke-width:1px;stroke-linecap:butt;stroke-linejoin:miter;stroke-opacity:1" d="M 26.0256,843.515 34.497,843.515 z" id="boundary" inkscape:connector-curvature="0" />
	<path style="fill:none;stroke:red;stroke-width:1px;stroke-linecap:butt;stroke-linejoin:miter;stroke-opacity:1" d="M 34.497,843.515 42.1213,847.751 z" id="boundary" inkscape:connector-curvature="0" />
	<path style="fill:none;stroke:red;stroke-width:1px;stroke-linecap:butt;stroke-linejoin:miter;stroke-opacity:1" d="M 42.1213,847.751 49.7455,851.986 z" id="boundary" inkscape:connector-curvature="0" />
	<path style="fill:none;stroke:red;stroke-width:1px;stroke-linecap:butt;stroke-linejoin:miter;stroke-opacity:1" d="M 49.7455,851.986 58.2169,851.986 z" id="boundary" inkscape:connector-curvature="0" />
	<path style="fill:none;stroke:red;stroke-width:1px;stroke-linecap:butt;stroke-linejoin:miter;stroke-opacity:1" d="M 58.2169,851.986 66.6883,851.986 z" id="boundary" inkscape:connector-curvature="0" />
	<path style="fill:none;stroke:red;stroke-width:1px;stroke-linecap:butt;stroke-linejoin:miter;stroke-opacity:1" d="M 66.6883,851.986 75.1597,851.986 z" id="boundary" inkscape:connector-curvature="0" />
	<path style="fill:none;stroke:red;stroke-width:1px;stroke-linecap:butt;stroke-linejoin:miter;stroke-opacity:1" d="M 75.1597,851.986 82.7839,847.751 z" id="boundary" inkscape:connector-curvature="0" />
	<path style="fill:none;stroke:red;stroke-width:1px;stroke-linecap:butt;stroke-linejoin:miter;stroke-opacity:1" d="M 82.7839,847.751 89.5611,853.681 z" id="boundary" inkscape:connector-curvature="0" />
	<path style="fill:none;stroke:red;stroke-width:1px;stroke-linecap:butt;stroke-linejoin:miter;stroke-opacity:1" d="M 89.5611,853.681 98.0325,856.222 z" id="boundary" inkscape:connector-curvature="0" />
	<path style="fill:none;stroke:red;stroke-width:1px;stroke-linecap:butt;stroke-linejoin:miter;stroke-opacity:1" d="M 98.0325,856.222 106.504,856.222 z" id="boundary" inkscape:connector-curvature="0" />
	<path style="fill:none;stroke:red;stroke-width:1px;stroke-linecap:butt;stroke-linejoin:miter;stroke-opacity:1" d="M 106.504,856.222 114.128,851.986 z" id="boundary" inkscape:connector-curvature="0" />
	<path style="fill:none;stroke:red;stroke-width:1px;stroke-linecap:butt;stroke-linejoin:miter;stroke-opacity:1" d="M 114.128,851.986 122.599,851.986 z" id="boundary" inkscape:connector-curvature="0" />
	<path style="fill:none;stroke:red;stroke-width:1px;stroke-linecap:butt;stroke-linejoin:miter;stroke-opacity:1" d="M 122.599,851.986 131.071,851.986 z" id="boundary" inkscape:connector-curvature="0" />
	<path style="fill:none;stroke:red;stroke-width:1px;stroke-linecap:butt;stroke-linejoin:miter;stroke-opacity:1" d="M 131.071,851.986 138.695,847.751 z" id="boundary" inkscape:connector-curvature="0" />
	<path style="fill:none;stroke:red;stroke-width:1px;stroke-linecap:butt;stroke-linejoin:miter;stroke-opacity:1" d="M 138.695,847.751 144.625,854.528 z" id="boundary" inkscape:connector-curvature="0" />
	<path style="fill:none;stroke:red;stroke-width:1px;stroke-linecap:butt;stroke-linejoin:miter;stroke-opacity:1" d="M 144.625,854.528 151.402,860.458 z" id="boundary" inkscape:connector-curvature="0" />
	<path style="fill:none;stroke:red;stroke-width:1px;stroke-linecap:butt;stroke-linejoin:miter;stroke-opacity:1" d="M 151.402,860.458 159.026,864.693 z" id="boundary" inkscape:connector-curvature="0" />
	<path style="fill:none;stroke:red;stroke-width:1px;stroke-linecap:butt;stroke-linejoin:miter;stroke-opacity:1" d="M 159.026,864.693 167.498,864.693 z" id="boundary" inkscape:connector-curvature="0" />
	<path style="fill:none;stroke:red;stroke-width:1px;stroke-linecap:butt;stroke-linejoin:miter;stroke-opacity:1" d="M 167.498,864.693 175.969,864.693 z" id="boundary" inkscape:connector-curvature="0" />
	<path style="fill:none;stroke:red;stroke-width:1px;stroke-linecap:butt;stroke-linejoin:miter;stroke-opacity:1" d="M 175.969,864.693 184.441,863.846 z" id="boundary" inkscape:connector-curvature="0" />
	<path style="fill:none;stroke:red;stroke-width:1px;stroke-linecap:butt;stroke-linejoin:miter;stroke-opacity:1" d="M 184.441,863.846 192.912,860.458 z" id="boundary" inkscape:connector-curvature="0" />
	<path style="fill:none;stroke:red;stroke-width:1px;stroke-linecap:butt;stroke-linejoin:miter;stroke-opacity:1" d="M 192.912,860.458 201.383,860.458 z" id="boundary" inkscape:connector-curvature="0" />
	<path style="fill:none;stroke:red;stroke-width:1px;stroke-linecap:butt;stroke-linejoin:miter;stroke-opacity:1" d="M 201.383,860.458 207.313,867.235 z" id="boundary" inkscape:connector-curvature="0" />
	<path style="fill:none;stroke:red;stroke-width:1px;stroke-linecap:butt;stroke-linejoin:miter;stroke-opacity:1" d="M 207.313,867.235 207.313,875.706 z" id="boundary" inkscape:connector-curvature="0" />
	<path style="fill:none;stroke:red;stroke-width:1px;stroke-linecap:butt;stroke-linejoin:miter;stroke-opacity:1" d="M 207.313,875.706 207.313,884.178 z" id="boundary" inkscape:connector-curvature="0" />
	<path style="fill:none;stroke:red;stroke-width:1px;stroke-linecap:butt;stroke-linejoin:miter;stroke-opacity:1" d="M 207.313,884.178 207.313,892.649 z" id="boundary" inkscape:connector-curvature="0" />
	<path style="fill:none;stroke:red;stroke-width:1px;stroke-linecap:butt;stroke-linejoin:miter;stroke-opacity:1" d="M 207.313,892.649 211.549,900.273 z" id="boundary" inkscape:connector-curvature="0" />
	<path style="fill:none;stroke:red;stroke-width:1px;stroke-linecap:butt;stroke-linejoin:miter;stroke-opacity:1" d="M 211.549,900.273 211.549,908.745 z" id="boundary" inkscape:connector-curvature="0" />
	<path style="fill:none;stroke:red;stroke-width:1px;stroke-linecap:butt;stroke-linejoin:miter;stroke-opacity:1" d="M 211.549,908.745 211.549,917.216 z" id="boundary" inkscape:connector-curvature="0" />
	<path style="fill:none;stroke:red;stroke-width:1px;stroke-linecap:butt;stroke-linejoin:miter;stroke-opacity:1" d="M 211.549,917.216 211.549,925.687 z" id="boundary" inkscape:connector-curvature="0" />
	<path style="fill:none;stroke:red;stroke-width:1px;stroke-linecap:butt;stroke-linejoin:miter;stroke-opacity:1" d="M 211.549,925.687 211.549,934.159 z" id="boundary" inkscape:connector-curvature="0" />
	<path style="fill:none;stroke:red;stroke-width:1px;stroke-linecap:butt;stroke-linejoin:miter;stroke-opacity:1" d="M 211.549,934.159 211.549,942.63 z" id="boundary" inkscape:connector-curvature="0" />
	<path style="fill:none;stroke:red;stroke-width:1px;stroke-linecap:butt;stroke-linejoin:miter;stroke-opacity:1" d="M 211.549,942.63 211.549,951.102 z" id="boundary" inkscape:connector-curvature="0" />
	<path style="fill:none;stroke:red;stroke-width:1px;stroke-linecap:butt;stroke-linejoin:miter;stroke-opacity:1" d="M 211.549,951.102 211.549,959.573 z" id="boundary" inkscape:connector-curvature="0" />
	<path style="fill:none;stroke:red;stroke-width:1px;stroke-linecap:butt;stroke-linejoin:miter;stroke-opacity:1" d="M 211.549,959.573 211.549,968.044 z" id="boundary" inkscape:connector-curvature="0" />
	<path style="fill:none;stroke:red;stroke-width:1px;stroke-linecap:butt;stroke-linejoin:miter;stroke-opacity:1" d="M 211.549,968.044 207.313,976.516 z" id="boundary" inkscape:connector-curvature="0" />
	<path style="fill:none;stroke:red;stroke-width:1px;stroke-linecap:butt;stroke-linejoin:miter;stroke-opacity:1" d="M 207.313,976.516 207.313,984.987 z" id="boundary" inkscape:connector-curvature="0" />
	<path style="fill:none;stroke:red;stroke-width:1px;stroke-linecap:butt;stroke-linejoin:miter;stroke-opacity:1" d="M 207.313,984.987 214.091,990.917 z" id="boundary" inkscape:connector-curvature="0" />
	<path style="fill:none;stroke:red;stroke-width:1px;stroke-linecap:butt;stroke-linejoin:miter;stroke-opacity:1" d="M 214.091,990.917 220.868,996 z" id="boundary" inkscape:connector-curvature="0" />
	<path style="fill:none;stroke:red;stroke-width:1px;stroke-linecap:butt;stroke-linejoin:miter;stroke-opacity:1" d="M 220.868,996 229.339,996 z" id="boundary" inkscape:connector-curvature="0" />
	<path style="fill:none;stroke:red;stroke-width:1px;stroke-linecap:butt;stroke-linejoin:miter;stroke-opacity:1" d="M 229.339,996 236.963,991.764 z" id="boundary" inkscape:connector-curvature="0" />
	<path style="fill:none;stroke:red;stroke-width:1px;stroke-linecap:butt;stroke-linejoin:miter;stroke-opacity:1" d="M 236.963,991.764 245.435,989.223 z" id="boundary" inkscape:connector-curvature="0" />
	<path style="fill:none;stroke:red;stroke-width:1px;stroke-linecap:butt;stroke-linejoin:miter;stroke-opacity:1" d="M 245.435,989.223 252.212,982.446 z" id="boundary" inkscape:connector-curvature="0" />
	<path style="fill:none;stroke:red;stroke-width:1px;stroke-linecap:butt;stroke-linejoin:miter;stroke-opacity:1" d="M 4,824.031 10.7771,817.254 z" id="boundary" inkscape:connector-curvature="0" />
	<path style="fill:none;stroke:red;stroke-width:1px;stroke-linecap:butt;stroke-linejoin:miter;stroke-opacity:1" d="M 10.7771,817.254 15.0128,808.782 z" id="boundary" inkscape:connector-curvature="0" />
	<path style="fill:none;stroke:red;stroke-width:1px;stroke-linecap:butt;stroke-linejoin:miter;stroke-opacity:1" d="M 15.0128,808.782 16.7071,798.617 z" id="boundary" inkscape:connector-curvature="0" />
	<path style="fill:none;stroke:red;stroke-width:1px;stroke-linecap:butt;stroke-linejoin:miter;stroke-opacity:1" d="M 16.7071,798.617 23.4842,791.839 z" id="boundary" inkscape:connector-curvature="0" />
	<path style="fill:none;stroke:red;stroke-width:1px;stroke-linecap:butt;stroke-linejoin:miter;stroke-opacity:1" d="M 23.4842,791.839 30.2613,785.062 z" id="boundary" inkscape:connector-curvature="0" />
	<path style="fill:none;stroke:red;stroke-width:1px;stroke-linecap:butt;stroke-linejoin:miter;stroke-opacity:1" d="M 30.2613,785.062 34.497,776.591 z" id="boundary" inkscape:connector-curvature="0" />
	<path style="fill:none;stroke:red;stroke-width:1px;stroke-linecap:butt;stroke-linejoin:miter;stroke-opacity:1" d="M 34.497,776.591 38.7327,768.12 z" id="boundary" inkscape:connector-curvature="0" />
	<path style="fill:none;stroke:red;stroke-width:1px;stroke-linecap:butt;stroke-linejoin:miter;stroke-opacity:1" d="M 38.7327,768.12 45.5098,762.19 z" id="boundary" inkscape:connector-curvature="0" />
	<path style="fill:none;stroke:red;stroke-width:1px;stroke-linecap:butt;stroke-linejoin:miter;stroke-opacity:1" d="M 45.5098,762.19 51.4398,755.412 z" id="boundary" inkscape:connector-curvature="0" />
	<path style="fill:none;stroke:red;stroke-width:1px;stroke-linecap:butt;stroke-linejoin:miter;stroke-opacity:1" d="M 51.4398,755.412 54.8284,743.553 z" id="boundary" inkscape:connector-curvature="0" />
	<path style="fill:none;stroke:red;stroke-width:1px;stroke-linecap:butt;stroke-linejoin:miter;stroke-opacity:1" d="M 54.8284,743.553 61.6055,737.623 z" id="boundary" inkscape:connector-curvature="0" />
	<path style="fill:none;stroke:red;stroke-width:1px;stroke-linecap:butt;stroke-linejoin:miter;stroke-opacity:1" d="M 61.6055,737.623 59.9112,729.151 z" id="boundary" inkscape:connector-curvature="0" />
	<path style="fill:none;stroke:red;stroke-width:1px;stroke-linecap:butt;stroke-linejoin:miter;stroke-opacity:1" d="M 59.9112,729.151 51.4398,729.151 z" id="boundary" inkscape:connector-curvature="0" />
	<path style="fill:none;stroke:red;stroke-width:1px;stroke-linecap:butt;stroke-linejoin:miter;stroke-opacity:1" d="M 51.4398,729.151 44.6627,724.068 z" id="boundary" inkscape:connector-curvature="0" />
	<path style="fill:none;stroke:red;stroke-width:1px;stroke-linecap:butt;stroke-linejoin:miter;stroke-opacity:1" d="M 44.6627,724.068 37.8856,718.138 z" id="boundary" inkscape:connector-curvature="0" />
	<path style="fill:none;stroke:red;stroke-width:1px;stroke-linecap:butt;stroke-linejoin:miter;stroke-opacity:1" d="M 37.8856,718.138 37.8856,709.667 z" id="boundary" inkscape:connector-curvature="0" />
	<path style="fill:none;stroke:red;stroke-width:1px;stroke-linecap:butt;stroke-linejoin:miter;stroke-opacity:1" d="M 37.8856,709.667 42.1213,696.96 z" id="boundary" inkscape:connector-curvature="0" />
	<path style="fill:none;stroke:red;stroke-width:1px;stroke-linecap:butt;stroke-linejoin:miter;stroke-opacity:1" d="M 42.1213,696.96 46.357,688.488 z" id="boundary" inkscape:connector-curvature="0" />
	<path style="fill:none;stroke:red;stroke-width:1px;stroke-linecap:butt;stroke-linejoin:miter;stroke-opacity:1" d="M 46.357,688.488 53.1341,681.711 z" id="boundary" inkscape:connector-curvature="0" />
	<path style="fill:none;stroke:red;stroke-width:1px;stroke-linecap:butt;stroke-linejoin:miter;stroke-opacity:1" d="M 53.1341,681.711 54.8284,671.546 z" id="boundary" inkscape:connector-curvature="0" />
	<path style="fill:none;stroke:red;stroke-width:1px;stroke-linecap:butt;stroke-linejoin:miter;stroke-opacity:1" d="M 54.8284,671.546 59.064,658.839 z" id="boundary" inkscape:connector-curvature="0" />
	<path style="fill:none;stroke:red;stroke-width:1px;stroke-linecap:butt;stroke-linejoin:miter;stroke-opacity:1" d="M 59.064,658.839 63.2997,650.367 z" id="boundary" inkscape:connector-curvature="0" />
	<path style="fill:none;stroke:red;stroke-width:1px;stroke-linecap:butt;stroke-linejoin:miter;stroke-opacity:1" d="M 63.2997,650.367 67.5354,637.66 z" id="boundary" inkscape:connector-curvature="0" />
	<path style="fill:none;stroke:red;stroke-width:1px;stroke-linecap:butt;stroke-linejoin:miter;stroke-opacity:1" d="M 67.5354,637.66 71.7711,624.953 z" id="boundary" inkscape:connector-curvature="0" />
	<path style="fill:none;stroke:red;stroke-width:1px;stroke-linecap:butt;stroke-linejoin:miter;stroke-opacity:1" d="M 71.7711,624.953 71.7711,616.482 z" id="boundary" inkscape:connector-curvature="0" />
	<path style="fill:none;stroke:red;stroke-width:1px;stroke-linecap:butt;stroke-linejoin:miter;stroke-opacity:1" d="M 71.7711,616.482 76.0068,608.01 z" id="boundary" inkscape:connector-curvature="0" />
	<path style="fill:none;stroke:red;stroke-width:1px;stroke-linecap:butt;stroke-linejoin:miter;stroke-opacity:1" d="M 76.0068,608.01 76.0068,599.539 z" id="boundary" inkscape:connector-curvature="0" />
	<path style="fill:none;stroke:red;stroke-width:1px;stroke-linecap:butt;stroke-linejoin:miter;stroke-opacity:1" d="M 76.0068,599.539 77.7011,589.373 z" id="boundary" inkscape:connector-curvature="0" />
	<path style="fill:none;stroke:red;stroke-width:1px;stroke-linecap:butt;stroke-linejoin:miter;stroke-opacity:1" d="M 77.7011,589.373 69.2297,588.526 z" id="boundary" inkscape:connector-curvature="0" />
	<path style="fill:none;stroke:red;stroke-width:1px;stroke-linecap:butt;stroke-linejoin:miter;stroke-opacity:1" d="M 69.2297,588.526 63.2997,581.749 z" id="boundary" inkscape:connector-curvature="0" />
	<path style="fill:none;stroke:red;stroke-width:1px;stroke-linecap:butt;stroke-linejoin:miter;stroke-opacity:1" d="M 63.2997,581.749 59.064,574.125 z" id="boundary" inkscape:connector-curvature="0" />
	<path style="fill:none;stroke:red;stroke-width:1px;stroke-linecap:butt;stroke-linejoin:miter;stroke-opacity:1" d="M 59.064,574.125 59.064,565.653 z" id="boundary" inkscape:connector-curvature="0" />
	<path style="fill:none;stroke:red;stroke-width:1px;stroke-linecap:butt;stroke-linejoin:miter;stroke-opacity:1" d="M 59.064,565.653 63.2997,557.182 z" id="boundary" inkscape:connector-curvature="0" />
	<path style="fill:none;stroke:red;stroke-width:1px;stroke-linecap:butt;stroke-linejoin:miter;stroke-opacity:1" d="M 63.2997,557.182 67.5354,544.475 z" id="boundary" inkscape:connector-curvature="0" />
	<path style="fill:none;stroke:red;stroke-width:1px;stroke-linecap:butt;stroke-linejoin:miter;stroke-opacity:1" d="M 67.5354,544.475 74.3126,537.698 z" id="boundary" inkscape:connector-curvature="0" />
	<path style="fill:none;stroke:red;stroke-width:1px;stroke-linecap:butt;stroke-linejoin:miter;stroke-opacity:1" d="M 74.3126,537.698 78.5482,529.226 z" id="boundary" inkscape:connector-curvature="0" />
	<path style="fill:none;stroke:red;stroke-width:1px;stroke-linecap:butt;stroke-linejoin:miter;stroke-opacity:1" d="M 78.5482,529.226 82.7839,520.755 z" id="boundary" inkscape:connector-curvature="0" />
	<path style="fill:none;stroke:red;stroke-width:1px;stroke-linecap:butt;stroke-linejoin:miter;stroke-opacity:1" d="M 82.7839,520.755 87.0196,512.284 z" id="boundary" inkscape:connector-curvature="0" />
	<path style="fill:none;stroke:red;stroke-width:1px;stroke-linecap:butt;stroke-linejoin:miter;stroke-opacity:1" d="M 87.0196,512.284 91.2553,503.812 z" id="boundary" inkscape:connector-curvature="0" />
	<path style="fill:none;stroke:red;stroke-width:1px;stroke-linecap:butt;stroke-linejoin:miter;stroke-opacity:1" d="M 91.2553,503.812 92.9496,493.646 z" id="boundary" inkscape:connector-curvature="0" />
	<path style="fill:none;stroke:red;stroke-width:1px;stroke-linecap:butt;stroke-linejoin:miter;stroke-opacity:1" d="M 92.9496,493.646 97.1853,480.939 z" id="boundary" inkscape:connector-curvature="0" />
	<path style="fill:none;stroke:red;stroke-width:1px;stroke-linecap:butt;stroke-linejoin:miter;stroke-opacity:1" d="M 97.1853,480.939 101.421,472.468 z" id="boundary" inkscape:connector-curvature="0" />
	<path style="fill:none;stroke:red;stroke-width:1px;stroke-linecap:butt;stroke-linejoin:miter;stroke-opacity:1" d="M 101.421,472.468 105.657,458.067 z" id="boundary" inkscape:connector-curvature="0" />
	<path style="fill:none;stroke:red;stroke-width:1px;stroke-linecap:butt;stroke-linejoin:miter;stroke-opacity:1" d="M 105.657,458.067 102.268,449.595 z" id="boundary" inkscape:connector-curvature="0" />
	<path style="fill:none;stroke:red;stroke-width:1px;stroke-linecap:butt;stroke-linejoin:miter;stroke-opacity:1" d="M 102.268,449.595 95.491,444.512 z" id="boundary" inkscape:connector-curvature="0" />
	<path style="fill:none;stroke:red;stroke-width:1px;stroke-linecap:butt;stroke-linejoin:miter;stroke-opacity:1" d="M 95.491,444.512 88.7139,438.582 z" id="boundary" inkscape:connector-curvature="0" />
	<path style="fill:none;stroke:red;stroke-width:1px;stroke-linecap:butt;stroke-linejoin:miter;stroke-opacity:1" d="M 88.7139,438.582 88.7139,430.111 z" id="boundary" inkscape:connector-curvature="0" />
	<path style="fill:none;stroke:red;stroke-width:1px;stroke-linecap:butt;stroke-linejoin:miter;stroke-opacity:1" d="M 88.7139,430.111 92.9496,421.64 z" id="boundary" inkscape:connector-curvature="0" />
	<path style="fill:none;stroke:red;stroke-width:1px;stroke-linecap:butt;stroke-linejoin:miter;stroke-opacity:1" d="M 92.9496,421.64 92.9496,413.168 z" id="boundary" inkscape:connector-curvature="0" />
	<path style="fill:none;stroke:red;stroke-width:1px;stroke-linecap:butt;stroke-linejoin:miter;stroke-opacity:1" d="M 92.9496,413.168 97.1853,400.461 z" id="boundary" inkscape:connector-curvature="0" />
	<path style="fill:none;stroke:red;stroke-width:1px;stroke-linecap:butt;stroke-linejoin:miter;stroke-opacity:1" d="M 97.1853,400.461 101.421,387.754 z" id="boundary" inkscape:connector-curvature="0" />
	<path style="fill:none;stroke:red;stroke-width:1px;stroke-linecap:butt;stroke-linejoin:miter;stroke-opacity:1" d="M 101.421,387.754 105.657,379.283 z" id="boundary" inkscape:connector-curvature="0" />
	<path style="fill:none;stroke:red;stroke-width:1px;stroke-linecap:butt;stroke-linejoin:miter;stroke-opacity:1" d="M 105.657,379.283 105.657,370.811 z" id="boundary" inkscape:connector-curvature="0" />
	<path style="fill:none;stroke:red;stroke-width:1px;stroke-linecap:butt;stroke-linejoin:miter;stroke-opacity:1" d="M 105.657,370.811 109.892,358.104 z" id="boundary" inkscape:connector-curvature="0" />
	<path style="fill:none;stroke:red;stroke-width:1px;stroke-linecap:butt;stroke-linejoin:miter;stroke-opacity:1" d="M 109.892,358.104 114.128,349.633 z" id="boundary" inkscape:connector-curvature="0" />
	<path style="fill:none;stroke:red;stroke-width:1px;stroke-linecap:butt;stroke-linejoin:miter;stroke-opacity:1" d="M 114.128,349.633 118.364,336.926 z" id="boundary" inkscape:connector-curvature="0" />
	<path style="fill:none;stroke:red;stroke-width:1px;stroke-linecap:butt;stroke-linejoin:miter;stroke-opacity:1" d="M 118.364,336.926 122.599,324.219 z" id="boundary" inkscape:connector-curvature="0" />
	<path style="fill:none;stroke:red;stroke-width:1px;stroke-linecap:butt;stroke-linejoin:miter;stroke-opacity:1" d="M 122.599,324.219 126.835,315.747 z" id="boundary" inkscape:connector-curvature="0" />
	<path style="fill:none;stroke:red;stroke-width:1px;stroke-linecap:butt;stroke-linejoin:miter;stroke-opacity:1" d="M 126.835,315.747 126.835,307.276 z" id="boundary" inkscape:connector-curvature="0" />
	<path style="fill:none;stroke:red;stroke-width:1px;stroke-linecap:butt;stroke-linejoin:miter;stroke-opacity:1" d="M 126.835,307.276 120.905,300.499 z" id="boundary" inkscape:connector-curvature="0" />
	<path style="fill:none;stroke:red;stroke-width:1px;stroke-linecap:butt;stroke-linejoin:miter;stroke-opacity:1" d="M 120.905,300.499 114.128,294.569 z" id="boundary" inkscape:connector-curvature="0" />
	<path style="fill:none;stroke:red;stroke-width:1px;stroke-linecap:butt;stroke-linejoin:miter;stroke-opacity:1" d="M 114.128,294.569 114.128,286.097 z" id="boundary" inkscape:connector-curvature="0" />
	<path style="fill:none;stroke:red;stroke-width:1px;stroke-linecap:butt;stroke-linejoin:miter;stroke-opacity:1" d="M 114.128,286.097 118.364,273.39 z" id="boundary" inkscape:connector-curvature="0" />
	<path style="fill:none;stroke:red;stroke-width:1px;stroke-linecap:butt;stroke-linejoin:miter;stroke-opacity:1" d="M 118.364,273.39 122.599,264.919 z" id="boundary" inkscape:connector-curvature="0" />
	<path style="fill:none;stroke:red;stroke-width:1px;stroke-linecap:butt;stroke-linejoin:miter;stroke-opacity:1" d="M 122.599,264.919 126.835,252.212 z" id="boundary" inkscape:connector-curvature="0" />
	<path style="fill:none;stroke:red;stroke-width:1px;stroke-linecap:butt;stroke-linejoin:miter;stroke-opacity:1" d="M 126.835,252.212 133.612,245.435 z" id="boundary" inkscape:connector-curvature="0" />
	<path style="fill:none;stroke:red;stroke-width:1px;stroke-linecap:butt;stroke-linejoin:miter;stroke-opacity:1" d="M 133.612,245.435 137.848,236.963 z" id="boundary" inkscape:connector-curvature="0" />
	<path style="fill:none;stroke:red;stroke-width:1px;stroke-linecap:butt;stroke-linejoin:miter;stroke-opacity:1" d="M 137.848,236.963 143.778,226.798 z" id="boundary" inkscape:connector-curvature="0" />
	<path style="fill:none;stroke:red;stroke-width:1px;stroke-linecap:butt;stroke-linejoin:miter;stroke-opacity:1" d="M 143.778,226.798 148.014,214.091 z" id="boundary" inkscape:connector-curvature="0" />
	<path style="fill:none;stroke:red;stroke-width:1px;stroke-linecap:butt;stroke-linejoin:miter;stroke-opacity:1" d="M 148.014,214.091 152.249,201.383 z" id="boundary" inkscape:connector-curvature="0" />
	<path style="fill:none;stroke:red;stroke-width:1px;stroke-linecap:butt;stroke-linejoin:miter;stroke-opacity:1" d="M 152.249,201.383 156.485,192.912 z" id="boundary" inkscape:connector-curvature="0" />
	<path style="fill:none;stroke:red;stroke-width:1px;stroke-linecap:butt;stroke-linejoin:miter;stroke-opacity:1" d="M 156.485,192.912 160.721,181.899 z" id="boundary" inkscape:connector-curvature="0" />
	<path style="fill:none;stroke:red;stroke-width:1px;stroke-linecap:butt;stroke-linejoin:miter;stroke-opacity:1" d="M 160.721,181.899 159.026,173.428 z" id="boundary" inkscape:connector-curvature="0" />
	<path style="fill:none;stroke:red;stroke-width:1px;stroke-linecap:butt;stroke-linejoin:miter;stroke-opacity:1" d="M 159.026,173.428 152.249,167.498 z" id="boundary" inkscape:connector-curvature="0" />
	<path style="fill:none;stroke:red;stroke-width:1px;stroke-linecap:butt;stroke-linejoin:miter;stroke-opacity:1" d="M 152.249,167.498 152.249,159.026 z" id="boundary" inkscape:connector-curvature="0" />
	<path style="fill:none;stroke:red;stroke-width:1px;stroke-linecap:butt;stroke-linejoin:miter;stroke-opacity:1" d="M 152.249,159.026 156.485,150.555 z" id="boundary" inkscape:connector-curvature="0" />
	<path style="fill:none;stroke:red;stroke-width:1px;stroke-linecap:butt;stroke-linejoin:miter;stroke-opacity:1" d="M 156.485,150.555 160.721,137.848 z" id="boundary" inkscape:connector-curvature="0" />
	<path style="fill:none;stroke:red;stroke-width:1px;stroke-linecap:butt;stroke-linejoin:miter;stroke-opacity:1" d="M 160.721,137.848 167.498,131.071 z" id="boundary" inkscape:connector-curvature="0" />
	<path style="fill:none;stroke:red;stroke-width:1px;stroke-linecap:butt;stroke-linejoin:miter;stroke-opacity:1" d="M 167.498,131.071 173.428,120.905 z" id="boundary" inkscape:connector-curvature="0" />
	<path style="fill:none;stroke:red;stroke-width:1px;stroke-linecap:butt;stroke-linejoin:miter;stroke-opacity:1" d="M 173.428,120.905 177.664,108.198 z" id="boundary" inkscape:connector-curvature="0" />
	<path style="fill:none;stroke:red;stroke-width:1px;stroke-linecap:butt;stroke-linejoin:miter;stroke-opacity:1" d="M 177.664,108.198 181.899,99.7267 z" id="boundary" inkscape:connector-curvature="0" />
	<path style="fill:none;stroke:red;stroke-width:1px;stroke-linecap:butt;stroke-linejoin:miter;stroke-opacity:1" d="M 181.899,99.7267 188.676,92.9496 z" id="boundary" inkscape:connector-curvature="0" />
	<path style="fill:none;stroke:red;stroke-width:1px;stroke-linecap:butt;stroke-linejoin:miter;stroke-opacity:1" d="M 188.676,92.9496 192.912,84.4782 z" id="boundary" inkscape:connector-curvature="0" />
	<path style="fill:none;stroke:red;stroke-width:1px;stroke-linecap:butt;stroke-linejoin:miter;stroke-opacity:1" d="M 192.912,84.4782 194.606,74.3126 z" id="boundary" inkscape:connector-curvature="0" />
	<path style="fill:none;stroke:red;stroke-width:1px;stroke-linecap:butt;stroke-linejoin:miter;stroke-opacity:1" d="M 194.606,74.3126 198.842,65.8412 z" id="boundary" inkscape:connector-curvature="0" />
	<path style="fill:none;stroke:red;stroke-width:1px;stroke-linecap:butt;stroke-linejoin:miter;stroke-opacity:1" d="M 198.842,65.8412 203.078,53.1341 z" id="boundary" inkscape:connector-curvature="0" />
	<path style="fill:none;stroke:red;stroke-width:1px;stroke-linecap:butt;stroke-linejoin:miter;stroke-opacity:1" d="M 203.078,53.1341 209.855,46.357 z" id="boundary" inkscape:connector-curvature="0" />
	<path style="fill:none;stroke:red;stroke-width:1px;stroke-linecap:butt;stroke-linejoin:miter;stroke-opacity:1" d="M 209.855,46.357 211.549,36.1913 z" id="boundary" inkscape:connector-curvature="0" />
	<path style="fill:none;stroke:red;stroke-width:1px;stroke-linecap:butt;stroke-linejoin:miter;stroke-opacity:1" d="M 211.549,36.1913 215.785,27.7199 z" id="boundary" inkscape:connector-curvature="0" />
	<path style="fill:none;stroke:red;stroke-width:1px;stroke-linecap:butt;stroke-linejoin:miter;stroke-opacity:1" d="M 215.785,27.7199 220.02,15.0128 z" id="boundary" inkscape:connector-curvature="0" />
	<path style="fill:none;stroke:red;stroke-width:1px;stroke-linecap:butt;stroke-linejoin:miter;stroke-opacity:1" d="M 220.02,15.0128 226.798,8.2357 z" id="boundary" inkscape:connector-curvature="0" />
	<path style="fill:none;stroke:red;stroke-width:1px;stroke-linecap:butt;stroke-linejoin:miter;stroke-opacity:1" d="M 226.798,8.2357 234.422,4 z" id="boundary" inkscape:connector-curvature="0" />
	<path style="fill:none;stroke:red;stroke-width:1px;stroke-linecap:butt;stroke-linejoin:miter;stroke-opacity:1" d="M 234.422,4 242.046,8.2357 z" id="boundary" inkscape:connector-curvature="0" />
	<path style="fill:none;stroke:red;stroke-width:1px;stroke-linecap:butt;stroke-linejoin:miter;stroke-opacity:1" d="M 242.046,8.2357 250.518,10.7771 z" id="boundary" inkscape:connector-curvature="0" />
	<path style="fill:none;stroke:red;stroke-width:1px;stroke-linecap:butt;stroke-linejoin:miter;stroke-opacity:1" d="M 250.518,10.7771 256.447,17.5542 z" id="boundary" inkscape:connector-curvature="0" />
	<path style="fill:none;stroke:red;stroke-width:1px;stroke-linecap:butt;stroke-linejoin:miter;stroke-opacity:1" d="M 256.447,17.5542 260.683,25.1785 z" id="boundary" inkscape:connector-curvature="0" />
	<path style="fill:none;stroke:red;stroke-width:1px;stroke-linecap:butt;stroke-linejoin:miter;stroke-opacity:1" d="M 260.683,25.1785 263.225,33.6499 z" id="boundary" inkscape:connector-curvature="0" />
	<path style="fill:none;stroke:red;stroke-width:1px;stroke-linecap:butt;stroke-linejoin:miter;stroke-opacity:1" d="M 263.225,33.6499 267.46,41.2741 z" id="boundary" inkscape:connector-curvature="0" />
	<path style="fill:none;stroke:red;stroke-width:1px;stroke-linecap:butt;stroke-linejoin:miter;stroke-opacity:1" d="M 267.46,41.2741 274.237,47.2041 z" id="boundary" inkscape:connector-curvature="0" />
	<path style="fill:none;stroke:red;stroke-width:1px;stroke-linecap:butt;stroke-linejoin:miter;stroke-opacity:1" d="M 274.237,47.2041 277.626,55.6755 z" id="boundary" inkscape:connector-curvature="0" />
	<path style="fill:none;stroke:red;stroke-width:1px;stroke-linecap:butt;stroke-linejoin:miter;stroke-opacity:1" d="M 277.626,55.6755 284.403,61.6055 z" id="boundary" inkscape:connector-curvature="0" />
	<path style="fill:none;stroke:red;stroke-width:1px;stroke-linecap:butt;stroke-linejoin:miter;stroke-opacity:1" d="M 284.403,61.6055 284.403,70.0769 z" id="boundary" inkscape:connector-curvature="0" />
	<path style="fill:none;stroke:red;stroke-width:1px;stroke-linecap:butt;stroke-linejoin:miter;stroke-opacity:1" d="M 284.403,70.0769 287.792,78.5482 z" id="boundary" inkscape:connector-curvature="0" />
	<path style="fill:none;stroke:red;stroke-width:1px;stroke-linecap:butt;stroke-linejoin:miter;stroke-opacity:1" d="M 287.792,78.5482 292.874,85.3254 z" id="boundary" inkscape:connector-curvature="0" />
	<path style="fill:none;stroke:red;stroke-width:1px;stroke-linecap:butt;stroke-linejoin:miter;stroke-opacity:1" d="M 292.874,85.3254 294.569,93.7968 z" id="boundary" inkscape:connector-curvature="0" />
	<path style="fill:none;stroke:red;stroke-width:1px;stroke-linecap:butt;stroke-linejoin:miter;stroke-opacity:1" d="M 294.569,93.7968 297.11,102.268 z" id="boundary" inkscape:connector-curvature="0" />
	<path style="fill:none;stroke:red;stroke-width:1px;stroke-linecap:butt;stroke-linejoin:miter;stroke-opacity:1" d="M 297.11,102.268 298.804,110.74 z" id="boundary" inkscape:connector-curvature="0" />
	<path style="fill:none;stroke:red;stroke-width:1px;stroke-linecap:butt;stroke-linejoin:miter;stroke-opacity:1" d="M 298.804,110.74 305.582,116.67 z" id="boundary" inkscape:connector-curvature="0" />
	<path style="fill:none;stroke:red;stroke-width:1px;stroke-linecap:butt;stroke-linejoin:miter;stroke-opacity:1" d="M 305.582,116.67 308.97,125.141 z" id="boundary" inkscape:connector-curvature="0" />
	<path style="fill:none;stroke:red;stroke-width:1px;stroke-linecap:butt;stroke-linejoin:miter;stroke-opacity:1" d="M 308.97,125.141 314.053,131.918 z" id="boundary" inkscape:connector-curvature="0" />
	<path style="fill:none;stroke:red;stroke-width:1px;stroke-linecap:butt;stroke-linejoin:miter;stroke-opacity:1" d="M 314.053,131.918 318.289,139.542 z" id="boundary" inkscape:connector-curvature="0" />
	<path style="fill:none;stroke:red;stroke-width:1px;stroke-linecap:butt;stroke-linejoin:miter;stroke-opacity:1" d="M 318.289,139.542 322.524,147.167 z" id="boundary" inkscape:connector-curvature="0" />
	<path style="fill:none;stroke:red;stroke-width:1px;stroke-linecap:butt;stroke-linejoin:miter;stroke-opacity:1" d="M 322.524,147.167 326.76,154.791 z" id="boundary" inkscape:connector-curvature="0" />
	<path style="fill:none;stroke:red;stroke-width:1px;stroke-linecap:butt;stroke-linejoin:miter;stroke-opacity:1" d="M 326.76,154.791 330.149,163.262 z" id="boundary" inkscape:connector-curvature="0" />
	<path style="fill:none;stroke:red;stroke-width:1px;stroke-linecap:butt;stroke-linejoin:miter;stroke-opacity:1" d="M 330.149,163.262 335.231,170.039 z" id="boundary" inkscape:connector-curvature="0" />
	<path style="fill:none;stroke:red;stroke-width:1px;stroke-linecap:butt;stroke-linejoin:miter;stroke-opacity:1" d="M 335.231,170.039 339.467,177.664 z" id="boundary" inkscape:connector-curvature="0" />
	<path style="fill:none;stroke:red;stroke-width:1px;stroke-linecap:butt;stroke-linejoin:miter;stroke-opacity:1" d="M 339.467,177.664 333.537,189.523 z" id="boundary" inkscape:connector-curvature="0" />
	<path style="fill:none;stroke:red;stroke-width:1px;stroke-linecap:butt;stroke-linejoin:miter;stroke-opacity:1" d="M 333.537,189.523 326.76,195.453 z" id="boundary" inkscape:connector-curvature="0" />
	<path style="fill:none;stroke:red;stroke-width:1px;stroke-linecap:butt;stroke-linejoin:miter;stroke-opacity:1" d="M 326.76,195.453 318.289,199.689 z" id="boundary" inkscape:connector-curvature="0" />
	<path style="fill:none;stroke:red;stroke-width:1px;stroke-linecap:butt;stroke-linejoin:miter;stroke-opacity:1" d="M 318.289,199.689 319.983,208.161 z" id="boundary" inkscape:connector-curvature="0" />
	<path style="fill:none;stroke:red;stroke-width:1px;stroke-linecap:butt;stroke-linejoin:miter;stroke-opacity:1" d="M 319.983,208.161 324.219,215.785 z" id="boundary" inkscape:connector-curvature="0" />
	<path style="fill:none;stroke:red;stroke-width:1px;stroke-linecap:butt;stroke-linejoin:miter;stroke-opacity:1" d="M 324.219,215.785 330.149,222.562 z" id="boundary" inkscape:connector-curvature="0" />
	<path style="fill:none;stroke:red;stroke-width:1px;stroke-linecap:butt;stroke-linejoin:miter;stroke-opacity:1" d="M 330.149,222.562 334.384,230.186 z" id="boundary" inkscape:connector-curvature="0" />
	<path style="fill:none;stroke:red;stroke-width:1px;stroke-linecap:butt;stroke-linejoin:miter;stroke-opacity:1" d="M 334.384,230.186 335.231,238.658 z" id="boundary" inkscape:connector-curvature="0" />
	<path style="fill:none;stroke:red;stroke-width:1px;stroke-linecap:butt;stroke-linejoin:miter;stroke-opacity:1" d="M 335.231,238.658 340.314,245.435 z" id="boundary" inkscape:connector-curvature="0" />
	<path style="fill:none;stroke:red;stroke-width:1px;stroke-linecap:butt;stroke-linejoin:miter;stroke-opacity:1" d="M 340.314,245.435 343.703,253.906 z" id="boundary" inkscape:connector-curvature="0" />
	<path style="fill:none;stroke:red;stroke-width:1px;stroke-linecap:butt;stroke-linejoin:miter;stroke-opacity:1" d="M 343.703,253.906 347.939,261.53 z" id="boundary" inkscape:connector-curvature="0" />
	<path style="fill:none;stroke:red;stroke-width:1px;stroke-linecap:butt;stroke-linejoin:miter;stroke-opacity:1" d="M 347.939,261.53 352.174,269.155 z" id="boundary" inkscape:connector-curvature="0" />
	<path style="fill:none;stroke:red;stroke-width:1px;stroke-linecap:butt;stroke-linejoin:miter;stroke-opacity:1" d="M 352.174,269.155 352.174,277.626 z" id="boundary" inkscape:connector-curvature="0" />
	<path style="fill:none;stroke:red;stroke-width:1px;stroke-linecap:butt;stroke-linejoin:miter;stroke-opacity:1" d="M 352.174,277.626 352.174,286.097 z" id="boundary" inkscape:connector-curvature="0" />
	<path style="fill:none;stroke:red;stroke-width:1px;stroke-linecap:butt;stroke-linejoin:miter;stroke-opacity:1" d="M 352.174,286.097 350.48,295.416 z" id="boundary" inkscape:connector-curvature="0" />
	<path style="fill:none;stroke:red;stroke-width:1px;stroke-linecap:butt;stroke-linejoin:miter;stroke-opacity:1" d="M 350.48,295.416 343.703,301.346 z" id="boundary" inkscape:connector-curvature="0" />
	<path style="fill:none;stroke:red;stroke-width:1px;stroke-linecap:butt;stroke-linejoin:miter;stroke-opacity:1" d="M 343.703,301.346 335.231,305.582 z" id="boundary" inkscape:connector-curvature="0" />
	<path style="fill:none;stroke:red;stroke-width:1px;stroke-linecap:butt;stroke-linejoin:miter;stroke-opacity:1" d="M 335.231,305.582 335.231,314.053 z" id="boundary" inkscape:connector-curvature="0" />
	<path style="fill:none;stroke:red;stroke-width:1px;stroke-linecap:butt;stroke-linejoin:miter;stroke-opacity:1" d="M 335.231,314.053 339.467,321.677 z" id="boundary" inkscape:connector-curvature="0" />
	<path style="fill:none;stroke:red;stroke-width:1px;stroke-linecap:butt;stroke-linejoin:miter;stroke-opacity:1" d="M 339.467,321.677 339.467,330.149 z" id="boundary" inkscape:connector-curvature="0" />
	<path style="fill:none;stroke:red;stroke-width:1px;stroke-linecap:butt;stroke-linejoin:miter;stroke-opacity:1" d="M 339.467,330.149 343.703,337.773 z" id="boundary" inkscape:connector-curvature="0" />
	<path style="fill:none;stroke:red;stroke-width:1px;stroke-linecap:butt;stroke-linejoin:miter;stroke-opacity:1" d="M 343.703,337.773 347.939,345.397 z" id="boundary" inkscape:connector-curvature="0" />
	<path style="fill:none;stroke:red;stroke-width:1px;stroke-linecap:butt;stroke-linejoin:miter;stroke-opacity:1" d="M 347.939,345.397 347.939,353.868 z" id="boundary" inkscape:connector-curvature="0" />
	<path style="fill:none;stroke:red;stroke-width:1px;stroke-linecap:butt;stroke-linejoin:miter;stroke-opacity:1" d="M 347.939,353.868 352.174,361.493 z" id="boundary" inkscape:connector-curvature="0" />
	<path style="fill:none;stroke:red;stroke-width:1px;stroke-linecap:butt;stroke-linejoin:miter;stroke-opacity:1" d="M 352.174,361.493 352.174,369.964 z" id="boundary" inkscape:connector-curvature="0" />
	<path style="fill:none;stroke:red;stroke-width:1px;stroke-linecap:butt;stroke-linejoin:miter;stroke-opacity:1" d="M 352.174,369.964 356.41,377.588 z" id="boundary" inkscape:connector-curvature="0" />
	<path style="fill:none;stroke:red;stroke-width:1px;stroke-linecap:butt;stroke-linejoin:miter;stroke-opacity:1" d="M 356.41,377.588 358.104,386.06 z" id="boundary" inkscape:connector-curvature="0" />
	<path style="fill:none;stroke:red;stroke-width:1px;stroke-linecap:butt;stroke-linejoin:miter;stroke-opacity:1" d="M 358.104,386.06 364.881,391.99 z" id="boundary" inkscape:connector-curvature="0" />
	<path style="fill:none;stroke:red;stroke-width:1px;stroke-linecap:butt;stroke-linejoin:miter;stroke-opacity:1" d="M 364.881,391.99 364.881,400.461 z" id="boundary" inkscape:connector-curvature="0" />
	<path style="fill:none;stroke:red;stroke-width:1px;stroke-linecap:butt;stroke-linejoin:miter;stroke-opacity:1" d="M 364.881,400.461 369.117,408.085 z" id="boundary" inkscape:connector-curvature="0" />
	<path style="fill:none;stroke:red;stroke-width:1px;stroke-linecap:butt;stroke-linejoin:miter;stroke-opacity:1" d="M 369.117,408.085 374.2,414.863 z" id="boundary" inkscape:connector-curvature="0" />
	<path style="fill:none;stroke:red;stroke-width:1px;stroke-linecap:butt;stroke-linejoin:miter;stroke-opacity:1" d="M 374.2,414.863 380.977,420.792 z" id="boundary" inkscape:connector-curvature="0" />
	<path style="fill:none;stroke:red;stroke-width:1px;stroke-linecap:butt;stroke-linejoin:miter;stroke-opacity:1" d="M 380.977,420.792 384.365,429.264 z" id="boundary" inkscape:connector-curvature="0" />
	<path style="fill:none;stroke:red;stroke-width:1px;stroke-linecap:butt;stroke-linejoin:miter;stroke-opacity:1" d="M 384.365,429.264 388.601,436.888 z" id="boundary" inkscape:connector-curvature="0" />
	<path style="fill:none;stroke:red;stroke-width:1px;stroke-linecap:butt;stroke-linejoin:miter;stroke-opacity:1" d="M 388.601,436.888 390.295,445.36 z" id="boundary" inkscape:connector-curvature="0" />
	<path style="fill:none;stroke:red;stroke-width:1px;stroke-linecap:butt;stroke-linejoin:miter;stroke-opacity:1" d="M 390.295,445.36 388.601,460.608 z" id="boundary" inkscape:connector-curvature="0" />
	<path style="fill:none;stroke:red;stroke-width:1px;stroke-linecap:butt;stroke-linejoin:miter;stroke-opacity:1" d="M 388.601,460.608 384.365,469.079 z" id="boundary" inkscape:connector-curvature="0" />
	<path style="fill:none;stroke:red;stroke-width:1px;stroke-linecap:butt;stroke-linejoin:miter;stroke-opacity:1" d="M 384.365,469.079 377.588,475.009 z" id="boundary" inkscape:connector-curvature="0" />
	<path style="fill:none;stroke:red;stroke-width:1px;stroke-linecap:butt;stroke-linejoin:miter;stroke-opacity:1" d="M 377.588,475.009 377.588,483.481 z" id="boundary" inkscape:connector-curvature="0" />
	<path style="fill:none;stroke:red;stroke-width:1px;stroke-linecap:butt;stroke-linejoin:miter;stroke-opacity:1" d="M 377.588,483.481 381.824,491.105 z" id="boundary" inkscape:connector-curvature="0" />
	<path style="fill:none;stroke:red;stroke-width:1px;stroke-linecap:butt;stroke-linejoin:miter;stroke-opacity:1" d="M 381.824,491.105 386.06,498.729 z" id="boundary" inkscape:connector-curvature="0" />
	<path style="fill:none;stroke:red;stroke-width:1px;stroke-linecap:butt;stroke-linejoin:miter;stroke-opacity:1" d="M 386.06,498.729 386.06,507.201 z" id="boundary" inkscape:connector-curvature="0" />
	<path style="fill:none;stroke:red;stroke-width:1px;stroke-linecap:butt;stroke-linejoin:miter;stroke-opacity:1" d="M 386.06,507.201 392.837,513.131 z" id="boundary" inkscape:connector-curvature="0" />
	<path style="fill:none;stroke:red;stroke-width:1px;stroke-linecap:butt;stroke-linejoin:miter;stroke-opacity:1" d="M 392.837,513.131 394.531,521.602 z" id="boundary" inkscape:connector-curvature="0" />
	<path style="fill:none;stroke:red;stroke-width:1px;stroke-linecap:butt;stroke-linejoin:miter;stroke-opacity:1" d="M 394.531,521.602 398.767,529.226 z" id="boundary" inkscape:connector-curvature="0" />
	<path style="fill:none;stroke:red;stroke-width:1px;stroke-linecap:butt;stroke-linejoin:miter;stroke-opacity:1" d="M 398.767,529.226 403.003,536.851 z" id="boundary" inkscape:connector-curvature="0" />
	<path style="fill:none;stroke:red;stroke-width:1px;stroke-linecap:butt;stroke-linejoin:miter;stroke-opacity:1" d="M 403.003,536.851 407.238,544.475 z" id="boundary" inkscape:connector-curvature="0" />
	<path style="fill:none;stroke:red;stroke-width:1px;stroke-linecap:butt;stroke-linejoin:miter;stroke-opacity:1" d="M 407.238,544.475 407.238,552.946 z" id="boundary" inkscape:connector-curvature="0" />
	<path style="fill:none;stroke:red;stroke-width:1px;stroke-linecap:butt;stroke-linejoin:miter;stroke-opacity:1" d="M 407.238,552.946 411.474,560.57 z" id="boundary" inkscape:connector-curvature="0" />
	<path style="fill:none;stroke:red;stroke-width:1px;stroke-linecap:butt;stroke-linejoin:miter;stroke-opacity:1" d="M 411.474,560.57 414.015,569.042 z" id="boundary" inkscape:connector-curvature="0" />
	<path style="fill:none;stroke:red;stroke-width:1px;stroke-linecap:butt;stroke-linejoin:miter;stroke-opacity:1" d="M 414.015,569.042 418.251,576.666 z" id="boundary" inkscape:connector-curvature="0" />
	<path style="fill:none;stroke:red;stroke-width:1px;stroke-linecap:butt;stroke-linejoin:miter;stroke-opacity:1" d="M 418.251,576.666 419.945,585.137 z" id="boundary" inkscape:connector-curvature="0" />
	<path style="fill:none;stroke:red;stroke-width:1px;stroke-linecap:butt;stroke-linejoin:miter;stroke-opacity:1" d="M 419.945,585.137 422.487,600.386 z" id="boundary" inkscape:connector-curvature="0" />
	<path style="fill:none;stroke:red;stroke-width:1px;stroke-linecap:butt;stroke-linejoin:miter;stroke-opacity:1" d="M 422.487,600.386 415.71,606.316 z" id="boundary" inkscape:connector-curvature="0" />
	<path style="fill:none;stroke:red;stroke-width:1px;stroke-linecap:butt;stroke-linejoin:miter;stroke-opacity:1" d="M 415.71,606.316 407.238,610.552 z" id="boundary" inkscape:connector-curvature="0" />
	<path style="fill:none;stroke:red;stroke-width:1px;stroke-linecap:butt;stroke-linejoin:miter;stroke-opacity:1" d="M 407.238,610.552 407.238,619.023 z" id="boundary" inkscape:connector-curvature="0" />
	<path style="fill:none;stroke:red;stroke-width:1px;stroke-linecap:butt;stroke-linejoin:miter;stroke-opacity:1" d="M 407.238,619.023 411.474,626.647 z" id="boundary" inkscape:connector-curvature="0" />
	<path style="fill:none;stroke:red;stroke-width:1px;stroke-linecap:butt;stroke-linejoin:miter;stroke-opacity:1" d="M 411.474,626.647 411.474,635.119 z" id="boundary" inkscape:connector-curvature="0" />
	<path style="fill:none;stroke:red;stroke-width:1px;stroke-linecap:butt;stroke-linejoin:miter;stroke-opacity:1" d="M 411.474,635.119 415.71,642.743 z" id="boundary" inkscape:connector-curvature="0" />
	<path style="fill:none;stroke:red;stroke-width:1px;stroke-linecap:butt;stroke-linejoin:miter;stroke-opacity:1" d="M 415.71,642.743 415.71,651.214 z" id="boundary" inkscape:connector-curvature="0" />
	<path style="fill:none;stroke:red;stroke-width:1px;stroke-linecap:butt;stroke-linejoin:miter;stroke-opacity:1" d="M 415.71,651.214 419.945,658.839 z" id="boundary" inkscape:connector-curvature="0" />
	<path style="fill:none;stroke:red;stroke-width:1px;stroke-linecap:butt;stroke-linejoin:miter;stroke-opacity:1" d="M 419.945,658.839 424.181,666.463 z" id="boundary" inkscape:connector-curvature="0" />
	<path style="fill:none;stroke:red;stroke-width:1px;stroke-linecap:butt;stroke-linejoin:miter;stroke-opacity:1" d="M 424.181,666.463 424.181,674.934 z" id="boundary" inkscape:connector-curvature="0" />
	<path style="fill:none;stroke:red;stroke-width:1px;stroke-linecap:butt;stroke-linejoin:miter;stroke-opacity:1" d="M 424.181,674.934 428.417,682.558 z" id="boundary" inkscape:connector-curvature="0" />
	<path style="fill:none;stroke:red;stroke-width:1px;stroke-linecap:butt;stroke-linejoin:miter;stroke-opacity:1" d="M 428.417,682.558 430.111,691.03 z" id="boundary" inkscape:connector-curvature="0" />
	<path style="fill:none;stroke:red;stroke-width:1px;stroke-linecap:butt;stroke-linejoin:miter;stroke-opacity:1" d="M 430.111,691.03 434.347,698.654 z" id="boundary" inkscape:connector-curvature="0" />
	<path style="fill:none;stroke:red;stroke-width:1px;stroke-linecap:butt;stroke-linejoin:miter;stroke-opacity:1" d="M 434.347,698.654 436.888,707.126 z" id="boundary" inkscape:connector-curvature="0" />
	<path style="fill:none;stroke:red;stroke-width:1px;stroke-linecap:butt;stroke-linejoin:miter;stroke-opacity:1" d="M 436.888,707.126 436.888,715.597 z" id="boundary" inkscape:connector-curvature="0" />
	<path style="fill:none;stroke:red;stroke-width:1px;stroke-linecap:butt;stroke-linejoin:miter;stroke-opacity:1" d="M 436.888,715.597 441.124,723.221 z" id="boundary" inkscape:connector-curvature="0" />
	<path style="fill:none;stroke:red;stroke-width:1px;stroke-linecap:butt;stroke-linejoin:miter;stroke-opacity:1" d="M 441.124,723.221 441.124,731.693 z" id="boundary" inkscape:connector-curvature="0" />
	<path style="fill:none;stroke:red;stroke-width:1px;stroke-linecap:butt;stroke-linejoin:miter;stroke-opacity:1" d="M 441.124,731.693 445.36,739.317 z" id="boundary" inkscape:connector-curvature="0" />
	<path style="fill:none;stroke:red;stroke-width:1px;stroke-linecap:butt;stroke-linejoin:miter;stroke-opacity:1" d="M 445.36,739.317 445.36,747.788 z" id="boundary" inkscape:connector-curvature="0" />
	<path style="fill:none;stroke:red;stroke-width:1px;stroke-linecap:butt;stroke-linejoin:miter;stroke-opacity:1" d="M 445.36,747.788 439.43,757.107 z" id="boundary" inkscape:connector-curvature="0" />
	<path style="fill:none;stroke:red;stroke-width:1px;stroke-linecap:butt;stroke-linejoin:miter;stroke-opacity:1" d="M 439.43,757.107 432.652,763.037 z" id="boundary" inkscape:connector-curvature="0" />
	<path style="fill:none;stroke:red;stroke-width:1px;stroke-linecap:butt;stroke-linejoin:miter;stroke-opacity:1" d="M 432.652,763.037 432.652,771.508 z" id="boundary" inkscape:connector-curvature="0" />
	<path style="fill:none;stroke:red;stroke-width:1px;stroke-linecap:butt;stroke-linejoin:miter;stroke-opacity:1" d="M 432.652,771.508 436.888,779.132 z" id="boundary" inkscape:connector-curvature="0" />
	<path style="fill:none;stroke:red;stroke-width:1px;stroke-linecap:butt;stroke-linejoin:miter;stroke-opacity:1" d="M 436.888,779.132 436.888,787.604 z" id="boundary" inkscape:connector-curvature="0" />
	<path style="fill:none;stroke:red;stroke-width:1px;stroke-linecap:butt;stroke-linejoin:miter;stroke-opacity:1" d="M 436.888,787.604 441.124,795.228 z" id="boundary" inkscape:connector-curvature="0" />
	<path style="fill:none;stroke:red;stroke-width:1px;stroke-linecap:butt;stroke-linejoin:miter;stroke-opacity:1" d="M 441.124,795.228 441.124,803.699 z" id="boundary" inkscape:connector-curvature="0" />
	<path style="fill:none;stroke:red;stroke-width:1px;stroke-linecap:butt;stroke-linejoin:miter;stroke-opacity:1" d="M 441.124,803.699 441.124,812.171 z" id="boundary" inkscape:connector-curvature="0" />
	<path style="fill:none;stroke:red;stroke-width:1px;stroke-linecap:butt;stroke-linejoin:miter;stroke-opacity:1" d="M 441.124,812.171 447.901,818.101 z" id="boundary" inkscape:connector-curvature="0" />
	<path style="fill:none;stroke:red;stroke-width:1px;stroke-linecap:butt;stroke-linejoin:miter;stroke-opacity:1" d="M 447.901,818.101 449.595,826.572 z" id="boundary" inkscape:connector-curvature="0" />
	<path style="fill:none;stroke:red;stroke-width:1px;stroke-linecap:butt;stroke-linejoin:miter;stroke-opacity:1" d="M 449.595,826.572 453.831,834.196 z" id="boundary" inkscape:connector-curvature="0" />
	<path style="fill:none;stroke:red;stroke-width:1px;stroke-linecap:butt;stroke-linejoin:miter;stroke-opacity:1" d="M 453.831,834.196 460.608,839.279 z" id="boundary" inkscape:connector-curvature="0" />
	<path style="fill:none;stroke:red;stroke-width:1px;stroke-linecap:butt;stroke-linejoin:miter;stroke-opacity:1" d="M 460.608,839.279 466.538,846.056 z" id="boundary" inkscape:connector-curvature="0" />
	<path style="fill:none;stroke:red;stroke-width:1px;stroke-linecap:butt;stroke-linejoin:miter;stroke-opacity:1" d="M 466.538,846.056 466.538,854.528 z" id="boundary" inkscape:connector-curvature="0" />
	<path style="fill:none;stroke:red;stroke-width:1px;stroke-linecap:butt;stroke-linejoin:miter;stroke-opacity:1" d="M 466.538,854.528 461.455,862.152 z" id="boundary" inkscape:connector-curvature="0" />
	<path style="fill:none;stroke:red;stroke-width:1px;stroke-linecap:butt;stroke-linejoin:miter;stroke-opacity:1" d="M 461.455,862.152 454.678,868.929 z" id="boundary" inkscape:connector-curvature="0" />
	<path style="fill:none;stroke:red;stroke-width:1px;stroke-linecap:butt;stroke-linejoin:miter;stroke-opacity:1" d="M 454.678,868.929 447.054,873.165 z" id="boundary" inkscape:connector-curvature="0" />
	<path style="fill:none;stroke:red;stroke-width:1px;stroke-linecap:butt;stroke-linejoin:miter;stroke-opacity:1" d="M 447.054,873.165 438.582,873.165 z" id="boundary" inkscape:connector-curvature="0" />
	<path style="fill:none;stroke:red;stroke-width:1px;stroke-linecap:butt;stroke-linejoin:miter;stroke-opacity:1" d="M 438.582,873.165 430.111,873.165 z" id="boundary" inkscape:connector-curvature="0" />
	<path style="fill:none;stroke:red;stroke-width:1px;stroke-linecap:butt;stroke-linejoin:miter;stroke-opacity:1" d="M 430.111,873.165 421.64,873.165 z" id="boundary" inkscape:connector-curvature="0" />
	<path style="fill:none;stroke:red;stroke-width:1px;stroke-linecap:butt;stroke-linejoin:miter;stroke-opacity:1" d="M 421.64,873.165 413.168,873.165 z" id="boundary" inkscape:connector-curvature="0" />
	<path style="fill:none;stroke:red;stroke-width:1px;stroke-linecap:butt;stroke-linejoin:miter;stroke-opacity:1" d="M 413.168,873.165 404.697,873.165 z" id="boundary" inkscape:connector-curvature="0" />
	<path style="fill:none;stroke:red;stroke-width:1px;stroke-linecap:butt;stroke-linejoin:miter;stroke-opacity:1" d="M 404.697,873.165 397.073,868.929 z" id="boundary" inkscape:connector-curvature="0" />
	<path style="fill:none;stroke:red;stroke-width:1px;stroke-linecap:butt;stroke-linejoin:miter;stroke-opacity:1" d="M 397.073,868.929 388.601,868.929 z" id="boundary" inkscape:connector-curvature="0" />
	<path style="fill:none;stroke:red;stroke-width:1px;stroke-linecap:butt;stroke-linejoin:miter;stroke-opacity:1" d="M 388.601,868.929 380.13,868.929 z" id="boundary" inkscape:connector-curvature="0" />
	<path style="fill:none;stroke:red;stroke-width:1px;stroke-linecap:butt;stroke-linejoin:miter;stroke-opacity:1" d="M 380.13,868.929 371.658,871.471 z" id="boundary" inkscape:connector-curvature="0" />
	<path style="fill:none;stroke:red;stroke-width:1px;stroke-linecap:butt;stroke-linejoin:miter;stroke-opacity:1" d="M 371.658,871.471 364.881,877.401 z" id="boundary" inkscape:connector-curvature="0" />
	<path style="fill:none;stroke:red;stroke-width:1px;stroke-linecap:butt;stroke-linejoin:miter;stroke-opacity:1" d="M 364.881,877.401 356.41,877.401 z" id="boundary" inkscape:connector-curvature="0" />
	<path style="fill:none;stroke:red;stroke-width:1px;stroke-linecap:butt;stroke-linejoin:miter;stroke-opacity:1" d="M 356.41,877.401 347.939,877.401 z" id="boundary" inkscape:connector-curvature="0" />
	<path style="fill:none;stroke:red;stroke-width:1px;stroke-linecap:butt;stroke-linejoin:miter;stroke-opacity:1" d="M 347.939,877.401 339.467,877.401 z" id="boundary" inkscape:connector-curvature="0" />
	<path style="fill:none;stroke:red;stroke-width:1px;stroke-linecap:butt;stroke-linejoin:miter;stroke-opacity:1" d="M 339.467,877.401 331.843,873.165 z" id="boundary" inkscape:connector-curvature="0" />
	<path style="fill:none;stroke:red;stroke-width:1px;stroke-linecap:butt;stroke-linejoin:miter;stroke-opacity:1" d="M 331.843,873.165 323.371,873.165 z" id="boundary" inkscape:connector-curvature="0" />
	<path style="fill:none;stroke:red;stroke-width:1px;stroke-linecap:butt;stroke-linejoin:miter;stroke-opacity:1" d="M 323.371,873.165 315.747,868.929 z" id="boundary" inkscape:connector-curvature="0" />
	<path style="fill:none;stroke:red;stroke-width:1px;stroke-linecap:butt;stroke-linejoin:miter;stroke-opacity:1" d="M 315.747,868.929 307.276,868.929 z" id="boundary" inkscape:connector-curvature="0" />
	<path style="fill:none;stroke:red;stroke-width:1px;stroke-linecap:butt;stroke-linejoin:miter;stroke-opacity:1" d="M 307.276,868.929 299.652,864.693 z" id="boundary" inkscape:connector-curvature="0" />
	<path style="fill:none;stroke:red;stroke-width:1px;stroke-linecap:butt;stroke-linejoin:miter;stroke-opacity:1" d="M 299.652,864.693 292.027,860.458 z" id="boundary" inkscape:connector-curvature="0" />
	<path style="fill:none;stroke:red;stroke-width:1px;stroke-linecap:butt;stroke-linejoin:miter;stroke-opacity:1" d="M 292.027,860.458 283.556,860.458 z" id="boundary" inkscape:connector-curvature="0" />
	<path style="fill:none;stroke:red;stroke-width:1px;stroke-linecap:butt;stroke-linejoin:miter;stroke-opacity:1" d="M 283.556,860.458 275.932,864.693 z" id="boundary" inkscape:connector-curvature="0" />
	<path style="fill:none;stroke:red;stroke-width:1px;stroke-linecap:butt;stroke-linejoin:miter;stroke-opacity:1" d="M 275.932,864.693 267.46,864.693 z" id="boundary" inkscape:connector-curvature="0" />
	<path style="fill:none;stroke:red;stroke-width:1px;stroke-linecap:butt;stroke-linejoin:miter;stroke-opacity:1" d="M 267.46,864.693 258.989,868.929 z" id="boundary" inkscape:connector-curvature="0" />
	<path style="fill:none;stroke:red;stroke-width:1px;stroke-linecap:butt;stroke-linejoin:miter;stroke-opacity:1" d="M 258.989,868.929 250.518,873.165 z" id="boundary" inkscape:connector-curvature="0" />
	<path style="fill:none;stroke:red;stroke-width:1px;stroke-linecap:butt;stroke-linejoin:miter;stroke-opacity:1" d="M 250.518,873.165 252.212,881.636 z" id="boundary" inkscape:connector-curvature="0" />
	<path style="fill:none;stroke:red;stroke-width:1px;stroke-linecap:butt;stroke-linejoin:miter;stroke-opacity:1" d="M 252.212,881.636 254.753,890.108 z" id="boundary" inkscape:connector-curvature="0" />
	<path style="fill:none;stroke:red;stroke-width:1px;stroke-linecap:butt;stroke-linejoin:miter;stroke-opacity:1" d="M 254.753,890.108 254.753,898.579 z" id="boundary" inkscape:connector-curvature="0" />
	<path style="fill:none;stroke:red;stroke-width:1px;stroke-linecap:butt;stroke-linejoin:miter;stroke-opacity:1" d="M 254.753,898.579 254.753,907.05 z" id="boundary" inkscape:connector-curvature="0" />
	<path style="fill:none;stroke:red;stroke-width:1px;stroke-linecap:butt;stroke-linejoin:miter;stroke-opacity:1" d="M 254.753,907.05 254.753,915.522 z" id="boundary" inkscape:connector-curvature="0" />
	<path style="fill:none;stroke:red;stroke-width:1px;stroke-linecap:butt;stroke-linejoin:miter;stroke-opacity:1" d="M 254.753,915.522 254.753,923.993 z" id="boundary" inkscape:connector-curvature="0" />
	<path style="fill:none;stroke:red;stroke-width:1px;stroke-linecap:butt;stroke-linejoin:miter;stroke-opacity:1" d="M 254.753,923.993 254.753,932.465 z" id="boundary" inkscape:connector-curvature="0" />
	<path style="fill:none;stroke:red;stroke-width:1px;stroke-linecap:butt;stroke-linejoin:miter;stroke-opacity:1" d="M 254.753,932.465 254.753,940.936 z" id="boundary" inkscape:connector-curvature="0" />
	<path style="fill:none;stroke:red;stroke-width:1px;stroke-linecap:butt;stroke-linejoin:miter;stroke-opacity:1" d="M 254.753,940.936 254.753,949.407 z" id="boundary" inkscape:connector-curvature="0" />
	<path style="fill:none;stroke:red;stroke-width:1px;stroke-linecap:butt;stroke-linejoin:miter;stroke-opacity:1" d="M 254.753,949.407 254.753,957.879 z" id="boundary" inkscape:connector-curvature="0" />
	<path style="fill:none;stroke:red;stroke-width:1px;stroke-linecap:butt;stroke-linejoin:miter;stroke-opacity:1" d="M 254.753,957.879 254.753,966.35 z" id="boundary" inkscape:connector-curvature="0" />
	<path style="fill:none;stroke:red;stroke-width:1px;stroke-linecap:butt;stroke-linejoin:miter;stroke-opacity:1" d="M 254.753,966.35 252.212,982.446 z" id="boundary" inkscape:connector-curvature="0" />
	<circle cx="4" cy="824.031" r="4" fill="#0" id="circle0"/>
	<circle cx="4" cy="832.502" r="4" fill="#0" id="circle1"/>
	<circle cx="10.7771" cy="817.254" r="4" fill="#0" id="circle2"/>
	<circle cx="10.7771" cy="838.432" r="4" fill="#0" id="circle3"/>
	<circle cx="15.0128" cy="808.782" r="4" fill="#0" id="circle4"/>
	<circle cx="16.7071" cy="798.617" r="4" fill="#0" id="circle5"/>
	<circle cx="17.5542" cy="843.515" r="4" fill="#0" id="circle6"/>
	<circle cx="23.4842" cy="791.839" r="4" fill="#0" id="circle7"/>
	<circle cx="26.0256" cy="843.515" r="4" fill="#0" id="circle8"/>
	<circle cx="30.2613" cy="785.062" r="4" fill="#0" id="circle9"/>
	<circle cx="34.497" cy="776.591" r="4" fill="#0" id="circle10"/>
	<circle cx="34.497" cy="843.515" r="4" fill="#0" id="circle11"/>
	<circle cx="37.8856" cy="709.667" r="4" fill="#0" id="circle12"/>
	<circle cx="37.8856" cy="718.138" r="4" fill="#0" id="circle13"/>
	<circle cx="38.7327" cy="768.12" r="4" fill="#0" id="circle14"/>
	<circle cx="42.1213" cy="696.96" r="4" fill="#0" id="circle15"/>
	<circle cx="42.1213" cy="847.751" r="4" fill="#0" id="circle16"/>
	<circle cx="44.6627" cy="724.068" r="4" fill="#0" id="circle17"/>
	<circle cx="45.5098" cy="762.19" r="4" fill="#0" id="circle18"/>
	<circle cx="46.357" cy="688.488" r="4" fill="#0" id="circle19"/>
	<circle cx="49.7455" cy="851.986" r="4" fill="#0" id="circle20"/>
	<circle cx="51.4398" cy="729.151" r="4" fill="#0" id="circle21"/>
	<circle cx="51.4398" cy="755.412" r="4" fill="#0" id="circle22"/>
	<circle cx="53.1341" cy="681.711" r="4" fill="#0" id="circle23"/>
	<circle cx="54.8284" cy="671.546" r="4" fill="#0" id="circle24"/>
	<circle cx="54.8284" cy="743.553" r="4" fill="#0" id="circle25"/>
	<circle cx="58.2169" cy="851.986" r="4" fill="#0" id="circle26"/>
	<circle cx="59.064" cy="565.653" r="4" fill="#0" id="circle27"/>
	<circle cx="59.064" cy="574.125" r="4" fill="#0" id="circle28"/>
	<circle cx="59.064" cy="658.839" r="4" fill="#0" id="circle29"/>
	<circle cx="59.9112" cy="729.151" r="4" fill="#0" id="circle30"/>
	<circle cx="61.6055" cy="737.623" r="4" fill="#0" id="circle31"/>
	<circle cx="63.2997" cy="557.182" r="4" fill="#0" id="circle32"/>
	<circle cx="63.2997" cy="581.749" r="4" fill="#0" id="circle33"/>
	<circle cx="63.2997" cy="650.367" r="4" fill="#0" id="circle34"/>
	<circle cx="66.6883" cy="851.986" r="4" fill="#0" id="circle35"/>
	<circle cx="67.5354" cy="544.475" r="4" fill="#0" id="circle36"/>
	<circle cx="67.5354" cy="637.66" r="4" fill="#0" id="circle37"/>
	<circle cx="69.2297" cy="588.526" r="4" fill="#0" id="circle38"/>
	<circle cx="71.7711" cy="616.482" r="4" fill="#0" id="circle39"/>
	<circle cx="71.7711" cy="624.953" r="4" fill="#0" id="circle40"/>
	<circle cx="74.3126" cy="537.698" r="4" fill="#0" id="circle41"/>
	<circle cx="75.1597" cy="851.986" r="4" fill="#0" id="circle42"/>
	<circle cx="76.0068" cy="599.539" r="4" fill="#0" id="circle43"/>
	<circle cx="76.0068" cy="608.01" r="4" fill="#0" id="circle44"/>
	<circle cx="77.7011" cy="589.373" r="4" fill="#0" id="circle45"/>
	<circle cx="78.5482" cy="529.226" r="4" fill="#0" id="circle46"/>
	<circle cx="82.7839" cy="520.755" r="4" fill="#0" id="circle47"/>
	<circle cx="82.7839" cy="847.751" r="4" fill="#0" id="circle48"/>
	<circle cx="87.0196" cy="512.284" r="4" fill="#0" id="circle49"/>
	<circle cx="88.7139" cy="430.111" r="4" fill="#0" id="circle50"/>
	<circle cx="88.7139" cy="438.582" r="4" fill="#0" id="circle51"/>
	<circle cx="89.5611" cy="853.681" r="4" fill="#0" id="circle52"/>
	<circle cx="91.2553" cy="503.812" r="4" fill="#0" id="circle53"/>
	<circle cx="92.9496" cy="413.168" r="4" fill="#0" id="circle54"/>
	<circle cx="92.9496" cy="421.64" r="4" fill="#0" id="circle55"/>
	<circle cx="92.9496" cy="493.646" r="4" fill="#0" id="circle56"/>
	<circle cx="95.491" cy="444.512" r="4" fill="#0" id="circle57"/>
	<circle cx="97.1853" cy="400.461" r="4" fill="#0" id="circle58"/>
	<circle cx="97.1853" cy="480.939" r="4" fill="#0" id="circle59"/>
	<circle cx="98.0325" cy="856.222" r="4" fill="#0" id="circle60"/>
	<circle cx="101.421" cy="387.754" r="4" fill="#0" id="circle61"/>
	<circle cx="101.421" cy="472.468" r="4" fill="#0" id="circle62"/>
	<circle cx="102.268" cy="449.595" r="4" fill="#0" id="circle63"/>
	<circle cx="105.657" cy="370.811" r="4" fill="#0" id="circle64"/>
	<circle cx="105.657" cy="379.283" r="4" fill="#0" id="circle65"/>
	<circle cx="105.657" cy="458.067" r="4" fill="#0" id="circle66"/>
	<circle cx="106.504" cy="856.222" r="4" fill="#0" id="circle67"/>
	<circle cx="109.892" cy="358.104" r="4" fill="#0" id="circle68"/>
	<circle cx="114.128" cy="286.097" r="4" fill="#0" id="circle69"/>
	<circle cx="114.128" cy="294.569" r="4" fill="#0" id="circle70"/>
	<circle cx="114.128" cy="349.633" r="4" fill="#0" id="circle71"/>
	<circle cx="114.128" cy="851.986" r="4" fill="#0" id="circle72"/>
	<circle cx="118.364" cy="273.39" r="4" fill="#0" id="circle73"/>
	<circle cx="118.364" cy="336.926" r="4" fill="#0" id="circle74"/>
	<circle cx="120.905" cy="300.499" r="4" fill="#0" id="circle75"/>
	<circle cx="122.599" cy="264.919" r="4" fill="#0" id="circle76"/>
	<circle cx="122.599" cy="324.219" r="4" fill="#0" id="circle77"/>
	<circle cx="122.599" cy="851.986" r="4" fill="#0" id="circle78"/>
	<circle cx="126.835" cy="252.212" r="4" fill="#0" id="circle79"/>
	<circle cx="126.835" cy="307.276" r="4" fill="#0" id="circle80"/>
	<circle cx="126.835" cy="315.747" r="4" fill="#0" id="circle81"/>
	<circle cx="131.071" cy="851.986" r="4" fill="#0" id="circle82"/>
	<circle cx="133.612" cy="245.435" r="4" fill="#0" id="circle83"/>
	<circle cx="137.848" cy="236.963" r="4" fill="#0" id="circle84"/>
	<circle cx="138.695" cy="847.751" r="4" fill="#0" id="circle85"/>
	<circle cx="143.778" cy="226.798" r="4" fill="#0" id="circle86"/>
	<circle cx="144.625" cy="854.528" r="4" fill="#0" id="circle87"/>
	<circle cx="148.014" cy="214.091" r="4" fill="#0" id="circle88"/>
	<circle cx="151.402" cy="860.458" r="4" fill="#0" id="circle89"/>
	<circle cx="152.249" cy="159.026" r="4" fill="#0" id="circle90"/>
	<circle cx="152.249" cy="167.498" r="4" fill="#0" id="circle91"/>
	<circle cx="152.249" cy="201.383" r="4" fill="#0" id="circle92"/>
	<circle cx="156.485" cy="150.555" r="4" fill="#0" id="circle93"/>
	<circle cx="156.485" cy="192.912" r="4" fill="#0" id="circle94"/>
	<circle cx="159.026" cy="173.428" r="4" fill="#0" id="circle95"/>
	<circle cx="159.026" cy="864.693" r="4" fill="#0" id="circle96"/>
	<circle cx="160.721" cy="137.848" r="4" fill="#0" id="circle97"/>
	<circle cx="160.721" cy="181.899" r="4" fill="#0" id="circle98"/>
	<circle cx="167.498" cy="131.071" r="4" fill="#0" id="circle99"/>
	<circle cx="167.498" cy="864.693" r="4" fill="#0" id="circle100"/>
	<circle cx="173.428" cy="120.905" r="4" fill="#0" id="circle101"/>
	<circle cx="175.969" cy="864.693" r="4" fill="#0" id="circle102"/>
	<circle cx="177.664" cy="108.198" r="4" fill="#0" id="circle103"/>
	<circle cx="181.899" cy="99.7267" r="4" fill="#0" id="circle104"/>
	<circle cx="184.441" cy="863.846" r="4" fill="#0" id="circle105"/>
	<circle cx="188.676" cy="92.9496" r="4" fill="#0" id="circle106"/>
	<circle cx="192.912" cy="84.4782" r="4" fill="#0" id="circle107"/>
	<circle cx="192.912" cy="860.458" r="4" fill="#0" id="circle108"/>
	<circle cx="194.606" cy="74.3126" r="4" fill="#0" id="circle109"/>
	<circle cx="198.842" cy="65.8412" r="4" fill="#0" id="circle110"/>
	<circle cx="201.383" cy="860.458" r="4" fill="#0" id="circle111"/>
	<circle cx="203.078" cy="53.1341" r="4" fill="#0" id="circle112"/>
	<circle cx="207.313" cy="867.235" r="4" fill="#0" id="circle113"/>
	<circle cx="207.313" cy="875.706" r="4" fill="#0" id="circle114"/>
	<circle cx="207.313" cy="884.178" r="4" fill="#0" id="circle115"/>
	<circle cx="207.313" cy="892.649" r="4" fill="#0" id="circle116"/>
	<circle cx="207.313" cy="976.516" r="4" fill="#0" id="circle117"/>
	<circle cx="207.313" cy="984.987" r="4" fill="#0" id="circle118"/>
	<circle cx="209.855" cy="46.357" r="4" fill="#0" id="circle119"/>
	<circle cx="211.549" cy="36.1913" r="4" fill="#0" id="circle120"/>
	<circle cx="211.549" cy="900.273" r="4" fill="#0" id="circle121"/>
	<circle cx="211.549" cy="908.745" r="4" fill="#0" id="circle122"/>
	<circle cx="211.549" cy="917.216" r="4" fill="#0" id="circle123"/>
	<circle cx="211.549" cy="925.687" r="4" fill="#0" id="circle124"/>
	<circle cx="211.549" cy="934.159" r="4" fill="#0" id="circle125"/>
	<circle cx="211.549" cy="942.63" r="4" fill="#0" id="circle126"/>
	<circle cx="211.549" cy="951.102" r="4" fill="#0" id="circle127"/>
	<circle cx="211.549" cy="959.573" r="4" fill="#0" id="circle128"/>
	<circle cx="211.549" cy="968.044" r="4" fill="#0" id="circle129"/>
	<circle cx="214.091" cy="990.917" r="4" fill="#0" id="circle130"/>
	<circle cx="215.785" cy="27.7199" r="4" fill="#0" id="circle131"/>
	<circle cx="220.02" cy="15.0128" r="4" fill="#0" id="circle132"/>
	<circle cx="220.868" cy="996" r="4" fill="#0" id="circle133"/>
	<circle cx="226.798" cy="8.2357" r="4" fill="#0" id="circle134"/>
	<circle cx="229.339" cy="996" r="4" fill="#0" id="circle135"/>
	<circle cx="234.422" cy="4" r="4" fill="#0" id="circle136"/>
	<circle cx="236.963" cy="991.764" r="4" fill="#0" id="circle137"/>
	<circle cx="242.046" cy="8.2357" r="4" fill="#0" id="circle138"/>
	<circle cx="245.435" cy="989.223" r="4" fill="#0" id="circle139"/>
	<circle cx="250.518" cy="10.7771" r="4" fill="#0" id="circle140"/>
	<circle cx="250.518" cy="873.165" r="4" fill="#0" id="circle141"/>
	<circle cx="252.212" cy="881.636" r="4" fill="#0" id="circle142"/>
	<circle cx="252.212" cy="982.446" r="4" fill="#0" id="circle143"/>
	<circle cx="254.753" cy="890.108" r="4" fill="#0" id="circle144"/>
	<circle cx="254.753" cy="898.579" r="4" fill="#0" id="circle145"/>
	<circle cx="254.753" cy="907.05" r="4" fill="#0" id="circle146"/>
	<circle cx="254.753" cy="915.522" r="4" fill="#0" id="circle147"/>
	<circle cx="254.753" cy="923.993" r="4" fill="#0" id="circle148"/>
	<circle cx="254.753" cy="932.465" r="4" fill="#0" id="circle149"/>
	<circle cx="254.753" cy="940.936" r="4" fill="#0" id="circle150"/>
	<circle cx="254.753" cy="949.407" r="4" fill="#0" id="circle151"/>
	<circle cx="254.753" cy="957.879" r="4" fill="#0" id="circle152"/>
	<circle cx="254.753" cy="966.35" r="4" fill="#0" id="circle153"/>
	<circle cx="256.447" cy="17.5542" r="4" fill="#0" id="circle154"/>
	<circle cx="258.989" cy="868.929" r="4" fill="#0" id="circle155"/>
	<circle cx="260.683" cy="25.1785" r="4" fill="#0" id="circle156"/>
	<circle cx="263.225" cy="33.6499" r="4" fill="#0" id="circle157"/>
	<circle cx="267.46" cy="41.2741" r="4" fill="#0" id="circle158"/>
	<circle cx="267.46" cy="864.693" r="4" fill="#0" id="circle159"/>
	<circle cx="274.237" cy="47.2041" r="4" fill="#0" id="circle160"/>
	<circle cx="275.932" cy="864.693" r="4" fill="#0" id="circle161"/>
	<circle cx="277.626" cy="55.6755" r="4" fill="#0" id="circle162"/>
	<circle cx="283.556" cy="860.458" r="4" fill="#0" id="circle163"/>
	<circle cx="284.403" cy="61.6055" r="4" fill="#0" id="circle164"/>
	<circle cx="284.403" cy="70.0769" r="4" fill="#0" id="circle165"/>
	<circle cx="287.792" cy="78.5482" r="4" fill="#0" id="circle166"/>
	<circle cx="292.027" cy="860.458" r="4" fill="#0" id="circle167"/>
	<circle cx="292.874" cy="85.3254" r="4" fill="#0" id="circle168"/>
	<circle cx="294.569" cy="93.7968" r="4" fill="#0" id="circle169"/>
	<circle cx="297.11" cy="102.268" r="4" fill="#0" id="circle170"/>
	<circle cx="298.804" cy="110.74" r="4" fill="#0" id="circle171"/>
	<circle cx="299.652" cy="864.693" r="4" fill="#0" id="circle172"/>
	<circle cx="305.582" cy="116.67" r="4" fill="#0" id="circle173"/>
	<circle cx="307.276" cy="868.929" r="4" fill="#0" id="circle174"/>
	<circle cx="308.97" cy="125.141" r="4" fill="#0" id="circle175"/>
	<circle cx="314.053" cy="131.918" r="4" fill="#0" id="circle176"/>
	<circle cx="315.747" cy="868.929" r="4" fill="#0" id="circle177"/>
	<circle cx="318.289" cy="139.542" r="4" fill="#0" id="circle178"/>
	<circle cx="318.289" cy="199.689" r="4" fill="#0" id="circle179"/>
	<circle cx="319.983" cy="208.161" r="4" fill="#0" id="circle180"/>
	<circle cx="322.524" cy="147.167" r="4" fill="#0" id="circle181"/>
	<circle cx="323.371" cy="873.165" r="4" fill="#0" id="circle182"/>
	<circle cx="324.219" cy="215.785" r="4" fill="#0" id="circle183"/>
	<circle cx="326.76" cy="154.791" r="4" fill="#0" id="circle184"/>
	<circle cx="326.76" cy="195.453" r="4" fill="#0" id="circle185"/>
	<circle cx="330.149" cy="163.262" r="4" fill="#0" id="circle186"/>
	<circle cx="330.149" cy="222.562" r="4" fill="#0" id="circle187"/>
	<circle cx="331.843" cy="873.165" r="4" fill="#0" id="circle188"/>
	<circle cx="333.537" cy="189.523" r="4" fill="#0" id="circle189"/>
	<circle cx="334.384" cy="230.186" r="4" fill="#0" id="circle190"/>
	<circle cx="335.231" cy="170.039" r="4" fill="#0" id="circle191"/>
	<circle cx="335.231" cy="238.658" r="4" fill="#0" id="circle192"/>
	<circle cx="335.231" cy="305.582" r="4" fill="#0" id="circle193"/>
	<circle cx="335.231" cy="314.053" r="4" fill="#0" id="circle194"/>
	<circle cx="339.467" cy="177.664" r="4" fill="#0" id="circle195"/>
	<circle cx="339.467" cy="321.677" r="4" fill="#0" id="circle196"/>
	<circle cx="339.467" cy="330.149" r="4" fill="#0" id="circle197"/>
	<circle cx="339.467" cy="877.401" r="4" fill="#0" id="circle198"/>
	<circle cx="340.314" cy="245.435" r="4" fill="#0" id="circle199"/>
	<circle cx="343.703" cy="253.906" r="4" fill="#0" id="circle200"/>
	<circle cx="343.703" cy="301.346" r="4" fill="#0" id="circle201"/>
	<circle cx="343.703" cy="337.773" r="4" fill="#0" id="circle202"/>
	<circle cx="347.939" cy="261.53" r="4" fill="#0" id="circle203"/>
	<circle cx="347.939" cy="345.397" r="4" fill="#0" id="circle204"/>
	<circle cx="347.939" cy="353.868" r="4" fill="#0" id="circle205"/>
	<circle cx="347.939" cy="877.401" r="4" fill="#0" id="circle206"/>
	<circle cx="350.48" cy="295.416" r="4" fill="#0" id="circle207"/>
	<circle cx="352.174" cy="269.155" r="4" fill="#0" id="circle208"/>
	<circle cx="352.174" cy="277.626" r="4" fill="#0" id="circle209"/>
	<circle cx="352.174" cy="286.097" r="4" fill="#0" id="circle210"/>
	<circle cx="352.174" cy="361.493" r="4" fill="#0" id="circle211"/>
	<circle cx="352.174" cy="369.964" r="4" fill="#0" id="circle212"/>
	<circle cx="356.41" cy="377.588" r="4" fill="#0" id="circle213"/>
	<circle cx="356.41" cy="877.401" r="4" fill="#0" id="circle214"/>
	<circle cx="358.104" cy="386.06" r="4" fill="#0" id="circle215"/>
	<circle cx="364.881" cy="391.99" r="4" fill="#0" id="circle216"/>
	<circle cx="364.881" cy="400.461" r="4" fill="#0" id="circle217"/>
	<circle cx="364.881" cy="877.401" r="4" fill="#0" id="circle218"/>
	<circle cx="369.117" cy="408.085" r="4" fill="#0" id="circle219"/>
	<circle cx="371.658" cy="871.471" r="4" fill="#0" id="circle220"/>
	<circle cx="374.2" cy="414.863" r="4" fill="#0" id="circle221"/>
	<circle cx="377.588" cy="475.009" r="4" fill="#0" id="circle222"/>
	<circle cx="377.588" cy="483.481" r="4" fill="#0" id="circle223"/>
	<circle cx="380.13" cy="868.929" r="4" fill="#0" id="circle224"/>
	<circle cx="380.977" cy="420.792" r="4" fill="#0" id="circle225"/>
	<circle cx="381.824" cy="491.105" r="4" fill="#0" id="circle226"/>
	<circle cx="384.365" cy="429.264" r="4" fill="#0" id="circle227"/>
	<circle cx="384.365" cy="469.079" r="4" fill="#0" id="circle228"/>
	<circle cx="386.06" cy="498.729" r="4" fill="#0" id="circle229"/>
	<circle cx="386.06" cy="507.201" r="4" fill="#0" id="circle230"/>
	<circle cx="388.601" cy="436.888" r="4" fill="#0" id="circle231"/>
	<circle cx="388.601" cy="460.608" r="4" fill="#0" id="circle232"/>
	<circle cx="388.601" cy="868.929" r="4" fill="#0" id="circle233"/>
	<circle cx="390.295" cy="445.36" r="4" fill="#0" id="circle234"/>
	<circle cx="392.837" cy="513.131" r="4" fill="#0" id="circle235"/>
	<circle cx="394.531" cy="521.602" r="4" fill="#0" id="circle236"/>
	<circle cx="397.073" cy="868.929" r="4" fill="#0" id="circle237"/>
	<circle cx="398.767" cy="529.226" r="4" fill="#0" id="circle238"/>
	<circle cx="403.003" cy="536.851" r="4" fill="#0" id="circle239"/>
	<circle cx="404.697" cy="873.165" r="4" fill="#0" id="circle240"/>
	<circle cx="407.238" cy="544.475" r="4" fill="#0" id="circle241"/>
	<circle cx="407.238" cy="552.946" r="4" fill="#0" id="circle242"/>
	<circle cx="407.238" cy="610.552" r="4" fill="#0" id="circle243"/>
	<circle cx="407.238" cy="619.023" r="4" fill="#0" id="circle244"/>
	<circle cx="411.474" cy="560.57" r="4" fill="#0" id="circle245"/>
	<circle cx="411.474" cy="626.647" r="4" fill="#0" id="circle246"/>
	<circle cx="411.474" cy="635.119" r="4" fill="#0" id="circle247"/>
	<circle cx="413.168" cy="873.165" r="4" fill="#0" id="circle248"/>
	<circle cx="414.015" cy="569.042" r="4" fill="#0" id="circle249"/>
	<circle cx="415.71" cy="606.316" r="4" fill="#0" id="circle250"/>
	<circle cx="415.71" cy="642.743" r="4" fill="#0" id="circle251"/>
	<circle cx="415.71" cy="651.214" r="4" fill="#0" id="circle252"/>
	<circle cx="418.251" cy="576.666" r="4" fill="#0" id="circle253"/>
	<circle cx="419.945" cy="585.137" r="4" fill="#0" id="circle254"/>
	<circle cx="419.945" cy="658.839" r="4" fill="#0" id="circle255"/>
	<circle cx="421.64" cy="873.165" r="4" fill="#0" id="circle256"/>
	<circle cx="422.487" cy="600.386" r="4" fill="#0" id="circle257"/>
	<circle cx="424.181" cy="666.463" r="4" fill="#0" id="circle258"/>
	<circle cx="424.181" cy="674.934" r="4" fill="#0" id="circle259"/>
	<circle cx="428.417" cy="682.558" r="4" fill="#0" id="circle260"/>
	<circle cx="430.111" cy="691.03" r="4" fill="#0" id="circle261"/>
	<circle cx="430.111" cy="873.165" r="4" fill="#0" id="circle262"/>
	<circle cx="432.652" cy="763.037" r="4" fill="#0" id="circle263"/>
	<circle cx="432.652" cy="771.508" r="4" fill="#0" id="circle264"/>
	<circle cx="434.347" cy="698.654" r="4" fill="#0" id="circle265"/>
	<circle cx="436.888" cy="707.126" r="4" fill="#0" id="circle266"/>
	<circle cx="436.888" cy="715.597" r="4" fill="#0" id="circle267"/>
	<circle cx="436.888" cy="779.132" r="4" fill="#0" id="circle268"/>
	<circle cx="436.888" cy="787.604" r="4" fill="#0" id="circle269"/>
	<circle cx="438.582" cy="873.165" r="4" fill="#0" id="circle270"/>
	<circle cx="439.43" cy="757.107" r="4" fill="#0" id="circle271"/>
	<circle cx="441.124" cy="723.221" r="4" fill="#0" id="circle272"/>
	<circle cx="441.124" cy="731.693" r="4" fill="#0" id="circle273"/>
	<circle cx="441.124" cy="795.228" r="4" fill="#0" id="circle274"/>
	<circle cx="441.124" cy="803.699" r="4" fill="#0" id="circle275"/>
	<circle cx="441.124" cy="812.171" r="4" fill="#0" id="circle276"/>
	<circle cx="445.36" cy="739.317" r="4" fill="#0" id="circle277"/>
	<circle cx="445.36" cy="747.788" r="4" fill="#0" id="circle278"/>
	<circle cx="447.054" cy="873.165" r="4" fill="#0" id="circle279"/>
	<circle cx="447.901" cy="818.101" r="4" fill="#0" id="circle280"/>
	<circle cx="449.595" cy="826.572" r="4" fill="#0" id="circle281"/>
	<circle cx="453.831" cy="834.196" r="4" fill="#0" id="circle282"/>
	<circle cx="454.678" cy="868.929" r="4" fill="#0" id="circle283"/>
	<circle cx="460.608" cy="839.279" r="4" fill="#0" id="circle284"/>
	<circle cx="461.455" cy="862.152" r="4" fill="#0" id="circle285"/>
	<circle cx="466.538" cy="846.056" r="4" fill="#0" id="circle286"/>
	<circle cx="466.538" cy="854.528" r="4" fill="#0" id="circle287"/>
	</g>
</svg>