<?xml version="1.0" encoding="UTF-8" standalone="no"?>
<!-- Created with CurveBenchmark -->
<svg
	xmlns:dc="http://purl.org/dc/elements/1.1/"
	xmlns:cc="http://creativecommons.org/ns#"
	xmlns:rdf="http://www.w3.org/1999/02/22-rdf-syntax-ns#"
	xmlns:svg="http://www.w3.org/2000/svg"
	xmlns="http://www.w3.org/2000/svg"
	xmlns:sodipodi="http://sodipodi.sourceforge.net/DTD/sodipodi-0.dtd"
	xmlns:inkscape="http://www.inkscape.org/namespaces/inkscape"
	width="1000"
	height="1000"
	id="svg2"
	version="1.1"
	sodipodi:docname="manifold/crawl-fountain04.png.txt">
<defs
	id="defs4" />
<metadata
	id="metadata7">
	<rdf:RDF>
		<cc:Work
			rdf:about="">
			<dc:format>image/svg+xml</dc:format>
			<dc:type
				rdf:resource="http://purl.org/dc/dcmitype/StillImage" />
			<dc:title></dc:title>
		</cc:Work>
	</rdf:RDF>
</metadata>
<g
	inkscape:label="Layer 1"
	inkscape:groupmode="layer"
	id="layer1">
	<path style="fill:none;stroke:red;stroke-width:1px;stroke-linecap:butt;stroke-linejoin:miter;stroke-opacity:1" d="M 4,554.451 4,574.251 z" id="boundary" inkscape:connector-curvature="0" />
	<path style="fill:none;stroke:red;stroke-width:1px;stroke-linecap:butt;stroke-linejoin:miter;stroke-opacity:1" d="M 4,574.251 4,594.052 z" id="boundary" inkscape:connector-curvature="0" />
	<path style="fill:none;stroke:red;stroke-width:1px;stroke-linecap:butt;stroke-linejoin:miter;stroke-opacity:1" d="M 4,594.052 13.9002,611.872 z" id="boundary" inkscape:connector-curvature="0" />
	<path style="fill:none;stroke:red;stroke-width:1px;stroke-linecap:butt;stroke-linejoin:miter;stroke-opacity:1" d="M 13.9002,611.872 23.8004,629.693 z" id="boundary" inkscape:connector-curvature="0" />
	<path style="fill:none;stroke:red;stroke-width:1px;stroke-linecap:butt;stroke-linejoin:miter;stroke-opacity:1" d="M 23.8004,629.693 29.7405,649.493 z" id="boundary" inkscape:connector-curvature="0" />
	<path style="fill:none;stroke:red;stroke-width:1px;stroke-linecap:butt;stroke-linejoin:miter;stroke-opacity:1" d="M 29.7405,649.493 39.6407,667.313 z" id="boundary" inkscape:connector-curvature="0" />
	<path style="fill:none;stroke:red;stroke-width:1px;stroke-linecap:butt;stroke-linejoin:miter;stroke-opacity:1" d="M 39.6407,667.313 55.481,679.194 z" id="boundary" inkscape:connector-curvature="0" />
	<path style="fill:none;stroke:red;stroke-width:1px;stroke-linecap:butt;stroke-linejoin:miter;stroke-opacity:1" d="M 55.481,679.194 67.3613,695.034 z" id="boundary" inkscape:connector-curvature="0" />
	<path style="fill:none;stroke:red;stroke-width:1px;stroke-linecap:butt;stroke-linejoin:miter;stroke-opacity:1" d="M 67.3613,695.034 83.2016,708.894 z" id="boundary" inkscape:connector-curvature="0" />
	<path style="fill:none;stroke:red;stroke-width:1px;stroke-linecap:butt;stroke-linejoin:miter;stroke-opacity:1" d="M 83.2016,708.894 103.002,708.894 z" id="boundary" inkscape:connector-curvature="0" />
	<path style="fill:none;stroke:red;stroke-width:1px;stroke-linecap:butt;stroke-linejoin:miter;stroke-opacity:1" d="M 103.002,708.894 120.822,718.794 z" id="boundary" inkscape:connector-curvature="0" />
	<path style="fill:none;stroke:red;stroke-width:1px;stroke-linecap:butt;stroke-linejoin:miter;stroke-opacity:1" d="M 120.822,718.794 138.643,728.695 z" id="boundary" inkscape:connector-curvature="0" />
	<path style="fill:none;stroke:red;stroke-width:1px;stroke-linecap:butt;stroke-linejoin:miter;stroke-opacity:1" d="M 138.643,728.695 158.443,728.695 z" id="boundary" inkscape:connector-curvature="0" />
	<path style="fill:none;stroke:red;stroke-width:1px;stroke-linecap:butt;stroke-linejoin:miter;stroke-opacity:1" d="M 158.443,728.695 178.244,736.615 z" id="boundary" inkscape:connector-curvature="0" />
	<path style="fill:none;stroke:red;stroke-width:1px;stroke-linecap:butt;stroke-linejoin:miter;stroke-opacity:1" d="M 178.244,736.615 196.064,746.515 z" id="boundary" inkscape:connector-curvature="0" />
	<path style="fill:none;stroke:red;stroke-width:1px;stroke-linecap:butt;stroke-linejoin:miter;stroke-opacity:1" d="M 196.064,746.515 215.864,748.495 z" id="boundary" inkscape:connector-curvature="0" />
	<path style="fill:none;stroke:red;stroke-width:1px;stroke-linecap:butt;stroke-linejoin:miter;stroke-opacity:1" d="M 215.864,748.495 235.665,754.435 z" id="boundary" inkscape:connector-curvature="0" />
	<path style="fill:none;stroke:red;stroke-width:1px;stroke-linecap:butt;stroke-linejoin:miter;stroke-opacity:1" d="M 235.665,754.435 255.465,758.395 z" id="boundary" inkscape:connector-curvature="0" />
	<path style="fill:none;stroke:red;stroke-width:1px;stroke-linecap:butt;stroke-linejoin:miter;stroke-opacity:1" d="M 255.465,758.395 275.265,758.395 z" id="boundary" inkscape:connector-curvature="0" />
	<path style="fill:none;stroke:red;stroke-width:1px;stroke-linecap:butt;stroke-linejoin:miter;stroke-opacity:1" d="M 275.265,758.395 295.066,764.335 z" id="boundary" inkscape:connector-curvature="0" />
	<path style="fill:none;stroke:red;stroke-width:1px;stroke-linecap:butt;stroke-linejoin:miter;stroke-opacity:1" d="M 295.066,764.335 314.866,768.295 z" id="boundary" inkscape:connector-curvature="0" />
	<path style="fill:none;stroke:red;stroke-width:1px;stroke-linecap:butt;stroke-linejoin:miter;stroke-opacity:1" d="M 314.866,768.295 334.667,774.236 z" id="boundary" inkscape:connector-curvature="0" />
	<path style="fill:none;stroke:red;stroke-width:1px;stroke-linecap:butt;stroke-linejoin:miter;stroke-opacity:1" d="M 334.667,774.236 354.467,778.196 z" id="boundary" inkscape:connector-curvature="0" />
	<path style="fill:none;stroke:red;stroke-width:1px;stroke-linecap:butt;stroke-linejoin:miter;stroke-opacity:1" d="M 354.467,778.196 374.267,778.196 z" id="boundary" inkscape:connector-curvature="0" />
	<path style="fill:none;stroke:red;stroke-width:1px;stroke-linecap:butt;stroke-linejoin:miter;stroke-opacity:1" d="M 374.267,778.196 394.068,778.196 z" id="boundary" inkscape:connector-curvature="0" />
	<path style="fill:none;stroke:red;stroke-width:1px;stroke-linecap:butt;stroke-linejoin:miter;stroke-opacity:1" d="M 394.068,778.196 413.868,778.196 z" id="boundary" inkscape:connector-curvature="0" />
	<path style="fill:none;stroke:red;stroke-width:1px;stroke-linecap:butt;stroke-linejoin:miter;stroke-opacity:1" d="M 413.868,778.196 433.669,778.196 z" id="boundary" inkscape:connector-curvature="0" />
	<path style="fill:none;stroke:red;stroke-width:1px;stroke-linecap:butt;stroke-linejoin:miter;stroke-opacity:1" d="M 433.669,778.196 453.469,778.196 z" id="boundary" inkscape:connector-curvature="0" />
	<path style="fill:none;stroke:red;stroke-width:1px;stroke-linecap:butt;stroke-linejoin:miter;stroke-opacity:1" d="M 453.469,778.196 473.269,778.196 z" id="boundary" inkscape:connector-curvature="0" />
	<path style="fill:none;stroke:red;stroke-width:1px;stroke-linecap:butt;stroke-linejoin:miter;stroke-opacity:1" d="M 473.269,778.196 493.07,778.196 z" id="boundary" inkscape:connector-curvature="0" />
	<path style="fill:none;stroke:red;stroke-width:1px;stroke-linecap:butt;stroke-linejoin:miter;stroke-opacity:1" d="M 493.07,778.196 512.87,778.196 z" id="boundary" inkscape:connector-curvature="0" />
	<path style="fill:none;stroke:red;stroke-width:1px;stroke-linecap:butt;stroke-linejoin:miter;stroke-opacity:1" d="M 512.87,778.196 532.671,778.196 z" id="boundary" inkscape:connector-curvature="0" />
	<path style="fill:none;stroke:red;stroke-width:1px;stroke-linecap:butt;stroke-linejoin:miter;stroke-opacity:1" d="M 532.671,778.196 552.471,778.196 z" id="boundary" inkscape:connector-curvature="0" />
	<path style="fill:none;stroke:red;stroke-width:1px;stroke-linecap:butt;stroke-linejoin:miter;stroke-opacity:1" d="M 552.471,778.196 570.291,768.295 z" id="boundary" inkscape:connector-curvature="0" />
	<path style="fill:none;stroke:red;stroke-width:1px;stroke-linecap:butt;stroke-linejoin:miter;stroke-opacity:1" d="M 570.291,768.295 590.092,768.295 z" id="boundary" inkscape:connector-curvature="0" />
	<path style="fill:none;stroke:red;stroke-width:1px;stroke-linecap:butt;stroke-linejoin:miter;stroke-opacity:1" d="M 590.092,768.295 609.892,768.295 z" id="boundary" inkscape:connector-curvature="0" />
	<path style="fill:none;stroke:red;stroke-width:1px;stroke-linecap:butt;stroke-linejoin:miter;stroke-opacity:1" d="M 609.892,768.295 629.693,768.295 z" id="boundary" inkscape:connector-curvature="0" />
	<path style="fill:none;stroke:red;stroke-width:1px;stroke-linecap:butt;stroke-linejoin:miter;stroke-opacity:1" d="M 629.693,768.295 649.493,768.295 z" id="boundary" inkscape:connector-curvature="0" />
	<path style="fill:none;stroke:red;stroke-width:1px;stroke-linecap:butt;stroke-linejoin:miter;stroke-opacity:1" d="M 649.493,768.295 669.293,768.295 z" id="boundary" inkscape:connector-curvature="0" />
	<path style="fill:none;stroke:red;stroke-width:1px;stroke-linecap:butt;stroke-linejoin:miter;stroke-opacity:1" d="M 669.293,768.295 689.094,768.295 z" id="boundary" inkscape:connector-curvature="0" />
	<path style="fill:none;stroke:red;stroke-width:1px;stroke-linecap:butt;stroke-linejoin:miter;stroke-opacity:1" d="M 689.094,768.295 706.914,758.395 z" id="boundary" inkscape:connector-curvature="0" />
	<path style="fill:none;stroke:red;stroke-width:1px;stroke-linecap:butt;stroke-linejoin:miter;stroke-opacity:1" d="M 706.914,758.395 726.715,758.395 z" id="boundary" inkscape:connector-curvature="0" />
	<path style="fill:none;stroke:red;stroke-width:1px;stroke-linecap:butt;stroke-linejoin:miter;stroke-opacity:1" d="M 726.715,758.395 744.535,748.495 z" id="boundary" inkscape:connector-curvature="0" />
	<path style="fill:none;stroke:red;stroke-width:1px;stroke-linecap:butt;stroke-linejoin:miter;stroke-opacity:1" d="M 744.535,748.495 764.335,748.495 z" id="boundary" inkscape:connector-curvature="0" />
	<path style="fill:none;stroke:red;stroke-width:1px;stroke-linecap:butt;stroke-linejoin:miter;stroke-opacity:1" d="M 764.335,748.495 784.136,748.495 z" id="boundary" inkscape:connector-curvature="0" />
	<path style="fill:none;stroke:red;stroke-width:1px;stroke-linecap:butt;stroke-linejoin:miter;stroke-opacity:1" d="M 784.136,748.495 801.956,738.595 z" id="boundary" inkscape:connector-curvature="0" />
	<path style="fill:none;stroke:red;stroke-width:1px;stroke-linecap:butt;stroke-linejoin:miter;stroke-opacity:1" d="M 801.956,738.595 819.776,728.695 z" id="boundary" inkscape:connector-curvature="0" />
	<path style="fill:none;stroke:red;stroke-width:1px;stroke-linecap:butt;stroke-linejoin:miter;stroke-opacity:1" d="M 819.776,728.695 837.597,718.794 z" id="boundary" inkscape:connector-curvature="0" />
	<path style="fill:none;stroke:red;stroke-width:1px;stroke-linecap:butt;stroke-linejoin:miter;stroke-opacity:1" d="M 837.597,718.794 857.397,718.794 z" id="boundary" inkscape:connector-curvature="0" />
	<path style="fill:none;stroke:red;stroke-width:1px;stroke-linecap:butt;stroke-linejoin:miter;stroke-opacity:1" d="M 857.397,718.794 877.198,708.894 z" id="boundary" inkscape:connector-curvature="0" />
	<path style="fill:none;stroke:red;stroke-width:1px;stroke-linecap:butt;stroke-linejoin:miter;stroke-opacity:1" d="M 877.198,708.894 896.998,698.994 z" id="boundary" inkscape:connector-curvature="0" />
	<path style="fill:none;stroke:red;stroke-width:1px;stroke-linecap:butt;stroke-linejoin:miter;stroke-opacity:1" d="M 896.998,698.994 916.798,698.994 z" id="boundary" inkscape:connector-curvature="0" />
	<path style="fill:none;stroke:red;stroke-width:1px;stroke-linecap:butt;stroke-linejoin:miter;stroke-opacity:1" d="M 916.798,698.994 936.599,689.094 z" id="boundary" inkscape:connector-curvature="0" />
	<path style="fill:none;stroke:red;stroke-width:1px;stroke-linecap:butt;stroke-linejoin:miter;stroke-opacity:1" d="M 936.599,689.094 946.499,669.293 z" id="boundary" inkscape:connector-curvature="0" />
	<path style="fill:none;stroke:red;stroke-width:1px;stroke-linecap:butt;stroke-linejoin:miter;stroke-opacity:1" d="M 946.499,669.293 966.299,659.393 z" id="boundary" inkscape:connector-curvature="0" />
	<path style="fill:none;stroke:red;stroke-width:1px;stroke-linecap:butt;stroke-linejoin:miter;stroke-opacity:1" d="M 966.299,659.393 976.2,639.593 z" id="boundary" inkscape:connector-curvature="0" />
	<path style="fill:none;stroke:red;stroke-width:1px;stroke-linecap:butt;stroke-linejoin:miter;stroke-opacity:1" d="M 976.2,639.593 986.1,619.792 z" id="boundary" inkscape:connector-curvature="0" />
	<path style="fill:none;stroke:red;stroke-width:1px;stroke-linecap:butt;stroke-linejoin:miter;stroke-opacity:1" d="M 4,554.451 13.9002,534.651 z" id="boundary" inkscape:connector-curvature="0" />
	<path style="fill:none;stroke:red;stroke-width:1px;stroke-linecap:butt;stroke-linejoin:miter;stroke-opacity:1" d="M 13.9002,534.651 29.7405,518.81 z" id="boundary" inkscape:connector-curvature="0" />
	<path style="fill:none;stroke:red;stroke-width:1px;stroke-linecap:butt;stroke-linejoin:miter;stroke-opacity:1" d="M 29.7405,518.81 47.5609,508.91 z" id="boundary" inkscape:connector-curvature="0" />
	<path style="fill:none;stroke:red;stroke-width:1px;stroke-linecap:butt;stroke-linejoin:miter;stroke-opacity:1" d="M 47.5609,508.91 65.3812,499.01 z" id="boundary" inkscape:connector-curvature="0" />
	<path style="fill:none;stroke:red;stroke-width:1px;stroke-linecap:butt;stroke-linejoin:miter;stroke-opacity:1" d="M 65.3812,499.01 83.2016,485.15 z" id="boundary" inkscape:connector-curvature="0" />
	<path style="fill:none;stroke:red;stroke-width:1px;stroke-linecap:butt;stroke-linejoin:miter;stroke-opacity:1" d="M 83.2016,485.15 103.002,475.25 z" id="boundary" inkscape:connector-curvature="0" />
	<path style="fill:none;stroke:red;stroke-width:1px;stroke-linecap:butt;stroke-linejoin:miter;stroke-opacity:1" d="M 103.002,475.25 122.802,465.349 z" id="boundary" inkscape:connector-curvature="0" />
	<path style="fill:none;stroke:red;stroke-width:1px;stroke-linecap:butt;stroke-linejoin:miter;stroke-opacity:1" d="M 122.802,465.349 142.603,455.449 z" id="boundary" inkscape:connector-curvature="0" />
	<path style="fill:none;stroke:red;stroke-width:1px;stroke-linecap:butt;stroke-linejoin:miter;stroke-opacity:1" d="M 142.603,455.449 162.403,445.549 z" id="boundary" inkscape:connector-curvature="0" />
	<path style="fill:none;stroke:red;stroke-width:1px;stroke-linecap:butt;stroke-linejoin:miter;stroke-opacity:1" d="M 162.403,445.549 178.244,429.709 z" id="boundary" inkscape:connector-curvature="0" />
	<path style="fill:none;stroke:red;stroke-width:1px;stroke-linecap:butt;stroke-linejoin:miter;stroke-opacity:1" d="M 178.244,429.709 192.104,405.948 z" id="boundary" inkscape:connector-curvature="0" />
	<path style="fill:none;stroke:red;stroke-width:1px;stroke-linecap:butt;stroke-linejoin:miter;stroke-opacity:1" d="M 192.104,405.948 207.944,390.108 z" id="boundary" inkscape:connector-curvature="0" />
	<path style="fill:none;stroke:red;stroke-width:1px;stroke-linecap:butt;stroke-linejoin:miter;stroke-opacity:1" d="M 207.944,390.108 227.745,380.208 z" id="boundary" inkscape:connector-curvature="0" />
	<path style="fill:none;stroke:red;stroke-width:1px;stroke-linecap:butt;stroke-linejoin:miter;stroke-opacity:1" d="M 227.745,380.208 247.545,370.307 z" id="boundary" inkscape:connector-curvature="0" />
	<path style="fill:none;stroke:red;stroke-width:1px;stroke-linecap:butt;stroke-linejoin:miter;stroke-opacity:1" d="M 247.545,370.307 267.345,370.307 z" id="boundary" inkscape:connector-curvature="0" />
	<path style="fill:none;stroke:red;stroke-width:1px;stroke-linecap:butt;stroke-linejoin:miter;stroke-opacity:1" d="M 267.345,370.307 285.166,360.407 z" id="boundary" inkscape:connector-curvature="0" />
	<path style="fill:none;stroke:red;stroke-width:1px;stroke-linecap:butt;stroke-linejoin:miter;stroke-opacity:1" d="M 285.166,360.407 304.966,352.487 z" id="boundary" inkscape:connector-curvature="0" />
	<path style="fill:none;stroke:red;stroke-width:1px;stroke-linecap:butt;stroke-linejoin:miter;stroke-opacity:1" d="M 304.966,352.487 324.766,342.587 z" id="boundary" inkscape:connector-curvature="0" />
	<path style="fill:none;stroke:red;stroke-width:1px;stroke-linecap:butt;stroke-linejoin:miter;stroke-opacity:1" d="M 324.766,342.587 344.567,340.607 z" id="boundary" inkscape:connector-curvature="0" />
	<path style="fill:none;stroke:red;stroke-width:1px;stroke-linecap:butt;stroke-linejoin:miter;stroke-opacity:1" d="M 344.567,340.607 364.367,332.687 z" id="boundary" inkscape:connector-curvature="0" />
	<path style="fill:none;stroke:red;stroke-width:1px;stroke-linecap:butt;stroke-linejoin:miter;stroke-opacity:1" d="M 364.367,332.687 384.168,330.707 z" id="boundary" inkscape:connector-curvature="0" />
	<path style="fill:none;stroke:red;stroke-width:1px;stroke-linecap:butt;stroke-linejoin:miter;stroke-opacity:1" d="M 384.168,330.707 403.968,330.707 z" id="boundary" inkscape:connector-curvature="0" />
	<path style="fill:none;stroke:red;stroke-width:1px;stroke-linecap:butt;stroke-linejoin:miter;stroke-opacity:1" d="M 403.968,330.707 423.768,330.707 z" id="boundary" inkscape:connector-curvature="0" />
	<path style="fill:none;stroke:red;stroke-width:1px;stroke-linecap:butt;stroke-linejoin:miter;stroke-opacity:1" d="M 423.768,330.707 443.569,330.707 z" id="boundary" inkscape:connector-curvature="0" />
	<path style="fill:none;stroke:red;stroke-width:1px;stroke-linecap:butt;stroke-linejoin:miter;stroke-opacity:1" d="M 443.569,330.707 449.509,306.946 z" id="boundary" inkscape:connector-curvature="0" />
	<path style="fill:none;stroke:red;stroke-width:1px;stroke-linecap:butt;stroke-linejoin:miter;stroke-opacity:1" d="M 449.509,306.946 449.509,287.146 z" id="boundary" inkscape:connector-curvature="0" />
	<path style="fill:none;stroke:red;stroke-width:1px;stroke-linecap:butt;stroke-linejoin:miter;stroke-opacity:1" d="M 449.509,287.146 449.509,267.345 z" id="boundary" inkscape:connector-curvature="0" />
	<path style="fill:none;stroke:red;stroke-width:1px;stroke-linecap:butt;stroke-linejoin:miter;stroke-opacity:1" d="M 449.509,267.345 449.509,247.545 z" id="boundary" inkscape:connector-curvature="0" />
	<path style="fill:none;stroke:red;stroke-width:1px;stroke-linecap:butt;stroke-linejoin:miter;stroke-opacity:1" d="M 449.509,247.545 459.409,229.725 z" id="boundary" inkscape:connector-curvature="0" />
	<path style="fill:none;stroke:red;stroke-width:1px;stroke-linecap:butt;stroke-linejoin:miter;stroke-opacity:1" d="M 459.409,229.725 459.409,209.924 z" id="boundary" inkscape:connector-curvature="0" />
	<path style="fill:none;stroke:red;stroke-width:1px;stroke-linecap:butt;stroke-linejoin:miter;stroke-opacity:1" d="M 459.409,209.924 441.589,200.024 z" id="boundary" inkscape:connector-curvature="0" />
	<path style="fill:none;stroke:red;stroke-width:1px;stroke-linecap:butt;stroke-linejoin:miter;stroke-opacity:1" d="M 441.589,200.024 423.768,190.124 z" id="boundary" inkscape:connector-curvature="0" />
	<path style="fill:none;stroke:red;stroke-width:1px;stroke-linecap:butt;stroke-linejoin:miter;stroke-opacity:1" d="M 423.768,190.124 403.968,182.204 z" id="boundary" inkscape:connector-curvature="0" />
	<path style="fill:none;stroke:red;stroke-width:1px;stroke-linecap:butt;stroke-linejoin:miter;stroke-opacity:1" d="M 403.968,182.204 390.108,166.363 z" id="boundary" inkscape:connector-curvature="0" />
	<path style="fill:none;stroke:red;stroke-width:1px;stroke-linecap:butt;stroke-linejoin:miter;stroke-opacity:1" d="M 390.108,166.363 380.208,148.543 z" id="boundary" inkscape:connector-curvature="0" />
	<path style="fill:none;stroke:red;stroke-width:1px;stroke-linecap:butt;stroke-linejoin:miter;stroke-opacity:1" d="M 380.208,148.543 400.008,138.643 z" id="boundary" inkscape:connector-curvature="0" />
	<path style="fill:none;stroke:red;stroke-width:1px;stroke-linecap:butt;stroke-linejoin:miter;stroke-opacity:1" d="M 400.008,138.643 419.808,128.743 z" id="boundary" inkscape:connector-curvature="0" />
	<path style="fill:none;stroke:red;stroke-width:1px;stroke-linecap:butt;stroke-linejoin:miter;stroke-opacity:1" d="M 419.808,128.743 439.609,122.802 z" id="boundary" inkscape:connector-curvature="0" />
	<path style="fill:none;stroke:red;stroke-width:1px;stroke-linecap:butt;stroke-linejoin:miter;stroke-opacity:1" d="M 439.609,122.802 459.409,118.842 z" id="boundary" inkscape:connector-curvature="0" />
	<path style="fill:none;stroke:red;stroke-width:1px;stroke-linecap:butt;stroke-linejoin:miter;stroke-opacity:1" d="M 986.1,619.792 996,590.092 z" id="boundary" inkscape:connector-curvature="0" />
	<path style="fill:none;stroke:red;stroke-width:1px;stroke-linecap:butt;stroke-linejoin:miter;stroke-opacity:1" d="M 996,590.092 986.1,572.271 z" id="boundary" inkscape:connector-curvature="0" />
	<path style="fill:none;stroke:red;stroke-width:1px;stroke-linecap:butt;stroke-linejoin:miter;stroke-opacity:1" d="M 986.1,572.271 976.2,554.451 z" id="boundary" inkscape:connector-curvature="0" />
	<path style="fill:none;stroke:red;stroke-width:1px;stroke-linecap:butt;stroke-linejoin:miter;stroke-opacity:1" d="M 976.2,554.451 962.339,538.611 z" id="boundary" inkscape:connector-curvature="0" />
	<path style="fill:none;stroke:red;stroke-width:1px;stroke-linecap:butt;stroke-linejoin:miter;stroke-opacity:1" d="M 962.339,538.611 946.499,524.75 z" id="boundary" inkscape:connector-curvature="0" />
	<path style="fill:none;stroke:red;stroke-width:1px;stroke-linecap:butt;stroke-linejoin:miter;stroke-opacity:1" d="M 946.499,524.75 934.619,508.91 z" id="boundary" inkscape:connector-curvature="0" />
	<path style="fill:none;stroke:red;stroke-width:1px;stroke-linecap:butt;stroke-linejoin:miter;stroke-opacity:1" d="M 934.619,508.91 916.798,499.01 z" id="boundary" inkscape:connector-curvature="0" />
	<path style="fill:none;stroke:red;stroke-width:1px;stroke-linecap:butt;stroke-linejoin:miter;stroke-opacity:1" d="M 916.798,499.01 908.878,479.21 z" id="boundary" inkscape:connector-curvature="0" />
	<path style="fill:none;stroke:red;stroke-width:1px;stroke-linecap:butt;stroke-linejoin:miter;stroke-opacity:1" d="M 908.878,479.21 891.058,469.309 z" id="boundary" inkscape:connector-curvature="0" />
	<path style="fill:none;stroke:red;stroke-width:1px;stroke-linecap:butt;stroke-linejoin:miter;stroke-opacity:1" d="M 891.058,469.309 875.218,455.449 z" id="boundary" inkscape:connector-curvature="0" />
	<path style="fill:none;stroke:red;stroke-width:1px;stroke-linecap:butt;stroke-linejoin:miter;stroke-opacity:1" d="M 875.218,455.449 857.397,445.549 z" id="boundary" inkscape:connector-curvature="0" />
	<path style="fill:none;stroke:red;stroke-width:1px;stroke-linecap:butt;stroke-linejoin:miter;stroke-opacity:1" d="M 857.397,445.549 837.597,439.609 z" id="boundary" inkscape:connector-curvature="0" />
	<path style="fill:none;stroke:red;stroke-width:1px;stroke-linecap:butt;stroke-linejoin:miter;stroke-opacity:1" d="M 837.597,439.609 817.796,439.609 z" id="boundary" inkscape:connector-curvature="0" />
	<path style="fill:none;stroke:red;stroke-width:1px;stroke-linecap:butt;stroke-linejoin:miter;stroke-opacity:1" d="M 817.796,439.609 797.996,437.629 z" id="boundary" inkscape:connector-curvature="0" />
	<path style="fill:none;stroke:red;stroke-width:1px;stroke-linecap:butt;stroke-linejoin:miter;stroke-opacity:1" d="M 797.996,437.629 788.096,419.808 z" id="boundary" inkscape:connector-curvature="0" />
	<path style="fill:none;stroke:red;stroke-width:1px;stroke-linecap:butt;stroke-linejoin:miter;stroke-opacity:1" d="M 788.096,419.808 770.275,409.908 z" id="boundary" inkscape:connector-curvature="0" />
	<path style="fill:none;stroke:red;stroke-width:1px;stroke-linecap:butt;stroke-linejoin:miter;stroke-opacity:1" d="M 770.275,409.908 752.455,400.008 z" id="boundary" inkscape:connector-curvature="0" />
	<path style="fill:none;stroke:red;stroke-width:1px;stroke-linecap:butt;stroke-linejoin:miter;stroke-opacity:1" d="M 752.455,400.008 734.635,390.108 z" id="boundary" inkscape:connector-curvature="0" />
	<path style="fill:none;stroke:red;stroke-width:1px;stroke-linecap:butt;stroke-linejoin:miter;stroke-opacity:1" d="M 734.635,390.108 716.814,380.208 z" id="boundary" inkscape:connector-curvature="0" />
	<path style="fill:none;stroke:red;stroke-width:1px;stroke-linecap:butt;stroke-linejoin:miter;stroke-opacity:1" d="M 716.814,380.208 698.994,370.307 z" id="boundary" inkscape:connector-curvature="0" />
	<path style="fill:none;stroke:red;stroke-width:1px;stroke-linecap:butt;stroke-linejoin:miter;stroke-opacity:1" d="M 698.994,370.307 679.194,370.307 z" id="boundary" inkscape:connector-curvature="0" />
	<path style="fill:none;stroke:red;stroke-width:1px;stroke-linecap:butt;stroke-linejoin:miter;stroke-opacity:1" d="M 679.194,370.307 659.393,370.307 z" id="boundary" inkscape:connector-curvature="0" />
	<path style="fill:none;stroke:red;stroke-width:1px;stroke-linecap:butt;stroke-linejoin:miter;stroke-opacity:1" d="M 659.393,370.307 639.593,370.307 z" id="boundary" inkscape:connector-curvature="0" />
	<path style="fill:none;stroke:red;stroke-width:1px;stroke-linecap:butt;stroke-linejoin:miter;stroke-opacity:1" d="M 639.593,370.307 619.792,370.307 z" id="boundary" inkscape:connector-curvature="0" />
	<path style="fill:none;stroke:red;stroke-width:1px;stroke-linecap:butt;stroke-linejoin:miter;stroke-opacity:1" d="M 619.792,370.307 601.972,360.407 z" id="boundary" inkscape:connector-curvature="0" />
	<path style="fill:none;stroke:red;stroke-width:1px;stroke-linecap:butt;stroke-linejoin:miter;stroke-opacity:1" d="M 601.972,360.407 582.172,360.407 z" id="boundary" inkscape:connector-curvature="0" />
	<path style="fill:none;stroke:red;stroke-width:1px;stroke-linecap:butt;stroke-linejoin:miter;stroke-opacity:1" d="M 582.172,360.407 564.351,350.507 z" id="boundary" inkscape:connector-curvature="0" />
	<path style="fill:none;stroke:red;stroke-width:1px;stroke-linecap:butt;stroke-linejoin:miter;stroke-opacity:1" d="M 564.351,350.507 554.451,332.687 z" id="boundary" inkscape:connector-curvature="0" />
	<path style="fill:none;stroke:red;stroke-width:1px;stroke-linecap:butt;stroke-linejoin:miter;stroke-opacity:1" d="M 554.451,332.687 550.491,312.886 z" id="boundary" inkscape:connector-curvature="0" />
	<path style="fill:none;stroke:red;stroke-width:1px;stroke-linecap:butt;stroke-linejoin:miter;stroke-opacity:1" d="M 550.491,312.886 550.491,293.086 z" id="boundary" inkscape:connector-curvature="0" />
	<path style="fill:none;stroke:red;stroke-width:1px;stroke-linecap:butt;stroke-linejoin:miter;stroke-opacity:1" d="M 550.491,293.086 550.491,273.285 z" id="boundary" inkscape:connector-curvature="0" />
	<path style="fill:none;stroke:red;stroke-width:1px;stroke-linecap:butt;stroke-linejoin:miter;stroke-opacity:1" d="M 550.491,273.285 550.491,253.485 z" id="boundary" inkscape:connector-curvature="0" />
	<path style="fill:none;stroke:red;stroke-width:1px;stroke-linecap:butt;stroke-linejoin:miter;stroke-opacity:1" d="M 550.491,253.485 550.491,233.685 z" id="boundary" inkscape:connector-curvature="0" />
	<path style="fill:none;stroke:red;stroke-width:1px;stroke-linecap:butt;stroke-linejoin:miter;stroke-opacity:1" d="M 550.491,233.685 550.491,213.884 z" id="boundary" inkscape:connector-curvature="0" />
	<path style="fill:none;stroke:red;stroke-width:1px;stroke-linecap:butt;stroke-linejoin:miter;stroke-opacity:1" d="M 550.491,213.884 550.491,194.084 z" id="boundary" inkscape:connector-curvature="0" />
	<path style="fill:none;stroke:red;stroke-width:1px;stroke-linecap:butt;stroke-linejoin:miter;stroke-opacity:1" d="M 550.491,194.084 570.291,184.184 z" id="boundary" inkscape:connector-curvature="0" />
	<path style="fill:none;stroke:red;stroke-width:1px;stroke-linecap:butt;stroke-linejoin:miter;stroke-opacity:1" d="M 570.291,184.184 590.092,184.184 z" id="boundary" inkscape:connector-curvature="0" />
	<path style="fill:none;stroke:red;stroke-width:1px;stroke-linecap:butt;stroke-linejoin:miter;stroke-opacity:1" d="M 590.092,184.184 609.892,174.283 z" id="boundary" inkscape:connector-curvature="0" />
	<path style="fill:none;stroke:red;stroke-width:1px;stroke-linecap:butt;stroke-linejoin:miter;stroke-opacity:1" d="M 609.892,174.283 629.693,174.283 z" id="boundary" inkscape:connector-curvature="0" />
	<path style="fill:none;stroke:red;stroke-width:1px;stroke-linecap:butt;stroke-linejoin:miter;stroke-opacity:1" d="M 629.693,174.283 649.493,164.383 z" id="boundary" inkscape:connector-curvature="0" />
	<path style="fill:none;stroke:red;stroke-width:1px;stroke-linecap:butt;stroke-linejoin:miter;stroke-opacity:1" d="M 649.493,164.383 659.393,142.603 z" id="boundary" inkscape:connector-curvature="0" />
	<path style="fill:none;stroke:red;stroke-width:1px;stroke-linecap:butt;stroke-linejoin:miter;stroke-opacity:1" d="M 659.393,142.603 647.513,126.762 z" id="boundary" inkscape:connector-curvature="0" />
	<path style="fill:none;stroke:red;stroke-width:1px;stroke-linecap:butt;stroke-linejoin:miter;stroke-opacity:1" d="M 647.513,126.762 627.713,122.802 z" id="boundary" inkscape:connector-curvature="0" />
	<path style="fill:none;stroke:red;stroke-width:1px;stroke-linecap:butt;stroke-linejoin:miter;stroke-opacity:1" d="M 627.713,122.802 607.912,116.862 z" id="boundary" inkscape:connector-curvature="0" />
	<path style="fill:none;stroke:red;stroke-width:1px;stroke-linecap:butt;stroke-linejoin:miter;stroke-opacity:1" d="M 607.912,116.862 588.112,112.902 z" id="boundary" inkscape:connector-curvature="0" />
	<path style="fill:none;stroke:red;stroke-width:1px;stroke-linecap:butt;stroke-linejoin:miter;stroke-opacity:1" d="M 588.112,112.902 568.311,112.902 z" id="boundary" inkscape:connector-curvature="0" />
	<path style="fill:none;stroke:red;stroke-width:1px;stroke-linecap:butt;stroke-linejoin:miter;stroke-opacity:1" d="M 568.311,112.902 548.511,112.902 z" id="boundary" inkscape:connector-curvature="0" />
	<path style="fill:none;stroke:red;stroke-width:1px;stroke-linecap:butt;stroke-linejoin:miter;stroke-opacity:1" d="M 548.511,112.902 530.691,103.002 z" id="boundary" inkscape:connector-curvature="0" />
	<path style="fill:none;stroke:red;stroke-width:1px;stroke-linecap:butt;stroke-linejoin:miter;stroke-opacity:1" d="M 530.691,103.002 520.79,85.1816 z" id="boundary" inkscape:connector-curvature="0" />
	<path style="fill:none;stroke:red;stroke-width:1px;stroke-linecap:butt;stroke-linejoin:miter;stroke-opacity:1" d="M 520.79,85.1816 520.79,65.3812 z" id="boundary" inkscape:connector-curvature="0" />
	<path style="fill:none;stroke:red;stroke-width:1px;stroke-linecap:butt;stroke-linejoin:miter;stroke-opacity:1" d="M 520.79,65.3812 520.79,45.5808 z" id="boundary" inkscape:connector-curvature="0" />
	<path style="fill:none;stroke:red;stroke-width:1px;stroke-linecap:butt;stroke-linejoin:miter;stroke-opacity:1" d="M 520.79,45.5808 530.691,27.7605 z" id="boundary" inkscape:connector-curvature="0" />
	<path style="fill:none;stroke:red;stroke-width:1px;stroke-linecap:butt;stroke-linejoin:miter;stroke-opacity:1" d="M 530.691,27.7605 528.711,7.96008 z" id="boundary" inkscape:connector-curvature="0" />
	<path style="fill:none;stroke:red;stroke-width:1px;stroke-linecap:butt;stroke-linejoin:miter;stroke-opacity:1" d="M 528.711,7.96008 508.91,4 z" id="boundary" inkscape:connector-curvature="0" />
	<path style="fill:none;stroke:red;stroke-width:1px;stroke-linecap:butt;stroke-linejoin:miter;stroke-opacity:1" d="M 508.91,4 489.11,4 z" id="boundary" inkscape:connector-curvature="0" />
	<path style="fill:none;stroke:red;stroke-width:1px;stroke-linecap:butt;stroke-linejoin:miter;stroke-opacity:1" d="M 489.11,4 469.309,9.94012 z" id="boundary" inkscape:connector-curvature="0" />
	<path style="fill:none;stroke:red;stroke-width:1px;stroke-linecap:butt;stroke-linejoin:miter;stroke-opacity:1" d="M 469.309,9.94012 469.309,29.7405 z" id="boundary" inkscape:connector-curvature="0" />
	<path style="fill:none;stroke:red;stroke-width:1px;stroke-linecap:butt;stroke-linejoin:miter;stroke-opacity:1" d="M 469.309,29.7405 469.309,49.5409 z" id="boundary" inkscape:connector-curvature="0" />
	<path style="fill:none;stroke:red;stroke-width:1px;stroke-linecap:butt;stroke-linejoin:miter;stroke-opacity:1" d="M 469.309,49.5409 469.309,69.3413 z" id="boundary" inkscape:connector-curvature="0" />
	<path style="fill:none;stroke:red;stroke-width:1px;stroke-linecap:butt;stroke-linejoin:miter;stroke-opacity:1" d="M 469.309,69.3413 469.309,89.1417 z" id="boundary" inkscape:connector-curvature="0" />
	<path style="fill:none;stroke:red;stroke-width:1px;stroke-linecap:butt;stroke-linejoin:miter;stroke-opacity:1" d="M 459.409,118.842 469.309,89.1417 z" id="boundary" inkscape:connector-curvature="0" />
	<circle cx="4" cy="554.451" r="4" fill="#0" id="circle0"/>
	<circle cx="4" cy="574.251" r="4" fill="#0" id="circle1"/>
	<circle cx="4" cy="594.052" r="4" fill="#0" id="circle2"/>
	<circle cx="13.9002" cy="534.651" r="4" fill="#0" id="circle3"/>
	<circle cx="13.9002" cy="611.872" r="4" fill="#0" id="circle4"/>
	<circle cx="23.8004" cy="629.693" r="4" fill="#0" id="circle5"/>
	<circle cx="29.7405" cy="518.81" r="4" fill="#0" id="circle6"/>
	<circle cx="29.7405" cy="649.493" r="4" fill="#0" id="circle7"/>
	<circle cx="39.6407" cy="667.313" r="4" fill="#0" id="circle8"/>
	<circle cx="47.5609" cy="508.91" r="4" fill="#0" id="circle9"/>
	<circle cx="55.481" cy="679.194" r="4" fill="#0" id="circle10"/>
	<circle cx="65.3812" cy="499.01" r="4" fill="#0" id="circle11"/>
	<circle cx="67.3613" cy="695.034" r="4" fill="#0" id="circle12"/>
	<circle cx="83.2016" cy="485.15" r="4" fill="#0" id="circle13"/>
	<circle cx="83.2016" cy="708.894" r="4" fill="#0" id="circle14"/>
	<circle cx="103.002" cy="475.25" r="4" fill="#0" id="circle15"/>
	<circle cx="103.002" cy="708.894" r="4" fill="#0" id="circle16"/>
	<circle cx="120.822" cy="718.794" r="4" fill="#0" id="circle17"/>
	<circle cx="122.802" cy="465.349" r="4" fill="#0" id="circle18"/>
	<circle cx="138.643" cy="728.695" r="4" fill="#0" id="circle19"/>
	<circle cx="142.603" cy="455.449" r="4" fill="#0" id="circle20"/>
	<circle cx="158.443" cy="728.695" r="4" fill="#0" id="circle21"/>
	<circle cx="162.403" cy="445.549" r="4" fill="#0" id="circle22"/>
	<circle cx="178.244" cy="429.709" r="4" fill="#0" id="circle23"/>
	<circle cx="178.244" cy="736.615" r="4" fill="#0" id="circle24"/>
	<circle cx="192.104" cy="405.948" r="4" fill="#0" id="circle25"/>
	<circle cx="196.064" cy="746.515" r="4" fill="#0" id="circle26"/>
	<circle cx="207.944" cy="390.108" r="4" fill="#0" id="circle27"/>
	<circle cx="215.864" cy="748.495" r="4" fill="#0" id="circle28"/>
	<circle cx="227.745" cy="380.208" r="4" fill="#0" id="circle29"/>
	<circle cx="235.665" cy="754.435" r="4" fill="#0" id="circle30"/>
	<circle cx="247.545" cy="370.307" r="4" fill="#0" id="circle31"/>
	<circle cx="255.465" cy="758.395" r="4" fill="#0" id="circle32"/>
	<circle cx="267.345" cy="370.307" r="4" fill="#0" id="circle33"/>
	<circle cx="275.265" cy="758.395" r="4" fill="#0" id="circle34"/>
	<circle cx="285.166" cy="360.407" r="4" fill="#0" id="circle35"/>
	<circle cx="295.066" cy="764.335" r="4" fill="#0" id="circle36"/>
	<circle cx="304.966" cy="352.487" r="4" fill="#0" id="circle37"/>
	<circle cx="314.866" cy="768.295" r="4" fill="#0" id="circle38"/>
	<circle cx="324.766" cy="342.587" r="4" fill="#0" id="circle39"/>
	<circle cx="334.667" cy="774.236" r="4" fill="#0" id="circle40"/>
	<circle cx="344.567" cy="340.607" r="4" fill="#0" id="circle41"/>
	<circle cx="354.467" cy="778.196" r="4" fill="#0" id="circle42"/>
	<circle cx="364.367" cy="332.687" r="4" fill="#0" id="circle43"/>
	<circle cx="374.267" cy="778.196" r="4" fill="#0" id="circle44"/>
	<circle cx="380.208" cy="148.543" r="4" fill="#0" id="circle45"/>
	<circle cx="384.168" cy="330.707" r="4" fill="#0" id="circle46"/>
	<circle cx="390.108" cy="166.363" r="4" fill="#0" id="circle47"/>
	<circle cx="394.068" cy="778.196" r="4" fill="#0" id="circle48"/>
	<circle cx="400.008" cy="138.643" r="4" fill="#0" id="circle49"/>
	<circle cx="403.968" cy="182.204" r="4" fill="#0" id="circle50"/>
	<circle cx="403.968" cy="330.707" r="4" fill="#0" id="circle51"/>
	<circle cx="413.868" cy="778.196" r="4" fill="#0" id="circle52"/>
	<circle cx="419.808" cy="128.743" r="4" fill="#0" id="circle53"/>
	<circle cx="423.768" cy="190.124" r="4" fill="#0" id="circle54"/>
	<circle cx="423.768" cy="330.707" r="4" fill="#0" id="circle55"/>
	<circle cx="433.669" cy="778.196" r="4" fill="#0" id="circle56"/>
	<circle cx="439.609" cy="122.802" r="4" fill="#0" id="circle57"/>
	<circle cx="441.589" cy="200.024" r="4" fill="#0" id="circle58"/>
	<circle cx="443.569" cy="330.707" r="4" fill="#0" id="circle59"/>
	<circle cx="449.509" cy="247.545" r="4" fill="#0" id="circle60"/>
	<circle cx="449.509" cy="267.345" r="4" fill="#0" id="circle61"/>
	<circle cx="449.509" cy="287.146" r="4" fill="#0" id="circle62"/>
	<circle cx="449.509" cy="306.946" r="4" fill="#0" id="circle63"/>
	<circle cx="453.469" cy="778.196" r="4" fill="#0" id="circle64"/>
	<circle cx="459.409" cy="118.842" r="4" fill="#0" id="circle65"/>
	<circle cx="459.409" cy="209.924" r="4" fill="#0" id="circle66"/>
	<circle cx="459.409" cy="229.725" r="4" fill="#0" id="circle67"/>
	<circle cx="469.309" cy="9.94012" r="4" fill="#0" id="circle68"/>
	<circle cx="469.309" cy="29.7405" r="4" fill="#0" id="circle69"/>
	<circle cx="469.309" cy="49.5409" r="4" fill="#0" id="circle70"/>
	<circle cx="469.309" cy="69.3413" r="4" fill="#0" id="circle71"/>
	<circle cx="469.309" cy="89.1417" r="4" fill="#0" id="circle72"/>
	<circle cx="473.269" cy="778.196" r="4" fill="#0" id="circle73"/>
	<circle cx="489.11" cy="4" r="4" fill="#0" id="circle74"/>
	<circle cx="493.07" cy="778.196" r="4" fill="#0" id="circle75"/>
	<circle cx="508.91" cy="4" r="4" fill="#0" id="circle76"/>
	<circle cx="512.87" cy="778.196" r="4" fill="#0" id="circle77"/>
	<circle cx="520.79" cy="45.5808" r="4" fill="#0" id="circle78"/>
	<circle cx="520.79" cy="65.3812" r="4" fill="#0" id="circle79"/>
	<circle cx="520.79" cy="85.1816" r="4" fill="#0" id="circle80"/>
	<circle cx="528.711" cy="7.96008" r="4" fill="#0" id="circle81"/>
	<circle cx="530.691" cy="27.7605" r="4" fill="#0" id="circle82"/>
	<circle cx="530.691" cy="103.002" r="4" fill="#0" id="circle83"/>
	<circle cx="532.671" cy="778.196" r="4" fill="#0" id="circle84"/>
	<circle cx="548.511" cy="112.902" r="4" fill="#0" id="circle85"/>
	<circle cx="550.491" cy="194.084" r="4" fill="#0" id="circle86"/>
	<circle cx="550.491" cy="213.884" r="4" fill="#0" id="circle87"/>
	<circle cx="550.491" cy="233.685" r="4" fill="#0" id="circle88"/>
	<circle cx="550.491" cy="253.485" r="4" fill="#0" id="circle89"/>
	<circle cx="550.491" cy="273.285" r="4" fill="#0" id="circle90"/>
	<circle cx="550.491" cy="293.086" r="4" fill="#0" id="circle91"/>
	<circle cx="550.491" cy="312.886" r="4" fill="#0" id="circle92"/>
	<circle cx="552.471" cy="778.196" r="4" fill="#0" id="circle93"/>
	<circle cx="554.451" cy="332.687" r="4" fill="#0" id="circle94"/>
	<circle cx="564.351" cy="350.507" r="4" fill="#0" id="circle95"/>
	<circle cx="568.311" cy="112.902" r="4" fill="#0" id="circle96"/>
	<circle cx="570.291" cy="184.184" r="4" fill="#0" id="circle97"/>
	<circle cx="570.291" cy="768.295" r="4" fill="#0" id="circle98"/>
	<circle cx="582.172" cy="360.407" r="4" fill="#0" id="circle99"/>
	<circle cx="588.112" cy="112.902" r="4" fill="#0" id="circle100"/>
	<circle cx="590.092" cy="184.184" r="4" fill="#0" id="circle101"/>
	<circle cx="590.092" cy="768.295" r="4" fill="#0" id="circle102"/>
	<circle cx="601.972" cy="360.407" r="4" fill="#0" id="circle103"/>
	<circle cx="607.912" cy="116.862" r="4" fill="#0" id="circle104"/>
	<circle cx="609.892" cy="174.283" r="4" fill="#0" id="circle105"/>
	<circle cx="609.892" cy="768.295" r="4" fill="#0" id="circle106"/>
	<circle cx="619.792" cy="370.307" r="4" fill="#0" id="circle107"/>
	<circle cx="627.713" cy="122.802" r="4" fill="#0" id="circle108"/>
	<circle cx="629.693" cy="174.283" r="4" fill="#0" id="circle109"/>
	<circle cx="629.693" cy="768.295" r="4" fill="#0" id="circle110"/>
	<circle cx="639.593" cy="370.307" r="4" fill="#0" id="circle111"/>
	<circle cx="647.513" cy="126.762" r="4" fill="#0" id="circle112"/>
	<circle cx="649.493" cy="164.383" r="4" fill="#0" id="circle113"/>
	<circle cx="649.493" cy="768.295" r="4" fill="#0" id="circle114"/>
	<circle cx="659.393" cy="142.603" r="4" fill="#0" id="circle115"/>
	<circle cx="659.393" cy="370.307" r="4" fill="#0" id="circle116"/>
	<circle cx="669.293" cy="768.295" r="4" fill="#0" id="circle117"/>
	<circle cx="679.194" cy="370.307" r="4" fill="#0" id="circle118"/>
	<circle cx="689.094" cy="768.295" r="4" fill="#0" id="circle119"/>
	<circle cx="698.994" cy="370.307" r="4" fill="#0" id="circle120"/>
	<circle cx="706.914" cy="758.395" r="4" fill="#0" id="circle121"/>
	<circle cx="716.814" cy="380.208" r="4" fill="#0" id="circle122"/>
	<circle cx="726.715" cy="758.395" r="4" fill="#0" id="circle123"/>
	<circle cx="734.635" cy="390.108" r="4" fill="#0" id="circle124"/>
	<circle cx="744.535" cy="748.495" r="4" fill="#0" id="circle125"/>
	<circle cx="752.455" cy="400.008" r="4" fill="#0" id="circle126"/>
	<circle cx="764.335" cy="748.495" r="4" fill="#0" id="circle127"/>
	<circle cx="770.275" cy="409.908" r="4" fill="#0" id="circle128"/>
	<circle cx="784.136" cy="748.495" r="4" fill="#0" id="circle129"/>
	<circle cx="788.096" cy="419.808" r="4" fill="#0" id="circle130"/>
	<circle cx="797.996" cy="437.629" r="4" fill="#0" id="circle131"/>
	<circle cx="801.956" cy="738.595" r="4" fill="#0" id="circle132"/>
	<circle cx="817.796" cy="439.609" r="4" fill="#0" id="circle133"/>
	<circle cx="819.776" cy="728.695" r="4" fill="#0" id="circle134"/>
	<circle cx="837.597" cy="439.609" r="4" fill="#0" id="circle135"/>
	<circle cx="837.597" cy="718.794" r="4" fill="#0" id="circle136"/>
	<circle cx="857.397" cy="445.549" r="4" fill="#0" id="circle137"/>
	<circle cx="857.397" cy="718.794" r="4" fill="#0" id="circle138"/>
	<circle cx="875.218" cy="455.449" r="4" fill="#0" id="circle139"/>
	<circle cx="877.198" cy="708.894" r="4" fill="#0" id="circle140"/>
	<circle cx="891.058" cy="469.309" r="4" fill="#0" id="circle141"/>
	<circle cx="896.998" cy="698.994" r="4" fill="#0" id="circle142"/>
	<circle cx="908.878" cy="479.21" r="4" fill="#0" id="circle143"/>
	<circle cx="916.798" cy="499.01" r="4" fill="#0" id="circle144"/>
	<circle cx="916.798" cy="698.994" r="4" fill="#0" id="circle145"/>
	<circle cx="934.619" cy="508.91" r="4" fill="#0" id="circle146"/>
	<circle cx="936.599" cy="689.094" r="4" fill="#0" id="circle147"/>
	<circle cx="946.499" cy="524.75" r="4" fill="#0" id="circle148"/>
	<circle cx="946.499" cy="669.293" r="4" fill="#0" id="circle149"/>
	<circle cx="962.339" cy="538.611" r="4" fill="#0" id="circle150"/>
	<circle cx="966.299" cy="659.393" r="4" fill="#0" id="circle151"/>
	<circle cx="976.2" cy="554.451" r="4" fill="#0" id="circle152"/>
	<circle cx="976.2" cy="639.593" r="4" fill="#0" id="circle153"/>
	<circle cx="986.1" cy="572.271" r="4" fill="#0" id="circle154"/>
	<circle cx="986.1" cy="619.792" r="4" fill="#0" id="circle155"/>
	<circle cx="996" cy="590.092" r="4" fill="#0" id="circle156"/>
	</g>
</svg>