<?xml version="1.0" encoding="UTF-8" standalone="no"?>
<!-- Created with CurveBenchmark -->
<svg
	xmlns:dc="http://purl.org/dc/elements/1.1/"
	xmlns:cc="http://creativecommons.org/ns#"
	xmlns:rdf="http://www.w3.org/1999/02/22-rdf-syntax-ns#"
	xmlns:svg="http://www.w3.org/2000/svg"
	xmlns="http://www.w3.org/2000/svg"
	xmlns:sodipodi="http://sodipodi.sourceforge.net/DTD/sodipodi-0.dtd"
	xmlns:inkscape="http://www.inkscape.org/namespaces/inkscape"
	width="1000"
	height="1000"
	id="svg2"
	version="1.1"
	sodipodi:docname="manifold/crawl-children-1.png.txt">
<defs
	id="defs4" />
<metadata
	id="metadata7">
	<rdf:RDF>
		<cc:Work
			rdf:about="">
			<dc:format>image/svg+xml</dc:format>
			<dc:type
				rdf:resource="http://purl.org/dc/dcmitype/StillImage" />
			<dc:title></dc:title>
		</cc:Work>
	</rdf:RDF>
</metadata>
<g
	inkscape:label="Layer 1"
	inkscape:groupmode="layer"
	id="layer1">
	<path style="fill:none;stroke:red;stroke-width:1px;stroke-linecap:butt;stroke-linejoin:miter;stroke-opacity:1" d="M 4,323.923 4,335.86 z" id="boundary" inkscape:connector-curvature="0" />
	<path style="fill:none;stroke:red;stroke-width:1px;stroke-linecap:butt;stroke-linejoin:miter;stroke-opacity:1" d="M 4,335.86 4,347.798 z" id="boundary" inkscape:connector-curvature="0" />
	<path style="fill:none;stroke:red;stroke-width:1px;stroke-linecap:butt;stroke-linejoin:miter;stroke-opacity:1" d="M 4,347.798 4,359.735 z" id="boundary" inkscape:connector-curvature="0" />
	<path style="fill:none;stroke:red;stroke-width:1px;stroke-linecap:butt;stroke-linejoin:miter;stroke-opacity:1" d="M 4,359.735 4,371.673 z" id="boundary" inkscape:connector-curvature="0" />
	<path style="fill:none;stroke:red;stroke-width:1px;stroke-linecap:butt;stroke-linejoin:miter;stroke-opacity:1" d="M 4,323.923 4,311.986 z" id="boundary" inkscape:connector-curvature="0" />
	<path style="fill:none;stroke:red;stroke-width:1px;stroke-linecap:butt;stroke-linejoin:miter;stroke-opacity:1" d="M 4,371.673 9.96871,382.416 z" id="boundary" inkscape:connector-curvature="0" />
	<path style="fill:none;stroke:red;stroke-width:1px;stroke-linecap:butt;stroke-linejoin:miter;stroke-opacity:1" d="M 9.96871,382.416 15.9374,393.16 z" id="boundary" inkscape:connector-curvature="0" />
	<path style="fill:none;stroke:red;stroke-width:1px;stroke-linecap:butt;stroke-linejoin:miter;stroke-opacity:1" d="M 15.9374,393.16 15.9374,405.097 z" id="boundary" inkscape:connector-curvature="0" />
	<path style="fill:none;stroke:red;stroke-width:1px;stroke-linecap:butt;stroke-linejoin:miter;stroke-opacity:1" d="M 15.9374,405.097 15.9374,417.035 z" id="boundary" inkscape:connector-curvature="0" />
	<path style="fill:none;stroke:red;stroke-width:1px;stroke-linecap:butt;stroke-linejoin:miter;stroke-opacity:1" d="M 15.9374,417.035 15.9374,428.972 z" id="boundary" inkscape:connector-curvature="0" />
	<path style="fill:none;stroke:red;stroke-width:1px;stroke-linecap:butt;stroke-linejoin:miter;stroke-opacity:1" d="M 15.9374,428.972 15.9374,440.91 z" id="boundary" inkscape:connector-curvature="0" />
	<path style="fill:none;stroke:red;stroke-width:1px;stroke-linecap:butt;stroke-linejoin:miter;stroke-opacity:1" d="M 15.9374,440.91 15.9374,452.847 z" id="boundary" inkscape:connector-curvature="0" />
	<path style="fill:none;stroke:red;stroke-width:1px;stroke-linecap:butt;stroke-linejoin:miter;stroke-opacity:1" d="M 15.9374,452.847 19.5187,464.785 z" id="boundary" inkscape:connector-curvature="0" />
	<path style="fill:none;stroke:red;stroke-width:1px;stroke-linecap:butt;stroke-linejoin:miter;stroke-opacity:1" d="M 19.5187,464.785 21.9061,476.722 z" id="boundary" inkscape:connector-curvature="0" />
	<path style="fill:none;stroke:red;stroke-width:1px;stroke-linecap:butt;stroke-linejoin:miter;stroke-opacity:1" d="M 21.9061,476.722 27.8748,487.466 z" id="boundary" inkscape:connector-curvature="0" />
	<path style="fill:none;stroke:red;stroke-width:1px;stroke-linecap:butt;stroke-linejoin:miter;stroke-opacity:1" d="M 27.8748,487.466 27.8748,499.403 z" id="boundary" inkscape:connector-curvature="0" />
	<path style="fill:none;stroke:red;stroke-width:1px;stroke-linecap:butt;stroke-linejoin:miter;stroke-opacity:1" d="M 27.8748,499.403 33.8436,510.147 z" id="boundary" inkscape:connector-curvature="0" />
	<path style="fill:none;stroke:red;stroke-width:1px;stroke-linecap:butt;stroke-linejoin:miter;stroke-opacity:1" d="M 33.8436,510.147 35.0373,522.084 z" id="boundary" inkscape:connector-curvature="0" />
	<path style="fill:none;stroke:red;stroke-width:1px;stroke-linecap:butt;stroke-linejoin:miter;stroke-opacity:1" d="M 35.0373,522.084 39.8123,534.022 z" id="boundary" inkscape:connector-curvature="0" />
	<path style="fill:none;stroke:red;stroke-width:1px;stroke-linecap:butt;stroke-linejoin:miter;stroke-opacity:1" d="M 39.8123,534.022 39.8123,545.959 z" id="boundary" inkscape:connector-curvature="0" />
	<path style="fill:none;stroke:red;stroke-width:1px;stroke-linecap:butt;stroke-linejoin:miter;stroke-opacity:1" d="M 39.8123,545.959 41.006,557.897 z" id="boundary" inkscape:connector-curvature="0" />
	<path style="fill:none;stroke:red;stroke-width:1px;stroke-linecap:butt;stroke-linejoin:miter;stroke-opacity:1" d="M 41.006,557.897 45.781,569.834 z" id="boundary" inkscape:connector-curvature="0" />
	<path style="fill:none;stroke:red;stroke-width:1px;stroke-linecap:butt;stroke-linejoin:miter;stroke-opacity:1" d="M 45.781,569.834 45.781,581.771 z" id="boundary" inkscape:connector-curvature="0" />
	<path style="fill:none;stroke:red;stroke-width:1px;stroke-linecap:butt;stroke-linejoin:miter;stroke-opacity:1" d="M 45.781,581.771 45.781,593.709 z" id="boundary" inkscape:connector-curvature="0" />
	<path style="fill:none;stroke:red;stroke-width:1px;stroke-linecap:butt;stroke-linejoin:miter;stroke-opacity:1" d="M 45.781,593.709 46.9747,605.646 z" id="boundary" inkscape:connector-curvature="0" />
	<path style="fill:none;stroke:red;stroke-width:1px;stroke-linecap:butt;stroke-linejoin:miter;stroke-opacity:1" d="M 46.9747,605.646 51.7497,617.584 z" id="boundary" inkscape:connector-curvature="0" />
	<path style="fill:none;stroke:red;stroke-width:1px;stroke-linecap:butt;stroke-linejoin:miter;stroke-opacity:1" d="M 51.7497,617.584 57.7184,628.327 z" id="boundary" inkscape:connector-curvature="0" />
	<path style="fill:none;stroke:red;stroke-width:1px;stroke-linecap:butt;stroke-linejoin:miter;stroke-opacity:1" d="M 57.7184,628.327 57.7184,640.265 z" id="boundary" inkscape:connector-curvature="0" />
	<path style="fill:none;stroke:red;stroke-width:1px;stroke-linecap:butt;stroke-linejoin:miter;stroke-opacity:1" d="M 57.7184,640.265 63.6871,651.008 z" id="boundary" inkscape:connector-curvature="0" />
	<path style="fill:none;stroke:red;stroke-width:1px;stroke-linecap:butt;stroke-linejoin:miter;stroke-opacity:1" d="M 63.6871,651.008 63.6871,662.946 z" id="boundary" inkscape:connector-curvature="0" />
	<path style="fill:none;stroke:red;stroke-width:1px;stroke-linecap:butt;stroke-linejoin:miter;stroke-opacity:1" d="M 63.6871,662.946 72.0433,672.496 z" id="boundary" inkscape:connector-curvature="0" />
	<path style="fill:none;stroke:red;stroke-width:1px;stroke-linecap:butt;stroke-linejoin:miter;stroke-opacity:1" d="M 72.0433,672.496 78.012,683.239 z" id="boundary" inkscape:connector-curvature="0" />
	<path style="fill:none;stroke:red;stroke-width:1px;stroke-linecap:butt;stroke-linejoin:miter;stroke-opacity:1" d="M 78.012,683.239 87.562,691.596 z" id="boundary" inkscape:connector-curvature="0" />
	<path style="fill:none;stroke:red;stroke-width:1px;stroke-linecap:butt;stroke-linejoin:miter;stroke-opacity:1" d="M 87.562,691.596 98.3057,697.564 z" id="boundary" inkscape:connector-curvature="0" />
	<path style="fill:none;stroke:red;stroke-width:1px;stroke-linecap:butt;stroke-linejoin:miter;stroke-opacity:1" d="M 98.3057,697.564 105.468,707.114 z" id="boundary" inkscape:connector-curvature="0" />
	<path style="fill:none;stroke:red;stroke-width:1px;stroke-linecap:butt;stroke-linejoin:miter;stroke-opacity:1" d="M 105.468,707.114 111.437,717.858 z" id="boundary" inkscape:connector-curvature="0" />
	<path style="fill:none;stroke:red;stroke-width:1px;stroke-linecap:butt;stroke-linejoin:miter;stroke-opacity:1" d="M 111.437,717.858 111.437,729.795 z" id="boundary" inkscape:connector-curvature="0" />
	<path style="fill:none;stroke:red;stroke-width:1px;stroke-linecap:butt;stroke-linejoin:miter;stroke-opacity:1" d="M 111.437,729.795 111.437,741.733 z" id="boundary" inkscape:connector-curvature="0" />
	<path style="fill:none;stroke:red;stroke-width:1px;stroke-linecap:butt;stroke-linejoin:miter;stroke-opacity:1" d="M 111.437,741.733 105.468,753.67 z" id="boundary" inkscape:connector-curvature="0" />
	<path style="fill:none;stroke:red;stroke-width:1px;stroke-linecap:butt;stroke-linejoin:miter;stroke-opacity:1" d="M 4,311.986 9.96871,300.048 z" id="boundary" inkscape:connector-curvature="0" />
	<path style="fill:none;stroke:red;stroke-width:1px;stroke-linecap:butt;stroke-linejoin:miter;stroke-opacity:1" d="M 9.96871,300.048 15.9374,288.111 z" id="boundary" inkscape:connector-curvature="0" />
	<path style="fill:none;stroke:red;stroke-width:1px;stroke-linecap:butt;stroke-linejoin:miter;stroke-opacity:1" d="M 15.9374,288.111 21.9061,276.173 z" id="boundary" inkscape:connector-curvature="0" />
	<path style="fill:none;stroke:red;stroke-width:1px;stroke-linecap:butt;stroke-linejoin:miter;stroke-opacity:1" d="M 21.9061,276.173 31.4561,266.623 z" id="boundary" inkscape:connector-curvature="0" />
	<path style="fill:none;stroke:red;stroke-width:1px;stroke-linecap:butt;stroke-linejoin:miter;stroke-opacity:1" d="M 31.4561,266.623 41.006,257.073 z" id="boundary" inkscape:connector-curvature="0" />
	<path style="fill:none;stroke:red;stroke-width:1px;stroke-linecap:butt;stroke-linejoin:miter;stroke-opacity:1" d="M 41.006,257.073 52.9434,251.105 z" id="boundary" inkscape:connector-curvature="0" />
	<path style="fill:none;stroke:red;stroke-width:1px;stroke-linecap:butt;stroke-linejoin:miter;stroke-opacity:1" d="M 52.9434,251.105 62.4934,242.748 z" id="boundary" inkscape:connector-curvature="0" />
	<path style="fill:none;stroke:red;stroke-width:1px;stroke-linecap:butt;stroke-linejoin:miter;stroke-opacity:1" d="M 62.4934,242.748 69.6558,228.424 z" id="boundary" inkscape:connector-curvature="0" />
	<path style="fill:none;stroke:red;stroke-width:1px;stroke-linecap:butt;stroke-linejoin:miter;stroke-opacity:1" d="M 69.6558,228.424 75.6245,215.292 z" id="boundary" inkscape:connector-curvature="0" />
	<path style="fill:none;stroke:red;stroke-width:1px;stroke-linecap:butt;stroke-linejoin:miter;stroke-opacity:1" d="M 75.6245,215.292 75.6245,203.355 z" id="boundary" inkscape:connector-curvature="0" />
	<path style="fill:none;stroke:red;stroke-width:1px;stroke-linecap:butt;stroke-linejoin:miter;stroke-opacity:1" d="M 75.6245,203.355 69.6558,192.611 z" id="boundary" inkscape:connector-curvature="0" />
	<path style="fill:none;stroke:red;stroke-width:1px;stroke-linecap:butt;stroke-linejoin:miter;stroke-opacity:1" d="M 69.6558,192.611 61.2996,183.061 z" id="boundary" inkscape:connector-curvature="0" />
	<path style="fill:none;stroke:red;stroke-width:1px;stroke-linecap:butt;stroke-linejoin:miter;stroke-opacity:1" d="M 61.2996,183.061 51.7497,174.705 z" id="boundary" inkscape:connector-curvature="0" />
	<path style="fill:none;stroke:red;stroke-width:1px;stroke-linecap:butt;stroke-linejoin:miter;stroke-opacity:1" d="M 51.7497,174.705 43.3935,165.155 z" id="boundary" inkscape:connector-curvature="0" />
	<path style="fill:none;stroke:red;stroke-width:1px;stroke-linecap:butt;stroke-linejoin:miter;stroke-opacity:1" d="M 43.3935,165.155 37.4248,154.412 z" id="boundary" inkscape:connector-curvature="0" />
	<path style="fill:none;stroke:red;stroke-width:1px;stroke-linecap:butt;stroke-linejoin:miter;stroke-opacity:1" d="M 37.4248,154.412 33.8436,142.474 z" id="boundary" inkscape:connector-curvature="0" />
	<path style="fill:none;stroke:red;stroke-width:1px;stroke-linecap:butt;stroke-linejoin:miter;stroke-opacity:1" d="M 33.8436,142.474 27.8748,131.73 z" id="boundary" inkscape:connector-curvature="0" />
	<path style="fill:none;stroke:red;stroke-width:1px;stroke-linecap:butt;stroke-linejoin:miter;stroke-opacity:1" d="M 27.8748,131.73 21.9061,120.987 z" id="boundary" inkscape:connector-curvature="0" />
	<path style="fill:none;stroke:red;stroke-width:1px;stroke-linecap:butt;stroke-linejoin:miter;stroke-opacity:1" d="M 21.9061,120.987 21.9061,109.049 z" id="boundary" inkscape:connector-curvature="0" />
	<path style="fill:none;stroke:red;stroke-width:1px;stroke-linecap:butt;stroke-linejoin:miter;stroke-opacity:1" d="M 21.9061,109.049 21.9061,97.1119 z" id="boundary" inkscape:connector-curvature="0" />
	<path style="fill:none;stroke:red;stroke-width:1px;stroke-linecap:butt;stroke-linejoin:miter;stroke-opacity:1" d="M 21.9061,97.1119 21.9061,85.1745 z" id="boundary" inkscape:connector-curvature="0" />
	<path style="fill:none;stroke:red;stroke-width:1px;stroke-linecap:butt;stroke-linejoin:miter;stroke-opacity:1" d="M 21.9061,85.1745 21.9061,73.2371 z" id="boundary" inkscape:connector-curvature="0" />
	<path style="fill:none;stroke:red;stroke-width:1px;stroke-linecap:butt;stroke-linejoin:miter;stroke-opacity:1" d="M 21.9061,73.2371 27.8748,61.2996 z" id="boundary" inkscape:connector-curvature="0" />
	<path style="fill:none;stroke:red;stroke-width:1px;stroke-linecap:butt;stroke-linejoin:miter;stroke-opacity:1" d="M 27.8748,61.2996 33.8436,49.3622 z" id="boundary" inkscape:connector-curvature="0" />
	<path style="fill:none;stroke:red;stroke-width:1px;stroke-linecap:butt;stroke-linejoin:miter;stroke-opacity:1" d="M 33.8436,49.3622 43.3935,39.8123 z" id="boundary" inkscape:connector-curvature="0" />
	<path style="fill:none;stroke:red;stroke-width:1px;stroke-linecap:butt;stroke-linejoin:miter;stroke-opacity:1" d="M 43.3935,39.8123 52.9434,30.2623 z" id="boundary" inkscape:connector-curvature="0" />
	<path style="fill:none;stroke:red;stroke-width:1px;stroke-linecap:butt;stroke-linejoin:miter;stroke-opacity:1" d="M 52.9434,30.2623 64.8809,24.2936 z" id="boundary" inkscape:connector-curvature="0" />
	<path style="fill:none;stroke:red;stroke-width:1px;stroke-linecap:butt;stroke-linejoin:miter;stroke-opacity:1" d="M 64.8809,24.2936 74.4308,15.9374 z" id="boundary" inkscape:connector-curvature="0" />
	<path style="fill:none;stroke:red;stroke-width:1px;stroke-linecap:butt;stroke-linejoin:miter;stroke-opacity:1" d="M 74.4308,15.9374 85.1745,9.96871 z" id="boundary" inkscape:connector-curvature="0" />
	<path style="fill:none;stroke:red;stroke-width:1px;stroke-linecap:butt;stroke-linejoin:miter;stroke-opacity:1" d="M 85.1745,9.96871 97.1119,4 z" id="boundary" inkscape:connector-curvature="0" />
	<path style="fill:none;stroke:red;stroke-width:1px;stroke-linecap:butt;stroke-linejoin:miter;stroke-opacity:1" d="M 97.1119,4 109.049,4 z" id="boundary" inkscape:connector-curvature="0" />
	<path style="fill:none;stroke:red;stroke-width:1px;stroke-linecap:butt;stroke-linejoin:miter;stroke-opacity:1" d="M 109.049,4 120.987,4 z" id="boundary" inkscape:connector-curvature="0" />
	<path style="fill:none;stroke:red;stroke-width:1px;stroke-linecap:butt;stroke-linejoin:miter;stroke-opacity:1" d="M 120.987,4 132.924,4 z" id="boundary" inkscape:connector-curvature="0" />
	<path style="fill:none;stroke:red;stroke-width:1px;stroke-linecap:butt;stroke-linejoin:miter;stroke-opacity:1" d="M 132.924,4 144.862,4 z" id="boundary" inkscape:connector-curvature="0" />
	<path style="fill:none;stroke:red;stroke-width:1px;stroke-linecap:butt;stroke-linejoin:miter;stroke-opacity:1" d="M 144.862,4 156.799,4 z" id="boundary" inkscape:connector-curvature="0" />
	<path style="fill:none;stroke:red;stroke-width:1px;stroke-linecap:butt;stroke-linejoin:miter;stroke-opacity:1" d="M 156.799,4 167.543,9.96871 z" id="boundary" inkscape:connector-curvature="0" />
	<path style="fill:none;stroke:red;stroke-width:1px;stroke-linecap:butt;stroke-linejoin:miter;stroke-opacity:1" d="M 167.543,9.96871 179.48,9.96871 z" id="boundary" inkscape:connector-curvature="0" />
	<path style="fill:none;stroke:red;stroke-width:1px;stroke-linecap:butt;stroke-linejoin:miter;stroke-opacity:1" d="M 179.48,9.96871 190.224,15.9374 z" id="boundary" inkscape:connector-curvature="0" />
	<path style="fill:none;stroke:red;stroke-width:1px;stroke-linecap:butt;stroke-linejoin:miter;stroke-opacity:1" d="M 190.224,15.9374 202.161,15.9374 z" id="boundary" inkscape:connector-curvature="0" />
	<path style="fill:none;stroke:red;stroke-width:1px;stroke-linecap:butt;stroke-linejoin:miter;stroke-opacity:1" d="M 202.161,15.9374 212.905,21.9061 z" id="boundary" inkscape:connector-curvature="0" />
	<path style="fill:none;stroke:red;stroke-width:1px;stroke-linecap:butt;stroke-linejoin:miter;stroke-opacity:1" d="M 212.905,21.9061 223.649,27.8748 z" id="boundary" inkscape:connector-curvature="0" />
	<path style="fill:none;stroke:red;stroke-width:1px;stroke-linecap:butt;stroke-linejoin:miter;stroke-opacity:1" d="M 223.649,27.8748 234.392,33.8436 z" id="boundary" inkscape:connector-curvature="0" />
	<path style="fill:none;stroke:red;stroke-width:1px;stroke-linecap:butt;stroke-linejoin:miter;stroke-opacity:1" d="M 234.392,33.8436 242.748,43.3935 z" id="boundary" inkscape:connector-curvature="0" />
	<path style="fill:none;stroke:red;stroke-width:1px;stroke-linecap:butt;stroke-linejoin:miter;stroke-opacity:1" d="M 242.748,43.3935 252.298,51.7497 z" id="boundary" inkscape:connector-curvature="0" />
	<path style="fill:none;stroke:red;stroke-width:1px;stroke-linecap:butt;stroke-linejoin:miter;stroke-opacity:1" d="M 252.298,51.7497 255.88,63.6871 z" id="boundary" inkscape:connector-curvature="0" />
	<path style="fill:none;stroke:red;stroke-width:1px;stroke-linecap:butt;stroke-linejoin:miter;stroke-opacity:1" d="M 255.88,63.6871 261.848,74.4308 z" id="boundary" inkscape:connector-curvature="0" />
	<path style="fill:none;stroke:red;stroke-width:1px;stroke-linecap:butt;stroke-linejoin:miter;stroke-opacity:1" d="M 261.848,74.4308 267.817,85.1745 z" id="boundary" inkscape:connector-curvature="0" />
	<path style="fill:none;stroke:red;stroke-width:1px;stroke-linecap:butt;stroke-linejoin:miter;stroke-opacity:1" d="M 267.817,85.1745 267.817,97.1119 z" id="boundary" inkscape:connector-curvature="0" />
	<path style="fill:none;stroke:red;stroke-width:1px;stroke-linecap:butt;stroke-linejoin:miter;stroke-opacity:1" d="M 267.817,97.1119 267.817,109.049 z" id="boundary" inkscape:connector-curvature="0" />
	<path style="fill:none;stroke:red;stroke-width:1px;stroke-linecap:butt;stroke-linejoin:miter;stroke-opacity:1" d="M 267.817,109.049 267.817,120.987 z" id="boundary" inkscape:connector-curvature="0" />
	<path style="fill:none;stroke:red;stroke-width:1px;stroke-linecap:butt;stroke-linejoin:miter;stroke-opacity:1" d="M 267.817,120.987 267.817,132.924 z" id="boundary" inkscape:connector-curvature="0" />
	<path style="fill:none;stroke:red;stroke-width:1px;stroke-linecap:butt;stroke-linejoin:miter;stroke-opacity:1" d="M 267.817,132.924 267.817,144.862 z" id="boundary" inkscape:connector-curvature="0" />
	<path style="fill:none;stroke:red;stroke-width:1px;stroke-linecap:butt;stroke-linejoin:miter;stroke-opacity:1" d="M 267.817,144.862 267.817,156.799 z" id="boundary" inkscape:connector-curvature="0" />
	<path style="fill:none;stroke:red;stroke-width:1px;stroke-linecap:butt;stroke-linejoin:miter;stroke-opacity:1" d="M 267.817,156.799 267.817,168.736 z" id="boundary" inkscape:connector-curvature="0" />
	<path style="fill:none;stroke:red;stroke-width:1px;stroke-linecap:butt;stroke-linejoin:miter;stroke-opacity:1" d="M 105.468,753.67 99.4994,771.576 z" id="boundary" inkscape:connector-curvature="0" />
	<path style="fill:none;stroke:red;stroke-width:1px;stroke-linecap:butt;stroke-linejoin:miter;stroke-opacity:1" d="M 99.4994,771.576 93.5307,783.514 z" id="boundary" inkscape:connector-curvature="0" />
	<path style="fill:none;stroke:red;stroke-width:1px;stroke-linecap:butt;stroke-linejoin:miter;stroke-opacity:1" d="M 93.5307,783.514 87.562,801.42 z" id="boundary" inkscape:connector-curvature="0" />
	<path style="fill:none;stroke:red;stroke-width:1px;stroke-linecap:butt;stroke-linejoin:miter;stroke-opacity:1" d="M 87.562,801.42 87.562,813.357 z" id="boundary" inkscape:connector-curvature="0" />
	<path style="fill:none;stroke:red;stroke-width:1px;stroke-linecap:butt;stroke-linejoin:miter;stroke-opacity:1" d="M 87.562,813.357 87.562,825.295 z" id="boundary" inkscape:connector-curvature="0" />
	<path style="fill:none;stroke:red;stroke-width:1px;stroke-linecap:butt;stroke-linejoin:miter;stroke-opacity:1" d="M 87.562,825.295 93.5307,836.039 z" id="boundary" inkscape:connector-curvature="0" />
	<path style="fill:none;stroke:red;stroke-width:1px;stroke-linecap:butt;stroke-linejoin:miter;stroke-opacity:1" d="M 93.5307,836.039 93.5307,847.976 z" id="boundary" inkscape:connector-curvature="0" />
	<path style="fill:none;stroke:red;stroke-width:1px;stroke-linecap:butt;stroke-linejoin:miter;stroke-opacity:1" d="M 93.5307,847.976 99.4994,858.72 z" id="boundary" inkscape:connector-curvature="0" />
	<path style="fill:none;stroke:red;stroke-width:1px;stroke-linecap:butt;stroke-linejoin:miter;stroke-opacity:1" d="M 99.4994,858.72 103.081,870.657 z" id="boundary" inkscape:connector-curvature="0" />
	<path style="fill:none;stroke:red;stroke-width:1px;stroke-linecap:butt;stroke-linejoin:miter;stroke-opacity:1" d="M 103.081,870.657 105.468,882.594 z" id="boundary" inkscape:connector-curvature="0" />
	<path style="fill:none;stroke:red;stroke-width:1px;stroke-linecap:butt;stroke-linejoin:miter;stroke-opacity:1" d="M 105.468,882.594 111.437,893.338 z" id="boundary" inkscape:connector-curvature="0" />
	<path style="fill:none;stroke:red;stroke-width:1px;stroke-linecap:butt;stroke-linejoin:miter;stroke-opacity:1" d="M 111.437,893.338 105.468,914.826 z" id="boundary" inkscape:connector-curvature="0" />
	<path style="fill:none;stroke:red;stroke-width:1px;stroke-linecap:butt;stroke-linejoin:miter;stroke-opacity:1" d="M 105.468,914.826 105.468,926.763 z" id="boundary" inkscape:connector-curvature="0" />
	<path style="fill:none;stroke:red;stroke-width:1px;stroke-linecap:butt;stroke-linejoin:miter;stroke-opacity:1" d="M 105.468,926.763 99.4994,938.7 z" id="boundary" inkscape:connector-curvature="0" />
	<path style="fill:none;stroke:red;stroke-width:1px;stroke-linecap:butt;stroke-linejoin:miter;stroke-opacity:1" d="M 99.4994,938.7 99.4994,950.638 z" id="boundary" inkscape:connector-curvature="0" />
	<path style="fill:none;stroke:red;stroke-width:1px;stroke-linecap:butt;stroke-linejoin:miter;stroke-opacity:1" d="M 99.4994,950.638 99.4994,962.575 z" id="boundary" inkscape:connector-curvature="0" />
	<path style="fill:none;stroke:red;stroke-width:1px;stroke-linecap:butt;stroke-linejoin:miter;stroke-opacity:1" d="M 99.4994,962.575 109.049,970.931 z" id="boundary" inkscape:connector-curvature="0" />
	<path style="fill:none;stroke:red;stroke-width:1px;stroke-linecap:butt;stroke-linejoin:miter;stroke-opacity:1" d="M 109.049,970.931 118.599,978.094 z" id="boundary" inkscape:connector-curvature="0" />
	<path style="fill:none;stroke:red;stroke-width:1px;stroke-linecap:butt;stroke-linejoin:miter;stroke-opacity:1" d="M 118.599,978.094 129.343,984.063 z" id="boundary" inkscape:connector-curvature="0" />
	<path style="fill:none;stroke:red;stroke-width:1px;stroke-linecap:butt;stroke-linejoin:miter;stroke-opacity:1" d="M 129.343,984.063 141.28,984.063 z" id="boundary" inkscape:connector-curvature="0" />
	<path style="fill:none;stroke:red;stroke-width:1px;stroke-linecap:butt;stroke-linejoin:miter;stroke-opacity:1" d="M 141.28,984.063 152.024,990.031 z" id="boundary" inkscape:connector-curvature="0" />
	<path style="fill:none;stroke:red;stroke-width:1px;stroke-linecap:butt;stroke-linejoin:miter;stroke-opacity:1" d="M 152.024,990.031 163.961,990.031 z" id="boundary" inkscape:connector-curvature="0" />
	<path style="fill:none;stroke:red;stroke-width:1px;stroke-linecap:butt;stroke-linejoin:miter;stroke-opacity:1" d="M 163.961,990.031 174.705,996 z" id="boundary" inkscape:connector-curvature="0" />
	<path style="fill:none;stroke:red;stroke-width:1px;stroke-linecap:butt;stroke-linejoin:miter;stroke-opacity:1" d="M 174.705,996 186.643,996 z" id="boundary" inkscape:connector-curvature="0" />
	<path style="fill:none;stroke:red;stroke-width:1px;stroke-linecap:butt;stroke-linejoin:miter;stroke-opacity:1" d="M 186.643,996 198.58,996 z" id="boundary" inkscape:connector-curvature="0" />
	<path style="fill:none;stroke:red;stroke-width:1px;stroke-linecap:butt;stroke-linejoin:miter;stroke-opacity:1" d="M 198.58,996 210.517,996 z" id="boundary" inkscape:connector-curvature="0" />
	<path style="fill:none;stroke:red;stroke-width:1px;stroke-linecap:butt;stroke-linejoin:miter;stroke-opacity:1" d="M 210.517,996 222.455,996 z" id="boundary" inkscape:connector-curvature="0" />
	<path style="fill:none;stroke:red;stroke-width:1px;stroke-linecap:butt;stroke-linejoin:miter;stroke-opacity:1" d="M 222.455,996 234.392,996 z" id="boundary" inkscape:connector-curvature="0" />
	<path style="fill:none;stroke:red;stroke-width:1px;stroke-linecap:butt;stroke-linejoin:miter;stroke-opacity:1" d="M 234.392,996 246.33,996 z" id="boundary" inkscape:connector-curvature="0" />
	<path style="fill:none;stroke:red;stroke-width:1px;stroke-linecap:butt;stroke-linejoin:miter;stroke-opacity:1" d="M 246.33,996 258.267,996 z" id="boundary" inkscape:connector-curvature="0" />
	<path style="fill:none;stroke:red;stroke-width:1px;stroke-linecap:butt;stroke-linejoin:miter;stroke-opacity:1" d="M 258.267,996 270.205,994.806 z" id="boundary" inkscape:connector-curvature="0" />
	<path style="fill:none;stroke:red;stroke-width:1px;stroke-linecap:butt;stroke-linejoin:miter;stroke-opacity:1" d="M 270.205,994.806 279.755,984.063 z" id="boundary" inkscape:connector-curvature="0" />
	<path style="fill:none;stroke:red;stroke-width:1px;stroke-linecap:butt;stroke-linejoin:miter;stroke-opacity:1" d="M 279.755,984.063 290.498,978.094 z" id="boundary" inkscape:connector-curvature="0" />
	<path style="fill:none;stroke:red;stroke-width:1px;stroke-linecap:butt;stroke-linejoin:miter;stroke-opacity:1" d="M 290.498,978.094 301.242,972.125 z" id="boundary" inkscape:connector-curvature="0" />
	<path style="fill:none;stroke:red;stroke-width:1px;stroke-linecap:butt;stroke-linejoin:miter;stroke-opacity:1" d="M 301.242,972.125 313.179,972.125 z" id="boundary" inkscape:connector-curvature="0" />
	<path style="fill:none;stroke:red;stroke-width:1px;stroke-linecap:butt;stroke-linejoin:miter;stroke-opacity:1" d="M 313.179,972.125 325.117,969.738 z" id="boundary" inkscape:connector-curvature="0" />
	<path style="fill:none;stroke:red;stroke-width:1px;stroke-linecap:butt;stroke-linejoin:miter;stroke-opacity:1" d="M 325.117,969.738 333.473,960.188 z" id="boundary" inkscape:connector-curvature="0" />
	<path style="fill:none;stroke:red;stroke-width:1px;stroke-linecap:butt;stroke-linejoin:miter;stroke-opacity:1" d="M 333.473,960.188 339.442,944.669 z" id="boundary" inkscape:connector-curvature="0" />
	<path style="fill:none;stroke:red;stroke-width:1px;stroke-linecap:butt;stroke-linejoin:miter;stroke-opacity:1" d="M 339.442,944.669 329.892,936.313 z" id="boundary" inkscape:connector-curvature="0" />
	<path style="fill:none;stroke:red;stroke-width:1px;stroke-linecap:butt;stroke-linejoin:miter;stroke-opacity:1" d="M 329.892,936.313 321.535,926.763 z" id="boundary" inkscape:connector-curvature="0" />
	<path style="fill:none;stroke:red;stroke-width:1px;stroke-linecap:butt;stroke-linejoin:miter;stroke-opacity:1" d="M 321.535,926.763 309.598,923.182 z" id="boundary" inkscape:connector-curvature="0" />
	<path style="fill:none;stroke:red;stroke-width:1px;stroke-linecap:butt;stroke-linejoin:miter;stroke-opacity:1" d="M 309.598,923.182 297.661,923.182 z" id="boundary" inkscape:connector-curvature="0" />
	<path style="fill:none;stroke:red;stroke-width:1px;stroke-linecap:butt;stroke-linejoin:miter;stroke-opacity:1" d="M 297.661,923.182 286.917,917.213 z" id="boundary" inkscape:connector-curvature="0" />
	<path style="fill:none;stroke:red;stroke-width:1px;stroke-linecap:butt;stroke-linejoin:miter;stroke-opacity:1" d="M 286.917,917.213 276.173,911.244 z" id="boundary" inkscape:connector-curvature="0" />
	<path style="fill:none;stroke:red;stroke-width:1px;stroke-linecap:butt;stroke-linejoin:miter;stroke-opacity:1" d="M 276.173,911.244 265.43,905.276 z" id="boundary" inkscape:connector-curvature="0" />
	<path style="fill:none;stroke:red;stroke-width:1px;stroke-linecap:butt;stroke-linejoin:miter;stroke-opacity:1" d="M 265.43,905.276 255.88,896.919 z" id="boundary" inkscape:connector-curvature="0" />
	<path style="fill:none;stroke:red;stroke-width:1px;stroke-linecap:butt;stroke-linejoin:miter;stroke-opacity:1" d="M 255.88,896.919 246.33,888.563 z" id="boundary" inkscape:connector-curvature="0" />
	<path style="fill:none;stroke:red;stroke-width:1px;stroke-linecap:butt;stroke-linejoin:miter;stroke-opacity:1" d="M 246.33,888.563 243.942,876.626 z" id="boundary" inkscape:connector-curvature="0" />
	<path style="fill:none;stroke:red;stroke-width:1px;stroke-linecap:butt;stroke-linejoin:miter;stroke-opacity:1" d="M 243.942,876.626 249.911,858.72 z" id="boundary" inkscape:connector-curvature="0" />
	<path style="fill:none;stroke:red;stroke-width:1px;stroke-linecap:butt;stroke-linejoin:miter;stroke-opacity:1" d="M 249.911,858.72 255.88,846.782 z" id="boundary" inkscape:connector-curvature="0" />
	<path style="fill:none;stroke:red;stroke-width:1px;stroke-linecap:butt;stroke-linejoin:miter;stroke-opacity:1" d="M 255.88,846.782 261.848,828.876 z" id="boundary" inkscape:connector-curvature="0" />
	<path style="fill:none;stroke:red;stroke-width:1px;stroke-linecap:butt;stroke-linejoin:miter;stroke-opacity:1" d="M 261.848,828.876 267.817,810.97 z" id="boundary" inkscape:connector-curvature="0" />
	<path style="fill:none;stroke:red;stroke-width:1px;stroke-linecap:butt;stroke-linejoin:miter;stroke-opacity:1" d="M 267.817,810.97 273.786,793.064 z" id="boundary" inkscape:connector-curvature="0" />
	<path style="fill:none;stroke:red;stroke-width:1px;stroke-linecap:butt;stroke-linejoin:miter;stroke-opacity:1" d="M 273.786,793.064 273.786,781.126 z" id="boundary" inkscape:connector-curvature="0" />
	<path style="fill:none;stroke:red;stroke-width:1px;stroke-linecap:butt;stroke-linejoin:miter;stroke-opacity:1" d="M 273.786,781.126 279.755,763.22 z" id="boundary" inkscape:connector-curvature="0" />
	<path style="fill:none;stroke:red;stroke-width:1px;stroke-linecap:butt;stroke-linejoin:miter;stroke-opacity:1" d="M 279.755,763.22 285.723,751.283 z" id="boundary" inkscape:connector-curvature="0" />
	<path style="fill:none;stroke:red;stroke-width:1px;stroke-linecap:butt;stroke-linejoin:miter;stroke-opacity:1" d="M 285.723,751.283 291.692,739.345 z" id="boundary" inkscape:connector-curvature="0" />
	<path style="fill:none;stroke:red;stroke-width:1px;stroke-linecap:butt;stroke-linejoin:miter;stroke-opacity:1" d="M 291.692,739.345 297.661,721.439 z" id="boundary" inkscape:connector-curvature="0" />
	<path style="fill:none;stroke:red;stroke-width:1px;stroke-linecap:butt;stroke-linejoin:miter;stroke-opacity:1" d="M 297.661,721.439 297.661,709.502 z" id="boundary" inkscape:connector-curvature="0" />
	<path style="fill:none;stroke:red;stroke-width:1px;stroke-linecap:butt;stroke-linejoin:miter;stroke-opacity:1" d="M 297.661,709.502 294.079,697.564 z" id="boundary" inkscape:connector-curvature="0" />
	<path style="fill:none;stroke:red;stroke-width:1px;stroke-linecap:butt;stroke-linejoin:miter;stroke-opacity:1" d="M 294.079,697.564 291.692,685.627 z" id="boundary" inkscape:connector-curvature="0" />
	<path style="fill:none;stroke:red;stroke-width:1px;stroke-linecap:butt;stroke-linejoin:miter;stroke-opacity:1" d="M 291.692,685.627 291.692,673.69 z" id="boundary" inkscape:connector-curvature="0" />
	<path style="fill:none;stroke:red;stroke-width:1px;stroke-linecap:butt;stroke-linejoin:miter;stroke-opacity:1" d="M 291.692,673.69 301.242,665.333 z" id="boundary" inkscape:connector-curvature="0" />
	<path style="fill:none;stroke:red;stroke-width:1px;stroke-linecap:butt;stroke-linejoin:miter;stroke-opacity:1" d="M 301.242,665.333 309.598,655.783 z" id="boundary" inkscape:connector-curvature="0" />
	<path style="fill:none;stroke:red;stroke-width:1px;stroke-linecap:butt;stroke-linejoin:miter;stroke-opacity:1" d="M 309.598,655.783 319.148,647.427 z" id="boundary" inkscape:connector-curvature="0" />
	<path style="fill:none;stroke:red;stroke-width:1px;stroke-linecap:butt;stroke-linejoin:miter;stroke-opacity:1" d="M 319.148,647.427 317.954,631.909 z" id="boundary" inkscape:connector-curvature="0" />
	<path style="fill:none;stroke:red;stroke-width:1px;stroke-linecap:butt;stroke-linejoin:miter;stroke-opacity:1" d="M 317.954,631.909 315.567,619.971 z" id="boundary" inkscape:connector-curvature="0" />
	<path style="fill:none;stroke:red;stroke-width:1px;stroke-linecap:butt;stroke-linejoin:miter;stroke-opacity:1" d="M 315.567,619.971 321.535,608.034 z" id="boundary" inkscape:connector-curvature="0" />
	<path style="fill:none;stroke:red;stroke-width:1px;stroke-linecap:butt;stroke-linejoin:miter;stroke-opacity:1" d="M 321.535,608.034 332.279,602.065 z" id="boundary" inkscape:connector-curvature="0" />
	<path style="fill:none;stroke:red;stroke-width:1px;stroke-linecap:butt;stroke-linejoin:miter;stroke-opacity:1" d="M 332.279,602.065 341.829,594.903 z" id="boundary" inkscape:connector-curvature="0" />
	<path style="fill:none;stroke:red;stroke-width:1px;stroke-linecap:butt;stroke-linejoin:miter;stroke-opacity:1" d="M 341.829,594.903 347.798,582.965 z" id="boundary" inkscape:connector-curvature="0" />
	<path style="fill:none;stroke:red;stroke-width:1px;stroke-linecap:butt;stroke-linejoin:miter;stroke-opacity:1" d="M 347.798,582.965 351.379,562.671 z" id="boundary" inkscape:connector-curvature="0" />
	<path style="fill:none;stroke:red;stroke-width:1px;stroke-linecap:butt;stroke-linejoin:miter;stroke-opacity:1" d="M 351.379,562.671 345.41,551.928 z" id="boundary" inkscape:connector-curvature="0" />
	<path style="fill:none;stroke:red;stroke-width:1px;stroke-linecap:butt;stroke-linejoin:miter;stroke-opacity:1" d="M 345.41,551.928 339.442,541.184 z" id="boundary" inkscape:connector-curvature="0" />
	<path style="fill:none;stroke:red;stroke-width:1px;stroke-linecap:butt;stroke-linejoin:miter;stroke-opacity:1" d="M 339.442,541.184 339.442,529.247 z" id="boundary" inkscape:connector-curvature="0" />
	<path style="fill:none;stroke:red;stroke-width:1px;stroke-linecap:butt;stroke-linejoin:miter;stroke-opacity:1" d="M 339.442,529.247 333.473,518.503 z" id="boundary" inkscape:connector-curvature="0" />
	<path style="fill:none;stroke:red;stroke-width:1px;stroke-linecap:butt;stroke-linejoin:miter;stroke-opacity:1" d="M 333.473,518.503 333.473,506.566 z" id="boundary" inkscape:connector-curvature="0" />
	<path style="fill:none;stroke:red;stroke-width:1px;stroke-linecap:butt;stroke-linejoin:miter;stroke-opacity:1" d="M 333.473,506.566 327.504,495.822 z" id="boundary" inkscape:connector-curvature="0" />
	<path style="fill:none;stroke:red;stroke-width:1px;stroke-linecap:butt;stroke-linejoin:miter;stroke-opacity:1" d="M 327.504,495.822 325.117,483.884 z" id="boundary" inkscape:connector-curvature="0" />
	<path style="fill:none;stroke:red;stroke-width:1px;stroke-linecap:butt;stroke-linejoin:miter;stroke-opacity:1" d="M 325.117,483.884 321.535,471.947 z" id="boundary" inkscape:connector-curvature="0" />
	<path style="fill:none;stroke:red;stroke-width:1px;stroke-linecap:butt;stroke-linejoin:miter;stroke-opacity:1" d="M 321.535,471.947 315.567,461.203 z" id="boundary" inkscape:connector-curvature="0" />
	<path style="fill:none;stroke:red;stroke-width:1px;stroke-linecap:butt;stroke-linejoin:miter;stroke-opacity:1" d="M 315.567,461.203 315.567,449.266 z" id="boundary" inkscape:connector-curvature="0" />
	<path style="fill:none;stroke:red;stroke-width:1px;stroke-linecap:butt;stroke-linejoin:miter;stroke-opacity:1" d="M 315.567,449.266 309.598,438.522 z" id="boundary" inkscape:connector-curvature="0" />
	<path style="fill:none;stroke:red;stroke-width:1px;stroke-linecap:butt;stroke-linejoin:miter;stroke-opacity:1" d="M 309.598,438.522 309.598,426.585 z" id="boundary" inkscape:connector-curvature="0" />
	<path style="fill:none;stroke:red;stroke-width:1px;stroke-linecap:butt;stroke-linejoin:miter;stroke-opacity:1" d="M 309.598,426.585 303.629,415.841 z" id="boundary" inkscape:connector-curvature="0" />
	<path style="fill:none;stroke:red;stroke-width:1px;stroke-linecap:butt;stroke-linejoin:miter;stroke-opacity:1" d="M 303.629,415.841 297.661,405.097 z" id="boundary" inkscape:connector-curvature="0" />
	<path style="fill:none;stroke:red;stroke-width:1px;stroke-linecap:butt;stroke-linejoin:miter;stroke-opacity:1" d="M 297.661,405.097 294.079,393.16 z" id="boundary" inkscape:connector-curvature="0" />
	<path style="fill:none;stroke:red;stroke-width:1px;stroke-linecap:butt;stroke-linejoin:miter;stroke-opacity:1" d="M 294.079,393.16 291.692,381.223 z" id="boundary" inkscape:connector-curvature="0" />
	<path style="fill:none;stroke:red;stroke-width:1px;stroke-linecap:butt;stroke-linejoin:miter;stroke-opacity:1" d="M 291.692,381.223 291.692,369.285 z" id="boundary" inkscape:connector-curvature="0" />
	<path style="fill:none;stroke:red;stroke-width:1px;stroke-linecap:butt;stroke-linejoin:miter;stroke-opacity:1" d="M 291.692,369.285 297.661,357.348 z" id="boundary" inkscape:connector-curvature="0" />
	<path style="fill:none;stroke:red;stroke-width:1px;stroke-linecap:butt;stroke-linejoin:miter;stroke-opacity:1" d="M 297.661,357.348 297.661,345.41 z" id="boundary" inkscape:connector-curvature="0" />
	<path style="fill:none;stroke:red;stroke-width:1px;stroke-linecap:butt;stroke-linejoin:miter;stroke-opacity:1" d="M 297.661,345.41 294.079,333.473 z" id="boundary" inkscape:connector-curvature="0" />
	<path style="fill:none;stroke:red;stroke-width:1px;stroke-linecap:butt;stroke-linejoin:miter;stroke-opacity:1" d="M 294.079,333.473 291.692,321.535 z" id="boundary" inkscape:connector-curvature="0" />
	<path style="fill:none;stroke:red;stroke-width:1px;stroke-linecap:butt;stroke-linejoin:miter;stroke-opacity:1" d="M 291.692,321.535 285.723,310.792 z" id="boundary" inkscape:connector-curvature="0" />
	<path style="fill:none;stroke:red;stroke-width:1px;stroke-linecap:butt;stroke-linejoin:miter;stroke-opacity:1" d="M 285.723,310.792 285.723,298.854 z" id="boundary" inkscape:connector-curvature="0" />
	<path style="fill:none;stroke:red;stroke-width:1px;stroke-linecap:butt;stroke-linejoin:miter;stroke-opacity:1" d="M 285.723,298.854 285.723,286.917 z" id="boundary" inkscape:connector-curvature="0" />
	<path style="fill:none;stroke:red;stroke-width:1px;stroke-linecap:butt;stroke-linejoin:miter;stroke-opacity:1" d="M 285.723,286.917 279.755,276.173 z" id="boundary" inkscape:connector-curvature="0" />
	<path style="fill:none;stroke:red;stroke-width:1px;stroke-linecap:butt;stroke-linejoin:miter;stroke-opacity:1" d="M 279.755,276.173 273.786,265.43 z" id="boundary" inkscape:connector-curvature="0" />
	<path style="fill:none;stroke:red;stroke-width:1px;stroke-linecap:butt;stroke-linejoin:miter;stroke-opacity:1" d="M 273.786,265.43 265.43,255.88 z" id="boundary" inkscape:connector-curvature="0" />
	<path style="fill:none;stroke:red;stroke-width:1px;stroke-linecap:butt;stroke-linejoin:miter;stroke-opacity:1" d="M 265.43,255.88 255.88,248.717 z" id="boundary" inkscape:connector-curvature="0" />
	<path style="fill:none;stroke:red;stroke-width:1px;stroke-linecap:butt;stroke-linejoin:miter;stroke-opacity:1" d="M 255.88,248.717 249.911,237.974 z" id="boundary" inkscape:connector-curvature="0" />
	<path style="fill:none;stroke:red;stroke-width:1px;stroke-linecap:butt;stroke-linejoin:miter;stroke-opacity:1" d="M 249.911,237.974 249.911,226.036 z" id="boundary" inkscape:connector-curvature="0" />
	<path style="fill:none;stroke:red;stroke-width:1px;stroke-linecap:butt;stroke-linejoin:miter;stroke-opacity:1" d="M 249.911,226.036 255.88,208.13 z" id="boundary" inkscape:connector-curvature="0" />
	<path style="fill:none;stroke:red;stroke-width:1px;stroke-linecap:butt;stroke-linejoin:miter;stroke-opacity:1" d="M 255.88,208.13 261.848,190.224 z" id="boundary" inkscape:connector-curvature="0" />
	<path style="fill:none;stroke:red;stroke-width:1px;stroke-linecap:butt;stroke-linejoin:miter;stroke-opacity:1" d="M 267.817,168.736 261.848,190.224 z" id="boundary" inkscape:connector-curvature="0" />
	<circle cx="4" cy="311.986" r="4" fill="#0" id="circle0"/>
	<circle cx="4" cy="323.923" r="4" fill="#0" id="circle1"/>
	<circle cx="4" cy="335.86" r="4" fill="#0" id="circle2"/>
	<circle cx="4" cy="347.798" r="4" fill="#0" id="circle3"/>
	<circle cx="4" cy="359.735" r="4" fill="#0" id="circle4"/>
	<circle cx="4" cy="371.673" r="4" fill="#0" id="circle5"/>
	<circle cx="9.96871" cy="300.048" r="4" fill="#0" id="circle6"/>
	<circle cx="9.96871" cy="382.416" r="4" fill="#0" id="circle7"/>
	<circle cx="15.9374" cy="288.111" r="4" fill="#0" id="circle8"/>
	<circle cx="15.9374" cy="393.16" r="4" fill="#0" id="circle9"/>
	<circle cx="15.9374" cy="405.097" r="4" fill="#0" id="circle10"/>
	<circle cx="15.9374" cy="417.035" r="4" fill="#0" id="circle11"/>
	<circle cx="15.9374" cy="428.972" r="4" fill="#0" id="circle12"/>
	<circle cx="15.9374" cy="440.91" r="4" fill="#0" id="circle13"/>
	<circle cx="15.9374" cy="452.847" r="4" fill="#0" id="circle14"/>
	<circle cx="19.5187" cy="464.785" r="4" fill="#0" id="circle15"/>
	<circle cx="21.9061" cy="73.2371" r="4" fill="#0" id="circle16"/>
	<circle cx="21.9061" cy="85.1745" r="4" fill="#0" id="circle17"/>
	<circle cx="21.9061" cy="97.1119" r="4" fill="#0" id="circle18"/>
	<circle cx="21.9061" cy="109.049" r="4" fill="#0" id="circle19"/>
	<circle cx="21.9061" cy="120.987" r="4" fill="#0" id="circle20"/>
	<circle cx="21.9061" cy="276.173" r="4" fill="#0" id="circle21"/>
	<circle cx="21.9061" cy="476.722" r="4" fill="#0" id="circle22"/>
	<circle cx="27.8748" cy="61.2996" r="4" fill="#0" id="circle23"/>
	<circle cx="27.8748" cy="131.73" r="4" fill="#0" id="circle24"/>
	<circle cx="27.8748" cy="487.466" r="4" fill="#0" id="circle25"/>
	<circle cx="27.8748" cy="499.403" r="4" fill="#0" id="circle26"/>
	<circle cx="31.4561" cy="266.623" r="4" fill="#0" id="circle27"/>
	<circle cx="33.8436" cy="49.3622" r="4" fill="#0" id="circle28"/>
	<circle cx="33.8436" cy="142.474" r="4" fill="#0" id="circle29"/>
	<circle cx="33.8436" cy="510.147" r="4" fill="#0" id="circle30"/>
	<circle cx="35.0373" cy="522.084" r="4" fill="#0" id="circle31"/>
	<circle cx="37.4248" cy="154.412" r="4" fill="#0" id="circle32"/>
	<circle cx="39.8123" cy="534.022" r="4" fill="#0" id="circle33"/>
	<circle cx="39.8123" cy="545.959" r="4" fill="#0" id="circle34"/>
	<circle cx="41.006" cy="257.073" r="4" fill="#0" id="circle35"/>
	<circle cx="41.006" cy="557.897" r="4" fill="#0" id="circle36"/>
	<circle cx="43.3935" cy="39.8123" r="4" fill="#0" id="circle37"/>
	<circle cx="43.3935" cy="165.155" r="4" fill="#0" id="circle38"/>
	<circle cx="45.781" cy="569.834" r="4" fill="#0" id="circle39"/>
	<circle cx="45.781" cy="581.771" r="4" fill="#0" id="circle40"/>
	<circle cx="45.781" cy="593.709" r="4" fill="#0" id="circle41"/>
	<circle cx="46.9747" cy="605.646" r="4" fill="#0" id="circle42"/>
	<circle cx="51.7497" cy="174.705" r="4" fill="#0" id="circle43"/>
	<circle cx="51.7497" cy="617.584" r="4" fill="#0" id="circle44"/>
	<circle cx="52.9434" cy="30.2623" r="4" fill="#0" id="circle45"/>
	<circle cx="52.9434" cy="251.105" r="4" fill="#0" id="circle46"/>
	<circle cx="57.7184" cy="628.327" r="4" fill="#0" id="circle47"/>
	<circle cx="57.7184" cy="640.265" r="4" fill="#0" id="circle48"/>
	<circle cx="61.2996" cy="183.061" r="4" fill="#0" id="circle49"/>
	<circle cx="62.4934" cy="242.748" r="4" fill="#0" id="circle50"/>
	<circle cx="63.6871" cy="651.008" r="4" fill="#0" id="circle51"/>
	<circle cx="63.6871" cy="662.946" r="4" fill="#0" id="circle52"/>
	<circle cx="64.8809" cy="24.2936" r="4" fill="#0" id="circle53"/>
	<circle cx="69.6558" cy="192.611" r="4" fill="#0" id="circle54"/>
	<circle cx="69.6558" cy="228.424" r="4" fill="#0" id="circle55"/>
	<circle cx="72.0433" cy="672.496" r="4" fill="#0" id="circle56"/>
	<circle cx="74.4308" cy="15.9374" r="4" fill="#0" id="circle57"/>
	<circle cx="75.6245" cy="203.355" r="4" fill="#0" id="circle58"/>
	<circle cx="75.6245" cy="215.292" r="4" fill="#0" id="circle59"/>
	<circle cx="78.012" cy="683.239" r="4" fill="#0" id="circle60"/>
	<circle cx="85.1745" cy="9.96871" r="4" fill="#0" id="circle61"/>
	<circle cx="87.562" cy="691.596" r="4" fill="#0" id="circle62"/>
	<circle cx="87.562" cy="801.42" r="4" fill="#0" id="circle63"/>
	<circle cx="87.562" cy="813.357" r="4" fill="#0" id="circle64"/>
	<circle cx="87.562" cy="825.295" r="4" fill="#0" id="circle65"/>
	<circle cx="93.5307" cy="783.514" r="4" fill="#0" id="circle66"/>
	<circle cx="93.5307" cy="836.039" r="4" fill="#0" id="circle67"/>
	<circle cx="93.5307" cy="847.976" r="4" fill="#0" id="circle68"/>
	<circle cx="97.1119" cy="4" r="4" fill="#0" id="circle69"/>
	<circle cx="98.3057" cy="697.564" r="4" fill="#0" id="circle70"/>
	<circle cx="99.4994" cy="771.576" r="4" fill="#0" id="circle71"/>
	<circle cx="99.4994" cy="858.72" r="4" fill="#0" id="circle72"/>
	<circle cx="99.4994" cy="938.7" r="4" fill="#0" id="circle73"/>
	<circle cx="99.4994" cy="950.638" r="4" fill="#0" id="circle74"/>
	<circle cx="99.4994" cy="962.575" r="4" fill="#0" id="circle75"/>
	<circle cx="103.081" cy="870.657" r="4" fill="#0" id="circle76"/>
	<circle cx="105.468" cy="707.114" r="4" fill="#0" id="circle77"/>
	<circle cx="105.468" cy="753.67" r="4" fill="#0" id="circle78"/>
	<circle cx="105.468" cy="882.594" r="4" fill="#0" id="circle79"/>
	<circle cx="105.468" cy="914.826" r="4" fill="#0" id="circle80"/>
	<circle cx="105.468" cy="926.763" r="4" fill="#0" id="circle81"/>
	<circle cx="109.049" cy="4" r="4" fill="#0" id="circle82"/>
	<circle cx="109.049" cy="970.931" r="4" fill="#0" id="circle83"/>
	<circle cx="111.437" cy="717.858" r="4" fill="#0" id="circle84"/>
	<circle cx="111.437" cy="729.795" r="4" fill="#0" id="circle85"/>
	<circle cx="111.437" cy="741.733" r="4" fill="#0" id="circle86"/>
	<circle cx="111.437" cy="893.338" r="4" fill="#0" id="circle87"/>
	<circle cx="118.599" cy="978.094" r="4" fill="#0" id="circle88"/>
	<circle cx="120.987" cy="4" r="4" fill="#0" id="circle89"/>
	<circle cx="129.343" cy="984.063" r="4" fill="#0" id="circle90"/>
	<circle cx="132.924" cy="4" r="4" fill="#0" id="circle91"/>
	<circle cx="141.28" cy="984.063" r="4" fill="#0" id="circle92"/>
	<circle cx="144.862" cy="4" r="4" fill="#0" id="circle93"/>
	<circle cx="152.024" cy="990.031" r="4" fill="#0" id="circle94"/>
	<circle cx="156.799" cy="4" r="4" fill="#0" id="circle95"/>
	<circle cx="163.961" cy="990.031" r="4" fill="#0" id="circle96"/>
	<circle cx="167.543" cy="9.96871" r="4" fill="#0" id="circle97"/>
	<circle cx="174.705" cy="996" r="4" fill="#0" id="circle98"/>
	<circle cx="179.48" cy="9.96871" r="4" fill="#0" id="circle99"/>
	<circle cx="186.643" cy="996" r="4" fill="#0" id="circle100"/>
	<circle cx="190.224" cy="15.9374" r="4" fill="#0" id="circle101"/>
	<circle cx="198.58" cy="996" r="4" fill="#0" id="circle102"/>
	<circle cx="202.161" cy="15.9374" r="4" fill="#0" id="circle103"/>
	<circle cx="210.517" cy="996" r="4" fill="#0" id="circle104"/>
	<circle cx="212.905" cy="21.9061" r="4" fill="#0" id="circle105"/>
	<circle cx="222.455" cy="996" r="4" fill="#0" id="circle106"/>
	<circle cx="223.649" cy="27.8748" r="4" fill="#0" id="circle107"/>
	<circle cx="234.392" cy="33.8436" r="4" fill="#0" id="circle108"/>
	<circle cx="234.392" cy="996" r="4" fill="#0" id="circle109"/>
	<circle cx="242.748" cy="43.3935" r="4" fill="#0" id="circle110"/>
	<circle cx="243.942" cy="876.626" r="4" fill="#0" id="circle111"/>
	<circle cx="246.33" cy="888.563" r="4" fill="#0" id="circle112"/>
	<circle cx="246.33" cy="996" r="4" fill="#0" id="circle113"/>
	<circle cx="249.911" cy="226.036" r="4" fill="#0" id="circle114"/>
	<circle cx="249.911" cy="237.974" r="4" fill="#0" id="circle115"/>
	<circle cx="249.911" cy="858.72" r="4" fill="#0" id="circle116"/>
	<circle cx="252.298" cy="51.7497" r="4" fill="#0" id="circle117"/>
	<circle cx="255.88" cy="63.6871" r="4" fill="#0" id="circle118"/>
	<circle cx="255.88" cy="208.13" r="4" fill="#0" id="circle119"/>
	<circle cx="255.88" cy="248.717" r="4" fill="#0" id="circle120"/>
	<circle cx="255.88" cy="846.782" r="4" fill="#0" id="circle121"/>
	<circle cx="255.88" cy="896.919" r="4" fill="#0" id="circle122"/>
	<circle cx="258.267" cy="996" r="4" fill="#0" id="circle123"/>
	<circle cx="261.848" cy="74.4308" r="4" fill="#0" id="circle124"/>
	<circle cx="261.848" cy="190.224" r="4" fill="#0" id="circle125"/>
	<circle cx="261.848" cy="828.876" r="4" fill="#0" id="circle126"/>
	<circle cx="265.43" cy="255.88" r="4" fill="#0" id="circle127"/>
	<circle cx="265.43" cy="905.276" r="4" fill="#0" id="circle128"/>
	<circle cx="267.817" cy="85.1745" r="4" fill="#0" id="circle129"/>
	<circle cx="267.817" cy="97.1119" r="4" fill="#0" id="circle130"/>
	<circle cx="267.817" cy="109.049" r="4" fill="#0" id="circle131"/>
	<circle cx="267.817" cy="120.987" r="4" fill="#0" id="circle132"/>
	<circle cx="267.817" cy="132.924" r="4" fill="#0" id="circle133"/>
	<circle cx="267.817" cy="144.862" r="4" fill="#0" id="circle134"/>
	<circle cx="267.817" cy="156.799" r="4" fill="#0" id="circle135"/>
	<circle cx="267.817" cy="168.736" r="4" fill="#0" id="circle136"/>
	<circle cx="267.817" cy="810.97" r="4" fill="#0" id="circle137"/>
	<circle cx="270.205" cy="994.806" r="4" fill="#0" id="circle138"/>
	<circle cx="273.786" cy="265.43" r="4" fill="#0" id="circle139"/>
	<circle cx="273.786" cy="781.126" r="4" fill="#0" id="circle140"/>
	<circle cx="273.786" cy="793.064" r="4" fill="#0" id="circle141"/>
	<circle cx="276.173" cy="911.244" r="4" fill="#0" id="circle142"/>
	<circle cx="279.755" cy="276.173" r="4" fill="#0" id="circle143"/>
	<circle cx="279.755" cy="763.22" r="4" fill="#0" id="circle144"/>
	<circle cx="279.755" cy="984.063" r="4" fill="#0" id="circle145"/>
	<circle cx="285.723" cy="286.917" r="4" fill="#0" id="circle146"/>
	<circle cx="285.723" cy="298.854" r="4" fill="#0" id="circle147"/>
	<circle cx="285.723" cy="310.792" r="4" fill="#0" id="circle148"/>
	<circle cx="285.723" cy="751.283" r="4" fill="#0" id="circle149"/>
	<circle cx="286.917" cy="917.213" r="4" fill="#0" id="circle150"/>
	<circle cx="290.498" cy="978.094" r="4" fill="#0" id="circle151"/>
	<circle cx="291.692" cy="321.535" r="4" fill="#0" id="circle152"/>
	<circle cx="291.692" cy="369.285" r="4" fill="#0" id="circle153"/>
	<circle cx="291.692" cy="381.223" r="4" fill="#0" id="circle154"/>
	<circle cx="291.692" cy="673.69" r="4" fill="#0" id="circle155"/>
	<circle cx="291.692" cy="685.627" r="4" fill="#0" id="circle156"/>
	<circle cx="291.692" cy="739.345" r="4" fill="#0" id="circle157"/>
	<circle cx="294.079" cy="333.473" r="4" fill="#0" id="circle158"/>
	<circle cx="294.079" cy="393.16" r="4" fill="#0" id="circle159"/>
	<circle cx="294.079" cy="697.564" r="4" fill="#0" id="circle160"/>
	<circle cx="297.661" cy="345.41" r="4" fill="#0" id="circle161"/>
	<circle cx="297.661" cy="357.348" r="4" fill="#0" id="circle162"/>
	<circle cx="297.661" cy="405.097" r="4" fill="#0" id="circle163"/>
	<circle cx="297.661" cy="709.502" r="4" fill="#0" id="circle164"/>
	<circle cx="297.661" cy="721.439" r="4" fill="#0" id="circle165"/>
	<circle cx="297.661" cy="923.182" r="4" fill="#0" id="circle166"/>
	<circle cx="301.242" cy="665.333" r="4" fill="#0" id="circle167"/>
	<circle cx="301.242" cy="972.125" r="4" fill="#0" id="circle168"/>
	<circle cx="303.629" cy="415.841" r="4" fill="#0" id="circle169"/>
	<circle cx="309.598" cy="426.585" r="4" fill="#0" id="circle170"/>
	<circle cx="309.598" cy="438.522" r="4" fill="#0" id="circle171"/>
	<circle cx="309.598" cy="655.783" r="4" fill="#0" id="circle172"/>
	<circle cx="309.598" cy="923.182" r="4" fill="#0" id="circle173"/>
	<circle cx="313.179" cy="972.125" r="4" fill="#0" id="circle174"/>
	<circle cx="315.567" cy="449.266" r="4" fill="#0" id="circle175"/>
	<circle cx="315.567" cy="461.203" r="4" fill="#0" id="circle176"/>
	<circle cx="315.567" cy="619.971" r="4" fill="#0" id="circle177"/>
	<circle cx="317.954" cy="631.909" r="4" fill="#0" id="circle178"/>
	<circle cx="319.148" cy="647.427" r="4" fill="#0" id="circle179"/>
	<circle cx="321.535" cy="471.947" r="4" fill="#0" id="circle180"/>
	<circle cx="321.535" cy="608.034" r="4" fill="#0" id="circle181"/>
	<circle cx="321.535" cy="926.763" r="4" fill="#0" id="circle182"/>
	<circle cx="325.117" cy="483.884" r="4" fill="#0" id="circle183"/>
	<circle cx="325.117" cy="969.738" r="4" fill="#0" id="circle184"/>
	<circle cx="327.504" cy="495.822" r="4" fill="#0" id="circle185"/>
	<circle cx="329.892" cy="936.313" r="4" fill="#0" id="circle186"/>
	<circle cx="332.279" cy="602.065" r="4" fill="#0" id="circle187"/>
	<circle cx="333.473" cy="506.566" r="4" fill="#0" id="circle188"/>
	<circle cx="333.473" cy="518.503" r="4" fill="#0" id="circle189"/>
	<circle cx="333.473" cy="960.188" r="4" fill="#0" id="circle190"/>
	<circle cx="339.442" cy="529.247" r="4" fill="#0" id="circle191"/>
	<circle cx="339.442" cy="541.184" r="4" fill="#0" id="circle192"/>
	<circle cx="339.442" cy="944.669" r="4" fill="#0" id="circle193"/>
	<circle cx="341.829" cy="594.903" r="4" fill="#0" id="circle194"/>
	<circle cx="345.41" cy="551.928" r="4" fill="#0" id="circle195"/>
	<circle cx="347.798" cy="582.965" r="4" fill="#0" id="circle196"/>
	<circle cx="351.379" cy="562.671" r="4" fill="#0" id="circle197"/>
	</g>
</svg>