<?xml version="1.0" encoding="UTF-8" standalone="no"?>
<!-- Created with CurveBenchmark -->
<svg
	xmlns:dc="http://purl.org/dc/elements/1.1/"
	xmlns:cc="http://creativecommons.org/ns#"
	xmlns:rdf="http://www.w3.org/1999/02/22-rdf-syntax-ns#"
	xmlns:svg="http://www.w3.org/2000/svg"
	xmlns="http://www.w3.org/2000/svg"
	xmlns:sodipodi="http://sodipodi.sourceforge.net/DTD/sodipodi-0.dtd"
	xmlns:inkscape="http://www.inkscape.org/namespaces/inkscape"
	width="1000"
	height="1000"
	id="svg2"
	version="1.1"
	sodipodi:docname="manifold/crawl-textbox28.png.txt">
<defs
	id="defs4" />
<metadata
	id="metadata7">
	<rdf:RDF>
		<cc:Work
			rdf:about="">
			<dc:format>image/svg+xml</dc:format>
			<dc:type
				rdf:resource="http://purl.org/dc/dcmitype/StillImage" />
			<dc:title></dc:title>
		</cc:Work>
	</rdf:RDF>
</metadata>
<g
	inkscape:label="Layer 1"
	inkscape:groupmode="layer"
	id="layer1">
	<path style="fill:none;stroke:red;stroke-width:1px;stroke-linecap:butt;stroke-linejoin:miter;stroke-opacity:1" d="M 4,238.706 4,257.043 z" id="boundary" inkscape:connector-curvature="0" />
	<path style="fill:none;stroke:red;stroke-width:1px;stroke-linecap:butt;stroke-linejoin:miter;stroke-opacity:1" d="M 4,257.043 4,275.379 z" id="boundary" inkscape:connector-curvature="0" />
	<path style="fill:none;stroke:red;stroke-width:1px;stroke-linecap:butt;stroke-linejoin:miter;stroke-opacity:1" d="M 4,275.379 4,293.715 z" id="boundary" inkscape:connector-curvature="0" />
	<path style="fill:none;stroke:red;stroke-width:1px;stroke-linecap:butt;stroke-linejoin:miter;stroke-opacity:1" d="M 4,293.715 4,312.052 z" id="boundary" inkscape:connector-curvature="0" />
	<path style="fill:none;stroke:red;stroke-width:1px;stroke-linecap:butt;stroke-linejoin:miter;stroke-opacity:1" d="M 4,312.052 4,330.388 z" id="boundary" inkscape:connector-curvature="0" />
	<path style="fill:none;stroke:red;stroke-width:1px;stroke-linecap:butt;stroke-linejoin:miter;stroke-opacity:1" d="M 4,330.388 4,348.725 z" id="boundary" inkscape:connector-curvature="0" />
	<path style="fill:none;stroke:red;stroke-width:1px;stroke-linecap:butt;stroke-linejoin:miter;stroke-opacity:1" d="M 4,348.725 15.0018,363.394 z" id="boundary" inkscape:connector-curvature="0" />
	<path style="fill:none;stroke:red;stroke-width:1px;stroke-linecap:butt;stroke-linejoin:miter;stroke-opacity:1" d="M 15.0018,363.394 22.3364,381.73 z" id="boundary" inkscape:connector-curvature="0" />
	<path style="fill:none;stroke:red;stroke-width:1px;stroke-linecap:butt;stroke-linejoin:miter;stroke-opacity:1" d="M 22.3364,381.73 31.5046,398.233 z" id="boundary" inkscape:connector-curvature="0" />
	<path style="fill:none;stroke:red;stroke-width:1px;stroke-linecap:butt;stroke-linejoin:miter;stroke-opacity:1" d="M 31.5046,398.233 35.1719,416.569 z" id="boundary" inkscape:connector-curvature="0" />
	<path style="fill:none;stroke:red;stroke-width:1px;stroke-linecap:butt;stroke-linejoin:miter;stroke-opacity:1" d="M 35.1719,416.569 49.841,427.571 z" id="boundary" inkscape:connector-curvature="0" />
	<path style="fill:none;stroke:red;stroke-width:1px;stroke-linecap:butt;stroke-linejoin:miter;stroke-opacity:1" d="M 49.841,427.571 60.8429,442.24 z" id="boundary" inkscape:connector-curvature="0" />
	<path style="fill:none;stroke:red;stroke-width:1px;stroke-linecap:butt;stroke-linejoin:miter;stroke-opacity:1" d="M 60.8429,442.24 75.512,455.076 z" id="boundary" inkscape:connector-curvature="0" />
	<path style="fill:none;stroke:red;stroke-width:1px;stroke-linecap:butt;stroke-linejoin:miter;stroke-opacity:1" d="M 75.512,455.076 88.3475,469.745 z" id="boundary" inkscape:connector-curvature="0" />
	<path style="fill:none;stroke:red;stroke-width:1px;stroke-linecap:butt;stroke-linejoin:miter;stroke-opacity:1" d="M 88.3475,469.745 103.017,482.58 z" id="boundary" inkscape:connector-curvature="0" />
	<path style="fill:none;stroke:red;stroke-width:1px;stroke-linecap:butt;stroke-linejoin:miter;stroke-opacity:1" d="M 103.017,482.58 121.353,482.58 z" id="boundary" inkscape:connector-curvature="0" />
	<path style="fill:none;stroke:red;stroke-width:1px;stroke-linecap:butt;stroke-linejoin:miter;stroke-opacity:1" d="M 121.353,482.58 128.688,500.917 z" id="boundary" inkscape:connector-curvature="0" />
	<path style="fill:none;stroke:red;stroke-width:1px;stroke-linecap:butt;stroke-linejoin:miter;stroke-opacity:1" d="M 128.688,500.917 147.024,508.251 z" id="boundary" inkscape:connector-curvature="0" />
	<path style="fill:none;stroke:red;stroke-width:1px;stroke-linecap:butt;stroke-linejoin:miter;stroke-opacity:1" d="M 147.024,508.251 165.36,510.085 z" id="boundary" inkscape:connector-curvature="0" />
	<path style="fill:none;stroke:red;stroke-width:1px;stroke-linecap:butt;stroke-linejoin:miter;stroke-opacity:1" d="M 165.36,510.085 174.529,526.588 z" id="boundary" inkscape:connector-curvature="0" />
	<path style="fill:none;stroke:red;stroke-width:1px;stroke-linecap:butt;stroke-linejoin:miter;stroke-opacity:1" d="M 174.529,526.588 192.865,528.421 z" id="boundary" inkscape:connector-curvature="0" />
	<path style="fill:none;stroke:red;stroke-width:1px;stroke-linecap:butt;stroke-linejoin:miter;stroke-opacity:1" d="M 192.865,528.421 211.201,535.756 z" id="boundary" inkscape:connector-curvature="0" />
	<path style="fill:none;stroke:red;stroke-width:1px;stroke-linecap:butt;stroke-linejoin:miter;stroke-opacity:1" d="M 211.201,535.756 229.538,537.59 z" id="boundary" inkscape:connector-curvature="0" />
	<path style="fill:none;stroke:red;stroke-width:1px;stroke-linecap:butt;stroke-linejoin:miter;stroke-opacity:1" d="M 229.538,537.59 244.207,550.425 z" id="boundary" inkscape:connector-curvature="0" />
	<path style="fill:none;stroke:red;stroke-width:1px;stroke-linecap:butt;stroke-linejoin:miter;stroke-opacity:1" d="M 244.207,550.425 262.543,555.926 z" id="boundary" inkscape:connector-curvature="0" />
	<path style="fill:none;stroke:red;stroke-width:1px;stroke-linecap:butt;stroke-linejoin:miter;stroke-opacity:1" d="M 262.543,555.926 280.88,555.926 z" id="boundary" inkscape:connector-curvature="0" />
	<path style="fill:none;stroke:red;stroke-width:1px;stroke-linecap:butt;stroke-linejoin:miter;stroke-opacity:1" d="M 280.88,555.926 297.383,565.094 z" id="boundary" inkscape:connector-curvature="0" />
	<path style="fill:none;stroke:red;stroke-width:1px;stroke-linecap:butt;stroke-linejoin:miter;stroke-opacity:1" d="M 297.383,565.094 315.719,565.094 z" id="boundary" inkscape:connector-curvature="0" />
	<path style="fill:none;stroke:red;stroke-width:1px;stroke-linecap:butt;stroke-linejoin:miter;stroke-opacity:1" d="M 315.719,565.094 334.055,565.094 z" id="boundary" inkscape:connector-curvature="0" />
	<path style="fill:none;stroke:red;stroke-width:1px;stroke-linecap:butt;stroke-linejoin:miter;stroke-opacity:1" d="M 334.055,565.094 352.392,565.094 z" id="boundary" inkscape:connector-curvature="0" />
	<path style="fill:none;stroke:red;stroke-width:1px;stroke-linecap:butt;stroke-linejoin:miter;stroke-opacity:1" d="M 352.392,565.094 357.893,583.431 z" id="boundary" inkscape:connector-curvature="0" />
	<path style="fill:none;stroke:red;stroke-width:1px;stroke-linecap:butt;stroke-linejoin:miter;stroke-opacity:1" d="M 357.893,583.431 376.229,583.431 z" id="boundary" inkscape:connector-curvature="0" />
	<path style="fill:none;stroke:red;stroke-width:1px;stroke-linecap:butt;stroke-linejoin:miter;stroke-opacity:1" d="M 376.229,583.431 394.566,583.431 z" id="boundary" inkscape:connector-curvature="0" />
	<path style="fill:none;stroke:red;stroke-width:1px;stroke-linecap:butt;stroke-linejoin:miter;stroke-opacity:1" d="M 394.566,583.431 412.902,583.431 z" id="boundary" inkscape:connector-curvature="0" />
	<path style="fill:none;stroke:red;stroke-width:1px;stroke-linecap:butt;stroke-linejoin:miter;stroke-opacity:1" d="M 412.902,583.431 431.238,583.431 z" id="boundary" inkscape:connector-curvature="0" />
	<path style="fill:none;stroke:red;stroke-width:1px;stroke-linecap:butt;stroke-linejoin:miter;stroke-opacity:1" d="M 431.238,583.431 449.575,583.431 z" id="boundary" inkscape:connector-curvature="0" />
	<path style="fill:none;stroke:red;stroke-width:1px;stroke-linecap:butt;stroke-linejoin:miter;stroke-opacity:1" d="M 449.575,583.431 467.911,583.431 z" id="boundary" inkscape:connector-curvature="0" />
	<path style="fill:none;stroke:red;stroke-width:1px;stroke-linecap:butt;stroke-linejoin:miter;stroke-opacity:1" d="M 467.911,583.431 486.248,583.431 z" id="boundary" inkscape:connector-curvature="0" />
	<path style="fill:none;stroke:red;stroke-width:1px;stroke-linecap:butt;stroke-linejoin:miter;stroke-opacity:1" d="M 486.248,583.431 504.584,583.431 z" id="boundary" inkscape:connector-curvature="0" />
	<path style="fill:none;stroke:red;stroke-width:1px;stroke-linecap:butt;stroke-linejoin:miter;stroke-opacity:1" d="M 504.584,583.431 522.921,583.431 z" id="boundary" inkscape:connector-curvature="0" />
	<path style="fill:none;stroke:red;stroke-width:1px;stroke-linecap:butt;stroke-linejoin:miter;stroke-opacity:1" d="M 522.921,583.431 541.257,583.431 z" id="boundary" inkscape:connector-curvature="0" />
	<path style="fill:none;stroke:red;stroke-width:1px;stroke-linecap:butt;stroke-linejoin:miter;stroke-opacity:1" d="M 541.257,583.431 559.593,583.431 z" id="boundary" inkscape:connector-curvature="0" />
	<path style="fill:none;stroke:red;stroke-width:1px;stroke-linecap:butt;stroke-linejoin:miter;stroke-opacity:1" d="M 559.593,583.431 577.93,583.431 z" id="boundary" inkscape:connector-curvature="0" />
	<path style="fill:none;stroke:red;stroke-width:1px;stroke-linecap:butt;stroke-linejoin:miter;stroke-opacity:1" d="M 577.93,583.431 596.266,583.431 z" id="boundary" inkscape:connector-curvature="0" />
	<path style="fill:none;stroke:red;stroke-width:1px;stroke-linecap:butt;stroke-linejoin:miter;stroke-opacity:1" d="M 596.266,583.431 614.603,583.431 z" id="boundary" inkscape:connector-curvature="0" />
	<path style="fill:none;stroke:red;stroke-width:1px;stroke-linecap:butt;stroke-linejoin:miter;stroke-opacity:1" d="M 614.603,583.431 632.939,583.431 z" id="boundary" inkscape:connector-curvature="0" />
	<path style="fill:none;stroke:red;stroke-width:1px;stroke-linecap:butt;stroke-linejoin:miter;stroke-opacity:1" d="M 4,238.706 22.3364,229.538 z" id="boundary" inkscape:connector-curvature="0" />
	<path style="fill:none;stroke:red;stroke-width:1px;stroke-linecap:butt;stroke-linejoin:miter;stroke-opacity:1" d="M 22.3364,229.538 22.3364,211.201 z" id="boundary" inkscape:connector-curvature="0" />
	<path style="fill:none;stroke:red;stroke-width:1px;stroke-linecap:butt;stroke-linejoin:miter;stroke-opacity:1" d="M 632.939,583.431 647.608,565.094 z" id="boundary" inkscape:connector-curvature="0" />
	<path style="fill:none;stroke:red;stroke-width:1px;stroke-linecap:butt;stroke-linejoin:miter;stroke-opacity:1" d="M 647.608,565.094 665.945,565.094 z" id="boundary" inkscape:connector-curvature="0" />
	<path style="fill:none;stroke:red;stroke-width:1px;stroke-linecap:butt;stroke-linejoin:miter;stroke-opacity:1" d="M 665.945,565.094 684.281,565.094 z" id="boundary" inkscape:connector-curvature="0" />
	<path style="fill:none;stroke:red;stroke-width:1px;stroke-linecap:butt;stroke-linejoin:miter;stroke-opacity:1" d="M 684.281,565.094 702.617,565.094 z" id="boundary" inkscape:connector-curvature="0" />
	<path style="fill:none;stroke:red;stroke-width:1px;stroke-linecap:butt;stroke-linejoin:miter;stroke-opacity:1" d="M 702.617,565.094 719.12,555.926 z" id="boundary" inkscape:connector-curvature="0" />
	<path style="fill:none;stroke:red;stroke-width:1px;stroke-linecap:butt;stroke-linejoin:miter;stroke-opacity:1" d="M 719.12,555.926 737.457,555.926 z" id="boundary" inkscape:connector-curvature="0" />
	<path style="fill:none;stroke:red;stroke-width:1px;stroke-linecap:butt;stroke-linejoin:miter;stroke-opacity:1" d="M 737.457,555.926 755.793,550.425 z" id="boundary" inkscape:connector-curvature="0" />
	<path style="fill:none;stroke:red;stroke-width:1px;stroke-linecap:butt;stroke-linejoin:miter;stroke-opacity:1" d="M 755.793,550.425 770.462,537.59 z" id="boundary" inkscape:connector-curvature="0" />
	<path style="fill:none;stroke:red;stroke-width:1px;stroke-linecap:butt;stroke-linejoin:miter;stroke-opacity:1" d="M 770.462,537.59 788.799,535.756 z" id="boundary" inkscape:connector-curvature="0" />
	<path style="fill:none;stroke:red;stroke-width:1px;stroke-linecap:butt;stroke-linejoin:miter;stroke-opacity:1" d="M 788.799,535.756 807.135,528.421 z" id="boundary" inkscape:connector-curvature="0" />
	<path style="fill:none;stroke:red;stroke-width:1px;stroke-linecap:butt;stroke-linejoin:miter;stroke-opacity:1" d="M 807.135,528.421 825.471,526.588 z" id="boundary" inkscape:connector-curvature="0" />
	<path style="fill:none;stroke:red;stroke-width:1px;stroke-linecap:butt;stroke-linejoin:miter;stroke-opacity:1" d="M 825.471,526.588 834.64,510.085 z" id="boundary" inkscape:connector-curvature="0" />
	<path style="fill:none;stroke:red;stroke-width:1px;stroke-linecap:butt;stroke-linejoin:miter;stroke-opacity:1" d="M 834.64,510.085 852.976,508.251 z" id="boundary" inkscape:connector-curvature="0" />
	<path style="fill:none;stroke:red;stroke-width:1px;stroke-linecap:butt;stroke-linejoin:miter;stroke-opacity:1" d="M 852.976,508.251 871.312,499.083 z" id="boundary" inkscape:connector-curvature="0" />
	<path style="fill:none;stroke:red;stroke-width:1px;stroke-linecap:butt;stroke-linejoin:miter;stroke-opacity:1" d="M 871.312,499.083 880.481,482.58 z" id="boundary" inkscape:connector-curvature="0" />
	<path style="fill:none;stroke:red;stroke-width:1px;stroke-linecap:butt;stroke-linejoin:miter;stroke-opacity:1" d="M 880.481,482.58 898.817,480.747 z" id="boundary" inkscape:connector-curvature="0" />
	<path style="fill:none;stroke:red;stroke-width:1px;stroke-linecap:butt;stroke-linejoin:miter;stroke-opacity:1" d="M 22.3364,211.201 31.5046,183.697 z" id="boundary" inkscape:connector-curvature="0" />
	<path style="fill:none;stroke:red;stroke-width:1px;stroke-linecap:butt;stroke-linejoin:miter;stroke-opacity:1" d="M 31.5046,183.697 40.6728,165.36 z" id="boundary" inkscape:connector-curvature="0" />
	<path style="fill:none;stroke:red;stroke-width:1px;stroke-linecap:butt;stroke-linejoin:miter;stroke-opacity:1" d="M 40.6728,165.36 59.0092,156.192 z" id="boundary" inkscape:connector-curvature="0" />
	<path style="fill:none;stroke:red;stroke-width:1px;stroke-linecap:butt;stroke-linejoin:miter;stroke-opacity:1" d="M 59.0092,156.192 68.1774,137.856 z" id="boundary" inkscape:connector-curvature="0" />
	<path style="fill:none;stroke:red;stroke-width:1px;stroke-linecap:butt;stroke-linejoin:miter;stroke-opacity:1" d="M 68.1774,137.856 86.5139,128.688 z" id="boundary" inkscape:connector-curvature="0" />
	<path style="fill:none;stroke:red;stroke-width:1px;stroke-linecap:butt;stroke-linejoin:miter;stroke-opacity:1" d="M 86.5139,128.688 95.6821,110.351 z" id="boundary" inkscape:connector-curvature="0" />
	<path style="fill:none;stroke:red;stroke-width:1px;stroke-linecap:butt;stroke-linejoin:miter;stroke-opacity:1" d="M 95.6821,110.351 114.018,104.85 z" id="boundary" inkscape:connector-curvature="0" />
	<path style="fill:none;stroke:red;stroke-width:1px;stroke-linecap:butt;stroke-linejoin:miter;stroke-opacity:1" d="M 114.018,104.85 130.521,95.6821 z" id="boundary" inkscape:connector-curvature="0" />
	<path style="fill:none;stroke:red;stroke-width:1px;stroke-linecap:butt;stroke-linejoin:miter;stroke-opacity:1" d="M 130.521,95.6821 147.024,86.5139 z" id="boundary" inkscape:connector-curvature="0" />
	<path style="fill:none;stroke:red;stroke-width:1px;stroke-linecap:butt;stroke-linejoin:miter;stroke-opacity:1" d="M 147.024,86.5139 165.36,86.5139 z" id="boundary" inkscape:connector-curvature="0" />
	<path style="fill:none;stroke:red;stroke-width:1px;stroke-linecap:butt;stroke-linejoin:miter;stroke-opacity:1" d="M 165.36,86.5139 174.529,68.1774 z" id="boundary" inkscape:connector-curvature="0" />
	<path style="fill:none;stroke:red;stroke-width:1px;stroke-linecap:butt;stroke-linejoin:miter;stroke-opacity:1" d="M 174.529,68.1774 192.865,68.1774 z" id="boundary" inkscape:connector-curvature="0" />
	<path style="fill:none;stroke:red;stroke-width:1px;stroke-linecap:butt;stroke-linejoin:miter;stroke-opacity:1" d="M 192.865,68.1774 211.201,59.0092 z" id="boundary" inkscape:connector-curvature="0" />
	<path style="fill:none;stroke:red;stroke-width:1px;stroke-linecap:butt;stroke-linejoin:miter;stroke-opacity:1" d="M 211.201,59.0092 229.538,59.0092 z" id="boundary" inkscape:connector-curvature="0" />
	<path style="fill:none;stroke:red;stroke-width:1px;stroke-linecap:butt;stroke-linejoin:miter;stroke-opacity:1" d="M 229.538,59.0092 244.207,44.3401 z" id="boundary" inkscape:connector-curvature="0" />
	<path style="fill:none;stroke:red;stroke-width:1px;stroke-linecap:butt;stroke-linejoin:miter;stroke-opacity:1" d="M 244.207,44.3401 262.543,40.6728 z" id="boundary" inkscape:connector-curvature="0" />
	<path style="fill:none;stroke:red;stroke-width:1px;stroke-linecap:butt;stroke-linejoin:miter;stroke-opacity:1" d="M 262.543,40.6728 280.88,40.6728 z" id="boundary" inkscape:connector-curvature="0" />
	<path style="fill:none;stroke:red;stroke-width:1px;stroke-linecap:butt;stroke-linejoin:miter;stroke-opacity:1" d="M 280.88,40.6728 297.383,31.5046 z" id="boundary" inkscape:connector-curvature="0" />
	<path style="fill:none;stroke:red;stroke-width:1px;stroke-linecap:butt;stroke-linejoin:miter;stroke-opacity:1" d="M 297.383,31.5046 315.719,31.5046 z" id="boundary" inkscape:connector-curvature="0" />
	<path style="fill:none;stroke:red;stroke-width:1px;stroke-linecap:butt;stroke-linejoin:miter;stroke-opacity:1" d="M 315.719,31.5046 334.055,31.5046 z" id="boundary" inkscape:connector-curvature="0" />
	<path style="fill:none;stroke:red;stroke-width:1px;stroke-linecap:butt;stroke-linejoin:miter;stroke-opacity:1" d="M 334.055,31.5046 352.392,18.6691 z" id="boundary" inkscape:connector-curvature="0" />
	<path style="fill:none;stroke:red;stroke-width:1px;stroke-linecap:butt;stroke-linejoin:miter;stroke-opacity:1" d="M 352.392,18.6691 370.728,13.1682 z" id="boundary" inkscape:connector-curvature="0" />
	<path style="fill:none;stroke:red;stroke-width:1px;stroke-linecap:butt;stroke-linejoin:miter;stroke-opacity:1" d="M 370.728,13.1682 389.065,13.1682 z" id="boundary" inkscape:connector-curvature="0" />
	<path style="fill:none;stroke:red;stroke-width:1px;stroke-linecap:butt;stroke-linejoin:miter;stroke-opacity:1" d="M 389.065,13.1682 407.401,13.1682 z" id="boundary" inkscape:connector-curvature="0" />
	<path style="fill:none;stroke:red;stroke-width:1px;stroke-linecap:butt;stroke-linejoin:miter;stroke-opacity:1" d="M 407.401,13.1682 425.738,13.1682 z" id="boundary" inkscape:connector-curvature="0" />
	<path style="fill:none;stroke:red;stroke-width:1px;stroke-linecap:butt;stroke-linejoin:miter;stroke-opacity:1" d="M 425.738,13.1682 444.074,13.1682 z" id="boundary" inkscape:connector-curvature="0" />
	<path style="fill:none;stroke:red;stroke-width:1px;stroke-linecap:butt;stroke-linejoin:miter;stroke-opacity:1" d="M 444.074,13.1682 462.41,9.50092 z" id="boundary" inkscape:connector-curvature="0" />
	<path style="fill:none;stroke:red;stroke-width:1px;stroke-linecap:butt;stroke-linejoin:miter;stroke-opacity:1" d="M 462.41,9.50092 480.747,4 z" id="boundary" inkscape:connector-curvature="0" />
	<path style="fill:none;stroke:red;stroke-width:1px;stroke-linecap:butt;stroke-linejoin:miter;stroke-opacity:1" d="M 480.747,4 499.083,4 z" id="boundary" inkscape:connector-curvature="0" />
	<path style="fill:none;stroke:red;stroke-width:1px;stroke-linecap:butt;stroke-linejoin:miter;stroke-opacity:1" d="M 499.083,4 517.42,4 z" id="boundary" inkscape:connector-curvature="0" />
	<path style="fill:none;stroke:red;stroke-width:1px;stroke-linecap:butt;stroke-linejoin:miter;stroke-opacity:1" d="M 517.42,4 535.756,7.66728 z" id="boundary" inkscape:connector-curvature="0" />
	<path style="fill:none;stroke:red;stroke-width:1px;stroke-linecap:butt;stroke-linejoin:miter;stroke-opacity:1" d="M 535.756,7.66728 554.092,13.1682 z" id="boundary" inkscape:connector-curvature="0" />
	<path style="fill:none;stroke:red;stroke-width:1px;stroke-linecap:butt;stroke-linejoin:miter;stroke-opacity:1" d="M 554.092,13.1682 572.429,13.1682 z" id="boundary" inkscape:connector-curvature="0" />
	<path style="fill:none;stroke:red;stroke-width:1px;stroke-linecap:butt;stroke-linejoin:miter;stroke-opacity:1" d="M 572.429,13.1682 590.765,13.1682 z" id="boundary" inkscape:connector-curvature="0" />
	<path style="fill:none;stroke:red;stroke-width:1px;stroke-linecap:butt;stroke-linejoin:miter;stroke-opacity:1" d="M 590.765,13.1682 609.102,13.1682 z" id="boundary" inkscape:connector-curvature="0" />
	<path style="fill:none;stroke:red;stroke-width:1px;stroke-linecap:butt;stroke-linejoin:miter;stroke-opacity:1" d="M 609.102,13.1682 627.438,13.1682 z" id="boundary" inkscape:connector-curvature="0" />
	<path style="fill:none;stroke:red;stroke-width:1px;stroke-linecap:butt;stroke-linejoin:miter;stroke-opacity:1" d="M 627.438,13.1682 638.44,27.8373 z" id="boundary" inkscape:connector-curvature="0" />
	<path style="fill:none;stroke:red;stroke-width:1px;stroke-linecap:butt;stroke-linejoin:miter;stroke-opacity:1" d="M 638.44,27.8373 656.776,31.5046 z" id="boundary" inkscape:connector-curvature="0" />
	<path style="fill:none;stroke:red;stroke-width:1px;stroke-linecap:butt;stroke-linejoin:miter;stroke-opacity:1" d="M 656.776,31.5046 675.113,31.5046 z" id="boundary" inkscape:connector-curvature="0" />
	<path style="fill:none;stroke:red;stroke-width:1px;stroke-linecap:butt;stroke-linejoin:miter;stroke-opacity:1" d="M 675.113,31.5046 686.115,15.0018 z" id="boundary" inkscape:connector-curvature="0" />
	<path style="fill:none;stroke:red;stroke-width:1px;stroke-linecap:butt;stroke-linejoin:miter;stroke-opacity:1" d="M 686.115,15.0018 704.451,13.1682 z" id="boundary" inkscape:connector-curvature="0" />
	<path style="fill:none;stroke:red;stroke-width:1px;stroke-linecap:butt;stroke-linejoin:miter;stroke-opacity:1" d="M 704.451,13.1682 720.954,4 z" id="boundary" inkscape:connector-curvature="0" />
	<path style="fill:none;stroke:red;stroke-width:1px;stroke-linecap:butt;stroke-linejoin:miter;stroke-opacity:1" d="M 720.954,4 739.29,4 z" id="boundary" inkscape:connector-curvature="0" />
	<path style="fill:none;stroke:red;stroke-width:1px;stroke-linecap:butt;stroke-linejoin:miter;stroke-opacity:1" d="M 739.29,4 757.627,4 z" id="boundary" inkscape:connector-curvature="0" />
	<path style="fill:none;stroke:red;stroke-width:1px;stroke-linecap:butt;stroke-linejoin:miter;stroke-opacity:1" d="M 757.627,4 775.963,4 z" id="boundary" inkscape:connector-curvature="0" />
	<path style="fill:none;stroke:red;stroke-width:1px;stroke-linecap:butt;stroke-linejoin:miter;stroke-opacity:1" d="M 775.963,4 794.299,4 z" id="boundary" inkscape:connector-curvature="0" />
	<path style="fill:none;stroke:red;stroke-width:1px;stroke-linecap:butt;stroke-linejoin:miter;stroke-opacity:1" d="M 794.299,4 812.636,4 z" id="boundary" inkscape:connector-curvature="0" />
	<path style="fill:none;stroke:red;stroke-width:1px;stroke-linecap:butt;stroke-linejoin:miter;stroke-opacity:1" d="M 812.636,4 830.972,4 z" id="boundary" inkscape:connector-curvature="0" />
	<path style="fill:none;stroke:red;stroke-width:1px;stroke-linecap:butt;stroke-linejoin:miter;stroke-opacity:1" d="M 830.972,4 849.309,4 z" id="boundary" inkscape:connector-curvature="0" />
	<path style="fill:none;stroke:red;stroke-width:1px;stroke-linecap:butt;stroke-linejoin:miter;stroke-opacity:1" d="M 849.309,4 867.645,4 z" id="boundary" inkscape:connector-curvature="0" />
	<path style="fill:none;stroke:red;stroke-width:1px;stroke-linecap:butt;stroke-linejoin:miter;stroke-opacity:1" d="M 867.645,4 876.813,20.5028 z" id="boundary" inkscape:connector-curvature="0" />
	<path style="fill:none;stroke:red;stroke-width:1px;stroke-linecap:butt;stroke-linejoin:miter;stroke-opacity:1" d="M 876.813,20.5028 858.477,42.5065 z" id="boundary" inkscape:connector-curvature="0" />
	<path style="fill:none;stroke:red;stroke-width:1px;stroke-linecap:butt;stroke-linejoin:miter;stroke-opacity:1" d="M 858.477,42.5065 849.309,70.0111 z" id="boundary" inkscape:connector-curvature="0" />
	<path style="fill:none;stroke:red;stroke-width:1px;stroke-linecap:butt;stroke-linejoin:miter;stroke-opacity:1" d="M 849.309,70.0111 849.309,88.3475 z" id="boundary" inkscape:connector-curvature="0" />
	<path style="fill:none;stroke:red;stroke-width:1px;stroke-linecap:butt;stroke-linejoin:miter;stroke-opacity:1" d="M 849.309,88.3475 867.645,95.6821 z" id="boundary" inkscape:connector-curvature="0" />
	<path style="fill:none;stroke:red;stroke-width:1px;stroke-linecap:butt;stroke-linejoin:miter;stroke-opacity:1" d="M 867.645,95.6821 884.148,104.85 z" id="boundary" inkscape:connector-curvature="0" />
	<path style="fill:none;stroke:red;stroke-width:1px;stroke-linecap:butt;stroke-linejoin:miter;stroke-opacity:1" d="M 884.148,104.85 902.484,108.518 z" id="boundary" inkscape:connector-curvature="0" />
	<path style="fill:none;stroke:red;stroke-width:1px;stroke-linecap:butt;stroke-linejoin:miter;stroke-opacity:1" d="M 902.484,108.518 909.819,126.854 z" id="boundary" inkscape:connector-curvature="0" />
	<path style="fill:none;stroke:red;stroke-width:1px;stroke-linecap:butt;stroke-linejoin:miter;stroke-opacity:1" d="M 909.819,126.854 928.155,134.189 z" id="boundary" inkscape:connector-curvature="0" />
	<path style="fill:none;stroke:red;stroke-width:1px;stroke-linecap:butt;stroke-linejoin:miter;stroke-opacity:1" d="M 928.155,134.189 935.49,152.525 z" id="boundary" inkscape:connector-curvature="0" />
	<path style="fill:none;stroke:red;stroke-width:1px;stroke-linecap:butt;stroke-linejoin:miter;stroke-opacity:1" d="M 935.49,152.525 953.826,159.86 z" id="boundary" inkscape:connector-curvature="0" />
	<path style="fill:none;stroke:red;stroke-width:1px;stroke-linecap:butt;stroke-linejoin:miter;stroke-opacity:1" d="M 953.826,159.86 959.327,178.196 z" id="boundary" inkscape:connector-curvature="0" />
	<path style="fill:none;stroke:red;stroke-width:1px;stroke-linecap:butt;stroke-linejoin:miter;stroke-opacity:1" d="M 959.327,178.196 975.83,187.364 z" id="boundary" inkscape:connector-curvature="0" />
	<path style="fill:none;stroke:red;stroke-width:1px;stroke-linecap:butt;stroke-linejoin:miter;stroke-opacity:1" d="M 975.83,187.364 986.832,202.033 z" id="boundary" inkscape:connector-curvature="0" />
	<path style="fill:none;stroke:red;stroke-width:1px;stroke-linecap:butt;stroke-linejoin:miter;stroke-opacity:1" d="M 986.832,202.033 994.166,220.37 z" id="boundary" inkscape:connector-curvature="0" />
	<path style="fill:none;stroke:red;stroke-width:1px;stroke-linecap:butt;stroke-linejoin:miter;stroke-opacity:1" d="M 994.166,220.37 996,238.706 z" id="boundary" inkscape:connector-curvature="0" />
	<path style="fill:none;stroke:red;stroke-width:1px;stroke-linecap:butt;stroke-linejoin:miter;stroke-opacity:1" d="M 996,238.706 996,257.043 z" id="boundary" inkscape:connector-curvature="0" />
	<path style="fill:none;stroke:red;stroke-width:1px;stroke-linecap:butt;stroke-linejoin:miter;stroke-opacity:1" d="M 996,257.043 996,275.379 z" id="boundary" inkscape:connector-curvature="0" />
	<path style="fill:none;stroke:red;stroke-width:1px;stroke-linecap:butt;stroke-linejoin:miter;stroke-opacity:1" d="M 996,275.379 996,293.715 z" id="boundary" inkscape:connector-curvature="0" />
	<path style="fill:none;stroke:red;stroke-width:1px;stroke-linecap:butt;stroke-linejoin:miter;stroke-opacity:1" d="M 996,293.715 996,312.052 z" id="boundary" inkscape:connector-curvature="0" />
	<path style="fill:none;stroke:red;stroke-width:1px;stroke-linecap:butt;stroke-linejoin:miter;stroke-opacity:1" d="M 996,312.052 996,330.388 z" id="boundary" inkscape:connector-curvature="0" />
	<path style="fill:none;stroke:red;stroke-width:1px;stroke-linecap:butt;stroke-linejoin:miter;stroke-opacity:1" d="M 898.817,480.747 913.486,455.076 z" id="boundary" inkscape:connector-curvature="0" />
	<path style="fill:none;stroke:red;stroke-width:1px;stroke-linecap:butt;stroke-linejoin:miter;stroke-opacity:1" d="M 913.486,455.076 931.823,445.908 z" id="boundary" inkscape:connector-curvature="0" />
	<path style="fill:none;stroke:red;stroke-width:1px;stroke-linecap:butt;stroke-linejoin:miter;stroke-opacity:1" d="M 931.823,445.908 940.991,427.571 z" id="boundary" inkscape:connector-curvature="0" />
	<path style="fill:none;stroke:red;stroke-width:1px;stroke-linecap:butt;stroke-linejoin:miter;stroke-opacity:1" d="M 940.991,427.571 959.327,418.403 z" id="boundary" inkscape:connector-curvature="0" />
	<path style="fill:none;stroke:red;stroke-width:1px;stroke-linecap:butt;stroke-linejoin:miter;stroke-opacity:1" d="M 959.327,418.403 968.495,390.898 z" id="boundary" inkscape:connector-curvature="0" />
	<path style="fill:none;stroke:red;stroke-width:1px;stroke-linecap:butt;stroke-linejoin:miter;stroke-opacity:1" d="M 968.495,390.898 986.832,381.73 z" id="boundary" inkscape:connector-curvature="0" />
	<path style="fill:none;stroke:red;stroke-width:1px;stroke-linecap:butt;stroke-linejoin:miter;stroke-opacity:1" d="M 986.832,381.73 986.832,363.394 z" id="boundary" inkscape:connector-curvature="0" />
	<path style="fill:none;stroke:red;stroke-width:1px;stroke-linecap:butt;stroke-linejoin:miter;stroke-opacity:1" d="M 996,330.388 986.832,363.394 z" id="boundary" inkscape:connector-curvature="0" />
	<circle cx="4" cy="238.706" r="4" fill="#0" id="circle0"/>
	<circle cx="4" cy="257.043" r="4" fill="#0" id="circle1"/>
	<circle cx="4" cy="275.379" r="4" fill="#0" id="circle2"/>
	<circle cx="4" cy="293.715" r="4" fill="#0" id="circle3"/>
	<circle cx="4" cy="312.052" r="4" fill="#0" id="circle4"/>
	<circle cx="4" cy="330.388" r="4" fill="#0" id="circle5"/>
	<circle cx="4" cy="348.725" r="4" fill="#0" id="circle6"/>
	<circle cx="15.0018" cy="363.394" r="4" fill="#0" id="circle7"/>
	<circle cx="22.3364" cy="211.201" r="4" fill="#0" id="circle8"/>
	<circle cx="22.3364" cy="229.538" r="4" fill="#0" id="circle9"/>
	<circle cx="22.3364" cy="381.73" r="4" fill="#0" id="circle10"/>
	<circle cx="31.5046" cy="183.697" r="4" fill="#0" id="circle11"/>
	<circle cx="31.5046" cy="398.233" r="4" fill="#0" id="circle12"/>
	<circle cx="35.1719" cy="416.569" r="4" fill="#0" id="circle13"/>
	<circle cx="40.6728" cy="165.36" r="4" fill="#0" id="circle14"/>
	<circle cx="49.841" cy="427.571" r="4" fill="#0" id="circle15"/>
	<circle cx="59.0092" cy="156.192" r="4" fill="#0" id="circle16"/>
	<circle cx="60.8429" cy="442.24" r="4" fill="#0" id="circle17"/>
	<circle cx="68.1774" cy="137.856" r="4" fill="#0" id="circle18"/>
	<circle cx="75.512" cy="455.076" r="4" fill="#0" id="circle19"/>
	<circle cx="86.5139" cy="128.688" r="4" fill="#0" id="circle20"/>
	<circle cx="88.3475" cy="469.745" r="4" fill="#0" id="circle21"/>
	<circle cx="95.6821" cy="110.351" r="4" fill="#0" id="circle22"/>
	<circle cx="103.017" cy="482.58" r="4" fill="#0" id="circle23"/>
	<circle cx="114.018" cy="104.85" r="4" fill="#0" id="circle24"/>
	<circle cx="121.353" cy="482.58" r="4" fill="#0" id="circle25"/>
	<circle cx="128.688" cy="500.917" r="4" fill="#0" id="circle26"/>
	<circle cx="130.521" cy="95.6821" r="4" fill="#0" id="circle27"/>
	<circle cx="147.024" cy="86.5139" r="4" fill="#0" id="circle28"/>
	<circle cx="147.024" cy="508.251" r="4" fill="#0" id="circle29"/>
	<circle cx="165.36" cy="86.5139" r="4" fill="#0" id="circle30"/>
	<circle cx="165.36" cy="510.085" r="4" fill="#0" id="circle31"/>
	<circle cx="174.529" cy="68.1774" r="4" fill="#0" id="circle32"/>
	<circle cx="174.529" cy="526.588" r="4" fill="#0" id="circle33"/>
	<circle cx="192.865" cy="68.1774" r="4" fill="#0" id="circle34"/>
	<circle cx="192.865" cy="528.421" r="4" fill="#0" id="circle35"/>
	<circle cx="211.201" cy="59.0092" r="4" fill="#0" id="circle36"/>
	<circle cx="211.201" cy="535.756" r="4" fill="#0" id="circle37"/>
	<circle cx="229.538" cy="59.0092" r="4" fill="#0" id="circle38"/>
	<circle cx="229.538" cy="537.59" r="4" fill="#0" id="circle39"/>
	<circle cx="244.207" cy="44.3401" r="4" fill="#0" id="circle40"/>
	<circle cx="244.207" cy="550.425" r="4" fill="#0" id="circle41"/>
	<circle cx="262.543" cy="40.6728" r="4" fill="#0" id="circle42"/>
	<circle cx="262.543" cy="555.926" r="4" fill="#0" id="circle43"/>
	<circle cx="280.88" cy="40.6728" r="4" fill="#0" id="circle44"/>
	<circle cx="280.88" cy="555.926" r="4" fill="#0" id="circle45"/>
	<circle cx="297.383" cy="31.5046" r="4" fill="#0" id="circle46"/>
	<circle cx="297.383" cy="565.094" r="4" fill="#0" id="circle47"/>
	<circle cx="315.719" cy="31.5046" r="4" fill="#0" id="circle48"/>
	<circle cx="315.719" cy="565.094" r="4" fill="#0" id="circle49"/>
	<circle cx="334.055" cy="31.5046" r="4" fill="#0" id="circle50"/>
	<circle cx="334.055" cy="565.094" r="4" fill="#0" id="circle51"/>
	<circle cx="352.392" cy="18.6691" r="4" fill="#0" id="circle52"/>
	<circle cx="352.392" cy="565.094" r="4" fill="#0" id="circle53"/>
	<circle cx="357.893" cy="583.431" r="4" fill="#0" id="circle54"/>
	<circle cx="370.728" cy="13.1682" r="4" fill="#0" id="circle55"/>
	<circle cx="376.229" cy="583.431" r="4" fill="#0" id="circle56"/>
	<circle cx="389.065" cy="13.1682" r="4" fill="#0" id="circle57"/>
	<circle cx="394.566" cy="583.431" r="4" fill="#0" id="circle58"/>
	<circle cx="407.401" cy="13.1682" r="4" fill="#0" id="circle59"/>
	<circle cx="412.902" cy="583.431" r="4" fill="#0" id="circle60"/>
	<circle cx="425.738" cy="13.1682" r="4" fill="#0" id="circle61"/>
	<circle cx="431.238" cy="583.431" r="4" fill="#0" id="circle62"/>
	<circle cx="444.074" cy="13.1682" r="4" fill="#0" id="circle63"/>
	<circle cx="449.575" cy="583.431" r="4" fill="#0" id="circle64"/>
	<circle cx="462.41" cy="9.50092" r="4" fill="#0" id="circle65"/>
	<circle cx="467.911" cy="583.431" r="4" fill="#0" id="circle66"/>
	<circle cx="480.747" cy="4" r="4" fill="#0" id="circle67"/>
	<circle cx="486.248" cy="583.431" r="4" fill="#0" id="circle68"/>
	<circle cx="499.083" cy="4" r="4" fill="#0" id="circle69"/>
	<circle cx="504.584" cy="583.431" r="4" fill="#0" id="circle70"/>
	<circle cx="517.42" cy="4" r="4" fill="#0" id="circle71"/>
	<circle cx="522.921" cy="583.431" r="4" fill="#0" id="circle72"/>
	<circle cx="535.756" cy="7.66728" r="4" fill="#0" id="circle73"/>
	<circle cx="541.257" cy="583.431" r="4" fill="#0" id="circle74"/>
	<circle cx="554.092" cy="13.1682" r="4" fill="#0" id="circle75"/>
	<circle cx="559.593" cy="583.431" r="4" fill="#0" id="circle76"/>
	<circle cx="572.429" cy="13.1682" r="4" fill="#0" id="circle77"/>
	<circle cx="577.93" cy="583.431" r="4" fill="#0" id="circle78"/>
	<circle cx="590.765" cy="13.1682" r="4" fill="#0" id="circle79"/>
	<circle cx="596.266" cy="583.431" r="4" fill="#0" id="circle80"/>
	<circle cx="609.102" cy="13.1682" r="4" fill="#0" id="circle81"/>
	<circle cx="614.603" cy="583.431" r="4" fill="#0" id="circle82"/>
	<circle cx="627.438" cy="13.1682" r="4" fill="#0" id="circle83"/>
	<circle cx="632.939" cy="583.431" r="4" fill="#0" id="circle84"/>
	<circle cx="638.44" cy="27.8373" r="4" fill="#0" id="circle85"/>
	<circle cx="647.608" cy="565.094" r="4" fill="#0" id="circle86"/>
	<circle cx="656.776" cy="31.5046" r="4" fill="#0" id="circle87"/>
	<circle cx="665.945" cy="565.094" r="4" fill="#0" id="circle88"/>
	<circle cx="675.113" cy="31.5046" r="4" fill="#0" id="circle89"/>
	<circle cx="684.281" cy="565.094" r="4" fill="#0" id="circle90"/>
	<circle cx="686.115" cy="15.0018" r="4" fill="#0" id="circle91"/>
	<circle cx="702.617" cy="565.094" r="4" fill="#0" id="circle92"/>
	<circle cx="704.451" cy="13.1682" r="4" fill="#0" id="circle93"/>
	<circle cx="719.12" cy="555.926" r="4" fill="#0" id="circle94"/>
	<circle cx="720.954" cy="4" r="4" fill="#0" id="circle95"/>
	<circle cx="737.457" cy="555.926" r="4" fill="#0" id="circle96"/>
	<circle cx="739.29" cy="4" r="4" fill="#0" id="circle97"/>
	<circle cx="755.793" cy="550.425" r="4" fill="#0" id="circle98"/>
	<circle cx="757.627" cy="4" r="4" fill="#0" id="circle99"/>
	<circle cx="770.462" cy="537.59" r="4" fill="#0" id="circle100"/>
	<circle cx="775.963" cy="4" r="4" fill="#0" id="circle101"/>
	<circle cx="788.799" cy="535.756" r="4" fill="#0" id="circle102"/>
	<circle cx="794.299" cy="4" r="4" fill="#0" id="circle103"/>
	<circle cx="807.135" cy="528.421" r="4" fill="#0" id="circle104"/>
	<circle cx="812.636" cy="4" r="4" fill="#0" id="circle105"/>
	<circle cx="825.471" cy="526.588" r="4" fill="#0" id="circle106"/>
	<circle cx="830.972" cy="4" r="4" fill="#0" id="circle107"/>
	<circle cx="834.64" cy="510.085" r="4" fill="#0" id="circle108"/>
	<circle cx="849.309" cy="4" r="4" fill="#0" id="circle109"/>
	<circle cx="849.309" cy="70.0111" r="4" fill="#0" id="circle110"/>
	<circle cx="849.309" cy="88.3475" r="4" fill="#0" id="circle111"/>
	<circle cx="852.976" cy="508.251" r="4" fill="#0" id="circle112"/>
	<circle cx="858.477" cy="42.5065" r="4" fill="#0" id="circle113"/>
	<circle cx="867.645" cy="4" r="4" fill="#0" id="circle114"/>
	<circle cx="867.645" cy="95.6821" r="4" fill="#0" id="circle115"/>
	<circle cx="871.312" cy="499.083" r="4" fill="#0" id="circle116"/>
	<circle cx="876.813" cy="20.5028" r="4" fill="#0" id="circle117"/>
	<circle cx="880.481" cy="482.58" r="4" fill="#0" id="circle118"/>
	<circle cx="884.148" cy="104.85" r="4" fill="#0" id="circle119"/>
	<circle cx="898.817" cy="480.747" r="4" fill="#0" id="circle120"/>
	<circle cx="902.484" cy="108.518" r="4" fill="#0" id="circle121"/>
	<circle cx="909.819" cy="126.854" r="4" fill="#0" id="circle122"/>
	<circle cx="913.486" cy="455.076" r="4" fill="#0" id="circle123"/>
	<circle cx="928.155" cy="134.189" r="4" fill="#0" id="circle124"/>
	<circle cx="931.823" cy="445.908" r="4" fill="#0" id="circle125"/>
	<circle cx="935.49" cy="152.525" r="4" fill="#0" id="circle126"/>
	<circle cx="940.991" cy="427.571" r="4" fill="#0" id="circle127"/>
	<circle cx="953.826" cy="159.86" r="4" fill="#0" id="circle128"/>
	<circle cx="959.327" cy="178.196" r="4" fill="#0" id="circle129"/>
	<circle cx="959.327" cy="418.403" r="4" fill="#0" id="circle130"/>
	<circle cx="968.495" cy="390.898" r="4" fill="#0" id="circle131"/>
	<circle cx="975.83" cy="187.364" r="4" fill="#0" id="circle132"/>
	<circle cx="986.832" cy="202.033" r="4" fill="#0" id="circle133"/>
	<circle cx="986.832" cy="363.394" r="4" fill="#0" id="circle134"/>
	<circle cx="986.832" cy="381.73" r="4" fill="#0" id="circle135"/>
	<circle cx="994.166" cy="220.37" r="4" fill="#0" id="circle136"/>
	<circle cx="996" cy="238.706" r="4" fill="#0" id="circle137"/>
	<circle cx="996" cy="257.043" r="4" fill="#0" id="circle138"/>
	<circle cx="996" cy="275.379" r="4" fill="#0" id="circle139"/>
	<circle cx="996" cy="293.715" r="4" fill="#0" id="circle140"/>
	<circle cx="996" cy="312.052" r="4" fill="#0" id="circle141"/>
	<circle cx="996" cy="330.388" r="4" fill="#0" id="circle142"/>
	</g>
</svg>