<?xml version="1.0" encoding="UTF-8" standalone="no"?>
<!-- Created with CurveBenchmark -->
<svg
	xmlns:dc="http://purl.org/dc/elements/1.1/"
	xmlns:cc="http://creativecommons.org/ns#"
	xmlns:rdf="http://www.w3.org/1999/02/22-rdf-syntax-ns#"
	xmlns:svg="http://www.w3.org/2000/svg"
	xmlns="http://www.w3.org/2000/svg"
	xmlns:sodipodi="http://sodipodi.sourceforge.net/DTD/sodipodi-0.dtd"
	xmlns:inkscape="http://www.inkscape.org/namespaces/inkscape"
	width="1000"
	height="1000"
	id="svg2"
	version="1.1"
	sodipodi:docname="manifold/crawl-fish260.png.txt">
<defs
	id="defs4" />
<metadata
	id="metadata7">
	<rdf:RDF>
		<cc:Work
			rdf:about="">
			<dc:format>image/svg+xml</dc:format>
			<dc:type
				rdf:resource="http://purl.org/dc/dcmitype/StillImage" />
			<dc:title></dc:title>
		</cc:Work>
	</rdf:RDF>
</metadata>
<g
	inkscape:label="Layer 1"
	inkscape:groupmode="layer"
	id="layer1">
	<path style="fill:none;stroke:red;stroke-width:1px;stroke-linecap:butt;stroke-linejoin:miter;stroke-opacity:1" d="M 4,540.553 4,602.943 z" id="boundary" inkscape:connector-curvature="0" />
	<path style="fill:none;stroke:red;stroke-width:1px;stroke-linecap:butt;stroke-linejoin:miter;stroke-opacity:1" d="M 4,602.943 10.239,665.333 z" id="boundary" inkscape:connector-curvature="0" />
	<path style="fill:none;stroke:red;stroke-width:1px;stroke-linecap:butt;stroke-linejoin:miter;stroke-opacity:1" d="M 10.239,665.333 47.673,715.245 z" id="boundary" inkscape:connector-curvature="0" />
	<path style="fill:none;stroke:red;stroke-width:1px;stroke-linecap:butt;stroke-linejoin:miter;stroke-opacity:1" d="M 47.673,715.245 103.824,746.44 z" id="boundary" inkscape:connector-curvature="0" />
	<path style="fill:none;stroke:red;stroke-width:1px;stroke-linecap:butt;stroke-linejoin:miter;stroke-opacity:1" d="M 103.824,746.44 166.214,746.44 z" id="boundary" inkscape:connector-curvature="0" />
	<path style="fill:none;stroke:red;stroke-width:1px;stroke-linecap:butt;stroke-linejoin:miter;stroke-opacity:1" d="M 166.214,746.44 203.648,796.352 z" id="boundary" inkscape:connector-curvature="0" />
	<path style="fill:none;stroke:red;stroke-width:1px;stroke-linecap:butt;stroke-linejoin:miter;stroke-opacity:1" d="M 4,540.553 53.9119,490.642 z" id="boundary" inkscape:connector-curvature="0" />
	<path style="fill:none;stroke:red;stroke-width:1px;stroke-linecap:butt;stroke-linejoin:miter;stroke-opacity:1" d="M 53.9119,490.642 103.824,453.208 z" id="boundary" inkscape:connector-curvature="0" />
	<path style="fill:none;stroke:red;stroke-width:1px;stroke-linecap:butt;stroke-linejoin:miter;stroke-opacity:1" d="M 103.824,453.208 103.824,390.818 z" id="boundary" inkscape:connector-curvature="0" />
	<path style="fill:none;stroke:red;stroke-width:1px;stroke-linecap:butt;stroke-linejoin:miter;stroke-opacity:1" d="M 103.824,390.818 103.824,328.428 z" id="boundary" inkscape:connector-curvature="0" />
	<path style="fill:none;stroke:red;stroke-width:1px;stroke-linecap:butt;stroke-linejoin:miter;stroke-opacity:1" d="M 103.824,328.428 103.824,266.038 z" id="boundary" inkscape:connector-curvature="0" />
	<path style="fill:none;stroke:red;stroke-width:1px;stroke-linecap:butt;stroke-linejoin:miter;stroke-opacity:1" d="M 103.824,266.038 166.214,284.755 z" id="boundary" inkscape:connector-curvature="0" />
	<path style="fill:none;stroke:red;stroke-width:1px;stroke-linecap:butt;stroke-linejoin:miter;stroke-opacity:1" d="M 166.214,284.755 203.648,228.604 z" id="boundary" inkscape:connector-curvature="0" />
	<path style="fill:none;stroke:red;stroke-width:1px;stroke-linecap:butt;stroke-linejoin:miter;stroke-opacity:1" d="M 203.648,228.604 228.604,166.214 z" id="boundary" inkscape:connector-curvature="0" />
	<path style="fill:none;stroke:red;stroke-width:1px;stroke-linecap:butt;stroke-linejoin:miter;stroke-opacity:1" d="M 228.604,166.214 284.755,135.019 z" id="boundary" inkscape:connector-curvature="0" />
	<path style="fill:none;stroke:red;stroke-width:1px;stroke-linecap:butt;stroke-linejoin:miter;stroke-opacity:1" d="M 284.755,135.019 309.711,72.6289 z" id="boundary" inkscape:connector-curvature="0" />
	<path style="fill:none;stroke:red;stroke-width:1px;stroke-linecap:butt;stroke-linejoin:miter;stroke-opacity:1" d="M 309.711,72.6289 340.906,4 z" id="boundary" inkscape:connector-curvature="0" />
	<path style="fill:none;stroke:red;stroke-width:1px;stroke-linecap:butt;stroke-linejoin:miter;stroke-opacity:1" d="M 340.906,4 397.057,35.195 z" id="boundary" inkscape:connector-curvature="0" />
	<path style="fill:none;stroke:red;stroke-width:1px;stroke-linecap:butt;stroke-linejoin:miter;stroke-opacity:1" d="M 397.057,35.195 397.057,97.5849 z" id="boundary" inkscape:connector-curvature="0" />
	<path style="fill:none;stroke:red;stroke-width:1px;stroke-linecap:butt;stroke-linejoin:miter;stroke-opacity:1" d="M 397.057,97.5849 409.535,159.975 z" id="boundary" inkscape:connector-curvature="0" />
	<path style="fill:none;stroke:red;stroke-width:1px;stroke-linecap:butt;stroke-linejoin:miter;stroke-opacity:1" d="M 409.535,159.975 440.73,216.126 z" id="boundary" inkscape:connector-curvature="0" />
	<path style="fill:none;stroke:red;stroke-width:1px;stroke-linecap:butt;stroke-linejoin:miter;stroke-opacity:1" d="M 440.73,216.126 490.642,253.56 z" id="boundary" inkscape:connector-curvature="0" />
	<path style="fill:none;stroke:red;stroke-width:1px;stroke-linecap:butt;stroke-linejoin:miter;stroke-opacity:1" d="M 490.642,253.56 540.553,297.233 z" id="boundary" inkscape:connector-curvature="0" />
	<path style="fill:none;stroke:red;stroke-width:1px;stroke-linecap:butt;stroke-linejoin:miter;stroke-opacity:1" d="M 540.553,297.233 590.465,334.667 z" id="boundary" inkscape:connector-curvature="0" />
	<path style="fill:none;stroke:red;stroke-width:1px;stroke-linecap:butt;stroke-linejoin:miter;stroke-opacity:1" d="M 590.465,334.667 609.182,397.057 z" id="boundary" inkscape:connector-curvature="0" />
	<path style="fill:none;stroke:red;stroke-width:1px;stroke-linecap:butt;stroke-linejoin:miter;stroke-opacity:1" d="M 609.182,397.057 621.66,459.447 z" id="boundary" inkscape:connector-curvature="0" />
	<path style="fill:none;stroke:red;stroke-width:1px;stroke-linecap:butt;stroke-linejoin:miter;stroke-opacity:1" d="M 621.66,459.447 659.094,509.358 z" id="boundary" inkscape:connector-curvature="0" />
	<path style="fill:none;stroke:red;stroke-width:1px;stroke-linecap:butt;stroke-linejoin:miter;stroke-opacity:1" d="M 659.094,509.358 646.616,590.465 z" id="boundary" inkscape:connector-curvature="0" />
	<path style="fill:none;stroke:red;stroke-width:1px;stroke-linecap:butt;stroke-linejoin:miter;stroke-opacity:1" d="M 646.616,590.465 634.138,652.855 z" id="boundary" inkscape:connector-curvature="0" />
	<path style="fill:none;stroke:red;stroke-width:1px;stroke-linecap:butt;stroke-linejoin:miter;stroke-opacity:1" d="M 634.138,652.855 609.182,715.245 z" id="boundary" inkscape:connector-curvature="0" />
	<path style="fill:none;stroke:red;stroke-width:1px;stroke-linecap:butt;stroke-linejoin:miter;stroke-opacity:1" d="M 609.182,715.245 553.031,746.44 z" id="boundary" inkscape:connector-curvature="0" />
	<path style="fill:none;stroke:red;stroke-width:1px;stroke-linecap:butt;stroke-linejoin:miter;stroke-opacity:1" d="M 553.031,746.44 490.642,758.918 z" id="boundary" inkscape:connector-curvature="0" />
	<path style="fill:none;stroke:red;stroke-width:1px;stroke-linecap:butt;stroke-linejoin:miter;stroke-opacity:1" d="M 490.642,758.918 509.358,821.308 z" id="boundary" inkscape:connector-curvature="0" />
	<path style="fill:none;stroke:red;stroke-width:1px;stroke-linecap:butt;stroke-linejoin:miter;stroke-opacity:1" d="M 509.358,821.308 534.314,883.698 z" id="boundary" inkscape:connector-curvature="0" />
	<path style="fill:none;stroke:red;stroke-width:1px;stroke-linecap:butt;stroke-linejoin:miter;stroke-opacity:1" d="M 534.314,883.698 546.792,946.088 z" id="boundary" inkscape:connector-curvature="0" />
	<path style="fill:none;stroke:red;stroke-width:1px;stroke-linecap:butt;stroke-linejoin:miter;stroke-opacity:1" d="M 546.792,946.088 503.119,996 z" id="boundary" inkscape:connector-curvature="0" />
	<path style="fill:none;stroke:red;stroke-width:1px;stroke-linecap:butt;stroke-linejoin:miter;stroke-opacity:1" d="M 503.119,996 471.925,939.849 z" id="boundary" inkscape:connector-curvature="0" />
	<path style="fill:none;stroke:red;stroke-width:1px;stroke-linecap:butt;stroke-linejoin:miter;stroke-opacity:1" d="M 471.925,939.849 440.73,883.698 z" id="boundary" inkscape:connector-curvature="0" />
	<path style="fill:none;stroke:red;stroke-width:1px;stroke-linecap:butt;stroke-linejoin:miter;stroke-opacity:1" d="M 440.73,883.698 415.774,821.308 z" id="boundary" inkscape:connector-curvature="0" />
	<path style="fill:none;stroke:red;stroke-width:1px;stroke-linecap:butt;stroke-linejoin:miter;stroke-opacity:1" d="M 415.774,821.308 365.862,783.874 z" id="boundary" inkscape:connector-curvature="0" />
	<path style="fill:none;stroke:red;stroke-width:1px;stroke-linecap:butt;stroke-linejoin:miter;stroke-opacity:1" d="M 365.862,783.874 309.711,815.069 z" id="boundary" inkscape:connector-curvature="0" />
	<path style="fill:none;stroke:red;stroke-width:1px;stroke-linecap:butt;stroke-linejoin:miter;stroke-opacity:1" d="M 309.711,815.069 272.277,877.459 z" id="boundary" inkscape:connector-curvature="0" />
	<path style="fill:none;stroke:red;stroke-width:1px;stroke-linecap:butt;stroke-linejoin:miter;stroke-opacity:1" d="M 272.277,877.459 241.082,933.61 z" id="boundary" inkscape:connector-curvature="0" />
	<path style="fill:none;stroke:red;stroke-width:1px;stroke-linecap:butt;stroke-linejoin:miter;stroke-opacity:1" d="M 241.082,933.61 203.648,989.761 z" id="boundary" inkscape:connector-curvature="0" />
	<path style="fill:none;stroke:red;stroke-width:1px;stroke-linecap:butt;stroke-linejoin:miter;stroke-opacity:1" d="M 203.648,989.761 153.736,952.327 z" id="boundary" inkscape:connector-curvature="0" />
	<path style="fill:none;stroke:red;stroke-width:1px;stroke-linecap:butt;stroke-linejoin:miter;stroke-opacity:1" d="M 153.736,952.327 178.692,889.937 z" id="boundary" inkscape:connector-curvature="0" />
	<path style="fill:none;stroke:red;stroke-width:1px;stroke-linecap:butt;stroke-linejoin:miter;stroke-opacity:1" d="M 178.692,889.937 203.648,796.352 z" id="boundary" inkscape:connector-curvature="0" />
	<circle cx="4" cy="540.553" r="4" fill="#0" id="circle0"/>
	<circle cx="4" cy="602.943" r="4" fill="#0" id="circle1"/>
	<circle cx="10.239" cy="665.333" r="4" fill="#0" id="circle2"/>
	<circle cx="47.673" cy="715.245" r="4" fill="#0" id="circle3"/>
	<circle cx="53.9119" cy="490.642" r="4" fill="#0" id="circle4"/>
	<circle cx="103.824" cy="266.038" r="4" fill="#0" id="circle5"/>
	<circle cx="103.824" cy="328.428" r="4" fill="#0" id="circle6"/>
	<circle cx="103.824" cy="390.818" r="4" fill="#0" id="circle7"/>
	<circle cx="103.824" cy="453.208" r="4" fill="#0" id="circle8"/>
	<circle cx="103.824" cy="746.44" r="4" fill="#0" id="circle9"/>
	<circle cx="153.736" cy="952.327" r="4" fill="#0" id="circle10"/>
	<circle cx="166.214" cy="284.755" r="4" fill="#0" id="circle11"/>
	<circle cx="166.214" cy="746.44" r="4" fill="#0" id="circle12"/>
	<circle cx="178.692" cy="889.937" r="4" fill="#0" id="circle13"/>
	<circle cx="203.648" cy="228.604" r="4" fill="#0" id="circle14"/>
	<circle cx="203.648" cy="796.352" r="4" fill="#0" id="circle15"/>
	<circle cx="203.648" cy="989.761" r="4" fill="#0" id="circle16"/>
	<circle cx="228.604" cy="166.214" r="4" fill="#0" id="circle17"/>
	<circle cx="241.082" cy="933.61" r="4" fill="#0" id="circle18"/>
	<circle cx="272.277" cy="877.459" r="4" fill="#0" id="circle19"/>
	<circle cx="284.755" cy="135.019" r="4" fill="#0" id="circle20"/>
	<circle cx="309.711" cy="72.6289" r="4" fill="#0" id="circle21"/>
	<circle cx="309.711" cy="815.069" r="4" fill="#0" id="circle22"/>
	<circle cx="340.906" cy="4" r="4" fill="#0" id="circle23"/>
	<circle cx="365.862" cy="783.874" r="4" fill="#0" id="circle24"/>
	<circle cx="397.057" cy="35.195" r="4" fill="#0" id="circle25"/>
	<circle cx="397.057" cy="97.5849" r="4" fill="#0" id="circle26"/>
	<circle cx="409.535" cy="159.975" r="4" fill="#0" id="circle27"/>
	<circle cx="415.774" cy="821.308" r="4" fill="#0" id="circle28"/>
	<circle cx="440.73" cy="216.126" r="4" fill="#0" id="circle29"/>
	<circle cx="440.73" cy="883.698" r="4" fill="#0" id="circle30"/>
	<circle cx="471.925" cy="939.849" r="4" fill="#0" id="circle31"/>
	<circle cx="490.642" cy="253.56" r="4" fill="#0" id="circle32"/>
	<circle cx="490.642" cy="758.918" r="4" fill="#0" id="circle33"/>
	<circle cx="503.119" cy="996" r="4" fill="#0" id="circle34"/>
	<circle cx="509.358" cy="821.308" r="4" fill="#0" id="circle35"/>
	<circle cx="534.314" cy="883.698" r="4" fill="#0" id="circle36"/>
	<circle cx="540.553" cy="297.233" r="4" fill="#0" id="circle37"/>
	<circle cx="546.792" cy="946.088" r="4" fill="#0" id="circle38"/>
	<circle cx="553.031" cy="746.44" r="4" fill="#0" id="circle39"/>
	<circle cx="590.465" cy="334.667" r="4" fill="#0" id="circle40"/>
	<circle cx="609.182" cy="397.057" r="4" fill="#0" id="circle41"/>
	<circle cx="609.182" cy="715.245" r="4" fill="#0" id="circle42"/>
	<circle cx="621.66" cy="459.447" r="4" fill="#0" id="circle43"/>
	<circle cx="634.138" cy="652.855" r="4" fill="#0" id="circle44"/>
	<circle cx="646.616" cy="590.465" r="4" fill="#0" id="circle45"/>
	<circle cx="659.094" cy="509.358" r="4" fill="#0" id="circle46"/>
	</g>
</svg>