<?xml version="1.0" encoding="UTF-8" standalone="no"?>
<!-- Created with CurveBenchmark -->
<svg
	xmlns:dc="http://purl.org/dc/elements/1.1/"
	xmlns:cc="http://creativecommons.org/ns#"
	xmlns:rdf="http://www.w3.org/1999/02/22-rdf-syntax-ns#"
	xmlns:svg="http://www.w3.org/2000/svg"
	xmlns="http://www.w3.org/2000/svg"
	xmlns:sodipodi="http://sodipodi.sourceforge.net/DTD/sodipodi-0.dtd"
	xmlns:inkscape="http://www.inkscape.org/namespaces/inkscape"
	width="1000"
	height="1000"
	id="svg2"
	version="1.1"
	sodipodi:docname="manifold/crawl-Misk01.png.txt">
<defs
	id="defs4" />
<metadata
	id="metadata7">
	<rdf:RDF>
		<cc:Work
			rdf:about="">
			<dc:format>image/svg+xml</dc:format>
			<dc:type
				rdf:resource="http://purl.org/dc/dcmitype/StillImage" />
			<dc:title></dc:title>
		</cc:Work>
	</rdf:RDF>
</metadata>
<g
	inkscape:label="Layer 1"
	inkscape:groupmode="layer"
	id="layer1">
	<path style="fill:none;stroke:red;stroke-width:1px;stroke-linecap:butt;stroke-linejoin:miter;stroke-opacity:1" d="M 4,197.162 4,213.531 z" id="boundary" inkscape:connector-curvature="0" />
	<path style="fill:none;stroke:red;stroke-width:1px;stroke-linecap:butt;stroke-linejoin:miter;stroke-opacity:1" d="M 4,213.531 17.0957,224.99 z" id="boundary" inkscape:connector-curvature="0" />
	<path style="fill:none;stroke:red;stroke-width:1px;stroke-linecap:butt;stroke-linejoin:miter;stroke-opacity:1" d="M 17.0957,224.99 30.1914,234.812 z" id="boundary" inkscape:connector-curvature="0" />
	<path style="fill:none;stroke:red;stroke-width:1px;stroke-linecap:butt;stroke-linejoin:miter;stroke-opacity:1" d="M 30.1914,234.812 40.0132,247.908 z" id="boundary" inkscape:connector-curvature="0" />
	<path style="fill:none;stroke:red;stroke-width:1px;stroke-linecap:butt;stroke-linejoin:miter;stroke-opacity:1" d="M 40.0132,247.908 53.1089,259.366 z" id="boundary" inkscape:connector-curvature="0" />
	<path style="fill:none;stroke:red;stroke-width:1px;stroke-linecap:butt;stroke-linejoin:miter;stroke-opacity:1" d="M 53.1089,259.366 67.8416,267.551 z" id="boundary" inkscape:connector-curvature="0" />
	<path style="fill:none;stroke:red;stroke-width:1px;stroke-linecap:butt;stroke-linejoin:miter;stroke-opacity:1" d="M 67.8416,267.551 74.3894,283.921 z" id="boundary" inkscape:connector-curvature="0" />
	<path style="fill:none;stroke:red;stroke-width:1px;stroke-linecap:butt;stroke-linejoin:miter;stroke-opacity:1" d="M 74.3894,283.921 87.4851,295.38 z" id="boundary" inkscape:connector-curvature="0" />
	<path style="fill:none;stroke:red;stroke-width:1px;stroke-linecap:butt;stroke-linejoin:miter;stroke-opacity:1" d="M 87.4851,295.38 102.218,303.564 z" id="boundary" inkscape:connector-curvature="0" />
	<path style="fill:none;stroke:red;stroke-width:1px;stroke-linecap:butt;stroke-linejoin:miter;stroke-opacity:1" d="M 102.218,303.564 110.403,318.297 z" id="boundary" inkscape:connector-curvature="0" />
	<path style="fill:none;stroke:red;stroke-width:1px;stroke-linecap:butt;stroke-linejoin:miter;stroke-opacity:1" d="M 110.403,318.297 118.587,333.03 z" id="boundary" inkscape:connector-curvature="0" />
	<path style="fill:none;stroke:red;stroke-width:1px;stroke-linecap:butt;stroke-linejoin:miter;stroke-opacity:1" d="M 118.587,333.03 123.498,349.399 z" id="boundary" inkscape:connector-curvature="0" />
	<path style="fill:none;stroke:red;stroke-width:1px;stroke-linecap:butt;stroke-linejoin:miter;stroke-opacity:1" d="M 123.498,349.399 126.772,365.769 z" id="boundary" inkscape:connector-curvature="0" />
	<path style="fill:none;stroke:red;stroke-width:1px;stroke-linecap:butt;stroke-linejoin:miter;stroke-opacity:1" d="M 126.772,365.769 126.772,382.139 z" id="boundary" inkscape:connector-curvature="0" />
	<path style="fill:none;stroke:red;stroke-width:1px;stroke-linecap:butt;stroke-linejoin:miter;stroke-opacity:1" d="M 4,197.162 20.3696,188.977 z" id="boundary" inkscape:connector-curvature="0" />
	<path style="fill:none;stroke:red;stroke-width:1px;stroke-linecap:butt;stroke-linejoin:miter;stroke-opacity:1" d="M 20.3696,188.977 36.7393,172.607 z" id="boundary" inkscape:connector-curvature="0" />
	<path style="fill:none;stroke:red;stroke-width:1px;stroke-linecap:butt;stroke-linejoin:miter;stroke-opacity:1" d="M 36.7393,172.607 49.835,159.512 z" id="boundary" inkscape:connector-curvature="0" />
	<path style="fill:none;stroke:red;stroke-width:1px;stroke-linecap:butt;stroke-linejoin:miter;stroke-opacity:1" d="M 49.835,159.512 66.2046,151.327 z" id="boundary" inkscape:connector-curvature="0" />
	<path style="fill:none;stroke:red;stroke-width:1px;stroke-linecap:butt;stroke-linejoin:miter;stroke-opacity:1" d="M 66.2046,151.327 79.3003,138.231 z" id="boundary" inkscape:connector-curvature="0" />
	<path style="fill:none;stroke:red;stroke-width:1px;stroke-linecap:butt;stroke-linejoin:miter;stroke-opacity:1" d="M 79.3003,138.231 92.396,126.772 z" id="boundary" inkscape:connector-curvature="0" />
	<path style="fill:none;stroke:red;stroke-width:1px;stroke-linecap:butt;stroke-linejoin:miter;stroke-opacity:1" d="M 92.396,126.772 108.766,126.772 z" id="boundary" inkscape:connector-curvature="0" />
	<path style="fill:none;stroke:red;stroke-width:1px;stroke-linecap:butt;stroke-linejoin:miter;stroke-opacity:1" d="M 108.766,126.772 118.587,107.129 z" id="boundary" inkscape:connector-curvature="0" />
	<path style="fill:none;stroke:red;stroke-width:1px;stroke-linecap:butt;stroke-linejoin:miter;stroke-opacity:1" d="M 118.587,107.129 131.683,94.033 z" id="boundary" inkscape:connector-curvature="0" />
	<path style="fill:none;stroke:red;stroke-width:1px;stroke-linecap:butt;stroke-linejoin:miter;stroke-opacity:1" d="M 131.683,94.033 144.779,80.9373 z" id="boundary" inkscape:connector-curvature="0" />
	<path style="fill:none;stroke:red;stroke-width:1px;stroke-linecap:butt;stroke-linejoin:miter;stroke-opacity:1" d="M 144.779,80.9373 161.149,77.6634 z" id="boundary" inkscape:connector-curvature="0" />
	<path style="fill:none;stroke:red;stroke-width:1px;stroke-linecap:butt;stroke-linejoin:miter;stroke-opacity:1" d="M 161.149,77.6634 175.881,69.4785 z" id="boundary" inkscape:connector-curvature="0" />
	<path style="fill:none;stroke:red;stroke-width:1px;stroke-linecap:butt;stroke-linejoin:miter;stroke-opacity:1" d="M 175.881,69.4785 190.614,61.2937 z" id="boundary" inkscape:connector-curvature="0" />
	<path style="fill:none;stroke:red;stroke-width:1px;stroke-linecap:butt;stroke-linejoin:miter;stroke-opacity:1" d="M 190.614,61.2937 205.347,53.1089 z" id="boundary" inkscape:connector-curvature="0" />
	<path style="fill:none;stroke:red;stroke-width:1px;stroke-linecap:butt;stroke-linejoin:miter;stroke-opacity:1" d="M 205.347,53.1089 213.531,36.7393 z" id="boundary" inkscape:connector-curvature="0" />
	<path style="fill:none;stroke:red;stroke-width:1px;stroke-linecap:butt;stroke-linejoin:miter;stroke-opacity:1" d="M 213.531,36.7393 229.901,36.7393 z" id="boundary" inkscape:connector-curvature="0" />
	<path style="fill:none;stroke:red;stroke-width:1px;stroke-linecap:butt;stroke-linejoin:miter;stroke-opacity:1" d="M 229.901,36.7393 244.634,28.5545 z" id="boundary" inkscape:connector-curvature="0" />
	<path style="fill:none;stroke:red;stroke-width:1px;stroke-linecap:butt;stroke-linejoin:miter;stroke-opacity:1" d="M 244.634,28.5545 259.366,20.3696 z" id="boundary" inkscape:connector-curvature="0" />
	<path style="fill:none;stroke:red;stroke-width:1px;stroke-linecap:butt;stroke-linejoin:miter;stroke-opacity:1" d="M 259.366,20.3696 274.099,12.1848 z" id="boundary" inkscape:connector-curvature="0" />
	<path style="fill:none;stroke:red;stroke-width:1px;stroke-linecap:butt;stroke-linejoin:miter;stroke-opacity:1" d="M 274.099,12.1848 290.469,12.1848 z" id="boundary" inkscape:connector-curvature="0" />
	<path style="fill:none;stroke:red;stroke-width:1px;stroke-linecap:butt;stroke-linejoin:miter;stroke-opacity:1" d="M 290.469,12.1848 306.838,8.91089 z" id="boundary" inkscape:connector-curvature="0" />
	<path style="fill:none;stroke:red;stroke-width:1px;stroke-linecap:butt;stroke-linejoin:miter;stroke-opacity:1" d="M 306.838,8.91089 323.208,7.27393 z" id="boundary" inkscape:connector-curvature="0" />
	<path style="fill:none;stroke:red;stroke-width:1px;stroke-linecap:butt;stroke-linejoin:miter;stroke-opacity:1" d="M 323.208,7.27393 339.578,4 z" id="boundary" inkscape:connector-curvature="0" />
	<path style="fill:none;stroke:red;stroke-width:1px;stroke-linecap:butt;stroke-linejoin:miter;stroke-opacity:1" d="M 339.578,4 354.31,12.1848 z" id="boundary" inkscape:connector-curvature="0" />
	<path style="fill:none;stroke:red;stroke-width:1px;stroke-linecap:butt;stroke-linejoin:miter;stroke-opacity:1" d="M 354.31,12.1848 369.043,4 z" id="boundary" inkscape:connector-curvature="0" />
	<path style="fill:none;stroke:red;stroke-width:1px;stroke-linecap:butt;stroke-linejoin:miter;stroke-opacity:1" d="M 369.043,4 383.776,12.1848 z" id="boundary" inkscape:connector-curvature="0" />
	<path style="fill:none;stroke:red;stroke-width:1px;stroke-linecap:butt;stroke-linejoin:miter;stroke-opacity:1" d="M 383.776,12.1848 400.145,12.1848 z" id="boundary" inkscape:connector-curvature="0" />
	<path style="fill:none;stroke:red;stroke-width:1px;stroke-linecap:butt;stroke-linejoin:miter;stroke-opacity:1" d="M 400.145,12.1848 416.515,12.1848 z" id="boundary" inkscape:connector-curvature="0" />
	<path style="fill:none;stroke:red;stroke-width:1px;stroke-linecap:butt;stroke-linejoin:miter;stroke-opacity:1" d="M 416.515,12.1848 432.884,12.1848 z" id="boundary" inkscape:connector-curvature="0" />
	<path style="fill:none;stroke:red;stroke-width:1px;stroke-linecap:butt;stroke-linejoin:miter;stroke-opacity:1" d="M 432.884,12.1848 447.617,20.3696 z" id="boundary" inkscape:connector-curvature="0" />
	<path style="fill:none;stroke:red;stroke-width:1px;stroke-linecap:butt;stroke-linejoin:miter;stroke-opacity:1" d="M 447.617,20.3696 463.987,20.3696 z" id="boundary" inkscape:connector-curvature="0" />
	<path style="fill:none;stroke:red;stroke-width:1px;stroke-linecap:butt;stroke-linejoin:miter;stroke-opacity:1" d="M 463.987,20.3696 478.719,28.5545 z" id="boundary" inkscape:connector-curvature="0" />
	<path style="fill:none;stroke:red;stroke-width:1px;stroke-linecap:butt;stroke-linejoin:miter;stroke-opacity:1" d="M 478.719,28.5545 495.089,31.8284 z" id="boundary" inkscape:connector-curvature="0" />
	<path style="fill:none;stroke:red;stroke-width:1px;stroke-linecap:butt;stroke-linejoin:miter;stroke-opacity:1" d="M 495.089,31.8284 509.822,40.0132 z" id="boundary" inkscape:connector-curvature="0" />
	<path style="fill:none;stroke:red;stroke-width:1px;stroke-linecap:butt;stroke-linejoin:miter;stroke-opacity:1" d="M 509.822,40.0132 518.007,54.7459 z" id="boundary" inkscape:connector-curvature="0" />
	<path style="fill:none;stroke:red;stroke-width:1px;stroke-linecap:butt;stroke-linejoin:miter;stroke-opacity:1" d="M 518.007,54.7459 532.739,62.9307 z" id="boundary" inkscape:connector-curvature="0" />
	<path style="fill:none;stroke:red;stroke-width:1px;stroke-linecap:butt;stroke-linejoin:miter;stroke-opacity:1" d="M 532.739,62.9307 545.835,74.3894 z" id="boundary" inkscape:connector-curvature="0" />
	<path style="fill:none;stroke:red;stroke-width:1px;stroke-linecap:butt;stroke-linejoin:miter;stroke-opacity:1" d="M 545.835,74.3894 560.568,82.5743 z" id="boundary" inkscape:connector-curvature="0" />
	<path style="fill:none;stroke:red;stroke-width:1px;stroke-linecap:butt;stroke-linejoin:miter;stroke-opacity:1" d="M 560.568,82.5743 573.663,94.033 z" id="boundary" inkscape:connector-curvature="0" />
	<path style="fill:none;stroke:red;stroke-width:1px;stroke-linecap:butt;stroke-linejoin:miter;stroke-opacity:1" d="M 573.663,94.033 585.122,107.129 z" id="boundary" inkscape:connector-curvature="0" />
	<path style="fill:none;stroke:red;stroke-width:1px;stroke-linecap:butt;stroke-linejoin:miter;stroke-opacity:1" d="M 585.122,107.129 593.307,121.861 z" id="boundary" inkscape:connector-curvature="0" />
	<path style="fill:none;stroke:red;stroke-width:1px;stroke-linecap:butt;stroke-linejoin:miter;stroke-opacity:1" d="M 593.307,121.861 608.04,130.046 z" id="boundary" inkscape:connector-curvature="0" />
	<path style="fill:none;stroke:red;stroke-width:1px;stroke-linecap:butt;stroke-linejoin:miter;stroke-opacity:1" d="M 608.04,130.046 624.409,136.594 z" id="boundary" inkscape:connector-curvature="0" />
	<path style="fill:none;stroke:red;stroke-width:1px;stroke-linecap:butt;stroke-linejoin:miter;stroke-opacity:1" d="M 624.409,136.594 639.142,144.779 z" id="boundary" inkscape:connector-curvature="0" />
	<path style="fill:none;stroke:red;stroke-width:1px;stroke-linecap:butt;stroke-linejoin:miter;stroke-opacity:1" d="M 639.142,144.779 655.512,151.327 z" id="boundary" inkscape:connector-curvature="0" />
	<path style="fill:none;stroke:red;stroke-width:1px;stroke-linecap:butt;stroke-linejoin:miter;stroke-opacity:1" d="M 655.512,151.327 670.244,159.512 z" id="boundary" inkscape:connector-curvature="0" />
	<path style="fill:none;stroke:red;stroke-width:1px;stroke-linecap:butt;stroke-linejoin:miter;stroke-opacity:1" d="M 670.244,159.512 686.614,159.512 z" id="boundary" inkscape:connector-curvature="0" />
	<path style="fill:none;stroke:red;stroke-width:1px;stroke-linecap:butt;stroke-linejoin:miter;stroke-opacity:1" d="M 686.614,159.512 701.347,151.327 z" id="boundary" inkscape:connector-curvature="0" />
	<path style="fill:none;stroke:red;stroke-width:1px;stroke-linecap:butt;stroke-linejoin:miter;stroke-opacity:1" d="M 701.347,151.327 717.716,151.327 z" id="boundary" inkscape:connector-curvature="0" />
	<path style="fill:none;stroke:red;stroke-width:1px;stroke-linecap:butt;stroke-linejoin:miter;stroke-opacity:1" d="M 717.716,151.327 732.449,143.142 z" id="boundary" inkscape:connector-curvature="0" />
	<path style="fill:none;stroke:red;stroke-width:1px;stroke-linecap:butt;stroke-linejoin:miter;stroke-opacity:1" d="M 732.449,143.142 748.818,143.142 z" id="boundary" inkscape:connector-curvature="0" />
	<path style="fill:none;stroke:red;stroke-width:1px;stroke-linecap:butt;stroke-linejoin:miter;stroke-opacity:1" d="M 748.818,143.142 765.188,143.142 z" id="boundary" inkscape:connector-curvature="0" />
	<path style="fill:none;stroke:red;stroke-width:1px;stroke-linecap:butt;stroke-linejoin:miter;stroke-opacity:1" d="M 765.188,143.142 781.558,143.142 z" id="boundary" inkscape:connector-curvature="0" />
	<path style="fill:none;stroke:red;stroke-width:1px;stroke-linecap:butt;stroke-linejoin:miter;stroke-opacity:1" d="M 781.558,143.142 794.653,152.964 z" id="boundary" inkscape:connector-curvature="0" />
	<path style="fill:none;stroke:red;stroke-width:1px;stroke-linecap:butt;stroke-linejoin:miter;stroke-opacity:1" d="M 794.653,152.964 791.38,169.333 z" id="boundary" inkscape:connector-curvature="0" />
	<path style="fill:none;stroke:red;stroke-width:1px;stroke-linecap:butt;stroke-linejoin:miter;stroke-opacity:1" d="M 791.38,169.333 791.38,185.703 z" id="boundary" inkscape:connector-curvature="0" />
	<path style="fill:none;stroke:red;stroke-width:1px;stroke-linecap:butt;stroke-linejoin:miter;stroke-opacity:1" d="M 791.38,185.703 783.195,210.257 z" id="boundary" inkscape:connector-curvature="0" />
	<path style="fill:none;stroke:red;stroke-width:1px;stroke-linecap:butt;stroke-linejoin:miter;stroke-opacity:1" d="M 783.195,210.257 775.01,226.627 z" id="boundary" inkscape:connector-curvature="0" />
	<path style="fill:none;stroke:red;stroke-width:1px;stroke-linecap:butt;stroke-linejoin:miter;stroke-opacity:1" d="M 775.01,226.627 771.736,247.908 z" id="boundary" inkscape:connector-curvature="0" />
	<path style="fill:none;stroke:red;stroke-width:1px;stroke-linecap:butt;stroke-linejoin:miter;stroke-opacity:1" d="M 771.736,247.908 758.64,259.366 z" id="boundary" inkscape:connector-curvature="0" />
	<path style="fill:none;stroke:red;stroke-width:1px;stroke-linecap:butt;stroke-linejoin:miter;stroke-opacity:1" d="M 758.64,259.366 766.825,274.099 z" id="boundary" inkscape:connector-curvature="0" />
	<path style="fill:none;stroke:red;stroke-width:1px;stroke-linecap:butt;stroke-linejoin:miter;stroke-opacity:1" d="M 766.825,274.099 779.921,283.921 z" id="boundary" inkscape:connector-curvature="0" />
	<path style="fill:none;stroke:red;stroke-width:1px;stroke-linecap:butt;stroke-linejoin:miter;stroke-opacity:1" d="M 779.921,283.921 794.653,292.106 z" id="boundary" inkscape:connector-curvature="0" />
	<path style="fill:none;stroke:red;stroke-width:1px;stroke-linecap:butt;stroke-linejoin:miter;stroke-opacity:1" d="M 794.653,292.106 799.564,308.475 z" id="boundary" inkscape:connector-curvature="0" />
	<path style="fill:none;stroke:red;stroke-width:1px;stroke-linecap:butt;stroke-linejoin:miter;stroke-opacity:1" d="M 799.564,308.475 807.749,323.208 z" id="boundary" inkscape:connector-curvature="0" />
	<path style="fill:none;stroke:red;stroke-width:1px;stroke-linecap:butt;stroke-linejoin:miter;stroke-opacity:1" d="M 807.749,323.208 820.845,333.03 z" id="boundary" inkscape:connector-curvature="0" />
	<path style="fill:none;stroke:red;stroke-width:1px;stroke-linecap:butt;stroke-linejoin:miter;stroke-opacity:1" d="M 820.845,333.03 807.749,349.399 z" id="boundary" inkscape:connector-curvature="0" />
	<path style="fill:none;stroke:red;stroke-width:1px;stroke-linecap:butt;stroke-linejoin:miter;stroke-opacity:1" d="M 807.749,349.399 807.749,365.769 z" id="boundary" inkscape:connector-curvature="0" />
	<path style="fill:none;stroke:red;stroke-width:1px;stroke-linecap:butt;stroke-linejoin:miter;stroke-opacity:1" d="M 807.749,365.769 791.38,382.139 z" id="boundary" inkscape:connector-curvature="0" />
	<path style="fill:none;stroke:red;stroke-width:1px;stroke-linecap:butt;stroke-linejoin:miter;stroke-opacity:1" d="M 791.38,382.139 779.921,403.419 z" id="boundary" inkscape:connector-curvature="0" />
	<path style="fill:none;stroke:red;stroke-width:1px;stroke-linecap:butt;stroke-linejoin:miter;stroke-opacity:1" d="M 779.921,403.419 763.551,411.604 z" id="boundary" inkscape:connector-curvature="0" />
	<path style="fill:none;stroke:red;stroke-width:1px;stroke-linecap:butt;stroke-linejoin:miter;stroke-opacity:1" d="M 763.551,411.604 750.455,423.063 z" id="boundary" inkscape:connector-curvature="0" />
	<path style="fill:none;stroke:red;stroke-width:1px;stroke-linecap:butt;stroke-linejoin:miter;stroke-opacity:1" d="M 750.455,423.063 734.086,423.063 z" id="boundary" inkscape:connector-curvature="0" />
	<path style="fill:none;stroke:red;stroke-width:1px;stroke-linecap:butt;stroke-linejoin:miter;stroke-opacity:1" d="M 734.086,423.063 717.716,431.248 z" id="boundary" inkscape:connector-curvature="0" />
	<path style="fill:none;stroke:red;stroke-width:1px;stroke-linecap:butt;stroke-linejoin:miter;stroke-opacity:1" d="M 717.716,431.248 709.531,447.617 z" id="boundary" inkscape:connector-curvature="0" />
	<path style="fill:none;stroke:red;stroke-width:1px;stroke-linecap:butt;stroke-linejoin:miter;stroke-opacity:1" d="M 709.531,447.617 709.531,463.987 z" id="boundary" inkscape:connector-curvature="0" />
	<path style="fill:none;stroke:red;stroke-width:1px;stroke-linecap:butt;stroke-linejoin:miter;stroke-opacity:1" d="M 709.531,463.987 712.805,480.356 z" id="boundary" inkscape:connector-curvature="0" />
	<path style="fill:none;stroke:red;stroke-width:1px;stroke-linecap:butt;stroke-linejoin:miter;stroke-opacity:1" d="M 712.805,480.356 720.99,495.089 z" id="boundary" inkscape:connector-curvature="0" />
	<path style="fill:none;stroke:red;stroke-width:1px;stroke-linecap:butt;stroke-linejoin:miter;stroke-opacity:1" d="M 720.99,495.089 725.901,511.459 z" id="boundary" inkscape:connector-curvature="0" />
	<path style="fill:none;stroke:red;stroke-width:1px;stroke-linecap:butt;stroke-linejoin:miter;stroke-opacity:1" d="M 725.901,511.459 734.086,526.191 z" id="boundary" inkscape:connector-curvature="0" />
	<path style="fill:none;stroke:red;stroke-width:1px;stroke-linecap:butt;stroke-linejoin:miter;stroke-opacity:1" d="M 734.086,526.191 747.182,536.013 z" id="boundary" inkscape:connector-curvature="0" />
	<path style="fill:none;stroke:red;stroke-width:1px;stroke-linecap:butt;stroke-linejoin:miter;stroke-opacity:1" d="M 747.182,536.013 761.914,544.198 z" id="boundary" inkscape:connector-curvature="0" />
	<path style="fill:none;stroke:red;stroke-width:1px;stroke-linecap:butt;stroke-linejoin:miter;stroke-opacity:1" d="M 761.914,544.198 773.373,557.294 z" id="boundary" inkscape:connector-curvature="0" />
	<path style="fill:none;stroke:red;stroke-width:1px;stroke-linecap:butt;stroke-linejoin:miter;stroke-opacity:1" d="M 773.373,557.294 783.195,570.389 z" id="boundary" inkscape:connector-curvature="0" />
	<path style="fill:none;stroke:red;stroke-width:1px;stroke-linecap:butt;stroke-linejoin:miter;stroke-opacity:1" d="M 783.195,570.389 791.38,585.122 z" id="boundary" inkscape:connector-curvature="0" />
	<path style="fill:none;stroke:red;stroke-width:1px;stroke-linecap:butt;stroke-linejoin:miter;stroke-opacity:1" d="M 791.38,585.122 799.564,599.855 z" id="boundary" inkscape:connector-curvature="0" />
	<path style="fill:none;stroke:red;stroke-width:1px;stroke-linecap:butt;stroke-linejoin:miter;stroke-opacity:1" d="M 799.564,599.855 807.749,614.587 z" id="boundary" inkscape:connector-curvature="0" />
	<path style="fill:none;stroke:red;stroke-width:1px;stroke-linecap:butt;stroke-linejoin:miter;stroke-opacity:1" d="M 807.749,614.587 807.749,630.957 z" id="boundary" inkscape:connector-curvature="0" />
	<path style="fill:none;stroke:red;stroke-width:1px;stroke-linecap:butt;stroke-linejoin:miter;stroke-opacity:1" d="M 807.749,630.957 819.208,644.053 z" id="boundary" inkscape:connector-curvature="0" />
	<path style="fill:none;stroke:red;stroke-width:1px;stroke-linecap:butt;stroke-linejoin:miter;stroke-opacity:1" d="M 819.208,644.053 807.749,660.422 z" id="boundary" inkscape:connector-curvature="0" />
	<path style="fill:none;stroke:red;stroke-width:1px;stroke-linecap:butt;stroke-linejoin:miter;stroke-opacity:1" d="M 807.749,660.422 807.749,676.792 z" id="boundary" inkscape:connector-curvature="0" />
	<path style="fill:none;stroke:red;stroke-width:1px;stroke-linecap:butt;stroke-linejoin:miter;stroke-opacity:1" d="M 126.772,382.139 126.772,409.967 z" id="boundary" inkscape:connector-curvature="0" />
	<path style="fill:none;stroke:red;stroke-width:1px;stroke-linecap:butt;stroke-linejoin:miter;stroke-opacity:1" d="M 126.772,409.967 134.957,424.7 z" id="boundary" inkscape:connector-curvature="0" />
	<path style="fill:none;stroke:red;stroke-width:1px;stroke-linecap:butt;stroke-linejoin:miter;stroke-opacity:1" d="M 134.957,424.7 126.772,450.891 z" id="boundary" inkscape:connector-curvature="0" />
	<path style="fill:none;stroke:red;stroke-width:1px;stroke-linecap:butt;stroke-linejoin:miter;stroke-opacity:1" d="M 126.772,450.891 126.772,467.261 z" id="boundary" inkscape:connector-curvature="0" />
	<path style="fill:none;stroke:red;stroke-width:1px;stroke-linecap:butt;stroke-linejoin:miter;stroke-opacity:1" d="M 126.772,467.261 126.772,483.63 z" id="boundary" inkscape:connector-curvature="0" />
	<path style="fill:none;stroke:red;stroke-width:1px;stroke-linecap:butt;stroke-linejoin:miter;stroke-opacity:1" d="M 126.772,483.63 126.772,500 z" id="boundary" inkscape:connector-curvature="0" />
	<path style="fill:none;stroke:red;stroke-width:1px;stroke-linecap:butt;stroke-linejoin:miter;stroke-opacity:1" d="M 126.772,500 118.587,516.37 z" id="boundary" inkscape:connector-curvature="0" />
	<path style="fill:none;stroke:red;stroke-width:1px;stroke-linecap:butt;stroke-linejoin:miter;stroke-opacity:1" d="M 118.587,516.37 110.403,540.924 z" id="boundary" inkscape:connector-curvature="0" />
	<path style="fill:none;stroke:red;stroke-width:1px;stroke-linecap:butt;stroke-linejoin:miter;stroke-opacity:1" d="M 110.403,540.924 102.218,557.294 z" id="boundary" inkscape:connector-curvature="0" />
	<path style="fill:none;stroke:red;stroke-width:1px;stroke-linecap:butt;stroke-linejoin:miter;stroke-opacity:1" d="M 102.218,557.294 90.7591,576.937 z" id="boundary" inkscape:connector-curvature="0" />
	<path style="fill:none;stroke:red;stroke-width:1px;stroke-linecap:butt;stroke-linejoin:miter;stroke-opacity:1" d="M 90.7591,576.937 82.5743,593.307 z" id="boundary" inkscape:connector-curvature="0" />
	<path style="fill:none;stroke:red;stroke-width:1px;stroke-linecap:butt;stroke-linejoin:miter;stroke-opacity:1" d="M 82.5743,593.307 74.3894,609.677 z" id="boundary" inkscape:connector-curvature="0" />
	<path style="fill:none;stroke:red;stroke-width:1px;stroke-linecap:butt;stroke-linejoin:miter;stroke-opacity:1" d="M 74.3894,609.677 61.2937,622.772 z" id="boundary" inkscape:connector-curvature="0" />
	<path style="fill:none;stroke:red;stroke-width:1px;stroke-linecap:butt;stroke-linejoin:miter;stroke-opacity:1" d="M 61.2937,622.772 53.1089,647.327 z" id="boundary" inkscape:connector-curvature="0" />
	<path style="fill:none;stroke:red;stroke-width:1px;stroke-linecap:butt;stroke-linejoin:miter;stroke-opacity:1" d="M 53.1089,647.327 44.9241,671.881 z" id="boundary" inkscape:connector-curvature="0" />
	<path style="fill:none;stroke:red;stroke-width:1px;stroke-linecap:butt;stroke-linejoin:miter;stroke-opacity:1" d="M 44.9241,671.881 36.7393,688.251 z" id="boundary" inkscape:connector-curvature="0" />
	<path style="fill:none;stroke:red;stroke-width:1px;stroke-linecap:butt;stroke-linejoin:miter;stroke-opacity:1" d="M 36.7393,688.251 36.7393,712.805 z" id="boundary" inkscape:connector-curvature="0" />
	<path style="fill:none;stroke:red;stroke-width:1px;stroke-linecap:butt;stroke-linejoin:miter;stroke-opacity:1" d="M 36.7393,712.805 44.9241,727.538 z" id="boundary" inkscape:connector-curvature="0" />
	<path style="fill:none;stroke:red;stroke-width:1px;stroke-linecap:butt;stroke-linejoin:miter;stroke-opacity:1" d="M 44.9241,727.538 53.1089,742.271 z" id="boundary" inkscape:connector-curvature="0" />
	<path style="fill:none;stroke:red;stroke-width:1px;stroke-linecap:butt;stroke-linejoin:miter;stroke-opacity:1" d="M 53.1089,742.271 58.0198,758.64 z" id="boundary" inkscape:connector-curvature="0" />
	<path style="fill:none;stroke:red;stroke-width:1px;stroke-linecap:butt;stroke-linejoin:miter;stroke-opacity:1" d="M 58.0198,758.64 66.2046,773.373 z" id="boundary" inkscape:connector-curvature="0" />
	<path style="fill:none;stroke:red;stroke-width:1px;stroke-linecap:butt;stroke-linejoin:miter;stroke-opacity:1" d="M 66.2046,773.373 72.7525,789.743 z" id="boundary" inkscape:connector-curvature="0" />
	<path style="fill:none;stroke:red;stroke-width:1px;stroke-linecap:butt;stroke-linejoin:miter;stroke-opacity:1" d="M 72.7525,789.743 89.1221,791.38 z" id="boundary" inkscape:connector-curvature="0" />
	<path style="fill:none;stroke:red;stroke-width:1px;stroke-linecap:butt;stroke-linejoin:miter;stroke-opacity:1" d="M 89.1221,791.38 103.855,783.195 z" id="boundary" inkscape:connector-curvature="0" />
	<path style="fill:none;stroke:red;stroke-width:1px;stroke-linecap:butt;stroke-linejoin:miter;stroke-opacity:1" d="M 103.855,783.195 120.224,783.195 z" id="boundary" inkscape:connector-curvature="0" />
	<path style="fill:none;stroke:red;stroke-width:1px;stroke-linecap:butt;stroke-linejoin:miter;stroke-opacity:1" d="M 120.224,783.195 134.957,791.38 z" id="boundary" inkscape:connector-curvature="0" />
	<path style="fill:none;stroke:red;stroke-width:1px;stroke-linecap:butt;stroke-linejoin:miter;stroke-opacity:1" d="M 134.957,791.38 144.779,804.475 z" id="boundary" inkscape:connector-curvature="0" />
	<path style="fill:none;stroke:red;stroke-width:1px;stroke-linecap:butt;stroke-linejoin:miter;stroke-opacity:1" d="M 144.779,804.475 157.875,815.934 z" id="boundary" inkscape:connector-curvature="0" />
	<path style="fill:none;stroke:red;stroke-width:1px;stroke-linecap:butt;stroke-linejoin:miter;stroke-opacity:1" d="M 157.875,815.934 167.696,829.03 z" id="boundary" inkscape:connector-curvature="0" />
	<path style="fill:none;stroke:red;stroke-width:1px;stroke-linecap:butt;stroke-linejoin:miter;stroke-opacity:1" d="M 167.696,829.03 175.881,843.762 z" id="boundary" inkscape:connector-curvature="0" />
	<path style="fill:none;stroke:red;stroke-width:1px;stroke-linecap:butt;stroke-linejoin:miter;stroke-opacity:1" d="M 175.881,843.762 184.066,858.495 z" id="boundary" inkscape:connector-curvature="0" />
	<path style="fill:none;stroke:red;stroke-width:1px;stroke-linecap:butt;stroke-linejoin:miter;stroke-opacity:1" d="M 184.066,858.495 192.251,873.228 z" id="boundary" inkscape:connector-curvature="0" />
	<path style="fill:none;stroke:red;stroke-width:1px;stroke-linecap:butt;stroke-linejoin:miter;stroke-opacity:1" d="M 192.251,873.228 200.436,887.96 z" id="boundary" inkscape:connector-curvature="0" />
	<path style="fill:none;stroke:red;stroke-width:1px;stroke-linecap:butt;stroke-linejoin:miter;stroke-opacity:1" d="M 200.436,887.96 203.71,904.33 z" id="boundary" inkscape:connector-curvature="0" />
	<path style="fill:none;stroke:red;stroke-width:1px;stroke-linecap:butt;stroke-linejoin:miter;stroke-opacity:1" d="M 203.71,904.33 220.079,910.878 z" id="boundary" inkscape:connector-curvature="0" />
	<path style="fill:none;stroke:red;stroke-width:1px;stroke-linecap:butt;stroke-linejoin:miter;stroke-opacity:1" d="M 220.079,910.878 236.449,914.152 z" id="boundary" inkscape:connector-curvature="0" />
	<path style="fill:none;stroke:red;stroke-width:1px;stroke-linecap:butt;stroke-linejoin:miter;stroke-opacity:1" d="M 236.449,914.152 251.182,922.337 z" id="boundary" inkscape:connector-curvature="0" />
	<path style="fill:none;stroke:red;stroke-width:1px;stroke-linecap:butt;stroke-linejoin:miter;stroke-opacity:1" d="M 251.182,922.337 267.551,922.337 z" id="boundary" inkscape:connector-curvature="0" />
	<path style="fill:none;stroke:red;stroke-width:1px;stroke-linecap:butt;stroke-linejoin:miter;stroke-opacity:1" d="M 267.551,922.337 283.921,925.611 z" id="boundary" inkscape:connector-curvature="0" />
	<path style="fill:none;stroke:red;stroke-width:1px;stroke-linecap:butt;stroke-linejoin:miter;stroke-opacity:1" d="M 283.921,925.611 300.29,930.521 z" id="boundary" inkscape:connector-curvature="0" />
	<path style="fill:none;stroke:red;stroke-width:1px;stroke-linecap:butt;stroke-linejoin:miter;stroke-opacity:1" d="M 300.29,930.521 315.023,938.706 z" id="boundary" inkscape:connector-curvature="0" />
	<path style="fill:none;stroke:red;stroke-width:1px;stroke-linecap:butt;stroke-linejoin:miter;stroke-opacity:1" d="M 315.023,938.706 331.393,938.706 z" id="boundary" inkscape:connector-curvature="0" />
	<path style="fill:none;stroke:red;stroke-width:1px;stroke-linecap:butt;stroke-linejoin:miter;stroke-opacity:1" d="M 331.393,938.706 346.125,946.891 z" id="boundary" inkscape:connector-curvature="0" />
	<path style="fill:none;stroke:red;stroke-width:1px;stroke-linecap:butt;stroke-linejoin:miter;stroke-opacity:1" d="M 346.125,946.891 360.858,955.076 z" id="boundary" inkscape:connector-curvature="0" />
	<path style="fill:none;stroke:red;stroke-width:1px;stroke-linecap:butt;stroke-linejoin:miter;stroke-opacity:1" d="M 360.858,955.076 377.228,955.076 z" id="boundary" inkscape:connector-curvature="0" />
	<path style="fill:none;stroke:red;stroke-width:1px;stroke-linecap:butt;stroke-linejoin:miter;stroke-opacity:1" d="M 377.228,955.076 385.413,969.809 z" id="boundary" inkscape:connector-curvature="0" />
	<path style="fill:none;stroke:red;stroke-width:1px;stroke-linecap:butt;stroke-linejoin:miter;stroke-opacity:1" d="M 385.413,969.809 400.145,977.993 z" id="boundary" inkscape:connector-curvature="0" />
	<path style="fill:none;stroke:red;stroke-width:1px;stroke-linecap:butt;stroke-linejoin:miter;stroke-opacity:1" d="M 400.145,977.993 416.515,979.63 z" id="boundary" inkscape:connector-curvature="0" />
	<path style="fill:none;stroke:red;stroke-width:1px;stroke-linecap:butt;stroke-linejoin:miter;stroke-opacity:1" d="M 416.515,979.63 432.884,984.541 z" id="boundary" inkscape:connector-curvature="0" />
	<path style="fill:none;stroke:red;stroke-width:1px;stroke-linecap:butt;stroke-linejoin:miter;stroke-opacity:1" d="M 432.884,984.541 447.617,992.726 z" id="boundary" inkscape:connector-curvature="0" />
	<path style="fill:none;stroke:red;stroke-width:1px;stroke-linecap:butt;stroke-linejoin:miter;stroke-opacity:1" d="M 447.617,992.726 463.987,996 z" id="boundary" inkscape:connector-curvature="0" />
	<path style="fill:none;stroke:red;stroke-width:1px;stroke-linecap:butt;stroke-linejoin:miter;stroke-opacity:1" d="M 463.987,996 480.356,996 z" id="boundary" inkscape:connector-curvature="0" />
	<path style="fill:none;stroke:red;stroke-width:1px;stroke-linecap:butt;stroke-linejoin:miter;stroke-opacity:1" d="M 480.356,996 496.726,996 z" id="boundary" inkscape:connector-curvature="0" />
	<path style="fill:none;stroke:red;stroke-width:1px;stroke-linecap:butt;stroke-linejoin:miter;stroke-opacity:1" d="M 496.726,996 513.096,996 z" id="boundary" inkscape:connector-curvature="0" />
	<path style="fill:none;stroke:red;stroke-width:1px;stroke-linecap:butt;stroke-linejoin:miter;stroke-opacity:1" d="M 513.096,996 529.465,996 z" id="boundary" inkscape:connector-curvature="0" />
	<path style="fill:none;stroke:red;stroke-width:1px;stroke-linecap:butt;stroke-linejoin:miter;stroke-opacity:1" d="M 529.465,996 545.835,987.815 z" id="boundary" inkscape:connector-curvature="0" />
	<path style="fill:none;stroke:red;stroke-width:1px;stroke-linecap:butt;stroke-linejoin:miter;stroke-opacity:1" d="M 545.835,987.815 562.205,991.089 z" id="boundary" inkscape:connector-curvature="0" />
	<path style="fill:none;stroke:red;stroke-width:1px;stroke-linecap:butt;stroke-linejoin:miter;stroke-opacity:1" d="M 562.205,991.089 578.574,987.815 z" id="boundary" inkscape:connector-curvature="0" />
	<path style="fill:none;stroke:red;stroke-width:1px;stroke-linecap:butt;stroke-linejoin:miter;stroke-opacity:1" d="M 578.574,987.815 594.944,979.63 z" id="boundary" inkscape:connector-curvature="0" />
	<path style="fill:none;stroke:red;stroke-width:1px;stroke-linecap:butt;stroke-linejoin:miter;stroke-opacity:1" d="M 594.944,979.63 611.314,971.446 z" id="boundary" inkscape:connector-curvature="0" />
	<path style="fill:none;stroke:red;stroke-width:1px;stroke-linecap:butt;stroke-linejoin:miter;stroke-opacity:1" d="M 611.314,971.446 627.683,971.446 z" id="boundary" inkscape:connector-curvature="0" />
	<path style="fill:none;stroke:red;stroke-width:1px;stroke-linecap:butt;stroke-linejoin:miter;stroke-opacity:1" d="M 627.683,971.446 635.868,955.076 z" id="boundary" inkscape:connector-curvature="0" />
	<path style="fill:none;stroke:red;stroke-width:1px;stroke-linecap:butt;stroke-linejoin:miter;stroke-opacity:1" d="M 635.868,955.076 652.238,946.891 z" id="boundary" inkscape:connector-curvature="0" />
	<path style="fill:none;stroke:red;stroke-width:1px;stroke-linecap:butt;stroke-linejoin:miter;stroke-opacity:1" d="M 652.238,946.891 668.607,946.891 z" id="boundary" inkscape:connector-curvature="0" />
	<path style="fill:none;stroke:red;stroke-width:1px;stroke-linecap:butt;stroke-linejoin:miter;stroke-opacity:1" d="M 668.607,946.891 683.34,938.706 z" id="boundary" inkscape:connector-curvature="0" />
	<path style="fill:none;stroke:red;stroke-width:1px;stroke-linecap:butt;stroke-linejoin:miter;stroke-opacity:1" d="M 683.34,938.706 699.71,933.795 z" id="boundary" inkscape:connector-curvature="0" />
	<path style="fill:none;stroke:red;stroke-width:1px;stroke-linecap:butt;stroke-linejoin:miter;stroke-opacity:1" d="M 699.71,933.795 716.079,925.611 z" id="boundary" inkscape:connector-curvature="0" />
	<path style="fill:none;stroke:red;stroke-width:1px;stroke-linecap:butt;stroke-linejoin:miter;stroke-opacity:1" d="M 716.079,925.611 729.175,914.152 z" id="boundary" inkscape:connector-curvature="0" />
	<path style="fill:none;stroke:red;stroke-width:1px;stroke-linecap:butt;stroke-linejoin:miter;stroke-opacity:1" d="M 729.175,914.152 743.908,905.967 z" id="boundary" inkscape:connector-curvature="0" />
	<path style="fill:none;stroke:red;stroke-width:1px;stroke-linecap:butt;stroke-linejoin:miter;stroke-opacity:1" d="M 743.908,905.967 760.277,905.967 z" id="boundary" inkscape:connector-curvature="0" />
	<path style="fill:none;stroke:red;stroke-width:1px;stroke-linecap:butt;stroke-linejoin:miter;stroke-opacity:1" d="M 760.277,905.967 758.64,878.139 z" id="boundary" inkscape:connector-curvature="0" />
	<path style="fill:none;stroke:red;stroke-width:1px;stroke-linecap:butt;stroke-linejoin:miter;stroke-opacity:1" d="M 758.64,878.139 750.455,863.406 z" id="boundary" inkscape:connector-curvature="0" />
	<path style="fill:none;stroke:red;stroke-width:1px;stroke-linecap:butt;stroke-linejoin:miter;stroke-opacity:1" d="M 750.455,863.406 734.086,863.406 z" id="boundary" inkscape:connector-curvature="0" />
	<path style="fill:none;stroke:red;stroke-width:1px;stroke-linecap:butt;stroke-linejoin:miter;stroke-opacity:1" d="M 734.086,863.406 724.264,850.31 z" id="boundary" inkscape:connector-curvature="0" />
	<path style="fill:none;stroke:red;stroke-width:1px;stroke-linecap:butt;stroke-linejoin:miter;stroke-opacity:1" d="M 724.264,850.31 707.894,847.036 z" id="boundary" inkscape:connector-curvature="0" />
	<path style="fill:none;stroke:red;stroke-width:1px;stroke-linecap:butt;stroke-linejoin:miter;stroke-opacity:1" d="M 707.894,847.036 693.162,838.851 z" id="boundary" inkscape:connector-curvature="0" />
	<path style="fill:none;stroke:red;stroke-width:1px;stroke-linecap:butt;stroke-linejoin:miter;stroke-opacity:1" d="M 693.162,838.851 676.792,835.578 z" id="boundary" inkscape:connector-curvature="0" />
	<path style="fill:none;stroke:red;stroke-width:1px;stroke-linecap:butt;stroke-linejoin:miter;stroke-opacity:1" d="M 676.792,835.578 665.333,822.482 z" id="boundary" inkscape:connector-curvature="0" />
	<path style="fill:none;stroke:red;stroke-width:1px;stroke-linecap:butt;stroke-linejoin:miter;stroke-opacity:1" d="M 665.333,822.482 648.964,815.934 z" id="boundary" inkscape:connector-curvature="0" />
	<path style="fill:none;stroke:red;stroke-width:1px;stroke-linecap:butt;stroke-linejoin:miter;stroke-opacity:1" d="M 648.964,815.934 632.594,814.297 z" id="boundary" inkscape:connector-curvature="0" />
	<path style="fill:none;stroke:red;stroke-width:1px;stroke-linecap:butt;stroke-linejoin:miter;stroke-opacity:1" d="M 632.594,814.297 617.861,806.112 z" id="boundary" inkscape:connector-curvature="0" />
	<path style="fill:none;stroke:red;stroke-width:1px;stroke-linecap:butt;stroke-linejoin:miter;stroke-opacity:1" d="M 617.861,806.112 601.492,806.112 z" id="boundary" inkscape:connector-curvature="0" />
	<path style="fill:none;stroke:red;stroke-width:1px;stroke-linecap:butt;stroke-linejoin:miter;stroke-opacity:1" d="M 601.492,806.112 585.122,801.201 z" id="boundary" inkscape:connector-curvature="0" />
	<path style="fill:none;stroke:red;stroke-width:1px;stroke-linecap:butt;stroke-linejoin:miter;stroke-opacity:1" d="M 585.122,801.201 568.752,797.927 z" id="boundary" inkscape:connector-curvature="0" />
	<path style="fill:none;stroke:red;stroke-width:1px;stroke-linecap:butt;stroke-linejoin:miter;stroke-opacity:1" d="M 568.752,797.927 552.383,797.927 z" id="boundary" inkscape:connector-curvature="0" />
	<path style="fill:none;stroke:red;stroke-width:1px;stroke-linecap:butt;stroke-linejoin:miter;stroke-opacity:1" d="M 552.383,797.927 537.65,789.743 z" id="boundary" inkscape:connector-curvature="0" />
	<path style="fill:none;stroke:red;stroke-width:1px;stroke-linecap:butt;stroke-linejoin:miter;stroke-opacity:1" d="M 537.65,789.743 521.281,784.832 z" id="boundary" inkscape:connector-curvature="0" />
	<path style="fill:none;stroke:red;stroke-width:1px;stroke-linecap:butt;stroke-linejoin:miter;stroke-opacity:1" d="M 521.281,784.832 504.911,783.195 z" id="boundary" inkscape:connector-curvature="0" />
	<path style="fill:none;stroke:red;stroke-width:1px;stroke-linecap:butt;stroke-linejoin:miter;stroke-opacity:1" d="M 504.911,783.195 504.911,766.825 z" id="boundary" inkscape:connector-curvature="0" />
	<path style="fill:none;stroke:red;stroke-width:1px;stroke-linecap:butt;stroke-linejoin:miter;stroke-opacity:1" d="M 504.911,766.825 504.911,750.455 z" id="boundary" inkscape:connector-curvature="0" />
	<path style="fill:none;stroke:red;stroke-width:1px;stroke-linecap:butt;stroke-linejoin:miter;stroke-opacity:1" d="M 504.911,750.455 513.096,734.086 z" id="boundary" inkscape:connector-curvature="0" />
	<path style="fill:none;stroke:red;stroke-width:1px;stroke-linecap:butt;stroke-linejoin:miter;stroke-opacity:1" d="M 513.096,734.086 526.191,722.627 z" id="boundary" inkscape:connector-curvature="0" />
	<path style="fill:none;stroke:red;stroke-width:1px;stroke-linecap:butt;stroke-linejoin:miter;stroke-opacity:1" d="M 526.191,722.627 537.65,709.531 z" id="boundary" inkscape:connector-curvature="0" />
	<path style="fill:none;stroke:red;stroke-width:1px;stroke-linecap:butt;stroke-linejoin:miter;stroke-opacity:1" d="M 537.65,709.531 545.835,693.162 z" id="boundary" inkscape:connector-curvature="0" />
	<path style="fill:none;stroke:red;stroke-width:1px;stroke-linecap:butt;stroke-linejoin:miter;stroke-opacity:1" d="M 545.835,693.162 562.205,693.162 z" id="boundary" inkscape:connector-curvature="0" />
	<path style="fill:none;stroke:red;stroke-width:1px;stroke-linecap:butt;stroke-linejoin:miter;stroke-opacity:1" d="M 562.205,693.162 576.937,684.977 z" id="boundary" inkscape:connector-curvature="0" />
	<path style="fill:none;stroke:red;stroke-width:1px;stroke-linecap:butt;stroke-linejoin:miter;stroke-opacity:1" d="M 576.937,684.977 593.307,684.977 z" id="boundary" inkscape:connector-curvature="0" />
	<path style="fill:none;stroke:red;stroke-width:1px;stroke-linecap:butt;stroke-linejoin:miter;stroke-opacity:1" d="M 593.307,684.977 609.677,684.977 z" id="boundary" inkscape:connector-curvature="0" />
	<path style="fill:none;stroke:red;stroke-width:1px;stroke-linecap:butt;stroke-linejoin:miter;stroke-opacity:1" d="M 609.677,684.977 626.046,684.977 z" id="boundary" inkscape:connector-curvature="0" />
	<path style="fill:none;stroke:red;stroke-width:1px;stroke-linecap:butt;stroke-linejoin:miter;stroke-opacity:1" d="M 626.046,684.977 640.779,693.162 z" id="boundary" inkscape:connector-curvature="0" />
	<path style="fill:none;stroke:red;stroke-width:1px;stroke-linecap:butt;stroke-linejoin:miter;stroke-opacity:1" d="M 640.779,693.162 657.149,693.162 z" id="boundary" inkscape:connector-curvature="0" />
	<path style="fill:none;stroke:red;stroke-width:1px;stroke-linecap:butt;stroke-linejoin:miter;stroke-opacity:1" d="M 657.149,693.162 668.607,706.257 z" id="boundary" inkscape:connector-curvature="0" />
	<path style="fill:none;stroke:red;stroke-width:1px;stroke-linecap:butt;stroke-linejoin:miter;stroke-opacity:1" d="M 668.607,706.257 684.977,709.531 z" id="boundary" inkscape:connector-curvature="0" />
	<path style="fill:none;stroke:red;stroke-width:1px;stroke-linecap:butt;stroke-linejoin:miter;stroke-opacity:1" d="M 684.977,709.531 699.71,717.716 z" id="boundary" inkscape:connector-curvature="0" />
	<path style="fill:none;stroke:red;stroke-width:1px;stroke-linecap:butt;stroke-linejoin:miter;stroke-opacity:1" d="M 699.71,717.716 716.079,717.716 z" id="boundary" inkscape:connector-curvature="0" />
	<path style="fill:none;stroke:red;stroke-width:1px;stroke-linecap:butt;stroke-linejoin:miter;stroke-opacity:1" d="M 716.079,717.716 730.812,725.901 z" id="boundary" inkscape:connector-curvature="0" />
	<path style="fill:none;stroke:red;stroke-width:1px;stroke-linecap:butt;stroke-linejoin:miter;stroke-opacity:1" d="M 730.812,725.901 745.545,734.086 z" id="boundary" inkscape:connector-curvature="0" />
	<path style="fill:none;stroke:red;stroke-width:1px;stroke-linecap:butt;stroke-linejoin:miter;stroke-opacity:1" d="M 745.545,734.086 761.914,734.086 z" id="boundary" inkscape:connector-curvature="0" />
	<path style="fill:none;stroke:red;stroke-width:1px;stroke-linecap:butt;stroke-linejoin:miter;stroke-opacity:1" d="M 761.914,734.086 776.647,725.901 z" id="boundary" inkscape:connector-curvature="0" />
	<path style="fill:none;stroke:red;stroke-width:1px;stroke-linecap:butt;stroke-linejoin:miter;stroke-opacity:1" d="M 776.647,725.901 791.38,717.716 z" id="boundary" inkscape:connector-curvature="0" />
	<path style="fill:none;stroke:red;stroke-width:1px;stroke-linecap:butt;stroke-linejoin:miter;stroke-opacity:1" d="M 791.38,717.716 804.475,706.257 z" id="boundary" inkscape:connector-curvature="0" />
	<path style="fill:none;stroke:red;stroke-width:1px;stroke-linecap:butt;stroke-linejoin:miter;stroke-opacity:1" d="M 807.749,676.792 804.475,706.257 z" id="boundary" inkscape:connector-curvature="0" />
	<circle cx="4" cy="197.162" r="4" fill="#0" id="circle0"/>
	<circle cx="4" cy="213.531" r="4" fill="#0" id="circle1"/>
	<circle cx="17.0957" cy="224.99" r="4" fill="#0" id="circle2"/>
	<circle cx="20.3696" cy="188.977" r="4" fill="#0" id="circle3"/>
	<circle cx="30.1914" cy="234.812" r="4" fill="#0" id="circle4"/>
	<circle cx="36.7393" cy="172.607" r="4" fill="#0" id="circle5"/>
	<circle cx="36.7393" cy="688.251" r="4" fill="#0" id="circle6"/>
	<circle cx="36.7393" cy="712.805" r="4" fill="#0" id="circle7"/>
	<circle cx="40.0132" cy="247.908" r="4" fill="#0" id="circle8"/>
	<circle cx="44.9241" cy="671.881" r="4" fill="#0" id="circle9"/>
	<circle cx="44.9241" cy="727.538" r="4" fill="#0" id="circle10"/>
	<circle cx="49.835" cy="159.512" r="4" fill="#0" id="circle11"/>
	<circle cx="53.1089" cy="259.366" r="4" fill="#0" id="circle12"/>
	<circle cx="53.1089" cy="647.327" r="4" fill="#0" id="circle13"/>
	<circle cx="53.1089" cy="742.271" r="4" fill="#0" id="circle14"/>
	<circle cx="58.0198" cy="758.64" r="4" fill="#0" id="circle15"/>
	<circle cx="61.2937" cy="622.772" r="4" fill="#0" id="circle16"/>
	<circle cx="66.2046" cy="151.327" r="4" fill="#0" id="circle17"/>
	<circle cx="66.2046" cy="773.373" r="4" fill="#0" id="circle18"/>
	<circle cx="67.8416" cy="267.551" r="4" fill="#0" id="circle19"/>
	<circle cx="72.7525" cy="789.743" r="4" fill="#0" id="circle20"/>
	<circle cx="74.3894" cy="283.921" r="4" fill="#0" id="circle21"/>
	<circle cx="74.3894" cy="609.677" r="4" fill="#0" id="circle22"/>
	<circle cx="79.3003" cy="138.231" r="4" fill="#0" id="circle23"/>
	<circle cx="82.5743" cy="593.307" r="4" fill="#0" id="circle24"/>
	<circle cx="87.4851" cy="295.38" r="4" fill="#0" id="circle25"/>
	<circle cx="89.1221" cy="791.38" r="4" fill="#0" id="circle26"/>
	<circle cx="90.7591" cy="576.937" r="4" fill="#0" id="circle27"/>
	<circle cx="92.396" cy="126.772" r="4" fill="#0" id="circle28"/>
	<circle cx="102.218" cy="303.564" r="4" fill="#0" id="circle29"/>
	<circle cx="102.218" cy="557.294" r="4" fill="#0" id="circle30"/>
	<circle cx="103.855" cy="783.195" r="4" fill="#0" id="circle31"/>
	<circle cx="108.766" cy="126.772" r="4" fill="#0" id="circle32"/>
	<circle cx="110.403" cy="318.297" r="4" fill="#0" id="circle33"/>
	<circle cx="110.403" cy="540.924" r="4" fill="#0" id="circle34"/>
	<circle cx="118.587" cy="107.129" r="4" fill="#0" id="circle35"/>
	<circle cx="118.587" cy="333.03" r="4" fill="#0" id="circle36"/>
	<circle cx="118.587" cy="516.37" r="4" fill="#0" id="circle37"/>
	<circle cx="120.224" cy="783.195" r="4" fill="#0" id="circle38"/>
	<circle cx="123.498" cy="349.399" r="4" fill="#0" id="circle39"/>
	<circle cx="126.772" cy="365.769" r="4" fill="#0" id="circle40"/>
	<circle cx="126.772" cy="382.139" r="4" fill="#0" id="circle41"/>
	<circle cx="126.772" cy="409.967" r="4" fill="#0" id="circle42"/>
	<circle cx="126.772" cy="450.891" r="4" fill="#0" id="circle43"/>
	<circle cx="126.772" cy="467.261" r="4" fill="#0" id="circle44"/>
	<circle cx="126.772" cy="483.63" r="4" fill="#0" id="circle45"/>
	<circle cx="126.772" cy="500" r="4" fill="#0" id="circle46"/>
	<circle cx="131.683" cy="94.033" r="4" fill="#0" id="circle47"/>
	<circle cx="134.957" cy="424.7" r="4" fill="#0" id="circle48"/>
	<circle cx="134.957" cy="791.38" r="4" fill="#0" id="circle49"/>
	<circle cx="144.779" cy="80.9373" r="4" fill="#0" id="circle50"/>
	<circle cx="144.779" cy="804.475" r="4" fill="#0" id="circle51"/>
	<circle cx="157.875" cy="815.934" r="4" fill="#0" id="circle52"/>
	<circle cx="161.149" cy="77.6634" r="4" fill="#0" id="circle53"/>
	<circle cx="167.696" cy="829.03" r="4" fill="#0" id="circle54"/>
	<circle cx="175.881" cy="69.4785" r="4" fill="#0" id="circle55"/>
	<circle cx="175.881" cy="843.762" r="4" fill="#0" id="circle56"/>
	<circle cx="184.066" cy="858.495" r="4" fill="#0" id="circle57"/>
	<circle cx="190.614" cy="61.2937" r="4" fill="#0" id="circle58"/>
	<circle cx="192.251" cy="873.228" r="4" fill="#0" id="circle59"/>
	<circle cx="200.436" cy="887.96" r="4" fill="#0" id="circle60"/>
	<circle cx="203.71" cy="904.33" r="4" fill="#0" id="circle61"/>
	<circle cx="205.347" cy="53.1089" r="4" fill="#0" id="circle62"/>
	<circle cx="213.531" cy="36.7393" r="4" fill="#0" id="circle63"/>
	<circle cx="220.079" cy="910.878" r="4" fill="#0" id="circle64"/>
	<circle cx="229.901" cy="36.7393" r="4" fill="#0" id="circle65"/>
	<circle cx="236.449" cy="914.152" r="4" fill="#0" id="circle66"/>
	<circle cx="244.634" cy="28.5545" r="4" fill="#0" id="circle67"/>
	<circle cx="251.182" cy="922.337" r="4" fill="#0" id="circle68"/>
	<circle cx="259.366" cy="20.3696" r="4" fill="#0" id="circle69"/>
	<circle cx="267.551" cy="922.337" r="4" fill="#0" id="circle70"/>
	<circle cx="274.099" cy="12.1848" r="4" fill="#0" id="circle71"/>
	<circle cx="283.921" cy="925.611" r="4" fill="#0" id="circle72"/>
	<circle cx="290.469" cy="12.1848" r="4" fill="#0" id="circle73"/>
	<circle cx="300.29" cy="930.521" r="4" fill="#0" id="circle74"/>
	<circle cx="306.838" cy="8.91089" r="4" fill="#0" id="circle75"/>
	<circle cx="315.023" cy="938.706" r="4" fill="#0" id="circle76"/>
	<circle cx="323.208" cy="7.27393" r="4" fill="#0" id="circle77"/>
	<circle cx="331.393" cy="938.706" r="4" fill="#0" id="circle78"/>
	<circle cx="339.578" cy="4" r="4" fill="#0" id="circle79"/>
	<circle cx="346.125" cy="946.891" r="4" fill="#0" id="circle80"/>
	<circle cx="354.31" cy="12.1848" r="4" fill="#0" id="circle81"/>
	<circle cx="360.858" cy="955.076" r="4" fill="#0" id="circle82"/>
	<circle cx="369.043" cy="4" r="4" fill="#0" id="circle83"/>
	<circle cx="377.228" cy="955.076" r="4" fill="#0" id="circle84"/>
	<circle cx="383.776" cy="12.1848" r="4" fill="#0" id="circle85"/>
	<circle cx="385.413" cy="969.809" r="4" fill="#0" id="circle86"/>
	<circle cx="400.145" cy="12.1848" r="4" fill="#0" id="circle87"/>
	<circle cx="400.145" cy="977.993" r="4" fill="#0" id="circle88"/>
	<circle cx="416.515" cy="12.1848" r="4" fill="#0" id="circle89"/>
	<circle cx="416.515" cy="979.63" r="4" fill="#0" id="circle90"/>
	<circle cx="432.884" cy="12.1848" r="4" fill="#0" id="circle91"/>
	<circle cx="432.884" cy="984.541" r="4" fill="#0" id="circle92"/>
	<circle cx="447.617" cy="20.3696" r="4" fill="#0" id="circle93"/>
	<circle cx="447.617" cy="992.726" r="4" fill="#0" id="circle94"/>
	<circle cx="463.987" cy="20.3696" r="4" fill="#0" id="circle95"/>
	<circle cx="463.987" cy="996" r="4" fill="#0" id="circle96"/>
	<circle cx="478.719" cy="28.5545" r="4" fill="#0" id="circle97"/>
	<circle cx="480.356" cy="996" r="4" fill="#0" id="circle98"/>
	<circle cx="495.089" cy="31.8284" r="4" fill="#0" id="circle99"/>
	<circle cx="496.726" cy="996" r="4" fill="#0" id="circle100"/>
	<circle cx="504.911" cy="750.455" r="4" fill="#0" id="circle101"/>
	<circle cx="504.911" cy="766.825" r="4" fill="#0" id="circle102"/>
	<circle cx="504.911" cy="783.195" r="4" fill="#0" id="circle103"/>
	<circle cx="509.822" cy="40.0132" r="4" fill="#0" id="circle104"/>
	<circle cx="513.096" cy="734.086" r="4" fill="#0" id="circle105"/>
	<circle cx="513.096" cy="996" r="4" fill="#0" id="circle106"/>
	<circle cx="518.007" cy="54.7459" r="4" fill="#0" id="circle107"/>
	<circle cx="521.281" cy="784.832" r="4" fill="#0" id="circle108"/>
	<circle cx="526.191" cy="722.627" r="4" fill="#0" id="circle109"/>
	<circle cx="529.465" cy="996" r="4" fill="#0" id="circle110"/>
	<circle cx="532.739" cy="62.9307" r="4" fill="#0" id="circle111"/>
	<circle cx="537.65" cy="709.531" r="4" fill="#0" id="circle112"/>
	<circle cx="537.65" cy="789.743" r="4" fill="#0" id="circle113"/>
	<circle cx="545.835" cy="74.3894" r="4" fill="#0" id="circle114"/>
	<circle cx="545.835" cy="693.162" r="4" fill="#0" id="circle115"/>
	<circle cx="545.835" cy="987.815" r="4" fill="#0" id="circle116"/>
	<circle cx="552.383" cy="797.927" r="4" fill="#0" id="circle117"/>
	<circle cx="560.568" cy="82.5743" r="4" fill="#0" id="circle118"/>
	<circle cx="562.205" cy="693.162" r="4" fill="#0" id="circle119"/>
	<circle cx="562.205" cy="991.089" r="4" fill="#0" id="circle120"/>
	<circle cx="568.752" cy="797.927" r="4" fill="#0" id="circle121"/>
	<circle cx="573.663" cy="94.033" r="4" fill="#0" id="circle122"/>
	<circle cx="576.937" cy="684.977" r="4" fill="#0" id="circle123"/>
	<circle cx="578.574" cy="987.815" r="4" fill="#0" id="circle124"/>
	<circle cx="585.122" cy="107.129" r="4" fill="#0" id="circle125"/>
	<circle cx="585.122" cy="801.201" r="4" fill="#0" id="circle126"/>
	<circle cx="593.307" cy="121.861" r="4" fill="#0" id="circle127"/>
	<circle cx="593.307" cy="684.977" r="4" fill="#0" id="circle128"/>
	<circle cx="594.944" cy="979.63" r="4" fill="#0" id="circle129"/>
	<circle cx="601.492" cy="806.112" r="4" fill="#0" id="circle130"/>
	<circle cx="608.04" cy="130.046" r="4" fill="#0" id="circle131"/>
	<circle cx="609.677" cy="684.977" r="4" fill="#0" id="circle132"/>
	<circle cx="611.314" cy="971.446" r="4" fill="#0" id="circle133"/>
	<circle cx="617.861" cy="806.112" r="4" fill="#0" id="circle134"/>
	<circle cx="624.409" cy="136.594" r="4" fill="#0" id="circle135"/>
	<circle cx="626.046" cy="684.977" r="4" fill="#0" id="circle136"/>
	<circle cx="627.683" cy="971.446" r="4" fill="#0" id="circle137"/>
	<circle cx="632.594" cy="814.297" r="4" fill="#0" id="circle138"/>
	<circle cx="635.868" cy="955.076" r="4" fill="#0" id="circle139"/>
	<circle cx="639.142" cy="144.779" r="4" fill="#0" id="circle140"/>
	<circle cx="640.779" cy="693.162" r="4" fill="#0" id="circle141"/>
	<circle cx="648.964" cy="815.934" r="4" fill="#0" id="circle142"/>
	<circle cx="652.238" cy="946.891" r="4" fill="#0" id="circle143"/>
	<circle cx="655.512" cy="151.327" r="4" fill="#0" id="circle144"/>
	<circle cx="657.149" cy="693.162" r="4" fill="#0" id="circle145"/>
	<circle cx="665.333" cy="822.482" r="4" fill="#0" id="circle146"/>
	<circle cx="668.607" cy="706.257" r="4" fill="#0" id="circle147"/>
	<circle cx="668.607" cy="946.891" r="4" fill="#0" id="circle148"/>
	<circle cx="670.244" cy="159.512" r="4" fill="#0" id="circle149"/>
	<circle cx="676.792" cy="835.578" r="4" fill="#0" id="circle150"/>
	<circle cx="683.34" cy="938.706" r="4" fill="#0" id="circle151"/>
	<circle cx="684.977" cy="709.531" r="4" fill="#0" id="circle152"/>
	<circle cx="686.614" cy="159.512" r="4" fill="#0" id="circle153"/>
	<circle cx="693.162" cy="838.851" r="4" fill="#0" id="circle154"/>
	<circle cx="699.71" cy="717.716" r="4" fill="#0" id="circle155"/>
	<circle cx="699.71" cy="933.795" r="4" fill="#0" id="circle156"/>
	<circle cx="701.347" cy="151.327" r="4" fill="#0" id="circle157"/>
	<circle cx="707.894" cy="847.036" r="4" fill="#0" id="circle158"/>
	<circle cx="709.531" cy="447.617" r="4" fill="#0" id="circle159"/>
	<circle cx="709.531" cy="463.987" r="4" fill="#0" id="circle160"/>
	<circle cx="712.805" cy="480.356" r="4" fill="#0" id="circle161"/>
	<circle cx="716.079" cy="717.716" r="4" fill="#0" id="circle162"/>
	<circle cx="716.079" cy="925.611" r="4" fill="#0" id="circle163"/>
	<circle cx="717.716" cy="151.327" r="4" fill="#0" id="circle164"/>
	<circle cx="717.716" cy="431.248" r="4" fill="#0" id="circle165"/>
	<circle cx="720.99" cy="495.089" r="4" fill="#0" id="circle166"/>
	<circle cx="724.264" cy="850.31" r="4" fill="#0" id="circle167"/>
	<circle cx="725.901" cy="511.459" r="4" fill="#0" id="circle168"/>
	<circle cx="729.175" cy="914.152" r="4" fill="#0" id="circle169"/>
	<circle cx="730.812" cy="725.901" r="4" fill="#0" id="circle170"/>
	<circle cx="732.449" cy="143.142" r="4" fill="#0" id="circle171"/>
	<circle cx="734.086" cy="423.063" r="4" fill="#0" id="circle172"/>
	<circle cx="734.086" cy="526.191" r="4" fill="#0" id="circle173"/>
	<circle cx="734.086" cy="863.406" r="4" fill="#0" id="circle174"/>
	<circle cx="743.908" cy="905.967" r="4" fill="#0" id="circle175"/>
	<circle cx="745.545" cy="734.086" r="4" fill="#0" id="circle176"/>
	<circle cx="747.182" cy="536.013" r="4" fill="#0" id="circle177"/>
	<circle cx="748.818" cy="143.142" r="4" fill="#0" id="circle178"/>
	<circle cx="750.455" cy="423.063" r="4" fill="#0" id="circle179"/>
	<circle cx="750.455" cy="863.406" r="4" fill="#0" id="circle180"/>
	<circle cx="758.64" cy="259.366" r="4" fill="#0" id="circle181"/>
	<circle cx="758.64" cy="878.139" r="4" fill="#0" id="circle182"/>
	<circle cx="760.277" cy="905.967" r="4" fill="#0" id="circle183"/>
	<circle cx="761.914" cy="544.198" r="4" fill="#0" id="circle184"/>
	<circle cx="761.914" cy="734.086" r="4" fill="#0" id="circle185"/>
	<circle cx="763.551" cy="411.604" r="4" fill="#0" id="circle186"/>
	<circle cx="765.188" cy="143.142" r="4" fill="#0" id="circle187"/>
	<circle cx="766.825" cy="274.099" r="4" fill="#0" id="circle188"/>
	<circle cx="771.736" cy="247.908" r="4" fill="#0" id="circle189"/>
	<circle cx="773.373" cy="557.294" r="4" fill="#0" id="circle190"/>
	<circle cx="775.01" cy="226.627" r="4" fill="#0" id="circle191"/>
	<circle cx="776.647" cy="725.901" r="4" fill="#0" id="circle192"/>
	<circle cx="779.921" cy="283.921" r="4" fill="#0" id="circle193"/>
	<circle cx="779.921" cy="403.419" r="4" fill="#0" id="circle194"/>
	<circle cx="781.558" cy="143.142" r="4" fill="#0" id="circle195"/>
	<circle cx="783.195" cy="210.257" r="4" fill="#0" id="circle196"/>
	<circle cx="783.195" cy="570.389" r="4" fill="#0" id="circle197"/>
	<circle cx="791.38" cy="169.333" r="4" fill="#0" id="circle198"/>
	<circle cx="791.38" cy="185.703" r="4" fill="#0" id="circle199"/>
	<circle cx="791.38" cy="382.139" r="4" fill="#0" id="circle200"/>
	<circle cx="791.38" cy="585.122" r="4" fill="#0" id="circle201"/>
	<circle cx="791.38" cy="717.716" r="4" fill="#0" id="circle202"/>
	<circle cx="794.653" cy="152.964" r="4" fill="#0" id="circle203"/>
	<circle cx="794.653" cy="292.106" r="4" fill="#0" id="circle204"/>
	<circle cx="799.564" cy="308.475" r="4" fill="#0" id="circle205"/>
	<circle cx="799.564" cy="599.855" r="4" fill="#0" id="circle206"/>
	<circle cx="804.475" cy="706.257" r="4" fill="#0" id="circle207"/>
	<circle cx="807.749" cy="323.208" r="4" fill="#0" id="circle208"/>
	<circle cx="807.749" cy="349.399" r="4" fill="#0" id="circle209"/>
	<circle cx="807.749" cy="365.769" r="4" fill="#0" id="circle210"/>
	<circle cx="807.749" cy="614.587" r="4" fill="#0" id="circle211"/>
	<circle cx="807.749" cy="630.957" r="4" fill="#0" id="circle212"/>
	<circle cx="807.749" cy="660.422" r="4" fill="#0" id="circle213"/>
	<circle cx="807.749" cy="676.792" r="4" fill="#0" id="circle214"/>
	<circle cx="819.208" cy="644.053" r="4" fill="#0" id="circle215"/>
	<circle cx="820.845" cy="333.03" r="4" fill="#0" id="circle216"/>
	</g>
</svg>