<?xml version="1.0" encoding="UTF-8" standalone="no"?>
<!-- Created with CurveBenchmark -->
<svg
	xmlns:dc="http://purl.org/dc/elements/1.1/"
	xmlns:cc="http://creativecommons.org/ns#"
	xmlns:rdf="http://www.w3.org/1999/02/22-rdf-syntax-ns#"
	xmlns:svg="http://www.w3.org/2000/svg"
	xmlns="http://www.w3.org/2000/svg"
	xmlns:sodipodi="http://sodipodi.sourceforge.net/DTD/sodipodi-0.dtd"
	xmlns:inkscape="http://www.inkscape.org/namespaces/inkscape"
	width="1000"
	height="1000"
	id="svg2"
	version="1.1"
	sodipodi:docname="manifold/crawl-flightbird09.png.txt">
<defs
	id="defs4" />
<metadata
	id="metadata7">
	<rdf:RDF>
		<cc:Work
			rdf:about="">
			<dc:format>image/svg+xml</dc:format>
			<dc:type
				rdf:resource="http://purl.org/dc/dcmitype/StillImage" />
			<dc:title></dc:title>
		</cc:Work>
	</rdf:RDF>
</metadata>
<g
	inkscape:label="Layer 1"
	inkscape:groupmode="layer"
	id="layer1">
	<path style="fill:none;stroke:red;stroke-width:1px;stroke-linecap:butt;stroke-linejoin:miter;stroke-opacity:1" d="M 22.3364,577.93 22.3364,559.593 z" id="boundary" inkscape:connector-curvature="0" />
	<path style="fill:none;stroke:red;stroke-width:1px;stroke-linecap:butt;stroke-linejoin:miter;stroke-opacity:1" d="M 22.3364,577.93 40.6728,574.262 z" id="boundary" inkscape:connector-curvature="0" />
	<path style="fill:none;stroke:red;stroke-width:1px;stroke-linecap:butt;stroke-linejoin:miter;stroke-opacity:1" d="M 40.6728,574.262 49.841,590.765 z" id="boundary" inkscape:connector-curvature="0" />
	<path style="fill:none;stroke:red;stroke-width:1px;stroke-linecap:butt;stroke-linejoin:miter;stroke-opacity:1" d="M 49.841,590.765 68.1774,592.599 z" id="boundary" inkscape:connector-curvature="0" />
	<path style="fill:none;stroke:red;stroke-width:1px;stroke-linecap:butt;stroke-linejoin:miter;stroke-opacity:1" d="M 68.1774,592.599 73.6784,610.935 z" id="boundary" inkscape:connector-curvature="0" />
	<path style="fill:none;stroke:red;stroke-width:1px;stroke-linecap:butt;stroke-linejoin:miter;stroke-opacity:1" d="M 73.6784,610.935 90.1811,601.767 z" id="boundary" inkscape:connector-curvature="0" />
	<path style="fill:none;stroke:red;stroke-width:1px;stroke-linecap:butt;stroke-linejoin:miter;stroke-opacity:1" d="M 90.1811,601.767 106.684,592.599 z" id="boundary" inkscape:connector-curvature="0" />
	<path style="fill:none;stroke:red;stroke-width:1px;stroke-linecap:butt;stroke-linejoin:miter;stroke-opacity:1" d="M 106.684,592.599 125.02,592.599 z" id="boundary" inkscape:connector-curvature="0" />
	<path style="fill:none;stroke:red;stroke-width:1px;stroke-linecap:butt;stroke-linejoin:miter;stroke-opacity:1" d="M 125.02,592.599 141.523,583.431 z" id="boundary" inkscape:connector-curvature="0" />
	<path style="fill:none;stroke:red;stroke-width:1px;stroke-linecap:butt;stroke-linejoin:miter;stroke-opacity:1" d="M 141.523,583.431 159.86,577.93 z" id="boundary" inkscape:connector-curvature="0" />
	<path style="fill:none;stroke:red;stroke-width:1px;stroke-linecap:butt;stroke-linejoin:miter;stroke-opacity:1" d="M 22.3364,559.593 31.5046,537.59 z" id="boundary" inkscape:connector-curvature="0" />
	<path style="fill:none;stroke:red;stroke-width:1px;stroke-linecap:butt;stroke-linejoin:miter;stroke-opacity:1" d="M 31.5046,537.59 13.1682,532.089 z" id="boundary" inkscape:connector-curvature="0" />
	<path style="fill:none;stroke:red;stroke-width:1px;stroke-linecap:butt;stroke-linejoin:miter;stroke-opacity:1" d="M 159.86,577.93 170.861,555.926 z" id="boundary" inkscape:connector-curvature="0" />
	<path style="fill:none;stroke:red;stroke-width:1px;stroke-linecap:butt;stroke-linejoin:miter;stroke-opacity:1" d="M 170.861,555.926 189.198,555.926 z" id="boundary" inkscape:connector-curvature="0" />
	<path style="fill:none;stroke:red;stroke-width:1px;stroke-linecap:butt;stroke-linejoin:miter;stroke-opacity:1" d="M 189.198,555.926 207.534,546.758 z" id="boundary" inkscape:connector-curvature="0" />
	<path style="fill:none;stroke:red;stroke-width:1px;stroke-linecap:butt;stroke-linejoin:miter;stroke-opacity:1" d="M 207.534,546.758 224.037,537.59 z" id="boundary" inkscape:connector-curvature="0" />
	<path style="fill:none;stroke:red;stroke-width:1px;stroke-linecap:butt;stroke-linejoin:miter;stroke-opacity:1" d="M 224.037,537.59 242.373,537.59 z" id="boundary" inkscape:connector-curvature="0" />
	<path style="fill:none;stroke:red;stroke-width:1px;stroke-linecap:butt;stroke-linejoin:miter;stroke-opacity:1" d="M 242.373,537.59 257.043,526.588 z" id="boundary" inkscape:connector-curvature="0" />
	<path style="fill:none;stroke:red;stroke-width:1px;stroke-linecap:butt;stroke-linejoin:miter;stroke-opacity:1" d="M 257.043,526.588 275.379,519.253 z" id="boundary" inkscape:connector-curvature="0" />
	<path style="fill:none;stroke:red;stroke-width:1px;stroke-linecap:butt;stroke-linejoin:miter;stroke-opacity:1" d="M 275.379,519.253 293.715,519.253 z" id="boundary" inkscape:connector-curvature="0" />
	<path style="fill:none;stroke:red;stroke-width:1px;stroke-linecap:butt;stroke-linejoin:miter;stroke-opacity:1" d="M 293.715,519.253 312.052,519.253 z" id="boundary" inkscape:connector-curvature="0" />
	<path style="fill:none;stroke:red;stroke-width:1px;stroke-linecap:butt;stroke-linejoin:miter;stroke-opacity:1" d="M 312.052,519.253 330.388,519.253 z" id="boundary" inkscape:connector-curvature="0" />
	<path style="fill:none;stroke:red;stroke-width:1px;stroke-linecap:butt;stroke-linejoin:miter;stroke-opacity:1" d="M 330.388,519.253 348.725,519.253 z" id="boundary" inkscape:connector-curvature="0" />
	<path style="fill:none;stroke:red;stroke-width:1px;stroke-linecap:butt;stroke-linejoin:miter;stroke-opacity:1" d="M 348.725,519.253 367.061,519.253 z" id="boundary" inkscape:connector-curvature="0" />
	<path style="fill:none;stroke:red;stroke-width:1px;stroke-linecap:butt;stroke-linejoin:miter;stroke-opacity:1" d="M 367.061,519.253 385.397,519.253 z" id="boundary" inkscape:connector-curvature="0" />
	<path style="fill:none;stroke:red;stroke-width:1px;stroke-linecap:butt;stroke-linejoin:miter;stroke-opacity:1" d="M 385.397,519.253 400.067,500.917 z" id="boundary" inkscape:connector-curvature="0" />
	<path style="fill:none;stroke:red;stroke-width:1px;stroke-linecap:butt;stroke-linejoin:miter;stroke-opacity:1" d="M 400.067,500.917 418.403,500.917 z" id="boundary" inkscape:connector-curvature="0" />
	<path style="fill:none;stroke:red;stroke-width:1px;stroke-linecap:butt;stroke-linejoin:miter;stroke-opacity:1" d="M 418.403,500.917 436.739,491.749 z" id="boundary" inkscape:connector-curvature="0" />
	<path style="fill:none;stroke:red;stroke-width:1px;stroke-linecap:butt;stroke-linejoin:miter;stroke-opacity:1" d="M 436.739,491.749 455.076,482.58 z" id="boundary" inkscape:connector-curvature="0" />
	<path style="fill:none;stroke:red;stroke-width:1px;stroke-linecap:butt;stroke-linejoin:miter;stroke-opacity:1" d="M 455.076,482.58 473.412,482.58 z" id="boundary" inkscape:connector-curvature="0" />
	<path style="fill:none;stroke:red;stroke-width:1px;stroke-linecap:butt;stroke-linejoin:miter;stroke-opacity:1" d="M 473.412,482.58 488.081,469.745 z" id="boundary" inkscape:connector-curvature="0" />
	<path style="fill:none;stroke:red;stroke-width:1px;stroke-linecap:butt;stroke-linejoin:miter;stroke-opacity:1" d="M 488.081,469.745 506.418,464.244 z" id="boundary" inkscape:connector-curvature="0" />
	<path style="fill:none;stroke:red;stroke-width:1px;stroke-linecap:butt;stroke-linejoin:miter;stroke-opacity:1" d="M 506.418,464.244 517.42,478.913 z" id="boundary" inkscape:connector-curvature="0" />
	<path style="fill:none;stroke:red;stroke-width:1px;stroke-linecap:butt;stroke-linejoin:miter;stroke-opacity:1" d="M 517.42,478.913 532.089,491.749 z" id="boundary" inkscape:connector-curvature="0" />
	<path style="fill:none;stroke:red;stroke-width:1px;stroke-linecap:butt;stroke-linejoin:miter;stroke-opacity:1" d="M 532.089,491.749 535.756,510.085 z" id="boundary" inkscape:connector-curvature="0" />
	<path style="fill:none;stroke:red;stroke-width:1px;stroke-linecap:butt;stroke-linejoin:miter;stroke-opacity:1" d="M 535.756,510.085 544.924,526.588 z" id="boundary" inkscape:connector-curvature="0" />
	<path style="fill:none;stroke:red;stroke-width:1px;stroke-linecap:butt;stroke-linejoin:miter;stroke-opacity:1" d="M 544.924,526.588 554.092,543.091 z" id="boundary" inkscape:connector-curvature="0" />
	<path style="fill:none;stroke:red;stroke-width:1px;stroke-linecap:butt;stroke-linejoin:miter;stroke-opacity:1" d="M 554.092,543.091 563.261,559.593 z" id="boundary" inkscape:connector-curvature="0" />
	<path style="fill:none;stroke:red;stroke-width:1px;stroke-linecap:butt;stroke-linejoin:miter;stroke-opacity:1" d="M 563.261,559.593 563.261,577.93 z" id="boundary" inkscape:connector-curvature="0" />
	<path style="fill:none;stroke:red;stroke-width:1px;stroke-linecap:butt;stroke-linejoin:miter;stroke-opacity:1" d="M 563.261,577.93 581.597,583.431 z" id="boundary" inkscape:connector-curvature="0" />
	<path style="fill:none;stroke:red;stroke-width:1px;stroke-linecap:butt;stroke-linejoin:miter;stroke-opacity:1" d="M 581.597,583.431 587.098,601.767 z" id="boundary" inkscape:connector-curvature="0" />
	<path style="fill:none;stroke:red;stroke-width:1px;stroke-linecap:butt;stroke-linejoin:miter;stroke-opacity:1" d="M 587.098,601.767 590.765,620.104 z" id="boundary" inkscape:connector-curvature="0" />
	<path style="fill:none;stroke:red;stroke-width:1px;stroke-linecap:butt;stroke-linejoin:miter;stroke-opacity:1" d="M 590.765,620.104 599.933,636.606 z" id="boundary" inkscape:connector-curvature="0" />
	<path style="fill:none;stroke:red;stroke-width:1px;stroke-linecap:butt;stroke-linejoin:miter;stroke-opacity:1" d="M 599.933,636.606 609.102,653.109 z" id="boundary" inkscape:connector-curvature="0" />
	<path style="fill:none;stroke:red;stroke-width:1px;stroke-linecap:butt;stroke-linejoin:miter;stroke-opacity:1" d="M 609.102,653.109 623.771,665.945 z" id="boundary" inkscape:connector-curvature="0" />
	<path style="fill:none;stroke:red;stroke-width:1px;stroke-linecap:butt;stroke-linejoin:miter;stroke-opacity:1" d="M 623.771,665.945 627.438,684.281 z" id="boundary" inkscape:connector-curvature="0" />
	<path style="fill:none;stroke:red;stroke-width:1px;stroke-linecap:butt;stroke-linejoin:miter;stroke-opacity:1" d="M 627.438,684.281 636.606,700.784 z" id="boundary" inkscape:connector-curvature="0" />
	<path style="fill:none;stroke:red;stroke-width:1px;stroke-linecap:butt;stroke-linejoin:miter;stroke-opacity:1" d="M 636.606,700.784 645.774,717.287 z" id="boundary" inkscape:connector-curvature="0" />
	<path style="fill:none;stroke:red;stroke-width:1px;stroke-linecap:butt;stroke-linejoin:miter;stroke-opacity:1" d="M 645.774,717.287 647.608,735.623 z" id="boundary" inkscape:connector-curvature="0" />
	<path style="fill:none;stroke:red;stroke-width:1px;stroke-linecap:butt;stroke-linejoin:miter;stroke-opacity:1" d="M 647.608,735.623 656.776,752.126 z" id="boundary" inkscape:connector-curvature="0" />
	<path style="fill:none;stroke:red;stroke-width:1px;stroke-linecap:butt;stroke-linejoin:miter;stroke-opacity:1" d="M 656.776,752.126 673.279,761.294 z" id="boundary" inkscape:connector-curvature="0" />
	<path style="fill:none;stroke:red;stroke-width:1px;stroke-linecap:butt;stroke-linejoin:miter;stroke-opacity:1" d="M 673.279,761.294 691.616,766.795 z" id="boundary" inkscape:connector-curvature="0" />
	<path style="fill:none;stroke:red;stroke-width:1px;stroke-linecap:butt;stroke-linejoin:miter;stroke-opacity:1" d="M 691.616,766.795 706.285,755.793 z" id="boundary" inkscape:connector-curvature="0" />
	<path style="fill:none;stroke:red;stroke-width:1px;stroke-linecap:butt;stroke-linejoin:miter;stroke-opacity:1" d="M 706.285,755.793 724.621,748.458 z" id="boundary" inkscape:connector-curvature="0" />
	<path style="fill:none;stroke:red;stroke-width:1px;stroke-linecap:butt;stroke-linejoin:miter;stroke-opacity:1" d="M 724.621,748.458 741.124,739.29 z" id="boundary" inkscape:connector-curvature="0" />
	<path style="fill:none;stroke:red;stroke-width:1px;stroke-linecap:butt;stroke-linejoin:miter;stroke-opacity:1" d="M 741.124,739.29 757.627,720.954 z" id="boundary" inkscape:connector-curvature="0" />
	<path style="fill:none;stroke:red;stroke-width:1px;stroke-linecap:butt;stroke-linejoin:miter;stroke-opacity:1" d="M 757.627,720.954 775.963,720.954 z" id="boundary" inkscape:connector-curvature="0" />
	<path style="fill:none;stroke:red;stroke-width:1px;stroke-linecap:butt;stroke-linejoin:miter;stroke-opacity:1" d="M 775.963,720.954 785.131,704.451 z" id="boundary" inkscape:connector-curvature="0" />
	<path style="fill:none;stroke:red;stroke-width:1px;stroke-linecap:butt;stroke-linejoin:miter;stroke-opacity:1" d="M 785.131,704.451 775.963,687.948 z" id="boundary" inkscape:connector-curvature="0" />
	<path style="fill:none;stroke:red;stroke-width:1px;stroke-linecap:butt;stroke-linejoin:miter;stroke-opacity:1" d="M 775.963,687.948 775.963,669.612 z" id="boundary" inkscape:connector-curvature="0" />
	<path style="fill:none;stroke:red;stroke-width:1px;stroke-linecap:butt;stroke-linejoin:miter;stroke-opacity:1" d="M 775.963,669.612 757.627,662.277 z" id="boundary" inkscape:connector-curvature="0" />
	<path style="fill:none;stroke:red;stroke-width:1px;stroke-linecap:butt;stroke-linejoin:miter;stroke-opacity:1" d="M 757.627,662.277 748.458,645.774 z" id="boundary" inkscape:connector-curvature="0" />
	<path style="fill:none;stroke:red;stroke-width:1px;stroke-linecap:butt;stroke-linejoin:miter;stroke-opacity:1" d="M 748.458,645.774 742.957,627.438 z" id="boundary" inkscape:connector-curvature="0" />
	<path style="fill:none;stroke:red;stroke-width:1px;stroke-linecap:butt;stroke-linejoin:miter;stroke-opacity:1" d="M 742.957,627.438 733.789,610.935 z" id="boundary" inkscape:connector-curvature="0" />
	<path style="fill:none;stroke:red;stroke-width:1px;stroke-linecap:butt;stroke-linejoin:miter;stroke-opacity:1" d="M 733.789,610.935 726.455,592.599 z" id="boundary" inkscape:connector-curvature="0" />
	<path style="fill:none;stroke:red;stroke-width:1px;stroke-linecap:butt;stroke-linejoin:miter;stroke-opacity:1" d="M 726.455,592.599 711.786,579.763 z" id="boundary" inkscape:connector-curvature="0" />
	<path style="fill:none;stroke:red;stroke-width:1px;stroke-linecap:butt;stroke-linejoin:miter;stroke-opacity:1" d="M 711.786,579.763 702.617,563.261 z" id="boundary" inkscape:connector-curvature="0" />
	<path style="fill:none;stroke:red;stroke-width:1px;stroke-linecap:butt;stroke-linejoin:miter;stroke-opacity:1" d="M 702.617,563.261 695.283,544.924 z" id="boundary" inkscape:connector-curvature="0" />
	<path style="fill:none;stroke:red;stroke-width:1px;stroke-linecap:butt;stroke-linejoin:miter;stroke-opacity:1" d="M 695.283,544.924 684.281,530.255 z" id="boundary" inkscape:connector-curvature="0" />
	<path style="fill:none;stroke:red;stroke-width:1px;stroke-linecap:butt;stroke-linejoin:miter;stroke-opacity:1" d="M 684.281,530.255 675.113,513.752 z" id="boundary" inkscape:connector-curvature="0" />
	<path style="fill:none;stroke:red;stroke-width:1px;stroke-linecap:butt;stroke-linejoin:miter;stroke-opacity:1" d="M 675.113,513.752 673.279,495.416 z" id="boundary" inkscape:connector-curvature="0" />
	<path style="fill:none;stroke:red;stroke-width:1px;stroke-linecap:butt;stroke-linejoin:miter;stroke-opacity:1" d="M 673.279,495.416 656.776,486.248 z" id="boundary" inkscape:connector-curvature="0" />
	<path style="fill:none;stroke:red;stroke-width:1px;stroke-linecap:butt;stroke-linejoin:miter;stroke-opacity:1" d="M 656.776,486.248 647.608,469.745 z" id="boundary" inkscape:connector-curvature="0" />
	<path style="fill:none;stroke:red;stroke-width:1px;stroke-linecap:butt;stroke-linejoin:miter;stroke-opacity:1" d="M 647.608,469.745 647.608,451.409 z" id="boundary" inkscape:connector-curvature="0" />
	<path style="fill:none;stroke:red;stroke-width:1px;stroke-linecap:butt;stroke-linejoin:miter;stroke-opacity:1" d="M 647.608,451.409 634.773,436.739 z" id="boundary" inkscape:connector-curvature="0" />
	<path style="fill:none;stroke:red;stroke-width:1px;stroke-linecap:butt;stroke-linejoin:miter;stroke-opacity:1" d="M 634.773,436.739 625.604,420.237 z" id="boundary" inkscape:connector-curvature="0" />
	<path style="fill:none;stroke:red;stroke-width:1px;stroke-linecap:butt;stroke-linejoin:miter;stroke-opacity:1" d="M 625.604,420.237 610.935,409.235 z" id="boundary" inkscape:connector-curvature="0" />
	<path style="fill:none;stroke:red;stroke-width:1px;stroke-linecap:butt;stroke-linejoin:miter;stroke-opacity:1" d="M 610.935,409.235 629.272,390.898 z" id="boundary" inkscape:connector-curvature="0" />
	<path style="fill:none;stroke:red;stroke-width:1px;stroke-linecap:butt;stroke-linejoin:miter;stroke-opacity:1" d="M 629.272,390.898 647.608,381.73 z" id="boundary" inkscape:connector-curvature="0" />
	<path style="fill:none;stroke:red;stroke-width:1px;stroke-linecap:butt;stroke-linejoin:miter;stroke-opacity:1" d="M 647.608,381.73 665.945,381.73 z" id="boundary" inkscape:connector-curvature="0" />
	<path style="fill:none;stroke:red;stroke-width:1px;stroke-linecap:butt;stroke-linejoin:miter;stroke-opacity:1" d="M 665.945,381.73 682.447,372.562 z" id="boundary" inkscape:connector-curvature="0" />
	<path style="fill:none;stroke:red;stroke-width:1px;stroke-linecap:butt;stroke-linejoin:miter;stroke-opacity:1" d="M 682.447,372.562 697.116,361.56 z" id="boundary" inkscape:connector-curvature="0" />
	<path style="fill:none;stroke:red;stroke-width:1px;stroke-linecap:butt;stroke-linejoin:miter;stroke-opacity:1" d="M 13.1682,532.089 4,504.584 z" id="boundary" inkscape:connector-curvature="0" />
	<path style="fill:none;stroke:red;stroke-width:1px;stroke-linecap:butt;stroke-linejoin:miter;stroke-opacity:1" d="M 4,504.584 18.6691,489.915 z" id="boundary" inkscape:connector-curvature="0" />
	<path style="fill:none;stroke:red;stroke-width:1px;stroke-linecap:butt;stroke-linejoin:miter;stroke-opacity:1" d="M 18.6691,489.915 31.5046,467.911 z" id="boundary" inkscape:connector-curvature="0" />
	<path style="fill:none;stroke:red;stroke-width:1px;stroke-linecap:butt;stroke-linejoin:miter;stroke-opacity:1" d="M 31.5046,467.911 49.841,449.575 z" id="boundary" inkscape:connector-curvature="0" />
	<path style="fill:none;stroke:red;stroke-width:1px;stroke-linecap:butt;stroke-linejoin:miter;stroke-opacity:1" d="M 49.841,449.575 49.841,431.238 z" id="boundary" inkscape:connector-curvature="0" />
	<path style="fill:none;stroke:red;stroke-width:1px;stroke-linecap:butt;stroke-linejoin:miter;stroke-opacity:1" d="M 49.841,431.238 64.5102,416.569 z" id="boundary" inkscape:connector-curvature="0" />
	<path style="fill:none;stroke:red;stroke-width:1px;stroke-linecap:butt;stroke-linejoin:miter;stroke-opacity:1" d="M 64.5102,416.569 68.1774,394.566 z" id="boundary" inkscape:connector-curvature="0" />
	<path style="fill:none;stroke:red;stroke-width:1px;stroke-linecap:butt;stroke-linejoin:miter;stroke-opacity:1" d="M 68.1774,394.566 82.8466,379.896 z" id="boundary" inkscape:connector-curvature="0" />
	<path style="fill:none;stroke:red;stroke-width:1px;stroke-linecap:butt;stroke-linejoin:miter;stroke-opacity:1" d="M 82.8466,379.896 101.183,370.728 z" id="boundary" inkscape:connector-curvature="0" />
	<path style="fill:none;stroke:red;stroke-width:1px;stroke-linecap:butt;stroke-linejoin:miter;stroke-opacity:1" d="M 101.183,370.728 115.852,356.059 z" id="boundary" inkscape:connector-curvature="0" />
	<path style="fill:none;stroke:red;stroke-width:1px;stroke-linecap:butt;stroke-linejoin:miter;stroke-opacity:1" d="M 115.852,356.059 125.02,337.723 z" id="boundary" inkscape:connector-curvature="0" />
	<path style="fill:none;stroke:red;stroke-width:1px;stroke-linecap:butt;stroke-linejoin:miter;stroke-opacity:1" d="M 125.02,337.723 134.189,319.386 z" id="boundary" inkscape:connector-curvature="0" />
	<path style="fill:none;stroke:red;stroke-width:1px;stroke-linecap:butt;stroke-linejoin:miter;stroke-opacity:1" d="M 134.189,319.386 152.525,310.218 z" id="boundary" inkscape:connector-curvature="0" />
	<path style="fill:none;stroke:red;stroke-width:1px;stroke-linecap:butt;stroke-linejoin:miter;stroke-opacity:1" d="M 152.525,310.218 167.194,297.383 z" id="boundary" inkscape:connector-curvature="0" />
	<path style="fill:none;stroke:red;stroke-width:1px;stroke-linecap:butt;stroke-linejoin:miter;stroke-opacity:1" d="M 167.194,297.383 174.529,279.046 z" id="boundary" inkscape:connector-curvature="0" />
	<path style="fill:none;stroke:red;stroke-width:1px;stroke-linecap:butt;stroke-linejoin:miter;stroke-opacity:1" d="M 174.529,279.046 191.031,269.878 z" id="boundary" inkscape:connector-curvature="0" />
	<path style="fill:none;stroke:red;stroke-width:1px;stroke-linecap:butt;stroke-linejoin:miter;stroke-opacity:1" d="M 191.031,269.878 207.534,260.71 z" id="boundary" inkscape:connector-curvature="0" />
	<path style="fill:none;stroke:red;stroke-width:1px;stroke-linecap:butt;stroke-linejoin:miter;stroke-opacity:1" d="M 207.534,260.71 224.037,251.542 z" id="boundary" inkscape:connector-curvature="0" />
	<path style="fill:none;stroke:red;stroke-width:1px;stroke-linecap:butt;stroke-linejoin:miter;stroke-opacity:1" d="M 224.037,251.542 242.373,251.542 z" id="boundary" inkscape:connector-curvature="0" />
	<path style="fill:none;stroke:red;stroke-width:1px;stroke-linecap:butt;stroke-linejoin:miter;stroke-opacity:1" d="M 242.373,251.542 260.71,251.542 z" id="boundary" inkscape:connector-curvature="0" />
	<path style="fill:none;stroke:red;stroke-width:1px;stroke-linecap:butt;stroke-linejoin:miter;stroke-opacity:1" d="M 260.71,251.542 279.046,251.542 z" id="boundary" inkscape:connector-curvature="0" />
	<path style="fill:none;stroke:red;stroke-width:1px;stroke-linecap:butt;stroke-linejoin:miter;stroke-opacity:1" d="M 279.046,251.542 297.383,251.542 z" id="boundary" inkscape:connector-curvature="0" />
	<path style="fill:none;stroke:red;stroke-width:1px;stroke-linecap:butt;stroke-linejoin:miter;stroke-opacity:1" d="M 297.383,251.542 313.885,242.373 z" id="boundary" inkscape:connector-curvature="0" />
	<path style="fill:none;stroke:red;stroke-width:1px;stroke-linecap:butt;stroke-linejoin:miter;stroke-opacity:1" d="M 313.885,242.373 332.222,242.373 z" id="boundary" inkscape:connector-curvature="0" />
	<path style="fill:none;stroke:red;stroke-width:1px;stroke-linecap:butt;stroke-linejoin:miter;stroke-opacity:1" d="M 332.222,242.373 350.558,242.373 z" id="boundary" inkscape:connector-curvature="0" />
	<path style="fill:none;stroke:red;stroke-width:1px;stroke-linecap:butt;stroke-linejoin:miter;stroke-opacity:1" d="M 350.558,242.373 363.394,227.704 z" id="boundary" inkscape:connector-curvature="0" />
	<path style="fill:none;stroke:red;stroke-width:1px;stroke-linecap:butt;stroke-linejoin:miter;stroke-opacity:1" d="M 363.394,227.704 381.73,224.037 z" id="boundary" inkscape:connector-curvature="0" />
	<path style="fill:none;stroke:red;stroke-width:1px;stroke-linecap:butt;stroke-linejoin:miter;stroke-opacity:1" d="M 381.73,224.037 398.233,211.201 z" id="boundary" inkscape:connector-curvature="0" />
	<path style="fill:none;stroke:red;stroke-width:1px;stroke-linecap:butt;stroke-linejoin:miter;stroke-opacity:1" d="M 398.233,211.201 398.233,192.865 z" id="boundary" inkscape:connector-curvature="0" />
	<path style="fill:none;stroke:red;stroke-width:1px;stroke-linecap:butt;stroke-linejoin:miter;stroke-opacity:1" d="M 398.233,192.865 398.233,174.529 z" id="boundary" inkscape:connector-curvature="0" />
	<path style="fill:none;stroke:red;stroke-width:1px;stroke-linecap:butt;stroke-linejoin:miter;stroke-opacity:1" d="M 398.233,174.529 398.233,156.192 z" id="boundary" inkscape:connector-curvature="0" />
	<path style="fill:none;stroke:red;stroke-width:1px;stroke-linecap:butt;stroke-linejoin:miter;stroke-opacity:1" d="M 398.233,156.192 412.902,141.523 z" id="boundary" inkscape:connector-curvature="0" />
	<path style="fill:none;stroke:red;stroke-width:1px;stroke-linecap:butt;stroke-linejoin:miter;stroke-opacity:1" d="M 412.902,141.523 431.238,141.523 z" id="boundary" inkscape:connector-curvature="0" />
	<path style="fill:none;stroke:red;stroke-width:1px;stroke-linecap:butt;stroke-linejoin:miter;stroke-opacity:1" d="M 431.238,141.523 444.074,156.192 z" id="boundary" inkscape:connector-curvature="0" />
	<path style="fill:none;stroke:red;stroke-width:1px;stroke-linecap:butt;stroke-linejoin:miter;stroke-opacity:1" d="M 444.074,156.192 462.41,163.527 z" id="boundary" inkscape:connector-curvature="0" />
	<path style="fill:none;stroke:red;stroke-width:1px;stroke-linecap:butt;stroke-linejoin:miter;stroke-opacity:1" d="M 462.41,163.527 478.913,172.695 z" id="boundary" inkscape:connector-curvature="0" />
	<path style="fill:none;stroke:red;stroke-width:1px;stroke-linecap:butt;stroke-linejoin:miter;stroke-opacity:1" d="M 478.913,172.695 489.915,187.364 z" id="boundary" inkscape:connector-curvature="0" />
	<path style="fill:none;stroke:red;stroke-width:1px;stroke-linecap:butt;stroke-linejoin:miter;stroke-opacity:1" d="M 489.915,187.364 497.25,169.028 z" id="boundary" inkscape:connector-curvature="0" />
	<path style="fill:none;stroke:red;stroke-width:1px;stroke-linecap:butt;stroke-linejoin:miter;stroke-opacity:1" d="M 497.25,169.028 510.085,154.359 z" id="boundary" inkscape:connector-curvature="0" />
	<path style="fill:none;stroke:red;stroke-width:1px;stroke-linecap:butt;stroke-linejoin:miter;stroke-opacity:1" d="M 510.085,154.359 524.754,141.523 z" id="boundary" inkscape:connector-curvature="0" />
	<path style="fill:none;stroke:red;stroke-width:1px;stroke-linecap:butt;stroke-linejoin:miter;stroke-opacity:1" d="M 524.754,141.523 541.257,132.355 z" id="boundary" inkscape:connector-curvature="0" />
	<path style="fill:none;stroke:red;stroke-width:1px;stroke-linecap:butt;stroke-linejoin:miter;stroke-opacity:1" d="M 541.257,132.355 550.425,114.018 z" id="boundary" inkscape:connector-curvature="0" />
	<path style="fill:none;stroke:red;stroke-width:1px;stroke-linecap:butt;stroke-linejoin:miter;stroke-opacity:1" d="M 550.425,114.018 565.094,99.3494 z" id="boundary" inkscape:connector-curvature="0" />
	<path style="fill:none;stroke:red;stroke-width:1px;stroke-linecap:butt;stroke-linejoin:miter;stroke-opacity:1" d="M 565.094,99.3494 583.431,90.1811 z" id="boundary" inkscape:connector-curvature="0" />
	<path style="fill:none;stroke:red;stroke-width:1px;stroke-linecap:butt;stroke-linejoin:miter;stroke-opacity:1" d="M 583.431,90.1811 590.765,64.5102 z" id="boundary" inkscape:connector-curvature="0" />
	<path style="fill:none;stroke:red;stroke-width:1px;stroke-linecap:butt;stroke-linejoin:miter;stroke-opacity:1" d="M 590.765,64.5102 605.434,49.841 z" id="boundary" inkscape:connector-curvature="0" />
	<path style="fill:none;stroke:red;stroke-width:1px;stroke-linecap:butt;stroke-linejoin:miter;stroke-opacity:1" d="M 605.434,49.841 621.937,40.6728 z" id="boundary" inkscape:connector-curvature="0" />
	<path style="fill:none;stroke:red;stroke-width:1px;stroke-linecap:butt;stroke-linejoin:miter;stroke-opacity:1" d="M 621.937,40.6728 640.274,40.6728 z" id="boundary" inkscape:connector-curvature="0" />
	<path style="fill:none;stroke:red;stroke-width:1px;stroke-linecap:butt;stroke-linejoin:miter;stroke-opacity:1" d="M 640.274,40.6728 658.61,33.3383 z" id="boundary" inkscape:connector-curvature="0" />
	<path style="fill:none;stroke:red;stroke-width:1px;stroke-linecap:butt;stroke-linejoin:miter;stroke-opacity:1" d="M 658.61,33.3383 676.946,31.5046 z" id="boundary" inkscape:connector-curvature="0" />
	<path style="fill:none;stroke:red;stroke-width:1px;stroke-linecap:butt;stroke-linejoin:miter;stroke-opacity:1" d="M 676.946,31.5046 695.283,31.5046 z" id="boundary" inkscape:connector-curvature="0" />
	<path style="fill:none;stroke:red;stroke-width:1px;stroke-linecap:butt;stroke-linejoin:miter;stroke-opacity:1" d="M 695.283,31.5046 713.619,31.5046 z" id="boundary" inkscape:connector-curvature="0" />
	<path style="fill:none;stroke:red;stroke-width:1px;stroke-linecap:butt;stroke-linejoin:miter;stroke-opacity:1" d="M 713.619,31.5046 731.956,31.5046 z" id="boundary" inkscape:connector-curvature="0" />
	<path style="fill:none;stroke:red;stroke-width:1px;stroke-linecap:butt;stroke-linejoin:miter;stroke-opacity:1" d="M 731.956,31.5046 750.292,31.5046 z" id="boundary" inkscape:connector-curvature="0" />
	<path style="fill:none;stroke:red;stroke-width:1px;stroke-linecap:butt;stroke-linejoin:miter;stroke-opacity:1" d="M 750.292,31.5046 768.628,31.5046 z" id="boundary" inkscape:connector-curvature="0" />
	<path style="fill:none;stroke:red;stroke-width:1px;stroke-linecap:butt;stroke-linejoin:miter;stroke-opacity:1" d="M 768.628,31.5046 785.131,22.3364 z" id="boundary" inkscape:connector-curvature="0" />
	<path style="fill:none;stroke:red;stroke-width:1px;stroke-linecap:butt;stroke-linejoin:miter;stroke-opacity:1" d="M 785.131,22.3364 801.634,9.50092 z" id="boundary" inkscape:connector-curvature="0" />
	<path style="fill:none;stroke:red;stroke-width:1px;stroke-linecap:butt;stroke-linejoin:miter;stroke-opacity:1" d="M 801.634,9.50092 819.97,4 z" id="boundary" inkscape:connector-curvature="0" />
	<path style="fill:none;stroke:red;stroke-width:1px;stroke-linecap:butt;stroke-linejoin:miter;stroke-opacity:1" d="M 819.97,4 838.307,4 z" id="boundary" inkscape:connector-curvature="0" />
	<path style="fill:none;stroke:red;stroke-width:1px;stroke-linecap:butt;stroke-linejoin:miter;stroke-opacity:1" d="M 838.307,4 856.643,4 z" id="boundary" inkscape:connector-curvature="0" />
	<path style="fill:none;stroke:red;stroke-width:1px;stroke-linecap:butt;stroke-linejoin:miter;stroke-opacity:1" d="M 856.643,4 867.645,18.6691 z" id="boundary" inkscape:connector-curvature="0" />
	<path style="fill:none;stroke:red;stroke-width:1px;stroke-linecap:butt;stroke-linejoin:miter;stroke-opacity:1" d="M 867.645,18.6691 849.309,24.1701 z" id="boundary" inkscape:connector-curvature="0" />
	<path style="fill:none;stroke:red;stroke-width:1px;stroke-linecap:butt;stroke-linejoin:miter;stroke-opacity:1" d="M 697.116,361.56 711.786,335.889 z" id="boundary" inkscape:connector-curvature="0" />
	<path style="fill:none;stroke:red;stroke-width:1px;stroke-linecap:butt;stroke-linejoin:miter;stroke-opacity:1" d="M 711.786,335.889 730.122,335.889 z" id="boundary" inkscape:connector-curvature="0" />
	<path style="fill:none;stroke:red;stroke-width:1px;stroke-linecap:butt;stroke-linejoin:miter;stroke-opacity:1" d="M 730.122,335.889 744.791,323.054 z" id="boundary" inkscape:connector-curvature="0" />
	<path style="fill:none;stroke:red;stroke-width:1px;stroke-linecap:butt;stroke-linejoin:miter;stroke-opacity:1" d="M 744.791,323.054 757.627,299.216 z" id="boundary" inkscape:connector-curvature="0" />
	<path style="fill:none;stroke:red;stroke-width:1px;stroke-linecap:butt;stroke-linejoin:miter;stroke-opacity:1" d="M 757.627,299.216 775.963,280.88 z" id="boundary" inkscape:connector-curvature="0" />
	<path style="fill:none;stroke:red;stroke-width:1px;stroke-linecap:butt;stroke-linejoin:miter;stroke-opacity:1" d="M 775.963,280.88 785.131,262.543 z" id="boundary" inkscape:connector-curvature="0" />
	<path style="fill:none;stroke:red;stroke-width:1px;stroke-linecap:butt;stroke-linejoin:miter;stroke-opacity:1" d="M 785.131,262.543 799.8,249.708 z" id="boundary" inkscape:connector-curvature="0" />
	<path style="fill:none;stroke:red;stroke-width:1px;stroke-linecap:butt;stroke-linejoin:miter;stroke-opacity:1" d="M 799.8,249.708 803.468,225.871 z" id="boundary" inkscape:connector-curvature="0" />
	<path style="fill:none;stroke:red;stroke-width:1px;stroke-linecap:butt;stroke-linejoin:miter;stroke-opacity:1" d="M 803.468,225.871 819.97,235.039 z" id="boundary" inkscape:connector-curvature="0" />
	<path style="fill:none;stroke:red;stroke-width:1px;stroke-linecap:butt;stroke-linejoin:miter;stroke-opacity:1" d="M 819.97,235.039 834.64,224.037 z" id="boundary" inkscape:connector-curvature="0" />
	<path style="fill:none;stroke:red;stroke-width:1px;stroke-linecap:butt;stroke-linejoin:miter;stroke-opacity:1" d="M 834.64,224.037 852.976,216.702 z" id="boundary" inkscape:connector-curvature="0" />
	<path style="fill:none;stroke:red;stroke-width:1px;stroke-linecap:butt;stroke-linejoin:miter;stroke-opacity:1" d="M 852.976,216.702 869.479,207.534 z" id="boundary" inkscape:connector-curvature="0" />
	<path style="fill:none;stroke:red;stroke-width:1px;stroke-linecap:butt;stroke-linejoin:miter;stroke-opacity:1" d="M 869.479,207.534 885.982,198.366 z" id="boundary" inkscape:connector-curvature="0" />
	<path style="fill:none;stroke:red;stroke-width:1px;stroke-linecap:butt;stroke-linejoin:miter;stroke-opacity:1" d="M 885.982,198.366 904.318,189.198 z" id="boundary" inkscape:connector-curvature="0" />
	<path style="fill:none;stroke:red;stroke-width:1px;stroke-linecap:butt;stroke-linejoin:miter;stroke-opacity:1" d="M 904.318,189.198 922.654,189.198 z" id="boundary" inkscape:connector-curvature="0" />
	<path style="fill:none;stroke:red;stroke-width:1px;stroke-linecap:butt;stroke-linejoin:miter;stroke-opacity:1" d="M 922.654,189.198 931.823,170.861 z" id="boundary" inkscape:connector-curvature="0" />
	<path style="fill:none;stroke:red;stroke-width:1px;stroke-linecap:butt;stroke-linejoin:miter;stroke-opacity:1" d="M 931.823,170.861 950.159,161.693 z" id="boundary" inkscape:connector-curvature="0" />
	<path style="fill:none;stroke:red;stroke-width:1px;stroke-linecap:butt;stroke-linejoin:miter;stroke-opacity:1" d="M 950.159,161.693 968.495,143.357 z" id="boundary" inkscape:connector-curvature="0" />
	<path style="fill:none;stroke:red;stroke-width:1px;stroke-linecap:butt;stroke-linejoin:miter;stroke-opacity:1" d="M 968.495,143.357 986.832,137.856 z" id="boundary" inkscape:connector-curvature="0" />
	<path style="fill:none;stroke:red;stroke-width:1px;stroke-linecap:butt;stroke-linejoin:miter;stroke-opacity:1" d="M 986.832,137.856 977.664,115.852 z" id="boundary" inkscape:connector-curvature="0" />
	<path style="fill:none;stroke:red;stroke-width:1px;stroke-linecap:butt;stroke-linejoin:miter;stroke-opacity:1" d="M 977.664,115.852 996,110.351 z" id="boundary" inkscape:connector-curvature="0" />
	<path style="fill:none;stroke:red;stroke-width:1px;stroke-linecap:butt;stroke-linejoin:miter;stroke-opacity:1" d="M 996,110.351 977.664,93.8484 z" id="boundary" inkscape:connector-curvature="0" />
	<path style="fill:none;stroke:red;stroke-width:1px;stroke-linecap:butt;stroke-linejoin:miter;stroke-opacity:1" d="M 977.664,93.8484 968.495,77.3457 z" id="boundary" inkscape:connector-curvature="0" />
	<path style="fill:none;stroke:red;stroke-width:1px;stroke-linecap:butt;stroke-linejoin:miter;stroke-opacity:1" d="M 968.495,77.3457 950.159,70.0111 z" id="boundary" inkscape:connector-curvature="0" />
	<path style="fill:none;stroke:red;stroke-width:1px;stroke-linecap:butt;stroke-linejoin:miter;stroke-opacity:1" d="M 950.159,70.0111 950.159,51.6747 z" id="boundary" inkscape:connector-curvature="0" />
	<path style="fill:none;stroke:red;stroke-width:1px;stroke-linecap:butt;stroke-linejoin:miter;stroke-opacity:1" d="M 950.159,51.6747 968.495,46.1738 z" id="boundary" inkscape:connector-curvature="0" />
	<path style="fill:none;stroke:red;stroke-width:1px;stroke-linecap:butt;stroke-linejoin:miter;stroke-opacity:1" d="M 968.495,46.1738 937.323,33.3383 z" id="boundary" inkscape:connector-curvature="0" />
	<path style="fill:none;stroke:red;stroke-width:1px;stroke-linecap:butt;stroke-linejoin:miter;stroke-opacity:1" d="M 937.323,33.3383 918.987,31.5046 z" id="boundary" inkscape:connector-curvature="0" />
	<path style="fill:none;stroke:red;stroke-width:1px;stroke-linecap:butt;stroke-linejoin:miter;stroke-opacity:1" d="M 918.987,31.5046 900.651,31.5046 z" id="boundary" inkscape:connector-curvature="0" />
	<path style="fill:none;stroke:red;stroke-width:1px;stroke-linecap:butt;stroke-linejoin:miter;stroke-opacity:1" d="M 900.651,31.5046 882.314,31.5046 z" id="boundary" inkscape:connector-curvature="0" />
	<circle cx="4" cy="504.584" r="4" fill="#0" id="circle0"/>
	<circle cx="13.1682" cy="532.089" r="4" fill="#0" id="circle1"/>
	<circle cx="18.6691" cy="489.915" r="4" fill="#0" id="circle2"/>
	<circle cx="22.3364" cy="559.593" r="4" fill="#0" id="circle3"/>
	<circle cx="22.3364" cy="577.93" r="4" fill="#0" id="circle4"/>
	<circle cx="31.5046" cy="467.911" r="4" fill="#0" id="circle5"/>
	<circle cx="31.5046" cy="537.59" r="4" fill="#0" id="circle6"/>
	<circle cx="40.6728" cy="574.262" r="4" fill="#0" id="circle7"/>
	<circle cx="49.841" cy="431.238" r="4" fill="#0" id="circle8"/>
	<circle cx="49.841" cy="449.575" r="4" fill="#0" id="circle9"/>
	<circle cx="49.841" cy="590.765" r="4" fill="#0" id="circle10"/>
	<circle cx="64.5102" cy="416.569" r="4" fill="#0" id="circle11"/>
	<circle cx="68.1774" cy="394.566" r="4" fill="#0" id="circle12"/>
	<circle cx="68.1774" cy="592.599" r="4" fill="#0" id="circle13"/>
	<circle cx="73.6784" cy="610.935" r="4" fill="#0" id="circle14"/>
	<circle cx="82.8466" cy="379.896" r="4" fill="#0" id="circle15"/>
	<circle cx="90.1811" cy="601.767" r="4" fill="#0" id="circle16"/>
	<circle cx="101.183" cy="370.728" r="4" fill="#0" id="circle17"/>
	<circle cx="106.684" cy="592.599" r="4" fill="#0" id="circle18"/>
	<circle cx="115.852" cy="356.059" r="4" fill="#0" id="circle19"/>
	<circle cx="125.02" cy="337.723" r="4" fill="#0" id="circle20"/>
	<circle cx="125.02" cy="592.599" r="4" fill="#0" id="circle21"/>
	<circle cx="134.189" cy="319.386" r="4" fill="#0" id="circle22"/>
	<circle cx="141.523" cy="583.431" r="4" fill="#0" id="circle23"/>
	<circle cx="152.525" cy="310.218" r="4" fill="#0" id="circle24"/>
	<circle cx="159.86" cy="577.93" r="4" fill="#0" id="circle25"/>
	<circle cx="167.194" cy="297.383" r="4" fill="#0" id="circle26"/>
	<circle cx="170.861" cy="555.926" r="4" fill="#0" id="circle27"/>
	<circle cx="174.529" cy="279.046" r="4" fill="#0" id="circle28"/>
	<circle cx="189.198" cy="555.926" r="4" fill="#0" id="circle29"/>
	<circle cx="191.031" cy="269.878" r="4" fill="#0" id="circle30"/>
	<circle cx="207.534" cy="260.71" r="4" fill="#0" id="circle31"/>
	<circle cx="207.534" cy="546.758" r="4" fill="#0" id="circle32"/>
	<circle cx="224.037" cy="251.542" r="4" fill="#0" id="circle33"/>
	<circle cx="224.037" cy="537.59" r="4" fill="#0" id="circle34"/>
	<circle cx="242.373" cy="251.542" r="4" fill="#0" id="circle35"/>
	<circle cx="242.373" cy="537.59" r="4" fill="#0" id="circle36"/>
	<circle cx="257.043" cy="526.588" r="4" fill="#0" id="circle37"/>
	<circle cx="260.71" cy="251.542" r="4" fill="#0" id="circle38"/>
	<circle cx="275.379" cy="519.253" r="4" fill="#0" id="circle39"/>
	<circle cx="279.046" cy="251.542" r="4" fill="#0" id="circle40"/>
	<circle cx="293.715" cy="519.253" r="4" fill="#0" id="circle41"/>
	<circle cx="297.383" cy="251.542" r="4" fill="#0" id="circle42"/>
	<circle cx="312.052" cy="519.253" r="4" fill="#0" id="circle43"/>
	<circle cx="313.885" cy="242.373" r="4" fill="#0" id="circle44"/>
	<circle cx="330.388" cy="519.253" r="4" fill="#0" id="circle45"/>
	<circle cx="332.222" cy="242.373" r="4" fill="#0" id="circle46"/>
	<circle cx="348.725" cy="519.253" r="4" fill="#0" id="circle47"/>
	<circle cx="350.558" cy="242.373" r="4" fill="#0" id="circle48"/>
	<circle cx="363.394" cy="227.704" r="4" fill="#0" id="circle49"/>
	<circle cx="367.061" cy="519.253" r="4" fill="#0" id="circle50"/>
	<circle cx="381.73" cy="224.037" r="4" fill="#0" id="circle51"/>
	<circle cx="385.397" cy="519.253" r="4" fill="#0" id="circle52"/>
	<circle cx="398.233" cy="156.192" r="4" fill="#0" id="circle53"/>
	<circle cx="398.233" cy="174.529" r="4" fill="#0" id="circle54"/>
	<circle cx="398.233" cy="192.865" r="4" fill="#0" id="circle55"/>
	<circle cx="398.233" cy="211.201" r="4" fill="#0" id="circle56"/>
	<circle cx="400.067" cy="500.917" r="4" fill="#0" id="circle57"/>
	<circle cx="412.902" cy="141.523" r="4" fill="#0" id="circle58"/>
	<circle cx="418.403" cy="500.917" r="4" fill="#0" id="circle59"/>
	<circle cx="431.238" cy="141.523" r="4" fill="#0" id="circle60"/>
	<circle cx="436.739" cy="491.749" r="4" fill="#0" id="circle61"/>
	<circle cx="444.074" cy="156.192" r="4" fill="#0" id="circle62"/>
	<circle cx="455.076" cy="482.58" r="4" fill="#0" id="circle63"/>
	<circle cx="462.41" cy="163.527" r="4" fill="#0" id="circle64"/>
	<circle cx="473.412" cy="482.58" r="4" fill="#0" id="circle65"/>
	<circle cx="478.913" cy="172.695" r="4" fill="#0" id="circle66"/>
	<circle cx="488.081" cy="469.745" r="4" fill="#0" id="circle67"/>
	<circle cx="489.915" cy="187.364" r="4" fill="#0" id="circle68"/>
	<circle cx="497.25" cy="169.028" r="4" fill="#0" id="circle69"/>
	<circle cx="506.418" cy="464.244" r="4" fill="#0" id="circle70"/>
	<circle cx="510.085" cy="154.359" r="4" fill="#0" id="circle71"/>
	<circle cx="517.42" cy="478.913" r="4" fill="#0" id="circle72"/>
	<circle cx="524.754" cy="141.523" r="4" fill="#0" id="circle73"/>
	<circle cx="532.089" cy="491.749" r="4" fill="#0" id="circle74"/>
	<circle cx="535.756" cy="510.085" r="4" fill="#0" id="circle75"/>
	<circle cx="541.257" cy="132.355" r="4" fill="#0" id="circle76"/>
	<circle cx="544.924" cy="526.588" r="4" fill="#0" id="circle77"/>
	<circle cx="550.425" cy="114.018" r="4" fill="#0" id="circle78"/>
	<circle cx="554.092" cy="543.091" r="4" fill="#0" id="circle79"/>
	<circle cx="563.261" cy="559.593" r="4" fill="#0" id="circle80"/>
	<circle cx="563.261" cy="577.93" r="4" fill="#0" id="circle81"/>
	<circle cx="565.094" cy="99.3494" r="4" fill="#0" id="circle82"/>
	<circle cx="581.597" cy="583.431" r="4" fill="#0" id="circle83"/>
	<circle cx="583.431" cy="90.1811" r="4" fill="#0" id="circle84"/>
	<circle cx="587.098" cy="601.767" r="4" fill="#0" id="circle85"/>
	<circle cx="590.765" cy="64.5102" r="4" fill="#0" id="circle86"/>
	<circle cx="590.765" cy="620.104" r="4" fill="#0" id="circle87"/>
	<circle cx="599.933" cy="636.606" r="4" fill="#0" id="circle88"/>
	<circle cx="605.434" cy="49.841" r="4" fill="#0" id="circle89"/>
	<circle cx="609.102" cy="653.109" r="4" fill="#0" id="circle90"/>
	<circle cx="610.935" cy="409.235" r="4" fill="#0" id="circle91"/>
	<circle cx="621.937" cy="40.6728" r="4" fill="#0" id="circle92"/>
	<circle cx="623.771" cy="665.945" r="4" fill="#0" id="circle93"/>
	<circle cx="625.604" cy="420.237" r="4" fill="#0" id="circle94"/>
	<circle cx="627.438" cy="684.281" r="4" fill="#0" id="circle95"/>
	<circle cx="629.272" cy="390.898" r="4" fill="#0" id="circle96"/>
	<circle cx="634.773" cy="436.739" r="4" fill="#0" id="circle97"/>
	<circle cx="636.606" cy="700.784" r="4" fill="#0" id="circle98"/>
	<circle cx="640.274" cy="40.6728" r="4" fill="#0" id="circle99"/>
	<circle cx="645.774" cy="717.287" r="4" fill="#0" id="circle100"/>
	<circle cx="647.608" cy="381.73" r="4" fill="#0" id="circle101"/>
	<circle cx="647.608" cy="451.409" r="4" fill="#0" id="circle102"/>
	<circle cx="647.608" cy="469.745" r="4" fill="#0" id="circle103"/>
	<circle cx="647.608" cy="735.623" r="4" fill="#0" id="circle104"/>
	<circle cx="656.776" cy="486.248" r="4" fill="#0" id="circle105"/>
	<circle cx="656.776" cy="752.126" r="4" fill="#0" id="circle106"/>
	<circle cx="658.61" cy="33.3383" r="4" fill="#0" id="circle107"/>
	<circle cx="665.945" cy="381.73" r="4" fill="#0" id="circle108"/>
	<circle cx="673.279" cy="495.416" r="4" fill="#0" id="circle109"/>
	<circle cx="673.279" cy="761.294" r="4" fill="#0" id="circle110"/>
	<circle cx="675.113" cy="513.752" r="4" fill="#0" id="circle111"/>
	<circle cx="676.946" cy="31.5046" r="4" fill="#0" id="circle112"/>
	<circle cx="682.447" cy="372.562" r="4" fill="#0" id="circle113"/>
	<circle cx="684.281" cy="530.255" r="4" fill="#0" id="circle114"/>
	<circle cx="691.616" cy="766.795" r="4" fill="#0" id="circle115"/>
	<circle cx="695.283" cy="31.5046" r="4" fill="#0" id="circle116"/>
	<circle cx="695.283" cy="544.924" r="4" fill="#0" id="circle117"/>
	<circle cx="697.116" cy="361.56" r="4" fill="#0" id="circle118"/>
	<circle cx="702.617" cy="563.261" r="4" fill="#0" id="circle119"/>
	<circle cx="706.285" cy="755.793" r="4" fill="#0" id="circle120"/>
	<circle cx="711.786" cy="335.889" r="4" fill="#0" id="circle121"/>
	<circle cx="711.786" cy="579.763" r="4" fill="#0" id="circle122"/>
	<circle cx="713.619" cy="31.5046" r="4" fill="#0" id="circle123"/>
	<circle cx="724.621" cy="748.458" r="4" fill="#0" id="circle124"/>
	<circle cx="726.455" cy="592.599" r="4" fill="#0" id="circle125"/>
	<circle cx="730.122" cy="335.889" r="4" fill="#0" id="circle126"/>
	<circle cx="731.956" cy="31.5046" r="4" fill="#0" id="circle127"/>
	<circle cx="733.789" cy="610.935" r="4" fill="#0" id="circle128"/>
	<circle cx="741.124" cy="739.29" r="4" fill="#0" id="circle129"/>
	<circle cx="742.957" cy="627.438" r="4" fill="#0" id="circle130"/>
	<circle cx="744.791" cy="323.054" r="4" fill="#0" id="circle131"/>
	<circle cx="748.458" cy="645.774" r="4" fill="#0" id="circle132"/>
	<circle cx="750.292" cy="31.5046" r="4" fill="#0" id="circle133"/>
	<circle cx="757.627" cy="299.216" r="4" fill="#0" id="circle134"/>
	<circle cx="757.627" cy="662.277" r="4" fill="#0" id="circle135"/>
	<circle cx="757.627" cy="720.954" r="4" fill="#0" id="circle136"/>
	<circle cx="768.628" cy="31.5046" r="4" fill="#0" id="circle137"/>
	<circle cx="775.963" cy="280.88" r="4" fill="#0" id="circle138"/>
	<circle cx="775.963" cy="669.612" r="4" fill="#0" id="circle139"/>
	<circle cx="775.963" cy="687.948" r="4" fill="#0" id="circle140"/>
	<circle cx="775.963" cy="720.954" r="4" fill="#0" id="circle141"/>
	<circle cx="785.131" cy="22.3364" r="4" fill="#0" id="circle142"/>
	<circle cx="785.131" cy="262.543" r="4" fill="#0" id="circle143"/>
	<circle cx="785.131" cy="704.451" r="4" fill="#0" id="circle144"/>
	<circle cx="799.8" cy="249.708" r="4" fill="#0" id="circle145"/>
	<circle cx="801.634" cy="9.50092" r="4" fill="#0" id="circle146"/>
	<circle cx="803.468" cy="225.871" r="4" fill="#0" id="circle147"/>
	<circle cx="819.97" cy="4" r="4" fill="#0" id="circle148"/>
	<circle cx="819.97" cy="235.039" r="4" fill="#0" id="circle149"/>
	<circle cx="834.64" cy="224.037" r="4" fill="#0" id="circle150"/>
	<circle cx="838.307" cy="4" r="4" fill="#0" id="circle151"/>
	<circle cx="849.309" cy="24.1701" r="4" fill="#0" id="circle152"/>
	<circle cx="852.976" cy="216.702" r="4" fill="#0" id="circle153"/>
	<circle cx="856.643" cy="4" r="4" fill="#0" id="circle154"/>
	<circle cx="867.645" cy="18.6691" r="4" fill="#0" id="circle155"/>
	<circle cx="869.479" cy="207.534" r="4" fill="#0" id="circle156"/>
	<circle cx="882.314" cy="31.5046" r="4" fill="#0" id="circle157"/>
	<circle cx="885.982" cy="198.366" r="4" fill="#0" id="circle158"/>
	<circle cx="900.651" cy="31.5046" r="4" fill="#0" id="circle159"/>
	<circle cx="904.318" cy="189.198" r="4" fill="#0" id="circle160"/>
	<circle cx="918.987" cy="31.5046" r="4" fill="#0" id="circle161"/>
	<circle cx="922.654" cy="189.198" r="4" fill="#0" id="circle162"/>
	<circle cx="931.823" cy="170.861" r="4" fill="#0" id="circle163"/>
	<circle cx="937.323" cy="33.3383" r="4" fill="#0" id="circle164"/>
	<circle cx="950.159" cy="51.6747" r="4" fill="#0" id="circle165"/>
	<circle cx="950.159" cy="70.0111" r="4" fill="#0" id="circle166"/>
	<circle cx="950.159" cy="161.693" r="4" fill="#0" id="circle167"/>
	<circle cx="968.495" cy="46.1738" r="4" fill="#0" id="circle168"/>
	<circle cx="968.495" cy="77.3457" r="4" fill="#0" id="circle169"/>
	<circle cx="968.495" cy="143.357" r="4" fill="#0" id="circle170"/>
	<circle cx="977.664" cy="93.8484" r="4" fill="#0" id="circle171"/>
	<circle cx="977.664" cy="115.852" r="4" fill="#0" id="circle172"/>
	<circle cx="986.832" cy="137.856" r="4" fill="#0" id="circle173"/>
	<circle cx="996" cy="110.351" r="4" fill="#0" id="circle174"/>
	</g>
</svg>