<?xml version="1.0" encoding="UTF-8" standalone="no"?>
<!-- Created with CurveBenchmark -->
<svg
	xmlns:dc="http://purl.org/dc/elements/1.1/"
	xmlns:cc="http://creativecommons.org/ns#"
	xmlns:rdf="http://www.w3.org/1999/02/22-rdf-syntax-ns#"
	xmlns:svg="http://www.w3.org/2000/svg"
	xmlns="http://www.w3.org/2000/svg"
	xmlns:sodipodi="http://sodipodi.sourceforge.net/DTD/sodipodi-0.dtd"
	xmlns:inkscape="http://www.inkscape.org/namespaces/inkscape"
	width="1000"
	height="1000"
	id="svg2"
	version="1.1"
	sodipodi:docname="manifold/crawl-key19.png.txt">
<defs
	id="defs4" />
<metadata
	id="metadata7">
	<rdf:RDF>
		<cc:Work
			rdf:about="">
			<dc:format>image/svg+xml</dc:format>
			<dc:type
				rdf:resource="http://purl.org/dc/dcmitype/StillImage" />
			<dc:title></dc:title>
		</cc:Work>
	</rdf:RDF>
</metadata>
<g
	inkscape:label="Layer 1"
	inkscape:groupmode="layer"
	id="layer1">
	<path style="fill:none;stroke:red;stroke-width:1px;stroke-linecap:butt;stroke-linejoin:miter;stroke-opacity:1" d="M 4,121.034 4,139.61 z" id="boundary" inkscape:connector-curvature="0" />
	<path style="fill:none;stroke:red;stroke-width:1px;stroke-linecap:butt;stroke-linejoin:miter;stroke-opacity:1" d="M 4,121.034 22.5768,111.745 z" id="boundary" inkscape:connector-curvature="0" />
	<path style="fill:none;stroke:red;stroke-width:1px;stroke-linecap:butt;stroke-linejoin:miter;stroke-opacity:1" d="M 22.5768,111.745 22.5768,93.1685 z" id="boundary" inkscape:connector-curvature="0" />
	<path style="fill:none;stroke:red;stroke-width:1px;stroke-linecap:butt;stroke-linejoin:miter;stroke-opacity:1" d="M 22.5768,93.1685 41.1536,93.1685 z" id="boundary" inkscape:connector-curvature="0" />
	<path style="fill:none;stroke:red;stroke-width:1px;stroke-linecap:butt;stroke-linejoin:miter;stroke-opacity:1" d="M 41.1536,93.1685 56.015,78.3071 z" id="boundary" inkscape:connector-curvature="0" />
	<path style="fill:none;stroke:red;stroke-width:1px;stroke-linecap:butt;stroke-linejoin:miter;stroke-opacity:1" d="M 56.015,78.3071 74.5918,69.0187 z" id="boundary" inkscape:connector-curvature="0" />
	<path style="fill:none;stroke:red;stroke-width:1px;stroke-linecap:butt;stroke-linejoin:miter;stroke-opacity:1" d="M 74.5918,69.0187 93.1685,59.7303 z" id="boundary" inkscape:connector-curvature="0" />
	<path style="fill:none;stroke:red;stroke-width:1px;stroke-linecap:butt;stroke-linejoin:miter;stroke-opacity:1" d="M 93.1685,59.7303 111.745,59.7303 z" id="boundary" inkscape:connector-curvature="0" />
	<path style="fill:none;stroke:red;stroke-width:1px;stroke-linecap:butt;stroke-linejoin:miter;stroke-opacity:1" d="M 111.745,59.7303 126.607,44.8689 z" id="boundary" inkscape:connector-curvature="0" />
	<path style="fill:none;stroke:red;stroke-width:1px;stroke-linecap:butt;stroke-linejoin:miter;stroke-opacity:1" d="M 126.607,44.8689 145.184,41.1536 z" id="boundary" inkscape:connector-curvature="0" />
	<path style="fill:none;stroke:red;stroke-width:1px;stroke-linecap:butt;stroke-linejoin:miter;stroke-opacity:1" d="M 145.184,41.1536 161.903,31.8652 z" id="boundary" inkscape:connector-curvature="0" />
	<path style="fill:none;stroke:red;stroke-width:1px;stroke-linecap:butt;stroke-linejoin:miter;stroke-opacity:1" d="M 161.903,31.8652 180.479,31.8652 z" id="boundary" inkscape:connector-curvature="0" />
	<path style="fill:none;stroke:red;stroke-width:1px;stroke-linecap:butt;stroke-linejoin:miter;stroke-opacity:1" d="M 180.479,31.8652 197.199,22.5768 z" id="boundary" inkscape:connector-curvature="0" />
	<path style="fill:none;stroke:red;stroke-width:1px;stroke-linecap:butt;stroke-linejoin:miter;stroke-opacity:1" d="M 197.199,22.5768 215.775,22.5768 z" id="boundary" inkscape:connector-curvature="0" />
	<path style="fill:none;stroke:red;stroke-width:1px;stroke-linecap:butt;stroke-linejoin:miter;stroke-opacity:1" d="M 215.775,22.5768 234.352,22.5768 z" id="boundary" inkscape:connector-curvature="0" />
	<path style="fill:none;stroke:red;stroke-width:1px;stroke-linecap:butt;stroke-linejoin:miter;stroke-opacity:1" d="M 234.352,22.5768 247.356,7.71536 z" id="boundary" inkscape:connector-curvature="0" />
	<path style="fill:none;stroke:red;stroke-width:1px;stroke-linecap:butt;stroke-linejoin:miter;stroke-opacity:1" d="M 247.356,7.71536 265.933,9.57303 z" id="boundary" inkscape:connector-curvature="0" />
	<path style="fill:none;stroke:red;stroke-width:1px;stroke-linecap:butt;stroke-linejoin:miter;stroke-opacity:1" d="M 265.933,9.57303 284.509,4 z" id="boundary" inkscape:connector-curvature="0" />
	<path style="fill:none;stroke:red;stroke-width:1px;stroke-linecap:butt;stroke-linejoin:miter;stroke-opacity:1" d="M 284.509,4 303.086,4 z" id="boundary" inkscape:connector-curvature="0" />
	<path style="fill:none;stroke:red;stroke-width:1px;stroke-linecap:butt;stroke-linejoin:miter;stroke-opacity:1" d="M 303.086,4 321.663,4 z" id="boundary" inkscape:connector-curvature="0" />
	<path style="fill:none;stroke:red;stroke-width:1px;stroke-linecap:butt;stroke-linejoin:miter;stroke-opacity:1" d="M 321.663,4 340.24,4 z" id="boundary" inkscape:connector-curvature="0" />
	<path style="fill:none;stroke:red;stroke-width:1px;stroke-linecap:butt;stroke-linejoin:miter;stroke-opacity:1" d="M 340.24,4 355.101,15.1461 z" id="boundary" inkscape:connector-curvature="0" />
	<path style="fill:none;stroke:red;stroke-width:1px;stroke-linecap:butt;stroke-linejoin:miter;stroke-opacity:1" d="M 355.101,15.1461 368.105,30.0075 z" id="boundary" inkscape:connector-curvature="0" />
	<path style="fill:none;stroke:red;stroke-width:1px;stroke-linecap:butt;stroke-linejoin:miter;stroke-opacity:1" d="M 368.105,30.0075 377.393,46.7266 z" id="boundary" inkscape:connector-curvature="0" />
	<path style="fill:none;stroke:red;stroke-width:1px;stroke-linecap:butt;stroke-linejoin:miter;stroke-opacity:1" d="M 377.393,46.7266 377.393,65.3034 z" id="boundary" inkscape:connector-curvature="0" />
	<path style="fill:none;stroke:red;stroke-width:1px;stroke-linecap:butt;stroke-linejoin:miter;stroke-opacity:1" d="M 377.393,65.3034 377.393,89.4532 z" id="boundary" inkscape:connector-curvature="0" />
	<path style="fill:none;stroke:red;stroke-width:1px;stroke-linecap:butt;stroke-linejoin:miter;stroke-opacity:1" d="M 377.393,89.4532 381.109,108.03 z" id="boundary" inkscape:connector-curvature="0" />
	<path style="fill:none;stroke:red;stroke-width:1px;stroke-linecap:butt;stroke-linejoin:miter;stroke-opacity:1" d="M 381.109,108.03 399.685,115.461 z" id="boundary" inkscape:connector-curvature="0" />
	<path style="fill:none;stroke:red;stroke-width:1px;stroke-linecap:butt;stroke-linejoin:miter;stroke-opacity:1" d="M 399.685,115.461 418.262,115.461 z" id="boundary" inkscape:connector-curvature="0" />
	<path style="fill:none;stroke:red;stroke-width:1px;stroke-linecap:butt;stroke-linejoin:miter;stroke-opacity:1" d="M 418.262,115.461 436.839,115.461 z" id="boundary" inkscape:connector-curvature="0" />
	<path style="fill:none;stroke:red;stroke-width:1px;stroke-linecap:butt;stroke-linejoin:miter;stroke-opacity:1" d="M 436.839,115.461 453.558,124.749 z" id="boundary" inkscape:connector-curvature="0" />
	<path style="fill:none;stroke:red;stroke-width:1px;stroke-linecap:butt;stroke-linejoin:miter;stroke-opacity:1" d="M 453.558,124.749 470.277,134.037 z" id="boundary" inkscape:connector-curvature="0" />
	<path style="fill:none;stroke:red;stroke-width:1px;stroke-linecap:butt;stroke-linejoin:miter;stroke-opacity:1" d="M 470.277,134.037 479.566,150.757 z" id="boundary" inkscape:connector-curvature="0" />
	<path style="fill:none;stroke:red;stroke-width:1px;stroke-linecap:butt;stroke-linejoin:miter;stroke-opacity:1" d="M 479.566,150.757 498.142,152.614 z" id="boundary" inkscape:connector-curvature="0" />
	<path style="fill:none;stroke:red;stroke-width:1px;stroke-linecap:butt;stroke-linejoin:miter;stroke-opacity:1" d="M 498.142,152.614 514.861,143.326 z" id="boundary" inkscape:connector-curvature="0" />
	<path style="fill:none;stroke:red;stroke-width:1px;stroke-linecap:butt;stroke-linejoin:miter;stroke-opacity:1" d="M 514.861,143.326 533.438,143.326 z" id="boundary" inkscape:connector-curvature="0" />
	<path style="fill:none;stroke:red;stroke-width:1px;stroke-linecap:butt;stroke-linejoin:miter;stroke-opacity:1" d="M 533.438,143.326 552.015,143.326 z" id="boundary" inkscape:connector-curvature="0" />
	<path style="fill:none;stroke:red;stroke-width:1px;stroke-linecap:butt;stroke-linejoin:miter;stroke-opacity:1" d="M 552.015,143.326 570.592,147.041 z" id="boundary" inkscape:connector-curvature="0" />
	<path style="fill:none;stroke:red;stroke-width:1px;stroke-linecap:butt;stroke-linejoin:miter;stroke-opacity:1" d="M 570.592,147.041 589.169,148.899 z" id="boundary" inkscape:connector-curvature="0" />
	<path style="fill:none;stroke:red;stroke-width:1px;stroke-linecap:butt;stroke-linejoin:miter;stroke-opacity:1" d="M 589.169,148.899 607.745,143.326 z" id="boundary" inkscape:connector-curvature="0" />
	<path style="fill:none;stroke:red;stroke-width:1px;stroke-linecap:butt;stroke-linejoin:miter;stroke-opacity:1" d="M 607.745,143.326 626.322,143.326 z" id="boundary" inkscape:connector-curvature="0" />
	<path style="fill:none;stroke:red;stroke-width:1px;stroke-linecap:butt;stroke-linejoin:miter;stroke-opacity:1" d="M 626.322,143.326 644.899,143.326 z" id="boundary" inkscape:connector-curvature="0" />
	<path style="fill:none;stroke:red;stroke-width:1px;stroke-linecap:butt;stroke-linejoin:miter;stroke-opacity:1" d="M 644.899,143.326 661.618,152.614 z" id="boundary" inkscape:connector-curvature="0" />
	<path style="fill:none;stroke:red;stroke-width:1px;stroke-linecap:butt;stroke-linejoin:miter;stroke-opacity:1" d="M 661.618,152.614 678.337,143.326 z" id="boundary" inkscape:connector-curvature="0" />
	<path style="fill:none;stroke:red;stroke-width:1px;stroke-linecap:butt;stroke-linejoin:miter;stroke-opacity:1" d="M 678.337,143.326 696.914,143.326 z" id="boundary" inkscape:connector-curvature="0" />
	<path style="fill:none;stroke:red;stroke-width:1px;stroke-linecap:butt;stroke-linejoin:miter;stroke-opacity:1" d="M 696.914,143.326 715.491,143.326 z" id="boundary" inkscape:connector-curvature="0" />
	<path style="fill:none;stroke:red;stroke-width:1px;stroke-linecap:butt;stroke-linejoin:miter;stroke-opacity:1" d="M 715.491,143.326 734.067,143.326 z" id="boundary" inkscape:connector-curvature="0" />
	<path style="fill:none;stroke:red;stroke-width:1px;stroke-linecap:butt;stroke-linejoin:miter;stroke-opacity:1" d="M 734.067,143.326 752.644,143.326 z" id="boundary" inkscape:connector-curvature="0" />
	<path style="fill:none;stroke:red;stroke-width:1px;stroke-linecap:butt;stroke-linejoin:miter;stroke-opacity:1" d="M 752.644,143.326 771.221,143.326 z" id="boundary" inkscape:connector-curvature="0" />
	<path style="fill:none;stroke:red;stroke-width:1px;stroke-linecap:butt;stroke-linejoin:miter;stroke-opacity:1" d="M 771.221,143.326 789.798,143.326 z" id="boundary" inkscape:connector-curvature="0" />
	<path style="fill:none;stroke:red;stroke-width:1px;stroke-linecap:butt;stroke-linejoin:miter;stroke-opacity:1" d="M 789.798,143.326 808.375,143.326 z" id="boundary" inkscape:connector-curvature="0" />
	<path style="fill:none;stroke:red;stroke-width:1px;stroke-linecap:butt;stroke-linejoin:miter;stroke-opacity:1" d="M 808.375,143.326 826.951,143.326 z" id="boundary" inkscape:connector-curvature="0" />
	<path style="fill:none;stroke:red;stroke-width:1px;stroke-linecap:butt;stroke-linejoin:miter;stroke-opacity:1" d="M 826.951,143.326 845.528,143.326 z" id="boundary" inkscape:connector-curvature="0" />
	<path style="fill:none;stroke:red;stroke-width:1px;stroke-linecap:butt;stroke-linejoin:miter;stroke-opacity:1" d="M 845.528,143.326 864.105,143.326 z" id="boundary" inkscape:connector-curvature="0" />
	<path style="fill:none;stroke:red;stroke-width:1px;stroke-linecap:butt;stroke-linejoin:miter;stroke-opacity:1" d="M 864.105,143.326 882.682,143.326 z" id="boundary" inkscape:connector-curvature="0" />
	<path style="fill:none;stroke:red;stroke-width:1px;stroke-linecap:butt;stroke-linejoin:miter;stroke-opacity:1" d="M 882.682,143.326 901.258,143.326 z" id="boundary" inkscape:connector-curvature="0" />
	<path style="fill:none;stroke:red;stroke-width:1px;stroke-linecap:butt;stroke-linejoin:miter;stroke-opacity:1" d="M 901.258,143.326 919.835,143.326 z" id="boundary" inkscape:connector-curvature="0" />
	<path style="fill:none;stroke:red;stroke-width:1px;stroke-linecap:butt;stroke-linejoin:miter;stroke-opacity:1" d="M 919.835,143.326 938.412,143.326 z" id="boundary" inkscape:connector-curvature="0" />
	<path style="fill:none;stroke:red;stroke-width:1px;stroke-linecap:butt;stroke-linejoin:miter;stroke-opacity:1" d="M 938.412,143.326 953.273,154.472 z" id="boundary" inkscape:connector-curvature="0" />
	<path style="fill:none;stroke:red;stroke-width:1px;stroke-linecap:butt;stroke-linejoin:miter;stroke-opacity:1" d="M 953.273,154.472 971.85,158.187 z" id="boundary" inkscape:connector-curvature="0" />
	<path style="fill:none;stroke:red;stroke-width:1px;stroke-linecap:butt;stroke-linejoin:miter;stroke-opacity:1" d="M 971.85,158.187 981.139,182.337 z" id="boundary" inkscape:connector-curvature="0" />
	<path style="fill:none;stroke:red;stroke-width:1px;stroke-linecap:butt;stroke-linejoin:miter;stroke-opacity:1" d="M 981.139,182.337 996,193.483 z" id="boundary" inkscape:connector-curvature="0" />
	<path style="fill:none;stroke:red;stroke-width:1px;stroke-linecap:butt;stroke-linejoin:miter;stroke-opacity:1" d="M 996,193.483 990.427,219.491 z" id="boundary" inkscape:connector-curvature="0" />
	<path style="fill:none;stroke:red;stroke-width:1px;stroke-linecap:butt;stroke-linejoin:miter;stroke-opacity:1" d="M 990.427,219.491 981.139,238.067 z" id="boundary" inkscape:connector-curvature="0" />
	<path style="fill:none;stroke:red;stroke-width:1px;stroke-linecap:butt;stroke-linejoin:miter;stroke-opacity:1" d="M 981.139,238.067 962.562,247.356 z" id="boundary" inkscape:connector-curvature="0" />
	<path style="fill:none;stroke:red;stroke-width:1px;stroke-linecap:butt;stroke-linejoin:miter;stroke-opacity:1" d="M 962.562,247.356 943.985,265.933 z" id="boundary" inkscape:connector-curvature="0" />
	<path style="fill:none;stroke:red;stroke-width:1px;stroke-linecap:butt;stroke-linejoin:miter;stroke-opacity:1" d="M 943.985,265.933 929.124,282.652 z" id="boundary" inkscape:connector-curvature="0" />
	<path style="fill:none;stroke:red;stroke-width:1px;stroke-linecap:butt;stroke-linejoin:miter;stroke-opacity:1" d="M 929.124,282.652 910.547,284.509 z" id="boundary" inkscape:connector-curvature="0" />
	<path style="fill:none;stroke:red;stroke-width:1px;stroke-linecap:butt;stroke-linejoin:miter;stroke-opacity:1" d="M 910.547,284.509 901.258,301.228 z" id="boundary" inkscape:connector-curvature="0" />
	<path style="fill:none;stroke:red;stroke-width:1px;stroke-linecap:butt;stroke-linejoin:miter;stroke-opacity:1" d="M 901.258,301.228 882.682,301.228 z" id="boundary" inkscape:connector-curvature="0" />
	<path style="fill:none;stroke:red;stroke-width:1px;stroke-linecap:butt;stroke-linejoin:miter;stroke-opacity:1" d="M 882.682,301.228 867.82,288.225 z" id="boundary" inkscape:connector-curvature="0" />
	<path style="fill:none;stroke:red;stroke-width:1px;stroke-linecap:butt;stroke-linejoin:miter;stroke-opacity:1" d="M 867.82,288.225 849.243,293.798 z" id="boundary" inkscape:connector-curvature="0" />
	<path style="fill:none;stroke:red;stroke-width:1px;stroke-linecap:butt;stroke-linejoin:miter;stroke-opacity:1" d="M 849.243,293.798 830.667,293.798 z" id="boundary" inkscape:connector-curvature="0" />
	<path style="fill:none;stroke:red;stroke-width:1px;stroke-linecap:butt;stroke-linejoin:miter;stroke-opacity:1" d="M 830.667,293.798 812.09,288.225 z" id="boundary" inkscape:connector-curvature="0" />
	<path style="fill:none;stroke:red;stroke-width:1px;stroke-linecap:butt;stroke-linejoin:miter;stroke-opacity:1" d="M 812.09,288.225 799.086,303.086 z" id="boundary" inkscape:connector-curvature="0" />
	<path style="fill:none;stroke:red;stroke-width:1px;stroke-linecap:butt;stroke-linejoin:miter;stroke-opacity:1" d="M 799.086,303.086 786.082,288.225 z" id="boundary" inkscape:connector-curvature="0" />
	<path style="fill:none;stroke:red;stroke-width:1px;stroke-linecap:butt;stroke-linejoin:miter;stroke-opacity:1" d="M 786.082,288.225 767.506,284.509 z" id="boundary" inkscape:connector-curvature="0" />
	<path style="fill:none;stroke:red;stroke-width:1px;stroke-linecap:butt;stroke-linejoin:miter;stroke-opacity:1" d="M 767.506,284.509 752.644,301.228 z" id="boundary" inkscape:connector-curvature="0" />
	<path style="fill:none;stroke:red;stroke-width:1px;stroke-linecap:butt;stroke-linejoin:miter;stroke-opacity:1" d="M 752.644,301.228 734.067,293.798 z" id="boundary" inkscape:connector-curvature="0" />
	<path style="fill:none;stroke:red;stroke-width:1px;stroke-linecap:butt;stroke-linejoin:miter;stroke-opacity:1" d="M 734.067,293.798 715.491,293.798 z" id="boundary" inkscape:connector-curvature="0" />
	<path style="fill:none;stroke:red;stroke-width:1px;stroke-linecap:butt;stroke-linejoin:miter;stroke-opacity:1" d="M 715.491,293.798 696.914,293.798 z" id="boundary" inkscape:connector-curvature="0" />
	<path style="fill:none;stroke:red;stroke-width:1px;stroke-linecap:butt;stroke-linejoin:miter;stroke-opacity:1" d="M 696.914,293.798 678.337,293.798 z" id="boundary" inkscape:connector-curvature="0" />
	<path style="fill:none;stroke:red;stroke-width:1px;stroke-linecap:butt;stroke-linejoin:miter;stroke-opacity:1" d="M 678.337,293.798 663.476,306.801 z" id="boundary" inkscape:connector-curvature="0" />
	<path style="fill:none;stroke:red;stroke-width:1px;stroke-linecap:butt;stroke-linejoin:miter;stroke-opacity:1" d="M 663.476,306.801 644.899,312.375 z" id="boundary" inkscape:connector-curvature="0" />
	<path style="fill:none;stroke:red;stroke-width:1px;stroke-linecap:butt;stroke-linejoin:miter;stroke-opacity:1" d="M 644.899,312.375 628.18,303.086 z" id="boundary" inkscape:connector-curvature="0" />
	<path style="fill:none;stroke:red;stroke-width:1px;stroke-linecap:butt;stroke-linejoin:miter;stroke-opacity:1" d="M 628.18,303.086 609.603,303.086 z" id="boundary" inkscape:connector-curvature="0" />
	<path style="fill:none;stroke:red;stroke-width:1px;stroke-linecap:butt;stroke-linejoin:miter;stroke-opacity:1" d="M 609.603,303.086 592.884,312.375 z" id="boundary" inkscape:connector-curvature="0" />
	<path style="fill:none;stroke:red;stroke-width:1px;stroke-linecap:butt;stroke-linejoin:miter;stroke-opacity:1" d="M 592.884,312.375 574.307,312.375 z" id="boundary" inkscape:connector-curvature="0" />
	<path style="fill:none;stroke:red;stroke-width:1px;stroke-linecap:butt;stroke-linejoin:miter;stroke-opacity:1" d="M 574.307,312.375 555.73,312.375 z" id="boundary" inkscape:connector-curvature="0" />
	<path style="fill:none;stroke:red;stroke-width:1px;stroke-linecap:butt;stroke-linejoin:miter;stroke-opacity:1" d="M 555.73,312.375 537.154,312.375 z" id="boundary" inkscape:connector-curvature="0" />
	<path style="fill:none;stroke:red;stroke-width:1px;stroke-linecap:butt;stroke-linejoin:miter;stroke-opacity:1" d="M 537.154,312.375 518.577,312.375 z" id="boundary" inkscape:connector-curvature="0" />
	<path style="fill:none;stroke:red;stroke-width:1px;stroke-linecap:butt;stroke-linejoin:miter;stroke-opacity:1" d="M 518.577,312.375 501.858,321.663 z" id="boundary" inkscape:connector-curvature="0" />
	<path style="fill:none;stroke:red;stroke-width:1px;stroke-linecap:butt;stroke-linejoin:miter;stroke-opacity:1" d="M 501.858,321.663 485.139,330.951 z" id="boundary" inkscape:connector-curvature="0" />
	<path style="fill:none;stroke:red;stroke-width:1px;stroke-linecap:butt;stroke-linejoin:miter;stroke-opacity:1" d="M 485.139,330.951 468.419,321.663 z" id="boundary" inkscape:connector-curvature="0" />
	<path style="fill:none;stroke:red;stroke-width:1px;stroke-linecap:butt;stroke-linejoin:miter;stroke-opacity:1" d="M 468.419,321.663 449.843,321.663 z" id="boundary" inkscape:connector-curvature="0" />
	<path style="fill:none;stroke:red;stroke-width:1px;stroke-linecap:butt;stroke-linejoin:miter;stroke-opacity:1" d="M 449.843,321.663 431.266,321.663 z" id="boundary" inkscape:connector-curvature="0" />
	<path style="fill:none;stroke:red;stroke-width:1px;stroke-linecap:butt;stroke-linejoin:miter;stroke-opacity:1" d="M 431.266,321.663 412.689,325.378 z" id="boundary" inkscape:connector-curvature="0" />
	<path style="fill:none;stroke:red;stroke-width:1px;stroke-linecap:butt;stroke-linejoin:miter;stroke-opacity:1" d="M 412.689,325.378 395.97,334.667 z" id="boundary" inkscape:connector-curvature="0" />
	<path style="fill:none;stroke:red;stroke-width:1px;stroke-linecap:butt;stroke-linejoin:miter;stroke-opacity:1" d="M 395.97,334.667 377.393,330.951 z" id="boundary" inkscape:connector-curvature="0" />
	<path style="fill:none;stroke:red;stroke-width:1px;stroke-linecap:butt;stroke-linejoin:miter;stroke-opacity:1" d="M 377.393,330.951 368.105,349.528 z" id="boundary" inkscape:connector-curvature="0" />
	<path style="fill:none;stroke:red;stroke-width:1px;stroke-linecap:butt;stroke-linejoin:miter;stroke-opacity:1" d="M 368.105,349.528 368.105,368.105 z" id="boundary" inkscape:connector-curvature="0" />
	<path style="fill:none;stroke:red;stroke-width:1px;stroke-linecap:butt;stroke-linejoin:miter;stroke-opacity:1" d="M 368.105,368.105 368.105,386.682 z" id="boundary" inkscape:connector-curvature="0" />
	<path style="fill:none;stroke:red;stroke-width:1px;stroke-linecap:butt;stroke-linejoin:miter;stroke-opacity:1" d="M 368.105,386.682 368.105,405.258 z" id="boundary" inkscape:connector-curvature="0" />
	<path style="fill:none;stroke:red;stroke-width:1px;stroke-linecap:butt;stroke-linejoin:miter;stroke-opacity:1" d="M 368.105,405.258 349.528,423.835 z" id="boundary" inkscape:connector-curvature="0" />
	<path style="fill:none;stroke:red;stroke-width:1px;stroke-linecap:butt;stroke-linejoin:miter;stroke-opacity:1" d="M 349.528,423.835 353.243,442.412 z" id="boundary" inkscape:connector-curvature="0" />
	<path style="fill:none;stroke:red;stroke-width:1px;stroke-linecap:butt;stroke-linejoin:miter;stroke-opacity:1" d="M 353.243,442.412 330.951,433.124 z" id="boundary" inkscape:connector-curvature="0" />
	<path style="fill:none;stroke:red;stroke-width:1px;stroke-linecap:butt;stroke-linejoin:miter;stroke-opacity:1" d="M 330.951,433.124 312.375,442.412 z" id="boundary" inkscape:connector-curvature="0" />
	<path style="fill:none;stroke:red;stroke-width:1px;stroke-linecap:butt;stroke-linejoin:miter;stroke-opacity:1" d="M 312.375,442.412 295.655,451.7 z" id="boundary" inkscape:connector-curvature="0" />
	<path style="fill:none;stroke:red;stroke-width:1px;stroke-linecap:butt;stroke-linejoin:miter;stroke-opacity:1" d="M 295.655,451.7 278.936,442.412 z" id="boundary" inkscape:connector-curvature="0" />
	<path style="fill:none;stroke:red;stroke-width:1px;stroke-linecap:butt;stroke-linejoin:miter;stroke-opacity:1" d="M 278.936,442.412 262.217,451.7 z" id="boundary" inkscape:connector-curvature="0" />
	<path style="fill:none;stroke:red;stroke-width:1px;stroke-linecap:butt;stroke-linejoin:miter;stroke-opacity:1" d="M 262.217,451.7 243.64,451.7 z" id="boundary" inkscape:connector-curvature="0" />
	<path style="fill:none;stroke:red;stroke-width:1px;stroke-linecap:butt;stroke-linejoin:miter;stroke-opacity:1" d="M 243.64,451.7 226.921,442.412 z" id="boundary" inkscape:connector-curvature="0" />
	<path style="fill:none;stroke:red;stroke-width:1px;stroke-linecap:butt;stroke-linejoin:miter;stroke-opacity:1" d="M 226.921,442.412 208.345,436.839 z" id="boundary" inkscape:connector-curvature="0" />
	<path style="fill:none;stroke:red;stroke-width:1px;stroke-linecap:butt;stroke-linejoin:miter;stroke-opacity:1" d="M 208.345,436.839 189.768,433.124 z" id="boundary" inkscape:connector-curvature="0" />
	<path style="fill:none;stroke:red;stroke-width:1px;stroke-linecap:butt;stroke-linejoin:miter;stroke-opacity:1" d="M 189.768,433.124 171.191,433.124 z" id="boundary" inkscape:connector-curvature="0" />
	<path style="fill:none;stroke:red;stroke-width:1px;stroke-linecap:butt;stroke-linejoin:miter;stroke-opacity:1" d="M 171.191,433.124 152.614,427.551 z" id="boundary" inkscape:connector-curvature="0" />
	<path style="fill:none;stroke:red;stroke-width:1px;stroke-linecap:butt;stroke-linejoin:miter;stroke-opacity:1" d="M 152.614,427.551 135.895,418.262 z" id="boundary" inkscape:connector-curvature="0" />
	<path style="fill:none;stroke:red;stroke-width:1px;stroke-linecap:butt;stroke-linejoin:miter;stroke-opacity:1" d="M 135.895,418.262 117.318,414.547 z" id="boundary" inkscape:connector-curvature="0" />
	<path style="fill:none;stroke:red;stroke-width:1px;stroke-linecap:butt;stroke-linejoin:miter;stroke-opacity:1" d="M 117.318,414.547 98.7416,408.974 z" id="boundary" inkscape:connector-curvature="0" />
	<path style="fill:none;stroke:red;stroke-width:1px;stroke-linecap:butt;stroke-linejoin:miter;stroke-opacity:1" d="M 98.7416,408.974 83.8801,395.97 z" id="boundary" inkscape:connector-curvature="0" />
	<path style="fill:none;stroke:red;stroke-width:1px;stroke-linecap:butt;stroke-linejoin:miter;stroke-opacity:1" d="M 83.8801,395.97 65.3034,395.97 z" id="boundary" inkscape:connector-curvature="0" />
	<path style="fill:none;stroke:red;stroke-width:1px;stroke-linecap:butt;stroke-linejoin:miter;stroke-opacity:1" d="M 65.3034,395.97 48.5843,386.682 z" id="boundary" inkscape:connector-curvature="0" />
	<path style="fill:none;stroke:red;stroke-width:1px;stroke-linecap:butt;stroke-linejoin:miter;stroke-opacity:1" d="M 48.5843,386.682 31.8652,377.393 z" id="boundary" inkscape:connector-curvature="0" />
	<path style="fill:none;stroke:red;stroke-width:1px;stroke-linecap:butt;stroke-linejoin:miter;stroke-opacity:1" d="M 31.8652,377.393 13.2884,369.963 z" id="boundary" inkscape:connector-curvature="0" />
	<path style="fill:none;stroke:red;stroke-width:1px;stroke-linecap:butt;stroke-linejoin:miter;stroke-opacity:1" d="M 13.2884,369.963 4,353.243 z" id="boundary" inkscape:connector-curvature="0" />
	<path style="fill:none;stroke:red;stroke-width:1px;stroke-linecap:butt;stroke-linejoin:miter;stroke-opacity:1" d="M 4,353.243 4,334.667 z" id="boundary" inkscape:connector-curvature="0" />
	<path style="fill:none;stroke:red;stroke-width:1px;stroke-linecap:butt;stroke-linejoin:miter;stroke-opacity:1" d="M 4,334.667 4,316.09 z" id="boundary" inkscape:connector-curvature="0" />
	<path style="fill:none;stroke:red;stroke-width:1px;stroke-linecap:butt;stroke-linejoin:miter;stroke-opacity:1" d="M 4,316.09 4,297.513 z" id="boundary" inkscape:connector-curvature="0" />
	<path style="fill:none;stroke:red;stroke-width:1px;stroke-linecap:butt;stroke-linejoin:miter;stroke-opacity:1" d="M 4,297.513 4,278.936 z" id="boundary" inkscape:connector-curvature="0" />
	<path style="fill:none;stroke:red;stroke-width:1px;stroke-linecap:butt;stroke-linejoin:miter;stroke-opacity:1" d="M 4,278.936 4,260.36 z" id="boundary" inkscape:connector-curvature="0" />
	<path style="fill:none;stroke:red;stroke-width:1px;stroke-linecap:butt;stroke-linejoin:miter;stroke-opacity:1" d="M 4,260.36 4,241.783 z" id="boundary" inkscape:connector-curvature="0" />
	<path style="fill:none;stroke:red;stroke-width:1px;stroke-linecap:butt;stroke-linejoin:miter;stroke-opacity:1" d="M 4,241.783 4,223.206 z" id="boundary" inkscape:connector-curvature="0" />
	<path style="fill:none;stroke:red;stroke-width:1px;stroke-linecap:butt;stroke-linejoin:miter;stroke-opacity:1" d="M 4,223.206 4,204.629 z" id="boundary" inkscape:connector-curvature="0" />
	<path style="fill:none;stroke:red;stroke-width:1px;stroke-linecap:butt;stroke-linejoin:miter;stroke-opacity:1" d="M 4,204.629 4,186.052 z" id="boundary" inkscape:connector-curvature="0" />
	<path style="fill:none;stroke:red;stroke-width:1px;stroke-linecap:butt;stroke-linejoin:miter;stroke-opacity:1" d="M 4,186.052 4,167.476 z" id="boundary" inkscape:connector-curvature="0" />
	<path style="fill:none;stroke:red;stroke-width:1px;stroke-linecap:butt;stroke-linejoin:miter;stroke-opacity:1" d="M 4,167.476 4,139.61 z" id="boundary" inkscape:connector-curvature="0" />
	<circle cx="4" cy="121.034" r="4" fill="#0" id="circle0"/>
	<circle cx="4" cy="139.61" r="4" fill="#0" id="circle1"/>
	<circle cx="4" cy="167.476" r="4" fill="#0" id="circle2"/>
	<circle cx="4" cy="186.052" r="4" fill="#0" id="circle3"/>
	<circle cx="4" cy="204.629" r="4" fill="#0" id="circle4"/>
	<circle cx="4" cy="223.206" r="4" fill="#0" id="circle5"/>
	<circle cx="4" cy="241.783" r="4" fill="#0" id="circle6"/>
	<circle cx="4" cy="260.36" r="4" fill="#0" id="circle7"/>
	<circle cx="4" cy="278.936" r="4" fill="#0" id="circle8"/>
	<circle cx="4" cy="297.513" r="4" fill="#0" id="circle9"/>
	<circle cx="4" cy="316.09" r="4" fill="#0" id="circle10"/>
	<circle cx="4" cy="334.667" r="4" fill="#0" id="circle11"/>
	<circle cx="4" cy="353.243" r="4" fill="#0" id="circle12"/>
	<circle cx="13.2884" cy="369.963" r="4" fill="#0" id="circle13"/>
	<circle cx="22.5768" cy="93.1685" r="4" fill="#0" id="circle14"/>
	<circle cx="22.5768" cy="111.745" r="4" fill="#0" id="circle15"/>
	<circle cx="31.8652" cy="377.393" r="4" fill="#0" id="circle16"/>
	<circle cx="41.1536" cy="93.1685" r="4" fill="#0" id="circle17"/>
	<circle cx="48.5843" cy="386.682" r="4" fill="#0" id="circle18"/>
	<circle cx="56.015" cy="78.3071" r="4" fill="#0" id="circle19"/>
	<circle cx="65.3034" cy="395.97" r="4" fill="#0" id="circle20"/>
	<circle cx="74.5918" cy="69.0187" r="4" fill="#0" id="circle21"/>
	<circle cx="83.8801" cy="395.97" r="4" fill="#0" id="circle22"/>
	<circle cx="93.1685" cy="59.7303" r="4" fill="#0" id="circle23"/>
	<circle cx="98.7416" cy="408.974" r="4" fill="#0" id="circle24"/>
	<circle cx="111.745" cy="59.7303" r="4" fill="#0" id="circle25"/>
	<circle cx="117.318" cy="414.547" r="4" fill="#0" id="circle26"/>
	<circle cx="126.607" cy="44.8689" r="4" fill="#0" id="circle27"/>
	<circle cx="135.895" cy="418.262" r="4" fill="#0" id="circle28"/>
	<circle cx="145.184" cy="41.1536" r="4" fill="#0" id="circle29"/>
	<circle cx="152.614" cy="427.551" r="4" fill="#0" id="circle30"/>
	<circle cx="161.903" cy="31.8652" r="4" fill="#0" id="circle31"/>
	<circle cx="171.191" cy="433.124" r="4" fill="#0" id="circle32"/>
	<circle cx="180.479" cy="31.8652" r="4" fill="#0" id="circle33"/>
	<circle cx="189.768" cy="433.124" r="4" fill="#0" id="circle34"/>
	<circle cx="197.199" cy="22.5768" r="4" fill="#0" id="circle35"/>
	<circle cx="208.345" cy="436.839" r="4" fill="#0" id="circle36"/>
	<circle cx="215.775" cy="22.5768" r="4" fill="#0" id="circle37"/>
	<circle cx="226.921" cy="442.412" r="4" fill="#0" id="circle38"/>
	<circle cx="234.352" cy="22.5768" r="4" fill="#0" id="circle39"/>
	<circle cx="243.64" cy="451.7" r="4" fill="#0" id="circle40"/>
	<circle cx="247.356" cy="7.71536" r="4" fill="#0" id="circle41"/>
	<circle cx="262.217" cy="451.7" r="4" fill="#0" id="circle42"/>
	<circle cx="265.933" cy="9.57303" r="4" fill="#0" id="circle43"/>
	<circle cx="278.936" cy="442.412" r="4" fill="#0" id="circle44"/>
	<circle cx="284.509" cy="4" r="4" fill="#0" id="circle45"/>
	<circle cx="295.655" cy="451.7" r="4" fill="#0" id="circle46"/>
	<circle cx="303.086" cy="4" r="4" fill="#0" id="circle47"/>
	<circle cx="312.375" cy="442.412" r="4" fill="#0" id="circle48"/>
	<circle cx="321.663" cy="4" r="4" fill="#0" id="circle49"/>
	<circle cx="330.951" cy="433.124" r="4" fill="#0" id="circle50"/>
	<circle cx="340.24" cy="4" r="4" fill="#0" id="circle51"/>
	<circle cx="349.528" cy="423.835" r="4" fill="#0" id="circle52"/>
	<circle cx="353.243" cy="442.412" r="4" fill="#0" id="circle53"/>
	<circle cx="355.101" cy="15.1461" r="4" fill="#0" id="circle54"/>
	<circle cx="368.105" cy="30.0075" r="4" fill="#0" id="circle55"/>
	<circle cx="368.105" cy="349.528" r="4" fill="#0" id="circle56"/>
	<circle cx="368.105" cy="368.105" r="4" fill="#0" id="circle57"/>
	<circle cx="368.105" cy="386.682" r="4" fill="#0" id="circle58"/>
	<circle cx="368.105" cy="405.258" r="4" fill="#0" id="circle59"/>
	<circle cx="377.393" cy="46.7266" r="4" fill="#0" id="circle60"/>
	<circle cx="377.393" cy="65.3034" r="4" fill="#0" id="circle61"/>
	<circle cx="377.393" cy="89.4532" r="4" fill="#0" id="circle62"/>
	<circle cx="377.393" cy="330.951" r="4" fill="#0" id="circle63"/>
	<circle cx="381.109" cy="108.03" r="4" fill="#0" id="circle64"/>
	<circle cx="395.97" cy="334.667" r="4" fill="#0" id="circle65"/>
	<circle cx="399.685" cy="115.461" r="4" fill="#0" id="circle66"/>
	<circle cx="412.689" cy="325.378" r="4" fill="#0" id="circle67"/>
	<circle cx="418.262" cy="115.461" r="4" fill="#0" id="circle68"/>
	<circle cx="431.266" cy="321.663" r="4" fill="#0" id="circle69"/>
	<circle cx="436.839" cy="115.461" r="4" fill="#0" id="circle70"/>
	<circle cx="449.843" cy="321.663" r="4" fill="#0" id="circle71"/>
	<circle cx="453.558" cy="124.749" r="4" fill="#0" id="circle72"/>
	<circle cx="468.419" cy="321.663" r="4" fill="#0" id="circle73"/>
	<circle cx="470.277" cy="134.037" r="4" fill="#0" id="circle74"/>
	<circle cx="479.566" cy="150.757" r="4" fill="#0" id="circle75"/>
	<circle cx="485.139" cy="330.951" r="4" fill="#0" id="circle76"/>
	<circle cx="498.142" cy="152.614" r="4" fill="#0" id="circle77"/>
	<circle cx="501.858" cy="321.663" r="4" fill="#0" id="circle78"/>
	<circle cx="514.861" cy="143.326" r="4" fill="#0" id="circle79"/>
	<circle cx="518.577" cy="312.375" r="4" fill="#0" id="circle80"/>
	<circle cx="533.438" cy="143.326" r="4" fill="#0" id="circle81"/>
	<circle cx="537.154" cy="312.375" r="4" fill="#0" id="circle82"/>
	<circle cx="552.015" cy="143.326" r="4" fill="#0" id="circle83"/>
	<circle cx="555.73" cy="312.375" r="4" fill="#0" id="circle84"/>
	<circle cx="570.592" cy="147.041" r="4" fill="#0" id="circle85"/>
	<circle cx="574.307" cy="312.375" r="4" fill="#0" id="circle86"/>
	<circle cx="589.169" cy="148.899" r="4" fill="#0" id="circle87"/>
	<circle cx="592.884" cy="312.375" r="4" fill="#0" id="circle88"/>
	<circle cx="607.745" cy="143.326" r="4" fill="#0" id="circle89"/>
	<circle cx="609.603" cy="303.086" r="4" fill="#0" id="circle90"/>
	<circle cx="626.322" cy="143.326" r="4" fill="#0" id="circle91"/>
	<circle cx="628.18" cy="303.086" r="4" fill="#0" id="circle92"/>
	<circle cx="644.899" cy="143.326" r="4" fill="#0" id="circle93"/>
	<circle cx="644.899" cy="312.375" r="4" fill="#0" id="circle94"/>
	<circle cx="661.618" cy="152.614" r="4" fill="#0" id="circle95"/>
	<circle cx="663.476" cy="306.801" r="4" fill="#0" id="circle96"/>
	<circle cx="678.337" cy="143.326" r="4" fill="#0" id="circle97"/>
	<circle cx="678.337" cy="293.798" r="4" fill="#0" id="circle98"/>
	<circle cx="696.914" cy="143.326" r="4" fill="#0" id="circle99"/>
	<circle cx="696.914" cy="293.798" r="4" fill="#0" id="circle100"/>
	<circle cx="715.491" cy="143.326" r="4" fill="#0" id="circle101"/>
	<circle cx="715.491" cy="293.798" r="4" fill="#0" id="circle102"/>
	<circle cx="734.067" cy="143.326" r="4" fill="#0" id="circle103"/>
	<circle cx="734.067" cy="293.798" r="4" fill="#0" id="circle104"/>
	<circle cx="752.644" cy="143.326" r="4" fill="#0" id="circle105"/>
	<circle cx="752.644" cy="301.228" r="4" fill="#0" id="circle106"/>
	<circle cx="767.506" cy="284.509" r="4" fill="#0" id="circle107"/>
	<circle cx="771.221" cy="143.326" r="4" fill="#0" id="circle108"/>
	<circle cx="786.082" cy="288.225" r="4" fill="#0" id="circle109"/>
	<circle cx="789.798" cy="143.326" r="4" fill="#0" id="circle110"/>
	<circle cx="799.086" cy="303.086" r="4" fill="#0" id="circle111"/>
	<circle cx="808.375" cy="143.326" r="4" fill="#0" id="circle112"/>
	<circle cx="812.09" cy="288.225" r="4" fill="#0" id="circle113"/>
	<circle cx="826.951" cy="143.326" r="4" fill="#0" id="circle114"/>
	<circle cx="830.667" cy="293.798" r="4" fill="#0" id="circle115"/>
	<circle cx="845.528" cy="143.326" r="4" fill="#0" id="circle116"/>
	<circle cx="849.243" cy="293.798" r="4" fill="#0" id="circle117"/>
	<circle cx="864.105" cy="143.326" r="4" fill="#0" id="circle118"/>
	<circle cx="867.82" cy="288.225" r="4" fill="#0" id="circle119"/>
	<circle cx="882.682" cy="143.326" r="4" fill="#0" id="circle120"/>
	<circle cx="882.682" cy="301.228" r="4" fill="#0" id="circle121"/>
	<circle cx="901.258" cy="143.326" r="4" fill="#0" id="circle122"/>
	<circle cx="901.258" cy="301.228" r="4" fill="#0" id="circle123"/>
	<circle cx="910.547" cy="284.509" r="4" fill="#0" id="circle124"/>
	<circle cx="919.835" cy="143.326" r="4" fill="#0" id="circle125"/>
	<circle cx="929.124" cy="282.652" r="4" fill="#0" id="circle126"/>
	<circle cx="938.412" cy="143.326" r="4" fill="#0" id="circle127"/>
	<circle cx="943.985" cy="265.933" r="4" fill="#0" id="circle128"/>
	<circle cx="953.273" cy="154.472" r="4" fill="#0" id="circle129"/>
	<circle cx="962.562" cy="247.356" r="4" fill="#0" id="circle130"/>
	<circle cx="971.85" cy="158.187" r="4" fill="#0" id="circle131"/>
	<circle cx="981.139" cy="182.337" r="4" fill="#0" id="circle132"/>
	<circle cx="981.139" cy="238.067" r="4" fill="#0" id="circle133"/>
	<circle cx="990.427" cy="219.491" r="4" fill="#0" id="circle134"/>
	<circle cx="996" cy="193.483" r="4" fill="#0" id="circle135"/>
	</g>
</svg>