<?xml version="1.0" encoding="UTF-8" standalone="no"?>
<!-- Created with CurveBenchmark -->
<svg
	xmlns:dc="http://purl.org/dc/elements/1.1/"
	xmlns:cc="http://creativecommons.org/ns#"
	xmlns:rdf="http://www.w3.org/1999/02/22-rdf-syntax-ns#"
	xmlns:svg="http://www.w3.org/2000/svg"
	xmlns="http://www.w3.org/2000/svg"
	xmlns:sodipodi="http://sodipodi.sourceforge.net/DTD/sodipodi-0.dtd"
	xmlns:inkscape="http://www.inkscape.org/namespaces/inkscape"
	width="1000"
	height="1000"
	id="svg2"
	version="1.1"
	sodipodi:docname="manifold/crawl-fish250.png.txt">
<defs
	id="defs4" />
<metadata
	id="metadata7">
	<rdf:RDF>
		<cc:Work
			rdf:about="">
			<dc:format>image/svg+xml</dc:format>
			<dc:type
				rdf:resource="http://purl.org/dc/dcmitype/StillImage" />
			<dc:title></dc:title>
		</cc:Work>
	</rdf:RDF>
</metadata>
<g
	inkscape:label="Layer 1"
	inkscape:groupmode="layer"
	id="layer1">
	<path style="fill:none;stroke:red;stroke-width:1px;stroke-linecap:butt;stroke-linejoin:miter;stroke-opacity:1" d="M 16.323,404.497 16.323,342.882 z" id="boundary" inkscape:connector-curvature="0" />
	<path style="fill:none;stroke:red;stroke-width:1px;stroke-linecap:butt;stroke-linejoin:miter;stroke-opacity:1" d="M 16.323,342.882 4,281.267 z" id="boundary" inkscape:connector-curvature="0" />
	<path style="fill:none;stroke:red;stroke-width:1px;stroke-linecap:butt;stroke-linejoin:miter;stroke-opacity:1" d="M 16.323,404.497 28.646,466.112 z" id="boundary" inkscape:connector-curvature="0" />
	<path style="fill:none;stroke:red;stroke-width:1px;stroke-linecap:butt;stroke-linejoin:miter;stroke-opacity:1" d="M 28.646,466.112 28.646,527.727 z" id="boundary" inkscape:connector-curvature="0" />
	<path style="fill:none;stroke:red;stroke-width:1px;stroke-linecap:butt;stroke-linejoin:miter;stroke-opacity:1" d="M 4,281.267 65.6149,262.783 z" id="boundary" inkscape:connector-curvature="0" />
	<path style="fill:none;stroke:red;stroke-width:1px;stroke-linecap:butt;stroke-linejoin:miter;stroke-opacity:1" d="M 65.6149,262.783 108.745,312.075 z" id="boundary" inkscape:connector-curvature="0" />
	<path style="fill:none;stroke:red;stroke-width:1px;stroke-linecap:butt;stroke-linejoin:miter;stroke-opacity:1" d="M 108.745,312.075 145.714,361.366 z" id="boundary" inkscape:connector-curvature="0" />
	<path style="fill:none;stroke:red;stroke-width:1px;stroke-linecap:butt;stroke-linejoin:miter;stroke-opacity:1" d="M 28.646,527.727 16.323,601.665 z" id="boundary" inkscape:connector-curvature="0" />
	<path style="fill:none;stroke:red;stroke-width:1px;stroke-linecap:butt;stroke-linejoin:miter;stroke-opacity:1" d="M 16.323,601.665 16.323,663.28 z" id="boundary" inkscape:connector-curvature="0" />
	<path style="fill:none;stroke:red;stroke-width:1px;stroke-linecap:butt;stroke-linejoin:miter;stroke-opacity:1" d="M 16.323,663.28 16.323,724.894 z" id="boundary" inkscape:connector-curvature="0" />
	<path style="fill:none;stroke:red;stroke-width:1px;stroke-linecap:butt;stroke-linejoin:miter;stroke-opacity:1" d="M 16.323,724.894 77.9379,718.733 z" id="boundary" inkscape:connector-curvature="0" />
	<path style="fill:none;stroke:red;stroke-width:1px;stroke-linecap:butt;stroke-linejoin:miter;stroke-opacity:1" d="M 77.9379,718.733 127.23,675.602 z" id="boundary" inkscape:connector-curvature="0" />
	<path style="fill:none;stroke:red;stroke-width:1px;stroke-linecap:butt;stroke-linejoin:miter;stroke-opacity:1" d="M 127.23,675.602 176.522,712.571 z" id="boundary" inkscape:connector-curvature="0" />
	<path style="fill:none;stroke:red;stroke-width:1px;stroke-linecap:butt;stroke-linejoin:miter;stroke-opacity:1" d="M 176.522,712.571 188.845,774.186 z" id="boundary" inkscape:connector-curvature="0" />
	<path style="fill:none;stroke:red;stroke-width:1px;stroke-linecap:butt;stroke-linejoin:miter;stroke-opacity:1" d="M 188.845,774.186 250.46,792.671 z" id="boundary" inkscape:connector-curvature="0" />
	<path style="fill:none;stroke:red;stroke-width:1px;stroke-linecap:butt;stroke-linejoin:miter;stroke-opacity:1" d="M 250.46,792.671 305.913,761.863 z" id="boundary" inkscape:connector-curvature="0" />
	<path style="fill:none;stroke:red;stroke-width:1px;stroke-linecap:butt;stroke-linejoin:miter;stroke-opacity:1" d="M 305.913,761.863 355.205,798.832 z" id="boundary" inkscape:connector-curvature="0" />
	<path style="fill:none;stroke:red;stroke-width:1px;stroke-linecap:butt;stroke-linejoin:miter;stroke-opacity:1" d="M 355.205,798.832 312.075,860.447 z" id="boundary" inkscape:connector-curvature="0" />
	<path style="fill:none;stroke:red;stroke-width:1px;stroke-linecap:butt;stroke-linejoin:miter;stroke-opacity:1" d="M 312.075,860.447 287.429,934.385 z" id="boundary" inkscape:connector-curvature="0" />
	<path style="fill:none;stroke:red;stroke-width:1px;stroke-linecap:butt;stroke-linejoin:miter;stroke-opacity:1" d="M 287.429,934.385 293.59,996 z" id="boundary" inkscape:connector-curvature="0" />
	<path style="fill:none;stroke:red;stroke-width:1px;stroke-linecap:butt;stroke-linejoin:miter;stroke-opacity:1" d="M 293.59,996 355.205,971.354 z" id="boundary" inkscape:connector-curvature="0" />
	<path style="fill:none;stroke:red;stroke-width:1px;stroke-linecap:butt;stroke-linejoin:miter;stroke-opacity:1" d="M 355.205,971.354 404.497,909.739 z" id="boundary" inkscape:connector-curvature="0" />
	<path style="fill:none;stroke:red;stroke-width:1px;stroke-linecap:butt;stroke-linejoin:miter;stroke-opacity:1" d="M 404.497,909.739 441.466,860.447 z" id="boundary" inkscape:connector-curvature="0" />
	<path style="fill:none;stroke:red;stroke-width:1px;stroke-linecap:butt;stroke-linejoin:miter;stroke-opacity:1" d="M 441.466,860.447 478.435,811.155 z" id="boundary" inkscape:connector-curvature="0" />
	<path style="fill:none;stroke:red;stroke-width:1px;stroke-linecap:butt;stroke-linejoin:miter;stroke-opacity:1" d="M 478.435,811.155 533.888,841.963 z" id="boundary" inkscape:connector-curvature="0" />
	<path style="fill:none;stroke:red;stroke-width:1px;stroke-linecap:butt;stroke-linejoin:miter;stroke-opacity:1" d="M 533.888,841.963 558.534,903.578 z" id="boundary" inkscape:connector-curvature="0" />
	<path style="fill:none;stroke:red;stroke-width:1px;stroke-linecap:butt;stroke-linejoin:miter;stroke-opacity:1" d="M 558.534,903.578 595.503,952.87 z" id="boundary" inkscape:connector-curvature="0" />
	<path style="fill:none;stroke:red;stroke-width:1px;stroke-linecap:butt;stroke-linejoin:miter;stroke-opacity:1" d="M 595.503,952.87 644.795,996 z" id="boundary" inkscape:connector-curvature="0" />
	<path style="fill:none;stroke:red;stroke-width:1px;stroke-linecap:butt;stroke-linejoin:miter;stroke-opacity:1" d="M 145.714,361.366 188.845,293.59 z" id="boundary" inkscape:connector-curvature="0" />
	<path style="fill:none;stroke:red;stroke-width:1px;stroke-linecap:butt;stroke-linejoin:miter;stroke-opacity:1" d="M 188.845,293.59 213.491,231.975 z" id="boundary" inkscape:connector-curvature="0" />
	<path style="fill:none;stroke:red;stroke-width:1px;stroke-linecap:butt;stroke-linejoin:miter;stroke-opacity:1" d="M 213.491,231.975 244.298,176.522 z" id="boundary" inkscape:connector-curvature="0" />
	<path style="fill:none;stroke:red;stroke-width:1px;stroke-linecap:butt;stroke-linejoin:miter;stroke-opacity:1" d="M 244.298,176.522 305.913,170.36 z" id="boundary" inkscape:connector-curvature="0" />
	<path style="fill:none;stroke:red;stroke-width:1px;stroke-linecap:butt;stroke-linejoin:miter;stroke-opacity:1" d="M 305.913,170.36 367.528,139.553 z" id="boundary" inkscape:connector-curvature="0" />
	<path style="fill:none;stroke:red;stroke-width:1px;stroke-linecap:butt;stroke-linejoin:miter;stroke-opacity:1" d="M 367.528,139.553 404.497,90.2609 z" id="boundary" inkscape:connector-curvature="0" />
	<path style="fill:none;stroke:red;stroke-width:1px;stroke-linecap:butt;stroke-linejoin:miter;stroke-opacity:1" d="M 404.497,90.2609 441.466,40.9689 z" id="boundary" inkscape:connector-curvature="0" />
	<path style="fill:none;stroke:red;stroke-width:1px;stroke-linecap:butt;stroke-linejoin:miter;stroke-opacity:1" d="M 441.466,40.9689 490.758,4 z" id="boundary" inkscape:connector-curvature="0" />
	<path style="fill:none;stroke:red;stroke-width:1px;stroke-linecap:butt;stroke-linejoin:miter;stroke-opacity:1" d="M 490.758,4 540.05,40.9689 z" id="boundary" inkscape:connector-curvature="0" />
	<path style="fill:none;stroke:red;stroke-width:1px;stroke-linecap:butt;stroke-linejoin:miter;stroke-opacity:1" d="M 540.05,40.9689 552.373,102.584 z" id="boundary" inkscape:connector-curvature="0" />
	<path style="fill:none;stroke:red;stroke-width:1px;stroke-linecap:butt;stroke-linejoin:miter;stroke-opacity:1" d="M 552.373,102.584 564.696,164.199 z" id="boundary" inkscape:connector-curvature="0" />
	<path style="fill:none;stroke:red;stroke-width:1px;stroke-linecap:butt;stroke-linejoin:miter;stroke-opacity:1" d="M 564.696,164.199 595.503,219.652 z" id="boundary" inkscape:connector-curvature="0" />
	<path style="fill:none;stroke:red;stroke-width:1px;stroke-linecap:butt;stroke-linejoin:miter;stroke-opacity:1" d="M 595.503,219.652 657.118,244.298 z" id="boundary" inkscape:connector-curvature="0" />
	<path style="fill:none;stroke:red;stroke-width:1px;stroke-linecap:butt;stroke-linejoin:miter;stroke-opacity:1" d="M 657.118,244.298 706.41,281.267 z" id="boundary" inkscape:connector-curvature="0" />
	<path style="fill:none;stroke:red;stroke-width:1px;stroke-linecap:butt;stroke-linejoin:miter;stroke-opacity:1" d="M 706.41,281.267 761.863,312.075 z" id="boundary" inkscape:connector-curvature="0" />
	<path style="fill:none;stroke:red;stroke-width:1px;stroke-linecap:butt;stroke-linejoin:miter;stroke-opacity:1" d="M 761.863,312.075 811.155,349.043 z" id="boundary" inkscape:connector-curvature="0" />
	<path style="fill:none;stroke:red;stroke-width:1px;stroke-linecap:butt;stroke-linejoin:miter;stroke-opacity:1" d="M 811.155,349.043 823.478,410.658 z" id="boundary" inkscape:connector-curvature="0" />
	<path style="fill:none;stroke:red;stroke-width:1px;stroke-linecap:butt;stroke-linejoin:miter;stroke-opacity:1" d="M 823.478,410.658 848.124,472.273 z" id="boundary" inkscape:connector-curvature="0" />
	<path style="fill:none;stroke:red;stroke-width:1px;stroke-linecap:butt;stroke-linejoin:miter;stroke-opacity:1" d="M 644.795,996 675.602,897.416 z" id="boundary" inkscape:connector-curvature="0" />
	<path style="fill:none;stroke:red;stroke-width:1px;stroke-linecap:butt;stroke-linejoin:miter;stroke-opacity:1" d="M 675.602,897.416 663.28,835.801 z" id="boundary" inkscape:connector-curvature="0" />
	<path style="fill:none;stroke:red;stroke-width:1px;stroke-linecap:butt;stroke-linejoin:miter;stroke-opacity:1" d="M 663.28,835.801 650.957,774.186 z" id="boundary" inkscape:connector-curvature="0" />
	<path style="fill:none;stroke:red;stroke-width:1px;stroke-linecap:butt;stroke-linejoin:miter;stroke-opacity:1" d="M 650.957,774.186 700.248,737.217 z" id="boundary" inkscape:connector-curvature="0" />
	<path style="fill:none;stroke:red;stroke-width:1px;stroke-linecap:butt;stroke-linejoin:miter;stroke-opacity:1" d="M 700.248,737.217 749.54,700.248 z" id="boundary" inkscape:connector-curvature="0" />
	<path style="fill:none;stroke:red;stroke-width:1px;stroke-linecap:butt;stroke-linejoin:miter;stroke-opacity:1" d="M 749.54,700.248 798.832,663.28 z" id="boundary" inkscape:connector-curvature="0" />
	<path style="fill:none;stroke:red;stroke-width:1px;stroke-linecap:butt;stroke-linejoin:miter;stroke-opacity:1" d="M 798.832,663.28 835.801,577.019 z" id="boundary" inkscape:connector-curvature="0" />
	<path style="fill:none;stroke:red;stroke-width:1px;stroke-linecap:butt;stroke-linejoin:miter;stroke-opacity:1" d="M 835.801,577.019 848.124,472.273 z" id="boundary" inkscape:connector-curvature="0" />
	<circle cx="4" cy="281.267" r="4" fill="#0" id="circle0"/>
	<circle cx="16.323" cy="342.882" r="4" fill="#0" id="circle1"/>
	<circle cx="16.323" cy="404.497" r="4" fill="#0" id="circle2"/>
	<circle cx="16.323" cy="601.665" r="4" fill="#0" id="circle3"/>
	<circle cx="16.323" cy="663.28" r="4" fill="#0" id="circle4"/>
	<circle cx="16.323" cy="724.894" r="4" fill="#0" id="circle5"/>
	<circle cx="28.646" cy="466.112" r="4" fill="#0" id="circle6"/>
	<circle cx="28.646" cy="527.727" r="4" fill="#0" id="circle7"/>
	<circle cx="65.6149" cy="262.783" r="4" fill="#0" id="circle8"/>
	<circle cx="77.9379" cy="718.733" r="4" fill="#0" id="circle9"/>
	<circle cx="108.745" cy="312.075" r="4" fill="#0" id="circle10"/>
	<circle cx="127.23" cy="675.602" r="4" fill="#0" id="circle11"/>
	<circle cx="145.714" cy="361.366" r="4" fill="#0" id="circle12"/>
	<circle cx="176.522" cy="712.571" r="4" fill="#0" id="circle13"/>
	<circle cx="188.845" cy="293.59" r="4" fill="#0" id="circle14"/>
	<circle cx="188.845" cy="774.186" r="4" fill="#0" id="circle15"/>
	<circle cx="213.491" cy="231.975" r="4" fill="#0" id="circle16"/>
	<circle cx="244.298" cy="176.522" r="4" fill="#0" id="circle17"/>
	<circle cx="250.46" cy="792.671" r="4" fill="#0" id="circle18"/>
	<circle cx="287.429" cy="934.385" r="4" fill="#0" id="circle19"/>
	<circle cx="293.59" cy="996" r="4" fill="#0" id="circle20"/>
	<circle cx="305.913" cy="170.36" r="4" fill="#0" id="circle21"/>
	<circle cx="305.913" cy="761.863" r="4" fill="#0" id="circle22"/>
	<circle cx="312.075" cy="860.447" r="4" fill="#0" id="circle23"/>
	<circle cx="355.205" cy="798.832" r="4" fill="#0" id="circle24"/>
	<circle cx="355.205" cy="971.354" r="4" fill="#0" id="circle25"/>
	<circle cx="367.528" cy="139.553" r="4" fill="#0" id="circle26"/>
	<circle cx="404.497" cy="90.2609" r="4" fill="#0" id="circle27"/>
	<circle cx="404.497" cy="909.739" r="4" fill="#0" id="circle28"/>
	<circle cx="441.466" cy="40.9689" r="4" fill="#0" id="circle29"/>
	<circle cx="441.466" cy="860.447" r="4" fill="#0" id="circle30"/>
	<circle cx="478.435" cy="811.155" r="4" fill="#0" id="circle31"/>
	<circle cx="490.758" cy="4" r="4" fill="#0" id="circle32"/>
	<circle cx="533.888" cy="841.963" r="4" fill="#0" id="circle33"/>
	<circle cx="540.05" cy="40.9689" r="4" fill="#0" id="circle34"/>
	<circle cx="552.373" cy="102.584" r="4" fill="#0" id="circle35"/>
	<circle cx="558.534" cy="903.578" r="4" fill="#0" id="circle36"/>
	<circle cx="564.696" cy="164.199" r="4" fill="#0" id="circle37"/>
	<circle cx="595.503" cy="219.652" r="4" fill="#0" id="circle38"/>
	<circle cx="595.503" cy="952.87" r="4" fill="#0" id="circle39"/>
	<circle cx="644.795" cy="996" r="4" fill="#0" id="circle40"/>
	<circle cx="650.957" cy="774.186" r="4" fill="#0" id="circle41"/>
	<circle cx="657.118" cy="244.298" r="4" fill="#0" id="circle42"/>
	<circle cx="663.28" cy="835.801" r="4" fill="#0" id="circle43"/>
	<circle cx="675.602" cy="897.416" r="4" fill="#0" id="circle44"/>
	<circle cx="700.248" cy="737.217" r="4" fill="#0" id="circle45"/>
	<circle cx="706.41" cy="281.267" r="4" fill="#0" id="circle46"/>
	<circle cx="749.54" cy="700.248" r="4" fill="#0" id="circle47"/>
	<circle cx="761.863" cy="312.075" r="4" fill="#0" id="circle48"/>
	<circle cx="798.832" cy="663.28" r="4" fill="#0" id="circle49"/>
	<circle cx="811.155" cy="349.043" r="4" fill="#0" id="circle50"/>
	<circle cx="823.478" cy="410.658" r="4" fill="#0" id="circle51"/>
	<circle cx="835.801" cy="577.019" r="4" fill="#0" id="circle52"/>
	<circle cx="848.124" cy="472.273" r="4" fill="#0" id="circle53"/>
	</g>
</svg>