<?xml version="1.0" encoding="UTF-8" standalone="no"?>
<!-- Created with CurveBenchmark -->
<svg
	xmlns:dc="http://purl.org/dc/elements/1.1/"
	xmlns:cc="http://creativecommons.org/ns#"
	xmlns:rdf="http://www.w3.org/1999/02/22-rdf-syntax-ns#"
	xmlns:svg="http://www.w3.org/2000/svg"
	xmlns="http://www.w3.org/2000/svg"
	xmlns:sodipodi="http://sodipodi.sourceforge.net/DTD/sodipodi-0.dtd"
	xmlns:inkscape="http://www.inkscape.org/namespaces/inkscape"
	width="1000"
	height="1000"
	id="svg2"
	version="1.1"
	sodipodi:docname="manifold/crawl-skyhawkaff1.png.txt">
<defs
	id="defs4" />
<metadata
	id="metadata7">
	<rdf:RDF>
		<cc:Work
			rdf:about="">
			<dc:format>image/svg+xml</dc:format>
			<dc:type
				rdf:resource="http://purl.org/dc/dcmitype/StillImage" />
			<dc:title></dc:title>
		</cc:Work>
	</rdf:RDF>
</metadata>
<g
	inkscape:label="Layer 1"
	inkscape:groupmode="layer"
	id="layer1">
	<path style="fill:none;stroke:red;stroke-width:1px;stroke-linecap:butt;stroke-linejoin:miter;stroke-opacity:1" d="M 54.785,240.997 37.8567,240.997 z" id="boundary" inkscape:connector-curvature="0" />
	<path style="fill:none;stroke:red;stroke-width:1px;stroke-linecap:butt;stroke-linejoin:miter;stroke-opacity:1" d="M 54.785,240.997 71.7133,240.997 z" id="boundary" inkscape:connector-curvature="0" />
	<path style="fill:none;stroke:red;stroke-width:1px;stroke-linecap:butt;stroke-linejoin:miter;stroke-opacity:1" d="M 71.7133,240.997 88.6416,240.997 z" id="boundary" inkscape:connector-curvature="0" />
	<path style="fill:none;stroke:red;stroke-width:1px;stroke-linecap:butt;stroke-linejoin:miter;stroke-opacity:1" d="M 88.6416,240.997 105.57,240.997 z" id="boundary" inkscape:connector-curvature="0" />
	<path style="fill:none;stroke:red;stroke-width:1px;stroke-linecap:butt;stroke-linejoin:miter;stroke-opacity:1" d="M 105.57,240.997 122.498,240.997 z" id="boundary" inkscape:connector-curvature="0" />
	<path style="fill:none;stroke:red;stroke-width:1px;stroke-linecap:butt;stroke-linejoin:miter;stroke-opacity:1" d="M 122.498,240.997 139.427,240.997 z" id="boundary" inkscape:connector-curvature="0" />
	<path style="fill:none;stroke:red;stroke-width:1px;stroke-linecap:butt;stroke-linejoin:miter;stroke-opacity:1" d="M 139.427,240.997 156.355,240.997 z" id="boundary" inkscape:connector-curvature="0" />
	<path style="fill:none;stroke:red;stroke-width:1px;stroke-linecap:butt;stroke-linejoin:miter;stroke-opacity:1" d="M 156.355,240.997 171.59,232.532 z" id="boundary" inkscape:connector-curvature="0" />
	<path style="fill:none;stroke:red;stroke-width:1px;stroke-linecap:butt;stroke-linejoin:miter;stroke-opacity:1" d="M 171.59,232.532 188.519,232.532 z" id="boundary" inkscape:connector-curvature="0" />
	<path style="fill:none;stroke:red;stroke-width:1px;stroke-linecap:butt;stroke-linejoin:miter;stroke-opacity:1" d="M 188.519,232.532 205.447,232.532 z" id="boundary" inkscape:connector-curvature="0" />
	<path style="fill:none;stroke:red;stroke-width:1px;stroke-linecap:butt;stroke-linejoin:miter;stroke-opacity:1" d="M 205.447,232.532 222.375,232.532 z" id="boundary" inkscape:connector-curvature="0" />
	<path style="fill:none;stroke:red;stroke-width:1px;stroke-linecap:butt;stroke-linejoin:miter;stroke-opacity:1" d="M 222.375,232.532 239.304,234.225 z" id="boundary" inkscape:connector-curvature="0" />
	<path style="fill:none;stroke:red;stroke-width:1px;stroke-linecap:butt;stroke-linejoin:miter;stroke-opacity:1" d="M 37.8567,240.997 20.9283,246.075 z" id="boundary" inkscape:connector-curvature="0" />
	<path style="fill:none;stroke:red;stroke-width:1px;stroke-linecap:butt;stroke-linejoin:miter;stroke-opacity:1" d="M 239.304,234.225 256.232,240.997 z" id="boundary" inkscape:connector-curvature="0" />
	<path style="fill:none;stroke:red;stroke-width:1px;stroke-linecap:butt;stroke-linejoin:miter;stroke-opacity:1" d="M 256.232,240.997 268.082,227.454 z" id="boundary" inkscape:connector-curvature="0" />
	<path style="fill:none;stroke:red;stroke-width:1px;stroke-linecap:butt;stroke-linejoin:miter;stroke-opacity:1" d="M 268.082,227.454 285.01,224.068 z" id="boundary" inkscape:connector-curvature="0" />
	<path style="fill:none;stroke:red;stroke-width:1px;stroke-linecap:butt;stroke-linejoin:miter;stroke-opacity:1" d="M 285.01,224.068 301.939,224.068 z" id="boundary" inkscape:connector-curvature="0" />
	<path style="fill:none;stroke:red;stroke-width:1px;stroke-linecap:butt;stroke-linejoin:miter;stroke-opacity:1" d="M 301.939,224.068 318.867,218.99 z" id="boundary" inkscape:connector-curvature="0" />
	<path style="fill:none;stroke:red;stroke-width:1px;stroke-linecap:butt;stroke-linejoin:miter;stroke-opacity:1" d="M 318.867,218.99 332.41,207.14 z" id="boundary" inkscape:connector-curvature="0" />
	<path style="fill:none;stroke:red;stroke-width:1px;stroke-linecap:butt;stroke-linejoin:miter;stroke-opacity:1" d="M 20.9283,246.075 4,254.539 z" id="boundary" inkscape:connector-curvature="0" />
	<path style="fill:none;stroke:red;stroke-width:1px;stroke-linecap:butt;stroke-linejoin:miter;stroke-opacity:1" d="M 4,254.539 12.4642,269.775 z" id="boundary" inkscape:connector-curvature="0" />
	<path style="fill:none;stroke:red;stroke-width:1px;stroke-linecap:butt;stroke-linejoin:miter;stroke-opacity:1" d="M 12.4642,269.775 29.3925,276.546 z" id="boundary" inkscape:connector-curvature="0" />
	<path style="fill:none;stroke:red;stroke-width:1px;stroke-linecap:butt;stroke-linejoin:miter;stroke-opacity:1" d="M 29.3925,276.546 44.628,285.01 z" id="boundary" inkscape:connector-curvature="0" />
	<path style="fill:none;stroke:red;stroke-width:1px;stroke-linecap:butt;stroke-linejoin:miter;stroke-opacity:1" d="M 44.628,285.01 61.5563,285.01 z" id="boundary" inkscape:connector-curvature="0" />
	<path style="fill:none;stroke:red;stroke-width:1px;stroke-linecap:butt;stroke-linejoin:miter;stroke-opacity:1" d="M 61.5563,285.01 76.7918,293.474 z" id="boundary" inkscape:connector-curvature="0" />
	<path style="fill:none;stroke:red;stroke-width:1px;stroke-linecap:butt;stroke-linejoin:miter;stroke-opacity:1" d="M 76.7918,293.474 93.7201,293.474 z" id="boundary" inkscape:connector-curvature="0" />
	<path style="fill:none;stroke:red;stroke-width:1px;stroke-linecap:butt;stroke-linejoin:miter;stroke-opacity:1" d="M 93.7201,293.474 110.648,293.474 z" id="boundary" inkscape:connector-curvature="0" />
	<path style="fill:none;stroke:red;stroke-width:1px;stroke-linecap:butt;stroke-linejoin:miter;stroke-opacity:1" d="M 110.648,293.474 125.884,301.939 z" id="boundary" inkscape:connector-curvature="0" />
	<path style="fill:none;stroke:red;stroke-width:1px;stroke-linecap:butt;stroke-linejoin:miter;stroke-opacity:1" d="M 125.884,301.939 142.812,301.939 z" id="boundary" inkscape:connector-curvature="0" />
	<path style="fill:none;stroke:red;stroke-width:1px;stroke-linecap:butt;stroke-linejoin:miter;stroke-opacity:1" d="M 142.812,301.939 159.741,301.939 z" id="boundary" inkscape:connector-curvature="0" />
	<path style="fill:none;stroke:red;stroke-width:1px;stroke-linecap:butt;stroke-linejoin:miter;stroke-opacity:1" d="M 159.741,301.939 176.669,301.939 z" id="boundary" inkscape:connector-curvature="0" />
	<path style="fill:none;stroke:red;stroke-width:1px;stroke-linecap:butt;stroke-linejoin:miter;stroke-opacity:1" d="M 176.669,301.939 191.904,310.403 z" id="boundary" inkscape:connector-curvature="0" />
	<path style="fill:none;stroke:red;stroke-width:1px;stroke-linecap:butt;stroke-linejoin:miter;stroke-opacity:1" d="M 191.904,310.403 208.833,310.403 z" id="boundary" inkscape:connector-curvature="0" />
	<path style="fill:none;stroke:red;stroke-width:1px;stroke-linecap:butt;stroke-linejoin:miter;stroke-opacity:1" d="M 208.833,310.403 225.761,310.403 z" id="boundary" inkscape:connector-curvature="0" />
	<path style="fill:none;stroke:red;stroke-width:1px;stroke-linecap:butt;stroke-linejoin:miter;stroke-opacity:1" d="M 225.761,310.403 242.689,313.788 z" id="boundary" inkscape:connector-curvature="0" />
	<path style="fill:none;stroke:red;stroke-width:1px;stroke-linecap:butt;stroke-linejoin:miter;stroke-opacity:1" d="M 242.689,313.788 259.618,318.867 z" id="boundary" inkscape:connector-curvature="0" />
	<path style="fill:none;stroke:red;stroke-width:1px;stroke-linecap:butt;stroke-linejoin:miter;stroke-opacity:1" d="M 259.618,318.867 276.546,318.867 z" id="boundary" inkscape:connector-curvature="0" />
	<path style="fill:none;stroke:red;stroke-width:1px;stroke-linecap:butt;stroke-linejoin:miter;stroke-opacity:1" d="M 276.546,318.867 293.474,318.867 z" id="boundary" inkscape:connector-curvature="0" />
	<path style="fill:none;stroke:red;stroke-width:1px;stroke-linecap:butt;stroke-linejoin:miter;stroke-opacity:1" d="M 293.474,318.867 308.71,327.331 z" id="boundary" inkscape:connector-curvature="0" />
	<path style="fill:none;stroke:red;stroke-width:1px;stroke-linecap:butt;stroke-linejoin:miter;stroke-opacity:1" d="M 308.71,327.331 323.945,335.795 z" id="boundary" inkscape:connector-curvature="0" />
	<path style="fill:none;stroke:red;stroke-width:1px;stroke-linecap:butt;stroke-linejoin:miter;stroke-opacity:1" d="M 323.945,335.795 339.181,344.259 z" id="boundary" inkscape:connector-curvature="0" />
	<path style="fill:none;stroke:red;stroke-width:1px;stroke-linecap:butt;stroke-linejoin:miter;stroke-opacity:1" d="M 339.181,344.259 356.109,344.259 z" id="boundary" inkscape:connector-curvature="0" />
	<path style="fill:none;stroke:red;stroke-width:1px;stroke-linecap:butt;stroke-linejoin:miter;stroke-opacity:1" d="M 356.109,344.259 373.038,344.259 z" id="boundary" inkscape:connector-curvature="0" />
	<path style="fill:none;stroke:red;stroke-width:1px;stroke-linecap:butt;stroke-linejoin:miter;stroke-opacity:1" d="M 373.038,344.259 389.966,344.259 z" id="boundary" inkscape:connector-curvature="0" />
	<path style="fill:none;stroke:red;stroke-width:1px;stroke-linecap:butt;stroke-linejoin:miter;stroke-opacity:1" d="M 389.966,344.259 403.509,356.109 z" id="boundary" inkscape:connector-curvature="0" />
	<path style="fill:none;stroke:red;stroke-width:1px;stroke-linecap:butt;stroke-linejoin:miter;stroke-opacity:1" d="M 403.509,356.109 418.744,364.573 z" id="boundary" inkscape:connector-curvature="0" />
	<path style="fill:none;stroke:red;stroke-width:1px;stroke-linecap:butt;stroke-linejoin:miter;stroke-opacity:1" d="M 418.744,364.573 432.287,376.423 z" id="boundary" inkscape:connector-curvature="0" />
	<path style="fill:none;stroke:red;stroke-width:1px;stroke-linecap:butt;stroke-linejoin:miter;stroke-opacity:1" d="M 432.287,376.423 444.137,389.966 z" id="boundary" inkscape:connector-curvature="0" />
	<path style="fill:none;stroke:red;stroke-width:1px;stroke-linecap:butt;stroke-linejoin:miter;stroke-opacity:1" d="M 444.137,389.966 457.679,401.816 z" id="boundary" inkscape:connector-curvature="0" />
	<path style="fill:none;stroke:red;stroke-width:1px;stroke-linecap:butt;stroke-linejoin:miter;stroke-opacity:1" d="M 457.679,401.816 469.529,415.358 z" id="boundary" inkscape:connector-curvature="0" />
	<path style="fill:none;stroke:red;stroke-width:1px;stroke-linecap:butt;stroke-linejoin:miter;stroke-opacity:1" d="M 332.41,207.14 342.567,186.826 z" id="boundary" inkscape:connector-curvature="0" />
	<path style="fill:none;stroke:red;stroke-width:1px;stroke-linecap:butt;stroke-linejoin:miter;stroke-opacity:1" d="M 342.567,186.826 351.031,169.898 z" id="boundary" inkscape:connector-curvature="0" />
	<path style="fill:none;stroke:red;stroke-width:1px;stroke-linecap:butt;stroke-linejoin:miter;stroke-opacity:1" d="M 351.031,169.898 359.495,154.662 z" id="boundary" inkscape:connector-curvature="0" />
	<path style="fill:none;stroke:red;stroke-width:1px;stroke-linecap:butt;stroke-linejoin:miter;stroke-opacity:1" d="M 359.495,154.662 349.338,141.119 z" id="boundary" inkscape:connector-curvature="0" />
	<path style="fill:none;stroke:red;stroke-width:1px;stroke-linecap:butt;stroke-linejoin:miter;stroke-opacity:1" d="M 349.338,141.119 334.102,132.655 z" id="boundary" inkscape:connector-curvature="0" />
	<path style="fill:none;stroke:red;stroke-width:1px;stroke-linecap:butt;stroke-linejoin:miter;stroke-opacity:1" d="M 334.102,132.655 317.174,125.884 z" id="boundary" inkscape:connector-curvature="0" />
	<path style="fill:none;stroke:red;stroke-width:1px;stroke-linecap:butt;stroke-linejoin:miter;stroke-opacity:1" d="M 317.174,125.884 308.71,110.648 z" id="boundary" inkscape:connector-curvature="0" />
	<path style="fill:none;stroke:red;stroke-width:1px;stroke-linecap:butt;stroke-linejoin:miter;stroke-opacity:1" d="M 308.71,110.648 325.638,105.57 z" id="boundary" inkscape:connector-curvature="0" />
	<path style="fill:none;stroke:red;stroke-width:1px;stroke-linecap:butt;stroke-linejoin:miter;stroke-opacity:1" d="M 325.638,105.57 342.567,105.57 z" id="boundary" inkscape:connector-curvature="0" />
	<path style="fill:none;stroke:red;stroke-width:1px;stroke-linecap:butt;stroke-linejoin:miter;stroke-opacity:1" d="M 342.567,105.57 359.495,105.57 z" id="boundary" inkscape:connector-curvature="0" />
	<path style="fill:none;stroke:red;stroke-width:1px;stroke-linecap:butt;stroke-linejoin:miter;stroke-opacity:1" d="M 359.495,105.57 376.423,105.57 z" id="boundary" inkscape:connector-curvature="0" />
	<path style="fill:none;stroke:red;stroke-width:1px;stroke-linecap:butt;stroke-linejoin:miter;stroke-opacity:1" d="M 376.423,105.57 393.352,102.184 z" id="boundary" inkscape:connector-curvature="0" />
	<path style="fill:none;stroke:red;stroke-width:1px;stroke-linecap:butt;stroke-linejoin:miter;stroke-opacity:1" d="M 393.352,102.184 401.816,85.256 z" id="boundary" inkscape:connector-curvature="0" />
	<path style="fill:none;stroke:red;stroke-width:1px;stroke-linecap:butt;stroke-linejoin:miter;stroke-opacity:1" d="M 401.816,85.256 410.28,68.3276 z" id="boundary" inkscape:connector-curvature="0" />
	<path style="fill:none;stroke:red;stroke-width:1px;stroke-linecap:butt;stroke-linejoin:miter;stroke-opacity:1" d="M 410.28,68.3276 418.744,51.3993 z" id="boundary" inkscape:connector-curvature="0" />
	<path style="fill:none;stroke:red;stroke-width:1px;stroke-linecap:butt;stroke-linejoin:miter;stroke-opacity:1" d="M 418.744,51.3993 432.287,37.8567 z" id="boundary" inkscape:connector-curvature="0" />
	<path style="fill:none;stroke:red;stroke-width:1px;stroke-linecap:butt;stroke-linejoin:miter;stroke-opacity:1" d="M 432.287,37.8567 445.829,24.314 z" id="boundary" inkscape:connector-curvature="0" />
	<path style="fill:none;stroke:red;stroke-width:1px;stroke-linecap:butt;stroke-linejoin:miter;stroke-opacity:1" d="M 445.829,24.314 459.372,12.4642 z" id="boundary" inkscape:connector-curvature="0" />
	<path style="fill:none;stroke:red;stroke-width:1px;stroke-linecap:butt;stroke-linejoin:miter;stroke-opacity:1" d="M 459.372,12.4642 474.608,4 z" id="boundary" inkscape:connector-curvature="0" />
	<path style="fill:none;stroke:red;stroke-width:1px;stroke-linecap:butt;stroke-linejoin:miter;stroke-opacity:1" d="M 474.608,4 491.536,4 z" id="boundary" inkscape:connector-curvature="0" />
	<path style="fill:none;stroke:red;stroke-width:1px;stroke-linecap:butt;stroke-linejoin:miter;stroke-opacity:1" d="M 491.536,4 508.464,4 z" id="boundary" inkscape:connector-curvature="0" />
	<path style="fill:none;stroke:red;stroke-width:1px;stroke-linecap:butt;stroke-linejoin:miter;stroke-opacity:1" d="M 508.464,4 523.7,12.4642 z" id="boundary" inkscape:connector-curvature="0" />
	<path style="fill:none;stroke:red;stroke-width:1px;stroke-linecap:butt;stroke-linejoin:miter;stroke-opacity:1" d="M 523.7,12.4642 537.242,24.314 z" id="boundary" inkscape:connector-curvature="0" />
	<path style="fill:none;stroke:red;stroke-width:1px;stroke-linecap:butt;stroke-linejoin:miter;stroke-opacity:1" d="M 537.242,24.314 538.935,41.2423 z" id="boundary" inkscape:connector-curvature="0" />
	<path style="fill:none;stroke:red;stroke-width:1px;stroke-linecap:butt;stroke-linejoin:miter;stroke-opacity:1" d="M 538.935,41.2423 547.399,56.4778 z" id="boundary" inkscape:connector-curvature="0" />
	<path style="fill:none;stroke:red;stroke-width:1px;stroke-linecap:butt;stroke-linejoin:miter;stroke-opacity:1" d="M 547.399,56.4778 555.863,71.7133 z" id="boundary" inkscape:connector-curvature="0" />
	<path style="fill:none;stroke:red;stroke-width:1px;stroke-linecap:butt;stroke-linejoin:miter;stroke-opacity:1" d="M 555.863,71.7133 564.328,86.9488 z" id="boundary" inkscape:connector-curvature="0" />
	<path style="fill:none;stroke:red;stroke-width:1px;stroke-linecap:butt;stroke-linejoin:miter;stroke-opacity:1" d="M 564.328,86.9488 572.792,102.184 z" id="boundary" inkscape:connector-curvature="0" />
	<path style="fill:none;stroke:red;stroke-width:1px;stroke-linecap:butt;stroke-linejoin:miter;stroke-opacity:1" d="M 572.792,102.184 584.642,115.727 z" id="boundary" inkscape:connector-curvature="0" />
	<path style="fill:none;stroke:red;stroke-width:1px;stroke-linecap:butt;stroke-linejoin:miter;stroke-opacity:1" d="M 584.642,115.727 601.57,122.498 z" id="boundary" inkscape:connector-curvature="0" />
	<path style="fill:none;stroke:red;stroke-width:1px;stroke-linecap:butt;stroke-linejoin:miter;stroke-opacity:1" d="M 601.57,122.498 618.498,114.034 z" id="boundary" inkscape:connector-curvature="0" />
	<path style="fill:none;stroke:red;stroke-width:1px;stroke-linecap:butt;stroke-linejoin:miter;stroke-opacity:1" d="M 618.498,114.034 635.427,114.034 z" id="boundary" inkscape:connector-curvature="0" />
	<path style="fill:none;stroke:red;stroke-width:1px;stroke-linecap:butt;stroke-linejoin:miter;stroke-opacity:1" d="M 635.427,114.034 647.276,127.577 z" id="boundary" inkscape:connector-curvature="0" />
	<path style="fill:none;stroke:red;stroke-width:1px;stroke-linecap:butt;stroke-linejoin:miter;stroke-opacity:1" d="M 647.276,127.577 655.741,142.812 z" id="boundary" inkscape:connector-curvature="0" />
	<path style="fill:none;stroke:red;stroke-width:1px;stroke-linecap:butt;stroke-linejoin:miter;stroke-opacity:1" d="M 469.529,415.358 452.601,432.287 z" id="boundary" inkscape:connector-curvature="0" />
	<path style="fill:none;stroke:red;stroke-width:1px;stroke-linecap:butt;stroke-linejoin:miter;stroke-opacity:1" d="M 452.601,432.287 462.758,445.829 z" id="boundary" inkscape:connector-curvature="0" />
	<path style="fill:none;stroke:red;stroke-width:1px;stroke-linecap:butt;stroke-linejoin:miter;stroke-opacity:1" d="M 462.758,445.829 477.993,454.294 z" id="boundary" inkscape:connector-curvature="0" />
	<path style="fill:none;stroke:red;stroke-width:1px;stroke-linecap:butt;stroke-linejoin:miter;stroke-opacity:1" d="M 477.993,454.294 493.229,462.758 z" id="boundary" inkscape:connector-curvature="0" />
	<path style="fill:none;stroke:red;stroke-width:1px;stroke-linecap:butt;stroke-linejoin:miter;stroke-opacity:1" d="M 493.229,462.758 510.157,462.758 z" id="boundary" inkscape:connector-curvature="0" />
	<path style="fill:none;stroke:red;stroke-width:1px;stroke-linecap:butt;stroke-linejoin:miter;stroke-opacity:1" d="M 510.157,462.758 527.085,462.758 z" id="boundary" inkscape:connector-curvature="0" />
	<path style="fill:none;stroke:red;stroke-width:1px;stroke-linecap:butt;stroke-linejoin:miter;stroke-opacity:1" d="M 527.085,462.758 544.014,462.758 z" id="boundary" inkscape:connector-curvature="0" />
	<path style="fill:none;stroke:red;stroke-width:1px;stroke-linecap:butt;stroke-linejoin:miter;stroke-opacity:1" d="M 544.014,462.758 559.249,471.222 z" id="boundary" inkscape:connector-curvature="0" />
	<path style="fill:none;stroke:red;stroke-width:1px;stroke-linecap:butt;stroke-linejoin:miter;stroke-opacity:1" d="M 559.249,471.222 576.177,477.993 z" id="boundary" inkscape:connector-curvature="0" />
	<path style="fill:none;stroke:red;stroke-width:1px;stroke-linecap:butt;stroke-linejoin:miter;stroke-opacity:1" d="M 576.177,477.993 588.027,491.536 z" id="boundary" inkscape:connector-curvature="0" />
	<path style="fill:none;stroke:red;stroke-width:1px;stroke-linecap:butt;stroke-linejoin:miter;stroke-opacity:1" d="M 588.027,491.536 604.956,496.614 z" id="boundary" inkscape:connector-curvature="0" />
	<path style="fill:none;stroke:red;stroke-width:1px;stroke-linecap:butt;stroke-linejoin:miter;stroke-opacity:1" d="M 604.956,496.614 615.113,510.157 z" id="boundary" inkscape:connector-curvature="0" />
	<path style="fill:none;stroke:red;stroke-width:1px;stroke-linecap:butt;stroke-linejoin:miter;stroke-opacity:1" d="M 615.113,510.157 628.655,522.007 z" id="boundary" inkscape:connector-curvature="0" />
	<path style="fill:none;stroke:red;stroke-width:1px;stroke-linecap:butt;stroke-linejoin:miter;stroke-opacity:1" d="M 628.655,522.007 643.891,530.471 z" id="boundary" inkscape:connector-curvature="0" />
	<path style="fill:none;stroke:red;stroke-width:1px;stroke-linecap:butt;stroke-linejoin:miter;stroke-opacity:1" d="M 643.891,530.471 657.433,542.321 z" id="boundary" inkscape:connector-curvature="0" />
	<path style="fill:none;stroke:red;stroke-width:1px;stroke-linecap:butt;stroke-linejoin:miter;stroke-opacity:1" d="M 657.433,542.321 672.669,550.785 z" id="boundary" inkscape:connector-curvature="0" />
	<path style="fill:none;stroke:red;stroke-width:1px;stroke-linecap:butt;stroke-linejoin:miter;stroke-opacity:1" d="M 672.669,550.785 689.597,555.863 z" id="boundary" inkscape:connector-curvature="0" />
	<path style="fill:none;stroke:red;stroke-width:1px;stroke-linecap:butt;stroke-linejoin:miter;stroke-opacity:1" d="M 689.597,555.863 694.676,572.792 z" id="boundary" inkscape:connector-curvature="0" />
	<path style="fill:none;stroke:red;stroke-width:1px;stroke-linecap:butt;stroke-linejoin:miter;stroke-opacity:1" d="M 694.676,572.792 711.604,572.792 z" id="boundary" inkscape:connector-curvature="0" />
	<path style="fill:none;stroke:red;stroke-width:1px;stroke-linecap:butt;stroke-linejoin:miter;stroke-opacity:1" d="M 711.604,572.792 726.84,581.256 z" id="boundary" inkscape:connector-curvature="0" />
	<path style="fill:none;stroke:red;stroke-width:1px;stroke-linecap:butt;stroke-linejoin:miter;stroke-opacity:1" d="M 726.84,581.256 743.768,586.334 z" id="boundary" inkscape:connector-curvature="0" />
	<path style="fill:none;stroke:red;stroke-width:1px;stroke-linecap:butt;stroke-linejoin:miter;stroke-opacity:1" d="M 743.768,586.334 760.696,589.72 z" id="boundary" inkscape:connector-curvature="0" />
	<path style="fill:none;stroke:red;stroke-width:1px;stroke-linecap:butt;stroke-linejoin:miter;stroke-opacity:1" d="M 760.696,589.72 775.932,581.256 z" id="boundary" inkscape:connector-curvature="0" />
	<path style="fill:none;stroke:red;stroke-width:1px;stroke-linecap:butt;stroke-linejoin:miter;stroke-opacity:1" d="M 775.932,581.256 775.932,557.556 z" id="boundary" inkscape:connector-curvature="0" />
	<path style="fill:none;stroke:red;stroke-width:1px;stroke-linecap:butt;stroke-linejoin:miter;stroke-opacity:1" d="M 775.932,557.556 767.468,542.321 z" id="boundary" inkscape:connector-curvature="0" />
	<path style="fill:none;stroke:red;stroke-width:1px;stroke-linecap:butt;stroke-linejoin:miter;stroke-opacity:1" d="M 767.468,542.321 759.003,527.085 z" id="boundary" inkscape:connector-curvature="0" />
	<path style="fill:none;stroke:red;stroke-width:1px;stroke-linecap:butt;stroke-linejoin:miter;stroke-opacity:1" d="M 759.003,527.085 759.003,510.157 z" id="boundary" inkscape:connector-curvature="0" />
	<path style="fill:none;stroke:red;stroke-width:1px;stroke-linecap:butt;stroke-linejoin:miter;stroke-opacity:1" d="M 759.003,510.157 750.539,494.922 z" id="boundary" inkscape:connector-curvature="0" />
	<path style="fill:none;stroke:red;stroke-width:1px;stroke-linecap:butt;stroke-linejoin:miter;stroke-opacity:1" d="M 750.539,494.922 742.075,479.686 z" id="boundary" inkscape:connector-curvature="0" />
	<path style="fill:none;stroke:red;stroke-width:1px;stroke-linecap:butt;stroke-linejoin:miter;stroke-opacity:1" d="M 742.075,479.686 757.311,471.222 z" id="boundary" inkscape:connector-curvature="0" />
	<path style="fill:none;stroke:red;stroke-width:1px;stroke-linecap:butt;stroke-linejoin:miter;stroke-opacity:1" d="M 757.311,471.222 772.546,479.686 z" id="boundary" inkscape:connector-curvature="0" />
	<path style="fill:none;stroke:red;stroke-width:1px;stroke-linecap:butt;stroke-linejoin:miter;stroke-opacity:1" d="M 772.546,479.686 787.782,488.15 z" id="boundary" inkscape:connector-curvature="0" />
	<path style="fill:none;stroke:red;stroke-width:1px;stroke-linecap:butt;stroke-linejoin:miter;stroke-opacity:1" d="M 787.782,488.15 801.324,476.3 z" id="boundary" inkscape:connector-curvature="0" />
	<path style="fill:none;stroke:red;stroke-width:1px;stroke-linecap:butt;stroke-linejoin:miter;stroke-opacity:1" d="M 801.324,476.3 801.324,459.372 z" id="boundary" inkscape:connector-curvature="0" />
	<path style="fill:none;stroke:red;stroke-width:1px;stroke-linecap:butt;stroke-linejoin:miter;stroke-opacity:1" d="M 801.324,459.372 792.86,444.137 z" id="boundary" inkscape:connector-curvature="0" />
	<path style="fill:none;stroke:red;stroke-width:1px;stroke-linecap:butt;stroke-linejoin:miter;stroke-opacity:1" d="M 792.86,444.137 777.625,435.672 z" id="boundary" inkscape:connector-curvature="0" />
	<path style="fill:none;stroke:red;stroke-width:1px;stroke-linecap:butt;stroke-linejoin:miter;stroke-opacity:1" d="M 777.625,435.672 760.696,435.672 z" id="boundary" inkscape:connector-curvature="0" />
	<path style="fill:none;stroke:red;stroke-width:1px;stroke-linecap:butt;stroke-linejoin:miter;stroke-opacity:1" d="M 760.696,435.672 745.461,444.137 z" id="boundary" inkscape:connector-curvature="0" />
	<path style="fill:none;stroke:red;stroke-width:1px;stroke-linecap:butt;stroke-linejoin:miter;stroke-opacity:1" d="M 745.461,444.137 731.918,432.287 z" id="boundary" inkscape:connector-curvature="0" />
	<path style="fill:none;stroke:red;stroke-width:1px;stroke-linecap:butt;stroke-linejoin:miter;stroke-opacity:1" d="M 731.918,432.287 716.683,423.823 z" id="boundary" inkscape:connector-curvature="0" />
	<path style="fill:none;stroke:red;stroke-width:1px;stroke-linecap:butt;stroke-linejoin:miter;stroke-opacity:1" d="M 716.683,423.823 716.683,406.894 z" id="boundary" inkscape:connector-curvature="0" />
	<path style="fill:none;stroke:red;stroke-width:1px;stroke-linecap:butt;stroke-linejoin:miter;stroke-opacity:1" d="M 716.683,406.894 708.218,391.659 z" id="boundary" inkscape:connector-curvature="0" />
	<path style="fill:none;stroke:red;stroke-width:1px;stroke-linecap:butt;stroke-linejoin:miter;stroke-opacity:1" d="M 708.218,391.659 699.754,376.423 z" id="boundary" inkscape:connector-curvature="0" />
	<path style="fill:none;stroke:red;stroke-width:1px;stroke-linecap:butt;stroke-linejoin:miter;stroke-opacity:1" d="M 699.754,376.423 691.29,361.188 z" id="boundary" inkscape:connector-curvature="0" />
	<path style="fill:none;stroke:red;stroke-width:1px;stroke-linecap:butt;stroke-linejoin:miter;stroke-opacity:1" d="M 691.29,361.188 691.29,344.259 z" id="boundary" inkscape:connector-curvature="0" />
	<path style="fill:none;stroke:red;stroke-width:1px;stroke-linecap:butt;stroke-linejoin:miter;stroke-opacity:1" d="M 691.29,344.259 708.218,335.795 z" id="boundary" inkscape:connector-curvature="0" />
	<path style="fill:none;stroke:red;stroke-width:1px;stroke-linecap:butt;stroke-linejoin:miter;stroke-opacity:1" d="M 708.218,335.795 725.147,335.795 z" id="boundary" inkscape:connector-curvature="0" />
	<path style="fill:none;stroke:red;stroke-width:1px;stroke-linecap:butt;stroke-linejoin:miter;stroke-opacity:1" d="M 725.147,335.795 742.075,335.795 z" id="boundary" inkscape:connector-curvature="0" />
	<path style="fill:none;stroke:red;stroke-width:1px;stroke-linecap:butt;stroke-linejoin:miter;stroke-opacity:1" d="M 742.075,335.795 759.003,335.795 z" id="boundary" inkscape:connector-curvature="0" />
	<path style="fill:none;stroke:red;stroke-width:1px;stroke-linecap:butt;stroke-linejoin:miter;stroke-opacity:1" d="M 759.003,335.795 775.932,335.795 z" id="boundary" inkscape:connector-curvature="0" />
	<path style="fill:none;stroke:red;stroke-width:1px;stroke-linecap:butt;stroke-linejoin:miter;stroke-opacity:1" d="M 775.932,335.795 792.86,335.795 z" id="boundary" inkscape:connector-curvature="0" />
	<path style="fill:none;stroke:red;stroke-width:1px;stroke-linecap:butt;stroke-linejoin:miter;stroke-opacity:1" d="M 792.86,335.795 809.788,335.795 z" id="boundary" inkscape:connector-curvature="0" />
	<path style="fill:none;stroke:red;stroke-width:1px;stroke-linecap:butt;stroke-linejoin:miter;stroke-opacity:1" d="M 809.788,335.795 826.717,335.795 z" id="boundary" inkscape:connector-curvature="0" />
	<path style="fill:none;stroke:red;stroke-width:1px;stroke-linecap:butt;stroke-linejoin:miter;stroke-opacity:1" d="M 826.717,335.795 843.645,339.181 z" id="boundary" inkscape:connector-curvature="0" />
	<path style="fill:none;stroke:red;stroke-width:1px;stroke-linecap:butt;stroke-linejoin:miter;stroke-opacity:1" d="M 843.645,339.181 858.881,347.645 z" id="boundary" inkscape:connector-curvature="0" />
	<path style="fill:none;stroke:red;stroke-width:1px;stroke-linecap:butt;stroke-linejoin:miter;stroke-opacity:1" d="M 858.881,347.645 872.423,359.495 z" id="boundary" inkscape:connector-curvature="0" />
	<path style="fill:none;stroke:red;stroke-width:1px;stroke-linecap:butt;stroke-linejoin:miter;stroke-opacity:1" d="M 872.423,359.495 887.659,367.959 z" id="boundary" inkscape:connector-curvature="0" />
	<path style="fill:none;stroke:red;stroke-width:1px;stroke-linecap:butt;stroke-linejoin:miter;stroke-opacity:1" d="M 887.659,367.959 904.587,374.73 z" id="boundary" inkscape:connector-curvature="0" />
	<path style="fill:none;stroke:red;stroke-width:1px;stroke-linecap:butt;stroke-linejoin:miter;stroke-opacity:1" d="M 904.587,374.73 918.13,386.58 z" id="boundary" inkscape:connector-curvature="0" />
	<path style="fill:none;stroke:red;stroke-width:1px;stroke-linecap:butt;stroke-linejoin:miter;stroke-opacity:1" d="M 918.13,386.58 933.365,395.044 z" id="boundary" inkscape:connector-curvature="0" />
	<path style="fill:none;stroke:red;stroke-width:1px;stroke-linecap:butt;stroke-linejoin:miter;stroke-opacity:1" d="M 933.365,395.044 948.601,403.509 z" id="boundary" inkscape:connector-curvature="0" />
	<path style="fill:none;stroke:red;stroke-width:1px;stroke-linecap:butt;stroke-linejoin:miter;stroke-opacity:1" d="M 948.601,403.509 965.529,410.28 z" id="boundary" inkscape:connector-curvature="0" />
	<path style="fill:none;stroke:red;stroke-width:1px;stroke-linecap:butt;stroke-linejoin:miter;stroke-opacity:1" d="M 965.529,410.28 979.072,420.437 z" id="boundary" inkscape:connector-curvature="0" />
	<path style="fill:none;stroke:red;stroke-width:1px;stroke-linecap:butt;stroke-linejoin:miter;stroke-opacity:1" d="M 979.072,420.437 996,413.666 z" id="boundary" inkscape:connector-curvature="0" />
	<path style="fill:none;stroke:red;stroke-width:1px;stroke-linecap:butt;stroke-linejoin:miter;stroke-opacity:1" d="M 996,413.666 987.536,398.43 z" id="boundary" inkscape:connector-curvature="0" />
	<path style="fill:none;stroke:red;stroke-width:1px;stroke-linecap:butt;stroke-linejoin:miter;stroke-opacity:1" d="M 987.536,398.43 987.536,381.502 z" id="boundary" inkscape:connector-curvature="0" />
	<path style="fill:none;stroke:red;stroke-width:1px;stroke-linecap:butt;stroke-linejoin:miter;stroke-opacity:1" d="M 987.536,381.502 979.072,366.266 z" id="boundary" inkscape:connector-curvature="0" />
	<path style="fill:none;stroke:red;stroke-width:1px;stroke-linecap:butt;stroke-linejoin:miter;stroke-opacity:1" d="M 979.072,366.266 970.608,351.031 z" id="boundary" inkscape:connector-curvature="0" />
	<path style="fill:none;stroke:red;stroke-width:1px;stroke-linecap:butt;stroke-linejoin:miter;stroke-opacity:1" d="M 970.608,351.031 963.836,334.102 z" id="boundary" inkscape:connector-curvature="0" />
	<path style="fill:none;stroke:red;stroke-width:1px;stroke-linecap:butt;stroke-linejoin:miter;stroke-opacity:1" d="M 963.836,334.102 953.679,320.56 z" id="boundary" inkscape:connector-curvature="0" />
	<path style="fill:none;stroke:red;stroke-width:1px;stroke-linecap:butt;stroke-linejoin:miter;stroke-opacity:1" d="M 953.679,320.56 945.215,305.324 z" id="boundary" inkscape:connector-curvature="0" />
	<path style="fill:none;stroke:red;stroke-width:1px;stroke-linecap:butt;stroke-linejoin:miter;stroke-opacity:1" d="M 945.215,305.324 945.215,288.396 z" id="boundary" inkscape:connector-curvature="0" />
	<path style="fill:none;stroke:red;stroke-width:1px;stroke-linecap:butt;stroke-linejoin:miter;stroke-opacity:1" d="M 945.215,288.396 936.751,273.16 z" id="boundary" inkscape:connector-curvature="0" />
	<path style="fill:none;stroke:red;stroke-width:1px;stroke-linecap:butt;stroke-linejoin:miter;stroke-opacity:1" d="M 936.751,273.16 928.287,257.925 z" id="boundary" inkscape:connector-curvature="0" />
	<path style="fill:none;stroke:red;stroke-width:1px;stroke-linecap:butt;stroke-linejoin:miter;stroke-opacity:1" d="M 928.287,257.925 919.823,242.689 z" id="boundary" inkscape:connector-curvature="0" />
	<path style="fill:none;stroke:red;stroke-width:1px;stroke-linecap:butt;stroke-linejoin:miter;stroke-opacity:1" d="M 919.823,242.689 914.744,225.761 z" id="boundary" inkscape:connector-curvature="0" />
	<path style="fill:none;stroke:red;stroke-width:1px;stroke-linecap:butt;stroke-linejoin:miter;stroke-opacity:1" d="M 914.744,225.761 907.973,208.833 z" id="boundary" inkscape:connector-curvature="0" />
	<path style="fill:none;stroke:red;stroke-width:1px;stroke-linecap:butt;stroke-linejoin:miter;stroke-opacity:1" d="M 907.973,208.833 891.044,207.14 z" id="boundary" inkscape:connector-curvature="0" />
	<path style="fill:none;stroke:red;stroke-width:1px;stroke-linecap:butt;stroke-linejoin:miter;stroke-opacity:1" d="M 891.044,207.14 874.116,207.14 z" id="boundary" inkscape:connector-curvature="0" />
	<path style="fill:none;stroke:red;stroke-width:1px;stroke-linecap:butt;stroke-linejoin:miter;stroke-opacity:1" d="M 874.116,207.14 860.573,218.99 z" id="boundary" inkscape:connector-curvature="0" />
	<path style="fill:none;stroke:red;stroke-width:1px;stroke-linecap:butt;stroke-linejoin:miter;stroke-opacity:1" d="M 860.573,218.99 852.109,235.918 z" id="boundary" inkscape:connector-curvature="0" />
	<path style="fill:none;stroke:red;stroke-width:1px;stroke-linecap:butt;stroke-linejoin:miter;stroke-opacity:1" d="M 852.109,235.918 838.567,249.461 z" id="boundary" inkscape:connector-curvature="0" />
	<path style="fill:none;stroke:red;stroke-width:1px;stroke-linecap:butt;stroke-linejoin:miter;stroke-opacity:1" d="M 838.567,249.461 825.024,263.003 z" id="boundary" inkscape:connector-curvature="0" />
	<path style="fill:none;stroke:red;stroke-width:1px;stroke-linecap:butt;stroke-linejoin:miter;stroke-opacity:1" d="M 825.024,263.003 809.788,274.853 z" id="boundary" inkscape:connector-curvature="0" />
	<path style="fill:none;stroke:red;stroke-width:1px;stroke-linecap:butt;stroke-linejoin:miter;stroke-opacity:1" d="M 809.788,274.853 792.86,274.853 z" id="boundary" inkscape:connector-curvature="0" />
	<path style="fill:none;stroke:red;stroke-width:1px;stroke-linecap:butt;stroke-linejoin:miter;stroke-opacity:1" d="M 792.86,274.853 775.932,274.853 z" id="boundary" inkscape:connector-curvature="0" />
	<path style="fill:none;stroke:red;stroke-width:1px;stroke-linecap:butt;stroke-linejoin:miter;stroke-opacity:1" d="M 775.932,274.853 759.003,274.853 z" id="boundary" inkscape:connector-curvature="0" />
	<path style="fill:none;stroke:red;stroke-width:1px;stroke-linecap:butt;stroke-linejoin:miter;stroke-opacity:1" d="M 759.003,274.853 742.075,271.468 z" id="boundary" inkscape:connector-curvature="0" />
	<path style="fill:none;stroke:red;stroke-width:1px;stroke-linecap:butt;stroke-linejoin:miter;stroke-opacity:1" d="M 742.075,271.468 725.147,266.389 z" id="boundary" inkscape:connector-curvature="0" />
	<path style="fill:none;stroke:red;stroke-width:1px;stroke-linecap:butt;stroke-linejoin:miter;stroke-opacity:1" d="M 725.147,266.389 708.218,266.389 z" id="boundary" inkscape:connector-curvature="0" />
	<path style="fill:none;stroke:red;stroke-width:1px;stroke-linecap:butt;stroke-linejoin:miter;stroke-opacity:1" d="M 708.218,266.389 691.29,263.003 z" id="boundary" inkscape:connector-curvature="0" />
	<path style="fill:none;stroke:red;stroke-width:1px;stroke-linecap:butt;stroke-linejoin:miter;stroke-opacity:1" d="M 691.29,263.003 674.362,257.925 z" id="boundary" inkscape:connector-curvature="0" />
	<path style="fill:none;stroke:red;stroke-width:1px;stroke-linecap:butt;stroke-linejoin:miter;stroke-opacity:1" d="M 674.362,257.925 657.433,257.925 z" id="boundary" inkscape:connector-curvature="0" />
	<path style="fill:none;stroke:red;stroke-width:1px;stroke-linecap:butt;stroke-linejoin:miter;stroke-opacity:1" d="M 657.433,257.925 642.198,249.461 z" id="boundary" inkscape:connector-curvature="0" />
	<path style="fill:none;stroke:red;stroke-width:1px;stroke-linecap:butt;stroke-linejoin:miter;stroke-opacity:1" d="M 642.198,249.461 632.041,235.918 z" id="boundary" inkscape:connector-curvature="0" />
	<path style="fill:none;stroke:red;stroke-width:1px;stroke-linecap:butt;stroke-linejoin:miter;stroke-opacity:1" d="M 632.041,235.918 623.577,220.683 z" id="boundary" inkscape:connector-curvature="0" />
	<path style="fill:none;stroke:red;stroke-width:1px;stroke-linecap:butt;stroke-linejoin:miter;stroke-opacity:1" d="M 623.577,220.683 615.113,205.447 z" id="boundary" inkscape:connector-curvature="0" />
	<path style="fill:none;stroke:red;stroke-width:1px;stroke-linecap:butt;stroke-linejoin:miter;stroke-opacity:1" d="M 615.113,205.447 615.113,188.519 z" id="boundary" inkscape:connector-curvature="0" />
	<path style="fill:none;stroke:red;stroke-width:1px;stroke-linecap:butt;stroke-linejoin:miter;stroke-opacity:1" d="M 615.113,188.519 606.648,173.283 z" id="boundary" inkscape:connector-curvature="0" />
	<path style="fill:none;stroke:red;stroke-width:1px;stroke-linecap:butt;stroke-linejoin:miter;stroke-opacity:1" d="M 606.648,173.283 598.184,158.048 z" id="boundary" inkscape:connector-curvature="0" />
	<path style="fill:none;stroke:red;stroke-width:1px;stroke-linecap:butt;stroke-linejoin:miter;stroke-opacity:1" d="M 598.184,158.048 615.113,158.048 z" id="boundary" inkscape:connector-curvature="0" />
	<path style="fill:none;stroke:red;stroke-width:1px;stroke-linecap:butt;stroke-linejoin:miter;stroke-opacity:1" d="M 615.113,158.048 630.348,166.512 z" id="boundary" inkscape:connector-curvature="0" />
	<path style="fill:none;stroke:red;stroke-width:1px;stroke-linecap:butt;stroke-linejoin:miter;stroke-opacity:1" d="M 630.348,166.512 647.276,166.512 z" id="boundary" inkscape:connector-curvature="0" />
	<path style="fill:none;stroke:red;stroke-width:1px;stroke-linecap:butt;stroke-linejoin:miter;stroke-opacity:1" d="M 655.741,142.812 647.276,166.512 z" id="boundary" inkscape:connector-curvature="0" />
	<circle cx="4" cy="254.539" r="4" fill="#0" id="circle0"/>
	<circle cx="12.4642" cy="269.775" r="4" fill="#0" id="circle1"/>
	<circle cx="20.9283" cy="246.075" r="4" fill="#0" id="circle2"/>
	<circle cx="29.3925" cy="276.546" r="4" fill="#0" id="circle3"/>
	<circle cx="37.8567" cy="240.997" r="4" fill="#0" id="circle4"/>
	<circle cx="44.628" cy="285.01" r="4" fill="#0" id="circle5"/>
	<circle cx="54.785" cy="240.997" r="4" fill="#0" id="circle6"/>
	<circle cx="61.5563" cy="285.01" r="4" fill="#0" id="circle7"/>
	<circle cx="71.7133" cy="240.997" r="4" fill="#0" id="circle8"/>
	<circle cx="76.7918" cy="293.474" r="4" fill="#0" id="circle9"/>
	<circle cx="88.6416" cy="240.997" r="4" fill="#0" id="circle10"/>
	<circle cx="93.7201" cy="293.474" r="4" fill="#0" id="circle11"/>
	<circle cx="105.57" cy="240.997" r="4" fill="#0" id="circle12"/>
	<circle cx="110.648" cy="293.474" r="4" fill="#0" id="circle13"/>
	<circle cx="122.498" cy="240.997" r="4" fill="#0" id="circle14"/>
	<circle cx="125.884" cy="301.939" r="4" fill="#0" id="circle15"/>
	<circle cx="139.427" cy="240.997" r="4" fill="#0" id="circle16"/>
	<circle cx="142.812" cy="301.939" r="4" fill="#0" id="circle17"/>
	<circle cx="156.355" cy="240.997" r="4" fill="#0" id="circle18"/>
	<circle cx="159.741" cy="301.939" r="4" fill="#0" id="circle19"/>
	<circle cx="171.59" cy="232.532" r="4" fill="#0" id="circle20"/>
	<circle cx="176.669" cy="301.939" r="4" fill="#0" id="circle21"/>
	<circle cx="188.519" cy="232.532" r="4" fill="#0" id="circle22"/>
	<circle cx="191.904" cy="310.403" r="4" fill="#0" id="circle23"/>
	<circle cx="205.447" cy="232.532" r="4" fill="#0" id="circle24"/>
	<circle cx="208.833" cy="310.403" r="4" fill="#0" id="circle25"/>
	<circle cx="222.375" cy="232.532" r="4" fill="#0" id="circle26"/>
	<circle cx="225.761" cy="310.403" r="4" fill="#0" id="circle27"/>
	<circle cx="239.304" cy="234.225" r="4" fill="#0" id="circle28"/>
	<circle cx="242.689" cy="313.788" r="4" fill="#0" id="circle29"/>
	<circle cx="256.232" cy="240.997" r="4" fill="#0" id="circle30"/>
	<circle cx="259.618" cy="318.867" r="4" fill="#0" id="circle31"/>
	<circle cx="268.082" cy="227.454" r="4" fill="#0" id="circle32"/>
	<circle cx="276.546" cy="318.867" r="4" fill="#0" id="circle33"/>
	<circle cx="285.01" cy="224.068" r="4" fill="#0" id="circle34"/>
	<circle cx="293.474" cy="318.867" r="4" fill="#0" id="circle35"/>
	<circle cx="301.939" cy="224.068" r="4" fill="#0" id="circle36"/>
	<circle cx="308.71" cy="110.648" r="4" fill="#0" id="circle37"/>
	<circle cx="308.71" cy="327.331" r="4" fill="#0" id="circle38"/>
	<circle cx="317.174" cy="125.884" r="4" fill="#0" id="circle39"/>
	<circle cx="318.867" cy="218.99" r="4" fill="#0" id="circle40"/>
	<circle cx="323.945" cy="335.795" r="4" fill="#0" id="circle41"/>
	<circle cx="325.638" cy="105.57" r="4" fill="#0" id="circle42"/>
	<circle cx="332.41" cy="207.14" r="4" fill="#0" id="circle43"/>
	<circle cx="334.102" cy="132.655" r="4" fill="#0" id="circle44"/>
	<circle cx="339.181" cy="344.259" r="4" fill="#0" id="circle45"/>
	<circle cx="342.567" cy="105.57" r="4" fill="#0" id="circle46"/>
	<circle cx="342.567" cy="186.826" r="4" fill="#0" id="circle47"/>
	<circle cx="349.338" cy="141.119" r="4" fill="#0" id="circle48"/>
	<circle cx="351.031" cy="169.898" r="4" fill="#0" id="circle49"/>
	<circle cx="356.109" cy="344.259" r="4" fill="#0" id="circle50"/>
	<circle cx="359.495" cy="105.57" r="4" fill="#0" id="circle51"/>
	<circle cx="359.495" cy="154.662" r="4" fill="#0" id="circle52"/>
	<circle cx="373.038" cy="344.259" r="4" fill="#0" id="circle53"/>
	<circle cx="376.423" cy="105.57" r="4" fill="#0" id="circle54"/>
	<circle cx="389.966" cy="344.259" r="4" fill="#0" id="circle55"/>
	<circle cx="393.352" cy="102.184" r="4" fill="#0" id="circle56"/>
	<circle cx="401.816" cy="85.256" r="4" fill="#0" id="circle57"/>
	<circle cx="403.509" cy="356.109" r="4" fill="#0" id="circle58"/>
	<circle cx="410.28" cy="68.3276" r="4" fill="#0" id="circle59"/>
	<circle cx="418.744" cy="51.3993" r="4" fill="#0" id="circle60"/>
	<circle cx="418.744" cy="364.573" r="4" fill="#0" id="circle61"/>
	<circle cx="432.287" cy="37.8567" r="4" fill="#0" id="circle62"/>
	<circle cx="432.287" cy="376.423" r="4" fill="#0" id="circle63"/>
	<circle cx="444.137" cy="389.966" r="4" fill="#0" id="circle64"/>
	<circle cx="445.829" cy="24.314" r="4" fill="#0" id="circle65"/>
	<circle cx="452.601" cy="432.287" r="4" fill="#0" id="circle66"/>
	<circle cx="457.679" cy="401.816" r="4" fill="#0" id="circle67"/>
	<circle cx="459.372" cy="12.4642" r="4" fill="#0" id="circle68"/>
	<circle cx="462.758" cy="445.829" r="4" fill="#0" id="circle69"/>
	<circle cx="469.529" cy="415.358" r="4" fill="#0" id="circle70"/>
	<circle cx="474.608" cy="4" r="4" fill="#0" id="circle71"/>
	<circle cx="477.993" cy="454.294" r="4" fill="#0" id="circle72"/>
	<circle cx="491.536" cy="4" r="4" fill="#0" id="circle73"/>
	<circle cx="493.229" cy="462.758" r="4" fill="#0" id="circle74"/>
	<circle cx="508.464" cy="4" r="4" fill="#0" id="circle75"/>
	<circle cx="510.157" cy="462.758" r="4" fill="#0" id="circle76"/>
	<circle cx="523.7" cy="12.4642" r="4" fill="#0" id="circle77"/>
	<circle cx="527.085" cy="462.758" r="4" fill="#0" id="circle78"/>
	<circle cx="537.242" cy="24.314" r="4" fill="#0" id="circle79"/>
	<circle cx="538.935" cy="41.2423" r="4" fill="#0" id="circle80"/>
	<circle cx="544.014" cy="462.758" r="4" fill="#0" id="circle81"/>
	<circle cx="547.399" cy="56.4778" r="4" fill="#0" id="circle82"/>
	<circle cx="555.863" cy="71.7133" r="4" fill="#0" id="circle83"/>
	<circle cx="559.249" cy="471.222" r="4" fill="#0" id="circle84"/>
	<circle cx="564.328" cy="86.9488" r="4" fill="#0" id="circle85"/>
	<circle cx="572.792" cy="102.184" r="4" fill="#0" id="circle86"/>
	<circle cx="576.177" cy="477.993" r="4" fill="#0" id="circle87"/>
	<circle cx="584.642" cy="115.727" r="4" fill="#0" id="circle88"/>
	<circle cx="588.027" cy="491.536" r="4" fill="#0" id="circle89"/>
	<circle cx="598.184" cy="158.048" r="4" fill="#0" id="circle90"/>
	<circle cx="601.57" cy="122.498" r="4" fill="#0" id="circle91"/>
	<circle cx="604.956" cy="496.614" r="4" fill="#0" id="circle92"/>
	<circle cx="606.648" cy="173.283" r="4" fill="#0" id="circle93"/>
	<circle cx="615.113" cy="158.048" r="4" fill="#0" id="circle94"/>
	<circle cx="615.113" cy="188.519" r="4" fill="#0" id="circle95"/>
	<circle cx="615.113" cy="205.447" r="4" fill="#0" id="circle96"/>
	<circle cx="615.113" cy="510.157" r="4" fill="#0" id="circle97"/>
	<circle cx="618.498" cy="114.034" r="4" fill="#0" id="circle98"/>
	<circle cx="623.577" cy="220.683" r="4" fill="#0" id="circle99"/>
	<circle cx="628.655" cy="522.007" r="4" fill="#0" id="circle100"/>
	<circle cx="630.348" cy="166.512" r="4" fill="#0" id="circle101"/>
	<circle cx="632.041" cy="235.918" r="4" fill="#0" id="circle102"/>
	<circle cx="635.427" cy="114.034" r="4" fill="#0" id="circle103"/>
	<circle cx="642.198" cy="249.461" r="4" fill="#0" id="circle104"/>
	<circle cx="643.891" cy="530.471" r="4" fill="#0" id="circle105"/>
	<circle cx="647.276" cy="127.577" r="4" fill="#0" id="circle106"/>
	<circle cx="647.276" cy="166.512" r="4" fill="#0" id="circle107"/>
	<circle cx="655.741" cy="142.812" r="4" fill="#0" id="circle108"/>
	<circle cx="657.433" cy="257.925" r="4" fill="#0" id="circle109"/>
	<circle cx="657.433" cy="542.321" r="4" fill="#0" id="circle110"/>
	<circle cx="672.669" cy="550.785" r="4" fill="#0" id="circle111"/>
	<circle cx="674.362" cy="257.925" r="4" fill="#0" id="circle112"/>
	<circle cx="689.597" cy="555.863" r="4" fill="#0" id="circle113"/>
	<circle cx="691.29" cy="263.003" r="4" fill="#0" id="circle114"/>
	<circle cx="691.29" cy="344.259" r="4" fill="#0" id="circle115"/>
	<circle cx="691.29" cy="361.188" r="4" fill="#0" id="circle116"/>
	<circle cx="694.676" cy="572.792" r="4" fill="#0" id="circle117"/>
	<circle cx="699.754" cy="376.423" r="4" fill="#0" id="circle118"/>
	<circle cx="708.218" cy="266.389" r="4" fill="#0" id="circle119"/>
	<circle cx="708.218" cy="335.795" r="4" fill="#0" id="circle120"/>
	<circle cx="708.218" cy="391.659" r="4" fill="#0" id="circle121"/>
	<circle cx="711.604" cy="572.792" r="4" fill="#0" id="circle122"/>
	<circle cx="716.683" cy="406.894" r="4" fill="#0" id="circle123"/>
	<circle cx="716.683" cy="423.823" r="4" fill="#0" id="circle124"/>
	<circle cx="725.147" cy="266.389" r="4" fill="#0" id="circle125"/>
	<circle cx="725.147" cy="335.795" r="4" fill="#0" id="circle126"/>
	<circle cx="726.84" cy="581.256" r="4" fill="#0" id="circle127"/>
	<circle cx="731.918" cy="432.287" r="4" fill="#0" id="circle128"/>
	<circle cx="742.075" cy="271.468" r="4" fill="#0" id="circle129"/>
	<circle cx="742.075" cy="335.795" r="4" fill="#0" id="circle130"/>
	<circle cx="742.075" cy="479.686" r="4" fill="#0" id="circle131"/>
	<circle cx="743.768" cy="586.334" r="4" fill="#0" id="circle132"/>
	<circle cx="745.461" cy="444.137" r="4" fill="#0" id="circle133"/>
	<circle cx="750.539" cy="494.922" r="4" fill="#0" id="circle134"/>
	<circle cx="757.311" cy="471.222" r="4" fill="#0" id="circle135"/>
	<circle cx="759.003" cy="274.853" r="4" fill="#0" id="circle136"/>
	<circle cx="759.003" cy="335.795" r="4" fill="#0" id="circle137"/>
	<circle cx="759.003" cy="510.157" r="4" fill="#0" id="circle138"/>
	<circle cx="759.003" cy="527.085" r="4" fill="#0" id="circle139"/>
	<circle cx="760.696" cy="435.672" r="4" fill="#0" id="circle140"/>
	<circle cx="760.696" cy="589.72" r="4" fill="#0" id="circle141"/>
	<circle cx="767.468" cy="542.321" r="4" fill="#0" id="circle142"/>
	<circle cx="772.546" cy="479.686" r="4" fill="#0" id="circle143"/>
	<circle cx="775.932" cy="274.853" r="4" fill="#0" id="circle144"/>
	<circle cx="775.932" cy="335.795" r="4" fill="#0" id="circle145"/>
	<circle cx="775.932" cy="557.556" r="4" fill="#0" id="circle146"/>
	<circle cx="775.932" cy="581.256" r="4" fill="#0" id="circle147"/>
	<circle cx="777.625" cy="435.672" r="4" fill="#0" id="circle148"/>
	<circle cx="787.782" cy="488.15" r="4" fill="#0" id="circle149"/>
	<circle cx="792.86" cy="274.853" r="4" fill="#0" id="circle150"/>
	<circle cx="792.86" cy="335.795" r="4" fill="#0" id="circle151"/>
	<circle cx="792.86" cy="444.137" r="4" fill="#0" id="circle152"/>
	<circle cx="801.324" cy="459.372" r="4" fill="#0" id="circle153"/>
	<circle cx="801.324" cy="476.3" r="4" fill="#0" id="circle154"/>
	<circle cx="809.788" cy="274.853" r="4" fill="#0" id="circle155"/>
	<circle cx="809.788" cy="335.795" r="4" fill="#0" id="circle156"/>
	<circle cx="825.024" cy="263.003" r="4" fill="#0" id="circle157"/>
	<circle cx="826.717" cy="335.795" r="4" fill="#0" id="circle158"/>
	<circle cx="838.567" cy="249.461" r="4" fill="#0" id="circle159"/>
	<circle cx="843.645" cy="339.181" r="4" fill="#0" id="circle160"/>
	<circle cx="852.109" cy="235.918" r="4" fill="#0" id="circle161"/>
	<circle cx="858.881" cy="347.645" r="4" fill="#0" id="circle162"/>
	<circle cx="860.573" cy="218.99" r="4" fill="#0" id="circle163"/>
	<circle cx="872.423" cy="359.495" r="4" fill="#0" id="circle164"/>
	<circle cx="874.116" cy="207.14" r="4" fill="#0" id="circle165"/>
	<circle cx="887.659" cy="367.959" r="4" fill="#0" id="circle166"/>
	<circle cx="891.044" cy="207.14" r="4" fill="#0" id="circle167"/>
	<circle cx="904.587" cy="374.73" r="4" fill="#0" id="circle168"/>
	<circle cx="907.973" cy="208.833" r="4" fill="#0" id="circle169"/>
	<circle cx="914.744" cy="225.761" r="4" fill="#0" id="circle170"/>
	<circle cx="918.13" cy="386.58" r="4" fill="#0" id="circle171"/>
	<circle cx="919.823" cy="242.689" r="4" fill="#0" id="circle172"/>
	<circle cx="928.287" cy="257.925" r="4" fill="#0" id="circle173"/>
	<circle cx="933.365" cy="395.044" r="4" fill="#0" id="circle174"/>
	<circle cx="936.751" cy="273.16" r="4" fill="#0" id="circle175"/>
	<circle cx="945.215" cy="288.396" r="4" fill="#0" id="circle176"/>
	<circle cx="945.215" cy="305.324" r="4" fill="#0" id="circle177"/>
	<circle cx="948.601" cy="403.509" r="4" fill="#0" id="circle178"/>
	<circle cx="953.679" cy="320.56" r="4" fill="#0" id="circle179"/>
	<circle cx="963.836" cy="334.102" r="4" fill="#0" id="circle180"/>
	<circle cx="965.529" cy="410.28" r="4" fill="#0" id="circle181"/>
	<circle cx="970.608" cy="351.031" r="4" fill="#0" id="circle182"/>
	<circle cx="979.072" cy="366.266" r="4" fill="#0" id="circle183"/>
	<circle cx="979.072" cy="420.437" r="4" fill="#0" id="circle184"/>
	<circle cx="987.536" cy="381.502" r="4" fill="#0" id="circle185"/>
	<circle cx="987.536" cy="398.43" r="4" fill="#0" id="circle186"/>
	<circle cx="996" cy="413.666" r="4" fill="#0" id="circle187"/>
	</g>
</svg>