<?xml version="1.0" encoding="UTF-8" standalone="no"?>
<!-- Created with CurveBenchmark -->
<svg
	xmlns:dc="http://purl.org/dc/elements/1.1/"
	xmlns:cc="http://creativecommons.org/ns#"
	xmlns:rdf="http://www.w3.org/1999/02/22-rdf-syntax-ns#"
	xmlns:svg="http://www.w3.org/2000/svg"
	xmlns="http://www.w3.org/2000/svg"
	xmlns:sodipodi="http://sodipodi.sourceforge.net/DTD/sodipodi-0.dtd"
	xmlns:inkscape="http://www.inkscape.org/namespaces/inkscape"
	width="1000"
	height="1000"
	id="svg2"
	version="1.1"
	sodipodi:docname="manifold/crawl-dino18.png.txt">
<defs
	id="defs4" />
<metadata
	id="metadata7">
	<rdf:RDF>
		<cc:Work
			rdf:about="">
			<dc:format>image/svg+xml</dc:format>
			<dc:type
				rdf:resource="http://purl.org/dc/dcmitype/StillImage" />
			<dc:title></dc:title>
		</cc:Work>
	</rdf:RDF>
</metadata>
<g
	inkscape:label="Layer 1"
	inkscape:groupmode="layer"
	id="layer1">
	<path style="fill:none;stroke:red;stroke-width:1px;stroke-linecap:butt;stroke-linejoin:miter;stroke-opacity:1" d="M 138.227,691.753 138.227,678.969 z" id="boundary" inkscape:connector-curvature="0" />
	<path style="fill:none;stroke:red;stroke-width:1px;stroke-linecap:butt;stroke-linejoin:miter;stroke-opacity:1" d="M 138.227,691.753 151.01,689.196 z" id="boundary" inkscape:connector-curvature="0" />
	<path style="fill:none;stroke:red;stroke-width:1px;stroke-linecap:butt;stroke-linejoin:miter;stroke-opacity:1" d="M 151.01,689.196 162.515,695.588 z" id="boundary" inkscape:connector-curvature="0" />
	<path style="fill:none;stroke:red;stroke-width:1px;stroke-linecap:butt;stroke-linejoin:miter;stroke-opacity:1" d="M 162.515,695.588 174.021,701.979 z" id="boundary" inkscape:connector-curvature="0" />
	<path style="fill:none;stroke:red;stroke-width:1px;stroke-linecap:butt;stroke-linejoin:miter;stroke-opacity:1" d="M 174.021,701.979 185.526,695.588 z" id="boundary" inkscape:connector-curvature="0" />
	<path style="fill:none;stroke:red;stroke-width:1px;stroke-linecap:butt;stroke-linejoin:miter;stroke-opacity:1" d="M 185.526,695.588 198.309,695.588 z" id="boundary" inkscape:connector-curvature="0" />
	<path style="fill:none;stroke:red;stroke-width:1px;stroke-linecap:butt;stroke-linejoin:miter;stroke-opacity:1" d="M 198.309,695.588 211.093,695.588 z" id="boundary" inkscape:connector-curvature="0" />
	<path style="fill:none;stroke:red;stroke-width:1px;stroke-linecap:butt;stroke-linejoin:miter;stroke-opacity:1" d="M 211.093,695.588 223.876,695.588 z" id="boundary" inkscape:connector-curvature="0" />
	<path style="fill:none;stroke:red;stroke-width:1px;stroke-linecap:butt;stroke-linejoin:miter;stroke-opacity:1" d="M 223.876,695.588 236.66,695.588 z" id="boundary" inkscape:connector-curvature="0" />
	<path style="fill:none;stroke:red;stroke-width:1px;stroke-linecap:butt;stroke-linejoin:miter;stroke-opacity:1" d="M 236.66,695.588 248.165,689.196 z" id="boundary" inkscape:connector-curvature="0" />
	<path style="fill:none;stroke:red;stroke-width:1px;stroke-linecap:butt;stroke-linejoin:miter;stroke-opacity:1" d="M 138.227,678.969 151.01,672.577 z" id="boundary" inkscape:connector-curvature="0" />
	<path style="fill:none;stroke:red;stroke-width:1px;stroke-linecap:butt;stroke-linejoin:miter;stroke-opacity:1" d="M 151.01,672.577 163.794,668.742 z" id="boundary" inkscape:connector-curvature="0" />
	<path style="fill:none;stroke:red;stroke-width:1px;stroke-linecap:butt;stroke-linejoin:miter;stroke-opacity:1" d="M 163.794,668.742 175.299,662.351 z" id="boundary" inkscape:connector-curvature="0" />
	<path style="fill:none;stroke:red;stroke-width:1px;stroke-linecap:butt;stroke-linejoin:miter;stroke-opacity:1" d="M 175.299,662.351 186.804,655.959 z" id="boundary" inkscape:connector-curvature="0" />
	<path style="fill:none;stroke:red;stroke-width:1px;stroke-linecap:butt;stroke-linejoin:miter;stroke-opacity:1" d="M 248.165,689.196 260.948,682.804 z" id="boundary" inkscape:connector-curvature="0" />
	<path style="fill:none;stroke:red;stroke-width:1px;stroke-linecap:butt;stroke-linejoin:miter;stroke-opacity:1" d="M 260.948,682.804 271.175,673.856 z" id="boundary" inkscape:connector-curvature="0" />
	<path style="fill:none;stroke:red;stroke-width:1px;stroke-linecap:butt;stroke-linejoin:miter;stroke-opacity:1" d="M 186.804,655.959 197.031,645.732 z" id="boundary" inkscape:connector-curvature="0" />
	<path style="fill:none;stroke:red;stroke-width:1px;stroke-linecap:butt;stroke-linejoin:miter;stroke-opacity:1" d="M 197.031,645.732 209.814,639.34 z" id="boundary" inkscape:connector-curvature="0" />
	<path style="fill:none;stroke:red;stroke-width:1px;stroke-linecap:butt;stroke-linejoin:miter;stroke-opacity:1" d="M 209.814,639.34 220.041,630.392 z" id="boundary" inkscape:connector-curvature="0" />
	<path style="fill:none;stroke:red;stroke-width:1px;stroke-linecap:butt;stroke-linejoin:miter;stroke-opacity:1" d="M 220.041,630.392 228.99,620.165 z" id="boundary" inkscape:connector-curvature="0" />
	<path style="fill:none;stroke:red;stroke-width:1px;stroke-linecap:butt;stroke-linejoin:miter;stroke-opacity:1" d="M 228.99,620.165 239.216,611.216 z" id="boundary" inkscape:connector-curvature="0" />
	<path style="fill:none;stroke:red;stroke-width:1px;stroke-linecap:butt;stroke-linejoin:miter;stroke-opacity:1" d="M 239.216,611.216 240.495,597.155 z" id="boundary" inkscape:connector-curvature="0" />
	<path style="fill:none;stroke:red;stroke-width:1px;stroke-linecap:butt;stroke-linejoin:miter;stroke-opacity:1" d="M 240.495,597.155 240.495,584.371 z" id="boundary" inkscape:connector-curvature="0" />
	<path style="fill:none;stroke:red;stroke-width:1px;stroke-linecap:butt;stroke-linejoin:miter;stroke-opacity:1" d="M 240.495,584.371 231.546,574.144 z" id="boundary" inkscape:connector-curvature="0" />
	<path style="fill:none;stroke:red;stroke-width:1px;stroke-linecap:butt;stroke-linejoin:miter;stroke-opacity:1" d="M 231.546,574.144 227.711,561.361 z" id="boundary" inkscape:connector-curvature="0" />
	<path style="fill:none;stroke:red;stroke-width:1px;stroke-linecap:butt;stroke-linejoin:miter;stroke-opacity:1" d="M 227.711,561.361 221.32,549.856 z" id="boundary" inkscape:connector-curvature="0" />
	<path style="fill:none;stroke:red;stroke-width:1px;stroke-linecap:butt;stroke-linejoin:miter;stroke-opacity:1" d="M 221.32,549.856 221.32,537.072 z" id="boundary" inkscape:connector-curvature="0" />
	<path style="fill:none;stroke:red;stroke-width:1px;stroke-linecap:butt;stroke-linejoin:miter;stroke-opacity:1" d="M 221.32,537.072 221.32,524.289 z" id="boundary" inkscape:connector-curvature="0" />
	<path style="fill:none;stroke:red;stroke-width:1px;stroke-linecap:butt;stroke-linejoin:miter;stroke-opacity:1" d="M 221.32,524.289 214.928,512.784 z" id="boundary" inkscape:connector-curvature="0" />
	<path style="fill:none;stroke:red;stroke-width:1px;stroke-linecap:butt;stroke-linejoin:miter;stroke-opacity:1" d="M 214.928,512.784 214.928,500 z" id="boundary" inkscape:connector-curvature="0" />
	<path style="fill:none;stroke:red;stroke-width:1px;stroke-linecap:butt;stroke-linejoin:miter;stroke-opacity:1" d="M 214.928,500 214.928,487.216 z" id="boundary" inkscape:connector-curvature="0" />
	<path style="fill:none;stroke:red;stroke-width:1px;stroke-linecap:butt;stroke-linejoin:miter;stroke-opacity:1" d="M 214.928,487.216 214.928,474.433 z" id="boundary" inkscape:connector-curvature="0" />
	<path style="fill:none;stroke:red;stroke-width:1px;stroke-linecap:butt;stroke-linejoin:miter;stroke-opacity:1" d="M 214.928,474.433 221.32,461.649 z" id="boundary" inkscape:connector-curvature="0" />
	<path style="fill:none;stroke:red;stroke-width:1px;stroke-linecap:butt;stroke-linejoin:miter;stroke-opacity:1" d="M 221.32,461.649 227.711,448.866 z" id="boundary" inkscape:connector-curvature="0" />
	<path style="fill:none;stroke:red;stroke-width:1px;stroke-linecap:butt;stroke-linejoin:miter;stroke-opacity:1" d="M 227.711,448.866 231.546,433.526 z" id="boundary" inkscape:connector-curvature="0" />
	<path style="fill:none;stroke:red;stroke-width:1px;stroke-linecap:butt;stroke-linejoin:miter;stroke-opacity:1" d="M 231.546,433.526 222.598,423.299 z" id="boundary" inkscape:connector-curvature="0" />
	<path style="fill:none;stroke:red;stroke-width:1px;stroke-linecap:butt;stroke-linejoin:miter;stroke-opacity:1" d="M 222.598,423.299 212.371,414.351 z" id="boundary" inkscape:connector-curvature="0" />
	<path style="fill:none;stroke:red;stroke-width:1px;stroke-linecap:butt;stroke-linejoin:miter;stroke-opacity:1" d="M 212.371,414.351 203.423,404.124 z" id="boundary" inkscape:connector-curvature="0" />
	<path style="fill:none;stroke:red;stroke-width:1px;stroke-linecap:butt;stroke-linejoin:miter;stroke-opacity:1" d="M 203.423,404.124 193.196,395.175 z" id="boundary" inkscape:connector-curvature="0" />
	<path style="fill:none;stroke:red;stroke-width:1px;stroke-linecap:butt;stroke-linejoin:miter;stroke-opacity:1" d="M 193.196,395.175 184.247,384.948 z" id="boundary" inkscape:connector-curvature="0" />
	<path style="fill:none;stroke:red;stroke-width:1px;stroke-linecap:butt;stroke-linejoin:miter;stroke-opacity:1" d="M 184.247,384.948 174.021,376 z" id="boundary" inkscape:connector-curvature="0" />
	<path style="fill:none;stroke:red;stroke-width:1px;stroke-linecap:butt;stroke-linejoin:miter;stroke-opacity:1" d="M 174.021,376 161.237,381.113 z" id="boundary" inkscape:connector-curvature="0" />
	<path style="fill:none;stroke:red;stroke-width:1px;stroke-linecap:butt;stroke-linejoin:miter;stroke-opacity:1" d="M 161.237,381.113 149.732,388.784 z" id="boundary" inkscape:connector-curvature="0" />
	<path style="fill:none;stroke:red;stroke-width:1px;stroke-linecap:butt;stroke-linejoin:miter;stroke-opacity:1" d="M 149.732,388.784 138.227,395.175 z" id="boundary" inkscape:connector-curvature="0" />
	<path style="fill:none;stroke:red;stroke-width:1px;stroke-linecap:butt;stroke-linejoin:miter;stroke-opacity:1" d="M 138.227,395.175 130.557,405.402 z" id="boundary" inkscape:connector-curvature="0" />
	<path style="fill:none;stroke:red;stroke-width:1px;stroke-linecap:butt;stroke-linejoin:miter;stroke-opacity:1" d="M 130.557,405.402 124.165,418.186 z" id="boundary" inkscape:connector-curvature="0" />
	<path style="fill:none;stroke:red;stroke-width:1px;stroke-linecap:butt;stroke-linejoin:miter;stroke-opacity:1" d="M 124.165,418.186 113.938,427.134 z" id="boundary" inkscape:connector-curvature="0" />
	<path style="fill:none;stroke:red;stroke-width:1px;stroke-linecap:butt;stroke-linejoin:miter;stroke-opacity:1" d="M 113.938,427.134 102.433,433.526 z" id="boundary" inkscape:connector-curvature="0" />
	<path style="fill:none;stroke:red;stroke-width:1px;stroke-linecap:butt;stroke-linejoin:miter;stroke-opacity:1" d="M 102.433,433.526 89.6495,432.247 z" id="boundary" inkscape:connector-curvature="0" />
	<path style="fill:none;stroke:red;stroke-width:1px;stroke-linecap:butt;stroke-linejoin:miter;stroke-opacity:1" d="M 89.6495,432.247 80.701,422.021 z" id="boundary" inkscape:connector-curvature="0" />
	<path style="fill:none;stroke:red;stroke-width:1px;stroke-linecap:butt;stroke-linejoin:miter;stroke-opacity:1" d="M 80.701,422.021 80.701,409.237 z" id="boundary" inkscape:connector-curvature="0" />
	<path style="fill:none;stroke:red;stroke-width:1px;stroke-linecap:butt;stroke-linejoin:miter;stroke-opacity:1" d="M 80.701,409.237 74.3093,397.732 z" id="boundary" inkscape:connector-curvature="0" />
	<path style="fill:none;stroke:red;stroke-width:1px;stroke-linecap:butt;stroke-linejoin:miter;stroke-opacity:1" d="M 74.3093,397.732 74.3093,384.948 z" id="boundary" inkscape:connector-curvature="0" />
	<path style="fill:none;stroke:red;stroke-width:1px;stroke-linecap:butt;stroke-linejoin:miter;stroke-opacity:1" d="M 74.3093,384.948 84.5361,374.722 z" id="boundary" inkscape:connector-curvature="0" />
	<path style="fill:none;stroke:red;stroke-width:1px;stroke-linecap:butt;stroke-linejoin:miter;stroke-opacity:1" d="M 84.5361,374.722 97.3196,368.33 z" id="boundary" inkscape:connector-curvature="0" />
	<path style="fill:none;stroke:red;stroke-width:1px;stroke-linecap:butt;stroke-linejoin:miter;stroke-opacity:1" d="M 97.3196,368.33 110.103,361.938 z" id="boundary" inkscape:connector-curvature="0" />
	<path style="fill:none;stroke:red;stroke-width:1px;stroke-linecap:butt;stroke-linejoin:miter;stroke-opacity:1" d="M 110.103,361.938 122.887,355.546 z" id="boundary" inkscape:connector-curvature="0" />
	<path style="fill:none;stroke:red;stroke-width:1px;stroke-linecap:butt;stroke-linejoin:miter;stroke-opacity:1" d="M 122.887,355.546 133.113,345.32 z" id="boundary" inkscape:connector-curvature="0" />
	<path style="fill:none;stroke:red;stroke-width:1px;stroke-linecap:butt;stroke-linejoin:miter;stroke-opacity:1" d="M 133.113,345.32 143.34,336.371 z" id="boundary" inkscape:connector-curvature="0" />
	<path style="fill:none;stroke:red;stroke-width:1px;stroke-linecap:butt;stroke-linejoin:miter;stroke-opacity:1" d="M 143.34,336.371 133.113,321.031 z" id="boundary" inkscape:connector-curvature="0" />
	<path style="fill:none;stroke:red;stroke-width:1px;stroke-linecap:butt;stroke-linejoin:miter;stroke-opacity:1" d="M 133.113,321.031 120.33,318.474 z" id="boundary" inkscape:connector-curvature="0" />
	<path style="fill:none;stroke:red;stroke-width:1px;stroke-linecap:butt;stroke-linejoin:miter;stroke-opacity:1" d="M 120.33,318.474 107.546,324.866 z" id="boundary" inkscape:connector-curvature="0" />
	<path style="fill:none;stroke:red;stroke-width:1px;stroke-linecap:butt;stroke-linejoin:miter;stroke-opacity:1" d="M 107.546,324.866 94.7629,331.258 z" id="boundary" inkscape:connector-curvature="0" />
	<path style="fill:none;stroke:red;stroke-width:1px;stroke-linecap:butt;stroke-linejoin:miter;stroke-opacity:1" d="M 94.7629,331.258 81.9794,337.649 z" id="boundary" inkscape:connector-curvature="0" />
	<path style="fill:none;stroke:red;stroke-width:1px;stroke-linecap:butt;stroke-linejoin:miter;stroke-opacity:1" d="M 81.9794,337.649 69.1959,337.649 z" id="boundary" inkscape:connector-curvature="0" />
	<path style="fill:none;stroke:red;stroke-width:1px;stroke-linecap:butt;stroke-linejoin:miter;stroke-opacity:1" d="M 69.1959,337.649 56.4124,337.649 z" id="boundary" inkscape:connector-curvature="0" />
	<path style="fill:none;stroke:red;stroke-width:1px;stroke-linecap:butt;stroke-linejoin:miter;stroke-opacity:1" d="M 56.4124,337.649 47.4639,347.876 z" id="boundary" inkscape:connector-curvature="0" />
	<path style="fill:none;stroke:red;stroke-width:1px;stroke-linecap:butt;stroke-linejoin:miter;stroke-opacity:1" d="M 47.4639,347.876 37.2371,356.825 z" id="boundary" inkscape:connector-curvature="0" />
	<path style="fill:none;stroke:red;stroke-width:1px;stroke-linecap:butt;stroke-linejoin:miter;stroke-opacity:1" d="M 37.2371,356.825 43.6289,368.33 z" id="boundary" inkscape:connector-curvature="0" />
	<path style="fill:none;stroke:red;stroke-width:1px;stroke-linecap:butt;stroke-linejoin:miter;stroke-opacity:1" d="M 43.6289,368.33 32.1237,382.392 z" id="boundary" inkscape:connector-curvature="0" />
	<path style="fill:none;stroke:red;stroke-width:1px;stroke-linecap:butt;stroke-linejoin:miter;stroke-opacity:1" d="M 32.1237,382.392 19.3402,387.505 z" id="boundary" inkscape:connector-curvature="0" />
	<path style="fill:none;stroke:red;stroke-width:1px;stroke-linecap:butt;stroke-linejoin:miter;stroke-opacity:1" d="M 19.3402,387.505 10.3918,377.278 z" id="boundary" inkscape:connector-curvature="0" />
	<path style="fill:none;stroke:red;stroke-width:1px;stroke-linecap:butt;stroke-linejoin:miter;stroke-opacity:1" d="M 10.3918,377.278 4,365.773 z" id="boundary" inkscape:connector-curvature="0" />
	<path style="fill:none;stroke:red;stroke-width:1px;stroke-linecap:butt;stroke-linejoin:miter;stroke-opacity:1" d="M 4,365.773 4,352.99 z" id="boundary" inkscape:connector-curvature="0" />
	<path style="fill:none;stroke:red;stroke-width:1px;stroke-linecap:butt;stroke-linejoin:miter;stroke-opacity:1" d="M 4,352.99 14.2268,342.763 z" id="boundary" inkscape:connector-curvature="0" />
	<path style="fill:none;stroke:red;stroke-width:1px;stroke-linecap:butt;stroke-linejoin:miter;stroke-opacity:1" d="M 14.2268,342.763 20.6186,329.979 z" id="boundary" inkscape:connector-curvature="0" />
	<path style="fill:none;stroke:red;stroke-width:1px;stroke-linecap:butt;stroke-linejoin:miter;stroke-opacity:1" d="M 20.6186,329.979 27.0103,317.196 z" id="boundary" inkscape:connector-curvature="0" />
	<path style="fill:none;stroke:red;stroke-width:1px;stroke-linecap:butt;stroke-linejoin:miter;stroke-opacity:1" d="M 27.0103,317.196 38.5155,310.804 z" id="boundary" inkscape:connector-curvature="0" />
	<path style="fill:none;stroke:red;stroke-width:1px;stroke-linecap:butt;stroke-linejoin:miter;stroke-opacity:1" d="M 38.5155,310.804 50.0206,304.412 z" id="boundary" inkscape:connector-curvature="0" />
	<path style="fill:none;stroke:red;stroke-width:1px;stroke-linecap:butt;stroke-linejoin:miter;stroke-opacity:1" d="M 50.0206,304.412 62.8041,300.577 z" id="boundary" inkscape:connector-curvature="0" />
	<path style="fill:none;stroke:red;stroke-width:1px;stroke-linecap:butt;stroke-linejoin:miter;stroke-opacity:1" d="M 62.8041,300.577 75.5876,294.186 z" id="boundary" inkscape:connector-curvature="0" />
	<path style="fill:none;stroke:red;stroke-width:1px;stroke-linecap:butt;stroke-linejoin:miter;stroke-opacity:1" d="M 75.5876,294.186 87.0928,280.124 z" id="boundary" inkscape:connector-curvature="0" />
	<path style="fill:none;stroke:red;stroke-width:1px;stroke-linecap:butt;stroke-linejoin:miter;stroke-opacity:1" d="M 87.0928,280.124 76.866,272.454 z" id="boundary" inkscape:connector-curvature="0" />
	<path style="fill:none;stroke:red;stroke-width:1px;stroke-linecap:butt;stroke-linejoin:miter;stroke-opacity:1" d="M 76.866,272.454 74.3093,259.67 z" id="boundary" inkscape:connector-curvature="0" />
	<path style="fill:none;stroke:red;stroke-width:1px;stroke-linecap:butt;stroke-linejoin:miter;stroke-opacity:1" d="M 74.3093,259.67 67.9175,248.165 z" id="boundary" inkscape:connector-curvature="0" />
	<path style="fill:none;stroke:red;stroke-width:1px;stroke-linecap:butt;stroke-linejoin:miter;stroke-opacity:1" d="M 67.9175,248.165 61.5258,236.66 z" id="boundary" inkscape:connector-curvature="0" />
	<path style="fill:none;stroke:red;stroke-width:1px;stroke-linecap:butt;stroke-linejoin:miter;stroke-opacity:1" d="M 61.5258,236.66 61.5258,223.876 z" id="boundary" inkscape:connector-curvature="0" />
	<path style="fill:none;stroke:red;stroke-width:1px;stroke-linecap:butt;stroke-linejoin:miter;stroke-opacity:1" d="M 61.5258,223.876 61.5258,211.093 z" id="boundary" inkscape:connector-curvature="0" />
	<path style="fill:none;stroke:red;stroke-width:1px;stroke-linecap:butt;stroke-linejoin:miter;stroke-opacity:1" d="M 61.5258,211.093 55.134,199.588 z" id="boundary" inkscape:connector-curvature="0" />
	<path style="fill:none;stroke:red;stroke-width:1px;stroke-linecap:butt;stroke-linejoin:miter;stroke-opacity:1" d="M 55.134,199.588 55.134,186.804 z" id="boundary" inkscape:connector-curvature="0" />
	<path style="fill:none;stroke:red;stroke-width:1px;stroke-linecap:butt;stroke-linejoin:miter;stroke-opacity:1" d="M 55.134,186.804 48.7423,175.299 z" id="boundary" inkscape:connector-curvature="0" />
	<path style="fill:none;stroke:red;stroke-width:1px;stroke-linecap:butt;stroke-linejoin:miter;stroke-opacity:1" d="M 48.7423,175.299 42.3505,163.794 z" id="boundary" inkscape:connector-curvature="0" />
	<path style="fill:none;stroke:red;stroke-width:1px;stroke-linecap:butt;stroke-linejoin:miter;stroke-opacity:1" d="M 42.3505,163.794 35.9588,152.289 z" id="boundary" inkscape:connector-curvature="0" />
	<path style="fill:none;stroke:red;stroke-width:1px;stroke-linecap:butt;stroke-linejoin:miter;stroke-opacity:1" d="M 35.9588,152.289 29.567,140.784 z" id="boundary" inkscape:connector-curvature="0" />
	<path style="fill:none;stroke:red;stroke-width:1px;stroke-linecap:butt;stroke-linejoin:miter;stroke-opacity:1" d="M 29.567,140.784 23.1753,129.278 z" id="boundary" inkscape:connector-curvature="0" />
	<path style="fill:none;stroke:red;stroke-width:1px;stroke-linecap:butt;stroke-linejoin:miter;stroke-opacity:1" d="M 23.1753,129.278 23.1753,116.495 z" id="boundary" inkscape:connector-curvature="0" />
	<path style="fill:none;stroke:red;stroke-width:1px;stroke-linecap:butt;stroke-linejoin:miter;stroke-opacity:1" d="M 23.1753,116.495 23.1753,103.711 z" id="boundary" inkscape:connector-curvature="0" />
	<path style="fill:none;stroke:red;stroke-width:1px;stroke-linecap:butt;stroke-linejoin:miter;stroke-opacity:1" d="M 23.1753,103.711 23.1753,90.9278 z" id="boundary" inkscape:connector-curvature="0" />
	<path style="fill:none;stroke:red;stroke-width:1px;stroke-linecap:butt;stroke-linejoin:miter;stroke-opacity:1" d="M 23.1753,90.9278 23.1753,78.1443 z" id="boundary" inkscape:connector-curvature="0" />
	<path style="fill:none;stroke:red;stroke-width:1px;stroke-linecap:butt;stroke-linejoin:miter;stroke-opacity:1" d="M 23.1753,78.1443 29.567,65.3608 z" id="boundary" inkscape:connector-curvature="0" />
	<path style="fill:none;stroke:red;stroke-width:1px;stroke-linecap:butt;stroke-linejoin:miter;stroke-opacity:1" d="M 29.567,65.3608 29.567,52.5773 z" id="boundary" inkscape:connector-curvature="0" />
	<path style="fill:none;stroke:red;stroke-width:1px;stroke-linecap:butt;stroke-linejoin:miter;stroke-opacity:1" d="M 29.567,52.5773 39.7938,42.3505 z" id="boundary" inkscape:connector-curvature="0" />
	<path style="fill:none;stroke:red;stroke-width:1px;stroke-linecap:butt;stroke-linejoin:miter;stroke-opacity:1" d="M 39.7938,42.3505 46.1856,29.567 z" id="boundary" inkscape:connector-curvature="0" />
	<path style="fill:none;stroke:red;stroke-width:1px;stroke-linecap:butt;stroke-linejoin:miter;stroke-opacity:1" d="M 46.1856,29.567 56.4124,19.3402 z" id="boundary" inkscape:connector-curvature="0" />
	<path style="fill:none;stroke:red;stroke-width:1px;stroke-linecap:butt;stroke-linejoin:miter;stroke-opacity:1" d="M 56.4124,19.3402 69.1959,12.9485 z" id="boundary" inkscape:connector-curvature="0" />
	<path style="fill:none;stroke:red;stroke-width:1px;stroke-linecap:butt;stroke-linejoin:miter;stroke-opacity:1" d="M 69.1959,12.9485 81.9794,10.3918 z" id="boundary" inkscape:connector-curvature="0" />
	<path style="fill:none;stroke:red;stroke-width:1px;stroke-linecap:butt;stroke-linejoin:miter;stroke-opacity:1" d="M 81.9794,10.3918 94.7629,6.5567 z" id="boundary" inkscape:connector-curvature="0" />
	<path style="fill:none;stroke:red;stroke-width:1px;stroke-linecap:butt;stroke-linejoin:miter;stroke-opacity:1" d="M 94.7629,6.5567 107.546,4 z" id="boundary" inkscape:connector-curvature="0" />
	<path style="fill:none;stroke:red;stroke-width:1px;stroke-linecap:butt;stroke-linejoin:miter;stroke-opacity:1" d="M 107.546,4 120.33,4 z" id="boundary" inkscape:connector-curvature="0" />
	<path style="fill:none;stroke:red;stroke-width:1px;stroke-linecap:butt;stroke-linejoin:miter;stroke-opacity:1" d="M 120.33,4 133.113,4 z" id="boundary" inkscape:connector-curvature="0" />
	<path style="fill:none;stroke:red;stroke-width:1px;stroke-linecap:butt;stroke-linejoin:miter;stroke-opacity:1" d="M 133.113,4 144.619,10.3918 z" id="boundary" inkscape:connector-curvature="0" />
	<path style="fill:none;stroke:red;stroke-width:1px;stroke-linecap:butt;stroke-linejoin:miter;stroke-opacity:1" d="M 144.619,10.3918 154.845,18.0619 z" id="boundary" inkscape:connector-curvature="0" />
	<path style="fill:none;stroke:red;stroke-width:1px;stroke-linecap:butt;stroke-linejoin:miter;stroke-opacity:1" d="M 154.845,18.0619 167.629,23.1753 z" id="boundary" inkscape:connector-curvature="0" />
	<path style="fill:none;stroke:red;stroke-width:1px;stroke-linecap:butt;stroke-linejoin:miter;stroke-opacity:1" d="M 167.629,23.1753 179.134,29.567 z" id="boundary" inkscape:connector-curvature="0" />
	<path style="fill:none;stroke:red;stroke-width:1px;stroke-linecap:butt;stroke-linejoin:miter;stroke-opacity:1" d="M 179.134,29.567 191.918,29.567 z" id="boundary" inkscape:connector-curvature="0" />
	<path style="fill:none;stroke:red;stroke-width:1px;stroke-linecap:butt;stroke-linejoin:miter;stroke-opacity:1" d="M 191.918,29.567 203.423,35.9588 z" id="boundary" inkscape:connector-curvature="0" />
	<path style="fill:none;stroke:red;stroke-width:1px;stroke-linecap:butt;stroke-linejoin:miter;stroke-opacity:1" d="M 203.423,35.9588 216.206,35.9588 z" id="boundary" inkscape:connector-curvature="0" />
	<path style="fill:none;stroke:red;stroke-width:1px;stroke-linecap:butt;stroke-linejoin:miter;stroke-opacity:1" d="M 216.206,35.9588 228.99,35.9588 z" id="boundary" inkscape:connector-curvature="0" />
	<path style="fill:none;stroke:red;stroke-width:1px;stroke-linecap:butt;stroke-linejoin:miter;stroke-opacity:1" d="M 228.99,35.9588 241.773,35.9588 z" id="boundary" inkscape:connector-curvature="0" />
	<path style="fill:none;stroke:red;stroke-width:1px;stroke-linecap:butt;stroke-linejoin:miter;stroke-opacity:1" d="M 241.773,35.9588 254.557,35.9588 z" id="boundary" inkscape:connector-curvature="0" />
	<path style="fill:none;stroke:red;stroke-width:1px;stroke-linecap:butt;stroke-linejoin:miter;stroke-opacity:1" d="M 254.557,35.9588 264.784,43.6289 z" id="boundary" inkscape:connector-curvature="0" />
	<path style="fill:none;stroke:red;stroke-width:1px;stroke-linecap:butt;stroke-linejoin:miter;stroke-opacity:1" d="M 264.784,43.6289 269.897,56.4124 z" id="boundary" inkscape:connector-curvature="0" />
	<path style="fill:none;stroke:red;stroke-width:1px;stroke-linecap:butt;stroke-linejoin:miter;stroke-opacity:1" d="M 269.897,56.4124 276.289,67.9175 z" id="boundary" inkscape:connector-curvature="0" />
	<path style="fill:none;stroke:red;stroke-width:1px;stroke-linecap:butt;stroke-linejoin:miter;stroke-opacity:1" d="M 276.289,67.9175 280.124,80.701 z" id="boundary" inkscape:connector-curvature="0" />
	<path style="fill:none;stroke:red;stroke-width:1px;stroke-linecap:butt;stroke-linejoin:miter;stroke-opacity:1" d="M 280.124,80.701 276.289,93.4845 z" id="boundary" inkscape:connector-curvature="0" />
	<path style="fill:none;stroke:red;stroke-width:1px;stroke-linecap:butt;stroke-linejoin:miter;stroke-opacity:1" d="M 276.289,93.4845 263.505,99.8763 z" id="boundary" inkscape:connector-curvature="0" />
	<path style="fill:none;stroke:red;stroke-width:1px;stroke-linecap:butt;stroke-linejoin:miter;stroke-opacity:1" d="M 263.505,99.8763 250.722,94.7629 z" id="boundary" inkscape:connector-curvature="0" />
	<path style="fill:none;stroke:red;stroke-width:1px;stroke-linecap:butt;stroke-linejoin:miter;stroke-opacity:1" d="M 250.722,94.7629 237.938,94.7629 z" id="boundary" inkscape:connector-curvature="0" />
	<path style="fill:none;stroke:red;stroke-width:1px;stroke-linecap:butt;stroke-linejoin:miter;stroke-opacity:1" d="M 237.938,94.7629 225.155,94.7629 z" id="boundary" inkscape:connector-curvature="0" />
	<path style="fill:none;stroke:red;stroke-width:1px;stroke-linecap:butt;stroke-linejoin:miter;stroke-opacity:1" d="M 225.155,94.7629 212.371,94.7629 z" id="boundary" inkscape:connector-curvature="0" />
	<path style="fill:none;stroke:red;stroke-width:1px;stroke-linecap:butt;stroke-linejoin:miter;stroke-opacity:1" d="M 212.371,94.7629 199.588,99.8763 z" id="boundary" inkscape:connector-curvature="0" />
	<path style="fill:none;stroke:red;stroke-width:1px;stroke-linecap:butt;stroke-linejoin:miter;stroke-opacity:1" d="M 199.588,99.8763 186.804,101.155 z" id="boundary" inkscape:connector-curvature="0" />
	<path style="fill:none;stroke:red;stroke-width:1px;stroke-linecap:butt;stroke-linejoin:miter;stroke-opacity:1" d="M 186.804,101.155 174.021,101.155 z" id="boundary" inkscape:connector-curvature="0" />
	<path style="fill:none;stroke:red;stroke-width:1px;stroke-linecap:butt;stroke-linejoin:miter;stroke-opacity:1" d="M 174.021,101.155 162.515,94.7629 z" id="boundary" inkscape:connector-curvature="0" />
	<path style="fill:none;stroke:red;stroke-width:1px;stroke-linecap:butt;stroke-linejoin:miter;stroke-opacity:1" d="M 162.515,94.7629 149.732,94.7629 z" id="boundary" inkscape:connector-curvature="0" />
	<path style="fill:none;stroke:red;stroke-width:1px;stroke-linecap:butt;stroke-linejoin:miter;stroke-opacity:1" d="M 149.732,94.7629 136.948,98.5979 z" id="boundary" inkscape:connector-curvature="0" />
	<path style="fill:none;stroke:red;stroke-width:1px;stroke-linecap:butt;stroke-linejoin:miter;stroke-opacity:1" d="M 136.948,98.5979 126.722,107.546 z" id="boundary" inkscape:connector-curvature="0" />
	<path style="fill:none;stroke:red;stroke-width:1px;stroke-linecap:butt;stroke-linejoin:miter;stroke-opacity:1" d="M 126.722,107.546 120.33,120.33 z" id="boundary" inkscape:connector-curvature="0" />
	<path style="fill:none;stroke:red;stroke-width:1px;stroke-linecap:butt;stroke-linejoin:miter;stroke-opacity:1" d="M 120.33,120.33 120.33,133.113 z" id="boundary" inkscape:connector-curvature="0" />
	<path style="fill:none;stroke:red;stroke-width:1px;stroke-linecap:butt;stroke-linejoin:miter;stroke-opacity:1" d="M 120.33,133.113 130.557,140.784 z" id="boundary" inkscape:connector-curvature="0" />
	<path style="fill:none;stroke:red;stroke-width:1px;stroke-linecap:butt;stroke-linejoin:miter;stroke-opacity:1" d="M 130.557,140.784 143.34,144.619 z" id="boundary" inkscape:connector-curvature="0" />
	<path style="fill:none;stroke:red;stroke-width:1px;stroke-linecap:butt;stroke-linejoin:miter;stroke-opacity:1" d="M 143.34,144.619 156.124,144.619 z" id="boundary" inkscape:connector-curvature="0" />
	<path style="fill:none;stroke:red;stroke-width:1px;stroke-linecap:butt;stroke-linejoin:miter;stroke-opacity:1" d="M 156.124,144.619 167.629,151.01 z" id="boundary" inkscape:connector-curvature="0" />
	<path style="fill:none;stroke:red;stroke-width:1px;stroke-linecap:butt;stroke-linejoin:miter;stroke-opacity:1" d="M 167.629,151.01 179.134,157.402 z" id="boundary" inkscape:connector-curvature="0" />
	<path style="fill:none;stroke:red;stroke-width:1px;stroke-linecap:butt;stroke-linejoin:miter;stroke-opacity:1" d="M 179.134,157.402 191.918,157.402 z" id="boundary" inkscape:connector-curvature="0" />
	<path style="fill:none;stroke:red;stroke-width:1px;stroke-linecap:butt;stroke-linejoin:miter;stroke-opacity:1" d="M 191.918,157.402 202.144,166.351 z" id="boundary" inkscape:connector-curvature="0" />
	<path style="fill:none;stroke:red;stroke-width:1px;stroke-linecap:butt;stroke-linejoin:miter;stroke-opacity:1" d="M 202.144,166.351 214.928,170.186 z" id="boundary" inkscape:connector-curvature="0" />
	<path style="fill:none;stroke:red;stroke-width:1px;stroke-linecap:butt;stroke-linejoin:miter;stroke-opacity:1" d="M 214.928,170.186 227.711,170.186 z" id="boundary" inkscape:connector-curvature="0" />
	<path style="fill:none;stroke:red;stroke-width:1px;stroke-linecap:butt;stroke-linejoin:miter;stroke-opacity:1" d="M 227.711,170.186 239.216,176.577 z" id="boundary" inkscape:connector-curvature="0" />
	<path style="fill:none;stroke:red;stroke-width:1px;stroke-linecap:butt;stroke-linejoin:miter;stroke-opacity:1" d="M 239.216,176.577 250.722,182.969 z" id="boundary" inkscape:connector-curvature="0" />
	<path style="fill:none;stroke:red;stroke-width:1px;stroke-linecap:butt;stroke-linejoin:miter;stroke-opacity:1" d="M 250.722,182.969 263.505,182.969 z" id="boundary" inkscape:connector-curvature="0" />
	<path style="fill:none;stroke:red;stroke-width:1px;stroke-linecap:butt;stroke-linejoin:miter;stroke-opacity:1" d="M 263.505,182.969 275.01,189.361 z" id="boundary" inkscape:connector-curvature="0" />
	<path style="fill:none;stroke:red;stroke-width:1px;stroke-linecap:butt;stroke-linejoin:miter;stroke-opacity:1" d="M 275.01,189.361 286.515,195.753 z" id="boundary" inkscape:connector-curvature="0" />
	<path style="fill:none;stroke:red;stroke-width:1px;stroke-linecap:butt;stroke-linejoin:miter;stroke-opacity:1" d="M 286.515,195.753 299.299,199.588 z" id="boundary" inkscape:connector-curvature="0" />
	<path style="fill:none;stroke:red;stroke-width:1px;stroke-linecap:butt;stroke-linejoin:miter;stroke-opacity:1" d="M 299.299,199.588 312.082,202.144 z" id="boundary" inkscape:connector-curvature="0" />
	<path style="fill:none;stroke:red;stroke-width:1px;stroke-linecap:butt;stroke-linejoin:miter;stroke-opacity:1" d="M 312.082,202.144 322.309,209.814 z" id="boundary" inkscape:connector-curvature="0" />
	<path style="fill:none;stroke:red;stroke-width:1px;stroke-linecap:butt;stroke-linejoin:miter;stroke-opacity:1" d="M 322.309,209.814 333.814,216.206 z" id="boundary" inkscape:connector-curvature="0" />
	<path style="fill:none;stroke:red;stroke-width:1px;stroke-linecap:butt;stroke-linejoin:miter;stroke-opacity:1" d="M 333.814,216.206 346.598,221.32 z" id="boundary" inkscape:connector-curvature="0" />
	<path style="fill:none;stroke:red;stroke-width:1px;stroke-linecap:butt;stroke-linejoin:miter;stroke-opacity:1" d="M 346.598,221.32 358.103,227.711 z" id="boundary" inkscape:connector-curvature="0" />
	<path style="fill:none;stroke:red;stroke-width:1px;stroke-linecap:butt;stroke-linejoin:miter;stroke-opacity:1" d="M 358.103,227.711 369.608,234.103 z" id="boundary" inkscape:connector-curvature="0" />
	<path style="fill:none;stroke:red;stroke-width:1px;stroke-linecap:butt;stroke-linejoin:miter;stroke-opacity:1" d="M 369.608,234.103 382.392,237.938 z" id="boundary" inkscape:connector-curvature="0" />
	<path style="fill:none;stroke:red;stroke-width:1px;stroke-linecap:butt;stroke-linejoin:miter;stroke-opacity:1" d="M 382.392,237.938 393.897,244.33 z" id="boundary" inkscape:connector-curvature="0" />
	<path style="fill:none;stroke:red;stroke-width:1px;stroke-linecap:butt;stroke-linejoin:miter;stroke-opacity:1" d="M 393.897,244.33 406.68,249.443 z" id="boundary" inkscape:connector-curvature="0" />
	<path style="fill:none;stroke:red;stroke-width:1px;stroke-linecap:butt;stroke-linejoin:miter;stroke-opacity:1" d="M 406.68,249.443 418.186,255.835 z" id="boundary" inkscape:connector-curvature="0" />
	<path style="fill:none;stroke:red;stroke-width:1px;stroke-linecap:butt;stroke-linejoin:miter;stroke-opacity:1" d="M 418.186,255.835 427.134,266.062 z" id="boundary" inkscape:connector-curvature="0" />
	<path style="fill:none;stroke:red;stroke-width:1px;stroke-linecap:butt;stroke-linejoin:miter;stroke-opacity:1" d="M 427.134,266.062 438.639,272.454 z" id="boundary" inkscape:connector-curvature="0" />
	<path style="fill:none;stroke:red;stroke-width:1px;stroke-linecap:butt;stroke-linejoin:miter;stroke-opacity:1" d="M 438.639,272.454 446.309,282.68 z" id="boundary" inkscape:connector-curvature="0" />
	<path style="fill:none;stroke:red;stroke-width:1px;stroke-linecap:butt;stroke-linejoin:miter;stroke-opacity:1" d="M 446.309,282.68 455.258,292.907 z" id="boundary" inkscape:connector-curvature="0" />
	<path style="fill:none;stroke:red;stroke-width:1px;stroke-linecap:butt;stroke-linejoin:miter;stroke-opacity:1" d="M 455.258,292.907 465.485,301.856 z" id="boundary" inkscape:connector-curvature="0" />
	<path style="fill:none;stroke:red;stroke-width:1px;stroke-linecap:butt;stroke-linejoin:miter;stroke-opacity:1" d="M 465.485,301.856 475.711,310.804 z" id="boundary" inkscape:connector-curvature="0" />
	<path style="fill:none;stroke:red;stroke-width:1px;stroke-linecap:butt;stroke-linejoin:miter;stroke-opacity:1" d="M 475.711,310.804 484.66,321.031 z" id="boundary" inkscape:connector-curvature="0" />
	<path style="fill:none;stroke:red;stroke-width:1px;stroke-linecap:butt;stroke-linejoin:miter;stroke-opacity:1" d="M 484.66,321.031 491.052,332.536 z" id="boundary" inkscape:connector-curvature="0" />
	<path style="fill:none;stroke:red;stroke-width:1px;stroke-linecap:butt;stroke-linejoin:miter;stroke-opacity:1" d="M 491.052,332.536 497.443,344.041 z" id="boundary" inkscape:connector-curvature="0" />
	<path style="fill:none;stroke:red;stroke-width:1px;stroke-linecap:butt;stroke-linejoin:miter;stroke-opacity:1" d="M 497.443,344.041 503.835,355.546 z" id="boundary" inkscape:connector-curvature="0" />
	<path style="fill:none;stroke:red;stroke-width:1px;stroke-linecap:butt;stroke-linejoin:miter;stroke-opacity:1" d="M 503.835,355.546 514.062,363.216 z" id="boundary" inkscape:connector-curvature="0" />
	<path style="fill:none;stroke:red;stroke-width:1px;stroke-linecap:butt;stroke-linejoin:miter;stroke-opacity:1" d="M 514.062,363.216 523.01,373.443 z" id="boundary" inkscape:connector-curvature="0" />
	<path style="fill:none;stroke:red;stroke-width:1px;stroke-linecap:butt;stroke-linejoin:miter;stroke-opacity:1" d="M 523.01,373.443 529.402,384.948 z" id="boundary" inkscape:connector-curvature="0" />
	<path style="fill:none;stroke:red;stroke-width:1px;stroke-linecap:butt;stroke-linejoin:miter;stroke-opacity:1" d="M 529.402,384.948 535.794,396.454 z" id="boundary" inkscape:connector-curvature="0" />
	<path style="fill:none;stroke:red;stroke-width:1px;stroke-linecap:butt;stroke-linejoin:miter;stroke-opacity:1" d="M 535.794,396.454 542.186,407.959 z" id="boundary" inkscape:connector-curvature="0" />
	<path style="fill:none;stroke:red;stroke-width:1px;stroke-linecap:butt;stroke-linejoin:miter;stroke-opacity:1" d="M 542.186,407.959 548.577,419.464 z" id="boundary" inkscape:connector-curvature="0" />
	<path style="fill:none;stroke:red;stroke-width:1px;stroke-linecap:butt;stroke-linejoin:miter;stroke-opacity:1" d="M 548.577,419.464 558.804,427.134 z" id="boundary" inkscape:connector-curvature="0" />
	<path style="fill:none;stroke:red;stroke-width:1px;stroke-linecap:butt;stroke-linejoin:miter;stroke-opacity:1" d="M 558.804,427.134 561.361,439.918 z" id="boundary" inkscape:connector-curvature="0" />
	<path style="fill:none;stroke:red;stroke-width:1px;stroke-linecap:butt;stroke-linejoin:miter;stroke-opacity:1" d="M 561.361,439.918 563.918,452.701 z" id="boundary" inkscape:connector-curvature="0" />
	<path style="fill:none;stroke:red;stroke-width:1px;stroke-linecap:butt;stroke-linejoin:miter;stroke-opacity:1" d="M 563.918,452.701 570.309,464.206 z" id="boundary" inkscape:connector-curvature="0" />
	<path style="fill:none;stroke:red;stroke-width:1px;stroke-linecap:butt;stroke-linejoin:miter;stroke-opacity:1" d="M 570.309,464.206 579.258,474.433 z" id="boundary" inkscape:connector-curvature="0" />
	<path style="fill:none;stroke:red;stroke-width:1px;stroke-linecap:butt;stroke-linejoin:miter;stroke-opacity:1" d="M 579.258,474.433 589.485,483.381 z" id="boundary" inkscape:connector-curvature="0" />
	<path style="fill:none;stroke:red;stroke-width:1px;stroke-linecap:butt;stroke-linejoin:miter;stroke-opacity:1" d="M 589.485,483.381 593.32,496.165 z" id="boundary" inkscape:connector-curvature="0" />
	<path style="fill:none;stroke:red;stroke-width:1px;stroke-linecap:butt;stroke-linejoin:miter;stroke-opacity:1" d="M 593.32,496.165 603.546,503.835 z" id="boundary" inkscape:connector-curvature="0" />
	<path style="fill:none;stroke:red;stroke-width:1px;stroke-linecap:butt;stroke-linejoin:miter;stroke-opacity:1" d="M 603.546,503.835 612.495,514.062 z" id="boundary" inkscape:connector-curvature="0" />
	<path style="fill:none;stroke:red;stroke-width:1px;stroke-linecap:butt;stroke-linejoin:miter;stroke-opacity:1" d="M 612.495,514.062 622.722,523.01 z" id="boundary" inkscape:connector-curvature="0" />
	<path style="fill:none;stroke:red;stroke-width:1px;stroke-linecap:butt;stroke-linejoin:miter;stroke-opacity:1" d="M 622.722,523.01 634.227,529.402 z" id="boundary" inkscape:connector-curvature="0" />
	<path style="fill:none;stroke:red;stroke-width:1px;stroke-linecap:butt;stroke-linejoin:miter;stroke-opacity:1" d="M 634.227,529.402 644.454,538.351 z" id="boundary" inkscape:connector-curvature="0" />
	<path style="fill:none;stroke:red;stroke-width:1px;stroke-linecap:butt;stroke-linejoin:miter;stroke-opacity:1" d="M 644.454,538.351 655.959,544.742 z" id="boundary" inkscape:connector-curvature="0" />
	<path style="fill:none;stroke:red;stroke-width:1px;stroke-linecap:butt;stroke-linejoin:miter;stroke-opacity:1" d="M 655.959,544.742 666.186,553.691 z" id="boundary" inkscape:connector-curvature="0" />
	<path style="fill:none;stroke:red;stroke-width:1px;stroke-linecap:butt;stroke-linejoin:miter;stroke-opacity:1" d="M 666.186,553.691 677.691,560.082 z" id="boundary" inkscape:connector-curvature="0" />
	<path style="fill:none;stroke:red;stroke-width:1px;stroke-linecap:butt;stroke-linejoin:miter;stroke-opacity:1" d="M 677.691,560.082 689.196,566.474 z" id="boundary" inkscape:connector-curvature="0" />
	<path style="fill:none;stroke:red;stroke-width:1px;stroke-linecap:butt;stroke-linejoin:miter;stroke-opacity:1" d="M 689.196,566.474 701.979,570.309 z" id="boundary" inkscape:connector-curvature="0" />
	<path style="fill:none;stroke:red;stroke-width:1px;stroke-linecap:butt;stroke-linejoin:miter;stroke-opacity:1" d="M 701.979,570.309 712.206,579.258 z" id="boundary" inkscape:connector-curvature="0" />
	<path style="fill:none;stroke:red;stroke-width:1px;stroke-linecap:butt;stroke-linejoin:miter;stroke-opacity:1" d="M 712.206,579.258 724.99,580.536 z" id="boundary" inkscape:connector-curvature="0" />
	<path style="fill:none;stroke:red;stroke-width:1px;stroke-linecap:butt;stroke-linejoin:miter;stroke-opacity:1" d="M 724.99,580.536 736.495,586.928 z" id="boundary" inkscape:connector-curvature="0" />
	<path style="fill:none;stroke:red;stroke-width:1px;stroke-linecap:butt;stroke-linejoin:miter;stroke-opacity:1" d="M 736.495,586.928 749.278,592.041 z" id="boundary" inkscape:connector-curvature="0" />
	<path style="fill:none;stroke:red;stroke-width:1px;stroke-linecap:butt;stroke-linejoin:miter;stroke-opacity:1" d="M 749.278,592.041 760.784,598.433 z" id="boundary" inkscape:connector-curvature="0" />
	<path style="fill:none;stroke:red;stroke-width:1px;stroke-linecap:butt;stroke-linejoin:miter;stroke-opacity:1" d="M 760.784,598.433 772.289,604.825 z" id="boundary" inkscape:connector-curvature="0" />
	<path style="fill:none;stroke:red;stroke-width:1px;stroke-linecap:butt;stroke-linejoin:miter;stroke-opacity:1" d="M 772.289,604.825 783.794,611.216 z" id="boundary" inkscape:connector-curvature="0" />
	<path style="fill:none;stroke:red;stroke-width:1px;stroke-linecap:butt;stroke-linejoin:miter;stroke-opacity:1" d="M 783.794,611.216 796.577,613.773 z" id="boundary" inkscape:connector-curvature="0" />
	<path style="fill:none;stroke:red;stroke-width:1px;stroke-linecap:butt;stroke-linejoin:miter;stroke-opacity:1" d="M 796.577,613.773 809.361,617.608 z" id="boundary" inkscape:connector-curvature="0" />
	<path style="fill:none;stroke:red;stroke-width:1px;stroke-linecap:butt;stroke-linejoin:miter;stroke-opacity:1" d="M 809.361,617.608 822.144,617.608 z" id="boundary" inkscape:connector-curvature="0" />
	<path style="fill:none;stroke:red;stroke-width:1px;stroke-linecap:butt;stroke-linejoin:miter;stroke-opacity:1" d="M 822.144,617.608 834.928,617.608 z" id="boundary" inkscape:connector-curvature="0" />
	<path style="fill:none;stroke:red;stroke-width:1px;stroke-linecap:butt;stroke-linejoin:miter;stroke-opacity:1" d="M 834.928,617.608 847.711,615.052 z" id="boundary" inkscape:connector-curvature="0" />
	<path style="fill:none;stroke:red;stroke-width:1px;stroke-linecap:butt;stroke-linejoin:miter;stroke-opacity:1" d="M 847.711,615.052 860.495,611.216 z" id="boundary" inkscape:connector-curvature="0" />
	<path style="fill:none;stroke:red;stroke-width:1px;stroke-linecap:butt;stroke-linejoin:miter;stroke-opacity:1" d="M 860.495,611.216 873.278,608.66 z" id="boundary" inkscape:connector-curvature="0" />
	<path style="fill:none;stroke:red;stroke-width:1px;stroke-linecap:butt;stroke-linejoin:miter;stroke-opacity:1" d="M 873.278,608.66 883.505,598.433 z" id="boundary" inkscape:connector-curvature="0" />
	<path style="fill:none;stroke:red;stroke-width:1px;stroke-linecap:butt;stroke-linejoin:miter;stroke-opacity:1" d="M 883.505,598.433 895.01,592.041 z" id="boundary" inkscape:connector-curvature="0" />
	<path style="fill:none;stroke:red;stroke-width:1px;stroke-linecap:butt;stroke-linejoin:miter;stroke-opacity:1" d="M 895.01,592.041 906.515,585.649 z" id="boundary" inkscape:connector-curvature="0" />
	<path style="fill:none;stroke:red;stroke-width:1px;stroke-linecap:butt;stroke-linejoin:miter;stroke-opacity:1" d="M 906.515,585.649 918.021,579.258 z" id="boundary" inkscape:connector-curvature="0" />
	<path style="fill:none;stroke:red;stroke-width:1px;stroke-linecap:butt;stroke-linejoin:miter;stroke-opacity:1" d="M 918.021,579.258 925.691,569.031 z" id="boundary" inkscape:connector-curvature="0" />
	<path style="fill:none;stroke:red;stroke-width:1px;stroke-linecap:butt;stroke-linejoin:miter;stroke-opacity:1" d="M 925.691,569.031 932.082,556.247 z" id="boundary" inkscape:connector-curvature="0" />
	<path style="fill:none;stroke:red;stroke-width:1px;stroke-linecap:butt;stroke-linejoin:miter;stroke-opacity:1" d="M 932.082,556.247 938.474,543.464 z" id="boundary" inkscape:connector-curvature="0" />
	<path style="fill:none;stroke:red;stroke-width:1px;stroke-linecap:butt;stroke-linejoin:miter;stroke-opacity:1" d="M 938.474,543.464 944.866,530.68 z" id="boundary" inkscape:connector-curvature="0" />
	<path style="fill:none;stroke:red;stroke-width:1px;stroke-linecap:butt;stroke-linejoin:miter;stroke-opacity:1" d="M 944.866,530.68 949.979,514.062 z" id="boundary" inkscape:connector-curvature="0" />
	<path style="fill:none;stroke:red;stroke-width:1px;stroke-linecap:butt;stroke-linejoin:miter;stroke-opacity:1" d="M 949.979,514.062 949.979,501.278 z" id="boundary" inkscape:connector-curvature="0" />
	<path style="fill:none;stroke:red;stroke-width:1px;stroke-linecap:butt;stroke-linejoin:miter;stroke-opacity:1" d="M 949.979,501.278 949.979,488.495 z" id="boundary" inkscape:connector-curvature="0" />
	<path style="fill:none;stroke:red;stroke-width:1px;stroke-linecap:butt;stroke-linejoin:miter;stroke-opacity:1" d="M 949.979,488.495 949.979,475.711 z" id="boundary" inkscape:connector-curvature="0" />
	<path style="fill:none;stroke:red;stroke-width:1px;stroke-linecap:butt;stroke-linejoin:miter;stroke-opacity:1" d="M 949.979,475.711 946.144,462.928 z" id="boundary" inkscape:connector-curvature="0" />
	<path style="fill:none;stroke:red;stroke-width:1px;stroke-linecap:butt;stroke-linejoin:miter;stroke-opacity:1" d="M 946.144,462.928 939.753,451.423 z" id="boundary" inkscape:connector-curvature="0" />
	<path style="fill:none;stroke:red;stroke-width:1px;stroke-linecap:butt;stroke-linejoin:miter;stroke-opacity:1" d="M 939.753,451.423 930.804,441.196 z" id="boundary" inkscape:connector-curvature="0" />
	<path style="fill:none;stroke:red;stroke-width:1px;stroke-linecap:butt;stroke-linejoin:miter;stroke-opacity:1" d="M 930.804,441.196 924.412,429.691 z" id="boundary" inkscape:connector-curvature="0" />
	<path style="fill:none;stroke:red;stroke-width:1px;stroke-linecap:butt;stroke-linejoin:miter;stroke-opacity:1" d="M 924.412,429.691 912.907,423.299 z" id="boundary" inkscape:connector-curvature="0" />
	<path style="fill:none;stroke:red;stroke-width:1px;stroke-linecap:butt;stroke-linejoin:miter;stroke-opacity:1" d="M 912.907,423.299 902.68,414.351 z" id="boundary" inkscape:connector-curvature="0" />
	<path style="fill:none;stroke:red;stroke-width:1px;stroke-linecap:butt;stroke-linejoin:miter;stroke-opacity:1" d="M 902.68,414.351 891.175,407.959 z" id="boundary" inkscape:connector-curvature="0" />
	<path style="fill:none;stroke:red;stroke-width:1px;stroke-linecap:butt;stroke-linejoin:miter;stroke-opacity:1" d="M 891.175,407.959 879.67,401.567 z" id="boundary" inkscape:connector-curvature="0" />
	<path style="fill:none;stroke:red;stroke-width:1px;stroke-linecap:butt;stroke-linejoin:miter;stroke-opacity:1" d="M 879.67,401.567 866.887,397.732 z" id="boundary" inkscape:connector-curvature="0" />
	<path style="fill:none;stroke:red;stroke-width:1px;stroke-linecap:butt;stroke-linejoin:miter;stroke-opacity:1" d="M 866.887,397.732 877.113,387.505 z" id="boundary" inkscape:connector-curvature="0" />
	<path style="fill:none;stroke:red;stroke-width:1px;stroke-linecap:butt;stroke-linejoin:miter;stroke-opacity:1" d="M 877.113,387.505 889.897,387.505 z" id="boundary" inkscape:connector-curvature="0" />
	<path style="fill:none;stroke:red;stroke-width:1px;stroke-linecap:butt;stroke-linejoin:miter;stroke-opacity:1" d="M 889.897,387.505 901.402,393.897 z" id="boundary" inkscape:connector-curvature="0" />
	<path style="fill:none;stroke:red;stroke-width:1px;stroke-linecap:butt;stroke-linejoin:miter;stroke-opacity:1" d="M 901.402,393.897 914.186,393.897 z" id="boundary" inkscape:connector-curvature="0" />
	<path style="fill:none;stroke:red;stroke-width:1px;stroke-linecap:butt;stroke-linejoin:miter;stroke-opacity:1" d="M 914.186,393.897 925.691,400.289 z" id="boundary" inkscape:connector-curvature="0" />
	<path style="fill:none;stroke:red;stroke-width:1px;stroke-linecap:butt;stroke-linejoin:miter;stroke-opacity:1" d="M 925.691,400.289 938.474,404.124 z" id="boundary" inkscape:connector-curvature="0" />
	<path style="fill:none;stroke:red;stroke-width:1px;stroke-linecap:butt;stroke-linejoin:miter;stroke-opacity:1" d="M 938.474,404.124 948.701,413.072 z" id="boundary" inkscape:connector-curvature="0" />
	<path style="fill:none;stroke:red;stroke-width:1px;stroke-linecap:butt;stroke-linejoin:miter;stroke-opacity:1" d="M 948.701,413.072 960.206,419.464 z" id="boundary" inkscape:connector-curvature="0" />
	<path style="fill:none;stroke:red;stroke-width:1px;stroke-linecap:butt;stroke-linejoin:miter;stroke-opacity:1" d="M 960.206,419.464 969.155,429.691 z" id="boundary" inkscape:connector-curvature="0" />
	<path style="fill:none;stroke:red;stroke-width:1px;stroke-linecap:butt;stroke-linejoin:miter;stroke-opacity:1" d="M 969.155,429.691 976.825,439.918 z" id="boundary" inkscape:connector-curvature="0" />
	<path style="fill:none;stroke:red;stroke-width:1px;stroke-linecap:butt;stroke-linejoin:miter;stroke-opacity:1" d="M 976.825,439.918 983.216,451.423 z" id="boundary" inkscape:connector-curvature="0" />
	<path style="fill:none;stroke:red;stroke-width:1px;stroke-linecap:butt;stroke-linejoin:miter;stroke-opacity:1" d="M 983.216,451.423 989.608,462.928 z" id="boundary" inkscape:connector-curvature="0" />
	<path style="fill:none;stroke:red;stroke-width:1px;stroke-linecap:butt;stroke-linejoin:miter;stroke-opacity:1" d="M 989.608,462.928 989.608,475.711 z" id="boundary" inkscape:connector-curvature="0" />
	<path style="fill:none;stroke:red;stroke-width:1px;stroke-linecap:butt;stroke-linejoin:miter;stroke-opacity:1" d="M 989.608,475.711 996,487.216 z" id="boundary" inkscape:connector-curvature="0" />
	<path style="fill:none;stroke:red;stroke-width:1px;stroke-linecap:butt;stroke-linejoin:miter;stroke-opacity:1" d="M 996,487.216 996,500 z" id="boundary" inkscape:connector-curvature="0" />
	<path style="fill:none;stroke:red;stroke-width:1px;stroke-linecap:butt;stroke-linejoin:miter;stroke-opacity:1" d="M 996,500 996,512.784 z" id="boundary" inkscape:connector-curvature="0" />
	<path style="fill:none;stroke:red;stroke-width:1px;stroke-linecap:butt;stroke-linejoin:miter;stroke-opacity:1" d="M 996,512.784 996,525.567 z" id="boundary" inkscape:connector-curvature="0" />
	<path style="fill:none;stroke:red;stroke-width:1px;stroke-linecap:butt;stroke-linejoin:miter;stroke-opacity:1" d="M 996,525.567 996,542.186 z" id="boundary" inkscape:connector-curvature="0" />
	<path style="fill:none;stroke:red;stroke-width:1px;stroke-linecap:butt;stroke-linejoin:miter;stroke-opacity:1" d="M 996,542.186 996,554.969 z" id="boundary" inkscape:connector-curvature="0" />
	<path style="fill:none;stroke:red;stroke-width:1px;stroke-linecap:butt;stroke-linejoin:miter;stroke-opacity:1" d="M 996,554.969 996,567.753 z" id="boundary" inkscape:connector-curvature="0" />
	<path style="fill:none;stroke:red;stroke-width:1px;stroke-linecap:butt;stroke-linejoin:miter;stroke-opacity:1" d="M 271.175,673.856 280.124,657.237 z" id="boundary" inkscape:connector-curvature="0" />
	<path style="fill:none;stroke:red;stroke-width:1px;stroke-linecap:butt;stroke-linejoin:miter;stroke-opacity:1" d="M 280.124,657.237 291.629,663.629 z" id="boundary" inkscape:connector-curvature="0" />
	<path style="fill:none;stroke:red;stroke-width:1px;stroke-linecap:butt;stroke-linejoin:miter;stroke-opacity:1" d="M 291.629,663.629 299.299,650.845 z" id="boundary" inkscape:connector-curvature="0" />
	<path style="fill:none;stroke:red;stroke-width:1px;stroke-linecap:butt;stroke-linejoin:miter;stroke-opacity:1" d="M 299.299,650.845 299.299,638.062 z" id="boundary" inkscape:connector-curvature="0" />
	<path style="fill:none;stroke:red;stroke-width:1px;stroke-linecap:butt;stroke-linejoin:miter;stroke-opacity:1" d="M 299.299,638.062 309.526,629.113 z" id="boundary" inkscape:connector-curvature="0" />
	<path style="fill:none;stroke:red;stroke-width:1px;stroke-linecap:butt;stroke-linejoin:miter;stroke-opacity:1" d="M 996,567.753 989.608,586.928 z" id="boundary" inkscape:connector-curvature="0" />
	<path style="fill:none;stroke:red;stroke-width:1px;stroke-linecap:butt;stroke-linejoin:miter;stroke-opacity:1" d="M 989.608,586.928 989.608,599.711 z" id="boundary" inkscape:connector-curvature="0" />
	<path style="fill:none;stroke:red;stroke-width:1px;stroke-linecap:butt;stroke-linejoin:miter;stroke-opacity:1" d="M 989.608,599.711 983.216,612.495 z" id="boundary" inkscape:connector-curvature="0" />
	<path style="fill:none;stroke:red;stroke-width:1px;stroke-linecap:butt;stroke-linejoin:miter;stroke-opacity:1" d="M 983.216,612.495 974.268,629.113 z" id="boundary" inkscape:connector-curvature="0" />
	<path style="fill:none;stroke:red;stroke-width:1px;stroke-linecap:butt;stroke-linejoin:miter;stroke-opacity:1" d="M 974.268,629.113 964.041,638.062 z" id="boundary" inkscape:connector-curvature="0" />
	<path style="fill:none;stroke:red;stroke-width:1px;stroke-linecap:butt;stroke-linejoin:miter;stroke-opacity:1" d="M 964.041,638.062 956.371,650.845 z" id="boundary" inkscape:connector-curvature="0" />
	<path style="fill:none;stroke:red;stroke-width:1px;stroke-linecap:butt;stroke-linejoin:miter;stroke-opacity:1" d="M 956.371,650.845 944.866,657.237 z" id="boundary" inkscape:connector-curvature="0" />
	<path style="fill:none;stroke:red;stroke-width:1px;stroke-linecap:butt;stroke-linejoin:miter;stroke-opacity:1" d="M 944.866,657.237 942.309,673.856 z" id="boundary" inkscape:connector-curvature="0" />
	<path style="fill:none;stroke:red;stroke-width:1px;stroke-linecap:butt;stroke-linejoin:miter;stroke-opacity:1" d="M 942.309,673.856 929.526,680.247 z" id="boundary" inkscape:connector-curvature="0" />
	<path style="fill:none;stroke:red;stroke-width:1px;stroke-linecap:butt;stroke-linejoin:miter;stroke-opacity:1" d="M 929.526,680.247 919.299,689.196 z" id="boundary" inkscape:connector-curvature="0" />
	<path style="fill:none;stroke:red;stroke-width:1px;stroke-linecap:butt;stroke-linejoin:miter;stroke-opacity:1" d="M 919.299,689.196 906.515,689.196 z" id="boundary" inkscape:connector-curvature="0" />
	<path style="fill:none;stroke:red;stroke-width:1px;stroke-linecap:butt;stroke-linejoin:miter;stroke-opacity:1" d="M 906.515,689.196 895.01,695.588 z" id="boundary" inkscape:connector-curvature="0" />
	<path style="fill:none;stroke:red;stroke-width:1px;stroke-linecap:butt;stroke-linejoin:miter;stroke-opacity:1" d="M 895.01,695.588 883.505,701.979 z" id="boundary" inkscape:connector-curvature="0" />
	<path style="fill:none;stroke:red;stroke-width:1px;stroke-linecap:butt;stroke-linejoin:miter;stroke-opacity:1" d="M 883.505,701.979 870.722,707.093 z" id="boundary" inkscape:connector-curvature="0" />
	<path style="fill:none;stroke:red;stroke-width:1px;stroke-linecap:butt;stroke-linejoin:miter;stroke-opacity:1" d="M 870.722,707.093 857.938,708.371 z" id="boundary" inkscape:connector-curvature="0" />
	<path style="fill:none;stroke:red;stroke-width:1px;stroke-linecap:butt;stroke-linejoin:miter;stroke-opacity:1" d="M 857.938,708.371 845.155,708.371 z" id="boundary" inkscape:connector-curvature="0" />
	<path style="fill:none;stroke:red;stroke-width:1px;stroke-linecap:butt;stroke-linejoin:miter;stroke-opacity:1" d="M 845.155,708.371 833.649,714.763 z" id="boundary" inkscape:connector-curvature="0" />
	<path style="fill:none;stroke:red;stroke-width:1px;stroke-linecap:butt;stroke-linejoin:miter;stroke-opacity:1" d="M 833.649,714.763 822.144,721.155 z" id="boundary" inkscape:connector-curvature="0" />
	<path style="fill:none;stroke:red;stroke-width:1px;stroke-linecap:butt;stroke-linejoin:miter;stroke-opacity:1" d="M 822.144,721.155 809.361,723.711 z" id="boundary" inkscape:connector-curvature="0" />
	<path style="fill:none;stroke:red;stroke-width:1px;stroke-linecap:butt;stroke-linejoin:miter;stroke-opacity:1" d="M 809.361,723.711 796.577,727.546 z" id="boundary" inkscape:connector-curvature="0" />
	<path style="fill:none;stroke:red;stroke-width:1px;stroke-linecap:butt;stroke-linejoin:miter;stroke-opacity:1" d="M 796.577,727.546 785.072,721.155 z" id="boundary" inkscape:connector-curvature="0" />
	<path style="fill:none;stroke:red;stroke-width:1px;stroke-linecap:butt;stroke-linejoin:miter;stroke-opacity:1" d="M 785.072,721.155 772.289,721.155 z" id="boundary" inkscape:connector-curvature="0" />
	<path style="fill:none;stroke:red;stroke-width:1px;stroke-linecap:butt;stroke-linejoin:miter;stroke-opacity:1" d="M 772.289,721.155 759.505,721.155 z" id="boundary" inkscape:connector-curvature="0" />
	<path style="fill:none;stroke:red;stroke-width:1px;stroke-linecap:butt;stroke-linejoin:miter;stroke-opacity:1" d="M 759.505,721.155 748,727.546 z" id="boundary" inkscape:connector-curvature="0" />
	<path style="fill:none;stroke:red;stroke-width:1px;stroke-linecap:butt;stroke-linejoin:miter;stroke-opacity:1" d="M 748,727.546 735.216,724.99 z" id="boundary" inkscape:connector-curvature="0" />
	<path style="fill:none;stroke:red;stroke-width:1px;stroke-linecap:butt;stroke-linejoin:miter;stroke-opacity:1" d="M 735.216,724.99 722.433,721.155 z" id="boundary" inkscape:connector-curvature="0" />
	<path style="fill:none;stroke:red;stroke-width:1px;stroke-linecap:butt;stroke-linejoin:miter;stroke-opacity:1" d="M 722.433,721.155 709.649,719.876 z" id="boundary" inkscape:connector-curvature="0" />
	<path style="fill:none;stroke:red;stroke-width:1px;stroke-linecap:butt;stroke-linejoin:miter;stroke-opacity:1" d="M 709.649,719.876 698.144,713.485 z" id="boundary" inkscape:connector-curvature="0" />
	<path style="fill:none;stroke:red;stroke-width:1px;stroke-linecap:butt;stroke-linejoin:miter;stroke-opacity:1" d="M 698.144,713.485 685.361,708.371 z" id="boundary" inkscape:connector-curvature="0" />
	<path style="fill:none;stroke:red;stroke-width:1px;stroke-linecap:butt;stroke-linejoin:miter;stroke-opacity:1" d="M 685.361,708.371 672.577,708.371 z" id="boundary" inkscape:connector-curvature="0" />
	<path style="fill:none;stroke:red;stroke-width:1px;stroke-linecap:butt;stroke-linejoin:miter;stroke-opacity:1" d="M 672.577,708.371 659.794,707.093 z" id="boundary" inkscape:connector-curvature="0" />
	<path style="fill:none;stroke:red;stroke-width:1px;stroke-linecap:butt;stroke-linejoin:miter;stroke-opacity:1" d="M 659.794,707.093 647.01,701.979 z" id="boundary" inkscape:connector-curvature="0" />
	<path style="fill:none;stroke:red;stroke-width:1px;stroke-linecap:butt;stroke-linejoin:miter;stroke-opacity:1" d="M 647.01,701.979 634.227,701.979 z" id="boundary" inkscape:connector-curvature="0" />
	<path style="fill:none;stroke:red;stroke-width:1px;stroke-linecap:butt;stroke-linejoin:miter;stroke-opacity:1" d="M 634.227,701.979 621.443,701.979 z" id="boundary" inkscape:connector-curvature="0" />
	<path style="fill:none;stroke:red;stroke-width:1px;stroke-linecap:butt;stroke-linejoin:miter;stroke-opacity:1" d="M 621.443,701.979 609.938,695.588 z" id="boundary" inkscape:connector-curvature="0" />
	<path style="fill:none;stroke:red;stroke-width:1px;stroke-linecap:butt;stroke-linejoin:miter;stroke-opacity:1" d="M 609.938,695.588 598.433,689.196 z" id="boundary" inkscape:connector-curvature="0" />
	<path style="fill:none;stroke:red;stroke-width:1px;stroke-linecap:butt;stroke-linejoin:miter;stroke-opacity:1" d="M 598.433,689.196 585.649,689.196 z" id="boundary" inkscape:connector-curvature="0" />
	<path style="fill:none;stroke:red;stroke-width:1px;stroke-linecap:butt;stroke-linejoin:miter;stroke-opacity:1" d="M 585.649,689.196 572.866,689.196 z" id="boundary" inkscape:connector-curvature="0" />
	<path style="fill:none;stroke:red;stroke-width:1px;stroke-linecap:butt;stroke-linejoin:miter;stroke-opacity:1" d="M 572.866,689.196 561.361,682.804 z" id="boundary" inkscape:connector-curvature="0" />
	<path style="fill:none;stroke:red;stroke-width:1px;stroke-linecap:butt;stroke-linejoin:miter;stroke-opacity:1" d="M 561.361,682.804 548.577,689.196 z" id="boundary" inkscape:connector-curvature="0" />
	<path style="fill:none;stroke:red;stroke-width:1px;stroke-linecap:butt;stroke-linejoin:miter;stroke-opacity:1" d="M 548.577,689.196 535.794,689.196 z" id="boundary" inkscape:connector-curvature="0" />
	<path style="fill:none;stroke:red;stroke-width:1px;stroke-linecap:butt;stroke-linejoin:miter;stroke-opacity:1" d="M 535.794,689.196 523.01,689.196 z" id="boundary" inkscape:connector-curvature="0" />
	<path style="fill:none;stroke:red;stroke-width:1px;stroke-linecap:butt;stroke-linejoin:miter;stroke-opacity:1" d="M 523.01,689.196 510.227,689.196 z" id="boundary" inkscape:connector-curvature="0" />
	<path style="fill:none;stroke:red;stroke-width:1px;stroke-linecap:butt;stroke-linejoin:miter;stroke-opacity:1" d="M 510.227,689.196 497.443,689.196 z" id="boundary" inkscape:connector-curvature="0" />
	<path style="fill:none;stroke:red;stroke-width:1px;stroke-linecap:butt;stroke-linejoin:miter;stroke-opacity:1" d="M 497.443,689.196 484.66,695.588 z" id="boundary" inkscape:connector-curvature="0" />
	<path style="fill:none;stroke:red;stroke-width:1px;stroke-linecap:butt;stroke-linejoin:miter;stroke-opacity:1" d="M 484.66,695.588 471.876,695.588 z" id="boundary" inkscape:connector-curvature="0" />
	<path style="fill:none;stroke:red;stroke-width:1px;stroke-linecap:butt;stroke-linejoin:miter;stroke-opacity:1" d="M 471.876,695.588 459.093,695.588 z" id="boundary" inkscape:connector-curvature="0" />
	<path style="fill:none;stroke:red;stroke-width:1px;stroke-linecap:butt;stroke-linejoin:miter;stroke-opacity:1" d="M 459.093,695.588 451.423,685.361 z" id="boundary" inkscape:connector-curvature="0" />
	<path style="fill:none;stroke:red;stroke-width:1px;stroke-linecap:butt;stroke-linejoin:miter;stroke-opacity:1" d="M 451.423,685.361 451.423,672.577 z" id="boundary" inkscape:connector-curvature="0" />
	<path style="fill:none;stroke:red;stroke-width:1px;stroke-linecap:butt;stroke-linejoin:miter;stroke-opacity:1" d="M 451.423,672.577 461.649,662.351 z" id="boundary" inkscape:connector-curvature="0" />
	<path style="fill:none;stroke:red;stroke-width:1px;stroke-linecap:butt;stroke-linejoin:miter;stroke-opacity:1" d="M 461.649,662.351 473.155,655.959 z" id="boundary" inkscape:connector-curvature="0" />
	<path style="fill:none;stroke:red;stroke-width:1px;stroke-linecap:butt;stroke-linejoin:miter;stroke-opacity:1" d="M 473.155,655.959 485.938,650.845 z" id="boundary" inkscape:connector-curvature="0" />
	<path style="fill:none;stroke:red;stroke-width:1px;stroke-linecap:butt;stroke-linejoin:miter;stroke-opacity:1" d="M 485.938,650.845 485.938,638.062 z" id="boundary" inkscape:connector-curvature="0" />
	<path style="fill:none;stroke:red;stroke-width:1px;stroke-linecap:butt;stroke-linejoin:miter;stroke-opacity:1" d="M 485.938,638.062 474.433,631.67 z" id="boundary" inkscape:connector-curvature="0" />
	<path style="fill:none;stroke:red;stroke-width:1px;stroke-linecap:butt;stroke-linejoin:miter;stroke-opacity:1" d="M 474.433,631.67 462.928,625.278 z" id="boundary" inkscape:connector-curvature="0" />
	<path style="fill:none;stroke:red;stroke-width:1px;stroke-linecap:butt;stroke-linejoin:miter;stroke-opacity:1" d="M 462.928,625.278 452.701,616.33 z" id="boundary" inkscape:connector-curvature="0" />
	<path style="fill:none;stroke:red;stroke-width:1px;stroke-linecap:butt;stroke-linejoin:miter;stroke-opacity:1" d="M 452.701,616.33 445.031,606.103 z" id="boundary" inkscape:connector-curvature="0" />
	<path style="fill:none;stroke:red;stroke-width:1px;stroke-linecap:butt;stroke-linejoin:miter;stroke-opacity:1" d="M 445.031,606.103 434.804,597.155 z" id="boundary" inkscape:connector-curvature="0" />
	<path style="fill:none;stroke:red;stroke-width:1px;stroke-linecap:butt;stroke-linejoin:miter;stroke-opacity:1" d="M 434.804,597.155 422.021,592.041 z" id="boundary" inkscape:connector-curvature="0" />
	<path style="fill:none;stroke:red;stroke-width:1px;stroke-linecap:butt;stroke-linejoin:miter;stroke-opacity:1" d="M 422.021,592.041 410.515,585.649 z" id="boundary" inkscape:connector-curvature="0" />
	<path style="fill:none;stroke:red;stroke-width:1px;stroke-linecap:butt;stroke-linejoin:miter;stroke-opacity:1" d="M 410.515,585.649 397.732,580.536 z" id="boundary" inkscape:connector-curvature="0" />
	<path style="fill:none;stroke:red;stroke-width:1px;stroke-linecap:butt;stroke-linejoin:miter;stroke-opacity:1" d="M 397.732,580.536 388.784,570.309 z" id="boundary" inkscape:connector-curvature="0" />
	<path style="fill:none;stroke:red;stroke-width:1px;stroke-linecap:butt;stroke-linejoin:miter;stroke-opacity:1" d="M 388.784,570.309 376,567.753 z" id="boundary" inkscape:connector-curvature="0" />
	<path style="fill:none;stroke:red;stroke-width:1px;stroke-linecap:butt;stroke-linejoin:miter;stroke-opacity:1" d="M 376,567.753 364.495,561.361 z" id="boundary" inkscape:connector-curvature="0" />
	<path style="fill:none;stroke:red;stroke-width:1px;stroke-linecap:butt;stroke-linejoin:miter;stroke-opacity:1" d="M 364.495,561.361 352.99,554.969 z" id="boundary" inkscape:connector-curvature="0" />
	<path style="fill:none;stroke:red;stroke-width:1px;stroke-linecap:butt;stroke-linejoin:miter;stroke-opacity:1" d="M 352.99,554.969 344.041,544.742 z" id="boundary" inkscape:connector-curvature="0" />
	<path style="fill:none;stroke:red;stroke-width:1px;stroke-linecap:butt;stroke-linejoin:miter;stroke-opacity:1" d="M 344.041,544.742 333.814,535.794 z" id="boundary" inkscape:connector-curvature="0" />
	<path style="fill:none;stroke:red;stroke-width:1px;stroke-linecap:butt;stroke-linejoin:miter;stroke-opacity:1" d="M 333.814,535.794 324.866,525.567 z" id="boundary" inkscape:connector-curvature="0" />
	<path style="fill:none;stroke:red;stroke-width:1px;stroke-linecap:butt;stroke-linejoin:miter;stroke-opacity:1" d="M 324.866,525.567 312.082,523.01 z" id="boundary" inkscape:connector-curvature="0" />
	<path style="fill:none;stroke:red;stroke-width:1px;stroke-linecap:butt;stroke-linejoin:miter;stroke-opacity:1" d="M 312.082,523.01 309.526,539.629 z" id="boundary" inkscape:connector-curvature="0" />
	<path style="fill:none;stroke:red;stroke-width:1px;stroke-linecap:butt;stroke-linejoin:miter;stroke-opacity:1" d="M 309.526,539.629 299.299,548.577 z" id="boundary" inkscape:connector-curvature="0" />
	<path style="fill:none;stroke:red;stroke-width:1px;stroke-linecap:butt;stroke-linejoin:miter;stroke-opacity:1" d="M 299.299,548.577 299.299,561.361 z" id="boundary" inkscape:connector-curvature="0" />
	<path style="fill:none;stroke:red;stroke-width:1px;stroke-linecap:butt;stroke-linejoin:miter;stroke-opacity:1" d="M 299.299,561.361 301.856,574.144 z" id="boundary" inkscape:connector-curvature="0" />
	<path style="fill:none;stroke:red;stroke-width:1px;stroke-linecap:butt;stroke-linejoin:miter;stroke-opacity:1" d="M 301.856,574.144 312.082,583.093 z" id="boundary" inkscape:connector-curvature="0" />
	<path style="fill:none;stroke:red;stroke-width:1px;stroke-linecap:butt;stroke-linejoin:miter;stroke-opacity:1" d="M 312.082,583.093 312.082,595.876 z" id="boundary" inkscape:connector-curvature="0" />
	<path style="fill:none;stroke:red;stroke-width:1px;stroke-linecap:butt;stroke-linejoin:miter;stroke-opacity:1" d="M 312.082,595.876 312.082,608.66 z" id="boundary" inkscape:connector-curvature="0" />
	<path style="fill:none;stroke:red;stroke-width:1px;stroke-linecap:butt;stroke-linejoin:miter;stroke-opacity:1" d="M 309.526,629.113 312.082,608.66 z" id="boundary" inkscape:connector-curvature="0" />
	<circle cx="4" cy="352.99" r="4" fill="#0" id="circle0"/>
	<circle cx="4" cy="365.773" r="4" fill="#0" id="circle1"/>
	<circle cx="10.3918" cy="377.278" r="4" fill="#0" id="circle2"/>
	<circle cx="14.2268" cy="342.763" r="4" fill="#0" id="circle3"/>
	<circle cx="19.3402" cy="387.505" r="4" fill="#0" id="circle4"/>
	<circle cx="20.6186" cy="329.979" r="4" fill="#0" id="circle5"/>
	<circle cx="23.1753" cy="78.1443" r="4" fill="#0" id="circle6"/>
	<circle cx="23.1753" cy="90.9278" r="4" fill="#0" id="circle7"/>
	<circle cx="23.1753" cy="103.711" r="4" fill="#0" id="circle8"/>
	<circle cx="23.1753" cy="116.495" r="4" fill="#0" id="circle9"/>
	<circle cx="23.1753" cy="129.278" r="4" fill="#0" id="circle10"/>
	<circle cx="27.0103" cy="317.196" r="4" fill="#0" id="circle11"/>
	<circle cx="29.567" cy="52.5773" r="4" fill="#0" id="circle12"/>
	<circle cx="29.567" cy="65.3608" r="4" fill="#0" id="circle13"/>
	<circle cx="29.567" cy="140.784" r="4" fill="#0" id="circle14"/>
	<circle cx="32.1237" cy="382.392" r="4" fill="#0" id="circle15"/>
	<circle cx="35.9588" cy="152.289" r="4" fill="#0" id="circle16"/>
	<circle cx="37.2371" cy="356.825" r="4" fill="#0" id="circle17"/>
	<circle cx="38.5155" cy="310.804" r="4" fill="#0" id="circle18"/>
	<circle cx="39.7938" cy="42.3505" r="4" fill="#0" id="circle19"/>
	<circle cx="42.3505" cy="163.794" r="4" fill="#0" id="circle20"/>
	<circle cx="43.6289" cy="368.33" r="4" fill="#0" id="circle21"/>
	<circle cx="46.1856" cy="29.567" r="4" fill="#0" id="circle22"/>
	<circle cx="47.4639" cy="347.876" r="4" fill="#0" id="circle23"/>
	<circle cx="48.7423" cy="175.299" r="4" fill="#0" id="circle24"/>
	<circle cx="50.0206" cy="304.412" r="4" fill="#0" id="circle25"/>
	<circle cx="55.134" cy="186.804" r="4" fill="#0" id="circle26"/>
	<circle cx="55.134" cy="199.588" r="4" fill="#0" id="circle27"/>
	<circle cx="56.4124" cy="19.3402" r="4" fill="#0" id="circle28"/>
	<circle cx="56.4124" cy="337.649" r="4" fill="#0" id="circle29"/>
	<circle cx="61.5258" cy="211.093" r="4" fill="#0" id="circle30"/>
	<circle cx="61.5258" cy="223.876" r="4" fill="#0" id="circle31"/>
	<circle cx="61.5258" cy="236.66" r="4" fill="#0" id="circle32"/>
	<circle cx="62.8041" cy="300.577" r="4" fill="#0" id="circle33"/>
	<circle cx="67.9175" cy="248.165" r="4" fill="#0" id="circle34"/>
	<circle cx="69.1959" cy="12.9485" r="4" fill="#0" id="circle35"/>
	<circle cx="69.1959" cy="337.649" r="4" fill="#0" id="circle36"/>
	<circle cx="74.3093" cy="259.67" r="4" fill="#0" id="circle37"/>
	<circle cx="74.3093" cy="384.948" r="4" fill="#0" id="circle38"/>
	<circle cx="74.3093" cy="397.732" r="4" fill="#0" id="circle39"/>
	<circle cx="75.5876" cy="294.186" r="4" fill="#0" id="circle40"/>
	<circle cx="76.866" cy="272.454" r="4" fill="#0" id="circle41"/>
	<circle cx="80.701" cy="409.237" r="4" fill="#0" id="circle42"/>
	<circle cx="80.701" cy="422.021" r="4" fill="#0" id="circle43"/>
	<circle cx="81.9794" cy="10.3918" r="4" fill="#0" id="circle44"/>
	<circle cx="81.9794" cy="337.649" r="4" fill="#0" id="circle45"/>
	<circle cx="84.5361" cy="374.722" r="4" fill="#0" id="circle46"/>
	<circle cx="87.0928" cy="280.124" r="4" fill="#0" id="circle47"/>
	<circle cx="89.6495" cy="432.247" r="4" fill="#0" id="circle48"/>
	<circle cx="94.7629" cy="6.5567" r="4" fill="#0" id="circle49"/>
	<circle cx="94.7629" cy="331.258" r="4" fill="#0" id="circle50"/>
	<circle cx="97.3196" cy="368.33" r="4" fill="#0" id="circle51"/>
	<circle cx="102.433" cy="433.526" r="4" fill="#0" id="circle52"/>
	<circle cx="107.546" cy="4" r="4" fill="#0" id="circle53"/>
	<circle cx="107.546" cy="324.866" r="4" fill="#0" id="circle54"/>
	<circle cx="110.103" cy="361.938" r="4" fill="#0" id="circle55"/>
	<circle cx="113.938" cy="427.134" r="4" fill="#0" id="circle56"/>
	<circle cx="120.33" cy="4" r="4" fill="#0" id="circle57"/>
	<circle cx="120.33" cy="120.33" r="4" fill="#0" id="circle58"/>
	<circle cx="120.33" cy="133.113" r="4" fill="#0" id="circle59"/>
	<circle cx="120.33" cy="318.474" r="4" fill="#0" id="circle60"/>
	<circle cx="122.887" cy="355.546" r="4" fill="#0" id="circle61"/>
	<circle cx="124.165" cy="418.186" r="4" fill="#0" id="circle62"/>
	<circle cx="126.722" cy="107.546" r="4" fill="#0" id="circle63"/>
	<circle cx="130.557" cy="140.784" r="4" fill="#0" id="circle64"/>
	<circle cx="130.557" cy="405.402" r="4" fill="#0" id="circle65"/>
	<circle cx="133.113" cy="4" r="4" fill="#0" id="circle66"/>
	<circle cx="133.113" cy="321.031" r="4" fill="#0" id="circle67"/>
	<circle cx="133.113" cy="345.32" r="4" fill="#0" id="circle68"/>
	<circle cx="136.948" cy="98.5979" r="4" fill="#0" id="circle69"/>
	<circle cx="138.227" cy="395.175" r="4" fill="#0" id="circle70"/>
	<circle cx="138.227" cy="678.969" r="4" fill="#0" id="circle71"/>
	<circle cx="138.227" cy="691.753" r="4" fill="#0" id="circle72"/>
	<circle cx="143.34" cy="144.619" r="4" fill="#0" id="circle73"/>
	<circle cx="143.34" cy="336.371" r="4" fill="#0" id="circle74"/>
	<circle cx="144.619" cy="10.3918" r="4" fill="#0" id="circle75"/>
	<circle cx="149.732" cy="94.7629" r="4" fill="#0" id="circle76"/>
	<circle cx="149.732" cy="388.784" r="4" fill="#0" id="circle77"/>
	<circle cx="151.01" cy="672.577" r="4" fill="#0" id="circle78"/>
	<circle cx="151.01" cy="689.196" r="4" fill="#0" id="circle79"/>
	<circle cx="154.845" cy="18.0619" r="4" fill="#0" id="circle80"/>
	<circle cx="156.124" cy="144.619" r="4" fill="#0" id="circle81"/>
	<circle cx="161.237" cy="381.113" r="4" fill="#0" id="circle82"/>
	<circle cx="162.515" cy="94.7629" r="4" fill="#0" id="circle83"/>
	<circle cx="162.515" cy="695.588" r="4" fill="#0" id="circle84"/>
	<circle cx="163.794" cy="668.742" r="4" fill="#0" id="circle85"/>
	<circle cx="167.629" cy="23.1753" r="4" fill="#0" id="circle86"/>
	<circle cx="167.629" cy="151.01" r="4" fill="#0" id="circle87"/>
	<circle cx="174.021" cy="101.155" r="4" fill="#0" id="circle88"/>
	<circle cx="174.021" cy="376" r="4" fill="#0" id="circle89"/>
	<circle cx="174.021" cy="701.979" r="4" fill="#0" id="circle90"/>
	<circle cx="175.299" cy="662.351" r="4" fill="#0" id="circle91"/>
	<circle cx="179.134" cy="29.567" r="4" fill="#0" id="circle92"/>
	<circle cx="179.134" cy="157.402" r="4" fill="#0" id="circle93"/>
	<circle cx="184.247" cy="384.948" r="4" fill="#0" id="circle94"/>
	<circle cx="185.526" cy="695.588" r="4" fill="#0" id="circle95"/>
	<circle cx="186.804" cy="101.155" r="4" fill="#0" id="circle96"/>
	<circle cx="186.804" cy="655.959" r="4" fill="#0" id="circle97"/>
	<circle cx="191.918" cy="29.567" r="4" fill="#0" id="circle98"/>
	<circle cx="191.918" cy="157.402" r="4" fill="#0" id="circle99"/>
	<circle cx="193.196" cy="395.175" r="4" fill="#0" id="circle100"/>
	<circle cx="197.031" cy="645.732" r="4" fill="#0" id="circle101"/>
	<circle cx="198.309" cy="695.588" r="4" fill="#0" id="circle102"/>
	<circle cx="199.588" cy="99.8763" r="4" fill="#0" id="circle103"/>
	<circle cx="202.144" cy="166.351" r="4" fill="#0" id="circle104"/>
	<circle cx="203.423" cy="35.9588" r="4" fill="#0" id="circle105"/>
	<circle cx="203.423" cy="404.124" r="4" fill="#0" id="circle106"/>
	<circle cx="209.814" cy="639.34" r="4" fill="#0" id="circle107"/>
	<circle cx="211.093" cy="695.588" r="4" fill="#0" id="circle108"/>
	<circle cx="212.371" cy="94.7629" r="4" fill="#0" id="circle109"/>
	<circle cx="212.371" cy="414.351" r="4" fill="#0" id="circle110"/>
	<circle cx="214.928" cy="170.186" r="4" fill="#0" id="circle111"/>
	<circle cx="214.928" cy="474.433" r="4" fill="#0" id="circle112"/>
	<circle cx="214.928" cy="487.216" r="4" fill="#0" id="circle113"/>
	<circle cx="214.928" cy="500" r="4" fill="#0" id="circle114"/>
	<circle cx="214.928" cy="512.784" r="4" fill="#0" id="circle115"/>
	<circle cx="216.206" cy="35.9588" r="4" fill="#0" id="circle116"/>
	<circle cx="220.041" cy="630.392" r="4" fill="#0" id="circle117"/>
	<circle cx="221.32" cy="461.649" r="4" fill="#0" id="circle118"/>
	<circle cx="221.32" cy="524.289" r="4" fill="#0" id="circle119"/>
	<circle cx="221.32" cy="537.072" r="4" fill="#0" id="circle120"/>
	<circle cx="221.32" cy="549.856" r="4" fill="#0" id="circle121"/>
	<circle cx="222.598" cy="423.299" r="4" fill="#0" id="circle122"/>
	<circle cx="223.876" cy="695.588" r="4" fill="#0" id="circle123"/>
	<circle cx="225.155" cy="94.7629" r="4" fill="#0" id="circle124"/>
	<circle cx="227.711" cy="170.186" r="4" fill="#0" id="circle125"/>
	<circle cx="227.711" cy="448.866" r="4" fill="#0" id="circle126"/>
	<circle cx="227.711" cy="561.361" r="4" fill="#0" id="circle127"/>
	<circle cx="228.99" cy="35.9588" r="4" fill="#0" id="circle128"/>
	<circle cx="228.99" cy="620.165" r="4" fill="#0" id="circle129"/>
	<circle cx="231.546" cy="433.526" r="4" fill="#0" id="circle130"/>
	<circle cx="231.546" cy="574.144" r="4" fill="#0" id="circle131"/>
	<circle cx="236.66" cy="695.588" r="4" fill="#0" id="circle132"/>
	<circle cx="237.938" cy="94.7629" r="4" fill="#0" id="circle133"/>
	<circle cx="239.216" cy="176.577" r="4" fill="#0" id="circle134"/>
	<circle cx="239.216" cy="611.216" r="4" fill="#0" id="circle135"/>
	<circle cx="240.495" cy="584.371" r="4" fill="#0" id="circle136"/>
	<circle cx="240.495" cy="597.155" r="4" fill="#0" id="circle137"/>
	<circle cx="241.773" cy="35.9588" r="4" fill="#0" id="circle138"/>
	<circle cx="248.165" cy="689.196" r="4" fill="#0" id="circle139"/>
	<circle cx="250.722" cy="94.7629" r="4" fill="#0" id="circle140"/>
	<circle cx="250.722" cy="182.969" r="4" fill="#0" id="circle141"/>
	<circle cx="254.557" cy="35.9588" r="4" fill="#0" id="circle142"/>
	<circle cx="260.948" cy="682.804" r="4" fill="#0" id="circle143"/>
	<circle cx="263.505" cy="99.8763" r="4" fill="#0" id="circle144"/>
	<circle cx="263.505" cy="182.969" r="4" fill="#0" id="circle145"/>
	<circle cx="264.784" cy="43.6289" r="4" fill="#0" id="circle146"/>
	<circle cx="269.897" cy="56.4124" r="4" fill="#0" id="circle147"/>
	<circle cx="271.175" cy="673.856" r="4" fill="#0" id="circle148"/>
	<circle cx="275.01" cy="189.361" r="4" fill="#0" id="circle149"/>
	<circle cx="276.289" cy="67.9175" r="4" fill="#0" id="circle150"/>
	<circle cx="276.289" cy="93.4845" r="4" fill="#0" id="circle151"/>
	<circle cx="280.124" cy="80.701" r="4" fill="#0" id="circle152"/>
	<circle cx="280.124" cy="657.237" r="4" fill="#0" id="circle153"/>
	<circle cx="286.515" cy="195.753" r="4" fill="#0" id="circle154"/>
	<circle cx="291.629" cy="663.629" r="4" fill="#0" id="circle155"/>
	<circle cx="299.299" cy="199.588" r="4" fill="#0" id="circle156"/>
	<circle cx="299.299" cy="548.577" r="4" fill="#0" id="circle157"/>
	<circle cx="299.299" cy="561.361" r="4" fill="#0" id="circle158"/>
	<circle cx="299.299" cy="638.062" r="4" fill="#0" id="circle159"/>
	<circle cx="299.299" cy="650.845" r="4" fill="#0" id="circle160"/>
	<circle cx="301.856" cy="574.144" r="4" fill="#0" id="circle161"/>
	<circle cx="309.526" cy="539.629" r="4" fill="#0" id="circle162"/>
	<circle cx="309.526" cy="629.113" r="4" fill="#0" id="circle163"/>
	<circle cx="312.082" cy="202.144" r="4" fill="#0" id="circle164"/>
	<circle cx="312.082" cy="523.01" r="4" fill="#0" id="circle165"/>
	<circle cx="312.082" cy="583.093" r="4" fill="#0" id="circle166"/>
	<circle cx="312.082" cy="595.876" r="4" fill="#0" id="circle167"/>
	<circle cx="312.082" cy="608.66" r="4" fill="#0" id="circle168"/>
	<circle cx="322.309" cy="209.814" r="4" fill="#0" id="circle169"/>
	<circle cx="324.866" cy="525.567" r="4" fill="#0" id="circle170"/>
	<circle cx="333.814" cy="216.206" r="4" fill="#0" id="circle171"/>
	<circle cx="333.814" cy="535.794" r="4" fill="#0" id="circle172"/>
	<circle cx="344.041" cy="544.742" r="4" fill="#0" id="circle173"/>
	<circle cx="346.598" cy="221.32" r="4" fill="#0" id="circle174"/>
	<circle cx="352.99" cy="554.969" r="4" fill="#0" id="circle175"/>
	<circle cx="358.103" cy="227.711" r="4" fill="#0" id="circle176"/>
	<circle cx="364.495" cy="561.361" r="4" fill="#0" id="circle177"/>
	<circle cx="369.608" cy="234.103" r="4" fill="#0" id="circle178"/>
	<circle cx="376" cy="567.753" r="4" fill="#0" id="circle179"/>
	<circle cx="382.392" cy="237.938" r="4" fill="#0" id="circle180"/>
	<circle cx="388.784" cy="570.309" r="4" fill="#0" id="circle181"/>
	<circle cx="393.897" cy="244.33" r="4" fill="#0" id="circle182"/>
	<circle cx="397.732" cy="580.536" r="4" fill="#0" id="circle183"/>
	<circle cx="406.68" cy="249.443" r="4" fill="#0" id="circle184"/>
	<circle cx="410.515" cy="585.649" r="4" fill="#0" id="circle185"/>
	<circle cx="418.186" cy="255.835" r="4" fill="#0" id="circle186"/>
	<circle cx="422.021" cy="592.041" r="4" fill="#0" id="circle187"/>
	<circle cx="427.134" cy="266.062" r="4" fill="#0" id="circle188"/>
	<circle cx="434.804" cy="597.155" r="4" fill="#0" id="circle189"/>
	<circle cx="438.639" cy="272.454" r="4" fill="#0" id="circle190"/>
	<circle cx="445.031" cy="606.103" r="4" fill="#0" id="circle191"/>
	<circle cx="446.309" cy="282.68" r="4" fill="#0" id="circle192"/>
	<circle cx="451.423" cy="672.577" r="4" fill="#0" id="circle193"/>
	<circle cx="451.423" cy="685.361" r="4" fill="#0" id="circle194"/>
	<circle cx="452.701" cy="616.33" r="4" fill="#0" id="circle195"/>
	<circle cx="455.258" cy="292.907" r="4" fill="#0" id="circle196"/>
	<circle cx="459.093" cy="695.588" r="4" fill="#0" id="circle197"/>
	<circle cx="461.649" cy="662.351" r="4" fill="#0" id="circle198"/>
	<circle cx="462.928" cy="625.278" r="4" fill="#0" id="circle199"/>
	<circle cx="465.485" cy="301.856" r="4" fill="#0" id="circle200"/>
	<circle cx="471.876" cy="695.588" r="4" fill="#0" id="circle201"/>
	<circle cx="473.155" cy="655.959" r="4" fill="#0" id="circle202"/>
	<circle cx="474.433" cy="631.67" r="4" fill="#0" id="circle203"/>
	<circle cx="475.711" cy="310.804" r="4" fill="#0" id="circle204"/>
	<circle cx="484.66" cy="321.031" r="4" fill="#0" id="circle205"/>
	<circle cx="484.66" cy="695.588" r="4" fill="#0" id="circle206"/>
	<circle cx="485.938" cy="638.062" r="4" fill="#0" id="circle207"/>
	<circle cx="485.938" cy="650.845" r="4" fill="#0" id="circle208"/>
	<circle cx="491.052" cy="332.536" r="4" fill="#0" id="circle209"/>
	<circle cx="497.443" cy="344.041" r="4" fill="#0" id="circle210"/>
	<circle cx="497.443" cy="689.196" r="4" fill="#0" id="circle211"/>
	<circle cx="503.835" cy="355.546" r="4" fill="#0" id="circle212"/>
	<circle cx="510.227" cy="689.196" r="4" fill="#0" id="circle213"/>
	<circle cx="514.062" cy="363.216" r="4" fill="#0" id="circle214"/>
	<circle cx="523.01" cy="373.443" r="4" fill="#0" id="circle215"/>
	<circle cx="523.01" cy="689.196" r="4" fill="#0" id="circle216"/>
	<circle cx="529.402" cy="384.948" r="4" fill="#0" id="circle217"/>
	<circle cx="535.794" cy="396.454" r="4" fill="#0" id="circle218"/>
	<circle cx="535.794" cy="689.196" r="4" fill="#0" id="circle219"/>
	<circle cx="542.186" cy="407.959" r="4" fill="#0" id="circle220"/>
	<circle cx="548.577" cy="419.464" r="4" fill="#0" id="circle221"/>
	<circle cx="548.577" cy="689.196" r="4" fill="#0" id="circle222"/>
	<circle cx="558.804" cy="427.134" r="4" fill="#0" id="circle223"/>
	<circle cx="561.361" cy="439.918" r="4" fill="#0" id="circle224"/>
	<circle cx="561.361" cy="682.804" r="4" fill="#0" id="circle225"/>
	<circle cx="563.918" cy="452.701" r="4" fill="#0" id="circle226"/>
	<circle cx="570.309" cy="464.206" r="4" fill="#0" id="circle227"/>
	<circle cx="572.866" cy="689.196" r="4" fill="#0" id="circle228"/>
	<circle cx="579.258" cy="474.433" r="4" fill="#0" id="circle229"/>
	<circle cx="585.649" cy="689.196" r="4" fill="#0" id="circle230"/>
	<circle cx="589.485" cy="483.381" r="4" fill="#0" id="circle231"/>
	<circle cx="593.32" cy="496.165" r="4" fill="#0" id="circle232"/>
	<circle cx="598.433" cy="689.196" r="4" fill="#0" id="circle233"/>
	<circle cx="603.546" cy="503.835" r="4" fill="#0" id="circle234"/>
	<circle cx="609.938" cy="695.588" r="4" fill="#0" id="circle235"/>
	<circle cx="612.495" cy="514.062" r="4" fill="#0" id="circle236"/>
	<circle cx="621.443" cy="701.979" r="4" fill="#0" id="circle237"/>
	<circle cx="622.722" cy="523.01" r="4" fill="#0" id="circle238"/>
	<circle cx="634.227" cy="529.402" r="4" fill="#0" id="circle239"/>
	<circle cx="634.227" cy="701.979" r="4" fill="#0" id="circle240"/>
	<circle cx="644.454" cy="538.351" r="4" fill="#0" id="circle241"/>
	<circle cx="647.01" cy="701.979" r="4" fill="#0" id="circle242"/>
	<circle cx="655.959" cy="544.742" r="4" fill="#0" id="circle243"/>
	<circle cx="659.794" cy="707.093" r="4" fill="#0" id="circle244"/>
	<circle cx="666.186" cy="553.691" r="4" fill="#0" id="circle245"/>
	<circle cx="672.577" cy="708.371" r="4" fill="#0" id="circle246"/>
	<circle cx="677.691" cy="560.082" r="4" fill="#0" id="circle247"/>
	<circle cx="685.361" cy="708.371" r="4" fill="#0" id="circle248"/>
	<circle cx="689.196" cy="566.474" r="4" fill="#0" id="circle249"/>
	<circle cx="698.144" cy="713.485" r="4" fill="#0" id="circle250"/>
	<circle cx="701.979" cy="570.309" r="4" fill="#0" id="circle251"/>
	<circle cx="709.649" cy="719.876" r="4" fill="#0" id="circle252"/>
	<circle cx="712.206" cy="579.258" r="4" fill="#0" id="circle253"/>
	<circle cx="722.433" cy="721.155" r="4" fill="#0" id="circle254"/>
	<circle cx="724.99" cy="580.536" r="4" fill="#0" id="circle255"/>
	<circle cx="735.216" cy="724.99" r="4" fill="#0" id="circle256"/>
	<circle cx="736.495" cy="586.928" r="4" fill="#0" id="circle257"/>
	<circle cx="748" cy="727.546" r="4" fill="#0" id="circle258"/>
	<circle cx="749.278" cy="592.041" r="4" fill="#0" id="circle259"/>
	<circle cx="759.505" cy="721.155" r="4" fill="#0" id="circle260"/>
	<circle cx="760.784" cy="598.433" r="4" fill="#0" id="circle261"/>
	<circle cx="772.289" cy="604.825" r="4" fill="#0" id="circle262"/>
	<circle cx="772.289" cy="721.155" r="4" fill="#0" id="circle263"/>
	<circle cx="783.794" cy="611.216" r="4" fill="#0" id="circle264"/>
	<circle cx="785.072" cy="721.155" r="4" fill="#0" id="circle265"/>
	<circle cx="796.577" cy="613.773" r="4" fill="#0" id="circle266"/>
	<circle cx="796.577" cy="727.546" r="4" fill="#0" id="circle267"/>
	<circle cx="809.361" cy="617.608" r="4" fill="#0" id="circle268"/>
	<circle cx="809.361" cy="723.711" r="4" fill="#0" id="circle269"/>
	<circle cx="822.144" cy="617.608" r="4" fill="#0" id="circle270"/>
	<circle cx="822.144" cy="721.155" r="4" fill="#0" id="circle271"/>
	<circle cx="833.649" cy="714.763" r="4" fill="#0" id="circle272"/>
	<circle cx="834.928" cy="617.608" r="4" fill="#0" id="circle273"/>
	<circle cx="845.155" cy="708.371" r="4" fill="#0" id="circle274"/>
	<circle cx="847.711" cy="615.052" r="4" fill="#0" id="circle275"/>
	<circle cx="857.938" cy="708.371" r="4" fill="#0" id="circle276"/>
	<circle cx="860.495" cy="611.216" r="4" fill="#0" id="circle277"/>
	<circle cx="866.887" cy="397.732" r="4" fill="#0" id="circle278"/>
	<circle cx="870.722" cy="707.093" r="4" fill="#0" id="circle279"/>
	<circle cx="873.278" cy="608.66" r="4" fill="#0" id="circle280"/>
	<circle cx="877.113" cy="387.505" r="4" fill="#0" id="circle281"/>
	<circle cx="879.67" cy="401.567" r="4" fill="#0" id="circle282"/>
	<circle cx="883.505" cy="598.433" r="4" fill="#0" id="circle283"/>
	<circle cx="883.505" cy="701.979" r="4" fill="#0" id="circle284"/>
	<circle cx="889.897" cy="387.505" r="4" fill="#0" id="circle285"/>
	<circle cx="891.175" cy="407.959" r="4" fill="#0" id="circle286"/>
	<circle cx="895.01" cy="592.041" r="4" fill="#0" id="circle287"/>
	<circle cx="895.01" cy="695.588" r="4" fill="#0" id="circle288"/>
	<circle cx="901.402" cy="393.897" r="4" fill="#0" id="circle289"/>
	<circle cx="902.68" cy="414.351" r="4" fill="#0" id="circle290"/>
	<circle cx="906.515" cy="585.649" r="4" fill="#0" id="circle291"/>
	<circle cx="906.515" cy="689.196" r="4" fill="#0" id="circle292"/>
	<circle cx="912.907" cy="423.299" r="4" fill="#0" id="circle293"/>
	<circle cx="914.186" cy="393.897" r="4" fill="#0" id="circle294"/>
	<circle cx="918.021" cy="579.258" r="4" fill="#0" id="circle295"/>
	<circle cx="919.299" cy="689.196" r="4" fill="#0" id="circle296"/>
	<circle cx="924.412" cy="429.691" r="4" fill="#0" id="circle297"/>
	<circle cx="925.691" cy="400.289" r="4" fill="#0" id="circle298"/>
	<circle cx="925.691" cy="569.031" r="4" fill="#0" id="circle299"/>
	<circle cx="929.526" cy="680.247" r="4" fill="#0" id="circle300"/>
	<circle cx="930.804" cy="441.196" r="4" fill="#0" id="circle301"/>
	<circle cx="932.082" cy="556.247" r="4" fill="#0" id="circle302"/>
	<circle cx="938.474" cy="404.124" r="4" fill="#0" id="circle303"/>
	<circle cx="938.474" cy="543.464" r="4" fill="#0" id="circle304"/>
	<circle cx="939.753" cy="451.423" r="4" fill="#0" id="circle305"/>
	<circle cx="942.309" cy="673.856" r="4" fill="#0" id="circle306"/>
	<circle cx="944.866" cy="530.68" r="4" fill="#0" id="circle307"/>
	<circle cx="944.866" cy="657.237" r="4" fill="#0" id="circle308"/>
	<circle cx="946.144" cy="462.928" r="4" fill="#0" id="circle309"/>
	<circle cx="948.701" cy="413.072" r="4" fill="#0" id="circle310"/>
	<circle cx="949.979" cy="475.711" r="4" fill="#0" id="circle311"/>
	<circle cx="949.979" cy="488.495" r="4" fill="#0" id="circle312"/>
	<circle cx="949.979" cy="501.278" r="4" fill="#0" id="circle313"/>
	<circle cx="949.979" cy="514.062" r="4" fill="#0" id="circle314"/>
	<circle cx="956.371" cy="650.845" r="4" fill="#0" id="circle315"/>
	<circle cx="960.206" cy="419.464" r="4" fill="#0" id="circle316"/>
	<circle cx="964.041" cy="638.062" r="4" fill="#0" id="circle317"/>
	<circle cx="969.155" cy="429.691" r="4" fill="#0" id="circle318"/>
	<circle cx="974.268" cy="629.113" r="4" fill="#0" id="circle319"/>
	<circle cx="976.825" cy="439.918" r="4" fill="#0" id="circle320"/>
	<circle cx="983.216" cy="451.423" r="4" fill="#0" id="circle321"/>
	<circle cx="983.216" cy="612.495" r="4" fill="#0" id="circle322"/>
	<circle cx="989.608" cy="462.928" r="4" fill="#0" id="circle323"/>
	<circle cx="989.608" cy="475.711" r="4" fill="#0" id="circle324"/>
	<circle cx="989.608" cy="586.928" r="4" fill="#0" id="circle325"/>
	<circle cx="989.608" cy="599.711" r="4" fill="#0" id="circle326"/>
	<circle cx="996" cy="487.216" r="4" fill="#0" id="circle327"/>
	<circle cx="996" cy="500" r="4" fill="#0" id="circle328"/>
	<circle cx="996" cy="512.784" r="4" fill="#0" id="circle329"/>
	<circle cx="996" cy="525.567" r="4" fill="#0" id="circle330"/>
	<circle cx="996" cy="542.186" r="4" fill="#0" id="circle331"/>
	<circle cx="996" cy="554.969" r="4" fill="#0" id="circle332"/>
	<circle cx="996" cy="567.753" r="4" fill="#0" id="circle333"/>
	</g>
</svg>