<?xml version="1.0" encoding="UTF-8" standalone="no"?>
<!-- Created with CurveBenchmark -->
<svg
	xmlns:dc="http://purl.org/dc/elements/1.1/"
	xmlns:cc="http://creativecommons.org/ns#"
	xmlns:rdf="http://www.w3.org/1999/02/22-rdf-syntax-ns#"
	xmlns:svg="http://www.w3.org/2000/svg"
	xmlns="http://www.w3.org/2000/svg"
	xmlns:sodipodi="http://sodipodi.sourceforge.net/DTD/sodipodi-0.dtd"
	xmlns:inkscape="http://www.inkscape.org/namespaces/inkscape"
	width="1000"
	height="1000"
	id="svg2"
	version="1.1"
	sodipodi:docname="manifold/crawl-carriage19.png.txt">
<defs
	id="defs4" />
<metadata
	id="metadata7">
	<rdf:RDF>
		<cc:Work
			rdf:about="">
			<dc:format>image/svg+xml</dc:format>
			<dc:type
				rdf:resource="http://purl.org/dc/dcmitype/StillImage" />
			<dc:title></dc:title>
		</cc:Work>
	</rdf:RDF>
</metadata>
<g
	inkscape:label="Layer 1"
	inkscape:groupmode="layer"
	id="layer1">
	<path style="fill:none;stroke:red;stroke-width:1px;stroke-linecap:butt;stroke-linejoin:miter;stroke-opacity:1" d="M 45.6107,155.463 28.9664,155.463 z" id="boundary" inkscape:connector-curvature="0" />
	<path style="fill:none;stroke:red;stroke-width:1px;stroke-linecap:butt;stroke-linejoin:miter;stroke-opacity:1" d="M 28.9664,155.463 17.3154,142.148 z" id="boundary" inkscape:connector-curvature="0" />
	<path style="fill:none;stroke:red;stroke-width:1px;stroke-linecap:butt;stroke-linejoin:miter;stroke-opacity:1" d="M 17.3154,142.148 4,130.497 z" id="boundary" inkscape:connector-curvature="0" />
	<path style="fill:none;stroke:red;stroke-width:1px;stroke-linecap:butt;stroke-linejoin:miter;stroke-opacity:1" d="M 4,130.497 17.3154,117.181 z" id="boundary" inkscape:connector-curvature="0" />
	<path style="fill:none;stroke:red;stroke-width:1px;stroke-linecap:butt;stroke-linejoin:miter;stroke-opacity:1" d="M 17.3154,117.181 25.6376,100.537 z" id="boundary" inkscape:connector-curvature="0" />
	<path style="fill:none;stroke:red;stroke-width:1px;stroke-linecap:butt;stroke-linejoin:miter;stroke-opacity:1" d="M 25.6376,100.537 33.9597,83.8926 z" id="boundary" inkscape:connector-curvature="0" />
	<path style="fill:none;stroke:red;stroke-width:1px;stroke-linecap:butt;stroke-linejoin:miter;stroke-opacity:1" d="M 33.9597,83.8926 47.2752,70.5772 z" id="boundary" inkscape:connector-curvature="0" />
	<path style="fill:none;stroke:red;stroke-width:1px;stroke-linecap:butt;stroke-linejoin:miter;stroke-opacity:1" d="M 47.2752,70.5772 60.5906,58.9262 z" id="boundary" inkscape:connector-curvature="0" />
	<path style="fill:none;stroke:red;stroke-width:1px;stroke-linecap:butt;stroke-linejoin:miter;stroke-opacity:1" d="M 45.6107,155.463 58.9262,142.148 z" id="boundary" inkscape:connector-curvature="0" />
	<path style="fill:none;stroke:red;stroke-width:1px;stroke-linecap:butt;stroke-linejoin:miter;stroke-opacity:1" d="M 60.5906,58.9262 62.255,38.953 z" id="boundary" inkscape:connector-curvature="0" />
	<path style="fill:none;stroke:red;stroke-width:1px;stroke-linecap:butt;stroke-linejoin:miter;stroke-opacity:1" d="M 62.255,38.953 78.8993,30.6309 z" id="boundary" inkscape:connector-curvature="0" />
	<path style="fill:none;stroke:red;stroke-width:1px;stroke-linecap:butt;stroke-linejoin:miter;stroke-opacity:1" d="M 78.8993,30.6309 95.5436,37.2886 z" id="boundary" inkscape:connector-curvature="0" />
	<path style="fill:none;stroke:red;stroke-width:1px;stroke-linecap:butt;stroke-linejoin:miter;stroke-opacity:1" d="M 95.5436,37.2886 112.188,42.2819 z" id="boundary" inkscape:connector-curvature="0" />
	<path style="fill:none;stroke:red;stroke-width:1px;stroke-linecap:butt;stroke-linejoin:miter;stroke-opacity:1" d="M 112.188,42.2819 125.503,52.2685 z" id="boundary" inkscape:connector-curvature="0" />
	<path style="fill:none;stroke:red;stroke-width:1px;stroke-linecap:butt;stroke-linejoin:miter;stroke-opacity:1" d="M 125.503,52.2685 138.819,63.9195 z" id="boundary" inkscape:connector-curvature="0" />
	<path style="fill:none;stroke:red;stroke-width:1px;stroke-linecap:butt;stroke-linejoin:miter;stroke-opacity:1" d="M 138.819,63.9195 147.141,78.8993 z" id="boundary" inkscape:connector-curvature="0" />
	<path style="fill:none;stroke:red;stroke-width:1px;stroke-linecap:butt;stroke-linejoin:miter;stroke-opacity:1" d="M 147.141,78.8993 157.128,92.2148 z" id="boundary" inkscape:connector-curvature="0" />
	<path style="fill:none;stroke:red;stroke-width:1px;stroke-linecap:butt;stroke-linejoin:miter;stroke-opacity:1" d="M 157.128,92.2148 163.785,108.859 z" id="boundary" inkscape:connector-curvature="0" />
	<path style="fill:none;stroke:red;stroke-width:1px;stroke-linecap:butt;stroke-linejoin:miter;stroke-opacity:1" d="M 163.785,108.859 178.765,117.181 z" id="boundary" inkscape:connector-curvature="0" />
	<path style="fill:none;stroke:red;stroke-width:1px;stroke-linecap:butt;stroke-linejoin:miter;stroke-opacity:1" d="M 178.765,117.181 195.409,117.181 z" id="boundary" inkscape:connector-curvature="0" />
	<path style="fill:none;stroke:red;stroke-width:1px;stroke-linecap:butt;stroke-linejoin:miter;stroke-opacity:1" d="M 195.409,117.181 212.054,117.181 z" id="boundary" inkscape:connector-curvature="0" />
	<path style="fill:none;stroke:red;stroke-width:1px;stroke-linecap:butt;stroke-linejoin:miter;stroke-opacity:1" d="M 212.054,117.181 228.698,117.181 z" id="boundary" inkscape:connector-curvature="0" />
	<path style="fill:none;stroke:red;stroke-width:1px;stroke-linecap:butt;stroke-linejoin:miter;stroke-opacity:1" d="M 228.698,117.181 245.342,117.181 z" id="boundary" inkscape:connector-curvature="0" />
	<path style="fill:none;stroke:red;stroke-width:1px;stroke-linecap:butt;stroke-linejoin:miter;stroke-opacity:1" d="M 245.342,117.181 261.987,117.181 z" id="boundary" inkscape:connector-curvature="0" />
	<path style="fill:none;stroke:red;stroke-width:1px;stroke-linecap:butt;stroke-linejoin:miter;stroke-opacity:1" d="M 261.987,117.181 278.631,117.181 z" id="boundary" inkscape:connector-curvature="0" />
	<path style="fill:none;stroke:red;stroke-width:1px;stroke-linecap:butt;stroke-linejoin:miter;stroke-opacity:1" d="M 278.631,117.181 295.275,117.181 z" id="boundary" inkscape:connector-curvature="0" />
	<path style="fill:none;stroke:red;stroke-width:1px;stroke-linecap:butt;stroke-linejoin:miter;stroke-opacity:1" d="M 295.275,117.181 311.919,117.181 z" id="boundary" inkscape:connector-curvature="0" />
	<path style="fill:none;stroke:red;stroke-width:1px;stroke-linecap:butt;stroke-linejoin:miter;stroke-opacity:1" d="M 311.919,117.181 328.564,117.181 z" id="boundary" inkscape:connector-curvature="0" />
	<path style="fill:none;stroke:red;stroke-width:1px;stroke-linecap:butt;stroke-linejoin:miter;stroke-opacity:1" d="M 328.564,117.181 343.544,125.503 z" id="boundary" inkscape:connector-curvature="0" />
	<path style="fill:none;stroke:red;stroke-width:1px;stroke-linecap:butt;stroke-linejoin:miter;stroke-opacity:1" d="M 343.544,125.503 360.188,127.168 z" id="boundary" inkscape:connector-curvature="0" />
	<path style="fill:none;stroke:red;stroke-width:1px;stroke-linecap:butt;stroke-linejoin:miter;stroke-opacity:1" d="M 360.188,127.168 375.168,135.49 z" id="boundary" inkscape:connector-curvature="0" />
	<path style="fill:none;stroke:red;stroke-width:1px;stroke-linecap:butt;stroke-linejoin:miter;stroke-opacity:1" d="M 375.168,135.49 388.483,147.141 z" id="boundary" inkscape:connector-curvature="0" />
	<path style="fill:none;stroke:red;stroke-width:1px;stroke-linecap:butt;stroke-linejoin:miter;stroke-opacity:1" d="M 388.483,147.141 396.805,162.121 z" id="boundary" inkscape:connector-curvature="0" />
	<path style="fill:none;stroke:red;stroke-width:1px;stroke-linecap:butt;stroke-linejoin:miter;stroke-opacity:1" d="M 396.805,162.121 396.805,178.765 z" id="boundary" inkscape:connector-curvature="0" />
	<path style="fill:none;stroke:red;stroke-width:1px;stroke-linecap:butt;stroke-linejoin:miter;stroke-opacity:1" d="M 396.805,178.765 405.128,193.745 z" id="boundary" inkscape:connector-curvature="0" />
	<path style="fill:none;stroke:red;stroke-width:1px;stroke-linecap:butt;stroke-linejoin:miter;stroke-opacity:1" d="M 405.128,193.745 408.456,210.389 z" id="boundary" inkscape:connector-curvature="0" />
	<path style="fill:none;stroke:red;stroke-width:1px;stroke-linecap:butt;stroke-linejoin:miter;stroke-opacity:1" d="M 408.456,210.389 425.101,208.725 z" id="boundary" inkscape:connector-curvature="0" />
	<path style="fill:none;stroke:red;stroke-width:1px;stroke-linecap:butt;stroke-linejoin:miter;stroke-opacity:1" d="M 425.101,208.725 440.081,217.047 z" id="boundary" inkscape:connector-curvature="0" />
	<path style="fill:none;stroke:red;stroke-width:1px;stroke-linecap:butt;stroke-linejoin:miter;stroke-opacity:1" d="M 440.081,217.047 456.725,210.389 z" id="boundary" inkscape:connector-curvature="0" />
	<path style="fill:none;stroke:red;stroke-width:1px;stroke-linecap:butt;stroke-linejoin:miter;stroke-opacity:1" d="M 456.725,210.389 470.04,200.403 z" id="boundary" inkscape:connector-curvature="0" />
	<path style="fill:none;stroke:red;stroke-width:1px;stroke-linecap:butt;stroke-linejoin:miter;stroke-opacity:1" d="M 470.04,200.403 486.685,197.074 z" id="boundary" inkscape:connector-curvature="0" />
	<path style="fill:none;stroke:red;stroke-width:1px;stroke-linecap:butt;stroke-linejoin:miter;stroke-opacity:1" d="M 486.685,197.074 500,183.758 z" id="boundary" inkscape:connector-curvature="0" />
	<path style="fill:none;stroke:red;stroke-width:1px;stroke-linecap:butt;stroke-linejoin:miter;stroke-opacity:1" d="M 58.9262,142.148 72.2416,127.168 z" id="boundary" inkscape:connector-curvature="0" />
	<path style="fill:none;stroke:red;stroke-width:1px;stroke-linecap:butt;stroke-linejoin:miter;stroke-opacity:1" d="M 72.2416,127.168 88.8859,127.168 z" id="boundary" inkscape:connector-curvature="0" />
	<path style="fill:none;stroke:red;stroke-width:1px;stroke-linecap:butt;stroke-linejoin:miter;stroke-opacity:1" d="M 88.8859,127.168 105.53,127.168 z" id="boundary" inkscape:connector-curvature="0" />
	<path style="fill:none;stroke:red;stroke-width:1px;stroke-linecap:butt;stroke-linejoin:miter;stroke-opacity:1" d="M 500,183.758 495.007,163.785 z" id="boundary" inkscape:connector-curvature="0" />
	<path style="fill:none;stroke:red;stroke-width:1px;stroke-linecap:butt;stroke-linejoin:miter;stroke-opacity:1" d="M 495.007,163.785 495.007,138.819 z" id="boundary" inkscape:connector-curvature="0" />
	<path style="fill:none;stroke:red;stroke-width:1px;stroke-linecap:butt;stroke-linejoin:miter;stroke-opacity:1" d="M 495.007,138.819 495.007,122.174 z" id="boundary" inkscape:connector-curvature="0" />
	<path style="fill:none;stroke:red;stroke-width:1px;stroke-linecap:butt;stroke-linejoin:miter;stroke-opacity:1" d="M 495.007,122.174 503.329,105.53 z" id="boundary" inkscape:connector-curvature="0" />
	<path style="fill:none;stroke:red;stroke-width:1px;stroke-linecap:butt;stroke-linejoin:miter;stroke-opacity:1" d="M 503.329,105.53 516.644,92.2148 z" id="boundary" inkscape:connector-curvature="0" />
	<path style="fill:none;stroke:red;stroke-width:1px;stroke-linecap:butt;stroke-linejoin:miter;stroke-opacity:1" d="M 516.644,92.2148 533.289,92.2148 z" id="boundary" inkscape:connector-curvature="0" />
	<path style="fill:none;stroke:red;stroke-width:1px;stroke-linecap:butt;stroke-linejoin:miter;stroke-opacity:1" d="M 533.289,92.2148 536.617,72.2416 z" id="boundary" inkscape:connector-curvature="0" />
	<path style="fill:none;stroke:red;stroke-width:1px;stroke-linecap:butt;stroke-linejoin:miter;stroke-opacity:1" d="M 536.617,72.2416 536.617,55.5973 z" id="boundary" inkscape:connector-curvature="0" />
	<path style="fill:none;stroke:red;stroke-width:1px;stroke-linecap:butt;stroke-linejoin:miter;stroke-opacity:1" d="M 536.617,55.5973 536.617,38.953 z" id="boundary" inkscape:connector-curvature="0" />
	<path style="fill:none;stroke:red;stroke-width:1px;stroke-linecap:butt;stroke-linejoin:miter;stroke-opacity:1" d="M 536.617,38.953 544.94,22.3087 z" id="boundary" inkscape:connector-curvature="0" />
	<path style="fill:none;stroke:red;stroke-width:1px;stroke-linecap:butt;stroke-linejoin:miter;stroke-opacity:1" d="M 544.94,22.3087 553.262,5.66443 z" id="boundary" inkscape:connector-curvature="0" />
	<path style="fill:none;stroke:red;stroke-width:1px;stroke-linecap:butt;stroke-linejoin:miter;stroke-opacity:1" d="M 553.262,5.66443 569.906,4 z" id="boundary" inkscape:connector-curvature="0" />
	<path style="fill:none;stroke:red;stroke-width:1px;stroke-linecap:butt;stroke-linejoin:miter;stroke-opacity:1" d="M 569.906,4 579.893,17.3154 z" id="boundary" inkscape:connector-curvature="0" />
	<path style="fill:none;stroke:red;stroke-width:1px;stroke-linecap:butt;stroke-linejoin:miter;stroke-opacity:1" d="M 579.893,17.3154 588.215,32.2953 z" id="boundary" inkscape:connector-curvature="0" />
	<path style="fill:none;stroke:red;stroke-width:1px;stroke-linecap:butt;stroke-linejoin:miter;stroke-opacity:1" d="M 588.215,32.2953 596.537,47.2752 z" id="boundary" inkscape:connector-curvature="0" />
	<path style="fill:none;stroke:red;stroke-width:1px;stroke-linecap:butt;stroke-linejoin:miter;stroke-opacity:1" d="M 596.537,47.2752 603.195,63.9195 z" id="boundary" inkscape:connector-curvature="0" />
	<path style="fill:none;stroke:red;stroke-width:1px;stroke-linecap:butt;stroke-linejoin:miter;stroke-opacity:1" d="M 603.195,63.9195 604.859,80.5638 z" id="boundary" inkscape:connector-curvature="0" />
	<path style="fill:none;stroke:red;stroke-width:1px;stroke-linecap:butt;stroke-linejoin:miter;stroke-opacity:1" d="M 604.859,80.5638 604.859,97.2081 z" id="boundary" inkscape:connector-curvature="0" />
	<path style="fill:none;stroke:red;stroke-width:1px;stroke-linecap:butt;stroke-linejoin:miter;stroke-opacity:1" d="M 604.859,97.2081 604.859,113.852 z" id="boundary" inkscape:connector-curvature="0" />
	<path style="fill:none;stroke:red;stroke-width:1px;stroke-linecap:butt;stroke-linejoin:miter;stroke-opacity:1" d="M 604.859,113.852 613.181,128.832 z" id="boundary" inkscape:connector-curvature="0" />
	<path style="fill:none;stroke:red;stroke-width:1px;stroke-linecap:butt;stroke-linejoin:miter;stroke-opacity:1" d="M 613.181,128.832 623.168,142.148 z" id="boundary" inkscape:connector-curvature="0" />
	<path style="fill:none;stroke:red;stroke-width:1px;stroke-linecap:butt;stroke-linejoin:miter;stroke-opacity:1" d="M 623.168,142.148 636.483,153.799 z" id="boundary" inkscape:connector-curvature="0" />
	<path style="fill:none;stroke:red;stroke-width:1px;stroke-linecap:butt;stroke-linejoin:miter;stroke-opacity:1" d="M 636.483,153.799 646.47,167.114 z" id="boundary" inkscape:connector-curvature="0" />
	<path style="fill:none;stroke:red;stroke-width:1px;stroke-linecap:butt;stroke-linejoin:miter;stroke-opacity:1" d="M 646.47,167.114 659.785,177.101 z" id="boundary" inkscape:connector-curvature="0" />
	<path style="fill:none;stroke:red;stroke-width:1px;stroke-linecap:butt;stroke-linejoin:miter;stroke-opacity:1" d="M 659.785,177.101 676.43,183.758 z" id="boundary" inkscape:connector-curvature="0" />
	<path style="fill:none;stroke:red;stroke-width:1px;stroke-linecap:butt;stroke-linejoin:miter;stroke-opacity:1" d="M 676.43,183.758 693.074,183.758 z" id="boundary" inkscape:connector-curvature="0" />
	<path style="fill:none;stroke:red;stroke-width:1px;stroke-linecap:butt;stroke-linejoin:miter;stroke-opacity:1" d="M 693.074,183.758 708.054,175.436 z" id="boundary" inkscape:connector-curvature="0" />
	<path style="fill:none;stroke:red;stroke-width:1px;stroke-linecap:butt;stroke-linejoin:miter;stroke-opacity:1" d="M 708.054,175.436 716.376,158.792 z" id="boundary" inkscape:connector-curvature="0" />
	<path style="fill:none;stroke:red;stroke-width:1px;stroke-linecap:butt;stroke-linejoin:miter;stroke-opacity:1" d="M 716.376,158.792 733.02,158.792 z" id="boundary" inkscape:connector-curvature="0" />
	<path style="fill:none;stroke:red;stroke-width:1px;stroke-linecap:butt;stroke-linejoin:miter;stroke-opacity:1" d="M 733.02,158.792 746.336,145.477 z" id="boundary" inkscape:connector-curvature="0" />
	<path style="fill:none;stroke:red;stroke-width:1px;stroke-linecap:butt;stroke-linejoin:miter;stroke-opacity:1" d="M 746.336,145.477 761.315,130.497 z" id="boundary" inkscape:connector-curvature="0" />
	<path style="fill:none;stroke:red;stroke-width:1px;stroke-linecap:butt;stroke-linejoin:miter;stroke-opacity:1" d="M 761.315,130.497 761.315,113.852 z" id="boundary" inkscape:connector-curvature="0" />
	<path style="fill:none;stroke:red;stroke-width:1px;stroke-linecap:butt;stroke-linejoin:miter;stroke-opacity:1" d="M 761.315,113.852 769.638,97.2081 z" id="boundary" inkscape:connector-curvature="0" />
	<path style="fill:none;stroke:red;stroke-width:1px;stroke-linecap:butt;stroke-linejoin:miter;stroke-opacity:1" d="M 769.638,97.2081 777.96,80.5638 z" id="boundary" inkscape:connector-curvature="0" />
	<path style="fill:none;stroke:red;stroke-width:1px;stroke-linecap:butt;stroke-linejoin:miter;stroke-opacity:1" d="M 777.96,80.5638 791.275,67.2483 z" id="boundary" inkscape:connector-curvature="0" />
	<path style="fill:none;stroke:red;stroke-width:1px;stroke-linecap:butt;stroke-linejoin:miter;stroke-opacity:1" d="M 791.275,67.2483 807.919,67.2483 z" id="boundary" inkscape:connector-curvature="0" />
	<path style="fill:none;stroke:red;stroke-width:1px;stroke-linecap:butt;stroke-linejoin:miter;stroke-opacity:1" d="M 807.919,67.2483 824.564,67.2483 z" id="boundary" inkscape:connector-curvature="0" />
	<path style="fill:none;stroke:red;stroke-width:1px;stroke-linecap:butt;stroke-linejoin:miter;stroke-opacity:1" d="M 824.564,67.2483 839.544,75.5705 z" id="boundary" inkscape:connector-curvature="0" />
	<path style="fill:none;stroke:red;stroke-width:1px;stroke-linecap:butt;stroke-linejoin:miter;stroke-opacity:1" d="M 839.544,75.5705 846.201,92.2148 z" id="boundary" inkscape:connector-curvature="0" />
	<path style="fill:none;stroke:red;stroke-width:1px;stroke-linecap:butt;stroke-linejoin:miter;stroke-opacity:1" d="M 846.201,92.2148 854.523,107.195 z" id="boundary" inkscape:connector-curvature="0" />
	<path style="fill:none;stroke:red;stroke-width:1px;stroke-linecap:butt;stroke-linejoin:miter;stroke-opacity:1" d="M 854.523,107.195 862.846,122.174 z" id="boundary" inkscape:connector-curvature="0" />
	<path style="fill:none;stroke:red;stroke-width:1px;stroke-linecap:butt;stroke-linejoin:miter;stroke-opacity:1" d="M 862.846,122.174 876.161,133.826 z" id="boundary" inkscape:connector-curvature="0" />
	<path style="fill:none;stroke:red;stroke-width:1px;stroke-linecap:butt;stroke-linejoin:miter;stroke-opacity:1" d="M 876.161,133.826 892.805,133.826 z" id="boundary" inkscape:connector-curvature="0" />
	<path style="fill:none;stroke:red;stroke-width:1px;stroke-linecap:butt;stroke-linejoin:miter;stroke-opacity:1" d="M 892.805,133.826 909.45,133.826 z" id="boundary" inkscape:connector-curvature="0" />
	<path style="fill:none;stroke:red;stroke-width:1px;stroke-linecap:butt;stroke-linejoin:miter;stroke-opacity:1" d="M 909.45,133.826 926.094,133.826 z" id="boundary" inkscape:connector-curvature="0" />
	<path style="fill:none;stroke:red;stroke-width:1px;stroke-linecap:butt;stroke-linejoin:miter;stroke-opacity:1" d="M 926.094,133.826 942.738,135.49 z" id="boundary" inkscape:connector-curvature="0" />
	<path style="fill:none;stroke:red;stroke-width:1px;stroke-linecap:butt;stroke-linejoin:miter;stroke-opacity:1" d="M 942.738,135.49 946.067,152.134 z" id="boundary" inkscape:connector-curvature="0" />
	<path style="fill:none;stroke:red;stroke-width:1px;stroke-linecap:butt;stroke-linejoin:miter;stroke-opacity:1" d="M 946.067,152.134 946.067,168.779 z" id="boundary" inkscape:connector-curvature="0" />
	<path style="fill:none;stroke:red;stroke-width:1px;stroke-linecap:butt;stroke-linejoin:miter;stroke-opacity:1" d="M 946.067,168.779 946.067,185.423 z" id="boundary" inkscape:connector-curvature="0" />
	<path style="fill:none;stroke:red;stroke-width:1px;stroke-linecap:butt;stroke-linejoin:miter;stroke-opacity:1" d="M 946.067,185.423 946.067,202.067 z" id="boundary" inkscape:connector-curvature="0" />
	<path style="fill:none;stroke:red;stroke-width:1px;stroke-linecap:butt;stroke-linejoin:miter;stroke-opacity:1" d="M 946.067,202.067 946.067,218.711 z" id="boundary" inkscape:connector-curvature="0" />
	<path style="fill:none;stroke:red;stroke-width:1px;stroke-linecap:butt;stroke-linejoin:miter;stroke-opacity:1" d="M 946.067,218.711 946.067,235.356 z" id="boundary" inkscape:connector-curvature="0" />
	<path style="fill:none;stroke:red;stroke-width:1px;stroke-linecap:butt;stroke-linejoin:miter;stroke-opacity:1" d="M 946.067,235.356 954.389,250.336 z" id="boundary" inkscape:connector-curvature="0" />
	<path style="fill:none;stroke:red;stroke-width:1px;stroke-linecap:butt;stroke-linejoin:miter;stroke-opacity:1" d="M 954.389,250.336 969.369,258.658 z" id="boundary" inkscape:connector-curvature="0" />
	<path style="fill:none;stroke:red;stroke-width:1px;stroke-linecap:butt;stroke-linejoin:miter;stroke-opacity:1" d="M 969.369,258.658 979.356,271.973 z" id="boundary" inkscape:connector-curvature="0" />
	<path style="fill:none;stroke:red;stroke-width:1px;stroke-linecap:butt;stroke-linejoin:miter;stroke-opacity:1" d="M 979.356,271.973 987.678,286.953 z" id="boundary" inkscape:connector-curvature="0" />
	<path style="fill:none;stroke:red;stroke-width:1px;stroke-linecap:butt;stroke-linejoin:miter;stroke-opacity:1" d="M 987.678,286.953 992.671,303.597 z" id="boundary" inkscape:connector-curvature="0" />
	<path style="fill:none;stroke:red;stroke-width:1px;stroke-linecap:butt;stroke-linejoin:miter;stroke-opacity:1" d="M 992.671,303.597 996,320.242 z" id="boundary" inkscape:connector-curvature="0" />
	<path style="fill:none;stroke:red;stroke-width:1px;stroke-linecap:butt;stroke-linejoin:miter;stroke-opacity:1" d="M 996,320.242 996,336.886 z" id="boundary" inkscape:connector-curvature="0" />
	<path style="fill:none;stroke:red;stroke-width:1px;stroke-linecap:butt;stroke-linejoin:miter;stroke-opacity:1" d="M 996,336.886 996,353.53 z" id="boundary" inkscape:connector-curvature="0" />
	<path style="fill:none;stroke:red;stroke-width:1px;stroke-linecap:butt;stroke-linejoin:miter;stroke-opacity:1" d="M 105.53,127.168 103.866,155.463 z" id="boundary" inkscape:connector-curvature="0" />
	<path style="fill:none;stroke:red;stroke-width:1px;stroke-linecap:butt;stroke-linejoin:miter;stroke-opacity:1" d="M 103.866,155.463 112.188,170.443 z" id="boundary" inkscape:connector-curvature="0" />
	<path style="fill:none;stroke:red;stroke-width:1px;stroke-linecap:butt;stroke-linejoin:miter;stroke-opacity:1" d="M 112.188,170.443 120.51,185.423 z" id="boundary" inkscape:connector-curvature="0" />
	<path style="fill:none;stroke:red;stroke-width:1px;stroke-linecap:butt;stroke-linejoin:miter;stroke-opacity:1" d="M 120.51,185.423 120.51,202.067 z" id="boundary" inkscape:connector-curvature="0" />
	<path style="fill:none;stroke:red;stroke-width:1px;stroke-linecap:butt;stroke-linejoin:miter;stroke-opacity:1" d="M 120.51,202.067 120.51,218.711 z" id="boundary" inkscape:connector-curvature="0" />
	<path style="fill:none;stroke:red;stroke-width:1px;stroke-linecap:butt;stroke-linejoin:miter;stroke-opacity:1" d="M 120.51,218.711 120.51,235.356 z" id="boundary" inkscape:connector-curvature="0" />
	<path style="fill:none;stroke:red;stroke-width:1px;stroke-linecap:butt;stroke-linejoin:miter;stroke-opacity:1" d="M 120.51,235.356 120.51,252 z" id="boundary" inkscape:connector-curvature="0" />
	<path style="fill:none;stroke:red;stroke-width:1px;stroke-linecap:butt;stroke-linejoin:miter;stroke-opacity:1" d="M 120.51,252 120.51,268.644 z" id="boundary" inkscape:connector-curvature="0" />
	<path style="fill:none;stroke:red;stroke-width:1px;stroke-linecap:butt;stroke-linejoin:miter;stroke-opacity:1" d="M 120.51,268.644 108.859,283.624 z" id="boundary" inkscape:connector-curvature="0" />
	<path style="fill:none;stroke:red;stroke-width:1px;stroke-linecap:butt;stroke-linejoin:miter;stroke-opacity:1" d="M 108.859,283.624 100.537,300.268 z" id="boundary" inkscape:connector-curvature="0" />
	<path style="fill:none;stroke:red;stroke-width:1px;stroke-linecap:butt;stroke-linejoin:miter;stroke-opacity:1" d="M 100.537,300.268 87.2215,313.584 z" id="boundary" inkscape:connector-curvature="0" />
	<path style="fill:none;stroke:red;stroke-width:1px;stroke-linecap:butt;stroke-linejoin:miter;stroke-opacity:1" d="M 87.2215,313.584 87.2215,330.228 z" id="boundary" inkscape:connector-curvature="0" />
	<path style="fill:none;stroke:red;stroke-width:1px;stroke-linecap:butt;stroke-linejoin:miter;stroke-opacity:1" d="M 87.2215,330.228 87.2215,346.872 z" id="boundary" inkscape:connector-curvature="0" />
	<path style="fill:none;stroke:red;stroke-width:1px;stroke-linecap:butt;stroke-linejoin:miter;stroke-opacity:1" d="M 87.2215,346.872 95.5436,361.852 z" id="boundary" inkscape:connector-curvature="0" />
	<path style="fill:none;stroke:red;stroke-width:1px;stroke-linecap:butt;stroke-linejoin:miter;stroke-opacity:1" d="M 95.5436,361.852 112.188,368.51 z" id="boundary" inkscape:connector-curvature="0" />
	<path style="fill:none;stroke:red;stroke-width:1px;stroke-linecap:butt;stroke-linejoin:miter;stroke-opacity:1" d="M 112.188,368.51 122.174,351.866 z" id="boundary" inkscape:connector-curvature="0" />
	<path style="fill:none;stroke:red;stroke-width:1px;stroke-linecap:butt;stroke-linejoin:miter;stroke-opacity:1" d="M 122.174,351.866 130.497,335.221 z" id="boundary" inkscape:connector-curvature="0" />
	<path style="fill:none;stroke:red;stroke-width:1px;stroke-linecap:butt;stroke-linejoin:miter;stroke-opacity:1" d="M 130.497,335.221 138.819,318.577 z" id="boundary" inkscape:connector-curvature="0" />
	<path style="fill:none;stroke:red;stroke-width:1px;stroke-linecap:butt;stroke-linejoin:miter;stroke-opacity:1" d="M 138.819,318.577 147.141,301.933 z" id="boundary" inkscape:connector-curvature="0" />
	<path style="fill:none;stroke:red;stroke-width:1px;stroke-linecap:butt;stroke-linejoin:miter;stroke-opacity:1" d="M 147.141,301.933 147.141,285.289 z" id="boundary" inkscape:connector-curvature="0" />
	<path style="fill:none;stroke:red;stroke-width:1px;stroke-linecap:butt;stroke-linejoin:miter;stroke-opacity:1" d="M 147.141,285.289 163.785,285.289 z" id="boundary" inkscape:connector-curvature="0" />
	<path style="fill:none;stroke:red;stroke-width:1px;stroke-linecap:butt;stroke-linejoin:miter;stroke-opacity:1" d="M 163.785,285.289 180.43,285.289 z" id="boundary" inkscape:connector-curvature="0" />
	<path style="fill:none;stroke:red;stroke-width:1px;stroke-linecap:butt;stroke-linejoin:miter;stroke-opacity:1" d="M 180.43,285.289 195.409,276.966 z" id="boundary" inkscape:connector-curvature="0" />
	<path style="fill:none;stroke:red;stroke-width:1px;stroke-linecap:butt;stroke-linejoin:miter;stroke-opacity:1" d="M 195.409,276.966 212.054,280.295 z" id="boundary" inkscape:connector-curvature="0" />
	<path style="fill:none;stroke:red;stroke-width:1px;stroke-linecap:butt;stroke-linejoin:miter;stroke-opacity:1" d="M 212.054,280.295 228.698,276.966 z" id="boundary" inkscape:connector-curvature="0" />
	<path style="fill:none;stroke:red;stroke-width:1px;stroke-linecap:butt;stroke-linejoin:miter;stroke-opacity:1" d="M 228.698,276.966 245.342,276.966 z" id="boundary" inkscape:connector-curvature="0" />
	<path style="fill:none;stroke:red;stroke-width:1px;stroke-linecap:butt;stroke-linejoin:miter;stroke-opacity:1" d="M 245.342,276.966 261.987,276.966 z" id="boundary" inkscape:connector-curvature="0" />
	<path style="fill:none;stroke:red;stroke-width:1px;stroke-linecap:butt;stroke-linejoin:miter;stroke-opacity:1" d="M 261.987,276.966 278.631,276.966 z" id="boundary" inkscape:connector-curvature="0" />
	<path style="fill:none;stroke:red;stroke-width:1px;stroke-linecap:butt;stroke-linejoin:miter;stroke-opacity:1" d="M 278.631,276.966 295.275,276.966 z" id="boundary" inkscape:connector-curvature="0" />
	<path style="fill:none;stroke:red;stroke-width:1px;stroke-linecap:butt;stroke-linejoin:miter;stroke-opacity:1" d="M 295.275,276.966 310.255,285.289 z" id="boundary" inkscape:connector-curvature="0" />
	<path style="fill:none;stroke:red;stroke-width:1px;stroke-linecap:butt;stroke-linejoin:miter;stroke-opacity:1" d="M 310.255,285.289 311.919,301.933 z" id="boundary" inkscape:connector-curvature="0" />
	<path style="fill:none;stroke:red;stroke-width:1px;stroke-linecap:butt;stroke-linejoin:miter;stroke-opacity:1" d="M 311.919,301.933 311.919,330.228 z" id="boundary" inkscape:connector-curvature="0" />
	<path style="fill:none;stroke:red;stroke-width:1px;stroke-linecap:butt;stroke-linejoin:miter;stroke-opacity:1" d="M 311.919,330.228 311.919,346.872 z" id="boundary" inkscape:connector-curvature="0" />
	<path style="fill:none;stroke:red;stroke-width:1px;stroke-linecap:butt;stroke-linejoin:miter;stroke-opacity:1" d="M 311.919,346.872 321.906,360.188 z" id="boundary" inkscape:connector-curvature="0" />
	<path style="fill:none;stroke:red;stroke-width:1px;stroke-linecap:butt;stroke-linejoin:miter;stroke-opacity:1" d="M 321.906,360.188 338.55,360.188 z" id="boundary" inkscape:connector-curvature="0" />
	<path style="fill:none;stroke:red;stroke-width:1px;stroke-linecap:butt;stroke-linejoin:miter;stroke-opacity:1" d="M 338.55,360.188 355.195,363.517 z" id="boundary" inkscape:connector-curvature="0" />
	<path style="fill:none;stroke:red;stroke-width:1px;stroke-linecap:butt;stroke-linejoin:miter;stroke-opacity:1" d="M 355.195,363.517 366.846,350.201 z" id="boundary" inkscape:connector-curvature="0" />
	<path style="fill:none;stroke:red;stroke-width:1px;stroke-linecap:butt;stroke-linejoin:miter;stroke-opacity:1" d="M 366.846,350.201 375.168,335.221 z" id="boundary" inkscape:connector-curvature="0" />
	<path style="fill:none;stroke:red;stroke-width:1px;stroke-linecap:butt;stroke-linejoin:miter;stroke-opacity:1" d="M 375.168,335.221 371.839,318.577 z" id="boundary" inkscape:connector-curvature="0" />
	<path style="fill:none;stroke:red;stroke-width:1px;stroke-linecap:butt;stroke-linejoin:miter;stroke-opacity:1" d="M 371.839,318.577 371.839,301.933 z" id="boundary" inkscape:connector-curvature="0" />
	<path style="fill:none;stroke:red;stroke-width:1px;stroke-linecap:butt;stroke-linejoin:miter;stroke-opacity:1" d="M 371.839,301.933 371.839,285.289 z" id="boundary" inkscape:connector-curvature="0" />
	<path style="fill:none;stroke:red;stroke-width:1px;stroke-linecap:butt;stroke-linejoin:miter;stroke-opacity:1" d="M 371.839,285.289 388.483,285.289 z" id="boundary" inkscape:connector-curvature="0" />
	<path style="fill:none;stroke:red;stroke-width:1px;stroke-linecap:butt;stroke-linejoin:miter;stroke-opacity:1" d="M 388.483,285.289 405.128,285.289 z" id="boundary" inkscape:connector-curvature="0" />
	<path style="fill:none;stroke:red;stroke-width:1px;stroke-linecap:butt;stroke-linejoin:miter;stroke-opacity:1" d="M 405.128,285.289 421.772,285.289 z" id="boundary" inkscape:connector-curvature="0" />
	<path style="fill:none;stroke:red;stroke-width:1px;stroke-linecap:butt;stroke-linejoin:miter;stroke-opacity:1" d="M 421.772,285.289 428.43,301.933 z" id="boundary" inkscape:connector-curvature="0" />
	<path style="fill:none;stroke:red;stroke-width:1px;stroke-linecap:butt;stroke-linejoin:miter;stroke-opacity:1" d="M 428.43,301.933 428.43,318.577 z" id="boundary" inkscape:connector-curvature="0" />
	<path style="fill:none;stroke:red;stroke-width:1px;stroke-linecap:butt;stroke-linejoin:miter;stroke-opacity:1" d="M 428.43,318.577 428.43,335.221 z" id="boundary" inkscape:connector-curvature="0" />
	<path style="fill:none;stroke:red;stroke-width:1px;stroke-linecap:butt;stroke-linejoin:miter;stroke-opacity:1" d="M 428.43,335.221 428.43,351.866 z" id="boundary" inkscape:connector-curvature="0" />
	<path style="fill:none;stroke:red;stroke-width:1px;stroke-linecap:butt;stroke-linejoin:miter;stroke-opacity:1" d="M 428.43,351.866 433.423,368.51 z" id="boundary" inkscape:connector-curvature="0" />
	<path style="fill:none;stroke:red;stroke-width:1px;stroke-linecap:butt;stroke-linejoin:miter;stroke-opacity:1" d="M 433.423,368.51 441.745,383.49 z" id="boundary" inkscape:connector-curvature="0" />
	<path style="fill:none;stroke:red;stroke-width:1px;stroke-linecap:butt;stroke-linejoin:miter;stroke-opacity:1" d="M 441.745,383.49 455.06,393.477 z" id="boundary" inkscape:connector-curvature="0" />
	<path style="fill:none;stroke:red;stroke-width:1px;stroke-linecap:butt;stroke-linejoin:miter;stroke-opacity:1" d="M 455.06,393.477 471.705,396.805 z" id="boundary" inkscape:connector-curvature="0" />
	<path style="fill:none;stroke:red;stroke-width:1px;stroke-linecap:butt;stroke-linejoin:miter;stroke-opacity:1" d="M 471.705,396.805 488.349,401.799 z" id="boundary" inkscape:connector-curvature="0" />
	<path style="fill:none;stroke:red;stroke-width:1px;stroke-linecap:butt;stroke-linejoin:miter;stroke-opacity:1" d="M 488.349,401.799 504.993,405.128 z" id="boundary" inkscape:connector-curvature="0" />
	<path style="fill:none;stroke:red;stroke-width:1px;stroke-linecap:butt;stroke-linejoin:miter;stroke-opacity:1" d="M 504.993,405.128 519.973,413.45 z" id="boundary" inkscape:connector-curvature="0" />
	<path style="fill:none;stroke:red;stroke-width:1px;stroke-linecap:butt;stroke-linejoin:miter;stroke-opacity:1" d="M 519.973,413.45 536.617,413.45 z" id="boundary" inkscape:connector-curvature="0" />
	<path style="fill:none;stroke:red;stroke-width:1px;stroke-linecap:butt;stroke-linejoin:miter;stroke-opacity:1" d="M 536.617,413.45 553.262,410.121 z" id="boundary" inkscape:connector-curvature="0" />
	<path style="fill:none;stroke:red;stroke-width:1px;stroke-linecap:butt;stroke-linejoin:miter;stroke-opacity:1" d="M 553.262,410.121 563.248,385.154 z" id="boundary" inkscape:connector-curvature="0" />
	<path style="fill:none;stroke:red;stroke-width:1px;stroke-linecap:butt;stroke-linejoin:miter;stroke-opacity:1" d="M 563.248,385.154 576.564,373.503 z" id="boundary" inkscape:connector-curvature="0" />
	<path style="fill:none;stroke:red;stroke-width:1px;stroke-linecap:butt;stroke-linejoin:miter;stroke-opacity:1" d="M 576.564,373.503 588.215,360.188 z" id="boundary" inkscape:connector-curvature="0" />
	<path style="fill:none;stroke:red;stroke-width:1px;stroke-linecap:butt;stroke-linejoin:miter;stroke-opacity:1" d="M 588.215,360.188 588.215,343.544 z" id="boundary" inkscape:connector-curvature="0" />
	<path style="fill:none;stroke:red;stroke-width:1px;stroke-linecap:butt;stroke-linejoin:miter;stroke-opacity:1" d="M 588.215,343.544 588.215,326.899 z" id="boundary" inkscape:connector-curvature="0" />
	<path style="fill:none;stroke:red;stroke-width:1px;stroke-linecap:butt;stroke-linejoin:miter;stroke-opacity:1" d="M 588.215,326.899 588.215,310.255 z" id="boundary" inkscape:connector-curvature="0" />
	<path style="fill:none;stroke:red;stroke-width:1px;stroke-linecap:butt;stroke-linejoin:miter;stroke-opacity:1" d="M 588.215,310.255 588.215,293.611 z" id="boundary" inkscape:connector-curvature="0" />
	<path style="fill:none;stroke:red;stroke-width:1px;stroke-linecap:butt;stroke-linejoin:miter;stroke-opacity:1" d="M 588.215,293.611 588.215,276.966 z" id="boundary" inkscape:connector-curvature="0" />
	<path style="fill:none;stroke:red;stroke-width:1px;stroke-linecap:butt;stroke-linejoin:miter;stroke-opacity:1" d="M 588.215,276.966 588.215,260.322 z" id="boundary" inkscape:connector-curvature="0" />
	<path style="fill:none;stroke:red;stroke-width:1px;stroke-linecap:butt;stroke-linejoin:miter;stroke-opacity:1" d="M 588.215,260.322 588.215,243.678 z" id="boundary" inkscape:connector-curvature="0" />
	<path style="fill:none;stroke:red;stroke-width:1px;stroke-linecap:butt;stroke-linejoin:miter;stroke-opacity:1" d="M 588.215,243.678 588.215,227.034 z" id="boundary" inkscape:connector-curvature="0" />
	<path style="fill:none;stroke:red;stroke-width:1px;stroke-linecap:butt;stroke-linejoin:miter;stroke-opacity:1" d="M 588.215,227.034 604.859,227.034 z" id="boundary" inkscape:connector-curvature="0" />
	<path style="fill:none;stroke:red;stroke-width:1px;stroke-linecap:butt;stroke-linejoin:miter;stroke-opacity:1" d="M 604.859,227.034 621.503,227.034 z" id="boundary" inkscape:connector-curvature="0" />
	<path style="fill:none;stroke:red;stroke-width:1px;stroke-linecap:butt;stroke-linejoin:miter;stroke-opacity:1" d="M 621.503,227.034 638.148,227.034 z" id="boundary" inkscape:connector-curvature="0" />
	<path style="fill:none;stroke:red;stroke-width:1px;stroke-linecap:butt;stroke-linejoin:miter;stroke-opacity:1" d="M 638.148,227.034 653.128,235.356 z" id="boundary" inkscape:connector-curvature="0" />
	<path style="fill:none;stroke:red;stroke-width:1px;stroke-linecap:butt;stroke-linejoin:miter;stroke-opacity:1" d="M 653.128,235.356 658.121,252 z" id="boundary" inkscape:connector-curvature="0" />
	<path style="fill:none;stroke:red;stroke-width:1px;stroke-linecap:butt;stroke-linejoin:miter;stroke-opacity:1" d="M 658.121,252 661.45,268.644 z" id="boundary" inkscape:connector-curvature="0" />
	<path style="fill:none;stroke:red;stroke-width:1px;stroke-linecap:butt;stroke-linejoin:miter;stroke-opacity:1" d="M 661.45,268.644 666.443,285.289 z" id="boundary" inkscape:connector-curvature="0" />
	<path style="fill:none;stroke:red;stroke-width:1px;stroke-linecap:butt;stroke-linejoin:miter;stroke-opacity:1" d="M 666.443,285.289 674.765,300.268 z" id="boundary" inkscape:connector-curvature="0" />
	<path style="fill:none;stroke:red;stroke-width:1px;stroke-linecap:butt;stroke-linejoin:miter;stroke-opacity:1" d="M 674.765,300.268 686.416,313.584 z" id="boundary" inkscape:connector-curvature="0" />
	<path style="fill:none;stroke:red;stroke-width:1px;stroke-linecap:butt;stroke-linejoin:miter;stroke-opacity:1" d="M 686.416,313.584 703.06,310.255 z" id="boundary" inkscape:connector-curvature="0" />
	<path style="fill:none;stroke:red;stroke-width:1px;stroke-linecap:butt;stroke-linejoin:miter;stroke-opacity:1" d="M 703.06,310.255 719.705,310.255 z" id="boundary" inkscape:connector-curvature="0" />
	<path style="fill:none;stroke:red;stroke-width:1px;stroke-linecap:butt;stroke-linejoin:miter;stroke-opacity:1" d="M 719.705,310.255 736.349,310.255 z" id="boundary" inkscape:connector-curvature="0" />
	<path style="fill:none;stroke:red;stroke-width:1px;stroke-linecap:butt;stroke-linejoin:miter;stroke-opacity:1" d="M 736.349,310.255 752.993,310.255 z" id="boundary" inkscape:connector-curvature="0" />
	<path style="fill:none;stroke:red;stroke-width:1px;stroke-linecap:butt;stroke-linejoin:miter;stroke-opacity:1" d="M 752.993,310.255 762.98,323.57 z" id="boundary" inkscape:connector-curvature="0" />
	<path style="fill:none;stroke:red;stroke-width:1px;stroke-linecap:butt;stroke-linejoin:miter;stroke-opacity:1" d="M 762.98,323.57 776.295,335.221 z" id="boundary" inkscape:connector-curvature="0" />
	<path style="fill:none;stroke:red;stroke-width:1px;stroke-linecap:butt;stroke-linejoin:miter;stroke-opacity:1" d="M 776.295,335.221 786.282,348.537 z" id="boundary" inkscape:connector-curvature="0" />
	<path style="fill:none;stroke:red;stroke-width:1px;stroke-linecap:butt;stroke-linejoin:miter;stroke-opacity:1" d="M 786.282,348.537 777.96,363.517 z" id="boundary" inkscape:connector-curvature="0" />
	<path style="fill:none;stroke:red;stroke-width:1px;stroke-linecap:butt;stroke-linejoin:miter;stroke-opacity:1" d="M 777.96,363.517 786.282,378.497 z" id="boundary" inkscape:connector-curvature="0" />
	<path style="fill:none;stroke:red;stroke-width:1px;stroke-linecap:butt;stroke-linejoin:miter;stroke-opacity:1" d="M 786.282,378.497 802.926,385.154 z" id="boundary" inkscape:connector-curvature="0" />
	<path style="fill:none;stroke:red;stroke-width:1px;stroke-linecap:butt;stroke-linejoin:miter;stroke-opacity:1" d="M 802.926,385.154 817.906,393.477 z" id="boundary" inkscape:connector-curvature="0" />
	<path style="fill:none;stroke:red;stroke-width:1px;stroke-linecap:butt;stroke-linejoin:miter;stroke-opacity:1" d="M 817.906,393.477 834.55,393.477 z" id="boundary" inkscape:connector-curvature="0" />
	<path style="fill:none;stroke:red;stroke-width:1px;stroke-linecap:butt;stroke-linejoin:miter;stroke-opacity:1" d="M 834.55,393.477 849.53,401.799 z" id="boundary" inkscape:connector-curvature="0" />
	<path style="fill:none;stroke:red;stroke-width:1px;stroke-linecap:butt;stroke-linejoin:miter;stroke-opacity:1" d="M 849.53,401.799 866.174,401.799 z" id="boundary" inkscape:connector-curvature="0" />
	<path style="fill:none;stroke:red;stroke-width:1px;stroke-linecap:butt;stroke-linejoin:miter;stroke-opacity:1" d="M 866.174,401.799 882.819,408.456 z" id="boundary" inkscape:connector-curvature="0" />
	<path style="fill:none;stroke:red;stroke-width:1px;stroke-linecap:butt;stroke-linejoin:miter;stroke-opacity:1" d="M 882.819,408.456 896.134,418.443 z" id="boundary" inkscape:connector-curvature="0" />
	<path style="fill:none;stroke:red;stroke-width:1px;stroke-linecap:butt;stroke-linejoin:miter;stroke-opacity:1" d="M 896.134,418.443 912.779,418.443 z" id="boundary" inkscape:connector-curvature="0" />
	<path style="fill:none;stroke:red;stroke-width:1px;stroke-linecap:butt;stroke-linejoin:miter;stroke-opacity:1" d="M 912.779,418.443 929.423,418.443 z" id="boundary" inkscape:connector-curvature="0" />
	<path style="fill:none;stroke:red;stroke-width:1px;stroke-linecap:butt;stroke-linejoin:miter;stroke-opacity:1" d="M 929.423,418.443 946.067,410.121 z" id="boundary" inkscape:connector-curvature="0" />
	<path style="fill:none;stroke:red;stroke-width:1px;stroke-linecap:butt;stroke-linejoin:miter;stroke-opacity:1" d="M 946.067,410.121 962.711,401.799 z" id="boundary" inkscape:connector-curvature="0" />
	<path style="fill:none;stroke:red;stroke-width:1px;stroke-linecap:butt;stroke-linejoin:miter;stroke-opacity:1" d="M 962.711,401.799 976.027,390.148 z" id="boundary" inkscape:connector-curvature="0" />
	<path style="fill:none;stroke:red;stroke-width:1px;stroke-linecap:butt;stroke-linejoin:miter;stroke-opacity:1" d="M 976.027,390.148 992.671,381.826 z" id="boundary" inkscape:connector-curvature="0" />
	<path style="fill:none;stroke:red;stroke-width:1px;stroke-linecap:butt;stroke-linejoin:miter;stroke-opacity:1" d="M 992.671,381.826 996,353.53 z" id="boundary" inkscape:connector-curvature="0" />
	<circle cx="4" cy="130.497" r="4" fill="#0" id="circle0"/>
	<circle cx="17.3154" cy="117.181" r="4" fill="#0" id="circle1"/>
	<circle cx="17.3154" cy="142.148" r="4" fill="#0" id="circle2"/>
	<circle cx="25.6376" cy="100.537" r="4" fill="#0" id="circle3"/>
	<circle cx="28.9664" cy="155.463" r="4" fill="#0" id="circle4"/>
	<circle cx="33.9597" cy="83.8926" r="4" fill="#0" id="circle5"/>
	<circle cx="45.6107" cy="155.463" r="4" fill="#0" id="circle6"/>
	<circle cx="47.2752" cy="70.5772" r="4" fill="#0" id="circle7"/>
	<circle cx="58.9262" cy="142.148" r="4" fill="#0" id="circle8"/>
	<circle cx="60.5906" cy="58.9262" r="4" fill="#0" id="circle9"/>
	<circle cx="62.255" cy="38.953" r="4" fill="#0" id="circle10"/>
	<circle cx="72.2416" cy="127.168" r="4" fill="#0" id="circle11"/>
	<circle cx="78.8993" cy="30.6309" r="4" fill="#0" id="circle12"/>
	<circle cx="87.2215" cy="313.584" r="4" fill="#0" id="circle13"/>
	<circle cx="87.2215" cy="330.228" r="4" fill="#0" id="circle14"/>
	<circle cx="87.2215" cy="346.872" r="4" fill="#0" id="circle15"/>
	<circle cx="88.8859" cy="127.168" r="4" fill="#0" id="circle16"/>
	<circle cx="95.5436" cy="37.2886" r="4" fill="#0" id="circle17"/>
	<circle cx="95.5436" cy="361.852" r="4" fill="#0" id="circle18"/>
	<circle cx="100.537" cy="300.268" r="4" fill="#0" id="circle19"/>
	<circle cx="103.866" cy="155.463" r="4" fill="#0" id="circle20"/>
	<circle cx="105.53" cy="127.168" r="4" fill="#0" id="circle21"/>
	<circle cx="108.859" cy="283.624" r="4" fill="#0" id="circle22"/>
	<circle cx="112.188" cy="42.2819" r="4" fill="#0" id="circle23"/>
	<circle cx="112.188" cy="170.443" r="4" fill="#0" id="circle24"/>
	<circle cx="112.188" cy="368.51" r="4" fill="#0" id="circle25"/>
	<circle cx="120.51" cy="185.423" r="4" fill="#0" id="circle26"/>
	<circle cx="120.51" cy="202.067" r="4" fill="#0" id="circle27"/>
	<circle cx="120.51" cy="218.711" r="4" fill="#0" id="circle28"/>
	<circle cx="120.51" cy="235.356" r="4" fill="#0" id="circle29"/>
	<circle cx="120.51" cy="252" r="4" fill="#0" id="circle30"/>
	<circle cx="120.51" cy="268.644" r="4" fill="#0" id="circle31"/>
	<circle cx="122.174" cy="351.866" r="4" fill="#0" id="circle32"/>
	<circle cx="125.503" cy="52.2685" r="4" fill="#0" id="circle33"/>
	<circle cx="130.497" cy="335.221" r="4" fill="#0" id="circle34"/>
	<circle cx="138.819" cy="63.9195" r="4" fill="#0" id="circle35"/>
	<circle cx="138.819" cy="318.577" r="4" fill="#0" id="circle36"/>
	<circle cx="147.141" cy="78.8993" r="4" fill="#0" id="circle37"/>
	<circle cx="147.141" cy="285.289" r="4" fill="#0" id="circle38"/>
	<circle cx="147.141" cy="301.933" r="4" fill="#0" id="circle39"/>
	<circle cx="157.128" cy="92.2148" r="4" fill="#0" id="circle40"/>
	<circle cx="163.785" cy="108.859" r="4" fill="#0" id="circle41"/>
	<circle cx="163.785" cy="285.289" r="4" fill="#0" id="circle42"/>
	<circle cx="178.765" cy="117.181" r="4" fill="#0" id="circle43"/>
	<circle cx="180.43" cy="285.289" r="4" fill="#0" id="circle44"/>
	<circle cx="195.409" cy="117.181" r="4" fill="#0" id="circle45"/>
	<circle cx="195.409" cy="276.966" r="4" fill="#0" id="circle46"/>
	<circle cx="212.054" cy="117.181" r="4" fill="#0" id="circle47"/>
	<circle cx="212.054" cy="280.295" r="4" fill="#0" id="circle48"/>
	<circle cx="228.698" cy="117.181" r="4" fill="#0" id="circle49"/>
	<circle cx="228.698" cy="276.966" r="4" fill="#0" id="circle50"/>
	<circle cx="245.342" cy="117.181" r="4" fill="#0" id="circle51"/>
	<circle cx="245.342" cy="276.966" r="4" fill="#0" id="circle52"/>
	<circle cx="261.987" cy="117.181" r="4" fill="#0" id="circle53"/>
	<circle cx="261.987" cy="276.966" r="4" fill="#0" id="circle54"/>
	<circle cx="278.631" cy="117.181" r="4" fill="#0" id="circle55"/>
	<circle cx="278.631" cy="276.966" r="4" fill="#0" id="circle56"/>
	<circle cx="295.275" cy="117.181" r="4" fill="#0" id="circle57"/>
	<circle cx="295.275" cy="276.966" r="4" fill="#0" id="circle58"/>
	<circle cx="310.255" cy="285.289" r="4" fill="#0" id="circle59"/>
	<circle cx="311.919" cy="117.181" r="4" fill="#0" id="circle60"/>
	<circle cx="311.919" cy="301.933" r="4" fill="#0" id="circle61"/>
	<circle cx="311.919" cy="330.228" r="4" fill="#0" id="circle62"/>
	<circle cx="311.919" cy="346.872" r="4" fill="#0" id="circle63"/>
	<circle cx="321.906" cy="360.188" r="4" fill="#0" id="circle64"/>
	<circle cx="328.564" cy="117.181" r="4" fill="#0" id="circle65"/>
	<circle cx="338.55" cy="360.188" r="4" fill="#0" id="circle66"/>
	<circle cx="343.544" cy="125.503" r="4" fill="#0" id="circle67"/>
	<circle cx="355.195" cy="363.517" r="4" fill="#0" id="circle68"/>
	<circle cx="360.188" cy="127.168" r="4" fill="#0" id="circle69"/>
	<circle cx="366.846" cy="350.201" r="4" fill="#0" id="circle70"/>
	<circle cx="371.839" cy="285.289" r="4" fill="#0" id="circle71"/>
	<circle cx="371.839" cy="301.933" r="4" fill="#0" id="circle72"/>
	<circle cx="371.839" cy="318.577" r="4" fill="#0" id="circle73"/>
	<circle cx="375.168" cy="135.49" r="4" fill="#0" id="circle74"/>
	<circle cx="375.168" cy="335.221" r="4" fill="#0" id="circle75"/>
	<circle cx="388.483" cy="147.141" r="4" fill="#0" id="circle76"/>
	<circle cx="388.483" cy="285.289" r="4" fill="#0" id="circle77"/>
	<circle cx="396.805" cy="162.121" r="4" fill="#0" id="circle78"/>
	<circle cx="396.805" cy="178.765" r="4" fill="#0" id="circle79"/>
	<circle cx="405.128" cy="193.745" r="4" fill="#0" id="circle80"/>
	<circle cx="405.128" cy="285.289" r="4" fill="#0" id="circle81"/>
	<circle cx="408.456" cy="210.389" r="4" fill="#0" id="circle82"/>
	<circle cx="421.772" cy="285.289" r="4" fill="#0" id="circle83"/>
	<circle cx="425.101" cy="208.725" r="4" fill="#0" id="circle84"/>
	<circle cx="428.43" cy="301.933" r="4" fill="#0" id="circle85"/>
	<circle cx="428.43" cy="318.577" r="4" fill="#0" id="circle86"/>
	<circle cx="428.43" cy="335.221" r="4" fill="#0" id="circle87"/>
	<circle cx="428.43" cy="351.866" r="4" fill="#0" id="circle88"/>
	<circle cx="433.423" cy="368.51" r="4" fill="#0" id="circle89"/>
	<circle cx="440.081" cy="217.047" r="4" fill="#0" id="circle90"/>
	<circle cx="441.745" cy="383.49" r="4" fill="#0" id="circle91"/>
	<circle cx="455.06" cy="393.477" r="4" fill="#0" id="circle92"/>
	<circle cx="456.725" cy="210.389" r="4" fill="#0" id="circle93"/>
	<circle cx="470.04" cy="200.403" r="4" fill="#0" id="circle94"/>
	<circle cx="471.705" cy="396.805" r="4" fill="#0" id="circle95"/>
	<circle cx="486.685" cy="197.074" r="4" fill="#0" id="circle96"/>
	<circle cx="488.349" cy="401.799" r="4" fill="#0" id="circle97"/>
	<circle cx="495.007" cy="122.174" r="4" fill="#0" id="circle98"/>
	<circle cx="495.007" cy="138.819" r="4" fill="#0" id="circle99"/>
	<circle cx="495.007" cy="163.785" r="4" fill="#0" id="circle100"/>
	<circle cx="500" cy="183.758" r="4" fill="#0" id="circle101"/>
	<circle cx="503.329" cy="105.53" r="4" fill="#0" id="circle102"/>
	<circle cx="504.993" cy="405.128" r="4" fill="#0" id="circle103"/>
	<circle cx="516.644" cy="92.2148" r="4" fill="#0" id="circle104"/>
	<circle cx="519.973" cy="413.45" r="4" fill="#0" id="circle105"/>
	<circle cx="533.289" cy="92.2148" r="4" fill="#0" id="circle106"/>
	<circle cx="536.617" cy="38.953" r="4" fill="#0" id="circle107"/>
	<circle cx="536.617" cy="55.5973" r="4" fill="#0" id="circle108"/>
	<circle cx="536.617" cy="72.2416" r="4" fill="#0" id="circle109"/>
	<circle cx="536.617" cy="413.45" r="4" fill="#0" id="circle110"/>
	<circle cx="544.94" cy="22.3087" r="4" fill="#0" id="circle111"/>
	<circle cx="553.262" cy="5.66443" r="4" fill="#0" id="circle112"/>
	<circle cx="553.262" cy="410.121" r="4" fill="#0" id="circle113"/>
	<circle cx="563.248" cy="385.154" r="4" fill="#0" id="circle114"/>
	<circle cx="569.906" cy="4" r="4" fill="#0" id="circle115"/>
	<circle cx="576.564" cy="373.503" r="4" fill="#0" id="circle116"/>
	<circle cx="579.893" cy="17.3154" r="4" fill="#0" id="circle117"/>
	<circle cx="588.215" cy="32.2953" r="4" fill="#0" id="circle118"/>
	<circle cx="588.215" cy="227.034" r="4" fill="#0" id="circle119"/>
	<circle cx="588.215" cy="243.678" r="4" fill="#0" id="circle120"/>
	<circle cx="588.215" cy="260.322" r="4" fill="#0" id="circle121"/>
	<circle cx="588.215" cy="276.966" r="4" fill="#0" id="circle122"/>
	<circle cx="588.215" cy="293.611" r="4" fill="#0" id="circle123"/>
	<circle cx="588.215" cy="310.255" r="4" fill="#0" id="circle124"/>
	<circle cx="588.215" cy="326.899" r="4" fill="#0" id="circle125"/>
	<circle cx="588.215" cy="343.544" r="4" fill="#0" id="circle126"/>
	<circle cx="588.215" cy="360.188" r="4" fill="#0" id="circle127"/>
	<circle cx="596.537" cy="47.2752" r="4" fill="#0" id="circle128"/>
	<circle cx="603.195" cy="63.9195" r="4" fill="#0" id="circle129"/>
	<circle cx="604.859" cy="80.5638" r="4" fill="#0" id="circle130"/>
	<circle cx="604.859" cy="97.2081" r="4" fill="#0" id="circle131"/>
	<circle cx="604.859" cy="113.852" r="4" fill="#0" id="circle132"/>
	<circle cx="604.859" cy="227.034" r="4" fill="#0" id="circle133"/>
	<circle cx="613.181" cy="128.832" r="4" fill="#0" id="circle134"/>
	<circle cx="621.503" cy="227.034" r="4" fill="#0" id="circle135"/>
	<circle cx="623.168" cy="142.148" r="4" fill="#0" id="circle136"/>
	<circle cx="636.483" cy="153.799" r="4" fill="#0" id="circle137"/>
	<circle cx="638.148" cy="227.034" r="4" fill="#0" id="circle138"/>
	<circle cx="646.47" cy="167.114" r="4" fill="#0" id="circle139"/>
	<circle cx="653.128" cy="235.356" r="4" fill="#0" id="circle140"/>
	<circle cx="658.121" cy="252" r="4" fill="#0" id="circle141"/>
	<circle cx="659.785" cy="177.101" r="4" fill="#0" id="circle142"/>
	<circle cx="661.45" cy="268.644" r="4" fill="#0" id="circle143"/>
	<circle cx="666.443" cy="285.289" r="4" fill="#0" id="circle144"/>
	<circle cx="674.765" cy="300.268" r="4" fill="#0" id="circle145"/>
	<circle cx="676.43" cy="183.758" r="4" fill="#0" id="circle146"/>
	<circle cx="686.416" cy="313.584" r="4" fill="#0" id="circle147"/>
	<circle cx="693.074" cy="183.758" r="4" fill="#0" id="circle148"/>
	<circle cx="703.06" cy="310.255" r="4" fill="#0" id="circle149"/>
	<circle cx="708.054" cy="175.436" r="4" fill="#0" id="circle150"/>
	<circle cx="716.376" cy="158.792" r="4" fill="#0" id="circle151"/>
	<circle cx="719.705" cy="310.255" r="4" fill="#0" id="circle152"/>
	<circle cx="733.02" cy="158.792" r="4" fill="#0" id="circle153"/>
	<circle cx="736.349" cy="310.255" r="4" fill="#0" id="circle154"/>
	<circle cx="746.336" cy="145.477" r="4" fill="#0" id="circle155"/>
	<circle cx="752.993" cy="310.255" r="4" fill="#0" id="circle156"/>
	<circle cx="761.315" cy="113.852" r="4" fill="#0" id="circle157"/>
	<circle cx="761.315" cy="130.497" r="4" fill="#0" id="circle158"/>
	<circle cx="762.98" cy="323.57" r="4" fill="#0" id="circle159"/>
	<circle cx="769.638" cy="97.2081" r="4" fill="#0" id="circle160"/>
	<circle cx="776.295" cy="335.221" r="4" fill="#0" id="circle161"/>
	<circle cx="777.96" cy="80.5638" r="4" fill="#0" id="circle162"/>
	<circle cx="777.96" cy="363.517" r="4" fill="#0" id="circle163"/>
	<circle cx="786.282" cy="348.537" r="4" fill="#0" id="circle164"/>
	<circle cx="786.282" cy="378.497" r="4" fill="#0" id="circle165"/>
	<circle cx="791.275" cy="67.2483" r="4" fill="#0" id="circle166"/>
	<circle cx="802.926" cy="385.154" r="4" fill="#0" id="circle167"/>
	<circle cx="807.919" cy="67.2483" r="4" fill="#0" id="circle168"/>
	<circle cx="817.906" cy="393.477" r="4" fill="#0" id="circle169"/>
	<circle cx="824.564" cy="67.2483" r="4" fill="#0" id="circle170"/>
	<circle cx="834.55" cy="393.477" r="4" fill="#0" id="circle171"/>
	<circle cx="839.544" cy="75.5705" r="4" fill="#0" id="circle172"/>
	<circle cx="846.201" cy="92.2148" r="4" fill="#0" id="circle173"/>
	<circle cx="849.53" cy="401.799" r="4" fill="#0" id="circle174"/>
	<circle cx="854.523" cy="107.195" r="4" fill="#0" id="circle175"/>
	<circle cx="862.846" cy="122.174" r="4" fill="#0" id="circle176"/>
	<circle cx="866.174" cy="401.799" r="4" fill="#0" id="circle177"/>
	<circle cx="876.161" cy="133.826" r="4" fill="#0" id="circle178"/>
	<circle cx="882.819" cy="408.456" r="4" fill="#0" id="circle179"/>
	<circle cx="892.805" cy="133.826" r="4" fill="#0" id="circle180"/>
	<circle cx="896.134" cy="418.443" r="4" fill="#0" id="circle181"/>
	<circle cx="909.45" cy="133.826" r="4" fill="#0" id="circle182"/>
	<circle cx="912.779" cy="418.443" r="4" fill="#0" id="circle183"/>
	<circle cx="926.094" cy="133.826" r="4" fill="#0" id="circle184"/>
	<circle cx="929.423" cy="418.443" r="4" fill="#0" id="circle185"/>
	<circle cx="942.738" cy="135.49" r="4" fill="#0" id="circle186"/>
	<circle cx="946.067" cy="152.134" r="4" fill="#0" id="circle187"/>
	<circle cx="946.067" cy="168.779" r="4" fill="#0" id="circle188"/>
	<circle cx="946.067" cy="185.423" r="4" fill="#0" id="circle189"/>
	<circle cx="946.067" cy="202.067" r="4" fill="#0" id="circle190"/>
	<circle cx="946.067" cy="218.711" r="4" fill="#0" id="circle191"/>
	<circle cx="946.067" cy="235.356" r="4" fill="#0" id="circle192"/>
	<circle cx="946.067" cy="410.121" r="4" fill="#0" id="circle193"/>
	<circle cx="954.389" cy="250.336" r="4" fill="#0" id="circle194"/>
	<circle cx="962.711" cy="401.799" r="4" fill="#0" id="circle195"/>
	<circle cx="969.369" cy="258.658" r="4" fill="#0" id="circle196"/>
	<circle cx="976.027" cy="390.148" r="4" fill="#0" id="circle197"/>
	<circle cx="979.356" cy="271.973" r="4" fill="#0" id="circle198"/>
	<circle cx="987.678" cy="286.953" r="4" fill="#0" id="circle199"/>
	<circle cx="992.671" cy="303.597" r="4" fill="#0" id="circle200"/>
	<circle cx="992.671" cy="381.826" r="4" fill="#0" id="circle201"/>
	<circle cx="996" cy="320.242" r="4" fill="#0" id="circle202"/>
	<circle cx="996" cy="336.886" r="4" fill="#0" id="circle203"/>
	<circle cx="996" cy="353.53" r="4" fill="#0" id="circle204"/>
	</g>
</svg>