<?xml version="1.0" encoding="UTF-8" standalone="no"?>
<!-- Created with CurveBenchmark -->
<svg
	xmlns:dc="http://purl.org/dc/elements/1.1/"
	xmlns:cc="http://creativecommons.org/ns#"
	xmlns:rdf="http://www.w3.org/1999/02/22-rdf-syntax-ns#"
	xmlns:svg="http://www.w3.org/2000/svg"
	xmlns="http://www.w3.org/2000/svg"
	xmlns:sodipodi="http://sodipodi.sourceforge.net/DTD/sodipodi-0.dtd"
	xmlns:inkscape="http://www.inkscape.org/namespaces/inkscape"
	width="1000"
	height="1000"
	id="svg2"
	version="1.1"
	sodipodi:docname="manifold/crawl-fish330.png.txt">
<defs
	id="defs4" />
<metadata
	id="metadata7">
	<rdf:RDF>
		<cc:Work
			rdf:about="">
			<dc:format>image/svg+xml</dc:format>
			<dc:type
				rdf:resource="http://purl.org/dc/dcmitype/StillImage" />
			<dc:title></dc:title>
		</cc:Work>
	</rdf:RDF>
</metadata>
<g
	inkscape:label="Layer 1"
	inkscape:groupmode="layer"
	id="layer1">
	<path style="fill:none;stroke:red;stroke-width:1px;stroke-linecap:butt;stroke-linejoin:miter;stroke-opacity:1" d="M 52.1553,312.194 32.8932,286.511 z" id="boundary" inkscape:connector-curvature="0" />
	<path style="fill:none;stroke:red;stroke-width:1px;stroke-linecap:butt;stroke-linejoin:miter;stroke-opacity:1" d="M 32.8932,286.511 10.4207,260.828 z" id="boundary" inkscape:connector-curvature="0" />
	<path style="fill:none;stroke:red;stroke-width:1px;stroke-linecap:butt;stroke-linejoin:miter;stroke-opacity:1" d="M 10.4207,260.828 4,228.725 z" id="boundary" inkscape:connector-curvature="0" />
	<path style="fill:none;stroke:red;stroke-width:1px;stroke-linecap:butt;stroke-linejoin:miter;stroke-opacity:1" d="M 4,228.725 32.8932,212.673 z" id="boundary" inkscape:connector-curvature="0" />
	<path style="fill:none;stroke:red;stroke-width:1px;stroke-linecap:butt;stroke-linejoin:miter;stroke-opacity:1" d="M 32.8932,212.673 58.5761,193.411 z" id="boundary" inkscape:connector-curvature="0" />
	<path style="fill:none;stroke:red;stroke-width:1px;stroke-linecap:butt;stroke-linejoin:miter;stroke-opacity:1" d="M 52.1553,312.194 77.8382,334.667 z" id="boundary" inkscape:connector-curvature="0" />
	<path style="fill:none;stroke:red;stroke-width:1px;stroke-linecap:butt;stroke-linejoin:miter;stroke-opacity:1" d="M 77.8382,334.667 106.731,350.718 z" id="boundary" inkscape:connector-curvature="0" />
	<path style="fill:none;stroke:red;stroke-width:1px;stroke-linecap:butt;stroke-linejoin:miter;stroke-opacity:1" d="M 106.731,350.718 135.625,366.77 z" id="boundary" inkscape:connector-curvature="0" />
	<path style="fill:none;stroke:red;stroke-width:1px;stroke-linecap:butt;stroke-linejoin:miter;stroke-opacity:1" d="M 135.625,366.77 167.728,373.191 z" id="boundary" inkscape:connector-curvature="0" />
	<path style="fill:none;stroke:red;stroke-width:1px;stroke-linecap:butt;stroke-linejoin:miter;stroke-opacity:1" d="M 58.5761,193.411 90.6796,180.57 z" id="boundary" inkscape:connector-curvature="0" />
	<path style="fill:none;stroke:red;stroke-width:1px;stroke-linecap:butt;stroke-linejoin:miter;stroke-opacity:1" d="M 90.6796,180.57 116.362,161.307 z" id="boundary" inkscape:connector-curvature="0" />
	<path style="fill:none;stroke:red;stroke-width:1px;stroke-linecap:butt;stroke-linejoin:miter;stroke-opacity:1" d="M 116.362,161.307 148.466,151.676 z" id="boundary" inkscape:connector-curvature="0" />
	<path style="fill:none;stroke:red;stroke-width:1px;stroke-linecap:butt;stroke-linejoin:miter;stroke-opacity:1" d="M 148.466,151.676 180.57,138.835 z" id="boundary" inkscape:connector-curvature="0" />
	<path style="fill:none;stroke:red;stroke-width:1px;stroke-linecap:butt;stroke-linejoin:miter;stroke-opacity:1" d="M 180.57,138.835 212.673,125.994 z" id="boundary" inkscape:connector-curvature="0" />
	<path style="fill:none;stroke:red;stroke-width:1px;stroke-linecap:butt;stroke-linejoin:miter;stroke-opacity:1" d="M 212.673,125.994 244.777,119.573 z" id="boundary" inkscape:connector-curvature="0" />
	<path style="fill:none;stroke:red;stroke-width:1px;stroke-linecap:butt;stroke-linejoin:miter;stroke-opacity:1" d="M 244.777,119.573 276.88,109.942 z" id="boundary" inkscape:connector-curvature="0" />
	<path style="fill:none;stroke:red;stroke-width:1px;stroke-linecap:butt;stroke-linejoin:miter;stroke-opacity:1" d="M 167.728,373.191 199.832,386.032 z" id="boundary" inkscape:connector-curvature="0" />
	<path style="fill:none;stroke:red;stroke-width:1px;stroke-linecap:butt;stroke-linejoin:miter;stroke-opacity:1" d="M 199.832,386.032 231.935,398.874 z" id="boundary" inkscape:connector-curvature="0" />
	<path style="fill:none;stroke:red;stroke-width:1px;stroke-linecap:butt;stroke-linejoin:miter;stroke-opacity:1" d="M 231.935,398.874 264.039,405.294 z" id="boundary" inkscape:connector-curvature="0" />
	<path style="fill:none;stroke:red;stroke-width:1px;stroke-linecap:butt;stroke-linejoin:miter;stroke-opacity:1" d="M 264.039,405.294 280.091,434.188 z" id="boundary" inkscape:connector-curvature="0" />
	<path style="fill:none;stroke:red;stroke-width:1px;stroke-linecap:butt;stroke-linejoin:miter;stroke-opacity:1" d="M 280.091,434.188 292.932,466.291 z" id="boundary" inkscape:connector-curvature="0" />
	<path style="fill:none;stroke:red;stroke-width:1px;stroke-linecap:butt;stroke-linejoin:miter;stroke-opacity:1" d="M 292.932,466.291 312.194,491.974 z" id="boundary" inkscape:connector-curvature="0" />
	<path style="fill:none;stroke:red;stroke-width:1px;stroke-linecap:butt;stroke-linejoin:miter;stroke-opacity:1" d="M 312.194,491.974 337.877,514.447 z" id="boundary" inkscape:connector-curvature="0" />
	<path style="fill:none;stroke:red;stroke-width:1px;stroke-linecap:butt;stroke-linejoin:miter;stroke-opacity:1" d="M 337.877,514.447 369.981,514.447 z" id="boundary" inkscape:connector-curvature="0" />
	<path style="fill:none;stroke:red;stroke-width:1px;stroke-linecap:butt;stroke-linejoin:miter;stroke-opacity:1" d="M 369.981,514.447 395.663,495.184 z" id="boundary" inkscape:connector-curvature="0" />
	<path style="fill:none;stroke:red;stroke-width:1px;stroke-linecap:butt;stroke-linejoin:miter;stroke-opacity:1" d="M 395.663,495.184 421.346,514.447 z" id="boundary" inkscape:connector-curvature="0" />
	<path style="fill:none;stroke:red;stroke-width:1px;stroke-linecap:butt;stroke-linejoin:miter;stroke-opacity:1" d="M 421.346,514.447 453.45,514.447 z" id="boundary" inkscape:connector-curvature="0" />
	<path style="fill:none;stroke:red;stroke-width:1px;stroke-linecap:butt;stroke-linejoin:miter;stroke-opacity:1" d="M 453.45,514.447 475.922,463.081 z" id="boundary" inkscape:connector-curvature="0" />
	<path style="fill:none;stroke:red;stroke-width:1px;stroke-linecap:butt;stroke-linejoin:miter;stroke-opacity:1" d="M 475.922,463.081 472.712,430.977 z" id="boundary" inkscape:connector-curvature="0" />
	<path style="fill:none;stroke:red;stroke-width:1px;stroke-linecap:butt;stroke-linejoin:miter;stroke-opacity:1" d="M 472.712,430.977 456.66,402.084 z" id="boundary" inkscape:connector-curvature="0" />
	<path style="fill:none;stroke:red;stroke-width:1px;stroke-linecap:butt;stroke-linejoin:miter;stroke-opacity:1" d="M 456.66,402.084 488.764,398.874 z" id="boundary" inkscape:connector-curvature="0" />
	<path style="fill:none;stroke:red;stroke-width:1px;stroke-linecap:butt;stroke-linejoin:miter;stroke-opacity:1" d="M 488.764,398.874 520.867,395.663 z" id="boundary" inkscape:connector-curvature="0" />
	<path style="fill:none;stroke:red;stroke-width:1px;stroke-linecap:butt;stroke-linejoin:miter;stroke-opacity:1" d="M 520.867,395.663 552.971,392.453 z" id="boundary" inkscape:connector-curvature="0" />
	<path style="fill:none;stroke:red;stroke-width:1px;stroke-linecap:butt;stroke-linejoin:miter;stroke-opacity:1" d="M 552.971,392.453 585.074,392.453 z" id="boundary" inkscape:connector-curvature="0" />
	<path style="fill:none;stroke:red;stroke-width:1px;stroke-linecap:butt;stroke-linejoin:miter;stroke-opacity:1" d="M 585.074,392.453 617.178,386.032 z" id="boundary" inkscape:connector-curvature="0" />
	<path style="fill:none;stroke:red;stroke-width:1px;stroke-linecap:butt;stroke-linejoin:miter;stroke-opacity:1" d="M 617.178,386.032 649.282,398.874 z" id="boundary" inkscape:connector-curvature="0" />
	<path style="fill:none;stroke:red;stroke-width:1px;stroke-linecap:butt;stroke-linejoin:miter;stroke-opacity:1" d="M 649.282,398.874 681.385,405.294 z" id="boundary" inkscape:connector-curvature="0" />
	<path style="fill:none;stroke:red;stroke-width:1px;stroke-linecap:butt;stroke-linejoin:miter;stroke-opacity:1" d="M 681.385,405.294 713.489,411.715 z" id="boundary" inkscape:connector-curvature="0" />
	<path style="fill:none;stroke:red;stroke-width:1px;stroke-linecap:butt;stroke-linejoin:miter;stroke-opacity:1" d="M 713.489,411.715 745.592,411.715 z" id="boundary" inkscape:connector-curvature="0" />
	<path style="fill:none;stroke:red;stroke-width:1px;stroke-linecap:butt;stroke-linejoin:miter;stroke-opacity:1" d="M 745.592,411.715 768.065,386.032 z" id="boundary" inkscape:connector-curvature="0" />
	<path style="fill:none;stroke:red;stroke-width:1px;stroke-linecap:butt;stroke-linejoin:miter;stroke-opacity:1" d="M 768.065,386.032 780.906,353.929 z" id="boundary" inkscape:connector-curvature="0" />
	<path style="fill:none;stroke:red;stroke-width:1px;stroke-linecap:butt;stroke-linejoin:miter;stroke-opacity:1" d="M 780.906,353.929 784.117,312.194 z" id="boundary" inkscape:connector-curvature="0" />
	<path style="fill:none;stroke:red;stroke-width:1px;stroke-linecap:butt;stroke-linejoin:miter;stroke-opacity:1" d="M 784.117,312.194 816.22,308.984 z" id="boundary" inkscape:connector-curvature="0" />
	<path style="fill:none;stroke:red;stroke-width:1px;stroke-linecap:butt;stroke-linejoin:miter;stroke-opacity:1" d="M 816.22,308.984 845.113,325.036 z" id="boundary" inkscape:connector-curvature="0" />
	<path style="fill:none;stroke:red;stroke-width:1px;stroke-linecap:butt;stroke-linejoin:miter;stroke-opacity:1" d="M 845.113,325.036 870.796,344.298 z" id="boundary" inkscape:connector-curvature="0" />
	<path style="fill:none;stroke:red;stroke-width:1px;stroke-linecap:butt;stroke-linejoin:miter;stroke-opacity:1" d="M 870.796,344.298 899.689,360.35 z" id="boundary" inkscape:connector-curvature="0" />
	<path style="fill:none;stroke:red;stroke-width:1px;stroke-linecap:butt;stroke-linejoin:miter;stroke-opacity:1" d="M 899.689,360.35 931.793,373.191 z" id="boundary" inkscape:connector-curvature="0" />
	<path style="fill:none;stroke:red;stroke-width:1px;stroke-linecap:butt;stroke-linejoin:miter;stroke-opacity:1" d="M 931.793,373.191 963.896,379.612 z" id="boundary" inkscape:connector-curvature="0" />
	<path style="fill:none;stroke:red;stroke-width:1px;stroke-linecap:butt;stroke-linejoin:miter;stroke-opacity:1" d="M 963.896,379.612 996,376.401 z" id="boundary" inkscape:connector-curvature="0" />
	<path style="fill:none;stroke:red;stroke-width:1px;stroke-linecap:butt;stroke-linejoin:miter;stroke-opacity:1" d="M 996,376.401 992.79,337.877 z" id="boundary" inkscape:connector-curvature="0" />
	<path style="fill:none;stroke:red;stroke-width:1px;stroke-linecap:butt;stroke-linejoin:miter;stroke-opacity:1" d="M 992.79,337.877 983.159,305.773 z" id="boundary" inkscape:connector-curvature="0" />
	<path style="fill:none;stroke:red;stroke-width:1px;stroke-linecap:butt;stroke-linejoin:miter;stroke-opacity:1" d="M 983.159,305.773 983.159,273.67 z" id="boundary" inkscape:connector-curvature="0" />
	<path style="fill:none;stroke:red;stroke-width:1px;stroke-linecap:butt;stroke-linejoin:miter;stroke-opacity:1" d="M 983.159,273.67 983.159,241.566 z" id="boundary" inkscape:connector-curvature="0" />
	<path style="fill:none;stroke:red;stroke-width:1px;stroke-linecap:butt;stroke-linejoin:miter;stroke-opacity:1" d="M 983.159,241.566 983.159,209.463 z" id="boundary" inkscape:connector-curvature="0" />
	<path style="fill:none;stroke:red;stroke-width:1px;stroke-linecap:butt;stroke-linejoin:miter;stroke-opacity:1" d="M 983.159,209.463 996,164.518 z" id="boundary" inkscape:connector-curvature="0" />
	<path style="fill:none;stroke:red;stroke-width:1px;stroke-linecap:butt;stroke-linejoin:miter;stroke-opacity:1" d="M 996,164.518 973.528,132.414 z" id="boundary" inkscape:connector-curvature="0" />
	<path style="fill:none;stroke:red;stroke-width:1px;stroke-linecap:butt;stroke-linejoin:miter;stroke-opacity:1" d="M 973.528,132.414 941.424,138.835 z" id="boundary" inkscape:connector-curvature="0" />
	<path style="fill:none;stroke:red;stroke-width:1px;stroke-linecap:butt;stroke-linejoin:miter;stroke-opacity:1" d="M 941.424,138.835 909.32,151.676 z" id="boundary" inkscape:connector-curvature="0" />
	<path style="fill:none;stroke:red;stroke-width:1px;stroke-linecap:butt;stroke-linejoin:miter;stroke-opacity:1" d="M 909.32,151.676 880.427,167.728 z" id="boundary" inkscape:connector-curvature="0" />
	<path style="fill:none;stroke:red;stroke-width:1px;stroke-linecap:butt;stroke-linejoin:miter;stroke-opacity:1" d="M 880.427,167.728 851.534,183.78 z" id="boundary" inkscape:connector-curvature="0" />
	<path style="fill:none;stroke:red;stroke-width:1px;stroke-linecap:butt;stroke-linejoin:miter;stroke-opacity:1" d="M 851.534,183.78 822.641,199.832 z" id="boundary" inkscape:connector-curvature="0" />
	<path style="fill:none;stroke:red;stroke-width:1px;stroke-linecap:butt;stroke-linejoin:miter;stroke-opacity:1" d="M 822.641,199.832 790.537,193.411 z" id="boundary" inkscape:connector-curvature="0" />
	<path style="fill:none;stroke:red;stroke-width:1px;stroke-linecap:butt;stroke-linejoin:miter;stroke-opacity:1" d="M 790.537,193.411 771.275,167.728 z" id="boundary" inkscape:connector-curvature="0" />
	<path style="fill:none;stroke:red;stroke-width:1px;stroke-linecap:butt;stroke-linejoin:miter;stroke-opacity:1" d="M 771.275,167.728 752.013,142.045 z" id="boundary" inkscape:connector-curvature="0" />
	<path style="fill:none;stroke:red;stroke-width:1px;stroke-linecap:butt;stroke-linejoin:miter;stroke-opacity:1" d="M 752.013,142.045 729.54,116.362 z" id="boundary" inkscape:connector-curvature="0" />
	<path style="fill:none;stroke:red;stroke-width:1px;stroke-linecap:butt;stroke-linejoin:miter;stroke-opacity:1" d="M 729.54,116.362 703.858,97.1003 z" id="boundary" inkscape:connector-curvature="0" />
	<path style="fill:none;stroke:red;stroke-width:1px;stroke-linecap:butt;stroke-linejoin:miter;stroke-opacity:1" d="M 703.858,97.1003 674.964,81.0485 z" id="boundary" inkscape:connector-curvature="0" />
	<path style="fill:none;stroke:red;stroke-width:1px;stroke-linecap:butt;stroke-linejoin:miter;stroke-opacity:1" d="M 674.964,81.0485 642.861,87.4693 z" id="boundary" inkscape:connector-curvature="0" />
	<path style="fill:none;stroke:red;stroke-width:1px;stroke-linecap:butt;stroke-linejoin:miter;stroke-opacity:1" d="M 642.861,87.4693 610.757,100.311 z" id="boundary" inkscape:connector-curvature="0" />
	<path style="fill:none;stroke:red;stroke-width:1px;stroke-linecap:butt;stroke-linejoin:miter;stroke-opacity:1" d="M 610.757,100.311 578.654,109.942 z" id="boundary" inkscape:connector-curvature="0" />
	<path style="fill:none;stroke:red;stroke-width:1px;stroke-linecap:butt;stroke-linejoin:miter;stroke-opacity:1" d="M 578.654,109.942 556.181,84.2589 z" id="boundary" inkscape:connector-curvature="0" />
	<path style="fill:none;stroke:red;stroke-width:1px;stroke-linecap:butt;stroke-linejoin:miter;stroke-opacity:1" d="M 556.181,84.2589 530.498,64.9968 z" id="boundary" inkscape:connector-curvature="0" />
	<path style="fill:none;stroke:red;stroke-width:1px;stroke-linecap:butt;stroke-linejoin:miter;stroke-opacity:1" d="M 530.498,64.9968 498.395,55.3657 z" id="boundary" inkscape:connector-curvature="0" />
	<path style="fill:none;stroke:red;stroke-width:1px;stroke-linecap:butt;stroke-linejoin:miter;stroke-opacity:1" d="M 498.395,55.3657 469.502,39.3139 z" id="boundary" inkscape:connector-curvature="0" />
	<path style="fill:none;stroke:red;stroke-width:1px;stroke-linecap:butt;stroke-linejoin:miter;stroke-opacity:1" d="M 469.502,39.3139 437.398,32.8932 z" id="boundary" inkscape:connector-curvature="0" />
	<path style="fill:none;stroke:red;stroke-width:1px;stroke-linecap:butt;stroke-linejoin:miter;stroke-opacity:1" d="M 437.398,32.8932 408.505,16.8414 z" id="boundary" inkscape:connector-curvature="0" />
	<path style="fill:none;stroke:red;stroke-width:1px;stroke-linecap:butt;stroke-linejoin:miter;stroke-opacity:1" d="M 408.505,16.8414 376.401,10.4207 z" id="boundary" inkscape:connector-curvature="0" />
	<path style="fill:none;stroke:red;stroke-width:1px;stroke-linecap:butt;stroke-linejoin:miter;stroke-opacity:1" d="M 376.401,10.4207 344.298,4 z" id="boundary" inkscape:connector-curvature="0" />
	<path style="fill:none;stroke:red;stroke-width:1px;stroke-linecap:butt;stroke-linejoin:miter;stroke-opacity:1" d="M 344.298,4 328.246,39.3139 z" id="boundary" inkscape:connector-curvature="0" />
	<path style="fill:none;stroke:red;stroke-width:1px;stroke-linecap:butt;stroke-linejoin:miter;stroke-opacity:1" d="M 328.246,39.3139 299.353,55.3657 z" id="boundary" inkscape:connector-curvature="0" />
	<path style="fill:none;stroke:red;stroke-width:1px;stroke-linecap:butt;stroke-linejoin:miter;stroke-opacity:1" d="M 299.353,55.3657 276.88,109.942 z" id="boundary" inkscape:connector-curvature="0" />
	<circle cx="4" cy="228.725" r="4" fill="#0" id="circle0"/>
	<circle cx="10.4207" cy="260.828" r="4" fill="#0" id="circle1"/>
	<circle cx="32.8932" cy="212.673" r="4" fill="#0" id="circle2"/>
	<circle cx="32.8932" cy="286.511" r="4" fill="#0" id="circle3"/>
	<circle cx="52.1553" cy="312.194" r="4" fill="#0" id="circle4"/>
	<circle cx="58.5761" cy="193.411" r="4" fill="#0" id="circle5"/>
	<circle cx="77.8382" cy="334.667" r="4" fill="#0" id="circle6"/>
	<circle cx="90.6796" cy="180.57" r="4" fill="#0" id="circle7"/>
	<circle cx="106.731" cy="350.718" r="4" fill="#0" id="circle8"/>
	<circle cx="116.362" cy="161.307" r="4" fill="#0" id="circle9"/>
	<circle cx="135.625" cy="366.77" r="4" fill="#0" id="circle10"/>
	<circle cx="148.466" cy="151.676" r="4" fill="#0" id="circle11"/>
	<circle cx="167.728" cy="373.191" r="4" fill="#0" id="circle12"/>
	<circle cx="180.57" cy="138.835" r="4" fill="#0" id="circle13"/>
	<circle cx="199.832" cy="386.032" r="4" fill="#0" id="circle14"/>
	<circle cx="212.673" cy="125.994" r="4" fill="#0" id="circle15"/>
	<circle cx="231.935" cy="398.874" r="4" fill="#0" id="circle16"/>
	<circle cx="244.777" cy="119.573" r="4" fill="#0" id="circle17"/>
	<circle cx="264.039" cy="405.294" r="4" fill="#0" id="circle18"/>
	<circle cx="276.88" cy="109.942" r="4" fill="#0" id="circle19"/>
	<circle cx="280.091" cy="434.188" r="4" fill="#0" id="circle20"/>
	<circle cx="292.932" cy="466.291" r="4" fill="#0" id="circle21"/>
	<circle cx="299.353" cy="55.3657" r="4" fill="#0" id="circle22"/>
	<circle cx="312.194" cy="491.974" r="4" fill="#0" id="circle23"/>
	<circle cx="328.246" cy="39.3139" r="4" fill="#0" id="circle24"/>
	<circle cx="337.877" cy="514.447" r="4" fill="#0" id="circle25"/>
	<circle cx="344.298" cy="4" r="4" fill="#0" id="circle26"/>
	<circle cx="369.981" cy="514.447" r="4" fill="#0" id="circle27"/>
	<circle cx="376.401" cy="10.4207" r="4" fill="#0" id="circle28"/>
	<circle cx="395.663" cy="495.184" r="4" fill="#0" id="circle29"/>
	<circle cx="408.505" cy="16.8414" r="4" fill="#0" id="circle30"/>
	<circle cx="421.346" cy="514.447" r="4" fill="#0" id="circle31"/>
	<circle cx="437.398" cy="32.8932" r="4" fill="#0" id="circle32"/>
	<circle cx="453.45" cy="514.447" r="4" fill="#0" id="circle33"/>
	<circle cx="456.66" cy="402.084" r="4" fill="#0" id="circle34"/>
	<circle cx="469.502" cy="39.3139" r="4" fill="#0" id="circle35"/>
	<circle cx="472.712" cy="430.977" r="4" fill="#0" id="circle36"/>
	<circle cx="475.922" cy="463.081" r="4" fill="#0" id="circle37"/>
	<circle cx="488.764" cy="398.874" r="4" fill="#0" id="circle38"/>
	<circle cx="498.395" cy="55.3657" r="4" fill="#0" id="circle39"/>
	<circle cx="520.867" cy="395.663" r="4" fill="#0" id="circle40"/>
	<circle cx="530.498" cy="64.9968" r="4" fill="#0" id="circle41"/>
	<circle cx="552.971" cy="392.453" r="4" fill="#0" id="circle42"/>
	<circle cx="556.181" cy="84.2589" r="4" fill="#0" id="circle43"/>
	<circle cx="578.654" cy="109.942" r="4" fill="#0" id="circle44"/>
	<circle cx="585.074" cy="392.453" r="4" fill="#0" id="circle45"/>
	<circle cx="610.757" cy="100.311" r="4" fill="#0" id="circle46"/>
	<circle cx="617.178" cy="386.032" r="4" fill="#0" id="circle47"/>
	<circle cx="642.861" cy="87.4693" r="4" fill="#0" id="circle48"/>
	<circle cx="649.282" cy="398.874" r="4" fill="#0" id="circle49"/>
	<circle cx="674.964" cy="81.0485" r="4" fill="#0" id="circle50"/>
	<circle cx="681.385" cy="405.294" r="4" fill="#0" id="circle51"/>
	<circle cx="703.858" cy="97.1003" r="4" fill="#0" id="circle52"/>
	<circle cx="713.489" cy="411.715" r="4" fill="#0" id="circle53"/>
	<circle cx="729.54" cy="116.362" r="4" fill="#0" id="circle54"/>
	<circle cx="745.592" cy="411.715" r="4" fill="#0" id="circle55"/>
	<circle cx="752.013" cy="142.045" r="4" fill="#0" id="circle56"/>
	<circle cx="768.065" cy="386.032" r="4" fill="#0" id="circle57"/>
	<circle cx="771.275" cy="167.728" r="4" fill="#0" id="circle58"/>
	<circle cx="780.906" cy="353.929" r="4" fill="#0" id="circle59"/>
	<circle cx="784.117" cy="312.194" r="4" fill="#0" id="circle60"/>
	<circle cx="790.537" cy="193.411" r="4" fill="#0" id="circle61"/>
	<circle cx="816.22" cy="308.984" r="4" fill="#0" id="circle62"/>
	<circle cx="822.641" cy="199.832" r="4" fill="#0" id="circle63"/>
	<circle cx="845.113" cy="325.036" r="4" fill="#0" id="circle64"/>
	<circle cx="851.534" cy="183.78" r="4" fill="#0" id="circle65"/>
	<circle cx="870.796" cy="344.298" r="4" fill="#0" id="circle66"/>
	<circle cx="880.427" cy="167.728" r="4" fill="#0" id="circle67"/>
	<circle cx="899.689" cy="360.35" r="4" fill="#0" id="circle68"/>
	<circle cx="909.32" cy="151.676" r="4" fill="#0" id="circle69"/>
	<circle cx="931.793" cy="373.191" r="4" fill="#0" id="circle70"/>
	<circle cx="941.424" cy="138.835" r="4" fill="#0" id="circle71"/>
	<circle cx="963.896" cy="379.612" r="4" fill="#0" id="circle72"/>
	<circle cx="973.528" cy="132.414" r="4" fill="#0" id="circle73"/>
	<circle cx="983.159" cy="209.463" r="4" fill="#0" id="circle74"/>
	<circle cx="983.159" cy="241.566" r="4" fill="#0" id="circle75"/>
	<circle cx="983.159" cy="273.67" r="4" fill="#0" id="circle76"/>
	<circle cx="983.159" cy="305.773" r="4" fill="#0" id="circle77"/>
	<circle cx="992.79" cy="337.877" r="4" fill="#0" id="circle78"/>
	<circle cx="996" cy="164.518" r="4" fill="#0" id="circle79"/>
	<circle cx="996" cy="376.401" r="4" fill="#0" id="circle80"/>
	</g>
</svg>