<?xml version="1.0" encoding="UTF-8" standalone="no"?>
<!-- Created with CurveBenchmark -->
<svg
	xmlns:dc="http://purl.org/dc/elements/1.1/"
	xmlns:cc="http://creativecommons.org/ns#"
	xmlns:rdf="http://www.w3.org/1999/02/22-rdf-syntax-ns#"
	xmlns:svg="http://www.w3.org/2000/svg"
	xmlns="http://www.w3.org/2000/svg"
	xmlns:sodipodi="http://sodipodi.sourceforge.net/DTD/sodipodi-0.dtd"
	xmlns:inkscape="http://www.inkscape.org/namespaces/inkscape"
	width="1000"
	height="1000"
	id="svg2"
	version="1.1"
	sodipodi:docname="manifold/crawl-television335.png.txt">
<defs
	id="defs4" />
<metadata
	id="metadata7">
	<rdf:RDF>
		<cc:Work
			rdf:about="">
			<dc:format>image/svg+xml</dc:format>
			<dc:type
				rdf:resource="http://purl.org/dc/dcmitype/StillImage" />
			<dc:title></dc:title>
		</cc:Work>
	</rdf:RDF>
</metadata>
<g
	inkscape:label="Layer 1"
	inkscape:groupmode="layer"
	id="layer1">
	<path style="fill:none;stroke:red;stroke-width:1px;stroke-linecap:butt;stroke-linejoin:miter;stroke-opacity:1" d="M 4,758.57 4,791.095 z" id="boundary" inkscape:connector-curvature="0" />
	<path style="fill:none;stroke:red;stroke-width:1px;stroke-linecap:butt;stroke-linejoin:miter;stroke-opacity:1" d="M 4,791.095 26.7672,817.115 z" id="boundary" inkscape:connector-curvature="0" />
	<path style="fill:none;stroke:red;stroke-width:1px;stroke-linecap:butt;stroke-linejoin:miter;stroke-opacity:1" d="M 26.7672,817.115 59.2918,823.62 z" id="boundary" inkscape:connector-curvature="0" />
	<path style="fill:none;stroke:red;stroke-width:1px;stroke-linecap:butt;stroke-linejoin:miter;stroke-opacity:1" d="M 59.2918,823.62 91.8164,813.862 z" id="boundary" inkscape:connector-curvature="0" />
	<path style="fill:none;stroke:red;stroke-width:1px;stroke-linecap:butt;stroke-linejoin:miter;stroke-opacity:1" d="M 91.8164,813.862 124.341,813.862 z" id="boundary" inkscape:connector-curvature="0" />
	<path style="fill:none;stroke:red;stroke-width:1px;stroke-linecap:butt;stroke-linejoin:miter;stroke-opacity:1" d="M 124.341,813.862 156.866,826.872 z" id="boundary" inkscape:connector-curvature="0" />
	<path style="fill:none;stroke:red;stroke-width:1px;stroke-linecap:butt;stroke-linejoin:miter;stroke-opacity:1" d="M 156.866,826.872 189.39,813.862 z" id="boundary" inkscape:connector-curvature="0" />
	<path style="fill:none;stroke:red;stroke-width:1px;stroke-linecap:butt;stroke-linejoin:miter;stroke-opacity:1" d="M 189.39,813.862 221.915,813.862 z" id="boundary" inkscape:connector-curvature="0" />
	<path style="fill:none;stroke:red;stroke-width:1px;stroke-linecap:butt;stroke-linejoin:miter;stroke-opacity:1" d="M 221.915,813.862 254.439,813.862 z" id="boundary" inkscape:connector-curvature="0" />
	<path style="fill:none;stroke:red;stroke-width:1px;stroke-linecap:butt;stroke-linejoin:miter;stroke-opacity:1" d="M 254.439,813.862 286.964,813.862 z" id="boundary" inkscape:connector-curvature="0" />
	<path style="fill:none;stroke:red;stroke-width:1px;stroke-linecap:butt;stroke-linejoin:miter;stroke-opacity:1" d="M 286.964,813.862 319.489,813.862 z" id="boundary" inkscape:connector-curvature="0" />
	<path style="fill:none;stroke:red;stroke-width:1px;stroke-linecap:butt;stroke-linejoin:miter;stroke-opacity:1" d="M 319.489,813.862 352.013,813.862 z" id="boundary" inkscape:connector-curvature="0" />
	<path style="fill:none;stroke:red;stroke-width:1px;stroke-linecap:butt;stroke-linejoin:miter;stroke-opacity:1" d="M 352.013,813.862 384.538,813.862 z" id="boundary" inkscape:connector-curvature="0" />
	<path style="fill:none;stroke:red;stroke-width:1px;stroke-linecap:butt;stroke-linejoin:miter;stroke-opacity:1" d="M 384.538,813.862 417.062,813.862 z" id="boundary" inkscape:connector-curvature="0" />
	<path style="fill:none;stroke:red;stroke-width:1px;stroke-linecap:butt;stroke-linejoin:miter;stroke-opacity:1" d="M 417.062,813.862 449.587,813.862 z" id="boundary" inkscape:connector-curvature="0" />
	<path style="fill:none;stroke:red;stroke-width:1px;stroke-linecap:butt;stroke-linejoin:miter;stroke-opacity:1" d="M 449.587,813.862 482.111,813.862 z" id="boundary" inkscape:connector-curvature="0" />
	<path style="fill:none;stroke:red;stroke-width:1px;stroke-linecap:butt;stroke-linejoin:miter;stroke-opacity:1" d="M 482.111,813.862 514.636,813.862 z" id="boundary" inkscape:connector-curvature="0" />
	<path style="fill:none;stroke:red;stroke-width:1px;stroke-linecap:butt;stroke-linejoin:miter;stroke-opacity:1" d="M 514.636,813.862 547.161,813.862 z" id="boundary" inkscape:connector-curvature="0" />
	<path style="fill:none;stroke:red;stroke-width:1px;stroke-linecap:butt;stroke-linejoin:miter;stroke-opacity:1" d="M 547.161,813.862 579.685,813.862 z" id="boundary" inkscape:connector-curvature="0" />
	<path style="fill:none;stroke:red;stroke-width:1px;stroke-linecap:butt;stroke-linejoin:miter;stroke-opacity:1" d="M 579.685,813.862 612.21,813.862 z" id="boundary" inkscape:connector-curvature="0" />
	<path style="fill:none;stroke:red;stroke-width:1px;stroke-linecap:butt;stroke-linejoin:miter;stroke-opacity:1" d="M 612.21,813.862 644.734,813.862 z" id="boundary" inkscape:connector-curvature="0" />
	<path style="fill:none;stroke:red;stroke-width:1px;stroke-linecap:butt;stroke-linejoin:miter;stroke-opacity:1" d="M 644.734,813.862 677.259,813.862 z" id="boundary" inkscape:connector-curvature="0" />
	<path style="fill:none;stroke:red;stroke-width:1px;stroke-linecap:butt;stroke-linejoin:miter;stroke-opacity:1" d="M 677.259,813.862 709.784,813.862 z" id="boundary" inkscape:connector-curvature="0" />
	<path style="fill:none;stroke:red;stroke-width:1px;stroke-linecap:butt;stroke-linejoin:miter;stroke-opacity:1" d="M 709.784,813.862 742.308,813.862 z" id="boundary" inkscape:connector-curvature="0" />
	<path style="fill:none;stroke:red;stroke-width:1px;stroke-linecap:butt;stroke-linejoin:miter;stroke-opacity:1" d="M 742.308,813.862 774.833,813.862 z" id="boundary" inkscape:connector-curvature="0" />
	<path style="fill:none;stroke:red;stroke-width:1px;stroke-linecap:butt;stroke-linejoin:miter;stroke-opacity:1" d="M 774.833,813.862 807.357,813.862 z" id="boundary" inkscape:connector-curvature="0" />
	<path style="fill:none;stroke:red;stroke-width:1px;stroke-linecap:butt;stroke-linejoin:miter;stroke-opacity:1" d="M 807.357,813.862 839.882,813.862 z" id="boundary" inkscape:connector-curvature="0" />
	<path style="fill:none;stroke:red;stroke-width:1px;stroke-linecap:butt;stroke-linejoin:miter;stroke-opacity:1" d="M 839.882,813.862 872.407,813.862 z" id="boundary" inkscape:connector-curvature="0" />
	<path style="fill:none;stroke:red;stroke-width:1px;stroke-linecap:butt;stroke-linejoin:miter;stroke-opacity:1" d="M 872.407,813.862 904.931,813.862 z" id="boundary" inkscape:connector-curvature="0" />
	<path style="fill:none;stroke:red;stroke-width:1px;stroke-linecap:butt;stroke-linejoin:miter;stroke-opacity:1" d="M 904.931,813.862 937.456,820.367 z" id="boundary" inkscape:connector-curvature="0" />
	<path style="fill:none;stroke:red;stroke-width:1px;stroke-linecap:butt;stroke-linejoin:miter;stroke-opacity:1" d="M 937.456,820.367 969.98,813.862 z" id="boundary" inkscape:connector-curvature="0" />
	<path style="fill:none;stroke:red;stroke-width:1px;stroke-linecap:butt;stroke-linejoin:miter;stroke-opacity:1" d="M 4,758.57 36.5246,745.561 z" id="boundary" inkscape:connector-curvature="0" />
	<path style="fill:none;stroke:red;stroke-width:1px;stroke-linecap:butt;stroke-linejoin:miter;stroke-opacity:1" d="M 36.5246,745.561 69.0492,745.561 z" id="boundary" inkscape:connector-curvature="0" />
	<path style="fill:none;stroke:red;stroke-width:1px;stroke-linecap:butt;stroke-linejoin:miter;stroke-opacity:1" d="M 69.0492,745.561 101.574,745.561 z" id="boundary" inkscape:connector-curvature="0" />
	<path style="fill:none;stroke:red;stroke-width:1px;stroke-linecap:butt;stroke-linejoin:miter;stroke-opacity:1" d="M 101.574,745.561 134.098,745.561 z" id="boundary" inkscape:connector-curvature="0" />
	<path style="fill:none;stroke:red;stroke-width:1px;stroke-linecap:butt;stroke-linejoin:miter;stroke-opacity:1" d="M 134.098,745.561 166.623,745.561 z" id="boundary" inkscape:connector-curvature="0" />
	<path style="fill:none;stroke:red;stroke-width:1px;stroke-linecap:butt;stroke-linejoin:miter;stroke-opacity:1" d="M 166.623,745.561 199.148,745.561 z" id="boundary" inkscape:connector-curvature="0" />
	<path style="fill:none;stroke:red;stroke-width:1px;stroke-linecap:butt;stroke-linejoin:miter;stroke-opacity:1" d="M 199.148,745.561 231.672,745.561 z" id="boundary" inkscape:connector-curvature="0" />
	<path style="fill:none;stroke:red;stroke-width:1px;stroke-linecap:butt;stroke-linejoin:miter;stroke-opacity:1" d="M 231.672,745.561 264.197,745.561 z" id="boundary" inkscape:connector-curvature="0" />
	<path style="fill:none;stroke:red;stroke-width:1px;stroke-linecap:butt;stroke-linejoin:miter;stroke-opacity:1" d="M 264.197,745.561 296.721,745.561 z" id="boundary" inkscape:connector-curvature="0" />
	<path style="fill:none;stroke:red;stroke-width:1px;stroke-linecap:butt;stroke-linejoin:miter;stroke-opacity:1" d="M 296.721,745.561 329.246,745.561 z" id="boundary" inkscape:connector-curvature="0" />
	<path style="fill:none;stroke:red;stroke-width:1px;stroke-linecap:butt;stroke-linejoin:miter;stroke-opacity:1" d="M 329.246,745.561 361.77,745.561 z" id="boundary" inkscape:connector-curvature="0" />
	<path style="fill:none;stroke:red;stroke-width:1px;stroke-linecap:butt;stroke-linejoin:miter;stroke-opacity:1" d="M 969.98,813.862 996,787.843 z" id="boundary" inkscape:connector-curvature="0" />
	<path style="fill:none;stroke:red;stroke-width:1px;stroke-linecap:butt;stroke-linejoin:miter;stroke-opacity:1" d="M 996,787.843 992.748,755.318 z" id="boundary" inkscape:connector-curvature="0" />
	<path style="fill:none;stroke:red;stroke-width:1px;stroke-linecap:butt;stroke-linejoin:miter;stroke-opacity:1" d="M 992.748,755.318 960.223,745.561 z" id="boundary" inkscape:connector-curvature="0" />
	<path style="fill:none;stroke:red;stroke-width:1px;stroke-linecap:butt;stroke-linejoin:miter;stroke-opacity:1" d="M 960.223,745.561 927.698,745.561 z" id="boundary" inkscape:connector-curvature="0" />
	<path style="fill:none;stroke:red;stroke-width:1px;stroke-linecap:butt;stroke-linejoin:miter;stroke-opacity:1" d="M 927.698,745.561 895.174,745.561 z" id="boundary" inkscape:connector-curvature="0" />
	<path style="fill:none;stroke:red;stroke-width:1px;stroke-linecap:butt;stroke-linejoin:miter;stroke-opacity:1" d="M 895.174,745.561 862.649,745.561 z" id="boundary" inkscape:connector-curvature="0" />
	<path style="fill:none;stroke:red;stroke-width:1px;stroke-linecap:butt;stroke-linejoin:miter;stroke-opacity:1" d="M 862.649,745.561 830.125,745.561 z" id="boundary" inkscape:connector-curvature="0" />
	<path style="fill:none;stroke:red;stroke-width:1px;stroke-linecap:butt;stroke-linejoin:miter;stroke-opacity:1" d="M 830.125,745.561 797.6,745.561 z" id="boundary" inkscape:connector-curvature="0" />
	<path style="fill:none;stroke:red;stroke-width:1px;stroke-linecap:butt;stroke-linejoin:miter;stroke-opacity:1" d="M 797.6,745.561 765.075,745.561 z" id="boundary" inkscape:connector-curvature="0" />
	<path style="fill:none;stroke:red;stroke-width:1px;stroke-linecap:butt;stroke-linejoin:miter;stroke-opacity:1" d="M 765.075,745.561 732.551,745.561 z" id="boundary" inkscape:connector-curvature="0" />
	<path style="fill:none;stroke:red;stroke-width:1px;stroke-linecap:butt;stroke-linejoin:miter;stroke-opacity:1" d="M 732.551,745.561 700.026,745.561 z" id="boundary" inkscape:connector-curvature="0" />
	<path style="fill:none;stroke:red;stroke-width:1px;stroke-linecap:butt;stroke-linejoin:miter;stroke-opacity:1" d="M 700.026,745.561 667.502,745.561 z" id="boundary" inkscape:connector-curvature="0" />
	<path style="fill:none;stroke:red;stroke-width:1px;stroke-linecap:butt;stroke-linejoin:miter;stroke-opacity:1" d="M 667.502,745.561 634.977,745.561 z" id="boundary" inkscape:connector-curvature="0" />
	<path style="fill:none;stroke:red;stroke-width:1px;stroke-linecap:butt;stroke-linejoin:miter;stroke-opacity:1" d="M 634.977,745.561 602.452,745.561 z" id="boundary" inkscape:connector-curvature="0" />
	<path style="fill:none;stroke:red;stroke-width:1px;stroke-linecap:butt;stroke-linejoin:miter;stroke-opacity:1" d="M 602.452,745.561 569.928,745.561 z" id="boundary" inkscape:connector-curvature="0" />
	<path style="fill:none;stroke:red;stroke-width:1px;stroke-linecap:butt;stroke-linejoin:miter;stroke-opacity:1" d="M 569.928,745.561 566.675,713.036 z" id="boundary" inkscape:connector-curvature="0" />
	<path style="fill:none;stroke:red;stroke-width:1px;stroke-linecap:butt;stroke-linejoin:miter;stroke-opacity:1" d="M 566.675,713.036 566.675,680.511 z" id="boundary" inkscape:connector-curvature="0" />
	<path style="fill:none;stroke:red;stroke-width:1px;stroke-linecap:butt;stroke-linejoin:miter;stroke-opacity:1" d="M 361.77,745.561 374.78,709.784 z" id="boundary" inkscape:connector-curvature="0" />
	<path style="fill:none;stroke:red;stroke-width:1px;stroke-linecap:butt;stroke-linejoin:miter;stroke-opacity:1" d="M 374.78,709.784 371.528,677.259 z" id="boundary" inkscape:connector-curvature="0" />
	<path style="fill:none;stroke:red;stroke-width:1px;stroke-linecap:butt;stroke-linejoin:miter;stroke-opacity:1" d="M 371.528,677.259 339.003,677.259 z" id="boundary" inkscape:connector-curvature="0" />
	<path style="fill:none;stroke:red;stroke-width:1px;stroke-linecap:butt;stroke-linejoin:miter;stroke-opacity:1" d="M 339.003,677.259 306.479,677.259 z" id="boundary" inkscape:connector-curvature="0" />
	<path style="fill:none;stroke:red;stroke-width:1px;stroke-linecap:butt;stroke-linejoin:miter;stroke-opacity:1" d="M 306.479,677.259 273.954,677.259 z" id="boundary" inkscape:connector-curvature="0" />
	<path style="fill:none;stroke:red;stroke-width:1px;stroke-linecap:butt;stroke-linejoin:miter;stroke-opacity:1" d="M 273.954,677.259 241.43,677.259 z" id="boundary" inkscape:connector-curvature="0" />
	<path style="fill:none;stroke:red;stroke-width:1px;stroke-linecap:butt;stroke-linejoin:miter;stroke-opacity:1" d="M 241.43,677.259 208.905,677.259 z" id="boundary" inkscape:connector-curvature="0" />
	<path style="fill:none;stroke:red;stroke-width:1px;stroke-linecap:butt;stroke-linejoin:miter;stroke-opacity:1" d="M 208.905,677.259 176.38,677.259 z" id="boundary" inkscape:connector-curvature="0" />
	<path style="fill:none;stroke:red;stroke-width:1px;stroke-linecap:butt;stroke-linejoin:miter;stroke-opacity:1" d="M 176.38,677.259 143.856,677.259 z" id="boundary" inkscape:connector-curvature="0" />
	<path style="fill:none;stroke:red;stroke-width:1px;stroke-linecap:butt;stroke-linejoin:miter;stroke-opacity:1" d="M 143.856,677.259 111.331,677.259 z" id="boundary" inkscape:connector-curvature="0" />
	<path style="fill:none;stroke:red;stroke-width:1px;stroke-linecap:butt;stroke-linejoin:miter;stroke-opacity:1" d="M 111.331,677.259 127.593,647.987 z" id="boundary" inkscape:connector-curvature="0" />
	<path style="fill:none;stroke:red;stroke-width:1px;stroke-linecap:butt;stroke-linejoin:miter;stroke-opacity:1" d="M 127.593,647.987 160.118,647.987 z" id="boundary" inkscape:connector-curvature="0" />
	<path style="fill:none;stroke:red;stroke-width:1px;stroke-linecap:butt;stroke-linejoin:miter;stroke-opacity:1" d="M 160.118,647.987 192.643,647.987 z" id="boundary" inkscape:connector-curvature="0" />
	<path style="fill:none;stroke:red;stroke-width:1px;stroke-linecap:butt;stroke-linejoin:miter;stroke-opacity:1" d="M 192.643,647.987 225.167,647.987 z" id="boundary" inkscape:connector-curvature="0" />
	<path style="fill:none;stroke:red;stroke-width:1px;stroke-linecap:butt;stroke-linejoin:miter;stroke-opacity:1" d="M 225.167,647.987 257.692,647.987 z" id="boundary" inkscape:connector-curvature="0" />
	<path style="fill:none;stroke:red;stroke-width:1px;stroke-linecap:butt;stroke-linejoin:miter;stroke-opacity:1" d="M 257.692,647.987 290.216,647.987 z" id="boundary" inkscape:connector-curvature="0" />
	<path style="fill:none;stroke:red;stroke-width:1px;stroke-linecap:butt;stroke-linejoin:miter;stroke-opacity:1" d="M 290.216,647.987 322.741,647.987 z" id="boundary" inkscape:connector-curvature="0" />
	<path style="fill:none;stroke:red;stroke-width:1px;stroke-linecap:butt;stroke-linejoin:miter;stroke-opacity:1" d="M 322.741,647.987 355.266,647.987 z" id="boundary" inkscape:connector-curvature="0" />
	<path style="fill:none;stroke:red;stroke-width:1px;stroke-linecap:butt;stroke-linejoin:miter;stroke-opacity:1" d="M 566.675,680.511 566.675,641.482 z" id="boundary" inkscape:connector-curvature="0" />
	<path style="fill:none;stroke:red;stroke-width:1px;stroke-linecap:butt;stroke-linejoin:miter;stroke-opacity:1" d="M 566.675,641.482 566.675,608.957 z" id="boundary" inkscape:connector-curvature="0" />
	<path style="fill:none;stroke:red;stroke-width:1px;stroke-linecap:butt;stroke-linejoin:miter;stroke-opacity:1" d="M 566.675,608.957 566.675,576.433 z" id="boundary" inkscape:connector-curvature="0" />
	<path style="fill:none;stroke:red;stroke-width:1px;stroke-linecap:butt;stroke-linejoin:miter;stroke-opacity:1" d="M 566.675,576.433 566.675,537.403 z" id="boundary" inkscape:connector-curvature="0" />
	<path style="fill:none;stroke:red;stroke-width:1px;stroke-linecap:butt;stroke-linejoin:miter;stroke-opacity:1" d="M 566.675,537.403 566.675,504.879 z" id="boundary" inkscape:connector-curvature="0" />
	<path style="fill:none;stroke:red;stroke-width:1px;stroke-linecap:butt;stroke-linejoin:miter;stroke-opacity:1" d="M 566.675,504.879 566.675,472.354 z" id="boundary" inkscape:connector-curvature="0" />
	<path style="fill:none;stroke:red;stroke-width:1px;stroke-linecap:butt;stroke-linejoin:miter;stroke-opacity:1" d="M 566.675,472.354 566.675,439.83 z" id="boundary" inkscape:connector-curvature="0" />
	<path style="fill:none;stroke:red;stroke-width:1px;stroke-linecap:butt;stroke-linejoin:miter;stroke-opacity:1" d="M 566.675,439.83 599.2,436.577 z" id="boundary" inkscape:connector-curvature="0" />
	<path style="fill:none;stroke:red;stroke-width:1px;stroke-linecap:butt;stroke-linejoin:miter;stroke-opacity:1" d="M 599.2,436.577 631.725,436.577 z" id="boundary" inkscape:connector-curvature="0" />
	<path style="fill:none;stroke:red;stroke-width:1px;stroke-linecap:butt;stroke-linejoin:miter;stroke-opacity:1" d="M 631.725,436.577 664.249,436.577 z" id="boundary" inkscape:connector-curvature="0" />
	<path style="fill:none;stroke:red;stroke-width:1px;stroke-linecap:butt;stroke-linejoin:miter;stroke-opacity:1" d="M 664.249,436.577 696.774,436.577 z" id="boundary" inkscape:connector-curvature="0" />
	<path style="fill:none;stroke:red;stroke-width:1px;stroke-linecap:butt;stroke-linejoin:miter;stroke-opacity:1" d="M 696.774,436.577 729.298,436.577 z" id="boundary" inkscape:connector-curvature="0" />
	<path style="fill:none;stroke:red;stroke-width:1px;stroke-linecap:butt;stroke-linejoin:miter;stroke-opacity:1" d="M 729.298,436.577 761.823,436.577 z" id="boundary" inkscape:connector-curvature="0" />
	<path style="fill:none;stroke:red;stroke-width:1px;stroke-linecap:butt;stroke-linejoin:miter;stroke-opacity:1" d="M 761.823,436.577 794.348,436.577 z" id="boundary" inkscape:connector-curvature="0" />
	<path style="fill:none;stroke:red;stroke-width:1px;stroke-linecap:butt;stroke-linejoin:miter;stroke-opacity:1" d="M 794.348,436.577 826.872,436.577 z" id="boundary" inkscape:connector-curvature="0" />
	<path style="fill:none;stroke:red;stroke-width:1px;stroke-linecap:butt;stroke-linejoin:miter;stroke-opacity:1" d="M 826.872,436.577 846.387,387.79 z" id="boundary" inkscape:connector-curvature="0" />
	<path style="fill:none;stroke:red;stroke-width:1px;stroke-linecap:butt;stroke-linejoin:miter;stroke-opacity:1" d="M 846.387,387.79 846.387,355.266 z" id="boundary" inkscape:connector-curvature="0" />
	<path style="fill:none;stroke:red;stroke-width:1px;stroke-linecap:butt;stroke-linejoin:miter;stroke-opacity:1" d="M 846.387,355.266 846.387,322.741 z" id="boundary" inkscape:connector-curvature="0" />
	<path style="fill:none;stroke:red;stroke-width:1px;stroke-linecap:butt;stroke-linejoin:miter;stroke-opacity:1" d="M 846.387,322.741 846.387,290.216 z" id="boundary" inkscape:connector-curvature="0" />
	<path style="fill:none;stroke:red;stroke-width:1px;stroke-linecap:butt;stroke-linejoin:miter;stroke-opacity:1" d="M 846.387,290.216 846.387,257.692 z" id="boundary" inkscape:connector-curvature="0" />
	<path style="fill:none;stroke:red;stroke-width:1px;stroke-linecap:butt;stroke-linejoin:miter;stroke-opacity:1" d="M 846.387,257.692 852.892,208.905 z" id="boundary" inkscape:connector-curvature="0" />
	<path style="fill:none;stroke:red;stroke-width:1px;stroke-linecap:butt;stroke-linejoin:miter;stroke-opacity:1" d="M 852.892,208.905 852.892,176.38 z" id="boundary" inkscape:connector-curvature="0" />
	<path style="fill:none;stroke:red;stroke-width:1px;stroke-linecap:butt;stroke-linejoin:miter;stroke-opacity:1" d="M 852.892,176.38 852.892,143.856 z" id="boundary" inkscape:connector-curvature="0" />
	<path style="fill:none;stroke:red;stroke-width:1px;stroke-linecap:butt;stroke-linejoin:miter;stroke-opacity:1" d="M 852.892,143.856 852.892,111.331 z" id="boundary" inkscape:connector-curvature="0" />
	<path style="fill:none;stroke:red;stroke-width:1px;stroke-linecap:butt;stroke-linejoin:miter;stroke-opacity:1" d="M 852.892,111.331 852.892,78.8066 z" id="boundary" inkscape:connector-curvature="0" />
	<path style="fill:none;stroke:red;stroke-width:1px;stroke-linecap:butt;stroke-linejoin:miter;stroke-opacity:1" d="M 852.892,78.8066 852.892,46.282 z" id="boundary" inkscape:connector-curvature="0" />
	<path style="fill:none;stroke:red;stroke-width:1px;stroke-linecap:butt;stroke-linejoin:miter;stroke-opacity:1" d="M 852.892,46.282 849.639,13.7574 z" id="boundary" inkscape:connector-curvature="0" />
	<path style="fill:none;stroke:red;stroke-width:1px;stroke-linecap:butt;stroke-linejoin:miter;stroke-opacity:1" d="M 849.639,13.7574 817.115,4 z" id="boundary" inkscape:connector-curvature="0" />
	<path style="fill:none;stroke:red;stroke-width:1px;stroke-linecap:butt;stroke-linejoin:miter;stroke-opacity:1" d="M 817.115,4 784.59,4 z" id="boundary" inkscape:connector-curvature="0" />
	<path style="fill:none;stroke:red;stroke-width:1px;stroke-linecap:butt;stroke-linejoin:miter;stroke-opacity:1" d="M 784.59,4 752.066,4 z" id="boundary" inkscape:connector-curvature="0" />
	<path style="fill:none;stroke:red;stroke-width:1px;stroke-linecap:butt;stroke-linejoin:miter;stroke-opacity:1" d="M 752.066,4 719.541,4 z" id="boundary" inkscape:connector-curvature="0" />
	<path style="fill:none;stroke:red;stroke-width:1px;stroke-linecap:butt;stroke-linejoin:miter;stroke-opacity:1" d="M 719.541,4 687.016,4 z" id="boundary" inkscape:connector-curvature="0" />
	<path style="fill:none;stroke:red;stroke-width:1px;stroke-linecap:butt;stroke-linejoin:miter;stroke-opacity:1" d="M 687.016,4 654.492,4 z" id="boundary" inkscape:connector-curvature="0" />
	<path style="fill:none;stroke:red;stroke-width:1px;stroke-linecap:butt;stroke-linejoin:miter;stroke-opacity:1" d="M 654.492,4 621.967,4 z" id="boundary" inkscape:connector-curvature="0" />
	<path style="fill:none;stroke:red;stroke-width:1px;stroke-linecap:butt;stroke-linejoin:miter;stroke-opacity:1" d="M 621.967,4 589.443,4 z" id="boundary" inkscape:connector-curvature="0" />
	<path style="fill:none;stroke:red;stroke-width:1px;stroke-linecap:butt;stroke-linejoin:miter;stroke-opacity:1" d="M 589.443,4 556.918,4 z" id="boundary" inkscape:connector-curvature="0" />
	<path style="fill:none;stroke:red;stroke-width:1px;stroke-linecap:butt;stroke-linejoin:miter;stroke-opacity:1" d="M 556.918,4 524.393,4 z" id="boundary" inkscape:connector-curvature="0" />
	<path style="fill:none;stroke:red;stroke-width:1px;stroke-linecap:butt;stroke-linejoin:miter;stroke-opacity:1" d="M 524.393,4 491.869,4 z" id="boundary" inkscape:connector-curvature="0" />
	<path style="fill:none;stroke:red;stroke-width:1px;stroke-linecap:butt;stroke-linejoin:miter;stroke-opacity:1" d="M 491.869,4 459.344,4 z" id="boundary" inkscape:connector-curvature="0" />
	<path style="fill:none;stroke:red;stroke-width:1px;stroke-linecap:butt;stroke-linejoin:miter;stroke-opacity:1" d="M 459.344,4 426.82,4 z" id="boundary" inkscape:connector-curvature="0" />
	<path style="fill:none;stroke:red;stroke-width:1px;stroke-linecap:butt;stroke-linejoin:miter;stroke-opacity:1" d="M 426.82,4 394.295,4 z" id="boundary" inkscape:connector-curvature="0" />
	<path style="fill:none;stroke:red;stroke-width:1px;stroke-linecap:butt;stroke-linejoin:miter;stroke-opacity:1" d="M 394.295,4 361.77,4 z" id="boundary" inkscape:connector-curvature="0" />
	<path style="fill:none;stroke:red;stroke-width:1px;stroke-linecap:butt;stroke-linejoin:miter;stroke-opacity:1" d="M 361.77,4 329.246,4 z" id="boundary" inkscape:connector-curvature="0" />
	<path style="fill:none;stroke:red;stroke-width:1px;stroke-linecap:butt;stroke-linejoin:miter;stroke-opacity:1" d="M 329.246,4 296.721,4 z" id="boundary" inkscape:connector-curvature="0" />
	<path style="fill:none;stroke:red;stroke-width:1px;stroke-linecap:butt;stroke-linejoin:miter;stroke-opacity:1" d="M 296.721,4 264.197,4 z" id="boundary" inkscape:connector-curvature="0" />
	<path style="fill:none;stroke:red;stroke-width:1px;stroke-linecap:butt;stroke-linejoin:miter;stroke-opacity:1" d="M 264.197,4 231.672,4 z" id="boundary" inkscape:connector-curvature="0" />
	<path style="fill:none;stroke:red;stroke-width:1px;stroke-linecap:butt;stroke-linejoin:miter;stroke-opacity:1" d="M 231.672,4 199.148,4 z" id="boundary" inkscape:connector-curvature="0" />
	<path style="fill:none;stroke:red;stroke-width:1px;stroke-linecap:butt;stroke-linejoin:miter;stroke-opacity:1" d="M 199.148,4 166.623,4 z" id="boundary" inkscape:connector-curvature="0" />
	<path style="fill:none;stroke:red;stroke-width:1px;stroke-linecap:butt;stroke-linejoin:miter;stroke-opacity:1" d="M 166.623,4 134.098,10.5049 z" id="boundary" inkscape:connector-curvature="0" />
	<path style="fill:none;stroke:red;stroke-width:1px;stroke-linecap:butt;stroke-linejoin:miter;stroke-opacity:1" d="M 134.098,10.5049 134.098,43.0295 z" id="boundary" inkscape:connector-curvature="0" />
	<path style="fill:none;stroke:red;stroke-width:1px;stroke-linecap:butt;stroke-linejoin:miter;stroke-opacity:1" d="M 134.098,43.0295 134.098,75.5541 z" id="boundary" inkscape:connector-curvature="0" />
	<path style="fill:none;stroke:red;stroke-width:1px;stroke-linecap:butt;stroke-linejoin:miter;stroke-opacity:1" d="M 134.098,75.5541 134.098,108.079 z" id="boundary" inkscape:connector-curvature="0" />
	<path style="fill:none;stroke:red;stroke-width:1px;stroke-linecap:butt;stroke-linejoin:miter;stroke-opacity:1" d="M 134.098,108.079 134.098,140.603 z" id="boundary" inkscape:connector-curvature="0" />
	<path style="fill:none;stroke:red;stroke-width:1px;stroke-linecap:butt;stroke-linejoin:miter;stroke-opacity:1" d="M 134.098,140.603 134.098,173.128 z" id="boundary" inkscape:connector-curvature="0" />
	<path style="fill:none;stroke:red;stroke-width:1px;stroke-linecap:butt;stroke-linejoin:miter;stroke-opacity:1" d="M 134.098,173.128 134.098,205.652 z" id="boundary" inkscape:connector-curvature="0" />
	<path style="fill:none;stroke:red;stroke-width:1px;stroke-linecap:butt;stroke-linejoin:miter;stroke-opacity:1" d="M 134.098,205.652 134.098,238.177 z" id="boundary" inkscape:connector-curvature="0" />
	<path style="fill:none;stroke:red;stroke-width:1px;stroke-linecap:butt;stroke-linejoin:miter;stroke-opacity:1" d="M 134.098,238.177 134.098,270.702 z" id="boundary" inkscape:connector-curvature="0" />
	<path style="fill:none;stroke:red;stroke-width:1px;stroke-linecap:butt;stroke-linejoin:miter;stroke-opacity:1" d="M 134.098,270.702 134.098,303.226 z" id="boundary" inkscape:connector-curvature="0" />
	<path style="fill:none;stroke:red;stroke-width:1px;stroke-linecap:butt;stroke-linejoin:miter;stroke-opacity:1" d="M 134.098,303.226 134.098,335.751 z" id="boundary" inkscape:connector-curvature="0" />
	<path style="fill:none;stroke:red;stroke-width:1px;stroke-linecap:butt;stroke-linejoin:miter;stroke-opacity:1" d="M 134.098,335.751 134.098,368.275 z" id="boundary" inkscape:connector-curvature="0" />
	<path style="fill:none;stroke:red;stroke-width:1px;stroke-linecap:butt;stroke-linejoin:miter;stroke-opacity:1" d="M 134.098,368.275 134.098,400.8 z" id="boundary" inkscape:connector-curvature="0" />
	<path style="fill:none;stroke:red;stroke-width:1px;stroke-linecap:butt;stroke-linejoin:miter;stroke-opacity:1" d="M 134.098,400.8 137.351,433.325 z" id="boundary" inkscape:connector-curvature="0" />
	<path style="fill:none;stroke:red;stroke-width:1px;stroke-linecap:butt;stroke-linejoin:miter;stroke-opacity:1" d="M 137.351,433.325 169.875,436.577 z" id="boundary" inkscape:connector-curvature="0" />
	<path style="fill:none;stroke:red;stroke-width:1px;stroke-linecap:butt;stroke-linejoin:miter;stroke-opacity:1" d="M 169.875,436.577 202.4,436.577 z" id="boundary" inkscape:connector-curvature="0" />
	<path style="fill:none;stroke:red;stroke-width:1px;stroke-linecap:butt;stroke-linejoin:miter;stroke-opacity:1" d="M 202.4,436.577 234.925,436.577 z" id="boundary" inkscape:connector-curvature="0" />
	<path style="fill:none;stroke:red;stroke-width:1px;stroke-linecap:butt;stroke-linejoin:miter;stroke-opacity:1" d="M 234.925,436.577 267.449,436.577 z" id="boundary" inkscape:connector-curvature="0" />
	<path style="fill:none;stroke:red;stroke-width:1px;stroke-linecap:butt;stroke-linejoin:miter;stroke-opacity:1" d="M 267.449,436.577 299.974,436.577 z" id="boundary" inkscape:connector-curvature="0" />
	<path style="fill:none;stroke:red;stroke-width:1px;stroke-linecap:butt;stroke-linejoin:miter;stroke-opacity:1" d="M 299.974,436.577 332.498,436.577 z" id="boundary" inkscape:connector-curvature="0" />
	<path style="fill:none;stroke:red;stroke-width:1px;stroke-linecap:butt;stroke-linejoin:miter;stroke-opacity:1" d="M 332.498,436.577 365.023,436.577 z" id="boundary" inkscape:connector-curvature="0" />
	<path style="fill:none;stroke:red;stroke-width:1px;stroke-linecap:butt;stroke-linejoin:miter;stroke-opacity:1" d="M 365.023,436.577 374.78,469.102 z" id="boundary" inkscape:connector-curvature="0" />
	<path style="fill:none;stroke:red;stroke-width:1px;stroke-linecap:butt;stroke-linejoin:miter;stroke-opacity:1" d="M 374.78,469.102 374.78,501.626 z" id="boundary" inkscape:connector-curvature="0" />
	<path style="fill:none;stroke:red;stroke-width:1px;stroke-linecap:butt;stroke-linejoin:miter;stroke-opacity:1" d="M 374.78,501.626 365.023,543.908 z" id="boundary" inkscape:connector-curvature="0" />
	<path style="fill:none;stroke:red;stroke-width:1px;stroke-linecap:butt;stroke-linejoin:miter;stroke-opacity:1" d="M 365.023,543.908 332.498,543.908 z" id="boundary" inkscape:connector-curvature="0" />
	<path style="fill:none;stroke:red;stroke-width:1px;stroke-linecap:butt;stroke-linejoin:miter;stroke-opacity:1" d="M 332.498,543.908 299.974,543.908 z" id="boundary" inkscape:connector-curvature="0" />
	<path style="fill:none;stroke:red;stroke-width:1px;stroke-linecap:butt;stroke-linejoin:miter;stroke-opacity:1" d="M 299.974,543.908 267.449,543.908 z" id="boundary" inkscape:connector-curvature="0" />
	<path style="fill:none;stroke:red;stroke-width:1px;stroke-linecap:butt;stroke-linejoin:miter;stroke-opacity:1" d="M 267.449,543.908 234.925,543.908 z" id="boundary" inkscape:connector-curvature="0" />
	<path style="fill:none;stroke:red;stroke-width:1px;stroke-linecap:butt;stroke-linejoin:miter;stroke-opacity:1" d="M 234.925,543.908 202.4,543.908 z" id="boundary" inkscape:connector-curvature="0" />
	<path style="fill:none;stroke:red;stroke-width:1px;stroke-linecap:butt;stroke-linejoin:miter;stroke-opacity:1" d="M 202.4,543.908 169.875,543.908 z" id="boundary" inkscape:connector-curvature="0" />
	<path style="fill:none;stroke:red;stroke-width:1px;stroke-linecap:butt;stroke-linejoin:miter;stroke-opacity:1" d="M 169.875,543.908 137.351,543.908 z" id="boundary" inkscape:connector-curvature="0" />
	<path style="fill:none;stroke:red;stroke-width:1px;stroke-linecap:butt;stroke-linejoin:miter;stroke-opacity:1" d="M 137.351,543.908 153.613,573.18 z" id="boundary" inkscape:connector-curvature="0" />
	<path style="fill:none;stroke:red;stroke-width:1px;stroke-linecap:butt;stroke-linejoin:miter;stroke-opacity:1" d="M 153.613,573.18 186.138,573.18 z" id="boundary" inkscape:connector-curvature="0" />
	<path style="fill:none;stroke:red;stroke-width:1px;stroke-linecap:butt;stroke-linejoin:miter;stroke-opacity:1" d="M 186.138,573.18 218.662,573.18 z" id="boundary" inkscape:connector-curvature="0" />
	<path style="fill:none;stroke:red;stroke-width:1px;stroke-linecap:butt;stroke-linejoin:miter;stroke-opacity:1" d="M 218.662,573.18 251.187,573.18 z" id="boundary" inkscape:connector-curvature="0" />
	<path style="fill:none;stroke:red;stroke-width:1px;stroke-linecap:butt;stroke-linejoin:miter;stroke-opacity:1" d="M 251.187,573.18 283.711,573.18 z" id="boundary" inkscape:connector-curvature="0" />
	<path style="fill:none;stroke:red;stroke-width:1px;stroke-linecap:butt;stroke-linejoin:miter;stroke-opacity:1" d="M 283.711,573.18 316.236,573.18 z" id="boundary" inkscape:connector-curvature="0" />
	<path style="fill:none;stroke:red;stroke-width:1px;stroke-linecap:butt;stroke-linejoin:miter;stroke-opacity:1" d="M 316.236,573.18 348.761,573.18 z" id="boundary" inkscape:connector-curvature="0" />
	<path style="fill:none;stroke:red;stroke-width:1px;stroke-linecap:butt;stroke-linejoin:miter;stroke-opacity:1" d="M 348.761,573.18 374.78,592.695 z" id="boundary" inkscape:connector-curvature="0" />
	<path style="fill:none;stroke:red;stroke-width:1px;stroke-linecap:butt;stroke-linejoin:miter;stroke-opacity:1" d="M 615.462,573.18 647.987,573.18 z" id="boundary" inkscape:connector-curvature="0" />
	<path style="fill:none;stroke:red;stroke-width:1px;stroke-linecap:butt;stroke-linejoin:miter;stroke-opacity:1" d="M 647.987,573.18 680.511,573.18 z" id="boundary" inkscape:connector-curvature="0" />
	<path style="fill:none;stroke:red;stroke-width:1px;stroke-linecap:butt;stroke-linejoin:miter;stroke-opacity:1" d="M 680.511,573.18 713.036,573.18 z" id="boundary" inkscape:connector-curvature="0" />
	<path style="fill:none;stroke:red;stroke-width:1px;stroke-linecap:butt;stroke-linejoin:miter;stroke-opacity:1" d="M 713.036,573.18 745.561,573.18 z" id="boundary" inkscape:connector-curvature="0" />
	<path style="fill:none;stroke:red;stroke-width:1px;stroke-linecap:butt;stroke-linejoin:miter;stroke-opacity:1" d="M 745.561,573.18 778.085,573.18 z" id="boundary" inkscape:connector-curvature="0" />
	<path style="fill:none;stroke:red;stroke-width:1px;stroke-linecap:butt;stroke-linejoin:miter;stroke-opacity:1" d="M 778.085,573.18 810.61,573.18 z" id="boundary" inkscape:connector-curvature="0" />
	<path style="fill:none;stroke:red;stroke-width:1px;stroke-linecap:butt;stroke-linejoin:miter;stroke-opacity:1" d="M 810.61,573.18 843.134,573.18 z" id="boundary" inkscape:connector-curvature="0" />
	<path style="fill:none;stroke:red;stroke-width:1px;stroke-linecap:butt;stroke-linejoin:miter;stroke-opacity:1" d="M 843.134,573.18 875.659,573.18 z" id="boundary" inkscape:connector-curvature="0" />
	<path style="fill:none;stroke:red;stroke-width:1px;stroke-linecap:butt;stroke-linejoin:miter;stroke-opacity:1" d="M 875.659,573.18 908.184,573.18 z" id="boundary" inkscape:connector-curvature="0" />
	<path style="fill:none;stroke:red;stroke-width:1px;stroke-linecap:butt;stroke-linejoin:miter;stroke-opacity:1" d="M 908.184,573.18 940.708,573.18 z" id="boundary" inkscape:connector-curvature="0" />
	<path style="fill:none;stroke:red;stroke-width:1px;stroke-linecap:butt;stroke-linejoin:miter;stroke-opacity:1" d="M 940.708,573.18 924.446,543.908 z" id="boundary" inkscape:connector-curvature="0" />
	<path style="fill:none;stroke:red;stroke-width:1px;stroke-linecap:butt;stroke-linejoin:miter;stroke-opacity:1" d="M 924.446,543.908 891.921,543.908 z" id="boundary" inkscape:connector-curvature="0" />
	<path style="fill:none;stroke:red;stroke-width:1px;stroke-linecap:butt;stroke-linejoin:miter;stroke-opacity:1" d="M 891.921,543.908 859.397,543.908 z" id="boundary" inkscape:connector-curvature="0" />
	<path style="fill:none;stroke:red;stroke-width:1px;stroke-linecap:butt;stroke-linejoin:miter;stroke-opacity:1" d="M 859.397,543.908 826.872,543.908 z" id="boundary" inkscape:connector-curvature="0" />
	<path style="fill:none;stroke:red;stroke-width:1px;stroke-linecap:butt;stroke-linejoin:miter;stroke-opacity:1" d="M 826.872,543.908 794.348,543.908 z" id="boundary" inkscape:connector-curvature="0" />
	<path style="fill:none;stroke:red;stroke-width:1px;stroke-linecap:butt;stroke-linejoin:miter;stroke-opacity:1" d="M 794.348,543.908 761.823,543.908 z" id="boundary" inkscape:connector-curvature="0" />
	<path style="fill:none;stroke:red;stroke-width:1px;stroke-linecap:butt;stroke-linejoin:miter;stroke-opacity:1" d="M 761.823,543.908 729.298,543.908 z" id="boundary" inkscape:connector-curvature="0" />
	<path style="fill:none;stroke:red;stroke-width:1px;stroke-linecap:butt;stroke-linejoin:miter;stroke-opacity:1" d="M 729.298,543.908 696.774,543.908 z" id="boundary" inkscape:connector-curvature="0" />
	<path style="fill:none;stroke:red;stroke-width:1px;stroke-linecap:butt;stroke-linejoin:miter;stroke-opacity:1" d="M 696.774,543.908 664.249,543.908 z" id="boundary" inkscape:connector-curvature="0" />
	<path style="fill:none;stroke:red;stroke-width:1px;stroke-linecap:butt;stroke-linejoin:miter;stroke-opacity:1" d="M 664.249,543.908 631.725,543.908 z" id="boundary" inkscape:connector-curvature="0" />
	<path style="fill:none;stroke:red;stroke-width:1px;stroke-linecap:butt;stroke-linejoin:miter;stroke-opacity:1" d="M 631.725,543.908 599.2,543.908 z" id="boundary" inkscape:connector-curvature="0" />
	<path style="fill:none;stroke:red;stroke-width:1px;stroke-linecap:butt;stroke-linejoin:miter;stroke-opacity:1" d="M 615.462,573.18 599.2,543.908 z" id="boundary" inkscape:connector-curvature="0" />
	<path style="fill:none;stroke:red;stroke-width:1px;stroke-linecap:butt;stroke-linejoin:miter;stroke-opacity:1" d="M 599.2,647.987 631.725,647.987 z" id="boundary" inkscape:connector-curvature="0" />
	<path style="fill:none;stroke:red;stroke-width:1px;stroke-linecap:butt;stroke-linejoin:miter;stroke-opacity:1" d="M 631.725,647.987 664.249,647.987 z" id="boundary" inkscape:connector-curvature="0" />
	<path style="fill:none;stroke:red;stroke-width:1px;stroke-linecap:butt;stroke-linejoin:miter;stroke-opacity:1" d="M 664.249,647.987 696.774,647.987 z" id="boundary" inkscape:connector-curvature="0" />
	<path style="fill:none;stroke:red;stroke-width:1px;stroke-linecap:butt;stroke-linejoin:miter;stroke-opacity:1" d="M 696.774,647.987 729.298,647.987 z" id="boundary" inkscape:connector-curvature="0" />
	<path style="fill:none;stroke:red;stroke-width:1px;stroke-linecap:butt;stroke-linejoin:miter;stroke-opacity:1" d="M 729.298,647.987 761.823,647.987 z" id="boundary" inkscape:connector-curvature="0" />
	<path style="fill:none;stroke:red;stroke-width:1px;stroke-linecap:butt;stroke-linejoin:miter;stroke-opacity:1" d="M 761.823,647.987 794.348,647.987 z" id="boundary" inkscape:connector-curvature="0" />
	<path style="fill:none;stroke:red;stroke-width:1px;stroke-linecap:butt;stroke-linejoin:miter;stroke-opacity:1" d="M 794.348,647.987 826.872,647.987 z" id="boundary" inkscape:connector-curvature="0" />
	<path style="fill:none;stroke:red;stroke-width:1px;stroke-linecap:butt;stroke-linejoin:miter;stroke-opacity:1" d="M 826.872,647.987 859.397,647.987 z" id="boundary" inkscape:connector-curvature="0" />
	<path style="fill:none;stroke:red;stroke-width:1px;stroke-linecap:butt;stroke-linejoin:miter;stroke-opacity:1" d="M 859.397,647.987 891.921,647.987 z" id="boundary" inkscape:connector-curvature="0" />
	<path style="fill:none;stroke:red;stroke-width:1px;stroke-linecap:butt;stroke-linejoin:miter;stroke-opacity:1" d="M 891.921,647.987 924.446,647.987 z" id="boundary" inkscape:connector-curvature="0" />
	<path style="fill:none;stroke:red;stroke-width:1px;stroke-linecap:butt;stroke-linejoin:miter;stroke-opacity:1" d="M 924.446,647.987 908.184,677.259 z" id="boundary" inkscape:connector-curvature="0" />
	<path style="fill:none;stroke:red;stroke-width:1px;stroke-linecap:butt;stroke-linejoin:miter;stroke-opacity:1" d="M 908.184,677.259 875.659,677.259 z" id="boundary" inkscape:connector-curvature="0" />
	<path style="fill:none;stroke:red;stroke-width:1px;stroke-linecap:butt;stroke-linejoin:miter;stroke-opacity:1" d="M 875.659,677.259 843.134,677.259 z" id="boundary" inkscape:connector-curvature="0" />
	<path style="fill:none;stroke:red;stroke-width:1px;stroke-linecap:butt;stroke-linejoin:miter;stroke-opacity:1" d="M 843.134,677.259 810.61,677.259 z" id="boundary" inkscape:connector-curvature="0" />
	<path style="fill:none;stroke:red;stroke-width:1px;stroke-linecap:butt;stroke-linejoin:miter;stroke-opacity:1" d="M 810.61,677.259 778.085,677.259 z" id="boundary" inkscape:connector-curvature="0" />
	<path style="fill:none;stroke:red;stroke-width:1px;stroke-linecap:butt;stroke-linejoin:miter;stroke-opacity:1" d="M 778.085,677.259 745.561,677.259 z" id="boundary" inkscape:connector-curvature="0" />
	<path style="fill:none;stroke:red;stroke-width:1px;stroke-linecap:butt;stroke-linejoin:miter;stroke-opacity:1" d="M 745.561,677.259 713.036,677.259 z" id="boundary" inkscape:connector-curvature="0" />
	<path style="fill:none;stroke:red;stroke-width:1px;stroke-linecap:butt;stroke-linejoin:miter;stroke-opacity:1" d="M 713.036,677.259 680.511,677.259 z" id="boundary" inkscape:connector-curvature="0" />
	<path style="fill:none;stroke:red;stroke-width:1px;stroke-linecap:butt;stroke-linejoin:miter;stroke-opacity:1" d="M 680.511,677.259 647.987,677.259 z" id="boundary" inkscape:connector-curvature="0" />
	<path style="fill:none;stroke:red;stroke-width:1px;stroke-linecap:butt;stroke-linejoin:miter;stroke-opacity:1" d="M 647.987,677.259 615.462,677.259 z" id="boundary" inkscape:connector-curvature="0" />
	<path style="fill:none;stroke:red;stroke-width:1px;stroke-linecap:butt;stroke-linejoin:miter;stroke-opacity:1" d="M 599.2,647.987 615.462,677.259 z" id="boundary" inkscape:connector-curvature="0" />
	<path style="fill:none;stroke:red;stroke-width:1px;stroke-linecap:butt;stroke-linejoin:miter;stroke-opacity:1" d="M 121.089,573.18 95.0689,550.413 z" id="boundary" inkscape:connector-curvature="0" />
	<path style="fill:none;stroke:red;stroke-width:1px;stroke-linecap:butt;stroke-linejoin:miter;stroke-opacity:1" d="M 121.089,573.18 95.0689,647.987 z" id="boundary" inkscape:connector-curvature="0" />
	<circle cx="4" cy="758.57" r="4" fill="#0" id="circle0"/>
	<circle cx="4" cy="791.095" r="4" fill="#0" id="circle1"/>
	<circle cx="26.7672" cy="817.115" r="4" fill="#0" id="circle2"/>
	<circle cx="36.5246" cy="745.561" r="4" fill="#0" id="circle3"/>
	<circle cx="59.2918" cy="823.62" r="4" fill="#0" id="circle4"/>
	<circle cx="69.0492" cy="745.561" r="4" fill="#0" id="circle5"/>
	<circle cx="91.8164" cy="813.862" r="4" fill="#0" id="circle6"/>
	<circle cx="95.0689" cy="550.413" r="4" fill="#0" id="circle7"/>
	<circle cx="95.0689" cy="647.987" r="4" fill="#0" id="circle8"/>
	<circle cx="101.574" cy="745.561" r="4" fill="#0" id="circle9"/>
	<circle cx="111.331" cy="677.259" r="4" fill="#0" id="circle10"/>
	<circle cx="121.089" cy="573.18" r="4" fill="#0" id="circle11"/>
	<circle cx="124.341" cy="813.862" r="4" fill="#0" id="circle12"/>
	<circle cx="127.593" cy="647.987" r="4" fill="#0" id="circle13"/>
	<circle cx="134.098" cy="10.5049" r="4" fill="#0" id="circle14"/>
	<circle cx="134.098" cy="43.0295" r="4" fill="#0" id="circle15"/>
	<circle cx="134.098" cy="75.5541" r="4" fill="#0" id="circle16"/>
	<circle cx="134.098" cy="108.079" r="4" fill="#0" id="circle17"/>
	<circle cx="134.098" cy="140.603" r="4" fill="#0" id="circle18"/>
	<circle cx="134.098" cy="173.128" r="4" fill="#0" id="circle19"/>
	<circle cx="134.098" cy="205.652" r="4" fill="#0" id="circle20"/>
	<circle cx="134.098" cy="238.177" r="4" fill="#0" id="circle21"/>
	<circle cx="134.098" cy="270.702" r="4" fill="#0" id="circle22"/>
	<circle cx="134.098" cy="303.226" r="4" fill="#0" id="circle23"/>
	<circle cx="134.098" cy="335.751" r="4" fill="#0" id="circle24"/>
	<circle cx="134.098" cy="368.275" r="4" fill="#0" id="circle25"/>
	<circle cx="134.098" cy="400.8" r="4" fill="#0" id="circle26"/>
	<circle cx="134.098" cy="745.561" r="4" fill="#0" id="circle27"/>
	<circle cx="137.351" cy="433.325" r="4" fill="#0" id="circle28"/>
	<circle cx="137.351" cy="543.908" r="4" fill="#0" id="circle29"/>
	<circle cx="143.856" cy="677.259" r="4" fill="#0" id="circle30"/>
	<circle cx="153.613" cy="573.18" r="4" fill="#0" id="circle31"/>
	<circle cx="156.866" cy="826.872" r="4" fill="#0" id="circle32"/>
	<circle cx="160.118" cy="647.987" r="4" fill="#0" id="circle33"/>
	<circle cx="166.623" cy="4" r="4" fill="#0" id="circle34"/>
	<circle cx="166.623" cy="745.561" r="4" fill="#0" id="circle35"/>
	<circle cx="169.875" cy="436.577" r="4" fill="#0" id="circle36"/>
	<circle cx="169.875" cy="543.908" r="4" fill="#0" id="circle37"/>
	<circle cx="176.38" cy="677.259" r="4" fill="#0" id="circle38"/>
	<circle cx="186.138" cy="573.18" r="4" fill="#0" id="circle39"/>
	<circle cx="189.39" cy="813.862" r="4" fill="#0" id="circle40"/>
	<circle cx="192.643" cy="647.987" r="4" fill="#0" id="circle41"/>
	<circle cx="199.148" cy="4" r="4" fill="#0" id="circle42"/>
	<circle cx="199.148" cy="745.561" r="4" fill="#0" id="circle43"/>
	<circle cx="202.4" cy="436.577" r="4" fill="#0" id="circle44"/>
	<circle cx="202.4" cy="543.908" r="4" fill="#0" id="circle45"/>
	<circle cx="208.905" cy="677.259" r="4" fill="#0" id="circle46"/>
	<circle cx="218.662" cy="573.18" r="4" fill="#0" id="circle47"/>
	<circle cx="221.915" cy="813.862" r="4" fill="#0" id="circle48"/>
	<circle cx="225.167" cy="647.987" r="4" fill="#0" id="circle49"/>
	<circle cx="231.672" cy="4" r="4" fill="#0" id="circle50"/>
	<circle cx="231.672" cy="745.561" r="4" fill="#0" id="circle51"/>
	<circle cx="234.925" cy="436.577" r="4" fill="#0" id="circle52"/>
	<circle cx="234.925" cy="543.908" r="4" fill="#0" id="circle53"/>
	<circle cx="241.43" cy="677.259" r="4" fill="#0" id="circle54"/>
	<circle cx="251.187" cy="573.18" r="4" fill="#0" id="circle55"/>
	<circle cx="254.439" cy="813.862" r="4" fill="#0" id="circle56"/>
	<circle cx="257.692" cy="647.987" r="4" fill="#0" id="circle57"/>
	<circle cx="264.197" cy="4" r="4" fill="#0" id="circle58"/>
	<circle cx="264.197" cy="745.561" r="4" fill="#0" id="circle59"/>
	<circle cx="267.449" cy="436.577" r="4" fill="#0" id="circle60"/>
	<circle cx="267.449" cy="543.908" r="4" fill="#0" id="circle61"/>
	<circle cx="273.954" cy="677.259" r="4" fill="#0" id="circle62"/>
	<circle cx="283.711" cy="573.18" r="4" fill="#0" id="circle63"/>
	<circle cx="286.964" cy="813.862" r="4" fill="#0" id="circle64"/>
	<circle cx="290.216" cy="647.987" r="4" fill="#0" id="circle65"/>
	<circle cx="296.721" cy="4" r="4" fill="#0" id="circle66"/>
	<circle cx="296.721" cy="745.561" r="4" fill="#0" id="circle67"/>
	<circle cx="299.974" cy="436.577" r="4" fill="#0" id="circle68"/>
	<circle cx="299.974" cy="543.908" r="4" fill="#0" id="circle69"/>
	<circle cx="306.479" cy="677.259" r="4" fill="#0" id="circle70"/>
	<circle cx="316.236" cy="573.18" r="4" fill="#0" id="circle71"/>
	<circle cx="319.489" cy="813.862" r="4" fill="#0" id="circle72"/>
	<circle cx="322.741" cy="647.987" r="4" fill="#0" id="circle73"/>
	<circle cx="329.246" cy="4" r="4" fill="#0" id="circle74"/>
	<circle cx="329.246" cy="745.561" r="4" fill="#0" id="circle75"/>
	<circle cx="332.498" cy="436.577" r="4" fill="#0" id="circle76"/>
	<circle cx="332.498" cy="543.908" r="4" fill="#0" id="circle77"/>
	<circle cx="339.003" cy="677.259" r="4" fill="#0" id="circle78"/>
	<circle cx="348.761" cy="573.18" r="4" fill="#0" id="circle79"/>
	<circle cx="352.013" cy="813.862" r="4" fill="#0" id="circle80"/>
	<circle cx="355.266" cy="647.987" r="4" fill="#0" id="circle81"/>
	<circle cx="361.77" cy="4" r="4" fill="#0" id="circle82"/>
	<circle cx="361.77" cy="745.561" r="4" fill="#0" id="circle83"/>
	<circle cx="365.023" cy="436.577" r="4" fill="#0" id="circle84"/>
	<circle cx="365.023" cy="543.908" r="4" fill="#0" id="circle85"/>
	<circle cx="371.528" cy="677.259" r="4" fill="#0" id="circle86"/>
	<circle cx="374.78" cy="469.102" r="4" fill="#0" id="circle87"/>
	<circle cx="374.78" cy="501.626" r="4" fill="#0" id="circle88"/>
	<circle cx="374.78" cy="592.695" r="4" fill="#0" id="circle89"/>
	<circle cx="374.78" cy="709.784" r="4" fill="#0" id="circle90"/>
	<circle cx="384.538" cy="813.862" r="4" fill="#0" id="circle91"/>
	<circle cx="394.295" cy="4" r="4" fill="#0" id="circle92"/>
	<circle cx="417.062" cy="813.862" r="4" fill="#0" id="circle93"/>
	<circle cx="426.82" cy="4" r="4" fill="#0" id="circle94"/>
	<circle cx="449.587" cy="813.862" r="4" fill="#0" id="circle95"/>
	<circle cx="459.344" cy="4" r="4" fill="#0" id="circle96"/>
	<circle cx="482.111" cy="813.862" r="4" fill="#0" id="circle97"/>
	<circle cx="491.869" cy="4" r="4" fill="#0" id="circle98"/>
	<circle cx="514.636" cy="813.862" r="4" fill="#0" id="circle99"/>
	<circle cx="524.393" cy="4" r="4" fill="#0" id="circle100"/>
	<circle cx="547.161" cy="813.862" r="4" fill="#0" id="circle101"/>
	<circle cx="556.918" cy="4" r="4" fill="#0" id="circle102"/>
	<circle cx="566.675" cy="439.83" r="4" fill="#0" id="circle103"/>
	<circle cx="566.675" cy="472.354" r="4" fill="#0" id="circle104"/>
	<circle cx="566.675" cy="504.879" r="4" fill="#0" id="circle105"/>
	<circle cx="566.675" cy="537.403" r="4" fill="#0" id="circle106"/>
	<circle cx="566.675" cy="576.433" r="4" fill="#0" id="circle107"/>
	<circle cx="566.675" cy="608.957" r="4" fill="#0" id="circle108"/>
	<circle cx="566.675" cy="641.482" r="4" fill="#0" id="circle109"/>
	<circle cx="566.675" cy="680.511" r="4" fill="#0" id="circle110"/>
	<circle cx="566.675" cy="713.036" r="4" fill="#0" id="circle111"/>
	<circle cx="569.928" cy="745.561" r="4" fill="#0" id="circle112"/>
	<circle cx="579.685" cy="813.862" r="4" fill="#0" id="circle113"/>
	<circle cx="589.443" cy="4" r="4" fill="#0" id="circle114"/>
	<circle cx="599.2" cy="436.577" r="4" fill="#0" id="circle115"/>
	<circle cx="599.2" cy="543.908" r="4" fill="#0" id="circle116"/>
	<circle cx="599.2" cy="647.987" r="4" fill="#0" id="circle117"/>
	<circle cx="602.452" cy="745.561" r="4" fill="#0" id="circle118"/>
	<circle cx="612.21" cy="813.862" r="4" fill="#0" id="circle119"/>
	<circle cx="615.462" cy="573.18" r="4" fill="#0" id="circle120"/>
	<circle cx="615.462" cy="677.259" r="4" fill="#0" id="circle121"/>
	<circle cx="621.967" cy="4" r="4" fill="#0" id="circle122"/>
	<circle cx="631.725" cy="436.577" r="4" fill="#0" id="circle123"/>
	<circle cx="631.725" cy="543.908" r="4" fill="#0" id="circle124"/>
	<circle cx="631.725" cy="647.987" r="4" fill="#0" id="circle125"/>
	<circle cx="634.977" cy="745.561" r="4" fill="#0" id="circle126"/>
	<circle cx="644.734" cy="813.862" r="4" fill="#0" id="circle127"/>
	<circle cx="647.987" cy="573.18" r="4" fill="#0" id="circle128"/>
	<circle cx="647.987" cy="677.259" r="4" fill="#0" id="circle129"/>
	<circle cx="654.492" cy="4" r="4" fill="#0" id="circle130"/>
	<circle cx="664.249" cy="436.577" r="4" fill="#0" id="circle131"/>
	<circle cx="664.249" cy="543.908" r="4" fill="#0" id="circle132"/>
	<circle cx="664.249" cy="647.987" r="4" fill="#0" id="circle133"/>
	<circle cx="667.502" cy="745.561" r="4" fill="#0" id="circle134"/>
	<circle cx="677.259" cy="813.862" r="4" fill="#0" id="circle135"/>
	<circle cx="680.511" cy="573.18" r="4" fill="#0" id="circle136"/>
	<circle cx="680.511" cy="677.259" r="4" fill="#0" id="circle137"/>
	<circle cx="687.016" cy="4" r="4" fill="#0" id="circle138"/>
	<circle cx="696.774" cy="436.577" r="4" fill="#0" id="circle139"/>
	<circle cx="696.774" cy="543.908" r="4" fill="#0" id="circle140"/>
	<circle cx="696.774" cy="647.987" r="4" fill="#0" id="circle141"/>
	<circle cx="700.026" cy="745.561" r="4" fill="#0" id="circle142"/>
	<circle cx="709.784" cy="813.862" r="4" fill="#0" id="circle143"/>
	<circle cx="713.036" cy="573.18" r="4" fill="#0" id="circle144"/>
	<circle cx="713.036" cy="677.259" r="4" fill="#0" id="circle145"/>
	<circle cx="719.541" cy="4" r="4" fill="#0" id="circle146"/>
	<circle cx="729.298" cy="436.577" r="4" fill="#0" id="circle147"/>
	<circle cx="729.298" cy="543.908" r="4" fill="#0" id="circle148"/>
	<circle cx="729.298" cy="647.987" r="4" fill="#0" id="circle149"/>
	<circle cx="732.551" cy="745.561" r="4" fill="#0" id="circle150"/>
	<circle cx="742.308" cy="813.862" r="4" fill="#0" id="circle151"/>
	<circle cx="745.561" cy="573.18" r="4" fill="#0" id="circle152"/>
	<circle cx="745.561" cy="677.259" r="4" fill="#0" id="circle153"/>
	<circle cx="752.066" cy="4" r="4" fill="#0" id="circle154"/>
	<circle cx="761.823" cy="436.577" r="4" fill="#0" id="circle155"/>
	<circle cx="761.823" cy="543.908" r="4" fill="#0" id="circle156"/>
	<circle cx="761.823" cy="647.987" r="4" fill="#0" id="circle157"/>
	<circle cx="765.075" cy="745.561" r="4" fill="#0" id="circle158"/>
	<circle cx="774.833" cy="813.862" r="4" fill="#0" id="circle159"/>
	<circle cx="778.085" cy="573.18" r="4" fill="#0" id="circle160"/>
	<circle cx="778.085" cy="677.259" r="4" fill="#0" id="circle161"/>
	<circle cx="784.59" cy="4" r="4" fill="#0" id="circle162"/>
	<circle cx="794.348" cy="436.577" r="4" fill="#0" id="circle163"/>
	<circle cx="794.348" cy="543.908" r="4" fill="#0" id="circle164"/>
	<circle cx="794.348" cy="647.987" r="4" fill="#0" id="circle165"/>
	<circle cx="797.6" cy="745.561" r="4" fill="#0" id="circle166"/>
	<circle cx="807.357" cy="813.862" r="4" fill="#0" id="circle167"/>
	<circle cx="810.61" cy="573.18" r="4" fill="#0" id="circle168"/>
	<circle cx="810.61" cy="677.259" r="4" fill="#0" id="circle169"/>
	<circle cx="817.115" cy="4" r="4" fill="#0" id="circle170"/>
	<circle cx="826.872" cy="436.577" r="4" fill="#0" id="circle171"/>
	<circle cx="826.872" cy="543.908" r="4" fill="#0" id="circle172"/>
	<circle cx="826.872" cy="647.987" r="4" fill="#0" id="circle173"/>
	<circle cx="830.125" cy="745.561" r="4" fill="#0" id="circle174"/>
	<circle cx="839.882" cy="813.862" r="4" fill="#0" id="circle175"/>
	<circle cx="843.134" cy="573.18" r="4" fill="#0" id="circle176"/>
	<circle cx="843.134" cy="677.259" r="4" fill="#0" id="circle177"/>
	<circle cx="846.387" cy="257.692" r="4" fill="#0" id="circle178"/>
	<circle cx="846.387" cy="290.216" r="4" fill="#0" id="circle179"/>
	<circle cx="846.387" cy="322.741" r="4" fill="#0" id="circle180"/>
	<circle cx="846.387" cy="355.266" r="4" fill="#0" id="circle181"/>
	<circle cx="846.387" cy="387.79" r="4" fill="#0" id="circle182"/>
	<circle cx="849.639" cy="13.7574" r="4" fill="#0" id="circle183"/>
	<circle cx="852.892" cy="46.282" r="4" fill="#0" id="circle184"/>
	<circle cx="852.892" cy="78.8066" r="4" fill="#0" id="circle185"/>
	<circle cx="852.892" cy="111.331" r="4" fill="#0" id="circle186"/>
	<circle cx="852.892" cy="143.856" r="4" fill="#0" id="circle187"/>
	<circle cx="852.892" cy="176.38" r="4" fill="#0" id="circle188"/>
	<circle cx="852.892" cy="208.905" r="4" fill="#0" id="circle189"/>
	<circle cx="859.397" cy="543.908" r="4" fill="#0" id="circle190"/>
	<circle cx="859.397" cy="647.987" r="4" fill="#0" id="circle191"/>
	<circle cx="862.649" cy="745.561" r="4" fill="#0" id="circle192"/>
	<circle cx="872.407" cy="813.862" r="4" fill="#0" id="circle193"/>
	<circle cx="875.659" cy="573.18" r="4" fill="#0" id="circle194"/>
	<circle cx="875.659" cy="677.259" r="4" fill="#0" id="circle195"/>
	<circle cx="891.921" cy="543.908" r="4" fill="#0" id="circle196"/>
	<circle cx="891.921" cy="647.987" r="4" fill="#0" id="circle197"/>
	<circle cx="895.174" cy="745.561" r="4" fill="#0" id="circle198"/>
	<circle cx="904.931" cy="813.862" r="4" fill="#0" id="circle199"/>
	<circle cx="908.184" cy="573.18" r="4" fill="#0" id="circle200"/>
	<circle cx="908.184" cy="677.259" r="4" fill="#0" id="circle201"/>
	<circle cx="924.446" cy="543.908" r="4" fill="#0" id="circle202"/>
	<circle cx="924.446" cy="647.987" r="4" fill="#0" id="circle203"/>
	<circle cx="927.698" cy="745.561" r="4" fill="#0" id="circle204"/>
	<circle cx="937.456" cy="820.367" r="4" fill="#0" id="circle205"/>
	<circle cx="940.708" cy="573.18" r="4" fill="#0" id="circle206"/>
	<circle cx="960.223" cy="745.561" r="4" fill="#0" id="circle207"/>
	<circle cx="969.98" cy="813.862" r="4" fill="#0" id="circle208"/>
	<circle cx="992.748" cy="755.318" r="4" fill="#0" id="circle209"/>
	<circle cx="996" cy="787.843" r="4" fill="#0" id="circle210"/>
	</g>
</svg>