<?xml version="1.0" encoding="UTF-8" standalone="no"?>
<!-- Created with CurveBenchmark -->
<svg
	xmlns:dc="http://purl.org/dc/elements/1.1/"
	xmlns:cc="http://creativecommons.org/ns#"
	xmlns:rdf="http://www.w3.org/1999/02/22-rdf-syntax-ns#"
	xmlns:svg="http://www.w3.org/2000/svg"
	xmlns="http://www.w3.org/2000/svg"
	xmlns:sodipodi="http://sodipodi.sourceforge.net/DTD/sodipodi-0.dtd"
	xmlns:inkscape="http://www.inkscape.org/namespaces/inkscape"
	width="1000"
	height="1000"
	id="svg2"
	version="1.1"
	sodipodi:docname="manifold/crawl-spoon-3.png.txt">
<defs
	id="defs4" />
<metadata
	id="metadata7">
	<rdf:RDF>
		<cc:Work
			rdf:about="">
			<dc:format>image/svg+xml</dc:format>
			<dc:type
				rdf:resource="http://purl.org/dc/dcmitype/StillImage" />
			<dc:title></dc:title>
		</cc:Work>
	</rdf:RDF>
</metadata>
<g
	inkscape:label="Layer 1"
	inkscape:groupmode="layer"
	id="layer1">
	<path style="fill:none;stroke:red;stroke-width:1px;stroke-linecap:butt;stroke-linejoin:miter;stroke-opacity:1" d="M 4,31.7189 4,40.1185 z" id="boundary" inkscape:connector-curvature="0" />
	<path style="fill:none;stroke:red;stroke-width:1px;stroke-linecap:butt;stroke-linejoin:miter;stroke-opacity:1" d="M 4,40.1185 4,48.5182 z" id="boundary" inkscape:connector-curvature="0" />
	<path style="fill:none;stroke:red;stroke-width:1px;stroke-linecap:butt;stroke-linejoin:miter;stroke-opacity:1" d="M 4,48.5182 4,56.9179 z" id="boundary" inkscape:connector-curvature="0" />
	<path style="fill:none;stroke:red;stroke-width:1px;stroke-linecap:butt;stroke-linejoin:miter;stroke-opacity:1" d="M 4,56.9179 4,65.3175 z" id="boundary" inkscape:connector-curvature="0" />
	<path style="fill:none;stroke:red;stroke-width:1px;stroke-linecap:butt;stroke-linejoin:miter;stroke-opacity:1" d="M 4,65.3175 4,73.7172 z" id="boundary" inkscape:connector-curvature="0" />
	<path style="fill:none;stroke:red;stroke-width:1px;stroke-linecap:butt;stroke-linejoin:miter;stroke-opacity:1" d="M 4,73.7172 8.19983,81.2769 z" id="boundary" inkscape:connector-curvature="0" />
	<path style="fill:none;stroke:red;stroke-width:1px;stroke-linecap:butt;stroke-linejoin:miter;stroke-opacity:1" d="M 8.19983,81.2769 8.19983,89.6765 z" id="boundary" inkscape:connector-curvature="0" />
	<path style="fill:none;stroke:red;stroke-width:1px;stroke-linecap:butt;stroke-linejoin:miter;stroke-opacity:1" d="M 8.19983,89.6765 12.3997,97.2362 z" id="boundary" inkscape:connector-curvature="0" />
	<path style="fill:none;stroke:red;stroke-width:1px;stroke-linecap:butt;stroke-linejoin:miter;stroke-opacity:1" d="M 12.3997,97.2362 12.3997,105.636 z" id="boundary" inkscape:connector-curvature="0" />
	<path style="fill:none;stroke:red;stroke-width:1px;stroke-linecap:butt;stroke-linejoin:miter;stroke-opacity:1" d="M 12.3997,105.636 14.9196,114.036 z" id="boundary" inkscape:connector-curvature="0" />
	<path style="fill:none;stroke:red;stroke-width:1px;stroke-linecap:butt;stroke-linejoin:miter;stroke-opacity:1" d="M 14.9196,114.036 16.5995,122.435 z" id="boundary" inkscape:connector-curvature="0" />
	<path style="fill:none;stroke:red;stroke-width:1px;stroke-linecap:butt;stroke-linejoin:miter;stroke-opacity:1" d="M 16.5995,122.435 19.1194,130.835 z" id="boundary" inkscape:connector-curvature="0" />
	<path style="fill:none;stroke:red;stroke-width:1px;stroke-linecap:butt;stroke-linejoin:miter;stroke-opacity:1" d="M 19.1194,130.835 23.3192,138.395 z" id="boundary" inkscape:connector-curvature="0" />
	<path style="fill:none;stroke:red;stroke-width:1px;stroke-linecap:butt;stroke-linejoin:miter;stroke-opacity:1" d="M 23.3192,138.395 24.9992,146.794 z" id="boundary" inkscape:connector-curvature="0" />
	<path style="fill:none;stroke:red;stroke-width:1px;stroke-linecap:butt;stroke-linejoin:miter;stroke-opacity:1" d="M 24.9992,146.794 29.199,154.354 z" id="boundary" inkscape:connector-curvature="0" />
	<path style="fill:none;stroke:red;stroke-width:1px;stroke-linecap:butt;stroke-linejoin:miter;stroke-opacity:1" d="M 29.199,154.354 33.3988,161.914 z" id="boundary" inkscape:connector-curvature="0" />
	<path style="fill:none;stroke:red;stroke-width:1px;stroke-linecap:butt;stroke-linejoin:miter;stroke-opacity:1" d="M 33.3988,161.914 37.5986,169.473 z" id="boundary" inkscape:connector-curvature="0" />
	<path style="fill:none;stroke:red;stroke-width:1px;stroke-linecap:butt;stroke-linejoin:miter;stroke-opacity:1" d="M 37.5986,169.473 41.7985,177.033 z" id="boundary" inkscape:connector-curvature="0" />
	<path style="fill:none;stroke:red;stroke-width:1px;stroke-linecap:butt;stroke-linejoin:miter;stroke-opacity:1" d="M 41.7985,177.033 44.3184,185.433 z" id="boundary" inkscape:connector-curvature="0" />
	<path style="fill:none;stroke:red;stroke-width:1px;stroke-linecap:butt;stroke-linejoin:miter;stroke-opacity:1" d="M 44.3184,185.433 48.5182,192.992 z" id="boundary" inkscape:connector-curvature="0" />
	<path style="fill:none;stroke:red;stroke-width:1px;stroke-linecap:butt;stroke-linejoin:miter;stroke-opacity:1" d="M 48.5182,192.992 54.398,199.712 z" id="boundary" inkscape:connector-curvature="0" />
	<path style="fill:none;stroke:red;stroke-width:1px;stroke-linecap:butt;stroke-linejoin:miter;stroke-opacity:1" d="M 54.398,199.712 58.5978,207.272 z" id="boundary" inkscape:connector-curvature="0" />
	<path style="fill:none;stroke:red;stroke-width:1px;stroke-linecap:butt;stroke-linejoin:miter;stroke-opacity:1" d="M 58.5978,207.272 62.7976,214.831 z" id="boundary" inkscape:connector-curvature="0" />
	<path style="fill:none;stroke:red;stroke-width:1px;stroke-linecap:butt;stroke-linejoin:miter;stroke-opacity:1" d="M 62.7976,214.831 66.9975,222.391 z" id="boundary" inkscape:connector-curvature="0" />
	<path style="fill:none;stroke:red;stroke-width:1px;stroke-linecap:butt;stroke-linejoin:miter;stroke-opacity:1" d="M 66.9975,222.391 71.1973,229.951 z" id="boundary" inkscape:connector-curvature="0" />
	<path style="fill:none;stroke:red;stroke-width:1px;stroke-linecap:butt;stroke-linejoin:miter;stroke-opacity:1" d="M 71.1973,229.951 75.3971,237.511 z" id="boundary" inkscape:connector-curvature="0" />
	<path style="fill:none;stroke:red;stroke-width:1px;stroke-linecap:butt;stroke-linejoin:miter;stroke-opacity:1" d="M 75.3971,237.511 79.597,245.07 z" id="boundary" inkscape:connector-curvature="0" />
	<path style="fill:none;stroke:red;stroke-width:1px;stroke-linecap:butt;stroke-linejoin:miter;stroke-opacity:1" d="M 79.597,245.07 85.4767,251.79 z" id="boundary" inkscape:connector-curvature="0" />
	<path style="fill:none;stroke:red;stroke-width:1px;stroke-linecap:butt;stroke-linejoin:miter;stroke-opacity:1" d="M 85.4767,251.79 92.1964,256.83 z" id="boundary" inkscape:connector-curvature="0" />
	<path style="fill:none;stroke:red;stroke-width:1px;stroke-linecap:butt;stroke-linejoin:miter;stroke-opacity:1" d="M 92.1964,256.83 92.1964,265.229 z" id="boundary" inkscape:connector-curvature="0" />
	<path style="fill:none;stroke:red;stroke-width:1px;stroke-linecap:butt;stroke-linejoin:miter;stroke-opacity:1" d="M 92.1964,265.229 96.3963,272.789 z" id="boundary" inkscape:connector-curvature="0" />
	<path style="fill:none;stroke:red;stroke-width:1px;stroke-linecap:butt;stroke-linejoin:miter;stroke-opacity:1" d="M 96.3963,272.789 100.596,280.349 z" id="boundary" inkscape:connector-curvature="0" />
	<path style="fill:none;stroke:red;stroke-width:1px;stroke-linecap:butt;stroke-linejoin:miter;stroke-opacity:1" d="M 100.596,280.349 104.796,287.909 z" id="boundary" inkscape:connector-curvature="0" />
	<path style="fill:none;stroke:red;stroke-width:1px;stroke-linecap:butt;stroke-linejoin:miter;stroke-opacity:1" d="M 104.796,287.909 108.996,295.468 z" id="boundary" inkscape:connector-curvature="0" />
	<path style="fill:none;stroke:red;stroke-width:1px;stroke-linecap:butt;stroke-linejoin:miter;stroke-opacity:1" d="M 108.996,295.468 113.196,303.028 z" id="boundary" inkscape:connector-curvature="0" />
	<path style="fill:none;stroke:red;stroke-width:1px;stroke-linecap:butt;stroke-linejoin:miter;stroke-opacity:1" d="M 113.196,303.028 118.235,309.748 z" id="boundary" inkscape:connector-curvature="0" />
	<path style="fill:none;stroke:red;stroke-width:1px;stroke-linecap:butt;stroke-linejoin:miter;stroke-opacity:1" d="M 118.235,309.748 124.955,315.627 z" id="boundary" inkscape:connector-curvature="0" />
	<path style="fill:none;stroke:red;stroke-width:1px;stroke-linecap:butt;stroke-linejoin:miter;stroke-opacity:1" d="M 124.955,315.627 128.315,324.027 z" id="boundary" inkscape:connector-curvature="0" />
	<path style="fill:none;stroke:red;stroke-width:1px;stroke-linecap:butt;stroke-linejoin:miter;stroke-opacity:1" d="M 128.315,324.027 135.035,329.907 z" id="boundary" inkscape:connector-curvature="0" />
	<path style="fill:none;stroke:red;stroke-width:1px;stroke-linecap:butt;stroke-linejoin:miter;stroke-opacity:1" d="M 135.035,329.907 138.395,338.307 z" id="boundary" inkscape:connector-curvature="0" />
	<path style="fill:none;stroke:red;stroke-width:1px;stroke-linecap:butt;stroke-linejoin:miter;stroke-opacity:1" d="M 138.395,338.307 145.114,344.186 z" id="boundary" inkscape:connector-curvature="0" />
	<path style="fill:none;stroke:red;stroke-width:1px;stroke-linecap:butt;stroke-linejoin:miter;stroke-opacity:1" d="M 145.114,344.186 150.994,350.906 z" id="boundary" inkscape:connector-curvature="0" />
	<path style="fill:none;stroke:red;stroke-width:1px;stroke-linecap:butt;stroke-linejoin:miter;stroke-opacity:1" d="M 150.994,350.906 157.714,356.786 z" id="boundary" inkscape:connector-curvature="0" />
	<path style="fill:none;stroke:red;stroke-width:1px;stroke-linecap:butt;stroke-linejoin:miter;stroke-opacity:1" d="M 157.714,356.786 163.594,363.506 z" id="boundary" inkscape:connector-curvature="0" />
	<path style="fill:none;stroke:red;stroke-width:1px;stroke-linecap:butt;stroke-linejoin:miter;stroke-opacity:1" d="M 163.594,363.506 167.793,371.065 z" id="boundary" inkscape:connector-curvature="0" />
	<path style="fill:none;stroke:red;stroke-width:1px;stroke-linecap:butt;stroke-linejoin:miter;stroke-opacity:1" d="M 167.793,371.065 171.993,378.625 z" id="boundary" inkscape:connector-curvature="0" />
	<path style="fill:none;stroke:red;stroke-width:1px;stroke-linecap:butt;stroke-linejoin:miter;stroke-opacity:1" d="M 171.993,378.625 174.513,387.025 z" id="boundary" inkscape:connector-curvature="0" />
	<path style="fill:none;stroke:red;stroke-width:1px;stroke-linecap:butt;stroke-linejoin:miter;stroke-opacity:1" d="M 174.513,387.025 181.233,392.904 z" id="boundary" inkscape:connector-curvature="0" />
	<path style="fill:none;stroke:red;stroke-width:1px;stroke-linecap:butt;stroke-linejoin:miter;stroke-opacity:1" d="M 181.233,392.904 184.593,401.304 z" id="boundary" inkscape:connector-curvature="0" />
	<path style="fill:none;stroke:red;stroke-width:1px;stroke-linecap:butt;stroke-linejoin:miter;stroke-opacity:1" d="M 184.593,401.304 188.793,408.864 z" id="boundary" inkscape:connector-curvature="0" />
	<path style="fill:none;stroke:red;stroke-width:1px;stroke-linecap:butt;stroke-linejoin:miter;stroke-opacity:1" d="M 188.793,408.864 192.992,416.423 z" id="boundary" inkscape:connector-curvature="0" />
	<path style="fill:none;stroke:red;stroke-width:1px;stroke-linecap:butt;stroke-linejoin:miter;stroke-opacity:1" d="M 192.992,416.423 198.032,423.143 z" id="boundary" inkscape:connector-curvature="0" />
	<path style="fill:none;stroke:red;stroke-width:1px;stroke-linecap:butt;stroke-linejoin:miter;stroke-opacity:1" d="M 198.032,423.143 204.752,429.023 z" id="boundary" inkscape:connector-curvature="0" />
	<path style="fill:none;stroke:red;stroke-width:1px;stroke-linecap:butt;stroke-linejoin:miter;stroke-opacity:1" d="M 204.752,429.023 210.632,435.743 z" id="boundary" inkscape:connector-curvature="0" />
	<path style="fill:none;stroke:red;stroke-width:1px;stroke-linecap:butt;stroke-linejoin:miter;stroke-opacity:1" d="M 210.632,435.743 217.351,441.622 z" id="boundary" inkscape:connector-curvature="0" />
	<path style="fill:none;stroke:red;stroke-width:1px;stroke-linecap:butt;stroke-linejoin:miter;stroke-opacity:1" d="M 217.351,441.622 220.711,450.022 z" id="boundary" inkscape:connector-curvature="0" />
	<path style="fill:none;stroke:red;stroke-width:1px;stroke-linecap:butt;stroke-linejoin:miter;stroke-opacity:1" d="M 220.711,450.022 227.431,455.902 z" id="boundary" inkscape:connector-curvature="0" />
	<path style="fill:none;stroke:red;stroke-width:1px;stroke-linecap:butt;stroke-linejoin:miter;stroke-opacity:1" d="M 227.431,455.902 230.791,464.301 z" id="boundary" inkscape:connector-curvature="0" />
	<path style="fill:none;stroke:red;stroke-width:1px;stroke-linecap:butt;stroke-linejoin:miter;stroke-opacity:1" d="M 230.791,464.301 237.511,470.181 z" id="boundary" inkscape:connector-curvature="0" />
	<path style="fill:none;stroke:red;stroke-width:1px;stroke-linecap:butt;stroke-linejoin:miter;stroke-opacity:1" d="M 237.511,470.181 243.39,476.901 z" id="boundary" inkscape:connector-curvature="0" />
	<path style="fill:none;stroke:red;stroke-width:1px;stroke-linecap:butt;stroke-linejoin:miter;stroke-opacity:1" d="M 243.39,476.901 251.79,479.421 z" id="boundary" inkscape:connector-curvature="0" />
	<path style="fill:none;stroke:red;stroke-width:1px;stroke-linecap:butt;stroke-linejoin:miter;stroke-opacity:1" d="M 251.79,479.421 256.83,486.141 z" id="boundary" inkscape:connector-curvature="0" />
	<path style="fill:none;stroke:red;stroke-width:1px;stroke-linecap:butt;stroke-linejoin:miter;stroke-opacity:1" d="M 256.83,486.141 263.55,492.02 z" id="boundary" inkscape:connector-curvature="0" />
	<path style="fill:none;stroke:red;stroke-width:1px;stroke-linecap:butt;stroke-linejoin:miter;stroke-opacity:1" d="M 263.55,492.02 269.429,498.74 z" id="boundary" inkscape:connector-curvature="0" />
	<path style="fill:none;stroke:red;stroke-width:1px;stroke-linecap:butt;stroke-linejoin:miter;stroke-opacity:1" d="M 269.429,498.74 276.149,504.62 z" id="boundary" inkscape:connector-curvature="0" />
	<path style="fill:none;stroke:red;stroke-width:1px;stroke-linecap:butt;stroke-linejoin:miter;stroke-opacity:1" d="M 276.149,504.62 282.029,511.34 z" id="boundary" inkscape:connector-curvature="0" />
	<path style="fill:none;stroke:red;stroke-width:1px;stroke-linecap:butt;stroke-linejoin:miter;stroke-opacity:1" d="M 282.029,511.34 288.749,517.219 z" id="boundary" inkscape:connector-curvature="0" />
	<path style="fill:none;stroke:red;stroke-width:1px;stroke-linecap:butt;stroke-linejoin:miter;stroke-opacity:1" d="M 288.749,517.219 294.628,523.939 z" id="boundary" inkscape:connector-curvature="0" />
	<path style="fill:none;stroke:red;stroke-width:1px;stroke-linecap:butt;stroke-linejoin:miter;stroke-opacity:1" d="M 294.628,523.939 301.348,529.819 z" id="boundary" inkscape:connector-curvature="0" />
	<path style="fill:none;stroke:red;stroke-width:1px;stroke-linecap:butt;stroke-linejoin:miter;stroke-opacity:1" d="M 301.348,529.819 307.228,536.539 z" id="boundary" inkscape:connector-curvature="0" />
	<path style="fill:none;stroke:red;stroke-width:1px;stroke-linecap:butt;stroke-linejoin:miter;stroke-opacity:1" d="M 307.228,536.539 313.948,542.418 z" id="boundary" inkscape:connector-curvature="0" />
	<path style="fill:none;stroke:red;stroke-width:1px;stroke-linecap:butt;stroke-linejoin:miter;stroke-opacity:1" d="M 313.948,542.418 319.827,549.138 z" id="boundary" inkscape:connector-curvature="0" />
	<path style="fill:none;stroke:red;stroke-width:1px;stroke-linecap:butt;stroke-linejoin:miter;stroke-opacity:1" d="M 319.827,549.138 326.547,555.018 z" id="boundary" inkscape:connector-curvature="0" />
	<path style="fill:none;stroke:red;stroke-width:1px;stroke-linecap:butt;stroke-linejoin:miter;stroke-opacity:1" d="M 326.547,555.018 334.107,559.218 z" id="boundary" inkscape:connector-curvature="0" />
	<path style="fill:none;stroke:red;stroke-width:1px;stroke-linecap:butt;stroke-linejoin:miter;stroke-opacity:1" d="M 334.107,559.218 340.826,565.097 z" id="boundary" inkscape:connector-curvature="0" />
	<path style="fill:none;stroke:red;stroke-width:1px;stroke-linecap:butt;stroke-linejoin:miter;stroke-opacity:1" d="M 340.826,565.097 344.186,573.497 z" id="boundary" inkscape:connector-curvature="0" />
	<path style="fill:none;stroke:red;stroke-width:1px;stroke-linecap:butt;stroke-linejoin:miter;stroke-opacity:1" d="M 344.186,573.497 350.906,579.377 z" id="boundary" inkscape:connector-curvature="0" />
	<path style="fill:none;stroke:red;stroke-width:1px;stroke-linecap:butt;stroke-linejoin:miter;stroke-opacity:1" d="M 350.906,579.377 356.786,586.097 z" id="boundary" inkscape:connector-curvature="0" />
	<path style="fill:none;stroke:red;stroke-width:1px;stroke-linecap:butt;stroke-linejoin:miter;stroke-opacity:1" d="M 356.786,586.097 363.506,591.976 z" id="boundary" inkscape:connector-curvature="0" />
	<path style="fill:none;stroke:red;stroke-width:1px;stroke-linecap:butt;stroke-linejoin:miter;stroke-opacity:1" d="M 363.506,591.976 369.385,598.696 z" id="boundary" inkscape:connector-curvature="0" />
	<path style="fill:none;stroke:red;stroke-width:1px;stroke-linecap:butt;stroke-linejoin:miter;stroke-opacity:1" d="M 369.385,598.696 377.785,601.216 z" id="boundary" inkscape:connector-curvature="0" />
	<path style="fill:none;stroke:red;stroke-width:1px;stroke-linecap:butt;stroke-linejoin:miter;stroke-opacity:1" d="M 377.785,601.216 385.345,605.416 z" id="boundary" inkscape:connector-curvature="0" />
	<path style="fill:none;stroke:red;stroke-width:1px;stroke-linecap:butt;stroke-linejoin:miter;stroke-opacity:1" d="M 385.345,605.416 386.185,613.815 z" id="boundary" inkscape:connector-curvature="0" />
	<path style="fill:none;stroke:red;stroke-width:1px;stroke-linecap:butt;stroke-linejoin:miter;stroke-opacity:1" d="M 386.185,613.815 390.384,621.375 z" id="boundary" inkscape:connector-curvature="0" />
	<path style="fill:none;stroke:red;stroke-width:1px;stroke-linecap:butt;stroke-linejoin:miter;stroke-opacity:1" d="M 390.384,621.375 395.424,628.095 z" id="boundary" inkscape:connector-curvature="0" />
	<path style="fill:none;stroke:red;stroke-width:1px;stroke-linecap:butt;stroke-linejoin:miter;stroke-opacity:1" d="M 395.424,628.095 401.304,634.815 z" id="boundary" inkscape:connector-curvature="0" />
	<path style="fill:none;stroke:red;stroke-width:1px;stroke-linecap:butt;stroke-linejoin:miter;stroke-opacity:1" d="M 401.304,634.815 408.864,639.014 z" id="boundary" inkscape:connector-curvature="0" />
	<path style="fill:none;stroke:red;stroke-width:1px;stroke-linecap:butt;stroke-linejoin:miter;stroke-opacity:1" d="M 408.864,639.014 415.583,644.054 z" id="boundary" inkscape:connector-curvature="0" />
	<path style="fill:none;stroke:red;stroke-width:1px;stroke-linecap:butt;stroke-linejoin:miter;stroke-opacity:1" d="M 415.583,644.054 421.463,650.774 z" id="boundary" inkscape:connector-curvature="0" />
	<path style="fill:none;stroke:red;stroke-width:1px;stroke-linecap:butt;stroke-linejoin:miter;stroke-opacity:1" d="M 421.463,650.774 428.183,655.814 z" id="boundary" inkscape:connector-curvature="0" />
	<path style="fill:none;stroke:red;stroke-width:1px;stroke-linecap:butt;stroke-linejoin:miter;stroke-opacity:1" d="M 428.183,655.814 432.383,663.373 z" id="boundary" inkscape:connector-curvature="0" />
	<path style="fill:none;stroke:red;stroke-width:1px;stroke-linecap:butt;stroke-linejoin:miter;stroke-opacity:1" d="M 432.383,663.373 437.423,670.093 z" id="boundary" inkscape:connector-curvature="0" />
	<path style="fill:none;stroke:red;stroke-width:1px;stroke-linecap:butt;stroke-linejoin:miter;stroke-opacity:1" d="M 437.423,670.093 443.302,676.813 z" id="boundary" inkscape:connector-curvature="0" />
	<path style="fill:none;stroke:red;stroke-width:1px;stroke-linecap:butt;stroke-linejoin:miter;stroke-opacity:1" d="M 443.302,676.813 450.022,682.693 z" id="boundary" inkscape:connector-curvature="0" />
	<path style="fill:none;stroke:red;stroke-width:1px;stroke-linecap:butt;stroke-linejoin:miter;stroke-opacity:1" d="M 450.022,682.693 455.902,689.412 z" id="boundary" inkscape:connector-curvature="0" />
	<path style="fill:none;stroke:red;stroke-width:1px;stroke-linecap:butt;stroke-linejoin:miter;stroke-opacity:1" d="M 455.902,689.412 460.102,696.972 z" id="boundary" inkscape:connector-curvature="0" />
	<path style="fill:none;stroke:red;stroke-width:1px;stroke-linecap:butt;stroke-linejoin:miter;stroke-opacity:1" d="M 460.102,696.972 465.981,703.692 z" id="boundary" inkscape:connector-curvature="0" />
	<path style="fill:none;stroke:red;stroke-width:1px;stroke-linecap:butt;stroke-linejoin:miter;stroke-opacity:1" d="M 465.981,703.692 472.701,709.572 z" id="boundary" inkscape:connector-curvature="0" />
	<path style="fill:none;stroke:red;stroke-width:1px;stroke-linecap:butt;stroke-linejoin:miter;stroke-opacity:1" d="M 472.701,709.572 480.261,713.771 z" id="boundary" inkscape:connector-curvature="0" />
	<path style="fill:none;stroke:red;stroke-width:1px;stroke-linecap:butt;stroke-linejoin:miter;stroke-opacity:1" d="M 480.261,713.771 486.981,718.811 z" id="boundary" inkscape:connector-curvature="0" />
	<path style="fill:none;stroke:red;stroke-width:1px;stroke-linecap:butt;stroke-linejoin:miter;stroke-opacity:1" d="M 486.981,718.811 492.02,725.531 z" id="boundary" inkscape:connector-curvature="0" />
	<path style="fill:none;stroke:red;stroke-width:1px;stroke-linecap:butt;stroke-linejoin:miter;stroke-opacity:1" d="M 492.02,725.531 498.74,731.411 z" id="boundary" inkscape:connector-curvature="0" />
	<path style="fill:none;stroke:red;stroke-width:1px;stroke-linecap:butt;stroke-linejoin:miter;stroke-opacity:1" d="M 498.74,731.411 502.1,739.81 z" id="boundary" inkscape:connector-curvature="0" />
	<path style="fill:none;stroke:red;stroke-width:1px;stroke-linecap:butt;stroke-linejoin:miter;stroke-opacity:1" d="M 502.1,739.81 508.82,745.69 z" id="boundary" inkscape:connector-curvature="0" />
	<path style="fill:none;stroke:red;stroke-width:1px;stroke-linecap:butt;stroke-linejoin:miter;stroke-opacity:1" d="M 508.82,745.69 514.699,752.41 z" id="boundary" inkscape:connector-curvature="0" />
	<path style="fill:none;stroke:red;stroke-width:1px;stroke-linecap:butt;stroke-linejoin:miter;stroke-opacity:1" d="M 514.699,752.41 521.419,758.29 z" id="boundary" inkscape:connector-curvature="0" />
	<path style="fill:none;stroke:red;stroke-width:1px;stroke-linecap:butt;stroke-linejoin:miter;stroke-opacity:1" d="M 521.419,758.29 527.299,765.009 z" id="boundary" inkscape:connector-curvature="0" />
	<path style="fill:none;stroke:red;stroke-width:1px;stroke-linecap:butt;stroke-linejoin:miter;stroke-opacity:1" d="M 527.299,765.009 535.699,768.369 z" id="boundary" inkscape:connector-curvature="0" />
	<path style="fill:none;stroke:red;stroke-width:1px;stroke-linecap:butt;stroke-linejoin:miter;stroke-opacity:1" d="M 535.699,768.369 541.578,775.089 z" id="boundary" inkscape:connector-curvature="0" />
	<path style="fill:none;stroke:red;stroke-width:1px;stroke-linecap:butt;stroke-linejoin:miter;stroke-opacity:1" d="M 541.578,775.089 545.778,782.649 z" id="boundary" inkscape:connector-curvature="0" />
	<path style="fill:none;stroke:red;stroke-width:1px;stroke-linecap:butt;stroke-linejoin:miter;stroke-opacity:1" d="M 545.778,782.649 551.658,789.368 z" id="boundary" inkscape:connector-curvature="0" />
	<path style="fill:none;stroke:red;stroke-width:1px;stroke-linecap:butt;stroke-linejoin:miter;stroke-opacity:1" d="M 551.658,789.368 558.378,794.408 z" id="boundary" inkscape:connector-curvature="0" />
	<path style="fill:none;stroke:red;stroke-width:1px;stroke-linecap:butt;stroke-linejoin:miter;stroke-opacity:1" d="M 558.378,794.408 562.577,801.968 z" id="boundary" inkscape:connector-curvature="0" />
	<path style="fill:none;stroke:red;stroke-width:1px;stroke-linecap:butt;stroke-linejoin:miter;stroke-opacity:1" d="M 562.577,801.968 567.617,808.688 z" id="boundary" inkscape:connector-curvature="0" />
	<path style="fill:none;stroke:red;stroke-width:1px;stroke-linecap:butt;stroke-linejoin:miter;stroke-opacity:1" d="M 567.617,808.688 573.497,815.407 z" id="boundary" inkscape:connector-curvature="0" />
	<path style="fill:none;stroke:red;stroke-width:1px;stroke-linecap:butt;stroke-linejoin:miter;stroke-opacity:1" d="M 573.497,815.407 580.217,821.287 z" id="boundary" inkscape:connector-curvature="0" />
	<path style="fill:none;stroke:red;stroke-width:1px;stroke-linecap:butt;stroke-linejoin:miter;stroke-opacity:1" d="M 580.217,821.287 586.097,828.007 z" id="boundary" inkscape:connector-curvature="0" />
	<path style="fill:none;stroke:red;stroke-width:1px;stroke-linecap:butt;stroke-linejoin:miter;stroke-opacity:1" d="M 586.097,828.007 592.816,833.887 z" id="boundary" inkscape:connector-curvature="0" />
	<path style="fill:none;stroke:red;stroke-width:1px;stroke-linecap:butt;stroke-linejoin:miter;stroke-opacity:1" d="M 592.816,833.887 598.696,840.606 z" id="boundary" inkscape:connector-curvature="0" />
	<path style="fill:none;stroke:red;stroke-width:1px;stroke-linecap:butt;stroke-linejoin:miter;stroke-opacity:1" d="M 598.696,840.606 602.896,848.166 z" id="boundary" inkscape:connector-curvature="0" />
	<path style="fill:none;stroke:red;stroke-width:1px;stroke-linecap:butt;stroke-linejoin:miter;stroke-opacity:1" d="M 602.896,848.166 608.776,854.886 z" id="boundary" inkscape:connector-curvature="0" />
	<path style="fill:none;stroke:red;stroke-width:1px;stroke-linecap:butt;stroke-linejoin:miter;stroke-opacity:1" d="M 608.776,854.886 612.975,862.445 z" id="boundary" inkscape:connector-curvature="0" />
	<path style="fill:none;stroke:red;stroke-width:1px;stroke-linecap:butt;stroke-linejoin:miter;stroke-opacity:1" d="M 612.975,862.445 618.855,869.165 z" id="boundary" inkscape:connector-curvature="0" />
	<path style="fill:none;stroke:red;stroke-width:1px;stroke-linecap:butt;stroke-linejoin:miter;stroke-opacity:1" d="M 618.855,869.165 625.575,874.205 z" id="boundary" inkscape:connector-curvature="0" />
	<path style="fill:none;stroke:red;stroke-width:1px;stroke-linecap:butt;stroke-linejoin:miter;stroke-opacity:1" d="M 625.575,874.205 630.615,880.925 z" id="boundary" inkscape:connector-curvature="0" />
	<path style="fill:none;stroke:red;stroke-width:1px;stroke-linecap:butt;stroke-linejoin:miter;stroke-opacity:1" d="M 630.615,880.925 637.334,886.804 z" id="boundary" inkscape:connector-curvature="0" />
	<path style="fill:none;stroke:red;stroke-width:1px;stroke-linecap:butt;stroke-linejoin:miter;stroke-opacity:1" d="M 637.334,886.804 644.894,891.004 z" id="boundary" inkscape:connector-curvature="0" />
	<path style="fill:none;stroke:red;stroke-width:1px;stroke-linecap:butt;stroke-linejoin:miter;stroke-opacity:1" d="M 644.894,891.004 651.614,896.884 z" id="boundary" inkscape:connector-curvature="0" />
	<path style="fill:none;stroke:red;stroke-width:1px;stroke-linecap:butt;stroke-linejoin:miter;stroke-opacity:1" d="M 651.614,896.884 657.494,903.604 z" id="boundary" inkscape:connector-curvature="0" />
	<path style="fill:none;stroke:red;stroke-width:1px;stroke-linecap:butt;stroke-linejoin:miter;stroke-opacity:1" d="M 657.494,903.604 665.893,906.964 z" id="boundary" inkscape:connector-curvature="0" />
	<path style="fill:none;stroke:red;stroke-width:1px;stroke-linecap:butt;stroke-linejoin:miter;stroke-opacity:1" d="M 665.893,906.964 672.613,912.003 z" id="boundary" inkscape:connector-curvature="0" />
	<path style="fill:none;stroke:red;stroke-width:1px;stroke-linecap:butt;stroke-linejoin:miter;stroke-opacity:1" d="M 672.613,912.003 680.173,916.203 z" id="boundary" inkscape:connector-curvature="0" />
	<path style="fill:none;stroke:red;stroke-width:1px;stroke-linecap:butt;stroke-linejoin:miter;stroke-opacity:1" d="M 680.173,916.203 688.572,916.203 z" id="boundary" inkscape:connector-curvature="0" />
	<path style="fill:none;stroke:red;stroke-width:1px;stroke-linecap:butt;stroke-linejoin:miter;stroke-opacity:1" d="M 688.572,916.203 693.612,922.923 z" id="boundary" inkscape:connector-curvature="0" />
	<path style="fill:none;stroke:red;stroke-width:1px;stroke-linecap:butt;stroke-linejoin:miter;stroke-opacity:1" d="M 693.612,922.923 700.332,928.803 z" id="boundary" inkscape:connector-curvature="0" />
	<path style="fill:none;stroke:red;stroke-width:1px;stroke-linecap:butt;stroke-linejoin:miter;stroke-opacity:1" d="M 700.332,928.803 707.892,933.003 z" id="boundary" inkscape:connector-curvature="0" />
	<path style="fill:none;stroke:red;stroke-width:1px;stroke-linecap:butt;stroke-linejoin:miter;stroke-opacity:1" d="M 707.892,933.003 714.611,938.882 z" id="boundary" inkscape:connector-curvature="0" />
	<path style="fill:none;stroke:red;stroke-width:1px;stroke-linecap:butt;stroke-linejoin:miter;stroke-opacity:1" d="M 714.611,938.882 722.171,943.082 z" id="boundary" inkscape:connector-curvature="0" />
	<path style="fill:none;stroke:red;stroke-width:1px;stroke-linecap:butt;stroke-linejoin:miter;stroke-opacity:1" d="M 722.171,943.082 730.571,945.602 z" id="boundary" inkscape:connector-curvature="0" />
	<path style="fill:none;stroke:red;stroke-width:1px;stroke-linecap:butt;stroke-linejoin:miter;stroke-opacity:1" d="M 730.571,945.602 738.13,949.802 z" id="boundary" inkscape:connector-curvature="0" />
	<path style="fill:none;stroke:red;stroke-width:1px;stroke-linecap:butt;stroke-linejoin:miter;stroke-opacity:1" d="M 738.13,949.802 744.01,956.522 z" id="boundary" inkscape:connector-curvature="0" />
	<path style="fill:none;stroke:red;stroke-width:1px;stroke-linecap:butt;stroke-linejoin:miter;stroke-opacity:1" d="M 744.01,956.522 750.73,962.401 z" id="boundary" inkscape:connector-curvature="0" />
	<path style="fill:none;stroke:red;stroke-width:1px;stroke-linecap:butt;stroke-linejoin:miter;stroke-opacity:1" d="M 750.73,962.401 758.29,966.601 z" id="boundary" inkscape:connector-curvature="0" />
	<path style="fill:none;stroke:red;stroke-width:1px;stroke-linecap:butt;stroke-linejoin:miter;stroke-opacity:1" d="M 758.29,966.601 766.689,969.961 z" id="boundary" inkscape:connector-curvature="0" />
	<path style="fill:none;stroke:red;stroke-width:1px;stroke-linecap:butt;stroke-linejoin:miter;stroke-opacity:1" d="M 766.689,969.961 772.569,976.681 z" id="boundary" inkscape:connector-curvature="0" />
	<path style="fill:none;stroke:red;stroke-width:1px;stroke-linecap:butt;stroke-linejoin:miter;stroke-opacity:1" d="M 772.569,976.681 780.969,979.201 z" id="boundary" inkscape:connector-curvature="0" />
	<path style="fill:none;stroke:red;stroke-width:1px;stroke-linecap:butt;stroke-linejoin:miter;stroke-opacity:1" d="M 780.969,979.201 788.528,983.401 z" id="boundary" inkscape:connector-curvature="0" />
	<path style="fill:none;stroke:red;stroke-width:1px;stroke-linecap:butt;stroke-linejoin:miter;stroke-opacity:1" d="M 788.528,983.401 794.408,990.12 z" id="boundary" inkscape:connector-curvature="0" />
	<path style="fill:none;stroke:red;stroke-width:1px;stroke-linecap:butt;stroke-linejoin:miter;stroke-opacity:1" d="M 794.408,990.12 802.808,993.48 z" id="boundary" inkscape:connector-curvature="0" />
	<path style="fill:none;stroke:red;stroke-width:1px;stroke-linecap:butt;stroke-linejoin:miter;stroke-opacity:1" d="M 802.808,993.48 811.207,996 z" id="boundary" inkscape:connector-curvature="0" />
	<path style="fill:none;stroke:red;stroke-width:1px;stroke-linecap:butt;stroke-linejoin:miter;stroke-opacity:1" d="M 811.207,996 819.607,996 z" id="boundary" inkscape:connector-curvature="0" />
	<path style="fill:none;stroke:red;stroke-width:1px;stroke-linecap:butt;stroke-linejoin:miter;stroke-opacity:1" d="M 819.607,996 828.007,996 z" id="boundary" inkscape:connector-curvature="0" />
	<path style="fill:none;stroke:red;stroke-width:1px;stroke-linecap:butt;stroke-linejoin:miter;stroke-opacity:1" d="M 828.007,996 835.566,991.8 z" id="boundary" inkscape:connector-curvature="0" />
	<path style="fill:none;stroke:red;stroke-width:1px;stroke-linecap:butt;stroke-linejoin:miter;stroke-opacity:1" d="M 835.566,991.8 843.126,987.6 z" id="boundary" inkscape:connector-curvature="0" />
	<path style="fill:none;stroke:red;stroke-width:1px;stroke-linecap:butt;stroke-linejoin:miter;stroke-opacity:1" d="M 843.126,987.6 850.686,982.561 z" id="boundary" inkscape:connector-curvature="0" />
	<path style="fill:none;stroke:red;stroke-width:1px;stroke-linecap:butt;stroke-linejoin:miter;stroke-opacity:1" d="M 4,31.7189 8.19983,23.3192 z" id="boundary" inkscape:connector-curvature="0" />
	<path style="fill:none;stroke:red;stroke-width:1px;stroke-linecap:butt;stroke-linejoin:miter;stroke-opacity:1" d="M 8.19983,23.3192 14.9196,16.5995 z" id="boundary" inkscape:connector-curvature="0" />
	<path style="fill:none;stroke:red;stroke-width:1px;stroke-linecap:butt;stroke-linejoin:miter;stroke-opacity:1" d="M 14.9196,16.5995 21.6393,9.87976 z" id="boundary" inkscape:connector-curvature="0" />
	<path style="fill:none;stroke:red;stroke-width:1px;stroke-linecap:butt;stroke-linejoin:miter;stroke-opacity:1" d="M 21.6393,9.87976 30.039,5.67993 z" id="boundary" inkscape:connector-curvature="0" />
	<path style="fill:none;stroke:red;stroke-width:1px;stroke-linecap:butt;stroke-linejoin:miter;stroke-opacity:1" d="M 30.039,5.67993 38.4386,4 z" id="boundary" inkscape:connector-curvature="0" />
	<path style="fill:none;stroke:red;stroke-width:1px;stroke-linecap:butt;stroke-linejoin:miter;stroke-opacity:1" d="M 38.4386,4 46.8383,4 z" id="boundary" inkscape:connector-curvature="0" />
	<path style="fill:none;stroke:red;stroke-width:1px;stroke-linecap:butt;stroke-linejoin:miter;stroke-opacity:1" d="M 46.8383,4 55.2379,4 z" id="boundary" inkscape:connector-curvature="0" />
	<path style="fill:none;stroke:red;stroke-width:1px;stroke-linecap:butt;stroke-linejoin:miter;stroke-opacity:1" d="M 55.2379,4 62.7976,8.19983 z" id="boundary" inkscape:connector-curvature="0" />
	<path style="fill:none;stroke:red;stroke-width:1px;stroke-linecap:butt;stroke-linejoin:miter;stroke-opacity:1" d="M 62.7976,8.19983 69.5174,13.2396 z" id="boundary" inkscape:connector-curvature="0" />
	<path style="fill:none;stroke:red;stroke-width:1px;stroke-linecap:butt;stroke-linejoin:miter;stroke-opacity:1" d="M 69.5174,13.2396 76.2371,19.1194 z" id="boundary" inkscape:connector-curvature="0" />
	<path style="fill:none;stroke:red;stroke-width:1px;stroke-linecap:butt;stroke-linejoin:miter;stroke-opacity:1" d="M 76.2371,19.1194 80.4369,26.6791 z" id="boundary" inkscape:connector-curvature="0" />
	<path style="fill:none;stroke:red;stroke-width:1px;stroke-linecap:butt;stroke-linejoin:miter;stroke-opacity:1" d="M 80.4369,26.6791 84.6367,34.2388 z" id="boundary" inkscape:connector-curvature="0" />
	<path style="fill:none;stroke:red;stroke-width:1px;stroke-linecap:butt;stroke-linejoin:miter;stroke-opacity:1" d="M 84.6367,34.2388 84.6367,42.6384 z" id="boundary" inkscape:connector-curvature="0" />
	<path style="fill:none;stroke:red;stroke-width:1px;stroke-linecap:butt;stroke-linejoin:miter;stroke-opacity:1" d="M 84.6367,42.6384 84.6367,51.0381 z" id="boundary" inkscape:connector-curvature="0" />
	<path style="fill:none;stroke:red;stroke-width:1px;stroke-linecap:butt;stroke-linejoin:miter;stroke-opacity:1" d="M 84.6367,51.0381 84.6367,59.4378 z" id="boundary" inkscape:connector-curvature="0" />
	<path style="fill:none;stroke:red;stroke-width:1px;stroke-linecap:butt;stroke-linejoin:miter;stroke-opacity:1" d="M 84.6367,59.4378 86.3167,67.8374 z" id="boundary" inkscape:connector-curvature="0" />
	<path style="fill:none;stroke:red;stroke-width:1px;stroke-linecap:butt;stroke-linejoin:miter;stroke-opacity:1" d="M 86.3167,67.8374 88.8366,76.2371 z" id="boundary" inkscape:connector-curvature="0" />
	<path style="fill:none;stroke:red;stroke-width:1px;stroke-linecap:butt;stroke-linejoin:miter;stroke-opacity:1" d="M 88.8366,76.2371 90.5165,84.6367 z" id="boundary" inkscape:connector-curvature="0" />
	<path style="fill:none;stroke:red;stroke-width:1px;stroke-linecap:butt;stroke-linejoin:miter;stroke-opacity:1" d="M 90.5165,84.6367 93.0364,93.0364 z" id="boundary" inkscape:connector-curvature="0" />
	<path style="fill:none;stroke:red;stroke-width:1px;stroke-linecap:butt;stroke-linejoin:miter;stroke-opacity:1" d="M 93.0364,93.0364 94.7163,101.436 z" id="boundary" inkscape:connector-curvature="0" />
	<path style="fill:none;stroke:red;stroke-width:1px;stroke-linecap:butt;stroke-linejoin:miter;stroke-opacity:1" d="M 94.7163,101.436 97.2362,109.836 z" id="boundary" inkscape:connector-curvature="0" />
	<path style="fill:none;stroke:red;stroke-width:1px;stroke-linecap:butt;stroke-linejoin:miter;stroke-opacity:1" d="M 97.2362,109.836 101.436,117.395 z" id="boundary" inkscape:connector-curvature="0" />
	<path style="fill:none;stroke:red;stroke-width:1px;stroke-linecap:butt;stroke-linejoin:miter;stroke-opacity:1" d="M 101.436,117.395 105.636,124.955 z" id="boundary" inkscape:connector-curvature="0" />
	<path style="fill:none;stroke:red;stroke-width:1px;stroke-linecap:butt;stroke-linejoin:miter;stroke-opacity:1" d="M 105.636,124.955 109.836,132.515 z" id="boundary" inkscape:connector-curvature="0" />
	<path style="fill:none;stroke:red;stroke-width:1px;stroke-linecap:butt;stroke-linejoin:miter;stroke-opacity:1" d="M 109.836,132.515 113.196,140.914 z" id="boundary" inkscape:connector-curvature="0" />
	<path style="fill:none;stroke:red;stroke-width:1px;stroke-linecap:butt;stroke-linejoin:miter;stroke-opacity:1" d="M 113.196,140.914 117.395,148.474 z" id="boundary" inkscape:connector-curvature="0" />
	<path style="fill:none;stroke:red;stroke-width:1px;stroke-linecap:butt;stroke-linejoin:miter;stroke-opacity:1" d="M 117.395,148.474 120.755,156.874 z" id="boundary" inkscape:connector-curvature="0" />
	<path style="fill:none;stroke:red;stroke-width:1px;stroke-linecap:butt;stroke-linejoin:miter;stroke-opacity:1" d="M 120.755,156.874 126.635,163.594 z" id="boundary" inkscape:connector-curvature="0" />
	<path style="fill:none;stroke:red;stroke-width:1px;stroke-linecap:butt;stroke-linejoin:miter;stroke-opacity:1" d="M 126.635,163.594 130.835,171.153 z" id="boundary" inkscape:connector-curvature="0" />
	<path style="fill:none;stroke:red;stroke-width:1px;stroke-linecap:butt;stroke-linejoin:miter;stroke-opacity:1" d="M 130.835,171.153 135.035,178.713 z" id="boundary" inkscape:connector-curvature="0" />
	<path style="fill:none;stroke:red;stroke-width:1px;stroke-linecap:butt;stroke-linejoin:miter;stroke-opacity:1" d="M 135.035,178.713 139.235,186.273 z" id="boundary" inkscape:connector-curvature="0" />
	<path style="fill:none;stroke:red;stroke-width:1px;stroke-linecap:butt;stroke-linejoin:miter;stroke-opacity:1" d="M 139.235,186.273 143.434,193.832 z" id="boundary" inkscape:connector-curvature="0" />
	<path style="fill:none;stroke:red;stroke-width:1px;stroke-linecap:butt;stroke-linejoin:miter;stroke-opacity:1" d="M 143.434,193.832 147.634,201.392 z" id="boundary" inkscape:connector-curvature="0" />
	<path style="fill:none;stroke:red;stroke-width:1px;stroke-linecap:butt;stroke-linejoin:miter;stroke-opacity:1" d="M 147.634,201.392 154.354,206.432 z" id="boundary" inkscape:connector-curvature="0" />
	<path style="fill:none;stroke:red;stroke-width:1px;stroke-linecap:butt;stroke-linejoin:miter;stroke-opacity:1" d="M 154.354,206.432 160.234,213.152 z" id="boundary" inkscape:connector-curvature="0" />
	<path style="fill:none;stroke:red;stroke-width:1px;stroke-linecap:butt;stroke-linejoin:miter;stroke-opacity:1" d="M 160.234,213.152 164.434,220.711 z" id="boundary" inkscape:connector-curvature="0" />
	<path style="fill:none;stroke:red;stroke-width:1px;stroke-linecap:butt;stroke-linejoin:miter;stroke-opacity:1" d="M 164.434,220.711 164.434,229.111 z" id="boundary" inkscape:connector-curvature="0" />
	<path style="fill:none;stroke:red;stroke-width:1px;stroke-linecap:butt;stroke-linejoin:miter;stroke-opacity:1" d="M 164.434,229.111 168.633,236.671 z" id="boundary" inkscape:connector-curvature="0" />
	<path style="fill:none;stroke:red;stroke-width:1px;stroke-linecap:butt;stroke-linejoin:miter;stroke-opacity:1" d="M 168.633,236.671 172.833,244.23 z" id="boundary" inkscape:connector-curvature="0" />
	<path style="fill:none;stroke:red;stroke-width:1px;stroke-linecap:butt;stroke-linejoin:miter;stroke-opacity:1" d="M 172.833,244.23 177.033,251.79 z" id="boundary" inkscape:connector-curvature="0" />
	<path style="fill:none;stroke:red;stroke-width:1px;stroke-linecap:butt;stroke-linejoin:miter;stroke-opacity:1" d="M 177.033,251.79 181.233,259.35 z" id="boundary" inkscape:connector-curvature="0" />
	<path style="fill:none;stroke:red;stroke-width:1px;stroke-linecap:butt;stroke-linejoin:miter;stroke-opacity:1" d="M 181.233,259.35 185.433,266.909 z" id="boundary" inkscape:connector-curvature="0" />
	<path style="fill:none;stroke:red;stroke-width:1px;stroke-linecap:butt;stroke-linejoin:miter;stroke-opacity:1" d="M 185.433,266.909 191.312,273.629 z" id="boundary" inkscape:connector-curvature="0" />
	<path style="fill:none;stroke:red;stroke-width:1px;stroke-linecap:butt;stroke-linejoin:miter;stroke-opacity:1" d="M 191.312,273.629 198.032,279.509 z" id="boundary" inkscape:connector-curvature="0" />
	<path style="fill:none;stroke:red;stroke-width:1px;stroke-linecap:butt;stroke-linejoin:miter;stroke-opacity:1" d="M 198.032,279.509 201.392,287.909 z" id="boundary" inkscape:connector-curvature="0" />
	<path style="fill:none;stroke:red;stroke-width:1px;stroke-linecap:butt;stroke-linejoin:miter;stroke-opacity:1" d="M 201.392,287.909 208.112,293.788 z" id="boundary" inkscape:connector-curvature="0" />
	<path style="fill:none;stroke:red;stroke-width:1px;stroke-linecap:butt;stroke-linejoin:miter;stroke-opacity:1" d="M 208.112,293.788 213.992,300.508 z" id="boundary" inkscape:connector-curvature="0" />
	<path style="fill:none;stroke:red;stroke-width:1px;stroke-linecap:butt;stroke-linejoin:miter;stroke-opacity:1" d="M 213.992,300.508 220.711,306.388 z" id="boundary" inkscape:connector-curvature="0" />
	<path style="fill:none;stroke:red;stroke-width:1px;stroke-linecap:butt;stroke-linejoin:miter;stroke-opacity:1" d="M 220.711,306.388 223.231,314.787 z" id="boundary" inkscape:connector-curvature="0" />
	<path style="fill:none;stroke:red;stroke-width:1px;stroke-linecap:butt;stroke-linejoin:miter;stroke-opacity:1" d="M 223.231,314.787 229.951,319.827 z" id="boundary" inkscape:connector-curvature="0" />
	<path style="fill:none;stroke:red;stroke-width:1px;stroke-linecap:butt;stroke-linejoin:miter;stroke-opacity:1" d="M 229.951,319.827 235.831,326.547 z" id="boundary" inkscape:connector-curvature="0" />
	<path style="fill:none;stroke:red;stroke-width:1px;stroke-linecap:butt;stroke-linejoin:miter;stroke-opacity:1" d="M 235.831,326.547 240.03,334.107 z" id="boundary" inkscape:connector-curvature="0" />
	<path style="fill:none;stroke:red;stroke-width:1px;stroke-linecap:butt;stroke-linejoin:miter;stroke-opacity:1" d="M 240.03,334.107 243.39,342.506 z" id="boundary" inkscape:connector-curvature="0" />
	<path style="fill:none;stroke:red;stroke-width:1px;stroke-linecap:butt;stroke-linejoin:miter;stroke-opacity:1" d="M 243.39,342.506 247.59,350.066 z" id="boundary" inkscape:connector-curvature="0" />
	<path style="fill:none;stroke:red;stroke-width:1px;stroke-linecap:butt;stroke-linejoin:miter;stroke-opacity:1" d="M 247.59,350.066 252.63,356.786 z" id="boundary" inkscape:connector-curvature="0" />
	<path style="fill:none;stroke:red;stroke-width:1px;stroke-linecap:butt;stroke-linejoin:miter;stroke-opacity:1" d="M 252.63,356.786 256.83,364.345 z" id="boundary" inkscape:connector-curvature="0" />
	<path style="fill:none;stroke:red;stroke-width:1px;stroke-linecap:butt;stroke-linejoin:miter;stroke-opacity:1" d="M 256.83,364.345 261.03,371.905 z" id="boundary" inkscape:connector-curvature="0" />
	<path style="fill:none;stroke:red;stroke-width:1px;stroke-linecap:butt;stroke-linejoin:miter;stroke-opacity:1" d="M 261.03,371.905 266.909,378.625 z" id="boundary" inkscape:connector-curvature="0" />
	<path style="fill:none;stroke:red;stroke-width:1px;stroke-linecap:butt;stroke-linejoin:miter;stroke-opacity:1" d="M 266.909,378.625 273.629,384.505 z" id="boundary" inkscape:connector-curvature="0" />
	<path style="fill:none;stroke:red;stroke-width:1px;stroke-linecap:butt;stroke-linejoin:miter;stroke-opacity:1" d="M 273.629,384.505 277.829,392.064 z" id="boundary" inkscape:connector-curvature="0" />
	<path style="fill:none;stroke:red;stroke-width:1px;stroke-linecap:butt;stroke-linejoin:miter;stroke-opacity:1" d="M 277.829,392.064 282.869,398.784 z" id="boundary" inkscape:connector-curvature="0" />
	<path style="fill:none;stroke:red;stroke-width:1px;stroke-linecap:butt;stroke-linejoin:miter;stroke-opacity:1" d="M 282.869,398.784 289.588,404.664 z" id="boundary" inkscape:connector-curvature="0" />
	<path style="fill:none;stroke:red;stroke-width:1px;stroke-linecap:butt;stroke-linejoin:miter;stroke-opacity:1" d="M 289.588,404.664 292.948,413.064 z" id="boundary" inkscape:connector-curvature="0" />
	<path style="fill:none;stroke:red;stroke-width:1px;stroke-linecap:butt;stroke-linejoin:miter;stroke-opacity:1" d="M 292.948,413.064 298.828,419.783 z" id="boundary" inkscape:connector-curvature="0" />
	<path style="fill:none;stroke:red;stroke-width:1px;stroke-linecap:butt;stroke-linejoin:miter;stroke-opacity:1" d="M 298.828,419.783 307.228,422.303 z" id="boundary" inkscape:connector-curvature="0" />
	<path style="fill:none;stroke:red;stroke-width:1px;stroke-linecap:butt;stroke-linejoin:miter;stroke-opacity:1" d="M 307.228,422.303 313.108,429.023 z" id="boundary" inkscape:connector-curvature="0" />
	<path style="fill:none;stroke:red;stroke-width:1px;stroke-linecap:butt;stroke-linejoin:miter;stroke-opacity:1" d="M 313.108,429.023 319.827,434.903 z" id="boundary" inkscape:connector-curvature="0" />
	<path style="fill:none;stroke:red;stroke-width:1px;stroke-linecap:butt;stroke-linejoin:miter;stroke-opacity:1" d="M 319.827,434.903 325.707,441.622 z" id="boundary" inkscape:connector-curvature="0" />
	<path style="fill:none;stroke:red;stroke-width:1px;stroke-linecap:butt;stroke-linejoin:miter;stroke-opacity:1" d="M 325.707,441.622 332.427,447.502 z" id="boundary" inkscape:connector-curvature="0" />
	<path style="fill:none;stroke:red;stroke-width:1px;stroke-linecap:butt;stroke-linejoin:miter;stroke-opacity:1" d="M 332.427,447.502 338.307,454.222 z" id="boundary" inkscape:connector-curvature="0" />
	<path style="fill:none;stroke:red;stroke-width:1px;stroke-linecap:butt;stroke-linejoin:miter;stroke-opacity:1" d="M 338.307,454.222 345.026,460.102 z" id="boundary" inkscape:connector-curvature="0" />
	<path style="fill:none;stroke:red;stroke-width:1px;stroke-linecap:butt;stroke-linejoin:miter;stroke-opacity:1" d="M 345.026,460.102 350.906,466.821 z" id="boundary" inkscape:connector-curvature="0" />
	<path style="fill:none;stroke:red;stroke-width:1px;stroke-linecap:butt;stroke-linejoin:miter;stroke-opacity:1" d="M 350.906,466.821 357.626,472.701 z" id="boundary" inkscape:connector-curvature="0" />
	<path style="fill:none;stroke:red;stroke-width:1px;stroke-linecap:butt;stroke-linejoin:miter;stroke-opacity:1" d="M 357.626,472.701 363.506,479.421 z" id="boundary" inkscape:connector-curvature="0" />
	<path style="fill:none;stroke:red;stroke-width:1px;stroke-linecap:butt;stroke-linejoin:miter;stroke-opacity:1" d="M 363.506,479.421 370.225,485.301 z" id="boundary" inkscape:connector-curvature="0" />
	<path style="fill:none;stroke:red;stroke-width:1px;stroke-linecap:butt;stroke-linejoin:miter;stroke-opacity:1" d="M 370.225,485.301 376.105,492.02 z" id="boundary" inkscape:connector-curvature="0" />
	<path style="fill:none;stroke:red;stroke-width:1px;stroke-linecap:butt;stroke-linejoin:miter;stroke-opacity:1" d="M 376.105,492.02 382.825,497.9 z" id="boundary" inkscape:connector-curvature="0" />
	<path style="fill:none;stroke:red;stroke-width:1px;stroke-linecap:butt;stroke-linejoin:miter;stroke-opacity:1" d="M 382.825,497.9 390.384,502.1 z" id="boundary" inkscape:connector-curvature="0" />
	<path style="fill:none;stroke:red;stroke-width:1px;stroke-linecap:butt;stroke-linejoin:miter;stroke-opacity:1" d="M 390.384,502.1 397.104,507.98 z" id="boundary" inkscape:connector-curvature="0" />
	<path style="fill:none;stroke:red;stroke-width:1px;stroke-linecap:butt;stroke-linejoin:miter;stroke-opacity:1" d="M 397.104,507.98 402.984,514.699 z" id="boundary" inkscape:connector-curvature="0" />
	<path style="fill:none;stroke:red;stroke-width:1px;stroke-linecap:butt;stroke-linejoin:miter;stroke-opacity:1" d="M 402.984,514.699 407.184,522.259 z" id="boundary" inkscape:connector-curvature="0" />
	<path style="fill:none;stroke:red;stroke-width:1px;stroke-linecap:butt;stroke-linejoin:miter;stroke-opacity:1" d="M 407.184,522.259 412.224,528.979 z" id="boundary" inkscape:connector-curvature="0" />
	<path style="fill:none;stroke:red;stroke-width:1px;stroke-linecap:butt;stroke-linejoin:miter;stroke-opacity:1" d="M 412.224,528.979 419.783,533.179 z" id="boundary" inkscape:connector-curvature="0" />
	<path style="fill:none;stroke:red;stroke-width:1px;stroke-linecap:butt;stroke-linejoin:miter;stroke-opacity:1" d="M 419.783,533.179 427.343,537.378 z" id="boundary" inkscape:connector-curvature="0" />
	<path style="fill:none;stroke:red;stroke-width:1px;stroke-linecap:butt;stroke-linejoin:miter;stroke-opacity:1" d="M 427.343,537.378 434.903,541.578 z" id="boundary" inkscape:connector-curvature="0" />
	<path style="fill:none;stroke:red;stroke-width:1px;stroke-linecap:butt;stroke-linejoin:miter;stroke-opacity:1" d="M 434.903,541.578 440.782,548.298 z" id="boundary" inkscape:connector-curvature="0" />
	<path style="fill:none;stroke:red;stroke-width:1px;stroke-linecap:butt;stroke-linejoin:miter;stroke-opacity:1" d="M 440.782,548.298 447.502,554.178 z" id="boundary" inkscape:connector-curvature="0" />
	<path style="fill:none;stroke:red;stroke-width:1px;stroke-linecap:butt;stroke-linejoin:miter;stroke-opacity:1" d="M 447.502,554.178 453.382,560.898 z" id="boundary" inkscape:connector-curvature="0" />
	<path style="fill:none;stroke:red;stroke-width:1px;stroke-linecap:butt;stroke-linejoin:miter;stroke-opacity:1" d="M 453.382,560.898 458.422,567.617 z" id="boundary" inkscape:connector-curvature="0" />
	<path style="fill:none;stroke:red;stroke-width:1px;stroke-linecap:butt;stroke-linejoin:miter;stroke-opacity:1" d="M 458.422,567.617 462.622,575.177 z" id="boundary" inkscape:connector-curvature="0" />
	<path style="fill:none;stroke:red;stroke-width:1px;stroke-linecap:butt;stroke-linejoin:miter;stroke-opacity:1" d="M 462.622,575.177 469.341,580.217 z" id="boundary" inkscape:connector-curvature="0" />
	<path style="fill:none;stroke:red;stroke-width:1px;stroke-linecap:butt;stroke-linejoin:miter;stroke-opacity:1" d="M 469.341,580.217 475.221,586.936 z" id="boundary" inkscape:connector-curvature="0" />
	<path style="fill:none;stroke:red;stroke-width:1px;stroke-linecap:butt;stroke-linejoin:miter;stroke-opacity:1" d="M 475.221,586.936 481.941,591.976 z" id="boundary" inkscape:connector-curvature="0" />
	<path style="fill:none;stroke:red;stroke-width:1px;stroke-linecap:butt;stroke-linejoin:miter;stroke-opacity:1" d="M 481.941,591.976 490.34,591.976 z" id="boundary" inkscape:connector-curvature="0" />
	<path style="fill:none;stroke:red;stroke-width:1px;stroke-linecap:butt;stroke-linejoin:miter;stroke-opacity:1" d="M 490.34,591.976 498.74,592.816 z" id="boundary" inkscape:connector-curvature="0" />
	<path style="fill:none;stroke:red;stroke-width:1px;stroke-linecap:butt;stroke-linejoin:miter;stroke-opacity:1" d="M 498.74,592.816 507.14,596.176 z" id="boundary" inkscape:connector-curvature="0" />
	<path style="fill:none;stroke:red;stroke-width:1px;stroke-linecap:butt;stroke-linejoin:miter;stroke-opacity:1" d="M 507.14,596.176 515.539,597.016 z" id="boundary" inkscape:connector-curvature="0" />
	<path style="fill:none;stroke:red;stroke-width:1px;stroke-linecap:butt;stroke-linejoin:miter;stroke-opacity:1" d="M 515.539,597.016 523.939,600.376 z" id="boundary" inkscape:connector-curvature="0" />
	<path style="fill:none;stroke:red;stroke-width:1px;stroke-linecap:butt;stroke-linejoin:miter;stroke-opacity:1" d="M 523.939,600.376 532.339,600.376 z" id="boundary" inkscape:connector-curvature="0" />
	<path style="fill:none;stroke:red;stroke-width:1px;stroke-linecap:butt;stroke-linejoin:miter;stroke-opacity:1" d="M 532.339,600.376 540.738,600.376 z" id="boundary" inkscape:connector-curvature="0" />
	<path style="fill:none;stroke:red;stroke-width:1px;stroke-linecap:butt;stroke-linejoin:miter;stroke-opacity:1" d="M 540.738,600.376 549.138,600.376 z" id="boundary" inkscape:connector-curvature="0" />
	<path style="fill:none;stroke:red;stroke-width:1px;stroke-linecap:butt;stroke-linejoin:miter;stroke-opacity:1" d="M 549.138,600.376 556.698,604.576 z" id="boundary" inkscape:connector-curvature="0" />
	<path style="fill:none;stroke:red;stroke-width:1px;stroke-linecap:butt;stroke-linejoin:miter;stroke-opacity:1" d="M 556.698,604.576 565.097,604.576 z" id="boundary" inkscape:connector-curvature="0" />
	<path style="fill:none;stroke:red;stroke-width:1px;stroke-linecap:butt;stroke-linejoin:miter;stroke-opacity:1" d="M 565.097,604.576 573.497,604.576 z" id="boundary" inkscape:connector-curvature="0" />
	<path style="fill:none;stroke:red;stroke-width:1px;stroke-linecap:butt;stroke-linejoin:miter;stroke-opacity:1" d="M 573.497,604.576 581.057,608.776 z" id="boundary" inkscape:connector-curvature="0" />
	<path style="fill:none;stroke:red;stroke-width:1px;stroke-linecap:butt;stroke-linejoin:miter;stroke-opacity:1" d="M 581.057,608.776 589.456,608.776 z" id="boundary" inkscape:connector-curvature="0" />
	<path style="fill:none;stroke:red;stroke-width:1px;stroke-linecap:butt;stroke-linejoin:miter;stroke-opacity:1" d="M 589.456,608.776 597.016,612.975 z" id="boundary" inkscape:connector-curvature="0" />
	<path style="fill:none;stroke:red;stroke-width:1px;stroke-linecap:butt;stroke-linejoin:miter;stroke-opacity:1" d="M 597.016,612.975 605.416,612.975 z" id="boundary" inkscape:connector-curvature="0" />
	<path style="fill:none;stroke:red;stroke-width:1px;stroke-linecap:butt;stroke-linejoin:miter;stroke-opacity:1" d="M 605.416,612.975 613.815,615.495 z" id="boundary" inkscape:connector-curvature="0" />
	<path style="fill:none;stroke:red;stroke-width:1px;stroke-linecap:butt;stroke-linejoin:miter;stroke-opacity:1" d="M 613.815,615.495 622.215,617.175 z" id="boundary" inkscape:connector-curvature="0" />
	<path style="fill:none;stroke:red;stroke-width:1px;stroke-linecap:butt;stroke-linejoin:miter;stroke-opacity:1" d="M 622.215,617.175 630.615,617.175 z" id="boundary" inkscape:connector-curvature="0" />
	<path style="fill:none;stroke:red;stroke-width:1px;stroke-linecap:butt;stroke-linejoin:miter;stroke-opacity:1" d="M 630.615,617.175 638.174,621.375 z" id="boundary" inkscape:connector-curvature="0" />
	<path style="fill:none;stroke:red;stroke-width:1px;stroke-linecap:butt;stroke-linejoin:miter;stroke-opacity:1" d="M 638.174,621.375 645.734,625.575 z" id="boundary" inkscape:connector-curvature="0" />
	<path style="fill:none;stroke:red;stroke-width:1px;stroke-linecap:butt;stroke-linejoin:miter;stroke-opacity:1" d="M 645.734,625.575 653.294,629.775 z" id="boundary" inkscape:connector-curvature="0" />
	<path style="fill:none;stroke:red;stroke-width:1px;stroke-linecap:butt;stroke-linejoin:miter;stroke-opacity:1" d="M 653.294,629.775 660.854,633.975 z" id="boundary" inkscape:connector-curvature="0" />
	<path style="fill:none;stroke:red;stroke-width:1px;stroke-linecap:butt;stroke-linejoin:miter;stroke-opacity:1" d="M 660.854,633.975 667.573,639.854 z" id="boundary" inkscape:connector-curvature="0" />
	<path style="fill:none;stroke:red;stroke-width:1px;stroke-linecap:butt;stroke-linejoin:miter;stroke-opacity:1" d="M 667.573,639.854 675.133,644.054 z" id="boundary" inkscape:connector-curvature="0" />
	<path style="fill:none;stroke:red;stroke-width:1px;stroke-linecap:butt;stroke-linejoin:miter;stroke-opacity:1" d="M 675.133,644.054 681.013,650.774 z" id="boundary" inkscape:connector-curvature="0" />
	<path style="fill:none;stroke:red;stroke-width:1px;stroke-linecap:butt;stroke-linejoin:miter;stroke-opacity:1" d="M 681.013,650.774 687.732,655.814 z" id="boundary" inkscape:connector-curvature="0" />
	<path style="fill:none;stroke:red;stroke-width:1px;stroke-linecap:butt;stroke-linejoin:miter;stroke-opacity:1" d="M 687.732,655.814 693.612,662.533 z" id="boundary" inkscape:connector-curvature="0" />
	<path style="fill:none;stroke:red;stroke-width:1px;stroke-linecap:butt;stroke-linejoin:miter;stroke-opacity:1" d="M 693.612,662.533 700.332,668.413 z" id="boundary" inkscape:connector-curvature="0" />
	<path style="fill:none;stroke:red;stroke-width:1px;stroke-linecap:butt;stroke-linejoin:miter;stroke-opacity:1" d="M 700.332,668.413 704.532,675.973 z" id="boundary" inkscape:connector-curvature="0" />
	<path style="fill:none;stroke:red;stroke-width:1px;stroke-linecap:butt;stroke-linejoin:miter;stroke-opacity:1" d="M 704.532,675.973 712.091,680.173 z" id="boundary" inkscape:connector-curvature="0" />
	<path style="fill:none;stroke:red;stroke-width:1px;stroke-linecap:butt;stroke-linejoin:miter;stroke-opacity:1" d="M 712.091,680.173 717.971,686.892 z" id="boundary" inkscape:connector-curvature="0" />
	<path style="fill:none;stroke:red;stroke-width:1px;stroke-linecap:butt;stroke-linejoin:miter;stroke-opacity:1" d="M 717.971,686.892 726.371,690.252 z" id="boundary" inkscape:connector-curvature="0" />
	<path style="fill:none;stroke:red;stroke-width:1px;stroke-linecap:butt;stroke-linejoin:miter;stroke-opacity:1" d="M 726.371,690.252 731.411,696.972 z" id="boundary" inkscape:connector-curvature="0" />
	<path style="fill:none;stroke:red;stroke-width:1px;stroke-linecap:butt;stroke-linejoin:miter;stroke-opacity:1" d="M 731.411,696.972 738.13,702.012 z" id="boundary" inkscape:connector-curvature="0" />
	<path style="fill:none;stroke:red;stroke-width:1px;stroke-linecap:butt;stroke-linejoin:miter;stroke-opacity:1" d="M 738.13,702.012 741.49,710.412 z" id="boundary" inkscape:connector-curvature="0" />
	<path style="fill:none;stroke:red;stroke-width:1px;stroke-linecap:butt;stroke-linejoin:miter;stroke-opacity:1" d="M 741.49,710.412 748.21,716.291 z" id="boundary" inkscape:connector-curvature="0" />
	<path style="fill:none;stroke:red;stroke-width:1px;stroke-linecap:butt;stroke-linejoin:miter;stroke-opacity:1" d="M 748.21,716.291 751.57,724.691 z" id="boundary" inkscape:connector-curvature="0" />
	<path style="fill:none;stroke:red;stroke-width:1px;stroke-linecap:butt;stroke-linejoin:miter;stroke-opacity:1" d="M 751.57,724.691 756.61,731.411 z" id="boundary" inkscape:connector-curvature="0" />
	<path style="fill:none;stroke:red;stroke-width:1px;stroke-linecap:butt;stroke-linejoin:miter;stroke-opacity:1" d="M 756.61,731.411 760.809,738.97 z" id="boundary" inkscape:connector-curvature="0" />
	<path style="fill:none;stroke:red;stroke-width:1px;stroke-linecap:butt;stroke-linejoin:miter;stroke-opacity:1" d="M 760.809,738.97 767.529,744.01 z" id="boundary" inkscape:connector-curvature="0" />
	<path style="fill:none;stroke:red;stroke-width:1px;stroke-linecap:butt;stroke-linejoin:miter;stroke-opacity:1" d="M 767.529,744.01 770.889,752.41 z" id="boundary" inkscape:connector-curvature="0" />
	<path style="fill:none;stroke:red;stroke-width:1px;stroke-linecap:butt;stroke-linejoin:miter;stroke-opacity:1" d="M 770.889,752.41 775.089,759.97 z" id="boundary" inkscape:connector-curvature="0" />
	<path style="fill:none;stroke:red;stroke-width:1px;stroke-linecap:butt;stroke-linejoin:miter;stroke-opacity:1" d="M 775.089,759.97 777.609,768.369 z" id="boundary" inkscape:connector-curvature="0" />
	<path style="fill:none;stroke:red;stroke-width:1px;stroke-linecap:butt;stroke-linejoin:miter;stroke-opacity:1" d="M 777.609,768.369 784.329,773.409 z" id="boundary" inkscape:connector-curvature="0" />
	<path style="fill:none;stroke:red;stroke-width:1px;stroke-linecap:butt;stroke-linejoin:miter;stroke-opacity:1" d="M 784.329,773.409 790.208,780.129 z" id="boundary" inkscape:connector-curvature="0" />
	<path style="fill:none;stroke:red;stroke-width:1px;stroke-linecap:butt;stroke-linejoin:miter;stroke-opacity:1" d="M 790.208,780.129 794.408,787.688 z" id="boundary" inkscape:connector-curvature="0" />
	<path style="fill:none;stroke:red;stroke-width:1px;stroke-linecap:butt;stroke-linejoin:miter;stroke-opacity:1" d="M 794.408,787.688 797.768,796.088 z" id="boundary" inkscape:connector-curvature="0" />
	<path style="fill:none;stroke:red;stroke-width:1px;stroke-linecap:butt;stroke-linejoin:miter;stroke-opacity:1" d="M 797.768,796.088 804.488,801.968 z" id="boundary" inkscape:connector-curvature="0" />
	<path style="fill:none;stroke:red;stroke-width:1px;stroke-linecap:butt;stroke-linejoin:miter;stroke-opacity:1" d="M 804.488,801.968 810.367,808.688 z" id="boundary" inkscape:connector-curvature="0" />
	<path style="fill:none;stroke:red;stroke-width:1px;stroke-linecap:butt;stroke-linejoin:miter;stroke-opacity:1" d="M 810.367,808.688 814.567,816.247 z" id="boundary" inkscape:connector-curvature="0" />
	<path style="fill:none;stroke:red;stroke-width:1px;stroke-linecap:butt;stroke-linejoin:miter;stroke-opacity:1" d="M 814.567,816.247 817.927,824.647 z" id="boundary" inkscape:connector-curvature="0" />
	<path style="fill:none;stroke:red;stroke-width:1px;stroke-linecap:butt;stroke-linejoin:miter;stroke-opacity:1" d="M 817.927,824.647 822.127,832.207 z" id="boundary" inkscape:connector-curvature="0" />
	<path style="fill:none;stroke:red;stroke-width:1px;stroke-linecap:butt;stroke-linejoin:miter;stroke-opacity:1" d="M 822.127,832.207 828.007,838.926 z" id="boundary" inkscape:connector-curvature="0" />
	<path style="fill:none;stroke:red;stroke-width:1px;stroke-linecap:butt;stroke-linejoin:miter;stroke-opacity:1" d="M 828.007,838.926 832.207,846.486 z" id="boundary" inkscape:connector-curvature="0" />
	<path style="fill:none;stroke:red;stroke-width:1px;stroke-linecap:butt;stroke-linejoin:miter;stroke-opacity:1" d="M 832.207,846.486 836.406,854.046 z" id="boundary" inkscape:connector-curvature="0" />
	<path style="fill:none;stroke:red;stroke-width:1px;stroke-linecap:butt;stroke-linejoin:miter;stroke-opacity:1" d="M 836.406,854.046 836.406,862.445 z" id="boundary" inkscape:connector-curvature="0" />
	<path style="fill:none;stroke:red;stroke-width:1px;stroke-linecap:butt;stroke-linejoin:miter;stroke-opacity:1" d="M 836.406,862.445 840.606,870.005 z" id="boundary" inkscape:connector-curvature="0" />
	<path style="fill:none;stroke:red;stroke-width:1px;stroke-linecap:butt;stroke-linejoin:miter;stroke-opacity:1" d="M 840.606,870.005 844.806,877.565 z" id="boundary" inkscape:connector-curvature="0" />
	<path style="fill:none;stroke:red;stroke-width:1px;stroke-linecap:butt;stroke-linejoin:miter;stroke-opacity:1" d="M 844.806,877.565 849.006,885.124 z" id="boundary" inkscape:connector-curvature="0" />
	<path style="fill:none;stroke:red;stroke-width:1px;stroke-linecap:butt;stroke-linejoin:miter;stroke-opacity:1" d="M 849.006,885.124 853.206,892.684 z" id="boundary" inkscape:connector-curvature="0" />
	<path style="fill:none;stroke:red;stroke-width:1px;stroke-linecap:butt;stroke-linejoin:miter;stroke-opacity:1" d="M 853.206,892.684 856.566,901.084 z" id="boundary" inkscape:connector-curvature="0" />
	<path style="fill:none;stroke:red;stroke-width:1px;stroke-linecap:butt;stroke-linejoin:miter;stroke-opacity:1" d="M 856.566,901.084 857.406,909.483 z" id="boundary" inkscape:connector-curvature="0" />
	<path style="fill:none;stroke:red;stroke-width:1px;stroke-linecap:butt;stroke-linejoin:miter;stroke-opacity:1" d="M 857.406,909.483 860.765,917.883 z" id="boundary" inkscape:connector-curvature="0" />
	<path style="fill:none;stroke:red;stroke-width:1px;stroke-linecap:butt;stroke-linejoin:miter;stroke-opacity:1" d="M 860.765,917.883 861.605,926.283 z" id="boundary" inkscape:connector-curvature="0" />
	<path style="fill:none;stroke:red;stroke-width:1px;stroke-linecap:butt;stroke-linejoin:miter;stroke-opacity:1" d="M 861.605,926.283 861.605,934.682 z" id="boundary" inkscape:connector-curvature="0" />
	<path style="fill:none;stroke:red;stroke-width:1px;stroke-linecap:butt;stroke-linejoin:miter;stroke-opacity:1" d="M 861.605,934.682 865.805,942.242 z" id="boundary" inkscape:connector-curvature="0" />
	<path style="fill:none;stroke:red;stroke-width:1px;stroke-linecap:butt;stroke-linejoin:miter;stroke-opacity:1" d="M 865.805,942.242 865.805,950.642 z" id="boundary" inkscape:connector-curvature="0" />
	<path style="fill:none;stroke:red;stroke-width:1px;stroke-linecap:butt;stroke-linejoin:miter;stroke-opacity:1" d="M 865.805,950.642 865.805,959.041 z" id="boundary" inkscape:connector-curvature="0" />
	<path style="fill:none;stroke:red;stroke-width:1px;stroke-linecap:butt;stroke-linejoin:miter;stroke-opacity:1" d="M 865.805,959.041 861.605,966.601 z" id="boundary" inkscape:connector-curvature="0" />
	<path style="fill:none;stroke:red;stroke-width:1px;stroke-linecap:butt;stroke-linejoin:miter;stroke-opacity:1" d="M 861.605,966.601 857.406,975.001 z" id="boundary" inkscape:connector-curvature="0" />
	<path style="fill:none;stroke:red;stroke-width:1px;stroke-linecap:butt;stroke-linejoin:miter;stroke-opacity:1" d="M 857.406,975.001 850.686,982.561 z" id="boundary" inkscape:connector-curvature="0" />
	<circle cx="4" cy="31.7189" r="4" fill="#0" id="circle0"/>
	<circle cx="4" cy="40.1185" r="4" fill="#0" id="circle1"/>
	<circle cx="4" cy="48.5182" r="4" fill="#0" id="circle2"/>
	<circle cx="4" cy="56.9179" r="4" fill="#0" id="circle3"/>
	<circle cx="4" cy="65.3175" r="4" fill="#0" id="circle4"/>
	<circle cx="4" cy="73.7172" r="4" fill="#0" id="circle5"/>
	<circle cx="8.19983" cy="23.3192" r="4" fill="#0" id="circle6"/>
	<circle cx="8.19983" cy="81.2769" r="4" fill="#0" id="circle7"/>
	<circle cx="8.19983" cy="89.6765" r="4" fill="#0" id="circle8"/>
	<circle cx="12.3997" cy="97.2362" r="4" fill="#0" id="circle9"/>
	<circle cx="12.3997" cy="105.636" r="4" fill="#0" id="circle10"/>
	<circle cx="14.9196" cy="16.5995" r="4" fill="#0" id="circle11"/>
	<circle cx="14.9196" cy="114.036" r="4" fill="#0" id="circle12"/>
	<circle cx="16.5995" cy="122.435" r="4" fill="#0" id="circle13"/>
	<circle cx="19.1194" cy="130.835" r="4" fill="#0" id="circle14"/>
	<circle cx="21.6393" cy="9.87976" r="4" fill="#0" id="circle15"/>
	<circle cx="23.3192" cy="138.395" r="4" fill="#0" id="circle16"/>
	<circle cx="24.9992" cy="146.794" r="4" fill="#0" id="circle17"/>
	<circle cx="29.199" cy="154.354" r="4" fill="#0" id="circle18"/>
	<circle cx="30.039" cy="5.67993" r="4" fill="#0" id="circle19"/>
	<circle cx="33.3988" cy="161.914" r="4" fill="#0" id="circle20"/>
	<circle cx="37.5986" cy="169.473" r="4" fill="#0" id="circle21"/>
	<circle cx="38.4386" cy="4" r="4" fill="#0" id="circle22"/>
	<circle cx="41.7985" cy="177.033" r="4" fill="#0" id="circle23"/>
	<circle cx="44.3184" cy="185.433" r="4" fill="#0" id="circle24"/>
	<circle cx="46.8383" cy="4" r="4" fill="#0" id="circle25"/>
	<circle cx="48.5182" cy="192.992" r="4" fill="#0" id="circle26"/>
	<circle cx="54.398" cy="199.712" r="4" fill="#0" id="circle27"/>
	<circle cx="55.2379" cy="4" r="4" fill="#0" id="circle28"/>
	<circle cx="58.5978" cy="207.272" r="4" fill="#0" id="circle29"/>
	<circle cx="62.7976" cy="8.19983" r="4" fill="#0" id="circle30"/>
	<circle cx="62.7976" cy="214.831" r="4" fill="#0" id="circle31"/>
	<circle cx="66.9975" cy="222.391" r="4" fill="#0" id="circle32"/>
	<circle cx="69.5174" cy="13.2396" r="4" fill="#0" id="circle33"/>
	<circle cx="71.1973" cy="229.951" r="4" fill="#0" id="circle34"/>
	<circle cx="75.3971" cy="237.511" r="4" fill="#0" id="circle35"/>
	<circle cx="76.2371" cy="19.1194" r="4" fill="#0" id="circle36"/>
	<circle cx="79.597" cy="245.07" r="4" fill="#0" id="circle37"/>
	<circle cx="80.4369" cy="26.6791" r="4" fill="#0" id="circle38"/>
	<circle cx="84.6367" cy="34.2388" r="4" fill="#0" id="circle39"/>
	<circle cx="84.6367" cy="42.6384" r="4" fill="#0" id="circle40"/>
	<circle cx="84.6367" cy="51.0381" r="4" fill="#0" id="circle41"/>
	<circle cx="84.6367" cy="59.4378" r="4" fill="#0" id="circle42"/>
	<circle cx="85.4767" cy="251.79" r="4" fill="#0" id="circle43"/>
	<circle cx="86.3167" cy="67.8374" r="4" fill="#0" id="circle44"/>
	<circle cx="88.8366" cy="76.2371" r="4" fill="#0" id="circle45"/>
	<circle cx="90.5165" cy="84.6367" r="4" fill="#0" id="circle46"/>
	<circle cx="92.1964" cy="256.83" r="4" fill="#0" id="circle47"/>
	<circle cx="92.1964" cy="265.229" r="4" fill="#0" id="circle48"/>
	<circle cx="93.0364" cy="93.0364" r="4" fill="#0" id="circle49"/>
	<circle cx="94.7163" cy="101.436" r="4" fill="#0" id="circle50"/>
	<circle cx="96.3963" cy="272.789" r="4" fill="#0" id="circle51"/>
	<circle cx="97.2362" cy="109.836" r="4" fill="#0" id="circle52"/>
	<circle cx="100.596" cy="280.349" r="4" fill="#0" id="circle53"/>
	<circle cx="101.436" cy="117.395" r="4" fill="#0" id="circle54"/>
	<circle cx="104.796" cy="287.909" r="4" fill="#0" id="circle55"/>
	<circle cx="105.636" cy="124.955" r="4" fill="#0" id="circle56"/>
	<circle cx="108.996" cy="295.468" r="4" fill="#0" id="circle57"/>
	<circle cx="109.836" cy="132.515" r="4" fill="#0" id="circle58"/>
	<circle cx="113.196" cy="140.914" r="4" fill="#0" id="circle59"/>
	<circle cx="113.196" cy="303.028" r="4" fill="#0" id="circle60"/>
	<circle cx="117.395" cy="148.474" r="4" fill="#0" id="circle61"/>
	<circle cx="118.235" cy="309.748" r="4" fill="#0" id="circle62"/>
	<circle cx="120.755" cy="156.874" r="4" fill="#0" id="circle63"/>
	<circle cx="124.955" cy="315.627" r="4" fill="#0" id="circle64"/>
	<circle cx="126.635" cy="163.594" r="4" fill="#0" id="circle65"/>
	<circle cx="128.315" cy="324.027" r="4" fill="#0" id="circle66"/>
	<circle cx="130.835" cy="171.153" r="4" fill="#0" id="circle67"/>
	<circle cx="135.035" cy="178.713" r="4" fill="#0" id="circle68"/>
	<circle cx="135.035" cy="329.907" r="4" fill="#0" id="circle69"/>
	<circle cx="138.395" cy="338.307" r="4" fill="#0" id="circle70"/>
	<circle cx="139.235" cy="186.273" r="4" fill="#0" id="circle71"/>
	<circle cx="143.434" cy="193.832" r="4" fill="#0" id="circle72"/>
	<circle cx="145.114" cy="344.186" r="4" fill="#0" id="circle73"/>
	<circle cx="147.634" cy="201.392" r="4" fill="#0" id="circle74"/>
	<circle cx="150.994" cy="350.906" r="4" fill="#0" id="circle75"/>
	<circle cx="154.354" cy="206.432" r="4" fill="#0" id="circle76"/>
	<circle cx="157.714" cy="356.786" r="4" fill="#0" id="circle77"/>
	<circle cx="160.234" cy="213.152" r="4" fill="#0" id="circle78"/>
	<circle cx="163.594" cy="363.506" r="4" fill="#0" id="circle79"/>
	<circle cx="164.434" cy="220.711" r="4" fill="#0" id="circle80"/>
	<circle cx="164.434" cy="229.111" r="4" fill="#0" id="circle81"/>
	<circle cx="167.793" cy="371.065" r="4" fill="#0" id="circle82"/>
	<circle cx="168.633" cy="236.671" r="4" fill="#0" id="circle83"/>
	<circle cx="171.993" cy="378.625" r="4" fill="#0" id="circle84"/>
	<circle cx="172.833" cy="244.23" r="4" fill="#0" id="circle85"/>
	<circle cx="174.513" cy="387.025" r="4" fill="#0" id="circle86"/>
	<circle cx="177.033" cy="251.79" r="4" fill="#0" id="circle87"/>
	<circle cx="181.233" cy="259.35" r="4" fill="#0" id="circle88"/>
	<circle cx="181.233" cy="392.904" r="4" fill="#0" id="circle89"/>
	<circle cx="184.593" cy="401.304" r="4" fill="#0" id="circle90"/>
	<circle cx="185.433" cy="266.909" r="4" fill="#0" id="circle91"/>
	<circle cx="188.793" cy="408.864" r="4" fill="#0" id="circle92"/>
	<circle cx="191.312" cy="273.629" r="4" fill="#0" id="circle93"/>
	<circle cx="192.992" cy="416.423" r="4" fill="#0" id="circle94"/>
	<circle cx="198.032" cy="279.509" r="4" fill="#0" id="circle95"/>
	<circle cx="198.032" cy="423.143" r="4" fill="#0" id="circle96"/>
	<circle cx="201.392" cy="287.909" r="4" fill="#0" id="circle97"/>
	<circle cx="204.752" cy="429.023" r="4" fill="#0" id="circle98"/>
	<circle cx="208.112" cy="293.788" r="4" fill="#0" id="circle99"/>
	<circle cx="210.632" cy="435.743" r="4" fill="#0" id="circle100"/>
	<circle cx="213.992" cy="300.508" r="4" fill="#0" id="circle101"/>
	<circle cx="217.351" cy="441.622" r="4" fill="#0" id="circle102"/>
	<circle cx="220.711" cy="306.388" r="4" fill="#0" id="circle103"/>
	<circle cx="220.711" cy="450.022" r="4" fill="#0" id="circle104"/>
	<circle cx="223.231" cy="314.787" r="4" fill="#0" id="circle105"/>
	<circle cx="227.431" cy="455.902" r="4" fill="#0" id="circle106"/>
	<circle cx="229.951" cy="319.827" r="4" fill="#0" id="circle107"/>
	<circle cx="230.791" cy="464.301" r="4" fill="#0" id="circle108"/>
	<circle cx="235.831" cy="326.547" r="4" fill="#0" id="circle109"/>
	<circle cx="237.511" cy="470.181" r="4" fill="#0" id="circle110"/>
	<circle cx="240.03" cy="334.107" r="4" fill="#0" id="circle111"/>
	<circle cx="243.39" cy="342.506" r="4" fill="#0" id="circle112"/>
	<circle cx="243.39" cy="476.901" r="4" fill="#0" id="circle113"/>
	<circle cx="247.59" cy="350.066" r="4" fill="#0" id="circle114"/>
	<circle cx="251.79" cy="479.421" r="4" fill="#0" id="circle115"/>
	<circle cx="252.63" cy="356.786" r="4" fill="#0" id="circle116"/>
	<circle cx="256.83" cy="364.345" r="4" fill="#0" id="circle117"/>
	<circle cx="256.83" cy="486.141" r="4" fill="#0" id="circle118"/>
	<circle cx="261.03" cy="371.905" r="4" fill="#0" id="circle119"/>
	<circle cx="263.55" cy="492.02" r="4" fill="#0" id="circle120"/>
	<circle cx="266.909" cy="378.625" r="4" fill="#0" id="circle121"/>
	<circle cx="269.429" cy="498.74" r="4" fill="#0" id="circle122"/>
	<circle cx="273.629" cy="384.505" r="4" fill="#0" id="circle123"/>
	<circle cx="276.149" cy="504.62" r="4" fill="#0" id="circle124"/>
	<circle cx="277.829" cy="392.064" r="4" fill="#0" id="circle125"/>
	<circle cx="282.029" cy="511.34" r="4" fill="#0" id="circle126"/>
	<circle cx="282.869" cy="398.784" r="4" fill="#0" id="circle127"/>
	<circle cx="288.749" cy="517.219" r="4" fill="#0" id="circle128"/>
	<circle cx="289.588" cy="404.664" r="4" fill="#0" id="circle129"/>
	<circle cx="292.948" cy="413.064" r="4" fill="#0" id="circle130"/>
	<circle cx="294.628" cy="523.939" r="4" fill="#0" id="circle131"/>
	<circle cx="298.828" cy="419.783" r="4" fill="#0" id="circle132"/>
	<circle cx="301.348" cy="529.819" r="4" fill="#0" id="circle133"/>
	<circle cx="307.228" cy="422.303" r="4" fill="#0" id="circle134"/>
	<circle cx="307.228" cy="536.539" r="4" fill="#0" id="circle135"/>
	<circle cx="313.108" cy="429.023" r="4" fill="#0" id="circle136"/>
	<circle cx="313.948" cy="542.418" r="4" fill="#0" id="circle137"/>
	<circle cx="319.827" cy="434.903" r="4" fill="#0" id="circle138"/>
	<circle cx="319.827" cy="549.138" r="4" fill="#0" id="circle139"/>
	<circle cx="325.707" cy="441.622" r="4" fill="#0" id="circle140"/>
	<circle cx="326.547" cy="555.018" r="4" fill="#0" id="circle141"/>
	<circle cx="332.427" cy="447.502" r="4" fill="#0" id="circle142"/>
	<circle cx="334.107" cy="559.218" r="4" fill="#0" id="circle143"/>
	<circle cx="338.307" cy="454.222" r="4" fill="#0" id="circle144"/>
	<circle cx="340.826" cy="565.097" r="4" fill="#0" id="circle145"/>
	<circle cx="344.186" cy="573.497" r="4" fill="#0" id="circle146"/>
	<circle cx="345.026" cy="460.102" r="4" fill="#0" id="circle147"/>
	<circle cx="350.906" cy="466.821" r="4" fill="#0" id="circle148"/>
	<circle cx="350.906" cy="579.377" r="4" fill="#0" id="circle149"/>
	<circle cx="356.786" cy="586.097" r="4" fill="#0" id="circle150"/>
	<circle cx="357.626" cy="472.701" r="4" fill="#0" id="circle151"/>
	<circle cx="363.506" cy="479.421" r="4" fill="#0" id="circle152"/>
	<circle cx="363.506" cy="591.976" r="4" fill="#0" id="circle153"/>
	<circle cx="369.385" cy="598.696" r="4" fill="#0" id="circle154"/>
	<circle cx="370.225" cy="485.301" r="4" fill="#0" id="circle155"/>
	<circle cx="376.105" cy="492.02" r="4" fill="#0" id="circle156"/>
	<circle cx="377.785" cy="601.216" r="4" fill="#0" id="circle157"/>
	<circle cx="382.825" cy="497.9" r="4" fill="#0" id="circle158"/>
	<circle cx="385.345" cy="605.416" r="4" fill="#0" id="circle159"/>
	<circle cx="386.185" cy="613.815" r="4" fill="#0" id="circle160"/>
	<circle cx="390.384" cy="502.1" r="4" fill="#0" id="circle161"/>
	<circle cx="390.384" cy="621.375" r="4" fill="#0" id="circle162"/>
	<circle cx="395.424" cy="628.095" r="4" fill="#0" id="circle163"/>
	<circle cx="397.104" cy="507.98" r="4" fill="#0" id="circle164"/>
	<circle cx="401.304" cy="634.815" r="4" fill="#0" id="circle165"/>
	<circle cx="402.984" cy="514.699" r="4" fill="#0" id="circle166"/>
	<circle cx="407.184" cy="522.259" r="4" fill="#0" id="circle167"/>
	<circle cx="408.864" cy="639.014" r="4" fill="#0" id="circle168"/>
	<circle cx="412.224" cy="528.979" r="4" fill="#0" id="circle169"/>
	<circle cx="415.583" cy="644.054" r="4" fill="#0" id="circle170"/>
	<circle cx="419.783" cy="533.179" r="4" fill="#0" id="circle171"/>
	<circle cx="421.463" cy="650.774" r="4" fill="#0" id="circle172"/>
	<circle cx="427.343" cy="537.378" r="4" fill="#0" id="circle173"/>
	<circle cx="428.183" cy="655.814" r="4" fill="#0" id="circle174"/>
	<circle cx="432.383" cy="663.373" r="4" fill="#0" id="circle175"/>
	<circle cx="434.903" cy="541.578" r="4" fill="#0" id="circle176"/>
	<circle cx="437.423" cy="670.093" r="4" fill="#0" id="circle177"/>
	<circle cx="440.782" cy="548.298" r="4" fill="#0" id="circle178"/>
	<circle cx="443.302" cy="676.813" r="4" fill="#0" id="circle179"/>
	<circle cx="447.502" cy="554.178" r="4" fill="#0" id="circle180"/>
	<circle cx="450.022" cy="682.693" r="4" fill="#0" id="circle181"/>
	<circle cx="453.382" cy="560.898" r="4" fill="#0" id="circle182"/>
	<circle cx="455.902" cy="689.412" r="4" fill="#0" id="circle183"/>
	<circle cx="458.422" cy="567.617" r="4" fill="#0" id="circle184"/>
	<circle cx="460.102" cy="696.972" r="4" fill="#0" id="circle185"/>
	<circle cx="462.622" cy="575.177" r="4" fill="#0" id="circle186"/>
	<circle cx="465.981" cy="703.692" r="4" fill="#0" id="circle187"/>
	<circle cx="469.341" cy="580.217" r="4" fill="#0" id="circle188"/>
	<circle cx="472.701" cy="709.572" r="4" fill="#0" id="circle189"/>
	<circle cx="475.221" cy="586.936" r="4" fill="#0" id="circle190"/>
	<circle cx="480.261" cy="713.771" r="4" fill="#0" id="circle191"/>
	<circle cx="481.941" cy="591.976" r="4" fill="#0" id="circle192"/>
	<circle cx="486.981" cy="718.811" r="4" fill="#0" id="circle193"/>
	<circle cx="490.34" cy="591.976" r="4" fill="#0" id="circle194"/>
	<circle cx="492.02" cy="725.531" r="4" fill="#0" id="circle195"/>
	<circle cx="498.74" cy="592.816" r="4" fill="#0" id="circle196"/>
	<circle cx="498.74" cy="731.411" r="4" fill="#0" id="circle197"/>
	<circle cx="502.1" cy="739.81" r="4" fill="#0" id="circle198"/>
	<circle cx="507.14" cy="596.176" r="4" fill="#0" id="circle199"/>
	<circle cx="508.82" cy="745.69" r="4" fill="#0" id="circle200"/>
	<circle cx="514.699" cy="752.41" r="4" fill="#0" id="circle201"/>
	<circle cx="515.539" cy="597.016" r="4" fill="#0" id="circle202"/>
	<circle cx="521.419" cy="758.29" r="4" fill="#0" id="circle203"/>
	<circle cx="523.939" cy="600.376" r="4" fill="#0" id="circle204"/>
	<circle cx="527.299" cy="765.009" r="4" fill="#0" id="circle205"/>
	<circle cx="532.339" cy="600.376" r="4" fill="#0" id="circle206"/>
	<circle cx="535.699" cy="768.369" r="4" fill="#0" id="circle207"/>
	<circle cx="540.738" cy="600.376" r="4" fill="#0" id="circle208"/>
	<circle cx="541.578" cy="775.089" r="4" fill="#0" id="circle209"/>
	<circle cx="545.778" cy="782.649" r="4" fill="#0" id="circle210"/>
	<circle cx="549.138" cy="600.376" r="4" fill="#0" id="circle211"/>
	<circle cx="551.658" cy="789.368" r="4" fill="#0" id="circle212"/>
	<circle cx="556.698" cy="604.576" r="4" fill="#0" id="circle213"/>
	<circle cx="558.378" cy="794.408" r="4" fill="#0" id="circle214"/>
	<circle cx="562.577" cy="801.968" r="4" fill="#0" id="circle215"/>
	<circle cx="565.097" cy="604.576" r="4" fill="#0" id="circle216"/>
	<circle cx="567.617" cy="808.688" r="4" fill="#0" id="circle217"/>
	<circle cx="573.497" cy="604.576" r="4" fill="#0" id="circle218"/>
	<circle cx="573.497" cy="815.407" r="4" fill="#0" id="circle219"/>
	<circle cx="580.217" cy="821.287" r="4" fill="#0" id="circle220"/>
	<circle cx="581.057" cy="608.776" r="4" fill="#0" id="circle221"/>
	<circle cx="586.097" cy="828.007" r="4" fill="#0" id="circle222"/>
	<circle cx="589.456" cy="608.776" r="4" fill="#0" id="circle223"/>
	<circle cx="592.816" cy="833.887" r="4" fill="#0" id="circle224"/>
	<circle cx="597.016" cy="612.975" r="4" fill="#0" id="circle225"/>
	<circle cx="598.696" cy="840.606" r="4" fill="#0" id="circle226"/>
	<circle cx="602.896" cy="848.166" r="4" fill="#0" id="circle227"/>
	<circle cx="605.416" cy="612.975" r="4" fill="#0" id="circle228"/>
	<circle cx="608.776" cy="854.886" r="4" fill="#0" id="circle229"/>
	<circle cx="612.975" cy="862.445" r="4" fill="#0" id="circle230"/>
	<circle cx="613.815" cy="615.495" r="4" fill="#0" id="circle231"/>
	<circle cx="618.855" cy="869.165" r="4" fill="#0" id="circle232"/>
	<circle cx="622.215" cy="617.175" r="4" fill="#0" id="circle233"/>
	<circle cx="625.575" cy="874.205" r="4" fill="#0" id="circle234"/>
	<circle cx="630.615" cy="617.175" r="4" fill="#0" id="circle235"/>
	<circle cx="630.615" cy="880.925" r="4" fill="#0" id="circle236"/>
	<circle cx="637.334" cy="886.804" r="4" fill="#0" id="circle237"/>
	<circle cx="638.174" cy="621.375" r="4" fill="#0" id="circle238"/>
	<circle cx="644.894" cy="891.004" r="4" fill="#0" id="circle239"/>
	<circle cx="645.734" cy="625.575" r="4" fill="#0" id="circle240"/>
	<circle cx="651.614" cy="896.884" r="4" fill="#0" id="circle241"/>
	<circle cx="653.294" cy="629.775" r="4" fill="#0" id="circle242"/>
	<circle cx="657.494" cy="903.604" r="4" fill="#0" id="circle243"/>
	<circle cx="660.854" cy="633.975" r="4" fill="#0" id="circle244"/>
	<circle cx="665.893" cy="906.964" r="4" fill="#0" id="circle245"/>
	<circle cx="667.573" cy="639.854" r="4" fill="#0" id="circle246"/>
	<circle cx="672.613" cy="912.003" r="4" fill="#0" id="circle247"/>
	<circle cx="675.133" cy="644.054" r="4" fill="#0" id="circle248"/>
	<circle cx="680.173" cy="916.203" r="4" fill="#0" id="circle249"/>
	<circle cx="681.013" cy="650.774" r="4" fill="#0" id="circle250"/>
	<circle cx="687.732" cy="655.814" r="4" fill="#0" id="circle251"/>
	<circle cx="688.572" cy="916.203" r="4" fill="#0" id="circle252"/>
	<circle cx="693.612" cy="662.533" r="4" fill="#0" id="circle253"/>
	<circle cx="693.612" cy="922.923" r="4" fill="#0" id="circle254"/>
	<circle cx="700.332" cy="668.413" r="4" fill="#0" id="circle255"/>
	<circle cx="700.332" cy="928.803" r="4" fill="#0" id="circle256"/>
	<circle cx="704.532" cy="675.973" r="4" fill="#0" id="circle257"/>
	<circle cx="707.892" cy="933.003" r="4" fill="#0" id="circle258"/>
	<circle cx="712.091" cy="680.173" r="4" fill="#0" id="circle259"/>
	<circle cx="714.611" cy="938.882" r="4" fill="#0" id="circle260"/>
	<circle cx="717.971" cy="686.892" r="4" fill="#0" id="circle261"/>
	<circle cx="722.171" cy="943.082" r="4" fill="#0" id="circle262"/>
	<circle cx="726.371" cy="690.252" r="4" fill="#0" id="circle263"/>
	<circle cx="730.571" cy="945.602" r="4" fill="#0" id="circle264"/>
	<circle cx="731.411" cy="696.972" r="4" fill="#0" id="circle265"/>
	<circle cx="738.13" cy="702.012" r="4" fill="#0" id="circle266"/>
	<circle cx="738.13" cy="949.802" r="4" fill="#0" id="circle267"/>
	<circle cx="741.49" cy="710.412" r="4" fill="#0" id="circle268"/>
	<circle cx="744.01" cy="956.522" r="4" fill="#0" id="circle269"/>
	<circle cx="748.21" cy="716.291" r="4" fill="#0" id="circle270"/>
	<circle cx="750.73" cy="962.401" r="4" fill="#0" id="circle271"/>
	<circle cx="751.57" cy="724.691" r="4" fill="#0" id="circle272"/>
	<circle cx="756.61" cy="731.411" r="4" fill="#0" id="circle273"/>
	<circle cx="758.29" cy="966.601" r="4" fill="#0" id="circle274"/>
	<circle cx="760.809" cy="738.97" r="4" fill="#0" id="circle275"/>
	<circle cx="766.689" cy="969.961" r="4" fill="#0" id="circle276"/>
	<circle cx="767.529" cy="744.01" r="4" fill="#0" id="circle277"/>
	<circle cx="770.889" cy="752.41" r="4" fill="#0" id="circle278"/>
	<circle cx="772.569" cy="976.681" r="4" fill="#0" id="circle279"/>
	<circle cx="775.089" cy="759.97" r="4" fill="#0" id="circle280"/>
	<circle cx="777.609" cy="768.369" r="4" fill="#0" id="circle281"/>
	<circle cx="780.969" cy="979.201" r="4" fill="#0" id="circle282"/>
	<circle cx="784.329" cy="773.409" r="4" fill="#0" id="circle283"/>
	<circle cx="788.528" cy="983.401" r="4" fill="#0" id="circle284"/>
	<circle cx="790.208" cy="780.129" r="4" fill="#0" id="circle285"/>
	<circle cx="794.408" cy="787.688" r="4" fill="#0" id="circle286"/>
	<circle cx="794.408" cy="990.12" r="4" fill="#0" id="circle287"/>
	<circle cx="797.768" cy="796.088" r="4" fill="#0" id="circle288"/>
	<circle cx="802.808" cy="993.48" r="4" fill="#0" id="circle289"/>
	<circle cx="804.488" cy="801.968" r="4" fill="#0" id="circle290"/>
	<circle cx="810.367" cy="808.688" r="4" fill="#0" id="circle291"/>
	<circle cx="811.207" cy="996" r="4" fill="#0" id="circle292"/>
	<circle cx="814.567" cy="816.247" r="4" fill="#0" id="circle293"/>
	<circle cx="817.927" cy="824.647" r="4" fill="#0" id="circle294"/>
	<circle cx="819.607" cy="996" r="4" fill="#0" id="circle295"/>
	<circle cx="822.127" cy="832.207" r="4" fill="#0" id="circle296"/>
	<circle cx="828.007" cy="838.926" r="4" fill="#0" id="circle297"/>
	<circle cx="828.007" cy="996" r="4" fill="#0" id="circle298"/>
	<circle cx="832.207" cy="846.486" r="4" fill="#0" id="circle299"/>
	<circle cx="835.566" cy="991.8" r="4" fill="#0" id="circle300"/>
	<circle cx="836.406" cy="854.046" r="4" fill="#0" id="circle301"/>
	<circle cx="836.406" cy="862.445" r="4" fill="#0" id="circle302"/>
	<circle cx="840.606" cy="870.005" r="4" fill="#0" id="circle303"/>
	<circle cx="843.126" cy="987.6" r="4" fill="#0" id="circle304"/>
	<circle cx="844.806" cy="877.565" r="4" fill="#0" id="circle305"/>
	<circle cx="849.006" cy="885.124" r="4" fill="#0" id="circle306"/>
	<circle cx="850.686" cy="982.561" r="4" fill="#0" id="circle307"/>
	<circle cx="853.206" cy="892.684" r="4" fill="#0" id="circle308"/>
	<circle cx="856.566" cy="901.084" r="4" fill="#0" id="circle309"/>
	<circle cx="857.406" cy="909.483" r="4" fill="#0" id="circle310"/>
	<circle cx="857.406" cy="975.001" r="4" fill="#0" id="circle311"/>
	<circle cx="860.765" cy="917.883" r="4" fill="#0" id="circle312"/>
	<circle cx="861.605" cy="926.283" r="4" fill="#0" id="circle313"/>
	<circle cx="861.605" cy="934.682" r="4" fill="#0" id="circle314"/>
	<circle cx="861.605" cy="966.601" r="4" fill="#0" id="circle315"/>
	<circle cx="865.805" cy="942.242" r="4" fill="#0" id="circle316"/>
	<circle cx="865.805" cy="950.642" r="4" fill="#0" id="circle317"/>
	<circle cx="865.805" cy="959.041" r="4" fill="#0" id="circle318"/>
	</g>
</svg>