<?xml version="1.0" encoding="UTF-8" standalone="no"?>
<!-- Created with CurveBenchmark -->
<svg
	xmlns:dc="http://purl.org/dc/elements/1.1/"
	xmlns:cc="http://creativecommons.org/ns#"
	xmlns:rdf="http://www.w3.org/1999/02/22-rdf-syntax-ns#"
	xmlns:svg="http://www.w3.org/2000/svg"
	xmlns="http://www.w3.org/2000/svg"
	xmlns:sodipodi="http://sodipodi.sourceforge.net/DTD/sodipodi-0.dtd"
	xmlns:inkscape="http://www.inkscape.org/namespaces/inkscape"
	width="1000"
	height="1000"
	id="svg2"
	version="1.1"
	sodipodi:docname="manifold/crawl-stef13.png.txt">
<defs
	id="defs4" />
<metadata
	id="metadata7">
	<rdf:RDF>
		<cc:Work
			rdf:about="">
			<dc:format>image/svg+xml</dc:format>
			<dc:type
				rdf:resource="http://purl.org/dc/dcmitype/StillImage" />
			<dc:title></dc:title>
		</cc:Work>
	</rdf:RDF>
</metadata>
<g
	inkscape:label="Layer 1"
	inkscape:groupmode="layer"
	id="layer1">
	<path style="fill:none;stroke:red;stroke-width:1px;stroke-linecap:butt;stroke-linejoin:miter;stroke-opacity:1" d="M 4,79.0826 4,101.835 z" id="boundary" inkscape:connector-curvature="0" />
	<path style="fill:none;stroke:red;stroke-width:1px;stroke-linecap:butt;stroke-linejoin:miter;stroke-opacity:1" d="M 4,101.835 22.2018,117.761 z" id="boundary" inkscape:connector-curvature="0" />
	<path style="fill:none;stroke:red;stroke-width:1px;stroke-linecap:butt;stroke-linejoin:miter;stroke-opacity:1" d="M 22.2018,117.761 38.1284,135.963 z" id="boundary" inkscape:connector-curvature="0" />
	<path style="fill:none;stroke:red;stroke-width:1px;stroke-linecap:butt;stroke-linejoin:miter;stroke-opacity:1" d="M 38.1284,135.963 60.8807,142.789 z" id="boundary" inkscape:connector-curvature="0" />
	<path style="fill:none;stroke:red;stroke-width:1px;stroke-linecap:butt;stroke-linejoin:miter;stroke-opacity:1" d="M 60.8807,142.789 74.5321,160.991 z" id="boundary" inkscape:connector-curvature="0" />
	<path style="fill:none;stroke:red;stroke-width:1px;stroke-linecap:butt;stroke-linejoin:miter;stroke-opacity:1" d="M 74.5321,160.991 97.2844,170.092 z" id="boundary" inkscape:connector-curvature="0" />
	<path style="fill:none;stroke:red;stroke-width:1px;stroke-linecap:butt;stroke-linejoin:miter;stroke-opacity:1" d="M 97.2844,170.092 113.211,188.294 z" id="boundary" inkscape:connector-curvature="0" />
	<path style="fill:none;stroke:red;stroke-width:1px;stroke-linecap:butt;stroke-linejoin:miter;stroke-opacity:1" d="M 113.211,188.294 135.963,197.394 z" id="boundary" inkscape:connector-curvature="0" />
	<path style="fill:none;stroke:red;stroke-width:1px;stroke-linecap:butt;stroke-linejoin:miter;stroke-opacity:1" d="M 135.963,197.394 140.514,220.147 z" id="boundary" inkscape:connector-curvature="0" />
	<path style="fill:none;stroke:red;stroke-width:1px;stroke-linecap:butt;stroke-linejoin:miter;stroke-opacity:1" d="M 140.514,220.147 145.064,242.899 z" id="boundary" inkscape:connector-curvature="0" />
	<path style="fill:none;stroke:red;stroke-width:1px;stroke-linecap:butt;stroke-linejoin:miter;stroke-opacity:1" d="M 145.064,242.899 163.266,256.55 z" id="boundary" inkscape:connector-curvature="0" />
	<path style="fill:none;stroke:red;stroke-width:1px;stroke-linecap:butt;stroke-linejoin:miter;stroke-opacity:1" d="M 163.266,256.55 183.743,267.927 z" id="boundary" inkscape:connector-curvature="0" />
	<path style="fill:none;stroke:red;stroke-width:1px;stroke-linecap:butt;stroke-linejoin:miter;stroke-opacity:1" d="M 183.743,267.927 204.22,279.303 z" id="boundary" inkscape:connector-curvature="0" />
	<path style="fill:none;stroke:red;stroke-width:1px;stroke-linecap:butt;stroke-linejoin:miter;stroke-opacity:1" d="M 204.22,279.303 226.972,288.404 z" id="boundary" inkscape:connector-curvature="0" />
	<path style="fill:none;stroke:red;stroke-width:1px;stroke-linecap:butt;stroke-linejoin:miter;stroke-opacity:1" d="M 226.972,288.404 249.725,279.303 z" id="boundary" inkscape:connector-curvature="0" />
	<path style="fill:none;stroke:red;stroke-width:1px;stroke-linecap:butt;stroke-linejoin:miter;stroke-opacity:1" d="M 249.725,279.303 270.202,290.679 z" id="boundary" inkscape:connector-curvature="0" />
	<path style="fill:none;stroke:red;stroke-width:1px;stroke-linecap:butt;stroke-linejoin:miter;stroke-opacity:1" d="M 270.202,290.679 290.679,302.055 z" id="boundary" inkscape:connector-curvature="0" />
	<path style="fill:none;stroke:red;stroke-width:1px;stroke-linecap:butt;stroke-linejoin:miter;stroke-opacity:1" d="M 290.679,302.055 311.156,313.431 z" id="boundary" inkscape:connector-curvature="0" />
	<path style="fill:none;stroke:red;stroke-width:1px;stroke-linecap:butt;stroke-linejoin:miter;stroke-opacity:1" d="M 311.156,313.431 331.633,324.807 z" id="boundary" inkscape:connector-curvature="0" />
	<path style="fill:none;stroke:red;stroke-width:1px;stroke-linecap:butt;stroke-linejoin:miter;stroke-opacity:1" d="M 331.633,324.807 347.56,343.009 z" id="boundary" inkscape:connector-curvature="0" />
	<path style="fill:none;stroke:red;stroke-width:1px;stroke-linecap:butt;stroke-linejoin:miter;stroke-opacity:1" d="M 347.56,343.009 356.661,365.761 z" id="boundary" inkscape:connector-curvature="0" />
	<path style="fill:none;stroke:red;stroke-width:1px;stroke-linecap:butt;stroke-linejoin:miter;stroke-opacity:1" d="M 356.661,365.761 356.661,388.514 z" id="boundary" inkscape:connector-curvature="0" />
	<path style="fill:none;stroke:red;stroke-width:1px;stroke-linecap:butt;stroke-linejoin:miter;stroke-opacity:1" d="M 356.661,388.514 356.661,411.266 z" id="boundary" inkscape:connector-curvature="0" />
	<path style="fill:none;stroke:red;stroke-width:1px;stroke-linecap:butt;stroke-linejoin:miter;stroke-opacity:1" d="M 356.661,411.266 345.284,443.119 z" id="boundary" inkscape:connector-curvature="0" />
	<path style="fill:none;stroke:red;stroke-width:1px;stroke-linecap:butt;stroke-linejoin:miter;stroke-opacity:1" d="M 345.284,443.119 345.284,465.872 z" id="boundary" inkscape:connector-curvature="0" />
	<path style="fill:none;stroke:red;stroke-width:1px;stroke-linecap:butt;stroke-linejoin:miter;stroke-opacity:1" d="M 345.284,465.872 324.807,481.798 z" id="boundary" inkscape:connector-curvature="0" />
	<path style="fill:none;stroke:red;stroke-width:1px;stroke-linecap:butt;stroke-linejoin:miter;stroke-opacity:1" d="M 324.807,481.798 302.055,486.349 z" id="boundary" inkscape:connector-curvature="0" />
	<path style="fill:none;stroke:red;stroke-width:1px;stroke-linecap:butt;stroke-linejoin:miter;stroke-opacity:1" d="M 302.055,486.349 283.853,504.55 z" id="boundary" inkscape:connector-curvature="0" />
	<path style="fill:none;stroke:red;stroke-width:1px;stroke-linecap:butt;stroke-linejoin:miter;stroke-opacity:1" d="M 283.853,504.55 265.651,522.752 z" id="boundary" inkscape:connector-curvature="0" />
	<path style="fill:none;stroke:red;stroke-width:1px;stroke-linecap:butt;stroke-linejoin:miter;stroke-opacity:1" d="M 265.651,522.752 254.275,556.881 z" id="boundary" inkscape:connector-curvature="0" />
	<path style="fill:none;stroke:red;stroke-width:1px;stroke-linecap:butt;stroke-linejoin:miter;stroke-opacity:1" d="M 254.275,556.881 265.651,577.358 z" id="boundary" inkscape:connector-curvature="0" />
	<path style="fill:none;stroke:red;stroke-width:1px;stroke-linecap:butt;stroke-linejoin:miter;stroke-opacity:1" d="M 265.651,577.358 281.578,595.56 z" id="boundary" inkscape:connector-curvature="0" />
	<path style="fill:none;stroke:red;stroke-width:1px;stroke-linecap:butt;stroke-linejoin:miter;stroke-opacity:1" d="M 281.578,595.56 292.954,616.037 z" id="boundary" inkscape:connector-curvature="0" />
	<path style="fill:none;stroke:red;stroke-width:1px;stroke-linecap:butt;stroke-linejoin:miter;stroke-opacity:1" d="M 292.954,616.037 311.156,631.963 z" id="boundary" inkscape:connector-curvature="0" />
	<path style="fill:none;stroke:red;stroke-width:1px;stroke-linecap:butt;stroke-linejoin:miter;stroke-opacity:1" d="M 311.156,631.963 311.156,654.716 z" id="boundary" inkscape:connector-curvature="0" />
	<path style="fill:none;stroke:red;stroke-width:1px;stroke-linecap:butt;stroke-linejoin:miter;stroke-opacity:1" d="M 311.156,654.716 324.807,672.917 z" id="boundary" inkscape:connector-curvature="0" />
	<path style="fill:none;stroke:red;stroke-width:1px;stroke-linecap:butt;stroke-linejoin:miter;stroke-opacity:1" d="M 324.807,672.917 336.183,693.394 z" id="boundary" inkscape:connector-curvature="0" />
	<path style="fill:none;stroke:red;stroke-width:1px;stroke-linecap:butt;stroke-linejoin:miter;stroke-opacity:1" d="M 336.183,693.394 345.284,716.147 z" id="boundary" inkscape:connector-curvature="0" />
	<path style="fill:none;stroke:red;stroke-width:1px;stroke-linecap:butt;stroke-linejoin:miter;stroke-opacity:1" d="M 345.284,716.147 356.661,736.624 z" id="boundary" inkscape:connector-curvature="0" />
	<path style="fill:none;stroke:red;stroke-width:1px;stroke-linecap:butt;stroke-linejoin:miter;stroke-opacity:1" d="M 356.661,736.624 356.661,759.376 z" id="boundary" inkscape:connector-curvature="0" />
	<path style="fill:none;stroke:red;stroke-width:1px;stroke-linecap:butt;stroke-linejoin:miter;stroke-opacity:1" d="M 356.661,759.376 356.661,782.128 z" id="boundary" inkscape:connector-curvature="0" />
	<path style="fill:none;stroke:red;stroke-width:1px;stroke-linecap:butt;stroke-linejoin:miter;stroke-opacity:1" d="M 356.661,782.128 368.037,802.606 z" id="boundary" inkscape:connector-curvature="0" />
	<path style="fill:none;stroke:red;stroke-width:1px;stroke-linecap:butt;stroke-linejoin:miter;stroke-opacity:1" d="M 368.037,802.606 374.862,825.358 z" id="boundary" inkscape:connector-curvature="0" />
	<path style="fill:none;stroke:red;stroke-width:1px;stroke-linecap:butt;stroke-linejoin:miter;stroke-opacity:1" d="M 374.862,825.358 379.413,848.11 z" id="boundary" inkscape:connector-curvature="0" />
	<path style="fill:none;stroke:red;stroke-width:1px;stroke-linecap:butt;stroke-linejoin:miter;stroke-opacity:1" d="M 379.413,848.11 379.413,870.862 z" id="boundary" inkscape:connector-curvature="0" />
	<path style="fill:none;stroke:red;stroke-width:1px;stroke-linecap:butt;stroke-linejoin:miter;stroke-opacity:1" d="M 379.413,870.862 368.037,898.165 z" id="boundary" inkscape:connector-curvature="0" />
	<path style="fill:none;stroke:red;stroke-width:1px;stroke-linecap:butt;stroke-linejoin:miter;stroke-opacity:1" d="M 368.037,898.165 368.037,920.917 z" id="boundary" inkscape:connector-curvature="0" />
	<path style="fill:none;stroke:red;stroke-width:1px;stroke-linecap:butt;stroke-linejoin:miter;stroke-opacity:1" d="M 368.037,920.917 381.688,939.119 z" id="boundary" inkscape:connector-curvature="0" />
	<path style="fill:none;stroke:red;stroke-width:1px;stroke-linecap:butt;stroke-linejoin:miter;stroke-opacity:1" d="M 381.688,939.119 404.44,943.67 z" id="boundary" inkscape:connector-curvature="0" />
	<path style="fill:none;stroke:red;stroke-width:1px;stroke-linecap:butt;stroke-linejoin:miter;stroke-opacity:1" d="M 404.44,943.67 427.193,950.495 z" id="boundary" inkscape:connector-curvature="0" />
	<path style="fill:none;stroke:red;stroke-width:1px;stroke-linecap:butt;stroke-linejoin:miter;stroke-opacity:1" d="M 427.193,950.495 449.945,950.495 z" id="boundary" inkscape:connector-curvature="0" />
	<path style="fill:none;stroke:red;stroke-width:1px;stroke-linecap:butt;stroke-linejoin:miter;stroke-opacity:1" d="M 449.945,950.495 472.697,950.495 z" id="boundary" inkscape:connector-curvature="0" />
	<path style="fill:none;stroke:red;stroke-width:1px;stroke-linecap:butt;stroke-linejoin:miter;stroke-opacity:1" d="M 472.697,950.495 495.45,950.495 z" id="boundary" inkscape:connector-curvature="0" />
	<path style="fill:none;stroke:red;stroke-width:1px;stroke-linecap:butt;stroke-linejoin:miter;stroke-opacity:1" d="M 495.45,950.495 513.651,934.569 z" id="boundary" inkscape:connector-curvature="0" />
	<path style="fill:none;stroke:red;stroke-width:1px;stroke-linecap:butt;stroke-linejoin:miter;stroke-opacity:1" d="M 4,79.0826 15.3761,44.9541 z" id="boundary" inkscape:connector-curvature="0" />
	<path style="fill:none;stroke:red;stroke-width:1px;stroke-linecap:butt;stroke-linejoin:miter;stroke-opacity:1" d="M 15.3761,44.9541 26.7523,22.2018 z" id="boundary" inkscape:connector-curvature="0" />
	<path style="fill:none;stroke:red;stroke-width:1px;stroke-linecap:butt;stroke-linejoin:miter;stroke-opacity:1" d="M 26.7523,22.2018 49.5046,10.8257 z" id="boundary" inkscape:connector-curvature="0" />
	<path style="fill:none;stroke:red;stroke-width:1px;stroke-linecap:butt;stroke-linejoin:miter;stroke-opacity:1" d="M 49.5046,10.8257 72.2569,4 z" id="boundary" inkscape:connector-curvature="0" />
	<path style="fill:none;stroke:red;stroke-width:1px;stroke-linecap:butt;stroke-linejoin:miter;stroke-opacity:1" d="M 72.2569,4 95.0092,4 z" id="boundary" inkscape:connector-curvature="0" />
	<path style="fill:none;stroke:red;stroke-width:1px;stroke-linecap:butt;stroke-linejoin:miter;stroke-opacity:1" d="M 95.0092,4 117.761,4 z" id="boundary" inkscape:connector-curvature="0" />
	<path style="fill:none;stroke:red;stroke-width:1px;stroke-linecap:butt;stroke-linejoin:miter;stroke-opacity:1" d="M 117.761,4 140.514,8.55046 z" id="boundary" inkscape:connector-curvature="0" />
	<path style="fill:none;stroke:red;stroke-width:1px;stroke-linecap:butt;stroke-linejoin:miter;stroke-opacity:1" d="M 140.514,8.55046 160.991,19.9266 z" id="boundary" inkscape:connector-curvature="0" />
	<path style="fill:none;stroke:red;stroke-width:1px;stroke-linecap:butt;stroke-linejoin:miter;stroke-opacity:1" d="M 160.991,19.9266 183.743,29.0275 z" id="boundary" inkscape:connector-curvature="0" />
	<path style="fill:none;stroke:red;stroke-width:1px;stroke-linecap:butt;stroke-linejoin:miter;stroke-opacity:1" d="M 183.743,29.0275 199.67,47.2294 z" id="boundary" inkscape:connector-curvature="0" />
	<path style="fill:none;stroke:red;stroke-width:1px;stroke-linecap:butt;stroke-linejoin:miter;stroke-opacity:1" d="M 199.67,47.2294 211.046,67.7064 z" id="boundary" inkscape:connector-curvature="0" />
	<path style="fill:none;stroke:red;stroke-width:1px;stroke-linecap:butt;stroke-linejoin:miter;stroke-opacity:1" d="M 211.046,67.7064 233.798,67.7064 z" id="boundary" inkscape:connector-curvature="0" />
	<path style="fill:none;stroke:red;stroke-width:1px;stroke-linecap:butt;stroke-linejoin:miter;stroke-opacity:1" d="M 233.798,67.7064 256.55,67.7064 z" id="boundary" inkscape:connector-curvature="0" />
	<path style="fill:none;stroke:red;stroke-width:1px;stroke-linecap:butt;stroke-linejoin:miter;stroke-opacity:1" d="M 256.55,67.7064 274.752,83.633 z" id="boundary" inkscape:connector-curvature="0" />
	<path style="fill:none;stroke:red;stroke-width:1px;stroke-linecap:butt;stroke-linejoin:miter;stroke-opacity:1" d="M 274.752,83.633 297.505,83.633 z" id="boundary" inkscape:connector-curvature="0" />
	<path style="fill:none;stroke:red;stroke-width:1px;stroke-linecap:butt;stroke-linejoin:miter;stroke-opacity:1" d="M 297.505,83.633 320.257,83.633 z" id="boundary" inkscape:connector-curvature="0" />
	<path style="fill:none;stroke:red;stroke-width:1px;stroke-linecap:butt;stroke-linejoin:miter;stroke-opacity:1" d="M 320.257,83.633 340.734,95.0092 z" id="boundary" inkscape:connector-curvature="0" />
	<path style="fill:none;stroke:red;stroke-width:1px;stroke-linecap:butt;stroke-linejoin:miter;stroke-opacity:1" d="M 340.734,95.0092 361.211,106.385 z" id="boundary" inkscape:connector-curvature="0" />
	<path style="fill:none;stroke:red;stroke-width:1px;stroke-linecap:butt;stroke-linejoin:miter;stroke-opacity:1" d="M 361.211,106.385 381.688,117.761 z" id="boundary" inkscape:connector-curvature="0" />
	<path style="fill:none;stroke:red;stroke-width:1px;stroke-linecap:butt;stroke-linejoin:miter;stroke-opacity:1" d="M 381.688,117.761 404.44,124.587 z" id="boundary" inkscape:connector-curvature="0" />
	<path style="fill:none;stroke:red;stroke-width:1px;stroke-linecap:butt;stroke-linejoin:miter;stroke-opacity:1" d="M 404.44,124.587 427.193,129.138 z" id="boundary" inkscape:connector-curvature="0" />
	<path style="fill:none;stroke:red;stroke-width:1px;stroke-linecap:butt;stroke-linejoin:miter;stroke-opacity:1" d="M 427.193,129.138 449.945,129.138 z" id="boundary" inkscape:connector-curvature="0" />
	<path style="fill:none;stroke:red;stroke-width:1px;stroke-linecap:butt;stroke-linejoin:miter;stroke-opacity:1" d="M 449.945,129.138 472.697,129.138 z" id="boundary" inkscape:connector-curvature="0" />
	<path style="fill:none;stroke:red;stroke-width:1px;stroke-linecap:butt;stroke-linejoin:miter;stroke-opacity:1" d="M 472.697,129.138 495.45,129.138 z" id="boundary" inkscape:connector-curvature="0" />
	<path style="fill:none;stroke:red;stroke-width:1px;stroke-linecap:butt;stroke-linejoin:miter;stroke-opacity:1" d="M 495.45,129.138 515.927,140.514 z" id="boundary" inkscape:connector-curvature="0" />
	<path style="fill:none;stroke:red;stroke-width:1px;stroke-linecap:butt;stroke-linejoin:miter;stroke-opacity:1" d="M 515.927,140.514 538.679,145.064 z" id="boundary" inkscape:connector-curvature="0" />
	<path style="fill:none;stroke:red;stroke-width:1px;stroke-linecap:butt;stroke-linejoin:miter;stroke-opacity:1" d="M 538.679,145.064 559.156,156.44 z" id="boundary" inkscape:connector-curvature="0" />
	<path style="fill:none;stroke:red;stroke-width:1px;stroke-linecap:butt;stroke-linejoin:miter;stroke-opacity:1" d="M 559.156,156.44 575.083,174.642 z" id="boundary" inkscape:connector-curvature="0" />
	<path style="fill:none;stroke:red;stroke-width:1px;stroke-linecap:butt;stroke-linejoin:miter;stroke-opacity:1" d="M 575.083,174.642 593.284,188.294 z" id="boundary" inkscape:connector-curvature="0" />
	<path style="fill:none;stroke:red;stroke-width:1px;stroke-linecap:butt;stroke-linejoin:miter;stroke-opacity:1" d="M 593.284,188.294 616.037,188.294 z" id="boundary" inkscape:connector-curvature="0" />
	<path style="fill:none;stroke:red;stroke-width:1px;stroke-linecap:butt;stroke-linejoin:miter;stroke-opacity:1" d="M 616.037,188.294 625.138,211.046 z" id="boundary" inkscape:connector-curvature="0" />
	<path style="fill:none;stroke:red;stroke-width:1px;stroke-linecap:butt;stroke-linejoin:miter;stroke-opacity:1" d="M 625.138,211.046 643.339,226.972 z" id="boundary" inkscape:connector-curvature="0" />
	<path style="fill:none;stroke:red;stroke-width:1px;stroke-linecap:butt;stroke-linejoin:miter;stroke-opacity:1" d="M 643.339,226.972 661.541,242.899 z" id="boundary" inkscape:connector-curvature="0" />
	<path style="fill:none;stroke:red;stroke-width:1px;stroke-linecap:butt;stroke-linejoin:miter;stroke-opacity:1" d="M 661.541,242.899 677.468,261.101 z" id="boundary" inkscape:connector-curvature="0" />
	<path style="fill:none;stroke:red;stroke-width:1px;stroke-linecap:butt;stroke-linejoin:miter;stroke-opacity:1" d="M 677.468,261.101 695.67,277.028 z" id="boundary" inkscape:connector-curvature="0" />
	<path style="fill:none;stroke:red;stroke-width:1px;stroke-linecap:butt;stroke-linejoin:miter;stroke-opacity:1" d="M 695.67,277.028 700.22,299.78 z" id="boundary" inkscape:connector-curvature="0" />
	<path style="fill:none;stroke:red;stroke-width:1px;stroke-linecap:butt;stroke-linejoin:miter;stroke-opacity:1" d="M 700.22,299.78 700.22,336.183 z" id="boundary" inkscape:connector-curvature="0" />
	<path style="fill:none;stroke:red;stroke-width:1px;stroke-linecap:butt;stroke-linejoin:miter;stroke-opacity:1" d="M 513.651,934.569 529.578,898.165 z" id="boundary" inkscape:connector-curvature="0" />
	<path style="fill:none;stroke:red;stroke-width:1px;stroke-linecap:butt;stroke-linejoin:miter;stroke-opacity:1" d="M 529.578,898.165 529.578,875.413 z" id="boundary" inkscape:connector-curvature="0" />
	<path style="fill:none;stroke:red;stroke-width:1px;stroke-linecap:butt;stroke-linejoin:miter;stroke-opacity:1" d="M 529.578,875.413 529.578,852.661 z" id="boundary" inkscape:connector-curvature="0" />
	<path style="fill:none;stroke:red;stroke-width:1px;stroke-linecap:butt;stroke-linejoin:miter;stroke-opacity:1" d="M 529.578,852.661 518.202,832.183 z" id="boundary" inkscape:connector-curvature="0" />
	<path style="fill:none;stroke:red;stroke-width:1px;stroke-linecap:butt;stroke-linejoin:miter;stroke-opacity:1" d="M 518.202,832.183 506.826,811.706 z" id="boundary" inkscape:connector-curvature="0" />
	<path style="fill:none;stroke:red;stroke-width:1px;stroke-linecap:butt;stroke-linejoin:miter;stroke-opacity:1" d="M 506.826,811.706 495.45,791.229 z" id="boundary" inkscape:connector-curvature="0" />
	<path style="fill:none;stroke:red;stroke-width:1px;stroke-linecap:butt;stroke-linejoin:miter;stroke-opacity:1" d="M 495.45,791.229 484.073,770.752 z" id="boundary" inkscape:connector-curvature="0" />
	<path style="fill:none;stroke:red;stroke-width:1px;stroke-linecap:butt;stroke-linejoin:miter;stroke-opacity:1" d="M 484.073,770.752 472.697,750.275 z" id="boundary" inkscape:connector-curvature="0" />
	<path style="fill:none;stroke:red;stroke-width:1px;stroke-linecap:butt;stroke-linejoin:miter;stroke-opacity:1" d="M 472.697,750.275 470.422,727.523 z" id="boundary" inkscape:connector-curvature="0" />
	<path style="fill:none;stroke:red;stroke-width:1px;stroke-linecap:butt;stroke-linejoin:miter;stroke-opacity:1" d="M 470.422,727.523 461.321,704.771 z" id="boundary" inkscape:connector-curvature="0" />
	<path style="fill:none;stroke:red;stroke-width:1px;stroke-linecap:butt;stroke-linejoin:miter;stroke-opacity:1" d="M 461.321,704.771 449.945,684.294 z" id="boundary" inkscape:connector-curvature="0" />
	<path style="fill:none;stroke:red;stroke-width:1px;stroke-linecap:butt;stroke-linejoin:miter;stroke-opacity:1" d="M 449.945,684.294 438.569,663.817 z" id="boundary" inkscape:connector-curvature="0" />
	<path style="fill:none;stroke:red;stroke-width:1px;stroke-linecap:butt;stroke-linejoin:miter;stroke-opacity:1" d="M 438.569,663.817 427.193,643.339 z" id="boundary" inkscape:connector-curvature="0" />
	<path style="fill:none;stroke:red;stroke-width:1px;stroke-linecap:butt;stroke-linejoin:miter;stroke-opacity:1" d="M 427.193,643.339 422.642,620.587 z" id="boundary" inkscape:connector-curvature="0" />
	<path style="fill:none;stroke:red;stroke-width:1px;stroke-linecap:butt;stroke-linejoin:miter;stroke-opacity:1" d="M 422.642,620.587 404.44,606.936 z" id="boundary" inkscape:connector-curvature="0" />
	<path style="fill:none;stroke:red;stroke-width:1px;stroke-linecap:butt;stroke-linejoin:miter;stroke-opacity:1" d="M 404.44,606.936 397.615,584.183 z" id="boundary" inkscape:connector-curvature="0" />
	<path style="fill:none;stroke:red;stroke-width:1px;stroke-linecap:butt;stroke-linejoin:miter;stroke-opacity:1" d="M 397.615,584.183 386.239,563.706 z" id="boundary" inkscape:connector-curvature="0" />
	<path style="fill:none;stroke:red;stroke-width:1px;stroke-linecap:butt;stroke-linejoin:miter;stroke-opacity:1" d="M 386.239,563.706 381.688,540.954 z" id="boundary" inkscape:connector-curvature="0" />
	<path style="fill:none;stroke:red;stroke-width:1px;stroke-linecap:butt;stroke-linejoin:miter;stroke-opacity:1" d="M 381.688,540.954 393.064,518.202 z" id="boundary" inkscape:connector-curvature="0" />
	<path style="fill:none;stroke:red;stroke-width:1px;stroke-linecap:butt;stroke-linejoin:miter;stroke-opacity:1" d="M 393.064,518.202 415.817,518.202 z" id="boundary" inkscape:connector-curvature="0" />
	<path style="fill:none;stroke:red;stroke-width:1px;stroke-linecap:butt;stroke-linejoin:miter;stroke-opacity:1" d="M 415.817,518.202 438.569,506.826 z" id="boundary" inkscape:connector-curvature="0" />
	<path style="fill:none;stroke:red;stroke-width:1px;stroke-linecap:butt;stroke-linejoin:miter;stroke-opacity:1" d="M 438.569,506.826 461.321,495.45 z" id="boundary" inkscape:connector-curvature="0" />
	<path style="fill:none;stroke:red;stroke-width:1px;stroke-linecap:butt;stroke-linejoin:miter;stroke-opacity:1" d="M 461.321,495.45 479.523,479.523 z" id="boundary" inkscape:connector-curvature="0" />
	<path style="fill:none;stroke:red;stroke-width:1px;stroke-linecap:butt;stroke-linejoin:miter;stroke-opacity:1" d="M 479.523,479.523 495.45,461.321 z" id="boundary" inkscape:connector-curvature="0" />
	<path style="fill:none;stroke:red;stroke-width:1px;stroke-linecap:butt;stroke-linejoin:miter;stroke-opacity:1" d="M 495.45,461.321 515.927,449.945 z" id="boundary" inkscape:connector-curvature="0" />
	<path style="fill:none;stroke:red;stroke-width:1px;stroke-linecap:butt;stroke-linejoin:miter;stroke-opacity:1" d="M 515.927,449.945 538.679,449.945 z" id="boundary" inkscape:connector-curvature="0" />
	<path style="fill:none;stroke:red;stroke-width:1px;stroke-linecap:butt;stroke-linejoin:miter;stroke-opacity:1" d="M 538.679,449.945 538.679,472.697 z" id="boundary" inkscape:connector-curvature="0" />
	<path style="fill:none;stroke:red;stroke-width:1px;stroke-linecap:butt;stroke-linejoin:miter;stroke-opacity:1" d="M 538.679,472.697 550.055,493.174 z" id="boundary" inkscape:connector-curvature="0" />
	<path style="fill:none;stroke:red;stroke-width:1px;stroke-linecap:butt;stroke-linejoin:miter;stroke-opacity:1" d="M 550.055,493.174 527.303,500 z" id="boundary" inkscape:connector-curvature="0" />
	<path style="fill:none;stroke:red;stroke-width:1px;stroke-linecap:butt;stroke-linejoin:miter;stroke-opacity:1" d="M 527.303,500 527.303,522.752 z" id="boundary" inkscape:connector-curvature="0" />
	<path style="fill:none;stroke:red;stroke-width:1px;stroke-linecap:butt;stroke-linejoin:miter;stroke-opacity:1" d="M 527.303,522.752 527.303,545.505 z" id="boundary" inkscape:connector-curvature="0" />
	<path style="fill:none;stroke:red;stroke-width:1px;stroke-linecap:butt;stroke-linejoin:miter;stroke-opacity:1" d="M 527.303,545.505 527.303,568.257 z" id="boundary" inkscape:connector-curvature="0" />
	<path style="fill:none;stroke:red;stroke-width:1px;stroke-linecap:butt;stroke-linejoin:miter;stroke-opacity:1" d="M 527.303,568.257 515.927,591.009 z" id="boundary" inkscape:connector-curvature="0" />
	<path style="fill:none;stroke:red;stroke-width:1px;stroke-linecap:butt;stroke-linejoin:miter;stroke-opacity:1" d="M 515.927,591.009 515.927,613.761 z" id="boundary" inkscape:connector-curvature="0" />
	<path style="fill:none;stroke:red;stroke-width:1px;stroke-linecap:butt;stroke-linejoin:miter;stroke-opacity:1" d="M 515.927,613.761 515.927,636.514 z" id="boundary" inkscape:connector-curvature="0" />
	<path style="fill:none;stroke:red;stroke-width:1px;stroke-linecap:butt;stroke-linejoin:miter;stroke-opacity:1" d="M 515.927,636.514 515.927,659.266 z" id="boundary" inkscape:connector-curvature="0" />
	<path style="fill:none;stroke:red;stroke-width:1px;stroke-linecap:butt;stroke-linejoin:miter;stroke-opacity:1" d="M 515.927,659.266 529.578,677.468 z" id="boundary" inkscape:connector-curvature="0" />
	<path style="fill:none;stroke:red;stroke-width:1px;stroke-linecap:butt;stroke-linejoin:miter;stroke-opacity:1" d="M 529.578,677.468 543.229,695.67 z" id="boundary" inkscape:connector-curvature="0" />
	<path style="fill:none;stroke:red;stroke-width:1px;stroke-linecap:butt;stroke-linejoin:miter;stroke-opacity:1" d="M 543.229,695.67 565.982,688.844 z" id="boundary" inkscape:connector-curvature="0" />
	<path style="fill:none;stroke:red;stroke-width:1px;stroke-linecap:butt;stroke-linejoin:miter;stroke-opacity:1" d="M 565.982,688.844 586.459,677.468 z" id="boundary" inkscape:connector-curvature="0" />
	<path style="fill:none;stroke:red;stroke-width:1px;stroke-linecap:butt;stroke-linejoin:miter;stroke-opacity:1" d="M 586.459,677.468 609.211,654.716 z" id="boundary" inkscape:connector-curvature="0" />
	<path style="fill:none;stroke:red;stroke-width:1px;stroke-linecap:butt;stroke-linejoin:miter;stroke-opacity:1" d="M 609.211,654.716 629.688,643.339 z" id="boundary" inkscape:connector-curvature="0" />
	<path style="fill:none;stroke:red;stroke-width:1px;stroke-linecap:butt;stroke-linejoin:miter;stroke-opacity:1" d="M 629.688,643.339 643.339,620.587 z" id="boundary" inkscape:connector-curvature="0" />
	<path style="fill:none;stroke:red;stroke-width:1px;stroke-linecap:butt;stroke-linejoin:miter;stroke-opacity:1" d="M 643.339,620.587 666.092,620.587 z" id="boundary" inkscape:connector-curvature="0" />
	<path style="fill:none;stroke:red;stroke-width:1px;stroke-linecap:butt;stroke-linejoin:miter;stroke-opacity:1" d="M 666.092,620.587 686.569,609.211 z" id="boundary" inkscape:connector-curvature="0" />
	<path style="fill:none;stroke:red;stroke-width:1px;stroke-linecap:butt;stroke-linejoin:miter;stroke-opacity:1" d="M 686.569,609.211 709.321,602.385 z" id="boundary" inkscape:connector-curvature="0" />
	<path style="fill:none;stroke:red;stroke-width:1px;stroke-linecap:butt;stroke-linejoin:miter;stroke-opacity:1" d="M 709.321,602.385 732.073,597.835 z" id="boundary" inkscape:connector-curvature="0" />
	<path style="fill:none;stroke:red;stroke-width:1px;stroke-linecap:butt;stroke-linejoin:miter;stroke-opacity:1" d="M 732.073,597.835 754.826,597.835 z" id="boundary" inkscape:connector-curvature="0" />
	<path style="fill:none;stroke:red;stroke-width:1px;stroke-linecap:butt;stroke-linejoin:miter;stroke-opacity:1" d="M 754.826,597.835 777.578,597.835 z" id="boundary" inkscape:connector-curvature="0" />
	<path style="fill:none;stroke:red;stroke-width:1px;stroke-linecap:butt;stroke-linejoin:miter;stroke-opacity:1" d="M 777.578,597.835 800.33,597.835 z" id="boundary" inkscape:connector-curvature="0" />
	<path style="fill:none;stroke:red;stroke-width:1px;stroke-linecap:butt;stroke-linejoin:miter;stroke-opacity:1" d="M 800.33,597.835 823.083,597.835 z" id="boundary" inkscape:connector-curvature="0" />
	<path style="fill:none;stroke:red;stroke-width:1px;stroke-linecap:butt;stroke-linejoin:miter;stroke-opacity:1" d="M 823.083,597.835 845.835,597.835 z" id="boundary" inkscape:connector-curvature="0" />
	<path style="fill:none;stroke:red;stroke-width:1px;stroke-linecap:butt;stroke-linejoin:miter;stroke-opacity:1" d="M 845.835,597.835 868.587,597.835 z" id="boundary" inkscape:connector-curvature="0" />
	<path style="fill:none;stroke:red;stroke-width:1px;stroke-linecap:butt;stroke-linejoin:miter;stroke-opacity:1" d="M 868.587,597.835 891.339,597.835 z" id="boundary" inkscape:connector-curvature="0" />
	<path style="fill:none;stroke:red;stroke-width:1px;stroke-linecap:butt;stroke-linejoin:miter;stroke-opacity:1" d="M 891.339,597.835 914.092,597.835 z" id="boundary" inkscape:connector-curvature="0" />
	<path style="fill:none;stroke:red;stroke-width:1px;stroke-linecap:butt;stroke-linejoin:miter;stroke-opacity:1" d="M 914.092,597.835 934.569,609.211 z" id="boundary" inkscape:connector-curvature="0" />
	<path style="fill:none;stroke:red;stroke-width:1px;stroke-linecap:butt;stroke-linejoin:miter;stroke-opacity:1" d="M 934.569,609.211 955.046,620.587 z" id="boundary" inkscape:connector-curvature="0" />
	<path style="fill:none;stroke:red;stroke-width:1px;stroke-linecap:butt;stroke-linejoin:miter;stroke-opacity:1" d="M 955.046,620.587 977.798,618.312 z" id="boundary" inkscape:connector-curvature="0" />
	<path style="fill:none;stroke:red;stroke-width:1px;stroke-linecap:butt;stroke-linejoin:miter;stroke-opacity:1" d="M 977.798,618.312 996,593.284 z" id="boundary" inkscape:connector-curvature="0" />
	<path style="fill:none;stroke:red;stroke-width:1px;stroke-linecap:butt;stroke-linejoin:miter;stroke-opacity:1" d="M 996,593.284 996,570.532 z" id="boundary" inkscape:connector-curvature="0" />
	<path style="fill:none;stroke:red;stroke-width:1px;stroke-linecap:butt;stroke-linejoin:miter;stroke-opacity:1" d="M 996,570.532 996,547.78 z" id="boundary" inkscape:connector-curvature="0" />
	<path style="fill:none;stroke:red;stroke-width:1px;stroke-linecap:butt;stroke-linejoin:miter;stroke-opacity:1" d="M 996,547.78 996,525.028 z" id="boundary" inkscape:connector-curvature="0" />
	<path style="fill:none;stroke:red;stroke-width:1px;stroke-linecap:butt;stroke-linejoin:miter;stroke-opacity:1" d="M 996,525.028 996,502.275 z" id="boundary" inkscape:connector-curvature="0" />
	<path style="fill:none;stroke:red;stroke-width:1px;stroke-linecap:butt;stroke-linejoin:miter;stroke-opacity:1" d="M 996,502.275 984.624,481.798 z" id="boundary" inkscape:connector-curvature="0" />
	<path style="fill:none;stroke:red;stroke-width:1px;stroke-linecap:butt;stroke-linejoin:miter;stroke-opacity:1" d="M 984.624,481.798 964.147,470.422 z" id="boundary" inkscape:connector-curvature="0" />
	<path style="fill:none;stroke:red;stroke-width:1px;stroke-linecap:butt;stroke-linejoin:miter;stroke-opacity:1" d="M 964.147,470.422 943.67,459.046 z" id="boundary" inkscape:connector-curvature="0" />
	<path style="fill:none;stroke:red;stroke-width:1px;stroke-linecap:butt;stroke-linejoin:miter;stroke-opacity:1" d="M 943.67,459.046 923.193,447.67 z" id="boundary" inkscape:connector-curvature="0" />
	<path style="fill:none;stroke:red;stroke-width:1px;stroke-linecap:butt;stroke-linejoin:miter;stroke-opacity:1" d="M 923.193,447.67 902.716,436.294 z" id="boundary" inkscape:connector-curvature="0" />
	<path style="fill:none;stroke:red;stroke-width:1px;stroke-linecap:butt;stroke-linejoin:miter;stroke-opacity:1" d="M 902.716,436.294 879.963,436.294 z" id="boundary" inkscape:connector-curvature="0" />
	<path style="fill:none;stroke:red;stroke-width:1px;stroke-linecap:butt;stroke-linejoin:miter;stroke-opacity:1" d="M 879.963,436.294 861.761,449.945 z" id="boundary" inkscape:connector-curvature="0" />
	<path style="fill:none;stroke:red;stroke-width:1px;stroke-linecap:butt;stroke-linejoin:miter;stroke-opacity:1" d="M 861.761,449.945 839.009,461.321 z" id="boundary" inkscape:connector-curvature="0" />
	<path style="fill:none;stroke:red;stroke-width:1px;stroke-linecap:butt;stroke-linejoin:miter;stroke-opacity:1" d="M 839.009,461.321 816.257,472.697 z" id="boundary" inkscape:connector-curvature="0" />
	<path style="fill:none;stroke:red;stroke-width:1px;stroke-linecap:butt;stroke-linejoin:miter;stroke-opacity:1" d="M 816.257,472.697 802.606,493.174 z" id="boundary" inkscape:connector-curvature="0" />
	<path style="fill:none;stroke:red;stroke-width:1px;stroke-linecap:butt;stroke-linejoin:miter;stroke-opacity:1" d="M 802.606,493.174 779.853,497.725 z" id="boundary" inkscape:connector-curvature="0" />
	<path style="fill:none;stroke:red;stroke-width:1px;stroke-linecap:butt;stroke-linejoin:miter;stroke-opacity:1" d="M 779.853,497.725 761.651,515.927 z" id="boundary" inkscape:connector-curvature="0" />
	<path style="fill:none;stroke:red;stroke-width:1px;stroke-linecap:butt;stroke-linejoin:miter;stroke-opacity:1" d="M 761.651,515.927 743.45,534.128 z" id="boundary" inkscape:connector-curvature="0" />
	<path style="fill:none;stroke:red;stroke-width:1px;stroke-linecap:butt;stroke-linejoin:miter;stroke-opacity:1" d="M 743.45,534.128 722.972,554.606 z" id="boundary" inkscape:connector-curvature="0" />
	<path style="fill:none;stroke:red;stroke-width:1px;stroke-linecap:butt;stroke-linejoin:miter;stroke-opacity:1" d="M 722.972,554.606 700.22,561.431 z" id="boundary" inkscape:connector-curvature="0" />
	<path style="fill:none;stroke:red;stroke-width:1px;stroke-linecap:butt;stroke-linejoin:miter;stroke-opacity:1" d="M 700.22,561.431 688.844,540.954 z" id="boundary" inkscape:connector-curvature="0" />
	<path style="fill:none;stroke:red;stroke-width:1px;stroke-linecap:butt;stroke-linejoin:miter;stroke-opacity:1" d="M 688.844,540.954 688.844,506.826 z" id="boundary" inkscape:connector-curvature="0" />
	<path style="fill:none;stroke:red;stroke-width:1px;stroke-linecap:butt;stroke-linejoin:miter;stroke-opacity:1" d="M 688.844,506.826 688.844,484.073 z" id="boundary" inkscape:connector-curvature="0" />
	<path style="fill:none;stroke:red;stroke-width:1px;stroke-linecap:butt;stroke-linejoin:miter;stroke-opacity:1" d="M 688.844,484.073 688.844,449.945 z" id="boundary" inkscape:connector-curvature="0" />
	<path style="fill:none;stroke:red;stroke-width:1px;stroke-linecap:butt;stroke-linejoin:miter;stroke-opacity:1" d="M 688.844,449.945 688.844,427.193 z" id="boundary" inkscape:connector-curvature="0" />
	<path style="fill:none;stroke:red;stroke-width:1px;stroke-linecap:butt;stroke-linejoin:miter;stroke-opacity:1" d="M 688.844,427.193 688.844,393.064 z" id="boundary" inkscape:connector-curvature="0" />
	<path style="fill:none;stroke:red;stroke-width:1px;stroke-linecap:butt;stroke-linejoin:miter;stroke-opacity:1" d="M 688.844,393.064 707.046,377.138 z" id="boundary" inkscape:connector-curvature="0" />
	<path style="fill:none;stroke:red;stroke-width:1px;stroke-linecap:butt;stroke-linejoin:miter;stroke-opacity:1" d="M 700.22,336.183 707.046,377.138 z" id="boundary" inkscape:connector-curvature="0" />
	<circle cx="4" cy="79.0826" r="4" fill="#0" id="circle0"/>
	<circle cx="4" cy="101.835" r="4" fill="#0" id="circle1"/>
	<circle cx="15.3761" cy="44.9541" r="4" fill="#0" id="circle2"/>
	<circle cx="22.2018" cy="117.761" r="4" fill="#0" id="circle3"/>
	<circle cx="26.7523" cy="22.2018" r="4" fill="#0" id="circle4"/>
	<circle cx="38.1284" cy="135.963" r="4" fill="#0" id="circle5"/>
	<circle cx="49.5046" cy="10.8257" r="4" fill="#0" id="circle6"/>
	<circle cx="60.8807" cy="142.789" r="4" fill="#0" id="circle7"/>
	<circle cx="72.2569" cy="4" r="4" fill="#0" id="circle8"/>
	<circle cx="74.5321" cy="160.991" r="4" fill="#0" id="circle9"/>
	<circle cx="95.0092" cy="4" r="4" fill="#0" id="circle10"/>
	<circle cx="97.2844" cy="170.092" r="4" fill="#0" id="circle11"/>
	<circle cx="113.211" cy="188.294" r="4" fill="#0" id="circle12"/>
	<circle cx="117.761" cy="4" r="4" fill="#0" id="circle13"/>
	<circle cx="135.963" cy="197.394" r="4" fill="#0" id="circle14"/>
	<circle cx="140.514" cy="8.55046" r="4" fill="#0" id="circle15"/>
	<circle cx="140.514" cy="220.147" r="4" fill="#0" id="circle16"/>
	<circle cx="145.064" cy="242.899" r="4" fill="#0" id="circle17"/>
	<circle cx="160.991" cy="19.9266" r="4" fill="#0" id="circle18"/>
	<circle cx="163.266" cy="256.55" r="4" fill="#0" id="circle19"/>
	<circle cx="183.743" cy="29.0275" r="4" fill="#0" id="circle20"/>
	<circle cx="183.743" cy="267.927" r="4" fill="#0" id="circle21"/>
	<circle cx="199.67" cy="47.2294" r="4" fill="#0" id="circle22"/>
	<circle cx="204.22" cy="279.303" r="4" fill="#0" id="circle23"/>
	<circle cx="211.046" cy="67.7064" r="4" fill="#0" id="circle24"/>
	<circle cx="226.972" cy="288.404" r="4" fill="#0" id="circle25"/>
	<circle cx="233.798" cy="67.7064" r="4" fill="#0" id="circle26"/>
	<circle cx="249.725" cy="279.303" r="4" fill="#0" id="circle27"/>
	<circle cx="254.275" cy="556.881" r="4" fill="#0" id="circle28"/>
	<circle cx="256.55" cy="67.7064" r="4" fill="#0" id="circle29"/>
	<circle cx="265.651" cy="522.752" r="4" fill="#0" id="circle30"/>
	<circle cx="265.651" cy="577.358" r="4" fill="#0" id="circle31"/>
	<circle cx="270.202" cy="290.679" r="4" fill="#0" id="circle32"/>
	<circle cx="274.752" cy="83.633" r="4" fill="#0" id="circle33"/>
	<circle cx="281.578" cy="595.56" r="4" fill="#0" id="circle34"/>
	<circle cx="283.853" cy="504.55" r="4" fill="#0" id="circle35"/>
	<circle cx="290.679" cy="302.055" r="4" fill="#0" id="circle36"/>
	<circle cx="292.954" cy="616.037" r="4" fill="#0" id="circle37"/>
	<circle cx="297.505" cy="83.633" r="4" fill="#0" id="circle38"/>
	<circle cx="302.055" cy="486.349" r="4" fill="#0" id="circle39"/>
	<circle cx="311.156" cy="313.431" r="4" fill="#0" id="circle40"/>
	<circle cx="311.156" cy="631.963" r="4" fill="#0" id="circle41"/>
	<circle cx="311.156" cy="654.716" r="4" fill="#0" id="circle42"/>
	<circle cx="320.257" cy="83.633" r="4" fill="#0" id="circle43"/>
	<circle cx="324.807" cy="481.798" r="4" fill="#0" id="circle44"/>
	<circle cx="324.807" cy="672.917" r="4" fill="#0" id="circle45"/>
	<circle cx="331.633" cy="324.807" r="4" fill="#0" id="circle46"/>
	<circle cx="336.183" cy="693.394" r="4" fill="#0" id="circle47"/>
	<circle cx="340.734" cy="95.0092" r="4" fill="#0" id="circle48"/>
	<circle cx="345.284" cy="443.119" r="4" fill="#0" id="circle49"/>
	<circle cx="345.284" cy="465.872" r="4" fill="#0" id="circle50"/>
	<circle cx="345.284" cy="716.147" r="4" fill="#0" id="circle51"/>
	<circle cx="345.284" cy="932.294" r="4" fill="#0" id="circle52"/>
	<circle cx="347.56" cy="343.009" r="4" fill="#0" id="circle53"/>
	<circle cx="356.661" cy="365.761" r="4" fill="#0" id="circle54"/>
	<circle cx="356.661" cy="388.514" r="4" fill="#0" id="circle55"/>
	<circle cx="356.661" cy="411.266" r="4" fill="#0" id="circle56"/>
	<circle cx="356.661" cy="736.624" r="4" fill="#0" id="circle57"/>
	<circle cx="356.661" cy="759.376" r="4" fill="#0" id="circle58"/>
	<circle cx="356.661" cy="782.128" r="4" fill="#0" id="circle59"/>
	<circle cx="361.211" cy="106.385" r="4" fill="#0" id="circle60"/>
	<circle cx="368.037" cy="802.606" r="4" fill="#0" id="circle61"/>
	<circle cx="368.037" cy="898.165" r="4" fill="#0" id="circle62"/>
	<circle cx="368.037" cy="920.917" r="4" fill="#0" id="circle63"/>
	<circle cx="374.862" cy="825.358" r="4" fill="#0" id="circle64"/>
	<circle cx="379.413" cy="848.11" r="4" fill="#0" id="circle65"/>
	<circle cx="379.413" cy="870.862" r="4" fill="#0" id="circle66"/>
	<circle cx="381.688" cy="117.761" r="4" fill="#0" id="circle67"/>
	<circle cx="381.688" cy="540.954" r="4" fill="#0" id="circle68"/>
	<circle cx="381.688" cy="939.119" r="4" fill="#0" id="circle69"/>
	<circle cx="386.239" cy="563.706" r="4" fill="#0" id="circle70"/>
	<circle cx="393.064" cy="518.202" r="4" fill="#0" id="circle71"/>
	<circle cx="397.615" cy="584.183" r="4" fill="#0" id="circle72"/>
	<circle cx="404.44" cy="124.587" r="4" fill="#0" id="circle73"/>
	<circle cx="404.44" cy="606.936" r="4" fill="#0" id="circle74"/>
	<circle cx="404.44" cy="943.67" r="4" fill="#0" id="circle75"/>
	<circle cx="415.817" cy="518.202" r="4" fill="#0" id="circle76"/>
	<circle cx="422.642" cy="620.587" r="4" fill="#0" id="circle77"/>
	<circle cx="427.193" cy="129.138" r="4" fill="#0" id="circle78"/>
	<circle cx="427.193" cy="643.339" r="4" fill="#0" id="circle79"/>
	<circle cx="427.193" cy="950.495" r="4" fill="#0" id="circle80"/>
	<circle cx="438.569" cy="506.826" r="4" fill="#0" id="circle81"/>
	<circle cx="438.569" cy="663.817" r="4" fill="#0" id="circle82"/>
	<circle cx="449.945" cy="129.138" r="4" fill="#0" id="circle83"/>
	<circle cx="449.945" cy="684.294" r="4" fill="#0" id="circle84"/>
	<circle cx="449.945" cy="950.495" r="4" fill="#0" id="circle85"/>
	<circle cx="461.321" cy="495.45" r="4" fill="#0" id="circle86"/>
	<circle cx="461.321" cy="704.771" r="4" fill="#0" id="circle87"/>
	<circle cx="470.422" cy="727.523" r="4" fill="#0" id="circle88"/>
	<circle cx="472.697" cy="129.138" r="4" fill="#0" id="circle89"/>
	<circle cx="472.697" cy="750.275" r="4" fill="#0" id="circle90"/>
	<circle cx="472.697" cy="950.495" r="4" fill="#0" id="circle91"/>
	<circle cx="479.523" cy="479.523" r="4" fill="#0" id="circle92"/>
	<circle cx="484.073" cy="770.752" r="4" fill="#0" id="circle93"/>
	<circle cx="495.45" cy="129.138" r="4" fill="#0" id="circle94"/>
	<circle cx="495.45" cy="461.321" r="4" fill="#0" id="circle95"/>
	<circle cx="495.45" cy="791.229" r="4" fill="#0" id="circle96"/>
	<circle cx="495.45" cy="950.495" r="4" fill="#0" id="circle97"/>
	<circle cx="506.826" cy="811.706" r="4" fill="#0" id="circle98"/>
	<circle cx="513.651" cy="934.569" r="4" fill="#0" id="circle99"/>
	<circle cx="515.927" cy="140.514" r="4" fill="#0" id="circle100"/>
	<circle cx="515.927" cy="449.945" r="4" fill="#0" id="circle101"/>
	<circle cx="515.927" cy="591.009" r="4" fill="#0" id="circle102"/>
	<circle cx="515.927" cy="613.761" r="4" fill="#0" id="circle103"/>
	<circle cx="515.927" cy="636.514" r="4" fill="#0" id="circle104"/>
	<circle cx="515.927" cy="659.266" r="4" fill="#0" id="circle105"/>
	<circle cx="518.202" cy="832.183" r="4" fill="#0" id="circle106"/>
	<circle cx="527.303" cy="500" r="4" fill="#0" id="circle107"/>
	<circle cx="527.303" cy="522.752" r="4" fill="#0" id="circle108"/>
	<circle cx="527.303" cy="545.505" r="4" fill="#0" id="circle109"/>
	<circle cx="527.303" cy="568.257" r="4" fill="#0" id="circle110"/>
	<circle cx="529.578" cy="677.468" r="4" fill="#0" id="circle111"/>
	<circle cx="529.578" cy="852.661" r="4" fill="#0" id="circle112"/>
	<circle cx="529.578" cy="875.413" r="4" fill="#0" id="circle113"/>
	<circle cx="529.578" cy="898.165" r="4" fill="#0" id="circle114"/>
	<circle cx="538.679" cy="145.064" r="4" fill="#0" id="circle115"/>
	<circle cx="538.679" cy="449.945" r="4" fill="#0" id="circle116"/>
	<circle cx="538.679" cy="472.697" r="4" fill="#0" id="circle117"/>
	<circle cx="543.229" cy="695.67" r="4" fill="#0" id="circle118"/>
	<circle cx="550.055" cy="493.174" r="4" fill="#0" id="circle119"/>
	<circle cx="559.156" cy="156.44" r="4" fill="#0" id="circle120"/>
	<circle cx="565.982" cy="688.844" r="4" fill="#0" id="circle121"/>
	<circle cx="575.083" cy="174.642" r="4" fill="#0" id="circle122"/>
	<circle cx="586.459" cy="677.468" r="4" fill="#0" id="circle123"/>
	<circle cx="593.284" cy="188.294" r="4" fill="#0" id="circle124"/>
	<circle cx="609.211" cy="654.716" r="4" fill="#0" id="circle125"/>
	<circle cx="616.037" cy="188.294" r="4" fill="#0" id="circle126"/>
	<circle cx="625.138" cy="211.046" r="4" fill="#0" id="circle127"/>
	<circle cx="629.688" cy="643.339" r="4" fill="#0" id="circle128"/>
	<circle cx="643.339" cy="226.972" r="4" fill="#0" id="circle129"/>
	<circle cx="643.339" cy="620.587" r="4" fill="#0" id="circle130"/>
	<circle cx="661.541" cy="242.899" r="4" fill="#0" id="circle131"/>
	<circle cx="666.092" cy="620.587" r="4" fill="#0" id="circle132"/>
	<circle cx="677.468" cy="261.101" r="4" fill="#0" id="circle133"/>
	<circle cx="686.569" cy="609.211" r="4" fill="#0" id="circle134"/>
	<circle cx="688.844" cy="393.064" r="4" fill="#0" id="circle135"/>
	<circle cx="688.844" cy="427.193" r="4" fill="#0" id="circle136"/>
	<circle cx="688.844" cy="449.945" r="4" fill="#0" id="circle137"/>
	<circle cx="688.844" cy="484.073" r="4" fill="#0" id="circle138"/>
	<circle cx="688.844" cy="506.826" r="4" fill="#0" id="circle139"/>
	<circle cx="688.844" cy="540.954" r="4" fill="#0" id="circle140"/>
	<circle cx="695.67" cy="277.028" r="4" fill="#0" id="circle141"/>
	<circle cx="700.22" cy="299.78" r="4" fill="#0" id="circle142"/>
	<circle cx="700.22" cy="336.183" r="4" fill="#0" id="circle143"/>
	<circle cx="700.22" cy="561.431" r="4" fill="#0" id="circle144"/>
	<circle cx="707.046" cy="377.138" r="4" fill="#0" id="circle145"/>
	<circle cx="709.321" cy="602.385" r="4" fill="#0" id="circle146"/>
	<circle cx="722.972" cy="554.606" r="4" fill="#0" id="circle147"/>
	<circle cx="732.073" cy="597.835" r="4" fill="#0" id="circle148"/>
	<circle cx="743.45" cy="534.128" r="4" fill="#0" id="circle149"/>
	<circle cx="754.826" cy="597.835" r="4" fill="#0" id="circle150"/>
	<circle cx="761.651" cy="515.927" r="4" fill="#0" id="circle151"/>
	<circle cx="777.578" cy="597.835" r="4" fill="#0" id="circle152"/>
	<circle cx="779.853" cy="497.725" r="4" fill="#0" id="circle153"/>
	<circle cx="800.33" cy="597.835" r="4" fill="#0" id="circle154"/>
	<circle cx="802.606" cy="493.174" r="4" fill="#0" id="circle155"/>
	<circle cx="816.257" cy="472.697" r="4" fill="#0" id="circle156"/>
	<circle cx="823.083" cy="597.835" r="4" fill="#0" id="circle157"/>
	<circle cx="839.009" cy="461.321" r="4" fill="#0" id="circle158"/>
	<circle cx="845.835" cy="597.835" r="4" fill="#0" id="circle159"/>
	<circle cx="861.761" cy="449.945" r="4" fill="#0" id="circle160"/>
	<circle cx="868.587" cy="597.835" r="4" fill="#0" id="circle161"/>
	<circle cx="879.963" cy="436.294" r="4" fill="#0" id="circle162"/>
	<circle cx="891.339" cy="597.835" r="4" fill="#0" id="circle163"/>
	<circle cx="902.716" cy="436.294" r="4" fill="#0" id="circle164"/>
	<circle cx="914.092" cy="597.835" r="4" fill="#0" id="circle165"/>
	<circle cx="923.193" cy="447.67" r="4" fill="#0" id="circle166"/>
	<circle cx="934.569" cy="609.211" r="4" fill="#0" id="circle167"/>
	<circle cx="943.67" cy="459.046" r="4" fill="#0" id="circle168"/>
	<circle cx="955.046" cy="620.587" r="4" fill="#0" id="circle169"/>
	<circle cx="964.147" cy="470.422" r="4" fill="#0" id="circle170"/>
	<circle cx="977.798" cy="618.312" r="4" fill="#0" id="circle171"/>
	<circle cx="984.624" cy="481.798" r="4" fill="#0" id="circle172"/>
	<circle cx="996" cy="502.275" r="4" fill="#0" id="circle173"/>
	<circle cx="996" cy="525.028" r="4" fill="#0" id="circle174"/>
	<circle cx="996" cy="547.78" r="4" fill="#0" id="circle175"/>
	<circle cx="996" cy="570.532" r="4" fill="#0" id="circle176"/>
	<circle cx="996" cy="593.284" r="4" fill="#0" id="circle177"/>
	</g>
</svg>