<?xml version="1.0" encoding="UTF-8" standalone="no"?>
<!-- Created with CurveBenchmark -->
<svg
	xmlns:dc="http://purl.org/dc/elements/1.1/"
	xmlns:cc="http://creativecommons.org/ns#"
	xmlns:rdf="http://www.w3.org/1999/02/22-rdf-syntax-ns#"
	xmlns:svg="http://www.w3.org/2000/svg"
	xmlns="http://www.w3.org/2000/svg"
	xmlns:sodipodi="http://sodipodi.sourceforge.net/DTD/sodipodi-0.dtd"
	xmlns:inkscape="http://www.inkscape.org/namespaces/inkscape"
	width="1000"
	height="1000"
	id="svg2"
	version="1.1"
	sodipodi:docname="manifold/crawl-hammer165.png.txt">
<defs
	id="defs4" />
<metadata
	id="metadata7">
	<rdf:RDF>
		<cc:Work
			rdf:about="">
			<dc:format>image/svg+xml</dc:format>
			<dc:type
				rdf:resource="http://purl.org/dc/dcmitype/StillImage" />
			<dc:title></dc:title>
		</cc:Work>
	</rdf:RDF>
</metadata>
<g
	inkscape:label="Layer 1"
	inkscape:groupmode="layer"
	id="layer1">
	<path style="fill:none;stroke:red;stroke-width:1px;stroke-linecap:butt;stroke-linejoin:miter;stroke-opacity:1" d="M 27.0029,4 4,21.2522 z" id="boundary" inkscape:connector-curvature="0" />
	<path style="fill:none;stroke:red;stroke-width:1px;stroke-linecap:butt;stroke-linejoin:miter;stroke-opacity:1" d="M 4,21.2522 4,50.0058 z" id="boundary" inkscape:connector-curvature="0" />
	<path style="fill:none;stroke:red;stroke-width:1px;stroke-linecap:butt;stroke-linejoin:miter;stroke-opacity:1" d="M 27.0029,4 55.7565,4 z" id="boundary" inkscape:connector-curvature="0" />
	<path style="fill:none;stroke:red;stroke-width:1px;stroke-linecap:butt;stroke-linejoin:miter;stroke-opacity:1" d="M 4,50.0058 9.75072,78.7594 z" id="boundary" inkscape:connector-curvature="0" />
	<path style="fill:none;stroke:red;stroke-width:1px;stroke-linecap:butt;stroke-linejoin:miter;stroke-opacity:1" d="M 9.75072,78.7594 35.629,93.1362 z" id="boundary" inkscape:connector-curvature="0" />
	<path style="fill:none;stroke:red;stroke-width:1px;stroke-linecap:butt;stroke-linejoin:miter;stroke-opacity:1" d="M 35.629,93.1362 64.3826,81.6348 z" id="boundary" inkscape:connector-curvature="0" />
	<path style="fill:none;stroke:red;stroke-width:1px;stroke-linecap:butt;stroke-linejoin:miter;stroke-opacity:1" d="M 64.3826,81.6348 93.1362,75.8841 z" id="boundary" inkscape:connector-curvature="0" />
	<path style="fill:none;stroke:red;stroke-width:1px;stroke-linecap:butt;stroke-linejoin:miter;stroke-opacity:1" d="M 93.1362,75.8841 121.89,81.6348 z" id="boundary" inkscape:connector-curvature="0" />
	<path style="fill:none;stroke:red;stroke-width:1px;stroke-linecap:butt;stroke-linejoin:miter;stroke-opacity:1" d="M 121.89,81.6348 124.765,110.388 z" id="boundary" inkscape:connector-curvature="0" />
	<path style="fill:none;stroke:red;stroke-width:1px;stroke-linecap:butt;stroke-linejoin:miter;stroke-opacity:1" d="M 124.765,110.388 130.516,139.142 z" id="boundary" inkscape:connector-curvature="0" />
	<path style="fill:none;stroke:red;stroke-width:1px;stroke-linecap:butt;stroke-linejoin:miter;stroke-opacity:1" d="M 130.516,139.142 142.017,167.896 z" id="boundary" inkscape:connector-curvature="0" />
	<path style="fill:none;stroke:red;stroke-width:1px;stroke-linecap:butt;stroke-linejoin:miter;stroke-opacity:1" d="M 142.017,167.896 147.768,196.649 z" id="boundary" inkscape:connector-curvature="0" />
	<path style="fill:none;stroke:red;stroke-width:1px;stroke-linecap:butt;stroke-linejoin:miter;stroke-opacity:1" d="M 147.768,196.649 153.519,225.403 z" id="boundary" inkscape:connector-curvature="0" />
	<path style="fill:none;stroke:red;stroke-width:1px;stroke-linecap:butt;stroke-linejoin:miter;stroke-opacity:1" d="M 153.519,225.403 153.519,254.157 z" id="boundary" inkscape:connector-curvature="0" />
	<path style="fill:none;stroke:red;stroke-width:1px;stroke-linecap:butt;stroke-linejoin:miter;stroke-opacity:1" d="M 153.519,254.157 159.27,282.91 z" id="boundary" inkscape:connector-curvature="0" />
	<path style="fill:none;stroke:red;stroke-width:1px;stroke-linecap:butt;stroke-linejoin:miter;stroke-opacity:1" d="M 159.27,282.91 159.27,311.664 z" id="boundary" inkscape:connector-curvature="0" />
	<path style="fill:none;stroke:red;stroke-width:1px;stroke-linecap:butt;stroke-linejoin:miter;stroke-opacity:1" d="M 159.27,311.664 159.27,340.417 z" id="boundary" inkscape:connector-curvature="0" />
	<path style="fill:none;stroke:red;stroke-width:1px;stroke-linecap:butt;stroke-linejoin:miter;stroke-opacity:1" d="M 159.27,340.417 159.27,369.171 z" id="boundary" inkscape:connector-curvature="0" />
	<path style="fill:none;stroke:red;stroke-width:1px;stroke-linecap:butt;stroke-linejoin:miter;stroke-opacity:1" d="M 55.7565,4 84.5101,15.5014 z" id="boundary" inkscape:connector-curvature="0" />
	<path style="fill:none;stroke:red;stroke-width:1px;stroke-linecap:butt;stroke-linejoin:miter;stroke-opacity:1" d="M 84.5101,15.5014 113.264,15.5014 z" id="boundary" inkscape:connector-curvature="0" />
	<path style="fill:none;stroke:red;stroke-width:1px;stroke-linecap:butt;stroke-linejoin:miter;stroke-opacity:1" d="M 113.264,15.5014 142.017,4 z" id="boundary" inkscape:connector-curvature="0" />
	<path style="fill:none;stroke:red;stroke-width:1px;stroke-linecap:butt;stroke-linejoin:miter;stroke-opacity:1" d="M 142.017,4 170.771,4 z" id="boundary" inkscape:connector-curvature="0" />
	<path style="fill:none;stroke:red;stroke-width:1px;stroke-linecap:butt;stroke-linejoin:miter;stroke-opacity:1" d="M 170.771,4 199.525,4 z" id="boundary" inkscape:connector-curvature="0" />
	<path style="fill:none;stroke:red;stroke-width:1px;stroke-linecap:butt;stroke-linejoin:miter;stroke-opacity:1" d="M 199.525,4 228.278,4 z" id="boundary" inkscape:connector-curvature="0" />
	<path style="fill:none;stroke:red;stroke-width:1px;stroke-linecap:butt;stroke-linejoin:miter;stroke-opacity:1" d="M 228.278,4 257.032,4 z" id="boundary" inkscape:connector-curvature="0" />
	<path style="fill:none;stroke:red;stroke-width:1px;stroke-linecap:butt;stroke-linejoin:miter;stroke-opacity:1" d="M 257.032,4 285.786,15.5014 z" id="boundary" inkscape:connector-curvature="0" />
	<path style="fill:none;stroke:red;stroke-width:1px;stroke-linecap:butt;stroke-linejoin:miter;stroke-opacity:1" d="M 285.786,15.5014 308.788,32.7536 z" id="boundary" inkscape:connector-curvature="0" />
	<path style="fill:none;stroke:red;stroke-width:1px;stroke-linecap:butt;stroke-linejoin:miter;stroke-opacity:1" d="M 308.788,32.7536 331.791,52.8812 z" id="boundary" inkscape:connector-curvature="0" />
	<path style="fill:none;stroke:red;stroke-width:1px;stroke-linecap:butt;stroke-linejoin:miter;stroke-opacity:1" d="M 331.791,52.8812 351.919,75.8841 z" id="boundary" inkscape:connector-curvature="0" />
	<path style="fill:none;stroke:red;stroke-width:1px;stroke-linecap:butt;stroke-linejoin:miter;stroke-opacity:1" d="M 351.919,75.8841 369.171,98.887 z" id="boundary" inkscape:connector-curvature="0" />
	<path style="fill:none;stroke:red;stroke-width:1px;stroke-linecap:butt;stroke-linejoin:miter;stroke-opacity:1" d="M 369.171,98.887 380.672,127.641 z" id="boundary" inkscape:connector-curvature="0" />
	<path style="fill:none;stroke:red;stroke-width:1px;stroke-linecap:butt;stroke-linejoin:miter;stroke-opacity:1" d="M 380.672,127.641 392.174,156.394 z" id="boundary" inkscape:connector-curvature="0" />
	<path style="fill:none;stroke:red;stroke-width:1px;stroke-linecap:butt;stroke-linejoin:miter;stroke-opacity:1" d="M 392.174,156.394 369.171,176.522 z" id="boundary" inkscape:connector-curvature="0" />
	<path style="fill:none;stroke:red;stroke-width:1px;stroke-linecap:butt;stroke-linejoin:miter;stroke-opacity:1" d="M 369.171,176.522 354.794,150.643 z" id="boundary" inkscape:connector-curvature="0" />
	<path style="fill:none;stroke:red;stroke-width:1px;stroke-linecap:butt;stroke-linejoin:miter;stroke-opacity:1" d="M 354.794,150.643 337.542,127.641 z" id="boundary" inkscape:connector-curvature="0" />
	<path style="fill:none;stroke:red;stroke-width:1px;stroke-linecap:butt;stroke-linejoin:miter;stroke-opacity:1" d="M 337.542,127.641 317.414,104.638 z" id="boundary" inkscape:connector-curvature="0" />
	<path style="fill:none;stroke:red;stroke-width:1px;stroke-linecap:butt;stroke-linejoin:miter;stroke-opacity:1" d="M 317.414,104.638 288.661,93.1362 z" id="boundary" inkscape:connector-curvature="0" />
	<path style="fill:none;stroke:red;stroke-width:1px;stroke-linecap:butt;stroke-linejoin:miter;stroke-opacity:1" d="M 288.661,93.1362 259.907,101.762 z" id="boundary" inkscape:connector-curvature="0" />
	<path style="fill:none;stroke:red;stroke-width:1px;stroke-linecap:butt;stroke-linejoin:miter;stroke-opacity:1" d="M 259.907,101.762 259.907,130.516 z" id="boundary" inkscape:connector-curvature="0" />
	<path style="fill:none;stroke:red;stroke-width:1px;stroke-linecap:butt;stroke-linejoin:miter;stroke-opacity:1" d="M 259.907,130.516 248.406,159.27 z" id="boundary" inkscape:connector-curvature="0" />
	<path style="fill:none;stroke:red;stroke-width:1px;stroke-linecap:butt;stroke-linejoin:miter;stroke-opacity:1" d="M 159.27,369.171 153.519,400.8 z" id="boundary" inkscape:connector-curvature="0" />
	<path style="fill:none;stroke:red;stroke-width:1px;stroke-linecap:butt;stroke-linejoin:miter;stroke-opacity:1" d="M 153.519,400.8 147.768,435.304 z" id="boundary" inkscape:connector-curvature="0" />
	<path style="fill:none;stroke:red;stroke-width:1px;stroke-linecap:butt;stroke-linejoin:miter;stroke-opacity:1" d="M 147.768,435.304 130.516,469.809 z" id="boundary" inkscape:connector-curvature="0" />
	<path style="fill:none;stroke:red;stroke-width:1px;stroke-linecap:butt;stroke-linejoin:miter;stroke-opacity:1" d="M 130.516,469.809 130.516,498.562 z" id="boundary" inkscape:connector-curvature="0" />
	<path style="fill:none;stroke:red;stroke-width:1px;stroke-linecap:butt;stroke-linejoin:miter;stroke-opacity:1" d="M 130.516,498.562 124.765,527.316 z" id="boundary" inkscape:connector-curvature="0" />
	<path style="fill:none;stroke:red;stroke-width:1px;stroke-linecap:butt;stroke-linejoin:miter;stroke-opacity:1" d="M 124.765,527.316 124.765,556.07 z" id="boundary" inkscape:connector-curvature="0" />
	<path style="fill:none;stroke:red;stroke-width:1px;stroke-linecap:butt;stroke-linejoin:miter;stroke-opacity:1" d="M 124.765,556.07 124.765,584.823 z" id="boundary" inkscape:connector-curvature="0" />
	<path style="fill:none;stroke:red;stroke-width:1px;stroke-linecap:butt;stroke-linejoin:miter;stroke-opacity:1" d="M 124.765,584.823 124.765,613.577 z" id="boundary" inkscape:connector-curvature="0" />
	<path style="fill:none;stroke:red;stroke-width:1px;stroke-linecap:butt;stroke-linejoin:miter;stroke-opacity:1" d="M 124.765,613.577 124.765,642.33 z" id="boundary" inkscape:connector-curvature="0" />
	<path style="fill:none;stroke:red;stroke-width:1px;stroke-linecap:butt;stroke-linejoin:miter;stroke-opacity:1" d="M 124.765,642.33 124.765,671.084 z" id="boundary" inkscape:connector-curvature="0" />
	<path style="fill:none;stroke:red;stroke-width:1px;stroke-linecap:butt;stroke-linejoin:miter;stroke-opacity:1" d="M 124.765,671.084 124.765,699.838 z" id="boundary" inkscape:connector-curvature="0" />
	<path style="fill:none;stroke:red;stroke-width:1px;stroke-linecap:butt;stroke-linejoin:miter;stroke-opacity:1" d="M 124.765,699.838 124.765,728.591 z" id="boundary" inkscape:connector-curvature="0" />
	<path style="fill:none;stroke:red;stroke-width:1px;stroke-linecap:butt;stroke-linejoin:miter;stroke-opacity:1" d="M 124.765,728.591 124.765,757.345 z" id="boundary" inkscape:connector-curvature="0" />
	<path style="fill:none;stroke:red;stroke-width:1px;stroke-linecap:butt;stroke-linejoin:miter;stroke-opacity:1" d="M 124.765,757.345 124.765,786.099 z" id="boundary" inkscape:connector-curvature="0" />
	<path style="fill:none;stroke:red;stroke-width:1px;stroke-linecap:butt;stroke-linejoin:miter;stroke-opacity:1" d="M 124.765,786.099 124.765,814.852 z" id="boundary" inkscape:connector-curvature="0" />
	<path style="fill:none;stroke:red;stroke-width:1px;stroke-linecap:butt;stroke-linejoin:miter;stroke-opacity:1" d="M 124.765,814.852 124.765,843.606 z" id="boundary" inkscape:connector-curvature="0" />
	<path style="fill:none;stroke:red;stroke-width:1px;stroke-linecap:butt;stroke-linejoin:miter;stroke-opacity:1" d="M 124.765,843.606 124.765,872.359 z" id="boundary" inkscape:connector-curvature="0" />
	<path style="fill:none;stroke:red;stroke-width:1px;stroke-linecap:butt;stroke-linejoin:miter;stroke-opacity:1" d="M 124.765,872.359 124.765,901.113 z" id="boundary" inkscape:connector-curvature="0" />
	<path style="fill:none;stroke:red;stroke-width:1px;stroke-linecap:butt;stroke-linejoin:miter;stroke-opacity:1" d="M 124.765,901.113 119.014,935.617 z" id="boundary" inkscape:connector-curvature="0" />
	<path style="fill:none;stroke:red;stroke-width:1px;stroke-linecap:butt;stroke-linejoin:miter;stroke-opacity:1" d="M 248.406,159.27 236.904,199.525 z" id="boundary" inkscape:connector-curvature="0" />
	<path style="fill:none;stroke:red;stroke-width:1px;stroke-linecap:butt;stroke-linejoin:miter;stroke-opacity:1" d="M 236.904,199.525 236.904,228.278 z" id="boundary" inkscape:connector-curvature="0" />
	<path style="fill:none;stroke:red;stroke-width:1px;stroke-linecap:butt;stroke-linejoin:miter;stroke-opacity:1" d="M 236.904,228.278 231.154,257.032 z" id="boundary" inkscape:connector-curvature="0" />
	<path style="fill:none;stroke:red;stroke-width:1px;stroke-linecap:butt;stroke-linejoin:miter;stroke-opacity:1" d="M 231.154,257.032 231.154,285.786 z" id="boundary" inkscape:connector-curvature="0" />
	<path style="fill:none;stroke:red;stroke-width:1px;stroke-linecap:butt;stroke-linejoin:miter;stroke-opacity:1" d="M 231.154,285.786 231.154,314.539 z" id="boundary" inkscape:connector-curvature="0" />
	<path style="fill:none;stroke:red;stroke-width:1px;stroke-linecap:butt;stroke-linejoin:miter;stroke-opacity:1" d="M 231.154,314.539 231.154,343.293 z" id="boundary" inkscape:connector-curvature="0" />
	<path style="fill:none;stroke:red;stroke-width:1px;stroke-linecap:butt;stroke-linejoin:miter;stroke-opacity:1" d="M 231.154,343.293 231.154,372.046 z" id="boundary" inkscape:connector-curvature="0" />
	<path style="fill:none;stroke:red;stroke-width:1px;stroke-linecap:butt;stroke-linejoin:miter;stroke-opacity:1" d="M 231.154,372.046 231.154,400.8 z" id="boundary" inkscape:connector-curvature="0" />
	<path style="fill:none;stroke:red;stroke-width:1px;stroke-linecap:butt;stroke-linejoin:miter;stroke-opacity:1" d="M 231.154,400.8 236.904,429.554 z" id="boundary" inkscape:connector-curvature="0" />
	<path style="fill:none;stroke:red;stroke-width:1px;stroke-linecap:butt;stroke-linejoin:miter;stroke-opacity:1" d="M 236.904,429.554 245.53,458.307 z" id="boundary" inkscape:connector-curvature="0" />
	<path style="fill:none;stroke:red;stroke-width:1px;stroke-linecap:butt;stroke-linejoin:miter;stroke-opacity:1" d="M 245.53,458.307 259.907,484.186 z" id="boundary" inkscape:connector-curvature="0" />
	<path style="fill:none;stroke:red;stroke-width:1px;stroke-linecap:butt;stroke-linejoin:miter;stroke-opacity:1" d="M 259.907,484.186 259.907,512.939 z" id="boundary" inkscape:connector-curvature="0" />
	<path style="fill:none;stroke:red;stroke-width:1px;stroke-linecap:butt;stroke-linejoin:miter;stroke-opacity:1" d="M 259.907,512.939 259.907,541.693 z" id="boundary" inkscape:connector-curvature="0" />
	<path style="fill:none;stroke:red;stroke-width:1px;stroke-linecap:butt;stroke-linejoin:miter;stroke-opacity:1" d="M 259.907,541.693 265.658,570.446 z" id="boundary" inkscape:connector-curvature="0" />
	<path style="fill:none;stroke:red;stroke-width:1px;stroke-linecap:butt;stroke-linejoin:miter;stroke-opacity:1" d="M 265.658,570.446 265.658,599.2 z" id="boundary" inkscape:connector-curvature="0" />
	<path style="fill:none;stroke:red;stroke-width:1px;stroke-linecap:butt;stroke-linejoin:miter;stroke-opacity:1" d="M 265.658,599.2 265.658,627.954 z" id="boundary" inkscape:connector-curvature="0" />
	<path style="fill:none;stroke:red;stroke-width:1px;stroke-linecap:butt;stroke-linejoin:miter;stroke-opacity:1" d="M 265.658,627.954 265.658,656.707 z" id="boundary" inkscape:connector-curvature="0" />
	<path style="fill:none;stroke:red;stroke-width:1px;stroke-linecap:butt;stroke-linejoin:miter;stroke-opacity:1" d="M 265.658,656.707 265.658,685.461 z" id="boundary" inkscape:connector-curvature="0" />
	<path style="fill:none;stroke:red;stroke-width:1px;stroke-linecap:butt;stroke-linejoin:miter;stroke-opacity:1" d="M 265.658,685.461 265.658,714.214 z" id="boundary" inkscape:connector-curvature="0" />
	<path style="fill:none;stroke:red;stroke-width:1px;stroke-linecap:butt;stroke-linejoin:miter;stroke-opacity:1" d="M 265.658,714.214 265.658,742.968 z" id="boundary" inkscape:connector-curvature="0" />
	<path style="fill:none;stroke:red;stroke-width:1px;stroke-linecap:butt;stroke-linejoin:miter;stroke-opacity:1" d="M 265.658,742.968 265.658,771.722 z" id="boundary" inkscape:connector-curvature="0" />
	<path style="fill:none;stroke:red;stroke-width:1px;stroke-linecap:butt;stroke-linejoin:miter;stroke-opacity:1" d="M 265.658,771.722 265.658,800.475 z" id="boundary" inkscape:connector-curvature="0" />
	<path style="fill:none;stroke:red;stroke-width:1px;stroke-linecap:butt;stroke-linejoin:miter;stroke-opacity:1" d="M 265.658,800.475 265.658,829.229 z" id="boundary" inkscape:connector-curvature="0" />
	<path style="fill:none;stroke:red;stroke-width:1px;stroke-linecap:butt;stroke-linejoin:miter;stroke-opacity:1" d="M 265.658,829.229 265.658,857.983 z" id="boundary" inkscape:connector-curvature="0" />
	<path style="fill:none;stroke:red;stroke-width:1px;stroke-linecap:butt;stroke-linejoin:miter;stroke-opacity:1" d="M 265.658,857.983 265.658,886.736 z" id="boundary" inkscape:connector-curvature="0" />
	<path style="fill:none;stroke:red;stroke-width:1px;stroke-linecap:butt;stroke-linejoin:miter;stroke-opacity:1" d="M 265.658,886.736 265.658,915.49 z" id="boundary" inkscape:connector-curvature="0" />
	<path style="fill:none;stroke:red;stroke-width:1px;stroke-linecap:butt;stroke-linejoin:miter;stroke-opacity:1" d="M 265.658,915.49 265.658,944.243 z" id="boundary" inkscape:connector-curvature="0" />
	<path style="fill:none;stroke:red;stroke-width:1px;stroke-linecap:butt;stroke-linejoin:miter;stroke-opacity:1" d="M 265.658,944.243 271.409,972.997 z" id="boundary" inkscape:connector-curvature="0" />
	<path style="fill:none;stroke:red;stroke-width:1px;stroke-linecap:butt;stroke-linejoin:miter;stroke-opacity:1" d="M 271.409,972.997 254.157,996 z" id="boundary" inkscape:connector-curvature="0" />
	<path style="fill:none;stroke:red;stroke-width:1px;stroke-linecap:butt;stroke-linejoin:miter;stroke-opacity:1" d="M 254.157,996 225.403,996 z" id="boundary" inkscape:connector-curvature="0" />
	<path style="fill:none;stroke:red;stroke-width:1px;stroke-linecap:butt;stroke-linejoin:miter;stroke-opacity:1" d="M 225.403,996 196.649,996 z" id="boundary" inkscape:connector-curvature="0" />
	<path style="fill:none;stroke:red;stroke-width:1px;stroke-linecap:butt;stroke-linejoin:miter;stroke-opacity:1" d="M 196.649,996 167.896,996 z" id="boundary" inkscape:connector-curvature="0" />
	<path style="fill:none;stroke:red;stroke-width:1px;stroke-linecap:butt;stroke-linejoin:miter;stroke-opacity:1" d="M 167.896,996 139.142,996 z" id="boundary" inkscape:connector-curvature="0" />
	<path style="fill:none;stroke:red;stroke-width:1px;stroke-linecap:butt;stroke-linejoin:miter;stroke-opacity:1" d="M 139.142,996 113.264,981.623 z" id="boundary" inkscape:connector-curvature="0" />
	<path style="fill:none;stroke:red;stroke-width:1px;stroke-linecap:butt;stroke-linejoin:miter;stroke-opacity:1" d="M 113.264,981.623 119.014,935.617 z" id="boundary" inkscape:connector-curvature="0" />
	<circle cx="4" cy="21.2522" r="4" fill="#0" id="circle0"/>
	<circle cx="4" cy="50.0058" r="4" fill="#0" id="circle1"/>
	<circle cx="9.75072" cy="78.7594" r="4" fill="#0" id="circle2"/>
	<circle cx="27.0029" cy="4" r="4" fill="#0" id="circle3"/>
	<circle cx="35.629" cy="93.1362" r="4" fill="#0" id="circle4"/>
	<circle cx="55.7565" cy="4" r="4" fill="#0" id="circle5"/>
	<circle cx="64.3826" cy="81.6348" r="4" fill="#0" id="circle6"/>
	<circle cx="84.5101" cy="15.5014" r="4" fill="#0" id="circle7"/>
	<circle cx="93.1362" cy="75.8841" r="4" fill="#0" id="circle8"/>
	<circle cx="113.264" cy="15.5014" r="4" fill="#0" id="circle9"/>
	<circle cx="113.264" cy="981.623" r="4" fill="#0" id="circle10"/>
	<circle cx="119.014" cy="935.617" r="4" fill="#0" id="circle11"/>
	<circle cx="121.89" cy="81.6348" r="4" fill="#0" id="circle12"/>
	<circle cx="124.765" cy="110.388" r="4" fill="#0" id="circle13"/>
	<circle cx="124.765" cy="527.316" r="4" fill="#0" id="circle14"/>
	<circle cx="124.765" cy="556.07" r="4" fill="#0" id="circle15"/>
	<circle cx="124.765" cy="584.823" r="4" fill="#0" id="circle16"/>
	<circle cx="124.765" cy="613.577" r="4" fill="#0" id="circle17"/>
	<circle cx="124.765" cy="642.33" r="4" fill="#0" id="circle18"/>
	<circle cx="124.765" cy="671.084" r="4" fill="#0" id="circle19"/>
	<circle cx="124.765" cy="699.838" r="4" fill="#0" id="circle20"/>
	<circle cx="124.765" cy="728.591" r="4" fill="#0" id="circle21"/>
	<circle cx="124.765" cy="757.345" r="4" fill="#0" id="circle22"/>
	<circle cx="124.765" cy="786.099" r="4" fill="#0" id="circle23"/>
	<circle cx="124.765" cy="814.852" r="4" fill="#0" id="circle24"/>
	<circle cx="124.765" cy="843.606" r="4" fill="#0" id="circle25"/>
	<circle cx="124.765" cy="872.359" r="4" fill="#0" id="circle26"/>
	<circle cx="124.765" cy="901.113" r="4" fill="#0" id="circle27"/>
	<circle cx="130.516" cy="139.142" r="4" fill="#0" id="circle28"/>
	<circle cx="130.516" cy="469.809" r="4" fill="#0" id="circle29"/>
	<circle cx="130.516" cy="498.562" r="4" fill="#0" id="circle30"/>
	<circle cx="139.142" cy="996" r="4" fill="#0" id="circle31"/>
	<circle cx="142.017" cy="4" r="4" fill="#0" id="circle32"/>
	<circle cx="142.017" cy="167.896" r="4" fill="#0" id="circle33"/>
	<circle cx="147.768" cy="196.649" r="4" fill="#0" id="circle34"/>
	<circle cx="147.768" cy="435.304" r="4" fill="#0" id="circle35"/>
	<circle cx="153.519" cy="225.403" r="4" fill="#0" id="circle36"/>
	<circle cx="153.519" cy="254.157" r="4" fill="#0" id="circle37"/>
	<circle cx="153.519" cy="400.8" r="4" fill="#0" id="circle38"/>
	<circle cx="159.27" cy="282.91" r="4" fill="#0" id="circle39"/>
	<circle cx="159.27" cy="311.664" r="4" fill="#0" id="circle40"/>
	<circle cx="159.27" cy="340.417" r="4" fill="#0" id="circle41"/>
	<circle cx="159.27" cy="369.171" r="4" fill="#0" id="circle42"/>
	<circle cx="167.896" cy="996" r="4" fill="#0" id="circle43"/>
	<circle cx="170.771" cy="4" r="4" fill="#0" id="circle44"/>
	<circle cx="196.649" cy="996" r="4" fill="#0" id="circle45"/>
	<circle cx="199.525" cy="4" r="4" fill="#0" id="circle46"/>
	<circle cx="225.403" cy="996" r="4" fill="#0" id="circle47"/>
	<circle cx="228.278" cy="4" r="4" fill="#0" id="circle48"/>
	<circle cx="231.154" cy="257.032" r="4" fill="#0" id="circle49"/>
	<circle cx="231.154" cy="285.786" r="4" fill="#0" id="circle50"/>
	<circle cx="231.154" cy="314.539" r="4" fill="#0" id="circle51"/>
	<circle cx="231.154" cy="343.293" r="4" fill="#0" id="circle52"/>
	<circle cx="231.154" cy="372.046" r="4" fill="#0" id="circle53"/>
	<circle cx="231.154" cy="400.8" r="4" fill="#0" id="circle54"/>
	<circle cx="236.904" cy="199.525" r="4" fill="#0" id="circle55"/>
	<circle cx="236.904" cy="228.278" r="4" fill="#0" id="circle56"/>
	<circle cx="236.904" cy="429.554" r="4" fill="#0" id="circle57"/>
	<circle cx="245.53" cy="458.307" r="4" fill="#0" id="circle58"/>
	<circle cx="248.406" cy="159.27" r="4" fill="#0" id="circle59"/>
	<circle cx="254.157" cy="996" r="4" fill="#0" id="circle60"/>
	<circle cx="257.032" cy="4" r="4" fill="#0" id="circle61"/>
	<circle cx="259.907" cy="101.762" r="4" fill="#0" id="circle62"/>
	<circle cx="259.907" cy="130.516" r="4" fill="#0" id="circle63"/>
	<circle cx="259.907" cy="484.186" r="4" fill="#0" id="circle64"/>
	<circle cx="259.907" cy="512.939" r="4" fill="#0" id="circle65"/>
	<circle cx="259.907" cy="541.693" r="4" fill="#0" id="circle66"/>
	<circle cx="265.658" cy="570.446" r="4" fill="#0" id="circle67"/>
	<circle cx="265.658" cy="599.2" r="4" fill="#0" id="circle68"/>
	<circle cx="265.658" cy="627.954" r="4" fill="#0" id="circle69"/>
	<circle cx="265.658" cy="656.707" r="4" fill="#0" id="circle70"/>
	<circle cx="265.658" cy="685.461" r="4" fill="#0" id="circle71"/>
	<circle cx="265.658" cy="714.214" r="4" fill="#0" id="circle72"/>
	<circle cx="265.658" cy="742.968" r="4" fill="#0" id="circle73"/>
	<circle cx="265.658" cy="771.722" r="4" fill="#0" id="circle74"/>
	<circle cx="265.658" cy="800.475" r="4" fill="#0" id="circle75"/>
	<circle cx="265.658" cy="829.229" r="4" fill="#0" id="circle76"/>
	<circle cx="265.658" cy="857.983" r="4" fill="#0" id="circle77"/>
	<circle cx="265.658" cy="886.736" r="4" fill="#0" id="circle78"/>
	<circle cx="265.658" cy="915.49" r="4" fill="#0" id="circle79"/>
	<circle cx="265.658" cy="944.243" r="4" fill="#0" id="circle80"/>
	<circle cx="271.409" cy="972.997" r="4" fill="#0" id="circle81"/>
	<circle cx="285.786" cy="15.5014" r="4" fill="#0" id="circle82"/>
	<circle cx="288.661" cy="93.1362" r="4" fill="#0" id="circle83"/>
	<circle cx="308.788" cy="32.7536" r="4" fill="#0" id="circle84"/>
	<circle cx="317.414" cy="104.638" r="4" fill="#0" id="circle85"/>
	<circle cx="331.791" cy="52.8812" r="4" fill="#0" id="circle86"/>
	<circle cx="337.542" cy="127.641" r="4" fill="#0" id="circle87"/>
	<circle cx="351.919" cy="75.8841" r="4" fill="#0" id="circle88"/>
	<circle cx="354.794" cy="150.643" r="4" fill="#0" id="circle89"/>
	<circle cx="369.171" cy="98.887" r="4" fill="#0" id="circle90"/>
	<circle cx="369.171" cy="176.522" r="4" fill="#0" id="circle91"/>
	<circle cx="380.672" cy="127.641" r="4" fill="#0" id="circle92"/>
	<circle cx="392.174" cy="156.394" r="4" fill="#0" id="circle93"/>
	</g>
</svg>