<?xml version="1.0" encoding="UTF-8" standalone="no"?>
<!-- Created with CurveBenchmark -->
<svg
	xmlns:dc="http://purl.org/dc/elements/1.1/"
	xmlns:cc="http://creativecommons.org/ns#"
	xmlns:rdf="http://www.w3.org/1999/02/22-rdf-syntax-ns#"
	xmlns:svg="http://www.w3.org/2000/svg"
	xmlns="http://www.w3.org/2000/svg"
	xmlns:sodipodi="http://sodipodi.sourceforge.net/DTD/sodipodi-0.dtd"
	xmlns:inkscape="http://www.inkscape.org/namespaces/inkscape"
	width="1000"
	height="1000"
	id="svg2"
	version="1.1"
	sodipodi:docname="manifold/crawl-textbox11.png.txt">
<defs
	id="defs4" />
<metadata
	id="metadata7">
	<rdf:RDF>
		<cc:Work
			rdf:about="">
			<dc:format>image/svg+xml</dc:format>
			<dc:type
				rdf:resource="http://purl.org/dc/dcmitype/StillImage" />
			<dc:title></dc:title>
		</cc:Work>
	</rdf:RDF>
</metadata>
<g
	inkscape:label="Layer 1"
	inkscape:groupmode="layer"
	id="layer1">
	<path style="fill:none;stroke:red;stroke-width:1px;stroke-linecap:butt;stroke-linejoin:miter;stroke-opacity:1" d="M 4,276.978 4,294.82 z" id="boundary" inkscape:connector-curvature="0" />
	<path style="fill:none;stroke:red;stroke-width:1px;stroke-linecap:butt;stroke-linejoin:miter;stroke-opacity:1" d="M 4,294.82 4,312.662 z" id="boundary" inkscape:connector-curvature="0" />
	<path style="fill:none;stroke:red;stroke-width:1px;stroke-linecap:butt;stroke-linejoin:miter;stroke-opacity:1" d="M 4,312.662 12.9209,328.719 z" id="boundary" inkscape:connector-curvature="0" />
	<path style="fill:none;stroke:red;stroke-width:1px;stroke-linecap:butt;stroke-linejoin:miter;stroke-opacity:1" d="M 12.9209,328.719 12.9209,346.561 z" id="boundary" inkscape:connector-curvature="0" />
	<path style="fill:none;stroke:red;stroke-width:1px;stroke-linecap:butt;stroke-linejoin:miter;stroke-opacity:1" d="M 12.9209,346.561 21.8417,362.619 z" id="boundary" inkscape:connector-curvature="0" />
	<path style="fill:none;stroke:red;stroke-width:1px;stroke-linecap:butt;stroke-linejoin:miter;stroke-opacity:1" d="M 21.8417,362.619 30.7626,378.676 z" id="boundary" inkscape:connector-curvature="0" />
	<path style="fill:none;stroke:red;stroke-width:1px;stroke-linecap:butt;stroke-linejoin:miter;stroke-opacity:1" d="M 30.7626,378.676 39.6835,394.734 z" id="boundary" inkscape:connector-curvature="0" />
	<path style="fill:none;stroke:red;stroke-width:1px;stroke-linecap:butt;stroke-linejoin:miter;stroke-opacity:1" d="M 39.6835,394.734 41.4676,412.576 z" id="boundary" inkscape:connector-curvature="0" />
	<path style="fill:none;stroke:red;stroke-width:1px;stroke-linecap:butt;stroke-linejoin:miter;stroke-opacity:1" d="M 41.4676,412.576 55.741,425.065 z" id="boundary" inkscape:connector-curvature="0" />
	<path style="fill:none;stroke:red;stroke-width:1px;stroke-linecap:butt;stroke-linejoin:miter;stroke-opacity:1" d="M 55.741,425.065 68.2302,439.338 z" id="boundary" inkscape:connector-curvature="0" />
	<path style="fill:none;stroke:red;stroke-width:1px;stroke-linecap:butt;stroke-linejoin:miter;stroke-opacity:1" d="M 68.2302,439.338 82.5036,451.827 z" id="boundary" inkscape:connector-curvature="0" />
	<path style="fill:none;stroke:red;stroke-width:1px;stroke-linecap:butt;stroke-linejoin:miter;stroke-opacity:1" d="M 82.5036,451.827 94.9928,466.101 z" id="boundary" inkscape:connector-curvature="0" />
	<path style="fill:none;stroke:red;stroke-width:1px;stroke-linecap:butt;stroke-linejoin:miter;stroke-opacity:1" d="M 94.9928,466.101 109.266,478.59 z" id="boundary" inkscape:connector-curvature="0" />
	<path style="fill:none;stroke:red;stroke-width:1px;stroke-linecap:butt;stroke-linejoin:miter;stroke-opacity:1" d="M 109.266,478.59 127.108,478.59 z" id="boundary" inkscape:connector-curvature="0" />
	<path style="fill:none;stroke:red;stroke-width:1px;stroke-linecap:butt;stroke-linejoin:miter;stroke-opacity:1" d="M 127.108,478.59 143.165,487.511 z" id="boundary" inkscape:connector-curvature="0" />
	<path style="fill:none;stroke:red;stroke-width:1px;stroke-linecap:butt;stroke-linejoin:miter;stroke-opacity:1" d="M 143.165,487.511 152.086,503.568 z" id="boundary" inkscape:connector-curvature="0" />
	<path style="fill:none;stroke:red;stroke-width:1px;stroke-linecap:butt;stroke-linejoin:miter;stroke-opacity:1" d="M 152.086,503.568 169.928,505.353 z" id="boundary" inkscape:connector-curvature="0" />
	<path style="fill:none;stroke:red;stroke-width:1px;stroke-linecap:butt;stroke-linejoin:miter;stroke-opacity:1" d="M 169.928,505.353 185.986,514.273 z" id="boundary" inkscape:connector-curvature="0" />
	<path style="fill:none;stroke:red;stroke-width:1px;stroke-linecap:butt;stroke-linejoin:miter;stroke-opacity:1" d="M 185.986,514.273 203.827,514.273 z" id="boundary" inkscape:connector-curvature="0" />
	<path style="fill:none;stroke:red;stroke-width:1px;stroke-linecap:butt;stroke-linejoin:miter;stroke-opacity:1" d="M 203.827,514.273 212.748,530.331 z" id="boundary" inkscape:connector-curvature="0" />
	<path style="fill:none;stroke:red;stroke-width:1px;stroke-linecap:butt;stroke-linejoin:miter;stroke-opacity:1" d="M 212.748,530.331 230.59,532.115 z" id="boundary" inkscape:connector-curvature="0" />
	<path style="fill:none;stroke:red;stroke-width:1px;stroke-linecap:butt;stroke-linejoin:miter;stroke-opacity:1" d="M 230.59,532.115 248.432,537.468 z" id="boundary" inkscape:connector-curvature="0" />
	<path style="fill:none;stroke:red;stroke-width:1px;stroke-linecap:butt;stroke-linejoin:miter;stroke-opacity:1" d="M 248.432,537.468 266.273,541.036 z" id="boundary" inkscape:connector-curvature="0" />
	<path style="fill:none;stroke:red;stroke-width:1px;stroke-linecap:butt;stroke-linejoin:miter;stroke-opacity:1" d="M 266.273,541.036 284.115,541.036 z" id="boundary" inkscape:connector-curvature="0" />
	<path style="fill:none;stroke:red;stroke-width:1px;stroke-linecap:butt;stroke-linejoin:miter;stroke-opacity:1" d="M 284.115,541.036 293.036,557.094 z" id="boundary" inkscape:connector-curvature="0" />
	<path style="fill:none;stroke:red;stroke-width:1px;stroke-linecap:butt;stroke-linejoin:miter;stroke-opacity:1" d="M 293.036,557.094 310.878,558.878 z" id="boundary" inkscape:connector-curvature="0" />
	<path style="fill:none;stroke:red;stroke-width:1px;stroke-linecap:butt;stroke-linejoin:miter;stroke-opacity:1" d="M 310.878,558.878 328.719,558.878 z" id="boundary" inkscape:connector-curvature="0" />
	<path style="fill:none;stroke:red;stroke-width:1px;stroke-linecap:butt;stroke-linejoin:miter;stroke-opacity:1" d="M 328.719,558.878 346.561,558.878 z" id="boundary" inkscape:connector-curvature="0" />
	<path style="fill:none;stroke:red;stroke-width:1px;stroke-linecap:butt;stroke-linejoin:miter;stroke-opacity:1" d="M 346.561,558.878 362.619,567.799 z" id="boundary" inkscape:connector-curvature="0" />
	<path style="fill:none;stroke:red;stroke-width:1px;stroke-linecap:butt;stroke-linejoin:miter;stroke-opacity:1" d="M 362.619,567.799 380.46,567.799 z" id="boundary" inkscape:connector-curvature="0" />
	<path style="fill:none;stroke:red;stroke-width:1px;stroke-linecap:butt;stroke-linejoin:miter;stroke-opacity:1" d="M 380.46,567.799 398.302,567.799 z" id="boundary" inkscape:connector-curvature="0" />
	<path style="fill:none;stroke:red;stroke-width:1px;stroke-linecap:butt;stroke-linejoin:miter;stroke-opacity:1" d="M 398.302,567.799 416.144,567.799 z" id="boundary" inkscape:connector-curvature="0" />
	<path style="fill:none;stroke:red;stroke-width:1px;stroke-linecap:butt;stroke-linejoin:miter;stroke-opacity:1" d="M 416.144,567.799 433.986,567.799 z" id="boundary" inkscape:connector-curvature="0" />
	<path style="fill:none;stroke:red;stroke-width:1px;stroke-linecap:butt;stroke-linejoin:miter;stroke-opacity:1" d="M 433.986,567.799 444.691,582.072 z" id="boundary" inkscape:connector-curvature="0" />
	<path style="fill:none;stroke:red;stroke-width:1px;stroke-linecap:butt;stroke-linejoin:miter;stroke-opacity:1" d="M 444.691,582.072 462.532,585.64 z" id="boundary" inkscape:connector-curvature="0" />
	<path style="fill:none;stroke:red;stroke-width:1px;stroke-linecap:butt;stroke-linejoin:miter;stroke-opacity:1" d="M 462.532,585.64 480.374,585.64 z" id="boundary" inkscape:connector-curvature="0" />
	<path style="fill:none;stroke:red;stroke-width:1px;stroke-linecap:butt;stroke-linejoin:miter;stroke-opacity:1" d="M 480.374,585.64 498.216,585.64 z" id="boundary" inkscape:connector-curvature="0" />
	<path style="fill:none;stroke:red;stroke-width:1px;stroke-linecap:butt;stroke-linejoin:miter;stroke-opacity:1" d="M 498.216,585.64 516.058,585.64 z" id="boundary" inkscape:connector-curvature="0" />
	<path style="fill:none;stroke:red;stroke-width:1px;stroke-linecap:butt;stroke-linejoin:miter;stroke-opacity:1" d="M 516.058,585.64 533.899,585.64 z" id="boundary" inkscape:connector-curvature="0" />
	<path style="fill:none;stroke:red;stroke-width:1px;stroke-linecap:butt;stroke-linejoin:miter;stroke-opacity:1" d="M 533.899,585.64 551.741,585.64 z" id="boundary" inkscape:connector-curvature="0" />
	<path style="fill:none;stroke:red;stroke-width:1px;stroke-linecap:butt;stroke-linejoin:miter;stroke-opacity:1" d="M 551.741,585.64 569.583,585.64 z" id="boundary" inkscape:connector-curvature="0" />
	<path style="fill:none;stroke:red;stroke-width:1px;stroke-linecap:butt;stroke-linejoin:miter;stroke-opacity:1" d="M 569.583,585.64 583.856,596.345 z" id="boundary" inkscape:connector-curvature="0" />
	<path style="fill:none;stroke:red;stroke-width:1px;stroke-linecap:butt;stroke-linejoin:miter;stroke-opacity:1" d="M 583.856,596.345 592.777,612.403 z" id="boundary" inkscape:connector-curvature="0" />
	<path style="fill:none;stroke:red;stroke-width:1px;stroke-linecap:butt;stroke-linejoin:miter;stroke-opacity:1" d="M 592.777,612.403 608.835,621.324 z" id="boundary" inkscape:connector-curvature="0" />
	<path style="fill:none;stroke:red;stroke-width:1px;stroke-linecap:butt;stroke-linejoin:miter;stroke-opacity:1" d="M 608.835,621.324 615.971,639.165 z" id="boundary" inkscape:connector-curvature="0" />
	<path style="fill:none;stroke:red;stroke-width:1px;stroke-linecap:butt;stroke-linejoin:miter;stroke-opacity:1" d="M 615.971,639.165 633.813,646.302 z" id="boundary" inkscape:connector-curvature="0" />
	<path style="fill:none;stroke:red;stroke-width:1px;stroke-linecap:butt;stroke-linejoin:miter;stroke-opacity:1" d="M 633.813,646.302 637.381,664.144 z" id="boundary" inkscape:connector-curvature="0" />
	<path style="fill:none;stroke:red;stroke-width:1px;stroke-linecap:butt;stroke-linejoin:miter;stroke-opacity:1" d="M 637.381,664.144 651.655,674.849 z" id="boundary" inkscape:connector-curvature="0" />
	<path style="fill:none;stroke:red;stroke-width:1px;stroke-linecap:butt;stroke-linejoin:miter;stroke-opacity:1" d="M 651.655,674.849 664.144,689.122 z" id="boundary" inkscape:connector-curvature="0" />
	<path style="fill:none;stroke:red;stroke-width:1px;stroke-linecap:butt;stroke-linejoin:miter;stroke-opacity:1" d="M 664.144,689.122 673.065,705.18 z" id="boundary" inkscape:connector-curvature="0" />
	<path style="fill:none;stroke:red;stroke-width:1px;stroke-linecap:butt;stroke-linejoin:miter;stroke-opacity:1" d="M 673.065,705.18 690.906,710.532 z" id="boundary" inkscape:connector-curvature="0" />
	<path style="fill:none;stroke:red;stroke-width:1px;stroke-linecap:butt;stroke-linejoin:miter;stroke-opacity:1" d="M 690.906,710.532 696.259,728.374 z" id="boundary" inkscape:connector-curvature="0" />
	<path style="fill:none;stroke:red;stroke-width:1px;stroke-linecap:butt;stroke-linejoin:miter;stroke-opacity:1" d="M 696.259,728.374 712.317,737.295 z" id="boundary" inkscape:connector-curvature="0" />
	<path style="fill:none;stroke:red;stroke-width:1px;stroke-linecap:butt;stroke-linejoin:miter;stroke-opacity:1" d="M 712.317,737.295 721.237,753.353 z" id="boundary" inkscape:connector-curvature="0" />
	<path style="fill:none;stroke:red;stroke-width:1px;stroke-linecap:butt;stroke-linejoin:miter;stroke-opacity:1" d="M 721.237,753.353 735.511,764.058 z" id="boundary" inkscape:connector-curvature="0" />
	<path style="fill:none;stroke:red;stroke-width:1px;stroke-linecap:butt;stroke-linejoin:miter;stroke-opacity:1" d="M 735.511,764.058 746.216,778.331 z" id="boundary" inkscape:connector-curvature="0" />
	<path style="fill:none;stroke:red;stroke-width:1px;stroke-linecap:butt;stroke-linejoin:miter;stroke-opacity:1" d="M 746.216,778.331 760.489,790.82 z" id="boundary" inkscape:connector-curvature="0" />
	<path style="fill:none;stroke:red;stroke-width:1px;stroke-linecap:butt;stroke-linejoin:miter;stroke-opacity:1" d="M 760.489,790.82 776.547,799.741 z" id="boundary" inkscape:connector-curvature="0" />
	<path style="fill:none;stroke:red;stroke-width:1px;stroke-linecap:butt;stroke-linejoin:miter;stroke-opacity:1" d="M 776.547,799.741 780.115,817.583 z" id="boundary" inkscape:connector-curvature="0" />
	<path style="fill:none;stroke:red;stroke-width:1px;stroke-linecap:butt;stroke-linejoin:miter;stroke-opacity:1" d="M 780.115,817.583 790.82,831.856 z" id="boundary" inkscape:connector-curvature="0" />
	<path style="fill:none;stroke:red;stroke-width:1px;stroke-linecap:butt;stroke-linejoin:miter;stroke-opacity:1" d="M 790.82,831.856 805.094,844.345 z" id="boundary" inkscape:connector-curvature="0" />
	<path style="fill:none;stroke:red;stroke-width:1px;stroke-linecap:butt;stroke-linejoin:miter;stroke-opacity:1" d="M 805.094,844.345 817.583,858.619 z" id="boundary" inkscape:connector-curvature="0" />
	<path style="fill:none;stroke:red;stroke-width:1px;stroke-linecap:butt;stroke-linejoin:miter;stroke-opacity:1" d="M 817.583,858.619 831.856,871.108 z" id="boundary" inkscape:connector-curvature="0" />
	<path style="fill:none;stroke:red;stroke-width:1px;stroke-linecap:butt;stroke-linejoin:miter;stroke-opacity:1" d="M 831.856,871.108 842.561,885.381 z" id="boundary" inkscape:connector-curvature="0" />
	<path style="fill:none;stroke:red;stroke-width:1px;stroke-linecap:butt;stroke-linejoin:miter;stroke-opacity:1" d="M 842.561,885.381 856.835,897.871 z" id="boundary" inkscape:connector-curvature="0" />
	<path style="fill:none;stroke:red;stroke-width:1px;stroke-linecap:butt;stroke-linejoin:miter;stroke-opacity:1" d="M 856.835,897.871 862.187,872.892 z" id="boundary" inkscape:connector-curvature="0" />
	<path style="fill:none;stroke:red;stroke-width:1px;stroke-linecap:butt;stroke-linejoin:miter;stroke-opacity:1" d="M 862.187,872.892 862.187,855.05 z" id="boundary" inkscape:connector-curvature="0" />
	<path style="fill:none;stroke:red;stroke-width:1px;stroke-linecap:butt;stroke-linejoin:miter;stroke-opacity:1" d="M 862.187,855.05 853.266,838.993 z" id="boundary" inkscape:connector-curvature="0" />
	<path style="fill:none;stroke:red;stroke-width:1px;stroke-linecap:butt;stroke-linejoin:miter;stroke-opacity:1" d="M 853.266,838.993 844.345,822.935 z" id="boundary" inkscape:connector-curvature="0" />
	<path style="fill:none;stroke:red;stroke-width:1px;stroke-linecap:butt;stroke-linejoin:miter;stroke-opacity:1" d="M 844.345,822.935 835.424,806.878 z" id="boundary" inkscape:connector-curvature="0" />
	<path style="fill:none;stroke:red;stroke-width:1px;stroke-linecap:butt;stroke-linejoin:miter;stroke-opacity:1" d="M 835.424,806.878 835.424,789.036 z" id="boundary" inkscape:connector-curvature="0" />
	<path style="fill:none;stroke:red;stroke-width:1px;stroke-linecap:butt;stroke-linejoin:miter;stroke-opacity:1" d="M 835.424,789.036 826.504,772.978 z" id="boundary" inkscape:connector-curvature="0" />
	<path style="fill:none;stroke:red;stroke-width:1px;stroke-linecap:butt;stroke-linejoin:miter;stroke-opacity:1" d="M 826.504,772.978 826.504,755.137 z" id="boundary" inkscape:connector-curvature="0" />
	<path style="fill:none;stroke:red;stroke-width:1px;stroke-linecap:butt;stroke-linejoin:miter;stroke-opacity:1" d="M 826.504,755.137 822.935,737.295 z" id="boundary" inkscape:connector-curvature="0" />
	<path style="fill:none;stroke:red;stroke-width:1px;stroke-linecap:butt;stroke-linejoin:miter;stroke-opacity:1" d="M 822.935,737.295 808.662,726.59 z" id="boundary" inkscape:connector-curvature="0" />
	<path style="fill:none;stroke:red;stroke-width:1px;stroke-linecap:butt;stroke-linejoin:miter;stroke-opacity:1" d="M 808.662,726.59 808.662,708.748 z" id="boundary" inkscape:connector-curvature="0" />
	<path style="fill:none;stroke:red;stroke-width:1px;stroke-linecap:butt;stroke-linejoin:miter;stroke-opacity:1" d="M 808.662,708.748 799.741,692.691 z" id="boundary" inkscape:connector-curvature="0" />
	<path style="fill:none;stroke:red;stroke-width:1px;stroke-linecap:butt;stroke-linejoin:miter;stroke-opacity:1" d="M 799.741,692.691 799.741,674.849 z" id="boundary" inkscape:connector-curvature="0" />
	<path style="fill:none;stroke:red;stroke-width:1px;stroke-linecap:butt;stroke-linejoin:miter;stroke-opacity:1" d="M 799.741,674.849 794.388,657.007 z" id="boundary" inkscape:connector-curvature="0" />
	<path style="fill:none;stroke:red;stroke-width:1px;stroke-linecap:butt;stroke-linejoin:miter;stroke-opacity:1" d="M 794.388,657.007 781.899,642.734 z" id="boundary" inkscape:connector-curvature="0" />
	<path style="fill:none;stroke:red;stroke-width:1px;stroke-linecap:butt;stroke-linejoin:miter;stroke-opacity:1" d="M 781.899,642.734 772.978,626.676 z" id="boundary" inkscape:connector-curvature="0" />
	<path style="fill:none;stroke:red;stroke-width:1px;stroke-linecap:butt;stroke-linejoin:miter;stroke-opacity:1" d="M 772.978,626.676 772.978,608.835 z" id="boundary" inkscape:connector-curvature="0" />
	<path style="fill:none;stroke:red;stroke-width:1px;stroke-linecap:butt;stroke-linejoin:miter;stroke-opacity:1" d="M 772.978,608.835 764.058,592.777 z" id="boundary" inkscape:connector-curvature="0" />
	<path style="fill:none;stroke:red;stroke-width:1px;stroke-linecap:butt;stroke-linejoin:miter;stroke-opacity:1" d="M 764.058,592.777 755.137,576.719 z" id="boundary" inkscape:connector-curvature="0" />
	<path style="fill:none;stroke:red;stroke-width:1px;stroke-linecap:butt;stroke-linejoin:miter;stroke-opacity:1" d="M 755.137,576.719 749.784,558.878 z" id="boundary" inkscape:connector-curvature="0" />
	<path style="fill:none;stroke:red;stroke-width:1px;stroke-linecap:butt;stroke-linejoin:miter;stroke-opacity:1" d="M 749.784,558.878 746.216,541.036 z" id="boundary" inkscape:connector-curvature="0" />
	<path style="fill:none;stroke:red;stroke-width:1px;stroke-linecap:butt;stroke-linejoin:miter;stroke-opacity:1" d="M 746.216,541.036 762.273,532.115 z" id="boundary" inkscape:connector-curvature="0" />
	<path style="fill:none;stroke:red;stroke-width:1px;stroke-linecap:butt;stroke-linejoin:miter;stroke-opacity:1" d="M 762.273,532.115 780.115,526.763 z" id="boundary" inkscape:connector-curvature="0" />
	<path style="fill:none;stroke:red;stroke-width:1px;stroke-linecap:butt;stroke-linejoin:miter;stroke-opacity:1" d="M 780.115,526.763 794.388,514.273 z" id="boundary" inkscape:connector-curvature="0" />
	<path style="fill:none;stroke:red;stroke-width:1px;stroke-linecap:butt;stroke-linejoin:miter;stroke-opacity:1" d="M 794.388,514.273 812.23,514.273 z" id="boundary" inkscape:connector-curvature="0" />
	<path style="fill:none;stroke:red;stroke-width:1px;stroke-linecap:butt;stroke-linejoin:miter;stroke-opacity:1" d="M 812.23,514.273 828.288,505.353 z" id="boundary" inkscape:connector-curvature="0" />
	<path style="fill:none;stroke:red;stroke-width:1px;stroke-linecap:butt;stroke-linejoin:miter;stroke-opacity:1" d="M 828.288,505.353 844.345,487.511 z" id="boundary" inkscape:connector-curvature="0" />
	<path style="fill:none;stroke:red;stroke-width:1px;stroke-linecap:butt;stroke-linejoin:miter;stroke-opacity:1" d="M 844.345,487.511 862.187,478.59 z" id="boundary" inkscape:connector-curvature="0" />
	<path style="fill:none;stroke:red;stroke-width:1px;stroke-linecap:butt;stroke-linejoin:miter;stroke-opacity:1" d="M 862.187,478.59 878.245,469.669 z" id="boundary" inkscape:connector-curvature="0" />
	<path style="fill:none;stroke:red;stroke-width:1px;stroke-linecap:butt;stroke-linejoin:miter;stroke-opacity:1" d="M 878.245,469.669 896.086,464.317 z" id="boundary" inkscape:connector-curvature="0" />
	<path style="fill:none;stroke:red;stroke-width:1px;stroke-linecap:butt;stroke-linejoin:miter;stroke-opacity:1" d="M 896.086,464.317 910.36,450.043 z" id="boundary" inkscape:connector-curvature="0" />
	<path style="fill:none;stroke:red;stroke-width:1px;stroke-linecap:butt;stroke-linejoin:miter;stroke-opacity:1" d="M 4,276.978 12.9209,250.216 z" id="boundary" inkscape:connector-curvature="0" />
	<path style="fill:none;stroke:red;stroke-width:1px;stroke-linecap:butt;stroke-linejoin:miter;stroke-opacity:1" d="M 12.9209,250.216 12.9209,232.374 z" id="boundary" inkscape:connector-curvature="0" />
	<path style="fill:none;stroke:red;stroke-width:1px;stroke-linecap:butt;stroke-linejoin:miter;stroke-opacity:1" d="M 12.9209,232.374 30.7626,223.453 z" id="boundary" inkscape:connector-curvature="0" />
	<path style="fill:none;stroke:red;stroke-width:1px;stroke-linecap:butt;stroke-linejoin:miter;stroke-opacity:1" d="M 30.7626,223.453 30.7626,205.612 z" id="boundary" inkscape:connector-curvature="0" />
	<path style="fill:none;stroke:red;stroke-width:1px;stroke-linecap:butt;stroke-linejoin:miter;stroke-opacity:1" d="M 30.7626,205.612 39.6835,178.849 z" id="boundary" inkscape:connector-curvature="0" />
	<path style="fill:none;stroke:red;stroke-width:1px;stroke-linecap:butt;stroke-linejoin:miter;stroke-opacity:1" d="M 39.6835,178.849 53.9568,164.576 z" id="boundary" inkscape:connector-curvature="0" />
	<path style="fill:none;stroke:red;stroke-width:1px;stroke-linecap:butt;stroke-linejoin:miter;stroke-opacity:1" d="M 53.9568,164.576 71.7986,155.655 z" id="boundary" inkscape:connector-curvature="0" />
	<path style="fill:none;stroke:red;stroke-width:1px;stroke-linecap:butt;stroke-linejoin:miter;stroke-opacity:1" d="M 71.7986,155.655 80.7194,137.813 z" id="boundary" inkscape:connector-curvature="0" />
	<path style="fill:none;stroke:red;stroke-width:1px;stroke-linecap:butt;stroke-linejoin:miter;stroke-opacity:1" d="M 80.7194,137.813 98.5612,128.892 z" id="boundary" inkscape:connector-curvature="0" />
	<path style="fill:none;stroke:red;stroke-width:1px;stroke-linecap:butt;stroke-linejoin:miter;stroke-opacity:1" d="M 98.5612,128.892 107.482,111.05 z" id="boundary" inkscape:connector-curvature="0" />
	<path style="fill:none;stroke:red;stroke-width:1px;stroke-linecap:butt;stroke-linejoin:miter;stroke-opacity:1" d="M 107.482,111.05 125.324,111.05 z" id="boundary" inkscape:connector-curvature="0" />
	<path style="fill:none;stroke:red;stroke-width:1px;stroke-linecap:butt;stroke-linejoin:miter;stroke-opacity:1" d="M 125.324,111.05 141.381,102.129 z" id="boundary" inkscape:connector-curvature="0" />
	<path style="fill:none;stroke:red;stroke-width:1px;stroke-linecap:butt;stroke-linejoin:miter;stroke-opacity:1" d="M 141.381,102.129 150.302,86.0719 z" id="boundary" inkscape:connector-curvature="0" />
	<path style="fill:none;stroke:red;stroke-width:1px;stroke-linecap:butt;stroke-linejoin:miter;stroke-opacity:1" d="M 150.302,86.0719 168.144,84.2878 z" id="boundary" inkscape:connector-curvature="0" />
	<path style="fill:none;stroke:red;stroke-width:1px;stroke-linecap:butt;stroke-linejoin:miter;stroke-opacity:1" d="M 168.144,84.2878 184.201,75.3669 z" id="boundary" inkscape:connector-curvature="0" />
	<path style="fill:none;stroke:red;stroke-width:1px;stroke-linecap:butt;stroke-linejoin:miter;stroke-opacity:1" d="M 184.201,75.3669 202.043,75.3669 z" id="boundary" inkscape:connector-curvature="0" />
	<path style="fill:none;stroke:red;stroke-width:1px;stroke-linecap:butt;stroke-linejoin:miter;stroke-opacity:1" d="M 202.043,75.3669 212.748,59.3094 z" id="boundary" inkscape:connector-curvature="0" />
	<path style="fill:none;stroke:red;stroke-width:1px;stroke-linecap:butt;stroke-linejoin:miter;stroke-opacity:1" d="M 212.748,59.3094 230.59,57.5252 z" id="boundary" inkscape:connector-curvature="0" />
	<path style="fill:none;stroke:red;stroke-width:1px;stroke-linecap:butt;stroke-linejoin:miter;stroke-opacity:1" d="M 230.59,57.5252 248.432,50.3885 z" id="boundary" inkscape:connector-curvature="0" />
	<path style="fill:none;stroke:red;stroke-width:1px;stroke-linecap:butt;stroke-linejoin:miter;stroke-opacity:1" d="M 248.432,50.3885 266.273,48.6043 z" id="boundary" inkscape:connector-curvature="0" />
	<path style="fill:none;stroke:red;stroke-width:1px;stroke-linecap:butt;stroke-linejoin:miter;stroke-opacity:1" d="M 266.273,48.6043 284.115,48.6043 z" id="boundary" inkscape:connector-curvature="0" />
	<path style="fill:none;stroke:red;stroke-width:1px;stroke-linecap:butt;stroke-linejoin:miter;stroke-opacity:1" d="M 284.115,48.6043 293.036,32.5468 z" id="boundary" inkscape:connector-curvature="0" />
	<path style="fill:none;stroke:red;stroke-width:1px;stroke-linecap:butt;stroke-linejoin:miter;stroke-opacity:1" d="M 293.036,32.5468 310.878,30.7626 z" id="boundary" inkscape:connector-curvature="0" />
	<path style="fill:none;stroke:red;stroke-width:1px;stroke-linecap:butt;stroke-linejoin:miter;stroke-opacity:1" d="M 310.878,30.7626 328.719,30.7626 z" id="boundary" inkscape:connector-curvature="0" />
	<path style="fill:none;stroke:red;stroke-width:1px;stroke-linecap:butt;stroke-linejoin:miter;stroke-opacity:1" d="M 328.719,30.7626 346.561,30.7626 z" id="boundary" inkscape:connector-curvature="0" />
	<path style="fill:none;stroke:red;stroke-width:1px;stroke-linecap:butt;stroke-linejoin:miter;stroke-opacity:1" d="M 346.561,30.7626 362.619,21.8417 z" id="boundary" inkscape:connector-curvature="0" />
	<path style="fill:none;stroke:red;stroke-width:1px;stroke-linecap:butt;stroke-linejoin:miter;stroke-opacity:1" d="M 362.619,21.8417 380.46,21.8417 z" id="boundary" inkscape:connector-curvature="0" />
	<path style="fill:none;stroke:red;stroke-width:1px;stroke-linecap:butt;stroke-linejoin:miter;stroke-opacity:1" d="M 380.46,21.8417 398.302,21.8417 z" id="boundary" inkscape:connector-curvature="0" />
	<path style="fill:none;stroke:red;stroke-width:1px;stroke-linecap:butt;stroke-linejoin:miter;stroke-opacity:1" d="M 398.302,21.8417 416.144,21.8417 z" id="boundary" inkscape:connector-curvature="0" />
	<path style="fill:none;stroke:red;stroke-width:1px;stroke-linecap:butt;stroke-linejoin:miter;stroke-opacity:1" d="M 416.144,21.8417 433.986,21.8417 z" id="boundary" inkscape:connector-curvature="0" />
	<path style="fill:none;stroke:red;stroke-width:1px;stroke-linecap:butt;stroke-linejoin:miter;stroke-opacity:1" d="M 433.986,21.8417 444.691,5.78417 z" id="boundary" inkscape:connector-curvature="0" />
	<path style="fill:none;stroke:red;stroke-width:1px;stroke-linecap:butt;stroke-linejoin:miter;stroke-opacity:1" d="M 444.691,5.78417 462.532,4 z" id="boundary" inkscape:connector-curvature="0" />
	<path style="fill:none;stroke:red;stroke-width:1px;stroke-linecap:butt;stroke-linejoin:miter;stroke-opacity:1" d="M 462.532,4 480.374,4 z" id="boundary" inkscape:connector-curvature="0" />
	<path style="fill:none;stroke:red;stroke-width:1px;stroke-linecap:butt;stroke-linejoin:miter;stroke-opacity:1" d="M 480.374,4 498.216,4 z" id="boundary" inkscape:connector-curvature="0" />
	<path style="fill:none;stroke:red;stroke-width:1px;stroke-linecap:butt;stroke-linejoin:miter;stroke-opacity:1" d="M 498.216,4 516.058,4 z" id="boundary" inkscape:connector-curvature="0" />
	<path style="fill:none;stroke:red;stroke-width:1px;stroke-linecap:butt;stroke-linejoin:miter;stroke-opacity:1" d="M 516.058,4 532.115,12.9209 z" id="boundary" inkscape:connector-curvature="0" />
	<path style="fill:none;stroke:red;stroke-width:1px;stroke-linecap:butt;stroke-linejoin:miter;stroke-opacity:1" d="M 532.115,12.9209 548.173,21.8417 z" id="boundary" inkscape:connector-curvature="0" />
	<path style="fill:none;stroke:red;stroke-width:1px;stroke-linecap:butt;stroke-linejoin:miter;stroke-opacity:1" d="M 548.173,21.8417 566.014,21.8417 z" id="boundary" inkscape:connector-curvature="0" />
	<path style="fill:none;stroke:red;stroke-width:1px;stroke-linecap:butt;stroke-linejoin:miter;stroke-opacity:1" d="M 566.014,21.8417 583.856,21.8417 z" id="boundary" inkscape:connector-curvature="0" />
	<path style="fill:none;stroke:red;stroke-width:1px;stroke-linecap:butt;stroke-linejoin:miter;stroke-opacity:1" d="M 583.856,21.8417 601.698,21.8417 z" id="boundary" inkscape:connector-curvature="0" />
	<path style="fill:none;stroke:red;stroke-width:1px;stroke-linecap:butt;stroke-linejoin:miter;stroke-opacity:1" d="M 601.698,21.8417 619.54,21.8417 z" id="boundary" inkscape:connector-curvature="0" />
	<path style="fill:none;stroke:red;stroke-width:1px;stroke-linecap:butt;stroke-linejoin:miter;stroke-opacity:1" d="M 619.54,21.8417 637.381,25.4101 z" id="boundary" inkscape:connector-curvature="0" />
	<path style="fill:none;stroke:red;stroke-width:1px;stroke-linecap:butt;stroke-linejoin:miter;stroke-opacity:1" d="M 637.381,25.4101 655.223,30.7626 z" id="boundary" inkscape:connector-curvature="0" />
	<path style="fill:none;stroke:red;stroke-width:1px;stroke-linecap:butt;stroke-linejoin:miter;stroke-opacity:1" d="M 655.223,30.7626 673.065,30.7626 z" id="boundary" inkscape:connector-curvature="0" />
	<path style="fill:none;stroke:red;stroke-width:1px;stroke-linecap:butt;stroke-linejoin:miter;stroke-opacity:1" d="M 673.065,30.7626 690.906,30.7626 z" id="boundary" inkscape:connector-curvature="0" />
	<path style="fill:none;stroke:red;stroke-width:1px;stroke-linecap:butt;stroke-linejoin:miter;stroke-opacity:1" d="M 690.906,30.7626 701.612,45.036 z" id="boundary" inkscape:connector-curvature="0" />
	<path style="fill:none;stroke:red;stroke-width:1px;stroke-linecap:butt;stroke-linejoin:miter;stroke-opacity:1" d="M 701.612,45.036 719.453,48.6043 z" id="boundary" inkscape:connector-curvature="0" />
	<path style="fill:none;stroke:red;stroke-width:1px;stroke-linecap:butt;stroke-linejoin:miter;stroke-opacity:1" d="M 719.453,48.6043 737.295,48.6043 z" id="boundary" inkscape:connector-curvature="0" />
	<path style="fill:none;stroke:red;stroke-width:1px;stroke-linecap:butt;stroke-linejoin:miter;stroke-opacity:1" d="M 737.295,48.6043 753.353,57.5252 z" id="boundary" inkscape:connector-curvature="0" />
	<path style="fill:none;stroke:red;stroke-width:1px;stroke-linecap:butt;stroke-linejoin:miter;stroke-opacity:1" d="M 753.353,57.5252 771.194,57.5252 z" id="boundary" inkscape:connector-curvature="0" />
	<path style="fill:none;stroke:red;stroke-width:1px;stroke-linecap:butt;stroke-linejoin:miter;stroke-opacity:1" d="M 771.194,57.5252 781.899,71.7986 z" id="boundary" inkscape:connector-curvature="0" />
	<path style="fill:none;stroke:red;stroke-width:1px;stroke-linecap:butt;stroke-linejoin:miter;stroke-opacity:1" d="M 781.899,71.7986 799.741,75.3669 z" id="boundary" inkscape:connector-curvature="0" />
	<path style="fill:none;stroke:red;stroke-width:1px;stroke-linecap:butt;stroke-linejoin:miter;stroke-opacity:1" d="M 799.741,75.3669 817.583,75.3669 z" id="boundary" inkscape:connector-curvature="0" />
	<path style="fill:none;stroke:red;stroke-width:1px;stroke-linecap:butt;stroke-linejoin:miter;stroke-opacity:1" d="M 817.583,75.3669 833.64,84.2878 z" id="boundary" inkscape:connector-curvature="0" />
	<path style="fill:none;stroke:red;stroke-width:1px;stroke-linecap:butt;stroke-linejoin:miter;stroke-opacity:1" d="M 833.64,84.2878 844.345,98.5612 z" id="boundary" inkscape:connector-curvature="0" />
	<path style="fill:none;stroke:red;stroke-width:1px;stroke-linecap:butt;stroke-linejoin:miter;stroke-opacity:1" d="M 844.345,98.5612 860.403,107.482 z" id="boundary" inkscape:connector-curvature="0" />
	<path style="fill:none;stroke:red;stroke-width:1px;stroke-linecap:butt;stroke-linejoin:miter;stroke-opacity:1" d="M 860.403,107.482 878.245,111.05 z" id="boundary" inkscape:connector-curvature="0" />
	<path style="fill:none;stroke:red;stroke-width:1px;stroke-linecap:butt;stroke-linejoin:miter;stroke-opacity:1" d="M 878.245,111.05 888.95,125.324 z" id="boundary" inkscape:connector-curvature="0" />
	<path style="fill:none;stroke:red;stroke-width:1px;stroke-linecap:butt;stroke-linejoin:miter;stroke-opacity:1" d="M 888.95,125.324 903.223,137.813 z" id="boundary" inkscape:connector-curvature="0" />
	<path style="fill:none;stroke:red;stroke-width:1px;stroke-linecap:butt;stroke-linejoin:miter;stroke-opacity:1" d="M 903.223,137.813 915.712,152.086 z" id="boundary" inkscape:connector-curvature="0" />
	<path style="fill:none;stroke:red;stroke-width:1px;stroke-linecap:butt;stroke-linejoin:miter;stroke-opacity:1" d="M 915.712,152.086 929.986,164.576 z" id="boundary" inkscape:connector-curvature="0" />
	<path style="fill:none;stroke:red;stroke-width:1px;stroke-linecap:butt;stroke-linejoin:miter;stroke-opacity:1" d="M 929.986,164.576 946.043,173.496 z" id="boundary" inkscape:connector-curvature="0" />
	<path style="fill:none;stroke:red;stroke-width:1px;stroke-linecap:butt;stroke-linejoin:miter;stroke-opacity:1" d="M 946.043,173.496 951.396,191.338 z" id="boundary" inkscape:connector-curvature="0" />
	<path style="fill:none;stroke:red;stroke-width:1px;stroke-linecap:butt;stroke-linejoin:miter;stroke-opacity:1" d="M 951.396,191.338 965.669,202.043 z" id="boundary" inkscape:connector-curvature="0" />
	<path style="fill:none;stroke:red;stroke-width:1px;stroke-linecap:butt;stroke-linejoin:miter;stroke-opacity:1" d="M 965.669,202.043 969.237,219.885 z" id="boundary" inkscape:connector-curvature="0" />
	<path style="fill:none;stroke:red;stroke-width:1px;stroke-linecap:butt;stroke-linejoin:miter;stroke-opacity:1" d="M 969.237,219.885 978.158,235.942 z" id="boundary" inkscape:connector-curvature="0" />
	<path style="fill:none;stroke:red;stroke-width:1px;stroke-linecap:butt;stroke-linejoin:miter;stroke-opacity:1" d="M 978.158,235.942 978.158,253.784 z" id="boundary" inkscape:connector-curvature="0" />
	<path style="fill:none;stroke:red;stroke-width:1px;stroke-linecap:butt;stroke-linejoin:miter;stroke-opacity:1" d="M 978.158,253.784 978.158,271.626 z" id="boundary" inkscape:connector-curvature="0" />
	<path style="fill:none;stroke:red;stroke-width:1px;stroke-linecap:butt;stroke-linejoin:miter;stroke-opacity:1" d="M 978.158,271.626 996,276.978 z" id="boundary" inkscape:connector-curvature="0" />
	<path style="fill:none;stroke:red;stroke-width:1px;stroke-linecap:butt;stroke-linejoin:miter;stroke-opacity:1" d="M 996,276.978 996,294.82 z" id="boundary" inkscape:connector-curvature="0" />
	<path style="fill:none;stroke:red;stroke-width:1px;stroke-linecap:butt;stroke-linejoin:miter;stroke-opacity:1" d="M 996,294.82 996,312.662 z" id="boundary" inkscape:connector-curvature="0" />
	<path style="fill:none;stroke:red;stroke-width:1px;stroke-linecap:butt;stroke-linejoin:miter;stroke-opacity:1" d="M 996,312.662 996,330.504 z" id="boundary" inkscape:connector-curvature="0" />
	<path style="fill:none;stroke:red;stroke-width:1px;stroke-linecap:butt;stroke-linejoin:miter;stroke-opacity:1" d="M 996,330.504 978.158,335.856 z" id="boundary" inkscape:connector-curvature="0" />
	<path style="fill:none;stroke:red;stroke-width:1px;stroke-linecap:butt;stroke-linejoin:miter;stroke-opacity:1" d="M 978.158,335.856 978.158,353.698 z" id="boundary" inkscape:connector-curvature="0" />
	<path style="fill:none;stroke:red;stroke-width:1px;stroke-linecap:butt;stroke-linejoin:miter;stroke-opacity:1" d="M 978.158,353.698 969.237,371.54 z" id="boundary" inkscape:connector-curvature="0" />
	<path style="fill:none;stroke:red;stroke-width:1px;stroke-linecap:butt;stroke-linejoin:miter;stroke-opacity:1" d="M 969.237,371.54 951.396,389.381 z" id="boundary" inkscape:connector-curvature="0" />
	<path style="fill:none;stroke:red;stroke-width:1px;stroke-linecap:butt;stroke-linejoin:miter;stroke-opacity:1" d="M 951.396,389.381 942.475,416.144 z" id="boundary" inkscape:connector-curvature="0" />
	<path style="fill:none;stroke:red;stroke-width:1px;stroke-linecap:butt;stroke-linejoin:miter;stroke-opacity:1" d="M 942.475,416.144 924.633,425.065 z" id="boundary" inkscape:connector-curvature="0" />
	<path style="fill:none;stroke:red;stroke-width:1px;stroke-linecap:butt;stroke-linejoin:miter;stroke-opacity:1" d="M 924.633,425.065 910.36,450.043 z" id="boundary" inkscape:connector-curvature="0" />
	<circle cx="4" cy="276.978" r="4" fill="#0" id="circle0"/>
	<circle cx="4" cy="294.82" r="4" fill="#0" id="circle1"/>
	<circle cx="4" cy="312.662" r="4" fill="#0" id="circle2"/>
	<circle cx="12.9209" cy="232.374" r="4" fill="#0" id="circle3"/>
	<circle cx="12.9209" cy="250.216" r="4" fill="#0" id="circle4"/>
	<circle cx="12.9209" cy="328.719" r="4" fill="#0" id="circle5"/>
	<circle cx="12.9209" cy="346.561" r="4" fill="#0" id="circle6"/>
	<circle cx="21.8417" cy="362.619" r="4" fill="#0" id="circle7"/>
	<circle cx="30.7626" cy="205.612" r="4" fill="#0" id="circle8"/>
	<circle cx="30.7626" cy="223.453" r="4" fill="#0" id="circle9"/>
	<circle cx="30.7626" cy="378.676" r="4" fill="#0" id="circle10"/>
	<circle cx="39.6835" cy="178.849" r="4" fill="#0" id="circle11"/>
	<circle cx="39.6835" cy="394.734" r="4" fill="#0" id="circle12"/>
	<circle cx="41.4676" cy="412.576" r="4" fill="#0" id="circle13"/>
	<circle cx="53.9568" cy="164.576" r="4" fill="#0" id="circle14"/>
	<circle cx="55.741" cy="425.065" r="4" fill="#0" id="circle15"/>
	<circle cx="68.2302" cy="439.338" r="4" fill="#0" id="circle16"/>
	<circle cx="71.7986" cy="155.655" r="4" fill="#0" id="circle17"/>
	<circle cx="80.7194" cy="137.813" r="4" fill="#0" id="circle18"/>
	<circle cx="82.5036" cy="451.827" r="4" fill="#0" id="circle19"/>
	<circle cx="94.9928" cy="466.101" r="4" fill="#0" id="circle20"/>
	<circle cx="98.5612" cy="128.892" r="4" fill="#0" id="circle21"/>
	<circle cx="107.482" cy="111.05" r="4" fill="#0" id="circle22"/>
	<circle cx="109.266" cy="478.59" r="4" fill="#0" id="circle23"/>
	<circle cx="125.324" cy="111.05" r="4" fill="#0" id="circle24"/>
	<circle cx="127.108" cy="478.59" r="4" fill="#0" id="circle25"/>
	<circle cx="141.381" cy="102.129" r="4" fill="#0" id="circle26"/>
	<circle cx="143.165" cy="487.511" r="4" fill="#0" id="circle27"/>
	<circle cx="150.302" cy="86.0719" r="4" fill="#0" id="circle28"/>
	<circle cx="152.086" cy="503.568" r="4" fill="#0" id="circle29"/>
	<circle cx="168.144" cy="84.2878" r="4" fill="#0" id="circle30"/>
	<circle cx="169.928" cy="505.353" r="4" fill="#0" id="circle31"/>
	<circle cx="184.201" cy="75.3669" r="4" fill="#0" id="circle32"/>
	<circle cx="185.986" cy="514.273" r="4" fill="#0" id="circle33"/>
	<circle cx="202.043" cy="75.3669" r="4" fill="#0" id="circle34"/>
	<circle cx="203.827" cy="514.273" r="4" fill="#0" id="circle35"/>
	<circle cx="212.748" cy="59.3094" r="4" fill="#0" id="circle36"/>
	<circle cx="212.748" cy="530.331" r="4" fill="#0" id="circle37"/>
	<circle cx="230.59" cy="57.5252" r="4" fill="#0" id="circle38"/>
	<circle cx="230.59" cy="532.115" r="4" fill="#0" id="circle39"/>
	<circle cx="248.432" cy="50.3885" r="4" fill="#0" id="circle40"/>
	<circle cx="248.432" cy="537.468" r="4" fill="#0" id="circle41"/>
	<circle cx="266.273" cy="48.6043" r="4" fill="#0" id="circle42"/>
	<circle cx="266.273" cy="541.036" r="4" fill="#0" id="circle43"/>
	<circle cx="284.115" cy="48.6043" r="4" fill="#0" id="circle44"/>
	<circle cx="284.115" cy="541.036" r="4" fill="#0" id="circle45"/>
	<circle cx="293.036" cy="32.5468" r="4" fill="#0" id="circle46"/>
	<circle cx="293.036" cy="557.094" r="4" fill="#0" id="circle47"/>
	<circle cx="310.878" cy="30.7626" r="4" fill="#0" id="circle48"/>
	<circle cx="310.878" cy="558.878" r="4" fill="#0" id="circle49"/>
	<circle cx="328.719" cy="30.7626" r="4" fill="#0" id="circle50"/>
	<circle cx="328.719" cy="558.878" r="4" fill="#0" id="circle51"/>
	<circle cx="346.561" cy="30.7626" r="4" fill="#0" id="circle52"/>
	<circle cx="346.561" cy="558.878" r="4" fill="#0" id="circle53"/>
	<circle cx="362.619" cy="21.8417" r="4" fill="#0" id="circle54"/>
	<circle cx="362.619" cy="567.799" r="4" fill="#0" id="circle55"/>
	<circle cx="380.46" cy="21.8417" r="4" fill="#0" id="circle56"/>
	<circle cx="380.46" cy="567.799" r="4" fill="#0" id="circle57"/>
	<circle cx="398.302" cy="21.8417" r="4" fill="#0" id="circle58"/>
	<circle cx="398.302" cy="567.799" r="4" fill="#0" id="circle59"/>
	<circle cx="416.144" cy="21.8417" r="4" fill="#0" id="circle60"/>
	<circle cx="416.144" cy="567.799" r="4" fill="#0" id="circle61"/>
	<circle cx="433.986" cy="21.8417" r="4" fill="#0" id="circle62"/>
	<circle cx="433.986" cy="567.799" r="4" fill="#0" id="circle63"/>
	<circle cx="444.691" cy="5.78417" r="4" fill="#0" id="circle64"/>
	<circle cx="444.691" cy="582.072" r="4" fill="#0" id="circle65"/>
	<circle cx="462.532" cy="4" r="4" fill="#0" id="circle66"/>
	<circle cx="462.532" cy="585.64" r="4" fill="#0" id="circle67"/>
	<circle cx="480.374" cy="4" r="4" fill="#0" id="circle68"/>
	<circle cx="480.374" cy="585.64" r="4" fill="#0" id="circle69"/>
	<circle cx="498.216" cy="4" r="4" fill="#0" id="circle70"/>
	<circle cx="498.216" cy="585.64" r="4" fill="#0" id="circle71"/>
	<circle cx="516.058" cy="4" r="4" fill="#0" id="circle72"/>
	<circle cx="516.058" cy="585.64" r="4" fill="#0" id="circle73"/>
	<circle cx="532.115" cy="12.9209" r="4" fill="#0" id="circle74"/>
	<circle cx="533.899" cy="585.64" r="4" fill="#0" id="circle75"/>
	<circle cx="548.173" cy="21.8417" r="4" fill="#0" id="circle76"/>
	<circle cx="551.741" cy="585.64" r="4" fill="#0" id="circle77"/>
	<circle cx="566.014" cy="21.8417" r="4" fill="#0" id="circle78"/>
	<circle cx="569.583" cy="585.64" r="4" fill="#0" id="circle79"/>
	<circle cx="583.856" cy="21.8417" r="4" fill="#0" id="circle80"/>
	<circle cx="583.856" cy="596.345" r="4" fill="#0" id="circle81"/>
	<circle cx="592.777" cy="612.403" r="4" fill="#0" id="circle82"/>
	<circle cx="601.698" cy="21.8417" r="4" fill="#0" id="circle83"/>
	<circle cx="608.835" cy="621.324" r="4" fill="#0" id="circle84"/>
	<circle cx="615.971" cy="639.165" r="4" fill="#0" id="circle85"/>
	<circle cx="619.54" cy="21.8417" r="4" fill="#0" id="circle86"/>
	<circle cx="633.813" cy="646.302" r="4" fill="#0" id="circle87"/>
	<circle cx="637.381" cy="25.4101" r="4" fill="#0" id="circle88"/>
	<circle cx="637.381" cy="664.144" r="4" fill="#0" id="circle89"/>
	<circle cx="651.655" cy="674.849" r="4" fill="#0" id="circle90"/>
	<circle cx="655.223" cy="30.7626" r="4" fill="#0" id="circle91"/>
	<circle cx="664.144" cy="689.122" r="4" fill="#0" id="circle92"/>
	<circle cx="673.065" cy="30.7626" r="4" fill="#0" id="circle93"/>
	<circle cx="673.065" cy="705.18" r="4" fill="#0" id="circle94"/>
	<circle cx="690.906" cy="30.7626" r="4" fill="#0" id="circle95"/>
	<circle cx="690.906" cy="710.532" r="4" fill="#0" id="circle96"/>
	<circle cx="696.259" cy="728.374" r="4" fill="#0" id="circle97"/>
	<circle cx="701.612" cy="45.036" r="4" fill="#0" id="circle98"/>
	<circle cx="712.317" cy="737.295" r="4" fill="#0" id="circle99"/>
	<circle cx="719.453" cy="48.6043" r="4" fill="#0" id="circle100"/>
	<circle cx="721.237" cy="753.353" r="4" fill="#0" id="circle101"/>
	<circle cx="735.511" cy="764.058" r="4" fill="#0" id="circle102"/>
	<circle cx="737.295" cy="48.6043" r="4" fill="#0" id="circle103"/>
	<circle cx="746.216" cy="541.036" r="4" fill="#0" id="circle104"/>
	<circle cx="746.216" cy="778.331" r="4" fill="#0" id="circle105"/>
	<circle cx="749.784" cy="558.878" r="4" fill="#0" id="circle106"/>
	<circle cx="753.353" cy="57.5252" r="4" fill="#0" id="circle107"/>
	<circle cx="755.137" cy="576.719" r="4" fill="#0" id="circle108"/>
	<circle cx="760.489" cy="790.82" r="4" fill="#0" id="circle109"/>
	<circle cx="762.273" cy="532.115" r="4" fill="#0" id="circle110"/>
	<circle cx="764.058" cy="592.777" r="4" fill="#0" id="circle111"/>
	<circle cx="771.194" cy="57.5252" r="4" fill="#0" id="circle112"/>
	<circle cx="772.978" cy="608.835" r="4" fill="#0" id="circle113"/>
	<circle cx="772.978" cy="626.676" r="4" fill="#0" id="circle114"/>
	<circle cx="776.547" cy="799.741" r="4" fill="#0" id="circle115"/>
	<circle cx="780.115" cy="526.763" r="4" fill="#0" id="circle116"/>
	<circle cx="780.115" cy="817.583" r="4" fill="#0" id="circle117"/>
	<circle cx="781.899" cy="71.7986" r="4" fill="#0" id="circle118"/>
	<circle cx="781.899" cy="642.734" r="4" fill="#0" id="circle119"/>
	<circle cx="790.82" cy="831.856" r="4" fill="#0" id="circle120"/>
	<circle cx="794.388" cy="514.273" r="4" fill="#0" id="circle121"/>
	<circle cx="794.388" cy="657.007" r="4" fill="#0" id="circle122"/>
	<circle cx="799.741" cy="75.3669" r="4" fill="#0" id="circle123"/>
	<circle cx="799.741" cy="674.849" r="4" fill="#0" id="circle124"/>
	<circle cx="799.741" cy="692.691" r="4" fill="#0" id="circle125"/>
	<circle cx="805.094" cy="844.345" r="4" fill="#0" id="circle126"/>
	<circle cx="808.662" cy="708.748" r="4" fill="#0" id="circle127"/>
	<circle cx="808.662" cy="726.59" r="4" fill="#0" id="circle128"/>
	<circle cx="812.23" cy="514.273" r="4" fill="#0" id="circle129"/>
	<circle cx="817.583" cy="75.3669" r="4" fill="#0" id="circle130"/>
	<circle cx="817.583" cy="858.619" r="4" fill="#0" id="circle131"/>
	<circle cx="822.935" cy="737.295" r="4" fill="#0" id="circle132"/>
	<circle cx="826.504" cy="755.137" r="4" fill="#0" id="circle133"/>
	<circle cx="826.504" cy="772.978" r="4" fill="#0" id="circle134"/>
	<circle cx="828.288" cy="505.353" r="4" fill="#0" id="circle135"/>
	<circle cx="831.856" cy="871.108" r="4" fill="#0" id="circle136"/>
	<circle cx="833.64" cy="84.2878" r="4" fill="#0" id="circle137"/>
	<circle cx="835.424" cy="789.036" r="4" fill="#0" id="circle138"/>
	<circle cx="835.424" cy="806.878" r="4" fill="#0" id="circle139"/>
	<circle cx="842.561" cy="885.381" r="4" fill="#0" id="circle140"/>
	<circle cx="844.345" cy="98.5612" r="4" fill="#0" id="circle141"/>
	<circle cx="844.345" cy="487.511" r="4" fill="#0" id="circle142"/>
	<circle cx="844.345" cy="822.935" r="4" fill="#0" id="circle143"/>
	<circle cx="853.266" cy="838.993" r="4" fill="#0" id="circle144"/>
	<circle cx="856.835" cy="897.871" r="4" fill="#0" id="circle145"/>
	<circle cx="860.403" cy="107.482" r="4" fill="#0" id="circle146"/>
	<circle cx="862.187" cy="478.59" r="4" fill="#0" id="circle147"/>
	<circle cx="862.187" cy="855.05" r="4" fill="#0" id="circle148"/>
	<circle cx="862.187" cy="872.892" r="4" fill="#0" id="circle149"/>
	<circle cx="878.245" cy="111.05" r="4" fill="#0" id="circle150"/>
	<circle cx="878.245" cy="469.669" r="4" fill="#0" id="circle151"/>
	<circle cx="888.95" cy="125.324" r="4" fill="#0" id="circle152"/>
	<circle cx="896.086" cy="464.317" r="4" fill="#0" id="circle153"/>
	<circle cx="903.223" cy="137.813" r="4" fill="#0" id="circle154"/>
	<circle cx="910.36" cy="450.043" r="4" fill="#0" id="circle155"/>
	<circle cx="915.712" cy="152.086" r="4" fill="#0" id="circle156"/>
	<circle cx="924.633" cy="425.065" r="4" fill="#0" id="circle157"/>
	<circle cx="929.986" cy="164.576" r="4" fill="#0" id="circle158"/>
	<circle cx="942.475" cy="416.144" r="4" fill="#0" id="circle159"/>
	<circle cx="946.043" cy="173.496" r="4" fill="#0" id="circle160"/>
	<circle cx="951.396" cy="191.338" r="4" fill="#0" id="circle161"/>
	<circle cx="951.396" cy="389.381" r="4" fill="#0" id="circle162"/>
	<circle cx="965.669" cy="202.043" r="4" fill="#0" id="circle163"/>
	<circle cx="969.237" cy="219.885" r="4" fill="#0" id="circle164"/>
	<circle cx="969.237" cy="371.54" r="4" fill="#0" id="circle165"/>
	<circle cx="978.158" cy="235.942" r="4" fill="#0" id="circle166"/>
	<circle cx="978.158" cy="253.784" r="4" fill="#0" id="circle167"/>
	<circle cx="978.158" cy="271.626" r="4" fill="#0" id="circle168"/>
	<circle cx="978.158" cy="335.856" r="4" fill="#0" id="circle169"/>
	<circle cx="978.158" cy="353.698" r="4" fill="#0" id="circle170"/>
	<circle cx="996" cy="276.978" r="4" fill="#0" id="circle171"/>
	<circle cx="996" cy="294.82" r="4" fill="#0" id="circle172"/>
	<circle cx="996" cy="312.662" r="4" fill="#0" id="circle173"/>
	<circle cx="996" cy="330.504" r="4" fill="#0" id="circle174"/>
	</g>
</svg>