<?xml version="1.0" encoding="UTF-8" standalone="no"?>
<!-- Created with CurveBenchmark -->
<svg
	xmlns:dc="http://purl.org/dc/elements/1.1/"
	xmlns:cc="http://creativecommons.org/ns#"
	xmlns:rdf="http://www.w3.org/1999/02/22-rdf-syntax-ns#"
	xmlns:svg="http://www.w3.org/2000/svg"
	xmlns="http://www.w3.org/2000/svg"
	xmlns:sodipodi="http://sodipodi.sourceforge.net/DTD/sodipodi-0.dtd"
	xmlns:inkscape="http://www.inkscape.org/namespaces/inkscape"
	width="1000"
	height="1000"
	id="svg2"
	version="1.1"
	sodipodi:docname="manifold/crawl-fish28.png.txt">
<defs
	id="defs4" />
<metadata
	id="metadata7">
	<rdf:RDF>
		<cc:Work
			rdf:about="">
			<dc:format>image/svg+xml</dc:format>
			<dc:type
				rdf:resource="http://purl.org/dc/dcmitype/StillImage" />
			<dc:title></dc:title>
		</cc:Work>
	</rdf:RDF>
</metadata>
<g
	inkscape:label="Layer 1"
	inkscape:groupmode="layer"
	id="layer1">
	<path style="fill:none;stroke:red;stroke-width:1px;stroke-linecap:butt;stroke-linejoin:miter;stroke-opacity:1" d="M 47.7969,4 25.8985,4 z" id="boundary" inkscape:connector-curvature="0" />
	<path style="fill:none;stroke:red;stroke-width:1px;stroke-linecap:butt;stroke-linejoin:miter;stroke-opacity:1" d="M 47.7969,4 69.6954,4 z" id="boundary" inkscape:connector-curvature="0" />
	<path style="fill:none;stroke:red;stroke-width:1px;stroke-linecap:butt;stroke-linejoin:miter;stroke-opacity:1" d="M 69.6954,4 91.5938,8.37969 z" id="boundary" inkscape:connector-curvature="0" />
	<path style="fill:none;stroke:red;stroke-width:1px;stroke-linecap:butt;stroke-linejoin:miter;stroke-opacity:1" d="M 25.8985,4 4,10.5695 z" id="boundary" inkscape:connector-curvature="0" />
	<path style="fill:none;stroke:red;stroke-width:1px;stroke-linecap:butt;stroke-linejoin:miter;stroke-opacity:1" d="M 4,10.5695 4,32.468 z" id="boundary" inkscape:connector-curvature="0" />
	<path style="fill:none;stroke:red;stroke-width:1px;stroke-linecap:butt;stroke-linejoin:miter;stroke-opacity:1" d="M 4,32.468 4,54.3664 z" id="boundary" inkscape:connector-curvature="0" />
	<path style="fill:none;stroke:red;stroke-width:1px;stroke-linecap:butt;stroke-linejoin:miter;stroke-opacity:1" d="M 4,54.3664 4,76.2649 z" id="boundary" inkscape:connector-curvature="0" />
	<path style="fill:none;stroke:red;stroke-width:1px;stroke-linecap:butt;stroke-linejoin:miter;stroke-opacity:1" d="M 4,76.2649 14.9492,95.9735 z" id="boundary" inkscape:connector-curvature="0" />
	<path style="fill:none;stroke:red;stroke-width:1px;stroke-linecap:butt;stroke-linejoin:miter;stroke-opacity:1" d="M 14.9492,95.9735 25.8985,115.682 z" id="boundary" inkscape:connector-curvature="0" />
	<path style="fill:none;stroke:red;stroke-width:1px;stroke-linecap:butt;stroke-linejoin:miter;stroke-opacity:1" d="M 25.8985,115.682 36.8477,135.391 z" id="boundary" inkscape:connector-curvature="0" />
	<path style="fill:none;stroke:red;stroke-width:1px;stroke-linecap:butt;stroke-linejoin:miter;stroke-opacity:1" d="M 36.8477,135.391 49.9868,152.909 z" id="boundary" inkscape:connector-curvature="0" />
	<path style="fill:none;stroke:red;stroke-width:1px;stroke-linecap:butt;stroke-linejoin:miter;stroke-opacity:1" d="M 91.5938,8.37969 113.492,14.9492 z" id="boundary" inkscape:connector-curvature="0" />
	<path style="fill:none;stroke:red;stroke-width:1px;stroke-linecap:butt;stroke-linejoin:miter;stroke-opacity:1" d="M 113.492,14.9492 133.201,25.8985 z" id="boundary" inkscape:connector-curvature="0" />
	<path style="fill:none;stroke:red;stroke-width:1px;stroke-linecap:butt;stroke-linejoin:miter;stroke-opacity:1" d="M 133.201,25.8985 155.099,28.0883 z" id="boundary" inkscape:connector-curvature="0" />
	<path style="fill:none;stroke:red;stroke-width:1px;stroke-linecap:butt;stroke-linejoin:miter;stroke-opacity:1" d="M 49.9868,152.909 58.7461,174.808 z" id="boundary" inkscape:connector-curvature="0" />
	<path style="fill:none;stroke:red;stroke-width:1px;stroke-linecap:butt;stroke-linejoin:miter;stroke-opacity:1" d="M 58.7461,174.808 69.6954,194.517 z" id="boundary" inkscape:connector-curvature="0" />
	<path style="fill:none;stroke:red;stroke-width:1px;stroke-linecap:butt;stroke-linejoin:miter;stroke-opacity:1" d="M 69.6954,194.517 85.0243,212.035 z" id="boundary" inkscape:connector-curvature="0" />
	<path style="fill:none;stroke:red;stroke-width:1px;stroke-linecap:butt;stroke-linejoin:miter;stroke-opacity:1" d="M 85.0243,212.035 102.543,225.174 z" id="boundary" inkscape:connector-curvature="0" />
	<path style="fill:none;stroke:red;stroke-width:1px;stroke-linecap:butt;stroke-linejoin:miter;stroke-opacity:1" d="M 102.543,225.174 113.492,244.883 z" id="boundary" inkscape:connector-curvature="0" />
	<path style="fill:none;stroke:red;stroke-width:1px;stroke-linecap:butt;stroke-linejoin:miter;stroke-opacity:1" d="M 113.492,244.883 126.631,262.402 z" id="boundary" inkscape:connector-curvature="0" />
	<path style="fill:none;stroke:red;stroke-width:1px;stroke-linecap:butt;stroke-linejoin:miter;stroke-opacity:1" d="M 126.631,262.402 141.96,279.921 z" id="boundary" inkscape:connector-curvature="0" />
	<path style="fill:none;stroke:red;stroke-width:1px;stroke-linecap:butt;stroke-linejoin:miter;stroke-opacity:1" d="M 141.96,279.921 157.289,297.439 z" id="boundary" inkscape:connector-curvature="0" />
	<path style="fill:none;stroke:red;stroke-width:1px;stroke-linecap:butt;stroke-linejoin:miter;stroke-opacity:1" d="M 157.289,297.439 168.238,317.148 z" id="boundary" inkscape:connector-curvature="0" />
	<path style="fill:none;stroke:red;stroke-width:1px;stroke-linecap:butt;stroke-linejoin:miter;stroke-opacity:1" d="M 168.238,317.148 168.238,339.046 z" id="boundary" inkscape:connector-curvature="0" />
	<path style="fill:none;stroke:red;stroke-width:1px;stroke-linecap:butt;stroke-linejoin:miter;stroke-opacity:1" d="M 168.238,339.046 179.188,358.755 z" id="boundary" inkscape:connector-curvature="0" />
	<path style="fill:none;stroke:red;stroke-width:1px;stroke-linecap:butt;stroke-linejoin:miter;stroke-opacity:1" d="M 179.188,358.755 190.137,378.464 z" id="boundary" inkscape:connector-curvature="0" />
	<path style="fill:none;stroke:red;stroke-width:1px;stroke-linecap:butt;stroke-linejoin:miter;stroke-opacity:1" d="M 190.137,378.464 203.276,395.982 z" id="boundary" inkscape:connector-curvature="0" />
	<path style="fill:none;stroke:red;stroke-width:1px;stroke-linecap:butt;stroke-linejoin:miter;stroke-opacity:1" d="M 203.276,395.982 225.174,389.413 z" id="boundary" inkscape:connector-curvature="0" />
	<path style="fill:none;stroke:red;stroke-width:1px;stroke-linecap:butt;stroke-linejoin:miter;stroke-opacity:1" d="M 225.174,389.413 247.073,393.792 z" id="boundary" inkscape:connector-curvature="0" />
	<path style="fill:none;stroke:red;stroke-width:1px;stroke-linecap:butt;stroke-linejoin:miter;stroke-opacity:1" d="M 247.073,393.792 262.402,411.311 z" id="boundary" inkscape:connector-curvature="0" />
	<path style="fill:none;stroke:red;stroke-width:1px;stroke-linecap:butt;stroke-linejoin:miter;stroke-opacity:1" d="M 262.402,411.311 279.921,426.64 z" id="boundary" inkscape:connector-curvature="0" />
	<path style="fill:none;stroke:red;stroke-width:1px;stroke-linecap:butt;stroke-linejoin:miter;stroke-opacity:1" d="M 279.921,426.64 295.249,444.159 z" id="boundary" inkscape:connector-curvature="0" />
	<path style="fill:none;stroke:red;stroke-width:1px;stroke-linecap:butt;stroke-linejoin:miter;stroke-opacity:1" d="M 295.249,444.159 314.958,455.108 z" id="boundary" inkscape:connector-curvature="0" />
	<path style="fill:none;stroke:red;stroke-width:1px;stroke-linecap:butt;stroke-linejoin:miter;stroke-opacity:1" d="M 314.958,455.108 332.477,468.247 z" id="boundary" inkscape:connector-curvature="0" />
	<path style="fill:none;stroke:red;stroke-width:1px;stroke-linecap:butt;stroke-linejoin:miter;stroke-opacity:1" d="M 332.477,468.247 347.806,485.766 z" id="boundary" inkscape:connector-curvature="0" />
	<path style="fill:none;stroke:red;stroke-width:1px;stroke-linecap:butt;stroke-linejoin:miter;stroke-opacity:1" d="M 347.806,485.766 365.325,498.905 z" id="boundary" inkscape:connector-curvature="0" />
	<path style="fill:none;stroke:red;stroke-width:1px;stroke-linecap:butt;stroke-linejoin:miter;stroke-opacity:1" d="M 365.325,498.905 378.464,516.424 z" id="boundary" inkscape:connector-curvature="0" />
	<path style="fill:none;stroke:red;stroke-width:1px;stroke-linecap:butt;stroke-linejoin:miter;stroke-opacity:1" d="M 378.464,516.424 395.982,531.753 z" id="boundary" inkscape:connector-curvature="0" />
	<path style="fill:none;stroke:red;stroke-width:1px;stroke-linecap:butt;stroke-linejoin:miter;stroke-opacity:1" d="M 395.982,531.753 409.121,549.272 z" id="boundary" inkscape:connector-curvature="0" />
	<path style="fill:none;stroke:red;stroke-width:1px;stroke-linecap:butt;stroke-linejoin:miter;stroke-opacity:1" d="M 409.121,549.272 409.121,571.17 z" id="boundary" inkscape:connector-curvature="0" />
	<path style="fill:none;stroke:red;stroke-width:1px;stroke-linecap:butt;stroke-linejoin:miter;stroke-opacity:1" d="M 409.121,571.17 420.071,590.879 z" id="boundary" inkscape:connector-curvature="0" />
	<path style="fill:none;stroke:red;stroke-width:1px;stroke-linecap:butt;stroke-linejoin:miter;stroke-opacity:1" d="M 420.071,590.879 420.071,612.777 z" id="boundary" inkscape:connector-curvature="0" />
	<path style="fill:none;stroke:red;stroke-width:1px;stroke-linecap:butt;stroke-linejoin:miter;stroke-opacity:1" d="M 420.071,612.777 431.02,632.486 z" id="boundary" inkscape:connector-curvature="0" />
	<path style="fill:none;stroke:red;stroke-width:1px;stroke-linecap:butt;stroke-linejoin:miter;stroke-opacity:1" d="M 431.02,632.486 446.349,650.004 z" id="boundary" inkscape:connector-curvature="0" />
	<path style="fill:none;stroke:red;stroke-width:1px;stroke-linecap:butt;stroke-linejoin:miter;stroke-opacity:1" d="M 446.349,650.004 468.247,652.194 z" id="boundary" inkscape:connector-curvature="0" />
	<path style="fill:none;stroke:red;stroke-width:1px;stroke-linecap:butt;stroke-linejoin:miter;stroke-opacity:1" d="M 468.247,652.194 487.956,641.245 z" id="boundary" inkscape:connector-curvature="0" />
	<path style="fill:none;stroke:red;stroke-width:1px;stroke-linecap:butt;stroke-linejoin:miter;stroke-opacity:1" d="M 487.956,641.245 507.664,652.194 z" id="boundary" inkscape:connector-curvature="0" />
	<path style="fill:none;stroke:red;stroke-width:1px;stroke-linecap:butt;stroke-linejoin:miter;stroke-opacity:1" d="M 507.664,652.194 527.373,663.143 z" id="boundary" inkscape:connector-curvature="0" />
	<path style="fill:none;stroke:red;stroke-width:1px;stroke-linecap:butt;stroke-linejoin:miter;stroke-opacity:1" d="M 527.373,663.143 542.702,680.662 z" id="boundary" inkscape:connector-curvature="0" />
	<path style="fill:none;stroke:red;stroke-width:1px;stroke-linecap:butt;stroke-linejoin:miter;stroke-opacity:1" d="M 542.702,680.662 551.461,702.561 z" id="boundary" inkscape:connector-curvature="0" />
	<path style="fill:none;stroke:red;stroke-width:1px;stroke-linecap:butt;stroke-linejoin:miter;stroke-opacity:1" d="M 551.461,702.561 562.411,722.269 z" id="boundary" inkscape:connector-curvature="0" />
	<path style="fill:none;stroke:red;stroke-width:1px;stroke-linecap:butt;stroke-linejoin:miter;stroke-opacity:1" d="M 562.411,722.269 573.36,741.978 z" id="boundary" inkscape:connector-curvature="0" />
	<path style="fill:none;stroke:red;stroke-width:1px;stroke-linecap:butt;stroke-linejoin:miter;stroke-opacity:1" d="M 573.36,741.978 584.309,761.687 z" id="boundary" inkscape:connector-curvature="0" />
	<path style="fill:none;stroke:red;stroke-width:1px;stroke-linecap:butt;stroke-linejoin:miter;stroke-opacity:1" d="M 584.309,761.687 604.018,772.636 z" id="boundary" inkscape:connector-curvature="0" />
	<path style="fill:none;stroke:red;stroke-width:1px;stroke-linecap:butt;stroke-linejoin:miter;stroke-opacity:1" d="M 604.018,772.636 625.916,768.256 z" id="boundary" inkscape:connector-curvature="0" />
	<path style="fill:none;stroke:red;stroke-width:1px;stroke-linecap:butt;stroke-linejoin:miter;stroke-opacity:1" d="M 625.916,768.256 641.245,750.737 z" id="boundary" inkscape:connector-curvature="0" />
	<path style="fill:none;stroke:red;stroke-width:1px;stroke-linecap:butt;stroke-linejoin:miter;stroke-opacity:1" d="M 641.245,750.737 663.143,755.117 z" id="boundary" inkscape:connector-curvature="0" />
	<path style="fill:none;stroke:red;stroke-width:1px;stroke-linecap:butt;stroke-linejoin:miter;stroke-opacity:1" d="M 663.143,755.117 678.472,772.636 z" id="boundary" inkscape:connector-curvature="0" />
	<path style="fill:none;stroke:red;stroke-width:1px;stroke-linecap:butt;stroke-linejoin:miter;stroke-opacity:1" d="M 678.472,772.636 693.801,790.155 z" id="boundary" inkscape:connector-curvature="0" />
	<path style="fill:none;stroke:red;stroke-width:1px;stroke-linecap:butt;stroke-linejoin:miter;stroke-opacity:1" d="M 693.801,790.155 704.751,809.863 z" id="boundary" inkscape:connector-curvature="0" />
	<path style="fill:none;stroke:red;stroke-width:1px;stroke-linecap:butt;stroke-linejoin:miter;stroke-opacity:1" d="M 704.751,809.863 715.7,829.572 z" id="boundary" inkscape:connector-curvature="0" />
	<path style="fill:none;stroke:red;stroke-width:1px;stroke-linecap:butt;stroke-linejoin:miter;stroke-opacity:1" d="M 715.7,829.572 726.649,849.28 z" id="boundary" inkscape:connector-curvature="0" />
	<path style="fill:none;stroke:red;stroke-width:1px;stroke-linecap:butt;stroke-linejoin:miter;stroke-opacity:1" d="M 726.649,849.28 737.598,868.989 z" id="boundary" inkscape:connector-curvature="0" />
	<path style="fill:none;stroke:red;stroke-width:1px;stroke-linecap:butt;stroke-linejoin:miter;stroke-opacity:1" d="M 737.598,868.989 741.978,890.887 z" id="boundary" inkscape:connector-curvature="0" />
	<path style="fill:none;stroke:red;stroke-width:1px;stroke-linecap:butt;stroke-linejoin:miter;stroke-opacity:1" d="M 741.978,890.887 748.547,912.786 z" id="boundary" inkscape:connector-curvature="0" />
	<path style="fill:none;stroke:red;stroke-width:1px;stroke-linecap:butt;stroke-linejoin:miter;stroke-opacity:1" d="M 748.547,912.786 759.497,932.494 z" id="boundary" inkscape:connector-curvature="0" />
	<path style="fill:none;stroke:red;stroke-width:1px;stroke-linecap:butt;stroke-linejoin:miter;stroke-opacity:1" d="M 759.497,932.494 770.446,952.203 z" id="boundary" inkscape:connector-curvature="0" />
	<path style="fill:none;stroke:red;stroke-width:1px;stroke-linecap:butt;stroke-linejoin:miter;stroke-opacity:1" d="M 770.446,952.203 781.395,971.912 z" id="boundary" inkscape:connector-curvature="0" />
	<path style="fill:none;stroke:red;stroke-width:1px;stroke-linecap:butt;stroke-linejoin:miter;stroke-opacity:1" d="M 781.395,971.912 792.344,991.62 z" id="boundary" inkscape:connector-curvature="0" />
	<path style="fill:none;stroke:red;stroke-width:1px;stroke-linecap:butt;stroke-linejoin:miter;stroke-opacity:1" d="M 792.344,991.62 814.243,996 z" id="boundary" inkscape:connector-curvature="0" />
	<path style="fill:none;stroke:red;stroke-width:1px;stroke-linecap:butt;stroke-linejoin:miter;stroke-opacity:1" d="M 155.099,28.0883 176.998,36.8477 z" id="boundary" inkscape:connector-curvature="0" />
	<path style="fill:none;stroke:red;stroke-width:1px;stroke-linecap:butt;stroke-linejoin:miter;stroke-opacity:1" d="M 176.998,36.8477 196.706,47.7969 z" id="boundary" inkscape:connector-curvature="0" />
	<path style="fill:none;stroke:red;stroke-width:1px;stroke-linecap:butt;stroke-linejoin:miter;stroke-opacity:1" d="M 196.706,47.7969 216.415,58.7461 z" id="boundary" inkscape:connector-curvature="0" />
	<path style="fill:none;stroke:red;stroke-width:1px;stroke-linecap:butt;stroke-linejoin:miter;stroke-opacity:1" d="M 216.415,58.7461 236.124,69.6954 z" id="boundary" inkscape:connector-curvature="0" />
	<path style="fill:none;stroke:red;stroke-width:1px;stroke-linecap:butt;stroke-linejoin:miter;stroke-opacity:1" d="M 236.124,69.6954 253.642,82.8344 z" id="boundary" inkscape:connector-curvature="0" />
	<path style="fill:none;stroke:red;stroke-width:1px;stroke-linecap:butt;stroke-linejoin:miter;stroke-opacity:1" d="M 253.642,82.8344 273.351,93.7837 z" id="boundary" inkscape:connector-curvature="0" />
	<path style="fill:none;stroke:red;stroke-width:1px;stroke-linecap:butt;stroke-linejoin:miter;stroke-opacity:1" d="M 273.351,93.7837 290.87,109.113 z" id="boundary" inkscape:connector-curvature="0" />
	<path style="fill:none;stroke:red;stroke-width:1px;stroke-linecap:butt;stroke-linejoin:miter;stroke-opacity:1" d="M 290.87,109.113 308.389,124.442 z" id="boundary" inkscape:connector-curvature="0" />
	<path style="fill:none;stroke:red;stroke-width:1px;stroke-linecap:butt;stroke-linejoin:miter;stroke-opacity:1" d="M 308.389,124.442 328.097,135.391 z" id="boundary" inkscape:connector-curvature="0" />
	<path style="fill:none;stroke:red;stroke-width:1px;stroke-linecap:butt;stroke-linejoin:miter;stroke-opacity:1" d="M 328.097,135.391 343.426,152.909 z" id="boundary" inkscape:connector-curvature="0" />
	<path style="fill:none;stroke:red;stroke-width:1px;stroke-linecap:butt;stroke-linejoin:miter;stroke-opacity:1" d="M 343.426,152.909 360.945,168.238 z" id="boundary" inkscape:connector-curvature="0" />
	<path style="fill:none;stroke:red;stroke-width:1px;stroke-linecap:butt;stroke-linejoin:miter;stroke-opacity:1" d="M 360.945,168.238 376.274,185.757 z" id="boundary" inkscape:connector-curvature="0" />
	<path style="fill:none;stroke:red;stroke-width:1px;stroke-linecap:butt;stroke-linejoin:miter;stroke-opacity:1" d="M 376.274,185.757 387.223,205.466 z" id="boundary" inkscape:connector-curvature="0" />
	<path style="fill:none;stroke:red;stroke-width:1px;stroke-linecap:butt;stroke-linejoin:miter;stroke-opacity:1" d="M 387.223,205.466 400.362,222.985 z" id="boundary" inkscape:connector-curvature="0" />
	<path style="fill:none;stroke:red;stroke-width:1px;stroke-linecap:butt;stroke-linejoin:miter;stroke-opacity:1" d="M 400.362,222.985 417.881,236.124 z" id="boundary" inkscape:connector-curvature="0" />
	<path style="fill:none;stroke:red;stroke-width:1px;stroke-linecap:butt;stroke-linejoin:miter;stroke-opacity:1" d="M 417.881,236.124 433.21,253.642 z" id="boundary" inkscape:connector-curvature="0" />
	<path style="fill:none;stroke:red;stroke-width:1px;stroke-linecap:butt;stroke-linejoin:miter;stroke-opacity:1" d="M 433.21,253.642 444.159,273.351 z" id="boundary" inkscape:connector-curvature="0" />
	<path style="fill:none;stroke:red;stroke-width:1px;stroke-linecap:butt;stroke-linejoin:miter;stroke-opacity:1" d="M 444.159,273.351 459.488,290.87 z" id="boundary" inkscape:connector-curvature="0" />
	<path style="fill:none;stroke:red;stroke-width:1px;stroke-linecap:butt;stroke-linejoin:miter;stroke-opacity:1" d="M 459.488,290.87 481.386,299.629 z" id="boundary" inkscape:connector-curvature="0" />
	<path style="fill:none;stroke:red;stroke-width:1px;stroke-linecap:butt;stroke-linejoin:miter;stroke-opacity:1" d="M 481.386,299.629 501.095,310.578 z" id="boundary" inkscape:connector-curvature="0" />
	<path style="fill:none;stroke:red;stroke-width:1px;stroke-linecap:butt;stroke-linejoin:miter;stroke-opacity:1" d="M 501.095,310.578 520.804,321.528 z" id="boundary" inkscape:connector-curvature="0" />
	<path style="fill:none;stroke:red;stroke-width:1px;stroke-linecap:butt;stroke-linejoin:miter;stroke-opacity:1" d="M 520.804,321.528 542.702,328.097 z" id="boundary" inkscape:connector-curvature="0" />
	<path style="fill:none;stroke:red;stroke-width:1px;stroke-linecap:butt;stroke-linejoin:miter;stroke-opacity:1" d="M 542.702,328.097 564.6,332.477 z" id="boundary" inkscape:connector-curvature="0" />
	<path style="fill:none;stroke:red;stroke-width:1px;stroke-linecap:butt;stroke-linejoin:miter;stroke-opacity:1" d="M 564.6,332.477 584.309,343.426 z" id="boundary" inkscape:connector-curvature="0" />
	<path style="fill:none;stroke:red;stroke-width:1px;stroke-linecap:butt;stroke-linejoin:miter;stroke-opacity:1" d="M 584.309,343.426 604.018,354.375 z" id="boundary" inkscape:connector-curvature="0" />
	<path style="fill:none;stroke:red;stroke-width:1px;stroke-linecap:butt;stroke-linejoin:miter;stroke-opacity:1" d="M 604.018,354.375 623.726,365.325 z" id="boundary" inkscape:connector-curvature="0" />
	<path style="fill:none;stroke:red;stroke-width:1px;stroke-linecap:butt;stroke-linejoin:miter;stroke-opacity:1" d="M 623.726,365.325 639.055,382.843 z" id="boundary" inkscape:connector-curvature="0" />
	<path style="fill:none;stroke:red;stroke-width:1px;stroke-linecap:butt;stroke-linejoin:miter;stroke-opacity:1" d="M 639.055,382.843 641.245,404.742 z" id="boundary" inkscape:connector-curvature="0" />
	<path style="fill:none;stroke:red;stroke-width:1px;stroke-linecap:butt;stroke-linejoin:miter;stroke-opacity:1" d="M 814.243,996 827.382,969.722 z" id="boundary" inkscape:connector-curvature="0" />
	<path style="fill:none;stroke:red;stroke-width:1px;stroke-linecap:butt;stroke-linejoin:miter;stroke-opacity:1" d="M 827.382,969.722 827.382,947.823 z" id="boundary" inkscape:connector-curvature="0" />
	<path style="fill:none;stroke:red;stroke-width:1px;stroke-linecap:butt;stroke-linejoin:miter;stroke-opacity:1" d="M 827.382,947.823 827.382,925.925 z" id="boundary" inkscape:connector-curvature="0" />
	<path style="fill:none;stroke:red;stroke-width:1px;stroke-linecap:butt;stroke-linejoin:miter;stroke-opacity:1" d="M 827.382,925.925 827.382,904.026 z" id="boundary" inkscape:connector-curvature="0" />
	<path style="fill:none;stroke:red;stroke-width:1px;stroke-linecap:butt;stroke-linejoin:miter;stroke-opacity:1" d="M 827.382,904.026 827.382,882.128 z" id="boundary" inkscape:connector-curvature="0" />
	<path style="fill:none;stroke:red;stroke-width:1px;stroke-linecap:butt;stroke-linejoin:miter;stroke-opacity:1" d="M 827.382,882.128 847.091,871.179 z" id="boundary" inkscape:connector-curvature="0" />
	<path style="fill:none;stroke:red;stroke-width:1px;stroke-linecap:butt;stroke-linejoin:miter;stroke-opacity:1" d="M 847.091,871.179 866.799,882.128 z" id="boundary" inkscape:connector-curvature="0" />
	<path style="fill:none;stroke:red;stroke-width:1px;stroke-linecap:butt;stroke-linejoin:miter;stroke-opacity:1" d="M 866.799,882.128 888.698,877.748 z" id="boundary" inkscape:connector-curvature="0" />
	<path style="fill:none;stroke:red;stroke-width:1px;stroke-linecap:butt;stroke-linejoin:miter;stroke-opacity:1" d="M 888.698,877.748 910.596,871.179 z" id="boundary" inkscape:connector-curvature="0" />
	<path style="fill:none;stroke:red;stroke-width:1px;stroke-linecap:butt;stroke-linejoin:miter;stroke-opacity:1" d="M 910.596,871.179 932.494,866.799 z" id="boundary" inkscape:connector-curvature="0" />
	<path style="fill:none;stroke:red;stroke-width:1px;stroke-linecap:butt;stroke-linejoin:miter;stroke-opacity:1" d="M 641.245,404.742 630.296,433.21 z" id="boundary" inkscape:connector-curvature="0" />
	<path style="fill:none;stroke:red;stroke-width:1px;stroke-linecap:butt;stroke-linejoin:miter;stroke-opacity:1" d="M 630.296,433.21 614.967,461.678 z" id="boundary" inkscape:connector-curvature="0" />
	<path style="fill:none;stroke:red;stroke-width:1px;stroke-linecap:butt;stroke-linejoin:miter;stroke-opacity:1" d="M 614.967,461.678 597.448,477.007 z" id="boundary" inkscape:connector-curvature="0" />
	<path style="fill:none;stroke:red;stroke-width:1px;stroke-linecap:butt;stroke-linejoin:miter;stroke-opacity:1" d="M 597.448,477.007 608.397,496.715 z" id="boundary" inkscape:connector-curvature="0" />
	<path style="fill:none;stroke:red;stroke-width:1px;stroke-linecap:butt;stroke-linejoin:miter;stroke-opacity:1" d="M 608.397,496.715 619.347,516.424 z" id="boundary" inkscape:connector-curvature="0" />
	<path style="fill:none;stroke:red;stroke-width:1px;stroke-linecap:butt;stroke-linejoin:miter;stroke-opacity:1" d="M 619.347,516.424 636.865,531.753 z" id="boundary" inkscape:connector-curvature="0" />
	<path style="fill:none;stroke:red;stroke-width:1px;stroke-linecap:butt;stroke-linejoin:miter;stroke-opacity:1" d="M 636.865,531.753 645.625,553.651 z" id="boundary" inkscape:connector-curvature="0" />
	<path style="fill:none;stroke:red;stroke-width:1px;stroke-linecap:butt;stroke-linejoin:miter;stroke-opacity:1" d="M 645.625,553.651 663.143,568.98 z" id="boundary" inkscape:connector-curvature="0" />
	<path style="fill:none;stroke:red;stroke-width:1px;stroke-linecap:butt;stroke-linejoin:miter;stroke-opacity:1" d="M 663.143,568.98 671.903,590.879 z" id="boundary" inkscape:connector-curvature="0" />
	<path style="fill:none;stroke:red;stroke-width:1px;stroke-linecap:butt;stroke-linejoin:miter;stroke-opacity:1" d="M 671.903,590.879 693.801,599.638 z" id="boundary" inkscape:connector-curvature="0" />
	<path style="fill:none;stroke:red;stroke-width:1px;stroke-linecap:butt;stroke-linejoin:miter;stroke-opacity:1" d="M 693.801,599.638 713.51,610.587 z" id="boundary" inkscape:connector-curvature="0" />
	<path style="fill:none;stroke:red;stroke-width:1px;stroke-linecap:butt;stroke-linejoin:miter;stroke-opacity:1" d="M 713.51,610.587 728.839,628.106 z" id="boundary" inkscape:connector-curvature="0" />
	<path style="fill:none;stroke:red;stroke-width:1px;stroke-linecap:butt;stroke-linejoin:miter;stroke-opacity:1" d="M 728.839,628.106 728.839,663.143 z" id="boundary" inkscape:connector-curvature="0" />
	<path style="fill:none;stroke:red;stroke-width:1px;stroke-linecap:butt;stroke-linejoin:miter;stroke-opacity:1" d="M 728.839,663.143 728.839,685.042 z" id="boundary" inkscape:connector-curvature="0" />
	<path style="fill:none;stroke:red;stroke-width:1px;stroke-linecap:butt;stroke-linejoin:miter;stroke-opacity:1" d="M 728.839,685.042 739.788,704.751 z" id="boundary" inkscape:connector-curvature="0" />
	<path style="fill:none;stroke:red;stroke-width:1px;stroke-linecap:butt;stroke-linejoin:miter;stroke-opacity:1" d="M 739.788,704.751 750.737,724.459 z" id="boundary" inkscape:connector-curvature="0" />
	<path style="fill:none;stroke:red;stroke-width:1px;stroke-linecap:butt;stroke-linejoin:miter;stroke-opacity:1" d="M 750.737,724.459 768.256,737.598 z" id="boundary" inkscape:connector-curvature="0" />
	<path style="fill:none;stroke:red;stroke-width:1px;stroke-linecap:butt;stroke-linejoin:miter;stroke-opacity:1" d="M 768.256,737.598 787.965,748.547 z" id="boundary" inkscape:connector-curvature="0" />
	<path style="fill:none;stroke:red;stroke-width:1px;stroke-linecap:butt;stroke-linejoin:miter;stroke-opacity:1" d="M 787.965,748.547 803.294,766.066 z" id="boundary" inkscape:connector-curvature="0" />
	<path style="fill:none;stroke:red;stroke-width:1px;stroke-linecap:butt;stroke-linejoin:miter;stroke-opacity:1" d="M 803.294,766.066 825.192,774.826 z" id="boundary" inkscape:connector-curvature="0" />
	<path style="fill:none;stroke:red;stroke-width:1px;stroke-linecap:butt;stroke-linejoin:miter;stroke-opacity:1" d="M 825.192,774.826 844.901,785.775 z" id="boundary" inkscape:connector-curvature="0" />
	<path style="fill:none;stroke:red;stroke-width:1px;stroke-linecap:butt;stroke-linejoin:miter;stroke-opacity:1" d="M 844.901,785.775 866.799,794.534 z" id="boundary" inkscape:connector-curvature="0" />
	<path style="fill:none;stroke:red;stroke-width:1px;stroke-linecap:butt;stroke-linejoin:miter;stroke-opacity:1" d="M 866.799,794.534 882.128,812.053 z" id="boundary" inkscape:connector-curvature="0" />
	<path style="fill:none;stroke:red;stroke-width:1px;stroke-linecap:butt;stroke-linejoin:miter;stroke-opacity:1" d="M 882.128,812.053 904.026,820.812 z" id="boundary" inkscape:connector-curvature="0" />
	<path style="fill:none;stroke:red;stroke-width:1px;stroke-linecap:butt;stroke-linejoin:miter;stroke-opacity:1" d="M 904.026,820.812 923.735,831.762 z" id="boundary" inkscape:connector-curvature="0" />
	<path style="fill:none;stroke:red;stroke-width:1px;stroke-linecap:butt;stroke-linejoin:miter;stroke-opacity:1" d="M 923.735,831.762 932.494,866.799 z" id="boundary" inkscape:connector-curvature="0" />
	<circle cx="4" cy="10.5695" r="4" fill="#0" id="circle0"/>
	<circle cx="4" cy="32.468" r="4" fill="#0" id="circle1"/>
	<circle cx="4" cy="54.3664" r="4" fill="#0" id="circle2"/>
	<circle cx="4" cy="76.2649" r="4" fill="#0" id="circle3"/>
	<circle cx="14.9492" cy="95.9735" r="4" fill="#0" id="circle4"/>
	<circle cx="25.8985" cy="4" r="4" fill="#0" id="circle5"/>
	<circle cx="25.8985" cy="115.682" r="4" fill="#0" id="circle6"/>
	<circle cx="36.8477" cy="135.391" r="4" fill="#0" id="circle7"/>
	<circle cx="47.7969" cy="4" r="4" fill="#0" id="circle8"/>
	<circle cx="49.9868" cy="152.909" r="4" fill="#0" id="circle9"/>
	<circle cx="58.7461" cy="174.808" r="4" fill="#0" id="circle10"/>
	<circle cx="69.6954" cy="4" r="4" fill="#0" id="circle11"/>
	<circle cx="69.6954" cy="194.517" r="4" fill="#0" id="circle12"/>
	<circle cx="85.0243" cy="212.035" r="4" fill="#0" id="circle13"/>
	<circle cx="91.5938" cy="8.37969" r="4" fill="#0" id="circle14"/>
	<circle cx="102.543" cy="225.174" r="4" fill="#0" id="circle15"/>
	<circle cx="113.492" cy="14.9492" r="4" fill="#0" id="circle16"/>
	<circle cx="113.492" cy="244.883" r="4" fill="#0" id="circle17"/>
	<circle cx="126.631" cy="262.402" r="4" fill="#0" id="circle18"/>
	<circle cx="133.201" cy="25.8985" r="4" fill="#0" id="circle19"/>
	<circle cx="141.96" cy="279.921" r="4" fill="#0" id="circle20"/>
	<circle cx="155.099" cy="28.0883" r="4" fill="#0" id="circle21"/>
	<circle cx="157.289" cy="297.439" r="4" fill="#0" id="circle22"/>
	<circle cx="168.238" cy="317.148" r="4" fill="#0" id="circle23"/>
	<circle cx="168.238" cy="339.046" r="4" fill="#0" id="circle24"/>
	<circle cx="176.998" cy="36.8477" r="4" fill="#0" id="circle25"/>
	<circle cx="179.188" cy="358.755" r="4" fill="#0" id="circle26"/>
	<circle cx="190.137" cy="378.464" r="4" fill="#0" id="circle27"/>
	<circle cx="196.706" cy="47.7969" r="4" fill="#0" id="circle28"/>
	<circle cx="203.276" cy="395.982" r="4" fill="#0" id="circle29"/>
	<circle cx="216.415" cy="58.7461" r="4" fill="#0" id="circle30"/>
	<circle cx="225.174" cy="389.413" r="4" fill="#0" id="circle31"/>
	<circle cx="236.124" cy="69.6954" r="4" fill="#0" id="circle32"/>
	<circle cx="247.073" cy="393.792" r="4" fill="#0" id="circle33"/>
	<circle cx="253.642" cy="82.8344" r="4" fill="#0" id="circle34"/>
	<circle cx="262.402" cy="411.311" r="4" fill="#0" id="circle35"/>
	<circle cx="273.351" cy="93.7837" r="4" fill="#0" id="circle36"/>
	<circle cx="279.921" cy="426.64" r="4" fill="#0" id="circle37"/>
	<circle cx="290.87" cy="109.113" r="4" fill="#0" id="circle38"/>
	<circle cx="295.249" cy="444.159" r="4" fill="#0" id="circle39"/>
	<circle cx="308.389" cy="124.442" r="4" fill="#0" id="circle40"/>
	<circle cx="314.958" cy="455.108" r="4" fill="#0" id="circle41"/>
	<circle cx="328.097" cy="135.391" r="4" fill="#0" id="circle42"/>
	<circle cx="332.477" cy="468.247" r="4" fill="#0" id="circle43"/>
	<circle cx="343.426" cy="152.909" r="4" fill="#0" id="circle44"/>
	<circle cx="347.806" cy="485.766" r="4" fill="#0" id="circle45"/>
	<circle cx="360.945" cy="168.238" r="4" fill="#0" id="circle46"/>
	<circle cx="365.325" cy="498.905" r="4" fill="#0" id="circle47"/>
	<circle cx="376.274" cy="185.757" r="4" fill="#0" id="circle48"/>
	<circle cx="378.464" cy="516.424" r="4" fill="#0" id="circle49"/>
	<circle cx="387.223" cy="205.466" r="4" fill="#0" id="circle50"/>
	<circle cx="395.982" cy="531.753" r="4" fill="#0" id="circle51"/>
	<circle cx="400.362" cy="222.985" r="4" fill="#0" id="circle52"/>
	<circle cx="409.121" cy="549.272" r="4" fill="#0" id="circle53"/>
	<circle cx="409.121" cy="571.17" r="4" fill="#0" id="circle54"/>
	<circle cx="417.881" cy="236.124" r="4" fill="#0" id="circle55"/>
	<circle cx="420.071" cy="590.879" r="4" fill="#0" id="circle56"/>
	<circle cx="420.071" cy="612.777" r="4" fill="#0" id="circle57"/>
	<circle cx="431.02" cy="632.486" r="4" fill="#0" id="circle58"/>
	<circle cx="433.21" cy="253.642" r="4" fill="#0" id="circle59"/>
	<circle cx="444.159" cy="273.351" r="4" fill="#0" id="circle60"/>
	<circle cx="446.349" cy="650.004" r="4" fill="#0" id="circle61"/>
	<circle cx="459.488" cy="290.87" r="4" fill="#0" id="circle62"/>
	<circle cx="468.247" cy="652.194" r="4" fill="#0" id="circle63"/>
	<circle cx="481.386" cy="299.629" r="4" fill="#0" id="circle64"/>
	<circle cx="487.956" cy="641.245" r="4" fill="#0" id="circle65"/>
	<circle cx="501.095" cy="310.578" r="4" fill="#0" id="circle66"/>
	<circle cx="507.664" cy="652.194" r="4" fill="#0" id="circle67"/>
	<circle cx="520.804" cy="321.528" r="4" fill="#0" id="circle68"/>
	<circle cx="527.373" cy="663.143" r="4" fill="#0" id="circle69"/>
	<circle cx="542.702" cy="328.097" r="4" fill="#0" id="circle70"/>
	<circle cx="542.702" cy="680.662" r="4" fill="#0" id="circle71"/>
	<circle cx="551.461" cy="702.561" r="4" fill="#0" id="circle72"/>
	<circle cx="562.411" cy="722.269" r="4" fill="#0" id="circle73"/>
	<circle cx="564.6" cy="332.477" r="4" fill="#0" id="circle74"/>
	<circle cx="573.36" cy="741.978" r="4" fill="#0" id="circle75"/>
	<circle cx="584.309" cy="343.426" r="4" fill="#0" id="circle76"/>
	<circle cx="584.309" cy="761.687" r="4" fill="#0" id="circle77"/>
	<circle cx="597.448" cy="477.007" r="4" fill="#0" id="circle78"/>
	<circle cx="604.018" cy="354.375" r="4" fill="#0" id="circle79"/>
	<circle cx="604.018" cy="772.636" r="4" fill="#0" id="circle80"/>
	<circle cx="608.397" cy="496.715" r="4" fill="#0" id="circle81"/>
	<circle cx="614.967" cy="461.678" r="4" fill="#0" id="circle82"/>
	<circle cx="619.347" cy="516.424" r="4" fill="#0" id="circle83"/>
	<circle cx="623.726" cy="365.325" r="4" fill="#0" id="circle84"/>
	<circle cx="625.916" cy="768.256" r="4" fill="#0" id="circle85"/>
	<circle cx="630.296" cy="433.21" r="4" fill="#0" id="circle86"/>
	<circle cx="636.865" cy="531.753" r="4" fill="#0" id="circle87"/>
	<circle cx="639.055" cy="382.843" r="4" fill="#0" id="circle88"/>
	<circle cx="641.245" cy="404.742" r="4" fill="#0" id="circle89"/>
	<circle cx="641.245" cy="750.737" r="4" fill="#0" id="circle90"/>
	<circle cx="645.625" cy="553.651" r="4" fill="#0" id="circle91"/>
	<circle cx="663.143" cy="568.98" r="4" fill="#0" id="circle92"/>
	<circle cx="663.143" cy="755.117" r="4" fill="#0" id="circle93"/>
	<circle cx="671.903" cy="590.879" r="4" fill="#0" id="circle94"/>
	<circle cx="678.472" cy="772.636" r="4" fill="#0" id="circle95"/>
	<circle cx="693.801" cy="599.638" r="4" fill="#0" id="circle96"/>
	<circle cx="693.801" cy="790.155" r="4" fill="#0" id="circle97"/>
	<circle cx="704.751" cy="809.863" r="4" fill="#0" id="circle98"/>
	<circle cx="713.51" cy="610.587" r="4" fill="#0" id="circle99"/>
	<circle cx="715.7" cy="829.572" r="4" fill="#0" id="circle100"/>
	<circle cx="726.649" cy="849.28" r="4" fill="#0" id="circle101"/>
	<circle cx="728.839" cy="628.106" r="4" fill="#0" id="circle102"/>
	<circle cx="728.839" cy="663.143" r="4" fill="#0" id="circle103"/>
	<circle cx="728.839" cy="685.042" r="4" fill="#0" id="circle104"/>
	<circle cx="737.598" cy="868.989" r="4" fill="#0" id="circle105"/>
	<circle cx="739.788" cy="704.751" r="4" fill="#0" id="circle106"/>
	<circle cx="741.978" cy="890.887" r="4" fill="#0" id="circle107"/>
	<circle cx="748.547" cy="912.786" r="4" fill="#0" id="circle108"/>
	<circle cx="750.737" cy="724.459" r="4" fill="#0" id="circle109"/>
	<circle cx="759.497" cy="932.494" r="4" fill="#0" id="circle110"/>
	<circle cx="768.256" cy="737.598" r="4" fill="#0" id="circle111"/>
	<circle cx="770.446" cy="952.203" r="4" fill="#0" id="circle112"/>
	<circle cx="781.395" cy="971.912" r="4" fill="#0" id="circle113"/>
	<circle cx="787.965" cy="748.547" r="4" fill="#0" id="circle114"/>
	<circle cx="792.344" cy="991.62" r="4" fill="#0" id="circle115"/>
	<circle cx="803.294" cy="766.066" r="4" fill="#0" id="circle116"/>
	<circle cx="814.243" cy="996" r="4" fill="#0" id="circle117"/>
	<circle cx="825.192" cy="774.826" r="4" fill="#0" id="circle118"/>
	<circle cx="827.382" cy="882.128" r="4" fill="#0" id="circle119"/>
	<circle cx="827.382" cy="904.026" r="4" fill="#0" id="circle120"/>
	<circle cx="827.382" cy="925.925" r="4" fill="#0" id="circle121"/>
	<circle cx="827.382" cy="947.823" r="4" fill="#0" id="circle122"/>
	<circle cx="827.382" cy="969.722" r="4" fill="#0" id="circle123"/>
	<circle cx="844.901" cy="785.775" r="4" fill="#0" id="circle124"/>
	<circle cx="847.091" cy="871.179" r="4" fill="#0" id="circle125"/>
	<circle cx="866.799" cy="794.534" r="4" fill="#0" id="circle126"/>
	<circle cx="866.799" cy="882.128" r="4" fill="#0" id="circle127"/>
	<circle cx="882.128" cy="812.053" r="4" fill="#0" id="circle128"/>
	<circle cx="888.698" cy="877.748" r="4" fill="#0" id="circle129"/>
	<circle cx="904.026" cy="820.812" r="4" fill="#0" id="circle130"/>
	<circle cx="910.596" cy="871.179" r="4" fill="#0" id="circle131"/>
	<circle cx="923.735" cy="831.762" r="4" fill="#0" id="circle132"/>
	<circle cx="932.494" cy="866.799" r="4" fill="#0" id="circle133"/>
	</g>
</svg>