<?xml version="1.0" encoding="UTF-8" standalone="no"?>
<!-- Created with CurveBenchmark -->
<svg
	xmlns:dc="http://purl.org/dc/elements/1.1/"
	xmlns:cc="http://creativecommons.org/ns#"
	xmlns:rdf="http://www.w3.org/1999/02/22-rdf-syntax-ns#"
	xmlns:svg="http://www.w3.org/2000/svg"
	xmlns="http://www.w3.org/2000/svg"
	xmlns:sodipodi="http://sodipodi.sourceforge.net/DTD/sodipodi-0.dtd"
	xmlns:inkscape="http://www.inkscape.org/namespaces/inkscape"
	width="1000"
	height="1000"
	id="svg2"
	version="1.1"
	sodipodi:docname="manifold/crawl-hammer095.png.txt">
<defs
	id="defs4" />
<metadata
	id="metadata7">
	<rdf:RDF>
		<cc:Work
			rdf:about="">
			<dc:format>image/svg+xml</dc:format>
			<dc:type
				rdf:resource="http://purl.org/dc/dcmitype/StillImage" />
			<dc:title></dc:title>
		</cc:Work>
	</rdf:RDF>
</metadata>
<g
	inkscape:label="Layer 1"
	inkscape:groupmode="layer"
	id="layer1">
	<path style="fill:none;stroke:red;stroke-width:1px;stroke-linecap:butt;stroke-linejoin:miter;stroke-opacity:1" d="M 9.75072,61.5072 9.75072,32.7536 z" id="boundary" inkscape:connector-curvature="0" />
	<path style="fill:none;stroke:red;stroke-width:1px;stroke-linecap:butt;stroke-linejoin:miter;stroke-opacity:1" d="M 9.75072,61.5072 21.2522,90.2609 z" id="boundary" inkscape:connector-curvature="0" />
	<path style="fill:none;stroke:red;stroke-width:1px;stroke-linecap:butt;stroke-linejoin:miter;stroke-opacity:1" d="M 21.2522,90.2609 21.2522,119.014 z" id="boundary" inkscape:connector-curvature="0" />
	<path style="fill:none;stroke:red;stroke-width:1px;stroke-linecap:butt;stroke-linejoin:miter;stroke-opacity:1" d="M 21.2522,119.014 27.0029,147.768 z" id="boundary" inkscape:connector-curvature="0" />
	<path style="fill:none;stroke:red;stroke-width:1px;stroke-linecap:butt;stroke-linejoin:miter;stroke-opacity:1" d="M 27.0029,147.768 29.8783,176.522 z" id="boundary" inkscape:connector-curvature="0" />
	<path style="fill:none;stroke:red;stroke-width:1px;stroke-linecap:butt;stroke-linejoin:miter;stroke-opacity:1" d="M 29.8783,176.522 35.629,205.275 z" id="boundary" inkscape:connector-curvature="0" />
	<path style="fill:none;stroke:red;stroke-width:1px;stroke-linecap:butt;stroke-linejoin:miter;stroke-opacity:1" d="M 35.629,205.275 38.5043,234.029 z" id="boundary" inkscape:connector-curvature="0" />
	<path style="fill:none;stroke:red;stroke-width:1px;stroke-linecap:butt;stroke-linejoin:miter;stroke-opacity:1" d="M 38.5043,234.029 38.5043,262.783 z" id="boundary" inkscape:connector-curvature="0" />
	<path style="fill:none;stroke:red;stroke-width:1px;stroke-linecap:butt;stroke-linejoin:miter;stroke-opacity:1" d="M 38.5043,262.783 38.5043,291.536 z" id="boundary" inkscape:connector-curvature="0" />
	<path style="fill:none;stroke:red;stroke-width:1px;stroke-linecap:butt;stroke-linejoin:miter;stroke-opacity:1" d="M 38.5043,291.536 38.5043,320.29 z" id="boundary" inkscape:connector-curvature="0" />
	<path style="fill:none;stroke:red;stroke-width:1px;stroke-linecap:butt;stroke-linejoin:miter;stroke-opacity:1" d="M 38.5043,320.29 38.5043,349.043 z" id="boundary" inkscape:connector-curvature="0" />
	<path style="fill:none;stroke:red;stroke-width:1px;stroke-linecap:butt;stroke-linejoin:miter;stroke-opacity:1" d="M 38.5043,349.043 38.5043,377.797 z" id="boundary" inkscape:connector-curvature="0" />
	<path style="fill:none;stroke:red;stroke-width:1px;stroke-linecap:butt;stroke-linejoin:miter;stroke-opacity:1" d="M 38.5043,377.797 38.5043,406.551 z" id="boundary" inkscape:connector-curvature="0" />
	<path style="fill:none;stroke:red;stroke-width:1px;stroke-linecap:butt;stroke-linejoin:miter;stroke-opacity:1" d="M 38.5043,406.551 32.7536,435.304 z" id="boundary" inkscape:connector-curvature="0" />
	<path style="fill:none;stroke:red;stroke-width:1px;stroke-linecap:butt;stroke-linejoin:miter;stroke-opacity:1" d="M 9.75072,32.7536 27.0029,4 z" id="boundary" inkscape:connector-curvature="0" />
	<path style="fill:none;stroke:red;stroke-width:1px;stroke-linecap:butt;stroke-linejoin:miter;stroke-opacity:1" d="M 27.0029,4 55.7565,4 z" id="boundary" inkscape:connector-curvature="0" />
	<path style="fill:none;stroke:red;stroke-width:1px;stroke-linecap:butt;stroke-linejoin:miter;stroke-opacity:1" d="M 55.7565,4 84.5101,4 z" id="boundary" inkscape:connector-curvature="0" />
	<path style="fill:none;stroke:red;stroke-width:1px;stroke-linecap:butt;stroke-linejoin:miter;stroke-opacity:1" d="M 84.5101,4 113.264,4 z" id="boundary" inkscape:connector-curvature="0" />
	<path style="fill:none;stroke:red;stroke-width:1px;stroke-linecap:butt;stroke-linejoin:miter;stroke-opacity:1" d="M 113.264,4 121.89,32.7536 z" id="boundary" inkscape:connector-curvature="0" />
	<path style="fill:none;stroke:red;stroke-width:1px;stroke-linecap:butt;stroke-linejoin:miter;stroke-opacity:1" d="M 121.89,32.7536 127.641,61.5072 z" id="boundary" inkscape:connector-curvature="0" />
	<path style="fill:none;stroke:red;stroke-width:1px;stroke-linecap:butt;stroke-linejoin:miter;stroke-opacity:1" d="M 127.641,61.5072 133.391,90.2609 z" id="boundary" inkscape:connector-curvature="0" />
	<path style="fill:none;stroke:red;stroke-width:1px;stroke-linecap:butt;stroke-linejoin:miter;stroke-opacity:1" d="M 133.391,90.2609 139.142,119.014 z" id="boundary" inkscape:connector-curvature="0" />
	<path style="fill:none;stroke:red;stroke-width:1px;stroke-linecap:butt;stroke-linejoin:miter;stroke-opacity:1" d="M 139.142,119.014 139.142,147.768 z" id="boundary" inkscape:connector-curvature="0" />
	<path style="fill:none;stroke:red;stroke-width:1px;stroke-linecap:butt;stroke-linejoin:miter;stroke-opacity:1" d="M 139.142,147.768 133.391,179.397 z" id="boundary" inkscape:connector-curvature="0" />
	<path style="fill:none;stroke:red;stroke-width:1px;stroke-linecap:butt;stroke-linejoin:miter;stroke-opacity:1" d="M 133.391,179.397 104.638,188.023 z" id="boundary" inkscape:connector-curvature="0" />
	<path style="fill:none;stroke:red;stroke-width:1px;stroke-linecap:butt;stroke-linejoin:miter;stroke-opacity:1" d="M 104.638,188.023 98.887,234.029 z" id="boundary" inkscape:connector-curvature="0" />
	<path style="fill:none;stroke:red;stroke-width:1px;stroke-linecap:butt;stroke-linejoin:miter;stroke-opacity:1" d="M 98.887,234.029 98.887,262.783 z" id="boundary" inkscape:connector-curvature="0" />
	<path style="fill:none;stroke:red;stroke-width:1px;stroke-linecap:butt;stroke-linejoin:miter;stroke-opacity:1" d="M 98.887,262.783 98.887,291.536 z" id="boundary" inkscape:connector-curvature="0" />
	<path style="fill:none;stroke:red;stroke-width:1px;stroke-linecap:butt;stroke-linejoin:miter;stroke-opacity:1" d="M 98.887,291.536 98.887,320.29 z" id="boundary" inkscape:connector-curvature="0" />
	<path style="fill:none;stroke:red;stroke-width:1px;stroke-linecap:butt;stroke-linejoin:miter;stroke-opacity:1" d="M 98.887,320.29 98.887,349.043 z" id="boundary" inkscape:connector-curvature="0" />
	<path style="fill:none;stroke:red;stroke-width:1px;stroke-linecap:butt;stroke-linejoin:miter;stroke-opacity:1" d="M 98.887,349.043 98.887,377.797 z" id="boundary" inkscape:connector-curvature="0" />
	<path style="fill:none;stroke:red;stroke-width:1px;stroke-linecap:butt;stroke-linejoin:miter;stroke-opacity:1" d="M 98.887,377.797 98.887,406.551 z" id="boundary" inkscape:connector-curvature="0" />
	<path style="fill:none;stroke:red;stroke-width:1px;stroke-linecap:butt;stroke-linejoin:miter;stroke-opacity:1" d="M 98.887,406.551 104.638,435.304 z" id="boundary" inkscape:connector-curvature="0" />
	<path style="fill:none;stroke:red;stroke-width:1px;stroke-linecap:butt;stroke-linejoin:miter;stroke-opacity:1" d="M 104.638,435.304 110.388,464.058 z" id="boundary" inkscape:connector-curvature="0" />
	<path style="fill:none;stroke:red;stroke-width:1px;stroke-linecap:butt;stroke-linejoin:miter;stroke-opacity:1" d="M 110.388,464.058 127.641,487.061 z" id="boundary" inkscape:connector-curvature="0" />
	<path style="fill:none;stroke:red;stroke-width:1px;stroke-linecap:butt;stroke-linejoin:miter;stroke-opacity:1" d="M 127.641,487.061 127.641,515.814 z" id="boundary" inkscape:connector-curvature="0" />
	<path style="fill:none;stroke:red;stroke-width:1px;stroke-linecap:butt;stroke-linejoin:miter;stroke-opacity:1" d="M 127.641,515.814 127.641,544.568 z" id="boundary" inkscape:connector-curvature="0" />
	<path style="fill:none;stroke:red;stroke-width:1px;stroke-linecap:butt;stroke-linejoin:miter;stroke-opacity:1" d="M 127.641,544.568 127.641,573.322 z" id="boundary" inkscape:connector-curvature="0" />
	<path style="fill:none;stroke:red;stroke-width:1px;stroke-linecap:butt;stroke-linejoin:miter;stroke-opacity:1" d="M 127.641,573.322 127.641,602.075 z" id="boundary" inkscape:connector-curvature="0" />
	<path style="fill:none;stroke:red;stroke-width:1px;stroke-linecap:butt;stroke-linejoin:miter;stroke-opacity:1" d="M 127.641,602.075 127.641,630.829 z" id="boundary" inkscape:connector-curvature="0" />
	<path style="fill:none;stroke:red;stroke-width:1px;stroke-linecap:butt;stroke-linejoin:miter;stroke-opacity:1" d="M 127.641,630.829 127.641,659.583 z" id="boundary" inkscape:connector-curvature="0" />
	<path style="fill:none;stroke:red;stroke-width:1px;stroke-linecap:butt;stroke-linejoin:miter;stroke-opacity:1" d="M 127.641,659.583 127.641,688.336 z" id="boundary" inkscape:connector-curvature="0" />
	<path style="fill:none;stroke:red;stroke-width:1px;stroke-linecap:butt;stroke-linejoin:miter;stroke-opacity:1" d="M 127.641,688.336 127.641,717.09 z" id="boundary" inkscape:connector-curvature="0" />
	<path style="fill:none;stroke:red;stroke-width:1px;stroke-linecap:butt;stroke-linejoin:miter;stroke-opacity:1" d="M 127.641,717.09 127.641,745.843 z" id="boundary" inkscape:connector-curvature="0" />
	<path style="fill:none;stroke:red;stroke-width:1px;stroke-linecap:butt;stroke-linejoin:miter;stroke-opacity:1" d="M 127.641,745.843 127.641,774.597 z" id="boundary" inkscape:connector-curvature="0" />
	<path style="fill:none;stroke:red;stroke-width:1px;stroke-linecap:butt;stroke-linejoin:miter;stroke-opacity:1" d="M 127.641,774.597 127.641,803.351 z" id="boundary" inkscape:connector-curvature="0" />
	<path style="fill:none;stroke:red;stroke-width:1px;stroke-linecap:butt;stroke-linejoin:miter;stroke-opacity:1" d="M 127.641,803.351 127.641,832.104 z" id="boundary" inkscape:connector-curvature="0" />
	<path style="fill:none;stroke:red;stroke-width:1px;stroke-linecap:butt;stroke-linejoin:miter;stroke-opacity:1" d="M 127.641,832.104 127.641,860.858 z" id="boundary" inkscape:connector-curvature="0" />
	<path style="fill:none;stroke:red;stroke-width:1px;stroke-linecap:butt;stroke-linejoin:miter;stroke-opacity:1" d="M 127.641,860.858 127.641,889.612 z" id="boundary" inkscape:connector-curvature="0" />
	<path style="fill:none;stroke:red;stroke-width:1px;stroke-linecap:butt;stroke-linejoin:miter;stroke-opacity:1" d="M 127.641,889.612 127.641,918.365 z" id="boundary" inkscape:connector-curvature="0" />
	<path style="fill:none;stroke:red;stroke-width:1px;stroke-linecap:butt;stroke-linejoin:miter;stroke-opacity:1" d="M 127.641,918.365 127.641,947.119 z" id="boundary" inkscape:connector-curvature="0" />
	<path style="fill:none;stroke:red;stroke-width:1px;stroke-linecap:butt;stroke-linejoin:miter;stroke-opacity:1" d="M 127.641,947.119 116.139,996 z" id="boundary" inkscape:connector-curvature="0" />
	<path style="fill:none;stroke:red;stroke-width:1px;stroke-linecap:butt;stroke-linejoin:miter;stroke-opacity:1" d="M 116.139,996 87.3855,996 z" id="boundary" inkscape:connector-curvature="0" />
	<path style="fill:none;stroke:red;stroke-width:1px;stroke-linecap:butt;stroke-linejoin:miter;stroke-opacity:1" d="M 87.3855,996 58.6319,996 z" id="boundary" inkscape:connector-curvature="0" />
	<path style="fill:none;stroke:red;stroke-width:1px;stroke-linecap:butt;stroke-linejoin:miter;stroke-opacity:1" d="M 58.6319,996 29.8783,996 z" id="boundary" inkscape:connector-curvature="0" />
	<path style="fill:none;stroke:red;stroke-width:1px;stroke-linecap:butt;stroke-linejoin:miter;stroke-opacity:1" d="M 29.8783,996 4,981.623 z" id="boundary" inkscape:connector-curvature="0" />
	<path style="fill:none;stroke:red;stroke-width:1px;stroke-linecap:butt;stroke-linejoin:miter;stroke-opacity:1" d="M 4,981.623 9.75072,941.368 z" id="boundary" inkscape:connector-curvature="0" />
	<path style="fill:none;stroke:red;stroke-width:1px;stroke-linecap:butt;stroke-linejoin:miter;stroke-opacity:1" d="M 9.75072,941.368 9.75072,912.614 z" id="boundary" inkscape:connector-curvature="0" />
	<path style="fill:none;stroke:red;stroke-width:1px;stroke-linecap:butt;stroke-linejoin:miter;stroke-opacity:1" d="M 9.75072,912.614 9.75072,883.861 z" id="boundary" inkscape:connector-curvature="0" />
	<path style="fill:none;stroke:red;stroke-width:1px;stroke-linecap:butt;stroke-linejoin:miter;stroke-opacity:1" d="M 9.75072,883.861 9.75072,855.107 z" id="boundary" inkscape:connector-curvature="0" />
	<path style="fill:none;stroke:red;stroke-width:1px;stroke-linecap:butt;stroke-linejoin:miter;stroke-opacity:1" d="M 9.75072,855.107 9.75072,826.354 z" id="boundary" inkscape:connector-curvature="0" />
	<path style="fill:none;stroke:red;stroke-width:1px;stroke-linecap:butt;stroke-linejoin:miter;stroke-opacity:1" d="M 9.75072,826.354 9.75072,797.6 z" id="boundary" inkscape:connector-curvature="0" />
	<path style="fill:none;stroke:red;stroke-width:1px;stroke-linecap:butt;stroke-linejoin:miter;stroke-opacity:1" d="M 9.75072,797.6 9.75072,768.846 z" id="boundary" inkscape:connector-curvature="0" />
	<path style="fill:none;stroke:red;stroke-width:1px;stroke-linecap:butt;stroke-linejoin:miter;stroke-opacity:1" d="M 9.75072,768.846 9.75072,740.093 z" id="boundary" inkscape:connector-curvature="0" />
	<path style="fill:none;stroke:red;stroke-width:1px;stroke-linecap:butt;stroke-linejoin:miter;stroke-opacity:1" d="M 9.75072,740.093 9.75072,711.339 z" id="boundary" inkscape:connector-curvature="0" />
	<path style="fill:none;stroke:red;stroke-width:1px;stroke-linecap:butt;stroke-linejoin:miter;stroke-opacity:1" d="M 9.75072,711.339 9.75072,682.586 z" id="boundary" inkscape:connector-curvature="0" />
	<path style="fill:none;stroke:red;stroke-width:1px;stroke-linecap:butt;stroke-linejoin:miter;stroke-opacity:1" d="M 9.75072,682.586 9.75072,653.832 z" id="boundary" inkscape:connector-curvature="0" />
	<path style="fill:none;stroke:red;stroke-width:1px;stroke-linecap:butt;stroke-linejoin:miter;stroke-opacity:1" d="M 9.75072,653.832 9.75072,625.078 z" id="boundary" inkscape:connector-curvature="0" />
	<path style="fill:none;stroke:red;stroke-width:1px;stroke-linecap:butt;stroke-linejoin:miter;stroke-opacity:1" d="M 9.75072,625.078 9.75072,596.325 z" id="boundary" inkscape:connector-curvature="0" />
	<path style="fill:none;stroke:red;stroke-width:1px;stroke-linecap:butt;stroke-linejoin:miter;stroke-opacity:1" d="M 9.75072,596.325 9.75072,567.571 z" id="boundary" inkscape:connector-curvature="0" />
	<path style="fill:none;stroke:red;stroke-width:1px;stroke-linecap:butt;stroke-linejoin:miter;stroke-opacity:1" d="M 9.75072,567.571 9.75072,538.817 z" id="boundary" inkscape:connector-curvature="0" />
	<path style="fill:none;stroke:red;stroke-width:1px;stroke-linecap:butt;stroke-linejoin:miter;stroke-opacity:1" d="M 9.75072,538.817 9.75072,510.064 z" id="boundary" inkscape:connector-curvature="0" />
	<path style="fill:none;stroke:red;stroke-width:1px;stroke-linecap:butt;stroke-linejoin:miter;stroke-opacity:1" d="M 9.75072,510.064 9.75072,481.31 z" id="boundary" inkscape:connector-curvature="0" />
	<path style="fill:none;stroke:red;stroke-width:1px;stroke-linecap:butt;stroke-linejoin:miter;stroke-opacity:1" d="M 32.7536,435.304 9.75072,481.31 z" id="boundary" inkscape:connector-curvature="0" />
	<circle cx="4" cy="981.623" r="4" fill="#0" id="circle0"/>
	<circle cx="9.75072" cy="32.7536" r="4" fill="#0" id="circle1"/>
	<circle cx="9.75072" cy="61.5072" r="4" fill="#0" id="circle2"/>
	<circle cx="9.75072" cy="481.31" r="4" fill="#0" id="circle3"/>
	<circle cx="9.75072" cy="510.064" r="4" fill="#0" id="circle4"/>
	<circle cx="9.75072" cy="538.817" r="4" fill="#0" id="circle5"/>
	<circle cx="9.75072" cy="567.571" r="4" fill="#0" id="circle6"/>
	<circle cx="9.75072" cy="596.325" r="4" fill="#0" id="circle7"/>
	<circle cx="9.75072" cy="625.078" r="4" fill="#0" id="circle8"/>
	<circle cx="9.75072" cy="653.832" r="4" fill="#0" id="circle9"/>
	<circle cx="9.75072" cy="682.586" r="4" fill="#0" id="circle10"/>
	<circle cx="9.75072" cy="711.339" r="4" fill="#0" id="circle11"/>
	<circle cx="9.75072" cy="740.093" r="4" fill="#0" id="circle12"/>
	<circle cx="9.75072" cy="768.846" r="4" fill="#0" id="circle13"/>
	<circle cx="9.75072" cy="797.6" r="4" fill="#0" id="circle14"/>
	<circle cx="9.75072" cy="826.354" r="4" fill="#0" id="circle15"/>
	<circle cx="9.75072" cy="855.107" r="4" fill="#0" id="circle16"/>
	<circle cx="9.75072" cy="883.861" r="4" fill="#0" id="circle17"/>
	<circle cx="9.75072" cy="912.614" r="4" fill="#0" id="circle18"/>
	<circle cx="9.75072" cy="941.368" r="4" fill="#0" id="circle19"/>
	<circle cx="21.2522" cy="90.2609" r="4" fill="#0" id="circle20"/>
	<circle cx="21.2522" cy="119.014" r="4" fill="#0" id="circle21"/>
	<circle cx="27.0029" cy="4" r="4" fill="#0" id="circle22"/>
	<circle cx="27.0029" cy="147.768" r="4" fill="#0" id="circle23"/>
	<circle cx="29.8783" cy="176.522" r="4" fill="#0" id="circle24"/>
	<circle cx="29.8783" cy="996" r="4" fill="#0" id="circle25"/>
	<circle cx="32.7536" cy="435.304" r="4" fill="#0" id="circle26"/>
	<circle cx="35.629" cy="205.275" r="4" fill="#0" id="circle27"/>
	<circle cx="38.5043" cy="234.029" r="4" fill="#0" id="circle28"/>
	<circle cx="38.5043" cy="262.783" r="4" fill="#0" id="circle29"/>
	<circle cx="38.5043" cy="291.536" r="4" fill="#0" id="circle30"/>
	<circle cx="38.5043" cy="320.29" r="4" fill="#0" id="circle31"/>
	<circle cx="38.5043" cy="349.043" r="4" fill="#0" id="circle32"/>
	<circle cx="38.5043" cy="377.797" r="4" fill="#0" id="circle33"/>
	<circle cx="38.5043" cy="406.551" r="4" fill="#0" id="circle34"/>
	<circle cx="55.7565" cy="4" r="4" fill="#0" id="circle35"/>
	<circle cx="58.6319" cy="996" r="4" fill="#0" id="circle36"/>
	<circle cx="84.5101" cy="4" r="4" fill="#0" id="circle37"/>
	<circle cx="87.3855" cy="996" r="4" fill="#0" id="circle38"/>
	<circle cx="98.887" cy="234.029" r="4" fill="#0" id="circle39"/>
	<circle cx="98.887" cy="262.783" r="4" fill="#0" id="circle40"/>
	<circle cx="98.887" cy="291.536" r="4" fill="#0" id="circle41"/>
	<circle cx="98.887" cy="320.29" r="4" fill="#0" id="circle42"/>
	<circle cx="98.887" cy="349.043" r="4" fill="#0" id="circle43"/>
	<circle cx="98.887" cy="377.797" r="4" fill="#0" id="circle44"/>
	<circle cx="98.887" cy="406.551" r="4" fill="#0" id="circle45"/>
	<circle cx="104.638" cy="188.023" r="4" fill="#0" id="circle46"/>
	<circle cx="104.638" cy="435.304" r="4" fill="#0" id="circle47"/>
	<circle cx="110.388" cy="464.058" r="4" fill="#0" id="circle48"/>
	<circle cx="113.264" cy="4" r="4" fill="#0" id="circle49"/>
	<circle cx="116.139" cy="996" r="4" fill="#0" id="circle50"/>
	<circle cx="121.89" cy="32.7536" r="4" fill="#0" id="circle51"/>
	<circle cx="127.641" cy="61.5072" r="4" fill="#0" id="circle52"/>
	<circle cx="127.641" cy="487.061" r="4" fill="#0" id="circle53"/>
	<circle cx="127.641" cy="515.814" r="4" fill="#0" id="circle54"/>
	<circle cx="127.641" cy="544.568" r="4" fill="#0" id="circle55"/>
	<circle cx="127.641" cy="573.322" r="4" fill="#0" id="circle56"/>
	<circle cx="127.641" cy="602.075" r="4" fill="#0" id="circle57"/>
	<circle cx="127.641" cy="630.829" r="4" fill="#0" id="circle58"/>
	<circle cx="127.641" cy="659.583" r="4" fill="#0" id="circle59"/>
	<circle cx="127.641" cy="688.336" r="4" fill="#0" id="circle60"/>
	<circle cx="127.641" cy="717.09" r="4" fill="#0" id="circle61"/>
	<circle cx="127.641" cy="745.843" r="4" fill="#0" id="circle62"/>
	<circle cx="127.641" cy="774.597" r="4" fill="#0" id="circle63"/>
	<circle cx="127.641" cy="803.351" r="4" fill="#0" id="circle64"/>
	<circle cx="127.641" cy="832.104" r="4" fill="#0" id="circle65"/>
	<circle cx="127.641" cy="860.858" r="4" fill="#0" id="circle66"/>
	<circle cx="127.641" cy="889.612" r="4" fill="#0" id="circle67"/>
	<circle cx="127.641" cy="918.365" r="4" fill="#0" id="circle68"/>
	<circle cx="127.641" cy="947.119" r="4" fill="#0" id="circle69"/>
	<circle cx="133.391" cy="90.2609" r="4" fill="#0" id="circle70"/>
	<circle cx="133.391" cy="179.397" r="4" fill="#0" id="circle71"/>
	<circle cx="139.142" cy="119.014" r="4" fill="#0" id="circle72"/>
	<circle cx="139.142" cy="147.768" r="4" fill="#0" id="circle73"/>
	</g>
</svg>