<?xml version="1.0" encoding="UTF-8" standalone="no"?>
<!-- Created with CurveBenchmark -->
<svg
	xmlns:dc="http://purl.org/dc/elements/1.1/"
	xmlns:cc="http://creativecommons.org/ns#"
	xmlns:rdf="http://www.w3.org/1999/02/22-rdf-syntax-ns#"
	xmlns:svg="http://www.w3.org/2000/svg"
	xmlns="http://www.w3.org/2000/svg"
	xmlns:sodipodi="http://sodipodi.sourceforge.net/DTD/sodipodi-0.dtd"
	xmlns:inkscape="http://www.inkscape.org/namespaces/inkscape"
	width="1000"
	height="1000"
	id="svg2"
	version="1.1"
	sodipodi:docname="manifold/crawl-tool20.png.txt">
<defs
	id="defs4" />
<metadata
	id="metadata7">
	<rdf:RDF>
		<cc:Work
			rdf:about="">
			<dc:format>image/svg+xml</dc:format>
			<dc:type
				rdf:resource="http://purl.org/dc/dcmitype/StillImage" />
			<dc:title></dc:title>
		</cc:Work>
	</rdf:RDF>
</metadata>
<g
	inkscape:label="Layer 1"
	inkscape:groupmode="layer"
	id="layer1">
	<path style="fill:none;stroke:red;stroke-width:1px;stroke-linecap:butt;stroke-linejoin:miter;stroke-opacity:1" d="M 4,52.7869 4,79.8907 z" id="boundary" inkscape:connector-curvature="0" />
	<path style="fill:none;stroke:red;stroke-width:1px;stroke-linecap:butt;stroke-linejoin:miter;stroke-opacity:1" d="M 4,79.8907 25.6831,98.8634 z" id="boundary" inkscape:connector-curvature="0" />
	<path style="fill:none;stroke:red;stroke-width:1px;stroke-linecap:butt;stroke-linejoin:miter;stroke-opacity:1" d="M 25.6831,98.8634 50.0765,112.415 z" id="boundary" inkscape:connector-curvature="0" />
	<path style="fill:none;stroke:red;stroke-width:1px;stroke-linecap:butt;stroke-linejoin:miter;stroke-opacity:1" d="M 50.0765,112.415 77.1803,115.126 z" id="boundary" inkscape:connector-curvature="0" />
	<path style="fill:none;stroke:red;stroke-width:1px;stroke-linecap:butt;stroke-linejoin:miter;stroke-opacity:1" d="M 77.1803,115.126 104.284,115.126 z" id="boundary" inkscape:connector-curvature="0" />
	<path style="fill:none;stroke:red;stroke-width:1px;stroke-linecap:butt;stroke-linejoin:miter;stroke-opacity:1" d="M 104.284,115.126 131.388,115.126 z" id="boundary" inkscape:connector-curvature="0" />
	<path style="fill:none;stroke:red;stroke-width:1px;stroke-linecap:butt;stroke-linejoin:miter;stroke-opacity:1" d="M 131.388,115.126 158.492,115.126 z" id="boundary" inkscape:connector-curvature="0" />
	<path style="fill:none;stroke:red;stroke-width:1px;stroke-linecap:butt;stroke-linejoin:miter;stroke-opacity:1" d="M 158.492,115.126 185.596,123.257 z" id="boundary" inkscape:connector-curvature="0" />
	<path style="fill:none;stroke:red;stroke-width:1px;stroke-linecap:butt;stroke-linejoin:miter;stroke-opacity:1" d="M 185.596,123.257 212.699,128.678 z" id="boundary" inkscape:connector-curvature="0" />
	<path style="fill:none;stroke:red;stroke-width:1px;stroke-linecap:butt;stroke-linejoin:miter;stroke-opacity:1" d="M 212.699,128.678 239.803,128.678 z" id="boundary" inkscape:connector-curvature="0" />
	<path style="fill:none;stroke:red;stroke-width:1px;stroke-linecap:butt;stroke-linejoin:miter;stroke-opacity:1" d="M 239.803,128.678 266.907,128.678 z" id="boundary" inkscape:connector-curvature="0" />
	<path style="fill:none;stroke:red;stroke-width:1px;stroke-linecap:butt;stroke-linejoin:miter;stroke-opacity:1" d="M 266.907,128.678 294.011,128.678 z" id="boundary" inkscape:connector-curvature="0" />
	<path style="fill:none;stroke:red;stroke-width:1px;stroke-linecap:butt;stroke-linejoin:miter;stroke-opacity:1" d="M 294.011,128.678 321.115,128.678 z" id="boundary" inkscape:connector-curvature="0" />
	<path style="fill:none;stroke:red;stroke-width:1px;stroke-linecap:butt;stroke-linejoin:miter;stroke-opacity:1" d="M 321.115,128.678 348.219,128.678 z" id="boundary" inkscape:connector-curvature="0" />
	<path style="fill:none;stroke:red;stroke-width:1px;stroke-linecap:butt;stroke-linejoin:miter;stroke-opacity:1" d="M 348.219,128.678 372.612,142.23 z" id="boundary" inkscape:connector-curvature="0" />
	<path style="fill:none;stroke:red;stroke-width:1px;stroke-linecap:butt;stroke-linejoin:miter;stroke-opacity:1" d="M 372.612,142.23 399.716,142.23 z" id="boundary" inkscape:connector-curvature="0" />
	<path style="fill:none;stroke:red;stroke-width:1px;stroke-linecap:butt;stroke-linejoin:miter;stroke-opacity:1" d="M 399.716,142.23 426.82,142.23 z" id="boundary" inkscape:connector-curvature="0" />
	<path style="fill:none;stroke:red;stroke-width:1px;stroke-linecap:butt;stroke-linejoin:miter;stroke-opacity:1" d="M 426.82,142.23 453.923,142.23 z" id="boundary" inkscape:connector-curvature="0" />
	<path style="fill:none;stroke:red;stroke-width:1px;stroke-linecap:butt;stroke-linejoin:miter;stroke-opacity:1" d="M 453.923,142.23 481.027,128.678 z" id="boundary" inkscape:connector-curvature="0" />
	<path style="fill:none;stroke:red;stroke-width:1px;stroke-linecap:butt;stroke-linejoin:miter;stroke-opacity:1" d="M 481.027,128.678 508.131,128.678 z" id="boundary" inkscape:connector-curvature="0" />
	<path style="fill:none;stroke:red;stroke-width:1px;stroke-linecap:butt;stroke-linejoin:miter;stroke-opacity:1" d="M 508.131,128.678 535.235,128.678 z" id="boundary" inkscape:connector-curvature="0" />
	<path style="fill:none;stroke:red;stroke-width:1px;stroke-linecap:butt;stroke-linejoin:miter;stroke-opacity:1" d="M 535.235,128.678 562.339,128.678 z" id="boundary" inkscape:connector-curvature="0" />
	<path style="fill:none;stroke:red;stroke-width:1px;stroke-linecap:butt;stroke-linejoin:miter;stroke-opacity:1" d="M 562.339,128.678 589.443,128.678 z" id="boundary" inkscape:connector-curvature="0" />
	<path style="fill:none;stroke:red;stroke-width:1px;stroke-linecap:butt;stroke-linejoin:miter;stroke-opacity:1" d="M 589.443,128.678 613.836,142.23 z" id="boundary" inkscape:connector-curvature="0" />
	<path style="fill:none;stroke:red;stroke-width:1px;stroke-linecap:butt;stroke-linejoin:miter;stroke-opacity:1" d="M 613.836,142.23 640.94,142.23 z" id="boundary" inkscape:connector-curvature="0" />
	<path style="fill:none;stroke:red;stroke-width:1px;stroke-linecap:butt;stroke-linejoin:miter;stroke-opacity:1" d="M 640.94,142.23 665.333,155.781 z" id="boundary" inkscape:connector-curvature="0" />
	<path style="fill:none;stroke:red;stroke-width:1px;stroke-linecap:butt;stroke-linejoin:miter;stroke-opacity:1" d="M 665.333,155.781 689.727,169.333 z" id="boundary" inkscape:connector-curvature="0" />
	<path style="fill:none;stroke:red;stroke-width:1px;stroke-linecap:butt;stroke-linejoin:miter;stroke-opacity:1" d="M 689.727,169.333 716.831,169.333 z" id="boundary" inkscape:connector-curvature="0" />
	<path style="fill:none;stroke:red;stroke-width:1px;stroke-linecap:butt;stroke-linejoin:miter;stroke-opacity:1" d="M 716.831,169.333 743.934,180.175 z" id="boundary" inkscape:connector-curvature="0" />
	<path style="fill:none;stroke:red;stroke-width:1px;stroke-linecap:butt;stroke-linejoin:miter;stroke-opacity:1" d="M 743.934,180.175 762.907,201.858 z" id="boundary" inkscape:connector-curvature="0" />
	<path style="fill:none;stroke:red;stroke-width:1px;stroke-linecap:butt;stroke-linejoin:miter;stroke-opacity:1" d="M 762.907,201.858 784.59,220.831 z" id="boundary" inkscape:connector-curvature="0" />
	<path style="fill:none;stroke:red;stroke-width:1px;stroke-linecap:butt;stroke-linejoin:miter;stroke-opacity:1" d="M 784.59,220.831 803.563,242.514 z" id="boundary" inkscape:connector-curvature="0" />
	<path style="fill:none;stroke:red;stroke-width:1px;stroke-linecap:butt;stroke-linejoin:miter;stroke-opacity:1" d="M 803.563,242.514 825.246,261.486 z" id="boundary" inkscape:connector-curvature="0" />
	<path style="fill:none;stroke:red;stroke-width:1px;stroke-linecap:butt;stroke-linejoin:miter;stroke-opacity:1" d="M 825.246,261.486 846.929,277.749 z" id="boundary" inkscape:connector-curvature="0" />
	<path style="fill:none;stroke:red;stroke-width:1px;stroke-linecap:butt;stroke-linejoin:miter;stroke-opacity:1" d="M 846.929,277.749 874.033,277.749 z" id="boundary" inkscape:connector-curvature="0" />
	<path style="fill:none;stroke:red;stroke-width:1px;stroke-linecap:butt;stroke-linejoin:miter;stroke-opacity:1" d="M 874.033,277.749 901.137,277.749 z" id="boundary" inkscape:connector-curvature="0" />
	<path style="fill:none;stroke:red;stroke-width:1px;stroke-linecap:butt;stroke-linejoin:miter;stroke-opacity:1" d="M 901.137,277.749 928.24,264.197 z" id="boundary" inkscape:connector-curvature="0" />
	<path style="fill:none;stroke:red;stroke-width:1px;stroke-linecap:butt;stroke-linejoin:miter;stroke-opacity:1" d="M 928.24,264.197 955.344,250.645 z" id="boundary" inkscape:connector-curvature="0" />
	<path style="fill:none;stroke:red;stroke-width:1px;stroke-linecap:butt;stroke-linejoin:miter;stroke-opacity:1" d="M 955.344,250.645 968.896,223.541 z" id="boundary" inkscape:connector-curvature="0" />
	<path style="fill:none;stroke:red;stroke-width:1px;stroke-linecap:butt;stroke-linejoin:miter;stroke-opacity:1" d="M 968.896,223.541 996,215.41 z" id="boundary" inkscape:connector-curvature="0" />
	<path style="fill:none;stroke:red;stroke-width:1px;stroke-linecap:butt;stroke-linejoin:miter;stroke-opacity:1" d="M 4,52.7869 17.5519,25.6831 z" id="boundary" inkscape:connector-curvature="0" />
	<path style="fill:none;stroke:red;stroke-width:1px;stroke-linecap:butt;stroke-linejoin:miter;stroke-opacity:1" d="M 17.5519,25.6831 44.6557,17.5519 z" id="boundary" inkscape:connector-curvature="0" />
	<path style="fill:none;stroke:red;stroke-width:1px;stroke-linecap:butt;stroke-linejoin:miter;stroke-opacity:1" d="M 44.6557,17.5519 71.7596,17.5519 z" id="boundary" inkscape:connector-curvature="0" />
	<path style="fill:none;stroke:red;stroke-width:1px;stroke-linecap:butt;stroke-linejoin:miter;stroke-opacity:1" d="M 71.7596,17.5519 98.8634,17.5519 z" id="boundary" inkscape:connector-curvature="0" />
	<path style="fill:none;stroke:red;stroke-width:1px;stroke-linecap:butt;stroke-linejoin:miter;stroke-opacity:1" d="M 98.8634,17.5519 125.967,17.5519 z" id="boundary" inkscape:connector-curvature="0" />
	<path style="fill:none;stroke:red;stroke-width:1px;stroke-linecap:butt;stroke-linejoin:miter;stroke-opacity:1" d="M 125.967,17.5519 153.071,17.5519 z" id="boundary" inkscape:connector-curvature="0" />
	<path style="fill:none;stroke:red;stroke-width:1px;stroke-linecap:butt;stroke-linejoin:miter;stroke-opacity:1" d="M 153.071,17.5519 177.464,31.1038 z" id="boundary" inkscape:connector-curvature="0" />
	<path style="fill:none;stroke:red;stroke-width:1px;stroke-linecap:butt;stroke-linejoin:miter;stroke-opacity:1" d="M 177.464,31.1038 204.568,31.1038 z" id="boundary" inkscape:connector-curvature="0" />
	<path style="fill:none;stroke:red;stroke-width:1px;stroke-linecap:butt;stroke-linejoin:miter;stroke-opacity:1" d="M 204.568,31.1038 231.672,31.1038 z" id="boundary" inkscape:connector-curvature="0" />
	<path style="fill:none;stroke:red;stroke-width:1px;stroke-linecap:butt;stroke-linejoin:miter;stroke-opacity:1" d="M 231.672,31.1038 258.776,31.1038 z" id="boundary" inkscape:connector-curvature="0" />
	<path style="fill:none;stroke:red;stroke-width:1px;stroke-linecap:butt;stroke-linejoin:miter;stroke-opacity:1" d="M 258.776,31.1038 283.169,17.5519 z" id="boundary" inkscape:connector-curvature="0" />
	<path style="fill:none;stroke:red;stroke-width:1px;stroke-linecap:butt;stroke-linejoin:miter;stroke-opacity:1" d="M 283.169,17.5519 310.273,17.5519 z" id="boundary" inkscape:connector-curvature="0" />
	<path style="fill:none;stroke:red;stroke-width:1px;stroke-linecap:butt;stroke-linejoin:miter;stroke-opacity:1" d="M 310.273,17.5519 337.377,17.5519 z" id="boundary" inkscape:connector-curvature="0" />
	<path style="fill:none;stroke:red;stroke-width:1px;stroke-linecap:butt;stroke-linejoin:miter;stroke-opacity:1" d="M 337.377,17.5519 364.481,17.5519 z" id="boundary" inkscape:connector-curvature="0" />
	<path style="fill:none;stroke:red;stroke-width:1px;stroke-linecap:butt;stroke-linejoin:miter;stroke-opacity:1" d="M 364.481,17.5519 391.585,17.5519 z" id="boundary" inkscape:connector-curvature="0" />
	<path style="fill:none;stroke:red;stroke-width:1px;stroke-linecap:butt;stroke-linejoin:miter;stroke-opacity:1" d="M 391.585,17.5519 418.689,4 z" id="boundary" inkscape:connector-curvature="0" />
	<path style="fill:none;stroke:red;stroke-width:1px;stroke-linecap:butt;stroke-linejoin:miter;stroke-opacity:1" d="M 418.689,4 445.792,4 z" id="boundary" inkscape:connector-curvature="0" />
	<path style="fill:none;stroke:red;stroke-width:1px;stroke-linecap:butt;stroke-linejoin:miter;stroke-opacity:1" d="M 445.792,4 472.896,4 z" id="boundary" inkscape:connector-curvature="0" />
	<path style="fill:none;stroke:red;stroke-width:1px;stroke-linecap:butt;stroke-linejoin:miter;stroke-opacity:1" d="M 472.896,4 500,4 z" id="boundary" inkscape:connector-curvature="0" />
	<path style="fill:none;stroke:red;stroke-width:1px;stroke-linecap:butt;stroke-linejoin:miter;stroke-opacity:1" d="M 500,4 527.104,4 z" id="boundary" inkscape:connector-curvature="0" />
	<path style="fill:none;stroke:red;stroke-width:1px;stroke-linecap:butt;stroke-linejoin:miter;stroke-opacity:1" d="M 527.104,4 554.208,4 z" id="boundary" inkscape:connector-curvature="0" />
	<path style="fill:none;stroke:red;stroke-width:1px;stroke-linecap:butt;stroke-linejoin:miter;stroke-opacity:1" d="M 554.208,4 578.601,17.5519 z" id="boundary" inkscape:connector-curvature="0" />
	<path style="fill:none;stroke:red;stroke-width:1px;stroke-linecap:butt;stroke-linejoin:miter;stroke-opacity:1" d="M 578.601,17.5519 602.995,31.1038 z" id="boundary" inkscape:connector-curvature="0" />
	<path style="fill:none;stroke:red;stroke-width:1px;stroke-linecap:butt;stroke-linejoin:miter;stroke-opacity:1" d="M 602.995,31.1038 630.098,39.235 z" id="boundary" inkscape:connector-curvature="0" />
	<path style="fill:none;stroke:red;stroke-width:1px;stroke-linecap:butt;stroke-linejoin:miter;stroke-opacity:1" d="M 630.098,39.235 657.202,44.6557 z" id="boundary" inkscape:connector-curvature="0" />
	<path style="fill:none;stroke:red;stroke-width:1px;stroke-linecap:butt;stroke-linejoin:miter;stroke-opacity:1" d="M 657.202,44.6557 684.306,44.6557 z" id="boundary" inkscape:connector-curvature="0" />
	<path style="fill:none;stroke:red;stroke-width:1px;stroke-linecap:butt;stroke-linejoin:miter;stroke-opacity:1" d="M 684.306,44.6557 711.41,44.6557 z" id="boundary" inkscape:connector-curvature="0" />
	<path style="fill:none;stroke:red;stroke-width:1px;stroke-linecap:butt;stroke-linejoin:miter;stroke-opacity:1" d="M 711.41,44.6557 738.514,44.6557 z" id="boundary" inkscape:connector-curvature="0" />
	<path style="fill:none;stroke:red;stroke-width:1px;stroke-linecap:butt;stroke-linejoin:miter;stroke-opacity:1" d="M 738.514,44.6557 765.617,44.6557 z" id="boundary" inkscape:connector-curvature="0" />
	<path style="fill:none;stroke:red;stroke-width:1px;stroke-linecap:butt;stroke-linejoin:miter;stroke-opacity:1" d="M 765.617,44.6557 790.011,25.6831 z" id="boundary" inkscape:connector-curvature="0" />
	<path style="fill:none;stroke:red;stroke-width:1px;stroke-linecap:butt;stroke-linejoin:miter;stroke-opacity:1" d="M 790.011,25.6831 817.115,12.1311 z" id="boundary" inkscape:connector-curvature="0" />
	<path style="fill:none;stroke:red;stroke-width:1px;stroke-linecap:butt;stroke-linejoin:miter;stroke-opacity:1" d="M 817.115,12.1311 844.219,4 z" id="boundary" inkscape:connector-curvature="0" />
	<path style="fill:none;stroke:red;stroke-width:1px;stroke-linecap:butt;stroke-linejoin:miter;stroke-opacity:1" d="M 844.219,4 871.322,4 z" id="boundary" inkscape:connector-curvature="0" />
	<path style="fill:none;stroke:red;stroke-width:1px;stroke-linecap:butt;stroke-linejoin:miter;stroke-opacity:1" d="M 871.322,4 898.426,9.42077 z" id="boundary" inkscape:connector-curvature="0" />
	<path style="fill:none;stroke:red;stroke-width:1px;stroke-linecap:butt;stroke-linejoin:miter;stroke-opacity:1" d="M 898.426,9.42077 922.82,22.9727 z" id="boundary" inkscape:connector-curvature="0" />
	<path style="fill:none;stroke:red;stroke-width:1px;stroke-linecap:butt;stroke-linejoin:miter;stroke-opacity:1" d="M 922.82,22.9727 949.923,33.8142 z" id="boundary" inkscape:connector-curvature="0" />
	<path style="fill:none;stroke:red;stroke-width:1px;stroke-linecap:butt;stroke-linejoin:miter;stroke-opacity:1" d="M 949.923,33.8142 968.896,55.4973 z" id="boundary" inkscape:connector-curvature="0" />
	<path style="fill:none;stroke:red;stroke-width:1px;stroke-linecap:butt;stroke-linejoin:miter;stroke-opacity:1" d="M 968.896,55.4973 968.896,82.6011 z" id="boundary" inkscape:connector-curvature="0" />
	<path style="fill:none;stroke:red;stroke-width:1px;stroke-linecap:butt;stroke-linejoin:miter;stroke-opacity:1" d="M 968.896,82.6011 941.792,101.574 z" id="boundary" inkscape:connector-curvature="0" />
	<path style="fill:none;stroke:red;stroke-width:1px;stroke-linecap:butt;stroke-linejoin:miter;stroke-opacity:1" d="M 941.792,101.574 914.689,101.574 z" id="boundary" inkscape:connector-curvature="0" />
	<path style="fill:none;stroke:red;stroke-width:1px;stroke-linecap:butt;stroke-linejoin:miter;stroke-opacity:1" d="M 914.689,101.574 887.585,101.574 z" id="boundary" inkscape:connector-curvature="0" />
	<path style="fill:none;stroke:red;stroke-width:1px;stroke-linecap:butt;stroke-linejoin:miter;stroke-opacity:1" d="M 887.585,101.574 874.033,128.678 z" id="boundary" inkscape:connector-curvature="0" />
	<path style="fill:none;stroke:red;stroke-width:1px;stroke-linecap:butt;stroke-linejoin:miter;stroke-opacity:1" d="M 874.033,128.678 879.454,155.781 z" id="boundary" inkscape:connector-curvature="0" />
	<path style="fill:none;stroke:red;stroke-width:1px;stroke-linecap:butt;stroke-linejoin:miter;stroke-opacity:1" d="M 879.454,155.781 901.137,174.754 z" id="boundary" inkscape:connector-curvature="0" />
	<path style="fill:none;stroke:red;stroke-width:1px;stroke-linecap:butt;stroke-linejoin:miter;stroke-opacity:1" d="M 901.137,174.754 925.53,188.306 z" id="boundary" inkscape:connector-curvature="0" />
	<path style="fill:none;stroke:red;stroke-width:1px;stroke-linecap:butt;stroke-linejoin:miter;stroke-opacity:1" d="M 925.53,188.306 952.634,193.727 z" id="boundary" inkscape:connector-curvature="0" />
	<path style="fill:none;stroke:red;stroke-width:1px;stroke-linecap:butt;stroke-linejoin:miter;stroke-opacity:1" d="M 952.634,193.727 996,215.41 z" id="boundary" inkscape:connector-curvature="0" />
	<circle cx="4" cy="52.7869" r="4" fill="#0" id="circle0"/>
	<circle cx="4" cy="79.8907" r="4" fill="#0" id="circle1"/>
	<circle cx="17.5519" cy="25.6831" r="4" fill="#0" id="circle2"/>
	<circle cx="25.6831" cy="98.8634" r="4" fill="#0" id="circle3"/>
	<circle cx="44.6557" cy="17.5519" r="4" fill="#0" id="circle4"/>
	<circle cx="50.0765" cy="112.415" r="4" fill="#0" id="circle5"/>
	<circle cx="71.7596" cy="17.5519" r="4" fill="#0" id="circle6"/>
	<circle cx="77.1803" cy="115.126" r="4" fill="#0" id="circle7"/>
	<circle cx="98.8634" cy="17.5519" r="4" fill="#0" id="circle8"/>
	<circle cx="104.284" cy="115.126" r="4" fill="#0" id="circle9"/>
	<circle cx="125.967" cy="17.5519" r="4" fill="#0" id="circle10"/>
	<circle cx="131.388" cy="115.126" r="4" fill="#0" id="circle11"/>
	<circle cx="153.071" cy="17.5519" r="4" fill="#0" id="circle12"/>
	<circle cx="158.492" cy="115.126" r="4" fill="#0" id="circle13"/>
	<circle cx="177.464" cy="31.1038" r="4" fill="#0" id="circle14"/>
	<circle cx="185.596" cy="123.257" r="4" fill="#0" id="circle15"/>
	<circle cx="204.568" cy="31.1038" r="4" fill="#0" id="circle16"/>
	<circle cx="212.699" cy="128.678" r="4" fill="#0" id="circle17"/>
	<circle cx="231.672" cy="31.1038" r="4" fill="#0" id="circle18"/>
	<circle cx="239.803" cy="128.678" r="4" fill="#0" id="circle19"/>
	<circle cx="258.776" cy="31.1038" r="4" fill="#0" id="circle20"/>
	<circle cx="266.907" cy="128.678" r="4" fill="#0" id="circle21"/>
	<circle cx="283.169" cy="17.5519" r="4" fill="#0" id="circle22"/>
	<circle cx="294.011" cy="128.678" r="4" fill="#0" id="circle23"/>
	<circle cx="310.273" cy="17.5519" r="4" fill="#0" id="circle24"/>
	<circle cx="321.115" cy="128.678" r="4" fill="#0" id="circle25"/>
	<circle cx="337.377" cy="17.5519" r="4" fill="#0" id="circle26"/>
	<circle cx="348.219" cy="128.678" r="4" fill="#0" id="circle27"/>
	<circle cx="364.481" cy="17.5519" r="4" fill="#0" id="circle28"/>
	<circle cx="372.612" cy="142.23" r="4" fill="#0" id="circle29"/>
	<circle cx="391.585" cy="17.5519" r="4" fill="#0" id="circle30"/>
	<circle cx="399.716" cy="142.23" r="4" fill="#0" id="circle31"/>
	<circle cx="418.689" cy="4" r="4" fill="#0" id="circle32"/>
	<circle cx="426.82" cy="142.23" r="4" fill="#0" id="circle33"/>
	<circle cx="445.792" cy="4" r="4" fill="#0" id="circle34"/>
	<circle cx="453.923" cy="142.23" r="4" fill="#0" id="circle35"/>
	<circle cx="472.896" cy="4" r="4" fill="#0" id="circle36"/>
	<circle cx="481.027" cy="128.678" r="4" fill="#0" id="circle37"/>
	<circle cx="500" cy="4" r="4" fill="#0" id="circle38"/>
	<circle cx="508.131" cy="128.678" r="4" fill="#0" id="circle39"/>
	<circle cx="527.104" cy="4" r="4" fill="#0" id="circle40"/>
	<circle cx="535.235" cy="128.678" r="4" fill="#0" id="circle41"/>
	<circle cx="554.208" cy="4" r="4" fill="#0" id="circle42"/>
	<circle cx="562.339" cy="128.678" r="4" fill="#0" id="circle43"/>
	<circle cx="578.601" cy="17.5519" r="4" fill="#0" id="circle44"/>
	<circle cx="589.443" cy="128.678" r="4" fill="#0" id="circle45"/>
	<circle cx="602.995" cy="31.1038" r="4" fill="#0" id="circle46"/>
	<circle cx="613.836" cy="142.23" r="4" fill="#0" id="circle47"/>
	<circle cx="630.098" cy="39.235" r="4" fill="#0" id="circle48"/>
	<circle cx="640.94" cy="142.23" r="4" fill="#0" id="circle49"/>
	<circle cx="657.202" cy="44.6557" r="4" fill="#0" id="circle50"/>
	<circle cx="665.333" cy="155.781" r="4" fill="#0" id="circle51"/>
	<circle cx="684.306" cy="44.6557" r="4" fill="#0" id="circle52"/>
	<circle cx="689.727" cy="169.333" r="4" fill="#0" id="circle53"/>
	<circle cx="711.41" cy="44.6557" r="4" fill="#0" id="circle54"/>
	<circle cx="716.831" cy="169.333" r="4" fill="#0" id="circle55"/>
	<circle cx="738.514" cy="44.6557" r="4" fill="#0" id="circle56"/>
	<circle cx="743.934" cy="180.175" r="4" fill="#0" id="circle57"/>
	<circle cx="762.907" cy="201.858" r="4" fill="#0" id="circle58"/>
	<circle cx="765.617" cy="44.6557" r="4" fill="#0" id="circle59"/>
	<circle cx="784.59" cy="220.831" r="4" fill="#0" id="circle60"/>
	<circle cx="790.011" cy="25.6831" r="4" fill="#0" id="circle61"/>
	<circle cx="803.563" cy="242.514" r="4" fill="#0" id="circle62"/>
	<circle cx="817.115" cy="12.1311" r="4" fill="#0" id="circle63"/>
	<circle cx="825.246" cy="261.486" r="4" fill="#0" id="circle64"/>
	<circle cx="844.219" cy="4" r="4" fill="#0" id="circle65"/>
	<circle cx="846.929" cy="277.749" r="4" fill="#0" id="circle66"/>
	<circle cx="871.322" cy="4" r="4" fill="#0" id="circle67"/>
	<circle cx="874.033" cy="128.678" r="4" fill="#0" id="circle68"/>
	<circle cx="874.033" cy="277.749" r="4" fill="#0" id="circle69"/>
	<circle cx="879.454" cy="155.781" r="4" fill="#0" id="circle70"/>
	<circle cx="887.585" cy="101.574" r="4" fill="#0" id="circle71"/>
	<circle cx="898.426" cy="9.42077" r="4" fill="#0" id="circle72"/>
	<circle cx="901.137" cy="174.754" r="4" fill="#0" id="circle73"/>
	<circle cx="901.137" cy="277.749" r="4" fill="#0" id="circle74"/>
	<circle cx="914.689" cy="101.574" r="4" fill="#0" id="circle75"/>
	<circle cx="922.82" cy="22.9727" r="4" fill="#0" id="circle76"/>
	<circle cx="925.53" cy="188.306" r="4" fill="#0" id="circle77"/>
	<circle cx="928.24" cy="264.197" r="4" fill="#0" id="circle78"/>
	<circle cx="941.792" cy="101.574" r="4" fill="#0" id="circle79"/>
	<circle cx="949.923" cy="33.8142" r="4" fill="#0" id="circle80"/>
	<circle cx="952.634" cy="193.727" r="4" fill="#0" id="circle81"/>
	<circle cx="955.344" cy="250.645" r="4" fill="#0" id="circle82"/>
	<circle cx="968.896" cy="55.4973" r="4" fill="#0" id="circle83"/>
	<circle cx="968.896" cy="82.6011" r="4" fill="#0" id="circle84"/>
	<circle cx="968.896" cy="223.541" r="4" fill="#0" id="circle85"/>
	<circle cx="996" cy="215.41" r="4" fill="#0" id="circle86"/>
	</g>
</svg>