<?xml version="1.0" encoding="UTF-8" standalone="no"?>
<!-- Created with CurveBenchmark -->
<svg
	xmlns:dc="http://purl.org/dc/elements/1.1/"
	xmlns:cc="http://creativecommons.org/ns#"
	xmlns:rdf="http://www.w3.org/1999/02/22-rdf-syntax-ns#"
	xmlns:svg="http://www.w3.org/2000/svg"
	xmlns="http://www.w3.org/2000/svg"
	xmlns:sodipodi="http://sodipodi.sourceforge.net/DTD/sodipodi-0.dtd"
	xmlns:inkscape="http://www.inkscape.org/namespaces/inkscape"
	width="1000"
	height="1000"
	id="svg2"
	version="1.1"
	sodipodi:docname="manifold/crawl-ray0745.png.txt">
<defs
	id="defs4" />
<metadata
	id="metadata7">
	<rdf:RDF>
		<cc:Work
			rdf:about="">
			<dc:format>image/svg+xml</dc:format>
			<dc:type
				rdf:resource="http://purl.org/dc/dcmitype/StillImage" />
			<dc:title></dc:title>
		</cc:Work>
	</rdf:RDF>
</metadata>
<g
	inkscape:label="Layer 1"
	inkscape:groupmode="layer"
	id="layer1">
	<path style="fill:none;stroke:red;stroke-width:1px;stroke-linecap:butt;stroke-linejoin:miter;stroke-opacity:1" d="M 4,171.16 4,180.295 z" id="boundary" inkscape:connector-curvature="0" />
	<path style="fill:none;stroke:red;stroke-width:1px;stroke-linecap:butt;stroke-linejoin:miter;stroke-opacity:1" d="M 4,180.295 4,189.429 z" id="boundary" inkscape:connector-curvature="0" />
	<path style="fill:none;stroke:red;stroke-width:1px;stroke-linecap:butt;stroke-linejoin:miter;stroke-opacity:1" d="M 4,189.429 4,198.564 z" id="boundary" inkscape:connector-curvature="0" />
	<path style="fill:none;stroke:red;stroke-width:1px;stroke-linecap:butt;stroke-linejoin:miter;stroke-opacity:1" d="M 4,198.564 4,207.698 z" id="boundary" inkscape:connector-curvature="0" />
	<path style="fill:none;stroke:red;stroke-width:1px;stroke-linecap:butt;stroke-linejoin:miter;stroke-opacity:1" d="M 4,207.698 4,216.832 z" id="boundary" inkscape:connector-curvature="0" />
	<path style="fill:none;stroke:red;stroke-width:1px;stroke-linecap:butt;stroke-linejoin:miter;stroke-opacity:1" d="M 4,216.832 8.56722,225.053 z" id="boundary" inkscape:connector-curvature="0" />
	<path style="fill:none;stroke:red;stroke-width:1px;stroke-linecap:butt;stroke-linejoin:miter;stroke-opacity:1" d="M 8.56722,225.053 8.56722,234.188 z" id="boundary" inkscape:connector-curvature="0" />
	<path style="fill:none;stroke:red;stroke-width:1px;stroke-linecap:butt;stroke-linejoin:miter;stroke-opacity:1" d="M 8.56722,234.188 13.1344,242.409 z" id="boundary" inkscape:connector-curvature="0" />
	<path style="fill:none;stroke:red;stroke-width:1px;stroke-linecap:butt;stroke-linejoin:miter;stroke-opacity:1" d="M 13.1344,242.409 17.7017,250.63 z" id="boundary" inkscape:connector-curvature="0" />
	<path style="fill:none;stroke:red;stroke-width:1px;stroke-linecap:butt;stroke-linejoin:miter;stroke-opacity:1" d="M 17.7017,250.63 23.1823,257.937 z" id="boundary" inkscape:connector-curvature="0" />
	<path style="fill:none;stroke:red;stroke-width:1px;stroke-linecap:butt;stroke-linejoin:miter;stroke-opacity:1" d="M 23.1823,257.937 26.8361,267.072 z" id="boundary" inkscape:connector-curvature="0" />
	<path style="fill:none;stroke:red;stroke-width:1px;stroke-linecap:butt;stroke-linejoin:miter;stroke-opacity:1" d="M 26.8361,267.072 34.1436,273.466 z" id="boundary" inkscape:connector-curvature="0" />
	<path style="fill:none;stroke:red;stroke-width:1px;stroke-linecap:butt;stroke-linejoin:miter;stroke-opacity:1" d="M 34.1436,273.466 40.5378,280.773 z" id="boundary" inkscape:connector-curvature="0" />
	<path style="fill:none;stroke:red;stroke-width:1px;stroke-linecap:butt;stroke-linejoin:miter;stroke-opacity:1" d="M 40.5378,280.773 47.8453,287.168 z" id="boundary" inkscape:connector-curvature="0" />
	<path style="fill:none;stroke:red;stroke-width:1px;stroke-linecap:butt;stroke-linejoin:miter;stroke-opacity:1" d="M 47.8453,287.168 54.2394,294.475 z" id="boundary" inkscape:connector-curvature="0" />
	<path style="fill:none;stroke:red;stroke-width:1px;stroke-linecap:butt;stroke-linejoin:miter;stroke-opacity:1" d="M 54.2394,294.475 61.547,300.869 z" id="boundary" inkscape:connector-curvature="0" />
	<path style="fill:none;stroke:red;stroke-width:1px;stroke-linecap:butt;stroke-linejoin:miter;stroke-opacity:1" d="M 61.547,300.869 67.9411,308.177 z" id="boundary" inkscape:connector-curvature="0" />
	<path style="fill:none;stroke:red;stroke-width:1px;stroke-linecap:butt;stroke-linejoin:miter;stroke-opacity:1" d="M 67.9411,308.177 72.5083,316.398 z" id="boundary" inkscape:connector-curvature="0" />
	<path style="fill:none;stroke:red;stroke-width:1px;stroke-linecap:butt;stroke-linejoin:miter;stroke-opacity:1" d="M 72.5083,316.398 78.9024,323.705 z" id="boundary" inkscape:connector-curvature="0" />
	<path style="fill:none;stroke:red;stroke-width:1px;stroke-linecap:butt;stroke-linejoin:miter;stroke-opacity:1" d="M 78.9024,323.705 83.4696,331.926 z" id="boundary" inkscape:connector-curvature="0" />
	<path style="fill:none;stroke:red;stroke-width:1px;stroke-linecap:butt;stroke-linejoin:miter;stroke-opacity:1" d="M 83.4696,331.926 90.7772,338.32 z" id="boundary" inkscape:connector-curvature="0" />
	<path style="fill:none;stroke:red;stroke-width:1px;stroke-linecap:butt;stroke-linejoin:miter;stroke-opacity:1" d="M 90.7772,338.32 93.5175,347.455 z" id="boundary" inkscape:connector-curvature="0" />
	<path style="fill:none;stroke:red;stroke-width:1px;stroke-linecap:butt;stroke-linejoin:miter;stroke-opacity:1" d="M 93.5175,347.455 100.825,353.849 z" id="boundary" inkscape:connector-curvature="0" />
	<path style="fill:none;stroke:red;stroke-width:1px;stroke-linecap:butt;stroke-linejoin:miter;stroke-opacity:1" d="M 100.825,353.849 104.479,362.983 z" id="boundary" inkscape:connector-curvature="0" />
	<path style="fill:none;stroke:red;stroke-width:1px;stroke-linecap:butt;stroke-linejoin:miter;stroke-opacity:1" d="M 104.479,362.983 111.786,369.378 z" id="boundary" inkscape:connector-curvature="0" />
	<path style="fill:none;stroke:red;stroke-width:1px;stroke-linecap:butt;stroke-linejoin:miter;stroke-opacity:1" d="M 111.786,369.378 118.18,376.685 z" id="boundary" inkscape:connector-curvature="0" />
	<path style="fill:none;stroke:red;stroke-width:1px;stroke-linecap:butt;stroke-linejoin:miter;stroke-opacity:1" d="M 118.18,376.685 125.488,383.079 z" id="boundary" inkscape:connector-curvature="0" />
	<path style="fill:none;stroke:red;stroke-width:1px;stroke-linecap:butt;stroke-linejoin:miter;stroke-opacity:1" d="M 125.488,383.079 132.796,388.56 z" id="boundary" inkscape:connector-curvature="0" />
	<path style="fill:none;stroke:red;stroke-width:1px;stroke-linecap:butt;stroke-linejoin:miter;stroke-opacity:1" d="M 132.796,388.56 141.017,393.127 z" id="boundary" inkscape:connector-curvature="0" />
	<path style="fill:none;stroke:red;stroke-width:1px;stroke-linecap:butt;stroke-linejoin:miter;stroke-opacity:1" d="M 141.017,393.127 146.497,400.435 z" id="boundary" inkscape:connector-curvature="0" />
	<path style="fill:none;stroke:red;stroke-width:1px;stroke-linecap:butt;stroke-linejoin:miter;stroke-opacity:1" d="M 146.497,400.435 153.805,406.829 z" id="boundary" inkscape:connector-curvature="0" />
	<path style="fill:none;stroke:red;stroke-width:1px;stroke-linecap:butt;stroke-linejoin:miter;stroke-opacity:1" d="M 153.805,406.829 162.026,411.396 z" id="boundary" inkscape:connector-curvature="0" />
	<path style="fill:none;stroke:red;stroke-width:1px;stroke-linecap:butt;stroke-linejoin:miter;stroke-opacity:1" d="M 162.026,411.396 171.16,415.05 z" id="boundary" inkscape:connector-curvature="0" />
	<path style="fill:none;stroke:red;stroke-width:1px;stroke-linecap:butt;stroke-linejoin:miter;stroke-opacity:1" d="M 171.16,415.05 178.468,420.53 z" id="boundary" inkscape:connector-curvature="0" />
	<path style="fill:none;stroke:red;stroke-width:1px;stroke-linecap:butt;stroke-linejoin:miter;stroke-opacity:1" d="M 178.468,420.53 186.689,425.098 z" id="boundary" inkscape:connector-curvature="0" />
	<path style="fill:none;stroke:red;stroke-width:1px;stroke-linecap:butt;stroke-linejoin:miter;stroke-opacity:1" d="M 186.689,425.098 192.169,432.405 z" id="boundary" inkscape:connector-curvature="0" />
	<path style="fill:none;stroke:red;stroke-width:1px;stroke-linecap:butt;stroke-linejoin:miter;stroke-opacity:1" d="M 192.169,432.405 201.304,436.059 z" id="boundary" inkscape:connector-curvature="0" />
	<path style="fill:none;stroke:red;stroke-width:1px;stroke-linecap:butt;stroke-linejoin:miter;stroke-opacity:1" d="M 201.304,436.059 210.438,438.799 z" id="boundary" inkscape:connector-curvature="0" />
	<path style="fill:none;stroke:red;stroke-width:1px;stroke-linecap:butt;stroke-linejoin:miter;stroke-opacity:1" d="M 210.438,438.799 218.659,443.366 z" id="boundary" inkscape:connector-curvature="0" />
	<path style="fill:none;stroke:red;stroke-width:1px;stroke-linecap:butt;stroke-linejoin:miter;stroke-opacity:1" d="M 218.659,443.366 226.88,447.934 z" id="boundary" inkscape:connector-curvature="0" />
	<path style="fill:none;stroke:red;stroke-width:1px;stroke-linecap:butt;stroke-linejoin:miter;stroke-opacity:1" d="M 226.88,447.934 236.015,447.934 z" id="boundary" inkscape:connector-curvature="0" />
	<path style="fill:none;stroke:red;stroke-width:1px;stroke-linecap:butt;stroke-linejoin:miter;stroke-opacity:1" d="M 236.015,447.934 241.495,455.241 z" id="boundary" inkscape:connector-curvature="0" />
	<path style="fill:none;stroke:red;stroke-width:1px;stroke-linecap:butt;stroke-linejoin:miter;stroke-opacity:1" d="M 241.495,455.241 241.495,464.376 z" id="boundary" inkscape:connector-curvature="0" />
	<path style="fill:none;stroke:red;stroke-width:1px;stroke-linecap:butt;stroke-linejoin:miter;stroke-opacity:1" d="M 241.495,464.376 241.495,473.51 z" id="boundary" inkscape:connector-curvature="0" />
	<path style="fill:none;stroke:red;stroke-width:1px;stroke-linecap:butt;stroke-linejoin:miter;stroke-opacity:1" d="M 241.495,473.51 241.495,482.645 z" id="boundary" inkscape:connector-curvature="0" />
	<path style="fill:none;stroke:red;stroke-width:1px;stroke-linecap:butt;stroke-linejoin:miter;stroke-opacity:1" d="M 241.495,482.645 242.409,491.779 z" id="boundary" inkscape:connector-curvature="0" />
	<path style="fill:none;stroke:red;stroke-width:1px;stroke-linecap:butt;stroke-linejoin:miter;stroke-opacity:1" d="M 242.409,491.779 246.063,500.913 z" id="boundary" inkscape:connector-curvature="0" />
	<path style="fill:none;stroke:red;stroke-width:1px;stroke-linecap:butt;stroke-linejoin:miter;stroke-opacity:1" d="M 246.063,500.913 246.063,510.048 z" id="boundary" inkscape:connector-curvature="0" />
	<path style="fill:none;stroke:red;stroke-width:1px;stroke-linecap:butt;stroke-linejoin:miter;stroke-opacity:1" d="M 246.063,510.048 250.63,518.269 z" id="boundary" inkscape:connector-curvature="0" />
	<path style="fill:none;stroke:red;stroke-width:1px;stroke-linecap:butt;stroke-linejoin:miter;stroke-opacity:1" d="M 250.63,518.269 250.63,527.403 z" id="boundary" inkscape:connector-curvature="0" />
	<path style="fill:none;stroke:red;stroke-width:1px;stroke-linecap:butt;stroke-linejoin:miter;stroke-opacity:1" d="M 250.63,527.403 255.197,535.624 z" id="boundary" inkscape:connector-curvature="0" />
	<path style="fill:none;stroke:red;stroke-width:1px;stroke-linecap:butt;stroke-linejoin:miter;stroke-opacity:1" d="M 255.197,535.624 259.764,543.845 z" id="boundary" inkscape:connector-curvature="0" />
	<path style="fill:none;stroke:red;stroke-width:1px;stroke-linecap:butt;stroke-linejoin:miter;stroke-opacity:1" d="M 259.764,543.845 264.331,552.066 z" id="boundary" inkscape:connector-curvature="0" />
	<path style="fill:none;stroke:red;stroke-width:1px;stroke-linecap:butt;stroke-linejoin:miter;stroke-opacity:1" d="M 264.331,552.066 269.812,559.374 z" id="boundary" inkscape:connector-curvature="0" />
	<path style="fill:none;stroke:red;stroke-width:1px;stroke-linecap:butt;stroke-linejoin:miter;stroke-opacity:1" d="M 269.812,559.374 273.466,568.508 z" id="boundary" inkscape:connector-curvature="0" />
	<path style="fill:none;stroke:red;stroke-width:1px;stroke-linecap:butt;stroke-linejoin:miter;stroke-opacity:1" d="M 273.466,568.508 280.773,574.902 z" id="boundary" inkscape:connector-curvature="0" />
	<path style="fill:none;stroke:red;stroke-width:1px;stroke-linecap:butt;stroke-linejoin:miter;stroke-opacity:1" d="M 280.773,574.902 284.427,584.037 z" id="boundary" inkscape:connector-curvature="0" />
	<path style="fill:none;stroke:red;stroke-width:1px;stroke-linecap:butt;stroke-linejoin:miter;stroke-opacity:1" d="M 284.427,584.037 291.735,589.517 z" id="boundary" inkscape:connector-curvature="0" />
	<path style="fill:none;stroke:red;stroke-width:1px;stroke-linecap:butt;stroke-linejoin:miter;stroke-opacity:1" d="M 291.735,589.517 291.735,598.652 z" id="boundary" inkscape:connector-curvature="0" />
	<path style="fill:none;stroke:red;stroke-width:1px;stroke-linecap:butt;stroke-linejoin:miter;stroke-opacity:1" d="M 291.735,598.652 291.735,607.786 z" id="boundary" inkscape:connector-curvature="0" />
	<path style="fill:none;stroke:red;stroke-width:1px;stroke-linecap:butt;stroke-linejoin:miter;stroke-opacity:1" d="M 4,171.16 8.56722,162.026 z" id="boundary" inkscape:connector-curvature="0" />
	<path style="fill:none;stroke:red;stroke-width:1px;stroke-linecap:butt;stroke-linejoin:miter;stroke-opacity:1" d="M 8.56722,162.026 13.1344,152.891 z" id="boundary" inkscape:connector-curvature="0" />
	<path style="fill:none;stroke:red;stroke-width:1px;stroke-linecap:butt;stroke-linejoin:miter;stroke-opacity:1" d="M 13.1344,152.891 20.442,145.584 z" id="boundary" inkscape:connector-curvature="0" />
	<path style="fill:none;stroke:red;stroke-width:1px;stroke-linecap:butt;stroke-linejoin:miter;stroke-opacity:1" d="M 20.442,145.584 26.8361,134.622 z" id="boundary" inkscape:connector-curvature="0" />
	<path style="fill:none;stroke:red;stroke-width:1px;stroke-linecap:butt;stroke-linejoin:miter;stroke-opacity:1" d="M 26.8361,134.622 34.1436,127.315 z" id="boundary" inkscape:connector-curvature="0" />
	<path style="fill:none;stroke:red;stroke-width:1px;stroke-linecap:butt;stroke-linejoin:miter;stroke-opacity:1" d="M 34.1436,127.315 43.2781,122.748 z" id="boundary" inkscape:connector-curvature="0" />
	<path style="fill:none;stroke:red;stroke-width:1px;stroke-linecap:butt;stroke-linejoin:miter;stroke-opacity:1" d="M 43.2781,122.748 51.4991,118.18 z" id="boundary" inkscape:connector-curvature="0" />
	<path style="fill:none;stroke:red;stroke-width:1px;stroke-linecap:butt;stroke-linejoin:miter;stroke-opacity:1" d="M 51.4991,118.18 59.7201,113.613 z" id="boundary" inkscape:connector-curvature="0" />
	<path style="fill:none;stroke:red;stroke-width:1px;stroke-linecap:butt;stroke-linejoin:miter;stroke-opacity:1" d="M 59.7201,113.613 67.9411,109.046 z" id="boundary" inkscape:connector-curvature="0" />
	<path style="fill:none;stroke:red;stroke-width:1px;stroke-linecap:butt;stroke-linejoin:miter;stroke-opacity:1" d="M 67.9411,109.046 76.1621,104.479 z" id="boundary" inkscape:connector-curvature="0" />
	<path style="fill:none;stroke:red;stroke-width:1px;stroke-linecap:butt;stroke-linejoin:miter;stroke-opacity:1" d="M 76.1621,104.479 84.3831,99.9116 z" id="boundary" inkscape:connector-curvature="0" />
	<path style="fill:none;stroke:red;stroke-width:1px;stroke-linecap:butt;stroke-linejoin:miter;stroke-opacity:1" d="M 84.3831,99.9116 92.6041,95.3444 z" id="boundary" inkscape:connector-curvature="0" />
	<path style="fill:none;stroke:red;stroke-width:1px;stroke-linecap:butt;stroke-linejoin:miter;stroke-opacity:1" d="M 92.6041,95.3444 100.825,90.7772 z" id="boundary" inkscape:connector-curvature="0" />
	<path style="fill:none;stroke:red;stroke-width:1px;stroke-linecap:butt;stroke-linejoin:miter;stroke-opacity:1" d="M 100.825,90.7772 109.046,84.3831 z" id="boundary" inkscape:connector-curvature="0" />
	<path style="fill:none;stroke:red;stroke-width:1px;stroke-linecap:butt;stroke-linejoin:miter;stroke-opacity:1" d="M 109.046,84.3831 118.18,79.8158 z" id="boundary" inkscape:connector-curvature="0" />
	<path style="fill:none;stroke:red;stroke-width:1px;stroke-linecap:butt;stroke-linejoin:miter;stroke-opacity:1" d="M 118.18,79.8158 127.315,75.2486 z" id="boundary" inkscape:connector-curvature="0" />
	<path style="fill:none;stroke:red;stroke-width:1px;stroke-linecap:butt;stroke-linejoin:miter;stroke-opacity:1" d="M 127.315,75.2486 134.622,67.9411 z" id="boundary" inkscape:connector-curvature="0" />
	<path style="fill:none;stroke:red;stroke-width:1px;stroke-linecap:butt;stroke-linejoin:miter;stroke-opacity:1" d="M 134.622,67.9411 143.757,63.3738 z" id="boundary" inkscape:connector-curvature="0" />
	<path style="fill:none;stroke:red;stroke-width:1px;stroke-linecap:butt;stroke-linejoin:miter;stroke-opacity:1" d="M 143.757,63.3738 152.891,58.8066 z" id="boundary" inkscape:connector-curvature="0" />
	<path style="fill:none;stroke:red;stroke-width:1px;stroke-linecap:butt;stroke-linejoin:miter;stroke-opacity:1" d="M 152.891,58.8066 161.112,54.2394 z" id="boundary" inkscape:connector-curvature="0" />
	<path style="fill:none;stroke:red;stroke-width:1px;stroke-linecap:butt;stroke-linejoin:miter;stroke-opacity:1" d="M 161.112,54.2394 168.42,47.8453 z" id="boundary" inkscape:connector-curvature="0" />
	<path style="fill:none;stroke:red;stroke-width:1px;stroke-linecap:butt;stroke-linejoin:miter;stroke-opacity:1" d="M 168.42,47.8453 177.554,43.2781 z" id="boundary" inkscape:connector-curvature="0" />
	<path style="fill:none;stroke:red;stroke-width:1px;stroke-linecap:butt;stroke-linejoin:miter;stroke-opacity:1" d="M 177.554,43.2781 186.689,38.7109 z" id="boundary" inkscape:connector-curvature="0" />
	<path style="fill:none;stroke:red;stroke-width:1px;stroke-linecap:butt;stroke-linejoin:miter;stroke-opacity:1" d="M 186.689,38.7109 195.823,34.1436 z" id="boundary" inkscape:connector-curvature="0" />
	<path style="fill:none;stroke:red;stroke-width:1px;stroke-linecap:butt;stroke-linejoin:miter;stroke-opacity:1" d="M 195.823,34.1436 203.131,26.8361 z" id="boundary" inkscape:connector-curvature="0" />
	<path style="fill:none;stroke:red;stroke-width:1px;stroke-linecap:butt;stroke-linejoin:miter;stroke-opacity:1" d="M 203.131,26.8361 212.265,22.2689 z" id="boundary" inkscape:connector-curvature="0" />
	<path style="fill:none;stroke:red;stroke-width:1px;stroke-linecap:butt;stroke-linejoin:miter;stroke-opacity:1" d="M 212.265,22.2689 221.4,17.7017 z" id="boundary" inkscape:connector-curvature="0" />
	<path style="fill:none;stroke:red;stroke-width:1px;stroke-linecap:butt;stroke-linejoin:miter;stroke-opacity:1" d="M 221.4,17.7017 230.534,13.1344 z" id="boundary" inkscape:connector-curvature="0" />
	<path style="fill:none;stroke:red;stroke-width:1px;stroke-linecap:butt;stroke-linejoin:miter;stroke-opacity:1" d="M 230.534,13.1344 239.669,8.56722 z" id="boundary" inkscape:connector-curvature="0" />
	<path style="fill:none;stroke:red;stroke-width:1px;stroke-linecap:butt;stroke-linejoin:miter;stroke-opacity:1" d="M 239.669,8.56722 248.803,8.56722 z" id="boundary" inkscape:connector-curvature="0" />
	<path style="fill:none;stroke:red;stroke-width:1px;stroke-linecap:butt;stroke-linejoin:miter;stroke-opacity:1" d="M 248.803,8.56722 257.024,4 z" id="boundary" inkscape:connector-curvature="0" />
	<path style="fill:none;stroke:red;stroke-width:1px;stroke-linecap:butt;stroke-linejoin:miter;stroke-opacity:1" d="M 257.024,4 266.158,4 z" id="boundary" inkscape:connector-curvature="0" />
	<path style="fill:none;stroke:red;stroke-width:1px;stroke-linecap:butt;stroke-linejoin:miter;stroke-opacity:1" d="M 266.158,4 274.379,8.56722 z" id="boundary" inkscape:connector-curvature="0" />
	<path style="fill:none;stroke:red;stroke-width:1px;stroke-linecap:butt;stroke-linejoin:miter;stroke-opacity:1" d="M 274.379,8.56722 283.514,11.3076 z" id="boundary" inkscape:connector-curvature="0" />
	<path style="fill:none;stroke:red;stroke-width:1px;stroke-linecap:butt;stroke-linejoin:miter;stroke-opacity:1" d="M 283.514,11.3076 291.735,15.8748 z" id="boundary" inkscape:connector-curvature="0" />
	<path style="fill:none;stroke:red;stroke-width:1px;stroke-linecap:butt;stroke-linejoin:miter;stroke-opacity:1" d="M 291.735,15.8748 300.869,19.5285 z" id="boundary" inkscape:connector-curvature="0" />
	<path style="fill:none;stroke:red;stroke-width:1px;stroke-linecap:butt;stroke-linejoin:miter;stroke-opacity:1" d="M 300.869,19.5285 309.09,24.0958 z" id="boundary" inkscape:connector-curvature="0" />
	<path style="fill:none;stroke:red;stroke-width:1px;stroke-linecap:butt;stroke-linejoin:miter;stroke-opacity:1" d="M 309.09,24.0958 318.225,26.8361 z" id="boundary" inkscape:connector-curvature="0" />
	<path style="fill:none;stroke:red;stroke-width:1px;stroke-linecap:butt;stroke-linejoin:miter;stroke-opacity:1" d="M 318.225,26.8361 326.446,31.4033 z" id="boundary" inkscape:connector-curvature="0" />
	<path style="fill:none;stroke:red;stroke-width:1px;stroke-linecap:butt;stroke-linejoin:miter;stroke-opacity:1" d="M 326.446,31.4033 334.667,35.9705 z" id="boundary" inkscape:connector-curvature="0" />
	<path style="fill:none;stroke:red;stroke-width:1px;stroke-linecap:butt;stroke-linejoin:miter;stroke-opacity:1" d="M 334.667,35.9705 342.888,40.5378 z" id="boundary" inkscape:connector-curvature="0" />
	<path style="fill:none;stroke:red;stroke-width:1px;stroke-linecap:butt;stroke-linejoin:miter;stroke-opacity:1" d="M 342.888,40.5378 352.022,43.2781 z" id="boundary" inkscape:connector-curvature="0" />
	<path style="fill:none;stroke:red;stroke-width:1px;stroke-linecap:butt;stroke-linejoin:miter;stroke-opacity:1" d="M 352.022,43.2781 359.33,49.6722 z" id="boundary" inkscape:connector-curvature="0" />
	<path style="fill:none;stroke:red;stroke-width:1px;stroke-linecap:butt;stroke-linejoin:miter;stroke-opacity:1" d="M 359.33,49.6722 367.551,54.2394 z" id="boundary" inkscape:connector-curvature="0" />
	<path style="fill:none;stroke:red;stroke-width:1px;stroke-linecap:butt;stroke-linejoin:miter;stroke-opacity:1" d="M 367.551,54.2394 375.772,58.8066 z" id="boundary" inkscape:connector-curvature="0" />
	<path style="fill:none;stroke:red;stroke-width:1px;stroke-linecap:butt;stroke-linejoin:miter;stroke-opacity:1" d="M 375.772,58.8066 383.993,63.3738 z" id="boundary" inkscape:connector-curvature="0" />
	<path style="fill:none;stroke:red;stroke-width:1px;stroke-linecap:butt;stroke-linejoin:miter;stroke-opacity:1" d="M 383.993,63.3738 393.127,66.1142 z" id="boundary" inkscape:connector-curvature="0" />
	<path style="fill:none;stroke:red;stroke-width:1px;stroke-linecap:butt;stroke-linejoin:miter;stroke-opacity:1" d="M 393.127,66.1142 401.348,70.6814 z" id="boundary" inkscape:connector-curvature="0" />
	<path style="fill:none;stroke:red;stroke-width:1px;stroke-linecap:butt;stroke-linejoin:miter;stroke-opacity:1" d="M 401.348,70.6814 408.656,77.0755 z" id="boundary" inkscape:connector-curvature="0" />
	<path style="fill:none;stroke:red;stroke-width:1px;stroke-linecap:butt;stroke-linejoin:miter;stroke-opacity:1" d="M 408.656,77.0755 416.877,81.6427 z" id="boundary" inkscape:connector-curvature="0" />
	<path style="fill:none;stroke:red;stroke-width:1px;stroke-linecap:butt;stroke-linejoin:miter;stroke-opacity:1" d="M 416.877,81.6427 425.098,86.2099 z" id="boundary" inkscape:connector-curvature="0" />
	<path style="fill:none;stroke:red;stroke-width:1px;stroke-linecap:butt;stroke-linejoin:miter;stroke-opacity:1" d="M 425.098,86.2099 434.232,88.9503 z" id="boundary" inkscape:connector-curvature="0" />
	<path style="fill:none;stroke:red;stroke-width:1px;stroke-linecap:butt;stroke-linejoin:miter;stroke-opacity:1" d="M 434.232,88.9503 441.54,95.3444 z" id="boundary" inkscape:connector-curvature="0" />
	<path style="fill:none;stroke:red;stroke-width:1px;stroke-linecap:butt;stroke-linejoin:miter;stroke-opacity:1" d="M 441.54,95.3444 449.761,99.9116 z" id="boundary" inkscape:connector-curvature="0" />
	<path style="fill:none;stroke:red;stroke-width:1px;stroke-linecap:butt;stroke-linejoin:miter;stroke-opacity:1" d="M 449.761,99.9116 457.982,104.479 z" id="boundary" inkscape:connector-curvature="0" />
	<path style="fill:none;stroke:red;stroke-width:1px;stroke-linecap:butt;stroke-linejoin:miter;stroke-opacity:1" d="M 457.982,104.479 466.203,109.046 z" id="boundary" inkscape:connector-curvature="0" />
	<path style="fill:none;stroke:red;stroke-width:1px;stroke-linecap:butt;stroke-linejoin:miter;stroke-opacity:1" d="M 466.203,109.046 474.424,113.613 z" id="boundary" inkscape:connector-curvature="0" />
	<path style="fill:none;stroke:red;stroke-width:1px;stroke-linecap:butt;stroke-linejoin:miter;stroke-opacity:1" d="M 474.424,113.613 481.731,119.094 z" id="boundary" inkscape:connector-curvature="0" />
	<path style="fill:none;stroke:red;stroke-width:1px;stroke-linecap:butt;stroke-linejoin:miter;stroke-opacity:1" d="M 481.731,119.094 489.039,125.488 z" id="boundary" inkscape:connector-curvature="0" />
	<path style="fill:none;stroke:red;stroke-width:1px;stroke-linecap:butt;stroke-linejoin:miter;stroke-opacity:1" d="M 489.039,125.488 496.346,131.882 z" id="boundary" inkscape:connector-curvature="0" />
	<path style="fill:none;stroke:red;stroke-width:1px;stroke-linecap:butt;stroke-linejoin:miter;stroke-opacity:1" d="M 496.346,131.882 504.567,136.449 z" id="boundary" inkscape:connector-curvature="0" />
	<path style="fill:none;stroke:red;stroke-width:1px;stroke-linecap:butt;stroke-linejoin:miter;stroke-opacity:1" d="M 504.567,136.449 510.961,143.757 z" id="boundary" inkscape:connector-curvature="0" />
	<path style="fill:none;stroke:red;stroke-width:1px;stroke-linecap:butt;stroke-linejoin:miter;stroke-opacity:1" d="M 510.961,143.757 515.529,151.978 z" id="boundary" inkscape:connector-curvature="0" />
	<path style="fill:none;stroke:red;stroke-width:1px;stroke-linecap:butt;stroke-linejoin:miter;stroke-opacity:1" d="M 515.529,151.978 516.442,161.112 z" id="boundary" inkscape:connector-curvature="0" />
	<path style="fill:none;stroke:red;stroke-width:1px;stroke-linecap:butt;stroke-linejoin:miter;stroke-opacity:1" d="M 516.442,161.112 521.009,169.333 z" id="boundary" inkscape:connector-curvature="0" />
	<path style="fill:none;stroke:red;stroke-width:1px;stroke-linecap:butt;stroke-linejoin:miter;stroke-opacity:1" d="M 521.009,169.333 521.009,178.468 z" id="boundary" inkscape:connector-curvature="0" />
	<path style="fill:none;stroke:red;stroke-width:1px;stroke-linecap:butt;stroke-linejoin:miter;stroke-opacity:1" d="M 521.009,178.468 521.009,187.602 z" id="boundary" inkscape:connector-curvature="0" />
	<path style="fill:none;stroke:red;stroke-width:1px;stroke-linecap:butt;stroke-linejoin:miter;stroke-opacity:1" d="M 521.009,187.602 521.009,196.737 z" id="boundary" inkscape:connector-curvature="0" />
	<path style="fill:none;stroke:red;stroke-width:1px;stroke-linecap:butt;stroke-linejoin:miter;stroke-opacity:1" d="M 521.009,196.737 519.182,208.611 z" id="boundary" inkscape:connector-curvature="0" />
	<path style="fill:none;stroke:red;stroke-width:1px;stroke-linecap:butt;stroke-linejoin:miter;stroke-opacity:1" d="M 519.182,208.611 514.615,217.746 z" id="boundary" inkscape:connector-curvature="0" />
	<path style="fill:none;stroke:red;stroke-width:1px;stroke-linecap:butt;stroke-linejoin:miter;stroke-opacity:1" d="M 514.615,217.746 510.048,226.88 z" id="boundary" inkscape:connector-curvature="0" />
	<path style="fill:none;stroke:red;stroke-width:1px;stroke-linecap:butt;stroke-linejoin:miter;stroke-opacity:1" d="M 510.048,226.88 505.481,236.015 z" id="boundary" inkscape:connector-curvature="0" />
	<path style="fill:none;stroke:red;stroke-width:1px;stroke-linecap:butt;stroke-linejoin:miter;stroke-opacity:1" d="M 505.481,236.015 498.173,242.409 z" id="boundary" inkscape:connector-curvature="0" />
	<path style="fill:none;stroke:red;stroke-width:1px;stroke-linecap:butt;stroke-linejoin:miter;stroke-opacity:1" d="M 498.173,242.409 491.779,254.284 z" id="boundary" inkscape:connector-curvature="0" />
	<path style="fill:none;stroke:red;stroke-width:1px;stroke-linecap:butt;stroke-linejoin:miter;stroke-opacity:1" d="M 491.779,254.284 484.471,260.678 z" id="boundary" inkscape:connector-curvature="0" />
	<path style="fill:none;stroke:red;stroke-width:1px;stroke-linecap:butt;stroke-linejoin:miter;stroke-opacity:1" d="M 484.471,260.678 479.904,269.812 z" id="boundary" inkscape:connector-curvature="0" />
	<path style="fill:none;stroke:red;stroke-width:1px;stroke-linecap:butt;stroke-linejoin:miter;stroke-opacity:1" d="M 479.904,269.812 473.51,277.12 z" id="boundary" inkscape:connector-curvature="0" />
	<path style="fill:none;stroke:red;stroke-width:1px;stroke-linecap:butt;stroke-linejoin:miter;stroke-opacity:1" d="M 473.51,277.12 468.943,286.254 z" id="boundary" inkscape:connector-curvature="0" />
	<path style="fill:none;stroke:red;stroke-width:1px;stroke-linecap:butt;stroke-linejoin:miter;stroke-opacity:1" d="M 468.943,286.254 461.635,292.648 z" id="boundary" inkscape:connector-curvature="0" />
	<path style="fill:none;stroke:red;stroke-width:1px;stroke-linecap:butt;stroke-linejoin:miter;stroke-opacity:1" d="M 461.635,292.648 457.068,301.783 z" id="boundary" inkscape:connector-curvature="0" />
	<path style="fill:none;stroke:red;stroke-width:1px;stroke-linecap:butt;stroke-linejoin:miter;stroke-opacity:1" d="M 457.068,301.783 450.674,313.657 z" id="boundary" inkscape:connector-curvature="0" />
	<path style="fill:none;stroke:red;stroke-width:1px;stroke-linecap:butt;stroke-linejoin:miter;stroke-opacity:1" d="M 450.674,313.657 446.107,322.792 z" id="boundary" inkscape:connector-curvature="0" />
	<path style="fill:none;stroke:red;stroke-width:1px;stroke-linecap:butt;stroke-linejoin:miter;stroke-opacity:1" d="M 446.107,322.792 441.54,331.926 z" id="boundary" inkscape:connector-curvature="0" />
	<path style="fill:none;stroke:red;stroke-width:1px;stroke-linecap:butt;stroke-linejoin:miter;stroke-opacity:1" d="M 441.54,331.926 434.232,338.32 z" id="boundary" inkscape:connector-curvature="0" />
	<path style="fill:none;stroke:red;stroke-width:1px;stroke-linecap:butt;stroke-linejoin:miter;stroke-opacity:1" d="M 434.232,338.32 429.665,347.455 z" id="boundary" inkscape:connector-curvature="0" />
	<path style="fill:none;stroke:red;stroke-width:1px;stroke-linecap:butt;stroke-linejoin:miter;stroke-opacity:1" d="M 429.665,347.455 423.271,354.762 z" id="boundary" inkscape:connector-curvature="0" />
	<path style="fill:none;stroke:red;stroke-width:1px;stroke-linecap:butt;stroke-linejoin:miter;stroke-opacity:1" d="M 423.271,354.762 415.963,361.157 z" id="boundary" inkscape:connector-curvature="0" />
	<path style="fill:none;stroke:red;stroke-width:1px;stroke-linecap:butt;stroke-linejoin:miter;stroke-opacity:1" d="M 415.963,361.157 409.569,368.464 z" id="boundary" inkscape:connector-curvature="0" />
	<path style="fill:none;stroke:red;stroke-width:1px;stroke-linecap:butt;stroke-linejoin:miter;stroke-opacity:1" d="M 409.569,368.464 402.262,374.858 z" id="boundary" inkscape:connector-curvature="0" />
	<path style="fill:none;stroke:red;stroke-width:1px;stroke-linecap:butt;stroke-linejoin:miter;stroke-opacity:1" d="M 402.262,374.858 393.127,383.993 z" id="boundary" inkscape:connector-curvature="0" />
	<path style="fill:none;stroke:red;stroke-width:1px;stroke-linecap:butt;stroke-linejoin:miter;stroke-opacity:1" d="M 393.127,383.993 386.733,391.3 z" id="boundary" inkscape:connector-curvature="0" />
	<path style="fill:none;stroke:red;stroke-width:1px;stroke-linecap:butt;stroke-linejoin:miter;stroke-opacity:1" d="M 386.733,391.3 379.425,397.694 z" id="boundary" inkscape:connector-curvature="0" />
	<path style="fill:none;stroke:red;stroke-width:1px;stroke-linecap:butt;stroke-linejoin:miter;stroke-opacity:1" d="M 379.425,397.694 370.291,402.262 z" id="boundary" inkscape:connector-curvature="0" />
	<path style="fill:none;stroke:red;stroke-width:1px;stroke-linecap:butt;stroke-linejoin:miter;stroke-opacity:1" d="M 370.291,402.262 363.897,409.569 z" id="boundary" inkscape:connector-curvature="0" />
	<path style="fill:none;stroke:red;stroke-width:1px;stroke-linecap:butt;stroke-linejoin:miter;stroke-opacity:1" d="M 363.897,409.569 354.762,414.136 z" id="boundary" inkscape:connector-curvature="0" />
	<path style="fill:none;stroke:red;stroke-width:1px;stroke-linecap:butt;stroke-linejoin:miter;stroke-opacity:1" d="M 354.762,414.136 345.628,418.703 z" id="boundary" inkscape:connector-curvature="0" />
	<path style="fill:none;stroke:red;stroke-width:1px;stroke-linecap:butt;stroke-linejoin:miter;stroke-opacity:1" d="M 345.628,418.703 338.32,425.098 z" id="boundary" inkscape:connector-curvature="0" />
	<path style="fill:none;stroke:red;stroke-width:1px;stroke-linecap:butt;stroke-linejoin:miter;stroke-opacity:1" d="M 338.32,425.098 330.099,429.665 z" id="boundary" inkscape:connector-curvature="0" />
	<path style="fill:none;stroke:red;stroke-width:1px;stroke-linecap:butt;stroke-linejoin:miter;stroke-opacity:1" d="M 330.099,429.665 321.878,434.232 z" id="boundary" inkscape:connector-curvature="0" />
	<path style="fill:none;stroke:red;stroke-width:1px;stroke-linecap:butt;stroke-linejoin:miter;stroke-opacity:1" d="M 321.878,434.232 313.657,438.799 z" id="boundary" inkscape:connector-curvature="0" />
	<path style="fill:none;stroke:red;stroke-width:1px;stroke-linecap:butt;stroke-linejoin:miter;stroke-opacity:1" d="M 313.657,438.799 304.523,441.54 z" id="boundary" inkscape:connector-curvature="0" />
	<path style="fill:none;stroke:red;stroke-width:1px;stroke-linecap:butt;stroke-linejoin:miter;stroke-opacity:1" d="M 304.523,441.54 295.389,446.107 z" id="boundary" inkscape:connector-curvature="0" />
	<path style="fill:none;stroke:red;stroke-width:1px;stroke-linecap:butt;stroke-linejoin:miter;stroke-opacity:1" d="M 295.389,446.107 288.081,452.501 z" id="boundary" inkscape:connector-curvature="0" />
	<path style="fill:none;stroke:red;stroke-width:1px;stroke-linecap:butt;stroke-linejoin:miter;stroke-opacity:1" d="M 288.081,452.501 288.081,461.635 z" id="boundary" inkscape:connector-curvature="0" />
	<path style="fill:none;stroke:red;stroke-width:1px;stroke-linecap:butt;stroke-linejoin:miter;stroke-opacity:1" d="M 288.081,461.635 288.081,470.77 z" id="boundary" inkscape:connector-curvature="0" />
	<path style="fill:none;stroke:red;stroke-width:1px;stroke-linecap:butt;stroke-linejoin:miter;stroke-opacity:1" d="M 288.081,470.77 288.081,479.904 z" id="boundary" inkscape:connector-curvature="0" />
	<path style="fill:none;stroke:red;stroke-width:1px;stroke-linecap:butt;stroke-linejoin:miter;stroke-opacity:1" d="M 288.081,479.904 289.908,489.039 z" id="boundary" inkscape:connector-curvature="0" />
	<path style="fill:none;stroke:red;stroke-width:1px;stroke-linecap:butt;stroke-linejoin:miter;stroke-opacity:1" d="M 289.908,489.039 292.648,498.173 z" id="boundary" inkscape:connector-curvature="0" />
	<path style="fill:none;stroke:red;stroke-width:1px;stroke-linecap:butt;stroke-linejoin:miter;stroke-opacity:1" d="M 292.648,498.173 294.475,507.308 z" id="boundary" inkscape:connector-curvature="0" />
	<path style="fill:none;stroke:red;stroke-width:1px;stroke-linecap:butt;stroke-linejoin:miter;stroke-opacity:1" d="M 294.475,507.308 299.042,515.529 z" id="boundary" inkscape:connector-curvature="0" />
	<path style="fill:none;stroke:red;stroke-width:1px;stroke-linecap:butt;stroke-linejoin:miter;stroke-opacity:1" d="M 299.042,515.529 301.783,524.663 z" id="boundary" inkscape:connector-curvature="0" />
	<path style="fill:none;stroke:red;stroke-width:1px;stroke-linecap:butt;stroke-linejoin:miter;stroke-opacity:1" d="M 301.783,524.663 306.35,532.884 z" id="boundary" inkscape:connector-curvature="0" />
	<path style="fill:none;stroke:red;stroke-width:1px;stroke-linecap:butt;stroke-linejoin:miter;stroke-opacity:1" d="M 306.35,532.884 310.917,541.105 z" id="boundary" inkscape:connector-curvature="0" />
	<path style="fill:none;stroke:red;stroke-width:1px;stroke-linecap:butt;stroke-linejoin:miter;stroke-opacity:1" d="M 310.917,541.105 315.484,549.326 z" id="boundary" inkscape:connector-curvature="0" />
	<path style="fill:none;stroke:red;stroke-width:1px;stroke-linecap:butt;stroke-linejoin:miter;stroke-opacity:1" d="M 315.484,549.326 320.052,557.547 z" id="boundary" inkscape:connector-curvature="0" />
	<path style="fill:none;stroke:red;stroke-width:1px;stroke-linecap:butt;stroke-linejoin:miter;stroke-opacity:1" d="M 320.052,557.547 324.619,565.768 z" id="boundary" inkscape:connector-curvature="0" />
	<path style="fill:none;stroke:red;stroke-width:1px;stroke-linecap:butt;stroke-linejoin:miter;stroke-opacity:1" d="M 324.619,565.768 329.186,573.989 z" id="boundary" inkscape:connector-curvature="0" />
	<path style="fill:none;stroke:red;stroke-width:1px;stroke-linecap:butt;stroke-linejoin:miter;stroke-opacity:1" d="M 329.186,573.989 333.753,582.21 z" id="boundary" inkscape:connector-curvature="0" />
	<path style="fill:none;stroke:red;stroke-width:1px;stroke-linecap:butt;stroke-linejoin:miter;stroke-opacity:1" d="M 333.753,582.21 340.147,589.517 z" id="boundary" inkscape:connector-curvature="0" />
	<path style="fill:none;stroke:red;stroke-width:1px;stroke-linecap:butt;stroke-linejoin:miter;stroke-opacity:1" d="M 340.147,589.517 347.455,595.912 z" id="boundary" inkscape:connector-curvature="0" />
	<path style="fill:none;stroke:red;stroke-width:1px;stroke-linecap:butt;stroke-linejoin:miter;stroke-opacity:1" d="M 347.455,595.912 351.109,605.046 z" id="boundary" inkscape:connector-curvature="0" />
	<path style="fill:none;stroke:red;stroke-width:1px;stroke-linecap:butt;stroke-linejoin:miter;stroke-opacity:1" d="M 351.109,605.046 356.589,612.354 z" id="boundary" inkscape:connector-curvature="0" />
	<path style="fill:none;stroke:red;stroke-width:1px;stroke-linecap:butt;stroke-linejoin:miter;stroke-opacity:1" d="M 356.589,612.354 361.157,620.575 z" id="boundary" inkscape:connector-curvature="0" />
	<path style="fill:none;stroke:red;stroke-width:1px;stroke-linecap:butt;stroke-linejoin:miter;stroke-opacity:1" d="M 361.157,620.575 365.724,628.796 z" id="boundary" inkscape:connector-curvature="0" />
	<path style="fill:none;stroke:red;stroke-width:1px;stroke-linecap:butt;stroke-linejoin:miter;stroke-opacity:1" d="M 365.724,628.796 370.291,637.017 z" id="boundary" inkscape:connector-curvature="0" />
	<path style="fill:none;stroke:red;stroke-width:1px;stroke-linecap:butt;stroke-linejoin:miter;stroke-opacity:1" d="M 370.291,637.017 373.945,646.151 z" id="boundary" inkscape:connector-curvature="0" />
	<path style="fill:none;stroke:red;stroke-width:1px;stroke-linecap:butt;stroke-linejoin:miter;stroke-opacity:1" d="M 373.945,646.151 374.858,655.285 z" id="boundary" inkscape:connector-curvature="0" />
	<path style="fill:none;stroke:red;stroke-width:1px;stroke-linecap:butt;stroke-linejoin:miter;stroke-opacity:1" d="M 374.858,655.285 378.512,664.42 z" id="boundary" inkscape:connector-curvature="0" />
	<path style="fill:none;stroke:red;stroke-width:1px;stroke-linecap:butt;stroke-linejoin:miter;stroke-opacity:1" d="M 378.512,664.42 379.425,673.554 z" id="boundary" inkscape:connector-curvature="0" />
	<path style="fill:none;stroke:red;stroke-width:1px;stroke-linecap:butt;stroke-linejoin:miter;stroke-opacity:1" d="M 379.425,673.554 379.425,682.689 z" id="boundary" inkscape:connector-curvature="0" />
	<path style="fill:none;stroke:red;stroke-width:1px;stroke-linecap:butt;stroke-linejoin:miter;stroke-opacity:1" d="M 379.425,682.689 379.425,691.823 z" id="boundary" inkscape:connector-curvature="0" />
	<path style="fill:none;stroke:red;stroke-width:1px;stroke-linecap:butt;stroke-linejoin:miter;stroke-opacity:1" d="M 379.425,691.823 379.425,700.958 z" id="boundary" inkscape:connector-curvature="0" />
	<path style="fill:none;stroke:red;stroke-width:1px;stroke-linecap:butt;stroke-linejoin:miter;stroke-opacity:1" d="M 379.425,700.958 379.425,710.092 z" id="boundary" inkscape:connector-curvature="0" />
	<path style="fill:none;stroke:red;stroke-width:1px;stroke-linecap:butt;stroke-linejoin:miter;stroke-opacity:1" d="M 379.425,710.092 379.425,719.227 z" id="boundary" inkscape:connector-curvature="0" />
	<path style="fill:none;stroke:red;stroke-width:1px;stroke-linecap:butt;stroke-linejoin:miter;stroke-opacity:1" d="M 379.425,719.227 374.858,731.101 z" id="boundary" inkscape:connector-curvature="0" />
	<path style="fill:none;stroke:red;stroke-width:1px;stroke-linecap:butt;stroke-linejoin:miter;stroke-opacity:1" d="M 374.858,731.101 370.291,740.236 z" id="boundary" inkscape:connector-curvature="0" />
	<path style="fill:none;stroke:red;stroke-width:1px;stroke-linecap:butt;stroke-linejoin:miter;stroke-opacity:1" d="M 370.291,740.236 365.724,749.37 z" id="boundary" inkscape:connector-curvature="0" />
	<path style="fill:none;stroke:red;stroke-width:1px;stroke-linecap:butt;stroke-linejoin:miter;stroke-opacity:1" d="M 365.724,749.37 359.33,761.245 z" id="boundary" inkscape:connector-curvature="0" />
	<path style="fill:none;stroke:red;stroke-width:1px;stroke-linecap:butt;stroke-linejoin:miter;stroke-opacity:1" d="M 359.33,761.245 352.022,767.639 z" id="boundary" inkscape:connector-curvature="0" />
	<path style="fill:none;stroke:red;stroke-width:1px;stroke-linecap:butt;stroke-linejoin:miter;stroke-opacity:1" d="M 352.022,767.639 344.715,775.86 z" id="boundary" inkscape:connector-curvature="0" />
	<path style="fill:none;stroke:red;stroke-width:1px;stroke-linecap:butt;stroke-linejoin:miter;stroke-opacity:1" d="M 344.715,775.86 337.407,781.341 z" id="boundary" inkscape:connector-curvature="0" />
	<path style="fill:none;stroke:red;stroke-width:1px;stroke-linecap:butt;stroke-linejoin:miter;stroke-opacity:1" d="M 337.407,781.341 329.186,785.908 z" id="boundary" inkscape:connector-curvature="0" />
	<path style="fill:none;stroke:red;stroke-width:1px;stroke-linecap:butt;stroke-linejoin:miter;stroke-opacity:1" d="M 329.186,785.908 321.878,794.129 z" id="boundary" inkscape:connector-curvature="0" />
	<path style="fill:none;stroke:red;stroke-width:1px;stroke-linecap:butt;stroke-linejoin:miter;stroke-opacity:1" d="M 321.878,794.129 317.311,803.263 z" id="boundary" inkscape:connector-curvature="0" />
	<path style="fill:none;stroke:red;stroke-width:1px;stroke-linecap:butt;stroke-linejoin:miter;stroke-opacity:1" d="M 317.311,803.263 310.004,808.744 z" id="boundary" inkscape:connector-curvature="0" />
	<path style="fill:none;stroke:red;stroke-width:1px;stroke-linecap:butt;stroke-linejoin:miter;stroke-opacity:1" d="M 310.004,808.744 301.783,813.311 z" id="boundary" inkscape:connector-curvature="0" />
	<path style="fill:none;stroke:red;stroke-width:1px;stroke-linecap:butt;stroke-linejoin:miter;stroke-opacity:1" d="M 301.783,813.311 295.389,820.619 z" id="boundary" inkscape:connector-curvature="0" />
	<path style="fill:none;stroke:red;stroke-width:1px;stroke-linecap:butt;stroke-linejoin:miter;stroke-opacity:1" d="M 295.389,820.619 288.081,827.013 z" id="boundary" inkscape:connector-curvature="0" />
	<path style="fill:none;stroke:red;stroke-width:1px;stroke-linecap:butt;stroke-linejoin:miter;stroke-opacity:1" d="M 288.081,827.013 281.687,834.32 z" id="boundary" inkscape:connector-curvature="0" />
	<path style="fill:none;stroke:red;stroke-width:1px;stroke-linecap:butt;stroke-linejoin:miter;stroke-opacity:1" d="M 281.687,834.32 274.379,840.715 z" id="boundary" inkscape:connector-curvature="0" />
	<path style="fill:none;stroke:red;stroke-width:1px;stroke-linecap:butt;stroke-linejoin:miter;stroke-opacity:1" d="M 274.379,840.715 267.985,848.022 z" id="boundary" inkscape:connector-curvature="0" />
	<path style="fill:none;stroke:red;stroke-width:1px;stroke-linecap:butt;stroke-linejoin:miter;stroke-opacity:1" d="M 267.985,848.022 260.678,854.416 z" id="boundary" inkscape:connector-curvature="0" />
	<path style="fill:none;stroke:red;stroke-width:1px;stroke-linecap:butt;stroke-linejoin:miter;stroke-opacity:1" d="M 260.678,854.416 254.284,861.724 z" id="boundary" inkscape:connector-curvature="0" />
	<path style="fill:none;stroke:red;stroke-width:1px;stroke-linecap:butt;stroke-linejoin:miter;stroke-opacity:1" d="M 254.284,861.724 249.716,870.858 z" id="boundary" inkscape:connector-curvature="0" />
	<path style="fill:none;stroke:red;stroke-width:1px;stroke-linecap:butt;stroke-linejoin:miter;stroke-opacity:1" d="M 249.716,870.858 242.409,877.252 z" id="boundary" inkscape:connector-curvature="0" />
	<path style="fill:none;stroke:red;stroke-width:1px;stroke-linecap:butt;stroke-linejoin:miter;stroke-opacity:1" d="M 242.409,877.252 236.015,884.56 z" id="boundary" inkscape:connector-curvature="0" />
	<path style="fill:none;stroke:red;stroke-width:1px;stroke-linecap:butt;stroke-linejoin:miter;stroke-opacity:1" d="M 236.015,884.56 228.707,890.954 z" id="boundary" inkscape:connector-curvature="0" />
	<path style="fill:none;stroke:red;stroke-width:1px;stroke-linecap:butt;stroke-linejoin:miter;stroke-opacity:1" d="M 228.707,890.954 224.14,900.088 z" id="boundary" inkscape:connector-curvature="0" />
	<path style="fill:none;stroke:red;stroke-width:1px;stroke-linecap:butt;stroke-linejoin:miter;stroke-opacity:1" d="M 224.14,900.088 219.573,909.223 z" id="boundary" inkscape:connector-curvature="0" />
	<path style="fill:none;stroke:red;stroke-width:1px;stroke-linecap:butt;stroke-linejoin:miter;stroke-opacity:1" d="M 219.573,909.223 215.006,918.357 z" id="boundary" inkscape:connector-curvature="0" />
	<path style="fill:none;stroke:red;stroke-width:1px;stroke-linecap:butt;stroke-linejoin:miter;stroke-opacity:1" d="M 215.006,918.357 210.438,932.059 z" id="boundary" inkscape:connector-curvature="0" />
	<path style="fill:none;stroke:red;stroke-width:1px;stroke-linecap:butt;stroke-linejoin:miter;stroke-opacity:1" d="M 210.438,932.059 210.438,941.193 z" id="boundary" inkscape:connector-curvature="0" />
	<path style="fill:none;stroke:red;stroke-width:1px;stroke-linecap:butt;stroke-linejoin:miter;stroke-opacity:1" d="M 210.438,941.193 210.438,950.328 z" id="boundary" inkscape:connector-curvature="0" />
	<path style="fill:none;stroke:red;stroke-width:1px;stroke-linecap:butt;stroke-linejoin:miter;stroke-opacity:1" d="M 210.438,950.328 210.438,959.462 z" id="boundary" inkscape:connector-curvature="0" />
	<path style="fill:none;stroke:red;stroke-width:1px;stroke-linecap:butt;stroke-linejoin:miter;stroke-opacity:1" d="M 210.438,959.462 215.006,967.683 z" id="boundary" inkscape:connector-curvature="0" />
	<path style="fill:none;stroke:red;stroke-width:1px;stroke-linecap:butt;stroke-linejoin:miter;stroke-opacity:1" d="M 215.006,967.683 215.006,976.818 z" id="boundary" inkscape:connector-curvature="0" />
	<path style="fill:none;stroke:red;stroke-width:1px;stroke-linecap:butt;stroke-linejoin:miter;stroke-opacity:1" d="M 215.006,976.818 219.573,985.039 z" id="boundary" inkscape:connector-curvature="0" />
	<path style="fill:none;stroke:red;stroke-width:1px;stroke-linecap:butt;stroke-linejoin:miter;stroke-opacity:1" d="M 219.573,985.039 216.832,996 z" id="boundary" inkscape:connector-curvature="0" />
	<path style="fill:none;stroke:red;stroke-width:1px;stroke-linecap:butt;stroke-linejoin:miter;stroke-opacity:1" d="M 216.832,996 209.525,990.519 z" id="boundary" inkscape:connector-curvature="0" />
	<path style="fill:none;stroke:red;stroke-width:1px;stroke-linecap:butt;stroke-linejoin:miter;stroke-opacity:1" d="M 209.525,990.519 204.958,982.298 z" id="boundary" inkscape:connector-curvature="0" />
	<path style="fill:none;stroke:red;stroke-width:1px;stroke-linecap:butt;stroke-linejoin:miter;stroke-opacity:1" d="M 204.958,982.298 200.39,974.077 z" id="boundary" inkscape:connector-curvature="0" />
	<path style="fill:none;stroke:red;stroke-width:1px;stroke-linecap:butt;stroke-linejoin:miter;stroke-opacity:1" d="M 200.39,974.077 195.823,965.856 z" id="boundary" inkscape:connector-curvature="0" />
	<path style="fill:none;stroke:red;stroke-width:1px;stroke-linecap:butt;stroke-linejoin:miter;stroke-opacity:1" d="M 195.823,965.856 195.823,956.722 z" id="boundary" inkscape:connector-curvature="0" />
	<path style="fill:none;stroke:red;stroke-width:1px;stroke-linecap:butt;stroke-linejoin:miter;stroke-opacity:1" d="M 195.823,956.722 195.823,947.587 z" id="boundary" inkscape:connector-curvature="0" />
	<path style="fill:none;stroke:red;stroke-width:1px;stroke-linecap:butt;stroke-linejoin:miter;stroke-opacity:1" d="M 195.823,947.587 195.823,938.453 z" id="boundary" inkscape:connector-curvature="0" />
	<path style="fill:none;stroke:red;stroke-width:1px;stroke-linecap:butt;stroke-linejoin:miter;stroke-opacity:1" d="M 195.823,938.453 195.823,929.319 z" id="boundary" inkscape:connector-curvature="0" />
	<path style="fill:none;stroke:red;stroke-width:1px;stroke-linecap:butt;stroke-linejoin:miter;stroke-opacity:1" d="M 195.823,929.319 195.823,920.184 z" id="boundary" inkscape:connector-curvature="0" />
	<path style="fill:none;stroke:red;stroke-width:1px;stroke-linecap:butt;stroke-linejoin:miter;stroke-opacity:1" d="M 195.823,920.184 200.39,911.05 z" id="boundary" inkscape:connector-curvature="0" />
	<path style="fill:none;stroke:red;stroke-width:1px;stroke-linecap:butt;stroke-linejoin:miter;stroke-opacity:1" d="M 200.39,911.05 204.958,901.915 z" id="boundary" inkscape:connector-curvature="0" />
	<path style="fill:none;stroke:red;stroke-width:1px;stroke-linecap:butt;stroke-linejoin:miter;stroke-opacity:1" d="M 204.958,901.915 209.525,892.781 z" id="boundary" inkscape:connector-curvature="0" />
	<path style="fill:none;stroke:red;stroke-width:1px;stroke-linecap:butt;stroke-linejoin:miter;stroke-opacity:1" d="M 209.525,892.781 216.832,885.473 z" id="boundary" inkscape:connector-curvature="0" />
	<path style="fill:none;stroke:red;stroke-width:1px;stroke-linecap:butt;stroke-linejoin:miter;stroke-opacity:1" d="M 216.832,885.473 223.227,874.512 z" id="boundary" inkscape:connector-curvature="0" />
	<path style="fill:none;stroke:red;stroke-width:1px;stroke-linecap:butt;stroke-linejoin:miter;stroke-opacity:1" d="M 223.227,874.512 230.534,867.204 z" id="boundary" inkscape:connector-curvature="0" />
	<path style="fill:none;stroke:red;stroke-width:1px;stroke-linecap:butt;stroke-linejoin:miter;stroke-opacity:1" d="M 230.534,867.204 236.928,856.243 z" id="boundary" inkscape:connector-curvature="0" />
	<path style="fill:none;stroke:red;stroke-width:1px;stroke-linecap:butt;stroke-linejoin:miter;stroke-opacity:1" d="M 236.928,856.243 246.063,851.676 z" id="boundary" inkscape:connector-curvature="0" />
	<path style="fill:none;stroke:red;stroke-width:1px;stroke-linecap:butt;stroke-linejoin:miter;stroke-opacity:1" d="M 246.063,851.676 253.37,844.368 z" id="boundary" inkscape:connector-curvature="0" />
	<path style="fill:none;stroke:red;stroke-width:1px;stroke-linecap:butt;stroke-linejoin:miter;stroke-opacity:1" d="M 253.37,844.368 257.937,835.234 z" id="boundary" inkscape:connector-curvature="0" />
	<path style="fill:none;stroke:red;stroke-width:1px;stroke-linecap:butt;stroke-linejoin:miter;stroke-opacity:1" d="M 257.937,835.234 265.245,827.926 z" id="boundary" inkscape:connector-curvature="0" />
	<path style="fill:none;stroke:red;stroke-width:1px;stroke-linecap:butt;stroke-linejoin:miter;stroke-opacity:1" d="M 265.245,827.926 274.379,823.359 z" id="boundary" inkscape:connector-curvature="0" />
	<path style="fill:none;stroke:red;stroke-width:1px;stroke-linecap:butt;stroke-linejoin:miter;stroke-opacity:1" d="M 274.379,823.359 278.947,814.225 z" id="boundary" inkscape:connector-curvature="0" />
	<path style="fill:none;stroke:red;stroke-width:1px;stroke-linecap:butt;stroke-linejoin:miter;stroke-opacity:1" d="M 278.947,814.225 286.254,807.831 z" id="boundary" inkscape:connector-curvature="0" />
	<path style="fill:none;stroke:red;stroke-width:1px;stroke-linecap:butt;stroke-linejoin:miter;stroke-opacity:1" d="M 286.254,807.831 294.475,803.263 z" id="boundary" inkscape:connector-curvature="0" />
	<path style="fill:none;stroke:red;stroke-width:1px;stroke-linecap:butt;stroke-linejoin:miter;stroke-opacity:1" d="M 294.475,803.263 301.783,795.956 z" id="boundary" inkscape:connector-curvature="0" />
	<path style="fill:none;stroke:red;stroke-width:1px;stroke-linecap:butt;stroke-linejoin:miter;stroke-opacity:1" d="M 301.783,795.956 306.35,786.821 z" id="boundary" inkscape:connector-curvature="0" />
	<path style="fill:none;stroke:red;stroke-width:1px;stroke-linecap:butt;stroke-linejoin:miter;stroke-opacity:1" d="M 306.35,786.821 315.484,782.254 z" id="boundary" inkscape:connector-curvature="0" />
	<path style="fill:none;stroke:red;stroke-width:1px;stroke-linecap:butt;stroke-linejoin:miter;stroke-opacity:1" d="M 315.484,782.254 322.792,775.86 z" id="boundary" inkscape:connector-curvature="0" />
	<path style="fill:none;stroke:red;stroke-width:1px;stroke-linecap:butt;stroke-linejoin:miter;stroke-opacity:1" d="M 322.792,775.86 329.186,768.552 z" id="boundary" inkscape:connector-curvature="0" />
	<path style="fill:none;stroke:red;stroke-width:1px;stroke-linecap:butt;stroke-linejoin:miter;stroke-opacity:1" d="M 329.186,768.552 333.753,759.418 z" id="boundary" inkscape:connector-curvature="0" />
	<path style="fill:none;stroke:red;stroke-width:1px;stroke-linecap:butt;stroke-linejoin:miter;stroke-opacity:1" d="M 333.753,759.418 341.061,753.024 z" id="boundary" inkscape:connector-curvature="0" />
	<path style="fill:none;stroke:red;stroke-width:1px;stroke-linecap:butt;stroke-linejoin:miter;stroke-opacity:1" d="M 341.061,753.024 346.541,742.063 z" id="boundary" inkscape:connector-curvature="0" />
	<path style="fill:none;stroke:red;stroke-width:1px;stroke-linecap:butt;stroke-linejoin:miter;stroke-opacity:1" d="M 346.541,742.063 353.849,734.755 z" id="boundary" inkscape:connector-curvature="0" />
	<path style="fill:none;stroke:red;stroke-width:1px;stroke-linecap:butt;stroke-linejoin:miter;stroke-opacity:1" d="M 353.849,734.755 355.676,723.794 z" id="boundary" inkscape:connector-curvature="0" />
	<path style="fill:none;stroke:red;stroke-width:1px;stroke-linecap:butt;stroke-linejoin:miter;stroke-opacity:1" d="M 355.676,723.794 360.243,714.659 z" id="boundary" inkscape:connector-curvature="0" />
	<path style="fill:none;stroke:red;stroke-width:1px;stroke-linecap:butt;stroke-linejoin:miter;stroke-opacity:1" d="M 360.243,714.659 360.243,705.525 z" id="boundary" inkscape:connector-curvature="0" />
	<path style="fill:none;stroke:red;stroke-width:1px;stroke-linecap:butt;stroke-linejoin:miter;stroke-opacity:1" d="M 360.243,705.525 360.243,696.39 z" id="boundary" inkscape:connector-curvature="0" />
	<path style="fill:none;stroke:red;stroke-width:1px;stroke-linecap:butt;stroke-linejoin:miter;stroke-opacity:1" d="M 360.243,696.39 355.676,688.169 z" id="boundary" inkscape:connector-curvature="0" />
	<path style="fill:none;stroke:red;stroke-width:1px;stroke-linecap:butt;stroke-linejoin:miter;stroke-opacity:1" d="M 355.676,688.169 352.936,679.035 z" id="boundary" inkscape:connector-curvature="0" />
	<path style="fill:none;stroke:red;stroke-width:1px;stroke-linecap:butt;stroke-linejoin:miter;stroke-opacity:1" d="M 352.936,679.035 348.368,670.814 z" id="boundary" inkscape:connector-curvature="0" />
	<path style="fill:none;stroke:red;stroke-width:1px;stroke-linecap:butt;stroke-linejoin:miter;stroke-opacity:1" d="M 348.368,670.814 344.715,661.68 z" id="boundary" inkscape:connector-curvature="0" />
	<path style="fill:none;stroke:red;stroke-width:1px;stroke-linecap:butt;stroke-linejoin:miter;stroke-opacity:1" d="M 344.715,661.68 340.147,653.459 z" id="boundary" inkscape:connector-curvature="0" />
	<path style="fill:none;stroke:red;stroke-width:1px;stroke-linecap:butt;stroke-linejoin:miter;stroke-opacity:1" d="M 340.147,653.459 337.407,644.324 z" id="boundary" inkscape:connector-curvature="0" />
	<path style="fill:none;stroke:red;stroke-width:1px;stroke-linecap:butt;stroke-linejoin:miter;stroke-opacity:1" d="M 337.407,644.324 330.099,638.843 z" id="boundary" inkscape:connector-curvature="0" />
	<path style="fill:none;stroke:red;stroke-width:1px;stroke-linecap:butt;stroke-linejoin:miter;stroke-opacity:1" d="M 330.099,638.843 326.446,629.709 z" id="boundary" inkscape:connector-curvature="0" />
	<path style="fill:none;stroke:red;stroke-width:1px;stroke-linecap:butt;stroke-linejoin:miter;stroke-opacity:1" d="M 326.446,629.709 317.311,626.055 z" id="boundary" inkscape:connector-curvature="0" />
	<path style="fill:none;stroke:red;stroke-width:1px;stroke-linecap:butt;stroke-linejoin:miter;stroke-opacity:1" d="M 317.311,626.055 308.177,626.055 z" id="boundary" inkscape:connector-curvature="0" />
	<path style="fill:none;stroke:red;stroke-width:1px;stroke-linecap:butt;stroke-linejoin:miter;stroke-opacity:1" d="M 308.177,626.055 299.042,629.709 z" id="boundary" inkscape:connector-curvature="0" />
	<path style="fill:none;stroke:red;stroke-width:1px;stroke-linecap:butt;stroke-linejoin:miter;stroke-opacity:1" d="M 299.042,629.709 294.475,638.843 z" id="boundary" inkscape:connector-curvature="0" />
	<path style="fill:none;stroke:red;stroke-width:1px;stroke-linecap:butt;stroke-linejoin:miter;stroke-opacity:1" d="M 294.475,638.843 287.168,646.151 z" id="boundary" inkscape:connector-curvature="0" />
	<path style="fill:none;stroke:red;stroke-width:1px;stroke-linecap:butt;stroke-linejoin:miter;stroke-opacity:1" d="M 287.168,646.151 278.033,646.151 z" id="boundary" inkscape:connector-curvature="0" />
	<path style="fill:none;stroke:red;stroke-width:1px;stroke-linecap:butt;stroke-linejoin:miter;stroke-opacity:1" d="M 278.033,646.151 282.6,637.017 z" id="boundary" inkscape:connector-curvature="0" />
	<path style="fill:none;stroke:red;stroke-width:1px;stroke-linecap:butt;stroke-linejoin:miter;stroke-opacity:1" d="M 282.6,637.017 287.168,623.315 z" id="boundary" inkscape:connector-curvature="0" />
	<path style="fill:none;stroke:red;stroke-width:1px;stroke-linecap:butt;stroke-linejoin:miter;stroke-opacity:1" d="M 287.168,623.315 291.735,607.786 z" id="boundary" inkscape:connector-curvature="0" />
	<circle cx="4" cy="171.16" r="4" fill="#0" id="circle0"/>
	<circle cx="4" cy="180.295" r="4" fill="#0" id="circle1"/>
	<circle cx="4" cy="189.429" r="4" fill="#0" id="circle2"/>
	<circle cx="4" cy="198.564" r="4" fill="#0" id="circle3"/>
	<circle cx="4" cy="207.698" r="4" fill="#0" id="circle4"/>
	<circle cx="4" cy="216.832" r="4" fill="#0" id="circle5"/>
	<circle cx="8.56722" cy="162.026" r="4" fill="#0" id="circle6"/>
	<circle cx="8.56722" cy="225.053" r="4" fill="#0" id="circle7"/>
	<circle cx="8.56722" cy="234.188" r="4" fill="#0" id="circle8"/>
	<circle cx="13.1344" cy="152.891" r="4" fill="#0" id="circle9"/>
	<circle cx="13.1344" cy="242.409" r="4" fill="#0" id="circle10"/>
	<circle cx="17.7017" cy="250.63" r="4" fill="#0" id="circle11"/>
	<circle cx="20.442" cy="145.584" r="4" fill="#0" id="circle12"/>
	<circle cx="23.1823" cy="257.937" r="4" fill="#0" id="circle13"/>
	<circle cx="26.8361" cy="134.622" r="4" fill="#0" id="circle14"/>
	<circle cx="26.8361" cy="267.072" r="4" fill="#0" id="circle15"/>
	<circle cx="34.1436" cy="127.315" r="4" fill="#0" id="circle16"/>
	<circle cx="34.1436" cy="273.466" r="4" fill="#0" id="circle17"/>
	<circle cx="40.5378" cy="280.773" r="4" fill="#0" id="circle18"/>
	<circle cx="43.2781" cy="122.748" r="4" fill="#0" id="circle19"/>
	<circle cx="47.8453" cy="287.168" r="4" fill="#0" id="circle20"/>
	<circle cx="51.4991" cy="118.18" r="4" fill="#0" id="circle21"/>
	<circle cx="54.2394" cy="294.475" r="4" fill="#0" id="circle22"/>
	<circle cx="59.7201" cy="113.613" r="4" fill="#0" id="circle23"/>
	<circle cx="61.547" cy="300.869" r="4" fill="#0" id="circle24"/>
	<circle cx="67.9411" cy="109.046" r="4" fill="#0" id="circle25"/>
	<circle cx="67.9411" cy="308.177" r="4" fill="#0" id="circle26"/>
	<circle cx="72.5083" cy="316.398" r="4" fill="#0" id="circle27"/>
	<circle cx="76.1621" cy="104.479" r="4" fill="#0" id="circle28"/>
	<circle cx="78.9024" cy="323.705" r="4" fill="#0" id="circle29"/>
	<circle cx="83.4696" cy="331.926" r="4" fill="#0" id="circle30"/>
	<circle cx="84.3831" cy="99.9116" r="4" fill="#0" id="circle31"/>
	<circle cx="90.7772" cy="338.32" r="4" fill="#0" id="circle32"/>
	<circle cx="92.6041" cy="95.3444" r="4" fill="#0" id="circle33"/>
	<circle cx="93.5175" cy="347.455" r="4" fill="#0" id="circle34"/>
	<circle cx="100.825" cy="90.7772" r="4" fill="#0" id="circle35"/>
	<circle cx="100.825" cy="353.849" r="4" fill="#0" id="circle36"/>
	<circle cx="104.479" cy="362.983" r="4" fill="#0" id="circle37"/>
	<circle cx="109.046" cy="84.3831" r="4" fill="#0" id="circle38"/>
	<circle cx="111.786" cy="369.378" r="4" fill="#0" id="circle39"/>
	<circle cx="118.18" cy="79.8158" r="4" fill="#0" id="circle40"/>
	<circle cx="118.18" cy="376.685" r="4" fill="#0" id="circle41"/>
	<circle cx="125.488" cy="383.079" r="4" fill="#0" id="circle42"/>
	<circle cx="127.315" cy="75.2486" r="4" fill="#0" id="circle43"/>
	<circle cx="132.796" cy="388.56" r="4" fill="#0" id="circle44"/>
	<circle cx="134.622" cy="67.9411" r="4" fill="#0" id="circle45"/>
	<circle cx="141.017" cy="393.127" r="4" fill="#0" id="circle46"/>
	<circle cx="143.757" cy="63.3738" r="4" fill="#0" id="circle47"/>
	<circle cx="146.497" cy="400.435" r="4" fill="#0" id="circle48"/>
	<circle cx="152.891" cy="58.8066" r="4" fill="#0" id="circle49"/>
	<circle cx="153.805" cy="406.829" r="4" fill="#0" id="circle50"/>
	<circle cx="161.112" cy="54.2394" r="4" fill="#0" id="circle51"/>
	<circle cx="162.026" cy="411.396" r="4" fill="#0" id="circle52"/>
	<circle cx="168.42" cy="47.8453" r="4" fill="#0" id="circle53"/>
	<circle cx="171.16" cy="415.05" r="4" fill="#0" id="circle54"/>
	<circle cx="177.554" cy="43.2781" r="4" fill="#0" id="circle55"/>
	<circle cx="178.468" cy="420.53" r="4" fill="#0" id="circle56"/>
	<circle cx="186.689" cy="38.7109" r="4" fill="#0" id="circle57"/>
	<circle cx="186.689" cy="425.098" r="4" fill="#0" id="circle58"/>
	<circle cx="192.169" cy="432.405" r="4" fill="#0" id="circle59"/>
	<circle cx="195.823" cy="34.1436" r="4" fill="#0" id="circle60"/>
	<circle cx="195.823" cy="920.184" r="4" fill="#0" id="circle61"/>
	<circle cx="195.823" cy="929.319" r="4" fill="#0" id="circle62"/>
	<circle cx="195.823" cy="938.453" r="4" fill="#0" id="circle63"/>
	<circle cx="195.823" cy="947.587" r="4" fill="#0" id="circle64"/>
	<circle cx="195.823" cy="956.722" r="4" fill="#0" id="circle65"/>
	<circle cx="195.823" cy="965.856" r="4" fill="#0" id="circle66"/>
	<circle cx="200.39" cy="911.05" r="4" fill="#0" id="circle67"/>
	<circle cx="200.39" cy="974.077" r="4" fill="#0" id="circle68"/>
	<circle cx="201.304" cy="436.059" r="4" fill="#0" id="circle69"/>
	<circle cx="203.131" cy="26.8361" r="4" fill="#0" id="circle70"/>
	<circle cx="204.958" cy="901.915" r="4" fill="#0" id="circle71"/>
	<circle cx="204.958" cy="982.298" r="4" fill="#0" id="circle72"/>
	<circle cx="209.525" cy="892.781" r="4" fill="#0" id="circle73"/>
	<circle cx="209.525" cy="990.519" r="4" fill="#0" id="circle74"/>
	<circle cx="210.438" cy="438.799" r="4" fill="#0" id="circle75"/>
	<circle cx="210.438" cy="932.059" r="4" fill="#0" id="circle76"/>
	<circle cx="210.438" cy="941.193" r="4" fill="#0" id="circle77"/>
	<circle cx="210.438" cy="950.328" r="4" fill="#0" id="circle78"/>
	<circle cx="210.438" cy="959.462" r="4" fill="#0" id="circle79"/>
	<circle cx="212.265" cy="22.2689" r="4" fill="#0" id="circle80"/>
	<circle cx="215.006" cy="918.357" r="4" fill="#0" id="circle81"/>
	<circle cx="215.006" cy="967.683" r="4" fill="#0" id="circle82"/>
	<circle cx="215.006" cy="976.818" r="4" fill="#0" id="circle83"/>
	<circle cx="216.832" cy="885.473" r="4" fill="#0" id="circle84"/>
	<circle cx="216.832" cy="996" r="4" fill="#0" id="circle85"/>
	<circle cx="218.659" cy="443.366" r="4" fill="#0" id="circle86"/>
	<circle cx="219.573" cy="909.223" r="4" fill="#0" id="circle87"/>
	<circle cx="219.573" cy="985.039" r="4" fill="#0" id="circle88"/>
	<circle cx="221.4" cy="17.7017" r="4" fill="#0" id="circle89"/>
	<circle cx="223.227" cy="874.512" r="4" fill="#0" id="circle90"/>
	<circle cx="224.14" cy="900.088" r="4" fill="#0" id="circle91"/>
	<circle cx="226.88" cy="447.934" r="4" fill="#0" id="circle92"/>
	<circle cx="228.707" cy="890.954" r="4" fill="#0" id="circle93"/>
	<circle cx="230.534" cy="13.1344" r="4" fill="#0" id="circle94"/>
	<circle cx="230.534" cy="867.204" r="4" fill="#0" id="circle95"/>
	<circle cx="236.015" cy="447.934" r="4" fill="#0" id="circle96"/>
	<circle cx="236.015" cy="884.56" r="4" fill="#0" id="circle97"/>
	<circle cx="236.928" cy="856.243" r="4" fill="#0" id="circle98"/>
	<circle cx="239.669" cy="8.56722" r="4" fill="#0" id="circle99"/>
	<circle cx="241.495" cy="455.241" r="4" fill="#0" id="circle100"/>
	<circle cx="241.495" cy="464.376" r="4" fill="#0" id="circle101"/>
	<circle cx="241.495" cy="473.51" r="4" fill="#0" id="circle102"/>
	<circle cx="241.495" cy="482.645" r="4" fill="#0" id="circle103"/>
	<circle cx="242.409" cy="491.779" r="4" fill="#0" id="circle104"/>
	<circle cx="242.409" cy="877.252" r="4" fill="#0" id="circle105"/>
	<circle cx="246.063" cy="500.913" r="4" fill="#0" id="circle106"/>
	<circle cx="246.063" cy="510.048" r="4" fill="#0" id="circle107"/>
	<circle cx="246.063" cy="851.676" r="4" fill="#0" id="circle108"/>
	<circle cx="248.803" cy="8.56722" r="4" fill="#0" id="circle109"/>
	<circle cx="249.716" cy="870.858" r="4" fill="#0" id="circle110"/>
	<circle cx="250.63" cy="518.269" r="4" fill="#0" id="circle111"/>
	<circle cx="250.63" cy="527.403" r="4" fill="#0" id="circle112"/>
	<circle cx="253.37" cy="844.368" r="4" fill="#0" id="circle113"/>
	<circle cx="254.284" cy="861.724" r="4" fill="#0" id="circle114"/>
	<circle cx="255.197" cy="535.624" r="4" fill="#0" id="circle115"/>
	<circle cx="257.024" cy="4" r="4" fill="#0" id="circle116"/>
	<circle cx="257.937" cy="835.234" r="4" fill="#0" id="circle117"/>
	<circle cx="259.764" cy="543.845" r="4" fill="#0" id="circle118"/>
	<circle cx="260.678" cy="854.416" r="4" fill="#0" id="circle119"/>
	<circle cx="264.331" cy="552.066" r="4" fill="#0" id="circle120"/>
	<circle cx="265.245" cy="827.926" r="4" fill="#0" id="circle121"/>
	<circle cx="266.158" cy="4" r="4" fill="#0" id="circle122"/>
	<circle cx="267.985" cy="848.022" r="4" fill="#0" id="circle123"/>
	<circle cx="269.812" cy="559.374" r="4" fill="#0" id="circle124"/>
	<circle cx="273.466" cy="568.508" r="4" fill="#0" id="circle125"/>
	<circle cx="274.379" cy="8.56722" r="4" fill="#0" id="circle126"/>
	<circle cx="274.379" cy="823.359" r="4" fill="#0" id="circle127"/>
	<circle cx="274.379" cy="840.715" r="4" fill="#0" id="circle128"/>
	<circle cx="278.033" cy="646.151" r="4" fill="#0" id="circle129"/>
	<circle cx="278.947" cy="814.225" r="4" fill="#0" id="circle130"/>
	<circle cx="280.773" cy="574.902" r="4" fill="#0" id="circle131"/>
	<circle cx="281.687" cy="834.32" r="4" fill="#0" id="circle132"/>
	<circle cx="282.6" cy="637.017" r="4" fill="#0" id="circle133"/>
	<circle cx="283.514" cy="11.3076" r="4" fill="#0" id="circle134"/>
	<circle cx="284.427" cy="584.037" r="4" fill="#0" id="circle135"/>
	<circle cx="286.254" cy="807.831" r="4" fill="#0" id="circle136"/>
	<circle cx="287.168" cy="623.315" r="4" fill="#0" id="circle137"/>
	<circle cx="287.168" cy="646.151" r="4" fill="#0" id="circle138"/>
	<circle cx="288.081" cy="452.501" r="4" fill="#0" id="circle139"/>
	<circle cx="288.081" cy="461.635" r="4" fill="#0" id="circle140"/>
	<circle cx="288.081" cy="470.77" r="4" fill="#0" id="circle141"/>
	<circle cx="288.081" cy="479.904" r="4" fill="#0" id="circle142"/>
	<circle cx="288.081" cy="827.013" r="4" fill="#0" id="circle143"/>
	<circle cx="289.908" cy="489.039" r="4" fill="#0" id="circle144"/>
	<circle cx="291.735" cy="15.8748" r="4" fill="#0" id="circle145"/>
	<circle cx="291.735" cy="589.517" r="4" fill="#0" id="circle146"/>
	<circle cx="291.735" cy="598.652" r="4" fill="#0" id="circle147"/>
	<circle cx="291.735" cy="607.786" r="4" fill="#0" id="circle148"/>
	<circle cx="292.648" cy="498.173" r="4" fill="#0" id="circle149"/>
	<circle cx="294.475" cy="507.308" r="4" fill="#0" id="circle150"/>
	<circle cx="294.475" cy="638.843" r="4" fill="#0" id="circle151"/>
	<circle cx="294.475" cy="803.263" r="4" fill="#0" id="circle152"/>
	<circle cx="295.389" cy="446.107" r="4" fill="#0" id="circle153"/>
	<circle cx="295.389" cy="820.619" r="4" fill="#0" id="circle154"/>
	<circle cx="299.042" cy="515.529" r="4" fill="#0" id="circle155"/>
	<circle cx="299.042" cy="629.709" r="4" fill="#0" id="circle156"/>
	<circle cx="300.869" cy="19.5285" r="4" fill="#0" id="circle157"/>
	<circle cx="301.783" cy="524.663" r="4" fill="#0" id="circle158"/>
	<circle cx="301.783" cy="795.956" r="4" fill="#0" id="circle159"/>
	<circle cx="301.783" cy="813.311" r="4" fill="#0" id="circle160"/>
	<circle cx="304.523" cy="441.54" r="4" fill="#0" id="circle161"/>
	<circle cx="306.35" cy="532.884" r="4" fill="#0" id="circle162"/>
	<circle cx="306.35" cy="786.821" r="4" fill="#0" id="circle163"/>
	<circle cx="308.177" cy="626.055" r="4" fill="#0" id="circle164"/>
	<circle cx="309.09" cy="24.0958" r="4" fill="#0" id="circle165"/>
	<circle cx="310.004" cy="808.744" r="4" fill="#0" id="circle166"/>
	<circle cx="310.917" cy="541.105" r="4" fill="#0" id="circle167"/>
	<circle cx="313.657" cy="438.799" r="4" fill="#0" id="circle168"/>
	<circle cx="315.484" cy="549.326" r="4" fill="#0" id="circle169"/>
	<circle cx="315.484" cy="782.254" r="4" fill="#0" id="circle170"/>
	<circle cx="317.311" cy="626.055" r="4" fill="#0" id="circle171"/>
	<circle cx="317.311" cy="803.263" r="4" fill="#0" id="circle172"/>
	<circle cx="318.225" cy="26.8361" r="4" fill="#0" id="circle173"/>
	<circle cx="320.052" cy="557.547" r="4" fill="#0" id="circle174"/>
	<circle cx="321.878" cy="434.232" r="4" fill="#0" id="circle175"/>
	<circle cx="321.878" cy="794.129" r="4" fill="#0" id="circle176"/>
	<circle cx="322.792" cy="775.86" r="4" fill="#0" id="circle177"/>
	<circle cx="324.619" cy="565.768" r="4" fill="#0" id="circle178"/>
	<circle cx="326.446" cy="31.4033" r="4" fill="#0" id="circle179"/>
	<circle cx="326.446" cy="629.709" r="4" fill="#0" id="circle180"/>
	<circle cx="329.186" cy="573.989" r="4" fill="#0" id="circle181"/>
	<circle cx="329.186" cy="768.552" r="4" fill="#0" id="circle182"/>
	<circle cx="329.186" cy="785.908" r="4" fill="#0" id="circle183"/>
	<circle cx="330.099" cy="429.665" r="4" fill="#0" id="circle184"/>
	<circle cx="330.099" cy="638.843" r="4" fill="#0" id="circle185"/>
	<circle cx="333.753" cy="582.21" r="4" fill="#0" id="circle186"/>
	<circle cx="333.753" cy="759.418" r="4" fill="#0" id="circle187"/>
	<circle cx="334.667" cy="35.9705" r="4" fill="#0" id="circle188"/>
	<circle cx="337.407" cy="644.324" r="4" fill="#0" id="circle189"/>
	<circle cx="337.407" cy="781.341" r="4" fill="#0" id="circle190"/>
	<circle cx="338.32" cy="425.098" r="4" fill="#0" id="circle191"/>
	<circle cx="340.147" cy="589.517" r="4" fill="#0" id="circle192"/>
	<circle cx="340.147" cy="653.459" r="4" fill="#0" id="circle193"/>
	<circle cx="341.061" cy="753.024" r="4" fill="#0" id="circle194"/>
	<circle cx="342.888" cy="40.5378" r="4" fill="#0" id="circle195"/>
	<circle cx="344.715" cy="661.68" r="4" fill="#0" id="circle196"/>
	<circle cx="344.715" cy="775.86" r="4" fill="#0" id="circle197"/>
	<circle cx="345.628" cy="418.703" r="4" fill="#0" id="circle198"/>
	<circle cx="346.541" cy="742.063" r="4" fill="#0" id="circle199"/>
	<circle cx="347.455" cy="595.912" r="4" fill="#0" id="circle200"/>
	<circle cx="348.368" cy="670.814" r="4" fill="#0" id="circle201"/>
	<circle cx="351.109" cy="605.046" r="4" fill="#0" id="circle202"/>
	<circle cx="352.022" cy="43.2781" r="4" fill="#0" id="circle203"/>
	<circle cx="352.022" cy="767.639" r="4" fill="#0" id="circle204"/>
	<circle cx="352.936" cy="679.035" r="4" fill="#0" id="circle205"/>
	<circle cx="353.849" cy="734.755" r="4" fill="#0" id="circle206"/>
	<circle cx="354.762" cy="414.136" r="4" fill="#0" id="circle207"/>
	<circle cx="355.676" cy="688.169" r="4" fill="#0" id="circle208"/>
	<circle cx="355.676" cy="723.794" r="4" fill="#0" id="circle209"/>
	<circle cx="356.589" cy="612.354" r="4" fill="#0" id="circle210"/>
	<circle cx="359.33" cy="49.6722" r="4" fill="#0" id="circle211"/>
	<circle cx="359.33" cy="761.245" r="4" fill="#0" id="circle212"/>
	<circle cx="360.243" cy="696.39" r="4" fill="#0" id="circle213"/>
	<circle cx="360.243" cy="705.525" r="4" fill="#0" id="circle214"/>
	<circle cx="360.243" cy="714.659" r="4" fill="#0" id="circle215"/>
	<circle cx="361.157" cy="620.575" r="4" fill="#0" id="circle216"/>
	<circle cx="363.897" cy="409.569" r="4" fill="#0" id="circle217"/>
	<circle cx="365.724" cy="628.796" r="4" fill="#0" id="circle218"/>
	<circle cx="365.724" cy="749.37" r="4" fill="#0" id="circle219"/>
	<circle cx="367.551" cy="54.2394" r="4" fill="#0" id="circle220"/>
	<circle cx="370.291" cy="402.262" r="4" fill="#0" id="circle221"/>
	<circle cx="370.291" cy="637.017" r="4" fill="#0" id="circle222"/>
	<circle cx="370.291" cy="740.236" r="4" fill="#0" id="circle223"/>
	<circle cx="373.945" cy="646.151" r="4" fill="#0" id="circle224"/>
	<circle cx="374.858" cy="655.285" r="4" fill="#0" id="circle225"/>
	<circle cx="374.858" cy="731.101" r="4" fill="#0" id="circle226"/>
	<circle cx="375.772" cy="58.8066" r="4" fill="#0" id="circle227"/>
	<circle cx="378.512" cy="664.42" r="4" fill="#0" id="circle228"/>
	<circle cx="379.425" cy="397.694" r="4" fill="#0" id="circle229"/>
	<circle cx="379.425" cy="673.554" r="4" fill="#0" id="circle230"/>
	<circle cx="379.425" cy="682.689" r="4" fill="#0" id="circle231"/>
	<circle cx="379.425" cy="691.823" r="4" fill="#0" id="circle232"/>
	<circle cx="379.425" cy="700.958" r="4" fill="#0" id="circle233"/>
	<circle cx="379.425" cy="710.092" r="4" fill="#0" id="circle234"/>
	<circle cx="379.425" cy="719.227" r="4" fill="#0" id="circle235"/>
	<circle cx="383.993" cy="63.3738" r="4" fill="#0" id="circle236"/>
	<circle cx="386.733" cy="391.3" r="4" fill="#0" id="circle237"/>
	<circle cx="393.127" cy="66.1142" r="4" fill="#0" id="circle238"/>
	<circle cx="393.127" cy="383.993" r="4" fill="#0" id="circle239"/>
	<circle cx="401.348" cy="70.6814" r="4" fill="#0" id="circle240"/>
	<circle cx="402.262" cy="374.858" r="4" fill="#0" id="circle241"/>
	<circle cx="408.656" cy="77.0755" r="4" fill="#0" id="circle242"/>
	<circle cx="409.569" cy="368.464" r="4" fill="#0" id="circle243"/>
	<circle cx="415.963" cy="361.157" r="4" fill="#0" id="circle244"/>
	<circle cx="416.877" cy="81.6427" r="4" fill="#0" id="circle245"/>
	<circle cx="423.271" cy="354.762" r="4" fill="#0" id="circle246"/>
	<circle cx="425.098" cy="86.2099" r="4" fill="#0" id="circle247"/>
	<circle cx="429.665" cy="347.455" r="4" fill="#0" id="circle248"/>
	<circle cx="434.232" cy="88.9503" r="4" fill="#0" id="circle249"/>
	<circle cx="434.232" cy="338.32" r="4" fill="#0" id="circle250"/>
	<circle cx="441.54" cy="95.3444" r="4" fill="#0" id="circle251"/>
	<circle cx="441.54" cy="331.926" r="4" fill="#0" id="circle252"/>
	<circle cx="446.107" cy="322.792" r="4" fill="#0" id="circle253"/>
	<circle cx="449.761" cy="99.9116" r="4" fill="#0" id="circle254"/>
	<circle cx="450.674" cy="313.657" r="4" fill="#0" id="circle255"/>
	<circle cx="457.068" cy="301.783" r="4" fill="#0" id="circle256"/>
	<circle cx="457.982" cy="104.479" r="4" fill="#0" id="circle257"/>
	<circle cx="461.635" cy="292.648" r="4" fill="#0" id="circle258"/>
	<circle cx="466.203" cy="109.046" r="4" fill="#0" id="circle259"/>
	<circle cx="468.943" cy="286.254" r="4" fill="#0" id="circle260"/>
	<circle cx="473.51" cy="277.12" r="4" fill="#0" id="circle261"/>
	<circle cx="474.424" cy="113.613" r="4" fill="#0" id="circle262"/>
	<circle cx="479.904" cy="269.812" r="4" fill="#0" id="circle263"/>
	<circle cx="481.731" cy="119.094" r="4" fill="#0" id="circle264"/>
	<circle cx="484.471" cy="260.678" r="4" fill="#0" id="circle265"/>
	<circle cx="489.039" cy="125.488" r="4" fill="#0" id="circle266"/>
	<circle cx="491.779" cy="254.284" r="4" fill="#0" id="circle267"/>
	<circle cx="496.346" cy="131.882" r="4" fill="#0" id="circle268"/>
	<circle cx="498.173" cy="242.409" r="4" fill="#0" id="circle269"/>
	<circle cx="504.567" cy="136.449" r="4" fill="#0" id="circle270"/>
	<circle cx="505.481" cy="236.015" r="4" fill="#0" id="circle271"/>
	<circle cx="510.048" cy="226.88" r="4" fill="#0" id="circle272"/>
	<circle cx="510.961" cy="143.757" r="4" fill="#0" id="circle273"/>
	<circle cx="514.615" cy="217.746" r="4" fill="#0" id="circle274"/>
	<circle cx="515.529" cy="151.978" r="4" fill="#0" id="circle275"/>
	<circle cx="516.442" cy="161.112" r="4" fill="#0" id="circle276"/>
	<circle cx="519.182" cy="208.611" r="4" fill="#0" id="circle277"/>
	<circle cx="521.009" cy="169.333" r="4" fill="#0" id="circle278"/>
	<circle cx="521.009" cy="178.468" r="4" fill="#0" id="circle279"/>
	<circle cx="521.009" cy="187.602" r="4" fill="#0" id="circle280"/>
	<circle cx="521.009" cy="196.737" r="4" fill="#0" id="circle281"/>
	</g>
</svg>