<?xml version="1.0" encoding="UTF-8" standalone="no"?>
<!-- Created with CurveBenchmark -->
<svg
	xmlns:dc="http://purl.org/dc/elements/1.1/"
	xmlns:cc="http://creativecommons.org/ns#"
	xmlns:rdf="http://www.w3.org/1999/02/22-rdf-syntax-ns#"
	xmlns:svg="http://www.w3.org/2000/svg"
	xmlns="http://www.w3.org/2000/svg"
	xmlns:sodipodi="http://sodipodi.sourceforge.net/DTD/sodipodi-0.dtd"
	xmlns:inkscape="http://www.inkscape.org/namespaces/inkscape"
	width="1000"
	height="1000"
	id="svg2"
	version="1.1"
	sodipodi:docname="manifold/crawl-fish0717.png.txt">
<defs
	id="defs4" />
<metadata
	id="metadata7">
	<rdf:RDF>
		<cc:Work
			rdf:about="">
			<dc:format>image/svg+xml</dc:format>
			<dc:type
				rdf:resource="http://purl.org/dc/dcmitype/StillImage" />
			<dc:title></dc:title>
		</cc:Work>
	</rdf:RDF>
</metadata>
<g
	inkscape:label="Layer 1"
	inkscape:groupmode="layer"
	id="layer1">
	<path style="fill:none;stroke:red;stroke-width:1px;stroke-linecap:butt;stroke-linejoin:miter;stroke-opacity:1" d="M 4,160.175 4,174.636 z" id="boundary" inkscape:connector-curvature="0" />
	<path style="fill:none;stroke:red;stroke-width:1px;stroke-linecap:butt;stroke-linejoin:miter;stroke-opacity:1" d="M 4,174.636 15.5685,184.758 z" id="boundary" inkscape:connector-curvature="0" />
	<path style="fill:none;stroke:red;stroke-width:1px;stroke-linecap:butt;stroke-linejoin:miter;stroke-opacity:1" d="M 15.5685,184.758 27.137,193.434 z" id="boundary" inkscape:connector-curvature="0" />
	<path style="fill:none;stroke:red;stroke-width:1px;stroke-linecap:butt;stroke-linejoin:miter;stroke-opacity:1" d="M 27.137,193.434 41.5977,193.434 z" id="boundary" inkscape:connector-curvature="0" />
	<path style="fill:none;stroke:red;stroke-width:1px;stroke-linecap:butt;stroke-linejoin:miter;stroke-opacity:1" d="M 41.5977,193.434 56.0583,196.327 z" id="boundary" inkscape:connector-curvature="0" />
	<path style="fill:none;stroke:red;stroke-width:1px;stroke-linecap:butt;stroke-linejoin:miter;stroke-opacity:1" d="M 56.0583,196.327 70.519,200.665 z" id="boundary" inkscape:connector-curvature="0" />
	<path style="fill:none;stroke:red;stroke-width:1px;stroke-linecap:butt;stroke-linejoin:miter;stroke-opacity:1" d="M 70.519,200.665 84.9796,203.557 z" id="boundary" inkscape:connector-curvature="0" />
	<path style="fill:none;stroke:red;stroke-width:1px;stroke-linecap:butt;stroke-linejoin:miter;stroke-opacity:1" d="M 84.9796,203.557 99.4402,207.895 z" id="boundary" inkscape:connector-curvature="0" />
	<path style="fill:none;stroke:red;stroke-width:1px;stroke-linecap:butt;stroke-linejoin:miter;stroke-opacity:1" d="M 99.4402,207.895 113.901,207.895 z" id="boundary" inkscape:connector-curvature="0" />
	<path style="fill:none;stroke:red;stroke-width:1px;stroke-linecap:butt;stroke-linejoin:miter;stroke-opacity:1" d="M 113.901,207.895 126.915,215.125 z" id="boundary" inkscape:connector-curvature="0" />
	<path style="fill:none;stroke:red;stroke-width:1px;stroke-linecap:butt;stroke-linejoin:miter;stroke-opacity:1" d="M 126.915,215.125 141.376,215.125 z" id="boundary" inkscape:connector-curvature="0" />
	<path style="fill:none;stroke:red;stroke-width:1px;stroke-linecap:butt;stroke-linejoin:miter;stroke-opacity:1" d="M 141.376,215.125 154.391,222.356 z" id="boundary" inkscape:connector-curvature="0" />
	<path style="fill:none;stroke:red;stroke-width:1px;stroke-linecap:butt;stroke-linejoin:miter;stroke-opacity:1" d="M 154.391,222.356 168.851,222.356 z" id="boundary" inkscape:connector-curvature="0" />
	<path style="fill:none;stroke:red;stroke-width:1px;stroke-linecap:butt;stroke-linejoin:miter;stroke-opacity:1" d="M 168.851,222.356 183.312,222.356 z" id="boundary" inkscape:connector-curvature="0" />
	<path style="fill:none;stroke:red;stroke-width:1px;stroke-linecap:butt;stroke-linejoin:miter;stroke-opacity:1" d="M 183.312,222.356 197.773,222.356 z" id="boundary" inkscape:connector-curvature="0" />
	<path style="fill:none;stroke:red;stroke-width:1px;stroke-linecap:butt;stroke-linejoin:miter;stroke-opacity:1" d="M 197.773,222.356 210.787,229.586 z" id="boundary" inkscape:connector-curvature="0" />
	<path style="fill:none;stroke:red;stroke-width:1px;stroke-linecap:butt;stroke-linejoin:miter;stroke-opacity:1" d="M 210.787,229.586 220.91,241.155 z" id="boundary" inkscape:connector-curvature="0" />
	<path style="fill:none;stroke:red;stroke-width:1px;stroke-linecap:butt;stroke-linejoin:miter;stroke-opacity:1" d="M 220.91,241.155 228.14,254.169 z" id="boundary" inkscape:connector-curvature="0" />
	<path style="fill:none;stroke:red;stroke-width:1px;stroke-linecap:butt;stroke-linejoin:miter;stroke-opacity:1" d="M 228.14,254.169 228.14,268.63 z" id="boundary" inkscape:connector-curvature="0" />
	<path style="fill:none;stroke:red;stroke-width:1px;stroke-linecap:butt;stroke-linejoin:miter;stroke-opacity:1" d="M 228.14,268.63 235.37,281.644 z" id="boundary" inkscape:connector-curvature="0" />
	<path style="fill:none;stroke:red;stroke-width:1px;stroke-linecap:butt;stroke-linejoin:miter;stroke-opacity:1" d="M 235.37,281.644 242.601,294.659 z" id="boundary" inkscape:connector-curvature="0" />
	<path style="fill:none;stroke:red;stroke-width:1px;stroke-linecap:butt;stroke-linejoin:miter;stroke-opacity:1" d="M 242.601,294.659 246.939,309.12 z" id="boundary" inkscape:connector-curvature="0" />
	<path style="fill:none;stroke:red;stroke-width:1px;stroke-linecap:butt;stroke-linejoin:miter;stroke-opacity:1" d="M 246.939,309.12 254.169,322.134 z" id="boundary" inkscape:connector-curvature="0" />
	<path style="fill:none;stroke:red;stroke-width:1px;stroke-linecap:butt;stroke-linejoin:miter;stroke-opacity:1" d="M 254.169,322.134 259.953,336.595 z" id="boundary" inkscape:connector-curvature="0" />
	<path style="fill:none;stroke:red;stroke-width:1px;stroke-linecap:butt;stroke-linejoin:miter;stroke-opacity:1" d="M 259.953,336.595 271.522,345.271 z" id="boundary" inkscape:connector-curvature="0" />
	<path style="fill:none;stroke:red;stroke-width:1px;stroke-linecap:butt;stroke-linejoin:miter;stroke-opacity:1" d="M 271.522,345.271 284.536,352.501 z" id="boundary" inkscape:connector-curvature="0" />
	<path style="fill:none;stroke:red;stroke-width:1px;stroke-linecap:butt;stroke-linejoin:miter;stroke-opacity:1" d="M 284.536,352.501 298.997,349.609 z" id="boundary" inkscape:connector-curvature="0" />
	<path style="fill:none;stroke:red;stroke-width:1px;stroke-linecap:butt;stroke-linejoin:miter;stroke-opacity:1" d="M 4,160.175 18.4606,152.945 z" id="boundary" inkscape:connector-curvature="0" />
	<path style="fill:none;stroke:red;stroke-width:1px;stroke-linecap:butt;stroke-linejoin:miter;stroke-opacity:1" d="M 18.4606,152.945 32.9213,145.714 z" id="boundary" inkscape:connector-curvature="0" />
	<path style="fill:none;stroke:red;stroke-width:1px;stroke-linecap:butt;stroke-linejoin:miter;stroke-opacity:1" d="M 32.9213,145.714 47.3819,141.376 z" id="boundary" inkscape:connector-curvature="0" />
	<path style="fill:none;stroke:red;stroke-width:1px;stroke-linecap:butt;stroke-linejoin:miter;stroke-opacity:1" d="M 47.3819,141.376 61.8426,138.484 z" id="boundary" inkscape:connector-curvature="0" />
	<path style="fill:none;stroke:red;stroke-width:1px;stroke-linecap:butt;stroke-linejoin:miter;stroke-opacity:1" d="M 61.8426,138.484 76.3032,134.146 z" id="boundary" inkscape:connector-curvature="0" />
	<path style="fill:none;stroke:red;stroke-width:1px;stroke-linecap:butt;stroke-linejoin:miter;stroke-opacity:1" d="M 76.3032,134.146 90.7638,131.254 z" id="boundary" inkscape:connector-curvature="0" />
	<path style="fill:none;stroke:red;stroke-width:1px;stroke-linecap:butt;stroke-linejoin:miter;stroke-opacity:1" d="M 90.7638,131.254 105.224,126.915 z" id="boundary" inkscape:connector-curvature="0" />
	<path style="fill:none;stroke:red;stroke-width:1px;stroke-linecap:butt;stroke-linejoin:miter;stroke-opacity:1" d="M 105.224,126.915 119.685,124.023 z" id="boundary" inkscape:connector-curvature="0" />
	<path style="fill:none;stroke:red;stroke-width:1px;stroke-linecap:butt;stroke-linejoin:miter;stroke-opacity:1" d="M 119.685,124.023 134.146,119.685 z" id="boundary" inkscape:connector-curvature="0" />
	<path style="fill:none;stroke:red;stroke-width:1px;stroke-linecap:butt;stroke-linejoin:miter;stroke-opacity:1" d="M 134.146,119.685 148.606,116.793 z" id="boundary" inkscape:connector-curvature="0" />
	<path style="fill:none;stroke:red;stroke-width:1px;stroke-linecap:butt;stroke-linejoin:miter;stroke-opacity:1" d="M 148.606,116.793 163.067,112.455 z" id="boundary" inkscape:connector-curvature="0" />
	<path style="fill:none;stroke:red;stroke-width:1px;stroke-linecap:butt;stroke-linejoin:miter;stroke-opacity:1" d="M 163.067,112.455 177.528,112.455 z" id="boundary" inkscape:connector-curvature="0" />
	<path style="fill:none;stroke:red;stroke-width:1px;stroke-linecap:butt;stroke-linejoin:miter;stroke-opacity:1" d="M 177.528,112.455 190.542,105.224 z" id="boundary" inkscape:connector-curvature="0" />
	<path style="fill:none;stroke:red;stroke-width:1px;stroke-linecap:butt;stroke-linejoin:miter;stroke-opacity:1" d="M 190.542,105.224 205.003,105.224 z" id="boundary" inkscape:connector-curvature="0" />
	<path style="fill:none;stroke:red;stroke-width:1px;stroke-linecap:butt;stroke-linejoin:miter;stroke-opacity:1" d="M 205.003,105.224 218.017,97.9942 z" id="boundary" inkscape:connector-curvature="0" />
	<path style="fill:none;stroke:red;stroke-width:1px;stroke-linecap:butt;stroke-linejoin:miter;stroke-opacity:1" d="M 218.017,97.9942 232.478,97.9942 z" id="boundary" inkscape:connector-curvature="0" />
	<path style="fill:none;stroke:red;stroke-width:1px;stroke-linecap:butt;stroke-linejoin:miter;stroke-opacity:1" d="M 232.478,97.9942 246.939,97.9942 z" id="boundary" inkscape:connector-curvature="0" />
	<path style="fill:none;stroke:red;stroke-width:1px;stroke-linecap:butt;stroke-linejoin:miter;stroke-opacity:1" d="M 246.939,97.9942 261.399,97.9942 z" id="boundary" inkscape:connector-curvature="0" />
	<path style="fill:none;stroke:red;stroke-width:1px;stroke-linecap:butt;stroke-linejoin:miter;stroke-opacity:1" d="M 261.399,97.9942 275.86,97.9942 z" id="boundary" inkscape:connector-curvature="0" />
	<path style="fill:none;stroke:red;stroke-width:1px;stroke-linecap:butt;stroke-linejoin:miter;stroke-opacity:1" d="M 275.86,97.9942 290.321,97.9942 z" id="boundary" inkscape:connector-curvature="0" />
	<path style="fill:none;stroke:red;stroke-width:1px;stroke-linecap:butt;stroke-linejoin:miter;stroke-opacity:1" d="M 290.321,97.9942 304.781,97.9942 z" id="boundary" inkscape:connector-curvature="0" />
	<path style="fill:none;stroke:red;stroke-width:1px;stroke-linecap:butt;stroke-linejoin:miter;stroke-opacity:1" d="M 304.781,97.9942 319.242,90.7638 z" id="boundary" inkscape:connector-curvature="0" />
	<path style="fill:none;stroke:red;stroke-width:1px;stroke-linecap:butt;stroke-linejoin:miter;stroke-opacity:1" d="M 319.242,90.7638 333.703,83.5335 z" id="boundary" inkscape:connector-curvature="0" />
	<path style="fill:none;stroke:red;stroke-width:1px;stroke-linecap:butt;stroke-linejoin:miter;stroke-opacity:1" d="M 333.703,83.5335 348.163,76.3032 z" id="boundary" inkscape:connector-curvature="0" />
	<path style="fill:none;stroke:red;stroke-width:1px;stroke-linecap:butt;stroke-linejoin:miter;stroke-opacity:1" d="M 348.163,76.3032 358.286,58.9504 z" id="boundary" inkscape:connector-curvature="0" />
	<path style="fill:none;stroke:red;stroke-width:1px;stroke-linecap:butt;stroke-linejoin:miter;stroke-opacity:1" d="M 358.286,58.9504 372.746,44.4898 z" id="boundary" inkscape:connector-curvature="0" />
	<path style="fill:none;stroke:red;stroke-width:1px;stroke-linecap:butt;stroke-linejoin:miter;stroke-opacity:1" d="M 372.746,44.4898 384.315,32.9213 z" id="boundary" inkscape:connector-curvature="0" />
	<path style="fill:none;stroke:red;stroke-width:1px;stroke-linecap:butt;stroke-linejoin:miter;stroke-opacity:1" d="M 384.315,32.9213 398.776,25.691 z" id="boundary" inkscape:connector-curvature="0" />
	<path style="fill:none;stroke:red;stroke-width:1px;stroke-linecap:butt;stroke-linejoin:miter;stroke-opacity:1" d="M 398.776,25.691 410.344,14.1224 z" id="boundary" inkscape:connector-curvature="0" />
	<path style="fill:none;stroke:red;stroke-width:1px;stroke-linecap:butt;stroke-linejoin:miter;stroke-opacity:1" d="M 410.344,14.1224 421.913,4 z" id="boundary" inkscape:connector-curvature="0" />
	<path style="fill:none;stroke:red;stroke-width:1px;stroke-linecap:butt;stroke-linejoin:miter;stroke-opacity:1" d="M 421.913,4 436.373,4 z" id="boundary" inkscape:connector-curvature="0" />
	<path style="fill:none;stroke:red;stroke-width:1px;stroke-linecap:butt;stroke-linejoin:miter;stroke-opacity:1" d="M 436.373,4 446.496,15.5685 z" id="boundary" inkscape:connector-curvature="0" />
	<path style="fill:none;stroke:red;stroke-width:1px;stroke-linecap:butt;stroke-linejoin:miter;stroke-opacity:1" d="M 298.997,349.609 297.551,323.58 z" id="boundary" inkscape:connector-curvature="0" />
	<path style="fill:none;stroke:red;stroke-width:1px;stroke-linecap:butt;stroke-linejoin:miter;stroke-opacity:1" d="M 297.551,323.58 294.659,309.12 z" id="boundary" inkscape:connector-curvature="0" />
	<path style="fill:none;stroke:red;stroke-width:1px;stroke-linecap:butt;stroke-linejoin:miter;stroke-opacity:1" d="M 294.659,309.12 301.889,294.659 z" id="boundary" inkscape:connector-curvature="0" />
	<path style="fill:none;stroke:red;stroke-width:1px;stroke-linecap:butt;stroke-linejoin:miter;stroke-opacity:1" d="M 301.889,294.659 301.889,280.198 z" id="boundary" inkscape:connector-curvature="0" />
	<path style="fill:none;stroke:red;stroke-width:1px;stroke-linecap:butt;stroke-linejoin:miter;stroke-opacity:1" d="M 301.889,280.198 301.889,265.738 z" id="boundary" inkscape:connector-curvature="0" />
	<path style="fill:none;stroke:red;stroke-width:1px;stroke-linecap:butt;stroke-linejoin:miter;stroke-opacity:1" d="M 301.889,265.738 309.12,251.277 z" id="boundary" inkscape:connector-curvature="0" />
	<path style="fill:none;stroke:red;stroke-width:1px;stroke-linecap:butt;stroke-linejoin:miter;stroke-opacity:1" d="M 309.12,251.277 316.35,236.816 z" id="boundary" inkscape:connector-curvature="0" />
	<path style="fill:none;stroke:red;stroke-width:1px;stroke-linecap:butt;stroke-linejoin:miter;stroke-opacity:1" d="M 316.35,236.816 327.918,226.694 z" id="boundary" inkscape:connector-curvature="0" />
	<path style="fill:none;stroke:red;stroke-width:1px;stroke-linecap:butt;stroke-linejoin:miter;stroke-opacity:1" d="M 327.918,226.694 342.379,222.356 z" id="boundary" inkscape:connector-curvature="0" />
	<path style="fill:none;stroke:red;stroke-width:1px;stroke-linecap:butt;stroke-linejoin:miter;stroke-opacity:1" d="M 342.379,222.356 356.84,222.356 z" id="boundary" inkscape:connector-curvature="0" />
	<path style="fill:none;stroke:red;stroke-width:1px;stroke-linecap:butt;stroke-linejoin:miter;stroke-opacity:1" d="M 356.84,222.356 369.854,229.586 z" id="boundary" inkscape:connector-curvature="0" />
	<path style="fill:none;stroke:red;stroke-width:1px;stroke-linecap:butt;stroke-linejoin:miter;stroke-opacity:1" d="M 369.854,229.586 384.315,229.586 z" id="boundary" inkscape:connector-curvature="0" />
	<path style="fill:none;stroke:red;stroke-width:1px;stroke-linecap:butt;stroke-linejoin:miter;stroke-opacity:1" d="M 384.315,229.586 398.776,229.586 z" id="boundary" inkscape:connector-curvature="0" />
	<path style="fill:none;stroke:red;stroke-width:1px;stroke-linecap:butt;stroke-linejoin:miter;stroke-opacity:1" d="M 398.776,229.586 413.236,229.586 z" id="boundary" inkscape:connector-curvature="0" />
	<path style="fill:none;stroke:red;stroke-width:1px;stroke-linecap:butt;stroke-linejoin:miter;stroke-opacity:1" d="M 413.236,229.586 427.697,229.586 z" id="boundary" inkscape:connector-curvature="0" />
	<path style="fill:none;stroke:red;stroke-width:1px;stroke-linecap:butt;stroke-linejoin:miter;stroke-opacity:1" d="M 427.697,229.586 442.157,229.586 z" id="boundary" inkscape:connector-curvature="0" />
	<path style="fill:none;stroke:red;stroke-width:1px;stroke-linecap:butt;stroke-linejoin:miter;stroke-opacity:1" d="M 442.157,229.586 456.618,229.586 z" id="boundary" inkscape:connector-curvature="0" />
	<path style="fill:none;stroke:red;stroke-width:1px;stroke-linecap:butt;stroke-linejoin:miter;stroke-opacity:1" d="M 456.618,229.586 471.079,229.586 z" id="boundary" inkscape:connector-curvature="0" />
	<path style="fill:none;stroke:red;stroke-width:1px;stroke-linecap:butt;stroke-linejoin:miter;stroke-opacity:1" d="M 471.079,229.586 485.539,235.37 z" id="boundary" inkscape:connector-curvature="0" />
	<path style="fill:none;stroke:red;stroke-width:1px;stroke-linecap:butt;stroke-linejoin:miter;stroke-opacity:1" d="M 485.539,235.37 498.554,242.601 z" id="boundary" inkscape:connector-curvature="0" />
	<path style="fill:none;stroke:red;stroke-width:1px;stroke-linecap:butt;stroke-linejoin:miter;stroke-opacity:1" d="M 498.554,242.601 513.015,248.385 z" id="boundary" inkscape:connector-curvature="0" />
	<path style="fill:none;stroke:red;stroke-width:1px;stroke-linecap:butt;stroke-linejoin:miter;stroke-opacity:1" d="M 513.015,248.385 526.029,255.615 z" id="boundary" inkscape:connector-curvature="0" />
	<path style="fill:none;stroke:red;stroke-width:1px;stroke-linecap:butt;stroke-linejoin:miter;stroke-opacity:1" d="M 526.029,255.615 540.49,258.507 z" id="boundary" inkscape:connector-curvature="0" />
	<path style="fill:none;stroke:red;stroke-width:1px;stroke-linecap:butt;stroke-linejoin:miter;stroke-opacity:1" d="M 540.49,258.507 553.504,251.277 z" id="boundary" inkscape:connector-curvature="0" />
	<path style="fill:none;stroke:red;stroke-width:1px;stroke-linecap:butt;stroke-linejoin:miter;stroke-opacity:1" d="M 553.504,251.277 562.181,236.816 z" id="boundary" inkscape:connector-curvature="0" />
	<path style="fill:none;stroke:red;stroke-width:1px;stroke-linecap:butt;stroke-linejoin:miter;stroke-opacity:1" d="M 562.181,236.816 576.641,222.356 z" id="boundary" inkscape:connector-curvature="0" />
	<path style="fill:none;stroke:red;stroke-width:1px;stroke-linecap:butt;stroke-linejoin:miter;stroke-opacity:1" d="M 576.641,222.356 591.102,222.356 z" id="boundary" inkscape:connector-curvature="0" />
	<path style="fill:none;stroke:red;stroke-width:1px;stroke-linecap:butt;stroke-linejoin:miter;stroke-opacity:1" d="M 591.102,222.356 604.117,215.125 z" id="boundary" inkscape:connector-curvature="0" />
	<path style="fill:none;stroke:red;stroke-width:1px;stroke-linecap:butt;stroke-linejoin:miter;stroke-opacity:1" d="M 604.117,215.125 618.577,215.125 z" id="boundary" inkscape:connector-curvature="0" />
	<path style="fill:none;stroke:red;stroke-width:1px;stroke-linecap:butt;stroke-linejoin:miter;stroke-opacity:1" d="M 618.577,215.125 633.038,215.125 z" id="boundary" inkscape:connector-curvature="0" />
	<path style="fill:none;stroke:red;stroke-width:1px;stroke-linecap:butt;stroke-linejoin:miter;stroke-opacity:1" d="M 633.038,215.125 647.499,215.125 z" id="boundary" inkscape:connector-curvature="0" />
	<path style="fill:none;stroke:red;stroke-width:1px;stroke-linecap:butt;stroke-linejoin:miter;stroke-opacity:1" d="M 647.499,215.125 660.513,222.356 z" id="boundary" inkscape:connector-curvature="0" />
	<path style="fill:none;stroke:red;stroke-width:1px;stroke-linecap:butt;stroke-linejoin:miter;stroke-opacity:1" d="M 660.513,222.356 670.636,233.924 z" id="boundary" inkscape:connector-curvature="0" />
	<path style="fill:none;stroke:red;stroke-width:1px;stroke-linecap:butt;stroke-linejoin:miter;stroke-opacity:1" d="M 670.636,233.924 685.096,236.816 z" id="boundary" inkscape:connector-curvature="0" />
	<path style="fill:none;stroke:red;stroke-width:1px;stroke-linecap:butt;stroke-linejoin:miter;stroke-opacity:1" d="M 685.096,236.816 698.111,244.047 z" id="boundary" inkscape:connector-curvature="0" />
	<path style="fill:none;stroke:red;stroke-width:1px;stroke-linecap:butt;stroke-linejoin:miter;stroke-opacity:1" d="M 698.111,244.047 712.571,239.708 z" id="boundary" inkscape:connector-curvature="0" />
	<path style="fill:none;stroke:red;stroke-width:1px;stroke-linecap:butt;stroke-linejoin:miter;stroke-opacity:1" d="M 712.571,239.708 724.14,228.14 z" id="boundary" inkscape:connector-curvature="0" />
	<path style="fill:none;stroke:red;stroke-width:1px;stroke-linecap:butt;stroke-linejoin:miter;stroke-opacity:1" d="M 724.14,228.14 735.708,215.125 z" id="boundary" inkscape:connector-curvature="0" />
	<path style="fill:none;stroke:red;stroke-width:1px;stroke-linecap:butt;stroke-linejoin:miter;stroke-opacity:1" d="M 735.708,215.125 748.723,207.895 z" id="boundary" inkscape:connector-curvature="0" />
	<path style="fill:none;stroke:red;stroke-width:1px;stroke-linecap:butt;stroke-linejoin:miter;stroke-opacity:1" d="M 748.723,207.895 761.738,200.665 z" id="boundary" inkscape:connector-curvature="0" />
	<path style="fill:none;stroke:red;stroke-width:1px;stroke-linecap:butt;stroke-linejoin:miter;stroke-opacity:1" d="M 761.738,200.665 776.198,200.665 z" id="boundary" inkscape:connector-curvature="0" />
	<path style="fill:none;stroke:red;stroke-width:1px;stroke-linecap:butt;stroke-linejoin:miter;stroke-opacity:1" d="M 776.198,200.665 789.213,207.895 z" id="boundary" inkscape:connector-curvature="0" />
	<path style="fill:none;stroke:red;stroke-width:1px;stroke-linecap:butt;stroke-linejoin:miter;stroke-opacity:1" d="M 789.213,207.895 803.673,213.679 z" id="boundary" inkscape:connector-curvature="0" />
	<path style="fill:none;stroke:red;stroke-width:1px;stroke-linecap:butt;stroke-linejoin:miter;stroke-opacity:1" d="M 803.673,213.679 815.242,222.356 z" id="boundary" inkscape:connector-curvature="0" />
	<path style="fill:none;stroke:red;stroke-width:1px;stroke-linecap:butt;stroke-linejoin:miter;stroke-opacity:1" d="M 815.242,222.356 828.257,229.586 z" id="boundary" inkscape:connector-curvature="0" />
	<path style="fill:none;stroke:red;stroke-width:1px;stroke-linecap:butt;stroke-linejoin:miter;stroke-opacity:1" d="M 828.257,229.586 841.271,236.816 z" id="boundary" inkscape:connector-curvature="0" />
	<path style="fill:none;stroke:red;stroke-width:1px;stroke-linecap:butt;stroke-linejoin:miter;stroke-opacity:1" d="M 841.271,236.816 855.732,236.816 z" id="boundary" inkscape:connector-curvature="0" />
	<path style="fill:none;stroke:red;stroke-width:1px;stroke-linecap:butt;stroke-linejoin:miter;stroke-opacity:1" d="M 855.732,236.816 868.746,244.047 z" id="boundary" inkscape:connector-curvature="0" />
	<path style="fill:none;stroke:red;stroke-width:1px;stroke-linecap:butt;stroke-linejoin:miter;stroke-opacity:1" d="M 868.746,244.047 883.207,244.047 z" id="boundary" inkscape:connector-curvature="0" />
	<path style="fill:none;stroke:red;stroke-width:1px;stroke-linecap:butt;stroke-linejoin:miter;stroke-opacity:1" d="M 883.207,244.047 891.883,222.356 z" id="boundary" inkscape:connector-curvature="0" />
	<path style="fill:none;stroke:red;stroke-width:1px;stroke-linecap:butt;stroke-linejoin:miter;stroke-opacity:1" d="M 891.883,222.356 880.315,213.679 z" id="boundary" inkscape:connector-curvature="0" />
	<path style="fill:none;stroke:red;stroke-width:1px;stroke-linecap:butt;stroke-linejoin:miter;stroke-opacity:1" d="M 880.315,213.679 873.085,200.665 z" id="boundary" inkscape:connector-curvature="0" />
	<path style="fill:none;stroke:red;stroke-width:1px;stroke-linecap:butt;stroke-linejoin:miter;stroke-opacity:1" d="M 873.085,200.665 873.085,186.204 z" id="boundary" inkscape:connector-curvature="0" />
	<path style="fill:none;stroke:red;stroke-width:1px;stroke-linecap:butt;stroke-linejoin:miter;stroke-opacity:1" d="M 873.085,186.204 873.085,171.743 z" id="boundary" inkscape:connector-curvature="0" />
	<path style="fill:none;stroke:red;stroke-width:1px;stroke-linecap:butt;stroke-linejoin:miter;stroke-opacity:1" d="M 873.085,171.743 880.315,157.283 z" id="boundary" inkscape:connector-curvature="0" />
	<path style="fill:none;stroke:red;stroke-width:1px;stroke-linecap:butt;stroke-linejoin:miter;stroke-opacity:1" d="M 880.315,157.283 894.776,142.822 z" id="boundary" inkscape:connector-curvature="0" />
	<path style="fill:none;stroke:red;stroke-width:1px;stroke-linecap:butt;stroke-linejoin:miter;stroke-opacity:1" d="M 894.776,142.822 906.344,132.7 z" id="boundary" inkscape:connector-curvature="0" />
	<path style="fill:none;stroke:red;stroke-width:1px;stroke-linecap:butt;stroke-linejoin:miter;stroke-opacity:1" d="M 906.344,132.7 916.466,121.131 z" id="boundary" inkscape:connector-curvature="0" />
	<path style="fill:none;stroke:red;stroke-width:1px;stroke-linecap:butt;stroke-linejoin:miter;stroke-opacity:1" d="M 916.466,121.131 923.697,106.671 z" id="boundary" inkscape:connector-curvature="0" />
	<path style="fill:none;stroke:red;stroke-width:1px;stroke-linecap:butt;stroke-linejoin:miter;stroke-opacity:1" d="M 923.697,106.671 935.265,96.5481 z" id="boundary" inkscape:connector-curvature="0" />
	<path style="fill:none;stroke:red;stroke-width:1px;stroke-linecap:butt;stroke-linejoin:miter;stroke-opacity:1" d="M 935.265,96.5481 943.942,84.9796 z" id="boundary" inkscape:connector-curvature="0" />
	<path style="fill:none;stroke:red;stroke-width:1px;stroke-linecap:butt;stroke-linejoin:miter;stroke-opacity:1" d="M 943.942,84.9796 952.618,70.519 z" id="boundary" inkscape:connector-curvature="0" />
	<path style="fill:none;stroke:red;stroke-width:1px;stroke-linecap:butt;stroke-linejoin:miter;stroke-opacity:1" d="M 952.618,70.519 964.187,60.3965 z" id="boundary" inkscape:connector-curvature="0" />
	<path style="fill:none;stroke:red;stroke-width:1px;stroke-linecap:butt;stroke-linejoin:miter;stroke-opacity:1" d="M 964.187,60.3965 978.647,53.1662 z" id="boundary" inkscape:connector-curvature="0" />
	<path style="fill:none;stroke:red;stroke-width:1px;stroke-linecap:butt;stroke-linejoin:miter;stroke-opacity:1" d="M 978.647,53.1662 985.878,38.7055 z" id="boundary" inkscape:connector-curvature="0" />
	<path style="fill:none;stroke:red;stroke-width:1px;stroke-linecap:butt;stroke-linejoin:miter;stroke-opacity:1" d="M 985.878,38.7055 993.108,24.2449 z" id="boundary" inkscape:connector-curvature="0" />
	<path style="fill:none;stroke:red;stroke-width:1px;stroke-linecap:butt;stroke-linejoin:miter;stroke-opacity:1" d="M 993.108,24.2449 996,4 z" id="boundary" inkscape:connector-curvature="0" />
	<path style="fill:none;stroke:red;stroke-width:1px;stroke-linecap:butt;stroke-linejoin:miter;stroke-opacity:1" d="M 996,4 981.539,6.89213 z" id="boundary" inkscape:connector-curvature="0" />
	<path style="fill:none;stroke:red;stroke-width:1px;stroke-linecap:butt;stroke-linejoin:miter;stroke-opacity:1" d="M 981.539,6.89213 969.971,18.4606 z" id="boundary" inkscape:connector-curvature="0" />
	<path style="fill:none;stroke:red;stroke-width:1px;stroke-linecap:butt;stroke-linejoin:miter;stroke-opacity:1" d="M 969.971,18.4606 955.51,25.691 z" id="boundary" inkscape:connector-curvature="0" />
	<path style="fill:none;stroke:red;stroke-width:1px;stroke-linecap:butt;stroke-linejoin:miter;stroke-opacity:1" d="M 955.51,25.691 941.05,32.9213 z" id="boundary" inkscape:connector-curvature="0" />
	<path style="fill:none;stroke:red;stroke-width:1px;stroke-linecap:butt;stroke-linejoin:miter;stroke-opacity:1" d="M 941.05,32.9213 928.035,40.1516 z" id="boundary" inkscape:connector-curvature="0" />
	<path style="fill:none;stroke:red;stroke-width:1px;stroke-linecap:butt;stroke-linejoin:miter;stroke-opacity:1" d="M 928.035,40.1516 916.466,50.2741 z" id="boundary" inkscape:connector-curvature="0" />
	<path style="fill:none;stroke:red;stroke-width:1px;stroke-linecap:butt;stroke-linejoin:miter;stroke-opacity:1" d="M 916.466,50.2741 904.898,61.8426 z" id="boundary" inkscape:connector-curvature="0" />
	<path style="fill:none;stroke:red;stroke-width:1px;stroke-linecap:butt;stroke-linejoin:miter;stroke-opacity:1" d="M 904.898,61.8426 891.883,69.0729 z" id="boundary" inkscape:connector-curvature="0" />
	<path style="fill:none;stroke:red;stroke-width:1px;stroke-linecap:butt;stroke-linejoin:miter;stroke-opacity:1" d="M 891.883,69.0729 880.315,79.1953 z" id="boundary" inkscape:connector-curvature="0" />
	<path style="fill:none;stroke:red;stroke-width:1px;stroke-linecap:butt;stroke-linejoin:miter;stroke-opacity:1" d="M 880.315,79.1953 865.854,86.4257 z" id="boundary" inkscape:connector-curvature="0" />
	<path style="fill:none;stroke:red;stroke-width:1px;stroke-linecap:butt;stroke-linejoin:miter;stroke-opacity:1" d="M 865.854,86.4257 855.732,97.9942 z" id="boundary" inkscape:connector-curvature="0" />
	<path style="fill:none;stroke:red;stroke-width:1px;stroke-linecap:butt;stroke-linejoin:miter;stroke-opacity:1" d="M 855.732,97.9942 844.163,108.117 z" id="boundary" inkscape:connector-curvature="0" />
	<path style="fill:none;stroke:red;stroke-width:1px;stroke-linecap:butt;stroke-linejoin:miter;stroke-opacity:1" d="M 844.163,108.117 832.595,119.685 z" id="boundary" inkscape:connector-curvature="0" />
	<path style="fill:none;stroke:red;stroke-width:1px;stroke-linecap:butt;stroke-linejoin:miter;stroke-opacity:1" d="M 832.595,119.685 818.134,126.915 z" id="boundary" inkscape:connector-curvature="0" />
	<path style="fill:none;stroke:red;stroke-width:1px;stroke-linecap:butt;stroke-linejoin:miter;stroke-opacity:1" d="M 818.134,126.915 810.904,141.376 z" id="boundary" inkscape:connector-curvature="0" />
	<path style="fill:none;stroke:red;stroke-width:1px;stroke-linecap:butt;stroke-linejoin:miter;stroke-opacity:1" d="M 810.904,141.376 797.889,148.606 z" id="boundary" inkscape:connector-curvature="0" />
	<path style="fill:none;stroke:red;stroke-width:1px;stroke-linecap:butt;stroke-linejoin:miter;stroke-opacity:1" d="M 797.889,148.606 784.875,155.837 z" id="boundary" inkscape:connector-curvature="0" />
	<path style="fill:none;stroke:red;stroke-width:1px;stroke-linecap:butt;stroke-linejoin:miter;stroke-opacity:1" d="M 784.875,155.837 770.414,155.837 z" id="boundary" inkscape:connector-curvature="0" />
	<path style="fill:none;stroke:red;stroke-width:1px;stroke-linecap:butt;stroke-linejoin:miter;stroke-opacity:1" d="M 770.414,155.837 755.953,152.945 z" id="boundary" inkscape:connector-curvature="0" />
	<path style="fill:none;stroke:red;stroke-width:1px;stroke-linecap:butt;stroke-linejoin:miter;stroke-opacity:1" d="M 755.953,152.945 745.831,141.376 z" id="boundary" inkscape:connector-curvature="0" />
	<path style="fill:none;stroke:red;stroke-width:1px;stroke-linecap:butt;stroke-linejoin:miter;stroke-opacity:1" d="M 745.831,141.376 731.37,141.376 z" id="boundary" inkscape:connector-curvature="0" />
	<path style="fill:none;stroke:red;stroke-width:1px;stroke-linecap:butt;stroke-linejoin:miter;stroke-opacity:1" d="M 731.37,141.376 724.14,128.362 z" id="boundary" inkscape:connector-curvature="0" />
	<path style="fill:none;stroke:red;stroke-width:1px;stroke-linecap:butt;stroke-linejoin:miter;stroke-opacity:1" d="M 724.14,128.362 714.017,116.793 z" id="boundary" inkscape:connector-curvature="0" />
	<path style="fill:none;stroke:red;stroke-width:1px;stroke-linecap:butt;stroke-linejoin:miter;stroke-opacity:1" d="M 714.017,116.793 705.341,105.224 z" id="boundary" inkscape:connector-curvature="0" />
	<path style="fill:none;stroke:red;stroke-width:1px;stroke-linecap:butt;stroke-linejoin:miter;stroke-opacity:1" d="M 705.341,105.224 692.327,112.455 z" id="boundary" inkscape:connector-curvature="0" />
	<path style="fill:none;stroke:red;stroke-width:1px;stroke-linecap:butt;stroke-linejoin:miter;stroke-opacity:1" d="M 692.327,112.455 679.312,119.685 z" id="boundary" inkscape:connector-curvature="0" />
	<path style="fill:none;stroke:red;stroke-width:1px;stroke-linecap:butt;stroke-linejoin:miter;stroke-opacity:1" d="M 679.312,119.685 666.297,126.915 z" id="boundary" inkscape:connector-curvature="0" />
	<path style="fill:none;stroke:red;stroke-width:1px;stroke-linecap:butt;stroke-linejoin:miter;stroke-opacity:1" d="M 666.297,126.915 651.837,126.915 z" id="boundary" inkscape:connector-curvature="0" />
	<path style="fill:none;stroke:red;stroke-width:1px;stroke-linecap:butt;stroke-linejoin:miter;stroke-opacity:1" d="M 651.837,126.915 637.376,134.146 z" id="boundary" inkscape:connector-curvature="0" />
	<path style="fill:none;stroke:red;stroke-width:1px;stroke-linecap:butt;stroke-linejoin:miter;stroke-opacity:1" d="M 637.376,134.146 622.915,134.146 z" id="boundary" inkscape:connector-curvature="0" />
	<path style="fill:none;stroke:red;stroke-width:1px;stroke-linecap:butt;stroke-linejoin:miter;stroke-opacity:1" d="M 622.915,134.146 609.901,126.915 z" id="boundary" inkscape:connector-curvature="0" />
	<path style="fill:none;stroke:red;stroke-width:1px;stroke-linecap:butt;stroke-linejoin:miter;stroke-opacity:1" d="M 609.901,126.915 595.44,126.915 z" id="boundary" inkscape:connector-curvature="0" />
	<path style="fill:none;stroke:red;stroke-width:1px;stroke-linecap:butt;stroke-linejoin:miter;stroke-opacity:1" d="M 595.44,126.915 580.98,126.915 z" id="boundary" inkscape:connector-curvature="0" />
	<path style="fill:none;stroke:red;stroke-width:1px;stroke-linecap:butt;stroke-linejoin:miter;stroke-opacity:1" d="M 580.98,126.915 566.519,121.131 z" id="boundary" inkscape:connector-curvature="0" />
	<path style="fill:none;stroke:red;stroke-width:1px;stroke-linecap:butt;stroke-linejoin:miter;stroke-opacity:1" d="M 566.519,121.131 552.058,119.685 z" id="boundary" inkscape:connector-curvature="0" />
	<path style="fill:none;stroke:red;stroke-width:1px;stroke-linecap:butt;stroke-linejoin:miter;stroke-opacity:1" d="M 552.058,119.685 537.598,119.685 z" id="boundary" inkscape:connector-curvature="0" />
	<path style="fill:none;stroke:red;stroke-width:1px;stroke-linecap:butt;stroke-linejoin:miter;stroke-opacity:1" d="M 537.598,119.685 523.137,119.685 z" id="boundary" inkscape:connector-curvature="0" />
	<path style="fill:none;stroke:red;stroke-width:1px;stroke-linecap:butt;stroke-linejoin:miter;stroke-opacity:1" d="M 523.137,119.685 510.122,112.455 z" id="boundary" inkscape:connector-curvature="0" />
	<path style="fill:none;stroke:red;stroke-width:1px;stroke-linecap:butt;stroke-linejoin:miter;stroke-opacity:1" d="M 510.122,112.455 495.662,112.455 z" id="boundary" inkscape:connector-curvature="0" />
	<path style="fill:none;stroke:red;stroke-width:1px;stroke-linecap:butt;stroke-linejoin:miter;stroke-opacity:1" d="M 495.662,112.455 481.201,108.117 z" id="boundary" inkscape:connector-curvature="0" />
	<path style="fill:none;stroke:red;stroke-width:1px;stroke-linecap:butt;stroke-linejoin:miter;stroke-opacity:1" d="M 481.201,108.117 466.741,102.332 z" id="boundary" inkscape:connector-curvature="0" />
	<path style="fill:none;stroke:red;stroke-width:1px;stroke-linecap:butt;stroke-linejoin:miter;stroke-opacity:1" d="M 466.741,102.332 453.726,95.102 z" id="boundary" inkscape:connector-curvature="0" />
	<path style="fill:none;stroke:red;stroke-width:1px;stroke-linecap:butt;stroke-linejoin:miter;stroke-opacity:1" d="M 453.726,95.102 442.157,84.9796 z" id="boundary" inkscape:connector-curvature="0" />
	<path style="fill:none;stroke:red;stroke-width:1px;stroke-linecap:butt;stroke-linejoin:miter;stroke-opacity:1" d="M 442.157,84.9796 439.265,70.519 z" id="boundary" inkscape:connector-curvature="0" />
	<path style="fill:none;stroke:red;stroke-width:1px;stroke-linecap:butt;stroke-linejoin:miter;stroke-opacity:1" d="M 439.265,70.519 439.265,56.0583 z" id="boundary" inkscape:connector-curvature="0" />
	<path style="fill:none;stroke:red;stroke-width:1px;stroke-linecap:butt;stroke-linejoin:miter;stroke-opacity:1" d="M 439.265,56.0583 439.265,41.5977 z" id="boundary" inkscape:connector-curvature="0" />
	<path style="fill:none;stroke:red;stroke-width:1px;stroke-linecap:butt;stroke-linejoin:miter;stroke-opacity:1" d="M 446.496,15.5685 439.265,41.5977 z" id="boundary" inkscape:connector-curvature="0" />
	<circle cx="4" cy="160.175" r="4" fill="#0" id="circle0"/>
	<circle cx="4" cy="174.636" r="4" fill="#0" id="circle1"/>
	<circle cx="15.5685" cy="184.758" r="4" fill="#0" id="circle2"/>
	<circle cx="18.4606" cy="152.945" r="4" fill="#0" id="circle3"/>
	<circle cx="27.137" cy="193.434" r="4" fill="#0" id="circle4"/>
	<circle cx="32.9213" cy="145.714" r="4" fill="#0" id="circle5"/>
	<circle cx="41.5977" cy="193.434" r="4" fill="#0" id="circle6"/>
	<circle cx="47.3819" cy="141.376" r="4" fill="#0" id="circle7"/>
	<circle cx="56.0583" cy="196.327" r="4" fill="#0" id="circle8"/>
	<circle cx="61.8426" cy="138.484" r="4" fill="#0" id="circle9"/>
	<circle cx="70.519" cy="200.665" r="4" fill="#0" id="circle10"/>
	<circle cx="76.3032" cy="134.146" r="4" fill="#0" id="circle11"/>
	<circle cx="84.9796" cy="203.557" r="4" fill="#0" id="circle12"/>
	<circle cx="90.7638" cy="131.254" r="4" fill="#0" id="circle13"/>
	<circle cx="99.4402" cy="207.895" r="4" fill="#0" id="circle14"/>
	<circle cx="105.224" cy="126.915" r="4" fill="#0" id="circle15"/>
	<circle cx="113.901" cy="207.895" r="4" fill="#0" id="circle16"/>
	<circle cx="119.685" cy="124.023" r="4" fill="#0" id="circle17"/>
	<circle cx="126.915" cy="215.125" r="4" fill="#0" id="circle18"/>
	<circle cx="134.146" cy="119.685" r="4" fill="#0" id="circle19"/>
	<circle cx="141.376" cy="215.125" r="4" fill="#0" id="circle20"/>
	<circle cx="148.606" cy="116.793" r="4" fill="#0" id="circle21"/>
	<circle cx="154.391" cy="222.356" r="4" fill="#0" id="circle22"/>
	<circle cx="163.067" cy="112.455" r="4" fill="#0" id="circle23"/>
	<circle cx="168.851" cy="222.356" r="4" fill="#0" id="circle24"/>
	<circle cx="177.528" cy="112.455" r="4" fill="#0" id="circle25"/>
	<circle cx="183.312" cy="222.356" r="4" fill="#0" id="circle26"/>
	<circle cx="190.542" cy="105.224" r="4" fill="#0" id="circle27"/>
	<circle cx="197.773" cy="222.356" r="4" fill="#0" id="circle28"/>
	<circle cx="205.003" cy="105.224" r="4" fill="#0" id="circle29"/>
	<circle cx="210.787" cy="229.586" r="4" fill="#0" id="circle30"/>
	<circle cx="218.017" cy="97.9942" r="4" fill="#0" id="circle31"/>
	<circle cx="220.91" cy="241.155" r="4" fill="#0" id="circle32"/>
	<circle cx="228.14" cy="254.169" r="4" fill="#0" id="circle33"/>
	<circle cx="228.14" cy="268.63" r="4" fill="#0" id="circle34"/>
	<circle cx="232.478" cy="97.9942" r="4" fill="#0" id="circle35"/>
	<circle cx="235.37" cy="281.644" r="4" fill="#0" id="circle36"/>
	<circle cx="242.601" cy="294.659" r="4" fill="#0" id="circle37"/>
	<circle cx="246.939" cy="97.9942" r="4" fill="#0" id="circle38"/>
	<circle cx="246.939" cy="309.12" r="4" fill="#0" id="circle39"/>
	<circle cx="254.169" cy="322.134" r="4" fill="#0" id="circle40"/>
	<circle cx="259.953" cy="336.595" r="4" fill="#0" id="circle41"/>
	<circle cx="261.399" cy="97.9942" r="4" fill="#0" id="circle42"/>
	<circle cx="271.522" cy="345.271" r="4" fill="#0" id="circle43"/>
	<circle cx="275.86" cy="97.9942" r="4" fill="#0" id="circle44"/>
	<circle cx="284.536" cy="352.501" r="4" fill="#0" id="circle45"/>
	<circle cx="290.321" cy="97.9942" r="4" fill="#0" id="circle46"/>
	<circle cx="294.659" cy="309.12" r="4" fill="#0" id="circle47"/>
	<circle cx="297.551" cy="323.58" r="4" fill="#0" id="circle48"/>
	<circle cx="298.997" cy="349.609" r="4" fill="#0" id="circle49"/>
	<circle cx="301.889" cy="265.738" r="4" fill="#0" id="circle50"/>
	<circle cx="301.889" cy="280.198" r="4" fill="#0" id="circle51"/>
	<circle cx="301.889" cy="294.659" r="4" fill="#0" id="circle52"/>
	<circle cx="304.781" cy="97.9942" r="4" fill="#0" id="circle53"/>
	<circle cx="309.12" cy="251.277" r="4" fill="#0" id="circle54"/>
	<circle cx="316.35" cy="236.816" r="4" fill="#0" id="circle55"/>
	<circle cx="319.242" cy="90.7638" r="4" fill="#0" id="circle56"/>
	<circle cx="327.918" cy="226.694" r="4" fill="#0" id="circle57"/>
	<circle cx="333.703" cy="83.5335" r="4" fill="#0" id="circle58"/>
	<circle cx="342.379" cy="222.356" r="4" fill="#0" id="circle59"/>
	<circle cx="348.163" cy="76.3032" r="4" fill="#0" id="circle60"/>
	<circle cx="356.84" cy="222.356" r="4" fill="#0" id="circle61"/>
	<circle cx="358.286" cy="58.9504" r="4" fill="#0" id="circle62"/>
	<circle cx="369.854" cy="229.586" r="4" fill="#0" id="circle63"/>
	<circle cx="372.746" cy="44.4898" r="4" fill="#0" id="circle64"/>
	<circle cx="384.315" cy="32.9213" r="4" fill="#0" id="circle65"/>
	<circle cx="384.315" cy="229.586" r="4" fill="#0" id="circle66"/>
	<circle cx="398.776" cy="25.691" r="4" fill="#0" id="circle67"/>
	<circle cx="398.776" cy="229.586" r="4" fill="#0" id="circle68"/>
	<circle cx="410.344" cy="14.1224" r="4" fill="#0" id="circle69"/>
	<circle cx="413.236" cy="229.586" r="4" fill="#0" id="circle70"/>
	<circle cx="421.913" cy="4" r="4" fill="#0" id="circle71"/>
	<circle cx="427.697" cy="229.586" r="4" fill="#0" id="circle72"/>
	<circle cx="436.373" cy="4" r="4" fill="#0" id="circle73"/>
	<circle cx="439.265" cy="41.5977" r="4" fill="#0" id="circle74"/>
	<circle cx="439.265" cy="56.0583" r="4" fill="#0" id="circle75"/>
	<circle cx="439.265" cy="70.519" r="4" fill="#0" id="circle76"/>
	<circle cx="442.157" cy="84.9796" r="4" fill="#0" id="circle77"/>
	<circle cx="442.157" cy="229.586" r="4" fill="#0" id="circle78"/>
	<circle cx="446.496" cy="15.5685" r="4" fill="#0" id="circle79"/>
	<circle cx="453.726" cy="95.102" r="4" fill="#0" id="circle80"/>
	<circle cx="456.618" cy="229.586" r="4" fill="#0" id="circle81"/>
	<circle cx="466.741" cy="102.332" r="4" fill="#0" id="circle82"/>
	<circle cx="471.079" cy="229.586" r="4" fill="#0" id="circle83"/>
	<circle cx="481.201" cy="108.117" r="4" fill="#0" id="circle84"/>
	<circle cx="485.539" cy="235.37" r="4" fill="#0" id="circle85"/>
	<circle cx="495.662" cy="112.455" r="4" fill="#0" id="circle86"/>
	<circle cx="498.554" cy="242.601" r="4" fill="#0" id="circle87"/>
	<circle cx="510.122" cy="112.455" r="4" fill="#0" id="circle88"/>
	<circle cx="513.015" cy="248.385" r="4" fill="#0" id="circle89"/>
	<circle cx="523.137" cy="119.685" r="4" fill="#0" id="circle90"/>
	<circle cx="526.029" cy="255.615" r="4" fill="#0" id="circle91"/>
	<circle cx="537.598" cy="119.685" r="4" fill="#0" id="circle92"/>
	<circle cx="540.49" cy="258.507" r="4" fill="#0" id="circle93"/>
	<circle cx="552.058" cy="119.685" r="4" fill="#0" id="circle94"/>
	<circle cx="553.504" cy="251.277" r="4" fill="#0" id="circle95"/>
	<circle cx="562.181" cy="236.816" r="4" fill="#0" id="circle96"/>
	<circle cx="566.519" cy="121.131" r="4" fill="#0" id="circle97"/>
	<circle cx="576.641" cy="222.356" r="4" fill="#0" id="circle98"/>
	<circle cx="580.98" cy="126.915" r="4" fill="#0" id="circle99"/>
	<circle cx="591.102" cy="222.356" r="4" fill="#0" id="circle100"/>
	<circle cx="595.44" cy="126.915" r="4" fill="#0" id="circle101"/>
	<circle cx="604.117" cy="215.125" r="4" fill="#0" id="circle102"/>
	<circle cx="609.901" cy="126.915" r="4" fill="#0" id="circle103"/>
	<circle cx="618.577" cy="215.125" r="4" fill="#0" id="circle104"/>
	<circle cx="622.915" cy="134.146" r="4" fill="#0" id="circle105"/>
	<circle cx="633.038" cy="215.125" r="4" fill="#0" id="circle106"/>
	<circle cx="637.376" cy="134.146" r="4" fill="#0" id="circle107"/>
	<circle cx="647.499" cy="215.125" r="4" fill="#0" id="circle108"/>
	<circle cx="651.837" cy="126.915" r="4" fill="#0" id="circle109"/>
	<circle cx="660.513" cy="222.356" r="4" fill="#0" id="circle110"/>
	<circle cx="666.297" cy="126.915" r="4" fill="#0" id="circle111"/>
	<circle cx="670.636" cy="233.924" r="4" fill="#0" id="circle112"/>
	<circle cx="679.312" cy="119.685" r="4" fill="#0" id="circle113"/>
	<circle cx="685.096" cy="236.816" r="4" fill="#0" id="circle114"/>
	<circle cx="692.327" cy="112.455" r="4" fill="#0" id="circle115"/>
	<circle cx="698.111" cy="244.047" r="4" fill="#0" id="circle116"/>
	<circle cx="705.341" cy="105.224" r="4" fill="#0" id="circle117"/>
	<circle cx="712.571" cy="239.708" r="4" fill="#0" id="circle118"/>
	<circle cx="714.017" cy="116.793" r="4" fill="#0" id="circle119"/>
	<circle cx="724.14" cy="128.362" r="4" fill="#0" id="circle120"/>
	<circle cx="724.14" cy="228.14" r="4" fill="#0" id="circle121"/>
	<circle cx="731.37" cy="141.376" r="4" fill="#0" id="circle122"/>
	<circle cx="735.708" cy="215.125" r="4" fill="#0" id="circle123"/>
	<circle cx="745.831" cy="141.376" r="4" fill="#0" id="circle124"/>
	<circle cx="748.723" cy="207.895" r="4" fill="#0" id="circle125"/>
	<circle cx="755.953" cy="152.945" r="4" fill="#0" id="circle126"/>
	<circle cx="761.738" cy="200.665" r="4" fill="#0" id="circle127"/>
	<circle cx="770.414" cy="155.837" r="4" fill="#0" id="circle128"/>
	<circle cx="776.198" cy="200.665" r="4" fill="#0" id="circle129"/>
	<circle cx="784.875" cy="155.837" r="4" fill="#0" id="circle130"/>
	<circle cx="789.213" cy="207.895" r="4" fill="#0" id="circle131"/>
	<circle cx="797.889" cy="148.606" r="4" fill="#0" id="circle132"/>
	<circle cx="803.673" cy="213.679" r="4" fill="#0" id="circle133"/>
	<circle cx="810.904" cy="141.376" r="4" fill="#0" id="circle134"/>
	<circle cx="815.242" cy="222.356" r="4" fill="#0" id="circle135"/>
	<circle cx="818.134" cy="126.915" r="4" fill="#0" id="circle136"/>
	<circle cx="828.257" cy="229.586" r="4" fill="#0" id="circle137"/>
	<circle cx="832.595" cy="119.685" r="4" fill="#0" id="circle138"/>
	<circle cx="841.271" cy="236.816" r="4" fill="#0" id="circle139"/>
	<circle cx="844.163" cy="108.117" r="4" fill="#0" id="circle140"/>
	<circle cx="855.732" cy="97.9942" r="4" fill="#0" id="circle141"/>
	<circle cx="855.732" cy="236.816" r="4" fill="#0" id="circle142"/>
	<circle cx="865.854" cy="86.4257" r="4" fill="#0" id="circle143"/>
	<circle cx="868.746" cy="244.047" r="4" fill="#0" id="circle144"/>
	<circle cx="873.085" cy="171.743" r="4" fill="#0" id="circle145"/>
	<circle cx="873.085" cy="186.204" r="4" fill="#0" id="circle146"/>
	<circle cx="873.085" cy="200.665" r="4" fill="#0" id="circle147"/>
	<circle cx="880.315" cy="79.1953" r="4" fill="#0" id="circle148"/>
	<circle cx="880.315" cy="157.283" r="4" fill="#0" id="circle149"/>
	<circle cx="880.315" cy="213.679" r="4" fill="#0" id="circle150"/>
	<circle cx="883.207" cy="244.047" r="4" fill="#0" id="circle151"/>
	<circle cx="891.883" cy="69.0729" r="4" fill="#0" id="circle152"/>
	<circle cx="891.883" cy="222.356" r="4" fill="#0" id="circle153"/>
	<circle cx="894.776" cy="142.822" r="4" fill="#0" id="circle154"/>
	<circle cx="904.898" cy="61.8426" r="4" fill="#0" id="circle155"/>
	<circle cx="906.344" cy="132.7" r="4" fill="#0" id="circle156"/>
	<circle cx="916.466" cy="50.2741" r="4" fill="#0" id="circle157"/>
	<circle cx="916.466" cy="121.131" r="4" fill="#0" id="circle158"/>
	<circle cx="923.697" cy="106.671" r="4" fill="#0" id="circle159"/>
	<circle cx="928.035" cy="40.1516" r="4" fill="#0" id="circle160"/>
	<circle cx="935.265" cy="96.5481" r="4" fill="#0" id="circle161"/>
	<circle cx="941.05" cy="32.9213" r="4" fill="#0" id="circle162"/>
	<circle cx="943.942" cy="84.9796" r="4" fill="#0" id="circle163"/>
	<circle cx="952.618" cy="70.519" r="4" fill="#0" id="circle164"/>
	<circle cx="955.51" cy="25.691" r="4" fill="#0" id="circle165"/>
	<circle cx="964.187" cy="60.3965" r="4" fill="#0" id="circle166"/>
	<circle cx="969.971" cy="18.4606" r="4" fill="#0" id="circle167"/>
	<circle cx="978.647" cy="53.1662" r="4" fill="#0" id="circle168"/>
	<circle cx="981.539" cy="6.89213" r="4" fill="#0" id="circle169"/>
	<circle cx="985.878" cy="38.7055" r="4" fill="#0" id="circle170"/>
	<circle cx="993.108" cy="24.2449" r="4" fill="#0" id="circle171"/>
	<circle cx="996" cy="4" r="4" fill="#0" id="circle172"/>
	</g>
</svg>