<?xml version="1.0" encoding="UTF-8" standalone="no"?>
<!-- Created with CurveBenchmark -->
<svg
	xmlns:dc="http://purl.org/dc/elements/1.1/"
	xmlns:cc="http://creativecommons.org/ns#"
	xmlns:rdf="http://www.w3.org/1999/02/22-rdf-syntax-ns#"
	xmlns:svg="http://www.w3.org/2000/svg"
	xmlns="http://www.w3.org/2000/svg"
	xmlns:sodipodi="http://sodipodi.sourceforge.net/DTD/sodipodi-0.dtd"
	xmlns:inkscape="http://www.inkscape.org/namespaces/inkscape"
	width="1000"
	height="1000"
	id="svg2"
	version="1.1"
	sodipodi:docname="manifold/crawl-Misk13.png.txt">
<defs
	id="defs4" />
<metadata
	id="metadata7">
	<rdf:RDF>
		<cc:Work
			rdf:about="">
			<dc:format>image/svg+xml</dc:format>
			<dc:type
				rdf:resource="http://purl.org/dc/dcmitype/StillImage" />
			<dc:title></dc:title>
		</cc:Work>
	</rdf:RDF>
</metadata>
<g
	inkscape:label="Layer 1"
	inkscape:groupmode="layer"
	id="layer1">
	<path style="fill:none;stroke:red;stroke-width:1px;stroke-linecap:butt;stroke-linejoin:miter;stroke-opacity:1" d="M 4,203.815 4,221.497 z" id="boundary" inkscape:connector-curvature="0" />
	<path style="fill:none;stroke:red;stroke-width:1px;stroke-linecap:butt;stroke-linejoin:miter;stroke-opacity:1" d="M 4,221.497 18.1462,233.875 z" id="boundary" inkscape:connector-curvature="0" />
	<path style="fill:none;stroke:red;stroke-width:1px;stroke-linecap:butt;stroke-linejoin:miter;stroke-opacity:1" d="M 18.1462,233.875 25.2193,251.558 z" id="boundary" inkscape:connector-curvature="0" />
	<path style="fill:none;stroke:red;stroke-width:1px;stroke-linecap:butt;stroke-linejoin:miter;stroke-opacity:1" d="M 25.2193,251.558 42.902,258.631 z" id="boundary" inkscape:connector-curvature="0" />
	<path style="fill:none;stroke:red;stroke-width:1px;stroke-linecap:butt;stroke-linejoin:miter;stroke-opacity:1" d="M 42.902,258.631 57.0481,271.009 z" id="boundary" inkscape:connector-curvature="0" />
	<path style="fill:none;stroke:red;stroke-width:1px;stroke-linecap:butt;stroke-linejoin:miter;stroke-opacity:1" d="M 57.0481,271.009 67.6578,285.155 z" id="boundary" inkscape:connector-curvature="0" />
	<path style="fill:none;stroke:red;stroke-width:1px;stroke-linecap:butt;stroke-linejoin:miter;stroke-opacity:1" d="M 67.6578,285.155 81.8039,297.533 z" id="boundary" inkscape:connector-curvature="0" />
	<path style="fill:none;stroke:red;stroke-width:1px;stroke-linecap:butt;stroke-linejoin:miter;stroke-opacity:1" d="M 81.8039,297.533 92.4135,311.679 z" id="boundary" inkscape:connector-curvature="0" />
	<path style="fill:none;stroke:red;stroke-width:1px;stroke-linecap:butt;stroke-linejoin:miter;stroke-opacity:1" d="M 92.4135,311.679 106.56,324.057 z" id="boundary" inkscape:connector-curvature="0" />
	<path style="fill:none;stroke:red;stroke-width:1px;stroke-linecap:butt;stroke-linejoin:miter;stroke-opacity:1" d="M 106.56,324.057 115.401,339.971 z" id="boundary" inkscape:connector-curvature="0" />
	<path style="fill:none;stroke:red;stroke-width:1px;stroke-linecap:butt;stroke-linejoin:miter;stroke-opacity:1" d="M 115.401,339.971 118.938,357.654 z" id="boundary" inkscape:connector-curvature="0" />
	<path style="fill:none;stroke:red;stroke-width:1px;stroke-linecap:butt;stroke-linejoin:miter;stroke-opacity:1" d="M 118.938,357.654 127.779,373.569 z" id="boundary" inkscape:connector-curvature="0" />
	<path style="fill:none;stroke:red;stroke-width:1px;stroke-linecap:butt;stroke-linejoin:miter;stroke-opacity:1" d="M 127.779,373.569 136.62,389.483 z" id="boundary" inkscape:connector-curvature="0" />
	<path style="fill:none;stroke:red;stroke-width:1px;stroke-linecap:butt;stroke-linejoin:miter;stroke-opacity:1" d="M 136.62,389.483 136.62,407.166 z" id="boundary" inkscape:connector-curvature="0" />
	<path style="fill:none;stroke:red;stroke-width:1px;stroke-linecap:butt;stroke-linejoin:miter;stroke-opacity:1" d="M 136.62,407.166 136.62,424.848 z" id="boundary" inkscape:connector-curvature="0" />
	<path style="fill:none;stroke:red;stroke-width:1px;stroke-linecap:butt;stroke-linejoin:miter;stroke-opacity:1" d="M 136.62,424.848 136.62,442.531 z" id="boundary" inkscape:connector-curvature="0" />
	<path style="fill:none;stroke:red;stroke-width:1px;stroke-linecap:butt;stroke-linejoin:miter;stroke-opacity:1" d="M 136.62,442.531 136.62,460.214 z" id="boundary" inkscape:connector-curvature="0" />
	<path style="fill:none;stroke:red;stroke-width:1px;stroke-linecap:butt;stroke-linejoin:miter;stroke-opacity:1" d="M 136.62,460.214 136.62,477.897 z" id="boundary" inkscape:connector-curvature="0" />
	<path style="fill:none;stroke:red;stroke-width:1px;stroke-linecap:butt;stroke-linejoin:miter;stroke-opacity:1" d="M 4,203.815 18.1462,189.668 z" id="boundary" inkscape:connector-curvature="0" />
	<path style="fill:none;stroke:red;stroke-width:1px;stroke-linecap:butt;stroke-linejoin:miter;stroke-opacity:1" d="M 18.1462,189.668 34.0606,180.827 z" id="boundary" inkscape:connector-curvature="0" />
	<path style="fill:none;stroke:red;stroke-width:1px;stroke-linecap:butt;stroke-linejoin:miter;stroke-opacity:1" d="M 34.0606,180.827 48.2068,168.449 z" id="boundary" inkscape:connector-curvature="0" />
	<path style="fill:none;stroke:red;stroke-width:1px;stroke-linecap:butt;stroke-linejoin:miter;stroke-opacity:1" d="M 48.2068,168.449 65.8895,159.608 z" id="boundary" inkscape:connector-curvature="0" />
	<path style="fill:none;stroke:red;stroke-width:1px;stroke-linecap:butt;stroke-linejoin:miter;stroke-opacity:1" d="M 65.8895,159.608 80.0357,145.462 z" id="boundary" inkscape:connector-curvature="0" />
	<path style="fill:none;stroke:red;stroke-width:1px;stroke-linecap:butt;stroke-linejoin:miter;stroke-opacity:1" d="M 80.0357,145.462 94.1818,131.316 z" id="boundary" inkscape:connector-curvature="0" />
	<path style="fill:none;stroke:red;stroke-width:1px;stroke-linecap:butt;stroke-linejoin:miter;stroke-opacity:1" d="M 94.1818,131.316 108.328,118.938 z" id="boundary" inkscape:connector-curvature="0" />
	<path style="fill:none;stroke:red;stroke-width:1px;stroke-linecap:butt;stroke-linejoin:miter;stroke-opacity:1" d="M 108.328,118.938 124.242,110.096 z" id="boundary" inkscape:connector-curvature="0" />
	<path style="fill:none;stroke:red;stroke-width:1px;stroke-linecap:butt;stroke-linejoin:miter;stroke-opacity:1" d="M 124.242,110.096 138.389,95.9501 z" id="boundary" inkscape:connector-curvature="0" />
	<path style="fill:none;stroke:red;stroke-width:1px;stroke-linecap:butt;stroke-linejoin:miter;stroke-opacity:1" d="M 138.389,95.9501 152.535,83.5722 z" id="boundary" inkscape:connector-curvature="0" />
	<path style="fill:none;stroke:red;stroke-width:1px;stroke-linecap:butt;stroke-linejoin:miter;stroke-opacity:1" d="M 152.535,83.5722 168.449,74.7308 z" id="boundary" inkscape:connector-curvature="0" />
	<path style="fill:none;stroke:red;stroke-width:1px;stroke-linecap:butt;stroke-linejoin:miter;stroke-opacity:1" d="M 168.449,74.7308 184.364,65.8895 z" id="boundary" inkscape:connector-curvature="0" />
	<path style="fill:none;stroke:red;stroke-width:1px;stroke-linecap:butt;stroke-linejoin:miter;stroke-opacity:1" d="M 184.364,65.8895 198.51,53.5116 z" id="boundary" inkscape:connector-curvature="0" />
	<path style="fill:none;stroke:red;stroke-width:1px;stroke-linecap:butt;stroke-linejoin:miter;stroke-opacity:1" d="M 198.51,53.5116 216.193,44.6702 z" id="boundary" inkscape:connector-curvature="0" />
	<path style="fill:none;stroke:red;stroke-width:1px;stroke-linecap:butt;stroke-linejoin:miter;stroke-opacity:1" d="M 216.193,44.6702 233.875,35.8289 z" id="boundary" inkscape:connector-curvature="0" />
	<path style="fill:none;stroke:red;stroke-width:1px;stroke-linecap:butt;stroke-linejoin:miter;stroke-opacity:1" d="M 233.875,35.8289 251.558,26.9875 z" id="boundary" inkscape:connector-curvature="0" />
	<path style="fill:none;stroke:red;stroke-width:1px;stroke-linecap:butt;stroke-linejoin:miter;stroke-opacity:1" d="M 251.558,26.9875 269.241,18.1462 z" id="boundary" inkscape:connector-curvature="0" />
	<path style="fill:none;stroke:red;stroke-width:1px;stroke-linecap:butt;stroke-linejoin:miter;stroke-opacity:1" d="M 269.241,18.1462 286.923,9.30481 z" id="boundary" inkscape:connector-curvature="0" />
	<path style="fill:none;stroke:red;stroke-width:1px;stroke-linecap:butt;stroke-linejoin:miter;stroke-opacity:1" d="M 286.923,9.30481 304.606,9.30481 z" id="boundary" inkscape:connector-curvature="0" />
	<path style="fill:none;stroke:red;stroke-width:1px;stroke-linecap:butt;stroke-linejoin:miter;stroke-opacity:1" d="M 304.606,9.30481 322.289,4 z" id="boundary" inkscape:connector-curvature="0" />
	<path style="fill:none;stroke:red;stroke-width:1px;stroke-linecap:butt;stroke-linejoin:miter;stroke-opacity:1" d="M 322.289,4 339.971,4 z" id="boundary" inkscape:connector-curvature="0" />
	<path style="fill:none;stroke:red;stroke-width:1px;stroke-linecap:butt;stroke-linejoin:miter;stroke-opacity:1" d="M 339.971,4 357.654,4 z" id="boundary" inkscape:connector-curvature="0" />
	<path style="fill:none;stroke:red;stroke-width:1px;stroke-linecap:butt;stroke-linejoin:miter;stroke-opacity:1" d="M 357.654,4 375.337,4 z" id="boundary" inkscape:connector-curvature="0" />
	<path style="fill:none;stroke:red;stroke-width:1px;stroke-linecap:butt;stroke-linejoin:miter;stroke-opacity:1" d="M 375.337,4 393.02,7.53654 z" id="boundary" inkscape:connector-curvature="0" />
	<path style="fill:none;stroke:red;stroke-width:1px;stroke-linecap:butt;stroke-linejoin:miter;stroke-opacity:1" d="M 393.02,7.53654 410.702,4 z" id="boundary" inkscape:connector-curvature="0" />
	<path style="fill:none;stroke:red;stroke-width:1px;stroke-linecap:butt;stroke-linejoin:miter;stroke-opacity:1" d="M 410.702,4 428.385,7.53654 z" id="boundary" inkscape:connector-curvature="0" />
	<path style="fill:none;stroke:red;stroke-width:1px;stroke-linecap:butt;stroke-linejoin:miter;stroke-opacity:1" d="M 428.385,7.53654 446.068,12.8414 z" id="boundary" inkscape:connector-curvature="0" />
	<path style="fill:none;stroke:red;stroke-width:1px;stroke-linecap:butt;stroke-linejoin:miter;stroke-opacity:1" d="M 446.068,12.8414 463.75,12.8414 z" id="boundary" inkscape:connector-curvature="0" />
	<path style="fill:none;stroke:red;stroke-width:1px;stroke-linecap:butt;stroke-linejoin:miter;stroke-opacity:1" d="M 463.75,12.8414 479.665,21.6827 z" id="boundary" inkscape:connector-curvature="0" />
	<path style="fill:none;stroke:red;stroke-width:1px;stroke-linecap:butt;stroke-linejoin:miter;stroke-opacity:1" d="M 479.665,21.6827 495.579,30.5241 z" id="boundary" inkscape:connector-curvature="0" />
	<path style="fill:none;stroke:red;stroke-width:1px;stroke-linecap:butt;stroke-linejoin:miter;stroke-opacity:1" d="M 495.579,30.5241 511.494,39.3654 z" id="boundary" inkscape:connector-curvature="0" />
	<path style="fill:none;stroke:red;stroke-width:1px;stroke-linecap:butt;stroke-linejoin:miter;stroke-opacity:1" d="M 511.494,39.3654 527.408,48.2068 z" id="boundary" inkscape:connector-curvature="0" />
	<path style="fill:none;stroke:red;stroke-width:1px;stroke-linecap:butt;stroke-linejoin:miter;stroke-opacity:1" d="M 527.408,48.2068 545.091,53.5116 z" id="boundary" inkscape:connector-curvature="0" />
	<path style="fill:none;stroke:red;stroke-width:1px;stroke-linecap:butt;stroke-linejoin:miter;stroke-opacity:1" d="M 545.091,53.5116 559.237,65.8895 z" id="boundary" inkscape:connector-curvature="0" />
	<path style="fill:none;stroke:red;stroke-width:1px;stroke-linecap:butt;stroke-linejoin:miter;stroke-opacity:1" d="M 559.237,65.8895 571.615,80.0357 z" id="boundary" inkscape:connector-curvature="0" />
	<path style="fill:none;stroke:red;stroke-width:1px;stroke-linecap:butt;stroke-linejoin:miter;stroke-opacity:1" d="M 571.615,80.0357 583.993,94.1818 z" id="boundary" inkscape:connector-curvature="0" />
	<path style="fill:none;stroke:red;stroke-width:1px;stroke-linecap:butt;stroke-linejoin:miter;stroke-opacity:1" d="M 583.993,94.1818 598.139,106.56 z" id="boundary" inkscape:connector-curvature="0" />
	<path style="fill:none;stroke:red;stroke-width:1px;stroke-linecap:butt;stroke-linejoin:miter;stroke-opacity:1" d="M 598.139,106.56 614.053,115.401 z" id="boundary" inkscape:connector-curvature="0" />
	<path style="fill:none;stroke:red;stroke-width:1px;stroke-linecap:butt;stroke-linejoin:miter;stroke-opacity:1" d="M 614.053,115.401 628.2,127.779 z" id="boundary" inkscape:connector-curvature="0" />
	<path style="fill:none;stroke:red;stroke-width:1px;stroke-linecap:butt;stroke-linejoin:miter;stroke-opacity:1" d="M 628.2,127.779 644.114,136.62 z" id="boundary" inkscape:connector-curvature="0" />
	<path style="fill:none;stroke:red;stroke-width:1px;stroke-linecap:butt;stroke-linejoin:miter;stroke-opacity:1" d="M 644.114,136.62 658.26,148.998 z" id="boundary" inkscape:connector-curvature="0" />
	<path style="fill:none;stroke:red;stroke-width:1px;stroke-linecap:butt;stroke-linejoin:miter;stroke-opacity:1" d="M 658.26,148.998 674.175,157.84 z" id="boundary" inkscape:connector-curvature="0" />
	<path style="fill:none;stroke:red;stroke-width:1px;stroke-linecap:butt;stroke-linejoin:miter;stroke-opacity:1" d="M 674.175,157.84 691.857,163.144 z" id="boundary" inkscape:connector-curvature="0" />
	<path style="fill:none;stroke:red;stroke-width:1px;stroke-linecap:butt;stroke-linejoin:miter;stroke-opacity:1" d="M 691.857,163.144 709.54,163.144 z" id="boundary" inkscape:connector-curvature="0" />
	<path style="fill:none;stroke:red;stroke-width:1px;stroke-linecap:butt;stroke-linejoin:miter;stroke-opacity:1" d="M 709.54,163.144 725.455,154.303 z" id="boundary" inkscape:connector-curvature="0" />
	<path style="fill:none;stroke:red;stroke-width:1px;stroke-linecap:butt;stroke-linejoin:miter;stroke-opacity:1" d="M 725.455,154.303 743.137,154.303 z" id="boundary" inkscape:connector-curvature="0" />
	<path style="fill:none;stroke:red;stroke-width:1px;stroke-linecap:butt;stroke-linejoin:miter;stroke-opacity:1" d="M 743.137,154.303 760.82,154.303 z" id="boundary" inkscape:connector-curvature="0" />
	<path style="fill:none;stroke:red;stroke-width:1px;stroke-linecap:butt;stroke-linejoin:miter;stroke-opacity:1" d="M 760.82,154.303 778.503,145.462 z" id="boundary" inkscape:connector-curvature="0" />
	<path style="fill:none;stroke:red;stroke-width:1px;stroke-linecap:butt;stroke-linejoin:miter;stroke-opacity:1" d="M 778.503,145.462 794.417,154.303 z" id="boundary" inkscape:connector-curvature="0" />
	<path style="fill:none;stroke:red;stroke-width:1px;stroke-linecap:butt;stroke-linejoin:miter;stroke-opacity:1" d="M 794.417,154.303 810.332,145.462 z" id="boundary" inkscape:connector-curvature="0" />
	<path style="fill:none;stroke:red;stroke-width:1px;stroke-linecap:butt;stroke-linejoin:miter;stroke-opacity:1" d="M 810.332,145.462 824.478,156.071 z" id="boundary" inkscape:connector-curvature="0" />
	<path style="fill:none;stroke:red;stroke-width:1px;stroke-linecap:butt;stroke-linejoin:miter;stroke-opacity:1" d="M 824.478,156.071 828.014,173.754 z" id="boundary" inkscape:connector-curvature="0" />
	<path style="fill:none;stroke:red;stroke-width:1px;stroke-linecap:butt;stroke-linejoin:miter;stroke-opacity:1" d="M 828.014,173.754 828.014,191.437 z" id="boundary" inkscape:connector-curvature="0" />
	<path style="fill:none;stroke:red;stroke-width:1px;stroke-linecap:butt;stroke-linejoin:miter;stroke-opacity:1" d="M 828.014,191.437 819.173,209.119 z" id="boundary" inkscape:connector-curvature="0" />
	<path style="fill:none;stroke:red;stroke-width:1px;stroke-linecap:butt;stroke-linejoin:miter;stroke-opacity:1" d="M 819.173,209.119 810.332,226.802 z" id="boundary" inkscape:connector-curvature="0" />
	<path style="fill:none;stroke:red;stroke-width:1px;stroke-linecap:butt;stroke-linejoin:miter;stroke-opacity:1" d="M 810.332,226.802 801.49,244.485 z" id="boundary" inkscape:connector-curvature="0" />
	<path style="fill:none;stroke:red;stroke-width:1px;stroke-linecap:butt;stroke-linejoin:miter;stroke-opacity:1" d="M 801.49,244.485 792.649,262.168 z" id="boundary" inkscape:connector-curvature="0" />
	<path style="fill:none;stroke:red;stroke-width:1px;stroke-linecap:butt;stroke-linejoin:miter;stroke-opacity:1" d="M 792.649,262.168 792.649,279.85 z" id="boundary" inkscape:connector-curvature="0" />
	<path style="fill:none;stroke:red;stroke-width:1px;stroke-linecap:butt;stroke-linejoin:miter;stroke-opacity:1" d="M 792.649,279.85 806.795,290.46 z" id="boundary" inkscape:connector-curvature="0" />
	<path style="fill:none;stroke:red;stroke-width:1px;stroke-linecap:butt;stroke-linejoin:miter;stroke-opacity:1" d="M 806.795,290.46 819.173,304.606 z" id="boundary" inkscape:connector-curvature="0" />
	<path style="fill:none;stroke:red;stroke-width:1px;stroke-linecap:butt;stroke-linejoin:miter;stroke-opacity:1" d="M 819.173,304.606 833.319,315.216 z" id="boundary" inkscape:connector-curvature="0" />
	<path style="fill:none;stroke:red;stroke-width:1px;stroke-linecap:butt;stroke-linejoin:miter;stroke-opacity:1" d="M 833.319,315.216 840.392,332.898 z" id="boundary" inkscape:connector-curvature="0" />
	<path style="fill:none;stroke:red;stroke-width:1px;stroke-linecap:butt;stroke-linejoin:miter;stroke-opacity:1" d="M 840.392,332.898 845.697,359.422 z" id="boundary" inkscape:connector-curvature="0" />
	<path style="fill:none;stroke:red;stroke-width:1px;stroke-linecap:butt;stroke-linejoin:miter;stroke-opacity:1" d="M 136.62,477.897 127.779,504.421 z" id="boundary" inkscape:connector-curvature="0" />
	<path style="fill:none;stroke:red;stroke-width:1px;stroke-linecap:butt;stroke-linejoin:miter;stroke-opacity:1" d="M 127.779,504.421 118.938,530.945 z" id="boundary" inkscape:connector-curvature="0" />
	<path style="fill:none;stroke:red;stroke-width:1px;stroke-linecap:butt;stroke-linejoin:miter;stroke-opacity:1" d="M 118.938,530.945 110.096,557.469 z" id="boundary" inkscape:connector-curvature="0" />
	<path style="fill:none;stroke:red;stroke-width:1px;stroke-linecap:butt;stroke-linejoin:miter;stroke-opacity:1" d="M 110.096,557.469 101.255,575.152 z" id="boundary" inkscape:connector-curvature="0" />
	<path style="fill:none;stroke:red;stroke-width:1px;stroke-linecap:butt;stroke-linejoin:miter;stroke-opacity:1" d="M 101.255,575.152 92.4135,592.834 z" id="boundary" inkscape:connector-curvature="0" />
	<path style="fill:none;stroke:red;stroke-width:1px;stroke-linecap:butt;stroke-linejoin:miter;stroke-opacity:1" d="M 92.4135,592.834 83.5722,610.517 z" id="boundary" inkscape:connector-curvature="0" />
	<path style="fill:none;stroke:red;stroke-width:1px;stroke-linecap:butt;stroke-linejoin:miter;stroke-opacity:1" d="M 83.5722,610.517 74.7308,628.2 z" id="boundary" inkscape:connector-curvature="0" />
	<path style="fill:none;stroke:red;stroke-width:1px;stroke-linecap:butt;stroke-linejoin:miter;stroke-opacity:1" d="M 74.7308,628.2 74.7308,645.882 z" id="boundary" inkscape:connector-curvature="0" />
	<path style="fill:none;stroke:red;stroke-width:1px;stroke-linecap:butt;stroke-linejoin:miter;stroke-opacity:1" d="M 74.7308,645.882 57.0481,654.724 z" id="boundary" inkscape:connector-curvature="0" />
	<path style="fill:none;stroke:red;stroke-width:1px;stroke-linecap:butt;stroke-linejoin:miter;stroke-opacity:1" d="M 57.0481,654.724 48.2068,672.406 z" id="boundary" inkscape:connector-curvature="0" />
	<path style="fill:none;stroke:red;stroke-width:1px;stroke-linecap:butt;stroke-linejoin:miter;stroke-opacity:1" d="M 48.2068,672.406 39.3654,698.93 z" id="boundary" inkscape:connector-curvature="0" />
	<path style="fill:none;stroke:red;stroke-width:1px;stroke-linecap:butt;stroke-linejoin:miter;stroke-opacity:1" d="M 39.3654,698.93 39.3654,716.613 z" id="boundary" inkscape:connector-curvature="0" />
	<path style="fill:none;stroke:red;stroke-width:1px;stroke-linecap:butt;stroke-linejoin:miter;stroke-opacity:1" d="M 39.3654,716.613 30.5241,743.137 z" id="boundary" inkscape:connector-curvature="0" />
	<path style="fill:none;stroke:red;stroke-width:1px;stroke-linecap:butt;stroke-linejoin:miter;stroke-opacity:1" d="M 30.5241,743.137 39.3654,759.052 z" id="boundary" inkscape:connector-curvature="0" />
	<path style="fill:none;stroke:red;stroke-width:1px;stroke-linecap:butt;stroke-linejoin:miter;stroke-opacity:1" d="M 39.3654,759.052 48.2068,774.966 z" id="boundary" inkscape:connector-curvature="0" />
	<path style="fill:none;stroke:red;stroke-width:1px;stroke-linecap:butt;stroke-linejoin:miter;stroke-opacity:1" d="M 48.2068,774.966 53.5116,792.649 z" id="boundary" inkscape:connector-curvature="0" />
	<path style="fill:none;stroke:red;stroke-width:1px;stroke-linecap:butt;stroke-linejoin:miter;stroke-opacity:1" d="M 53.5116,792.649 65.8895,806.795 z" id="boundary" inkscape:connector-curvature="0" />
	<path style="fill:none;stroke:red;stroke-width:1px;stroke-linecap:butt;stroke-linejoin:miter;stroke-opacity:1" d="M 65.8895,806.795 80.0357,819.173 z" id="boundary" inkscape:connector-curvature="0" />
	<path style="fill:none;stroke:red;stroke-width:1px;stroke-linecap:butt;stroke-linejoin:miter;stroke-opacity:1" d="M 80.0357,819.173 97.7184,819.173 z" id="boundary" inkscape:connector-curvature="0" />
	<path style="fill:none;stroke:red;stroke-width:1px;stroke-linecap:butt;stroke-linejoin:miter;stroke-opacity:1" d="M 97.7184,819.173 113.633,810.332 z" id="boundary" inkscape:connector-curvature="0" />
	<path style="fill:none;stroke:red;stroke-width:1px;stroke-linecap:butt;stroke-linejoin:miter;stroke-opacity:1" d="M 113.633,810.332 129.547,819.173 z" id="boundary" inkscape:connector-curvature="0" />
	<path style="fill:none;stroke:red;stroke-width:1px;stroke-linecap:butt;stroke-linejoin:miter;stroke-opacity:1" d="M 129.547,819.173 145.462,828.014 z" id="boundary" inkscape:connector-curvature="0" />
	<path style="fill:none;stroke:red;stroke-width:1px;stroke-linecap:butt;stroke-linejoin:miter;stroke-opacity:1" d="M 145.462,828.014 154.303,843.929 z" id="boundary" inkscape:connector-curvature="0" />
	<path style="fill:none;stroke:red;stroke-width:1px;stroke-linecap:butt;stroke-linejoin:miter;stroke-opacity:1" d="M 154.303,843.929 164.913,858.075 z" id="boundary" inkscape:connector-curvature="0" />
	<path style="fill:none;stroke:red;stroke-width:1px;stroke-linecap:butt;stroke-linejoin:miter;stroke-opacity:1" d="M 164.913,858.075 171.986,875.758 z" id="boundary" inkscape:connector-curvature="0" />
	<path style="fill:none;stroke:red;stroke-width:1px;stroke-linecap:butt;stroke-linejoin:miter;stroke-opacity:1" d="M 171.986,875.758 180.827,891.672 z" id="boundary" inkscape:connector-curvature="0" />
	<path style="fill:none;stroke:red;stroke-width:1px;stroke-linecap:butt;stroke-linejoin:miter;stroke-opacity:1" d="M 180.827,891.672 193.205,905.818 z" id="boundary" inkscape:connector-curvature="0" />
	<path style="fill:none;stroke:red;stroke-width:1px;stroke-linecap:butt;stroke-linejoin:miter;stroke-opacity:1" d="M 193.205,905.818 202.046,921.733 z" id="boundary" inkscape:connector-curvature="0" />
	<path style="fill:none;stroke:red;stroke-width:1px;stroke-linecap:butt;stroke-linejoin:miter;stroke-opacity:1" d="M 202.046,921.733 216.193,934.111 z" id="boundary" inkscape:connector-curvature="0" />
	<path style="fill:none;stroke:red;stroke-width:1px;stroke-linecap:butt;stroke-linejoin:miter;stroke-opacity:1" d="M 216.193,934.111 226.802,948.257 z" id="boundary" inkscape:connector-curvature="0" />
	<path style="fill:none;stroke:red;stroke-width:1px;stroke-linecap:butt;stroke-linejoin:miter;stroke-opacity:1" d="M 226.802,948.257 244.485,955.33 z" id="boundary" inkscape:connector-curvature="0" />
	<path style="fill:none;stroke:red;stroke-width:1px;stroke-linecap:butt;stroke-linejoin:miter;stroke-opacity:1" d="M 244.485,955.33 262.168,960.635 z" id="boundary" inkscape:connector-curvature="0" />
	<path style="fill:none;stroke:red;stroke-width:1px;stroke-linecap:butt;stroke-linejoin:miter;stroke-opacity:1" d="M 262.168,960.635 279.85,960.635 z" id="boundary" inkscape:connector-curvature="0" />
	<path style="fill:none;stroke:red;stroke-width:1px;stroke-linecap:butt;stroke-linejoin:miter;stroke-opacity:1" d="M 279.85,960.635 297.533,964.171 z" id="boundary" inkscape:connector-curvature="0" />
	<path style="fill:none;stroke:red;stroke-width:1px;stroke-linecap:butt;stroke-linejoin:miter;stroke-opacity:1" d="M 297.533,964.171 315.216,969.476 z" id="boundary" inkscape:connector-curvature="0" />
	<path style="fill:none;stroke:red;stroke-width:1px;stroke-linecap:butt;stroke-linejoin:miter;stroke-opacity:1" d="M 315.216,969.476 331.13,978.317 z" id="boundary" inkscape:connector-curvature="0" />
	<path style="fill:none;stroke:red;stroke-width:1px;stroke-linecap:butt;stroke-linejoin:miter;stroke-opacity:1" d="M 331.13,978.317 348.813,978.317 z" id="boundary" inkscape:connector-curvature="0" />
	<path style="fill:none;stroke:red;stroke-width:1px;stroke-linecap:butt;stroke-linejoin:miter;stroke-opacity:1" d="M 348.813,978.317 366.496,978.317 z" id="boundary" inkscape:connector-curvature="0" />
	<path style="fill:none;stroke:red;stroke-width:1px;stroke-linecap:butt;stroke-linejoin:miter;stroke-opacity:1" d="M 366.496,978.317 382.41,987.159 z" id="boundary" inkscape:connector-curvature="0" />
	<path style="fill:none;stroke:red;stroke-width:1px;stroke-linecap:butt;stroke-linejoin:miter;stroke-opacity:1" d="M 382.41,987.159 400.093,987.159 z" id="boundary" inkscape:connector-curvature="0" />
	<path style="fill:none;stroke:red;stroke-width:1px;stroke-linecap:butt;stroke-linejoin:miter;stroke-opacity:1" d="M 400.093,987.159 416.007,996 z" id="boundary" inkscape:connector-curvature="0" />
	<path style="fill:none;stroke:red;stroke-width:1px;stroke-linecap:butt;stroke-linejoin:miter;stroke-opacity:1" d="M 416.007,996 431.922,987.159 z" id="boundary" inkscape:connector-curvature="0" />
	<path style="fill:none;stroke:red;stroke-width:1px;stroke-linecap:butt;stroke-linejoin:miter;stroke-opacity:1" d="M 431.922,987.159 449.604,987.159 z" id="boundary" inkscape:connector-curvature="0" />
	<path style="fill:none;stroke:red;stroke-width:1px;stroke-linecap:butt;stroke-linejoin:miter;stroke-opacity:1" d="M 449.604,987.159 467.287,987.159 z" id="boundary" inkscape:connector-curvature="0" />
	<path style="fill:none;stroke:red;stroke-width:1px;stroke-linecap:butt;stroke-linejoin:miter;stroke-opacity:1" d="M 467.287,987.159 484.97,987.159 z" id="boundary" inkscape:connector-curvature="0" />
	<path style="fill:none;stroke:red;stroke-width:1px;stroke-linecap:butt;stroke-linejoin:miter;stroke-opacity:1" d="M 484.97,987.159 502.652,987.159 z" id="boundary" inkscape:connector-curvature="0" />
	<path style="fill:none;stroke:red;stroke-width:1px;stroke-linecap:butt;stroke-linejoin:miter;stroke-opacity:1" d="M 502.652,987.159 518.567,978.317 z" id="boundary" inkscape:connector-curvature="0" />
	<path style="fill:none;stroke:red;stroke-width:1px;stroke-linecap:butt;stroke-linejoin:miter;stroke-opacity:1" d="M 518.567,978.317 536.25,969.476 z" id="boundary" inkscape:connector-curvature="0" />
	<path style="fill:none;stroke:red;stroke-width:1px;stroke-linecap:butt;stroke-linejoin:miter;stroke-opacity:1" d="M 536.25,969.476 553.932,960.635 z" id="boundary" inkscape:connector-curvature="0" />
	<path style="fill:none;stroke:red;stroke-width:1px;stroke-linecap:butt;stroke-linejoin:miter;stroke-opacity:1" d="M 553.932,960.635 571.615,960.635 z" id="boundary" inkscape:connector-curvature="0" />
	<path style="fill:none;stroke:red;stroke-width:1px;stroke-linecap:butt;stroke-linejoin:miter;stroke-opacity:1" d="M 571.615,960.635 589.298,960.635 z" id="boundary" inkscape:connector-curvature="0" />
	<path style="fill:none;stroke:red;stroke-width:1px;stroke-linecap:butt;stroke-linejoin:miter;stroke-opacity:1" d="M 589.298,960.635 605.212,951.793 z" id="boundary" inkscape:connector-curvature="0" />
	<path style="fill:none;stroke:red;stroke-width:1px;stroke-linecap:butt;stroke-linejoin:miter;stroke-opacity:1" d="M 605.212,951.793 622.895,946.488 z" id="boundary" inkscape:connector-curvature="0" />
	<path style="fill:none;stroke:red;stroke-width:1px;stroke-linecap:butt;stroke-linejoin:miter;stroke-opacity:1" d="M 622.895,946.488 640.578,937.647 z" id="boundary" inkscape:connector-curvature="0" />
	<path style="fill:none;stroke:red;stroke-width:1px;stroke-linecap:butt;stroke-linejoin:miter;stroke-opacity:1" d="M 640.578,937.647 658.26,928.806 z" id="boundary" inkscape:connector-curvature="0" />
	<path style="fill:none;stroke:red;stroke-width:1px;stroke-linecap:butt;stroke-linejoin:miter;stroke-opacity:1" d="M 658.26,928.806 672.406,916.428 z" id="boundary" inkscape:connector-curvature="0" />
	<path style="fill:none;stroke:red;stroke-width:1px;stroke-linecap:butt;stroke-linejoin:miter;stroke-opacity:1" d="M 672.406,916.428 690.089,914.66 z" id="boundary" inkscape:connector-curvature="0" />
	<path style="fill:none;stroke:red;stroke-width:1px;stroke-linecap:butt;stroke-linejoin:miter;stroke-opacity:1" d="M 690.089,914.66 707.772,905.818 z" id="boundary" inkscape:connector-curvature="0" />
	<path style="fill:none;stroke:red;stroke-width:1px;stroke-linecap:butt;stroke-linejoin:miter;stroke-opacity:1" d="M 707.772,905.818 725.455,896.977 z" id="boundary" inkscape:connector-curvature="0" />
	<path style="fill:none;stroke:red;stroke-width:1px;stroke-linecap:butt;stroke-linejoin:miter;stroke-opacity:1" d="M 725.455,896.977 739.601,881.062 z" id="boundary" inkscape:connector-curvature="0" />
	<path style="fill:none;stroke:red;stroke-width:1px;stroke-linecap:butt;stroke-linejoin:miter;stroke-opacity:1" d="M 739.601,881.062 757.283,881.062 z" id="boundary" inkscape:connector-curvature="0" />
	<path style="fill:none;stroke:red;stroke-width:1px;stroke-linecap:butt;stroke-linejoin:miter;stroke-opacity:1" d="M 757.283,881.062 771.43,868.684 z" id="boundary" inkscape:connector-curvature="0" />
	<path style="fill:none;stroke:red;stroke-width:1px;stroke-linecap:butt;stroke-linejoin:miter;stroke-opacity:1" d="M 771.43,868.684 789.112,859.843 z" id="boundary" inkscape:connector-curvature="0" />
	<path style="fill:none;stroke:red;stroke-width:1px;stroke-linecap:butt;stroke-linejoin:miter;stroke-opacity:1" d="M 789.112,859.843 801.49,845.697 z" id="boundary" inkscape:connector-curvature="0" />
	<path style="fill:none;stroke:red;stroke-width:1px;stroke-linecap:butt;stroke-linejoin:miter;stroke-opacity:1" d="M 801.49,845.697 819.173,836.856 z" id="boundary" inkscape:connector-curvature="0" />
	<path style="fill:none;stroke:red;stroke-width:1px;stroke-linecap:butt;stroke-linejoin:miter;stroke-opacity:1" d="M 819.173,836.856 836.856,828.014 z" id="boundary" inkscape:connector-curvature="0" />
	<path style="fill:none;stroke:red;stroke-width:1px;stroke-linecap:butt;stroke-linejoin:miter;stroke-opacity:1" d="M 836.856,828.014 840.392,808.563 z" id="boundary" inkscape:connector-curvature="0" />
	<path style="fill:none;stroke:red;stroke-width:1px;stroke-linecap:butt;stroke-linejoin:miter;stroke-opacity:1" d="M 840.392,808.563 854.538,819.173 z" id="boundary" inkscape:connector-curvature="0" />
	<path style="fill:none;stroke:red;stroke-width:1px;stroke-linecap:butt;stroke-linejoin:miter;stroke-opacity:1" d="M 845.697,359.422 836.856,385.947 z" id="boundary" inkscape:connector-curvature="0" />
	<path style="fill:none;stroke:red;stroke-width:1px;stroke-linecap:butt;stroke-linejoin:miter;stroke-opacity:1" d="M 836.856,385.947 819.173,403.629 z" id="boundary" inkscape:connector-curvature="0" />
	<path style="fill:none;stroke:red;stroke-width:1px;stroke-linecap:butt;stroke-linejoin:miter;stroke-opacity:1" d="M 819.173,403.629 810.332,421.312 z" id="boundary" inkscape:connector-curvature="0" />
	<path style="fill:none;stroke:red;stroke-width:1px;stroke-linecap:butt;stroke-linejoin:miter;stroke-opacity:1" d="M 810.332,421.312 794.417,430.153 z" id="boundary" inkscape:connector-curvature="0" />
	<path style="fill:none;stroke:red;stroke-width:1px;stroke-linecap:butt;stroke-linejoin:miter;stroke-opacity:1" d="M 794.417,430.153 778.503,438.995 z" id="boundary" inkscape:connector-curvature="0" />
	<path style="fill:none;stroke:red;stroke-width:1px;stroke-linecap:butt;stroke-linejoin:miter;stroke-opacity:1" d="M 778.503,438.995 762.588,447.836 z" id="boundary" inkscape:connector-curvature="0" />
	<path style="fill:none;stroke:red;stroke-width:1px;stroke-linecap:butt;stroke-linejoin:miter;stroke-opacity:1" d="M 762.588,447.836 746.674,456.677 z" id="boundary" inkscape:connector-curvature="0" />
	<path style="fill:none;stroke:red;stroke-width:1px;stroke-linecap:butt;stroke-linejoin:miter;stroke-opacity:1" d="M 746.674,456.677 730.759,465.519 z" id="boundary" inkscape:connector-curvature="0" />
	<path style="fill:none;stroke:red;stroke-width:1px;stroke-linecap:butt;stroke-linejoin:miter;stroke-opacity:1" d="M 730.759,465.519 734.296,483.201 z" id="boundary" inkscape:connector-curvature="0" />
	<path style="fill:none;stroke:red;stroke-width:1px;stroke-linecap:butt;stroke-linejoin:miter;stroke-opacity:1" d="M 734.296,483.201 739.601,500.884 z" id="boundary" inkscape:connector-curvature="0" />
	<path style="fill:none;stroke:red;stroke-width:1px;stroke-linecap:butt;stroke-linejoin:miter;stroke-opacity:1" d="M 739.601,500.884 728.991,522.103 z" id="boundary" inkscape:connector-curvature="0" />
	<path style="fill:none;stroke:red;stroke-width:1px;stroke-linecap:butt;stroke-linejoin:miter;stroke-opacity:1" d="M 728.991,522.103 711.308,527.408 z" id="boundary" inkscape:connector-curvature="0" />
	<path style="fill:none;stroke:red;stroke-width:1px;stroke-linecap:butt;stroke-linejoin:miter;stroke-opacity:1" d="M 711.308,527.408 695.394,536.25 z" id="boundary" inkscape:connector-curvature="0" />
	<path style="fill:none;stroke:red;stroke-width:1px;stroke-linecap:butt;stroke-linejoin:miter;stroke-opacity:1" d="M 695.394,536.25 686.553,553.932 z" id="boundary" inkscape:connector-curvature="0" />
	<path style="fill:none;stroke:red;stroke-width:1px;stroke-linecap:butt;stroke-linejoin:miter;stroke-opacity:1" d="M 686.553,553.932 677.711,571.615 z" id="boundary" inkscape:connector-curvature="0" />
	<path style="fill:none;stroke:red;stroke-width:1px;stroke-linecap:butt;stroke-linejoin:miter;stroke-opacity:1" d="M 677.711,571.615 668.87,589.298 z" id="boundary" inkscape:connector-curvature="0" />
	<path style="fill:none;stroke:red;stroke-width:1px;stroke-linecap:butt;stroke-linejoin:miter;stroke-opacity:1" d="M 668.87,589.298 668.87,606.98 z" id="boundary" inkscape:connector-curvature="0" />
	<path style="fill:none;stroke:red;stroke-width:1px;stroke-linecap:butt;stroke-linejoin:miter;stroke-opacity:1" d="M 668.87,606.98 660.029,624.663 z" id="boundary" inkscape:connector-curvature="0" />
	<path style="fill:none;stroke:red;stroke-width:1px;stroke-linecap:butt;stroke-linejoin:miter;stroke-opacity:1" d="M 660.029,624.663 645.882,649.419 z" id="boundary" inkscape:connector-curvature="0" />
	<path style="fill:none;stroke:red;stroke-width:1px;stroke-linecap:butt;stroke-linejoin:miter;stroke-opacity:1" d="M 645.882,649.419 631.736,660.029 z" id="boundary" inkscape:connector-curvature="0" />
	<path style="fill:none;stroke:red;stroke-width:1px;stroke-linecap:butt;stroke-linejoin:miter;stroke-opacity:1" d="M 631.736,660.029 615.822,668.87 z" id="boundary" inkscape:connector-curvature="0" />
	<path style="fill:none;stroke:red;stroke-width:1px;stroke-linecap:butt;stroke-linejoin:miter;stroke-opacity:1" d="M 615.822,668.87 598.139,668.87 z" id="boundary" inkscape:connector-curvature="0" />
	<path style="fill:none;stroke:red;stroke-width:1px;stroke-linecap:butt;stroke-linejoin:miter;stroke-opacity:1" d="M 598.139,668.87 580.456,677.711 z" id="boundary" inkscape:connector-curvature="0" />
	<path style="fill:none;stroke:red;stroke-width:1px;stroke-linecap:butt;stroke-linejoin:miter;stroke-opacity:1" d="M 580.456,677.711 568.078,700.699 z" id="boundary" inkscape:connector-curvature="0" />
	<path style="fill:none;stroke:red;stroke-width:1px;stroke-linecap:butt;stroke-linejoin:miter;stroke-opacity:1" d="M 568.078,700.699 553.932,713.077 z" id="boundary" inkscape:connector-curvature="0" />
	<path style="fill:none;stroke:red;stroke-width:1px;stroke-linecap:butt;stroke-linejoin:miter;stroke-opacity:1" d="M 553.932,713.077 545.091,730.759 z" id="boundary" inkscape:connector-curvature="0" />
	<path style="fill:none;stroke:red;stroke-width:1px;stroke-linecap:butt;stroke-linejoin:miter;stroke-opacity:1" d="M 545.091,730.759 536.25,748.442 z" id="boundary" inkscape:connector-curvature="0" />
	<path style="fill:none;stroke:red;stroke-width:1px;stroke-linecap:butt;stroke-linejoin:miter;stroke-opacity:1" d="M 536.25,748.442 527.408,774.966 z" id="boundary" inkscape:connector-curvature="0" />
	<path style="fill:none;stroke:red;stroke-width:1px;stroke-linecap:butt;stroke-linejoin:miter;stroke-opacity:1" d="M 527.408,774.966 518.567,792.649 z" id="boundary" inkscape:connector-curvature="0" />
	<path style="fill:none;stroke:red;stroke-width:1px;stroke-linecap:butt;stroke-linejoin:miter;stroke-opacity:1" d="M 518.567,792.649 527.408,808.563 z" id="boundary" inkscape:connector-curvature="0" />
	<path style="fill:none;stroke:red;stroke-width:1px;stroke-linecap:butt;stroke-linejoin:miter;stroke-opacity:1" d="M 527.408,808.563 545.091,808.563 z" id="boundary" inkscape:connector-curvature="0" />
	<path style="fill:none;stroke:red;stroke-width:1px;stroke-linecap:butt;stroke-linejoin:miter;stroke-opacity:1" d="M 545.091,808.563 562.774,803.258 z" id="boundary" inkscape:connector-curvature="0" />
	<path style="fill:none;stroke:red;stroke-width:1px;stroke-linecap:butt;stroke-linejoin:miter;stroke-opacity:1" d="M 562.774,803.258 580.456,803.258 z" id="boundary" inkscape:connector-curvature="0" />
	<path style="fill:none;stroke:red;stroke-width:1px;stroke-linecap:butt;stroke-linejoin:miter;stroke-opacity:1" d="M 580.456,803.258 598.139,799.722 z" id="boundary" inkscape:connector-curvature="0" />
	<path style="fill:none;stroke:red;stroke-width:1px;stroke-linecap:butt;stroke-linejoin:miter;stroke-opacity:1" d="M 598.139,799.722 615.822,799.722 z" id="boundary" inkscape:connector-curvature="0" />
	<path style="fill:none;stroke:red;stroke-width:1px;stroke-linecap:butt;stroke-linejoin:miter;stroke-opacity:1" d="M 615.822,799.722 633.504,799.722 z" id="boundary" inkscape:connector-curvature="0" />
	<path style="fill:none;stroke:red;stroke-width:1px;stroke-linecap:butt;stroke-linejoin:miter;stroke-opacity:1" d="M 633.504,799.722 651.187,799.722 z" id="boundary" inkscape:connector-curvature="0" />
	<path style="fill:none;stroke:red;stroke-width:1px;stroke-linecap:butt;stroke-linejoin:miter;stroke-opacity:1" d="M 651.187,799.722 668.87,799.722 z" id="boundary" inkscape:connector-curvature="0" />
	<path style="fill:none;stroke:red;stroke-width:1px;stroke-linecap:butt;stroke-linejoin:miter;stroke-opacity:1" d="M 668.87,799.722 684.784,790.881 z" id="boundary" inkscape:connector-curvature="0" />
	<path style="fill:none;stroke:red;stroke-width:1px;stroke-linecap:butt;stroke-linejoin:miter;stroke-opacity:1" d="M 684.784,790.881 702.467,790.881 z" id="boundary" inkscape:connector-curvature="0" />
	<path style="fill:none;stroke:red;stroke-width:1px;stroke-linecap:butt;stroke-linejoin:miter;stroke-opacity:1" d="M 702.467,790.881 720.15,790.881 z" id="boundary" inkscape:connector-curvature="0" />
	<path style="fill:none;stroke:red;stroke-width:1px;stroke-linecap:butt;stroke-linejoin:miter;stroke-opacity:1" d="M 720.15,790.881 737.832,790.881 z" id="boundary" inkscape:connector-curvature="0" />
	<path style="fill:none;stroke:red;stroke-width:1px;stroke-linecap:butt;stroke-linejoin:miter;stroke-opacity:1" d="M 737.832,790.881 755.515,790.881 z" id="boundary" inkscape:connector-curvature="0" />
	<path style="fill:none;stroke:red;stroke-width:1px;stroke-linecap:butt;stroke-linejoin:miter;stroke-opacity:1" d="M 755.515,790.881 773.198,790.881 z" id="boundary" inkscape:connector-curvature="0" />
	<path style="fill:none;stroke:red;stroke-width:1px;stroke-linecap:butt;stroke-linejoin:miter;stroke-opacity:1" d="M 773.198,790.881 790.881,790.881 z" id="boundary" inkscape:connector-curvature="0" />
	<path style="fill:none;stroke:red;stroke-width:1px;stroke-linecap:butt;stroke-linejoin:miter;stroke-opacity:1" d="M 790.881,790.881 806.795,799.722 z" id="boundary" inkscape:connector-curvature="0" />
	<path style="fill:none;stroke:red;stroke-width:1px;stroke-linecap:butt;stroke-linejoin:miter;stroke-opacity:1" d="M 806.795,799.722 824.478,799.722 z" id="boundary" inkscape:connector-curvature="0" />
	<circle cx="4" cy="203.815" r="4" fill="#0" id="circle0"/>
	<circle cx="4" cy="221.497" r="4" fill="#0" id="circle1"/>
	<circle cx="18.1462" cy="189.668" r="4" fill="#0" id="circle2"/>
	<circle cx="18.1462" cy="233.875" r="4" fill="#0" id="circle3"/>
	<circle cx="25.2193" cy="251.558" r="4" fill="#0" id="circle4"/>
	<circle cx="30.5241" cy="743.137" r="4" fill="#0" id="circle5"/>
	<circle cx="34.0606" cy="180.827" r="4" fill="#0" id="circle6"/>
	<circle cx="39.3654" cy="698.93" r="4" fill="#0" id="circle7"/>
	<circle cx="39.3654" cy="716.613" r="4" fill="#0" id="circle8"/>
	<circle cx="39.3654" cy="759.052" r="4" fill="#0" id="circle9"/>
	<circle cx="42.902" cy="258.631" r="4" fill="#0" id="circle10"/>
	<circle cx="48.2068" cy="168.449" r="4" fill="#0" id="circle11"/>
	<circle cx="48.2068" cy="672.406" r="4" fill="#0" id="circle12"/>
	<circle cx="48.2068" cy="774.966" r="4" fill="#0" id="circle13"/>
	<circle cx="53.5116" cy="792.649" r="4" fill="#0" id="circle14"/>
	<circle cx="57.0481" cy="271.009" r="4" fill="#0" id="circle15"/>
	<circle cx="57.0481" cy="654.724" r="4" fill="#0" id="circle16"/>
	<circle cx="65.8895" cy="159.608" r="4" fill="#0" id="circle17"/>
	<circle cx="65.8895" cy="806.795" r="4" fill="#0" id="circle18"/>
	<circle cx="67.6578" cy="285.155" r="4" fill="#0" id="circle19"/>
	<circle cx="74.7308" cy="628.2" r="4" fill="#0" id="circle20"/>
	<circle cx="74.7308" cy="645.882" r="4" fill="#0" id="circle21"/>
	<circle cx="80.0357" cy="145.462" r="4" fill="#0" id="circle22"/>
	<circle cx="80.0357" cy="819.173" r="4" fill="#0" id="circle23"/>
	<circle cx="81.8039" cy="297.533" r="4" fill="#0" id="circle24"/>
	<circle cx="83.5722" cy="610.517" r="4" fill="#0" id="circle25"/>
	<circle cx="92.4135" cy="311.679" r="4" fill="#0" id="circle26"/>
	<circle cx="92.4135" cy="592.834" r="4" fill="#0" id="circle27"/>
	<circle cx="94.1818" cy="131.316" r="4" fill="#0" id="circle28"/>
	<circle cx="97.7184" cy="819.173" r="4" fill="#0" id="circle29"/>
	<circle cx="101.255" cy="575.152" r="4" fill="#0" id="circle30"/>
	<circle cx="106.56" cy="324.057" r="4" fill="#0" id="circle31"/>
	<circle cx="108.328" cy="118.938" r="4" fill="#0" id="circle32"/>
	<circle cx="110.096" cy="557.469" r="4" fill="#0" id="circle33"/>
	<circle cx="113.633" cy="810.332" r="4" fill="#0" id="circle34"/>
	<circle cx="115.401" cy="339.971" r="4" fill="#0" id="circle35"/>
	<circle cx="118.938" cy="357.654" r="4" fill="#0" id="circle36"/>
	<circle cx="118.938" cy="530.945" r="4" fill="#0" id="circle37"/>
	<circle cx="124.242" cy="110.096" r="4" fill="#0" id="circle38"/>
	<circle cx="127.779" cy="373.569" r="4" fill="#0" id="circle39"/>
	<circle cx="127.779" cy="504.421" r="4" fill="#0" id="circle40"/>
	<circle cx="129.547" cy="819.173" r="4" fill="#0" id="circle41"/>
	<circle cx="136.62" cy="389.483" r="4" fill="#0" id="circle42"/>
	<circle cx="136.62" cy="407.166" r="4" fill="#0" id="circle43"/>
	<circle cx="136.62" cy="424.848" r="4" fill="#0" id="circle44"/>
	<circle cx="136.62" cy="442.531" r="4" fill="#0" id="circle45"/>
	<circle cx="136.62" cy="460.214" r="4" fill="#0" id="circle46"/>
	<circle cx="136.62" cy="477.897" r="4" fill="#0" id="circle47"/>
	<circle cx="138.389" cy="95.9501" r="4" fill="#0" id="circle48"/>
	<circle cx="145.462" cy="828.014" r="4" fill="#0" id="circle49"/>
	<circle cx="152.535" cy="83.5722" r="4" fill="#0" id="circle50"/>
	<circle cx="154.303" cy="843.929" r="4" fill="#0" id="circle51"/>
	<circle cx="164.913" cy="858.075" r="4" fill="#0" id="circle52"/>
	<circle cx="168.449" cy="74.7308" r="4" fill="#0" id="circle53"/>
	<circle cx="171.986" cy="875.758" r="4" fill="#0" id="circle54"/>
	<circle cx="180.827" cy="891.672" r="4" fill="#0" id="circle55"/>
	<circle cx="184.364" cy="65.8895" r="4" fill="#0" id="circle56"/>
	<circle cx="193.205" cy="905.818" r="4" fill="#0" id="circle57"/>
	<circle cx="198.51" cy="53.5116" r="4" fill="#0" id="circle58"/>
	<circle cx="202.046" cy="921.733" r="4" fill="#0" id="circle59"/>
	<circle cx="216.193" cy="44.6702" r="4" fill="#0" id="circle60"/>
	<circle cx="216.193" cy="934.111" r="4" fill="#0" id="circle61"/>
	<circle cx="226.802" cy="948.257" r="4" fill="#0" id="circle62"/>
	<circle cx="233.875" cy="35.8289" r="4" fill="#0" id="circle63"/>
	<circle cx="244.485" cy="955.33" r="4" fill="#0" id="circle64"/>
	<circle cx="251.558" cy="26.9875" r="4" fill="#0" id="circle65"/>
	<circle cx="262.168" cy="960.635" r="4" fill="#0" id="circle66"/>
	<circle cx="269.241" cy="18.1462" r="4" fill="#0" id="circle67"/>
	<circle cx="279.85" cy="960.635" r="4" fill="#0" id="circle68"/>
	<circle cx="286.923" cy="9.30481" r="4" fill="#0" id="circle69"/>
	<circle cx="297.533" cy="964.171" r="4" fill="#0" id="circle70"/>
	<circle cx="304.606" cy="9.30481" r="4" fill="#0" id="circle71"/>
	<circle cx="315.216" cy="969.476" r="4" fill="#0" id="circle72"/>
	<circle cx="322.289" cy="4" r="4" fill="#0" id="circle73"/>
	<circle cx="331.13" cy="978.317" r="4" fill="#0" id="circle74"/>
	<circle cx="339.971" cy="4" r="4" fill="#0" id="circle75"/>
	<circle cx="348.813" cy="978.317" r="4" fill="#0" id="circle76"/>
	<circle cx="357.654" cy="4" r="4" fill="#0" id="circle77"/>
	<circle cx="366.496" cy="978.317" r="4" fill="#0" id="circle78"/>
	<circle cx="375.337" cy="4" r="4" fill="#0" id="circle79"/>
	<circle cx="382.41" cy="987.159" r="4" fill="#0" id="circle80"/>
	<circle cx="393.02" cy="7.53654" r="4" fill="#0" id="circle81"/>
	<circle cx="400.093" cy="987.159" r="4" fill="#0" id="circle82"/>
	<circle cx="410.702" cy="4" r="4" fill="#0" id="circle83"/>
	<circle cx="416.007" cy="996" r="4" fill="#0" id="circle84"/>
	<circle cx="428.385" cy="7.53654" r="4" fill="#0" id="circle85"/>
	<circle cx="431.922" cy="987.159" r="4" fill="#0" id="circle86"/>
	<circle cx="446.068" cy="12.8414" r="4" fill="#0" id="circle87"/>
	<circle cx="449.604" cy="987.159" r="4" fill="#0" id="circle88"/>
	<circle cx="463.75" cy="12.8414" r="4" fill="#0" id="circle89"/>
	<circle cx="467.287" cy="987.159" r="4" fill="#0" id="circle90"/>
	<circle cx="479.665" cy="21.6827" r="4" fill="#0" id="circle91"/>
	<circle cx="484.97" cy="987.159" r="4" fill="#0" id="circle92"/>
	<circle cx="495.579" cy="30.5241" r="4" fill="#0" id="circle93"/>
	<circle cx="502.652" cy="987.159" r="4" fill="#0" id="circle94"/>
	<circle cx="511.494" cy="39.3654" r="4" fill="#0" id="circle95"/>
	<circle cx="518.567" cy="792.649" r="4" fill="#0" id="circle96"/>
	<circle cx="518.567" cy="978.317" r="4" fill="#0" id="circle97"/>
	<circle cx="527.408" cy="48.2068" r="4" fill="#0" id="circle98"/>
	<circle cx="527.408" cy="774.966" r="4" fill="#0" id="circle99"/>
	<circle cx="527.408" cy="808.563" r="4" fill="#0" id="circle100"/>
	<circle cx="536.25" cy="748.442" r="4" fill="#0" id="circle101"/>
	<circle cx="536.25" cy="969.476" r="4" fill="#0" id="circle102"/>
	<circle cx="545.091" cy="53.5116" r="4" fill="#0" id="circle103"/>
	<circle cx="545.091" cy="730.759" r="4" fill="#0" id="circle104"/>
	<circle cx="545.091" cy="808.563" r="4" fill="#0" id="circle105"/>
	<circle cx="553.932" cy="713.077" r="4" fill="#0" id="circle106"/>
	<circle cx="553.932" cy="960.635" r="4" fill="#0" id="circle107"/>
	<circle cx="559.237" cy="65.8895" r="4" fill="#0" id="circle108"/>
	<circle cx="562.774" cy="803.258" r="4" fill="#0" id="circle109"/>
	<circle cx="568.078" cy="700.699" r="4" fill="#0" id="circle110"/>
	<circle cx="571.615" cy="80.0357" r="4" fill="#0" id="circle111"/>
	<circle cx="571.615" cy="960.635" r="4" fill="#0" id="circle112"/>
	<circle cx="580.456" cy="677.711" r="4" fill="#0" id="circle113"/>
	<circle cx="580.456" cy="803.258" r="4" fill="#0" id="circle114"/>
	<circle cx="583.993" cy="94.1818" r="4" fill="#0" id="circle115"/>
	<circle cx="589.298" cy="960.635" r="4" fill="#0" id="circle116"/>
	<circle cx="598.139" cy="106.56" r="4" fill="#0" id="circle117"/>
	<circle cx="598.139" cy="668.87" r="4" fill="#0" id="circle118"/>
	<circle cx="598.139" cy="799.722" r="4" fill="#0" id="circle119"/>
	<circle cx="605.212" cy="951.793" r="4" fill="#0" id="circle120"/>
	<circle cx="614.053" cy="115.401" r="4" fill="#0" id="circle121"/>
	<circle cx="615.822" cy="668.87" r="4" fill="#0" id="circle122"/>
	<circle cx="615.822" cy="799.722" r="4" fill="#0" id="circle123"/>
	<circle cx="622.895" cy="946.488" r="4" fill="#0" id="circle124"/>
	<circle cx="628.2" cy="127.779" r="4" fill="#0" id="circle125"/>
	<circle cx="631.736" cy="660.029" r="4" fill="#0" id="circle126"/>
	<circle cx="633.504" cy="799.722" r="4" fill="#0" id="circle127"/>
	<circle cx="640.578" cy="937.647" r="4" fill="#0" id="circle128"/>
	<circle cx="644.114" cy="136.62" r="4" fill="#0" id="circle129"/>
	<circle cx="645.882" cy="649.419" r="4" fill="#0" id="circle130"/>
	<circle cx="651.187" cy="799.722" r="4" fill="#0" id="circle131"/>
	<circle cx="658.26" cy="148.998" r="4" fill="#0" id="circle132"/>
	<circle cx="658.26" cy="928.806" r="4" fill="#0" id="circle133"/>
	<circle cx="660.029" cy="624.663" r="4" fill="#0" id="circle134"/>
	<circle cx="668.87" cy="589.298" r="4" fill="#0" id="circle135"/>
	<circle cx="668.87" cy="606.98" r="4" fill="#0" id="circle136"/>
	<circle cx="668.87" cy="799.722" r="4" fill="#0" id="circle137"/>
	<circle cx="672.406" cy="916.428" r="4" fill="#0" id="circle138"/>
	<circle cx="674.175" cy="157.84" r="4" fill="#0" id="circle139"/>
	<circle cx="677.711" cy="571.615" r="4" fill="#0" id="circle140"/>
	<circle cx="684.784" cy="790.881" r="4" fill="#0" id="circle141"/>
	<circle cx="686.553" cy="553.932" r="4" fill="#0" id="circle142"/>
	<circle cx="690.089" cy="914.66" r="4" fill="#0" id="circle143"/>
	<circle cx="691.857" cy="163.144" r="4" fill="#0" id="circle144"/>
	<circle cx="695.394" cy="536.25" r="4" fill="#0" id="circle145"/>
	<circle cx="702.467" cy="790.881" r="4" fill="#0" id="circle146"/>
	<circle cx="707.772" cy="905.818" r="4" fill="#0" id="circle147"/>
	<circle cx="709.54" cy="163.144" r="4" fill="#0" id="circle148"/>
	<circle cx="711.308" cy="527.408" r="4" fill="#0" id="circle149"/>
	<circle cx="720.15" cy="790.881" r="4" fill="#0" id="circle150"/>
	<circle cx="725.455" cy="154.303" r="4" fill="#0" id="circle151"/>
	<circle cx="725.455" cy="896.977" r="4" fill="#0" id="circle152"/>
	<circle cx="728.991" cy="522.103" r="4" fill="#0" id="circle153"/>
	<circle cx="730.759" cy="465.519" r="4" fill="#0" id="circle154"/>
	<circle cx="734.296" cy="483.201" r="4" fill="#0" id="circle155"/>
	<circle cx="737.832" cy="790.881" r="4" fill="#0" id="circle156"/>
	<circle cx="739.601" cy="500.884" r="4" fill="#0" id="circle157"/>
	<circle cx="739.601" cy="881.062" r="4" fill="#0" id="circle158"/>
	<circle cx="743.137" cy="154.303" r="4" fill="#0" id="circle159"/>
	<circle cx="746.674" cy="456.677" r="4" fill="#0" id="circle160"/>
	<circle cx="755.515" cy="790.881" r="4" fill="#0" id="circle161"/>
	<circle cx="757.283" cy="881.062" r="4" fill="#0" id="circle162"/>
	<circle cx="760.82" cy="154.303" r="4" fill="#0" id="circle163"/>
	<circle cx="762.588" cy="447.836" r="4" fill="#0" id="circle164"/>
	<circle cx="771.43" cy="868.684" r="4" fill="#0" id="circle165"/>
	<circle cx="773.198" cy="790.881" r="4" fill="#0" id="circle166"/>
	<circle cx="778.503" cy="145.462" r="4" fill="#0" id="circle167"/>
	<circle cx="778.503" cy="438.995" r="4" fill="#0" id="circle168"/>
	<circle cx="789.112" cy="859.843" r="4" fill="#0" id="circle169"/>
	<circle cx="790.881" cy="790.881" r="4" fill="#0" id="circle170"/>
	<circle cx="792.649" cy="262.168" r="4" fill="#0" id="circle171"/>
	<circle cx="792.649" cy="279.85" r="4" fill="#0" id="circle172"/>
	<circle cx="794.417" cy="154.303" r="4" fill="#0" id="circle173"/>
	<circle cx="794.417" cy="430.153" r="4" fill="#0" id="circle174"/>
	<circle cx="801.49" cy="244.485" r="4" fill="#0" id="circle175"/>
	<circle cx="801.49" cy="845.697" r="4" fill="#0" id="circle176"/>
	<circle cx="806.795" cy="290.46" r="4" fill="#0" id="circle177"/>
	<circle cx="806.795" cy="799.722" r="4" fill="#0" id="circle178"/>
	<circle cx="810.332" cy="145.462" r="4" fill="#0" id="circle179"/>
	<circle cx="810.332" cy="226.802" r="4" fill="#0" id="circle180"/>
	<circle cx="810.332" cy="421.312" r="4" fill="#0" id="circle181"/>
	<circle cx="819.173" cy="209.119" r="4" fill="#0" id="circle182"/>
	<circle cx="819.173" cy="304.606" r="4" fill="#0" id="circle183"/>
	<circle cx="819.173" cy="403.629" r="4" fill="#0" id="circle184"/>
	<circle cx="819.173" cy="836.856" r="4" fill="#0" id="circle185"/>
	<circle cx="824.478" cy="156.071" r="4" fill="#0" id="circle186"/>
	<circle cx="824.478" cy="799.722" r="4" fill="#0" id="circle187"/>
	<circle cx="828.014" cy="173.754" r="4" fill="#0" id="circle188"/>
	<circle cx="828.014" cy="191.437" r="4" fill="#0" id="circle189"/>
	<circle cx="833.319" cy="315.216" r="4" fill="#0" id="circle190"/>
	<circle cx="836.856" cy="385.947" r="4" fill="#0" id="circle191"/>
	<circle cx="836.856" cy="828.014" r="4" fill="#0" id="circle192"/>
	<circle cx="840.392" cy="332.898" r="4" fill="#0" id="circle193"/>
	<circle cx="840.392" cy="808.563" r="4" fill="#0" id="circle194"/>
	<circle cx="845.697" cy="359.422" r="4" fill="#0" id="circle195"/>
	<circle cx="854.538" cy="819.173" r="4" fill="#0" id="circle196"/>
	</g>
</svg>