<?xml version="1.0" encoding="UTF-8" standalone="no"?>
<!-- Created with CurveBenchmark -->
<svg
	xmlns:dc="http://purl.org/dc/elements/1.1/"
	xmlns:cc="http://creativecommons.org/ns#"
	xmlns:rdf="http://www.w3.org/1999/02/22-rdf-syntax-ns#"
	xmlns:svg="http://www.w3.org/2000/svg"
	xmlns="http://www.w3.org/2000/svg"
	xmlns:sodipodi="http://sodipodi.sourceforge.net/DTD/sodipodi-0.dtd"
	xmlns:inkscape="http://www.inkscape.org/namespaces/inkscape"
	width="1000"
	height="1000"
	id="svg2"
	version="1.1"
	sodipodi:docname="manifold/crawl-flatfish14.png.txt">
<defs
	id="defs4" />
<metadata
	id="metadata7">
	<rdf:RDF>
		<cc:Work
			rdf:about="">
			<dc:format>image/svg+xml</dc:format>
			<dc:type
				rdf:resource="http://purl.org/dc/dcmitype/StillImage" />
			<dc:title></dc:title>
		</cc:Work>
	</rdf:RDF>
</metadata>
<g
	inkscape:label="Layer 1"
	inkscape:groupmode="layer"
	id="layer1">
	<path style="fill:none;stroke:red;stroke-width:1px;stroke-linecap:butt;stroke-linejoin:miter;stroke-opacity:1" d="M 11.3591,288.059 11.3591,273.341 z" id="boundary" inkscape:connector-curvature="0" />
	<path style="fill:none;stroke:red;stroke-width:1px;stroke-linecap:butt;stroke-linejoin:miter;stroke-opacity:1" d="M 11.3591,273.341 18.7181,251.264 z" id="boundary" inkscape:connector-curvature="0" />
	<path style="fill:none;stroke:red;stroke-width:1px;stroke-linecap:butt;stroke-linejoin:miter;stroke-opacity:1" d="M 18.7181,251.264 18.7181,236.546 z" id="boundary" inkscape:connector-curvature="0" />
	<path style="fill:none;stroke:red;stroke-width:1px;stroke-linecap:butt;stroke-linejoin:miter;stroke-opacity:1" d="M 18.7181,236.546 30.4926,224.772 z" id="boundary" inkscape:connector-curvature="0" />
	<path style="fill:none;stroke:red;stroke-width:1px;stroke-linecap:butt;stroke-linejoin:miter;stroke-opacity:1" d="M 30.4926,224.772 42.2671,212.997 z" id="boundary" inkscape:connector-curvature="0" />
	<path style="fill:none;stroke:red;stroke-width:1px;stroke-linecap:butt;stroke-linejoin:miter;stroke-opacity:1" d="M 42.2671,212.997 54.0415,202.694 z" id="boundary" inkscape:connector-curvature="0" />
	<path style="fill:none;stroke:red;stroke-width:1px;stroke-linecap:butt;stroke-linejoin:miter;stroke-opacity:1" d="M 54.0415,202.694 68.7596,202.694 z" id="boundary" inkscape:connector-curvature="0" />
	<path style="fill:none;stroke:red;stroke-width:1px;stroke-linecap:butt;stroke-linejoin:miter;stroke-opacity:1" d="M 68.7596,202.694 83.4777,204.166 z" id="boundary" inkscape:connector-curvature="0" />
	<path style="fill:none;stroke:red;stroke-width:1px;stroke-linecap:butt;stroke-linejoin:miter;stroke-opacity:1" d="M 83.4777,204.166 98.1958,210.053 z" id="boundary" inkscape:connector-curvature="0" />
	<path style="fill:none;stroke:red;stroke-width:1px;stroke-linecap:butt;stroke-linejoin:miter;stroke-opacity:1" d="M 98.1958,210.053 111.442,217.412 z" id="boundary" inkscape:connector-curvature="0" />
	<path style="fill:none;stroke:red;stroke-width:1px;stroke-linecap:butt;stroke-linejoin:miter;stroke-opacity:1" d="M 111.442,217.412 126.16,217.412 z" id="boundary" inkscape:connector-curvature="0" />
	<path style="fill:none;stroke:red;stroke-width:1px;stroke-linecap:butt;stroke-linejoin:miter;stroke-opacity:1" d="M 126.16,217.412 140.878,217.412 z" id="boundary" inkscape:connector-curvature="0" />
	<path style="fill:none;stroke:red;stroke-width:1px;stroke-linecap:butt;stroke-linejoin:miter;stroke-opacity:1" d="M 140.878,217.412 154.125,224.772 z" id="boundary" inkscape:connector-curvature="0" />
	<path style="fill:none;stroke:red;stroke-width:1px;stroke-linecap:butt;stroke-linejoin:miter;stroke-opacity:1" d="M 154.125,224.772 167.371,232.131 z" id="boundary" inkscape:connector-curvature="0" />
	<path style="fill:none;stroke:red;stroke-width:1px;stroke-linecap:butt;stroke-linejoin:miter;stroke-opacity:1" d="M 167.371,232.131 182.089,232.131 z" id="boundary" inkscape:connector-curvature="0" />
	<path style="fill:none;stroke:red;stroke-width:1px;stroke-linecap:butt;stroke-linejoin:miter;stroke-opacity:1" d="M 182.089,232.131 196.807,232.131 z" id="boundary" inkscape:connector-curvature="0" />
	<path style="fill:none;stroke:red;stroke-width:1px;stroke-linecap:butt;stroke-linejoin:miter;stroke-opacity:1" d="M 196.807,232.131 211.525,232.131 z" id="boundary" inkscape:connector-curvature="0" />
	<path style="fill:none;stroke:red;stroke-width:1px;stroke-linecap:butt;stroke-linejoin:miter;stroke-opacity:1" d="M 11.3591,288.059 4,310.136 z" id="boundary" inkscape:connector-curvature="0" />
	<path style="fill:none;stroke:red;stroke-width:1px;stroke-linecap:butt;stroke-linejoin:miter;stroke-opacity:1" d="M 4,310.136 11.3591,323.383 z" id="boundary" inkscape:connector-curvature="0" />
	<path style="fill:none;stroke:red;stroke-width:1px;stroke-linecap:butt;stroke-linejoin:miter;stroke-opacity:1" d="M 11.3591,323.383 11.3591,338.101 z" id="boundary" inkscape:connector-curvature="0" />
	<path style="fill:none;stroke:red;stroke-width:1px;stroke-linecap:butt;stroke-linejoin:miter;stroke-opacity:1" d="M 11.3591,338.101 18.7181,351.347 z" id="boundary" inkscape:connector-curvature="0" />
	<path style="fill:none;stroke:red;stroke-width:1px;stroke-linecap:butt;stroke-linejoin:miter;stroke-opacity:1" d="M 18.7181,351.347 27.549,363.122 z" id="boundary" inkscape:connector-curvature="0" />
	<path style="fill:none;stroke:red;stroke-width:1px;stroke-linecap:butt;stroke-linejoin:miter;stroke-opacity:1" d="M 27.549,363.122 39.3234,373.424 z" id="boundary" inkscape:connector-curvature="0" />
	<path style="fill:none;stroke:red;stroke-width:1px;stroke-linecap:butt;stroke-linejoin:miter;stroke-opacity:1" d="M 39.3234,373.424 45.2107,388.142 z" id="boundary" inkscape:connector-curvature="0" />
	<path style="fill:none;stroke:red;stroke-width:1px;stroke-linecap:butt;stroke-linejoin:miter;stroke-opacity:1" d="M 45.2107,388.142 59.9288,394.03 z" id="boundary" inkscape:connector-curvature="0" />
	<path style="fill:none;stroke:red;stroke-width:1px;stroke-linecap:butt;stroke-linejoin:miter;stroke-opacity:1" d="M 59.9288,394.03 74.6469,394.03 z" id="boundary" inkscape:connector-curvature="0" />
	<path style="fill:none;stroke:red;stroke-width:1px;stroke-linecap:butt;stroke-linejoin:miter;stroke-opacity:1" d="M 74.6469,394.03 89.365,388.142 z" id="boundary" inkscape:connector-curvature="0" />
	<path style="fill:none;stroke:red;stroke-width:1px;stroke-linecap:butt;stroke-linejoin:miter;stroke-opacity:1" d="M 89.365,388.142 102.611,380.783 z" id="boundary" inkscape:connector-curvature="0" />
	<path style="fill:none;stroke:red;stroke-width:1px;stroke-linecap:butt;stroke-linejoin:miter;stroke-opacity:1" d="M 102.611,380.783 117.329,380.783 z" id="boundary" inkscape:connector-curvature="0" />
	<path style="fill:none;stroke:red;stroke-width:1px;stroke-linecap:butt;stroke-linejoin:miter;stroke-opacity:1" d="M 117.329,380.783 130.576,373.424 z" id="boundary" inkscape:connector-curvature="0" />
	<path style="fill:none;stroke:red;stroke-width:1px;stroke-linecap:butt;stroke-linejoin:miter;stroke-opacity:1" d="M 130.576,373.424 145.294,366.065 z" id="boundary" inkscape:connector-curvature="0" />
	<path style="fill:none;stroke:red;stroke-width:1px;stroke-linecap:butt;stroke-linejoin:miter;stroke-opacity:1" d="M 145.294,366.065 160.012,358.706 z" id="boundary" inkscape:connector-curvature="0" />
	<path style="fill:none;stroke:red;stroke-width:1px;stroke-linecap:butt;stroke-linejoin:miter;stroke-opacity:1" d="M 160.012,358.706 174.73,358.706 z" id="boundary" inkscape:connector-curvature="0" />
	<path style="fill:none;stroke:red;stroke-width:1px;stroke-linecap:butt;stroke-linejoin:miter;stroke-opacity:1" d="M 174.73,358.706 187.976,351.347 z" id="boundary" inkscape:connector-curvature="0" />
	<path style="fill:none;stroke:red;stroke-width:1px;stroke-linecap:butt;stroke-linejoin:miter;stroke-opacity:1" d="M 187.976,351.347 201.223,343.988 z" id="boundary" inkscape:connector-curvature="0" />
	<path style="fill:none;stroke:red;stroke-width:1px;stroke-linecap:butt;stroke-linejoin:miter;stroke-opacity:1" d="M 201.223,343.988 214.469,351.347 z" id="boundary" inkscape:connector-curvature="0" />
	<path style="fill:none;stroke:red;stroke-width:1px;stroke-linecap:butt;stroke-linejoin:miter;stroke-opacity:1" d="M 214.469,351.347 217.412,366.065 z" id="boundary" inkscape:connector-curvature="0" />
	<path style="fill:none;stroke:red;stroke-width:1px;stroke-linecap:butt;stroke-linejoin:miter;stroke-opacity:1" d="M 217.412,366.065 221.828,380.783 z" id="boundary" inkscape:connector-curvature="0" />
	<path style="fill:none;stroke:red;stroke-width:1px;stroke-linecap:butt;stroke-linejoin:miter;stroke-opacity:1" d="M 221.828,380.783 233.602,391.086 z" id="boundary" inkscape:connector-curvature="0" />
	<path style="fill:none;stroke:red;stroke-width:1px;stroke-linecap:butt;stroke-linejoin:miter;stroke-opacity:1" d="M 233.602,391.086 243.905,402.861 z" id="boundary" inkscape:connector-curvature="0" />
	<path style="fill:none;stroke:red;stroke-width:1px;stroke-linecap:butt;stroke-linejoin:miter;stroke-opacity:1" d="M 243.905,402.861 251.264,416.107 z" id="boundary" inkscape:connector-curvature="0" />
	<path style="fill:none;stroke:red;stroke-width:1px;stroke-linecap:butt;stroke-linejoin:miter;stroke-opacity:1" d="M 251.264,416.107 257.151,430.825 z" id="boundary" inkscape:connector-curvature="0" />
	<path style="fill:none;stroke:red;stroke-width:1px;stroke-linecap:butt;stroke-linejoin:miter;stroke-opacity:1" d="M 257.151,430.825 268.926,439.656 z" id="boundary" inkscape:connector-curvature="0" />
	<path style="fill:none;stroke:red;stroke-width:1px;stroke-linecap:butt;stroke-linejoin:miter;stroke-opacity:1" d="M 268.926,439.656 277.757,451.43 z" id="boundary" inkscape:connector-curvature="0" />
	<path style="fill:none;stroke:red;stroke-width:1px;stroke-linecap:butt;stroke-linejoin:miter;stroke-opacity:1" d="M 277.757,451.43 289.531,461.733 z" id="boundary" inkscape:connector-curvature="0" />
	<path style="fill:none;stroke:red;stroke-width:1px;stroke-linecap:butt;stroke-linejoin:miter;stroke-opacity:1" d="M 289.531,461.733 295.418,476.451 z" id="boundary" inkscape:connector-curvature="0" />
	<path style="fill:none;stroke:red;stroke-width:1px;stroke-linecap:butt;stroke-linejoin:miter;stroke-opacity:1" d="M 295.418,476.451 307.193,486.754 z" id="boundary" inkscape:connector-curvature="0" />
	<path style="fill:none;stroke:red;stroke-width:1px;stroke-linecap:butt;stroke-linejoin:miter;stroke-opacity:1" d="M 307.193,486.754 317.496,498.528 z" id="boundary" inkscape:connector-curvature="0" />
	<path style="fill:none;stroke:red;stroke-width:1px;stroke-linecap:butt;stroke-linejoin:miter;stroke-opacity:1" d="M 317.496,498.528 329.27,508.831 z" id="boundary" inkscape:connector-curvature="0" />
	<path style="fill:none;stroke:red;stroke-width:1px;stroke-linecap:butt;stroke-linejoin:miter;stroke-opacity:1" d="M 329.27,508.831 342.516,516.19 z" id="boundary" inkscape:connector-curvature="0" />
	<path style="fill:none;stroke:red;stroke-width:1px;stroke-linecap:butt;stroke-linejoin:miter;stroke-opacity:1" d="M 342.516,516.19 357.234,520.605 z" id="boundary" inkscape:connector-curvature="0" />
	<path style="fill:none;stroke:red;stroke-width:1px;stroke-linecap:butt;stroke-linejoin:miter;stroke-opacity:1" d="M 357.234,520.605 371.953,520.605 z" id="boundary" inkscape:connector-curvature="0" />
	<path style="fill:none;stroke:red;stroke-width:1px;stroke-linecap:butt;stroke-linejoin:miter;stroke-opacity:1" d="M 371.953,520.605 385.199,527.964 z" id="boundary" inkscape:connector-curvature="0" />
	<path style="fill:none;stroke:red;stroke-width:1px;stroke-linecap:butt;stroke-linejoin:miter;stroke-opacity:1" d="M 385.199,527.964 399.917,527.964 z" id="boundary" inkscape:connector-curvature="0" />
	<path style="fill:none;stroke:red;stroke-width:1px;stroke-linecap:butt;stroke-linejoin:miter;stroke-opacity:1" d="M 399.917,527.964 414.635,527.964 z" id="boundary" inkscape:connector-curvature="0" />
	<path style="fill:none;stroke:red;stroke-width:1px;stroke-linecap:butt;stroke-linejoin:miter;stroke-opacity:1" d="M 414.635,527.964 427.881,535.323 z" id="boundary" inkscape:connector-curvature="0" />
	<path style="fill:none;stroke:red;stroke-width:1px;stroke-linecap:butt;stroke-linejoin:miter;stroke-opacity:1" d="M 427.881,535.323 441.128,527.964 z" id="boundary" inkscape:connector-curvature="0" />
	<path style="fill:none;stroke:red;stroke-width:1px;stroke-linecap:butt;stroke-linejoin:miter;stroke-opacity:1" d="M 441.128,527.964 455.846,527.964 z" id="boundary" inkscape:connector-curvature="0" />
	<path style="fill:none;stroke:red;stroke-width:1px;stroke-linecap:butt;stroke-linejoin:miter;stroke-opacity:1" d="M 455.846,527.964 470.564,527.964 z" id="boundary" inkscape:connector-curvature="0" />
	<path style="fill:none;stroke:red;stroke-width:1px;stroke-linecap:butt;stroke-linejoin:miter;stroke-opacity:1" d="M 470.564,527.964 485.282,527.964 z" id="boundary" inkscape:connector-curvature="0" />
	<path style="fill:none;stroke:red;stroke-width:1px;stroke-linecap:butt;stroke-linejoin:miter;stroke-opacity:1" d="M 485.282,527.964 500,527.964 z" id="boundary" inkscape:connector-curvature="0" />
	<path style="fill:none;stroke:red;stroke-width:1px;stroke-linecap:butt;stroke-linejoin:miter;stroke-opacity:1" d="M 500,527.964 514.718,527.964 z" id="boundary" inkscape:connector-curvature="0" />
	<path style="fill:none;stroke:red;stroke-width:1px;stroke-linecap:butt;stroke-linejoin:miter;stroke-opacity:1" d="M 514.718,527.964 527.964,520.605 z" id="boundary" inkscape:connector-curvature="0" />
	<path style="fill:none;stroke:red;stroke-width:1px;stroke-linecap:butt;stroke-linejoin:miter;stroke-opacity:1" d="M 527.964,520.605 542.682,520.605 z" id="boundary" inkscape:connector-curvature="0" />
	<path style="fill:none;stroke:red;stroke-width:1px;stroke-linecap:butt;stroke-linejoin:miter;stroke-opacity:1" d="M 542.682,520.605 557.401,520.605 z" id="boundary" inkscape:connector-curvature="0" />
	<path style="fill:none;stroke:red;stroke-width:1px;stroke-linecap:butt;stroke-linejoin:miter;stroke-opacity:1" d="M 557.401,520.605 570.647,513.246 z" id="boundary" inkscape:connector-curvature="0" />
	<path style="fill:none;stroke:red;stroke-width:1px;stroke-linecap:butt;stroke-linejoin:miter;stroke-opacity:1" d="M 570.647,513.246 585.365,513.246 z" id="boundary" inkscape:connector-curvature="0" />
	<path style="fill:none;stroke:red;stroke-width:1px;stroke-linecap:butt;stroke-linejoin:miter;stroke-opacity:1" d="M 585.365,513.246 600.083,513.246 z" id="boundary" inkscape:connector-curvature="0" />
	<path style="fill:none;stroke:red;stroke-width:1px;stroke-linecap:butt;stroke-linejoin:miter;stroke-opacity:1" d="M 600.083,513.246 613.329,505.887 z" id="boundary" inkscape:connector-curvature="0" />
	<path style="fill:none;stroke:red;stroke-width:1px;stroke-linecap:butt;stroke-linejoin:miter;stroke-opacity:1" d="M 613.329,505.887 628.047,502.944 z" id="boundary" inkscape:connector-curvature="0" />
	<path style="fill:none;stroke:red;stroke-width:1px;stroke-linecap:butt;stroke-linejoin:miter;stroke-opacity:1" d="M 628.047,502.944 642.766,498.528 z" id="boundary" inkscape:connector-curvature="0" />
	<path style="fill:none;stroke:red;stroke-width:1px;stroke-linecap:butt;stroke-linejoin:miter;stroke-opacity:1" d="M 642.766,498.528 657.484,498.528 z" id="boundary" inkscape:connector-curvature="0" />
	<path style="fill:none;stroke:red;stroke-width:1px;stroke-linecap:butt;stroke-linejoin:miter;stroke-opacity:1" d="M 657.484,498.528 672.202,495.585 z" id="boundary" inkscape:connector-curvature="0" />
	<path style="fill:none;stroke:red;stroke-width:1px;stroke-linecap:butt;stroke-linejoin:miter;stroke-opacity:1" d="M 672.202,495.585 686.92,488.226 z" id="boundary" inkscape:connector-curvature="0" />
	<path style="fill:none;stroke:red;stroke-width:1px;stroke-linecap:butt;stroke-linejoin:miter;stroke-opacity:1" d="M 686.92,488.226 701.638,483.81 z" id="boundary" inkscape:connector-curvature="0" />
	<path style="fill:none;stroke:red;stroke-width:1px;stroke-linecap:butt;stroke-linejoin:miter;stroke-opacity:1" d="M 701.638,483.81 716.356,483.81 z" id="boundary" inkscape:connector-curvature="0" />
	<path style="fill:none;stroke:red;stroke-width:1px;stroke-linecap:butt;stroke-linejoin:miter;stroke-opacity:1" d="M 716.356,483.81 731.074,483.81 z" id="boundary" inkscape:connector-curvature="0" />
	<path style="fill:none;stroke:red;stroke-width:1px;stroke-linecap:butt;stroke-linejoin:miter;stroke-opacity:1" d="M 731.074,483.81 744.32,476.451 z" id="boundary" inkscape:connector-curvature="0" />
	<path style="fill:none;stroke:red;stroke-width:1px;stroke-linecap:butt;stroke-linejoin:miter;stroke-opacity:1" d="M 744.32,476.451 757.567,469.092 z" id="boundary" inkscape:connector-curvature="0" />
	<path style="fill:none;stroke:red;stroke-width:1px;stroke-linecap:butt;stroke-linejoin:miter;stroke-opacity:1" d="M 757.567,469.092 769.341,457.318 z" id="boundary" inkscape:connector-curvature="0" />
	<path style="fill:none;stroke:red;stroke-width:1px;stroke-linecap:butt;stroke-linejoin:miter;stroke-opacity:1" d="M 769.341,457.318 781.116,445.543 z" id="boundary" inkscape:connector-curvature="0" />
	<path style="fill:none;stroke:red;stroke-width:1px;stroke-linecap:butt;stroke-linejoin:miter;stroke-opacity:1" d="M 781.116,445.543 795.834,438.184 z" id="boundary" inkscape:connector-curvature="0" />
	<path style="fill:none;stroke:red;stroke-width:1px;stroke-linecap:butt;stroke-linejoin:miter;stroke-opacity:1" d="M 795.834,438.184 807.608,424.938 z" id="boundary" inkscape:connector-curvature="0" />
	<path style="fill:none;stroke:red;stroke-width:1px;stroke-linecap:butt;stroke-linejoin:miter;stroke-opacity:1" d="M 807.608,424.938 822.326,417.579 z" id="boundary" inkscape:connector-curvature="0" />
	<path style="fill:none;stroke:red;stroke-width:1px;stroke-linecap:butt;stroke-linejoin:miter;stroke-opacity:1" d="M 822.326,417.579 837.045,410.22 z" id="boundary" inkscape:connector-curvature="0" />
	<path style="fill:none;stroke:red;stroke-width:1px;stroke-linecap:butt;stroke-linejoin:miter;stroke-opacity:1" d="M 837.045,410.22 851.763,402.861 z" id="boundary" inkscape:connector-curvature="0" />
	<path style="fill:none;stroke:red;stroke-width:1px;stroke-linecap:butt;stroke-linejoin:miter;stroke-opacity:1" d="M 851.763,402.861 866.481,402.861 z" id="boundary" inkscape:connector-curvature="0" />
	<path style="fill:none;stroke:red;stroke-width:1px;stroke-linecap:butt;stroke-linejoin:miter;stroke-opacity:1" d="M 866.481,402.861 879.727,395.501 z" id="boundary" inkscape:connector-curvature="0" />
	<path style="fill:none;stroke:red;stroke-width:1px;stroke-linecap:butt;stroke-linejoin:miter;stroke-opacity:1" d="M 879.727,395.501 892.973,388.142 z" id="boundary" inkscape:connector-curvature="0" />
	<path style="fill:none;stroke:red;stroke-width:1px;stroke-linecap:butt;stroke-linejoin:miter;stroke-opacity:1" d="M 892.973,388.142 907.691,385.199 z" id="boundary" inkscape:connector-curvature="0" />
	<path style="fill:none;stroke:red;stroke-width:1px;stroke-linecap:butt;stroke-linejoin:miter;stroke-opacity:1" d="M 907.691,385.199 922.409,380.783 z" id="boundary" inkscape:connector-curvature="0" />
	<path style="fill:none;stroke:red;stroke-width:1px;stroke-linecap:butt;stroke-linejoin:miter;stroke-opacity:1" d="M 922.409,380.783 935.656,373.424 z" id="boundary" inkscape:connector-curvature="0" />
	<path style="fill:none;stroke:red;stroke-width:1px;stroke-linecap:butt;stroke-linejoin:miter;stroke-opacity:1" d="M 935.656,373.424 950.374,371.953 z" id="boundary" inkscape:connector-curvature="0" />
	<path style="fill:none;stroke:red;stroke-width:1px;stroke-linecap:butt;stroke-linejoin:miter;stroke-opacity:1" d="M 950.374,371.953 962.148,358.706 z" id="boundary" inkscape:connector-curvature="0" />
	<path style="fill:none;stroke:red;stroke-width:1px;stroke-linecap:butt;stroke-linejoin:miter;stroke-opacity:1" d="M 962.148,358.706 973.923,348.404 z" id="boundary" inkscape:connector-curvature="0" />
	<path style="fill:none;stroke:red;stroke-width:1px;stroke-linecap:butt;stroke-linejoin:miter;stroke-opacity:1" d="M 973.923,348.404 984.226,336.629 z" id="boundary" inkscape:connector-curvature="0" />
	<path style="fill:none;stroke:red;stroke-width:1px;stroke-linecap:butt;stroke-linejoin:miter;stroke-opacity:1" d="M 984.226,336.629 996,326.326 z" id="boundary" inkscape:connector-curvature="0" />
	<path style="fill:none;stroke:red;stroke-width:1px;stroke-linecap:butt;stroke-linejoin:miter;stroke-opacity:1" d="M 996,326.326 991.585,302.777 z" id="boundary" inkscape:connector-curvature="0" />
	<path style="fill:none;stroke:red;stroke-width:1px;stroke-linecap:butt;stroke-linejoin:miter;stroke-opacity:1" d="M 991.585,302.777 991.585,288.059 z" id="boundary" inkscape:connector-curvature="0" />
	<path style="fill:none;stroke:red;stroke-width:1px;stroke-linecap:butt;stroke-linejoin:miter;stroke-opacity:1" d="M 991.585,288.059 984.226,274.813 z" id="boundary" inkscape:connector-curvature="0" />
	<path style="fill:none;stroke:red;stroke-width:1px;stroke-linecap:butt;stroke-linejoin:miter;stroke-opacity:1" d="M 984.226,274.813 976.866,261.567 z" id="boundary" inkscape:connector-curvature="0" />
	<path style="fill:none;stroke:red;stroke-width:1px;stroke-linecap:butt;stroke-linejoin:miter;stroke-opacity:1" d="M 976.866,261.567 963.62,254.208 z" id="boundary" inkscape:connector-curvature="0" />
	<path style="fill:none;stroke:red;stroke-width:1px;stroke-linecap:butt;stroke-linejoin:miter;stroke-opacity:1" d="M 963.62,254.208 950.374,246.849 z" id="boundary" inkscape:connector-curvature="0" />
	<path style="fill:none;stroke:red;stroke-width:1px;stroke-linecap:butt;stroke-linejoin:miter;stroke-opacity:1" d="M 950.374,246.849 938.599,236.546 z" id="boundary" inkscape:connector-curvature="0" />
	<path style="fill:none;stroke:red;stroke-width:1px;stroke-linecap:butt;stroke-linejoin:miter;stroke-opacity:1" d="M 938.599,236.546 928.297,224.772 z" id="boundary" inkscape:connector-curvature="0" />
	<path style="fill:none;stroke:red;stroke-width:1px;stroke-linecap:butt;stroke-linejoin:miter;stroke-opacity:1" d="M 928.297,224.772 916.522,214.469 z" id="boundary" inkscape:connector-curvature="0" />
	<path style="fill:none;stroke:red;stroke-width:1px;stroke-linecap:butt;stroke-linejoin:miter;stroke-opacity:1" d="M 916.522,214.469 910.635,199.751 z" id="boundary" inkscape:connector-curvature="0" />
	<path style="fill:none;stroke:red;stroke-width:1px;stroke-linecap:butt;stroke-linejoin:miter;stroke-opacity:1" d="M 910.635,199.751 903.276,186.504 z" id="boundary" inkscape:connector-curvature="0" />
	<path style="fill:none;stroke:red;stroke-width:1px;stroke-linecap:butt;stroke-linejoin:miter;stroke-opacity:1" d="M 903.276,186.504 892.973,174.73 z" id="boundary" inkscape:connector-curvature="0" />
	<path style="fill:none;stroke:red;stroke-width:1px;stroke-linecap:butt;stroke-linejoin:miter;stroke-opacity:1" d="M 892.973,174.73 881.199,165.899 z" id="boundary" inkscape:connector-curvature="0" />
	<path style="fill:none;stroke:red;stroke-width:1px;stroke-linecap:butt;stroke-linejoin:miter;stroke-opacity:1" d="M 881.199,165.899 872.368,154.125 z" id="boundary" inkscape:connector-curvature="0" />
	<path style="fill:none;stroke:red;stroke-width:1px;stroke-linecap:butt;stroke-linejoin:miter;stroke-opacity:1" d="M 872.368,154.125 860.593,143.822 z" id="boundary" inkscape:connector-curvature="0" />
	<path style="fill:none;stroke:red;stroke-width:1px;stroke-linecap:butt;stroke-linejoin:miter;stroke-opacity:1" d="M 860.593,143.822 847.347,136.463 z" id="boundary" inkscape:connector-curvature="0" />
	<path style="fill:none;stroke:red;stroke-width:1px;stroke-linecap:butt;stroke-linejoin:miter;stroke-opacity:1" d="M 847.347,136.463 834.101,129.104 z" id="boundary" inkscape:connector-curvature="0" />
	<path style="fill:none;stroke:red;stroke-width:1px;stroke-linecap:butt;stroke-linejoin:miter;stroke-opacity:1" d="M 834.101,129.104 820.855,121.745 z" id="boundary" inkscape:connector-curvature="0" />
	<path style="fill:none;stroke:red;stroke-width:1px;stroke-linecap:butt;stroke-linejoin:miter;stroke-opacity:1" d="M 820.855,121.745 807.608,114.386 z" id="boundary" inkscape:connector-curvature="0" />
	<path style="fill:none;stroke:red;stroke-width:1px;stroke-linecap:butt;stroke-linejoin:miter;stroke-opacity:1" d="M 807.608,114.386 797.306,102.611 z" id="boundary" inkscape:connector-curvature="0" />
	<path style="fill:none;stroke:red;stroke-width:1px;stroke-linecap:butt;stroke-linejoin:miter;stroke-opacity:1" d="M 797.306,102.611 784.059,95.2522 z" id="boundary" inkscape:connector-curvature="0" />
	<path style="fill:none;stroke:red;stroke-width:1px;stroke-linecap:butt;stroke-linejoin:miter;stroke-opacity:1" d="M 784.059,95.2522 772.285,84.9496 z" id="boundary" inkscape:connector-curvature="0" />
	<path style="fill:none;stroke:red;stroke-width:1px;stroke-linecap:butt;stroke-linejoin:miter;stroke-opacity:1" d="M 772.285,84.9496 759.039,77.5905 z" id="boundary" inkscape:connector-curvature="0" />
	<path style="fill:none;stroke:red;stroke-width:1px;stroke-linecap:butt;stroke-linejoin:miter;stroke-opacity:1" d="M 759.039,77.5905 747.264,67.2878 z" id="boundary" inkscape:connector-curvature="0" />
	<path style="fill:none;stroke:red;stroke-width:1px;stroke-linecap:butt;stroke-linejoin:miter;stroke-opacity:1" d="M 747.264,67.2878 734.018,59.9288 z" id="boundary" inkscape:connector-curvature="0" />
	<path style="fill:none;stroke:red;stroke-width:1px;stroke-linecap:butt;stroke-linejoin:miter;stroke-opacity:1" d="M 734.018,59.9288 719.3,54.0415 z" id="boundary" inkscape:connector-curvature="0" />
	<path style="fill:none;stroke:red;stroke-width:1px;stroke-linecap:butt;stroke-linejoin:miter;stroke-opacity:1" d="M 719.3,54.0415 708.997,42.2671 z" id="boundary" inkscape:connector-curvature="0" />
	<path style="fill:none;stroke:red;stroke-width:1px;stroke-linecap:butt;stroke-linejoin:miter;stroke-opacity:1" d="M 708.997,42.2671 694.279,36.3798 z" id="boundary" inkscape:connector-curvature="0" />
	<path style="fill:none;stroke:red;stroke-width:1px;stroke-linecap:butt;stroke-linejoin:miter;stroke-opacity:1" d="M 694.279,36.3798 681.033,29.0208 z" id="boundary" inkscape:connector-curvature="0" />
	<path style="fill:none;stroke:red;stroke-width:1px;stroke-linecap:butt;stroke-linejoin:miter;stroke-opacity:1" d="M 681.033,29.0208 666.315,26.0772 z" id="boundary" inkscape:connector-curvature="0" />
	<path style="fill:none;stroke:red;stroke-width:1px;stroke-linecap:butt;stroke-linejoin:miter;stroke-opacity:1" d="M 666.315,26.0772 653.068,18.7181 z" id="boundary" inkscape:connector-curvature="0" />
	<path style="fill:none;stroke:red;stroke-width:1px;stroke-linecap:butt;stroke-linejoin:miter;stroke-opacity:1" d="M 653.068,18.7181 638.35,18.7181 z" id="boundary" inkscape:connector-curvature="0" />
	<path style="fill:none;stroke:red;stroke-width:1px;stroke-linecap:butt;stroke-linejoin:miter;stroke-opacity:1" d="M 638.35,18.7181 623.632,18.7181 z" id="boundary" inkscape:connector-curvature="0" />
	<path style="fill:none;stroke:red;stroke-width:1px;stroke-linecap:butt;stroke-linejoin:miter;stroke-opacity:1" d="M 623.632,18.7181 610.386,11.3591 z" id="boundary" inkscape:connector-curvature="0" />
	<path style="fill:none;stroke:red;stroke-width:1px;stroke-linecap:butt;stroke-linejoin:miter;stroke-opacity:1" d="M 610.386,11.3591 597.139,4 z" id="boundary" inkscape:connector-curvature="0" />
	<path style="fill:none;stroke:red;stroke-width:1px;stroke-linecap:butt;stroke-linejoin:miter;stroke-opacity:1" d="M 597.139,4 582.421,4 z" id="boundary" inkscape:connector-curvature="0" />
	<path style="fill:none;stroke:red;stroke-width:1px;stroke-linecap:butt;stroke-linejoin:miter;stroke-opacity:1" d="M 582.421,4 567.703,4 z" id="boundary" inkscape:connector-curvature="0" />
	<path style="fill:none;stroke:red;stroke-width:1px;stroke-linecap:butt;stroke-linejoin:miter;stroke-opacity:1" d="M 567.703,4 552.985,4 z" id="boundary" inkscape:connector-curvature="0" />
	<path style="fill:none;stroke:red;stroke-width:1px;stroke-linecap:butt;stroke-linejoin:miter;stroke-opacity:1" d="M 552.985,4 538.267,4 z" id="boundary" inkscape:connector-curvature="0" />
	<path style="fill:none;stroke:red;stroke-width:1px;stroke-linecap:butt;stroke-linejoin:miter;stroke-opacity:1" d="M 538.267,4 523.549,4 z" id="boundary" inkscape:connector-curvature="0" />
	<path style="fill:none;stroke:red;stroke-width:1px;stroke-linecap:butt;stroke-linejoin:miter;stroke-opacity:1" d="M 523.549,4 508.831,4 z" id="boundary" inkscape:connector-curvature="0" />
	<path style="fill:none;stroke:red;stroke-width:1px;stroke-linecap:butt;stroke-linejoin:miter;stroke-opacity:1" d="M 508.831,4 494.113,4 z" id="boundary" inkscape:connector-curvature="0" />
	<path style="fill:none;stroke:red;stroke-width:1px;stroke-linecap:butt;stroke-linejoin:miter;stroke-opacity:1" d="M 494.113,4 479.395,4 z" id="boundary" inkscape:connector-curvature="0" />
	<path style="fill:none;stroke:red;stroke-width:1px;stroke-linecap:butt;stroke-linejoin:miter;stroke-opacity:1" d="M 479.395,4 464.677,4 z" id="boundary" inkscape:connector-curvature="0" />
	<path style="fill:none;stroke:red;stroke-width:1px;stroke-linecap:butt;stroke-linejoin:miter;stroke-opacity:1" d="M 464.677,4 449.958,4 z" id="boundary" inkscape:connector-curvature="0" />
	<path style="fill:none;stroke:red;stroke-width:1px;stroke-linecap:butt;stroke-linejoin:miter;stroke-opacity:1" d="M 449.958,4 435.24,4 z" id="boundary" inkscape:connector-curvature="0" />
	<path style="fill:none;stroke:red;stroke-width:1px;stroke-linecap:butt;stroke-linejoin:miter;stroke-opacity:1" d="M 435.24,4 420.522,4 z" id="boundary" inkscape:connector-curvature="0" />
	<path style="fill:none;stroke:red;stroke-width:1px;stroke-linecap:butt;stroke-linejoin:miter;stroke-opacity:1" d="M 420.522,4 405.804,4 z" id="boundary" inkscape:connector-curvature="0" />
	<path style="fill:none;stroke:red;stroke-width:1px;stroke-linecap:butt;stroke-linejoin:miter;stroke-opacity:1" d="M 405.804,4 391.086,4 z" id="boundary" inkscape:connector-curvature="0" />
	<path style="fill:none;stroke:red;stroke-width:1px;stroke-linecap:butt;stroke-linejoin:miter;stroke-opacity:1" d="M 391.086,4 377.84,11.3591 z" id="boundary" inkscape:connector-curvature="0" />
	<path style="fill:none;stroke:red;stroke-width:1px;stroke-linecap:butt;stroke-linejoin:miter;stroke-opacity:1" d="M 377.84,11.3591 366.065,21.6617 z" id="boundary" inkscape:connector-curvature="0" />
	<path style="fill:none;stroke:red;stroke-width:1px;stroke-linecap:butt;stroke-linejoin:miter;stroke-opacity:1" d="M 366.065,21.6617 351.347,29.0208 z" id="boundary" inkscape:connector-curvature="0" />
	<path style="fill:none;stroke:red;stroke-width:1px;stroke-linecap:butt;stroke-linejoin:miter;stroke-opacity:1" d="M 351.347,29.0208 336.629,36.3798 z" id="boundary" inkscape:connector-curvature="0" />
	<path style="fill:none;stroke:red;stroke-width:1px;stroke-linecap:butt;stroke-linejoin:miter;stroke-opacity:1" d="M 336.629,36.3798 326.326,48.1543 z" id="boundary" inkscape:connector-curvature="0" />
	<path style="fill:none;stroke:red;stroke-width:1px;stroke-linecap:butt;stroke-linejoin:miter;stroke-opacity:1" d="M 326.326,48.1543 314.552,58.457 z" id="boundary" inkscape:connector-curvature="0" />
	<path style="fill:none;stroke:red;stroke-width:1px;stroke-linecap:butt;stroke-linejoin:miter;stroke-opacity:1" d="M 314.552,58.457 304.249,70.2315 z" id="boundary" inkscape:connector-curvature="0" />
	<path style="fill:none;stroke:red;stroke-width:1px;stroke-linecap:butt;stroke-linejoin:miter;stroke-opacity:1" d="M 304.249,70.2315 292.475,80.5341 z" id="boundary" inkscape:connector-curvature="0" />
	<path style="fill:none;stroke:red;stroke-width:1px;stroke-linecap:butt;stroke-linejoin:miter;stroke-opacity:1" d="M 292.475,80.5341 280.7,92.3086 z" id="boundary" inkscape:connector-curvature="0" />
	<path style="fill:none;stroke:red;stroke-width:1px;stroke-linecap:butt;stroke-linejoin:miter;stroke-opacity:1" d="M 280.7,92.3086 268.926,104.083 z" id="boundary" inkscape:connector-curvature="0" />
	<path style="fill:none;stroke:red;stroke-width:1px;stroke-linecap:butt;stroke-linejoin:miter;stroke-opacity:1" d="M 268.926,104.083 258.623,121.745 z" id="boundary" inkscape:connector-curvature="0" />
	<path style="fill:none;stroke:red;stroke-width:1px;stroke-linecap:butt;stroke-linejoin:miter;stroke-opacity:1" d="M 258.623,121.745 246.849,133.519 z" id="boundary" inkscape:connector-curvature="0" />
	<path style="fill:none;stroke:red;stroke-width:1px;stroke-linecap:butt;stroke-linejoin:miter;stroke-opacity:1" d="M 246.849,133.519 239.49,148.237 z" id="boundary" inkscape:connector-curvature="0" />
	<path style="fill:none;stroke:red;stroke-width:1px;stroke-linecap:butt;stroke-linejoin:miter;stroke-opacity:1" d="M 239.49,148.237 232.131,170.315 z" id="boundary" inkscape:connector-curvature="0" />
	<path style="fill:none;stroke:red;stroke-width:1px;stroke-linecap:butt;stroke-linejoin:miter;stroke-opacity:1" d="M 232.131,170.315 224.772,185.033 z" id="boundary" inkscape:connector-curvature="0" />
	<path style="fill:none;stroke:red;stroke-width:1px;stroke-linecap:butt;stroke-linejoin:miter;stroke-opacity:1" d="M 224.772,185.033 217.412,207.11 z" id="boundary" inkscape:connector-curvature="0" />
	<path style="fill:none;stroke:red;stroke-width:1px;stroke-linecap:butt;stroke-linejoin:miter;stroke-opacity:1" d="M 217.412,207.11 211.525,232.131 z" id="boundary" inkscape:connector-curvature="0" />
	<circle cx="4" cy="310.136" r="4" fill="#0" id="circle0"/>
	<circle cx="11.3591" cy="273.341" r="4" fill="#0" id="circle1"/>
	<circle cx="11.3591" cy="288.059" r="4" fill="#0" id="circle2"/>
	<circle cx="11.3591" cy="323.383" r="4" fill="#0" id="circle3"/>
	<circle cx="11.3591" cy="338.101" r="4" fill="#0" id="circle4"/>
	<circle cx="18.7181" cy="236.546" r="4" fill="#0" id="circle5"/>
	<circle cx="18.7181" cy="251.264" r="4" fill="#0" id="circle6"/>
	<circle cx="18.7181" cy="351.347" r="4" fill="#0" id="circle7"/>
	<circle cx="27.549" cy="363.122" r="4" fill="#0" id="circle8"/>
	<circle cx="30.4926" cy="224.772" r="4" fill="#0" id="circle9"/>
	<circle cx="39.3234" cy="373.424" r="4" fill="#0" id="circle10"/>
	<circle cx="42.2671" cy="212.997" r="4" fill="#0" id="circle11"/>
	<circle cx="45.2107" cy="388.142" r="4" fill="#0" id="circle12"/>
	<circle cx="54.0415" cy="202.694" r="4" fill="#0" id="circle13"/>
	<circle cx="59.9288" cy="394.03" r="4" fill="#0" id="circle14"/>
	<circle cx="68.7596" cy="202.694" r="4" fill="#0" id="circle15"/>
	<circle cx="74.6469" cy="394.03" r="4" fill="#0" id="circle16"/>
	<circle cx="83.4777" cy="204.166" r="4" fill="#0" id="circle17"/>
	<circle cx="89.365" cy="388.142" r="4" fill="#0" id="circle18"/>
	<circle cx="98.1958" cy="210.053" r="4" fill="#0" id="circle19"/>
	<circle cx="102.611" cy="380.783" r="4" fill="#0" id="circle20"/>
	<circle cx="111.442" cy="217.412" r="4" fill="#0" id="circle21"/>
	<circle cx="117.329" cy="380.783" r="4" fill="#0" id="circle22"/>
	<circle cx="126.16" cy="217.412" r="4" fill="#0" id="circle23"/>
	<circle cx="130.576" cy="373.424" r="4" fill="#0" id="circle24"/>
	<circle cx="140.878" cy="217.412" r="4" fill="#0" id="circle25"/>
	<circle cx="145.294" cy="366.065" r="4" fill="#0" id="circle26"/>
	<circle cx="154.125" cy="224.772" r="4" fill="#0" id="circle27"/>
	<circle cx="160.012" cy="358.706" r="4" fill="#0" id="circle28"/>
	<circle cx="167.371" cy="232.131" r="4" fill="#0" id="circle29"/>
	<circle cx="174.73" cy="358.706" r="4" fill="#0" id="circle30"/>
	<circle cx="182.089" cy="232.131" r="4" fill="#0" id="circle31"/>
	<circle cx="187.976" cy="351.347" r="4" fill="#0" id="circle32"/>
	<circle cx="196.807" cy="232.131" r="4" fill="#0" id="circle33"/>
	<circle cx="201.223" cy="343.988" r="4" fill="#0" id="circle34"/>
	<circle cx="211.525" cy="232.131" r="4" fill="#0" id="circle35"/>
	<circle cx="214.469" cy="351.347" r="4" fill="#0" id="circle36"/>
	<circle cx="217.412" cy="207.11" r="4" fill="#0" id="circle37"/>
	<circle cx="217.412" cy="366.065" r="4" fill="#0" id="circle38"/>
	<circle cx="221.828" cy="380.783" r="4" fill="#0" id="circle39"/>
	<circle cx="224.772" cy="185.033" r="4" fill="#0" id="circle40"/>
	<circle cx="232.131" cy="170.315" r="4" fill="#0" id="circle41"/>
	<circle cx="233.602" cy="391.086" r="4" fill="#0" id="circle42"/>
	<circle cx="239.49" cy="148.237" r="4" fill="#0" id="circle43"/>
	<circle cx="243.905" cy="402.861" r="4" fill="#0" id="circle44"/>
	<circle cx="246.849" cy="133.519" r="4" fill="#0" id="circle45"/>
	<circle cx="251.264" cy="416.107" r="4" fill="#0" id="circle46"/>
	<circle cx="257.151" cy="430.825" r="4" fill="#0" id="circle47"/>
	<circle cx="258.623" cy="121.745" r="4" fill="#0" id="circle48"/>
	<circle cx="268.926" cy="104.083" r="4" fill="#0" id="circle49"/>
	<circle cx="268.926" cy="439.656" r="4" fill="#0" id="circle50"/>
	<circle cx="277.757" cy="451.43" r="4" fill="#0" id="circle51"/>
	<circle cx="280.7" cy="92.3086" r="4" fill="#0" id="circle52"/>
	<circle cx="289.531" cy="461.733" r="4" fill="#0" id="circle53"/>
	<circle cx="292.475" cy="80.5341" r="4" fill="#0" id="circle54"/>
	<circle cx="295.418" cy="476.451" r="4" fill="#0" id="circle55"/>
	<circle cx="304.249" cy="70.2315" r="4" fill="#0" id="circle56"/>
	<circle cx="307.193" cy="486.754" r="4" fill="#0" id="circle57"/>
	<circle cx="314.552" cy="58.457" r="4" fill="#0" id="circle58"/>
	<circle cx="317.496" cy="498.528" r="4" fill="#0" id="circle59"/>
	<circle cx="326.326" cy="48.1543" r="4" fill="#0" id="circle60"/>
	<circle cx="329.27" cy="508.831" r="4" fill="#0" id="circle61"/>
	<circle cx="336.629" cy="36.3798" r="4" fill="#0" id="circle62"/>
	<circle cx="342.516" cy="516.19" r="4" fill="#0" id="circle63"/>
	<circle cx="351.347" cy="29.0208" r="4" fill="#0" id="circle64"/>
	<circle cx="357.234" cy="520.605" r="4" fill="#0" id="circle65"/>
	<circle cx="366.065" cy="21.6617" r="4" fill="#0" id="circle66"/>
	<circle cx="371.953" cy="520.605" r="4" fill="#0" id="circle67"/>
	<circle cx="377.84" cy="11.3591" r="4" fill="#0" id="circle68"/>
	<circle cx="385.199" cy="527.964" r="4" fill="#0" id="circle69"/>
	<circle cx="391.086" cy="4" r="4" fill="#0" id="circle70"/>
	<circle cx="399.917" cy="527.964" r="4" fill="#0" id="circle71"/>
	<circle cx="405.804" cy="4" r="4" fill="#0" id="circle72"/>
	<circle cx="414.635" cy="527.964" r="4" fill="#0" id="circle73"/>
	<circle cx="420.522" cy="4" r="4" fill="#0" id="circle74"/>
	<circle cx="427.881" cy="535.323" r="4" fill="#0" id="circle75"/>
	<circle cx="435.24" cy="4" r="4" fill="#0" id="circle76"/>
	<circle cx="441.128" cy="527.964" r="4" fill="#0" id="circle77"/>
	<circle cx="449.958" cy="4" r="4" fill="#0" id="circle78"/>
	<circle cx="455.846" cy="527.964" r="4" fill="#0" id="circle79"/>
	<circle cx="464.677" cy="4" r="4" fill="#0" id="circle80"/>
	<circle cx="470.564" cy="527.964" r="4" fill="#0" id="circle81"/>
	<circle cx="479.395" cy="4" r="4" fill="#0" id="circle82"/>
	<circle cx="485.282" cy="527.964" r="4" fill="#0" id="circle83"/>
	<circle cx="494.113" cy="4" r="4" fill="#0" id="circle84"/>
	<circle cx="500" cy="527.964" r="4" fill="#0" id="circle85"/>
	<circle cx="508.831" cy="4" r="4" fill="#0" id="circle86"/>
	<circle cx="514.718" cy="527.964" r="4" fill="#0" id="circle87"/>
	<circle cx="523.549" cy="4" r="4" fill="#0" id="circle88"/>
	<circle cx="527.964" cy="520.605" r="4" fill="#0" id="circle89"/>
	<circle cx="538.267" cy="4" r="4" fill="#0" id="circle90"/>
	<circle cx="542.682" cy="520.605" r="4" fill="#0" id="circle91"/>
	<circle cx="552.985" cy="4" r="4" fill="#0" id="circle92"/>
	<circle cx="557.401" cy="520.605" r="4" fill="#0" id="circle93"/>
	<circle cx="567.703" cy="4" r="4" fill="#0" id="circle94"/>
	<circle cx="570.647" cy="513.246" r="4" fill="#0" id="circle95"/>
	<circle cx="582.421" cy="4" r="4" fill="#0" id="circle96"/>
	<circle cx="585.365" cy="513.246" r="4" fill="#0" id="circle97"/>
	<circle cx="597.139" cy="4" r="4" fill="#0" id="circle98"/>
	<circle cx="600.083" cy="513.246" r="4" fill="#0" id="circle99"/>
	<circle cx="610.386" cy="11.3591" r="4" fill="#0" id="circle100"/>
	<circle cx="613.329" cy="505.887" r="4" fill="#0" id="circle101"/>
	<circle cx="623.632" cy="18.7181" r="4" fill="#0" id="circle102"/>
	<circle cx="628.047" cy="502.944" r="4" fill="#0" id="circle103"/>
	<circle cx="638.35" cy="18.7181" r="4" fill="#0" id="circle104"/>
	<circle cx="642.766" cy="498.528" r="4" fill="#0" id="circle105"/>
	<circle cx="653.068" cy="18.7181" r="4" fill="#0" id="circle106"/>
	<circle cx="657.484" cy="498.528" r="4" fill="#0" id="circle107"/>
	<circle cx="666.315" cy="26.0772" r="4" fill="#0" id="circle108"/>
	<circle cx="672.202" cy="495.585" r="4" fill="#0" id="circle109"/>
	<circle cx="681.033" cy="29.0208" r="4" fill="#0" id="circle110"/>
	<circle cx="686.92" cy="488.226" r="4" fill="#0" id="circle111"/>
	<circle cx="694.279" cy="36.3798" r="4" fill="#0" id="circle112"/>
	<circle cx="701.638" cy="483.81" r="4" fill="#0" id="circle113"/>
	<circle cx="708.997" cy="42.2671" r="4" fill="#0" id="circle114"/>
	<circle cx="716.356" cy="483.81" r="4" fill="#0" id="circle115"/>
	<circle cx="719.3" cy="54.0415" r="4" fill="#0" id="circle116"/>
	<circle cx="731.074" cy="483.81" r="4" fill="#0" id="circle117"/>
	<circle cx="734.018" cy="59.9288" r="4" fill="#0" id="circle118"/>
	<circle cx="744.32" cy="476.451" r="4" fill="#0" id="circle119"/>
	<circle cx="747.264" cy="67.2878" r="4" fill="#0" id="circle120"/>
	<circle cx="757.567" cy="469.092" r="4" fill="#0" id="circle121"/>
	<circle cx="759.039" cy="77.5905" r="4" fill="#0" id="circle122"/>
	<circle cx="769.341" cy="457.318" r="4" fill="#0" id="circle123"/>
	<circle cx="772.285" cy="84.9496" r="4" fill="#0" id="circle124"/>
	<circle cx="781.116" cy="445.543" r="4" fill="#0" id="circle125"/>
	<circle cx="784.059" cy="95.2522" r="4" fill="#0" id="circle126"/>
	<circle cx="795.834" cy="438.184" r="4" fill="#0" id="circle127"/>
	<circle cx="797.306" cy="102.611" r="4" fill="#0" id="circle128"/>
	<circle cx="807.608" cy="114.386" r="4" fill="#0" id="circle129"/>
	<circle cx="807.608" cy="424.938" r="4" fill="#0" id="circle130"/>
	<circle cx="820.855" cy="121.745" r="4" fill="#0" id="circle131"/>
	<circle cx="822.326" cy="417.579" r="4" fill="#0" id="circle132"/>
	<circle cx="834.101" cy="129.104" r="4" fill="#0" id="circle133"/>
	<circle cx="837.045" cy="410.22" r="4" fill="#0" id="circle134"/>
	<circle cx="847.347" cy="136.463" r="4" fill="#0" id="circle135"/>
	<circle cx="851.763" cy="402.861" r="4" fill="#0" id="circle136"/>
	<circle cx="860.593" cy="143.822" r="4" fill="#0" id="circle137"/>
	<circle cx="866.481" cy="402.861" r="4" fill="#0" id="circle138"/>
	<circle cx="872.368" cy="154.125" r="4" fill="#0" id="circle139"/>
	<circle cx="879.727" cy="395.501" r="4" fill="#0" id="circle140"/>
	<circle cx="881.199" cy="165.899" r="4" fill="#0" id="circle141"/>
	<circle cx="892.973" cy="174.73" r="4" fill="#0" id="circle142"/>
	<circle cx="892.973" cy="388.142" r="4" fill="#0" id="circle143"/>
	<circle cx="903.276" cy="186.504" r="4" fill="#0" id="circle144"/>
	<circle cx="907.691" cy="385.199" r="4" fill="#0" id="circle145"/>
	<circle cx="910.635" cy="199.751" r="4" fill="#0" id="circle146"/>
	<circle cx="916.522" cy="214.469" r="4" fill="#0" id="circle147"/>
	<circle cx="922.409" cy="380.783" r="4" fill="#0" id="circle148"/>
	<circle cx="928.297" cy="224.772" r="4" fill="#0" id="circle149"/>
	<circle cx="935.656" cy="373.424" r="4" fill="#0" id="circle150"/>
	<circle cx="938.599" cy="236.546" r="4" fill="#0" id="circle151"/>
	<circle cx="950.374" cy="246.849" r="4" fill="#0" id="circle152"/>
	<circle cx="950.374" cy="371.953" r="4" fill="#0" id="circle153"/>
	<circle cx="962.148" cy="358.706" r="4" fill="#0" id="circle154"/>
	<circle cx="963.62" cy="254.208" r="4" fill="#0" id="circle155"/>
	<circle cx="973.923" cy="348.404" r="4" fill="#0" id="circle156"/>
	<circle cx="976.866" cy="261.567" r="4" fill="#0" id="circle157"/>
	<circle cx="984.226" cy="274.813" r="4" fill="#0" id="circle158"/>
	<circle cx="984.226" cy="336.629" r="4" fill="#0" id="circle159"/>
	<circle cx="991.585" cy="288.059" r="4" fill="#0" id="circle160"/>
	<circle cx="991.585" cy="302.777" r="4" fill="#0" id="circle161"/>
	<circle cx="996" cy="326.326" r="4" fill="#0" id="circle162"/>
	</g>
</svg>