<?xml version="1.0" encoding="UTF-8" standalone="no"?>
<!-- Created with CurveBenchmark -->
<svg
	xmlns:dc="http://purl.org/dc/elements/1.1/"
	xmlns:cc="http://creativecommons.org/ns#"
	xmlns:rdf="http://www.w3.org/1999/02/22-rdf-syntax-ns#"
	xmlns:svg="http://www.w3.org/2000/svg"
	xmlns="http://www.w3.org/2000/svg"
	xmlns:sodipodi="http://sodipodi.sourceforge.net/DTD/sodipodi-0.dtd"
	xmlns:inkscape="http://www.inkscape.org/namespaces/inkscape"
	width="1000"
	height="1000"
	id="svg2"
	version="1.1"
	sodipodi:docname="manifold/crawl-cat03.png.txt">
<defs
	id="defs4" />
<metadata
	id="metadata7">
	<rdf:RDF>
		<cc:Work
			rdf:about="">
			<dc:format>image/svg+xml</dc:format>
			<dc:type
				rdf:resource="http://purl.org/dc/dcmitype/StillImage" />
			<dc:title></dc:title>
		</cc:Work>
	</rdf:RDF>
</metadata>
<g
	inkscape:label="Layer 1"
	inkscape:groupmode="layer"
	id="layer1">
	<path style="fill:none;stroke:red;stroke-width:1px;stroke-linecap:butt;stroke-linejoin:miter;stroke-opacity:1" d="M 12.0389,137.446 12.0389,121.368 z" id="boundary" inkscape:connector-curvature="0" />
	<path style="fill:none;stroke:red;stroke-width:1px;stroke-linecap:butt;stroke-linejoin:miter;stroke-opacity:1" d="M 12.0389,137.446 12.0389,153.524 z" id="boundary" inkscape:connector-curvature="0" />
	<path style="fill:none;stroke:red;stroke-width:1px;stroke-linecap:butt;stroke-linejoin:miter;stroke-opacity:1" d="M 12.0389,153.524 12.0389,169.601 z" id="boundary" inkscape:connector-curvature="0" />
	<path style="fill:none;stroke:red;stroke-width:1px;stroke-linecap:butt;stroke-linejoin:miter;stroke-opacity:1" d="M 12.0389,169.601 20.0778,184.071 z" id="boundary" inkscape:connector-curvature="0" />
	<path style="fill:none;stroke:red;stroke-width:1px;stroke-linecap:butt;stroke-linejoin:miter;stroke-opacity:1" d="M 20.0778,184.071 20.0778,200.149 z" id="boundary" inkscape:connector-curvature="0" />
	<path style="fill:none;stroke:red;stroke-width:1px;stroke-linecap:butt;stroke-linejoin:miter;stroke-opacity:1" d="M 20.0778,200.149 20.0778,216.227 z" id="boundary" inkscape:connector-curvature="0" />
	<path style="fill:none;stroke:red;stroke-width:1px;stroke-linecap:butt;stroke-linejoin:miter;stroke-opacity:1" d="M 20.0778,216.227 28.1167,230.697 z" id="boundary" inkscape:connector-curvature="0" />
	<path style="fill:none;stroke:red;stroke-width:1px;stroke-linecap:butt;stroke-linejoin:miter;stroke-opacity:1" d="M 28.1167,230.697 42.5867,238.736 z" id="boundary" inkscape:connector-curvature="0" />
	<path style="fill:none;stroke:red;stroke-width:1px;stroke-linecap:butt;stroke-linejoin:miter;stroke-opacity:1" d="M 42.5867,238.736 53.8412,251.598 z" id="boundary" inkscape:connector-curvature="0" />
	<path style="fill:none;stroke:red;stroke-width:1px;stroke-linecap:butt;stroke-linejoin:miter;stroke-opacity:1" d="M 53.8412,251.598 69.919,254.814 z" id="boundary" inkscape:connector-curvature="0" />
	<path style="fill:none;stroke:red;stroke-width:1px;stroke-linecap:butt;stroke-linejoin:miter;stroke-opacity:1" d="M 69.919,254.814 85.9968,254.814 z" id="boundary" inkscape:connector-curvature="0" />
	<path style="fill:none;stroke:red;stroke-width:1px;stroke-linecap:butt;stroke-linejoin:miter;stroke-opacity:1" d="M 12.0389,121.368 20.0778,105.29 z" id="boundary" inkscape:connector-curvature="0" />
	<path style="fill:none;stroke:red;stroke-width:1px;stroke-linecap:butt;stroke-linejoin:miter;stroke-opacity:1" d="M 20.0778,105.29 28.1167,89.2123 z" id="boundary" inkscape:connector-curvature="0" />
	<path style="fill:none;stroke:red;stroke-width:1px;stroke-linecap:butt;stroke-linejoin:miter;stroke-opacity:1" d="M 28.1167,89.2123 28.1167,73.1345 z" id="boundary" inkscape:connector-curvature="0" />
	<path style="fill:none;stroke:red;stroke-width:1px;stroke-linecap:butt;stroke-linejoin:miter;stroke-opacity:1" d="M 28.1167,73.1345 28.1167,57.0567 z" id="boundary" inkscape:connector-curvature="0" />
	<path style="fill:none;stroke:red;stroke-width:1px;stroke-linecap:butt;stroke-linejoin:miter;stroke-opacity:1" d="M 28.1167,57.0567 28.1167,40.9789 z" id="boundary" inkscape:connector-curvature="0" />
	<path style="fill:none;stroke:red;stroke-width:1px;stroke-linecap:butt;stroke-linejoin:miter;stroke-opacity:1" d="M 28.1167,40.9789 16.8622,28.1167 z" id="boundary" inkscape:connector-curvature="0" />
	<path style="fill:none;stroke:red;stroke-width:1px;stroke-linecap:butt;stroke-linejoin:miter;stroke-opacity:1" d="M 16.8622,28.1167 4,16.8622 z" id="boundary" inkscape:connector-curvature="0" />
	<path style="fill:none;stroke:red;stroke-width:1px;stroke-linecap:butt;stroke-linejoin:miter;stroke-opacity:1" d="M 85.9968,254.814 102.075,246.775 z" id="boundary" inkscape:connector-curvature="0" />
	<path style="fill:none;stroke:red;stroke-width:1px;stroke-linecap:butt;stroke-linejoin:miter;stroke-opacity:1" d="M 102.075,246.775 118.152,249.99 z" id="boundary" inkscape:connector-curvature="0" />
	<path style="fill:none;stroke:red;stroke-width:1px;stroke-linecap:butt;stroke-linejoin:miter;stroke-opacity:1" d="M 118.152,249.99 124.583,266.068 z" id="boundary" inkscape:connector-curvature="0" />
	<path style="fill:none;stroke:red;stroke-width:1px;stroke-linecap:butt;stroke-linejoin:miter;stroke-opacity:1" d="M 124.583,266.068 132.622,280.538 z" id="boundary" inkscape:connector-curvature="0" />
	<path style="fill:none;stroke:red;stroke-width:1px;stroke-linecap:butt;stroke-linejoin:miter;stroke-opacity:1" d="M 132.622,280.538 140.661,295.008 z" id="boundary" inkscape:connector-curvature="0" />
	<path style="fill:none;stroke:red;stroke-width:1px;stroke-linecap:butt;stroke-linejoin:miter;stroke-opacity:1" d="M 140.661,295.008 150.308,307.87 z" id="boundary" inkscape:connector-curvature="0" />
	<path style="fill:none;stroke:red;stroke-width:1px;stroke-linecap:butt;stroke-linejoin:miter;stroke-opacity:1" d="M 150.308,307.87 156.739,323.948 z" id="boundary" inkscape:connector-curvature="0" />
	<path style="fill:none;stroke:red;stroke-width:1px;stroke-linecap:butt;stroke-linejoin:miter;stroke-opacity:1" d="M 156.739,323.948 156.739,340.026 z" id="boundary" inkscape:connector-curvature="0" />
	<path style="fill:none;stroke:red;stroke-width:1px;stroke-linecap:butt;stroke-linejoin:miter;stroke-opacity:1" d="M 156.739,340.026 156.739,356.104 z" id="boundary" inkscape:connector-curvature="0" />
	<path style="fill:none;stroke:red;stroke-width:1px;stroke-linecap:butt;stroke-linejoin:miter;stroke-opacity:1" d="M 156.739,356.104 164.778,370.574 z" id="boundary" inkscape:connector-curvature="0" />
	<path style="fill:none;stroke:red;stroke-width:1px;stroke-linecap:butt;stroke-linejoin:miter;stroke-opacity:1" d="M 164.778,370.574 172.817,385.044 z" id="boundary" inkscape:connector-curvature="0" />
	<path style="fill:none;stroke:red;stroke-width:1px;stroke-linecap:butt;stroke-linejoin:miter;stroke-opacity:1" d="M 172.817,385.044 184.071,397.906 z" id="boundary" inkscape:connector-curvature="0" />
	<path style="fill:none;stroke:red;stroke-width:1px;stroke-linecap:butt;stroke-linejoin:miter;stroke-opacity:1" d="M 184.071,397.906 196.934,407.553 z" id="boundary" inkscape:connector-curvature="0" />
	<path style="fill:none;stroke:red;stroke-width:1px;stroke-linecap:butt;stroke-linejoin:miter;stroke-opacity:1" d="M 196.934,407.553 206.58,420.415 z" id="boundary" inkscape:connector-curvature="0" />
	<path style="fill:none;stroke:red;stroke-width:1px;stroke-linecap:butt;stroke-linejoin:miter;stroke-opacity:1" d="M 206.58,420.415 213.011,436.493 z" id="boundary" inkscape:connector-curvature="0" />
	<path style="fill:none;stroke:red;stroke-width:1px;stroke-linecap:butt;stroke-linejoin:miter;stroke-opacity:1" d="M 213.011,436.493 221.05,450.963 z" id="boundary" inkscape:connector-curvature="0" />
	<path style="fill:none;stroke:red;stroke-width:1px;stroke-linecap:butt;stroke-linejoin:miter;stroke-opacity:1" d="M 221.05,450.963 233.912,462.217 z" id="boundary" inkscape:connector-curvature="0" />
	<path style="fill:none;stroke:red;stroke-width:1px;stroke-linecap:butt;stroke-linejoin:miter;stroke-opacity:1" d="M 233.912,462.217 246.775,471.864 z" id="boundary" inkscape:connector-curvature="0" />
	<path style="fill:none;stroke:red;stroke-width:1px;stroke-linecap:butt;stroke-linejoin:miter;stroke-opacity:1" d="M 246.775,471.864 261.245,479.903 z" id="boundary" inkscape:connector-curvature="0" />
	<path style="fill:none;stroke:red;stroke-width:1px;stroke-linecap:butt;stroke-linejoin:miter;stroke-opacity:1" d="M 261.245,479.903 269.284,494.373 z" id="boundary" inkscape:connector-curvature="0" />
	<path style="fill:none;stroke:red;stroke-width:1px;stroke-linecap:butt;stroke-linejoin:miter;stroke-opacity:1" d="M 269.284,494.373 272.499,510.451 z" id="boundary" inkscape:connector-curvature="0" />
	<path style="fill:none;stroke:red;stroke-width:1px;stroke-linecap:butt;stroke-linejoin:miter;stroke-opacity:1" d="M 272.499,510.451 277.323,526.528 z" id="boundary" inkscape:connector-curvature="0" />
	<path style="fill:none;stroke:red;stroke-width:1px;stroke-linecap:butt;stroke-linejoin:miter;stroke-opacity:1" d="M 277.323,526.528 285.361,540.998 z" id="boundary" inkscape:connector-curvature="0" />
	<path style="fill:none;stroke:red;stroke-width:1px;stroke-linecap:butt;stroke-linejoin:miter;stroke-opacity:1" d="M 285.361,540.998 286.969,557.076 z" id="boundary" inkscape:connector-curvature="0" />
	<path style="fill:none;stroke:red;stroke-width:1px;stroke-linecap:butt;stroke-linejoin:miter;stroke-opacity:1" d="M 286.969,557.076 293.4,573.154 z" id="boundary" inkscape:connector-curvature="0" />
	<path style="fill:none;stroke:red;stroke-width:1px;stroke-linecap:butt;stroke-linejoin:miter;stroke-opacity:1" d="M 293.4,573.154 293.4,589.232 z" id="boundary" inkscape:connector-curvature="0" />
	<path style="fill:none;stroke:red;stroke-width:1px;stroke-linecap:butt;stroke-linejoin:miter;stroke-opacity:1" d="M 293.4,589.232 293.4,605.31 z" id="boundary" inkscape:connector-curvature="0" />
	<path style="fill:none;stroke:red;stroke-width:1px;stroke-linecap:butt;stroke-linejoin:miter;stroke-opacity:1" d="M 293.4,605.31 293.4,621.387 z" id="boundary" inkscape:connector-curvature="0" />
	<path style="fill:none;stroke:red;stroke-width:1px;stroke-linecap:butt;stroke-linejoin:miter;stroke-opacity:1" d="M 293.4,621.387 293.4,637.465 z" id="boundary" inkscape:connector-curvature="0" />
	<path style="fill:none;stroke:red;stroke-width:1px;stroke-linecap:butt;stroke-linejoin:miter;stroke-opacity:1" d="M 293.4,637.465 285.361,651.935 z" id="boundary" inkscape:connector-curvature="0" />
	<path style="fill:none;stroke:red;stroke-width:1px;stroke-linecap:butt;stroke-linejoin:miter;stroke-opacity:1" d="M 285.361,651.935 293.4,666.405 z" id="boundary" inkscape:connector-curvature="0" />
	<path style="fill:none;stroke:red;stroke-width:1px;stroke-linecap:butt;stroke-linejoin:miter;stroke-opacity:1" d="M 293.4,666.405 293.4,682.483 z" id="boundary" inkscape:connector-curvature="0" />
	<path style="fill:none;stroke:red;stroke-width:1px;stroke-linecap:butt;stroke-linejoin:miter;stroke-opacity:1" d="M 4,16.8622 16.8622,4 z" id="boundary" inkscape:connector-curvature="0" />
	<path style="fill:none;stroke:red;stroke-width:1px;stroke-linecap:butt;stroke-linejoin:miter;stroke-opacity:1" d="M 16.8622,4 31.3323,12.0389 z" id="boundary" inkscape:connector-curvature="0" />
	<path style="fill:none;stroke:red;stroke-width:1px;stroke-linecap:butt;stroke-linejoin:miter;stroke-opacity:1" d="M 31.3323,12.0389 45.8023,20.0778 z" id="boundary" inkscape:connector-curvature="0" />
	<path style="fill:none;stroke:red;stroke-width:1px;stroke-linecap:butt;stroke-linejoin:miter;stroke-opacity:1" d="M 45.8023,20.0778 61.8801,24.9011 z" id="boundary" inkscape:connector-curvature="0" />
	<path style="fill:none;stroke:red;stroke-width:1px;stroke-linecap:butt;stroke-linejoin:miter;stroke-opacity:1" d="M 61.8801,24.9011 76.3501,32.94 z" id="boundary" inkscape:connector-curvature="0" />
	<path style="fill:none;stroke:red;stroke-width:1px;stroke-linecap:butt;stroke-linejoin:miter;stroke-opacity:1" d="M 76.3501,32.94 92.4279,36.1556 z" id="boundary" inkscape:connector-curvature="0" />
	<path style="fill:none;stroke:red;stroke-width:1px;stroke-linecap:butt;stroke-linejoin:miter;stroke-opacity:1" d="M 92.4279,36.1556 106.898,44.1945 z" id="boundary" inkscape:connector-curvature="0" />
	<path style="fill:none;stroke:red;stroke-width:1px;stroke-linecap:butt;stroke-linejoin:miter;stroke-opacity:1" d="M 106.898,44.1945 122.976,44.1945 z" id="boundary" inkscape:connector-curvature="0" />
	<path style="fill:none;stroke:red;stroke-width:1px;stroke-linecap:butt;stroke-linejoin:miter;stroke-opacity:1" d="M 122.976,44.1945 134.23,31.3323 z" id="boundary" inkscape:connector-curvature="0" />
	<path style="fill:none;stroke:red;stroke-width:1px;stroke-linecap:butt;stroke-linejoin:miter;stroke-opacity:1" d="M 134.23,31.3323 147.092,21.6856 z" id="boundary" inkscape:connector-curvature="0" />
	<path style="fill:none;stroke:red;stroke-width:1px;stroke-linecap:butt;stroke-linejoin:miter;stroke-opacity:1" d="M 147.092,21.6856 161.562,29.7245 z" id="boundary" inkscape:connector-curvature="0" />
	<path style="fill:none;stroke:red;stroke-width:1px;stroke-linecap:butt;stroke-linejoin:miter;stroke-opacity:1" d="M 161.562,29.7245 174.425,40.9789 z" id="boundary" inkscape:connector-curvature="0" />
	<path style="fill:none;stroke:red;stroke-width:1px;stroke-linecap:butt;stroke-linejoin:miter;stroke-opacity:1" d="M 174.425,40.9789 185.679,53.8412 z" id="boundary" inkscape:connector-curvature="0" />
	<path style="fill:none;stroke:red;stroke-width:1px;stroke-linecap:butt;stroke-linejoin:miter;stroke-opacity:1" d="M 185.679,53.8412 198.541,65.0956 z" id="boundary" inkscape:connector-curvature="0" />
	<path style="fill:none;stroke:red;stroke-width:1px;stroke-linecap:butt;stroke-linejoin:miter;stroke-opacity:1" d="M 198.541,65.0956 206.58,79.5656 z" id="boundary" inkscape:connector-curvature="0" />
	<path style="fill:none;stroke:red;stroke-width:1px;stroke-linecap:butt;stroke-linejoin:miter;stroke-opacity:1" d="M 206.58,79.5656 216.227,92.4279 z" id="boundary" inkscape:connector-curvature="0" />
	<path style="fill:none;stroke:red;stroke-width:1px;stroke-linecap:butt;stroke-linejoin:miter;stroke-opacity:1" d="M 216.227,92.4279 229.089,103.682 z" id="boundary" inkscape:connector-curvature="0" />
	<path style="fill:none;stroke:red;stroke-width:1px;stroke-linecap:butt;stroke-linejoin:miter;stroke-opacity:1" d="M 229.089,103.682 235.52,119.76 z" id="boundary" inkscape:connector-curvature="0" />
	<path style="fill:none;stroke:red;stroke-width:1px;stroke-linecap:butt;stroke-linejoin:miter;stroke-opacity:1" d="M 235.52,119.76 243.559,134.23 z" id="boundary" inkscape:connector-curvature="0" />
	<path style="fill:none;stroke:red;stroke-width:1px;stroke-linecap:butt;stroke-linejoin:miter;stroke-opacity:1" d="M 243.559,134.23 259.637,140.661 z" id="boundary" inkscape:connector-curvature="0" />
	<path style="fill:none;stroke:red;stroke-width:1px;stroke-linecap:butt;stroke-linejoin:miter;stroke-opacity:1" d="M 259.637,140.661 275.715,140.661 z" id="boundary" inkscape:connector-curvature="0" />
	<path style="fill:none;stroke:red;stroke-width:1px;stroke-linecap:butt;stroke-linejoin:miter;stroke-opacity:1" d="M 275.715,140.661 291.793,142.269 z" id="boundary" inkscape:connector-curvature="0" />
	<path style="fill:none;stroke:red;stroke-width:1px;stroke-linecap:butt;stroke-linejoin:miter;stroke-opacity:1" d="M 291.793,142.269 306.263,150.308 z" id="boundary" inkscape:connector-curvature="0" />
	<path style="fill:none;stroke:red;stroke-width:1px;stroke-linecap:butt;stroke-linejoin:miter;stroke-opacity:1" d="M 306.263,150.308 322.34,156.739 z" id="boundary" inkscape:connector-curvature="0" />
	<path style="fill:none;stroke:red;stroke-width:1px;stroke-linecap:butt;stroke-linejoin:miter;stroke-opacity:1" d="M 322.34,156.739 336.81,164.778 z" id="boundary" inkscape:connector-curvature="0" />
	<path style="fill:none;stroke:red;stroke-width:1px;stroke-linecap:butt;stroke-linejoin:miter;stroke-opacity:1" d="M 336.81,164.778 352.888,164.778 z" id="boundary" inkscape:connector-curvature="0" />
	<path style="fill:none;stroke:red;stroke-width:1px;stroke-linecap:butt;stroke-linejoin:miter;stroke-opacity:1" d="M 352.888,164.778 368.966,164.778 z" id="boundary" inkscape:connector-curvature="0" />
	<path style="fill:none;stroke:red;stroke-width:1px;stroke-linecap:butt;stroke-linejoin:miter;stroke-opacity:1" d="M 368.966,164.778 385.044,164.778 z" id="boundary" inkscape:connector-curvature="0" />
	<path style="fill:none;stroke:red;stroke-width:1px;stroke-linecap:butt;stroke-linejoin:miter;stroke-opacity:1" d="M 385.044,164.778 401.122,164.778 z" id="boundary" inkscape:connector-curvature="0" />
	<path style="fill:none;stroke:red;stroke-width:1px;stroke-linecap:butt;stroke-linejoin:miter;stroke-opacity:1" d="M 401.122,164.778 417.199,164.778 z" id="boundary" inkscape:connector-curvature="0" />
	<path style="fill:none;stroke:red;stroke-width:1px;stroke-linecap:butt;stroke-linejoin:miter;stroke-opacity:1" d="M 417.199,164.778 433.277,164.778 z" id="boundary" inkscape:connector-curvature="0" />
	<path style="fill:none;stroke:red;stroke-width:1px;stroke-linecap:butt;stroke-linejoin:miter;stroke-opacity:1" d="M 433.277,164.778 449.355,164.778 z" id="boundary" inkscape:connector-curvature="0" />
	<path style="fill:none;stroke:red;stroke-width:1px;stroke-linecap:butt;stroke-linejoin:miter;stroke-opacity:1" d="M 449.355,164.778 465.433,164.778 z" id="boundary" inkscape:connector-curvature="0" />
	<path style="fill:none;stroke:red;stroke-width:1px;stroke-linecap:butt;stroke-linejoin:miter;stroke-opacity:1" d="M 465.433,164.778 481.511,164.778 z" id="boundary" inkscape:connector-curvature="0" />
	<path style="fill:none;stroke:red;stroke-width:1px;stroke-linecap:butt;stroke-linejoin:miter;stroke-opacity:1" d="M 481.511,164.778 497.588,158.347 z" id="boundary" inkscape:connector-curvature="0" />
	<path style="fill:none;stroke:red;stroke-width:1px;stroke-linecap:butt;stroke-linejoin:miter;stroke-opacity:1" d="M 497.588,158.347 513.666,156.739 z" id="boundary" inkscape:connector-curvature="0" />
	<path style="fill:none;stroke:red;stroke-width:1px;stroke-linecap:butt;stroke-linejoin:miter;stroke-opacity:1" d="M 513.666,156.739 529.744,156.739 z" id="boundary" inkscape:connector-curvature="0" />
	<path style="fill:none;stroke:red;stroke-width:1px;stroke-linecap:butt;stroke-linejoin:miter;stroke-opacity:1" d="M 529.744,156.739 545.822,156.739 z" id="boundary" inkscape:connector-curvature="0" />
	<path style="fill:none;stroke:red;stroke-width:1px;stroke-linecap:butt;stroke-linejoin:miter;stroke-opacity:1" d="M 545.822,156.739 561.9,156.739 z" id="boundary" inkscape:connector-curvature="0" />
	<path style="fill:none;stroke:red;stroke-width:1px;stroke-linecap:butt;stroke-linejoin:miter;stroke-opacity:1" d="M 561.9,156.739 577.977,156.739 z" id="boundary" inkscape:connector-curvature="0" />
	<path style="fill:none;stroke:red;stroke-width:1px;stroke-linecap:butt;stroke-linejoin:miter;stroke-opacity:1" d="M 577.977,156.739 594.055,156.739 z" id="boundary" inkscape:connector-curvature="0" />
	<path style="fill:none;stroke:red;stroke-width:1px;stroke-linecap:butt;stroke-linejoin:miter;stroke-opacity:1" d="M 594.055,156.739 610.133,156.739 z" id="boundary" inkscape:connector-curvature="0" />
	<path style="fill:none;stroke:red;stroke-width:1px;stroke-linecap:butt;stroke-linejoin:miter;stroke-opacity:1" d="M 610.133,156.739 626.211,156.739 z" id="boundary" inkscape:connector-curvature="0" />
	<path style="fill:none;stroke:red;stroke-width:1px;stroke-linecap:butt;stroke-linejoin:miter;stroke-opacity:1" d="M 626.211,156.739 642.288,156.739 z" id="boundary" inkscape:connector-curvature="0" />
	<path style="fill:none;stroke:red;stroke-width:1px;stroke-linecap:butt;stroke-linejoin:miter;stroke-opacity:1" d="M 642.288,156.739 658.366,156.739 z" id="boundary" inkscape:connector-curvature="0" />
	<path style="fill:none;stroke:red;stroke-width:1px;stroke-linecap:butt;stroke-linejoin:miter;stroke-opacity:1" d="M 658.366,156.739 672.836,164.778 z" id="boundary" inkscape:connector-curvature="0" />
	<path style="fill:none;stroke:red;stroke-width:1px;stroke-linecap:butt;stroke-linejoin:miter;stroke-opacity:1" d="M 672.836,164.778 688.914,164.778 z" id="boundary" inkscape:connector-curvature="0" />
	<path style="fill:none;stroke:red;stroke-width:1px;stroke-linecap:butt;stroke-linejoin:miter;stroke-opacity:1" d="M 688.914,164.778 703.384,172.817 z" id="boundary" inkscape:connector-curvature="0" />
	<path style="fill:none;stroke:red;stroke-width:1px;stroke-linecap:butt;stroke-linejoin:miter;stroke-opacity:1" d="M 703.384,172.817 719.462,176.032 z" id="boundary" inkscape:connector-curvature="0" />
	<path style="fill:none;stroke:red;stroke-width:1px;stroke-linecap:butt;stroke-linejoin:miter;stroke-opacity:1" d="M 719.462,176.032 733.932,184.071 z" id="boundary" inkscape:connector-curvature="0" />
	<path style="fill:none;stroke:red;stroke-width:1px;stroke-linecap:butt;stroke-linejoin:miter;stroke-opacity:1" d="M 733.932,184.071 750.01,190.502 z" id="boundary" inkscape:connector-curvature="0" />
	<path style="fill:none;stroke:red;stroke-width:1px;stroke-linecap:butt;stroke-linejoin:miter;stroke-opacity:1" d="M 750.01,190.502 764.48,198.541 z" id="boundary" inkscape:connector-curvature="0" />
	<path style="fill:none;stroke:red;stroke-width:1px;stroke-linecap:butt;stroke-linejoin:miter;stroke-opacity:1" d="M 764.48,198.541 780.558,204.972 z" id="boundary" inkscape:connector-curvature="0" />
	<path style="fill:none;stroke:red;stroke-width:1px;stroke-linecap:butt;stroke-linejoin:miter;stroke-opacity:1" d="M 780.558,204.972 791.812,217.835 z" id="boundary" inkscape:connector-curvature="0" />
	<path style="fill:none;stroke:red;stroke-width:1px;stroke-linecap:butt;stroke-linejoin:miter;stroke-opacity:1" d="M 791.812,217.835 804.674,229.089 z" id="boundary" inkscape:connector-curvature="0" />
	<path style="fill:none;stroke:red;stroke-width:1px;stroke-linecap:butt;stroke-linejoin:miter;stroke-opacity:1" d="M 804.674,229.089 809.498,245.167 z" id="boundary" inkscape:connector-curvature="0" />
	<path style="fill:none;stroke:red;stroke-width:1px;stroke-linecap:butt;stroke-linejoin:miter;stroke-opacity:1" d="M 809.498,245.167 817.536,259.637 z" id="boundary" inkscape:connector-curvature="0" />
	<path style="fill:none;stroke:red;stroke-width:1px;stroke-linecap:butt;stroke-linejoin:miter;stroke-opacity:1" d="M 817.536,259.637 825.575,274.107 z" id="boundary" inkscape:connector-curvature="0" />
	<path style="fill:none;stroke:red;stroke-width:1px;stroke-linecap:butt;stroke-linejoin:miter;stroke-opacity:1" d="M 825.575,274.107 832.006,290.185 z" id="boundary" inkscape:connector-curvature="0" />
	<path style="fill:none;stroke:red;stroke-width:1px;stroke-linecap:butt;stroke-linejoin:miter;stroke-opacity:1" d="M 832.006,290.185 840.045,304.655 z" id="boundary" inkscape:connector-curvature="0" />
	<path style="fill:none;stroke:red;stroke-width:1px;stroke-linecap:butt;stroke-linejoin:miter;stroke-opacity:1" d="M 840.045,304.655 841.653,320.733 z" id="boundary" inkscape:connector-curvature="0" />
	<path style="fill:none;stroke:red;stroke-width:1px;stroke-linecap:butt;stroke-linejoin:miter;stroke-opacity:1" d="M 841.653,320.733 846.476,336.81 z" id="boundary" inkscape:connector-curvature="0" />
	<path style="fill:none;stroke:red;stroke-width:1px;stroke-linecap:butt;stroke-linejoin:miter;stroke-opacity:1" d="M 846.476,336.81 849.692,352.888 z" id="boundary" inkscape:connector-curvature="0" />
	<path style="fill:none;stroke:red;stroke-width:1px;stroke-linecap:butt;stroke-linejoin:miter;stroke-opacity:1" d="M 849.692,352.888 849.692,368.966 z" id="boundary" inkscape:connector-curvature="0" />
	<path style="fill:none;stroke:red;stroke-width:1px;stroke-linecap:butt;stroke-linejoin:miter;stroke-opacity:1" d="M 849.692,368.966 857.731,383.436 z" id="boundary" inkscape:connector-curvature="0" />
	<path style="fill:none;stroke:red;stroke-width:1px;stroke-linecap:butt;stroke-linejoin:miter;stroke-opacity:1" d="M 857.731,383.436 857.731,399.514 z" id="boundary" inkscape:connector-curvature="0" />
	<path style="fill:none;stroke:red;stroke-width:1px;stroke-linecap:butt;stroke-linejoin:miter;stroke-opacity:1" d="M 857.731,399.514 865.77,413.984 z" id="boundary" inkscape:connector-curvature="0" />
	<path style="fill:none;stroke:red;stroke-width:1px;stroke-linecap:butt;stroke-linejoin:miter;stroke-opacity:1" d="M 865.77,413.984 865.77,430.062 z" id="boundary" inkscape:connector-curvature="0" />
	<path style="fill:none;stroke:red;stroke-width:1px;stroke-linecap:butt;stroke-linejoin:miter;stroke-opacity:1" d="M 865.77,430.062 873.809,444.532 z" id="boundary" inkscape:connector-curvature="0" />
	<path style="fill:none;stroke:red;stroke-width:1px;stroke-linecap:butt;stroke-linejoin:miter;stroke-opacity:1" d="M 873.809,444.532 873.809,460.609 z" id="boundary" inkscape:connector-curvature="0" />
	<path style="fill:none;stroke:red;stroke-width:1px;stroke-linecap:butt;stroke-linejoin:miter;stroke-opacity:1" d="M 873.809,460.609 881.848,475.079 z" id="boundary" inkscape:connector-curvature="0" />
	<path style="fill:none;stroke:red;stroke-width:1px;stroke-linecap:butt;stroke-linejoin:miter;stroke-opacity:1" d="M 881.848,475.079 888.279,491.157 z" id="boundary" inkscape:connector-curvature="0" />
	<path style="fill:none;stroke:red;stroke-width:1px;stroke-linecap:butt;stroke-linejoin:miter;stroke-opacity:1" d="M 888.279,491.157 889.887,507.235 z" id="boundary" inkscape:connector-curvature="0" />
	<path style="fill:none;stroke:red;stroke-width:1px;stroke-linecap:butt;stroke-linejoin:miter;stroke-opacity:1" d="M 889.887,507.235 897.925,521.705 z" id="boundary" inkscape:connector-curvature="0" />
	<path style="fill:none;stroke:red;stroke-width:1px;stroke-linecap:butt;stroke-linejoin:miter;stroke-opacity:1" d="M 897.925,521.705 907.572,534.567 z" id="boundary" inkscape:connector-curvature="0" />
	<path style="fill:none;stroke:red;stroke-width:1px;stroke-linecap:butt;stroke-linejoin:miter;stroke-opacity:1" d="M 907.572,534.567 914.003,550.645 z" id="boundary" inkscape:connector-curvature="0" />
	<path style="fill:none;stroke:red;stroke-width:1px;stroke-linecap:butt;stroke-linejoin:miter;stroke-opacity:1" d="M 914.003,550.645 926.865,560.292 z" id="boundary" inkscape:connector-curvature="0" />
	<path style="fill:none;stroke:red;stroke-width:1px;stroke-linecap:butt;stroke-linejoin:miter;stroke-opacity:1" d="M 926.865,560.292 938.12,573.154 z" id="boundary" inkscape:connector-curvature="0" />
	<path style="fill:none;stroke:red;stroke-width:1px;stroke-linecap:butt;stroke-linejoin:miter;stroke-opacity:1" d="M 938.12,573.154 950.982,582.801 z" id="boundary" inkscape:connector-curvature="0" />
	<path style="fill:none;stroke:red;stroke-width:1px;stroke-linecap:butt;stroke-linejoin:miter;stroke-opacity:1" d="M 950.982,582.801 965.452,590.84 z" id="boundary" inkscape:connector-curvature="0" />
	<path style="fill:none;stroke:red;stroke-width:1px;stroke-linecap:butt;stroke-linejoin:miter;stroke-opacity:1" d="M 965.452,590.84 979.922,598.878 z" id="boundary" inkscape:connector-curvature="0" />
	<path style="fill:none;stroke:red;stroke-width:1px;stroke-linecap:butt;stroke-linejoin:miter;stroke-opacity:1" d="M 979.922,598.878 996,598.878 z" id="boundary" inkscape:connector-curvature="0" />
	<path style="fill:none;stroke:red;stroke-width:1px;stroke-linecap:butt;stroke-linejoin:miter;stroke-opacity:1" d="M 293.4,682.483 290.185,703.384 z" id="boundary" inkscape:connector-curvature="0" />
	<path style="fill:none;stroke:red;stroke-width:1px;stroke-linecap:butt;stroke-linejoin:miter;stroke-opacity:1" d="M 290.185,703.384 282.146,719.462 z" id="boundary" inkscape:connector-curvature="0" />
	<path style="fill:none;stroke:red;stroke-width:1px;stroke-linecap:butt;stroke-linejoin:miter;stroke-opacity:1" d="M 282.146,719.462 266.068,727.501 z" id="boundary" inkscape:connector-curvature="0" />
	<path style="fill:none;stroke:red;stroke-width:1px;stroke-linecap:butt;stroke-linejoin:miter;stroke-opacity:1" d="M 266.068,727.501 253.206,740.363 z" id="boundary" inkscape:connector-curvature="0" />
	<path style="fill:none;stroke:red;stroke-width:1px;stroke-linecap:butt;stroke-linejoin:miter;stroke-opacity:1" d="M 253.206,740.363 266.068,751.618 z" id="boundary" inkscape:connector-curvature="0" />
	<path style="fill:none;stroke:red;stroke-width:1px;stroke-linecap:butt;stroke-linejoin:miter;stroke-opacity:1" d="M 266.068,751.618 278.93,761.264 z" id="boundary" inkscape:connector-curvature="0" />
	<path style="fill:none;stroke:red;stroke-width:1px;stroke-linecap:butt;stroke-linejoin:miter;stroke-opacity:1" d="M 278.93,761.264 295.008,761.264 z" id="boundary" inkscape:connector-curvature="0" />
	<path style="fill:none;stroke:red;stroke-width:1px;stroke-linecap:butt;stroke-linejoin:miter;stroke-opacity:1" d="M 295.008,761.264 311.086,761.264 z" id="boundary" inkscape:connector-curvature="0" />
	<path style="fill:none;stroke:red;stroke-width:1px;stroke-linecap:butt;stroke-linejoin:miter;stroke-opacity:1" d="M 311.086,761.264 327.164,761.264 z" id="boundary" inkscape:connector-curvature="0" />
	<path style="fill:none;stroke:red;stroke-width:1px;stroke-linecap:butt;stroke-linejoin:miter;stroke-opacity:1" d="M 327.164,761.264 340.026,750.01 z" id="boundary" inkscape:connector-curvature="0" />
	<path style="fill:none;stroke:red;stroke-width:1px;stroke-linecap:butt;stroke-linejoin:miter;stroke-opacity:1" d="M 340.026,750.01 348.065,733.932 z" id="boundary" inkscape:connector-curvature="0" />
	<path style="fill:none;stroke:red;stroke-width:1px;stroke-linecap:butt;stroke-linejoin:miter;stroke-opacity:1" d="M 348.065,733.932 359.319,721.07 z" id="boundary" inkscape:connector-curvature="0" />
	<path style="fill:none;stroke:red;stroke-width:1px;stroke-linecap:butt;stroke-linejoin:miter;stroke-opacity:1" d="M 359.319,721.07 367.358,696.953 z" id="boundary" inkscape:connector-curvature="0" />
	<path style="fill:none;stroke:red;stroke-width:1px;stroke-linecap:butt;stroke-linejoin:miter;stroke-opacity:1" d="M 367.358,696.953 375.397,679.267 z" id="boundary" inkscape:connector-curvature="0" />
	<path style="fill:none;stroke:red;stroke-width:1px;stroke-linecap:butt;stroke-linejoin:miter;stroke-opacity:1" d="M 375.397,679.267 375.397,663.19 z" id="boundary" inkscape:connector-curvature="0" />
	<path style="fill:none;stroke:red;stroke-width:1px;stroke-linecap:butt;stroke-linejoin:miter;stroke-opacity:1" d="M 375.397,663.19 375.397,647.112 z" id="boundary" inkscape:connector-curvature="0" />
	<path style="fill:none;stroke:red;stroke-width:1px;stroke-linecap:butt;stroke-linejoin:miter;stroke-opacity:1" d="M 375.397,647.112 367.358,632.642 z" id="boundary" inkscape:connector-curvature="0" />
	<path style="fill:none;stroke:red;stroke-width:1px;stroke-linecap:butt;stroke-linejoin:miter;stroke-opacity:1" d="M 367.358,632.642 367.358,616.564 z" id="boundary" inkscape:connector-curvature="0" />
	<path style="fill:none;stroke:red;stroke-width:1px;stroke-linecap:butt;stroke-linejoin:miter;stroke-opacity:1" d="M 367.358,616.564 367.358,600.486 z" id="boundary" inkscape:connector-curvature="0" />
	<path style="fill:none;stroke:red;stroke-width:1px;stroke-linecap:butt;stroke-linejoin:miter;stroke-opacity:1" d="M 367.358,600.486 375.397,584.408 z" id="boundary" inkscape:connector-curvature="0" />
	<path style="fill:none;stroke:red;stroke-width:1px;stroke-linecap:butt;stroke-linejoin:miter;stroke-opacity:1" d="M 375.397,584.408 375.397,568.331 z" id="boundary" inkscape:connector-curvature="0" />
	<path style="fill:none;stroke:red;stroke-width:1px;stroke-linecap:butt;stroke-linejoin:miter;stroke-opacity:1" d="M 375.397,568.331 383.436,552.253 z" id="boundary" inkscape:connector-curvature="0" />
	<path style="fill:none;stroke:red;stroke-width:1px;stroke-linecap:butt;stroke-linejoin:miter;stroke-opacity:1" d="M 383.436,552.253 383.436,536.175 z" id="boundary" inkscape:connector-curvature="0" />
	<path style="fill:none;stroke:red;stroke-width:1px;stroke-linecap:butt;stroke-linejoin:miter;stroke-opacity:1" d="M 383.436,536.175 391.475,512.058 z" id="boundary" inkscape:connector-curvature="0" />
	<path style="fill:none;stroke:red;stroke-width:1px;stroke-linecap:butt;stroke-linejoin:miter;stroke-opacity:1" d="M 391.475,512.058 391.475,495.981 z" id="boundary" inkscape:connector-curvature="0" />
	<path style="fill:none;stroke:red;stroke-width:1px;stroke-linecap:butt;stroke-linejoin:miter;stroke-opacity:1" d="M 391.475,495.981 391.475,479.903 z" id="boundary" inkscape:connector-curvature="0" />
	<path style="fill:none;stroke:red;stroke-width:1px;stroke-linecap:butt;stroke-linejoin:miter;stroke-opacity:1" d="M 391.475,479.903 404.337,468.648 z" id="boundary" inkscape:connector-curvature="0" />
	<path style="fill:none;stroke:red;stroke-width:1px;stroke-linecap:butt;stroke-linejoin:miter;stroke-opacity:1" d="M 404.337,468.648 420.415,463.825 z" id="boundary" inkscape:connector-curvature="0" />
	<path style="fill:none;stroke:red;stroke-width:1px;stroke-linecap:butt;stroke-linejoin:miter;stroke-opacity:1" d="M 420.415,463.825 436.493,463.825 z" id="boundary" inkscape:connector-curvature="0" />
	<path style="fill:none;stroke:red;stroke-width:1px;stroke-linecap:butt;stroke-linejoin:miter;stroke-opacity:1" d="M 436.493,463.825 452.571,463.825 z" id="boundary" inkscape:connector-curvature="0" />
	<path style="fill:none;stroke:red;stroke-width:1px;stroke-linecap:butt;stroke-linejoin:miter;stroke-opacity:1" d="M 452.571,463.825 468.648,463.825 z" id="boundary" inkscape:connector-curvature="0" />
	<path style="fill:none;stroke:red;stroke-width:1px;stroke-linecap:butt;stroke-linejoin:miter;stroke-opacity:1" d="M 468.648,463.825 484.726,463.825 z" id="boundary" inkscape:connector-curvature="0" />
	<path style="fill:none;stroke:red;stroke-width:1px;stroke-linecap:butt;stroke-linejoin:miter;stroke-opacity:1" d="M 484.726,463.825 500.804,463.825 z" id="boundary" inkscape:connector-curvature="0" />
	<path style="fill:none;stroke:red;stroke-width:1px;stroke-linecap:butt;stroke-linejoin:miter;stroke-opacity:1" d="M 500.804,463.825 516.882,463.825 z" id="boundary" inkscape:connector-curvature="0" />
	<path style="fill:none;stroke:red;stroke-width:1px;stroke-linecap:butt;stroke-linejoin:miter;stroke-opacity:1" d="M 516.882,463.825 532.959,463.825 z" id="boundary" inkscape:connector-curvature="0" />
	<path style="fill:none;stroke:red;stroke-width:1px;stroke-linecap:butt;stroke-linejoin:miter;stroke-opacity:1" d="M 532.959,463.825 549.037,463.825 z" id="boundary" inkscape:connector-curvature="0" />
	<path style="fill:none;stroke:red;stroke-width:1px;stroke-linecap:butt;stroke-linejoin:miter;stroke-opacity:1" d="M 549.037,463.825 565.115,463.825 z" id="boundary" inkscape:connector-curvature="0" />
	<path style="fill:none;stroke:red;stroke-width:1px;stroke-linecap:butt;stroke-linejoin:miter;stroke-opacity:1" d="M 565.115,463.825 576.37,476.687 z" id="boundary" inkscape:connector-curvature="0" />
	<path style="fill:none;stroke:red;stroke-width:1px;stroke-linecap:butt;stroke-linejoin:miter;stroke-opacity:1" d="M 576.37,476.687 584.408,491.157 z" id="boundary" inkscape:connector-curvature="0" />
	<path style="fill:none;stroke:red;stroke-width:1px;stroke-linecap:butt;stroke-linejoin:miter;stroke-opacity:1" d="M 584.408,491.157 590.84,507.235 z" id="boundary" inkscape:connector-curvature="0" />
	<path style="fill:none;stroke:red;stroke-width:1px;stroke-linecap:butt;stroke-linejoin:miter;stroke-opacity:1" d="M 590.84,507.235 598.878,521.705 z" id="boundary" inkscape:connector-curvature="0" />
	<path style="fill:none;stroke:red;stroke-width:1px;stroke-linecap:butt;stroke-linejoin:miter;stroke-opacity:1" d="M 598.878,521.705 610.133,534.567 z" id="boundary" inkscape:connector-curvature="0" />
	<path style="fill:none;stroke:red;stroke-width:1px;stroke-linecap:butt;stroke-linejoin:miter;stroke-opacity:1" d="M 610.133,534.567 622.995,544.214 z" id="boundary" inkscape:connector-curvature="0" />
	<path style="fill:none;stroke:red;stroke-width:1px;stroke-linecap:butt;stroke-linejoin:miter;stroke-opacity:1" d="M 622.995,544.214 631.034,558.684 z" id="boundary" inkscape:connector-curvature="0" />
	<path style="fill:none;stroke:red;stroke-width:1px;stroke-linecap:butt;stroke-linejoin:miter;stroke-opacity:1" d="M 996,598.878 996,624.603 z" id="boundary" inkscape:connector-curvature="0" />
	<path style="fill:none;stroke:red;stroke-width:1px;stroke-linecap:butt;stroke-linejoin:miter;stroke-opacity:1" d="M 996,624.603 979.922,624.603 z" id="boundary" inkscape:connector-curvature="0" />
	<path style="fill:none;stroke:red;stroke-width:1px;stroke-linecap:butt;stroke-linejoin:miter;stroke-opacity:1" d="M 979.922,624.603 963.844,624.603 z" id="boundary" inkscape:connector-curvature="0" />
	<path style="fill:none;stroke:red;stroke-width:1px;stroke-linecap:butt;stroke-linejoin:miter;stroke-opacity:1" d="M 963.844,624.603 947.767,621.387 z" id="boundary" inkscape:connector-curvature="0" />
	<path style="fill:none;stroke:red;stroke-width:1px;stroke-linecap:butt;stroke-linejoin:miter;stroke-opacity:1" d="M 947.767,621.387 931.689,614.956 z" id="boundary" inkscape:connector-curvature="0" />
	<path style="fill:none;stroke:red;stroke-width:1px;stroke-linecap:butt;stroke-linejoin:miter;stroke-opacity:1" d="M 931.689,614.956 917.219,606.917 z" id="boundary" inkscape:connector-curvature="0" />
	<path style="fill:none;stroke:red;stroke-width:1px;stroke-linecap:butt;stroke-linejoin:miter;stroke-opacity:1" d="M 917.219,606.917 904.357,595.663 z" id="boundary" inkscape:connector-curvature="0" />
	<path style="fill:none;stroke:red;stroke-width:1px;stroke-linecap:butt;stroke-linejoin:miter;stroke-opacity:1" d="M 904.357,595.663 893.102,582.801 z" id="boundary" inkscape:connector-curvature="0" />
	<path style="fill:none;stroke:red;stroke-width:1px;stroke-linecap:butt;stroke-linejoin:miter;stroke-opacity:1" d="M 893.102,582.801 880.24,571.546 z" id="boundary" inkscape:connector-curvature="0" />
	<path style="fill:none;stroke:red;stroke-width:1px;stroke-linecap:butt;stroke-linejoin:miter;stroke-opacity:1" d="M 880.24,571.546 873.809,555.468 z" id="boundary" inkscape:connector-curvature="0" />
	<path style="fill:none;stroke:red;stroke-width:1px;stroke-linecap:butt;stroke-linejoin:miter;stroke-opacity:1" d="M 873.809,555.468 860.947,544.214 z" id="boundary" inkscape:connector-curvature="0" />
	<path style="fill:none;stroke:red;stroke-width:1px;stroke-linecap:butt;stroke-linejoin:miter;stroke-opacity:1" d="M 860.947,544.214 856.123,528.136 z" id="boundary" inkscape:connector-curvature="0" />
	<path style="fill:none;stroke:red;stroke-width:1px;stroke-linecap:butt;stroke-linejoin:miter;stroke-opacity:1" d="M 856.123,528.136 848.084,513.666 z" id="boundary" inkscape:connector-curvature="0" />
	<path style="fill:none;stroke:red;stroke-width:1px;stroke-linecap:butt;stroke-linejoin:miter;stroke-opacity:1" d="M 848.084,513.666 840.045,499.196 z" id="boundary" inkscape:connector-curvature="0" />
	<path style="fill:none;stroke:red;stroke-width:1px;stroke-linecap:butt;stroke-linejoin:miter;stroke-opacity:1" d="M 840.045,499.196 832.006,484.726 z" id="boundary" inkscape:connector-curvature="0" />
	<path style="fill:none;stroke:red;stroke-width:1px;stroke-linecap:butt;stroke-linejoin:miter;stroke-opacity:1" d="M 832.006,484.726 832.006,468.648 z" id="boundary" inkscape:connector-curvature="0" />
	<path style="fill:none;stroke:red;stroke-width:1px;stroke-linecap:butt;stroke-linejoin:miter;stroke-opacity:1" d="M 832.006,468.648 823.968,454.178 z" id="boundary" inkscape:connector-curvature="0" />
	<path style="fill:none;stroke:red;stroke-width:1px;stroke-linecap:butt;stroke-linejoin:miter;stroke-opacity:1" d="M 823.968,454.178 819.144,438.1 z" id="boundary" inkscape:connector-curvature="0" />
	<path style="fill:none;stroke:red;stroke-width:1px;stroke-linecap:butt;stroke-linejoin:miter;stroke-opacity:1" d="M 819.144,438.1 815.929,422.023 z" id="boundary" inkscape:connector-curvature="0" />
	<path style="fill:none;stroke:red;stroke-width:1px;stroke-linecap:butt;stroke-linejoin:miter;stroke-opacity:1" d="M 815.929,422.023 807.89,407.553 z" id="boundary" inkscape:connector-curvature="0" />
	<path style="fill:none;stroke:red;stroke-width:1px;stroke-linecap:butt;stroke-linejoin:miter;stroke-opacity:1" d="M 807.89,407.553 793.42,415.592 z" id="boundary" inkscape:connector-curvature="0" />
	<path style="fill:none;stroke:red;stroke-width:1px;stroke-linecap:butt;stroke-linejoin:miter;stroke-opacity:1" d="M 793.42,415.592 793.42,431.669 z" id="boundary" inkscape:connector-curvature="0" />
	<path style="fill:none;stroke:red;stroke-width:1px;stroke-linecap:butt;stroke-linejoin:miter;stroke-opacity:1" d="M 793.42,431.669 793.42,447.747 z" id="boundary" inkscape:connector-curvature="0" />
	<path style="fill:none;stroke:red;stroke-width:1px;stroke-linecap:butt;stroke-linejoin:miter;stroke-opacity:1" d="M 793.42,447.747 793.42,463.825 z" id="boundary" inkscape:connector-curvature="0" />
	<path style="fill:none;stroke:red;stroke-width:1px;stroke-linecap:butt;stroke-linejoin:miter;stroke-opacity:1" d="M 793.42,463.825 801.459,478.295 z" id="boundary" inkscape:connector-curvature="0" />
	<path style="fill:none;stroke:red;stroke-width:1px;stroke-linecap:butt;stroke-linejoin:miter;stroke-opacity:1" d="M 801.459,478.295 801.459,494.373 z" id="boundary" inkscape:connector-curvature="0" />
	<path style="fill:none;stroke:red;stroke-width:1px;stroke-linecap:butt;stroke-linejoin:miter;stroke-opacity:1" d="M 801.459,494.373 801.459,510.451 z" id="boundary" inkscape:connector-curvature="0" />
	<path style="fill:none;stroke:red;stroke-width:1px;stroke-linecap:butt;stroke-linejoin:miter;stroke-opacity:1" d="M 801.459,510.451 801.459,526.528 z" id="boundary" inkscape:connector-curvature="0" />
	<path style="fill:none;stroke:red;stroke-width:1px;stroke-linecap:butt;stroke-linejoin:miter;stroke-opacity:1" d="M 801.459,526.528 809.498,540.998 z" id="boundary" inkscape:connector-curvature="0" />
	<path style="fill:none;stroke:red;stroke-width:1px;stroke-linecap:butt;stroke-linejoin:miter;stroke-opacity:1" d="M 809.498,540.998 817.536,555.468 z" id="boundary" inkscape:connector-curvature="0" />
	<path style="fill:none;stroke:red;stroke-width:1px;stroke-linecap:butt;stroke-linejoin:miter;stroke-opacity:1" d="M 817.536,555.468 823.968,571.546 z" id="boundary" inkscape:connector-curvature="0" />
	<path style="fill:none;stroke:red;stroke-width:1px;stroke-linecap:butt;stroke-linejoin:miter;stroke-opacity:1" d="M 823.968,571.546 825.575,587.624 z" id="boundary" inkscape:connector-curvature="0" />
	<path style="fill:none;stroke:red;stroke-width:1px;stroke-linecap:butt;stroke-linejoin:miter;stroke-opacity:1" d="M 825.575,587.624 825.575,603.702 z" id="boundary" inkscape:connector-curvature="0" />
	<path style="fill:none;stroke:red;stroke-width:1px;stroke-linecap:butt;stroke-linejoin:miter;stroke-opacity:1" d="M 825.575,603.702 825.575,619.78 z" id="boundary" inkscape:connector-curvature="0" />
	<path style="fill:none;stroke:red;stroke-width:1px;stroke-linecap:butt;stroke-linejoin:miter;stroke-opacity:1" d="M 825.575,619.78 817.536,640.681 z" id="boundary" inkscape:connector-curvature="0" />
	<path style="fill:none;stroke:red;stroke-width:1px;stroke-linecap:butt;stroke-linejoin:miter;stroke-opacity:1" d="M 817.536,640.681 817.536,656.759 z" id="boundary" inkscape:connector-curvature="0" />
	<path style="fill:none;stroke:red;stroke-width:1px;stroke-linecap:butt;stroke-linejoin:miter;stroke-opacity:1" d="M 817.536,656.759 817.536,672.836 z" id="boundary" inkscape:connector-curvature="0" />
	<path style="fill:none;stroke:red;stroke-width:1px;stroke-linecap:butt;stroke-linejoin:miter;stroke-opacity:1" d="M 817.536,672.836 809.498,688.914 z" id="boundary" inkscape:connector-curvature="0" />
	<path style="fill:none;stroke:red;stroke-width:1px;stroke-linecap:butt;stroke-linejoin:miter;stroke-opacity:1" d="M 809.498,688.914 801.459,704.992 z" id="boundary" inkscape:connector-curvature="0" />
	<path style="fill:none;stroke:red;stroke-width:1px;stroke-linecap:butt;stroke-linejoin:miter;stroke-opacity:1" d="M 801.459,704.992 791.812,721.07 z" id="boundary" inkscape:connector-curvature="0" />
	<path style="fill:none;stroke:red;stroke-width:1px;stroke-linecap:butt;stroke-linejoin:miter;stroke-opacity:1" d="M 791.812,721.07 775.734,721.07 z" id="boundary" inkscape:connector-curvature="0" />
	<path style="fill:none;stroke:red;stroke-width:1px;stroke-linecap:butt;stroke-linejoin:miter;stroke-opacity:1" d="M 775.734,721.07 759.656,721.07 z" id="boundary" inkscape:connector-curvature="0" />
	<path style="fill:none;stroke:red;stroke-width:1px;stroke-linecap:butt;stroke-linejoin:miter;stroke-opacity:1" d="M 759.656,721.07 743.579,714.639 z" id="boundary" inkscape:connector-curvature="0" />
	<path style="fill:none;stroke:red;stroke-width:1px;stroke-linecap:butt;stroke-linejoin:miter;stroke-opacity:1" d="M 743.579,714.639 735.54,700.169 z" id="boundary" inkscape:connector-curvature="0" />
	<path style="fill:none;stroke:red;stroke-width:1px;stroke-linecap:butt;stroke-linejoin:miter;stroke-opacity:1" d="M 735.54,700.169 748.402,687.306 z" id="boundary" inkscape:connector-curvature="0" />
	<path style="fill:none;stroke:red;stroke-width:1px;stroke-linecap:butt;stroke-linejoin:miter;stroke-opacity:1" d="M 631.034,558.684 624.603,586.016 z" id="boundary" inkscape:connector-curvature="0" />
	<path style="fill:none;stroke:red;stroke-width:1px;stroke-linecap:butt;stroke-linejoin:miter;stroke-opacity:1" d="M 624.603,586.016 616.564,602.094 z" id="boundary" inkscape:connector-curvature="0" />
	<path style="fill:none;stroke:red;stroke-width:1px;stroke-linecap:butt;stroke-linejoin:miter;stroke-opacity:1" d="M 616.564,602.094 608.525,618.172 z" id="boundary" inkscape:connector-curvature="0" />
	<path style="fill:none;stroke:red;stroke-width:1px;stroke-linecap:butt;stroke-linejoin:miter;stroke-opacity:1" d="M 608.525,618.172 595.663,631.034 z" id="boundary" inkscape:connector-curvature="0" />
	<path style="fill:none;stroke:red;stroke-width:1px;stroke-linecap:butt;stroke-linejoin:miter;stroke-opacity:1" d="M 595.663,631.034 579.585,631.034 z" id="boundary" inkscape:connector-curvature="0" />
	<path style="fill:none;stroke:red;stroke-width:1px;stroke-linecap:butt;stroke-linejoin:miter;stroke-opacity:1" d="M 579.585,631.034 563.507,639.073 z" id="boundary" inkscape:connector-curvature="0" />
	<path style="fill:none;stroke:red;stroke-width:1px;stroke-linecap:butt;stroke-linejoin:miter;stroke-opacity:1" d="M 563.507,639.073 550.645,651.935 z" id="boundary" inkscape:connector-curvature="0" />
	<path style="fill:none;stroke:red;stroke-width:1px;stroke-linecap:butt;stroke-linejoin:miter;stroke-opacity:1" d="M 550.645,651.935 558.684,666.405 z" id="boundary" inkscape:connector-curvature="0" />
	<path style="fill:none;stroke:red;stroke-width:1px;stroke-linecap:butt;stroke-linejoin:miter;stroke-opacity:1" d="M 558.684,666.405 574.762,672.836 z" id="boundary" inkscape:connector-curvature="0" />
	<path style="fill:none;stroke:red;stroke-width:1px;stroke-linecap:butt;stroke-linejoin:miter;stroke-opacity:1" d="M 574.762,672.836 590.84,672.836 z" id="boundary" inkscape:connector-curvature="0" />
	<path style="fill:none;stroke:red;stroke-width:1px;stroke-linecap:butt;stroke-linejoin:miter;stroke-opacity:1" d="M 590.84,672.836 606.917,672.836 z" id="boundary" inkscape:connector-curvature="0" />
	<path style="fill:none;stroke:red;stroke-width:1px;stroke-linecap:butt;stroke-linejoin:miter;stroke-opacity:1" d="M 606.917,672.836 622.995,672.836 z" id="boundary" inkscape:connector-curvature="0" />
	<path style="fill:none;stroke:red;stroke-width:1px;stroke-linecap:butt;stroke-linejoin:miter;stroke-opacity:1" d="M 622.995,672.836 639.073,668.013 z" id="boundary" inkscape:connector-curvature="0" />
	<path style="fill:none;stroke:red;stroke-width:1px;stroke-linecap:butt;stroke-linejoin:miter;stroke-opacity:1" d="M 639.073,668.013 647.112,651.935 z" id="boundary" inkscape:connector-curvature="0" />
	<path style="fill:none;stroke:red;stroke-width:1px;stroke-linecap:butt;stroke-linejoin:miter;stroke-opacity:1" d="M 647.112,651.935 648.72,632.642 z" id="boundary" inkscape:connector-curvature="0" />
	<path style="fill:none;stroke:red;stroke-width:1px;stroke-linecap:butt;stroke-linejoin:miter;stroke-opacity:1" d="M 648.72,632.642 656.759,616.564 z" id="boundary" inkscape:connector-curvature="0" />
	<path style="fill:none;stroke:red;stroke-width:1px;stroke-linecap:butt;stroke-linejoin:miter;stroke-opacity:1" d="M 656.759,616.564 664.797,600.486 z" id="boundary" inkscape:connector-curvature="0" />
	<path style="fill:none;stroke:red;stroke-width:1px;stroke-linecap:butt;stroke-linejoin:miter;stroke-opacity:1" d="M 664.797,600.486 672.836,584.408 z" id="boundary" inkscape:connector-curvature="0" />
	<path style="fill:none;stroke:red;stroke-width:1px;stroke-linecap:butt;stroke-linejoin:miter;stroke-opacity:1" d="M 672.836,584.408 680.875,568.331 z" id="boundary" inkscape:connector-curvature="0" />
	<path style="fill:none;stroke:red;stroke-width:1px;stroke-linecap:butt;stroke-linejoin:miter;stroke-opacity:1" d="M 680.875,568.331 688.914,552.253 z" id="boundary" inkscape:connector-curvature="0" />
	<path style="fill:none;stroke:red;stroke-width:1px;stroke-linecap:butt;stroke-linejoin:miter;stroke-opacity:1" d="M 688.914,552.253 688.914,536.175 z" id="boundary" inkscape:connector-curvature="0" />
	<path style="fill:none;stroke:red;stroke-width:1px;stroke-linecap:butt;stroke-linejoin:miter;stroke-opacity:1" d="M 688.914,536.175 684.091,520.097 z" id="boundary" inkscape:connector-curvature="0" />
	<path style="fill:none;stroke:red;stroke-width:1px;stroke-linecap:butt;stroke-linejoin:miter;stroke-opacity:1" d="M 684.091,520.097 680.875,504.019 z" id="boundary" inkscape:connector-curvature="0" />
	<path style="fill:none;stroke:red;stroke-width:1px;stroke-linecap:butt;stroke-linejoin:miter;stroke-opacity:1" d="M 680.875,504.019 696.953,507.235 z" id="boundary" inkscape:connector-curvature="0" />
	<path style="fill:none;stroke:red;stroke-width:1px;stroke-linecap:butt;stroke-linejoin:miter;stroke-opacity:1" d="M 696.953,507.235 703.384,523.313 z" id="boundary" inkscape:connector-curvature="0" />
	<path style="fill:none;stroke:red;stroke-width:1px;stroke-linecap:butt;stroke-linejoin:miter;stroke-opacity:1" d="M 703.384,523.313 711.423,537.783 z" id="boundary" inkscape:connector-curvature="0" />
	<path style="fill:none;stroke:red;stroke-width:1px;stroke-linecap:butt;stroke-linejoin:miter;stroke-opacity:1" d="M 711.423,537.783 722.677,550.645 z" id="boundary" inkscape:connector-curvature="0" />
	<path style="fill:none;stroke:red;stroke-width:1px;stroke-linecap:butt;stroke-linejoin:miter;stroke-opacity:1" d="M 722.677,550.645 735.54,560.292 z" id="boundary" inkscape:connector-curvature="0" />
	<path style="fill:none;stroke:red;stroke-width:1px;stroke-linecap:butt;stroke-linejoin:miter;stroke-opacity:1" d="M 735.54,560.292 745.186,573.154 z" id="boundary" inkscape:connector-curvature="0" />
	<path style="fill:none;stroke:red;stroke-width:1px;stroke-linecap:butt;stroke-linejoin:miter;stroke-opacity:1" d="M 745.186,573.154 758.049,584.408 z" id="boundary" inkscape:connector-curvature="0" />
	<path style="fill:none;stroke:red;stroke-width:1px;stroke-linecap:butt;stroke-linejoin:miter;stroke-opacity:1" d="M 758.049,584.408 767.695,597.271 z" id="boundary" inkscape:connector-curvature="0" />
	<path style="fill:none;stroke:red;stroke-width:1px;stroke-linecap:butt;stroke-linejoin:miter;stroke-opacity:1" d="M 767.695,597.271 759.656,611.741 z" id="boundary" inkscape:connector-curvature="0" />
	<path style="fill:none;stroke:red;stroke-width:1px;stroke-linecap:butt;stroke-linejoin:miter;stroke-opacity:1" d="M 759.656,611.741 759.656,627.818 z" id="boundary" inkscape:connector-curvature="0" />
	<path style="fill:none;stroke:red;stroke-width:1px;stroke-linecap:butt;stroke-linejoin:miter;stroke-opacity:1" d="M 759.656,627.818 767.695,642.288 z" id="boundary" inkscape:connector-curvature="0" />
	<path style="fill:none;stroke:red;stroke-width:1px;stroke-linecap:butt;stroke-linejoin:miter;stroke-opacity:1" d="M 767.695,642.288 759.656,659.974 z" id="boundary" inkscape:connector-curvature="0" />
	<path style="fill:none;stroke:red;stroke-width:1px;stroke-linecap:butt;stroke-linejoin:miter;stroke-opacity:1" d="M 759.656,659.974 748.402,687.306 z" id="boundary" inkscape:connector-curvature="0" />
	<circle cx="4" cy="16.8622" r="4" fill="#0" id="circle0"/>
	<circle cx="12.0389" cy="121.368" r="4" fill="#0" id="circle1"/>
	<circle cx="12.0389" cy="137.446" r="4" fill="#0" id="circle2"/>
	<circle cx="12.0389" cy="153.524" r="4" fill="#0" id="circle3"/>
	<circle cx="12.0389" cy="169.601" r="4" fill="#0" id="circle4"/>
	<circle cx="16.8622" cy="4" r="4" fill="#0" id="circle5"/>
	<circle cx="16.8622" cy="28.1167" r="4" fill="#0" id="circle6"/>
	<circle cx="20.0778" cy="105.29" r="4" fill="#0" id="circle7"/>
	<circle cx="20.0778" cy="184.071" r="4" fill="#0" id="circle8"/>
	<circle cx="20.0778" cy="200.149" r="4" fill="#0" id="circle9"/>
	<circle cx="20.0778" cy="216.227" r="4" fill="#0" id="circle10"/>
	<circle cx="28.1167" cy="40.9789" r="4" fill="#0" id="circle11"/>
	<circle cx="28.1167" cy="57.0567" r="4" fill="#0" id="circle12"/>
	<circle cx="28.1167" cy="73.1345" r="4" fill="#0" id="circle13"/>
	<circle cx="28.1167" cy="89.2123" r="4" fill="#0" id="circle14"/>
	<circle cx="28.1167" cy="230.697" r="4" fill="#0" id="circle15"/>
	<circle cx="31.3323" cy="12.0389" r="4" fill="#0" id="circle16"/>
	<circle cx="42.5867" cy="238.736" r="4" fill="#0" id="circle17"/>
	<circle cx="45.8023" cy="20.0778" r="4" fill="#0" id="circle18"/>
	<circle cx="53.8412" cy="251.598" r="4" fill="#0" id="circle19"/>
	<circle cx="61.8801" cy="24.9011" r="4" fill="#0" id="circle20"/>
	<circle cx="69.919" cy="254.814" r="4" fill="#0" id="circle21"/>
	<circle cx="76.3501" cy="32.94" r="4" fill="#0" id="circle22"/>
	<circle cx="85.9968" cy="254.814" r="4" fill="#0" id="circle23"/>
	<circle cx="92.4279" cy="36.1556" r="4" fill="#0" id="circle24"/>
	<circle cx="102.075" cy="246.775" r="4" fill="#0" id="circle25"/>
	<circle cx="106.898" cy="44.1945" r="4" fill="#0" id="circle26"/>
	<circle cx="118.152" cy="249.99" r="4" fill="#0" id="circle27"/>
	<circle cx="122.976" cy="44.1945" r="4" fill="#0" id="circle28"/>
	<circle cx="124.583" cy="266.068" r="4" fill="#0" id="circle29"/>
	<circle cx="132.622" cy="280.538" r="4" fill="#0" id="circle30"/>
	<circle cx="134.23" cy="31.3323" r="4" fill="#0" id="circle31"/>
	<circle cx="140.661" cy="295.008" r="4" fill="#0" id="circle32"/>
	<circle cx="147.092" cy="21.6856" r="4" fill="#0" id="circle33"/>
	<circle cx="150.308" cy="307.87" r="4" fill="#0" id="circle34"/>
	<circle cx="156.739" cy="323.948" r="4" fill="#0" id="circle35"/>
	<circle cx="156.739" cy="340.026" r="4" fill="#0" id="circle36"/>
	<circle cx="156.739" cy="356.104" r="4" fill="#0" id="circle37"/>
	<circle cx="161.562" cy="29.7245" r="4" fill="#0" id="circle38"/>
	<circle cx="164.778" cy="370.574" r="4" fill="#0" id="circle39"/>
	<circle cx="172.817" cy="385.044" r="4" fill="#0" id="circle40"/>
	<circle cx="174.425" cy="40.9789" r="4" fill="#0" id="circle41"/>
	<circle cx="184.071" cy="397.906" r="4" fill="#0" id="circle42"/>
	<circle cx="185.679" cy="53.8412" r="4" fill="#0" id="circle43"/>
	<circle cx="196.934" cy="407.553" r="4" fill="#0" id="circle44"/>
	<circle cx="198.541" cy="65.0956" r="4" fill="#0" id="circle45"/>
	<circle cx="206.58" cy="79.5656" r="4" fill="#0" id="circle46"/>
	<circle cx="206.58" cy="420.415" r="4" fill="#0" id="circle47"/>
	<circle cx="213.011" cy="436.493" r="4" fill="#0" id="circle48"/>
	<circle cx="216.227" cy="92.4279" r="4" fill="#0" id="circle49"/>
	<circle cx="221.05" cy="450.963" r="4" fill="#0" id="circle50"/>
	<circle cx="229.089" cy="103.682" r="4" fill="#0" id="circle51"/>
	<circle cx="233.912" cy="462.217" r="4" fill="#0" id="circle52"/>
	<circle cx="235.52" cy="119.76" r="4" fill="#0" id="circle53"/>
	<circle cx="243.559" cy="134.23" r="4" fill="#0" id="circle54"/>
	<circle cx="246.775" cy="471.864" r="4" fill="#0" id="circle55"/>
	<circle cx="253.206" cy="740.363" r="4" fill="#0" id="circle56"/>
	<circle cx="259.637" cy="140.661" r="4" fill="#0" id="circle57"/>
	<circle cx="261.245" cy="479.903" r="4" fill="#0" id="circle58"/>
	<circle cx="266.068" cy="727.501" r="4" fill="#0" id="circle59"/>
	<circle cx="266.068" cy="751.618" r="4" fill="#0" id="circle60"/>
	<circle cx="269.284" cy="494.373" r="4" fill="#0" id="circle61"/>
	<circle cx="272.499" cy="510.451" r="4" fill="#0" id="circle62"/>
	<circle cx="275.715" cy="140.661" r="4" fill="#0" id="circle63"/>
	<circle cx="277.323" cy="526.528" r="4" fill="#0" id="circle64"/>
	<circle cx="278.93" cy="761.264" r="4" fill="#0" id="circle65"/>
	<circle cx="282.146" cy="719.462" r="4" fill="#0" id="circle66"/>
	<circle cx="285.361" cy="540.998" r="4" fill="#0" id="circle67"/>
	<circle cx="285.361" cy="651.935" r="4" fill="#0" id="circle68"/>
	<circle cx="286.969" cy="557.076" r="4" fill="#0" id="circle69"/>
	<circle cx="290.185" cy="703.384" r="4" fill="#0" id="circle70"/>
	<circle cx="291.793" cy="142.269" r="4" fill="#0" id="circle71"/>
	<circle cx="293.4" cy="573.154" r="4" fill="#0" id="circle72"/>
	<circle cx="293.4" cy="589.232" r="4" fill="#0" id="circle73"/>
	<circle cx="293.4" cy="605.31" r="4" fill="#0" id="circle74"/>
	<circle cx="293.4" cy="621.387" r="4" fill="#0" id="circle75"/>
	<circle cx="293.4" cy="637.465" r="4" fill="#0" id="circle76"/>
	<circle cx="293.4" cy="666.405" r="4" fill="#0" id="circle77"/>
	<circle cx="293.4" cy="682.483" r="4" fill="#0" id="circle78"/>
	<circle cx="295.008" cy="761.264" r="4" fill="#0" id="circle79"/>
	<circle cx="306.263" cy="150.308" r="4" fill="#0" id="circle80"/>
	<circle cx="311.086" cy="761.264" r="4" fill="#0" id="circle81"/>
	<circle cx="322.34" cy="156.739" r="4" fill="#0" id="circle82"/>
	<circle cx="327.164" cy="761.264" r="4" fill="#0" id="circle83"/>
	<circle cx="336.81" cy="164.778" r="4" fill="#0" id="circle84"/>
	<circle cx="340.026" cy="750.01" r="4" fill="#0" id="circle85"/>
	<circle cx="348.065" cy="733.932" r="4" fill="#0" id="circle86"/>
	<circle cx="352.888" cy="164.778" r="4" fill="#0" id="circle87"/>
	<circle cx="359.319" cy="721.07" r="4" fill="#0" id="circle88"/>
	<circle cx="367.358" cy="600.486" r="4" fill="#0" id="circle89"/>
	<circle cx="367.358" cy="616.564" r="4" fill="#0" id="circle90"/>
	<circle cx="367.358" cy="632.642" r="4" fill="#0" id="circle91"/>
	<circle cx="367.358" cy="696.953" r="4" fill="#0" id="circle92"/>
	<circle cx="368.966" cy="164.778" r="4" fill="#0" id="circle93"/>
	<circle cx="375.397" cy="568.331" r="4" fill="#0" id="circle94"/>
	<circle cx="375.397" cy="584.408" r="4" fill="#0" id="circle95"/>
	<circle cx="375.397" cy="647.112" r="4" fill="#0" id="circle96"/>
	<circle cx="375.397" cy="663.19" r="4" fill="#0" id="circle97"/>
	<circle cx="375.397" cy="679.267" r="4" fill="#0" id="circle98"/>
	<circle cx="383.436" cy="536.175" r="4" fill="#0" id="circle99"/>
	<circle cx="383.436" cy="552.253" r="4" fill="#0" id="circle100"/>
	<circle cx="385.044" cy="164.778" r="4" fill="#0" id="circle101"/>
	<circle cx="391.475" cy="479.903" r="4" fill="#0" id="circle102"/>
	<circle cx="391.475" cy="495.981" r="4" fill="#0" id="circle103"/>
	<circle cx="391.475" cy="512.058" r="4" fill="#0" id="circle104"/>
	<circle cx="401.122" cy="164.778" r="4" fill="#0" id="circle105"/>
	<circle cx="404.337" cy="468.648" r="4" fill="#0" id="circle106"/>
	<circle cx="417.199" cy="164.778" r="4" fill="#0" id="circle107"/>
	<circle cx="420.415" cy="463.825" r="4" fill="#0" id="circle108"/>
	<circle cx="433.277" cy="164.778" r="4" fill="#0" id="circle109"/>
	<circle cx="436.493" cy="463.825" r="4" fill="#0" id="circle110"/>
	<circle cx="449.355" cy="164.778" r="4" fill="#0" id="circle111"/>
	<circle cx="452.571" cy="463.825" r="4" fill="#0" id="circle112"/>
	<circle cx="465.433" cy="164.778" r="4" fill="#0" id="circle113"/>
	<circle cx="468.648" cy="463.825" r="4" fill="#0" id="circle114"/>
	<circle cx="481.511" cy="164.778" r="4" fill="#0" id="circle115"/>
	<circle cx="484.726" cy="463.825" r="4" fill="#0" id="circle116"/>
	<circle cx="497.588" cy="158.347" r="4" fill="#0" id="circle117"/>
	<circle cx="500.804" cy="463.825" r="4" fill="#0" id="circle118"/>
	<circle cx="513.666" cy="156.739" r="4" fill="#0" id="circle119"/>
	<circle cx="516.882" cy="463.825" r="4" fill="#0" id="circle120"/>
	<circle cx="529.744" cy="156.739" r="4" fill="#0" id="circle121"/>
	<circle cx="532.959" cy="463.825" r="4" fill="#0" id="circle122"/>
	<circle cx="545.822" cy="156.739" r="4" fill="#0" id="circle123"/>
	<circle cx="549.037" cy="463.825" r="4" fill="#0" id="circle124"/>
	<circle cx="550.645" cy="651.935" r="4" fill="#0" id="circle125"/>
	<circle cx="558.684" cy="666.405" r="4" fill="#0" id="circle126"/>
	<circle cx="561.9" cy="156.739" r="4" fill="#0" id="circle127"/>
	<circle cx="563.507" cy="639.073" r="4" fill="#0" id="circle128"/>
	<circle cx="565.115" cy="463.825" r="4" fill="#0" id="circle129"/>
	<circle cx="574.762" cy="672.836" r="4" fill="#0" id="circle130"/>
	<circle cx="576.37" cy="476.687" r="4" fill="#0" id="circle131"/>
	<circle cx="577.977" cy="156.739" r="4" fill="#0" id="circle132"/>
	<circle cx="579.585" cy="631.034" r="4" fill="#0" id="circle133"/>
	<circle cx="584.408" cy="491.157" r="4" fill="#0" id="circle134"/>
	<circle cx="590.84" cy="507.235" r="4" fill="#0" id="circle135"/>
	<circle cx="590.84" cy="672.836" r="4" fill="#0" id="circle136"/>
	<circle cx="594.055" cy="156.739" r="4" fill="#0" id="circle137"/>
	<circle cx="595.663" cy="631.034" r="4" fill="#0" id="circle138"/>
	<circle cx="598.878" cy="521.705" r="4" fill="#0" id="circle139"/>
	<circle cx="606.917" cy="672.836" r="4" fill="#0" id="circle140"/>
	<circle cx="608.525" cy="618.172" r="4" fill="#0" id="circle141"/>
	<circle cx="610.133" cy="156.739" r="4" fill="#0" id="circle142"/>
	<circle cx="610.133" cy="534.567" r="4" fill="#0" id="circle143"/>
	<circle cx="616.564" cy="602.094" r="4" fill="#0" id="circle144"/>
	<circle cx="622.995" cy="544.214" r="4" fill="#0" id="circle145"/>
	<circle cx="622.995" cy="672.836" r="4" fill="#0" id="circle146"/>
	<circle cx="624.603" cy="586.016" r="4" fill="#0" id="circle147"/>
	<circle cx="626.211" cy="156.739" r="4" fill="#0" id="circle148"/>
	<circle cx="631.034" cy="558.684" r="4" fill="#0" id="circle149"/>
	<circle cx="639.073" cy="668.013" r="4" fill="#0" id="circle150"/>
	<circle cx="642.288" cy="156.739" r="4" fill="#0" id="circle151"/>
	<circle cx="647.112" cy="651.935" r="4" fill="#0" id="circle152"/>
	<circle cx="648.72" cy="632.642" r="4" fill="#0" id="circle153"/>
	<circle cx="656.759" cy="616.564" r="4" fill="#0" id="circle154"/>
	<circle cx="658.366" cy="156.739" r="4" fill="#0" id="circle155"/>
	<circle cx="664.797" cy="600.486" r="4" fill="#0" id="circle156"/>
	<circle cx="672.836" cy="164.778" r="4" fill="#0" id="circle157"/>
	<circle cx="672.836" cy="584.408" r="4" fill="#0" id="circle158"/>
	<circle cx="680.875" cy="504.019" r="4" fill="#0" id="circle159"/>
	<circle cx="680.875" cy="568.331" r="4" fill="#0" id="circle160"/>
	<circle cx="684.091" cy="520.097" r="4" fill="#0" id="circle161"/>
	<circle cx="688.914" cy="164.778" r="4" fill="#0" id="circle162"/>
	<circle cx="688.914" cy="536.175" r="4" fill="#0" id="circle163"/>
	<circle cx="688.914" cy="552.253" r="4" fill="#0" id="circle164"/>
	<circle cx="696.953" cy="507.235" r="4" fill="#0" id="circle165"/>
	<circle cx="703.384" cy="172.817" r="4" fill="#0" id="circle166"/>
	<circle cx="703.384" cy="523.313" r="4" fill="#0" id="circle167"/>
	<circle cx="711.423" cy="537.783" r="4" fill="#0" id="circle168"/>
	<circle cx="719.462" cy="176.032" r="4" fill="#0" id="circle169"/>
	<circle cx="722.677" cy="550.645" r="4" fill="#0" id="circle170"/>
	<circle cx="733.932" cy="184.071" r="4" fill="#0" id="circle171"/>
	<circle cx="735.54" cy="560.292" r="4" fill="#0" id="circle172"/>
	<circle cx="735.54" cy="700.169" r="4" fill="#0" id="circle173"/>
	<circle cx="743.579" cy="714.639" r="4" fill="#0" id="circle174"/>
	<circle cx="745.186" cy="573.154" r="4" fill="#0" id="circle175"/>
	<circle cx="748.402" cy="687.306" r="4" fill="#0" id="circle176"/>
	<circle cx="750.01" cy="190.502" r="4" fill="#0" id="circle177"/>
	<circle cx="758.049" cy="584.408" r="4" fill="#0" id="circle178"/>
	<circle cx="759.656" cy="611.741" r="4" fill="#0" id="circle179"/>
	<circle cx="759.656" cy="627.818" r="4" fill="#0" id="circle180"/>
	<circle cx="759.656" cy="659.974" r="4" fill="#0" id="circle181"/>
	<circle cx="759.656" cy="721.07" r="4" fill="#0" id="circle182"/>
	<circle cx="764.48" cy="198.541" r="4" fill="#0" id="circle183"/>
	<circle cx="767.695" cy="597.271" r="4" fill="#0" id="circle184"/>
	<circle cx="767.695" cy="642.288" r="4" fill="#0" id="circle185"/>
	<circle cx="775.734" cy="721.07" r="4" fill="#0" id="circle186"/>
	<circle cx="780.558" cy="204.972" r="4" fill="#0" id="circle187"/>
	<circle cx="791.812" cy="217.835" r="4" fill="#0" id="circle188"/>
	<circle cx="791.812" cy="721.07" r="4" fill="#0" id="circle189"/>
	<circle cx="793.42" cy="415.592" r="4" fill="#0" id="circle190"/>
	<circle cx="793.42" cy="431.669" r="4" fill="#0" id="circle191"/>
	<circle cx="793.42" cy="447.747" r="4" fill="#0" id="circle192"/>
	<circle cx="793.42" cy="463.825" r="4" fill="#0" id="circle193"/>
	<circle cx="801.459" cy="478.295" r="4" fill="#0" id="circle194"/>
	<circle cx="801.459" cy="494.373" r="4" fill="#0" id="circle195"/>
	<circle cx="801.459" cy="510.451" r="4" fill="#0" id="circle196"/>
	<circle cx="801.459" cy="526.528" r="4" fill="#0" id="circle197"/>
	<circle cx="801.459" cy="704.992" r="4" fill="#0" id="circle198"/>
	<circle cx="804.674" cy="229.089" r="4" fill="#0" id="circle199"/>
	<circle cx="807.89" cy="407.553" r="4" fill="#0" id="circle200"/>
	<circle cx="809.498" cy="245.167" r="4" fill="#0" id="circle201"/>
	<circle cx="809.498" cy="540.998" r="4" fill="#0" id="circle202"/>
	<circle cx="809.498" cy="688.914" r="4" fill="#0" id="circle203"/>
	<circle cx="815.929" cy="422.023" r="4" fill="#0" id="circle204"/>
	<circle cx="817.536" cy="259.637" r="4" fill="#0" id="circle205"/>
	<circle cx="817.536" cy="555.468" r="4" fill="#0" id="circle206"/>
	<circle cx="817.536" cy="640.681" r="4" fill="#0" id="circle207"/>
	<circle cx="817.536" cy="656.759" r="4" fill="#0" id="circle208"/>
	<circle cx="817.536" cy="672.836" r="4" fill="#0" id="circle209"/>
	<circle cx="819.144" cy="438.1" r="4" fill="#0" id="circle210"/>
	<circle cx="823.968" cy="454.178" r="4" fill="#0" id="circle211"/>
	<circle cx="823.968" cy="571.546" r="4" fill="#0" id="circle212"/>
	<circle cx="825.575" cy="274.107" r="4" fill="#0" id="circle213"/>
	<circle cx="825.575" cy="587.624" r="4" fill="#0" id="circle214"/>
	<circle cx="825.575" cy="603.702" r="4" fill="#0" id="circle215"/>
	<circle cx="825.575" cy="619.78" r="4" fill="#0" id="circle216"/>
	<circle cx="832.006" cy="290.185" r="4" fill="#0" id="circle217"/>
	<circle cx="832.006" cy="468.648" r="4" fill="#0" id="circle218"/>
	<circle cx="832.006" cy="484.726" r="4" fill="#0" id="circle219"/>
	<circle cx="840.045" cy="304.655" r="4" fill="#0" id="circle220"/>
	<circle cx="840.045" cy="499.196" r="4" fill="#0" id="circle221"/>
	<circle cx="841.653" cy="320.733" r="4" fill="#0" id="circle222"/>
	<circle cx="846.476" cy="336.81" r="4" fill="#0" id="circle223"/>
	<circle cx="848.084" cy="513.666" r="4" fill="#0" id="circle224"/>
	<circle cx="849.692" cy="352.888" r="4" fill="#0" id="circle225"/>
	<circle cx="849.692" cy="368.966" r="4" fill="#0" id="circle226"/>
	<circle cx="856.123" cy="528.136" r="4" fill="#0" id="circle227"/>
	<circle cx="857.731" cy="383.436" r="4" fill="#0" id="circle228"/>
	<circle cx="857.731" cy="399.514" r="4" fill="#0" id="circle229"/>
	<circle cx="860.947" cy="544.214" r="4" fill="#0" id="circle230"/>
	<circle cx="865.77" cy="413.984" r="4" fill="#0" id="circle231"/>
	<circle cx="865.77" cy="430.062" r="4" fill="#0" id="circle232"/>
	<circle cx="873.809" cy="444.532" r="4" fill="#0" id="circle233"/>
	<circle cx="873.809" cy="460.609" r="4" fill="#0" id="circle234"/>
	<circle cx="873.809" cy="555.468" r="4" fill="#0" id="circle235"/>
	<circle cx="880.24" cy="571.546" r="4" fill="#0" id="circle236"/>
	<circle cx="881.848" cy="475.079" r="4" fill="#0" id="circle237"/>
	<circle cx="888.279" cy="491.157" r="4" fill="#0" id="circle238"/>
	<circle cx="889.887" cy="507.235" r="4" fill="#0" id="circle239"/>
	<circle cx="893.102" cy="582.801" r="4" fill="#0" id="circle240"/>
	<circle cx="897.925" cy="521.705" r="4" fill="#0" id="circle241"/>
	<circle cx="904.357" cy="595.663" r="4" fill="#0" id="circle242"/>
	<circle cx="907.572" cy="534.567" r="4" fill="#0" id="circle243"/>
	<circle cx="914.003" cy="550.645" r="4" fill="#0" id="circle244"/>
	<circle cx="917.219" cy="606.917" r="4" fill="#0" id="circle245"/>
	<circle cx="926.865" cy="560.292" r="4" fill="#0" id="circle246"/>
	<circle cx="931.689" cy="614.956" r="4" fill="#0" id="circle247"/>
	<circle cx="938.12" cy="573.154" r="4" fill="#0" id="circle248"/>
	<circle cx="947.767" cy="621.387" r="4" fill="#0" id="circle249"/>
	<circle cx="950.982" cy="582.801" r="4" fill="#0" id="circle250"/>
	<circle cx="963.844" cy="624.603" r="4" fill="#0" id="circle251"/>
	<circle cx="965.452" cy="590.84" r="4" fill="#0" id="circle252"/>
	<circle cx="979.922" cy="598.878" r="4" fill="#0" id="circle253"/>
	<circle cx="979.922" cy="624.603" r="4" fill="#0" id="circle254"/>
	<circle cx="996" cy="598.878" r="4" fill="#0" id="circle255"/>
	<circle cx="996" cy="624.603" r="4" fill="#0" id="circle256"/>
	</g>
</svg>