<?xml version="1.0" encoding="UTF-8" standalone="no"?>
<!-- Created with CurveBenchmark -->
<svg
	xmlns:dc="http://purl.org/dc/elements/1.1/"
	xmlns:cc="http://creativecommons.org/ns#"
	xmlns:rdf="http://www.w3.org/1999/02/22-rdf-syntax-ns#"
	xmlns:svg="http://www.w3.org/2000/svg"
	xmlns="http://www.w3.org/2000/svg"
	xmlns:sodipodi="http://sodipodi.sourceforge.net/DTD/sodipodi-0.dtd"
	xmlns:inkscape="http://www.inkscape.org/namespaces/inkscape"
	width="1000"
	height="1000"
	id="svg2"
	version="1.1"
	sodipodi:docname="manifold/crawl-bird185.png.txt">
<defs
	id="defs4" />
<metadata
	id="metadata7">
	<rdf:RDF>
		<cc:Work
			rdf:about="">
			<dc:format>image/svg+xml</dc:format>
			<dc:type
				rdf:resource="http://purl.org/dc/dcmitype/StillImage" />
			<dc:title></dc:title>
		</cc:Work>
	</rdf:RDF>
</metadata>
<g
	inkscape:label="Layer 1"
	inkscape:groupmode="layer"
	id="layer1">
	<path style="fill:none;stroke:red;stroke-width:1px;stroke-linecap:butt;stroke-linejoin:miter;stroke-opacity:1" d="M 25.9631,216.31 4,245.594 z" id="boundary" inkscape:connector-curvature="0" />
	<path style="fill:none;stroke:red;stroke-width:1px;stroke-linecap:butt;stroke-linejoin:miter;stroke-opacity:1" d="M 4,245.594 22.3026,278.539 z" id="boundary" inkscape:connector-curvature="0" />
	<path style="fill:none;stroke:red;stroke-width:1px;stroke-linecap:butt;stroke-linejoin:miter;stroke-opacity:1" d="M 22.3026,278.539 55.2472,256.576 z" id="boundary" inkscape:connector-curvature="0" />
	<path style="fill:none;stroke:red;stroke-width:1px;stroke-linecap:butt;stroke-linejoin:miter;stroke-opacity:1" d="M 55.2472,256.576 84.5314,234.613 z" id="boundary" inkscape:connector-curvature="0" />
	<path style="fill:none;stroke:red;stroke-width:1px;stroke-linecap:butt;stroke-linejoin:miter;stroke-opacity:1" d="M 84.5314,234.613 113.815,212.649 z" id="boundary" inkscape:connector-curvature="0" />
	<path style="fill:none;stroke:red;stroke-width:1px;stroke-linecap:butt;stroke-linejoin:miter;stroke-opacity:1" d="M 113.815,212.649 150.421,198.007 z" id="boundary" inkscape:connector-curvature="0" />
	<path style="fill:none;stroke:red;stroke-width:1px;stroke-linecap:butt;stroke-linejoin:miter;stroke-opacity:1" d="M 150.421,198.007 187.026,183.365 z" id="boundary" inkscape:connector-curvature="0" />
	<path style="fill:none;stroke:red;stroke-width:1px;stroke-linecap:butt;stroke-linejoin:miter;stroke-opacity:1" d="M 187.026,183.365 219.97,165.063 z" id="boundary" inkscape:connector-curvature="0" />
	<path style="fill:none;stroke:red;stroke-width:1px;stroke-linecap:butt;stroke-linejoin:miter;stroke-opacity:1" d="M 25.9631,216.31 55.2472,179.705 z" id="boundary" inkscape:connector-curvature="0" />
	<path style="fill:none;stroke:red;stroke-width:1px;stroke-linecap:butt;stroke-linejoin:miter;stroke-opacity:1" d="M 55.2472,179.705 77.2103,150.421 z" id="boundary" inkscape:connector-curvature="0" />
	<path style="fill:none;stroke:red;stroke-width:1px;stroke-linecap:butt;stroke-linejoin:miter;stroke-opacity:1" d="M 77.2103,150.421 91.8524,113.815 z" id="boundary" inkscape:connector-curvature="0" />
	<path style="fill:none;stroke:red;stroke-width:1px;stroke-linecap:butt;stroke-linejoin:miter;stroke-opacity:1" d="M 91.8524,113.815 121.137,84.5314 z" id="boundary" inkscape:connector-curvature="0" />
	<path style="fill:none;stroke:red;stroke-width:1px;stroke-linecap:butt;stroke-linejoin:miter;stroke-opacity:1" d="M 121.137,84.5314 157.742,69.8893 z" id="boundary" inkscape:connector-curvature="0" />
	<path style="fill:none;stroke:red;stroke-width:1px;stroke-linecap:butt;stroke-linejoin:miter;stroke-opacity:1" d="M 157.742,69.8893 194.347,69.8893 z" id="boundary" inkscape:connector-curvature="0" />
	<path style="fill:none;stroke:red;stroke-width:1px;stroke-linecap:butt;stroke-linejoin:miter;stroke-opacity:1" d="M 194.347,69.8893 230.952,73.5498 z" id="boundary" inkscape:connector-curvature="0" />
	<path style="fill:none;stroke:red;stroke-width:1px;stroke-linecap:butt;stroke-linejoin:miter;stroke-opacity:1" d="M 230.952,73.5498 267.557,88.1919 z" id="boundary" inkscape:connector-curvature="0" />
	<path style="fill:none;stroke:red;stroke-width:1px;stroke-linecap:butt;stroke-linejoin:miter;stroke-opacity:1" d="M 267.557,88.1919 293.181,117.476 z" id="boundary" inkscape:connector-curvature="0" />
	<path style="fill:none;stroke:red;stroke-width:1px;stroke-linecap:butt;stroke-linejoin:miter;stroke-opacity:1" d="M 293.181,117.476 315.144,146.76 z" id="boundary" inkscape:connector-curvature="0" />
	<path style="fill:none;stroke:red;stroke-width:1px;stroke-linecap:butt;stroke-linejoin:miter;stroke-opacity:1" d="M 315.144,146.76 340.768,113.815 z" id="boundary" inkscape:connector-curvature="0" />
	<path style="fill:none;stroke:red;stroke-width:1px;stroke-linecap:butt;stroke-linejoin:miter;stroke-opacity:1" d="M 340.768,113.815 359.07,80.8708 z" id="boundary" inkscape:connector-curvature="0" />
	<path style="fill:none;stroke:red;stroke-width:1px;stroke-linecap:butt;stroke-linejoin:miter;stroke-opacity:1" d="M 359.07,80.8708 388.354,51.5867 z" id="boundary" inkscape:connector-curvature="0" />
	<path style="fill:none;stroke:red;stroke-width:1px;stroke-linecap:butt;stroke-linejoin:miter;stroke-opacity:1" d="M 388.354,51.5867 421.299,33.2841 z" id="boundary" inkscape:connector-curvature="0" />
	<path style="fill:none;stroke:red;stroke-width:1px;stroke-linecap:butt;stroke-linejoin:miter;stroke-opacity:1" d="M 421.299,33.2841 457.904,18.6421 z" id="boundary" inkscape:connector-curvature="0" />
	<path style="fill:none;stroke:red;stroke-width:1px;stroke-linecap:butt;stroke-linejoin:miter;stroke-opacity:1" d="M 457.904,18.6421 494.509,11.321 z" id="boundary" inkscape:connector-curvature="0" />
	<path style="fill:none;stroke:red;stroke-width:1px;stroke-linecap:butt;stroke-linejoin:miter;stroke-opacity:1" d="M 494.509,11.321 531.114,4 z" id="boundary" inkscape:connector-curvature="0" />
	<path style="fill:none;stroke:red;stroke-width:1px;stroke-linecap:butt;stroke-linejoin:miter;stroke-opacity:1" d="M 531.114,4 567.72,4 z" id="boundary" inkscape:connector-curvature="0" />
	<path style="fill:none;stroke:red;stroke-width:1px;stroke-linecap:butt;stroke-linejoin:miter;stroke-opacity:1" d="M 567.72,4 604.325,4 z" id="boundary" inkscape:connector-curvature="0" />
	<path style="fill:none;stroke:red;stroke-width:1px;stroke-linecap:butt;stroke-linejoin:miter;stroke-opacity:1" d="M 604.325,4 640.93,11.321 z" id="boundary" inkscape:connector-curvature="0" />
	<path style="fill:none;stroke:red;stroke-width:1px;stroke-linecap:butt;stroke-linejoin:miter;stroke-opacity:1" d="M 640.93,11.321 677.535,25.9631 z" id="boundary" inkscape:connector-curvature="0" />
	<path style="fill:none;stroke:red;stroke-width:1px;stroke-linecap:butt;stroke-linejoin:miter;stroke-opacity:1" d="M 677.535,25.9631 714.14,40.6052 z" id="boundary" inkscape:connector-curvature="0" />
	<path style="fill:none;stroke:red;stroke-width:1px;stroke-linecap:butt;stroke-linejoin:miter;stroke-opacity:1" d="M 714.14,40.6052 743.424,62.5683 z" id="boundary" inkscape:connector-curvature="0" />
	<path style="fill:none;stroke:red;stroke-width:1px;stroke-linecap:butt;stroke-linejoin:miter;stroke-opacity:1" d="M 743.424,62.5683 772.708,84.5314 z" id="boundary" inkscape:connector-curvature="0" />
	<path style="fill:none;stroke:red;stroke-width:1px;stroke-linecap:butt;stroke-linejoin:miter;stroke-opacity:1" d="M 772.708,84.5314 801.993,106.494 z" id="boundary" inkscape:connector-curvature="0" />
	<path style="fill:none;stroke:red;stroke-width:1px;stroke-linecap:butt;stroke-linejoin:miter;stroke-opacity:1" d="M 801.993,106.494 831.277,132.118 z" id="boundary" inkscape:connector-curvature="0" />
	<path style="fill:none;stroke:red;stroke-width:1px;stroke-linecap:butt;stroke-linejoin:miter;stroke-opacity:1" d="M 831.277,132.118 856.9,161.402 z" id="boundary" inkscape:connector-curvature="0" />
	<path style="fill:none;stroke:red;stroke-width:1px;stroke-linecap:butt;stroke-linejoin:miter;stroke-opacity:1" d="M 856.9,161.402 886.185,187.026 z" id="boundary" inkscape:connector-curvature="0" />
	<path style="fill:none;stroke:red;stroke-width:1px;stroke-linecap:butt;stroke-linejoin:miter;stroke-opacity:1" d="M 886.185,187.026 911.808,216.31 z" id="boundary" inkscape:connector-curvature="0" />
	<path style="fill:none;stroke:red;stroke-width:1px;stroke-linecap:butt;stroke-linejoin:miter;stroke-opacity:1" d="M 911.808,216.31 937.432,245.594 z" id="boundary" inkscape:connector-curvature="0" />
	<path style="fill:none;stroke:red;stroke-width:1px;stroke-linecap:butt;stroke-linejoin:miter;stroke-opacity:1" d="M 937.432,245.594 959.395,274.878 z" id="boundary" inkscape:connector-curvature="0" />
	<path style="fill:none;stroke:red;stroke-width:1px;stroke-linecap:butt;stroke-linejoin:miter;stroke-opacity:1" d="M 959.395,274.878 981.358,304.162 z" id="boundary" inkscape:connector-curvature="0" />
	<path style="fill:none;stroke:red;stroke-width:1px;stroke-linecap:butt;stroke-linejoin:miter;stroke-opacity:1" d="M 981.358,304.162 996,340.768 z" id="boundary" inkscape:connector-curvature="0" />
	<path style="fill:none;stroke:red;stroke-width:1px;stroke-linecap:butt;stroke-linejoin:miter;stroke-opacity:1" d="M 996,340.768 996,402.996 z" id="boundary" inkscape:connector-curvature="0" />
	<path style="fill:none;stroke:red;stroke-width:1px;stroke-linecap:butt;stroke-linejoin:miter;stroke-opacity:1" d="M 996,402.996 959.395,410.317 z" id="boundary" inkscape:connector-curvature="0" />
	<path style="fill:none;stroke:red;stroke-width:1px;stroke-linecap:butt;stroke-linejoin:miter;stroke-opacity:1" d="M 959.395,410.317 922.79,395.675 z" id="boundary" inkscape:connector-curvature="0" />
	<path style="fill:none;stroke:red;stroke-width:1px;stroke-linecap:butt;stroke-linejoin:miter;stroke-opacity:1" d="M 922.79,395.675 886.185,399.336 z" id="boundary" inkscape:connector-curvature="0" />
	<path style="fill:none;stroke:red;stroke-width:1px;stroke-linecap:butt;stroke-linejoin:miter;stroke-opacity:1" d="M 886.185,399.336 849.579,410.317 z" id="boundary" inkscape:connector-curvature="0" />
	<path style="fill:none;stroke:red;stroke-width:1px;stroke-linecap:butt;stroke-linejoin:miter;stroke-opacity:1" d="M 849.579,410.317 812.974,395.675 z" id="boundary" inkscape:connector-curvature="0" />
	<path style="fill:none;stroke:red;stroke-width:1px;stroke-linecap:butt;stroke-linejoin:miter;stroke-opacity:1" d="M 812.974,395.675 776.369,381.033 z" id="boundary" inkscape:connector-curvature="0" />
	<path style="fill:none;stroke:red;stroke-width:1px;stroke-linecap:butt;stroke-linejoin:miter;stroke-opacity:1" d="M 776.369,381.033 739.764,373.712 z" id="boundary" inkscape:connector-curvature="0" />
	<path style="fill:none;stroke:red;stroke-width:1px;stroke-linecap:butt;stroke-linejoin:miter;stroke-opacity:1" d="M 739.764,373.712 710.48,351.749 z" id="boundary" inkscape:connector-curvature="0" />
	<path style="fill:none;stroke:red;stroke-width:1px;stroke-linecap:butt;stroke-linejoin:miter;stroke-opacity:1" d="M 710.48,351.749 673.875,344.428 z" id="boundary" inkscape:connector-curvature="0" />
	<path style="fill:none;stroke:red;stroke-width:1px;stroke-linecap:butt;stroke-linejoin:miter;stroke-opacity:1" d="M 673.875,344.428 637.269,333.446 z" id="boundary" inkscape:connector-curvature="0" />
	<path style="fill:none;stroke:red;stroke-width:1px;stroke-linecap:butt;stroke-linejoin:miter;stroke-opacity:1" d="M 637.269,333.446 637.269,370.052 z" id="boundary" inkscape:connector-curvature="0" />
	<path style="fill:none;stroke:red;stroke-width:1px;stroke-linecap:butt;stroke-linejoin:miter;stroke-opacity:1" d="M 637.269,370.052 637.269,406.657 z" id="boundary" inkscape:connector-curvature="0" />
	<path style="fill:none;stroke:red;stroke-width:1px;stroke-linecap:butt;stroke-linejoin:miter;stroke-opacity:1" d="M 637.269,406.657 637.269,443.262 z" id="boundary" inkscape:connector-curvature="0" />
	<path style="fill:none;stroke:red;stroke-width:1px;stroke-linecap:butt;stroke-linejoin:miter;stroke-opacity:1" d="M 637.269,443.262 637.269,479.867 z" id="boundary" inkscape:connector-curvature="0" />
	<path style="fill:none;stroke:red;stroke-width:1px;stroke-linecap:butt;stroke-linejoin:miter;stroke-opacity:1" d="M 637.269,479.867 637.269,516.472 z" id="boundary" inkscape:connector-curvature="0" />
	<path style="fill:none;stroke:red;stroke-width:1px;stroke-linecap:butt;stroke-linejoin:miter;stroke-opacity:1" d="M 637.269,516.472 637.269,553.077 z" id="boundary" inkscape:connector-curvature="0" />
	<path style="fill:none;stroke:red;stroke-width:1px;stroke-linecap:butt;stroke-linejoin:miter;stroke-opacity:1" d="M 637.269,553.077 637.269,589.683 z" id="boundary" inkscape:connector-curvature="0" />
	<path style="fill:none;stroke:red;stroke-width:1px;stroke-linecap:butt;stroke-linejoin:miter;stroke-opacity:1" d="M 637.269,589.683 637.269,640.93 z" id="boundary" inkscape:connector-curvature="0" />
	<path style="fill:none;stroke:red;stroke-width:1px;stroke-linecap:butt;stroke-linejoin:miter;stroke-opacity:1" d="M 637.269,640.93 629.948,692.177 z" id="boundary" inkscape:connector-curvature="0" />
	<path style="fill:none;stroke:red;stroke-width:1px;stroke-linecap:butt;stroke-linejoin:miter;stroke-opacity:1" d="M 629.948,692.177 622.627,743.424 z" id="boundary" inkscape:connector-curvature="0" />
	<path style="fill:none;stroke:red;stroke-width:1px;stroke-linecap:butt;stroke-linejoin:miter;stroke-opacity:1" d="M 622.627,743.424 615.306,787.351 z" id="boundary" inkscape:connector-curvature="0" />
	<path style="fill:none;stroke:red;stroke-width:1px;stroke-linecap:butt;stroke-linejoin:miter;stroke-opacity:1" d="M 615.306,787.351 607.985,831.277 z" id="boundary" inkscape:connector-curvature="0" />
	<path style="fill:none;stroke:red;stroke-width:1px;stroke-linecap:butt;stroke-linejoin:miter;stroke-opacity:1" d="M 607.985,831.277 600.664,882.524 z" id="boundary" inkscape:connector-curvature="0" />
	<path style="fill:none;stroke:red;stroke-width:1px;stroke-linecap:butt;stroke-linejoin:miter;stroke-opacity:1" d="M 600.664,882.524 600.664,919.129 z" id="boundary" inkscape:connector-curvature="0" />
	<path style="fill:none;stroke:red;stroke-width:1px;stroke-linecap:butt;stroke-linejoin:miter;stroke-opacity:1" d="M 600.664,919.129 567.72,937.432 z" id="boundary" inkscape:connector-curvature="0" />
	<path style="fill:none;stroke:red;stroke-width:1px;stroke-linecap:butt;stroke-linejoin:miter;stroke-opacity:1" d="M 567.72,937.432 531.114,937.432 z" id="boundary" inkscape:connector-curvature="0" />
	<path style="fill:none;stroke:red;stroke-width:1px;stroke-linecap:butt;stroke-linejoin:miter;stroke-opacity:1" d="M 531.114,937.432 494.509,937.432 z" id="boundary" inkscape:connector-curvature="0" />
	<path style="fill:none;stroke:red;stroke-width:1px;stroke-linecap:butt;stroke-linejoin:miter;stroke-opacity:1" d="M 494.509,937.432 457.904,930.111 z" id="boundary" inkscape:connector-curvature="0" />
	<path style="fill:none;stroke:red;stroke-width:1px;stroke-linecap:butt;stroke-linejoin:miter;stroke-opacity:1" d="M 457.904,930.111 476.207,897.166 z" id="boundary" inkscape:connector-curvature="0" />
	<path style="fill:none;stroke:red;stroke-width:1px;stroke-linecap:butt;stroke-linejoin:miter;stroke-opacity:1" d="M 476.207,897.166 512.812,889.845 z" id="boundary" inkscape:connector-curvature="0" />
	<path style="fill:none;stroke:red;stroke-width:1px;stroke-linecap:butt;stroke-linejoin:miter;stroke-opacity:1" d="M 512.812,889.845 549.417,886.185 z" id="boundary" inkscape:connector-curvature="0" />
	<path style="fill:none;stroke:red;stroke-width:1px;stroke-linecap:butt;stroke-linejoin:miter;stroke-opacity:1" d="M 549.417,886.185 553.077,838.598 z" id="boundary" inkscape:connector-curvature="0" />
	<path style="fill:none;stroke:red;stroke-width:1px;stroke-linecap:butt;stroke-linejoin:miter;stroke-opacity:1" d="M 553.077,838.598 560.399,794.672 z" id="boundary" inkscape:connector-curvature="0" />
	<path style="fill:none;stroke:red;stroke-width:1px;stroke-linecap:butt;stroke-linejoin:miter;stroke-opacity:1" d="M 560.399,794.672 567.72,758.066 z" id="boundary" inkscape:connector-curvature="0" />
	<path style="fill:none;stroke:red;stroke-width:1px;stroke-linecap:butt;stroke-linejoin:miter;stroke-opacity:1" d="M 567.72,758.066 575.041,706.819 z" id="boundary" inkscape:connector-curvature="0" />
	<path style="fill:none;stroke:red;stroke-width:1px;stroke-linecap:butt;stroke-linejoin:miter;stroke-opacity:1" d="M 575.041,706.819 582.362,659.232 z" id="boundary" inkscape:connector-curvature="0" />
	<path style="fill:none;stroke:red;stroke-width:1px;stroke-linecap:butt;stroke-linejoin:miter;stroke-opacity:1" d="M 582.362,659.232 582.362,622.627 z" id="boundary" inkscape:connector-curvature="0" />
	<path style="fill:none;stroke:red;stroke-width:1px;stroke-linecap:butt;stroke-linejoin:miter;stroke-opacity:1" d="M 582.362,622.627 582.362,586.022 z" id="boundary" inkscape:connector-curvature="0" />
	<path style="fill:none;stroke:red;stroke-width:1px;stroke-linecap:butt;stroke-linejoin:miter;stroke-opacity:1" d="M 582.362,586.022 575.041,549.417 z" id="boundary" inkscape:connector-curvature="0" />
	<path style="fill:none;stroke:red;stroke-width:1px;stroke-linecap:butt;stroke-linejoin:miter;stroke-opacity:1" d="M 575.041,549.417 560.399,512.812 z" id="boundary" inkscape:connector-curvature="0" />
	<path style="fill:none;stroke:red;stroke-width:1px;stroke-linecap:butt;stroke-linejoin:miter;stroke-opacity:1" d="M 560.399,512.812 553.077,476.207 z" id="boundary" inkscape:connector-curvature="0" />
	<path style="fill:none;stroke:red;stroke-width:1px;stroke-linecap:butt;stroke-linejoin:miter;stroke-opacity:1" d="M 553.077,476.207 545.756,439.601 z" id="boundary" inkscape:connector-curvature="0" />
	<path style="fill:none;stroke:red;stroke-width:1px;stroke-linecap:butt;stroke-linejoin:miter;stroke-opacity:1" d="M 545.756,439.601 538.435,402.996 z" id="boundary" inkscape:connector-curvature="0" />
	<path style="fill:none;stroke:red;stroke-width:1px;stroke-linecap:butt;stroke-linejoin:miter;stroke-opacity:1" d="M 538.435,402.996 531.114,366.391 z" id="boundary" inkscape:connector-curvature="0" />
	<path style="fill:none;stroke:red;stroke-width:1px;stroke-linecap:butt;stroke-linejoin:miter;stroke-opacity:1" d="M 531.114,366.391 523.793,329.786 z" id="boundary" inkscape:connector-curvature="0" />
	<path style="fill:none;stroke:red;stroke-width:1px;stroke-linecap:butt;stroke-linejoin:miter;stroke-opacity:1" d="M 523.793,329.786 523.793,293.181 z" id="boundary" inkscape:connector-curvature="0" />
	<path style="fill:none;stroke:red;stroke-width:1px;stroke-linecap:butt;stroke-linejoin:miter;stroke-opacity:1" d="M 523.793,293.181 501.83,263.897 z" id="boundary" inkscape:connector-curvature="0" />
	<path style="fill:none;stroke:red;stroke-width:1px;stroke-linecap:butt;stroke-linejoin:miter;stroke-opacity:1" d="M 501.83,263.897 476.207,234.613 z" id="boundary" inkscape:connector-curvature="0" />
	<path style="fill:none;stroke:red;stroke-width:1px;stroke-linecap:butt;stroke-linejoin:miter;stroke-opacity:1" d="M 476.207,234.613 446.923,212.649 z" id="boundary" inkscape:connector-curvature="0" />
	<path style="fill:none;stroke:red;stroke-width:1px;stroke-linecap:butt;stroke-linejoin:miter;stroke-opacity:1" d="M 446.923,212.649 410.317,216.31 z" id="boundary" inkscape:connector-curvature="0" />
	<path style="fill:none;stroke:red;stroke-width:1px;stroke-linecap:butt;stroke-linejoin:miter;stroke-opacity:1" d="M 410.317,216.31 395.675,252.915 z" id="boundary" inkscape:connector-curvature="0" />
	<path style="fill:none;stroke:red;stroke-width:1px;stroke-linecap:butt;stroke-linejoin:miter;stroke-opacity:1" d="M 395.675,252.915 388.354,296.841 z" id="boundary" inkscape:connector-curvature="0" />
	<path style="fill:none;stroke:red;stroke-width:1px;stroke-linecap:butt;stroke-linejoin:miter;stroke-opacity:1" d="M 388.354,296.841 366.391,333.446 z" id="boundary" inkscape:connector-curvature="0" />
	<path style="fill:none;stroke:red;stroke-width:1px;stroke-linecap:butt;stroke-linejoin:miter;stroke-opacity:1" d="M 366.391,333.446 333.446,351.749 z" id="boundary" inkscape:connector-curvature="0" />
	<path style="fill:none;stroke:red;stroke-width:1px;stroke-linecap:butt;stroke-linejoin:miter;stroke-opacity:1" d="M 333.446,351.749 296.841,348.089 z" id="boundary" inkscape:connector-curvature="0" />
	<path style="fill:none;stroke:red;stroke-width:1px;stroke-linecap:butt;stroke-linejoin:miter;stroke-opacity:1" d="M 296.841,348.089 260.236,333.446 z" id="boundary" inkscape:connector-curvature="0" />
	<path style="fill:none;stroke:red;stroke-width:1px;stroke-linecap:butt;stroke-linejoin:miter;stroke-opacity:1" d="M 260.236,333.446 238.273,304.162 z" id="boundary" inkscape:connector-curvature="0" />
	<path style="fill:none;stroke:red;stroke-width:1px;stroke-linecap:butt;stroke-linejoin:miter;stroke-opacity:1" d="M 238.273,304.162 230.952,267.557 z" id="boundary" inkscape:connector-curvature="0" />
	<path style="fill:none;stroke:red;stroke-width:1px;stroke-linecap:butt;stroke-linejoin:miter;stroke-opacity:1" d="M 230.952,267.557 230.952,230.952 z" id="boundary" inkscape:connector-curvature="0" />
	<path style="fill:none;stroke:red;stroke-width:1px;stroke-linecap:butt;stroke-linejoin:miter;stroke-opacity:1" d="M 230.952,230.952 219.97,165.063 z" id="boundary" inkscape:connector-curvature="0" />
	<circle cx="4" cy="245.594" r="4" fill="#0" id="circle0"/>
	<circle cx="22.3026" cy="278.539" r="4" fill="#0" id="circle1"/>
	<circle cx="25.9631" cy="216.31" r="4" fill="#0" id="circle2"/>
	<circle cx="55.2472" cy="179.705" r="4" fill="#0" id="circle3"/>
	<circle cx="55.2472" cy="256.576" r="4" fill="#0" id="circle4"/>
	<circle cx="77.2103" cy="150.421" r="4" fill="#0" id="circle5"/>
	<circle cx="84.5314" cy="234.613" r="4" fill="#0" id="circle6"/>
	<circle cx="91.8524" cy="113.815" r="4" fill="#0" id="circle7"/>
	<circle cx="113.815" cy="212.649" r="4" fill="#0" id="circle8"/>
	<circle cx="121.137" cy="84.5314" r="4" fill="#0" id="circle9"/>
	<circle cx="150.421" cy="198.007" r="4" fill="#0" id="circle10"/>
	<circle cx="157.742" cy="69.8893" r="4" fill="#0" id="circle11"/>
	<circle cx="187.026" cy="183.365" r="4" fill="#0" id="circle12"/>
	<circle cx="194.347" cy="69.8893" r="4" fill="#0" id="circle13"/>
	<circle cx="219.97" cy="165.063" r="4" fill="#0" id="circle14"/>
	<circle cx="230.952" cy="73.5498" r="4" fill="#0" id="circle15"/>
	<circle cx="230.952" cy="230.952" r="4" fill="#0" id="circle16"/>
	<circle cx="230.952" cy="267.557" r="4" fill="#0" id="circle17"/>
	<circle cx="238.273" cy="304.162" r="4" fill="#0" id="circle18"/>
	<circle cx="260.236" cy="333.446" r="4" fill="#0" id="circle19"/>
	<circle cx="267.557" cy="88.1919" r="4" fill="#0" id="circle20"/>
	<circle cx="293.181" cy="117.476" r="4" fill="#0" id="circle21"/>
	<circle cx="296.841" cy="348.089" r="4" fill="#0" id="circle22"/>
	<circle cx="315.144" cy="146.76" r="4" fill="#0" id="circle23"/>
	<circle cx="333.446" cy="351.749" r="4" fill="#0" id="circle24"/>
	<circle cx="340.768" cy="113.815" r="4" fill="#0" id="circle25"/>
	<circle cx="359.07" cy="80.8708" r="4" fill="#0" id="circle26"/>
	<circle cx="366.391" cy="333.446" r="4" fill="#0" id="circle27"/>
	<circle cx="388.354" cy="51.5867" r="4" fill="#0" id="circle28"/>
	<circle cx="388.354" cy="296.841" r="4" fill="#0" id="circle29"/>
	<circle cx="395.675" cy="252.915" r="4" fill="#0" id="circle30"/>
	<circle cx="410.317" cy="216.31" r="4" fill="#0" id="circle31"/>
	<circle cx="421.299" cy="33.2841" r="4" fill="#0" id="circle32"/>
	<circle cx="428.62" cy="904.487" r="4" fill="#0" id="circle33"/>
	<circle cx="446.923" cy="212.649" r="4" fill="#0" id="circle34"/>
	<circle cx="457.904" cy="18.6421" r="4" fill="#0" id="circle35"/>
	<circle cx="457.904" cy="930.111" r="4" fill="#0" id="circle36"/>
	<circle cx="476.207" cy="234.613" r="4" fill="#0" id="circle37"/>
	<circle cx="476.207" cy="897.166" r="4" fill="#0" id="circle38"/>
	<circle cx="494.509" cy="11.321" r="4" fill="#0" id="circle39"/>
	<circle cx="494.509" cy="937.432" r="4" fill="#0" id="circle40"/>
	<circle cx="501.83" cy="263.897" r="4" fill="#0" id="circle41"/>
	<circle cx="512.812" cy="889.845" r="4" fill="#0" id="circle42"/>
	<circle cx="523.793" cy="293.181" r="4" fill="#0" id="circle43"/>
	<circle cx="523.793" cy="329.786" r="4" fill="#0" id="circle44"/>
	<circle cx="531.114" cy="4" r="4" fill="#0" id="circle45"/>
	<circle cx="531.114" cy="366.391" r="4" fill="#0" id="circle46"/>
	<circle cx="531.114" cy="937.432" r="4" fill="#0" id="circle47"/>
	<circle cx="538.435" cy="402.996" r="4" fill="#0" id="circle48"/>
	<circle cx="545.756" cy="439.601" r="4" fill="#0" id="circle49"/>
	<circle cx="549.417" cy="886.185" r="4" fill="#0" id="circle50"/>
	<circle cx="553.077" cy="476.207" r="4" fill="#0" id="circle51"/>
	<circle cx="553.077" cy="838.598" r="4" fill="#0" id="circle52"/>
	<circle cx="560.399" cy="512.812" r="4" fill="#0" id="circle53"/>
	<circle cx="560.399" cy="794.672" r="4" fill="#0" id="circle54"/>
	<circle cx="567.72" cy="4" r="4" fill="#0" id="circle55"/>
	<circle cx="567.72" cy="758.066" r="4" fill="#0" id="circle56"/>
	<circle cx="567.72" cy="937.432" r="4" fill="#0" id="circle57"/>
	<circle cx="575.041" cy="549.417" r="4" fill="#0" id="circle58"/>
	<circle cx="575.041" cy="706.819" r="4" fill="#0" id="circle59"/>
	<circle cx="582.362" cy="586.022" r="4" fill="#0" id="circle60"/>
	<circle cx="582.362" cy="622.627" r="4" fill="#0" id="circle61"/>
	<circle cx="582.362" cy="659.232" r="4" fill="#0" id="circle62"/>
	<circle cx="600.664" cy="882.524" r="4" fill="#0" id="circle63"/>
	<circle cx="600.664" cy="919.129" r="4" fill="#0" id="circle64"/>
	<circle cx="604.325" cy="4" r="4" fill="#0" id="circle65"/>
	<circle cx="607.985" cy="831.277" r="4" fill="#0" id="circle66"/>
	<circle cx="615.306" cy="787.351" r="4" fill="#0" id="circle67"/>
	<circle cx="622.627" cy="743.424" r="4" fill="#0" id="circle68"/>
	<circle cx="629.948" cy="692.177" r="4" fill="#0" id="circle69"/>
	<circle cx="637.269" cy="333.446" r="4" fill="#0" id="circle70"/>
	<circle cx="637.269" cy="370.052" r="4" fill="#0" id="circle71"/>
	<circle cx="637.269" cy="406.657" r="4" fill="#0" id="circle72"/>
	<circle cx="637.269" cy="443.262" r="4" fill="#0" id="circle73"/>
	<circle cx="637.269" cy="479.867" r="4" fill="#0" id="circle74"/>
	<circle cx="637.269" cy="516.472" r="4" fill="#0" id="circle75"/>
	<circle cx="637.269" cy="553.077" r="4" fill="#0" id="circle76"/>
	<circle cx="637.269" cy="589.683" r="4" fill="#0" id="circle77"/>
	<circle cx="637.269" cy="640.93" r="4" fill="#0" id="circle78"/>
	<circle cx="640.93" cy="11.321" r="4" fill="#0" id="circle79"/>
	<circle cx="673.875" cy="344.428" r="4" fill="#0" id="circle80"/>
	<circle cx="677.535" cy="25.9631" r="4" fill="#0" id="circle81"/>
	<circle cx="710.48" cy="351.749" r="4" fill="#0" id="circle82"/>
	<circle cx="714.14" cy="40.6052" r="4" fill="#0" id="circle83"/>
	<circle cx="739.764" cy="373.712" r="4" fill="#0" id="circle84"/>
	<circle cx="743.424" cy="62.5683" r="4" fill="#0" id="circle85"/>
	<circle cx="772.708" cy="84.5314" r="4" fill="#0" id="circle86"/>
	<circle cx="776.369" cy="381.033" r="4" fill="#0" id="circle87"/>
	<circle cx="801.993" cy="106.494" r="4" fill="#0" id="circle88"/>
	<circle cx="812.974" cy="395.675" r="4" fill="#0" id="circle89"/>
	<circle cx="831.277" cy="132.118" r="4" fill="#0" id="circle90"/>
	<circle cx="849.579" cy="410.317" r="4" fill="#0" id="circle91"/>
	<circle cx="856.9" cy="161.402" r="4" fill="#0" id="circle92"/>
	<circle cx="886.185" cy="187.026" r="4" fill="#0" id="circle93"/>
	<circle cx="886.185" cy="399.336" r="4" fill="#0" id="circle94"/>
	<circle cx="911.808" cy="216.31" r="4" fill="#0" id="circle95"/>
	<circle cx="922.79" cy="395.675" r="4" fill="#0" id="circle96"/>
	<circle cx="937.432" cy="245.594" r="4" fill="#0" id="circle97"/>
	<circle cx="959.395" cy="274.878" r="4" fill="#0" id="circle98"/>
	<circle cx="959.395" cy="410.317" r="4" fill="#0" id="circle99"/>
	<circle cx="981.358" cy="304.162" r="4" fill="#0" id="circle100"/>
	<circle cx="996" cy="340.768" r="4" fill="#0" id="circle101"/>
	<circle cx="996" cy="402.996" r="4" fill="#0" id="circle102"/>
	</g>
</svg>