<?xml version="1.0" encoding="UTF-8" standalone="no"?>
<!-- Created with CurveBenchmark -->
<svg
	xmlns:dc="http://purl.org/dc/elements/1.1/"
	xmlns:cc="http://creativecommons.org/ns#"
	xmlns:rdf="http://www.w3.org/1999/02/22-rdf-syntax-ns#"
	xmlns:svg="http://www.w3.org/2000/svg"
	xmlns="http://www.w3.org/2000/svg"
	xmlns:sodipodi="http://sodipodi.sourceforge.net/DTD/sodipodi-0.dtd"
	xmlns:inkscape="http://www.inkscape.org/namespaces/inkscape"
	width="1000"
	height="1000"
	id="svg2"
	version="1.1"
	sodipodi:docname="manifold/crawl-fgen1dp.png.txt">
<defs
	id="defs4" />
<metadata
	id="metadata7">
	<rdf:RDF>
		<cc:Work
			rdf:about="">
			<dc:format>image/svg+xml</dc:format>
			<dc:type
				rdf:resource="http://purl.org/dc/dcmitype/StillImage" />
			<dc:title></dc:title>
		</cc:Work>
	</rdf:RDF>
</metadata>
<g
	inkscape:label="Layer 1"
	inkscape:groupmode="layer"
	id="layer1">
	<path style="fill:none;stroke:red;stroke-width:1px;stroke-linecap:butt;stroke-linejoin:miter;stroke-opacity:1" d="M 4,255.384 4,274.721 z" id="boundary" inkscape:connector-curvature="0" />
	<path style="fill:none;stroke:red;stroke-width:1px;stroke-linecap:butt;stroke-linejoin:miter;stroke-opacity:1" d="M 4,274.721 23.3372,280.522 z" id="boundary" inkscape:connector-curvature="0" />
	<path style="fill:none;stroke:red;stroke-width:1px;stroke-linecap:butt;stroke-linejoin:miter;stroke-opacity:1" d="M 23.3372,280.522 42.6745,280.522 z" id="boundary" inkscape:connector-curvature="0" />
	<path style="fill:none;stroke:red;stroke-width:1px;stroke-linecap:butt;stroke-linejoin:miter;stroke-opacity:1" d="M 42.6745,280.522 62.0117,274.721 z" id="boundary" inkscape:connector-curvature="0" />
	<path style="fill:none;stroke:red;stroke-width:1px;stroke-linecap:butt;stroke-linejoin:miter;stroke-opacity:1" d="M 62.0117,274.721 81.3489,270.854 z" id="boundary" inkscape:connector-curvature="0" />
	<path style="fill:none;stroke:red;stroke-width:1px;stroke-linecap:butt;stroke-linejoin:miter;stroke-opacity:1" d="M 81.3489,270.854 98.7524,261.185 z" id="boundary" inkscape:connector-curvature="0" />
	<path style="fill:none;stroke:red;stroke-width:1px;stroke-linecap:butt;stroke-linejoin:miter;stroke-opacity:1" d="M 98.7524,261.185 118.09,257.318 z" id="boundary" inkscape:connector-curvature="0" />
	<path style="fill:none;stroke:red;stroke-width:1px;stroke-linecap:butt;stroke-linejoin:miter;stroke-opacity:1" d="M 118.09,257.318 131.626,241.848 z" id="boundary" inkscape:connector-curvature="0" />
	<path style="fill:none;stroke:red;stroke-width:1px;stroke-linecap:butt;stroke-linejoin:miter;stroke-opacity:1" d="M 131.626,241.848 150.963,241.848 z" id="boundary" inkscape:connector-curvature="0" />
	<path style="fill:none;stroke:red;stroke-width:1px;stroke-linecap:butt;stroke-linejoin:miter;stroke-opacity:1" d="M 150.963,241.848 168.366,232.179 z" id="boundary" inkscape:connector-curvature="0" />
	<path style="fill:none;stroke:red;stroke-width:1px;stroke-linecap:butt;stroke-linejoin:miter;stroke-opacity:1" d="M 168.366,232.179 179.969,247.649 z" id="boundary" inkscape:connector-curvature="0" />
	<path style="fill:none;stroke:red;stroke-width:1px;stroke-linecap:butt;stroke-linejoin:miter;stroke-opacity:1" d="M 179.969,247.649 189.637,265.053 z" id="boundary" inkscape:connector-curvature="0" />
	<path style="fill:none;stroke:red;stroke-width:1px;stroke-linecap:butt;stroke-linejoin:miter;stroke-opacity:1" d="M 189.637,265.053 197.372,284.39 z" id="boundary" inkscape:connector-curvature="0" />
	<path style="fill:none;stroke:red;stroke-width:1px;stroke-linecap:butt;stroke-linejoin:miter;stroke-opacity:1" d="M 197.372,284.39 207.041,301.793 z" id="boundary" inkscape:connector-curvature="0" />
	<path style="fill:none;stroke:red;stroke-width:1px;stroke-linecap:butt;stroke-linejoin:miter;stroke-opacity:1" d="M 4,255.384 13.6686,236.047 z" id="boundary" inkscape:connector-curvature="0" />
	<path style="fill:none;stroke:red;stroke-width:1px;stroke-linecap:butt;stroke-linejoin:miter;stroke-opacity:1" d="M 13.6686,236.047 29.1384,220.577 z" id="boundary" inkscape:connector-curvature="0" />
	<path style="fill:none;stroke:red;stroke-width:1px;stroke-linecap:butt;stroke-linejoin:miter;stroke-opacity:1" d="M 29.1384,220.577 44.6082,205.107 z" id="boundary" inkscape:connector-curvature="0" />
	<path style="fill:none;stroke:red;stroke-width:1px;stroke-linecap:butt;stroke-linejoin:miter;stroke-opacity:1" d="M 44.6082,205.107 63.9454,195.439 z" id="boundary" inkscape:connector-curvature="0" />
	<path style="fill:none;stroke:red;stroke-width:1px;stroke-linecap:butt;stroke-linejoin:miter;stroke-opacity:1" d="M 63.9454,195.439 83.2827,191.571 z" id="boundary" inkscape:connector-curvature="0" />
	<path style="fill:none;stroke:red;stroke-width:1px;stroke-linecap:butt;stroke-linejoin:miter;stroke-opacity:1" d="M 83.2827,191.571 100.686,181.903 z" id="boundary" inkscape:connector-curvature="0" />
	<path style="fill:none;stroke:red;stroke-width:1px;stroke-linecap:butt;stroke-linejoin:miter;stroke-opacity:1" d="M 100.686,181.903 120.023,181.903 z" id="boundary" inkscape:connector-curvature="0" />
	<path style="fill:none;stroke:red;stroke-width:1px;stroke-linecap:butt;stroke-linejoin:miter;stroke-opacity:1" d="M 120.023,181.903 137.427,172.234 z" id="boundary" inkscape:connector-curvature="0" />
	<path style="fill:none;stroke:red;stroke-width:1px;stroke-linecap:butt;stroke-linejoin:miter;stroke-opacity:1" d="M 137.427,172.234 156.764,172.234 z" id="boundary" inkscape:connector-curvature="0" />
	<path style="fill:none;stroke:red;stroke-width:1px;stroke-linecap:butt;stroke-linejoin:miter;stroke-opacity:1" d="M 156.764,172.234 170.3,156.764 z" id="boundary" inkscape:connector-curvature="0" />
	<path style="fill:none;stroke:red;stroke-width:1px;stroke-linecap:butt;stroke-linejoin:miter;stroke-opacity:1" d="M 170.3,156.764 189.637,147.096 z" id="boundary" inkscape:connector-curvature="0" />
	<path style="fill:none;stroke:red;stroke-width:1px;stroke-linecap:butt;stroke-linejoin:miter;stroke-opacity:1" d="M 189.637,147.096 197.372,120.023 z" id="boundary" inkscape:connector-curvature="0" />
	<path style="fill:none;stroke:red;stroke-width:1px;stroke-linecap:butt;stroke-linejoin:miter;stroke-opacity:1" d="M 197.372,120.023 212.842,104.554 z" id="boundary" inkscape:connector-curvature="0" />
	<path style="fill:none;stroke:red;stroke-width:1px;stroke-linecap:butt;stroke-linejoin:miter;stroke-opacity:1" d="M 212.842,104.554 222.511,85.2164 z" id="boundary" inkscape:connector-curvature="0" />
	<path style="fill:none;stroke:red;stroke-width:1px;stroke-linecap:butt;stroke-linejoin:miter;stroke-opacity:1" d="M 222.511,85.2164 237.981,69.7466 z" id="boundary" inkscape:connector-curvature="0" />
	<path style="fill:none;stroke:red;stroke-width:1px;stroke-linecap:butt;stroke-linejoin:miter;stroke-opacity:1" d="M 237.981,69.7466 253.45,56.2105 z" id="boundary" inkscape:connector-curvature="0" />
	<path style="fill:none;stroke:red;stroke-width:1px;stroke-linecap:butt;stroke-linejoin:miter;stroke-opacity:1" d="M 253.45,56.2105 270.854,46.5419 z" id="boundary" inkscape:connector-curvature="0" />
	<path style="fill:none;stroke:red;stroke-width:1px;stroke-linecap:butt;stroke-linejoin:miter;stroke-opacity:1" d="M 270.854,46.5419 290.191,36.8733 z" id="boundary" inkscape:connector-curvature="0" />
	<path style="fill:none;stroke:red;stroke-width:1px;stroke-linecap:butt;stroke-linejoin:miter;stroke-opacity:1" d="M 290.191,36.8733 307.595,27.2047 z" id="boundary" inkscape:connector-curvature="0" />
	<path style="fill:none;stroke:red;stroke-width:1px;stroke-linecap:butt;stroke-linejoin:miter;stroke-opacity:1" d="M 307.595,27.2047 324.998,17.5361 z" id="boundary" inkscape:connector-curvature="0" />
	<path style="fill:none;stroke:red;stroke-width:1px;stroke-linecap:butt;stroke-linejoin:miter;stroke-opacity:1" d="M 324.998,17.5361 344.335,17.5361 z" id="boundary" inkscape:connector-curvature="0" />
	<path style="fill:none;stroke:red;stroke-width:1px;stroke-linecap:butt;stroke-linejoin:miter;stroke-opacity:1" d="M 344.335,17.5361 361.739,7.86745 z" id="boundary" inkscape:connector-curvature="0" />
	<path style="fill:none;stroke:red;stroke-width:1px;stroke-linecap:butt;stroke-linejoin:miter;stroke-opacity:1" d="M 361.739,7.86745 381.076,7.86745 z" id="boundary" inkscape:connector-curvature="0" />
	<path style="fill:none;stroke:red;stroke-width:1px;stroke-linecap:butt;stroke-linejoin:miter;stroke-opacity:1" d="M 381.076,7.86745 400.413,4 z" id="boundary" inkscape:connector-curvature="0" />
	<path style="fill:none;stroke:red;stroke-width:1px;stroke-linecap:butt;stroke-linejoin:miter;stroke-opacity:1" d="M 400.413,4 419.75,7.86745 z" id="boundary" inkscape:connector-curvature="0" />
	<path style="fill:none;stroke:red;stroke-width:1px;stroke-linecap:butt;stroke-linejoin:miter;stroke-opacity:1" d="M 419.75,7.86745 439.088,11.7349 z" id="boundary" inkscape:connector-curvature="0" />
	<path style="fill:none;stroke:red;stroke-width:1px;stroke-linecap:butt;stroke-linejoin:miter;stroke-opacity:1" d="M 439.088,11.7349 458.425,11.7349 z" id="boundary" inkscape:connector-curvature="0" />
	<path style="fill:none;stroke:red;stroke-width:1px;stroke-linecap:butt;stroke-linejoin:miter;stroke-opacity:1" d="M 458.425,11.7349 477.762,17.5361 z" id="boundary" inkscape:connector-curvature="0" />
	<path style="fill:none;stroke:red;stroke-width:1px;stroke-linecap:butt;stroke-linejoin:miter;stroke-opacity:1" d="M 477.762,17.5361 495.166,27.2047 z" id="boundary" inkscape:connector-curvature="0" />
	<path style="fill:none;stroke:red;stroke-width:1px;stroke-linecap:butt;stroke-linejoin:miter;stroke-opacity:1" d="M 495.166,27.2047 512.569,36.8733 z" id="boundary" inkscape:connector-curvature="0" />
	<path style="fill:none;stroke:red;stroke-width:1px;stroke-linecap:butt;stroke-linejoin:miter;stroke-opacity:1" d="M 512.569,36.8733 529.973,46.5419 z" id="boundary" inkscape:connector-curvature="0" />
	<path style="fill:none;stroke:red;stroke-width:1px;stroke-linecap:butt;stroke-linejoin:miter;stroke-opacity:1" d="M 529.973,46.5419 547.376,56.2105 z" id="boundary" inkscape:connector-curvature="0" />
	<path style="fill:none;stroke:red;stroke-width:1px;stroke-linecap:butt;stroke-linejoin:miter;stroke-opacity:1" d="M 547.376,56.2105 562.846,67.8129 z" id="boundary" inkscape:connector-curvature="0" />
	<path style="fill:none;stroke:red;stroke-width:1px;stroke-linecap:butt;stroke-linejoin:miter;stroke-opacity:1" d="M 562.846,67.8129 576.382,83.2827 z" id="boundary" inkscape:connector-curvature="0" />
	<path style="fill:none;stroke:red;stroke-width:1px;stroke-linecap:butt;stroke-linejoin:miter;stroke-opacity:1" d="M 576.382,83.2827 586.051,100.686 z" id="boundary" inkscape:connector-curvature="0" />
	<path style="fill:none;stroke:red;stroke-width:1px;stroke-linecap:butt;stroke-linejoin:miter;stroke-opacity:1" d="M 586.051,100.686 599.587,116.156 z" id="boundary" inkscape:connector-curvature="0" />
	<path style="fill:none;stroke:red;stroke-width:1px;stroke-linecap:butt;stroke-linejoin:miter;stroke-opacity:1" d="M 599.587,116.156 609.255,133.559 z" id="boundary" inkscape:connector-curvature="0" />
	<path style="fill:none;stroke:red;stroke-width:1px;stroke-linecap:butt;stroke-linejoin:miter;stroke-opacity:1" d="M 609.255,133.559 615.057,152.897 z" id="boundary" inkscape:connector-curvature="0" />
	<path style="fill:none;stroke:red;stroke-width:1px;stroke-linecap:butt;stroke-linejoin:miter;stroke-opacity:1" d="M 615.057,152.897 615.057,172.234 z" id="boundary" inkscape:connector-curvature="0" />
	<path style="fill:none;stroke:red;stroke-width:1px;stroke-linecap:butt;stroke-linejoin:miter;stroke-opacity:1" d="M 615.057,172.234 630.526,183.836 z" id="boundary" inkscape:connector-curvature="0" />
	<path style="fill:none;stroke:red;stroke-width:1px;stroke-linecap:butt;stroke-linejoin:miter;stroke-opacity:1" d="M 630.526,183.836 644.062,199.306 z" id="boundary" inkscape:connector-curvature="0" />
	<path style="fill:none;stroke:red;stroke-width:1px;stroke-linecap:butt;stroke-linejoin:miter;stroke-opacity:1" d="M 644.062,199.306 659.532,212.842 z" id="boundary" inkscape:connector-curvature="0" />
	<path style="fill:none;stroke:red;stroke-width:1px;stroke-linecap:butt;stroke-linejoin:miter;stroke-opacity:1" d="M 659.532,212.842 667.267,232.179 z" id="boundary" inkscape:connector-curvature="0" />
	<path style="fill:none;stroke:red;stroke-width:1px;stroke-linecap:butt;stroke-linejoin:miter;stroke-opacity:1" d="M 667.267,232.179 682.737,245.715 z" id="boundary" inkscape:connector-curvature="0" />
	<path style="fill:none;stroke:red;stroke-width:1px;stroke-linecap:butt;stroke-linejoin:miter;stroke-opacity:1" d="M 682.737,245.715 696.273,261.185 z" id="boundary" inkscape:connector-curvature="0" />
	<path style="fill:none;stroke:red;stroke-width:1px;stroke-linecap:butt;stroke-linejoin:miter;stroke-opacity:1" d="M 696.273,261.185 711.743,274.721 z" id="boundary" inkscape:connector-curvature="0" />
	<path style="fill:none;stroke:red;stroke-width:1px;stroke-linecap:butt;stroke-linejoin:miter;stroke-opacity:1" d="M 711.743,274.721 729.146,284.39 z" id="boundary" inkscape:connector-curvature="0" />
	<path style="fill:none;stroke:red;stroke-width:1px;stroke-linecap:butt;stroke-linejoin:miter;stroke-opacity:1" d="M 729.146,284.39 744.616,297.926 z" id="boundary" inkscape:connector-curvature="0" />
	<path style="fill:none;stroke:red;stroke-width:1px;stroke-linecap:butt;stroke-linejoin:miter;stroke-opacity:1" d="M 744.616,297.926 762.019,307.595 z" id="boundary" inkscape:connector-curvature="0" />
	<path style="fill:none;stroke:red;stroke-width:1px;stroke-linecap:butt;stroke-linejoin:miter;stroke-opacity:1" d="M 762.019,307.595 779.423,317.263 z" id="boundary" inkscape:connector-curvature="0" />
	<path style="fill:none;stroke:red;stroke-width:1px;stroke-linecap:butt;stroke-linejoin:miter;stroke-opacity:1" d="M 779.423,317.263 796.827,326.932 z" id="boundary" inkscape:connector-curvature="0" />
	<path style="fill:none;stroke:red;stroke-width:1px;stroke-linecap:butt;stroke-linejoin:miter;stroke-opacity:1" d="M 796.827,326.932 814.23,336.6 z" id="boundary" inkscape:connector-curvature="0" />
	<path style="fill:none;stroke:red;stroke-width:1px;stroke-linecap:butt;stroke-linejoin:miter;stroke-opacity:1" d="M 814.23,336.6 831.634,346.269 z" id="boundary" inkscape:connector-curvature="0" />
	<path style="fill:none;stroke:red;stroke-width:1px;stroke-linecap:butt;stroke-linejoin:miter;stroke-opacity:1" d="M 831.634,346.269 845.17,361.739 z" id="boundary" inkscape:connector-curvature="0" />
	<path style="fill:none;stroke:red;stroke-width:1px;stroke-linecap:butt;stroke-linejoin:miter;stroke-opacity:1" d="M 845.17,361.739 860.639,375.275 z" id="boundary" inkscape:connector-curvature="0" />
	<path style="fill:none;stroke:red;stroke-width:1px;stroke-linecap:butt;stroke-linejoin:miter;stroke-opacity:1" d="M 860.639,375.275 874.175,390.745 z" id="boundary" inkscape:connector-curvature="0" />
	<path style="fill:none;stroke:red;stroke-width:1px;stroke-linecap:butt;stroke-linejoin:miter;stroke-opacity:1" d="M 874.175,390.745 883.844,408.148 z" id="boundary" inkscape:connector-curvature="0" />
	<path style="fill:none;stroke:red;stroke-width:1px;stroke-linecap:butt;stroke-linejoin:miter;stroke-opacity:1" d="M 883.844,408.148 885.778,427.485 z" id="boundary" inkscape:connector-curvature="0" />
	<path style="fill:none;stroke:red;stroke-width:1px;stroke-linecap:butt;stroke-linejoin:miter;stroke-opacity:1" d="M 885.778,427.485 876.109,444.889 z" id="boundary" inkscape:connector-curvature="0" />
	<path style="fill:none;stroke:red;stroke-width:1px;stroke-linecap:butt;stroke-linejoin:miter;stroke-opacity:1" d="M 876.109,444.889 864.507,468.094 z" id="boundary" inkscape:connector-curvature="0" />
	<path style="fill:none;stroke:red;stroke-width:1px;stroke-linecap:butt;stroke-linejoin:miter;stroke-opacity:1" d="M 864.507,468.094 849.037,479.696 z" id="boundary" inkscape:connector-curvature="0" />
	<path style="fill:none;stroke:red;stroke-width:1px;stroke-linecap:butt;stroke-linejoin:miter;stroke-opacity:1" d="M 849.037,479.696 829.7,473.895 z" id="boundary" inkscape:connector-curvature="0" />
	<path style="fill:none;stroke:red;stroke-width:1px;stroke-linecap:butt;stroke-linejoin:miter;stroke-opacity:1" d="M 829.7,473.895 810.363,471.961 z" id="boundary" inkscape:connector-curvature="0" />
	<path style="fill:none;stroke:red;stroke-width:1px;stroke-linecap:butt;stroke-linejoin:miter;stroke-opacity:1" d="M 810.363,471.961 796.827,456.491 z" id="boundary" inkscape:connector-curvature="0" />
	<path style="fill:none;stroke:red;stroke-width:1px;stroke-linecap:butt;stroke-linejoin:miter;stroke-opacity:1" d="M 796.827,456.491 781.357,444.889 z" id="boundary" inkscape:connector-curvature="0" />
	<path style="fill:none;stroke:red;stroke-width:1px;stroke-linecap:butt;stroke-linejoin:miter;stroke-opacity:1" d="M 781.357,444.889 763.953,435.22 z" id="boundary" inkscape:connector-curvature="0" />
	<path style="fill:none;stroke:red;stroke-width:1px;stroke-linecap:butt;stroke-linejoin:miter;stroke-opacity:1" d="M 763.953,435.22 750.417,419.75 z" id="boundary" inkscape:connector-curvature="0" />
	<path style="fill:none;stroke:red;stroke-width:1px;stroke-linecap:butt;stroke-linejoin:miter;stroke-opacity:1" d="M 750.417,419.75 734.947,406.214 z" id="boundary" inkscape:connector-curvature="0" />
	<path style="fill:none;stroke:red;stroke-width:1px;stroke-linecap:butt;stroke-linejoin:miter;stroke-opacity:1" d="M 734.947,406.214 719.478,392.678 z" id="boundary" inkscape:connector-curvature="0" />
	<path style="fill:none;stroke:red;stroke-width:1px;stroke-linecap:butt;stroke-linejoin:miter;stroke-opacity:1" d="M 719.478,392.678 702.074,383.01 z" id="boundary" inkscape:connector-curvature="0" />
	<path style="fill:none;stroke:red;stroke-width:1px;stroke-linecap:butt;stroke-linejoin:miter;stroke-opacity:1" d="M 702.074,383.01 690.472,367.54 z" id="boundary" inkscape:connector-curvature="0" />
	<path style="fill:none;stroke:red;stroke-width:1px;stroke-linecap:butt;stroke-linejoin:miter;stroke-opacity:1" d="M 690.472,367.54 675.002,354.004 z" id="boundary" inkscape:connector-curvature="0" />
	<path style="fill:none;stroke:red;stroke-width:1px;stroke-linecap:butt;stroke-linejoin:miter;stroke-opacity:1" d="M 675.002,354.004 655.665,346.269 z" id="boundary" inkscape:connector-curvature="0" />
	<path style="fill:none;stroke:red;stroke-width:1px;stroke-linecap:butt;stroke-linejoin:miter;stroke-opacity:1" d="M 655.665,346.269 645.996,328.865 z" id="boundary" inkscape:connector-curvature="0" />
	<path style="fill:none;stroke:red;stroke-width:1px;stroke-linecap:butt;stroke-linejoin:miter;stroke-opacity:1" d="M 645.996,328.865 626.659,324.998 z" id="boundary" inkscape:connector-curvature="0" />
	<path style="fill:none;stroke:red;stroke-width:1px;stroke-linecap:butt;stroke-linejoin:miter;stroke-opacity:1" d="M 626.659,324.998 615.057,309.528 z" id="boundary" inkscape:connector-curvature="0" />
	<path style="fill:none;stroke:red;stroke-width:1px;stroke-linecap:butt;stroke-linejoin:miter;stroke-opacity:1" d="M 615.057,309.528 595.719,309.528 z" id="boundary" inkscape:connector-curvature="0" />
	<path style="fill:none;stroke:red;stroke-width:1px;stroke-linecap:butt;stroke-linejoin:miter;stroke-opacity:1" d="M 595.719,309.528 586.051,328.865 z" id="boundary" inkscape:connector-curvature="0" />
	<path style="fill:none;stroke:red;stroke-width:1px;stroke-linecap:butt;stroke-linejoin:miter;stroke-opacity:1" d="M 586.051,328.865 576.382,348.203 z" id="boundary" inkscape:connector-curvature="0" />
	<path style="fill:none;stroke:red;stroke-width:1px;stroke-linecap:butt;stroke-linejoin:miter;stroke-opacity:1" d="M 576.382,348.203 586.051,365.606 z" id="boundary" inkscape:connector-curvature="0" />
	<path style="fill:none;stroke:red;stroke-width:1px;stroke-linecap:butt;stroke-linejoin:miter;stroke-opacity:1" d="M 586.051,365.606 595.719,383.01 z" id="boundary" inkscape:connector-curvature="0" />
	<path style="fill:none;stroke:red;stroke-width:1px;stroke-linecap:butt;stroke-linejoin:miter;stroke-opacity:1" d="M 595.719,383.01 611.189,396.546 z" id="boundary" inkscape:connector-curvature="0" />
	<path style="fill:none;stroke:red;stroke-width:1px;stroke-linecap:butt;stroke-linejoin:miter;stroke-opacity:1" d="M 611.189,396.546 615.057,415.883 z" id="boundary" inkscape:connector-curvature="0" />
	<path style="fill:none;stroke:red;stroke-width:1px;stroke-linecap:butt;stroke-linejoin:miter;stroke-opacity:1" d="M 615.057,415.883 624.725,433.287 z" id="boundary" inkscape:connector-curvature="0" />
	<path style="fill:none;stroke:red;stroke-width:1px;stroke-linecap:butt;stroke-linejoin:miter;stroke-opacity:1" d="M 624.725,433.287 634.394,450.69 z" id="boundary" inkscape:connector-curvature="0" />
	<path style="fill:none;stroke:red;stroke-width:1px;stroke-linecap:butt;stroke-linejoin:miter;stroke-opacity:1" d="M 634.394,450.69 634.394,470.027 z" id="boundary" inkscape:connector-curvature="0" />
	<path style="fill:none;stroke:red;stroke-width:1px;stroke-linecap:butt;stroke-linejoin:miter;stroke-opacity:1" d="M 634.394,470.027 644.062,487.431 z" id="boundary" inkscape:connector-curvature="0" />
	<path style="fill:none;stroke:red;stroke-width:1px;stroke-linecap:butt;stroke-linejoin:miter;stroke-opacity:1" d="M 644.062,487.431 651.797,506.768 z" id="boundary" inkscape:connector-curvature="0" />
	<path style="fill:none;stroke:red;stroke-width:1px;stroke-linecap:butt;stroke-linejoin:miter;stroke-opacity:1" d="M 651.797,506.768 653.731,526.105 z" id="boundary" inkscape:connector-curvature="0" />
	<path style="fill:none;stroke:red;stroke-width:1px;stroke-linecap:butt;stroke-linejoin:miter;stroke-opacity:1" d="M 653.731,526.105 653.731,545.442 z" id="boundary" inkscape:connector-curvature="0" />
	<path style="fill:none;stroke:red;stroke-width:1px;stroke-linecap:butt;stroke-linejoin:miter;stroke-opacity:1" d="M 207.041,301.793 197.372,332.733 z" id="boundary" inkscape:connector-curvature="0" />
	<path style="fill:none;stroke:red;stroke-width:1px;stroke-linecap:butt;stroke-linejoin:miter;stroke-opacity:1" d="M 197.372,332.733 187.704,352.07 z" id="boundary" inkscape:connector-curvature="0" />
	<path style="fill:none;stroke:red;stroke-width:1px;stroke-linecap:butt;stroke-linejoin:miter;stroke-opacity:1" d="M 187.704,352.07 178.035,371.407 z" id="boundary" inkscape:connector-curvature="0" />
	<path style="fill:none;stroke:red;stroke-width:1px;stroke-linecap:butt;stroke-linejoin:miter;stroke-opacity:1" d="M 178.035,371.407 178.035,390.745 z" id="boundary" inkscape:connector-curvature="0" />
	<path style="fill:none;stroke:red;stroke-width:1px;stroke-linecap:butt;stroke-linejoin:miter;stroke-opacity:1" d="M 178.035,390.745 178.035,410.082 z" id="boundary" inkscape:connector-curvature="0" />
	<path style="fill:none;stroke:red;stroke-width:1px;stroke-linecap:butt;stroke-linejoin:miter;stroke-opacity:1" d="M 178.035,410.082 178.035,429.419 z" id="boundary" inkscape:connector-curvature="0" />
	<path style="fill:none;stroke:red;stroke-width:1px;stroke-linecap:butt;stroke-linejoin:miter;stroke-opacity:1" d="M 178.035,429.419 168.366,448.756 z" id="boundary" inkscape:connector-curvature="0" />
	<path style="fill:none;stroke:red;stroke-width:1px;stroke-linecap:butt;stroke-linejoin:miter;stroke-opacity:1" d="M 168.366,448.756 158.698,468.094 z" id="boundary" inkscape:connector-curvature="0" />
	<path style="fill:none;stroke:red;stroke-width:1px;stroke-linecap:butt;stroke-linejoin:miter;stroke-opacity:1" d="M 158.698,468.094 158.698,487.431 z" id="boundary" inkscape:connector-curvature="0" />
	<path style="fill:none;stroke:red;stroke-width:1px;stroke-linecap:butt;stroke-linejoin:miter;stroke-opacity:1" d="M 158.698,487.431 149.029,506.768 z" id="boundary" inkscape:connector-curvature="0" />
	<path style="fill:none;stroke:red;stroke-width:1px;stroke-linecap:butt;stroke-linejoin:miter;stroke-opacity:1" d="M 149.029,506.768 139.361,535.774 z" id="boundary" inkscape:connector-curvature="0" />
	<path style="fill:none;stroke:red;stroke-width:1px;stroke-linecap:butt;stroke-linejoin:miter;stroke-opacity:1" d="M 139.361,535.774 139.361,555.111 z" id="boundary" inkscape:connector-curvature="0" />
	<path style="fill:none;stroke:red;stroke-width:1px;stroke-linecap:butt;stroke-linejoin:miter;stroke-opacity:1" d="M 139.361,555.111 139.361,574.448 z" id="boundary" inkscape:connector-curvature="0" />
	<path style="fill:none;stroke:red;stroke-width:1px;stroke-linecap:butt;stroke-linejoin:miter;stroke-opacity:1" d="M 139.361,574.448 139.361,593.786 z" id="boundary" inkscape:connector-curvature="0" />
	<path style="fill:none;stroke:red;stroke-width:1px;stroke-linecap:butt;stroke-linejoin:miter;stroke-opacity:1" d="M 139.361,593.786 139.361,613.123 z" id="boundary" inkscape:connector-curvature="0" />
	<path style="fill:none;stroke:red;stroke-width:1px;stroke-linecap:butt;stroke-linejoin:miter;stroke-opacity:1" d="M 139.361,613.123 145.162,636.327 z" id="boundary" inkscape:connector-curvature="0" />
	<path style="fill:none;stroke:red;stroke-width:1px;stroke-linecap:butt;stroke-linejoin:miter;stroke-opacity:1" d="M 145.162,636.327 135.493,655.665 z" id="boundary" inkscape:connector-curvature="0" />
	<path style="fill:none;stroke:red;stroke-width:1px;stroke-linecap:butt;stroke-linejoin:miter;stroke-opacity:1" d="M 135.493,655.665 120.023,671.135 z" id="boundary" inkscape:connector-curvature="0" />
	<path style="fill:none;stroke:red;stroke-width:1px;stroke-linecap:butt;stroke-linejoin:miter;stroke-opacity:1" d="M 120.023,671.135 120.023,690.472 z" id="boundary" inkscape:connector-curvature="0" />
	<path style="fill:none;stroke:red;stroke-width:1px;stroke-linecap:butt;stroke-linejoin:miter;stroke-opacity:1" d="M 120.023,690.472 110.355,709.809 z" id="boundary" inkscape:connector-curvature="0" />
	<path style="fill:none;stroke:red;stroke-width:1px;stroke-linecap:butt;stroke-linejoin:miter;stroke-opacity:1" d="M 110.355,709.809 100.686,729.146 z" id="boundary" inkscape:connector-curvature="0" />
	<path style="fill:none;stroke:red;stroke-width:1px;stroke-linecap:butt;stroke-linejoin:miter;stroke-opacity:1" d="M 100.686,729.146 91.0175,748.483 z" id="boundary" inkscape:connector-curvature="0" />
	<path style="fill:none;stroke:red;stroke-width:1px;stroke-linecap:butt;stroke-linejoin:miter;stroke-opacity:1" d="M 91.0175,748.483 91.0175,767.821 z" id="boundary" inkscape:connector-curvature="0" />
	<path style="fill:none;stroke:red;stroke-width:1px;stroke-linecap:butt;stroke-linejoin:miter;stroke-opacity:1" d="M 91.0175,767.821 91.0175,787.158 z" id="boundary" inkscape:connector-curvature="0" />
	<path style="fill:none;stroke:red;stroke-width:1px;stroke-linecap:butt;stroke-linejoin:miter;stroke-opacity:1" d="M 91.0175,787.158 91.0175,806.495 z" id="boundary" inkscape:connector-curvature="0" />
	<path style="fill:none;stroke:red;stroke-width:1px;stroke-linecap:butt;stroke-linejoin:miter;stroke-opacity:1" d="M 91.0175,806.495 110.355,812.296 z" id="boundary" inkscape:connector-curvature="0" />
	<path style="fill:none;stroke:red;stroke-width:1px;stroke-linecap:butt;stroke-linejoin:miter;stroke-opacity:1" d="M 110.355,812.296 125.825,800.694 z" id="boundary" inkscape:connector-curvature="0" />
	<path style="fill:none;stroke:red;stroke-width:1px;stroke-linecap:butt;stroke-linejoin:miter;stroke-opacity:1" d="M 125.825,800.694 145.162,791.025 z" id="boundary" inkscape:connector-curvature="0" />
	<path style="fill:none;stroke:red;stroke-width:1px;stroke-linecap:butt;stroke-linejoin:miter;stroke-opacity:1" d="M 145.162,791.025 160.632,773.622 z" id="boundary" inkscape:connector-curvature="0" />
	<path style="fill:none;stroke:red;stroke-width:1px;stroke-linecap:butt;stroke-linejoin:miter;stroke-opacity:1" d="M 160.632,773.622 179.969,773.622 z" id="boundary" inkscape:connector-curvature="0" />
	<path style="fill:none;stroke:red;stroke-width:1px;stroke-linecap:butt;stroke-linejoin:miter;stroke-opacity:1" d="M 179.969,773.622 197.372,763.953 z" id="boundary" inkscape:connector-curvature="0" />
	<path style="fill:none;stroke:red;stroke-width:1px;stroke-linecap:butt;stroke-linejoin:miter;stroke-opacity:1" d="M 197.372,763.953 203.173,783.29 z" id="boundary" inkscape:connector-curvature="0" />
	<path style="fill:none;stroke:red;stroke-width:1px;stroke-linecap:butt;stroke-linejoin:miter;stroke-opacity:1" d="M 203.173,783.29 207.041,802.628 z" id="boundary" inkscape:connector-curvature="0" />
	<path style="fill:none;stroke:red;stroke-width:1px;stroke-linecap:butt;stroke-linejoin:miter;stroke-opacity:1" d="M 207.041,802.628 216.71,820.031 z" id="boundary" inkscape:connector-curvature="0" />
	<path style="fill:none;stroke:red;stroke-width:1px;stroke-linecap:butt;stroke-linejoin:miter;stroke-opacity:1" d="M 216.71,820.031 216.71,845.17 z" id="boundary" inkscape:connector-curvature="0" />
	<path style="fill:none;stroke:red;stroke-width:1px;stroke-linecap:butt;stroke-linejoin:miter;stroke-opacity:1" d="M 216.71,845.17 232.179,858.706 z" id="boundary" inkscape:connector-curvature="0" />
	<path style="fill:none;stroke:red;stroke-width:1px;stroke-linecap:butt;stroke-linejoin:miter;stroke-opacity:1" d="M 653.731,545.442 653.731,580.25 z" id="boundary" inkscape:connector-curvature="0" />
	<path style="fill:none;stroke:red;stroke-width:1px;stroke-linecap:butt;stroke-linejoin:miter;stroke-opacity:1" d="M 653.731,580.25 653.731,599.587 z" id="boundary" inkscape:connector-curvature="0" />
	<path style="fill:none;stroke:red;stroke-width:1px;stroke-linecap:butt;stroke-linejoin:miter;stroke-opacity:1" d="M 653.731,599.587 653.731,618.924 z" id="boundary" inkscape:connector-curvature="0" />
	<path style="fill:none;stroke:red;stroke-width:1px;stroke-linecap:butt;stroke-linejoin:miter;stroke-opacity:1" d="M 653.731,618.924 644.062,638.261 z" id="boundary" inkscape:connector-curvature="0" />
	<path style="fill:none;stroke:red;stroke-width:1px;stroke-linecap:butt;stroke-linejoin:miter;stroke-opacity:1" d="M 644.062,638.261 644.062,657.598 z" id="boundary" inkscape:connector-curvature="0" />
	<path style="fill:none;stroke:red;stroke-width:1px;stroke-linecap:butt;stroke-linejoin:miter;stroke-opacity:1" d="M 644.062,657.598 634.394,676.936 z" id="boundary" inkscape:connector-curvature="0" />
	<path style="fill:none;stroke:red;stroke-width:1px;stroke-linecap:butt;stroke-linejoin:miter;stroke-opacity:1" d="M 634.394,676.936 624.725,705.942 z" id="boundary" inkscape:connector-curvature="0" />
	<path style="fill:none;stroke:red;stroke-width:1px;stroke-linecap:butt;stroke-linejoin:miter;stroke-opacity:1" d="M 624.725,705.942 615.057,734.947 z" id="boundary" inkscape:connector-curvature="0" />
	<path style="fill:none;stroke:red;stroke-width:1px;stroke-linecap:butt;stroke-linejoin:miter;stroke-opacity:1" d="M 615.057,734.947 605.388,754.285 z" id="boundary" inkscape:connector-curvature="0" />
	<path style="fill:none;stroke:red;stroke-width:1px;stroke-linecap:butt;stroke-linejoin:miter;stroke-opacity:1" d="M 605.388,754.285 595.719,783.29 z" id="boundary" inkscape:connector-curvature="0" />
	<path style="fill:none;stroke:red;stroke-width:1px;stroke-linecap:butt;stroke-linejoin:miter;stroke-opacity:1" d="M 595.719,783.29 586.051,812.296 z" id="boundary" inkscape:connector-curvature="0" />
	<path style="fill:none;stroke:red;stroke-width:1px;stroke-linecap:butt;stroke-linejoin:miter;stroke-opacity:1" d="M 586.051,812.296 576.382,831.634 z" id="boundary" inkscape:connector-curvature="0" />
	<path style="fill:none;stroke:red;stroke-width:1px;stroke-linecap:butt;stroke-linejoin:miter;stroke-opacity:1" d="M 576.382,831.634 566.713,850.971 z" id="boundary" inkscape:connector-curvature="0" />
	<path style="fill:none;stroke:red;stroke-width:1px;stroke-linecap:butt;stroke-linejoin:miter;stroke-opacity:1" d="M 566.713,850.971 557.045,879.977 z" id="boundary" inkscape:connector-curvature="0" />
	<path style="fill:none;stroke:red;stroke-width:1px;stroke-linecap:butt;stroke-linejoin:miter;stroke-opacity:1" d="M 557.045,879.977 547.376,908.982 z" id="boundary" inkscape:connector-curvature="0" />
	<path style="fill:none;stroke:red;stroke-width:1px;stroke-linecap:butt;stroke-linejoin:miter;stroke-opacity:1" d="M 547.376,908.982 547.376,928.32 z" id="boundary" inkscape:connector-curvature="0" />
	<path style="fill:none;stroke:red;stroke-width:1px;stroke-linecap:butt;stroke-linejoin:miter;stroke-opacity:1" d="M 547.376,928.32 533.84,943.789 z" id="boundary" inkscape:connector-curvature="0" />
	<path style="fill:none;stroke:red;stroke-width:1px;stroke-linecap:butt;stroke-linejoin:miter;stroke-opacity:1" d="M 533.84,943.789 518.37,957.326 z" id="boundary" inkscape:connector-curvature="0" />
	<path style="fill:none;stroke:red;stroke-width:1px;stroke-linecap:butt;stroke-linejoin:miter;stroke-opacity:1" d="M 518.37,957.326 499.033,966.994 z" id="boundary" inkscape:connector-curvature="0" />
	<path style="fill:none;stroke:red;stroke-width:1px;stroke-linecap:butt;stroke-linejoin:miter;stroke-opacity:1" d="M 499.033,966.994 481.63,976.663 z" id="boundary" inkscape:connector-curvature="0" />
	<path style="fill:none;stroke:red;stroke-width:1px;stroke-linecap:butt;stroke-linejoin:miter;stroke-opacity:1" d="M 481.63,976.663 464.226,986.331 z" id="boundary" inkscape:connector-curvature="0" />
	<path style="fill:none;stroke:red;stroke-width:1px;stroke-linecap:butt;stroke-linejoin:miter;stroke-opacity:1" d="M 464.226,986.331 444.889,994.066 z" id="boundary" inkscape:connector-curvature="0" />
	<path style="fill:none;stroke:red;stroke-width:1px;stroke-linecap:butt;stroke-linejoin:miter;stroke-opacity:1" d="M 444.889,994.066 425.552,994.066 z" id="boundary" inkscape:connector-curvature="0" />
	<path style="fill:none;stroke:red;stroke-width:1px;stroke-linecap:butt;stroke-linejoin:miter;stroke-opacity:1" d="M 425.552,994.066 406.214,996 z" id="boundary" inkscape:connector-curvature="0" />
	<path style="fill:none;stroke:red;stroke-width:1px;stroke-linecap:butt;stroke-linejoin:miter;stroke-opacity:1" d="M 406.214,996 386.877,996 z" id="boundary" inkscape:connector-curvature="0" />
	<path style="fill:none;stroke:red;stroke-width:1px;stroke-linecap:butt;stroke-linejoin:miter;stroke-opacity:1" d="M 386.877,996 367.54,994.066 z" id="boundary" inkscape:connector-curvature="0" />
	<path style="fill:none;stroke:red;stroke-width:1px;stroke-linecap:butt;stroke-linejoin:miter;stroke-opacity:1" d="M 367.54,994.066 348.203,996 z" id="boundary" inkscape:connector-curvature="0" />
	<path style="fill:none;stroke:red;stroke-width:1px;stroke-linecap:butt;stroke-linejoin:miter;stroke-opacity:1" d="M 348.203,996 330.799,986.331 z" id="boundary" inkscape:connector-curvature="0" />
	<path style="fill:none;stroke:red;stroke-width:1px;stroke-linecap:butt;stroke-linejoin:miter;stroke-opacity:1" d="M 330.799,986.331 313.396,976.663 z" id="boundary" inkscape:connector-curvature="0" />
	<path style="fill:none;stroke:red;stroke-width:1px;stroke-linecap:butt;stroke-linejoin:miter;stroke-opacity:1" d="M 313.396,976.663 294.058,970.862 z" id="boundary" inkscape:connector-curvature="0" />
	<path style="fill:none;stroke:red;stroke-width:1px;stroke-linecap:butt;stroke-linejoin:miter;stroke-opacity:1" d="M 294.058,970.862 276.655,961.193 z" id="boundary" inkscape:connector-curvature="0" />
	<path style="fill:none;stroke:red;stroke-width:1px;stroke-linecap:butt;stroke-linejoin:miter;stroke-opacity:1" d="M 276.655,961.193 261.185,947.657 z" id="boundary" inkscape:connector-curvature="0" />
	<path style="fill:none;stroke:red;stroke-width:1px;stroke-linecap:butt;stroke-linejoin:miter;stroke-opacity:1" d="M 261.185,947.657 255.384,928.32 z" id="boundary" inkscape:connector-curvature="0" />
	<path style="fill:none;stroke:red;stroke-width:1px;stroke-linecap:butt;stroke-linejoin:miter;stroke-opacity:1" d="M 255.384,928.32 245.715,910.916 z" id="boundary" inkscape:connector-curvature="0" />
	<path style="fill:none;stroke:red;stroke-width:1px;stroke-linecap:butt;stroke-linejoin:miter;stroke-opacity:1" d="M 245.715,910.916 236.047,893.513 z" id="boundary" inkscape:connector-curvature="0" />
	<path style="fill:none;stroke:red;stroke-width:1px;stroke-linecap:butt;stroke-linejoin:miter;stroke-opacity:1" d="M 236.047,893.513 232.179,858.706 z" id="boundary" inkscape:connector-curvature="0" />
	<circle cx="4" cy="255.384" r="4" fill="#0" id="circle0"/>
	<circle cx="4" cy="274.721" r="4" fill="#0" id="circle1"/>
	<circle cx="13.6686" cy="236.047" r="4" fill="#0" id="circle2"/>
	<circle cx="23.3372" cy="280.522" r="4" fill="#0" id="circle3"/>
	<circle cx="29.1384" cy="220.577" r="4" fill="#0" id="circle4"/>
	<circle cx="42.6745" cy="280.522" r="4" fill="#0" id="circle5"/>
	<circle cx="44.6082" cy="205.107" r="4" fill="#0" id="circle6"/>
	<circle cx="62.0117" cy="274.721" r="4" fill="#0" id="circle7"/>
	<circle cx="63.9454" cy="195.439" r="4" fill="#0" id="circle8"/>
	<circle cx="81.3489" cy="270.854" r="4" fill="#0" id="circle9"/>
	<circle cx="83.2827" cy="191.571" r="4" fill="#0" id="circle10"/>
	<circle cx="91.0175" cy="748.483" r="4" fill="#0" id="circle11"/>
	<circle cx="91.0175" cy="767.821" r="4" fill="#0" id="circle12"/>
	<circle cx="91.0175" cy="787.158" r="4" fill="#0" id="circle13"/>
	<circle cx="91.0175" cy="806.495" r="4" fill="#0" id="circle14"/>
	<circle cx="98.7524" cy="261.185" r="4" fill="#0" id="circle15"/>
	<circle cx="100.686" cy="181.903" r="4" fill="#0" id="circle16"/>
	<circle cx="100.686" cy="729.146" r="4" fill="#0" id="circle17"/>
	<circle cx="110.355" cy="709.809" r="4" fill="#0" id="circle18"/>
	<circle cx="110.355" cy="812.296" r="4" fill="#0" id="circle19"/>
	<circle cx="118.09" cy="257.318" r="4" fill="#0" id="circle20"/>
	<circle cx="120.023" cy="181.903" r="4" fill="#0" id="circle21"/>
	<circle cx="120.023" cy="671.135" r="4" fill="#0" id="circle22"/>
	<circle cx="120.023" cy="690.472" r="4" fill="#0" id="circle23"/>
	<circle cx="125.825" cy="800.694" r="4" fill="#0" id="circle24"/>
	<circle cx="131.626" cy="241.848" r="4" fill="#0" id="circle25"/>
	<circle cx="135.493" cy="655.665" r="4" fill="#0" id="circle26"/>
	<circle cx="137.427" cy="172.234" r="4" fill="#0" id="circle27"/>
	<circle cx="139.361" cy="535.774" r="4" fill="#0" id="circle28"/>
	<circle cx="139.361" cy="555.111" r="4" fill="#0" id="circle29"/>
	<circle cx="139.361" cy="574.448" r="4" fill="#0" id="circle30"/>
	<circle cx="139.361" cy="593.786" r="4" fill="#0" id="circle31"/>
	<circle cx="139.361" cy="613.123" r="4" fill="#0" id="circle32"/>
	<circle cx="145.162" cy="636.327" r="4" fill="#0" id="circle33"/>
	<circle cx="145.162" cy="791.025" r="4" fill="#0" id="circle34"/>
	<circle cx="149.029" cy="506.768" r="4" fill="#0" id="circle35"/>
	<circle cx="150.963" cy="241.848" r="4" fill="#0" id="circle36"/>
	<circle cx="156.764" cy="172.234" r="4" fill="#0" id="circle37"/>
	<circle cx="158.698" cy="468.094" r="4" fill="#0" id="circle38"/>
	<circle cx="158.698" cy="487.431" r="4" fill="#0" id="circle39"/>
	<circle cx="160.632" cy="773.622" r="4" fill="#0" id="circle40"/>
	<circle cx="168.366" cy="232.179" r="4" fill="#0" id="circle41"/>
	<circle cx="168.366" cy="448.756" r="4" fill="#0" id="circle42"/>
	<circle cx="170.3" cy="156.764" r="4" fill="#0" id="circle43"/>
	<circle cx="178.035" cy="371.407" r="4" fill="#0" id="circle44"/>
	<circle cx="178.035" cy="390.745" r="4" fill="#0" id="circle45"/>
	<circle cx="178.035" cy="410.082" r="4" fill="#0" id="circle46"/>
	<circle cx="178.035" cy="429.419" r="4" fill="#0" id="circle47"/>
	<circle cx="179.969" cy="247.649" r="4" fill="#0" id="circle48"/>
	<circle cx="179.969" cy="773.622" r="4" fill="#0" id="circle49"/>
	<circle cx="187.704" cy="352.07" r="4" fill="#0" id="circle50"/>
	<circle cx="189.637" cy="147.096" r="4" fill="#0" id="circle51"/>
	<circle cx="189.637" cy="265.053" r="4" fill="#0" id="circle52"/>
	<circle cx="197.372" cy="120.023" r="4" fill="#0" id="circle53"/>
	<circle cx="197.372" cy="284.39" r="4" fill="#0" id="circle54"/>
	<circle cx="197.372" cy="332.733" r="4" fill="#0" id="circle55"/>
	<circle cx="197.372" cy="763.953" r="4" fill="#0" id="circle56"/>
	<circle cx="203.173" cy="783.29" r="4" fill="#0" id="circle57"/>
	<circle cx="207.041" cy="301.793" r="4" fill="#0" id="circle58"/>
	<circle cx="207.041" cy="802.628" r="4" fill="#0" id="circle59"/>
	<circle cx="212.842" cy="104.554" r="4" fill="#0" id="circle60"/>
	<circle cx="216.71" cy="820.031" r="4" fill="#0" id="circle61"/>
	<circle cx="216.71" cy="845.17" r="4" fill="#0" id="circle62"/>
	<circle cx="222.511" cy="85.2164" r="4" fill="#0" id="circle63"/>
	<circle cx="232.179" cy="858.706" r="4" fill="#0" id="circle64"/>
	<circle cx="236.047" cy="893.513" r="4" fill="#0" id="circle65"/>
	<circle cx="237.981" cy="69.7466" r="4" fill="#0" id="circle66"/>
	<circle cx="245.715" cy="910.916" r="4" fill="#0" id="circle67"/>
	<circle cx="253.45" cy="56.2105" r="4" fill="#0" id="circle68"/>
	<circle cx="255.384" cy="928.32" r="4" fill="#0" id="circle69"/>
	<circle cx="261.185" cy="947.657" r="4" fill="#0" id="circle70"/>
	<circle cx="270.854" cy="46.5419" r="4" fill="#0" id="circle71"/>
	<circle cx="276.655" cy="961.193" r="4" fill="#0" id="circle72"/>
	<circle cx="290.191" cy="36.8733" r="4" fill="#0" id="circle73"/>
	<circle cx="294.058" cy="970.862" r="4" fill="#0" id="circle74"/>
	<circle cx="307.595" cy="27.2047" r="4" fill="#0" id="circle75"/>
	<circle cx="313.396" cy="976.663" r="4" fill="#0" id="circle76"/>
	<circle cx="324.998" cy="17.5361" r="4" fill="#0" id="circle77"/>
	<circle cx="330.799" cy="986.331" r="4" fill="#0" id="circle78"/>
	<circle cx="344.335" cy="17.5361" r="4" fill="#0" id="circle79"/>
	<circle cx="348.203" cy="996" r="4" fill="#0" id="circle80"/>
	<circle cx="361.739" cy="7.86745" r="4" fill="#0" id="circle81"/>
	<circle cx="367.54" cy="994.066" r="4" fill="#0" id="circle82"/>
	<circle cx="381.076" cy="7.86745" r="4" fill="#0" id="circle83"/>
	<circle cx="386.877" cy="996" r="4" fill="#0" id="circle84"/>
	<circle cx="400.413" cy="4" r="4" fill="#0" id="circle85"/>
	<circle cx="406.214" cy="996" r="4" fill="#0" id="circle86"/>
	<circle cx="419.75" cy="7.86745" r="4" fill="#0" id="circle87"/>
	<circle cx="425.552" cy="994.066" r="4" fill="#0" id="circle88"/>
	<circle cx="439.088" cy="11.7349" r="4" fill="#0" id="circle89"/>
	<circle cx="444.889" cy="994.066" r="4" fill="#0" id="circle90"/>
	<circle cx="458.425" cy="11.7349" r="4" fill="#0" id="circle91"/>
	<circle cx="464.226" cy="986.331" r="4" fill="#0" id="circle92"/>
	<circle cx="477.762" cy="17.5361" r="4" fill="#0" id="circle93"/>
	<circle cx="481.63" cy="976.663" r="4" fill="#0" id="circle94"/>
	<circle cx="495.166" cy="27.2047" r="4" fill="#0" id="circle95"/>
	<circle cx="499.033" cy="966.994" r="4" fill="#0" id="circle96"/>
	<circle cx="512.569" cy="36.8733" r="4" fill="#0" id="circle97"/>
	<circle cx="518.37" cy="957.326" r="4" fill="#0" id="circle98"/>
	<circle cx="529.973" cy="46.5419" r="4" fill="#0" id="circle99"/>
	<circle cx="533.84" cy="943.789" r="4" fill="#0" id="circle100"/>
	<circle cx="547.376" cy="56.2105" r="4" fill="#0" id="circle101"/>
	<circle cx="547.376" cy="908.982" r="4" fill="#0" id="circle102"/>
	<circle cx="547.376" cy="928.32" r="4" fill="#0" id="circle103"/>
	<circle cx="557.045" cy="879.977" r="4" fill="#0" id="circle104"/>
	<circle cx="562.846" cy="67.8129" r="4" fill="#0" id="circle105"/>
	<circle cx="566.713" cy="850.971" r="4" fill="#0" id="circle106"/>
	<circle cx="576.382" cy="83.2827" r="4" fill="#0" id="circle107"/>
	<circle cx="576.382" cy="348.203" r="4" fill="#0" id="circle108"/>
	<circle cx="576.382" cy="831.634" r="4" fill="#0" id="circle109"/>
	<circle cx="586.051" cy="100.686" r="4" fill="#0" id="circle110"/>
	<circle cx="586.051" cy="328.865" r="4" fill="#0" id="circle111"/>
	<circle cx="586.051" cy="365.606" r="4" fill="#0" id="circle112"/>
	<circle cx="586.051" cy="812.296" r="4" fill="#0" id="circle113"/>
	<circle cx="595.719" cy="309.528" r="4" fill="#0" id="circle114"/>
	<circle cx="595.719" cy="383.01" r="4" fill="#0" id="circle115"/>
	<circle cx="595.719" cy="783.29" r="4" fill="#0" id="circle116"/>
	<circle cx="599.587" cy="116.156" r="4" fill="#0" id="circle117"/>
	<circle cx="605.388" cy="754.285" r="4" fill="#0" id="circle118"/>
	<circle cx="609.255" cy="133.559" r="4" fill="#0" id="circle119"/>
	<circle cx="611.189" cy="396.546" r="4" fill="#0" id="circle120"/>
	<circle cx="615.057" cy="152.897" r="4" fill="#0" id="circle121"/>
	<circle cx="615.057" cy="172.234" r="4" fill="#0" id="circle122"/>
	<circle cx="615.057" cy="309.528" r="4" fill="#0" id="circle123"/>
	<circle cx="615.057" cy="415.883" r="4" fill="#0" id="circle124"/>
	<circle cx="615.057" cy="734.947" r="4" fill="#0" id="circle125"/>
	<circle cx="624.725" cy="433.287" r="4" fill="#0" id="circle126"/>
	<circle cx="624.725" cy="705.942" r="4" fill="#0" id="circle127"/>
	<circle cx="626.659" cy="324.998" r="4" fill="#0" id="circle128"/>
	<circle cx="630.526" cy="183.836" r="4" fill="#0" id="circle129"/>
	<circle cx="634.394" cy="450.69" r="4" fill="#0" id="circle130"/>
	<circle cx="634.394" cy="470.027" r="4" fill="#0" id="circle131"/>
	<circle cx="634.394" cy="676.936" r="4" fill="#0" id="circle132"/>
	<circle cx="644.062" cy="199.306" r="4" fill="#0" id="circle133"/>
	<circle cx="644.062" cy="487.431" r="4" fill="#0" id="circle134"/>
	<circle cx="644.062" cy="638.261" r="4" fill="#0" id="circle135"/>
	<circle cx="644.062" cy="657.598" r="4" fill="#0" id="circle136"/>
	<circle cx="645.996" cy="328.865" r="4" fill="#0" id="circle137"/>
	<circle cx="651.797" cy="506.768" r="4" fill="#0" id="circle138"/>
	<circle cx="653.731" cy="526.105" r="4" fill="#0" id="circle139"/>
	<circle cx="653.731" cy="545.442" r="4" fill="#0" id="circle140"/>
	<circle cx="653.731" cy="580.25" r="4" fill="#0" id="circle141"/>
	<circle cx="653.731" cy="599.587" r="4" fill="#0" id="circle142"/>
	<circle cx="653.731" cy="618.924" r="4" fill="#0" id="circle143"/>
	<circle cx="655.665" cy="346.269" r="4" fill="#0" id="circle144"/>
	<circle cx="659.532" cy="212.842" r="4" fill="#0" id="circle145"/>
	<circle cx="667.267" cy="232.179" r="4" fill="#0" id="circle146"/>
	<circle cx="675.002" cy="354.004" r="4" fill="#0" id="circle147"/>
	<circle cx="682.737" cy="245.715" r="4" fill="#0" id="circle148"/>
	<circle cx="690.472" cy="367.54" r="4" fill="#0" id="circle149"/>
	<circle cx="696.273" cy="261.185" r="4" fill="#0" id="circle150"/>
	<circle cx="702.074" cy="383.01" r="4" fill="#0" id="circle151"/>
	<circle cx="711.743" cy="274.721" r="4" fill="#0" id="circle152"/>
	<circle cx="719.478" cy="392.678" r="4" fill="#0" id="circle153"/>
	<circle cx="729.146" cy="284.39" r="4" fill="#0" id="circle154"/>
	<circle cx="734.947" cy="406.214" r="4" fill="#0" id="circle155"/>
	<circle cx="744.616" cy="297.926" r="4" fill="#0" id="circle156"/>
	<circle cx="750.417" cy="419.75" r="4" fill="#0" id="circle157"/>
	<circle cx="762.019" cy="307.595" r="4" fill="#0" id="circle158"/>
	<circle cx="763.953" cy="435.22" r="4" fill="#0" id="circle159"/>
	<circle cx="779.423" cy="317.263" r="4" fill="#0" id="circle160"/>
	<circle cx="781.357" cy="444.889" r="4" fill="#0" id="circle161"/>
	<circle cx="796.827" cy="326.932" r="4" fill="#0" id="circle162"/>
	<circle cx="796.827" cy="456.491" r="4" fill="#0" id="circle163"/>
	<circle cx="810.363" cy="471.961" r="4" fill="#0" id="circle164"/>
	<circle cx="814.23" cy="336.6" r="4" fill="#0" id="circle165"/>
	<circle cx="829.7" cy="473.895" r="4" fill="#0" id="circle166"/>
	<circle cx="831.634" cy="346.269" r="4" fill="#0" id="circle167"/>
	<circle cx="845.17" cy="361.739" r="4" fill="#0" id="circle168"/>
	<circle cx="849.037" cy="479.696" r="4" fill="#0" id="circle169"/>
	<circle cx="860.639" cy="375.275" r="4" fill="#0" id="circle170"/>
	<circle cx="864.507" cy="468.094" r="4" fill="#0" id="circle171"/>
	<circle cx="874.175" cy="390.745" r="4" fill="#0" id="circle172"/>
	<circle cx="876.109" cy="444.889" r="4" fill="#0" id="circle173"/>
	<circle cx="883.844" cy="408.148" r="4" fill="#0" id="circle174"/>
	<circle cx="885.778" cy="427.485" r="4" fill="#0" id="circle175"/>
	</g>
</svg>