<?xml version="1.0" encoding="UTF-8" standalone="no"?>
<!-- Created with CurveBenchmark -->
<svg
	xmlns:dc="http://purl.org/dc/elements/1.1/"
	xmlns:cc="http://creativecommons.org/ns#"
	xmlns:rdf="http://www.w3.org/1999/02/22-rdf-syntax-ns#"
	xmlns:svg="http://www.w3.org/2000/svg"
	xmlns="http://www.w3.org/2000/svg"
	xmlns:sodipodi="http://sodipodi.sourceforge.net/DTD/sodipodi-0.dtd"
	xmlns:inkscape="http://www.inkscape.org/namespaces/inkscape"
	width="1000"
	height="1000"
	id="svg2"
	version="1.1"
	sodipodi:docname="manifold/crawl-guitar010.png.txt">
<defs
	id="defs4" />
<metadata
	id="metadata7">
	<rdf:RDF>
		<cc:Work
			rdf:about="">
			<dc:format>image/svg+xml</dc:format>
			<dc:type
				rdf:resource="http://purl.org/dc/dcmitype/StillImage" />
			<dc:title></dc:title>
		</cc:Work>
	</rdf:RDF>
</metadata>
<g
	inkscape:label="Layer 1"
	inkscape:groupmode="layer"
	id="layer1">
	<path style="fill:none;stroke:red;stroke-width:1px;stroke-linecap:butt;stroke-linejoin:miter;stroke-opacity:1" d="M 4,829.486 4,864.914 z" id="boundary" inkscape:connector-curvature="0" />
	<path style="fill:none;stroke:red;stroke-width:1px;stroke-linecap:butt;stroke-linejoin:miter;stroke-opacity:1" d="M 4,829.486 11.0857,794.057 z" id="boundary" inkscape:connector-curvature="0" />
	<path style="fill:none;stroke:red;stroke-width:1px;stroke-linecap:butt;stroke-linejoin:miter;stroke-opacity:1" d="M 11.0857,794.057 28.8,762.171 z" id="boundary" inkscape:connector-curvature="0" />
	<path style="fill:none;stroke:red;stroke-width:1px;stroke-linecap:butt;stroke-linejoin:miter;stroke-opacity:1" d="M 28.8,762.171 50.0571,733.829 z" id="boundary" inkscape:connector-curvature="0" />
	<path style="fill:none;stroke:red;stroke-width:1px;stroke-linecap:butt;stroke-linejoin:miter;stroke-opacity:1" d="M 50.0571,733.829 67.7714,701.943 z" id="boundary" inkscape:connector-curvature="0" />
	<path style="fill:none;stroke:red;stroke-width:1px;stroke-linecap:butt;stroke-linejoin:miter;stroke-opacity:1" d="M 4,864.914 14.6286,900.343 z" id="boundary" inkscape:connector-curvature="0" />
	<path style="fill:none;stroke:red;stroke-width:1px;stroke-linecap:butt;stroke-linejoin:miter;stroke-opacity:1" d="M 14.6286,900.343 32.3429,932.229 z" id="boundary" inkscape:connector-curvature="0" />
	<path style="fill:none;stroke:red;stroke-width:1px;stroke-linecap:butt;stroke-linejoin:miter;stroke-opacity:1" d="M 32.3429,932.229 60.6857,953.486 z" id="boundary" inkscape:connector-curvature="0" />
	<path style="fill:none;stroke:red;stroke-width:1px;stroke-linecap:butt;stroke-linejoin:miter;stroke-opacity:1" d="M 60.6857,953.486 89.0286,974.743 z" id="boundary" inkscape:connector-curvature="0" />
	<path style="fill:none;stroke:red;stroke-width:1px;stroke-linecap:butt;stroke-linejoin:miter;stroke-opacity:1" d="M 89.0286,974.743 124.457,988.914 z" id="boundary" inkscape:connector-curvature="0" />
	<path style="fill:none;stroke:red;stroke-width:1px;stroke-linecap:butt;stroke-linejoin:miter;stroke-opacity:1" d="M 124.457,988.914 159.886,996 z" id="boundary" inkscape:connector-curvature="0" />
	<path style="fill:none;stroke:red;stroke-width:1px;stroke-linecap:butt;stroke-linejoin:miter;stroke-opacity:1" d="M 159.886,996 195.314,996 z" id="boundary" inkscape:connector-curvature="0" />
	<path style="fill:none;stroke:red;stroke-width:1px;stroke-linecap:butt;stroke-linejoin:miter;stroke-opacity:1" d="M 195.314,996 230.743,996 z" id="boundary" inkscape:connector-curvature="0" />
	<path style="fill:none;stroke:red;stroke-width:1px;stroke-linecap:butt;stroke-linejoin:miter;stroke-opacity:1" d="M 230.743,996 266.171,988.914 z" id="boundary" inkscape:connector-curvature="0" />
	<path style="fill:none;stroke:red;stroke-width:1px;stroke-linecap:butt;stroke-linejoin:miter;stroke-opacity:1" d="M 266.171,988.914 301.6,981.829 z" id="boundary" inkscape:connector-curvature="0" />
	<path style="fill:none;stroke:red;stroke-width:1px;stroke-linecap:butt;stroke-linejoin:miter;stroke-opacity:1" d="M 301.6,981.829 333.486,964.114 z" id="boundary" inkscape:connector-curvature="0" />
	<path style="fill:none;stroke:red;stroke-width:1px;stroke-linecap:butt;stroke-linejoin:miter;stroke-opacity:1" d="M 333.486,964.114 361.829,942.857 z" id="boundary" inkscape:connector-curvature="0" />
	<path style="fill:none;stroke:red;stroke-width:1px;stroke-linecap:butt;stroke-linejoin:miter;stroke-opacity:1" d="M 361.829,942.857 390.171,907.429 z" id="boundary" inkscape:connector-curvature="0" />
	<path style="fill:none;stroke:red;stroke-width:1px;stroke-linecap:butt;stroke-linejoin:miter;stroke-opacity:1" d="M 390.171,907.429 404.343,864.914 z" id="boundary" inkscape:connector-curvature="0" />
	<path style="fill:none;stroke:red;stroke-width:1px;stroke-linecap:butt;stroke-linejoin:miter;stroke-opacity:1" d="M 404.343,864.914 404.343,815.314 z" id="boundary" inkscape:connector-curvature="0" />
	<path style="fill:none;stroke:red;stroke-width:1px;stroke-linecap:butt;stroke-linejoin:miter;stroke-opacity:1" d="M 404.343,815.314 397.257,779.886 z" id="boundary" inkscape:connector-curvature="0" />
	<path style="fill:none;stroke:red;stroke-width:1px;stroke-linecap:butt;stroke-linejoin:miter;stroke-opacity:1" d="M 397.257,779.886 376,751.543 z" id="boundary" inkscape:connector-curvature="0" />
	<path style="fill:none;stroke:red;stroke-width:1px;stroke-linecap:butt;stroke-linejoin:miter;stroke-opacity:1" d="M 376,751.543 358.286,719.657 z" id="boundary" inkscape:connector-curvature="0" />
	<path style="fill:none;stroke:red;stroke-width:1px;stroke-linecap:butt;stroke-linejoin:miter;stroke-opacity:1" d="M 358.286,719.657 340.571,687.771 z" id="boundary" inkscape:connector-curvature="0" />
	<path style="fill:none;stroke:red;stroke-width:1px;stroke-linecap:butt;stroke-linejoin:miter;stroke-opacity:1" d="M 340.571,687.771 340.571,652.343 z" id="boundary" inkscape:connector-curvature="0" />
	<path style="fill:none;stroke:red;stroke-width:1px;stroke-linecap:butt;stroke-linejoin:miter;stroke-opacity:1" d="M 340.571,652.343 358.286,620.457 z" id="boundary" inkscape:connector-curvature="0" />
	<path style="fill:none;stroke:red;stroke-width:1px;stroke-linecap:butt;stroke-linejoin:miter;stroke-opacity:1" d="M 358.286,620.457 361.829,563.771 z" id="boundary" inkscape:connector-curvature="0" />
	<path style="fill:none;stroke:red;stroke-width:1px;stroke-linecap:butt;stroke-linejoin:miter;stroke-opacity:1" d="M 361.829,563.771 329.943,546.057 z" id="boundary" inkscape:connector-curvature="0" />
	<path style="fill:none;stroke:red;stroke-width:1px;stroke-linecap:butt;stroke-linejoin:miter;stroke-opacity:1" d="M 329.943,546.057 308.686,574.4 z" id="boundary" inkscape:connector-curvature="0" />
	<path style="fill:none;stroke:red;stroke-width:1px;stroke-linecap:butt;stroke-linejoin:miter;stroke-opacity:1" d="M 308.686,574.4 273.257,574.4 z" id="boundary" inkscape:connector-curvature="0" />
	<path style="fill:none;stroke:red;stroke-width:1px;stroke-linecap:butt;stroke-linejoin:miter;stroke-opacity:1" d="M 273.257,574.4 252,546.057 z" id="boundary" inkscape:connector-curvature="0" />
	<path style="fill:none;stroke:red;stroke-width:1px;stroke-linecap:butt;stroke-linejoin:miter;stroke-opacity:1" d="M 252,546.057 248.457,510.629 z" id="boundary" inkscape:connector-curvature="0" />
	<path style="fill:none;stroke:red;stroke-width:1px;stroke-linecap:butt;stroke-linejoin:miter;stroke-opacity:1" d="M 248.457,510.629 248.457,475.2 z" id="boundary" inkscape:connector-curvature="0" />
	<path style="fill:none;stroke:red;stroke-width:1px;stroke-linecap:butt;stroke-linejoin:miter;stroke-opacity:1" d="M 248.457,475.2 248.457,439.771 z" id="boundary" inkscape:connector-curvature="0" />
	<path style="fill:none;stroke:red;stroke-width:1px;stroke-linecap:butt;stroke-linejoin:miter;stroke-opacity:1" d="M 248.457,439.771 248.457,404.343 z" id="boundary" inkscape:connector-curvature="0" />
	<path style="fill:none;stroke:red;stroke-width:1px;stroke-linecap:butt;stroke-linejoin:miter;stroke-opacity:1" d="M 248.457,404.343 248.457,368.914 z" id="boundary" inkscape:connector-curvature="0" />
	<path style="fill:none;stroke:red;stroke-width:1px;stroke-linecap:butt;stroke-linejoin:miter;stroke-opacity:1" d="M 248.457,368.914 248.457,333.486 z" id="boundary" inkscape:connector-curvature="0" />
	<path style="fill:none;stroke:red;stroke-width:1px;stroke-linecap:butt;stroke-linejoin:miter;stroke-opacity:1" d="M 248.457,333.486 248.457,298.057 z" id="boundary" inkscape:connector-curvature="0" />
	<path style="fill:none;stroke:red;stroke-width:1px;stroke-linecap:butt;stroke-linejoin:miter;stroke-opacity:1" d="M 248.457,298.057 244.914,262.629 z" id="boundary" inkscape:connector-curvature="0" />
	<path style="fill:none;stroke:red;stroke-width:1px;stroke-linecap:butt;stroke-linejoin:miter;stroke-opacity:1" d="M 244.914,262.629 241.371,227.2 z" id="boundary" inkscape:connector-curvature="0" />
	<path style="fill:none;stroke:red;stroke-width:1px;stroke-linecap:butt;stroke-linejoin:miter;stroke-opacity:1" d="M 241.371,227.2 241.371,191.771 z" id="boundary" inkscape:connector-curvature="0" />
	<path style="fill:none;stroke:red;stroke-width:1px;stroke-linecap:butt;stroke-linejoin:miter;stroke-opacity:1" d="M 241.371,191.771 241.371,156.343 z" id="boundary" inkscape:connector-curvature="0" />
	<path style="fill:none;stroke:red;stroke-width:1px;stroke-linecap:butt;stroke-linejoin:miter;stroke-opacity:1" d="M 241.371,156.343 241.371,120.914 z" id="boundary" inkscape:connector-curvature="0" />
	<path style="fill:none;stroke:red;stroke-width:1px;stroke-linecap:butt;stroke-linejoin:miter;stroke-opacity:1" d="M 241.371,120.914 191.771,128 z" id="boundary" inkscape:connector-curvature="0" />
	<path style="fill:none;stroke:red;stroke-width:1px;stroke-linecap:butt;stroke-linejoin:miter;stroke-opacity:1" d="M 191.771,128 195.314,163.429 z" id="boundary" inkscape:connector-curvature="0" />
	<path style="fill:none;stroke:red;stroke-width:1px;stroke-linecap:butt;stroke-linejoin:miter;stroke-opacity:1" d="M 195.314,163.429 195.314,198.857 z" id="boundary" inkscape:connector-curvature="0" />
	<path style="fill:none;stroke:red;stroke-width:1px;stroke-linecap:butt;stroke-linejoin:miter;stroke-opacity:1" d="M 195.314,198.857 188.229,262.629 z" id="boundary" inkscape:connector-curvature="0" />
	<path style="fill:none;stroke:red;stroke-width:1px;stroke-linecap:butt;stroke-linejoin:miter;stroke-opacity:1" d="M 188.229,262.629 188.229,298.057 z" id="boundary" inkscape:connector-curvature="0" />
	<path style="fill:none;stroke:red;stroke-width:1px;stroke-linecap:butt;stroke-linejoin:miter;stroke-opacity:1" d="M 188.229,298.057 188.229,333.486 z" id="boundary" inkscape:connector-curvature="0" />
	<path style="fill:none;stroke:red;stroke-width:1px;stroke-linecap:butt;stroke-linejoin:miter;stroke-opacity:1" d="M 188.229,333.486 188.229,368.914 z" id="boundary" inkscape:connector-curvature="0" />
	<path style="fill:none;stroke:red;stroke-width:1px;stroke-linecap:butt;stroke-linejoin:miter;stroke-opacity:1" d="M 188.229,368.914 188.229,404.343 z" id="boundary" inkscape:connector-curvature="0" />
	<path style="fill:none;stroke:red;stroke-width:1px;stroke-linecap:butt;stroke-linejoin:miter;stroke-opacity:1" d="M 188.229,404.343 188.229,439.771 z" id="boundary" inkscape:connector-curvature="0" />
	<path style="fill:none;stroke:red;stroke-width:1px;stroke-linecap:butt;stroke-linejoin:miter;stroke-opacity:1" d="M 188.229,439.771 170.514,500 z" id="boundary" inkscape:connector-curvature="0" />
	<path style="fill:none;stroke:red;stroke-width:1px;stroke-linecap:butt;stroke-linejoin:miter;stroke-opacity:1" d="M 170.514,500 135.086,503.543 z" id="boundary" inkscape:connector-curvature="0" />
	<path style="fill:none;stroke:red;stroke-width:1px;stroke-linecap:butt;stroke-linejoin:miter;stroke-opacity:1" d="M 135.086,503.543 99.6571,514.171 z" id="boundary" inkscape:connector-curvature="0" />
	<path style="fill:none;stroke:red;stroke-width:1px;stroke-linecap:butt;stroke-linejoin:miter;stroke-opacity:1" d="M 99.6571,514.171 71.3143,535.429 z" id="boundary" inkscape:connector-curvature="0" />
	<path style="fill:none;stroke:red;stroke-width:1px;stroke-linecap:butt;stroke-linejoin:miter;stroke-opacity:1" d="M 71.3143,535.429 53.6,567.314 z" id="boundary" inkscape:connector-curvature="0" />
	<path style="fill:none;stroke:red;stroke-width:1px;stroke-linecap:butt;stroke-linejoin:miter;stroke-opacity:1" d="M 53.6,567.314 53.6,602.743 z" id="boundary" inkscape:connector-curvature="0" />
	<path style="fill:none;stroke:red;stroke-width:1px;stroke-linecap:butt;stroke-linejoin:miter;stroke-opacity:1" d="M 53.6,602.743 71.3143,634.629 z" id="boundary" inkscape:connector-curvature="0" />
	<path style="fill:none;stroke:red;stroke-width:1px;stroke-linecap:butt;stroke-linejoin:miter;stroke-opacity:1" d="M 67.7714,701.943 71.3143,634.629 z" id="boundary" inkscape:connector-curvature="0" />
	<path style="fill:none;stroke:red;stroke-width:1px;stroke-linecap:butt;stroke-linejoin:miter;stroke-opacity:1" d="M 166.971,99.6571 166.971,64.2286 z" id="boundary" inkscape:connector-curvature="0" />
	<path style="fill:none;stroke:red;stroke-width:1px;stroke-linecap:butt;stroke-linejoin:miter;stroke-opacity:1" d="M 166.971,64.2286 159.886,28.8 z" id="boundary" inkscape:connector-curvature="0" />
	<path style="fill:none;stroke:red;stroke-width:1px;stroke-linecap:butt;stroke-linejoin:miter;stroke-opacity:1" d="M 159.886,28.8 188.229,7.54286 z" id="boundary" inkscape:connector-curvature="0" />
	<path style="fill:none;stroke:red;stroke-width:1px;stroke-linecap:butt;stroke-linejoin:miter;stroke-opacity:1" d="M 188.229,7.54286 223.657,4 z" id="boundary" inkscape:connector-curvature="0" />
	<path style="fill:none;stroke:red;stroke-width:1px;stroke-linecap:butt;stroke-linejoin:miter;stroke-opacity:1" d="M 223.657,4 244.914,53.6 z" id="boundary" inkscape:connector-curvature="0" />
	<circle cx="4" cy="829.486" r="4" fill="#0" id="circle0"/>
	<circle cx="4" cy="864.914" r="4" fill="#0" id="circle1"/>
	<circle cx="11.0857" cy="794.057" r="4" fill="#0" id="circle2"/>
	<circle cx="14.6286" cy="900.343" r="4" fill="#0" id="circle3"/>
	<circle cx="28.8" cy="762.171" r="4" fill="#0" id="circle4"/>
	<circle cx="32.3429" cy="932.229" r="4" fill="#0" id="circle5"/>
	<circle cx="50.0571" cy="733.829" r="4" fill="#0" id="circle6"/>
	<circle cx="53.6" cy="567.314" r="4" fill="#0" id="circle7"/>
	<circle cx="53.6" cy="602.743" r="4" fill="#0" id="circle8"/>
	<circle cx="60.6857" cy="953.486" r="4" fill="#0" id="circle9"/>
	<circle cx="67.7714" cy="701.943" r="4" fill="#0" id="circle10"/>
	<circle cx="71.3143" cy="535.429" r="4" fill="#0" id="circle11"/>
	<circle cx="71.3143" cy="634.629" r="4" fill="#0" id="circle12"/>
	<circle cx="89.0286" cy="974.743" r="4" fill="#0" id="circle13"/>
	<circle cx="99.6571" cy="514.171" r="4" fill="#0" id="circle14"/>
	<circle cx="124.457" cy="988.914" r="4" fill="#0" id="circle15"/>
	<circle cx="135.086" cy="503.543" r="4" fill="#0" id="circle16"/>
	<circle cx="159.886" cy="28.8" r="4" fill="#0" id="circle17"/>
	<circle cx="159.886" cy="996" r="4" fill="#0" id="circle18"/>
	<circle cx="166.971" cy="64.2286" r="4" fill="#0" id="circle19"/>
	<circle cx="166.971" cy="99.6571" r="4" fill="#0" id="circle20"/>
	<circle cx="170.514" cy="500" r="4" fill="#0" id="circle21"/>
	<circle cx="188.229" cy="7.54286" r="4" fill="#0" id="circle22"/>
	<circle cx="188.229" cy="262.629" r="4" fill="#0" id="circle23"/>
	<circle cx="188.229" cy="298.057" r="4" fill="#0" id="circle24"/>
	<circle cx="188.229" cy="333.486" r="4" fill="#0" id="circle25"/>
	<circle cx="188.229" cy="368.914" r="4" fill="#0" id="circle26"/>
	<circle cx="188.229" cy="404.343" r="4" fill="#0" id="circle27"/>
	<circle cx="188.229" cy="439.771" r="4" fill="#0" id="circle28"/>
	<circle cx="191.771" cy="128" r="4" fill="#0" id="circle29"/>
	<circle cx="195.314" cy="163.429" r="4" fill="#0" id="circle30"/>
	<circle cx="195.314" cy="198.857" r="4" fill="#0" id="circle31"/>
	<circle cx="195.314" cy="996" r="4" fill="#0" id="circle32"/>
	<circle cx="223.657" cy="4" r="4" fill="#0" id="circle33"/>
	<circle cx="230.743" cy="996" r="4" fill="#0" id="circle34"/>
	<circle cx="241.371" cy="120.914" r="4" fill="#0" id="circle35"/>
	<circle cx="241.371" cy="156.343" r="4" fill="#0" id="circle36"/>
	<circle cx="241.371" cy="191.771" r="4" fill="#0" id="circle37"/>
	<circle cx="241.371" cy="227.2" r="4" fill="#0" id="circle38"/>
	<circle cx="244.914" cy="53.6" r="4" fill="#0" id="circle39"/>
	<circle cx="244.914" cy="262.629" r="4" fill="#0" id="circle40"/>
	<circle cx="248.457" cy="298.057" r="4" fill="#0" id="circle41"/>
	<circle cx="248.457" cy="333.486" r="4" fill="#0" id="circle42"/>
	<circle cx="248.457" cy="368.914" r="4" fill="#0" id="circle43"/>
	<circle cx="248.457" cy="404.343" r="4" fill="#0" id="circle44"/>
	<circle cx="248.457" cy="439.771" r="4" fill="#0" id="circle45"/>
	<circle cx="248.457" cy="475.2" r="4" fill="#0" id="circle46"/>
	<circle cx="248.457" cy="510.629" r="4" fill="#0" id="circle47"/>
	<circle cx="252" cy="546.057" r="4" fill="#0" id="circle48"/>
	<circle cx="266.171" cy="988.914" r="4" fill="#0" id="circle49"/>
	<circle cx="273.257" cy="574.4" r="4" fill="#0" id="circle50"/>
	<circle cx="301.6" cy="981.829" r="4" fill="#0" id="circle51"/>
	<circle cx="308.686" cy="574.4" r="4" fill="#0" id="circle52"/>
	<circle cx="329.943" cy="546.057" r="4" fill="#0" id="circle53"/>
	<circle cx="333.486" cy="964.114" r="4" fill="#0" id="circle54"/>
	<circle cx="340.571" cy="652.343" r="4" fill="#0" id="circle55"/>
	<circle cx="340.571" cy="687.771" r="4" fill="#0" id="circle56"/>
	<circle cx="358.286" cy="620.457" r="4" fill="#0" id="circle57"/>
	<circle cx="358.286" cy="719.657" r="4" fill="#0" id="circle58"/>
	<circle cx="361.829" cy="563.771" r="4" fill="#0" id="circle59"/>
	<circle cx="361.829" cy="942.857" r="4" fill="#0" id="circle60"/>
	<circle cx="376" cy="751.543" r="4" fill="#0" id="circle61"/>
	<circle cx="390.171" cy="907.429" r="4" fill="#0" id="circle62"/>
	<circle cx="397.257" cy="779.886" r="4" fill="#0" id="circle63"/>
	<circle cx="404.343" cy="815.314" r="4" fill="#0" id="circle64"/>
	<circle cx="404.343" cy="864.914" r="4" fill="#0" id="circle65"/>
	</g>
</svg>