<?xml version="1.0" encoding="UTF-8" standalone="no"?>
<!-- Created with CurveBenchmark -->
<svg
	xmlns:dc="http://purl.org/dc/elements/1.1/"
	xmlns:cc="http://creativecommons.org/ns#"
	xmlns:rdf="http://www.w3.org/1999/02/22-rdf-syntax-ns#"
	xmlns:svg="http://www.w3.org/2000/svg"
	xmlns="http://www.w3.org/2000/svg"
	xmlns:sodipodi="http://sodipodi.sourceforge.net/DTD/sodipodi-0.dtd"
	xmlns:inkscape="http://www.inkscape.org/namespaces/inkscape"
	width="1000"
	height="1000"
	id="svg2"
	version="1.1"
	sodipodi:docname="manifold/crawl-herringsocc4.png.txt">
<defs
	id="defs4" />
<metadata
	id="metadata7">
	<rdf:RDF>
		<cc:Work
			rdf:about="">
			<dc:format>image/svg+xml</dc:format>
			<dc:type
				rdf:resource="http://purl.org/dc/dcmitype/StillImage" />
			<dc:title></dc:title>
		</cc:Work>
	</rdf:RDF>
</metadata>
<g
	inkscape:label="Layer 1"
	inkscape:groupmode="layer"
	id="layer1">
	<path style="fill:none;stroke:red;stroke-width:1px;stroke-linecap:butt;stroke-linejoin:miter;stroke-opacity:1" d="M 4,154.019 4,172.771 z" id="boundary" inkscape:connector-curvature="0" />
	<path style="fill:none;stroke:red;stroke-width:1px;stroke-linecap:butt;stroke-linejoin:miter;stroke-opacity:1" d="M 4,154.019 4,135.267 z" id="boundary" inkscape:connector-curvature="0" />
	<path style="fill:none;stroke:red;stroke-width:1px;stroke-linecap:butt;stroke-linejoin:miter;stroke-opacity:1" d="M 4,172.771 13.3762,189.648 z" id="boundary" inkscape:connector-curvature="0" />
	<path style="fill:none;stroke:red;stroke-width:1px;stroke-linecap:butt;stroke-linejoin:miter;stroke-opacity:1" d="M 13.3762,189.648 13.3762,208.401 z" id="boundary" inkscape:connector-curvature="0" />
	<path style="fill:none;stroke:red;stroke-width:1px;stroke-linecap:butt;stroke-linejoin:miter;stroke-opacity:1" d="M 13.3762,208.401 22.7524,225.278 z" id="boundary" inkscape:connector-curvature="0" />
	<path style="fill:none;stroke:red;stroke-width:1px;stroke-linecap:butt;stroke-linejoin:miter;stroke-opacity:1" d="M 22.7524,225.278 28.3781,244.03 z" id="boundary" inkscape:connector-curvature="0" />
	<path style="fill:none;stroke:red;stroke-width:1px;stroke-linecap:butt;stroke-linejoin:miter;stroke-opacity:1" d="M 28.3781,244.03 41.5047,259.032 z" id="boundary" inkscape:connector-curvature="0" />
	<path style="fill:none;stroke:red;stroke-width:1px;stroke-linecap:butt;stroke-linejoin:miter;stroke-opacity:1" d="M 41.5047,259.032 50.8809,275.909 z" id="boundary" inkscape:connector-curvature="0" />
	<path style="fill:none;stroke:red;stroke-width:1px;stroke-linecap:butt;stroke-linejoin:miter;stroke-opacity:1" d="M 50.8809,275.909 65.8828,289.036 z" id="boundary" inkscape:connector-curvature="0" />
	<path style="fill:none;stroke:red;stroke-width:1px;stroke-linecap:butt;stroke-linejoin:miter;stroke-opacity:1" d="M 65.8828,289.036 79.0095,304.038 z" id="boundary" inkscape:connector-curvature="0" />
	<path style="fill:none;stroke:red;stroke-width:1px;stroke-linecap:butt;stroke-linejoin:miter;stroke-opacity:1" d="M 79.0095,304.038 94.0113,317.164 z" id="boundary" inkscape:connector-curvature="0" />
	<path style="fill:none;stroke:red;stroke-width:1px;stroke-linecap:butt;stroke-linejoin:miter;stroke-opacity:1" d="M 4,135.267 19.0019,120.265 z" id="boundary" inkscape:connector-curvature="0" />
	<path style="fill:none;stroke:red;stroke-width:1px;stroke-linecap:butt;stroke-linejoin:miter;stroke-opacity:1" d="M 19.0019,120.265 37.7543,110.888 z" id="boundary" inkscape:connector-curvature="0" />
	<path style="fill:none;stroke:red;stroke-width:1px;stroke-linecap:butt;stroke-linejoin:miter;stroke-opacity:1" d="M 37.7543,110.888 54.6314,101.512 z" id="boundary" inkscape:connector-curvature="0" />
	<path style="fill:none;stroke:red;stroke-width:1px;stroke-linecap:butt;stroke-linejoin:miter;stroke-opacity:1" d="M 54.6314,101.512 73.3837,101.512 z" id="boundary" inkscape:connector-curvature="0" />
	<path style="fill:none;stroke:red;stroke-width:1px;stroke-linecap:butt;stroke-linejoin:miter;stroke-opacity:1" d="M 73.3837,101.512 92.1361,101.512 z" id="boundary" inkscape:connector-curvature="0" />
	<path style="fill:none;stroke:red;stroke-width:1px;stroke-linecap:butt;stroke-linejoin:miter;stroke-opacity:1" d="M 92.1361,101.512 109.013,110.888 z" id="boundary" inkscape:connector-curvature="0" />
	<path style="fill:none;stroke:red;stroke-width:1px;stroke-linecap:butt;stroke-linejoin:miter;stroke-opacity:1" d="M 109.013,110.888 127.766,110.888 z" id="boundary" inkscape:connector-curvature="0" />
	<path style="fill:none;stroke:red;stroke-width:1px;stroke-linecap:butt;stroke-linejoin:miter;stroke-opacity:1" d="M 127.766,110.888 144.643,120.265 z" id="boundary" inkscape:connector-curvature="0" />
	<path style="fill:none;stroke:red;stroke-width:1px;stroke-linecap:butt;stroke-linejoin:miter;stroke-opacity:1" d="M 144.643,120.265 163.395,120.265 z" id="boundary" inkscape:connector-curvature="0" />
	<path style="fill:none;stroke:red;stroke-width:1px;stroke-linecap:butt;stroke-linejoin:miter;stroke-opacity:1" d="M 163.395,120.265 180.272,129.641 z" id="boundary" inkscape:connector-curvature="0" />
	<path style="fill:none;stroke:red;stroke-width:1px;stroke-linecap:butt;stroke-linejoin:miter;stroke-opacity:1" d="M 180.272,129.641 199.025,131.516 z" id="boundary" inkscape:connector-curvature="0" />
	<path style="fill:none;stroke:red;stroke-width:1px;stroke-linecap:butt;stroke-linejoin:miter;stroke-opacity:1" d="M 199.025,131.516 217.777,139.017 z" id="boundary" inkscape:connector-curvature="0" />
	<path style="fill:none;stroke:red;stroke-width:1px;stroke-linecap:butt;stroke-linejoin:miter;stroke-opacity:1" d="M 217.777,139.017 229.028,107.138 z" id="boundary" inkscape:connector-curvature="0" />
	<path style="fill:none;stroke:red;stroke-width:1px;stroke-linecap:butt;stroke-linejoin:miter;stroke-opacity:1" d="M 229.028,107.138 229.028,88.3856 z" id="boundary" inkscape:connector-curvature="0" />
	<path style="fill:none;stroke:red;stroke-width:1px;stroke-linecap:butt;stroke-linejoin:miter;stroke-opacity:1" d="M 229.028,88.3856 238.405,60.2571 z" id="boundary" inkscape:connector-curvature="0" />
	<path style="fill:none;stroke:red;stroke-width:1px;stroke-linecap:butt;stroke-linejoin:miter;stroke-opacity:1" d="M 238.405,60.2571 238.405,41.5047 z" id="boundary" inkscape:connector-curvature="0" />
	<path style="fill:none;stroke:red;stroke-width:1px;stroke-linecap:butt;stroke-linejoin:miter;stroke-opacity:1" d="M 238.405,41.5047 238.405,22.7524 z" id="boundary" inkscape:connector-curvature="0" />
	<path style="fill:none;stroke:red;stroke-width:1px;stroke-linecap:butt;stroke-linejoin:miter;stroke-opacity:1" d="M 238.405,22.7524 238.405,4 z" id="boundary" inkscape:connector-curvature="0" />
	<path style="fill:none;stroke:red;stroke-width:1px;stroke-linecap:butt;stroke-linejoin:miter;stroke-opacity:1" d="M 238.405,4 257.157,7.75047 z" id="boundary" inkscape:connector-curvature="0" />
	<path style="fill:none;stroke:red;stroke-width:1px;stroke-linecap:butt;stroke-linejoin:miter;stroke-opacity:1" d="M 257.157,7.75047 275.909,7.75047 z" id="boundary" inkscape:connector-curvature="0" />
	<path style="fill:none;stroke:red;stroke-width:1px;stroke-linecap:butt;stroke-linejoin:miter;stroke-opacity:1" d="M 275.909,7.75047 294.662,7.75047 z" id="boundary" inkscape:connector-curvature="0" />
	<path style="fill:none;stroke:red;stroke-width:1px;stroke-linecap:butt;stroke-linejoin:miter;stroke-opacity:1" d="M 294.662,7.75047 313.414,7.75047 z" id="boundary" inkscape:connector-curvature="0" />
	<path style="fill:none;stroke:red;stroke-width:1px;stroke-linecap:butt;stroke-linejoin:miter;stroke-opacity:1" d="M 313.414,7.75047 332.166,7.75047 z" id="boundary" inkscape:connector-curvature="0" />
	<path style="fill:none;stroke:red;stroke-width:1px;stroke-linecap:butt;stroke-linejoin:miter;stroke-opacity:1" d="M 332.166,7.75047 343.418,22.7524 z" id="boundary" inkscape:connector-curvature="0" />
	<path style="fill:none;stroke:red;stroke-width:1px;stroke-linecap:butt;stroke-linejoin:miter;stroke-opacity:1" d="M 343.418,22.7524 343.418,41.5047 z" id="boundary" inkscape:connector-curvature="0" />
	<path style="fill:none;stroke:red;stroke-width:1px;stroke-linecap:butt;stroke-linejoin:miter;stroke-opacity:1" d="M 343.418,41.5047 343.418,60.2571 z" id="boundary" inkscape:connector-curvature="0" />
	<path style="fill:none;stroke:red;stroke-width:1px;stroke-linecap:butt;stroke-linejoin:miter;stroke-opacity:1" d="M 343.418,60.2571 334.042,84.6352 z" id="boundary" inkscape:connector-curvature="0" />
	<path style="fill:none;stroke:red;stroke-width:1px;stroke-linecap:butt;stroke-linejoin:miter;stroke-opacity:1" d="M 334.042,84.6352 334.042,103.388 z" id="boundary" inkscape:connector-curvature="0" />
	<path style="fill:none;stroke:red;stroke-width:1px;stroke-linecap:butt;stroke-linejoin:miter;stroke-opacity:1" d="M 334.042,103.388 334.042,122.14 z" id="boundary" inkscape:connector-curvature="0" />
	<path style="fill:none;stroke:red;stroke-width:1px;stroke-linecap:butt;stroke-linejoin:miter;stroke-opacity:1" d="M 334.042,122.14 334.042,140.892 z" id="boundary" inkscape:connector-curvature="0" />
	<path style="fill:none;stroke:red;stroke-width:1px;stroke-linecap:butt;stroke-linejoin:miter;stroke-opacity:1" d="M 334.042,140.892 334.042,159.645 z" id="boundary" inkscape:connector-curvature="0" />
	<path style="fill:none;stroke:red;stroke-width:1px;stroke-linecap:butt;stroke-linejoin:miter;stroke-opacity:1" d="M 334.042,159.645 334.042,178.397 z" id="boundary" inkscape:connector-curvature="0" />
	<path style="fill:none;stroke:red;stroke-width:1px;stroke-linecap:butt;stroke-linejoin:miter;stroke-opacity:1" d="M 334.042,178.397 343.418,195.274 z" id="boundary" inkscape:connector-curvature="0" />
	<path style="fill:none;stroke:red;stroke-width:1px;stroke-linecap:butt;stroke-linejoin:miter;stroke-opacity:1" d="M 343.418,195.274 360.295,204.65 z" id="boundary" inkscape:connector-curvature="0" />
	<path style="fill:none;stroke:red;stroke-width:1px;stroke-linecap:butt;stroke-linejoin:miter;stroke-opacity:1" d="M 360.295,204.65 371.546,219.652 z" id="boundary" inkscape:connector-curvature="0" />
	<path style="fill:none;stroke:red;stroke-width:1px;stroke-linecap:butt;stroke-linejoin:miter;stroke-opacity:1" d="M 371.546,219.652 388.423,229.028 z" id="boundary" inkscape:connector-curvature="0" />
	<path style="fill:none;stroke:red;stroke-width:1px;stroke-linecap:butt;stroke-linejoin:miter;stroke-opacity:1" d="M 388.423,229.028 403.425,242.155 z" id="boundary" inkscape:connector-curvature="0" />
	<path style="fill:none;stroke:red;stroke-width:1px;stroke-linecap:butt;stroke-linejoin:miter;stroke-opacity:1" d="M 403.425,242.155 422.178,242.155 z" id="boundary" inkscape:connector-curvature="0" />
	<path style="fill:none;stroke:red;stroke-width:1px;stroke-linecap:butt;stroke-linejoin:miter;stroke-opacity:1" d="M 422.178,242.155 440.93,242.155 z" id="boundary" inkscape:connector-curvature="0" />
	<path style="fill:none;stroke:red;stroke-width:1px;stroke-linecap:butt;stroke-linejoin:miter;stroke-opacity:1" d="M 440.93,242.155 459.682,242.155 z" id="boundary" inkscape:connector-curvature="0" />
	<path style="fill:none;stroke:red;stroke-width:1px;stroke-linecap:butt;stroke-linejoin:miter;stroke-opacity:1" d="M 459.682,242.155 476.56,232.779 z" id="boundary" inkscape:connector-curvature="0" />
	<path style="fill:none;stroke:red;stroke-width:1px;stroke-linecap:butt;stroke-linejoin:miter;stroke-opacity:1" d="M 476.56,232.779 495.312,225.278 z" id="boundary" inkscape:connector-curvature="0" />
	<path style="fill:none;stroke:red;stroke-width:1px;stroke-linecap:butt;stroke-linejoin:miter;stroke-opacity:1" d="M 495.312,225.278 514.064,232.779 z" id="boundary" inkscape:connector-curvature="0" />
	<path style="fill:none;stroke:red;stroke-width:1px;stroke-linecap:butt;stroke-linejoin:miter;stroke-opacity:1" d="M 514.064,232.779 532.817,232.779 z" id="boundary" inkscape:connector-curvature="0" />
	<path style="fill:none;stroke:red;stroke-width:1px;stroke-linecap:butt;stroke-linejoin:miter;stroke-opacity:1" d="M 532.817,232.779 551.569,232.779 z" id="boundary" inkscape:connector-curvature="0" />
	<path style="fill:none;stroke:red;stroke-width:1px;stroke-linecap:butt;stroke-linejoin:miter;stroke-opacity:1" d="M 551.569,232.779 570.321,232.779 z" id="boundary" inkscape:connector-curvature="0" />
	<path style="fill:none;stroke:red;stroke-width:1px;stroke-linecap:butt;stroke-linejoin:miter;stroke-opacity:1" d="M 570.321,232.779 587.198,242.155 z" id="boundary" inkscape:connector-curvature="0" />
	<path style="fill:none;stroke:red;stroke-width:1px;stroke-linecap:butt;stroke-linejoin:miter;stroke-opacity:1" d="M 587.198,242.155 596.575,259.032 z" id="boundary" inkscape:connector-curvature="0" />
	<path style="fill:none;stroke:red;stroke-width:1px;stroke-linecap:butt;stroke-linejoin:miter;stroke-opacity:1" d="M 596.575,259.032 596.575,277.784 z" id="boundary" inkscape:connector-curvature="0" />
	<path style="fill:none;stroke:red;stroke-width:1px;stroke-linecap:butt;stroke-linejoin:miter;stroke-opacity:1" d="M 596.575,277.784 596.575,296.537 z" id="boundary" inkscape:connector-curvature="0" />
	<path style="fill:none;stroke:red;stroke-width:1px;stroke-linecap:butt;stroke-linejoin:miter;stroke-opacity:1" d="M 596.575,296.537 605.951,313.414 z" id="boundary" inkscape:connector-curvature="0" />
	<path style="fill:none;stroke:red;stroke-width:1px;stroke-linecap:butt;stroke-linejoin:miter;stroke-opacity:1" d="M 605.951,313.414 605.951,332.166 z" id="boundary" inkscape:connector-curvature="0" />
	<path style="fill:none;stroke:red;stroke-width:1px;stroke-linecap:butt;stroke-linejoin:miter;stroke-opacity:1" d="M 605.951,332.166 611.577,362.17 z" id="boundary" inkscape:connector-curvature="0" />
	<path style="fill:none;stroke:red;stroke-width:1px;stroke-linecap:butt;stroke-linejoin:miter;stroke-opacity:1" d="M 611.577,362.17 596.575,375.297 z" id="boundary" inkscape:connector-curvature="0" />
	<path style="fill:none;stroke:red;stroke-width:1px;stroke-linecap:butt;stroke-linejoin:miter;stroke-opacity:1" d="M 596.575,375.297 600.325,394.049 z" id="boundary" inkscape:connector-curvature="0" />
	<path style="fill:none;stroke:red;stroke-width:1px;stroke-linecap:butt;stroke-linejoin:miter;stroke-opacity:1" d="M 600.325,394.049 615.327,407.176 z" id="boundary" inkscape:connector-curvature="0" />
	<path style="fill:none;stroke:red;stroke-width:1px;stroke-linecap:butt;stroke-linejoin:miter;stroke-opacity:1" d="M 615.327,407.176 628.454,422.178 z" id="boundary" inkscape:connector-curvature="0" />
	<path style="fill:none;stroke:red;stroke-width:1px;stroke-linecap:butt;stroke-linejoin:miter;stroke-opacity:1" d="M 628.454,422.178 637.83,439.055 z" id="boundary" inkscape:connector-curvature="0" />
	<path style="fill:none;stroke:red;stroke-width:1px;stroke-linecap:butt;stroke-linejoin:miter;stroke-opacity:1" d="M 637.83,439.055 650.957,454.057 z" id="boundary" inkscape:connector-curvature="0" />
	<path style="fill:none;stroke:red;stroke-width:1px;stroke-linecap:butt;stroke-linejoin:miter;stroke-opacity:1" d="M 650.957,454.057 665.958,467.183 z" id="boundary" inkscape:connector-curvature="0" />
	<path style="fill:none;stroke:red;stroke-width:1px;stroke-linecap:butt;stroke-linejoin:miter;stroke-opacity:1" d="M 665.958,467.183 682.836,476.56 z" id="boundary" inkscape:connector-curvature="0" />
	<path style="fill:none;stroke:red;stroke-width:1px;stroke-linecap:butt;stroke-linejoin:miter;stroke-opacity:1" d="M 682.836,476.56 697.837,489.686 z" id="boundary" inkscape:connector-curvature="0" />
	<path style="fill:none;stroke:red;stroke-width:1px;stroke-linecap:butt;stroke-linejoin:miter;stroke-opacity:1" d="M 697.837,489.686 705.338,508.439 z" id="boundary" inkscape:connector-curvature="0" />
	<path style="fill:none;stroke:red;stroke-width:1px;stroke-linecap:butt;stroke-linejoin:miter;stroke-opacity:1" d="M 705.338,508.439 718.465,523.44 z" id="boundary" inkscape:connector-curvature="0" />
	<path style="fill:none;stroke:red;stroke-width:1px;stroke-linecap:butt;stroke-linejoin:miter;stroke-opacity:1" d="M 718.465,523.44 735.342,532.817 z" id="boundary" inkscape:connector-curvature="0" />
	<path style="fill:none;stroke:red;stroke-width:1px;stroke-linecap:butt;stroke-linejoin:miter;stroke-opacity:1" d="M 735.342,532.817 750.344,544.068 z" id="boundary" inkscape:connector-curvature="0" />
	<path style="fill:none;stroke:red;stroke-width:1px;stroke-linecap:butt;stroke-linejoin:miter;stroke-opacity:1" d="M 750.344,544.068 765.346,557.195 z" id="boundary" inkscape:connector-curvature="0" />
	<path style="fill:none;stroke:red;stroke-width:1px;stroke-linecap:butt;stroke-linejoin:miter;stroke-opacity:1" d="M 765.346,557.195 778.473,572.197 z" id="boundary" inkscape:connector-curvature="0" />
	<path style="fill:none;stroke:red;stroke-width:1px;stroke-linecap:butt;stroke-linejoin:miter;stroke-opacity:1" d="M 778.473,572.197 797.225,579.698 z" id="boundary" inkscape:connector-curvature="0" />
	<path style="fill:none;stroke:red;stroke-width:1px;stroke-linecap:butt;stroke-linejoin:miter;stroke-opacity:1" d="M 797.225,579.698 814.102,589.074 z" id="boundary" inkscape:connector-curvature="0" />
	<path style="fill:none;stroke:red;stroke-width:1px;stroke-linecap:butt;stroke-linejoin:miter;stroke-opacity:1" d="M 814.102,589.074 832.854,589.074 z" id="boundary" inkscape:connector-curvature="0" />
	<path style="fill:none;stroke:red;stroke-width:1px;stroke-linecap:butt;stroke-linejoin:miter;stroke-opacity:1" d="M 832.854,589.074 851.607,589.074 z" id="boundary" inkscape:connector-curvature="0" />
	<path style="fill:none;stroke:red;stroke-width:1px;stroke-linecap:butt;stroke-linejoin:miter;stroke-opacity:1" d="M 851.607,589.074 868.484,598.45 z" id="boundary" inkscape:connector-curvature="0" />
	<path style="fill:none;stroke:red;stroke-width:1px;stroke-linecap:butt;stroke-linejoin:miter;stroke-opacity:1" d="M 868.484,598.45 887.236,598.45 z" id="boundary" inkscape:connector-curvature="0" />
	<path style="fill:none;stroke:red;stroke-width:1px;stroke-linecap:butt;stroke-linejoin:miter;stroke-opacity:1" d="M 887.236,598.45 904.113,607.826 z" id="boundary" inkscape:connector-curvature="0" />
	<path style="fill:none;stroke:red;stroke-width:1px;stroke-linecap:butt;stroke-linejoin:miter;stroke-opacity:1" d="M 904.113,607.826 922.866,607.826 z" id="boundary" inkscape:connector-curvature="0" />
	<path style="fill:none;stroke:red;stroke-width:1px;stroke-linecap:butt;stroke-linejoin:miter;stroke-opacity:1" d="M 922.866,607.826 941.618,611.577 z" id="boundary" inkscape:connector-curvature="0" />
	<path style="fill:none;stroke:red;stroke-width:1px;stroke-linecap:butt;stroke-linejoin:miter;stroke-opacity:1" d="M 941.618,611.577 960.371,617.202 z" id="boundary" inkscape:connector-curvature="0" />
	<path style="fill:none;stroke:red;stroke-width:1px;stroke-linecap:butt;stroke-linejoin:miter;stroke-opacity:1" d="M 960.371,617.202 979.123,620.953 z" id="boundary" inkscape:connector-curvature="0" />
	<path style="fill:none;stroke:red;stroke-width:1px;stroke-linecap:butt;stroke-linejoin:miter;stroke-opacity:1" d="M 979.123,620.953 996,630.329 z" id="boundary" inkscape:connector-curvature="0" />
	<path style="fill:none;stroke:red;stroke-width:1px;stroke-linecap:butt;stroke-linejoin:miter;stroke-opacity:1" d="M 996,630.329 982.873,656.582 z" id="boundary" inkscape:connector-curvature="0" />
	<path style="fill:none;stroke:red;stroke-width:1px;stroke-linecap:butt;stroke-linejoin:miter;stroke-opacity:1" d="M 982.873,656.582 965.996,665.958 z" id="boundary" inkscape:connector-curvature="0" />
	<path style="fill:none;stroke:red;stroke-width:1px;stroke-linecap:butt;stroke-linejoin:miter;stroke-opacity:1" d="M 965.996,665.958 949.119,675.335 z" id="boundary" inkscape:connector-curvature="0" />
	<path style="fill:none;stroke:red;stroke-width:1px;stroke-linecap:butt;stroke-linejoin:miter;stroke-opacity:1" d="M 949.119,675.335 930.367,675.335 z" id="boundary" inkscape:connector-curvature="0" />
	<path style="fill:none;stroke:red;stroke-width:1px;stroke-linecap:butt;stroke-linejoin:miter;stroke-opacity:1" d="M 930.367,675.335 911.614,675.335 z" id="boundary" inkscape:connector-curvature="0" />
	<path style="fill:none;stroke:red;stroke-width:1px;stroke-linecap:butt;stroke-linejoin:miter;stroke-opacity:1" d="M 911.614,675.335 894.737,665.958 z" id="boundary" inkscape:connector-curvature="0" />
	<path style="fill:none;stroke:red;stroke-width:1px;stroke-linecap:butt;stroke-linejoin:miter;stroke-opacity:1" d="M 894.737,665.958 877.86,675.335 z" id="boundary" inkscape:connector-curvature="0" />
	<path style="fill:none;stroke:red;stroke-width:1px;stroke-linecap:butt;stroke-linejoin:miter;stroke-opacity:1" d="M 877.86,675.335 859.108,675.335 z" id="boundary" inkscape:connector-curvature="0" />
	<path style="fill:none;stroke:red;stroke-width:1px;stroke-linecap:butt;stroke-linejoin:miter;stroke-opacity:1" d="M 859.108,675.335 840.355,684.711 z" id="boundary" inkscape:connector-curvature="0" />
	<path style="fill:none;stroke:red;stroke-width:1px;stroke-linecap:butt;stroke-linejoin:miter;stroke-opacity:1" d="M 840.355,684.711 830.979,703.463 z" id="boundary" inkscape:connector-curvature="0" />
	<path style="fill:none;stroke:red;stroke-width:1px;stroke-linecap:butt;stroke-linejoin:miter;stroke-opacity:1" d="M 830.979,703.463 840.355,720.34 z" id="boundary" inkscape:connector-curvature="0" />
	<path style="fill:none;stroke:red;stroke-width:1px;stroke-linecap:butt;stroke-linejoin:miter;stroke-opacity:1" d="M 840.355,720.34 840.355,739.093 z" id="boundary" inkscape:connector-curvature="0" />
	<path style="fill:none;stroke:red;stroke-width:1px;stroke-linecap:butt;stroke-linejoin:miter;stroke-opacity:1" d="M 840.355,739.093 840.355,757.845 z" id="boundary" inkscape:connector-curvature="0" />
	<path style="fill:none;stroke:red;stroke-width:1px;stroke-linecap:butt;stroke-linejoin:miter;stroke-opacity:1" d="M 840.355,757.845 840.355,776.597 z" id="boundary" inkscape:connector-curvature="0" />
	<path style="fill:none;stroke:red;stroke-width:1px;stroke-linecap:butt;stroke-linejoin:miter;stroke-opacity:1" d="M 840.355,776.597 840.355,795.35 z" id="boundary" inkscape:connector-curvature="0" />
	<path style="fill:none;stroke:red;stroke-width:1px;stroke-linecap:butt;stroke-linejoin:miter;stroke-opacity:1" d="M 840.355,795.35 840.355,814.102 z" id="boundary" inkscape:connector-curvature="0" />
	<path style="fill:none;stroke:red;stroke-width:1px;stroke-linecap:butt;stroke-linejoin:miter;stroke-opacity:1" d="M 840.355,814.102 840.355,832.854 z" id="boundary" inkscape:connector-curvature="0" />
	<path style="fill:none;stroke:red;stroke-width:1px;stroke-linecap:butt;stroke-linejoin:miter;stroke-opacity:1" d="M 840.355,832.854 830.979,853.482 z" id="boundary" inkscape:connector-curvature="0" />
	<path style="fill:none;stroke:red;stroke-width:1px;stroke-linecap:butt;stroke-linejoin:miter;stroke-opacity:1" d="M 830.979,853.482 812.227,847.856 z" id="boundary" inkscape:connector-curvature="0" />
	<path style="fill:none;stroke:red;stroke-width:1px;stroke-linecap:butt;stroke-linejoin:miter;stroke-opacity:1" d="M 812.227,847.856 797.225,834.73 z" id="boundary" inkscape:connector-curvature="0" />
	<path style="fill:none;stroke:red;stroke-width:1px;stroke-linecap:butt;stroke-linejoin:miter;stroke-opacity:1" d="M 797.225,834.73 784.098,819.728 z" id="boundary" inkscape:connector-curvature="0" />
	<path style="fill:none;stroke:red;stroke-width:1px;stroke-linecap:butt;stroke-linejoin:miter;stroke-opacity:1" d="M 784.098,819.728 774.722,802.851 z" id="boundary" inkscape:connector-curvature="0" />
	<path style="fill:none;stroke:red;stroke-width:1px;stroke-linecap:butt;stroke-linejoin:miter;stroke-opacity:1" d="M 774.722,802.851 763.471,787.849 z" id="boundary" inkscape:connector-curvature="0" />
	<path style="fill:none;stroke:red;stroke-width:1px;stroke-linecap:butt;stroke-linejoin:miter;stroke-opacity:1" d="M 763.471,787.849 754.095,770.972 z" id="boundary" inkscape:connector-curvature="0" />
	<path style="fill:none;stroke:red;stroke-width:1px;stroke-linecap:butt;stroke-linejoin:miter;stroke-opacity:1" d="M 754.095,770.972 744.718,754.095 z" id="boundary" inkscape:connector-curvature="0" />
	<path style="fill:none;stroke:red;stroke-width:1px;stroke-linecap:butt;stroke-linejoin:miter;stroke-opacity:1" d="M 744.718,754.095 744.718,735.342 z" id="boundary" inkscape:connector-curvature="0" />
	<path style="fill:none;stroke:red;stroke-width:1px;stroke-linecap:butt;stroke-linejoin:miter;stroke-opacity:1" d="M 744.718,735.342 731.592,720.34 z" id="boundary" inkscape:connector-curvature="0" />
	<path style="fill:none;stroke:red;stroke-width:1px;stroke-linecap:butt;stroke-linejoin:miter;stroke-opacity:1" d="M 731.592,720.34 722.216,703.463 z" id="boundary" inkscape:connector-curvature="0" />
	<path style="fill:none;stroke:red;stroke-width:1px;stroke-linecap:butt;stroke-linejoin:miter;stroke-opacity:1" d="M 722.216,703.463 716.59,684.711 z" id="boundary" inkscape:connector-curvature="0" />
	<path style="fill:none;stroke:red;stroke-width:1px;stroke-linecap:butt;stroke-linejoin:miter;stroke-opacity:1" d="M 716.59,684.711 701.588,671.584 z" id="boundary" inkscape:connector-curvature="0" />
	<path style="fill:none;stroke:red;stroke-width:1px;stroke-linecap:butt;stroke-linejoin:miter;stroke-opacity:1" d="M 701.588,671.584 682.836,665.958 z" id="boundary" inkscape:connector-curvature="0" />
	<path style="fill:none;stroke:red;stroke-width:1px;stroke-linecap:butt;stroke-linejoin:miter;stroke-opacity:1" d="M 682.836,665.958 664.083,665.958 z" id="boundary" inkscape:connector-curvature="0" />
	<path style="fill:none;stroke:red;stroke-width:1px;stroke-linecap:butt;stroke-linejoin:miter;stroke-opacity:1" d="M 664.083,665.958 647.206,656.582 z" id="boundary" inkscape:connector-curvature="0" />
	<path style="fill:none;stroke:red;stroke-width:1px;stroke-linecap:butt;stroke-linejoin:miter;stroke-opacity:1" d="M 647.206,656.582 628.454,654.707 z" id="boundary" inkscape:connector-curvature="0" />
	<path style="fill:none;stroke:red;stroke-width:1px;stroke-linecap:butt;stroke-linejoin:miter;stroke-opacity:1" d="M 628.454,654.707 609.701,647.206 z" id="boundary" inkscape:connector-curvature="0" />
	<path style="fill:none;stroke:red;stroke-width:1px;stroke-linecap:butt;stroke-linejoin:miter;stroke-opacity:1" d="M 609.701,647.206 590.949,654.707 z" id="boundary" inkscape:connector-curvature="0" />
	<path style="fill:none;stroke:red;stroke-width:1px;stroke-linecap:butt;stroke-linejoin:miter;stroke-opacity:1" d="M 590.949,654.707 572.197,656.582 z" id="boundary" inkscape:connector-curvature="0" />
	<path style="fill:none;stroke:red;stroke-width:1px;stroke-linecap:butt;stroke-linejoin:miter;stroke-opacity:1" d="M 572.197,656.582 553.444,656.582 z" id="boundary" inkscape:connector-curvature="0" />
	<path style="fill:none;stroke:red;stroke-width:1px;stroke-linecap:butt;stroke-linejoin:miter;stroke-opacity:1" d="M 553.444,656.582 534.692,656.582 z" id="boundary" inkscape:connector-curvature="0" />
	<path style="fill:none;stroke:red;stroke-width:1px;stroke-linecap:butt;stroke-linejoin:miter;stroke-opacity:1" d="M 534.692,656.582 515.94,656.582 z" id="boundary" inkscape:connector-curvature="0" />
	<path style="fill:none;stroke:red;stroke-width:1px;stroke-linecap:butt;stroke-linejoin:miter;stroke-opacity:1" d="M 515.94,656.582 497.187,656.582 z" id="boundary" inkscape:connector-curvature="0" />
	<path style="fill:none;stroke:red;stroke-width:1px;stroke-linecap:butt;stroke-linejoin:miter;stroke-opacity:1" d="M 497.187,656.582 489.686,637.83 z" id="boundary" inkscape:connector-curvature="0" />
	<path style="fill:none;stroke:red;stroke-width:1px;stroke-linecap:butt;stroke-linejoin:miter;stroke-opacity:1" d="M 489.686,637.83 472.809,628.454 z" id="boundary" inkscape:connector-curvature="0" />
	<path style="fill:none;stroke:red;stroke-width:1px;stroke-linecap:butt;stroke-linejoin:miter;stroke-opacity:1" d="M 472.809,628.454 469.059,609.701 z" id="boundary" inkscape:connector-curvature="0" />
	<path style="fill:none;stroke:red;stroke-width:1px;stroke-linecap:butt;stroke-linejoin:miter;stroke-opacity:1" d="M 469.059,609.701 463.433,590.949 z" id="boundary" inkscape:connector-curvature="0" />
	<path style="fill:none;stroke:red;stroke-width:1px;stroke-linecap:butt;stroke-linejoin:miter;stroke-opacity:1" d="M 463.433,590.949 448.431,579.698 z" id="boundary" inkscape:connector-curvature="0" />
	<path style="fill:none;stroke:red;stroke-width:1px;stroke-linecap:butt;stroke-linejoin:miter;stroke-opacity:1" d="M 448.431,579.698 431.554,570.321 z" id="boundary" inkscape:connector-curvature="0" />
	<path style="fill:none;stroke:red;stroke-width:1px;stroke-linecap:butt;stroke-linejoin:miter;stroke-opacity:1" d="M 431.554,570.321 412.802,562.82 z" id="boundary" inkscape:connector-curvature="0" />
	<path style="fill:none;stroke:red;stroke-width:1px;stroke-linecap:butt;stroke-linejoin:miter;stroke-opacity:1" d="M 412.802,562.82 394.049,562.82 z" id="boundary" inkscape:connector-curvature="0" />
	<path style="fill:none;stroke:red;stroke-width:1px;stroke-linecap:butt;stroke-linejoin:miter;stroke-opacity:1" d="M 394.049,562.82 377.172,553.444 z" id="boundary" inkscape:connector-curvature="0" />
	<path style="fill:none;stroke:red;stroke-width:1px;stroke-linecap:butt;stroke-linejoin:miter;stroke-opacity:1" d="M 377.172,553.444 360.295,544.068 z" id="boundary" inkscape:connector-curvature="0" />
	<path style="fill:none;stroke:red;stroke-width:1px;stroke-linecap:butt;stroke-linejoin:miter;stroke-opacity:1" d="M 360.295,544.068 343.418,534.692 z" id="boundary" inkscape:connector-curvature="0" />
	<path style="fill:none;stroke:red;stroke-width:1px;stroke-linecap:butt;stroke-linejoin:miter;stroke-opacity:1" d="M 343.418,534.692 324.665,534.692 z" id="boundary" inkscape:connector-curvature="0" />
	<path style="fill:none;stroke:red;stroke-width:1px;stroke-linecap:butt;stroke-linejoin:miter;stroke-opacity:1" d="M 324.665,534.692 324.665,553.444 z" id="boundary" inkscape:connector-curvature="0" />
	<path style="fill:none;stroke:red;stroke-width:1px;stroke-linecap:butt;stroke-linejoin:miter;stroke-opacity:1" d="M 324.665,553.444 313.414,575.947 z" id="boundary" inkscape:connector-curvature="0" />
	<path style="fill:none;stroke:red;stroke-width:1px;stroke-linecap:butt;stroke-linejoin:miter;stroke-opacity:1" d="M 313.414,575.947 304.038,594.699 z" id="boundary" inkscape:connector-curvature="0" />
	<path style="fill:none;stroke:red;stroke-width:1px;stroke-linecap:butt;stroke-linejoin:miter;stroke-opacity:1" d="M 304.038,594.699 285.285,600.325 z" id="boundary" inkscape:connector-curvature="0" />
	<path style="fill:none;stroke:red;stroke-width:1px;stroke-linecap:butt;stroke-linejoin:miter;stroke-opacity:1" d="M 285.285,600.325 266.533,600.325 z" id="boundary" inkscape:connector-curvature="0" />
	<path style="fill:none;stroke:red;stroke-width:1px;stroke-linecap:butt;stroke-linejoin:miter;stroke-opacity:1" d="M 266.533,600.325 247.781,600.325 z" id="boundary" inkscape:connector-curvature="0" />
	<path style="fill:none;stroke:red;stroke-width:1px;stroke-linecap:butt;stroke-linejoin:miter;stroke-opacity:1" d="M 247.781,600.325 229.028,600.325 z" id="boundary" inkscape:connector-curvature="0" />
	<path style="fill:none;stroke:red;stroke-width:1px;stroke-linecap:butt;stroke-linejoin:miter;stroke-opacity:1" d="M 229.028,600.325 212.151,590.949 z" id="boundary" inkscape:connector-curvature="0" />
	<path style="fill:none;stroke:red;stroke-width:1px;stroke-linecap:butt;stroke-linejoin:miter;stroke-opacity:1" d="M 212.151,590.949 200.9,575.947 z" id="boundary" inkscape:connector-curvature="0" />
	<path style="fill:none;stroke:red;stroke-width:1px;stroke-linecap:butt;stroke-linejoin:miter;stroke-opacity:1" d="M 200.9,575.947 200.9,557.195 z" id="boundary" inkscape:connector-curvature="0" />
	<path style="fill:none;stroke:red;stroke-width:1px;stroke-linecap:butt;stroke-linejoin:miter;stroke-opacity:1" d="M 200.9,557.195 200.9,538.442 z" id="boundary" inkscape:connector-curvature="0" />
	<path style="fill:none;stroke:red;stroke-width:1px;stroke-linecap:butt;stroke-linejoin:miter;stroke-opacity:1" d="M 200.9,538.442 200.9,519.69 z" id="boundary" inkscape:connector-curvature="0" />
	<path style="fill:none;stroke:red;stroke-width:1px;stroke-linecap:butt;stroke-linejoin:miter;stroke-opacity:1" d="M 200.9,519.69 200.9,500.938 z" id="boundary" inkscape:connector-curvature="0" />
	<path style="fill:none;stroke:red;stroke-width:1px;stroke-linecap:butt;stroke-linejoin:miter;stroke-opacity:1" d="M 200.9,500.938 200.9,482.185 z" id="boundary" inkscape:connector-curvature="0" />
	<path style="fill:none;stroke:red;stroke-width:1px;stroke-linecap:butt;stroke-linejoin:miter;stroke-opacity:1" d="M 200.9,482.185 210.276,463.433 z" id="boundary" inkscape:connector-curvature="0" />
	<path style="fill:none;stroke:red;stroke-width:1px;stroke-linecap:butt;stroke-linejoin:miter;stroke-opacity:1" d="M 210.276,463.433 197.149,448.431 z" id="boundary" inkscape:connector-curvature="0" />
	<path style="fill:none;stroke:red;stroke-width:1px;stroke-linecap:butt;stroke-linejoin:miter;stroke-opacity:1" d="M 197.149,448.431 182.147,435.304 z" id="boundary" inkscape:connector-curvature="0" />
	<path style="fill:none;stroke:red;stroke-width:1px;stroke-linecap:butt;stroke-linejoin:miter;stroke-opacity:1" d="M 182.147,435.304 169.021,420.302 z" id="boundary" inkscape:connector-curvature="0" />
	<path style="fill:none;stroke:red;stroke-width:1px;stroke-linecap:butt;stroke-linejoin:miter;stroke-opacity:1" d="M 169.021,420.302 154.019,407.176 z" id="boundary" inkscape:connector-curvature="0" />
	<path style="fill:none;stroke:red;stroke-width:1px;stroke-linecap:butt;stroke-linejoin:miter;stroke-opacity:1" d="M 154.019,407.176 140.892,392.174 z" id="boundary" inkscape:connector-curvature="0" />
	<path style="fill:none;stroke:red;stroke-width:1px;stroke-linecap:butt;stroke-linejoin:miter;stroke-opacity:1" d="M 140.892,392.174 125.89,379.047 z" id="boundary" inkscape:connector-curvature="0" />
	<path style="fill:none;stroke:red;stroke-width:1px;stroke-linecap:butt;stroke-linejoin:miter;stroke-opacity:1" d="M 125.89,379.047 112.764,364.045 z" id="boundary" inkscape:connector-curvature="0" />
	<path style="fill:none;stroke:red;stroke-width:1px;stroke-linecap:butt;stroke-linejoin:miter;stroke-opacity:1" d="M 112.764,364.045 97.7618,350.919 z" id="boundary" inkscape:connector-curvature="0" />
	<path style="fill:none;stroke:red;stroke-width:1px;stroke-linecap:butt;stroke-linejoin:miter;stroke-opacity:1" d="M 97.7618,350.919 94.0113,317.164 z" id="boundary" inkscape:connector-curvature="0" />
	<circle cx="4" cy="135.267" r="4" fill="#0" id="circle0"/>
	<circle cx="4" cy="154.019" r="4" fill="#0" id="circle1"/>
	<circle cx="4" cy="172.771" r="4" fill="#0" id="circle2"/>
	<circle cx="13.3762" cy="189.648" r="4" fill="#0" id="circle3"/>
	<circle cx="13.3762" cy="208.401" r="4" fill="#0" id="circle4"/>
	<circle cx="19.0019" cy="120.265" r="4" fill="#0" id="circle5"/>
	<circle cx="22.7524" cy="225.278" r="4" fill="#0" id="circle6"/>
	<circle cx="28.3781" cy="244.03" r="4" fill="#0" id="circle7"/>
	<circle cx="37.7543" cy="110.888" r="4" fill="#0" id="circle8"/>
	<circle cx="41.5047" cy="259.032" r="4" fill="#0" id="circle9"/>
	<circle cx="50.8809" cy="275.909" r="4" fill="#0" id="circle10"/>
	<circle cx="54.6314" cy="101.512" r="4" fill="#0" id="circle11"/>
	<circle cx="65.8828" cy="289.036" r="4" fill="#0" id="circle12"/>
	<circle cx="73.3837" cy="101.512" r="4" fill="#0" id="circle13"/>
	<circle cx="79.0095" cy="304.038" r="4" fill="#0" id="circle14"/>
	<circle cx="92.1361" cy="101.512" r="4" fill="#0" id="circle15"/>
	<circle cx="94.0113" cy="317.164" r="4" fill="#0" id="circle16"/>
	<circle cx="97.7618" cy="350.919" r="4" fill="#0" id="circle17"/>
	<circle cx="109.013" cy="110.888" r="4" fill="#0" id="circle18"/>
	<circle cx="112.764" cy="364.045" r="4" fill="#0" id="circle19"/>
	<circle cx="125.89" cy="379.047" r="4" fill="#0" id="circle20"/>
	<circle cx="127.766" cy="110.888" r="4" fill="#0" id="circle21"/>
	<circle cx="140.892" cy="392.174" r="4" fill="#0" id="circle22"/>
	<circle cx="144.643" cy="120.265" r="4" fill="#0" id="circle23"/>
	<circle cx="154.019" cy="407.176" r="4" fill="#0" id="circle24"/>
	<circle cx="163.395" cy="120.265" r="4" fill="#0" id="circle25"/>
	<circle cx="169.021" cy="420.302" r="4" fill="#0" id="circle26"/>
	<circle cx="180.272" cy="129.641" r="4" fill="#0" id="circle27"/>
	<circle cx="182.147" cy="435.304" r="4" fill="#0" id="circle28"/>
	<circle cx="197.149" cy="448.431" r="4" fill="#0" id="circle29"/>
	<circle cx="199.025" cy="131.516" r="4" fill="#0" id="circle30"/>
	<circle cx="200.9" cy="482.185" r="4" fill="#0" id="circle31"/>
	<circle cx="200.9" cy="500.938" r="4" fill="#0" id="circle32"/>
	<circle cx="200.9" cy="519.69" r="4" fill="#0" id="circle33"/>
	<circle cx="200.9" cy="538.442" r="4" fill="#0" id="circle34"/>
	<circle cx="200.9" cy="557.195" r="4" fill="#0" id="circle35"/>
	<circle cx="200.9" cy="575.947" r="4" fill="#0" id="circle36"/>
	<circle cx="210.276" cy="463.433" r="4" fill="#0" id="circle37"/>
	<circle cx="212.151" cy="590.949" r="4" fill="#0" id="circle38"/>
	<circle cx="217.777" cy="139.017" r="4" fill="#0" id="circle39"/>
	<circle cx="229.028" cy="88.3856" r="4" fill="#0" id="circle40"/>
	<circle cx="229.028" cy="107.138" r="4" fill="#0" id="circle41"/>
	<circle cx="229.028" cy="600.325" r="4" fill="#0" id="circle42"/>
	<circle cx="238.405" cy="4" r="4" fill="#0" id="circle43"/>
	<circle cx="238.405" cy="22.7524" r="4" fill="#0" id="circle44"/>
	<circle cx="238.405" cy="41.5047" r="4" fill="#0" id="circle45"/>
	<circle cx="238.405" cy="60.2571" r="4" fill="#0" id="circle46"/>
	<circle cx="247.781" cy="600.325" r="4" fill="#0" id="circle47"/>
	<circle cx="257.157" cy="7.75047" r="4" fill="#0" id="circle48"/>
	<circle cx="266.533" cy="600.325" r="4" fill="#0" id="circle49"/>
	<circle cx="275.909" cy="7.75047" r="4" fill="#0" id="circle50"/>
	<circle cx="285.285" cy="600.325" r="4" fill="#0" id="circle51"/>
	<circle cx="294.662" cy="7.75047" r="4" fill="#0" id="circle52"/>
	<circle cx="304.038" cy="594.699" r="4" fill="#0" id="circle53"/>
	<circle cx="313.414" cy="7.75047" r="4" fill="#0" id="circle54"/>
	<circle cx="313.414" cy="575.947" r="4" fill="#0" id="circle55"/>
	<circle cx="324.665" cy="534.692" r="4" fill="#0" id="circle56"/>
	<circle cx="324.665" cy="553.444" r="4" fill="#0" id="circle57"/>
	<circle cx="332.166" cy="7.75047" r="4" fill="#0" id="circle58"/>
	<circle cx="334.042" cy="84.6352" r="4" fill="#0" id="circle59"/>
	<circle cx="334.042" cy="103.388" r="4" fill="#0" id="circle60"/>
	<circle cx="334.042" cy="122.14" r="4" fill="#0" id="circle61"/>
	<circle cx="334.042" cy="140.892" r="4" fill="#0" id="circle62"/>
	<circle cx="334.042" cy="159.645" r="4" fill="#0" id="circle63"/>
	<circle cx="334.042" cy="178.397" r="4" fill="#0" id="circle64"/>
	<circle cx="343.418" cy="22.7524" r="4" fill="#0" id="circle65"/>
	<circle cx="343.418" cy="41.5047" r="4" fill="#0" id="circle66"/>
	<circle cx="343.418" cy="60.2571" r="4" fill="#0" id="circle67"/>
	<circle cx="343.418" cy="195.274" r="4" fill="#0" id="circle68"/>
	<circle cx="343.418" cy="534.692" r="4" fill="#0" id="circle69"/>
	<circle cx="360.295" cy="204.65" r="4" fill="#0" id="circle70"/>
	<circle cx="360.295" cy="544.068" r="4" fill="#0" id="circle71"/>
	<circle cx="371.546" cy="219.652" r="4" fill="#0" id="circle72"/>
	<circle cx="377.172" cy="553.444" r="4" fill="#0" id="circle73"/>
	<circle cx="388.423" cy="229.028" r="4" fill="#0" id="circle74"/>
	<circle cx="394.049" cy="562.82" r="4" fill="#0" id="circle75"/>
	<circle cx="403.425" cy="242.155" r="4" fill="#0" id="circle76"/>
	<circle cx="412.802" cy="562.82" r="4" fill="#0" id="circle77"/>
	<circle cx="422.178" cy="242.155" r="4" fill="#0" id="circle78"/>
	<circle cx="431.554" cy="570.321" r="4" fill="#0" id="circle79"/>
	<circle cx="440.93" cy="242.155" r="4" fill="#0" id="circle80"/>
	<circle cx="448.431" cy="579.698" r="4" fill="#0" id="circle81"/>
	<circle cx="459.682" cy="242.155" r="4" fill="#0" id="circle82"/>
	<circle cx="463.433" cy="590.949" r="4" fill="#0" id="circle83"/>
	<circle cx="469.059" cy="609.701" r="4" fill="#0" id="circle84"/>
	<circle cx="472.809" cy="628.454" r="4" fill="#0" id="circle85"/>
	<circle cx="476.56" cy="232.779" r="4" fill="#0" id="circle86"/>
	<circle cx="489.686" cy="637.83" r="4" fill="#0" id="circle87"/>
	<circle cx="495.312" cy="225.278" r="4" fill="#0" id="circle88"/>
	<circle cx="497.187" cy="656.582" r="4" fill="#0" id="circle89"/>
	<circle cx="514.064" cy="232.779" r="4" fill="#0" id="circle90"/>
	<circle cx="515.94" cy="656.582" r="4" fill="#0" id="circle91"/>
	<circle cx="532.817" cy="232.779" r="4" fill="#0" id="circle92"/>
	<circle cx="534.692" cy="656.582" r="4" fill="#0" id="circle93"/>
	<circle cx="551.569" cy="232.779" r="4" fill="#0" id="circle94"/>
	<circle cx="553.444" cy="656.582" r="4" fill="#0" id="circle95"/>
	<circle cx="570.321" cy="232.779" r="4" fill="#0" id="circle96"/>
	<circle cx="572.197" cy="656.582" r="4" fill="#0" id="circle97"/>
	<circle cx="587.198" cy="242.155" r="4" fill="#0" id="circle98"/>
	<circle cx="590.949" cy="654.707" r="4" fill="#0" id="circle99"/>
	<circle cx="596.575" cy="259.032" r="4" fill="#0" id="circle100"/>
	<circle cx="596.575" cy="277.784" r="4" fill="#0" id="circle101"/>
	<circle cx="596.575" cy="296.537" r="4" fill="#0" id="circle102"/>
	<circle cx="596.575" cy="375.297" r="4" fill="#0" id="circle103"/>
	<circle cx="600.325" cy="394.049" r="4" fill="#0" id="circle104"/>
	<circle cx="605.951" cy="313.414" r="4" fill="#0" id="circle105"/>
	<circle cx="605.951" cy="332.166" r="4" fill="#0" id="circle106"/>
	<circle cx="609.701" cy="647.206" r="4" fill="#0" id="circle107"/>
	<circle cx="611.577" cy="362.17" r="4" fill="#0" id="circle108"/>
	<circle cx="615.327" cy="407.176" r="4" fill="#0" id="circle109"/>
	<circle cx="628.454" cy="422.178" r="4" fill="#0" id="circle110"/>
	<circle cx="628.454" cy="654.707" r="4" fill="#0" id="circle111"/>
	<circle cx="637.83" cy="439.055" r="4" fill="#0" id="circle112"/>
	<circle cx="647.206" cy="656.582" r="4" fill="#0" id="circle113"/>
	<circle cx="650.957" cy="454.057" r="4" fill="#0" id="circle114"/>
	<circle cx="664.083" cy="665.958" r="4" fill="#0" id="circle115"/>
	<circle cx="665.958" cy="467.183" r="4" fill="#0" id="circle116"/>
	<circle cx="682.836" cy="476.56" r="4" fill="#0" id="circle117"/>
	<circle cx="682.836" cy="665.958" r="4" fill="#0" id="circle118"/>
	<circle cx="697.837" cy="489.686" r="4" fill="#0" id="circle119"/>
	<circle cx="701.588" cy="671.584" r="4" fill="#0" id="circle120"/>
	<circle cx="705.338" cy="508.439" r="4" fill="#0" id="circle121"/>
	<circle cx="716.59" cy="684.711" r="4" fill="#0" id="circle122"/>
	<circle cx="718.465" cy="523.44" r="4" fill="#0" id="circle123"/>
	<circle cx="722.216" cy="703.463" r="4" fill="#0" id="circle124"/>
	<circle cx="731.592" cy="720.34" r="4" fill="#0" id="circle125"/>
	<circle cx="735.342" cy="532.817" r="4" fill="#0" id="circle126"/>
	<circle cx="744.718" cy="735.342" r="4" fill="#0" id="circle127"/>
	<circle cx="744.718" cy="754.095" r="4" fill="#0" id="circle128"/>
	<circle cx="750.344" cy="544.068" r="4" fill="#0" id="circle129"/>
	<circle cx="754.095" cy="770.972" r="4" fill="#0" id="circle130"/>
	<circle cx="763.471" cy="787.849" r="4" fill="#0" id="circle131"/>
	<circle cx="765.346" cy="557.195" r="4" fill="#0" id="circle132"/>
	<circle cx="774.722" cy="802.851" r="4" fill="#0" id="circle133"/>
	<circle cx="778.473" cy="572.197" r="4" fill="#0" id="circle134"/>
	<circle cx="784.098" cy="819.728" r="4" fill="#0" id="circle135"/>
	<circle cx="797.225" cy="579.698" r="4" fill="#0" id="circle136"/>
	<circle cx="797.225" cy="834.73" r="4" fill="#0" id="circle137"/>
	<circle cx="812.227" cy="847.856" r="4" fill="#0" id="circle138"/>
	<circle cx="814.102" cy="589.074" r="4" fill="#0" id="circle139"/>
	<circle cx="830.979" cy="703.463" r="4" fill="#0" id="circle140"/>
	<circle cx="830.979" cy="853.482" r="4" fill="#0" id="circle141"/>
	<circle cx="832.854" cy="589.074" r="4" fill="#0" id="circle142"/>
	<circle cx="840.355" cy="684.711" r="4" fill="#0" id="circle143"/>
	<circle cx="840.355" cy="720.34" r="4" fill="#0" id="circle144"/>
	<circle cx="840.355" cy="739.093" r="4" fill="#0" id="circle145"/>
	<circle cx="840.355" cy="757.845" r="4" fill="#0" id="circle146"/>
	<circle cx="840.355" cy="776.597" r="4" fill="#0" id="circle147"/>
	<circle cx="840.355" cy="795.35" r="4" fill="#0" id="circle148"/>
	<circle cx="840.355" cy="814.102" r="4" fill="#0" id="circle149"/>
	<circle cx="840.355" cy="832.854" r="4" fill="#0" id="circle150"/>
	<circle cx="851.607" cy="589.074" r="4" fill="#0" id="circle151"/>
	<circle cx="859.108" cy="675.335" r="4" fill="#0" id="circle152"/>
	<circle cx="868.484" cy="598.45" r="4" fill="#0" id="circle153"/>
	<circle cx="877.86" cy="675.335" r="4" fill="#0" id="circle154"/>
	<circle cx="887.236" cy="598.45" r="4" fill="#0" id="circle155"/>
	<circle cx="894.737" cy="665.958" r="4" fill="#0" id="circle156"/>
	<circle cx="904.113" cy="607.826" r="4" fill="#0" id="circle157"/>
	<circle cx="911.614" cy="675.335" r="4" fill="#0" id="circle158"/>
	<circle cx="922.866" cy="607.826" r="4" fill="#0" id="circle159"/>
	<circle cx="930.367" cy="675.335" r="4" fill="#0" id="circle160"/>
	<circle cx="941.618" cy="611.577" r="4" fill="#0" id="circle161"/>
	<circle cx="949.119" cy="675.335" r="4" fill="#0" id="circle162"/>
	<circle cx="960.371" cy="617.202" r="4" fill="#0" id="circle163"/>
	<circle cx="965.996" cy="665.958" r="4" fill="#0" id="circle164"/>
	<circle cx="979.123" cy="620.953" r="4" fill="#0" id="circle165"/>
	<circle cx="982.873" cy="656.582" r="4" fill="#0" id="circle166"/>
	<circle cx="996" cy="630.329" r="4" fill="#0" id="circle167"/>
	</g>
</svg>