<?xml version="1.0" encoding="UTF-8" standalone="no"?>
<!-- Created with CurveBenchmark -->
<svg
	xmlns:dc="http://purl.org/dc/elements/1.1/"
	xmlns:cc="http://creativecommons.org/ns#"
	xmlns:rdf="http://www.w3.org/1999/02/22-rdf-syntax-ns#"
	xmlns:svg="http://www.w3.org/2000/svg"
	xmlns="http://www.w3.org/2000/svg"
	xmlns:sodipodi="http://sodipodi.sourceforge.net/DTD/sodipodi-0.dtd"
	xmlns:inkscape="http://www.inkscape.org/namespaces/inkscape"
	width="1000"
	height="1000"
	id="svg2"
	version="1.1"
	sodipodi:docname="manifold/crawl-bird085.png.txt">
<defs
	id="defs4" />
<metadata
	id="metadata7">
	<rdf:RDF>
		<cc:Work
			rdf:about="">
			<dc:format>image/svg+xml</dc:format>
			<dc:type
				rdf:resource="http://purl.org/dc/dcmitype/StillImage" />
			<dc:title></dc:title>
		</cc:Work>
	</rdf:RDF>
</metadata>
<g
	inkscape:label="Layer 1"
	inkscape:groupmode="layer"
	id="layer1">
	<path style="fill:none;stroke:red;stroke-width:1px;stroke-linecap:butt;stroke-linejoin:miter;stroke-opacity:1" d="M 66.2431,27.3412 35.1216,50.6824 z" id="boundary" inkscape:connector-curvature="0" />
	<path style="fill:none;stroke:red;stroke-width:1px;stroke-linecap:butt;stroke-linejoin:miter;stroke-opacity:1" d="M 35.1216,50.6824 11.7804,81.8039 z" id="boundary" inkscape:connector-curvature="0" />
	<path style="fill:none;stroke:red;stroke-width:1px;stroke-linecap:butt;stroke-linejoin:miter;stroke-opacity:1" d="M 66.2431,27.3412 105.145,11.7804 z" id="boundary" inkscape:connector-curvature="0" />
	<path style="fill:none;stroke:red;stroke-width:1px;stroke-linecap:butt;stroke-linejoin:miter;stroke-opacity:1" d="M 105.145,11.7804 144.047,4 z" id="boundary" inkscape:connector-curvature="0" />
	<path style="fill:none;stroke:red;stroke-width:1px;stroke-linecap:butt;stroke-linejoin:miter;stroke-opacity:1" d="M 144.047,4 182.949,11.7804 z" id="boundary" inkscape:connector-curvature="0" />
	<path style="fill:none;stroke:red;stroke-width:1px;stroke-linecap:butt;stroke-linejoin:miter;stroke-opacity:1" d="M 182.949,11.7804 221.851,27.3412 z" id="boundary" inkscape:connector-curvature="0" />
	<path style="fill:none;stroke:red;stroke-width:1px;stroke-linecap:butt;stroke-linejoin:miter;stroke-opacity:1" d="M 221.851,27.3412 252.973,50.6824 z" id="boundary" inkscape:connector-curvature="0" />
	<path style="fill:none;stroke:red;stroke-width:1px;stroke-linecap:butt;stroke-linejoin:miter;stroke-opacity:1" d="M 252.973,50.6824 272.424,85.6941 z" id="boundary" inkscape:connector-curvature="0" />
	<path style="fill:none;stroke:red;stroke-width:1px;stroke-linecap:butt;stroke-linejoin:miter;stroke-opacity:1" d="M 272.424,85.6941 280.204,124.596 z" id="boundary" inkscape:connector-curvature="0" />
	<path style="fill:none;stroke:red;stroke-width:1px;stroke-linecap:butt;stroke-linejoin:miter;stroke-opacity:1" d="M 280.204,124.596 280.204,163.498 z" id="boundary" inkscape:connector-curvature="0" />
	<path style="fill:none;stroke:red;stroke-width:1px;stroke-linecap:butt;stroke-linejoin:miter;stroke-opacity:1" d="M 11.7804,81.8039 4,128.486 z" id="boundary" inkscape:connector-curvature="0" />
	<path style="fill:none;stroke:red;stroke-width:1px;stroke-linecap:butt;stroke-linejoin:miter;stroke-opacity:1" d="M 4,128.486 4,167.388 z" id="boundary" inkscape:connector-curvature="0" />
	<path style="fill:none;stroke:red;stroke-width:1px;stroke-linecap:butt;stroke-linejoin:miter;stroke-opacity:1" d="M 4,167.388 4,206.29 z" id="boundary" inkscape:connector-curvature="0" />
	<path style="fill:none;stroke:red;stroke-width:1px;stroke-linecap:butt;stroke-linejoin:miter;stroke-opacity:1" d="M 4,206.29 4,245.192 z" id="boundary" inkscape:connector-curvature="0" />
	<path style="fill:none;stroke:red;stroke-width:1px;stroke-linecap:butt;stroke-linejoin:miter;stroke-opacity:1" d="M 4,245.192 4,284.094 z" id="boundary" inkscape:connector-curvature="0" />
	<path style="fill:none;stroke:red;stroke-width:1px;stroke-linecap:butt;stroke-linejoin:miter;stroke-opacity:1" d="M 4,284.094 11.7804,322.996 z" id="boundary" inkscape:connector-curvature="0" />
	<path style="fill:none;stroke:red;stroke-width:1px;stroke-linecap:butt;stroke-linejoin:miter;stroke-opacity:1" d="M 11.7804,322.996 23.451,361.898 z" id="boundary" inkscape:connector-curvature="0" />
	<path style="fill:none;stroke:red;stroke-width:1px;stroke-linecap:butt;stroke-linejoin:miter;stroke-opacity:1" d="M 23.451,361.898 50.6824,393.02 z" id="boundary" inkscape:connector-curvature="0" />
	<path style="fill:none;stroke:red;stroke-width:1px;stroke-linecap:butt;stroke-linejoin:miter;stroke-opacity:1" d="M 50.6824,393.02 50.6824,431.922 z" id="boundary" inkscape:connector-curvature="0" />
	<path style="fill:none;stroke:red;stroke-width:1px;stroke-linecap:butt;stroke-linejoin:miter;stroke-opacity:1" d="M 50.6824,431.922 50.6824,470.824 z" id="boundary" inkscape:connector-curvature="0" />
	<path style="fill:none;stroke:red;stroke-width:1px;stroke-linecap:butt;stroke-linejoin:miter;stroke-opacity:1" d="M 50.6824,470.824 58.4627,509.725 z" id="boundary" inkscape:connector-curvature="0" />
	<path style="fill:none;stroke:red;stroke-width:1px;stroke-linecap:butt;stroke-linejoin:miter;stroke-opacity:1" d="M 58.4627,509.725 58.4627,548.627 z" id="boundary" inkscape:connector-curvature="0" />
	<path style="fill:none;stroke:red;stroke-width:1px;stroke-linecap:butt;stroke-linejoin:miter;stroke-opacity:1" d="M 58.4627,548.627 66.2431,587.529 z" id="boundary" inkscape:connector-curvature="0" />
	<path style="fill:none;stroke:red;stroke-width:1px;stroke-linecap:butt;stroke-linejoin:miter;stroke-opacity:1" d="M 66.2431,587.529 66.2431,626.431 z" id="boundary" inkscape:connector-curvature="0" />
	<path style="fill:none;stroke:red;stroke-width:1px;stroke-linecap:butt;stroke-linejoin:miter;stroke-opacity:1" d="M 66.2431,626.431 66.2431,665.333 z" id="boundary" inkscape:connector-curvature="0" />
	<path style="fill:none;stroke:red;stroke-width:1px;stroke-linecap:butt;stroke-linejoin:miter;stroke-opacity:1" d="M 66.2431,665.333 66.2431,704.235 z" id="boundary" inkscape:connector-curvature="0" />
	<path style="fill:none;stroke:red;stroke-width:1px;stroke-linecap:butt;stroke-linejoin:miter;stroke-opacity:1" d="M 66.2431,704.235 66.2431,743.137 z" id="boundary" inkscape:connector-curvature="0" />
	<path style="fill:none;stroke:red;stroke-width:1px;stroke-linecap:butt;stroke-linejoin:miter;stroke-opacity:1" d="M 66.2431,743.137 66.2431,782.039 z" id="boundary" inkscape:connector-curvature="0" />
	<path style="fill:none;stroke:red;stroke-width:1px;stroke-linecap:butt;stroke-linejoin:miter;stroke-opacity:1" d="M 66.2431,782.039 66.2431,820.941 z" id="boundary" inkscape:connector-curvature="0" />
	<path style="fill:none;stroke:red;stroke-width:1px;stroke-linecap:butt;stroke-linejoin:miter;stroke-opacity:1" d="M 66.2431,820.941 66.2431,859.843 z" id="boundary" inkscape:connector-curvature="0" />
	<path style="fill:none;stroke:red;stroke-width:1px;stroke-linecap:butt;stroke-linejoin:miter;stroke-opacity:1" d="M 66.2431,859.843 66.2431,898.745 z" id="boundary" inkscape:connector-curvature="0" />
	<path style="fill:none;stroke:red;stroke-width:1px;stroke-linecap:butt;stroke-linejoin:miter;stroke-opacity:1" d="M 66.2431,898.745 109.035,883.184 z" id="boundary" inkscape:connector-curvature="0" />
	<path style="fill:none;stroke:red;stroke-width:1px;stroke-linecap:butt;stroke-linejoin:miter;stroke-opacity:1" d="M 109.035,883.184 109.035,922.086 z" id="boundary" inkscape:connector-curvature="0" />
	<path style="fill:none;stroke:red;stroke-width:1px;stroke-linecap:butt;stroke-linejoin:miter;stroke-opacity:1" d="M 109.035,922.086 120.706,960.988 z" id="boundary" inkscape:connector-curvature="0" />
	<path style="fill:none;stroke:red;stroke-width:1px;stroke-linecap:butt;stroke-linejoin:miter;stroke-opacity:1" d="M 120.706,960.988 167.388,945.427 z" id="boundary" inkscape:connector-curvature="0" />
	<path style="fill:none;stroke:red;stroke-width:1px;stroke-linecap:butt;stroke-linejoin:miter;stroke-opacity:1" d="M 167.388,945.427 171.278,984.329 z" id="boundary" inkscape:connector-curvature="0" />
	<path style="fill:none;stroke:red;stroke-width:1px;stroke-linecap:butt;stroke-linejoin:miter;stroke-opacity:1" d="M 171.278,984.329 210.18,996 z" id="boundary" inkscape:connector-curvature="0" />
	<path style="fill:none;stroke:red;stroke-width:1px;stroke-linecap:butt;stroke-linejoin:miter;stroke-opacity:1" d="M 210.18,996 241.302,953.208 z" id="boundary" inkscape:connector-curvature="0" />
	<path style="fill:none;stroke:red;stroke-width:1px;stroke-linecap:butt;stroke-linejoin:miter;stroke-opacity:1" d="M 241.302,953.208 217.961,922.086 z" id="boundary" inkscape:connector-curvature="0" />
	<path style="fill:none;stroke:red;stroke-width:1px;stroke-linecap:butt;stroke-linejoin:miter;stroke-opacity:1" d="M 217.961,922.086 217.961,883.184 z" id="boundary" inkscape:connector-curvature="0" />
	<path style="fill:none;stroke:red;stroke-width:1px;stroke-linecap:butt;stroke-linejoin:miter;stroke-opacity:1" d="M 217.961,883.184 210.18,844.282 z" id="boundary" inkscape:connector-curvature="0" />
	<path style="fill:none;stroke:red;stroke-width:1px;stroke-linecap:butt;stroke-linejoin:miter;stroke-opacity:1" d="M 210.18,844.282 210.18,805.38 z" id="boundary" inkscape:connector-curvature="0" />
	<path style="fill:none;stroke:red;stroke-width:1px;stroke-linecap:butt;stroke-linejoin:miter;stroke-opacity:1" d="M 210.18,805.38 210.18,766.478 z" id="boundary" inkscape:connector-curvature="0" />
	<path style="fill:none;stroke:red;stroke-width:1px;stroke-linecap:butt;stroke-linejoin:miter;stroke-opacity:1" d="M 210.18,766.478 210.18,727.576 z" id="boundary" inkscape:connector-curvature="0" />
	<path style="fill:none;stroke:red;stroke-width:1px;stroke-linecap:butt;stroke-linejoin:miter;stroke-opacity:1" d="M 210.18,727.576 210.18,688.675 z" id="boundary" inkscape:connector-curvature="0" />
	<path style="fill:none;stroke:red;stroke-width:1px;stroke-linecap:butt;stroke-linejoin:miter;stroke-opacity:1" d="M 210.18,688.675 210.18,649.773 z" id="boundary" inkscape:connector-curvature="0" />
	<path style="fill:none;stroke:red;stroke-width:1px;stroke-linecap:butt;stroke-linejoin:miter;stroke-opacity:1" d="M 210.18,649.773 210.18,610.871 z" id="boundary" inkscape:connector-curvature="0" />
	<path style="fill:none;stroke:red;stroke-width:1px;stroke-linecap:butt;stroke-linejoin:miter;stroke-opacity:1" d="M 210.18,610.871 167.388,622.541 z" id="boundary" inkscape:connector-curvature="0" />
	<path style="fill:none;stroke:red;stroke-width:1px;stroke-linecap:butt;stroke-linejoin:miter;stroke-opacity:1" d="M 167.388,622.541 167.388,661.443 z" id="boundary" inkscape:connector-curvature="0" />
	<path style="fill:none;stroke:red;stroke-width:1px;stroke-linecap:butt;stroke-linejoin:miter;stroke-opacity:1" d="M 167.388,661.443 167.388,700.345 z" id="boundary" inkscape:connector-curvature="0" />
	<path style="fill:none;stroke:red;stroke-width:1px;stroke-linecap:butt;stroke-linejoin:miter;stroke-opacity:1" d="M 167.388,700.345 167.388,739.247 z" id="boundary" inkscape:connector-curvature="0" />
	<path style="fill:none;stroke:red;stroke-width:1px;stroke-linecap:butt;stroke-linejoin:miter;stroke-opacity:1" d="M 167.388,739.247 167.388,778.149 z" id="boundary" inkscape:connector-curvature="0" />
	<path style="fill:none;stroke:red;stroke-width:1px;stroke-linecap:butt;stroke-linejoin:miter;stroke-opacity:1" d="M 167.388,778.149 167.388,817.051 z" id="boundary" inkscape:connector-curvature="0" />
	<path style="fill:none;stroke:red;stroke-width:1px;stroke-linecap:butt;stroke-linejoin:miter;stroke-opacity:1" d="M 167.388,817.051 167.388,855.953 z" id="boundary" inkscape:connector-curvature="0" />
	<path style="fill:none;stroke:red;stroke-width:1px;stroke-linecap:butt;stroke-linejoin:miter;stroke-opacity:1" d="M 167.388,855.953 175.169,894.855 z" id="boundary" inkscape:connector-curvature="0" />
	<path style="fill:none;stroke:red;stroke-width:1px;stroke-linecap:butt;stroke-linejoin:miter;stroke-opacity:1" d="M 280.204,163.498 272.424,237.412 z" id="boundary" inkscape:connector-curvature="0" />
	<path style="fill:none;stroke:red;stroke-width:1px;stroke-linecap:butt;stroke-linejoin:miter;stroke-opacity:1" d="M 272.424,237.412 256.863,291.875 z" id="boundary" inkscape:connector-curvature="0" />
	<path style="fill:none;stroke:red;stroke-width:1px;stroke-linecap:butt;stroke-linejoin:miter;stroke-opacity:1" d="M 256.863,291.875 241.302,330.776 z" id="boundary" inkscape:connector-curvature="0" />
	<path style="fill:none;stroke:red;stroke-width:1px;stroke-linecap:butt;stroke-linejoin:miter;stroke-opacity:1" d="M 241.302,330.776 233.522,385.239 z" id="boundary" inkscape:connector-curvature="0" />
	<path style="fill:none;stroke:red;stroke-width:1px;stroke-linecap:butt;stroke-linejoin:miter;stroke-opacity:1" d="M 233.522,385.239 233.522,424.141 z" id="boundary" inkscape:connector-curvature="0" />
	<path style="fill:none;stroke:red;stroke-width:1px;stroke-linecap:butt;stroke-linejoin:miter;stroke-opacity:1" d="M 233.522,424.141 225.741,470.824 z" id="boundary" inkscape:connector-curvature="0" />
	<path style="fill:none;stroke:red;stroke-width:1px;stroke-linecap:butt;stroke-linejoin:miter;stroke-opacity:1" d="M 225.741,470.824 167.388,466.933 z" id="boundary" inkscape:connector-curvature="0" />
	<path style="fill:none;stroke:red;stroke-width:1px;stroke-linecap:butt;stroke-linejoin:miter;stroke-opacity:1" d="M 167.388,466.933 167.388,505.835 z" id="boundary" inkscape:connector-curvature="0" />
	<path style="fill:none;stroke:red;stroke-width:1px;stroke-linecap:butt;stroke-linejoin:miter;stroke-opacity:1" d="M 167.388,505.835 167.388,544.737 z" id="boundary" inkscape:connector-curvature="0" />
	<path style="fill:none;stroke:red;stroke-width:1px;stroke-linecap:butt;stroke-linejoin:miter;stroke-opacity:1" d="M 167.388,544.737 167.388,583.639 z" id="boundary" inkscape:connector-curvature="0" />
	<path style="fill:none;stroke:red;stroke-width:1px;stroke-linecap:butt;stroke-linejoin:miter;stroke-opacity:1" d="M 167.388,583.639 109.035,571.969 z" id="boundary" inkscape:connector-curvature="0" />
	<path style="fill:none;stroke:red;stroke-width:1px;stroke-linecap:butt;stroke-linejoin:miter;stroke-opacity:1" d="M 109.035,571.969 109.035,610.871 z" id="boundary" inkscape:connector-curvature="0" />
	<path style="fill:none;stroke:red;stroke-width:1px;stroke-linecap:butt;stroke-linejoin:miter;stroke-opacity:1" d="M 109.035,610.871 109.035,649.773 z" id="boundary" inkscape:connector-curvature="0" />
	<path style="fill:none;stroke:red;stroke-width:1px;stroke-linecap:butt;stroke-linejoin:miter;stroke-opacity:1" d="M 109.035,649.773 109.035,688.675 z" id="boundary" inkscape:connector-curvature="0" />
	<path style="fill:none;stroke:red;stroke-width:1px;stroke-linecap:butt;stroke-linejoin:miter;stroke-opacity:1" d="M 109.035,688.675 109.035,727.576 z" id="boundary" inkscape:connector-curvature="0" />
	<path style="fill:none;stroke:red;stroke-width:1px;stroke-linecap:butt;stroke-linejoin:miter;stroke-opacity:1" d="M 109.035,727.576 109.035,766.478 z" id="boundary" inkscape:connector-curvature="0" />
	<path style="fill:none;stroke:red;stroke-width:1px;stroke-linecap:butt;stroke-linejoin:miter;stroke-opacity:1" d="M 109.035,766.478 109.035,805.38 z" id="boundary" inkscape:connector-curvature="0" />
	<path style="fill:none;stroke:red;stroke-width:1px;stroke-linecap:butt;stroke-linejoin:miter;stroke-opacity:1" d="M 109.035,805.38 109.035,844.282 z" id="boundary" inkscape:connector-curvature="0" />
	<path style="fill:none;stroke:red;stroke-width:1px;stroke-linecap:butt;stroke-linejoin:miter;stroke-opacity:1" d="M 116.816,470.824 116.816,431.922 z" id="boundary" inkscape:connector-curvature="0" />
	<path style="fill:none;stroke:red;stroke-width:1px;stroke-linecap:butt;stroke-linejoin:miter;stroke-opacity:1" d="M 116.816,431.922 155.718,428.031 z" id="boundary" inkscape:connector-curvature="0" />
	<path style="fill:none;stroke:red;stroke-width:1px;stroke-linecap:butt;stroke-linejoin:miter;stroke-opacity:1" d="M 116.816,470.824 109.035,533.067 z" id="boundary" inkscape:connector-curvature="0" />
	<path style="fill:none;stroke:red;stroke-width:1px;stroke-linecap:butt;stroke-linejoin:miter;stroke-opacity:1" d="M 81.8039,996 50.6824,968.769 z" id="boundary" inkscape:connector-curvature="0" />
	<circle cx="4" cy="128.486" r="4" fill="#0" id="circle0"/>
	<circle cx="4" cy="167.388" r="4" fill="#0" id="circle1"/>
	<circle cx="4" cy="206.29" r="4" fill="#0" id="circle2"/>
	<circle cx="4" cy="245.192" r="4" fill="#0" id="circle3"/>
	<circle cx="4" cy="284.094" r="4" fill="#0" id="circle4"/>
	<circle cx="11.7804" cy="81.8039" r="4" fill="#0" id="circle5"/>
	<circle cx="11.7804" cy="322.996" r="4" fill="#0" id="circle6"/>
	<circle cx="23.451" cy="361.898" r="4" fill="#0" id="circle7"/>
	<circle cx="35.1216" cy="50.6824" r="4" fill="#0" id="circle8"/>
	<circle cx="50.6824" cy="393.02" r="4" fill="#0" id="circle9"/>
	<circle cx="50.6824" cy="431.922" r="4" fill="#0" id="circle10"/>
	<circle cx="50.6824" cy="470.824" r="4" fill="#0" id="circle11"/>
	<circle cx="50.6824" cy="968.769" r="4" fill="#0" id="circle12"/>
	<circle cx="58.4627" cy="509.725" r="4" fill="#0" id="circle13"/>
	<circle cx="58.4627" cy="548.627" r="4" fill="#0" id="circle14"/>
	<circle cx="66.2431" cy="27.3412" r="4" fill="#0" id="circle15"/>
	<circle cx="66.2431" cy="587.529" r="4" fill="#0" id="circle16"/>
	<circle cx="66.2431" cy="626.431" r="4" fill="#0" id="circle17"/>
	<circle cx="66.2431" cy="665.333" r="4" fill="#0" id="circle18"/>
	<circle cx="66.2431" cy="704.235" r="4" fill="#0" id="circle19"/>
	<circle cx="66.2431" cy="743.137" r="4" fill="#0" id="circle20"/>
	<circle cx="66.2431" cy="782.039" r="4" fill="#0" id="circle21"/>
	<circle cx="66.2431" cy="820.941" r="4" fill="#0" id="circle22"/>
	<circle cx="66.2431" cy="859.843" r="4" fill="#0" id="circle23"/>
	<circle cx="66.2431" cy="898.745" r="4" fill="#0" id="circle24"/>
	<circle cx="81.8039" cy="996" r="4" fill="#0" id="circle25"/>
	<circle cx="105.145" cy="11.7804" r="4" fill="#0" id="circle26"/>
	<circle cx="109.035" cy="533.067" r="4" fill="#0" id="circle27"/>
	<circle cx="109.035" cy="571.969" r="4" fill="#0" id="circle28"/>
	<circle cx="109.035" cy="610.871" r="4" fill="#0" id="circle29"/>
	<circle cx="109.035" cy="649.773" r="4" fill="#0" id="circle30"/>
	<circle cx="109.035" cy="688.675" r="4" fill="#0" id="circle31"/>
	<circle cx="109.035" cy="727.576" r="4" fill="#0" id="circle32"/>
	<circle cx="109.035" cy="766.478" r="4" fill="#0" id="circle33"/>
	<circle cx="109.035" cy="805.38" r="4" fill="#0" id="circle34"/>
	<circle cx="109.035" cy="844.282" r="4" fill="#0" id="circle35"/>
	<circle cx="109.035" cy="883.184" r="4" fill="#0" id="circle36"/>
	<circle cx="109.035" cy="922.086" r="4" fill="#0" id="circle37"/>
	<circle cx="116.816" cy="431.922" r="4" fill="#0" id="circle38"/>
	<circle cx="116.816" cy="470.824" r="4" fill="#0" id="circle39"/>
	<circle cx="120.706" cy="960.988" r="4" fill="#0" id="circle40"/>
	<circle cx="144.047" cy="4" r="4" fill="#0" id="circle41"/>
	<circle cx="155.718" cy="428.031" r="4" fill="#0" id="circle42"/>
	<circle cx="167.388" cy="466.933" r="4" fill="#0" id="circle43"/>
	<circle cx="167.388" cy="505.835" r="4" fill="#0" id="circle44"/>
	<circle cx="167.388" cy="544.737" r="4" fill="#0" id="circle45"/>
	<circle cx="167.388" cy="583.639" r="4" fill="#0" id="circle46"/>
	<circle cx="167.388" cy="622.541" r="4" fill="#0" id="circle47"/>
	<circle cx="167.388" cy="661.443" r="4" fill="#0" id="circle48"/>
	<circle cx="167.388" cy="700.345" r="4" fill="#0" id="circle49"/>
	<circle cx="167.388" cy="739.247" r="4" fill="#0" id="circle50"/>
	<circle cx="167.388" cy="778.149" r="4" fill="#0" id="circle51"/>
	<circle cx="167.388" cy="817.051" r="4" fill="#0" id="circle52"/>
	<circle cx="167.388" cy="855.953" r="4" fill="#0" id="circle53"/>
	<circle cx="167.388" cy="945.427" r="4" fill="#0" id="circle54"/>
	<circle cx="171.278" cy="984.329" r="4" fill="#0" id="circle55"/>
	<circle cx="175.169" cy="894.855" r="4" fill="#0" id="circle56"/>
	<circle cx="182.949" cy="11.7804" r="4" fill="#0" id="circle57"/>
	<circle cx="210.18" cy="610.871" r="4" fill="#0" id="circle58"/>
	<circle cx="210.18" cy="649.773" r="4" fill="#0" id="circle59"/>
	<circle cx="210.18" cy="688.675" r="4" fill="#0" id="circle60"/>
	<circle cx="210.18" cy="727.576" r="4" fill="#0" id="circle61"/>
	<circle cx="210.18" cy="766.478" r="4" fill="#0" id="circle62"/>
	<circle cx="210.18" cy="805.38" r="4" fill="#0" id="circle63"/>
	<circle cx="210.18" cy="844.282" r="4" fill="#0" id="circle64"/>
	<circle cx="210.18" cy="996" r="4" fill="#0" id="circle65"/>
	<circle cx="217.961" cy="540.847" r="4" fill="#0" id="circle66"/>
	<circle cx="217.961" cy="883.184" r="4" fill="#0" id="circle67"/>
	<circle cx="217.961" cy="922.086" r="4" fill="#0" id="circle68"/>
	<circle cx="221.851" cy="27.3412" r="4" fill="#0" id="circle69"/>
	<circle cx="225.741" cy="470.824" r="4" fill="#0" id="circle70"/>
	<circle cx="233.522" cy="385.239" r="4" fill="#0" id="circle71"/>
	<circle cx="233.522" cy="424.141" r="4" fill="#0" id="circle72"/>
	<circle cx="241.302" cy="330.776" r="4" fill="#0" id="circle73"/>
	<circle cx="241.302" cy="953.208" r="4" fill="#0" id="circle74"/>
	<circle cx="252.973" cy="50.6824" r="4" fill="#0" id="circle75"/>
	<circle cx="256.863" cy="291.875" r="4" fill="#0" id="circle76"/>
	<circle cx="272.424" cy="85.6941" r="4" fill="#0" id="circle77"/>
	<circle cx="272.424" cy="237.412" r="4" fill="#0" id="circle78"/>
	<circle cx="280.204" cy="124.596" r="4" fill="#0" id="circle79"/>
	<circle cx="280.204" cy="163.498" r="4" fill="#0" id="circle80"/>
	</g>
</svg>