<?xml version="1.0" encoding="UTF-8" standalone="no"?>
<!-- Created with CurveBenchmark -->
<svg
	xmlns:dc="http://purl.org/dc/elements/1.1/"
	xmlns:cc="http://creativecommons.org/ns#"
	xmlns:rdf="http://www.w3.org/1999/02/22-rdf-syntax-ns#"
	xmlns:svg="http://www.w3.org/2000/svg"
	xmlns="http://www.w3.org/2000/svg"
	xmlns:sodipodi="http://sodipodi.sourceforge.net/DTD/sodipodi-0.dtd"
	xmlns:inkscape="http://www.inkscape.org/namespaces/inkscape"
	width="1000"
	height="1000"
	id="svg2"
	version="1.1"
	sodipodi:docname="manifold/crawl-skyhawk.png.txt">
<defs
	id="defs4" />
<metadata
	id="metadata7">
	<rdf:RDF>
		<cc:Work
			rdf:about="">
			<dc:format>image/svg+xml</dc:format>
			<dc:type
				rdf:resource="http://purl.org/dc/dcmitype/StillImage" />
			<dc:title></dc:title>
		</cc:Work>
	</rdf:RDF>
</metadata>
<g
	inkscape:label="Layer 1"
	inkscape:groupmode="layer"
	id="layer1">
	<path style="fill:none;stroke:red;stroke-width:1px;stroke-linecap:butt;stroke-linejoin:miter;stroke-opacity:1" d="M 4,571.337 4,588.122 z" id="boundary" inkscape:connector-curvature="0" />
	<path style="fill:none;stroke:red;stroke-width:1px;stroke-linecap:butt;stroke-linejoin:miter;stroke-opacity:1" d="M 4,588.122 20.7851,593.157 z" id="boundary" inkscape:connector-curvature="0" />
	<path style="fill:none;stroke:red;stroke-width:1px;stroke-linecap:butt;stroke-linejoin:miter;stroke-opacity:1" d="M 20.7851,593.157 37.5702,593.157 z" id="boundary" inkscape:connector-curvature="0" />
	<path style="fill:none;stroke:red;stroke-width:1px;stroke-linecap:butt;stroke-linejoin:miter;stroke-opacity:1" d="M 37.5702,593.157 54.3553,593.157 z" id="boundary" inkscape:connector-curvature="0" />
	<path style="fill:none;stroke:red;stroke-width:1px;stroke-linecap:butt;stroke-linejoin:miter;stroke-opacity:1" d="M 54.3553,593.157 69.4619,584.765 z" id="boundary" inkscape:connector-curvature="0" />
	<path style="fill:none;stroke:red;stroke-width:1px;stroke-linecap:butt;stroke-linejoin:miter;stroke-opacity:1" d="M 69.4619,584.765 86.247,584.765 z" id="boundary" inkscape:connector-curvature="0" />
	<path style="fill:none;stroke:red;stroke-width:1px;stroke-linecap:butt;stroke-linejoin:miter;stroke-opacity:1" d="M 86.247,584.765 101.354,576.372 z" id="boundary" inkscape:connector-curvature="0" />
	<path style="fill:none;stroke:red;stroke-width:1px;stroke-linecap:butt;stroke-linejoin:miter;stroke-opacity:1" d="M 101.354,576.372 118.139,576.372 z" id="boundary" inkscape:connector-curvature="0" />
	<path style="fill:none;stroke:red;stroke-width:1px;stroke-linecap:butt;stroke-linejoin:miter;stroke-opacity:1" d="M 118.139,576.372 133.245,567.98 z" id="boundary" inkscape:connector-curvature="0" />
	<path style="fill:none;stroke:red;stroke-width:1px;stroke-linecap:butt;stroke-linejoin:miter;stroke-opacity:1" d="M 133.245,567.98 150.03,567.98 z" id="boundary" inkscape:connector-curvature="0" />
	<path style="fill:none;stroke:red;stroke-width:1px;stroke-linecap:butt;stroke-linejoin:miter;stroke-opacity:1" d="M 150.03,567.98 165.137,559.587 z" id="boundary" inkscape:connector-curvature="0" />
	<path style="fill:none;stroke:red;stroke-width:1px;stroke-linecap:butt;stroke-linejoin:miter;stroke-opacity:1" d="M 165.137,559.587 181.922,559.587 z" id="boundary" inkscape:connector-curvature="0" />
	<path style="fill:none;stroke:red;stroke-width:1px;stroke-linecap:butt;stroke-linejoin:miter;stroke-opacity:1" d="M 181.922,559.587 197.029,551.195 z" id="boundary" inkscape:connector-curvature="0" />
	<path style="fill:none;stroke:red;stroke-width:1px;stroke-linecap:butt;stroke-linejoin:miter;stroke-opacity:1" d="M 197.029,551.195 213.814,546.159 z" id="boundary" inkscape:connector-curvature="0" />
	<path style="fill:none;stroke:red;stroke-width:1px;stroke-linecap:butt;stroke-linejoin:miter;stroke-opacity:1" d="M 213.814,546.159 230.599,542.802 z" id="boundary" inkscape:connector-curvature="0" />
	<path style="fill:none;stroke:red;stroke-width:1px;stroke-linecap:butt;stroke-linejoin:miter;stroke-opacity:1" d="M 230.599,542.802 247.384,537.766 z" id="boundary" inkscape:connector-curvature="0" />
	<path style="fill:none;stroke:red;stroke-width:1px;stroke-linecap:butt;stroke-linejoin:miter;stroke-opacity:1" d="M 247.384,537.766 264.169,534.409 z" id="boundary" inkscape:connector-curvature="0" />
	<path style="fill:none;stroke:red;stroke-width:1px;stroke-linecap:butt;stroke-linejoin:miter;stroke-opacity:1" d="M 264.169,534.409 279.276,526.017 z" id="boundary" inkscape:connector-curvature="0" />
	<path style="fill:none;stroke:red;stroke-width:1px;stroke-linecap:butt;stroke-linejoin:miter;stroke-opacity:1" d="M 279.276,526.017 296.061,522.66 z" id="boundary" inkscape:connector-curvature="0" />
	<path style="fill:none;stroke:red;stroke-width:1px;stroke-linecap:butt;stroke-linejoin:miter;stroke-opacity:1" d="M 296.061,522.66 312.846,517.624 z" id="boundary" inkscape:connector-curvature="0" />
	<path style="fill:none;stroke:red;stroke-width:1px;stroke-linecap:butt;stroke-linejoin:miter;stroke-opacity:1" d="M 312.846,517.624 324.596,531.052 z" id="boundary" inkscape:connector-curvature="0" />
	<path style="fill:none;stroke:red;stroke-width:1px;stroke-linecap:butt;stroke-linejoin:miter;stroke-opacity:1" d="M 324.596,531.052 341.381,526.017 z" id="boundary" inkscape:connector-curvature="0" />
	<path style="fill:none;stroke:red;stroke-width:1px;stroke-linecap:butt;stroke-linejoin:miter;stroke-opacity:1" d="M 341.381,526.017 358.166,517.624 z" id="boundary" inkscape:connector-curvature="0" />
	<path style="fill:none;stroke:red;stroke-width:1px;stroke-linecap:butt;stroke-linejoin:miter;stroke-opacity:1" d="M 358.166,517.624 374.951,517.624 z" id="boundary" inkscape:connector-curvature="0" />
	<path style="fill:none;stroke:red;stroke-width:1px;stroke-linecap:butt;stroke-linejoin:miter;stroke-opacity:1" d="M 374.951,517.624 390.058,509.232 z" id="boundary" inkscape:connector-curvature="0" />
	<path style="fill:none;stroke:red;stroke-width:1px;stroke-linecap:butt;stroke-linejoin:miter;stroke-opacity:1" d="M 390.058,509.232 405.164,517.624 z" id="boundary" inkscape:connector-curvature="0" />
	<path style="fill:none;stroke:red;stroke-width:1px;stroke-linecap:butt;stroke-linejoin:miter;stroke-opacity:1" d="M 405.164,517.624 420.271,526.017 z" id="boundary" inkscape:connector-curvature="0" />
	<path style="fill:none;stroke:red;stroke-width:1px;stroke-linecap:butt;stroke-linejoin:miter;stroke-opacity:1" d="M 420.271,526.017 435.377,534.409 z" id="boundary" inkscape:connector-curvature="0" />
	<path style="fill:none;stroke:red;stroke-width:1px;stroke-linecap:butt;stroke-linejoin:miter;stroke-opacity:1" d="M 435.377,534.409 448.805,544.481 z" id="boundary" inkscape:connector-curvature="0" />
	<path style="fill:none;stroke:red;stroke-width:1px;stroke-linecap:butt;stroke-linejoin:miter;stroke-opacity:1" d="M 448.805,544.481 460.555,557.909 z" id="boundary" inkscape:connector-curvature="0" />
	<path style="fill:none;stroke:red;stroke-width:1px;stroke-linecap:butt;stroke-linejoin:miter;stroke-opacity:1" d="M 460.555,557.909 477.34,564.623 z" id="boundary" inkscape:connector-curvature="0" />
	<path style="fill:none;stroke:red;stroke-width:1px;stroke-linecap:butt;stroke-linejoin:miter;stroke-opacity:1" d="M 4,571.337 17.4281,557.909 z" id="boundary" inkscape:connector-curvature="0" />
	<path style="fill:none;stroke:red;stroke-width:1px;stroke-linecap:butt;stroke-linejoin:miter;stroke-opacity:1" d="M 17.4281,557.909 30.8562,544.481 z" id="boundary" inkscape:connector-curvature="0" />
	<path style="fill:none;stroke:red;stroke-width:1px;stroke-linecap:butt;stroke-linejoin:miter;stroke-opacity:1" d="M 30.8562,544.481 47.6413,536.088 z" id="boundary" inkscape:connector-curvature="0" />
	<path style="fill:none;stroke:red;stroke-width:1px;stroke-linecap:butt;stroke-linejoin:miter;stroke-opacity:1" d="M 47.6413,536.088 64.4264,527.695 z" id="boundary" inkscape:connector-curvature="0" />
	<path style="fill:none;stroke:red;stroke-width:1px;stroke-linecap:butt;stroke-linejoin:miter;stroke-opacity:1" d="M 64.4264,527.695 81.2115,519.303 z" id="boundary" inkscape:connector-curvature="0" />
	<path style="fill:none;stroke:red;stroke-width:1px;stroke-linecap:butt;stroke-linejoin:miter;stroke-opacity:1" d="M 81.2115,519.303 97.9966,510.91 z" id="boundary" inkscape:connector-curvature="0" />
	<path style="fill:none;stroke:red;stroke-width:1px;stroke-linecap:butt;stroke-linejoin:miter;stroke-opacity:1" d="M 97.9966,510.91 114.782,502.518 z" id="boundary" inkscape:connector-curvature="0" />
	<path style="fill:none;stroke:red;stroke-width:1px;stroke-linecap:butt;stroke-linejoin:miter;stroke-opacity:1" d="M 114.782,502.518 131.567,494.125 z" id="boundary" inkscape:connector-curvature="0" />
	<path style="fill:none;stroke:red;stroke-width:1px;stroke-linecap:butt;stroke-linejoin:miter;stroke-opacity:1" d="M 131.567,494.125 144.995,482.376 z" id="boundary" inkscape:connector-curvature="0" />
	<path style="fill:none;stroke:red;stroke-width:1px;stroke-linecap:butt;stroke-linejoin:miter;stroke-opacity:1" d="M 144.995,482.376 160.102,473.983 z" id="boundary" inkscape:connector-curvature="0" />
	<path style="fill:none;stroke:red;stroke-width:1px;stroke-linecap:butt;stroke-linejoin:miter;stroke-opacity:1" d="M 160.102,473.983 176.887,465.591 z" id="boundary" inkscape:connector-curvature="0" />
	<path style="fill:none;stroke:red;stroke-width:1px;stroke-linecap:butt;stroke-linejoin:miter;stroke-opacity:1" d="M 176.887,465.591 193.672,457.198 z" id="boundary" inkscape:connector-curvature="0" />
	<path style="fill:none;stroke:red;stroke-width:1px;stroke-linecap:butt;stroke-linejoin:miter;stroke-opacity:1" d="M 193.672,457.198 210.457,448.805 z" id="boundary" inkscape:connector-curvature="0" />
	<path style="fill:none;stroke:red;stroke-width:1px;stroke-linecap:butt;stroke-linejoin:miter;stroke-opacity:1" d="M 210.457,448.805 227.242,440.413 z" id="boundary" inkscape:connector-curvature="0" />
	<path style="fill:none;stroke:red;stroke-width:1px;stroke-linecap:butt;stroke-linejoin:miter;stroke-opacity:1" d="M 227.242,440.413 244.027,440.413 z" id="boundary" inkscape:connector-curvature="0" />
	<path style="fill:none;stroke:red;stroke-width:1px;stroke-linecap:butt;stroke-linejoin:miter;stroke-opacity:1" d="M 244.027,440.413 259.134,432.02 z" id="boundary" inkscape:connector-curvature="0" />
	<path style="fill:none;stroke:red;stroke-width:1px;stroke-linecap:butt;stroke-linejoin:miter;stroke-opacity:1" d="M 259.134,432.02 272.562,420.271 z" id="boundary" inkscape:connector-curvature="0" />
	<path style="fill:none;stroke:red;stroke-width:1px;stroke-linecap:butt;stroke-linejoin:miter;stroke-opacity:1" d="M 272.562,420.271 272.562,403.486 z" id="boundary" inkscape:connector-curvature="0" />
	<path style="fill:none;stroke:red;stroke-width:1px;stroke-linecap:butt;stroke-linejoin:miter;stroke-opacity:1" d="M 272.562,403.486 289.347,395.093 z" id="boundary" inkscape:connector-curvature="0" />
	<path style="fill:none;stroke:red;stroke-width:1px;stroke-linecap:butt;stroke-linejoin:miter;stroke-opacity:1" d="M 289.347,395.093 306.132,390.058 z" id="boundary" inkscape:connector-curvature="0" />
	<path style="fill:none;stroke:red;stroke-width:1px;stroke-linecap:butt;stroke-linejoin:miter;stroke-opacity:1" d="M 306.132,390.058 321.239,381.665 z" id="boundary" inkscape:connector-curvature="0" />
	<path style="fill:none;stroke:red;stroke-width:1px;stroke-linecap:butt;stroke-linejoin:miter;stroke-opacity:1" d="M 321.239,381.665 331.31,361.523 z" id="boundary" inkscape:connector-curvature="0" />
	<path style="fill:none;stroke:red;stroke-width:1px;stroke-linecap:butt;stroke-linejoin:miter;stroke-opacity:1" d="M 477.34,564.623 462.234,583.086 z" id="boundary" inkscape:connector-curvature="0" />
	<path style="fill:none;stroke:red;stroke-width:1px;stroke-linecap:butt;stroke-linejoin:miter;stroke-opacity:1" d="M 462.234,583.086 448.805,596.514 z" id="boundary" inkscape:connector-curvature="0" />
	<path style="fill:none;stroke:red;stroke-width:1px;stroke-linecap:butt;stroke-linejoin:miter;stroke-opacity:1" d="M 448.805,596.514 448.805,613.299 z" id="boundary" inkscape:connector-curvature="0" />
	<path style="fill:none;stroke:red;stroke-width:1px;stroke-linecap:butt;stroke-linejoin:miter;stroke-opacity:1" d="M 448.805,613.299 465.591,618.335 z" id="boundary" inkscape:connector-curvature="0" />
	<path style="fill:none;stroke:red;stroke-width:1px;stroke-linecap:butt;stroke-linejoin:miter;stroke-opacity:1" d="M 465.591,618.335 482.376,618.335 z" id="boundary" inkscape:connector-curvature="0" />
	<path style="fill:none;stroke:red;stroke-width:1px;stroke-linecap:butt;stroke-linejoin:miter;stroke-opacity:1" d="M 482.376,618.335 499.161,613.299 z" id="boundary" inkscape:connector-curvature="0" />
	<path style="fill:none;stroke:red;stroke-width:1px;stroke-linecap:butt;stroke-linejoin:miter;stroke-opacity:1" d="M 499.161,613.299 515.946,609.942 z" id="boundary" inkscape:connector-curvature="0" />
	<path style="fill:none;stroke:red;stroke-width:1px;stroke-linecap:butt;stroke-linejoin:miter;stroke-opacity:1" d="M 515.946,609.942 531.052,601.55 z" id="boundary" inkscape:connector-curvature="0" />
	<path style="fill:none;stroke:red;stroke-width:1px;stroke-linecap:butt;stroke-linejoin:miter;stroke-opacity:1" d="M 531.052,601.55 547.838,598.193 z" id="boundary" inkscape:connector-curvature="0" />
	<path style="fill:none;stroke:red;stroke-width:1px;stroke-linecap:butt;stroke-linejoin:miter;stroke-opacity:1" d="M 547.838,598.193 564.623,601.55 z" id="boundary" inkscape:connector-curvature="0" />
	<path style="fill:none;stroke:red;stroke-width:1px;stroke-linecap:butt;stroke-linejoin:miter;stroke-opacity:1" d="M 564.623,601.55 579.729,609.942 z" id="boundary" inkscape:connector-curvature="0" />
	<path style="fill:none;stroke:red;stroke-width:1px;stroke-linecap:butt;stroke-linejoin:miter;stroke-opacity:1" d="M 579.729,609.942 596.514,616.657 z" id="boundary" inkscape:connector-curvature="0" />
	<path style="fill:none;stroke:red;stroke-width:1px;stroke-linecap:butt;stroke-linejoin:miter;stroke-opacity:1" d="M 596.514,616.657 611.621,625.049 z" id="boundary" inkscape:connector-curvature="0" />
	<path style="fill:none;stroke:red;stroke-width:1px;stroke-linecap:butt;stroke-linejoin:miter;stroke-opacity:1" d="M 611.621,625.049 628.406,631.763 z" id="boundary" inkscape:connector-curvature="0" />
	<path style="fill:none;stroke:red;stroke-width:1px;stroke-linecap:butt;stroke-linejoin:miter;stroke-opacity:1" d="M 628.406,631.763 643.513,640.156 z" id="boundary" inkscape:connector-curvature="0" />
	<path style="fill:none;stroke:red;stroke-width:1px;stroke-linecap:butt;stroke-linejoin:miter;stroke-opacity:1" d="M 643.513,640.156 660.298,646.87 z" id="boundary" inkscape:connector-curvature="0" />
	<path style="fill:none;stroke:red;stroke-width:1px;stroke-linecap:butt;stroke-linejoin:miter;stroke-opacity:1" d="M 660.298,646.87 675.404,655.262 z" id="boundary" inkscape:connector-curvature="0" />
	<path style="fill:none;stroke:red;stroke-width:1px;stroke-linecap:butt;stroke-linejoin:miter;stroke-opacity:1" d="M 675.404,655.262 692.19,660.298 z" id="boundary" inkscape:connector-curvature="0" />
	<path style="fill:none;stroke:red;stroke-width:1px;stroke-linecap:butt;stroke-linejoin:miter;stroke-opacity:1" d="M 692.19,660.298 707.296,668.69 z" id="boundary" inkscape:connector-curvature="0" />
	<path style="fill:none;stroke:red;stroke-width:1px;stroke-linecap:butt;stroke-linejoin:miter;stroke-opacity:1" d="M 707.296,668.69 724.081,668.69 z" id="boundary" inkscape:connector-curvature="0" />
	<path style="fill:none;stroke:red;stroke-width:1px;stroke-linecap:butt;stroke-linejoin:miter;stroke-opacity:1" d="M 724.081,668.69 740.866,668.69 z" id="boundary" inkscape:connector-curvature="0" />
	<path style="fill:none;stroke:red;stroke-width:1px;stroke-linecap:butt;stroke-linejoin:miter;stroke-opacity:1" d="M 740.866,668.69 755.973,660.298 z" id="boundary" inkscape:connector-curvature="0" />
	<path style="fill:none;stroke:red;stroke-width:1px;stroke-linecap:butt;stroke-linejoin:miter;stroke-opacity:1" d="M 755.973,660.298 771.08,651.905 z" id="boundary" inkscape:connector-curvature="0" />
	<path style="fill:none;stroke:red;stroke-width:1px;stroke-linecap:butt;stroke-linejoin:miter;stroke-opacity:1" d="M 771.08,651.905 784.508,638.477 z" id="boundary" inkscape:connector-curvature="0" />
	<path style="fill:none;stroke:red;stroke-width:1px;stroke-linecap:butt;stroke-linejoin:miter;stroke-opacity:1" d="M 784.508,638.477 777.794,621.692 z" id="boundary" inkscape:connector-curvature="0" />
	<path style="fill:none;stroke:red;stroke-width:1px;stroke-linecap:butt;stroke-linejoin:miter;stroke-opacity:1" d="M 777.794,621.692 769.401,606.585 z" id="boundary" inkscape:connector-curvature="0" />
	<path style="fill:none;stroke:red;stroke-width:1px;stroke-linecap:butt;stroke-linejoin:miter;stroke-opacity:1" d="M 769.401,606.585 769.401,589.8 z" id="boundary" inkscape:connector-curvature="0" />
	<path style="fill:none;stroke:red;stroke-width:1px;stroke-linecap:butt;stroke-linejoin:miter;stroke-opacity:1" d="M 769.401,589.8 761.008,574.694 z" id="boundary" inkscape:connector-curvature="0" />
	<path style="fill:none;stroke:red;stroke-width:1px;stroke-linecap:butt;stroke-linejoin:miter;stroke-opacity:1" d="M 761.008,574.694 755.973,557.909 z" id="boundary" inkscape:connector-curvature="0" />
	<path style="fill:none;stroke:red;stroke-width:1px;stroke-linecap:butt;stroke-linejoin:miter;stroke-opacity:1" d="M 755.973,557.909 747.58,542.802 z" id="boundary" inkscape:connector-curvature="0" />
	<path style="fill:none;stroke:red;stroke-width:1px;stroke-linecap:butt;stroke-linejoin:miter;stroke-opacity:1" d="M 747.58,542.802 744.223,526.017 z" id="boundary" inkscape:connector-curvature="0" />
	<path style="fill:none;stroke:red;stroke-width:1px;stroke-linecap:butt;stroke-linejoin:miter;stroke-opacity:1" d="M 744.223,526.017 744.223,509.232 z" id="boundary" inkscape:connector-curvature="0" />
	<path style="fill:none;stroke:red;stroke-width:1px;stroke-linecap:butt;stroke-linejoin:miter;stroke-opacity:1" d="M 744.223,509.232 761.008,509.232 z" id="boundary" inkscape:connector-curvature="0" />
	<path style="fill:none;stroke:red;stroke-width:1px;stroke-linecap:butt;stroke-linejoin:miter;stroke-opacity:1" d="M 761.008,509.232 776.115,517.624 z" id="boundary" inkscape:connector-curvature="0" />
	<path style="fill:none;stroke:red;stroke-width:1px;stroke-linecap:butt;stroke-linejoin:miter;stroke-opacity:1" d="M 776.115,517.624 792.9,512.589 z" id="boundary" inkscape:connector-curvature="0" />
	<path style="fill:none;stroke:red;stroke-width:1px;stroke-linecap:butt;stroke-linejoin:miter;stroke-opacity:1" d="M 792.9,512.589 802.971,494.125 z" id="boundary" inkscape:connector-curvature="0" />
	<path style="fill:none;stroke:red;stroke-width:1px;stroke-linecap:butt;stroke-linejoin:miter;stroke-opacity:1" d="M 802.971,494.125 801.293,477.34 z" id="boundary" inkscape:connector-curvature="0" />
	<path style="fill:none;stroke:red;stroke-width:1px;stroke-linecap:butt;stroke-linejoin:miter;stroke-opacity:1" d="M 801.293,477.34 792.9,462.234 z" id="boundary" inkscape:connector-curvature="0" />
	<path style="fill:none;stroke:red;stroke-width:1px;stroke-linecap:butt;stroke-linejoin:miter;stroke-opacity:1" d="M 792.9,462.234 781.151,448.805 z" id="boundary" inkscape:connector-curvature="0" />
	<path style="fill:none;stroke:red;stroke-width:1px;stroke-linecap:butt;stroke-linejoin:miter;stroke-opacity:1" d="M 781.151,448.805 764.365,448.805 z" id="boundary" inkscape:connector-curvature="0" />
	<path style="fill:none;stroke:red;stroke-width:1px;stroke-linecap:butt;stroke-linejoin:miter;stroke-opacity:1" d="M 764.365,448.805 750.937,462.234 z" id="boundary" inkscape:connector-curvature="0" />
	<path style="fill:none;stroke:red;stroke-width:1px;stroke-linecap:butt;stroke-linejoin:miter;stroke-opacity:1" d="M 750.937,462.234 742.545,479.019 z" id="boundary" inkscape:connector-curvature="0" />
	<path style="fill:none;stroke:red;stroke-width:1px;stroke-linecap:butt;stroke-linejoin:miter;stroke-opacity:1" d="M 742.545,479.019 725.76,479.019 z" id="boundary" inkscape:connector-curvature="0" />
	<path style="fill:none;stroke:red;stroke-width:1px;stroke-linecap:butt;stroke-linejoin:miter;stroke-opacity:1" d="M 725.76,479.019 719.046,462.234 z" id="boundary" inkscape:connector-curvature="0" />
	<path style="fill:none;stroke:red;stroke-width:1px;stroke-linecap:butt;stroke-linejoin:miter;stroke-opacity:1" d="M 719.046,462.234 717.367,445.448 z" id="boundary" inkscape:connector-curvature="0" />
	<path style="fill:none;stroke:red;stroke-width:1px;stroke-linecap:butt;stroke-linejoin:miter;stroke-opacity:1" d="M 717.367,445.448 710.653,428.663 z" id="boundary" inkscape:connector-curvature="0" />
	<path style="fill:none;stroke:red;stroke-width:1px;stroke-linecap:butt;stroke-linejoin:miter;stroke-opacity:1" d="M 710.653,428.663 702.261,413.557 z" id="boundary" inkscape:connector-curvature="0" />
	<path style="fill:none;stroke:red;stroke-width:1px;stroke-linecap:butt;stroke-linejoin:miter;stroke-opacity:1" d="M 702.261,413.557 693.868,398.45 z" id="boundary" inkscape:connector-curvature="0" />
	<path style="fill:none;stroke:red;stroke-width:1px;stroke-linecap:butt;stroke-linejoin:miter;stroke-opacity:1" d="M 693.868,398.45 685.475,383.343 z" id="boundary" inkscape:connector-curvature="0" />
	<path style="fill:none;stroke:red;stroke-width:1px;stroke-linecap:butt;stroke-linejoin:miter;stroke-opacity:1" d="M 685.475,383.343 685.475,366.558 z" id="boundary" inkscape:connector-curvature="0" />
	<path style="fill:none;stroke:red;stroke-width:1px;stroke-linecap:butt;stroke-linejoin:miter;stroke-opacity:1" d="M 685.475,366.558 700.582,358.166 z" id="boundary" inkscape:connector-curvature="0" />
	<path style="fill:none;stroke:red;stroke-width:1px;stroke-linecap:butt;stroke-linejoin:miter;stroke-opacity:1" d="M 700.582,358.166 715.689,349.773 z" id="boundary" inkscape:connector-curvature="0" />
	<path style="fill:none;stroke:red;stroke-width:1px;stroke-linecap:butt;stroke-linejoin:miter;stroke-opacity:1" d="M 715.689,349.773 730.795,341.381 z" id="boundary" inkscape:connector-curvature="0" />
	<path style="fill:none;stroke:red;stroke-width:1px;stroke-linecap:butt;stroke-linejoin:miter;stroke-opacity:1" d="M 730.795,341.381 745.902,332.988 z" id="boundary" inkscape:connector-curvature="0" />
	<path style="fill:none;stroke:red;stroke-width:1px;stroke-linecap:butt;stroke-linejoin:miter;stroke-opacity:1" d="M 745.902,332.988 761.008,324.596 z" id="boundary" inkscape:connector-curvature="0" />
	<path style="fill:none;stroke:red;stroke-width:1px;stroke-linecap:butt;stroke-linejoin:miter;stroke-opacity:1" d="M 761.008,324.596 777.794,316.203 z" id="boundary" inkscape:connector-curvature="0" />
	<path style="fill:none;stroke:red;stroke-width:1px;stroke-linecap:butt;stroke-linejoin:miter;stroke-opacity:1" d="M 777.794,316.203 792.9,307.81 z" id="boundary" inkscape:connector-curvature="0" />
	<path style="fill:none;stroke:red;stroke-width:1px;stroke-linecap:butt;stroke-linejoin:miter;stroke-opacity:1" d="M 792.9,307.81 809.685,302.775 z" id="boundary" inkscape:connector-curvature="0" />
	<path style="fill:none;stroke:red;stroke-width:1px;stroke-linecap:butt;stroke-linejoin:miter;stroke-opacity:1" d="M 809.685,302.775 826.47,294.382 z" id="boundary" inkscape:connector-curvature="0" />
	<path style="fill:none;stroke:red;stroke-width:1px;stroke-linecap:butt;stroke-linejoin:miter;stroke-opacity:1" d="M 826.47,294.382 843.255,291.025 z" id="boundary" inkscape:connector-curvature="0" />
	<path style="fill:none;stroke:red;stroke-width:1px;stroke-linecap:butt;stroke-linejoin:miter;stroke-opacity:1" d="M 843.255,291.025 858.362,299.418 z" id="boundary" inkscape:connector-curvature="0" />
	<path style="fill:none;stroke:red;stroke-width:1px;stroke-linecap:butt;stroke-linejoin:miter;stroke-opacity:1" d="M 858.362,299.418 873.469,307.81 z" id="boundary" inkscape:connector-curvature="0" />
	<path style="fill:none;stroke:red;stroke-width:1px;stroke-linecap:butt;stroke-linejoin:miter;stroke-opacity:1" d="M 873.469,307.81 890.254,314.525 z" id="boundary" inkscape:connector-curvature="0" />
	<path style="fill:none;stroke:red;stroke-width:1px;stroke-linecap:butt;stroke-linejoin:miter;stroke-opacity:1" d="M 890.254,314.525 907.039,316.203 z" id="boundary" inkscape:connector-curvature="0" />
	<path style="fill:none;stroke:red;stroke-width:1px;stroke-linecap:butt;stroke-linejoin:miter;stroke-opacity:1" d="M 907.039,316.203 922.146,324.596 z" id="boundary" inkscape:connector-curvature="0" />
	<path style="fill:none;stroke:red;stroke-width:1px;stroke-linecap:butt;stroke-linejoin:miter;stroke-opacity:1" d="M 922.146,324.596 938.931,329.631 z" id="boundary" inkscape:connector-curvature="0" />
	<path style="fill:none;stroke:red;stroke-width:1px;stroke-linecap:butt;stroke-linejoin:miter;stroke-opacity:1" d="M 938.931,329.631 955.716,332.988 z" id="boundary" inkscape:connector-curvature="0" />
	<path style="fill:none;stroke:red;stroke-width:1px;stroke-linecap:butt;stroke-linejoin:miter;stroke-opacity:1" d="M 955.716,332.988 970.822,341.381 z" id="boundary" inkscape:connector-curvature="0" />
	<path style="fill:none;stroke:red;stroke-width:1px;stroke-linecap:butt;stroke-linejoin:miter;stroke-opacity:1" d="M 970.822,341.381 987.607,332.988 z" id="boundary" inkscape:connector-curvature="0" />
	<path style="fill:none;stroke:red;stroke-width:1px;stroke-linecap:butt;stroke-linejoin:miter;stroke-opacity:1" d="M 987.607,332.988 996,312.846 z" id="boundary" inkscape:connector-curvature="0" />
	<path style="fill:none;stroke:red;stroke-width:1px;stroke-linecap:butt;stroke-linejoin:miter;stroke-opacity:1" d="M 996,312.846 987.607,297.739 z" id="boundary" inkscape:connector-curvature="0" />
	<path style="fill:none;stroke:red;stroke-width:1px;stroke-linecap:butt;stroke-linejoin:miter;stroke-opacity:1" d="M 987.607,297.739 982.572,280.954 z" id="boundary" inkscape:connector-curvature="0" />
	<path style="fill:none;stroke:red;stroke-width:1px;stroke-linecap:butt;stroke-linejoin:miter;stroke-opacity:1" d="M 982.572,280.954 974.179,265.848 z" id="boundary" inkscape:connector-curvature="0" />
	<path style="fill:none;stroke:red;stroke-width:1px;stroke-linecap:butt;stroke-linejoin:miter;stroke-opacity:1" d="M 974.179,265.848 970.822,249.063 z" id="boundary" inkscape:connector-curvature="0" />
	<path style="fill:none;stroke:red;stroke-width:1px;stroke-linecap:butt;stroke-linejoin:miter;stroke-opacity:1" d="M 970.822,249.063 962.43,233.956 z" id="boundary" inkscape:connector-curvature="0" />
	<path style="fill:none;stroke:red;stroke-width:1px;stroke-linecap:butt;stroke-linejoin:miter;stroke-opacity:1" d="M 962.43,233.956 954.037,218.849 z" id="boundary" inkscape:connector-curvature="0" />
	<path style="fill:none;stroke:red;stroke-width:1px;stroke-linecap:butt;stroke-linejoin:miter;stroke-opacity:1" d="M 954.037,218.849 945.645,203.743 z" id="boundary" inkscape:connector-curvature="0" />
	<path style="fill:none;stroke:red;stroke-width:1px;stroke-linecap:butt;stroke-linejoin:miter;stroke-opacity:1" d="M 945.645,203.743 945.645,186.958 z" id="boundary" inkscape:connector-curvature="0" />
	<path style="fill:none;stroke:red;stroke-width:1px;stroke-linecap:butt;stroke-linejoin:miter;stroke-opacity:1" d="M 945.645,186.958 937.252,171.851 z" id="boundary" inkscape:connector-curvature="0" />
	<path style="fill:none;stroke:red;stroke-width:1px;stroke-linecap:butt;stroke-linejoin:miter;stroke-opacity:1" d="M 937.252,171.851 932.217,155.066 z" id="boundary" inkscape:connector-curvature="0" />
	<path style="fill:none;stroke:red;stroke-width:1px;stroke-linecap:butt;stroke-linejoin:miter;stroke-opacity:1" d="M 932.217,155.066 923.824,139.959 z" id="boundary" inkscape:connector-curvature="0" />
	<path style="fill:none;stroke:red;stroke-width:1px;stroke-linecap:butt;stroke-linejoin:miter;stroke-opacity:1" d="M 923.824,139.959 920.467,123.174 z" id="boundary" inkscape:connector-curvature="0" />
	<path style="fill:none;stroke:red;stroke-width:1px;stroke-linecap:butt;stroke-linejoin:miter;stroke-opacity:1" d="M 920.467,123.174 912.074,108.068 z" id="boundary" inkscape:connector-curvature="0" />
	<path style="fill:none;stroke:red;stroke-width:1px;stroke-linecap:butt;stroke-linejoin:miter;stroke-opacity:1" d="M 912.074,108.068 903.682,92.9611 z" id="boundary" inkscape:connector-curvature="0" />
	<path style="fill:none;stroke:red;stroke-width:1px;stroke-linecap:butt;stroke-linejoin:miter;stroke-opacity:1" d="M 903.682,92.9611 886.897,91.2826 z" id="boundary" inkscape:connector-curvature="0" />
	<path style="fill:none;stroke:red;stroke-width:1px;stroke-linecap:butt;stroke-linejoin:miter;stroke-opacity:1" d="M 886.897,91.2826 873.469,104.711 z" id="boundary" inkscape:connector-curvature="0" />
	<path style="fill:none;stroke:red;stroke-width:1px;stroke-linecap:butt;stroke-linejoin:miter;stroke-opacity:1" d="M 873.469,104.711 865.076,121.496 z" id="boundary" inkscape:connector-curvature="0" />
	<path style="fill:none;stroke:red;stroke-width:1px;stroke-linecap:butt;stroke-linejoin:miter;stroke-opacity:1" d="M 865.076,121.496 851.648,134.924 z" id="boundary" inkscape:connector-curvature="0" />
	<path style="fill:none;stroke:red;stroke-width:1px;stroke-linecap:butt;stroke-linejoin:miter;stroke-opacity:1" d="M 851.648,134.924 848.291,155.066 z" id="boundary" inkscape:connector-curvature="0" />
	<path style="fill:none;stroke:red;stroke-width:1px;stroke-linecap:butt;stroke-linejoin:miter;stroke-opacity:1" d="M 848.291,155.066 839.898,171.851 z" id="boundary" inkscape:connector-curvature="0" />
	<path style="fill:none;stroke:red;stroke-width:1px;stroke-linecap:butt;stroke-linejoin:miter;stroke-opacity:1" d="M 839.898,171.851 831.506,188.636 z" id="boundary" inkscape:connector-curvature="0" />
	<path style="fill:none;stroke:red;stroke-width:1px;stroke-linecap:butt;stroke-linejoin:miter;stroke-opacity:1" d="M 831.506,188.636 823.113,205.421 z" id="boundary" inkscape:connector-curvature="0" />
	<path style="fill:none;stroke:red;stroke-width:1px;stroke-linecap:butt;stroke-linejoin:miter;stroke-opacity:1" d="M 823.113,205.421 816.399,222.206 z" id="boundary" inkscape:connector-curvature="0" />
	<path style="fill:none;stroke:red;stroke-width:1px;stroke-linecap:butt;stroke-linejoin:miter;stroke-opacity:1" d="M 816.399,222.206 801.293,230.599 z" id="boundary" inkscape:connector-curvature="0" />
	<path style="fill:none;stroke:red;stroke-width:1px;stroke-linecap:butt;stroke-linejoin:miter;stroke-opacity:1" d="M 801.293,230.599 786.186,238.992 z" id="boundary" inkscape:connector-curvature="0" />
	<path style="fill:none;stroke:red;stroke-width:1px;stroke-linecap:butt;stroke-linejoin:miter;stroke-opacity:1" d="M 786.186,238.992 769.401,242.349 z" id="boundary" inkscape:connector-curvature="0" />
	<path style="fill:none;stroke:red;stroke-width:1px;stroke-linecap:butt;stroke-linejoin:miter;stroke-opacity:1" d="M 769.401,242.349 752.616,247.384 z" id="boundary" inkscape:connector-curvature="0" />
	<path style="fill:none;stroke:red;stroke-width:1px;stroke-linecap:butt;stroke-linejoin:miter;stroke-opacity:1" d="M 752.616,247.384 735.831,250.741 z" id="boundary" inkscape:connector-curvature="0" />
	<path style="fill:none;stroke:red;stroke-width:1px;stroke-linecap:butt;stroke-linejoin:miter;stroke-opacity:1" d="M 735.831,250.741 719.046,255.777 z" id="boundary" inkscape:connector-curvature="0" />
	<path style="fill:none;stroke:red;stroke-width:1px;stroke-linecap:butt;stroke-linejoin:miter;stroke-opacity:1" d="M 719.046,255.777 702.261,259.134 z" id="boundary" inkscape:connector-curvature="0" />
	<path style="fill:none;stroke:red;stroke-width:1px;stroke-linecap:butt;stroke-linejoin:miter;stroke-opacity:1" d="M 702.261,259.134 685.475,264.169 z" id="boundary" inkscape:connector-curvature="0" />
	<path style="fill:none;stroke:red;stroke-width:1px;stroke-linecap:butt;stroke-linejoin:miter;stroke-opacity:1" d="M 685.475,264.169 668.69,267.526 z" id="boundary" inkscape:connector-curvature="0" />
	<path style="fill:none;stroke:red;stroke-width:1px;stroke-linecap:butt;stroke-linejoin:miter;stroke-opacity:1" d="M 668.69,267.526 651.905,272.562 z" id="boundary" inkscape:connector-curvature="0" />
	<path style="fill:none;stroke:red;stroke-width:1px;stroke-linecap:butt;stroke-linejoin:miter;stroke-opacity:1" d="M 651.905,272.562 635.12,269.205 z" id="boundary" inkscape:connector-curvature="0" />
	<path style="fill:none;stroke:red;stroke-width:1px;stroke-linecap:butt;stroke-linejoin:miter;stroke-opacity:1" d="M 635.12,269.205 633.442,252.42 z" id="boundary" inkscape:connector-curvature="0" />
	<path style="fill:none;stroke:red;stroke-width:1px;stroke-linecap:butt;stroke-linejoin:miter;stroke-opacity:1" d="M 633.442,252.42 626.728,235.635 z" id="boundary" inkscape:connector-curvature="0" />
	<path style="fill:none;stroke:red;stroke-width:1px;stroke-linecap:butt;stroke-linejoin:miter;stroke-opacity:1" d="M 626.728,235.635 618.335,220.528 z" id="boundary" inkscape:connector-curvature="0" />
	<path style="fill:none;stroke:red;stroke-width:1px;stroke-linecap:butt;stroke-linejoin:miter;stroke-opacity:1" d="M 618.335,220.528 618.335,203.743 z" id="boundary" inkscape:connector-curvature="0" />
	<path style="fill:none;stroke:red;stroke-width:1px;stroke-linecap:butt;stroke-linejoin:miter;stroke-opacity:1" d="M 618.335,203.743 609.942,188.636 z" id="boundary" inkscape:connector-curvature="0" />
	<path style="fill:none;stroke:red;stroke-width:1px;stroke-linecap:butt;stroke-linejoin:miter;stroke-opacity:1" d="M 609.942,188.636 601.55,173.53 z" id="boundary" inkscape:connector-curvature="0" />
	<path style="fill:none;stroke:red;stroke-width:1px;stroke-linecap:butt;stroke-linejoin:miter;stroke-opacity:1" d="M 601.55,173.53 601.55,156.745 z" id="boundary" inkscape:connector-curvature="0" />
	<path style="fill:none;stroke:red;stroke-width:1px;stroke-linecap:butt;stroke-linejoin:miter;stroke-opacity:1" d="M 601.55,156.745 618.335,156.745 z" id="boundary" inkscape:connector-curvature="0" />
	<path style="fill:none;stroke:red;stroke-width:1px;stroke-linecap:butt;stroke-linejoin:miter;stroke-opacity:1" d="M 618.335,156.745 633.442,165.137 z" id="boundary" inkscape:connector-curvature="0" />
	<path style="fill:none;stroke:red;stroke-width:1px;stroke-linecap:butt;stroke-linejoin:miter;stroke-opacity:1" d="M 633.442,165.137 650.227,160.102 z" id="boundary" inkscape:connector-curvature="0" />
	<path style="fill:none;stroke:red;stroke-width:1px;stroke-linecap:butt;stroke-linejoin:miter;stroke-opacity:1" d="M 650.227,160.102 660.298,141.638 z" id="boundary" inkscape:connector-curvature="0" />
	<path style="fill:none;stroke:red;stroke-width:1px;stroke-linecap:butt;stroke-linejoin:miter;stroke-opacity:1" d="M 660.298,141.638 658.619,124.853 z" id="boundary" inkscape:connector-curvature="0" />
	<path style="fill:none;stroke:red;stroke-width:1px;stroke-linecap:butt;stroke-linejoin:miter;stroke-opacity:1" d="M 658.619,124.853 650.227,109.746 z" id="boundary" inkscape:connector-curvature="0" />
	<path style="fill:none;stroke:red;stroke-width:1px;stroke-linecap:butt;stroke-linejoin:miter;stroke-opacity:1" d="M 650.227,109.746 638.477,96.3181 z" id="boundary" inkscape:connector-curvature="0" />
	<path style="fill:none;stroke:red;stroke-width:1px;stroke-linecap:butt;stroke-linejoin:miter;stroke-opacity:1" d="M 638.477,96.3181 621.692,96.3181 z" id="boundary" inkscape:connector-curvature="0" />
	<path style="fill:none;stroke:red;stroke-width:1px;stroke-linecap:butt;stroke-linejoin:miter;stroke-opacity:1" d="M 621.692,96.3181 608.264,109.746 z" id="boundary" inkscape:connector-curvature="0" />
	<path style="fill:none;stroke:red;stroke-width:1px;stroke-linecap:butt;stroke-linejoin:miter;stroke-opacity:1" d="M 608.264,109.746 598.193,129.888 z" id="boundary" inkscape:connector-curvature="0" />
	<path style="fill:none;stroke:red;stroke-width:1px;stroke-linecap:butt;stroke-linejoin:miter;stroke-opacity:1" d="M 598.193,129.888 581.408,124.853 z" id="boundary" inkscape:connector-curvature="0" />
	<path style="fill:none;stroke:red;stroke-width:1px;stroke-linecap:butt;stroke-linejoin:miter;stroke-opacity:1" d="M 581.408,124.853 574.694,108.068 z" id="boundary" inkscape:connector-curvature="0" />
	<path style="fill:none;stroke:red;stroke-width:1px;stroke-linecap:butt;stroke-linejoin:miter;stroke-opacity:1" d="M 574.694,108.068 566.301,92.9611 z" id="boundary" inkscape:connector-curvature="0" />
	<path style="fill:none;stroke:red;stroke-width:1px;stroke-linecap:butt;stroke-linejoin:miter;stroke-opacity:1" d="M 566.301,92.9611 559.587,76.176 z" id="boundary" inkscape:connector-curvature="0" />
	<path style="fill:none;stroke:red;stroke-width:1px;stroke-linecap:butt;stroke-linejoin:miter;stroke-opacity:1" d="M 559.587,76.176 551.195,61.0694 z" id="boundary" inkscape:connector-curvature="0" />
	<path style="fill:none;stroke:red;stroke-width:1px;stroke-linecap:butt;stroke-linejoin:miter;stroke-opacity:1" d="M 551.195,61.0694 542.802,45.9628 z" id="boundary" inkscape:connector-curvature="0" />
	<path style="fill:none;stroke:red;stroke-width:1px;stroke-linecap:butt;stroke-linejoin:miter;stroke-opacity:1" d="M 542.802,45.9628 542.802,29.1777 z" id="boundary" inkscape:connector-curvature="0" />
	<path style="fill:none;stroke:red;stroke-width:1px;stroke-linecap:butt;stroke-linejoin:miter;stroke-opacity:1" d="M 542.802,29.1777 534.409,14.0711 z" id="boundary" inkscape:connector-curvature="0" />
	<path style="fill:none;stroke:red;stroke-width:1px;stroke-linecap:butt;stroke-linejoin:miter;stroke-opacity:1" d="M 534.409,14.0711 520.981,4 z" id="boundary" inkscape:connector-curvature="0" />
	<path style="fill:none;stroke:red;stroke-width:1px;stroke-linecap:butt;stroke-linejoin:miter;stroke-opacity:1" d="M 520.981,4 504.196,4 z" id="boundary" inkscape:connector-curvature="0" />
	<path style="fill:none;stroke:red;stroke-width:1px;stroke-linecap:butt;stroke-linejoin:miter;stroke-opacity:1" d="M 504.196,4 489.09,12.3926 z" id="boundary" inkscape:connector-curvature="0" />
	<path style="fill:none;stroke:red;stroke-width:1px;stroke-linecap:butt;stroke-linejoin:miter;stroke-opacity:1" d="M 489.09,12.3926 475.662,24.1421 z" id="boundary" inkscape:connector-curvature="0" />
	<path style="fill:none;stroke:red;stroke-width:1px;stroke-linecap:butt;stroke-linejoin:miter;stroke-opacity:1" d="M 475.662,24.1421 462.234,37.5702 z" id="boundary" inkscape:connector-curvature="0" />
	<path style="fill:none;stroke:red;stroke-width:1px;stroke-linecap:butt;stroke-linejoin:miter;stroke-opacity:1" d="M 462.234,37.5702 448.805,50.9983 z" id="boundary" inkscape:connector-curvature="0" />
	<path style="fill:none;stroke:red;stroke-width:1px;stroke-linecap:butt;stroke-linejoin:miter;stroke-opacity:1" d="M 448.805,50.9983 440.413,67.7834 z" id="boundary" inkscape:connector-curvature="0" />
	<path style="fill:none;stroke:red;stroke-width:1px;stroke-linecap:butt;stroke-linejoin:miter;stroke-opacity:1" d="M 440.413,67.7834 432.02,84.5685 z" id="boundary" inkscape:connector-curvature="0" />
	<path style="fill:none;stroke:red;stroke-width:1px;stroke-linecap:butt;stroke-linejoin:miter;stroke-opacity:1" d="M 432.02,84.5685 423.628,101.354 z" id="boundary" inkscape:connector-curvature="0" />
	<path style="fill:none;stroke:red;stroke-width:1px;stroke-linecap:butt;stroke-linejoin:miter;stroke-opacity:1" d="M 423.628,101.354 415.235,126.531 z" id="boundary" inkscape:connector-curvature="0" />
	<path style="fill:none;stroke:red;stroke-width:1px;stroke-linecap:butt;stroke-linejoin:miter;stroke-opacity:1" d="M 415.235,126.531 406.843,151.709 z" id="boundary" inkscape:connector-curvature="0" />
	<path style="fill:none;stroke:red;stroke-width:1px;stroke-linecap:butt;stroke-linejoin:miter;stroke-opacity:1" d="M 406.843,151.709 403.486,171.851 z" id="boundary" inkscape:connector-curvature="0" />
	<path style="fill:none;stroke:red;stroke-width:1px;stroke-linecap:butt;stroke-linejoin:miter;stroke-opacity:1" d="M 403.486,171.851 396.772,188.636 z" id="boundary" inkscape:connector-curvature="0" />
	<path style="fill:none;stroke:red;stroke-width:1px;stroke-linecap:butt;stroke-linejoin:miter;stroke-opacity:1" d="M 396.772,188.636 383.343,200.386 z" id="boundary" inkscape:connector-curvature="0" />
	<path style="fill:none;stroke:red;stroke-width:1px;stroke-linecap:butt;stroke-linejoin:miter;stroke-opacity:1" d="M 383.343,200.386 366.558,208.778 z" id="boundary" inkscape:connector-curvature="0" />
	<path style="fill:none;stroke:red;stroke-width:1px;stroke-linecap:butt;stroke-linejoin:miter;stroke-opacity:1" d="M 366.558,208.778 349.773,213.814 z" id="boundary" inkscape:connector-curvature="0" />
	<path style="fill:none;stroke:red;stroke-width:1px;stroke-linecap:butt;stroke-linejoin:miter;stroke-opacity:1" d="M 349.773,213.814 334.667,222.206 z" id="boundary" inkscape:connector-curvature="0" />
	<path style="fill:none;stroke:red;stroke-width:1px;stroke-linecap:butt;stroke-linejoin:miter;stroke-opacity:1" d="M 334.667,222.206 319.56,230.599 z" id="boundary" inkscape:connector-curvature="0" />
	<path style="fill:none;stroke:red;stroke-width:1px;stroke-linecap:butt;stroke-linejoin:miter;stroke-opacity:1" d="M 319.56,230.599 306.132,244.027 z" id="boundary" inkscape:connector-curvature="0" />
	<path style="fill:none;stroke:red;stroke-width:1px;stroke-linecap:butt;stroke-linejoin:miter;stroke-opacity:1" d="M 306.132,244.027 314.525,259.134 z" id="boundary" inkscape:connector-curvature="0" />
	<path style="fill:none;stroke:red;stroke-width:1px;stroke-linecap:butt;stroke-linejoin:miter;stroke-opacity:1" d="M 314.525,259.134 331.31,260.812 z" id="boundary" inkscape:connector-curvature="0" />
	<path style="fill:none;stroke:red;stroke-width:1px;stroke-linecap:butt;stroke-linejoin:miter;stroke-opacity:1" d="M 331.31,260.812 348.095,257.455 z" id="boundary" inkscape:connector-curvature="0" />
	<path style="fill:none;stroke:red;stroke-width:1px;stroke-linecap:butt;stroke-linejoin:miter;stroke-opacity:1" d="M 348.095,257.455 364.88,257.455 z" id="boundary" inkscape:connector-curvature="0" />
	<path style="fill:none;stroke:red;stroke-width:1px;stroke-linecap:butt;stroke-linejoin:miter;stroke-opacity:1" d="M 331.31,361.523 339.702,336.345 z" id="boundary" inkscape:connector-curvature="0" />
	<path style="fill:none;stroke:red;stroke-width:1px;stroke-linecap:butt;stroke-linejoin:miter;stroke-opacity:1" d="M 339.702,336.345 348.095,319.56 z" id="boundary" inkscape:connector-curvature="0" />
	<path style="fill:none;stroke:red;stroke-width:1px;stroke-linecap:butt;stroke-linejoin:miter;stroke-opacity:1" d="M 348.095,319.56 356.487,302.775 z" id="boundary" inkscape:connector-curvature="0" />
	<path style="fill:none;stroke:red;stroke-width:1px;stroke-linecap:butt;stroke-linejoin:miter;stroke-opacity:1" d="M 356.487,302.775 356.487,285.99 z" id="boundary" inkscape:connector-curvature="0" />
	<path style="fill:none;stroke:red;stroke-width:1px;stroke-linecap:butt;stroke-linejoin:miter;stroke-opacity:1" d="M 356.487,285.99 364.88,257.455 z" id="boundary" inkscape:connector-curvature="0" />
	<circle cx="4" cy="571.337" r="4" fill="#0" id="circle0"/>
	<circle cx="4" cy="588.122" r="4" fill="#0" id="circle1"/>
	<circle cx="17.4281" cy="557.909" r="4" fill="#0" id="circle2"/>
	<circle cx="20.7851" cy="593.157" r="4" fill="#0" id="circle3"/>
	<circle cx="30.8562" cy="544.481" r="4" fill="#0" id="circle4"/>
	<circle cx="37.5702" cy="593.157" r="4" fill="#0" id="circle5"/>
	<circle cx="47.6413" cy="536.088" r="4" fill="#0" id="circle6"/>
	<circle cx="54.3553" cy="593.157" r="4" fill="#0" id="circle7"/>
	<circle cx="64.4264" cy="527.695" r="4" fill="#0" id="circle8"/>
	<circle cx="69.4619" cy="584.765" r="4" fill="#0" id="circle9"/>
	<circle cx="81.2115" cy="519.303" r="4" fill="#0" id="circle10"/>
	<circle cx="86.247" cy="584.765" r="4" fill="#0" id="circle11"/>
	<circle cx="97.9966" cy="510.91" r="4" fill="#0" id="circle12"/>
	<circle cx="101.354" cy="576.372" r="4" fill="#0" id="circle13"/>
	<circle cx="114.782" cy="502.518" r="4" fill="#0" id="circle14"/>
	<circle cx="118.139" cy="576.372" r="4" fill="#0" id="circle15"/>
	<circle cx="131.567" cy="494.125" r="4" fill="#0" id="circle16"/>
	<circle cx="133.245" cy="567.98" r="4" fill="#0" id="circle17"/>
	<circle cx="144.995" cy="482.376" r="4" fill="#0" id="circle18"/>
	<circle cx="150.03" cy="567.98" r="4" fill="#0" id="circle19"/>
	<circle cx="160.102" cy="473.983" r="4" fill="#0" id="circle20"/>
	<circle cx="165.137" cy="559.587" r="4" fill="#0" id="circle21"/>
	<circle cx="176.887" cy="465.591" r="4" fill="#0" id="circle22"/>
	<circle cx="181.922" cy="559.587" r="4" fill="#0" id="circle23"/>
	<circle cx="193.672" cy="457.198" r="4" fill="#0" id="circle24"/>
	<circle cx="197.029" cy="551.195" r="4" fill="#0" id="circle25"/>
	<circle cx="210.457" cy="448.805" r="4" fill="#0" id="circle26"/>
	<circle cx="213.814" cy="546.159" r="4" fill="#0" id="circle27"/>
	<circle cx="227.242" cy="440.413" r="4" fill="#0" id="circle28"/>
	<circle cx="230.599" cy="542.802" r="4" fill="#0" id="circle29"/>
	<circle cx="244.027" cy="440.413" r="4" fill="#0" id="circle30"/>
	<circle cx="247.384" cy="537.766" r="4" fill="#0" id="circle31"/>
	<circle cx="259.134" cy="432.02" r="4" fill="#0" id="circle32"/>
	<circle cx="264.169" cy="534.409" r="4" fill="#0" id="circle33"/>
	<circle cx="272.562" cy="403.486" r="4" fill="#0" id="circle34"/>
	<circle cx="272.562" cy="420.271" r="4" fill="#0" id="circle35"/>
	<circle cx="279.276" cy="526.017" r="4" fill="#0" id="circle36"/>
	<circle cx="289.347" cy="395.093" r="4" fill="#0" id="circle37"/>
	<circle cx="296.061" cy="522.66" r="4" fill="#0" id="circle38"/>
	<circle cx="306.132" cy="244.027" r="4" fill="#0" id="circle39"/>
	<circle cx="306.132" cy="390.058" r="4" fill="#0" id="circle40"/>
	<circle cx="312.846" cy="517.624" r="4" fill="#0" id="circle41"/>
	<circle cx="314.525" cy="259.134" r="4" fill="#0" id="circle42"/>
	<circle cx="319.56" cy="230.599" r="4" fill="#0" id="circle43"/>
	<circle cx="321.239" cy="381.665" r="4" fill="#0" id="circle44"/>
	<circle cx="324.596" cy="531.052" r="4" fill="#0" id="circle45"/>
	<circle cx="331.31" cy="260.812" r="4" fill="#0" id="circle46"/>
	<circle cx="331.31" cy="361.523" r="4" fill="#0" id="circle47"/>
	<circle cx="334.667" cy="222.206" r="4" fill="#0" id="circle48"/>
	<circle cx="339.702" cy="336.345" r="4" fill="#0" id="circle49"/>
	<circle cx="341.381" cy="526.017" r="4" fill="#0" id="circle50"/>
	<circle cx="348.095" cy="257.455" r="4" fill="#0" id="circle51"/>
	<circle cx="348.095" cy="319.56" r="4" fill="#0" id="circle52"/>
	<circle cx="349.773" cy="213.814" r="4" fill="#0" id="circle53"/>
	<circle cx="356.487" cy="285.99" r="4" fill="#0" id="circle54"/>
	<circle cx="356.487" cy="302.775" r="4" fill="#0" id="circle55"/>
	<circle cx="358.166" cy="517.624" r="4" fill="#0" id="circle56"/>
	<circle cx="364.88" cy="257.455" r="4" fill="#0" id="circle57"/>
	<circle cx="366.558" cy="208.778" r="4" fill="#0" id="circle58"/>
	<circle cx="374.951" cy="517.624" r="4" fill="#0" id="circle59"/>
	<circle cx="383.343" cy="200.386" r="4" fill="#0" id="circle60"/>
	<circle cx="390.058" cy="509.232" r="4" fill="#0" id="circle61"/>
	<circle cx="396.772" cy="188.636" r="4" fill="#0" id="circle62"/>
	<circle cx="403.486" cy="171.851" r="4" fill="#0" id="circle63"/>
	<circle cx="405.164" cy="517.624" r="4" fill="#0" id="circle64"/>
	<circle cx="406.843" cy="151.709" r="4" fill="#0" id="circle65"/>
	<circle cx="415.235" cy="126.531" r="4" fill="#0" id="circle66"/>
	<circle cx="420.271" cy="526.017" r="4" fill="#0" id="circle67"/>
	<circle cx="423.628" cy="101.354" r="4" fill="#0" id="circle68"/>
	<circle cx="432.02" cy="84.5685" r="4" fill="#0" id="circle69"/>
	<circle cx="435.377" cy="534.409" r="4" fill="#0" id="circle70"/>
	<circle cx="440.413" cy="67.7834" r="4" fill="#0" id="circle71"/>
	<circle cx="448.805" cy="50.9983" r="4" fill="#0" id="circle72"/>
	<circle cx="448.805" cy="544.481" r="4" fill="#0" id="circle73"/>
	<circle cx="448.805" cy="596.514" r="4" fill="#0" id="circle74"/>
	<circle cx="448.805" cy="613.299" r="4" fill="#0" id="circle75"/>
	<circle cx="460.555" cy="557.909" r="4" fill="#0" id="circle76"/>
	<circle cx="462.234" cy="37.5702" r="4" fill="#0" id="circle77"/>
	<circle cx="462.234" cy="583.086" r="4" fill="#0" id="circle78"/>
	<circle cx="465.591" cy="618.335" r="4" fill="#0" id="circle79"/>
	<circle cx="475.662" cy="24.1421" r="4" fill="#0" id="circle80"/>
	<circle cx="477.34" cy="564.623" r="4" fill="#0" id="circle81"/>
	<circle cx="482.376" cy="618.335" r="4" fill="#0" id="circle82"/>
	<circle cx="489.09" cy="12.3926" r="4" fill="#0" id="circle83"/>
	<circle cx="499.161" cy="613.299" r="4" fill="#0" id="circle84"/>
	<circle cx="504.196" cy="4" r="4" fill="#0" id="circle85"/>
	<circle cx="515.946" cy="609.942" r="4" fill="#0" id="circle86"/>
	<circle cx="520.981" cy="4" r="4" fill="#0" id="circle87"/>
	<circle cx="531.052" cy="601.55" r="4" fill="#0" id="circle88"/>
	<circle cx="534.409" cy="14.0711" r="4" fill="#0" id="circle89"/>
	<circle cx="542.802" cy="29.1777" r="4" fill="#0" id="circle90"/>
	<circle cx="542.802" cy="45.9628" r="4" fill="#0" id="circle91"/>
	<circle cx="547.838" cy="598.193" r="4" fill="#0" id="circle92"/>
	<circle cx="551.195" cy="61.0694" r="4" fill="#0" id="circle93"/>
	<circle cx="559.587" cy="76.176" r="4" fill="#0" id="circle94"/>
	<circle cx="564.623" cy="601.55" r="4" fill="#0" id="circle95"/>
	<circle cx="566.301" cy="92.9611" r="4" fill="#0" id="circle96"/>
	<circle cx="574.694" cy="108.068" r="4" fill="#0" id="circle97"/>
	<circle cx="579.729" cy="609.942" r="4" fill="#0" id="circle98"/>
	<circle cx="581.408" cy="124.853" r="4" fill="#0" id="circle99"/>
	<circle cx="596.514" cy="616.657" r="4" fill="#0" id="circle100"/>
	<circle cx="598.193" cy="129.888" r="4" fill="#0" id="circle101"/>
	<circle cx="601.55" cy="156.745" r="4" fill="#0" id="circle102"/>
	<circle cx="601.55" cy="173.53" r="4" fill="#0" id="circle103"/>
	<circle cx="608.264" cy="109.746" r="4" fill="#0" id="circle104"/>
	<circle cx="609.942" cy="188.636" r="4" fill="#0" id="circle105"/>
	<circle cx="611.621" cy="625.049" r="4" fill="#0" id="circle106"/>
	<circle cx="618.335" cy="156.745" r="4" fill="#0" id="circle107"/>
	<circle cx="618.335" cy="203.743" r="4" fill="#0" id="circle108"/>
	<circle cx="618.335" cy="220.528" r="4" fill="#0" id="circle109"/>
	<circle cx="621.692" cy="96.3181" r="4" fill="#0" id="circle110"/>
	<circle cx="626.728" cy="235.635" r="4" fill="#0" id="circle111"/>
	<circle cx="628.406" cy="631.763" r="4" fill="#0" id="circle112"/>
	<circle cx="633.442" cy="165.137" r="4" fill="#0" id="circle113"/>
	<circle cx="633.442" cy="252.42" r="4" fill="#0" id="circle114"/>
	<circle cx="635.12" cy="269.205" r="4" fill="#0" id="circle115"/>
	<circle cx="638.477" cy="96.3181" r="4" fill="#0" id="circle116"/>
	<circle cx="643.513" cy="640.156" r="4" fill="#0" id="circle117"/>
	<circle cx="650.227" cy="109.746" r="4" fill="#0" id="circle118"/>
	<circle cx="650.227" cy="160.102" r="4" fill="#0" id="circle119"/>
	<circle cx="651.905" cy="272.562" r="4" fill="#0" id="circle120"/>
	<circle cx="658.619" cy="124.853" r="4" fill="#0" id="circle121"/>
	<circle cx="660.298" cy="141.638" r="4" fill="#0" id="circle122"/>
	<circle cx="660.298" cy="646.87" r="4" fill="#0" id="circle123"/>
	<circle cx="668.69" cy="267.526" r="4" fill="#0" id="circle124"/>
	<circle cx="675.404" cy="655.262" r="4" fill="#0" id="circle125"/>
	<circle cx="685.475" cy="264.169" r="4" fill="#0" id="circle126"/>
	<circle cx="685.475" cy="366.558" r="4" fill="#0" id="circle127"/>
	<circle cx="685.475" cy="383.343" r="4" fill="#0" id="circle128"/>
	<circle cx="692.19" cy="660.298" r="4" fill="#0" id="circle129"/>
	<circle cx="693.868" cy="398.45" r="4" fill="#0" id="circle130"/>
	<circle cx="700.582" cy="358.166" r="4" fill="#0" id="circle131"/>
	<circle cx="702.261" cy="259.134" r="4" fill="#0" id="circle132"/>
	<circle cx="702.261" cy="413.557" r="4" fill="#0" id="circle133"/>
	<circle cx="707.296" cy="668.69" r="4" fill="#0" id="circle134"/>
	<circle cx="710.653" cy="428.663" r="4" fill="#0" id="circle135"/>
	<circle cx="715.689" cy="349.773" r="4" fill="#0" id="circle136"/>
	<circle cx="717.367" cy="445.448" r="4" fill="#0" id="circle137"/>
	<circle cx="719.046" cy="255.777" r="4" fill="#0" id="circle138"/>
	<circle cx="719.046" cy="462.234" r="4" fill="#0" id="circle139"/>
	<circle cx="724.081" cy="668.69" r="4" fill="#0" id="circle140"/>
	<circle cx="725.76" cy="479.019" r="4" fill="#0" id="circle141"/>
	<circle cx="730.795" cy="341.381" r="4" fill="#0" id="circle142"/>
	<circle cx="735.831" cy="250.741" r="4" fill="#0" id="circle143"/>
	<circle cx="740.866" cy="668.69" r="4" fill="#0" id="circle144"/>
	<circle cx="742.545" cy="479.019" r="4" fill="#0" id="circle145"/>
	<circle cx="744.223" cy="509.232" r="4" fill="#0" id="circle146"/>
	<circle cx="744.223" cy="526.017" r="4" fill="#0" id="circle147"/>
	<circle cx="745.902" cy="332.988" r="4" fill="#0" id="circle148"/>
	<circle cx="747.58" cy="542.802" r="4" fill="#0" id="circle149"/>
	<circle cx="750.937" cy="462.234" r="4" fill="#0" id="circle150"/>
	<circle cx="752.616" cy="247.384" r="4" fill="#0" id="circle151"/>
	<circle cx="755.973" cy="557.909" r="4" fill="#0" id="circle152"/>
	<circle cx="755.973" cy="660.298" r="4" fill="#0" id="circle153"/>
	<circle cx="761.008" cy="324.596" r="4" fill="#0" id="circle154"/>
	<circle cx="761.008" cy="509.232" r="4" fill="#0" id="circle155"/>
	<circle cx="761.008" cy="574.694" r="4" fill="#0" id="circle156"/>
	<circle cx="764.365" cy="448.805" r="4" fill="#0" id="circle157"/>
	<circle cx="769.401" cy="242.349" r="4" fill="#0" id="circle158"/>
	<circle cx="769.401" cy="589.8" r="4" fill="#0" id="circle159"/>
	<circle cx="769.401" cy="606.585" r="4" fill="#0" id="circle160"/>
	<circle cx="771.08" cy="651.905" r="4" fill="#0" id="circle161"/>
	<circle cx="776.115" cy="517.624" r="4" fill="#0" id="circle162"/>
	<circle cx="777.794" cy="316.203" r="4" fill="#0" id="circle163"/>
	<circle cx="777.794" cy="621.692" r="4" fill="#0" id="circle164"/>
	<circle cx="781.151" cy="448.805" r="4" fill="#0" id="circle165"/>
	<circle cx="784.508" cy="638.477" r="4" fill="#0" id="circle166"/>
	<circle cx="786.186" cy="238.992" r="4" fill="#0" id="circle167"/>
	<circle cx="792.9" cy="307.81" r="4" fill="#0" id="circle168"/>
	<circle cx="792.9" cy="462.234" r="4" fill="#0" id="circle169"/>
	<circle cx="792.9" cy="512.589" r="4" fill="#0" id="circle170"/>
	<circle cx="801.293" cy="230.599" r="4" fill="#0" id="circle171"/>
	<circle cx="801.293" cy="477.34" r="4" fill="#0" id="circle172"/>
	<circle cx="802.971" cy="494.125" r="4" fill="#0" id="circle173"/>
	<circle cx="809.685" cy="302.775" r="4" fill="#0" id="circle174"/>
	<circle cx="816.399" cy="222.206" r="4" fill="#0" id="circle175"/>
	<circle cx="823.113" cy="205.421" r="4" fill="#0" id="circle176"/>
	<circle cx="826.47" cy="294.382" r="4" fill="#0" id="circle177"/>
	<circle cx="831.506" cy="188.636" r="4" fill="#0" id="circle178"/>
	<circle cx="839.898" cy="171.851" r="4" fill="#0" id="circle179"/>
	<circle cx="843.255" cy="291.025" r="4" fill="#0" id="circle180"/>
	<circle cx="848.291" cy="155.066" r="4" fill="#0" id="circle181"/>
	<circle cx="851.648" cy="134.924" r="4" fill="#0" id="circle182"/>
	<circle cx="858.362" cy="299.418" r="4" fill="#0" id="circle183"/>
	<circle cx="865.076" cy="121.496" r="4" fill="#0" id="circle184"/>
	<circle cx="873.469" cy="104.711" r="4" fill="#0" id="circle185"/>
	<circle cx="873.469" cy="307.81" r="4" fill="#0" id="circle186"/>
	<circle cx="886.897" cy="91.2826" r="4" fill="#0" id="circle187"/>
	<circle cx="890.254" cy="314.525" r="4" fill="#0" id="circle188"/>
	<circle cx="903.682" cy="92.9611" r="4" fill="#0" id="circle189"/>
	<circle cx="907.039" cy="316.203" r="4" fill="#0" id="circle190"/>
	<circle cx="912.074" cy="108.068" r="4" fill="#0" id="circle191"/>
	<circle cx="920.467" cy="123.174" r="4" fill="#0" id="circle192"/>
	<circle cx="922.146" cy="324.596" r="4" fill="#0" id="circle193"/>
	<circle cx="923.824" cy="139.959" r="4" fill="#0" id="circle194"/>
	<circle cx="932.217" cy="155.066" r="4" fill="#0" id="circle195"/>
	<circle cx="937.252" cy="171.851" r="4" fill="#0" id="circle196"/>
	<circle cx="938.931" cy="329.631" r="4" fill="#0" id="circle197"/>
	<circle cx="945.645" cy="186.958" r="4" fill="#0" id="circle198"/>
	<circle cx="945.645" cy="203.743" r="4" fill="#0" id="circle199"/>
	<circle cx="954.037" cy="218.849" r="4" fill="#0" id="circle200"/>
	<circle cx="955.716" cy="332.988" r="4" fill="#0" id="circle201"/>
	<circle cx="962.43" cy="233.956" r="4" fill="#0" id="circle202"/>
	<circle cx="970.822" cy="249.063" r="4" fill="#0" id="circle203"/>
	<circle cx="970.822" cy="341.381" r="4" fill="#0" id="circle204"/>
	<circle cx="974.179" cy="265.848" r="4" fill="#0" id="circle205"/>
	<circle cx="982.572" cy="280.954" r="4" fill="#0" id="circle206"/>
	<circle cx="987.607" cy="297.739" r="4" fill="#0" id="circle207"/>
	<circle cx="987.607" cy="332.988" r="4" fill="#0" id="circle208"/>
	<circle cx="996" cy="312.846" r="4" fill="#0" id="circle209"/>
	</g>
</svg>