<?xml version="1.0" encoding="UTF-8" standalone="no"?>
<!-- Created with CurveBenchmark -->
<svg
	xmlns:dc="http://purl.org/dc/elements/1.1/"
	xmlns:cc="http://creativecommons.org/ns#"
	xmlns:rdf="http://www.w3.org/1999/02/22-rdf-syntax-ns#"
	xmlns:svg="http://www.w3.org/2000/svg"
	xmlns="http://www.w3.org/2000/svg"
	xmlns:sodipodi="http://sodipodi.sourceforge.net/DTD/sodipodi-0.dtd"
	xmlns:inkscape="http://www.inkscape.org/namespaces/inkscape"
	width="1000"
	height="1000"
	id="svg2"
	version="1.1"
	sodipodi:docname="manifold/crawl-television045.png.txt">
<defs
	id="defs4" />
<metadata
	id="metadata7">
	<rdf:RDF>
		<cc:Work
			rdf:about="">
			<dc:format>image/svg+xml</dc:format>
			<dc:type
				rdf:resource="http://purl.org/dc/dcmitype/StillImage" />
			<dc:title></dc:title>
		</cc:Work>
	</rdf:RDF>
</metadata>
<g
	inkscape:label="Layer 1"
	inkscape:groupmode="layer"
	id="layer1">
	<path style="fill:none;stroke:red;stroke-width:1px;stroke-linecap:butt;stroke-linejoin:miter;stroke-opacity:1" d="M 4,839.751 4,876.088 z" id="boundary" inkscape:connector-curvature="0" />
	<path style="fill:none;stroke:red;stroke-width:1px;stroke-linecap:butt;stroke-linejoin:miter;stroke-opacity:1" d="M 4,839.751 40.337,832.484 z" id="boundary" inkscape:connector-curvature="0" />
	<path style="fill:none;stroke:red;stroke-width:1px;stroke-linecap:butt;stroke-linejoin:miter;stroke-opacity:1" d="M 40.337,832.484 76.674,832.484 z" id="boundary" inkscape:connector-curvature="0" />
	<path style="fill:none;stroke:red;stroke-width:1px;stroke-linecap:butt;stroke-linejoin:miter;stroke-opacity:1" d="M 76.674,832.484 113.011,832.484 z" id="boundary" inkscape:connector-curvature="0" />
	<path style="fill:none;stroke:red;stroke-width:1px;stroke-linecap:butt;stroke-linejoin:miter;stroke-opacity:1" d="M 113.011,832.484 149.348,832.484 z" id="boundary" inkscape:connector-curvature="0" />
	<path style="fill:none;stroke:red;stroke-width:1px;stroke-linecap:butt;stroke-linejoin:miter;stroke-opacity:1" d="M 149.348,832.484 185.685,832.484 z" id="boundary" inkscape:connector-curvature="0" />
	<path style="fill:none;stroke:red;stroke-width:1px;stroke-linecap:butt;stroke-linejoin:miter;stroke-opacity:1" d="M 185.685,832.484 222.022,832.484 z" id="boundary" inkscape:connector-curvature="0" />
	<path style="fill:none;stroke:red;stroke-width:1px;stroke-linecap:butt;stroke-linejoin:miter;stroke-opacity:1" d="M 222.022,832.484 258.359,832.484 z" id="boundary" inkscape:connector-curvature="0" />
	<path style="fill:none;stroke:red;stroke-width:1px;stroke-linecap:butt;stroke-linejoin:miter;stroke-opacity:1" d="M 258.359,832.484 294.696,832.484 z" id="boundary" inkscape:connector-curvature="0" />
	<path style="fill:none;stroke:red;stroke-width:1px;stroke-linecap:butt;stroke-linejoin:miter;stroke-opacity:1" d="M 294.696,832.484 331.033,832.484 z" id="boundary" inkscape:connector-curvature="0" />
	<path style="fill:none;stroke:red;stroke-width:1px;stroke-linecap:butt;stroke-linejoin:miter;stroke-opacity:1" d="M 331.033,832.484 367.37,832.484 z" id="boundary" inkscape:connector-curvature="0" />
	<path style="fill:none;stroke:red;stroke-width:1px;stroke-linecap:butt;stroke-linejoin:miter;stroke-opacity:1" d="M 367.37,832.484 403.707,832.484 z" id="boundary" inkscape:connector-curvature="0" />
	<path style="fill:none;stroke:red;stroke-width:1px;stroke-linecap:butt;stroke-linejoin:miter;stroke-opacity:1" d="M 403.707,832.484 440.044,832.484 z" id="boundary" inkscape:connector-curvature="0" />
	<path style="fill:none;stroke:red;stroke-width:1px;stroke-linecap:butt;stroke-linejoin:miter;stroke-opacity:1" d="M 4,876.088 22.1685,908.791 z" id="boundary" inkscape:connector-curvature="0" />
	<path style="fill:none;stroke:red;stroke-width:1px;stroke-linecap:butt;stroke-linejoin:miter;stroke-opacity:1" d="M 22.1685,908.791 58.5055,923.326 z" id="boundary" inkscape:connector-curvature="0" />
	<path style="fill:none;stroke:red;stroke-width:1px;stroke-linecap:butt;stroke-linejoin:miter;stroke-opacity:1" d="M 58.5055,923.326 94.8425,908.791 z" id="boundary" inkscape:connector-curvature="0" />
	<path style="fill:none;stroke:red;stroke-width:1px;stroke-linecap:butt;stroke-linejoin:miter;stroke-opacity:1" d="M 94.8425,908.791 131.179,908.791 z" id="boundary" inkscape:connector-curvature="0" />
	<path style="fill:none;stroke:red;stroke-width:1px;stroke-linecap:butt;stroke-linejoin:miter;stroke-opacity:1" d="M 131.179,908.791 167.516,908.791 z" id="boundary" inkscape:connector-curvature="0" />
	<path style="fill:none;stroke:red;stroke-width:1px;stroke-linecap:butt;stroke-linejoin:miter;stroke-opacity:1" d="M 167.516,908.791 203.853,908.791 z" id="boundary" inkscape:connector-curvature="0" />
	<path style="fill:none;stroke:red;stroke-width:1px;stroke-linecap:butt;stroke-linejoin:miter;stroke-opacity:1" d="M 203.853,908.791 240.19,916.059 z" id="boundary" inkscape:connector-curvature="0" />
	<path style="fill:none;stroke:red;stroke-width:1px;stroke-linecap:butt;stroke-linejoin:miter;stroke-opacity:1" d="M 240.19,916.059 276.527,912.425 z" id="boundary" inkscape:connector-curvature="0" />
	<path style="fill:none;stroke:red;stroke-width:1px;stroke-linecap:butt;stroke-linejoin:miter;stroke-opacity:1" d="M 276.527,912.425 312.864,908.791 z" id="boundary" inkscape:connector-curvature="0" />
	<path style="fill:none;stroke:red;stroke-width:1px;stroke-linecap:butt;stroke-linejoin:miter;stroke-opacity:1" d="M 312.864,908.791 349.201,908.791 z" id="boundary" inkscape:connector-curvature="0" />
	<path style="fill:none;stroke:red;stroke-width:1px;stroke-linecap:butt;stroke-linejoin:miter;stroke-opacity:1" d="M 349.201,908.791 385.538,908.791 z" id="boundary" inkscape:connector-curvature="0" />
	<path style="fill:none;stroke:red;stroke-width:1px;stroke-linecap:butt;stroke-linejoin:miter;stroke-opacity:1" d="M 385.538,908.791 421.875,908.791 z" id="boundary" inkscape:connector-curvature="0" />
	<path style="fill:none;stroke:red;stroke-width:1px;stroke-linecap:butt;stroke-linejoin:miter;stroke-opacity:1" d="M 421.875,908.791 458.212,908.791 z" id="boundary" inkscape:connector-curvature="0" />
	<path style="fill:none;stroke:red;stroke-width:1px;stroke-linecap:butt;stroke-linejoin:miter;stroke-opacity:1" d="M 458.212,908.791 494.549,908.791 z" id="boundary" inkscape:connector-curvature="0" />
	<path style="fill:none;stroke:red;stroke-width:1px;stroke-linecap:butt;stroke-linejoin:miter;stroke-opacity:1" d="M 494.549,908.791 530.886,908.791 z" id="boundary" inkscape:connector-curvature="0" />
	<path style="fill:none;stroke:red;stroke-width:1px;stroke-linecap:butt;stroke-linejoin:miter;stroke-opacity:1" d="M 530.886,908.791 567.223,908.791 z" id="boundary" inkscape:connector-curvature="0" />
	<path style="fill:none;stroke:red;stroke-width:1px;stroke-linecap:butt;stroke-linejoin:miter;stroke-opacity:1" d="M 567.223,908.791 603.56,908.791 z" id="boundary" inkscape:connector-curvature="0" />
	<path style="fill:none;stroke:red;stroke-width:1px;stroke-linecap:butt;stroke-linejoin:miter;stroke-opacity:1" d="M 603.56,908.791 639.897,908.791 z" id="boundary" inkscape:connector-curvature="0" />
	<path style="fill:none;stroke:red;stroke-width:1px;stroke-linecap:butt;stroke-linejoin:miter;stroke-opacity:1" d="M 639.897,908.791 676.234,908.791 z" id="boundary" inkscape:connector-curvature="0" />
	<path style="fill:none;stroke:red;stroke-width:1px;stroke-linecap:butt;stroke-linejoin:miter;stroke-opacity:1" d="M 676.234,908.791 712.571,908.791 z" id="boundary" inkscape:connector-curvature="0" />
	<path style="fill:none;stroke:red;stroke-width:1px;stroke-linecap:butt;stroke-linejoin:miter;stroke-opacity:1" d="M 712.571,908.791 748.908,923.326 z" id="boundary" inkscape:connector-curvature="0" />
	<path style="fill:none;stroke:red;stroke-width:1px;stroke-linecap:butt;stroke-linejoin:miter;stroke-opacity:1" d="M 748.908,923.326 785.245,908.791 z" id="boundary" inkscape:connector-curvature="0" />
	<path style="fill:none;stroke:red;stroke-width:1px;stroke-linecap:butt;stroke-linejoin:miter;stroke-opacity:1" d="M 785.245,908.791 821.582,908.791 z" id="boundary" inkscape:connector-curvature="0" />
	<path style="fill:none;stroke:red;stroke-width:1px;stroke-linecap:butt;stroke-linejoin:miter;stroke-opacity:1" d="M 821.582,908.791 857.919,908.791 z" id="boundary" inkscape:connector-curvature="0" />
	<path style="fill:none;stroke:red;stroke-width:1px;stroke-linecap:butt;stroke-linejoin:miter;stroke-opacity:1" d="M 857.919,908.791 894.256,908.791 z" id="boundary" inkscape:connector-curvature="0" />
	<path style="fill:none;stroke:red;stroke-width:1px;stroke-linecap:butt;stroke-linejoin:miter;stroke-opacity:1" d="M 894.256,908.791 930.593,908.791 z" id="boundary" inkscape:connector-curvature="0" />
	<path style="fill:none;stroke:red;stroke-width:1px;stroke-linecap:butt;stroke-linejoin:miter;stroke-opacity:1" d="M 930.593,908.791 966.93,908.791 z" id="boundary" inkscape:connector-curvature="0" />
	<path style="fill:none;stroke:red;stroke-width:1px;stroke-linecap:butt;stroke-linejoin:miter;stroke-opacity:1" d="M 966.93,908.791 996,872.454 z" id="boundary" inkscape:connector-curvature="0" />
	<path style="fill:none;stroke:red;stroke-width:1px;stroke-linecap:butt;stroke-linejoin:miter;stroke-opacity:1" d="M 996,872.454 985.099,836.117 z" id="boundary" inkscape:connector-curvature="0" />
	<path style="fill:none;stroke:red;stroke-width:1px;stroke-linecap:butt;stroke-linejoin:miter;stroke-opacity:1" d="M 985.099,836.117 948.762,832.484 z" id="boundary" inkscape:connector-curvature="0" />
	<path style="fill:none;stroke:red;stroke-width:1px;stroke-linecap:butt;stroke-linejoin:miter;stroke-opacity:1" d="M 948.762,832.484 912.425,832.484 z" id="boundary" inkscape:connector-curvature="0" />
	<path style="fill:none;stroke:red;stroke-width:1px;stroke-linecap:butt;stroke-linejoin:miter;stroke-opacity:1" d="M 912.425,832.484 876.088,832.484 z" id="boundary" inkscape:connector-curvature="0" />
	<path style="fill:none;stroke:red;stroke-width:1px;stroke-linecap:butt;stroke-linejoin:miter;stroke-opacity:1" d="M 876.088,832.484 839.751,832.484 z" id="boundary" inkscape:connector-curvature="0" />
	<path style="fill:none;stroke:red;stroke-width:1px;stroke-linecap:butt;stroke-linejoin:miter;stroke-opacity:1" d="M 839.751,832.484 803.414,832.484 z" id="boundary" inkscape:connector-curvature="0" />
	<path style="fill:none;stroke:red;stroke-width:1px;stroke-linecap:butt;stroke-linejoin:miter;stroke-opacity:1" d="M 803.414,832.484 767.077,832.484 z" id="boundary" inkscape:connector-curvature="0" />
	<path style="fill:none;stroke:red;stroke-width:1px;stroke-linecap:butt;stroke-linejoin:miter;stroke-opacity:1" d="M 767.077,832.484 730.74,832.484 z" id="boundary" inkscape:connector-curvature="0" />
	<path style="fill:none;stroke:red;stroke-width:1px;stroke-linecap:butt;stroke-linejoin:miter;stroke-opacity:1" d="M 730.74,832.484 694.403,832.484 z" id="boundary" inkscape:connector-curvature="0" />
	<path style="fill:none;stroke:red;stroke-width:1px;stroke-linecap:butt;stroke-linejoin:miter;stroke-opacity:1" d="M 694.403,832.484 658.066,832.484 z" id="boundary" inkscape:connector-curvature="0" />
	<path style="fill:none;stroke:red;stroke-width:1px;stroke-linecap:butt;stroke-linejoin:miter;stroke-opacity:1" d="M 658.066,832.484 654.432,796.147 z" id="boundary" inkscape:connector-curvature="0" />
	<path style="fill:none;stroke:red;stroke-width:1px;stroke-linecap:butt;stroke-linejoin:miter;stroke-opacity:1" d="M 654.432,796.147 654.432,759.81 z" id="boundary" inkscape:connector-curvature="0" />
	<path style="fill:none;stroke:red;stroke-width:1px;stroke-linecap:butt;stroke-linejoin:miter;stroke-opacity:1" d="M 654.432,759.81 654.432,716.205 z" id="boundary" inkscape:connector-curvature="0" />
	<path style="fill:none;stroke:red;stroke-width:1px;stroke-linecap:butt;stroke-linejoin:miter;stroke-opacity:1" d="M 654.432,716.205 654.432,679.868 z" id="boundary" inkscape:connector-curvature="0" />
	<path style="fill:none;stroke:red;stroke-width:1px;stroke-linecap:butt;stroke-linejoin:miter;stroke-opacity:1" d="M 654.432,679.868 654.432,643.531 z" id="boundary" inkscape:connector-curvature="0" />
	<path style="fill:none;stroke:red;stroke-width:1px;stroke-linecap:butt;stroke-linejoin:miter;stroke-opacity:1" d="M 654.432,643.531 654.432,599.927 z" id="boundary" inkscape:connector-curvature="0" />
	<path style="fill:none;stroke:red;stroke-width:1px;stroke-linecap:butt;stroke-linejoin:miter;stroke-opacity:1" d="M 654.432,599.927 654.432,563.59 z" id="boundary" inkscape:connector-curvature="0" />
	<path style="fill:none;stroke:red;stroke-width:1px;stroke-linecap:butt;stroke-linejoin:miter;stroke-opacity:1" d="M 654.432,563.59 654.432,527.253 z" id="boundary" inkscape:connector-curvature="0" />
	<path style="fill:none;stroke:red;stroke-width:1px;stroke-linecap:butt;stroke-linejoin:miter;stroke-opacity:1" d="M 654.432,527.253 654.432,490.916 z" id="boundary" inkscape:connector-curvature="0" />
	<path style="fill:none;stroke:red;stroke-width:1px;stroke-linecap:butt;stroke-linejoin:miter;stroke-opacity:1" d="M 654.432,490.916 690.769,487.282 z" id="boundary" inkscape:connector-curvature="0" />
	<path style="fill:none;stroke:red;stroke-width:1px;stroke-linecap:butt;stroke-linejoin:miter;stroke-opacity:1" d="M 690.769,487.282 727.106,487.282 z" id="boundary" inkscape:connector-curvature="0" />
	<path style="fill:none;stroke:red;stroke-width:1px;stroke-linecap:butt;stroke-linejoin:miter;stroke-opacity:1" d="M 727.106,487.282 763.443,487.282 z" id="boundary" inkscape:connector-curvature="0" />
	<path style="fill:none;stroke:red;stroke-width:1px;stroke-linecap:butt;stroke-linejoin:miter;stroke-opacity:1" d="M 763.443,487.282 799.78,487.282 z" id="boundary" inkscape:connector-curvature="0" />
	<path style="fill:none;stroke:red;stroke-width:1px;stroke-linecap:butt;stroke-linejoin:miter;stroke-opacity:1" d="M 799.78,487.282 821.582,436.41 z" id="boundary" inkscape:connector-curvature="0" />
	<path style="fill:none;stroke:red;stroke-width:1px;stroke-linecap:butt;stroke-linejoin:miter;stroke-opacity:1" d="M 821.582,436.41 821.582,400.073 z" id="boundary" inkscape:connector-curvature="0" />
	<path style="fill:none;stroke:red;stroke-width:1px;stroke-linecap:butt;stroke-linejoin:miter;stroke-opacity:1" d="M 821.582,400.073 821.582,363.736 z" id="boundary" inkscape:connector-curvature="0" />
	<path style="fill:none;stroke:red;stroke-width:1px;stroke-linecap:butt;stroke-linejoin:miter;stroke-opacity:1" d="M 821.582,363.736 821.582,327.399 z" id="boundary" inkscape:connector-curvature="0" />
	<path style="fill:none;stroke:red;stroke-width:1px;stroke-linecap:butt;stroke-linejoin:miter;stroke-opacity:1" d="M 821.582,327.399 821.582,291.062 z" id="boundary" inkscape:connector-curvature="0" />
	<path style="fill:none;stroke:red;stroke-width:1px;stroke-linecap:butt;stroke-linejoin:miter;stroke-opacity:1" d="M 821.582,291.062 821.582,254.725 z" id="boundary" inkscape:connector-curvature="0" />
	<path style="fill:none;stroke:red;stroke-width:1px;stroke-linecap:butt;stroke-linejoin:miter;stroke-opacity:1" d="M 821.582,254.725 821.582,218.388 z" id="boundary" inkscape:connector-curvature="0" />
	<path style="fill:none;stroke:red;stroke-width:1px;stroke-linecap:butt;stroke-linejoin:miter;stroke-opacity:1" d="M 821.582,218.388 821.582,182.051 z" id="boundary" inkscape:connector-curvature="0" />
	<path style="fill:none;stroke:red;stroke-width:1px;stroke-linecap:butt;stroke-linejoin:miter;stroke-opacity:1" d="M 821.582,182.051 821.582,145.714 z" id="boundary" inkscape:connector-curvature="0" />
	<path style="fill:none;stroke:red;stroke-width:1px;stroke-linecap:butt;stroke-linejoin:miter;stroke-opacity:1" d="M 821.582,145.714 821.582,109.377 z" id="boundary" inkscape:connector-curvature="0" />
	<path style="fill:none;stroke:red;stroke-width:1px;stroke-linecap:butt;stroke-linejoin:miter;stroke-opacity:1" d="M 821.582,109.377 821.582,73.0403 z" id="boundary" inkscape:connector-curvature="0" />
	<path style="fill:none;stroke:red;stroke-width:1px;stroke-linecap:butt;stroke-linejoin:miter;stroke-opacity:1" d="M 821.582,73.0403 821.582,36.7033 z" id="boundary" inkscape:connector-curvature="0" />
	<path style="fill:none;stroke:red;stroke-width:1px;stroke-linecap:butt;stroke-linejoin:miter;stroke-opacity:1" d="M 821.582,36.7033 803.414,4 z" id="boundary" inkscape:connector-curvature="0" />
	<path style="fill:none;stroke:red;stroke-width:1px;stroke-linecap:butt;stroke-linejoin:miter;stroke-opacity:1" d="M 803.414,4 767.077,4 z" id="boundary" inkscape:connector-curvature="0" />
	<path style="fill:none;stroke:red;stroke-width:1px;stroke-linecap:butt;stroke-linejoin:miter;stroke-opacity:1" d="M 767.077,4 730.74,4 z" id="boundary" inkscape:connector-curvature="0" />
	<path style="fill:none;stroke:red;stroke-width:1px;stroke-linecap:butt;stroke-linejoin:miter;stroke-opacity:1" d="M 730.74,4 694.403,4 z" id="boundary" inkscape:connector-curvature="0" />
	<path style="fill:none;stroke:red;stroke-width:1px;stroke-linecap:butt;stroke-linejoin:miter;stroke-opacity:1" d="M 694.403,4 658.066,4 z" id="boundary" inkscape:connector-curvature="0" />
	<path style="fill:none;stroke:red;stroke-width:1px;stroke-linecap:butt;stroke-linejoin:miter;stroke-opacity:1" d="M 658.066,4 621.729,4 z" id="boundary" inkscape:connector-curvature="0" />
	<path style="fill:none;stroke:red;stroke-width:1px;stroke-linecap:butt;stroke-linejoin:miter;stroke-opacity:1" d="M 621.729,4 585.392,4 z" id="boundary" inkscape:connector-curvature="0" />
	<path style="fill:none;stroke:red;stroke-width:1px;stroke-linecap:butt;stroke-linejoin:miter;stroke-opacity:1" d="M 585.392,4 549.055,4 z" id="boundary" inkscape:connector-curvature="0" />
	<path style="fill:none;stroke:red;stroke-width:1px;stroke-linecap:butt;stroke-linejoin:miter;stroke-opacity:1" d="M 549.055,4 512.718,4 z" id="boundary" inkscape:connector-curvature="0" />
	<path style="fill:none;stroke:red;stroke-width:1px;stroke-linecap:butt;stroke-linejoin:miter;stroke-opacity:1" d="M 512.718,4 476.381,4 z" id="boundary" inkscape:connector-curvature="0" />
	<path style="fill:none;stroke:red;stroke-width:1px;stroke-linecap:butt;stroke-linejoin:miter;stroke-opacity:1" d="M 476.381,4 440.044,4 z" id="boundary" inkscape:connector-curvature="0" />
	<path style="fill:none;stroke:red;stroke-width:1px;stroke-linecap:butt;stroke-linejoin:miter;stroke-opacity:1" d="M 440.044,4 403.707,4 z" id="boundary" inkscape:connector-curvature="0" />
	<path style="fill:none;stroke:red;stroke-width:1px;stroke-linecap:butt;stroke-linejoin:miter;stroke-opacity:1" d="M 403.707,4 367.37,4 z" id="boundary" inkscape:connector-curvature="0" />
	<path style="fill:none;stroke:red;stroke-width:1px;stroke-linecap:butt;stroke-linejoin:miter;stroke-opacity:1" d="M 367.37,4 331.033,4 z" id="boundary" inkscape:connector-curvature="0" />
	<path style="fill:none;stroke:red;stroke-width:1px;stroke-linecap:butt;stroke-linejoin:miter;stroke-opacity:1" d="M 331.033,4 294.696,4 z" id="boundary" inkscape:connector-curvature="0" />
	<path style="fill:none;stroke:red;stroke-width:1px;stroke-linecap:butt;stroke-linejoin:miter;stroke-opacity:1" d="M 294.696,4 258.359,4 z" id="boundary" inkscape:connector-curvature="0" />
	<path style="fill:none;stroke:red;stroke-width:1px;stroke-linecap:butt;stroke-linejoin:miter;stroke-opacity:1" d="M 258.359,4 222.022,4 z" id="boundary" inkscape:connector-curvature="0" />
	<path style="fill:none;stroke:red;stroke-width:1px;stroke-linecap:butt;stroke-linejoin:miter;stroke-opacity:1" d="M 222.022,4 185.685,18.5348 z" id="boundary" inkscape:connector-curvature="0" />
	<path style="fill:none;stroke:red;stroke-width:1px;stroke-linecap:butt;stroke-linejoin:miter;stroke-opacity:1" d="M 185.685,18.5348 185.685,54.8718 z" id="boundary" inkscape:connector-curvature="0" />
	<path style="fill:none;stroke:red;stroke-width:1px;stroke-linecap:butt;stroke-linejoin:miter;stroke-opacity:1" d="M 185.685,54.8718 185.685,91.2088 z" id="boundary" inkscape:connector-curvature="0" />
	<path style="fill:none;stroke:red;stroke-width:1px;stroke-linecap:butt;stroke-linejoin:miter;stroke-opacity:1" d="M 185.685,91.2088 185.685,127.546 z" id="boundary" inkscape:connector-curvature="0" />
	<path style="fill:none;stroke:red;stroke-width:1px;stroke-linecap:butt;stroke-linejoin:miter;stroke-opacity:1" d="M 185.685,127.546 185.685,163.883 z" id="boundary" inkscape:connector-curvature="0" />
	<path style="fill:none;stroke:red;stroke-width:1px;stroke-linecap:butt;stroke-linejoin:miter;stroke-opacity:1" d="M 185.685,163.883 185.685,200.22 z" id="boundary" inkscape:connector-curvature="0" />
	<path style="fill:none;stroke:red;stroke-width:1px;stroke-linecap:butt;stroke-linejoin:miter;stroke-opacity:1" d="M 185.685,200.22 185.685,236.557 z" id="boundary" inkscape:connector-curvature="0" />
	<path style="fill:none;stroke:red;stroke-width:1px;stroke-linecap:butt;stroke-linejoin:miter;stroke-opacity:1" d="M 185.685,236.557 185.685,272.894 z" id="boundary" inkscape:connector-curvature="0" />
	<path style="fill:none;stroke:red;stroke-width:1px;stroke-linecap:butt;stroke-linejoin:miter;stroke-opacity:1" d="M 185.685,272.894 185.685,309.231 z" id="boundary" inkscape:connector-curvature="0" />
	<path style="fill:none;stroke:red;stroke-width:1px;stroke-linecap:butt;stroke-linejoin:miter;stroke-opacity:1" d="M 185.685,309.231 185.685,345.568 z" id="boundary" inkscape:connector-curvature="0" />
	<path style="fill:none;stroke:red;stroke-width:1px;stroke-linecap:butt;stroke-linejoin:miter;stroke-opacity:1" d="M 185.685,345.568 185.685,381.905 z" id="boundary" inkscape:connector-curvature="0" />
	<path style="fill:none;stroke:red;stroke-width:1px;stroke-linecap:butt;stroke-linejoin:miter;stroke-opacity:1" d="M 185.685,381.905 185.685,418.242 z" id="boundary" inkscape:connector-curvature="0" />
	<path style="fill:none;stroke:red;stroke-width:1px;stroke-linecap:butt;stroke-linejoin:miter;stroke-opacity:1" d="M 185.685,418.242 185.685,454.579 z" id="boundary" inkscape:connector-curvature="0" />
	<path style="fill:none;stroke:red;stroke-width:1px;stroke-linecap:butt;stroke-linejoin:miter;stroke-opacity:1" d="M 185.685,454.579 203.853,487.282 z" id="boundary" inkscape:connector-curvature="0" />
	<path style="fill:none;stroke:red;stroke-width:1px;stroke-linecap:butt;stroke-linejoin:miter;stroke-opacity:1" d="M 203.853,487.282 240.19,487.282 z" id="boundary" inkscape:connector-curvature="0" />
	<path style="fill:none;stroke:red;stroke-width:1px;stroke-linecap:butt;stroke-linejoin:miter;stroke-opacity:1" d="M 240.19,487.282 276.527,487.282 z" id="boundary" inkscape:connector-curvature="0" />
	<path style="fill:none;stroke:red;stroke-width:1px;stroke-linecap:butt;stroke-linejoin:miter;stroke-opacity:1" d="M 276.527,487.282 312.864,487.282 z" id="boundary" inkscape:connector-curvature="0" />
	<path style="fill:none;stroke:red;stroke-width:1px;stroke-linecap:butt;stroke-linejoin:miter;stroke-opacity:1" d="M 312.864,487.282 349.201,487.282 z" id="boundary" inkscape:connector-curvature="0" />
	<path style="fill:none;stroke:red;stroke-width:1px;stroke-linecap:butt;stroke-linejoin:miter;stroke-opacity:1" d="M 349.201,487.282 385.538,487.282 z" id="boundary" inkscape:connector-curvature="0" />
	<path style="fill:none;stroke:red;stroke-width:1px;stroke-linecap:butt;stroke-linejoin:miter;stroke-opacity:1" d="M 385.538,487.282 421.875,487.282 z" id="boundary" inkscape:connector-curvature="0" />
	<path style="fill:none;stroke:red;stroke-width:1px;stroke-linecap:butt;stroke-linejoin:miter;stroke-opacity:1" d="M 421.875,487.282 458.212,487.282 z" id="boundary" inkscape:connector-curvature="0" />
	<path style="fill:none;stroke:red;stroke-width:1px;stroke-linecap:butt;stroke-linejoin:miter;stroke-opacity:1" d="M 458.212,487.282 461.846,523.619 z" id="boundary" inkscape:connector-curvature="0" />
	<path style="fill:none;stroke:red;stroke-width:1px;stroke-linecap:butt;stroke-linejoin:miter;stroke-opacity:1" d="M 461.846,523.619 461.846,559.956 z" id="boundary" inkscape:connector-curvature="0" />
	<path style="fill:none;stroke:red;stroke-width:1px;stroke-linecap:butt;stroke-linejoin:miter;stroke-opacity:1" d="M 461.846,559.956 454.579,607.194 z" id="boundary" inkscape:connector-curvature="0" />
	<path style="fill:none;stroke:red;stroke-width:1px;stroke-linecap:butt;stroke-linejoin:miter;stroke-opacity:1" d="M 454.579,607.194 418.242,607.194 z" id="boundary" inkscape:connector-curvature="0" />
	<path style="fill:none;stroke:red;stroke-width:1px;stroke-linecap:butt;stroke-linejoin:miter;stroke-opacity:1" d="M 418.242,607.194 381.905,607.194 z" id="boundary" inkscape:connector-curvature="0" />
	<path style="fill:none;stroke:red;stroke-width:1px;stroke-linecap:butt;stroke-linejoin:miter;stroke-opacity:1" d="M 381.905,607.194 345.568,607.194 z" id="boundary" inkscape:connector-curvature="0" />
	<path style="fill:none;stroke:red;stroke-width:1px;stroke-linecap:butt;stroke-linejoin:miter;stroke-opacity:1" d="M 345.568,607.194 309.231,607.194 z" id="boundary" inkscape:connector-curvature="0" />
	<path style="fill:none;stroke:red;stroke-width:1px;stroke-linecap:butt;stroke-linejoin:miter;stroke-opacity:1" d="M 309.231,607.194 272.894,607.194 z" id="boundary" inkscape:connector-curvature="0" />
	<path style="fill:none;stroke:red;stroke-width:1px;stroke-linecap:butt;stroke-linejoin:miter;stroke-opacity:1" d="M 272.894,607.194 236.557,607.194 z" id="boundary" inkscape:connector-curvature="0" />
	<path style="fill:none;stroke:red;stroke-width:1px;stroke-linecap:butt;stroke-linejoin:miter;stroke-opacity:1" d="M 236.557,607.194 200.22,607.194 z" id="boundary" inkscape:connector-curvature="0" />
	<path style="fill:none;stroke:red;stroke-width:1px;stroke-linecap:butt;stroke-linejoin:miter;stroke-opacity:1" d="M 200.22,607.194 163.883,607.194 z" id="boundary" inkscape:connector-curvature="0" />
	<path style="fill:none;stroke:red;stroke-width:1px;stroke-linecap:butt;stroke-linejoin:miter;stroke-opacity:1" d="M 163.883,607.194 127.546,607.194 z" id="boundary" inkscape:connector-curvature="0" />
	<path style="fill:none;stroke:red;stroke-width:1px;stroke-linecap:butt;stroke-linejoin:miter;stroke-opacity:1" d="M 127.546,607.194 91.2088,607.194 z" id="boundary" inkscape:connector-curvature="0" />
	<path style="fill:none;stroke:red;stroke-width:1px;stroke-linecap:butt;stroke-linejoin:miter;stroke-opacity:1" d="M 91.2088,607.194 109.377,639.897 z" id="boundary" inkscape:connector-curvature="0" />
	<path style="fill:none;stroke:red;stroke-width:1px;stroke-linecap:butt;stroke-linejoin:miter;stroke-opacity:1" d="M 109.377,639.897 145.714,639.897 z" id="boundary" inkscape:connector-curvature="0" />
	<path style="fill:none;stroke:red;stroke-width:1px;stroke-linecap:butt;stroke-linejoin:miter;stroke-opacity:1" d="M 145.714,639.897 182.051,639.897 z" id="boundary" inkscape:connector-curvature="0" />
	<path style="fill:none;stroke:red;stroke-width:1px;stroke-linecap:butt;stroke-linejoin:miter;stroke-opacity:1" d="M 182.051,639.897 218.388,639.897 z" id="boundary" inkscape:connector-curvature="0" />
	<path style="fill:none;stroke:red;stroke-width:1px;stroke-linecap:butt;stroke-linejoin:miter;stroke-opacity:1" d="M 218.388,639.897 254.725,639.897 z" id="boundary" inkscape:connector-curvature="0" />
	<path style="fill:none;stroke:red;stroke-width:1px;stroke-linecap:butt;stroke-linejoin:miter;stroke-opacity:1" d="M 254.725,639.897 291.062,639.897 z" id="boundary" inkscape:connector-curvature="0" />
	<path style="fill:none;stroke:red;stroke-width:1px;stroke-linecap:butt;stroke-linejoin:miter;stroke-opacity:1" d="M 291.062,639.897 327.399,639.897 z" id="boundary" inkscape:connector-curvature="0" />
	<path style="fill:none;stroke:red;stroke-width:1px;stroke-linecap:butt;stroke-linejoin:miter;stroke-opacity:1" d="M 327.399,639.897 363.736,639.897 z" id="boundary" inkscape:connector-curvature="0" />
	<path style="fill:none;stroke:red;stroke-width:1px;stroke-linecap:butt;stroke-linejoin:miter;stroke-opacity:1" d="M 363.736,639.897 400.073,639.897 z" id="boundary" inkscape:connector-curvature="0" />
	<path style="fill:none;stroke:red;stroke-width:1px;stroke-linecap:butt;stroke-linejoin:miter;stroke-opacity:1" d="M 400.073,639.897 436.41,639.897 z" id="boundary" inkscape:connector-curvature="0" />
	<path style="fill:none;stroke:red;stroke-width:1px;stroke-linecap:butt;stroke-linejoin:miter;stroke-opacity:1" d="M 436.41,639.897 461.846,668.967 z" id="boundary" inkscape:connector-curvature="0" />
	<path style="fill:none;stroke:red;stroke-width:1px;stroke-linecap:butt;stroke-linejoin:miter;stroke-opacity:1" d="M 461.846,668.967 450.945,723.473 z" id="boundary" inkscape:connector-curvature="0" />
	<path style="fill:none;stroke:red;stroke-width:1px;stroke-linecap:butt;stroke-linejoin:miter;stroke-opacity:1" d="M 450.945,723.473 414.608,723.473 z" id="boundary" inkscape:connector-curvature="0" />
	<path style="fill:none;stroke:red;stroke-width:1px;stroke-linecap:butt;stroke-linejoin:miter;stroke-opacity:1" d="M 414.608,723.473 378.271,723.473 z" id="boundary" inkscape:connector-curvature="0" />
	<path style="fill:none;stroke:red;stroke-width:1px;stroke-linecap:butt;stroke-linejoin:miter;stroke-opacity:1" d="M 378.271,723.473 341.934,723.473 z" id="boundary" inkscape:connector-curvature="0" />
	<path style="fill:none;stroke:red;stroke-width:1px;stroke-linecap:butt;stroke-linejoin:miter;stroke-opacity:1" d="M 341.934,723.473 305.597,723.473 z" id="boundary" inkscape:connector-curvature="0" />
	<path style="fill:none;stroke:red;stroke-width:1px;stroke-linecap:butt;stroke-linejoin:miter;stroke-opacity:1" d="M 305.597,723.473 269.26,723.473 z" id="boundary" inkscape:connector-curvature="0" />
	<path style="fill:none;stroke:red;stroke-width:1px;stroke-linecap:butt;stroke-linejoin:miter;stroke-opacity:1" d="M 269.26,723.473 232.923,723.473 z" id="boundary" inkscape:connector-curvature="0" />
	<path style="fill:none;stroke:red;stroke-width:1px;stroke-linecap:butt;stroke-linejoin:miter;stroke-opacity:1" d="M 232.923,723.473 196.586,723.473 z" id="boundary" inkscape:connector-curvature="0" />
	<path style="fill:none;stroke:red;stroke-width:1px;stroke-linecap:butt;stroke-linejoin:miter;stroke-opacity:1" d="M 196.586,723.473 160.249,723.473 z" id="boundary" inkscape:connector-curvature="0" />
	<path style="fill:none;stroke:red;stroke-width:1px;stroke-linecap:butt;stroke-linejoin:miter;stroke-opacity:1" d="M 160.249,723.473 123.912,723.473 z" id="boundary" inkscape:connector-curvature="0" />
	<path style="fill:none;stroke:red;stroke-width:1px;stroke-linecap:butt;stroke-linejoin:miter;stroke-opacity:1" d="M 123.912,723.473 87.5751,723.473 z" id="boundary" inkscape:connector-curvature="0" />
	<path style="fill:none;stroke:red;stroke-width:1px;stroke-linecap:butt;stroke-linejoin:miter;stroke-opacity:1" d="M 87.5751,723.473 105.744,756.176 z" id="boundary" inkscape:connector-curvature="0" />
	<path style="fill:none;stroke:red;stroke-width:1px;stroke-linecap:butt;stroke-linejoin:miter;stroke-opacity:1" d="M 105.744,756.176 69.4066,756.176 z" id="boundary" inkscape:connector-curvature="0" />
	<path style="fill:none;stroke:red;stroke-width:1px;stroke-linecap:butt;stroke-linejoin:miter;stroke-opacity:1" d="M 69.4066,756.176 40.337,730.74 z" id="boundary" inkscape:connector-curvature="0" />
	<path style="fill:none;stroke:red;stroke-width:1px;stroke-linecap:butt;stroke-linejoin:miter;stroke-opacity:1" d="M 440.044,832.484 461.846,777.978 z" id="boundary" inkscape:connector-curvature="0" />
	<path style="fill:none;stroke:red;stroke-width:1px;stroke-linecap:butt;stroke-linejoin:miter;stroke-opacity:1" d="M 461.846,777.978 432.777,756.176 z" id="boundary" inkscape:connector-curvature="0" />
	<path style="fill:none;stroke:red;stroke-width:1px;stroke-linecap:butt;stroke-linejoin:miter;stroke-opacity:1" d="M 432.777,756.176 396.44,756.176 z" id="boundary" inkscape:connector-curvature="0" />
	<path style="fill:none;stroke:red;stroke-width:1px;stroke-linecap:butt;stroke-linejoin:miter;stroke-opacity:1" d="M 396.44,756.176 360.103,756.176 z" id="boundary" inkscape:connector-curvature="0" />
	<path style="fill:none;stroke:red;stroke-width:1px;stroke-linecap:butt;stroke-linejoin:miter;stroke-opacity:1" d="M 360.103,756.176 323.766,756.176 z" id="boundary" inkscape:connector-curvature="0" />
	<path style="fill:none;stroke:red;stroke-width:1px;stroke-linecap:butt;stroke-linejoin:miter;stroke-opacity:1" d="M 323.766,756.176 287.429,756.176 z" id="boundary" inkscape:connector-curvature="0" />
	<path style="fill:none;stroke:red;stroke-width:1px;stroke-linecap:butt;stroke-linejoin:miter;stroke-opacity:1" d="M 287.429,756.176 251.092,756.176 z" id="boundary" inkscape:connector-curvature="0" />
	<path style="fill:none;stroke:red;stroke-width:1px;stroke-linecap:butt;stroke-linejoin:miter;stroke-opacity:1" d="M 251.092,756.176 214.755,756.176 z" id="boundary" inkscape:connector-curvature="0" />
	<path style="fill:none;stroke:red;stroke-width:1px;stroke-linecap:butt;stroke-linejoin:miter;stroke-opacity:1" d="M 214.755,756.176 178.418,756.176 z" id="boundary" inkscape:connector-curvature="0" />
	<path style="fill:none;stroke:red;stroke-width:1px;stroke-linecap:butt;stroke-linejoin:miter;stroke-opacity:1" d="M 178.418,756.176 142.081,756.176 z" id="boundary" inkscape:connector-curvature="0" />
	<path style="fill:none;stroke:red;stroke-width:1px;stroke-linecap:butt;stroke-linejoin:miter;stroke-opacity:1" d="M 40.337,730.74 73.0403,639.897 z" id="boundary" inkscape:connector-curvature="0" />
	<path style="fill:none;stroke:red;stroke-width:1px;stroke-linecap:butt;stroke-linejoin:miter;stroke-opacity:1" d="M 73.0403,639.897 40.337,621.729 z" id="boundary" inkscape:connector-curvature="0" />
	<path style="fill:none;stroke:red;stroke-width:1px;stroke-linecap:butt;stroke-linejoin:miter;stroke-opacity:1" d="M 690.769,723.473 727.106,723.473 z" id="boundary" inkscape:connector-curvature="0" />
	<path style="fill:none;stroke:red;stroke-width:1px;stroke-linecap:butt;stroke-linejoin:miter;stroke-opacity:1" d="M 727.106,723.473 763.443,723.473 z" id="boundary" inkscape:connector-curvature="0" />
	<path style="fill:none;stroke:red;stroke-width:1px;stroke-linecap:butt;stroke-linejoin:miter;stroke-opacity:1" d="M 763.443,723.473 799.78,723.473 z" id="boundary" inkscape:connector-curvature="0" />
	<path style="fill:none;stroke:red;stroke-width:1px;stroke-linecap:butt;stroke-linejoin:miter;stroke-opacity:1" d="M 799.78,723.473 836.117,723.473 z" id="boundary" inkscape:connector-curvature="0" />
	<path style="fill:none;stroke:red;stroke-width:1px;stroke-linecap:butt;stroke-linejoin:miter;stroke-opacity:1" d="M 836.117,723.473 872.454,723.473 z" id="boundary" inkscape:connector-curvature="0" />
	<path style="fill:none;stroke:red;stroke-width:1px;stroke-linecap:butt;stroke-linejoin:miter;stroke-opacity:1" d="M 872.454,723.473 854.286,756.176 z" id="boundary" inkscape:connector-curvature="0" />
	<path style="fill:none;stroke:red;stroke-width:1px;stroke-linecap:butt;stroke-linejoin:miter;stroke-opacity:1" d="M 854.286,756.176 817.949,756.176 z" id="boundary" inkscape:connector-curvature="0" />
	<path style="fill:none;stroke:red;stroke-width:1px;stroke-linecap:butt;stroke-linejoin:miter;stroke-opacity:1" d="M 817.949,756.176 781.612,756.176 z" id="boundary" inkscape:connector-curvature="0" />
	<path style="fill:none;stroke:red;stroke-width:1px;stroke-linecap:butt;stroke-linejoin:miter;stroke-opacity:1" d="M 781.612,756.176 745.275,756.176 z" id="boundary" inkscape:connector-curvature="0" />
	<path style="fill:none;stroke:red;stroke-width:1px;stroke-linecap:butt;stroke-linejoin:miter;stroke-opacity:1" d="M 745.275,756.176 708.938,756.176 z" id="boundary" inkscape:connector-curvature="0" />
	<path style="fill:none;stroke:red;stroke-width:1px;stroke-linecap:butt;stroke-linejoin:miter;stroke-opacity:1" d="M 690.769,723.473 708.938,756.176 z" id="boundary" inkscape:connector-curvature="0" />
	<path style="fill:none;stroke:red;stroke-width:1px;stroke-linecap:butt;stroke-linejoin:miter;stroke-opacity:1" d="M 727.106,607.194 690.769,607.194 z" id="boundary" inkscape:connector-curvature="0" />
	<path style="fill:none;stroke:red;stroke-width:1px;stroke-linecap:butt;stroke-linejoin:miter;stroke-opacity:1" d="M 727.106,607.194 763.443,607.194 z" id="boundary" inkscape:connector-curvature="0" />
	<path style="fill:none;stroke:red;stroke-width:1px;stroke-linecap:butt;stroke-linejoin:miter;stroke-opacity:1" d="M 763.443,607.194 799.78,607.194 z" id="boundary" inkscape:connector-curvature="0" />
	<path style="fill:none;stroke:red;stroke-width:1px;stroke-linecap:butt;stroke-linejoin:miter;stroke-opacity:1" d="M 799.78,607.194 836.117,607.194 z" id="boundary" inkscape:connector-curvature="0" />
	<path style="fill:none;stroke:red;stroke-width:1px;stroke-linecap:butt;stroke-linejoin:miter;stroke-opacity:1" d="M 690.769,607.194 708.938,639.897 z" id="boundary" inkscape:connector-curvature="0" />
	<path style="fill:none;stroke:red;stroke-width:1px;stroke-linecap:butt;stroke-linejoin:miter;stroke-opacity:1" d="M 708.938,639.897 745.275,639.897 z" id="boundary" inkscape:connector-curvature="0" />
	<path style="fill:none;stroke:red;stroke-width:1px;stroke-linecap:butt;stroke-linejoin:miter;stroke-opacity:1" d="M 745.275,639.897 781.612,639.897 z" id="boundary" inkscape:connector-curvature="0" />
	<path style="fill:none;stroke:red;stroke-width:1px;stroke-linecap:butt;stroke-linejoin:miter;stroke-opacity:1" d="M 781.612,639.897 817.949,639.897 z" id="boundary" inkscape:connector-curvature="0" />
	<path style="fill:none;stroke:red;stroke-width:1px;stroke-linecap:butt;stroke-linejoin:miter;stroke-opacity:1" d="M 817.949,639.897 854.286,639.897 z" id="boundary" inkscape:connector-curvature="0" />
	<path style="fill:none;stroke:red;stroke-width:1px;stroke-linecap:butt;stroke-linejoin:miter;stroke-opacity:1" d="M 836.117,607.194 854.286,639.897 z" id="boundary" inkscape:connector-curvature="0" />
	<circle cx="4" cy="839.751" r="4" fill="#0" id="circle0"/>
	<circle cx="4" cy="876.088" r="4" fill="#0" id="circle1"/>
	<circle cx="22.1685" cy="908.791" r="4" fill="#0" id="circle2"/>
	<circle cx="40.337" cy="621.729" r="4" fill="#0" id="circle3"/>
	<circle cx="40.337" cy="730.74" r="4" fill="#0" id="circle4"/>
	<circle cx="40.337" cy="832.484" r="4" fill="#0" id="circle5"/>
	<circle cx="58.5055" cy="923.326" r="4" fill="#0" id="circle6"/>
	<circle cx="69.4066" cy="756.176" r="4" fill="#0" id="circle7"/>
	<circle cx="73.0403" cy="639.897" r="4" fill="#0" id="circle8"/>
	<circle cx="76.674" cy="832.484" r="4" fill="#0" id="circle9"/>
	<circle cx="87.5751" cy="723.473" r="4" fill="#0" id="circle10"/>
	<circle cx="91.2088" cy="607.194" r="4" fill="#0" id="circle11"/>
	<circle cx="94.8425" cy="908.791" r="4" fill="#0" id="circle12"/>
	<circle cx="105.744" cy="756.176" r="4" fill="#0" id="circle13"/>
	<circle cx="109.377" cy="639.897" r="4" fill="#0" id="circle14"/>
	<circle cx="113.011" cy="832.484" r="4" fill="#0" id="circle15"/>
	<circle cx="123.912" cy="723.473" r="4" fill="#0" id="circle16"/>
	<circle cx="127.546" cy="607.194" r="4" fill="#0" id="circle17"/>
	<circle cx="131.179" cy="908.791" r="4" fill="#0" id="circle18"/>
	<circle cx="142.081" cy="756.176" r="4" fill="#0" id="circle19"/>
	<circle cx="145.714" cy="639.897" r="4" fill="#0" id="circle20"/>
	<circle cx="149.348" cy="832.484" r="4" fill="#0" id="circle21"/>
	<circle cx="160.249" cy="723.473" r="4" fill="#0" id="circle22"/>
	<circle cx="163.883" cy="607.194" r="4" fill="#0" id="circle23"/>
	<circle cx="167.516" cy="908.791" r="4" fill="#0" id="circle24"/>
	<circle cx="178.418" cy="756.176" r="4" fill="#0" id="circle25"/>
	<circle cx="182.051" cy="639.897" r="4" fill="#0" id="circle26"/>
	<circle cx="185.685" cy="18.5348" r="4" fill="#0" id="circle27"/>
	<circle cx="185.685" cy="54.8718" r="4" fill="#0" id="circle28"/>
	<circle cx="185.685" cy="91.2088" r="4" fill="#0" id="circle29"/>
	<circle cx="185.685" cy="127.546" r="4" fill="#0" id="circle30"/>
	<circle cx="185.685" cy="163.883" r="4" fill="#0" id="circle31"/>
	<circle cx="185.685" cy="200.22" r="4" fill="#0" id="circle32"/>
	<circle cx="185.685" cy="236.557" r="4" fill="#0" id="circle33"/>
	<circle cx="185.685" cy="272.894" r="4" fill="#0" id="circle34"/>
	<circle cx="185.685" cy="309.231" r="4" fill="#0" id="circle35"/>
	<circle cx="185.685" cy="345.568" r="4" fill="#0" id="circle36"/>
	<circle cx="185.685" cy="381.905" r="4" fill="#0" id="circle37"/>
	<circle cx="185.685" cy="418.242" r="4" fill="#0" id="circle38"/>
	<circle cx="185.685" cy="454.579" r="4" fill="#0" id="circle39"/>
	<circle cx="185.685" cy="832.484" r="4" fill="#0" id="circle40"/>
	<circle cx="196.586" cy="723.473" r="4" fill="#0" id="circle41"/>
	<circle cx="200.22" cy="607.194" r="4" fill="#0" id="circle42"/>
	<circle cx="203.853" cy="487.282" r="4" fill="#0" id="circle43"/>
	<circle cx="203.853" cy="908.791" r="4" fill="#0" id="circle44"/>
	<circle cx="214.755" cy="756.176" r="4" fill="#0" id="circle45"/>
	<circle cx="218.388" cy="639.897" r="4" fill="#0" id="circle46"/>
	<circle cx="222.022" cy="4" r="4" fill="#0" id="circle47"/>
	<circle cx="222.022" cy="832.484" r="4" fill="#0" id="circle48"/>
	<circle cx="232.923" cy="723.473" r="4" fill="#0" id="circle49"/>
	<circle cx="236.557" cy="607.194" r="4" fill="#0" id="circle50"/>
	<circle cx="240.19" cy="487.282" r="4" fill="#0" id="circle51"/>
	<circle cx="240.19" cy="916.059" r="4" fill="#0" id="circle52"/>
	<circle cx="251.092" cy="756.176" r="4" fill="#0" id="circle53"/>
	<circle cx="254.725" cy="639.897" r="4" fill="#0" id="circle54"/>
	<circle cx="258.359" cy="4" r="4" fill="#0" id="circle55"/>
	<circle cx="258.359" cy="832.484" r="4" fill="#0" id="circle56"/>
	<circle cx="269.26" cy="723.473" r="4" fill="#0" id="circle57"/>
	<circle cx="272.894" cy="607.194" r="4" fill="#0" id="circle58"/>
	<circle cx="276.527" cy="487.282" r="4" fill="#0" id="circle59"/>
	<circle cx="276.527" cy="912.425" r="4" fill="#0" id="circle60"/>
	<circle cx="287.429" cy="756.176" r="4" fill="#0" id="circle61"/>
	<circle cx="291.062" cy="639.897" r="4" fill="#0" id="circle62"/>
	<circle cx="294.696" cy="4" r="4" fill="#0" id="circle63"/>
	<circle cx="294.696" cy="832.484" r="4" fill="#0" id="circle64"/>
	<circle cx="305.597" cy="723.473" r="4" fill="#0" id="circle65"/>
	<circle cx="309.231" cy="607.194" r="4" fill="#0" id="circle66"/>
	<circle cx="312.864" cy="487.282" r="4" fill="#0" id="circle67"/>
	<circle cx="312.864" cy="908.791" r="4" fill="#0" id="circle68"/>
	<circle cx="323.766" cy="756.176" r="4" fill="#0" id="circle69"/>
	<circle cx="327.399" cy="639.897" r="4" fill="#0" id="circle70"/>
	<circle cx="331.033" cy="4" r="4" fill="#0" id="circle71"/>
	<circle cx="331.033" cy="832.484" r="4" fill="#0" id="circle72"/>
	<circle cx="341.934" cy="723.473" r="4" fill="#0" id="circle73"/>
	<circle cx="345.568" cy="607.194" r="4" fill="#0" id="circle74"/>
	<circle cx="349.201" cy="487.282" r="4" fill="#0" id="circle75"/>
	<circle cx="349.201" cy="908.791" r="4" fill="#0" id="circle76"/>
	<circle cx="360.103" cy="756.176" r="4" fill="#0" id="circle77"/>
	<circle cx="363.736" cy="639.897" r="4" fill="#0" id="circle78"/>
	<circle cx="367.37" cy="4" r="4" fill="#0" id="circle79"/>
	<circle cx="367.37" cy="832.484" r="4" fill="#0" id="circle80"/>
	<circle cx="378.271" cy="723.473" r="4" fill="#0" id="circle81"/>
	<circle cx="381.905" cy="607.194" r="4" fill="#0" id="circle82"/>
	<circle cx="385.538" cy="487.282" r="4" fill="#0" id="circle83"/>
	<circle cx="385.538" cy="908.791" r="4" fill="#0" id="circle84"/>
	<circle cx="396.44" cy="756.176" r="4" fill="#0" id="circle85"/>
	<circle cx="400.073" cy="639.897" r="4" fill="#0" id="circle86"/>
	<circle cx="403.707" cy="4" r="4" fill="#0" id="circle87"/>
	<circle cx="403.707" cy="832.484" r="4" fill="#0" id="circle88"/>
	<circle cx="414.608" cy="723.473" r="4" fill="#0" id="circle89"/>
	<circle cx="418.242" cy="607.194" r="4" fill="#0" id="circle90"/>
	<circle cx="421.875" cy="487.282" r="4" fill="#0" id="circle91"/>
	<circle cx="421.875" cy="908.791" r="4" fill="#0" id="circle92"/>
	<circle cx="432.777" cy="756.176" r="4" fill="#0" id="circle93"/>
	<circle cx="436.41" cy="639.897" r="4" fill="#0" id="circle94"/>
	<circle cx="440.044" cy="4" r="4" fill="#0" id="circle95"/>
	<circle cx="440.044" cy="832.484" r="4" fill="#0" id="circle96"/>
	<circle cx="450.945" cy="723.473" r="4" fill="#0" id="circle97"/>
	<circle cx="454.579" cy="607.194" r="4" fill="#0" id="circle98"/>
	<circle cx="458.212" cy="487.282" r="4" fill="#0" id="circle99"/>
	<circle cx="458.212" cy="908.791" r="4" fill="#0" id="circle100"/>
	<circle cx="461.846" cy="523.619" r="4" fill="#0" id="circle101"/>
	<circle cx="461.846" cy="559.956" r="4" fill="#0" id="circle102"/>
	<circle cx="461.846" cy="668.967" r="4" fill="#0" id="circle103"/>
	<circle cx="461.846" cy="777.978" r="4" fill="#0" id="circle104"/>
	<circle cx="476.381" cy="4" r="4" fill="#0" id="circle105"/>
	<circle cx="494.549" cy="908.791" r="4" fill="#0" id="circle106"/>
	<circle cx="512.718" cy="4" r="4" fill="#0" id="circle107"/>
	<circle cx="530.886" cy="908.791" r="4" fill="#0" id="circle108"/>
	<circle cx="549.055" cy="4" r="4" fill="#0" id="circle109"/>
	<circle cx="567.223" cy="908.791" r="4" fill="#0" id="circle110"/>
	<circle cx="585.392" cy="4" r="4" fill="#0" id="circle111"/>
	<circle cx="603.56" cy="908.791" r="4" fill="#0" id="circle112"/>
	<circle cx="621.729" cy="4" r="4" fill="#0" id="circle113"/>
	<circle cx="639.897" cy="908.791" r="4" fill="#0" id="circle114"/>
	<circle cx="654.432" cy="490.916" r="4" fill="#0" id="circle115"/>
	<circle cx="654.432" cy="527.253" r="4" fill="#0" id="circle116"/>
	<circle cx="654.432" cy="563.59" r="4" fill="#0" id="circle117"/>
	<circle cx="654.432" cy="599.927" r="4" fill="#0" id="circle118"/>
	<circle cx="654.432" cy="643.531" r="4" fill="#0" id="circle119"/>
	<circle cx="654.432" cy="679.868" r="4" fill="#0" id="circle120"/>
	<circle cx="654.432" cy="716.205" r="4" fill="#0" id="circle121"/>
	<circle cx="654.432" cy="759.81" r="4" fill="#0" id="circle122"/>
	<circle cx="654.432" cy="796.147" r="4" fill="#0" id="circle123"/>
	<circle cx="658.066" cy="4" r="4" fill="#0" id="circle124"/>
	<circle cx="658.066" cy="832.484" r="4" fill="#0" id="circle125"/>
	<circle cx="676.234" cy="908.791" r="4" fill="#0" id="circle126"/>
	<circle cx="690.769" cy="487.282" r="4" fill="#0" id="circle127"/>
	<circle cx="690.769" cy="607.194" r="4" fill="#0" id="circle128"/>
	<circle cx="690.769" cy="723.473" r="4" fill="#0" id="circle129"/>
	<circle cx="694.403" cy="4" r="4" fill="#0" id="circle130"/>
	<circle cx="694.403" cy="832.484" r="4" fill="#0" id="circle131"/>
	<circle cx="708.938" cy="639.897" r="4" fill="#0" id="circle132"/>
	<circle cx="708.938" cy="756.176" r="4" fill="#0" id="circle133"/>
	<circle cx="712.571" cy="908.791" r="4" fill="#0" id="circle134"/>
	<circle cx="727.106" cy="487.282" r="4" fill="#0" id="circle135"/>
	<circle cx="727.106" cy="607.194" r="4" fill="#0" id="circle136"/>
	<circle cx="727.106" cy="723.473" r="4" fill="#0" id="circle137"/>
	<circle cx="730.74" cy="4" r="4" fill="#0" id="circle138"/>
	<circle cx="730.74" cy="832.484" r="4" fill="#0" id="circle139"/>
	<circle cx="745.275" cy="639.897" r="4" fill="#0" id="circle140"/>
	<circle cx="745.275" cy="756.176" r="4" fill="#0" id="circle141"/>
	<circle cx="748.908" cy="923.326" r="4" fill="#0" id="circle142"/>
	<circle cx="763.443" cy="487.282" r="4" fill="#0" id="circle143"/>
	<circle cx="763.443" cy="607.194" r="4" fill="#0" id="circle144"/>
	<circle cx="763.443" cy="723.473" r="4" fill="#0" id="circle145"/>
	<circle cx="767.077" cy="4" r="4" fill="#0" id="circle146"/>
	<circle cx="767.077" cy="832.484" r="4" fill="#0" id="circle147"/>
	<circle cx="781.612" cy="639.897" r="4" fill="#0" id="circle148"/>
	<circle cx="781.612" cy="756.176" r="4" fill="#0" id="circle149"/>
	<circle cx="785.245" cy="908.791" r="4" fill="#0" id="circle150"/>
	<circle cx="799.78" cy="487.282" r="4" fill="#0" id="circle151"/>
	<circle cx="799.78" cy="607.194" r="4" fill="#0" id="circle152"/>
	<circle cx="799.78" cy="723.473" r="4" fill="#0" id="circle153"/>
	<circle cx="803.414" cy="4" r="4" fill="#0" id="circle154"/>
	<circle cx="803.414" cy="832.484" r="4" fill="#0" id="circle155"/>
	<circle cx="817.949" cy="639.897" r="4" fill="#0" id="circle156"/>
	<circle cx="817.949" cy="756.176" r="4" fill="#0" id="circle157"/>
	<circle cx="821.582" cy="36.7033" r="4" fill="#0" id="circle158"/>
	<circle cx="821.582" cy="73.0403" r="4" fill="#0" id="circle159"/>
	<circle cx="821.582" cy="109.377" r="4" fill="#0" id="circle160"/>
	<circle cx="821.582" cy="145.714" r="4" fill="#0" id="circle161"/>
	<circle cx="821.582" cy="182.051" r="4" fill="#0" id="circle162"/>
	<circle cx="821.582" cy="218.388" r="4" fill="#0" id="circle163"/>
	<circle cx="821.582" cy="254.725" r="4" fill="#0" id="circle164"/>
	<circle cx="821.582" cy="291.062" r="4" fill="#0" id="circle165"/>
	<circle cx="821.582" cy="327.399" r="4" fill="#0" id="circle166"/>
	<circle cx="821.582" cy="363.736" r="4" fill="#0" id="circle167"/>
	<circle cx="821.582" cy="400.073" r="4" fill="#0" id="circle168"/>
	<circle cx="821.582" cy="436.41" r="4" fill="#0" id="circle169"/>
	<circle cx="821.582" cy="908.791" r="4" fill="#0" id="circle170"/>
	<circle cx="836.117" cy="607.194" r="4" fill="#0" id="circle171"/>
	<circle cx="836.117" cy="723.473" r="4" fill="#0" id="circle172"/>
	<circle cx="839.751" cy="832.484" r="4" fill="#0" id="circle173"/>
	<circle cx="854.286" cy="639.897" r="4" fill="#0" id="circle174"/>
	<circle cx="854.286" cy="756.176" r="4" fill="#0" id="circle175"/>
	<circle cx="857.919" cy="908.791" r="4" fill="#0" id="circle176"/>
	<circle cx="872.454" cy="723.473" r="4" fill="#0" id="circle177"/>
	<circle cx="876.088" cy="832.484" r="4" fill="#0" id="circle178"/>
	<circle cx="894.256" cy="908.791" r="4" fill="#0" id="circle179"/>
	<circle cx="912.425" cy="832.484" r="4" fill="#0" id="circle180"/>
	<circle cx="930.593" cy="908.791" r="4" fill="#0" id="circle181"/>
	<circle cx="948.762" cy="832.484" r="4" fill="#0" id="circle182"/>
	<circle cx="966.93" cy="908.791" r="4" fill="#0" id="circle183"/>
	<circle cx="985.099" cy="836.117" r="4" fill="#0" id="circle184"/>
	<circle cx="996" cy="872.454" r="4" fill="#0" id="circle185"/>
	</g>
</svg>