<?xml version="1.0" encoding="UTF-8" standalone="no"?>
<!-- Created with CurveBenchmark -->
<svg
	xmlns:dc="http://purl.org/dc/elements/1.1/"
	xmlns:cc="http://creativecommons.org/ns#"
	xmlns:rdf="http://www.w3.org/1999/02/22-rdf-syntax-ns#"
	xmlns:svg="http://www.w3.org/2000/svg"
	xmlns="http://www.w3.org/2000/svg"
	xmlns:sodipodi="http://sodipodi.sourceforge.net/DTD/sodipodi-0.dtd"
	xmlns:inkscape="http://www.inkscape.org/namespaces/inkscape"
	width="1000"
	height="1000"
	id="svg2"
	version="1.1"
	sodipodi:docname="manifold/crawl-guitar255.png.txt">
<defs
	id="defs4" />
<metadata
	id="metadata7">
	<rdf:RDF>
		<cc:Work
			rdf:about="">
			<dc:format>image/svg+xml</dc:format>
			<dc:type
				rdf:resource="http://purl.org/dc/dcmitype/StillImage" />
			<dc:title></dc:title>
		</cc:Work>
	</rdf:RDF>
</metadata>
<g
	inkscape:label="Layer 1"
	inkscape:groupmode="layer"
	id="layer1">
	<path style="fill:none;stroke:red;stroke-width:1px;stroke-linecap:butt;stroke-linejoin:miter;stroke-opacity:1" d="M 11.0106,585.88 11.0106,550.827 z" id="boundary" inkscape:connector-curvature="0" />
	<path style="fill:none;stroke:red;stroke-width:1px;stroke-linecap:butt;stroke-linejoin:miter;stroke-opacity:1" d="M 11.0106,585.88 14.5159,620.933 z" id="boundary" inkscape:connector-curvature="0" />
	<path style="fill:none;stroke:red;stroke-width:1px;stroke-linecap:butt;stroke-linejoin:miter;stroke-opacity:1" d="M 14.5159,620.933 18.0212,655.986 z" id="boundary" inkscape:connector-curvature="0" />
	<path style="fill:none;stroke:red;stroke-width:1px;stroke-linecap:butt;stroke-linejoin:miter;stroke-opacity:1" d="M 11.0106,550.827 32.0424,494.742 z" id="boundary" inkscape:connector-curvature="0" />
	<path style="fill:none;stroke:red;stroke-width:1px;stroke-linecap:butt;stroke-linejoin:miter;stroke-opacity:1" d="M 32.0424,494.742 32.0424,459.689 z" id="boundary" inkscape:connector-curvature="0" />
	<path style="fill:none;stroke:red;stroke-width:1px;stroke-linecap:butt;stroke-linejoin:miter;stroke-opacity:1" d="M 32.0424,459.689 32.0424,424.636 z" id="boundary" inkscape:connector-curvature="0" />
	<path style="fill:none;stroke:red;stroke-width:1px;stroke-linecap:butt;stroke-linejoin:miter;stroke-opacity:1" d="M 32.0424,424.636 70.6007,428.141 z" id="boundary" inkscape:connector-curvature="0" />
	<path style="fill:none;stroke:red;stroke-width:1px;stroke-linecap:butt;stroke-linejoin:miter;stroke-opacity:1" d="M 70.6007,428.141 70.6007,463.194 z" id="boundary" inkscape:connector-curvature="0" />
	<path style="fill:none;stroke:red;stroke-width:1px;stroke-linecap:butt;stroke-linejoin:miter;stroke-opacity:1" d="M 70.6007,463.194 105.654,473.71 z" id="boundary" inkscape:connector-curvature="0" />
	<path style="fill:none;stroke:red;stroke-width:1px;stroke-linecap:butt;stroke-linejoin:miter;stroke-opacity:1" d="M 105.654,473.71 140.707,487.731 z" id="boundary" inkscape:connector-curvature="0" />
	<path style="fill:none;stroke:red;stroke-width:1px;stroke-linecap:butt;stroke-linejoin:miter;stroke-opacity:1" d="M 140.707,487.731 168.749,508.763 z" id="boundary" inkscape:connector-curvature="0" />
	<path style="fill:none;stroke:red;stroke-width:1px;stroke-linecap:butt;stroke-linejoin:miter;stroke-opacity:1" d="M 168.749,508.763 182.77,543.816 z" id="boundary" inkscape:connector-curvature="0" />
	<path style="fill:none;stroke:red;stroke-width:1px;stroke-linecap:butt;stroke-linejoin:miter;stroke-opacity:1" d="M 182.77,543.816 182.77,578.869 z" id="boundary" inkscape:connector-curvature="0" />
	<path style="fill:none;stroke:red;stroke-width:1px;stroke-linecap:butt;stroke-linejoin:miter;stroke-opacity:1" d="M 182.77,578.869 182.77,613.922 z" id="boundary" inkscape:connector-curvature="0" />
	<path style="fill:none;stroke:red;stroke-width:1px;stroke-linecap:butt;stroke-linejoin:miter;stroke-opacity:1" d="M 182.77,613.922 179.265,659.491 z" id="boundary" inkscape:connector-curvature="0" />
	<path style="fill:none;stroke:red;stroke-width:1px;stroke-linecap:butt;stroke-linejoin:miter;stroke-opacity:1" d="M 179.265,659.491 182.77,694.544 z" id="boundary" inkscape:connector-curvature="0" />
	<path style="fill:none;stroke:red;stroke-width:1px;stroke-linecap:butt;stroke-linejoin:miter;stroke-opacity:1" d="M 182.77,694.544 182.77,729.597 z" id="boundary" inkscape:connector-curvature="0" />
	<path style="fill:none;stroke:red;stroke-width:1px;stroke-linecap:butt;stroke-linejoin:miter;stroke-opacity:1" d="M 182.77,729.597 189.781,764.65 z" id="boundary" inkscape:connector-curvature="0" />
	<path style="fill:none;stroke:red;stroke-width:1px;stroke-linecap:butt;stroke-linejoin:miter;stroke-opacity:1" d="M 189.781,764.65 196.792,799.703 z" id="boundary" inkscape:connector-curvature="0" />
	<path style="fill:none;stroke:red;stroke-width:1px;stroke-linecap:butt;stroke-linejoin:miter;stroke-opacity:1" d="M 196.792,799.703 196.792,834.756 z" id="boundary" inkscape:connector-curvature="0" />
	<path style="fill:none;stroke:red;stroke-width:1px;stroke-linecap:butt;stroke-linejoin:miter;stroke-opacity:1" d="M 196.792,834.756 196.792,869.809 z" id="boundary" inkscape:connector-curvature="0" />
	<path style="fill:none;stroke:red;stroke-width:1px;stroke-linecap:butt;stroke-linejoin:miter;stroke-opacity:1" d="M 196.792,869.809 189.781,908.367 z" id="boundary" inkscape:connector-curvature="0" />
	<path style="fill:none;stroke:red;stroke-width:1px;stroke-linecap:butt;stroke-linejoin:miter;stroke-opacity:1" d="M 189.781,908.367 179.265,953.936 z" id="boundary" inkscape:connector-curvature="0" />
	<path style="fill:none;stroke:red;stroke-width:1px;stroke-linecap:butt;stroke-linejoin:miter;stroke-opacity:1" d="M 179.265,953.936 161.739,985.484 z" id="boundary" inkscape:connector-curvature="0" />
	<path style="fill:none;stroke:red;stroke-width:1px;stroke-linecap:butt;stroke-linejoin:miter;stroke-opacity:1" d="M 161.739,985.484 126.686,988.989 z" id="boundary" inkscape:connector-curvature="0" />
	<path style="fill:none;stroke:red;stroke-width:1px;stroke-linecap:butt;stroke-linejoin:miter;stroke-opacity:1" d="M 126.686,988.989 91.6325,996 z" id="boundary" inkscape:connector-curvature="0" />
	<path style="fill:none;stroke:red;stroke-width:1px;stroke-linecap:butt;stroke-linejoin:miter;stroke-opacity:1" d="M 91.6325,996 56.5795,988.989 z" id="boundary" inkscape:connector-curvature="0" />
	<path style="fill:none;stroke:red;stroke-width:1px;stroke-linecap:butt;stroke-linejoin:miter;stroke-opacity:1" d="M 56.5795,988.989 25.0318,971.463 z" id="boundary" inkscape:connector-curvature="0" />
	<path style="fill:none;stroke:red;stroke-width:1px;stroke-linecap:butt;stroke-linejoin:miter;stroke-opacity:1" d="M 25.0318,971.463 11.0106,936.41 z" id="boundary" inkscape:connector-curvature="0" />
	<path style="fill:none;stroke:red;stroke-width:1px;stroke-linecap:butt;stroke-linejoin:miter;stroke-opacity:1" d="M 11.0106,936.41 4,901.357 z" id="boundary" inkscape:connector-curvature="0" />
	<path style="fill:none;stroke:red;stroke-width:1px;stroke-linecap:butt;stroke-linejoin:miter;stroke-opacity:1" d="M 4,901.357 4,866.304 z" id="boundary" inkscape:connector-curvature="0" />
	<path style="fill:none;stroke:red;stroke-width:1px;stroke-linecap:butt;stroke-linejoin:miter;stroke-opacity:1" d="M 4,866.304 4,831.251 z" id="boundary" inkscape:connector-curvature="0" />
	<path style="fill:none;stroke:red;stroke-width:1px;stroke-linecap:butt;stroke-linejoin:miter;stroke-opacity:1" d="M 4,831.251 4,796.198 z" id="boundary" inkscape:connector-curvature="0" />
	<path style="fill:none;stroke:red;stroke-width:1px;stroke-linecap:butt;stroke-linejoin:miter;stroke-opacity:1" d="M 4,796.198 4,761.145 z" id="boundary" inkscape:connector-curvature="0" />
	<path style="fill:none;stroke:red;stroke-width:1px;stroke-linecap:butt;stroke-linejoin:miter;stroke-opacity:1" d="M 4,761.145 11.0106,719.081 z" id="boundary" inkscape:connector-curvature="0" />
	<path style="fill:none;stroke:red;stroke-width:1px;stroke-linecap:butt;stroke-linejoin:miter;stroke-opacity:1" d="M 18.0212,655.986 11.0106,719.081 z" id="boundary" inkscape:connector-curvature="0" />
	<path style="fill:none;stroke:red;stroke-width:1px;stroke-linecap:butt;stroke-linejoin:miter;stroke-opacity:1" d="M 39.053,200.297 39.053,165.244 z" id="boundary" inkscape:connector-curvature="0" />
	<path style="fill:none;stroke:red;stroke-width:1px;stroke-linecap:butt;stroke-linejoin:miter;stroke-opacity:1" d="M 39.053,165.244 39.053,130.191 z" id="boundary" inkscape:connector-curvature="0" />
	<path style="fill:none;stroke:red;stroke-width:1px;stroke-linecap:butt;stroke-linejoin:miter;stroke-opacity:1" d="M 39.053,200.297 39.053,235.35 z" id="boundary" inkscape:connector-curvature="0" />
	<path style="fill:none;stroke:red;stroke-width:1px;stroke-linecap:butt;stroke-linejoin:miter;stroke-opacity:1" d="M 39.053,235.35 39.053,270.403 z" id="boundary" inkscape:connector-curvature="0" />
	<path style="fill:none;stroke:red;stroke-width:1px;stroke-linecap:butt;stroke-linejoin:miter;stroke-opacity:1" d="M 39.053,270.403 39.053,305.456 z" id="boundary" inkscape:connector-curvature="0" />
	<path style="fill:none;stroke:red;stroke-width:1px;stroke-linecap:butt;stroke-linejoin:miter;stroke-opacity:1" d="M 39.053,305.456 39.053,340.509 z" id="boundary" inkscape:connector-curvature="0" />
	<path style="fill:none;stroke:red;stroke-width:1px;stroke-linecap:butt;stroke-linejoin:miter;stroke-opacity:1" d="M 39.053,340.509 39.053,375.562 z" id="boundary" inkscape:connector-curvature="0" />
	<path style="fill:none;stroke:red;stroke-width:1px;stroke-linecap:butt;stroke-linejoin:miter;stroke-opacity:1" d="M 39.053,375.562 70.6007,358.035 z" id="boundary" inkscape:connector-curvature="0" />
	<path style="fill:none;stroke:red;stroke-width:1px;stroke-linecap:butt;stroke-linejoin:miter;stroke-opacity:1" d="M 70.6007,358.035 70.6007,393.088 z" id="boundary" inkscape:connector-curvature="0" />
	<path style="fill:none;stroke:red;stroke-width:1px;stroke-linecap:butt;stroke-linejoin:miter;stroke-opacity:1" d="M 39.053,130.191 74.106,119.675 z" id="boundary" inkscape:connector-curvature="0" />
	<path style="fill:none;stroke:red;stroke-width:1px;stroke-linecap:butt;stroke-linejoin:miter;stroke-opacity:1" d="M 74.106,119.675 88.1272,84.6219 z" id="boundary" inkscape:connector-curvature="0" />
	<path style="fill:none;stroke:red;stroke-width:1px;stroke-linecap:butt;stroke-linejoin:miter;stroke-opacity:1" d="M 88.1272,84.6219 53.0742,67.0954 z" id="boundary" inkscape:connector-curvature="0" />
	<path style="fill:none;stroke:red;stroke-width:1px;stroke-linecap:butt;stroke-linejoin:miter;stroke-opacity:1" d="M 53.0742,67.0954 60.0848,32.0424 z" id="boundary" inkscape:connector-curvature="0" />
	<path style="fill:none;stroke:red;stroke-width:1px;stroke-linecap:butt;stroke-linejoin:miter;stroke-opacity:1" d="M 60.0848,32.0424 81.1166,4 z" id="boundary" inkscape:connector-curvature="0" />
	<path style="fill:none;stroke:red;stroke-width:1px;stroke-linecap:butt;stroke-linejoin:miter;stroke-opacity:1" d="M 81.1166,4 98.6431,46.0636 z" id="boundary" inkscape:connector-curvature="0" />
	<path style="fill:none;stroke:red;stroke-width:1px;stroke-linecap:butt;stroke-linejoin:miter;stroke-opacity:1" d="M 70.6007,252.876 70.6007,217.823 z" id="boundary" inkscape:connector-curvature="0" />
	<path style="fill:none;stroke:red;stroke-width:1px;stroke-linecap:butt;stroke-linejoin:miter;stroke-opacity:1" d="M 70.6007,252.876 70.6007,287.929 z" id="boundary" inkscape:connector-curvature="0" />
	<path style="fill:none;stroke:red;stroke-width:1px;stroke-linecap:butt;stroke-linejoin:miter;stroke-opacity:1" d="M 70.6007,287.929 70.6007,322.982 z" id="boundary" inkscape:connector-curvature="0" />
	<circle cx="4" cy="761.145" r="4" fill="#0" id="circle0"/>
	<circle cx="4" cy="796.198" r="4" fill="#0" id="circle1"/>
	<circle cx="4" cy="831.251" r="4" fill="#0" id="circle2"/>
	<circle cx="4" cy="866.304" r="4" fill="#0" id="circle3"/>
	<circle cx="4" cy="901.357" r="4" fill="#0" id="circle4"/>
	<circle cx="11.0106" cy="550.827" r="4" fill="#0" id="circle5"/>
	<circle cx="11.0106" cy="585.88" r="4" fill="#0" id="circle6"/>
	<circle cx="11.0106" cy="719.081" r="4" fill="#0" id="circle7"/>
	<circle cx="11.0106" cy="936.41" r="4" fill="#0" id="circle8"/>
	<circle cx="14.5159" cy="620.933" r="4" fill="#0" id="circle9"/>
	<circle cx="18.0212" cy="655.986" r="4" fill="#0" id="circle10"/>
	<circle cx="25.0318" cy="971.463" r="4" fill="#0" id="circle11"/>
	<circle cx="32.0424" cy="424.636" r="4" fill="#0" id="circle12"/>
	<circle cx="32.0424" cy="459.689" r="4" fill="#0" id="circle13"/>
	<circle cx="32.0424" cy="494.742" r="4" fill="#0" id="circle14"/>
	<circle cx="39.053" cy="130.191" r="4" fill="#0" id="circle15"/>
	<circle cx="39.053" cy="165.244" r="4" fill="#0" id="circle16"/>
	<circle cx="39.053" cy="200.297" r="4" fill="#0" id="circle17"/>
	<circle cx="39.053" cy="235.35" r="4" fill="#0" id="circle18"/>
	<circle cx="39.053" cy="270.403" r="4" fill="#0" id="circle19"/>
	<circle cx="39.053" cy="305.456" r="4" fill="#0" id="circle20"/>
	<circle cx="39.053" cy="340.509" r="4" fill="#0" id="circle21"/>
	<circle cx="39.053" cy="375.562" r="4" fill="#0" id="circle22"/>
	<circle cx="53.0742" cy="67.0954" r="4" fill="#0" id="circle23"/>
	<circle cx="56.5795" cy="988.989" r="4" fill="#0" id="circle24"/>
	<circle cx="60.0848" cy="32.0424" r="4" fill="#0" id="circle25"/>
	<circle cx="70.6007" cy="217.823" r="4" fill="#0" id="circle26"/>
	<circle cx="70.6007" cy="252.876" r="4" fill="#0" id="circle27"/>
	<circle cx="70.6007" cy="287.929" r="4" fill="#0" id="circle28"/>
	<circle cx="70.6007" cy="322.982" r="4" fill="#0" id="circle29"/>
	<circle cx="70.6007" cy="358.035" r="4" fill="#0" id="circle30"/>
	<circle cx="70.6007" cy="393.088" r="4" fill="#0" id="circle31"/>
	<circle cx="70.6007" cy="428.141" r="4" fill="#0" id="circle32"/>
	<circle cx="70.6007" cy="463.194" r="4" fill="#0" id="circle33"/>
	<circle cx="74.106" cy="119.675" r="4" fill="#0" id="circle34"/>
	<circle cx="81.1166" cy="4" r="4" fill="#0" id="circle35"/>
	<circle cx="88.1272" cy="84.6219" r="4" fill="#0" id="circle36"/>
	<circle cx="91.6325" cy="996" r="4" fill="#0" id="circle37"/>
	<circle cx="98.6431" cy="46.0636" r="4" fill="#0" id="circle38"/>
	<circle cx="105.654" cy="473.71" r="4" fill="#0" id="circle39"/>
	<circle cx="126.686" cy="988.989" r="4" fill="#0" id="circle40"/>
	<circle cx="140.707" cy="487.731" r="4" fill="#0" id="circle41"/>
	<circle cx="161.739" cy="985.484" r="4" fill="#0" id="circle42"/>
	<circle cx="168.749" cy="508.763" r="4" fill="#0" id="circle43"/>
	<circle cx="179.265" cy="659.491" r="4" fill="#0" id="circle44"/>
	<circle cx="179.265" cy="953.936" r="4" fill="#0" id="circle45"/>
	<circle cx="182.77" cy="543.816" r="4" fill="#0" id="circle46"/>
	<circle cx="182.77" cy="578.869" r="4" fill="#0" id="circle47"/>
	<circle cx="182.77" cy="613.922" r="4" fill="#0" id="circle48"/>
	<circle cx="182.77" cy="694.544" r="4" fill="#0" id="circle49"/>
	<circle cx="182.77" cy="729.597" r="4" fill="#0" id="circle50"/>
	<circle cx="189.781" cy="764.65" r="4" fill="#0" id="circle51"/>
	<circle cx="189.781" cy="908.367" r="4" fill="#0" id="circle52"/>
	<circle cx="196.792" cy="799.703" r="4" fill="#0" id="circle53"/>
	<circle cx="196.792" cy="834.756" r="4" fill="#0" id="circle54"/>
	<circle cx="196.792" cy="869.809" r="4" fill="#0" id="circle55"/>
	</g>
</svg>