<?xml version="1.0" encoding="UTF-8" standalone="no"?>
<!-- Created with CurveBenchmark -->
<svg
	xmlns:dc="http://purl.org/dc/elements/1.1/"
	xmlns:cc="http://creativecommons.org/ns#"
	xmlns:rdf="http://www.w3.org/1999/02/22-rdf-syntax-ns#"
	xmlns:svg="http://www.w3.org/2000/svg"
	xmlns="http://www.w3.org/2000/svg"
	xmlns:sodipodi="http://sodipodi.sourceforge.net/DTD/sodipodi-0.dtd"
	xmlns:inkscape="http://www.inkscape.org/namespaces/inkscape"
	width="1000"
	height="1000"
	id="svg2"
	version="1.1"
	sodipodi:docname="manifold/crawl-fork19.png.txt">
<defs
	id="defs4" />
<metadata
	id="metadata7">
	<rdf:RDF>
		<cc:Work
			rdf:about="">
			<dc:format>image/svg+xml</dc:format>
			<dc:type
				rdf:resource="http://purl.org/dc/dcmitype/StillImage" />
			<dc:title></dc:title>
		</cc:Work>
	</rdf:RDF>
</metadata>
<g
	inkscape:label="Layer 1"
	inkscape:groupmode="layer"
	id="layer1">
	<path style="fill:none;stroke:red;stroke-width:1px;stroke-linecap:butt;stroke-linejoin:miter;stroke-opacity:1" d="M 14.9011,96.6593 4,82.1245 z" id="boundary" inkscape:connector-curvature="0" />
	<path style="fill:none;stroke:red;stroke-width:1px;stroke-linecap:butt;stroke-linejoin:miter;stroke-opacity:1" d="M 4,82.1245 4,63.956 z" id="boundary" inkscape:connector-curvature="0" />
	<path style="fill:none;stroke:red;stroke-width:1px;stroke-linecap:butt;stroke-linejoin:miter;stroke-opacity:1" d="M 4,63.956 22.1685,58.5055 z" id="boundary" inkscape:connector-curvature="0" />
	<path style="fill:none;stroke:red;stroke-width:1px;stroke-linecap:butt;stroke-linejoin:miter;stroke-opacity:1" d="M 22.1685,58.5055 38.5201,49.4212 z" id="boundary" inkscape:connector-curvature="0" />
	<path style="fill:none;stroke:red;stroke-width:1px;stroke-linecap:butt;stroke-linejoin:miter;stroke-opacity:1" d="M 38.5201,49.4212 56.6886,49.4212 z" id="boundary" inkscape:connector-curvature="0" />
	<path style="fill:none;stroke:red;stroke-width:1px;stroke-linecap:butt;stroke-linejoin:miter;stroke-opacity:1" d="M 56.6886,49.4212 74.8571,49.4212 z" id="boundary" inkscape:connector-curvature="0" />
	<path style="fill:none;stroke:red;stroke-width:1px;stroke-linecap:butt;stroke-linejoin:miter;stroke-opacity:1" d="M 74.8571,49.4212 91.2088,40.337 z" id="boundary" inkscape:connector-curvature="0" />
	<path style="fill:none;stroke:red;stroke-width:1px;stroke-linecap:butt;stroke-linejoin:miter;stroke-opacity:1" d="M 91.2088,40.337 109.377,40.337 z" id="boundary" inkscape:connector-curvature="0" />
	<path style="fill:none;stroke:red;stroke-width:1px;stroke-linecap:butt;stroke-linejoin:miter;stroke-opacity:1" d="M 109.377,40.337 127.546,40.337 z" id="boundary" inkscape:connector-curvature="0" />
	<path style="fill:none;stroke:red;stroke-width:1px;stroke-linecap:butt;stroke-linejoin:miter;stroke-opacity:1" d="M 127.546,40.337 143.897,31.2527 z" id="boundary" inkscape:connector-curvature="0" />
	<path style="fill:none;stroke:red;stroke-width:1px;stroke-linecap:butt;stroke-linejoin:miter;stroke-opacity:1" d="M 143.897,31.2527 162.066,31.2527 z" id="boundary" inkscape:connector-curvature="0" />
	<path style="fill:none;stroke:red;stroke-width:1px;stroke-linecap:butt;stroke-linejoin:miter;stroke-opacity:1" d="M 162.066,31.2527 180.234,31.2527 z" id="boundary" inkscape:connector-curvature="0" />
	<path style="fill:none;stroke:red;stroke-width:1px;stroke-linecap:butt;stroke-linejoin:miter;stroke-opacity:1" d="M 180.234,31.2527 196.586,22.1685 z" id="boundary" inkscape:connector-curvature="0" />
	<path style="fill:none;stroke:red;stroke-width:1px;stroke-linecap:butt;stroke-linejoin:miter;stroke-opacity:1" d="M 196.586,22.1685 214.755,22.1685 z" id="boundary" inkscape:connector-curvature="0" />
	<path style="fill:none;stroke:red;stroke-width:1px;stroke-linecap:butt;stroke-linejoin:miter;stroke-opacity:1" d="M 214.755,22.1685 232.923,16.7179 z" id="boundary" inkscape:connector-curvature="0" />
	<path style="fill:none;stroke:red;stroke-width:1px;stroke-linecap:butt;stroke-linejoin:miter;stroke-opacity:1" d="M 232.923,16.7179 251.092,13.0842 z" id="boundary" inkscape:connector-curvature="0" />
	<path style="fill:none;stroke:red;stroke-width:1px;stroke-linecap:butt;stroke-linejoin:miter;stroke-opacity:1" d="M 251.092,13.0842 269.26,18.5348 z" id="boundary" inkscape:connector-curvature="0" />
	<path style="fill:none;stroke:red;stroke-width:1px;stroke-linecap:butt;stroke-linejoin:miter;stroke-opacity:1" d="M 269.26,18.5348 287.429,22.1685 z" id="boundary" inkscape:connector-curvature="0" />
	<path style="fill:none;stroke:red;stroke-width:1px;stroke-linecap:butt;stroke-linejoin:miter;stroke-opacity:1" d="M 287.429,22.1685 296.513,38.5201 z" id="boundary" inkscape:connector-curvature="0" />
	<path style="fill:none;stroke:red;stroke-width:1px;stroke-linecap:butt;stroke-linejoin:miter;stroke-opacity:1" d="M 296.513,38.5201 305.597,54.8718 z" id="boundary" inkscape:connector-curvature="0" />
	<path style="fill:none;stroke:red;stroke-width:1px;stroke-linecap:butt;stroke-linejoin:miter;stroke-opacity:1" d="M 305.597,54.8718 314.681,71.2234 z" id="boundary" inkscape:connector-curvature="0" />
	<path style="fill:none;stroke:red;stroke-width:1px;stroke-linecap:butt;stroke-linejoin:miter;stroke-opacity:1" d="M 314.681,71.2234 325.582,85.7582 z" id="boundary" inkscape:connector-curvature="0" />
	<path style="fill:none;stroke:red;stroke-width:1px;stroke-linecap:butt;stroke-linejoin:miter;stroke-opacity:1" d="M 325.582,85.7582 332.85,103.927 z" id="boundary" inkscape:connector-curvature="0" />
	<path style="fill:none;stroke:red;stroke-width:1px;stroke-linecap:butt;stroke-linejoin:miter;stroke-opacity:1" d="M 332.85,103.927 349.201,113.011 z" id="boundary" inkscape:connector-curvature="0" />
	<path style="fill:none;stroke:red;stroke-width:1px;stroke-linecap:butt;stroke-linejoin:miter;stroke-opacity:1" d="M 349.201,113.011 365.553,122.095 z" id="boundary" inkscape:connector-curvature="0" />
	<path style="fill:none;stroke:red;stroke-width:1px;stroke-linecap:butt;stroke-linejoin:miter;stroke-opacity:1" d="M 365.553,122.095 383.722,122.095 z" id="boundary" inkscape:connector-curvature="0" />
	<path style="fill:none;stroke:red;stroke-width:1px;stroke-linecap:butt;stroke-linejoin:miter;stroke-opacity:1" d="M 383.722,122.095 401.89,122.095 z" id="boundary" inkscape:connector-curvature="0" />
	<path style="fill:none;stroke:red;stroke-width:1px;stroke-linecap:butt;stroke-linejoin:miter;stroke-opacity:1" d="M 401.89,122.095 418.242,113.011 z" id="boundary" inkscape:connector-curvature="0" />
	<path style="fill:none;stroke:red;stroke-width:1px;stroke-linecap:butt;stroke-linejoin:miter;stroke-opacity:1" d="M 418.242,113.011 436.41,113.011 z" id="boundary" inkscape:connector-curvature="0" />
	<path style="fill:none;stroke:red;stroke-width:1px;stroke-linecap:butt;stroke-linejoin:miter;stroke-opacity:1" d="M 436.41,113.011 454.579,103.927 z" id="boundary" inkscape:connector-curvature="0" />
	<path style="fill:none;stroke:red;stroke-width:1px;stroke-linecap:butt;stroke-linejoin:miter;stroke-opacity:1" d="M 454.579,103.927 472.747,103.927 z" id="boundary" inkscape:connector-curvature="0" />
	<path style="fill:none;stroke:red;stroke-width:1px;stroke-linecap:butt;stroke-linejoin:miter;stroke-opacity:1" d="M 472.747,103.927 490.916,103.927 z" id="boundary" inkscape:connector-curvature="0" />
	<path style="fill:none;stroke:red;stroke-width:1px;stroke-linecap:butt;stroke-linejoin:miter;stroke-opacity:1" d="M 490.916,103.927 509.084,94.8425 z" id="boundary" inkscape:connector-curvature="0" />
	<path style="fill:none;stroke:red;stroke-width:1px;stroke-linecap:butt;stroke-linejoin:miter;stroke-opacity:1" d="M 509.084,94.8425 527.253,94.8425 z" id="boundary" inkscape:connector-curvature="0" />
	<path style="fill:none;stroke:red;stroke-width:1px;stroke-linecap:butt;stroke-linejoin:miter;stroke-opacity:1" d="M 527.253,94.8425 545.421,94.8425 z" id="boundary" inkscape:connector-curvature="0" />
	<path style="fill:none;stroke:red;stroke-width:1px;stroke-linecap:butt;stroke-linejoin:miter;stroke-opacity:1" d="M 545.421,94.8425 563.59,85.7582 z" id="boundary" inkscape:connector-curvature="0" />
	<path style="fill:none;stroke:red;stroke-width:1px;stroke-linecap:butt;stroke-linejoin:miter;stroke-opacity:1" d="M 563.59,85.7582 581.758,85.7582 z" id="boundary" inkscape:connector-curvature="0" />
	<path style="fill:none;stroke:red;stroke-width:1px;stroke-linecap:butt;stroke-linejoin:miter;stroke-opacity:1" d="M 581.758,85.7582 599.927,85.7582 z" id="boundary" inkscape:connector-curvature="0" />
	<path style="fill:none;stroke:red;stroke-width:1px;stroke-linecap:butt;stroke-linejoin:miter;stroke-opacity:1" d="M 599.927,85.7582 616.278,76.674 z" id="boundary" inkscape:connector-curvature="0" />
	<path style="fill:none;stroke:red;stroke-width:1px;stroke-linecap:butt;stroke-linejoin:miter;stroke-opacity:1" d="M 616.278,76.674 634.447,76.674 z" id="boundary" inkscape:connector-curvature="0" />
	<path style="fill:none;stroke:red;stroke-width:1px;stroke-linecap:butt;stroke-linejoin:miter;stroke-opacity:1" d="M 634.447,76.674 652.615,76.674 z" id="boundary" inkscape:connector-curvature="0" />
	<path style="fill:none;stroke:red;stroke-width:1px;stroke-linecap:butt;stroke-linejoin:miter;stroke-opacity:1" d="M 652.615,76.674 668.967,67.5897 z" id="boundary" inkscape:connector-curvature="0" />
	<path style="fill:none;stroke:red;stroke-width:1px;stroke-linecap:butt;stroke-linejoin:miter;stroke-opacity:1" d="M 668.967,67.5897 687.136,67.5897 z" id="boundary" inkscape:connector-curvature="0" />
	<path style="fill:none;stroke:red;stroke-width:1px;stroke-linecap:butt;stroke-linejoin:miter;stroke-opacity:1" d="M 687.136,67.5897 705.304,67.5897 z" id="boundary" inkscape:connector-curvature="0" />
	<path style="fill:none;stroke:red;stroke-width:1px;stroke-linecap:butt;stroke-linejoin:miter;stroke-opacity:1" d="M 705.304,67.5897 721.656,58.5055 z" id="boundary" inkscape:connector-curvature="0" />
	<path style="fill:none;stroke:red;stroke-width:1px;stroke-linecap:butt;stroke-linejoin:miter;stroke-opacity:1" d="M 721.656,58.5055 739.824,58.5055 z" id="boundary" inkscape:connector-curvature="0" />
	<path style="fill:none;stroke:red;stroke-width:1px;stroke-linecap:butt;stroke-linejoin:miter;stroke-opacity:1" d="M 739.824,58.5055 757.993,54.8718 z" id="boundary" inkscape:connector-curvature="0" />
	<path style="fill:none;stroke:red;stroke-width:1px;stroke-linecap:butt;stroke-linejoin:miter;stroke-opacity:1" d="M 757.993,54.8718 776.161,49.4212 z" id="boundary" inkscape:connector-curvature="0" />
	<path style="fill:none;stroke:red;stroke-width:1px;stroke-linecap:butt;stroke-linejoin:miter;stroke-opacity:1" d="M 776.161,49.4212 794.33,49.4212 z" id="boundary" inkscape:connector-curvature="0" />
	<path style="fill:none;stroke:red;stroke-width:1px;stroke-linecap:butt;stroke-linejoin:miter;stroke-opacity:1" d="M 794.33,49.4212 812.498,45.7875 z" id="boundary" inkscape:connector-curvature="0" />
	<path style="fill:none;stroke:red;stroke-width:1px;stroke-linecap:butt;stroke-linejoin:miter;stroke-opacity:1" d="M 812.498,45.7875 830.667,40.337 z" id="boundary" inkscape:connector-curvature="0" />
	<path style="fill:none;stroke:red;stroke-width:1px;stroke-linecap:butt;stroke-linejoin:miter;stroke-opacity:1" d="M 830.667,40.337 848.835,40.337 z" id="boundary" inkscape:connector-curvature="0" />
	<path style="fill:none;stroke:red;stroke-width:1px;stroke-linecap:butt;stroke-linejoin:miter;stroke-opacity:1" d="M 848.835,40.337 867.004,36.7033 z" id="boundary" inkscape:connector-curvature="0" />
	<path style="fill:none;stroke:red;stroke-width:1px;stroke-linecap:butt;stroke-linejoin:miter;stroke-opacity:1" d="M 867.004,36.7033 885.172,31.2527 z" id="boundary" inkscape:connector-curvature="0" />
	<path style="fill:none;stroke:red;stroke-width:1px;stroke-linecap:butt;stroke-linejoin:miter;stroke-opacity:1" d="M 885.172,31.2527 903.341,31.2527 z" id="boundary" inkscape:connector-curvature="0" />
	<path style="fill:none;stroke:red;stroke-width:1px;stroke-linecap:butt;stroke-linejoin:miter;stroke-opacity:1" d="M 903.341,31.2527 919.692,22.1685 z" id="boundary" inkscape:connector-curvature="0" />
	<path style="fill:none;stroke:red;stroke-width:1px;stroke-linecap:butt;stroke-linejoin:miter;stroke-opacity:1" d="M 919.692,22.1685 926.96,4 z" id="boundary" inkscape:connector-curvature="0" />
	<path style="fill:none;stroke:red;stroke-width:1px;stroke-linecap:butt;stroke-linejoin:miter;stroke-opacity:1" d="M 926.96,4 945.128,4 z" id="boundary" inkscape:connector-curvature="0" />
	<path style="fill:none;stroke:red;stroke-width:1px;stroke-linecap:butt;stroke-linejoin:miter;stroke-opacity:1" d="M 945.128,4 963.297,4 z" id="boundary" inkscape:connector-curvature="0" />
	<path style="fill:none;stroke:red;stroke-width:1px;stroke-linecap:butt;stroke-linejoin:miter;stroke-opacity:1" d="M 963.297,4 979.648,13.0842 z" id="boundary" inkscape:connector-curvature="0" />
	<path style="fill:none;stroke:red;stroke-width:1px;stroke-linecap:butt;stroke-linejoin:miter;stroke-opacity:1" d="M 979.648,13.0842 986.916,31.2527 z" id="boundary" inkscape:connector-curvature="0" />
	<path style="fill:none;stroke:red;stroke-width:1px;stroke-linecap:butt;stroke-linejoin:miter;stroke-opacity:1" d="M 986.916,31.2527 986.916,49.4212 z" id="boundary" inkscape:connector-curvature="0" />
	<path style="fill:none;stroke:red;stroke-width:1px;stroke-linecap:butt;stroke-linejoin:miter;stroke-opacity:1" d="M 986.916,49.4212 986.916,67.5897 z" id="boundary" inkscape:connector-curvature="0" />
	<path style="fill:none;stroke:red;stroke-width:1px;stroke-linecap:butt;stroke-linejoin:miter;stroke-opacity:1" d="M 986.916,67.5897 996,83.9414 z" id="boundary" inkscape:connector-curvature="0" />
	<path style="fill:none;stroke:red;stroke-width:1px;stroke-linecap:butt;stroke-linejoin:miter;stroke-opacity:1" d="M 996,83.9414 996,102.11 z" id="boundary" inkscape:connector-curvature="0" />
	<path style="fill:none;stroke:red;stroke-width:1px;stroke-linecap:butt;stroke-linejoin:miter;stroke-opacity:1" d="M 14.9011,96.6593 33.0696,87.5751 z" id="boundary" inkscape:connector-curvature="0" />
	<path style="fill:none;stroke:red;stroke-width:1px;stroke-linecap:butt;stroke-linejoin:miter;stroke-opacity:1" d="M 33.0696,87.5751 51.2381,87.5751 z" id="boundary" inkscape:connector-curvature="0" />
	<path style="fill:none;stroke:red;stroke-width:1px;stroke-linecap:butt;stroke-linejoin:miter;stroke-opacity:1" d="M 51.2381,87.5751 69.4066,87.5751 z" id="boundary" inkscape:connector-curvature="0" />
	<path style="fill:none;stroke:red;stroke-width:1px;stroke-linecap:butt;stroke-linejoin:miter;stroke-opacity:1" d="M 69.4066,87.5751 87.5751,78.4908 z" id="boundary" inkscape:connector-curvature="0" />
	<path style="fill:none;stroke:red;stroke-width:1px;stroke-linecap:butt;stroke-linejoin:miter;stroke-opacity:1" d="M 87.5751,78.4908 105.744,78.4908 z" id="boundary" inkscape:connector-curvature="0" />
	<path style="fill:none;stroke:red;stroke-width:1px;stroke-linecap:butt;stroke-linejoin:miter;stroke-opacity:1" d="M 105.744,78.4908 123.912,78.4908 z" id="boundary" inkscape:connector-curvature="0" />
	<path style="fill:none;stroke:red;stroke-width:1px;stroke-linecap:butt;stroke-linejoin:miter;stroke-opacity:1" d="M 123.912,78.4908 140.264,69.4066 z" id="boundary" inkscape:connector-curvature="0" />
	<path style="fill:none;stroke:red;stroke-width:1px;stroke-linecap:butt;stroke-linejoin:miter;stroke-opacity:1" d="M 140.264,69.4066 158.432,69.4066 z" id="boundary" inkscape:connector-curvature="0" />
	<path style="fill:none;stroke:red;stroke-width:1px;stroke-linecap:butt;stroke-linejoin:miter;stroke-opacity:1" d="M 158.432,69.4066 176.601,69.4066 z" id="boundary" inkscape:connector-curvature="0" />
	<path style="fill:none;stroke:red;stroke-width:1px;stroke-linecap:butt;stroke-linejoin:miter;stroke-opacity:1" d="M 176.601,69.4066 192.952,60.3223 z" id="boundary" inkscape:connector-curvature="0" />
	<path style="fill:none;stroke:red;stroke-width:1px;stroke-linecap:butt;stroke-linejoin:miter;stroke-opacity:1" d="M 192.952,60.3223 211.121,60.3223 z" id="boundary" inkscape:connector-curvature="0" />
	<path style="fill:none;stroke:red;stroke-width:1px;stroke-linecap:butt;stroke-linejoin:miter;stroke-opacity:1" d="M 211.121,60.3223 229.289,60.3223 z" id="boundary" inkscape:connector-curvature="0" />
	<path style="fill:none;stroke:red;stroke-width:1px;stroke-linecap:butt;stroke-linejoin:miter;stroke-opacity:1" d="M 229.289,60.3223 245.641,51.2381 z" id="boundary" inkscape:connector-curvature="0" />
	<path style="fill:none;stroke:red;stroke-width:1px;stroke-linecap:butt;stroke-linejoin:miter;stroke-opacity:1" d="M 245.641,51.2381 258.359,65.7729 z" id="boundary" inkscape:connector-curvature="0" />
	<path style="fill:none;stroke:red;stroke-width:1px;stroke-linecap:butt;stroke-linejoin:miter;stroke-opacity:1" d="M 258.359,65.7729 267.443,82.1245 z" id="boundary" inkscape:connector-curvature="0" />
	<path style="fill:none;stroke:red;stroke-width:1px;stroke-linecap:butt;stroke-linejoin:miter;stroke-opacity:1" d="M 267.443,82.1245 276.527,98.4762 z" id="boundary" inkscape:connector-curvature="0" />
	<path style="fill:none;stroke:red;stroke-width:1px;stroke-linecap:butt;stroke-linejoin:miter;stroke-opacity:1" d="M 276.527,98.4762 258.359,113.011 z" id="boundary" inkscape:connector-curvature="0" />
	<path style="fill:none;stroke:red;stroke-width:1px;stroke-linecap:butt;stroke-linejoin:miter;stroke-opacity:1" d="M 258.359,113.011 240.19,118.462 z" id="boundary" inkscape:connector-curvature="0" />
	<path style="fill:none;stroke:red;stroke-width:1px;stroke-linecap:butt;stroke-linejoin:miter;stroke-opacity:1" d="M 240.19,118.462 222.022,122.095 z" id="boundary" inkscape:connector-curvature="0" />
	<path style="fill:none;stroke:red;stroke-width:1px;stroke-linecap:butt;stroke-linejoin:miter;stroke-opacity:1" d="M 222.022,122.095 203.853,122.095 z" id="boundary" inkscape:connector-curvature="0" />
	<path style="fill:none;stroke:red;stroke-width:1px;stroke-linecap:butt;stroke-linejoin:miter;stroke-opacity:1" d="M 203.853,122.095 187.502,131.179 z" id="boundary" inkscape:connector-curvature="0" />
	<path style="fill:none;stroke:red;stroke-width:1px;stroke-linecap:butt;stroke-linejoin:miter;stroke-opacity:1" d="M 187.502,131.179 169.333,131.179 z" id="boundary" inkscape:connector-curvature="0" />
	<path style="fill:none;stroke:red;stroke-width:1px;stroke-linecap:butt;stroke-linejoin:miter;stroke-opacity:1" d="M 169.333,131.179 151.165,131.179 z" id="boundary" inkscape:connector-curvature="0" />
	<path style="fill:none;stroke:red;stroke-width:1px;stroke-linecap:butt;stroke-linejoin:miter;stroke-opacity:1" d="M 151.165,131.179 134.813,140.264 z" id="boundary" inkscape:connector-curvature="0" />
	<path style="fill:none;stroke:red;stroke-width:1px;stroke-linecap:butt;stroke-linejoin:miter;stroke-opacity:1" d="M 134.813,140.264 116.645,140.264 z" id="boundary" inkscape:connector-curvature="0" />
	<path style="fill:none;stroke:red;stroke-width:1px;stroke-linecap:butt;stroke-linejoin:miter;stroke-opacity:1" d="M 116.645,140.264 98.4762,140.264 z" id="boundary" inkscape:connector-curvature="0" />
	<path style="fill:none;stroke:red;stroke-width:1px;stroke-linecap:butt;stroke-linejoin:miter;stroke-opacity:1" d="M 98.4762,140.264 82.1245,149.348 z" id="boundary" inkscape:connector-curvature="0" />
	<path style="fill:none;stroke:red;stroke-width:1px;stroke-linecap:butt;stroke-linejoin:miter;stroke-opacity:1" d="M 82.1245,149.348 63.956,149.348 z" id="boundary" inkscape:connector-curvature="0" />
	<path style="fill:none;stroke:red;stroke-width:1px;stroke-linecap:butt;stroke-linejoin:miter;stroke-opacity:1" d="M 63.956,149.348 45.7875,149.348 z" id="boundary" inkscape:connector-curvature="0" />
	<path style="fill:none;stroke:red;stroke-width:1px;stroke-linecap:butt;stroke-linejoin:miter;stroke-opacity:1" d="M 45.7875,149.348 31.2527,163.883 z" id="boundary" inkscape:connector-curvature="0" />
	<path style="fill:none;stroke:red;stroke-width:1px;stroke-linecap:butt;stroke-linejoin:miter;stroke-opacity:1" d="M 31.2527,163.883 31.2527,182.051 z" id="boundary" inkscape:connector-curvature="0" />
	<path style="fill:none;stroke:red;stroke-width:1px;stroke-linecap:butt;stroke-linejoin:miter;stroke-opacity:1" d="M 31.2527,182.051 49.4212,187.502 z" id="boundary" inkscape:connector-curvature="0" />
	<path style="fill:none;stroke:red;stroke-width:1px;stroke-linecap:butt;stroke-linejoin:miter;stroke-opacity:1" d="M 49.4212,187.502 67.5897,187.502 z" id="boundary" inkscape:connector-curvature="0" />
	<path style="fill:none;stroke:red;stroke-width:1px;stroke-linecap:butt;stroke-linejoin:miter;stroke-opacity:1" d="M 67.5897,187.502 85.7582,187.502 z" id="boundary" inkscape:connector-curvature="0" />
	<path style="fill:none;stroke:red;stroke-width:1px;stroke-linecap:butt;stroke-linejoin:miter;stroke-opacity:1" d="M 85.7582,187.502 102.11,178.418 z" id="boundary" inkscape:connector-curvature="0" />
	<path style="fill:none;stroke:red;stroke-width:1px;stroke-linecap:butt;stroke-linejoin:miter;stroke-opacity:1" d="M 102.11,178.418 120.278,178.418 z" id="boundary" inkscape:connector-curvature="0" />
	<path style="fill:none;stroke:red;stroke-width:1px;stroke-linecap:butt;stroke-linejoin:miter;stroke-opacity:1" d="M 120.278,178.418 138.447,174.784 z" id="boundary" inkscape:connector-curvature="0" />
	<path style="fill:none;stroke:red;stroke-width:1px;stroke-linecap:butt;stroke-linejoin:miter;stroke-opacity:1" d="M 138.447,174.784 156.615,169.333 z" id="boundary" inkscape:connector-curvature="0" />
	<path style="fill:none;stroke:red;stroke-width:1px;stroke-linecap:butt;stroke-linejoin:miter;stroke-opacity:1" d="M 156.615,169.333 174.784,169.333 z" id="boundary" inkscape:connector-curvature="0" />
	<path style="fill:none;stroke:red;stroke-width:1px;stroke-linecap:butt;stroke-linejoin:miter;stroke-opacity:1" d="M 174.784,169.333 192.952,165.7 z" id="boundary" inkscape:connector-curvature="0" />
	<path style="fill:none;stroke:red;stroke-width:1px;stroke-linecap:butt;stroke-linejoin:miter;stroke-opacity:1" d="M 192.952,165.7 211.121,160.249 z" id="boundary" inkscape:connector-curvature="0" />
	<path style="fill:none;stroke:red;stroke-width:1px;stroke-linecap:butt;stroke-linejoin:miter;stroke-opacity:1" d="M 211.121,160.249 229.289,160.249 z" id="boundary" inkscape:connector-curvature="0" />
	<path style="fill:none;stroke:red;stroke-width:1px;stroke-linecap:butt;stroke-linejoin:miter;stroke-opacity:1" d="M 229.289,160.249 247.458,156.615 z" id="boundary" inkscape:connector-curvature="0" />
	<path style="fill:none;stroke:red;stroke-width:1px;stroke-linecap:butt;stroke-linejoin:miter;stroke-opacity:1" d="M 247.458,156.615 265.626,151.165 z" id="boundary" inkscape:connector-curvature="0" />
	<path style="fill:none;stroke:red;stroke-width:1px;stroke-linecap:butt;stroke-linejoin:miter;stroke-opacity:1" d="M 265.626,151.165 283.795,151.165 z" id="boundary" inkscape:connector-curvature="0" />
	<path style="fill:none;stroke:red;stroke-width:1px;stroke-linecap:butt;stroke-linejoin:miter;stroke-opacity:1" d="M 283.795,151.165 300.147,142.081 z" id="boundary" inkscape:connector-curvature="0" />
	<path style="fill:none;stroke:red;stroke-width:1px;stroke-linecap:butt;stroke-linejoin:miter;stroke-opacity:1" d="M 300.147,142.081 303.78,160.249 z" id="boundary" inkscape:connector-curvature="0" />
	<path style="fill:none;stroke:red;stroke-width:1px;stroke-linecap:butt;stroke-linejoin:miter;stroke-opacity:1" d="M 303.78,160.249 312.864,176.601 z" id="boundary" inkscape:connector-curvature="0" />
	<path style="fill:none;stroke:red;stroke-width:1px;stroke-linecap:butt;stroke-linejoin:miter;stroke-opacity:1" d="M 312.864,176.601 312.864,200.22 z" id="boundary" inkscape:connector-curvature="0" />
	<path style="fill:none;stroke:red;stroke-width:1px;stroke-linecap:butt;stroke-linejoin:miter;stroke-opacity:1" d="M 312.864,200.22 298.33,222.022 z" id="boundary" inkscape:connector-curvature="0" />
	<path style="fill:none;stroke:red;stroke-width:1px;stroke-linecap:butt;stroke-linejoin:miter;stroke-opacity:1" d="M 298.33,222.022 280.161,222.022 z" id="boundary" inkscape:connector-curvature="0" />
	<path style="fill:none;stroke:red;stroke-width:1px;stroke-linecap:butt;stroke-linejoin:miter;stroke-opacity:1" d="M 280.161,222.022 261.993,222.022 z" id="boundary" inkscape:connector-curvature="0" />
	<path style="fill:none;stroke:red;stroke-width:1px;stroke-linecap:butt;stroke-linejoin:miter;stroke-opacity:1" d="M 261.993,222.022 245.641,231.106 z" id="boundary" inkscape:connector-curvature="0" />
	<path style="fill:none;stroke:red;stroke-width:1px;stroke-linecap:butt;stroke-linejoin:miter;stroke-opacity:1" d="M 245.641,231.106 227.473,231.106 z" id="boundary" inkscape:connector-curvature="0" />
	<path style="fill:none;stroke:red;stroke-width:1px;stroke-linecap:butt;stroke-linejoin:miter;stroke-opacity:1" d="M 227.473,231.106 209.304,231.106 z" id="boundary" inkscape:connector-curvature="0" />
	<path style="fill:none;stroke:red;stroke-width:1px;stroke-linecap:butt;stroke-linejoin:miter;stroke-opacity:1" d="M 209.304,231.106 191.136,240.19 z" id="boundary" inkscape:connector-curvature="0" />
	<path style="fill:none;stroke:red;stroke-width:1px;stroke-linecap:butt;stroke-linejoin:miter;stroke-opacity:1" d="M 191.136,240.19 172.967,240.19 z" id="boundary" inkscape:connector-curvature="0" />
	<path style="fill:none;stroke:red;stroke-width:1px;stroke-linecap:butt;stroke-linejoin:miter;stroke-opacity:1" d="M 172.967,240.19 154.799,240.19 z" id="boundary" inkscape:connector-curvature="0" />
	<path style="fill:none;stroke:red;stroke-width:1px;stroke-linecap:butt;stroke-linejoin:miter;stroke-opacity:1" d="M 154.799,240.19 138.447,249.275 z" id="boundary" inkscape:connector-curvature="0" />
	<path style="fill:none;stroke:red;stroke-width:1px;stroke-linecap:butt;stroke-linejoin:miter;stroke-opacity:1" d="M 138.447,249.275 120.278,249.275 z" id="boundary" inkscape:connector-curvature="0" />
	<path style="fill:none;stroke:red;stroke-width:1px;stroke-linecap:butt;stroke-linejoin:miter;stroke-opacity:1" d="M 120.278,249.275 102.11,249.275 z" id="boundary" inkscape:connector-curvature="0" />
	<path style="fill:none;stroke:red;stroke-width:1px;stroke-linecap:butt;stroke-linejoin:miter;stroke-opacity:1" d="M 102.11,249.275 85.7582,258.359 z" id="boundary" inkscape:connector-curvature="0" />
	<path style="fill:none;stroke:red;stroke-width:1px;stroke-linecap:butt;stroke-linejoin:miter;stroke-opacity:1" d="M 85.7582,258.359 67.5897,263.81 z" id="boundary" inkscape:connector-curvature="0" />
	<path style="fill:none;stroke:red;stroke-width:1px;stroke-linecap:butt;stroke-linejoin:miter;stroke-opacity:1" d="M 67.5897,263.81 49.4212,272.894 z" id="boundary" inkscape:connector-curvature="0" />
	<path style="fill:none;stroke:red;stroke-width:1px;stroke-linecap:butt;stroke-linejoin:miter;stroke-opacity:1" d="M 49.4212,272.894 49.4212,291.062 z" id="boundary" inkscape:connector-curvature="0" />
	<path style="fill:none;stroke:red;stroke-width:1px;stroke-linecap:butt;stroke-linejoin:miter;stroke-opacity:1" d="M 49.4212,291.062 67.5897,296.513 z" id="boundary" inkscape:connector-curvature="0" />
	<path style="fill:none;stroke:red;stroke-width:1px;stroke-linecap:butt;stroke-linejoin:miter;stroke-opacity:1" d="M 67.5897,296.513 85.7582,296.513 z" id="boundary" inkscape:connector-curvature="0" />
	<path style="fill:none;stroke:red;stroke-width:1px;stroke-linecap:butt;stroke-linejoin:miter;stroke-opacity:1" d="M 85.7582,296.513 103.927,291.062 z" id="boundary" inkscape:connector-curvature="0" />
	<path style="fill:none;stroke:red;stroke-width:1px;stroke-linecap:butt;stroke-linejoin:miter;stroke-opacity:1" d="M 103.927,291.062 122.095,287.429 z" id="boundary" inkscape:connector-curvature="0" />
	<path style="fill:none;stroke:red;stroke-width:1px;stroke-linecap:butt;stroke-linejoin:miter;stroke-opacity:1" d="M 122.095,287.429 140.264,287.429 z" id="boundary" inkscape:connector-curvature="0" />
	<path style="fill:none;stroke:red;stroke-width:1px;stroke-linecap:butt;stroke-linejoin:miter;stroke-opacity:1" d="M 140.264,287.429 156.615,278.344 z" id="boundary" inkscape:connector-curvature="0" />
	<path style="fill:none;stroke:red;stroke-width:1px;stroke-linecap:butt;stroke-linejoin:miter;stroke-opacity:1" d="M 156.615,278.344 174.784,278.344 z" id="boundary" inkscape:connector-curvature="0" />
	<path style="fill:none;stroke:red;stroke-width:1px;stroke-linecap:butt;stroke-linejoin:miter;stroke-opacity:1" d="M 174.784,278.344 192.952,278.344 z" id="boundary" inkscape:connector-curvature="0" />
	<path style="fill:none;stroke:red;stroke-width:1px;stroke-linecap:butt;stroke-linejoin:miter;stroke-opacity:1" d="M 192.952,278.344 209.304,269.26 z" id="boundary" inkscape:connector-curvature="0" />
	<path style="fill:none;stroke:red;stroke-width:1px;stroke-linecap:butt;stroke-linejoin:miter;stroke-opacity:1" d="M 209.304,269.26 227.473,269.26 z" id="boundary" inkscape:connector-curvature="0" />
	<path style="fill:none;stroke:red;stroke-width:1px;stroke-linecap:butt;stroke-linejoin:miter;stroke-opacity:1" d="M 227.473,269.26 245.641,269.26 z" id="boundary" inkscape:connector-curvature="0" />
	<path style="fill:none;stroke:red;stroke-width:1px;stroke-linecap:butt;stroke-linejoin:miter;stroke-opacity:1" d="M 245.641,269.26 261.993,260.176 z" id="boundary" inkscape:connector-curvature="0" />
	<path style="fill:none;stroke:red;stroke-width:1px;stroke-linecap:butt;stroke-linejoin:miter;stroke-opacity:1" d="M 261.993,260.176 280.161,260.176 z" id="boundary" inkscape:connector-curvature="0" />
	<path style="fill:none;stroke:red;stroke-width:1px;stroke-linecap:butt;stroke-linejoin:miter;stroke-opacity:1" d="M 280.161,260.176 298.33,260.176 z" id="boundary" inkscape:connector-curvature="0" />
	<path style="fill:none;stroke:red;stroke-width:1px;stroke-linecap:butt;stroke-linejoin:miter;stroke-opacity:1" d="M 298.33,260.176 312.864,271.077 z" id="boundary" inkscape:connector-curvature="0" />
	<path style="fill:none;stroke:red;stroke-width:1px;stroke-linecap:butt;stroke-linejoin:miter;stroke-opacity:1" d="M 312.864,271.077 312.864,289.245 z" id="boundary" inkscape:connector-curvature="0" />
	<path style="fill:none;stroke:red;stroke-width:1px;stroke-linecap:butt;stroke-linejoin:miter;stroke-opacity:1" d="M 312.864,289.245 303.78,309.231 z" id="boundary" inkscape:connector-curvature="0" />
	<path style="fill:none;stroke:red;stroke-width:1px;stroke-linecap:butt;stroke-linejoin:miter;stroke-opacity:1" d="M 303.78,309.231 303.78,327.399 z" id="boundary" inkscape:connector-curvature="0" />
	<path style="fill:none;stroke:red;stroke-width:1px;stroke-linecap:butt;stroke-linejoin:miter;stroke-opacity:1" d="M 303.78,327.399 303.78,345.568 z" id="boundary" inkscape:connector-curvature="0" />
	<path style="fill:none;stroke:red;stroke-width:1px;stroke-linecap:butt;stroke-linejoin:miter;stroke-opacity:1" d="M 303.78,345.568 287.429,361.919 z" id="boundary" inkscape:connector-curvature="0" />
	<path style="fill:none;stroke:red;stroke-width:1px;stroke-linecap:butt;stroke-linejoin:miter;stroke-opacity:1" d="M 287.429,361.919 276.527,376.454 z" id="boundary" inkscape:connector-curvature="0" />
	<path style="fill:none;stroke:red;stroke-width:1px;stroke-linecap:butt;stroke-linejoin:miter;stroke-opacity:1" d="M 276.527,376.454 260.176,385.538 z" id="boundary" inkscape:connector-curvature="0" />
	<path style="fill:none;stroke:red;stroke-width:1px;stroke-linecap:butt;stroke-linejoin:miter;stroke-opacity:1" d="M 260.176,385.538 242.007,385.538 z" id="boundary" inkscape:connector-curvature="0" />
	<path style="fill:none;stroke:red;stroke-width:1px;stroke-linecap:butt;stroke-linejoin:miter;stroke-opacity:1" d="M 242.007,385.538 223.839,385.538 z" id="boundary" inkscape:connector-curvature="0" />
	<path style="fill:none;stroke:red;stroke-width:1px;stroke-linecap:butt;stroke-linejoin:miter;stroke-opacity:1" d="M 223.839,385.538 207.487,394.623 z" id="boundary" inkscape:connector-curvature="0" />
	<path style="fill:none;stroke:red;stroke-width:1px;stroke-linecap:butt;stroke-linejoin:miter;stroke-opacity:1" d="M 207.487,394.623 189.319,394.623 z" id="boundary" inkscape:connector-curvature="0" />
	<path style="fill:none;stroke:red;stroke-width:1px;stroke-linecap:butt;stroke-linejoin:miter;stroke-opacity:1" d="M 189.319,394.623 171.15,394.623 z" id="boundary" inkscape:connector-curvature="0" />
	<path style="fill:none;stroke:red;stroke-width:1px;stroke-linecap:butt;stroke-linejoin:miter;stroke-opacity:1" d="M 171.15,394.623 154.799,403.707 z" id="boundary" inkscape:connector-curvature="0" />
	<path style="fill:none;stroke:red;stroke-width:1px;stroke-linecap:butt;stroke-linejoin:miter;stroke-opacity:1" d="M 154.799,403.707 136.63,403.707 z" id="boundary" inkscape:connector-curvature="0" />
	<path style="fill:none;stroke:red;stroke-width:1px;stroke-linecap:butt;stroke-linejoin:miter;stroke-opacity:1" d="M 136.63,403.707 118.462,403.707 z" id="boundary" inkscape:connector-curvature="0" />
	<path style="fill:none;stroke:red;stroke-width:1px;stroke-linecap:butt;stroke-linejoin:miter;stroke-opacity:1" d="M 118.462,403.707 100.293,412.791 z" id="boundary" inkscape:connector-curvature="0" />
	<path style="fill:none;stroke:red;stroke-width:1px;stroke-linecap:butt;stroke-linejoin:miter;stroke-opacity:1" d="M 100.293,412.791 82.1245,412.791 z" id="boundary" inkscape:connector-curvature="0" />
	<path style="fill:none;stroke:red;stroke-width:1px;stroke-linecap:butt;stroke-linejoin:miter;stroke-opacity:1" d="M 82.1245,412.791 67.5897,427.326 z" id="boundary" inkscape:connector-curvature="0" />
	<path style="fill:none;stroke:red;stroke-width:1px;stroke-linecap:butt;stroke-linejoin:miter;stroke-opacity:1" d="M 67.5897,427.326 76.674,443.678 z" id="boundary" inkscape:connector-curvature="0" />
	<path style="fill:none;stroke:red;stroke-width:1px;stroke-linecap:butt;stroke-linejoin:miter;stroke-opacity:1" d="M 76.674,443.678 94.8425,450.945 z" id="boundary" inkscape:connector-curvature="0" />
	<path style="fill:none;stroke:red;stroke-width:1px;stroke-linecap:butt;stroke-linejoin:miter;stroke-opacity:1" d="M 94.8425,450.945 113.011,445.495 z" id="boundary" inkscape:connector-curvature="0" />
	<path style="fill:none;stroke:red;stroke-width:1px;stroke-linecap:butt;stroke-linejoin:miter;stroke-opacity:1" d="M 113.011,445.495 131.179,441.861 z" id="boundary" inkscape:connector-curvature="0" />
	<path style="fill:none;stroke:red;stroke-width:1px;stroke-linecap:butt;stroke-linejoin:miter;stroke-opacity:1" d="M 131.179,441.861 149.348,441.861 z" id="boundary" inkscape:connector-curvature="0" />
	<path style="fill:none;stroke:red;stroke-width:1px;stroke-linecap:butt;stroke-linejoin:miter;stroke-opacity:1" d="M 149.348,441.861 167.516,436.41 z" id="boundary" inkscape:connector-curvature="0" />
	<path style="fill:none;stroke:red;stroke-width:1px;stroke-linecap:butt;stroke-linejoin:miter;stroke-opacity:1" d="M 167.516,436.41 185.685,432.777 z" id="boundary" inkscape:connector-curvature="0" />
	<path style="fill:none;stroke:red;stroke-width:1px;stroke-linecap:butt;stroke-linejoin:miter;stroke-opacity:1" d="M 185.685,432.777 203.853,432.777 z" id="boundary" inkscape:connector-curvature="0" />
	<path style="fill:none;stroke:red;stroke-width:1px;stroke-linecap:butt;stroke-linejoin:miter;stroke-opacity:1" d="M 203.853,432.777 220.205,423.692 z" id="boundary" inkscape:connector-curvature="0" />
	<path style="fill:none;stroke:red;stroke-width:1px;stroke-linecap:butt;stroke-linejoin:miter;stroke-opacity:1" d="M 220.205,423.692 238.374,423.692 z" id="boundary" inkscape:connector-curvature="0" />
	<path style="fill:none;stroke:red;stroke-width:1px;stroke-linecap:butt;stroke-linejoin:miter;stroke-opacity:1" d="M 238.374,423.692 256.542,423.692 z" id="boundary" inkscape:connector-curvature="0" />
	<path style="fill:none;stroke:red;stroke-width:1px;stroke-linecap:butt;stroke-linejoin:miter;stroke-opacity:1" d="M 256.542,423.692 272.894,414.608 z" id="boundary" inkscape:connector-curvature="0" />
	<path style="fill:none;stroke:red;stroke-width:1px;stroke-linecap:butt;stroke-linejoin:miter;stroke-opacity:1" d="M 272.894,414.608 291.062,414.608 z" id="boundary" inkscape:connector-curvature="0" />
	<path style="fill:none;stroke:red;stroke-width:1px;stroke-linecap:butt;stroke-linejoin:miter;stroke-opacity:1" d="M 291.062,414.608 309.231,412.791 z" id="boundary" inkscape:connector-curvature="0" />
	<path style="fill:none;stroke:red;stroke-width:1px;stroke-linecap:butt;stroke-linejoin:miter;stroke-opacity:1" d="M 309.231,412.791 318.315,394.623 z" id="boundary" inkscape:connector-curvature="0" />
	<path style="fill:none;stroke:red;stroke-width:1px;stroke-linecap:butt;stroke-linejoin:miter;stroke-opacity:1" d="M 996,102.11 990.549,132.996 z" id="boundary" inkscape:connector-curvature="0" />
	<path style="fill:none;stroke:red;stroke-width:1px;stroke-linecap:butt;stroke-linejoin:miter;stroke-opacity:1" d="M 990.549,132.996 972.381,140.264 z" id="boundary" inkscape:connector-curvature="0" />
	<path style="fill:none;stroke:red;stroke-width:1px;stroke-linecap:butt;stroke-linejoin:miter;stroke-opacity:1" d="M 972.381,140.264 954.212,140.264 z" id="boundary" inkscape:connector-curvature="0" />
	<path style="fill:none;stroke:red;stroke-width:1px;stroke-linecap:butt;stroke-linejoin:miter;stroke-opacity:1" d="M 954.212,140.264 945.128,123.912 z" id="boundary" inkscape:connector-curvature="0" />
	<path style="fill:none;stroke:red;stroke-width:1px;stroke-linecap:butt;stroke-linejoin:miter;stroke-opacity:1" d="M 945.128,123.912 926.96,123.912 z" id="boundary" inkscape:connector-curvature="0" />
	<path style="fill:none;stroke:red;stroke-width:1px;stroke-linecap:butt;stroke-linejoin:miter;stroke-opacity:1" d="M 926.96,123.912 910.608,132.996 z" id="boundary" inkscape:connector-curvature="0" />
	<path style="fill:none;stroke:red;stroke-width:1px;stroke-linecap:butt;stroke-linejoin:miter;stroke-opacity:1" d="M 910.608,132.996 892.44,132.996 z" id="boundary" inkscape:connector-curvature="0" />
	<path style="fill:none;stroke:red;stroke-width:1px;stroke-linecap:butt;stroke-linejoin:miter;stroke-opacity:1" d="M 892.44,132.996 874.271,138.447 z" id="boundary" inkscape:connector-curvature="0" />
	<path style="fill:none;stroke:red;stroke-width:1px;stroke-linecap:butt;stroke-linejoin:miter;stroke-opacity:1" d="M 874.271,138.447 856.103,142.081 z" id="boundary" inkscape:connector-curvature="0" />
	<path style="fill:none;stroke:red;stroke-width:1px;stroke-linecap:butt;stroke-linejoin:miter;stroke-opacity:1" d="M 856.103,142.081 837.934,142.081 z" id="boundary" inkscape:connector-curvature="0" />
	<path style="fill:none;stroke:red;stroke-width:1px;stroke-linecap:butt;stroke-linejoin:miter;stroke-opacity:1" d="M 837.934,142.081 819.766,147.531 z" id="boundary" inkscape:connector-curvature="0" />
	<path style="fill:none;stroke:red;stroke-width:1px;stroke-linecap:butt;stroke-linejoin:miter;stroke-opacity:1" d="M 819.766,147.531 801.597,151.165 z" id="boundary" inkscape:connector-curvature="0" />
	<path style="fill:none;stroke:red;stroke-width:1px;stroke-linecap:butt;stroke-linejoin:miter;stroke-opacity:1" d="M 801.597,151.165 783.429,151.165 z" id="boundary" inkscape:connector-curvature="0" />
	<path style="fill:none;stroke:red;stroke-width:1px;stroke-linecap:butt;stroke-linejoin:miter;stroke-opacity:1" d="M 783.429,151.165 765.26,156.615 z" id="boundary" inkscape:connector-curvature="0" />
	<path style="fill:none;stroke:red;stroke-width:1px;stroke-linecap:butt;stroke-linejoin:miter;stroke-opacity:1" d="M 765.26,156.615 747.092,160.249 z" id="boundary" inkscape:connector-curvature="0" />
	<path style="fill:none;stroke:red;stroke-width:1px;stroke-linecap:butt;stroke-linejoin:miter;stroke-opacity:1" d="M 747.092,160.249 728.923,160.249 z" id="boundary" inkscape:connector-curvature="0" />
	<path style="fill:none;stroke:red;stroke-width:1px;stroke-linecap:butt;stroke-linejoin:miter;stroke-opacity:1" d="M 728.923,160.249 712.571,169.333 z" id="boundary" inkscape:connector-curvature="0" />
	<path style="fill:none;stroke:red;stroke-width:1px;stroke-linecap:butt;stroke-linejoin:miter;stroke-opacity:1" d="M 712.571,169.333 694.403,169.333 z" id="boundary" inkscape:connector-curvature="0" />
	<path style="fill:none;stroke:red;stroke-width:1px;stroke-linecap:butt;stroke-linejoin:miter;stroke-opacity:1" d="M 694.403,169.333 676.234,169.333 z" id="boundary" inkscape:connector-curvature="0" />
	<path style="fill:none;stroke:red;stroke-width:1px;stroke-linecap:butt;stroke-linejoin:miter;stroke-opacity:1" d="M 676.234,169.333 659.883,178.418 z" id="boundary" inkscape:connector-curvature="0" />
	<path style="fill:none;stroke:red;stroke-width:1px;stroke-linecap:butt;stroke-linejoin:miter;stroke-opacity:1" d="M 659.883,178.418 641.714,178.418 z" id="boundary" inkscape:connector-curvature="0" />
	<path style="fill:none;stroke:red;stroke-width:1px;stroke-linecap:butt;stroke-linejoin:miter;stroke-opacity:1" d="M 641.714,178.418 623.546,178.418 z" id="boundary" inkscape:connector-curvature="0" />
	<path style="fill:none;stroke:red;stroke-width:1px;stroke-linecap:butt;stroke-linejoin:miter;stroke-opacity:1" d="M 623.546,178.418 607.194,187.502 z" id="boundary" inkscape:connector-curvature="0" />
	<path style="fill:none;stroke:red;stroke-width:1px;stroke-linecap:butt;stroke-linejoin:miter;stroke-opacity:1" d="M 607.194,187.502 589.026,187.502 z" id="boundary" inkscape:connector-curvature="0" />
	<path style="fill:none;stroke:red;stroke-width:1px;stroke-linecap:butt;stroke-linejoin:miter;stroke-opacity:1" d="M 589.026,187.502 570.857,187.502 z" id="boundary" inkscape:connector-curvature="0" />
	<path style="fill:none;stroke:red;stroke-width:1px;stroke-linecap:butt;stroke-linejoin:miter;stroke-opacity:1" d="M 570.857,187.502 554.505,196.586 z" id="boundary" inkscape:connector-curvature="0" />
	<path style="fill:none;stroke:red;stroke-width:1px;stroke-linecap:butt;stroke-linejoin:miter;stroke-opacity:1" d="M 554.505,196.586 536.337,196.586 z" id="boundary" inkscape:connector-curvature="0" />
	<path style="fill:none;stroke:red;stroke-width:1px;stroke-linecap:butt;stroke-linejoin:miter;stroke-opacity:1" d="M 536.337,196.586 518.168,196.586 z" id="boundary" inkscape:connector-curvature="0" />
	<path style="fill:none;stroke:red;stroke-width:1px;stroke-linecap:butt;stroke-linejoin:miter;stroke-opacity:1" d="M 518.168,196.586 501.817,205.67 z" id="boundary" inkscape:connector-curvature="0" />
	<path style="fill:none;stroke:red;stroke-width:1px;stroke-linecap:butt;stroke-linejoin:miter;stroke-opacity:1" d="M 501.817,205.67 483.648,205.67 z" id="boundary" inkscape:connector-curvature="0" />
	<path style="fill:none;stroke:red;stroke-width:1px;stroke-linecap:butt;stroke-linejoin:miter;stroke-opacity:1" d="M 483.648,205.67 465.48,205.67 z" id="boundary" inkscape:connector-curvature="0" />
	<path style="fill:none;stroke:red;stroke-width:1px;stroke-linecap:butt;stroke-linejoin:miter;stroke-opacity:1" d="M 465.48,205.67 449.128,214.755 z" id="boundary" inkscape:connector-curvature="0" />
	<path style="fill:none;stroke:red;stroke-width:1px;stroke-linecap:butt;stroke-linejoin:miter;stroke-opacity:1" d="M 449.128,214.755 430.96,214.755 z" id="boundary" inkscape:connector-curvature="0" />
	<path style="fill:none;stroke:red;stroke-width:1px;stroke-linecap:butt;stroke-linejoin:miter;stroke-opacity:1" d="M 430.96,214.755 412.791,218.388 z" id="boundary" inkscape:connector-curvature="0" />
	<path style="fill:none;stroke:red;stroke-width:1px;stroke-linecap:butt;stroke-linejoin:miter;stroke-opacity:1" d="M 412.791,218.388 394.623,227.473 z" id="boundary" inkscape:connector-curvature="0" />
	<path style="fill:none;stroke:red;stroke-width:1px;stroke-linecap:butt;stroke-linejoin:miter;stroke-opacity:1" d="M 394.623,227.473 376.454,232.923 z" id="boundary" inkscape:connector-curvature="0" />
	<path style="fill:none;stroke:red;stroke-width:1px;stroke-linecap:butt;stroke-linejoin:miter;stroke-opacity:1" d="M 376.454,232.923 360.103,242.007 z" id="boundary" inkscape:connector-curvature="0" />
	<path style="fill:none;stroke:red;stroke-width:1px;stroke-linecap:butt;stroke-linejoin:miter;stroke-opacity:1" d="M 360.103,242.007 360.103,260.176 z" id="boundary" inkscape:connector-curvature="0" />
	<path style="fill:none;stroke:red;stroke-width:1px;stroke-linecap:butt;stroke-linejoin:miter;stroke-opacity:1" d="M 360.103,260.176 351.018,278.344 z" id="boundary" inkscape:connector-curvature="0" />
	<path style="fill:none;stroke:red;stroke-width:1px;stroke-linecap:butt;stroke-linejoin:miter;stroke-opacity:1" d="M 351.018,278.344 351.018,296.513 z" id="boundary" inkscape:connector-curvature="0" />
	<path style="fill:none;stroke:red;stroke-width:1px;stroke-linecap:butt;stroke-linejoin:miter;stroke-opacity:1" d="M 351.018,296.513 341.934,314.681 z" id="boundary" inkscape:connector-curvature="0" />
	<path style="fill:none;stroke:red;stroke-width:1px;stroke-linecap:butt;stroke-linejoin:miter;stroke-opacity:1" d="M 341.934,314.681 338.3,347.385 z" id="boundary" inkscape:connector-curvature="0" />
	<path style="fill:none;stroke:red;stroke-width:1px;stroke-linecap:butt;stroke-linejoin:miter;stroke-opacity:1" d="M 338.3,347.385 323.766,360.103 z" id="boundary" inkscape:connector-curvature="0" />
	<circle cx="4" cy="63.956" r="4" fill="#0" id="circle0"/>
	<circle cx="4" cy="82.1245" r="4" fill="#0" id="circle1"/>
	<circle cx="14.9011" cy="96.6593" r="4" fill="#0" id="circle2"/>
	<circle cx="22.1685" cy="58.5055" r="4" fill="#0" id="circle3"/>
	<circle cx="31.2527" cy="163.883" r="4" fill="#0" id="circle4"/>
	<circle cx="31.2527" cy="182.051" r="4" fill="#0" id="circle5"/>
	<circle cx="33.0696" cy="87.5751" r="4" fill="#0" id="circle6"/>
	<circle cx="38.5201" cy="49.4212" r="4" fill="#0" id="circle7"/>
	<circle cx="45.7875" cy="149.348" r="4" fill="#0" id="circle8"/>
	<circle cx="49.4212" cy="187.502" r="4" fill="#0" id="circle9"/>
	<circle cx="49.4212" cy="272.894" r="4" fill="#0" id="circle10"/>
	<circle cx="49.4212" cy="291.062" r="4" fill="#0" id="circle11"/>
	<circle cx="51.2381" cy="87.5751" r="4" fill="#0" id="circle12"/>
	<circle cx="56.6886" cy="49.4212" r="4" fill="#0" id="circle13"/>
	<circle cx="63.956" cy="149.348" r="4" fill="#0" id="circle14"/>
	<circle cx="67.5897" cy="187.502" r="4" fill="#0" id="circle15"/>
	<circle cx="67.5897" cy="263.81" r="4" fill="#0" id="circle16"/>
	<circle cx="67.5897" cy="296.513" r="4" fill="#0" id="circle17"/>
	<circle cx="67.5897" cy="427.326" r="4" fill="#0" id="circle18"/>
	<circle cx="69.4066" cy="87.5751" r="4" fill="#0" id="circle19"/>
	<circle cx="74.8571" cy="49.4212" r="4" fill="#0" id="circle20"/>
	<circle cx="76.674" cy="443.678" r="4" fill="#0" id="circle21"/>
	<circle cx="82.1245" cy="149.348" r="4" fill="#0" id="circle22"/>
	<circle cx="82.1245" cy="412.791" r="4" fill="#0" id="circle23"/>
	<circle cx="85.7582" cy="187.502" r="4" fill="#0" id="circle24"/>
	<circle cx="85.7582" cy="258.359" r="4" fill="#0" id="circle25"/>
	<circle cx="85.7582" cy="296.513" r="4" fill="#0" id="circle26"/>
	<circle cx="87.5751" cy="78.4908" r="4" fill="#0" id="circle27"/>
	<circle cx="91.2088" cy="40.337" r="4" fill="#0" id="circle28"/>
	<circle cx="94.8425" cy="450.945" r="4" fill="#0" id="circle29"/>
	<circle cx="98.4762" cy="140.264" r="4" fill="#0" id="circle30"/>
	<circle cx="100.293" cy="412.791" r="4" fill="#0" id="circle31"/>
	<circle cx="102.11" cy="178.418" r="4" fill="#0" id="circle32"/>
	<circle cx="102.11" cy="249.275" r="4" fill="#0" id="circle33"/>
	<circle cx="103.927" cy="291.062" r="4" fill="#0" id="circle34"/>
	<circle cx="105.744" cy="78.4908" r="4" fill="#0" id="circle35"/>
	<circle cx="109.377" cy="40.337" r="4" fill="#0" id="circle36"/>
	<circle cx="113.011" cy="445.495" r="4" fill="#0" id="circle37"/>
	<circle cx="116.645" cy="140.264" r="4" fill="#0" id="circle38"/>
	<circle cx="118.462" cy="403.707" r="4" fill="#0" id="circle39"/>
	<circle cx="120.278" cy="178.418" r="4" fill="#0" id="circle40"/>
	<circle cx="120.278" cy="249.275" r="4" fill="#0" id="circle41"/>
	<circle cx="122.095" cy="287.429" r="4" fill="#0" id="circle42"/>
	<circle cx="123.912" cy="78.4908" r="4" fill="#0" id="circle43"/>
	<circle cx="127.546" cy="40.337" r="4" fill="#0" id="circle44"/>
	<circle cx="131.179" cy="441.861" r="4" fill="#0" id="circle45"/>
	<circle cx="134.813" cy="140.264" r="4" fill="#0" id="circle46"/>
	<circle cx="136.63" cy="403.707" r="4" fill="#0" id="circle47"/>
	<circle cx="138.447" cy="174.784" r="4" fill="#0" id="circle48"/>
	<circle cx="138.447" cy="249.275" r="4" fill="#0" id="circle49"/>
	<circle cx="140.264" cy="69.4066" r="4" fill="#0" id="circle50"/>
	<circle cx="140.264" cy="287.429" r="4" fill="#0" id="circle51"/>
	<circle cx="143.897" cy="31.2527" r="4" fill="#0" id="circle52"/>
	<circle cx="149.348" cy="441.861" r="4" fill="#0" id="circle53"/>
	<circle cx="151.165" cy="131.179" r="4" fill="#0" id="circle54"/>
	<circle cx="154.799" cy="240.19" r="4" fill="#0" id="circle55"/>
	<circle cx="154.799" cy="403.707" r="4" fill="#0" id="circle56"/>
	<circle cx="156.615" cy="169.333" r="4" fill="#0" id="circle57"/>
	<circle cx="156.615" cy="278.344" r="4" fill="#0" id="circle58"/>
	<circle cx="158.432" cy="69.4066" r="4" fill="#0" id="circle59"/>
	<circle cx="162.066" cy="31.2527" r="4" fill="#0" id="circle60"/>
	<circle cx="167.516" cy="436.41" r="4" fill="#0" id="circle61"/>
	<circle cx="169.333" cy="131.179" r="4" fill="#0" id="circle62"/>
	<circle cx="171.15" cy="394.623" r="4" fill="#0" id="circle63"/>
	<circle cx="172.967" cy="240.19" r="4" fill="#0" id="circle64"/>
	<circle cx="174.784" cy="169.333" r="4" fill="#0" id="circle65"/>
	<circle cx="174.784" cy="278.344" r="4" fill="#0" id="circle66"/>
	<circle cx="176.601" cy="69.4066" r="4" fill="#0" id="circle67"/>
	<circle cx="180.234" cy="31.2527" r="4" fill="#0" id="circle68"/>
	<circle cx="185.685" cy="432.777" r="4" fill="#0" id="circle69"/>
	<circle cx="187.502" cy="131.179" r="4" fill="#0" id="circle70"/>
	<circle cx="189.319" cy="394.623" r="4" fill="#0" id="circle71"/>
	<circle cx="191.136" cy="240.19" r="4" fill="#0" id="circle72"/>
	<circle cx="192.952" cy="60.3223" r="4" fill="#0" id="circle73"/>
	<circle cx="192.952" cy="165.7" r="4" fill="#0" id="circle74"/>
	<circle cx="192.952" cy="278.344" r="4" fill="#0" id="circle75"/>
	<circle cx="196.586" cy="22.1685" r="4" fill="#0" id="circle76"/>
	<circle cx="203.853" cy="122.095" r="4" fill="#0" id="circle77"/>
	<circle cx="203.853" cy="432.777" r="4" fill="#0" id="circle78"/>
	<circle cx="207.487" cy="394.623" r="4" fill="#0" id="circle79"/>
	<circle cx="209.304" cy="231.106" r="4" fill="#0" id="circle80"/>
	<circle cx="209.304" cy="269.26" r="4" fill="#0" id="circle81"/>
	<circle cx="211.121" cy="60.3223" r="4" fill="#0" id="circle82"/>
	<circle cx="211.121" cy="160.249" r="4" fill="#0" id="circle83"/>
	<circle cx="214.755" cy="22.1685" r="4" fill="#0" id="circle84"/>
	<circle cx="220.205" cy="423.692" r="4" fill="#0" id="circle85"/>
	<circle cx="222.022" cy="122.095" r="4" fill="#0" id="circle86"/>
	<circle cx="223.839" cy="385.538" r="4" fill="#0" id="circle87"/>
	<circle cx="227.473" cy="231.106" r="4" fill="#0" id="circle88"/>
	<circle cx="227.473" cy="269.26" r="4" fill="#0" id="circle89"/>
	<circle cx="229.289" cy="60.3223" r="4" fill="#0" id="circle90"/>
	<circle cx="229.289" cy="160.249" r="4" fill="#0" id="circle91"/>
	<circle cx="232.923" cy="16.7179" r="4" fill="#0" id="circle92"/>
	<circle cx="238.374" cy="423.692" r="4" fill="#0" id="circle93"/>
	<circle cx="240.19" cy="118.462" r="4" fill="#0" id="circle94"/>
	<circle cx="242.007" cy="385.538" r="4" fill="#0" id="circle95"/>
	<circle cx="245.641" cy="51.2381" r="4" fill="#0" id="circle96"/>
	<circle cx="245.641" cy="231.106" r="4" fill="#0" id="circle97"/>
	<circle cx="245.641" cy="269.26" r="4" fill="#0" id="circle98"/>
	<circle cx="247.458" cy="156.615" r="4" fill="#0" id="circle99"/>
	<circle cx="251.092" cy="13.0842" r="4" fill="#0" id="circle100"/>
	<circle cx="256.542" cy="423.692" r="4" fill="#0" id="circle101"/>
	<circle cx="258.359" cy="65.7729" r="4" fill="#0" id="circle102"/>
	<circle cx="258.359" cy="113.011" r="4" fill="#0" id="circle103"/>
	<circle cx="260.176" cy="385.538" r="4" fill="#0" id="circle104"/>
	<circle cx="261.993" cy="222.022" r="4" fill="#0" id="circle105"/>
	<circle cx="261.993" cy="260.176" r="4" fill="#0" id="circle106"/>
	<circle cx="265.626" cy="151.165" r="4" fill="#0" id="circle107"/>
	<circle cx="267.443" cy="82.1245" r="4" fill="#0" id="circle108"/>
	<circle cx="269.26" cy="18.5348" r="4" fill="#0" id="circle109"/>
	<circle cx="272.894" cy="414.608" r="4" fill="#0" id="circle110"/>
	<circle cx="276.527" cy="98.4762" r="4" fill="#0" id="circle111"/>
	<circle cx="276.527" cy="376.454" r="4" fill="#0" id="circle112"/>
	<circle cx="280.161" cy="222.022" r="4" fill="#0" id="circle113"/>
	<circle cx="280.161" cy="260.176" r="4" fill="#0" id="circle114"/>
	<circle cx="283.795" cy="151.165" r="4" fill="#0" id="circle115"/>
	<circle cx="287.429" cy="22.1685" r="4" fill="#0" id="circle116"/>
	<circle cx="287.429" cy="361.919" r="4" fill="#0" id="circle117"/>
	<circle cx="291.062" cy="414.608" r="4" fill="#0" id="circle118"/>
	<circle cx="296.513" cy="38.5201" r="4" fill="#0" id="circle119"/>
	<circle cx="298.33" cy="222.022" r="4" fill="#0" id="circle120"/>
	<circle cx="298.33" cy="260.176" r="4" fill="#0" id="circle121"/>
	<circle cx="300.147" cy="142.081" r="4" fill="#0" id="circle122"/>
	<circle cx="303.78" cy="160.249" r="4" fill="#0" id="circle123"/>
	<circle cx="303.78" cy="309.231" r="4" fill="#0" id="circle124"/>
	<circle cx="303.78" cy="327.399" r="4" fill="#0" id="circle125"/>
	<circle cx="303.78" cy="345.568" r="4" fill="#0" id="circle126"/>
	<circle cx="305.597" cy="54.8718" r="4" fill="#0" id="circle127"/>
	<circle cx="309.231" cy="412.791" r="4" fill="#0" id="circle128"/>
	<circle cx="312.864" cy="176.601" r="4" fill="#0" id="circle129"/>
	<circle cx="312.864" cy="200.22" r="4" fill="#0" id="circle130"/>
	<circle cx="312.864" cy="271.077" r="4" fill="#0" id="circle131"/>
	<circle cx="312.864" cy="289.245" r="4" fill="#0" id="circle132"/>
	<circle cx="314.681" cy="71.2234" r="4" fill="#0" id="circle133"/>
	<circle cx="314.681" cy="251.092" r="4" fill="#0" id="circle134"/>
	<circle cx="318.315" cy="394.623" r="4" fill="#0" id="circle135"/>
	<circle cx="323.766" cy="360.103" r="4" fill="#0" id="circle136"/>
	<circle cx="325.582" cy="85.7582" r="4" fill="#0" id="circle137"/>
	<circle cx="332.85" cy="103.927" r="4" fill="#0" id="circle138"/>
	<circle cx="338.3" cy="347.385" r="4" fill="#0" id="circle139"/>
	<circle cx="341.934" cy="314.681" r="4" fill="#0" id="circle140"/>
	<circle cx="349.201" cy="113.011" r="4" fill="#0" id="circle141"/>
	<circle cx="351.018" cy="278.344" r="4" fill="#0" id="circle142"/>
	<circle cx="351.018" cy="296.513" r="4" fill="#0" id="circle143"/>
	<circle cx="360.103" cy="242.007" r="4" fill="#0" id="circle144"/>
	<circle cx="360.103" cy="260.176" r="4" fill="#0" id="circle145"/>
	<circle cx="365.553" cy="122.095" r="4" fill="#0" id="circle146"/>
	<circle cx="376.454" cy="232.923" r="4" fill="#0" id="circle147"/>
	<circle cx="383.722" cy="122.095" r="4" fill="#0" id="circle148"/>
	<circle cx="394.623" cy="227.473" r="4" fill="#0" id="circle149"/>
	<circle cx="401.89" cy="122.095" r="4" fill="#0" id="circle150"/>
	<circle cx="412.791" cy="218.388" r="4" fill="#0" id="circle151"/>
	<circle cx="418.242" cy="113.011" r="4" fill="#0" id="circle152"/>
	<circle cx="430.96" cy="214.755" r="4" fill="#0" id="circle153"/>
	<circle cx="436.41" cy="113.011" r="4" fill="#0" id="circle154"/>
	<circle cx="449.128" cy="214.755" r="4" fill="#0" id="circle155"/>
	<circle cx="454.579" cy="103.927" r="4" fill="#0" id="circle156"/>
	<circle cx="465.48" cy="205.67" r="4" fill="#0" id="circle157"/>
	<circle cx="472.747" cy="103.927" r="4" fill="#0" id="circle158"/>
	<circle cx="483.648" cy="205.67" r="4" fill="#0" id="circle159"/>
	<circle cx="490.916" cy="103.927" r="4" fill="#0" id="circle160"/>
	<circle cx="501.817" cy="205.67" r="4" fill="#0" id="circle161"/>
	<circle cx="509.084" cy="94.8425" r="4" fill="#0" id="circle162"/>
	<circle cx="518.168" cy="196.586" r="4" fill="#0" id="circle163"/>
	<circle cx="527.253" cy="94.8425" r="4" fill="#0" id="circle164"/>
	<circle cx="536.337" cy="196.586" r="4" fill="#0" id="circle165"/>
	<circle cx="545.421" cy="94.8425" r="4" fill="#0" id="circle166"/>
	<circle cx="554.505" cy="196.586" r="4" fill="#0" id="circle167"/>
	<circle cx="563.59" cy="85.7582" r="4" fill="#0" id="circle168"/>
	<circle cx="570.857" cy="187.502" r="4" fill="#0" id="circle169"/>
	<circle cx="581.758" cy="85.7582" r="4" fill="#0" id="circle170"/>
	<circle cx="589.026" cy="187.502" r="4" fill="#0" id="circle171"/>
	<circle cx="599.927" cy="85.7582" r="4" fill="#0" id="circle172"/>
	<circle cx="607.194" cy="187.502" r="4" fill="#0" id="circle173"/>
	<circle cx="616.278" cy="76.674" r="4" fill="#0" id="circle174"/>
	<circle cx="623.546" cy="178.418" r="4" fill="#0" id="circle175"/>
	<circle cx="634.447" cy="76.674" r="4" fill="#0" id="circle176"/>
	<circle cx="641.714" cy="178.418" r="4" fill="#0" id="circle177"/>
	<circle cx="652.615" cy="76.674" r="4" fill="#0" id="circle178"/>
	<circle cx="659.883" cy="178.418" r="4" fill="#0" id="circle179"/>
	<circle cx="668.967" cy="67.5897" r="4" fill="#0" id="circle180"/>
	<circle cx="676.234" cy="169.333" r="4" fill="#0" id="circle181"/>
	<circle cx="687.136" cy="67.5897" r="4" fill="#0" id="circle182"/>
	<circle cx="694.403" cy="169.333" r="4" fill="#0" id="circle183"/>
	<circle cx="705.304" cy="67.5897" r="4" fill="#0" id="circle184"/>
	<circle cx="712.571" cy="169.333" r="4" fill="#0" id="circle185"/>
	<circle cx="721.656" cy="58.5055" r="4" fill="#0" id="circle186"/>
	<circle cx="728.923" cy="160.249" r="4" fill="#0" id="circle187"/>
	<circle cx="739.824" cy="58.5055" r="4" fill="#0" id="circle188"/>
	<circle cx="747.092" cy="160.249" r="4" fill="#0" id="circle189"/>
	<circle cx="757.993" cy="54.8718" r="4" fill="#0" id="circle190"/>
	<circle cx="765.26" cy="156.615" r="4" fill="#0" id="circle191"/>
	<circle cx="776.161" cy="49.4212" r="4" fill="#0" id="circle192"/>
	<circle cx="783.429" cy="151.165" r="4" fill="#0" id="circle193"/>
	<circle cx="794.33" cy="49.4212" r="4" fill="#0" id="circle194"/>
	<circle cx="801.597" cy="151.165" r="4" fill="#0" id="circle195"/>
	<circle cx="812.498" cy="45.7875" r="4" fill="#0" id="circle196"/>
	<circle cx="819.766" cy="147.531" r="4" fill="#0" id="circle197"/>
	<circle cx="830.667" cy="40.337" r="4" fill="#0" id="circle198"/>
	<circle cx="837.934" cy="142.081" r="4" fill="#0" id="circle199"/>
	<circle cx="848.835" cy="40.337" r="4" fill="#0" id="circle200"/>
	<circle cx="856.103" cy="142.081" r="4" fill="#0" id="circle201"/>
	<circle cx="867.004" cy="36.7033" r="4" fill="#0" id="circle202"/>
	<circle cx="874.271" cy="138.447" r="4" fill="#0" id="circle203"/>
	<circle cx="885.172" cy="31.2527" r="4" fill="#0" id="circle204"/>
	<circle cx="892.44" cy="132.996" r="4" fill="#0" id="circle205"/>
	<circle cx="903.341" cy="31.2527" r="4" fill="#0" id="circle206"/>
	<circle cx="910.608" cy="132.996" r="4" fill="#0" id="circle207"/>
	<circle cx="919.692" cy="22.1685" r="4" fill="#0" id="circle208"/>
	<circle cx="926.96" cy="4" r="4" fill="#0" id="circle209"/>
	<circle cx="926.96" cy="123.912" r="4" fill="#0" id="circle210"/>
	<circle cx="945.128" cy="4" r="4" fill="#0" id="circle211"/>
	<circle cx="945.128" cy="123.912" r="4" fill="#0" id="circle212"/>
	<circle cx="954.212" cy="140.264" r="4" fill="#0" id="circle213"/>
	<circle cx="963.297" cy="4" r="4" fill="#0" id="circle214"/>
	<circle cx="972.381" cy="140.264" r="4" fill="#0" id="circle215"/>
	<circle cx="979.648" cy="13.0842" r="4" fill="#0" id="circle216"/>
	<circle cx="986.916" cy="31.2527" r="4" fill="#0" id="circle217"/>
	<circle cx="986.916" cy="49.4212" r="4" fill="#0" id="circle218"/>
	<circle cx="986.916" cy="67.5897" r="4" fill="#0" id="circle219"/>
	<circle cx="990.549" cy="132.996" r="4" fill="#0" id="circle220"/>
	<circle cx="996" cy="83.9414" r="4" fill="#0" id="circle221"/>
	<circle cx="996" cy="102.11" r="4" fill="#0" id="circle222"/>
	</g>
</svg>