<?xml version="1.0" encoding="UTF-8" standalone="no"?>
<!-- Created with CurveBenchmark -->
<svg
	xmlns:dc="http://purl.org/dc/elements/1.1/"
	xmlns:cc="http://creativecommons.org/ns#"
	xmlns:rdf="http://www.w3.org/1999/02/22-rdf-syntax-ns#"
	xmlns:svg="http://www.w3.org/2000/svg"
	xmlns="http://www.w3.org/2000/svg"
	xmlns:sodipodi="http://sodipodi.sourceforge.net/DTD/sodipodi-0.dtd"
	xmlns:inkscape="http://www.inkscape.org/namespaces/inkscape"
	width="1000"
	height="1000"
	id="svg2"
	version="1.1"
	sodipodi:docname="manifold/crawl-octopus-15.png.txt">
<defs
	id="defs4" />
<metadata
	id="metadata7">
	<rdf:RDF>
		<cc:Work
			rdf:about="">
			<dc:format>image/svg+xml</dc:format>
			<dc:type
				rdf:resource="http://purl.org/dc/dcmitype/StillImage" />
			<dc:title></dc:title>
		</cc:Work>
	</rdf:RDF>
</metadata>
<g
	inkscape:label="Layer 1"
	inkscape:groupmode="layer"
	id="layer1">
	<path style="fill:none;stroke:red;stroke-width:1px;stroke-linecap:butt;stroke-linejoin:miter;stroke-opacity:1" d="M 31.9875,136.163 16.4389,136.163 z" id="boundary" inkscape:connector-curvature="0" />
	<path style="fill:none;stroke:red;stroke-width:1px;stroke-linecap:butt;stroke-linejoin:miter;stroke-opacity:1" d="M 31.9875,136.163 47.5361,128.389 z" id="boundary" inkscape:connector-curvature="0" />
	<path style="fill:none;stroke:red;stroke-width:1px;stroke-linecap:butt;stroke-linejoin:miter;stroke-opacity:1" d="M 47.5361,128.389 63.0846,128.389 z" id="boundary" inkscape:connector-curvature="0" />
	<path style="fill:none;stroke:red;stroke-width:1px;stroke-linecap:butt;stroke-linejoin:miter;stroke-opacity:1" d="M 63.0846,128.389 77.0784,120.614 z" id="boundary" inkscape:connector-curvature="0" />
	<path style="fill:none;stroke:red;stroke-width:1px;stroke-linecap:butt;stroke-linejoin:miter;stroke-opacity:1" d="M 77.0784,120.614 92.627,120.614 z" id="boundary" inkscape:connector-curvature="0" />
	<path style="fill:none;stroke:red;stroke-width:1px;stroke-linecap:butt;stroke-linejoin:miter;stroke-opacity:1" d="M 92.627,120.614 108.176,120.614 z" id="boundary" inkscape:connector-curvature="0" />
	<path style="fill:none;stroke:red;stroke-width:1px;stroke-linecap:butt;stroke-linejoin:miter;stroke-opacity:1" d="M 108.176,120.614 123.724,120.614 z" id="boundary" inkscape:connector-curvature="0" />
	<path style="fill:none;stroke:red;stroke-width:1px;stroke-linecap:butt;stroke-linejoin:miter;stroke-opacity:1" d="M 123.724,120.614 139.273,120.614 z" id="boundary" inkscape:connector-curvature="0" />
	<path style="fill:none;stroke:red;stroke-width:1px;stroke-linecap:butt;stroke-linejoin:miter;stroke-opacity:1" d="M 139.273,120.614 154.821,120.614 z" id="boundary" inkscape:connector-curvature="0" />
	<path style="fill:none;stroke:red;stroke-width:1px;stroke-linecap:butt;stroke-linejoin:miter;stroke-opacity:1" d="M 154.821,120.614 170.37,120.614 z" id="boundary" inkscape:connector-curvature="0" />
	<path style="fill:none;stroke:red;stroke-width:1px;stroke-linecap:butt;stroke-linejoin:miter;stroke-opacity:1" d="M 170.37,120.614 185.918,120.614 z" id="boundary" inkscape:connector-curvature="0" />
	<path style="fill:none;stroke:red;stroke-width:1px;stroke-linecap:butt;stroke-linejoin:miter;stroke-opacity:1" d="M 185.918,120.614 201.467,120.614 z" id="boundary" inkscape:connector-curvature="0" />
	<path style="fill:none;stroke:red;stroke-width:1px;stroke-linecap:butt;stroke-linejoin:miter;stroke-opacity:1" d="M 201.467,120.614 217.016,120.614 z" id="boundary" inkscape:connector-curvature="0" />
	<path style="fill:none;stroke:red;stroke-width:1px;stroke-linecap:butt;stroke-linejoin:miter;stroke-opacity:1" d="M 217.016,120.614 232.564,120.614 z" id="boundary" inkscape:connector-curvature="0" />
	<path style="fill:none;stroke:red;stroke-width:1px;stroke-linecap:butt;stroke-linejoin:miter;stroke-opacity:1" d="M 232.564,120.614 248.113,120.614 z" id="boundary" inkscape:connector-curvature="0" />
	<path style="fill:none;stroke:red;stroke-width:1px;stroke-linecap:butt;stroke-linejoin:miter;stroke-opacity:1" d="M 248.113,120.614 262.107,128.389 z" id="boundary" inkscape:connector-curvature="0" />
	<path style="fill:none;stroke:red;stroke-width:1px;stroke-linecap:butt;stroke-linejoin:miter;stroke-opacity:1" d="M 16.4389,136.163 4,148.602 z" id="boundary" inkscape:connector-curvature="0" />
	<path style="fill:none;stroke:red;stroke-width:1px;stroke-linecap:butt;stroke-linejoin:miter;stroke-opacity:1" d="M 4,148.602 4,164.15 z" id="boundary" inkscape:connector-curvature="0" />
	<path style="fill:none;stroke:red;stroke-width:1px;stroke-linecap:butt;stroke-linejoin:miter;stroke-opacity:1" d="M 4,164.15 4,179.699 z" id="boundary" inkscape:connector-curvature="0" />
	<path style="fill:none;stroke:red;stroke-width:1px;stroke-linecap:butt;stroke-linejoin:miter;stroke-opacity:1" d="M 4,179.699 4,195.248 z" id="boundary" inkscape:connector-curvature="0" />
	<path style="fill:none;stroke:red;stroke-width:1px;stroke-linecap:butt;stroke-linejoin:miter;stroke-opacity:1" d="M 4,195.248 11.7743,209.241 z" id="boundary" inkscape:connector-curvature="0" />
	<path style="fill:none;stroke:red;stroke-width:1px;stroke-linecap:butt;stroke-linejoin:miter;stroke-opacity:1" d="M 11.7743,209.241 11.7743,224.79 z" id="boundary" inkscape:connector-curvature="0" />
	<path style="fill:none;stroke:red;stroke-width:1px;stroke-linecap:butt;stroke-linejoin:miter;stroke-opacity:1" d="M 11.7743,224.79 11.7743,240.339 z" id="boundary" inkscape:connector-curvature="0" />
	<path style="fill:none;stroke:red;stroke-width:1px;stroke-linecap:butt;stroke-linejoin:miter;stroke-opacity:1" d="M 11.7743,240.339 11.7743,255.887 z" id="boundary" inkscape:connector-curvature="0" />
	<path style="fill:none;stroke:red;stroke-width:1px;stroke-linecap:butt;stroke-linejoin:miter;stroke-opacity:1" d="M 11.7743,255.887 19.5486,269.881 z" id="boundary" inkscape:connector-curvature="0" />
	<path style="fill:none;stroke:red;stroke-width:1px;stroke-linecap:butt;stroke-linejoin:miter;stroke-opacity:1" d="M 19.5486,269.881 33.5423,262.107 z" id="boundary" inkscape:connector-curvature="0" />
	<path style="fill:none;stroke:red;stroke-width:1px;stroke-linecap:butt;stroke-linejoin:miter;stroke-opacity:1" d="M 33.5423,262.107 47.5361,252.777 z" id="boundary" inkscape:connector-curvature="0" />
	<path style="fill:none;stroke:red;stroke-width:1px;stroke-linecap:butt;stroke-linejoin:miter;stroke-opacity:1" d="M 47.5361,252.777 63.0846,246.558 z" id="boundary" inkscape:connector-curvature="0" />
	<path style="fill:none;stroke:red;stroke-width:1px;stroke-linecap:butt;stroke-linejoin:miter;stroke-opacity:1" d="M 63.0846,246.558 78.6332,245.003 z" id="boundary" inkscape:connector-curvature="0" />
	<path style="fill:none;stroke:red;stroke-width:1px;stroke-linecap:butt;stroke-linejoin:miter;stroke-opacity:1" d="M 78.6332,245.003 94.1818,238.784 z" id="boundary" inkscape:connector-curvature="0" />
	<path style="fill:none;stroke:red;stroke-width:1px;stroke-linecap:butt;stroke-linejoin:miter;stroke-opacity:1" d="M 94.1818,238.784 109.73,238.784 z" id="boundary" inkscape:connector-curvature="0" />
	<path style="fill:none;stroke:red;stroke-width:1px;stroke-linecap:butt;stroke-linejoin:miter;stroke-opacity:1" d="M 109.73,238.784 125.279,238.784 z" id="boundary" inkscape:connector-curvature="0" />
	<path style="fill:none;stroke:red;stroke-width:1px;stroke-linecap:butt;stroke-linejoin:miter;stroke-opacity:1" d="M 125.279,238.784 140.828,238.784 z" id="boundary" inkscape:connector-curvature="0" />
	<path style="fill:none;stroke:red;stroke-width:1px;stroke-linecap:butt;stroke-linejoin:miter;stroke-opacity:1" d="M 140.828,238.784 156.376,238.784 z" id="boundary" inkscape:connector-curvature="0" />
	<path style="fill:none;stroke:red;stroke-width:1px;stroke-linecap:butt;stroke-linejoin:miter;stroke-opacity:1" d="M 156.376,238.784 171.925,238.784 z" id="boundary" inkscape:connector-curvature="0" />
	<path style="fill:none;stroke:red;stroke-width:1px;stroke-linecap:butt;stroke-linejoin:miter;stroke-opacity:1" d="M 171.925,238.784 187.473,238.784 z" id="boundary" inkscape:connector-curvature="0" />
	<path style="fill:none;stroke:red;stroke-width:1px;stroke-linecap:butt;stroke-linejoin:miter;stroke-opacity:1" d="M 187.473,238.784 203.022,238.784 z" id="boundary" inkscape:connector-curvature="0" />
	<path style="fill:none;stroke:red;stroke-width:1px;stroke-linecap:butt;stroke-linejoin:miter;stroke-opacity:1" d="M 203.022,238.784 218.571,238.784 z" id="boundary" inkscape:connector-curvature="0" />
	<path style="fill:none;stroke:red;stroke-width:1px;stroke-linecap:butt;stroke-linejoin:miter;stroke-opacity:1" d="M 218.571,238.784 221.68,254.332 z" id="boundary" inkscape:connector-curvature="0" />
	<path style="fill:none;stroke:red;stroke-width:1px;stroke-linecap:butt;stroke-linejoin:miter;stroke-opacity:1" d="M 262.107,128.389 276.1,117.505 z" id="boundary" inkscape:connector-curvature="0" />
	<path style="fill:none;stroke:red;stroke-width:1px;stroke-linecap:butt;stroke-linejoin:miter;stroke-opacity:1" d="M 276.1,117.505 288.539,105.066 z" id="boundary" inkscape:connector-curvature="0" />
	<path style="fill:none;stroke:red;stroke-width:1px;stroke-linecap:butt;stroke-linejoin:miter;stroke-opacity:1" d="M 288.539,105.066 300.978,92.627 z" id="boundary" inkscape:connector-curvature="0" />
	<path style="fill:none;stroke:red;stroke-width:1px;stroke-linecap:butt;stroke-linejoin:miter;stroke-opacity:1" d="M 300.978,92.627 313.417,81.7429 z" id="boundary" inkscape:connector-curvature="0" />
	<path style="fill:none;stroke:red;stroke-width:1px;stroke-linecap:butt;stroke-linejoin:miter;stroke-opacity:1" d="M 313.417,81.7429 327.411,73.9687 z" id="boundary" inkscape:connector-curvature="0" />
	<path style="fill:none;stroke:red;stroke-width:1px;stroke-linecap:butt;stroke-linejoin:miter;stroke-opacity:1" d="M 327.411,73.9687 339.85,61.5298 z" id="boundary" inkscape:connector-curvature="0" />
	<path style="fill:none;stroke:red;stroke-width:1px;stroke-linecap:butt;stroke-linejoin:miter;stroke-opacity:1" d="M 339.85,61.5298 352.288,50.6458 z" id="boundary" inkscape:connector-curvature="0" />
	<path style="fill:none;stroke:red;stroke-width:1px;stroke-linecap:butt;stroke-linejoin:miter;stroke-opacity:1" d="M 352.288,50.6458 366.282,42.8715 z" id="boundary" inkscape:connector-curvature="0" />
	<path style="fill:none;stroke:red;stroke-width:1px;stroke-linecap:butt;stroke-linejoin:miter;stroke-opacity:1" d="M 366.282,42.8715 381.831,35.0972 z" id="boundary" inkscape:connector-curvature="0" />
	<path style="fill:none;stroke:red;stroke-width:1px;stroke-linecap:butt;stroke-linejoin:miter;stroke-opacity:1" d="M 381.831,35.0972 397.379,27.3229 z" id="boundary" inkscape:connector-curvature="0" />
	<path style="fill:none;stroke:red;stroke-width:1px;stroke-linecap:butt;stroke-linejoin:miter;stroke-opacity:1" d="M 397.379,27.3229 412.928,19.5486 z" id="boundary" inkscape:connector-curvature="0" />
	<path style="fill:none;stroke:red;stroke-width:1px;stroke-linecap:butt;stroke-linejoin:miter;stroke-opacity:1" d="M 412.928,19.5486 428.476,19.5486 z" id="boundary" inkscape:connector-curvature="0" />
	<path style="fill:none;stroke:red;stroke-width:1px;stroke-linecap:butt;stroke-linejoin:miter;stroke-opacity:1" d="M 428.476,19.5486 442.47,11.7743 z" id="boundary" inkscape:connector-curvature="0" />
	<path style="fill:none;stroke:red;stroke-width:1px;stroke-linecap:butt;stroke-linejoin:miter;stroke-opacity:1" d="M 442.47,11.7743 458.019,11.7743 z" id="boundary" inkscape:connector-curvature="0" />
	<path style="fill:none;stroke:red;stroke-width:1px;stroke-linecap:butt;stroke-linejoin:miter;stroke-opacity:1" d="M 458.019,11.7743 473.567,5.55486 z" id="boundary" inkscape:connector-curvature="0" />
	<path style="fill:none;stroke:red;stroke-width:1px;stroke-linecap:butt;stroke-linejoin:miter;stroke-opacity:1" d="M 473.567,5.55486 489.116,4 z" id="boundary" inkscape:connector-curvature="0" />
	<path style="fill:none;stroke:red;stroke-width:1px;stroke-linecap:butt;stroke-linejoin:miter;stroke-opacity:1" d="M 489.116,4 504.665,4 z" id="boundary" inkscape:connector-curvature="0" />
	<path style="fill:none;stroke:red;stroke-width:1px;stroke-linecap:butt;stroke-linejoin:miter;stroke-opacity:1" d="M 504.665,4 520.213,4 z" id="boundary" inkscape:connector-curvature="0" />
	<path style="fill:none;stroke:red;stroke-width:1px;stroke-linecap:butt;stroke-linejoin:miter;stroke-opacity:1" d="M 520.213,4 535.762,4 z" id="boundary" inkscape:connector-curvature="0" />
	<path style="fill:none;stroke:red;stroke-width:1px;stroke-linecap:butt;stroke-linejoin:miter;stroke-opacity:1" d="M 535.762,4 551.31,4 z" id="boundary" inkscape:connector-curvature="0" />
	<path style="fill:none;stroke:red;stroke-width:1px;stroke-linecap:butt;stroke-linejoin:miter;stroke-opacity:1" d="M 551.31,4 566.859,4 z" id="boundary" inkscape:connector-curvature="0" />
	<path style="fill:none;stroke:red;stroke-width:1px;stroke-linecap:butt;stroke-linejoin:miter;stroke-opacity:1" d="M 566.859,4 580.853,11.7743 z" id="boundary" inkscape:connector-curvature="0" />
	<path style="fill:none;stroke:red;stroke-width:1px;stroke-linecap:butt;stroke-linejoin:miter;stroke-opacity:1" d="M 580.853,11.7743 596.401,11.7743 z" id="boundary" inkscape:connector-curvature="0" />
	<path style="fill:none;stroke:red;stroke-width:1px;stroke-linecap:butt;stroke-linejoin:miter;stroke-opacity:1" d="M 596.401,11.7743 611.95,16.4389 z" id="boundary" inkscape:connector-curvature="0" />
	<path style="fill:none;stroke:red;stroke-width:1px;stroke-linecap:butt;stroke-linejoin:miter;stroke-opacity:1" d="M 611.95,16.4389 627.498,19.5486 z" id="boundary" inkscape:connector-curvature="0" />
	<path style="fill:none;stroke:red;stroke-width:1px;stroke-linecap:butt;stroke-linejoin:miter;stroke-opacity:1" d="M 627.498,19.5486 641.492,27.3229 z" id="boundary" inkscape:connector-curvature="0" />
	<path style="fill:none;stroke:red;stroke-width:1px;stroke-linecap:butt;stroke-linejoin:miter;stroke-opacity:1" d="M 641.492,27.3229 655.486,35.0972 z" id="boundary" inkscape:connector-curvature="0" />
	<path style="fill:none;stroke:red;stroke-width:1px;stroke-linecap:butt;stroke-linejoin:miter;stroke-opacity:1" d="M 655.486,35.0972 669.48,42.8715 z" id="boundary" inkscape:connector-curvature="0" />
	<path style="fill:none;stroke:red;stroke-width:1px;stroke-linecap:butt;stroke-linejoin:miter;stroke-opacity:1" d="M 669.48,42.8715 683.473,50.6458 z" id="boundary" inkscape:connector-curvature="0" />
	<path style="fill:none;stroke:red;stroke-width:1px;stroke-linecap:butt;stroke-linejoin:miter;stroke-opacity:1" d="M 683.473,50.6458 697.467,58.4201 z" id="boundary" inkscape:connector-curvature="0" />
	<path style="fill:none;stroke:red;stroke-width:1px;stroke-linecap:butt;stroke-linejoin:miter;stroke-opacity:1" d="M 697.467,58.4201 709.906,67.7492 z" id="boundary" inkscape:connector-curvature="0" />
	<path style="fill:none;stroke:red;stroke-width:1px;stroke-linecap:butt;stroke-linejoin:miter;stroke-opacity:1" d="M 709.906,67.7492 723.9,75.5235 z" id="boundary" inkscape:connector-curvature="0" />
	<path style="fill:none;stroke:red;stroke-width:1px;stroke-linecap:butt;stroke-linejoin:miter;stroke-opacity:1" d="M 723.9,75.5235 736.339,86.4075 z" id="boundary" inkscape:connector-curvature="0" />
	<path style="fill:none;stroke:red;stroke-width:1px;stroke-linecap:butt;stroke-linejoin:miter;stroke-opacity:1" d="M 736.339,86.4075 747.223,98.8464 z" id="boundary" inkscape:connector-curvature="0" />
	<path style="fill:none;stroke:red;stroke-width:1px;stroke-linecap:butt;stroke-linejoin:miter;stroke-opacity:1" d="M 747.223,98.8464 759.661,109.73 z" id="boundary" inkscape:connector-curvature="0" />
	<path style="fill:none;stroke:red;stroke-width:1px;stroke-linecap:butt;stroke-linejoin:miter;stroke-opacity:1" d="M 759.661,109.73 767.436,123.724 z" id="boundary" inkscape:connector-curvature="0" />
	<path style="fill:none;stroke:red;stroke-width:1px;stroke-linecap:butt;stroke-linejoin:miter;stroke-opacity:1" d="M 767.436,123.724 776.765,136.163 z" id="boundary" inkscape:connector-curvature="0" />
	<path style="fill:none;stroke:red;stroke-width:1px;stroke-linecap:butt;stroke-linejoin:miter;stroke-opacity:1" d="M 776.765,136.163 792.313,136.163 z" id="boundary" inkscape:connector-curvature="0" />
	<path style="fill:none;stroke:red;stroke-width:1px;stroke-linecap:butt;stroke-linejoin:miter;stroke-opacity:1" d="M 792.313,136.163 807.862,136.163 z" id="boundary" inkscape:connector-curvature="0" />
	<path style="fill:none;stroke:red;stroke-width:1px;stroke-linecap:butt;stroke-linejoin:miter;stroke-opacity:1" d="M 807.862,136.163 823.411,136.163 z" id="boundary" inkscape:connector-curvature="0" />
	<path style="fill:none;stroke:red;stroke-width:1px;stroke-linecap:butt;stroke-linejoin:miter;stroke-opacity:1" d="M 823.411,136.163 837.404,143.937 z" id="boundary" inkscape:connector-curvature="0" />
	<path style="fill:none;stroke:red;stroke-width:1px;stroke-linecap:butt;stroke-linejoin:miter;stroke-opacity:1" d="M 837.404,143.937 852.953,143.937 z" id="boundary" inkscape:connector-curvature="0" />
	<path style="fill:none;stroke:red;stroke-width:1px;stroke-linecap:butt;stroke-linejoin:miter;stroke-opacity:1" d="M 852.953,143.937 866.947,151.712 z" id="boundary" inkscape:connector-curvature="0" />
	<path style="fill:none;stroke:red;stroke-width:1px;stroke-linecap:butt;stroke-linejoin:miter;stroke-opacity:1" d="M 866.947,151.712 882.495,151.712 z" id="boundary" inkscape:connector-curvature="0" />
	<path style="fill:none;stroke:red;stroke-width:1px;stroke-linecap:butt;stroke-linejoin:miter;stroke-opacity:1" d="M 882.495,151.712 896.489,159.486 z" id="boundary" inkscape:connector-curvature="0" />
	<path style="fill:none;stroke:red;stroke-width:1px;stroke-linecap:butt;stroke-linejoin:miter;stroke-opacity:1" d="M 896.489,159.486 912.038,161.041 z" id="boundary" inkscape:connector-curvature="0" />
	<path style="fill:none;stroke:red;stroke-width:1px;stroke-linecap:butt;stroke-linejoin:miter;stroke-opacity:1" d="M 912.038,161.041 926.031,168.815 z" id="boundary" inkscape:connector-curvature="0" />
	<path style="fill:none;stroke:red;stroke-width:1px;stroke-linecap:butt;stroke-linejoin:miter;stroke-opacity:1" d="M 926.031,168.815 938.47,179.699 z" id="boundary" inkscape:connector-curvature="0" />
	<path style="fill:none;stroke:red;stroke-width:1px;stroke-linecap:butt;stroke-linejoin:miter;stroke-opacity:1" d="M 938.47,179.699 952.464,187.473 z" id="boundary" inkscape:connector-curvature="0" />
	<path style="fill:none;stroke:red;stroke-width:1px;stroke-linecap:butt;stroke-linejoin:miter;stroke-opacity:1" d="M 952.464,187.473 968.013,193.693 z" id="boundary" inkscape:connector-curvature="0" />
	<path style="fill:none;stroke:red;stroke-width:1px;stroke-linecap:butt;stroke-linejoin:miter;stroke-opacity:1" d="M 968.013,193.693 983.561,198.357 z" id="boundary" inkscape:connector-curvature="0" />
	<path style="fill:none;stroke:red;stroke-width:1px;stroke-linecap:butt;stroke-linejoin:miter;stroke-opacity:1" d="M 983.561,198.357 996,207.687 z" id="boundary" inkscape:connector-curvature="0" />
	<path style="fill:none;stroke:red;stroke-width:1px;stroke-linecap:butt;stroke-linejoin:miter;stroke-opacity:1" d="M 996,207.687 992.89,223.235 z" id="boundary" inkscape:connector-curvature="0" />
	<path style="fill:none;stroke:red;stroke-width:1px;stroke-linecap:butt;stroke-linejoin:miter;stroke-opacity:1" d="M 992.89,223.235 992.89,238.784 z" id="boundary" inkscape:connector-curvature="0" />
	<path style="fill:none;stroke:red;stroke-width:1px;stroke-linecap:butt;stroke-linejoin:miter;stroke-opacity:1" d="M 992.89,238.784 985.116,254.332 z" id="boundary" inkscape:connector-curvature="0" />
	<path style="fill:none;stroke:red;stroke-width:1px;stroke-linecap:butt;stroke-linejoin:miter;stroke-opacity:1" d="M 985.116,254.332 985.116,269.881 z" id="boundary" inkscape:connector-curvature="0" />
	<path style="fill:none;stroke:red;stroke-width:1px;stroke-linecap:butt;stroke-linejoin:miter;stroke-opacity:1" d="M 985.116,269.881 977.342,293.204 z" id="boundary" inkscape:connector-curvature="0" />
	<path style="fill:none;stroke:red;stroke-width:1px;stroke-linecap:butt;stroke-linejoin:miter;stroke-opacity:1" d="M 977.342,293.204 969.567,316.527 z" id="boundary" inkscape:connector-curvature="0" />
	<path style="fill:none;stroke:red;stroke-width:1px;stroke-linecap:butt;stroke-linejoin:miter;stroke-opacity:1" d="M 969.567,316.527 954.019,311.862 z" id="boundary" inkscape:connector-curvature="0" />
	<path style="fill:none;stroke:red;stroke-width:1px;stroke-linecap:butt;stroke-linejoin:miter;stroke-opacity:1" d="M 954.019,311.862 938.47,308.752 z" id="boundary" inkscape:connector-curvature="0" />
	<path style="fill:none;stroke:red;stroke-width:1px;stroke-linecap:butt;stroke-linejoin:miter;stroke-opacity:1" d="M 938.47,308.752 924.476,300.978 z" id="boundary" inkscape:connector-curvature="0" />
	<path style="fill:none;stroke:red;stroke-width:1px;stroke-linecap:butt;stroke-linejoin:miter;stroke-opacity:1" d="M 924.476,300.978 910.483,293.204 z" id="boundary" inkscape:connector-curvature="0" />
	<path style="fill:none;stroke:red;stroke-width:1px;stroke-linecap:butt;stroke-linejoin:miter;stroke-opacity:1" d="M 910.483,293.204 896.489,285.429 z" id="boundary" inkscape:connector-curvature="0" />
	<path style="fill:none;stroke:red;stroke-width:1px;stroke-linecap:butt;stroke-linejoin:miter;stroke-opacity:1" d="M 896.489,285.429 882.495,277.655 z" id="boundary" inkscape:connector-curvature="0" />
	<path style="fill:none;stroke:red;stroke-width:1px;stroke-linecap:butt;stroke-linejoin:miter;stroke-opacity:1" d="M 882.495,277.655 868.502,269.881 z" id="boundary" inkscape:connector-curvature="0" />
	<path style="fill:none;stroke:red;stroke-width:1px;stroke-linecap:butt;stroke-linejoin:miter;stroke-opacity:1" d="M 868.502,269.881 852.953,265.216 z" id="boundary" inkscape:connector-curvature="0" />
	<path style="fill:none;stroke:red;stroke-width:1px;stroke-linecap:butt;stroke-linejoin:miter;stroke-opacity:1" d="M 852.953,265.216 837.404,262.107 z" id="boundary" inkscape:connector-curvature="0" />
	<path style="fill:none;stroke:red;stroke-width:1px;stroke-linecap:butt;stroke-linejoin:miter;stroke-opacity:1" d="M 837.404,262.107 821.856,262.107 z" id="boundary" inkscape:connector-curvature="0" />
	<path style="fill:none;stroke:red;stroke-width:1px;stroke-linecap:butt;stroke-linejoin:miter;stroke-opacity:1" d="M 821.856,262.107 821.856,277.655 z" id="boundary" inkscape:connector-curvature="0" />
	<path style="fill:none;stroke:red;stroke-width:1px;stroke-linecap:butt;stroke-linejoin:miter;stroke-opacity:1" d="M 821.856,277.655 821.856,293.204 z" id="boundary" inkscape:connector-curvature="0" />
	<path style="fill:none;stroke:red;stroke-width:1px;stroke-linecap:butt;stroke-linejoin:miter;stroke-opacity:1" d="M 821.856,293.204 829.63,307.197 z" id="boundary" inkscape:connector-curvature="0" />
	<path style="fill:none;stroke:red;stroke-width:1px;stroke-linecap:butt;stroke-linejoin:miter;stroke-opacity:1" d="M 829.63,307.197 845.179,311.862 z" id="boundary" inkscape:connector-curvature="0" />
	<path style="fill:none;stroke:red;stroke-width:1px;stroke-linecap:butt;stroke-linejoin:miter;stroke-opacity:1" d="M 845.179,311.862 860.727,314.972 z" id="boundary" inkscape:connector-curvature="0" />
	<path style="fill:none;stroke:red;stroke-width:1px;stroke-linecap:butt;stroke-linejoin:miter;stroke-opacity:1" d="M 860.727,314.972 874.721,322.746 z" id="boundary" inkscape:connector-curvature="0" />
	<path style="fill:none;stroke:red;stroke-width:1px;stroke-linecap:butt;stroke-linejoin:miter;stroke-opacity:1" d="M 874.721,322.746 887.16,332.075 z" id="boundary" inkscape:connector-curvature="0" />
	<path style="fill:none;stroke:red;stroke-width:1px;stroke-linecap:butt;stroke-linejoin:miter;stroke-opacity:1" d="M 887.16,332.075 899.599,342.959 z" id="boundary" inkscape:connector-curvature="0" />
	<path style="fill:none;stroke:red;stroke-width:1px;stroke-linecap:butt;stroke-linejoin:miter;stroke-opacity:1" d="M 899.599,342.959 910.483,355.398 z" id="boundary" inkscape:connector-curvature="0" />
	<path style="fill:none;stroke:red;stroke-width:1px;stroke-linecap:butt;stroke-linejoin:miter;stroke-opacity:1" d="M 910.483,355.398 922.922,366.282 z" id="boundary" inkscape:connector-curvature="0" />
	<path style="fill:none;stroke:red;stroke-width:1px;stroke-linecap:butt;stroke-linejoin:miter;stroke-opacity:1" d="M 922.922,366.282 929.141,381.831 z" id="boundary" inkscape:connector-curvature="0" />
	<path style="fill:none;stroke:red;stroke-width:1px;stroke-linecap:butt;stroke-linejoin:miter;stroke-opacity:1" d="M 929.141,381.831 930.696,402.044 z" id="boundary" inkscape:connector-curvature="0" />
	<path style="fill:none;stroke:red;stroke-width:1px;stroke-linecap:butt;stroke-linejoin:miter;stroke-opacity:1" d="M 930.696,402.044 927.586,430.031 z" id="boundary" inkscape:connector-curvature="0" />
	<path style="fill:none;stroke:red;stroke-width:1px;stroke-linecap:butt;stroke-linejoin:miter;stroke-opacity:1" d="M 927.586,430.031 915.147,440.915 z" id="boundary" inkscape:connector-curvature="0" />
	<path style="fill:none;stroke:red;stroke-width:1px;stroke-linecap:butt;stroke-linejoin:miter;stroke-opacity:1" d="M 915.147,440.915 907.373,456.464 z" id="boundary" inkscape:connector-curvature="0" />
	<path style="fill:none;stroke:red;stroke-width:1px;stroke-linecap:butt;stroke-linejoin:miter;stroke-opacity:1" d="M 907.373,456.464 899.599,479.787 z" id="boundary" inkscape:connector-curvature="0" />
	<path style="fill:none;stroke:red;stroke-width:1px;stroke-linecap:butt;stroke-linejoin:miter;stroke-opacity:1" d="M 899.599,479.787 898.044,506.219 z" id="boundary" inkscape:connector-curvature="0" />
	<path style="fill:none;stroke:red;stroke-width:1px;stroke-linecap:butt;stroke-linejoin:miter;stroke-opacity:1" d="M 898.044,506.219 884.05,513.994 z" id="boundary" inkscape:connector-curvature="0" />
	<path style="fill:none;stroke:red;stroke-width:1px;stroke-linecap:butt;stroke-linejoin:miter;stroke-opacity:1" d="M 884.05,513.994 871.611,503.11 z" id="boundary" inkscape:connector-curvature="0" />
	<path style="fill:none;stroke:red;stroke-width:1px;stroke-linecap:butt;stroke-linejoin:miter;stroke-opacity:1" d="M 871.611,503.11 866.947,487.561 z" id="boundary" inkscape:connector-curvature="0" />
	<path style="fill:none;stroke:red;stroke-width:1px;stroke-linecap:butt;stroke-linejoin:miter;stroke-opacity:1" d="M 866.947,487.561 854.508,478.232 z" id="boundary" inkscape:connector-curvature="0" />
	<path style="fill:none;stroke:red;stroke-width:1px;stroke-linecap:butt;stroke-linejoin:miter;stroke-opacity:1" d="M 854.508,478.232 848.288,462.683 z" id="boundary" inkscape:connector-curvature="0" />
	<path style="fill:none;stroke:red;stroke-width:1px;stroke-linecap:butt;stroke-linejoin:miter;stroke-opacity:1" d="M 848.288,462.683 835.85,451.799 z" id="boundary" inkscape:connector-curvature="0" />
	<path style="fill:none;stroke:red;stroke-width:1px;stroke-linecap:butt;stroke-linejoin:miter;stroke-opacity:1" d="M 835.85,451.799 829.63,436.251 z" id="boundary" inkscape:connector-curvature="0" />
	<path style="fill:none;stroke:red;stroke-width:1px;stroke-linecap:butt;stroke-linejoin:miter;stroke-opacity:1" d="M 829.63,436.251 817.191,425.367 z" id="boundary" inkscape:connector-curvature="0" />
	<path style="fill:none;stroke:red;stroke-width:1px;stroke-linecap:butt;stroke-linejoin:miter;stroke-opacity:1" d="M 817.191,425.367 803.197,417.592 z" id="boundary" inkscape:connector-curvature="0" />
	<path style="fill:none;stroke:red;stroke-width:1px;stroke-linecap:butt;stroke-linejoin:miter;stroke-opacity:1" d="M 803.197,417.592 789.204,409.818 z" id="boundary" inkscape:connector-curvature="0" />
	<path style="fill:none;stroke:red;stroke-width:1px;stroke-linecap:butt;stroke-linejoin:miter;stroke-opacity:1" d="M 789.204,409.818 779.875,422.257 z" id="boundary" inkscape:connector-curvature="0" />
	<path style="fill:none;stroke:red;stroke-width:1px;stroke-linecap:butt;stroke-linejoin:miter;stroke-opacity:1" d="M 779.875,422.257 767.436,433.141 z" id="boundary" inkscape:connector-curvature="0" />
	<path style="fill:none;stroke:red;stroke-width:1px;stroke-linecap:butt;stroke-linejoin:miter;stroke-opacity:1" d="M 767.436,433.141 775.21,447.135 z" id="boundary" inkscape:connector-curvature="0" />
	<path style="fill:none;stroke:red;stroke-width:1px;stroke-linecap:butt;stroke-linejoin:miter;stroke-opacity:1" d="M 775.21,447.135 787.649,456.464 z" id="boundary" inkscape:connector-curvature="0" />
	<path style="fill:none;stroke:red;stroke-width:1px;stroke-linecap:butt;stroke-linejoin:miter;stroke-opacity:1" d="M 787.649,456.464 801.643,464.238 z" id="boundary" inkscape:connector-curvature="0" />
	<path style="fill:none;stroke:red;stroke-width:1px;stroke-linecap:butt;stroke-linejoin:miter;stroke-opacity:1" d="M 801.643,464.238 814.082,475.122 z" id="boundary" inkscape:connector-curvature="0" />
	<path style="fill:none;stroke:red;stroke-width:1px;stroke-linecap:butt;stroke-linejoin:miter;stroke-opacity:1" d="M 814.082,475.122 821.856,489.116 z" id="boundary" inkscape:connector-curvature="0" />
	<path style="fill:none;stroke:red;stroke-width:1px;stroke-linecap:butt;stroke-linejoin:miter;stroke-opacity:1" d="M 821.856,489.116 831.185,501.555 z" id="boundary" inkscape:connector-curvature="0" />
	<path style="fill:none;stroke:red;stroke-width:1px;stroke-linecap:butt;stroke-linejoin:miter;stroke-opacity:1" d="M 831.185,501.555 837.404,517.103 z" id="boundary" inkscape:connector-curvature="0" />
	<path style="fill:none;stroke:red;stroke-width:1px;stroke-linecap:butt;stroke-linejoin:miter;stroke-opacity:1" d="M 837.404,517.103 849.843,526.433 z" id="boundary" inkscape:connector-curvature="0" />
	<path style="fill:none;stroke:red;stroke-width:1px;stroke-linecap:butt;stroke-linejoin:miter;stroke-opacity:1" d="M 849.843,526.433 860.727,538.871 z" id="boundary" inkscape:connector-curvature="0" />
	<path style="fill:none;stroke:red;stroke-width:1px;stroke-linecap:butt;stroke-linejoin:miter;stroke-opacity:1" d="M 860.727,538.871 860.727,557.53 z" id="boundary" inkscape:connector-curvature="0" />
	<path style="fill:none;stroke:red;stroke-width:1px;stroke-linecap:butt;stroke-linejoin:miter;stroke-opacity:1" d="M 860.727,557.53 860.727,573.078 z" id="boundary" inkscape:connector-curvature="0" />
	<path style="fill:none;stroke:red;stroke-width:1px;stroke-linecap:butt;stroke-linejoin:miter;stroke-opacity:1" d="M 860.727,573.078 852.953,588.627 z" id="boundary" inkscape:connector-curvature="0" />
	<path style="fill:none;stroke:red;stroke-width:1px;stroke-linecap:butt;stroke-linejoin:miter;stroke-opacity:1" d="M 852.953,588.627 845.179,611.95 z" id="boundary" inkscape:connector-curvature="0" />
	<path style="fill:none;stroke:red;stroke-width:1px;stroke-linecap:butt;stroke-linejoin:miter;stroke-opacity:1" d="M 845.179,611.95 837.404,627.498 z" id="boundary" inkscape:connector-curvature="0" />
	<path style="fill:none;stroke:red;stroke-width:1px;stroke-linecap:butt;stroke-linejoin:miter;stroke-opacity:1" d="M 837.404,627.498 829.63,643.047 z" id="boundary" inkscape:connector-curvature="0" />
	<path style="fill:none;stroke:red;stroke-width:1px;stroke-linecap:butt;stroke-linejoin:miter;stroke-opacity:1" d="M 829.63,643.047 814.082,650.821 z" id="boundary" inkscape:connector-curvature="0" />
	<path style="fill:none;stroke:red;stroke-width:1px;stroke-linecap:butt;stroke-linejoin:miter;stroke-opacity:1" d="M 814.082,650.821 803.197,663.26 z" id="boundary" inkscape:connector-curvature="0" />
	<path style="fill:none;stroke:red;stroke-width:1px;stroke-linecap:butt;stroke-linejoin:miter;stroke-opacity:1" d="M 803.197,663.26 789.204,671.034 z" id="boundary" inkscape:connector-curvature="0" />
	<path style="fill:none;stroke:red;stroke-width:1px;stroke-linecap:butt;stroke-linejoin:miter;stroke-opacity:1" d="M 789.204,671.034 782.984,655.486 z" id="boundary" inkscape:connector-curvature="0" />
	<path style="fill:none;stroke:red;stroke-width:1px;stroke-linecap:butt;stroke-linejoin:miter;stroke-opacity:1" d="M 782.984,655.486 781.429,639.937 z" id="boundary" inkscape:connector-curvature="0" />
	<path style="fill:none;stroke:red;stroke-width:1px;stroke-linecap:butt;stroke-linejoin:miter;stroke-opacity:1" d="M 781.429,639.937 773.655,625.944 z" id="boundary" inkscape:connector-curvature="0" />
	<path style="fill:none;stroke:red;stroke-width:1px;stroke-linecap:butt;stroke-linejoin:miter;stroke-opacity:1" d="M 773.655,625.944 768.991,610.395 z" id="boundary" inkscape:connector-curvature="0" />
	<path style="fill:none;stroke:red;stroke-width:1px;stroke-linecap:butt;stroke-linejoin:miter;stroke-opacity:1" d="M 768.991,610.395 758.107,597.956 z" id="boundary" inkscape:connector-curvature="0" />
	<path style="fill:none;stroke:red;stroke-width:1px;stroke-linecap:butt;stroke-linejoin:miter;stroke-opacity:1" d="M 758.107,597.956 750.332,583.962 z" id="boundary" inkscape:connector-curvature="0" />
	<path style="fill:none;stroke:red;stroke-width:1px;stroke-linecap:butt;stroke-linejoin:miter;stroke-opacity:1" d="M 750.332,583.962 739.448,571.524 z" id="boundary" inkscape:connector-curvature="0" />
	<path style="fill:none;stroke:red;stroke-width:1px;stroke-linecap:butt;stroke-linejoin:miter;stroke-opacity:1" d="M 739.448,571.524 731.674,557.53 z" id="boundary" inkscape:connector-curvature="0" />
	<path style="fill:none;stroke:red;stroke-width:1px;stroke-linecap:butt;stroke-linejoin:miter;stroke-opacity:1" d="M 731.674,557.53 717.68,549.755 z" id="boundary" inkscape:connector-curvature="0" />
	<path style="fill:none;stroke:red;stroke-width:1px;stroke-linecap:butt;stroke-linejoin:miter;stroke-opacity:1" d="M 717.68,549.755 705.241,538.871 z" id="boundary" inkscape:connector-curvature="0" />
	<path style="fill:none;stroke:red;stroke-width:1px;stroke-linecap:butt;stroke-linejoin:miter;stroke-opacity:1" d="M 705.241,538.871 695.912,526.433 z" id="boundary" inkscape:connector-curvature="0" />
	<path style="fill:none;stroke:red;stroke-width:1px;stroke-linecap:butt;stroke-linejoin:miter;stroke-opacity:1" d="M 695.912,526.433 681.918,518.658 z" id="boundary" inkscape:connector-curvature="0" />
	<path style="fill:none;stroke:red;stroke-width:1px;stroke-linecap:butt;stroke-linejoin:miter;stroke-opacity:1" d="M 681.918,518.658 666.37,518.658 z" id="boundary" inkscape:connector-curvature="0" />
	<path style="fill:none;stroke:red;stroke-width:1px;stroke-linecap:butt;stroke-linejoin:miter;stroke-opacity:1" d="M 666.37,518.658 650.821,526.433 z" id="boundary" inkscape:connector-curvature="0" />
	<path style="fill:none;stroke:red;stroke-width:1px;stroke-linecap:butt;stroke-linejoin:miter;stroke-opacity:1" d="M 650.821,526.433 635.273,534.207 z" id="boundary" inkscape:connector-curvature="0" />
	<path style="fill:none;stroke:red;stroke-width:1px;stroke-linecap:butt;stroke-linejoin:miter;stroke-opacity:1" d="M 635.273,534.207 635.273,549.755 z" id="boundary" inkscape:connector-curvature="0" />
	<path style="fill:none;stroke:red;stroke-width:1px;stroke-linecap:butt;stroke-linejoin:miter;stroke-opacity:1" d="M 635.273,549.755 643.047,563.749 z" id="boundary" inkscape:connector-curvature="0" />
	<path style="fill:none;stroke:red;stroke-width:1px;stroke-linecap:butt;stroke-linejoin:miter;stroke-opacity:1" d="M 643.047,563.749 650.821,577.743 z" id="boundary" inkscape:connector-curvature="0" />
	<path style="fill:none;stroke:red;stroke-width:1px;stroke-linecap:butt;stroke-linejoin:miter;stroke-opacity:1" d="M 650.821,577.743 658.596,591.737 z" id="boundary" inkscape:connector-curvature="0" />
	<path style="fill:none;stroke:red;stroke-width:1px;stroke-linecap:butt;stroke-linejoin:miter;stroke-opacity:1" d="M 658.596,591.737 658.596,607.285 z" id="boundary" inkscape:connector-curvature="0" />
	<path style="fill:none;stroke:red;stroke-width:1px;stroke-linecap:butt;stroke-linejoin:miter;stroke-opacity:1" d="M 658.596,607.285 666.37,621.279 z" id="boundary" inkscape:connector-curvature="0" />
	<path style="fill:none;stroke:red;stroke-width:1px;stroke-linecap:butt;stroke-linejoin:miter;stroke-opacity:1" d="M 666.37,621.279 666.37,636.828 z" id="boundary" inkscape:connector-curvature="0" />
	<path style="fill:none;stroke:red;stroke-width:1px;stroke-linecap:butt;stroke-linejoin:miter;stroke-opacity:1" d="M 666.37,636.828 674.144,650.821 z" id="boundary" inkscape:connector-curvature="0" />
	<path style="fill:none;stroke:red;stroke-width:1px;stroke-linecap:butt;stroke-linejoin:miter;stroke-opacity:1" d="M 674.144,650.821 674.144,666.37 z" id="boundary" inkscape:connector-curvature="0" />
	<path style="fill:none;stroke:red;stroke-width:1px;stroke-linecap:butt;stroke-linejoin:miter;stroke-opacity:1" d="M 674.144,666.37 681.918,680.364 z" id="boundary" inkscape:connector-curvature="0" />
	<path style="fill:none;stroke:red;stroke-width:1px;stroke-linecap:butt;stroke-linejoin:miter;stroke-opacity:1" d="M 681.918,680.364 681.918,695.912 z" id="boundary" inkscape:connector-curvature="0" />
	<path style="fill:none;stroke:red;stroke-width:1px;stroke-linecap:butt;stroke-linejoin:miter;stroke-opacity:1" d="M 681.918,695.912 689.693,709.906 z" id="boundary" inkscape:connector-curvature="0" />
	<path style="fill:none;stroke:red;stroke-width:1px;stroke-linecap:butt;stroke-linejoin:miter;stroke-opacity:1" d="M 689.693,709.906 680.364,731.674 z" id="boundary" inkscape:connector-curvature="0" />
	<path style="fill:none;stroke:red;stroke-width:1px;stroke-linecap:butt;stroke-linejoin:miter;stroke-opacity:1" d="M 680.364,731.674 664.815,736.339 z" id="boundary" inkscape:connector-curvature="0" />
	<path style="fill:none;stroke:red;stroke-width:1px;stroke-linecap:butt;stroke-linejoin:miter;stroke-opacity:1" d="M 664.815,736.339 649.266,736.339 z" id="boundary" inkscape:connector-curvature="0" />
	<path style="fill:none;stroke:red;stroke-width:1px;stroke-linecap:butt;stroke-linejoin:miter;stroke-opacity:1" d="M 649.266,736.339 633.718,736.339 z" id="boundary" inkscape:connector-curvature="0" />
	<path style="fill:none;stroke:red;stroke-width:1px;stroke-linecap:butt;stroke-linejoin:miter;stroke-opacity:1" d="M 633.718,736.339 618.169,736.339 z" id="boundary" inkscape:connector-curvature="0" />
	<path style="fill:none;stroke:red;stroke-width:1px;stroke-linecap:butt;stroke-linejoin:miter;stroke-opacity:1" d="M 618.169,736.339 602.621,736.339 z" id="boundary" inkscape:connector-curvature="0" />
	<path style="fill:none;stroke:red;stroke-width:1px;stroke-linecap:butt;stroke-linejoin:miter;stroke-opacity:1" d="M 602.621,736.339 587.072,736.339 z" id="boundary" inkscape:connector-curvature="0" />
	<path style="fill:none;stroke:red;stroke-width:1px;stroke-linecap:butt;stroke-linejoin:miter;stroke-opacity:1" d="M 587.072,736.339 571.524,730.119 z" id="boundary" inkscape:connector-curvature="0" />
	<path style="fill:none;stroke:red;stroke-width:1px;stroke-linecap:butt;stroke-linejoin:miter;stroke-opacity:1" d="M 571.524,730.119 571.524,714.571 z" id="boundary" inkscape:connector-curvature="0" />
	<path style="fill:none;stroke:red;stroke-width:1px;stroke-linecap:butt;stroke-linejoin:miter;stroke-opacity:1" d="M 571.524,714.571 563.749,700.577 z" id="boundary" inkscape:connector-curvature="0" />
	<path style="fill:none;stroke:red;stroke-width:1px;stroke-linecap:butt;stroke-linejoin:miter;stroke-opacity:1" d="M 563.749,700.577 563.749,685.028 z" id="boundary" inkscape:connector-curvature="0" />
	<path style="fill:none;stroke:red;stroke-width:1px;stroke-linecap:butt;stroke-linejoin:miter;stroke-opacity:1" d="M 563.749,685.028 555.975,671.034 z" id="boundary" inkscape:connector-curvature="0" />
	<path style="fill:none;stroke:red;stroke-width:1px;stroke-linecap:butt;stroke-linejoin:miter;stroke-opacity:1" d="M 555.975,671.034 555.975,655.486 z" id="boundary" inkscape:connector-curvature="0" />
	<path style="fill:none;stroke:red;stroke-width:1px;stroke-linecap:butt;stroke-linejoin:miter;stroke-opacity:1" d="M 555.975,655.486 548.201,641.492 z" id="boundary" inkscape:connector-curvature="0" />
	<path style="fill:none;stroke:red;stroke-width:1px;stroke-linecap:butt;stroke-linejoin:miter;stroke-opacity:1" d="M 548.201,641.492 545.091,625.944 z" id="boundary" inkscape:connector-curvature="0" />
	<path style="fill:none;stroke:red;stroke-width:1px;stroke-linecap:butt;stroke-linejoin:miter;stroke-opacity:1" d="M 545.091,625.944 537.317,611.95 z" id="boundary" inkscape:connector-curvature="0" />
	<path style="fill:none;stroke:red;stroke-width:1px;stroke-linecap:butt;stroke-linejoin:miter;stroke-opacity:1" d="M 537.317,611.95 526.433,599.511 z" id="boundary" inkscape:connector-curvature="0" />
	<path style="fill:none;stroke:red;stroke-width:1px;stroke-linecap:butt;stroke-linejoin:miter;stroke-opacity:1" d="M 526.433,599.511 513.994,588.627 z" id="boundary" inkscape:connector-curvature="0" />
	<path style="fill:none;stroke:red;stroke-width:1px;stroke-linecap:butt;stroke-linejoin:miter;stroke-opacity:1" d="M 513.994,588.627 503.11,576.188 z" id="boundary" inkscape:connector-curvature="0" />
	<path style="fill:none;stroke:red;stroke-width:1px;stroke-linecap:butt;stroke-linejoin:miter;stroke-opacity:1" d="M 503.11,576.188 487.561,573.078 z" id="boundary" inkscape:connector-curvature="0" />
	<path style="fill:none;stroke:red;stroke-width:1px;stroke-linecap:butt;stroke-linejoin:miter;stroke-opacity:1" d="M 487.561,573.078 479.787,596.401 z" id="boundary" inkscape:connector-curvature="0" />
	<path style="fill:none;stroke:red;stroke-width:1px;stroke-linecap:butt;stroke-linejoin:miter;stroke-opacity:1" d="M 479.787,596.401 472.013,619.724 z" id="boundary" inkscape:connector-curvature="0" />
	<path style="fill:none;stroke:red;stroke-width:1px;stroke-linecap:butt;stroke-linejoin:miter;stroke-opacity:1" d="M 472.013,619.724 472.013,635.273 z" id="boundary" inkscape:connector-curvature="0" />
	<path style="fill:none;stroke:red;stroke-width:1px;stroke-linecap:butt;stroke-linejoin:miter;stroke-opacity:1" d="M 472.013,635.273 464.238,650.821 z" id="boundary" inkscape:connector-curvature="0" />
	<path style="fill:none;stroke:red;stroke-width:1px;stroke-linecap:butt;stroke-linejoin:miter;stroke-opacity:1" d="M 464.238,650.821 464.238,666.37 z" id="boundary" inkscape:connector-curvature="0" />
	<path style="fill:none;stroke:red;stroke-width:1px;stroke-linecap:butt;stroke-linejoin:miter;stroke-opacity:1" d="M 464.238,666.37 464.238,681.918 z" id="boundary" inkscape:connector-curvature="0" />
	<path style="fill:none;stroke:red;stroke-width:1px;stroke-linecap:butt;stroke-linejoin:miter;stroke-opacity:1" d="M 464.238,681.918 456.464,705.241 z" id="boundary" inkscape:connector-curvature="0" />
	<path style="fill:none;stroke:red;stroke-width:1px;stroke-linecap:butt;stroke-linejoin:miter;stroke-opacity:1" d="M 221.68,254.332 220.125,283.875 z" id="boundary" inkscape:connector-curvature="0" />
	<path style="fill:none;stroke:red;stroke-width:1px;stroke-linecap:butt;stroke-linejoin:miter;stroke-opacity:1" d="M 220.125,283.875 204.577,283.875 z" id="boundary" inkscape:connector-curvature="0" />
	<path style="fill:none;stroke:red;stroke-width:1px;stroke-linecap:butt;stroke-linejoin:miter;stroke-opacity:1" d="M 204.577,283.875 190.583,291.649 z" id="boundary" inkscape:connector-curvature="0" />
	<path style="fill:none;stroke:red;stroke-width:1px;stroke-linecap:butt;stroke-linejoin:miter;stroke-opacity:1" d="M 190.583,291.649 175.034,291.649 z" id="boundary" inkscape:connector-curvature="0" />
	<path style="fill:none;stroke:red;stroke-width:1px;stroke-linecap:butt;stroke-linejoin:miter;stroke-opacity:1" d="M 175.034,291.649 161.041,299.423 z" id="boundary" inkscape:connector-curvature="0" />
	<path style="fill:none;stroke:red;stroke-width:1px;stroke-linecap:butt;stroke-linejoin:miter;stroke-opacity:1" d="M 161.041,299.423 145.492,302.533 z" id="boundary" inkscape:connector-curvature="0" />
	<path style="fill:none;stroke:red;stroke-width:1px;stroke-linecap:butt;stroke-linejoin:miter;stroke-opacity:1" d="M 145.492,302.533 129.944,310.307 z" id="boundary" inkscape:connector-curvature="0" />
	<path style="fill:none;stroke:red;stroke-width:1px;stroke-linecap:butt;stroke-linejoin:miter;stroke-opacity:1" d="M 129.944,310.307 114.395,318.082 z" id="boundary" inkscape:connector-curvature="0" />
	<path style="fill:none;stroke:red;stroke-width:1px;stroke-linecap:butt;stroke-linejoin:miter;stroke-opacity:1" d="M 114.395,318.082 98.8464,325.856 z" id="boundary" inkscape:connector-curvature="0" />
	<path style="fill:none;stroke:red;stroke-width:1px;stroke-linecap:butt;stroke-linejoin:miter;stroke-opacity:1" d="M 98.8464,325.856 87.9624,338.295 z" id="boundary" inkscape:connector-curvature="0" />
	<path style="fill:none;stroke:red;stroke-width:1px;stroke-linecap:butt;stroke-linejoin:miter;stroke-opacity:1" d="M 87.9624,338.295 75.5235,349.179 z" id="boundary" inkscape:connector-curvature="0" />
	<path style="fill:none;stroke:red;stroke-width:1px;stroke-linecap:butt;stroke-linejoin:miter;stroke-opacity:1" d="M 75.5235,349.179 64.6395,361.618 z" id="boundary" inkscape:connector-curvature="0" />
	<path style="fill:none;stroke:red;stroke-width:1px;stroke-linecap:butt;stroke-linejoin:miter;stroke-opacity:1" d="M 64.6395,361.618 52.2006,372.502 z" id="boundary" inkscape:connector-curvature="0" />
	<path style="fill:none;stroke:red;stroke-width:1px;stroke-linecap:butt;stroke-linejoin:miter;stroke-opacity:1" d="M 52.2006,372.502 39.7618,384.94 z" id="boundary" inkscape:connector-curvature="0" />
	<path style="fill:none;stroke:red;stroke-width:1px;stroke-linecap:butt;stroke-linejoin:miter;stroke-opacity:1" d="M 39.7618,384.94 27.3229,397.379 z" id="boundary" inkscape:connector-curvature="0" />
	<path style="fill:none;stroke:red;stroke-width:1px;stroke-linecap:butt;stroke-linejoin:miter;stroke-opacity:1" d="M 27.3229,397.379 27.3229,412.928 z" id="boundary" inkscape:connector-curvature="0" />
	<path style="fill:none;stroke:red;stroke-width:1px;stroke-linecap:butt;stroke-linejoin:miter;stroke-opacity:1" d="M 27.3229,412.928 35.0972,426.922 z" id="boundary" inkscape:connector-curvature="0" />
	<path style="fill:none;stroke:red;stroke-width:1px;stroke-linecap:butt;stroke-linejoin:miter;stroke-opacity:1" d="M 35.0972,426.922 35.0972,442.47 z" id="boundary" inkscape:connector-curvature="0" />
	<path style="fill:none;stroke:red;stroke-width:1px;stroke-linecap:butt;stroke-linejoin:miter;stroke-opacity:1" d="M 35.0972,442.47 45.9812,454.909 z" id="boundary" inkscape:connector-curvature="0" />
	<path style="fill:none;stroke:red;stroke-width:1px;stroke-linecap:butt;stroke-linejoin:miter;stroke-opacity:1" d="M 45.9812,454.909 53.7555,468.903 z" id="boundary" inkscape:connector-curvature="0" />
	<path style="fill:none;stroke:red;stroke-width:1px;stroke-linecap:butt;stroke-linejoin:miter;stroke-opacity:1" d="M 53.7555,468.903 59.9749,484.451 z" id="boundary" inkscape:connector-curvature="0" />
	<path style="fill:none;stroke:red;stroke-width:1px;stroke-linecap:butt;stroke-linejoin:miter;stroke-opacity:1" d="M 59.9749,484.451 72.4138,495.335 z" id="boundary" inkscape:connector-curvature="0" />
	<path style="fill:none;stroke:red;stroke-width:1px;stroke-linecap:butt;stroke-linejoin:miter;stroke-opacity:1" d="M 72.4138,495.335 83.2978,507.774 z" id="boundary" inkscape:connector-curvature="0" />
	<path style="fill:none;stroke:red;stroke-width:1px;stroke-linecap:butt;stroke-linejoin:miter;stroke-opacity:1" d="M 83.2978,507.774 95.7367,517.103 z" id="boundary" inkscape:connector-curvature="0" />
	<path style="fill:none;stroke:red;stroke-width:1px;stroke-linecap:butt;stroke-linejoin:miter;stroke-opacity:1" d="M 95.7367,517.103 101.956,501.555 z" id="boundary" inkscape:connector-curvature="0" />
	<path style="fill:none;stroke:red;stroke-width:1px;stroke-linecap:butt;stroke-linejoin:miter;stroke-opacity:1" d="M 101.956,501.555 114.395,479.787 z" id="boundary" inkscape:connector-curvature="0" />
	<path style="fill:none;stroke:red;stroke-width:1px;stroke-linecap:butt;stroke-linejoin:miter;stroke-opacity:1" d="M 114.395,479.787 122.169,464.238 z" id="boundary" inkscape:connector-curvature="0" />
	<path style="fill:none;stroke:red;stroke-width:1px;stroke-linecap:butt;stroke-linejoin:miter;stroke-opacity:1" d="M 122.169,464.238 134.608,453.354 z" id="boundary" inkscape:connector-curvature="0" />
	<path style="fill:none;stroke:red;stroke-width:1px;stroke-linecap:butt;stroke-linejoin:miter;stroke-opacity:1" d="M 134.608,453.354 145.492,440.915 z" id="boundary" inkscape:connector-curvature="0" />
	<path style="fill:none;stroke:red;stroke-width:1px;stroke-linecap:butt;stroke-linejoin:miter;stroke-opacity:1" d="M 145.492,440.915 157.931,430.031 z" id="boundary" inkscape:connector-curvature="0" />
	<path style="fill:none;stroke:red;stroke-width:1px;stroke-linecap:butt;stroke-linejoin:miter;stroke-opacity:1" d="M 157.931,430.031 168.815,417.592 z" id="boundary" inkscape:connector-curvature="0" />
	<path style="fill:none;stroke:red;stroke-width:1px;stroke-linecap:butt;stroke-linejoin:miter;stroke-opacity:1" d="M 168.815,417.592 184.364,409.818 z" id="boundary" inkscape:connector-curvature="0" />
	<path style="fill:none;stroke:red;stroke-width:1px;stroke-linecap:butt;stroke-linejoin:miter;stroke-opacity:1" d="M 184.364,409.818 199.912,409.818 z" id="boundary" inkscape:connector-curvature="0" />
	<path style="fill:none;stroke:red;stroke-width:1px;stroke-linecap:butt;stroke-linejoin:miter;stroke-opacity:1" d="M 199.912,409.818 213.906,402.044 z" id="boundary" inkscape:connector-curvature="0" />
	<path style="fill:none;stroke:red;stroke-width:1px;stroke-linecap:butt;stroke-linejoin:miter;stroke-opacity:1" d="M 213.906,402.044 229.455,402.044 z" id="boundary" inkscape:connector-curvature="0" />
	<path style="fill:none;stroke:red;stroke-width:1px;stroke-linecap:butt;stroke-linejoin:miter;stroke-opacity:1" d="M 229.455,402.044 245.003,402.044 z" id="boundary" inkscape:connector-curvature="0" />
	<path style="fill:none;stroke:red;stroke-width:1px;stroke-linecap:butt;stroke-linejoin:miter;stroke-opacity:1" d="M 245.003,402.044 258.997,409.818 z" id="boundary" inkscape:connector-curvature="0" />
	<path style="fill:none;stroke:red;stroke-width:1px;stroke-linecap:butt;stroke-linejoin:miter;stroke-opacity:1" d="M 258.997,409.818 265.216,425.367 z" id="boundary" inkscape:connector-curvature="0" />
	<path style="fill:none;stroke:red;stroke-width:1px;stroke-linecap:butt;stroke-linejoin:miter;stroke-opacity:1" d="M 265.216,425.367 254.332,442.47 z" id="boundary" inkscape:connector-curvature="0" />
	<path style="fill:none;stroke:red;stroke-width:1px;stroke-linecap:butt;stroke-linejoin:miter;stroke-opacity:1" d="M 254.332,442.47 243.448,454.909 z" id="boundary" inkscape:connector-curvature="0" />
	<path style="fill:none;stroke:red;stroke-width:1px;stroke-linecap:butt;stroke-linejoin:miter;stroke-opacity:1" d="M 243.448,454.909 231.009,465.793 z" id="boundary" inkscape:connector-curvature="0" />
	<path style="fill:none;stroke:red;stroke-width:1px;stroke-linecap:butt;stroke-linejoin:miter;stroke-opacity:1" d="M 231.009,465.793 218.571,478.232 z" id="boundary" inkscape:connector-curvature="0" />
	<path style="fill:none;stroke:red;stroke-width:1px;stroke-linecap:butt;stroke-linejoin:miter;stroke-opacity:1" d="M 218.571,478.232 210.796,493.781 z" id="boundary" inkscape:connector-curvature="0" />
	<path style="fill:none;stroke:red;stroke-width:1px;stroke-linecap:butt;stroke-linejoin:miter;stroke-opacity:1" d="M 210.796,493.781 198.357,506.219 z" id="boundary" inkscape:connector-curvature="0" />
	<path style="fill:none;stroke:red;stroke-width:1px;stroke-linecap:butt;stroke-linejoin:miter;stroke-opacity:1" d="M 198.357,506.219 190.583,521.768 z" id="boundary" inkscape:connector-curvature="0" />
	<path style="fill:none;stroke:red;stroke-width:1px;stroke-linecap:butt;stroke-linejoin:miter;stroke-opacity:1" d="M 190.583,521.768 179.699,548.201 z" id="boundary" inkscape:connector-curvature="0" />
	<path style="fill:none;stroke:red;stroke-width:1px;stroke-linecap:butt;stroke-linejoin:miter;stroke-opacity:1" d="M 179.699,548.201 171.925,563.749 z" id="boundary" inkscape:connector-curvature="0" />
	<path style="fill:none;stroke:red;stroke-width:1px;stroke-linecap:butt;stroke-linejoin:miter;stroke-opacity:1" d="M 171.925,563.749 159.486,576.188 z" id="boundary" inkscape:connector-curvature="0" />
	<path style="fill:none;stroke:red;stroke-width:1px;stroke-linecap:butt;stroke-linejoin:miter;stroke-opacity:1" d="M 159.486,576.188 171.925,587.072 z" id="boundary" inkscape:connector-curvature="0" />
	<path style="fill:none;stroke:red;stroke-width:1px;stroke-linecap:butt;stroke-linejoin:miter;stroke-opacity:1" d="M 171.925,587.072 184.364,596.401 z" id="boundary" inkscape:connector-curvature="0" />
	<path style="fill:none;stroke:red;stroke-width:1px;stroke-linecap:butt;stroke-linejoin:miter;stroke-opacity:1" d="M 184.364,596.401 198.357,604.176 z" id="boundary" inkscape:connector-curvature="0" />
	<path style="fill:none;stroke:red;stroke-width:1px;stroke-linecap:butt;stroke-linejoin:miter;stroke-opacity:1" d="M 198.357,604.176 212.351,611.95 z" id="boundary" inkscape:connector-curvature="0" />
	<path style="fill:none;stroke:red;stroke-width:1px;stroke-linecap:butt;stroke-linejoin:miter;stroke-opacity:1" d="M 212.351,611.95 223.235,624.389 z" id="boundary" inkscape:connector-curvature="0" />
	<path style="fill:none;stroke:red;stroke-width:1px;stroke-linecap:butt;stroke-linejoin:miter;stroke-opacity:1" d="M 223.235,624.389 235.674,635.273 z" id="boundary" inkscape:connector-curvature="0" />
	<path style="fill:none;stroke:red;stroke-width:1px;stroke-linecap:butt;stroke-linejoin:miter;stroke-opacity:1" d="M 235.674,635.273 246.558,647.712 z" id="boundary" inkscape:connector-curvature="0" />
	<path style="fill:none;stroke:red;stroke-width:1px;stroke-linecap:butt;stroke-linejoin:miter;stroke-opacity:1" d="M 246.558,647.712 260.552,638.382 z" id="boundary" inkscape:connector-curvature="0" />
	<path style="fill:none;stroke:red;stroke-width:1px;stroke-linecap:butt;stroke-linejoin:miter;stroke-opacity:1" d="M 260.552,638.382 268.326,622.834 z" id="boundary" inkscape:connector-curvature="0" />
	<path style="fill:none;stroke:red;stroke-width:1px;stroke-linecap:butt;stroke-linejoin:miter;stroke-opacity:1" d="M 268.326,622.834 277.655,604.176 z" id="boundary" inkscape:connector-curvature="0" />
	<path style="fill:none;stroke:red;stroke-width:1px;stroke-linecap:butt;stroke-linejoin:miter;stroke-opacity:1" d="M 277.655,604.176 290.094,593.292 z" id="boundary" inkscape:connector-curvature="0" />
	<path style="fill:none;stroke:red;stroke-width:1px;stroke-linecap:butt;stroke-linejoin:miter;stroke-opacity:1" d="M 290.094,593.292 297.868,577.743 z" id="boundary" inkscape:connector-curvature="0" />
	<path style="fill:none;stroke:red;stroke-width:1px;stroke-linecap:butt;stroke-linejoin:miter;stroke-opacity:1" d="M 297.868,577.743 300.978,557.53 z" id="boundary" inkscape:connector-curvature="0" />
	<path style="fill:none;stroke:red;stroke-width:1px;stroke-linecap:butt;stroke-linejoin:miter;stroke-opacity:1" d="M 300.978,557.53 313.417,546.646 z" id="boundary" inkscape:connector-curvature="0" />
	<path style="fill:none;stroke:red;stroke-width:1px;stroke-linecap:butt;stroke-linejoin:miter;stroke-opacity:1" d="M 313.417,546.646 324.301,534.207 z" id="boundary" inkscape:connector-curvature="0" />
	<path style="fill:none;stroke:red;stroke-width:1px;stroke-linecap:butt;stroke-linejoin:miter;stroke-opacity:1" d="M 324.301,534.207 336.74,523.323 z" id="boundary" inkscape:connector-curvature="0" />
	<path style="fill:none;stroke:red;stroke-width:1px;stroke-linecap:butt;stroke-linejoin:miter;stroke-opacity:1" d="M 336.74,523.323 352.288,515.549 z" id="boundary" inkscape:connector-curvature="0" />
	<path style="fill:none;stroke:red;stroke-width:1px;stroke-linecap:butt;stroke-linejoin:miter;stroke-opacity:1" d="M 352.288,515.549 367.837,518.658 z" id="boundary" inkscape:connector-curvature="0" />
	<path style="fill:none;stroke:red;stroke-width:1px;stroke-linecap:butt;stroke-linejoin:miter;stroke-opacity:1" d="M 367.837,518.658 377.166,531.097 z" id="boundary" inkscape:connector-curvature="0" />
	<path style="fill:none;stroke:red;stroke-width:1px;stroke-linecap:butt;stroke-linejoin:miter;stroke-opacity:1" d="M 377.166,531.097 377.166,546.646 z" id="boundary" inkscape:connector-curvature="0" />
	<path style="fill:none;stroke:red;stroke-width:1px;stroke-linecap:butt;stroke-linejoin:miter;stroke-opacity:1" d="M 377.166,546.646 369.392,560.639 z" id="boundary" inkscape:connector-curvature="0" />
	<path style="fill:none;stroke:red;stroke-width:1px;stroke-linecap:butt;stroke-linejoin:miter;stroke-opacity:1" d="M 369.392,560.639 361.618,583.962 z" id="boundary" inkscape:connector-curvature="0" />
	<path style="fill:none;stroke:red;stroke-width:1px;stroke-linecap:butt;stroke-linejoin:miter;stroke-opacity:1" d="M 361.618,583.962 361.618,599.511 z" id="boundary" inkscape:connector-curvature="0" />
	<path style="fill:none;stroke:red;stroke-width:1px;stroke-linecap:butt;stroke-linejoin:miter;stroke-opacity:1" d="M 361.618,599.511 353.843,615.06 z" id="boundary" inkscape:connector-curvature="0" />
	<path style="fill:none;stroke:red;stroke-width:1px;stroke-linecap:butt;stroke-linejoin:miter;stroke-opacity:1" d="M 353.843,615.06 353.843,630.608 z" id="boundary" inkscape:connector-curvature="0" />
	<path style="fill:none;stroke:red;stroke-width:1px;stroke-linecap:butt;stroke-linejoin:miter;stroke-opacity:1" d="M 353.843,630.608 346.069,646.157 z" id="boundary" inkscape:connector-curvature="0" />
	<path style="fill:none;stroke:red;stroke-width:1px;stroke-linecap:butt;stroke-linejoin:miter;stroke-opacity:1" d="M 346.069,646.157 346.069,661.705 z" id="boundary" inkscape:connector-curvature="0" />
	<path style="fill:none;stroke:red;stroke-width:1px;stroke-linecap:butt;stroke-linejoin:miter;stroke-opacity:1" d="M 346.069,661.705 346.069,677.254 z" id="boundary" inkscape:connector-curvature="0" />
	<path style="fill:none;stroke:red;stroke-width:1px;stroke-linecap:butt;stroke-linejoin:miter;stroke-opacity:1" d="M 346.069,677.254 338.295,700.577 z" id="boundary" inkscape:connector-curvature="0" />
	<path style="fill:none;stroke:red;stroke-width:1px;stroke-linecap:butt;stroke-linejoin:miter;stroke-opacity:1" d="M 338.295,700.577 347.624,713.016 z" id="boundary" inkscape:connector-curvature="0" />
	<path style="fill:none;stroke:red;stroke-width:1px;stroke-linecap:butt;stroke-linejoin:miter;stroke-opacity:1" d="M 347.624,713.016 361.618,720.79 z" id="boundary" inkscape:connector-curvature="0" />
	<path style="fill:none;stroke:red;stroke-width:1px;stroke-linecap:butt;stroke-linejoin:miter;stroke-opacity:1" d="M 361.618,720.79 375.611,728.564 z" id="boundary" inkscape:connector-curvature="0" />
	<path style="fill:none;stroke:red;stroke-width:1px;stroke-linecap:butt;stroke-linejoin:miter;stroke-opacity:1" d="M 375.611,728.564 391.16,728.564 z" id="boundary" inkscape:connector-curvature="0" />
	<path style="fill:none;stroke:red;stroke-width:1px;stroke-linecap:butt;stroke-linejoin:miter;stroke-opacity:1" d="M 391.16,728.564 405.154,736.339 z" id="boundary" inkscape:connector-curvature="0" />
	<path style="fill:none;stroke:red;stroke-width:1px;stroke-linecap:butt;stroke-linejoin:miter;stroke-opacity:1" d="M 405.154,736.339 420.702,736.339 z" id="boundary" inkscape:connector-curvature="0" />
	<path style="fill:none;stroke:red;stroke-width:1px;stroke-linecap:butt;stroke-linejoin:miter;stroke-opacity:1" d="M 420.702,736.339 436.251,736.339 z" id="boundary" inkscape:connector-curvature="0" />
	<path style="fill:none;stroke:red;stroke-width:1px;stroke-linecap:butt;stroke-linejoin:miter;stroke-opacity:1" d="M 436.251,736.339 451.799,734.784 z" id="boundary" inkscape:connector-curvature="0" />
	<path style="fill:none;stroke:red;stroke-width:1px;stroke-linecap:butt;stroke-linejoin:miter;stroke-opacity:1" d="M 456.464,705.241 451.799,734.784 z" id="boundary" inkscape:connector-curvature="0" />
	<circle cx="4" cy="148.602" r="4" fill="#0" id="circle0"/>
	<circle cx="4" cy="164.15" r="4" fill="#0" id="circle1"/>
	<circle cx="4" cy="179.699" r="4" fill="#0" id="circle2"/>
	<circle cx="4" cy="195.248" r="4" fill="#0" id="circle3"/>
	<circle cx="11.7743" cy="209.241" r="4" fill="#0" id="circle4"/>
	<circle cx="11.7743" cy="224.79" r="4" fill="#0" id="circle5"/>
	<circle cx="11.7743" cy="240.339" r="4" fill="#0" id="circle6"/>
	<circle cx="11.7743" cy="255.887" r="4" fill="#0" id="circle7"/>
	<circle cx="16.4389" cy="136.163" r="4" fill="#0" id="circle8"/>
	<circle cx="19.5486" cy="269.881" r="4" fill="#0" id="circle9"/>
	<circle cx="27.3229" cy="397.379" r="4" fill="#0" id="circle10"/>
	<circle cx="27.3229" cy="412.928" r="4" fill="#0" id="circle11"/>
	<circle cx="31.9875" cy="136.163" r="4" fill="#0" id="circle12"/>
	<circle cx="33.5423" cy="262.107" r="4" fill="#0" id="circle13"/>
	<circle cx="35.0972" cy="426.922" r="4" fill="#0" id="circle14"/>
	<circle cx="35.0972" cy="442.47" r="4" fill="#0" id="circle15"/>
	<circle cx="39.7618" cy="384.94" r="4" fill="#0" id="circle16"/>
	<circle cx="45.9812" cy="454.909" r="4" fill="#0" id="circle17"/>
	<circle cx="47.5361" cy="128.389" r="4" fill="#0" id="circle18"/>
	<circle cx="47.5361" cy="252.777" r="4" fill="#0" id="circle19"/>
	<circle cx="52.2006" cy="372.502" r="4" fill="#0" id="circle20"/>
	<circle cx="53.7555" cy="468.903" r="4" fill="#0" id="circle21"/>
	<circle cx="59.9749" cy="484.451" r="4" fill="#0" id="circle22"/>
	<circle cx="63.0846" cy="128.389" r="4" fill="#0" id="circle23"/>
	<circle cx="63.0846" cy="246.558" r="4" fill="#0" id="circle24"/>
	<circle cx="64.6395" cy="361.618" r="4" fill="#0" id="circle25"/>
	<circle cx="72.4138" cy="495.335" r="4" fill="#0" id="circle26"/>
	<circle cx="75.5235" cy="349.179" r="4" fill="#0" id="circle27"/>
	<circle cx="77.0784" cy="120.614" r="4" fill="#0" id="circle28"/>
	<circle cx="78.6332" cy="245.003" r="4" fill="#0" id="circle29"/>
	<circle cx="83.2978" cy="507.774" r="4" fill="#0" id="circle30"/>
	<circle cx="87.9624" cy="338.295" r="4" fill="#0" id="circle31"/>
	<circle cx="92.627" cy="120.614" r="4" fill="#0" id="circle32"/>
	<circle cx="94.1818" cy="238.784" r="4" fill="#0" id="circle33"/>
	<circle cx="95.7367" cy="517.103" r="4" fill="#0" id="circle34"/>
	<circle cx="98.8464" cy="325.856" r="4" fill="#0" id="circle35"/>
	<circle cx="101.956" cy="501.555" r="4" fill="#0" id="circle36"/>
	<circle cx="108.176" cy="120.614" r="4" fill="#0" id="circle37"/>
	<circle cx="109.73" cy="238.784" r="4" fill="#0" id="circle38"/>
	<circle cx="114.395" cy="318.082" r="4" fill="#0" id="circle39"/>
	<circle cx="114.395" cy="479.787" r="4" fill="#0" id="circle40"/>
	<circle cx="122.169" cy="464.238" r="4" fill="#0" id="circle41"/>
	<circle cx="123.724" cy="120.614" r="4" fill="#0" id="circle42"/>
	<circle cx="125.279" cy="238.784" r="4" fill="#0" id="circle43"/>
	<circle cx="129.944" cy="310.307" r="4" fill="#0" id="circle44"/>
	<circle cx="134.608" cy="453.354" r="4" fill="#0" id="circle45"/>
	<circle cx="139.273" cy="120.614" r="4" fill="#0" id="circle46"/>
	<circle cx="140.828" cy="238.784" r="4" fill="#0" id="circle47"/>
	<circle cx="145.492" cy="302.533" r="4" fill="#0" id="circle48"/>
	<circle cx="145.492" cy="440.915" r="4" fill="#0" id="circle49"/>
	<circle cx="154.821" cy="120.614" r="4" fill="#0" id="circle50"/>
	<circle cx="156.376" cy="238.784" r="4" fill="#0" id="circle51"/>
	<circle cx="157.931" cy="430.031" r="4" fill="#0" id="circle52"/>
	<circle cx="159.486" cy="576.188" r="4" fill="#0" id="circle53"/>
	<circle cx="161.041" cy="299.423" r="4" fill="#0" id="circle54"/>
	<circle cx="168.815" cy="417.592" r="4" fill="#0" id="circle55"/>
	<circle cx="170.37" cy="120.614" r="4" fill="#0" id="circle56"/>
	<circle cx="171.925" cy="238.784" r="4" fill="#0" id="circle57"/>
	<circle cx="171.925" cy="563.749" r="4" fill="#0" id="circle58"/>
	<circle cx="171.925" cy="587.072" r="4" fill="#0" id="circle59"/>
	<circle cx="175.034" cy="291.649" r="4" fill="#0" id="circle60"/>
	<circle cx="179.699" cy="548.201" r="4" fill="#0" id="circle61"/>
	<circle cx="184.364" cy="409.818" r="4" fill="#0" id="circle62"/>
	<circle cx="184.364" cy="596.401" r="4" fill="#0" id="circle63"/>
	<circle cx="185.918" cy="120.614" r="4" fill="#0" id="circle64"/>
	<circle cx="187.473" cy="238.784" r="4" fill="#0" id="circle65"/>
	<circle cx="190.583" cy="291.649" r="4" fill="#0" id="circle66"/>
	<circle cx="190.583" cy="521.768" r="4" fill="#0" id="circle67"/>
	<circle cx="198.357" cy="506.219" r="4" fill="#0" id="circle68"/>
	<circle cx="198.357" cy="604.176" r="4" fill="#0" id="circle69"/>
	<circle cx="199.912" cy="409.818" r="4" fill="#0" id="circle70"/>
	<circle cx="201.467" cy="120.614" r="4" fill="#0" id="circle71"/>
	<circle cx="203.022" cy="238.784" r="4" fill="#0" id="circle72"/>
	<circle cx="204.577" cy="283.875" r="4" fill="#0" id="circle73"/>
	<circle cx="210.796" cy="493.781" r="4" fill="#0" id="circle74"/>
	<circle cx="212.351" cy="611.95" r="4" fill="#0" id="circle75"/>
	<circle cx="213.906" cy="402.044" r="4" fill="#0" id="circle76"/>
	<circle cx="217.016" cy="120.614" r="4" fill="#0" id="circle77"/>
	<circle cx="218.571" cy="238.784" r="4" fill="#0" id="circle78"/>
	<circle cx="218.571" cy="478.232" r="4" fill="#0" id="circle79"/>
	<circle cx="220.125" cy="283.875" r="4" fill="#0" id="circle80"/>
	<circle cx="221.68" cy="254.332" r="4" fill="#0" id="circle81"/>
	<circle cx="223.235" cy="624.389" r="4" fill="#0" id="circle82"/>
	<circle cx="229.455" cy="402.044" r="4" fill="#0" id="circle83"/>
	<circle cx="231.009" cy="465.793" r="4" fill="#0" id="circle84"/>
	<circle cx="232.564" cy="120.614" r="4" fill="#0" id="circle85"/>
	<circle cx="235.674" cy="635.273" r="4" fill="#0" id="circle86"/>
	<circle cx="243.448" cy="454.909" r="4" fill="#0" id="circle87"/>
	<circle cx="245.003" cy="402.044" r="4" fill="#0" id="circle88"/>
	<circle cx="246.558" cy="647.712" r="4" fill="#0" id="circle89"/>
	<circle cx="248.113" cy="120.614" r="4" fill="#0" id="circle90"/>
	<circle cx="254.332" cy="442.47" r="4" fill="#0" id="circle91"/>
	<circle cx="258.997" cy="409.818" r="4" fill="#0" id="circle92"/>
	<circle cx="260.552" cy="638.382" r="4" fill="#0" id="circle93"/>
	<circle cx="262.107" cy="128.389" r="4" fill="#0" id="circle94"/>
	<circle cx="265.216" cy="425.367" r="4" fill="#0" id="circle95"/>
	<circle cx="268.326" cy="622.834" r="4" fill="#0" id="circle96"/>
	<circle cx="276.1" cy="117.505" r="4" fill="#0" id="circle97"/>
	<circle cx="277.655" cy="604.176" r="4" fill="#0" id="circle98"/>
	<circle cx="288.539" cy="105.066" r="4" fill="#0" id="circle99"/>
	<circle cx="290.094" cy="593.292" r="4" fill="#0" id="circle100"/>
	<circle cx="297.868" cy="577.743" r="4" fill="#0" id="circle101"/>
	<circle cx="300.978" cy="92.627" r="4" fill="#0" id="circle102"/>
	<circle cx="300.978" cy="557.53" r="4" fill="#0" id="circle103"/>
	<circle cx="313.417" cy="81.7429" r="4" fill="#0" id="circle104"/>
	<circle cx="313.417" cy="546.646" r="4" fill="#0" id="circle105"/>
	<circle cx="324.301" cy="534.207" r="4" fill="#0" id="circle106"/>
	<circle cx="327.411" cy="73.9687" r="4" fill="#0" id="circle107"/>
	<circle cx="336.74" cy="523.323" r="4" fill="#0" id="circle108"/>
	<circle cx="338.295" cy="700.577" r="4" fill="#0" id="circle109"/>
	<circle cx="339.85" cy="61.5298" r="4" fill="#0" id="circle110"/>
	<circle cx="346.069" cy="646.157" r="4" fill="#0" id="circle111"/>
	<circle cx="346.069" cy="661.705" r="4" fill="#0" id="circle112"/>
	<circle cx="346.069" cy="677.254" r="4" fill="#0" id="circle113"/>
	<circle cx="347.624" cy="713.016" r="4" fill="#0" id="circle114"/>
	<circle cx="352.288" cy="50.6458" r="4" fill="#0" id="circle115"/>
	<circle cx="352.288" cy="515.549" r="4" fill="#0" id="circle116"/>
	<circle cx="353.843" cy="615.06" r="4" fill="#0" id="circle117"/>
	<circle cx="353.843" cy="630.608" r="4" fill="#0" id="circle118"/>
	<circle cx="361.618" cy="583.962" r="4" fill="#0" id="circle119"/>
	<circle cx="361.618" cy="599.511" r="4" fill="#0" id="circle120"/>
	<circle cx="361.618" cy="720.79" r="4" fill="#0" id="circle121"/>
	<circle cx="366.282" cy="42.8715" r="4" fill="#0" id="circle122"/>
	<circle cx="367.837" cy="518.658" r="4" fill="#0" id="circle123"/>
	<circle cx="369.392" cy="560.639" r="4" fill="#0" id="circle124"/>
	<circle cx="375.611" cy="728.564" r="4" fill="#0" id="circle125"/>
	<circle cx="377.166" cy="531.097" r="4" fill="#0" id="circle126"/>
	<circle cx="377.166" cy="546.646" r="4" fill="#0" id="circle127"/>
	<circle cx="381.831" cy="35.0972" r="4" fill="#0" id="circle128"/>
	<circle cx="391.16" cy="728.564" r="4" fill="#0" id="circle129"/>
	<circle cx="397.379" cy="27.3229" r="4" fill="#0" id="circle130"/>
	<circle cx="405.154" cy="736.339" r="4" fill="#0" id="circle131"/>
	<circle cx="412.928" cy="19.5486" r="4" fill="#0" id="circle132"/>
	<circle cx="420.702" cy="736.339" r="4" fill="#0" id="circle133"/>
	<circle cx="428.476" cy="19.5486" r="4" fill="#0" id="circle134"/>
	<circle cx="436.251" cy="736.339" r="4" fill="#0" id="circle135"/>
	<circle cx="442.47" cy="11.7743" r="4" fill="#0" id="circle136"/>
	<circle cx="451.799" cy="734.784" r="4" fill="#0" id="circle137"/>
	<circle cx="456.464" cy="705.241" r="4" fill="#0" id="circle138"/>
	<circle cx="458.019" cy="11.7743" r="4" fill="#0" id="circle139"/>
	<circle cx="464.238" cy="650.821" r="4" fill="#0" id="circle140"/>
	<circle cx="464.238" cy="666.37" r="4" fill="#0" id="circle141"/>
	<circle cx="464.238" cy="681.918" r="4" fill="#0" id="circle142"/>
	<circle cx="472.013" cy="619.724" r="4" fill="#0" id="circle143"/>
	<circle cx="472.013" cy="635.273" r="4" fill="#0" id="circle144"/>
	<circle cx="473.567" cy="5.55486" r="4" fill="#0" id="circle145"/>
	<circle cx="479.787" cy="596.401" r="4" fill="#0" id="circle146"/>
	<circle cx="487.561" cy="573.078" r="4" fill="#0" id="circle147"/>
	<circle cx="489.116" cy="4" r="4" fill="#0" id="circle148"/>
	<circle cx="503.11" cy="576.188" r="4" fill="#0" id="circle149"/>
	<circle cx="504.665" cy="4" r="4" fill="#0" id="circle150"/>
	<circle cx="513.994" cy="588.627" r="4" fill="#0" id="circle151"/>
	<circle cx="520.213" cy="4" r="4" fill="#0" id="circle152"/>
	<circle cx="526.433" cy="599.511" r="4" fill="#0" id="circle153"/>
	<circle cx="535.762" cy="4" r="4" fill="#0" id="circle154"/>
	<circle cx="537.317" cy="611.95" r="4" fill="#0" id="circle155"/>
	<circle cx="545.091" cy="625.944" r="4" fill="#0" id="circle156"/>
	<circle cx="548.201" cy="641.492" r="4" fill="#0" id="circle157"/>
	<circle cx="551.31" cy="4" r="4" fill="#0" id="circle158"/>
	<circle cx="555.975" cy="655.486" r="4" fill="#0" id="circle159"/>
	<circle cx="555.975" cy="671.034" r="4" fill="#0" id="circle160"/>
	<circle cx="563.749" cy="685.028" r="4" fill="#0" id="circle161"/>
	<circle cx="563.749" cy="700.577" r="4" fill="#0" id="circle162"/>
	<circle cx="566.859" cy="4" r="4" fill="#0" id="circle163"/>
	<circle cx="571.524" cy="714.571" r="4" fill="#0" id="circle164"/>
	<circle cx="571.524" cy="730.119" r="4" fill="#0" id="circle165"/>
	<circle cx="580.853" cy="11.7743" r="4" fill="#0" id="circle166"/>
	<circle cx="587.072" cy="736.339" r="4" fill="#0" id="circle167"/>
	<circle cx="596.401" cy="11.7743" r="4" fill="#0" id="circle168"/>
	<circle cx="602.621" cy="736.339" r="4" fill="#0" id="circle169"/>
	<circle cx="611.95" cy="16.4389" r="4" fill="#0" id="circle170"/>
	<circle cx="618.169" cy="736.339" r="4" fill="#0" id="circle171"/>
	<circle cx="627.498" cy="19.5486" r="4" fill="#0" id="circle172"/>
	<circle cx="633.718" cy="736.339" r="4" fill="#0" id="circle173"/>
	<circle cx="635.273" cy="534.207" r="4" fill="#0" id="circle174"/>
	<circle cx="635.273" cy="549.755" r="4" fill="#0" id="circle175"/>
	<circle cx="641.492" cy="27.3229" r="4" fill="#0" id="circle176"/>
	<circle cx="643.047" cy="563.749" r="4" fill="#0" id="circle177"/>
	<circle cx="649.266" cy="736.339" r="4" fill="#0" id="circle178"/>
	<circle cx="650.821" cy="526.433" r="4" fill="#0" id="circle179"/>
	<circle cx="650.821" cy="577.743" r="4" fill="#0" id="circle180"/>
	<circle cx="655.486" cy="35.0972" r="4" fill="#0" id="circle181"/>
	<circle cx="658.596" cy="591.737" r="4" fill="#0" id="circle182"/>
	<circle cx="658.596" cy="607.285" r="4" fill="#0" id="circle183"/>
	<circle cx="664.815" cy="736.339" r="4" fill="#0" id="circle184"/>
	<circle cx="666.37" cy="518.658" r="4" fill="#0" id="circle185"/>
	<circle cx="666.37" cy="621.279" r="4" fill="#0" id="circle186"/>
	<circle cx="666.37" cy="636.828" r="4" fill="#0" id="circle187"/>
	<circle cx="669.48" cy="42.8715" r="4" fill="#0" id="circle188"/>
	<circle cx="674.144" cy="650.821" r="4" fill="#0" id="circle189"/>
	<circle cx="674.144" cy="666.37" r="4" fill="#0" id="circle190"/>
	<circle cx="680.364" cy="731.674" r="4" fill="#0" id="circle191"/>
	<circle cx="681.918" cy="518.658" r="4" fill="#0" id="circle192"/>
	<circle cx="681.918" cy="680.364" r="4" fill="#0" id="circle193"/>
	<circle cx="681.918" cy="695.912" r="4" fill="#0" id="circle194"/>
	<circle cx="683.473" cy="50.6458" r="4" fill="#0" id="circle195"/>
	<circle cx="689.693" cy="709.906" r="4" fill="#0" id="circle196"/>
	<circle cx="695.912" cy="526.433" r="4" fill="#0" id="circle197"/>
	<circle cx="697.467" cy="58.4201" r="4" fill="#0" id="circle198"/>
	<circle cx="705.241" cy="538.871" r="4" fill="#0" id="circle199"/>
	<circle cx="709.906" cy="67.7492" r="4" fill="#0" id="circle200"/>
	<circle cx="717.68" cy="549.755" r="4" fill="#0" id="circle201"/>
	<circle cx="723.9" cy="75.5235" r="4" fill="#0" id="circle202"/>
	<circle cx="731.674" cy="557.53" r="4" fill="#0" id="circle203"/>
	<circle cx="736.339" cy="86.4075" r="4" fill="#0" id="circle204"/>
	<circle cx="739.448" cy="571.524" r="4" fill="#0" id="circle205"/>
	<circle cx="747.223" cy="98.8464" r="4" fill="#0" id="circle206"/>
	<circle cx="750.332" cy="583.962" r="4" fill="#0" id="circle207"/>
	<circle cx="758.107" cy="597.956" r="4" fill="#0" id="circle208"/>
	<circle cx="759.661" cy="109.73" r="4" fill="#0" id="circle209"/>
	<circle cx="767.436" cy="123.724" r="4" fill="#0" id="circle210"/>
	<circle cx="767.436" cy="433.141" r="4" fill="#0" id="circle211"/>
	<circle cx="768.991" cy="610.395" r="4" fill="#0" id="circle212"/>
	<circle cx="773.655" cy="625.944" r="4" fill="#0" id="circle213"/>
	<circle cx="775.21" cy="447.135" r="4" fill="#0" id="circle214"/>
	<circle cx="776.765" cy="136.163" r="4" fill="#0" id="circle215"/>
	<circle cx="779.875" cy="422.257" r="4" fill="#0" id="circle216"/>
	<circle cx="781.429" cy="639.937" r="4" fill="#0" id="circle217"/>
	<circle cx="782.984" cy="655.486" r="4" fill="#0" id="circle218"/>
	<circle cx="787.649" cy="456.464" r="4" fill="#0" id="circle219"/>
	<circle cx="789.204" cy="409.818" r="4" fill="#0" id="circle220"/>
	<circle cx="789.204" cy="671.034" r="4" fill="#0" id="circle221"/>
	<circle cx="792.313" cy="136.163" r="4" fill="#0" id="circle222"/>
	<circle cx="801.643" cy="464.238" r="4" fill="#0" id="circle223"/>
	<circle cx="803.197" cy="417.592" r="4" fill="#0" id="circle224"/>
	<circle cx="803.197" cy="663.26" r="4" fill="#0" id="circle225"/>
	<circle cx="807.862" cy="136.163" r="4" fill="#0" id="circle226"/>
	<circle cx="814.082" cy="475.122" r="4" fill="#0" id="circle227"/>
	<circle cx="814.082" cy="650.821" r="4" fill="#0" id="circle228"/>
	<circle cx="817.191" cy="425.367" r="4" fill="#0" id="circle229"/>
	<circle cx="821.856" cy="262.107" r="4" fill="#0" id="circle230"/>
	<circle cx="821.856" cy="277.655" r="4" fill="#0" id="circle231"/>
	<circle cx="821.856" cy="293.204" r="4" fill="#0" id="circle232"/>
	<circle cx="821.856" cy="489.116" r="4" fill="#0" id="circle233"/>
	<circle cx="823.411" cy="136.163" r="4" fill="#0" id="circle234"/>
	<circle cx="829.63" cy="307.197" r="4" fill="#0" id="circle235"/>
	<circle cx="829.63" cy="436.251" r="4" fill="#0" id="circle236"/>
	<circle cx="829.63" cy="643.047" r="4" fill="#0" id="circle237"/>
	<circle cx="831.185" cy="501.555" r="4" fill="#0" id="circle238"/>
	<circle cx="835.85" cy="451.799" r="4" fill="#0" id="circle239"/>
	<circle cx="837.404" cy="143.937" r="4" fill="#0" id="circle240"/>
	<circle cx="837.404" cy="262.107" r="4" fill="#0" id="circle241"/>
	<circle cx="837.404" cy="517.103" r="4" fill="#0" id="circle242"/>
	<circle cx="837.404" cy="627.498" r="4" fill="#0" id="circle243"/>
	<circle cx="845.179" cy="311.862" r="4" fill="#0" id="circle244"/>
	<circle cx="845.179" cy="611.95" r="4" fill="#0" id="circle245"/>
	<circle cx="848.288" cy="462.683" r="4" fill="#0" id="circle246"/>
	<circle cx="849.843" cy="526.433" r="4" fill="#0" id="circle247"/>
	<circle cx="852.953" cy="143.937" r="4" fill="#0" id="circle248"/>
	<circle cx="852.953" cy="265.216" r="4" fill="#0" id="circle249"/>
	<circle cx="852.953" cy="588.627" r="4" fill="#0" id="circle250"/>
	<circle cx="854.508" cy="478.232" r="4" fill="#0" id="circle251"/>
	<circle cx="860.727" cy="314.972" r="4" fill="#0" id="circle252"/>
	<circle cx="860.727" cy="538.871" r="4" fill="#0" id="circle253"/>
	<circle cx="860.727" cy="557.53" r="4" fill="#0" id="circle254"/>
	<circle cx="860.727" cy="573.078" r="4" fill="#0" id="circle255"/>
	<circle cx="866.947" cy="151.712" r="4" fill="#0" id="circle256"/>
	<circle cx="866.947" cy="487.561" r="4" fill="#0" id="circle257"/>
	<circle cx="868.502" cy="269.881" r="4" fill="#0" id="circle258"/>
	<circle cx="871.611" cy="503.11" r="4" fill="#0" id="circle259"/>
	<circle cx="874.721" cy="322.746" r="4" fill="#0" id="circle260"/>
	<circle cx="882.495" cy="151.712" r="4" fill="#0" id="circle261"/>
	<circle cx="882.495" cy="277.655" r="4" fill="#0" id="circle262"/>
	<circle cx="884.05" cy="513.994" r="4" fill="#0" id="circle263"/>
	<circle cx="887.16" cy="332.075" r="4" fill="#0" id="circle264"/>
	<circle cx="896.489" cy="159.486" r="4" fill="#0" id="circle265"/>
	<circle cx="896.489" cy="285.429" r="4" fill="#0" id="circle266"/>
	<circle cx="898.044" cy="506.219" r="4" fill="#0" id="circle267"/>
	<circle cx="899.599" cy="342.959" r="4" fill="#0" id="circle268"/>
	<circle cx="899.599" cy="479.787" r="4" fill="#0" id="circle269"/>
	<circle cx="907.373" cy="456.464" r="4" fill="#0" id="circle270"/>
	<circle cx="910.483" cy="293.204" r="4" fill="#0" id="circle271"/>
	<circle cx="910.483" cy="355.398" r="4" fill="#0" id="circle272"/>
	<circle cx="912.038" cy="161.041" r="4" fill="#0" id="circle273"/>
	<circle cx="915.147" cy="440.915" r="4" fill="#0" id="circle274"/>
	<circle cx="922.922" cy="366.282" r="4" fill="#0" id="circle275"/>
	<circle cx="924.476" cy="300.978" r="4" fill="#0" id="circle276"/>
	<circle cx="926.031" cy="168.815" r="4" fill="#0" id="circle277"/>
	<circle cx="927.586" cy="430.031" r="4" fill="#0" id="circle278"/>
	<circle cx="929.141" cy="381.831" r="4" fill="#0" id="circle279"/>
	<circle cx="930.696" cy="402.044" r="4" fill="#0" id="circle280"/>
	<circle cx="938.47" cy="179.699" r="4" fill="#0" id="circle281"/>
	<circle cx="938.47" cy="308.752" r="4" fill="#0" id="circle282"/>
	<circle cx="952.464" cy="187.473" r="4" fill="#0" id="circle283"/>
	<circle cx="954.019" cy="311.862" r="4" fill="#0" id="circle284"/>
	<circle cx="968.013" cy="193.693" r="4" fill="#0" id="circle285"/>
	<circle cx="969.567" cy="316.527" r="4" fill="#0" id="circle286"/>
	<circle cx="977.342" cy="293.204" r="4" fill="#0" id="circle287"/>
	<circle cx="983.561" cy="198.357" r="4" fill="#0" id="circle288"/>
	<circle cx="985.116" cy="254.332" r="4" fill="#0" id="circle289"/>
	<circle cx="985.116" cy="269.881" r="4" fill="#0" id="circle290"/>
	<circle cx="992.89" cy="223.235" r="4" fill="#0" id="circle291"/>
	<circle cx="992.89" cy="238.784" r="4" fill="#0" id="circle292"/>
	<circle cx="996" cy="207.687" r="4" fill="#0" id="circle293"/>
	</g>
</svg>