<?xml version="1.0" encoding="UTF-8" standalone="no"?>
<!-- Created with CurveBenchmark -->
<svg
	xmlns:dc="http://purl.org/dc/elements/1.1/"
	xmlns:cc="http://creativecommons.org/ns#"
	xmlns:rdf="http://www.w3.org/1999/02/22-rdf-syntax-ns#"
	xmlns:svg="http://www.w3.org/2000/svg"
	xmlns="http://www.w3.org/2000/svg"
	xmlns:sodipodi="http://sodipodi.sourceforge.net/DTD/sodipodi-0.dtd"
	xmlns:inkscape="http://www.inkscape.org/namespaces/inkscape"
	width="1000"
	height="1000"
	id="svg2"
	version="1.1"
	sodipodi:docname="manifold/crawl-fish110.png.txt">
<defs
	id="defs4" />
<metadata
	id="metadata7">
	<rdf:RDF>
		<cc:Work
			rdf:about="">
			<dc:format>image/svg+xml</dc:format>
			<dc:type
				rdf:resource="http://purl.org/dc/dcmitype/StillImage" />
			<dc:title></dc:title>
		</cc:Work>
	</rdf:RDF>
</metadata>
<g
	inkscape:label="Layer 1"
	inkscape:groupmode="layer"
	id="layer1">
	<path style="fill:none;stroke:red;stroke-width:1px;stroke-linecap:butt;stroke-linejoin:miter;stroke-opacity:1" d="M 16.1718,454.356 16.1718,393.497 z" id="boundary" inkscape:connector-curvature="0" />
	<path style="fill:none;stroke:red;stroke-width:1px;stroke-linecap:butt;stroke-linejoin:miter;stroke-opacity:1" d="M 16.1718,393.497 16.1718,332.638 z" id="boundary" inkscape:connector-curvature="0" />
	<path style="fill:none;stroke:red;stroke-width:1px;stroke-linecap:butt;stroke-linejoin:miter;stroke-opacity:1" d="M 16.1718,454.356 16.1718,515.215 z" id="boundary" inkscape:connector-curvature="0" />
	<path style="fill:none;stroke:red;stroke-width:1px;stroke-linecap:butt;stroke-linejoin:miter;stroke-opacity:1" d="M 16.1718,515.215 16.1718,576.074 z" id="boundary" inkscape:connector-curvature="0" />
	<path style="fill:none;stroke:red;stroke-width:1px;stroke-linecap:butt;stroke-linejoin:miter;stroke-opacity:1" d="M 16.1718,332.638 4,271.779 z" id="boundary" inkscape:connector-curvature="0" />
	<path style="fill:none;stroke:red;stroke-width:1px;stroke-linecap:butt;stroke-linejoin:miter;stroke-opacity:1" d="M 4,271.779 64.8589,271.779 z" id="boundary" inkscape:connector-curvature="0" />
	<path style="fill:none;stroke:red;stroke-width:1px;stroke-linecap:butt;stroke-linejoin:miter;stroke-opacity:1" d="M 64.8589,271.779 113.546,314.38 z" id="boundary" inkscape:connector-curvature="0" />
	<path style="fill:none;stroke:red;stroke-width:1px;stroke-linecap:butt;stroke-linejoin:miter;stroke-opacity:1" d="M 113.546,314.38 150.061,363.067 z" id="boundary" inkscape:connector-curvature="0" />
	<path style="fill:none;stroke:red;stroke-width:1px;stroke-linecap:butt;stroke-linejoin:miter;stroke-opacity:1" d="M 150.061,363.067 186.577,283.951 z" id="boundary" inkscape:connector-curvature="0" />
	<path style="fill:none;stroke:red;stroke-width:1px;stroke-linecap:butt;stroke-linejoin:miter;stroke-opacity:1" d="M 186.577,283.951 210.92,223.092 z" id="boundary" inkscape:connector-curvature="0" />
	<path style="fill:none;stroke:red;stroke-width:1px;stroke-linecap:butt;stroke-linejoin:miter;stroke-opacity:1" d="M 210.92,223.092 247.436,174.405 z" id="boundary" inkscape:connector-curvature="0" />
	<path style="fill:none;stroke:red;stroke-width:1px;stroke-linecap:butt;stroke-linejoin:miter;stroke-opacity:1" d="M 247.436,174.405 308.294,180.491 z" id="boundary" inkscape:connector-curvature="0" />
	<path style="fill:none;stroke:red;stroke-width:1px;stroke-linecap:butt;stroke-linejoin:miter;stroke-opacity:1" d="M 308.294,180.491 356.982,137.89 z" id="boundary" inkscape:connector-curvature="0" />
	<path style="fill:none;stroke:red;stroke-width:1px;stroke-linecap:butt;stroke-linejoin:miter;stroke-opacity:1" d="M 356.982,137.89 393.497,89.2025 z" id="boundary" inkscape:connector-curvature="0" />
	<path style="fill:none;stroke:red;stroke-width:1px;stroke-linecap:butt;stroke-linejoin:miter;stroke-opacity:1" d="M 393.497,89.2025 442.184,40.5153 z" id="boundary" inkscape:connector-curvature="0" />
	<path style="fill:none;stroke:red;stroke-width:1px;stroke-linecap:butt;stroke-linejoin:miter;stroke-opacity:1" d="M 442.184,40.5153 490.871,4 z" id="boundary" inkscape:connector-curvature="0" />
	<path style="fill:none;stroke:red;stroke-width:1px;stroke-linecap:butt;stroke-linejoin:miter;stroke-opacity:1" d="M 490.871,4 533.472,52.6871 z" id="boundary" inkscape:connector-curvature="0" />
	<path style="fill:none;stroke:red;stroke-width:1px;stroke-linecap:butt;stroke-linejoin:miter;stroke-opacity:1" d="M 533.472,52.6871 551.73,113.546 z" id="boundary" inkscape:connector-curvature="0" />
	<path style="fill:none;stroke:red;stroke-width:1px;stroke-linecap:butt;stroke-linejoin:miter;stroke-opacity:1" d="M 551.73,113.546 557.816,174.405 z" id="boundary" inkscape:connector-curvature="0" />
	<path style="fill:none;stroke:red;stroke-width:1px;stroke-linecap:butt;stroke-linejoin:miter;stroke-opacity:1" d="M 557.816,174.405 594.331,223.092 z" id="boundary" inkscape:connector-curvature="0" />
	<path style="fill:none;stroke:red;stroke-width:1px;stroke-linecap:butt;stroke-linejoin:miter;stroke-opacity:1" d="M 594.331,223.092 649.104,253.521 z" id="boundary" inkscape:connector-curvature="0" />
	<path style="fill:none;stroke:red;stroke-width:1px;stroke-linecap:butt;stroke-linejoin:miter;stroke-opacity:1" d="M 649.104,253.521 703.877,283.951 z" id="boundary" inkscape:connector-curvature="0" />
	<path style="fill:none;stroke:red;stroke-width:1px;stroke-linecap:butt;stroke-linejoin:miter;stroke-opacity:1" d="M 703.877,283.951 764.736,308.294 z" id="boundary" inkscape:connector-curvature="0" />
	<path style="fill:none;stroke:red;stroke-width:1px;stroke-linecap:butt;stroke-linejoin:miter;stroke-opacity:1" d="M 764.736,308.294 801.252,356.982 z" id="boundary" inkscape:connector-curvature="0" />
	<path style="fill:none;stroke:red;stroke-width:1px;stroke-linecap:butt;stroke-linejoin:miter;stroke-opacity:1" d="M 801.252,356.982 813.423,417.84 z" id="boundary" inkscape:connector-curvature="0" />
	<path style="fill:none;stroke:red;stroke-width:1px;stroke-linecap:butt;stroke-linejoin:miter;stroke-opacity:1" d="M 813.423,417.84 831.681,478.699 z" id="boundary" inkscape:connector-curvature="0" />
	<path style="fill:none;stroke:red;stroke-width:1px;stroke-linecap:butt;stroke-linejoin:miter;stroke-opacity:1" d="M 831.681,478.699 825.595,563.902 z" id="boundary" inkscape:connector-curvature="0" />
	<path style="fill:none;stroke:red;stroke-width:1px;stroke-linecap:butt;stroke-linejoin:miter;stroke-opacity:1" d="M 825.595,563.902 795.166,655.19 z" id="boundary" inkscape:connector-curvature="0" />
	<path style="fill:none;stroke:red;stroke-width:1px;stroke-linecap:butt;stroke-linejoin:miter;stroke-opacity:1" d="M 795.166,655.19 746.479,691.706 z" id="boundary" inkscape:connector-curvature="0" />
	<path style="fill:none;stroke:red;stroke-width:1px;stroke-linecap:butt;stroke-linejoin:miter;stroke-opacity:1" d="M 746.479,691.706 697.791,728.221 z" id="boundary" inkscape:connector-curvature="0" />
	<path style="fill:none;stroke:red;stroke-width:1px;stroke-linecap:butt;stroke-linejoin:miter;stroke-opacity:1" d="M 697.791,728.221 643.018,758.65 z" id="boundary" inkscape:connector-curvature="0" />
	<path style="fill:none;stroke:red;stroke-width:1px;stroke-linecap:butt;stroke-linejoin:miter;stroke-opacity:1" d="M 643.018,758.65 649.104,819.509 z" id="boundary" inkscape:connector-curvature="0" />
	<path style="fill:none;stroke:red;stroke-width:1px;stroke-linecap:butt;stroke-linejoin:miter;stroke-opacity:1" d="M 649.104,819.509 661.276,880.368 z" id="boundary" inkscape:connector-curvature="0" />
	<path style="fill:none;stroke:red;stroke-width:1px;stroke-linecap:butt;stroke-linejoin:miter;stroke-opacity:1" d="M 661.276,880.368 667.362,941.227 z" id="boundary" inkscape:connector-curvature="0" />
	<path style="fill:none;stroke:red;stroke-width:1px;stroke-linecap:butt;stroke-linejoin:miter;stroke-opacity:1" d="M 667.362,941.227 624.761,996 z" id="boundary" inkscape:connector-curvature="0" />
	<path style="fill:none;stroke:red;stroke-width:1px;stroke-linecap:butt;stroke-linejoin:miter;stroke-opacity:1" d="M 624.761,996 588.245,947.313 z" id="boundary" inkscape:connector-curvature="0" />
	<path style="fill:none;stroke:red;stroke-width:1px;stroke-linecap:butt;stroke-linejoin:miter;stroke-opacity:1" d="M 588.245,947.313 551.73,898.626 z" id="boundary" inkscape:connector-curvature="0" />
	<path style="fill:none;stroke:red;stroke-width:1px;stroke-linecap:butt;stroke-linejoin:miter;stroke-opacity:1" d="M 551.73,898.626 527.387,837.767 z" id="boundary" inkscape:connector-curvature="0" />
	<path style="fill:none;stroke:red;stroke-width:1px;stroke-linecap:butt;stroke-linejoin:miter;stroke-opacity:1" d="M 527.387,837.767 509.129,776.908 z" id="boundary" inkscape:connector-curvature="0" />
	<path style="fill:none;stroke:red;stroke-width:1px;stroke-linecap:butt;stroke-linejoin:miter;stroke-opacity:1" d="M 509.129,776.908 460.442,819.509 z" id="boundary" inkscape:connector-curvature="0" />
	<path style="fill:none;stroke:red;stroke-width:1px;stroke-linecap:butt;stroke-linejoin:miter;stroke-opacity:1" d="M 460.442,819.509 423.926,868.196 z" id="boundary" inkscape:connector-curvature="0" />
	<path style="fill:none;stroke:red;stroke-width:1px;stroke-linecap:butt;stroke-linejoin:miter;stroke-opacity:1" d="M 423.926,868.196 381.325,922.969 z" id="boundary" inkscape:connector-curvature="0" />
	<path style="fill:none;stroke:red;stroke-width:1px;stroke-linecap:butt;stroke-linejoin:miter;stroke-opacity:1" d="M 381.325,922.969 344.81,971.656 z" id="boundary" inkscape:connector-curvature="0" />
	<path style="fill:none;stroke:red;stroke-width:1px;stroke-linecap:butt;stroke-linejoin:miter;stroke-opacity:1" d="M 344.81,971.656 283.951,977.742 z" id="boundary" inkscape:connector-curvature="0" />
	<path style="fill:none;stroke:red;stroke-width:1px;stroke-linecap:butt;stroke-linejoin:miter;stroke-opacity:1" d="M 283.951,977.742 283.951,916.883 z" id="boundary" inkscape:connector-curvature="0" />
	<path style="fill:none;stroke:red;stroke-width:1px;stroke-linecap:butt;stroke-linejoin:miter;stroke-opacity:1" d="M 283.951,916.883 308.294,856.025 z" id="boundary" inkscape:connector-curvature="0" />
	<path style="fill:none;stroke:red;stroke-width:1px;stroke-linecap:butt;stroke-linejoin:miter;stroke-opacity:1" d="M 308.294,856.025 338.724,801.252 z" id="boundary" inkscape:connector-curvature="0" />
	<path style="fill:none;stroke:red;stroke-width:1px;stroke-linecap:butt;stroke-linejoin:miter;stroke-opacity:1" d="M 338.724,801.252 296.123,752.564 z" id="boundary" inkscape:connector-curvature="0" />
	<path style="fill:none;stroke:red;stroke-width:1px;stroke-linecap:butt;stroke-linejoin:miter;stroke-opacity:1" d="M 296.123,752.564 247.436,789.08 z" id="boundary" inkscape:connector-curvature="0" />
	<path style="fill:none;stroke:red;stroke-width:1px;stroke-linecap:butt;stroke-linejoin:miter;stroke-opacity:1" d="M 247.436,789.08 186.577,764.736 z" id="boundary" inkscape:connector-curvature="0" />
	<path style="fill:none;stroke:red;stroke-width:1px;stroke-linecap:butt;stroke-linejoin:miter;stroke-opacity:1" d="M 186.577,764.736 162.233,703.877 z" id="boundary" inkscape:connector-curvature="0" />
	<path style="fill:none;stroke:red;stroke-width:1px;stroke-linecap:butt;stroke-linejoin:miter;stroke-opacity:1" d="M 162.233,703.877 101.374,691.706 z" id="boundary" inkscape:connector-curvature="0" />
	<path style="fill:none;stroke:red;stroke-width:1px;stroke-linecap:butt;stroke-linejoin:miter;stroke-opacity:1" d="M 101.374,691.706 52.6871,728.221 z" id="boundary" inkscape:connector-curvature="0" />
	<path style="fill:none;stroke:red;stroke-width:1px;stroke-linecap:butt;stroke-linejoin:miter;stroke-opacity:1" d="M 52.6871,728.221 4,685.62 z" id="boundary" inkscape:connector-curvature="0" />
	<path style="fill:none;stroke:red;stroke-width:1px;stroke-linecap:butt;stroke-linejoin:miter;stroke-opacity:1" d="M 16.1718,576.074 4,685.62 z" id="boundary" inkscape:connector-curvature="0" />
	<circle cx="4" cy="271.779" r="4" fill="#0" id="circle0"/>
	<circle cx="4" cy="685.62" r="4" fill="#0" id="circle1"/>
	<circle cx="16.1718" cy="332.638" r="4" fill="#0" id="circle2"/>
	<circle cx="16.1718" cy="393.497" r="4" fill="#0" id="circle3"/>
	<circle cx="16.1718" cy="454.356" r="4" fill="#0" id="circle4"/>
	<circle cx="16.1718" cy="515.215" r="4" fill="#0" id="circle5"/>
	<circle cx="16.1718" cy="576.074" r="4" fill="#0" id="circle6"/>
	<circle cx="52.6871" cy="728.221" r="4" fill="#0" id="circle7"/>
	<circle cx="64.8589" cy="271.779" r="4" fill="#0" id="circle8"/>
	<circle cx="101.374" cy="691.706" r="4" fill="#0" id="circle9"/>
	<circle cx="113.546" cy="314.38" r="4" fill="#0" id="circle10"/>
	<circle cx="150.061" cy="363.067" r="4" fill="#0" id="circle11"/>
	<circle cx="162.233" cy="703.877" r="4" fill="#0" id="circle12"/>
	<circle cx="186.577" cy="283.951" r="4" fill="#0" id="circle13"/>
	<circle cx="186.577" cy="764.736" r="4" fill="#0" id="circle14"/>
	<circle cx="210.92" cy="223.092" r="4" fill="#0" id="circle15"/>
	<circle cx="247.436" cy="174.405" r="4" fill="#0" id="circle16"/>
	<circle cx="247.436" cy="789.08" r="4" fill="#0" id="circle17"/>
	<circle cx="283.951" cy="916.883" r="4" fill="#0" id="circle18"/>
	<circle cx="283.951" cy="977.742" r="4" fill="#0" id="circle19"/>
	<circle cx="296.123" cy="752.564" r="4" fill="#0" id="circle20"/>
	<circle cx="308.294" cy="180.491" r="4" fill="#0" id="circle21"/>
	<circle cx="308.294" cy="856.025" r="4" fill="#0" id="circle22"/>
	<circle cx="338.724" cy="801.252" r="4" fill="#0" id="circle23"/>
	<circle cx="344.81" cy="971.656" r="4" fill="#0" id="circle24"/>
	<circle cx="356.982" cy="137.89" r="4" fill="#0" id="circle25"/>
	<circle cx="381.325" cy="922.969" r="4" fill="#0" id="circle26"/>
	<circle cx="393.497" cy="89.2025" r="4" fill="#0" id="circle27"/>
	<circle cx="423.926" cy="868.196" r="4" fill="#0" id="circle28"/>
	<circle cx="442.184" cy="40.5153" r="4" fill="#0" id="circle29"/>
	<circle cx="460.442" cy="819.509" r="4" fill="#0" id="circle30"/>
	<circle cx="490.871" cy="4" r="4" fill="#0" id="circle31"/>
	<circle cx="509.129" cy="776.908" r="4" fill="#0" id="circle32"/>
	<circle cx="527.387" cy="837.767" r="4" fill="#0" id="circle33"/>
	<circle cx="533.472" cy="52.6871" r="4" fill="#0" id="circle34"/>
	<circle cx="551.73" cy="113.546" r="4" fill="#0" id="circle35"/>
	<circle cx="551.73" cy="898.626" r="4" fill="#0" id="circle36"/>
	<circle cx="557.816" cy="174.405" r="4" fill="#0" id="circle37"/>
	<circle cx="588.245" cy="947.313" r="4" fill="#0" id="circle38"/>
	<circle cx="594.331" cy="223.092" r="4" fill="#0" id="circle39"/>
	<circle cx="624.761" cy="996" r="4" fill="#0" id="circle40"/>
	<circle cx="643.018" cy="758.65" r="4" fill="#0" id="circle41"/>
	<circle cx="649.104" cy="253.521" r="4" fill="#0" id="circle42"/>
	<circle cx="649.104" cy="819.509" r="4" fill="#0" id="circle43"/>
	<circle cx="661.276" cy="880.368" r="4" fill="#0" id="circle44"/>
	<circle cx="667.362" cy="941.227" r="4" fill="#0" id="circle45"/>
	<circle cx="697.791" cy="728.221" r="4" fill="#0" id="circle46"/>
	<circle cx="703.877" cy="283.951" r="4" fill="#0" id="circle47"/>
	<circle cx="746.479" cy="691.706" r="4" fill="#0" id="circle48"/>
	<circle cx="764.736" cy="308.294" r="4" fill="#0" id="circle49"/>
	<circle cx="795.166" cy="655.19" r="4" fill="#0" id="circle50"/>
	<circle cx="801.252" cy="356.982" r="4" fill="#0" id="circle51"/>
	<circle cx="813.423" cy="417.84" r="4" fill="#0" id="circle52"/>
	<circle cx="825.595" cy="563.902" r="4" fill="#0" id="circle53"/>
	<circle cx="831.681" cy="478.699" r="4" fill="#0" id="circle54"/>
	</g>
</svg>