<?xml version="1.0" encoding="UTF-8" standalone="no"?>
<!-- Created with CurveBenchmark -->
<svg
	xmlns:dc="http://purl.org/dc/elements/1.1/"
	xmlns:cc="http://creativecommons.org/ns#"
	xmlns:rdf="http://www.w3.org/1999/02/22-rdf-syntax-ns#"
	xmlns:svg="http://www.w3.org/2000/svg"
	xmlns="http://www.w3.org/2000/svg"
	xmlns:sodipodi="http://sodipodi.sourceforge.net/DTD/sodipodi-0.dtd"
	xmlns:inkscape="http://www.inkscape.org/namespaces/inkscape"
	width="1000"
	height="1000"
	id="svg2"
	version="1.1"
	sodipodi:docname="manifold/crawl-fish055.png.txt">
<defs
	id="defs4" />
<metadata
	id="metadata7">
	<rdf:RDF>
		<cc:Work
			rdf:about="">
			<dc:format>image/svg+xml</dc:format>
			<dc:type
				rdf:resource="http://purl.org/dc/dcmitype/StillImage" />
			<dc:title></dc:title>
		</cc:Work>
	</rdf:RDF>
</metadata>
<g
	inkscape:label="Layer 1"
	inkscape:groupmode="layer"
	id="layer1">
	<path style="fill:none;stroke:red;stroke-width:1px;stroke-linecap:butt;stroke-linejoin:miter;stroke-opacity:1" d="M 4,391.572 31.6837,428.484 z" id="boundary" inkscape:connector-curvature="0" />
	<path style="fill:none;stroke:red;stroke-width:1px;stroke-linecap:butt;stroke-linejoin:miter;stroke-opacity:1" d="M 4,391.572 4,345.433 z" id="boundary" inkscape:connector-curvature="0" />
	<path style="fill:none;stroke:red;stroke-width:1px;stroke-linecap:butt;stroke-linejoin:miter;stroke-opacity:1" d="M 4,345.433 31.6837,308.521 z" id="boundary" inkscape:connector-curvature="0" />
	<path style="fill:none;stroke:red;stroke-width:1px;stroke-linecap:butt;stroke-linejoin:miter;stroke-opacity:1" d="M 31.6837,308.521 59.3674,271.609 z" id="boundary" inkscape:connector-curvature="0" />
	<path style="fill:none;stroke:red;stroke-width:1px;stroke-linecap:butt;stroke-linejoin:miter;stroke-opacity:1" d="M 31.6837,428.484 45.5256,474.623 z" id="boundary" inkscape:connector-curvature="0" />
	<path style="fill:none;stroke:red;stroke-width:1px;stroke-linecap:butt;stroke-linejoin:miter;stroke-opacity:1" d="M 45.5256,474.623 73.2093,511.535 z" id="boundary" inkscape:connector-curvature="0" />
	<path style="fill:none;stroke:red;stroke-width:1px;stroke-linecap:butt;stroke-linejoin:miter;stroke-opacity:1" d="M 73.2093,511.535 114.735,534.605 z" id="boundary" inkscape:connector-curvature="0" />
	<path style="fill:none;stroke:red;stroke-width:1px;stroke-linecap:butt;stroke-linejoin:miter;stroke-opacity:1" d="M 114.735,534.605 160.874,543.833 z" id="boundary" inkscape:connector-curvature="0" />
	<path style="fill:none;stroke:red;stroke-width:1px;stroke-linecap:butt;stroke-linejoin:miter;stroke-opacity:1" d="M 160.874,543.833 197.786,571.516 z" id="boundary" inkscape:connector-curvature="0" />
	<path style="fill:none;stroke:red;stroke-width:1px;stroke-linecap:butt;stroke-linejoin:miter;stroke-opacity:1" d="M 197.786,571.516 243.926,589.972 z" id="boundary" inkscape:connector-curvature="0" />
	<path style="fill:none;stroke:red;stroke-width:1px;stroke-linecap:butt;stroke-linejoin:miter;stroke-opacity:1" d="M 243.926,589.972 253.153,636.112 z" id="boundary" inkscape:connector-curvature="0" />
	<path style="fill:none;stroke:red;stroke-width:1px;stroke-linecap:butt;stroke-linejoin:miter;stroke-opacity:1" d="M 253.153,636.112 253.153,682.251 z" id="boundary" inkscape:connector-curvature="0" />
	<path style="fill:none;stroke:red;stroke-width:1px;stroke-linecap:butt;stroke-linejoin:miter;stroke-opacity:1" d="M 253.153,682.251 262.381,728.391 z" id="boundary" inkscape:connector-curvature="0" />
	<path style="fill:none;stroke:red;stroke-width:1px;stroke-linecap:butt;stroke-linejoin:miter;stroke-opacity:1" d="M 262.381,728.391 290.065,765.302 z" id="boundary" inkscape:connector-curvature="0" />
	<path style="fill:none;stroke:red;stroke-width:1px;stroke-linecap:butt;stroke-linejoin:miter;stroke-opacity:1" d="M 290.065,765.302 331.591,742.233 z" id="boundary" inkscape:connector-curvature="0" />
	<path style="fill:none;stroke:red;stroke-width:1px;stroke-linecap:butt;stroke-linejoin:miter;stroke-opacity:1" d="M 331.591,742.233 359.274,705.321 z" id="boundary" inkscape:connector-curvature="0" />
	<path style="fill:none;stroke:red;stroke-width:1px;stroke-linecap:butt;stroke-linejoin:miter;stroke-opacity:1" d="M 359.274,705.321 382.344,663.795 z" id="boundary" inkscape:connector-curvature="0" />
	<path style="fill:none;stroke:red;stroke-width:1px;stroke-linecap:butt;stroke-linejoin:miter;stroke-opacity:1" d="M 382.344,663.795 419.256,691.479 z" id="boundary" inkscape:connector-curvature="0" />
	<path style="fill:none;stroke:red;stroke-width:1px;stroke-linecap:butt;stroke-linejoin:miter;stroke-opacity:1" d="M 419.256,691.479 456.167,723.777 z" id="boundary" inkscape:connector-curvature="0" />
	<path style="fill:none;stroke:red;stroke-width:1px;stroke-linecap:butt;stroke-linejoin:miter;stroke-opacity:1" d="M 456.167,723.777 493.079,751.46 z" id="boundary" inkscape:connector-curvature="0" />
	<path style="fill:none;stroke:red;stroke-width:1px;stroke-linecap:butt;stroke-linejoin:miter;stroke-opacity:1" d="M 493.079,751.46 539.219,756.074 z" id="boundary" inkscape:connector-curvature="0" />
	<path style="fill:none;stroke:red;stroke-width:1px;stroke-linecap:butt;stroke-linejoin:miter;stroke-opacity:1" d="M 59.3674,271.609 96.2791,234.698 z" id="boundary" inkscape:connector-curvature="0" />
	<path style="fill:none;stroke:red;stroke-width:1px;stroke-linecap:butt;stroke-linejoin:miter;stroke-opacity:1" d="M 96.2791,234.698 142.419,225.47 z" id="boundary" inkscape:connector-curvature="0" />
	<path style="fill:none;stroke:red;stroke-width:1px;stroke-linecap:butt;stroke-linejoin:miter;stroke-opacity:1" d="M 142.419,225.47 188.558,207.014 z" id="boundary" inkscape:connector-curvature="0" />
	<path style="fill:none;stroke:red;stroke-width:1px;stroke-linecap:butt;stroke-linejoin:miter;stroke-opacity:1" d="M 188.558,207.014 225.47,179.33 z" id="boundary" inkscape:connector-curvature="0" />
	<path style="fill:none;stroke:red;stroke-width:1px;stroke-linecap:butt;stroke-linejoin:miter;stroke-opacity:1" d="M 225.47,179.33 271.609,170.102 z" id="boundary" inkscape:connector-curvature="0" />
	<path style="fill:none;stroke:red;stroke-width:1px;stroke-linecap:butt;stroke-linejoin:miter;stroke-opacity:1" d="M 271.609,170.102 308.521,133.191 z" id="boundary" inkscape:connector-curvature="0" />
	<path style="fill:none;stroke:red;stroke-width:1px;stroke-linecap:butt;stroke-linejoin:miter;stroke-opacity:1" d="M 308.521,133.191 308.521,87.0512 z" id="boundary" inkscape:connector-curvature="0" />
	<path style="fill:none;stroke:red;stroke-width:1px;stroke-linecap:butt;stroke-linejoin:miter;stroke-opacity:1" d="M 308.521,87.0512 336.205,50.1395 z" id="boundary" inkscape:connector-curvature="0" />
	<path style="fill:none;stroke:red;stroke-width:1px;stroke-linecap:butt;stroke-linejoin:miter;stroke-opacity:1" d="M 336.205,50.1395 354.66,4 z" id="boundary" inkscape:connector-curvature="0" />
	<path style="fill:none;stroke:red;stroke-width:1px;stroke-linecap:butt;stroke-linejoin:miter;stroke-opacity:1" d="M 354.66,4 400.8,4 z" id="boundary" inkscape:connector-curvature="0" />
	<path style="fill:none;stroke:red;stroke-width:1px;stroke-linecap:butt;stroke-linejoin:miter;stroke-opacity:1" d="M 400.8,4 442.326,27.0698 z" id="boundary" inkscape:connector-curvature="0" />
	<path style="fill:none;stroke:red;stroke-width:1px;stroke-linecap:butt;stroke-linejoin:miter;stroke-opacity:1" d="M 442.326,27.0698 479.237,54.7535 z" id="boundary" inkscape:connector-curvature="0" />
	<path style="fill:none;stroke:red;stroke-width:1px;stroke-linecap:butt;stroke-linejoin:miter;stroke-opacity:1" d="M 479.237,54.7535 516.149,82.4372 z" id="boundary" inkscape:connector-curvature="0" />
	<path style="fill:none;stroke:red;stroke-width:1px;stroke-linecap:butt;stroke-linejoin:miter;stroke-opacity:1" d="M 516.149,82.4372 553.06,114.735 z" id="boundary" inkscape:connector-curvature="0" />
	<path style="fill:none;stroke:red;stroke-width:1px;stroke-linecap:butt;stroke-linejoin:miter;stroke-opacity:1" d="M 553.06,114.735 585.358,151.647 z" id="boundary" inkscape:connector-curvature="0" />
	<path style="fill:none;stroke:red;stroke-width:1px;stroke-linecap:butt;stroke-linejoin:miter;stroke-opacity:1" d="M 585.358,151.647 631.498,142.419 z" id="boundary" inkscape:connector-curvature="0" />
	<path style="fill:none;stroke:red;stroke-width:1px;stroke-linecap:butt;stroke-linejoin:miter;stroke-opacity:1" d="M 631.498,142.419 677.637,123.963 z" id="boundary" inkscape:connector-curvature="0" />
	<path style="fill:none;stroke:red;stroke-width:1px;stroke-linecap:butt;stroke-linejoin:miter;stroke-opacity:1" d="M 677.637,123.963 714.549,151.647 z" id="boundary" inkscape:connector-curvature="0" />
	<path style="fill:none;stroke:red;stroke-width:1px;stroke-linecap:butt;stroke-linejoin:miter;stroke-opacity:1" d="M 714.549,151.647 742.233,188.558 z" id="boundary" inkscape:connector-curvature="0" />
	<path style="fill:none;stroke:red;stroke-width:1px;stroke-linecap:butt;stroke-linejoin:miter;stroke-opacity:1" d="M 742.233,188.558 765.302,230.084 z" id="boundary" inkscape:connector-curvature="0" />
	<path style="fill:none;stroke:red;stroke-width:1px;stroke-linecap:butt;stroke-linejoin:miter;stroke-opacity:1" d="M 765.302,230.084 792.986,266.995 z" id="boundary" inkscape:connector-curvature="0" />
	<path style="fill:none;stroke:red;stroke-width:1px;stroke-linecap:butt;stroke-linejoin:miter;stroke-opacity:1" d="M 792.986,266.995 839.126,276.223 z" id="boundary" inkscape:connector-curvature="0" />
	<path style="fill:none;stroke:red;stroke-width:1px;stroke-linecap:butt;stroke-linejoin:miter;stroke-opacity:1" d="M 839.126,276.223 876.037,248.54 z" id="boundary" inkscape:connector-curvature="0" />
	<path style="fill:none;stroke:red;stroke-width:1px;stroke-linecap:butt;stroke-linejoin:miter;stroke-opacity:1" d="M 876.037,248.54 912.949,220.856 z" id="boundary" inkscape:connector-curvature="0" />
	<path style="fill:none;stroke:red;stroke-width:1px;stroke-linecap:butt;stroke-linejoin:miter;stroke-opacity:1" d="M 912.949,220.856 954.474,197.786 z" id="boundary" inkscape:connector-curvature="0" />
	<path style="fill:none;stroke:red;stroke-width:1px;stroke-linecap:butt;stroke-linejoin:miter;stroke-opacity:1" d="M 954.474,197.786 996,234.698 z" id="boundary" inkscape:connector-curvature="0" />
	<path style="fill:none;stroke:red;stroke-width:1px;stroke-linecap:butt;stroke-linejoin:miter;stroke-opacity:1" d="M 996,234.698 986.772,290.065 z" id="boundary" inkscape:connector-curvature="0" />
	<path style="fill:none;stroke:red;stroke-width:1px;stroke-linecap:butt;stroke-linejoin:miter;stroke-opacity:1" d="M 986.772,290.065 986.772,336.205 z" id="boundary" inkscape:connector-curvature="0" />
	<path style="fill:none;stroke:red;stroke-width:1px;stroke-linecap:butt;stroke-linejoin:miter;stroke-opacity:1" d="M 986.772,336.205 986.772,382.344 z" id="boundary" inkscape:connector-curvature="0" />
	<path style="fill:none;stroke:red;stroke-width:1px;stroke-linecap:butt;stroke-linejoin:miter;stroke-opacity:1" d="M 986.772,382.344 986.772,428.484 z" id="boundary" inkscape:connector-curvature="0" />
	<path style="fill:none;stroke:red;stroke-width:1px;stroke-linecap:butt;stroke-linejoin:miter;stroke-opacity:1" d="M 986.772,428.484 986.772,474.623 z" id="boundary" inkscape:connector-curvature="0" />
	<path style="fill:none;stroke:red;stroke-width:1px;stroke-linecap:butt;stroke-linejoin:miter;stroke-opacity:1" d="M 986.772,474.623 996,520.763 z" id="boundary" inkscape:connector-curvature="0" />
	<path style="fill:none;stroke:red;stroke-width:1px;stroke-linecap:butt;stroke-linejoin:miter;stroke-opacity:1" d="M 996,520.763 949.86,562.288 z" id="boundary" inkscape:connector-curvature="0" />
	<path style="fill:none;stroke:red;stroke-width:1px;stroke-linecap:butt;stroke-linejoin:miter;stroke-opacity:1" d="M 949.86,562.288 908.335,539.219 z" id="boundary" inkscape:connector-curvature="0" />
	<path style="fill:none;stroke:red;stroke-width:1px;stroke-linecap:butt;stroke-linejoin:miter;stroke-opacity:1" d="M 908.335,539.219 871.423,511.535 z" id="boundary" inkscape:connector-curvature="0" />
	<path style="fill:none;stroke:red;stroke-width:1px;stroke-linecap:butt;stroke-linejoin:miter;stroke-opacity:1" d="M 871.423,511.535 834.512,479.237 z" id="boundary" inkscape:connector-curvature="0" />
	<path style="fill:none;stroke:red;stroke-width:1px;stroke-linecap:butt;stroke-linejoin:miter;stroke-opacity:1" d="M 834.512,479.237 792.986,456.167 z" id="boundary" inkscape:connector-curvature="0" />
	<path style="fill:none;stroke:red;stroke-width:1px;stroke-linecap:butt;stroke-linejoin:miter;stroke-opacity:1" d="M 792.986,456.167 783.758,520.763 z" id="boundary" inkscape:connector-curvature="0" />
	<path style="fill:none;stroke:red;stroke-width:1px;stroke-linecap:butt;stroke-linejoin:miter;stroke-opacity:1" d="M 783.758,520.763 769.916,580.744 z" id="boundary" inkscape:connector-curvature="0" />
	<path style="fill:none;stroke:red;stroke-width:1px;stroke-linecap:butt;stroke-linejoin:miter;stroke-opacity:1" d="M 769.916,580.744 728.391,608.428 z" id="boundary" inkscape:connector-curvature="0" />
	<path style="fill:none;stroke:red;stroke-width:1px;stroke-linecap:butt;stroke-linejoin:miter;stroke-opacity:1" d="M 728.391,608.428 682.251,599.2 z" id="boundary" inkscape:connector-curvature="0" />
	<path style="fill:none;stroke:red;stroke-width:1px;stroke-linecap:butt;stroke-linejoin:miter;stroke-opacity:1" d="M 682.251,599.2 640.726,576.13 z" id="boundary" inkscape:connector-curvature="0" />
	<path style="fill:none;stroke:red;stroke-width:1px;stroke-linecap:butt;stroke-linejoin:miter;stroke-opacity:1" d="M 640.726,576.13 594.586,580.744 z" id="boundary" inkscape:connector-curvature="0" />
	<path style="fill:none;stroke:red;stroke-width:1px;stroke-linecap:butt;stroke-linejoin:miter;stroke-opacity:1" d="M 594.586,580.744 548.447,580.744 z" id="boundary" inkscape:connector-curvature="0" />
	<path style="fill:none;stroke:red;stroke-width:1px;stroke-linecap:butt;stroke-linejoin:miter;stroke-opacity:1" d="M 548.447,580.744 502.307,580.744 z" id="boundary" inkscape:connector-curvature="0" />
	<path style="fill:none;stroke:red;stroke-width:1px;stroke-linecap:butt;stroke-linejoin:miter;stroke-opacity:1" d="M 502.307,580.744 525.377,622.27 z" id="boundary" inkscape:connector-curvature="0" />
	<path style="fill:none;stroke:red;stroke-width:1px;stroke-linecap:butt;stroke-linejoin:miter;stroke-opacity:1" d="M 525.377,622.27 539.219,668.409 z" id="boundary" inkscape:connector-curvature="0" />
	<path style="fill:none;stroke:red;stroke-width:1px;stroke-linecap:butt;stroke-linejoin:miter;stroke-opacity:1" d="M 539.219,668.409 539.219,756.074 z" id="boundary" inkscape:connector-curvature="0" />
	<circle cx="4" cy="345.433" r="4" fill="#0" id="circle0"/>
	<circle cx="4" cy="391.572" r="4" fill="#0" id="circle1"/>
	<circle cx="31.6837" cy="308.521" r="4" fill="#0" id="circle2"/>
	<circle cx="31.6837" cy="428.484" r="4" fill="#0" id="circle3"/>
	<circle cx="45.5256" cy="474.623" r="4" fill="#0" id="circle4"/>
	<circle cx="59.3674" cy="271.609" r="4" fill="#0" id="circle5"/>
	<circle cx="73.2093" cy="511.535" r="4" fill="#0" id="circle6"/>
	<circle cx="96.2791" cy="234.698" r="4" fill="#0" id="circle7"/>
	<circle cx="114.735" cy="534.605" r="4" fill="#0" id="circle8"/>
	<circle cx="142.419" cy="225.47" r="4" fill="#0" id="circle9"/>
	<circle cx="160.874" cy="543.833" r="4" fill="#0" id="circle10"/>
	<circle cx="188.558" cy="207.014" r="4" fill="#0" id="circle11"/>
	<circle cx="197.786" cy="571.516" r="4" fill="#0" id="circle12"/>
	<circle cx="225.47" cy="179.33" r="4" fill="#0" id="circle13"/>
	<circle cx="243.926" cy="589.972" r="4" fill="#0" id="circle14"/>
	<circle cx="253.153" cy="636.112" r="4" fill="#0" id="circle15"/>
	<circle cx="253.153" cy="682.251" r="4" fill="#0" id="circle16"/>
	<circle cx="262.381" cy="728.391" r="4" fill="#0" id="circle17"/>
	<circle cx="271.609" cy="170.102" r="4" fill="#0" id="circle18"/>
	<circle cx="290.065" cy="765.302" r="4" fill="#0" id="circle19"/>
	<circle cx="308.521" cy="87.0512" r="4" fill="#0" id="circle20"/>
	<circle cx="308.521" cy="133.191" r="4" fill="#0" id="circle21"/>
	<circle cx="331.591" cy="742.233" r="4" fill="#0" id="circle22"/>
	<circle cx="336.205" cy="50.1395" r="4" fill="#0" id="circle23"/>
	<circle cx="354.66" cy="4" r="4" fill="#0" id="circle24"/>
	<circle cx="359.274" cy="705.321" r="4" fill="#0" id="circle25"/>
	<circle cx="382.344" cy="663.795" r="4" fill="#0" id="circle26"/>
	<circle cx="400.8" cy="4" r="4" fill="#0" id="circle27"/>
	<circle cx="419.256" cy="691.479" r="4" fill="#0" id="circle28"/>
	<circle cx="442.326" cy="27.0698" r="4" fill="#0" id="circle29"/>
	<circle cx="456.167" cy="723.777" r="4" fill="#0" id="circle30"/>
	<circle cx="479.237" cy="54.7535" r="4" fill="#0" id="circle31"/>
	<circle cx="493.079" cy="751.46" r="4" fill="#0" id="circle32"/>
	<circle cx="502.307" cy="580.744" r="4" fill="#0" id="circle33"/>
	<circle cx="516.149" cy="82.4372" r="4" fill="#0" id="circle34"/>
	<circle cx="525.377" cy="622.27" r="4" fill="#0" id="circle35"/>
	<circle cx="539.219" cy="668.409" r="4" fill="#0" id="circle36"/>
	<circle cx="539.219" cy="756.074" r="4" fill="#0" id="circle37"/>
	<circle cx="548.447" cy="580.744" r="4" fill="#0" id="circle38"/>
	<circle cx="553.06" cy="114.735" r="4" fill="#0" id="circle39"/>
	<circle cx="585.358" cy="151.647" r="4" fill="#0" id="circle40"/>
	<circle cx="594.586" cy="580.744" r="4" fill="#0" id="circle41"/>
	<circle cx="631.498" cy="142.419" r="4" fill="#0" id="circle42"/>
	<circle cx="640.726" cy="576.13" r="4" fill="#0" id="circle43"/>
	<circle cx="677.637" cy="123.963" r="4" fill="#0" id="circle44"/>
	<circle cx="682.251" cy="599.2" r="4" fill="#0" id="circle45"/>
	<circle cx="714.549" cy="151.647" r="4" fill="#0" id="circle46"/>
	<circle cx="728.391" cy="608.428" r="4" fill="#0" id="circle47"/>
	<circle cx="742.233" cy="188.558" r="4" fill="#0" id="circle48"/>
	<circle cx="765.302" cy="230.084" r="4" fill="#0" id="circle49"/>
	<circle cx="769.916" cy="580.744" r="4" fill="#0" id="circle50"/>
	<circle cx="783.758" cy="520.763" r="4" fill="#0" id="circle51"/>
	<circle cx="792.986" cy="266.995" r="4" fill="#0" id="circle52"/>
	<circle cx="792.986" cy="456.167" r="4" fill="#0" id="circle53"/>
	<circle cx="834.512" cy="479.237" r="4" fill="#0" id="circle54"/>
	<circle cx="839.126" cy="276.223" r="4" fill="#0" id="circle55"/>
	<circle cx="871.423" cy="511.535" r="4" fill="#0" id="circle56"/>
	<circle cx="876.037" cy="248.54" r="4" fill="#0" id="circle57"/>
	<circle cx="908.335" cy="539.219" r="4" fill="#0" id="circle58"/>
	<circle cx="912.949" cy="220.856" r="4" fill="#0" id="circle59"/>
	<circle cx="949.86" cy="562.288" r="4" fill="#0" id="circle60"/>
	<circle cx="954.474" cy="197.786" r="4" fill="#0" id="circle61"/>
	<circle cx="986.772" cy="290.065" r="4" fill="#0" id="circle62"/>
	<circle cx="986.772" cy="336.205" r="4" fill="#0" id="circle63"/>
	<circle cx="986.772" cy="382.344" r="4" fill="#0" id="circle64"/>
	<circle cx="986.772" cy="428.484" r="4" fill="#0" id="circle65"/>
	<circle cx="986.772" cy="474.623" r="4" fill="#0" id="circle66"/>
	<circle cx="996" cy="234.698" r="4" fill="#0" id="circle67"/>
	<circle cx="996" cy="520.763" r="4" fill="#0" id="circle68"/>
	</g>
</svg>