<?xml version="1.0" encoding="UTF-8" standalone="no"?>
<!-- Created with CurveBenchmark -->
<svg
	xmlns:dc="http://purl.org/dc/elements/1.1/"
	xmlns:cc="http://creativecommons.org/ns#"
	xmlns:rdf="http://www.w3.org/1999/02/22-rdf-syntax-ns#"
	xmlns:svg="http://www.w3.org/2000/svg"
	xmlns="http://www.w3.org/2000/svg"
	xmlns:sodipodi="http://sodipodi.sourceforge.net/DTD/sodipodi-0.dtd"
	xmlns:inkscape="http://www.inkscape.org/namespaces/inkscape"
	width="1000"
	height="1000"
	id="svg2"
	version="1.1"
	sodipodi:docname="manifold/crawl-children-17.png.txt">
<defs
	id="defs4" />
<metadata
	id="metadata7">
	<rdf:RDF>
		<cc:Work
			rdf:about="">
			<dc:format>image/svg+xml</dc:format>
			<dc:type
				rdf:resource="http://purl.org/dc/dcmitype/StillImage" />
			<dc:title></dc:title>
		</cc:Work>
	</rdf:RDF>
</metadata>
<g
	inkscape:label="Layer 1"
	inkscape:groupmode="layer"
	id="layer1">
	<path style="fill:none;stroke:red;stroke-width:1px;stroke-linecap:butt;stroke-linejoin:miter;stroke-opacity:1" d="M 4,316.077 4,327.943 z" id="boundary" inkscape:connector-curvature="0" />
	<path style="fill:none;stroke:red;stroke-width:1px;stroke-linecap:butt;stroke-linejoin:miter;stroke-opacity:1" d="M 4,327.943 9.93301,338.622 z" id="boundary" inkscape:connector-curvature="0" />
	<path style="fill:none;stroke:red;stroke-width:1px;stroke-linecap:butt;stroke-linejoin:miter;stroke-opacity:1" d="M 9.93301,338.622 15.866,349.301 z" id="boundary" inkscape:connector-curvature="0" />
	<path style="fill:none;stroke:red;stroke-width:1px;stroke-linecap:butt;stroke-linejoin:miter;stroke-opacity:1" d="M 15.866,349.301 15.866,361.167 z" id="boundary" inkscape:connector-curvature="0" />
	<path style="fill:none;stroke:red;stroke-width:1px;stroke-linecap:butt;stroke-linejoin:miter;stroke-opacity:1" d="M 15.866,361.167 19.4258,373.033 z" id="boundary" inkscape:connector-curvature="0" />
	<path style="fill:none;stroke:red;stroke-width:1px;stroke-linecap:butt;stroke-linejoin:miter;stroke-opacity:1" d="M 19.4258,373.033 25.3589,383.713 z" id="boundary" inkscape:connector-curvature="0" />
	<path style="fill:none;stroke:red;stroke-width:1px;stroke-linecap:butt;stroke-linejoin:miter;stroke-opacity:1" d="M 25.3589,383.713 30.1053,395.579 z" id="boundary" inkscape:connector-curvature="0" />
	<path style="fill:none;stroke:red;stroke-width:1px;stroke-linecap:butt;stroke-linejoin:miter;stroke-opacity:1" d="M 30.1053,395.579 39.5981,402.699 z" id="boundary" inkscape:connector-curvature="0" />
	<path style="fill:none;stroke:red;stroke-width:1px;stroke-linecap:butt;stroke-linejoin:miter;stroke-opacity:1" d="M 39.5981,402.699 43.1579,414.565 z" id="boundary" inkscape:connector-curvature="0" />
	<path style="fill:none;stroke:red;stroke-width:1px;stroke-linecap:butt;stroke-linejoin:miter;stroke-opacity:1" d="M 43.1579,414.565 45.5311,426.431 z" id="boundary" inkscape:connector-curvature="0" />
	<path style="fill:none;stroke:red;stroke-width:1px;stroke-linecap:butt;stroke-linejoin:miter;stroke-opacity:1" d="M 45.5311,426.431 45.5311,438.297 z" id="boundary" inkscape:connector-curvature="0" />
	<path style="fill:none;stroke:red;stroke-width:1px;stroke-linecap:butt;stroke-linejoin:miter;stroke-opacity:1" d="M 45.5311,438.297 45.5311,450.163 z" id="boundary" inkscape:connector-curvature="0" />
	<path style="fill:none;stroke:red;stroke-width:1px;stroke-linecap:butt;stroke-linejoin:miter;stroke-opacity:1" d="M 45.5311,450.163 45.5311,462.029 z" id="boundary" inkscape:connector-curvature="0" />
	<path style="fill:none;stroke:red;stroke-width:1px;stroke-linecap:butt;stroke-linejoin:miter;stroke-opacity:1" d="M 45.5311,462.029 49.0909,473.895 z" id="boundary" inkscape:connector-curvature="0" />
	<path style="fill:none;stroke:red;stroke-width:1px;stroke-linecap:butt;stroke-linejoin:miter;stroke-opacity:1" d="M 49.0909,473.895 51.4641,485.761 z" id="boundary" inkscape:connector-curvature="0" />
	<path style="fill:none;stroke:red;stroke-width:1px;stroke-linecap:butt;stroke-linejoin:miter;stroke-opacity:1" d="M 4,316.077 9.93301,304.211 z" id="boundary" inkscape:connector-curvature="0" />
	<path style="fill:none;stroke:red;stroke-width:1px;stroke-linecap:butt;stroke-linejoin:miter;stroke-opacity:1" d="M 9.93301,304.211 19.4258,294.718 z" id="boundary" inkscape:connector-curvature="0" />
	<path style="fill:none;stroke:red;stroke-width:1px;stroke-linecap:butt;stroke-linejoin:miter;stroke-opacity:1" d="M 19.4258,294.718 25.3589,282.852 z" id="boundary" inkscape:connector-curvature="0" />
	<path style="fill:none;stroke:red;stroke-width:1px;stroke-linecap:butt;stroke-linejoin:miter;stroke-opacity:1" d="M 25.3589,282.852 34.8517,273.359 z" id="boundary" inkscape:connector-curvature="0" />
	<path style="fill:none;stroke:red;stroke-width:1px;stroke-linecap:butt;stroke-linejoin:miter;stroke-opacity:1" d="M 34.8517,273.359 44.3445,265.053 z" id="boundary" inkscape:connector-curvature="0" />
	<path style="fill:none;stroke:red;stroke-width:1px;stroke-linecap:butt;stroke-linejoin:miter;stroke-opacity:1" d="M 44.3445,265.053 52.6507,255.56 z" id="boundary" inkscape:connector-curvature="0" />
	<path style="fill:none;stroke:red;stroke-width:1px;stroke-linecap:butt;stroke-linejoin:miter;stroke-opacity:1" d="M 52.6507,255.56 62.1435,247.254 z" id="boundary" inkscape:connector-curvature="0" />
	<path style="fill:none;stroke:red;stroke-width:1px;stroke-linecap:butt;stroke-linejoin:miter;stroke-opacity:1" d="M 62.1435,247.254 69.2632,233.014 z" id="boundary" inkscape:connector-curvature="0" />
	<path style="fill:none;stroke:red;stroke-width:1px;stroke-linecap:butt;stroke-linejoin:miter;stroke-opacity:1" d="M 51.4641,485.761 45.5311,505.933 z" id="boundary" inkscape:connector-curvature="0" />
	<path style="fill:none;stroke:red;stroke-width:1px;stroke-linecap:butt;stroke-linejoin:miter;stroke-opacity:1" d="M 45.5311,505.933 39.5981,523.732 z" id="boundary" inkscape:connector-curvature="0" />
	<path style="fill:none;stroke:red;stroke-width:1px;stroke-linecap:butt;stroke-linejoin:miter;stroke-opacity:1" d="M 39.5981,523.732 33.6651,535.598 z" id="boundary" inkscape:connector-curvature="0" />
	<path style="fill:none;stroke:red;stroke-width:1px;stroke-linecap:butt;stroke-linejoin:miter;stroke-opacity:1" d="M 33.6651,535.598 33.6651,547.464 z" id="boundary" inkscape:connector-curvature="0" />
	<path style="fill:none;stroke:red;stroke-width:1px;stroke-linecap:butt;stroke-linejoin:miter;stroke-opacity:1" d="M 33.6651,547.464 33.6651,559.33 z" id="boundary" inkscape:connector-curvature="0" />
	<path style="fill:none;stroke:red;stroke-width:1px;stroke-linecap:butt;stroke-linejoin:miter;stroke-opacity:1" d="M 33.6651,559.33 39.5981,570.01 z" id="boundary" inkscape:connector-curvature="0" />
	<path style="fill:none;stroke:red;stroke-width:1px;stroke-linecap:butt;stroke-linejoin:miter;stroke-opacity:1" d="M 39.5981,570.01 39.5981,581.876 z" id="boundary" inkscape:connector-curvature="0" />
	<path style="fill:none;stroke:red;stroke-width:1px;stroke-linecap:butt;stroke-linejoin:miter;stroke-opacity:1" d="M 39.5981,581.876 39.5981,593.742 z" id="boundary" inkscape:connector-curvature="0" />
	<path style="fill:none;stroke:red;stroke-width:1px;stroke-linecap:butt;stroke-linejoin:miter;stroke-opacity:1" d="M 39.5981,593.742 39.5981,605.608 z" id="boundary" inkscape:connector-curvature="0" />
	<path style="fill:none;stroke:red;stroke-width:1px;stroke-linecap:butt;stroke-linejoin:miter;stroke-opacity:1" d="M 39.5981,605.608 45.5311,616.287 z" id="boundary" inkscape:connector-curvature="0" />
	<path style="fill:none;stroke:red;stroke-width:1px;stroke-linecap:butt;stroke-linejoin:miter;stroke-opacity:1" d="M 45.5311,616.287 49.0909,628.153 z" id="boundary" inkscape:connector-curvature="0" />
	<path style="fill:none;stroke:red;stroke-width:1px;stroke-linecap:butt;stroke-linejoin:miter;stroke-opacity:1" d="M 49.0909,628.153 51.4641,640.019 z" id="boundary" inkscape:connector-curvature="0" />
	<path style="fill:none;stroke:red;stroke-width:1px;stroke-linecap:butt;stroke-linejoin:miter;stroke-opacity:1" d="M 51.4641,640.019 55.0239,651.885 z" id="boundary" inkscape:connector-curvature="0" />
	<path style="fill:none;stroke:red;stroke-width:1px;stroke-linecap:butt;stroke-linejoin:miter;stroke-opacity:1" d="M 55.0239,651.885 57.3971,663.751 z" id="boundary" inkscape:connector-curvature="0" />
	<path style="fill:none;stroke:red;stroke-width:1px;stroke-linecap:butt;stroke-linejoin:miter;stroke-opacity:1" d="M 57.3971,663.751 63.3301,674.431 z" id="boundary" inkscape:connector-curvature="0" />
	<path style="fill:none;stroke:red;stroke-width:1px;stroke-linecap:butt;stroke-linejoin:miter;stroke-opacity:1" d="M 63.3301,674.431 70.4498,683.923 z" id="boundary" inkscape:connector-curvature="0" />
	<path style="fill:none;stroke:red;stroke-width:1px;stroke-linecap:butt;stroke-linejoin:miter;stroke-opacity:1" d="M 70.4498,683.923 78.756,693.416 z" id="boundary" inkscape:connector-curvature="0" />
	<path style="fill:none;stroke:red;stroke-width:1px;stroke-linecap:butt;stroke-linejoin:miter;stroke-opacity:1" d="M 78.756,693.416 90.622,698.163 z" id="boundary" inkscape:connector-curvature="0" />
	<path style="fill:none;stroke:red;stroke-width:1px;stroke-linecap:butt;stroke-linejoin:miter;stroke-opacity:1" d="M 90.622,698.163 98.9282,707.656 z" id="boundary" inkscape:connector-curvature="0" />
	<path style="fill:none;stroke:red;stroke-width:1px;stroke-linecap:butt;stroke-linejoin:miter;stroke-opacity:1" d="M 98.9282,707.656 104.861,718.335 z" id="boundary" inkscape:connector-curvature="0" />
	<path style="fill:none;stroke:red;stroke-width:1px;stroke-linecap:butt;stroke-linejoin:miter;stroke-opacity:1" d="M 104.861,718.335 104.861,730.201 z" id="boundary" inkscape:connector-curvature="0" />
	<path style="fill:none;stroke:red;stroke-width:1px;stroke-linecap:butt;stroke-linejoin:miter;stroke-opacity:1" d="M 104.861,730.201 104.861,742.067 z" id="boundary" inkscape:connector-curvature="0" />
	<path style="fill:none;stroke:red;stroke-width:1px;stroke-linecap:butt;stroke-linejoin:miter;stroke-opacity:1" d="M 104.861,742.067 98.9282,761.053 z" id="boundary" inkscape:connector-curvature="0" />
	<path style="fill:none;stroke:red;stroke-width:1px;stroke-linecap:butt;stroke-linejoin:miter;stroke-opacity:1" d="M 98.9282,761.053 92.9952,772.919 z" id="boundary" inkscape:connector-curvature="0" />
	<path style="fill:none;stroke:red;stroke-width:1px;stroke-linecap:butt;stroke-linejoin:miter;stroke-opacity:1" d="M 92.9952,772.919 87.0622,784.785 z" id="boundary" inkscape:connector-curvature="0" />
	<path style="fill:none;stroke:red;stroke-width:1px;stroke-linecap:butt;stroke-linejoin:miter;stroke-opacity:1" d="M 87.0622,784.785 81.1292,796.651 z" id="boundary" inkscape:connector-curvature="0" />
	<path style="fill:none;stroke:red;stroke-width:1px;stroke-linecap:butt;stroke-linejoin:miter;stroke-opacity:1" d="M 81.1292,796.651 75.1962,814.45 z" id="boundary" inkscape:connector-curvature="0" />
	<path style="fill:none;stroke:red;stroke-width:1px;stroke-linecap:butt;stroke-linejoin:miter;stroke-opacity:1" d="M 75.1962,814.45 75.1962,826.316 z" id="boundary" inkscape:connector-curvature="0" />
	<path style="fill:none;stroke:red;stroke-width:1px;stroke-linecap:butt;stroke-linejoin:miter;stroke-opacity:1" d="M 75.1962,826.316 81.1292,836.995 z" id="boundary" inkscape:connector-curvature="0" />
	<path style="fill:none;stroke:red;stroke-width:1px;stroke-linecap:butt;stroke-linejoin:miter;stroke-opacity:1" d="M 81.1292,836.995 81.1292,848.861 z" id="boundary" inkscape:connector-curvature="0" />
	<path style="fill:none;stroke:red;stroke-width:1px;stroke-linecap:butt;stroke-linejoin:miter;stroke-opacity:1" d="M 81.1292,848.861 87.0622,859.541 z" id="boundary" inkscape:connector-curvature="0" />
	<path style="fill:none;stroke:red;stroke-width:1px;stroke-linecap:butt;stroke-linejoin:miter;stroke-opacity:1" d="M 87.0622,859.541 90.622,871.407 z" id="boundary" inkscape:connector-curvature="0" />
	<path style="fill:none;stroke:red;stroke-width:1px;stroke-linecap:butt;stroke-linejoin:miter;stroke-opacity:1" d="M 90.622,871.407 92.9952,883.273 z" id="boundary" inkscape:connector-curvature="0" />
	<path style="fill:none;stroke:red;stroke-width:1px;stroke-linecap:butt;stroke-linejoin:miter;stroke-opacity:1" d="M 92.9952,883.273 92.9952,895.139 z" id="boundary" inkscape:connector-curvature="0" />
	<path style="fill:none;stroke:red;stroke-width:1px;stroke-linecap:butt;stroke-linejoin:miter;stroke-opacity:1" d="M 92.9952,895.139 87.0622,909.378 z" id="boundary" inkscape:connector-curvature="0" />
	<path style="fill:none;stroke:red;stroke-width:1px;stroke-linecap:butt;stroke-linejoin:miter;stroke-opacity:1" d="M 87.0622,909.378 87.0622,921.244 z" id="boundary" inkscape:connector-curvature="0" />
	<path style="fill:none;stroke:red;stroke-width:1px;stroke-linecap:butt;stroke-linejoin:miter;stroke-opacity:1" d="M 87.0622,921.244 81.1292,933.11 z" id="boundary" inkscape:connector-curvature="0" />
	<path style="fill:none;stroke:red;stroke-width:1px;stroke-linecap:butt;stroke-linejoin:miter;stroke-opacity:1" d="M 81.1292,933.11 81.1292,944.976 z" id="boundary" inkscape:connector-curvature="0" />
	<path style="fill:none;stroke:red;stroke-width:1px;stroke-linecap:butt;stroke-linejoin:miter;stroke-opacity:1" d="M 81.1292,944.976 81.1292,956.842 z" id="boundary" inkscape:connector-curvature="0" />
	<path style="fill:none;stroke:red;stroke-width:1px;stroke-linecap:butt;stroke-linejoin:miter;stroke-opacity:1" d="M 81.1292,956.842 87.0622,967.522 z" id="boundary" inkscape:connector-curvature="0" />
	<path style="fill:none;stroke:red;stroke-width:1px;stroke-linecap:butt;stroke-linejoin:miter;stroke-opacity:1" d="M 87.0622,967.522 95.3684,977.014 z" id="boundary" inkscape:connector-curvature="0" />
	<path style="fill:none;stroke:red;stroke-width:1px;stroke-linecap:butt;stroke-linejoin:miter;stroke-opacity:1" d="M 95.3684,977.014 107.234,981.761 z" id="boundary" inkscape:connector-curvature="0" />
	<path style="fill:none;stroke:red;stroke-width:1px;stroke-linecap:butt;stroke-linejoin:miter;stroke-opacity:1" d="M 107.234,981.761 119.1,984.134 z" id="boundary" inkscape:connector-curvature="0" />
	<path style="fill:none;stroke:red;stroke-width:1px;stroke-linecap:butt;stroke-linejoin:miter;stroke-opacity:1" d="M 119.1,984.134 130.967,987.694 z" id="boundary" inkscape:connector-curvature="0" />
	<path style="fill:none;stroke:red;stroke-width:1px;stroke-linecap:butt;stroke-linejoin:miter;stroke-opacity:1" d="M 130.967,987.694 142.833,990.067 z" id="boundary" inkscape:connector-curvature="0" />
	<path style="fill:none;stroke:red;stroke-width:1px;stroke-linecap:butt;stroke-linejoin:miter;stroke-opacity:1" d="M 142.833,990.067 154.699,993.627 z" id="boundary" inkscape:connector-curvature="0" />
	<path style="fill:none;stroke:red;stroke-width:1px;stroke-linecap:butt;stroke-linejoin:miter;stroke-opacity:1" d="M 154.699,993.627 166.565,996 z" id="boundary" inkscape:connector-curvature="0" />
	<path style="fill:none;stroke:red;stroke-width:1px;stroke-linecap:butt;stroke-linejoin:miter;stroke-opacity:1" d="M 166.565,996 178.431,996 z" id="boundary" inkscape:connector-curvature="0" />
	<path style="fill:none;stroke:red;stroke-width:1px;stroke-linecap:butt;stroke-linejoin:miter;stroke-opacity:1" d="M 178.431,996 190.297,996 z" id="boundary" inkscape:connector-curvature="0" />
	<path style="fill:none;stroke:red;stroke-width:1px;stroke-linecap:butt;stroke-linejoin:miter;stroke-opacity:1" d="M 190.297,996 202.163,996 z" id="boundary" inkscape:connector-curvature="0" />
	<path style="fill:none;stroke:red;stroke-width:1px;stroke-linecap:butt;stroke-linejoin:miter;stroke-opacity:1" d="M 202.163,996 214.029,996 z" id="boundary" inkscape:connector-curvature="0" />
	<path style="fill:none;stroke:red;stroke-width:1px;stroke-linecap:butt;stroke-linejoin:miter;stroke-opacity:1" d="M 214.029,996 225.895,996 z" id="boundary" inkscape:connector-curvature="0" />
	<path style="fill:none;stroke:red;stroke-width:1px;stroke-linecap:butt;stroke-linejoin:miter;stroke-opacity:1" d="M 225.895,996 237.761,996 z" id="boundary" inkscape:connector-curvature="0" />
	<path style="fill:none;stroke:red;stroke-width:1px;stroke-linecap:butt;stroke-linejoin:miter;stroke-opacity:1" d="M 237.761,996 249.627,996 z" id="boundary" inkscape:connector-curvature="0" />
	<path style="fill:none;stroke:red;stroke-width:1px;stroke-linecap:butt;stroke-linejoin:miter;stroke-opacity:1" d="M 249.627,996 260.306,990.067 z" id="boundary" inkscape:connector-curvature="0" />
	<path style="fill:none;stroke:red;stroke-width:1px;stroke-linecap:butt;stroke-linejoin:miter;stroke-opacity:1" d="M 260.306,990.067 270.986,984.134 z" id="boundary" inkscape:connector-curvature="0" />
	<path style="fill:none;stroke:red;stroke-width:1px;stroke-linecap:butt;stroke-linejoin:miter;stroke-opacity:1" d="M 270.986,984.134 282.852,984.134 z" id="boundary" inkscape:connector-curvature="0" />
	<path style="fill:none;stroke:red;stroke-width:1px;stroke-linecap:butt;stroke-linejoin:miter;stroke-opacity:1" d="M 282.852,984.134 293.531,978.201 z" id="boundary" inkscape:connector-curvature="0" />
	<path style="fill:none;stroke:red;stroke-width:1px;stroke-linecap:butt;stroke-linejoin:miter;stroke-opacity:1" d="M 293.531,978.201 305.397,975.828 z" id="boundary" inkscape:connector-curvature="0" />
	<path style="fill:none;stroke:red;stroke-width:1px;stroke-linecap:butt;stroke-linejoin:miter;stroke-opacity:1" d="M 305.397,975.828 313.703,966.335 z" id="boundary" inkscape:connector-curvature="0" />
	<path style="fill:none;stroke:red;stroke-width:1px;stroke-linecap:butt;stroke-linejoin:miter;stroke-opacity:1" d="M 313.703,966.335 319.636,953.282 z" id="boundary" inkscape:connector-curvature="0" />
	<path style="fill:none;stroke:red;stroke-width:1px;stroke-linecap:butt;stroke-linejoin:miter;stroke-opacity:1" d="M 319.636,953.282 312.517,943.789 z" id="boundary" inkscape:connector-curvature="0" />
	<path style="fill:none;stroke:red;stroke-width:1px;stroke-linecap:butt;stroke-linejoin:miter;stroke-opacity:1" d="M 312.517,943.789 303.024,935.483 z" id="boundary" inkscape:connector-curvature="0" />
	<path style="fill:none;stroke:red;stroke-width:1px;stroke-linecap:butt;stroke-linejoin:miter;stroke-opacity:1" d="M 303.024,935.483 292.344,929.55 z" id="boundary" inkscape:connector-curvature="0" />
	<path style="fill:none;stroke:red;stroke-width:1px;stroke-linecap:butt;stroke-linejoin:miter;stroke-opacity:1" d="M 292.344,929.55 280.478,929.55 z" id="boundary" inkscape:connector-curvature="0" />
	<path style="fill:none;stroke:red;stroke-width:1px;stroke-linecap:butt;stroke-linejoin:miter;stroke-opacity:1" d="M 280.478,929.55 269.799,923.617 z" id="boundary" inkscape:connector-curvature="0" />
	<path style="fill:none;stroke:red;stroke-width:1px;stroke-linecap:butt;stroke-linejoin:miter;stroke-opacity:1" d="M 269.799,923.617 260.306,915.311 z" id="boundary" inkscape:connector-curvature="0" />
	<path style="fill:none;stroke:red;stroke-width:1px;stroke-linecap:butt;stroke-linejoin:miter;stroke-opacity:1" d="M 260.306,915.311 250.813,907.005 z" id="boundary" inkscape:connector-curvature="0" />
	<path style="fill:none;stroke:red;stroke-width:1px;stroke-linecap:butt;stroke-linejoin:miter;stroke-opacity:1" d="M 250.813,907.005 240.134,901.072 z" id="boundary" inkscape:connector-curvature="0" />
	<path style="fill:none;stroke:red;stroke-width:1px;stroke-linecap:butt;stroke-linejoin:miter;stroke-opacity:1" d="M 240.134,901.072 230.641,893.952 z" id="boundary" inkscape:connector-curvature="0" />
	<path style="fill:none;stroke:red;stroke-width:1px;stroke-linecap:butt;stroke-linejoin:miter;stroke-opacity:1" d="M 230.641,893.952 224.708,883.273 z" id="boundary" inkscape:connector-curvature="0" />
	<path style="fill:none;stroke:red;stroke-width:1px;stroke-linecap:butt;stroke-linejoin:miter;stroke-opacity:1" d="M 224.708,883.273 230.641,865.474 z" id="boundary" inkscape:connector-curvature="0" />
	<path style="fill:none;stroke:red;stroke-width:1px;stroke-linecap:butt;stroke-linejoin:miter;stroke-opacity:1" d="M 230.641,865.474 236.574,853.608 z" id="boundary" inkscape:connector-curvature="0" />
	<path style="fill:none;stroke:red;stroke-width:1px;stroke-linecap:butt;stroke-linejoin:miter;stroke-opacity:1" d="M 236.574,853.608 236.574,841.742 z" id="boundary" inkscape:connector-curvature="0" />
	<path style="fill:none;stroke:red;stroke-width:1px;stroke-linecap:butt;stroke-linejoin:miter;stroke-opacity:1" d="M 236.574,841.742 242.507,829.876 z" id="boundary" inkscape:connector-curvature="0" />
	<path style="fill:none;stroke:red;stroke-width:1px;stroke-linecap:butt;stroke-linejoin:miter;stroke-opacity:1" d="M 242.507,829.876 242.507,818.01 z" id="boundary" inkscape:connector-curvature="0" />
	<path style="fill:none;stroke:red;stroke-width:1px;stroke-linecap:butt;stroke-linejoin:miter;stroke-opacity:1" d="M 242.507,818.01 248.44,800.211 z" id="boundary" inkscape:connector-curvature="0" />
	<path style="fill:none;stroke:red;stroke-width:1px;stroke-linecap:butt;stroke-linejoin:miter;stroke-opacity:1" d="M 248.44,800.211 248.44,788.344 z" id="boundary" inkscape:connector-curvature="0" />
	<path style="fill:none;stroke:red;stroke-width:1px;stroke-linecap:butt;stroke-linejoin:miter;stroke-opacity:1" d="M 248.44,788.344 248.44,776.478 z" id="boundary" inkscape:connector-curvature="0" />
	<path style="fill:none;stroke:red;stroke-width:1px;stroke-linecap:butt;stroke-linejoin:miter;stroke-opacity:1" d="M 248.44,776.478 248.44,764.612 z" id="boundary" inkscape:connector-curvature="0" />
	<path style="fill:none;stroke:red;stroke-width:1px;stroke-linecap:butt;stroke-linejoin:miter;stroke-opacity:1" d="M 248.44,764.612 254.373,752.746 z" id="boundary" inkscape:connector-curvature="0" />
	<path style="fill:none;stroke:red;stroke-width:1px;stroke-linecap:butt;stroke-linejoin:miter;stroke-opacity:1" d="M 254.373,752.746 260.306,734.947 z" id="boundary" inkscape:connector-curvature="0" />
	<path style="fill:none;stroke:red;stroke-width:1px;stroke-linecap:butt;stroke-linejoin:miter;stroke-opacity:1" d="M 260.306,734.947 266.239,717.148 z" id="boundary" inkscape:connector-curvature="0" />
	<path style="fill:none;stroke:red;stroke-width:1px;stroke-linecap:butt;stroke-linejoin:miter;stroke-opacity:1" d="M 266.239,717.148 266.239,705.282 z" id="boundary" inkscape:connector-curvature="0" />
	<path style="fill:none;stroke:red;stroke-width:1px;stroke-linecap:butt;stroke-linejoin:miter;stroke-opacity:1" d="M 266.239,705.282 266.239,693.416 z" id="boundary" inkscape:connector-curvature="0" />
	<path style="fill:none;stroke:red;stroke-width:1px;stroke-linecap:butt;stroke-linejoin:miter;stroke-opacity:1" d="M 266.239,693.416 266.239,681.55 z" id="boundary" inkscape:connector-curvature="0" />
	<path style="fill:none;stroke:red;stroke-width:1px;stroke-linecap:butt;stroke-linejoin:miter;stroke-opacity:1" d="M 266.239,681.55 275.732,673.244 z" id="boundary" inkscape:connector-curvature="0" />
	<path style="fill:none;stroke:red;stroke-width:1px;stroke-linecap:butt;stroke-linejoin:miter;stroke-opacity:1" d="M 275.732,673.244 287.598,667.311 z" id="boundary" inkscape:connector-curvature="0" />
	<path style="fill:none;stroke:red;stroke-width:1px;stroke-linecap:butt;stroke-linejoin:miter;stroke-opacity:1" d="M 287.598,667.311 299.464,661.378 z" id="boundary" inkscape:connector-curvature="0" />
	<path style="fill:none;stroke:red;stroke-width:1px;stroke-linecap:butt;stroke-linejoin:miter;stroke-opacity:1" d="M 299.464,661.378 307.77,651.885 z" id="boundary" inkscape:connector-curvature="0" />
	<path style="fill:none;stroke:red;stroke-width:1px;stroke-linecap:butt;stroke-linejoin:miter;stroke-opacity:1" d="M 307.77,651.885 313.703,634.086 z" id="boundary" inkscape:connector-curvature="0" />
	<path style="fill:none;stroke:red;stroke-width:1px;stroke-linecap:butt;stroke-linejoin:miter;stroke-opacity:1" d="M 313.703,634.086 323.196,625.78 z" id="boundary" inkscape:connector-curvature="0" />
	<path style="fill:none;stroke:red;stroke-width:1px;stroke-linecap:butt;stroke-linejoin:miter;stroke-opacity:1" d="M 323.196,625.78 335.062,622.22 z" id="boundary" inkscape:connector-curvature="0" />
	<path style="fill:none;stroke:red;stroke-width:1px;stroke-linecap:butt;stroke-linejoin:miter;stroke-opacity:1" d="M 335.062,622.22 346.928,619.847 z" id="boundary" inkscape:connector-curvature="0" />
	<path style="fill:none;stroke:red;stroke-width:1px;stroke-linecap:butt;stroke-linejoin:miter;stroke-opacity:1" d="M 346.928,619.847 358.794,613.914 z" id="boundary" inkscape:connector-curvature="0" />
	<path style="fill:none;stroke:red;stroke-width:1px;stroke-linecap:butt;stroke-linejoin:miter;stroke-opacity:1" d="M 358.794,613.914 367.1,604.421 z" id="boundary" inkscape:connector-curvature="0" />
	<path style="fill:none;stroke:red;stroke-width:1px;stroke-linecap:butt;stroke-linejoin:miter;stroke-opacity:1" d="M 367.1,604.421 378.967,598.488 z" id="boundary" inkscape:connector-curvature="0" />
	<path style="fill:none;stroke:red;stroke-width:1px;stroke-linecap:butt;stroke-linejoin:miter;stroke-opacity:1" d="M 378.967,598.488 384.9,584.249 z" id="boundary" inkscape:connector-curvature="0" />
	<path style="fill:none;stroke:red;stroke-width:1px;stroke-linecap:butt;stroke-linejoin:miter;stroke-opacity:1" d="M 384.9,584.249 378.967,573.569 z" id="boundary" inkscape:connector-curvature="0" />
	<path style="fill:none;stroke:red;stroke-width:1px;stroke-linecap:butt;stroke-linejoin:miter;stroke-opacity:1" d="M 378.967,573.569 373.033,562.89 z" id="boundary" inkscape:connector-curvature="0" />
	<path style="fill:none;stroke:red;stroke-width:1px;stroke-linecap:butt;stroke-linejoin:miter;stroke-opacity:1" d="M 373.033,562.89 382.526,554.584 z" id="boundary" inkscape:connector-curvature="0" />
	<path style="fill:none;stroke:red;stroke-width:1px;stroke-linecap:butt;stroke-linejoin:miter;stroke-opacity:1" d="M 382.526,554.584 388.459,543.904 z" id="boundary" inkscape:connector-curvature="0" />
	<path style="fill:none;stroke:red;stroke-width:1px;stroke-linecap:butt;stroke-linejoin:miter;stroke-opacity:1" d="M 388.459,543.904 386.086,532.038 z" id="boundary" inkscape:connector-curvature="0" />
	<path style="fill:none;stroke:red;stroke-width:1px;stroke-linecap:butt;stroke-linejoin:miter;stroke-opacity:1" d="M 386.086,532.038 375.407,526.105 z" id="boundary" inkscape:connector-curvature="0" />
	<path style="fill:none;stroke:red;stroke-width:1px;stroke-linecap:butt;stroke-linejoin:miter;stroke-opacity:1" d="M 375.407,526.105 363.541,521.359 z" id="boundary" inkscape:connector-curvature="0" />
	<path style="fill:none;stroke:red;stroke-width:1px;stroke-linecap:butt;stroke-linejoin:miter;stroke-opacity:1" d="M 363.541,521.359 352.861,515.426 z" id="boundary" inkscape:connector-curvature="0" />
	<path style="fill:none;stroke:red;stroke-width:1px;stroke-linecap:butt;stroke-linejoin:miter;stroke-opacity:1" d="M 352.861,515.426 343.368,507.12 z" id="boundary" inkscape:connector-curvature="0" />
	<path style="fill:none;stroke:red;stroke-width:1px;stroke-linecap:butt;stroke-linejoin:miter;stroke-opacity:1" d="M 343.368,507.12 337.435,496.44 z" id="boundary" inkscape:connector-curvature="0" />
	<path style="fill:none;stroke:red;stroke-width:1px;stroke-linecap:butt;stroke-linejoin:miter;stroke-opacity:1" d="M 337.435,496.44 331.502,485.761 z" id="boundary" inkscape:connector-curvature="0" />
	<path style="fill:none;stroke:red;stroke-width:1px;stroke-linecap:butt;stroke-linejoin:miter;stroke-opacity:1" d="M 331.502,485.761 329.129,473.895 z" id="boundary" inkscape:connector-curvature="0" />
	<path style="fill:none;stroke:red;stroke-width:1px;stroke-linecap:butt;stroke-linejoin:miter;stroke-opacity:1" d="M 329.129,473.895 323.196,463.215 z" id="boundary" inkscape:connector-curvature="0" />
	<path style="fill:none;stroke:red;stroke-width:1px;stroke-linecap:butt;stroke-linejoin:miter;stroke-opacity:1" d="M 323.196,463.215 319.636,451.349 z" id="boundary" inkscape:connector-curvature="0" />
	<path style="fill:none;stroke:red;stroke-width:1px;stroke-linecap:butt;stroke-linejoin:miter;stroke-opacity:1" d="M 319.636,451.349 313.703,440.67 z" id="boundary" inkscape:connector-curvature="0" />
	<path style="fill:none;stroke:red;stroke-width:1px;stroke-linecap:butt;stroke-linejoin:miter;stroke-opacity:1" d="M 313.703,440.67 312.517,428.804 z" id="boundary" inkscape:connector-curvature="0" />
	<path style="fill:none;stroke:red;stroke-width:1px;stroke-linecap:butt;stroke-linejoin:miter;stroke-opacity:1" d="M 312.517,428.804 307.77,416.938 z" id="boundary" inkscape:connector-curvature="0" />
	<path style="fill:none;stroke:red;stroke-width:1px;stroke-linecap:butt;stroke-linejoin:miter;stroke-opacity:1" d="M 307.77,416.938 301.837,406.258 z" id="boundary" inkscape:connector-curvature="0" />
	<path style="fill:none;stroke:red;stroke-width:1px;stroke-linecap:butt;stroke-linejoin:miter;stroke-opacity:1" d="M 301.837,406.258 295.904,395.579 z" id="boundary" inkscape:connector-curvature="0" />
	<path style="fill:none;stroke:red;stroke-width:1px;stroke-linecap:butt;stroke-linejoin:miter;stroke-opacity:1" d="M 295.904,395.579 289.971,384.9 z" id="boundary" inkscape:connector-curvature="0" />
	<path style="fill:none;stroke:red;stroke-width:1px;stroke-linecap:butt;stroke-linejoin:miter;stroke-opacity:1" d="M 289.971,384.9 289.971,373.033 z" id="boundary" inkscape:connector-curvature="0" />
	<path style="fill:none;stroke:red;stroke-width:1px;stroke-linecap:butt;stroke-linejoin:miter;stroke-opacity:1" d="M 289.971,373.033 289.971,361.167 z" id="boundary" inkscape:connector-curvature="0" />
	<path style="fill:none;stroke:red;stroke-width:1px;stroke-linecap:butt;stroke-linejoin:miter;stroke-opacity:1" d="M 289.971,361.167 289.971,349.301 z" id="boundary" inkscape:connector-curvature="0" />
	<path style="fill:none;stroke:red;stroke-width:1px;stroke-linecap:butt;stroke-linejoin:miter;stroke-opacity:1" d="M 289.971,349.301 289.971,337.435 z" id="boundary" inkscape:connector-curvature="0" />
	<path style="fill:none;stroke:red;stroke-width:1px;stroke-linecap:butt;stroke-linejoin:miter;stroke-opacity:1" d="M 289.971,337.435 286.411,325.569 z" id="boundary" inkscape:connector-curvature="0" />
	<path style="fill:none;stroke:red;stroke-width:1px;stroke-linecap:butt;stroke-linejoin:miter;stroke-opacity:1" d="M 286.411,325.569 284.038,313.703 z" id="boundary" inkscape:connector-curvature="0" />
	<path style="fill:none;stroke:red;stroke-width:1px;stroke-linecap:butt;stroke-linejoin:miter;stroke-opacity:1" d="M 284.038,313.703 280.478,301.837 z" id="boundary" inkscape:connector-curvature="0" />
	<path style="fill:none;stroke:red;stroke-width:1px;stroke-linecap:butt;stroke-linejoin:miter;stroke-opacity:1" d="M 280.478,301.837 278.105,289.971 z" id="boundary" inkscape:connector-curvature="0" />
	<path style="fill:none;stroke:red;stroke-width:1px;stroke-linecap:butt;stroke-linejoin:miter;stroke-opacity:1" d="M 278.105,289.971 274.545,278.105 z" id="boundary" inkscape:connector-curvature="0" />
	<path style="fill:none;stroke:red;stroke-width:1px;stroke-linecap:butt;stroke-linejoin:miter;stroke-opacity:1" d="M 274.545,278.105 269.799,266.239 z" id="boundary" inkscape:connector-curvature="0" />
	<path style="fill:none;stroke:red;stroke-width:1px;stroke-linecap:butt;stroke-linejoin:miter;stroke-opacity:1" d="M 269.799,266.239 260.306,257.933 z" id="boundary" inkscape:connector-curvature="0" />
	<path style="fill:none;stroke:red;stroke-width:1px;stroke-linecap:butt;stroke-linejoin:miter;stroke-opacity:1" d="M 260.306,257.933 254.373,247.254 z" id="boundary" inkscape:connector-curvature="0" />
	<path style="fill:none;stroke:red;stroke-width:1px;stroke-linecap:butt;stroke-linejoin:miter;stroke-opacity:1" d="M 254.373,247.254 248.44,236.574 z" id="boundary" inkscape:connector-curvature="0" />
	<path style="fill:none;stroke:red;stroke-width:1px;stroke-linecap:butt;stroke-linejoin:miter;stroke-opacity:1" d="M 248.44,236.574 248.44,224.708 z" id="boundary" inkscape:connector-curvature="0" />
	<path style="fill:none;stroke:red;stroke-width:1px;stroke-linecap:butt;stroke-linejoin:miter;stroke-opacity:1" d="M 248.44,224.708 254.373,212.842 z" id="boundary" inkscape:connector-curvature="0" />
	<path style="fill:none;stroke:red;stroke-width:1px;stroke-linecap:butt;stroke-linejoin:miter;stroke-opacity:1" d="M 254.373,212.842 254.373,200.976 z" id="boundary" inkscape:connector-curvature="0" />
	<path style="fill:none;stroke:red;stroke-width:1px;stroke-linecap:butt;stroke-linejoin:miter;stroke-opacity:1" d="M 254.373,200.976 260.306,189.11 z" id="boundary" inkscape:connector-curvature="0" />
	<path style="fill:none;stroke:red;stroke-width:1px;stroke-linecap:butt;stroke-linejoin:miter;stroke-opacity:1" d="M 260.306,189.11 266.239,170.124 z" id="boundary" inkscape:connector-curvature="0" />
	<path style="fill:none;stroke:red;stroke-width:1px;stroke-linecap:butt;stroke-linejoin:miter;stroke-opacity:1" d="M 266.239,170.124 260.306,159.445 z" id="boundary" inkscape:connector-curvature="0" />
	<path style="fill:none;stroke:red;stroke-width:1px;stroke-linecap:butt;stroke-linejoin:miter;stroke-opacity:1" d="M 260.306,159.445 260.306,147.579 z" id="boundary" inkscape:connector-curvature="0" />
	<path style="fill:none;stroke:red;stroke-width:1px;stroke-linecap:butt;stroke-linejoin:miter;stroke-opacity:1" d="M 69.2632,233.014 75.1962,212.842 z" id="boundary" inkscape:connector-curvature="0" />
	<path style="fill:none;stroke:red;stroke-width:1px;stroke-linecap:butt;stroke-linejoin:miter;stroke-opacity:1" d="M 75.1962,212.842 72.823,200.976 z" id="boundary" inkscape:connector-curvature="0" />
	<path style="fill:none;stroke:red;stroke-width:1px;stroke-linecap:butt;stroke-linejoin:miter;stroke-opacity:1" d="M 72.823,200.976 64.5167,191.483 z" id="boundary" inkscape:connector-curvature="0" />
	<path style="fill:none;stroke:red;stroke-width:1px;stroke-linecap:butt;stroke-linejoin:miter;stroke-opacity:1" d="M 64.5167,191.483 55.0239,183.177 z" id="boundary" inkscape:connector-curvature="0" />
	<path style="fill:none;stroke:red;stroke-width:1px;stroke-linecap:butt;stroke-linejoin:miter;stroke-opacity:1" d="M 55.0239,183.177 46.7177,173.684 z" id="boundary" inkscape:connector-curvature="0" />
	<path style="fill:none;stroke:red;stroke-width:1px;stroke-linecap:butt;stroke-linejoin:miter;stroke-opacity:1" d="M 46.7177,173.684 39.5981,164.191 z" id="boundary" inkscape:connector-curvature="0" />
	<path style="fill:none;stroke:red;stroke-width:1px;stroke-linecap:butt;stroke-linejoin:miter;stroke-opacity:1" d="M 39.5981,164.191 33.6651,153.512 z" id="boundary" inkscape:connector-curvature="0" />
	<path style="fill:none;stroke:red;stroke-width:1px;stroke-linecap:butt;stroke-linejoin:miter;stroke-opacity:1" d="M 33.6651,153.512 27.7321,142.833 z" id="boundary" inkscape:connector-curvature="0" />
	<path style="fill:none;stroke:red;stroke-width:1px;stroke-linecap:butt;stroke-linejoin:miter;stroke-opacity:1" d="M 27.7321,142.833 21.799,132.153 z" id="boundary" inkscape:connector-curvature="0" />
	<path style="fill:none;stroke:red;stroke-width:1px;stroke-linecap:butt;stroke-linejoin:miter;stroke-opacity:1" d="M 21.799,132.153 21.799,120.287 z" id="boundary" inkscape:connector-curvature="0" />
	<path style="fill:none;stroke:red;stroke-width:1px;stroke-linecap:butt;stroke-linejoin:miter;stroke-opacity:1" d="M 21.799,120.287 21.799,108.421 z" id="boundary" inkscape:connector-curvature="0" />
	<path style="fill:none;stroke:red;stroke-width:1px;stroke-linecap:butt;stroke-linejoin:miter;stroke-opacity:1" d="M 21.799,108.421 21.799,96.555 z" id="boundary" inkscape:connector-curvature="0" />
	<path style="fill:none;stroke:red;stroke-width:1px;stroke-linecap:butt;stroke-linejoin:miter;stroke-opacity:1" d="M 21.799,96.555 21.799,84.689 z" id="boundary" inkscape:connector-curvature="0" />
	<path style="fill:none;stroke:red;stroke-width:1px;stroke-linecap:butt;stroke-linejoin:miter;stroke-opacity:1" d="M 21.799,84.689 21.799,72.823 z" id="boundary" inkscape:connector-curvature="0" />
	<path style="fill:none;stroke:red;stroke-width:1px;stroke-linecap:butt;stroke-linejoin:miter;stroke-opacity:1" d="M 21.799,72.823 27.7321,60.9569 z" id="boundary" inkscape:connector-curvature="0" />
	<path style="fill:none;stroke:red;stroke-width:1px;stroke-linecap:butt;stroke-linejoin:miter;stroke-opacity:1" d="M 27.7321,60.9569 37.2249,51.4641 z" id="boundary" inkscape:connector-curvature="0" />
	<path style="fill:none;stroke:red;stroke-width:1px;stroke-linecap:butt;stroke-linejoin:miter;stroke-opacity:1" d="M 37.2249,51.4641 46.7177,41.9713 z" id="boundary" inkscape:connector-curvature="0" />
	<path style="fill:none;stroke:red;stroke-width:1px;stroke-linecap:butt;stroke-linejoin:miter;stroke-opacity:1" d="M 46.7177,41.9713 56.2105,33.6651 z" id="boundary" inkscape:connector-curvature="0" />
	<path style="fill:none;stroke:red;stroke-width:1px;stroke-linecap:butt;stroke-linejoin:miter;stroke-opacity:1" d="M 56.2105,33.6651 66.89,27.7321 z" id="boundary" inkscape:connector-curvature="0" />
	<path style="fill:none;stroke:red;stroke-width:1px;stroke-linecap:butt;stroke-linejoin:miter;stroke-opacity:1" d="M 66.89,27.7321 77.5694,21.799 z" id="boundary" inkscape:connector-curvature="0" />
	<path style="fill:none;stroke:red;stroke-width:1px;stroke-linecap:butt;stroke-linejoin:miter;stroke-opacity:1" d="M 77.5694,21.799 88.2488,15.866 z" id="boundary" inkscape:connector-curvature="0" />
	<path style="fill:none;stroke:red;stroke-width:1px;stroke-linecap:butt;stroke-linejoin:miter;stroke-opacity:1" d="M 88.2488,15.866 98.9282,9.93301 z" id="boundary" inkscape:connector-curvature="0" />
	<path style="fill:none;stroke:red;stroke-width:1px;stroke-linecap:butt;stroke-linejoin:miter;stroke-opacity:1" d="M 98.9282,9.93301 110.794,7.55981 z" id="boundary" inkscape:connector-curvature="0" />
	<path style="fill:none;stroke:red;stroke-width:1px;stroke-linecap:butt;stroke-linejoin:miter;stroke-opacity:1" d="M 110.794,7.55981 122.66,4 z" id="boundary" inkscape:connector-curvature="0" />
	<path style="fill:none;stroke:red;stroke-width:1px;stroke-linecap:butt;stroke-linejoin:miter;stroke-opacity:1" d="M 122.66,4 133.34,9.93301 z" id="boundary" inkscape:connector-curvature="0" />
	<path style="fill:none;stroke:red;stroke-width:1px;stroke-linecap:butt;stroke-linejoin:miter;stroke-opacity:1" d="M 133.34,9.93301 145.206,9.93301 z" id="boundary" inkscape:connector-curvature="0" />
	<path style="fill:none;stroke:red;stroke-width:1px;stroke-linecap:butt;stroke-linejoin:miter;stroke-opacity:1" d="M 145.206,9.93301 157.072,9.93301 z" id="boundary" inkscape:connector-curvature="0" />
	<path style="fill:none;stroke:red;stroke-width:1px;stroke-linecap:butt;stroke-linejoin:miter;stroke-opacity:1" d="M 157.072,9.93301 168.938,11.1196 z" id="boundary" inkscape:connector-curvature="0" />
	<path style="fill:none;stroke:red;stroke-width:1px;stroke-linecap:butt;stroke-linejoin:miter;stroke-opacity:1" d="M 168.938,11.1196 180.804,15.866 z" id="boundary" inkscape:connector-curvature="0" />
	<path style="fill:none;stroke:red;stroke-width:1px;stroke-linecap:butt;stroke-linejoin:miter;stroke-opacity:1" d="M 180.804,15.866 191.483,21.799 z" id="boundary" inkscape:connector-curvature="0" />
	<path style="fill:none;stroke:red;stroke-width:1px;stroke-linecap:butt;stroke-linejoin:miter;stroke-opacity:1" d="M 191.483,21.799 203.349,21.799 z" id="boundary" inkscape:connector-curvature="0" />
	<path style="fill:none;stroke:red;stroke-width:1px;stroke-linecap:butt;stroke-linejoin:miter;stroke-opacity:1" d="M 203.349,21.799 214.029,27.7321 z" id="boundary" inkscape:connector-curvature="0" />
	<path style="fill:none;stroke:red;stroke-width:1px;stroke-linecap:butt;stroke-linejoin:miter;stroke-opacity:1" d="M 214.029,27.7321 223.522,36.0383 z" id="boundary" inkscape:connector-curvature="0" />
	<path style="fill:none;stroke:red;stroke-width:1px;stroke-linecap:butt;stroke-linejoin:miter;stroke-opacity:1" d="M 223.522,36.0383 234.201,41.9713 z" id="boundary" inkscape:connector-curvature="0" />
	<path style="fill:none;stroke:red;stroke-width:1px;stroke-linecap:butt;stroke-linejoin:miter;stroke-opacity:1" d="M 234.201,41.9713 242.507,51.4641 z" id="boundary" inkscape:connector-curvature="0" />
	<path style="fill:none;stroke:red;stroke-width:1px;stroke-linecap:butt;stroke-linejoin:miter;stroke-opacity:1" d="M 242.507,51.4641 252,58.5837 z" id="boundary" inkscape:connector-curvature="0" />
	<path style="fill:none;stroke:red;stroke-width:1px;stroke-linecap:butt;stroke-linejoin:miter;stroke-opacity:1" d="M 252,58.5837 260.306,68.0766 z" id="boundary" inkscape:connector-curvature="0" />
	<path style="fill:none;stroke:red;stroke-width:1px;stroke-linecap:butt;stroke-linejoin:miter;stroke-opacity:1" d="M 260.306,68.0766 266.239,78.756 z" id="boundary" inkscape:connector-curvature="0" />
	<path style="fill:none;stroke:red;stroke-width:1px;stroke-linecap:butt;stroke-linejoin:miter;stroke-opacity:1" d="M 266.239,78.756 266.239,90.622 z" id="boundary" inkscape:connector-curvature="0" />
	<path style="fill:none;stroke:red;stroke-width:1px;stroke-linecap:butt;stroke-linejoin:miter;stroke-opacity:1" d="M 266.239,90.622 266.239,102.488 z" id="boundary" inkscape:connector-curvature="0" />
	<path style="fill:none;stroke:red;stroke-width:1px;stroke-linecap:butt;stroke-linejoin:miter;stroke-opacity:1" d="M 266.239,102.488 266.239,114.354 z" id="boundary" inkscape:connector-curvature="0" />
	<path style="fill:none;stroke:red;stroke-width:1px;stroke-linecap:butt;stroke-linejoin:miter;stroke-opacity:1" d="M 266.239,114.354 266.239,126.22 z" id="boundary" inkscape:connector-curvature="0" />
	<path style="fill:none;stroke:red;stroke-width:1px;stroke-linecap:butt;stroke-linejoin:miter;stroke-opacity:1" d="M 266.239,126.22 260.306,147.579 z" id="boundary" inkscape:connector-curvature="0" />
	<circle cx="4" cy="316.077" r="4" fill="#0" id="circle0"/>
	<circle cx="4" cy="327.943" r="4" fill="#0" id="circle1"/>
	<circle cx="9.93301" cy="304.211" r="4" fill="#0" id="circle2"/>
	<circle cx="9.93301" cy="338.622" r="4" fill="#0" id="circle3"/>
	<circle cx="15.866" cy="349.301" r="4" fill="#0" id="circle4"/>
	<circle cx="15.866" cy="361.167" r="4" fill="#0" id="circle5"/>
	<circle cx="19.4258" cy="294.718" r="4" fill="#0" id="circle6"/>
	<circle cx="19.4258" cy="373.033" r="4" fill="#0" id="circle7"/>
	<circle cx="21.799" cy="72.823" r="4" fill="#0" id="circle8"/>
	<circle cx="21.799" cy="84.689" r="4" fill="#0" id="circle9"/>
	<circle cx="21.799" cy="96.555" r="4" fill="#0" id="circle10"/>
	<circle cx="21.799" cy="108.421" r="4" fill="#0" id="circle11"/>
	<circle cx="21.799" cy="120.287" r="4" fill="#0" id="circle12"/>
	<circle cx="21.799" cy="132.153" r="4" fill="#0" id="circle13"/>
	<circle cx="25.3589" cy="282.852" r="4" fill="#0" id="circle14"/>
	<circle cx="25.3589" cy="383.713" r="4" fill="#0" id="circle15"/>
	<circle cx="27.7321" cy="60.9569" r="4" fill="#0" id="circle16"/>
	<circle cx="27.7321" cy="142.833" r="4" fill="#0" id="circle17"/>
	<circle cx="30.1053" cy="395.579" r="4" fill="#0" id="circle18"/>
	<circle cx="33.6651" cy="153.512" r="4" fill="#0" id="circle19"/>
	<circle cx="33.6651" cy="535.598" r="4" fill="#0" id="circle20"/>
	<circle cx="33.6651" cy="547.464" r="4" fill="#0" id="circle21"/>
	<circle cx="33.6651" cy="559.33" r="4" fill="#0" id="circle22"/>
	<circle cx="34.8517" cy="273.359" r="4" fill="#0" id="circle23"/>
	<circle cx="37.2249" cy="51.4641" r="4" fill="#0" id="circle24"/>
	<circle cx="39.5981" cy="164.191" r="4" fill="#0" id="circle25"/>
	<circle cx="39.5981" cy="402.699" r="4" fill="#0" id="circle26"/>
	<circle cx="39.5981" cy="523.732" r="4" fill="#0" id="circle27"/>
	<circle cx="39.5981" cy="570.01" r="4" fill="#0" id="circle28"/>
	<circle cx="39.5981" cy="581.876" r="4" fill="#0" id="circle29"/>
	<circle cx="39.5981" cy="593.742" r="4" fill="#0" id="circle30"/>
	<circle cx="39.5981" cy="605.608" r="4" fill="#0" id="circle31"/>
	<circle cx="43.1579" cy="414.565" r="4" fill="#0" id="circle32"/>
	<circle cx="44.3445" cy="265.053" r="4" fill="#0" id="circle33"/>
	<circle cx="45.5311" cy="426.431" r="4" fill="#0" id="circle34"/>
	<circle cx="45.5311" cy="438.297" r="4" fill="#0" id="circle35"/>
	<circle cx="45.5311" cy="450.163" r="4" fill="#0" id="circle36"/>
	<circle cx="45.5311" cy="462.029" r="4" fill="#0" id="circle37"/>
	<circle cx="45.5311" cy="505.933" r="4" fill="#0" id="circle38"/>
	<circle cx="45.5311" cy="616.287" r="4" fill="#0" id="circle39"/>
	<circle cx="46.7177" cy="41.9713" r="4" fill="#0" id="circle40"/>
	<circle cx="46.7177" cy="173.684" r="4" fill="#0" id="circle41"/>
	<circle cx="49.0909" cy="473.895" r="4" fill="#0" id="circle42"/>
	<circle cx="49.0909" cy="628.153" r="4" fill="#0" id="circle43"/>
	<circle cx="51.4641" cy="485.761" r="4" fill="#0" id="circle44"/>
	<circle cx="51.4641" cy="640.019" r="4" fill="#0" id="circle45"/>
	<circle cx="52.6507" cy="255.56" r="4" fill="#0" id="circle46"/>
	<circle cx="55.0239" cy="183.177" r="4" fill="#0" id="circle47"/>
	<circle cx="55.0239" cy="651.885" r="4" fill="#0" id="circle48"/>
	<circle cx="56.2105" cy="33.6651" r="4" fill="#0" id="circle49"/>
	<circle cx="57.3971" cy="663.751" r="4" fill="#0" id="circle50"/>
	<circle cx="62.1435" cy="247.254" r="4" fill="#0" id="circle51"/>
	<circle cx="63.3301" cy="674.431" r="4" fill="#0" id="circle52"/>
	<circle cx="64.5167" cy="191.483" r="4" fill="#0" id="circle53"/>
	<circle cx="66.89" cy="27.7321" r="4" fill="#0" id="circle54"/>
	<circle cx="69.2632" cy="233.014" r="4" fill="#0" id="circle55"/>
	<circle cx="70.4498" cy="683.923" r="4" fill="#0" id="circle56"/>
	<circle cx="72.823" cy="200.976" r="4" fill="#0" id="circle57"/>
	<circle cx="75.1962" cy="212.842" r="4" fill="#0" id="circle58"/>
	<circle cx="75.1962" cy="814.45" r="4" fill="#0" id="circle59"/>
	<circle cx="75.1962" cy="826.316" r="4" fill="#0" id="circle60"/>
	<circle cx="77.5694" cy="21.799" r="4" fill="#0" id="circle61"/>
	<circle cx="78.756" cy="693.416" r="4" fill="#0" id="circle62"/>
	<circle cx="81.1292" cy="796.651" r="4" fill="#0" id="circle63"/>
	<circle cx="81.1292" cy="836.995" r="4" fill="#0" id="circle64"/>
	<circle cx="81.1292" cy="848.861" r="4" fill="#0" id="circle65"/>
	<circle cx="81.1292" cy="933.11" r="4" fill="#0" id="circle66"/>
	<circle cx="81.1292" cy="944.976" r="4" fill="#0" id="circle67"/>
	<circle cx="81.1292" cy="956.842" r="4" fill="#0" id="circle68"/>
	<circle cx="87.0622" cy="784.785" r="4" fill="#0" id="circle69"/>
	<circle cx="87.0622" cy="859.541" r="4" fill="#0" id="circle70"/>
	<circle cx="87.0622" cy="909.378" r="4" fill="#0" id="circle71"/>
	<circle cx="87.0622" cy="921.244" r="4" fill="#0" id="circle72"/>
	<circle cx="87.0622" cy="967.522" r="4" fill="#0" id="circle73"/>
	<circle cx="88.2488" cy="15.866" r="4" fill="#0" id="circle74"/>
	<circle cx="90.622" cy="698.163" r="4" fill="#0" id="circle75"/>
	<circle cx="90.622" cy="871.407" r="4" fill="#0" id="circle76"/>
	<circle cx="92.9952" cy="772.919" r="4" fill="#0" id="circle77"/>
	<circle cx="92.9952" cy="883.273" r="4" fill="#0" id="circle78"/>
	<circle cx="92.9952" cy="895.139" r="4" fill="#0" id="circle79"/>
	<circle cx="95.3684" cy="977.014" r="4" fill="#0" id="circle80"/>
	<circle cx="98.9282" cy="9.93301" r="4" fill="#0" id="circle81"/>
	<circle cx="98.9282" cy="707.656" r="4" fill="#0" id="circle82"/>
	<circle cx="98.9282" cy="761.053" r="4" fill="#0" id="circle83"/>
	<circle cx="104.861" cy="718.335" r="4" fill="#0" id="circle84"/>
	<circle cx="104.861" cy="730.201" r="4" fill="#0" id="circle85"/>
	<circle cx="104.861" cy="742.067" r="4" fill="#0" id="circle86"/>
	<circle cx="107.234" cy="981.761" r="4" fill="#0" id="circle87"/>
	<circle cx="110.794" cy="7.55981" r="4" fill="#0" id="circle88"/>
	<circle cx="119.1" cy="984.134" r="4" fill="#0" id="circle89"/>
	<circle cx="122.66" cy="4" r="4" fill="#0" id="circle90"/>
	<circle cx="130.967" cy="987.694" r="4" fill="#0" id="circle91"/>
	<circle cx="133.34" cy="9.93301" r="4" fill="#0" id="circle92"/>
	<circle cx="142.833" cy="990.067" r="4" fill="#0" id="circle93"/>
	<circle cx="145.206" cy="9.93301" r="4" fill="#0" id="circle94"/>
	<circle cx="154.699" cy="993.627" r="4" fill="#0" id="circle95"/>
	<circle cx="157.072" cy="9.93301" r="4" fill="#0" id="circle96"/>
	<circle cx="166.565" cy="996" r="4" fill="#0" id="circle97"/>
	<circle cx="168.938" cy="11.1196" r="4" fill="#0" id="circle98"/>
	<circle cx="178.431" cy="996" r="4" fill="#0" id="circle99"/>
	<circle cx="180.804" cy="15.866" r="4" fill="#0" id="circle100"/>
	<circle cx="190.297" cy="996" r="4" fill="#0" id="circle101"/>
	<circle cx="191.483" cy="21.799" r="4" fill="#0" id="circle102"/>
	<circle cx="202.163" cy="996" r="4" fill="#0" id="circle103"/>
	<circle cx="203.349" cy="21.799" r="4" fill="#0" id="circle104"/>
	<circle cx="214.029" cy="27.7321" r="4" fill="#0" id="circle105"/>
	<circle cx="214.029" cy="996" r="4" fill="#0" id="circle106"/>
	<circle cx="223.522" cy="36.0383" r="4" fill="#0" id="circle107"/>
	<circle cx="224.708" cy="883.273" r="4" fill="#0" id="circle108"/>
	<circle cx="225.895" cy="996" r="4" fill="#0" id="circle109"/>
	<circle cx="230.641" cy="865.474" r="4" fill="#0" id="circle110"/>
	<circle cx="230.641" cy="893.952" r="4" fill="#0" id="circle111"/>
	<circle cx="234.201" cy="41.9713" r="4" fill="#0" id="circle112"/>
	<circle cx="236.574" cy="841.742" r="4" fill="#0" id="circle113"/>
	<circle cx="236.574" cy="853.608" r="4" fill="#0" id="circle114"/>
	<circle cx="237.761" cy="996" r="4" fill="#0" id="circle115"/>
	<circle cx="240.134" cy="901.072" r="4" fill="#0" id="circle116"/>
	<circle cx="242.507" cy="51.4641" r="4" fill="#0" id="circle117"/>
	<circle cx="242.507" cy="818.01" r="4" fill="#0" id="circle118"/>
	<circle cx="242.507" cy="829.876" r="4" fill="#0" id="circle119"/>
	<circle cx="248.44" cy="224.708" r="4" fill="#0" id="circle120"/>
	<circle cx="248.44" cy="236.574" r="4" fill="#0" id="circle121"/>
	<circle cx="248.44" cy="764.612" r="4" fill="#0" id="circle122"/>
	<circle cx="248.44" cy="776.478" r="4" fill="#0" id="circle123"/>
	<circle cx="248.44" cy="788.344" r="4" fill="#0" id="circle124"/>
	<circle cx="248.44" cy="800.211" r="4" fill="#0" id="circle125"/>
	<circle cx="249.627" cy="996" r="4" fill="#0" id="circle126"/>
	<circle cx="250.813" cy="907.005" r="4" fill="#0" id="circle127"/>
	<circle cx="252" cy="58.5837" r="4" fill="#0" id="circle128"/>
	<circle cx="254.373" cy="200.976" r="4" fill="#0" id="circle129"/>
	<circle cx="254.373" cy="212.842" r="4" fill="#0" id="circle130"/>
	<circle cx="254.373" cy="247.254" r="4" fill="#0" id="circle131"/>
	<circle cx="254.373" cy="752.746" r="4" fill="#0" id="circle132"/>
	<circle cx="260.306" cy="68.0766" r="4" fill="#0" id="circle133"/>
	<circle cx="260.306" cy="147.579" r="4" fill="#0" id="circle134"/>
	<circle cx="260.306" cy="159.445" r="4" fill="#0" id="circle135"/>
	<circle cx="260.306" cy="189.11" r="4" fill="#0" id="circle136"/>
	<circle cx="260.306" cy="257.933" r="4" fill="#0" id="circle137"/>
	<circle cx="260.306" cy="734.947" r="4" fill="#0" id="circle138"/>
	<circle cx="260.306" cy="915.311" r="4" fill="#0" id="circle139"/>
	<circle cx="260.306" cy="990.067" r="4" fill="#0" id="circle140"/>
	<circle cx="266.239" cy="78.756" r="4" fill="#0" id="circle141"/>
	<circle cx="266.239" cy="90.622" r="4" fill="#0" id="circle142"/>
	<circle cx="266.239" cy="102.488" r="4" fill="#0" id="circle143"/>
	<circle cx="266.239" cy="114.354" r="4" fill="#0" id="circle144"/>
	<circle cx="266.239" cy="126.22" r="4" fill="#0" id="circle145"/>
	<circle cx="266.239" cy="170.124" r="4" fill="#0" id="circle146"/>
	<circle cx="266.239" cy="681.55" r="4" fill="#0" id="circle147"/>
	<circle cx="266.239" cy="693.416" r="4" fill="#0" id="circle148"/>
	<circle cx="266.239" cy="705.282" r="4" fill="#0" id="circle149"/>
	<circle cx="266.239" cy="717.148" r="4" fill="#0" id="circle150"/>
	<circle cx="269.799" cy="266.239" r="4" fill="#0" id="circle151"/>
	<circle cx="269.799" cy="923.617" r="4" fill="#0" id="circle152"/>
	<circle cx="270.986" cy="984.134" r="4" fill="#0" id="circle153"/>
	<circle cx="274.545" cy="278.105" r="4" fill="#0" id="circle154"/>
	<circle cx="275.732" cy="673.244" r="4" fill="#0" id="circle155"/>
	<circle cx="278.105" cy="289.971" r="4" fill="#0" id="circle156"/>
	<circle cx="280.478" cy="301.837" r="4" fill="#0" id="circle157"/>
	<circle cx="280.478" cy="929.55" r="4" fill="#0" id="circle158"/>
	<circle cx="282.852" cy="984.134" r="4" fill="#0" id="circle159"/>
	<circle cx="284.038" cy="313.703" r="4" fill="#0" id="circle160"/>
	<circle cx="286.411" cy="325.569" r="4" fill="#0" id="circle161"/>
	<circle cx="287.598" cy="667.311" r="4" fill="#0" id="circle162"/>
	<circle cx="289.971" cy="337.435" r="4" fill="#0" id="circle163"/>
	<circle cx="289.971" cy="349.301" r="4" fill="#0" id="circle164"/>
	<circle cx="289.971" cy="361.167" r="4" fill="#0" id="circle165"/>
	<circle cx="289.971" cy="373.033" r="4" fill="#0" id="circle166"/>
	<circle cx="289.971" cy="384.9" r="4" fill="#0" id="circle167"/>
	<circle cx="292.344" cy="929.55" r="4" fill="#0" id="circle168"/>
	<circle cx="293.531" cy="978.201" r="4" fill="#0" id="circle169"/>
	<circle cx="295.904" cy="395.579" r="4" fill="#0" id="circle170"/>
	<circle cx="299.464" cy="661.378" r="4" fill="#0" id="circle171"/>
	<circle cx="301.837" cy="406.258" r="4" fill="#0" id="circle172"/>
	<circle cx="303.024" cy="935.483" r="4" fill="#0" id="circle173"/>
	<circle cx="305.397" cy="975.828" r="4" fill="#0" id="circle174"/>
	<circle cx="307.77" cy="416.938" r="4" fill="#0" id="circle175"/>
	<circle cx="307.77" cy="651.885" r="4" fill="#0" id="circle176"/>
	<circle cx="312.517" cy="428.804" r="4" fill="#0" id="circle177"/>
	<circle cx="312.517" cy="943.789" r="4" fill="#0" id="circle178"/>
	<circle cx="313.703" cy="440.67" r="4" fill="#0" id="circle179"/>
	<circle cx="313.703" cy="634.086" r="4" fill="#0" id="circle180"/>
	<circle cx="313.703" cy="966.335" r="4" fill="#0" id="circle181"/>
	<circle cx="319.636" cy="451.349" r="4" fill="#0" id="circle182"/>
	<circle cx="319.636" cy="953.282" r="4" fill="#0" id="circle183"/>
	<circle cx="323.196" cy="463.215" r="4" fill="#0" id="circle184"/>
	<circle cx="323.196" cy="625.78" r="4" fill="#0" id="circle185"/>
	<circle cx="329.129" cy="473.895" r="4" fill="#0" id="circle186"/>
	<circle cx="331.502" cy="485.761" r="4" fill="#0" id="circle187"/>
	<circle cx="335.062" cy="622.22" r="4" fill="#0" id="circle188"/>
	<circle cx="337.435" cy="496.44" r="4" fill="#0" id="circle189"/>
	<circle cx="343.368" cy="507.12" r="4" fill="#0" id="circle190"/>
	<circle cx="346.928" cy="619.847" r="4" fill="#0" id="circle191"/>
	<circle cx="352.861" cy="515.426" r="4" fill="#0" id="circle192"/>
	<circle cx="358.794" cy="613.914" r="4" fill="#0" id="circle193"/>
	<circle cx="363.541" cy="521.359" r="4" fill="#0" id="circle194"/>
	<circle cx="367.1" cy="604.421" r="4" fill="#0" id="circle195"/>
	<circle cx="373.033" cy="562.89" r="4" fill="#0" id="circle196"/>
	<circle cx="375.407" cy="526.105" r="4" fill="#0" id="circle197"/>
	<circle cx="378.967" cy="573.569" r="4" fill="#0" id="circle198"/>
	<circle cx="378.967" cy="598.488" r="4" fill="#0" id="circle199"/>
	<circle cx="382.526" cy="554.584" r="4" fill="#0" id="circle200"/>
	<circle cx="384.9" cy="584.249" r="4" fill="#0" id="circle201"/>
	<circle cx="386.086" cy="532.038" r="4" fill="#0" id="circle202"/>
	<circle cx="388.459" cy="543.904" r="4" fill="#0" id="circle203"/>
	</g>
</svg>