<?xml version="1.0" encoding="UTF-8" standalone="no"?>
<!-- Created with CurveBenchmark -->
<svg
	xmlns:dc="http://purl.org/dc/elements/1.1/"
	xmlns:cc="http://creativecommons.org/ns#"
	xmlns:rdf="http://www.w3.org/1999/02/22-rdf-syntax-ns#"
	xmlns:svg="http://www.w3.org/2000/svg"
	xmlns="http://www.w3.org/2000/svg"
	xmlns:sodipodi="http://sodipodi.sourceforge.net/DTD/sodipodi-0.dtd"
	xmlns:inkscape="http://www.inkscape.org/namespaces/inkscape"
	width="1000"
	height="1000"
	id="svg2"
	version="1.1"
	sodipodi:docname="manifold/crawl-cat05.png.txt">
<defs
	id="defs4" />
<metadata
	id="metadata7">
	<rdf:RDF>
		<cc:Work
			rdf:about="">
			<dc:format>image/svg+xml</dc:format>
			<dc:type
				rdf:resource="http://purl.org/dc/dcmitype/StillImage" />
			<dc:title></dc:title>
		</cc:Work>
	</rdf:RDF>
</metadata>
<g
	inkscape:label="Layer 1"
	inkscape:groupmode="layer"
	id="layer1">
	<path style="fill:none;stroke:red;stroke-width:1px;stroke-linecap:butt;stroke-linejoin:miter;stroke-opacity:1" d="M 4,250.39 4,266.494 z" id="boundary" inkscape:connector-curvature="0" />
	<path style="fill:none;stroke:red;stroke-width:1px;stroke-linecap:butt;stroke-linejoin:miter;stroke-opacity:1" d="M 4,250.39 20.1039,253.61 z" id="boundary" inkscape:connector-curvature="0" />
	<path style="fill:none;stroke:red;stroke-width:1px;stroke-linecap:butt;stroke-linejoin:miter;stroke-opacity:1" d="M 20.1039,253.61 34.5974,261.662 z" id="boundary" inkscape:connector-curvature="0" />
	<path style="fill:none;stroke:red;stroke-width:1px;stroke-linecap:butt;stroke-linejoin:miter;stroke-opacity:1" d="M 34.5974,261.662 49.0909,269.714 z" id="boundary" inkscape:connector-curvature="0" />
	<path style="fill:none;stroke:red;stroke-width:1px;stroke-linecap:butt;stroke-linejoin:miter;stroke-opacity:1" d="M 49.0909,269.714 65.1948,269.714 z" id="boundary" inkscape:connector-curvature="0" />
	<path style="fill:none;stroke:red;stroke-width:1px;stroke-linecap:butt;stroke-linejoin:miter;stroke-opacity:1" d="M 65.1948,269.714 79.6883,277.766 z" id="boundary" inkscape:connector-curvature="0" />
	<path style="fill:none;stroke:red;stroke-width:1px;stroke-linecap:butt;stroke-linejoin:miter;stroke-opacity:1" d="M 79.6883,277.766 95.7922,277.766 z" id="boundary" inkscape:connector-curvature="0" />
	<path style="fill:none;stroke:red;stroke-width:1px;stroke-linecap:butt;stroke-linejoin:miter;stroke-opacity:1" d="M 95.7922,277.766 111.896,277.766 z" id="boundary" inkscape:connector-curvature="0" />
	<path style="fill:none;stroke:red;stroke-width:1px;stroke-linecap:butt;stroke-linejoin:miter;stroke-opacity:1" d="M 111.896,277.766 128,277.766 z" id="boundary" inkscape:connector-curvature="0" />
	<path style="fill:none;stroke:red;stroke-width:1px;stroke-linecap:butt;stroke-linejoin:miter;stroke-opacity:1" d="M 128,277.766 144.104,277.766 z" id="boundary" inkscape:connector-curvature="0" />
	<path style="fill:none;stroke:red;stroke-width:1px;stroke-linecap:butt;stroke-linejoin:miter;stroke-opacity:1" d="M 4,266.494 16.8831,277.766 z" id="boundary" inkscape:connector-curvature="0" />
	<path style="fill:none;stroke:red;stroke-width:1px;stroke-linecap:butt;stroke-linejoin:miter;stroke-opacity:1" d="M 16.8831,277.766 31.3766,285.818 z" id="boundary" inkscape:connector-curvature="0" />
	<path style="fill:none;stroke:red;stroke-width:1px;stroke-linecap:butt;stroke-linejoin:miter;stroke-opacity:1" d="M 31.3766,285.818 44.2597,295.481 z" id="boundary" inkscape:connector-curvature="0" />
	<path style="fill:none;stroke:red;stroke-width:1px;stroke-linecap:butt;stroke-linejoin:miter;stroke-opacity:1" d="M 44.2597,295.481 52.3117,309.974 z" id="boundary" inkscape:connector-curvature="0" />
	<path style="fill:none;stroke:red;stroke-width:1px;stroke-linecap:butt;stroke-linejoin:miter;stroke-opacity:1" d="M 52.3117,309.974 52.3117,326.078 z" id="boundary" inkscape:connector-curvature="0" />
	<path style="fill:none;stroke:red;stroke-width:1px;stroke-linecap:butt;stroke-linejoin:miter;stroke-opacity:1" d="M 144.104,277.766 160.208,271.325 z" id="boundary" inkscape:connector-curvature="0" />
	<path style="fill:none;stroke:red;stroke-width:1px;stroke-linecap:butt;stroke-linejoin:miter;stroke-opacity:1" d="M 160.208,271.325 176.312,269.714 z" id="boundary" inkscape:connector-curvature="0" />
	<path style="fill:none;stroke:red;stroke-width:1px;stroke-linecap:butt;stroke-linejoin:miter;stroke-opacity:1" d="M 176.312,269.714 192.416,263.273 z" id="boundary" inkscape:connector-curvature="0" />
	<path style="fill:none;stroke:red;stroke-width:1px;stroke-linecap:butt;stroke-linejoin:miter;stroke-opacity:1" d="M 192.416,263.273 208.519,261.662 z" id="boundary" inkscape:connector-curvature="0" />
	<path style="fill:none;stroke:red;stroke-width:1px;stroke-linecap:butt;stroke-linejoin:miter;stroke-opacity:1" d="M 208.519,261.662 221.403,272.935 z" id="boundary" inkscape:connector-curvature="0" />
	<path style="fill:none;stroke:red;stroke-width:1px;stroke-linecap:butt;stroke-linejoin:miter;stroke-opacity:1" d="M 221.403,272.935 227.844,289.039 z" id="boundary" inkscape:connector-curvature="0" />
	<path style="fill:none;stroke:red;stroke-width:1px;stroke-linecap:butt;stroke-linejoin:miter;stroke-opacity:1" d="M 227.844,289.039 243.948,295.481 z" id="boundary" inkscape:connector-curvature="0" />
	<path style="fill:none;stroke:red;stroke-width:1px;stroke-linecap:butt;stroke-linejoin:miter;stroke-opacity:1" d="M 243.948,295.481 255.221,308.364 z" id="boundary" inkscape:connector-curvature="0" />
	<path style="fill:none;stroke:red;stroke-width:1px;stroke-linecap:butt;stroke-linejoin:miter;stroke-opacity:1" d="M 255.221,308.364 271.325,309.974 z" id="boundary" inkscape:connector-curvature="0" />
	<path style="fill:none;stroke:red;stroke-width:1px;stroke-linecap:butt;stroke-linejoin:miter;stroke-opacity:1" d="M 271.325,309.974 287.429,309.974 z" id="boundary" inkscape:connector-curvature="0" />
	<path style="fill:none;stroke:red;stroke-width:1px;stroke-linecap:butt;stroke-linejoin:miter;stroke-opacity:1" d="M 287.429,309.974 303.532,309.974 z" id="boundary" inkscape:connector-curvature="0" />
	<path style="fill:none;stroke:red;stroke-width:1px;stroke-linecap:butt;stroke-linejoin:miter;stroke-opacity:1" d="M 303.532,309.974 319.636,309.974 z" id="boundary" inkscape:connector-curvature="0" />
	<path style="fill:none;stroke:red;stroke-width:1px;stroke-linecap:butt;stroke-linejoin:miter;stroke-opacity:1" d="M 319.636,309.974 335.74,309.974 z" id="boundary" inkscape:connector-curvature="0" />
	<path style="fill:none;stroke:red;stroke-width:1px;stroke-linecap:butt;stroke-linejoin:miter;stroke-opacity:1" d="M 335.74,309.974 348.623,319.636 z" id="boundary" inkscape:connector-curvature="0" />
	<path style="fill:none;stroke:red;stroke-width:1px;stroke-linecap:butt;stroke-linejoin:miter;stroke-opacity:1" d="M 348.623,319.636 364.727,326.078 z" id="boundary" inkscape:connector-curvature="0" />
	<path style="fill:none;stroke:red;stroke-width:1px;stroke-linecap:butt;stroke-linejoin:miter;stroke-opacity:1" d="M 364.727,326.078 379.221,318.026 z" id="boundary" inkscape:connector-curvature="0" />
	<path style="fill:none;stroke:red;stroke-width:1px;stroke-linecap:butt;stroke-linejoin:miter;stroke-opacity:1" d="M 379.221,318.026 395.325,309.974 z" id="boundary" inkscape:connector-curvature="0" />
	<path style="fill:none;stroke:red;stroke-width:1px;stroke-linecap:butt;stroke-linejoin:miter;stroke-opacity:1" d="M 395.325,309.974 411.429,309.974 z" id="boundary" inkscape:connector-curvature="0" />
	<path style="fill:none;stroke:red;stroke-width:1px;stroke-linecap:butt;stroke-linejoin:miter;stroke-opacity:1" d="M 411.429,309.974 427.532,309.974 z" id="boundary" inkscape:connector-curvature="0" />
	<path style="fill:none;stroke:red;stroke-width:1px;stroke-linecap:butt;stroke-linejoin:miter;stroke-opacity:1" d="M 427.532,309.974 443.636,309.974 z" id="boundary" inkscape:connector-curvature="0" />
	<path style="fill:none;stroke:red;stroke-width:1px;stroke-linecap:butt;stroke-linejoin:miter;stroke-opacity:1" d="M 443.636,309.974 458.13,301.922 z" id="boundary" inkscape:connector-curvature="0" />
	<path style="fill:none;stroke:red;stroke-width:1px;stroke-linecap:butt;stroke-linejoin:miter;stroke-opacity:1" d="M 458.13,301.922 474.234,301.922 z" id="boundary" inkscape:connector-curvature="0" />
	<path style="fill:none;stroke:red;stroke-width:1px;stroke-linecap:butt;stroke-linejoin:miter;stroke-opacity:1" d="M 474.234,301.922 490.338,301.922 z" id="boundary" inkscape:connector-curvature="0" />
	<path style="fill:none;stroke:red;stroke-width:1px;stroke-linecap:butt;stroke-linejoin:miter;stroke-opacity:1" d="M 490.338,301.922 506.442,301.922 z" id="boundary" inkscape:connector-curvature="0" />
	<path style="fill:none;stroke:red;stroke-width:1px;stroke-linecap:butt;stroke-linejoin:miter;stroke-opacity:1" d="M 506.442,301.922 522.545,301.922 z" id="boundary" inkscape:connector-curvature="0" />
	<path style="fill:none;stroke:red;stroke-width:1px;stroke-linecap:butt;stroke-linejoin:miter;stroke-opacity:1" d="M 522.545,301.922 538.649,301.922 z" id="boundary" inkscape:connector-curvature="0" />
	<path style="fill:none;stroke:red;stroke-width:1px;stroke-linecap:butt;stroke-linejoin:miter;stroke-opacity:1" d="M 538.649,301.922 554.753,301.922 z" id="boundary" inkscape:connector-curvature="0" />
	<path style="fill:none;stroke:red;stroke-width:1px;stroke-linecap:butt;stroke-linejoin:miter;stroke-opacity:1" d="M 554.753,301.922 570.857,301.922 z" id="boundary" inkscape:connector-curvature="0" />
	<path style="fill:none;stroke:red;stroke-width:1px;stroke-linecap:butt;stroke-linejoin:miter;stroke-opacity:1" d="M 570.857,301.922 585.351,309.974 z" id="boundary" inkscape:connector-curvature="0" />
	<path style="fill:none;stroke:red;stroke-width:1px;stroke-linecap:butt;stroke-linejoin:miter;stroke-opacity:1" d="M 585.351,309.974 601.455,309.974 z" id="boundary" inkscape:connector-curvature="0" />
	<path style="fill:none;stroke:red;stroke-width:1px;stroke-linecap:butt;stroke-linejoin:miter;stroke-opacity:1" d="M 601.455,309.974 617.558,309.974 z" id="boundary" inkscape:connector-curvature="0" />
	<path style="fill:none;stroke:red;stroke-width:1px;stroke-linecap:butt;stroke-linejoin:miter;stroke-opacity:1" d="M 617.558,309.974 633.662,309.974 z" id="boundary" inkscape:connector-curvature="0" />
	<path style="fill:none;stroke:red;stroke-width:1px;stroke-linecap:butt;stroke-linejoin:miter;stroke-opacity:1" d="M 633.662,309.974 649.766,309.974 z" id="boundary" inkscape:connector-curvature="0" />
	<path style="fill:none;stroke:red;stroke-width:1px;stroke-linecap:butt;stroke-linejoin:miter;stroke-opacity:1" d="M 649.766,309.974 665.87,309.974 z" id="boundary" inkscape:connector-curvature="0" />
	<path style="fill:none;stroke:red;stroke-width:1px;stroke-linecap:butt;stroke-linejoin:miter;stroke-opacity:1" d="M 665.87,309.974 681.974,314.805 z" id="boundary" inkscape:connector-curvature="0" />
	<path style="fill:none;stroke:red;stroke-width:1px;stroke-linecap:butt;stroke-linejoin:miter;stroke-opacity:1" d="M 681.974,314.805 698.078,318.026 z" id="boundary" inkscape:connector-curvature="0" />
	<path style="fill:none;stroke:red;stroke-width:1px;stroke-linecap:butt;stroke-linejoin:miter;stroke-opacity:1" d="M 698.078,318.026 714.182,322.857 z" id="boundary" inkscape:connector-curvature="0" />
	<path style="fill:none;stroke:red;stroke-width:1px;stroke-linecap:butt;stroke-linejoin:miter;stroke-opacity:1" d="M 714.182,322.857 730.286,318.026 z" id="boundary" inkscape:connector-curvature="0" />
	<path style="fill:none;stroke:red;stroke-width:1px;stroke-linecap:butt;stroke-linejoin:miter;stroke-opacity:1" d="M 730.286,318.026 744.779,326.078 z" id="boundary" inkscape:connector-curvature="0" />
	<path style="fill:none;stroke:red;stroke-width:1px;stroke-linecap:butt;stroke-linejoin:miter;stroke-opacity:1" d="M 744.779,326.078 760.883,326.078 z" id="boundary" inkscape:connector-curvature="0" />
	<path style="fill:none;stroke:red;stroke-width:1px;stroke-linecap:butt;stroke-linejoin:miter;stroke-opacity:1" d="M 760.883,326.078 776.987,326.078 z" id="boundary" inkscape:connector-curvature="0" />
	<path style="fill:none;stroke:red;stroke-width:1px;stroke-linecap:butt;stroke-linejoin:miter;stroke-opacity:1" d="M 776.987,326.078 793.091,322.857 z" id="boundary" inkscape:connector-curvature="0" />
	<path style="fill:none;stroke:red;stroke-width:1px;stroke-linecap:butt;stroke-linejoin:miter;stroke-opacity:1" d="M 793.091,322.857 805.974,309.974 z" id="boundary" inkscape:connector-curvature="0" />
	<path style="fill:none;stroke:red;stroke-width:1px;stroke-linecap:butt;stroke-linejoin:miter;stroke-opacity:1" d="M 805.974,309.974 818.857,297.091 z" id="boundary" inkscape:connector-curvature="0" />
	<path style="fill:none;stroke:red;stroke-width:1px;stroke-linecap:butt;stroke-linejoin:miter;stroke-opacity:1" d="M 818.857,297.091 831.74,285.818 z" id="boundary" inkscape:connector-curvature="0" />
	<path style="fill:none;stroke:red;stroke-width:1px;stroke-linecap:butt;stroke-linejoin:miter;stroke-opacity:1" d="M 831.74,285.818 843.013,272.935 z" id="boundary" inkscape:connector-curvature="0" />
	<path style="fill:none;stroke:red;stroke-width:1px;stroke-linecap:butt;stroke-linejoin:miter;stroke-opacity:1" d="M 843.013,272.935 851.065,256.831 z" id="boundary" inkscape:connector-curvature="0" />
	<path style="fill:none;stroke:red;stroke-width:1px;stroke-linecap:butt;stroke-linejoin:miter;stroke-opacity:1" d="M 851.065,256.831 863.948,245.558 z" id="boundary" inkscape:connector-curvature="0" />
	<path style="fill:none;stroke:red;stroke-width:1px;stroke-linecap:butt;stroke-linejoin:miter;stroke-opacity:1" d="M 863.948,245.558 875.221,232.675 z" id="boundary" inkscape:connector-curvature="0" />
	<path style="fill:none;stroke:red;stroke-width:1px;stroke-linecap:butt;stroke-linejoin:miter;stroke-opacity:1" d="M 875.221,232.675 888.104,221.403 z" id="boundary" inkscape:connector-curvature="0" />
	<path style="fill:none;stroke:red;stroke-width:1px;stroke-linecap:butt;stroke-linejoin:miter;stroke-opacity:1" d="M 888.104,221.403 894.545,205.299 z" id="boundary" inkscape:connector-curvature="0" />
	<path style="fill:none;stroke:red;stroke-width:1px;stroke-linecap:butt;stroke-linejoin:miter;stroke-opacity:1" d="M 894.545,205.299 902.597,189.195 z" id="boundary" inkscape:connector-curvature="0" />
	<path style="fill:none;stroke:red;stroke-width:1px;stroke-linecap:butt;stroke-linejoin:miter;stroke-opacity:1" d="M 902.597,189.195 910.649,173.091 z" id="boundary" inkscape:connector-curvature="0" />
	<path style="fill:none;stroke:red;stroke-width:1px;stroke-linecap:butt;stroke-linejoin:miter;stroke-opacity:1" d="M 910.649,173.091 918.701,156.987 z" id="boundary" inkscape:connector-curvature="0" />
	<path style="fill:none;stroke:red;stroke-width:1px;stroke-linecap:butt;stroke-linejoin:miter;stroke-opacity:1" d="M 918.701,156.987 921.922,137.662 z" id="boundary" inkscape:connector-curvature="0" />
	<path style="fill:none;stroke:red;stroke-width:1px;stroke-linecap:butt;stroke-linejoin:miter;stroke-opacity:1" d="M 921.922,137.662 921.922,121.558 z" id="boundary" inkscape:connector-curvature="0" />
	<path style="fill:none;stroke:red;stroke-width:1px;stroke-linecap:butt;stroke-linejoin:miter;stroke-opacity:1" d="M 921.922,121.558 929.974,97.4026 z" id="boundary" inkscape:connector-curvature="0" />
	<path style="fill:none;stroke:red;stroke-width:1px;stroke-linecap:butt;stroke-linejoin:miter;stroke-opacity:1" d="M 929.974,97.4026 929.974,81.2987 z" id="boundary" inkscape:connector-curvature="0" />
	<path style="fill:none;stroke:red;stroke-width:1px;stroke-linecap:butt;stroke-linejoin:miter;stroke-opacity:1" d="M 929.974,81.2987 929.974,65.1948 z" id="boundary" inkscape:connector-curvature="0" />
	<path style="fill:none;stroke:red;stroke-width:1px;stroke-linecap:butt;stroke-linejoin:miter;stroke-opacity:1" d="M 929.974,65.1948 918.701,52.3117 z" id="boundary" inkscape:connector-curvature="0" />
	<path style="fill:none;stroke:red;stroke-width:1px;stroke-linecap:butt;stroke-linejoin:miter;stroke-opacity:1" d="M 918.701,52.3117 905.818,41.039 z" id="boundary" inkscape:connector-curvature="0" />
	<path style="fill:none;stroke:red;stroke-width:1px;stroke-linecap:butt;stroke-linejoin:miter;stroke-opacity:1" d="M 905.818,41.039 894.545,28.1558 z" id="boundary" inkscape:connector-curvature="0" />
	<path style="fill:none;stroke:red;stroke-width:1px;stroke-linecap:butt;stroke-linejoin:miter;stroke-opacity:1" d="M 894.545,28.1558 881.662,16.8831 z" id="boundary" inkscape:connector-curvature="0" />
	<path style="fill:none;stroke:red;stroke-width:1px;stroke-linecap:butt;stroke-linejoin:miter;stroke-opacity:1" d="M 881.662,16.8831 894.545,4 z" id="boundary" inkscape:connector-curvature="0" />
	<path style="fill:none;stroke:red;stroke-width:1px;stroke-linecap:butt;stroke-linejoin:miter;stroke-opacity:1" d="M 894.545,4 910.649,4 z" id="boundary" inkscape:connector-curvature="0" />
	<path style="fill:none;stroke:red;stroke-width:1px;stroke-linecap:butt;stroke-linejoin:miter;stroke-opacity:1" d="M 910.649,4 926.753,4 z" id="boundary" inkscape:connector-curvature="0" />
	<path style="fill:none;stroke:red;stroke-width:1px;stroke-linecap:butt;stroke-linejoin:miter;stroke-opacity:1" d="M 926.753,4 941.247,12.0519 z" id="boundary" inkscape:connector-curvature="0" />
	<path style="fill:none;stroke:red;stroke-width:1px;stroke-linecap:butt;stroke-linejoin:miter;stroke-opacity:1" d="M 941.247,12.0519 954.13,23.3247 z" id="boundary" inkscape:connector-curvature="0" />
	<path style="fill:none;stroke:red;stroke-width:1px;stroke-linecap:butt;stroke-linejoin:miter;stroke-opacity:1" d="M 954.13,23.3247 968.623,31.3766 z" id="boundary" inkscape:connector-curvature="0" />
	<path style="fill:none;stroke:red;stroke-width:1px;stroke-linecap:butt;stroke-linejoin:miter;stroke-opacity:1" d="M 968.623,31.3766 976.675,45.8701 z" id="boundary" inkscape:connector-curvature="0" />
	<path style="fill:none;stroke:red;stroke-width:1px;stroke-linecap:butt;stroke-linejoin:miter;stroke-opacity:1" d="M 976.675,45.8701 979.896,61.974 z" id="boundary" inkscape:connector-curvature="0" />
	<path style="fill:none;stroke:red;stroke-width:1px;stroke-linecap:butt;stroke-linejoin:miter;stroke-opacity:1" d="M 979.896,61.974 987.948,76.4675 z" id="boundary" inkscape:connector-curvature="0" />
	<path style="fill:none;stroke:red;stroke-width:1px;stroke-linecap:butt;stroke-linejoin:miter;stroke-opacity:1" d="M 987.948,76.4675 987.948,92.5714 z" id="boundary" inkscape:connector-curvature="0" />
	<path style="fill:none;stroke:red;stroke-width:1px;stroke-linecap:butt;stroke-linejoin:miter;stroke-opacity:1" d="M 987.948,92.5714 996,107.065 z" id="boundary" inkscape:connector-curvature="0" />
	<path style="fill:none;stroke:red;stroke-width:1px;stroke-linecap:butt;stroke-linejoin:miter;stroke-opacity:1" d="M 996,107.065 987.948,126.39 z" id="boundary" inkscape:connector-curvature="0" />
	<path style="fill:none;stroke:red;stroke-width:1px;stroke-linecap:butt;stroke-linejoin:miter;stroke-opacity:1" d="M 987.948,126.39 979.896,150.545 z" id="boundary" inkscape:connector-curvature="0" />
	<path style="fill:none;stroke:red;stroke-width:1px;stroke-linecap:butt;stroke-linejoin:miter;stroke-opacity:1" d="M 979.896,150.545 979.896,166.649 z" id="boundary" inkscape:connector-curvature="0" />
	<path style="fill:none;stroke:red;stroke-width:1px;stroke-linecap:butt;stroke-linejoin:miter;stroke-opacity:1" d="M 979.896,166.649 971.844,182.753 z" id="boundary" inkscape:connector-curvature="0" />
	<path style="fill:none;stroke:red;stroke-width:1px;stroke-linecap:butt;stroke-linejoin:miter;stroke-opacity:1" d="M 971.844,182.753 963.792,198.857 z" id="boundary" inkscape:connector-curvature="0" />
	<path style="fill:none;stroke:red;stroke-width:1px;stroke-linecap:butt;stroke-linejoin:miter;stroke-opacity:1" d="M 963.792,198.857 955.74,214.961 z" id="boundary" inkscape:connector-curvature="0" />
	<path style="fill:none;stroke:red;stroke-width:1px;stroke-linecap:butt;stroke-linejoin:miter;stroke-opacity:1" d="M 955.74,214.961 947.688,231.065 z" id="boundary" inkscape:connector-curvature="0" />
	<path style="fill:none;stroke:red;stroke-width:1px;stroke-linecap:butt;stroke-linejoin:miter;stroke-opacity:1" d="M 947.688,231.065 936.416,252 z" id="boundary" inkscape:connector-curvature="0" />
	<path style="fill:none;stroke:red;stroke-width:1px;stroke-linecap:butt;stroke-linejoin:miter;stroke-opacity:1" d="M 936.416,252 928.364,268.104 z" id="boundary" inkscape:connector-curvature="0" />
	<path style="fill:none;stroke:red;stroke-width:1px;stroke-linecap:butt;stroke-linejoin:miter;stroke-opacity:1" d="M 928.364,268.104 920.312,284.208 z" id="boundary" inkscape:connector-curvature="0" />
	<path style="fill:none;stroke:red;stroke-width:1px;stroke-linecap:butt;stroke-linejoin:miter;stroke-opacity:1" d="M 920.312,284.208 907.429,295.481 z" id="boundary" inkscape:connector-curvature="0" />
	<path style="fill:none;stroke:red;stroke-width:1px;stroke-linecap:butt;stroke-linejoin:miter;stroke-opacity:1" d="M 907.429,295.481 899.377,311.584 z" id="boundary" inkscape:connector-curvature="0" />
	<path style="fill:none;stroke:red;stroke-width:1px;stroke-linecap:butt;stroke-linejoin:miter;stroke-opacity:1" d="M 899.377,311.584 888.104,324.468 z" id="boundary" inkscape:connector-curvature="0" />
	<path style="fill:none;stroke:red;stroke-width:1px;stroke-linecap:butt;stroke-linejoin:miter;stroke-opacity:1" d="M 888.104,324.468 875.221,335.74 z" id="boundary" inkscape:connector-curvature="0" />
	<path style="fill:none;stroke:red;stroke-width:1px;stroke-linecap:butt;stroke-linejoin:miter;stroke-opacity:1" d="M 875.221,335.74 875.221,351.844 z" id="boundary" inkscape:connector-curvature="0" />
	<path style="fill:none;stroke:red;stroke-width:1px;stroke-linecap:butt;stroke-linejoin:miter;stroke-opacity:1" d="M 875.221,351.844 863.948,364.727 z" id="boundary" inkscape:connector-curvature="0" />
	<path style="fill:none;stroke:red;stroke-width:1px;stroke-linecap:butt;stroke-linejoin:miter;stroke-opacity:1" d="M 863.948,364.727 855.896,380.831 z" id="boundary" inkscape:connector-curvature="0" />
	<path style="fill:none;stroke:red;stroke-width:1px;stroke-linecap:butt;stroke-linejoin:miter;stroke-opacity:1" d="M 855.896,380.831 843.013,392.104 z" id="boundary" inkscape:connector-curvature="0" />
	<path style="fill:none;stroke:red;stroke-width:1px;stroke-linecap:butt;stroke-linejoin:miter;stroke-opacity:1" d="M 843.013,392.104 843.013,408.208 z" id="boundary" inkscape:connector-curvature="0" />
	<path style="fill:none;stroke:red;stroke-width:1px;stroke-linecap:butt;stroke-linejoin:miter;stroke-opacity:1" d="M 843.013,408.208 834.961,424.312 z" id="boundary" inkscape:connector-curvature="0" />
	<path style="fill:none;stroke:red;stroke-width:1px;stroke-linecap:butt;stroke-linejoin:miter;stroke-opacity:1" d="M 834.961,424.312 834.961,440.416 z" id="boundary" inkscape:connector-curvature="0" />
	<path style="fill:none;stroke:red;stroke-width:1px;stroke-linecap:butt;stroke-linejoin:miter;stroke-opacity:1" d="M 834.961,440.416 826.909,456.519 z" id="boundary" inkscape:connector-curvature="0" />
	<path style="fill:none;stroke:red;stroke-width:1px;stroke-linecap:butt;stroke-linejoin:miter;stroke-opacity:1" d="M 826.909,456.519 818.857,480.675 z" id="boundary" inkscape:connector-curvature="0" />
	<path style="fill:none;stroke:red;stroke-width:1px;stroke-linecap:butt;stroke-linejoin:miter;stroke-opacity:1" d="M 818.857,480.675 818.857,496.779 z" id="boundary" inkscape:connector-curvature="0" />
	<path style="fill:none;stroke:red;stroke-width:1px;stroke-linecap:butt;stroke-linejoin:miter;stroke-opacity:1" d="M 818.857,496.779 822.078,512.883 z" id="boundary" inkscape:connector-curvature="0" />
	<path style="fill:none;stroke:red;stroke-width:1px;stroke-linecap:butt;stroke-linejoin:miter;stroke-opacity:1" d="M 822.078,512.883 834.961,524.156 z" id="boundary" inkscape:connector-curvature="0" />
	<path style="fill:none;stroke:red;stroke-width:1px;stroke-linecap:butt;stroke-linejoin:miter;stroke-opacity:1" d="M 834.961,524.156 846.234,537.039 z" id="boundary" inkscape:connector-curvature="0" />
	<path style="fill:none;stroke:red;stroke-width:1px;stroke-linecap:butt;stroke-linejoin:miter;stroke-opacity:1" d="M 846.234,537.039 859.117,548.312 z" id="boundary" inkscape:connector-curvature="0" />
	<path style="fill:none;stroke:red;stroke-width:1px;stroke-linecap:butt;stroke-linejoin:miter;stroke-opacity:1" d="M 859.117,548.312 875.221,551.532 z" id="boundary" inkscape:connector-curvature="0" />
	<path style="fill:none;stroke:red;stroke-width:1px;stroke-linecap:butt;stroke-linejoin:miter;stroke-opacity:1" d="M 875.221,551.532 888.104,561.195 z" id="boundary" inkscape:connector-curvature="0" />
	<path style="fill:none;stroke:red;stroke-width:1px;stroke-linecap:butt;stroke-linejoin:miter;stroke-opacity:1" d="M 888.104,561.195 891.325,577.299 z" id="boundary" inkscape:connector-curvature="0" />
	<path style="fill:none;stroke:red;stroke-width:1px;stroke-linecap:butt;stroke-linejoin:miter;stroke-opacity:1" d="M 891.325,577.299 891.325,593.403 z" id="boundary" inkscape:connector-curvature="0" />
	<path style="fill:none;stroke:red;stroke-width:1px;stroke-linecap:butt;stroke-linejoin:miter;stroke-opacity:1" d="M 891.325,593.403 891.325,609.506 z" id="boundary" inkscape:connector-curvature="0" />
	<path style="fill:none;stroke:red;stroke-width:1px;stroke-linecap:butt;stroke-linejoin:miter;stroke-opacity:1" d="M 891.325,609.506 891.325,625.61 z" id="boundary" inkscape:connector-curvature="0" />
	<path style="fill:none;stroke:red;stroke-width:1px;stroke-linecap:butt;stroke-linejoin:miter;stroke-opacity:1" d="M 891.325,625.61 891.325,641.714 z" id="boundary" inkscape:connector-curvature="0" />
	<path style="fill:none;stroke:red;stroke-width:1px;stroke-linecap:butt;stroke-linejoin:miter;stroke-opacity:1" d="M 891.325,641.714 891.325,657.818 z" id="boundary" inkscape:connector-curvature="0" />
	<path style="fill:none;stroke:red;stroke-width:1px;stroke-linecap:butt;stroke-linejoin:miter;stroke-opacity:1" d="M 891.325,657.818 891.325,673.922 z" id="boundary" inkscape:connector-curvature="0" />
	<path style="fill:none;stroke:red;stroke-width:1px;stroke-linecap:butt;stroke-linejoin:miter;stroke-opacity:1" d="M 891.325,673.922 891.325,690.026 z" id="boundary" inkscape:connector-curvature="0" />
	<path style="fill:none;stroke:red;stroke-width:1px;stroke-linecap:butt;stroke-linejoin:miter;stroke-opacity:1" d="M 891.325,690.026 894.545,706.13 z" id="boundary" inkscape:connector-curvature="0" />
	<path style="fill:none;stroke:red;stroke-width:1px;stroke-linecap:butt;stroke-linejoin:miter;stroke-opacity:1" d="M 894.545,706.13 902.597,720.623 z" id="boundary" inkscape:connector-curvature="0" />
	<path style="fill:none;stroke:red;stroke-width:1px;stroke-linecap:butt;stroke-linejoin:miter;stroke-opacity:1" d="M 902.597,720.623 907.429,736.727 z" id="boundary" inkscape:connector-curvature="0" />
	<path style="fill:none;stroke:red;stroke-width:1px;stroke-linecap:butt;stroke-linejoin:miter;stroke-opacity:1" d="M 907.429,736.727 899.377,762.494 z" id="boundary" inkscape:connector-curvature="0" />
	<path style="fill:none;stroke:red;stroke-width:1px;stroke-linecap:butt;stroke-linejoin:miter;stroke-opacity:1" d="M 899.377,762.494 883.273,765.714 z" id="boundary" inkscape:connector-curvature="0" />
	<path style="fill:none;stroke:red;stroke-width:1px;stroke-linecap:butt;stroke-linejoin:miter;stroke-opacity:1" d="M 883.273,765.714 867.169,759.273 z" id="boundary" inkscape:connector-curvature="0" />
	<path style="fill:none;stroke:red;stroke-width:1px;stroke-linecap:butt;stroke-linejoin:miter;stroke-opacity:1" d="M 867.169,759.273 857.506,746.39 z" id="boundary" inkscape:connector-curvature="0" />
	<path style="fill:none;stroke:red;stroke-width:1px;stroke-linecap:butt;stroke-linejoin:miter;stroke-opacity:1" d="M 857.506,746.39 857.506,730.286 z" id="boundary" inkscape:connector-curvature="0" />
	<path style="fill:none;stroke:red;stroke-width:1px;stroke-linecap:butt;stroke-linejoin:miter;stroke-opacity:1" d="M 857.506,730.286 849.455,715.792 z" id="boundary" inkscape:connector-curvature="0" />
	<path style="fill:none;stroke:red;stroke-width:1px;stroke-linecap:butt;stroke-linejoin:miter;stroke-opacity:1" d="M 849.455,715.792 849.455,699.688 z" id="boundary" inkscape:connector-curvature="0" />
	<path style="fill:none;stroke:red;stroke-width:1px;stroke-linecap:butt;stroke-linejoin:miter;stroke-opacity:1" d="M 849.455,699.688 849.455,683.584 z" id="boundary" inkscape:connector-curvature="0" />
	<path style="fill:none;stroke:red;stroke-width:1px;stroke-linecap:butt;stroke-linejoin:miter;stroke-opacity:1" d="M 849.455,683.584 841.403,669.091 z" id="boundary" inkscape:connector-curvature="0" />
	<path style="fill:none;stroke:red;stroke-width:1px;stroke-linecap:butt;stroke-linejoin:miter;stroke-opacity:1" d="M 841.403,669.091 841.403,652.987 z" id="boundary" inkscape:connector-curvature="0" />
	<path style="fill:none;stroke:red;stroke-width:1px;stroke-linecap:butt;stroke-linejoin:miter;stroke-opacity:1" d="M 841.403,652.987 849.455,638.494 z" id="boundary" inkscape:connector-curvature="0" />
	<path style="fill:none;stroke:red;stroke-width:1px;stroke-linecap:butt;stroke-linejoin:miter;stroke-opacity:1" d="M 849.455,638.494 839.792,625.61 z" id="boundary" inkscape:connector-curvature="0" />
	<path style="fill:none;stroke:red;stroke-width:1px;stroke-linecap:butt;stroke-linejoin:miter;stroke-opacity:1" d="M 839.792,625.61 825.299,617.558 z" id="boundary" inkscape:connector-curvature="0" />
	<path style="fill:none;stroke:red;stroke-width:1px;stroke-linecap:butt;stroke-linejoin:miter;stroke-opacity:1" d="M 825.299,617.558 809.195,617.558 z" id="boundary" inkscape:connector-curvature="0" />
	<path style="fill:none;stroke:red;stroke-width:1px;stroke-linecap:butt;stroke-linejoin:miter;stroke-opacity:1" d="M 809.195,617.558 793.091,617.558 z" id="boundary" inkscape:connector-curvature="0" />
	<path style="fill:none;stroke:red;stroke-width:1px;stroke-linecap:butt;stroke-linejoin:miter;stroke-opacity:1" d="M 793.091,617.558 776.987,617.558 z" id="boundary" inkscape:connector-curvature="0" />
	<path style="fill:none;stroke:red;stroke-width:1px;stroke-linecap:butt;stroke-linejoin:miter;stroke-opacity:1" d="M 776.987,617.558 760.883,617.558 z" id="boundary" inkscape:connector-curvature="0" />
	<path style="fill:none;stroke:red;stroke-width:1px;stroke-linecap:butt;stroke-linejoin:miter;stroke-opacity:1" d="M 760.883,617.558 746.39,625.61 z" id="boundary" inkscape:connector-curvature="0" />
	<path style="fill:none;stroke:red;stroke-width:1px;stroke-linecap:butt;stroke-linejoin:miter;stroke-opacity:1" d="M 746.39,625.61 746.39,641.714 z" id="boundary" inkscape:connector-curvature="0" />
	<path style="fill:none;stroke:red;stroke-width:1px;stroke-linecap:butt;stroke-linejoin:miter;stroke-opacity:1" d="M 746.39,641.714 749.61,657.818 z" id="boundary" inkscape:connector-curvature="0" />
	<path style="fill:none;stroke:red;stroke-width:1px;stroke-linecap:butt;stroke-linejoin:miter;stroke-opacity:1" d="M 749.61,657.818 757.662,672.312 z" id="boundary" inkscape:connector-curvature="0" />
	<path style="fill:none;stroke:red;stroke-width:1px;stroke-linecap:butt;stroke-linejoin:miter;stroke-opacity:1" d="M 757.662,672.312 762.494,688.416 z" id="boundary" inkscape:connector-curvature="0" />
	<path style="fill:none;stroke:red;stroke-width:1px;stroke-linecap:butt;stroke-linejoin:miter;stroke-opacity:1" d="M 762.494,688.416 751.221,702.909 z" id="boundary" inkscape:connector-curvature="0" />
	<path style="fill:none;stroke:red;stroke-width:1px;stroke-linecap:butt;stroke-linejoin:miter;stroke-opacity:1" d="M 751.221,702.909 738.338,714.182 z" id="boundary" inkscape:connector-curvature="0" />
	<path style="fill:none;stroke:red;stroke-width:1px;stroke-linecap:butt;stroke-linejoin:miter;stroke-opacity:1" d="M 738.338,714.182 727.065,727.065 z" id="boundary" inkscape:connector-curvature="0" />
	<path style="fill:none;stroke:red;stroke-width:1px;stroke-linecap:butt;stroke-linejoin:miter;stroke-opacity:1" d="M 727.065,727.065 714.182,738.338 z" id="boundary" inkscape:connector-curvature="0" />
	<path style="fill:none;stroke:red;stroke-width:1px;stroke-linecap:butt;stroke-linejoin:miter;stroke-opacity:1" d="M 714.182,738.338 702.909,751.221 z" id="boundary" inkscape:connector-curvature="0" />
	<path style="fill:none;stroke:red;stroke-width:1px;stroke-linecap:butt;stroke-linejoin:miter;stroke-opacity:1" d="M 702.909,751.221 690.026,762.494 z" id="boundary" inkscape:connector-curvature="0" />
	<path style="fill:none;stroke:red;stroke-width:1px;stroke-linecap:butt;stroke-linejoin:miter;stroke-opacity:1" d="M 690.026,762.494 677.143,776.987 z" id="boundary" inkscape:connector-curvature="0" />
	<path style="fill:none;stroke:red;stroke-width:1px;stroke-linecap:butt;stroke-linejoin:miter;stroke-opacity:1" d="M 677.143,776.987 664.26,789.87 z" id="boundary" inkscape:connector-curvature="0" />
	<path style="fill:none;stroke:red;stroke-width:1px;stroke-linecap:butt;stroke-linejoin:miter;stroke-opacity:1" d="M 664.26,789.87 648.156,794.701 z" id="boundary" inkscape:connector-curvature="0" />
	<path style="fill:none;stroke:red;stroke-width:1px;stroke-linecap:butt;stroke-linejoin:miter;stroke-opacity:1" d="M 648.156,794.701 632.052,794.701 z" id="boundary" inkscape:connector-curvature="0" />
	<path style="fill:none;stroke:red;stroke-width:1px;stroke-linecap:butt;stroke-linejoin:miter;stroke-opacity:1" d="M 632.052,794.701 615.948,794.701 z" id="boundary" inkscape:connector-curvature="0" />
	<path style="fill:none;stroke:red;stroke-width:1px;stroke-linecap:butt;stroke-linejoin:miter;stroke-opacity:1" d="M 615.948,794.701 601.455,786.649 z" id="boundary" inkscape:connector-curvature="0" />
	<path style="fill:none;stroke:red;stroke-width:1px;stroke-linecap:butt;stroke-linejoin:miter;stroke-opacity:1" d="M 601.455,786.649 591.792,773.766 z" id="boundary" inkscape:connector-curvature="0" />
	<path style="fill:none;stroke:red;stroke-width:1px;stroke-linecap:butt;stroke-linejoin:miter;stroke-opacity:1" d="M 591.792,773.766 604.675,760.883 z" id="boundary" inkscape:connector-curvature="0" />
	<path style="fill:none;stroke:red;stroke-width:1px;stroke-linecap:butt;stroke-linejoin:miter;stroke-opacity:1" d="M 604.675,760.883 620.779,752.831 z" id="boundary" inkscape:connector-curvature="0" />
	<path style="fill:none;stroke:red;stroke-width:1px;stroke-linecap:butt;stroke-linejoin:miter;stroke-opacity:1" d="M 620.779,752.831 636.883,752.831 z" id="boundary" inkscape:connector-curvature="0" />
	<path style="fill:none;stroke:red;stroke-width:1px;stroke-linecap:butt;stroke-linejoin:miter;stroke-opacity:1" d="M 636.883,752.831 651.377,744.779 z" id="boundary" inkscape:connector-curvature="0" />
	<path style="fill:none;stroke:red;stroke-width:1px;stroke-linecap:butt;stroke-linejoin:miter;stroke-opacity:1" d="M 651.377,744.779 664.26,733.506 z" id="boundary" inkscape:connector-curvature="0" />
	<path style="fill:none;stroke:red;stroke-width:1px;stroke-linecap:butt;stroke-linejoin:miter;stroke-opacity:1" d="M 664.26,733.506 677.143,720.623 z" id="boundary" inkscape:connector-curvature="0" />
	<path style="fill:none;stroke:red;stroke-width:1px;stroke-linecap:butt;stroke-linejoin:miter;stroke-opacity:1" d="M 677.143,720.623 685.195,704.519 z" id="boundary" inkscape:connector-curvature="0" />
	<path style="fill:none;stroke:red;stroke-width:1px;stroke-linecap:butt;stroke-linejoin:miter;stroke-opacity:1" d="M 685.195,704.519 685.195,680.364 z" id="boundary" inkscape:connector-curvature="0" />
	<path style="fill:none;stroke:red;stroke-width:1px;stroke-linecap:butt;stroke-linejoin:miter;stroke-opacity:1" d="M 685.195,680.364 672.312,669.091 z" id="boundary" inkscape:connector-curvature="0" />
	<path style="fill:none;stroke:red;stroke-width:1px;stroke-linecap:butt;stroke-linejoin:miter;stroke-opacity:1" d="M 672.312,669.091 664.26,654.597 z" id="boundary" inkscape:connector-curvature="0" />
	<path style="fill:none;stroke:red;stroke-width:1px;stroke-linecap:butt;stroke-linejoin:miter;stroke-opacity:1" d="M 664.26,654.597 649.766,646.545 z" id="boundary" inkscape:connector-curvature="0" />
	<path style="fill:none;stroke:red;stroke-width:1px;stroke-linecap:butt;stroke-linejoin:miter;stroke-opacity:1" d="M 649.766,646.545 640.104,633.662 z" id="boundary" inkscape:connector-curvature="0" />
	<path style="fill:none;stroke:red;stroke-width:1px;stroke-linecap:butt;stroke-linejoin:miter;stroke-opacity:1" d="M 640.104,633.662 627.221,624 z" id="boundary" inkscape:connector-curvature="0" />
	<path style="fill:none;stroke:red;stroke-width:1px;stroke-linecap:butt;stroke-linejoin:miter;stroke-opacity:1" d="M 627.221,624 615.948,611.117 z" id="boundary" inkscape:connector-curvature="0" />
	<path style="fill:none;stroke:red;stroke-width:1px;stroke-linecap:butt;stroke-linejoin:miter;stroke-opacity:1" d="M 615.948,611.117 603.065,601.455 z" id="boundary" inkscape:connector-curvature="0" />
	<path style="fill:none;stroke:red;stroke-width:1px;stroke-linecap:butt;stroke-linejoin:miter;stroke-opacity:1" d="M 603.065,601.455 588.571,593.403 z" id="boundary" inkscape:connector-curvature="0" />
	<path style="fill:none;stroke:red;stroke-width:1px;stroke-linecap:butt;stroke-linejoin:miter;stroke-opacity:1" d="M 588.571,593.403 582.13,577.299 z" id="boundary" inkscape:connector-curvature="0" />
	<path style="fill:none;stroke:red;stroke-width:1px;stroke-linecap:butt;stroke-linejoin:miter;stroke-opacity:1" d="M 582.13,577.299 567.636,569.247 z" id="boundary" inkscape:connector-curvature="0" />
	<path style="fill:none;stroke:red;stroke-width:1px;stroke-linecap:butt;stroke-linejoin:miter;stroke-opacity:1" d="M 567.636,569.247 553.143,577.299 z" id="boundary" inkscape:connector-curvature="0" />
	<path style="fill:none;stroke:red;stroke-width:1px;stroke-linecap:butt;stroke-linejoin:miter;stroke-opacity:1" d="M 553.143,577.299 537.039,577.299 z" id="boundary" inkscape:connector-curvature="0" />
	<path style="fill:none;stroke:red;stroke-width:1px;stroke-linecap:butt;stroke-linejoin:miter;stroke-opacity:1" d="M 537.039,577.299 520.935,577.299 z" id="boundary" inkscape:connector-curvature="0" />
	<path style="fill:none;stroke:red;stroke-width:1px;stroke-linecap:butt;stroke-linejoin:miter;stroke-opacity:1" d="M 520.935,577.299 504.831,585.351 z" id="boundary" inkscape:connector-curvature="0" />
	<path style="fill:none;stroke:red;stroke-width:1px;stroke-linecap:butt;stroke-linejoin:miter;stroke-opacity:1" d="M 504.831,585.351 488.727,585.351 z" id="boundary" inkscape:connector-curvature="0" />
	<path style="fill:none;stroke:red;stroke-width:1px;stroke-linecap:butt;stroke-linejoin:miter;stroke-opacity:1" d="M 488.727,585.351 472.623,585.351 z" id="boundary" inkscape:connector-curvature="0" />
	<path style="fill:none;stroke:red;stroke-width:1px;stroke-linecap:butt;stroke-linejoin:miter;stroke-opacity:1" d="M 472.623,585.351 456.519,585.351 z" id="boundary" inkscape:connector-curvature="0" />
	<path style="fill:none;stroke:red;stroke-width:1px;stroke-linecap:butt;stroke-linejoin:miter;stroke-opacity:1" d="M 456.519,585.351 440.416,580.519 z" id="boundary" inkscape:connector-curvature="0" />
	<path style="fill:none;stroke:red;stroke-width:1px;stroke-linecap:butt;stroke-linejoin:miter;stroke-opacity:1" d="M 440.416,580.519 424.312,577.299 z" id="boundary" inkscape:connector-curvature="0" />
	<path style="fill:none;stroke:red;stroke-width:1px;stroke-linecap:butt;stroke-linejoin:miter;stroke-opacity:1" d="M 424.312,577.299 424.312,593.403 z" id="boundary" inkscape:connector-curvature="0" />
	<path style="fill:none;stroke:red;stroke-width:1px;stroke-linecap:butt;stroke-linejoin:miter;stroke-opacity:1" d="M 424.312,593.403 424.312,609.506 z" id="boundary" inkscape:connector-curvature="0" />
	<path style="fill:none;stroke:red;stroke-width:1px;stroke-linecap:butt;stroke-linejoin:miter;stroke-opacity:1" d="M 424.312,609.506 424.312,625.61 z" id="boundary" inkscape:connector-curvature="0" />
	<path style="fill:none;stroke:red;stroke-width:1px;stroke-linecap:butt;stroke-linejoin:miter;stroke-opacity:1" d="M 424.312,625.61 424.312,641.714 z" id="boundary" inkscape:connector-curvature="0" />
	<path style="fill:none;stroke:red;stroke-width:1px;stroke-linecap:butt;stroke-linejoin:miter;stroke-opacity:1" d="M 424.312,641.714 424.312,657.818 z" id="boundary" inkscape:connector-curvature="0" />
	<path style="fill:none;stroke:red;stroke-width:1px;stroke-linecap:butt;stroke-linejoin:miter;stroke-opacity:1" d="M 424.312,657.818 424.312,673.922 z" id="boundary" inkscape:connector-curvature="0" />
	<path style="fill:none;stroke:red;stroke-width:1px;stroke-linecap:butt;stroke-linejoin:miter;stroke-opacity:1" d="M 424.312,673.922 424.312,690.026 z" id="boundary" inkscape:connector-curvature="0" />
	<path style="fill:none;stroke:red;stroke-width:1px;stroke-linecap:butt;stroke-linejoin:miter;stroke-opacity:1" d="M 424.312,690.026 424.312,706.13 z" id="boundary" inkscape:connector-curvature="0" />
	<path style="fill:none;stroke:red;stroke-width:1px;stroke-linecap:butt;stroke-linejoin:miter;stroke-opacity:1" d="M 424.312,706.13 416.26,722.234 z" id="boundary" inkscape:connector-curvature="0" />
	<path style="fill:none;stroke:red;stroke-width:1px;stroke-linecap:butt;stroke-linejoin:miter;stroke-opacity:1" d="M 416.26,722.234 416.26,738.338 z" id="boundary" inkscape:connector-curvature="0" />
	<path style="fill:none;stroke:red;stroke-width:1px;stroke-linecap:butt;stroke-linejoin:miter;stroke-opacity:1" d="M 416.26,738.338 411.429,760.883 z" id="boundary" inkscape:connector-curvature="0" />
	<path style="fill:none;stroke:red;stroke-width:1px;stroke-linecap:butt;stroke-linejoin:miter;stroke-opacity:1" d="M 411.429,760.883 398.545,770.545 z" id="boundary" inkscape:connector-curvature="0" />
	<path style="fill:none;stroke:red;stroke-width:1px;stroke-linecap:butt;stroke-linejoin:miter;stroke-opacity:1" d="M 398.545,770.545 382.442,770.545 z" id="boundary" inkscape:connector-curvature="0" />
	<path style="fill:none;stroke:red;stroke-width:1px;stroke-linecap:butt;stroke-linejoin:miter;stroke-opacity:1" d="M 382.442,770.545 366.338,770.545 z" id="boundary" inkscape:connector-curvature="0" />
	<path style="fill:none;stroke:red;stroke-width:1px;stroke-linecap:butt;stroke-linejoin:miter;stroke-opacity:1" d="M 366.338,770.545 351.844,762.494 z" id="boundary" inkscape:connector-curvature="0" />
	<path style="fill:none;stroke:red;stroke-width:1px;stroke-linecap:butt;stroke-linejoin:miter;stroke-opacity:1" d="M 351.844,762.494 342.182,749.61 z" id="boundary" inkscape:connector-curvature="0" />
	<path style="fill:none;stroke:red;stroke-width:1px;stroke-linecap:butt;stroke-linejoin:miter;stroke-opacity:1" d="M 342.182,749.61 355.065,736.727 z" id="boundary" inkscape:connector-curvature="0" />
	<path style="fill:none;stroke:red;stroke-width:1px;stroke-linecap:butt;stroke-linejoin:miter;stroke-opacity:1" d="M 355.065,736.727 366.338,720.623 z" id="boundary" inkscape:connector-curvature="0" />
	<path style="fill:none;stroke:red;stroke-width:1px;stroke-linecap:butt;stroke-linejoin:miter;stroke-opacity:1" d="M 366.338,720.623 366.338,704.519 z" id="boundary" inkscape:connector-curvature="0" />
	<path style="fill:none;stroke:red;stroke-width:1px;stroke-linecap:butt;stroke-linejoin:miter;stroke-opacity:1" d="M 366.338,704.519 366.338,688.416 z" id="boundary" inkscape:connector-curvature="0" />
	<path style="fill:none;stroke:red;stroke-width:1px;stroke-linecap:butt;stroke-linejoin:miter;stroke-opacity:1" d="M 366.338,688.416 358.286,673.922 z" id="boundary" inkscape:connector-curvature="0" />
	<path style="fill:none;stroke:red;stroke-width:1px;stroke-linecap:butt;stroke-linejoin:miter;stroke-opacity:1" d="M 358.286,673.922 358.286,657.818 z" id="boundary" inkscape:connector-curvature="0" />
	<path style="fill:none;stroke:red;stroke-width:1px;stroke-linecap:butt;stroke-linejoin:miter;stroke-opacity:1" d="M 358.286,657.818 358.286,641.714 z" id="boundary" inkscape:connector-curvature="0" />
	<path style="fill:none;stroke:red;stroke-width:1px;stroke-linecap:butt;stroke-linejoin:miter;stroke-opacity:1" d="M 358.286,641.714 358.286,625.61 z" id="boundary" inkscape:connector-curvature="0" />
	<path style="fill:none;stroke:red;stroke-width:1px;stroke-linecap:butt;stroke-linejoin:miter;stroke-opacity:1" d="M 358.286,625.61 343.792,633.662 z" id="boundary" inkscape:connector-curvature="0" />
	<path style="fill:none;stroke:red;stroke-width:1px;stroke-linecap:butt;stroke-linejoin:miter;stroke-opacity:1" d="M 343.792,633.662 332.519,654.597 z" id="boundary" inkscape:connector-curvature="0" />
	<path style="fill:none;stroke:red;stroke-width:1px;stroke-linecap:butt;stroke-linejoin:miter;stroke-opacity:1" d="M 332.519,654.597 319.636,665.87 z" id="boundary" inkscape:connector-curvature="0" />
	<path style="fill:none;stroke:red;stroke-width:1px;stroke-linecap:butt;stroke-linejoin:miter;stroke-opacity:1" d="M 319.636,665.87 311.584,681.974 z" id="boundary" inkscape:connector-curvature="0" />
	<path style="fill:none;stroke:red;stroke-width:1px;stroke-linecap:butt;stroke-linejoin:miter;stroke-opacity:1" d="M 311.584,681.974 303.532,698.078 z" id="boundary" inkscape:connector-curvature="0" />
	<path style="fill:none;stroke:red;stroke-width:1px;stroke-linecap:butt;stroke-linejoin:miter;stroke-opacity:1" d="M 303.532,698.078 292.26,710.961 z" id="boundary" inkscape:connector-curvature="0" />
	<path style="fill:none;stroke:red;stroke-width:1px;stroke-linecap:butt;stroke-linejoin:miter;stroke-opacity:1" d="M 292.26,710.961 284.208,727.065 z" id="boundary" inkscape:connector-curvature="0" />
	<path style="fill:none;stroke:red;stroke-width:1px;stroke-linecap:butt;stroke-linejoin:miter;stroke-opacity:1" d="M 284.208,727.065 276.156,743.169 z" id="boundary" inkscape:connector-curvature="0" />
	<path style="fill:none;stroke:red;stroke-width:1px;stroke-linecap:butt;stroke-linejoin:miter;stroke-opacity:1" d="M 276.156,743.169 268.104,759.273 z" id="boundary" inkscape:connector-curvature="0" />
	<path style="fill:none;stroke:red;stroke-width:1px;stroke-linecap:butt;stroke-linejoin:miter;stroke-opacity:1" d="M 268.104,759.273 260.052,775.377 z" id="boundary" inkscape:connector-curvature="0" />
	<path style="fill:none;stroke:red;stroke-width:1px;stroke-linecap:butt;stroke-linejoin:miter;stroke-opacity:1" d="M 260.052,775.377 243.948,778.597 z" id="boundary" inkscape:connector-curvature="0" />
	<path style="fill:none;stroke:red;stroke-width:1px;stroke-linecap:butt;stroke-linejoin:miter;stroke-opacity:1" d="M 243.948,778.597 229.455,786.649 z" id="boundary" inkscape:connector-curvature="0" />
	<path style="fill:none;stroke:red;stroke-width:1px;stroke-linecap:butt;stroke-linejoin:miter;stroke-opacity:1" d="M 229.455,786.649 214.961,794.701 z" id="boundary" inkscape:connector-curvature="0" />
	<path style="fill:none;stroke:red;stroke-width:1px;stroke-linecap:butt;stroke-linejoin:miter;stroke-opacity:1" d="M 214.961,794.701 198.857,794.701 z" id="boundary" inkscape:connector-curvature="0" />
	<path style="fill:none;stroke:red;stroke-width:1px;stroke-linecap:butt;stroke-linejoin:miter;stroke-opacity:1" d="M 198.857,794.701 182.753,794.701 z" id="boundary" inkscape:connector-curvature="0" />
	<path style="fill:none;stroke:red;stroke-width:1px;stroke-linecap:butt;stroke-linejoin:miter;stroke-opacity:1" d="M 182.753,794.701 169.87,785.039 z" id="boundary" inkscape:connector-curvature="0" />
	<path style="fill:none;stroke:red;stroke-width:1px;stroke-linecap:butt;stroke-linejoin:miter;stroke-opacity:1" d="M 169.87,785.039 156.987,773.766 z" id="boundary" inkscape:connector-curvature="0" />
	<path style="fill:none;stroke:red;stroke-width:1px;stroke-linecap:butt;stroke-linejoin:miter;stroke-opacity:1" d="M 156.987,773.766 169.87,760.883 z" id="boundary" inkscape:connector-curvature="0" />
	<path style="fill:none;stroke:red;stroke-width:1px;stroke-linecap:butt;stroke-linejoin:miter;stroke-opacity:1" d="M 169.87,760.883 184.364,752.831 z" id="boundary" inkscape:connector-curvature="0" />
	<path style="fill:none;stroke:red;stroke-width:1px;stroke-linecap:butt;stroke-linejoin:miter;stroke-opacity:1" d="M 184.364,752.831 198.857,744.779 z" id="boundary" inkscape:connector-curvature="0" />
	<path style="fill:none;stroke:red;stroke-width:1px;stroke-linecap:butt;stroke-linejoin:miter;stroke-opacity:1" d="M 198.857,744.779 213.351,733.506 z" id="boundary" inkscape:connector-curvature="0" />
	<path style="fill:none;stroke:red;stroke-width:1px;stroke-linecap:butt;stroke-linejoin:miter;stroke-opacity:1" d="M 213.351,733.506 221.403,717.403 z" id="boundary" inkscape:connector-curvature="0" />
	<path style="fill:none;stroke:red;stroke-width:1px;stroke-linecap:butt;stroke-linejoin:miter;stroke-opacity:1" d="M 221.403,717.403 229.455,701.299 z" id="boundary" inkscape:connector-curvature="0" />
	<path style="fill:none;stroke:red;stroke-width:1px;stroke-linecap:butt;stroke-linejoin:miter;stroke-opacity:1" d="M 229.455,701.299 237.506,677.143 z" id="boundary" inkscape:connector-curvature="0" />
	<path style="fill:none;stroke:red;stroke-width:1px;stroke-linecap:butt;stroke-linejoin:miter;stroke-opacity:1" d="M 237.506,677.143 250.39,664.26 z" id="boundary" inkscape:connector-curvature="0" />
	<path style="fill:none;stroke:red;stroke-width:1px;stroke-linecap:butt;stroke-linejoin:miter;stroke-opacity:1" d="M 250.39,664.26 253.61,644.935 z" id="boundary" inkscape:connector-curvature="0" />
	<path style="fill:none;stroke:red;stroke-width:1px;stroke-linecap:butt;stroke-linejoin:miter;stroke-opacity:1" d="M 253.61,644.935 261.662,628.831 z" id="boundary" inkscape:connector-curvature="0" />
	<path style="fill:none;stroke:red;stroke-width:1px;stroke-linecap:butt;stroke-linejoin:miter;stroke-opacity:1" d="M 261.662,628.831 261.662,612.727 z" id="boundary" inkscape:connector-curvature="0" />
	<path style="fill:none;stroke:red;stroke-width:1px;stroke-linecap:butt;stroke-linejoin:miter;stroke-opacity:1" d="M 261.662,612.727 269.714,585.351 z" id="boundary" inkscape:connector-curvature="0" />
	<path style="fill:none;stroke:red;stroke-width:1px;stroke-linecap:butt;stroke-linejoin:miter;stroke-opacity:1" d="M 269.714,585.351 261.662,570.857 z" id="boundary" inkscape:connector-curvature="0" />
	<path style="fill:none;stroke:red;stroke-width:1px;stroke-linecap:butt;stroke-linejoin:miter;stroke-opacity:1" d="M 261.662,570.857 253.61,556.364 z" id="boundary" inkscape:connector-curvature="0" />
	<path style="fill:none;stroke:red;stroke-width:1px;stroke-linecap:butt;stroke-linejoin:miter;stroke-opacity:1" d="M 253.61,556.364 242.338,543.481 z" id="boundary" inkscape:connector-curvature="0" />
	<path style="fill:none;stroke:red;stroke-width:1px;stroke-linecap:butt;stroke-linejoin:miter;stroke-opacity:1" d="M 242.338,543.481 229.455,532.208 z" id="boundary" inkscape:connector-curvature="0" />
	<path style="fill:none;stroke:red;stroke-width:1px;stroke-linecap:butt;stroke-linejoin:miter;stroke-opacity:1" d="M 229.455,532.208 218.182,519.325 z" id="boundary" inkscape:connector-curvature="0" />
	<path style="fill:none;stroke:red;stroke-width:1px;stroke-linecap:butt;stroke-linejoin:miter;stroke-opacity:1" d="M 218.182,519.325 210.13,504.831 z" id="boundary" inkscape:connector-curvature="0" />
	<path style="fill:none;stroke:red;stroke-width:1px;stroke-linecap:butt;stroke-linejoin:miter;stroke-opacity:1" d="M 210.13,504.831 197.247,493.558 z" id="boundary" inkscape:connector-curvature="0" />
	<path style="fill:none;stroke:red;stroke-width:1px;stroke-linecap:butt;stroke-linejoin:miter;stroke-opacity:1" d="M 197.247,493.558 185.974,480.675 z" id="boundary" inkscape:connector-curvature="0" />
	<path style="fill:none;stroke:red;stroke-width:1px;stroke-linecap:butt;stroke-linejoin:miter;stroke-opacity:1" d="M 185.974,480.675 181.143,464.571 z" id="boundary" inkscape:connector-curvature="0" />
	<path style="fill:none;stroke:red;stroke-width:1px;stroke-linecap:butt;stroke-linejoin:miter;stroke-opacity:1" d="M 181.143,464.571 166.649,456.519 z" id="boundary" inkscape:connector-curvature="0" />
	<path style="fill:none;stroke:red;stroke-width:1px;stroke-linecap:butt;stroke-linejoin:miter;stroke-opacity:1" d="M 166.649,456.519 150.545,456.519 z" id="boundary" inkscape:connector-curvature="0" />
	<path style="fill:none;stroke:red;stroke-width:1px;stroke-linecap:butt;stroke-linejoin:miter;stroke-opacity:1" d="M 150.545,456.519 136.052,464.571 z" id="boundary" inkscape:connector-curvature="0" />
	<path style="fill:none;stroke:red;stroke-width:1px;stroke-linecap:butt;stroke-linejoin:miter;stroke-opacity:1" d="M 136.052,464.571 121.558,472.623 z" id="boundary" inkscape:connector-curvature="0" />
	<path style="fill:none;stroke:red;stroke-width:1px;stroke-linecap:butt;stroke-linejoin:miter;stroke-opacity:1" d="M 121.558,472.623 105.455,472.623 z" id="boundary" inkscape:connector-curvature="0" />
	<path style="fill:none;stroke:red;stroke-width:1px;stroke-linecap:butt;stroke-linejoin:miter;stroke-opacity:1" d="M 105.455,472.623 90.961,464.571 z" id="boundary" inkscape:connector-curvature="0" />
	<path style="fill:none;stroke:red;stroke-width:1px;stroke-linecap:butt;stroke-linejoin:miter;stroke-opacity:1" d="M 90.961,464.571 76.4675,456.519 z" id="boundary" inkscape:connector-curvature="0" />
	<path style="fill:none;stroke:red;stroke-width:1px;stroke-linecap:butt;stroke-linejoin:miter;stroke-opacity:1" d="M 76.4675,456.519 63.5844,446.857 z" id="boundary" inkscape:connector-curvature="0" />
	<path style="fill:none;stroke:red;stroke-width:1px;stroke-linecap:butt;stroke-linejoin:miter;stroke-opacity:1" d="M 63.5844,446.857 60.3636,430.753 z" id="boundary" inkscape:connector-curvature="0" />
	<path style="fill:none;stroke:red;stroke-width:1px;stroke-linecap:butt;stroke-linejoin:miter;stroke-opacity:1" d="M 60.3636,430.753 57.1429,414.649 z" id="boundary" inkscape:connector-curvature="0" />
	<path style="fill:none;stroke:red;stroke-width:1px;stroke-linecap:butt;stroke-linejoin:miter;stroke-opacity:1" d="M 57.1429,414.649 44.2597,403.377 z" id="boundary" inkscape:connector-curvature="0" />
	<path style="fill:none;stroke:red;stroke-width:1px;stroke-linecap:butt;stroke-linejoin:miter;stroke-opacity:1" d="M 44.2597,403.377 44.2597,387.273 z" id="boundary" inkscape:connector-curvature="0" />
	<path style="fill:none;stroke:red;stroke-width:1px;stroke-linecap:butt;stroke-linejoin:miter;stroke-opacity:1" d="M 44.2597,387.273 44.2597,371.169 z" id="boundary" inkscape:connector-curvature="0" />
	<path style="fill:none;stroke:red;stroke-width:1px;stroke-linecap:butt;stroke-linejoin:miter;stroke-opacity:1" d="M 44.2597,371.169 44.2597,355.065 z" id="boundary" inkscape:connector-curvature="0" />
	<path style="fill:none;stroke:red;stroke-width:1px;stroke-linecap:butt;stroke-linejoin:miter;stroke-opacity:1" d="M 44.2597,355.065 52.3117,326.078 z" id="boundary" inkscape:connector-curvature="0" />
	<circle cx="4" cy="250.39" r="4" fill="#0" id="circle0"/>
	<circle cx="4" cy="266.494" r="4" fill="#0" id="circle1"/>
	<circle cx="16.8831" cy="277.766" r="4" fill="#0" id="circle2"/>
	<circle cx="20.1039" cy="253.61" r="4" fill="#0" id="circle3"/>
	<circle cx="31.3766" cy="285.818" r="4" fill="#0" id="circle4"/>
	<circle cx="34.5974" cy="261.662" r="4" fill="#0" id="circle5"/>
	<circle cx="44.2597" cy="295.481" r="4" fill="#0" id="circle6"/>
	<circle cx="44.2597" cy="355.065" r="4" fill="#0" id="circle7"/>
	<circle cx="44.2597" cy="371.169" r="4" fill="#0" id="circle8"/>
	<circle cx="44.2597" cy="387.273" r="4" fill="#0" id="circle9"/>
	<circle cx="44.2597" cy="403.377" r="4" fill="#0" id="circle10"/>
	<circle cx="49.0909" cy="269.714" r="4" fill="#0" id="circle11"/>
	<circle cx="52.3117" cy="309.974" r="4" fill="#0" id="circle12"/>
	<circle cx="52.3117" cy="326.078" r="4" fill="#0" id="circle13"/>
	<circle cx="57.1429" cy="414.649" r="4" fill="#0" id="circle14"/>
	<circle cx="60.3636" cy="430.753" r="4" fill="#0" id="circle15"/>
	<circle cx="63.5844" cy="446.857" r="4" fill="#0" id="circle16"/>
	<circle cx="65.1948" cy="269.714" r="4" fill="#0" id="circle17"/>
	<circle cx="76.4675" cy="456.519" r="4" fill="#0" id="circle18"/>
	<circle cx="79.6883" cy="277.766" r="4" fill="#0" id="circle19"/>
	<circle cx="90.961" cy="464.571" r="4" fill="#0" id="circle20"/>
	<circle cx="95.7922" cy="277.766" r="4" fill="#0" id="circle21"/>
	<circle cx="105.455" cy="472.623" r="4" fill="#0" id="circle22"/>
	<circle cx="111.896" cy="277.766" r="4" fill="#0" id="circle23"/>
	<circle cx="121.558" cy="472.623" r="4" fill="#0" id="circle24"/>
	<circle cx="128" cy="277.766" r="4" fill="#0" id="circle25"/>
	<circle cx="136.052" cy="464.571" r="4" fill="#0" id="circle26"/>
	<circle cx="144.104" cy="277.766" r="4" fill="#0" id="circle27"/>
	<circle cx="150.545" cy="456.519" r="4" fill="#0" id="circle28"/>
	<circle cx="156.987" cy="773.766" r="4" fill="#0" id="circle29"/>
	<circle cx="160.208" cy="271.325" r="4" fill="#0" id="circle30"/>
	<circle cx="166.649" cy="456.519" r="4" fill="#0" id="circle31"/>
	<circle cx="169.87" cy="760.883" r="4" fill="#0" id="circle32"/>
	<circle cx="169.87" cy="785.039" r="4" fill="#0" id="circle33"/>
	<circle cx="176.312" cy="269.714" r="4" fill="#0" id="circle34"/>
	<circle cx="181.143" cy="464.571" r="4" fill="#0" id="circle35"/>
	<circle cx="182.753" cy="794.701" r="4" fill="#0" id="circle36"/>
	<circle cx="184.364" cy="752.831" r="4" fill="#0" id="circle37"/>
	<circle cx="185.974" cy="480.675" r="4" fill="#0" id="circle38"/>
	<circle cx="192.416" cy="263.273" r="4" fill="#0" id="circle39"/>
	<circle cx="197.247" cy="493.558" r="4" fill="#0" id="circle40"/>
	<circle cx="198.857" cy="744.779" r="4" fill="#0" id="circle41"/>
	<circle cx="198.857" cy="794.701" r="4" fill="#0" id="circle42"/>
	<circle cx="208.519" cy="261.662" r="4" fill="#0" id="circle43"/>
	<circle cx="210.13" cy="504.831" r="4" fill="#0" id="circle44"/>
	<circle cx="213.351" cy="733.506" r="4" fill="#0" id="circle45"/>
	<circle cx="214.961" cy="794.701" r="4" fill="#0" id="circle46"/>
	<circle cx="218.182" cy="519.325" r="4" fill="#0" id="circle47"/>
	<circle cx="221.403" cy="272.935" r="4" fill="#0" id="circle48"/>
	<circle cx="221.403" cy="717.403" r="4" fill="#0" id="circle49"/>
	<circle cx="227.844" cy="289.039" r="4" fill="#0" id="circle50"/>
	<circle cx="229.455" cy="532.208" r="4" fill="#0" id="circle51"/>
	<circle cx="229.455" cy="701.299" r="4" fill="#0" id="circle52"/>
	<circle cx="229.455" cy="786.649" r="4" fill="#0" id="circle53"/>
	<circle cx="237.506" cy="677.143" r="4" fill="#0" id="circle54"/>
	<circle cx="242.338" cy="543.481" r="4" fill="#0" id="circle55"/>
	<circle cx="243.948" cy="295.481" r="4" fill="#0" id="circle56"/>
	<circle cx="243.948" cy="778.597" r="4" fill="#0" id="circle57"/>
	<circle cx="250.39" cy="664.26" r="4" fill="#0" id="circle58"/>
	<circle cx="253.61" cy="556.364" r="4" fill="#0" id="circle59"/>
	<circle cx="253.61" cy="644.935" r="4" fill="#0" id="circle60"/>
	<circle cx="255.221" cy="308.364" r="4" fill="#0" id="circle61"/>
	<circle cx="260.052" cy="775.377" r="4" fill="#0" id="circle62"/>
	<circle cx="261.662" cy="570.857" r="4" fill="#0" id="circle63"/>
	<circle cx="261.662" cy="612.727" r="4" fill="#0" id="circle64"/>
	<circle cx="261.662" cy="628.831" r="4" fill="#0" id="circle65"/>
	<circle cx="268.104" cy="759.273" r="4" fill="#0" id="circle66"/>
	<circle cx="269.714" cy="585.351" r="4" fill="#0" id="circle67"/>
	<circle cx="271.325" cy="309.974" r="4" fill="#0" id="circle68"/>
	<circle cx="276.156" cy="743.169" r="4" fill="#0" id="circle69"/>
	<circle cx="284.208" cy="727.065" r="4" fill="#0" id="circle70"/>
	<circle cx="287.429" cy="309.974" r="4" fill="#0" id="circle71"/>
	<circle cx="292.26" cy="710.961" r="4" fill="#0" id="circle72"/>
	<circle cx="303.532" cy="309.974" r="4" fill="#0" id="circle73"/>
	<circle cx="303.532" cy="698.078" r="4" fill="#0" id="circle74"/>
	<circle cx="311.584" cy="681.974" r="4" fill="#0" id="circle75"/>
	<circle cx="319.636" cy="309.974" r="4" fill="#0" id="circle76"/>
	<circle cx="319.636" cy="665.87" r="4" fill="#0" id="circle77"/>
	<circle cx="332.519" cy="654.597" r="4" fill="#0" id="circle78"/>
	<circle cx="335.74" cy="309.974" r="4" fill="#0" id="circle79"/>
	<circle cx="342.182" cy="749.61" r="4" fill="#0" id="circle80"/>
	<circle cx="343.792" cy="633.662" r="4" fill="#0" id="circle81"/>
	<circle cx="348.623" cy="319.636" r="4" fill="#0" id="circle82"/>
	<circle cx="351.844" cy="762.494" r="4" fill="#0" id="circle83"/>
	<circle cx="355.065" cy="736.727" r="4" fill="#0" id="circle84"/>
	<circle cx="358.286" cy="625.61" r="4" fill="#0" id="circle85"/>
	<circle cx="358.286" cy="641.714" r="4" fill="#0" id="circle86"/>
	<circle cx="358.286" cy="657.818" r="4" fill="#0" id="circle87"/>
	<circle cx="358.286" cy="673.922" r="4" fill="#0" id="circle88"/>
	<circle cx="364.727" cy="326.078" r="4" fill="#0" id="circle89"/>
	<circle cx="366.338" cy="688.416" r="4" fill="#0" id="circle90"/>
	<circle cx="366.338" cy="704.519" r="4" fill="#0" id="circle91"/>
	<circle cx="366.338" cy="720.623" r="4" fill="#0" id="circle92"/>
	<circle cx="366.338" cy="770.545" r="4" fill="#0" id="circle93"/>
	<circle cx="379.221" cy="318.026" r="4" fill="#0" id="circle94"/>
	<circle cx="382.442" cy="770.545" r="4" fill="#0" id="circle95"/>
	<circle cx="395.325" cy="309.974" r="4" fill="#0" id="circle96"/>
	<circle cx="398.545" cy="770.545" r="4" fill="#0" id="circle97"/>
	<circle cx="411.429" cy="309.974" r="4" fill="#0" id="circle98"/>
	<circle cx="411.429" cy="760.883" r="4" fill="#0" id="circle99"/>
	<circle cx="416.26" cy="722.234" r="4" fill="#0" id="circle100"/>
	<circle cx="416.26" cy="738.338" r="4" fill="#0" id="circle101"/>
	<circle cx="424.312" cy="577.299" r="4" fill="#0" id="circle102"/>
	<circle cx="424.312" cy="593.403" r="4" fill="#0" id="circle103"/>
	<circle cx="424.312" cy="609.506" r="4" fill="#0" id="circle104"/>
	<circle cx="424.312" cy="625.61" r="4" fill="#0" id="circle105"/>
	<circle cx="424.312" cy="641.714" r="4" fill="#0" id="circle106"/>
	<circle cx="424.312" cy="657.818" r="4" fill="#0" id="circle107"/>
	<circle cx="424.312" cy="673.922" r="4" fill="#0" id="circle108"/>
	<circle cx="424.312" cy="690.026" r="4" fill="#0" id="circle109"/>
	<circle cx="424.312" cy="706.13" r="4" fill="#0" id="circle110"/>
	<circle cx="427.532" cy="309.974" r="4" fill="#0" id="circle111"/>
	<circle cx="440.416" cy="580.519" r="4" fill="#0" id="circle112"/>
	<circle cx="443.636" cy="309.974" r="4" fill="#0" id="circle113"/>
	<circle cx="456.519" cy="585.351" r="4" fill="#0" id="circle114"/>
	<circle cx="458.13" cy="301.922" r="4" fill="#0" id="circle115"/>
	<circle cx="472.623" cy="585.351" r="4" fill="#0" id="circle116"/>
	<circle cx="474.234" cy="301.922" r="4" fill="#0" id="circle117"/>
	<circle cx="488.727" cy="585.351" r="4" fill="#0" id="circle118"/>
	<circle cx="490.338" cy="301.922" r="4" fill="#0" id="circle119"/>
	<circle cx="504.831" cy="585.351" r="4" fill="#0" id="circle120"/>
	<circle cx="506.442" cy="301.922" r="4" fill="#0" id="circle121"/>
	<circle cx="520.935" cy="577.299" r="4" fill="#0" id="circle122"/>
	<circle cx="522.545" cy="301.922" r="4" fill="#0" id="circle123"/>
	<circle cx="537.039" cy="577.299" r="4" fill="#0" id="circle124"/>
	<circle cx="538.649" cy="301.922" r="4" fill="#0" id="circle125"/>
	<circle cx="553.143" cy="577.299" r="4" fill="#0" id="circle126"/>
	<circle cx="554.753" cy="301.922" r="4" fill="#0" id="circle127"/>
	<circle cx="567.636" cy="569.247" r="4" fill="#0" id="circle128"/>
	<circle cx="570.857" cy="301.922" r="4" fill="#0" id="circle129"/>
	<circle cx="582.13" cy="577.299" r="4" fill="#0" id="circle130"/>
	<circle cx="585.351" cy="309.974" r="4" fill="#0" id="circle131"/>
	<circle cx="588.571" cy="593.403" r="4" fill="#0" id="circle132"/>
	<circle cx="591.792" cy="773.766" r="4" fill="#0" id="circle133"/>
	<circle cx="601.455" cy="309.974" r="4" fill="#0" id="circle134"/>
	<circle cx="601.455" cy="786.649" r="4" fill="#0" id="circle135"/>
	<circle cx="603.065" cy="601.455" r="4" fill="#0" id="circle136"/>
	<circle cx="604.675" cy="760.883" r="4" fill="#0" id="circle137"/>
	<circle cx="615.948" cy="611.117" r="4" fill="#0" id="circle138"/>
	<circle cx="615.948" cy="794.701" r="4" fill="#0" id="circle139"/>
	<circle cx="617.558" cy="309.974" r="4" fill="#0" id="circle140"/>
	<circle cx="620.779" cy="752.831" r="4" fill="#0" id="circle141"/>
	<circle cx="627.221" cy="624" r="4" fill="#0" id="circle142"/>
	<circle cx="632.052" cy="794.701" r="4" fill="#0" id="circle143"/>
	<circle cx="633.662" cy="309.974" r="4" fill="#0" id="circle144"/>
	<circle cx="636.883" cy="752.831" r="4" fill="#0" id="circle145"/>
	<circle cx="640.104" cy="633.662" r="4" fill="#0" id="circle146"/>
	<circle cx="648.156" cy="794.701" r="4" fill="#0" id="circle147"/>
	<circle cx="649.766" cy="309.974" r="4" fill="#0" id="circle148"/>
	<circle cx="649.766" cy="646.545" r="4" fill="#0" id="circle149"/>
	<circle cx="651.377" cy="744.779" r="4" fill="#0" id="circle150"/>
	<circle cx="664.26" cy="654.597" r="4" fill="#0" id="circle151"/>
	<circle cx="664.26" cy="733.506" r="4" fill="#0" id="circle152"/>
	<circle cx="664.26" cy="789.87" r="4" fill="#0" id="circle153"/>
	<circle cx="665.87" cy="309.974" r="4" fill="#0" id="circle154"/>
	<circle cx="672.312" cy="669.091" r="4" fill="#0" id="circle155"/>
	<circle cx="677.143" cy="720.623" r="4" fill="#0" id="circle156"/>
	<circle cx="677.143" cy="776.987" r="4" fill="#0" id="circle157"/>
	<circle cx="681.974" cy="314.805" r="4" fill="#0" id="circle158"/>
	<circle cx="685.195" cy="680.364" r="4" fill="#0" id="circle159"/>
	<circle cx="685.195" cy="704.519" r="4" fill="#0" id="circle160"/>
	<circle cx="690.026" cy="762.494" r="4" fill="#0" id="circle161"/>
	<circle cx="698.078" cy="318.026" r="4" fill="#0" id="circle162"/>
	<circle cx="702.909" cy="751.221" r="4" fill="#0" id="circle163"/>
	<circle cx="714.182" cy="322.857" r="4" fill="#0" id="circle164"/>
	<circle cx="714.182" cy="738.338" r="4" fill="#0" id="circle165"/>
	<circle cx="727.065" cy="727.065" r="4" fill="#0" id="circle166"/>
	<circle cx="730.286" cy="318.026" r="4" fill="#0" id="circle167"/>
	<circle cx="738.338" cy="714.182" r="4" fill="#0" id="circle168"/>
	<circle cx="744.779" cy="326.078" r="4" fill="#0" id="circle169"/>
	<circle cx="746.39" cy="625.61" r="4" fill="#0" id="circle170"/>
	<circle cx="746.39" cy="641.714" r="4" fill="#0" id="circle171"/>
	<circle cx="749.61" cy="657.818" r="4" fill="#0" id="circle172"/>
	<circle cx="751.221" cy="702.909" r="4" fill="#0" id="circle173"/>
	<circle cx="757.662" cy="672.312" r="4" fill="#0" id="circle174"/>
	<circle cx="760.883" cy="326.078" r="4" fill="#0" id="circle175"/>
	<circle cx="760.883" cy="617.558" r="4" fill="#0" id="circle176"/>
	<circle cx="762.494" cy="688.416" r="4" fill="#0" id="circle177"/>
	<circle cx="776.987" cy="326.078" r="4" fill="#0" id="circle178"/>
	<circle cx="776.987" cy="617.558" r="4" fill="#0" id="circle179"/>
	<circle cx="793.091" cy="322.857" r="4" fill="#0" id="circle180"/>
	<circle cx="793.091" cy="617.558" r="4" fill="#0" id="circle181"/>
	<circle cx="805.974" cy="309.974" r="4" fill="#0" id="circle182"/>
	<circle cx="809.195" cy="617.558" r="4" fill="#0" id="circle183"/>
	<circle cx="818.857" cy="297.091" r="4" fill="#0" id="circle184"/>
	<circle cx="818.857" cy="480.675" r="4" fill="#0" id="circle185"/>
	<circle cx="818.857" cy="496.779" r="4" fill="#0" id="circle186"/>
	<circle cx="822.078" cy="512.883" r="4" fill="#0" id="circle187"/>
	<circle cx="825.299" cy="617.558" r="4" fill="#0" id="circle188"/>
	<circle cx="826.909" cy="456.519" r="4" fill="#0" id="circle189"/>
	<circle cx="831.74" cy="285.818" r="4" fill="#0" id="circle190"/>
	<circle cx="834.961" cy="424.312" r="4" fill="#0" id="circle191"/>
	<circle cx="834.961" cy="440.416" r="4" fill="#0" id="circle192"/>
	<circle cx="834.961" cy="524.156" r="4" fill="#0" id="circle193"/>
	<circle cx="839.792" cy="625.61" r="4" fill="#0" id="circle194"/>
	<circle cx="841.403" cy="652.987" r="4" fill="#0" id="circle195"/>
	<circle cx="841.403" cy="669.091" r="4" fill="#0" id="circle196"/>
	<circle cx="843.013" cy="272.935" r="4" fill="#0" id="circle197"/>
	<circle cx="843.013" cy="392.104" r="4" fill="#0" id="circle198"/>
	<circle cx="843.013" cy="408.208" r="4" fill="#0" id="circle199"/>
	<circle cx="846.234" cy="537.039" r="4" fill="#0" id="circle200"/>
	<circle cx="849.455" cy="638.494" r="4" fill="#0" id="circle201"/>
	<circle cx="849.455" cy="683.584" r="4" fill="#0" id="circle202"/>
	<circle cx="849.455" cy="699.688" r="4" fill="#0" id="circle203"/>
	<circle cx="849.455" cy="715.792" r="4" fill="#0" id="circle204"/>
	<circle cx="851.065" cy="256.831" r="4" fill="#0" id="circle205"/>
	<circle cx="855.896" cy="380.831" r="4" fill="#0" id="circle206"/>
	<circle cx="857.506" cy="730.286" r="4" fill="#0" id="circle207"/>
	<circle cx="857.506" cy="746.39" r="4" fill="#0" id="circle208"/>
	<circle cx="859.117" cy="548.312" r="4" fill="#0" id="circle209"/>
	<circle cx="863.948" cy="245.558" r="4" fill="#0" id="circle210"/>
	<circle cx="863.948" cy="364.727" r="4" fill="#0" id="circle211"/>
	<circle cx="867.169" cy="759.273" r="4" fill="#0" id="circle212"/>
	<circle cx="875.221" cy="232.675" r="4" fill="#0" id="circle213"/>
	<circle cx="875.221" cy="335.74" r="4" fill="#0" id="circle214"/>
	<circle cx="875.221" cy="351.844" r="4" fill="#0" id="circle215"/>
	<circle cx="875.221" cy="551.532" r="4" fill="#0" id="circle216"/>
	<circle cx="881.662" cy="16.8831" r="4" fill="#0" id="circle217"/>
	<circle cx="883.273" cy="765.714" r="4" fill="#0" id="circle218"/>
	<circle cx="888.104" cy="221.403" r="4" fill="#0" id="circle219"/>
	<circle cx="888.104" cy="324.468" r="4" fill="#0" id="circle220"/>
	<circle cx="888.104" cy="561.195" r="4" fill="#0" id="circle221"/>
	<circle cx="891.325" cy="577.299" r="4" fill="#0" id="circle222"/>
	<circle cx="891.325" cy="593.403" r="4" fill="#0" id="circle223"/>
	<circle cx="891.325" cy="609.506" r="4" fill="#0" id="circle224"/>
	<circle cx="891.325" cy="625.61" r="4" fill="#0" id="circle225"/>
	<circle cx="891.325" cy="641.714" r="4" fill="#0" id="circle226"/>
	<circle cx="891.325" cy="657.818" r="4" fill="#0" id="circle227"/>
	<circle cx="891.325" cy="673.922" r="4" fill="#0" id="circle228"/>
	<circle cx="891.325" cy="690.026" r="4" fill="#0" id="circle229"/>
	<circle cx="894.545" cy="4" r="4" fill="#0" id="circle230"/>
	<circle cx="894.545" cy="28.1558" r="4" fill="#0" id="circle231"/>
	<circle cx="894.545" cy="205.299" r="4" fill="#0" id="circle232"/>
	<circle cx="894.545" cy="706.13" r="4" fill="#0" id="circle233"/>
	<circle cx="899.377" cy="311.584" r="4" fill="#0" id="circle234"/>
	<circle cx="899.377" cy="762.494" r="4" fill="#0" id="circle235"/>
	<circle cx="902.597" cy="189.195" r="4" fill="#0" id="circle236"/>
	<circle cx="902.597" cy="720.623" r="4" fill="#0" id="circle237"/>
	<circle cx="905.818" cy="41.039" r="4" fill="#0" id="circle238"/>
	<circle cx="907.429" cy="295.481" r="4" fill="#0" id="circle239"/>
	<circle cx="907.429" cy="736.727" r="4" fill="#0" id="circle240"/>
	<circle cx="910.649" cy="4" r="4" fill="#0" id="circle241"/>
	<circle cx="910.649" cy="173.091" r="4" fill="#0" id="circle242"/>
	<circle cx="918.701" cy="52.3117" r="4" fill="#0" id="circle243"/>
	<circle cx="918.701" cy="156.987" r="4" fill="#0" id="circle244"/>
	<circle cx="920.312" cy="284.208" r="4" fill="#0" id="circle245"/>
	<circle cx="921.922" cy="121.558" r="4" fill="#0" id="circle246"/>
	<circle cx="921.922" cy="137.662" r="4" fill="#0" id="circle247"/>
	<circle cx="926.753" cy="4" r="4" fill="#0" id="circle248"/>
	<circle cx="928.364" cy="268.104" r="4" fill="#0" id="circle249"/>
	<circle cx="929.974" cy="65.1948" r="4" fill="#0" id="circle250"/>
	<circle cx="929.974" cy="81.2987" r="4" fill="#0" id="circle251"/>
	<circle cx="929.974" cy="97.4026" r="4" fill="#0" id="circle252"/>
	<circle cx="936.416" cy="252" r="4" fill="#0" id="circle253"/>
	<circle cx="941.247" cy="12.0519" r="4" fill="#0" id="circle254"/>
	<circle cx="947.688" cy="231.065" r="4" fill="#0" id="circle255"/>
	<circle cx="954.13" cy="23.3247" r="4" fill="#0" id="circle256"/>
	<circle cx="955.74" cy="214.961" r="4" fill="#0" id="circle257"/>
	<circle cx="963.792" cy="198.857" r="4" fill="#0" id="circle258"/>
	<circle cx="968.623" cy="31.3766" r="4" fill="#0" id="circle259"/>
	<circle cx="971.844" cy="182.753" r="4" fill="#0" id="circle260"/>
	<circle cx="976.675" cy="45.8701" r="4" fill="#0" id="circle261"/>
	<circle cx="979.896" cy="61.974" r="4" fill="#0" id="circle262"/>
	<circle cx="979.896" cy="150.545" r="4" fill="#0" id="circle263"/>
	<circle cx="979.896" cy="166.649" r="4" fill="#0" id="circle264"/>
	<circle cx="987.948" cy="76.4675" r="4" fill="#0" id="circle265"/>
	<circle cx="987.948" cy="92.5714" r="4" fill="#0" id="circle266"/>
	<circle cx="987.948" cy="126.39" r="4" fill="#0" id="circle267"/>
	<circle cx="996" cy="107.065" r="4" fill="#0" id="circle268"/>
	</g>
</svg>