<?xml version="1.0" encoding="UTF-8" standalone="no"?>
<!-- Created with CurveBenchmark -->
<svg
	xmlns:dc="http://purl.org/dc/elements/1.1/"
	xmlns:cc="http://creativecommons.org/ns#"
	xmlns:rdf="http://www.w3.org/1999/02/22-rdf-syntax-ns#"
	xmlns:svg="http://www.w3.org/2000/svg"
	xmlns="http://www.w3.org/2000/svg"
	xmlns:sodipodi="http://sodipodi.sourceforge.net/DTD/sodipodi-0.dtd"
	xmlns:inkscape="http://www.inkscape.org/namespaces/inkscape"
	width="1000"
	height="1000"
	id="svg2"
	version="1.1"
	sodipodi:docname="manifold/crawl-cthand15.png.txt">
<defs
	id="defs4" />
<metadata
	id="metadata7">
	<rdf:RDF>
		<cc:Work
			rdf:about="">
			<dc:format>image/svg+xml</dc:format>
			<dc:type
				rdf:resource="http://purl.org/dc/dcmitype/StillImage" />
			<dc:title></dc:title>
		</cc:Work>
	</rdf:RDF>
</metadata>
<g
	inkscape:label="Layer 1"
	inkscape:groupmode="layer"
	id="layer1">
	<path style="fill:none;stroke:red;stroke-width:1px;stroke-linecap:butt;stroke-linejoin:miter;stroke-opacity:1" d="M 4,256.393 4,272.367 z" id="boundary" inkscape:connector-curvature="0" />
	<path style="fill:none;stroke:red;stroke-width:1px;stroke-linecap:butt;stroke-linejoin:miter;stroke-opacity:1" d="M 4,272.367 4,288.341 z" id="boundary" inkscape:connector-curvature="0" />
	<path style="fill:none;stroke:red;stroke-width:1px;stroke-linecap:butt;stroke-linejoin:miter;stroke-opacity:1" d="M 4,288.341 4,304.316 z" id="boundary" inkscape:connector-curvature="0" />
	<path style="fill:none;stroke:red;stroke-width:1px;stroke-linecap:butt;stroke-linejoin:miter;stroke-opacity:1" d="M 4,304.316 4,320.29 z" id="boundary" inkscape:connector-curvature="0" />
	<path style="fill:none;stroke:red;stroke-width:1px;stroke-linecap:butt;stroke-linejoin:miter;stroke-opacity:1" d="M 4,320.29 4,336.264 z" id="boundary" inkscape:connector-curvature="0" />
	<path style="fill:none;stroke:red;stroke-width:1px;stroke-linecap:butt;stroke-linejoin:miter;stroke-opacity:1" d="M 4,336.264 4,352.238 z" id="boundary" inkscape:connector-curvature="0" />
	<path style="fill:none;stroke:red;stroke-width:1px;stroke-linecap:butt;stroke-linejoin:miter;stroke-opacity:1" d="M 4,352.238 11.9871,366.615 z" id="boundary" inkscape:connector-curvature="0" />
	<path style="fill:none;stroke:red;stroke-width:1px;stroke-linecap:butt;stroke-linejoin:miter;stroke-opacity:1" d="M 11.9871,366.615 11.9871,382.589 z" id="boundary" inkscape:connector-curvature="0" />
	<path style="fill:none;stroke:red;stroke-width:1px;stroke-linecap:butt;stroke-linejoin:miter;stroke-opacity:1" d="M 11.9871,382.589 11.9871,398.564 z" id="boundary" inkscape:connector-curvature="0" />
	<path style="fill:none;stroke:red;stroke-width:1px;stroke-linecap:butt;stroke-linejoin:miter;stroke-opacity:1" d="M 11.9871,398.564 19.9742,412.94 z" id="boundary" inkscape:connector-curvature="0" />
	<path style="fill:none;stroke:red;stroke-width:1px;stroke-linecap:butt;stroke-linejoin:miter;stroke-opacity:1" d="M 19.9742,412.94 19.9742,428.915 z" id="boundary" inkscape:connector-curvature="0" />
	<path style="fill:none;stroke:red;stroke-width:1px;stroke-linecap:butt;stroke-linejoin:miter;stroke-opacity:1" d="M 19.9742,428.915 27.9614,443.291 z" id="boundary" inkscape:connector-curvature="0" />
	<path style="fill:none;stroke:red;stroke-width:1px;stroke-linecap:butt;stroke-linejoin:miter;stroke-opacity:1" d="M 27.9614,443.291 31.1562,459.266 z" id="boundary" inkscape:connector-curvature="0" />
	<path style="fill:none;stroke:red;stroke-width:1px;stroke-linecap:butt;stroke-linejoin:miter;stroke-opacity:1" d="M 31.1562,459.266 35.9485,475.24 z" id="boundary" inkscape:connector-curvature="0" />
	<path style="fill:none;stroke:red;stroke-width:1px;stroke-linecap:butt;stroke-linejoin:miter;stroke-opacity:1" d="M 35.9485,475.24 43.9356,489.617 z" id="boundary" inkscape:connector-curvature="0" />
	<path style="fill:none;stroke:red;stroke-width:1px;stroke-linecap:butt;stroke-linejoin:miter;stroke-opacity:1" d="M 43.9356,489.617 43.9356,505.591 z" id="boundary" inkscape:connector-curvature="0" />
	<path style="fill:none;stroke:red;stroke-width:1px;stroke-linecap:butt;stroke-linejoin:miter;stroke-opacity:1" d="M 43.9356,505.591 43.9356,521.565 z" id="boundary" inkscape:connector-curvature="0" />
	<path style="fill:none;stroke:red;stroke-width:1px;stroke-linecap:butt;stroke-linejoin:miter;stroke-opacity:1" d="M 43.9356,521.565 51.9227,535.942 z" id="boundary" inkscape:connector-curvature="0" />
	<path style="fill:none;stroke:red;stroke-width:1px;stroke-linecap:butt;stroke-linejoin:miter;stroke-opacity:1" d="M 51.9227,535.942 51.9227,551.916 z" id="boundary" inkscape:connector-curvature="0" />
	<path style="fill:none;stroke:red;stroke-width:1px;stroke-linecap:butt;stroke-linejoin:miter;stroke-opacity:1" d="M 51.9227,551.916 51.9227,567.89 z" id="boundary" inkscape:connector-curvature="0" />
	<path style="fill:none;stroke:red;stroke-width:1px;stroke-linecap:butt;stroke-linejoin:miter;stroke-opacity:1" d="M 51.9227,567.89 59.9098,582.267 z" id="boundary" inkscape:connector-curvature="0" />
	<path style="fill:none;stroke:red;stroke-width:1px;stroke-linecap:butt;stroke-linejoin:miter;stroke-opacity:1" d="M 59.9098,582.267 59.9098,598.242 z" id="boundary" inkscape:connector-curvature="0" />
	<path style="fill:none;stroke:red;stroke-width:1px;stroke-linecap:butt;stroke-linejoin:miter;stroke-opacity:1" d="M 59.9098,598.242 59.9098,614.216 z" id="boundary" inkscape:connector-curvature="0" />
	<path style="fill:none;stroke:red;stroke-width:1px;stroke-linecap:butt;stroke-linejoin:miter;stroke-opacity:1" d="M 59.9098,614.216 67.8969,628.593 z" id="boundary" inkscape:connector-curvature="0" />
	<path style="fill:none;stroke:red;stroke-width:1px;stroke-linecap:butt;stroke-linejoin:miter;stroke-opacity:1" d="M 67.8969,628.593 67.8969,644.567 z" id="boundary" inkscape:connector-curvature="0" />
	<path style="fill:none;stroke:red;stroke-width:1px;stroke-linecap:butt;stroke-linejoin:miter;stroke-opacity:1" d="M 67.8969,644.567 67.8969,660.541 z" id="boundary" inkscape:connector-curvature="0" />
	<path style="fill:none;stroke:red;stroke-width:1px;stroke-linecap:butt;stroke-linejoin:miter;stroke-opacity:1" d="M 67.8969,660.541 75.8841,674.918 z" id="boundary" inkscape:connector-curvature="0" />
	<path style="fill:none;stroke:red;stroke-width:1px;stroke-linecap:butt;stroke-linejoin:miter;stroke-opacity:1" d="M 75.8841,674.918 75.8841,690.892 z" id="boundary" inkscape:connector-curvature="0" />
	<path style="fill:none;stroke:red;stroke-width:1px;stroke-linecap:butt;stroke-linejoin:miter;stroke-opacity:1" d="M 75.8841,690.892 75.8841,706.866 z" id="boundary" inkscape:connector-curvature="0" />
	<path style="fill:none;stroke:red;stroke-width:1px;stroke-linecap:butt;stroke-linejoin:miter;stroke-opacity:1" d="M 75.8841,706.866 75.8841,722.841 z" id="boundary" inkscape:connector-curvature="0" />
	<path style="fill:none;stroke:red;stroke-width:1px;stroke-linecap:butt;stroke-linejoin:miter;stroke-opacity:1" d="M 75.8841,722.841 75.8841,738.815 z" id="boundary" inkscape:connector-curvature="0" />
	<path style="fill:none;stroke:red;stroke-width:1px;stroke-linecap:butt;stroke-linejoin:miter;stroke-opacity:1" d="M 75.8841,738.815 75.8841,754.789 z" id="boundary" inkscape:connector-curvature="0" />
	<path style="fill:none;stroke:red;stroke-width:1px;stroke-linecap:butt;stroke-linejoin:miter;stroke-opacity:1" d="M 75.8841,754.789 75.8841,770.763 z" id="boundary" inkscape:connector-curvature="0" />
	<path style="fill:none;stroke:red;stroke-width:1px;stroke-linecap:butt;stroke-linejoin:miter;stroke-opacity:1" d="M 75.8841,770.763 75.8841,786.738 z" id="boundary" inkscape:connector-curvature="0" />
	<path style="fill:none;stroke:red;stroke-width:1px;stroke-linecap:butt;stroke-linejoin:miter;stroke-opacity:1" d="M 75.8841,786.738 83.8712,801.114 z" id="boundary" inkscape:connector-curvature="0" />
	<path style="fill:none;stroke:red;stroke-width:1px;stroke-linecap:butt;stroke-linejoin:miter;stroke-opacity:1" d="M 83.8712,801.114 85.4686,817.089 z" id="boundary" inkscape:connector-curvature="0" />
	<path style="fill:none;stroke:red;stroke-width:1px;stroke-linecap:butt;stroke-linejoin:miter;stroke-opacity:1" d="M 85.4686,817.089 93.4557,831.465 z" id="boundary" inkscape:connector-curvature="0" />
	<path style="fill:none;stroke:red;stroke-width:1px;stroke-linecap:butt;stroke-linejoin:miter;stroke-opacity:1" d="M 93.4557,831.465 99.8454,847.44 z" id="boundary" inkscape:connector-curvature="0" />
	<path style="fill:none;stroke:red;stroke-width:1px;stroke-linecap:butt;stroke-linejoin:miter;stroke-opacity:1" d="M 99.8454,847.44 107.833,861.816 z" id="boundary" inkscape:connector-curvature="0" />
	<path style="fill:none;stroke:red;stroke-width:1px;stroke-linecap:butt;stroke-linejoin:miter;stroke-opacity:1" d="M 107.833,861.816 107.833,877.791 z" id="boundary" inkscape:connector-curvature="0" />
	<path style="fill:none;stroke:red;stroke-width:1px;stroke-linecap:butt;stroke-linejoin:miter;stroke-opacity:1" d="M 107.833,877.791 107.833,893.765 z" id="boundary" inkscape:connector-curvature="0" />
	<path style="fill:none;stroke:red;stroke-width:1px;stroke-linecap:butt;stroke-linejoin:miter;stroke-opacity:1" d="M 107.833,893.765 107.833,909.739 z" id="boundary" inkscape:connector-curvature="0" />
	<path style="fill:none;stroke:red;stroke-width:1px;stroke-linecap:butt;stroke-linejoin:miter;stroke-opacity:1" d="M 4,256.393 16.7794,243.614 z" id="boundary" inkscape:connector-curvature="0" />
	<path style="fill:none;stroke:red;stroke-width:1px;stroke-linecap:butt;stroke-linejoin:miter;stroke-opacity:1" d="M 16.7794,243.614 24.7665,227.639 z" id="boundary" inkscape:connector-curvature="0" />
	<path style="fill:none;stroke:red;stroke-width:1px;stroke-linecap:butt;stroke-linejoin:miter;stroke-opacity:1" d="M 24.7665,227.639 37.5459,214.86 z" id="boundary" inkscape:connector-curvature="0" />
	<path style="fill:none;stroke:red;stroke-width:1px;stroke-linecap:butt;stroke-linejoin:miter;stroke-opacity:1" d="M 37.5459,214.86 53.5201,211.665 z" id="boundary" inkscape:connector-curvature="0" />
	<path style="fill:none;stroke:red;stroke-width:1px;stroke-linecap:butt;stroke-linejoin:miter;stroke-opacity:1" d="M 53.5201,211.665 66.2995,221.25 z" id="boundary" inkscape:connector-curvature="0" />
	<path style="fill:none;stroke:red;stroke-width:1px;stroke-linecap:butt;stroke-linejoin:miter;stroke-opacity:1" d="M 66.2995,221.25 77.4815,234.029 z" id="boundary" inkscape:connector-curvature="0" />
	<path style="fill:none;stroke:red;stroke-width:1px;stroke-linecap:butt;stroke-linejoin:miter;stroke-opacity:1" d="M 77.4815,234.029 77.4815,250.003 z" id="boundary" inkscape:connector-curvature="0" />
	<path style="fill:none;stroke:red;stroke-width:1px;stroke-linecap:butt;stroke-linejoin:miter;stroke-opacity:1" d="M 77.4815,250.003 77.4815,265.977 z" id="boundary" inkscape:connector-curvature="0" />
	<path style="fill:none;stroke:red;stroke-width:1px;stroke-linecap:butt;stroke-linejoin:miter;stroke-opacity:1" d="M 77.4815,265.977 77.4815,281.952 z" id="boundary" inkscape:connector-curvature="0" />
	<path style="fill:none;stroke:red;stroke-width:1px;stroke-linecap:butt;stroke-linejoin:miter;stroke-opacity:1" d="M 77.4815,281.952 77.4815,297.926 z" id="boundary" inkscape:connector-curvature="0" />
	<path style="fill:none;stroke:red;stroke-width:1px;stroke-linecap:butt;stroke-linejoin:miter;stroke-opacity:1" d="M 77.4815,297.926 77.4815,313.9 z" id="boundary" inkscape:connector-curvature="0" />
	<path style="fill:none;stroke:red;stroke-width:1px;stroke-linecap:butt;stroke-linejoin:miter;stroke-opacity:1" d="M 77.4815,313.9 77.4815,329.874 z" id="boundary" inkscape:connector-curvature="0" />
	<path style="fill:none;stroke:red;stroke-width:1px;stroke-linecap:butt;stroke-linejoin:miter;stroke-opacity:1" d="M 77.4815,329.874 77.4815,345.849 z" id="boundary" inkscape:connector-curvature="0" />
	<path style="fill:none;stroke:red;stroke-width:1px;stroke-linecap:butt;stroke-linejoin:miter;stroke-opacity:1" d="M 77.4815,345.849 85.4686,360.225 z" id="boundary" inkscape:connector-curvature="0" />
	<path style="fill:none;stroke:red;stroke-width:1px;stroke-linecap:butt;stroke-linejoin:miter;stroke-opacity:1" d="M 85.4686,360.225 93.4557,374.602 z" id="boundary" inkscape:connector-curvature="0" />
	<path style="fill:none;stroke:red;stroke-width:1px;stroke-linecap:butt;stroke-linejoin:miter;stroke-opacity:1" d="M 93.4557,374.602 101.443,388.979 z" id="boundary" inkscape:connector-curvature="0" />
	<path style="fill:none;stroke:red;stroke-width:1px;stroke-linecap:butt;stroke-linejoin:miter;stroke-opacity:1" d="M 101.443,388.979 109.43,403.356 z" id="boundary" inkscape:connector-curvature="0" />
	<path style="fill:none;stroke:red;stroke-width:1px;stroke-linecap:butt;stroke-linejoin:miter;stroke-opacity:1" d="M 109.43,403.356 109.43,419.33 z" id="boundary" inkscape:connector-curvature="0" />
	<path style="fill:none;stroke:red;stroke-width:1px;stroke-linecap:butt;stroke-linejoin:miter;stroke-opacity:1" d="M 109.43,419.33 109.43,435.304 z" id="boundary" inkscape:connector-curvature="0" />
	<path style="fill:none;stroke:red;stroke-width:1px;stroke-linecap:butt;stroke-linejoin:miter;stroke-opacity:1" d="M 109.43,435.304 117.417,449.681 z" id="boundary" inkscape:connector-curvature="0" />
	<path style="fill:none;stroke:red;stroke-width:1px;stroke-linecap:butt;stroke-linejoin:miter;stroke-opacity:1" d="M 117.417,449.681 133.391,451.279 z" id="boundary" inkscape:connector-curvature="0" />
	<path style="fill:none;stroke:red;stroke-width:1px;stroke-linecap:butt;stroke-linejoin:miter;stroke-opacity:1" d="M 133.391,451.279 139.781,430.512 z" id="boundary" inkscape:connector-curvature="0" />
	<path style="fill:none;stroke:red;stroke-width:1px;stroke-linecap:butt;stroke-linejoin:miter;stroke-opacity:1" d="M 139.781,430.512 139.781,414.538 z" id="boundary" inkscape:connector-curvature="0" />
	<path style="fill:none;stroke:red;stroke-width:1px;stroke-linecap:butt;stroke-linejoin:miter;stroke-opacity:1" d="M 139.781,414.538 139.781,398.564 z" id="boundary" inkscape:connector-curvature="0" />
	<path style="fill:none;stroke:red;stroke-width:1px;stroke-linecap:butt;stroke-linejoin:miter;stroke-opacity:1" d="M 139.781,398.564 139.781,382.589 z" id="boundary" inkscape:connector-curvature="0" />
	<path style="fill:none;stroke:red;stroke-width:1px;stroke-linecap:butt;stroke-linejoin:miter;stroke-opacity:1" d="M 139.781,382.589 139.781,366.615 z" id="boundary" inkscape:connector-curvature="0" />
	<path style="fill:none;stroke:red;stroke-width:1px;stroke-linecap:butt;stroke-linejoin:miter;stroke-opacity:1" d="M 139.781,366.615 139.781,350.641 z" id="boundary" inkscape:connector-curvature="0" />
	<path style="fill:none;stroke:red;stroke-width:1px;stroke-linecap:butt;stroke-linejoin:miter;stroke-opacity:1" d="M 139.781,350.641 139.781,334.667 z" id="boundary" inkscape:connector-curvature="0" />
	<path style="fill:none;stroke:red;stroke-width:1px;stroke-linecap:butt;stroke-linejoin:miter;stroke-opacity:1" d="M 139.781,334.667 131.794,320.29 z" id="boundary" inkscape:connector-curvature="0" />
	<path style="fill:none;stroke:red;stroke-width:1px;stroke-linecap:butt;stroke-linejoin:miter;stroke-opacity:1" d="M 131.794,320.29 131.794,304.316 z" id="boundary" inkscape:connector-curvature="0" />
	<path style="fill:none;stroke:red;stroke-width:1px;stroke-linecap:butt;stroke-linejoin:miter;stroke-opacity:1" d="M 131.794,304.316 131.794,288.341 z" id="boundary" inkscape:connector-curvature="0" />
	<path style="fill:none;stroke:red;stroke-width:1px;stroke-linecap:butt;stroke-linejoin:miter;stroke-opacity:1" d="M 131.794,288.341 139.781,264.38 z" id="boundary" inkscape:connector-curvature="0" />
	<path style="fill:none;stroke:red;stroke-width:1px;stroke-linecap:butt;stroke-linejoin:miter;stroke-opacity:1" d="M 139.781,264.38 139.781,248.406 z" id="boundary" inkscape:connector-curvature="0" />
	<path style="fill:none;stroke:red;stroke-width:1px;stroke-linecap:butt;stroke-linejoin:miter;stroke-opacity:1" d="M 139.781,248.406 139.781,232.432 z" id="boundary" inkscape:connector-curvature="0" />
	<path style="fill:none;stroke:red;stroke-width:1px;stroke-linecap:butt;stroke-linejoin:miter;stroke-opacity:1" d="M 139.781,232.432 139.781,216.457 z" id="boundary" inkscape:connector-curvature="0" />
	<path style="fill:none;stroke:red;stroke-width:1px;stroke-linecap:butt;stroke-linejoin:miter;stroke-opacity:1" d="M 139.781,216.457 139.781,200.483 z" id="boundary" inkscape:connector-curvature="0" />
	<path style="fill:none;stroke:red;stroke-width:1px;stroke-linecap:butt;stroke-linejoin:miter;stroke-opacity:1" d="M 139.781,200.483 139.781,184.509 z" id="boundary" inkscape:connector-curvature="0" />
	<path style="fill:none;stroke:red;stroke-width:1px;stroke-linecap:butt;stroke-linejoin:miter;stroke-opacity:1" d="M 139.781,184.509 139.781,168.535 z" id="boundary" inkscape:connector-curvature="0" />
	<path style="fill:none;stroke:red;stroke-width:1px;stroke-linecap:butt;stroke-linejoin:miter;stroke-opacity:1" d="M 139.781,168.535 139.781,152.56 z" id="boundary" inkscape:connector-curvature="0" />
	<path style="fill:none;stroke:red;stroke-width:1px;stroke-linecap:butt;stroke-linejoin:miter;stroke-opacity:1" d="M 139.781,152.56 139.781,136.586 z" id="boundary" inkscape:connector-curvature="0" />
	<path style="fill:none;stroke:red;stroke-width:1px;stroke-linecap:butt;stroke-linejoin:miter;stroke-opacity:1" d="M 139.781,136.586 139.781,120.612 z" id="boundary" inkscape:connector-curvature="0" />
	<path style="fill:none;stroke:red;stroke-width:1px;stroke-linecap:butt;stroke-linejoin:miter;stroke-opacity:1" d="M 139.781,120.612 139.781,104.638 z" id="boundary" inkscape:connector-curvature="0" />
	<path style="fill:none;stroke:red;stroke-width:1px;stroke-linecap:butt;stroke-linejoin:miter;stroke-opacity:1" d="M 139.781,104.638 139.781,88.6634 z" id="boundary" inkscape:connector-curvature="0" />
	<path style="fill:none;stroke:red;stroke-width:1px;stroke-linecap:butt;stroke-linejoin:miter;stroke-opacity:1" d="M 139.781,88.6634 152.56,75.8841 z" id="boundary" inkscape:connector-curvature="0" />
	<path style="fill:none;stroke:red;stroke-width:1px;stroke-linecap:butt;stroke-linejoin:miter;stroke-opacity:1" d="M 152.56,75.8841 165.34,63.1047 z" id="boundary" inkscape:connector-curvature="0" />
	<path style="fill:none;stroke:red;stroke-width:1px;stroke-linecap:butt;stroke-linejoin:miter;stroke-opacity:1" d="M 165.34,63.1047 178.119,51.9227 z" id="boundary" inkscape:connector-curvature="0" />
	<path style="fill:none;stroke:red;stroke-width:1px;stroke-linecap:butt;stroke-linejoin:miter;stroke-opacity:1" d="M 178.119,51.9227 194.093,53.5201 z" id="boundary" inkscape:connector-curvature="0" />
	<path style="fill:none;stroke:red;stroke-width:1px;stroke-linecap:butt;stroke-linejoin:miter;stroke-opacity:1" d="M 194.093,53.5201 205.275,66.2995 z" id="boundary" inkscape:connector-curvature="0" />
	<path style="fill:none;stroke:red;stroke-width:1px;stroke-linecap:butt;stroke-linejoin:miter;stroke-opacity:1" d="M 205.275,66.2995 213.262,80.6763 z" id="boundary" inkscape:connector-curvature="0" />
	<path style="fill:none;stroke:red;stroke-width:1px;stroke-linecap:butt;stroke-linejoin:miter;stroke-opacity:1" d="M 213.262,80.6763 213.262,96.6506 z" id="boundary" inkscape:connector-curvature="0" />
	<path style="fill:none;stroke:red;stroke-width:1px;stroke-linecap:butt;stroke-linejoin:miter;stroke-opacity:1" d="M 213.262,96.6506 213.262,112.625 z" id="boundary" inkscape:connector-curvature="0" />
	<path style="fill:none;stroke:red;stroke-width:1px;stroke-linecap:butt;stroke-linejoin:miter;stroke-opacity:1" d="M 213.262,112.625 221.25,127.002 z" id="boundary" inkscape:connector-curvature="0" />
	<path style="fill:none;stroke:red;stroke-width:1px;stroke-linecap:butt;stroke-linejoin:miter;stroke-opacity:1" d="M 221.25,127.002 221.25,142.976 z" id="boundary" inkscape:connector-curvature="0" />
	<path style="fill:none;stroke:red;stroke-width:1px;stroke-linecap:butt;stroke-linejoin:miter;stroke-opacity:1" d="M 221.25,142.976 221.25,158.95 z" id="boundary" inkscape:connector-curvature="0" />
	<path style="fill:none;stroke:red;stroke-width:1px;stroke-linecap:butt;stroke-linejoin:miter;stroke-opacity:1" d="M 221.25,158.95 221.25,174.924 z" id="boundary" inkscape:connector-curvature="0" />
	<path style="fill:none;stroke:red;stroke-width:1px;stroke-linecap:butt;stroke-linejoin:miter;stroke-opacity:1" d="M 221.25,174.924 213.262,189.301 z" id="boundary" inkscape:connector-curvature="0" />
	<path style="fill:none;stroke:red;stroke-width:1px;stroke-linecap:butt;stroke-linejoin:miter;stroke-opacity:1" d="M 213.262,189.301 213.262,205.275 z" id="boundary" inkscape:connector-curvature="0" />
	<path style="fill:none;stroke:red;stroke-width:1px;stroke-linecap:butt;stroke-linejoin:miter;stroke-opacity:1" d="M 213.262,205.275 213.262,221.25 z" id="boundary" inkscape:connector-curvature="0" />
	<path style="fill:none;stroke:red;stroke-width:1px;stroke-linecap:butt;stroke-linejoin:miter;stroke-opacity:1" d="M 213.262,221.25 213.262,237.224 z" id="boundary" inkscape:connector-curvature="0" />
	<path style="fill:none;stroke:red;stroke-width:1px;stroke-linecap:butt;stroke-linejoin:miter;stroke-opacity:1" d="M 213.262,237.224 221.25,251.601 z" id="boundary" inkscape:connector-curvature="0" />
	<path style="fill:none;stroke:red;stroke-width:1px;stroke-linecap:butt;stroke-linejoin:miter;stroke-opacity:1" d="M 221.25,251.601 221.25,267.575 z" id="boundary" inkscape:connector-curvature="0" />
	<path style="fill:none;stroke:red;stroke-width:1px;stroke-linecap:butt;stroke-linejoin:miter;stroke-opacity:1" d="M 221.25,267.575 221.25,283.549 z" id="boundary" inkscape:connector-curvature="0" />
	<path style="fill:none;stroke:red;stroke-width:1px;stroke-linecap:butt;stroke-linejoin:miter;stroke-opacity:1" d="M 221.25,283.549 229.237,297.926 z" id="boundary" inkscape:connector-curvature="0" />
	<path style="fill:none;stroke:red;stroke-width:1px;stroke-linecap:butt;stroke-linejoin:miter;stroke-opacity:1" d="M 229.237,297.926 229.237,313.9 z" id="boundary" inkscape:connector-curvature="0" />
	<path style="fill:none;stroke:red;stroke-width:1px;stroke-linecap:butt;stroke-linejoin:miter;stroke-opacity:1" d="M 229.237,313.9 237.224,328.277 z" id="boundary" inkscape:connector-curvature="0" />
	<path style="fill:none;stroke:red;stroke-width:1px;stroke-linecap:butt;stroke-linejoin:miter;stroke-opacity:1" d="M 237.224,328.277 243.614,344.251 z" id="boundary" inkscape:connector-curvature="0" />
	<path style="fill:none;stroke:red;stroke-width:1px;stroke-linecap:butt;stroke-linejoin:miter;stroke-opacity:1" d="M 243.614,344.251 251.601,358.628 z" id="boundary" inkscape:connector-curvature="0" />
	<path style="fill:none;stroke:red;stroke-width:1px;stroke-linecap:butt;stroke-linejoin:miter;stroke-opacity:1" d="M 251.601,358.628 257.99,374.602 z" id="boundary" inkscape:connector-curvature="0" />
	<path style="fill:none;stroke:red;stroke-width:1px;stroke-linecap:butt;stroke-linejoin:miter;stroke-opacity:1" d="M 257.99,374.602 267.575,387.382 z" id="boundary" inkscape:connector-curvature="0" />
	<path style="fill:none;stroke:red;stroke-width:1px;stroke-linecap:butt;stroke-linejoin:miter;stroke-opacity:1" d="M 267.575,387.382 275.562,368.213 z" id="boundary" inkscape:connector-curvature="0" />
	<path style="fill:none;stroke:red;stroke-width:1px;stroke-linecap:butt;stroke-linejoin:miter;stroke-opacity:1" d="M 275.562,368.213 275.562,352.238 z" id="boundary" inkscape:connector-curvature="0" />
	<path style="fill:none;stroke:red;stroke-width:1px;stroke-linecap:butt;stroke-linejoin:miter;stroke-opacity:1" d="M 275.562,352.238 275.562,336.264 z" id="boundary" inkscape:connector-curvature="0" />
	<path style="fill:none;stroke:red;stroke-width:1px;stroke-linecap:butt;stroke-linejoin:miter;stroke-opacity:1" d="M 275.562,336.264 283.549,320.29 z" id="boundary" inkscape:connector-curvature="0" />
	<path style="fill:none;stroke:red;stroke-width:1px;stroke-linecap:butt;stroke-linejoin:miter;stroke-opacity:1" d="M 283.549,320.29 283.549,304.316 z" id="boundary" inkscape:connector-curvature="0" />
	<path style="fill:none;stroke:red;stroke-width:1px;stroke-linecap:butt;stroke-linejoin:miter;stroke-opacity:1" d="M 283.549,304.316 283.549,288.341 z" id="boundary" inkscape:connector-curvature="0" />
	<path style="fill:none;stroke:red;stroke-width:1px;stroke-linecap:butt;stroke-linejoin:miter;stroke-opacity:1" d="M 283.549,288.341 283.549,272.367 z" id="boundary" inkscape:connector-curvature="0" />
	<path style="fill:none;stroke:red;stroke-width:1px;stroke-linecap:butt;stroke-linejoin:miter;stroke-opacity:1" d="M 283.549,272.367 283.549,256.393 z" id="boundary" inkscape:connector-curvature="0" />
	<path style="fill:none;stroke:red;stroke-width:1px;stroke-linecap:butt;stroke-linejoin:miter;stroke-opacity:1" d="M 283.549,256.393 283.549,240.419 z" id="boundary" inkscape:connector-curvature="0" />
	<path style="fill:none;stroke:red;stroke-width:1px;stroke-linecap:butt;stroke-linejoin:miter;stroke-opacity:1" d="M 283.549,240.419 291.536,216.457 z" id="boundary" inkscape:connector-curvature="0" />
	<path style="fill:none;stroke:red;stroke-width:1px;stroke-linecap:butt;stroke-linejoin:miter;stroke-opacity:1" d="M 291.536,216.457 299.523,192.496 z" id="boundary" inkscape:connector-curvature="0" />
	<path style="fill:none;stroke:red;stroke-width:1px;stroke-linecap:butt;stroke-linejoin:miter;stroke-opacity:1" d="M 299.523,192.496 307.51,168.535 z" id="boundary" inkscape:connector-curvature="0" />
	<path style="fill:none;stroke:red;stroke-width:1px;stroke-linecap:butt;stroke-linejoin:miter;stroke-opacity:1" d="M 307.51,168.535 315.498,152.56 z" id="boundary" inkscape:connector-curvature="0" />
	<path style="fill:none;stroke:red;stroke-width:1px;stroke-linecap:butt;stroke-linejoin:miter;stroke-opacity:1" d="M 315.498,152.56 315.498,136.586 z" id="boundary" inkscape:connector-curvature="0" />
	<path style="fill:none;stroke:red;stroke-width:1px;stroke-linecap:butt;stroke-linejoin:miter;stroke-opacity:1" d="M 315.498,136.586 315.498,120.612 z" id="boundary" inkscape:connector-curvature="0" />
	<path style="fill:none;stroke:red;stroke-width:1px;stroke-linecap:butt;stroke-linejoin:miter;stroke-opacity:1" d="M 315.498,120.612 315.498,104.638 z" id="boundary" inkscape:connector-curvature="0" />
	<path style="fill:none;stroke:red;stroke-width:1px;stroke-linecap:butt;stroke-linejoin:miter;stroke-opacity:1" d="M 315.498,104.638 315.498,88.6634 z" id="boundary" inkscape:connector-curvature="0" />
	<path style="fill:none;stroke:red;stroke-width:1px;stroke-linecap:butt;stroke-linejoin:miter;stroke-opacity:1" d="M 315.498,88.6634 315.498,72.6892 z" id="boundary" inkscape:connector-curvature="0" />
	<path style="fill:none;stroke:red;stroke-width:1px;stroke-linecap:butt;stroke-linejoin:miter;stroke-opacity:1" d="M 315.498,72.6892 323.485,48.7279 z" id="boundary" inkscape:connector-curvature="0" />
	<path style="fill:none;stroke:red;stroke-width:1px;stroke-linecap:butt;stroke-linejoin:miter;stroke-opacity:1" d="M 323.485,48.7279 323.485,32.7536 z" id="boundary" inkscape:connector-curvature="0" />
	<path style="fill:none;stroke:red;stroke-width:1px;stroke-linecap:butt;stroke-linejoin:miter;stroke-opacity:1" d="M 323.485,32.7536 336.264,19.9742 z" id="boundary" inkscape:connector-curvature="0" />
	<path style="fill:none;stroke:red;stroke-width:1px;stroke-linecap:butt;stroke-linejoin:miter;stroke-opacity:1" d="M 336.264,19.9742 352.238,11.9871 z" id="boundary" inkscape:connector-curvature="0" />
	<path style="fill:none;stroke:red;stroke-width:1px;stroke-linecap:butt;stroke-linejoin:miter;stroke-opacity:1" d="M 352.238,11.9871 366.615,4 z" id="boundary" inkscape:connector-curvature="0" />
	<path style="fill:none;stroke:red;stroke-width:1px;stroke-linecap:butt;stroke-linejoin:miter;stroke-opacity:1" d="M 366.615,4 382.589,4 z" id="boundary" inkscape:connector-curvature="0" />
	<path style="fill:none;stroke:red;stroke-width:1px;stroke-linecap:butt;stroke-linejoin:miter;stroke-opacity:1" d="M 382.589,4 395.369,15.182 z" id="boundary" inkscape:connector-curvature="0" />
	<path style="fill:none;stroke:red;stroke-width:1px;stroke-linecap:butt;stroke-linejoin:miter;stroke-opacity:1" d="M 395.369,15.182 401.758,31.1562 z" id="boundary" inkscape:connector-curvature="0" />
	<path style="fill:none;stroke:red;stroke-width:1px;stroke-linecap:butt;stroke-linejoin:miter;stroke-opacity:1" d="M 401.758,31.1562 409.746,45.533 z" id="boundary" inkscape:connector-curvature="0" />
	<path style="fill:none;stroke:red;stroke-width:1px;stroke-linecap:butt;stroke-linejoin:miter;stroke-opacity:1" d="M 409.746,45.533 412.94,61.5072 z" id="boundary" inkscape:connector-curvature="0" />
	<path style="fill:none;stroke:red;stroke-width:1px;stroke-linecap:butt;stroke-linejoin:miter;stroke-opacity:1" d="M 412.94,61.5072 412.94,77.4815 z" id="boundary" inkscape:connector-curvature="0" />
	<path style="fill:none;stroke:red;stroke-width:1px;stroke-linecap:butt;stroke-linejoin:miter;stroke-opacity:1" d="M 412.94,77.4815 404.953,93.4557 z" id="boundary" inkscape:connector-curvature="0" />
	<path style="fill:none;stroke:red;stroke-width:1px;stroke-linecap:butt;stroke-linejoin:miter;stroke-opacity:1" d="M 404.953,93.4557 404.953,109.43 z" id="boundary" inkscape:connector-curvature="0" />
	<path style="fill:none;stroke:red;stroke-width:1px;stroke-linecap:butt;stroke-linejoin:miter;stroke-opacity:1" d="M 404.953,109.43 404.953,125.404 z" id="boundary" inkscape:connector-curvature="0" />
	<path style="fill:none;stroke:red;stroke-width:1px;stroke-linecap:butt;stroke-linejoin:miter;stroke-opacity:1" d="M 404.953,125.404 396.966,149.366 z" id="boundary" inkscape:connector-curvature="0" />
	<path style="fill:none;stroke:red;stroke-width:1px;stroke-linecap:butt;stroke-linejoin:miter;stroke-opacity:1" d="M 396.966,149.366 396.966,165.34 z" id="boundary" inkscape:connector-curvature="0" />
	<path style="fill:none;stroke:red;stroke-width:1px;stroke-linecap:butt;stroke-linejoin:miter;stroke-opacity:1" d="M 396.966,165.34 388.979,181.314 z" id="boundary" inkscape:connector-curvature="0" />
	<path style="fill:none;stroke:red;stroke-width:1px;stroke-linecap:butt;stroke-linejoin:miter;stroke-opacity:1" d="M 388.979,181.314 388.979,197.288 z" id="boundary" inkscape:connector-curvature="0" />
	<path style="fill:none;stroke:red;stroke-width:1px;stroke-linecap:butt;stroke-linejoin:miter;stroke-opacity:1" d="M 388.979,197.288 388.979,213.262 z" id="boundary" inkscape:connector-curvature="0" />
	<path style="fill:none;stroke:red;stroke-width:1px;stroke-linecap:butt;stroke-linejoin:miter;stroke-opacity:1" d="M 388.979,213.262 380.992,237.224 z" id="boundary" inkscape:connector-curvature="0" />
	<path style="fill:none;stroke:red;stroke-width:1px;stroke-linecap:butt;stroke-linejoin:miter;stroke-opacity:1" d="M 380.992,237.224 380.992,253.198 z" id="boundary" inkscape:connector-curvature="0" />
	<path style="fill:none;stroke:red;stroke-width:1px;stroke-linecap:butt;stroke-linejoin:miter;stroke-opacity:1" d="M 380.992,253.198 380.992,269.172 z" id="boundary" inkscape:connector-curvature="0" />
	<path style="fill:none;stroke:red;stroke-width:1px;stroke-linecap:butt;stroke-linejoin:miter;stroke-opacity:1" d="M 380.992,269.172 380.992,285.147 z" id="boundary" inkscape:connector-curvature="0" />
	<path style="fill:none;stroke:red;stroke-width:1px;stroke-linecap:butt;stroke-linejoin:miter;stroke-opacity:1" d="M 380.992,285.147 380.992,301.121 z" id="boundary" inkscape:connector-curvature="0" />
	<path style="fill:none;stroke:red;stroke-width:1px;stroke-linecap:butt;stroke-linejoin:miter;stroke-opacity:1" d="M 380.992,301.121 380.992,317.095 z" id="boundary" inkscape:connector-curvature="0" />
	<path style="fill:none;stroke:red;stroke-width:1px;stroke-linecap:butt;stroke-linejoin:miter;stroke-opacity:1" d="M 380.992,317.095 380.992,333.069 z" id="boundary" inkscape:connector-curvature="0" />
	<path style="fill:none;stroke:red;stroke-width:1px;stroke-linecap:butt;stroke-linejoin:miter;stroke-opacity:1" d="M 380.992,333.069 380.992,349.043 z" id="boundary" inkscape:connector-curvature="0" />
	<path style="fill:none;stroke:red;stroke-width:1px;stroke-linecap:butt;stroke-linejoin:miter;stroke-opacity:1" d="M 380.992,349.043 380.992,365.018 z" id="boundary" inkscape:connector-curvature="0" />
	<path style="fill:none;stroke:red;stroke-width:1px;stroke-linecap:butt;stroke-linejoin:miter;stroke-opacity:1" d="M 380.992,365.018 380.992,380.992 z" id="boundary" inkscape:connector-curvature="0" />
	<path style="fill:none;stroke:red;stroke-width:1px;stroke-linecap:butt;stroke-linejoin:miter;stroke-opacity:1" d="M 380.992,380.992 396.966,374.602 z" id="boundary" inkscape:connector-curvature="0" />
	<path style="fill:none;stroke:red;stroke-width:1px;stroke-linecap:butt;stroke-linejoin:miter;stroke-opacity:1" d="M 396.966,374.602 404.953,358.628 z" id="boundary" inkscape:connector-curvature="0" />
	<path style="fill:none;stroke:red;stroke-width:1px;stroke-linecap:butt;stroke-linejoin:miter;stroke-opacity:1" d="M 107.833,909.739 99.8454,935.298 z" id="boundary" inkscape:connector-curvature="0" />
	<path style="fill:none;stroke:red;stroke-width:1px;stroke-linecap:butt;stroke-linejoin:miter;stroke-opacity:1" d="M 99.8454,935.298 91.8583,951.272 z" id="boundary" inkscape:connector-curvature="0" />
	<path style="fill:none;stroke:red;stroke-width:1px;stroke-linecap:butt;stroke-linejoin:miter;stroke-opacity:1" d="M 91.8583,951.272 101.443,964.052 z" id="boundary" inkscape:connector-curvature="0" />
	<path style="fill:none;stroke:red;stroke-width:1px;stroke-linecap:butt;stroke-linejoin:miter;stroke-opacity:1" d="M 101.443,964.052 117.417,964.052 z" id="boundary" inkscape:connector-curvature="0" />
	<path style="fill:none;stroke:red;stroke-width:1px;stroke-linecap:butt;stroke-linejoin:miter;stroke-opacity:1" d="M 117.417,964.052 133.391,967.246 z" id="boundary" inkscape:connector-curvature="0" />
	<path style="fill:none;stroke:red;stroke-width:1px;stroke-linecap:butt;stroke-linejoin:miter;stroke-opacity:1" d="M 133.391,967.246 149.366,972.039 z" id="boundary" inkscape:connector-curvature="0" />
	<path style="fill:none;stroke:red;stroke-width:1px;stroke-linecap:butt;stroke-linejoin:miter;stroke-opacity:1" d="M 149.366,972.039 165.34,972.039 z" id="boundary" inkscape:connector-curvature="0" />
	<path style="fill:none;stroke:red;stroke-width:1px;stroke-linecap:butt;stroke-linejoin:miter;stroke-opacity:1" d="M 165.34,972.039 181.314,972.039 z" id="boundary" inkscape:connector-curvature="0" />
	<path style="fill:none;stroke:red;stroke-width:1px;stroke-linecap:butt;stroke-linejoin:miter;stroke-opacity:1" d="M 181.314,972.039 197.288,972.039 z" id="boundary" inkscape:connector-curvature="0" />
	<path style="fill:none;stroke:red;stroke-width:1px;stroke-linecap:butt;stroke-linejoin:miter;stroke-opacity:1" d="M 197.288,972.039 213.262,975.233 z" id="boundary" inkscape:connector-curvature="0" />
	<path style="fill:none;stroke:red;stroke-width:1px;stroke-linecap:butt;stroke-linejoin:miter;stroke-opacity:1" d="M 213.262,975.233 229.237,980.026 z" id="boundary" inkscape:connector-curvature="0" />
	<path style="fill:none;stroke:red;stroke-width:1px;stroke-linecap:butt;stroke-linejoin:miter;stroke-opacity:1" d="M 229.237,980.026 245.211,980.026 z" id="boundary" inkscape:connector-curvature="0" />
	<path style="fill:none;stroke:red;stroke-width:1px;stroke-linecap:butt;stroke-linejoin:miter;stroke-opacity:1" d="M 245.211,980.026 261.185,980.026 z" id="boundary" inkscape:connector-curvature="0" />
	<path style="fill:none;stroke:red;stroke-width:1px;stroke-linecap:butt;stroke-linejoin:miter;stroke-opacity:1" d="M 261.185,980.026 277.159,980.026 z" id="boundary" inkscape:connector-curvature="0" />
	<path style="fill:none;stroke:red;stroke-width:1px;stroke-linecap:butt;stroke-linejoin:miter;stroke-opacity:1" d="M 277.159,980.026 293.134,983.221 z" id="boundary" inkscape:connector-curvature="0" />
	<path style="fill:none;stroke:red;stroke-width:1px;stroke-linecap:butt;stroke-linejoin:miter;stroke-opacity:1" d="M 293.134,983.221 309.108,988.013 z" id="boundary" inkscape:connector-curvature="0" />
	<path style="fill:none;stroke:red;stroke-width:1px;stroke-linecap:butt;stroke-linejoin:miter;stroke-opacity:1" d="M 309.108,988.013 325.082,988.013 z" id="boundary" inkscape:connector-curvature="0" />
	<path style="fill:none;stroke:red;stroke-width:1px;stroke-linecap:butt;stroke-linejoin:miter;stroke-opacity:1" d="M 325.082,988.013 341.056,988.013 z" id="boundary" inkscape:connector-curvature="0" />
	<path style="fill:none;stroke:red;stroke-width:1px;stroke-linecap:butt;stroke-linejoin:miter;stroke-opacity:1" d="M 341.056,988.013 357.031,988.013 z" id="boundary" inkscape:connector-curvature="0" />
	<path style="fill:none;stroke:red;stroke-width:1px;stroke-linecap:butt;stroke-linejoin:miter;stroke-opacity:1" d="M 357.031,988.013 373.005,988.013 z" id="boundary" inkscape:connector-curvature="0" />
	<path style="fill:none;stroke:red;stroke-width:1px;stroke-linecap:butt;stroke-linejoin:miter;stroke-opacity:1" d="M 373.005,988.013 387.382,996 z" id="boundary" inkscape:connector-curvature="0" />
	<path style="fill:none;stroke:red;stroke-width:1px;stroke-linecap:butt;stroke-linejoin:miter;stroke-opacity:1" d="M 387.382,996 403.356,996 z" id="boundary" inkscape:connector-curvature="0" />
	<path style="fill:none;stroke:red;stroke-width:1px;stroke-linecap:butt;stroke-linejoin:miter;stroke-opacity:1" d="M 403.356,996 419.33,991.208 z" id="boundary" inkscape:connector-curvature="0" />
	<path style="fill:none;stroke:red;stroke-width:1px;stroke-linecap:butt;stroke-linejoin:miter;stroke-opacity:1" d="M 419.33,991.208 432.11,978.428 z" id="boundary" inkscape:connector-curvature="0" />
	<path style="fill:none;stroke:red;stroke-width:1px;stroke-linecap:butt;stroke-linejoin:miter;stroke-opacity:1" d="M 432.11,978.428 440.097,964.052 z" id="boundary" inkscape:connector-curvature="0" />
	<path style="fill:none;stroke:red;stroke-width:1px;stroke-linecap:butt;stroke-linejoin:miter;stroke-opacity:1" d="M 440.097,964.052 452.876,948.077 z" id="boundary" inkscape:connector-curvature="0" />
	<path style="fill:none;stroke:red;stroke-width:1px;stroke-linecap:butt;stroke-linejoin:miter;stroke-opacity:1" d="M 452.876,948.077 468.85,940.09 z" id="boundary" inkscape:connector-curvature="0" />
	<path style="fill:none;stroke:red;stroke-width:1px;stroke-linecap:butt;stroke-linejoin:miter;stroke-opacity:1" d="M 468.85,940.09 484.824,932.103 z" id="boundary" inkscape:connector-curvature="0" />
	<path style="fill:none;stroke:red;stroke-width:1px;stroke-linecap:butt;stroke-linejoin:miter;stroke-opacity:1" d="M 484.824,932.103 500.799,916.129 z" id="boundary" inkscape:connector-curvature="0" />
	<path style="fill:none;stroke:red;stroke-width:1px;stroke-linecap:butt;stroke-linejoin:miter;stroke-opacity:1" d="M 500.799,916.129 513.578,904.947 z" id="boundary" inkscape:connector-curvature="0" />
	<path style="fill:none;stroke:red;stroke-width:1px;stroke-linecap:butt;stroke-linejoin:miter;stroke-opacity:1" d="M 513.578,904.947 521.565,888.973 z" id="boundary" inkscape:connector-curvature="0" />
	<path style="fill:none;stroke:red;stroke-width:1px;stroke-linecap:butt;stroke-linejoin:miter;stroke-opacity:1" d="M 521.565,888.973 532.747,868.206 z" id="boundary" inkscape:connector-curvature="0" />
	<path style="fill:none;stroke:red;stroke-width:1px;stroke-linecap:butt;stroke-linejoin:miter;stroke-opacity:1" d="M 532.747,868.206 545.527,857.024 z" id="boundary" inkscape:connector-curvature="0" />
	<path style="fill:none;stroke:red;stroke-width:1px;stroke-linecap:butt;stroke-linejoin:miter;stroke-opacity:1" d="M 545.527,857.024 553.514,841.05 z" id="boundary" inkscape:connector-curvature="0" />
	<path style="fill:none;stroke:red;stroke-width:1px;stroke-linecap:butt;stroke-linejoin:miter;stroke-opacity:1" d="M 553.514,841.05 561.501,825.076 z" id="boundary" inkscape:connector-curvature="0" />
	<path style="fill:none;stroke:red;stroke-width:1px;stroke-linecap:butt;stroke-linejoin:miter;stroke-opacity:1" d="M 561.501,825.076 572.683,812.296 z" id="boundary" inkscape:connector-curvature="0" />
	<path style="fill:none;stroke:red;stroke-width:1px;stroke-linecap:butt;stroke-linejoin:miter;stroke-opacity:1" d="M 572.683,812.296 580.67,796.322 z" id="boundary" inkscape:connector-curvature="0" />
	<path style="fill:none;stroke:red;stroke-width:1px;stroke-linecap:butt;stroke-linejoin:miter;stroke-opacity:1" d="M 580.67,796.322 593.449,785.14 z" id="boundary" inkscape:connector-curvature="0" />
	<path style="fill:none;stroke:red;stroke-width:1px;stroke-linecap:butt;stroke-linejoin:miter;stroke-opacity:1" d="M 593.449,785.14 604.631,772.361 z" id="boundary" inkscape:connector-curvature="0" />
	<path style="fill:none;stroke:red;stroke-width:1px;stroke-linecap:butt;stroke-linejoin:miter;stroke-opacity:1" d="M 604.631,772.361 617.411,761.179 z" id="boundary" inkscape:connector-curvature="0" />
	<path style="fill:none;stroke:red;stroke-width:1px;stroke-linecap:butt;stroke-linejoin:miter;stroke-opacity:1" d="M 617.411,761.179 620.605,740.412 z" id="boundary" inkscape:connector-curvature="0" />
	<path style="fill:none;stroke:red;stroke-width:1px;stroke-linecap:butt;stroke-linejoin:miter;stroke-opacity:1" d="M 620.605,740.412 628.593,716.451 z" id="boundary" inkscape:connector-curvature="0" />
	<path style="fill:none;stroke:red;stroke-width:1px;stroke-linecap:butt;stroke-linejoin:miter;stroke-opacity:1" d="M 628.593,716.451 636.58,692.49 z" id="boundary" inkscape:connector-curvature="0" />
	<path style="fill:none;stroke:red;stroke-width:1px;stroke-linecap:butt;stroke-linejoin:miter;stroke-opacity:1" d="M 636.58,692.49 644.567,668.528 z" id="boundary" inkscape:connector-curvature="0" />
	<path style="fill:none;stroke:red;stroke-width:1px;stroke-linecap:butt;stroke-linejoin:miter;stroke-opacity:1" d="M 644.567,668.528 652.554,652.554 z" id="boundary" inkscape:connector-curvature="0" />
	<path style="fill:none;stroke:red;stroke-width:1px;stroke-linecap:butt;stroke-linejoin:miter;stroke-opacity:1" d="M 652.554,652.554 652.554,636.58 z" id="boundary" inkscape:connector-curvature="0" />
	<path style="fill:none;stroke:red;stroke-width:1px;stroke-linecap:butt;stroke-linejoin:miter;stroke-opacity:1" d="M 652.554,636.58 665.333,625.398 z" id="boundary" inkscape:connector-curvature="0" />
	<path style="fill:none;stroke:red;stroke-width:1px;stroke-linecap:butt;stroke-linejoin:miter;stroke-opacity:1" d="M 665.333,625.398 673.32,609.424 z" id="boundary" inkscape:connector-curvature="0" />
	<path style="fill:none;stroke:red;stroke-width:1px;stroke-linecap:butt;stroke-linejoin:miter;stroke-opacity:1" d="M 673.32,609.424 681.308,593.449 z" id="boundary" inkscape:connector-curvature="0" />
	<path style="fill:none;stroke:red;stroke-width:1px;stroke-linecap:butt;stroke-linejoin:miter;stroke-opacity:1" d="M 681.308,593.449 684.502,575.878 z" id="boundary" inkscape:connector-curvature="0" />
	<path style="fill:none;stroke:red;stroke-width:1px;stroke-linecap:butt;stroke-linejoin:miter;stroke-opacity:1" d="M 684.502,575.878 684.502,559.903 z" id="boundary" inkscape:connector-curvature="0" />
	<path style="fill:none;stroke:red;stroke-width:1px;stroke-linecap:butt;stroke-linejoin:miter;stroke-opacity:1" d="M 684.502,559.903 676.515,545.527 z" id="boundary" inkscape:connector-curvature="0" />
	<path style="fill:none;stroke:red;stroke-width:1px;stroke-linecap:butt;stroke-linejoin:miter;stroke-opacity:1" d="M 676.515,545.527 676.515,529.552 z" id="boundary" inkscape:connector-curvature="0" />
	<path style="fill:none;stroke:red;stroke-width:1px;stroke-linecap:butt;stroke-linejoin:miter;stroke-opacity:1" d="M 676.515,529.552 676.515,513.578 z" id="boundary" inkscape:connector-curvature="0" />
	<path style="fill:none;stroke:red;stroke-width:1px;stroke-linecap:butt;stroke-linejoin:miter;stroke-opacity:1" d="M 676.515,513.578 676.515,497.604 z" id="boundary" inkscape:connector-curvature="0" />
	<path style="fill:none;stroke:red;stroke-width:1px;stroke-linecap:butt;stroke-linejoin:miter;stroke-opacity:1" d="M 676.515,497.604 676.515,481.63 z" id="boundary" inkscape:connector-curvature="0" />
	<path style="fill:none;stroke:red;stroke-width:1px;stroke-linecap:butt;stroke-linejoin:miter;stroke-opacity:1" d="M 676.515,481.63 676.515,465.655 z" id="boundary" inkscape:connector-curvature="0" />
	<path style="fill:none;stroke:red;stroke-width:1px;stroke-linecap:butt;stroke-linejoin:miter;stroke-opacity:1" d="M 676.515,465.655 676.515,449.681 z" id="boundary" inkscape:connector-curvature="0" />
	<path style="fill:none;stroke:red;stroke-width:1px;stroke-linecap:butt;stroke-linejoin:miter;stroke-opacity:1" d="M 676.515,449.681 668.528,435.304 z" id="boundary" inkscape:connector-curvature="0" />
	<path style="fill:none;stroke:red;stroke-width:1px;stroke-linecap:butt;stroke-linejoin:miter;stroke-opacity:1" d="M 668.528,435.304 662.138,419.33 z" id="boundary" inkscape:connector-curvature="0" />
	<path style="fill:none;stroke:red;stroke-width:1px;stroke-linecap:butt;stroke-linejoin:miter;stroke-opacity:1" d="M 662.138,419.33 652.554,406.551 z" id="boundary" inkscape:connector-curvature="0" />
	<path style="fill:none;stroke:red;stroke-width:1px;stroke-linecap:butt;stroke-linejoin:miter;stroke-opacity:1" d="M 652.554,406.551 639.775,419.33 z" id="boundary" inkscape:connector-curvature="0" />
	<path style="fill:none;stroke:red;stroke-width:1px;stroke-linecap:butt;stroke-linejoin:miter;stroke-opacity:1" d="M 639.775,419.33 623.8,419.33 z" id="boundary" inkscape:connector-curvature="0" />
	<path style="fill:none;stroke:red;stroke-width:1px;stroke-linecap:butt;stroke-linejoin:miter;stroke-opacity:1" d="M 623.8,419.33 615.813,435.304 z" id="boundary" inkscape:connector-curvature="0" />
	<path style="fill:none;stroke:red;stroke-width:1px;stroke-linecap:butt;stroke-linejoin:miter;stroke-opacity:1" d="M 615.813,435.304 607.826,451.279 z" id="boundary" inkscape:connector-curvature="0" />
	<path style="fill:none;stroke:red;stroke-width:1px;stroke-linecap:butt;stroke-linejoin:miter;stroke-opacity:1" d="M 607.826,451.279 595.047,464.058 z" id="boundary" inkscape:connector-curvature="0" />
	<path style="fill:none;stroke:red;stroke-width:1px;stroke-linecap:butt;stroke-linejoin:miter;stroke-opacity:1" d="M 595.047,464.058 587.06,488.019 z" id="boundary" inkscape:connector-curvature="0" />
	<path style="fill:none;stroke:red;stroke-width:1px;stroke-linecap:butt;stroke-linejoin:miter;stroke-opacity:1" d="M 587.06,488.019 587.06,503.994 z" id="boundary" inkscape:connector-curvature="0" />
	<path style="fill:none;stroke:red;stroke-width:1px;stroke-linecap:butt;stroke-linejoin:miter;stroke-opacity:1" d="M 587.06,503.994 587.06,519.968 z" id="boundary" inkscape:connector-curvature="0" />
	<path style="fill:none;stroke:red;stroke-width:1px;stroke-linecap:butt;stroke-linejoin:miter;stroke-opacity:1" d="M 587.06,519.968 587.06,535.942 z" id="boundary" inkscape:connector-curvature="0" />
	<path style="fill:none;stroke:red;stroke-width:1px;stroke-linecap:butt;stroke-linejoin:miter;stroke-opacity:1" d="M 587.06,535.942 579.072,551.916 z" id="boundary" inkscape:connector-curvature="0" />
	<path style="fill:none;stroke:red;stroke-width:1px;stroke-linecap:butt;stroke-linejoin:miter;stroke-opacity:1" d="M 579.072,551.916 575.878,579.072 z" id="boundary" inkscape:connector-curvature="0" />
	<path style="fill:none;stroke:red;stroke-width:1px;stroke-linecap:butt;stroke-linejoin:miter;stroke-opacity:1" d="M 575.878,579.072 563.098,591.852 z" id="boundary" inkscape:connector-curvature="0" />
	<path style="fill:none;stroke:red;stroke-width:1px;stroke-linecap:butt;stroke-linejoin:miter;stroke-opacity:1" d="M 563.098,591.852 555.111,607.826 z" id="boundary" inkscape:connector-curvature="0" />
	<path style="fill:none;stroke:red;stroke-width:1px;stroke-linecap:butt;stroke-linejoin:miter;stroke-opacity:1" d="M 555.111,607.826 555.111,623.8 z" id="boundary" inkscape:connector-curvature="0" />
	<path style="fill:none;stroke:red;stroke-width:1px;stroke-linecap:butt;stroke-linejoin:miter;stroke-opacity:1" d="M 555.111,623.8 539.137,631.787 z" id="boundary" inkscape:connector-curvature="0" />
	<path style="fill:none;stroke:red;stroke-width:1px;stroke-linecap:butt;stroke-linejoin:miter;stroke-opacity:1" d="M 539.137,631.787 524.76,641.372 z" id="boundary" inkscape:connector-curvature="0" />
	<path style="fill:none;stroke:red;stroke-width:1px;stroke-linecap:butt;stroke-linejoin:miter;stroke-opacity:1" d="M 524.76,641.372 516.773,626.995 z" id="boundary" inkscape:connector-curvature="0" />
	<path style="fill:none;stroke:red;stroke-width:1px;stroke-linecap:butt;stroke-linejoin:miter;stroke-opacity:1" d="M 516.773,626.995 516.773,611.021 z" id="boundary" inkscape:connector-curvature="0" />
	<path style="fill:none;stroke:red;stroke-width:1px;stroke-linecap:butt;stroke-linejoin:miter;stroke-opacity:1" d="M 516.773,611.021 516.773,595.047 z" id="boundary" inkscape:connector-curvature="0" />
	<path style="fill:none;stroke:red;stroke-width:1px;stroke-linecap:butt;stroke-linejoin:miter;stroke-opacity:1" d="M 516.773,595.047 516.773,579.072 z" id="boundary" inkscape:connector-curvature="0" />
	<path style="fill:none;stroke:red;stroke-width:1px;stroke-linecap:butt;stroke-linejoin:miter;stroke-opacity:1" d="M 516.773,579.072 516.773,563.098 z" id="boundary" inkscape:connector-curvature="0" />
	<path style="fill:none;stroke:red;stroke-width:1px;stroke-linecap:butt;stroke-linejoin:miter;stroke-opacity:1" d="M 516.773,563.098 508.786,548.721 z" id="boundary" inkscape:connector-curvature="0" />
	<path style="fill:none;stroke:red;stroke-width:1px;stroke-linecap:butt;stroke-linejoin:miter;stroke-opacity:1" d="M 508.786,548.721 508.786,532.747 z" id="boundary" inkscape:connector-curvature="0" />
	<path style="fill:none;stroke:red;stroke-width:1px;stroke-linecap:butt;stroke-linejoin:miter;stroke-opacity:1" d="M 508.786,532.747 508.786,516.773 z" id="boundary" inkscape:connector-curvature="0" />
	<path style="fill:none;stroke:red;stroke-width:1px;stroke-linecap:butt;stroke-linejoin:miter;stroke-opacity:1" d="M 508.786,516.773 508.786,500.799 z" id="boundary" inkscape:connector-curvature="0" />
	<path style="fill:none;stroke:red;stroke-width:1px;stroke-linecap:butt;stroke-linejoin:miter;stroke-opacity:1" d="M 508.786,500.799 503.994,484.824 z" id="boundary" inkscape:connector-curvature="0" />
	<path style="fill:none;stroke:red;stroke-width:1px;stroke-linecap:butt;stroke-linejoin:miter;stroke-opacity:1" d="M 503.994,484.824 500.799,468.85 z" id="boundary" inkscape:connector-curvature="0" />
	<path style="fill:none;stroke:red;stroke-width:1px;stroke-linecap:butt;stroke-linejoin:miter;stroke-opacity:1" d="M 500.799,468.85 500.799,452.876 z" id="boundary" inkscape:connector-curvature="0" />
	<path style="fill:none;stroke:red;stroke-width:1px;stroke-linecap:butt;stroke-linejoin:miter;stroke-opacity:1" d="M 500.799,452.876 500.799,436.902 z" id="boundary" inkscape:connector-curvature="0" />
	<path style="fill:none;stroke:red;stroke-width:1px;stroke-linecap:butt;stroke-linejoin:miter;stroke-opacity:1" d="M 500.799,436.902 500.799,420.928 z" id="boundary" inkscape:connector-curvature="0" />
	<path style="fill:none;stroke:red;stroke-width:1px;stroke-linecap:butt;stroke-linejoin:miter;stroke-opacity:1" d="M 500.799,420.928 508.786,404.953 z" id="boundary" inkscape:connector-curvature="0" />
	<path style="fill:none;stroke:red;stroke-width:1px;stroke-linecap:butt;stroke-linejoin:miter;stroke-opacity:1" d="M 508.786,404.953 508.786,388.979 z" id="boundary" inkscape:connector-curvature="0" />
	<path style="fill:none;stroke:red;stroke-width:1px;stroke-linecap:butt;stroke-linejoin:miter;stroke-opacity:1" d="M 508.786,388.979 508.786,373.005 z" id="boundary" inkscape:connector-curvature="0" />
	<path style="fill:none;stroke:red;stroke-width:1px;stroke-linecap:butt;stroke-linejoin:miter;stroke-opacity:1" d="M 508.786,373.005 516.773,349.043 z" id="boundary" inkscape:connector-curvature="0" />
	<path style="fill:none;stroke:red;stroke-width:1px;stroke-linecap:butt;stroke-linejoin:miter;stroke-opacity:1" d="M 516.773,349.043 516.773,333.069 z" id="boundary" inkscape:connector-curvature="0" />
	<path style="fill:none;stroke:red;stroke-width:1px;stroke-linecap:butt;stroke-linejoin:miter;stroke-opacity:1" d="M 516.773,333.069 516.773,317.095 z" id="boundary" inkscape:connector-curvature="0" />
	<path style="fill:none;stroke:red;stroke-width:1px;stroke-linecap:butt;stroke-linejoin:miter;stroke-opacity:1" d="M 516.773,317.095 516.773,301.121 z" id="boundary" inkscape:connector-curvature="0" />
	<path style="fill:none;stroke:red;stroke-width:1px;stroke-linecap:butt;stroke-linejoin:miter;stroke-opacity:1" d="M 516.773,301.121 516.773,285.147 z" id="boundary" inkscape:connector-curvature="0" />
	<path style="fill:none;stroke:red;stroke-width:1px;stroke-linecap:butt;stroke-linejoin:miter;stroke-opacity:1" d="M 516.773,285.147 516.773,269.172 z" id="boundary" inkscape:connector-curvature="0" />
	<path style="fill:none;stroke:red;stroke-width:1px;stroke-linecap:butt;stroke-linejoin:miter;stroke-opacity:1" d="M 516.773,269.172 524.76,253.198 z" id="boundary" inkscape:connector-curvature="0" />
	<path style="fill:none;stroke:red;stroke-width:1px;stroke-linecap:butt;stroke-linejoin:miter;stroke-opacity:1" d="M 524.76,253.198 524.76,237.224 z" id="boundary" inkscape:connector-curvature="0" />
	<path style="fill:none;stroke:red;stroke-width:1px;stroke-linecap:butt;stroke-linejoin:miter;stroke-opacity:1" d="M 524.76,237.224 524.76,221.25 z" id="boundary" inkscape:connector-curvature="0" />
	<path style="fill:none;stroke:red;stroke-width:1px;stroke-linecap:butt;stroke-linejoin:miter;stroke-opacity:1" d="M 524.76,221.25 524.76,205.275 z" id="boundary" inkscape:connector-curvature="0" />
	<path style="fill:none;stroke:red;stroke-width:1px;stroke-linecap:butt;stroke-linejoin:miter;stroke-opacity:1" d="M 524.76,205.275 524.76,189.301 z" id="boundary" inkscape:connector-curvature="0" />
	<path style="fill:none;stroke:red;stroke-width:1px;stroke-linecap:butt;stroke-linejoin:miter;stroke-opacity:1" d="M 524.76,189.301 532.747,166.937 z" id="boundary" inkscape:connector-curvature="0" />
	<path style="fill:none;stroke:red;stroke-width:1px;stroke-linecap:butt;stroke-linejoin:miter;stroke-opacity:1" d="M 532.747,166.937 532.747,150.963 z" id="boundary" inkscape:connector-curvature="0" />
	<path style="fill:none;stroke:red;stroke-width:1px;stroke-linecap:butt;stroke-linejoin:miter;stroke-opacity:1" d="M 532.747,150.963 532.747,134.989 z" id="boundary" inkscape:connector-curvature="0" />
	<path style="fill:none;stroke:red;stroke-width:1px;stroke-linecap:butt;stroke-linejoin:miter;stroke-opacity:1" d="M 532.747,134.989 531.15,119.014 z" id="boundary" inkscape:connector-curvature="0" />
	<path style="fill:none;stroke:red;stroke-width:1px;stroke-linecap:butt;stroke-linejoin:miter;stroke-opacity:1" d="M 531.15,119.014 523.163,104.638 z" id="boundary" inkscape:connector-curvature="0" />
	<path style="fill:none;stroke:red;stroke-width:1px;stroke-linecap:butt;stroke-linejoin:miter;stroke-opacity:1" d="M 523.163,104.638 516.773,88.6634 z" id="boundary" inkscape:connector-curvature="0" />
	<path style="fill:none;stroke:red;stroke-width:1px;stroke-linecap:butt;stroke-linejoin:miter;stroke-opacity:1" d="M 516.773,88.6634 515.176,72.6892 z" id="boundary" inkscape:connector-curvature="0" />
	<path style="fill:none;stroke:red;stroke-width:1px;stroke-linecap:butt;stroke-linejoin:miter;stroke-opacity:1" d="M 515.176,72.6892 508.786,56.715 z" id="boundary" inkscape:connector-curvature="0" />
	<path style="fill:none;stroke:red;stroke-width:1px;stroke-linecap:butt;stroke-linejoin:miter;stroke-opacity:1" d="M 508.786,56.715 497.604,43.9356 z" id="boundary" inkscape:connector-curvature="0" />
	<path style="fill:none;stroke:red;stroke-width:1px;stroke-linecap:butt;stroke-linejoin:miter;stroke-opacity:1" d="M 497.604,43.9356 484.824,55.1176 z" id="boundary" inkscape:connector-curvature="0" />
	<path style="fill:none;stroke:red;stroke-width:1px;stroke-linecap:butt;stroke-linejoin:miter;stroke-opacity:1" d="M 484.824,55.1176 472.045,67.8969 z" id="boundary" inkscape:connector-curvature="0" />
	<path style="fill:none;stroke:red;stroke-width:1px;stroke-linecap:butt;stroke-linejoin:miter;stroke-opacity:1" d="M 472.045,67.8969 459.266,80.6763 z" id="boundary" inkscape:connector-curvature="0" />
	<path style="fill:none;stroke:red;stroke-width:1px;stroke-linecap:butt;stroke-linejoin:miter;stroke-opacity:1" d="M 459.266,80.6763 451.279,96.6506 z" id="boundary" inkscape:connector-curvature="0" />
	<path style="fill:none;stroke:red;stroke-width:1px;stroke-linecap:butt;stroke-linejoin:miter;stroke-opacity:1" d="M 451.279,96.6506 451.279,112.625 z" id="boundary" inkscape:connector-curvature="0" />
	<path style="fill:none;stroke:red;stroke-width:1px;stroke-linecap:butt;stroke-linejoin:miter;stroke-opacity:1" d="M 451.279,112.625 451.279,128.599 z" id="boundary" inkscape:connector-curvature="0" />
	<path style="fill:none;stroke:red;stroke-width:1px;stroke-linecap:butt;stroke-linejoin:miter;stroke-opacity:1" d="M 451.279,128.599 451.279,144.573 z" id="boundary" inkscape:connector-curvature="0" />
	<path style="fill:none;stroke:red;stroke-width:1px;stroke-linecap:butt;stroke-linejoin:miter;stroke-opacity:1" d="M 451.279,144.573 451.279,160.548 z" id="boundary" inkscape:connector-curvature="0" />
	<path style="fill:none;stroke:red;stroke-width:1px;stroke-linecap:butt;stroke-linejoin:miter;stroke-opacity:1" d="M 451.279,160.548 443.291,176.522 z" id="boundary" inkscape:connector-curvature="0" />
	<path style="fill:none;stroke:red;stroke-width:1px;stroke-linecap:butt;stroke-linejoin:miter;stroke-opacity:1" d="M 443.291,176.522 443.291,192.496 z" id="boundary" inkscape:connector-curvature="0" />
	<path style="fill:none;stroke:red;stroke-width:1px;stroke-linecap:butt;stroke-linejoin:miter;stroke-opacity:1" d="M 443.291,192.496 435.304,208.47 z" id="boundary" inkscape:connector-curvature="0" />
	<path style="fill:none;stroke:red;stroke-width:1px;stroke-linecap:butt;stroke-linejoin:miter;stroke-opacity:1" d="M 435.304,208.47 427.317,232.432 z" id="boundary" inkscape:connector-curvature="0" />
	<path style="fill:none;stroke:red;stroke-width:1px;stroke-linecap:butt;stroke-linejoin:miter;stroke-opacity:1" d="M 427.317,232.432 427.317,248.406 z" id="boundary" inkscape:connector-curvature="0" />
	<path style="fill:none;stroke:red;stroke-width:1px;stroke-linecap:butt;stroke-linejoin:miter;stroke-opacity:1" d="M 427.317,248.406 427.317,264.38 z" id="boundary" inkscape:connector-curvature="0" />
	<path style="fill:none;stroke:red;stroke-width:1px;stroke-linecap:butt;stroke-linejoin:miter;stroke-opacity:1" d="M 427.317,264.38 419.33,280.354 z" id="boundary" inkscape:connector-curvature="0" />
	<path style="fill:none;stroke:red;stroke-width:1px;stroke-linecap:butt;stroke-linejoin:miter;stroke-opacity:1" d="M 419.33,280.354 419.33,296.329 z" id="boundary" inkscape:connector-curvature="0" />
	<path style="fill:none;stroke:red;stroke-width:1px;stroke-linecap:butt;stroke-linejoin:miter;stroke-opacity:1" d="M 419.33,296.329 419.33,312.303 z" id="boundary" inkscape:connector-curvature="0" />
	<path style="fill:none;stroke:red;stroke-width:1px;stroke-linecap:butt;stroke-linejoin:miter;stroke-opacity:1" d="M 419.33,312.303 411.343,328.277 z" id="boundary" inkscape:connector-curvature="0" />
	<circle cx="4" cy="256.393" r="4" fill="#0" id="circle0"/>
	<circle cx="4" cy="272.367" r="4" fill="#0" id="circle1"/>
	<circle cx="4" cy="288.341" r="4" fill="#0" id="circle2"/>
	<circle cx="4" cy="304.316" r="4" fill="#0" id="circle3"/>
	<circle cx="4" cy="320.29" r="4" fill="#0" id="circle4"/>
	<circle cx="4" cy="336.264" r="4" fill="#0" id="circle5"/>
	<circle cx="4" cy="352.238" r="4" fill="#0" id="circle6"/>
	<circle cx="11.9871" cy="366.615" r="4" fill="#0" id="circle7"/>
	<circle cx="11.9871" cy="382.589" r="4" fill="#0" id="circle8"/>
	<circle cx="11.9871" cy="398.564" r="4" fill="#0" id="circle9"/>
	<circle cx="16.7794" cy="243.614" r="4" fill="#0" id="circle10"/>
	<circle cx="19.9742" cy="412.94" r="4" fill="#0" id="circle11"/>
	<circle cx="19.9742" cy="428.915" r="4" fill="#0" id="circle12"/>
	<circle cx="24.7665" cy="227.639" r="4" fill="#0" id="circle13"/>
	<circle cx="27.9614" cy="443.291" r="4" fill="#0" id="circle14"/>
	<circle cx="31.1562" cy="459.266" r="4" fill="#0" id="circle15"/>
	<circle cx="35.9485" cy="475.24" r="4" fill="#0" id="circle16"/>
	<circle cx="37.5459" cy="214.86" r="4" fill="#0" id="circle17"/>
	<circle cx="43.9356" cy="489.617" r="4" fill="#0" id="circle18"/>
	<circle cx="43.9356" cy="505.591" r="4" fill="#0" id="circle19"/>
	<circle cx="43.9356" cy="521.565" r="4" fill="#0" id="circle20"/>
	<circle cx="51.9227" cy="535.942" r="4" fill="#0" id="circle21"/>
	<circle cx="51.9227" cy="551.916" r="4" fill="#0" id="circle22"/>
	<circle cx="51.9227" cy="567.89" r="4" fill="#0" id="circle23"/>
	<circle cx="53.5201" cy="211.665" r="4" fill="#0" id="circle24"/>
	<circle cx="59.9098" cy="582.267" r="4" fill="#0" id="circle25"/>
	<circle cx="59.9098" cy="598.242" r="4" fill="#0" id="circle26"/>
	<circle cx="59.9098" cy="614.216" r="4" fill="#0" id="circle27"/>
	<circle cx="66.2995" cy="221.25" r="4" fill="#0" id="circle28"/>
	<circle cx="67.8969" cy="628.593" r="4" fill="#0" id="circle29"/>
	<circle cx="67.8969" cy="644.567" r="4" fill="#0" id="circle30"/>
	<circle cx="67.8969" cy="660.541" r="4" fill="#0" id="circle31"/>
	<circle cx="75.8841" cy="674.918" r="4" fill="#0" id="circle32"/>
	<circle cx="75.8841" cy="690.892" r="4" fill="#0" id="circle33"/>
	<circle cx="75.8841" cy="706.866" r="4" fill="#0" id="circle34"/>
	<circle cx="75.8841" cy="722.841" r="4" fill="#0" id="circle35"/>
	<circle cx="75.8841" cy="738.815" r="4" fill="#0" id="circle36"/>
	<circle cx="75.8841" cy="754.789" r="4" fill="#0" id="circle37"/>
	<circle cx="75.8841" cy="770.763" r="4" fill="#0" id="circle38"/>
	<circle cx="75.8841" cy="786.738" r="4" fill="#0" id="circle39"/>
	<circle cx="77.4815" cy="234.029" r="4" fill="#0" id="circle40"/>
	<circle cx="77.4815" cy="250.003" r="4" fill="#0" id="circle41"/>
	<circle cx="77.4815" cy="265.977" r="4" fill="#0" id="circle42"/>
	<circle cx="77.4815" cy="281.952" r="4" fill="#0" id="circle43"/>
	<circle cx="77.4815" cy="297.926" r="4" fill="#0" id="circle44"/>
	<circle cx="77.4815" cy="313.9" r="4" fill="#0" id="circle45"/>
	<circle cx="77.4815" cy="329.874" r="4" fill="#0" id="circle46"/>
	<circle cx="77.4815" cy="345.849" r="4" fill="#0" id="circle47"/>
	<circle cx="83.8712" cy="801.114" r="4" fill="#0" id="circle48"/>
	<circle cx="85.4686" cy="360.225" r="4" fill="#0" id="circle49"/>
	<circle cx="85.4686" cy="817.089" r="4" fill="#0" id="circle50"/>
	<circle cx="91.8583" cy="951.272" r="4" fill="#0" id="circle51"/>
	<circle cx="93.4557" cy="374.602" r="4" fill="#0" id="circle52"/>
	<circle cx="93.4557" cy="831.465" r="4" fill="#0" id="circle53"/>
	<circle cx="99.8454" cy="847.44" r="4" fill="#0" id="circle54"/>
	<circle cx="99.8454" cy="935.298" r="4" fill="#0" id="circle55"/>
	<circle cx="101.443" cy="388.979" r="4" fill="#0" id="circle56"/>
	<circle cx="101.443" cy="964.052" r="4" fill="#0" id="circle57"/>
	<circle cx="107.833" cy="861.816" r="4" fill="#0" id="circle58"/>
	<circle cx="107.833" cy="877.791" r="4" fill="#0" id="circle59"/>
	<circle cx="107.833" cy="893.765" r="4" fill="#0" id="circle60"/>
	<circle cx="107.833" cy="909.739" r="4" fill="#0" id="circle61"/>
	<circle cx="109.43" cy="403.356" r="4" fill="#0" id="circle62"/>
	<circle cx="109.43" cy="419.33" r="4" fill="#0" id="circle63"/>
	<circle cx="109.43" cy="435.304" r="4" fill="#0" id="circle64"/>
	<circle cx="117.417" cy="449.681" r="4" fill="#0" id="circle65"/>
	<circle cx="117.417" cy="964.052" r="4" fill="#0" id="circle66"/>
	<circle cx="131.794" cy="288.341" r="4" fill="#0" id="circle67"/>
	<circle cx="131.794" cy="304.316" r="4" fill="#0" id="circle68"/>
	<circle cx="131.794" cy="320.29" r="4" fill="#0" id="circle69"/>
	<circle cx="133.391" cy="451.279" r="4" fill="#0" id="circle70"/>
	<circle cx="133.391" cy="967.246" r="4" fill="#0" id="circle71"/>
	<circle cx="139.781" cy="88.6634" r="4" fill="#0" id="circle72"/>
	<circle cx="139.781" cy="104.638" r="4" fill="#0" id="circle73"/>
	<circle cx="139.781" cy="120.612" r="4" fill="#0" id="circle74"/>
	<circle cx="139.781" cy="136.586" r="4" fill="#0" id="circle75"/>
	<circle cx="139.781" cy="152.56" r="4" fill="#0" id="circle76"/>
	<circle cx="139.781" cy="168.535" r="4" fill="#0" id="circle77"/>
	<circle cx="139.781" cy="184.509" r="4" fill="#0" id="circle78"/>
	<circle cx="139.781" cy="200.483" r="4" fill="#0" id="circle79"/>
	<circle cx="139.781" cy="216.457" r="4" fill="#0" id="circle80"/>
	<circle cx="139.781" cy="232.432" r="4" fill="#0" id="circle81"/>
	<circle cx="139.781" cy="248.406" r="4" fill="#0" id="circle82"/>
	<circle cx="139.781" cy="264.38" r="4" fill="#0" id="circle83"/>
	<circle cx="139.781" cy="334.667" r="4" fill="#0" id="circle84"/>
	<circle cx="139.781" cy="350.641" r="4" fill="#0" id="circle85"/>
	<circle cx="139.781" cy="366.615" r="4" fill="#0" id="circle86"/>
	<circle cx="139.781" cy="382.589" r="4" fill="#0" id="circle87"/>
	<circle cx="139.781" cy="398.564" r="4" fill="#0" id="circle88"/>
	<circle cx="139.781" cy="414.538" r="4" fill="#0" id="circle89"/>
	<circle cx="139.781" cy="430.512" r="4" fill="#0" id="circle90"/>
	<circle cx="149.366" cy="972.039" r="4" fill="#0" id="circle91"/>
	<circle cx="152.56" cy="75.8841" r="4" fill="#0" id="circle92"/>
	<circle cx="165.34" cy="63.1047" r="4" fill="#0" id="circle93"/>
	<circle cx="165.34" cy="972.039" r="4" fill="#0" id="circle94"/>
	<circle cx="178.119" cy="51.9227" r="4" fill="#0" id="circle95"/>
	<circle cx="181.314" cy="972.039" r="4" fill="#0" id="circle96"/>
	<circle cx="194.093" cy="53.5201" r="4" fill="#0" id="circle97"/>
	<circle cx="197.288" cy="972.039" r="4" fill="#0" id="circle98"/>
	<circle cx="205.275" cy="66.2995" r="4" fill="#0" id="circle99"/>
	<circle cx="213.262" cy="80.6763" r="4" fill="#0" id="circle100"/>
	<circle cx="213.262" cy="96.6506" r="4" fill="#0" id="circle101"/>
	<circle cx="213.262" cy="112.625" r="4" fill="#0" id="circle102"/>
	<circle cx="213.262" cy="189.301" r="4" fill="#0" id="circle103"/>
	<circle cx="213.262" cy="205.275" r="4" fill="#0" id="circle104"/>
	<circle cx="213.262" cy="221.25" r="4" fill="#0" id="circle105"/>
	<circle cx="213.262" cy="237.224" r="4" fill="#0" id="circle106"/>
	<circle cx="213.262" cy="975.233" r="4" fill="#0" id="circle107"/>
	<circle cx="221.25" cy="127.002" r="4" fill="#0" id="circle108"/>
	<circle cx="221.25" cy="142.976" r="4" fill="#0" id="circle109"/>
	<circle cx="221.25" cy="158.95" r="4" fill="#0" id="circle110"/>
	<circle cx="221.25" cy="174.924" r="4" fill="#0" id="circle111"/>
	<circle cx="221.25" cy="251.601" r="4" fill="#0" id="circle112"/>
	<circle cx="221.25" cy="267.575" r="4" fill="#0" id="circle113"/>
	<circle cx="221.25" cy="283.549" r="4" fill="#0" id="circle114"/>
	<circle cx="229.237" cy="297.926" r="4" fill="#0" id="circle115"/>
	<circle cx="229.237" cy="313.9" r="4" fill="#0" id="circle116"/>
	<circle cx="229.237" cy="980.026" r="4" fill="#0" id="circle117"/>
	<circle cx="237.224" cy="328.277" r="4" fill="#0" id="circle118"/>
	<circle cx="243.614" cy="344.251" r="4" fill="#0" id="circle119"/>
	<circle cx="245.211" cy="980.026" r="4" fill="#0" id="circle120"/>
	<circle cx="251.601" cy="358.628" r="4" fill="#0" id="circle121"/>
	<circle cx="257.99" cy="374.602" r="4" fill="#0" id="circle122"/>
	<circle cx="261.185" cy="980.026" r="4" fill="#0" id="circle123"/>
	<circle cx="267.575" cy="387.382" r="4" fill="#0" id="circle124"/>
	<circle cx="275.562" cy="336.264" r="4" fill="#0" id="circle125"/>
	<circle cx="275.562" cy="352.238" r="4" fill="#0" id="circle126"/>
	<circle cx="275.562" cy="368.213" r="4" fill="#0" id="circle127"/>
	<circle cx="277.159" cy="980.026" r="4" fill="#0" id="circle128"/>
	<circle cx="283.549" cy="240.419" r="4" fill="#0" id="circle129"/>
	<circle cx="283.549" cy="256.393" r="4" fill="#0" id="circle130"/>
	<circle cx="283.549" cy="272.367" r="4" fill="#0" id="circle131"/>
	<circle cx="283.549" cy="288.341" r="4" fill="#0" id="circle132"/>
	<circle cx="283.549" cy="304.316" r="4" fill="#0" id="circle133"/>
	<circle cx="283.549" cy="320.29" r="4" fill="#0" id="circle134"/>
	<circle cx="291.536" cy="216.457" r="4" fill="#0" id="circle135"/>
	<circle cx="293.134" cy="983.221" r="4" fill="#0" id="circle136"/>
	<circle cx="299.523" cy="192.496" r="4" fill="#0" id="circle137"/>
	<circle cx="307.51" cy="168.535" r="4" fill="#0" id="circle138"/>
	<circle cx="309.108" cy="988.013" r="4" fill="#0" id="circle139"/>
	<circle cx="315.498" cy="72.6892" r="4" fill="#0" id="circle140"/>
	<circle cx="315.498" cy="88.6634" r="4" fill="#0" id="circle141"/>
	<circle cx="315.498" cy="104.638" r="4" fill="#0" id="circle142"/>
	<circle cx="315.498" cy="120.612" r="4" fill="#0" id="circle143"/>
	<circle cx="315.498" cy="136.586" r="4" fill="#0" id="circle144"/>
	<circle cx="315.498" cy="152.56" r="4" fill="#0" id="circle145"/>
	<circle cx="323.485" cy="32.7536" r="4" fill="#0" id="circle146"/>
	<circle cx="323.485" cy="48.7279" r="4" fill="#0" id="circle147"/>
	<circle cx="325.082" cy="988.013" r="4" fill="#0" id="circle148"/>
	<circle cx="336.264" cy="19.9742" r="4" fill="#0" id="circle149"/>
	<circle cx="341.056" cy="988.013" r="4" fill="#0" id="circle150"/>
	<circle cx="352.238" cy="11.9871" r="4" fill="#0" id="circle151"/>
	<circle cx="357.031" cy="988.013" r="4" fill="#0" id="circle152"/>
	<circle cx="366.615" cy="4" r="4" fill="#0" id="circle153"/>
	<circle cx="373.005" cy="988.013" r="4" fill="#0" id="circle154"/>
	<circle cx="380.992" cy="237.224" r="4" fill="#0" id="circle155"/>
	<circle cx="380.992" cy="253.198" r="4" fill="#0" id="circle156"/>
	<circle cx="380.992" cy="269.172" r="4" fill="#0" id="circle157"/>
	<circle cx="380.992" cy="285.147" r="4" fill="#0" id="circle158"/>
	<circle cx="380.992" cy="301.121" r="4" fill="#0" id="circle159"/>
	<circle cx="380.992" cy="317.095" r="4" fill="#0" id="circle160"/>
	<circle cx="380.992" cy="333.069" r="4" fill="#0" id="circle161"/>
	<circle cx="380.992" cy="349.043" r="4" fill="#0" id="circle162"/>
	<circle cx="380.992" cy="365.018" r="4" fill="#0" id="circle163"/>
	<circle cx="380.992" cy="380.992" r="4" fill="#0" id="circle164"/>
	<circle cx="382.589" cy="4" r="4" fill="#0" id="circle165"/>
	<circle cx="387.382" cy="996" r="4" fill="#0" id="circle166"/>
	<circle cx="388.979" cy="181.314" r="4" fill="#0" id="circle167"/>
	<circle cx="388.979" cy="197.288" r="4" fill="#0" id="circle168"/>
	<circle cx="388.979" cy="213.262" r="4" fill="#0" id="circle169"/>
	<circle cx="395.369" cy="15.182" r="4" fill="#0" id="circle170"/>
	<circle cx="396.966" cy="149.366" r="4" fill="#0" id="circle171"/>
	<circle cx="396.966" cy="165.34" r="4" fill="#0" id="circle172"/>
	<circle cx="396.966" cy="374.602" r="4" fill="#0" id="circle173"/>
	<circle cx="401.758" cy="31.1562" r="4" fill="#0" id="circle174"/>
	<circle cx="403.356" cy="996" r="4" fill="#0" id="circle175"/>
	<circle cx="404.953" cy="93.4557" r="4" fill="#0" id="circle176"/>
	<circle cx="404.953" cy="109.43" r="4" fill="#0" id="circle177"/>
	<circle cx="404.953" cy="125.404" r="4" fill="#0" id="circle178"/>
	<circle cx="404.953" cy="358.628" r="4" fill="#0" id="circle179"/>
	<circle cx="409.746" cy="45.533" r="4" fill="#0" id="circle180"/>
	<circle cx="411.343" cy="328.277" r="4" fill="#0" id="circle181"/>
	<circle cx="412.94" cy="61.5072" r="4" fill="#0" id="circle182"/>
	<circle cx="412.94" cy="77.4815" r="4" fill="#0" id="circle183"/>
	<circle cx="419.33" cy="280.354" r="4" fill="#0" id="circle184"/>
	<circle cx="419.33" cy="296.329" r="4" fill="#0" id="circle185"/>
	<circle cx="419.33" cy="312.303" r="4" fill="#0" id="circle186"/>
	<circle cx="419.33" cy="991.208" r="4" fill="#0" id="circle187"/>
	<circle cx="427.317" cy="232.432" r="4" fill="#0" id="circle188"/>
	<circle cx="427.317" cy="248.406" r="4" fill="#0" id="circle189"/>
	<circle cx="427.317" cy="264.38" r="4" fill="#0" id="circle190"/>
	<circle cx="432.11" cy="978.428" r="4" fill="#0" id="circle191"/>
	<circle cx="435.304" cy="208.47" r="4" fill="#0" id="circle192"/>
	<circle cx="440.097" cy="964.052" r="4" fill="#0" id="circle193"/>
	<circle cx="443.291" cy="176.522" r="4" fill="#0" id="circle194"/>
	<circle cx="443.291" cy="192.496" r="4" fill="#0" id="circle195"/>
	<circle cx="451.279" cy="96.6506" r="4" fill="#0" id="circle196"/>
	<circle cx="451.279" cy="112.625" r="4" fill="#0" id="circle197"/>
	<circle cx="451.279" cy="128.599" r="4" fill="#0" id="circle198"/>
	<circle cx="451.279" cy="144.573" r="4" fill="#0" id="circle199"/>
	<circle cx="451.279" cy="160.548" r="4" fill="#0" id="circle200"/>
	<circle cx="452.876" cy="948.077" r="4" fill="#0" id="circle201"/>
	<circle cx="459.266" cy="80.6763" r="4" fill="#0" id="circle202"/>
	<circle cx="468.85" cy="940.09" r="4" fill="#0" id="circle203"/>
	<circle cx="472.045" cy="67.8969" r="4" fill="#0" id="circle204"/>
	<circle cx="484.824" cy="55.1176" r="4" fill="#0" id="circle205"/>
	<circle cx="484.824" cy="932.103" r="4" fill="#0" id="circle206"/>
	<circle cx="497.604" cy="43.9356" r="4" fill="#0" id="circle207"/>
	<circle cx="500.799" cy="420.928" r="4" fill="#0" id="circle208"/>
	<circle cx="500.799" cy="436.902" r="4" fill="#0" id="circle209"/>
	<circle cx="500.799" cy="452.876" r="4" fill="#0" id="circle210"/>
	<circle cx="500.799" cy="468.85" r="4" fill="#0" id="circle211"/>
	<circle cx="500.799" cy="916.129" r="4" fill="#0" id="circle212"/>
	<circle cx="503.994" cy="484.824" r="4" fill="#0" id="circle213"/>
	<circle cx="508.786" cy="56.715" r="4" fill="#0" id="circle214"/>
	<circle cx="508.786" cy="373.005" r="4" fill="#0" id="circle215"/>
	<circle cx="508.786" cy="388.979" r="4" fill="#0" id="circle216"/>
	<circle cx="508.786" cy="404.953" r="4" fill="#0" id="circle217"/>
	<circle cx="508.786" cy="500.799" r="4" fill="#0" id="circle218"/>
	<circle cx="508.786" cy="516.773" r="4" fill="#0" id="circle219"/>
	<circle cx="508.786" cy="532.747" r="4" fill="#0" id="circle220"/>
	<circle cx="508.786" cy="548.721" r="4" fill="#0" id="circle221"/>
	<circle cx="513.578" cy="904.947" r="4" fill="#0" id="circle222"/>
	<circle cx="515.176" cy="72.6892" r="4" fill="#0" id="circle223"/>
	<circle cx="516.773" cy="88.6634" r="4" fill="#0" id="circle224"/>
	<circle cx="516.773" cy="269.172" r="4" fill="#0" id="circle225"/>
	<circle cx="516.773" cy="285.147" r="4" fill="#0" id="circle226"/>
	<circle cx="516.773" cy="301.121" r="4" fill="#0" id="circle227"/>
	<circle cx="516.773" cy="317.095" r="4" fill="#0" id="circle228"/>
	<circle cx="516.773" cy="333.069" r="4" fill="#0" id="circle229"/>
	<circle cx="516.773" cy="349.043" r="4" fill="#0" id="circle230"/>
	<circle cx="516.773" cy="563.098" r="4" fill="#0" id="circle231"/>
	<circle cx="516.773" cy="579.072" r="4" fill="#0" id="circle232"/>
	<circle cx="516.773" cy="595.047" r="4" fill="#0" id="circle233"/>
	<circle cx="516.773" cy="611.021" r="4" fill="#0" id="circle234"/>
	<circle cx="516.773" cy="626.995" r="4" fill="#0" id="circle235"/>
	<circle cx="521.565" cy="888.973" r="4" fill="#0" id="circle236"/>
	<circle cx="523.163" cy="104.638" r="4" fill="#0" id="circle237"/>
	<circle cx="524.76" cy="189.301" r="4" fill="#0" id="circle238"/>
	<circle cx="524.76" cy="205.275" r="4" fill="#0" id="circle239"/>
	<circle cx="524.76" cy="221.25" r="4" fill="#0" id="circle240"/>
	<circle cx="524.76" cy="237.224" r="4" fill="#0" id="circle241"/>
	<circle cx="524.76" cy="253.198" r="4" fill="#0" id="circle242"/>
	<circle cx="524.76" cy="641.372" r="4" fill="#0" id="circle243"/>
	<circle cx="531.15" cy="119.014" r="4" fill="#0" id="circle244"/>
	<circle cx="532.747" cy="134.989" r="4" fill="#0" id="circle245"/>
	<circle cx="532.747" cy="150.963" r="4" fill="#0" id="circle246"/>
	<circle cx="532.747" cy="166.937" r="4" fill="#0" id="circle247"/>
	<circle cx="532.747" cy="868.206" r="4" fill="#0" id="circle248"/>
	<circle cx="539.137" cy="631.787" r="4" fill="#0" id="circle249"/>
	<circle cx="545.527" cy="857.024" r="4" fill="#0" id="circle250"/>
	<circle cx="553.514" cy="841.05" r="4" fill="#0" id="circle251"/>
	<circle cx="555.111" cy="607.826" r="4" fill="#0" id="circle252"/>
	<circle cx="555.111" cy="623.8" r="4" fill="#0" id="circle253"/>
	<circle cx="561.501" cy="825.076" r="4" fill="#0" id="circle254"/>
	<circle cx="563.098" cy="591.852" r="4" fill="#0" id="circle255"/>
	<circle cx="572.683" cy="812.296" r="4" fill="#0" id="circle256"/>
	<circle cx="575.878" cy="579.072" r="4" fill="#0" id="circle257"/>
	<circle cx="579.072" cy="551.916" r="4" fill="#0" id="circle258"/>
	<circle cx="580.67" cy="796.322" r="4" fill="#0" id="circle259"/>
	<circle cx="587.06" cy="488.019" r="4" fill="#0" id="circle260"/>
	<circle cx="587.06" cy="503.994" r="4" fill="#0" id="circle261"/>
	<circle cx="587.06" cy="519.968" r="4" fill="#0" id="circle262"/>
	<circle cx="587.06" cy="535.942" r="4" fill="#0" id="circle263"/>
	<circle cx="593.449" cy="785.14" r="4" fill="#0" id="circle264"/>
	<circle cx="595.047" cy="464.058" r="4" fill="#0" id="circle265"/>
	<circle cx="604.631" cy="772.361" r="4" fill="#0" id="circle266"/>
	<circle cx="607.826" cy="451.279" r="4" fill="#0" id="circle267"/>
	<circle cx="615.813" cy="435.304" r="4" fill="#0" id="circle268"/>
	<circle cx="617.411" cy="761.179" r="4" fill="#0" id="circle269"/>
	<circle cx="620.605" cy="740.412" r="4" fill="#0" id="circle270"/>
	<circle cx="623.8" cy="419.33" r="4" fill="#0" id="circle271"/>
	<circle cx="628.593" cy="716.451" r="4" fill="#0" id="circle272"/>
	<circle cx="636.58" cy="692.49" r="4" fill="#0" id="circle273"/>
	<circle cx="639.775" cy="419.33" r="4" fill="#0" id="circle274"/>
	<circle cx="644.567" cy="668.528" r="4" fill="#0" id="circle275"/>
	<circle cx="652.554" cy="406.551" r="4" fill="#0" id="circle276"/>
	<circle cx="652.554" cy="636.58" r="4" fill="#0" id="circle277"/>
	<circle cx="652.554" cy="652.554" r="4" fill="#0" id="circle278"/>
	<circle cx="662.138" cy="419.33" r="4" fill="#0" id="circle279"/>
	<circle cx="665.333" cy="625.398" r="4" fill="#0" id="circle280"/>
	<circle cx="668.528" cy="435.304" r="4" fill="#0" id="circle281"/>
	<circle cx="673.32" cy="609.424" r="4" fill="#0" id="circle282"/>
	<circle cx="676.515" cy="449.681" r="4" fill="#0" id="circle283"/>
	<circle cx="676.515" cy="465.655" r="4" fill="#0" id="circle284"/>
	<circle cx="676.515" cy="481.63" r="4" fill="#0" id="circle285"/>
	<circle cx="676.515" cy="497.604" r="4" fill="#0" id="circle286"/>
	<circle cx="676.515" cy="513.578" r="4" fill="#0" id="circle287"/>
	<circle cx="676.515" cy="529.552" r="4" fill="#0" id="circle288"/>
	<circle cx="676.515" cy="545.527" r="4" fill="#0" id="circle289"/>
	<circle cx="681.308" cy="593.449" r="4" fill="#0" id="circle290"/>
	<circle cx="684.502" cy="559.903" r="4" fill="#0" id="circle291"/>
	<circle cx="684.502" cy="575.878" r="4" fill="#0" id="circle292"/>
	</g>
</svg>