<?xml version="1.0" encoding="UTF-8" standalone="no"?>
<!-- Created with CurveBenchmark -->
<svg
	xmlns:dc="http://purl.org/dc/elements/1.1/"
	xmlns:cc="http://creativecommons.org/ns#"
	xmlns:rdf="http://www.w3.org/1999/02/22-rdf-syntax-ns#"
	xmlns:svg="http://www.w3.org/2000/svg"
	xmlns="http://www.w3.org/2000/svg"
	xmlns:sodipodi="http://sodipodi.sourceforge.net/DTD/sodipodi-0.dtd"
	xmlns:inkscape="http://www.inkscape.org/namespaces/inkscape"
	width="1000"
	height="1000"
	id="svg2"
	version="1.1"
	sodipodi:docname="manifold/crawl-apple-6.png.txt">
<defs
	id="defs4" />
<metadata
	id="metadata7">
	<rdf:RDF>
		<cc:Work
			rdf:about="">
			<dc:format>image/svg+xml</dc:format>
			<dc:type
				rdf:resource="http://purl.org/dc/dcmitype/StillImage" />
			<dc:title></dc:title>
		</cc:Work>
	</rdf:RDF>
</metadata>
<g
	inkscape:label="Layer 1"
	inkscape:groupmode="layer"
	id="layer1">
	<path style="fill:none;stroke:red;stroke-width:1px;stroke-linecap:butt;stroke-linejoin:miter;stroke-opacity:1" d="M 8.58834,516.059 8.58834,506.883 z" id="boundary" inkscape:connector-curvature="0" />
	<path style="fill:none;stroke:red;stroke-width:1px;stroke-linecap:butt;stroke-linejoin:miter;stroke-opacity:1" d="M 8.58834,506.883 8.58834,497.706 z" id="boundary" inkscape:connector-curvature="0" />
	<path style="fill:none;stroke:red;stroke-width:1px;stroke-linecap:butt;stroke-linejoin:miter;stroke-opacity:1" d="M 8.58834,497.706 13.1767,483.941 z" id="boundary" inkscape:connector-curvature="0" />
	<path style="fill:none;stroke:red;stroke-width:1px;stroke-linecap:butt;stroke-linejoin:miter;stroke-opacity:1" d="M 13.1767,483.941 13.1767,474.764 z" id="boundary" inkscape:connector-curvature="0" />
	<path style="fill:none;stroke:red;stroke-width:1px;stroke-linecap:butt;stroke-linejoin:miter;stroke-opacity:1" d="M 13.1767,474.764 17.765,465.587 z" id="boundary" inkscape:connector-curvature="0" />
	<path style="fill:none;stroke:red;stroke-width:1px;stroke-linecap:butt;stroke-linejoin:miter;stroke-opacity:1" d="M 17.765,465.587 17.765,456.411 z" id="boundary" inkscape:connector-curvature="0" />
	<path style="fill:none;stroke:red;stroke-width:1px;stroke-linecap:butt;stroke-linejoin:miter;stroke-opacity:1" d="M 17.765,456.411 22.3534,442.646 z" id="boundary" inkscape:connector-curvature="0" />
	<path style="fill:none;stroke:red;stroke-width:1px;stroke-linecap:butt;stroke-linejoin:miter;stroke-opacity:1" d="M 22.3534,442.646 26.9417,428.881 z" id="boundary" inkscape:connector-curvature="0" />
	<path style="fill:none;stroke:red;stroke-width:1px;stroke-linecap:butt;stroke-linejoin:miter;stroke-opacity:1" d="M 26.9417,428.881 31.5301,415.116 z" id="boundary" inkscape:connector-curvature="0" />
	<path style="fill:none;stroke:red;stroke-width:1px;stroke-linecap:butt;stroke-linejoin:miter;stroke-opacity:1" d="M 31.5301,415.116 36.1184,405.939 z" id="boundary" inkscape:connector-curvature="0" />
	<path style="fill:none;stroke:red;stroke-width:1px;stroke-linecap:butt;stroke-linejoin:miter;stroke-opacity:1" d="M 36.1184,405.939 40.7068,396.762 z" id="boundary" inkscape:connector-curvature="0" />
	<path style="fill:none;stroke:red;stroke-width:1px;stroke-linecap:butt;stroke-linejoin:miter;stroke-opacity:1" d="M 40.7068,396.762 45.2951,387.586 z" id="boundary" inkscape:connector-curvature="0" />
	<path style="fill:none;stroke:red;stroke-width:1px;stroke-linecap:butt;stroke-linejoin:miter;stroke-opacity:1" d="M 45.2951,387.586 49.8834,378.409 z" id="boundary" inkscape:connector-curvature="0" />
	<path style="fill:none;stroke:red;stroke-width:1px;stroke-linecap:butt;stroke-linejoin:miter;stroke-opacity:1" d="M 49.8834,378.409 54.4718,369.232 z" id="boundary" inkscape:connector-curvature="0" />
	<path style="fill:none;stroke:red;stroke-width:1px;stroke-linecap:butt;stroke-linejoin:miter;stroke-opacity:1" d="M 54.4718,369.232 59.0601,360.056 z" id="boundary" inkscape:connector-curvature="0" />
	<path style="fill:none;stroke:red;stroke-width:1px;stroke-linecap:butt;stroke-linejoin:miter;stroke-opacity:1" d="M 59.0601,360.056 63.6485,350.879 z" id="boundary" inkscape:connector-curvature="0" />
	<path style="fill:none;stroke:red;stroke-width:1px;stroke-linecap:butt;stroke-linejoin:miter;stroke-opacity:1" d="M 63.6485,350.879 70.9898,343.537 z" id="boundary" inkscape:connector-curvature="0" />
	<path style="fill:none;stroke:red;stroke-width:1px;stroke-linecap:butt;stroke-linejoin:miter;stroke-opacity:1" d="M 70.9898,343.537 75.5782,334.361 z" id="boundary" inkscape:connector-curvature="0" />
	<path style="fill:none;stroke:red;stroke-width:1px;stroke-linecap:butt;stroke-linejoin:miter;stroke-opacity:1" d="M 75.5782,334.361 82.0019,323.349 z" id="boundary" inkscape:connector-curvature="0" />
	<path style="fill:none;stroke:red;stroke-width:1px;stroke-linecap:butt;stroke-linejoin:miter;stroke-opacity:1" d="M 82.0019,323.349 89.3432,316.007 z" id="boundary" inkscape:connector-curvature="0" />
	<path style="fill:none;stroke:red;stroke-width:1px;stroke-linecap:butt;stroke-linejoin:miter;stroke-opacity:1" d="M 89.3432,316.007 95.7669,304.995 z" id="boundary" inkscape:connector-curvature="0" />
	<path style="fill:none;stroke:red;stroke-width:1px;stroke-linecap:butt;stroke-linejoin:miter;stroke-opacity:1" d="M 95.7669,304.995 103.108,297.654 z" id="boundary" inkscape:connector-curvature="0" />
	<path style="fill:none;stroke:red;stroke-width:1px;stroke-linecap:butt;stroke-linejoin:miter;stroke-opacity:1" d="M 103.108,297.654 110.45,290.313 z" id="boundary" inkscape:connector-curvature="0" />
	<path style="fill:none;stroke:red;stroke-width:1px;stroke-linecap:butt;stroke-linejoin:miter;stroke-opacity:1" d="M 110.45,290.313 117.791,283.889 z" id="boundary" inkscape:connector-curvature="0" />
	<path style="fill:none;stroke:red;stroke-width:1px;stroke-linecap:butt;stroke-linejoin:miter;stroke-opacity:1" d="M 117.791,283.889 124.215,276.548 z" id="boundary" inkscape:connector-curvature="0" />
	<path style="fill:none;stroke:red;stroke-width:1px;stroke-linecap:butt;stroke-linejoin:miter;stroke-opacity:1" d="M 124.215,276.548 131.556,270.124 z" id="boundary" inkscape:connector-curvature="0" />
	<path style="fill:none;stroke:red;stroke-width:1px;stroke-linecap:butt;stroke-linejoin:miter;stroke-opacity:1" d="M 131.556,270.124 137.98,262.783 z" id="boundary" inkscape:connector-curvature="0" />
	<path style="fill:none;stroke:red;stroke-width:1px;stroke-linecap:butt;stroke-linejoin:miter;stroke-opacity:1" d="M 137.98,262.783 145.321,256.359 z" id="boundary" inkscape:connector-curvature="0" />
	<path style="fill:none;stroke:red;stroke-width:1px;stroke-linecap:butt;stroke-linejoin:miter;stroke-opacity:1" d="M 145.321,256.359 151.745,249.018 z" id="boundary" inkscape:connector-curvature="0" />
	<path style="fill:none;stroke:red;stroke-width:1px;stroke-linecap:butt;stroke-linejoin:miter;stroke-opacity:1" d="M 151.745,249.018 159.086,242.594 z" id="boundary" inkscape:connector-curvature="0" />
	<path style="fill:none;stroke:red;stroke-width:1px;stroke-linecap:butt;stroke-linejoin:miter;stroke-opacity:1" d="M 159.086,242.594 167.345,238.006 z" id="boundary" inkscape:connector-curvature="0" />
	<path style="fill:none;stroke:red;stroke-width:1px;stroke-linecap:butt;stroke-linejoin:miter;stroke-opacity:1" d="M 167.345,238.006 174.686,230.664 z" id="boundary" inkscape:connector-curvature="0" />
	<path style="fill:none;stroke:red;stroke-width:1px;stroke-linecap:butt;stroke-linejoin:miter;stroke-opacity:1" d="M 174.686,230.664 182.028,224.241 z" id="boundary" inkscape:connector-curvature="0" />
	<path style="fill:none;stroke:red;stroke-width:1px;stroke-linecap:butt;stroke-linejoin:miter;stroke-opacity:1" d="M 182.028,224.241 190.287,219.652 z" id="boundary" inkscape:connector-curvature="0" />
	<path style="fill:none;stroke:red;stroke-width:1px;stroke-linecap:butt;stroke-linejoin:miter;stroke-opacity:1" d="M 190.287,219.652 198.546,215.064 z" id="boundary" inkscape:connector-curvature="0" />
	<path style="fill:none;stroke:red;stroke-width:1px;stroke-linecap:butt;stroke-linejoin:miter;stroke-opacity:1" d="M 198.546,215.064 205.887,208.64 z" id="boundary" inkscape:connector-curvature="0" />
	<path style="fill:none;stroke:red;stroke-width:1px;stroke-linecap:butt;stroke-linejoin:miter;stroke-opacity:1" d="M 205.887,208.64 215.064,204.052 z" id="boundary" inkscape:connector-curvature="0" />
	<path style="fill:none;stroke:red;stroke-width:1px;stroke-linecap:butt;stroke-linejoin:miter;stroke-opacity:1" d="M 215.064,204.052 224.241,199.463 z" id="boundary" inkscape:connector-curvature="0" />
	<path style="fill:none;stroke:red;stroke-width:1px;stroke-linecap:butt;stroke-linejoin:miter;stroke-opacity:1" d="M 224.241,199.463 233.417,194.875 z" id="boundary" inkscape:connector-curvature="0" />
	<path style="fill:none;stroke:red;stroke-width:1px;stroke-linecap:butt;stroke-linejoin:miter;stroke-opacity:1" d="M 233.417,194.875 242.594,190.287 z" id="boundary" inkscape:connector-curvature="0" />
	<path style="fill:none;stroke:red;stroke-width:1px;stroke-linecap:butt;stroke-linejoin:miter;stroke-opacity:1" d="M 242.594,190.287 251.771,185.698 z" id="boundary" inkscape:connector-curvature="0" />
	<path style="fill:none;stroke:red;stroke-width:1px;stroke-linecap:butt;stroke-linejoin:miter;stroke-opacity:1" d="M 251.771,185.698 260.947,181.11 z" id="boundary" inkscape:connector-curvature="0" />
	<path style="fill:none;stroke:red;stroke-width:1px;stroke-linecap:butt;stroke-linejoin:miter;stroke-opacity:1" d="M 260.947,181.11 270.124,176.522 z" id="boundary" inkscape:connector-curvature="0" />
	<path style="fill:none;stroke:red;stroke-width:1px;stroke-linecap:butt;stroke-linejoin:miter;stroke-opacity:1" d="M 270.124,176.522 279.301,173.769 z" id="boundary" inkscape:connector-curvature="0" />
	<path style="fill:none;stroke:red;stroke-width:1px;stroke-linecap:butt;stroke-linejoin:miter;stroke-opacity:1" d="M 279.301,173.769 287.56,169.18 z" id="boundary" inkscape:connector-curvature="0" />
	<path style="fill:none;stroke:red;stroke-width:1px;stroke-linecap:butt;stroke-linejoin:miter;stroke-opacity:1" d="M 287.56,169.18 296.736,169.18 z" id="boundary" inkscape:connector-curvature="0" />
	<path style="fill:none;stroke:red;stroke-width:1px;stroke-linecap:butt;stroke-linejoin:miter;stroke-opacity:1" d="M 296.736,169.18 304.995,164.592 z" id="boundary" inkscape:connector-curvature="0" />
	<path style="fill:none;stroke:red;stroke-width:1px;stroke-linecap:butt;stroke-linejoin:miter;stroke-opacity:1" d="M 304.995,164.592 314.172,160.004 z" id="boundary" inkscape:connector-curvature="0" />
	<path style="fill:none;stroke:red;stroke-width:1px;stroke-linecap:butt;stroke-linejoin:miter;stroke-opacity:1" d="M 314.172,160.004 323.349,160.004 z" id="boundary" inkscape:connector-curvature="0" />
	<path style="fill:none;stroke:red;stroke-width:1px;stroke-linecap:butt;stroke-linejoin:miter;stroke-opacity:1" d="M 323.349,160.004 332.525,155.415 z" id="boundary" inkscape:connector-curvature="0" />
	<path style="fill:none;stroke:red;stroke-width:1px;stroke-linecap:butt;stroke-linejoin:miter;stroke-opacity:1" d="M 332.525,155.415 341.702,155.415 z" id="boundary" inkscape:connector-curvature="0" />
	<path style="fill:none;stroke:red;stroke-width:1px;stroke-linecap:butt;stroke-linejoin:miter;stroke-opacity:1" d="M 341.702,155.415 350.879,155.415 z" id="boundary" inkscape:connector-curvature="0" />
	<path style="fill:none;stroke:red;stroke-width:1px;stroke-linecap:butt;stroke-linejoin:miter;stroke-opacity:1" d="M 350.879,155.415 359.138,150.827 z" id="boundary" inkscape:connector-curvature="0" />
	<path style="fill:none;stroke:red;stroke-width:1px;stroke-linecap:butt;stroke-linejoin:miter;stroke-opacity:1" d="M 359.138,150.827 368.315,150.827 z" id="boundary" inkscape:connector-curvature="0" />
	<path style="fill:none;stroke:red;stroke-width:1px;stroke-linecap:butt;stroke-linejoin:miter;stroke-opacity:1" d="M 368.315,150.827 377.491,150.827 z" id="boundary" inkscape:connector-curvature="0" />
	<path style="fill:none;stroke:red;stroke-width:1px;stroke-linecap:butt;stroke-linejoin:miter;stroke-opacity:1" d="M 377.491,150.827 386.668,147.156 z" id="boundary" inkscape:connector-curvature="0" />
	<path style="fill:none;stroke:red;stroke-width:1px;stroke-linecap:butt;stroke-linejoin:miter;stroke-opacity:1" d="M 386.668,147.156 395.845,146.239 z" id="boundary" inkscape:connector-curvature="0" />
	<path style="fill:none;stroke:red;stroke-width:1px;stroke-linecap:butt;stroke-linejoin:miter;stroke-opacity:1" d="M 395.845,146.239 405.021,146.239 z" id="boundary" inkscape:connector-curvature="0" />
	<path style="fill:none;stroke:red;stroke-width:1px;stroke-linecap:butt;stroke-linejoin:miter;stroke-opacity:1" d="M 405.021,146.239 414.198,146.239 z" id="boundary" inkscape:connector-curvature="0" />
	<path style="fill:none;stroke:red;stroke-width:1px;stroke-linecap:butt;stroke-linejoin:miter;stroke-opacity:1" d="M 414.198,146.239 423.375,146.239 z" id="boundary" inkscape:connector-curvature="0" />
	<path style="fill:none;stroke:red;stroke-width:1px;stroke-linecap:butt;stroke-linejoin:miter;stroke-opacity:1" d="M 423.375,146.239 432.551,146.239 z" id="boundary" inkscape:connector-curvature="0" />
	<path style="fill:none;stroke:red;stroke-width:1px;stroke-linecap:butt;stroke-linejoin:miter;stroke-opacity:1" d="M 432.551,146.239 441.728,146.239 z" id="boundary" inkscape:connector-curvature="0" />
	<path style="fill:none;stroke:red;stroke-width:1px;stroke-linecap:butt;stroke-linejoin:miter;stroke-opacity:1" d="M 441.728,146.239 450.905,146.239 z" id="boundary" inkscape:connector-curvature="0" />
	<path style="fill:none;stroke:red;stroke-width:1px;stroke-linecap:butt;stroke-linejoin:miter;stroke-opacity:1" d="M 450.905,146.239 460.081,146.239 z" id="boundary" inkscape:connector-curvature="0" />
	<path style="fill:none;stroke:red;stroke-width:1px;stroke-linecap:butt;stroke-linejoin:miter;stroke-opacity:1" d="M 460.081,146.239 469.258,146.239 z" id="boundary" inkscape:connector-curvature="0" />
	<path style="fill:none;stroke:red;stroke-width:1px;stroke-linecap:butt;stroke-linejoin:miter;stroke-opacity:1" d="M 469.258,146.239 473.846,137.98 z" id="boundary" inkscape:connector-curvature="0" />
	<path style="fill:none;stroke:red;stroke-width:1px;stroke-linecap:butt;stroke-linejoin:miter;stroke-opacity:1" d="M 473.846,137.98 476.599,127.885 z" id="boundary" inkscape:connector-curvature="0" />
	<path style="fill:none;stroke:red;stroke-width:1px;stroke-linecap:butt;stroke-linejoin:miter;stroke-opacity:1" d="M 476.599,127.885 473.846,118.709 z" id="boundary" inkscape:connector-curvature="0" />
	<path style="fill:none;stroke:red;stroke-width:1px;stroke-linecap:butt;stroke-linejoin:miter;stroke-opacity:1" d="M 473.846,118.709 472.011,109.532 z" id="boundary" inkscape:connector-curvature="0" />
	<path style="fill:none;stroke:red;stroke-width:1px;stroke-linecap:butt;stroke-linejoin:miter;stroke-opacity:1" d="M 472.011,109.532 470.176,100.355 z" id="boundary" inkscape:connector-curvature="0" />
	<path style="fill:none;stroke:red;stroke-width:1px;stroke-linecap:butt;stroke-linejoin:miter;stroke-opacity:1" d="M 470.176,100.355 465.587,92.0962 z" id="boundary" inkscape:connector-curvature="0" />
	<path style="fill:none;stroke:red;stroke-width:1px;stroke-linecap:butt;stroke-linejoin:miter;stroke-opacity:1" d="M 465.587,92.0962 461.917,82.9195 z" id="boundary" inkscape:connector-curvature="0" />
	<path style="fill:none;stroke:red;stroke-width:1px;stroke-linecap:butt;stroke-linejoin:miter;stroke-opacity:1" d="M 461.917,82.9195 454.575,76.4958 z" id="boundary" inkscape:connector-curvature="0" />
	<path style="fill:none;stroke:red;stroke-width:1px;stroke-linecap:butt;stroke-linejoin:miter;stroke-opacity:1" d="M 454.575,76.4958 449.069,69.1545 z" id="boundary" inkscape:connector-curvature="0" />
	<path style="fill:none;stroke:red;stroke-width:1px;stroke-linecap:butt;stroke-linejoin:miter;stroke-opacity:1" d="M 449.069,69.1545 441.728,63.6485 z" id="boundary" inkscape:connector-curvature="0" />
	<path style="fill:none;stroke:red;stroke-width:1px;stroke-linecap:butt;stroke-linejoin:miter;stroke-opacity:1" d="M 441.728,63.6485 435.304,56.3071 z" id="boundary" inkscape:connector-curvature="0" />
	<path style="fill:none;stroke:red;stroke-width:1px;stroke-linecap:butt;stroke-linejoin:miter;stroke-opacity:1" d="M 435.304,56.3071 430.716,48.0481 z" id="boundary" inkscape:connector-curvature="0" />
	<path style="fill:none;stroke:red;stroke-width:1px;stroke-linecap:butt;stroke-linejoin:miter;stroke-opacity:1" d="M 430.716,48.0481 439.893,43.4598 z" id="boundary" inkscape:connector-curvature="0" />
	<path style="fill:none;stroke:red;stroke-width:1px;stroke-linecap:butt;stroke-linejoin:miter;stroke-opacity:1" d="M 439.893,43.4598 447.234,36.1184 z" id="boundary" inkscape:connector-curvature="0" />
	<path style="fill:none;stroke:red;stroke-width:1px;stroke-linecap:butt;stroke-linejoin:miter;stroke-opacity:1" d="M 447.234,36.1184 456.411,36.1184 z" id="boundary" inkscape:connector-curvature="0" />
	<path style="fill:none;stroke:red;stroke-width:1px;stroke-linecap:butt;stroke-linejoin:miter;stroke-opacity:1" d="M 456.411,36.1184 462.834,43.4598 z" id="boundary" inkscape:connector-curvature="0" />
	<path style="fill:none;stroke:red;stroke-width:1px;stroke-linecap:butt;stroke-linejoin:miter;stroke-opacity:1" d="M 462.834,43.4598 470.176,49.8834 z" id="boundary" inkscape:connector-curvature="0" />
	<path style="fill:none;stroke:red;stroke-width:1px;stroke-linecap:butt;stroke-linejoin:miter;stroke-opacity:1" d="M 470.176,49.8834 476.599,57.2248 z" id="boundary" inkscape:connector-curvature="0" />
	<path style="fill:none;stroke:red;stroke-width:1px;stroke-linecap:butt;stroke-linejoin:miter;stroke-opacity:1" d="M 476.599,57.2248 483.941,63.6485 z" id="boundary" inkscape:connector-curvature="0" />
	<path style="fill:none;stroke:red;stroke-width:1px;stroke-linecap:butt;stroke-linejoin:miter;stroke-opacity:1" d="M 483.941,63.6485 486.694,72.8252 z" id="boundary" inkscape:connector-curvature="0" />
	<path style="fill:none;stroke:red;stroke-width:1px;stroke-linecap:butt;stroke-linejoin:miter;stroke-opacity:1" d="M 486.694,72.8252 491.282,81.0842 z" id="boundary" inkscape:connector-curvature="0" />
	<path style="fill:none;stroke:red;stroke-width:1px;stroke-linecap:butt;stroke-linejoin:miter;stroke-opacity:1" d="M 491.282,81.0842 495.87,89.3432 z" id="boundary" inkscape:connector-curvature="0" />
	<path style="fill:none;stroke:red;stroke-width:1px;stroke-linecap:butt;stroke-linejoin:miter;stroke-opacity:1" d="M 495.87,89.3432 503.212,95.7669 z" id="boundary" inkscape:connector-curvature="0" />
	<path style="fill:none;stroke:red;stroke-width:1px;stroke-linecap:butt;stroke-linejoin:miter;stroke-opacity:1" d="M 503.212,95.7669 509.636,88.4255 z" id="boundary" inkscape:connector-curvature="0" />
	<path style="fill:none;stroke:red;stroke-width:1px;stroke-linecap:butt;stroke-linejoin:miter;stroke-opacity:1" d="M 509.636,88.4255 516.977,82.0019 z" id="boundary" inkscape:connector-curvature="0" />
	<path style="fill:none;stroke:red;stroke-width:1px;stroke-linecap:butt;stroke-linejoin:miter;stroke-opacity:1" d="M 516.977,82.0019 520.648,72.8252 z" id="boundary" inkscape:connector-curvature="0" />
	<path style="fill:none;stroke:red;stroke-width:1px;stroke-linecap:butt;stroke-linejoin:miter;stroke-opacity:1" d="M 520.648,72.8252 527.989,65.4838 z" id="boundary" inkscape:connector-curvature="0" />
	<path style="fill:none;stroke:red;stroke-width:1px;stroke-linecap:butt;stroke-linejoin:miter;stroke-opacity:1" d="M 527.989,65.4838 537.166,60.8955 z" id="boundary" inkscape:connector-curvature="0" />
	<path style="fill:none;stroke:red;stroke-width:1px;stroke-linecap:butt;stroke-linejoin:miter;stroke-opacity:1" d="M 537.166,60.8955 544.507,54.4718 z" id="boundary" inkscape:connector-curvature="0" />
	<path style="fill:none;stroke:red;stroke-width:1px;stroke-linecap:butt;stroke-linejoin:miter;stroke-opacity:1" d="M 544.507,54.4718 550.931,47.1304 z" id="boundary" inkscape:connector-curvature="0" />
	<path style="fill:none;stroke:red;stroke-width:1px;stroke-linecap:butt;stroke-linejoin:miter;stroke-opacity:1" d="M 550.931,47.1304 558.272,40.7068 z" id="boundary" inkscape:connector-curvature="0" />
	<path style="fill:none;stroke:red;stroke-width:1px;stroke-linecap:butt;stroke-linejoin:miter;stroke-opacity:1" d="M 558.272,40.7068 564.696,33.3654 z" id="boundary" inkscape:connector-curvature="0" />
	<path style="fill:none;stroke:red;stroke-width:1px;stroke-linecap:butt;stroke-linejoin:miter;stroke-opacity:1" d="M 564.696,33.3654 572.037,26.9417 z" id="boundary" inkscape:connector-curvature="0" />
	<path style="fill:none;stroke:red;stroke-width:1px;stroke-linecap:butt;stroke-linejoin:miter;stroke-opacity:1" d="M 572.037,26.9417 580.296,22.3534 z" id="boundary" inkscape:connector-curvature="0" />
	<path style="fill:none;stroke:red;stroke-width:1px;stroke-linecap:butt;stroke-linejoin:miter;stroke-opacity:1" d="M 580.296,22.3534 589.473,22.3534 z" id="boundary" inkscape:connector-curvature="0" />
	<path style="fill:none;stroke:red;stroke-width:1px;stroke-linecap:butt;stroke-linejoin:miter;stroke-opacity:1" d="M 589.473,22.3534 597.732,17.765 z" id="boundary" inkscape:connector-curvature="0" />
	<path style="fill:none;stroke:red;stroke-width:1px;stroke-linecap:butt;stroke-linejoin:miter;stroke-opacity:1" d="M 597.732,17.765 605.991,13.1767 z" id="boundary" inkscape:connector-curvature="0" />
	<path style="fill:none;stroke:red;stroke-width:1px;stroke-linecap:butt;stroke-linejoin:miter;stroke-opacity:1" d="M 605.991,13.1767 614.25,8.58834 z" id="boundary" inkscape:connector-curvature="0" />
	<path style="fill:none;stroke:red;stroke-width:1px;stroke-linecap:butt;stroke-linejoin:miter;stroke-opacity:1" d="M 614.25,8.58834 623.426,6.75301 z" id="boundary" inkscape:connector-curvature="0" />
	<path style="fill:none;stroke:red;stroke-width:1px;stroke-linecap:butt;stroke-linejoin:miter;stroke-opacity:1" d="M 623.426,6.75301 632.603,4 z" id="boundary" inkscape:connector-curvature="0" />
	<path style="fill:none;stroke:red;stroke-width:1px;stroke-linecap:butt;stroke-linejoin:miter;stroke-opacity:1" d="M 632.603,4 641.78,4 z" id="boundary" inkscape:connector-curvature="0" />
	<path style="fill:none;stroke:red;stroke-width:1px;stroke-linecap:butt;stroke-linejoin:miter;stroke-opacity:1" d="M 641.78,4 650.957,4 z" id="boundary" inkscape:connector-curvature="0" />
	<path style="fill:none;stroke:red;stroke-width:1px;stroke-linecap:butt;stroke-linejoin:miter;stroke-opacity:1" d="M 650.957,4 660.133,5.83534 z" id="boundary" inkscape:connector-curvature="0" />
	<path style="fill:none;stroke:red;stroke-width:1px;stroke-linecap:butt;stroke-linejoin:miter;stroke-opacity:1" d="M 660.133,5.83534 665.639,13.1767 z" id="boundary" inkscape:connector-curvature="0" />
	<path style="fill:none;stroke:red;stroke-width:1px;stroke-linecap:butt;stroke-linejoin:miter;stroke-opacity:1" d="M 665.639,13.1767 672.981,18.6827 z" id="boundary" inkscape:connector-curvature="0" />
	<path style="fill:none;stroke:red;stroke-width:1px;stroke-linecap:butt;stroke-linejoin:miter;stroke-opacity:1" d="M 672.981,18.6827 676.651,27.8594 z" id="boundary" inkscape:connector-curvature="0" />
	<path style="fill:none;stroke:red;stroke-width:1px;stroke-linecap:butt;stroke-linejoin:miter;stroke-opacity:1" d="M 676.651,27.8594 677.569,39.7891 z" id="boundary" inkscape:connector-curvature="0" />
	<path style="fill:none;stroke:red;stroke-width:1px;stroke-linecap:butt;stroke-linejoin:miter;stroke-opacity:1" d="M 677.569,39.7891 670.228,46.2128 z" id="boundary" inkscape:connector-curvature="0" />
	<path style="fill:none;stroke:red;stroke-width:1px;stroke-linecap:butt;stroke-linejoin:miter;stroke-opacity:1" d="M 670.228,46.2128 663.804,53.5541 z" id="boundary" inkscape:connector-curvature="0" />
	<path style="fill:none;stroke:red;stroke-width:1px;stroke-linecap:butt;stroke-linejoin:miter;stroke-opacity:1" d="M 663.804,53.5541 656.463,59.9778 z" id="boundary" inkscape:connector-curvature="0" />
	<path style="fill:none;stroke:red;stroke-width:1px;stroke-linecap:butt;stroke-linejoin:miter;stroke-opacity:1" d="M 656.463,59.9778 650.039,67.3191 z" id="boundary" inkscape:connector-curvature="0" />
	<path style="fill:none;stroke:red;stroke-width:1px;stroke-linecap:butt;stroke-linejoin:miter;stroke-opacity:1" d="M 650.039,67.3191 645.451,76.4958 z" id="boundary" inkscape:connector-curvature="0" />
	<path style="fill:none;stroke:red;stroke-width:1px;stroke-linecap:butt;stroke-linejoin:miter;stroke-opacity:1" d="M 645.451,76.4958 638.109,82.9195 z" id="boundary" inkscape:connector-curvature="0" />
	<path style="fill:none;stroke:red;stroke-width:1px;stroke-linecap:butt;stroke-linejoin:miter;stroke-opacity:1" d="M 638.109,82.9195 631.685,90.2609 z" id="boundary" inkscape:connector-curvature="0" />
	<path style="fill:none;stroke:red;stroke-width:1px;stroke-linecap:butt;stroke-linejoin:miter;stroke-opacity:1" d="M 631.685,90.2609 624.344,96.6846 z" id="boundary" inkscape:connector-curvature="0" />
	<path style="fill:none;stroke:red;stroke-width:1px;stroke-linecap:butt;stroke-linejoin:miter;stroke-opacity:1" d="M 624.344,96.6846 617.92,104.026 z" id="boundary" inkscape:connector-curvature="0" />
	<path style="fill:none;stroke:red;stroke-width:1px;stroke-linecap:butt;stroke-linejoin:miter;stroke-opacity:1" d="M 617.92,104.026 610.579,110.45 z" id="boundary" inkscape:connector-curvature="0" />
	<path style="fill:none;stroke:red;stroke-width:1px;stroke-linecap:butt;stroke-linejoin:miter;stroke-opacity:1" d="M 610.579,110.45 601.402,115.038 z" id="boundary" inkscape:connector-curvature="0" />
	<path style="fill:none;stroke:red;stroke-width:1px;stroke-linecap:butt;stroke-linejoin:miter;stroke-opacity:1" d="M 601.402,115.038 594.061,123.297 z" id="boundary" inkscape:connector-curvature="0" />
	<path style="fill:none;stroke:red;stroke-width:1px;stroke-linecap:butt;stroke-linejoin:miter;stroke-opacity:1" d="M 594.061,123.297 584.884,127.885 z" id="boundary" inkscape:connector-curvature="0" />
	<path style="fill:none;stroke:red;stroke-width:1px;stroke-linecap:butt;stroke-linejoin:miter;stroke-opacity:1" d="M 584.884,127.885 577.543,133.391 z" id="boundary" inkscape:connector-curvature="0" />
	<path style="fill:none;stroke:red;stroke-width:1px;stroke-linecap:butt;stroke-linejoin:miter;stroke-opacity:1" d="M 577.543,133.391 582.131,141.65 z" id="boundary" inkscape:connector-curvature="0" />
	<path style="fill:none;stroke:red;stroke-width:1px;stroke-linecap:butt;stroke-linejoin:miter;stroke-opacity:1" d="M 582.131,141.65 591.308,141.65 z" id="boundary" inkscape:connector-curvature="0" />
	<path style="fill:none;stroke:red;stroke-width:1px;stroke-linecap:butt;stroke-linejoin:miter;stroke-opacity:1" d="M 591.308,141.65 600.485,141.65 z" id="boundary" inkscape:connector-curvature="0" />
	<path style="fill:none;stroke:red;stroke-width:1px;stroke-linecap:butt;stroke-linejoin:miter;stroke-opacity:1" d="M 600.485,141.65 609.661,141.65 z" id="boundary" inkscape:connector-curvature="0" />
	<path style="fill:none;stroke:red;stroke-width:1px;stroke-linecap:butt;stroke-linejoin:miter;stroke-opacity:1" d="M 609.661,141.65 618.838,141.65 z" id="boundary" inkscape:connector-curvature="0" />
	<path style="fill:none;stroke:red;stroke-width:1px;stroke-linecap:butt;stroke-linejoin:miter;stroke-opacity:1" d="M 618.838,141.65 627.097,146.239 z" id="boundary" inkscape:connector-curvature="0" />
	<path style="fill:none;stroke:red;stroke-width:1px;stroke-linecap:butt;stroke-linejoin:miter;stroke-opacity:1" d="M 627.097,146.239 636.274,146.239 z" id="boundary" inkscape:connector-curvature="0" />
	<path style="fill:none;stroke:red;stroke-width:1px;stroke-linecap:butt;stroke-linejoin:miter;stroke-opacity:1" d="M 636.274,146.239 645.451,146.239 z" id="boundary" inkscape:connector-curvature="0" />
	<path style="fill:none;stroke:red;stroke-width:1px;stroke-linecap:butt;stroke-linejoin:miter;stroke-opacity:1" d="M 645.451,146.239 654.627,147.156 z" id="boundary" inkscape:connector-curvature="0" />
	<path style="fill:none;stroke:red;stroke-width:1px;stroke-linecap:butt;stroke-linejoin:miter;stroke-opacity:1" d="M 654.627,147.156 663.804,150.827 z" id="boundary" inkscape:connector-curvature="0" />
	<path style="fill:none;stroke:red;stroke-width:1px;stroke-linecap:butt;stroke-linejoin:miter;stroke-opacity:1" d="M 663.804,150.827 672.981,151.745 z" id="boundary" inkscape:connector-curvature="0" />
	<path style="fill:none;stroke:red;stroke-width:1px;stroke-linecap:butt;stroke-linejoin:miter;stroke-opacity:1" d="M 672.981,151.745 682.157,155.415 z" id="boundary" inkscape:connector-curvature="0" />
	<path style="fill:none;stroke:red;stroke-width:1px;stroke-linecap:butt;stroke-linejoin:miter;stroke-opacity:1" d="M 682.157,155.415 691.334,156.333 z" id="boundary" inkscape:connector-curvature="0" />
	<path style="fill:none;stroke:red;stroke-width:1px;stroke-linecap:butt;stroke-linejoin:miter;stroke-opacity:1" d="M 691.334,156.333 700.511,160.004 z" id="boundary" inkscape:connector-curvature="0" />
	<path style="fill:none;stroke:red;stroke-width:1px;stroke-linecap:butt;stroke-linejoin:miter;stroke-opacity:1" d="M 700.511,160.004 708.77,164.592 z" id="boundary" inkscape:connector-curvature="0" />
	<path style="fill:none;stroke:red;stroke-width:1px;stroke-linecap:butt;stroke-linejoin:miter;stroke-opacity:1" d="M 708.77,164.592 717.946,164.592 z" id="boundary" inkscape:connector-curvature="0" />
	<path style="fill:none;stroke:red;stroke-width:1px;stroke-linecap:butt;stroke-linejoin:miter;stroke-opacity:1" d="M 717.946,164.592 726.205,169.18 z" id="boundary" inkscape:connector-curvature="0" />
	<path style="fill:none;stroke:red;stroke-width:1px;stroke-linecap:butt;stroke-linejoin:miter;stroke-opacity:1" d="M 726.205,169.18 734.464,173.769 z" id="boundary" inkscape:connector-curvature="0" />
	<path style="fill:none;stroke:red;stroke-width:1px;stroke-linecap:butt;stroke-linejoin:miter;stroke-opacity:1" d="M 734.464,173.769 743.641,176.522 z" id="boundary" inkscape:connector-curvature="0" />
	<path style="fill:none;stroke:red;stroke-width:1px;stroke-linecap:butt;stroke-linejoin:miter;stroke-opacity:1" d="M 743.641,176.522 751.9,181.11 z" id="boundary" inkscape:connector-curvature="0" />
	<path style="fill:none;stroke:red;stroke-width:1px;stroke-linecap:butt;stroke-linejoin:miter;stroke-opacity:1" d="M 751.9,181.11 761.077,184.781 z" id="boundary" inkscape:connector-curvature="0" />
	<path style="fill:none;stroke:red;stroke-width:1px;stroke-linecap:butt;stroke-linejoin:miter;stroke-opacity:1" d="M 761.077,184.781 769.336,189.369 z" id="boundary" inkscape:connector-curvature="0" />
	<path style="fill:none;stroke:red;stroke-width:1px;stroke-linecap:butt;stroke-linejoin:miter;stroke-opacity:1" d="M 769.336,189.369 778.512,193.04 z" id="boundary" inkscape:connector-curvature="0" />
	<path style="fill:none;stroke:red;stroke-width:1px;stroke-linecap:butt;stroke-linejoin:miter;stroke-opacity:1" d="M 778.512,193.04 784.936,200.381 z" id="boundary" inkscape:connector-curvature="0" />
	<path style="fill:none;stroke:red;stroke-width:1px;stroke-linecap:butt;stroke-linejoin:miter;stroke-opacity:1" d="M 784.936,200.381 794.113,204.052 z" id="boundary" inkscape:connector-curvature="0" />
	<path style="fill:none;stroke:red;stroke-width:1px;stroke-linecap:butt;stroke-linejoin:miter;stroke-opacity:1" d="M 794.113,204.052 802.372,208.64 z" id="boundary" inkscape:connector-curvature="0" />
	<path style="fill:none;stroke:red;stroke-width:1px;stroke-linecap:butt;stroke-linejoin:miter;stroke-opacity:1" d="M 802.372,208.64 809.713,215.064 z" id="boundary" inkscape:connector-curvature="0" />
	<path style="fill:none;stroke:red;stroke-width:1px;stroke-linecap:butt;stroke-linejoin:miter;stroke-opacity:1" d="M 809.713,215.064 817.972,219.652 z" id="boundary" inkscape:connector-curvature="0" />
	<path style="fill:none;stroke:red;stroke-width:1px;stroke-linecap:butt;stroke-linejoin:miter;stroke-opacity:1" d="M 817.972,219.652 825.314,226.076 z" id="boundary" inkscape:connector-curvature="0" />
	<path style="fill:none;stroke:red;stroke-width:1px;stroke-linecap:butt;stroke-linejoin:miter;stroke-opacity:1" d="M 825.314,226.076 830.82,233.417 z" id="boundary" inkscape:connector-curvature="0" />
	<path style="fill:none;stroke:red;stroke-width:1px;stroke-linecap:butt;stroke-linejoin:miter;stroke-opacity:1" d="M 830.82,233.417 839.996,236.17 z" id="boundary" inkscape:connector-curvature="0" />
	<path style="fill:none;stroke:red;stroke-width:1px;stroke-linecap:butt;stroke-linejoin:miter;stroke-opacity:1" d="M 839.996,236.17 846.42,243.512 z" id="boundary" inkscape:connector-curvature="0" />
	<path style="fill:none;stroke:red;stroke-width:1px;stroke-linecap:butt;stroke-linejoin:miter;stroke-opacity:1" d="M 846.42,243.512 853.761,249.935 z" id="boundary" inkscape:connector-curvature="0" />
	<path style="fill:none;stroke:red;stroke-width:1px;stroke-linecap:butt;stroke-linejoin:miter;stroke-opacity:1" d="M 853.761,249.935 860.185,257.277 z" id="boundary" inkscape:connector-curvature="0" />
	<path style="fill:none;stroke:red;stroke-width:1px;stroke-linecap:butt;stroke-linejoin:miter;stroke-opacity:1" d="M 860.185,257.277 867.526,263.7 z" id="boundary" inkscape:connector-curvature="0" />
	<path style="fill:none;stroke:red;stroke-width:1px;stroke-linecap:butt;stroke-linejoin:miter;stroke-opacity:1" d="M 867.526,263.7 873.95,271.042 z" id="boundary" inkscape:connector-curvature="0" />
	<path style="fill:none;stroke:red;stroke-width:1px;stroke-linecap:butt;stroke-linejoin:miter;stroke-opacity:1" d="M 873.95,271.042 881.291,277.465 z" id="boundary" inkscape:connector-curvature="0" />
	<path style="fill:none;stroke:red;stroke-width:1px;stroke-linecap:butt;stroke-linejoin:miter;stroke-opacity:1" d="M 881.291,277.465 887.715,284.807 z" id="boundary" inkscape:connector-curvature="0" />
	<path style="fill:none;stroke:red;stroke-width:1px;stroke-linecap:butt;stroke-linejoin:miter;stroke-opacity:1" d="M 887.715,284.807 895.056,291.23 z" id="boundary" inkscape:connector-curvature="0" />
	<path style="fill:none;stroke:red;stroke-width:1px;stroke-linecap:butt;stroke-linejoin:miter;stroke-opacity:1" d="M 895.056,291.23 898.727,300.407 z" id="boundary" inkscape:connector-curvature="0" />
	<path style="fill:none;stroke:red;stroke-width:1px;stroke-linecap:butt;stroke-linejoin:miter;stroke-opacity:1" d="M 898.727,300.407 906.068,306.831 z" id="boundary" inkscape:connector-curvature="0" />
	<path style="fill:none;stroke:red;stroke-width:1px;stroke-linecap:butt;stroke-linejoin:miter;stroke-opacity:1" d="M 906.068,306.831 908.821,316.007 z" id="boundary" inkscape:connector-curvature="0" />
	<path style="fill:none;stroke:red;stroke-width:1px;stroke-linecap:butt;stroke-linejoin:miter;stroke-opacity:1" d="M 908.821,316.007 916.163,321.513 z" id="boundary" inkscape:connector-curvature="0" />
	<path style="fill:none;stroke:red;stroke-width:1px;stroke-linecap:butt;stroke-linejoin:miter;stroke-opacity:1" d="M 916.163,321.513 922.586,328.855 z" id="boundary" inkscape:connector-curvature="0" />
	<path style="fill:none;stroke:red;stroke-width:1px;stroke-linecap:butt;stroke-linejoin:miter;stroke-opacity:1" d="M 922.586,328.855 927.175,337.114 z" id="boundary" inkscape:connector-curvature="0" />
	<path style="fill:none;stroke:red;stroke-width:1px;stroke-linecap:butt;stroke-linejoin:miter;stroke-opacity:1" d="M 927.175,337.114 930.846,346.29 z" id="boundary" inkscape:connector-curvature="0" />
	<path style="fill:none;stroke:red;stroke-width:1px;stroke-linecap:butt;stroke-linejoin:miter;stroke-opacity:1" d="M 930.846,346.29 936.352,353.632 z" id="boundary" inkscape:connector-curvature="0" />
	<path style="fill:none;stroke:red;stroke-width:1px;stroke-linecap:butt;stroke-linejoin:miter;stroke-opacity:1" d="M 936.352,353.632 940.94,361.891 z" id="boundary" inkscape:connector-curvature="0" />
	<path style="fill:none;stroke:red;stroke-width:1px;stroke-linecap:butt;stroke-linejoin:miter;stroke-opacity:1" d="M 940.94,361.891 945.528,370.15 z" id="boundary" inkscape:connector-curvature="0" />
	<path style="fill:none;stroke:red;stroke-width:1px;stroke-linecap:butt;stroke-linejoin:miter;stroke-opacity:1" d="M 945.528,370.15 950.117,378.409 z" id="boundary" inkscape:connector-curvature="0" />
	<path style="fill:none;stroke:red;stroke-width:1px;stroke-linecap:butt;stroke-linejoin:miter;stroke-opacity:1" d="M 950.117,378.409 953.787,387.586 z" id="boundary" inkscape:connector-curvature="0" />
	<path style="fill:none;stroke:red;stroke-width:1px;stroke-linecap:butt;stroke-linejoin:miter;stroke-opacity:1" d="M 953.787,387.586 958.376,395.845 z" id="boundary" inkscape:connector-curvature="0" />
	<path style="fill:none;stroke:red;stroke-width:1px;stroke-linecap:butt;stroke-linejoin:miter;stroke-opacity:1" d="M 958.376,395.845 959.293,405.021 z" id="boundary" inkscape:connector-curvature="0" />
	<path style="fill:none;stroke:red;stroke-width:1px;stroke-linecap:butt;stroke-linejoin:miter;stroke-opacity:1" d="M 959.293,405.021 963.882,413.28 z" id="boundary" inkscape:connector-curvature="0" />
	<path style="fill:none;stroke:red;stroke-width:1px;stroke-linecap:butt;stroke-linejoin:miter;stroke-opacity:1" d="M 963.882,413.28 965.717,422.457 z" id="boundary" inkscape:connector-curvature="0" />
	<path style="fill:none;stroke:red;stroke-width:1px;stroke-linecap:butt;stroke-linejoin:miter;stroke-opacity:1" d="M 965.717,422.457 968.47,431.634 z" id="boundary" inkscape:connector-curvature="0" />
	<path style="fill:none;stroke:red;stroke-width:1px;stroke-linecap:butt;stroke-linejoin:miter;stroke-opacity:1" d="M 968.47,431.634 973.058,439.893 z" id="boundary" inkscape:connector-curvature="0" />
	<path style="fill:none;stroke:red;stroke-width:1px;stroke-linecap:butt;stroke-linejoin:miter;stroke-opacity:1" d="M 973.058,439.893 973.058,449.069 z" id="boundary" inkscape:connector-curvature="0" />
	<path style="fill:none;stroke:red;stroke-width:1px;stroke-linecap:butt;stroke-linejoin:miter;stroke-opacity:1" d="M 973.058,449.069 977.647,457.328 z" id="boundary" inkscape:connector-curvature="0" />
	<path style="fill:none;stroke:red;stroke-width:1px;stroke-linecap:butt;stroke-linejoin:miter;stroke-opacity:1" d="M 977.647,457.328 977.647,466.505 z" id="boundary" inkscape:connector-curvature="0" />
	<path style="fill:none;stroke:red;stroke-width:1px;stroke-linecap:butt;stroke-linejoin:miter;stroke-opacity:1" d="M 977.647,466.505 982.235,474.764 z" id="boundary" inkscape:connector-curvature="0" />
	<path style="fill:none;stroke:red;stroke-width:1px;stroke-linecap:butt;stroke-linejoin:miter;stroke-opacity:1" d="M 982.235,474.764 982.235,483.941 z" id="boundary" inkscape:connector-curvature="0" />
	<path style="fill:none;stroke:red;stroke-width:1px;stroke-linecap:butt;stroke-linejoin:miter;stroke-opacity:1" d="M 982.235,483.941 985.906,493.117 z" id="boundary" inkscape:connector-curvature="0" />
	<path style="fill:none;stroke:red;stroke-width:1px;stroke-linecap:butt;stroke-linejoin:miter;stroke-opacity:1" d="M 985.906,493.117 986.823,502.294 z" id="boundary" inkscape:connector-curvature="0" />
	<path style="fill:none;stroke:red;stroke-width:1px;stroke-linecap:butt;stroke-linejoin:miter;stroke-opacity:1" d="M 986.823,502.294 986.823,511.471 z" id="boundary" inkscape:connector-curvature="0" />
	<path style="fill:none;stroke:red;stroke-width:1px;stroke-linecap:butt;stroke-linejoin:miter;stroke-opacity:1" d="M 986.823,511.471 986.823,520.648 z" id="boundary" inkscape:connector-curvature="0" />
	<path style="fill:none;stroke:red;stroke-width:1px;stroke-linecap:butt;stroke-linejoin:miter;stroke-opacity:1" d="M 986.823,520.648 991.412,528.907 z" id="boundary" inkscape:connector-curvature="0" />
	<path style="fill:none;stroke:red;stroke-width:1px;stroke-linecap:butt;stroke-linejoin:miter;stroke-opacity:1" d="M 991.412,528.907 991.412,538.083 z" id="boundary" inkscape:connector-curvature="0" />
	<path style="fill:none;stroke:red;stroke-width:1px;stroke-linecap:butt;stroke-linejoin:miter;stroke-opacity:1" d="M 991.412,538.083 991.412,547.26 z" id="boundary" inkscape:connector-curvature="0" />
	<path style="fill:none;stroke:red;stroke-width:1px;stroke-linecap:butt;stroke-linejoin:miter;stroke-opacity:1" d="M 991.412,547.26 991.412,556.437 z" id="boundary" inkscape:connector-curvature="0" />
	<path style="fill:none;stroke:red;stroke-width:1px;stroke-linecap:butt;stroke-linejoin:miter;stroke-opacity:1" d="M 991.412,556.437 991.412,565.613 z" id="boundary" inkscape:connector-curvature="0" />
	<path style="fill:none;stroke:red;stroke-width:1px;stroke-linecap:butt;stroke-linejoin:miter;stroke-opacity:1" d="M 991.412,565.613 991.412,574.79 z" id="boundary" inkscape:connector-curvature="0" />
	<path style="fill:none;stroke:red;stroke-width:1px;stroke-linecap:butt;stroke-linejoin:miter;stroke-opacity:1" d="M 991.412,574.79 991.412,583.967 z" id="boundary" inkscape:connector-curvature="0" />
	<path style="fill:none;stroke:red;stroke-width:1px;stroke-linecap:butt;stroke-linejoin:miter;stroke-opacity:1" d="M 991.412,583.967 991.412,593.143 z" id="boundary" inkscape:connector-curvature="0" />
	<path style="fill:none;stroke:red;stroke-width:1px;stroke-linecap:butt;stroke-linejoin:miter;stroke-opacity:1" d="M 991.412,593.143 991.412,602.32 z" id="boundary" inkscape:connector-curvature="0" />
	<path style="fill:none;stroke:red;stroke-width:1px;stroke-linecap:butt;stroke-linejoin:miter;stroke-opacity:1" d="M 991.412,602.32 986.823,610.579 z" id="boundary" inkscape:connector-curvature="0" />
	<path style="fill:none;stroke:red;stroke-width:1px;stroke-linecap:butt;stroke-linejoin:miter;stroke-opacity:1" d="M 986.823,610.579 986.823,619.756 z" id="boundary" inkscape:connector-curvature="0" />
	<path style="fill:none;stroke:red;stroke-width:1px;stroke-linecap:butt;stroke-linejoin:miter;stroke-opacity:1" d="M 986.823,619.756 986.823,628.932 z" id="boundary" inkscape:connector-curvature="0" />
	<path style="fill:none;stroke:red;stroke-width:1px;stroke-linecap:butt;stroke-linejoin:miter;stroke-opacity:1" d="M 986.823,628.932 982.235,642.698 z" id="boundary" inkscape:connector-curvature="0" />
	<path style="fill:none;stroke:red;stroke-width:1px;stroke-linecap:butt;stroke-linejoin:miter;stroke-opacity:1" d="M 982.235,642.698 982.235,651.874 z" id="boundary" inkscape:connector-curvature="0" />
	<path style="fill:none;stroke:red;stroke-width:1px;stroke-linecap:butt;stroke-linejoin:miter;stroke-opacity:1" d="M 982.235,651.874 977.647,665.639 z" id="boundary" inkscape:connector-curvature="0" />
	<path style="fill:none;stroke:red;stroke-width:1px;stroke-linecap:butt;stroke-linejoin:miter;stroke-opacity:1" d="M 977.647,665.639 977.647,674.816 z" id="boundary" inkscape:connector-curvature="0" />
	<path style="fill:none;stroke:red;stroke-width:1px;stroke-linecap:butt;stroke-linejoin:miter;stroke-opacity:1" d="M 977.647,674.816 973.058,683.993 z" id="boundary" inkscape:connector-curvature="0" />
	<path style="fill:none;stroke:red;stroke-width:1px;stroke-linecap:butt;stroke-linejoin:miter;stroke-opacity:1" d="M 973.058,683.993 968.47,697.758 z" id="boundary" inkscape:connector-curvature="0" />
	<path style="fill:none;stroke:red;stroke-width:1px;stroke-linecap:butt;stroke-linejoin:miter;stroke-opacity:1" d="M 968.47,697.758 963.882,711.523 z" id="boundary" inkscape:connector-curvature="0" />
	<path style="fill:none;stroke:red;stroke-width:1px;stroke-linecap:butt;stroke-linejoin:miter;stroke-opacity:1" d="M 963.882,711.523 959.293,725.288 z" id="boundary" inkscape:connector-curvature="0" />
	<path style="fill:none;stroke:red;stroke-width:1px;stroke-linecap:butt;stroke-linejoin:miter;stroke-opacity:1" d="M 959.293,725.288 957.458,737.217 z" id="boundary" inkscape:connector-curvature="0" />
	<path style="fill:none;stroke:red;stroke-width:1px;stroke-linecap:butt;stroke-linejoin:miter;stroke-opacity:1" d="M 957.458,737.217 952.87,746.394 z" id="boundary" inkscape:connector-curvature="0" />
	<path style="fill:none;stroke:red;stroke-width:1px;stroke-linecap:butt;stroke-linejoin:miter;stroke-opacity:1" d="M 952.87,746.394 948.281,755.571 z" id="boundary" inkscape:connector-curvature="0" />
	<path style="fill:none;stroke:red;stroke-width:1px;stroke-linecap:butt;stroke-linejoin:miter;stroke-opacity:1" d="M 948.281,755.571 943.693,764.747 z" id="boundary" inkscape:connector-curvature="0" />
	<path style="fill:none;stroke:red;stroke-width:1px;stroke-linecap:butt;stroke-linejoin:miter;stroke-opacity:1" d="M 943.693,764.747 939.105,773.924 z" id="boundary" inkscape:connector-curvature="0" />
	<path style="fill:none;stroke:red;stroke-width:1px;stroke-linecap:butt;stroke-linejoin:miter;stroke-opacity:1" d="M 939.105,773.924 934.516,783.101 z" id="boundary" inkscape:connector-curvature="0" />
	<path style="fill:none;stroke:red;stroke-width:1px;stroke-linecap:butt;stroke-linejoin:miter;stroke-opacity:1" d="M 934.516,783.101 927.175,789.525 z" id="boundary" inkscape:connector-curvature="0" />
	<path style="fill:none;stroke:red;stroke-width:1px;stroke-linecap:butt;stroke-linejoin:miter;stroke-opacity:1" d="M 927.175,789.525 922.586,798.701 z" id="boundary" inkscape:connector-curvature="0" />
	<path style="fill:none;stroke:red;stroke-width:1px;stroke-linecap:butt;stroke-linejoin:miter;stroke-opacity:1" d="M 922.586,798.701 916.163,810.631 z" id="boundary" inkscape:connector-curvature="0" />
	<path style="fill:none;stroke:red;stroke-width:1px;stroke-linecap:butt;stroke-linejoin:miter;stroke-opacity:1" d="M 916.163,810.631 908.821,817.055 z" id="boundary" inkscape:connector-curvature="0" />
	<path style="fill:none;stroke:red;stroke-width:1px;stroke-linecap:butt;stroke-linejoin:miter;stroke-opacity:1" d="M 908.821,817.055 904.233,826.231 z" id="boundary" inkscape:connector-curvature="0" />
	<path style="fill:none;stroke:red;stroke-width:1px;stroke-linecap:butt;stroke-linejoin:miter;stroke-opacity:1" d="M 904.233,826.231 897.809,833.573 z" id="boundary" inkscape:connector-curvature="0" />
	<path style="fill:none;stroke:red;stroke-width:1px;stroke-linecap:butt;stroke-linejoin:miter;stroke-opacity:1" d="M 897.809,833.573 893.221,842.749 z" id="boundary" inkscape:connector-curvature="0" />
	<path style="fill:none;stroke:red;stroke-width:1px;stroke-linecap:butt;stroke-linejoin:miter;stroke-opacity:1" d="M 893.221,842.749 885.88,849.173 z" id="boundary" inkscape:connector-curvature="0" />
	<path style="fill:none;stroke:red;stroke-width:1px;stroke-linecap:butt;stroke-linejoin:miter;stroke-opacity:1" d="M 885.88,849.173 879.456,856.514 z" id="boundary" inkscape:connector-curvature="0" />
	<path style="fill:none;stroke:red;stroke-width:1px;stroke-linecap:butt;stroke-linejoin:miter;stroke-opacity:1" d="M 879.456,856.514 872.115,862.938 z" id="boundary" inkscape:connector-curvature="0" />
	<path style="fill:none;stroke:red;stroke-width:1px;stroke-linecap:butt;stroke-linejoin:miter;stroke-opacity:1" d="M 872.115,862.938 865.691,870.279 z" id="boundary" inkscape:connector-curvature="0" />
	<path style="fill:none;stroke:red;stroke-width:1px;stroke-linecap:butt;stroke-linejoin:miter;stroke-opacity:1" d="M 865.691,870.279 858.35,876.703 z" id="boundary" inkscape:connector-curvature="0" />
	<path style="fill:none;stroke:red;stroke-width:1px;stroke-linecap:butt;stroke-linejoin:miter;stroke-opacity:1" d="M 858.35,876.703 851.926,884.044 z" id="boundary" inkscape:connector-curvature="0" />
	<path style="fill:none;stroke:red;stroke-width:1px;stroke-linecap:butt;stroke-linejoin:miter;stroke-opacity:1" d="M 851.926,884.044 844.585,890.468 z" id="boundary" inkscape:connector-curvature="0" />
	<path style="fill:none;stroke:red;stroke-width:1px;stroke-linecap:butt;stroke-linejoin:miter;stroke-opacity:1" d="M 844.585,890.468 838.161,897.809 z" id="boundary" inkscape:connector-curvature="0" />
	<path style="fill:none;stroke:red;stroke-width:1px;stroke-linecap:butt;stroke-linejoin:miter;stroke-opacity:1" d="M 838.161,897.809 828.984,902.398 z" id="boundary" inkscape:connector-curvature="0" />
	<path style="fill:none;stroke:red;stroke-width:1px;stroke-linecap:butt;stroke-linejoin:miter;stroke-opacity:1" d="M 828.984,902.398 821.643,908.821 z" id="boundary" inkscape:connector-curvature="0" />
	<path style="fill:none;stroke:red;stroke-width:1px;stroke-linecap:butt;stroke-linejoin:miter;stroke-opacity:1" d="M 821.643,908.821 814.302,917.08 z" id="boundary" inkscape:connector-curvature="0" />
	<path style="fill:none;stroke:red;stroke-width:1px;stroke-linecap:butt;stroke-linejoin:miter;stroke-opacity:1" d="M 814.302,917.08 805.125,921.669 z" id="boundary" inkscape:connector-curvature="0" />
	<path style="fill:none;stroke:red;stroke-width:1px;stroke-linecap:butt;stroke-linejoin:miter;stroke-opacity:1" d="M 805.125,921.669 797.784,927.175 z" id="boundary" inkscape:connector-curvature="0" />
	<path style="fill:none;stroke:red;stroke-width:1px;stroke-linecap:butt;stroke-linejoin:miter;stroke-opacity:1" d="M 797.784,927.175 789.525,931.763 z" id="boundary" inkscape:connector-curvature="0" />
	<path style="fill:none;stroke:red;stroke-width:1px;stroke-linecap:butt;stroke-linejoin:miter;stroke-opacity:1" d="M 789.525,931.763 781.265,936.352 z" id="boundary" inkscape:connector-curvature="0" />
	<path style="fill:none;stroke:red;stroke-width:1px;stroke-linecap:butt;stroke-linejoin:miter;stroke-opacity:1" d="M 781.265,936.352 773.006,940.94 z" id="boundary" inkscape:connector-curvature="0" />
	<path style="fill:none;stroke:red;stroke-width:1px;stroke-linecap:butt;stroke-linejoin:miter;stroke-opacity:1" d="M 773.006,940.94 764.747,945.528 z" id="boundary" inkscape:connector-curvature="0" />
	<path style="fill:none;stroke:red;stroke-width:1px;stroke-linecap:butt;stroke-linejoin:miter;stroke-opacity:1" d="M 764.747,945.528 756.488,950.117 z" id="boundary" inkscape:connector-curvature="0" />
	<path style="fill:none;stroke:red;stroke-width:1px;stroke-linecap:butt;stroke-linejoin:miter;stroke-opacity:1" d="M 756.488,950.117 748.229,954.705 z" id="boundary" inkscape:connector-curvature="0" />
	<path style="fill:none;stroke:red;stroke-width:1px;stroke-linecap:butt;stroke-linejoin:miter;stroke-opacity:1" d="M 748.229,954.705 739.97,959.293 z" id="boundary" inkscape:connector-curvature="0" />
	<path style="fill:none;stroke:red;stroke-width:1px;stroke-linecap:butt;stroke-linejoin:miter;stroke-opacity:1" d="M 739.97,959.293 730.794,959.293 z" id="boundary" inkscape:connector-curvature="0" />
	<path style="fill:none;stroke:red;stroke-width:1px;stroke-linecap:butt;stroke-linejoin:miter;stroke-opacity:1" d="M 730.794,959.293 722.535,963.882 z" id="boundary" inkscape:connector-curvature="0" />
	<path style="fill:none;stroke:red;stroke-width:1px;stroke-linecap:butt;stroke-linejoin:miter;stroke-opacity:1" d="M 722.535,963.882 714.276,968.47 z" id="boundary" inkscape:connector-curvature="0" />
	<path style="fill:none;stroke:red;stroke-width:1px;stroke-linecap:butt;stroke-linejoin:miter;stroke-opacity:1" d="M 714.276,968.47 705.099,971.223 z" id="boundary" inkscape:connector-curvature="0" />
	<path style="fill:none;stroke:red;stroke-width:1px;stroke-linecap:butt;stroke-linejoin:miter;stroke-opacity:1" d="M 705.099,971.223 695.922,973.058 z" id="boundary" inkscape:connector-curvature="0" />
	<path style="fill:none;stroke:red;stroke-width:1px;stroke-linecap:butt;stroke-linejoin:miter;stroke-opacity:1" d="M 695.922,973.058 687.663,977.647 z" id="boundary" inkscape:connector-curvature="0" />
	<path style="fill:none;stroke:red;stroke-width:1px;stroke-linecap:butt;stroke-linejoin:miter;stroke-opacity:1" d="M 687.663,977.647 678.487,977.647 z" id="boundary" inkscape:connector-curvature="0" />
	<path style="fill:none;stroke:red;stroke-width:1px;stroke-linecap:butt;stroke-linejoin:miter;stroke-opacity:1" d="M 678.487,977.647 670.228,982.235 z" id="boundary" inkscape:connector-curvature="0" />
	<path style="fill:none;stroke:red;stroke-width:1px;stroke-linecap:butt;stroke-linejoin:miter;stroke-opacity:1" d="M 670.228,982.235 661.051,982.235 z" id="boundary" inkscape:connector-curvature="0" />
	<path style="fill:none;stroke:red;stroke-width:1px;stroke-linecap:butt;stroke-linejoin:miter;stroke-opacity:1" d="M 661.051,982.235 652.792,986.823 z" id="boundary" inkscape:connector-curvature="0" />
	<path style="fill:none;stroke:red;stroke-width:1px;stroke-linecap:butt;stroke-linejoin:miter;stroke-opacity:1" d="M 652.792,986.823 643.615,986.823 z" id="boundary" inkscape:connector-curvature="0" />
	<path style="fill:none;stroke:red;stroke-width:1px;stroke-linecap:butt;stroke-linejoin:miter;stroke-opacity:1" d="M 643.615,986.823 634.438,986.823 z" id="boundary" inkscape:connector-curvature="0" />
	<path style="fill:none;stroke:red;stroke-width:1px;stroke-linecap:butt;stroke-linejoin:miter;stroke-opacity:1" d="M 634.438,986.823 625.262,986.823 z" id="boundary" inkscape:connector-curvature="0" />
	<path style="fill:none;stroke:red;stroke-width:1px;stroke-linecap:butt;stroke-linejoin:miter;stroke-opacity:1" d="M 625.262,986.823 617.003,991.412 z" id="boundary" inkscape:connector-curvature="0" />
	<path style="fill:none;stroke:red;stroke-width:1px;stroke-linecap:butt;stroke-linejoin:miter;stroke-opacity:1" d="M 617.003,991.412 607.826,991.412 z" id="boundary" inkscape:connector-curvature="0" />
	<path style="fill:none;stroke:red;stroke-width:1px;stroke-linecap:butt;stroke-linejoin:miter;stroke-opacity:1" d="M 607.826,991.412 598.649,991.412 z" id="boundary" inkscape:connector-curvature="0" />
	<path style="fill:none;stroke:red;stroke-width:1px;stroke-linecap:butt;stroke-linejoin:miter;stroke-opacity:1" d="M 598.649,991.412 589.473,991.412 z" id="boundary" inkscape:connector-curvature="0" />
	<path style="fill:none;stroke:red;stroke-width:1px;stroke-linecap:butt;stroke-linejoin:miter;stroke-opacity:1" d="M 589.473,991.412 580.296,991.412 z" id="boundary" inkscape:connector-curvature="0" />
	<path style="fill:none;stroke:red;stroke-width:1px;stroke-linecap:butt;stroke-linejoin:miter;stroke-opacity:1" d="M 580.296,991.412 571.119,991.412 z" id="boundary" inkscape:connector-curvature="0" />
	<path style="fill:none;stroke:red;stroke-width:1px;stroke-linecap:butt;stroke-linejoin:miter;stroke-opacity:1" d="M 571.119,991.412 561.943,991.412 z" id="boundary" inkscape:connector-curvature="0" />
	<path style="fill:none;stroke:red;stroke-width:1px;stroke-linecap:butt;stroke-linejoin:miter;stroke-opacity:1" d="M 561.943,991.412 552.766,991.412 z" id="boundary" inkscape:connector-curvature="0" />
	<path style="fill:none;stroke:red;stroke-width:1px;stroke-linecap:butt;stroke-linejoin:miter;stroke-opacity:1" d="M 552.766,991.412 543.589,991.412 z" id="boundary" inkscape:connector-curvature="0" />
	<path style="fill:none;stroke:red;stroke-width:1px;stroke-linecap:butt;stroke-linejoin:miter;stroke-opacity:1" d="M 543.589,991.412 535.33,986.823 z" id="boundary" inkscape:connector-curvature="0" />
	<path style="fill:none;stroke:red;stroke-width:1px;stroke-linecap:butt;stroke-linejoin:miter;stroke-opacity:1" d="M 535.33,986.823 526.154,986.823 z" id="boundary" inkscape:connector-curvature="0" />
	<path style="fill:none;stroke:red;stroke-width:1px;stroke-linecap:butt;stroke-linejoin:miter;stroke-opacity:1" d="M 526.154,986.823 516.977,986.823 z" id="boundary" inkscape:connector-curvature="0" />
	<path style="fill:none;stroke:red;stroke-width:1px;stroke-linecap:butt;stroke-linejoin:miter;stroke-opacity:1" d="M 516.977,986.823 507.8,986.823 z" id="boundary" inkscape:connector-curvature="0" />
	<path style="fill:none;stroke:red;stroke-width:1px;stroke-linecap:butt;stroke-linejoin:miter;stroke-opacity:1" d="M 507.8,986.823 499.541,991.412 z" id="boundary" inkscape:connector-curvature="0" />
	<path style="fill:none;stroke:red;stroke-width:1px;stroke-linecap:butt;stroke-linejoin:miter;stroke-opacity:1" d="M 499.541,991.412 490.364,991.412 z" id="boundary" inkscape:connector-curvature="0" />
	<path style="fill:none;stroke:red;stroke-width:1px;stroke-linecap:butt;stroke-linejoin:miter;stroke-opacity:1" d="M 490.364,991.412 481.188,991.412 z" id="boundary" inkscape:connector-curvature="0" />
	<path style="fill:none;stroke:red;stroke-width:1px;stroke-linecap:butt;stroke-linejoin:miter;stroke-opacity:1" d="M 481.188,991.412 472.011,993.247 z" id="boundary" inkscape:connector-curvature="0" />
	<path style="fill:none;stroke:red;stroke-width:1px;stroke-linecap:butt;stroke-linejoin:miter;stroke-opacity:1" d="M 472.011,993.247 462.834,996 z" id="boundary" inkscape:connector-curvature="0" />
	<path style="fill:none;stroke:red;stroke-width:1px;stroke-linecap:butt;stroke-linejoin:miter;stroke-opacity:1" d="M 462.834,996 453.658,996 z" id="boundary" inkscape:connector-curvature="0" />
	<path style="fill:none;stroke:red;stroke-width:1px;stroke-linecap:butt;stroke-linejoin:miter;stroke-opacity:1" d="M 453.658,996 444.481,996 z" id="boundary" inkscape:connector-curvature="0" />
	<path style="fill:none;stroke:red;stroke-width:1px;stroke-linecap:butt;stroke-linejoin:miter;stroke-opacity:1" d="M 444.481,996 435.304,996 z" id="boundary" inkscape:connector-curvature="0" />
	<path style="fill:none;stroke:red;stroke-width:1px;stroke-linecap:butt;stroke-linejoin:miter;stroke-opacity:1" d="M 435.304,996 426.128,996 z" id="boundary" inkscape:connector-curvature="0" />
	<path style="fill:none;stroke:red;stroke-width:1px;stroke-linecap:butt;stroke-linejoin:miter;stroke-opacity:1" d="M 426.128,996 416.951,996 z" id="boundary" inkscape:connector-curvature="0" />
	<path style="fill:none;stroke:red;stroke-width:1px;stroke-linecap:butt;stroke-linejoin:miter;stroke-opacity:1" d="M 416.951,996 407.774,996 z" id="boundary" inkscape:connector-curvature="0" />
	<path style="fill:none;stroke:red;stroke-width:1px;stroke-linecap:butt;stroke-linejoin:miter;stroke-opacity:1" d="M 407.774,996 398.598,996 z" id="boundary" inkscape:connector-curvature="0" />
	<path style="fill:none;stroke:red;stroke-width:1px;stroke-linecap:butt;stroke-linejoin:miter;stroke-opacity:1" d="M 398.598,996 389.421,996 z" id="boundary" inkscape:connector-curvature="0" />
	<path style="fill:none;stroke:red;stroke-width:1px;stroke-linecap:butt;stroke-linejoin:miter;stroke-opacity:1" d="M 389.421,996 381.162,991.412 z" id="boundary" inkscape:connector-curvature="0" />
	<path style="fill:none;stroke:red;stroke-width:1px;stroke-linecap:butt;stroke-linejoin:miter;stroke-opacity:1" d="M 381.162,991.412 371.985,991.412 z" id="boundary" inkscape:connector-curvature="0" />
	<path style="fill:none;stroke:red;stroke-width:1px;stroke-linecap:butt;stroke-linejoin:miter;stroke-opacity:1" d="M 371.985,991.412 362.809,991.412 z" id="boundary" inkscape:connector-curvature="0" />
	<path style="fill:none;stroke:red;stroke-width:1px;stroke-linecap:butt;stroke-linejoin:miter;stroke-opacity:1" d="M 362.809,991.412 353.632,988.659 z" id="boundary" inkscape:connector-curvature="0" />
	<path style="fill:none;stroke:red;stroke-width:1px;stroke-linecap:butt;stroke-linejoin:miter;stroke-opacity:1" d="M 353.632,988.659 344.455,986.823 z" id="boundary" inkscape:connector-curvature="0" />
	<path style="fill:none;stroke:red;stroke-width:1px;stroke-linecap:butt;stroke-linejoin:miter;stroke-opacity:1" d="M 344.455,986.823 335.278,986.823 z" id="boundary" inkscape:connector-curvature="0" />
	<path style="fill:none;stroke:red;stroke-width:1px;stroke-linecap:butt;stroke-linejoin:miter;stroke-opacity:1" d="M 335.278,986.823 327.019,982.235 z" id="boundary" inkscape:connector-curvature="0" />
	<path style="fill:none;stroke:red;stroke-width:1px;stroke-linecap:butt;stroke-linejoin:miter;stroke-opacity:1" d="M 327.019,982.235 317.843,982.235 z" id="boundary" inkscape:connector-curvature="0" />
	<path style="fill:none;stroke:red;stroke-width:1px;stroke-linecap:butt;stroke-linejoin:miter;stroke-opacity:1" d="M 317.843,982.235 309.584,977.647 z" id="boundary" inkscape:connector-curvature="0" />
	<path style="fill:none;stroke:red;stroke-width:1px;stroke-linecap:butt;stroke-linejoin:miter;stroke-opacity:1" d="M 309.584,977.647 300.407,977.647 z" id="boundary" inkscape:connector-curvature="0" />
	<path style="fill:none;stroke:red;stroke-width:1px;stroke-linecap:butt;stroke-linejoin:miter;stroke-opacity:1" d="M 300.407,977.647 292.148,973.058 z" id="boundary" inkscape:connector-curvature="0" />
	<path style="fill:none;stroke:red;stroke-width:1px;stroke-linecap:butt;stroke-linejoin:miter;stroke-opacity:1" d="M 292.148,973.058 283.889,968.47 z" id="boundary" inkscape:connector-curvature="0" />
	<path style="fill:none;stroke:red;stroke-width:1px;stroke-linecap:butt;stroke-linejoin:miter;stroke-opacity:1" d="M 283.889,968.47 274.712,968.47 z" id="boundary" inkscape:connector-curvature="0" />
	<path style="fill:none;stroke:red;stroke-width:1px;stroke-linecap:butt;stroke-linejoin:miter;stroke-opacity:1" d="M 274.712,968.47 266.453,963.882 z" id="boundary" inkscape:connector-curvature="0" />
	<path style="fill:none;stroke:red;stroke-width:1px;stroke-linecap:butt;stroke-linejoin:miter;stroke-opacity:1" d="M 266.453,963.882 258.194,959.293 z" id="boundary" inkscape:connector-curvature="0" />
	<path style="fill:none;stroke:red;stroke-width:1px;stroke-linecap:butt;stroke-linejoin:miter;stroke-opacity:1" d="M 258.194,959.293 249.935,954.705 z" id="boundary" inkscape:connector-curvature="0" />
	<path style="fill:none;stroke:red;stroke-width:1px;stroke-linecap:butt;stroke-linejoin:miter;stroke-opacity:1" d="M 249.935,954.705 241.676,950.117 z" id="boundary" inkscape:connector-curvature="0" />
	<path style="fill:none;stroke:red;stroke-width:1px;stroke-linecap:butt;stroke-linejoin:miter;stroke-opacity:1" d="M 241.676,950.117 233.417,945.528 z" id="boundary" inkscape:connector-curvature="0" />
	<path style="fill:none;stroke:red;stroke-width:1px;stroke-linecap:butt;stroke-linejoin:miter;stroke-opacity:1" d="M 233.417,945.528 224.241,942.775 z" id="boundary" inkscape:connector-curvature="0" />
	<path style="fill:none;stroke:red;stroke-width:1px;stroke-linecap:butt;stroke-linejoin:miter;stroke-opacity:1" d="M 224.241,942.775 215.981,938.187 z" id="boundary" inkscape:connector-curvature="0" />
	<path style="fill:none;stroke:red;stroke-width:1px;stroke-linecap:butt;stroke-linejoin:miter;stroke-opacity:1" d="M 215.981,938.187 206.805,934.516 z" id="boundary" inkscape:connector-curvature="0" />
	<path style="fill:none;stroke:red;stroke-width:1px;stroke-linecap:butt;stroke-linejoin:miter;stroke-opacity:1" d="M 206.805,934.516 200.381,927.175 z" id="boundary" inkscape:connector-curvature="0" />
	<path style="fill:none;stroke:red;stroke-width:1px;stroke-linecap:butt;stroke-linejoin:miter;stroke-opacity:1" d="M 200.381,927.175 192.122,922.586 z" id="boundary" inkscape:connector-curvature="0" />
	<path style="fill:none;stroke:red;stroke-width:1px;stroke-linecap:butt;stroke-linejoin:miter;stroke-opacity:1" d="M 192.122,922.586 183.863,917.998 z" id="boundary" inkscape:connector-curvature="0" />
	<path style="fill:none;stroke:red;stroke-width:1px;stroke-linecap:butt;stroke-linejoin:miter;stroke-opacity:1" d="M 183.863,917.998 176.522,912.492 z" id="boundary" inkscape:connector-curvature="0" />
	<path style="fill:none;stroke:red;stroke-width:1px;stroke-linecap:butt;stroke-linejoin:miter;stroke-opacity:1" d="M 176.522,912.492 169.18,906.068 z" id="boundary" inkscape:connector-curvature="0" />
	<path style="fill:none;stroke:red;stroke-width:1px;stroke-linecap:butt;stroke-linejoin:miter;stroke-opacity:1" d="M 169.18,906.068 160.921,901.48 z" id="boundary" inkscape:connector-curvature="0" />
	<path style="fill:none;stroke:red;stroke-width:1px;stroke-linecap:butt;stroke-linejoin:miter;stroke-opacity:1" d="M 160.921,901.48 153.58,895.056 z" id="boundary" inkscape:connector-curvature="0" />
	<path style="fill:none;stroke:red;stroke-width:1px;stroke-linecap:butt;stroke-linejoin:miter;stroke-opacity:1" d="M 153.58,895.056 147.156,887.715 z" id="boundary" inkscape:connector-curvature="0" />
	<path style="fill:none;stroke:red;stroke-width:1px;stroke-linecap:butt;stroke-linejoin:miter;stroke-opacity:1" d="M 147.156,887.715 139.815,881.291 z" id="boundary" inkscape:connector-curvature="0" />
	<path style="fill:none;stroke:red;stroke-width:1px;stroke-linecap:butt;stroke-linejoin:miter;stroke-opacity:1" d="M 139.815,881.291 133.391,873.95 z" id="boundary" inkscape:connector-curvature="0" />
	<path style="fill:none;stroke:red;stroke-width:1px;stroke-linecap:butt;stroke-linejoin:miter;stroke-opacity:1" d="M 133.391,873.95 126.05,867.526 z" id="boundary" inkscape:connector-curvature="0" />
	<path style="fill:none;stroke:red;stroke-width:1px;stroke-linecap:butt;stroke-linejoin:miter;stroke-opacity:1" d="M 126.05,867.526 119.626,860.185 z" id="boundary" inkscape:connector-curvature="0" />
	<path style="fill:none;stroke:red;stroke-width:1px;stroke-linecap:butt;stroke-linejoin:miter;stroke-opacity:1" d="M 119.626,860.185 112.285,853.761 z" id="boundary" inkscape:connector-curvature="0" />
	<path style="fill:none;stroke:red;stroke-width:1px;stroke-linecap:butt;stroke-linejoin:miter;stroke-opacity:1" d="M 112.285,853.761 105.861,846.42 z" id="boundary" inkscape:connector-curvature="0" />
	<path style="fill:none;stroke:red;stroke-width:1px;stroke-linecap:butt;stroke-linejoin:miter;stroke-opacity:1" d="M 105.861,846.42 98.5199,839.996 z" id="boundary" inkscape:connector-curvature="0" />
	<path style="fill:none;stroke:red;stroke-width:1px;stroke-linecap:butt;stroke-linejoin:miter;stroke-opacity:1" d="M 98.5199,839.996 95.7669,830.82 z" id="boundary" inkscape:connector-curvature="0" />
	<path style="fill:none;stroke:red;stroke-width:1px;stroke-linecap:butt;stroke-linejoin:miter;stroke-opacity:1" d="M 95.7669,830.82 88.4255,825.314 z" id="boundary" inkscape:connector-curvature="0" />
	<path style="fill:none;stroke:red;stroke-width:1px;stroke-linecap:butt;stroke-linejoin:miter;stroke-opacity:1" d="M 88.4255,825.314 82.0019,817.972 z" id="boundary" inkscape:connector-curvature="0" />
	<path style="fill:none;stroke:red;stroke-width:1px;stroke-linecap:butt;stroke-linejoin:miter;stroke-opacity:1" d="M 82.0019,817.972 77.4135,809.713 z" id="boundary" inkscape:connector-curvature="0" />
	<path style="fill:none;stroke:red;stroke-width:1px;stroke-linecap:butt;stroke-linejoin:miter;stroke-opacity:1" d="M 77.4135,809.713 72.8252,801.454 z" id="boundary" inkscape:connector-curvature="0" />
	<path style="fill:none;stroke:red;stroke-width:1px;stroke-linecap:butt;stroke-linejoin:miter;stroke-opacity:1" d="M 72.8252,801.454 66.4015,794.113 z" id="boundary" inkscape:connector-curvature="0" />
	<path style="fill:none;stroke:red;stroke-width:1px;stroke-linecap:butt;stroke-linejoin:miter;stroke-opacity:1" d="M 66.4015,794.113 63.6485,784.936 z" id="boundary" inkscape:connector-curvature="0" />
	<path style="fill:none;stroke:red;stroke-width:1px;stroke-linecap:butt;stroke-linejoin:miter;stroke-opacity:1" d="M 63.6485,784.936 59.0601,776.677 z" id="boundary" inkscape:connector-curvature="0" />
	<path style="fill:none;stroke:red;stroke-width:1px;stroke-linecap:butt;stroke-linejoin:miter;stroke-opacity:1" d="M 59.0601,776.677 54.4718,768.418 z" id="boundary" inkscape:connector-curvature="0" />
	<path style="fill:none;stroke:red;stroke-width:1px;stroke-linecap:butt;stroke-linejoin:miter;stroke-opacity:1" d="M 54.4718,768.418 49.8834,760.159 z" id="boundary" inkscape:connector-curvature="0" />
	<path style="fill:none;stroke:red;stroke-width:1px;stroke-linecap:butt;stroke-linejoin:miter;stroke-opacity:1" d="M 49.8834,760.159 45.2951,751.9 z" id="boundary" inkscape:connector-curvature="0" />
	<path style="fill:none;stroke:red;stroke-width:1px;stroke-linecap:butt;stroke-linejoin:miter;stroke-opacity:1" d="M 45.2951,751.9 40.7068,743.641 z" id="boundary" inkscape:connector-curvature="0" />
	<path style="fill:none;stroke:red;stroke-width:1px;stroke-linecap:butt;stroke-linejoin:miter;stroke-opacity:1" d="M 40.7068,743.641 36.1184,735.382 z" id="boundary" inkscape:connector-curvature="0" />
	<path style="fill:none;stroke:red;stroke-width:1px;stroke-linecap:butt;stroke-linejoin:miter;stroke-opacity:1" d="M 36.1184,735.382 31.5301,727.123 z" id="boundary" inkscape:connector-curvature="0" />
	<path style="fill:none;stroke:red;stroke-width:1px;stroke-linecap:butt;stroke-linejoin:miter;stroke-opacity:1" d="M 31.5301,727.123 31.5301,717.946 z" id="boundary" inkscape:connector-curvature="0" />
	<path style="fill:none;stroke:red;stroke-width:1px;stroke-linecap:butt;stroke-linejoin:miter;stroke-opacity:1" d="M 31.5301,717.946 26.9417,709.687 z" id="boundary" inkscape:connector-curvature="0" />
	<path style="fill:none;stroke:red;stroke-width:1px;stroke-linecap:butt;stroke-linejoin:miter;stroke-opacity:1" d="M 26.9417,709.687 23.271,700.511 z" id="boundary" inkscape:connector-curvature="0" />
	<path style="fill:none;stroke:red;stroke-width:1px;stroke-linecap:butt;stroke-linejoin:miter;stroke-opacity:1" d="M 23.271,700.511 22.3534,691.334 z" id="boundary" inkscape:connector-curvature="0" />
	<path style="fill:none;stroke:red;stroke-width:1px;stroke-linecap:butt;stroke-linejoin:miter;stroke-opacity:1" d="M 22.3534,691.334 17.765,683.075 z" id="boundary" inkscape:connector-curvature="0" />
	<path style="fill:none;stroke:red;stroke-width:1px;stroke-linecap:butt;stroke-linejoin:miter;stroke-opacity:1" d="M 17.765,683.075 17.765,673.898 z" id="boundary" inkscape:connector-curvature="0" />
	<path style="fill:none;stroke:red;stroke-width:1px;stroke-linecap:butt;stroke-linejoin:miter;stroke-opacity:1" d="M 17.765,673.898 13.1767,665.639 z" id="boundary" inkscape:connector-curvature="0" />
	<path style="fill:none;stroke:red;stroke-width:1px;stroke-linecap:butt;stroke-linejoin:miter;stroke-opacity:1" d="M 13.1767,665.639 13.1767,656.463 z" id="boundary" inkscape:connector-curvature="0" />
	<path style="fill:none;stroke:red;stroke-width:1px;stroke-linecap:butt;stroke-linejoin:miter;stroke-opacity:1" d="M 13.1767,656.463 13.1767,647.286 z" id="boundary" inkscape:connector-curvature="0" />
	<path style="fill:none;stroke:red;stroke-width:1px;stroke-linecap:butt;stroke-linejoin:miter;stroke-opacity:1" d="M 13.1767,647.286 8.58834,639.027 z" id="boundary" inkscape:connector-curvature="0" />
	<path style="fill:none;stroke:red;stroke-width:1px;stroke-linecap:butt;stroke-linejoin:miter;stroke-opacity:1" d="M 8.58834,639.027 8.58834,629.85 z" id="boundary" inkscape:connector-curvature="0" />
	<path style="fill:none;stroke:red;stroke-width:1px;stroke-linecap:butt;stroke-linejoin:miter;stroke-opacity:1" d="M 8.58834,629.85 8.58834,620.673 z" id="boundary" inkscape:connector-curvature="0" />
	<path style="fill:none;stroke:red;stroke-width:1px;stroke-linecap:butt;stroke-linejoin:miter;stroke-opacity:1" d="M 8.58834,620.673 4,612.414 z" id="boundary" inkscape:connector-curvature="0" />
	<path style="fill:none;stroke:red;stroke-width:1px;stroke-linecap:butt;stroke-linejoin:miter;stroke-opacity:1" d="M 4,612.414 4,603.238 z" id="boundary" inkscape:connector-curvature="0" />
	<path style="fill:none;stroke:red;stroke-width:1px;stroke-linecap:butt;stroke-linejoin:miter;stroke-opacity:1" d="M 4,603.238 4,594.061 z" id="boundary" inkscape:connector-curvature="0" />
	<path style="fill:none;stroke:red;stroke-width:1px;stroke-linecap:butt;stroke-linejoin:miter;stroke-opacity:1" d="M 4,594.061 4,584.884 z" id="boundary" inkscape:connector-curvature="0" />
	<path style="fill:none;stroke:red;stroke-width:1px;stroke-linecap:butt;stroke-linejoin:miter;stroke-opacity:1" d="M 4,584.884 4,575.708 z" id="boundary" inkscape:connector-curvature="0" />
	<path style="fill:none;stroke:red;stroke-width:1px;stroke-linecap:butt;stroke-linejoin:miter;stroke-opacity:1" d="M 4,575.708 4,566.531 z" id="boundary" inkscape:connector-curvature="0" />
	<path style="fill:none;stroke:red;stroke-width:1px;stroke-linecap:butt;stroke-linejoin:miter;stroke-opacity:1" d="M 4,566.531 4,557.354 z" id="boundary" inkscape:connector-curvature="0" />
	<path style="fill:none;stroke:red;stroke-width:1px;stroke-linecap:butt;stroke-linejoin:miter;stroke-opacity:1" d="M 4,557.354 4,548.178 z" id="boundary" inkscape:connector-curvature="0" />
	<path style="fill:none;stroke:red;stroke-width:1px;stroke-linecap:butt;stroke-linejoin:miter;stroke-opacity:1" d="M 4,548.178 4,539.001 z" id="boundary" inkscape:connector-curvature="0" />
	<path style="fill:none;stroke:red;stroke-width:1px;stroke-linecap:butt;stroke-linejoin:miter;stroke-opacity:1" d="M 4,539.001 4,529.824 z" id="boundary" inkscape:connector-curvature="0" />
	<path style="fill:none;stroke:red;stroke-width:1px;stroke-linecap:butt;stroke-linejoin:miter;stroke-opacity:1" d="M 8.58834,516.059 4,529.824 z" id="boundary" inkscape:connector-curvature="0" />
	<circle cx="4" cy="529.824" r="4" fill="#0" id="circle0"/>
	<circle cx="4" cy="539.001" r="4" fill="#0" id="circle1"/>
	<circle cx="4" cy="548.178" r="4" fill="#0" id="circle2"/>
	<circle cx="4" cy="557.354" r="4" fill="#0" id="circle3"/>
	<circle cx="4" cy="566.531" r="4" fill="#0" id="circle4"/>
	<circle cx="4" cy="575.708" r="4" fill="#0" id="circle5"/>
	<circle cx="4" cy="584.884" r="4" fill="#0" id="circle6"/>
	<circle cx="4" cy="594.061" r="4" fill="#0" id="circle7"/>
	<circle cx="4" cy="603.238" r="4" fill="#0" id="circle8"/>
	<circle cx="4" cy="612.414" r="4" fill="#0" id="circle9"/>
	<circle cx="8.58834" cy="497.706" r="4" fill="#0" id="circle10"/>
	<circle cx="8.58834" cy="506.883" r="4" fill="#0" id="circle11"/>
	<circle cx="8.58834" cy="516.059" r="4" fill="#0" id="circle12"/>
	<circle cx="8.58834" cy="620.673" r="4" fill="#0" id="circle13"/>
	<circle cx="8.58834" cy="629.85" r="4" fill="#0" id="circle14"/>
	<circle cx="8.58834" cy="639.027" r="4" fill="#0" id="circle15"/>
	<circle cx="13.1767" cy="474.764" r="4" fill="#0" id="circle16"/>
	<circle cx="13.1767" cy="483.941" r="4" fill="#0" id="circle17"/>
	<circle cx="13.1767" cy="647.286" r="4" fill="#0" id="circle18"/>
	<circle cx="13.1767" cy="656.463" r="4" fill="#0" id="circle19"/>
	<circle cx="13.1767" cy="665.639" r="4" fill="#0" id="circle20"/>
	<circle cx="17.765" cy="456.411" r="4" fill="#0" id="circle21"/>
	<circle cx="17.765" cy="465.587" r="4" fill="#0" id="circle22"/>
	<circle cx="17.765" cy="673.898" r="4" fill="#0" id="circle23"/>
	<circle cx="17.765" cy="683.075" r="4" fill="#0" id="circle24"/>
	<circle cx="22.3534" cy="442.646" r="4" fill="#0" id="circle25"/>
	<circle cx="22.3534" cy="691.334" r="4" fill="#0" id="circle26"/>
	<circle cx="23.271" cy="700.511" r="4" fill="#0" id="circle27"/>
	<circle cx="26.9417" cy="428.881" r="4" fill="#0" id="circle28"/>
	<circle cx="26.9417" cy="709.687" r="4" fill="#0" id="circle29"/>
	<circle cx="31.5301" cy="415.116" r="4" fill="#0" id="circle30"/>
	<circle cx="31.5301" cy="717.946" r="4" fill="#0" id="circle31"/>
	<circle cx="31.5301" cy="727.123" r="4" fill="#0" id="circle32"/>
	<circle cx="36.1184" cy="405.939" r="4" fill="#0" id="circle33"/>
	<circle cx="36.1184" cy="735.382" r="4" fill="#0" id="circle34"/>
	<circle cx="40.7068" cy="396.762" r="4" fill="#0" id="circle35"/>
	<circle cx="40.7068" cy="743.641" r="4" fill="#0" id="circle36"/>
	<circle cx="45.2951" cy="387.586" r="4" fill="#0" id="circle37"/>
	<circle cx="45.2951" cy="751.9" r="4" fill="#0" id="circle38"/>
	<circle cx="49.8834" cy="378.409" r="4" fill="#0" id="circle39"/>
	<circle cx="49.8834" cy="760.159" r="4" fill="#0" id="circle40"/>
	<circle cx="54.4718" cy="369.232" r="4" fill="#0" id="circle41"/>
	<circle cx="54.4718" cy="768.418" r="4" fill="#0" id="circle42"/>
	<circle cx="59.0601" cy="360.056" r="4" fill="#0" id="circle43"/>
	<circle cx="59.0601" cy="776.677" r="4" fill="#0" id="circle44"/>
	<circle cx="63.6485" cy="350.879" r="4" fill="#0" id="circle45"/>
	<circle cx="63.6485" cy="784.936" r="4" fill="#0" id="circle46"/>
	<circle cx="66.4015" cy="794.113" r="4" fill="#0" id="circle47"/>
	<circle cx="70.9898" cy="343.537" r="4" fill="#0" id="circle48"/>
	<circle cx="72.8252" cy="801.454" r="4" fill="#0" id="circle49"/>
	<circle cx="75.5782" cy="334.361" r="4" fill="#0" id="circle50"/>
	<circle cx="77.4135" cy="809.713" r="4" fill="#0" id="circle51"/>
	<circle cx="82.0019" cy="323.349" r="4" fill="#0" id="circle52"/>
	<circle cx="82.0019" cy="817.972" r="4" fill="#0" id="circle53"/>
	<circle cx="88.4255" cy="825.314" r="4" fill="#0" id="circle54"/>
	<circle cx="89.3432" cy="316.007" r="4" fill="#0" id="circle55"/>
	<circle cx="95.7669" cy="304.995" r="4" fill="#0" id="circle56"/>
	<circle cx="95.7669" cy="830.82" r="4" fill="#0" id="circle57"/>
	<circle cx="98.5199" cy="839.996" r="4" fill="#0" id="circle58"/>
	<circle cx="103.108" cy="297.654" r="4" fill="#0" id="circle59"/>
	<circle cx="105.861" cy="846.42" r="4" fill="#0" id="circle60"/>
	<circle cx="110.45" cy="290.313" r="4" fill="#0" id="circle61"/>
	<circle cx="112.285" cy="853.761" r="4" fill="#0" id="circle62"/>
	<circle cx="117.791" cy="283.889" r="4" fill="#0" id="circle63"/>
	<circle cx="119.626" cy="860.185" r="4" fill="#0" id="circle64"/>
	<circle cx="124.215" cy="276.548" r="4" fill="#0" id="circle65"/>
	<circle cx="126.05" cy="867.526" r="4" fill="#0" id="circle66"/>
	<circle cx="131.556" cy="270.124" r="4" fill="#0" id="circle67"/>
	<circle cx="133.391" cy="873.95" r="4" fill="#0" id="circle68"/>
	<circle cx="137.98" cy="262.783" r="4" fill="#0" id="circle69"/>
	<circle cx="139.815" cy="881.291" r="4" fill="#0" id="circle70"/>
	<circle cx="145.321" cy="256.359" r="4" fill="#0" id="circle71"/>
	<circle cx="147.156" cy="887.715" r="4" fill="#0" id="circle72"/>
	<circle cx="151.745" cy="249.018" r="4" fill="#0" id="circle73"/>
	<circle cx="153.58" cy="895.056" r="4" fill="#0" id="circle74"/>
	<circle cx="159.086" cy="242.594" r="4" fill="#0" id="circle75"/>
	<circle cx="160.921" cy="901.48" r="4" fill="#0" id="circle76"/>
	<circle cx="167.345" cy="238.006" r="4" fill="#0" id="circle77"/>
	<circle cx="169.18" cy="906.068" r="4" fill="#0" id="circle78"/>
	<circle cx="174.686" cy="230.664" r="4" fill="#0" id="circle79"/>
	<circle cx="176.522" cy="912.492" r="4" fill="#0" id="circle80"/>
	<circle cx="182.028" cy="224.241" r="4" fill="#0" id="circle81"/>
	<circle cx="183.863" cy="917.998" r="4" fill="#0" id="circle82"/>
	<circle cx="190.287" cy="219.652" r="4" fill="#0" id="circle83"/>
	<circle cx="192.122" cy="922.586" r="4" fill="#0" id="circle84"/>
	<circle cx="198.546" cy="215.064" r="4" fill="#0" id="circle85"/>
	<circle cx="200.381" cy="927.175" r="4" fill="#0" id="circle86"/>
	<circle cx="205.887" cy="208.64" r="4" fill="#0" id="circle87"/>
	<circle cx="206.805" cy="934.516" r="4" fill="#0" id="circle88"/>
	<circle cx="215.064" cy="204.052" r="4" fill="#0" id="circle89"/>
	<circle cx="215.981" cy="938.187" r="4" fill="#0" id="circle90"/>
	<circle cx="224.241" cy="199.463" r="4" fill="#0" id="circle91"/>
	<circle cx="224.241" cy="942.775" r="4" fill="#0" id="circle92"/>
	<circle cx="233.417" cy="194.875" r="4" fill="#0" id="circle93"/>
	<circle cx="233.417" cy="945.528" r="4" fill="#0" id="circle94"/>
	<circle cx="241.676" cy="950.117" r="4" fill="#0" id="circle95"/>
	<circle cx="242.594" cy="190.287" r="4" fill="#0" id="circle96"/>
	<circle cx="249.935" cy="954.705" r="4" fill="#0" id="circle97"/>
	<circle cx="251.771" cy="185.698" r="4" fill="#0" id="circle98"/>
	<circle cx="258.194" cy="959.293" r="4" fill="#0" id="circle99"/>
	<circle cx="260.947" cy="181.11" r="4" fill="#0" id="circle100"/>
	<circle cx="266.453" cy="963.882" r="4" fill="#0" id="circle101"/>
	<circle cx="270.124" cy="176.522" r="4" fill="#0" id="circle102"/>
	<circle cx="274.712" cy="968.47" r="4" fill="#0" id="circle103"/>
	<circle cx="279.301" cy="173.769" r="4" fill="#0" id="circle104"/>
	<circle cx="283.889" cy="968.47" r="4" fill="#0" id="circle105"/>
	<circle cx="287.56" cy="169.18" r="4" fill="#0" id="circle106"/>
	<circle cx="292.148" cy="973.058" r="4" fill="#0" id="circle107"/>
	<circle cx="296.736" cy="169.18" r="4" fill="#0" id="circle108"/>
	<circle cx="300.407" cy="977.647" r="4" fill="#0" id="circle109"/>
	<circle cx="304.995" cy="164.592" r="4" fill="#0" id="circle110"/>
	<circle cx="309.584" cy="977.647" r="4" fill="#0" id="circle111"/>
	<circle cx="314.172" cy="160.004" r="4" fill="#0" id="circle112"/>
	<circle cx="317.843" cy="982.235" r="4" fill="#0" id="circle113"/>
	<circle cx="323.349" cy="160.004" r="4" fill="#0" id="circle114"/>
	<circle cx="327.019" cy="982.235" r="4" fill="#0" id="circle115"/>
	<circle cx="332.525" cy="155.415" r="4" fill="#0" id="circle116"/>
	<circle cx="335.278" cy="986.823" r="4" fill="#0" id="circle117"/>
	<circle cx="341.702" cy="155.415" r="4" fill="#0" id="circle118"/>
	<circle cx="344.455" cy="986.823" r="4" fill="#0" id="circle119"/>
	<circle cx="350.879" cy="155.415" r="4" fill="#0" id="circle120"/>
	<circle cx="353.632" cy="988.659" r="4" fill="#0" id="circle121"/>
	<circle cx="359.138" cy="150.827" r="4" fill="#0" id="circle122"/>
	<circle cx="362.809" cy="991.412" r="4" fill="#0" id="circle123"/>
	<circle cx="368.315" cy="150.827" r="4" fill="#0" id="circle124"/>
	<circle cx="371.985" cy="991.412" r="4" fill="#0" id="circle125"/>
	<circle cx="377.491" cy="150.827" r="4" fill="#0" id="circle126"/>
	<circle cx="381.162" cy="991.412" r="4" fill="#0" id="circle127"/>
	<circle cx="386.668" cy="147.156" r="4" fill="#0" id="circle128"/>
	<circle cx="389.421" cy="996" r="4" fill="#0" id="circle129"/>
	<circle cx="395.845" cy="146.239" r="4" fill="#0" id="circle130"/>
	<circle cx="398.598" cy="996" r="4" fill="#0" id="circle131"/>
	<circle cx="405.021" cy="146.239" r="4" fill="#0" id="circle132"/>
	<circle cx="407.774" cy="996" r="4" fill="#0" id="circle133"/>
	<circle cx="414.198" cy="146.239" r="4" fill="#0" id="circle134"/>
	<circle cx="416.951" cy="996" r="4" fill="#0" id="circle135"/>
	<circle cx="423.375" cy="146.239" r="4" fill="#0" id="circle136"/>
	<circle cx="426.128" cy="996" r="4" fill="#0" id="circle137"/>
	<circle cx="430.716" cy="48.0481" r="4" fill="#0" id="circle138"/>
	<circle cx="432.551" cy="146.239" r="4" fill="#0" id="circle139"/>
	<circle cx="435.304" cy="56.3071" r="4" fill="#0" id="circle140"/>
	<circle cx="435.304" cy="996" r="4" fill="#0" id="circle141"/>
	<circle cx="439.893" cy="43.4598" r="4" fill="#0" id="circle142"/>
	<circle cx="441.728" cy="63.6485" r="4" fill="#0" id="circle143"/>
	<circle cx="441.728" cy="146.239" r="4" fill="#0" id="circle144"/>
	<circle cx="444.481" cy="996" r="4" fill="#0" id="circle145"/>
	<circle cx="447.234" cy="36.1184" r="4" fill="#0" id="circle146"/>
	<circle cx="449.069" cy="69.1545" r="4" fill="#0" id="circle147"/>
	<circle cx="450.905" cy="146.239" r="4" fill="#0" id="circle148"/>
	<circle cx="453.658" cy="996" r="4" fill="#0" id="circle149"/>
	<circle cx="454.575" cy="76.4958" r="4" fill="#0" id="circle150"/>
	<circle cx="456.411" cy="36.1184" r="4" fill="#0" id="circle151"/>
	<circle cx="460.081" cy="146.239" r="4" fill="#0" id="circle152"/>
	<circle cx="461.917" cy="82.9195" r="4" fill="#0" id="circle153"/>
	<circle cx="462.834" cy="43.4598" r="4" fill="#0" id="circle154"/>
	<circle cx="462.834" cy="996" r="4" fill="#0" id="circle155"/>
	<circle cx="465.587" cy="92.0962" r="4" fill="#0" id="circle156"/>
	<circle cx="469.258" cy="146.239" r="4" fill="#0" id="circle157"/>
	<circle cx="470.176" cy="49.8834" r="4" fill="#0" id="circle158"/>
	<circle cx="470.176" cy="100.355" r="4" fill="#0" id="circle159"/>
	<circle cx="472.011" cy="109.532" r="4" fill="#0" id="circle160"/>
	<circle cx="472.011" cy="993.247" r="4" fill="#0" id="circle161"/>
	<circle cx="473.846" cy="118.709" r="4" fill="#0" id="circle162"/>
	<circle cx="473.846" cy="137.98" r="4" fill="#0" id="circle163"/>
	<circle cx="476.599" cy="57.2248" r="4" fill="#0" id="circle164"/>
	<circle cx="476.599" cy="127.885" r="4" fill="#0" id="circle165"/>
	<circle cx="481.188" cy="991.412" r="4" fill="#0" id="circle166"/>
	<circle cx="483.941" cy="63.6485" r="4" fill="#0" id="circle167"/>
	<circle cx="486.694" cy="72.8252" r="4" fill="#0" id="circle168"/>
	<circle cx="490.364" cy="991.412" r="4" fill="#0" id="circle169"/>
	<circle cx="491.282" cy="81.0842" r="4" fill="#0" id="circle170"/>
	<circle cx="495.87" cy="89.3432" r="4" fill="#0" id="circle171"/>
	<circle cx="499.541" cy="991.412" r="4" fill="#0" id="circle172"/>
	<circle cx="503.212" cy="95.7669" r="4" fill="#0" id="circle173"/>
	<circle cx="507.8" cy="986.823" r="4" fill="#0" id="circle174"/>
	<circle cx="509.636" cy="88.4255" r="4" fill="#0" id="circle175"/>
	<circle cx="516.977" cy="82.0019" r="4" fill="#0" id="circle176"/>
	<circle cx="516.977" cy="986.823" r="4" fill="#0" id="circle177"/>
	<circle cx="520.648" cy="72.8252" r="4" fill="#0" id="circle178"/>
	<circle cx="526.154" cy="986.823" r="4" fill="#0" id="circle179"/>
	<circle cx="527.989" cy="65.4838" r="4" fill="#0" id="circle180"/>
	<circle cx="535.33" cy="986.823" r="4" fill="#0" id="circle181"/>
	<circle cx="537.166" cy="60.8955" r="4" fill="#0" id="circle182"/>
	<circle cx="543.589" cy="991.412" r="4" fill="#0" id="circle183"/>
	<circle cx="544.507" cy="54.4718" r="4" fill="#0" id="circle184"/>
	<circle cx="550.931" cy="47.1304" r="4" fill="#0" id="circle185"/>
	<circle cx="552.766" cy="991.412" r="4" fill="#0" id="circle186"/>
	<circle cx="558.272" cy="40.7068" r="4" fill="#0" id="circle187"/>
	<circle cx="561.943" cy="991.412" r="4" fill="#0" id="circle188"/>
	<circle cx="564.696" cy="33.3654" r="4" fill="#0" id="circle189"/>
	<circle cx="569.284" cy="137.98" r="4" fill="#0" id="circle190"/>
	<circle cx="571.119" cy="991.412" r="4" fill="#0" id="circle191"/>
	<circle cx="572.037" cy="26.9417" r="4" fill="#0" id="circle192"/>
	<circle cx="577.543" cy="133.391" r="4" fill="#0" id="circle193"/>
	<circle cx="580.296" cy="22.3534" r="4" fill="#0" id="circle194"/>
	<circle cx="580.296" cy="991.412" r="4" fill="#0" id="circle195"/>
	<circle cx="582.131" cy="141.65" r="4" fill="#0" id="circle196"/>
	<circle cx="584.884" cy="127.885" r="4" fill="#0" id="circle197"/>
	<circle cx="589.473" cy="22.3534" r="4" fill="#0" id="circle198"/>
	<circle cx="589.473" cy="991.412" r="4" fill="#0" id="circle199"/>
	<circle cx="591.308" cy="141.65" r="4" fill="#0" id="circle200"/>
	<circle cx="594.061" cy="123.297" r="4" fill="#0" id="circle201"/>
	<circle cx="597.732" cy="17.765" r="4" fill="#0" id="circle202"/>
	<circle cx="598.649" cy="991.412" r="4" fill="#0" id="circle203"/>
	<circle cx="600.485" cy="141.65" r="4" fill="#0" id="circle204"/>
	<circle cx="601.402" cy="115.038" r="4" fill="#0" id="circle205"/>
	<circle cx="605.991" cy="13.1767" r="4" fill="#0" id="circle206"/>
	<circle cx="607.826" cy="991.412" r="4" fill="#0" id="circle207"/>
	<circle cx="609.661" cy="141.65" r="4" fill="#0" id="circle208"/>
	<circle cx="610.579" cy="110.45" r="4" fill="#0" id="circle209"/>
	<circle cx="614.25" cy="8.58834" r="4" fill="#0" id="circle210"/>
	<circle cx="617.003" cy="991.412" r="4" fill="#0" id="circle211"/>
	<circle cx="617.92" cy="104.026" r="4" fill="#0" id="circle212"/>
	<circle cx="618.838" cy="141.65" r="4" fill="#0" id="circle213"/>
	<circle cx="623.426" cy="6.75301" r="4" fill="#0" id="circle214"/>
	<circle cx="624.344" cy="96.6846" r="4" fill="#0" id="circle215"/>
	<circle cx="625.262" cy="986.823" r="4" fill="#0" id="circle216"/>
	<circle cx="627.097" cy="146.239" r="4" fill="#0" id="circle217"/>
	<circle cx="631.685" cy="90.2609" r="4" fill="#0" id="circle218"/>
	<circle cx="632.603" cy="4" r="4" fill="#0" id="circle219"/>
	<circle cx="634.438" cy="986.823" r="4" fill="#0" id="circle220"/>
	<circle cx="636.274" cy="146.239" r="4" fill="#0" id="circle221"/>
	<circle cx="638.109" cy="82.9195" r="4" fill="#0" id="circle222"/>
	<circle cx="641.78" cy="4" r="4" fill="#0" id="circle223"/>
	<circle cx="643.615" cy="986.823" r="4" fill="#0" id="circle224"/>
	<circle cx="645.451" cy="76.4958" r="4" fill="#0" id="circle225"/>
	<circle cx="645.451" cy="146.239" r="4" fill="#0" id="circle226"/>
	<circle cx="650.039" cy="67.3191" r="4" fill="#0" id="circle227"/>
	<circle cx="650.957" cy="4" r="4" fill="#0" id="circle228"/>
	<circle cx="652.792" cy="986.823" r="4" fill="#0" id="circle229"/>
	<circle cx="654.627" cy="147.156" r="4" fill="#0" id="circle230"/>
	<circle cx="656.463" cy="59.9778" r="4" fill="#0" id="circle231"/>
	<circle cx="660.133" cy="5.83534" r="4" fill="#0" id="circle232"/>
	<circle cx="661.051" cy="982.235" r="4" fill="#0" id="circle233"/>
	<circle cx="663.804" cy="53.5541" r="4" fill="#0" id="circle234"/>
	<circle cx="663.804" cy="150.827" r="4" fill="#0" id="circle235"/>
	<circle cx="665.639" cy="13.1767" r="4" fill="#0" id="circle236"/>
	<circle cx="670.228" cy="46.2128" r="4" fill="#0" id="circle237"/>
	<circle cx="670.228" cy="982.235" r="4" fill="#0" id="circle238"/>
	<circle cx="672.981" cy="18.6827" r="4" fill="#0" id="circle239"/>
	<circle cx="672.981" cy="151.745" r="4" fill="#0" id="circle240"/>
	<circle cx="676.651" cy="27.8594" r="4" fill="#0" id="circle241"/>
	<circle cx="677.569" cy="39.7891" r="4" fill="#0" id="circle242"/>
	<circle cx="678.487" cy="977.647" r="4" fill="#0" id="circle243"/>
	<circle cx="682.157" cy="155.415" r="4" fill="#0" id="circle244"/>
	<circle cx="687.663" cy="977.647" r="4" fill="#0" id="circle245"/>
	<circle cx="691.334" cy="156.333" r="4" fill="#0" id="circle246"/>
	<circle cx="695.922" cy="973.058" r="4" fill="#0" id="circle247"/>
	<circle cx="700.511" cy="160.004" r="4" fill="#0" id="circle248"/>
	<circle cx="705.099" cy="971.223" r="4" fill="#0" id="circle249"/>
	<circle cx="708.77" cy="164.592" r="4" fill="#0" id="circle250"/>
	<circle cx="714.276" cy="968.47" r="4" fill="#0" id="circle251"/>
	<circle cx="717.946" cy="164.592" r="4" fill="#0" id="circle252"/>
	<circle cx="722.535" cy="963.882" r="4" fill="#0" id="circle253"/>
	<circle cx="726.205" cy="169.18" r="4" fill="#0" id="circle254"/>
	<circle cx="730.794" cy="959.293" r="4" fill="#0" id="circle255"/>
	<circle cx="734.464" cy="173.769" r="4" fill="#0" id="circle256"/>
	<circle cx="739.97" cy="959.293" r="4" fill="#0" id="circle257"/>
	<circle cx="743.641" cy="176.522" r="4" fill="#0" id="circle258"/>
	<circle cx="748.229" cy="954.705" r="4" fill="#0" id="circle259"/>
	<circle cx="751.9" cy="181.11" r="4" fill="#0" id="circle260"/>
	<circle cx="756.488" cy="950.117" r="4" fill="#0" id="circle261"/>
	<circle cx="761.077" cy="184.781" r="4" fill="#0" id="circle262"/>
	<circle cx="764.747" cy="945.528" r="4" fill="#0" id="circle263"/>
	<circle cx="769.336" cy="189.369" r="4" fill="#0" id="circle264"/>
	<circle cx="773.006" cy="940.94" r="4" fill="#0" id="circle265"/>
	<circle cx="778.512" cy="193.04" r="4" fill="#0" id="circle266"/>
	<circle cx="781.265" cy="936.352" r="4" fill="#0" id="circle267"/>
	<circle cx="784.936" cy="200.381" r="4" fill="#0" id="circle268"/>
	<circle cx="789.525" cy="931.763" r="4" fill="#0" id="circle269"/>
	<circle cx="794.113" cy="204.052" r="4" fill="#0" id="circle270"/>
	<circle cx="797.784" cy="927.175" r="4" fill="#0" id="circle271"/>
	<circle cx="802.372" cy="208.64" r="4" fill="#0" id="circle272"/>
	<circle cx="805.125" cy="921.669" r="4" fill="#0" id="circle273"/>
	<circle cx="809.713" cy="215.064" r="4" fill="#0" id="circle274"/>
	<circle cx="814.302" cy="917.08" r="4" fill="#0" id="circle275"/>
	<circle cx="817.972" cy="219.652" r="4" fill="#0" id="circle276"/>
	<circle cx="821.643" cy="908.821" r="4" fill="#0" id="circle277"/>
	<circle cx="825.314" cy="226.076" r="4" fill="#0" id="circle278"/>
	<circle cx="828.984" cy="902.398" r="4" fill="#0" id="circle279"/>
	<circle cx="830.82" cy="233.417" r="4" fill="#0" id="circle280"/>
	<circle cx="838.161" cy="897.809" r="4" fill="#0" id="circle281"/>
	<circle cx="839.996" cy="236.17" r="4" fill="#0" id="circle282"/>
	<circle cx="844.585" cy="890.468" r="4" fill="#0" id="circle283"/>
	<circle cx="846.42" cy="243.512" r="4" fill="#0" id="circle284"/>
	<circle cx="851.926" cy="884.044" r="4" fill="#0" id="circle285"/>
	<circle cx="853.761" cy="249.935" r="4" fill="#0" id="circle286"/>
	<circle cx="858.35" cy="876.703" r="4" fill="#0" id="circle287"/>
	<circle cx="860.185" cy="257.277" r="4" fill="#0" id="circle288"/>
	<circle cx="865.691" cy="870.279" r="4" fill="#0" id="circle289"/>
	<circle cx="867.526" cy="263.7" r="4" fill="#0" id="circle290"/>
	<circle cx="872.115" cy="862.938" r="4" fill="#0" id="circle291"/>
	<circle cx="873.95" cy="271.042" r="4" fill="#0" id="circle292"/>
	<circle cx="879.456" cy="856.514" r="4" fill="#0" id="circle293"/>
	<circle cx="881.291" cy="277.465" r="4" fill="#0" id="circle294"/>
	<circle cx="885.88" cy="849.173" r="4" fill="#0" id="circle295"/>
	<circle cx="887.715" cy="284.807" r="4" fill="#0" id="circle296"/>
	<circle cx="893.221" cy="842.749" r="4" fill="#0" id="circle297"/>
	<circle cx="895.056" cy="291.23" r="4" fill="#0" id="circle298"/>
	<circle cx="897.809" cy="833.573" r="4" fill="#0" id="circle299"/>
	<circle cx="898.727" cy="300.407" r="4" fill="#0" id="circle300"/>
	<circle cx="904.233" cy="826.231" r="4" fill="#0" id="circle301"/>
	<circle cx="906.068" cy="306.831" r="4" fill="#0" id="circle302"/>
	<circle cx="908.821" cy="316.007" r="4" fill="#0" id="circle303"/>
	<circle cx="908.821" cy="817.055" r="4" fill="#0" id="circle304"/>
	<circle cx="916.163" cy="321.513" r="4" fill="#0" id="circle305"/>
	<circle cx="916.163" cy="810.631" r="4" fill="#0" id="circle306"/>
	<circle cx="922.586" cy="328.855" r="4" fill="#0" id="circle307"/>
	<circle cx="922.586" cy="798.701" r="4" fill="#0" id="circle308"/>
	<circle cx="927.175" cy="337.114" r="4" fill="#0" id="circle309"/>
	<circle cx="927.175" cy="789.525" r="4" fill="#0" id="circle310"/>
	<circle cx="930.846" cy="346.29" r="4" fill="#0" id="circle311"/>
	<circle cx="934.516" cy="783.101" r="4" fill="#0" id="circle312"/>
	<circle cx="936.352" cy="353.632" r="4" fill="#0" id="circle313"/>
	<circle cx="939.105" cy="773.924" r="4" fill="#0" id="circle314"/>
	<circle cx="940.94" cy="361.891" r="4" fill="#0" id="circle315"/>
	<circle cx="943.693" cy="764.747" r="4" fill="#0" id="circle316"/>
	<circle cx="945.528" cy="370.15" r="4" fill="#0" id="circle317"/>
	<circle cx="948.281" cy="755.571" r="4" fill="#0" id="circle318"/>
	<circle cx="950.117" cy="378.409" r="4" fill="#0" id="circle319"/>
	<circle cx="952.87" cy="746.394" r="4" fill="#0" id="circle320"/>
	<circle cx="953.787" cy="387.586" r="4" fill="#0" id="circle321"/>
	<circle cx="957.458" cy="737.217" r="4" fill="#0" id="circle322"/>
	<circle cx="958.376" cy="395.845" r="4" fill="#0" id="circle323"/>
	<circle cx="959.293" cy="405.021" r="4" fill="#0" id="circle324"/>
	<circle cx="959.293" cy="725.288" r="4" fill="#0" id="circle325"/>
	<circle cx="963.882" cy="413.28" r="4" fill="#0" id="circle326"/>
	<circle cx="963.882" cy="711.523" r="4" fill="#0" id="circle327"/>
	<circle cx="965.717" cy="422.457" r="4" fill="#0" id="circle328"/>
	<circle cx="968.47" cy="431.634" r="4" fill="#0" id="circle329"/>
	<circle cx="968.47" cy="697.758" r="4" fill="#0" id="circle330"/>
	<circle cx="973.058" cy="439.893" r="4" fill="#0" id="circle331"/>
	<circle cx="973.058" cy="449.069" r="4" fill="#0" id="circle332"/>
	<circle cx="973.058" cy="683.993" r="4" fill="#0" id="circle333"/>
	<circle cx="977.647" cy="457.328" r="4" fill="#0" id="circle334"/>
	<circle cx="977.647" cy="466.505" r="4" fill="#0" id="circle335"/>
	<circle cx="977.647" cy="665.639" r="4" fill="#0" id="circle336"/>
	<circle cx="977.647" cy="674.816" r="4" fill="#0" id="circle337"/>
	<circle cx="982.235" cy="474.764" r="4" fill="#0" id="circle338"/>
	<circle cx="982.235" cy="483.941" r="4" fill="#0" id="circle339"/>
	<circle cx="982.235" cy="642.698" r="4" fill="#0" id="circle340"/>
	<circle cx="982.235" cy="651.874" r="4" fill="#0" id="circle341"/>
	<circle cx="985.906" cy="493.117" r="4" fill="#0" id="circle342"/>
	<circle cx="986.823" cy="502.294" r="4" fill="#0" id="circle343"/>
	<circle cx="986.823" cy="511.471" r="4" fill="#0" id="circle344"/>
	<circle cx="986.823" cy="520.648" r="4" fill="#0" id="circle345"/>
	<circle cx="986.823" cy="610.579" r="4" fill="#0" id="circle346"/>
	<circle cx="986.823" cy="619.756" r="4" fill="#0" id="circle347"/>
	<circle cx="986.823" cy="628.932" r="4" fill="#0" id="circle348"/>
	<circle cx="991.412" cy="528.907" r="4" fill="#0" id="circle349"/>
	<circle cx="991.412" cy="538.083" r="4" fill="#0" id="circle350"/>
	<circle cx="991.412" cy="547.26" r="4" fill="#0" id="circle351"/>
	<circle cx="991.412" cy="556.437" r="4" fill="#0" id="circle352"/>
	<circle cx="991.412" cy="565.613" r="4" fill="#0" id="circle353"/>
	<circle cx="991.412" cy="574.79" r="4" fill="#0" id="circle354"/>
	<circle cx="991.412" cy="583.967" r="4" fill="#0" id="circle355"/>
	<circle cx="991.412" cy="593.143" r="4" fill="#0" id="circle356"/>
	<circle cx="991.412" cy="602.32" r="4" fill="#0" id="circle357"/>
	</g>
</svg>