<?xml version="1.0" encoding="UTF-8" standalone="no"?>
<!-- Created with CurveBenchmark -->
<svg
	xmlns:dc="http://purl.org/dc/elements/1.1/"
	xmlns:cc="http://creativecommons.org/ns#"
	xmlns:rdf="http://www.w3.org/1999/02/22-rdf-syntax-ns#"
	xmlns:svg="http://www.w3.org/2000/svg"
	xmlns="http://www.w3.org/2000/svg"
	xmlns:sodipodi="http://sodipodi.sourceforge.net/DTD/sodipodi-0.dtd"
	xmlns:inkscape="http://www.inkscape.org/namespaces/inkscape"
	width="1000"
	height="1000"
	id="svg2"
	version="1.1"
	sodipodi:docname="manifold/crawl-stef16.png.txt">
<defs
	id="defs4" />
<metadata
	id="metadata7">
	<rdf:RDF>
		<cc:Work
			rdf:about="">
			<dc:format>image/svg+xml</dc:format>
			<dc:type
				rdf:resource="http://purl.org/dc/dcmitype/StillImage" />
			<dc:title></dc:title>
		</cc:Work>
	</rdf:RDF>
</metadata>
<g
	inkscape:label="Layer 1"
	inkscape:groupmode="layer"
	id="layer1">
	<path style="fill:none;stroke:red;stroke-width:1px;stroke-linecap:butt;stroke-linejoin:miter;stroke-opacity:1" d="M 4,64.2516 4,85.7701 z" id="boundary" inkscape:connector-curvature="0" />
	<path style="fill:none;stroke:red;stroke-width:1px;stroke-linecap:butt;stroke-linejoin:miter;stroke-opacity:1" d="M 4,64.2516 4,42.7332 z" id="boundary" inkscape:connector-curvature="0" />
	<path style="fill:none;stroke:red;stroke-width:1px;stroke-linecap:butt;stroke-linejoin:miter;stroke-opacity:1" d="M 4,85.7701 14.7592,105.137 z" id="boundary" inkscape:connector-curvature="0" />
	<path style="fill:none;stroke:red;stroke-width:1px;stroke-linecap:butt;stroke-linejoin:miter;stroke-opacity:1" d="M 14.7592,105.137 36.2777,113.744 z" id="boundary" inkscape:connector-curvature="0" />
	<path style="fill:none;stroke:red;stroke-width:1px;stroke-linecap:butt;stroke-linejoin:miter;stroke-opacity:1" d="M 36.2777,113.744 49.1887,130.959 z" id="boundary" inkscape:connector-curvature="0" />
	<path style="fill:none;stroke:red;stroke-width:1px;stroke-linecap:butt;stroke-linejoin:miter;stroke-opacity:1" d="M 49.1887,130.959 66.4035,146.022 z" id="boundary" inkscape:connector-curvature="0" />
	<path style="fill:none;stroke:red;stroke-width:1px;stroke-linecap:butt;stroke-linejoin:miter;stroke-opacity:1" d="M 66.4035,146.022 75.0108,167.54 z" id="boundary" inkscape:connector-curvature="0" />
	<path style="fill:none;stroke:red;stroke-width:1px;stroke-linecap:butt;stroke-linejoin:miter;stroke-opacity:1" d="M 75.0108,167.54 92.2256,182.603 z" id="boundary" inkscape:connector-curvature="0" />
	<path style="fill:none;stroke:red;stroke-width:1px;stroke-linecap:butt;stroke-linejoin:miter;stroke-opacity:1" d="M 92.2256,182.603 111.592,193.362 z" id="boundary" inkscape:connector-curvature="0" />
	<path style="fill:none;stroke:red;stroke-width:1px;stroke-linecap:butt;stroke-linejoin:miter;stroke-opacity:1" d="M 111.592,193.362 128.807,208.425 z" id="boundary" inkscape:connector-curvature="0" />
	<path style="fill:none;stroke:red;stroke-width:1px;stroke-linecap:butt;stroke-linejoin:miter;stroke-opacity:1" d="M 128.807,208.425 143.87,225.64 z" id="boundary" inkscape:connector-curvature="0" />
	<path style="fill:none;stroke:red;stroke-width:1px;stroke-linecap:butt;stroke-linejoin:miter;stroke-opacity:1" d="M 143.87,225.64 154.629,245.007 z" id="boundary" inkscape:connector-curvature="0" />
	<path style="fill:none;stroke:red;stroke-width:1px;stroke-linecap:butt;stroke-linejoin:miter;stroke-opacity:1" d="M 154.629,245.007 165.388,264.373 z" id="boundary" inkscape:connector-curvature="0" />
	<path style="fill:none;stroke:red;stroke-width:1px;stroke-linecap:butt;stroke-linejoin:miter;stroke-opacity:1" d="M 165.388,264.373 184.755,275.132 z" id="boundary" inkscape:connector-curvature="0" />
	<path style="fill:none;stroke:red;stroke-width:1px;stroke-linecap:butt;stroke-linejoin:miter;stroke-opacity:1" d="M 184.755,275.132 197.666,292.347 z" id="boundary" inkscape:connector-curvature="0" />
	<path style="fill:none;stroke:red;stroke-width:1px;stroke-linecap:butt;stroke-linejoin:miter;stroke-opacity:1" d="M 4,42.7332 21.2148,25.5184 z" id="boundary" inkscape:connector-curvature="0" />
	<path style="fill:none;stroke:red;stroke-width:1px;stroke-linecap:butt;stroke-linejoin:miter;stroke-opacity:1" d="M 21.2148,25.5184 38.4295,8.30369 z" id="boundary" inkscape:connector-curvature="0" />
	<path style="fill:none;stroke:red;stroke-width:1px;stroke-linecap:butt;stroke-linejoin:miter;stroke-opacity:1" d="M 38.4295,8.30369 59.9479,4 z" id="boundary" inkscape:connector-curvature="0" />
	<path style="fill:none;stroke:red;stroke-width:1px;stroke-linecap:butt;stroke-linejoin:miter;stroke-opacity:1" d="M 59.9479,4 81.4664,10.4555 z" id="boundary" inkscape:connector-curvature="0" />
	<path style="fill:none;stroke:red;stroke-width:1px;stroke-linecap:butt;stroke-linejoin:miter;stroke-opacity:1" d="M 81.4664,10.4555 102.985,14.7592 z" id="boundary" inkscape:connector-curvature="0" />
	<path style="fill:none;stroke:red;stroke-width:1px;stroke-linecap:butt;stroke-linejoin:miter;stroke-opacity:1" d="M 102.985,14.7592 122.351,25.5184 z" id="boundary" inkscape:connector-curvature="0" />
	<path style="fill:none;stroke:red;stroke-width:1px;stroke-linecap:butt;stroke-linejoin:miter;stroke-opacity:1" d="M 122.351,25.5184 143.87,29.8221 z" id="boundary" inkscape:connector-curvature="0" />
	<path style="fill:none;stroke:red;stroke-width:1px;stroke-linecap:butt;stroke-linejoin:miter;stroke-opacity:1" d="M 143.87,29.8221 165.388,29.8221 z" id="boundary" inkscape:connector-curvature="0" />
	<path style="fill:none;stroke:red;stroke-width:1px;stroke-linecap:butt;stroke-linejoin:miter;stroke-opacity:1" d="M 165.388,29.8221 173.996,51.3406 z" id="boundary" inkscape:connector-curvature="0" />
	<path style="fill:none;stroke:red;stroke-width:1px;stroke-linecap:butt;stroke-linejoin:miter;stroke-opacity:1" d="M 173.996,51.3406 189.059,68.5553 z" id="boundary" inkscape:connector-curvature="0" />
	<path style="fill:none;stroke:red;stroke-width:1px;stroke-linecap:butt;stroke-linejoin:miter;stroke-opacity:1" d="M 189.059,68.5553 206.273,81.4664 z" id="boundary" inkscape:connector-curvature="0" />
	<path style="fill:none;stroke:red;stroke-width:1px;stroke-linecap:butt;stroke-linejoin:miter;stroke-opacity:1" d="M 206.273,81.4664 227.792,90.0738 z" id="boundary" inkscape:connector-curvature="0" />
	<path style="fill:none;stroke:red;stroke-width:1px;stroke-linecap:butt;stroke-linejoin:miter;stroke-opacity:1" d="M 227.792,90.0738 249.31,90.0738 z" id="boundary" inkscape:connector-curvature="0" />
	<path style="fill:none;stroke:red;stroke-width:1px;stroke-linecap:butt;stroke-linejoin:miter;stroke-opacity:1" d="M 249.31,90.0738 270.829,90.0738 z" id="boundary" inkscape:connector-curvature="0" />
	<path style="fill:none;stroke:red;stroke-width:1px;stroke-linecap:butt;stroke-linejoin:miter;stroke-opacity:1" d="M 270.829,90.0738 292.347,90.0738 z" id="boundary" inkscape:connector-curvature="0" />
	<path style="fill:none;stroke:red;stroke-width:1px;stroke-linecap:butt;stroke-linejoin:miter;stroke-opacity:1" d="M 292.347,90.0738 311.714,100.833 z" id="boundary" inkscape:connector-curvature="0" />
	<path style="fill:none;stroke:red;stroke-width:1px;stroke-linecap:butt;stroke-linejoin:miter;stroke-opacity:1" d="M 311.714,100.833 333.232,100.833 z" id="boundary" inkscape:connector-curvature="0" />
	<path style="fill:none;stroke:red;stroke-width:1px;stroke-linecap:butt;stroke-linejoin:miter;stroke-opacity:1" d="M 333.232,100.833 352.599,111.592 z" id="boundary" inkscape:connector-curvature="0" />
	<path style="fill:none;stroke:red;stroke-width:1px;stroke-linecap:butt;stroke-linejoin:miter;stroke-opacity:1" d="M 352.599,111.592 371.965,122.351 z" id="boundary" inkscape:connector-curvature="0" />
	<path style="fill:none;stroke:red;stroke-width:1px;stroke-linecap:butt;stroke-linejoin:miter;stroke-opacity:1" d="M 371.965,122.351 391.332,133.111 z" id="boundary" inkscape:connector-curvature="0" />
	<path style="fill:none;stroke:red;stroke-width:1px;stroke-linecap:butt;stroke-linejoin:miter;stroke-opacity:1" d="M 391.332,133.111 410.698,143.87 z" id="boundary" inkscape:connector-curvature="0" />
	<path style="fill:none;stroke:red;stroke-width:1px;stroke-linecap:butt;stroke-linejoin:miter;stroke-opacity:1" d="M 410.698,143.87 430.065,154.629 z" id="boundary" inkscape:connector-curvature="0" />
	<path style="fill:none;stroke:red;stroke-width:1px;stroke-linecap:butt;stroke-linejoin:miter;stroke-opacity:1" d="M 430.065,154.629 449.432,165.388 z" id="boundary" inkscape:connector-curvature="0" />
	<path style="fill:none;stroke:red;stroke-width:1px;stroke-linecap:butt;stroke-linejoin:miter;stroke-opacity:1" d="M 449.432,165.388 466.646,180.451 z" id="boundary" inkscape:connector-curvature="0" />
	<path style="fill:none;stroke:red;stroke-width:1px;stroke-linecap:butt;stroke-linejoin:miter;stroke-opacity:1" d="M 466.646,180.451 479.557,197.666 z" id="boundary" inkscape:connector-curvature="0" />
	<path style="fill:none;stroke:red;stroke-width:1px;stroke-linecap:butt;stroke-linejoin:miter;stroke-opacity:1" d="M 479.557,197.666 496.772,210.577 z" id="boundary" inkscape:connector-curvature="0" />
	<path style="fill:none;stroke:red;stroke-width:1px;stroke-linecap:butt;stroke-linejoin:miter;stroke-opacity:1" d="M 496.772,210.577 511.835,227.792 z" id="boundary" inkscape:connector-curvature="0" />
	<path style="fill:none;stroke:red;stroke-width:1px;stroke-linecap:butt;stroke-linejoin:miter;stroke-opacity:1" d="M 511.835,227.792 533.354,225.64 z" id="boundary" inkscape:connector-curvature="0" />
	<path style="fill:none;stroke:red;stroke-width:1px;stroke-linecap:butt;stroke-linejoin:miter;stroke-opacity:1" d="M 533.354,225.64 541.961,247.158 z" id="boundary" inkscape:connector-curvature="0" />
	<path style="fill:none;stroke:red;stroke-width:1px;stroke-linecap:butt;stroke-linejoin:miter;stroke-opacity:1" d="M 541.961,247.158 559.176,262.221 z" id="boundary" inkscape:connector-curvature="0" />
	<path style="fill:none;stroke:red;stroke-width:1px;stroke-linecap:butt;stroke-linejoin:miter;stroke-opacity:1" d="M 559.176,262.221 578.542,272.98 z" id="boundary" inkscape:connector-curvature="0" />
	<path style="fill:none;stroke:red;stroke-width:1px;stroke-linecap:butt;stroke-linejoin:miter;stroke-opacity:1" d="M 578.542,272.98 597.909,283.74 z" id="boundary" inkscape:connector-curvature="0" />
	<path style="fill:none;stroke:red;stroke-width:1px;stroke-linecap:butt;stroke-linejoin:miter;stroke-opacity:1" d="M 597.909,283.74 608.668,303.106 z" id="boundary" inkscape:connector-curvature="0" />
	<path style="fill:none;stroke:red;stroke-width:1px;stroke-linecap:butt;stroke-linejoin:miter;stroke-opacity:1" d="M 608.668,303.106 619.427,322.473 z" id="boundary" inkscape:connector-curvature="0" />
	<path style="fill:none;stroke:red;stroke-width:1px;stroke-linecap:butt;stroke-linejoin:miter;stroke-opacity:1" d="M 619.427,322.473 619.427,343.991 z" id="boundary" inkscape:connector-curvature="0" />
	<path style="fill:none;stroke:red;stroke-width:1px;stroke-linecap:butt;stroke-linejoin:miter;stroke-opacity:1" d="M 619.427,343.991 597.909,361.206 z" id="boundary" inkscape:connector-curvature="0" />
	<path style="fill:none;stroke:red;stroke-width:1px;stroke-linecap:butt;stroke-linejoin:miter;stroke-opacity:1" d="M 597.909,361.206 587.15,393.484 z" id="boundary" inkscape:connector-curvature="0" />
	<path style="fill:none;stroke:red;stroke-width:1px;stroke-linecap:butt;stroke-linejoin:miter;stroke-opacity:1" d="M 587.15,393.484 576.39,425.761 z" id="boundary" inkscape:connector-curvature="0" />
	<path style="fill:none;stroke:red;stroke-width:1px;stroke-linecap:butt;stroke-linejoin:miter;stroke-opacity:1" d="M 576.39,425.761 576.39,458.039 z" id="boundary" inkscape:connector-curvature="0" />
	<path style="fill:none;stroke:red;stroke-width:1px;stroke-linecap:butt;stroke-linejoin:miter;stroke-opacity:1" d="M 576.39,458.039 587.15,477.406 z" id="boundary" inkscape:connector-curvature="0" />
	<path style="fill:none;stroke:red;stroke-width:1px;stroke-linecap:butt;stroke-linejoin:miter;stroke-opacity:1" d="M 587.15,477.406 608.668,477.406 z" id="boundary" inkscape:connector-curvature="0" />
	<path style="fill:none;stroke:red;stroke-width:1px;stroke-linecap:butt;stroke-linejoin:miter;stroke-opacity:1" d="M 608.668,477.406 628.035,488.165 z" id="boundary" inkscape:connector-curvature="0" />
	<path style="fill:none;stroke:red;stroke-width:1px;stroke-linecap:butt;stroke-linejoin:miter;stroke-opacity:1" d="M 628.035,488.165 640.946,470.95 z" id="boundary" inkscape:connector-curvature="0" />
	<path style="fill:none;stroke:red;stroke-width:1px;stroke-linecap:butt;stroke-linejoin:miter;stroke-opacity:1" d="M 640.946,470.95 662.464,466.646 z" id="boundary" inkscape:connector-curvature="0" />
	<path style="fill:none;stroke:red;stroke-width:1px;stroke-linecap:butt;stroke-linejoin:miter;stroke-opacity:1" d="M 662.464,466.646 681.831,455.887 z" id="boundary" inkscape:connector-curvature="0" />
	<path style="fill:none;stroke:red;stroke-width:1px;stroke-linecap:butt;stroke-linejoin:miter;stroke-opacity:1" d="M 681.831,455.887 703.349,451.584 z" id="boundary" inkscape:connector-curvature="0" />
	<path style="fill:none;stroke:red;stroke-width:1px;stroke-linecap:butt;stroke-linejoin:miter;stroke-opacity:1" d="M 703.349,451.584 724.868,440.824 z" id="boundary" inkscape:connector-curvature="0" />
	<path style="fill:none;stroke:red;stroke-width:1px;stroke-linecap:butt;stroke-linejoin:miter;stroke-opacity:1" d="M 724.868,440.824 746.386,430.065 z" id="boundary" inkscape:connector-curvature="0" />
	<path style="fill:none;stroke:red;stroke-width:1px;stroke-linecap:butt;stroke-linejoin:miter;stroke-opacity:1" d="M 746.386,430.065 763.601,412.85 z" id="boundary" inkscape:connector-curvature="0" />
	<path style="fill:none;stroke:red;stroke-width:1px;stroke-linecap:butt;stroke-linejoin:miter;stroke-opacity:1" d="M 763.601,412.85 785.119,412.85 z" id="boundary" inkscape:connector-curvature="0" />
	<path style="fill:none;stroke:red;stroke-width:1px;stroke-linecap:butt;stroke-linejoin:miter;stroke-opacity:1" d="M 785.119,412.85 802.334,395.636 z" id="boundary" inkscape:connector-curvature="0" />
	<path style="fill:none;stroke:red;stroke-width:1px;stroke-linecap:butt;stroke-linejoin:miter;stroke-opacity:1" d="M 802.334,395.636 823.852,384.876 z" id="boundary" inkscape:connector-curvature="0" />
	<path style="fill:none;stroke:red;stroke-width:1px;stroke-linecap:butt;stroke-linejoin:miter;stroke-opacity:1" d="M 823.852,384.876 845.371,374.117 z" id="boundary" inkscape:connector-curvature="0" />
	<path style="fill:none;stroke:red;stroke-width:1px;stroke-linecap:butt;stroke-linejoin:miter;stroke-opacity:1" d="M 845.371,374.117 866.889,363.358 z" id="boundary" inkscape:connector-curvature="0" />
	<path style="fill:none;stroke:red;stroke-width:1px;stroke-linecap:butt;stroke-linejoin:miter;stroke-opacity:1" d="M 866.889,363.358 888.408,359.054 z" id="boundary" inkscape:connector-curvature="0" />
	<path style="fill:none;stroke:red;stroke-width:1px;stroke-linecap:butt;stroke-linejoin:miter;stroke-opacity:1" d="M 888.408,359.054 907.774,348.295 z" id="boundary" inkscape:connector-curvature="0" />
	<path style="fill:none;stroke:red;stroke-width:1px;stroke-linecap:butt;stroke-linejoin:miter;stroke-opacity:1" d="M 907.774,348.295 929.293,348.295 z" id="boundary" inkscape:connector-curvature="0" />
	<path style="fill:none;stroke:red;stroke-width:1px;stroke-linecap:butt;stroke-linejoin:miter;stroke-opacity:1" d="M 929.293,348.295 948.659,359.054 z" id="boundary" inkscape:connector-curvature="0" />
	<path style="fill:none;stroke:red;stroke-width:1px;stroke-linecap:butt;stroke-linejoin:miter;stroke-opacity:1" d="M 948.659,359.054 963.722,376.269 z" id="boundary" inkscape:connector-curvature="0" />
	<path style="fill:none;stroke:red;stroke-width:1px;stroke-linecap:butt;stroke-linejoin:miter;stroke-opacity:1" d="M 963.722,376.269 978.785,393.484 z" id="boundary" inkscape:connector-curvature="0" />
	<path style="fill:none;stroke:red;stroke-width:1px;stroke-linecap:butt;stroke-linejoin:miter;stroke-opacity:1" d="M 978.785,393.484 974.482,415.002 z" id="boundary" inkscape:connector-curvature="0" />
	<path style="fill:none;stroke:red;stroke-width:1px;stroke-linecap:butt;stroke-linejoin:miter;stroke-opacity:1" d="M 974.482,415.002 985.241,434.369 z" id="boundary" inkscape:connector-curvature="0" />
	<path style="fill:none;stroke:red;stroke-width:1px;stroke-linecap:butt;stroke-linejoin:miter;stroke-opacity:1" d="M 985.241,434.369 996,453.735 z" id="boundary" inkscape:connector-curvature="0" />
	<path style="fill:none;stroke:red;stroke-width:1px;stroke-linecap:butt;stroke-linejoin:miter;stroke-opacity:1" d="M 996,453.735 978.785,488.165 z" id="boundary" inkscape:connector-curvature="0" />
	<path style="fill:none;stroke:red;stroke-width:1px;stroke-linecap:butt;stroke-linejoin:miter;stroke-opacity:1" d="M 978.785,488.165 957.267,479.557 z" id="boundary" inkscape:connector-curvature="0" />
	<path style="fill:none;stroke:red;stroke-width:1px;stroke-linecap:butt;stroke-linejoin:miter;stroke-opacity:1" d="M 957.267,479.557 937.9,468.798 z" id="boundary" inkscape:connector-curvature="0" />
	<path style="fill:none;stroke:red;stroke-width:1px;stroke-linecap:butt;stroke-linejoin:miter;stroke-opacity:1" d="M 937.9,468.798 916.382,468.798 z" id="boundary" inkscape:connector-curvature="0" />
	<path style="fill:none;stroke:red;stroke-width:1px;stroke-linecap:butt;stroke-linejoin:miter;stroke-opacity:1" d="M 916.382,468.798 894.863,468.798 z" id="boundary" inkscape:connector-curvature="0" />
	<path style="fill:none;stroke:red;stroke-width:1px;stroke-linecap:butt;stroke-linejoin:miter;stroke-opacity:1" d="M 894.863,468.798 873.345,468.798 z" id="boundary" inkscape:connector-curvature="0" />
	<path style="fill:none;stroke:red;stroke-width:1px;stroke-linecap:butt;stroke-linejoin:miter;stroke-opacity:1" d="M 873.345,468.798 851.826,468.798 z" id="boundary" inkscape:connector-curvature="0" />
	<path style="fill:none;stroke:red;stroke-width:1px;stroke-linecap:butt;stroke-linejoin:miter;stroke-opacity:1" d="M 851.826,468.798 830.308,468.798 z" id="boundary" inkscape:connector-curvature="0" />
	<path style="fill:none;stroke:red;stroke-width:1px;stroke-linecap:butt;stroke-linejoin:miter;stroke-opacity:1" d="M 830.308,468.798 810.941,479.557 z" id="boundary" inkscape:connector-curvature="0" />
	<path style="fill:none;stroke:red;stroke-width:1px;stroke-linecap:butt;stroke-linejoin:miter;stroke-opacity:1" d="M 810.941,479.557 791.575,490.317 z" id="boundary" inkscape:connector-curvature="0" />
	<path style="fill:none;stroke:red;stroke-width:1px;stroke-linecap:butt;stroke-linejoin:miter;stroke-opacity:1" d="M 791.575,490.317 776.512,507.531 z" id="boundary" inkscape:connector-curvature="0" />
	<path style="fill:none;stroke:red;stroke-width:1px;stroke-linecap:butt;stroke-linejoin:miter;stroke-opacity:1" d="M 776.512,507.531 759.297,522.594 z" id="boundary" inkscape:connector-curvature="0" />
	<path style="fill:none;stroke:red;stroke-width:1px;stroke-linecap:butt;stroke-linejoin:miter;stroke-opacity:1" d="M 759.297,522.594 744.234,539.809 z" id="boundary" inkscape:connector-curvature="0" />
	<path style="fill:none;stroke:red;stroke-width:1px;stroke-linecap:butt;stroke-linejoin:miter;stroke-opacity:1" d="M 744.234,539.809 722.716,550.568 z" id="boundary" inkscape:connector-curvature="0" />
	<path style="fill:none;stroke:red;stroke-width:1px;stroke-linecap:butt;stroke-linejoin:miter;stroke-opacity:1" d="M 722.716,550.568 705.501,565.631 z" id="boundary" inkscape:connector-curvature="0" />
	<path style="fill:none;stroke:red;stroke-width:1px;stroke-linecap:butt;stroke-linejoin:miter;stroke-opacity:1" d="M 705.501,565.631 683.983,576.39 z" id="boundary" inkscape:connector-curvature="0" />
	<path style="fill:none;stroke:red;stroke-width:1px;stroke-linecap:butt;stroke-linejoin:miter;stroke-opacity:1" d="M 683.983,576.39 662.464,587.15 z" id="boundary" inkscape:connector-curvature="0" />
	<path style="fill:none;stroke:red;stroke-width:1px;stroke-linecap:butt;stroke-linejoin:miter;stroke-opacity:1" d="M 662.464,587.15 640.946,597.909 z" id="boundary" inkscape:connector-curvature="0" />
	<path style="fill:none;stroke:red;stroke-width:1px;stroke-linecap:butt;stroke-linejoin:miter;stroke-opacity:1" d="M 640.946,597.909 623.731,617.275 z" id="boundary" inkscape:connector-curvature="0" />
	<path style="fill:none;stroke:red;stroke-width:1px;stroke-linecap:butt;stroke-linejoin:miter;stroke-opacity:1" d="M 623.731,617.275 602.213,619.427 z" id="boundary" inkscape:connector-curvature="0" />
	<path style="fill:none;stroke:red;stroke-width:1px;stroke-linecap:butt;stroke-linejoin:miter;stroke-opacity:1" d="M 602.213,619.427 582.846,630.187 z" id="boundary" inkscape:connector-curvature="0" />
	<path style="fill:none;stroke:red;stroke-width:1px;stroke-linecap:butt;stroke-linejoin:miter;stroke-opacity:1" d="M 582.846,630.187 561.328,630.187 z" id="boundary" inkscape:connector-curvature="0" />
	<path style="fill:none;stroke:red;stroke-width:1px;stroke-linecap:butt;stroke-linejoin:miter;stroke-opacity:1" d="M 561.328,630.187 541.961,619.427 z" id="boundary" inkscape:connector-curvature="0" />
	<path style="fill:none;stroke:red;stroke-width:1px;stroke-linecap:butt;stroke-linejoin:miter;stroke-opacity:1" d="M 541.961,619.427 522.594,608.668 z" id="boundary" inkscape:connector-curvature="0" />
	<path style="fill:none;stroke:red;stroke-width:1px;stroke-linecap:butt;stroke-linejoin:miter;stroke-opacity:1" d="M 522.594,608.668 503.228,597.909 z" id="boundary" inkscape:connector-curvature="0" />
	<path style="fill:none;stroke:red;stroke-width:1px;stroke-linecap:butt;stroke-linejoin:miter;stroke-opacity:1" d="M 503.228,597.909 483.861,587.15 z" id="boundary" inkscape:connector-curvature="0" />
	<path style="fill:none;stroke:red;stroke-width:1px;stroke-linecap:butt;stroke-linejoin:miter;stroke-opacity:1" d="M 483.861,587.15 468.798,569.935 z" id="boundary" inkscape:connector-curvature="0" />
	<path style="fill:none;stroke:red;stroke-width:1px;stroke-linecap:butt;stroke-linejoin:miter;stroke-opacity:1" d="M 468.798,569.935 455.887,552.72 z" id="boundary" inkscape:connector-curvature="0" />
	<path style="fill:none;stroke:red;stroke-width:1px;stroke-linecap:butt;stroke-linejoin:miter;stroke-opacity:1" d="M 455.887,552.72 445.128,533.354 z" id="boundary" inkscape:connector-curvature="0" />
	<path style="fill:none;stroke:red;stroke-width:1px;stroke-linecap:butt;stroke-linejoin:miter;stroke-opacity:1" d="M 445.128,533.354 445.128,511.835 z" id="boundary" inkscape:connector-curvature="0" />
	<path style="fill:none;stroke:red;stroke-width:1px;stroke-linecap:butt;stroke-linejoin:miter;stroke-opacity:1" d="M 445.128,511.835 434.369,492.469 z" id="boundary" inkscape:connector-curvature="0" />
	<path style="fill:none;stroke:red;stroke-width:1px;stroke-linecap:butt;stroke-linejoin:miter;stroke-opacity:1" d="M 434.369,492.469 423.61,473.102 z" id="boundary" inkscape:connector-curvature="0" />
	<path style="fill:none;stroke:red;stroke-width:1px;stroke-linecap:butt;stroke-linejoin:miter;stroke-opacity:1" d="M 423.61,473.102 434.369,453.735 z" id="boundary" inkscape:connector-curvature="0" />
	<path style="fill:none;stroke:red;stroke-width:1px;stroke-linecap:butt;stroke-linejoin:miter;stroke-opacity:1" d="M 434.369,453.735 421.458,436.521 z" id="boundary" inkscape:connector-curvature="0" />
	<path style="fill:none;stroke:red;stroke-width:1px;stroke-linecap:butt;stroke-linejoin:miter;stroke-opacity:1" d="M 421.458,436.521 399.939,436.521 z" id="boundary" inkscape:connector-curvature="0" />
	<path style="fill:none;stroke:red;stroke-width:1px;stroke-linecap:butt;stroke-linejoin:miter;stroke-opacity:1" d="M 399.939,436.521 378.421,442.976 z" id="boundary" inkscape:connector-curvature="0" />
	<path style="fill:none;stroke:red;stroke-width:1px;stroke-linecap:butt;stroke-linejoin:miter;stroke-opacity:1" d="M 378.421,442.976 361.206,458.039 z" id="boundary" inkscape:connector-curvature="0" />
	<path style="fill:none;stroke:red;stroke-width:1px;stroke-linecap:butt;stroke-linejoin:miter;stroke-opacity:1" d="M 361.206,458.039 346.143,486.013 z" id="boundary" inkscape:connector-curvature="0" />
	<path style="fill:none;stroke:red;stroke-width:1px;stroke-linecap:butt;stroke-linejoin:miter;stroke-opacity:1" d="M 346.143,486.013 335.384,507.531 z" id="boundary" inkscape:connector-curvature="0" />
	<path style="fill:none;stroke:red;stroke-width:1px;stroke-linecap:butt;stroke-linejoin:miter;stroke-opacity:1" d="M 335.384,507.531 318.169,522.594 z" id="boundary" inkscape:connector-curvature="0" />
	<path style="fill:none;stroke:red;stroke-width:1px;stroke-linecap:butt;stroke-linejoin:miter;stroke-opacity:1" d="M 318.169,522.594 307.41,554.872 z" id="boundary" inkscape:connector-curvature="0" />
	<path style="fill:none;stroke:red;stroke-width:1px;stroke-linecap:butt;stroke-linejoin:miter;stroke-opacity:1" d="M 307.41,554.872 296.651,576.39 z" id="boundary" inkscape:connector-curvature="0" />
	<path style="fill:none;stroke:red;stroke-width:1px;stroke-linecap:butt;stroke-linejoin:miter;stroke-opacity:1" d="M 296.651,576.39 285.892,597.909 z" id="boundary" inkscape:connector-curvature="0" />
	<path style="fill:none;stroke:red;stroke-width:1px;stroke-linecap:butt;stroke-linejoin:miter;stroke-opacity:1" d="M 285.892,597.909 285.892,619.427 z" id="boundary" inkscape:connector-curvature="0" />
	<path style="fill:none;stroke:red;stroke-width:1px;stroke-linecap:butt;stroke-linejoin:miter;stroke-opacity:1" d="M 285.892,619.427 285.892,640.946 z" id="boundary" inkscape:connector-curvature="0" />
	<path style="fill:none;stroke:red;stroke-width:1px;stroke-linecap:butt;stroke-linejoin:miter;stroke-opacity:1" d="M 285.892,640.946 285.892,662.464 z" id="boundary" inkscape:connector-curvature="0" />
	<path style="fill:none;stroke:red;stroke-width:1px;stroke-linecap:butt;stroke-linejoin:miter;stroke-opacity:1" d="M 285.892,662.464 285.892,683.983 z" id="boundary" inkscape:connector-curvature="0" />
	<path style="fill:none;stroke:red;stroke-width:1px;stroke-linecap:butt;stroke-linejoin:miter;stroke-opacity:1" d="M 285.892,683.983 285.892,705.501 z" id="boundary" inkscape:connector-curvature="0" />
	<path style="fill:none;stroke:red;stroke-width:1px;stroke-linecap:butt;stroke-linejoin:miter;stroke-opacity:1" d="M 285.892,705.501 285.892,737.779 z" id="boundary" inkscape:connector-curvature="0" />
	<path style="fill:none;stroke:red;stroke-width:1px;stroke-linecap:butt;stroke-linejoin:miter;stroke-opacity:1" d="M 285.892,737.779 285.892,759.297 z" id="boundary" inkscape:connector-curvature="0" />
	<path style="fill:none;stroke:red;stroke-width:1px;stroke-linecap:butt;stroke-linejoin:miter;stroke-opacity:1" d="M 285.892,759.297 290.195,780.816 z" id="boundary" inkscape:connector-curvature="0" />
	<path style="fill:none;stroke:red;stroke-width:1px;stroke-linecap:butt;stroke-linejoin:miter;stroke-opacity:1" d="M 290.195,780.816 296.651,802.334 z" id="boundary" inkscape:connector-curvature="0" />
	<path style="fill:none;stroke:red;stroke-width:1px;stroke-linecap:butt;stroke-linejoin:miter;stroke-opacity:1" d="M 296.651,802.334 307.41,828.156 z" id="boundary" inkscape:connector-curvature="0" />
	<path style="fill:none;stroke:red;stroke-width:1px;stroke-linecap:butt;stroke-linejoin:miter;stroke-opacity:1" d="M 307.41,828.156 285.892,834.612 z" id="boundary" inkscape:connector-curvature="0" />
	<path style="fill:none;stroke:red;stroke-width:1px;stroke-linecap:butt;stroke-linejoin:miter;stroke-opacity:1" d="M 285.892,834.612 275.132,866.889 z" id="boundary" inkscape:connector-curvature="0" />
	<path style="fill:none;stroke:red;stroke-width:1px;stroke-linecap:butt;stroke-linejoin:miter;stroke-opacity:1" d="M 275.132,866.889 260.069,884.104 z" id="boundary" inkscape:connector-curvature="0" />
	<path style="fill:none;stroke:red;stroke-width:1px;stroke-linecap:butt;stroke-linejoin:miter;stroke-opacity:1" d="M 260.069,884.104 238.551,894.863 z" id="boundary" inkscape:connector-curvature="0" />
	<path style="fill:none;stroke:red;stroke-width:1px;stroke-linecap:butt;stroke-linejoin:miter;stroke-opacity:1" d="M 238.551,894.863 217.033,899.167 z" id="boundary" inkscape:connector-curvature="0" />
	<path style="fill:none;stroke:red;stroke-width:1px;stroke-linecap:butt;stroke-linejoin:miter;stroke-opacity:1" d="M 217.033,899.167 195.514,899.167 z" id="boundary" inkscape:connector-curvature="0" />
	<path style="fill:none;stroke:red;stroke-width:1px;stroke-linecap:butt;stroke-linejoin:miter;stroke-opacity:1" d="M 195.514,899.167 173.996,894.863 z" id="boundary" inkscape:connector-curvature="0" />
	<path style="fill:none;stroke:red;stroke-width:1px;stroke-linecap:butt;stroke-linejoin:miter;stroke-opacity:1" d="M 173.996,894.863 152.477,899.167 z" id="boundary" inkscape:connector-curvature="0" />
	<path style="fill:none;stroke:red;stroke-width:1px;stroke-linecap:butt;stroke-linejoin:miter;stroke-opacity:1" d="M 152.477,899.167 133.111,888.408 z" id="boundary" inkscape:connector-curvature="0" />
	<path style="fill:none;stroke:red;stroke-width:1px;stroke-linecap:butt;stroke-linejoin:miter;stroke-opacity:1" d="M 133.111,888.408 111.592,881.952 z" id="boundary" inkscape:connector-curvature="0" />
	<path style="fill:none;stroke:red;stroke-width:1px;stroke-linecap:butt;stroke-linejoin:miter;stroke-opacity:1" d="M 111.592,881.952 111.592,860.434 z" id="boundary" inkscape:connector-curvature="0" />
	<path style="fill:none;stroke:red;stroke-width:1px;stroke-linecap:butt;stroke-linejoin:miter;stroke-opacity:1" d="M 111.592,860.434 128.807,843.219 z" id="boundary" inkscape:connector-curvature="0" />
	<path style="fill:none;stroke:red;stroke-width:1px;stroke-linecap:butt;stroke-linejoin:miter;stroke-opacity:1" d="M 128.807,843.219 146.022,826.004 z" id="boundary" inkscape:connector-curvature="0" />
	<path style="fill:none;stroke:red;stroke-width:1px;stroke-linecap:butt;stroke-linejoin:miter;stroke-opacity:1" d="M 146.022,826.004 163.236,810.941 z" id="boundary" inkscape:connector-curvature="0" />
	<path style="fill:none;stroke:red;stroke-width:1px;stroke-linecap:butt;stroke-linejoin:miter;stroke-opacity:1" d="M 163.236,810.941 182.603,800.182 z" id="boundary" inkscape:connector-curvature="0" />
	<path style="fill:none;stroke:red;stroke-width:1px;stroke-linecap:butt;stroke-linejoin:miter;stroke-opacity:1" d="M 182.603,800.182 197.666,774.36 z" id="boundary" inkscape:connector-curvature="0" />
	<path style="fill:none;stroke:red;stroke-width:1px;stroke-linecap:butt;stroke-linejoin:miter;stroke-opacity:1" d="M 197.666,774.36 197.666,752.842 z" id="boundary" inkscape:connector-curvature="0" />
	<path style="fill:none;stroke:red;stroke-width:1px;stroke-linecap:butt;stroke-linejoin:miter;stroke-opacity:1" d="M 197.666,752.842 197.666,720.564 z" id="boundary" inkscape:connector-curvature="0" />
	<path style="fill:none;stroke:red;stroke-width:1px;stroke-linecap:butt;stroke-linejoin:miter;stroke-opacity:1" d="M 197.666,720.564 197.666,688.286 z" id="boundary" inkscape:connector-curvature="0" />
	<path style="fill:none;stroke:red;stroke-width:1px;stroke-linecap:butt;stroke-linejoin:miter;stroke-opacity:1" d="M 197.666,688.286 197.666,656.009 z" id="boundary" inkscape:connector-curvature="0" />
	<path style="fill:none;stroke:red;stroke-width:1px;stroke-linecap:butt;stroke-linejoin:miter;stroke-opacity:1" d="M 197.666,656.009 197.666,623.731 z" id="boundary" inkscape:connector-curvature="0" />
	<path style="fill:none;stroke:red;stroke-width:1px;stroke-linecap:butt;stroke-linejoin:miter;stroke-opacity:1" d="M 197.666,623.731 197.666,591.453 z" id="boundary" inkscape:connector-curvature="0" />
	<path style="fill:none;stroke:red;stroke-width:1px;stroke-linecap:butt;stroke-linejoin:miter;stroke-opacity:1" d="M 197.666,591.453 197.666,559.176 z" id="boundary" inkscape:connector-curvature="0" />
	<path style="fill:none;stroke:red;stroke-width:1px;stroke-linecap:butt;stroke-linejoin:miter;stroke-opacity:1" d="M 197.666,559.176 197.666,526.898 z" id="boundary" inkscape:connector-curvature="0" />
	<path style="fill:none;stroke:red;stroke-width:1px;stroke-linecap:butt;stroke-linejoin:miter;stroke-opacity:1" d="M 197.666,526.898 197.666,494.62 z" id="boundary" inkscape:connector-curvature="0" />
	<path style="fill:none;stroke:red;stroke-width:1px;stroke-linecap:butt;stroke-linejoin:miter;stroke-opacity:1" d="M 197.666,494.62 197.666,462.343 z" id="boundary" inkscape:connector-curvature="0" />
	<path style="fill:none;stroke:red;stroke-width:1px;stroke-linecap:butt;stroke-linejoin:miter;stroke-opacity:1" d="M 197.666,462.343 197.666,430.065 z" id="boundary" inkscape:connector-curvature="0" />
	<path style="fill:none;stroke:red;stroke-width:1px;stroke-linecap:butt;stroke-linejoin:miter;stroke-opacity:1" d="M 197.666,430.065 197.666,397.787 z" id="boundary" inkscape:connector-curvature="0" />
	<path style="fill:none;stroke:red;stroke-width:1px;stroke-linecap:butt;stroke-linejoin:miter;stroke-opacity:1" d="M 197.666,397.787 197.666,365.51 z" id="boundary" inkscape:connector-curvature="0" />
	<path style="fill:none;stroke:red;stroke-width:1px;stroke-linecap:butt;stroke-linejoin:miter;stroke-opacity:1" d="M 197.666,365.51 197.666,333.232 z" id="boundary" inkscape:connector-curvature="0" />
	<path style="fill:none;stroke:red;stroke-width:1px;stroke-linecap:butt;stroke-linejoin:miter;stroke-opacity:1" d="M 197.666,333.232 197.666,292.347 z" id="boundary" inkscape:connector-curvature="0" />
	<circle cx="4" cy="42.7332" r="4" fill="#0" id="circle0"/>
	<circle cx="4" cy="64.2516" r="4" fill="#0" id="circle1"/>
	<circle cx="4" cy="85.7701" r="4" fill="#0" id="circle2"/>
	<circle cx="14.7592" cy="105.137" r="4" fill="#0" id="circle3"/>
	<circle cx="21.2148" cy="25.5184" r="4" fill="#0" id="circle4"/>
	<circle cx="36.2777" cy="113.744" r="4" fill="#0" id="circle5"/>
	<circle cx="38.4295" cy="8.30369" r="4" fill="#0" id="circle6"/>
	<circle cx="49.1887" cy="130.959" r="4" fill="#0" id="circle7"/>
	<circle cx="59.9479" cy="4" r="4" fill="#0" id="circle8"/>
	<circle cx="66.4035" cy="146.022" r="4" fill="#0" id="circle9"/>
	<circle cx="75.0108" cy="167.54" r="4" fill="#0" id="circle10"/>
	<circle cx="81.4664" cy="10.4555" r="4" fill="#0" id="circle11"/>
	<circle cx="92.2256" cy="182.603" r="4" fill="#0" id="circle12"/>
	<circle cx="102.985" cy="14.7592" r="4" fill="#0" id="circle13"/>
	<circle cx="111.592" cy="193.362" r="4" fill="#0" id="circle14"/>
	<circle cx="111.592" cy="860.434" r="4" fill="#0" id="circle15"/>
	<circle cx="111.592" cy="881.952" r="4" fill="#0" id="circle16"/>
	<circle cx="122.351" cy="25.5184" r="4" fill="#0" id="circle17"/>
	<circle cx="128.807" cy="208.425" r="4" fill="#0" id="circle18"/>
	<circle cx="128.807" cy="843.219" r="4" fill="#0" id="circle19"/>
	<circle cx="133.111" cy="888.408" r="4" fill="#0" id="circle20"/>
	<circle cx="143.87" cy="29.8221" r="4" fill="#0" id="circle21"/>
	<circle cx="143.87" cy="225.64" r="4" fill="#0" id="circle22"/>
	<circle cx="146.022" cy="826.004" r="4" fill="#0" id="circle23"/>
	<circle cx="152.477" cy="899.167" r="4" fill="#0" id="circle24"/>
	<circle cx="154.629" cy="245.007" r="4" fill="#0" id="circle25"/>
	<circle cx="163.236" cy="810.941" r="4" fill="#0" id="circle26"/>
	<circle cx="165.388" cy="29.8221" r="4" fill="#0" id="circle27"/>
	<circle cx="165.388" cy="264.373" r="4" fill="#0" id="circle28"/>
	<circle cx="173.996" cy="51.3406" r="4" fill="#0" id="circle29"/>
	<circle cx="173.996" cy="894.863" r="4" fill="#0" id="circle30"/>
	<circle cx="182.603" cy="800.182" r="4" fill="#0" id="circle31"/>
	<circle cx="184.755" cy="275.132" r="4" fill="#0" id="circle32"/>
	<circle cx="189.059" cy="68.5553" r="4" fill="#0" id="circle33"/>
	<circle cx="195.514" cy="899.167" r="4" fill="#0" id="circle34"/>
	<circle cx="197.666" cy="292.347" r="4" fill="#0" id="circle35"/>
	<circle cx="197.666" cy="333.232" r="4" fill="#0" id="circle36"/>
	<circle cx="197.666" cy="365.51" r="4" fill="#0" id="circle37"/>
	<circle cx="197.666" cy="397.787" r="4" fill="#0" id="circle38"/>
	<circle cx="197.666" cy="430.065" r="4" fill="#0" id="circle39"/>
	<circle cx="197.666" cy="462.343" r="4" fill="#0" id="circle40"/>
	<circle cx="197.666" cy="494.62" r="4" fill="#0" id="circle41"/>
	<circle cx="197.666" cy="526.898" r="4" fill="#0" id="circle42"/>
	<circle cx="197.666" cy="559.176" r="4" fill="#0" id="circle43"/>
	<circle cx="197.666" cy="591.453" r="4" fill="#0" id="circle44"/>
	<circle cx="197.666" cy="623.731" r="4" fill="#0" id="circle45"/>
	<circle cx="197.666" cy="656.009" r="4" fill="#0" id="circle46"/>
	<circle cx="197.666" cy="688.286" r="4" fill="#0" id="circle47"/>
	<circle cx="197.666" cy="720.564" r="4" fill="#0" id="circle48"/>
	<circle cx="197.666" cy="752.842" r="4" fill="#0" id="circle49"/>
	<circle cx="197.666" cy="774.36" r="4" fill="#0" id="circle50"/>
	<circle cx="206.273" cy="81.4664" r="4" fill="#0" id="circle51"/>
	<circle cx="217.033" cy="899.167" r="4" fill="#0" id="circle52"/>
	<circle cx="227.792" cy="90.0738" r="4" fill="#0" id="circle53"/>
	<circle cx="238.551" cy="894.863" r="4" fill="#0" id="circle54"/>
	<circle cx="249.31" cy="90.0738" r="4" fill="#0" id="circle55"/>
	<circle cx="260.069" cy="884.104" r="4" fill="#0" id="circle56"/>
	<circle cx="270.829" cy="90.0738" r="4" fill="#0" id="circle57"/>
	<circle cx="275.132" cy="866.889" r="4" fill="#0" id="circle58"/>
	<circle cx="285.892" cy="597.909" r="4" fill="#0" id="circle59"/>
	<circle cx="285.892" cy="619.427" r="4" fill="#0" id="circle60"/>
	<circle cx="285.892" cy="640.946" r="4" fill="#0" id="circle61"/>
	<circle cx="285.892" cy="662.464" r="4" fill="#0" id="circle62"/>
	<circle cx="285.892" cy="683.983" r="4" fill="#0" id="circle63"/>
	<circle cx="285.892" cy="705.501" r="4" fill="#0" id="circle64"/>
	<circle cx="285.892" cy="737.779" r="4" fill="#0" id="circle65"/>
	<circle cx="285.892" cy="759.297" r="4" fill="#0" id="circle66"/>
	<circle cx="285.892" cy="834.612" r="4" fill="#0" id="circle67"/>
	<circle cx="290.195" cy="780.816" r="4" fill="#0" id="circle68"/>
	<circle cx="292.347" cy="90.0738" r="4" fill="#0" id="circle69"/>
	<circle cx="296.651" cy="576.39" r="4" fill="#0" id="circle70"/>
	<circle cx="296.651" cy="802.334" r="4" fill="#0" id="circle71"/>
	<circle cx="307.41" cy="554.872" r="4" fill="#0" id="circle72"/>
	<circle cx="307.41" cy="828.156" r="4" fill="#0" id="circle73"/>
	<circle cx="311.714" cy="100.833" r="4" fill="#0" id="circle74"/>
	<circle cx="318.169" cy="522.594" r="4" fill="#0" id="circle75"/>
	<circle cx="333.232" cy="100.833" r="4" fill="#0" id="circle76"/>
	<circle cx="335.384" cy="507.531" r="4" fill="#0" id="circle77"/>
	<circle cx="346.143" cy="486.013" r="4" fill="#0" id="circle78"/>
	<circle cx="352.599" cy="111.592" r="4" fill="#0" id="circle79"/>
	<circle cx="361.206" cy="458.039" r="4" fill="#0" id="circle80"/>
	<circle cx="371.965" cy="122.351" r="4" fill="#0" id="circle81"/>
	<circle cx="378.421" cy="442.976" r="4" fill="#0" id="circle82"/>
	<circle cx="391.332" cy="133.111" r="4" fill="#0" id="circle83"/>
	<circle cx="399.939" cy="436.521" r="4" fill="#0" id="circle84"/>
	<circle cx="410.698" cy="143.87" r="4" fill="#0" id="circle85"/>
	<circle cx="421.458" cy="436.521" r="4" fill="#0" id="circle86"/>
	<circle cx="423.61" cy="473.102" r="4" fill="#0" id="circle87"/>
	<circle cx="430.065" cy="154.629" r="4" fill="#0" id="circle88"/>
	<circle cx="434.369" cy="453.735" r="4" fill="#0" id="circle89"/>
	<circle cx="434.369" cy="492.469" r="4" fill="#0" id="circle90"/>
	<circle cx="445.128" cy="511.835" r="4" fill="#0" id="circle91"/>
	<circle cx="445.128" cy="533.354" r="4" fill="#0" id="circle92"/>
	<circle cx="449.432" cy="165.388" r="4" fill="#0" id="circle93"/>
	<circle cx="455.887" cy="552.72" r="4" fill="#0" id="circle94"/>
	<circle cx="466.646" cy="180.451" r="4" fill="#0" id="circle95"/>
	<circle cx="468.798" cy="569.935" r="4" fill="#0" id="circle96"/>
	<circle cx="479.557" cy="197.666" r="4" fill="#0" id="circle97"/>
	<circle cx="483.861" cy="587.15" r="4" fill="#0" id="circle98"/>
	<circle cx="496.772" cy="210.577" r="4" fill="#0" id="circle99"/>
	<circle cx="503.228" cy="597.909" r="4" fill="#0" id="circle100"/>
	<circle cx="511.835" cy="227.792" r="4" fill="#0" id="circle101"/>
	<circle cx="522.594" cy="608.668" r="4" fill="#0" id="circle102"/>
	<circle cx="533.354" cy="225.64" r="4" fill="#0" id="circle103"/>
	<circle cx="541.961" cy="247.158" r="4" fill="#0" id="circle104"/>
	<circle cx="541.961" cy="619.427" r="4" fill="#0" id="circle105"/>
	<circle cx="559.176" cy="262.221" r="4" fill="#0" id="circle106"/>
	<circle cx="561.328" cy="630.187" r="4" fill="#0" id="circle107"/>
	<circle cx="576.39" cy="425.761" r="4" fill="#0" id="circle108"/>
	<circle cx="576.39" cy="458.039" r="4" fill="#0" id="circle109"/>
	<circle cx="578.542" cy="272.98" r="4" fill="#0" id="circle110"/>
	<circle cx="582.846" cy="630.187" r="4" fill="#0" id="circle111"/>
	<circle cx="587.15" cy="393.484" r="4" fill="#0" id="circle112"/>
	<circle cx="587.15" cy="477.406" r="4" fill="#0" id="circle113"/>
	<circle cx="597.909" cy="283.74" r="4" fill="#0" id="circle114"/>
	<circle cx="597.909" cy="361.206" r="4" fill="#0" id="circle115"/>
	<circle cx="602.213" cy="619.427" r="4" fill="#0" id="circle116"/>
	<circle cx="608.668" cy="303.106" r="4" fill="#0" id="circle117"/>
	<circle cx="608.668" cy="477.406" r="4" fill="#0" id="circle118"/>
	<circle cx="619.427" cy="322.473" r="4" fill="#0" id="circle119"/>
	<circle cx="619.427" cy="343.991" r="4" fill="#0" id="circle120"/>
	<circle cx="623.731" cy="617.275" r="4" fill="#0" id="circle121"/>
	<circle cx="628.035" cy="488.165" r="4" fill="#0" id="circle122"/>
	<circle cx="640.946" cy="470.95" r="4" fill="#0" id="circle123"/>
	<circle cx="640.946" cy="597.909" r="4" fill="#0" id="circle124"/>
	<circle cx="662.464" cy="466.646" r="4" fill="#0" id="circle125"/>
	<circle cx="662.464" cy="587.15" r="4" fill="#0" id="circle126"/>
	<circle cx="681.831" cy="455.887" r="4" fill="#0" id="circle127"/>
	<circle cx="683.983" cy="576.39" r="4" fill="#0" id="circle128"/>
	<circle cx="703.349" cy="451.584" r="4" fill="#0" id="circle129"/>
	<circle cx="705.501" cy="565.631" r="4" fill="#0" id="circle130"/>
	<circle cx="722.716" cy="550.568" r="4" fill="#0" id="circle131"/>
	<circle cx="724.868" cy="440.824" r="4" fill="#0" id="circle132"/>
	<circle cx="744.234" cy="539.809" r="4" fill="#0" id="circle133"/>
	<circle cx="746.386" cy="430.065" r="4" fill="#0" id="circle134"/>
	<circle cx="759.297" cy="522.594" r="4" fill="#0" id="circle135"/>
	<circle cx="763.601" cy="412.85" r="4" fill="#0" id="circle136"/>
	<circle cx="776.512" cy="507.531" r="4" fill="#0" id="circle137"/>
	<circle cx="785.119" cy="412.85" r="4" fill="#0" id="circle138"/>
	<circle cx="791.575" cy="490.317" r="4" fill="#0" id="circle139"/>
	<circle cx="802.334" cy="395.636" r="4" fill="#0" id="circle140"/>
	<circle cx="810.941" cy="479.557" r="4" fill="#0" id="circle141"/>
	<circle cx="823.852" cy="384.876" r="4" fill="#0" id="circle142"/>
	<circle cx="830.308" cy="468.798" r="4" fill="#0" id="circle143"/>
	<circle cx="845.371" cy="374.117" r="4" fill="#0" id="circle144"/>
	<circle cx="851.826" cy="468.798" r="4" fill="#0" id="circle145"/>
	<circle cx="866.889" cy="363.358" r="4" fill="#0" id="circle146"/>
	<circle cx="873.345" cy="468.798" r="4" fill="#0" id="circle147"/>
	<circle cx="888.408" cy="359.054" r="4" fill="#0" id="circle148"/>
	<circle cx="894.863" cy="468.798" r="4" fill="#0" id="circle149"/>
	<circle cx="907.774" cy="348.295" r="4" fill="#0" id="circle150"/>
	<circle cx="916.382" cy="468.798" r="4" fill="#0" id="circle151"/>
	<circle cx="929.293" cy="348.295" r="4" fill="#0" id="circle152"/>
	<circle cx="937.9" cy="468.798" r="4" fill="#0" id="circle153"/>
	<circle cx="948.659" cy="359.054" r="4" fill="#0" id="circle154"/>
	<circle cx="957.267" cy="479.557" r="4" fill="#0" id="circle155"/>
	<circle cx="963.722" cy="376.269" r="4" fill="#0" id="circle156"/>
	<circle cx="974.482" cy="415.002" r="4" fill="#0" id="circle157"/>
	<circle cx="978.785" cy="393.484" r="4" fill="#0" id="circle158"/>
	<circle cx="978.785" cy="488.165" r="4" fill="#0" id="circle159"/>
	<circle cx="985.241" cy="434.369" r="4" fill="#0" id="circle160"/>
	<circle cx="996" cy="453.735" r="4" fill="#0" id="circle161"/>
	</g>
</svg>