<?xml version="1.0" encoding="UTF-8" standalone="no"?>
<!-- Created with CurveBenchmark -->
<svg
	xmlns:dc="http://purl.org/dc/elements/1.1/"
	xmlns:cc="http://creativecommons.org/ns#"
	xmlns:rdf="http://www.w3.org/1999/02/22-rdf-syntax-ns#"
	xmlns:svg="http://www.w3.org/2000/svg"
	xmlns="http://www.w3.org/2000/svg"
	xmlns:sodipodi="http://sodipodi.sourceforge.net/DTD/sodipodi-0.dtd"
	xmlns:inkscape="http://www.inkscape.org/namespaces/inkscape"
	width="1000"
	height="1000"
	id="svg2"
	version="1.1"
	sodipodi:docname="manifold/crawl-sink175.png.txt">
<defs
	id="defs4" />
<metadata
	id="metadata7">
	<rdf:RDF>
		<cc:Work
			rdf:about="">
			<dc:format>image/svg+xml</dc:format>
			<dc:type
				rdf:resource="http://purl.org/dc/dcmitype/StillImage" />
			<dc:title></dc:title>
		</cc:Work>
	</rdf:RDF>
</metadata>
<g
	inkscape:label="Layer 1"
	inkscape:groupmode="layer"
	id="layer1">
	<path style="fill:none;stroke:red;stroke-width:1px;stroke-linecap:butt;stroke-linejoin:miter;stroke-opacity:1" d="M 33.0341,265.307 4,304.02 z" id="boundary" inkscape:connector-curvature="0" />
	<path style="fill:none;stroke:red;stroke-width:1px;stroke-linecap:butt;stroke-linejoin:miter;stroke-opacity:1" d="M 33.0341,265.307 81.4244,265.307 z" id="boundary" inkscape:connector-curvature="0" />
	<path style="fill:none;stroke:red;stroke-width:1px;stroke-linecap:butt;stroke-linejoin:miter;stroke-opacity:1" d="M 81.4244,265.307 129.815,265.307 z" id="boundary" inkscape:connector-curvature="0" />
	<path style="fill:none;stroke:red;stroke-width:1px;stroke-linecap:butt;stroke-linejoin:miter;stroke-opacity:1" d="M 129.815,265.307 178.205,265.307 z" id="boundary" inkscape:connector-curvature="0" />
	<path style="fill:none;stroke:red;stroke-width:1px;stroke-linecap:butt;stroke-linejoin:miter;stroke-opacity:1" d="M 178.205,265.307 216.917,236.273 z" id="boundary" inkscape:connector-curvature="0" />
	<path style="fill:none;stroke:red;stroke-width:1px;stroke-linecap:butt;stroke-linejoin:miter;stroke-opacity:1" d="M 4,304.02 52.3902,318.537 z" id="boundary" inkscape:connector-curvature="0" />
	<path style="fill:none;stroke:red;stroke-width:1px;stroke-linecap:butt;stroke-linejoin:miter;stroke-opacity:1" d="M 52.3902,318.537 100.78,318.537 z" id="boundary" inkscape:connector-curvature="0" />
	<path style="fill:none;stroke:red;stroke-width:1px;stroke-linecap:butt;stroke-linejoin:miter;stroke-opacity:1" d="M 100.78,318.537 149.171,318.537 z" id="boundary" inkscape:connector-curvature="0" />
	<path style="fill:none;stroke:red;stroke-width:1px;stroke-linecap:butt;stroke-linejoin:miter;stroke-opacity:1" d="M 149.171,318.537 187.883,347.571 z" id="boundary" inkscape:connector-curvature="0" />
	<path style="fill:none;stroke:red;stroke-width:1px;stroke-linecap:butt;stroke-linejoin:miter;stroke-opacity:1" d="M 187.883,347.571 212.078,391.122 z" id="boundary" inkscape:connector-curvature="0" />
	<path style="fill:none;stroke:red;stroke-width:1px;stroke-linecap:butt;stroke-linejoin:miter;stroke-opacity:1" d="M 212.078,391.122 236.273,434.673 z" id="boundary" inkscape:connector-curvature="0" />
	<path style="fill:none;stroke:red;stroke-width:1px;stroke-linecap:butt;stroke-linejoin:miter;stroke-opacity:1" d="M 236.273,434.673 236.273,483.063 z" id="boundary" inkscape:connector-curvature="0" />
	<path style="fill:none;stroke:red;stroke-width:1px;stroke-linecap:butt;stroke-linejoin:miter;stroke-opacity:1" d="M 236.273,483.063 236.273,531.454 z" id="boundary" inkscape:connector-curvature="0" />
	<path style="fill:none;stroke:red;stroke-width:1px;stroke-linecap:butt;stroke-linejoin:miter;stroke-opacity:1" d="M 236.273,531.454 236.273,579.844 z" id="boundary" inkscape:connector-curvature="0" />
	<path style="fill:none;stroke:red;stroke-width:1px;stroke-linecap:butt;stroke-linejoin:miter;stroke-opacity:1" d="M 236.273,579.844 236.273,628.234 z" id="boundary" inkscape:connector-curvature="0" />
	<path style="fill:none;stroke:red;stroke-width:1px;stroke-linecap:butt;stroke-linejoin:miter;stroke-opacity:1" d="M 236.273,628.234 236.273,676.624 z" id="boundary" inkscape:connector-curvature="0" />
	<path style="fill:none;stroke:red;stroke-width:1px;stroke-linecap:butt;stroke-linejoin:miter;stroke-opacity:1" d="M 236.273,676.624 236.273,725.015 z" id="boundary" inkscape:connector-curvature="0" />
	<path style="fill:none;stroke:red;stroke-width:1px;stroke-linecap:butt;stroke-linejoin:miter;stroke-opacity:1" d="M 236.273,725.015 236.273,773.405 z" id="boundary" inkscape:connector-curvature="0" />
	<path style="fill:none;stroke:red;stroke-width:1px;stroke-linecap:butt;stroke-linejoin:miter;stroke-opacity:1" d="M 236.273,773.405 236.273,821.795 z" id="boundary" inkscape:connector-curvature="0" />
	<path style="fill:none;stroke:red;stroke-width:1px;stroke-linecap:butt;stroke-linejoin:miter;stroke-opacity:1" d="M 216.917,236.273 245.951,168.527 z" id="boundary" inkscape:connector-curvature="0" />
	<path style="fill:none;stroke:red;stroke-width:1px;stroke-linecap:butt;stroke-linejoin:miter;stroke-opacity:1" d="M 245.951,168.527 294.341,168.527 z" id="boundary" inkscape:connector-curvature="0" />
	<path style="fill:none;stroke:red;stroke-width:1px;stroke-linecap:butt;stroke-linejoin:miter;stroke-opacity:1" d="M 294.341,168.527 342.732,168.527 z" id="boundary" inkscape:connector-curvature="0" />
	<path style="fill:none;stroke:red;stroke-width:1px;stroke-linecap:butt;stroke-linejoin:miter;stroke-opacity:1" d="M 342.732,168.527 391.122,168.527 z" id="boundary" inkscape:connector-curvature="0" />
	<path style="fill:none;stroke:red;stroke-width:1px;stroke-linecap:butt;stroke-linejoin:miter;stroke-opacity:1" d="M 391.122,168.527 439.512,168.527 z" id="boundary" inkscape:connector-curvature="0" />
	<path style="fill:none;stroke:red;stroke-width:1px;stroke-linecap:butt;stroke-linejoin:miter;stroke-opacity:1" d="M 439.512,168.527 487.902,168.527 z" id="boundary" inkscape:connector-curvature="0" />
	<path style="fill:none;stroke:red;stroke-width:1px;stroke-linecap:butt;stroke-linejoin:miter;stroke-opacity:1" d="M 487.902,168.527 526.615,139.493 z" id="boundary" inkscape:connector-curvature="0" />
	<path style="fill:none;stroke:red;stroke-width:1px;stroke-linecap:butt;stroke-linejoin:miter;stroke-opacity:1" d="M 526.615,139.493 526.615,91.1024 z" id="boundary" inkscape:connector-curvature="0" />
	<path style="fill:none;stroke:red;stroke-width:1px;stroke-linecap:butt;stroke-linejoin:miter;stroke-opacity:1" d="M 526.615,91.1024 507.259,42.7122 z" id="boundary" inkscape:connector-curvature="0" />
	<path style="fill:none;stroke:red;stroke-width:1px;stroke-linecap:butt;stroke-linejoin:miter;stroke-opacity:1" d="M 507.259,42.7122 478.224,4 z" id="boundary" inkscape:connector-curvature="0" />
	<path style="fill:none;stroke:red;stroke-width:1px;stroke-linecap:butt;stroke-linejoin:miter;stroke-opacity:1" d="M 478.224,4 429.834,23.3561 z" id="boundary" inkscape:connector-curvature="0" />
	<path style="fill:none;stroke:red;stroke-width:1px;stroke-linecap:butt;stroke-linejoin:miter;stroke-opacity:1" d="M 429.834,23.3561 400.8,62.0683 z" id="boundary" inkscape:connector-curvature="0" />
	<path style="fill:none;stroke:red;stroke-width:1px;stroke-linecap:butt;stroke-linejoin:miter;stroke-opacity:1" d="M 236.273,821.795 216.917,894.38 z" id="boundary" inkscape:connector-curvature="0" />
	<path style="fill:none;stroke:red;stroke-width:1px;stroke-linecap:butt;stroke-linejoin:miter;stroke-opacity:1" d="M 216.917,894.38 187.883,952.449 z" id="boundary" inkscape:connector-curvature="0" />
	<path style="fill:none;stroke:red;stroke-width:1px;stroke-linecap:butt;stroke-linejoin:miter;stroke-opacity:1" d="M 187.883,952.449 212.078,996 z" id="boundary" inkscape:connector-curvature="0" />
	<path style="fill:none;stroke:red;stroke-width:1px;stroke-linecap:butt;stroke-linejoin:miter;stroke-opacity:1" d="M 212.078,996 260.468,996 z" id="boundary" inkscape:connector-curvature="0" />
	<path style="fill:none;stroke:red;stroke-width:1px;stroke-linecap:butt;stroke-linejoin:miter;stroke-opacity:1" d="M 260.468,996 308.859,996 z" id="boundary" inkscape:connector-curvature="0" />
	<path style="fill:none;stroke:red;stroke-width:1px;stroke-linecap:butt;stroke-linejoin:miter;stroke-opacity:1" d="M 308.859,996 357.249,996 z" id="boundary" inkscape:connector-curvature="0" />
	<path style="fill:none;stroke:red;stroke-width:1px;stroke-linecap:butt;stroke-linejoin:miter;stroke-opacity:1" d="M 357.249,996 405.639,996 z" id="boundary" inkscape:connector-curvature="0" />
	<path style="fill:none;stroke:red;stroke-width:1px;stroke-linecap:butt;stroke-linejoin:miter;stroke-opacity:1" d="M 405.639,996 454.029,996 z" id="boundary" inkscape:connector-curvature="0" />
	<path style="fill:none;stroke:red;stroke-width:1px;stroke-linecap:butt;stroke-linejoin:miter;stroke-opacity:1" d="M 454.029,996 449.19,942.771 z" id="boundary" inkscape:connector-curvature="0" />
	<path style="fill:none;stroke:red;stroke-width:1px;stroke-linecap:butt;stroke-linejoin:miter;stroke-opacity:1" d="M 449.19,942.771 429.834,894.38 z" id="boundary" inkscape:connector-curvature="0" />
	<path style="fill:none;stroke:red;stroke-width:1px;stroke-linecap:butt;stroke-linejoin:miter;stroke-opacity:1" d="M 429.834,894.38 415.317,845.99 z" id="boundary" inkscape:connector-curvature="0" />
	<path style="fill:none;stroke:red;stroke-width:1px;stroke-linecap:butt;stroke-linejoin:miter;stroke-opacity:1" d="M 415.317,845.99 415.317,797.6 z" id="boundary" inkscape:connector-curvature="0" />
	<path style="fill:none;stroke:red;stroke-width:1px;stroke-linecap:butt;stroke-linejoin:miter;stroke-opacity:1" d="M 415.317,797.6 415.317,749.21 z" id="boundary" inkscape:connector-curvature="0" />
	<path style="fill:none;stroke:red;stroke-width:1px;stroke-linecap:butt;stroke-linejoin:miter;stroke-opacity:1" d="M 415.317,749.21 415.317,700.82 z" id="boundary" inkscape:connector-curvature="0" />
	<path style="fill:none;stroke:red;stroke-width:1px;stroke-linecap:butt;stroke-linejoin:miter;stroke-opacity:1" d="M 415.317,700.82 415.317,652.429 z" id="boundary" inkscape:connector-curvature="0" />
	<path style="fill:none;stroke:red;stroke-width:1px;stroke-linecap:butt;stroke-linejoin:miter;stroke-opacity:1" d="M 415.317,652.429 415.317,604.039 z" id="boundary" inkscape:connector-curvature="0" />
	<path style="fill:none;stroke:red;stroke-width:1px;stroke-linecap:butt;stroke-linejoin:miter;stroke-opacity:1" d="M 415.317,604.039 415.317,555.649 z" id="boundary" inkscape:connector-curvature="0" />
	<path style="fill:none;stroke:red;stroke-width:1px;stroke-linecap:butt;stroke-linejoin:miter;stroke-opacity:1" d="M 415.317,555.649 415.317,507.259 z" id="boundary" inkscape:connector-curvature="0" />
	<path style="fill:none;stroke:red;stroke-width:1px;stroke-linecap:butt;stroke-linejoin:miter;stroke-opacity:1" d="M 415.317,507.259 415.317,458.868 z" id="boundary" inkscape:connector-curvature="0" />
	<path style="fill:none;stroke:red;stroke-width:1px;stroke-linecap:butt;stroke-linejoin:miter;stroke-opacity:1" d="M 415.317,458.868 463.707,454.029 z" id="boundary" inkscape:connector-curvature="0" />
	<path style="fill:none;stroke:red;stroke-width:1px;stroke-linecap:butt;stroke-linejoin:miter;stroke-opacity:1" d="M 463.707,454.029 512.098,434.673 z" id="boundary" inkscape:connector-curvature="0" />
	<path style="fill:none;stroke:red;stroke-width:1px;stroke-linecap:butt;stroke-linejoin:miter;stroke-opacity:1" d="M 512.098,434.673 550.81,400.8 z" id="boundary" inkscape:connector-curvature="0" />
	<path style="fill:none;stroke:red;stroke-width:1px;stroke-linecap:butt;stroke-linejoin:miter;stroke-opacity:1" d="M 550.81,400.8 575.005,357.249 z" id="boundary" inkscape:connector-curvature="0" />
	<path style="fill:none;stroke:red;stroke-width:1px;stroke-linecap:butt;stroke-linejoin:miter;stroke-opacity:1" d="M 575.005,357.249 604.039,318.537 z" id="boundary" inkscape:connector-curvature="0" />
	<path style="fill:none;stroke:red;stroke-width:1px;stroke-linecap:butt;stroke-linejoin:miter;stroke-opacity:1" d="M 604.039,318.537 652.429,318.537 z" id="boundary" inkscape:connector-curvature="0" />
	<path style="fill:none;stroke:red;stroke-width:1px;stroke-linecap:butt;stroke-linejoin:miter;stroke-opacity:1" d="M 652.429,318.537 700.82,318.537 z" id="boundary" inkscape:connector-curvature="0" />
	<path style="fill:none;stroke:red;stroke-width:1px;stroke-linecap:butt;stroke-linejoin:miter;stroke-opacity:1" d="M 700.82,318.537 749.21,318.537 z" id="boundary" inkscape:connector-curvature="0" />
	<path style="fill:none;stroke:red;stroke-width:1px;stroke-linecap:butt;stroke-linejoin:miter;stroke-opacity:1" d="M 749.21,318.537 783.083,260.468 z" id="boundary" inkscape:connector-curvature="0" />
	<path style="fill:none;stroke:red;stroke-width:1px;stroke-linecap:butt;stroke-linejoin:miter;stroke-opacity:1" d="M 783.083,260.468 783.083,212.078 z" id="boundary" inkscape:connector-curvature="0" />
	<path style="fill:none;stroke:red;stroke-width:1px;stroke-linecap:butt;stroke-linejoin:miter;stroke-opacity:1" d="M 783.083,212.078 758.888,168.527 z" id="boundary" inkscape:connector-curvature="0" />
	<path style="fill:none;stroke:red;stroke-width:1px;stroke-linecap:butt;stroke-linejoin:miter;stroke-opacity:1" d="M 758.888,168.527 710.498,168.527 z" id="boundary" inkscape:connector-curvature="0" />
	<path style="fill:none;stroke:red;stroke-width:1px;stroke-linecap:butt;stroke-linejoin:miter;stroke-opacity:1" d="M 710.498,168.527 662.107,168.527 z" id="boundary" inkscape:connector-curvature="0" />
	<path style="fill:none;stroke:red;stroke-width:1px;stroke-linecap:butt;stroke-linejoin:miter;stroke-opacity:1" d="M 662.107,168.527 613.717,168.527 z" id="boundary" inkscape:connector-curvature="0" />
	<path style="fill:none;stroke:red;stroke-width:1px;stroke-linecap:butt;stroke-linejoin:miter;stroke-opacity:1" d="M 613.717,168.527 565.327,173.366 z" id="boundary" inkscape:connector-curvature="0" />
	<circle cx="4" cy="304.02" r="4" fill="#0" id="circle0"/>
	<circle cx="33.0341" cy="265.307" r="4" fill="#0" id="circle1"/>
	<circle cx="52.3902" cy="318.537" r="4" fill="#0" id="circle2"/>
	<circle cx="81.4244" cy="265.307" r="4" fill="#0" id="circle3"/>
	<circle cx="100.78" cy="318.537" r="4" fill="#0" id="circle4"/>
	<circle cx="129.815" cy="265.307" r="4" fill="#0" id="circle5"/>
	<circle cx="149.171" cy="318.537" r="4" fill="#0" id="circle6"/>
	<circle cx="178.205" cy="265.307" r="4" fill="#0" id="circle7"/>
	<circle cx="187.883" cy="347.571" r="4" fill="#0" id="circle8"/>
	<circle cx="187.883" cy="952.449" r="4" fill="#0" id="circle9"/>
	<circle cx="212.078" cy="391.122" r="4" fill="#0" id="circle10"/>
	<circle cx="212.078" cy="996" r="4" fill="#0" id="circle11"/>
	<circle cx="216.917" cy="236.273" r="4" fill="#0" id="circle12"/>
	<circle cx="216.917" cy="894.38" r="4" fill="#0" id="circle13"/>
	<circle cx="236.273" cy="434.673" r="4" fill="#0" id="circle14"/>
	<circle cx="236.273" cy="483.063" r="4" fill="#0" id="circle15"/>
	<circle cx="236.273" cy="531.454" r="4" fill="#0" id="circle16"/>
	<circle cx="236.273" cy="579.844" r="4" fill="#0" id="circle17"/>
	<circle cx="236.273" cy="628.234" r="4" fill="#0" id="circle18"/>
	<circle cx="236.273" cy="676.624" r="4" fill="#0" id="circle19"/>
	<circle cx="236.273" cy="725.015" r="4" fill="#0" id="circle20"/>
	<circle cx="236.273" cy="773.405" r="4" fill="#0" id="circle21"/>
	<circle cx="236.273" cy="821.795" r="4" fill="#0" id="circle22"/>
	<circle cx="245.951" cy="168.527" r="4" fill="#0" id="circle23"/>
	<circle cx="260.468" cy="996" r="4" fill="#0" id="circle24"/>
	<circle cx="294.341" cy="168.527" r="4" fill="#0" id="circle25"/>
	<circle cx="308.859" cy="996" r="4" fill="#0" id="circle26"/>
	<circle cx="342.732" cy="168.527" r="4" fill="#0" id="circle27"/>
	<circle cx="357.249" cy="996" r="4" fill="#0" id="circle28"/>
	<circle cx="391.122" cy="168.527" r="4" fill="#0" id="circle29"/>
	<circle cx="400.8" cy="62.0683" r="4" fill="#0" id="circle30"/>
	<circle cx="405.639" cy="996" r="4" fill="#0" id="circle31"/>
	<circle cx="415.317" cy="458.868" r="4" fill="#0" id="circle32"/>
	<circle cx="415.317" cy="507.259" r="4" fill="#0" id="circle33"/>
	<circle cx="415.317" cy="555.649" r="4" fill="#0" id="circle34"/>
	<circle cx="415.317" cy="604.039" r="4" fill="#0" id="circle35"/>
	<circle cx="415.317" cy="652.429" r="4" fill="#0" id="circle36"/>
	<circle cx="415.317" cy="700.82" r="4" fill="#0" id="circle37"/>
	<circle cx="415.317" cy="749.21" r="4" fill="#0" id="circle38"/>
	<circle cx="415.317" cy="797.6" r="4" fill="#0" id="circle39"/>
	<circle cx="415.317" cy="845.99" r="4" fill="#0" id="circle40"/>
	<circle cx="429.834" cy="23.3561" r="4" fill="#0" id="circle41"/>
	<circle cx="429.834" cy="894.38" r="4" fill="#0" id="circle42"/>
	<circle cx="439.512" cy="168.527" r="4" fill="#0" id="circle43"/>
	<circle cx="449.19" cy="942.771" r="4" fill="#0" id="circle44"/>
	<circle cx="454.029" cy="996" r="4" fill="#0" id="circle45"/>
	<circle cx="463.707" cy="454.029" r="4" fill="#0" id="circle46"/>
	<circle cx="478.224" cy="4" r="4" fill="#0" id="circle47"/>
	<circle cx="487.902" cy="168.527" r="4" fill="#0" id="circle48"/>
	<circle cx="507.259" cy="42.7122" r="4" fill="#0" id="circle49"/>
	<circle cx="512.098" cy="434.673" r="4" fill="#0" id="circle50"/>
	<circle cx="526.615" cy="91.1024" r="4" fill="#0" id="circle51"/>
	<circle cx="526.615" cy="139.493" r="4" fill="#0" id="circle52"/>
	<circle cx="550.81" cy="400.8" r="4" fill="#0" id="circle53"/>
	<circle cx="565.327" cy="173.366" r="4" fill="#0" id="circle54"/>
	<circle cx="575.005" cy="357.249" r="4" fill="#0" id="circle55"/>
	<circle cx="604.039" cy="318.537" r="4" fill="#0" id="circle56"/>
	<circle cx="613.717" cy="168.527" r="4" fill="#0" id="circle57"/>
	<circle cx="652.429" cy="318.537" r="4" fill="#0" id="circle58"/>
	<circle cx="662.107" cy="168.527" r="4" fill="#0" id="circle59"/>
	<circle cx="700.82" cy="318.537" r="4" fill="#0" id="circle60"/>
	<circle cx="710.498" cy="168.527" r="4" fill="#0" id="circle61"/>
	<circle cx="749.21" cy="318.537" r="4" fill="#0" id="circle62"/>
	<circle cx="758.888" cy="168.527" r="4" fill="#0" id="circle63"/>
	<circle cx="783.083" cy="212.078" r="4" fill="#0" id="circle64"/>
	<circle cx="783.083" cy="260.468" r="4" fill="#0" id="circle65"/>
	</g>
</svg>