<?xml version="1.0" encoding="UTF-8" standalone="no"?>
<!-- Created with CurveBenchmark -->
<svg
	xmlns:dc="http://purl.org/dc/elements/1.1/"
	xmlns:cc="http://creativecommons.org/ns#"
	xmlns:rdf="http://www.w3.org/1999/02/22-rdf-syntax-ns#"
	xmlns:svg="http://www.w3.org/2000/svg"
	xmlns="http://www.w3.org/2000/svg"
	xmlns:sodipodi="http://sodipodi.sourceforge.net/DTD/sodipodi-0.dtd"
	xmlns:inkscape="http://www.inkscape.org/namespaces/inkscape"
	width="1000"
	height="1000"
	id="svg2"
	version="1.1"
	sodipodi:docname="manifold/crawl-hammer155.png.txt">
<defs
	id="defs4" />
<metadata
	id="metadata7">
	<rdf:RDF>
		<cc:Work
			rdf:about="">
			<dc:format>image/svg+xml</dc:format>
			<dc:type
				rdf:resource="http://purl.org/dc/dcmitype/StillImage" />
			<dc:title></dc:title>
		</cc:Work>
	</rdf:RDF>
</metadata>
<g
	inkscape:label="Layer 1"
	inkscape:groupmode="layer"
	id="layer1">
	<path style="fill:none;stroke:red;stroke-width:1px;stroke-linecap:butt;stroke-linejoin:miter;stroke-opacity:1" d="M 27.0029,4 4,21.2522 z" id="boundary" inkscape:connector-curvature="0" />
	<path style="fill:none;stroke:red;stroke-width:1px;stroke-linecap:butt;stroke-linejoin:miter;stroke-opacity:1" d="M 4,21.2522 4,50.0058 z" id="boundary" inkscape:connector-curvature="0" />
	<path style="fill:none;stroke:red;stroke-width:1px;stroke-linecap:butt;stroke-linejoin:miter;stroke-opacity:1" d="M 27.0029,4 55.7565,4 z" id="boundary" inkscape:connector-curvature="0" />
	<path style="fill:none;stroke:red;stroke-width:1px;stroke-linecap:butt;stroke-linejoin:miter;stroke-opacity:1" d="M 4,50.0058 12.6261,78.7594 z" id="boundary" inkscape:connector-curvature="0" />
	<path style="fill:none;stroke:red;stroke-width:1px;stroke-linecap:butt;stroke-linejoin:miter;stroke-opacity:1" d="M 12.6261,78.7594 38.5043,93.1362 z" id="boundary" inkscape:connector-curvature="0" />
	<path style="fill:none;stroke:red;stroke-width:1px;stroke-linecap:butt;stroke-linejoin:miter;stroke-opacity:1" d="M 38.5043,93.1362 67.258,81.6348 z" id="boundary" inkscape:connector-curvature="0" />
	<path style="fill:none;stroke:red;stroke-width:1px;stroke-linecap:butt;stroke-linejoin:miter;stroke-opacity:1" d="M 67.258,81.6348 96.0116,75.8841 z" id="boundary" inkscape:connector-curvature="0" />
	<path style="fill:none;stroke:red;stroke-width:1px;stroke-linecap:butt;stroke-linejoin:miter;stroke-opacity:1" d="M 96.0116,75.8841 119.014,93.1362 z" id="boundary" inkscape:connector-curvature="0" />
	<path style="fill:none;stroke:red;stroke-width:1px;stroke-linecap:butt;stroke-linejoin:miter;stroke-opacity:1" d="M 119.014,93.1362 119.014,121.89 z" id="boundary" inkscape:connector-curvature="0" />
	<path style="fill:none;stroke:red;stroke-width:1px;stroke-linecap:butt;stroke-linejoin:miter;stroke-opacity:1" d="M 119.014,121.89 124.765,150.643 z" id="boundary" inkscape:connector-curvature="0" />
	<path style="fill:none;stroke:red;stroke-width:1px;stroke-linecap:butt;stroke-linejoin:miter;stroke-opacity:1" d="M 124.765,150.643 136.267,179.397 z" id="boundary" inkscape:connector-curvature="0" />
	<path style="fill:none;stroke:red;stroke-width:1px;stroke-linecap:butt;stroke-linejoin:miter;stroke-opacity:1" d="M 136.267,179.397 142.017,208.151 z" id="boundary" inkscape:connector-curvature="0" />
	<path style="fill:none;stroke:red;stroke-width:1px;stroke-linecap:butt;stroke-linejoin:miter;stroke-opacity:1" d="M 142.017,208.151 147.768,236.904 z" id="boundary" inkscape:connector-curvature="0" />
	<path style="fill:none;stroke:red;stroke-width:1px;stroke-linecap:butt;stroke-linejoin:miter;stroke-opacity:1" d="M 147.768,236.904 147.768,265.658 z" id="boundary" inkscape:connector-curvature="0" />
	<path style="fill:none;stroke:red;stroke-width:1px;stroke-linecap:butt;stroke-linejoin:miter;stroke-opacity:1" d="M 147.768,265.658 147.768,294.412 z" id="boundary" inkscape:connector-curvature="0" />
	<path style="fill:none;stroke:red;stroke-width:1px;stroke-linecap:butt;stroke-linejoin:miter;stroke-opacity:1" d="M 147.768,294.412 147.768,323.165 z" id="boundary" inkscape:connector-curvature="0" />
	<path style="fill:none;stroke:red;stroke-width:1px;stroke-linecap:butt;stroke-linejoin:miter;stroke-opacity:1" d="M 147.768,323.165 147.768,351.919 z" id="boundary" inkscape:connector-curvature="0" />
	<path style="fill:none;stroke:red;stroke-width:1px;stroke-linecap:butt;stroke-linejoin:miter;stroke-opacity:1" d="M 147.768,351.919 147.768,380.672 z" id="boundary" inkscape:connector-curvature="0" />
	<path style="fill:none;stroke:red;stroke-width:1px;stroke-linecap:butt;stroke-linejoin:miter;stroke-opacity:1" d="M 55.7565,4 84.5101,15.5014 z" id="boundary" inkscape:connector-curvature="0" />
	<path style="fill:none;stroke:red;stroke-width:1px;stroke-linecap:butt;stroke-linejoin:miter;stroke-opacity:1" d="M 84.5101,15.5014 113.264,15.5014 z" id="boundary" inkscape:connector-curvature="0" />
	<path style="fill:none;stroke:red;stroke-width:1px;stroke-linecap:butt;stroke-linejoin:miter;stroke-opacity:1" d="M 113.264,15.5014 142.017,4 z" id="boundary" inkscape:connector-curvature="0" />
	<path style="fill:none;stroke:red;stroke-width:1px;stroke-linecap:butt;stroke-linejoin:miter;stroke-opacity:1" d="M 142.017,4 170.771,4 z" id="boundary" inkscape:connector-curvature="0" />
	<path style="fill:none;stroke:red;stroke-width:1px;stroke-linecap:butt;stroke-linejoin:miter;stroke-opacity:1" d="M 170.771,4 199.525,4 z" id="boundary" inkscape:connector-curvature="0" />
	<path style="fill:none;stroke:red;stroke-width:1px;stroke-linecap:butt;stroke-linejoin:miter;stroke-opacity:1" d="M 199.525,4 228.278,4 z" id="boundary" inkscape:connector-curvature="0" />
	<path style="fill:none;stroke:red;stroke-width:1px;stroke-linecap:butt;stroke-linejoin:miter;stroke-opacity:1" d="M 228.278,4 257.032,4 z" id="boundary" inkscape:connector-curvature="0" />
	<path style="fill:none;stroke:red;stroke-width:1px;stroke-linecap:butt;stroke-linejoin:miter;stroke-opacity:1" d="M 257.032,4 282.91,18.3768 z" id="boundary" inkscape:connector-curvature="0" />
	<path style="fill:none;stroke:red;stroke-width:1px;stroke-linecap:butt;stroke-linejoin:miter;stroke-opacity:1" d="M 282.91,18.3768 305.913,35.629 z" id="boundary" inkscape:connector-curvature="0" />
	<path style="fill:none;stroke:red;stroke-width:1px;stroke-linecap:butt;stroke-linejoin:miter;stroke-opacity:1" d="M 305.913,35.629 328.916,55.7565 z" id="boundary" inkscape:connector-curvature="0" />
	<path style="fill:none;stroke:red;stroke-width:1px;stroke-linecap:butt;stroke-linejoin:miter;stroke-opacity:1" d="M 328.916,55.7565 346.168,78.7594 z" id="boundary" inkscape:connector-curvature="0" />
	<path style="fill:none;stroke:red;stroke-width:1px;stroke-linecap:butt;stroke-linejoin:miter;stroke-opacity:1" d="M 346.168,78.7594 363.42,101.762 z" id="boundary" inkscape:connector-curvature="0" />
	<path style="fill:none;stroke:red;stroke-width:1px;stroke-linecap:butt;stroke-linejoin:miter;stroke-opacity:1" d="M 363.42,101.762 374.922,130.516 z" id="boundary" inkscape:connector-curvature="0" />
	<path style="fill:none;stroke:red;stroke-width:1px;stroke-linecap:butt;stroke-linejoin:miter;stroke-opacity:1" d="M 147.768,380.672 142.017,429.554 z" id="boundary" inkscape:connector-curvature="0" />
	<path style="fill:none;stroke:red;stroke-width:1px;stroke-linecap:butt;stroke-linejoin:miter;stroke-opacity:1" d="M 142.017,429.554 124.765,469.809 z" id="boundary" inkscape:connector-curvature="0" />
	<path style="fill:none;stroke:red;stroke-width:1px;stroke-linecap:butt;stroke-linejoin:miter;stroke-opacity:1" d="M 124.765,469.809 119.014,515.814 z" id="boundary" inkscape:connector-curvature="0" />
	<path style="fill:none;stroke:red;stroke-width:1px;stroke-linecap:butt;stroke-linejoin:miter;stroke-opacity:1" d="M 119.014,515.814 119.014,544.568 z" id="boundary" inkscape:connector-curvature="0" />
	<path style="fill:none;stroke:red;stroke-width:1px;stroke-linecap:butt;stroke-linejoin:miter;stroke-opacity:1" d="M 119.014,544.568 119.014,573.322 z" id="boundary" inkscape:connector-curvature="0" />
	<path style="fill:none;stroke:red;stroke-width:1px;stroke-linecap:butt;stroke-linejoin:miter;stroke-opacity:1" d="M 119.014,573.322 119.014,602.075 z" id="boundary" inkscape:connector-curvature="0" />
	<path style="fill:none;stroke:red;stroke-width:1px;stroke-linecap:butt;stroke-linejoin:miter;stroke-opacity:1" d="M 119.014,602.075 119.014,630.829 z" id="boundary" inkscape:connector-curvature="0" />
	<path style="fill:none;stroke:red;stroke-width:1px;stroke-linecap:butt;stroke-linejoin:miter;stroke-opacity:1" d="M 119.014,630.829 119.014,659.583 z" id="boundary" inkscape:connector-curvature="0" />
	<path style="fill:none;stroke:red;stroke-width:1px;stroke-linecap:butt;stroke-linejoin:miter;stroke-opacity:1" d="M 119.014,659.583 119.014,688.336 z" id="boundary" inkscape:connector-curvature="0" />
	<path style="fill:none;stroke:red;stroke-width:1px;stroke-linecap:butt;stroke-linejoin:miter;stroke-opacity:1" d="M 119.014,688.336 119.014,717.09 z" id="boundary" inkscape:connector-curvature="0" />
	<path style="fill:none;stroke:red;stroke-width:1px;stroke-linecap:butt;stroke-linejoin:miter;stroke-opacity:1" d="M 119.014,717.09 119.014,745.843 z" id="boundary" inkscape:connector-curvature="0" />
	<path style="fill:none;stroke:red;stroke-width:1px;stroke-linecap:butt;stroke-linejoin:miter;stroke-opacity:1" d="M 119.014,745.843 119.014,774.597 z" id="boundary" inkscape:connector-curvature="0" />
	<path style="fill:none;stroke:red;stroke-width:1px;stroke-linecap:butt;stroke-linejoin:miter;stroke-opacity:1" d="M 119.014,774.597 119.014,803.351 z" id="boundary" inkscape:connector-curvature="0" />
	<path style="fill:none;stroke:red;stroke-width:1px;stroke-linecap:butt;stroke-linejoin:miter;stroke-opacity:1" d="M 119.014,803.351 119.014,832.104 z" id="boundary" inkscape:connector-curvature="0" />
	<path style="fill:none;stroke:red;stroke-width:1px;stroke-linecap:butt;stroke-linejoin:miter;stroke-opacity:1" d="M 119.014,832.104 119.014,860.858 z" id="boundary" inkscape:connector-curvature="0" />
	<path style="fill:none;stroke:red;stroke-width:1px;stroke-linecap:butt;stroke-linejoin:miter;stroke-opacity:1" d="M 119.014,860.858 119.014,889.612 z" id="boundary" inkscape:connector-curvature="0" />
	<path style="fill:none;stroke:red;stroke-width:1px;stroke-linecap:butt;stroke-linejoin:miter;stroke-opacity:1" d="M 119.014,889.612 113.264,929.867 z" id="boundary" inkscape:connector-curvature="0" />
	<path style="fill:none;stroke:red;stroke-width:1px;stroke-linecap:butt;stroke-linejoin:miter;stroke-opacity:1" d="M 374.922,130.516 366.296,179.397 z" id="boundary" inkscape:connector-curvature="0" />
	<path style="fill:none;stroke:red;stroke-width:1px;stroke-linecap:butt;stroke-linejoin:miter;stroke-opacity:1" d="M 366.296,179.397 337.542,173.646 z" id="boundary" inkscape:connector-curvature="0" />
	<path style="fill:none;stroke:red;stroke-width:1px;stroke-linecap:butt;stroke-linejoin:miter;stroke-opacity:1" d="M 337.542,173.646 326.041,144.893 z" id="boundary" inkscape:connector-curvature="0" />
	<path style="fill:none;stroke:red;stroke-width:1px;stroke-linecap:butt;stroke-linejoin:miter;stroke-opacity:1" d="M 326.041,144.893 308.788,121.89 z" id="boundary" inkscape:connector-curvature="0" />
	<path style="fill:none;stroke:red;stroke-width:1px;stroke-linecap:butt;stroke-linejoin:miter;stroke-opacity:1" d="M 308.788,121.89 285.786,104.638 z" id="boundary" inkscape:connector-curvature="0" />
	<path style="fill:none;stroke:red;stroke-width:1px;stroke-linecap:butt;stroke-linejoin:miter;stroke-opacity:1" d="M 285.786,104.638 259.907,90.2609 z" id="boundary" inkscape:connector-curvature="0" />
	<path style="fill:none;stroke:red;stroke-width:1px;stroke-linecap:butt;stroke-linejoin:miter;stroke-opacity:1" d="M 259.907,90.2609 254.157,119.014 z" id="boundary" inkscape:connector-curvature="0" />
	<path style="fill:none;stroke:red;stroke-width:1px;stroke-linecap:butt;stroke-linejoin:miter;stroke-opacity:1" d="M 254.157,119.014 242.655,165.02 z" id="boundary" inkscape:connector-curvature="0" />
	<path style="fill:none;stroke:red;stroke-width:1px;stroke-linecap:butt;stroke-linejoin:miter;stroke-opacity:1" d="M 242.655,165.02 231.154,205.275 z" id="boundary" inkscape:connector-curvature="0" />
	<path style="fill:none;stroke:red;stroke-width:1px;stroke-linecap:butt;stroke-linejoin:miter;stroke-opacity:1" d="M 231.154,205.275 231.154,234.029 z" id="boundary" inkscape:connector-curvature="0" />
	<path style="fill:none;stroke:red;stroke-width:1px;stroke-linecap:butt;stroke-linejoin:miter;stroke-opacity:1" d="M 231.154,234.029 225.403,268.533 z" id="boundary" inkscape:connector-curvature="0" />
	<path style="fill:none;stroke:red;stroke-width:1px;stroke-linecap:butt;stroke-linejoin:miter;stroke-opacity:1" d="M 225.403,268.533 225.403,297.287 z" id="boundary" inkscape:connector-curvature="0" />
	<path style="fill:none;stroke:red;stroke-width:1px;stroke-linecap:butt;stroke-linejoin:miter;stroke-opacity:1" d="M 225.403,297.287 225.403,326.041 z" id="boundary" inkscape:connector-curvature="0" />
	<path style="fill:none;stroke:red;stroke-width:1px;stroke-linecap:butt;stroke-linejoin:miter;stroke-opacity:1" d="M 225.403,326.041 225.403,354.794 z" id="boundary" inkscape:connector-curvature="0" />
	<path style="fill:none;stroke:red;stroke-width:1px;stroke-linecap:butt;stroke-linejoin:miter;stroke-opacity:1" d="M 225.403,354.794 225.403,383.548 z" id="boundary" inkscape:connector-curvature="0" />
	<path style="fill:none;stroke:red;stroke-width:1px;stroke-linecap:butt;stroke-linejoin:miter;stroke-opacity:1" d="M 225.403,383.548 231.154,412.301 z" id="boundary" inkscape:connector-curvature="0" />
	<path style="fill:none;stroke:red;stroke-width:1px;stroke-linecap:butt;stroke-linejoin:miter;stroke-opacity:1" d="M 231.154,412.301 236.904,441.055 z" id="boundary" inkscape:connector-curvature="0" />
	<path style="fill:none;stroke:red;stroke-width:1px;stroke-linecap:butt;stroke-linejoin:miter;stroke-opacity:1" d="M 236.904,441.055 245.53,469.809 z" id="boundary" inkscape:connector-curvature="0" />
	<path style="fill:none;stroke:red;stroke-width:1px;stroke-linecap:butt;stroke-linejoin:miter;stroke-opacity:1" d="M 245.53,469.809 254.157,498.562 z" id="boundary" inkscape:connector-curvature="0" />
	<path style="fill:none;stroke:red;stroke-width:1px;stroke-linecap:butt;stroke-linejoin:miter;stroke-opacity:1" d="M 254.157,498.562 254.157,527.316 z" id="boundary" inkscape:connector-curvature="0" />
	<path style="fill:none;stroke:red;stroke-width:1px;stroke-linecap:butt;stroke-linejoin:miter;stroke-opacity:1" d="M 254.157,527.316 254.157,556.07 z" id="boundary" inkscape:connector-curvature="0" />
	<path style="fill:none;stroke:red;stroke-width:1px;stroke-linecap:butt;stroke-linejoin:miter;stroke-opacity:1" d="M 254.157,556.07 259.907,584.823 z" id="boundary" inkscape:connector-curvature="0" />
	<path style="fill:none;stroke:red;stroke-width:1px;stroke-linecap:butt;stroke-linejoin:miter;stroke-opacity:1" d="M 259.907,584.823 259.907,613.577 z" id="boundary" inkscape:connector-curvature="0" />
	<path style="fill:none;stroke:red;stroke-width:1px;stroke-linecap:butt;stroke-linejoin:miter;stroke-opacity:1" d="M 259.907,613.577 259.907,642.33 z" id="boundary" inkscape:connector-curvature="0" />
	<path style="fill:none;stroke:red;stroke-width:1px;stroke-linecap:butt;stroke-linejoin:miter;stroke-opacity:1" d="M 259.907,642.33 259.907,671.084 z" id="boundary" inkscape:connector-curvature="0" />
	<path style="fill:none;stroke:red;stroke-width:1px;stroke-linecap:butt;stroke-linejoin:miter;stroke-opacity:1" d="M 259.907,671.084 259.907,699.838 z" id="boundary" inkscape:connector-curvature="0" />
	<path style="fill:none;stroke:red;stroke-width:1px;stroke-linecap:butt;stroke-linejoin:miter;stroke-opacity:1" d="M 259.907,699.838 259.907,728.591 z" id="boundary" inkscape:connector-curvature="0" />
	<path style="fill:none;stroke:red;stroke-width:1px;stroke-linecap:butt;stroke-linejoin:miter;stroke-opacity:1" d="M 259.907,728.591 259.907,757.345 z" id="boundary" inkscape:connector-curvature="0" />
	<path style="fill:none;stroke:red;stroke-width:1px;stroke-linecap:butt;stroke-linejoin:miter;stroke-opacity:1" d="M 259.907,757.345 259.907,786.099 z" id="boundary" inkscape:connector-curvature="0" />
	<path style="fill:none;stroke:red;stroke-width:1px;stroke-linecap:butt;stroke-linejoin:miter;stroke-opacity:1" d="M 259.907,786.099 259.907,814.852 z" id="boundary" inkscape:connector-curvature="0" />
	<path style="fill:none;stroke:red;stroke-width:1px;stroke-linecap:butt;stroke-linejoin:miter;stroke-opacity:1" d="M 259.907,814.852 259.907,843.606 z" id="boundary" inkscape:connector-curvature="0" />
	<path style="fill:none;stroke:red;stroke-width:1px;stroke-linecap:butt;stroke-linejoin:miter;stroke-opacity:1" d="M 259.907,843.606 259.907,872.359 z" id="boundary" inkscape:connector-curvature="0" />
	<path style="fill:none;stroke:red;stroke-width:1px;stroke-linecap:butt;stroke-linejoin:miter;stroke-opacity:1" d="M 259.907,872.359 259.907,901.113 z" id="boundary" inkscape:connector-curvature="0" />
	<path style="fill:none;stroke:red;stroke-width:1px;stroke-linecap:butt;stroke-linejoin:miter;stroke-opacity:1" d="M 259.907,901.113 259.907,929.867 z" id="boundary" inkscape:connector-curvature="0" />
	<path style="fill:none;stroke:red;stroke-width:1px;stroke-linecap:butt;stroke-linejoin:miter;stroke-opacity:1" d="M 259.907,929.867 265.658,958.62 z" id="boundary" inkscape:connector-curvature="0" />
	<path style="fill:none;stroke:red;stroke-width:1px;stroke-linecap:butt;stroke-linejoin:miter;stroke-opacity:1" d="M 265.658,958.62 248.406,996 z" id="boundary" inkscape:connector-curvature="0" />
	<path style="fill:none;stroke:red;stroke-width:1px;stroke-linecap:butt;stroke-linejoin:miter;stroke-opacity:1" d="M 248.406,996 219.652,996 z" id="boundary" inkscape:connector-curvature="0" />
	<path style="fill:none;stroke:red;stroke-width:1px;stroke-linecap:butt;stroke-linejoin:miter;stroke-opacity:1" d="M 219.652,996 190.899,996 z" id="boundary" inkscape:connector-curvature="0" />
	<path style="fill:none;stroke:red;stroke-width:1px;stroke-linecap:butt;stroke-linejoin:miter;stroke-opacity:1" d="M 190.899,996 162.145,996 z" id="boundary" inkscape:connector-curvature="0" />
	<path style="fill:none;stroke:red;stroke-width:1px;stroke-linecap:butt;stroke-linejoin:miter;stroke-opacity:1" d="M 162.145,996 133.391,996 z" id="boundary" inkscape:connector-curvature="0" />
	<path style="fill:none;stroke:red;stroke-width:1px;stroke-linecap:butt;stroke-linejoin:miter;stroke-opacity:1" d="M 133.391,996 107.513,981.623 z" id="boundary" inkscape:connector-curvature="0" />
	<path style="fill:none;stroke:red;stroke-width:1px;stroke-linecap:butt;stroke-linejoin:miter;stroke-opacity:1" d="M 107.513,981.623 113.264,929.867 z" id="boundary" inkscape:connector-curvature="0" />
	<circle cx="4" cy="21.2522" r="4" fill="#0" id="circle0"/>
	<circle cx="4" cy="50.0058" r="4" fill="#0" id="circle1"/>
	<circle cx="12.6261" cy="78.7594" r="4" fill="#0" id="circle2"/>
	<circle cx="27.0029" cy="4" r="4" fill="#0" id="circle3"/>
	<circle cx="38.5043" cy="93.1362" r="4" fill="#0" id="circle4"/>
	<circle cx="55.7565" cy="4" r="4" fill="#0" id="circle5"/>
	<circle cx="67.258" cy="81.6348" r="4" fill="#0" id="circle6"/>
	<circle cx="84.5101" cy="15.5014" r="4" fill="#0" id="circle7"/>
	<circle cx="96.0116" cy="75.8841" r="4" fill="#0" id="circle8"/>
	<circle cx="107.513" cy="981.623" r="4" fill="#0" id="circle9"/>
	<circle cx="113.264" cy="15.5014" r="4" fill="#0" id="circle10"/>
	<circle cx="113.264" cy="929.867" r="4" fill="#0" id="circle11"/>
	<circle cx="119.014" cy="93.1362" r="4" fill="#0" id="circle12"/>
	<circle cx="119.014" cy="121.89" r="4" fill="#0" id="circle13"/>
	<circle cx="119.014" cy="515.814" r="4" fill="#0" id="circle14"/>
	<circle cx="119.014" cy="544.568" r="4" fill="#0" id="circle15"/>
	<circle cx="119.014" cy="573.322" r="4" fill="#0" id="circle16"/>
	<circle cx="119.014" cy="602.075" r="4" fill="#0" id="circle17"/>
	<circle cx="119.014" cy="630.829" r="4" fill="#0" id="circle18"/>
	<circle cx="119.014" cy="659.583" r="4" fill="#0" id="circle19"/>
	<circle cx="119.014" cy="688.336" r="4" fill="#0" id="circle20"/>
	<circle cx="119.014" cy="717.09" r="4" fill="#0" id="circle21"/>
	<circle cx="119.014" cy="745.843" r="4" fill="#0" id="circle22"/>
	<circle cx="119.014" cy="774.597" r="4" fill="#0" id="circle23"/>
	<circle cx="119.014" cy="803.351" r="4" fill="#0" id="circle24"/>
	<circle cx="119.014" cy="832.104" r="4" fill="#0" id="circle25"/>
	<circle cx="119.014" cy="860.858" r="4" fill="#0" id="circle26"/>
	<circle cx="119.014" cy="889.612" r="4" fill="#0" id="circle27"/>
	<circle cx="124.765" cy="150.643" r="4" fill="#0" id="circle28"/>
	<circle cx="124.765" cy="469.809" r="4" fill="#0" id="circle29"/>
	<circle cx="133.391" cy="996" r="4" fill="#0" id="circle30"/>
	<circle cx="136.267" cy="179.397" r="4" fill="#0" id="circle31"/>
	<circle cx="142.017" cy="4" r="4" fill="#0" id="circle32"/>
	<circle cx="142.017" cy="208.151" r="4" fill="#0" id="circle33"/>
	<circle cx="142.017" cy="429.554" r="4" fill="#0" id="circle34"/>
	<circle cx="147.768" cy="236.904" r="4" fill="#0" id="circle35"/>
	<circle cx="147.768" cy="265.658" r="4" fill="#0" id="circle36"/>
	<circle cx="147.768" cy="294.412" r="4" fill="#0" id="circle37"/>
	<circle cx="147.768" cy="323.165" r="4" fill="#0" id="circle38"/>
	<circle cx="147.768" cy="351.919" r="4" fill="#0" id="circle39"/>
	<circle cx="147.768" cy="380.672" r="4" fill="#0" id="circle40"/>
	<circle cx="162.145" cy="996" r="4" fill="#0" id="circle41"/>
	<circle cx="170.771" cy="4" r="4" fill="#0" id="circle42"/>
	<circle cx="190.899" cy="996" r="4" fill="#0" id="circle43"/>
	<circle cx="199.525" cy="4" r="4" fill="#0" id="circle44"/>
	<circle cx="219.652" cy="996" r="4" fill="#0" id="circle45"/>
	<circle cx="225.403" cy="268.533" r="4" fill="#0" id="circle46"/>
	<circle cx="225.403" cy="297.287" r="4" fill="#0" id="circle47"/>
	<circle cx="225.403" cy="326.041" r="4" fill="#0" id="circle48"/>
	<circle cx="225.403" cy="354.794" r="4" fill="#0" id="circle49"/>
	<circle cx="225.403" cy="383.548" r="4" fill="#0" id="circle50"/>
	<circle cx="228.278" cy="4" r="4" fill="#0" id="circle51"/>
	<circle cx="231.154" cy="205.275" r="4" fill="#0" id="circle52"/>
	<circle cx="231.154" cy="234.029" r="4" fill="#0" id="circle53"/>
	<circle cx="231.154" cy="412.301" r="4" fill="#0" id="circle54"/>
	<circle cx="236.904" cy="441.055" r="4" fill="#0" id="circle55"/>
	<circle cx="242.655" cy="165.02" r="4" fill="#0" id="circle56"/>
	<circle cx="245.53" cy="469.809" r="4" fill="#0" id="circle57"/>
	<circle cx="248.406" cy="996" r="4" fill="#0" id="circle58"/>
	<circle cx="254.157" cy="119.014" r="4" fill="#0" id="circle59"/>
	<circle cx="254.157" cy="498.562" r="4" fill="#0" id="circle60"/>
	<circle cx="254.157" cy="527.316" r="4" fill="#0" id="circle61"/>
	<circle cx="254.157" cy="556.07" r="4" fill="#0" id="circle62"/>
	<circle cx="257.032" cy="4" r="4" fill="#0" id="circle63"/>
	<circle cx="259.907" cy="90.2609" r="4" fill="#0" id="circle64"/>
	<circle cx="259.907" cy="584.823" r="4" fill="#0" id="circle65"/>
	<circle cx="259.907" cy="613.577" r="4" fill="#0" id="circle66"/>
	<circle cx="259.907" cy="642.33" r="4" fill="#0" id="circle67"/>
	<circle cx="259.907" cy="671.084" r="4" fill="#0" id="circle68"/>
	<circle cx="259.907" cy="699.838" r="4" fill="#0" id="circle69"/>
	<circle cx="259.907" cy="728.591" r="4" fill="#0" id="circle70"/>
	<circle cx="259.907" cy="757.345" r="4" fill="#0" id="circle71"/>
	<circle cx="259.907" cy="786.099" r="4" fill="#0" id="circle72"/>
	<circle cx="259.907" cy="814.852" r="4" fill="#0" id="circle73"/>
	<circle cx="259.907" cy="843.606" r="4" fill="#0" id="circle74"/>
	<circle cx="259.907" cy="872.359" r="4" fill="#0" id="circle75"/>
	<circle cx="259.907" cy="901.113" r="4" fill="#0" id="circle76"/>
	<circle cx="259.907" cy="929.867" r="4" fill="#0" id="circle77"/>
	<circle cx="265.658" cy="958.62" r="4" fill="#0" id="circle78"/>
	<circle cx="282.91" cy="18.3768" r="4" fill="#0" id="circle79"/>
	<circle cx="285.786" cy="104.638" r="4" fill="#0" id="circle80"/>
	<circle cx="305.913" cy="35.629" r="4" fill="#0" id="circle81"/>
	<circle cx="308.788" cy="121.89" r="4" fill="#0" id="circle82"/>
	<circle cx="326.041" cy="144.893" r="4" fill="#0" id="circle83"/>
	<circle cx="328.916" cy="55.7565" r="4" fill="#0" id="circle84"/>
	<circle cx="337.542" cy="173.646" r="4" fill="#0" id="circle85"/>
	<circle cx="346.168" cy="78.7594" r="4" fill="#0" id="circle86"/>
	<circle cx="363.42" cy="101.762" r="4" fill="#0" id="circle87"/>
	<circle cx="366.296" cy="179.397" r="4" fill="#0" id="circle88"/>
	<circle cx="374.922" cy="130.516" r="4" fill="#0" id="circle89"/>
	</g>
</svg>