<?xml version="1.0" encoding="UTF-8" standalone="no"?>
<!-- Created with CurveBenchmark -->
<svg
	xmlns:dc="http://purl.org/dc/elements/1.1/"
	xmlns:cc="http://creativecommons.org/ns#"
	xmlns:rdf="http://www.w3.org/1999/02/22-rdf-syntax-ns#"
	xmlns:svg="http://www.w3.org/2000/svg"
	xmlns="http://www.w3.org/2000/svg"
	xmlns:sodipodi="http://sodipodi.sourceforge.net/DTD/sodipodi-0.dtd"
	xmlns:inkscape="http://www.inkscape.org/namespaces/inkscape"
	width="1000"
	height="1000"
	id="svg2"
	version="1.1"
	sodipodi:docname="manifold/crawl-hammer-10.png.txt">
<defs
	id="defs4" />
<metadata
	id="metadata7">
	<rdf:RDF>
		<cc:Work
			rdf:about="">
			<dc:format>image/svg+xml</dc:format>
			<dc:type
				rdf:resource="http://purl.org/dc/dcmitype/StillImage" />
			<dc:title></dc:title>
		</cc:Work>
	</rdf:RDF>
</metadata>
<g
	inkscape:label="Layer 1"
	inkscape:groupmode="layer"
	id="layer1">
	<path style="fill:none;stroke:red;stroke-width:1px;stroke-linecap:butt;stroke-linejoin:miter;stroke-opacity:1" d="M 4,451.034 4,462.555 z" id="boundary" inkscape:connector-curvature="0" />
	<path style="fill:none;stroke:red;stroke-width:1px;stroke-linecap:butt;stroke-linejoin:miter;stroke-opacity:1" d="M 4,462.555 4,474.077 z" id="boundary" inkscape:connector-curvature="0" />
	<path style="fill:none;stroke:red;stroke-width:1px;stroke-linecap:butt;stroke-linejoin:miter;stroke-opacity:1" d="M 4,474.077 4,485.598 z" id="boundary" inkscape:connector-curvature="0" />
	<path style="fill:none;stroke:red;stroke-width:1px;stroke-linecap:butt;stroke-linejoin:miter;stroke-opacity:1" d="M 4,485.598 4,497.12 z" id="boundary" inkscape:connector-curvature="0" />
	<path style="fill:none;stroke:red;stroke-width:1px;stroke-linecap:butt;stroke-linejoin:miter;stroke-opacity:1" d="M 4,497.12 4,508.641 z" id="boundary" inkscape:connector-curvature="0" />
	<path style="fill:none;stroke:red;stroke-width:1px;stroke-linecap:butt;stroke-linejoin:miter;stroke-opacity:1" d="M 4,508.641 4,520.163 z" id="boundary" inkscape:connector-curvature="0" />
	<path style="fill:none;stroke:red;stroke-width:1px;stroke-linecap:butt;stroke-linejoin:miter;stroke-opacity:1" d="M 4,520.163 4,531.684 z" id="boundary" inkscape:connector-curvature="0" />
	<path style="fill:none;stroke:red;stroke-width:1px;stroke-linecap:butt;stroke-linejoin:miter;stroke-opacity:1" d="M 4,531.684 4,543.206 z" id="boundary" inkscape:connector-curvature="0" />
	<path style="fill:none;stroke:red;stroke-width:1px;stroke-linecap:butt;stroke-linejoin:miter;stroke-opacity:1" d="M 4,543.206 4,554.727 z" id="boundary" inkscape:connector-curvature="0" />
	<path style="fill:none;stroke:red;stroke-width:1px;stroke-linecap:butt;stroke-linejoin:miter;stroke-opacity:1" d="M 4,554.727 4,566.249 z" id="boundary" inkscape:connector-curvature="0" />
	<path style="fill:none;stroke:red;stroke-width:1px;stroke-linecap:butt;stroke-linejoin:miter;stroke-opacity:1" d="M 4,566.249 4,577.77 z" id="boundary" inkscape:connector-curvature="0" />
	<path style="fill:none;stroke:red;stroke-width:1px;stroke-linecap:butt;stroke-linejoin:miter;stroke-opacity:1" d="M 4,577.77 10.9129,586.987 z" id="boundary" inkscape:connector-curvature="0" />
	<path style="fill:none;stroke:red;stroke-width:1px;stroke-linecap:butt;stroke-linejoin:miter;stroke-opacity:1" d="M 10.9129,586.987 22.4344,586.987 z" id="boundary" inkscape:connector-curvature="0" />
	<path style="fill:none;stroke:red;stroke-width:1px;stroke-linecap:butt;stroke-linejoin:miter;stroke-opacity:1" d="M 22.4344,586.987 33.9559,586.987 z" id="boundary" inkscape:connector-curvature="0" />
	<path style="fill:none;stroke:red;stroke-width:1px;stroke-linecap:butt;stroke-linejoin:miter;stroke-opacity:1" d="M 33.9559,586.987 45.4774,586.987 z" id="boundary" inkscape:connector-curvature="0" />
	<path style="fill:none;stroke:red;stroke-width:1px;stroke-linecap:butt;stroke-linejoin:miter;stroke-opacity:1" d="M 45.4774,586.987 56.9988,586.987 z" id="boundary" inkscape:connector-curvature="0" />
	<path style="fill:none;stroke:red;stroke-width:1px;stroke-linecap:butt;stroke-linejoin:miter;stroke-opacity:1" d="M 56.9988,586.987 68.5203,586.987 z" id="boundary" inkscape:connector-curvature="0" />
	<path style="fill:none;stroke:red;stroke-width:1px;stroke-linecap:butt;stroke-linejoin:miter;stroke-opacity:1" d="M 68.5203,586.987 80.0418,586.987 z" id="boundary" inkscape:connector-curvature="0" />
	<path style="fill:none;stroke:red;stroke-width:1px;stroke-linecap:butt;stroke-linejoin:miter;stroke-opacity:1" d="M 80.0418,586.987 91.5633,586.987 z" id="boundary" inkscape:connector-curvature="0" />
	<path style="fill:none;stroke:red;stroke-width:1px;stroke-linecap:butt;stroke-linejoin:miter;stroke-opacity:1" d="M 91.5633,586.987 103.085,586.987 z" id="boundary" inkscape:connector-curvature="0" />
	<path style="fill:none;stroke:red;stroke-width:1px;stroke-linecap:butt;stroke-linejoin:miter;stroke-opacity:1" d="M 103.085,586.987 114.606,586.987 z" id="boundary" inkscape:connector-curvature="0" />
	<path style="fill:none;stroke:red;stroke-width:1px;stroke-linecap:butt;stroke-linejoin:miter;stroke-opacity:1" d="M 114.606,586.987 126.128,586.987 z" id="boundary" inkscape:connector-curvature="0" />
	<path style="fill:none;stroke:red;stroke-width:1px;stroke-linecap:butt;stroke-linejoin:miter;stroke-opacity:1" d="M 126.128,586.987 137.649,586.987 z" id="boundary" inkscape:connector-curvature="0" />
	<path style="fill:none;stroke:red;stroke-width:1px;stroke-linecap:butt;stroke-linejoin:miter;stroke-opacity:1" d="M 137.649,586.987 149.171,586.987 z" id="boundary" inkscape:connector-curvature="0" />
	<path style="fill:none;stroke:red;stroke-width:1px;stroke-linecap:butt;stroke-linejoin:miter;stroke-opacity:1" d="M 149.171,586.987 160.692,586.987 z" id="boundary" inkscape:connector-curvature="0" />
	<path style="fill:none;stroke:red;stroke-width:1px;stroke-linecap:butt;stroke-linejoin:miter;stroke-opacity:1" d="M 160.692,586.987 172.214,586.987 z" id="boundary" inkscape:connector-curvature="0" />
	<path style="fill:none;stroke:red;stroke-width:1px;stroke-linecap:butt;stroke-linejoin:miter;stroke-opacity:1" d="M 172.214,586.987 183.735,586.987 z" id="boundary" inkscape:connector-curvature="0" />
	<path style="fill:none;stroke:red;stroke-width:1px;stroke-linecap:butt;stroke-linejoin:miter;stroke-opacity:1" d="M 183.735,586.987 195.257,586.987 z" id="boundary" inkscape:connector-curvature="0" />
	<path style="fill:none;stroke:red;stroke-width:1px;stroke-linecap:butt;stroke-linejoin:miter;stroke-opacity:1" d="M 195.257,586.987 206.778,586.987 z" id="boundary" inkscape:connector-curvature="0" />
	<path style="fill:none;stroke:red;stroke-width:1px;stroke-linecap:butt;stroke-linejoin:miter;stroke-opacity:1" d="M 206.778,586.987 218.3,586.987 z" id="boundary" inkscape:connector-curvature="0" />
	<path style="fill:none;stroke:red;stroke-width:1px;stroke-linecap:butt;stroke-linejoin:miter;stroke-opacity:1" d="M 218.3,586.987 229.821,586.987 z" id="boundary" inkscape:connector-curvature="0" />
	<path style="fill:none;stroke:red;stroke-width:1px;stroke-linecap:butt;stroke-linejoin:miter;stroke-opacity:1" d="M 229.821,586.987 241.343,586.987 z" id="boundary" inkscape:connector-curvature="0" />
	<path style="fill:none;stroke:red;stroke-width:1px;stroke-linecap:butt;stroke-linejoin:miter;stroke-opacity:1" d="M 241.343,586.987 252.864,586.987 z" id="boundary" inkscape:connector-curvature="0" />
	<path style="fill:none;stroke:red;stroke-width:1px;stroke-linecap:butt;stroke-linejoin:miter;stroke-opacity:1" d="M 252.864,586.987 264.386,586.987 z" id="boundary" inkscape:connector-curvature="0" />
	<path style="fill:none;stroke:red;stroke-width:1px;stroke-linecap:butt;stroke-linejoin:miter;stroke-opacity:1" d="M 264.386,586.987 275.907,586.987 z" id="boundary" inkscape:connector-curvature="0" />
	<path style="fill:none;stroke:red;stroke-width:1px;stroke-linecap:butt;stroke-linejoin:miter;stroke-opacity:1" d="M 4,451.034 4,439.512 z" id="boundary" inkscape:connector-curvature="0" />
	<path style="fill:none;stroke:red;stroke-width:1px;stroke-linecap:butt;stroke-linejoin:miter;stroke-opacity:1" d="M 4,439.512 15.5215,436.056 z" id="boundary" inkscape:connector-curvature="0" />
	<path style="fill:none;stroke:red;stroke-width:1px;stroke-linecap:butt;stroke-linejoin:miter;stroke-opacity:1" d="M 15.5215,436.056 27.043,427.991 z" id="boundary" inkscape:connector-curvature="0" />
	<path style="fill:none;stroke:red;stroke-width:1px;stroke-linecap:butt;stroke-linejoin:miter;stroke-opacity:1" d="M 27.043,427.991 27.043,416.469 z" id="boundary" inkscape:connector-curvature="0" />
	<path style="fill:none;stroke:red;stroke-width:1px;stroke-linecap:butt;stroke-linejoin:miter;stroke-opacity:1" d="M 27.043,416.469 27.043,404.948 z" id="boundary" inkscape:connector-curvature="0" />
	<path style="fill:none;stroke:red;stroke-width:1px;stroke-linecap:butt;stroke-linejoin:miter;stroke-opacity:1" d="M 27.043,404.948 27.043,393.426 z" id="boundary" inkscape:connector-curvature="0" />
	<path style="fill:none;stroke:red;stroke-width:1px;stroke-linecap:butt;stroke-linejoin:miter;stroke-opacity:1" d="M 27.043,393.426 27.043,381.905 z" id="boundary" inkscape:connector-curvature="0" />
	<path style="fill:none;stroke:red;stroke-width:1px;stroke-linecap:butt;stroke-linejoin:miter;stroke-opacity:1" d="M 27.043,381.905 27.043,370.383 z" id="boundary" inkscape:connector-curvature="0" />
	<path style="fill:none;stroke:red;stroke-width:1px;stroke-linecap:butt;stroke-linejoin:miter;stroke-opacity:1" d="M 27.043,370.383 27.043,358.862 z" id="boundary" inkscape:connector-curvature="0" />
	<path style="fill:none;stroke:red;stroke-width:1px;stroke-linecap:butt;stroke-linejoin:miter;stroke-opacity:1" d="M 27.043,358.862 27.043,347.34 z" id="boundary" inkscape:connector-curvature="0" />
	<path style="fill:none;stroke:red;stroke-width:1px;stroke-linecap:butt;stroke-linejoin:miter;stroke-opacity:1" d="M 27.043,347.34 27.043,335.819 z" id="boundary" inkscape:connector-curvature="0" />
	<path style="fill:none;stroke:red;stroke-width:1px;stroke-linecap:butt;stroke-linejoin:miter;stroke-opacity:1" d="M 27.043,335.819 27.043,324.297 z" id="boundary" inkscape:connector-curvature="0" />
	<path style="fill:none;stroke:red;stroke-width:1px;stroke-linecap:butt;stroke-linejoin:miter;stroke-opacity:1" d="M 27.043,324.297 27.043,312.776 z" id="boundary" inkscape:connector-curvature="0" />
	<path style="fill:none;stroke:red;stroke-width:1px;stroke-linecap:butt;stroke-linejoin:miter;stroke-opacity:1" d="M 27.043,312.776 27.043,301.254 z" id="boundary" inkscape:connector-curvature="0" />
	<path style="fill:none;stroke:red;stroke-width:1px;stroke-linecap:butt;stroke-linejoin:miter;stroke-opacity:1" d="M 27.043,301.254 27.043,289.733 z" id="boundary" inkscape:connector-curvature="0" />
	<path style="fill:none;stroke:red;stroke-width:1px;stroke-linecap:butt;stroke-linejoin:miter;stroke-opacity:1" d="M 27.043,289.733 27.043,278.211 z" id="boundary" inkscape:connector-curvature="0" />
	<path style="fill:none;stroke:red;stroke-width:1px;stroke-linecap:butt;stroke-linejoin:miter;stroke-opacity:1" d="M 27.043,278.211 32.8037,260.929 z" id="boundary" inkscape:connector-curvature="0" />
	<path style="fill:none;stroke:red;stroke-width:1px;stroke-linecap:butt;stroke-linejoin:miter;stroke-opacity:1" d="M 32.8037,260.929 32.8037,249.408 z" id="boundary" inkscape:connector-curvature="0" />
	<path style="fill:none;stroke:red;stroke-width:1px;stroke-linecap:butt;stroke-linejoin:miter;stroke-opacity:1" d="M 32.8037,249.408 38.5645,237.886 z" id="boundary" inkscape:connector-curvature="0" />
	<path style="fill:none;stroke:red;stroke-width:1px;stroke-linecap:butt;stroke-linejoin:miter;stroke-opacity:1" d="M 38.5645,237.886 44.3252,226.365 z" id="boundary" inkscape:connector-curvature="0" />
	<path style="fill:none;stroke:red;stroke-width:1px;stroke-linecap:butt;stroke-linejoin:miter;stroke-opacity:1" d="M 44.3252,226.365 50.0859,214.843 z" id="boundary" inkscape:connector-curvature="0" />
	<path style="fill:none;stroke:red;stroke-width:1px;stroke-linecap:butt;stroke-linejoin:miter;stroke-opacity:1" d="M 50.0859,214.843 50.0859,203.322 z" id="boundary" inkscape:connector-curvature="0" />
	<path style="fill:none;stroke:red;stroke-width:1px;stroke-linecap:butt;stroke-linejoin:miter;stroke-opacity:1" d="M 50.0859,203.322 59.3031,194.105 z" id="boundary" inkscape:connector-curvature="0" />
	<path style="fill:none;stroke:red;stroke-width:1px;stroke-linecap:butt;stroke-linejoin:miter;stroke-opacity:1" d="M 59.3031,194.105 65.0639,182.583 z" id="boundary" inkscape:connector-curvature="0" />
	<path style="fill:none;stroke:red;stroke-width:1px;stroke-linecap:butt;stroke-linejoin:miter;stroke-opacity:1" d="M 65.0639,182.583 73.1289,168.757 z" id="boundary" inkscape:connector-curvature="0" />
	<path style="fill:none;stroke:red;stroke-width:1px;stroke-linecap:butt;stroke-linejoin:miter;stroke-opacity:1" d="M 73.1289,168.757 82.3461,159.54 z" id="boundary" inkscape:connector-curvature="0" />
	<path style="fill:none;stroke:red;stroke-width:1px;stroke-linecap:butt;stroke-linejoin:miter;stroke-opacity:1" d="M 82.3461,159.54 88.1069,148.019 z" id="boundary" inkscape:connector-curvature="0" />
	<path style="fill:none;stroke:red;stroke-width:1px;stroke-linecap:butt;stroke-linejoin:miter;stroke-opacity:1" d="M 88.1069,148.019 96.1719,134.193 z" id="boundary" inkscape:connector-curvature="0" />
	<path style="fill:none;stroke:red;stroke-width:1px;stroke-linecap:butt;stroke-linejoin:miter;stroke-opacity:1" d="M 96.1719,134.193 101.933,122.671 z" id="boundary" inkscape:connector-curvature="0" />
	<path style="fill:none;stroke:red;stroke-width:1px;stroke-linecap:butt;stroke-linejoin:miter;stroke-opacity:1" d="M 101.933,122.671 111.15,113.454 z" id="boundary" inkscape:connector-curvature="0" />
	<path style="fill:none;stroke:red;stroke-width:1px;stroke-linecap:butt;stroke-linejoin:miter;stroke-opacity:1" d="M 111.15,113.454 116.911,101.933 z" id="boundary" inkscape:connector-curvature="0" />
	<path style="fill:none;stroke:red;stroke-width:1px;stroke-linecap:butt;stroke-linejoin:miter;stroke-opacity:1" d="M 116.911,101.933 126.128,92.7154 z" id="boundary" inkscape:connector-curvature="0" />
	<path style="fill:none;stroke:red;stroke-width:1px;stroke-linecap:butt;stroke-linejoin:miter;stroke-opacity:1" d="M 126.128,92.7154 135.345,84.6504 z" id="boundary" inkscape:connector-curvature="0" />
	<path style="fill:none;stroke:red;stroke-width:1px;stroke-linecap:butt;stroke-linejoin:miter;stroke-opacity:1" d="M 135.345,84.6504 143.41,75.4332 z" id="boundary" inkscape:connector-curvature="0" />
	<path style="fill:none;stroke:red;stroke-width:1px;stroke-linecap:butt;stroke-linejoin:miter;stroke-opacity:1" d="M 143.41,75.4332 154.931,69.6725 z" id="boundary" inkscape:connector-curvature="0" />
	<path style="fill:none;stroke:red;stroke-width:1px;stroke-linecap:butt;stroke-linejoin:miter;stroke-opacity:1" d="M 154.931,69.6725 164.149,61.6074 z" id="boundary" inkscape:connector-curvature="0" />
	<path style="fill:none;stroke:red;stroke-width:1px;stroke-linecap:butt;stroke-linejoin:miter;stroke-opacity:1" d="M 164.149,61.6074 174.518,55.8467 z" id="boundary" inkscape:connector-curvature="0" />
	<path style="fill:none;stroke:red;stroke-width:1px;stroke-linecap:butt;stroke-linejoin:miter;stroke-opacity:1" d="M 174.518,55.8467 186.039,50.0859 z" id="boundary" inkscape:connector-curvature="0" />
	<path style="fill:none;stroke:red;stroke-width:1px;stroke-linecap:butt;stroke-linejoin:miter;stroke-opacity:1" d="M 186.039,50.0859 197.561,44.3252 z" id="boundary" inkscape:connector-curvature="0" />
	<path style="fill:none;stroke:red;stroke-width:1px;stroke-linecap:butt;stroke-linejoin:miter;stroke-opacity:1" d="M 197.561,44.3252 207.93,38.5645 z" id="boundary" inkscape:connector-curvature="0" />
	<path style="fill:none;stroke:red;stroke-width:1px;stroke-linecap:butt;stroke-linejoin:miter;stroke-opacity:1" d="M 207.93,38.5645 217.148,30.4994 z" id="boundary" inkscape:connector-curvature="0" />
	<path style="fill:none;stroke:red;stroke-width:1px;stroke-linecap:butt;stroke-linejoin:miter;stroke-opacity:1" d="M 217.148,30.4994 228.669,27.043 z" id="boundary" inkscape:connector-curvature="0" />
	<path style="fill:none;stroke:red;stroke-width:1px;stroke-linecap:butt;stroke-linejoin:miter;stroke-opacity:1" d="M 228.669,27.043 239.038,21.2822 z" id="boundary" inkscape:connector-curvature="0" />
	<path style="fill:none;stroke:red;stroke-width:1px;stroke-linecap:butt;stroke-linejoin:miter;stroke-opacity:1" d="M 239.038,21.2822 249.408,15.5215 z" id="boundary" inkscape:connector-curvature="0" />
	<path style="fill:none;stroke:red;stroke-width:1px;stroke-linecap:butt;stroke-linejoin:miter;stroke-opacity:1" d="M 249.408,15.5215 260.929,15.5215 z" id="boundary" inkscape:connector-curvature="0" />
	<path style="fill:none;stroke:red;stroke-width:1px;stroke-linecap:butt;stroke-linejoin:miter;stroke-opacity:1" d="M 260.929,15.5215 271.298,9.76074 z" id="boundary" inkscape:connector-curvature="0" />
	<path style="fill:none;stroke:red;stroke-width:1px;stroke-linecap:butt;stroke-linejoin:miter;stroke-opacity:1" d="M 271.298,9.76074 282.82,5.15215 z" id="boundary" inkscape:connector-curvature="0" />
	<path style="fill:none;stroke:red;stroke-width:1px;stroke-linecap:butt;stroke-linejoin:miter;stroke-opacity:1" d="M 282.82,5.15215 294.341,4 z" id="boundary" inkscape:connector-curvature="0" />
	<path style="fill:none;stroke:red;stroke-width:1px;stroke-linecap:butt;stroke-linejoin:miter;stroke-opacity:1" d="M 294.341,4 293.189,22.4344 z" id="boundary" inkscape:connector-curvature="0" />
	<path style="fill:none;stroke:red;stroke-width:1px;stroke-linecap:butt;stroke-linejoin:miter;stroke-opacity:1" d="M 293.189,22.4344 287.429,33.9559 z" id="boundary" inkscape:connector-curvature="0" />
	<path style="fill:none;stroke:red;stroke-width:1px;stroke-linecap:butt;stroke-linejoin:miter;stroke-opacity:1" d="M 287.429,33.9559 287.429,45.4774 z" id="boundary" inkscape:connector-curvature="0" />
	<path style="fill:none;stroke:red;stroke-width:1px;stroke-linecap:butt;stroke-linejoin:miter;stroke-opacity:1" d="M 287.429,45.4774 281.668,56.9988 z" id="boundary" inkscape:connector-curvature="0" />
	<path style="fill:none;stroke:red;stroke-width:1px;stroke-linecap:butt;stroke-linejoin:miter;stroke-opacity:1" d="M 281.668,56.9988 275.907,74.2811 z" id="boundary" inkscape:connector-curvature="0" />
	<path style="fill:none;stroke:red;stroke-width:1px;stroke-linecap:butt;stroke-linejoin:miter;stroke-opacity:1" d="M 275.907,74.2811 275.907,85.8026 z" id="boundary" inkscape:connector-curvature="0" />
	<path style="fill:none;stroke:red;stroke-width:1px;stroke-linecap:butt;stroke-linejoin:miter;stroke-opacity:1" d="M 275.907,85.8026 275.907,97.324 z" id="boundary" inkscape:connector-curvature="0" />
	<path style="fill:none;stroke:red;stroke-width:1px;stroke-linecap:butt;stroke-linejoin:miter;stroke-opacity:1" d="M 275.907,97.324 270.146,108.846 z" id="boundary" inkscape:connector-curvature="0" />
	<path style="fill:none;stroke:red;stroke-width:1px;stroke-linecap:butt;stroke-linejoin:miter;stroke-opacity:1" d="M 270.146,108.846 270.146,120.367 z" id="boundary" inkscape:connector-curvature="0" />
	<path style="fill:none;stroke:red;stroke-width:1px;stroke-linecap:butt;stroke-linejoin:miter;stroke-opacity:1" d="M 270.146,120.367 264.386,131.889 z" id="boundary" inkscape:connector-curvature="0" />
	<path style="fill:none;stroke:red;stroke-width:1px;stroke-linecap:butt;stroke-linejoin:miter;stroke-opacity:1" d="M 264.386,131.889 264.386,143.41 z" id="boundary" inkscape:connector-curvature="0" />
	<path style="fill:none;stroke:red;stroke-width:1px;stroke-linecap:butt;stroke-linejoin:miter;stroke-opacity:1" d="M 264.386,143.41 264.386,154.931 z" id="boundary" inkscape:connector-curvature="0" />
	<path style="fill:none;stroke:red;stroke-width:1px;stroke-linecap:butt;stroke-linejoin:miter;stroke-opacity:1" d="M 264.386,154.931 258.625,166.453 z" id="boundary" inkscape:connector-curvature="0" />
	<path style="fill:none;stroke:red;stroke-width:1px;stroke-linecap:butt;stroke-linejoin:miter;stroke-opacity:1" d="M 258.625,166.453 258.625,177.974 z" id="boundary" inkscape:connector-curvature="0" />
	<path style="fill:none;stroke:red;stroke-width:1px;stroke-linecap:butt;stroke-linejoin:miter;stroke-opacity:1" d="M 258.625,177.974 258.625,189.496 z" id="boundary" inkscape:connector-curvature="0" />
	<path style="fill:none;stroke:red;stroke-width:1px;stroke-linecap:butt;stroke-linejoin:miter;stroke-opacity:1" d="M 258.625,189.496 258.625,201.017 z" id="boundary" inkscape:connector-curvature="0" />
	<path style="fill:none;stroke:red;stroke-width:1px;stroke-linecap:butt;stroke-linejoin:miter;stroke-opacity:1" d="M 258.625,201.017 252.864,212.539 z" id="boundary" inkscape:connector-curvature="0" />
	<path style="fill:none;stroke:red;stroke-width:1px;stroke-linecap:butt;stroke-linejoin:miter;stroke-opacity:1" d="M 252.864,212.539 252.864,224.06 z" id="boundary" inkscape:connector-curvature="0" />
	<path style="fill:none;stroke:red;stroke-width:1px;stroke-linecap:butt;stroke-linejoin:miter;stroke-opacity:1" d="M 252.864,224.06 252.864,235.582 z" id="boundary" inkscape:connector-curvature="0" />
	<path style="fill:none;stroke:red;stroke-width:1px;stroke-linecap:butt;stroke-linejoin:miter;stroke-opacity:1" d="M 252.864,235.582 252.864,247.103 z" id="boundary" inkscape:connector-curvature="0" />
	<path style="fill:none;stroke:red;stroke-width:1px;stroke-linecap:butt;stroke-linejoin:miter;stroke-opacity:1" d="M 252.864,247.103 252.864,258.625 z" id="boundary" inkscape:connector-curvature="0" />
	<path style="fill:none;stroke:red;stroke-width:1px;stroke-linecap:butt;stroke-linejoin:miter;stroke-opacity:1" d="M 252.864,258.625 258.625,268.994 z" id="boundary" inkscape:connector-curvature="0" />
	<path style="fill:none;stroke:red;stroke-width:1px;stroke-linecap:butt;stroke-linejoin:miter;stroke-opacity:1" d="M 258.625,268.994 270.146,268.994 z" id="boundary" inkscape:connector-curvature="0" />
	<path style="fill:none;stroke:red;stroke-width:1px;stroke-linecap:butt;stroke-linejoin:miter;stroke-opacity:1" d="M 270.146,268.994 281.668,268.994 z" id="boundary" inkscape:connector-curvature="0" />
	<path style="fill:none;stroke:red;stroke-width:1px;stroke-linecap:butt;stroke-linejoin:miter;stroke-opacity:1" d="M 281.668,268.994 293.189,268.994 z" id="boundary" inkscape:connector-curvature="0" />
	<path style="fill:none;stroke:red;stroke-width:1px;stroke-linecap:butt;stroke-linejoin:miter;stroke-opacity:1" d="M 293.189,268.994 304.711,268.994 z" id="boundary" inkscape:connector-curvature="0" />
	<path style="fill:none;stroke:red;stroke-width:1px;stroke-linecap:butt;stroke-linejoin:miter;stroke-opacity:1" d="M 304.711,268.994 316.232,268.994 z" id="boundary" inkscape:connector-curvature="0" />
	<path style="fill:none;stroke:red;stroke-width:1px;stroke-linecap:butt;stroke-linejoin:miter;stroke-opacity:1" d="M 316.232,268.994 327.754,268.994 z" id="boundary" inkscape:connector-curvature="0" />
	<path style="fill:none;stroke:red;stroke-width:1px;stroke-linecap:butt;stroke-linejoin:miter;stroke-opacity:1" d="M 327.754,268.994 339.275,268.994 z" id="boundary" inkscape:connector-curvature="0" />
	<path style="fill:none;stroke:red;stroke-width:1px;stroke-linecap:butt;stroke-linejoin:miter;stroke-opacity:1" d="M 339.275,268.994 350.797,268.994 z" id="boundary" inkscape:connector-curvature="0" />
	<path style="fill:none;stroke:red;stroke-width:1px;stroke-linecap:butt;stroke-linejoin:miter;stroke-opacity:1" d="M 350.797,268.994 362.318,268.994 z" id="boundary" inkscape:connector-curvature="0" />
	<path style="fill:none;stroke:red;stroke-width:1px;stroke-linecap:butt;stroke-linejoin:miter;stroke-opacity:1" d="M 362.318,268.994 373.84,268.994 z" id="boundary" inkscape:connector-curvature="0" />
	<path style="fill:none;stroke:red;stroke-width:1px;stroke-linecap:butt;stroke-linejoin:miter;stroke-opacity:1" d="M 373.84,268.994 385.361,268.994 z" id="boundary" inkscape:connector-curvature="0" />
	<path style="fill:none;stroke:red;stroke-width:1px;stroke-linecap:butt;stroke-linejoin:miter;stroke-opacity:1" d="M 385.361,268.994 396.883,268.994 z" id="boundary" inkscape:connector-curvature="0" />
	<path style="fill:none;stroke:red;stroke-width:1px;stroke-linecap:butt;stroke-linejoin:miter;stroke-opacity:1" d="M 396.883,268.994 408.404,268.994 z" id="boundary" inkscape:connector-curvature="0" />
	<path style="fill:none;stroke:red;stroke-width:1px;stroke-linecap:butt;stroke-linejoin:miter;stroke-opacity:1" d="M 408.404,268.994 419.926,268.994 z" id="boundary" inkscape:connector-curvature="0" />
	<path style="fill:none;stroke:red;stroke-width:1px;stroke-linecap:butt;stroke-linejoin:miter;stroke-opacity:1" d="M 419.926,268.994 431.447,268.994 z" id="boundary" inkscape:connector-curvature="0" />
	<path style="fill:none;stroke:red;stroke-width:1px;stroke-linecap:butt;stroke-linejoin:miter;stroke-opacity:1" d="M 431.447,268.994 442.969,268.994 z" id="boundary" inkscape:connector-curvature="0" />
	<path style="fill:none;stroke:red;stroke-width:1px;stroke-linecap:butt;stroke-linejoin:miter;stroke-opacity:1" d="M 442.969,268.994 454.49,268.994 z" id="boundary" inkscape:connector-curvature="0" />
	<path style="fill:none;stroke:red;stroke-width:1px;stroke-linecap:butt;stroke-linejoin:miter;stroke-opacity:1" d="M 454.49,268.994 466.012,268.994 z" id="boundary" inkscape:connector-curvature="0" />
	<path style="fill:none;stroke:red;stroke-width:1px;stroke-linecap:butt;stroke-linejoin:miter;stroke-opacity:1" d="M 466.012,268.994 477.533,268.994 z" id="boundary" inkscape:connector-curvature="0" />
	<path style="fill:none;stroke:red;stroke-width:1px;stroke-linecap:butt;stroke-linejoin:miter;stroke-opacity:1" d="M 477.533,268.994 489.055,268.994 z" id="boundary" inkscape:connector-curvature="0" />
	<path style="fill:none;stroke:red;stroke-width:1px;stroke-linecap:butt;stroke-linejoin:miter;stroke-opacity:1" d="M 489.055,268.994 500.576,268.994 z" id="boundary" inkscape:connector-curvature="0" />
	<path style="fill:none;stroke:red;stroke-width:1px;stroke-linecap:butt;stroke-linejoin:miter;stroke-opacity:1" d="M 500.576,268.994 512.098,268.994 z" id="boundary" inkscape:connector-curvature="0" />
	<path style="fill:none;stroke:red;stroke-width:1px;stroke-linecap:butt;stroke-linejoin:miter;stroke-opacity:1" d="M 512.098,268.994 523.619,268.994 z" id="boundary" inkscape:connector-curvature="0" />
	<path style="fill:none;stroke:red;stroke-width:1px;stroke-linecap:butt;stroke-linejoin:miter;stroke-opacity:1" d="M 523.619,268.994 535.141,268.994 z" id="boundary" inkscape:connector-curvature="0" />
	<path style="fill:none;stroke:red;stroke-width:1px;stroke-linecap:butt;stroke-linejoin:miter;stroke-opacity:1" d="M 535.141,268.994 546.662,268.994 z" id="boundary" inkscape:connector-curvature="0" />
	<path style="fill:none;stroke:red;stroke-width:1px;stroke-linecap:butt;stroke-linejoin:miter;stroke-opacity:1" d="M 546.662,268.994 558.184,268.994 z" id="boundary" inkscape:connector-curvature="0" />
	<path style="fill:none;stroke:red;stroke-width:1px;stroke-linecap:butt;stroke-linejoin:miter;stroke-opacity:1" d="M 558.184,268.994 569.705,268.994 z" id="boundary" inkscape:connector-curvature="0" />
	<path style="fill:none;stroke:red;stroke-width:1px;stroke-linecap:butt;stroke-linejoin:miter;stroke-opacity:1" d="M 569.705,268.994 581.226,268.994 z" id="boundary" inkscape:connector-curvature="0" />
	<path style="fill:none;stroke:red;stroke-width:1px;stroke-linecap:butt;stroke-linejoin:miter;stroke-opacity:1" d="M 581.226,268.994 592.748,268.994 z" id="boundary" inkscape:connector-curvature="0" />
	<path style="fill:none;stroke:red;stroke-width:1px;stroke-linecap:butt;stroke-linejoin:miter;stroke-opacity:1" d="M 592.748,268.994 604.269,268.994 z" id="boundary" inkscape:connector-curvature="0" />
	<path style="fill:none;stroke:red;stroke-width:1px;stroke-linecap:butt;stroke-linejoin:miter;stroke-opacity:1" d="M 604.269,268.994 615.791,268.994 z" id="boundary" inkscape:connector-curvature="0" />
	<path style="fill:none;stroke:red;stroke-width:1px;stroke-linecap:butt;stroke-linejoin:miter;stroke-opacity:1" d="M 615.791,268.994 627.312,268.994 z" id="boundary" inkscape:connector-curvature="0" />
	<path style="fill:none;stroke:red;stroke-width:1px;stroke-linecap:butt;stroke-linejoin:miter;stroke-opacity:1" d="M 627.312,268.994 638.834,268.994 z" id="boundary" inkscape:connector-curvature="0" />
	<path style="fill:none;stroke:red;stroke-width:1px;stroke-linecap:butt;stroke-linejoin:miter;stroke-opacity:1" d="M 638.834,268.994 650.355,268.994 z" id="boundary" inkscape:connector-curvature="0" />
	<path style="fill:none;stroke:red;stroke-width:1px;stroke-linecap:butt;stroke-linejoin:miter;stroke-opacity:1" d="M 650.355,268.994 661.877,268.994 z" id="boundary" inkscape:connector-curvature="0" />
	<path style="fill:none;stroke:red;stroke-width:1px;stroke-linecap:butt;stroke-linejoin:miter;stroke-opacity:1" d="M 661.877,268.994 673.398,268.994 z" id="boundary" inkscape:connector-curvature="0" />
	<path style="fill:none;stroke:red;stroke-width:1px;stroke-linecap:butt;stroke-linejoin:miter;stroke-opacity:1" d="M 673.398,268.994 684.92,268.994 z" id="boundary" inkscape:connector-curvature="0" />
	<path style="fill:none;stroke:red;stroke-width:1px;stroke-linecap:butt;stroke-linejoin:miter;stroke-opacity:1" d="M 684.92,268.994 696.441,268.994 z" id="boundary" inkscape:connector-curvature="0" />
	<path style="fill:none;stroke:red;stroke-width:1px;stroke-linecap:butt;stroke-linejoin:miter;stroke-opacity:1" d="M 696.441,268.994 707.963,268.994 z" id="boundary" inkscape:connector-curvature="0" />
	<path style="fill:none;stroke:red;stroke-width:1px;stroke-linecap:butt;stroke-linejoin:miter;stroke-opacity:1" d="M 707.963,268.994 719.484,268.994 z" id="boundary" inkscape:connector-curvature="0" />
	<path style="fill:none;stroke:red;stroke-width:1px;stroke-linecap:butt;stroke-linejoin:miter;stroke-opacity:1" d="M 719.484,268.994 731.006,268.994 z" id="boundary" inkscape:connector-curvature="0" />
	<path style="fill:none;stroke:red;stroke-width:1px;stroke-linecap:butt;stroke-linejoin:miter;stroke-opacity:1" d="M 731.006,268.994 742.527,268.994 z" id="boundary" inkscape:connector-curvature="0" />
	<path style="fill:none;stroke:red;stroke-width:1px;stroke-linecap:butt;stroke-linejoin:miter;stroke-opacity:1" d="M 742.527,268.994 754.049,268.994 z" id="boundary" inkscape:connector-curvature="0" />
	<path style="fill:none;stroke:red;stroke-width:1px;stroke-linecap:butt;stroke-linejoin:miter;stroke-opacity:1" d="M 754.049,268.994 765.57,268.994 z" id="boundary" inkscape:connector-curvature="0" />
	<path style="fill:none;stroke:red;stroke-width:1px;stroke-linecap:butt;stroke-linejoin:miter;stroke-opacity:1" d="M 765.57,268.994 777.092,268.994 z" id="boundary" inkscape:connector-curvature="0" />
	<path style="fill:none;stroke:red;stroke-width:1px;stroke-linecap:butt;stroke-linejoin:miter;stroke-opacity:1" d="M 777.092,268.994 788.613,268.994 z" id="boundary" inkscape:connector-curvature="0" />
	<path style="fill:none;stroke:red;stroke-width:1px;stroke-linecap:butt;stroke-linejoin:miter;stroke-opacity:1" d="M 788.613,268.994 800.135,268.994 z" id="boundary" inkscape:connector-curvature="0" />
	<path style="fill:none;stroke:red;stroke-width:1px;stroke-linecap:butt;stroke-linejoin:miter;stroke-opacity:1" d="M 800.135,268.994 811.656,268.994 z" id="boundary" inkscape:connector-curvature="0" />
	<path style="fill:none;stroke:red;stroke-width:1px;stroke-linecap:butt;stroke-linejoin:miter;stroke-opacity:1" d="M 811.656,268.994 823.178,268.994 z" id="boundary" inkscape:connector-curvature="0" />
	<path style="fill:none;stroke:red;stroke-width:1px;stroke-linecap:butt;stroke-linejoin:miter;stroke-opacity:1" d="M 823.178,268.994 834.699,268.994 z" id="boundary" inkscape:connector-curvature="0" />
	<path style="fill:none;stroke:red;stroke-width:1px;stroke-linecap:butt;stroke-linejoin:miter;stroke-opacity:1" d="M 834.699,268.994 846.221,268.994 z" id="boundary" inkscape:connector-curvature="0" />
	<path style="fill:none;stroke:red;stroke-width:1px;stroke-linecap:butt;stroke-linejoin:miter;stroke-opacity:1" d="M 846.221,268.994 857.742,268.994 z" id="boundary" inkscape:connector-curvature="0" />
	<path style="fill:none;stroke:red;stroke-width:1px;stroke-linecap:butt;stroke-linejoin:miter;stroke-opacity:1" d="M 857.742,268.994 869.264,268.994 z" id="boundary" inkscape:connector-curvature="0" />
	<path style="fill:none;stroke:red;stroke-width:1px;stroke-linecap:butt;stroke-linejoin:miter;stroke-opacity:1" d="M 869.264,268.994 880.785,268.994 z" id="boundary" inkscape:connector-curvature="0" />
	<path style="fill:none;stroke:red;stroke-width:1px;stroke-linecap:butt;stroke-linejoin:miter;stroke-opacity:1" d="M 880.785,268.994 892.307,268.994 z" id="boundary" inkscape:connector-curvature="0" />
	<path style="fill:none;stroke:red;stroke-width:1px;stroke-linecap:butt;stroke-linejoin:miter;stroke-opacity:1" d="M 892.307,268.994 903.828,268.994 z" id="boundary" inkscape:connector-curvature="0" />
	<path style="fill:none;stroke:red;stroke-width:1px;stroke-linecap:butt;stroke-linejoin:miter;stroke-opacity:1" d="M 903.828,268.994 915.35,268.994 z" id="boundary" inkscape:connector-curvature="0" />
	<path style="fill:none;stroke:red;stroke-width:1px;stroke-linecap:butt;stroke-linejoin:miter;stroke-opacity:1" d="M 915.35,268.994 926.871,268.994 z" id="boundary" inkscape:connector-curvature="0" />
	<path style="fill:none;stroke:red;stroke-width:1px;stroke-linecap:butt;stroke-linejoin:miter;stroke-opacity:1" d="M 926.871,268.994 938.393,268.994 z" id="boundary" inkscape:connector-curvature="0" />
	<path style="fill:none;stroke:red;stroke-width:1px;stroke-linecap:butt;stroke-linejoin:miter;stroke-opacity:1" d="M 938.393,268.994 949.914,268.994 z" id="boundary" inkscape:connector-curvature="0" />
	<path style="fill:none;stroke:red;stroke-width:1px;stroke-linecap:butt;stroke-linejoin:miter;stroke-opacity:1" d="M 949.914,268.994 961.436,268.994 z" id="boundary" inkscape:connector-curvature="0" />
	<path style="fill:none;stroke:red;stroke-width:1px;stroke-linecap:butt;stroke-linejoin:miter;stroke-opacity:1" d="M 961.436,268.994 972.957,268.994 z" id="boundary" inkscape:connector-curvature="0" />
	<path style="fill:none;stroke:red;stroke-width:1px;stroke-linecap:butt;stroke-linejoin:miter;stroke-opacity:1" d="M 972.957,268.994 984.479,268.994 z" id="boundary" inkscape:connector-curvature="0" />
	<path style="fill:none;stroke:red;stroke-width:1px;stroke-linecap:butt;stroke-linejoin:miter;stroke-opacity:1" d="M 984.479,268.994 996,272.451 z" id="boundary" inkscape:connector-curvature="0" />
	<path style="fill:none;stroke:red;stroke-width:1px;stroke-linecap:butt;stroke-linejoin:miter;stroke-opacity:1" d="M 996,272.451 996,283.972 z" id="boundary" inkscape:connector-curvature="0" />
	<path style="fill:none;stroke:red;stroke-width:1px;stroke-linecap:butt;stroke-linejoin:miter;stroke-opacity:1" d="M 996,283.972 996,295.494 z" id="boundary" inkscape:connector-curvature="0" />
	<path style="fill:none;stroke:red;stroke-width:1px;stroke-linecap:butt;stroke-linejoin:miter;stroke-opacity:1" d="M 996,295.494 996,307.015 z" id="boundary" inkscape:connector-curvature="0" />
	<path style="fill:none;stroke:red;stroke-width:1px;stroke-linecap:butt;stroke-linejoin:miter;stroke-opacity:1" d="M 996,307.015 996,318.537 z" id="boundary" inkscape:connector-curvature="0" />
	<path style="fill:none;stroke:red;stroke-width:1px;stroke-linecap:butt;stroke-linejoin:miter;stroke-opacity:1" d="M 996,318.537 996,330.058 z" id="boundary" inkscape:connector-curvature="0" />
	<path style="fill:none;stroke:red;stroke-width:1px;stroke-linecap:butt;stroke-linejoin:miter;stroke-opacity:1" d="M 996,330.058 996,341.58 z" id="boundary" inkscape:connector-curvature="0" />
	<path style="fill:none;stroke:red;stroke-width:1px;stroke-linecap:butt;stroke-linejoin:miter;stroke-opacity:1" d="M 996,341.58 996,353.101 z" id="boundary" inkscape:connector-curvature="0" />
	<path style="fill:none;stroke:red;stroke-width:1px;stroke-linecap:butt;stroke-linejoin:miter;stroke-opacity:1" d="M 996,353.101 996,364.623 z" id="boundary" inkscape:connector-curvature="0" />
	<path style="fill:none;stroke:red;stroke-width:1px;stroke-linecap:butt;stroke-linejoin:miter;stroke-opacity:1" d="M 996,364.623 996,376.144 z" id="boundary" inkscape:connector-curvature="0" />
	<path style="fill:none;stroke:red;stroke-width:1px;stroke-linecap:butt;stroke-linejoin:miter;stroke-opacity:1" d="M 996,376.144 996,387.666 z" id="boundary" inkscape:connector-curvature="0" />
	<path style="fill:none;stroke:red;stroke-width:1px;stroke-linecap:butt;stroke-linejoin:miter;stroke-opacity:1" d="M 996,387.666 996,399.187 z" id="boundary" inkscape:connector-curvature="0" />
	<path style="fill:none;stroke:red;stroke-width:1px;stroke-linecap:butt;stroke-linejoin:miter;stroke-opacity:1" d="M 996,399.187 984.479,408.404 z" id="boundary" inkscape:connector-curvature="0" />
	<path style="fill:none;stroke:red;stroke-width:1px;stroke-linecap:butt;stroke-linejoin:miter;stroke-opacity:1" d="M 984.479,408.404 972.957,408.404 z" id="boundary" inkscape:connector-curvature="0" />
	<path style="fill:none;stroke:red;stroke-width:1px;stroke-linecap:butt;stroke-linejoin:miter;stroke-opacity:1" d="M 972.957,408.404 961.436,408.404 z" id="boundary" inkscape:connector-curvature="0" />
	<path style="fill:none;stroke:red;stroke-width:1px;stroke-linecap:butt;stroke-linejoin:miter;stroke-opacity:1" d="M 961.436,408.404 949.914,408.404 z" id="boundary" inkscape:connector-curvature="0" />
	<path style="fill:none;stroke:red;stroke-width:1px;stroke-linecap:butt;stroke-linejoin:miter;stroke-opacity:1" d="M 949.914,408.404 938.393,408.404 z" id="boundary" inkscape:connector-curvature="0" />
	<path style="fill:none;stroke:red;stroke-width:1px;stroke-linecap:butt;stroke-linejoin:miter;stroke-opacity:1" d="M 938.393,408.404 926.871,408.404 z" id="boundary" inkscape:connector-curvature="0" />
	<path style="fill:none;stroke:red;stroke-width:1px;stroke-linecap:butt;stroke-linejoin:miter;stroke-opacity:1" d="M 926.871,408.404 915.35,408.404 z" id="boundary" inkscape:connector-curvature="0" />
	<path style="fill:none;stroke:red;stroke-width:1px;stroke-linecap:butt;stroke-linejoin:miter;stroke-opacity:1" d="M 915.35,408.404 903.828,408.404 z" id="boundary" inkscape:connector-curvature="0" />
	<path style="fill:none;stroke:red;stroke-width:1px;stroke-linecap:butt;stroke-linejoin:miter;stroke-opacity:1" d="M 903.828,408.404 892.307,408.404 z" id="boundary" inkscape:connector-curvature="0" />
	<path style="fill:none;stroke:red;stroke-width:1px;stroke-linecap:butt;stroke-linejoin:miter;stroke-opacity:1" d="M 892.307,408.404 880.785,408.404 z" id="boundary" inkscape:connector-curvature="0" />
	<path style="fill:none;stroke:red;stroke-width:1px;stroke-linecap:butt;stroke-linejoin:miter;stroke-opacity:1" d="M 880.785,408.404 869.264,408.404 z" id="boundary" inkscape:connector-curvature="0" />
	<path style="fill:none;stroke:red;stroke-width:1px;stroke-linecap:butt;stroke-linejoin:miter;stroke-opacity:1" d="M 869.264,408.404 857.742,408.404 z" id="boundary" inkscape:connector-curvature="0" />
	<path style="fill:none;stroke:red;stroke-width:1px;stroke-linecap:butt;stroke-linejoin:miter;stroke-opacity:1" d="M 857.742,408.404 846.221,408.404 z" id="boundary" inkscape:connector-curvature="0" />
	<path style="fill:none;stroke:red;stroke-width:1px;stroke-linecap:butt;stroke-linejoin:miter;stroke-opacity:1" d="M 846.221,408.404 834.699,408.404 z" id="boundary" inkscape:connector-curvature="0" />
	<path style="fill:none;stroke:red;stroke-width:1px;stroke-linecap:butt;stroke-linejoin:miter;stroke-opacity:1" d="M 834.699,408.404 823.178,408.404 z" id="boundary" inkscape:connector-curvature="0" />
	<path style="fill:none;stroke:red;stroke-width:1px;stroke-linecap:butt;stroke-linejoin:miter;stroke-opacity:1" d="M 823.178,408.404 811.656,408.404 z" id="boundary" inkscape:connector-curvature="0" />
	<path style="fill:none;stroke:red;stroke-width:1px;stroke-linecap:butt;stroke-linejoin:miter;stroke-opacity:1" d="M 811.656,408.404 800.135,408.404 z" id="boundary" inkscape:connector-curvature="0" />
	<path style="fill:none;stroke:red;stroke-width:1px;stroke-linecap:butt;stroke-linejoin:miter;stroke-opacity:1" d="M 800.135,408.404 788.613,408.404 z" id="boundary" inkscape:connector-curvature="0" />
	<path style="fill:none;stroke:red;stroke-width:1px;stroke-linecap:butt;stroke-linejoin:miter;stroke-opacity:1" d="M 788.613,408.404 777.092,408.404 z" id="boundary" inkscape:connector-curvature="0" />
	<path style="fill:none;stroke:red;stroke-width:1px;stroke-linecap:butt;stroke-linejoin:miter;stroke-opacity:1" d="M 777.092,408.404 765.57,408.404 z" id="boundary" inkscape:connector-curvature="0" />
	<path style="fill:none;stroke:red;stroke-width:1px;stroke-linecap:butt;stroke-linejoin:miter;stroke-opacity:1" d="M 765.57,408.404 754.049,408.404 z" id="boundary" inkscape:connector-curvature="0" />
	<path style="fill:none;stroke:red;stroke-width:1px;stroke-linecap:butt;stroke-linejoin:miter;stroke-opacity:1" d="M 754.049,408.404 742.527,408.404 z" id="boundary" inkscape:connector-curvature="0" />
	<path style="fill:none;stroke:red;stroke-width:1px;stroke-linecap:butt;stroke-linejoin:miter;stroke-opacity:1" d="M 742.527,408.404 731.006,408.404 z" id="boundary" inkscape:connector-curvature="0" />
	<path style="fill:none;stroke:red;stroke-width:1px;stroke-linecap:butt;stroke-linejoin:miter;stroke-opacity:1" d="M 731.006,408.404 719.484,408.404 z" id="boundary" inkscape:connector-curvature="0" />
	<path style="fill:none;stroke:red;stroke-width:1px;stroke-linecap:butt;stroke-linejoin:miter;stroke-opacity:1" d="M 719.484,408.404 707.963,408.404 z" id="boundary" inkscape:connector-curvature="0" />
	<path style="fill:none;stroke:red;stroke-width:1px;stroke-linecap:butt;stroke-linejoin:miter;stroke-opacity:1" d="M 707.963,408.404 696.441,408.404 z" id="boundary" inkscape:connector-curvature="0" />
	<path style="fill:none;stroke:red;stroke-width:1px;stroke-linecap:butt;stroke-linejoin:miter;stroke-opacity:1" d="M 696.441,408.404 684.92,408.404 z" id="boundary" inkscape:connector-curvature="0" />
	<path style="fill:none;stroke:red;stroke-width:1px;stroke-linecap:butt;stroke-linejoin:miter;stroke-opacity:1" d="M 684.92,408.404 673.398,408.404 z" id="boundary" inkscape:connector-curvature="0" />
	<path style="fill:none;stroke:red;stroke-width:1px;stroke-linecap:butt;stroke-linejoin:miter;stroke-opacity:1" d="M 673.398,408.404 661.877,408.404 z" id="boundary" inkscape:connector-curvature="0" />
	<path style="fill:none;stroke:red;stroke-width:1px;stroke-linecap:butt;stroke-linejoin:miter;stroke-opacity:1" d="M 661.877,408.404 650.355,408.404 z" id="boundary" inkscape:connector-curvature="0" />
	<path style="fill:none;stroke:red;stroke-width:1px;stroke-linecap:butt;stroke-linejoin:miter;stroke-opacity:1" d="M 650.355,408.404 638.834,408.404 z" id="boundary" inkscape:connector-curvature="0" />
	<path style="fill:none;stroke:red;stroke-width:1px;stroke-linecap:butt;stroke-linejoin:miter;stroke-opacity:1" d="M 638.834,408.404 627.312,408.404 z" id="boundary" inkscape:connector-curvature="0" />
	<path style="fill:none;stroke:red;stroke-width:1px;stroke-linecap:butt;stroke-linejoin:miter;stroke-opacity:1" d="M 627.312,408.404 615.791,408.404 z" id="boundary" inkscape:connector-curvature="0" />
	<path style="fill:none;stroke:red;stroke-width:1px;stroke-linecap:butt;stroke-linejoin:miter;stroke-opacity:1" d="M 615.791,408.404 604.269,408.404 z" id="boundary" inkscape:connector-curvature="0" />
	<path style="fill:none;stroke:red;stroke-width:1px;stroke-linecap:butt;stroke-linejoin:miter;stroke-opacity:1" d="M 604.269,408.404 592.748,408.404 z" id="boundary" inkscape:connector-curvature="0" />
	<path style="fill:none;stroke:red;stroke-width:1px;stroke-linecap:butt;stroke-linejoin:miter;stroke-opacity:1" d="M 592.748,408.404 581.226,408.404 z" id="boundary" inkscape:connector-curvature="0" />
	<path style="fill:none;stroke:red;stroke-width:1px;stroke-linecap:butt;stroke-linejoin:miter;stroke-opacity:1" d="M 581.226,408.404 569.705,408.404 z" id="boundary" inkscape:connector-curvature="0" />
	<path style="fill:none;stroke:red;stroke-width:1px;stroke-linecap:butt;stroke-linejoin:miter;stroke-opacity:1" d="M 569.705,408.404 558.184,408.404 z" id="boundary" inkscape:connector-curvature="0" />
	<path style="fill:none;stroke:red;stroke-width:1px;stroke-linecap:butt;stroke-linejoin:miter;stroke-opacity:1" d="M 558.184,408.404 546.662,408.404 z" id="boundary" inkscape:connector-curvature="0" />
	<path style="fill:none;stroke:red;stroke-width:1px;stroke-linecap:butt;stroke-linejoin:miter;stroke-opacity:1" d="M 546.662,408.404 535.141,408.404 z" id="boundary" inkscape:connector-curvature="0" />
	<path style="fill:none;stroke:red;stroke-width:1px;stroke-linecap:butt;stroke-linejoin:miter;stroke-opacity:1" d="M 535.141,408.404 523.619,408.404 z" id="boundary" inkscape:connector-curvature="0" />
	<path style="fill:none;stroke:red;stroke-width:1px;stroke-linecap:butt;stroke-linejoin:miter;stroke-opacity:1" d="M 523.619,408.404 512.098,408.404 z" id="boundary" inkscape:connector-curvature="0" />
	<path style="fill:none;stroke:red;stroke-width:1px;stroke-linecap:butt;stroke-linejoin:miter;stroke-opacity:1" d="M 512.098,408.404 500.576,408.404 z" id="boundary" inkscape:connector-curvature="0" />
	<path style="fill:none;stroke:red;stroke-width:1px;stroke-linecap:butt;stroke-linejoin:miter;stroke-opacity:1" d="M 500.576,408.404 489.055,408.404 z" id="boundary" inkscape:connector-curvature="0" />
	<path style="fill:none;stroke:red;stroke-width:1px;stroke-linecap:butt;stroke-linejoin:miter;stroke-opacity:1" d="M 489.055,408.404 477.533,408.404 z" id="boundary" inkscape:connector-curvature="0" />
	<path style="fill:none;stroke:red;stroke-width:1px;stroke-linecap:butt;stroke-linejoin:miter;stroke-opacity:1" d="M 477.533,408.404 466.012,408.404 z" id="boundary" inkscape:connector-curvature="0" />
	<path style="fill:none;stroke:red;stroke-width:1px;stroke-linecap:butt;stroke-linejoin:miter;stroke-opacity:1" d="M 466.012,408.404 454.49,408.404 z" id="boundary" inkscape:connector-curvature="0" />
	<path style="fill:none;stroke:red;stroke-width:1px;stroke-linecap:butt;stroke-linejoin:miter;stroke-opacity:1" d="M 454.49,408.404 442.969,408.404 z" id="boundary" inkscape:connector-curvature="0" />
	<path style="fill:none;stroke:red;stroke-width:1px;stroke-linecap:butt;stroke-linejoin:miter;stroke-opacity:1" d="M 442.969,408.404 431.447,408.404 z" id="boundary" inkscape:connector-curvature="0" />
	<path style="fill:none;stroke:red;stroke-width:1px;stroke-linecap:butt;stroke-linejoin:miter;stroke-opacity:1" d="M 431.447,408.404 419.926,408.404 z" id="boundary" inkscape:connector-curvature="0" />
	<path style="fill:none;stroke:red;stroke-width:1px;stroke-linecap:butt;stroke-linejoin:miter;stroke-opacity:1" d="M 419.926,408.404 408.404,408.404 z" id="boundary" inkscape:connector-curvature="0" />
	<path style="fill:none;stroke:red;stroke-width:1px;stroke-linecap:butt;stroke-linejoin:miter;stroke-opacity:1" d="M 408.404,408.404 396.883,408.404 z" id="boundary" inkscape:connector-curvature="0" />
	<path style="fill:none;stroke:red;stroke-width:1px;stroke-linecap:butt;stroke-linejoin:miter;stroke-opacity:1" d="M 396.883,408.404 385.361,408.404 z" id="boundary" inkscape:connector-curvature="0" />
	<path style="fill:none;stroke:red;stroke-width:1px;stroke-linecap:butt;stroke-linejoin:miter;stroke-opacity:1" d="M 385.361,408.404 373.84,408.404 z" id="boundary" inkscape:connector-curvature="0" />
	<path style="fill:none;stroke:red;stroke-width:1px;stroke-linecap:butt;stroke-linejoin:miter;stroke-opacity:1" d="M 373.84,408.404 362.318,408.404 z" id="boundary" inkscape:connector-curvature="0" />
	<path style="fill:none;stroke:red;stroke-width:1px;stroke-linecap:butt;stroke-linejoin:miter;stroke-opacity:1" d="M 362.318,408.404 350.797,408.404 z" id="boundary" inkscape:connector-curvature="0" />
	<path style="fill:none;stroke:red;stroke-width:1px;stroke-linecap:butt;stroke-linejoin:miter;stroke-opacity:1" d="M 350.797,408.404 339.275,408.404 z" id="boundary" inkscape:connector-curvature="0" />
	<path style="fill:none;stroke:red;stroke-width:1px;stroke-linecap:butt;stroke-linejoin:miter;stroke-opacity:1" d="M 339.275,408.404 327.754,408.404 z" id="boundary" inkscape:connector-curvature="0" />
	<path style="fill:none;stroke:red;stroke-width:1px;stroke-linecap:butt;stroke-linejoin:miter;stroke-opacity:1" d="M 327.754,408.404 316.232,408.404 z" id="boundary" inkscape:connector-curvature="0" />
	<path style="fill:none;stroke:red;stroke-width:1px;stroke-linecap:butt;stroke-linejoin:miter;stroke-opacity:1" d="M 316.232,408.404 304.711,408.404 z" id="boundary" inkscape:connector-curvature="0" />
	<path style="fill:none;stroke:red;stroke-width:1px;stroke-linecap:butt;stroke-linejoin:miter;stroke-opacity:1" d="M 304.711,408.404 293.189,408.404 z" id="boundary" inkscape:connector-curvature="0" />
	<path style="fill:none;stroke:red;stroke-width:1px;stroke-linecap:butt;stroke-linejoin:miter;stroke-opacity:1" d="M 293.189,408.404 281.668,408.404 z" id="boundary" inkscape:connector-curvature="0" />
	<path style="fill:none;stroke:red;stroke-width:1px;stroke-linecap:butt;stroke-linejoin:miter;stroke-opacity:1" d="M 281.668,408.404 270.146,408.404 z" id="boundary" inkscape:connector-curvature="0" />
	<path style="fill:none;stroke:red;stroke-width:1px;stroke-linecap:butt;stroke-linejoin:miter;stroke-opacity:1" d="M 270.146,408.404 258.625,408.404 z" id="boundary" inkscape:connector-curvature="0" />
	<path style="fill:none;stroke:red;stroke-width:1px;stroke-linecap:butt;stroke-linejoin:miter;stroke-opacity:1" d="M 258.625,408.404 258.625,419.926 z" id="boundary" inkscape:connector-curvature="0" />
	<path style="fill:none;stroke:red;stroke-width:1px;stroke-linecap:butt;stroke-linejoin:miter;stroke-opacity:1" d="M 258.625,419.926 258.625,431.447 z" id="boundary" inkscape:connector-curvature="0" />
	<path style="fill:none;stroke:red;stroke-width:1px;stroke-linecap:butt;stroke-linejoin:miter;stroke-opacity:1" d="M 258.625,431.447 270.146,436.056 z" id="boundary" inkscape:connector-curvature="0" />
	<path style="fill:none;stroke:red;stroke-width:1px;stroke-linecap:butt;stroke-linejoin:miter;stroke-opacity:1" d="M 270.146,436.056 281.668,439.512 z" id="boundary" inkscape:connector-curvature="0" />
	<path style="fill:none;stroke:red;stroke-width:1px;stroke-linecap:butt;stroke-linejoin:miter;stroke-opacity:1" d="M 281.668,439.512 281.668,451.034 z" id="boundary" inkscape:connector-curvature="0" />
	<path style="fill:none;stroke:red;stroke-width:1px;stroke-linecap:butt;stroke-linejoin:miter;stroke-opacity:1" d="M 281.668,451.034 281.668,462.555 z" id="boundary" inkscape:connector-curvature="0" />
	<path style="fill:none;stroke:red;stroke-width:1px;stroke-linecap:butt;stroke-linejoin:miter;stroke-opacity:1" d="M 281.668,462.555 281.668,474.077 z" id="boundary" inkscape:connector-curvature="0" />
	<path style="fill:none;stroke:red;stroke-width:1px;stroke-linecap:butt;stroke-linejoin:miter;stroke-opacity:1" d="M 281.668,474.077 281.668,485.598 z" id="boundary" inkscape:connector-curvature="0" />
	<path style="fill:none;stroke:red;stroke-width:1px;stroke-linecap:butt;stroke-linejoin:miter;stroke-opacity:1" d="M 281.668,485.598 281.668,497.12 z" id="boundary" inkscape:connector-curvature="0" />
	<path style="fill:none;stroke:red;stroke-width:1px;stroke-linecap:butt;stroke-linejoin:miter;stroke-opacity:1" d="M 281.668,497.12 281.668,508.641 z" id="boundary" inkscape:connector-curvature="0" />
	<path style="fill:none;stroke:red;stroke-width:1px;stroke-linecap:butt;stroke-linejoin:miter;stroke-opacity:1" d="M 281.668,508.641 281.668,520.163 z" id="boundary" inkscape:connector-curvature="0" />
	<path style="fill:none;stroke:red;stroke-width:1px;stroke-linecap:butt;stroke-linejoin:miter;stroke-opacity:1" d="M 281.668,520.163 281.668,531.684 z" id="boundary" inkscape:connector-curvature="0" />
	<path style="fill:none;stroke:red;stroke-width:1px;stroke-linecap:butt;stroke-linejoin:miter;stroke-opacity:1" d="M 281.668,531.684 281.668,543.206 z" id="boundary" inkscape:connector-curvature="0" />
	<path style="fill:none;stroke:red;stroke-width:1px;stroke-linecap:butt;stroke-linejoin:miter;stroke-opacity:1" d="M 281.668,543.206 281.668,554.727 z" id="boundary" inkscape:connector-curvature="0" />
	<path style="fill:none;stroke:red;stroke-width:1px;stroke-linecap:butt;stroke-linejoin:miter;stroke-opacity:1" d="M 281.668,554.727 281.668,566.249 z" id="boundary" inkscape:connector-curvature="0" />
	<path style="fill:none;stroke:red;stroke-width:1px;stroke-linecap:butt;stroke-linejoin:miter;stroke-opacity:1" d="M 281.668,566.249 275.907,586.987 z" id="boundary" inkscape:connector-curvature="0" />
	<circle cx="4" cy="439.512" r="4" fill="#0" id="circle0"/>
	<circle cx="4" cy="451.034" r="4" fill="#0" id="circle1"/>
	<circle cx="4" cy="462.555" r="4" fill="#0" id="circle2"/>
	<circle cx="4" cy="474.077" r="4" fill="#0" id="circle3"/>
	<circle cx="4" cy="485.598" r="4" fill="#0" id="circle4"/>
	<circle cx="4" cy="497.12" r="4" fill="#0" id="circle5"/>
	<circle cx="4" cy="508.641" r="4" fill="#0" id="circle6"/>
	<circle cx="4" cy="520.163" r="4" fill="#0" id="circle7"/>
	<circle cx="4" cy="531.684" r="4" fill="#0" id="circle8"/>
	<circle cx="4" cy="543.206" r="4" fill="#0" id="circle9"/>
	<circle cx="4" cy="554.727" r="4" fill="#0" id="circle10"/>
	<circle cx="4" cy="566.249" r="4" fill="#0" id="circle11"/>
	<circle cx="4" cy="577.77" r="4" fill="#0" id="circle12"/>
	<circle cx="10.9129" cy="586.987" r="4" fill="#0" id="circle13"/>
	<circle cx="15.5215" cy="436.056" r="4" fill="#0" id="circle14"/>
	<circle cx="22.4344" cy="586.987" r="4" fill="#0" id="circle15"/>
	<circle cx="27.043" cy="278.211" r="4" fill="#0" id="circle16"/>
	<circle cx="27.043" cy="289.733" r="4" fill="#0" id="circle17"/>
	<circle cx="27.043" cy="301.254" r="4" fill="#0" id="circle18"/>
	<circle cx="27.043" cy="312.776" r="4" fill="#0" id="circle19"/>
	<circle cx="27.043" cy="324.297" r="4" fill="#0" id="circle20"/>
	<circle cx="27.043" cy="335.819" r="4" fill="#0" id="circle21"/>
	<circle cx="27.043" cy="347.34" r="4" fill="#0" id="circle22"/>
	<circle cx="27.043" cy="358.862" r="4" fill="#0" id="circle23"/>
	<circle cx="27.043" cy="370.383" r="4" fill="#0" id="circle24"/>
	<circle cx="27.043" cy="381.905" r="4" fill="#0" id="circle25"/>
	<circle cx="27.043" cy="393.426" r="4" fill="#0" id="circle26"/>
	<circle cx="27.043" cy="404.948" r="4" fill="#0" id="circle27"/>
	<circle cx="27.043" cy="416.469" r="4" fill="#0" id="circle28"/>
	<circle cx="27.043" cy="427.991" r="4" fill="#0" id="circle29"/>
	<circle cx="32.8037" cy="249.408" r="4" fill="#0" id="circle30"/>
	<circle cx="32.8037" cy="260.929" r="4" fill="#0" id="circle31"/>
	<circle cx="33.9559" cy="586.987" r="4" fill="#0" id="circle32"/>
	<circle cx="38.5645" cy="237.886" r="4" fill="#0" id="circle33"/>
	<circle cx="44.3252" cy="226.365" r="4" fill="#0" id="circle34"/>
	<circle cx="45.4774" cy="586.987" r="4" fill="#0" id="circle35"/>
	<circle cx="50.0859" cy="203.322" r="4" fill="#0" id="circle36"/>
	<circle cx="50.0859" cy="214.843" r="4" fill="#0" id="circle37"/>
	<circle cx="56.9988" cy="586.987" r="4" fill="#0" id="circle38"/>
	<circle cx="59.3031" cy="194.105" r="4" fill="#0" id="circle39"/>
	<circle cx="65.0639" cy="182.583" r="4" fill="#0" id="circle40"/>
	<circle cx="68.5203" cy="586.987" r="4" fill="#0" id="circle41"/>
	<circle cx="73.1289" cy="168.757" r="4" fill="#0" id="circle42"/>
	<circle cx="80.0418" cy="586.987" r="4" fill="#0" id="circle43"/>
	<circle cx="82.3461" cy="159.54" r="4" fill="#0" id="circle44"/>
	<circle cx="88.1069" cy="148.019" r="4" fill="#0" id="circle45"/>
	<circle cx="91.5633" cy="586.987" r="4" fill="#0" id="circle46"/>
	<circle cx="96.1719" cy="134.193" r="4" fill="#0" id="circle47"/>
	<circle cx="101.933" cy="122.671" r="4" fill="#0" id="circle48"/>
	<circle cx="103.085" cy="586.987" r="4" fill="#0" id="circle49"/>
	<circle cx="111.15" cy="113.454" r="4" fill="#0" id="circle50"/>
	<circle cx="114.606" cy="586.987" r="4" fill="#0" id="circle51"/>
	<circle cx="116.911" cy="101.933" r="4" fill="#0" id="circle52"/>
	<circle cx="126.128" cy="92.7154" r="4" fill="#0" id="circle53"/>
	<circle cx="126.128" cy="586.987" r="4" fill="#0" id="circle54"/>
	<circle cx="135.345" cy="84.6504" r="4" fill="#0" id="circle55"/>
	<circle cx="137.649" cy="586.987" r="4" fill="#0" id="circle56"/>
	<circle cx="143.41" cy="75.4332" r="4" fill="#0" id="circle57"/>
	<circle cx="149.171" cy="586.987" r="4" fill="#0" id="circle58"/>
	<circle cx="154.931" cy="69.6725" r="4" fill="#0" id="circle59"/>
	<circle cx="160.692" cy="586.987" r="4" fill="#0" id="circle60"/>
	<circle cx="164.149" cy="61.6074" r="4" fill="#0" id="circle61"/>
	<circle cx="172.214" cy="586.987" r="4" fill="#0" id="circle62"/>
	<circle cx="174.518" cy="55.8467" r="4" fill="#0" id="circle63"/>
	<circle cx="183.735" cy="586.987" r="4" fill="#0" id="circle64"/>
	<circle cx="186.039" cy="50.0859" r="4" fill="#0" id="circle65"/>
	<circle cx="195.257" cy="586.987" r="4" fill="#0" id="circle66"/>
	<circle cx="197.561" cy="44.3252" r="4" fill="#0" id="circle67"/>
	<circle cx="206.778" cy="586.987" r="4" fill="#0" id="circle68"/>
	<circle cx="207.93" cy="38.5645" r="4" fill="#0" id="circle69"/>
	<circle cx="217.148" cy="30.4994" r="4" fill="#0" id="circle70"/>
	<circle cx="218.3" cy="586.987" r="4" fill="#0" id="circle71"/>
	<circle cx="228.669" cy="27.043" r="4" fill="#0" id="circle72"/>
	<circle cx="229.821" cy="586.987" r="4" fill="#0" id="circle73"/>
	<circle cx="239.038" cy="21.2822" r="4" fill="#0" id="circle74"/>
	<circle cx="241.343" cy="586.987" r="4" fill="#0" id="circle75"/>
	<circle cx="249.408" cy="15.5215" r="4" fill="#0" id="circle76"/>
	<circle cx="252.864" cy="212.539" r="4" fill="#0" id="circle77"/>
	<circle cx="252.864" cy="224.06" r="4" fill="#0" id="circle78"/>
	<circle cx="252.864" cy="235.582" r="4" fill="#0" id="circle79"/>
	<circle cx="252.864" cy="247.103" r="4" fill="#0" id="circle80"/>
	<circle cx="252.864" cy="258.625" r="4" fill="#0" id="circle81"/>
	<circle cx="252.864" cy="586.987" r="4" fill="#0" id="circle82"/>
	<circle cx="258.625" cy="166.453" r="4" fill="#0" id="circle83"/>
	<circle cx="258.625" cy="177.974" r="4" fill="#0" id="circle84"/>
	<circle cx="258.625" cy="189.496" r="4" fill="#0" id="circle85"/>
	<circle cx="258.625" cy="201.017" r="4" fill="#0" id="circle86"/>
	<circle cx="258.625" cy="268.994" r="4" fill="#0" id="circle87"/>
	<circle cx="258.625" cy="408.404" r="4" fill="#0" id="circle88"/>
	<circle cx="258.625" cy="419.926" r="4" fill="#0" id="circle89"/>
	<circle cx="258.625" cy="431.447" r="4" fill="#0" id="circle90"/>
	<circle cx="260.929" cy="15.5215" r="4" fill="#0" id="circle91"/>
	<circle cx="264.386" cy="131.889" r="4" fill="#0" id="circle92"/>
	<circle cx="264.386" cy="143.41" r="4" fill="#0" id="circle93"/>
	<circle cx="264.386" cy="154.931" r="4" fill="#0" id="circle94"/>
	<circle cx="264.386" cy="586.987" r="4" fill="#0" id="circle95"/>
	<circle cx="270.146" cy="108.846" r="4" fill="#0" id="circle96"/>
	<circle cx="270.146" cy="120.367" r="4" fill="#0" id="circle97"/>
	<circle cx="270.146" cy="268.994" r="4" fill="#0" id="circle98"/>
	<circle cx="270.146" cy="408.404" r="4" fill="#0" id="circle99"/>
	<circle cx="270.146" cy="436.056" r="4" fill="#0" id="circle100"/>
	<circle cx="271.298" cy="9.76074" r="4" fill="#0" id="circle101"/>
	<circle cx="275.907" cy="74.2811" r="4" fill="#0" id="circle102"/>
	<circle cx="275.907" cy="85.8026" r="4" fill="#0" id="circle103"/>
	<circle cx="275.907" cy="97.324" r="4" fill="#0" id="circle104"/>
	<circle cx="275.907" cy="586.987" r="4" fill="#0" id="circle105"/>
	<circle cx="281.668" cy="56.9988" r="4" fill="#0" id="circle106"/>
	<circle cx="281.668" cy="268.994" r="4" fill="#0" id="circle107"/>
	<circle cx="281.668" cy="408.404" r="4" fill="#0" id="circle108"/>
	<circle cx="281.668" cy="439.512" r="4" fill="#0" id="circle109"/>
	<circle cx="281.668" cy="451.034" r="4" fill="#0" id="circle110"/>
	<circle cx="281.668" cy="462.555" r="4" fill="#0" id="circle111"/>
	<circle cx="281.668" cy="474.077" r="4" fill="#0" id="circle112"/>
	<circle cx="281.668" cy="485.598" r="4" fill="#0" id="circle113"/>
	<circle cx="281.668" cy="497.12" r="4" fill="#0" id="circle114"/>
	<circle cx="281.668" cy="508.641" r="4" fill="#0" id="circle115"/>
	<circle cx="281.668" cy="520.163" r="4" fill="#0" id="circle116"/>
	<circle cx="281.668" cy="531.684" r="4" fill="#0" id="circle117"/>
	<circle cx="281.668" cy="543.206" r="4" fill="#0" id="circle118"/>
	<circle cx="281.668" cy="554.727" r="4" fill="#0" id="circle119"/>
	<circle cx="281.668" cy="566.249" r="4" fill="#0" id="circle120"/>
	<circle cx="282.82" cy="5.15215" r="4" fill="#0" id="circle121"/>
	<circle cx="287.429" cy="33.9559" r="4" fill="#0" id="circle122"/>
	<circle cx="287.429" cy="45.4774" r="4" fill="#0" id="circle123"/>
	<circle cx="293.189" cy="22.4344" r="4" fill="#0" id="circle124"/>
	<circle cx="293.189" cy="268.994" r="4" fill="#0" id="circle125"/>
	<circle cx="293.189" cy="408.404" r="4" fill="#0" id="circle126"/>
	<circle cx="294.341" cy="4" r="4" fill="#0" id="circle127"/>
	<circle cx="304.711" cy="268.994" r="4" fill="#0" id="circle128"/>
	<circle cx="304.711" cy="408.404" r="4" fill="#0" id="circle129"/>
	<circle cx="316.232" cy="268.994" r="4" fill="#0" id="circle130"/>
	<circle cx="316.232" cy="408.404" r="4" fill="#0" id="circle131"/>
	<circle cx="327.754" cy="268.994" r="4" fill="#0" id="circle132"/>
	<circle cx="327.754" cy="408.404" r="4" fill="#0" id="circle133"/>
	<circle cx="339.275" cy="268.994" r="4" fill="#0" id="circle134"/>
	<circle cx="339.275" cy="408.404" r="4" fill="#0" id="circle135"/>
	<circle cx="350.797" cy="268.994" r="4" fill="#0" id="circle136"/>
	<circle cx="350.797" cy="408.404" r="4" fill="#0" id="circle137"/>
	<circle cx="362.318" cy="268.994" r="4" fill="#0" id="circle138"/>
	<circle cx="362.318" cy="408.404" r="4" fill="#0" id="circle139"/>
	<circle cx="373.84" cy="268.994" r="4" fill="#0" id="circle140"/>
	<circle cx="373.84" cy="408.404" r="4" fill="#0" id="circle141"/>
	<circle cx="385.361" cy="268.994" r="4" fill="#0" id="circle142"/>
	<circle cx="385.361" cy="408.404" r="4" fill="#0" id="circle143"/>
	<circle cx="396.883" cy="268.994" r="4" fill="#0" id="circle144"/>
	<circle cx="396.883" cy="408.404" r="4" fill="#0" id="circle145"/>
	<circle cx="408.404" cy="268.994" r="4" fill="#0" id="circle146"/>
	<circle cx="408.404" cy="408.404" r="4" fill="#0" id="circle147"/>
	<circle cx="419.926" cy="268.994" r="4" fill="#0" id="circle148"/>
	<circle cx="419.926" cy="408.404" r="4" fill="#0" id="circle149"/>
	<circle cx="431.447" cy="268.994" r="4" fill="#0" id="circle150"/>
	<circle cx="431.447" cy="408.404" r="4" fill="#0" id="circle151"/>
	<circle cx="442.969" cy="268.994" r="4" fill="#0" id="circle152"/>
	<circle cx="442.969" cy="408.404" r="4" fill="#0" id="circle153"/>
	<circle cx="454.49" cy="268.994" r="4" fill="#0" id="circle154"/>
	<circle cx="454.49" cy="408.404" r="4" fill="#0" id="circle155"/>
	<circle cx="466.012" cy="268.994" r="4" fill="#0" id="circle156"/>
	<circle cx="466.012" cy="408.404" r="4" fill="#0" id="circle157"/>
	<circle cx="477.533" cy="268.994" r="4" fill="#0" id="circle158"/>
	<circle cx="477.533" cy="408.404" r="4" fill="#0" id="circle159"/>
	<circle cx="489.055" cy="268.994" r="4" fill="#0" id="circle160"/>
	<circle cx="489.055" cy="408.404" r="4" fill="#0" id="circle161"/>
	<circle cx="500.576" cy="268.994" r="4" fill="#0" id="circle162"/>
	<circle cx="500.576" cy="408.404" r="4" fill="#0" id="circle163"/>
	<circle cx="512.098" cy="268.994" r="4" fill="#0" id="circle164"/>
	<circle cx="512.098" cy="408.404" r="4" fill="#0" id="circle165"/>
	<circle cx="523.619" cy="268.994" r="4" fill="#0" id="circle166"/>
	<circle cx="523.619" cy="408.404" r="4" fill="#0" id="circle167"/>
	<circle cx="535.141" cy="268.994" r="4" fill="#0" id="circle168"/>
	<circle cx="535.141" cy="408.404" r="4" fill="#0" id="circle169"/>
	<circle cx="546.662" cy="268.994" r="4" fill="#0" id="circle170"/>
	<circle cx="546.662" cy="408.404" r="4" fill="#0" id="circle171"/>
	<circle cx="558.184" cy="268.994" r="4" fill="#0" id="circle172"/>
	<circle cx="558.184" cy="408.404" r="4" fill="#0" id="circle173"/>
	<circle cx="569.705" cy="268.994" r="4" fill="#0" id="circle174"/>
	<circle cx="569.705" cy="408.404" r="4" fill="#0" id="circle175"/>
	<circle cx="581.226" cy="268.994" r="4" fill="#0" id="circle176"/>
	<circle cx="581.226" cy="408.404" r="4" fill="#0" id="circle177"/>
	<circle cx="592.748" cy="268.994" r="4" fill="#0" id="circle178"/>
	<circle cx="592.748" cy="408.404" r="4" fill="#0" id="circle179"/>
	<circle cx="604.269" cy="268.994" r="4" fill="#0" id="circle180"/>
	<circle cx="604.269" cy="408.404" r="4" fill="#0" id="circle181"/>
	<circle cx="615.791" cy="268.994" r="4" fill="#0" id="circle182"/>
	<circle cx="615.791" cy="408.404" r="4" fill="#0" id="circle183"/>
	<circle cx="627.312" cy="268.994" r="4" fill="#0" id="circle184"/>
	<circle cx="627.312" cy="408.404" r="4" fill="#0" id="circle185"/>
	<circle cx="638.834" cy="268.994" r="4" fill="#0" id="circle186"/>
	<circle cx="638.834" cy="408.404" r="4" fill="#0" id="circle187"/>
	<circle cx="650.355" cy="268.994" r="4" fill="#0" id="circle188"/>
	<circle cx="650.355" cy="408.404" r="4" fill="#0" id="circle189"/>
	<circle cx="661.877" cy="268.994" r="4" fill="#0" id="circle190"/>
	<circle cx="661.877" cy="408.404" r="4" fill="#0" id="circle191"/>
	<circle cx="673.398" cy="268.994" r="4" fill="#0" id="circle192"/>
	<circle cx="673.398" cy="408.404" r="4" fill="#0" id="circle193"/>
	<circle cx="684.92" cy="268.994" r="4" fill="#0" id="circle194"/>
	<circle cx="684.92" cy="408.404" r="4" fill="#0" id="circle195"/>
	<circle cx="696.441" cy="268.994" r="4" fill="#0" id="circle196"/>
	<circle cx="696.441" cy="408.404" r="4" fill="#0" id="circle197"/>
	<circle cx="707.963" cy="268.994" r="4" fill="#0" id="circle198"/>
	<circle cx="707.963" cy="408.404" r="4" fill="#0" id="circle199"/>
	<circle cx="719.484" cy="268.994" r="4" fill="#0" id="circle200"/>
	<circle cx="719.484" cy="408.404" r="4" fill="#0" id="circle201"/>
	<circle cx="731.006" cy="268.994" r="4" fill="#0" id="circle202"/>
	<circle cx="731.006" cy="408.404" r="4" fill="#0" id="circle203"/>
	<circle cx="742.527" cy="268.994" r="4" fill="#0" id="circle204"/>
	<circle cx="742.527" cy="408.404" r="4" fill="#0" id="circle205"/>
	<circle cx="754.049" cy="268.994" r="4" fill="#0" id="circle206"/>
	<circle cx="754.049" cy="408.404" r="4" fill="#0" id="circle207"/>
	<circle cx="765.57" cy="268.994" r="4" fill="#0" id="circle208"/>
	<circle cx="765.57" cy="408.404" r="4" fill="#0" id="circle209"/>
	<circle cx="777.092" cy="268.994" r="4" fill="#0" id="circle210"/>
	<circle cx="777.092" cy="408.404" r="4" fill="#0" id="circle211"/>
	<circle cx="788.613" cy="268.994" r="4" fill="#0" id="circle212"/>
	<circle cx="788.613" cy="408.404" r="4" fill="#0" id="circle213"/>
	<circle cx="800.135" cy="268.994" r="4" fill="#0" id="circle214"/>
	<circle cx="800.135" cy="408.404" r="4" fill="#0" id="circle215"/>
	<circle cx="811.656" cy="268.994" r="4" fill="#0" id="circle216"/>
	<circle cx="811.656" cy="408.404" r="4" fill="#0" id="circle217"/>
	<circle cx="823.178" cy="268.994" r="4" fill="#0" id="circle218"/>
	<circle cx="823.178" cy="408.404" r="4" fill="#0" id="circle219"/>
	<circle cx="834.699" cy="268.994" r="4" fill="#0" id="circle220"/>
	<circle cx="834.699" cy="408.404" r="4" fill="#0" id="circle221"/>
	<circle cx="846.221" cy="268.994" r="4" fill="#0" id="circle222"/>
	<circle cx="846.221" cy="408.404" r="4" fill="#0" id="circle223"/>
	<circle cx="857.742" cy="268.994" r="4" fill="#0" id="circle224"/>
	<circle cx="857.742" cy="408.404" r="4" fill="#0" id="circle225"/>
	<circle cx="869.264" cy="268.994" r="4" fill="#0" id="circle226"/>
	<circle cx="869.264" cy="408.404" r="4" fill="#0" id="circle227"/>
	<circle cx="880.785" cy="268.994" r="4" fill="#0" id="circle228"/>
	<circle cx="880.785" cy="408.404" r="4" fill="#0" id="circle229"/>
	<circle cx="892.307" cy="268.994" r="4" fill="#0" id="circle230"/>
	<circle cx="892.307" cy="408.404" r="4" fill="#0" id="circle231"/>
	<circle cx="903.828" cy="268.994" r="4" fill="#0" id="circle232"/>
	<circle cx="903.828" cy="408.404" r="4" fill="#0" id="circle233"/>
	<circle cx="915.35" cy="268.994" r="4" fill="#0" id="circle234"/>
	<circle cx="915.35" cy="408.404" r="4" fill="#0" id="circle235"/>
	<circle cx="926.871" cy="268.994" r="4" fill="#0" id="circle236"/>
	<circle cx="926.871" cy="408.404" r="4" fill="#0" id="circle237"/>
	<circle cx="938.393" cy="268.994" r="4" fill="#0" id="circle238"/>
	<circle cx="938.393" cy="408.404" r="4" fill="#0" id="circle239"/>
	<circle cx="949.914" cy="268.994" r="4" fill="#0" id="circle240"/>
	<circle cx="949.914" cy="408.404" r="4" fill="#0" id="circle241"/>
	<circle cx="961.436" cy="268.994" r="4" fill="#0" id="circle242"/>
	<circle cx="961.436" cy="408.404" r="4" fill="#0" id="circle243"/>
	<circle cx="972.957" cy="268.994" r="4" fill="#0" id="circle244"/>
	<circle cx="972.957" cy="408.404" r="4" fill="#0" id="circle245"/>
	<circle cx="984.479" cy="268.994" r="4" fill="#0" id="circle246"/>
	<circle cx="984.479" cy="408.404" r="4" fill="#0" id="circle247"/>
	<circle cx="996" cy="272.451" r="4" fill="#0" id="circle248"/>
	<circle cx="996" cy="283.972" r="4" fill="#0" id="circle249"/>
	<circle cx="996" cy="295.494" r="4" fill="#0" id="circle250"/>
	<circle cx="996" cy="307.015" r="4" fill="#0" id="circle251"/>
	<circle cx="996" cy="318.537" r="4" fill="#0" id="circle252"/>
	<circle cx="996" cy="330.058" r="4" fill="#0" id="circle253"/>
	<circle cx="996" cy="341.58" r="4" fill="#0" id="circle254"/>
	<circle cx="996" cy="353.101" r="4" fill="#0" id="circle255"/>
	<circle cx="996" cy="364.623" r="4" fill="#0" id="circle256"/>
	<circle cx="996" cy="376.144" r="4" fill="#0" id="circle257"/>
	<circle cx="996" cy="387.666" r="4" fill="#0" id="circle258"/>
	<circle cx="996" cy="399.187" r="4" fill="#0" id="circle259"/>
	</g>
</svg>