<?xml version="1.0" encoding="UTF-8" standalone="no"?>
<!-- Created with CurveBenchmark -->
<svg
	xmlns:dc="http://purl.org/dc/elements/1.1/"
	xmlns:cc="http://creativecommons.org/ns#"
	xmlns:rdf="http://www.w3.org/1999/02/22-rdf-syntax-ns#"
	xmlns:svg="http://www.w3.org/2000/svg"
	xmlns="http://www.w3.org/2000/svg"
	xmlns:sodipodi="http://sodipodi.sourceforge.net/DTD/sodipodi-0.dtd"
	xmlns:inkscape="http://www.inkscape.org/namespaces/inkscape"
	width="1000"
	height="1000"
	id="svg2"
	version="1.1"
	sodipodi:docname="manifold/crawl-sink055.png.txt">
<defs
	id="defs4" />
<metadata
	id="metadata7">
	<rdf:RDF>
		<cc:Work
			rdf:about="">
			<dc:format>image/svg+xml</dc:format>
			<dc:type
				rdf:resource="http://purl.org/dc/dcmitype/StillImage" />
			<dc:title></dc:title>
		</cc:Work>
	</rdf:RDF>
</metadata>
<g
	inkscape:label="Layer 1"
	inkscape:groupmode="layer"
	id="layer1">
	<path style="fill:none;stroke:red;stroke-width:1px;stroke-linecap:butt;stroke-linejoin:miter;stroke-opacity:1" d="M 13.7255,213.098 13.7255,164.471 z" id="boundary" inkscape:connector-curvature="0" />
	<path style="fill:none;stroke:red;stroke-width:1px;stroke-linecap:butt;stroke-linejoin:miter;stroke-opacity:1" d="M 13.7255,164.471 62.3529,164.471 z" id="boundary" inkscape:connector-curvature="0" />
	<path style="fill:none;stroke:red;stroke-width:1px;stroke-linecap:butt;stroke-linejoin:miter;stroke-opacity:1" d="M 62.3529,164.471 110.98,164.471 z" id="boundary" inkscape:connector-curvature="0" />
	<path style="fill:none;stroke:red;stroke-width:1px;stroke-linecap:butt;stroke-linejoin:miter;stroke-opacity:1" d="M 110.98,164.471 159.608,164.471 z" id="boundary" inkscape:connector-curvature="0" />
	<path style="fill:none;stroke:red;stroke-width:1px;stroke-linecap:butt;stroke-linejoin:miter;stroke-opacity:1" d="M 159.608,164.471 198.51,125.569 z" id="boundary" inkscape:connector-curvature="0" />
	<path style="fill:none;stroke:red;stroke-width:1px;stroke-linecap:butt;stroke-linejoin:miter;stroke-opacity:1" d="M 198.51,125.569 198.51,76.9412 z" id="boundary" inkscape:connector-curvature="0" />
	<path style="fill:none;stroke:red;stroke-width:1px;stroke-linecap:butt;stroke-linejoin:miter;stroke-opacity:1" d="M 198.51,76.9412 222.824,33.1765 z" id="boundary" inkscape:connector-curvature="0" />
	<path style="fill:none;stroke:red;stroke-width:1px;stroke-linecap:butt;stroke-linejoin:miter;stroke-opacity:1" d="M 222.824,33.1765 261.725,4 z" id="boundary" inkscape:connector-curvature="0" />
	<path style="fill:none;stroke:red;stroke-width:1px;stroke-linecap:butt;stroke-linejoin:miter;stroke-opacity:1" d="M 261.725,4 300.627,33.1765 z" id="boundary" inkscape:connector-curvature="0" />
	<path style="fill:none;stroke:red;stroke-width:1px;stroke-linecap:butt;stroke-linejoin:miter;stroke-opacity:1" d="M 300.627,33.1765 339.529,62.3529 z" id="boundary" inkscape:connector-curvature="0" />
	<path style="fill:none;stroke:red;stroke-width:1px;stroke-linecap:butt;stroke-linejoin:miter;stroke-opacity:1" d="M 13.7255,213.098 4,290.902 z" id="boundary" inkscape:connector-curvature="0" />
	<path style="fill:none;stroke:red;stroke-width:1px;stroke-linecap:butt;stroke-linejoin:miter;stroke-opacity:1" d="M 4,290.902 47.7647,315.216 z" id="boundary" inkscape:connector-curvature="0" />
	<path style="fill:none;stroke:red;stroke-width:1px;stroke-linecap:butt;stroke-linejoin:miter;stroke-opacity:1" d="M 47.7647,315.216 96.3922,315.216 z" id="boundary" inkscape:connector-curvature="0" />
	<path style="fill:none;stroke:red;stroke-width:1px;stroke-linecap:butt;stroke-linejoin:miter;stroke-opacity:1" d="M 96.3922,315.216 145.02,315.216 z" id="boundary" inkscape:connector-curvature="0" />
	<path style="fill:none;stroke:red;stroke-width:1px;stroke-linecap:butt;stroke-linejoin:miter;stroke-opacity:1" d="M 145.02,315.216 193.647,315.216 z" id="boundary" inkscape:connector-curvature="0" />
	<path style="fill:none;stroke:red;stroke-width:1px;stroke-linecap:butt;stroke-linejoin:miter;stroke-opacity:1" d="M 193.647,315.216 208.235,363.843 z" id="boundary" inkscape:connector-curvature="0" />
	<path style="fill:none;stroke:red;stroke-width:1px;stroke-linecap:butt;stroke-linejoin:miter;stroke-opacity:1" d="M 208.235,363.843 232.549,407.608 z" id="boundary" inkscape:connector-curvature="0" />
	<path style="fill:none;stroke:red;stroke-width:1px;stroke-linecap:butt;stroke-linejoin:miter;stroke-opacity:1" d="M 232.549,407.608 271.451,436.784 z" id="boundary" inkscape:connector-curvature="0" />
	<path style="fill:none;stroke:red;stroke-width:1px;stroke-linecap:butt;stroke-linejoin:miter;stroke-opacity:1" d="M 271.451,436.784 320.078,451.373 z" id="boundary" inkscape:connector-curvature="0" />
	<path style="fill:none;stroke:red;stroke-width:1px;stroke-linecap:butt;stroke-linejoin:miter;stroke-opacity:1" d="M 320.078,451.373 368.706,461.098 z" id="boundary" inkscape:connector-curvature="0" />
	<path style="fill:none;stroke:red;stroke-width:1px;stroke-linecap:butt;stroke-linejoin:miter;stroke-opacity:1" d="M 368.706,461.098 373.569,509.725 z" id="boundary" inkscape:connector-curvature="0" />
	<path style="fill:none;stroke:red;stroke-width:1px;stroke-linecap:butt;stroke-linejoin:miter;stroke-opacity:1" d="M 373.569,509.725 373.569,558.353 z" id="boundary" inkscape:connector-curvature="0" />
	<path style="fill:none;stroke:red;stroke-width:1px;stroke-linecap:butt;stroke-linejoin:miter;stroke-opacity:1" d="M 373.569,558.353 373.569,606.98 z" id="boundary" inkscape:connector-curvature="0" />
	<path style="fill:none;stroke:red;stroke-width:1px;stroke-linecap:butt;stroke-linejoin:miter;stroke-opacity:1" d="M 373.569,606.98 373.569,655.608 z" id="boundary" inkscape:connector-curvature="0" />
	<path style="fill:none;stroke:red;stroke-width:1px;stroke-linecap:butt;stroke-linejoin:miter;stroke-opacity:1" d="M 373.569,655.608 373.569,704.235 z" id="boundary" inkscape:connector-curvature="0" />
	<path style="fill:none;stroke:red;stroke-width:1px;stroke-linecap:butt;stroke-linejoin:miter;stroke-opacity:1" d="M 373.569,704.235 373.569,752.863 z" id="boundary" inkscape:connector-curvature="0" />
	<path style="fill:none;stroke:red;stroke-width:1px;stroke-linecap:butt;stroke-linejoin:miter;stroke-opacity:1" d="M 373.569,752.863 363.843,825.804 z" id="boundary" inkscape:connector-curvature="0" />
	<path style="fill:none;stroke:red;stroke-width:1px;stroke-linecap:butt;stroke-linejoin:miter;stroke-opacity:1" d="M 363.843,825.804 344.392,903.608 z" id="boundary" inkscape:connector-curvature="0" />
	<path style="fill:none;stroke:red;stroke-width:1px;stroke-linecap:butt;stroke-linejoin:miter;stroke-opacity:1" d="M 344.392,903.608 315.216,952.235 z" id="boundary" inkscape:connector-curvature="0" />
	<path style="fill:none;stroke:red;stroke-width:1px;stroke-linecap:butt;stroke-linejoin:miter;stroke-opacity:1" d="M 315.216,952.235 339.529,996 z" id="boundary" inkscape:connector-curvature="0" />
	<path style="fill:none;stroke:red;stroke-width:1px;stroke-linecap:butt;stroke-linejoin:miter;stroke-opacity:1" d="M 339.529,996 388.157,996 z" id="boundary" inkscape:connector-curvature="0" />
	<path style="fill:none;stroke:red;stroke-width:1px;stroke-linecap:butt;stroke-linejoin:miter;stroke-opacity:1" d="M 388.157,996 436.784,996 z" id="boundary" inkscape:connector-curvature="0" />
	<path style="fill:none;stroke:red;stroke-width:1px;stroke-linecap:butt;stroke-linejoin:miter;stroke-opacity:1" d="M 436.784,996 485.412,996 z" id="boundary" inkscape:connector-curvature="0" />
	<path style="fill:none;stroke:red;stroke-width:1px;stroke-linecap:butt;stroke-linejoin:miter;stroke-opacity:1" d="M 485.412,996 534.039,996 z" id="boundary" inkscape:connector-curvature="0" />
	<path style="fill:none;stroke:red;stroke-width:1px;stroke-linecap:butt;stroke-linejoin:miter;stroke-opacity:1" d="M 534.039,996 582.667,996 z" id="boundary" inkscape:connector-curvature="0" />
	<path style="fill:none;stroke:red;stroke-width:1px;stroke-linecap:butt;stroke-linejoin:miter;stroke-opacity:1" d="M 582.667,996 582.667,937.647 z" id="boundary" inkscape:connector-curvature="0" />
	<path style="fill:none;stroke:red;stroke-width:1px;stroke-linecap:butt;stroke-linejoin:miter;stroke-opacity:1" d="M 582.667,937.647 558.353,893.882 z" id="boundary" inkscape:connector-curvature="0" />
	<path style="fill:none;stroke:red;stroke-width:1px;stroke-linecap:butt;stroke-linejoin:miter;stroke-opacity:1" d="M 558.353,893.882 543.765,845.255 z" id="boundary" inkscape:connector-curvature="0" />
	<path style="fill:none;stroke:red;stroke-width:1px;stroke-linecap:butt;stroke-linejoin:miter;stroke-opacity:1" d="M 543.765,845.255 543.765,796.627 z" id="boundary" inkscape:connector-curvature="0" />
	<path style="fill:none;stroke:red;stroke-width:1px;stroke-linecap:butt;stroke-linejoin:miter;stroke-opacity:1" d="M 543.765,796.627 543.765,748 z" id="boundary" inkscape:connector-curvature="0" />
	<path style="fill:none;stroke:red;stroke-width:1px;stroke-linecap:butt;stroke-linejoin:miter;stroke-opacity:1" d="M 543.765,748 543.765,699.373 z" id="boundary" inkscape:connector-curvature="0" />
	<path style="fill:none;stroke:red;stroke-width:1px;stroke-linecap:butt;stroke-linejoin:miter;stroke-opacity:1" d="M 543.765,699.373 543.765,650.745 z" id="boundary" inkscape:connector-curvature="0" />
	<path style="fill:none;stroke:red;stroke-width:1px;stroke-linecap:butt;stroke-linejoin:miter;stroke-opacity:1" d="M 543.765,650.745 543.765,602.118 z" id="boundary" inkscape:connector-curvature="0" />
	<path style="fill:none;stroke:red;stroke-width:1px;stroke-linecap:butt;stroke-linejoin:miter;stroke-opacity:1" d="M 543.765,602.118 543.765,553.49 z" id="boundary" inkscape:connector-curvature="0" />
	<path style="fill:none;stroke:red;stroke-width:1px;stroke-linecap:butt;stroke-linejoin:miter;stroke-opacity:1" d="M 543.765,553.49 543.765,504.863 z" id="boundary" inkscape:connector-curvature="0" />
	<path style="fill:none;stroke:red;stroke-width:1px;stroke-linecap:butt;stroke-linejoin:miter;stroke-opacity:1" d="M 543.765,504.863 543.765,456.235 z" id="boundary" inkscape:connector-curvature="0" />
	<path style="fill:none;stroke:red;stroke-width:1px;stroke-linecap:butt;stroke-linejoin:miter;stroke-opacity:1" d="M 543.765,456.235 543.765,407.608 z" id="boundary" inkscape:connector-curvature="0" />
	<path style="fill:none;stroke:red;stroke-width:1px;stroke-linecap:butt;stroke-linejoin:miter;stroke-opacity:1" d="M 543.765,407.608 572.941,358.98 z" id="boundary" inkscape:connector-curvature="0" />
	<path style="fill:none;stroke:red;stroke-width:1px;stroke-linecap:butt;stroke-linejoin:miter;stroke-opacity:1" d="M 572.941,358.98 597.255,315.216 z" id="boundary" inkscape:connector-curvature="0" />
	<path style="fill:none;stroke:red;stroke-width:1px;stroke-linecap:butt;stroke-linejoin:miter;stroke-opacity:1" d="M 597.255,315.216 645.882,315.216 z" id="boundary" inkscape:connector-curvature="0" />
	<path style="fill:none;stroke:red;stroke-width:1px;stroke-linecap:butt;stroke-linejoin:miter;stroke-opacity:1" d="M 645.882,315.216 694.51,315.216 z" id="boundary" inkscape:connector-curvature="0" />
	<path style="fill:none;stroke:red;stroke-width:1px;stroke-linecap:butt;stroke-linejoin:miter;stroke-opacity:1" d="M 694.51,315.216 743.137,315.216 z" id="boundary" inkscape:connector-curvature="0" />
	<path style="fill:none;stroke:red;stroke-width:1px;stroke-linecap:butt;stroke-linejoin:miter;stroke-opacity:1" d="M 743.137,315.216 718.824,261.725 z" id="boundary" inkscape:connector-curvature="0" />
	<path style="fill:none;stroke:red;stroke-width:1px;stroke-linecap:butt;stroke-linejoin:miter;stroke-opacity:1" d="M 718.824,261.725 670.196,261.725 z" id="boundary" inkscape:connector-curvature="0" />
	<path style="fill:none;stroke:red;stroke-width:1px;stroke-linecap:butt;stroke-linejoin:miter;stroke-opacity:1" d="M 670.196,261.725 621.569,261.725 z" id="boundary" inkscape:connector-curvature="0" />
	<path style="fill:none;stroke:red;stroke-width:1px;stroke-linecap:butt;stroke-linejoin:miter;stroke-opacity:1" d="M 621.569,261.725 572.941,261.725 z" id="boundary" inkscape:connector-curvature="0" />
	<path style="fill:none;stroke:red;stroke-width:1px;stroke-linecap:butt;stroke-linejoin:miter;stroke-opacity:1" d="M 572.941,261.725 524.314,256.863 z" id="boundary" inkscape:connector-curvature="0" />
	<path style="fill:none;stroke:red;stroke-width:1px;stroke-linecap:butt;stroke-linejoin:miter;stroke-opacity:1" d="M 524.314,256.863 500,213.098 z" id="boundary" inkscape:connector-curvature="0" />
	<path style="fill:none;stroke:red;stroke-width:1px;stroke-linecap:butt;stroke-linejoin:miter;stroke-opacity:1" d="M 500,213.098 480.549,164.471 z" id="boundary" inkscape:connector-curvature="0" />
	<path style="fill:none;stroke:red;stroke-width:1px;stroke-linecap:butt;stroke-linejoin:miter;stroke-opacity:1" d="M 480.549,164.471 431.922,164.471 z" id="boundary" inkscape:connector-curvature="0" />
	<path style="fill:none;stroke:red;stroke-width:1px;stroke-linecap:butt;stroke-linejoin:miter;stroke-opacity:1" d="M 431.922,164.471 383.294,164.471 z" id="boundary" inkscape:connector-curvature="0" />
	<path style="fill:none;stroke:red;stroke-width:1px;stroke-linecap:butt;stroke-linejoin:miter;stroke-opacity:1" d="M 383.294,164.471 334.667,164.471 z" id="boundary" inkscape:connector-curvature="0" />
	<path style="fill:none;stroke:red;stroke-width:1px;stroke-linecap:butt;stroke-linejoin:miter;stroke-opacity:1" d="M 334.667,164.471 339.529,62.3529 z" id="boundary" inkscape:connector-curvature="0" />
	<path style="fill:none;stroke:red;stroke-width:1px;stroke-linecap:butt;stroke-linejoin:miter;stroke-opacity:1" d="M 286.039,164.471 237.412,159.608 z" id="boundary" inkscape:connector-curvature="0" />
	<circle cx="4" cy="290.902" r="4" fill="#0" id="circle0"/>
	<circle cx="13.7255" cy="164.471" r="4" fill="#0" id="circle1"/>
	<circle cx="13.7255" cy="213.098" r="4" fill="#0" id="circle2"/>
	<circle cx="47.7647" cy="315.216" r="4" fill="#0" id="circle3"/>
	<circle cx="62.3529" cy="164.471" r="4" fill="#0" id="circle4"/>
	<circle cx="96.3922" cy="315.216" r="4" fill="#0" id="circle5"/>
	<circle cx="110.98" cy="164.471" r="4" fill="#0" id="circle6"/>
	<circle cx="145.02" cy="315.216" r="4" fill="#0" id="circle7"/>
	<circle cx="159.608" cy="164.471" r="4" fill="#0" id="circle8"/>
	<circle cx="193.647" cy="315.216" r="4" fill="#0" id="circle9"/>
	<circle cx="198.51" cy="76.9412" r="4" fill="#0" id="circle10"/>
	<circle cx="198.51" cy="125.569" r="4" fill="#0" id="circle11"/>
	<circle cx="208.235" cy="363.843" r="4" fill="#0" id="circle12"/>
	<circle cx="222.824" cy="33.1765" r="4" fill="#0" id="circle13"/>
	<circle cx="232.549" cy="407.608" r="4" fill="#0" id="circle14"/>
	<circle cx="237.412" cy="159.608" r="4" fill="#0" id="circle15"/>
	<circle cx="261.725" cy="4" r="4" fill="#0" id="circle16"/>
	<circle cx="271.451" cy="436.784" r="4" fill="#0" id="circle17"/>
	<circle cx="286.039" cy="164.471" r="4" fill="#0" id="circle18"/>
	<circle cx="300.627" cy="33.1765" r="4" fill="#0" id="circle19"/>
	<circle cx="315.216" cy="952.235" r="4" fill="#0" id="circle20"/>
	<circle cx="320.078" cy="451.373" r="4" fill="#0" id="circle21"/>
	<circle cx="334.667" cy="164.471" r="4" fill="#0" id="circle22"/>
	<circle cx="339.529" cy="62.3529" r="4" fill="#0" id="circle23"/>
	<circle cx="339.529" cy="996" r="4" fill="#0" id="circle24"/>
	<circle cx="344.392" cy="903.608" r="4" fill="#0" id="circle25"/>
	<circle cx="363.843" cy="825.804" r="4" fill="#0" id="circle26"/>
	<circle cx="368.706" cy="461.098" r="4" fill="#0" id="circle27"/>
	<circle cx="373.569" cy="509.725" r="4" fill="#0" id="circle28"/>
	<circle cx="373.569" cy="558.353" r="4" fill="#0" id="circle29"/>
	<circle cx="373.569" cy="606.98" r="4" fill="#0" id="circle30"/>
	<circle cx="373.569" cy="655.608" r="4" fill="#0" id="circle31"/>
	<circle cx="373.569" cy="704.235" r="4" fill="#0" id="circle32"/>
	<circle cx="373.569" cy="752.863" r="4" fill="#0" id="circle33"/>
	<circle cx="383.294" cy="164.471" r="4" fill="#0" id="circle34"/>
	<circle cx="388.157" cy="996" r="4" fill="#0" id="circle35"/>
	<circle cx="431.922" cy="164.471" r="4" fill="#0" id="circle36"/>
	<circle cx="436.784" cy="996" r="4" fill="#0" id="circle37"/>
	<circle cx="480.549" cy="164.471" r="4" fill="#0" id="circle38"/>
	<circle cx="485.412" cy="996" r="4" fill="#0" id="circle39"/>
	<circle cx="500" cy="213.098" r="4" fill="#0" id="circle40"/>
	<circle cx="524.314" cy="256.863" r="4" fill="#0" id="circle41"/>
	<circle cx="534.039" cy="996" r="4" fill="#0" id="circle42"/>
	<circle cx="543.765" cy="407.608" r="4" fill="#0" id="circle43"/>
	<circle cx="543.765" cy="456.235" r="4" fill="#0" id="circle44"/>
	<circle cx="543.765" cy="504.863" r="4" fill="#0" id="circle45"/>
	<circle cx="543.765" cy="553.49" r="4" fill="#0" id="circle46"/>
	<circle cx="543.765" cy="602.118" r="4" fill="#0" id="circle47"/>
	<circle cx="543.765" cy="650.745" r="4" fill="#0" id="circle48"/>
	<circle cx="543.765" cy="699.373" r="4" fill="#0" id="circle49"/>
	<circle cx="543.765" cy="748" r="4" fill="#0" id="circle50"/>
	<circle cx="543.765" cy="796.627" r="4" fill="#0" id="circle51"/>
	<circle cx="543.765" cy="845.255" r="4" fill="#0" id="circle52"/>
	<circle cx="558.353" cy="893.882" r="4" fill="#0" id="circle53"/>
	<circle cx="572.941" cy="261.725" r="4" fill="#0" id="circle54"/>
	<circle cx="572.941" cy="358.98" r="4" fill="#0" id="circle55"/>
	<circle cx="582.667" cy="937.647" r="4" fill="#0" id="circle56"/>
	<circle cx="582.667" cy="996" r="4" fill="#0" id="circle57"/>
	<circle cx="597.255" cy="315.216" r="4" fill="#0" id="circle58"/>
	<circle cx="621.569" cy="261.725" r="4" fill="#0" id="circle59"/>
	<circle cx="645.882" cy="315.216" r="4" fill="#0" id="circle60"/>
	<circle cx="670.196" cy="261.725" r="4" fill="#0" id="circle61"/>
	<circle cx="694.51" cy="315.216" r="4" fill="#0" id="circle62"/>
	<circle cx="718.824" cy="261.725" r="4" fill="#0" id="circle63"/>
	<circle cx="743.137" cy="315.216" r="4" fill="#0" id="circle64"/>
	</g>
</svg>