<?xml version="1.0" encoding="UTF-8" standalone="no"?>
<!-- Created with CurveBenchmark -->
<svg
	xmlns:dc="http://purl.org/dc/elements/1.1/"
	xmlns:cc="http://creativecommons.org/ns#"
	xmlns:rdf="http://www.w3.org/1999/02/22-rdf-syntax-ns#"
	xmlns:svg="http://www.w3.org/2000/svg"
	xmlns="http://www.w3.org/2000/svg"
	xmlns:sodipodi="http://sodipodi.sourceforge.net/DTD/sodipodi-0.dtd"
	xmlns:inkscape="http://www.inkscape.org/namespaces/inkscape"
	width="1000"
	height="1000"
	id="svg2"
	version="1.1"
	sodipodi:docname="manifold/crawl-Bone17.png.txt">
<defs
	id="defs4" />
<metadata
	id="metadata7">
	<rdf:RDF>
		<cc:Work
			rdf:about="">
			<dc:format>image/svg+xml</dc:format>
			<dc:type
				rdf:resource="http://purl.org/dc/dcmitype/StillImage" />
			<dc:title></dc:title>
		</cc:Work>
	</rdf:RDF>
</metadata>
<g
	inkscape:label="Layer 1"
	inkscape:groupmode="layer"
	id="layer1">
	<path style="fill:none;stroke:red;stroke-width:1px;stroke-linecap:butt;stroke-linejoin:miter;stroke-opacity:1" d="M 4,817.338 4,834.353 z" id="boundary" inkscape:connector-curvature="0" />
	<path style="fill:none;stroke:red;stroke-width:1px;stroke-linecap:butt;stroke-linejoin:miter;stroke-opacity:1" d="M 4,834.353 12.5077,849.667 z" id="boundary" inkscape:connector-curvature="0" />
	<path style="fill:none;stroke:red;stroke-width:1px;stroke-linecap:butt;stroke-linejoin:miter;stroke-opacity:1" d="M 12.5077,849.667 12.5077,866.683 z" id="boundary" inkscape:connector-curvature="0" />
	<path style="fill:none;stroke:red;stroke-width:1px;stroke-linecap:butt;stroke-linejoin:miter;stroke-opacity:1" d="M 12.5077,866.683 21.0154,881.997 z" id="boundary" inkscape:connector-curvature="0" />
	<path style="fill:none;stroke:red;stroke-width:1px;stroke-linecap:butt;stroke-linejoin:miter;stroke-opacity:1" d="M 21.0154,881.997 36.3293,890.504 z" id="boundary" inkscape:connector-curvature="0" />
	<path style="fill:none;stroke:red;stroke-width:1px;stroke-linecap:butt;stroke-linejoin:miter;stroke-opacity:1" d="M 36.3293,890.504 51.6432,899.012 z" id="boundary" inkscape:connector-curvature="0" />
	<path style="fill:none;stroke:red;stroke-width:1px;stroke-linecap:butt;stroke-linejoin:miter;stroke-opacity:1" d="M 51.6432,899.012 68.6587,899.012 z" id="boundary" inkscape:connector-curvature="0" />
	<path style="fill:none;stroke:red;stroke-width:1px;stroke-linecap:butt;stroke-linejoin:miter;stroke-opacity:1" d="M 68.6587,899.012 85.6741,899.012 z" id="boundary" inkscape:connector-curvature="0" />
	<path style="fill:none;stroke:red;stroke-width:1px;stroke-linecap:butt;stroke-linejoin:miter;stroke-opacity:1" d="M 85.6741,899.012 97.5849,912.624 z" id="boundary" inkscape:connector-curvature="0" />
	<path style="fill:none;stroke:red;stroke-width:1px;stroke-linecap:butt;stroke-linejoin:miter;stroke-opacity:1" d="M 4,817.338 12.5077,800.322 z" id="boundary" inkscape:connector-curvature="0" />
	<path style="fill:none;stroke:red;stroke-width:1px;stroke-linecap:butt;stroke-linejoin:miter;stroke-opacity:1" d="M 12.5077,800.322 26.1201,786.71 z" id="boundary" inkscape:connector-curvature="0" />
	<path style="fill:none;stroke:red;stroke-width:1px;stroke-linecap:butt;stroke-linejoin:miter;stroke-opacity:1" d="M 26.1201,786.71 39.7324,773.098 z" id="boundary" inkscape:connector-curvature="0" />
	<path style="fill:none;stroke:red;stroke-width:1px;stroke-linecap:butt;stroke-linejoin:miter;stroke-opacity:1" d="M 39.7324,773.098 53.3448,761.187 z" id="boundary" inkscape:connector-curvature="0" />
	<path style="fill:none;stroke:red;stroke-width:1px;stroke-linecap:butt;stroke-linejoin:miter;stroke-opacity:1" d="M 53.3448,761.187 68.6587,752.679 z" id="boundary" inkscape:connector-curvature="0" />
	<path style="fill:none;stroke:red;stroke-width:1px;stroke-linecap:butt;stroke-linejoin:miter;stroke-opacity:1" d="M 68.6587,752.679 83.9726,761.187 z" id="boundary" inkscape:connector-curvature="0" />
	<path style="fill:none;stroke:red;stroke-width:1px;stroke-linecap:butt;stroke-linejoin:miter;stroke-opacity:1" d="M 83.9726,761.187 99.2864,769.695 z" id="boundary" inkscape:connector-curvature="0" />
	<path style="fill:none;stroke:red;stroke-width:1px;stroke-linecap:butt;stroke-linejoin:miter;stroke-opacity:1" d="M 99.2864,769.695 116.302,769.695 z" id="boundary" inkscape:connector-curvature="0" />
	<path style="fill:none;stroke:red;stroke-width:1px;stroke-linecap:butt;stroke-linejoin:miter;stroke-opacity:1" d="M 116.302,769.695 131.616,778.202 z" id="boundary" inkscape:connector-curvature="0" />
	<path style="fill:none;stroke:red;stroke-width:1px;stroke-linecap:butt;stroke-linejoin:miter;stroke-opacity:1" d="M 131.616,778.202 145.228,788.412 z" id="boundary" inkscape:connector-curvature="0" />
	<path style="fill:none;stroke:red;stroke-width:1px;stroke-linecap:butt;stroke-linejoin:miter;stroke-opacity:1" d="M 145.228,788.412 162.244,786.71 z" id="boundary" inkscape:connector-curvature="0" />
	<path style="fill:none;stroke:red;stroke-width:1px;stroke-linecap:butt;stroke-linejoin:miter;stroke-opacity:1" d="M 162.244,786.71 179.259,778.202 z" id="boundary" inkscape:connector-curvature="0" />
	<path style="fill:none;stroke:red;stroke-width:1px;stroke-linecap:butt;stroke-linejoin:miter;stroke-opacity:1" d="M 179.259,778.202 196.274,769.695 z" id="boundary" inkscape:connector-curvature="0" />
	<path style="fill:none;stroke:red;stroke-width:1px;stroke-linecap:butt;stroke-linejoin:miter;stroke-opacity:1" d="M 196.274,769.695 209.887,756.082 z" id="boundary" inkscape:connector-curvature="0" />
	<path style="fill:none;stroke:red;stroke-width:1px;stroke-linecap:butt;stroke-linejoin:miter;stroke-opacity:1" d="M 209.887,756.082 226.902,747.575 z" id="boundary" inkscape:connector-curvature="0" />
	<path style="fill:none;stroke:red;stroke-width:1px;stroke-linecap:butt;stroke-linejoin:miter;stroke-opacity:1" d="M 226.902,747.575 243.918,744.172 z" id="boundary" inkscape:connector-curvature="0" />
	<path style="fill:none;stroke:red;stroke-width:1px;stroke-linecap:butt;stroke-linejoin:miter;stroke-opacity:1" d="M 243.918,744.172 259.232,732.261 z" id="boundary" inkscape:connector-curvature="0" />
	<path style="fill:none;stroke:red;stroke-width:1px;stroke-linecap:butt;stroke-linejoin:miter;stroke-opacity:1" d="M 259.232,732.261 272.844,718.648 z" id="boundary" inkscape:connector-curvature="0" />
	<path style="fill:none;stroke:red;stroke-width:1px;stroke-linecap:butt;stroke-linejoin:miter;stroke-opacity:1" d="M 272.844,718.648 289.859,710.141 z" id="boundary" inkscape:connector-curvature="0" />
	<path style="fill:none;stroke:red;stroke-width:1px;stroke-linecap:butt;stroke-linejoin:miter;stroke-opacity:1" d="M 289.859,710.141 305.173,701.633 z" id="boundary" inkscape:connector-curvature="0" />
	<path style="fill:none;stroke:red;stroke-width:1px;stroke-linecap:butt;stroke-linejoin:miter;stroke-opacity:1" d="M 305.173,701.633 318.786,689.722 z" id="boundary" inkscape:connector-curvature="0" />
	<path style="fill:none;stroke:red;stroke-width:1px;stroke-linecap:butt;stroke-linejoin:miter;stroke-opacity:1" d="M 97.5849,912.624 89.0772,936.446 z" id="boundary" inkscape:connector-curvature="0" />
	<path style="fill:none;stroke:red;stroke-width:1px;stroke-linecap:butt;stroke-linejoin:miter;stroke-opacity:1" d="M 89.0772,936.446 80.5695,961.969 z" id="boundary" inkscape:connector-curvature="0" />
	<path style="fill:none;stroke:red;stroke-width:1px;stroke-linecap:butt;stroke-linejoin:miter;stroke-opacity:1" d="M 80.5695,961.969 94.1818,973.88 z" id="boundary" inkscape:connector-curvature="0" />
	<path style="fill:none;stroke:red;stroke-width:1px;stroke-linecap:butt;stroke-linejoin:miter;stroke-opacity:1" d="M 94.1818,973.88 111.197,975.581 z" id="boundary" inkscape:connector-curvature="0" />
	<path style="fill:none;stroke:red;stroke-width:1px;stroke-linecap:butt;stroke-linejoin:miter;stroke-opacity:1" d="M 111.197,975.581 126.511,984.089 z" id="boundary" inkscape:connector-curvature="0" />
	<path style="fill:none;stroke:red;stroke-width:1px;stroke-linecap:butt;stroke-linejoin:miter;stroke-opacity:1" d="M 126.511,984.089 141.825,992.597 z" id="boundary" inkscape:connector-curvature="0" />
	<path style="fill:none;stroke:red;stroke-width:1px;stroke-linecap:butt;stroke-linejoin:miter;stroke-opacity:1" d="M 141.825,992.597 158.84,996 z" id="boundary" inkscape:connector-curvature="0" />
	<path style="fill:none;stroke:red;stroke-width:1px;stroke-linecap:butt;stroke-linejoin:miter;stroke-opacity:1" d="M 158.84,996 175.856,992.597 z" id="boundary" inkscape:connector-curvature="0" />
	<path style="fill:none;stroke:red;stroke-width:1px;stroke-linecap:butt;stroke-linejoin:miter;stroke-opacity:1" d="M 175.856,992.597 192.871,984.089 z" id="boundary" inkscape:connector-curvature="0" />
	<path style="fill:none;stroke:red;stroke-width:1px;stroke-linecap:butt;stroke-linejoin:miter;stroke-opacity:1" d="M 192.871,984.089 209.887,975.581 z" id="boundary" inkscape:connector-curvature="0" />
	<path style="fill:none;stroke:red;stroke-width:1px;stroke-linecap:butt;stroke-linejoin:miter;stroke-opacity:1" d="M 209.887,975.581 223.499,963.671 z" id="boundary" inkscape:connector-curvature="0" />
	<path style="fill:none;stroke:red;stroke-width:1px;stroke-linecap:butt;stroke-linejoin:miter;stroke-opacity:1" d="M 223.499,963.671 235.41,950.058 z" id="boundary" inkscape:connector-curvature="0" />
	<path style="fill:none;stroke:red;stroke-width:1px;stroke-linecap:butt;stroke-linejoin:miter;stroke-opacity:1" d="M 235.41,950.058 243.918,929.64 z" id="boundary" inkscape:connector-curvature="0" />
	<path style="fill:none;stroke:red;stroke-width:1px;stroke-linecap:butt;stroke-linejoin:miter;stroke-opacity:1" d="M 243.918,929.64 243.918,912.624 z" id="boundary" inkscape:connector-curvature="0" />
	<path style="fill:none;stroke:red;stroke-width:1px;stroke-linecap:butt;stroke-linejoin:miter;stroke-opacity:1" d="M 243.918,912.624 235.41,897.31 z" id="boundary" inkscape:connector-curvature="0" />
	<path style="fill:none;stroke:red;stroke-width:1px;stroke-linecap:butt;stroke-linejoin:miter;stroke-opacity:1" d="M 235.41,897.31 235.41,880.295 z" id="boundary" inkscape:connector-curvature="0" />
	<path style="fill:none;stroke:red;stroke-width:1px;stroke-linecap:butt;stroke-linejoin:miter;stroke-opacity:1" d="M 235.41,880.295 235.41,863.28 z" id="boundary" inkscape:connector-curvature="0" />
	<path style="fill:none;stroke:red;stroke-width:1px;stroke-linecap:butt;stroke-linejoin:miter;stroke-opacity:1" d="M 235.41,863.28 226.902,847.966 z" id="boundary" inkscape:connector-curvature="0" />
	<path style="fill:none;stroke:red;stroke-width:1px;stroke-linecap:butt;stroke-linejoin:miter;stroke-opacity:1" d="M 226.902,847.966 226.902,830.95 z" id="boundary" inkscape:connector-curvature="0" />
	<path style="fill:none;stroke:red;stroke-width:1px;stroke-linecap:butt;stroke-linejoin:miter;stroke-opacity:1" d="M 226.902,830.95 240.515,819.039 z" id="boundary" inkscape:connector-curvature="0" />
	<path style="fill:none;stroke:red;stroke-width:1px;stroke-linecap:butt;stroke-linejoin:miter;stroke-opacity:1" d="M 240.515,819.039 257.53,810.532 z" id="boundary" inkscape:connector-curvature="0" />
	<path style="fill:none;stroke:red;stroke-width:1px;stroke-linecap:butt;stroke-linejoin:miter;stroke-opacity:1" d="M 257.53,810.532 269.441,796.919 z" id="boundary" inkscape:connector-curvature="0" />
	<path style="fill:none;stroke:red;stroke-width:1px;stroke-linecap:butt;stroke-linejoin:miter;stroke-opacity:1" d="M 269.441,796.919 286.456,788.412 z" id="boundary" inkscape:connector-curvature="0" />
	<path style="fill:none;stroke:red;stroke-width:1px;stroke-linecap:butt;stroke-linejoin:miter;stroke-opacity:1" d="M 286.456,788.412 303.472,779.904 z" id="boundary" inkscape:connector-curvature="0" />
	<path style="fill:none;stroke:red;stroke-width:1px;stroke-linecap:butt;stroke-linejoin:miter;stroke-opacity:1" d="M 303.472,779.904 317.084,767.993 z" id="boundary" inkscape:connector-curvature="0" />
	<path style="fill:none;stroke:red;stroke-width:1px;stroke-linecap:butt;stroke-linejoin:miter;stroke-opacity:1" d="M 317.084,767.993 328.995,754.381 z" id="boundary" inkscape:connector-curvature="0" />
	<path style="fill:none;stroke:red;stroke-width:1px;stroke-linecap:butt;stroke-linejoin:miter;stroke-opacity:1" d="M 328.995,754.381 344.309,745.873 z" id="boundary" inkscape:connector-curvature="0" />
	<path style="fill:none;stroke:red;stroke-width:1px;stroke-linecap:butt;stroke-linejoin:miter;stroke-opacity:1" d="M 344.309,745.873 357.921,735.664 z" id="boundary" inkscape:connector-curvature="0" />
	<path style="fill:none;stroke:red;stroke-width:1px;stroke-linecap:butt;stroke-linejoin:miter;stroke-opacity:1" d="M 357.921,735.664 374.937,727.156 z" id="boundary" inkscape:connector-curvature="0" />
	<path style="fill:none;stroke:red;stroke-width:1px;stroke-linecap:butt;stroke-linejoin:miter;stroke-opacity:1" d="M 374.937,727.156 391.952,718.648 z" id="boundary" inkscape:connector-curvature="0" />
	<path style="fill:none;stroke:red;stroke-width:1px;stroke-linecap:butt;stroke-linejoin:miter;stroke-opacity:1" d="M 391.952,718.648 400.46,701.633 z" id="boundary" inkscape:connector-curvature="0" />
	<path style="fill:none;stroke:red;stroke-width:1px;stroke-linecap:butt;stroke-linejoin:miter;stroke-opacity:1" d="M 318.786,689.722 327.293,664.199 z" id="boundary" inkscape:connector-curvature="0" />
	<path style="fill:none;stroke:red;stroke-width:1px;stroke-linecap:butt;stroke-linejoin:miter;stroke-opacity:1" d="M 327.293,664.199 327.293,647.184 z" id="boundary" inkscape:connector-curvature="0" />
	<path style="fill:none;stroke:red;stroke-width:1px;stroke-linecap:butt;stroke-linejoin:miter;stroke-opacity:1" d="M 327.293,647.184 327.293,630.168 z" id="boundary" inkscape:connector-curvature="0" />
	<path style="fill:none;stroke:red;stroke-width:1px;stroke-linecap:butt;stroke-linejoin:miter;stroke-opacity:1" d="M 327.293,630.168 327.293,613.153 z" id="boundary" inkscape:connector-curvature="0" />
	<path style="fill:none;stroke:red;stroke-width:1px;stroke-linecap:butt;stroke-linejoin:miter;stroke-opacity:1" d="M 327.293,613.153 327.293,596.137 z" id="boundary" inkscape:connector-curvature="0" />
	<path style="fill:none;stroke:red;stroke-width:1px;stroke-linecap:butt;stroke-linejoin:miter;stroke-opacity:1" d="M 327.293,596.137 327.293,579.122 z" id="boundary" inkscape:connector-curvature="0" />
	<path style="fill:none;stroke:red;stroke-width:1px;stroke-linecap:butt;stroke-linejoin:miter;stroke-opacity:1" d="M 327.293,579.122 327.293,562.106 z" id="boundary" inkscape:connector-curvature="0" />
	<path style="fill:none;stroke:red;stroke-width:1px;stroke-linecap:butt;stroke-linejoin:miter;stroke-opacity:1" d="M 327.293,562.106 335.801,545.091 z" id="boundary" inkscape:connector-curvature="0" />
	<path style="fill:none;stroke:red;stroke-width:1px;stroke-linecap:butt;stroke-linejoin:miter;stroke-opacity:1" d="M 335.801,545.091 335.801,528.075 z" id="boundary" inkscape:connector-curvature="0" />
	<path style="fill:none;stroke:red;stroke-width:1px;stroke-linecap:butt;stroke-linejoin:miter;stroke-opacity:1" d="M 335.801,528.075 335.801,511.06 z" id="boundary" inkscape:connector-curvature="0" />
	<path style="fill:none;stroke:red;stroke-width:1px;stroke-linecap:butt;stroke-linejoin:miter;stroke-opacity:1" d="M 335.801,511.06 335.801,494.045 z" id="boundary" inkscape:connector-curvature="0" />
	<path style="fill:none;stroke:red;stroke-width:1px;stroke-linecap:butt;stroke-linejoin:miter;stroke-opacity:1" d="M 335.801,494.045 335.801,477.029 z" id="boundary" inkscape:connector-curvature="0" />
	<path style="fill:none;stroke:red;stroke-width:1px;stroke-linecap:butt;stroke-linejoin:miter;stroke-opacity:1" d="M 335.801,477.029 335.801,460.014 z" id="boundary" inkscape:connector-curvature="0" />
	<path style="fill:none;stroke:red;stroke-width:1px;stroke-linecap:butt;stroke-linejoin:miter;stroke-opacity:1" d="M 335.801,460.014 335.801,442.998 z" id="boundary" inkscape:connector-curvature="0" />
	<path style="fill:none;stroke:red;stroke-width:1px;stroke-linecap:butt;stroke-linejoin:miter;stroke-opacity:1" d="M 335.801,442.998 335.801,425.983 z" id="boundary" inkscape:connector-curvature="0" />
	<path style="fill:none;stroke:red;stroke-width:1px;stroke-linecap:butt;stroke-linejoin:miter;stroke-opacity:1" d="M 335.801,425.983 335.801,408.967 z" id="boundary" inkscape:connector-curvature="0" />
	<path style="fill:none;stroke:red;stroke-width:1px;stroke-linecap:butt;stroke-linejoin:miter;stroke-opacity:1" d="M 335.801,408.967 335.801,391.952 z" id="boundary" inkscape:connector-curvature="0" />
	<path style="fill:none;stroke:red;stroke-width:1px;stroke-linecap:butt;stroke-linejoin:miter;stroke-opacity:1" d="M 335.801,391.952 335.801,374.937 z" id="boundary" inkscape:connector-curvature="0" />
	<path style="fill:none;stroke:red;stroke-width:1px;stroke-linecap:butt;stroke-linejoin:miter;stroke-opacity:1" d="M 335.801,374.937 335.801,357.921 z" id="boundary" inkscape:connector-curvature="0" />
	<path style="fill:none;stroke:red;stroke-width:1px;stroke-linecap:butt;stroke-linejoin:miter;stroke-opacity:1" d="M 335.801,357.921 344.309,332.398 z" id="boundary" inkscape:connector-curvature="0" />
	<path style="fill:none;stroke:red;stroke-width:1px;stroke-linecap:butt;stroke-linejoin:miter;stroke-opacity:1" d="M 344.309,332.398 344.309,315.383 z" id="boundary" inkscape:connector-curvature="0" />
	<path style="fill:none;stroke:red;stroke-width:1px;stroke-linecap:butt;stroke-linejoin:miter;stroke-opacity:1" d="M 344.309,315.383 344.309,298.367 z" id="boundary" inkscape:connector-curvature="0" />
	<path style="fill:none;stroke:red;stroke-width:1px;stroke-linecap:butt;stroke-linejoin:miter;stroke-opacity:1" d="M 344.309,298.367 344.309,281.352 z" id="boundary" inkscape:connector-curvature="0" />
	<path style="fill:none;stroke:red;stroke-width:1px;stroke-linecap:butt;stroke-linejoin:miter;stroke-opacity:1" d="M 344.309,281.352 344.309,264.336 z" id="boundary" inkscape:connector-curvature="0" />
	<path style="fill:none;stroke:red;stroke-width:1px;stroke-linecap:butt;stroke-linejoin:miter;stroke-opacity:1" d="M 344.309,264.336 344.309,247.321 z" id="boundary" inkscape:connector-curvature="0" />
	<path style="fill:none;stroke:red;stroke-width:1px;stroke-linecap:butt;stroke-linejoin:miter;stroke-opacity:1" d="M 344.309,247.321 352.816,230.305 z" id="boundary" inkscape:connector-curvature="0" />
	<path style="fill:none;stroke:red;stroke-width:1px;stroke-linecap:butt;stroke-linejoin:miter;stroke-opacity:1" d="M 352.816,230.305 369.832,221.798 z" id="boundary" inkscape:connector-curvature="0" />
	<path style="fill:none;stroke:red;stroke-width:1px;stroke-linecap:butt;stroke-linejoin:miter;stroke-opacity:1" d="M 369.832,221.798 386.847,216.693 z" id="boundary" inkscape:connector-curvature="0" />
	<path style="fill:none;stroke:red;stroke-width:1px;stroke-linecap:butt;stroke-linejoin:miter;stroke-opacity:1" d="M 386.847,216.693 403.863,216.693 z" id="boundary" inkscape:connector-curvature="0" />
	<path style="fill:none;stroke:red;stroke-width:1px;stroke-linecap:butt;stroke-linejoin:miter;stroke-opacity:1" d="M 403.863,216.693 419.177,208.185 z" id="boundary" inkscape:connector-curvature="0" />
	<path style="fill:none;stroke:red;stroke-width:1px;stroke-linecap:butt;stroke-linejoin:miter;stroke-opacity:1" d="M 419.177,208.185 436.192,208.185 z" id="boundary" inkscape:connector-curvature="0" />
	<path style="fill:none;stroke:red;stroke-width:1px;stroke-linecap:butt;stroke-linejoin:miter;stroke-opacity:1" d="M 436.192,208.185 453.208,208.185 z" id="boundary" inkscape:connector-curvature="0" />
	<path style="fill:none;stroke:red;stroke-width:1px;stroke-linecap:butt;stroke-linejoin:miter;stroke-opacity:1" d="M 453.208,208.185 468.521,199.678 z" id="boundary" inkscape:connector-curvature="0" />
	<path style="fill:none;stroke:red;stroke-width:1px;stroke-linecap:butt;stroke-linejoin:miter;stroke-opacity:1" d="M 468.521,199.678 485.537,191.17 z" id="boundary" inkscape:connector-curvature="0" />
	<path style="fill:none;stroke:red;stroke-width:1px;stroke-linecap:butt;stroke-linejoin:miter;stroke-opacity:1" d="M 485.537,191.17 502.552,191.17 z" id="boundary" inkscape:connector-curvature="0" />
	<path style="fill:none;stroke:red;stroke-width:1px;stroke-linecap:butt;stroke-linejoin:miter;stroke-opacity:1" d="M 502.552,191.17 519.568,191.17 z" id="boundary" inkscape:connector-curvature="0" />
	<path style="fill:none;stroke:red;stroke-width:1px;stroke-linecap:butt;stroke-linejoin:miter;stroke-opacity:1" d="M 519.568,191.17 531.479,174.154 z" id="boundary" inkscape:connector-curvature="0" />
	<path style="fill:none;stroke:red;stroke-width:1px;stroke-linecap:butt;stroke-linejoin:miter;stroke-opacity:1" d="M 531.479,174.154 531.479,157.139 z" id="boundary" inkscape:connector-curvature="0" />
	<path style="fill:none;stroke:red;stroke-width:1px;stroke-linecap:butt;stroke-linejoin:miter;stroke-opacity:1" d="M 531.479,157.139 522.971,141.825 z" id="boundary" inkscape:connector-curvature="0" />
	<path style="fill:none;stroke:red;stroke-width:1px;stroke-linecap:butt;stroke-linejoin:miter;stroke-opacity:1" d="M 522.971,141.825 522.971,124.81 z" id="boundary" inkscape:connector-curvature="0" />
	<path style="fill:none;stroke:red;stroke-width:1px;stroke-linecap:butt;stroke-linejoin:miter;stroke-opacity:1" d="M 522.971,124.81 514.463,109.496 z" id="boundary" inkscape:connector-curvature="0" />
	<path style="fill:none;stroke:red;stroke-width:1px;stroke-linecap:butt;stroke-linejoin:miter;stroke-opacity:1" d="M 514.463,109.496 505.955,94.1818 z" id="boundary" inkscape:connector-curvature="0" />
	<path style="fill:none;stroke:red;stroke-width:1px;stroke-linecap:butt;stroke-linejoin:miter;stroke-opacity:1" d="M 505.955,94.1818 505.955,77.1664 z" id="boundary" inkscape:connector-curvature="0" />
	<path style="fill:none;stroke:red;stroke-width:1px;stroke-linecap:butt;stroke-linejoin:miter;stroke-opacity:1" d="M 505.955,77.1664 519.568,63.554 z" id="boundary" inkscape:connector-curvature="0" />
	<path style="fill:none;stroke:red;stroke-width:1px;stroke-linecap:butt;stroke-linejoin:miter;stroke-opacity:1" d="M 519.568,63.554 528.075,46.5386 z" id="boundary" inkscape:connector-curvature="0" />
	<path style="fill:none;stroke:red;stroke-width:1px;stroke-linecap:butt;stroke-linejoin:miter;stroke-opacity:1" d="M 528.075,46.5386 536.583,29.5232 z" id="boundary" inkscape:connector-curvature="0" />
	<path style="fill:none;stroke:red;stroke-width:1px;stroke-linecap:butt;stroke-linejoin:miter;stroke-opacity:1" d="M 536.583,29.5232 550.196,15.9108 z" id="boundary" inkscape:connector-curvature="0" />
	<path style="fill:none;stroke:red;stroke-width:1px;stroke-linecap:butt;stroke-linejoin:miter;stroke-opacity:1" d="M 550.196,15.9108 567.211,7.40309 z" id="boundary" inkscape:connector-curvature="0" />
	<path style="fill:none;stroke:red;stroke-width:1px;stroke-linecap:butt;stroke-linejoin:miter;stroke-opacity:1" d="M 567.211,7.40309 584.226,4 z" id="boundary" inkscape:connector-curvature="0" />
	<path style="fill:none;stroke:red;stroke-width:1px;stroke-linecap:butt;stroke-linejoin:miter;stroke-opacity:1" d="M 584.226,4 601.242,4 z" id="boundary" inkscape:connector-curvature="0" />
	<path style="fill:none;stroke:red;stroke-width:1px;stroke-linecap:butt;stroke-linejoin:miter;stroke-opacity:1" d="M 601.242,4 618.257,4 z" id="boundary" inkscape:connector-curvature="0" />
	<path style="fill:none;stroke:red;stroke-width:1px;stroke-linecap:butt;stroke-linejoin:miter;stroke-opacity:1" d="M 618.257,4 635.273,4 z" id="boundary" inkscape:connector-curvature="0" />
	<path style="fill:none;stroke:red;stroke-width:1px;stroke-linecap:butt;stroke-linejoin:miter;stroke-opacity:1" d="M 635.273,4 652.288,4 z" id="boundary" inkscape:connector-curvature="0" />
	<path style="fill:none;stroke:red;stroke-width:1px;stroke-linecap:butt;stroke-linejoin:miter;stroke-opacity:1" d="M 652.288,4 665.901,14.2093 z" id="boundary" inkscape:connector-curvature="0" />
	<path style="fill:none;stroke:red;stroke-width:1px;stroke-linecap:butt;stroke-linejoin:miter;stroke-opacity:1" d="M 665.901,14.2093 677.811,27.8216 z" id="boundary" inkscape:connector-curvature="0" />
	<path style="fill:none;stroke:red;stroke-width:1px;stroke-linecap:butt;stroke-linejoin:miter;stroke-opacity:1" d="M 677.811,27.8216 686.319,43.1355 z" id="boundary" inkscape:connector-curvature="0" />
	<path style="fill:none;stroke:red;stroke-width:1px;stroke-linecap:butt;stroke-linejoin:miter;stroke-opacity:1" d="M 686.319,43.1355 686.319,60.1509 z" id="boundary" inkscape:connector-curvature="0" />
	<path style="fill:none;stroke:red;stroke-width:1px;stroke-linecap:butt;stroke-linejoin:miter;stroke-opacity:1" d="M 686.319,60.1509 694.827,75.4648 z" id="boundary" inkscape:connector-curvature="0" />
	<path style="fill:none;stroke:red;stroke-width:1px;stroke-linecap:butt;stroke-linejoin:miter;stroke-opacity:1" d="M 694.827,75.4648 711.842,80.5695 z" id="boundary" inkscape:connector-curvature="0" />
	<path style="fill:none;stroke:red;stroke-width:1px;stroke-linecap:butt;stroke-linejoin:miter;stroke-opacity:1" d="M 711.842,80.5695 728.858,80.5695 z" id="boundary" inkscape:connector-curvature="0" />
	<path style="fill:none;stroke:red;stroke-width:1px;stroke-linecap:butt;stroke-linejoin:miter;stroke-opacity:1" d="M 728.858,80.5695 745.873,80.5695 z" id="boundary" inkscape:connector-curvature="0" />
	<path style="fill:none;stroke:red;stroke-width:1px;stroke-linecap:butt;stroke-linejoin:miter;stroke-opacity:1" d="M 745.873,80.5695 761.187,89.0772 z" id="boundary" inkscape:connector-curvature="0" />
	<path style="fill:none;stroke:red;stroke-width:1px;stroke-linecap:butt;stroke-linejoin:miter;stroke-opacity:1" d="M 761.187,89.0772 774.799,99.2864 z" id="boundary" inkscape:connector-curvature="0" />
	<path style="fill:none;stroke:red;stroke-width:1px;stroke-linecap:butt;stroke-linejoin:miter;stroke-opacity:1" d="M 774.799,99.2864 788.412,111.197 z" id="boundary" inkscape:connector-curvature="0" />
	<path style="fill:none;stroke:red;stroke-width:1px;stroke-linecap:butt;stroke-linejoin:miter;stroke-opacity:1" d="M 788.412,111.197 788.412,128.213 z" id="boundary" inkscape:connector-curvature="0" />
	<path style="fill:none;stroke:red;stroke-width:1px;stroke-linecap:butt;stroke-linejoin:miter;stroke-opacity:1" d="M 788.412,128.213 796.919,143.527 z" id="boundary" inkscape:connector-curvature="0" />
	<path style="fill:none;stroke:red;stroke-width:1px;stroke-linecap:butt;stroke-linejoin:miter;stroke-opacity:1" d="M 796.919,143.527 805.427,158.84 z" id="boundary" inkscape:connector-curvature="0" />
	<path style="fill:none;stroke:red;stroke-width:1px;stroke-linecap:butt;stroke-linejoin:miter;stroke-opacity:1" d="M 805.427,158.84 808.83,175.856 z" id="boundary" inkscape:connector-curvature="0" />
	<path style="fill:none;stroke:red;stroke-width:1px;stroke-linecap:butt;stroke-linejoin:miter;stroke-opacity:1" d="M 808.83,175.856 810.532,197.976 z" id="boundary" inkscape:connector-curvature="0" />
	<path style="fill:none;stroke:red;stroke-width:1px;stroke-linecap:butt;stroke-linejoin:miter;stroke-opacity:1" d="M 810.532,197.976 796.919,209.887 z" id="boundary" inkscape:connector-curvature="0" />
	<path style="fill:none;stroke:red;stroke-width:1px;stroke-linecap:butt;stroke-linejoin:miter;stroke-opacity:1" d="M 796.919,209.887 783.307,225.201 z" id="boundary" inkscape:connector-curvature="0" />
	<path style="fill:none;stroke:red;stroke-width:1px;stroke-linecap:butt;stroke-linejoin:miter;stroke-opacity:1" d="M 783.307,225.201 774.799,242.216 z" id="boundary" inkscape:connector-curvature="0" />
	<path style="fill:none;stroke:red;stroke-width:1px;stroke-linecap:butt;stroke-linejoin:miter;stroke-opacity:1" d="M 774.799,242.216 761.187,255.828 z" id="boundary" inkscape:connector-curvature="0" />
	<path style="fill:none;stroke:red;stroke-width:1px;stroke-linecap:butt;stroke-linejoin:miter;stroke-opacity:1" d="M 761.187,255.828 744.172,260.933 z" id="boundary" inkscape:connector-curvature="0" />
	<path style="fill:none;stroke:red;stroke-width:1px;stroke-linecap:butt;stroke-linejoin:miter;stroke-opacity:1" d="M 744.172,260.933 727.156,260.933 z" id="boundary" inkscape:connector-curvature="0" />
	<path style="fill:none;stroke:red;stroke-width:1px;stroke-linecap:butt;stroke-linejoin:miter;stroke-opacity:1" d="M 727.156,260.933 711.842,252.425 z" id="boundary" inkscape:connector-curvature="0" />
	<path style="fill:none;stroke:red;stroke-width:1px;stroke-linecap:butt;stroke-linejoin:miter;stroke-opacity:1" d="M 711.842,252.425 696.528,243.918 z" id="boundary" inkscape:connector-curvature="0" />
	<path style="fill:none;stroke:red;stroke-width:1px;stroke-linecap:butt;stroke-linejoin:miter;stroke-opacity:1" d="M 696.528,243.918 679.513,243.918 z" id="boundary" inkscape:connector-curvature="0" />
	<path style="fill:none;stroke:red;stroke-width:1px;stroke-linecap:butt;stroke-linejoin:miter;stroke-opacity:1" d="M 679.513,243.918 662.497,243.918 z" id="boundary" inkscape:connector-curvature="0" />
	<path style="fill:none;stroke:red;stroke-width:1px;stroke-linecap:butt;stroke-linejoin:miter;stroke-opacity:1" d="M 662.497,243.918 647.184,235.41 z" id="boundary" inkscape:connector-curvature="0" />
	<path style="fill:none;stroke:red;stroke-width:1px;stroke-linecap:butt;stroke-linejoin:miter;stroke-opacity:1" d="M 647.184,235.41 630.168,235.41 z" id="boundary" inkscape:connector-curvature="0" />
	<path style="fill:none;stroke:red;stroke-width:1px;stroke-linecap:butt;stroke-linejoin:miter;stroke-opacity:1" d="M 630.168,235.41 613.153,235.41 z" id="boundary" inkscape:connector-curvature="0" />
	<path style="fill:none;stroke:red;stroke-width:1px;stroke-linecap:butt;stroke-linejoin:miter;stroke-opacity:1" d="M 613.153,235.41 597.839,243.918 z" id="boundary" inkscape:connector-curvature="0" />
	<path style="fill:none;stroke:red;stroke-width:1px;stroke-linecap:butt;stroke-linejoin:miter;stroke-opacity:1" d="M 597.839,243.918 580.823,249.022 z" id="boundary" inkscape:connector-curvature="0" />
	<path style="fill:none;stroke:red;stroke-width:1px;stroke-linecap:butt;stroke-linejoin:miter;stroke-opacity:1" d="M 580.823,249.022 563.808,252.425 z" id="boundary" inkscape:connector-curvature="0" />
	<path style="fill:none;stroke:red;stroke-width:1px;stroke-linecap:butt;stroke-linejoin:miter;stroke-opacity:1" d="M 563.808,252.425 546.792,252.425 z" id="boundary" inkscape:connector-curvature="0" />
	<path style="fill:none;stroke:red;stroke-width:1px;stroke-linecap:butt;stroke-linejoin:miter;stroke-opacity:1" d="M 546.792,252.425 531.479,260.933 z" id="boundary" inkscape:connector-curvature="0" />
	<path style="fill:none;stroke:red;stroke-width:1px;stroke-linecap:butt;stroke-linejoin:miter;stroke-opacity:1" d="M 531.479,260.933 514.463,264.336 z" id="boundary" inkscape:connector-curvature="0" />
	<path style="fill:none;stroke:red;stroke-width:1px;stroke-linecap:butt;stroke-linejoin:miter;stroke-opacity:1" d="M 514.463,264.336 497.448,272.844 z" id="boundary" inkscape:connector-curvature="0" />
	<path style="fill:none;stroke:red;stroke-width:1px;stroke-linecap:butt;stroke-linejoin:miter;stroke-opacity:1" d="M 497.448,272.844 480.432,277.949 z" id="boundary" inkscape:connector-curvature="0" />
	<path style="fill:none;stroke:red;stroke-width:1px;stroke-linecap:butt;stroke-linejoin:miter;stroke-opacity:1" d="M 480.432,277.949 465.118,286.456 z" id="boundary" inkscape:connector-curvature="0" />
	<path style="fill:none;stroke:red;stroke-width:1px;stroke-linecap:butt;stroke-linejoin:miter;stroke-opacity:1" d="M 465.118,286.456 448.103,286.456 z" id="boundary" inkscape:connector-curvature="0" />
	<path style="fill:none;stroke:red;stroke-width:1px;stroke-linecap:butt;stroke-linejoin:miter;stroke-opacity:1" d="M 448.103,286.456 431.087,286.456 z" id="boundary" inkscape:connector-curvature="0" />
	<path style="fill:none;stroke:red;stroke-width:1px;stroke-linecap:butt;stroke-linejoin:miter;stroke-opacity:1" d="M 431.087,286.456 414.072,294.964 z" id="boundary" inkscape:connector-curvature="0" />
	<path style="fill:none;stroke:red;stroke-width:1px;stroke-linecap:butt;stroke-linejoin:miter;stroke-opacity:1" d="M 414.072,294.964 414.072,311.979 z" id="boundary" inkscape:connector-curvature="0" />
	<path style="fill:none;stroke:red;stroke-width:1px;stroke-linecap:butt;stroke-linejoin:miter;stroke-opacity:1" d="M 414.072,311.979 414.072,328.995 z" id="boundary" inkscape:connector-curvature="0" />
	<path style="fill:none;stroke:red;stroke-width:1px;stroke-linecap:butt;stroke-linejoin:miter;stroke-opacity:1" d="M 414.072,328.995 414.072,346.01 z" id="boundary" inkscape:connector-curvature="0" />
	<path style="fill:none;stroke:red;stroke-width:1px;stroke-linecap:butt;stroke-linejoin:miter;stroke-opacity:1" d="M 414.072,346.01 414.072,363.026 z" id="boundary" inkscape:connector-curvature="0" />
	<path style="fill:none;stroke:red;stroke-width:1px;stroke-linecap:butt;stroke-linejoin:miter;stroke-opacity:1" d="M 414.072,363.026 414.072,380.041 z" id="boundary" inkscape:connector-curvature="0" />
	<path style="fill:none;stroke:red;stroke-width:1px;stroke-linecap:butt;stroke-linejoin:miter;stroke-opacity:1" d="M 414.072,380.041 414.072,397.057 z" id="boundary" inkscape:connector-curvature="0" />
	<path style="fill:none;stroke:red;stroke-width:1px;stroke-linecap:butt;stroke-linejoin:miter;stroke-opacity:1" d="M 414.072,397.057 414.072,414.072 z" id="boundary" inkscape:connector-curvature="0" />
	<path style="fill:none;stroke:red;stroke-width:1px;stroke-linecap:butt;stroke-linejoin:miter;stroke-opacity:1" d="M 414.072,414.072 405.564,431.087 z" id="boundary" inkscape:connector-curvature="0" />
	<path style="fill:none;stroke:red;stroke-width:1px;stroke-linecap:butt;stroke-linejoin:miter;stroke-opacity:1" d="M 405.564,431.087 405.564,448.103 z" id="boundary" inkscape:connector-curvature="0" />
	<path style="fill:none;stroke:red;stroke-width:1px;stroke-linecap:butt;stroke-linejoin:miter;stroke-opacity:1" d="M 405.564,448.103 405.564,465.118 z" id="boundary" inkscape:connector-curvature="0" />
	<path style="fill:none;stroke:red;stroke-width:1px;stroke-linecap:butt;stroke-linejoin:miter;stroke-opacity:1" d="M 405.564,465.118 405.564,482.134 z" id="boundary" inkscape:connector-curvature="0" />
	<path style="fill:none;stroke:red;stroke-width:1px;stroke-linecap:butt;stroke-linejoin:miter;stroke-opacity:1" d="M 405.564,482.134 405.564,499.149 z" id="boundary" inkscape:connector-curvature="0" />
	<path style="fill:none;stroke:red;stroke-width:1px;stroke-linecap:butt;stroke-linejoin:miter;stroke-opacity:1" d="M 405.564,499.149 405.564,516.165 z" id="boundary" inkscape:connector-curvature="0" />
	<path style="fill:none;stroke:red;stroke-width:1px;stroke-linecap:butt;stroke-linejoin:miter;stroke-opacity:1" d="M 405.564,516.165 405.564,533.18 z" id="boundary" inkscape:connector-curvature="0" />
	<path style="fill:none;stroke:red;stroke-width:1px;stroke-linecap:butt;stroke-linejoin:miter;stroke-opacity:1" d="M 405.564,533.18 405.564,550.196 z" id="boundary" inkscape:connector-curvature="0" />
	<path style="fill:none;stroke:red;stroke-width:1px;stroke-linecap:butt;stroke-linejoin:miter;stroke-opacity:1" d="M 405.564,550.196 405.564,567.211 z" id="boundary" inkscape:connector-curvature="0" />
	<path style="fill:none;stroke:red;stroke-width:1px;stroke-linecap:butt;stroke-linejoin:miter;stroke-opacity:1" d="M 405.564,567.211 405.564,584.226 z" id="boundary" inkscape:connector-curvature="0" />
	<path style="fill:none;stroke:red;stroke-width:1px;stroke-linecap:butt;stroke-linejoin:miter;stroke-opacity:1" d="M 405.564,584.226 405.564,601.242 z" id="boundary" inkscape:connector-curvature="0" />
	<path style="fill:none;stroke:red;stroke-width:1px;stroke-linecap:butt;stroke-linejoin:miter;stroke-opacity:1" d="M 405.564,601.242 405.564,618.257 z" id="boundary" inkscape:connector-curvature="0" />
	<path style="fill:none;stroke:red;stroke-width:1px;stroke-linecap:butt;stroke-linejoin:miter;stroke-opacity:1" d="M 405.564,618.257 405.564,635.273 z" id="boundary" inkscape:connector-curvature="0" />
	<path style="fill:none;stroke:red;stroke-width:1px;stroke-linecap:butt;stroke-linejoin:miter;stroke-opacity:1" d="M 405.564,635.273 405.564,652.288 z" id="boundary" inkscape:connector-curvature="0" />
	<path style="fill:none;stroke:red;stroke-width:1px;stroke-linecap:butt;stroke-linejoin:miter;stroke-opacity:1" d="M 405.564,652.288 405.564,669.304 z" id="boundary" inkscape:connector-curvature="0" />
	<path style="fill:none;stroke:red;stroke-width:1px;stroke-linecap:butt;stroke-linejoin:miter;stroke-opacity:1" d="M 405.564,669.304 400.46,701.633 z" id="boundary" inkscape:connector-curvature="0" />
	<circle cx="4" cy="817.338" r="4" fill="#0" id="circle0"/>
	<circle cx="4" cy="834.353" r="4" fill="#0" id="circle1"/>
	<circle cx="12.5077" cy="800.322" r="4" fill="#0" id="circle2"/>
	<circle cx="12.5077" cy="849.667" r="4" fill="#0" id="circle3"/>
	<circle cx="12.5077" cy="866.683" r="4" fill="#0" id="circle4"/>
	<circle cx="21.0154" cy="881.997" r="4" fill="#0" id="circle5"/>
	<circle cx="26.1201" cy="786.71" r="4" fill="#0" id="circle6"/>
	<circle cx="36.3293" cy="890.504" r="4" fill="#0" id="circle7"/>
	<circle cx="39.7324" cy="773.098" r="4" fill="#0" id="circle8"/>
	<circle cx="51.6432" cy="899.012" r="4" fill="#0" id="circle9"/>
	<circle cx="53.3448" cy="761.187" r="4" fill="#0" id="circle10"/>
	<circle cx="68.6587" cy="752.679" r="4" fill="#0" id="circle11"/>
	<circle cx="68.6587" cy="899.012" r="4" fill="#0" id="circle12"/>
	<circle cx="80.5695" cy="961.969" r="4" fill="#0" id="circle13"/>
	<circle cx="83.9726" cy="761.187" r="4" fill="#0" id="circle14"/>
	<circle cx="85.6741" cy="899.012" r="4" fill="#0" id="circle15"/>
	<circle cx="89.0772" cy="936.446" r="4" fill="#0" id="circle16"/>
	<circle cx="94.1818" cy="973.88" r="4" fill="#0" id="circle17"/>
	<circle cx="97.5849" cy="912.624" r="4" fill="#0" id="circle18"/>
	<circle cx="99.2864" cy="769.695" r="4" fill="#0" id="circle19"/>
	<circle cx="111.197" cy="975.581" r="4" fill="#0" id="circle20"/>
	<circle cx="116.302" cy="769.695" r="4" fill="#0" id="circle21"/>
	<circle cx="126.511" cy="984.089" r="4" fill="#0" id="circle22"/>
	<circle cx="131.616" cy="778.202" r="4" fill="#0" id="circle23"/>
	<circle cx="141.825" cy="992.597" r="4" fill="#0" id="circle24"/>
	<circle cx="145.228" cy="788.412" r="4" fill="#0" id="circle25"/>
	<circle cx="158.84" cy="996" r="4" fill="#0" id="circle26"/>
	<circle cx="162.244" cy="786.71" r="4" fill="#0" id="circle27"/>
	<circle cx="175.856" cy="992.597" r="4" fill="#0" id="circle28"/>
	<circle cx="179.259" cy="778.202" r="4" fill="#0" id="circle29"/>
	<circle cx="192.871" cy="984.089" r="4" fill="#0" id="circle30"/>
	<circle cx="196.274" cy="769.695" r="4" fill="#0" id="circle31"/>
	<circle cx="209.887" cy="756.082" r="4" fill="#0" id="circle32"/>
	<circle cx="209.887" cy="975.581" r="4" fill="#0" id="circle33"/>
	<circle cx="223.499" cy="963.671" r="4" fill="#0" id="circle34"/>
	<circle cx="226.902" cy="747.575" r="4" fill="#0" id="circle35"/>
	<circle cx="226.902" cy="830.95" r="4" fill="#0" id="circle36"/>
	<circle cx="226.902" cy="847.966" r="4" fill="#0" id="circle37"/>
	<circle cx="235.41" cy="863.28" r="4" fill="#0" id="circle38"/>
	<circle cx="235.41" cy="880.295" r="4" fill="#0" id="circle39"/>
	<circle cx="235.41" cy="897.31" r="4" fill="#0" id="circle40"/>
	<circle cx="235.41" cy="950.058" r="4" fill="#0" id="circle41"/>
	<circle cx="240.515" cy="819.039" r="4" fill="#0" id="circle42"/>
	<circle cx="243.918" cy="744.172" r="4" fill="#0" id="circle43"/>
	<circle cx="243.918" cy="912.624" r="4" fill="#0" id="circle44"/>
	<circle cx="243.918" cy="929.64" r="4" fill="#0" id="circle45"/>
	<circle cx="257.53" cy="810.532" r="4" fill="#0" id="circle46"/>
	<circle cx="259.232" cy="732.261" r="4" fill="#0" id="circle47"/>
	<circle cx="269.441" cy="796.919" r="4" fill="#0" id="circle48"/>
	<circle cx="272.844" cy="718.648" r="4" fill="#0" id="circle49"/>
	<circle cx="286.456" cy="788.412" r="4" fill="#0" id="circle50"/>
	<circle cx="289.859" cy="710.141" r="4" fill="#0" id="circle51"/>
	<circle cx="303.472" cy="779.904" r="4" fill="#0" id="circle52"/>
	<circle cx="305.173" cy="701.633" r="4" fill="#0" id="circle53"/>
	<circle cx="317.084" cy="767.993" r="4" fill="#0" id="circle54"/>
	<circle cx="318.786" cy="689.722" r="4" fill="#0" id="circle55"/>
	<circle cx="327.293" cy="562.106" r="4" fill="#0" id="circle56"/>
	<circle cx="327.293" cy="579.122" r="4" fill="#0" id="circle57"/>
	<circle cx="327.293" cy="596.137" r="4" fill="#0" id="circle58"/>
	<circle cx="327.293" cy="613.153" r="4" fill="#0" id="circle59"/>
	<circle cx="327.293" cy="630.168" r="4" fill="#0" id="circle60"/>
	<circle cx="327.293" cy="647.184" r="4" fill="#0" id="circle61"/>
	<circle cx="327.293" cy="664.199" r="4" fill="#0" id="circle62"/>
	<circle cx="328.995" cy="754.381" r="4" fill="#0" id="circle63"/>
	<circle cx="335.801" cy="357.921" r="4" fill="#0" id="circle64"/>
	<circle cx="335.801" cy="374.937" r="4" fill="#0" id="circle65"/>
	<circle cx="335.801" cy="391.952" r="4" fill="#0" id="circle66"/>
	<circle cx="335.801" cy="408.967" r="4" fill="#0" id="circle67"/>
	<circle cx="335.801" cy="425.983" r="4" fill="#0" id="circle68"/>
	<circle cx="335.801" cy="442.998" r="4" fill="#0" id="circle69"/>
	<circle cx="335.801" cy="460.014" r="4" fill="#0" id="circle70"/>
	<circle cx="335.801" cy="477.029" r="4" fill="#0" id="circle71"/>
	<circle cx="335.801" cy="494.045" r="4" fill="#0" id="circle72"/>
	<circle cx="335.801" cy="511.06" r="4" fill="#0" id="circle73"/>
	<circle cx="335.801" cy="528.075" r="4" fill="#0" id="circle74"/>
	<circle cx="335.801" cy="545.091" r="4" fill="#0" id="circle75"/>
	<circle cx="344.309" cy="247.321" r="4" fill="#0" id="circle76"/>
	<circle cx="344.309" cy="264.336" r="4" fill="#0" id="circle77"/>
	<circle cx="344.309" cy="281.352" r="4" fill="#0" id="circle78"/>
	<circle cx="344.309" cy="298.367" r="4" fill="#0" id="circle79"/>
	<circle cx="344.309" cy="315.383" r="4" fill="#0" id="circle80"/>
	<circle cx="344.309" cy="332.398" r="4" fill="#0" id="circle81"/>
	<circle cx="344.309" cy="745.873" r="4" fill="#0" id="circle82"/>
	<circle cx="352.816" cy="230.305" r="4" fill="#0" id="circle83"/>
	<circle cx="357.921" cy="735.664" r="4" fill="#0" id="circle84"/>
	<circle cx="369.832" cy="221.798" r="4" fill="#0" id="circle85"/>
	<circle cx="374.937" cy="727.156" r="4" fill="#0" id="circle86"/>
	<circle cx="386.847" cy="216.693" r="4" fill="#0" id="circle87"/>
	<circle cx="391.952" cy="718.648" r="4" fill="#0" id="circle88"/>
	<circle cx="400.46" cy="701.633" r="4" fill="#0" id="circle89"/>
	<circle cx="403.863" cy="216.693" r="4" fill="#0" id="circle90"/>
	<circle cx="405.564" cy="431.087" r="4" fill="#0" id="circle91"/>
	<circle cx="405.564" cy="448.103" r="4" fill="#0" id="circle92"/>
	<circle cx="405.564" cy="465.118" r="4" fill="#0" id="circle93"/>
	<circle cx="405.564" cy="482.134" r="4" fill="#0" id="circle94"/>
	<circle cx="405.564" cy="499.149" r="4" fill="#0" id="circle95"/>
	<circle cx="405.564" cy="516.165" r="4" fill="#0" id="circle96"/>
	<circle cx="405.564" cy="533.18" r="4" fill="#0" id="circle97"/>
	<circle cx="405.564" cy="550.196" r="4" fill="#0" id="circle98"/>
	<circle cx="405.564" cy="567.211" r="4" fill="#0" id="circle99"/>
	<circle cx="405.564" cy="584.226" r="4" fill="#0" id="circle100"/>
	<circle cx="405.564" cy="601.242" r="4" fill="#0" id="circle101"/>
	<circle cx="405.564" cy="618.257" r="4" fill="#0" id="circle102"/>
	<circle cx="405.564" cy="635.273" r="4" fill="#0" id="circle103"/>
	<circle cx="405.564" cy="652.288" r="4" fill="#0" id="circle104"/>
	<circle cx="405.564" cy="669.304" r="4" fill="#0" id="circle105"/>
	<circle cx="414.072" cy="294.964" r="4" fill="#0" id="circle106"/>
	<circle cx="414.072" cy="311.979" r="4" fill="#0" id="circle107"/>
	<circle cx="414.072" cy="328.995" r="4" fill="#0" id="circle108"/>
	<circle cx="414.072" cy="346.01" r="4" fill="#0" id="circle109"/>
	<circle cx="414.072" cy="363.026" r="4" fill="#0" id="circle110"/>
	<circle cx="414.072" cy="380.041" r="4" fill="#0" id="circle111"/>
	<circle cx="414.072" cy="397.057" r="4" fill="#0" id="circle112"/>
	<circle cx="414.072" cy="414.072" r="4" fill="#0" id="circle113"/>
	<circle cx="419.177" cy="208.185" r="4" fill="#0" id="circle114"/>
	<circle cx="431.087" cy="286.456" r="4" fill="#0" id="circle115"/>
	<circle cx="436.192" cy="208.185" r="4" fill="#0" id="circle116"/>
	<circle cx="448.103" cy="286.456" r="4" fill="#0" id="circle117"/>
	<circle cx="453.208" cy="208.185" r="4" fill="#0" id="circle118"/>
	<circle cx="465.118" cy="286.456" r="4" fill="#0" id="circle119"/>
	<circle cx="468.521" cy="199.678" r="4" fill="#0" id="circle120"/>
	<circle cx="480.432" cy="277.949" r="4" fill="#0" id="circle121"/>
	<circle cx="485.537" cy="191.17" r="4" fill="#0" id="circle122"/>
	<circle cx="497.448" cy="272.844" r="4" fill="#0" id="circle123"/>
	<circle cx="502.552" cy="191.17" r="4" fill="#0" id="circle124"/>
	<circle cx="505.955" cy="77.1664" r="4" fill="#0" id="circle125"/>
	<circle cx="505.955" cy="94.1818" r="4" fill="#0" id="circle126"/>
	<circle cx="514.463" cy="109.496" r="4" fill="#0" id="circle127"/>
	<circle cx="514.463" cy="264.336" r="4" fill="#0" id="circle128"/>
	<circle cx="519.568" cy="63.554" r="4" fill="#0" id="circle129"/>
	<circle cx="519.568" cy="191.17" r="4" fill="#0" id="circle130"/>
	<circle cx="522.971" cy="124.81" r="4" fill="#0" id="circle131"/>
	<circle cx="522.971" cy="141.825" r="4" fill="#0" id="circle132"/>
	<circle cx="528.075" cy="46.5386" r="4" fill="#0" id="circle133"/>
	<circle cx="531.479" cy="157.139" r="4" fill="#0" id="circle134"/>
	<circle cx="531.479" cy="174.154" r="4" fill="#0" id="circle135"/>
	<circle cx="531.479" cy="260.933" r="4" fill="#0" id="circle136"/>
	<circle cx="536.583" cy="29.5232" r="4" fill="#0" id="circle137"/>
	<circle cx="546.792" cy="252.425" r="4" fill="#0" id="circle138"/>
	<circle cx="550.196" cy="15.9108" r="4" fill="#0" id="circle139"/>
	<circle cx="563.808" cy="252.425" r="4" fill="#0" id="circle140"/>
	<circle cx="567.211" cy="7.40309" r="4" fill="#0" id="circle141"/>
	<circle cx="580.823" cy="249.022" r="4" fill="#0" id="circle142"/>
	<circle cx="584.226" cy="4" r="4" fill="#0" id="circle143"/>
	<circle cx="597.839" cy="243.918" r="4" fill="#0" id="circle144"/>
	<circle cx="601.242" cy="4" r="4" fill="#0" id="circle145"/>
	<circle cx="613.153" cy="235.41" r="4" fill="#0" id="circle146"/>
	<circle cx="618.257" cy="4" r="4" fill="#0" id="circle147"/>
	<circle cx="630.168" cy="235.41" r="4" fill="#0" id="circle148"/>
	<circle cx="635.273" cy="4" r="4" fill="#0" id="circle149"/>
	<circle cx="647.184" cy="235.41" r="4" fill="#0" id="circle150"/>
	<circle cx="652.288" cy="4" r="4" fill="#0" id="circle151"/>
	<circle cx="662.497" cy="243.918" r="4" fill="#0" id="circle152"/>
	<circle cx="665.901" cy="14.2093" r="4" fill="#0" id="circle153"/>
	<circle cx="677.811" cy="27.8216" r="4" fill="#0" id="circle154"/>
	<circle cx="679.513" cy="243.918" r="4" fill="#0" id="circle155"/>
	<circle cx="686.319" cy="43.1355" r="4" fill="#0" id="circle156"/>
	<circle cx="686.319" cy="60.1509" r="4" fill="#0" id="circle157"/>
	<circle cx="694.827" cy="75.4648" r="4" fill="#0" id="circle158"/>
	<circle cx="696.528" cy="243.918" r="4" fill="#0" id="circle159"/>
	<circle cx="711.842" cy="80.5695" r="4" fill="#0" id="circle160"/>
	<circle cx="711.842" cy="252.425" r="4" fill="#0" id="circle161"/>
	<circle cx="727.156" cy="260.933" r="4" fill="#0" id="circle162"/>
	<circle cx="728.858" cy="80.5695" r="4" fill="#0" id="circle163"/>
	<circle cx="744.172" cy="260.933" r="4" fill="#0" id="circle164"/>
	<circle cx="745.873" cy="80.5695" r="4" fill="#0" id="circle165"/>
	<circle cx="761.187" cy="89.0772" r="4" fill="#0" id="circle166"/>
	<circle cx="761.187" cy="255.828" r="4" fill="#0" id="circle167"/>
	<circle cx="774.799" cy="99.2864" r="4" fill="#0" id="circle168"/>
	<circle cx="774.799" cy="242.216" r="4" fill="#0" id="circle169"/>
	<circle cx="783.307" cy="225.201" r="4" fill="#0" id="circle170"/>
	<circle cx="788.412" cy="111.197" r="4" fill="#0" id="circle171"/>
	<circle cx="788.412" cy="128.213" r="4" fill="#0" id="circle172"/>
	<circle cx="796.919" cy="143.527" r="4" fill="#0" id="circle173"/>
	<circle cx="796.919" cy="209.887" r="4" fill="#0" id="circle174"/>
	<circle cx="805.427" cy="158.84" r="4" fill="#0" id="circle175"/>
	<circle cx="808.83" cy="175.856" r="4" fill="#0" id="circle176"/>
	<circle cx="810.532" cy="197.976" r="4" fill="#0" id="circle177"/>
	</g>
</svg>