<?xml version="1.0" encoding="UTF-8" standalone="no"?>
<!-- Created with CurveBenchmark -->
<svg
	xmlns:dc="http://purl.org/dc/elements/1.1/"
	xmlns:cc="http://creativecommons.org/ns#"
	xmlns:rdf="http://www.w3.org/1999/02/22-rdf-syntax-ns#"
	xmlns:svg="http://www.w3.org/2000/svg"
	xmlns="http://www.w3.org/2000/svg"
	xmlns:sodipodi="http://sodipodi.sourceforge.net/DTD/sodipodi-0.dtd"
	xmlns:inkscape="http://www.inkscape.org/namespaces/inkscape"
	width="1000"
	height="1000"
	id="svg2"
	version="1.1"
	sodipodi:docname="manifold/crawl-truck-14.png.txt">
<defs
	id="defs4" />
<metadata
	id="metadata7">
	<rdf:RDF>
		<cc:Work
			rdf:about="">
			<dc:format>image/svg+xml</dc:format>
			<dc:type
				rdf:resource="http://purl.org/dc/dcmitype/StillImage" />
			<dc:title></dc:title>
		</cc:Work>
	</rdf:RDF>
</metadata>
<g
	inkscape:label="Layer 1"
	inkscape:groupmode="layer"
	id="layer1">
	<path style="fill:none;stroke:red;stroke-width:1px;stroke-linecap:butt;stroke-linejoin:miter;stroke-opacity:1" d="M 54.1573,189.768 35.5805,189.768 z" id="boundary" inkscape:connector-curvature="0" />
	<path style="fill:none;stroke:red;stroke-width:1px;stroke-linecap:butt;stroke-linejoin:miter;stroke-opacity:1" d="M 54.1573,189.768 72.7341,189.768 z" id="boundary" inkscape:connector-curvature="0" />
	<path style="fill:none;stroke:red;stroke-width:1px;stroke-linecap:butt;stroke-linejoin:miter;stroke-opacity:1" d="M 35.5805,189.768 18.8614,199.056 z" id="boundary" inkscape:connector-curvature="0" />
	<path style="fill:none;stroke:red;stroke-width:1px;stroke-linecap:butt;stroke-linejoin:miter;stroke-opacity:1" d="M 72.7341,189.768 89.4532,180.479 z" id="boundary" inkscape:connector-curvature="0" />
	<path style="fill:none;stroke:red;stroke-width:1px;stroke-linecap:butt;stroke-linejoin:miter;stroke-opacity:1" d="M 89.4532,180.479 108.03,180.479 z" id="boundary" inkscape:connector-curvature="0" />
	<path style="fill:none;stroke:red;stroke-width:1px;stroke-linecap:butt;stroke-linejoin:miter;stroke-opacity:1" d="M 108.03,180.479 124.749,171.191 z" id="boundary" inkscape:connector-curvature="0" />
	<path style="fill:none;stroke:red;stroke-width:1px;stroke-linecap:butt;stroke-linejoin:miter;stroke-opacity:1" d="M 124.749,171.191 143.326,171.191 z" id="boundary" inkscape:connector-curvature="0" />
	<path style="fill:none;stroke:red;stroke-width:1px;stroke-linecap:butt;stroke-linejoin:miter;stroke-opacity:1" d="M 143.326,171.191 160.045,161.903 z" id="boundary" inkscape:connector-curvature="0" />
	<path style="fill:none;stroke:red;stroke-width:1px;stroke-linecap:butt;stroke-linejoin:miter;stroke-opacity:1" d="M 160.045,161.903 178.622,161.903 z" id="boundary" inkscape:connector-curvature="0" />
	<path style="fill:none;stroke:red;stroke-width:1px;stroke-linecap:butt;stroke-linejoin:miter;stroke-opacity:1" d="M 178.622,161.903 197.199,161.903 z" id="boundary" inkscape:connector-curvature="0" />
	<path style="fill:none;stroke:red;stroke-width:1px;stroke-linecap:butt;stroke-linejoin:miter;stroke-opacity:1" d="M 197.199,161.903 213.918,152.614 z" id="boundary" inkscape:connector-curvature="0" />
	<path style="fill:none;stroke:red;stroke-width:1px;stroke-linecap:butt;stroke-linejoin:miter;stroke-opacity:1" d="M 213.918,152.614 232.494,152.614 z" id="boundary" inkscape:connector-curvature="0" />
	<path style="fill:none;stroke:red;stroke-width:1px;stroke-linecap:butt;stroke-linejoin:miter;stroke-opacity:1" d="M 232.494,152.614 251.071,152.614 z" id="boundary" inkscape:connector-curvature="0" />
	<path style="fill:none;stroke:red;stroke-width:1px;stroke-linecap:butt;stroke-linejoin:miter;stroke-opacity:1" d="M 251.071,152.614 269.648,143.326 z" id="boundary" inkscape:connector-curvature="0" />
	<path style="fill:none;stroke:red;stroke-width:1px;stroke-linecap:butt;stroke-linejoin:miter;stroke-opacity:1" d="M 269.648,143.326 288.225,143.326 z" id="boundary" inkscape:connector-curvature="0" />
	<path style="fill:none;stroke:red;stroke-width:1px;stroke-linecap:butt;stroke-linejoin:miter;stroke-opacity:1" d="M 288.225,143.326 306.801,134.037 z" id="boundary" inkscape:connector-curvature="0" />
	<path style="fill:none;stroke:red;stroke-width:1px;stroke-linecap:butt;stroke-linejoin:miter;stroke-opacity:1" d="M 306.801,134.037 325.378,134.037 z" id="boundary" inkscape:connector-curvature="0" />
	<path style="fill:none;stroke:red;stroke-width:1px;stroke-linecap:butt;stroke-linejoin:miter;stroke-opacity:1" d="M 325.378,134.037 343.955,124.749 z" id="boundary" inkscape:connector-curvature="0" />
	<path style="fill:none;stroke:red;stroke-width:1px;stroke-linecap:butt;stroke-linejoin:miter;stroke-opacity:1" d="M 343.955,124.749 362.532,124.749 z" id="boundary" inkscape:connector-curvature="0" />
	<path style="fill:none;stroke:red;stroke-width:1px;stroke-linecap:butt;stroke-linejoin:miter;stroke-opacity:1" d="M 362.532,124.749 381.109,124.749 z" id="boundary" inkscape:connector-curvature="0" />
	<path style="fill:none;stroke:red;stroke-width:1px;stroke-linecap:butt;stroke-linejoin:miter;stroke-opacity:1" d="M 381.109,124.749 397.828,115.461 z" id="boundary" inkscape:connector-curvature="0" />
	<path style="fill:none;stroke:red;stroke-width:1px;stroke-linecap:butt;stroke-linejoin:miter;stroke-opacity:1" d="M 397.828,115.461 416.404,108.03 z" id="boundary" inkscape:connector-curvature="0" />
	<path style="fill:none;stroke:red;stroke-width:1px;stroke-linecap:butt;stroke-linejoin:miter;stroke-opacity:1" d="M 416.404,108.03 434.981,106.172 z" id="boundary" inkscape:connector-curvature="0" />
	<path style="fill:none;stroke:red;stroke-width:1px;stroke-linecap:butt;stroke-linejoin:miter;stroke-opacity:1" d="M 434.981,106.172 449.843,93.1685 z" id="boundary" inkscape:connector-curvature="0" />
	<path style="fill:none;stroke:red;stroke-width:1px;stroke-linecap:butt;stroke-linejoin:miter;stroke-opacity:1" d="M 449.843,93.1685 459.131,74.5918 z" id="boundary" inkscape:connector-curvature="0" />
	<path style="fill:none;stroke:red;stroke-width:1px;stroke-linecap:butt;stroke-linejoin:miter;stroke-opacity:1" d="M 18.8614,199.056 4,213.918 z" id="boundary" inkscape:connector-curvature="0" />
	<path style="fill:none;stroke:red;stroke-width:1px;stroke-linecap:butt;stroke-linejoin:miter;stroke-opacity:1" d="M 4,213.918 4,232.494 z" id="boundary" inkscape:connector-curvature="0" />
	<path style="fill:none;stroke:red;stroke-width:1px;stroke-linecap:butt;stroke-linejoin:miter;stroke-opacity:1" d="M 4,232.494 4,251.071 z" id="boundary" inkscape:connector-curvature="0" />
	<path style="fill:none;stroke:red;stroke-width:1px;stroke-linecap:butt;stroke-linejoin:miter;stroke-opacity:1" d="M 4,251.071 4,269.648 z" id="boundary" inkscape:connector-curvature="0" />
	<path style="fill:none;stroke:red;stroke-width:1px;stroke-linecap:butt;stroke-linejoin:miter;stroke-opacity:1" d="M 4,269.648 18.8614,282.652 z" id="boundary" inkscape:connector-curvature="0" />
	<path style="fill:none;stroke:red;stroke-width:1px;stroke-linecap:butt;stroke-linejoin:miter;stroke-opacity:1" d="M 18.8614,282.652 33.7228,293.798 z" id="boundary" inkscape:connector-curvature="0" />
	<path style="fill:none;stroke:red;stroke-width:1px;stroke-linecap:butt;stroke-linejoin:miter;stroke-opacity:1" d="M 33.7228,293.798 52.2996,293.798 z" id="boundary" inkscape:connector-curvature="0" />
	<path style="fill:none;stroke:red;stroke-width:1px;stroke-linecap:butt;stroke-linejoin:miter;stroke-opacity:1" d="M 52.2996,293.798 70.8764,293.798 z" id="boundary" inkscape:connector-curvature="0" />
	<path style="fill:none;stroke:red;stroke-width:1px;stroke-linecap:butt;stroke-linejoin:miter;stroke-opacity:1" d="M 70.8764,293.798 89.4532,293.798 z" id="boundary" inkscape:connector-curvature="0" />
	<path style="fill:none;stroke:red;stroke-width:1px;stroke-linecap:butt;stroke-linejoin:miter;stroke-opacity:1" d="M 89.4532,293.798 108.03,293.798 z" id="boundary" inkscape:connector-curvature="0" />
	<path style="fill:none;stroke:red;stroke-width:1px;stroke-linecap:butt;stroke-linejoin:miter;stroke-opacity:1" d="M 108.03,293.798 126.607,297.513 z" id="boundary" inkscape:connector-curvature="0" />
	<path style="fill:none;stroke:red;stroke-width:1px;stroke-linecap:butt;stroke-linejoin:miter;stroke-opacity:1" d="M 126.607,297.513 134.037,316.09 z" id="boundary" inkscape:connector-curvature="0" />
	<path style="fill:none;stroke:red;stroke-width:1px;stroke-linecap:butt;stroke-linejoin:miter;stroke-opacity:1" d="M 459.131,74.5918 473.993,59.7303 z" id="boundary" inkscape:connector-curvature="0" />
	<path style="fill:none;stroke:red;stroke-width:1px;stroke-linecap:butt;stroke-linejoin:miter;stroke-opacity:1" d="M 473.993,59.7303 483.281,41.1536 z" id="boundary" inkscape:connector-curvature="0" />
	<path style="fill:none;stroke:red;stroke-width:1px;stroke-linecap:butt;stroke-linejoin:miter;stroke-opacity:1" d="M 483.281,41.1536 492.569,22.5768 z" id="boundary" inkscape:connector-curvature="0" />
	<path style="fill:none;stroke:red;stroke-width:1px;stroke-linecap:butt;stroke-linejoin:miter;stroke-opacity:1" d="M 492.569,22.5768 507.431,7.71536 z" id="boundary" inkscape:connector-curvature="0" />
	<path style="fill:none;stroke:red;stroke-width:1px;stroke-linecap:butt;stroke-linejoin:miter;stroke-opacity:1" d="M 507.431,7.71536 526.007,4 z" id="boundary" inkscape:connector-curvature="0" />
	<path style="fill:none;stroke:red;stroke-width:1px;stroke-linecap:butt;stroke-linejoin:miter;stroke-opacity:1" d="M 526.007,4 542.727,13.2884 z" id="boundary" inkscape:connector-curvature="0" />
	<path style="fill:none;stroke:red;stroke-width:1px;stroke-linecap:butt;stroke-linejoin:miter;stroke-opacity:1" d="M 542.727,13.2884 561.303,13.2884 z" id="boundary" inkscape:connector-curvature="0" />
	<path style="fill:none;stroke:red;stroke-width:1px;stroke-linecap:butt;stroke-linejoin:miter;stroke-opacity:1" d="M 561.303,13.2884 579.88,13.2884 z" id="boundary" inkscape:connector-curvature="0" />
	<path style="fill:none;stroke:red;stroke-width:1px;stroke-linecap:butt;stroke-linejoin:miter;stroke-opacity:1" d="M 579.88,13.2884 598.457,13.2884 z" id="boundary" inkscape:connector-curvature="0" />
	<path style="fill:none;stroke:red;stroke-width:1px;stroke-linecap:butt;stroke-linejoin:miter;stroke-opacity:1" d="M 598.457,13.2884 617.034,13.2884 z" id="boundary" inkscape:connector-curvature="0" />
	<path style="fill:none;stroke:red;stroke-width:1px;stroke-linecap:butt;stroke-linejoin:miter;stroke-opacity:1" d="M 617.034,13.2884 635.61,13.2884 z" id="boundary" inkscape:connector-curvature="0" />
	<path style="fill:none;stroke:red;stroke-width:1px;stroke-linecap:butt;stroke-linejoin:miter;stroke-opacity:1" d="M 635.61,13.2884 654.187,13.2884 z" id="boundary" inkscape:connector-curvature="0" />
	<path style="fill:none;stroke:red;stroke-width:1px;stroke-linecap:butt;stroke-linejoin:miter;stroke-opacity:1" d="M 654.187,13.2884 672.764,13.2884 z" id="boundary" inkscape:connector-curvature="0" />
	<path style="fill:none;stroke:red;stroke-width:1px;stroke-linecap:butt;stroke-linejoin:miter;stroke-opacity:1" d="M 672.764,13.2884 691.341,13.2884 z" id="boundary" inkscape:connector-curvature="0" />
	<path style="fill:none;stroke:red;stroke-width:1px;stroke-linecap:butt;stroke-linejoin:miter;stroke-opacity:1" d="M 691.341,13.2884 709.918,9.57303 z" id="boundary" inkscape:connector-curvature="0" />
	<path style="fill:none;stroke:red;stroke-width:1px;stroke-linecap:butt;stroke-linejoin:miter;stroke-opacity:1" d="M 709.918,9.57303 728.494,17.0037 z" id="boundary" inkscape:connector-curvature="0" />
	<path style="fill:none;stroke:red;stroke-width:1px;stroke-linecap:butt;stroke-linejoin:miter;stroke-opacity:1" d="M 728.494,17.0037 739.64,31.8652 z" id="boundary" inkscape:connector-curvature="0" />
	<path style="fill:none;stroke:red;stroke-width:1px;stroke-linecap:butt;stroke-linejoin:miter;stroke-opacity:1" d="M 739.64,31.8652 739.64,50.4419 z" id="boundary" inkscape:connector-curvature="0" />
	<path style="fill:none;stroke:red;stroke-width:1px;stroke-linecap:butt;stroke-linejoin:miter;stroke-opacity:1" d="M 739.64,50.4419 739.64,69.0187 z" id="boundary" inkscape:connector-curvature="0" />
	<path style="fill:none;stroke:red;stroke-width:1px;stroke-linecap:butt;stroke-linejoin:miter;stroke-opacity:1" d="M 739.64,69.0187 739.64,87.5955 z" id="boundary" inkscape:connector-curvature="0" />
	<path style="fill:none;stroke:red;stroke-width:1px;stroke-linecap:butt;stroke-linejoin:miter;stroke-opacity:1" d="M 739.64,87.5955 756.36,96.8839 z" id="boundary" inkscape:connector-curvature="0" />
	<path style="fill:none;stroke:red;stroke-width:1px;stroke-linecap:butt;stroke-linejoin:miter;stroke-opacity:1" d="M 756.36,96.8839 767.506,111.745 z" id="boundary" inkscape:connector-curvature="0" />
	<path style="fill:none;stroke:red;stroke-width:1px;stroke-linecap:butt;stroke-linejoin:miter;stroke-opacity:1" d="M 767.506,111.745 776.794,128.464 z" id="boundary" inkscape:connector-curvature="0" />
	<path style="fill:none;stroke:red;stroke-width:1px;stroke-linecap:butt;stroke-linejoin:miter;stroke-opacity:1" d="M 776.794,128.464 787.94,143.326 z" id="boundary" inkscape:connector-curvature="0" />
	<path style="fill:none;stroke:red;stroke-width:1px;stroke-linecap:butt;stroke-linejoin:miter;stroke-opacity:1" d="M 787.94,143.326 802.801,156.33 z" id="boundary" inkscape:connector-curvature="0" />
	<path style="fill:none;stroke:red;stroke-width:1px;stroke-linecap:butt;stroke-linejoin:miter;stroke-opacity:1" d="M 802.801,156.33 813.948,171.191 z" id="boundary" inkscape:connector-curvature="0" />
	<path style="fill:none;stroke:red;stroke-width:1px;stroke-linecap:butt;stroke-linejoin:miter;stroke-opacity:1" d="M 813.948,171.191 823.236,187.91 z" id="boundary" inkscape:connector-curvature="0" />
	<path style="fill:none;stroke:red;stroke-width:1px;stroke-linecap:butt;stroke-linejoin:miter;stroke-opacity:1" d="M 823.236,187.91 832.524,204.629 z" id="boundary" inkscape:connector-curvature="0" />
	<path style="fill:none;stroke:red;stroke-width:1px;stroke-linecap:butt;stroke-linejoin:miter;stroke-opacity:1" d="M 832.524,204.629 851.101,208.345 z" id="boundary" inkscape:connector-curvature="0" />
	<path style="fill:none;stroke:red;stroke-width:1px;stroke-linecap:butt;stroke-linejoin:miter;stroke-opacity:1" d="M 851.101,208.345 869.678,208.345 z" id="boundary" inkscape:connector-curvature="0" />
	<path style="fill:none;stroke:red;stroke-width:1px;stroke-linecap:butt;stroke-linejoin:miter;stroke-opacity:1" d="M 869.678,208.345 888.255,208.345 z" id="boundary" inkscape:connector-curvature="0" />
	<path style="fill:none;stroke:red;stroke-width:1px;stroke-linecap:butt;stroke-linejoin:miter;stroke-opacity:1" d="M 888.255,208.345 903.116,219.491 z" id="boundary" inkscape:connector-curvature="0" />
	<path style="fill:none;stroke:red;stroke-width:1px;stroke-linecap:butt;stroke-linejoin:miter;stroke-opacity:1" d="M 903.116,219.491 916.12,234.352 z" id="boundary" inkscape:connector-curvature="0" />
	<path style="fill:none;stroke:red;stroke-width:1px;stroke-linecap:butt;stroke-linejoin:miter;stroke-opacity:1" d="M 916.12,234.352 925.408,251.071 z" id="boundary" inkscape:connector-curvature="0" />
	<path style="fill:none;stroke:red;stroke-width:1px;stroke-linecap:butt;stroke-linejoin:miter;stroke-opacity:1" d="M 925.408,251.071 925.408,269.648 z" id="boundary" inkscape:connector-curvature="0" />
	<path style="fill:none;stroke:red;stroke-width:1px;stroke-linecap:butt;stroke-linejoin:miter;stroke-opacity:1" d="M 925.408,269.648 932.839,288.225 z" id="boundary" inkscape:connector-curvature="0" />
	<path style="fill:none;stroke:red;stroke-width:1px;stroke-linecap:butt;stroke-linejoin:miter;stroke-opacity:1" d="M 932.839,288.225 951.416,295.655 z" id="boundary" inkscape:connector-curvature="0" />
	<path style="fill:none;stroke:red;stroke-width:1px;stroke-linecap:butt;stroke-linejoin:miter;stroke-opacity:1" d="M 951.416,295.655 958.846,314.232 z" id="boundary" inkscape:connector-curvature="0" />
	<path style="fill:none;stroke:red;stroke-width:1px;stroke-linecap:butt;stroke-linejoin:miter;stroke-opacity:1" d="M 958.846,314.232 977.423,321.663 z" id="boundary" inkscape:connector-curvature="0" />
	<path style="fill:none;stroke:red;stroke-width:1px;stroke-linecap:butt;stroke-linejoin:miter;stroke-opacity:1" d="M 977.423,321.663 990.427,336.524 z" id="boundary" inkscape:connector-curvature="0" />
	<path style="fill:none;stroke:red;stroke-width:1px;stroke-linecap:butt;stroke-linejoin:miter;stroke-opacity:1" d="M 134.037,316.09 130.322,338.382 z" id="boundary" inkscape:connector-curvature="0" />
	<path style="fill:none;stroke:red;stroke-width:1px;stroke-linecap:butt;stroke-linejoin:miter;stroke-opacity:1" d="M 130.322,338.382 111.745,338.382 z" id="boundary" inkscape:connector-curvature="0" />
	<path style="fill:none;stroke:red;stroke-width:1px;stroke-linecap:butt;stroke-linejoin:miter;stroke-opacity:1" d="M 111.745,338.382 93.1685,347.67 z" id="boundary" inkscape:connector-curvature="0" />
	<path style="fill:none;stroke:red;stroke-width:1px;stroke-linecap:butt;stroke-linejoin:miter;stroke-opacity:1" d="M 93.1685,347.67 74.5918,347.67 z" id="boundary" inkscape:connector-curvature="0" />
	<path style="fill:none;stroke:red;stroke-width:1px;stroke-linecap:butt;stroke-linejoin:miter;stroke-opacity:1" d="M 74.5918,347.67 56.015,356.959 z" id="boundary" inkscape:connector-curvature="0" />
	<path style="fill:none;stroke:red;stroke-width:1px;stroke-linecap:butt;stroke-linejoin:miter;stroke-opacity:1" d="M 56.015,356.959 41.1536,371.82 z" id="boundary" inkscape:connector-curvature="0" />
	<path style="fill:none;stroke:red;stroke-width:1px;stroke-linecap:butt;stroke-linejoin:miter;stroke-opacity:1" d="M 41.1536,371.82 31.8652,390.397 z" id="boundary" inkscape:connector-curvature="0" />
	<path style="fill:none;stroke:red;stroke-width:1px;stroke-linecap:butt;stroke-linejoin:miter;stroke-opacity:1" d="M 31.8652,390.397 31.8652,408.974 z" id="boundary" inkscape:connector-curvature="0" />
	<path style="fill:none;stroke:red;stroke-width:1px;stroke-linecap:butt;stroke-linejoin:miter;stroke-opacity:1" d="M 31.8652,408.974 31.8652,427.551 z" id="boundary" inkscape:connector-curvature="0" />
	<path style="fill:none;stroke:red;stroke-width:1px;stroke-linecap:butt;stroke-linejoin:miter;stroke-opacity:1" d="M 31.8652,427.551 31.8652,446.127 z" id="boundary" inkscape:connector-curvature="0" />
	<path style="fill:none;stroke:red;stroke-width:1px;stroke-linecap:butt;stroke-linejoin:miter;stroke-opacity:1" d="M 31.8652,446.127 31.8652,464.704 z" id="boundary" inkscape:connector-curvature="0" />
	<path style="fill:none;stroke:red;stroke-width:1px;stroke-linecap:butt;stroke-linejoin:miter;stroke-opacity:1" d="M 31.8652,464.704 41.1536,481.423 z" id="boundary" inkscape:connector-curvature="0" />
	<path style="fill:none;stroke:red;stroke-width:1px;stroke-linecap:butt;stroke-linejoin:miter;stroke-opacity:1" d="M 41.1536,481.423 50.4419,498.142 z" id="boundary" inkscape:connector-curvature="0" />
	<path style="fill:none;stroke:red;stroke-width:1px;stroke-linecap:butt;stroke-linejoin:miter;stroke-opacity:1" d="M 50.4419,498.142 67.161,507.431 z" id="boundary" inkscape:connector-curvature="0" />
	<path style="fill:none;stroke:red;stroke-width:1px;stroke-linecap:butt;stroke-linejoin:miter;stroke-opacity:1" d="M 67.161,507.431 85.7378,507.431 z" id="boundary" inkscape:connector-curvature="0" />
	<path style="fill:none;stroke:red;stroke-width:1px;stroke-linecap:butt;stroke-linejoin:miter;stroke-opacity:1" d="M 85.7378,507.431 104.315,507.431 z" id="boundary" inkscape:connector-curvature="0" />
	<path style="fill:none;stroke:red;stroke-width:1px;stroke-linecap:butt;stroke-linejoin:miter;stroke-opacity:1" d="M 104.315,507.431 122.891,507.431 z" id="boundary" inkscape:connector-curvature="0" />
	<path style="fill:none;stroke:red;stroke-width:1px;stroke-linecap:butt;stroke-linejoin:miter;stroke-opacity:1" d="M 122.891,507.431 141.468,507.431 z" id="boundary" inkscape:connector-curvature="0" />
	<path style="fill:none;stroke:red;stroke-width:1px;stroke-linecap:butt;stroke-linejoin:miter;stroke-opacity:1" d="M 141.468,507.431 160.045,507.431 z" id="boundary" inkscape:connector-curvature="0" />
	<path style="fill:none;stroke:red;stroke-width:1px;stroke-linecap:butt;stroke-linejoin:miter;stroke-opacity:1" d="M 160.045,507.431 178.622,507.431 z" id="boundary" inkscape:connector-curvature="0" />
	<path style="fill:none;stroke:red;stroke-width:1px;stroke-linecap:butt;stroke-linejoin:miter;stroke-opacity:1" d="M 178.622,507.431 197.199,507.431 z" id="boundary" inkscape:connector-curvature="0" />
	<path style="fill:none;stroke:red;stroke-width:1px;stroke-linecap:butt;stroke-linejoin:miter;stroke-opacity:1" d="M 197.199,507.431 215.775,503.715 z" id="boundary" inkscape:connector-curvature="0" />
	<path style="fill:none;stroke:red;stroke-width:1px;stroke-linecap:butt;stroke-linejoin:miter;stroke-opacity:1" d="M 215.775,503.715 234.352,494.427 z" id="boundary" inkscape:connector-curvature="0" />
	<path style="fill:none;stroke:red;stroke-width:1px;stroke-linecap:butt;stroke-linejoin:miter;stroke-opacity:1" d="M 234.352,494.427 247.356,479.566 z" id="boundary" inkscape:connector-curvature="0" />
	<path style="fill:none;stroke:red;stroke-width:1px;stroke-linecap:butt;stroke-linejoin:miter;stroke-opacity:1" d="M 247.356,479.566 264.075,470.277 z" id="boundary" inkscape:connector-curvature="0" />
	<path style="fill:none;stroke:red;stroke-width:1px;stroke-linecap:butt;stroke-linejoin:miter;stroke-opacity:1" d="M 264.075,470.277 282.652,470.277 z" id="boundary" inkscape:connector-curvature="0" />
	<path style="fill:none;stroke:red;stroke-width:1px;stroke-linecap:butt;stroke-linejoin:miter;stroke-opacity:1" d="M 282.652,470.277 301.228,470.277 z" id="boundary" inkscape:connector-curvature="0" />
	<path style="fill:none;stroke:red;stroke-width:1px;stroke-linecap:butt;stroke-linejoin:miter;stroke-opacity:1" d="M 301.228,470.277 319.805,470.277 z" id="boundary" inkscape:connector-curvature="0" />
	<path style="fill:none;stroke:red;stroke-width:1px;stroke-linecap:butt;stroke-linejoin:miter;stroke-opacity:1" d="M 319.805,470.277 336.524,479.566 z" id="boundary" inkscape:connector-curvature="0" />
	<path style="fill:none;stroke:red;stroke-width:1px;stroke-linecap:butt;stroke-linejoin:miter;stroke-opacity:1" d="M 336.524,479.566 353.243,488.854 z" id="boundary" inkscape:connector-curvature="0" />
	<path style="fill:none;stroke:red;stroke-width:1px;stroke-linecap:butt;stroke-linejoin:miter;stroke-opacity:1" d="M 353.243,488.854 369.963,498.142 z" id="boundary" inkscape:connector-curvature="0" />
	<path style="fill:none;stroke:red;stroke-width:1px;stroke-linecap:butt;stroke-linejoin:miter;stroke-opacity:1" d="M 369.963,498.142 388.539,498.142 z" id="boundary" inkscape:connector-curvature="0" />
	<path style="fill:none;stroke:red;stroke-width:1px;stroke-linecap:butt;stroke-linejoin:miter;stroke-opacity:1" d="M 388.539,498.142 407.116,498.142 z" id="boundary" inkscape:connector-curvature="0" />
	<path style="fill:none;stroke:red;stroke-width:1px;stroke-linecap:butt;stroke-linejoin:miter;stroke-opacity:1" d="M 407.116,498.142 425.693,498.142 z" id="boundary" inkscape:connector-curvature="0" />
	<path style="fill:none;stroke:red;stroke-width:1px;stroke-linecap:butt;stroke-linejoin:miter;stroke-opacity:1" d="M 425.693,498.142 444.27,498.142 z" id="boundary" inkscape:connector-curvature="0" />
	<path style="fill:none;stroke:red;stroke-width:1px;stroke-linecap:butt;stroke-linejoin:miter;stroke-opacity:1" d="M 444.27,498.142 460.989,507.431 z" id="boundary" inkscape:connector-curvature="0" />
	<path style="fill:none;stroke:red;stroke-width:1px;stroke-linecap:butt;stroke-linejoin:miter;stroke-opacity:1" d="M 460.989,507.431 479.566,507.431 z" id="boundary" inkscape:connector-curvature="0" />
	<path style="fill:none;stroke:red;stroke-width:1px;stroke-linecap:butt;stroke-linejoin:miter;stroke-opacity:1" d="M 479.566,507.431 498.142,507.431 z" id="boundary" inkscape:connector-curvature="0" />
	<path style="fill:none;stroke:red;stroke-width:1px;stroke-linecap:butt;stroke-linejoin:miter;stroke-opacity:1" d="M 498.142,507.431 516.719,507.431 z" id="boundary" inkscape:connector-curvature="0" />
	<path style="fill:none;stroke:red;stroke-width:1px;stroke-linecap:butt;stroke-linejoin:miter;stroke-opacity:1" d="M 516.719,507.431 535.296,507.431 z" id="boundary" inkscape:connector-curvature="0" />
	<path style="fill:none;stroke:red;stroke-width:1px;stroke-linecap:butt;stroke-linejoin:miter;stroke-opacity:1" d="M 535.296,507.431 553.873,507.431 z" id="boundary" inkscape:connector-curvature="0" />
	<path style="fill:none;stroke:red;stroke-width:1px;stroke-linecap:butt;stroke-linejoin:miter;stroke-opacity:1" d="M 553.873,507.431 572.449,507.431 z" id="boundary" inkscape:connector-curvature="0" />
	<path style="fill:none;stroke:red;stroke-width:1px;stroke-linecap:butt;stroke-linejoin:miter;stroke-opacity:1" d="M 572.449,507.431 591.026,498.142 z" id="boundary" inkscape:connector-curvature="0" />
	<path style="fill:none;stroke:red;stroke-width:1px;stroke-linecap:butt;stroke-linejoin:miter;stroke-opacity:1" d="M 591.026,498.142 609.603,488.854 z" id="boundary" inkscape:connector-curvature="0" />
	<path style="fill:none;stroke:red;stroke-width:1px;stroke-linecap:butt;stroke-linejoin:miter;stroke-opacity:1" d="M 609.603,488.854 626.322,479.566 z" id="boundary" inkscape:connector-curvature="0" />
	<path style="fill:none;stroke:red;stroke-width:1px;stroke-linecap:butt;stroke-linejoin:miter;stroke-opacity:1" d="M 626.322,479.566 644.899,479.566 z" id="boundary" inkscape:connector-curvature="0" />
	<path style="fill:none;stroke:red;stroke-width:1px;stroke-linecap:butt;stroke-linejoin:miter;stroke-opacity:1" d="M 644.899,479.566 661.618,470.277 z" id="boundary" inkscape:connector-curvature="0" />
	<path style="fill:none;stroke:red;stroke-width:1px;stroke-linecap:butt;stroke-linejoin:miter;stroke-opacity:1" d="M 661.618,470.277 680.195,470.277 z" id="boundary" inkscape:connector-curvature="0" />
	<path style="fill:none;stroke:red;stroke-width:1px;stroke-linecap:butt;stroke-linejoin:miter;stroke-opacity:1" d="M 680.195,470.277 698.772,466.562 z" id="boundary" inkscape:connector-curvature="0" />
	<path style="fill:none;stroke:red;stroke-width:1px;stroke-linecap:butt;stroke-linejoin:miter;stroke-opacity:1" d="M 698.772,466.562 717.348,457.273 z" id="boundary" inkscape:connector-curvature="0" />
	<path style="fill:none;stroke:red;stroke-width:1px;stroke-linecap:butt;stroke-linejoin:miter;stroke-opacity:1" d="M 717.348,457.273 735.925,451.7 z" id="boundary" inkscape:connector-curvature="0" />
	<path style="fill:none;stroke:red;stroke-width:1px;stroke-linecap:butt;stroke-linejoin:miter;stroke-opacity:1" d="M 735.925,451.7 754.502,451.7 z" id="boundary" inkscape:connector-curvature="0" />
	<path style="fill:none;stroke:red;stroke-width:1px;stroke-linecap:butt;stroke-linejoin:miter;stroke-opacity:1" d="M 754.502,451.7 773.079,451.7 z" id="boundary" inkscape:connector-curvature="0" />
	<path style="fill:none;stroke:red;stroke-width:1px;stroke-linecap:butt;stroke-linejoin:miter;stroke-opacity:1" d="M 773.079,451.7 791.655,451.7 z" id="boundary" inkscape:connector-curvature="0" />
	<path style="fill:none;stroke:red;stroke-width:1px;stroke-linecap:butt;stroke-linejoin:miter;stroke-opacity:1" d="M 791.655,451.7 810.232,451.7 z" id="boundary" inkscape:connector-curvature="0" />
	<path style="fill:none;stroke:red;stroke-width:1px;stroke-linecap:butt;stroke-linejoin:miter;stroke-opacity:1" d="M 810.232,451.7 812.09,470.277 z" id="boundary" inkscape:connector-curvature="0" />
	<path style="fill:none;stroke:red;stroke-width:1px;stroke-linecap:butt;stroke-linejoin:miter;stroke-opacity:1" d="M 812.09,470.277 817.663,488.854 z" id="boundary" inkscape:connector-curvature="0" />
	<path style="fill:none;stroke:red;stroke-width:1px;stroke-linecap:butt;stroke-linejoin:miter;stroke-opacity:1" d="M 817.663,488.854 826.951,505.573 z" id="boundary" inkscape:connector-curvature="0" />
	<path style="fill:none;stroke:red;stroke-width:1px;stroke-linecap:butt;stroke-linejoin:miter;stroke-opacity:1" d="M 826.951,505.573 843.67,514.861 z" id="boundary" inkscape:connector-curvature="0" />
	<path style="fill:none;stroke:red;stroke-width:1px;stroke-linecap:butt;stroke-linejoin:miter;stroke-opacity:1" d="M 843.67,514.861 862.247,516.719 z" id="boundary" inkscape:connector-curvature="0" />
	<path style="fill:none;stroke:red;stroke-width:1px;stroke-linecap:butt;stroke-linejoin:miter;stroke-opacity:1" d="M 862.247,516.719 878.966,507.431 z" id="boundary" inkscape:connector-curvature="0" />
	<path style="fill:none;stroke:red;stroke-width:1px;stroke-linecap:butt;stroke-linejoin:miter;stroke-opacity:1" d="M 878.966,507.431 897.543,507.431 z" id="boundary" inkscape:connector-curvature="0" />
	<path style="fill:none;stroke:red;stroke-width:1px;stroke-linecap:butt;stroke-linejoin:miter;stroke-opacity:1" d="M 897.543,507.431 912.404,494.427 z" id="boundary" inkscape:connector-curvature="0" />
	<path style="fill:none;stroke:red;stroke-width:1px;stroke-linecap:butt;stroke-linejoin:miter;stroke-opacity:1" d="M 912.404,494.427 925.408,479.566 z" id="boundary" inkscape:connector-curvature="0" />
	<path style="fill:none;stroke:red;stroke-width:1px;stroke-linecap:butt;stroke-linejoin:miter;stroke-opacity:1" d="M 925.408,479.566 925.408,460.989 z" id="boundary" inkscape:connector-curvature="0" />
	<path style="fill:none;stroke:red;stroke-width:1px;stroke-linecap:butt;stroke-linejoin:miter;stroke-opacity:1" d="M 925.408,460.989 925.408,442.412 z" id="boundary" inkscape:connector-curvature="0" />
	<path style="fill:none;stroke:red;stroke-width:1px;stroke-linecap:butt;stroke-linejoin:miter;stroke-opacity:1" d="M 925.408,442.412 925.408,423.835 z" id="boundary" inkscape:connector-curvature="0" />
	<path style="fill:none;stroke:red;stroke-width:1px;stroke-linecap:butt;stroke-linejoin:miter;stroke-opacity:1" d="M 925.408,423.835 925.408,405.258 z" id="boundary" inkscape:connector-curvature="0" />
	<path style="fill:none;stroke:red;stroke-width:1px;stroke-linecap:butt;stroke-linejoin:miter;stroke-opacity:1" d="M 925.408,405.258 925.408,386.682 z" id="boundary" inkscape:connector-curvature="0" />
	<path style="fill:none;stroke:red;stroke-width:1px;stroke-linecap:butt;stroke-linejoin:miter;stroke-opacity:1" d="M 925.408,386.682 943.985,386.682 z" id="boundary" inkscape:connector-curvature="0" />
	<path style="fill:none;stroke:red;stroke-width:1px;stroke-linecap:butt;stroke-linejoin:miter;stroke-opacity:1" d="M 943.985,386.682 962.562,386.682 z" id="boundary" inkscape:connector-curvature="0" />
	<path style="fill:none;stroke:red;stroke-width:1px;stroke-linecap:butt;stroke-linejoin:miter;stroke-opacity:1" d="M 962.562,386.682 981.139,377.393 z" id="boundary" inkscape:connector-curvature="0" />
	<path style="fill:none;stroke:red;stroke-width:1px;stroke-linecap:butt;stroke-linejoin:miter;stroke-opacity:1" d="M 981.139,377.393 996,364.39 z" id="boundary" inkscape:connector-curvature="0" />
	<path style="fill:none;stroke:red;stroke-width:1px;stroke-linecap:butt;stroke-linejoin:miter;stroke-opacity:1" d="M 990.427,336.524 996,364.39 z" id="boundary" inkscape:connector-curvature="0" />
	<circle cx="4" cy="213.918" r="4" fill="#0" id="circle0"/>
	<circle cx="4" cy="232.494" r="4" fill="#0" id="circle1"/>
	<circle cx="4" cy="251.071" r="4" fill="#0" id="circle2"/>
	<circle cx="4" cy="269.648" r="4" fill="#0" id="circle3"/>
	<circle cx="18.8614" cy="199.056" r="4" fill="#0" id="circle4"/>
	<circle cx="18.8614" cy="282.652" r="4" fill="#0" id="circle5"/>
	<circle cx="31.8652" cy="390.397" r="4" fill="#0" id="circle6"/>
	<circle cx="31.8652" cy="408.974" r="4" fill="#0" id="circle7"/>
	<circle cx="31.8652" cy="427.551" r="4" fill="#0" id="circle8"/>
	<circle cx="31.8652" cy="446.127" r="4" fill="#0" id="circle9"/>
	<circle cx="31.8652" cy="464.704" r="4" fill="#0" id="circle10"/>
	<circle cx="33.7228" cy="293.798" r="4" fill="#0" id="circle11"/>
	<circle cx="35.5805" cy="189.768" r="4" fill="#0" id="circle12"/>
	<circle cx="41.1536" cy="371.82" r="4" fill="#0" id="circle13"/>
	<circle cx="41.1536" cy="481.423" r="4" fill="#0" id="circle14"/>
	<circle cx="50.4419" cy="498.142" r="4" fill="#0" id="circle15"/>
	<circle cx="52.2996" cy="293.798" r="4" fill="#0" id="circle16"/>
	<circle cx="54.1573" cy="189.768" r="4" fill="#0" id="circle17"/>
	<circle cx="56.015" cy="356.959" r="4" fill="#0" id="circle18"/>
	<circle cx="67.161" cy="507.431" r="4" fill="#0" id="circle19"/>
	<circle cx="70.8764" cy="293.798" r="4" fill="#0" id="circle20"/>
	<circle cx="72.7341" cy="189.768" r="4" fill="#0" id="circle21"/>
	<circle cx="74.5918" cy="347.67" r="4" fill="#0" id="circle22"/>
	<circle cx="85.7378" cy="507.431" r="4" fill="#0" id="circle23"/>
	<circle cx="89.4532" cy="180.479" r="4" fill="#0" id="circle24"/>
	<circle cx="89.4532" cy="293.798" r="4" fill="#0" id="circle25"/>
	<circle cx="93.1685" cy="347.67" r="4" fill="#0" id="circle26"/>
	<circle cx="104.315" cy="507.431" r="4" fill="#0" id="circle27"/>
	<circle cx="108.03" cy="180.479" r="4" fill="#0" id="circle28"/>
	<circle cx="108.03" cy="293.798" r="4" fill="#0" id="circle29"/>
	<circle cx="111.745" cy="338.382" r="4" fill="#0" id="circle30"/>
	<circle cx="122.891" cy="507.431" r="4" fill="#0" id="circle31"/>
	<circle cx="124.749" cy="171.191" r="4" fill="#0" id="circle32"/>
	<circle cx="126.607" cy="297.513" r="4" fill="#0" id="circle33"/>
	<circle cx="130.322" cy="338.382" r="4" fill="#0" id="circle34"/>
	<circle cx="134.037" cy="316.09" r="4" fill="#0" id="circle35"/>
	<circle cx="141.468" cy="507.431" r="4" fill="#0" id="circle36"/>
	<circle cx="143.326" cy="171.191" r="4" fill="#0" id="circle37"/>
	<circle cx="160.045" cy="161.903" r="4" fill="#0" id="circle38"/>
	<circle cx="160.045" cy="507.431" r="4" fill="#0" id="circle39"/>
	<circle cx="178.622" cy="161.903" r="4" fill="#0" id="circle40"/>
	<circle cx="178.622" cy="507.431" r="4" fill="#0" id="circle41"/>
	<circle cx="197.199" cy="161.903" r="4" fill="#0" id="circle42"/>
	<circle cx="197.199" cy="507.431" r="4" fill="#0" id="circle43"/>
	<circle cx="213.918" cy="152.614" r="4" fill="#0" id="circle44"/>
	<circle cx="215.775" cy="503.715" r="4" fill="#0" id="circle45"/>
	<circle cx="232.494" cy="152.614" r="4" fill="#0" id="circle46"/>
	<circle cx="234.352" cy="494.427" r="4" fill="#0" id="circle47"/>
	<circle cx="247.356" cy="479.566" r="4" fill="#0" id="circle48"/>
	<circle cx="251.071" cy="152.614" r="4" fill="#0" id="circle49"/>
	<circle cx="264.075" cy="470.277" r="4" fill="#0" id="circle50"/>
	<circle cx="269.648" cy="143.326" r="4" fill="#0" id="circle51"/>
	<circle cx="282.652" cy="470.277" r="4" fill="#0" id="circle52"/>
	<circle cx="288.225" cy="143.326" r="4" fill="#0" id="circle53"/>
	<circle cx="301.228" cy="470.277" r="4" fill="#0" id="circle54"/>
	<circle cx="306.801" cy="134.037" r="4" fill="#0" id="circle55"/>
	<circle cx="319.805" cy="470.277" r="4" fill="#0" id="circle56"/>
	<circle cx="325.378" cy="134.037" r="4" fill="#0" id="circle57"/>
	<circle cx="336.524" cy="479.566" r="4" fill="#0" id="circle58"/>
	<circle cx="343.955" cy="124.749" r="4" fill="#0" id="circle59"/>
	<circle cx="353.243" cy="488.854" r="4" fill="#0" id="circle60"/>
	<circle cx="362.532" cy="124.749" r="4" fill="#0" id="circle61"/>
	<circle cx="369.963" cy="498.142" r="4" fill="#0" id="circle62"/>
	<circle cx="381.109" cy="124.749" r="4" fill="#0" id="circle63"/>
	<circle cx="388.539" cy="498.142" r="4" fill="#0" id="circle64"/>
	<circle cx="397.828" cy="115.461" r="4" fill="#0" id="circle65"/>
	<circle cx="407.116" cy="498.142" r="4" fill="#0" id="circle66"/>
	<circle cx="416.404" cy="108.03" r="4" fill="#0" id="circle67"/>
	<circle cx="425.693" cy="498.142" r="4" fill="#0" id="circle68"/>
	<circle cx="434.981" cy="106.172" r="4" fill="#0" id="circle69"/>
	<circle cx="444.27" cy="498.142" r="4" fill="#0" id="circle70"/>
	<circle cx="449.843" cy="93.1685" r="4" fill="#0" id="circle71"/>
	<circle cx="459.131" cy="74.5918" r="4" fill="#0" id="circle72"/>
	<circle cx="460.989" cy="507.431" r="4" fill="#0" id="circle73"/>
	<circle cx="473.993" cy="59.7303" r="4" fill="#0" id="circle74"/>
	<circle cx="479.566" cy="507.431" r="4" fill="#0" id="circle75"/>
	<circle cx="483.281" cy="41.1536" r="4" fill="#0" id="circle76"/>
	<circle cx="492.569" cy="22.5768" r="4" fill="#0" id="circle77"/>
	<circle cx="498.142" cy="507.431" r="4" fill="#0" id="circle78"/>
	<circle cx="507.431" cy="7.71536" r="4" fill="#0" id="circle79"/>
	<circle cx="516.719" cy="507.431" r="4" fill="#0" id="circle80"/>
	<circle cx="526.007" cy="4" r="4" fill="#0" id="circle81"/>
	<circle cx="535.296" cy="507.431" r="4" fill="#0" id="circle82"/>
	<circle cx="542.727" cy="13.2884" r="4" fill="#0" id="circle83"/>
	<circle cx="553.873" cy="507.431" r="4" fill="#0" id="circle84"/>
	<circle cx="561.303" cy="13.2884" r="4" fill="#0" id="circle85"/>
	<circle cx="572.449" cy="507.431" r="4" fill="#0" id="circle86"/>
	<circle cx="579.88" cy="13.2884" r="4" fill="#0" id="circle87"/>
	<circle cx="591.026" cy="498.142" r="4" fill="#0" id="circle88"/>
	<circle cx="598.457" cy="13.2884" r="4" fill="#0" id="circle89"/>
	<circle cx="609.603" cy="488.854" r="4" fill="#0" id="circle90"/>
	<circle cx="617.034" cy="13.2884" r="4" fill="#0" id="circle91"/>
	<circle cx="626.322" cy="479.566" r="4" fill="#0" id="circle92"/>
	<circle cx="635.61" cy="13.2884" r="4" fill="#0" id="circle93"/>
	<circle cx="644.899" cy="479.566" r="4" fill="#0" id="circle94"/>
	<circle cx="654.187" cy="13.2884" r="4" fill="#0" id="circle95"/>
	<circle cx="661.618" cy="470.277" r="4" fill="#0" id="circle96"/>
	<circle cx="672.764" cy="13.2884" r="4" fill="#0" id="circle97"/>
	<circle cx="680.195" cy="470.277" r="4" fill="#0" id="circle98"/>
	<circle cx="691.341" cy="13.2884" r="4" fill="#0" id="circle99"/>
	<circle cx="698.772" cy="466.562" r="4" fill="#0" id="circle100"/>
	<circle cx="709.918" cy="9.57303" r="4" fill="#0" id="circle101"/>
	<circle cx="717.348" cy="457.273" r="4" fill="#0" id="circle102"/>
	<circle cx="728.494" cy="17.0037" r="4" fill="#0" id="circle103"/>
	<circle cx="735.925" cy="451.7" r="4" fill="#0" id="circle104"/>
	<circle cx="739.64" cy="31.8652" r="4" fill="#0" id="circle105"/>
	<circle cx="739.64" cy="50.4419" r="4" fill="#0" id="circle106"/>
	<circle cx="739.64" cy="69.0187" r="4" fill="#0" id="circle107"/>
	<circle cx="739.64" cy="87.5955" r="4" fill="#0" id="circle108"/>
	<circle cx="754.502" cy="451.7" r="4" fill="#0" id="circle109"/>
	<circle cx="756.36" cy="96.8839" r="4" fill="#0" id="circle110"/>
	<circle cx="767.506" cy="111.745" r="4" fill="#0" id="circle111"/>
	<circle cx="773.079" cy="451.7" r="4" fill="#0" id="circle112"/>
	<circle cx="776.794" cy="128.464" r="4" fill="#0" id="circle113"/>
	<circle cx="787.94" cy="143.326" r="4" fill="#0" id="circle114"/>
	<circle cx="791.655" cy="451.7" r="4" fill="#0" id="circle115"/>
	<circle cx="802.801" cy="156.33" r="4" fill="#0" id="circle116"/>
	<circle cx="810.232" cy="451.7" r="4" fill="#0" id="circle117"/>
	<circle cx="812.09" cy="470.277" r="4" fill="#0" id="circle118"/>
	<circle cx="813.948" cy="171.191" r="4" fill="#0" id="circle119"/>
	<circle cx="817.663" cy="488.854" r="4" fill="#0" id="circle120"/>
	<circle cx="823.236" cy="187.91" r="4" fill="#0" id="circle121"/>
	<circle cx="826.951" cy="505.573" r="4" fill="#0" id="circle122"/>
	<circle cx="832.524" cy="204.629" r="4" fill="#0" id="circle123"/>
	<circle cx="843.67" cy="514.861" r="4" fill="#0" id="circle124"/>
	<circle cx="851.101" cy="208.345" r="4" fill="#0" id="circle125"/>
	<circle cx="862.247" cy="516.719" r="4" fill="#0" id="circle126"/>
	<circle cx="869.678" cy="208.345" r="4" fill="#0" id="circle127"/>
	<circle cx="878.966" cy="507.431" r="4" fill="#0" id="circle128"/>
	<circle cx="888.255" cy="208.345" r="4" fill="#0" id="circle129"/>
	<circle cx="897.543" cy="507.431" r="4" fill="#0" id="circle130"/>
	<circle cx="903.116" cy="219.491" r="4" fill="#0" id="circle131"/>
	<circle cx="912.404" cy="494.427" r="4" fill="#0" id="circle132"/>
	<circle cx="916.12" cy="234.352" r="4" fill="#0" id="circle133"/>
	<circle cx="925.408" cy="251.071" r="4" fill="#0" id="circle134"/>
	<circle cx="925.408" cy="269.648" r="4" fill="#0" id="circle135"/>
	<circle cx="925.408" cy="386.682" r="4" fill="#0" id="circle136"/>
	<circle cx="925.408" cy="405.258" r="4" fill="#0" id="circle137"/>
	<circle cx="925.408" cy="423.835" r="4" fill="#0" id="circle138"/>
	<circle cx="925.408" cy="442.412" r="4" fill="#0" id="circle139"/>
	<circle cx="925.408" cy="460.989" r="4" fill="#0" id="circle140"/>
	<circle cx="925.408" cy="479.566" r="4" fill="#0" id="circle141"/>
	<circle cx="932.839" cy="288.225" r="4" fill="#0" id="circle142"/>
	<circle cx="943.985" cy="386.682" r="4" fill="#0" id="circle143"/>
	<circle cx="951.416" cy="295.655" r="4" fill="#0" id="circle144"/>
	<circle cx="958.846" cy="314.232" r="4" fill="#0" id="circle145"/>
	<circle cx="962.562" cy="386.682" r="4" fill="#0" id="circle146"/>
	<circle cx="977.423" cy="321.663" r="4" fill="#0" id="circle147"/>
	<circle cx="981.139" cy="377.393" r="4" fill="#0" id="circle148"/>
	<circle cx="990.427" cy="336.524" r="4" fill="#0" id="circle149"/>
	<circle cx="996" cy="364.39" r="4" fill="#0" id="circle150"/>
	</g>
</svg>