<?xml version="1.0" encoding="UTF-8" standalone="no"?>
<!-- Created with CurveBenchmark -->
<svg
	xmlns:dc="http://purl.org/dc/elements/1.1/"
	xmlns:cc="http://creativecommons.org/ns#"
	xmlns:rdf="http://www.w3.org/1999/02/22-rdf-syntax-ns#"
	xmlns:svg="http://www.w3.org/2000/svg"
	xmlns="http://www.w3.org/2000/svg"
	xmlns:sodipodi="http://sodipodi.sourceforge.net/DTD/sodipodi-0.dtd"
	xmlns:inkscape="http://www.inkscape.org/namespaces/inkscape"
	width="1000"
	height="1000"
	id="svg2"
	version="1.1"
	sodipodi:docname="manifold/crawl-tree-10.png.txt">
<defs
	id="defs4" />
<metadata
	id="metadata7">
	<rdf:RDF>
		<cc:Work
			rdf:about="">
			<dc:format>image/svg+xml</dc:format>
			<dc:type
				rdf:resource="http://purl.org/dc/dcmitype/StillImage" />
			<dc:title></dc:title>
		</cc:Work>
	</rdf:RDF>
</metadata>
<g
	inkscape:label="Layer 1"
	inkscape:groupmode="layer"
	id="layer1">
	<path style="fill:none;stroke:red;stroke-width:1px;stroke-linecap:butt;stroke-linejoin:miter;stroke-opacity:1" d="M 4,427.12 4,435.449 z" id="boundary" inkscape:connector-curvature="0" />
	<path style="fill:none;stroke:red;stroke-width:1px;stroke-linecap:butt;stroke-linejoin:miter;stroke-opacity:1" d="M 4,435.449 10.6633,441.28 z" id="boundary" inkscape:connector-curvature="0" />
	<path style="fill:none;stroke:red;stroke-width:1px;stroke-linecap:butt;stroke-linejoin:miter;stroke-opacity:1" d="M 10.6633,441.28 17.3266,446.277 z" id="boundary" inkscape:connector-curvature="0" />
	<path style="fill:none;stroke:red;stroke-width:1px;stroke-linecap:butt;stroke-linejoin:miter;stroke-opacity:1" d="M 17.3266,446.277 25.6558,447.943 z" id="boundary" inkscape:connector-curvature="0" />
	<path style="fill:none;stroke:red;stroke-width:1px;stroke-linecap:butt;stroke-linejoin:miter;stroke-opacity:1" d="M 25.6558,447.943 33.9849,450.442 z" id="boundary" inkscape:connector-curvature="0" />
	<path style="fill:none;stroke:red;stroke-width:1px;stroke-linecap:butt;stroke-linejoin:miter;stroke-opacity:1" d="M 33.9849,450.442 42.314,450.442 z" id="boundary" inkscape:connector-curvature="0" />
	<path style="fill:none;stroke:red;stroke-width:1px;stroke-linecap:butt;stroke-linejoin:miter;stroke-opacity:1" d="M 42.314,450.442 50.6432,450.442 z" id="boundary" inkscape:connector-curvature="0" />
	<path style="fill:none;stroke:red;stroke-width:1px;stroke-linecap:butt;stroke-linejoin:miter;stroke-opacity:1" d="M 50.6432,450.442 58.9723,452.107 z" id="boundary" inkscape:connector-curvature="0" />
	<path style="fill:none;stroke:red;stroke-width:1px;stroke-linecap:butt;stroke-linejoin:miter;stroke-opacity:1" d="M 58.9723,452.107 67.3014,454.606 z" id="boundary" inkscape:connector-curvature="0" />
	<path style="fill:none;stroke:red;stroke-width:1px;stroke-linecap:butt;stroke-linejoin:miter;stroke-opacity:1" d="M 67.3014,454.606 75.6306,454.606 z" id="boundary" inkscape:connector-curvature="0" />
	<path style="fill:none;stroke:red;stroke-width:1px;stroke-linecap:butt;stroke-linejoin:miter;stroke-opacity:1" d="M 75.6306,454.606 83.9597,454.606 z" id="boundary" inkscape:connector-curvature="0" />
	<path style="fill:none;stroke:red;stroke-width:1px;stroke-linecap:butt;stroke-linejoin:miter;stroke-opacity:1" d="M 83.9597,454.606 92.2888,454.606 z" id="boundary" inkscape:connector-curvature="0" />
	<path style="fill:none;stroke:red;stroke-width:1px;stroke-linecap:butt;stroke-linejoin:miter;stroke-opacity:1" d="M 92.2888,454.606 100.618,454.606 z" id="boundary" inkscape:connector-curvature="0" />
	<path style="fill:none;stroke:red;stroke-width:1px;stroke-linecap:butt;stroke-linejoin:miter;stroke-opacity:1" d="M 100.618,454.606 108.947,454.606 z" id="boundary" inkscape:connector-curvature="0" />
	<path style="fill:none;stroke:red;stroke-width:1px;stroke-linecap:butt;stroke-linejoin:miter;stroke-opacity:1" d="M 108.947,454.606 116.443,458.771 z" id="boundary" inkscape:connector-curvature="0" />
	<path style="fill:none;stroke:red;stroke-width:1px;stroke-linecap:butt;stroke-linejoin:miter;stroke-opacity:1" d="M 116.443,458.771 124.772,458.771 z" id="boundary" inkscape:connector-curvature="0" />
	<path style="fill:none;stroke:red;stroke-width:1px;stroke-linecap:butt;stroke-linejoin:miter;stroke-opacity:1" d="M 124.772,458.771 133.102,458.771 z" id="boundary" inkscape:connector-curvature="0" />
	<path style="fill:none;stroke:red;stroke-width:1px;stroke-linecap:butt;stroke-linejoin:miter;stroke-opacity:1" d="M 133.102,458.771 141.431,458.771 z" id="boundary" inkscape:connector-curvature="0" />
	<path style="fill:none;stroke:red;stroke-width:1px;stroke-linecap:butt;stroke-linejoin:miter;stroke-opacity:1" d="M 141.431,458.771 149.76,458.771 z" id="boundary" inkscape:connector-curvature="0" />
	<path style="fill:none;stroke:red;stroke-width:1px;stroke-linecap:butt;stroke-linejoin:miter;stroke-opacity:1" d="M 149.76,458.771 158.089,456.272 z" id="boundary" inkscape:connector-curvature="0" />
	<path style="fill:none;stroke:red;stroke-width:1px;stroke-linecap:butt;stroke-linejoin:miter;stroke-opacity:1" d="M 158.089,456.272 166.418,452.107 z" id="boundary" inkscape:connector-curvature="0" />
	<path style="fill:none;stroke:red;stroke-width:1px;stroke-linecap:butt;stroke-linejoin:miter;stroke-opacity:1" d="M 166.418,452.107 174.747,450.442 z" id="boundary" inkscape:connector-curvature="0" />
	<path style="fill:none;stroke:red;stroke-width:1px;stroke-linecap:butt;stroke-linejoin:miter;stroke-opacity:1" d="M 174.747,450.442 183.076,450.442 z" id="boundary" inkscape:connector-curvature="0" />
	<path style="fill:none;stroke:red;stroke-width:1px;stroke-linecap:butt;stroke-linejoin:miter;stroke-opacity:1" d="M 183.076,450.442 190.573,446.277 z" id="boundary" inkscape:connector-curvature="0" />
	<path style="fill:none;stroke:red;stroke-width:1px;stroke-linecap:butt;stroke-linejoin:miter;stroke-opacity:1" d="M 190.573,446.277 198.902,444.611 z" id="boundary" inkscape:connector-curvature="0" />
	<path style="fill:none;stroke:red;stroke-width:1px;stroke-linecap:butt;stroke-linejoin:miter;stroke-opacity:1" d="M 198.902,444.611 207.231,442.113 z" id="boundary" inkscape:connector-curvature="0" />
	<path style="fill:none;stroke:red;stroke-width:1px;stroke-linecap:butt;stroke-linejoin:miter;stroke-opacity:1" d="M 207.231,442.113 215.56,440.447 z" id="boundary" inkscape:connector-curvature="0" />
	<path style="fill:none;stroke:red;stroke-width:1px;stroke-linecap:butt;stroke-linejoin:miter;stroke-opacity:1" d="M 215.56,440.447 223.889,437.948 z" id="boundary" inkscape:connector-curvature="0" />
	<path style="fill:none;stroke:red;stroke-width:1px;stroke-linecap:butt;stroke-linejoin:miter;stroke-opacity:1" d="M 223.889,437.948 231.385,442.113 z" id="boundary" inkscape:connector-curvature="0" />
	<path style="fill:none;stroke:red;stroke-width:1px;stroke-linecap:butt;stroke-linejoin:miter;stroke-opacity:1" d="M 231.385,442.113 239.715,442.113 z" id="boundary" inkscape:connector-curvature="0" />
	<path style="fill:none;stroke:red;stroke-width:1px;stroke-linecap:butt;stroke-linejoin:miter;stroke-opacity:1" d="M 239.715,442.113 248.044,445.444 z" id="boundary" inkscape:connector-curvature="0" />
	<path style="fill:none;stroke:red;stroke-width:1px;stroke-linecap:butt;stroke-linejoin:miter;stroke-opacity:1" d="M 248.044,445.444 254.707,450.442 z" id="boundary" inkscape:connector-curvature="0" />
	<path style="fill:none;stroke:red;stroke-width:1px;stroke-linecap:butt;stroke-linejoin:miter;stroke-opacity:1" d="M 254.707,450.442 263.036,452.107 z" id="boundary" inkscape:connector-curvature="0" />
	<path style="fill:none;stroke:red;stroke-width:1px;stroke-linecap:butt;stroke-linejoin:miter;stroke-opacity:1" d="M 263.036,452.107 271.365,454.606 z" id="boundary" inkscape:connector-curvature="0" />
	<path style="fill:none;stroke:red;stroke-width:1px;stroke-linecap:butt;stroke-linejoin:miter;stroke-opacity:1" d="M 271.365,454.606 279.694,454.606 z" id="boundary" inkscape:connector-curvature="0" />
	<path style="fill:none;stroke:red;stroke-width:1px;stroke-linecap:butt;stroke-linejoin:miter;stroke-opacity:1" d="M 279.694,454.606 288.024,456.272 z" id="boundary" inkscape:connector-curvature="0" />
	<path style="fill:none;stroke:red;stroke-width:1px;stroke-linecap:butt;stroke-linejoin:miter;stroke-opacity:1" d="M 288.024,456.272 296.353,458.771 z" id="boundary" inkscape:connector-curvature="0" />
	<path style="fill:none;stroke:red;stroke-width:1px;stroke-linecap:butt;stroke-linejoin:miter;stroke-opacity:1" d="M 296.353,458.771 304.682,458.771 z" id="boundary" inkscape:connector-curvature="0" />
	<path style="fill:none;stroke:red;stroke-width:1px;stroke-linecap:butt;stroke-linejoin:miter;stroke-opacity:1" d="M 304.682,458.771 313.011,458.771 z" id="boundary" inkscape:connector-curvature="0" />
	<path style="fill:none;stroke:red;stroke-width:1px;stroke-linecap:butt;stroke-linejoin:miter;stroke-opacity:1" d="M 313.011,458.771 321.34,458.771 z" id="boundary" inkscape:connector-curvature="0" />
	<path style="fill:none;stroke:red;stroke-width:1px;stroke-linecap:butt;stroke-linejoin:miter;stroke-opacity:1" d="M 321.34,458.771 329.669,458.771 z" id="boundary" inkscape:connector-curvature="0" />
	<path style="fill:none;stroke:red;stroke-width:1px;stroke-linecap:butt;stroke-linejoin:miter;stroke-opacity:1" d="M 329.669,458.771 337.998,458.771 z" id="boundary" inkscape:connector-curvature="0" />
	<path style="fill:none;stroke:red;stroke-width:1px;stroke-linecap:butt;stroke-linejoin:miter;stroke-opacity:1" d="M 337.998,458.771 346.327,458.771 z" id="boundary" inkscape:connector-curvature="0" />
	<path style="fill:none;stroke:red;stroke-width:1px;stroke-linecap:butt;stroke-linejoin:miter;stroke-opacity:1" d="M 346.327,458.771 354.657,458.771 z" id="boundary" inkscape:connector-curvature="0" />
	<path style="fill:none;stroke:red;stroke-width:1px;stroke-linecap:butt;stroke-linejoin:miter;stroke-opacity:1" d="M 354.657,458.771 362.986,458.771 z" id="boundary" inkscape:connector-curvature="0" />
	<path style="fill:none;stroke:red;stroke-width:1px;stroke-linecap:butt;stroke-linejoin:miter;stroke-opacity:1" d="M 362.986,458.771 371.315,454.606 z" id="boundary" inkscape:connector-curvature="0" />
	<path style="fill:none;stroke:red;stroke-width:1px;stroke-linecap:butt;stroke-linejoin:miter;stroke-opacity:1" d="M 371.315,454.606 379.644,454.606 z" id="boundary" inkscape:connector-curvature="0" />
	<path style="fill:none;stroke:red;stroke-width:1px;stroke-linecap:butt;stroke-linejoin:miter;stroke-opacity:1" d="M 379.644,454.606 382.976,462.935 z" id="boundary" inkscape:connector-curvature="0" />
	<path style="fill:none;stroke:red;stroke-width:1px;stroke-linecap:butt;stroke-linejoin:miter;stroke-opacity:1" d="M 382.976,462.935 382.976,471.264 z" id="boundary" inkscape:connector-curvature="0" />
	<path style="fill:none;stroke:red;stroke-width:1px;stroke-linecap:butt;stroke-linejoin:miter;stroke-opacity:1" d="M 382.976,471.264 382.976,479.594 z" id="boundary" inkscape:connector-curvature="0" />
	<path style="fill:none;stroke:red;stroke-width:1px;stroke-linecap:butt;stroke-linejoin:miter;stroke-opacity:1" d="M 382.976,479.594 382.976,487.923 z" id="boundary" inkscape:connector-curvature="0" />
	<path style="fill:none;stroke:red;stroke-width:1px;stroke-linecap:butt;stroke-linejoin:miter;stroke-opacity:1" d="M 382.976,487.923 382.976,496.252 z" id="boundary" inkscape:connector-curvature="0" />
	<path style="fill:none;stroke:red;stroke-width:1px;stroke-linecap:butt;stroke-linejoin:miter;stroke-opacity:1" d="M 4,427.12 10.6633,420.457 z" id="boundary" inkscape:connector-curvature="0" />
	<path style="fill:none;stroke:red;stroke-width:1px;stroke-linecap:butt;stroke-linejoin:miter;stroke-opacity:1" d="M 10.6633,420.457 17.3266,413.793 z" id="boundary" inkscape:connector-curvature="0" />
	<path style="fill:none;stroke:red;stroke-width:1px;stroke-linecap:butt;stroke-linejoin:miter;stroke-opacity:1" d="M 17.3266,413.793 25.6558,412.128 z" id="boundary" inkscape:connector-curvature="0" />
	<path style="fill:none;stroke:red;stroke-width:1px;stroke-linecap:butt;stroke-linejoin:miter;stroke-opacity:1" d="M 25.6558,412.128 33.152,407.963 z" id="boundary" inkscape:connector-curvature="0" />
	<path style="fill:none;stroke:red;stroke-width:1px;stroke-linecap:butt;stroke-linejoin:miter;stroke-opacity:1" d="M 33.152,407.963 40.6482,403.798 z" id="boundary" inkscape:connector-curvature="0" />
	<path style="fill:none;stroke:red;stroke-width:1px;stroke-linecap:butt;stroke-linejoin:miter;stroke-opacity:1" d="M 40.6482,403.798 46.4786,397.135 z" id="boundary" inkscape:connector-curvature="0" />
	<path style="fill:none;stroke:red;stroke-width:1px;stroke-linecap:butt;stroke-linejoin:miter;stroke-opacity:1" d="M 46.4786,397.135 54.8077,392.971 z" id="boundary" inkscape:connector-curvature="0" />
	<path style="fill:none;stroke:red;stroke-width:1px;stroke-linecap:butt;stroke-linejoin:miter;stroke-opacity:1" d="M 54.8077,392.971 63.1369,391.305 z" id="boundary" inkscape:connector-curvature="0" />
	<path style="fill:none;stroke:red;stroke-width:1px;stroke-linecap:butt;stroke-linejoin:miter;stroke-opacity:1" d="M 63.1369,391.305 70.6331,385.474 z" id="boundary" inkscape:connector-curvature="0" />
	<path style="fill:none;stroke:red;stroke-width:1px;stroke-linecap:butt;stroke-linejoin:miter;stroke-opacity:1" d="M 70.6331,385.474 77.2964,378.811 z" id="boundary" inkscape:connector-curvature="0" />
	<path style="fill:none;stroke:red;stroke-width:1px;stroke-linecap:butt;stroke-linejoin:miter;stroke-opacity:1" d="M 77.2964,378.811 85.6255,374.647 z" id="boundary" inkscape:connector-curvature="0" />
	<path style="fill:none;stroke:red;stroke-width:1px;stroke-linecap:butt;stroke-linejoin:miter;stroke-opacity:1" d="M 85.6255,374.647 93.1217,370.482 z" id="boundary" inkscape:connector-curvature="0" />
	<path style="fill:none;stroke:red;stroke-width:1px;stroke-linecap:butt;stroke-linejoin:miter;stroke-opacity:1" d="M 93.1217,370.482 99.7851,364.652 z" id="boundary" inkscape:connector-curvature="0" />
	<path style="fill:none;stroke:red;stroke-width:1px;stroke-linecap:butt;stroke-linejoin:miter;stroke-opacity:1" d="M 99.7851,364.652 108.114,360.487 z" id="boundary" inkscape:connector-curvature="0" />
	<path style="fill:none;stroke:red;stroke-width:1px;stroke-linecap:butt;stroke-linejoin:miter;stroke-opacity:1" d="M 108.114,360.487 114.777,353.824 z" id="boundary" inkscape:connector-curvature="0" />
	<path style="fill:none;stroke:red;stroke-width:1px;stroke-linecap:butt;stroke-linejoin:miter;stroke-opacity:1" d="M 114.777,353.824 122.274,349.659 z" id="boundary" inkscape:connector-curvature="0" />
	<path style="fill:none;stroke:red;stroke-width:1px;stroke-linecap:butt;stroke-linejoin:miter;stroke-opacity:1" d="M 122.274,349.659 128.937,343.829 z" id="boundary" inkscape:connector-curvature="0" />
	<path style="fill:none;stroke:red;stroke-width:1px;stroke-linecap:butt;stroke-linejoin:miter;stroke-opacity:1" d="M 128.937,343.829 135.6,337.165 z" id="boundary" inkscape:connector-curvature="0" />
	<path style="fill:none;stroke:red;stroke-width:1px;stroke-linecap:butt;stroke-linejoin:miter;stroke-opacity:1" d="M 135.6,337.165 142.264,330.502 z" id="boundary" inkscape:connector-curvature="0" />
	<path style="fill:none;stroke:red;stroke-width:1px;stroke-linecap:butt;stroke-linejoin:miter;stroke-opacity:1" d="M 142.264,330.502 148.927,324.672 z" id="boundary" inkscape:connector-curvature="0" />
	<path style="fill:none;stroke:red;stroke-width:1px;stroke-linecap:butt;stroke-linejoin:miter;stroke-opacity:1" d="M 148.927,324.672 153.092,317.175 z" id="boundary" inkscape:connector-curvature="0" />
	<path style="fill:none;stroke:red;stroke-width:1px;stroke-linecap:butt;stroke-linejoin:miter;stroke-opacity:1" d="M 153.092,317.175 141.431,317.175 z" id="boundary" inkscape:connector-curvature="0" />
	<path style="fill:none;stroke:red;stroke-width:1px;stroke-linecap:butt;stroke-linejoin:miter;stroke-opacity:1" d="M 141.431,317.175 133.935,321.34 z" id="boundary" inkscape:connector-curvature="0" />
	<path style="fill:none;stroke:red;stroke-width:1px;stroke-linecap:butt;stroke-linejoin:miter;stroke-opacity:1" d="M 133.935,321.34 125.605,321.34 z" id="boundary" inkscape:connector-curvature="0" />
	<path style="fill:none;stroke:red;stroke-width:1px;stroke-linecap:butt;stroke-linejoin:miter;stroke-opacity:1" d="M 125.605,321.34 117.276,321.34 z" id="boundary" inkscape:connector-curvature="0" />
	<path style="fill:none;stroke:red;stroke-width:1px;stroke-linecap:butt;stroke-linejoin:miter;stroke-opacity:1" d="M 117.276,321.34 110.613,316.343 z" id="boundary" inkscape:connector-curvature="0" />
	<path style="fill:none;stroke:red;stroke-width:1px;stroke-linecap:butt;stroke-linejoin:miter;stroke-opacity:1" d="M 110.613,316.343 103.95,310.512 z" id="boundary" inkscape:connector-curvature="0" />
	<path style="fill:none;stroke:red;stroke-width:1px;stroke-linecap:butt;stroke-linejoin:miter;stroke-opacity:1" d="M 103.95,310.512 103.95,302.183 z" id="boundary" inkscape:connector-curvature="0" />
	<path style="fill:none;stroke:red;stroke-width:1px;stroke-linecap:butt;stroke-linejoin:miter;stroke-opacity:1" d="M 103.95,302.183 110.613,295.52 z" id="boundary" inkscape:connector-curvature="0" />
	<path style="fill:none;stroke:red;stroke-width:1px;stroke-linecap:butt;stroke-linejoin:miter;stroke-opacity:1" d="M 110.613,295.52 118.109,291.355 z" id="boundary" inkscape:connector-curvature="0" />
	<path style="fill:none;stroke:red;stroke-width:1px;stroke-linecap:butt;stroke-linejoin:miter;stroke-opacity:1" d="M 118.109,291.355 126.438,288.024 z" id="boundary" inkscape:connector-curvature="0" />
	<path style="fill:none;stroke:red;stroke-width:1px;stroke-linecap:butt;stroke-linejoin:miter;stroke-opacity:1" d="M 126.438,288.024 134.767,287.191 z" id="boundary" inkscape:connector-curvature="0" />
	<path style="fill:none;stroke:red;stroke-width:1px;stroke-linecap:butt;stroke-linejoin:miter;stroke-opacity:1" d="M 134.767,287.191 143.097,287.191 z" id="boundary" inkscape:connector-curvature="0" />
	<path style="fill:none;stroke:red;stroke-width:1px;stroke-linecap:butt;stroke-linejoin:miter;stroke-opacity:1" d="M 143.097,287.191 150.593,283.026 z" id="boundary" inkscape:connector-curvature="0" />
	<path style="fill:none;stroke:red;stroke-width:1px;stroke-linecap:butt;stroke-linejoin:miter;stroke-opacity:1" d="M 150.593,283.026 158.922,283.026 z" id="boundary" inkscape:connector-curvature="0" />
	<path style="fill:none;stroke:red;stroke-width:1px;stroke-linecap:butt;stroke-linejoin:miter;stroke-opacity:1" d="M 158.922,283.026 167.251,280.527 z" id="boundary" inkscape:connector-curvature="0" />
	<path style="fill:none;stroke:red;stroke-width:1px;stroke-linecap:butt;stroke-linejoin:miter;stroke-opacity:1" d="M 167.251,280.527 175.58,278.861 z" id="boundary" inkscape:connector-curvature="0" />
	<path style="fill:none;stroke:red;stroke-width:1px;stroke-linecap:butt;stroke-linejoin:miter;stroke-opacity:1" d="M 175.58,278.861 183.076,274.697 z" id="boundary" inkscape:connector-curvature="0" />
	<path style="fill:none;stroke:red;stroke-width:1px;stroke-linecap:butt;stroke-linejoin:miter;stroke-opacity:1" d="M 183.076,274.697 191.406,274.697 z" id="boundary" inkscape:connector-curvature="0" />
	<path style="fill:none;stroke:red;stroke-width:1px;stroke-linecap:butt;stroke-linejoin:miter;stroke-opacity:1" d="M 191.406,274.697 199.735,273.031 z" id="boundary" inkscape:connector-curvature="0" />
	<path style="fill:none;stroke:red;stroke-width:1px;stroke-linecap:butt;stroke-linejoin:miter;stroke-opacity:1" d="M 199.735,273.031 208.064,268.866 z" id="boundary" inkscape:connector-curvature="0" />
	<path style="fill:none;stroke:red;stroke-width:1px;stroke-linecap:butt;stroke-linejoin:miter;stroke-opacity:1" d="M 208.064,268.866 216.393,266.368 z" id="boundary" inkscape:connector-curvature="0" />
	<path style="fill:none;stroke:red;stroke-width:1px;stroke-linecap:butt;stroke-linejoin:miter;stroke-opacity:1" d="M 216.393,266.368 224.722,266.368 z" id="boundary" inkscape:connector-curvature="0" />
	<path style="fill:none;stroke:red;stroke-width:1px;stroke-linecap:butt;stroke-linejoin:miter;stroke-opacity:1" d="M 224.722,266.368 232.218,262.203 z" id="boundary" inkscape:connector-curvature="0" />
	<path style="fill:none;stroke:red;stroke-width:1px;stroke-linecap:butt;stroke-linejoin:miter;stroke-opacity:1" d="M 232.218,262.203 240.547,262.203 z" id="boundary" inkscape:connector-curvature="0" />
	<path style="fill:none;stroke:red;stroke-width:1px;stroke-linecap:butt;stroke-linejoin:miter;stroke-opacity:1" d="M 240.547,262.203 248.044,258.039 z" id="boundary" inkscape:connector-curvature="0" />
	<path style="fill:none;stroke:red;stroke-width:1px;stroke-linecap:butt;stroke-linejoin:miter;stroke-opacity:1" d="M 248.044,258.039 256.373,258.039 z" id="boundary" inkscape:connector-curvature="0" />
	<path style="fill:none;stroke:red;stroke-width:1px;stroke-linecap:butt;stroke-linejoin:miter;stroke-opacity:1" d="M 256.373,258.039 263.036,251.375 z" id="boundary" inkscape:connector-curvature="0" />
	<path style="fill:none;stroke:red;stroke-width:1px;stroke-linecap:butt;stroke-linejoin:miter;stroke-opacity:1" d="M 263.036,251.375 269.699,245.545 z" id="boundary" inkscape:connector-curvature="0" />
	<path style="fill:none;stroke:red;stroke-width:1px;stroke-linecap:butt;stroke-linejoin:miter;stroke-opacity:1" d="M 269.699,245.545 277.196,241.38 z" id="boundary" inkscape:connector-curvature="0" />
	<path style="fill:none;stroke:red;stroke-width:1px;stroke-linecap:butt;stroke-linejoin:miter;stroke-opacity:1" d="M 277.196,241.38 283.859,234.717 z" id="boundary" inkscape:connector-curvature="0" />
	<path style="fill:none;stroke:red;stroke-width:1px;stroke-linecap:butt;stroke-linejoin:miter;stroke-opacity:1" d="M 283.859,234.717 283.026,223.056 z" id="boundary" inkscape:connector-curvature="0" />
	<path style="fill:none;stroke:red;stroke-width:1px;stroke-linecap:butt;stroke-linejoin:miter;stroke-opacity:1" d="M 283.026,223.056 291.355,225.555 z" id="boundary" inkscape:connector-curvature="0" />
	<path style="fill:none;stroke:red;stroke-width:1px;stroke-linecap:butt;stroke-linejoin:miter;stroke-opacity:1" d="M 382.976,496.252 378.811,510.411 z" id="boundary" inkscape:connector-curvature="0" />
	<path style="fill:none;stroke:red;stroke-width:1px;stroke-linecap:butt;stroke-linejoin:miter;stroke-opacity:1" d="M 378.811,510.411 378.811,518.741 z" id="boundary" inkscape:connector-curvature="0" />
	<path style="fill:none;stroke:red;stroke-width:1px;stroke-linecap:butt;stroke-linejoin:miter;stroke-opacity:1" d="M 378.811,518.741 378.811,527.07 z" id="boundary" inkscape:connector-curvature="0" />
	<path style="fill:none;stroke:red;stroke-width:1px;stroke-linecap:butt;stroke-linejoin:miter;stroke-opacity:1" d="M 378.811,527.07 378.811,535.399 z" id="boundary" inkscape:connector-curvature="0" />
	<path style="fill:none;stroke:red;stroke-width:1px;stroke-linecap:butt;stroke-linejoin:miter;stroke-opacity:1" d="M 378.811,535.399 382.976,542.895 z" id="boundary" inkscape:connector-curvature="0" />
	<path style="fill:none;stroke:red;stroke-width:1px;stroke-linecap:butt;stroke-linejoin:miter;stroke-opacity:1" d="M 382.976,542.895 388.806,549.558 z" id="boundary" inkscape:connector-curvature="0" />
	<path style="fill:none;stroke:red;stroke-width:1px;stroke-linecap:butt;stroke-linejoin:miter;stroke-opacity:1" d="M 388.806,549.558 397.135,550.391 z" id="boundary" inkscape:connector-curvature="0" />
	<path style="fill:none;stroke:red;stroke-width:1px;stroke-linecap:butt;stroke-linejoin:miter;stroke-opacity:1" d="M 397.135,550.391 405.464,550.391 z" id="boundary" inkscape:connector-curvature="0" />
	<path style="fill:none;stroke:red;stroke-width:1px;stroke-linecap:butt;stroke-linejoin:miter;stroke-opacity:1" d="M 405.464,550.391 413.793,550.391 z" id="boundary" inkscape:connector-curvature="0" />
	<path style="fill:none;stroke:red;stroke-width:1px;stroke-linecap:butt;stroke-linejoin:miter;stroke-opacity:1" d="M 413.793,550.391 422.123,550.391 z" id="boundary" inkscape:connector-curvature="0" />
	<path style="fill:none;stroke:red;stroke-width:1px;stroke-linecap:butt;stroke-linejoin:miter;stroke-opacity:1" d="M 422.123,550.391 430.452,550.391 z" id="boundary" inkscape:connector-curvature="0" />
	<path style="fill:none;stroke:red;stroke-width:1px;stroke-linecap:butt;stroke-linejoin:miter;stroke-opacity:1" d="M 430.452,550.391 438.781,550.391 z" id="boundary" inkscape:connector-curvature="0" />
	<path style="fill:none;stroke:red;stroke-width:1px;stroke-linecap:butt;stroke-linejoin:miter;stroke-opacity:1" d="M 438.781,550.391 447.11,550.391 z" id="boundary" inkscape:connector-curvature="0" />
	<path style="fill:none;stroke:red;stroke-width:1px;stroke-linecap:butt;stroke-linejoin:miter;stroke-opacity:1" d="M 447.11,550.391 455.439,550.391 z" id="boundary" inkscape:connector-curvature="0" />
	<path style="fill:none;stroke:red;stroke-width:1px;stroke-linecap:butt;stroke-linejoin:miter;stroke-opacity:1" d="M 455.439,550.391 463.768,550.391 z" id="boundary" inkscape:connector-curvature="0" />
	<path style="fill:none;stroke:red;stroke-width:1px;stroke-linecap:butt;stroke-linejoin:miter;stroke-opacity:1" d="M 463.768,550.391 472.097,550.391 z" id="boundary" inkscape:connector-curvature="0" />
	<path style="fill:none;stroke:red;stroke-width:1px;stroke-linecap:butt;stroke-linejoin:miter;stroke-opacity:1" d="M 472.097,550.391 480.427,550.391 z" id="boundary" inkscape:connector-curvature="0" />
	<path style="fill:none;stroke:red;stroke-width:1px;stroke-linecap:butt;stroke-linejoin:miter;stroke-opacity:1" d="M 480.427,550.391 488.756,550.391 z" id="boundary" inkscape:connector-curvature="0" />
	<path style="fill:none;stroke:red;stroke-width:1px;stroke-linecap:butt;stroke-linejoin:miter;stroke-opacity:1" d="M 488.756,550.391 497.085,550.391 z" id="boundary" inkscape:connector-curvature="0" />
	<path style="fill:none;stroke:red;stroke-width:1px;stroke-linecap:butt;stroke-linejoin:miter;stroke-opacity:1" d="M 497.085,550.391 505.414,550.391 z" id="boundary" inkscape:connector-curvature="0" />
	<path style="fill:none;stroke:red;stroke-width:1px;stroke-linecap:butt;stroke-linejoin:miter;stroke-opacity:1" d="M 505.414,550.391 513.743,550.391 z" id="boundary" inkscape:connector-curvature="0" />
	<path style="fill:none;stroke:red;stroke-width:1px;stroke-linecap:butt;stroke-linejoin:miter;stroke-opacity:1" d="M 513.743,550.391 522.072,550.391 z" id="boundary" inkscape:connector-curvature="0" />
	<path style="fill:none;stroke:red;stroke-width:1px;stroke-linecap:butt;stroke-linejoin:miter;stroke-opacity:1" d="M 522.072,550.391 530.401,550.391 z" id="boundary" inkscape:connector-curvature="0" />
	<path style="fill:none;stroke:red;stroke-width:1px;stroke-linecap:butt;stroke-linejoin:miter;stroke-opacity:1" d="M 530.401,550.391 538.73,550.391 z" id="boundary" inkscape:connector-curvature="0" />
	<path style="fill:none;stroke:red;stroke-width:1px;stroke-linecap:butt;stroke-linejoin:miter;stroke-opacity:1" d="M 538.73,550.391 547.06,550.391 z" id="boundary" inkscape:connector-curvature="0" />
	<path style="fill:none;stroke:red;stroke-width:1px;stroke-linecap:butt;stroke-linejoin:miter;stroke-opacity:1" d="M 547.06,550.391 555.389,550.391 z" id="boundary" inkscape:connector-curvature="0" />
	<path style="fill:none;stroke:red;stroke-width:1px;stroke-linecap:butt;stroke-linejoin:miter;stroke-opacity:1" d="M 555.389,550.391 563.718,550.391 z" id="boundary" inkscape:connector-curvature="0" />
	<path style="fill:none;stroke:red;stroke-width:1px;stroke-linecap:butt;stroke-linejoin:miter;stroke-opacity:1" d="M 563.718,550.391 572.047,550.391 z" id="boundary" inkscape:connector-curvature="0" />
	<path style="fill:none;stroke:red;stroke-width:1px;stroke-linecap:butt;stroke-linejoin:miter;stroke-opacity:1" d="M 572.047,550.391 580.376,550.391 z" id="boundary" inkscape:connector-curvature="0" />
	<path style="fill:none;stroke:red;stroke-width:1px;stroke-linecap:butt;stroke-linejoin:miter;stroke-opacity:1" d="M 580.376,550.391 588.705,550.391 z" id="boundary" inkscape:connector-curvature="0" />
	<path style="fill:none;stroke:red;stroke-width:1px;stroke-linecap:butt;stroke-linejoin:miter;stroke-opacity:1" d="M 588.705,550.391 597.034,550.391 z" id="boundary" inkscape:connector-curvature="0" />
	<path style="fill:none;stroke:red;stroke-width:1px;stroke-linecap:butt;stroke-linejoin:miter;stroke-opacity:1" d="M 597.034,550.391 605.364,550.391 z" id="boundary" inkscape:connector-curvature="0" />
	<path style="fill:none;stroke:red;stroke-width:1px;stroke-linecap:butt;stroke-linejoin:miter;stroke-opacity:1" d="M 605.364,550.391 613.693,550.391 z" id="boundary" inkscape:connector-curvature="0" />
	<path style="fill:none;stroke:red;stroke-width:1px;stroke-linecap:butt;stroke-linejoin:miter;stroke-opacity:1" d="M 613.693,550.391 622.022,550.391 z" id="boundary" inkscape:connector-curvature="0" />
	<path style="fill:none;stroke:red;stroke-width:1px;stroke-linecap:butt;stroke-linejoin:miter;stroke-opacity:1" d="M 622.022,550.391 630.351,550.391 z" id="boundary" inkscape:connector-curvature="0" />
	<path style="fill:none;stroke:red;stroke-width:1px;stroke-linecap:butt;stroke-linejoin:miter;stroke-opacity:1" d="M 630.351,550.391 638.68,550.391 z" id="boundary" inkscape:connector-curvature="0" />
	<path style="fill:none;stroke:red;stroke-width:1px;stroke-linecap:butt;stroke-linejoin:miter;stroke-opacity:1" d="M 638.68,550.391 647.009,550.391 z" id="boundary" inkscape:connector-curvature="0" />
	<path style="fill:none;stroke:red;stroke-width:1px;stroke-linecap:butt;stroke-linejoin:miter;stroke-opacity:1" d="M 647.009,550.391 655.338,550.391 z" id="boundary" inkscape:connector-curvature="0" />
	<path style="fill:none;stroke:red;stroke-width:1px;stroke-linecap:butt;stroke-linejoin:miter;stroke-opacity:1" d="M 655.338,550.391 663.668,550.391 z" id="boundary" inkscape:connector-curvature="0" />
	<path style="fill:none;stroke:red;stroke-width:1px;stroke-linecap:butt;stroke-linejoin:miter;stroke-opacity:1" d="M 663.668,550.391 671.997,550.391 z" id="boundary" inkscape:connector-curvature="0" />
	<path style="fill:none;stroke:red;stroke-width:1px;stroke-linecap:butt;stroke-linejoin:miter;stroke-opacity:1" d="M 671.997,550.391 679.493,546.227 z" id="boundary" inkscape:connector-curvature="0" />
	<path style="fill:none;stroke:red;stroke-width:1px;stroke-linecap:butt;stroke-linejoin:miter;stroke-opacity:1" d="M 679.493,546.227 686.156,540.396 z" id="boundary" inkscape:connector-curvature="0" />
	<path style="fill:none;stroke:red;stroke-width:1px;stroke-linecap:butt;stroke-linejoin:miter;stroke-opacity:1" d="M 686.156,540.396 691.987,532.067 z" id="boundary" inkscape:connector-curvature="0" />
	<path style="fill:none;stroke:red;stroke-width:1px;stroke-linecap:butt;stroke-linejoin:miter;stroke-opacity:1" d="M 691.987,532.067 691.987,523.738 z" id="boundary" inkscape:connector-curvature="0" />
	<path style="fill:none;stroke:red;stroke-width:1px;stroke-linecap:butt;stroke-linejoin:miter;stroke-opacity:1" d="M 691.987,523.738 691.987,515.409 z" id="boundary" inkscape:connector-curvature="0" />
	<path style="fill:none;stroke:red;stroke-width:1px;stroke-linecap:butt;stroke-linejoin:miter;stroke-opacity:1" d="M 691.987,515.409 691.987,507.08 z" id="boundary" inkscape:connector-curvature="0" />
	<path style="fill:none;stroke:red;stroke-width:1px;stroke-linecap:butt;stroke-linejoin:miter;stroke-opacity:1" d="M 691.987,507.08 687.822,499.584 z" id="boundary" inkscape:connector-curvature="0" />
	<path style="fill:none;stroke:red;stroke-width:1px;stroke-linecap:butt;stroke-linejoin:miter;stroke-opacity:1" d="M 687.822,499.584 687.822,491.254 z" id="boundary" inkscape:connector-curvature="0" />
	<path style="fill:none;stroke:red;stroke-width:1px;stroke-linecap:butt;stroke-linejoin:miter;stroke-opacity:1" d="M 687.822,491.254 683.657,483.758 z" id="boundary" inkscape:connector-curvature="0" />
	<path style="fill:none;stroke:red;stroke-width:1px;stroke-linecap:butt;stroke-linejoin:miter;stroke-opacity:1" d="M 683.657,483.758 683.657,475.429 z" id="boundary" inkscape:connector-curvature="0" />
	<path style="fill:none;stroke:red;stroke-width:1px;stroke-linecap:butt;stroke-linejoin:miter;stroke-opacity:1" d="M 683.657,475.429 683.657,467.1 z" id="boundary" inkscape:connector-curvature="0" />
	<path style="fill:none;stroke:red;stroke-width:1px;stroke-linecap:butt;stroke-linejoin:miter;stroke-opacity:1" d="M 683.657,467.1 691.987,467.1 z" id="boundary" inkscape:connector-curvature="0" />
	<path style="fill:none;stroke:red;stroke-width:1px;stroke-linecap:butt;stroke-linejoin:miter;stroke-opacity:1" d="M 691.987,467.1 700.316,467.1 z" id="boundary" inkscape:connector-curvature="0" />
	<path style="fill:none;stroke:red;stroke-width:1px;stroke-linecap:butt;stroke-linejoin:miter;stroke-opacity:1" d="M 700.316,467.1 707.812,471.264 z" id="boundary" inkscape:connector-curvature="0" />
	<path style="fill:none;stroke:red;stroke-width:1px;stroke-linecap:butt;stroke-linejoin:miter;stroke-opacity:1" d="M 707.812,471.264 716.141,471.264 z" id="boundary" inkscape:connector-curvature="0" />
	<path style="fill:none;stroke:red;stroke-width:1px;stroke-linecap:butt;stroke-linejoin:miter;stroke-opacity:1" d="M 716.141,471.264 723.637,475.429 z" id="boundary" inkscape:connector-curvature="0" />
	<path style="fill:none;stroke:red;stroke-width:1px;stroke-linecap:butt;stroke-linejoin:miter;stroke-opacity:1" d="M 723.637,475.429 731.966,475.429 z" id="boundary" inkscape:connector-curvature="0" />
	<path style="fill:none;stroke:red;stroke-width:1px;stroke-linecap:butt;stroke-linejoin:miter;stroke-opacity:1" d="M 731.966,475.429 740.296,475.429 z" id="boundary" inkscape:connector-curvature="0" />
	<path style="fill:none;stroke:red;stroke-width:1px;stroke-linecap:butt;stroke-linejoin:miter;stroke-opacity:1" d="M 740.296,475.429 748.625,475.429 z" id="boundary" inkscape:connector-curvature="0" />
	<path style="fill:none;stroke:red;stroke-width:1px;stroke-linecap:butt;stroke-linejoin:miter;stroke-opacity:1" d="M 748.625,475.429 756.121,479.594 z" id="boundary" inkscape:connector-curvature="0" />
	<path style="fill:none;stroke:red;stroke-width:1px;stroke-linecap:butt;stroke-linejoin:miter;stroke-opacity:1" d="M 756.121,479.594 764.45,479.594 z" id="boundary" inkscape:connector-curvature="0" />
	<path style="fill:none;stroke:red;stroke-width:1px;stroke-linecap:butt;stroke-linejoin:miter;stroke-opacity:1" d="M 764.45,479.594 772.779,479.594 z" id="boundary" inkscape:connector-curvature="0" />
	<path style="fill:none;stroke:red;stroke-width:1px;stroke-linecap:butt;stroke-linejoin:miter;stroke-opacity:1" d="M 772.779,479.594 781.108,478.761 z" id="boundary" inkscape:connector-curvature="0" />
	<path style="fill:none;stroke:red;stroke-width:1px;stroke-linecap:butt;stroke-linejoin:miter;stroke-opacity:1" d="M 781.108,478.761 789.437,475.429 z" id="boundary" inkscape:connector-curvature="0" />
	<path style="fill:none;stroke:red;stroke-width:1px;stroke-linecap:butt;stroke-linejoin:miter;stroke-opacity:1" d="M 789.437,475.429 796.934,471.264 z" id="boundary" inkscape:connector-curvature="0" />
	<path style="fill:none;stroke:red;stroke-width:1px;stroke-linecap:butt;stroke-linejoin:miter;stroke-opacity:1" d="M 796.934,471.264 804.43,467.1 z" id="boundary" inkscape:connector-curvature="0" />
	<path style="fill:none;stroke:red;stroke-width:1px;stroke-linecap:butt;stroke-linejoin:miter;stroke-opacity:1" d="M 804.43,467.1 811.093,461.27 z" id="boundary" inkscape:connector-curvature="0" />
	<path style="fill:none;stroke:red;stroke-width:1px;stroke-linecap:butt;stroke-linejoin:miter;stroke-opacity:1" d="M 811.093,461.27 819.422,457.105 z" id="boundary" inkscape:connector-curvature="0" />
	<path style="fill:none;stroke:red;stroke-width:1px;stroke-linecap:butt;stroke-linejoin:miter;stroke-opacity:1" d="M 819.422,457.105 825.253,450.442 z" id="boundary" inkscape:connector-curvature="0" />
	<path style="fill:none;stroke:red;stroke-width:1px;stroke-linecap:butt;stroke-linejoin:miter;stroke-opacity:1" d="M 825.253,450.442 833.582,446.277 z" id="boundary" inkscape:connector-curvature="0" />
	<path style="fill:none;stroke:red;stroke-width:1px;stroke-linecap:butt;stroke-linejoin:miter;stroke-opacity:1" d="M 833.582,446.277 841.911,446.277 z" id="boundary" inkscape:connector-curvature="0" />
	<path style="fill:none;stroke:red;stroke-width:1px;stroke-linecap:butt;stroke-linejoin:miter;stroke-opacity:1" d="M 841.911,446.277 850.24,446.277 z" id="boundary" inkscape:connector-curvature="0" />
	<path style="fill:none;stroke:red;stroke-width:1px;stroke-linecap:butt;stroke-linejoin:miter;stroke-opacity:1" d="M 850.24,446.277 858.569,447.943 z" id="boundary" inkscape:connector-curvature="0" />
	<path style="fill:none;stroke:red;stroke-width:1px;stroke-linecap:butt;stroke-linejoin:miter;stroke-opacity:1" d="M 858.569,447.943 866.898,450.442 z" id="boundary" inkscape:connector-curvature="0" />
	<path style="fill:none;stroke:red;stroke-width:1px;stroke-linecap:butt;stroke-linejoin:miter;stroke-opacity:1" d="M 866.898,450.442 875.228,450.442 z" id="boundary" inkscape:connector-curvature="0" />
	<path style="fill:none;stroke:red;stroke-width:1px;stroke-linecap:butt;stroke-linejoin:miter;stroke-opacity:1" d="M 875.228,450.442 882.724,454.606 z" id="boundary" inkscape:connector-curvature="0" />
	<path style="fill:none;stroke:red;stroke-width:1px;stroke-linecap:butt;stroke-linejoin:miter;stroke-opacity:1" d="M 882.724,454.606 891.053,454.606 z" id="boundary" inkscape:connector-curvature="0" />
	<path style="fill:none;stroke:red;stroke-width:1px;stroke-linecap:butt;stroke-linejoin:miter;stroke-opacity:1" d="M 891.053,454.606 899.382,454.606 z" id="boundary" inkscape:connector-curvature="0" />
	<path style="fill:none;stroke:red;stroke-width:1px;stroke-linecap:butt;stroke-linejoin:miter;stroke-opacity:1" d="M 899.382,454.606 907.711,454.606 z" id="boundary" inkscape:connector-curvature="0" />
	<path style="fill:none;stroke:red;stroke-width:1px;stroke-linecap:butt;stroke-linejoin:miter;stroke-opacity:1" d="M 907.711,454.606 915.207,458.771 z" id="boundary" inkscape:connector-curvature="0" />
	<path style="fill:none;stroke:red;stroke-width:1px;stroke-linecap:butt;stroke-linejoin:miter;stroke-opacity:1" d="M 915.207,458.771 923.537,458.771 z" id="boundary" inkscape:connector-curvature="0" />
	<path style="fill:none;stroke:red;stroke-width:1px;stroke-linecap:butt;stroke-linejoin:miter;stroke-opacity:1" d="M 923.537,458.771 931.866,458.771 z" id="boundary" inkscape:connector-curvature="0" />
	<path style="fill:none;stroke:red;stroke-width:1px;stroke-linecap:butt;stroke-linejoin:miter;stroke-opacity:1" d="M 931.866,458.771 940.195,458.771 z" id="boundary" inkscape:connector-curvature="0" />
	<path style="fill:none;stroke:red;stroke-width:1px;stroke-linecap:butt;stroke-linejoin:miter;stroke-opacity:1" d="M 940.195,458.771 947.691,462.935 z" id="boundary" inkscape:connector-curvature="0" />
	<path style="fill:none;stroke:red;stroke-width:1px;stroke-linecap:butt;stroke-linejoin:miter;stroke-opacity:1" d="M 947.691,462.935 956.02,462.935 z" id="boundary" inkscape:connector-curvature="0" />
	<path style="fill:none;stroke:red;stroke-width:1px;stroke-linecap:butt;stroke-linejoin:miter;stroke-opacity:1" d="M 956.02,462.935 964.349,462.935 z" id="boundary" inkscape:connector-curvature="0" />
	<path style="fill:none;stroke:red;stroke-width:1px;stroke-linecap:butt;stroke-linejoin:miter;stroke-opacity:1" d="M 964.349,462.935 972.678,462.935 z" id="boundary" inkscape:connector-curvature="0" />
	<path style="fill:none;stroke:red;stroke-width:1px;stroke-linecap:butt;stroke-linejoin:miter;stroke-opacity:1" d="M 972.678,462.935 980.175,458.771 z" id="boundary" inkscape:connector-curvature="0" />
	<path style="fill:none;stroke:red;stroke-width:1px;stroke-linecap:butt;stroke-linejoin:miter;stroke-opacity:1" d="M 980.175,458.771 987.671,454.606 z" id="boundary" inkscape:connector-curvature="0" />
	<path style="fill:none;stroke:red;stroke-width:1px;stroke-linecap:butt;stroke-linejoin:miter;stroke-opacity:1" d="M 987.671,454.606 994.334,448.776 z" id="boundary" inkscape:connector-curvature="0" />
	<path style="fill:none;stroke:red;stroke-width:1px;stroke-linecap:butt;stroke-linejoin:miter;stroke-opacity:1" d="M 994.334,448.776 996,440.447 z" id="boundary" inkscape:connector-curvature="0" />
	<path style="fill:none;stroke:red;stroke-width:1px;stroke-linecap:butt;stroke-linejoin:miter;stroke-opacity:1" d="M 996,440.447 990.17,433.783 z" id="boundary" inkscape:connector-curvature="0" />
	<path style="fill:none;stroke:red;stroke-width:1px;stroke-linecap:butt;stroke-linejoin:miter;stroke-opacity:1" d="M 990.17,433.783 983.506,428.786 z" id="boundary" inkscape:connector-curvature="0" />
	<path style="fill:none;stroke:red;stroke-width:1px;stroke-linecap:butt;stroke-linejoin:miter;stroke-opacity:1" d="M 983.506,428.786 975.177,427.12 z" id="boundary" inkscape:connector-curvature="0" />
	<path style="fill:none;stroke:red;stroke-width:1px;stroke-linecap:butt;stroke-linejoin:miter;stroke-opacity:1" d="M 975.177,427.12 966.848,424.621 z" id="boundary" inkscape:connector-curvature="0" />
	<path style="fill:none;stroke:red;stroke-width:1px;stroke-linecap:butt;stroke-linejoin:miter;stroke-opacity:1" d="M 966.848,424.621 961.018,417.958 z" id="boundary" inkscape:connector-curvature="0" />
	<path style="fill:none;stroke:red;stroke-width:1px;stroke-linecap:butt;stroke-linejoin:miter;stroke-opacity:1" d="M 961.018,417.958 953.521,413.793 z" id="boundary" inkscape:connector-curvature="0" />
	<path style="fill:none;stroke:red;stroke-width:1px;stroke-linecap:butt;stroke-linejoin:miter;stroke-opacity:1" d="M 953.521,413.793 946.858,407.963 z" id="boundary" inkscape:connector-curvature="0" />
	<path style="fill:none;stroke:red;stroke-width:1px;stroke-linecap:butt;stroke-linejoin:miter;stroke-opacity:1" d="M 946.858,407.963 939.362,403.798 z" id="boundary" inkscape:connector-curvature="0" />
	<path style="fill:none;stroke:red;stroke-width:1px;stroke-linecap:butt;stroke-linejoin:miter;stroke-opacity:1" d="M 939.362,403.798 931.033,403.798 z" id="boundary" inkscape:connector-curvature="0" />
	<path style="fill:none;stroke:red;stroke-width:1px;stroke-linecap:butt;stroke-linejoin:miter;stroke-opacity:1" d="M 931.033,403.798 924.369,397.968 z" id="boundary" inkscape:connector-curvature="0" />
	<path style="fill:none;stroke:red;stroke-width:1px;stroke-linecap:butt;stroke-linejoin:miter;stroke-opacity:1" d="M 924.369,397.968 918.539,391.305 z" id="boundary" inkscape:connector-curvature="0" />
	<path style="fill:none;stroke:red;stroke-width:1px;stroke-linecap:butt;stroke-linejoin:miter;stroke-opacity:1" d="M 918.539,391.305 911.876,385.474 z" id="boundary" inkscape:connector-curvature="0" />
	<path style="fill:none;stroke:red;stroke-width:1px;stroke-linecap:butt;stroke-linejoin:miter;stroke-opacity:1" d="M 911.876,385.474 906.045,378.811 z" id="boundary" inkscape:connector-curvature="0" />
	<path style="fill:none;stroke:red;stroke-width:1px;stroke-linecap:butt;stroke-linejoin:miter;stroke-opacity:1" d="M 906.045,378.811 899.382,372.981 z" id="boundary" inkscape:connector-curvature="0" />
	<path style="fill:none;stroke:red;stroke-width:1px;stroke-linecap:butt;stroke-linejoin:miter;stroke-opacity:1" d="M 899.382,372.981 891.886,368.816 z" id="boundary" inkscape:connector-curvature="0" />
	<path style="fill:none;stroke:red;stroke-width:1px;stroke-linecap:butt;stroke-linejoin:miter;stroke-opacity:1" d="M 891.886,368.816 887.721,361.32 z" id="boundary" inkscape:connector-curvature="0" />
	<path style="fill:none;stroke:red;stroke-width:1px;stroke-linecap:butt;stroke-linejoin:miter;stroke-opacity:1" d="M 887.721,361.32 883.557,353.824 z" id="boundary" inkscape:connector-curvature="0" />
	<path style="fill:none;stroke:red;stroke-width:1px;stroke-linecap:butt;stroke-linejoin:miter;stroke-opacity:1" d="M 883.557,353.824 879.392,346.327 z" id="boundary" inkscape:connector-curvature="0" />
	<path style="fill:none;stroke:red;stroke-width:1px;stroke-linecap:butt;stroke-linejoin:miter;stroke-opacity:1" d="M 879.392,346.327 887.721,346.327 z" id="boundary" inkscape:connector-curvature="0" />
	<path style="fill:none;stroke:red;stroke-width:1px;stroke-linecap:butt;stroke-linejoin:miter;stroke-opacity:1" d="M 887.721,346.327 896.05,346.327 z" id="boundary" inkscape:connector-curvature="0" />
	<path style="fill:none;stroke:red;stroke-width:1px;stroke-linecap:butt;stroke-linejoin:miter;stroke-opacity:1" d="M 896.05,346.327 904.38,346.327 z" id="boundary" inkscape:connector-curvature="0" />
	<path style="fill:none;stroke:red;stroke-width:1px;stroke-linecap:butt;stroke-linejoin:miter;stroke-opacity:1" d="M 904.38,346.327 912.709,342.163 z" id="boundary" inkscape:connector-curvature="0" />
	<path style="fill:none;stroke:red;stroke-width:1px;stroke-linecap:butt;stroke-linejoin:miter;stroke-opacity:1" d="M 912.709,342.163 919.372,336.332 z" id="boundary" inkscape:connector-curvature="0" />
	<path style="fill:none;stroke:red;stroke-width:1px;stroke-linecap:butt;stroke-linejoin:miter;stroke-opacity:1" d="M 919.372,336.332 916.04,323.006 z" id="boundary" inkscape:connector-curvature="0" />
	<path style="fill:none;stroke:red;stroke-width:1px;stroke-linecap:butt;stroke-linejoin:miter;stroke-opacity:1" d="M 916.04,323.006 910.21,316.343 z" id="boundary" inkscape:connector-curvature="0" />
	<path style="fill:none;stroke:red;stroke-width:1px;stroke-linecap:butt;stroke-linejoin:miter;stroke-opacity:1" d="M 910.21,316.343 901.881,316.343 z" id="boundary" inkscape:connector-curvature="0" />
	<path style="fill:none;stroke:red;stroke-width:1px;stroke-linecap:butt;stroke-linejoin:miter;stroke-opacity:1" d="M 901.881,316.343 893.552,316.343 z" id="boundary" inkscape:connector-curvature="0" />
	<path style="fill:none;stroke:red;stroke-width:1px;stroke-linecap:butt;stroke-linejoin:miter;stroke-opacity:1" d="M 893.552,316.343 886.055,312.178 z" id="boundary" inkscape:connector-curvature="0" />
	<path style="fill:none;stroke:red;stroke-width:1px;stroke-linecap:butt;stroke-linejoin:miter;stroke-opacity:1" d="M 886.055,312.178 877.726,312.178 z" id="boundary" inkscape:connector-curvature="0" />
	<path style="fill:none;stroke:red;stroke-width:1px;stroke-linecap:butt;stroke-linejoin:miter;stroke-opacity:1" d="M 877.726,312.178 869.397,308.846 z" id="boundary" inkscape:connector-curvature="0" />
	<path style="fill:none;stroke:red;stroke-width:1px;stroke-linecap:butt;stroke-linejoin:miter;stroke-opacity:1" d="M 869.397,308.846 861.068,308.013 z" id="boundary" inkscape:connector-curvature="0" />
	<path style="fill:none;stroke:red;stroke-width:1px;stroke-linecap:butt;stroke-linejoin:miter;stroke-opacity:1" d="M 861.068,308.013 854.405,303.016 z" id="boundary" inkscape:connector-curvature="0" />
	<path style="fill:none;stroke:red;stroke-width:1px;stroke-linecap:butt;stroke-linejoin:miter;stroke-opacity:1" d="M 854.405,303.016 848.574,296.353 z" id="boundary" inkscape:connector-curvature="0" />
	<path style="fill:none;stroke:red;stroke-width:1px;stroke-linecap:butt;stroke-linejoin:miter;stroke-opacity:1" d="M 848.574,296.353 841.911,290.522 z" id="boundary" inkscape:connector-curvature="0" />
	<path style="fill:none;stroke:red;stroke-width:1px;stroke-linecap:butt;stroke-linejoin:miter;stroke-opacity:1" d="M 841.911,290.522 836.081,283.859 z" id="boundary" inkscape:connector-curvature="0" />
	<path style="fill:none;stroke:red;stroke-width:1px;stroke-linecap:butt;stroke-linejoin:miter;stroke-opacity:1" d="M 836.081,283.859 829.417,278.029 z" id="boundary" inkscape:connector-curvature="0" />
	<path style="fill:none;stroke:red;stroke-width:1px;stroke-linecap:butt;stroke-linejoin:miter;stroke-opacity:1" d="M 829.417,278.029 823.587,271.365 z" id="boundary" inkscape:connector-curvature="0" />
	<path style="fill:none;stroke:red;stroke-width:1px;stroke-linecap:butt;stroke-linejoin:miter;stroke-opacity:1" d="M 823.587,271.365 816.924,265.535 z" id="boundary" inkscape:connector-curvature="0" />
	<path style="fill:none;stroke:red;stroke-width:1px;stroke-linecap:butt;stroke-linejoin:miter;stroke-opacity:1" d="M 816.924,265.535 812.759,258.039 z" id="boundary" inkscape:connector-curvature="0" />
	<path style="fill:none;stroke:red;stroke-width:1px;stroke-linecap:butt;stroke-linejoin:miter;stroke-opacity:1" d="M 812.759,258.039 808.594,250.542 z" id="boundary" inkscape:connector-curvature="0" />
	<path style="fill:none;stroke:red;stroke-width:1px;stroke-linecap:butt;stroke-linejoin:miter;stroke-opacity:1" d="M 808.594,250.542 816.924,250.542 z" id="boundary" inkscape:connector-curvature="0" />
	<path style="fill:none;stroke:red;stroke-width:1px;stroke-linecap:butt;stroke-linejoin:miter;stroke-opacity:1" d="M 816.924,250.542 825.253,246.378 z" id="boundary" inkscape:connector-curvature="0" />
	<path style="fill:none;stroke:red;stroke-width:1px;stroke-linecap:butt;stroke-linejoin:miter;stroke-opacity:1" d="M 825.253,246.378 831.916,240.547 z" id="boundary" inkscape:connector-curvature="0" />
	<path style="fill:none;stroke:red;stroke-width:1px;stroke-linecap:butt;stroke-linejoin:miter;stroke-opacity:1" d="M 831.916,240.547 833.582,232.218 z" id="boundary" inkscape:connector-curvature="0" />
	<path style="fill:none;stroke:red;stroke-width:1px;stroke-linecap:butt;stroke-linejoin:miter;stroke-opacity:1" d="M 833.582,232.218 827.751,225.555 z" id="boundary" inkscape:connector-curvature="0" />
	<path style="fill:none;stroke:red;stroke-width:1px;stroke-linecap:butt;stroke-linejoin:miter;stroke-opacity:1" d="M 827.751,225.555 821.088,220.558 z" id="boundary" inkscape:connector-curvature="0" />
	<path style="fill:none;stroke:red;stroke-width:1px;stroke-linecap:butt;stroke-linejoin:miter;stroke-opacity:1" d="M 821.088,220.558 812.759,218.892 z" id="boundary" inkscape:connector-curvature="0" />
	<path style="fill:none;stroke:red;stroke-width:1px;stroke-linecap:butt;stroke-linejoin:miter;stroke-opacity:1" d="M 812.759,218.892 804.43,216.393 z" id="boundary" inkscape:connector-curvature="0" />
	<path style="fill:none;stroke:red;stroke-width:1px;stroke-linecap:butt;stroke-linejoin:miter;stroke-opacity:1" d="M 804.43,216.393 796.934,212.228 z" id="boundary" inkscape:connector-curvature="0" />
	<path style="fill:none;stroke:red;stroke-width:1px;stroke-linecap:butt;stroke-linejoin:miter;stroke-opacity:1" d="M 796.934,212.228 789.437,208.064 z" id="boundary" inkscape:connector-curvature="0" />
	<path style="fill:none;stroke:red;stroke-width:1px;stroke-linecap:butt;stroke-linejoin:miter;stroke-opacity:1" d="M 789.437,208.064 781.108,204.732 z" id="boundary" inkscape:connector-curvature="0" />
	<path style="fill:none;stroke:red;stroke-width:1px;stroke-linecap:butt;stroke-linejoin:miter;stroke-opacity:1" d="M 781.108,204.732 774.445,199.735 z" id="boundary" inkscape:connector-curvature="0" />
	<path style="fill:none;stroke:red;stroke-width:1px;stroke-linecap:butt;stroke-linejoin:miter;stroke-opacity:1" d="M 774.445,199.735 766.949,195.57 z" id="boundary" inkscape:connector-curvature="0" />
	<path style="fill:none;stroke:red;stroke-width:1px;stroke-linecap:butt;stroke-linejoin:miter;stroke-opacity:1" d="M 766.949,195.57 758.62,195.57 z" id="boundary" inkscape:connector-curvature="0" />
	<path style="fill:none;stroke:red;stroke-width:1px;stroke-linecap:butt;stroke-linejoin:miter;stroke-opacity:1" d="M 758.62,195.57 753.622,188.907 z" id="boundary" inkscape:connector-curvature="0" />
	<path style="fill:none;stroke:red;stroke-width:1px;stroke-linecap:butt;stroke-linejoin:miter;stroke-opacity:1" d="M 753.622,188.907 745.293,185.575 z" id="boundary" inkscape:connector-curvature="0" />
	<path style="fill:none;stroke:red;stroke-width:1px;stroke-linecap:butt;stroke-linejoin:miter;stroke-opacity:1" d="M 745.293,185.575 739.463,178.912 z" id="boundary" inkscape:connector-curvature="0" />
	<path style="fill:none;stroke:red;stroke-width:1px;stroke-linecap:butt;stroke-linejoin:miter;stroke-opacity:1" d="M 739.463,178.912 731.966,174.747 z" id="boundary" inkscape:connector-curvature="0" />
	<path style="fill:none;stroke:red;stroke-width:1px;stroke-linecap:butt;stroke-linejoin:miter;stroke-opacity:1" d="M 731.966,174.747 727.802,167.251 z" id="boundary" inkscape:connector-curvature="0" />
	<path style="fill:none;stroke:red;stroke-width:1px;stroke-linecap:butt;stroke-linejoin:miter;stroke-opacity:1" d="M 727.802,167.251 721.139,161.421 z" id="boundary" inkscape:connector-curvature="0" />
	<path style="fill:none;stroke:red;stroke-width:1px;stroke-linecap:butt;stroke-linejoin:miter;stroke-opacity:1" d="M 721.139,161.421 715.308,154.757 z" id="boundary" inkscape:connector-curvature="0" />
	<path style="fill:none;stroke:red;stroke-width:1px;stroke-linecap:butt;stroke-linejoin:miter;stroke-opacity:1" d="M 715.308,154.757 708.645,148.927 z" id="boundary" inkscape:connector-curvature="0" />
	<path style="fill:none;stroke:red;stroke-width:1px;stroke-linecap:butt;stroke-linejoin:miter;stroke-opacity:1" d="M 708.645,148.927 702.814,142.264 z" id="boundary" inkscape:connector-curvature="0" />
	<path style="fill:none;stroke:red;stroke-width:1px;stroke-linecap:butt;stroke-linejoin:miter;stroke-opacity:1" d="M 702.814,142.264 696.151,137.266 z" id="boundary" inkscape:connector-curvature="0" />
	<path style="fill:none;stroke:red;stroke-width:1px;stroke-linecap:butt;stroke-linejoin:miter;stroke-opacity:1" d="M 696.151,137.266 691.987,129.77 z" id="boundary" inkscape:connector-curvature="0" />
	<path style="fill:none;stroke:red;stroke-width:1px;stroke-linecap:butt;stroke-linejoin:miter;stroke-opacity:1" d="M 691.987,129.77 698.65,123.94 z" id="boundary" inkscape:connector-curvature="0" />
	<path style="fill:none;stroke:red;stroke-width:1px;stroke-linecap:butt;stroke-linejoin:miter;stroke-opacity:1" d="M 698.65,123.94 704.48,115.61 z" id="boundary" inkscape:connector-curvature="0" />
	<path style="fill:none;stroke:red;stroke-width:1px;stroke-linecap:butt;stroke-linejoin:miter;stroke-opacity:1" d="M 704.48,115.61 700.316,108.114 z" id="boundary" inkscape:connector-curvature="0" />
	<path style="fill:none;stroke:red;stroke-width:1px;stroke-linecap:butt;stroke-linejoin:miter;stroke-opacity:1" d="M 700.316,108.114 695.318,101.451 z" id="boundary" inkscape:connector-curvature="0" />
	<path style="fill:none;stroke:red;stroke-width:1px;stroke-linecap:butt;stroke-linejoin:miter;stroke-opacity:1" d="M 695.318,101.451 686.989,99.7851 z" id="boundary" inkscape:connector-curvature="0" />
	<path style="fill:none;stroke:red;stroke-width:1px;stroke-linecap:butt;stroke-linejoin:miter;stroke-opacity:1" d="M 686.989,99.7851 679.493,95.6205 z" id="boundary" inkscape:connector-curvature="0" />
	<path style="fill:none;stroke:red;stroke-width:1px;stroke-linecap:butt;stroke-linejoin:miter;stroke-opacity:1" d="M 679.493,95.6205 671.164,95.6205 z" id="boundary" inkscape:connector-curvature="0" />
	<path style="fill:none;stroke:red;stroke-width:1px;stroke-linecap:butt;stroke-linejoin:miter;stroke-opacity:1" d="M 671.164,95.6205 663.668,91.4559 z" id="boundary" inkscape:connector-curvature="0" />
	<path style="fill:none;stroke:red;stroke-width:1px;stroke-linecap:butt;stroke-linejoin:miter;stroke-opacity:1" d="M 663.668,91.4559 656.171,87.2914 z" id="boundary" inkscape:connector-curvature="0" />
	<path style="fill:none;stroke:red;stroke-width:1px;stroke-linecap:butt;stroke-linejoin:miter;stroke-opacity:1" d="M 656.171,87.2914 648.675,83.1268 z" id="boundary" inkscape:connector-curvature="0" />
	<path style="fill:none;stroke:red;stroke-width:1px;stroke-linecap:butt;stroke-linejoin:miter;stroke-opacity:1" d="M 648.675,83.1268 640.346,79.7951 z" id="boundary" inkscape:connector-curvature="0" />
	<path style="fill:none;stroke:red;stroke-width:1px;stroke-linecap:butt;stroke-linejoin:miter;stroke-opacity:1" d="M 640.346,79.7951 632.017,78.9622 z" id="boundary" inkscape:connector-curvature="0" />
	<path style="fill:none;stroke:red;stroke-width:1px;stroke-linecap:butt;stroke-linejoin:miter;stroke-opacity:1" d="M 632.017,78.9622 625.353,73.1318 z" id="boundary" inkscape:connector-curvature="0" />
	<path style="fill:none;stroke:red;stroke-width:1px;stroke-linecap:butt;stroke-linejoin:miter;stroke-opacity:1" d="M 625.353,73.1318 617.024,70.6331 z" id="boundary" inkscape:connector-curvature="0" />
	<path style="fill:none;stroke:red;stroke-width:1px;stroke-linecap:butt;stroke-linejoin:miter;stroke-opacity:1" d="M 617.024,70.6331 611.194,63.9698 z" id="boundary" inkscape:connector-curvature="0" />
	<path style="fill:none;stroke:red;stroke-width:1px;stroke-linecap:butt;stroke-linejoin:miter;stroke-opacity:1" d="M 611.194,63.9698 603.698,59.8052 z" id="boundary" inkscape:connector-curvature="0" />
	<path style="fill:none;stroke:red;stroke-width:1px;stroke-linecap:butt;stroke-linejoin:miter;stroke-opacity:1" d="M 603.698,59.8052 597.034,53.9748 z" id="boundary" inkscape:connector-curvature="0" />
	<path style="fill:none;stroke:red;stroke-width:1px;stroke-linecap:butt;stroke-linejoin:miter;stroke-opacity:1" d="M 597.034,53.9748 589.538,49.8102 z" id="boundary" inkscape:connector-curvature="0" />
	<path style="fill:none;stroke:red;stroke-width:1px;stroke-linecap:butt;stroke-linejoin:miter;stroke-opacity:1" d="M 589.538,49.8102 585.374,42.314 z" id="boundary" inkscape:connector-curvature="0" />
	<path style="fill:none;stroke:red;stroke-width:1px;stroke-linecap:butt;stroke-linejoin:miter;stroke-opacity:1" d="M 585.374,42.314 579.543,35.6507 z" id="boundary" inkscape:connector-curvature="0" />
	<path style="fill:none;stroke:red;stroke-width:1px;stroke-linecap:butt;stroke-linejoin:miter;stroke-opacity:1" d="M 579.543,35.6507 572.88,29.8203 z" id="boundary" inkscape:connector-curvature="0" />
	<path style="fill:none;stroke:red;stroke-width:1px;stroke-linecap:butt;stroke-linejoin:miter;stroke-opacity:1" d="M 572.88,29.8203 566.217,24.8228 z" id="boundary" inkscape:connector-curvature="0" />
	<path style="fill:none;stroke:red;stroke-width:1px;stroke-linecap:butt;stroke-linejoin:miter;stroke-opacity:1" d="M 566.217,24.8228 558.72,20.6583 z" id="boundary" inkscape:connector-curvature="0" />
	<path style="fill:none;stroke:red;stroke-width:1px;stroke-linecap:butt;stroke-linejoin:miter;stroke-opacity:1" d="M 558.72,20.6583 553.723,13.995 z" id="boundary" inkscape:connector-curvature="0" />
	<path style="fill:none;stroke:red;stroke-width:1px;stroke-linecap:butt;stroke-linejoin:miter;stroke-opacity:1" d="M 553.723,13.995 547.06,8.16457 z" id="boundary" inkscape:connector-curvature="0" />
	<path style="fill:none;stroke:red;stroke-width:1px;stroke-linecap:butt;stroke-linejoin:miter;stroke-opacity:1" d="M 547.06,8.16457 539.563,4 z" id="boundary" inkscape:connector-curvature="0" />
	<path style="fill:none;stroke:red;stroke-width:1px;stroke-linecap:butt;stroke-linejoin:miter;stroke-opacity:1" d="M 539.563,4 531.234,4 z" id="boundary" inkscape:connector-curvature="0" />
	<path style="fill:none;stroke:red;stroke-width:1px;stroke-linecap:butt;stroke-linejoin:miter;stroke-opacity:1" d="M 531.234,4 522.905,8.16457 z" id="boundary" inkscape:connector-curvature="0" />
	<path style="fill:none;stroke:red;stroke-width:1px;stroke-linecap:butt;stroke-linejoin:miter;stroke-opacity:1" d="M 522.905,8.16457 514.576,12.3291 z" id="boundary" inkscape:connector-curvature="0" />
	<path style="fill:none;stroke:red;stroke-width:1px;stroke-linecap:butt;stroke-linejoin:miter;stroke-opacity:1" d="M 514.576,12.3291 507.913,18.9924 z" id="boundary" inkscape:connector-curvature="0" />
	<path style="fill:none;stroke:red;stroke-width:1px;stroke-linecap:butt;stroke-linejoin:miter;stroke-opacity:1" d="M 507.913,18.9924 500.416,24.8228 z" id="boundary" inkscape:connector-curvature="0" />
	<path style="fill:none;stroke:red;stroke-width:1px;stroke-linecap:butt;stroke-linejoin:miter;stroke-opacity:1" d="M 500.416,24.8228 492.087,26.4887 z" id="boundary" inkscape:connector-curvature="0" />
	<path style="fill:none;stroke:red;stroke-width:1px;stroke-linecap:butt;stroke-linejoin:miter;stroke-opacity:1" d="M 492.087,26.4887 486.257,33.152 z" id="boundary" inkscape:connector-curvature="0" />
	<path style="fill:none;stroke:red;stroke-width:1px;stroke-linecap:butt;stroke-linejoin:miter;stroke-opacity:1" d="M 486.257,33.152 479.594,38.9824 z" id="boundary" inkscape:connector-curvature="0" />
	<path style="fill:none;stroke:red;stroke-width:1px;stroke-linecap:butt;stroke-linejoin:miter;stroke-opacity:1" d="M 479.594,38.9824 473.763,45.6457 z" id="boundary" inkscape:connector-curvature="0" />
	<path style="fill:none;stroke:red;stroke-width:1px;stroke-linecap:butt;stroke-linejoin:miter;stroke-opacity:1" d="M 473.763,45.6457 466.267,49.8102 z" id="boundary" inkscape:connector-curvature="0" />
	<path style="fill:none;stroke:red;stroke-width:1px;stroke-linecap:butt;stroke-linejoin:miter;stroke-opacity:1" d="M 466.267,49.8102 459.604,54.8077 z" id="boundary" inkscape:connector-curvature="0" />
	<path style="fill:none;stroke:red;stroke-width:1px;stroke-linecap:butt;stroke-linejoin:miter;stroke-opacity:1" d="M 459.604,54.8077 451.275,58.1394 z" id="boundary" inkscape:connector-curvature="0" />
	<path style="fill:none;stroke:red;stroke-width:1px;stroke-linecap:butt;stroke-linejoin:miter;stroke-opacity:1" d="M 451.275,58.1394 443.778,62.3039 z" id="boundary" inkscape:connector-curvature="0" />
	<path style="fill:none;stroke:red;stroke-width:1px;stroke-linecap:butt;stroke-linejoin:miter;stroke-opacity:1" d="M 443.778,62.3039 436.282,66.4685 z" id="boundary" inkscape:connector-curvature="0" />
	<path style="fill:none;stroke:red;stroke-width:1px;stroke-linecap:butt;stroke-linejoin:miter;stroke-opacity:1" d="M 436.282,66.4685 428.786,70.6331 z" id="boundary" inkscape:connector-curvature="0" />
	<path style="fill:none;stroke:red;stroke-width:1px;stroke-linecap:butt;stroke-linejoin:miter;stroke-opacity:1" d="M 428.786,70.6331 421.29,74.7976 z" id="boundary" inkscape:connector-curvature="0" />
	<path style="fill:none;stroke:red;stroke-width:1px;stroke-linecap:butt;stroke-linejoin:miter;stroke-opacity:1" d="M 421.29,74.7976 413.793,78.9622 z" id="boundary" inkscape:connector-curvature="0" />
	<path style="fill:none;stroke:red;stroke-width:1px;stroke-linecap:butt;stroke-linejoin:miter;stroke-opacity:1" d="M 413.793,78.9622 405.464,78.9622 z" id="boundary" inkscape:connector-curvature="0" />
	<path style="fill:none;stroke:red;stroke-width:1px;stroke-linecap:butt;stroke-linejoin:miter;stroke-opacity:1" d="M 405.464,78.9622 397.968,83.1268 z" id="boundary" inkscape:connector-curvature="0" />
	<path style="fill:none;stroke:red;stroke-width:1px;stroke-linecap:butt;stroke-linejoin:miter;stroke-opacity:1" d="M 397.968,83.1268 391.305,89.7901 z" id="boundary" inkscape:connector-curvature="0" />
	<path style="fill:none;stroke:red;stroke-width:1px;stroke-linecap:butt;stroke-linejoin:miter;stroke-opacity:1" d="M 391.305,89.7901 391.305,98.1192 z" id="boundary" inkscape:connector-curvature="0" />
	<path style="fill:none;stroke:red;stroke-width:1px;stroke-linecap:butt;stroke-linejoin:miter;stroke-opacity:1" d="M 391.305,98.1192 395.469,105.615 z" id="boundary" inkscape:connector-curvature="0" />
	<path style="fill:none;stroke:red;stroke-width:1px;stroke-linecap:butt;stroke-linejoin:miter;stroke-opacity:1" d="M 395.469,105.615 395.469,118.942 z" id="boundary" inkscape:connector-curvature="0" />
	<path style="fill:none;stroke:red;stroke-width:1px;stroke-linecap:butt;stroke-linejoin:miter;stroke-opacity:1" d="M 395.469,118.942 393.804,128.937 z" id="boundary" inkscape:connector-curvature="0" />
	<path style="fill:none;stroke:red;stroke-width:1px;stroke-linecap:butt;stroke-linejoin:miter;stroke-opacity:1" d="M 393.804,128.937 390.472,137.266 z" id="boundary" inkscape:connector-curvature="0" />
	<path style="fill:none;stroke:red;stroke-width:1px;stroke-linecap:butt;stroke-linejoin:miter;stroke-opacity:1" d="M 390.472,137.266 383.809,143.097 z" id="boundary" inkscape:connector-curvature="0" />
	<path style="fill:none;stroke:red;stroke-width:1px;stroke-linecap:butt;stroke-linejoin:miter;stroke-opacity:1" d="M 383.809,143.097 377.145,149.76 z" id="boundary" inkscape:connector-curvature="0" />
	<path style="fill:none;stroke:red;stroke-width:1px;stroke-linecap:butt;stroke-linejoin:miter;stroke-opacity:1" d="M 377.145,149.76 370.482,156.423 z" id="boundary" inkscape:connector-curvature="0" />
	<path style="fill:none;stroke:red;stroke-width:1px;stroke-linecap:butt;stroke-linejoin:miter;stroke-opacity:1" d="M 370.482,156.423 363.819,162.254 z" id="boundary" inkscape:connector-curvature="0" />
	<path style="fill:none;stroke:red;stroke-width:1px;stroke-linecap:butt;stroke-linejoin:miter;stroke-opacity:1" d="M 363.819,162.254 356.322,166.418 z" id="boundary" inkscape:connector-curvature="0" />
	<path style="fill:none;stroke:red;stroke-width:1px;stroke-linecap:butt;stroke-linejoin:miter;stroke-opacity:1" d="M 356.322,166.418 348.826,170.583 z" id="boundary" inkscape:connector-curvature="0" />
	<path style="fill:none;stroke:red;stroke-width:1px;stroke-linecap:butt;stroke-linejoin:miter;stroke-opacity:1" d="M 348.826,170.583 341.33,174.747 z" id="boundary" inkscape:connector-curvature="0" />
	<path style="fill:none;stroke:red;stroke-width:1px;stroke-linecap:butt;stroke-linejoin:miter;stroke-opacity:1" d="M 341.33,174.747 333.001,177.246 z" id="boundary" inkscape:connector-curvature="0" />
	<path style="fill:none;stroke:red;stroke-width:1px;stroke-linecap:butt;stroke-linejoin:miter;stroke-opacity:1" d="M 333.001,177.246 325.505,183.076 z" id="boundary" inkscape:connector-curvature="0" />
	<path style="fill:none;stroke:red;stroke-width:1px;stroke-linecap:butt;stroke-linejoin:miter;stroke-opacity:1" d="M 325.505,183.076 317.175,183.076 z" id="boundary" inkscape:connector-curvature="0" />
	<path style="fill:none;stroke:red;stroke-width:1px;stroke-linecap:butt;stroke-linejoin:miter;stroke-opacity:1" d="M 317.175,183.076 309.679,187.241 z" id="boundary" inkscape:connector-curvature="0" />
	<path style="fill:none;stroke:red;stroke-width:1px;stroke-linecap:butt;stroke-linejoin:miter;stroke-opacity:1" d="M 309.679,187.241 301.35,188.074 z" id="boundary" inkscape:connector-curvature="0" />
	<path style="fill:none;stroke:red;stroke-width:1px;stroke-linecap:butt;stroke-linejoin:miter;stroke-opacity:1" d="M 301.35,188.074 293.021,191.406 z" id="boundary" inkscape:connector-curvature="0" />
	<path style="fill:none;stroke:red;stroke-width:1px;stroke-linecap:butt;stroke-linejoin:miter;stroke-opacity:1" d="M 293.021,191.406 284.692,191.406 z" id="boundary" inkscape:connector-curvature="0" />
	<path style="fill:none;stroke:red;stroke-width:1px;stroke-linecap:butt;stroke-linejoin:miter;stroke-opacity:1" d="M 284.692,191.406 277.196,195.57 z" id="boundary" inkscape:connector-curvature="0" />
	<path style="fill:none;stroke:red;stroke-width:1px;stroke-linecap:butt;stroke-linejoin:miter;stroke-opacity:1" d="M 277.196,195.57 270.532,202.233 z" id="boundary" inkscape:connector-curvature="0" />
	<path style="fill:none;stroke:red;stroke-width:1px;stroke-linecap:butt;stroke-linejoin:miter;stroke-opacity:1" d="M 270.532,202.233 270.532,210.563 z" id="boundary" inkscape:connector-curvature="0" />
	<path style="fill:none;stroke:red;stroke-width:1px;stroke-linecap:butt;stroke-linejoin:miter;stroke-opacity:1" d="M 270.532,210.563 277.196,216.393 z" id="boundary" inkscape:connector-curvature="0" />
	<circle cx="4" cy="427.12" r="4" fill="#0" id="circle0"/>
	<circle cx="4" cy="435.449" r="4" fill="#0" id="circle1"/>
	<circle cx="10.6633" cy="420.457" r="4" fill="#0" id="circle2"/>
	<circle cx="10.6633" cy="441.28" r="4" fill="#0" id="circle3"/>
	<circle cx="17.3266" cy="413.793" r="4" fill="#0" id="circle4"/>
	<circle cx="17.3266" cy="446.277" r="4" fill="#0" id="circle5"/>
	<circle cx="25.6558" cy="412.128" r="4" fill="#0" id="circle6"/>
	<circle cx="25.6558" cy="447.943" r="4" fill="#0" id="circle7"/>
	<circle cx="33.152" cy="407.963" r="4" fill="#0" id="circle8"/>
	<circle cx="33.9849" cy="450.442" r="4" fill="#0" id="circle9"/>
	<circle cx="40.6482" cy="403.798" r="4" fill="#0" id="circle10"/>
	<circle cx="42.314" cy="450.442" r="4" fill="#0" id="circle11"/>
	<circle cx="46.4786" cy="397.135" r="4" fill="#0" id="circle12"/>
	<circle cx="50.6432" cy="450.442" r="4" fill="#0" id="circle13"/>
	<circle cx="54.8077" cy="392.971" r="4" fill="#0" id="circle14"/>
	<circle cx="58.9723" cy="452.107" r="4" fill="#0" id="circle15"/>
	<circle cx="63.1369" cy="391.305" r="4" fill="#0" id="circle16"/>
	<circle cx="67.3014" cy="454.606" r="4" fill="#0" id="circle17"/>
	<circle cx="70.6331" cy="385.474" r="4" fill="#0" id="circle18"/>
	<circle cx="75.6306" cy="454.606" r="4" fill="#0" id="circle19"/>
	<circle cx="77.2964" cy="378.811" r="4" fill="#0" id="circle20"/>
	<circle cx="83.9597" cy="454.606" r="4" fill="#0" id="circle21"/>
	<circle cx="85.6255" cy="374.647" r="4" fill="#0" id="circle22"/>
	<circle cx="92.2888" cy="454.606" r="4" fill="#0" id="circle23"/>
	<circle cx="93.1217" cy="370.482" r="4" fill="#0" id="circle24"/>
	<circle cx="99.7851" cy="364.652" r="4" fill="#0" id="circle25"/>
	<circle cx="100.618" cy="454.606" r="4" fill="#0" id="circle26"/>
	<circle cx="103.95" cy="302.183" r="4" fill="#0" id="circle27"/>
	<circle cx="103.95" cy="310.512" r="4" fill="#0" id="circle28"/>
	<circle cx="108.114" cy="360.487" r="4" fill="#0" id="circle29"/>
	<circle cx="108.947" cy="454.606" r="4" fill="#0" id="circle30"/>
	<circle cx="110.613" cy="295.52" r="4" fill="#0" id="circle31"/>
	<circle cx="110.613" cy="316.343" r="4" fill="#0" id="circle32"/>
	<circle cx="114.777" cy="353.824" r="4" fill="#0" id="circle33"/>
	<circle cx="116.443" cy="458.771" r="4" fill="#0" id="circle34"/>
	<circle cx="117.276" cy="321.34" r="4" fill="#0" id="circle35"/>
	<circle cx="118.109" cy="291.355" r="4" fill="#0" id="circle36"/>
	<circle cx="122.274" cy="349.659" r="4" fill="#0" id="circle37"/>
	<circle cx="124.772" cy="458.771" r="4" fill="#0" id="circle38"/>
	<circle cx="125.605" cy="321.34" r="4" fill="#0" id="circle39"/>
	<circle cx="126.438" cy="288.024" r="4" fill="#0" id="circle40"/>
	<circle cx="128.937" cy="343.829" r="4" fill="#0" id="circle41"/>
	<circle cx="133.102" cy="458.771" r="4" fill="#0" id="circle42"/>
	<circle cx="133.935" cy="321.34" r="4" fill="#0" id="circle43"/>
	<circle cx="134.767" cy="287.191" r="4" fill="#0" id="circle44"/>
	<circle cx="135.6" cy="337.165" r="4" fill="#0" id="circle45"/>
	<circle cx="141.431" cy="317.175" r="4" fill="#0" id="circle46"/>
	<circle cx="141.431" cy="458.771" r="4" fill="#0" id="circle47"/>
	<circle cx="142.264" cy="330.502" r="4" fill="#0" id="circle48"/>
	<circle cx="143.097" cy="287.191" r="4" fill="#0" id="circle49"/>
	<circle cx="148.927" cy="324.672" r="4" fill="#0" id="circle50"/>
	<circle cx="149.76" cy="458.771" r="4" fill="#0" id="circle51"/>
	<circle cx="150.593" cy="283.026" r="4" fill="#0" id="circle52"/>
	<circle cx="153.092" cy="317.175" r="4" fill="#0" id="circle53"/>
	<circle cx="158.089" cy="456.272" r="4" fill="#0" id="circle54"/>
	<circle cx="158.922" cy="283.026" r="4" fill="#0" id="circle55"/>
	<circle cx="166.418" cy="452.107" r="4" fill="#0" id="circle56"/>
	<circle cx="167.251" cy="280.527" r="4" fill="#0" id="circle57"/>
	<circle cx="174.747" cy="450.442" r="4" fill="#0" id="circle58"/>
	<circle cx="175.58" cy="278.861" r="4" fill="#0" id="circle59"/>
	<circle cx="183.076" cy="274.697" r="4" fill="#0" id="circle60"/>
	<circle cx="183.076" cy="450.442" r="4" fill="#0" id="circle61"/>
	<circle cx="190.573" cy="446.277" r="4" fill="#0" id="circle62"/>
	<circle cx="191.406" cy="274.697" r="4" fill="#0" id="circle63"/>
	<circle cx="198.902" cy="444.611" r="4" fill="#0" id="circle64"/>
	<circle cx="199.735" cy="273.031" r="4" fill="#0" id="circle65"/>
	<circle cx="207.231" cy="442.113" r="4" fill="#0" id="circle66"/>
	<circle cx="208.064" cy="268.866" r="4" fill="#0" id="circle67"/>
	<circle cx="215.56" cy="440.447" r="4" fill="#0" id="circle68"/>
	<circle cx="216.393" cy="266.368" r="4" fill="#0" id="circle69"/>
	<circle cx="223.889" cy="437.948" r="4" fill="#0" id="circle70"/>
	<circle cx="224.722" cy="266.368" r="4" fill="#0" id="circle71"/>
	<circle cx="231.385" cy="442.113" r="4" fill="#0" id="circle72"/>
	<circle cx="232.218" cy="262.203" r="4" fill="#0" id="circle73"/>
	<circle cx="239.715" cy="442.113" r="4" fill="#0" id="circle74"/>
	<circle cx="240.547" cy="262.203" r="4" fill="#0" id="circle75"/>
	<circle cx="248.044" cy="258.039" r="4" fill="#0" id="circle76"/>
	<circle cx="248.044" cy="445.444" r="4" fill="#0" id="circle77"/>
	<circle cx="254.707" cy="450.442" r="4" fill="#0" id="circle78"/>
	<circle cx="256.373" cy="258.039" r="4" fill="#0" id="circle79"/>
	<circle cx="263.036" cy="251.375" r="4" fill="#0" id="circle80"/>
	<circle cx="263.036" cy="452.107" r="4" fill="#0" id="circle81"/>
	<circle cx="269.699" cy="245.545" r="4" fill="#0" id="circle82"/>
	<circle cx="270.532" cy="202.233" r="4" fill="#0" id="circle83"/>
	<circle cx="270.532" cy="210.563" r="4" fill="#0" id="circle84"/>
	<circle cx="271.365" cy="454.606" r="4" fill="#0" id="circle85"/>
	<circle cx="277.196" cy="195.57" r="4" fill="#0" id="circle86"/>
	<circle cx="277.196" cy="216.393" r="4" fill="#0" id="circle87"/>
	<circle cx="277.196" cy="241.38" r="4" fill="#0" id="circle88"/>
	<circle cx="279.694" cy="454.606" r="4" fill="#0" id="circle89"/>
	<circle cx="283.026" cy="223.056" r="4" fill="#0" id="circle90"/>
	<circle cx="283.859" cy="234.717" r="4" fill="#0" id="circle91"/>
	<circle cx="284.692" cy="191.406" r="4" fill="#0" id="circle92"/>
	<circle cx="288.024" cy="456.272" r="4" fill="#0" id="circle93"/>
	<circle cx="291.355" cy="225.555" r="4" fill="#0" id="circle94"/>
	<circle cx="293.021" cy="191.406" r="4" fill="#0" id="circle95"/>
	<circle cx="296.353" cy="458.771" r="4" fill="#0" id="circle96"/>
	<circle cx="301.35" cy="188.074" r="4" fill="#0" id="circle97"/>
	<circle cx="304.682" cy="458.771" r="4" fill="#0" id="circle98"/>
	<circle cx="309.679" cy="187.241" r="4" fill="#0" id="circle99"/>
	<circle cx="313.011" cy="458.771" r="4" fill="#0" id="circle100"/>
	<circle cx="317.175" cy="183.076" r="4" fill="#0" id="circle101"/>
	<circle cx="321.34" cy="458.771" r="4" fill="#0" id="circle102"/>
	<circle cx="325.505" cy="183.076" r="4" fill="#0" id="circle103"/>
	<circle cx="329.669" cy="458.771" r="4" fill="#0" id="circle104"/>
	<circle cx="333.001" cy="177.246" r="4" fill="#0" id="circle105"/>
	<circle cx="337.998" cy="458.771" r="4" fill="#0" id="circle106"/>
	<circle cx="341.33" cy="174.747" r="4" fill="#0" id="circle107"/>
	<circle cx="346.327" cy="458.771" r="4" fill="#0" id="circle108"/>
	<circle cx="348.826" cy="170.583" r="4" fill="#0" id="circle109"/>
	<circle cx="354.657" cy="458.771" r="4" fill="#0" id="circle110"/>
	<circle cx="356.322" cy="166.418" r="4" fill="#0" id="circle111"/>
	<circle cx="362.986" cy="458.771" r="4" fill="#0" id="circle112"/>
	<circle cx="363.819" cy="162.254" r="4" fill="#0" id="circle113"/>
	<circle cx="370.482" cy="156.423" r="4" fill="#0" id="circle114"/>
	<circle cx="371.315" cy="454.606" r="4" fill="#0" id="circle115"/>
	<circle cx="377.145" cy="149.76" r="4" fill="#0" id="circle116"/>
	<circle cx="378.811" cy="510.411" r="4" fill="#0" id="circle117"/>
	<circle cx="378.811" cy="518.741" r="4" fill="#0" id="circle118"/>
	<circle cx="378.811" cy="527.07" r="4" fill="#0" id="circle119"/>
	<circle cx="378.811" cy="535.399" r="4" fill="#0" id="circle120"/>
	<circle cx="379.644" cy="454.606" r="4" fill="#0" id="circle121"/>
	<circle cx="382.976" cy="462.935" r="4" fill="#0" id="circle122"/>
	<circle cx="382.976" cy="471.264" r="4" fill="#0" id="circle123"/>
	<circle cx="382.976" cy="479.594" r="4" fill="#0" id="circle124"/>
	<circle cx="382.976" cy="487.923" r="4" fill="#0" id="circle125"/>
	<circle cx="382.976" cy="496.252" r="4" fill="#0" id="circle126"/>
	<circle cx="382.976" cy="542.895" r="4" fill="#0" id="circle127"/>
	<circle cx="383.809" cy="143.097" r="4" fill="#0" id="circle128"/>
	<circle cx="388.806" cy="549.558" r="4" fill="#0" id="circle129"/>
	<circle cx="390.472" cy="137.266" r="4" fill="#0" id="circle130"/>
	<circle cx="391.305" cy="89.7901" r="4" fill="#0" id="circle131"/>
	<circle cx="391.305" cy="98.1192" r="4" fill="#0" id="circle132"/>
	<circle cx="393.804" cy="128.937" r="4" fill="#0" id="circle133"/>
	<circle cx="395.469" cy="105.615" r="4" fill="#0" id="circle134"/>
	<circle cx="395.469" cy="118.942" r="4" fill="#0" id="circle135"/>
	<circle cx="397.135" cy="550.391" r="4" fill="#0" id="circle136"/>
	<circle cx="397.968" cy="83.1268" r="4" fill="#0" id="circle137"/>
	<circle cx="405.464" cy="78.9622" r="4" fill="#0" id="circle138"/>
	<circle cx="405.464" cy="550.391" r="4" fill="#0" id="circle139"/>
	<circle cx="413.793" cy="78.9622" r="4" fill="#0" id="circle140"/>
	<circle cx="413.793" cy="550.391" r="4" fill="#0" id="circle141"/>
	<circle cx="421.29" cy="74.7976" r="4" fill="#0" id="circle142"/>
	<circle cx="422.123" cy="550.391" r="4" fill="#0" id="circle143"/>
	<circle cx="428.786" cy="70.6331" r="4" fill="#0" id="circle144"/>
	<circle cx="430.452" cy="550.391" r="4" fill="#0" id="circle145"/>
	<circle cx="436.282" cy="66.4685" r="4" fill="#0" id="circle146"/>
	<circle cx="438.781" cy="550.391" r="4" fill="#0" id="circle147"/>
	<circle cx="443.778" cy="62.3039" r="4" fill="#0" id="circle148"/>
	<circle cx="447.11" cy="550.391" r="4" fill="#0" id="circle149"/>
	<circle cx="451.275" cy="58.1394" r="4" fill="#0" id="circle150"/>
	<circle cx="455.439" cy="550.391" r="4" fill="#0" id="circle151"/>
	<circle cx="459.604" cy="54.8077" r="4" fill="#0" id="circle152"/>
	<circle cx="463.768" cy="550.391" r="4" fill="#0" id="circle153"/>
	<circle cx="466.267" cy="49.8102" r="4" fill="#0" id="circle154"/>
	<circle cx="472.097" cy="550.391" r="4" fill="#0" id="circle155"/>
	<circle cx="473.763" cy="45.6457" r="4" fill="#0" id="circle156"/>
	<circle cx="479.594" cy="38.9824" r="4" fill="#0" id="circle157"/>
	<circle cx="480.427" cy="550.391" r="4" fill="#0" id="circle158"/>
	<circle cx="486.257" cy="33.152" r="4" fill="#0" id="circle159"/>
	<circle cx="488.756" cy="550.391" r="4" fill="#0" id="circle160"/>
	<circle cx="492.087" cy="26.4887" r="4" fill="#0" id="circle161"/>
	<circle cx="497.085" cy="550.391" r="4" fill="#0" id="circle162"/>
	<circle cx="500.416" cy="24.8228" r="4" fill="#0" id="circle163"/>
	<circle cx="505.414" cy="550.391" r="4" fill="#0" id="circle164"/>
	<circle cx="507.913" cy="18.9924" r="4" fill="#0" id="circle165"/>
	<circle cx="513.743" cy="550.391" r="4" fill="#0" id="circle166"/>
	<circle cx="514.576" cy="12.3291" r="4" fill="#0" id="circle167"/>
	<circle cx="522.072" cy="550.391" r="4" fill="#0" id="circle168"/>
	<circle cx="522.905" cy="8.16457" r="4" fill="#0" id="circle169"/>
	<circle cx="530.401" cy="550.391" r="4" fill="#0" id="circle170"/>
	<circle cx="531.234" cy="4" r="4" fill="#0" id="circle171"/>
	<circle cx="538.73" cy="550.391" r="4" fill="#0" id="circle172"/>
	<circle cx="539.563" cy="4" r="4" fill="#0" id="circle173"/>
	<circle cx="547.06" cy="8.16457" r="4" fill="#0" id="circle174"/>
	<circle cx="547.06" cy="550.391" r="4" fill="#0" id="circle175"/>
	<circle cx="553.723" cy="13.995" r="4" fill="#0" id="circle176"/>
	<circle cx="555.389" cy="550.391" r="4" fill="#0" id="circle177"/>
	<circle cx="558.72" cy="20.6583" r="4" fill="#0" id="circle178"/>
	<circle cx="563.718" cy="550.391" r="4" fill="#0" id="circle179"/>
	<circle cx="566.217" cy="24.8228" r="4" fill="#0" id="circle180"/>
	<circle cx="572.047" cy="550.391" r="4" fill="#0" id="circle181"/>
	<circle cx="572.88" cy="29.8203" r="4" fill="#0" id="circle182"/>
	<circle cx="579.543" cy="35.6507" r="4" fill="#0" id="circle183"/>
	<circle cx="580.376" cy="550.391" r="4" fill="#0" id="circle184"/>
	<circle cx="585.374" cy="42.314" r="4" fill="#0" id="circle185"/>
	<circle cx="588.705" cy="550.391" r="4" fill="#0" id="circle186"/>
	<circle cx="589.538" cy="49.8102" r="4" fill="#0" id="circle187"/>
	<circle cx="597.034" cy="53.9748" r="4" fill="#0" id="circle188"/>
	<circle cx="597.034" cy="550.391" r="4" fill="#0" id="circle189"/>
	<circle cx="603.698" cy="59.8052" r="4" fill="#0" id="circle190"/>
	<circle cx="605.364" cy="550.391" r="4" fill="#0" id="circle191"/>
	<circle cx="611.194" cy="63.9698" r="4" fill="#0" id="circle192"/>
	<circle cx="613.693" cy="550.391" r="4" fill="#0" id="circle193"/>
	<circle cx="617.024" cy="70.6331" r="4" fill="#0" id="circle194"/>
	<circle cx="622.022" cy="550.391" r="4" fill="#0" id="circle195"/>
	<circle cx="625.353" cy="73.1318" r="4" fill="#0" id="circle196"/>
	<circle cx="630.351" cy="550.391" r="4" fill="#0" id="circle197"/>
	<circle cx="632.017" cy="78.9622" r="4" fill="#0" id="circle198"/>
	<circle cx="638.68" cy="550.391" r="4" fill="#0" id="circle199"/>
	<circle cx="640.346" cy="79.7951" r="4" fill="#0" id="circle200"/>
	<circle cx="647.009" cy="550.391" r="4" fill="#0" id="circle201"/>
	<circle cx="648.675" cy="83.1268" r="4" fill="#0" id="circle202"/>
	<circle cx="655.338" cy="550.391" r="4" fill="#0" id="circle203"/>
	<circle cx="656.171" cy="87.2914" r="4" fill="#0" id="circle204"/>
	<circle cx="663.668" cy="91.4559" r="4" fill="#0" id="circle205"/>
	<circle cx="663.668" cy="550.391" r="4" fill="#0" id="circle206"/>
	<circle cx="671.164" cy="95.6205" r="4" fill="#0" id="circle207"/>
	<circle cx="671.997" cy="550.391" r="4" fill="#0" id="circle208"/>
	<circle cx="679.493" cy="95.6205" r="4" fill="#0" id="circle209"/>
	<circle cx="679.493" cy="546.227" r="4" fill="#0" id="circle210"/>
	<circle cx="683.657" cy="467.1" r="4" fill="#0" id="circle211"/>
	<circle cx="683.657" cy="475.429" r="4" fill="#0" id="circle212"/>
	<circle cx="683.657" cy="483.758" r="4" fill="#0" id="circle213"/>
	<circle cx="686.156" cy="540.396" r="4" fill="#0" id="circle214"/>
	<circle cx="686.989" cy="99.7851" r="4" fill="#0" id="circle215"/>
	<circle cx="687.822" cy="491.254" r="4" fill="#0" id="circle216"/>
	<circle cx="687.822" cy="499.584" r="4" fill="#0" id="circle217"/>
	<circle cx="691.987" cy="129.77" r="4" fill="#0" id="circle218"/>
	<circle cx="691.987" cy="467.1" r="4" fill="#0" id="circle219"/>
	<circle cx="691.987" cy="507.08" r="4" fill="#0" id="circle220"/>
	<circle cx="691.987" cy="515.409" r="4" fill="#0" id="circle221"/>
	<circle cx="691.987" cy="523.738" r="4" fill="#0" id="circle222"/>
	<circle cx="691.987" cy="532.067" r="4" fill="#0" id="circle223"/>
	<circle cx="695.318" cy="101.451" r="4" fill="#0" id="circle224"/>
	<circle cx="696.151" cy="137.266" r="4" fill="#0" id="circle225"/>
	<circle cx="698.65" cy="123.94" r="4" fill="#0" id="circle226"/>
	<circle cx="700.316" cy="108.114" r="4" fill="#0" id="circle227"/>
	<circle cx="700.316" cy="467.1" r="4" fill="#0" id="circle228"/>
	<circle cx="702.814" cy="142.264" r="4" fill="#0" id="circle229"/>
	<circle cx="704.48" cy="115.61" r="4" fill="#0" id="circle230"/>
	<circle cx="707.812" cy="471.264" r="4" fill="#0" id="circle231"/>
	<circle cx="708.645" cy="148.927" r="4" fill="#0" id="circle232"/>
	<circle cx="715.308" cy="154.757" r="4" fill="#0" id="circle233"/>
	<circle cx="716.141" cy="471.264" r="4" fill="#0" id="circle234"/>
	<circle cx="721.139" cy="161.421" r="4" fill="#0" id="circle235"/>
	<circle cx="723.637" cy="475.429" r="4" fill="#0" id="circle236"/>
	<circle cx="727.802" cy="167.251" r="4" fill="#0" id="circle237"/>
	<circle cx="731.966" cy="174.747" r="4" fill="#0" id="circle238"/>
	<circle cx="731.966" cy="475.429" r="4" fill="#0" id="circle239"/>
	<circle cx="739.463" cy="178.912" r="4" fill="#0" id="circle240"/>
	<circle cx="740.296" cy="475.429" r="4" fill="#0" id="circle241"/>
	<circle cx="745.293" cy="185.575" r="4" fill="#0" id="circle242"/>
	<circle cx="748.625" cy="475.429" r="4" fill="#0" id="circle243"/>
	<circle cx="753.622" cy="188.907" r="4" fill="#0" id="circle244"/>
	<circle cx="756.121" cy="479.594" r="4" fill="#0" id="circle245"/>
	<circle cx="758.62" cy="195.57" r="4" fill="#0" id="circle246"/>
	<circle cx="764.45" cy="479.594" r="4" fill="#0" id="circle247"/>
	<circle cx="766.949" cy="195.57" r="4" fill="#0" id="circle248"/>
	<circle cx="772.779" cy="479.594" r="4" fill="#0" id="circle249"/>
	<circle cx="774.445" cy="199.735" r="4" fill="#0" id="circle250"/>
	<circle cx="781.108" cy="204.732" r="4" fill="#0" id="circle251"/>
	<circle cx="781.108" cy="478.761" r="4" fill="#0" id="circle252"/>
	<circle cx="789.437" cy="208.064" r="4" fill="#0" id="circle253"/>
	<circle cx="789.437" cy="475.429" r="4" fill="#0" id="circle254"/>
	<circle cx="796.934" cy="212.228" r="4" fill="#0" id="circle255"/>
	<circle cx="796.934" cy="471.264" r="4" fill="#0" id="circle256"/>
	<circle cx="804.43" cy="216.393" r="4" fill="#0" id="circle257"/>
	<circle cx="804.43" cy="467.1" r="4" fill="#0" id="circle258"/>
	<circle cx="808.594" cy="250.542" r="4" fill="#0" id="circle259"/>
	<circle cx="811.093" cy="461.27" r="4" fill="#0" id="circle260"/>
	<circle cx="812.759" cy="218.892" r="4" fill="#0" id="circle261"/>
	<circle cx="812.759" cy="258.039" r="4" fill="#0" id="circle262"/>
	<circle cx="816.924" cy="250.542" r="4" fill="#0" id="circle263"/>
	<circle cx="816.924" cy="265.535" r="4" fill="#0" id="circle264"/>
	<circle cx="819.422" cy="457.105" r="4" fill="#0" id="circle265"/>
	<circle cx="821.088" cy="220.558" r="4" fill="#0" id="circle266"/>
	<circle cx="823.587" cy="271.365" r="4" fill="#0" id="circle267"/>
	<circle cx="825.253" cy="246.378" r="4" fill="#0" id="circle268"/>
	<circle cx="825.253" cy="450.442" r="4" fill="#0" id="circle269"/>
	<circle cx="827.751" cy="225.555" r="4" fill="#0" id="circle270"/>
	<circle cx="829.417" cy="278.029" r="4" fill="#0" id="circle271"/>
	<circle cx="831.916" cy="240.547" r="4" fill="#0" id="circle272"/>
	<circle cx="833.582" cy="232.218" r="4" fill="#0" id="circle273"/>
	<circle cx="833.582" cy="446.277" r="4" fill="#0" id="circle274"/>
	<circle cx="836.081" cy="283.859" r="4" fill="#0" id="circle275"/>
	<circle cx="841.911" cy="290.522" r="4" fill="#0" id="circle276"/>
	<circle cx="841.911" cy="446.277" r="4" fill="#0" id="circle277"/>
	<circle cx="848.574" cy="296.353" r="4" fill="#0" id="circle278"/>
	<circle cx="850.24" cy="446.277" r="4" fill="#0" id="circle279"/>
	<circle cx="854.405" cy="303.016" r="4" fill="#0" id="circle280"/>
	<circle cx="858.569" cy="447.943" r="4" fill="#0" id="circle281"/>
	<circle cx="861.068" cy="308.013" r="4" fill="#0" id="circle282"/>
	<circle cx="866.898" cy="450.442" r="4" fill="#0" id="circle283"/>
	<circle cx="869.397" cy="308.846" r="4" fill="#0" id="circle284"/>
	<circle cx="875.228" cy="450.442" r="4" fill="#0" id="circle285"/>
	<circle cx="877.726" cy="312.178" r="4" fill="#0" id="circle286"/>
	<circle cx="879.392" cy="346.327" r="4" fill="#0" id="circle287"/>
	<circle cx="882.724" cy="454.606" r="4" fill="#0" id="circle288"/>
	<circle cx="883.557" cy="353.824" r="4" fill="#0" id="circle289"/>
	<circle cx="886.055" cy="312.178" r="4" fill="#0" id="circle290"/>
	<circle cx="887.721" cy="346.327" r="4" fill="#0" id="circle291"/>
	<circle cx="887.721" cy="361.32" r="4" fill="#0" id="circle292"/>
	<circle cx="891.053" cy="454.606" r="4" fill="#0" id="circle293"/>
	<circle cx="891.886" cy="368.816" r="4" fill="#0" id="circle294"/>
	<circle cx="893.552" cy="316.343" r="4" fill="#0" id="circle295"/>
	<circle cx="896.05" cy="346.327" r="4" fill="#0" id="circle296"/>
	<circle cx="899.382" cy="372.981" r="4" fill="#0" id="circle297"/>
	<circle cx="899.382" cy="454.606" r="4" fill="#0" id="circle298"/>
	<circle cx="901.881" cy="316.343" r="4" fill="#0" id="circle299"/>
	<circle cx="904.38" cy="346.327" r="4" fill="#0" id="circle300"/>
	<circle cx="906.045" cy="378.811" r="4" fill="#0" id="circle301"/>
	<circle cx="907.711" cy="454.606" r="4" fill="#0" id="circle302"/>
	<circle cx="910.21" cy="316.343" r="4" fill="#0" id="circle303"/>
	<circle cx="911.876" cy="385.474" r="4" fill="#0" id="circle304"/>
	<circle cx="912.709" cy="342.163" r="4" fill="#0" id="circle305"/>
	<circle cx="912.709" cy="425.454" r="4" fill="#0" id="circle306"/>
	<circle cx="915.207" cy="458.771" r="4" fill="#0" id="circle307"/>
	<circle cx="916.04" cy="323.006" r="4" fill="#0" id="circle308"/>
	<circle cx="918.539" cy="391.305" r="4" fill="#0" id="circle309"/>
	<circle cx="919.372" cy="336.332" r="4" fill="#0" id="circle310"/>
	<circle cx="923.537" cy="458.771" r="4" fill="#0" id="circle311"/>
	<circle cx="924.369" cy="397.968" r="4" fill="#0" id="circle312"/>
	<circle cx="931.033" cy="403.798" r="4" fill="#0" id="circle313"/>
	<circle cx="931.866" cy="458.771" r="4" fill="#0" id="circle314"/>
	<circle cx="939.362" cy="403.798" r="4" fill="#0" id="circle315"/>
	<circle cx="940.195" cy="458.771" r="4" fill="#0" id="circle316"/>
	<circle cx="946.858" cy="407.963" r="4" fill="#0" id="circle317"/>
	<circle cx="947.691" cy="462.935" r="4" fill="#0" id="circle318"/>
	<circle cx="953.521" cy="413.793" r="4" fill="#0" id="circle319"/>
	<circle cx="956.02" cy="462.935" r="4" fill="#0" id="circle320"/>
	<circle cx="961.018" cy="417.958" r="4" fill="#0" id="circle321"/>
	<circle cx="964.349" cy="462.935" r="4" fill="#0" id="circle322"/>
	<circle cx="966.848" cy="424.621" r="4" fill="#0" id="circle323"/>
	<circle cx="972.678" cy="462.935" r="4" fill="#0" id="circle324"/>
	<circle cx="975.177" cy="427.12" r="4" fill="#0" id="circle325"/>
	<circle cx="980.175" cy="458.771" r="4" fill="#0" id="circle326"/>
	<circle cx="983.506" cy="428.786" r="4" fill="#0" id="circle327"/>
	<circle cx="987.671" cy="454.606" r="4" fill="#0" id="circle328"/>
	<circle cx="990.17" cy="433.783" r="4" fill="#0" id="circle329"/>
	<circle cx="994.334" cy="448.776" r="4" fill="#0" id="circle330"/>
	<circle cx="996" cy="440.447" r="4" fill="#0" id="circle331"/>
	</g>
</svg>