<?xml version="1.0" encoding="UTF-8" standalone="no"?>
<!-- Created with CurveBenchmark -->
<svg
	xmlns:dc="http://purl.org/dc/elements/1.1/"
	xmlns:cc="http://creativecommons.org/ns#"
	xmlns:rdf="http://www.w3.org/1999/02/22-rdf-syntax-ns#"
	xmlns:svg="http://www.w3.org/2000/svg"
	xmlns="http://www.w3.org/2000/svg"
	xmlns:sodipodi="http://sodipodi.sourceforge.net/DTD/sodipodi-0.dtd"
	xmlns:inkscape="http://www.inkscape.org/namespaces/inkscape"
	width="1000"
	height="1000"
	id="svg2"
	version="1.1"
	sodipodi:docname="manifold/crawl-flightbird01.png.txt">
<defs
	id="defs4" />
<metadata
	id="metadata7">
	<rdf:RDF>
		<cc:Work
			rdf:about="">
			<dc:format>image/svg+xml</dc:format>
			<dc:type
				rdf:resource="http://purl.org/dc/dcmitype/StillImage" />
			<dc:title></dc:title>
		</cc:Work>
	</rdf:RDF>
</metadata>
<g
	inkscape:label="Layer 1"
	inkscape:groupmode="layer"
	id="layer1">
	<path style="fill:none;stroke:red;stroke-width:1px;stroke-linecap:butt;stroke-linejoin:miter;stroke-opacity:1" d="M 33.76,942.432 33.76,922.592 z" id="boundary" inkscape:connector-curvature="0" />
	<path style="fill:none;stroke:red;stroke-width:1px;stroke-linecap:butt;stroke-linejoin:miter;stroke-opacity:1" d="M 33.76,922.592 53.6,932.512 z" id="boundary" inkscape:connector-curvature="0" />
	<path style="fill:none;stroke:red;stroke-width:1px;stroke-linecap:butt;stroke-linejoin:miter;stroke-opacity:1" d="M 53.6,932.512 63.52,950.368 z" id="boundary" inkscape:connector-curvature="0" />
	<path style="fill:none;stroke:red;stroke-width:1px;stroke-linecap:butt;stroke-linejoin:miter;stroke-opacity:1" d="M 63.52,950.368 83.36,952.352 z" id="boundary" inkscape:connector-curvature="0" />
	<path style="fill:none;stroke:red;stroke-width:1px;stroke-linecap:butt;stroke-linejoin:miter;stroke-opacity:1" d="M 83.36,952.352 93.28,970.208 z" id="boundary" inkscape:connector-curvature="0" />
	<path style="fill:none;stroke:red;stroke-width:1px;stroke-linecap:butt;stroke-linejoin:miter;stroke-opacity:1" d="M 93.28,970.208 113.12,972.192 z" id="boundary" inkscape:connector-curvature="0" />
	<path style="fill:none;stroke:red;stroke-width:1px;stroke-linecap:butt;stroke-linejoin:miter;stroke-opacity:1" d="M 113.12,972.192 123.04,952.352 z" id="boundary" inkscape:connector-curvature="0" />
	<path style="fill:none;stroke:red;stroke-width:1px;stroke-linecap:butt;stroke-linejoin:miter;stroke-opacity:1" d="M 123.04,952.352 142.88,948.384 z" id="boundary" inkscape:connector-curvature="0" />
	<path style="fill:none;stroke:red;stroke-width:1px;stroke-linecap:butt;stroke-linejoin:miter;stroke-opacity:1" d="M 142.88,948.384 162.72,942.432 z" id="boundary" inkscape:connector-curvature="0" />
	<path style="fill:none;stroke:red;stroke-width:1px;stroke-linecap:butt;stroke-linejoin:miter;stroke-opacity:1" d="M 162.72,942.432 182.56,942.432 z" id="boundary" inkscape:connector-curvature="0" />
	<path style="fill:none;stroke:red;stroke-width:1px;stroke-linecap:butt;stroke-linejoin:miter;stroke-opacity:1" d="M 182.56,942.432 202.4,932.512 z" id="boundary" inkscape:connector-curvature="0" />
	<path style="fill:none;stroke:red;stroke-width:1px;stroke-linecap:butt;stroke-linejoin:miter;stroke-opacity:1" d="M 202.4,932.512 218.272,916.64 z" id="boundary" inkscape:connector-curvature="0" />
	<path style="fill:none;stroke:red;stroke-width:1px;stroke-linecap:butt;stroke-linejoin:miter;stroke-opacity:1" d="M 218.272,916.64 234.144,898.784 z" id="boundary" inkscape:connector-curvature="0" />
	<path style="fill:none;stroke:red;stroke-width:1px;stroke-linecap:butt;stroke-linejoin:miter;stroke-opacity:1" d="M 234.144,898.784 250.016,884.896 z" id="boundary" inkscape:connector-curvature="0" />
	<path style="fill:none;stroke:red;stroke-width:1px;stroke-linecap:butt;stroke-linejoin:miter;stroke-opacity:1" d="M 250.016,884.896 269.856,874.976 z" id="boundary" inkscape:connector-curvature="0" />
	<path style="fill:none;stroke:red;stroke-width:1px;stroke-linecap:butt;stroke-linejoin:miter;stroke-opacity:1" d="M 269.856,874.976 283.744,859.104 z" id="boundary" inkscape:connector-curvature="0" />
	<path style="fill:none;stroke:red;stroke-width:1px;stroke-linecap:butt;stroke-linejoin:miter;stroke-opacity:1" d="M 283.744,859.104 301.6,849.184 z" id="boundary" inkscape:connector-curvature="0" />
	<path style="fill:none;stroke:red;stroke-width:1px;stroke-linecap:butt;stroke-linejoin:miter;stroke-opacity:1" d="M 301.6,849.184 319.456,839.264 z" id="boundary" inkscape:connector-curvature="0" />
	<path style="fill:none;stroke:red;stroke-width:1px;stroke-linecap:butt;stroke-linejoin:miter;stroke-opacity:1" d="M 319.456,839.264 337.312,829.344 z" id="boundary" inkscape:connector-curvature="0" />
	<path style="fill:none;stroke:red;stroke-width:1px;stroke-linecap:butt;stroke-linejoin:miter;stroke-opacity:1" d="M 337.312,829.344 355.168,819.424 z" id="boundary" inkscape:connector-curvature="0" />
	<path style="fill:none;stroke:red;stroke-width:1px;stroke-linecap:butt;stroke-linejoin:miter;stroke-opacity:1" d="M 355.168,819.424 373.024,809.504 z" id="boundary" inkscape:connector-curvature="0" />
	<path style="fill:none;stroke:red;stroke-width:1px;stroke-linecap:butt;stroke-linejoin:miter;stroke-opacity:1" d="M 373.024,809.504 392.864,799.584 z" id="boundary" inkscape:connector-curvature="0" />
	<path style="fill:none;stroke:red;stroke-width:1px;stroke-linecap:butt;stroke-linejoin:miter;stroke-opacity:1" d="M 392.864,799.584 410.72,789.664 z" id="boundary" inkscape:connector-curvature="0" />
	<path style="fill:none;stroke:red;stroke-width:1px;stroke-linecap:butt;stroke-linejoin:miter;stroke-opacity:1" d="M 410.72,789.664 426.592,777.76 z" id="boundary" inkscape:connector-curvature="0" />
	<path style="fill:none;stroke:red;stroke-width:1px;stroke-linecap:butt;stroke-linejoin:miter;stroke-opacity:1" d="M 426.592,777.76 442.464,759.904 z" id="boundary" inkscape:connector-curvature="0" />
	<path style="fill:none;stroke:red;stroke-width:1px;stroke-linecap:butt;stroke-linejoin:miter;stroke-opacity:1" d="M 442.464,759.904 462.304,749.984 z" id="boundary" inkscape:connector-curvature="0" />
	<path style="fill:none;stroke:red;stroke-width:1px;stroke-linecap:butt;stroke-linejoin:miter;stroke-opacity:1" d="M 462.304,749.984 478.176,736.096 z" id="boundary" inkscape:connector-curvature="0" />
	<path style="fill:none;stroke:red;stroke-width:1px;stroke-linecap:butt;stroke-linejoin:miter;stroke-opacity:1" d="M 478.176,736.096 488.096,716.256 z" id="boundary" inkscape:connector-curvature="0" />
	<path style="fill:none;stroke:red;stroke-width:1px;stroke-linecap:butt;stroke-linejoin:miter;stroke-opacity:1" d="M 488.096,716.256 501.984,700.384 z" id="boundary" inkscape:connector-curvature="0" />
	<path style="fill:none;stroke:red;stroke-width:1px;stroke-linecap:butt;stroke-linejoin:miter;stroke-opacity:1" d="M 501.984,700.384 511.904,680.544 z" id="boundary" inkscape:connector-curvature="0" />
	<path style="fill:none;stroke:red;stroke-width:1px;stroke-linecap:butt;stroke-linejoin:miter;stroke-opacity:1" d="M 511.904,680.544 527.776,666.656 z" id="boundary" inkscape:connector-curvature="0" />
	<path style="fill:none;stroke:red;stroke-width:1px;stroke-linecap:butt;stroke-linejoin:miter;stroke-opacity:1" d="M 527.776,666.656 537.696,646.816 z" id="boundary" inkscape:connector-curvature="0" />
	<path style="fill:none;stroke:red;stroke-width:1px;stroke-linecap:butt;stroke-linejoin:miter;stroke-opacity:1" d="M 537.696,646.816 549.6,630.944 z" id="boundary" inkscape:connector-curvature="0" />
	<path style="fill:none;stroke:red;stroke-width:1px;stroke-linecap:butt;stroke-linejoin:miter;stroke-opacity:1" d="M 549.6,630.944 557.536,650.784 z" id="boundary" inkscape:connector-curvature="0" />
	<path style="fill:none;stroke:red;stroke-width:1px;stroke-linecap:butt;stroke-linejoin:miter;stroke-opacity:1" d="M 557.536,650.784 569.44,666.656 z" id="boundary" inkscape:connector-curvature="0" />
	<path style="fill:none;stroke:red;stroke-width:1px;stroke-linecap:butt;stroke-linejoin:miter;stroke-opacity:1" d="M 569.44,666.656 579.36,684.512 z" id="boundary" inkscape:connector-curvature="0" />
	<path style="fill:none;stroke:red;stroke-width:1px;stroke-linecap:butt;stroke-linejoin:miter;stroke-opacity:1" d="M 579.36,684.512 589.28,702.368 z" id="boundary" inkscape:connector-curvature="0" />
	<path style="fill:none;stroke:red;stroke-width:1px;stroke-linecap:butt;stroke-linejoin:miter;stroke-opacity:1" d="M 589.28,702.368 599.2,720.224 z" id="boundary" inkscape:connector-curvature="0" />
	<path style="fill:none;stroke:red;stroke-width:1px;stroke-linecap:butt;stroke-linejoin:miter;stroke-opacity:1" d="M 599.2,720.224 609.12,738.08 z" id="boundary" inkscape:connector-curvature="0" />
	<path style="fill:none;stroke:red;stroke-width:1px;stroke-linecap:butt;stroke-linejoin:miter;stroke-opacity:1" d="M 609.12,738.08 621.024,753.952 z" id="boundary" inkscape:connector-curvature="0" />
	<path style="fill:none;stroke:red;stroke-width:1px;stroke-linecap:butt;stroke-linejoin:miter;stroke-opacity:1" d="M 621.024,753.952 634.912,769.824 z" id="boundary" inkscape:connector-curvature="0" />
	<path style="fill:none;stroke:red;stroke-width:1px;stroke-linecap:butt;stroke-linejoin:miter;stroke-opacity:1" d="M 634.912,769.824 648.8,753.952 z" id="boundary" inkscape:connector-curvature="0" />
	<path style="fill:none;stroke:red;stroke-width:1px;stroke-linecap:butt;stroke-linejoin:miter;stroke-opacity:1" d="M 648.8,753.952 664.672,740.064 z" id="boundary" inkscape:connector-curvature="0" />
	<path style="fill:none;stroke:red;stroke-width:1px;stroke-linecap:butt;stroke-linejoin:miter;stroke-opacity:1" d="M 664.672,740.064 682.528,730.144 z" id="boundary" inkscape:connector-curvature="0" />
	<path style="fill:none;stroke:red;stroke-width:1px;stroke-linecap:butt;stroke-linejoin:miter;stroke-opacity:1" d="M 682.528,730.144 698.4,714.272 z" id="boundary" inkscape:connector-curvature="0" />
	<path style="fill:none;stroke:red;stroke-width:1px;stroke-linecap:butt;stroke-linejoin:miter;stroke-opacity:1" d="M 698.4,714.272 714.272,698.4 z" id="boundary" inkscape:connector-curvature="0" />
	<path style="fill:none;stroke:red;stroke-width:1px;stroke-linecap:butt;stroke-linejoin:miter;stroke-opacity:1" d="M 714.272,698.4 730.144,680.544 z" id="boundary" inkscape:connector-curvature="0" />
	<path style="fill:none;stroke:red;stroke-width:1px;stroke-linecap:butt;stroke-linejoin:miter;stroke-opacity:1" d="M 730.144,680.544 746.016,666.656 z" id="boundary" inkscape:connector-curvature="0" />
	<path style="fill:none;stroke:red;stroke-width:1px;stroke-linecap:butt;stroke-linejoin:miter;stroke-opacity:1" d="M 746.016,666.656 755.936,646.816 z" id="boundary" inkscape:connector-curvature="0" />
	<path style="fill:none;stroke:red;stroke-width:1px;stroke-linecap:butt;stroke-linejoin:miter;stroke-opacity:1" d="M 755.936,646.816 755.936,621.024 z" id="boundary" inkscape:connector-curvature="0" />
	<path style="fill:none;stroke:red;stroke-width:1px;stroke-linecap:butt;stroke-linejoin:miter;stroke-opacity:1" d="M 755.936,621.024 740.064,609.12 z" id="boundary" inkscape:connector-curvature="0" />
	<path style="fill:none;stroke:red;stroke-width:1px;stroke-linecap:butt;stroke-linejoin:miter;stroke-opacity:1" d="M 740.064,609.12 722.208,599.2 z" id="boundary" inkscape:connector-curvature="0" />
	<path style="fill:none;stroke:red;stroke-width:1px;stroke-linecap:butt;stroke-linejoin:miter;stroke-opacity:1" d="M 722.208,599.2 704.352,589.28 z" id="boundary" inkscape:connector-curvature="0" />
	<path style="fill:none;stroke:red;stroke-width:1px;stroke-linecap:butt;stroke-linejoin:miter;stroke-opacity:1" d="M 704.352,589.28 688.48,575.392 z" id="boundary" inkscape:connector-curvature="0" />
	<path style="fill:none;stroke:red;stroke-width:1px;stroke-linecap:butt;stroke-linejoin:miter;stroke-opacity:1" d="M 688.48,575.392 670.624,565.472 z" id="boundary" inkscape:connector-curvature="0" />
	<path style="fill:none;stroke:red;stroke-width:1px;stroke-linecap:butt;stroke-linejoin:miter;stroke-opacity:1" d="M 670.624,565.472 650.784,559.52 z" id="boundary" inkscape:connector-curvature="0" />
	<path style="fill:none;stroke:red;stroke-width:1px;stroke-linecap:butt;stroke-linejoin:miter;stroke-opacity:1" d="M 650.784,559.52 640.864,541.664 z" id="boundary" inkscape:connector-curvature="0" />
	<path style="fill:none;stroke:red;stroke-width:1px;stroke-linecap:butt;stroke-linejoin:miter;stroke-opacity:1" d="M 640.864,541.664 660.704,531.744 z" id="boundary" inkscape:connector-curvature="0" />
	<path style="fill:none;stroke:red;stroke-width:1px;stroke-linecap:butt;stroke-linejoin:miter;stroke-opacity:1" d="M 660.704,531.744 678.56,521.824 z" id="boundary" inkscape:connector-curvature="0" />
	<path style="fill:none;stroke:red;stroke-width:1px;stroke-linecap:butt;stroke-linejoin:miter;stroke-opacity:1" d="M 678.56,521.824 694.432,509.92 z" id="boundary" inkscape:connector-curvature="0" />
	<path style="fill:none;stroke:red;stroke-width:1px;stroke-linecap:butt;stroke-linejoin:miter;stroke-opacity:1" d="M 694.432,509.92 714.272,500 z" id="boundary" inkscape:connector-curvature="0" />
	<path style="fill:none;stroke:red;stroke-width:1px;stroke-linecap:butt;stroke-linejoin:miter;stroke-opacity:1" d="M 714.272,500 730.144,482.144 z" id="boundary" inkscape:connector-curvature="0" />
	<path style="fill:none;stroke:red;stroke-width:1px;stroke-linecap:butt;stroke-linejoin:miter;stroke-opacity:1" d="M 730.144,482.144 748,472.224 z" id="boundary" inkscape:connector-curvature="0" />
	<path style="fill:none;stroke:red;stroke-width:1px;stroke-linecap:butt;stroke-linejoin:miter;stroke-opacity:1" d="M 748,472.224 763.872,460.32 z" id="boundary" inkscape:connector-curvature="0" />
	<path style="fill:none;stroke:red;stroke-width:1px;stroke-linecap:butt;stroke-linejoin:miter;stroke-opacity:1" d="M 763.872,460.32 773.792,440.48 z" id="boundary" inkscape:connector-curvature="0" />
	<path style="fill:none;stroke:red;stroke-width:1px;stroke-linecap:butt;stroke-linejoin:miter;stroke-opacity:1" d="M 773.792,440.48 789.664,422.624 z" id="boundary" inkscape:connector-curvature="0" />
	<path style="fill:none;stroke:red;stroke-width:1px;stroke-linecap:butt;stroke-linejoin:miter;stroke-opacity:1" d="M 789.664,422.624 805.536,408.736 z" id="boundary" inkscape:connector-curvature="0" />
	<path style="fill:none;stroke:red;stroke-width:1px;stroke-linecap:butt;stroke-linejoin:miter;stroke-opacity:1" d="M 805.536,408.736 815.456,388.896 z" id="boundary" inkscape:connector-curvature="0" />
	<path style="fill:none;stroke:red;stroke-width:1px;stroke-linecap:butt;stroke-linejoin:miter;stroke-opacity:1" d="M 815.456,388.896 829.344,363.104 z" id="boundary" inkscape:connector-curvature="0" />
	<path style="fill:none;stroke:red;stroke-width:1px;stroke-linecap:butt;stroke-linejoin:miter;stroke-opacity:1" d="M 829.344,363.104 845.216,349.216 z" id="boundary" inkscape:connector-curvature="0" />
	<path style="fill:none;stroke:red;stroke-width:1px;stroke-linecap:butt;stroke-linejoin:miter;stroke-opacity:1" d="M 845.216,349.216 855.136,329.376 z" id="boundary" inkscape:connector-curvature="0" />
	<path style="fill:none;stroke:red;stroke-width:1px;stroke-linecap:butt;stroke-linejoin:miter;stroke-opacity:1" d="M 855.136,329.376 859.104,303.584 z" id="boundary" inkscape:connector-curvature="0" />
	<path style="fill:none;stroke:red;stroke-width:1px;stroke-linecap:butt;stroke-linejoin:miter;stroke-opacity:1" d="M 859.104,303.584 874.976,289.696 z" id="boundary" inkscape:connector-curvature="0" />
	<path style="fill:none;stroke:red;stroke-width:1px;stroke-linecap:butt;stroke-linejoin:miter;stroke-opacity:1" d="M 874.976,289.696 888.864,273.824 z" id="boundary" inkscape:connector-curvature="0" />
	<path style="fill:none;stroke:red;stroke-width:1px;stroke-linecap:butt;stroke-linejoin:miter;stroke-opacity:1" d="M 888.864,273.824 904.736,259.936 z" id="boundary" inkscape:connector-curvature="0" />
	<path style="fill:none;stroke:red;stroke-width:1px;stroke-linecap:butt;stroke-linejoin:miter;stroke-opacity:1" d="M 904.736,259.936 916.64,244.064 z" id="boundary" inkscape:connector-curvature="0" />
	<path style="fill:none;stroke:red;stroke-width:1px;stroke-linecap:butt;stroke-linejoin:miter;stroke-opacity:1" d="M 916.64,244.064 932.512,232.16 z" id="boundary" inkscape:connector-curvature="0" />
	<path style="fill:none;stroke:red;stroke-width:1px;stroke-linecap:butt;stroke-linejoin:miter;stroke-opacity:1" d="M 932.512,232.16 948.384,214.304 z" id="boundary" inkscape:connector-curvature="0" />
	<path style="fill:none;stroke:red;stroke-width:1px;stroke-linecap:butt;stroke-linejoin:miter;stroke-opacity:1" d="M 948.384,214.304 948.384,194.464 z" id="boundary" inkscape:connector-curvature="0" />
	<path style="fill:none;stroke:red;stroke-width:1px;stroke-linecap:butt;stroke-linejoin:miter;stroke-opacity:1" d="M 948.384,194.464 968.224,182.56 z" id="boundary" inkscape:connector-curvature="0" />
	<path style="fill:none;stroke:red;stroke-width:1px;stroke-linecap:butt;stroke-linejoin:miter;stroke-opacity:1" d="M 968.224,182.56 978.144,164.704 z" id="boundary" inkscape:connector-curvature="0" />
	<path style="fill:none;stroke:red;stroke-width:1px;stroke-linecap:butt;stroke-linejoin:miter;stroke-opacity:1" d="M 978.144,164.704 958.304,164.704 z" id="boundary" inkscape:connector-curvature="0" />
	<path style="fill:none;stroke:red;stroke-width:1px;stroke-linecap:butt;stroke-linejoin:miter;stroke-opacity:1" d="M 958.304,164.704 968.224,134.944 z" id="boundary" inkscape:connector-curvature="0" />
	<path style="fill:none;stroke:red;stroke-width:1px;stroke-linecap:butt;stroke-linejoin:miter;stroke-opacity:1" d="M 968.224,134.944 988.064,125.024 z" id="boundary" inkscape:connector-curvature="0" />
	<path style="fill:none;stroke:red;stroke-width:1px;stroke-linecap:butt;stroke-linejoin:miter;stroke-opacity:1" d="M 988.064,125.024 996,103.2 z" id="boundary" inkscape:connector-curvature="0" />
	<path style="fill:none;stroke:red;stroke-width:1px;stroke-linecap:butt;stroke-linejoin:miter;stroke-opacity:1" d="M 996,103.2 978.144,93.28 z" id="boundary" inkscape:connector-curvature="0" />
	<path style="fill:none;stroke:red;stroke-width:1px;stroke-linecap:butt;stroke-linejoin:miter;stroke-opacity:1" d="M 978.144,93.28 974.176,73.44 z" id="boundary" inkscape:connector-curvature="0" />
	<path style="fill:none;stroke:red;stroke-width:1px;stroke-linecap:butt;stroke-linejoin:miter;stroke-opacity:1" d="M 974.176,73.44 992.032,63.52 z" id="boundary" inkscape:connector-curvature="0" />
	<path style="fill:none;stroke:red;stroke-width:1px;stroke-linecap:butt;stroke-linejoin:miter;stroke-opacity:1" d="M 992.032,63.52 958.304,59.552 z" id="boundary" inkscape:connector-curvature="0" />
	<path style="fill:none;stroke:red;stroke-width:1px;stroke-linecap:butt;stroke-linejoin:miter;stroke-opacity:1" d="M 958.304,59.552 946.4,43.68 z" id="boundary" inkscape:connector-curvature="0" />
	<path style="fill:none;stroke:red;stroke-width:1px;stroke-linecap:butt;stroke-linejoin:miter;stroke-opacity:1" d="M 946.4,43.68 928.544,53.6 z" id="boundary" inkscape:connector-curvature="0" />
	<path style="fill:none;stroke:red;stroke-width:1px;stroke-linecap:butt;stroke-linejoin:miter;stroke-opacity:1" d="M 928.544,53.6 908.704,45.664 z" id="boundary" inkscape:connector-curvature="0" />
	<path style="fill:none;stroke:red;stroke-width:1px;stroke-linecap:butt;stroke-linejoin:miter;stroke-opacity:1" d="M 908.704,45.664 898.784,27.808 z" id="boundary" inkscape:connector-curvature="0" />
	<path style="fill:none;stroke:red;stroke-width:1px;stroke-linecap:butt;stroke-linejoin:miter;stroke-opacity:1" d="M 898.784,27.808 878.944,25.824 z" id="boundary" inkscape:connector-curvature="0" />
	<path style="fill:none;stroke:red;stroke-width:1px;stroke-linecap:butt;stroke-linejoin:miter;stroke-opacity:1" d="M 878.944,25.824 863.072,13.92 z" id="boundary" inkscape:connector-curvature="0" />
	<path style="fill:none;stroke:red;stroke-width:1px;stroke-linecap:butt;stroke-linejoin:miter;stroke-opacity:1" d="M 863.072,13.92 845.216,23.84 z" id="boundary" inkscape:connector-curvature="0" />
	<path style="fill:none;stroke:red;stroke-width:1px;stroke-linecap:butt;stroke-linejoin:miter;stroke-opacity:1" d="M 845.216,23.84 829.344,37.728 z" id="boundary" inkscape:connector-curvature="0" />
	<path style="fill:none;stroke:red;stroke-width:1px;stroke-linecap:butt;stroke-linejoin:miter;stroke-opacity:1" d="M 829.344,37.728 809.504,47.648 z" id="boundary" inkscape:connector-curvature="0" />
	<path style="fill:none;stroke:red;stroke-width:1px;stroke-linecap:butt;stroke-linejoin:miter;stroke-opacity:1" d="M 809.504,47.648 793.632,63.52 z" id="boundary" inkscape:connector-curvature="0" />
	<path style="fill:none;stroke:red;stroke-width:1px;stroke-linecap:butt;stroke-linejoin:miter;stroke-opacity:1" d="M 793.632,63.52 775.776,73.44 z" id="boundary" inkscape:connector-curvature="0" />
	<path style="fill:none;stroke:red;stroke-width:1px;stroke-linecap:butt;stroke-linejoin:miter;stroke-opacity:1" d="M 775.776,73.44 759.904,87.328 z" id="boundary" inkscape:connector-curvature="0" />
	<path style="fill:none;stroke:red;stroke-width:1px;stroke-linecap:butt;stroke-linejoin:miter;stroke-opacity:1" d="M 759.904,87.328 740.064,97.248 z" id="boundary" inkscape:connector-curvature="0" />
	<path style="fill:none;stroke:red;stroke-width:1px;stroke-linecap:butt;stroke-linejoin:miter;stroke-opacity:1" d="M 740.064,97.248 724.192,113.12 z" id="boundary" inkscape:connector-curvature="0" />
	<path style="fill:none;stroke:red;stroke-width:1px;stroke-linecap:butt;stroke-linejoin:miter;stroke-opacity:1" d="M 724.192,113.12 706.336,123.04 z" id="boundary" inkscape:connector-curvature="0" />
	<path style="fill:none;stroke:red;stroke-width:1px;stroke-linecap:butt;stroke-linejoin:miter;stroke-opacity:1" d="M 706.336,123.04 690.464,136.928 z" id="boundary" inkscape:connector-curvature="0" />
	<path style="fill:none;stroke:red;stroke-width:1px;stroke-linecap:butt;stroke-linejoin:miter;stroke-opacity:1" d="M 690.464,136.928 674.592,152.8 z" id="boundary" inkscape:connector-curvature="0" />
	<path style="fill:none;stroke:red;stroke-width:1px;stroke-linecap:butt;stroke-linejoin:miter;stroke-opacity:1" d="M 674.592,152.8 656.736,162.72 z" id="boundary" inkscape:connector-curvature="0" />
	<path style="fill:none;stroke:red;stroke-width:1px;stroke-linecap:butt;stroke-linejoin:miter;stroke-opacity:1" d="M 656.736,162.72 640.864,176.608 z" id="boundary" inkscape:connector-curvature="0" />
	<path style="fill:none;stroke:red;stroke-width:1px;stroke-linecap:butt;stroke-linejoin:miter;stroke-opacity:1" d="M 640.864,176.608 624.992,192.48 z" id="boundary" inkscape:connector-curvature="0" />
	<path style="fill:none;stroke:red;stroke-width:1px;stroke-linecap:butt;stroke-linejoin:miter;stroke-opacity:1" d="M 624.992,192.48 617.056,212.32 z" id="boundary" inkscape:connector-curvature="0" />
	<path style="fill:none;stroke:red;stroke-width:1px;stroke-linecap:butt;stroke-linejoin:miter;stroke-opacity:1" d="M 617.056,212.32 601.184,226.208 z" id="boundary" inkscape:connector-curvature="0" />
	<path style="fill:none;stroke:red;stroke-width:1px;stroke-linecap:butt;stroke-linejoin:miter;stroke-opacity:1" d="M 601.184,226.208 587.296,242.08 z" id="boundary" inkscape:connector-curvature="0" />
	<path style="fill:none;stroke:red;stroke-width:1px;stroke-linecap:butt;stroke-linejoin:miter;stroke-opacity:1" d="M 587.296,242.08 571.424,255.968 z" id="boundary" inkscape:connector-curvature="0" />
	<path style="fill:none;stroke:red;stroke-width:1px;stroke-linecap:butt;stroke-linejoin:miter;stroke-opacity:1" d="M 571.424,255.968 561.504,275.808 z" id="boundary" inkscape:connector-curvature="0" />
	<path style="fill:none;stroke:red;stroke-width:1px;stroke-linecap:butt;stroke-linejoin:miter;stroke-opacity:1" d="M 561.504,275.808 547.616,291.68 z" id="boundary" inkscape:connector-curvature="0" />
	<path style="fill:none;stroke:red;stroke-width:1px;stroke-linecap:butt;stroke-linejoin:miter;stroke-opacity:1" d="M 547.616,291.68 531.744,305.568 z" id="boundary" inkscape:connector-curvature="0" />
	<path style="fill:none;stroke:red;stroke-width:1px;stroke-linecap:butt;stroke-linejoin:miter;stroke-opacity:1" d="M 531.744,305.568 521.824,325.408 z" id="boundary" inkscape:connector-curvature="0" />
	<path style="fill:none;stroke:red;stroke-width:1px;stroke-linecap:butt;stroke-linejoin:miter;stroke-opacity:1" d="M 521.824,325.408 505.952,341.28 z" id="boundary" inkscape:connector-curvature="0" />
	<path style="fill:none;stroke:red;stroke-width:1px;stroke-linecap:butt;stroke-linejoin:miter;stroke-opacity:1" d="M 505.952,341.28 490.08,357.152 z" id="boundary" inkscape:connector-curvature="0" />
	<path style="fill:none;stroke:red;stroke-width:1px;stroke-linecap:butt;stroke-linejoin:miter;stroke-opacity:1" d="M 490.08,357.152 474.208,371.04 z" id="boundary" inkscape:connector-curvature="0" />
	<path style="fill:none;stroke:red;stroke-width:1px;stroke-linecap:butt;stroke-linejoin:miter;stroke-opacity:1" d="M 474.208,371.04 456.352,380.96 z" id="boundary" inkscape:connector-curvature="0" />
	<path style="fill:none;stroke:red;stroke-width:1px;stroke-linecap:butt;stroke-linejoin:miter;stroke-opacity:1" d="M 456.352,380.96 436.512,373.024 z" id="boundary" inkscape:connector-curvature="0" />
	<path style="fill:none;stroke:red;stroke-width:1px;stroke-linecap:butt;stroke-linejoin:miter;stroke-opacity:1" d="M 436.512,373.024 418.656,363.104 z" id="boundary" inkscape:connector-curvature="0" />
	<path style="fill:none;stroke:red;stroke-width:1px;stroke-linecap:butt;stroke-linejoin:miter;stroke-opacity:1" d="M 418.656,363.104 398.816,361.12 z" id="boundary" inkscape:connector-curvature="0" />
	<path style="fill:none;stroke:red;stroke-width:1px;stroke-linecap:butt;stroke-linejoin:miter;stroke-opacity:1" d="M 398.816,361.12 380.96,351.2 z" id="boundary" inkscape:connector-curvature="0" />
	<path style="fill:none;stroke:red;stroke-width:1px;stroke-linecap:butt;stroke-linejoin:miter;stroke-opacity:1" d="M 380.96,351.2 361.12,357.152 z" id="boundary" inkscape:connector-curvature="0" />
	<path style="fill:none;stroke:red;stroke-width:1px;stroke-linecap:butt;stroke-linejoin:miter;stroke-opacity:1" d="M 361.12,357.152 371.04,375.008 z" id="boundary" inkscape:connector-curvature="0" />
	<path style="fill:none;stroke:red;stroke-width:1px;stroke-linecap:butt;stroke-linejoin:miter;stroke-opacity:1" d="M 371.04,375.008 371.04,394.848 z" id="boundary" inkscape:connector-curvature="0" />
	<path style="fill:none;stroke:red;stroke-width:1px;stroke-linecap:butt;stroke-linejoin:miter;stroke-opacity:1" d="M 371.04,394.848 380.96,412.704 z" id="boundary" inkscape:connector-curvature="0" />
	<path style="fill:none;stroke:red;stroke-width:1px;stroke-linecap:butt;stroke-linejoin:miter;stroke-opacity:1" d="M 380.96,412.704 386.912,432.544 z" id="boundary" inkscape:connector-curvature="0" />
	<path style="fill:none;stroke:red;stroke-width:1px;stroke-linecap:butt;stroke-linejoin:miter;stroke-opacity:1" d="M 386.912,432.544 382.944,454.368 z" id="boundary" inkscape:connector-curvature="0" />
	<path style="fill:none;stroke:red;stroke-width:1px;stroke-linecap:butt;stroke-linejoin:miter;stroke-opacity:1" d="M 382.944,454.368 369.056,470.24 z" id="boundary" inkscape:connector-curvature="0" />
	<path style="fill:none;stroke:red;stroke-width:1px;stroke-linecap:butt;stroke-linejoin:miter;stroke-opacity:1" d="M 369.056,470.24 353.184,484.128 z" id="boundary" inkscape:connector-curvature="0" />
	<path style="fill:none;stroke:red;stroke-width:1px;stroke-linecap:butt;stroke-linejoin:miter;stroke-opacity:1" d="M 353.184,484.128 339.296,500 z" id="boundary" inkscape:connector-curvature="0" />
	<path style="fill:none;stroke:red;stroke-width:1px;stroke-linecap:butt;stroke-linejoin:miter;stroke-opacity:1" d="M 339.296,500 323.424,513.888 z" id="boundary" inkscape:connector-curvature="0" />
	<path style="fill:none;stroke:red;stroke-width:1px;stroke-linecap:butt;stroke-linejoin:miter;stroke-opacity:1" d="M 323.424,513.888 307.552,529.76 z" id="boundary" inkscape:connector-curvature="0" />
	<path style="fill:none;stroke:red;stroke-width:1px;stroke-linecap:butt;stroke-linejoin:miter;stroke-opacity:1" d="M 307.552,529.76 289.696,539.68 z" id="boundary" inkscape:connector-curvature="0" />
	<path style="fill:none;stroke:red;stroke-width:1px;stroke-linecap:butt;stroke-linejoin:miter;stroke-opacity:1" d="M 289.696,539.68 273.824,553.568 z" id="boundary" inkscape:connector-curvature="0" />
	<path style="fill:none;stroke:red;stroke-width:1px;stroke-linecap:butt;stroke-linejoin:miter;stroke-opacity:1" d="M 273.824,553.568 253.984,563.488 z" id="boundary" inkscape:connector-curvature="0" />
	<path style="fill:none;stroke:red;stroke-width:1px;stroke-linecap:butt;stroke-linejoin:miter;stroke-opacity:1" d="M 253.984,563.488 240.096,579.36 z" id="boundary" inkscape:connector-curvature="0" />
	<path style="fill:none;stroke:red;stroke-width:1px;stroke-linecap:butt;stroke-linejoin:miter;stroke-opacity:1" d="M 240.096,579.36 224.224,593.248 z" id="boundary" inkscape:connector-curvature="0" />
	<path style="fill:none;stroke:red;stroke-width:1px;stroke-linecap:butt;stroke-linejoin:miter;stroke-opacity:1" d="M 224.224,593.248 204.384,603.168 z" id="boundary" inkscape:connector-curvature="0" />
	<path style="fill:none;stroke:red;stroke-width:1px;stroke-linecap:butt;stroke-linejoin:miter;stroke-opacity:1" d="M 204.384,603.168 190.496,619.04 z" id="boundary" inkscape:connector-curvature="0" />
	<path style="fill:none;stroke:red;stroke-width:1px;stroke-linecap:butt;stroke-linejoin:miter;stroke-opacity:1" d="M 190.496,619.04 174.624,632.928 z" id="boundary" inkscape:connector-curvature="0" />
	<path style="fill:none;stroke:red;stroke-width:1px;stroke-linecap:butt;stroke-linejoin:miter;stroke-opacity:1" d="M 174.624,632.928 158.752,648.8 z" id="boundary" inkscape:connector-curvature="0" />
	<path style="fill:none;stroke:red;stroke-width:1px;stroke-linecap:butt;stroke-linejoin:miter;stroke-opacity:1" d="M 158.752,648.8 150.816,668.64 z" id="boundary" inkscape:connector-curvature="0" />
	<path style="fill:none;stroke:red;stroke-width:1px;stroke-linecap:butt;stroke-linejoin:miter;stroke-opacity:1" d="M 150.816,668.64 134.944,682.528 z" id="boundary" inkscape:connector-curvature="0" />
	<path style="fill:none;stroke:red;stroke-width:1px;stroke-linecap:butt;stroke-linejoin:miter;stroke-opacity:1" d="M 134.944,682.528 121.056,698.4 z" id="boundary" inkscape:connector-curvature="0" />
	<path style="fill:none;stroke:red;stroke-width:1px;stroke-linecap:butt;stroke-linejoin:miter;stroke-opacity:1" d="M 121.056,698.4 105.184,712.288 z" id="boundary" inkscape:connector-curvature="0" />
	<path style="fill:none;stroke:red;stroke-width:1px;stroke-linecap:butt;stroke-linejoin:miter;stroke-opacity:1" d="M 105.184,712.288 95.264,732.128 z" id="boundary" inkscape:connector-curvature="0" />
	<path style="fill:none;stroke:red;stroke-width:1px;stroke-linecap:butt;stroke-linejoin:miter;stroke-opacity:1" d="M 95.264,732.128 81.376,748 z" id="boundary" inkscape:connector-curvature="0" />
	<path style="fill:none;stroke:red;stroke-width:1px;stroke-linecap:butt;stroke-linejoin:miter;stroke-opacity:1" d="M 81.376,748 65.504,761.888 z" id="boundary" inkscape:connector-curvature="0" />
	<path style="fill:none;stroke:red;stroke-width:1px;stroke-linecap:butt;stroke-linejoin:miter;stroke-opacity:1" d="M 65.504,761.888 55.584,781.728 z" id="boundary" inkscape:connector-curvature="0" />
	<path style="fill:none;stroke:red;stroke-width:1px;stroke-linecap:butt;stroke-linejoin:miter;stroke-opacity:1" d="M 55.584,781.728 39.712,797.6 z" id="boundary" inkscape:connector-curvature="0" />
	<path style="fill:none;stroke:red;stroke-width:1px;stroke-linecap:butt;stroke-linejoin:miter;stroke-opacity:1" d="M 39.712,797.6 29.792,817.44 z" id="boundary" inkscape:connector-curvature="0" />
	<path style="fill:none;stroke:red;stroke-width:1px;stroke-linecap:butt;stroke-linejoin:miter;stroke-opacity:1" d="M 29.792,817.44 19.872,837.28 z" id="boundary" inkscape:connector-curvature="0" />
	<path style="fill:none;stroke:red;stroke-width:1px;stroke-linecap:butt;stroke-linejoin:miter;stroke-opacity:1" d="M 19.872,837.28 23.84,859.104 z" id="boundary" inkscape:connector-curvature="0" />
	<path style="fill:none;stroke:red;stroke-width:1px;stroke-linecap:butt;stroke-linejoin:miter;stroke-opacity:1" d="M 23.84,859.104 4,853.152 z" id="boundary" inkscape:connector-curvature="0" />
	<path style="fill:none;stroke:red;stroke-width:1px;stroke-linecap:butt;stroke-linejoin:miter;stroke-opacity:1" d="M 4,853.152 13.92,882.912 z" id="boundary" inkscape:connector-curvature="0" />
	<path style="fill:none;stroke:red;stroke-width:1px;stroke-linecap:butt;stroke-linejoin:miter;stroke-opacity:1" d="M 13.92,882.912 33.76,888.864 z" id="boundary" inkscape:connector-curvature="0" />
	<path style="fill:none;stroke:red;stroke-width:1px;stroke-linecap:butt;stroke-linejoin:miter;stroke-opacity:1" d="M 33.76,888.864 51.616,878.944 z" id="boundary" inkscape:connector-curvature="0" />
	<path style="fill:none;stroke:red;stroke-width:1px;stroke-linecap:butt;stroke-linejoin:miter;stroke-opacity:1" d="M 33.76,942.432 53.6,972.192 z" id="boundary" inkscape:connector-curvature="0" />
	<path style="fill:none;stroke:red;stroke-width:1px;stroke-linecap:butt;stroke-linejoin:miter;stroke-opacity:1" d="M 53.6,972.192 73.44,972.192 z" id="boundary" inkscape:connector-curvature="0" />
	<path style="fill:none;stroke:red;stroke-width:1px;stroke-linecap:butt;stroke-linejoin:miter;stroke-opacity:1" d="M 51.616,878.944 99.232,938.464 z" id="boundary" inkscape:connector-curvature="0" />
	<circle cx="4" cy="853.152" r="4" fill="#0" id="circle0"/>
	<circle cx="13.92" cy="882.912" r="4" fill="#0" id="circle1"/>
	<circle cx="19.872" cy="837.28" r="4" fill="#0" id="circle2"/>
	<circle cx="23.84" cy="859.104" r="4" fill="#0" id="circle3"/>
	<circle cx="29.792" cy="817.44" r="4" fill="#0" id="circle4"/>
	<circle cx="33.76" cy="888.864" r="4" fill="#0" id="circle5"/>
	<circle cx="33.76" cy="922.592" r="4" fill="#0" id="circle6"/>
	<circle cx="33.76" cy="942.432" r="4" fill="#0" id="circle7"/>
	<circle cx="39.712" cy="797.6" r="4" fill="#0" id="circle8"/>
	<circle cx="51.616" cy="878.944" r="4" fill="#0" id="circle9"/>
	<circle cx="53.6" cy="932.512" r="4" fill="#0" id="circle10"/>
	<circle cx="53.6" cy="972.192" r="4" fill="#0" id="circle11"/>
	<circle cx="55.584" cy="781.728" r="4" fill="#0" id="circle12"/>
	<circle cx="63.52" cy="950.368" r="4" fill="#0" id="circle13"/>
	<circle cx="65.504" cy="761.888" r="4" fill="#0" id="circle14"/>
	<circle cx="73.44" cy="972.192" r="4" fill="#0" id="circle15"/>
	<circle cx="81.376" cy="748" r="4" fill="#0" id="circle16"/>
	<circle cx="83.36" cy="952.352" r="4" fill="#0" id="circle17"/>
	<circle cx="93.28" cy="970.208" r="4" fill="#0" id="circle18"/>
	<circle cx="95.264" cy="732.128" r="4" fill="#0" id="circle19"/>
	<circle cx="99.232" cy="938.464" r="4" fill="#0" id="circle20"/>
	<circle cx="105.184" cy="712.288" r="4" fill="#0" id="circle21"/>
	<circle cx="113.12" cy="972.192" r="4" fill="#0" id="circle22"/>
	<circle cx="121.056" cy="698.4" r="4" fill="#0" id="circle23"/>
	<circle cx="123.04" cy="952.352" r="4" fill="#0" id="circle24"/>
	<circle cx="134.944" cy="682.528" r="4" fill="#0" id="circle25"/>
	<circle cx="142.88" cy="948.384" r="4" fill="#0" id="circle26"/>
	<circle cx="148.832" cy="968.224" r="4" fill="#0" id="circle27"/>
	<circle cx="150.816" cy="668.64" r="4" fill="#0" id="circle28"/>
	<circle cx="158.752" cy="648.8" r="4" fill="#0" id="circle29"/>
	<circle cx="162.72" cy="942.432" r="4" fill="#0" id="circle30"/>
	<circle cx="174.624" cy="632.928" r="4" fill="#0" id="circle31"/>
	<circle cx="182.56" cy="942.432" r="4" fill="#0" id="circle32"/>
	<circle cx="190.496" cy="619.04" r="4" fill="#0" id="circle33"/>
	<circle cx="202.4" cy="932.512" r="4" fill="#0" id="circle34"/>
	<circle cx="204.384" cy="603.168" r="4" fill="#0" id="circle35"/>
	<circle cx="218.272" cy="916.64" r="4" fill="#0" id="circle36"/>
	<circle cx="224.224" cy="593.248" r="4" fill="#0" id="circle37"/>
	<circle cx="234.144" cy="898.784" r="4" fill="#0" id="circle38"/>
	<circle cx="240.096" cy="579.36" r="4" fill="#0" id="circle39"/>
	<circle cx="250.016" cy="884.896" r="4" fill="#0" id="circle40"/>
	<circle cx="253.984" cy="563.488" r="4" fill="#0" id="circle41"/>
	<circle cx="269.856" cy="874.976" r="4" fill="#0" id="circle42"/>
	<circle cx="273.824" cy="553.568" r="4" fill="#0" id="circle43"/>
	<circle cx="283.744" cy="859.104" r="4" fill="#0" id="circle44"/>
	<circle cx="289.696" cy="539.68" r="4" fill="#0" id="circle45"/>
	<circle cx="301.6" cy="849.184" r="4" fill="#0" id="circle46"/>
	<circle cx="307.552" cy="529.76" r="4" fill="#0" id="circle47"/>
	<circle cx="319.456" cy="839.264" r="4" fill="#0" id="circle48"/>
	<circle cx="323.424" cy="513.888" r="4" fill="#0" id="circle49"/>
	<circle cx="337.312" cy="829.344" r="4" fill="#0" id="circle50"/>
	<circle cx="339.296" cy="500" r="4" fill="#0" id="circle51"/>
	<circle cx="353.184" cy="484.128" r="4" fill="#0" id="circle52"/>
	<circle cx="355.168" cy="819.424" r="4" fill="#0" id="circle53"/>
	<circle cx="361.12" cy="357.152" r="4" fill="#0" id="circle54"/>
	<circle cx="369.056" cy="470.24" r="4" fill="#0" id="circle55"/>
	<circle cx="371.04" cy="375.008" r="4" fill="#0" id="circle56"/>
	<circle cx="371.04" cy="394.848" r="4" fill="#0" id="circle57"/>
	<circle cx="373.024" cy="809.504" r="4" fill="#0" id="circle58"/>
	<circle cx="380.96" cy="351.2" r="4" fill="#0" id="circle59"/>
	<circle cx="380.96" cy="412.704" r="4" fill="#0" id="circle60"/>
	<circle cx="382.944" cy="454.368" r="4" fill="#0" id="circle61"/>
	<circle cx="386.912" cy="432.544" r="4" fill="#0" id="circle62"/>
	<circle cx="392.864" cy="799.584" r="4" fill="#0" id="circle63"/>
	<circle cx="398.816" cy="361.12" r="4" fill="#0" id="circle64"/>
	<circle cx="410.72" cy="789.664" r="4" fill="#0" id="circle65"/>
	<circle cx="418.656" cy="363.104" r="4" fill="#0" id="circle66"/>
	<circle cx="426.592" cy="777.76" r="4" fill="#0" id="circle67"/>
	<circle cx="436.512" cy="373.024" r="4" fill="#0" id="circle68"/>
	<circle cx="442.464" cy="759.904" r="4" fill="#0" id="circle69"/>
	<circle cx="456.352" cy="380.96" r="4" fill="#0" id="circle70"/>
	<circle cx="462.304" cy="749.984" r="4" fill="#0" id="circle71"/>
	<circle cx="474.208" cy="371.04" r="4" fill="#0" id="circle72"/>
	<circle cx="478.176" cy="736.096" r="4" fill="#0" id="circle73"/>
	<circle cx="488.096" cy="716.256" r="4" fill="#0" id="circle74"/>
	<circle cx="490.08" cy="357.152" r="4" fill="#0" id="circle75"/>
	<circle cx="501.984" cy="700.384" r="4" fill="#0" id="circle76"/>
	<circle cx="505.952" cy="341.28" r="4" fill="#0" id="circle77"/>
	<circle cx="511.904" cy="680.544" r="4" fill="#0" id="circle78"/>
	<circle cx="521.824" cy="325.408" r="4" fill="#0" id="circle79"/>
	<circle cx="527.776" cy="666.656" r="4" fill="#0" id="circle80"/>
	<circle cx="531.744" cy="305.568" r="4" fill="#0" id="circle81"/>
	<circle cx="537.696" cy="646.816" r="4" fill="#0" id="circle82"/>
	<circle cx="547.616" cy="291.68" r="4" fill="#0" id="circle83"/>
	<circle cx="549.6" cy="630.944" r="4" fill="#0" id="circle84"/>
	<circle cx="557.536" cy="650.784" r="4" fill="#0" id="circle85"/>
	<circle cx="561.504" cy="275.808" r="4" fill="#0" id="circle86"/>
	<circle cx="569.44" cy="666.656" r="4" fill="#0" id="circle87"/>
	<circle cx="571.424" cy="255.968" r="4" fill="#0" id="circle88"/>
	<circle cx="579.36" cy="684.512" r="4" fill="#0" id="circle89"/>
	<circle cx="587.296" cy="242.08" r="4" fill="#0" id="circle90"/>
	<circle cx="589.28" cy="702.368" r="4" fill="#0" id="circle91"/>
	<circle cx="599.2" cy="720.224" r="4" fill="#0" id="circle92"/>
	<circle cx="601.184" cy="226.208" r="4" fill="#0" id="circle93"/>
	<circle cx="609.12" cy="738.08" r="4" fill="#0" id="circle94"/>
	<circle cx="617.056" cy="212.32" r="4" fill="#0" id="circle95"/>
	<circle cx="621.024" cy="753.952" r="4" fill="#0" id="circle96"/>
	<circle cx="624.992" cy="192.48" r="4" fill="#0" id="circle97"/>
	<circle cx="634.912" cy="769.824" r="4" fill="#0" id="circle98"/>
	<circle cx="640.864" cy="176.608" r="4" fill="#0" id="circle99"/>
	<circle cx="640.864" cy="541.664" r="4" fill="#0" id="circle100"/>
	<circle cx="648.8" cy="753.952" r="4" fill="#0" id="circle101"/>
	<circle cx="650.784" cy="559.52" r="4" fill="#0" id="circle102"/>
	<circle cx="656.736" cy="162.72" r="4" fill="#0" id="circle103"/>
	<circle cx="660.704" cy="531.744" r="4" fill="#0" id="circle104"/>
	<circle cx="664.672" cy="740.064" r="4" fill="#0" id="circle105"/>
	<circle cx="670.624" cy="565.472" r="4" fill="#0" id="circle106"/>
	<circle cx="674.592" cy="152.8" r="4" fill="#0" id="circle107"/>
	<circle cx="678.56" cy="521.824" r="4" fill="#0" id="circle108"/>
	<circle cx="682.528" cy="730.144" r="4" fill="#0" id="circle109"/>
	<circle cx="688.48" cy="575.392" r="4" fill="#0" id="circle110"/>
	<circle cx="690.464" cy="136.928" r="4" fill="#0" id="circle111"/>
	<circle cx="694.432" cy="509.92" r="4" fill="#0" id="circle112"/>
	<circle cx="698.4" cy="714.272" r="4" fill="#0" id="circle113"/>
	<circle cx="704.352" cy="589.28" r="4" fill="#0" id="circle114"/>
	<circle cx="706.336" cy="123.04" r="4" fill="#0" id="circle115"/>
	<circle cx="714.272" cy="500" r="4" fill="#0" id="circle116"/>
	<circle cx="714.272" cy="698.4" r="4" fill="#0" id="circle117"/>
	<circle cx="722.208" cy="599.2" r="4" fill="#0" id="circle118"/>
	<circle cx="724.192" cy="113.12" r="4" fill="#0" id="circle119"/>
	<circle cx="730.144" cy="482.144" r="4" fill="#0" id="circle120"/>
	<circle cx="730.144" cy="680.544" r="4" fill="#0" id="circle121"/>
	<circle cx="740.064" cy="97.248" r="4" fill="#0" id="circle122"/>
	<circle cx="740.064" cy="609.12" r="4" fill="#0" id="circle123"/>
	<circle cx="746.016" cy="666.656" r="4" fill="#0" id="circle124"/>
	<circle cx="748" cy="472.224" r="4" fill="#0" id="circle125"/>
	<circle cx="755.936" cy="621.024" r="4" fill="#0" id="circle126"/>
	<circle cx="755.936" cy="646.816" r="4" fill="#0" id="circle127"/>
	<circle cx="759.904" cy="87.328" r="4" fill="#0" id="circle128"/>
	<circle cx="763.872" cy="460.32" r="4" fill="#0" id="circle129"/>
	<circle cx="773.792" cy="440.48" r="4" fill="#0" id="circle130"/>
	<circle cx="775.776" cy="73.44" r="4" fill="#0" id="circle131"/>
	<circle cx="789.664" cy="422.624" r="4" fill="#0" id="circle132"/>
	<circle cx="793.632" cy="63.52" r="4" fill="#0" id="circle133"/>
	<circle cx="805.536" cy="408.736" r="4" fill="#0" id="circle134"/>
	<circle cx="809.504" cy="47.648" r="4" fill="#0" id="circle135"/>
	<circle cx="815.456" cy="388.896" r="4" fill="#0" id="circle136"/>
	<circle cx="829.344" cy="37.728" r="4" fill="#0" id="circle137"/>
	<circle cx="829.344" cy="363.104" r="4" fill="#0" id="circle138"/>
	<circle cx="845.216" cy="23.84" r="4" fill="#0" id="circle139"/>
	<circle cx="845.216" cy="349.216" r="4" fill="#0" id="circle140"/>
	<circle cx="855.136" cy="329.376" r="4" fill="#0" id="circle141"/>
	<circle cx="859.104" cy="303.584" r="4" fill="#0" id="circle142"/>
	<circle cx="863.072" cy="13.92" r="4" fill="#0" id="circle143"/>
	<circle cx="874.976" cy="289.696" r="4" fill="#0" id="circle144"/>
	<circle cx="878.944" cy="25.824" r="4" fill="#0" id="circle145"/>
	<circle cx="882.912" cy="4" r="4" fill="#0" id="circle146"/>
	<circle cx="888.864" cy="273.824" r="4" fill="#0" id="circle147"/>
	<circle cx="898.784" cy="27.808" r="4" fill="#0" id="circle148"/>
	<circle cx="904.736" cy="259.936" r="4" fill="#0" id="circle149"/>
	<circle cx="908.704" cy="45.664" r="4" fill="#0" id="circle150"/>
	<circle cx="914.656" cy="13.92" r="4" fill="#0" id="circle151"/>
	<circle cx="916.64" cy="244.064" r="4" fill="#0" id="circle152"/>
	<circle cx="928.544" cy="53.6" r="4" fill="#0" id="circle153"/>
	<circle cx="932.512" cy="232.16" r="4" fill="#0" id="circle154"/>
	<circle cx="946.4" cy="43.68" r="4" fill="#0" id="circle155"/>
	<circle cx="948.384" cy="194.464" r="4" fill="#0" id="circle156"/>
	<circle cx="948.384" cy="214.304" r="4" fill="#0" id="circle157"/>
	<circle cx="958.304" cy="59.552" r="4" fill="#0" id="circle158"/>
	<circle cx="958.304" cy="164.704" r="4" fill="#0" id="circle159"/>
	<circle cx="968.224" cy="134.944" r="4" fill="#0" id="circle160"/>
	<circle cx="968.224" cy="182.56" r="4" fill="#0" id="circle161"/>
	<circle cx="974.176" cy="73.44" r="4" fill="#0" id="circle162"/>
	<circle cx="978.144" cy="93.28" r="4" fill="#0" id="circle163"/>
	<circle cx="978.144" cy="164.704" r="4" fill="#0" id="circle164"/>
	<circle cx="988.064" cy="125.024" r="4" fill="#0" id="circle165"/>
	<circle cx="992.032" cy="63.52" r="4" fill="#0" id="circle166"/>
	<circle cx="996" cy="103.2" r="4" fill="#0" id="circle167"/>
	</g>
</svg>