<?xml version="1.0" encoding="UTF-8" standalone="no"?>
<!-- Created with CurveBenchmark -->
<svg
	xmlns:dc="http://purl.org/dc/elements/1.1/"
	xmlns:cc="http://creativecommons.org/ns#"
	xmlns:rdf="http://www.w3.org/1999/02/22-rdf-syntax-ns#"
	xmlns:svg="http://www.w3.org/2000/svg"
	xmlns="http://www.w3.org/2000/svg"
	xmlns:sodipodi="http://sodipodi.sourceforge.net/DTD/sodipodi-0.dtd"
	xmlns:inkscape="http://www.inkscape.org/namespaces/inkscape"
	width="1000"
	height="1000"
	id="svg2"
	version="1.1"
	sodipodi:docname="manifold/crawl-bonefishesaff1.png.txt">
<defs
	id="defs4" />
<metadata
	id="metadata7">
	<rdf:RDF>
		<cc:Work
			rdf:about="">
			<dc:format>image/svg+xml</dc:format>
			<dc:type
				rdf:resource="http://purl.org/dc/dcmitype/StillImage" />
			<dc:title></dc:title>
		</cc:Work>
	</rdf:RDF>
</metadata>
<g
	inkscape:label="Layer 1"
	inkscape:groupmode="layer"
	id="layer1">
	<path style="fill:none;stroke:red;stroke-width:1px;stroke-linecap:butt;stroke-linejoin:miter;stroke-opacity:1" d="M 4,37.7543 4,19.0019 z" id="boundary" inkscape:connector-curvature="0" />
	<path style="fill:none;stroke:red;stroke-width:1px;stroke-linecap:butt;stroke-linejoin:miter;stroke-opacity:1" d="M 4,37.7543 13.3762,54.6314 z" id="boundary" inkscape:connector-curvature="0" />
	<path style="fill:none;stroke:red;stroke-width:1px;stroke-linecap:butt;stroke-linejoin:miter;stroke-opacity:1" d="M 13.3762,54.6314 26.5028,69.6333 z" id="boundary" inkscape:connector-curvature="0" />
	<path style="fill:none;stroke:red;stroke-width:1px;stroke-linecap:butt;stroke-linejoin:miter;stroke-opacity:1" d="M 26.5028,69.6333 41.5047,80.8847 z" id="boundary" inkscape:connector-curvature="0" />
	<path style="fill:none;stroke:red;stroke-width:1px;stroke-linecap:butt;stroke-linejoin:miter;stroke-opacity:1" d="M 41.5047,80.8847 47.1304,99.6371 z" id="boundary" inkscape:connector-curvature="0" />
	<path style="fill:none;stroke:red;stroke-width:1px;stroke-linecap:butt;stroke-linejoin:miter;stroke-opacity:1" d="M 47.1304,99.6371 62.1323,112.764 z" id="boundary" inkscape:connector-curvature="0" />
	<path style="fill:none;stroke:red;stroke-width:1px;stroke-linecap:butt;stroke-linejoin:miter;stroke-opacity:1" d="M 62.1323,112.764 75.259,127.766 z" id="boundary" inkscape:connector-curvature="0" />
	<path style="fill:none;stroke:red;stroke-width:1px;stroke-linecap:butt;stroke-linejoin:miter;stroke-opacity:1" d="M 75.259,127.766 90.2609,140.892 z" id="boundary" inkscape:connector-curvature="0" />
	<path style="fill:none;stroke:red;stroke-width:1px;stroke-linecap:butt;stroke-linejoin:miter;stroke-opacity:1" d="M 90.2609,140.892 103.388,155.894 z" id="boundary" inkscape:connector-curvature="0" />
	<path style="fill:none;stroke:red;stroke-width:1px;stroke-linecap:butt;stroke-linejoin:miter;stroke-opacity:1" d="M 103.388,155.894 118.389,169.021 z" id="boundary" inkscape:connector-curvature="0" />
	<path style="fill:none;stroke:red;stroke-width:1px;stroke-linecap:butt;stroke-linejoin:miter;stroke-opacity:1" d="M 118.389,169.021 125.89,187.773 z" id="boundary" inkscape:connector-curvature="0" />
	<path style="fill:none;stroke:red;stroke-width:1px;stroke-linecap:butt;stroke-linejoin:miter;stroke-opacity:1" d="M 125.89,187.773 140.892,200.9 z" id="boundary" inkscape:connector-curvature="0" />
	<path style="fill:none;stroke:red;stroke-width:1px;stroke-linecap:butt;stroke-linejoin:miter;stroke-opacity:1" d="M 140.892,200.9 154.019,215.902 z" id="boundary" inkscape:connector-curvature="0" />
	<path style="fill:none;stroke:red;stroke-width:1px;stroke-linecap:butt;stroke-linejoin:miter;stroke-opacity:1" d="M 154.019,215.902 163.395,232.779 z" id="boundary" inkscape:connector-curvature="0" />
	<path style="fill:none;stroke:red;stroke-width:1px;stroke-linecap:butt;stroke-linejoin:miter;stroke-opacity:1" d="M 163.395,232.779 182.147,240.28 z" id="boundary" inkscape:connector-curvature="0" />
	<path style="fill:none;stroke:red;stroke-width:1px;stroke-linecap:butt;stroke-linejoin:miter;stroke-opacity:1" d="M 182.147,240.28 193.399,255.282 z" id="boundary" inkscape:connector-curvature="0" />
	<path style="fill:none;stroke:red;stroke-width:1px;stroke-linecap:butt;stroke-linejoin:miter;stroke-opacity:1" d="M 193.399,255.282 208.401,268.408 z" id="boundary" inkscape:connector-curvature="0" />
	<path style="fill:none;stroke:red;stroke-width:1px;stroke-linecap:butt;stroke-linejoin:miter;stroke-opacity:1" d="M 208.401,268.408 221.527,283.41 z" id="boundary" inkscape:connector-curvature="0" />
	<path style="fill:none;stroke:red;stroke-width:1px;stroke-linecap:butt;stroke-linejoin:miter;stroke-opacity:1" d="M 221.527,283.41 236.529,296.537 z" id="boundary" inkscape:connector-curvature="0" />
	<path style="fill:none;stroke:red;stroke-width:1px;stroke-linecap:butt;stroke-linejoin:miter;stroke-opacity:1" d="M 236.529,296.537 249.656,311.539 z" id="boundary" inkscape:connector-curvature="0" />
	<path style="fill:none;stroke:red;stroke-width:1px;stroke-linecap:butt;stroke-linejoin:miter;stroke-opacity:1" d="M 249.656,311.539 264.658,324.665 z" id="boundary" inkscape:connector-curvature="0" />
	<path style="fill:none;stroke:red;stroke-width:1px;stroke-linecap:butt;stroke-linejoin:miter;stroke-opacity:1" d="M 264.658,324.665 277.784,339.667 z" id="boundary" inkscape:connector-curvature="0" />
	<path style="fill:none;stroke:red;stroke-width:1px;stroke-linecap:butt;stroke-linejoin:miter;stroke-opacity:1" d="M 277.784,339.667 292.786,352.794 z" id="boundary" inkscape:connector-curvature="0" />
	<path style="fill:none;stroke:red;stroke-width:1px;stroke-linecap:butt;stroke-linejoin:miter;stroke-opacity:1" d="M 292.786,352.794 309.664,362.17 z" id="boundary" inkscape:connector-curvature="0" />
	<path style="fill:none;stroke:red;stroke-width:1px;stroke-linecap:butt;stroke-linejoin:miter;stroke-opacity:1" d="M 309.664,362.17 324.665,375.297 z" id="boundary" inkscape:connector-curvature="0" />
	<path style="fill:none;stroke:red;stroke-width:1px;stroke-linecap:butt;stroke-linejoin:miter;stroke-opacity:1" d="M 324.665,375.297 337.792,390.299 z" id="boundary" inkscape:connector-curvature="0" />
	<path style="fill:none;stroke:red;stroke-width:1px;stroke-linecap:butt;stroke-linejoin:miter;stroke-opacity:1" d="M 337.792,390.299 354.669,399.675 z" id="boundary" inkscape:connector-curvature="0" />
	<path style="fill:none;stroke:red;stroke-width:1px;stroke-linecap:butt;stroke-linejoin:miter;stroke-opacity:1" d="M 354.669,399.675 369.671,410.926 z" id="boundary" inkscape:connector-curvature="0" />
	<path style="fill:none;stroke:red;stroke-width:1px;stroke-linecap:butt;stroke-linejoin:miter;stroke-opacity:1" d="M 369.671,410.926 382.798,425.928 z" id="boundary" inkscape:connector-curvature="0" />
	<path style="fill:none;stroke:red;stroke-width:1px;stroke-linecap:butt;stroke-linejoin:miter;stroke-opacity:1" d="M 382.798,425.928 392.174,442.805 z" id="boundary" inkscape:connector-curvature="0" />
	<path style="fill:none;stroke:red;stroke-width:1px;stroke-linecap:butt;stroke-linejoin:miter;stroke-opacity:1" d="M 392.174,442.805 397.8,461.558 z" id="boundary" inkscape:connector-curvature="0" />
	<path style="fill:none;stroke:red;stroke-width:1px;stroke-linecap:butt;stroke-linejoin:miter;stroke-opacity:1" d="M 397.8,461.558 388.423,478.435 z" id="boundary" inkscape:connector-curvature="0" />
	<path style="fill:none;stroke:red;stroke-width:1px;stroke-linecap:butt;stroke-linejoin:miter;stroke-opacity:1" d="M 388.423,478.435 388.423,497.187 z" id="boundary" inkscape:connector-curvature="0" />
	<path style="fill:none;stroke:red;stroke-width:1px;stroke-linecap:butt;stroke-linejoin:miter;stroke-opacity:1" d="M 388.423,497.187 397.8,514.064 z" id="boundary" inkscape:connector-curvature="0" />
	<path style="fill:none;stroke:red;stroke-width:1px;stroke-linecap:butt;stroke-linejoin:miter;stroke-opacity:1" d="M 397.8,514.064 410.926,529.066 z" id="boundary" inkscape:connector-curvature="0" />
	<path style="fill:none;stroke:red;stroke-width:1px;stroke-linecap:butt;stroke-linejoin:miter;stroke-opacity:1" d="M 410.926,529.066 429.679,530.941 z" id="boundary" inkscape:connector-curvature="0" />
	<path style="fill:none;stroke:red;stroke-width:1px;stroke-linecap:butt;stroke-linejoin:miter;stroke-opacity:1" d="M 429.679,530.941 448.431,530.941 z" id="boundary" inkscape:connector-curvature="0" />
	<path style="fill:none;stroke:red;stroke-width:1px;stroke-linecap:butt;stroke-linejoin:miter;stroke-opacity:1" d="M 448.431,530.941 465.308,521.565 z" id="boundary" inkscape:connector-curvature="0" />
	<path style="fill:none;stroke:red;stroke-width:1px;stroke-linecap:butt;stroke-linejoin:miter;stroke-opacity:1" d="M 465.308,521.565 482.185,512.189 z" id="boundary" inkscape:connector-curvature="0" />
	<path style="fill:none;stroke:red;stroke-width:1px;stroke-linecap:butt;stroke-linejoin:miter;stroke-opacity:1" d="M 482.185,512.189 499.062,521.565 z" id="boundary" inkscape:connector-curvature="0" />
	<path style="fill:none;stroke:red;stroke-width:1px;stroke-linecap:butt;stroke-linejoin:miter;stroke-opacity:1" d="M 499.062,521.565 512.189,536.567 z" id="boundary" inkscape:connector-curvature="0" />
	<path style="fill:none;stroke:red;stroke-width:1px;stroke-linecap:butt;stroke-linejoin:miter;stroke-opacity:1" d="M 512.189,536.567 527.191,549.694 z" id="boundary" inkscape:connector-curvature="0" />
	<path style="fill:none;stroke:red;stroke-width:1px;stroke-linecap:butt;stroke-linejoin:miter;stroke-opacity:1" d="M 527.191,549.694 544.068,559.07 z" id="boundary" inkscape:connector-curvature="0" />
	<path style="fill:none;stroke:red;stroke-width:1px;stroke-linecap:butt;stroke-linejoin:miter;stroke-opacity:1" d="M 544.068,559.07 559.07,572.197 z" id="boundary" inkscape:connector-curvature="0" />
	<path style="fill:none;stroke:red;stroke-width:1px;stroke-linecap:butt;stroke-linejoin:miter;stroke-opacity:1" d="M 559.07,572.197 575.947,581.573 z" id="boundary" inkscape:connector-curvature="0" />
	<path style="fill:none;stroke:red;stroke-width:1px;stroke-linecap:butt;stroke-linejoin:miter;stroke-opacity:1" d="M 575.947,581.573 587.198,596.575 z" id="boundary" inkscape:connector-curvature="0" />
	<path style="fill:none;stroke:red;stroke-width:1px;stroke-linecap:butt;stroke-linejoin:miter;stroke-opacity:1" d="M 587.198,596.575 594.699,615.327 z" id="boundary" inkscape:connector-curvature="0" />
	<path style="fill:none;stroke:red;stroke-width:1px;stroke-linecap:butt;stroke-linejoin:miter;stroke-opacity:1" d="M 594.699,615.327 604.076,632.204 z" id="boundary" inkscape:connector-curvature="0" />
	<path style="fill:none;stroke:red;stroke-width:1px;stroke-linecap:butt;stroke-linejoin:miter;stroke-opacity:1" d="M 604.076,632.204 604.076,650.957 z" id="boundary" inkscape:connector-curvature="0" />
	<path style="fill:none;stroke:red;stroke-width:1px;stroke-linecap:butt;stroke-linejoin:miter;stroke-opacity:1" d="M 604.076,650.957 619.078,662.208 z" id="boundary" inkscape:connector-curvature="0" />
	<path style="fill:none;stroke:red;stroke-width:1px;stroke-linecap:butt;stroke-linejoin:miter;stroke-opacity:1" d="M 619.078,662.208 635.955,671.584 z" id="boundary" inkscape:connector-curvature="0" />
	<path style="fill:none;stroke:red;stroke-width:1px;stroke-linecap:butt;stroke-linejoin:miter;stroke-opacity:1" d="M 635.955,671.584 654.707,671.584 z" id="boundary" inkscape:connector-curvature="0" />
	<path style="fill:none;stroke:red;stroke-width:1px;stroke-linecap:butt;stroke-linejoin:miter;stroke-opacity:1" d="M 654.707,671.584 671.584,662.208 z" id="boundary" inkscape:connector-curvature="0" />
	<path style="fill:none;stroke:red;stroke-width:1px;stroke-linecap:butt;stroke-linejoin:miter;stroke-opacity:1" d="M 671.584,662.208 690.336,662.208 z" id="boundary" inkscape:connector-curvature="0" />
	<path style="fill:none;stroke:red;stroke-width:1px;stroke-linecap:butt;stroke-linejoin:miter;stroke-opacity:1" d="M 690.336,662.208 701.588,677.21 z" id="boundary" inkscape:connector-curvature="0" />
	<path style="fill:none;stroke:red;stroke-width:1px;stroke-linecap:butt;stroke-linejoin:miter;stroke-opacity:1" d="M 701.588,677.21 716.59,690.336 z" id="boundary" inkscape:connector-curvature="0" />
	<path style="fill:none;stroke:red;stroke-width:1px;stroke-linecap:butt;stroke-linejoin:miter;stroke-opacity:1" d="M 716.59,690.336 722.216,709.089 z" id="boundary" inkscape:connector-curvature="0" />
	<path style="fill:none;stroke:red;stroke-width:1px;stroke-linecap:butt;stroke-linejoin:miter;stroke-opacity:1" d="M 722.216,709.089 725.966,727.841 z" id="boundary" inkscape:connector-curvature="0" />
	<path style="fill:none;stroke:red;stroke-width:1px;stroke-linecap:butt;stroke-linejoin:miter;stroke-opacity:1" d="M 725.966,727.841 731.592,746.594 z" id="boundary" inkscape:connector-curvature="0" />
	<path style="fill:none;stroke:red;stroke-width:1px;stroke-linecap:butt;stroke-linejoin:miter;stroke-opacity:1" d="M 731.592,746.594 735.342,765.346 z" id="boundary" inkscape:connector-curvature="0" />
	<path style="fill:none;stroke:red;stroke-width:1px;stroke-linecap:butt;stroke-linejoin:miter;stroke-opacity:1" d="M 735.342,765.346 740.968,784.098 z" id="boundary" inkscape:connector-curvature="0" />
	<path style="fill:none;stroke:red;stroke-width:1px;stroke-linecap:butt;stroke-linejoin:miter;stroke-opacity:1" d="M 740.968,784.098 744.718,802.851 z" id="boundary" inkscape:connector-curvature="0" />
	<path style="fill:none;stroke:red;stroke-width:1px;stroke-linecap:butt;stroke-linejoin:miter;stroke-opacity:1" d="M 744.718,802.851 754.095,819.728 z" id="boundary" inkscape:connector-curvature="0" />
	<path style="fill:none;stroke:red;stroke-width:1px;stroke-linecap:butt;stroke-linejoin:miter;stroke-opacity:1" d="M 754.095,819.728 765.346,834.73 z" id="boundary" inkscape:connector-curvature="0" />
	<path style="fill:none;stroke:red;stroke-width:1px;stroke-linecap:butt;stroke-linejoin:miter;stroke-opacity:1" d="M 765.346,834.73 778.473,849.732 z" id="boundary" inkscape:connector-curvature="0" />
	<path style="fill:none;stroke:red;stroke-width:1px;stroke-linecap:butt;stroke-linejoin:miter;stroke-opacity:1" d="M 4,19.0019 19.0019,4 z" id="boundary" inkscape:connector-curvature="0" />
	<path style="fill:none;stroke:red;stroke-width:1px;stroke-linecap:butt;stroke-linejoin:miter;stroke-opacity:1" d="M 19.0019,4 35.879,13.3762 z" id="boundary" inkscape:connector-curvature="0" />
	<path style="fill:none;stroke:red;stroke-width:1px;stroke-linecap:butt;stroke-linejoin:miter;stroke-opacity:1" d="M 35.879,13.3762 52.7561,22.7524 z" id="boundary" inkscape:connector-curvature="0" />
	<path style="fill:none;stroke:red;stroke-width:1px;stroke-linecap:butt;stroke-linejoin:miter;stroke-opacity:1" d="M 52.7561,22.7524 71.5085,28.3781 z" id="boundary" inkscape:connector-curvature="0" />
	<path style="fill:none;stroke:red;stroke-width:1px;stroke-linecap:butt;stroke-linejoin:miter;stroke-opacity:1" d="M 71.5085,28.3781 90.2609,32.1285 z" id="boundary" inkscape:connector-curvature="0" />
	<path style="fill:none;stroke:red;stroke-width:1px;stroke-linecap:butt;stroke-linejoin:miter;stroke-opacity:1" d="M 90.2609,32.1285 105.263,43.38 z" id="boundary" inkscape:connector-curvature="0" />
	<path style="fill:none;stroke:red;stroke-width:1px;stroke-linecap:butt;stroke-linejoin:miter;stroke-opacity:1" d="M 105.263,43.38 122.14,52.7561 z" id="boundary" inkscape:connector-curvature="0" />
	<path style="fill:none;stroke:red;stroke-width:1px;stroke-linecap:butt;stroke-linejoin:miter;stroke-opacity:1" d="M 122.14,52.7561 140.892,60.2571 z" id="boundary" inkscape:connector-curvature="0" />
	<path style="fill:none;stroke:red;stroke-width:1px;stroke-linecap:butt;stroke-linejoin:miter;stroke-opacity:1" d="M 140.892,60.2571 157.769,69.6333 z" id="boundary" inkscape:connector-curvature="0" />
	<path style="fill:none;stroke:red;stroke-width:1px;stroke-linecap:butt;stroke-linejoin:miter;stroke-opacity:1" d="M 157.769,69.6333 174.647,79.0095 z" id="boundary" inkscape:connector-curvature="0" />
	<path style="fill:none;stroke:red;stroke-width:1px;stroke-linecap:butt;stroke-linejoin:miter;stroke-opacity:1" d="M 174.647,79.0095 193.399,84.6352 z" id="boundary" inkscape:connector-curvature="0" />
	<path style="fill:none;stroke:red;stroke-width:1px;stroke-linecap:butt;stroke-linejoin:miter;stroke-opacity:1" d="M 193.399,84.6352 208.401,97.7618 z" id="boundary" inkscape:connector-curvature="0" />
	<path style="fill:none;stroke:red;stroke-width:1px;stroke-linecap:butt;stroke-linejoin:miter;stroke-opacity:1" d="M 208.401,97.7618 225.278,107.138 z" id="boundary" inkscape:connector-curvature="0" />
	<path style="fill:none;stroke:red;stroke-width:1px;stroke-linecap:butt;stroke-linejoin:miter;stroke-opacity:1" d="M 225.278,107.138 242.155,116.514 z" id="boundary" inkscape:connector-curvature="0" />
	<path style="fill:none;stroke:red;stroke-width:1px;stroke-linecap:butt;stroke-linejoin:miter;stroke-opacity:1" d="M 242.155,116.514 259.032,125.89 z" id="boundary" inkscape:connector-curvature="0" />
	<path style="fill:none;stroke:red;stroke-width:1px;stroke-linecap:butt;stroke-linejoin:miter;stroke-opacity:1" d="M 259.032,125.89 274.034,137.142 z" id="boundary" inkscape:connector-curvature="0" />
	<path style="fill:none;stroke:red;stroke-width:1px;stroke-linecap:butt;stroke-linejoin:miter;stroke-opacity:1" d="M 274.034,137.142 287.161,152.144 z" id="boundary" inkscape:connector-curvature="0" />
	<path style="fill:none;stroke:red;stroke-width:1px;stroke-linecap:butt;stroke-linejoin:miter;stroke-opacity:1" d="M 287.161,152.144 305.913,159.645 z" id="boundary" inkscape:connector-curvature="0" />
	<path style="fill:none;stroke:red;stroke-width:1px;stroke-linecap:butt;stroke-linejoin:miter;stroke-opacity:1" d="M 305.913,159.645 319.04,174.647 z" id="boundary" inkscape:connector-curvature="0" />
	<path style="fill:none;stroke:red;stroke-width:1px;stroke-linecap:butt;stroke-linejoin:miter;stroke-opacity:1" d="M 319.04,174.647 337.792,182.147 z" id="boundary" inkscape:connector-curvature="0" />
	<path style="fill:none;stroke:red;stroke-width:1px;stroke-linecap:butt;stroke-linejoin:miter;stroke-opacity:1" d="M 337.792,182.147 350.919,197.149 z" id="boundary" inkscape:connector-curvature="0" />
	<path style="fill:none;stroke:red;stroke-width:1px;stroke-linecap:butt;stroke-linejoin:miter;stroke-opacity:1" d="M 350.919,197.149 369.671,204.65 z" id="boundary" inkscape:connector-curvature="0" />
	<path style="fill:none;stroke:red;stroke-width:1px;stroke-linecap:butt;stroke-linejoin:miter;stroke-opacity:1" d="M 369.671,204.65 380.922,219.652 z" id="boundary" inkscape:connector-curvature="0" />
	<path style="fill:none;stroke:red;stroke-width:1px;stroke-linecap:butt;stroke-linejoin:miter;stroke-opacity:1" d="M 380.922,219.652 395.924,230.904 z" id="boundary" inkscape:connector-curvature="0" />
	<path style="fill:none;stroke:red;stroke-width:1px;stroke-linecap:butt;stroke-linejoin:miter;stroke-opacity:1" d="M 395.924,230.904 409.051,245.905 z" id="boundary" inkscape:connector-curvature="0" />
	<path style="fill:none;stroke:red;stroke-width:1px;stroke-linecap:butt;stroke-linejoin:miter;stroke-opacity:1" d="M 409.051,245.905 424.053,259.032 z" id="boundary" inkscape:connector-curvature="0" />
	<path style="fill:none;stroke:red;stroke-width:1px;stroke-linecap:butt;stroke-linejoin:miter;stroke-opacity:1" d="M 424.053,259.032 440.93,268.408 z" id="boundary" inkscape:connector-curvature="0" />
	<path style="fill:none;stroke:red;stroke-width:1px;stroke-linecap:butt;stroke-linejoin:miter;stroke-opacity:1" d="M 440.93,268.408 459.682,275.909 z" id="boundary" inkscape:connector-curvature="0" />
	<path style="fill:none;stroke:red;stroke-width:1px;stroke-linecap:butt;stroke-linejoin:miter;stroke-opacity:1" d="M 459.682,275.909 478.435,275.909 z" id="boundary" inkscape:connector-curvature="0" />
	<path style="fill:none;stroke:red;stroke-width:1px;stroke-linecap:butt;stroke-linejoin:miter;stroke-opacity:1" d="M 478.435,275.909 497.187,275.909 z" id="boundary" inkscape:connector-curvature="0" />
	<path style="fill:none;stroke:red;stroke-width:1px;stroke-linecap:butt;stroke-linejoin:miter;stroke-opacity:1" d="M 497.187,275.909 514.064,285.285 z" id="boundary" inkscape:connector-curvature="0" />
	<path style="fill:none;stroke:red;stroke-width:1px;stroke-linecap:butt;stroke-linejoin:miter;stroke-opacity:1" d="M 514.064,285.285 532.817,285.285 z" id="boundary" inkscape:connector-curvature="0" />
	<path style="fill:none;stroke:red;stroke-width:1px;stroke-linecap:butt;stroke-linejoin:miter;stroke-opacity:1" d="M 532.817,285.285 549.694,294.662 z" id="boundary" inkscape:connector-curvature="0" />
	<path style="fill:none;stroke:red;stroke-width:1px;stroke-linecap:butt;stroke-linejoin:miter;stroke-opacity:1" d="M 549.694,294.662 568.446,294.662 z" id="boundary" inkscape:connector-curvature="0" />
	<path style="fill:none;stroke:red;stroke-width:1px;stroke-linecap:butt;stroke-linejoin:miter;stroke-opacity:1" d="M 568.446,294.662 587.198,300.287 z" id="boundary" inkscape:connector-curvature="0" />
	<path style="fill:none;stroke:red;stroke-width:1px;stroke-linecap:butt;stroke-linejoin:miter;stroke-opacity:1" d="M 587.198,300.287 604.076,309.664 z" id="boundary" inkscape:connector-curvature="0" />
	<path style="fill:none;stroke:red;stroke-width:1px;stroke-linecap:butt;stroke-linejoin:miter;stroke-opacity:1" d="M 604.076,309.664 619.078,322.79 z" id="boundary" inkscape:connector-curvature="0" />
	<path style="fill:none;stroke:red;stroke-width:1px;stroke-linecap:butt;stroke-linejoin:miter;stroke-opacity:1" d="M 619.078,322.79 615.327,352.794 z" id="boundary" inkscape:connector-curvature="0" />
	<path style="fill:none;stroke:red;stroke-width:1px;stroke-linecap:butt;stroke-linejoin:miter;stroke-opacity:1" d="M 615.327,352.794 605.951,380.922 z" id="boundary" inkscape:connector-curvature="0" />
	<path style="fill:none;stroke:red;stroke-width:1px;stroke-linecap:butt;stroke-linejoin:miter;stroke-opacity:1" d="M 605.951,380.922 596.575,399.675 z" id="boundary" inkscape:connector-curvature="0" />
	<path style="fill:none;stroke:red;stroke-width:1px;stroke-linecap:butt;stroke-linejoin:miter;stroke-opacity:1" d="M 596.575,399.675 596.575,418.427 z" id="boundary" inkscape:connector-curvature="0" />
	<path style="fill:none;stroke:red;stroke-width:1px;stroke-linecap:butt;stroke-linejoin:miter;stroke-opacity:1" d="M 596.575,418.427 596.575,437.18 z" id="boundary" inkscape:connector-curvature="0" />
	<path style="fill:none;stroke:red;stroke-width:1px;stroke-linecap:butt;stroke-linejoin:miter;stroke-opacity:1" d="M 596.575,437.18 605.951,454.057 z" id="boundary" inkscape:connector-curvature="0" />
	<path style="fill:none;stroke:red;stroke-width:1px;stroke-linecap:butt;stroke-linejoin:miter;stroke-opacity:1" d="M 605.951,454.057 615.327,470.934 z" id="boundary" inkscape:connector-curvature="0" />
	<path style="fill:none;stroke:red;stroke-width:1px;stroke-linecap:butt;stroke-linejoin:miter;stroke-opacity:1" d="M 615.327,470.934 630.329,484.06 z" id="boundary" inkscape:connector-curvature="0" />
	<path style="fill:none;stroke:red;stroke-width:1px;stroke-linecap:butt;stroke-linejoin:miter;stroke-opacity:1" d="M 630.329,484.06 643.456,499.062 z" id="boundary" inkscape:connector-curvature="0" />
	<path style="fill:none;stroke:red;stroke-width:1px;stroke-linecap:butt;stroke-linejoin:miter;stroke-opacity:1" d="M 643.456,499.062 658.457,512.189 z" id="boundary" inkscape:connector-curvature="0" />
	<path style="fill:none;stroke:red;stroke-width:1px;stroke-linecap:butt;stroke-linejoin:miter;stroke-opacity:1" d="M 658.457,512.189 665.958,530.941 z" id="boundary" inkscape:connector-curvature="0" />
	<path style="fill:none;stroke:red;stroke-width:1px;stroke-linecap:butt;stroke-linejoin:miter;stroke-opacity:1" d="M 665.958,530.941 680.96,544.068 z" id="boundary" inkscape:connector-curvature="0" />
	<path style="fill:none;stroke:red;stroke-width:1px;stroke-linecap:butt;stroke-linejoin:miter;stroke-opacity:1" d="M 680.96,544.068 694.087,559.07 z" id="boundary" inkscape:connector-curvature="0" />
	<path style="fill:none;stroke:red;stroke-width:1px;stroke-linecap:butt;stroke-linejoin:miter;stroke-opacity:1" d="M 694.087,559.07 703.463,575.947 z" id="boundary" inkscape:connector-curvature="0" />
	<path style="fill:none;stroke:red;stroke-width:1px;stroke-linecap:butt;stroke-linejoin:miter;stroke-opacity:1" d="M 703.463,575.947 716.59,590.949 z" id="boundary" inkscape:connector-curvature="0" />
	<path style="fill:none;stroke:red;stroke-width:1px;stroke-linecap:butt;stroke-linejoin:miter;stroke-opacity:1" d="M 716.59,590.949 731.592,604.076 z" id="boundary" inkscape:connector-curvature="0" />
	<path style="fill:none;stroke:red;stroke-width:1px;stroke-linecap:butt;stroke-linejoin:miter;stroke-opacity:1" d="M 731.592,604.076 744.718,619.078 z" id="boundary" inkscape:connector-curvature="0" />
	<path style="fill:none;stroke:red;stroke-width:1px;stroke-linecap:butt;stroke-linejoin:miter;stroke-opacity:1" d="M 744.718,619.078 759.72,632.204 z" id="boundary" inkscape:connector-curvature="0" />
	<path style="fill:none;stroke:red;stroke-width:1px;stroke-linecap:butt;stroke-linejoin:miter;stroke-opacity:1" d="M 759.72,632.204 776.597,641.58 z" id="boundary" inkscape:connector-curvature="0" />
	<path style="fill:none;stroke:red;stroke-width:1px;stroke-linecap:butt;stroke-linejoin:miter;stroke-opacity:1" d="M 776.597,641.58 793.474,650.957 z" id="boundary" inkscape:connector-curvature="0" />
	<path style="fill:none;stroke:red;stroke-width:1px;stroke-linecap:butt;stroke-linejoin:miter;stroke-opacity:1" d="M 793.474,650.957 812.227,650.957 z" id="boundary" inkscape:connector-curvature="0" />
	<path style="fill:none;stroke:red;stroke-width:1px;stroke-linecap:butt;stroke-linejoin:miter;stroke-opacity:1" d="M 812.227,650.957 829.104,660.333 z" id="boundary" inkscape:connector-curvature="0" />
	<path style="fill:none;stroke:red;stroke-width:1px;stroke-linecap:butt;stroke-linejoin:miter;stroke-opacity:1" d="M 829.104,660.333 847.856,664.083 z" id="boundary" inkscape:connector-curvature="0" />
	<path style="fill:none;stroke:red;stroke-width:1px;stroke-linecap:butt;stroke-linejoin:miter;stroke-opacity:1" d="M 847.856,664.083 866.609,669.709 z" id="boundary" inkscape:connector-curvature="0" />
	<path style="fill:none;stroke:red;stroke-width:1px;stroke-linecap:butt;stroke-linejoin:miter;stroke-opacity:1" d="M 866.609,669.709 883.486,679.085 z" id="boundary" inkscape:connector-curvature="0" />
	<path style="fill:none;stroke:red;stroke-width:1px;stroke-linecap:butt;stroke-linejoin:miter;stroke-opacity:1" d="M 883.486,679.085 902.238,680.96 z" id="boundary" inkscape:connector-curvature="0" />
	<path style="fill:none;stroke:red;stroke-width:1px;stroke-linecap:butt;stroke-linejoin:miter;stroke-opacity:1" d="M 902.238,680.96 919.115,690.336 z" id="boundary" inkscape:connector-curvature="0" />
	<path style="fill:none;stroke:red;stroke-width:1px;stroke-linecap:butt;stroke-linejoin:miter;stroke-opacity:1" d="M 919.115,690.336 937.868,697.837 z" id="boundary" inkscape:connector-curvature="0" />
	<path style="fill:none;stroke:red;stroke-width:1px;stroke-linecap:butt;stroke-linejoin:miter;stroke-opacity:1" d="M 937.868,697.837 954.745,707.214 z" id="boundary" inkscape:connector-curvature="0" />
	<path style="fill:none;stroke:red;stroke-width:1px;stroke-linecap:butt;stroke-linejoin:miter;stroke-opacity:1" d="M 954.745,707.214 971.622,716.59 z" id="boundary" inkscape:connector-curvature="0" />
	<path style="fill:none;stroke:red;stroke-width:1px;stroke-linecap:butt;stroke-linejoin:miter;stroke-opacity:1" d="M 971.622,716.59 990.374,722.216 z" id="boundary" inkscape:connector-curvature="0" />
	<path style="fill:none;stroke:red;stroke-width:1px;stroke-linecap:butt;stroke-linejoin:miter;stroke-opacity:1" d="M 990.374,722.216 996,742.843 z" id="boundary" inkscape:connector-curvature="0" />
	<path style="fill:none;stroke:red;stroke-width:1px;stroke-linecap:butt;stroke-linejoin:miter;stroke-opacity:1" d="M 996,742.843 977.248,746.594 z" id="boundary" inkscape:connector-curvature="0" />
	<path style="fill:none;stroke:red;stroke-width:1px;stroke-linecap:butt;stroke-linejoin:miter;stroke-opacity:1" d="M 977.248,746.594 958.495,746.594 z" id="boundary" inkscape:connector-curvature="0" />
	<path style="fill:none;stroke:red;stroke-width:1px;stroke-linecap:butt;stroke-linejoin:miter;stroke-opacity:1" d="M 958.495,746.594 939.743,746.594 z" id="boundary" inkscape:connector-curvature="0" />
	<path style="fill:none;stroke:red;stroke-width:1px;stroke-linecap:butt;stroke-linejoin:miter;stroke-opacity:1" d="M 939.743,746.594 922.866,737.217 z" id="boundary" inkscape:connector-curvature="0" />
	<path style="fill:none;stroke:red;stroke-width:1px;stroke-linecap:butt;stroke-linejoin:miter;stroke-opacity:1" d="M 922.866,737.217 904.113,737.217 z" id="boundary" inkscape:connector-curvature="0" />
	<path style="fill:none;stroke:red;stroke-width:1px;stroke-linecap:butt;stroke-linejoin:miter;stroke-opacity:1" d="M 904.113,737.217 885.361,737.217 z" id="boundary" inkscape:connector-curvature="0" />
	<path style="fill:none;stroke:red;stroke-width:1px;stroke-linecap:butt;stroke-linejoin:miter;stroke-opacity:1" d="M 885.361,737.217 868.484,727.841 z" id="boundary" inkscape:connector-curvature="0" />
	<path style="fill:none;stroke:red;stroke-width:1px;stroke-linecap:butt;stroke-linejoin:miter;stroke-opacity:1" d="M 868.484,727.841 849.732,727.841 z" id="boundary" inkscape:connector-curvature="0" />
	<path style="fill:none;stroke:red;stroke-width:1px;stroke-linecap:butt;stroke-linejoin:miter;stroke-opacity:1" d="M 849.732,727.841 830.979,727.841 z" id="boundary" inkscape:connector-curvature="0" />
	<path style="fill:none;stroke:red;stroke-width:1px;stroke-linecap:butt;stroke-linejoin:miter;stroke-opacity:1" d="M 830.979,727.841 812.227,737.217 z" id="boundary" inkscape:connector-curvature="0" />
	<path style="fill:none;stroke:red;stroke-width:1px;stroke-linecap:butt;stroke-linejoin:miter;stroke-opacity:1" d="M 812.227,737.217 802.851,765.346 z" id="boundary" inkscape:connector-curvature="0" />
	<path style="fill:none;stroke:red;stroke-width:1px;stroke-linecap:butt;stroke-linejoin:miter;stroke-opacity:1" d="M 802.851,765.346 802.851,784.098 z" id="boundary" inkscape:connector-curvature="0" />
	<path style="fill:none;stroke:red;stroke-width:1px;stroke-linecap:butt;stroke-linejoin:miter;stroke-opacity:1" d="M 802.851,784.098 802.851,802.851 z" id="boundary" inkscape:connector-curvature="0" />
	<path style="fill:none;stroke:red;stroke-width:1px;stroke-linecap:butt;stroke-linejoin:miter;stroke-opacity:1" d="M 802.851,802.851 793.474,821.603 z" id="boundary" inkscape:connector-curvature="0" />
	<path style="fill:none;stroke:red;stroke-width:1px;stroke-linecap:butt;stroke-linejoin:miter;stroke-opacity:1" d="M 778.473,849.732 793.474,821.603 z" id="boundary" inkscape:connector-curvature="0" />
	<circle cx="4" cy="19.0019" r="4" fill="#0" id="circle0"/>
	<circle cx="4" cy="37.7543" r="4" fill="#0" id="circle1"/>
	<circle cx="13.3762" cy="54.6314" r="4" fill="#0" id="circle2"/>
	<circle cx="19.0019" cy="4" r="4" fill="#0" id="circle3"/>
	<circle cx="26.5028" cy="69.6333" r="4" fill="#0" id="circle4"/>
	<circle cx="35.879" cy="13.3762" r="4" fill="#0" id="circle5"/>
	<circle cx="41.5047" cy="80.8847" r="4" fill="#0" id="circle6"/>
	<circle cx="47.1304" cy="99.6371" r="4" fill="#0" id="circle7"/>
	<circle cx="52.7561" cy="22.7524" r="4" fill="#0" id="circle8"/>
	<circle cx="62.1323" cy="112.764" r="4" fill="#0" id="circle9"/>
	<circle cx="71.5085" cy="28.3781" r="4" fill="#0" id="circle10"/>
	<circle cx="75.259" cy="127.766" r="4" fill="#0" id="circle11"/>
	<circle cx="90.2609" cy="32.1285" r="4" fill="#0" id="circle12"/>
	<circle cx="90.2609" cy="140.892" r="4" fill="#0" id="circle13"/>
	<circle cx="103.388" cy="155.894" r="4" fill="#0" id="circle14"/>
	<circle cx="105.263" cy="43.38" r="4" fill="#0" id="circle15"/>
	<circle cx="118.389" cy="169.021" r="4" fill="#0" id="circle16"/>
	<circle cx="122.14" cy="52.7561" r="4" fill="#0" id="circle17"/>
	<circle cx="125.89" cy="187.773" r="4" fill="#0" id="circle18"/>
	<circle cx="140.892" cy="60.2571" r="4" fill="#0" id="circle19"/>
	<circle cx="140.892" cy="200.9" r="4" fill="#0" id="circle20"/>
	<circle cx="154.019" cy="215.902" r="4" fill="#0" id="circle21"/>
	<circle cx="157.769" cy="69.6333" r="4" fill="#0" id="circle22"/>
	<circle cx="163.395" cy="232.779" r="4" fill="#0" id="circle23"/>
	<circle cx="174.647" cy="79.0095" r="4" fill="#0" id="circle24"/>
	<circle cx="182.147" cy="240.28" r="4" fill="#0" id="circle25"/>
	<circle cx="193.399" cy="84.6352" r="4" fill="#0" id="circle26"/>
	<circle cx="193.399" cy="255.282" r="4" fill="#0" id="circle27"/>
	<circle cx="208.401" cy="97.7618" r="4" fill="#0" id="circle28"/>
	<circle cx="208.401" cy="268.408" r="4" fill="#0" id="circle29"/>
	<circle cx="221.527" cy="283.41" r="4" fill="#0" id="circle30"/>
	<circle cx="225.278" cy="107.138" r="4" fill="#0" id="circle31"/>
	<circle cx="236.529" cy="296.537" r="4" fill="#0" id="circle32"/>
	<circle cx="242.155" cy="116.514" r="4" fill="#0" id="circle33"/>
	<circle cx="249.656" cy="311.539" r="4" fill="#0" id="circle34"/>
	<circle cx="259.032" cy="125.89" r="4" fill="#0" id="circle35"/>
	<circle cx="264.658" cy="324.665" r="4" fill="#0" id="circle36"/>
	<circle cx="274.034" cy="137.142" r="4" fill="#0" id="circle37"/>
	<circle cx="277.784" cy="339.667" r="4" fill="#0" id="circle38"/>
	<circle cx="287.161" cy="152.144" r="4" fill="#0" id="circle39"/>
	<circle cx="292.786" cy="352.794" r="4" fill="#0" id="circle40"/>
	<circle cx="305.913" cy="159.645" r="4" fill="#0" id="circle41"/>
	<circle cx="309.664" cy="362.17" r="4" fill="#0" id="circle42"/>
	<circle cx="319.04" cy="174.647" r="4" fill="#0" id="circle43"/>
	<circle cx="324.665" cy="375.297" r="4" fill="#0" id="circle44"/>
	<circle cx="337.792" cy="182.147" r="4" fill="#0" id="circle45"/>
	<circle cx="337.792" cy="390.299" r="4" fill="#0" id="circle46"/>
	<circle cx="350.919" cy="197.149" r="4" fill="#0" id="circle47"/>
	<circle cx="354.669" cy="399.675" r="4" fill="#0" id="circle48"/>
	<circle cx="369.671" cy="204.65" r="4" fill="#0" id="circle49"/>
	<circle cx="369.671" cy="410.926" r="4" fill="#0" id="circle50"/>
	<circle cx="380.922" cy="219.652" r="4" fill="#0" id="circle51"/>
	<circle cx="382.798" cy="425.928" r="4" fill="#0" id="circle52"/>
	<circle cx="388.423" cy="478.435" r="4" fill="#0" id="circle53"/>
	<circle cx="388.423" cy="497.187" r="4" fill="#0" id="circle54"/>
	<circle cx="392.174" cy="442.805" r="4" fill="#0" id="circle55"/>
	<circle cx="395.924" cy="230.904" r="4" fill="#0" id="circle56"/>
	<circle cx="397.8" cy="461.558" r="4" fill="#0" id="circle57"/>
	<circle cx="397.8" cy="514.064" r="4" fill="#0" id="circle58"/>
	<circle cx="409.051" cy="245.905" r="4" fill="#0" id="circle59"/>
	<circle cx="410.926" cy="529.066" r="4" fill="#0" id="circle60"/>
	<circle cx="424.053" cy="259.032" r="4" fill="#0" id="circle61"/>
	<circle cx="429.679" cy="530.941" r="4" fill="#0" id="circle62"/>
	<circle cx="440.93" cy="268.408" r="4" fill="#0" id="circle63"/>
	<circle cx="448.431" cy="530.941" r="4" fill="#0" id="circle64"/>
	<circle cx="459.682" cy="275.909" r="4" fill="#0" id="circle65"/>
	<circle cx="465.308" cy="521.565" r="4" fill="#0" id="circle66"/>
	<circle cx="478.435" cy="275.909" r="4" fill="#0" id="circle67"/>
	<circle cx="482.185" cy="512.189" r="4" fill="#0" id="circle68"/>
	<circle cx="497.187" cy="275.909" r="4" fill="#0" id="circle69"/>
	<circle cx="499.062" cy="521.565" r="4" fill="#0" id="circle70"/>
	<circle cx="512.189" cy="536.567" r="4" fill="#0" id="circle71"/>
	<circle cx="514.064" cy="285.285" r="4" fill="#0" id="circle72"/>
	<circle cx="527.191" cy="549.694" r="4" fill="#0" id="circle73"/>
	<circle cx="532.817" cy="285.285" r="4" fill="#0" id="circle74"/>
	<circle cx="544.068" cy="559.07" r="4" fill="#0" id="circle75"/>
	<circle cx="549.694" cy="294.662" r="4" fill="#0" id="circle76"/>
	<circle cx="559.07" cy="572.197" r="4" fill="#0" id="circle77"/>
	<circle cx="568.446" cy="294.662" r="4" fill="#0" id="circle78"/>
	<circle cx="575.947" cy="581.573" r="4" fill="#0" id="circle79"/>
	<circle cx="587.198" cy="300.287" r="4" fill="#0" id="circle80"/>
	<circle cx="587.198" cy="596.575" r="4" fill="#0" id="circle81"/>
	<circle cx="594.699" cy="615.327" r="4" fill="#0" id="circle82"/>
	<circle cx="596.575" cy="399.675" r="4" fill="#0" id="circle83"/>
	<circle cx="596.575" cy="418.427" r="4" fill="#0" id="circle84"/>
	<circle cx="596.575" cy="437.18" r="4" fill="#0" id="circle85"/>
	<circle cx="604.076" cy="309.664" r="4" fill="#0" id="circle86"/>
	<circle cx="604.076" cy="632.204" r="4" fill="#0" id="circle87"/>
	<circle cx="604.076" cy="650.957" r="4" fill="#0" id="circle88"/>
	<circle cx="605.951" cy="380.922" r="4" fill="#0" id="circle89"/>
	<circle cx="605.951" cy="454.057" r="4" fill="#0" id="circle90"/>
	<circle cx="615.327" cy="352.794" r="4" fill="#0" id="circle91"/>
	<circle cx="615.327" cy="470.934" r="4" fill="#0" id="circle92"/>
	<circle cx="619.078" cy="322.79" r="4" fill="#0" id="circle93"/>
	<circle cx="619.078" cy="662.208" r="4" fill="#0" id="circle94"/>
	<circle cx="630.329" cy="484.06" r="4" fill="#0" id="circle95"/>
	<circle cx="635.955" cy="671.584" r="4" fill="#0" id="circle96"/>
	<circle cx="643.456" cy="499.062" r="4" fill="#0" id="circle97"/>
	<circle cx="654.707" cy="671.584" r="4" fill="#0" id="circle98"/>
	<circle cx="658.457" cy="512.189" r="4" fill="#0" id="circle99"/>
	<circle cx="665.958" cy="530.941" r="4" fill="#0" id="circle100"/>
	<circle cx="671.584" cy="662.208" r="4" fill="#0" id="circle101"/>
	<circle cx="680.96" cy="544.068" r="4" fill="#0" id="circle102"/>
	<circle cx="690.336" cy="662.208" r="4" fill="#0" id="circle103"/>
	<circle cx="694.087" cy="559.07" r="4" fill="#0" id="circle104"/>
	<circle cx="701.588" cy="677.21" r="4" fill="#0" id="circle105"/>
	<circle cx="703.463" cy="575.947" r="4" fill="#0" id="circle106"/>
	<circle cx="716.59" cy="590.949" r="4" fill="#0" id="circle107"/>
	<circle cx="716.59" cy="690.336" r="4" fill="#0" id="circle108"/>
	<circle cx="722.216" cy="709.089" r="4" fill="#0" id="circle109"/>
	<circle cx="725.966" cy="727.841" r="4" fill="#0" id="circle110"/>
	<circle cx="731.592" cy="604.076" r="4" fill="#0" id="circle111"/>
	<circle cx="731.592" cy="746.594" r="4" fill="#0" id="circle112"/>
	<circle cx="735.342" cy="765.346" r="4" fill="#0" id="circle113"/>
	<circle cx="740.968" cy="784.098" r="4" fill="#0" id="circle114"/>
	<circle cx="744.718" cy="619.078" r="4" fill="#0" id="circle115"/>
	<circle cx="744.718" cy="802.851" r="4" fill="#0" id="circle116"/>
	<circle cx="754.095" cy="819.728" r="4" fill="#0" id="circle117"/>
	<circle cx="759.72" cy="632.204" r="4" fill="#0" id="circle118"/>
	<circle cx="765.346" cy="834.73" r="4" fill="#0" id="circle119"/>
	<circle cx="776.597" cy="641.58" r="4" fill="#0" id="circle120"/>
	<circle cx="778.473" cy="849.732" r="4" fill="#0" id="circle121"/>
	<circle cx="793.474" cy="650.957" r="4" fill="#0" id="circle122"/>
	<circle cx="793.474" cy="821.603" r="4" fill="#0" id="circle123"/>
	<circle cx="802.851" cy="765.346" r="4" fill="#0" id="circle124"/>
	<circle cx="802.851" cy="784.098" r="4" fill="#0" id="circle125"/>
	<circle cx="802.851" cy="802.851" r="4" fill="#0" id="circle126"/>
	<circle cx="812.227" cy="650.957" r="4" fill="#0" id="circle127"/>
	<circle cx="812.227" cy="737.217" r="4" fill="#0" id="circle128"/>
	<circle cx="829.104" cy="660.333" r="4" fill="#0" id="circle129"/>
	<circle cx="830.979" cy="727.841" r="4" fill="#0" id="circle130"/>
	<circle cx="847.856" cy="664.083" r="4" fill="#0" id="circle131"/>
	<circle cx="849.732" cy="727.841" r="4" fill="#0" id="circle132"/>
	<circle cx="866.609" cy="669.709" r="4" fill="#0" id="circle133"/>
	<circle cx="868.484" cy="727.841" r="4" fill="#0" id="circle134"/>
	<circle cx="883.486" cy="679.085" r="4" fill="#0" id="circle135"/>
	<circle cx="885.361" cy="737.217" r="4" fill="#0" id="circle136"/>
	<circle cx="902.238" cy="680.96" r="4" fill="#0" id="circle137"/>
	<circle cx="904.113" cy="737.217" r="4" fill="#0" id="circle138"/>
	<circle cx="919.115" cy="690.336" r="4" fill="#0" id="circle139"/>
	<circle cx="922.866" cy="737.217" r="4" fill="#0" id="circle140"/>
	<circle cx="937.868" cy="697.837" r="4" fill="#0" id="circle141"/>
	<circle cx="939.743" cy="746.594" r="4" fill="#0" id="circle142"/>
	<circle cx="954.745" cy="707.214" r="4" fill="#0" id="circle143"/>
	<circle cx="958.495" cy="746.594" r="4" fill="#0" id="circle144"/>
	<circle cx="971.622" cy="716.59" r="4" fill="#0" id="circle145"/>
	<circle cx="977.248" cy="746.594" r="4" fill="#0" id="circle146"/>
	<circle cx="990.374" cy="722.216" r="4" fill="#0" id="circle147"/>
	<circle cx="996" cy="742.843" r="4" fill="#0" id="circle148"/>
	</g>
</svg>