<?xml version="1.0" encoding="UTF-8" standalone="no"?>
<!-- Created with CurveBenchmark -->
<svg
	xmlns:dc="http://purl.org/dc/elements/1.1/"
	xmlns:cc="http://creativecommons.org/ns#"
	xmlns:rdf="http://www.w3.org/1999/02/22-rdf-syntax-ns#"
	xmlns:svg="http://www.w3.org/2000/svg"
	xmlns="http://www.w3.org/2000/svg"
	xmlns:sodipodi="http://sodipodi.sourceforge.net/DTD/sodipodi-0.dtd"
	xmlns:inkscape="http://www.inkscape.org/namespaces/inkscape"
	width="1000"
	height="1000"
	id="svg2"
	version="1.1"
	sodipodi:docname="manifold/crawl-Heart12.png.txt">
<defs
	id="defs4" />
<metadata
	id="metadata7">
	<rdf:RDF>
		<cc:Work
			rdf:about="">
			<dc:format>image/svg+xml</dc:format>
			<dc:type
				rdf:resource="http://purl.org/dc/dcmitype/StillImage" />
			<dc:title></dc:title>
		</cc:Work>
	</rdf:RDF>
</metadata>
<g
	inkscape:label="Layer 1"
	inkscape:groupmode="layer"
	id="layer1">
	<path style="fill:none;stroke:red;stroke-width:1px;stroke-linecap:butt;stroke-linejoin:miter;stroke-opacity:1" d="M 4,169.962 4,188.821 z" id="boundary" inkscape:connector-curvature="0" />
	<path style="fill:none;stroke:red;stroke-width:1px;stroke-linecap:butt;stroke-linejoin:miter;stroke-opacity:1" d="M 4,188.821 4,207.681 z" id="boundary" inkscape:connector-curvature="0" />
	<path style="fill:none;stroke:red;stroke-width:1px;stroke-linecap:butt;stroke-linejoin:miter;stroke-opacity:1" d="M 4,207.681 4,226.54 z" id="boundary" inkscape:connector-curvature="0" />
	<path style="fill:none;stroke:red;stroke-width:1px;stroke-linecap:butt;stroke-linejoin:miter;stroke-opacity:1" d="M 4,226.54 4,245.399 z" id="boundary" inkscape:connector-curvature="0" />
	<path style="fill:none;stroke:red;stroke-width:1px;stroke-linecap:butt;stroke-linejoin:miter;stroke-opacity:1" d="M 4,245.399 4,264.259 z" id="boundary" inkscape:connector-curvature="0" />
	<path style="fill:none;stroke:red;stroke-width:1px;stroke-linecap:butt;stroke-linejoin:miter;stroke-opacity:1" d="M 4,264.259 4,283.118 z" id="boundary" inkscape:connector-curvature="0" />
	<path style="fill:none;stroke:red;stroke-width:1px;stroke-linecap:butt;stroke-linejoin:miter;stroke-opacity:1" d="M 4,283.118 13.4297,300.091 z" id="boundary" inkscape:connector-curvature="0" />
	<path style="fill:none;stroke:red;stroke-width:1px;stroke-linecap:butt;stroke-linejoin:miter;stroke-opacity:1" d="M 13.4297,300.091 13.4297,318.951 z" id="boundary" inkscape:connector-curvature="0" />
	<path style="fill:none;stroke:red;stroke-width:1px;stroke-linecap:butt;stroke-linejoin:miter;stroke-opacity:1" d="M 13.4297,318.951 22.8593,335.924 z" id="boundary" inkscape:connector-curvature="0" />
	<path style="fill:none;stroke:red;stroke-width:1px;stroke-linecap:butt;stroke-linejoin:miter;stroke-opacity:1" d="M 22.8593,335.924 28.5171,354.783 z" id="boundary" inkscape:connector-curvature="0" />
	<path style="fill:none;stroke:red;stroke-width:1px;stroke-linecap:butt;stroke-linejoin:miter;stroke-opacity:1" d="M 28.5171,354.783 37.9468,371.757 z" id="boundary" inkscape:connector-curvature="0" />
	<path style="fill:none;stroke:red;stroke-width:1px;stroke-linecap:butt;stroke-linejoin:miter;stroke-opacity:1" d="M 37.9468,371.757 45.4905,390.616 z" id="boundary" inkscape:connector-curvature="0" />
	<path style="fill:none;stroke:red;stroke-width:1px;stroke-linecap:butt;stroke-linejoin:miter;stroke-opacity:1" d="M 45.4905,390.616 60.5779,401.932 z" id="boundary" inkscape:connector-curvature="0" />
	<path style="fill:none;stroke:red;stroke-width:1px;stroke-linecap:butt;stroke-linejoin:miter;stroke-opacity:1" d="M 60.5779,401.932 71.8935,417.019 z" id="boundary" inkscape:connector-curvature="0" />
	<path style="fill:none;stroke:red;stroke-width:1px;stroke-linecap:butt;stroke-linejoin:miter;stroke-opacity:1" d="M 71.8935,417.019 81.3232,433.992 z" id="boundary" inkscape:connector-curvature="0" />
	<path style="fill:none;stroke:red;stroke-width:1px;stroke-linecap:butt;stroke-linejoin:miter;stroke-opacity:1" d="M 81.3232,433.992 94.5247,449.08 z" id="boundary" inkscape:connector-curvature="0" />
	<path style="fill:none;stroke:red;stroke-width:1px;stroke-linecap:butt;stroke-linejoin:miter;stroke-opacity:1" d="M 94.5247,449.08 109.612,462.281 z" id="boundary" inkscape:connector-curvature="0" />
	<path style="fill:none;stroke:red;stroke-width:1px;stroke-linecap:butt;stroke-linejoin:miter;stroke-opacity:1" d="M 109.612,462.281 122.814,477.369 z" id="boundary" inkscape:connector-curvature="0" />
	<path style="fill:none;stroke:red;stroke-width:1px;stroke-linecap:butt;stroke-linejoin:miter;stroke-opacity:1" d="M 122.814,477.369 137.901,490.57 z" id="boundary" inkscape:connector-curvature="0" />
	<path style="fill:none;stroke:red;stroke-width:1px;stroke-linecap:butt;stroke-linejoin:miter;stroke-opacity:1" d="M 137.901,490.57 154.875,500 z" id="boundary" inkscape:connector-curvature="0" />
	<path style="fill:none;stroke:red;stroke-width:1px;stroke-linecap:butt;stroke-linejoin:miter;stroke-opacity:1" d="M 154.875,500 164.304,516.973 z" id="boundary" inkscape:connector-curvature="0" />
	<path style="fill:none;stroke:red;stroke-width:1px;stroke-linecap:butt;stroke-linejoin:miter;stroke-opacity:1" d="M 164.304,516.973 183.163,524.517 z" id="boundary" inkscape:connector-curvature="0" />
	<path style="fill:none;stroke:red;stroke-width:1px;stroke-linecap:butt;stroke-linejoin:miter;stroke-opacity:1" d="M 183.163,524.517 194.479,539.605 z" id="boundary" inkscape:connector-curvature="0" />
	<path style="fill:none;stroke:red;stroke-width:1px;stroke-linecap:butt;stroke-linejoin:miter;stroke-opacity:1" d="M 194.479,539.605 209.567,552.806 z" id="boundary" inkscape:connector-curvature="0" />
	<path style="fill:none;stroke:red;stroke-width:1px;stroke-linecap:butt;stroke-linejoin:miter;stroke-opacity:1" d="M 209.567,552.806 222.768,567.894 z" id="boundary" inkscape:connector-curvature="0" />
	<path style="fill:none;stroke:red;stroke-width:1px;stroke-linecap:butt;stroke-linejoin:miter;stroke-opacity:1" d="M 222.768,567.894 237.856,581.095 z" id="boundary" inkscape:connector-curvature="0" />
	<path style="fill:none;stroke:red;stroke-width:1px;stroke-linecap:butt;stroke-linejoin:miter;stroke-opacity:1" d="M 237.856,581.095 254.829,590.525 z" id="boundary" inkscape:connector-curvature="0" />
	<path style="fill:none;stroke:red;stroke-width:1px;stroke-linecap:butt;stroke-linejoin:miter;stroke-opacity:1" d="M 254.829,590.525 269.916,603.726 z" id="boundary" inkscape:connector-curvature="0" />
	<path style="fill:none;stroke:red;stroke-width:1px;stroke-linecap:butt;stroke-linejoin:miter;stroke-opacity:1" d="M 269.916,603.726 283.118,618.814 z" id="boundary" inkscape:connector-curvature="0" />
	<path style="fill:none;stroke:red;stroke-width:1px;stroke-linecap:butt;stroke-linejoin:miter;stroke-opacity:1" d="M 283.118,618.814 301.977,626.357 z" id="boundary" inkscape:connector-curvature="0" />
	<path style="fill:none;stroke:red;stroke-width:1px;stroke-linecap:butt;stroke-linejoin:miter;stroke-opacity:1" d="M 301.977,626.357 315.179,641.445 z" id="boundary" inkscape:connector-curvature="0" />
	<path style="fill:none;stroke:red;stroke-width:1px;stroke-linecap:butt;stroke-linejoin:miter;stroke-opacity:1" d="M 315.179,641.445 334.038,647.103 z" id="boundary" inkscape:connector-curvature="0" />
	<path style="fill:none;stroke:red;stroke-width:1px;stroke-linecap:butt;stroke-linejoin:miter;stroke-opacity:1" d="M 334.038,647.103 345.354,662.19 z" id="boundary" inkscape:connector-curvature="0" />
	<path style="fill:none;stroke:red;stroke-width:1px;stroke-linecap:butt;stroke-linejoin:miter;stroke-opacity:1" d="M 345.354,662.19 360.441,675.392 z" id="boundary" inkscape:connector-curvature="0" />
	<path style="fill:none;stroke:red;stroke-width:1px;stroke-linecap:butt;stroke-linejoin:miter;stroke-opacity:1" d="M 360.441,675.392 377.414,684.821 z" id="boundary" inkscape:connector-curvature="0" />
	<path style="fill:none;stroke:red;stroke-width:1px;stroke-linecap:butt;stroke-linejoin:miter;stroke-opacity:1" d="M 377.414,684.821 392.502,698.023 z" id="boundary" inkscape:connector-curvature="0" />
	<path style="fill:none;stroke:red;stroke-width:1px;stroke-linecap:butt;stroke-linejoin:miter;stroke-opacity:1" d="M 392.502,698.023 405.703,713.11 z" id="boundary" inkscape:connector-curvature="0" />
	<path style="fill:none;stroke:red;stroke-width:1px;stroke-linecap:butt;stroke-linejoin:miter;stroke-opacity:1" d="M 405.703,713.11 420.791,726.312 z" id="boundary" inkscape:connector-curvature="0" />
	<path style="fill:none;stroke:red;stroke-width:1px;stroke-linecap:butt;stroke-linejoin:miter;stroke-opacity:1" d="M 420.791,726.312 433.992,741.399 z" id="boundary" inkscape:connector-curvature="0" />
	<path style="fill:none;stroke:red;stroke-width:1px;stroke-linecap:butt;stroke-linejoin:miter;stroke-opacity:1" d="M 433.992,741.399 449.08,754.601 z" id="boundary" inkscape:connector-curvature="0" />
	<path style="fill:none;stroke:red;stroke-width:1px;stroke-linecap:butt;stroke-linejoin:miter;stroke-opacity:1" d="M 449.08,754.601 462.281,769.688 z" id="boundary" inkscape:connector-curvature="0" />
	<path style="fill:none;stroke:red;stroke-width:1px;stroke-linecap:butt;stroke-linejoin:miter;stroke-opacity:1" d="M 462.281,769.688 481.141,777.232 z" id="boundary" inkscape:connector-curvature="0" />
	<path style="fill:none;stroke:red;stroke-width:1px;stroke-linecap:butt;stroke-linejoin:miter;stroke-opacity:1" d="M 481.141,777.232 494.342,792.319 z" id="boundary" inkscape:connector-curvature="0" />
	<path style="fill:none;stroke:red;stroke-width:1px;stroke-linecap:butt;stroke-linejoin:miter;stroke-opacity:1" d="M 494.342,792.319 513.202,797.977 z" id="boundary" inkscape:connector-curvature="0" />
	<path style="fill:none;stroke:red;stroke-width:1px;stroke-linecap:butt;stroke-linejoin:miter;stroke-opacity:1" d="M 513.202,797.977 532.061,792.319 z" id="boundary" inkscape:connector-curvature="0" />
	<path style="fill:none;stroke:red;stroke-width:1px;stroke-linecap:butt;stroke-linejoin:miter;stroke-opacity:1" d="M 532.061,792.319 550.92,782.89 z" id="boundary" inkscape:connector-curvature="0" />
	<path style="fill:none;stroke:red;stroke-width:1px;stroke-linecap:butt;stroke-linejoin:miter;stroke-opacity:1" d="M 4,169.962 13.4297,151.103 z" id="boundary" inkscape:connector-curvature="0" />
	<path style="fill:none;stroke:red;stroke-width:1px;stroke-linecap:butt;stroke-linejoin:miter;stroke-opacity:1" d="M 13.4297,151.103 13.4297,132.243 z" id="boundary" inkscape:connector-curvature="0" />
	<path style="fill:none;stroke:red;stroke-width:1px;stroke-linecap:butt;stroke-linejoin:miter;stroke-opacity:1" d="M 13.4297,132.243 22.8593,113.384 z" id="boundary" inkscape:connector-curvature="0" />
	<path style="fill:none;stroke:red;stroke-width:1px;stroke-linecap:butt;stroke-linejoin:miter;stroke-opacity:1" d="M 22.8593,113.384 32.289,94.5247 z" id="boundary" inkscape:connector-curvature="0" />
	<path style="fill:none;stroke:red;stroke-width:1px;stroke-linecap:butt;stroke-linejoin:miter;stroke-opacity:1" d="M 32.289,94.5247 41.7186,75.6654 z" id="boundary" inkscape:connector-curvature="0" />
	<path style="fill:none;stroke:red;stroke-width:1px;stroke-linecap:butt;stroke-linejoin:miter;stroke-opacity:1" d="M 41.7186,75.6654 51.1483,56.8061 z" id="boundary" inkscape:connector-curvature="0" />
	<path style="fill:none;stroke:red;stroke-width:1px;stroke-linecap:butt;stroke-linejoin:miter;stroke-opacity:1" d="M 51.1483,56.8061 60.5779,37.9468 z" id="boundary" inkscape:connector-curvature="0" />
	<path style="fill:none;stroke:red;stroke-width:1px;stroke-linecap:butt;stroke-linejoin:miter;stroke-opacity:1" d="M 60.5779,37.9468 79.4373,28.5171 z" id="boundary" inkscape:connector-curvature="0" />
	<path style="fill:none;stroke:red;stroke-width:1px;stroke-linecap:butt;stroke-linejoin:miter;stroke-opacity:1" d="M 550.92,782.89 566.008,767.802 z" id="boundary" inkscape:connector-curvature="0" />
	<path style="fill:none;stroke:red;stroke-width:1px;stroke-linecap:butt;stroke-linejoin:miter;stroke-opacity:1" d="M 79.4373,28.5171 94.5247,13.4297 z" id="boundary" inkscape:connector-curvature="0" />
	<path style="fill:none;stroke:red;stroke-width:1px;stroke-linecap:butt;stroke-linejoin:miter;stroke-opacity:1" d="M 94.5247,13.4297 111.498,4 z" id="boundary" inkscape:connector-curvature="0" />
	<path style="fill:none;stroke:red;stroke-width:1px;stroke-linecap:butt;stroke-linejoin:miter;stroke-opacity:1" d="M 111.498,4 130.357,4 z" id="boundary" inkscape:connector-curvature="0" />
	<path style="fill:none;stroke:red;stroke-width:1px;stroke-linecap:butt;stroke-linejoin:miter;stroke-opacity:1" d="M 130.357,4 149.217,4 z" id="boundary" inkscape:connector-curvature="0" />
	<path style="fill:none;stroke:red;stroke-width:1px;stroke-linecap:butt;stroke-linejoin:miter;stroke-opacity:1" d="M 149.217,4 166.19,13.4297 z" id="boundary" inkscape:connector-curvature="0" />
	<path style="fill:none;stroke:red;stroke-width:1px;stroke-linecap:butt;stroke-linejoin:miter;stroke-opacity:1" d="M 166.19,13.4297 185.049,19.0875 z" id="boundary" inkscape:connector-curvature="0" />
	<path style="fill:none;stroke:red;stroke-width:1px;stroke-linecap:butt;stroke-linejoin:miter;stroke-opacity:1" d="M 185.049,19.0875 198.251,34.1749 z" id="boundary" inkscape:connector-curvature="0" />
	<path style="fill:none;stroke:red;stroke-width:1px;stroke-linecap:butt;stroke-linejoin:miter;stroke-opacity:1" d="M 198.251,34.1749 213.338,47.3764 z" id="boundary" inkscape:connector-curvature="0" />
	<path style="fill:none;stroke:red;stroke-width:1px;stroke-linecap:butt;stroke-linejoin:miter;stroke-opacity:1" d="M 213.338,47.3764 226.54,62.4639 z" id="boundary" inkscape:connector-curvature="0" />
	<path style="fill:none;stroke:red;stroke-width:1px;stroke-linecap:butt;stroke-linejoin:miter;stroke-opacity:1" d="M 226.54,62.4639 245.399,70.0076 z" id="boundary" inkscape:connector-curvature="0" />
	<path style="fill:none;stroke:red;stroke-width:1px;stroke-linecap:butt;stroke-linejoin:miter;stroke-opacity:1" d="M 245.399,70.0076 251.057,88.8669 z" id="boundary" inkscape:connector-curvature="0" />
	<path style="fill:none;stroke:red;stroke-width:1px;stroke-linecap:butt;stroke-linejoin:miter;stroke-opacity:1" d="M 251.057,88.8669 268.03,98.2966 z" id="boundary" inkscape:connector-curvature="0" />
	<path style="fill:none;stroke:red;stroke-width:1px;stroke-linecap:butt;stroke-linejoin:miter;stroke-opacity:1" d="M 268.03,98.2966 285.004,107.726 z" id="boundary" inkscape:connector-curvature="0" />
	<path style="fill:none;stroke:red;stroke-width:1px;stroke-linecap:butt;stroke-linejoin:miter;stroke-opacity:1" d="M 285.004,107.726 301.977,117.156 z" id="boundary" inkscape:connector-curvature="0" />
	<path style="fill:none;stroke:red;stroke-width:1px;stroke-linecap:butt;stroke-linejoin:miter;stroke-opacity:1" d="M 301.977,117.156 318.951,126.586 z" id="boundary" inkscape:connector-curvature="0" />
	<path style="fill:none;stroke:red;stroke-width:1px;stroke-linecap:butt;stroke-linejoin:miter;stroke-opacity:1" d="M 318.951,126.586 335.924,136.015 z" id="boundary" inkscape:connector-curvature="0" />
	<path style="fill:none;stroke:red;stroke-width:1px;stroke-linecap:butt;stroke-linejoin:miter;stroke-opacity:1" d="M 335.924,136.015 354.783,141.673 z" id="boundary" inkscape:connector-curvature="0" />
	<path style="fill:none;stroke:red;stroke-width:1px;stroke-linecap:butt;stroke-linejoin:miter;stroke-opacity:1" d="M 354.783,141.673 371.757,151.103 z" id="boundary" inkscape:connector-curvature="0" />
	<path style="fill:none;stroke:red;stroke-width:1px;stroke-linecap:butt;stroke-linejoin:miter;stroke-opacity:1" d="M 371.757,151.103 390.616,158.646 z" id="boundary" inkscape:connector-curvature="0" />
	<path style="fill:none;stroke:red;stroke-width:1px;stroke-linecap:butt;stroke-linejoin:miter;stroke-opacity:1" d="M 390.616,158.646 401.932,173.734 z" id="boundary" inkscape:connector-curvature="0" />
	<path style="fill:none;stroke:red;stroke-width:1px;stroke-linecap:butt;stroke-linejoin:miter;stroke-opacity:1" d="M 401.932,173.734 417.019,185.049 z" id="boundary" inkscape:connector-curvature="0" />
	<path style="fill:none;stroke:red;stroke-width:1px;stroke-linecap:butt;stroke-linejoin:miter;stroke-opacity:1" d="M 417.019,185.049 433.992,194.479 z" id="boundary" inkscape:connector-curvature="0" />
	<path style="fill:none;stroke:red;stroke-width:1px;stroke-linecap:butt;stroke-linejoin:miter;stroke-opacity:1" d="M 433.992,194.479 449.08,207.681 z" id="boundary" inkscape:connector-curvature="0" />
	<path style="fill:none;stroke:red;stroke-width:1px;stroke-linecap:butt;stroke-linejoin:miter;stroke-opacity:1" d="M 449.08,207.681 464.167,220.882 z" id="boundary" inkscape:connector-curvature="0" />
	<path style="fill:none;stroke:red;stroke-width:1px;stroke-linecap:butt;stroke-linejoin:miter;stroke-opacity:1" d="M 464.167,220.882 477.369,235.97 z" id="boundary" inkscape:connector-curvature="0" />
	<path style="fill:none;stroke:red;stroke-width:1px;stroke-linecap:butt;stroke-linejoin:miter;stroke-opacity:1" d="M 477.369,235.97 492.456,249.171 z" id="boundary" inkscape:connector-curvature="0" />
	<path style="fill:none;stroke:red;stroke-width:1px;stroke-linecap:butt;stroke-linejoin:miter;stroke-opacity:1" d="M 492.456,249.171 505.658,264.259 z" id="boundary" inkscape:connector-curvature="0" />
	<path style="fill:none;stroke:red;stroke-width:1px;stroke-linecap:butt;stroke-linejoin:miter;stroke-opacity:1" d="M 505.658,264.259 518.859,249.171 z" id="boundary" inkscape:connector-curvature="0" />
	<path style="fill:none;stroke:red;stroke-width:1px;stroke-linecap:butt;stroke-linejoin:miter;stroke-opacity:1" d="M 518.859,249.171 528.289,230.312 z" id="boundary" inkscape:connector-curvature="0" />
	<path style="fill:none;stroke:red;stroke-width:1px;stroke-linecap:butt;stroke-linejoin:miter;stroke-opacity:1" d="M 528.289,230.312 547.148,220.882 z" id="boundary" inkscape:connector-curvature="0" />
	<path style="fill:none;stroke:red;stroke-width:1px;stroke-linecap:butt;stroke-linejoin:miter;stroke-opacity:1" d="M 547.148,220.882 556.578,202.023 z" id="boundary" inkscape:connector-curvature="0" />
	<path style="fill:none;stroke:red;stroke-width:1px;stroke-linecap:butt;stroke-linejoin:miter;stroke-opacity:1" d="M 556.578,202.023 575.437,192.593 z" id="boundary" inkscape:connector-curvature="0" />
	<path style="fill:none;stroke:red;stroke-width:1px;stroke-linecap:butt;stroke-linejoin:miter;stroke-opacity:1" d="M 575.437,192.593 594.297,183.163 z" id="boundary" inkscape:connector-curvature="0" />
	<path style="fill:none;stroke:red;stroke-width:1px;stroke-linecap:butt;stroke-linejoin:miter;stroke-opacity:1" d="M 594.297,183.163 609.384,168.076 z" id="boundary" inkscape:connector-curvature="0" />
	<path style="fill:none;stroke:red;stroke-width:1px;stroke-linecap:butt;stroke-linejoin:miter;stroke-opacity:1" d="M 609.384,168.076 624.471,154.875 z" id="boundary" inkscape:connector-curvature="0" />
	<path style="fill:none;stroke:red;stroke-width:1px;stroke-linecap:butt;stroke-linejoin:miter;stroke-opacity:1" d="M 624.471,154.875 641.445,145.445 z" id="boundary" inkscape:connector-curvature="0" />
	<path style="fill:none;stroke:red;stroke-width:1px;stroke-linecap:butt;stroke-linejoin:miter;stroke-opacity:1" d="M 641.445,145.445 660.304,136.015 z" id="boundary" inkscape:connector-curvature="0" />
	<path style="fill:none;stroke:red;stroke-width:1px;stroke-linecap:butt;stroke-linejoin:miter;stroke-opacity:1" d="M 660.304,136.015 679.163,126.586 z" id="boundary" inkscape:connector-curvature="0" />
	<path style="fill:none;stroke:red;stroke-width:1px;stroke-linecap:butt;stroke-linejoin:miter;stroke-opacity:1" d="M 679.163,126.586 698.023,117.156 z" id="boundary" inkscape:connector-curvature="0" />
	<path style="fill:none;stroke:red;stroke-width:1px;stroke-linecap:butt;stroke-linejoin:miter;stroke-opacity:1" d="M 698.023,117.156 716.882,107.726 z" id="boundary" inkscape:connector-curvature="0" />
	<path style="fill:none;stroke:red;stroke-width:1px;stroke-linecap:butt;stroke-linejoin:miter;stroke-opacity:1" d="M 716.882,107.726 735.741,98.2966 z" id="boundary" inkscape:connector-curvature="0" />
	<path style="fill:none;stroke:red;stroke-width:1px;stroke-linecap:butt;stroke-linejoin:miter;stroke-opacity:1" d="M 735.741,98.2966 754.601,88.8669 z" id="boundary" inkscape:connector-curvature="0" />
	<path style="fill:none;stroke:red;stroke-width:1px;stroke-linecap:butt;stroke-linejoin:miter;stroke-opacity:1" d="M 754.601,88.8669 773.46,79.4373 z" id="boundary" inkscape:connector-curvature="0" />
	<path style="fill:none;stroke:red;stroke-width:1px;stroke-linecap:butt;stroke-linejoin:miter;stroke-opacity:1" d="M 773.46,79.4373 788.548,64.3498 z" id="boundary" inkscape:connector-curvature="0" />
	<path style="fill:none;stroke:red;stroke-width:1px;stroke-linecap:butt;stroke-linejoin:miter;stroke-opacity:1" d="M 788.548,64.3498 807.407,54.9202 z" id="boundary" inkscape:connector-curvature="0" />
	<path style="fill:none;stroke:red;stroke-width:1px;stroke-linecap:butt;stroke-linejoin:miter;stroke-opacity:1" d="M 807.407,54.9202 826.266,51.1483 z" id="boundary" inkscape:connector-curvature="0" />
	<path style="fill:none;stroke:red;stroke-width:1px;stroke-linecap:butt;stroke-linejoin:miter;stroke-opacity:1" d="M 826.266,51.1483 845.125,45.4905 z" id="boundary" inkscape:connector-curvature="0" />
	<path style="fill:none;stroke:red;stroke-width:1px;stroke-linecap:butt;stroke-linejoin:miter;stroke-opacity:1" d="M 845.125,45.4905 863.985,41.7186 z" id="boundary" inkscape:connector-curvature="0" />
	<path style="fill:none;stroke:red;stroke-width:1px;stroke-linecap:butt;stroke-linejoin:miter;stroke-opacity:1" d="M 863.985,41.7186 880.958,51.1483 z" id="boundary" inkscape:connector-curvature="0" />
	<path style="fill:none;stroke:red;stroke-width:1px;stroke-linecap:butt;stroke-linejoin:miter;stroke-opacity:1" d="M 880.958,51.1483 897.932,60.5779 z" id="boundary" inkscape:connector-curvature="0" />
	<path style="fill:none;stroke:red;stroke-width:1px;stroke-linecap:butt;stroke-linejoin:miter;stroke-opacity:1" d="M 897.932,60.5779 914.905,70.0076 z" id="boundary" inkscape:connector-curvature="0" />
	<path style="fill:none;stroke:red;stroke-width:1px;stroke-linecap:butt;stroke-linejoin:miter;stroke-opacity:1" d="M 914.905,70.0076 931.878,79.4373 z" id="boundary" inkscape:connector-curvature="0" />
	<path style="fill:none;stroke:red;stroke-width:1px;stroke-linecap:butt;stroke-linejoin:miter;stroke-opacity:1" d="M 931.878,79.4373 946.966,92.6388 z" id="boundary" inkscape:connector-curvature="0" />
	<path style="fill:none;stroke:red;stroke-width:1px;stroke-linecap:butt;stroke-linejoin:miter;stroke-opacity:1" d="M 946.966,92.6388 954.51,111.498 z" id="boundary" inkscape:connector-curvature="0" />
	<path style="fill:none;stroke:red;stroke-width:1px;stroke-linecap:butt;stroke-linejoin:miter;stroke-opacity:1" d="M 954.51,111.498 963.939,128.471 z" id="boundary" inkscape:connector-curvature="0" />
	<path style="fill:none;stroke:red;stroke-width:1px;stroke-linecap:butt;stroke-linejoin:miter;stroke-opacity:1" d="M 963.939,128.471 971.483,147.331 z" id="boundary" inkscape:connector-curvature="0" />
	<path style="fill:none;stroke:red;stroke-width:1px;stroke-linecap:butt;stroke-linejoin:miter;stroke-opacity:1" d="M 971.483,147.331 980.913,164.304 z" id="boundary" inkscape:connector-curvature="0" />
	<path style="fill:none;stroke:red;stroke-width:1px;stroke-linecap:butt;stroke-linejoin:miter;stroke-opacity:1" d="M 980.913,164.304 986.57,183.163 z" id="boundary" inkscape:connector-curvature="0" />
	<path style="fill:none;stroke:red;stroke-width:1px;stroke-linecap:butt;stroke-linejoin:miter;stroke-opacity:1" d="M 986.57,183.163 986.57,202.023 z" id="boundary" inkscape:connector-curvature="0" />
	<path style="fill:none;stroke:red;stroke-width:1px;stroke-linecap:butt;stroke-linejoin:miter;stroke-opacity:1" d="M 986.57,202.023 996,218.996 z" id="boundary" inkscape:connector-curvature="0" />
	<path style="fill:none;stroke:red;stroke-width:1px;stroke-linecap:butt;stroke-linejoin:miter;stroke-opacity:1" d="M 996,218.996 996,237.856 z" id="boundary" inkscape:connector-curvature="0" />
	<path style="fill:none;stroke:red;stroke-width:1px;stroke-linecap:butt;stroke-linejoin:miter;stroke-opacity:1" d="M 996,237.856 996,256.715 z" id="boundary" inkscape:connector-curvature="0" />
	<path style="fill:none;stroke:red;stroke-width:1px;stroke-linecap:butt;stroke-linejoin:miter;stroke-opacity:1" d="M 996,256.715 996,275.574 z" id="boundary" inkscape:connector-curvature="0" />
	<path style="fill:none;stroke:red;stroke-width:1px;stroke-linecap:butt;stroke-linejoin:miter;stroke-opacity:1" d="M 996,275.574 996,294.433 z" id="boundary" inkscape:connector-curvature="0" />
	<path style="fill:none;stroke:red;stroke-width:1px;stroke-linecap:butt;stroke-linejoin:miter;stroke-opacity:1" d="M 996,294.433 996,313.293 z" id="boundary" inkscape:connector-curvature="0" />
	<path style="fill:none;stroke:red;stroke-width:1px;stroke-linecap:butt;stroke-linejoin:miter;stroke-opacity:1" d="M 566.008,767.802 581.095,750.829 z" id="boundary" inkscape:connector-curvature="0" />
	<path style="fill:none;stroke:red;stroke-width:1px;stroke-linecap:butt;stroke-linejoin:miter;stroke-opacity:1" d="M 581.095,750.829 599.954,741.399 z" id="boundary" inkscape:connector-curvature="0" />
	<path style="fill:none;stroke:red;stroke-width:1px;stroke-linecap:butt;stroke-linejoin:miter;stroke-opacity:1" d="M 599.954,741.399 618.814,731.97 z" id="boundary" inkscape:connector-curvature="0" />
	<path style="fill:none;stroke:red;stroke-width:1px;stroke-linecap:butt;stroke-linejoin:miter;stroke-opacity:1" d="M 618.814,731.97 637.673,722.54 z" id="boundary" inkscape:connector-curvature="0" />
	<path style="fill:none;stroke:red;stroke-width:1px;stroke-linecap:butt;stroke-linejoin:miter;stroke-opacity:1" d="M 637.673,722.54 656.532,713.11 z" id="boundary" inkscape:connector-curvature="0" />
	<path style="fill:none;stroke:red;stroke-width:1px;stroke-linecap:butt;stroke-linejoin:miter;stroke-opacity:1" d="M 656.532,713.11 671.62,699.909 z" id="boundary" inkscape:connector-curvature="0" />
	<path style="fill:none;stroke:red;stroke-width:1px;stroke-linecap:butt;stroke-linejoin:miter;stroke-opacity:1" d="M 671.62,699.909 690.479,690.479 z" id="boundary" inkscape:connector-curvature="0" />
	<path style="fill:none;stroke:red;stroke-width:1px;stroke-linecap:butt;stroke-linejoin:miter;stroke-opacity:1" d="M 690.479,690.479 709.338,681.049 z" id="boundary" inkscape:connector-curvature="0" />
	<path style="fill:none;stroke:red;stroke-width:1px;stroke-linecap:butt;stroke-linejoin:miter;stroke-opacity:1" d="M 709.338,681.049 722.54,665.962 z" id="boundary" inkscape:connector-curvature="0" />
	<path style="fill:none;stroke:red;stroke-width:1px;stroke-linecap:butt;stroke-linejoin:miter;stroke-opacity:1" d="M 722.54,665.962 741.399,656.532 z" id="boundary" inkscape:connector-curvature="0" />
	<path style="fill:none;stroke:red;stroke-width:1px;stroke-linecap:butt;stroke-linejoin:miter;stroke-opacity:1" d="M 741.399,656.532 760.259,647.103 z" id="boundary" inkscape:connector-curvature="0" />
	<path style="fill:none;stroke:red;stroke-width:1px;stroke-linecap:butt;stroke-linejoin:miter;stroke-opacity:1" d="M 760.259,647.103 775.346,633.901 z" id="boundary" inkscape:connector-curvature="0" />
	<path style="fill:none;stroke:red;stroke-width:1px;stroke-linecap:butt;stroke-linejoin:miter;stroke-opacity:1" d="M 775.346,633.901 794.205,624.471 z" id="boundary" inkscape:connector-curvature="0" />
	<path style="fill:none;stroke:red;stroke-width:1px;stroke-linecap:butt;stroke-linejoin:miter;stroke-opacity:1" d="M 794.205,624.471 807.407,609.384 z" id="boundary" inkscape:connector-curvature="0" />
	<path style="fill:none;stroke:red;stroke-width:1px;stroke-linecap:butt;stroke-linejoin:miter;stroke-opacity:1" d="M 807.407,609.384 822.494,596.183 z" id="boundary" inkscape:connector-curvature="0" />
	<path style="fill:none;stroke:red;stroke-width:1px;stroke-linecap:butt;stroke-linejoin:miter;stroke-opacity:1" d="M 822.494,596.183 841.354,586.753 z" id="boundary" inkscape:connector-curvature="0" />
	<path style="fill:none;stroke:red;stroke-width:1px;stroke-linecap:butt;stroke-linejoin:miter;stroke-opacity:1" d="M 841.354,586.753 854.555,562.236 z" id="boundary" inkscape:connector-curvature="0" />
	<path style="fill:none;stroke:red;stroke-width:1px;stroke-linecap:butt;stroke-linejoin:miter;stroke-opacity:1" d="M 854.555,562.236 873.414,552.806 z" id="boundary" inkscape:connector-curvature="0" />
	<path style="fill:none;stroke:red;stroke-width:1px;stroke-linecap:butt;stroke-linejoin:miter;stroke-opacity:1" d="M 873.414,552.806 882.844,533.947 z" id="boundary" inkscape:connector-curvature="0" />
	<path style="fill:none;stroke:red;stroke-width:1px;stroke-linecap:butt;stroke-linejoin:miter;stroke-opacity:1" d="M 882.844,533.947 897.932,520.745 z" id="boundary" inkscape:connector-curvature="0" />
	<path style="fill:none;stroke:red;stroke-width:1px;stroke-linecap:butt;stroke-linejoin:miter;stroke-opacity:1" d="M 897.932,520.745 911.133,496.228 z" id="boundary" inkscape:connector-curvature="0" />
	<path style="fill:none;stroke:red;stroke-width:1px;stroke-linecap:butt;stroke-linejoin:miter;stroke-opacity:1" d="M 911.133,496.228 929.992,486.798 z" id="boundary" inkscape:connector-curvature="0" />
	<path style="fill:none;stroke:red;stroke-width:1px;stroke-linecap:butt;stroke-linejoin:miter;stroke-opacity:1" d="M 929.992,486.798 939.422,467.939 z" id="boundary" inkscape:connector-curvature="0" />
	<path style="fill:none;stroke:red;stroke-width:1px;stroke-linecap:butt;stroke-linejoin:miter;stroke-opacity:1" d="M 939.422,467.939 948.852,449.08 z" id="boundary" inkscape:connector-curvature="0" />
	<path style="fill:none;stroke:red;stroke-width:1px;stroke-linecap:butt;stroke-linejoin:miter;stroke-opacity:1" d="M 948.852,449.08 958.281,430.221 z" id="boundary" inkscape:connector-curvature="0" />
	<path style="fill:none;stroke:red;stroke-width:1px;stroke-linecap:butt;stroke-linejoin:miter;stroke-opacity:1" d="M 958.281,430.221 967.711,411.361 z" id="boundary" inkscape:connector-curvature="0" />
	<path style="fill:none;stroke:red;stroke-width:1px;stroke-linecap:butt;stroke-linejoin:miter;stroke-opacity:1" d="M 967.711,411.361 977.141,392.502 z" id="boundary" inkscape:connector-curvature="0" />
	<path style="fill:none;stroke:red;stroke-width:1px;stroke-linecap:butt;stroke-linejoin:miter;stroke-opacity:1" d="M 977.141,392.502 977.141,373.643 z" id="boundary" inkscape:connector-curvature="0" />
	<path style="fill:none;stroke:red;stroke-width:1px;stroke-linecap:butt;stroke-linejoin:miter;stroke-opacity:1" d="M 977.141,373.643 986.57,345.354 z" id="boundary" inkscape:connector-curvature="0" />
	<path style="fill:none;stroke:red;stroke-width:1px;stroke-linecap:butt;stroke-linejoin:miter;stroke-opacity:1" d="M 996,313.293 986.57,345.354 z" id="boundary" inkscape:connector-curvature="0" />
	<circle cx="4" cy="169.962" r="4" fill="#0" id="circle0"/>
	<circle cx="4" cy="188.821" r="4" fill="#0" id="circle1"/>
	<circle cx="4" cy="207.681" r="4" fill="#0" id="circle2"/>
	<circle cx="4" cy="226.54" r="4" fill="#0" id="circle3"/>
	<circle cx="4" cy="245.399" r="4" fill="#0" id="circle4"/>
	<circle cx="4" cy="264.259" r="4" fill="#0" id="circle5"/>
	<circle cx="4" cy="283.118" r="4" fill="#0" id="circle6"/>
	<circle cx="13.4297" cy="132.243" r="4" fill="#0" id="circle7"/>
	<circle cx="13.4297" cy="151.103" r="4" fill="#0" id="circle8"/>
	<circle cx="13.4297" cy="300.091" r="4" fill="#0" id="circle9"/>
	<circle cx="13.4297" cy="318.951" r="4" fill="#0" id="circle10"/>
	<circle cx="22.8593" cy="113.384" r="4" fill="#0" id="circle11"/>
	<circle cx="22.8593" cy="335.924" r="4" fill="#0" id="circle12"/>
	<circle cx="28.5171" cy="354.783" r="4" fill="#0" id="circle13"/>
	<circle cx="32.289" cy="94.5247" r="4" fill="#0" id="circle14"/>
	<circle cx="37.9468" cy="371.757" r="4" fill="#0" id="circle15"/>
	<circle cx="41.7186" cy="75.6654" r="4" fill="#0" id="circle16"/>
	<circle cx="45.4905" cy="390.616" r="4" fill="#0" id="circle17"/>
	<circle cx="51.1483" cy="56.8061" r="4" fill="#0" id="circle18"/>
	<circle cx="60.5779" cy="37.9468" r="4" fill="#0" id="circle19"/>
	<circle cx="60.5779" cy="401.932" r="4" fill="#0" id="circle20"/>
	<circle cx="71.8935" cy="417.019" r="4" fill="#0" id="circle21"/>
	<circle cx="79.4373" cy="28.5171" r="4" fill="#0" id="circle22"/>
	<circle cx="81.3232" cy="433.992" r="4" fill="#0" id="circle23"/>
	<circle cx="94.5247" cy="13.4297" r="4" fill="#0" id="circle24"/>
	<circle cx="94.5247" cy="449.08" r="4" fill="#0" id="circle25"/>
	<circle cx="109.612" cy="462.281" r="4" fill="#0" id="circle26"/>
	<circle cx="111.498" cy="4" r="4" fill="#0" id="circle27"/>
	<circle cx="122.814" cy="477.369" r="4" fill="#0" id="circle28"/>
	<circle cx="130.357" cy="4" r="4" fill="#0" id="circle29"/>
	<circle cx="137.901" cy="490.57" r="4" fill="#0" id="circle30"/>
	<circle cx="149.217" cy="4" r="4" fill="#0" id="circle31"/>
	<circle cx="154.875" cy="500" r="4" fill="#0" id="circle32"/>
	<circle cx="164.304" cy="516.973" r="4" fill="#0" id="circle33"/>
	<circle cx="166.19" cy="13.4297" r="4" fill="#0" id="circle34"/>
	<circle cx="183.163" cy="524.517" r="4" fill="#0" id="circle35"/>
	<circle cx="185.049" cy="19.0875" r="4" fill="#0" id="circle36"/>
	<circle cx="194.479" cy="539.605" r="4" fill="#0" id="circle37"/>
	<circle cx="198.251" cy="34.1749" r="4" fill="#0" id="circle38"/>
	<circle cx="209.567" cy="552.806" r="4" fill="#0" id="circle39"/>
	<circle cx="213.338" cy="47.3764" r="4" fill="#0" id="circle40"/>
	<circle cx="222.768" cy="567.894" r="4" fill="#0" id="circle41"/>
	<circle cx="226.54" cy="62.4639" r="4" fill="#0" id="circle42"/>
	<circle cx="237.856" cy="581.095" r="4" fill="#0" id="circle43"/>
	<circle cx="245.399" cy="70.0076" r="4" fill="#0" id="circle44"/>
	<circle cx="251.057" cy="88.8669" r="4" fill="#0" id="circle45"/>
	<circle cx="254.829" cy="590.525" r="4" fill="#0" id="circle46"/>
	<circle cx="268.03" cy="98.2966" r="4" fill="#0" id="circle47"/>
	<circle cx="269.916" cy="603.726" r="4" fill="#0" id="circle48"/>
	<circle cx="283.118" cy="618.814" r="4" fill="#0" id="circle49"/>
	<circle cx="285.004" cy="107.726" r="4" fill="#0" id="circle50"/>
	<circle cx="301.977" cy="117.156" r="4" fill="#0" id="circle51"/>
	<circle cx="301.977" cy="626.357" r="4" fill="#0" id="circle52"/>
	<circle cx="315.179" cy="641.445" r="4" fill="#0" id="circle53"/>
	<circle cx="318.951" cy="126.586" r="4" fill="#0" id="circle54"/>
	<circle cx="334.038" cy="647.103" r="4" fill="#0" id="circle55"/>
	<circle cx="335.924" cy="136.015" r="4" fill="#0" id="circle56"/>
	<circle cx="345.354" cy="662.19" r="4" fill="#0" id="circle57"/>
	<circle cx="354.783" cy="141.673" r="4" fill="#0" id="circle58"/>
	<circle cx="360.441" cy="675.392" r="4" fill="#0" id="circle59"/>
	<circle cx="371.757" cy="151.103" r="4" fill="#0" id="circle60"/>
	<circle cx="377.414" cy="684.821" r="4" fill="#0" id="circle61"/>
	<circle cx="390.616" cy="158.646" r="4" fill="#0" id="circle62"/>
	<circle cx="392.502" cy="698.023" r="4" fill="#0" id="circle63"/>
	<circle cx="401.932" cy="173.734" r="4" fill="#0" id="circle64"/>
	<circle cx="405.703" cy="713.11" r="4" fill="#0" id="circle65"/>
	<circle cx="417.019" cy="185.049" r="4" fill="#0" id="circle66"/>
	<circle cx="420.791" cy="726.312" r="4" fill="#0" id="circle67"/>
	<circle cx="433.992" cy="194.479" r="4" fill="#0" id="circle68"/>
	<circle cx="433.992" cy="741.399" r="4" fill="#0" id="circle69"/>
	<circle cx="449.08" cy="207.681" r="4" fill="#0" id="circle70"/>
	<circle cx="449.08" cy="754.601" r="4" fill="#0" id="circle71"/>
	<circle cx="462.281" cy="769.688" r="4" fill="#0" id="circle72"/>
	<circle cx="464.167" cy="220.882" r="4" fill="#0" id="circle73"/>
	<circle cx="477.369" cy="235.97" r="4" fill="#0" id="circle74"/>
	<circle cx="481.141" cy="777.232" r="4" fill="#0" id="circle75"/>
	<circle cx="492.456" cy="249.171" r="4" fill="#0" id="circle76"/>
	<circle cx="494.342" cy="792.319" r="4" fill="#0" id="circle77"/>
	<circle cx="505.658" cy="264.259" r="4" fill="#0" id="circle78"/>
	<circle cx="513.202" cy="797.977" r="4" fill="#0" id="circle79"/>
	<circle cx="518.859" cy="249.171" r="4" fill="#0" id="circle80"/>
	<circle cx="528.289" cy="230.312" r="4" fill="#0" id="circle81"/>
	<circle cx="532.061" cy="792.319" r="4" fill="#0" id="circle82"/>
	<circle cx="547.148" cy="220.882" r="4" fill="#0" id="circle83"/>
	<circle cx="550.92" cy="782.89" r="4" fill="#0" id="circle84"/>
	<circle cx="556.578" cy="202.023" r="4" fill="#0" id="circle85"/>
	<circle cx="566.008" cy="767.802" r="4" fill="#0" id="circle86"/>
	<circle cx="575.437" cy="192.593" r="4" fill="#0" id="circle87"/>
	<circle cx="581.095" cy="750.829" r="4" fill="#0" id="circle88"/>
	<circle cx="594.297" cy="183.163" r="4" fill="#0" id="circle89"/>
	<circle cx="599.954" cy="741.399" r="4" fill="#0" id="circle90"/>
	<circle cx="609.384" cy="168.076" r="4" fill="#0" id="circle91"/>
	<circle cx="618.814" cy="731.97" r="4" fill="#0" id="circle92"/>
	<circle cx="624.471" cy="154.875" r="4" fill="#0" id="circle93"/>
	<circle cx="637.673" cy="722.54" r="4" fill="#0" id="circle94"/>
	<circle cx="641.445" cy="145.445" r="4" fill="#0" id="circle95"/>
	<circle cx="656.532" cy="713.11" r="4" fill="#0" id="circle96"/>
	<circle cx="660.304" cy="136.015" r="4" fill="#0" id="circle97"/>
	<circle cx="671.62" cy="699.909" r="4" fill="#0" id="circle98"/>
	<circle cx="679.163" cy="126.586" r="4" fill="#0" id="circle99"/>
	<circle cx="690.479" cy="690.479" r="4" fill="#0" id="circle100"/>
	<circle cx="698.023" cy="117.156" r="4" fill="#0" id="circle101"/>
	<circle cx="709.338" cy="681.049" r="4" fill="#0" id="circle102"/>
	<circle cx="716.882" cy="107.726" r="4" fill="#0" id="circle103"/>
	<circle cx="722.54" cy="665.962" r="4" fill="#0" id="circle104"/>
	<circle cx="735.741" cy="98.2966" r="4" fill="#0" id="circle105"/>
	<circle cx="741.399" cy="656.532" r="4" fill="#0" id="circle106"/>
	<circle cx="754.601" cy="88.8669" r="4" fill="#0" id="circle107"/>
	<circle cx="760.259" cy="647.103" r="4" fill="#0" id="circle108"/>
	<circle cx="773.46" cy="79.4373" r="4" fill="#0" id="circle109"/>
	<circle cx="775.346" cy="633.901" r="4" fill="#0" id="circle110"/>
	<circle cx="788.548" cy="64.3498" r="4" fill="#0" id="circle111"/>
	<circle cx="794.205" cy="624.471" r="4" fill="#0" id="circle112"/>
	<circle cx="807.407" cy="54.9202" r="4" fill="#0" id="circle113"/>
	<circle cx="807.407" cy="609.384" r="4" fill="#0" id="circle114"/>
	<circle cx="822.494" cy="596.183" r="4" fill="#0" id="circle115"/>
	<circle cx="826.266" cy="51.1483" r="4" fill="#0" id="circle116"/>
	<circle cx="841.354" cy="586.753" r="4" fill="#0" id="circle117"/>
	<circle cx="845.125" cy="45.4905" r="4" fill="#0" id="circle118"/>
	<circle cx="854.555" cy="562.236" r="4" fill="#0" id="circle119"/>
	<circle cx="863.985" cy="41.7186" r="4" fill="#0" id="circle120"/>
	<circle cx="873.414" cy="552.806" r="4" fill="#0" id="circle121"/>
	<circle cx="880.958" cy="51.1483" r="4" fill="#0" id="circle122"/>
	<circle cx="882.844" cy="533.947" r="4" fill="#0" id="circle123"/>
	<circle cx="897.932" cy="60.5779" r="4" fill="#0" id="circle124"/>
	<circle cx="897.932" cy="520.745" r="4" fill="#0" id="circle125"/>
	<circle cx="911.133" cy="496.228" r="4" fill="#0" id="circle126"/>
	<circle cx="914.905" cy="70.0076" r="4" fill="#0" id="circle127"/>
	<circle cx="929.992" cy="486.798" r="4" fill="#0" id="circle128"/>
	<circle cx="931.878" cy="79.4373" r="4" fill="#0" id="circle129"/>
	<circle cx="939.422" cy="467.939" r="4" fill="#0" id="circle130"/>
	<circle cx="946.966" cy="92.6388" r="4" fill="#0" id="circle131"/>
	<circle cx="948.852" cy="449.08" r="4" fill="#0" id="circle132"/>
	<circle cx="954.51" cy="111.498" r="4" fill="#0" id="circle133"/>
	<circle cx="958.281" cy="430.221" r="4" fill="#0" id="circle134"/>
	<circle cx="963.939" cy="128.471" r="4" fill="#0" id="circle135"/>
	<circle cx="967.711" cy="411.361" r="4" fill="#0" id="circle136"/>
	<circle cx="971.483" cy="147.331" r="4" fill="#0" id="circle137"/>
	<circle cx="977.141" cy="373.643" r="4" fill="#0" id="circle138"/>
	<circle cx="977.141" cy="392.502" r="4" fill="#0" id="circle139"/>
	<circle cx="980.913" cy="164.304" r="4" fill="#0" id="circle140"/>
	<circle cx="986.57" cy="183.163" r="4" fill="#0" id="circle141"/>
	<circle cx="986.57" cy="202.023" r="4" fill="#0" id="circle142"/>
	<circle cx="986.57" cy="345.354" r="4" fill="#0" id="circle143"/>
	<circle cx="996" cy="218.996" r="4" fill="#0" id="circle144"/>
	<circle cx="996" cy="237.856" r="4" fill="#0" id="circle145"/>
	<circle cx="996" cy="256.715" r="4" fill="#0" id="circle146"/>
	<circle cx="996" cy="275.574" r="4" fill="#0" id="circle147"/>
	<circle cx="996" cy="294.433" r="4" fill="#0" id="circle148"/>
	<circle cx="996" cy="313.293" r="4" fill="#0" id="circle149"/>
	</g>
</svg>