<?xml version="1.0" encoding="UTF-8" standalone="no"?>
<!-- Created with CurveBenchmark -->
<svg
	xmlns:dc="http://purl.org/dc/elements/1.1/"
	xmlns:cc="http://creativecommons.org/ns#"
	xmlns:rdf="http://www.w3.org/1999/02/22-rdf-syntax-ns#"
	xmlns:svg="http://www.w3.org/2000/svg"
	xmlns="http://www.w3.org/2000/svg"
	xmlns:sodipodi="http://sodipodi.sourceforge.net/DTD/sodipodi-0.dtd"
	xmlns:inkscape="http://www.inkscape.org/namespaces/inkscape"
	width="1000"
	height="1000"
	id="svg2"
	version="1.1"
	sodipodi:docname="manifold/crawl-fork18.png.txt">
<defs
	id="defs4" />
<metadata
	id="metadata7">
	<rdf:RDF>
		<cc:Work
			rdf:about="">
			<dc:format>image/svg+xml</dc:format>
			<dc:type
				rdf:resource="http://purl.org/dc/dcmitype/StillImage" />
			<dc:title></dc:title>
		</cc:Work>
	</rdf:RDF>
</metadata>
<g
	inkscape:label="Layer 1"
	inkscape:groupmode="layer"
	id="layer1">
	<path style="fill:none;stroke:red;stroke-width:1px;stroke-linecap:butt;stroke-linejoin:miter;stroke-opacity:1" d="M 15.2727,43.4545 34.0606,43.4545 z" id="boundary" inkscape:connector-curvature="0" />
	<path style="fill:none;stroke:red;stroke-width:1px;stroke-linecap:butt;stroke-linejoin:miter;stroke-opacity:1" d="M 34.0606,43.4545 52.8485,43.4545 z" id="boundary" inkscape:connector-curvature="0" />
	<path style="fill:none;stroke:red;stroke-width:1px;stroke-linecap:butt;stroke-linejoin:miter;stroke-opacity:1" d="M 52.8485,43.4545 71.6364,43.4545 z" id="boundary" inkscape:connector-curvature="0" />
	<path style="fill:none;stroke:red;stroke-width:1px;stroke-linecap:butt;stroke-linejoin:miter;stroke-opacity:1" d="M 71.6364,43.4545 90.4242,43.4545 z" id="boundary" inkscape:connector-curvature="0" />
	<path style="fill:none;stroke:red;stroke-width:1px;stroke-linecap:butt;stroke-linejoin:miter;stroke-opacity:1" d="M 90.4242,43.4545 109.212,43.4545 z" id="boundary" inkscape:connector-curvature="0" />
	<path style="fill:none;stroke:red;stroke-width:1px;stroke-linecap:butt;stroke-linejoin:miter;stroke-opacity:1" d="M 109.212,43.4545 128,43.4545 z" id="boundary" inkscape:connector-curvature="0" />
	<path style="fill:none;stroke:red;stroke-width:1px;stroke-linecap:butt;stroke-linejoin:miter;stroke-opacity:1" d="M 128,43.4545 146.788,43.4545 z" id="boundary" inkscape:connector-curvature="0" />
	<path style="fill:none;stroke:red;stroke-width:1px;stroke-linecap:butt;stroke-linejoin:miter;stroke-opacity:1" d="M 146.788,43.4545 165.576,43.4545 z" id="boundary" inkscape:connector-curvature="0" />
	<path style="fill:none;stroke:red;stroke-width:1px;stroke-linecap:butt;stroke-linejoin:miter;stroke-opacity:1" d="M 165.576,43.4545 184.364,43.4545 z" id="boundary" inkscape:connector-curvature="0" />
	<path style="fill:none;stroke:red;stroke-width:1px;stroke-linecap:butt;stroke-linejoin:miter;stroke-opacity:1" d="M 184.364,43.4545 203.152,43.4545 z" id="boundary" inkscape:connector-curvature="0" />
	<path style="fill:none;stroke:red;stroke-width:1px;stroke-linecap:butt;stroke-linejoin:miter;stroke-opacity:1" d="M 203.152,43.4545 221.939,43.4545 z" id="boundary" inkscape:connector-curvature="0" />
	<path style="fill:none;stroke:red;stroke-width:1px;stroke-linecap:butt;stroke-linejoin:miter;stroke-opacity:1" d="M 15.2727,43.4545 4,28.4242 z" id="boundary" inkscape:connector-curvature="0" />
	<path style="fill:none;stroke:red;stroke-width:1px;stroke-linecap:butt;stroke-linejoin:miter;stroke-opacity:1" d="M 221.939,43.4545 231.333,60.3636 z" id="boundary" inkscape:connector-curvature="0" />
	<path style="fill:none;stroke:red;stroke-width:1px;stroke-linecap:butt;stroke-linejoin:miter;stroke-opacity:1" d="M 231.333,60.3636 212.545,60.3636 z" id="boundary" inkscape:connector-curvature="0" />
	<path style="fill:none;stroke:red;stroke-width:1px;stroke-linecap:butt;stroke-linejoin:miter;stroke-opacity:1" d="M 4,28.4242 22.7879,22.7879 z" id="boundary" inkscape:connector-curvature="0" />
	<path style="fill:none;stroke:red;stroke-width:1px;stroke-linecap:butt;stroke-linejoin:miter;stroke-opacity:1" d="M 22.7879,22.7879 41.5758,22.7879 z" id="boundary" inkscape:connector-curvature="0" />
	<path style="fill:none;stroke:red;stroke-width:1px;stroke-linecap:butt;stroke-linejoin:miter;stroke-opacity:1" d="M 41.5758,22.7879 60.3636,19.0303 z" id="boundary" inkscape:connector-curvature="0" />
	<path style="fill:none;stroke:red;stroke-width:1px;stroke-linecap:butt;stroke-linejoin:miter;stroke-opacity:1" d="M 60.3636,19.0303 79.1515,13.3939 z" id="boundary" inkscape:connector-curvature="0" />
	<path style="fill:none;stroke:red;stroke-width:1px;stroke-linecap:butt;stroke-linejoin:miter;stroke-opacity:1" d="M 79.1515,13.3939 97.9394,13.3939 z" id="boundary" inkscape:connector-curvature="0" />
	<path style="fill:none;stroke:red;stroke-width:1px;stroke-linecap:butt;stroke-linejoin:miter;stroke-opacity:1" d="M 97.9394,13.3939 116.727,13.3939 z" id="boundary" inkscape:connector-curvature="0" />
	<path style="fill:none;stroke:red;stroke-width:1px;stroke-linecap:butt;stroke-linejoin:miter;stroke-opacity:1" d="M 116.727,13.3939 135.515,17.1515 z" id="boundary" inkscape:connector-curvature="0" />
	<path style="fill:none;stroke:red;stroke-width:1px;stroke-linecap:butt;stroke-linejoin:miter;stroke-opacity:1" d="M 135.515,17.1515 154.303,22.7879 z" id="boundary" inkscape:connector-curvature="0" />
	<path style="fill:none;stroke:red;stroke-width:1px;stroke-linecap:butt;stroke-linejoin:miter;stroke-opacity:1" d="M 154.303,22.7879 171.212,13.3939 z" id="boundary" inkscape:connector-curvature="0" />
	<path style="fill:none;stroke:red;stroke-width:1px;stroke-linecap:butt;stroke-linejoin:miter;stroke-opacity:1" d="M 171.212,13.3939 190,13.3939 z" id="boundary" inkscape:connector-curvature="0" />
	<path style="fill:none;stroke:red;stroke-width:1px;stroke-linecap:butt;stroke-linejoin:miter;stroke-opacity:1" d="M 190,13.3939 206.909,4 z" id="boundary" inkscape:connector-curvature="0" />
	<path style="fill:none;stroke:red;stroke-width:1px;stroke-linecap:butt;stroke-linejoin:miter;stroke-opacity:1" d="M 206.909,4 225.697,4 z" id="boundary" inkscape:connector-curvature="0" />
	<path style="fill:none;stroke:red;stroke-width:1px;stroke-linecap:butt;stroke-linejoin:miter;stroke-opacity:1" d="M 225.697,4 244.485,4 z" id="boundary" inkscape:connector-curvature="0" />
	<path style="fill:none;stroke:red;stroke-width:1px;stroke-linecap:butt;stroke-linejoin:miter;stroke-opacity:1" d="M 244.485,4 263.273,4 z" id="boundary" inkscape:connector-curvature="0" />
	<path style="fill:none;stroke:red;stroke-width:1px;stroke-linecap:butt;stroke-linejoin:miter;stroke-opacity:1" d="M 263.273,4 282.061,4 z" id="boundary" inkscape:connector-curvature="0" />
	<path style="fill:none;stroke:red;stroke-width:1px;stroke-linecap:butt;stroke-linejoin:miter;stroke-opacity:1" d="M 282.061,4 300.848,4 z" id="boundary" inkscape:connector-curvature="0" />
	<path style="fill:none;stroke:red;stroke-width:1px;stroke-linecap:butt;stroke-linejoin:miter;stroke-opacity:1" d="M 300.848,4 319.636,4 z" id="boundary" inkscape:connector-curvature="0" />
	<path style="fill:none;stroke:red;stroke-width:1px;stroke-linecap:butt;stroke-linejoin:miter;stroke-opacity:1" d="M 319.636,4 336.545,13.3939 z" id="boundary" inkscape:connector-curvature="0" />
	<path style="fill:none;stroke:red;stroke-width:1px;stroke-linecap:butt;stroke-linejoin:miter;stroke-opacity:1" d="M 336.545,13.3939 334.667,34.0606 z" id="boundary" inkscape:connector-curvature="0" />
	<path style="fill:none;stroke:red;stroke-width:1px;stroke-linecap:butt;stroke-linejoin:miter;stroke-opacity:1" d="M 334.667,34.0606 334.667,52.8485 z" id="boundary" inkscape:connector-curvature="0" />
	<path style="fill:none;stroke:red;stroke-width:1px;stroke-linecap:butt;stroke-linejoin:miter;stroke-opacity:1" d="M 334.667,52.8485 334.667,71.6364 z" id="boundary" inkscape:connector-curvature="0" />
	<path style="fill:none;stroke:red;stroke-width:1px;stroke-linecap:butt;stroke-linejoin:miter;stroke-opacity:1" d="M 334.667,71.6364 344.061,88.5455 z" id="boundary" inkscape:connector-curvature="0" />
	<path style="fill:none;stroke:red;stroke-width:1px;stroke-linecap:butt;stroke-linejoin:miter;stroke-opacity:1" d="M 344.061,88.5455 360.97,79.1515 z" id="boundary" inkscape:connector-curvature="0" />
	<path style="fill:none;stroke:red;stroke-width:1px;stroke-linecap:butt;stroke-linejoin:miter;stroke-opacity:1" d="M 360.97,79.1515 379.758,79.1515 z" id="boundary" inkscape:connector-curvature="0" />
	<path style="fill:none;stroke:red;stroke-width:1px;stroke-linecap:butt;stroke-linejoin:miter;stroke-opacity:1" d="M 379.758,79.1515 398.545,79.1515 z" id="boundary" inkscape:connector-curvature="0" />
	<path style="fill:none;stroke:red;stroke-width:1px;stroke-linecap:butt;stroke-linejoin:miter;stroke-opacity:1" d="M 398.545,79.1515 417.333,79.1515 z" id="boundary" inkscape:connector-curvature="0" />
	<path style="fill:none;stroke:red;stroke-width:1px;stroke-linecap:butt;stroke-linejoin:miter;stroke-opacity:1" d="M 417.333,79.1515 436.121,79.1515 z" id="boundary" inkscape:connector-curvature="0" />
	<path style="fill:none;stroke:red;stroke-width:1px;stroke-linecap:butt;stroke-linejoin:miter;stroke-opacity:1" d="M 436.121,79.1515 454.909,75.3939 z" id="boundary" inkscape:connector-curvature="0" />
	<path style="fill:none;stroke:red;stroke-width:1px;stroke-linecap:butt;stroke-linejoin:miter;stroke-opacity:1" d="M 454.909,75.3939 473.697,69.7576 z" id="boundary" inkscape:connector-curvature="0" />
	<path style="fill:none;stroke:red;stroke-width:1px;stroke-linecap:butt;stroke-linejoin:miter;stroke-opacity:1" d="M 473.697,69.7576 492.485,69.7576 z" id="boundary" inkscape:connector-curvature="0" />
	<path style="fill:none;stroke:red;stroke-width:1px;stroke-linecap:butt;stroke-linejoin:miter;stroke-opacity:1" d="M 492.485,69.7576 511.273,69.7576 z" id="boundary" inkscape:connector-curvature="0" />
	<path style="fill:none;stroke:red;stroke-width:1px;stroke-linecap:butt;stroke-linejoin:miter;stroke-opacity:1" d="M 511.273,69.7576 530.061,69.7576 z" id="boundary" inkscape:connector-curvature="0" />
	<path style="fill:none;stroke:red;stroke-width:1px;stroke-linecap:butt;stroke-linejoin:miter;stroke-opacity:1" d="M 530.061,69.7576 548.848,66 z" id="boundary" inkscape:connector-curvature="0" />
	<path style="fill:none;stroke:red;stroke-width:1px;stroke-linecap:butt;stroke-linejoin:miter;stroke-opacity:1" d="M 548.848,66 567.636,60.3636 z" id="boundary" inkscape:connector-curvature="0" />
	<path style="fill:none;stroke:red;stroke-width:1px;stroke-linecap:butt;stroke-linejoin:miter;stroke-opacity:1" d="M 567.636,60.3636 586.424,60.3636 z" id="boundary" inkscape:connector-curvature="0" />
	<path style="fill:none;stroke:red;stroke-width:1px;stroke-linecap:butt;stroke-linejoin:miter;stroke-opacity:1" d="M 586.424,60.3636 605.212,60.3636 z" id="boundary" inkscape:connector-curvature="0" />
	<path style="fill:none;stroke:red;stroke-width:1px;stroke-linecap:butt;stroke-linejoin:miter;stroke-opacity:1" d="M 605.212,60.3636 624,60.3636 z" id="boundary" inkscape:connector-curvature="0" />
	<path style="fill:none;stroke:red;stroke-width:1px;stroke-linecap:butt;stroke-linejoin:miter;stroke-opacity:1" d="M 624,60.3636 642.788,56.6061 z" id="boundary" inkscape:connector-curvature="0" />
	<path style="fill:none;stroke:red;stroke-width:1px;stroke-linecap:butt;stroke-linejoin:miter;stroke-opacity:1" d="M 642.788,56.6061 661.576,50.9697 z" id="boundary" inkscape:connector-curvature="0" />
	<path style="fill:none;stroke:red;stroke-width:1px;stroke-linecap:butt;stroke-linejoin:miter;stroke-opacity:1" d="M 661.576,50.9697 680.364,50.9697 z" id="boundary" inkscape:connector-curvature="0" />
	<path style="fill:none;stroke:red;stroke-width:1px;stroke-linecap:butt;stroke-linejoin:miter;stroke-opacity:1" d="M 680.364,50.9697 699.152,50.9697 z" id="boundary" inkscape:connector-curvature="0" />
	<path style="fill:none;stroke:red;stroke-width:1px;stroke-linecap:butt;stroke-linejoin:miter;stroke-opacity:1" d="M 699.152,50.9697 717.939,50.9697 z" id="boundary" inkscape:connector-curvature="0" />
	<path style="fill:none;stroke:red;stroke-width:1px;stroke-linecap:butt;stroke-linejoin:miter;stroke-opacity:1" d="M 717.939,50.9697 736.727,50.9697 z" id="boundary" inkscape:connector-curvature="0" />
	<path style="fill:none;stroke:red;stroke-width:1px;stroke-linecap:butt;stroke-linejoin:miter;stroke-opacity:1" d="M 736.727,50.9697 753.636,41.5758 z" id="boundary" inkscape:connector-curvature="0" />
	<path style="fill:none;stroke:red;stroke-width:1px;stroke-linecap:butt;stroke-linejoin:miter;stroke-opacity:1" d="M 753.636,41.5758 772.424,41.5758 z" id="boundary" inkscape:connector-curvature="0" />
	<path style="fill:none;stroke:red;stroke-width:1px;stroke-linecap:butt;stroke-linejoin:miter;stroke-opacity:1" d="M 772.424,41.5758 791.212,41.5758 z" id="boundary" inkscape:connector-curvature="0" />
	<path style="fill:none;stroke:red;stroke-width:1px;stroke-linecap:butt;stroke-linejoin:miter;stroke-opacity:1" d="M 791.212,41.5758 810,41.5758 z" id="boundary" inkscape:connector-curvature="0" />
	<path style="fill:none;stroke:red;stroke-width:1px;stroke-linecap:butt;stroke-linejoin:miter;stroke-opacity:1" d="M 810,41.5758 828.788,41.5758 z" id="boundary" inkscape:connector-curvature="0" />
	<path style="fill:none;stroke:red;stroke-width:1px;stroke-linecap:butt;stroke-linejoin:miter;stroke-opacity:1" d="M 828.788,41.5758 847.576,41.5758 z" id="boundary" inkscape:connector-curvature="0" />
	<path style="fill:none;stroke:red;stroke-width:1px;stroke-linecap:butt;stroke-linejoin:miter;stroke-opacity:1" d="M 847.576,41.5758 866.364,41.5758 z" id="boundary" inkscape:connector-curvature="0" />
	<path style="fill:none;stroke:red;stroke-width:1px;stroke-linecap:butt;stroke-linejoin:miter;stroke-opacity:1" d="M 866.364,41.5758 885.152,41.5758 z" id="boundary" inkscape:connector-curvature="0" />
	<path style="fill:none;stroke:red;stroke-width:1px;stroke-linecap:butt;stroke-linejoin:miter;stroke-opacity:1" d="M 885.152,41.5758 903.939,41.5758 z" id="boundary" inkscape:connector-curvature="0" />
	<path style="fill:none;stroke:red;stroke-width:1px;stroke-linecap:butt;stroke-linejoin:miter;stroke-opacity:1" d="M 903.939,41.5758 922.727,41.5758 z" id="boundary" inkscape:connector-curvature="0" />
	<path style="fill:none;stroke:red;stroke-width:1px;stroke-linecap:butt;stroke-linejoin:miter;stroke-opacity:1" d="M 922.727,41.5758 939.636,32.1818 z" id="boundary" inkscape:connector-curvature="0" />
	<path style="fill:none;stroke:red;stroke-width:1px;stroke-linecap:butt;stroke-linejoin:miter;stroke-opacity:1" d="M 939.636,32.1818 958.424,32.1818 z" id="boundary" inkscape:connector-curvature="0" />
	<path style="fill:none;stroke:red;stroke-width:1px;stroke-linecap:butt;stroke-linejoin:miter;stroke-opacity:1" d="M 958.424,32.1818 977.212,32.1818 z" id="boundary" inkscape:connector-curvature="0" />
	<path style="fill:none;stroke:red;stroke-width:1px;stroke-linecap:butt;stroke-linejoin:miter;stroke-opacity:1" d="M 977.212,32.1818 992.242,43.4545 z" id="boundary" inkscape:connector-curvature="0" />
	<path style="fill:none;stroke:red;stroke-width:1px;stroke-linecap:butt;stroke-linejoin:miter;stroke-opacity:1" d="M 992.242,43.4545 996,62.2424 z" id="boundary" inkscape:connector-curvature="0" />
	<path style="fill:none;stroke:red;stroke-width:1px;stroke-linecap:butt;stroke-linejoin:miter;stroke-opacity:1" d="M 996,62.2424 996,81.0303 z" id="boundary" inkscape:connector-curvature="0" />
	<path style="fill:none;stroke:red;stroke-width:1px;stroke-linecap:butt;stroke-linejoin:miter;stroke-opacity:1" d="M 996,81.0303 977.212,81.0303 z" id="boundary" inkscape:connector-curvature="0" />
	<path style="fill:none;stroke:red;stroke-width:1px;stroke-linecap:butt;stroke-linejoin:miter;stroke-opacity:1" d="M 977.212,81.0303 960.303,90.4242 z" id="boundary" inkscape:connector-curvature="0" />
	<path style="fill:none;stroke:red;stroke-width:1px;stroke-linecap:butt;stroke-linejoin:miter;stroke-opacity:1" d="M 960.303,90.4242 941.515,90.4242 z" id="boundary" inkscape:connector-curvature="0" />
	<path style="fill:none;stroke:red;stroke-width:1px;stroke-linecap:butt;stroke-linejoin:miter;stroke-opacity:1" d="M 941.515,90.4242 922.727,90.4242 z" id="boundary" inkscape:connector-curvature="0" />
	<path style="fill:none;stroke:red;stroke-width:1px;stroke-linecap:butt;stroke-linejoin:miter;stroke-opacity:1" d="M 922.727,90.4242 903.939,90.4242 z" id="boundary" inkscape:connector-curvature="0" />
	<path style="fill:none;stroke:red;stroke-width:1px;stroke-linecap:butt;stroke-linejoin:miter;stroke-opacity:1" d="M 903.939,90.4242 885.152,90.4242 z" id="boundary" inkscape:connector-curvature="0" />
	<path style="fill:none;stroke:red;stroke-width:1px;stroke-linecap:butt;stroke-linejoin:miter;stroke-opacity:1" d="M 885.152,90.4242 866.364,96.0606 z" id="boundary" inkscape:connector-curvature="0" />
	<path style="fill:none;stroke:red;stroke-width:1px;stroke-linecap:butt;stroke-linejoin:miter;stroke-opacity:1" d="M 866.364,96.0606 847.576,99.8182 z" id="boundary" inkscape:connector-curvature="0" />
	<path style="fill:none;stroke:red;stroke-width:1px;stroke-linecap:butt;stroke-linejoin:miter;stroke-opacity:1" d="M 847.576,99.8182 828.788,99.8182 z" id="boundary" inkscape:connector-curvature="0" />
	<path style="fill:none;stroke:red;stroke-width:1px;stroke-linecap:butt;stroke-linejoin:miter;stroke-opacity:1" d="M 828.788,99.8182 810,99.8182 z" id="boundary" inkscape:connector-curvature="0" />
	<path style="fill:none;stroke:red;stroke-width:1px;stroke-linecap:butt;stroke-linejoin:miter;stroke-opacity:1" d="M 810,99.8182 791.212,99.8182 z" id="boundary" inkscape:connector-curvature="0" />
	<path style="fill:none;stroke:red;stroke-width:1px;stroke-linecap:butt;stroke-linejoin:miter;stroke-opacity:1" d="M 791.212,99.8182 772.424,99.8182 z" id="boundary" inkscape:connector-curvature="0" />
	<path style="fill:none;stroke:red;stroke-width:1px;stroke-linecap:butt;stroke-linejoin:miter;stroke-opacity:1" d="M 772.424,99.8182 753.636,99.8182 z" id="boundary" inkscape:connector-curvature="0" />
	<path style="fill:none;stroke:red;stroke-width:1px;stroke-linecap:butt;stroke-linejoin:miter;stroke-opacity:1" d="M 753.636,99.8182 734.848,99.8182 z" id="boundary" inkscape:connector-curvature="0" />
	<path style="fill:none;stroke:red;stroke-width:1px;stroke-linecap:butt;stroke-linejoin:miter;stroke-opacity:1" d="M 734.848,99.8182 716.061,99.8182 z" id="boundary" inkscape:connector-curvature="0" />
	<path style="fill:none;stroke:red;stroke-width:1px;stroke-linecap:butt;stroke-linejoin:miter;stroke-opacity:1" d="M 716.061,99.8182 697.273,99.8182 z" id="boundary" inkscape:connector-curvature="0" />
	<path style="fill:none;stroke:red;stroke-width:1px;stroke-linecap:butt;stroke-linejoin:miter;stroke-opacity:1" d="M 697.273,99.8182 678.485,105.455 z" id="boundary" inkscape:connector-curvature="0" />
	<path style="fill:none;stroke:red;stroke-width:1px;stroke-linecap:butt;stroke-linejoin:miter;stroke-opacity:1" d="M 678.485,105.455 659.697,109.212 z" id="boundary" inkscape:connector-curvature="0" />
	<path style="fill:none;stroke:red;stroke-width:1px;stroke-linecap:butt;stroke-linejoin:miter;stroke-opacity:1" d="M 659.697,109.212 640.909,109.212 z" id="boundary" inkscape:connector-curvature="0" />
	<path style="fill:none;stroke:red;stroke-width:1px;stroke-linecap:butt;stroke-linejoin:miter;stroke-opacity:1" d="M 640.909,109.212 622.121,109.212 z" id="boundary" inkscape:connector-curvature="0" />
	<path style="fill:none;stroke:red;stroke-width:1px;stroke-linecap:butt;stroke-linejoin:miter;stroke-opacity:1" d="M 622.121,109.212 603.333,109.212 z" id="boundary" inkscape:connector-curvature="0" />
	<path style="fill:none;stroke:red;stroke-width:1px;stroke-linecap:butt;stroke-linejoin:miter;stroke-opacity:1" d="M 603.333,109.212 584.545,114.848 z" id="boundary" inkscape:connector-curvature="0" />
	<path style="fill:none;stroke:red;stroke-width:1px;stroke-linecap:butt;stroke-linejoin:miter;stroke-opacity:1" d="M 584.545,114.848 565.758,118.606 z" id="boundary" inkscape:connector-curvature="0" />
	<path style="fill:none;stroke:red;stroke-width:1px;stroke-linecap:butt;stroke-linejoin:miter;stroke-opacity:1" d="M 565.758,118.606 546.97,118.606 z" id="boundary" inkscape:connector-curvature="0" />
	<path style="fill:none;stroke:red;stroke-width:1px;stroke-linecap:butt;stroke-linejoin:miter;stroke-opacity:1" d="M 546.97,118.606 528.182,118.606 z" id="boundary" inkscape:connector-curvature="0" />
	<path style="fill:none;stroke:red;stroke-width:1px;stroke-linecap:butt;stroke-linejoin:miter;stroke-opacity:1" d="M 528.182,118.606 509.394,118.606 z" id="boundary" inkscape:connector-curvature="0" />
	<path style="fill:none;stroke:red;stroke-width:1px;stroke-linecap:butt;stroke-linejoin:miter;stroke-opacity:1" d="M 509.394,118.606 490.606,118.606 z" id="boundary" inkscape:connector-curvature="0" />
	<path style="fill:none;stroke:red;stroke-width:1px;stroke-linecap:butt;stroke-linejoin:miter;stroke-opacity:1" d="M 490.606,118.606 473.697,128 z" id="boundary" inkscape:connector-curvature="0" />
	<path style="fill:none;stroke:red;stroke-width:1px;stroke-linecap:butt;stroke-linejoin:miter;stroke-opacity:1" d="M 473.697,128 454.909,128 z" id="boundary" inkscape:connector-curvature="0" />
	<path style="fill:none;stroke:red;stroke-width:1px;stroke-linecap:butt;stroke-linejoin:miter;stroke-opacity:1" d="M 454.909,128 436.121,128 z" id="boundary" inkscape:connector-curvature="0" />
	<path style="fill:none;stroke:red;stroke-width:1px;stroke-linecap:butt;stroke-linejoin:miter;stroke-opacity:1" d="M 436.121,128 417.333,128 z" id="boundary" inkscape:connector-curvature="0" />
	<path style="fill:none;stroke:red;stroke-width:1px;stroke-linecap:butt;stroke-linejoin:miter;stroke-opacity:1" d="M 417.333,128 398.545,128 z" id="boundary" inkscape:connector-curvature="0" />
	<path style="fill:none;stroke:red;stroke-width:1px;stroke-linecap:butt;stroke-linejoin:miter;stroke-opacity:1" d="M 398.545,128 381.636,137.394 z" id="boundary" inkscape:connector-curvature="0" />
	<path style="fill:none;stroke:red;stroke-width:1px;stroke-linecap:butt;stroke-linejoin:miter;stroke-opacity:1" d="M 381.636,137.394 362.848,137.394 z" id="boundary" inkscape:connector-curvature="0" />
	<path style="fill:none;stroke:red;stroke-width:1px;stroke-linecap:butt;stroke-linejoin:miter;stroke-opacity:1" d="M 362.848,137.394 344.061,137.394 z" id="boundary" inkscape:connector-curvature="0" />
	<path style="fill:none;stroke:red;stroke-width:1px;stroke-linecap:butt;stroke-linejoin:miter;stroke-opacity:1" d="M 344.061,137.394 344.061,156.182 z" id="boundary" inkscape:connector-curvature="0" />
	<path style="fill:none;stroke:red;stroke-width:1px;stroke-linecap:butt;stroke-linejoin:miter;stroke-opacity:1" d="M 344.061,156.182 344.061,174.97 z" id="boundary" inkscape:connector-curvature="0" />
	<path style="fill:none;stroke:red;stroke-width:1px;stroke-linecap:butt;stroke-linejoin:miter;stroke-opacity:1" d="M 212.545,60.3636 188.121,69.7576 z" id="boundary" inkscape:connector-curvature="0" />
	<path style="fill:none;stroke:red;stroke-width:1px;stroke-linecap:butt;stroke-linejoin:miter;stroke-opacity:1" d="M 188.121,69.7576 169.333,69.7576 z" id="boundary" inkscape:connector-curvature="0" />
	<path style="fill:none;stroke:red;stroke-width:1px;stroke-linecap:butt;stroke-linejoin:miter;stroke-opacity:1" d="M 169.333,69.7576 150.545,69.7576 z" id="boundary" inkscape:connector-curvature="0" />
	<path style="fill:none;stroke:red;stroke-width:1px;stroke-linecap:butt;stroke-linejoin:miter;stroke-opacity:1" d="M 150.545,69.7576 131.758,69.7576 z" id="boundary" inkscape:connector-curvature="0" />
	<path style="fill:none;stroke:red;stroke-width:1px;stroke-linecap:butt;stroke-linejoin:miter;stroke-opacity:1" d="M 131.758,69.7576 114.848,79.1515 z" id="boundary" inkscape:connector-curvature="0" />
	<path style="fill:none;stroke:red;stroke-width:1px;stroke-linecap:butt;stroke-linejoin:miter;stroke-opacity:1" d="M 114.848,79.1515 96.0606,79.1515 z" id="boundary" inkscape:connector-curvature="0" />
	<path style="fill:none;stroke:red;stroke-width:1px;stroke-linecap:butt;stroke-linejoin:miter;stroke-opacity:1" d="M 96.0606,79.1515 77.2727,79.1515 z" id="boundary" inkscape:connector-curvature="0" />
	<path style="fill:none;stroke:red;stroke-width:1px;stroke-linecap:butt;stroke-linejoin:miter;stroke-opacity:1" d="M 77.2727,79.1515 60.3636,88.5455 z" id="boundary" inkscape:connector-curvature="0" />
	<path style="fill:none;stroke:red;stroke-width:1px;stroke-linecap:butt;stroke-linejoin:miter;stroke-opacity:1" d="M 60.3636,88.5455 56.6061,107.333 z" id="boundary" inkscape:connector-curvature="0" />
	<path style="fill:none;stroke:red;stroke-width:1px;stroke-linecap:butt;stroke-linejoin:miter;stroke-opacity:1" d="M 56.6061,107.333 75.3939,109.212 z" id="boundary" inkscape:connector-curvature="0" />
	<path style="fill:none;stroke:red;stroke-width:1px;stroke-linecap:butt;stroke-linejoin:miter;stroke-opacity:1" d="M 75.3939,109.212 94.1818,109.212 z" id="boundary" inkscape:connector-curvature="0" />
	<path style="fill:none;stroke:red;stroke-width:1px;stroke-linecap:butt;stroke-linejoin:miter;stroke-opacity:1" d="M 94.1818,109.212 112.97,109.212 z" id="boundary" inkscape:connector-curvature="0" />
	<path style="fill:none;stroke:red;stroke-width:1px;stroke-linecap:butt;stroke-linejoin:miter;stroke-opacity:1" d="M 112.97,109.212 131.758,109.212 z" id="boundary" inkscape:connector-curvature="0" />
	<path style="fill:none;stroke:red;stroke-width:1px;stroke-linecap:butt;stroke-linejoin:miter;stroke-opacity:1" d="M 131.758,109.212 148.667,99.8182 z" id="boundary" inkscape:connector-curvature="0" />
	<path style="fill:none;stroke:red;stroke-width:1px;stroke-linecap:butt;stroke-linejoin:miter;stroke-opacity:1" d="M 148.667,99.8182 167.455,99.8182 z" id="boundary" inkscape:connector-curvature="0" />
	<path style="fill:none;stroke:red;stroke-width:1px;stroke-linecap:butt;stroke-linejoin:miter;stroke-opacity:1" d="M 167.455,99.8182 186.242,99.8182 z" id="boundary" inkscape:connector-curvature="0" />
	<path style="fill:none;stroke:red;stroke-width:1px;stroke-linecap:butt;stroke-linejoin:miter;stroke-opacity:1" d="M 186.242,99.8182 205.03,99.8182 z" id="boundary" inkscape:connector-curvature="0" />
	<path style="fill:none;stroke:red;stroke-width:1px;stroke-linecap:butt;stroke-linejoin:miter;stroke-opacity:1" d="M 205.03,99.8182 223.818,99.8182 z" id="boundary" inkscape:connector-curvature="0" />
	<path style="fill:none;stroke:red;stroke-width:1px;stroke-linecap:butt;stroke-linejoin:miter;stroke-opacity:1" d="M 223.818,99.8182 238.848,111.091 z" id="boundary" inkscape:connector-curvature="0" />
	<path style="fill:none;stroke:red;stroke-width:1px;stroke-linecap:butt;stroke-linejoin:miter;stroke-opacity:1" d="M 238.848,111.091 248.242,128 z" id="boundary" inkscape:connector-curvature="0" />
	<path style="fill:none;stroke:red;stroke-width:1px;stroke-linecap:butt;stroke-linejoin:miter;stroke-opacity:1" d="M 248.242,128 229.455,135.515 z" id="boundary" inkscape:connector-curvature="0" />
	<path style="fill:none;stroke:red;stroke-width:1px;stroke-linecap:butt;stroke-linejoin:miter;stroke-opacity:1" d="M 229.455,135.515 210.667,135.515 z" id="boundary" inkscape:connector-curvature="0" />
	<path style="fill:none;stroke:red;stroke-width:1px;stroke-linecap:butt;stroke-linejoin:miter;stroke-opacity:1" d="M 210.667,135.515 191.879,141.152 z" id="boundary" inkscape:connector-curvature="0" />
	<path style="fill:none;stroke:red;stroke-width:1px;stroke-linecap:butt;stroke-linejoin:miter;stroke-opacity:1" d="M 191.879,141.152 173.091,144.909 z" id="boundary" inkscape:connector-curvature="0" />
	<path style="fill:none;stroke:red;stroke-width:1px;stroke-linecap:butt;stroke-linejoin:miter;stroke-opacity:1" d="M 173.091,144.909 154.303,144.909 z" id="boundary" inkscape:connector-curvature="0" />
	<path style="fill:none;stroke:red;stroke-width:1px;stroke-linecap:butt;stroke-linejoin:miter;stroke-opacity:1" d="M 154.303,144.909 135.515,150.545 z" id="boundary" inkscape:connector-curvature="0" />
	<path style="fill:none;stroke:red;stroke-width:1px;stroke-linecap:butt;stroke-linejoin:miter;stroke-opacity:1" d="M 135.515,150.545 116.727,154.303 z" id="boundary" inkscape:connector-curvature="0" />
	<path style="fill:none;stroke:red;stroke-width:1px;stroke-linecap:butt;stroke-linejoin:miter;stroke-opacity:1" d="M 116.727,154.303 97.9394,154.303 z" id="boundary" inkscape:connector-curvature="0" />
	<path style="fill:none;stroke:red;stroke-width:1px;stroke-linecap:butt;stroke-linejoin:miter;stroke-opacity:1" d="M 97.9394,154.303 79.1515,159.939 z" id="boundary" inkscape:connector-curvature="0" />
	<path style="fill:none;stroke:red;stroke-width:1px;stroke-linecap:butt;stroke-linejoin:miter;stroke-opacity:1" d="M 79.1515,159.939 69.7576,178.727 z" id="boundary" inkscape:connector-curvature="0" />
	<path style="fill:none;stroke:red;stroke-width:1px;stroke-linecap:butt;stroke-linejoin:miter;stroke-opacity:1" d="M 69.7576,178.727 81.0303,193.758 z" id="boundary" inkscape:connector-curvature="0" />
	<path style="fill:none;stroke:red;stroke-width:1px;stroke-linecap:butt;stroke-linejoin:miter;stroke-opacity:1" d="M 81.0303,193.758 99.8182,193.758 z" id="boundary" inkscape:connector-curvature="0" />
	<path style="fill:none;stroke:red;stroke-width:1px;stroke-linecap:butt;stroke-linejoin:miter;stroke-opacity:1" d="M 99.8182,193.758 109.212,210.667 z" id="boundary" inkscape:connector-curvature="0" />
	<path style="fill:none;stroke:red;stroke-width:1px;stroke-linecap:butt;stroke-linejoin:miter;stroke-opacity:1" d="M 109.212,210.667 128,210.667 z" id="boundary" inkscape:connector-curvature="0" />
	<path style="fill:none;stroke:red;stroke-width:1px;stroke-linecap:butt;stroke-linejoin:miter;stroke-opacity:1" d="M 128,210.667 146.788,210.667 z" id="boundary" inkscape:connector-curvature="0" />
	<path style="fill:none;stroke:red;stroke-width:1px;stroke-linecap:butt;stroke-linejoin:miter;stroke-opacity:1" d="M 146.788,210.667 165.576,210.667 z" id="boundary" inkscape:connector-curvature="0" />
	<path style="fill:none;stroke:red;stroke-width:1px;stroke-linecap:butt;stroke-linejoin:miter;stroke-opacity:1" d="M 165.576,210.667 182.485,201.273 z" id="boundary" inkscape:connector-curvature="0" />
	<path style="fill:none;stroke:red;stroke-width:1px;stroke-linecap:butt;stroke-linejoin:miter;stroke-opacity:1" d="M 182.485,201.273 201.273,201.273 z" id="boundary" inkscape:connector-curvature="0" />
	<path style="fill:none;stroke:red;stroke-width:1px;stroke-linecap:butt;stroke-linejoin:miter;stroke-opacity:1" d="M 201.273,201.273 220.061,201.273 z" id="boundary" inkscape:connector-curvature="0" />
	<path style="fill:none;stroke:red;stroke-width:1px;stroke-linecap:butt;stroke-linejoin:miter;stroke-opacity:1" d="M 220.061,201.273 238.848,201.273 z" id="boundary" inkscape:connector-curvature="0" />
	<path style="fill:none;stroke:red;stroke-width:1px;stroke-linecap:butt;stroke-linejoin:miter;stroke-opacity:1" d="M 238.848,201.273 248.242,184.364 z" id="boundary" inkscape:connector-curvature="0" />
	<path style="fill:none;stroke:red;stroke-width:1px;stroke-linecap:butt;stroke-linejoin:miter;stroke-opacity:1" d="M 248.242,184.364 231.333,174.97 z" id="boundary" inkscape:connector-curvature="0" />
	<path style="fill:none;stroke:red;stroke-width:1px;stroke-linecap:butt;stroke-linejoin:miter;stroke-opacity:1" d="M 231.333,174.97 212.545,174.97 z" id="boundary" inkscape:connector-curvature="0" />
	<path style="fill:none;stroke:red;stroke-width:1px;stroke-linecap:butt;stroke-linejoin:miter;stroke-opacity:1" d="M 212.545,174.97 193.758,174.97 z" id="boundary" inkscape:connector-curvature="0" />
	<path style="fill:none;stroke:red;stroke-width:1px;stroke-linecap:butt;stroke-linejoin:miter;stroke-opacity:1" d="M 193.758,174.97 174.97,174.97 z" id="boundary" inkscape:connector-curvature="0" />
	<path style="fill:none;stroke:red;stroke-width:1px;stroke-linecap:butt;stroke-linejoin:miter;stroke-opacity:1" d="M 174.97,174.97 156.182,184.364 z" id="boundary" inkscape:connector-curvature="0" />
	<path style="fill:none;stroke:red;stroke-width:1px;stroke-linecap:butt;stroke-linejoin:miter;stroke-opacity:1" d="M 156.182,184.364 137.394,184.364 z" id="boundary" inkscape:connector-curvature="0" />
	<path style="fill:none;stroke:red;stroke-width:1px;stroke-linecap:butt;stroke-linejoin:miter;stroke-opacity:1" d="M 137.394,184.364 118.606,184.364 z" id="boundary" inkscape:connector-curvature="0" />
	<path style="fill:none;stroke:red;stroke-width:1px;stroke-linecap:butt;stroke-linejoin:miter;stroke-opacity:1" d="M 344.061,174.97 340.303,208.788 z" id="boundary" inkscape:connector-curvature="0" />
	<path style="fill:none;stroke:red;stroke-width:1px;stroke-linecap:butt;stroke-linejoin:miter;stroke-opacity:1" d="M 340.303,208.788 321.515,212.545 z" id="boundary" inkscape:connector-curvature="0" />
	<path style="fill:none;stroke:red;stroke-width:1px;stroke-linecap:butt;stroke-linejoin:miter;stroke-opacity:1" d="M 321.515,212.545 302.727,212.545 z" id="boundary" inkscape:connector-curvature="0" />
	<path style="fill:none;stroke:red;stroke-width:1px;stroke-linecap:butt;stroke-linejoin:miter;stroke-opacity:1" d="M 302.727,212.545 285.818,221.939 z" id="boundary" inkscape:connector-curvature="0" />
	<path style="fill:none;stroke:red;stroke-width:1px;stroke-linecap:butt;stroke-linejoin:miter;stroke-opacity:1" d="M 285.818,221.939 268.909,231.333 z" id="boundary" inkscape:connector-curvature="0" />
	<path style="fill:none;stroke:red;stroke-width:1px;stroke-linecap:butt;stroke-linejoin:miter;stroke-opacity:1" d="M 268.909,231.333 250.121,231.333 z" id="boundary" inkscape:connector-curvature="0" />
	<path style="fill:none;stroke:red;stroke-width:1px;stroke-linecap:butt;stroke-linejoin:miter;stroke-opacity:1" d="M 250.121,231.333 231.333,231.333 z" id="boundary" inkscape:connector-curvature="0" />
	<path style="fill:none;stroke:red;stroke-width:1px;stroke-linecap:butt;stroke-linejoin:miter;stroke-opacity:1" d="M 231.333,231.333 212.545,231.333 z" id="boundary" inkscape:connector-curvature="0" />
	<path style="fill:none;stroke:red;stroke-width:1px;stroke-linecap:butt;stroke-linejoin:miter;stroke-opacity:1" d="M 212.545,231.333 195.636,240.727 z" id="boundary" inkscape:connector-curvature="0" />
	<path style="fill:none;stroke:red;stroke-width:1px;stroke-linecap:butt;stroke-linejoin:miter;stroke-opacity:1" d="M 195.636,240.727 176.848,240.727 z" id="boundary" inkscape:connector-curvature="0" />
	<path style="fill:none;stroke:red;stroke-width:1px;stroke-linecap:butt;stroke-linejoin:miter;stroke-opacity:1" d="M 176.848,240.727 158.061,240.727 z" id="boundary" inkscape:connector-curvature="0" />
	<path style="fill:none;stroke:red;stroke-width:1px;stroke-linecap:butt;stroke-linejoin:miter;stroke-opacity:1" d="M 158.061,240.727 139.273,240.727 z" id="boundary" inkscape:connector-curvature="0" />
	<path style="fill:none;stroke:red;stroke-width:1px;stroke-linecap:butt;stroke-linejoin:miter;stroke-opacity:1" d="M 139.273,240.727 120.485,240.727 z" id="boundary" inkscape:connector-curvature="0" />
	<path style="fill:none;stroke:red;stroke-width:1px;stroke-linecap:butt;stroke-linejoin:miter;stroke-opacity:1" d="M 120.485,240.727 101.697,240.727 z" id="boundary" inkscape:connector-curvature="0" />
	<path style="fill:none;stroke:red;stroke-width:1px;stroke-linecap:butt;stroke-linejoin:miter;stroke-opacity:1" d="M 101.697,240.727 84.7879,250.121 z" id="boundary" inkscape:connector-curvature="0" />
	<path style="fill:none;stroke:red;stroke-width:1px;stroke-linecap:butt;stroke-linejoin:miter;stroke-opacity:1" d="M 84.7879,250.121 66,250.121 z" id="boundary" inkscape:connector-curvature="0" />
	<path style="fill:none;stroke:red;stroke-width:1px;stroke-linecap:butt;stroke-linejoin:miter;stroke-opacity:1" d="M 66,250.121 47.2121,250.121 z" id="boundary" inkscape:connector-curvature="0" />
	<path style="fill:none;stroke:red;stroke-width:1px;stroke-linecap:butt;stroke-linejoin:miter;stroke-opacity:1" d="M 47.2121,250.121 28.4242,248.242 z" id="boundary" inkscape:connector-curvature="0" />
	<path style="fill:none;stroke:red;stroke-width:1px;stroke-linecap:butt;stroke-linejoin:miter;stroke-opacity:1" d="M 28.4242,248.242 13.3939,235.091 z" id="boundary" inkscape:connector-curvature="0" />
	<path style="fill:none;stroke:red;stroke-width:1px;stroke-linecap:butt;stroke-linejoin:miter;stroke-opacity:1" d="M 13.3939,235.091 28.4242,220.061 z" id="boundary" inkscape:connector-curvature="0" />
	<path style="fill:none;stroke:red;stroke-width:1px;stroke-linecap:butt;stroke-linejoin:miter;stroke-opacity:1" d="M 28.4242,220.061 47.2121,220.061 z" id="boundary" inkscape:connector-curvature="0" />
	<path style="fill:none;stroke:red;stroke-width:1px;stroke-linecap:butt;stroke-linejoin:miter;stroke-opacity:1" d="M 47.2121,220.061 66,220.061 z" id="boundary" inkscape:connector-curvature="0" />
	<path style="fill:none;stroke:red;stroke-width:1px;stroke-linecap:butt;stroke-linejoin:miter;stroke-opacity:1" d="M 66,220.061 90.4242,210.667 z" id="boundary" inkscape:connector-curvature="0" />
	<circle cx="4" cy="28.4242" r="4" fill="#0" id="circle0"/>
	<circle cx="13.3939" cy="235.091" r="4" fill="#0" id="circle1"/>
	<circle cx="15.2727" cy="43.4545" r="4" fill="#0" id="circle2"/>
	<circle cx="22.7879" cy="22.7879" r="4" fill="#0" id="circle3"/>
	<circle cx="28.4242" cy="220.061" r="4" fill="#0" id="circle4"/>
	<circle cx="28.4242" cy="248.242" r="4" fill="#0" id="circle5"/>
	<circle cx="34.0606" cy="43.4545" r="4" fill="#0" id="circle6"/>
	<circle cx="41.5758" cy="22.7879" r="4" fill="#0" id="circle7"/>
	<circle cx="41.5758" cy="94.1818" r="4" fill="#0" id="circle8"/>
	<circle cx="47.2121" cy="220.061" r="4" fill="#0" id="circle9"/>
	<circle cx="47.2121" cy="250.121" r="4" fill="#0" id="circle10"/>
	<circle cx="52.8485" cy="43.4545" r="4" fill="#0" id="circle11"/>
	<circle cx="56.6061" cy="107.333" r="4" fill="#0" id="circle12"/>
	<circle cx="60.3636" cy="19.0303" r="4" fill="#0" id="circle13"/>
	<circle cx="60.3636" cy="88.5455" r="4" fill="#0" id="circle14"/>
	<circle cx="66" cy="220.061" r="4" fill="#0" id="circle15"/>
	<circle cx="66" cy="250.121" r="4" fill="#0" id="circle16"/>
	<circle cx="69.7576" cy="178.727" r="4" fill="#0" id="circle17"/>
	<circle cx="71.6364" cy="43.4545" r="4" fill="#0" id="circle18"/>
	<circle cx="75.3939" cy="109.212" r="4" fill="#0" id="circle19"/>
	<circle cx="77.2727" cy="79.1515" r="4" fill="#0" id="circle20"/>
	<circle cx="79.1515" cy="13.3939" r="4" fill="#0" id="circle21"/>
	<circle cx="79.1515" cy="159.939" r="4" fill="#0" id="circle22"/>
	<circle cx="81.0303" cy="193.758" r="4" fill="#0" id="circle23"/>
	<circle cx="84.7879" cy="250.121" r="4" fill="#0" id="circle24"/>
	<circle cx="90.4242" cy="43.4545" r="4" fill="#0" id="circle25"/>
	<circle cx="90.4242" cy="210.667" r="4" fill="#0" id="circle26"/>
	<circle cx="94.1818" cy="109.212" r="4" fill="#0" id="circle27"/>
	<circle cx="96.0606" cy="79.1515" r="4" fill="#0" id="circle28"/>
	<circle cx="97.9394" cy="13.3939" r="4" fill="#0" id="circle29"/>
	<circle cx="97.9394" cy="154.303" r="4" fill="#0" id="circle30"/>
	<circle cx="99.8182" cy="193.758" r="4" fill="#0" id="circle31"/>
	<circle cx="101.697" cy="240.727" r="4" fill="#0" id="circle32"/>
	<circle cx="109.212" cy="43.4545" r="4" fill="#0" id="circle33"/>
	<circle cx="109.212" cy="210.667" r="4" fill="#0" id="circle34"/>
	<circle cx="112.97" cy="109.212" r="4" fill="#0" id="circle35"/>
	<circle cx="114.848" cy="79.1515" r="4" fill="#0" id="circle36"/>
	<circle cx="116.727" cy="13.3939" r="4" fill="#0" id="circle37"/>
	<circle cx="116.727" cy="154.303" r="4" fill="#0" id="circle38"/>
	<circle cx="118.606" cy="184.364" r="4" fill="#0" id="circle39"/>
	<circle cx="120.485" cy="240.727" r="4" fill="#0" id="circle40"/>
	<circle cx="128" cy="43.4545" r="4" fill="#0" id="circle41"/>
	<circle cx="128" cy="210.667" r="4" fill="#0" id="circle42"/>
	<circle cx="131.758" cy="69.7576" r="4" fill="#0" id="circle43"/>
	<circle cx="131.758" cy="109.212" r="4" fill="#0" id="circle44"/>
	<circle cx="135.515" cy="17.1515" r="4" fill="#0" id="circle45"/>
	<circle cx="135.515" cy="150.545" r="4" fill="#0" id="circle46"/>
	<circle cx="137.394" cy="184.364" r="4" fill="#0" id="circle47"/>
	<circle cx="139.273" cy="240.727" r="4" fill="#0" id="circle48"/>
	<circle cx="146.788" cy="43.4545" r="4" fill="#0" id="circle49"/>
	<circle cx="146.788" cy="210.667" r="4" fill="#0" id="circle50"/>
	<circle cx="148.667" cy="99.8182" r="4" fill="#0" id="circle51"/>
	<circle cx="150.545" cy="69.7576" r="4" fill="#0" id="circle52"/>
	<circle cx="154.303" cy="22.7879" r="4" fill="#0" id="circle53"/>
	<circle cx="154.303" cy="144.909" r="4" fill="#0" id="circle54"/>
	<circle cx="156.182" cy="184.364" r="4" fill="#0" id="circle55"/>
	<circle cx="158.061" cy="240.727" r="4" fill="#0" id="circle56"/>
	<circle cx="165.576" cy="43.4545" r="4" fill="#0" id="circle57"/>
	<circle cx="165.576" cy="210.667" r="4" fill="#0" id="circle58"/>
	<circle cx="167.455" cy="99.8182" r="4" fill="#0" id="circle59"/>
	<circle cx="169.333" cy="69.7576" r="4" fill="#0" id="circle60"/>
	<circle cx="171.212" cy="13.3939" r="4" fill="#0" id="circle61"/>
	<circle cx="173.091" cy="144.909" r="4" fill="#0" id="circle62"/>
	<circle cx="174.97" cy="174.97" r="4" fill="#0" id="circle63"/>
	<circle cx="176.848" cy="240.727" r="4" fill="#0" id="circle64"/>
	<circle cx="182.485" cy="201.273" r="4" fill="#0" id="circle65"/>
	<circle cx="184.364" cy="43.4545" r="4" fill="#0" id="circle66"/>
	<circle cx="186.242" cy="99.8182" r="4" fill="#0" id="circle67"/>
	<circle cx="188.121" cy="69.7576" r="4" fill="#0" id="circle68"/>
	<circle cx="190" cy="13.3939" r="4" fill="#0" id="circle69"/>
	<circle cx="191.879" cy="141.152" r="4" fill="#0" id="circle70"/>
	<circle cx="193.758" cy="174.97" r="4" fill="#0" id="circle71"/>
	<circle cx="195.636" cy="240.727" r="4" fill="#0" id="circle72"/>
	<circle cx="201.273" cy="201.273" r="4" fill="#0" id="circle73"/>
	<circle cx="203.152" cy="43.4545" r="4" fill="#0" id="circle74"/>
	<circle cx="205.03" cy="99.8182" r="4" fill="#0" id="circle75"/>
	<circle cx="206.909" cy="4" r="4" fill="#0" id="circle76"/>
	<circle cx="210.667" cy="135.515" r="4" fill="#0" id="circle77"/>
	<circle cx="212.545" cy="60.3636" r="4" fill="#0" id="circle78"/>
	<circle cx="212.545" cy="174.97" r="4" fill="#0" id="circle79"/>
	<circle cx="212.545" cy="231.333" r="4" fill="#0" id="circle80"/>
	<circle cx="220.061" cy="201.273" r="4" fill="#0" id="circle81"/>
	<circle cx="221.939" cy="43.4545" r="4" fill="#0" id="circle82"/>
	<circle cx="223.818" cy="99.8182" r="4" fill="#0" id="circle83"/>
	<circle cx="225.697" cy="4" r="4" fill="#0" id="circle84"/>
	<circle cx="229.455" cy="135.515" r="4" fill="#0" id="circle85"/>
	<circle cx="231.333" cy="60.3636" r="4" fill="#0" id="circle86"/>
	<circle cx="231.333" cy="174.97" r="4" fill="#0" id="circle87"/>
	<circle cx="231.333" cy="231.333" r="4" fill="#0" id="circle88"/>
	<circle cx="238.848" cy="111.091" r="4" fill="#0" id="circle89"/>
	<circle cx="238.848" cy="201.273" r="4" fill="#0" id="circle90"/>
	<circle cx="244.485" cy="4" r="4" fill="#0" id="circle91"/>
	<circle cx="248.242" cy="128" r="4" fill="#0" id="circle92"/>
	<circle cx="248.242" cy="184.364" r="4" fill="#0" id="circle93"/>
	<circle cx="250.121" cy="231.333" r="4" fill="#0" id="circle94"/>
	<circle cx="263.273" cy="4" r="4" fill="#0" id="circle95"/>
	<circle cx="268.909" cy="231.333" r="4" fill="#0" id="circle96"/>
	<circle cx="282.061" cy="4" r="4" fill="#0" id="circle97"/>
	<circle cx="285.818" cy="221.939" r="4" fill="#0" id="circle98"/>
	<circle cx="300.848" cy="4" r="4" fill="#0" id="circle99"/>
	<circle cx="302.727" cy="212.545" r="4" fill="#0" id="circle100"/>
	<circle cx="319.636" cy="4" r="4" fill="#0" id="circle101"/>
	<circle cx="321.515" cy="212.545" r="4" fill="#0" id="circle102"/>
	<circle cx="334.667" cy="34.0606" r="4" fill="#0" id="circle103"/>
	<circle cx="334.667" cy="52.8485" r="4" fill="#0" id="circle104"/>
	<circle cx="334.667" cy="71.6364" r="4" fill="#0" id="circle105"/>
	<circle cx="336.545" cy="13.3939" r="4" fill="#0" id="circle106"/>
	<circle cx="340.303" cy="208.788" r="4" fill="#0" id="circle107"/>
	<circle cx="344.061" cy="88.5455" r="4" fill="#0" id="circle108"/>
	<circle cx="344.061" cy="137.394" r="4" fill="#0" id="circle109"/>
	<circle cx="344.061" cy="156.182" r="4" fill="#0" id="circle110"/>
	<circle cx="344.061" cy="174.97" r="4" fill="#0" id="circle111"/>
	<circle cx="360.97" cy="79.1515" r="4" fill="#0" id="circle112"/>
	<circle cx="362.848" cy="137.394" r="4" fill="#0" id="circle113"/>
	<circle cx="379.758" cy="79.1515" r="4" fill="#0" id="circle114"/>
	<circle cx="381.636" cy="137.394" r="4" fill="#0" id="circle115"/>
	<circle cx="398.545" cy="79.1515" r="4" fill="#0" id="circle116"/>
	<circle cx="398.545" cy="128" r="4" fill="#0" id="circle117"/>
	<circle cx="417.333" cy="79.1515" r="4" fill="#0" id="circle118"/>
	<circle cx="417.333" cy="128" r="4" fill="#0" id="circle119"/>
	<circle cx="436.121" cy="79.1515" r="4" fill="#0" id="circle120"/>
	<circle cx="436.121" cy="128" r="4" fill="#0" id="circle121"/>
	<circle cx="454.909" cy="75.3939" r="4" fill="#0" id="circle122"/>
	<circle cx="454.909" cy="128" r="4" fill="#0" id="circle123"/>
	<circle cx="473.697" cy="69.7576" r="4" fill="#0" id="circle124"/>
	<circle cx="473.697" cy="128" r="4" fill="#0" id="circle125"/>
	<circle cx="490.606" cy="118.606" r="4" fill="#0" id="circle126"/>
	<circle cx="492.485" cy="69.7576" r="4" fill="#0" id="circle127"/>
	<circle cx="509.394" cy="118.606" r="4" fill="#0" id="circle128"/>
	<circle cx="511.273" cy="69.7576" r="4" fill="#0" id="circle129"/>
	<circle cx="528.182" cy="118.606" r="4" fill="#0" id="circle130"/>
	<circle cx="530.061" cy="69.7576" r="4" fill="#0" id="circle131"/>
	<circle cx="546.97" cy="118.606" r="4" fill="#0" id="circle132"/>
	<circle cx="548.848" cy="66" r="4" fill="#0" id="circle133"/>
	<circle cx="565.758" cy="118.606" r="4" fill="#0" id="circle134"/>
	<circle cx="567.636" cy="60.3636" r="4" fill="#0" id="circle135"/>
	<circle cx="584.545" cy="114.848" r="4" fill="#0" id="circle136"/>
	<circle cx="586.424" cy="60.3636" r="4" fill="#0" id="circle137"/>
	<circle cx="603.333" cy="109.212" r="4" fill="#0" id="circle138"/>
	<circle cx="605.212" cy="60.3636" r="4" fill="#0" id="circle139"/>
	<circle cx="622.121" cy="109.212" r="4" fill="#0" id="circle140"/>
	<circle cx="624" cy="60.3636" r="4" fill="#0" id="circle141"/>
	<circle cx="640.909" cy="109.212" r="4" fill="#0" id="circle142"/>
	<circle cx="642.788" cy="56.6061" r="4" fill="#0" id="circle143"/>
	<circle cx="659.697" cy="109.212" r="4" fill="#0" id="circle144"/>
	<circle cx="661.576" cy="50.9697" r="4" fill="#0" id="circle145"/>
	<circle cx="678.485" cy="105.455" r="4" fill="#0" id="circle146"/>
	<circle cx="680.364" cy="50.9697" r="4" fill="#0" id="circle147"/>
	<circle cx="697.273" cy="99.8182" r="4" fill="#0" id="circle148"/>
	<circle cx="699.152" cy="50.9697" r="4" fill="#0" id="circle149"/>
	<circle cx="716.061" cy="99.8182" r="4" fill="#0" id="circle150"/>
	<circle cx="717.939" cy="50.9697" r="4" fill="#0" id="circle151"/>
	<circle cx="734.848" cy="99.8182" r="4" fill="#0" id="circle152"/>
	<circle cx="736.727" cy="50.9697" r="4" fill="#0" id="circle153"/>
	<circle cx="753.636" cy="41.5758" r="4" fill="#0" id="circle154"/>
	<circle cx="753.636" cy="99.8182" r="4" fill="#0" id="circle155"/>
	<circle cx="772.424" cy="41.5758" r="4" fill="#0" id="circle156"/>
	<circle cx="772.424" cy="99.8182" r="4" fill="#0" id="circle157"/>
	<circle cx="791.212" cy="41.5758" r="4" fill="#0" id="circle158"/>
	<circle cx="791.212" cy="99.8182" r="4" fill="#0" id="circle159"/>
	<circle cx="810" cy="41.5758" r="4" fill="#0" id="circle160"/>
	<circle cx="810" cy="99.8182" r="4" fill="#0" id="circle161"/>
	<circle cx="828.788" cy="41.5758" r="4" fill="#0" id="circle162"/>
	<circle cx="828.788" cy="99.8182" r="4" fill="#0" id="circle163"/>
	<circle cx="847.576" cy="41.5758" r="4" fill="#0" id="circle164"/>
	<circle cx="847.576" cy="99.8182" r="4" fill="#0" id="circle165"/>
	<circle cx="866.364" cy="41.5758" r="4" fill="#0" id="circle166"/>
	<circle cx="866.364" cy="96.0606" r="4" fill="#0" id="circle167"/>
	<circle cx="885.152" cy="41.5758" r="4" fill="#0" id="circle168"/>
	<circle cx="885.152" cy="90.4242" r="4" fill="#0" id="circle169"/>
	<circle cx="903.939" cy="41.5758" r="4" fill="#0" id="circle170"/>
	<circle cx="903.939" cy="90.4242" r="4" fill="#0" id="circle171"/>
	<circle cx="922.727" cy="41.5758" r="4" fill="#0" id="circle172"/>
	<circle cx="922.727" cy="90.4242" r="4" fill="#0" id="circle173"/>
	<circle cx="939.636" cy="32.1818" r="4" fill="#0" id="circle174"/>
	<circle cx="941.515" cy="90.4242" r="4" fill="#0" id="circle175"/>
	<circle cx="958.424" cy="32.1818" r="4" fill="#0" id="circle176"/>
	<circle cx="960.303" cy="90.4242" r="4" fill="#0" id="circle177"/>
	<circle cx="977.212" cy="32.1818" r="4" fill="#0" id="circle178"/>
	<circle cx="977.212" cy="81.0303" r="4" fill="#0" id="circle179"/>
	<circle cx="992.242" cy="43.4545" r="4" fill="#0" id="circle180"/>
	<circle cx="996" cy="62.2424" r="4" fill="#0" id="circle181"/>
	<circle cx="996" cy="81.0303" r="4" fill="#0" id="circle182"/>
	</g>
</svg>