<?xml version="1.0" encoding="UTF-8" standalone="no"?>
<!-- Created with CurveBenchmark -->
<svg
	xmlns:dc="http://purl.org/dc/elements/1.1/"
	xmlns:cc="http://creativecommons.org/ns#"
	xmlns:rdf="http://www.w3.org/1999/02/22-rdf-syntax-ns#"
	xmlns:svg="http://www.w3.org/2000/svg"
	xmlns="http://www.w3.org/2000/svg"
	xmlns:sodipodi="http://sodipodi.sourceforge.net/DTD/sodipodi-0.dtd"
	xmlns:inkscape="http://www.inkscape.org/namespaces/inkscape"
	width="1000"
	height="1000"
	id="svg2"
	version="1.1"
	sodipodi:docname="manifold/crawl-handbent2.png.txt">
<defs
	id="defs4" />
<metadata
	id="metadata7">
	<rdf:RDF>
		<cc:Work
			rdf:about="">
			<dc:format>image/svg+xml</dc:format>
			<dc:type
				rdf:resource="http://purl.org/dc/dcmitype/StillImage" />
			<dc:title></dc:title>
		</cc:Work>
	</rdf:RDF>
</metadata>
<g
	inkscape:label="Layer 1"
	inkscape:groupmode="layer"
	id="layer1">
	<path style="fill:none;stroke:red;stroke-width:1px;stroke-linecap:butt;stroke-linejoin:miter;stroke-opacity:1" d="M 32.987,213.351 16.8831,213.351 z" id="boundary" inkscape:connector-curvature="0" />
	<path style="fill:none;stroke:red;stroke-width:1px;stroke-linecap:butt;stroke-linejoin:miter;stroke-opacity:1" d="M 32.987,213.351 49.0909,213.351 z" id="boundary" inkscape:connector-curvature="0" />
	<path style="fill:none;stroke:red;stroke-width:1px;stroke-linecap:butt;stroke-linejoin:miter;stroke-opacity:1" d="M 49.0909,213.351 63.5844,221.403 z" id="boundary" inkscape:connector-curvature="0" />
	<path style="fill:none;stroke:red;stroke-width:1px;stroke-linecap:butt;stroke-linejoin:miter;stroke-opacity:1" d="M 63.5844,221.403 78.0779,229.455 z" id="boundary" inkscape:connector-curvature="0" />
	<path style="fill:none;stroke:red;stroke-width:1px;stroke-linecap:butt;stroke-linejoin:miter;stroke-opacity:1" d="M 78.0779,229.455 86.1299,243.948 z" id="boundary" inkscape:connector-curvature="0" />
	<path style="fill:none;stroke:red;stroke-width:1px;stroke-linecap:butt;stroke-linejoin:miter;stroke-opacity:1" d="M 86.1299,243.948 94.1818,258.442 z" id="boundary" inkscape:connector-curvature="0" />
	<path style="fill:none;stroke:red;stroke-width:1px;stroke-linecap:butt;stroke-linejoin:miter;stroke-opacity:1" d="M 94.1818,258.442 94.1818,274.545 z" id="boundary" inkscape:connector-curvature="0" />
	<path style="fill:none;stroke:red;stroke-width:1px;stroke-linecap:butt;stroke-linejoin:miter;stroke-opacity:1" d="M 94.1818,274.545 100.623,290.649 z" id="boundary" inkscape:connector-curvature="0" />
	<path style="fill:none;stroke:red;stroke-width:1px;stroke-linecap:butt;stroke-linejoin:miter;stroke-opacity:1" d="M 100.623,290.649 102.234,306.753 z" id="boundary" inkscape:connector-curvature="0" />
	<path style="fill:none;stroke:red;stroke-width:1px;stroke-linecap:butt;stroke-linejoin:miter;stroke-opacity:1" d="M 102.234,306.753 102.234,322.857 z" id="boundary" inkscape:connector-curvature="0" />
	<path style="fill:none;stroke:red;stroke-width:1px;stroke-linecap:butt;stroke-linejoin:miter;stroke-opacity:1" d="M 102.234,322.857 110.286,337.351 z" id="boundary" inkscape:connector-curvature="0" />
	<path style="fill:none;stroke:red;stroke-width:1px;stroke-linecap:butt;stroke-linejoin:miter;stroke-opacity:1" d="M 110.286,337.351 110.286,353.455 z" id="boundary" inkscape:connector-curvature="0" />
	<path style="fill:none;stroke:red;stroke-width:1px;stroke-linecap:butt;stroke-linejoin:miter;stroke-opacity:1" d="M 110.286,353.455 119.948,366.338 z" id="boundary" inkscape:connector-curvature="0" />
	<path style="fill:none;stroke:red;stroke-width:1px;stroke-linecap:butt;stroke-linejoin:miter;stroke-opacity:1" d="M 119.948,366.338 126.39,382.442 z" id="boundary" inkscape:connector-curvature="0" />
	<path style="fill:none;stroke:red;stroke-width:1px;stroke-linecap:butt;stroke-linejoin:miter;stroke-opacity:1" d="M 126.39,382.442 126.39,398.545 z" id="boundary" inkscape:connector-curvature="0" />
	<path style="fill:none;stroke:red;stroke-width:1px;stroke-linecap:butt;stroke-linejoin:miter;stroke-opacity:1" d="M 126.39,398.545 134.442,413.039 z" id="boundary" inkscape:connector-curvature="0" />
	<path style="fill:none;stroke:red;stroke-width:1px;stroke-linecap:butt;stroke-linejoin:miter;stroke-opacity:1" d="M 134.442,413.039 150.545,419.481 z" id="boundary" inkscape:connector-curvature="0" />
	<path style="fill:none;stroke:red;stroke-width:1px;stroke-linecap:butt;stroke-linejoin:miter;stroke-opacity:1" d="M 150.545,419.481 150.545,435.584 z" id="boundary" inkscape:connector-curvature="0" />
	<path style="fill:none;stroke:red;stroke-width:1px;stroke-linecap:butt;stroke-linejoin:miter;stroke-opacity:1" d="M 150.545,435.584 161.818,448.468 z" id="boundary" inkscape:connector-curvature="0" />
	<path style="fill:none;stroke:red;stroke-width:1px;stroke-linecap:butt;stroke-linejoin:miter;stroke-opacity:1" d="M 161.818,448.468 177.922,454.909 z" id="boundary" inkscape:connector-curvature="0" />
	<path style="fill:none;stroke:red;stroke-width:1px;stroke-linecap:butt;stroke-linejoin:miter;stroke-opacity:1" d="M 16.8831,213.351 4,226.234 z" id="boundary" inkscape:connector-curvature="0" />
	<path style="fill:none;stroke:red;stroke-width:1px;stroke-linecap:butt;stroke-linejoin:miter;stroke-opacity:1" d="M 4,226.234 4,242.338 z" id="boundary" inkscape:connector-curvature="0" />
	<path style="fill:none;stroke:red;stroke-width:1px;stroke-linecap:butt;stroke-linejoin:miter;stroke-opacity:1" d="M 4,242.338 4,258.442 z" id="boundary" inkscape:connector-curvature="0" />
	<path style="fill:none;stroke:red;stroke-width:1px;stroke-linecap:butt;stroke-linejoin:miter;stroke-opacity:1" d="M 4,258.442 4,274.545 z" id="boundary" inkscape:connector-curvature="0" />
	<path style="fill:none;stroke:red;stroke-width:1px;stroke-linecap:butt;stroke-linejoin:miter;stroke-opacity:1" d="M 4,274.545 4,290.649 z" id="boundary" inkscape:connector-curvature="0" />
	<path style="fill:none;stroke:red;stroke-width:1px;stroke-linecap:butt;stroke-linejoin:miter;stroke-opacity:1" d="M 4,290.649 4,306.753 z" id="boundary" inkscape:connector-curvature="0" />
	<path style="fill:none;stroke:red;stroke-width:1px;stroke-linecap:butt;stroke-linejoin:miter;stroke-opacity:1" d="M 4,306.753 12.0519,321.247 z" id="boundary" inkscape:connector-curvature="0" />
	<path style="fill:none;stroke:red;stroke-width:1px;stroke-linecap:butt;stroke-linejoin:miter;stroke-opacity:1" d="M 12.0519,321.247 12.0519,337.351 z" id="boundary" inkscape:connector-curvature="0" />
	<path style="fill:none;stroke:red;stroke-width:1px;stroke-linecap:butt;stroke-linejoin:miter;stroke-opacity:1" d="M 12.0519,337.351 20.1039,351.844 z" id="boundary" inkscape:connector-curvature="0" />
	<path style="fill:none;stroke:red;stroke-width:1px;stroke-linecap:butt;stroke-linejoin:miter;stroke-opacity:1" d="M 20.1039,351.844 24.9351,367.948 z" id="boundary" inkscape:connector-curvature="0" />
	<path style="fill:none;stroke:red;stroke-width:1px;stroke-linecap:butt;stroke-linejoin:miter;stroke-opacity:1" d="M 24.9351,367.948 28.1558,384.052 z" id="boundary" inkscape:connector-curvature="0" />
	<path style="fill:none;stroke:red;stroke-width:1px;stroke-linecap:butt;stroke-linejoin:miter;stroke-opacity:1" d="M 28.1558,384.052 36.2078,398.545 z" id="boundary" inkscape:connector-curvature="0" />
	<path style="fill:none;stroke:red;stroke-width:1px;stroke-linecap:butt;stroke-linejoin:miter;stroke-opacity:1" d="M 36.2078,398.545 36.2078,414.649 z" id="boundary" inkscape:connector-curvature="0" />
	<path style="fill:none;stroke:red;stroke-width:1px;stroke-linecap:butt;stroke-linejoin:miter;stroke-opacity:1" d="M 36.2078,414.649 44.2597,429.143 z" id="boundary" inkscape:connector-curvature="0" />
	<path style="fill:none;stroke:red;stroke-width:1px;stroke-linecap:butt;stroke-linejoin:miter;stroke-opacity:1" d="M 44.2597,429.143 45.8701,445.247 z" id="boundary" inkscape:connector-curvature="0" />
	<path style="fill:none;stroke:red;stroke-width:1px;stroke-linecap:butt;stroke-linejoin:miter;stroke-opacity:1" d="M 45.8701,445.247 53.9221,459.74 z" id="boundary" inkscape:connector-curvature="0" />
	<path style="fill:none;stroke:red;stroke-width:1px;stroke-linecap:butt;stroke-linejoin:miter;stroke-opacity:1" d="M 53.9221,459.74 60.3636,475.844 z" id="boundary" inkscape:connector-curvature="0" />
	<path style="fill:none;stroke:red;stroke-width:1px;stroke-linecap:butt;stroke-linejoin:miter;stroke-opacity:1" d="M 60.3636,475.844 76.4675,480.675 z" id="boundary" inkscape:connector-curvature="0" />
	<path style="fill:none;stroke:red;stroke-width:1px;stroke-linecap:butt;stroke-linejoin:miter;stroke-opacity:1" d="M 76.4675,480.675 81.2987,496.779 z" id="boundary" inkscape:connector-curvature="0" />
	<path style="fill:none;stroke:red;stroke-width:1px;stroke-linecap:butt;stroke-linejoin:miter;stroke-opacity:1" d="M 81.2987,496.779 84.5195,512.883 z" id="boundary" inkscape:connector-curvature="0" />
	<path style="fill:none;stroke:red;stroke-width:1px;stroke-linecap:butt;stroke-linejoin:miter;stroke-opacity:1" d="M 84.5195,512.883 84.5195,528.987 z" id="boundary" inkscape:connector-curvature="0" />
	<path style="fill:none;stroke:red;stroke-width:1px;stroke-linecap:butt;stroke-linejoin:miter;stroke-opacity:1" d="M 84.5195,528.987 92.5714,543.481 z" id="boundary" inkscape:connector-curvature="0" />
	<path style="fill:none;stroke:red;stroke-width:1px;stroke-linecap:butt;stroke-linejoin:miter;stroke-opacity:1" d="M 92.5714,543.481 92.5714,559.584 z" id="boundary" inkscape:connector-curvature="0" />
	<path style="fill:none;stroke:red;stroke-width:1px;stroke-linecap:butt;stroke-linejoin:miter;stroke-opacity:1" d="M 92.5714,559.584 92.5714,575.688 z" id="boundary" inkscape:connector-curvature="0" />
	<path style="fill:none;stroke:red;stroke-width:1px;stroke-linecap:butt;stroke-linejoin:miter;stroke-opacity:1" d="M 92.5714,575.688 92.5714,591.792 z" id="boundary" inkscape:connector-curvature="0" />
	<path style="fill:none;stroke:red;stroke-width:1px;stroke-linecap:butt;stroke-linejoin:miter;stroke-opacity:1" d="M 92.5714,591.792 92.5714,607.896 z" id="boundary" inkscape:connector-curvature="0" />
	<path style="fill:none;stroke:red;stroke-width:1px;stroke-linecap:butt;stroke-linejoin:miter;stroke-opacity:1" d="M 92.5714,607.896 92.5714,624 z" id="boundary" inkscape:connector-curvature="0" />
	<path style="fill:none;stroke:red;stroke-width:1px;stroke-linecap:butt;stroke-linejoin:miter;stroke-opacity:1" d="M 92.5714,624 92.5714,640.104 z" id="boundary" inkscape:connector-curvature="0" />
	<path style="fill:none;stroke:red;stroke-width:1px;stroke-linecap:butt;stroke-linejoin:miter;stroke-opacity:1" d="M 92.5714,640.104 92.5714,656.208 z" id="boundary" inkscape:connector-curvature="0" />
	<path style="fill:none;stroke:red;stroke-width:1px;stroke-linecap:butt;stroke-linejoin:miter;stroke-opacity:1" d="M 92.5714,656.208 92.5714,672.312 z" id="boundary" inkscape:connector-curvature="0" />
	<path style="fill:none;stroke:red;stroke-width:1px;stroke-linecap:butt;stroke-linejoin:miter;stroke-opacity:1" d="M 92.5714,672.312 92.5714,688.416 z" id="boundary" inkscape:connector-curvature="0" />
	<path style="fill:none;stroke:red;stroke-width:1px;stroke-linecap:butt;stroke-linejoin:miter;stroke-opacity:1" d="M 92.5714,688.416 95.7922,704.519 z" id="boundary" inkscape:connector-curvature="0" />
	<path style="fill:none;stroke:red;stroke-width:1px;stroke-linecap:butt;stroke-linejoin:miter;stroke-opacity:1" d="M 95.7922,704.519 100.623,720.623 z" id="boundary" inkscape:connector-curvature="0" />
	<path style="fill:none;stroke:red;stroke-width:1px;stroke-linecap:butt;stroke-linejoin:miter;stroke-opacity:1" d="M 100.623,720.623 100.623,736.727 z" id="boundary" inkscape:connector-curvature="0" />
	<path style="fill:none;stroke:red;stroke-width:1px;stroke-linecap:butt;stroke-linejoin:miter;stroke-opacity:1" d="M 100.623,736.727 103.844,752.831 z" id="boundary" inkscape:connector-curvature="0" />
	<path style="fill:none;stroke:red;stroke-width:1px;stroke-linecap:butt;stroke-linejoin:miter;stroke-opacity:1" d="M 103.844,752.831 108.675,768.935 z" id="boundary" inkscape:connector-curvature="0" />
	<path style="fill:none;stroke:red;stroke-width:1px;stroke-linecap:butt;stroke-linejoin:miter;stroke-opacity:1" d="M 108.675,768.935 111.896,785.039 z" id="boundary" inkscape:connector-curvature="0" />
	<path style="fill:none;stroke:red;stroke-width:1px;stroke-linecap:butt;stroke-linejoin:miter;stroke-opacity:1" d="M 111.896,785.039 116.727,801.143 z" id="boundary" inkscape:connector-curvature="0" />
	<path style="fill:none;stroke:red;stroke-width:1px;stroke-linecap:butt;stroke-linejoin:miter;stroke-opacity:1" d="M 116.727,801.143 124.779,815.636 z" id="boundary" inkscape:connector-curvature="0" />
	<path style="fill:none;stroke:red;stroke-width:1px;stroke-linecap:butt;stroke-linejoin:miter;stroke-opacity:1" d="M 124.779,815.636 124.779,831.74 z" id="boundary" inkscape:connector-curvature="0" />
	<path style="fill:none;stroke:red;stroke-width:1px;stroke-linecap:butt;stroke-linejoin:miter;stroke-opacity:1" d="M 124.779,831.74 132.831,846.234 z" id="boundary" inkscape:connector-curvature="0" />
	<path style="fill:none;stroke:red;stroke-width:1px;stroke-linecap:butt;stroke-linejoin:miter;stroke-opacity:1" d="M 132.831,846.234 132.831,862.338 z" id="boundary" inkscape:connector-curvature="0" />
	<path style="fill:none;stroke:red;stroke-width:1px;stroke-linecap:butt;stroke-linejoin:miter;stroke-opacity:1" d="M 132.831,862.338 132.831,878.442 z" id="boundary" inkscape:connector-curvature="0" />
	<path style="fill:none;stroke:red;stroke-width:1px;stroke-linecap:butt;stroke-linejoin:miter;stroke-opacity:1" d="M 132.831,878.442 132.831,894.545 z" id="boundary" inkscape:connector-curvature="0" />
	<path style="fill:none;stroke:red;stroke-width:1px;stroke-linecap:butt;stroke-linejoin:miter;stroke-opacity:1" d="M 132.831,894.545 124.779,910.649 z" id="boundary" inkscape:connector-curvature="0" />
	<path style="fill:none;stroke:red;stroke-width:1px;stroke-linecap:butt;stroke-linejoin:miter;stroke-opacity:1" d="M 124.779,910.649 124.779,926.753 z" id="boundary" inkscape:connector-curvature="0" />
	<path style="fill:none;stroke:red;stroke-width:1px;stroke-linecap:butt;stroke-linejoin:miter;stroke-opacity:1" d="M 124.779,926.753 116.727,942.857 z" id="boundary" inkscape:connector-curvature="0" />
	<path style="fill:none;stroke:red;stroke-width:1px;stroke-linecap:butt;stroke-linejoin:miter;stroke-opacity:1" d="M 177.922,454.909 181.143,432.364 z" id="boundary" inkscape:connector-curvature="0" />
	<path style="fill:none;stroke:red;stroke-width:1px;stroke-linecap:butt;stroke-linejoin:miter;stroke-opacity:1" d="M 181.143,432.364 181.143,416.26 z" id="boundary" inkscape:connector-curvature="0" />
	<path style="fill:none;stroke:red;stroke-width:1px;stroke-linecap:butt;stroke-linejoin:miter;stroke-opacity:1" d="M 181.143,416.26 177.922,400.156 z" id="boundary" inkscape:connector-curvature="0" />
	<path style="fill:none;stroke:red;stroke-width:1px;stroke-linecap:butt;stroke-linejoin:miter;stroke-opacity:1" d="M 177.922,400.156 173.091,384.052 z" id="boundary" inkscape:connector-curvature="0" />
	<path style="fill:none;stroke:red;stroke-width:1px;stroke-linecap:butt;stroke-linejoin:miter;stroke-opacity:1" d="M 173.091,384.052 173.091,367.948 z" id="boundary" inkscape:connector-curvature="0" />
	<path style="fill:none;stroke:red;stroke-width:1px;stroke-linecap:butt;stroke-linejoin:miter;stroke-opacity:1" d="M 173.091,367.948 165.039,353.455 z" id="boundary" inkscape:connector-curvature="0" />
	<path style="fill:none;stroke:red;stroke-width:1px;stroke-linecap:butt;stroke-linejoin:miter;stroke-opacity:1" d="M 165.039,353.455 165.039,337.351 z" id="boundary" inkscape:connector-curvature="0" />
	<path style="fill:none;stroke:red;stroke-width:1px;stroke-linecap:butt;stroke-linejoin:miter;stroke-opacity:1" d="M 165.039,337.351 165.039,321.247 z" id="boundary" inkscape:connector-curvature="0" />
	<path style="fill:none;stroke:red;stroke-width:1px;stroke-linecap:butt;stroke-linejoin:miter;stroke-opacity:1" d="M 165.039,321.247 165.039,305.143 z" id="boundary" inkscape:connector-curvature="0" />
	<path style="fill:none;stroke:red;stroke-width:1px;stroke-linecap:butt;stroke-linejoin:miter;stroke-opacity:1" d="M 165.039,305.143 165.039,289.039 z" id="boundary" inkscape:connector-curvature="0" />
	<path style="fill:none;stroke:red;stroke-width:1px;stroke-linecap:butt;stroke-linejoin:miter;stroke-opacity:1" d="M 165.039,289.039 165.039,272.935 z" id="boundary" inkscape:connector-curvature="0" />
	<path style="fill:none;stroke:red;stroke-width:1px;stroke-linecap:butt;stroke-linejoin:miter;stroke-opacity:1" d="M 165.039,272.935 156.987,258.442 z" id="boundary" inkscape:connector-curvature="0" />
	<path style="fill:none;stroke:red;stroke-width:1px;stroke-linecap:butt;stroke-linejoin:miter;stroke-opacity:1" d="M 156.987,258.442 156.987,242.338 z" id="boundary" inkscape:connector-curvature="0" />
	<path style="fill:none;stroke:red;stroke-width:1px;stroke-linecap:butt;stroke-linejoin:miter;stroke-opacity:1" d="M 156.987,242.338 165.039,226.234 z" id="boundary" inkscape:connector-curvature="0" />
	<path style="fill:none;stroke:red;stroke-width:1px;stroke-linecap:butt;stroke-linejoin:miter;stroke-opacity:1" d="M 165.039,226.234 177.922,213.351 z" id="boundary" inkscape:connector-curvature="0" />
	<path style="fill:none;stroke:red;stroke-width:1px;stroke-linecap:butt;stroke-linejoin:miter;stroke-opacity:1" d="M 177.922,213.351 192.416,205.299 z" id="boundary" inkscape:connector-curvature="0" />
	<path style="fill:none;stroke:red;stroke-width:1px;stroke-linecap:butt;stroke-linejoin:miter;stroke-opacity:1" d="M 192.416,205.299 200.468,190.805 z" id="boundary" inkscape:connector-curvature="0" />
	<path style="fill:none;stroke:red;stroke-width:1px;stroke-linecap:butt;stroke-linejoin:miter;stroke-opacity:1" d="M 200.468,190.805 216.571,182.753 z" id="boundary" inkscape:connector-curvature="0" />
	<path style="fill:none;stroke:red;stroke-width:1px;stroke-linecap:butt;stroke-linejoin:miter;stroke-opacity:1" d="M 216.571,182.753 232.675,181.143 z" id="boundary" inkscape:connector-curvature="0" />
	<path style="fill:none;stroke:red;stroke-width:1px;stroke-linecap:butt;stroke-linejoin:miter;stroke-opacity:1" d="M 232.675,181.143 248.779,181.143 z" id="boundary" inkscape:connector-curvature="0" />
	<path style="fill:none;stroke:red;stroke-width:1px;stroke-linecap:butt;stroke-linejoin:miter;stroke-opacity:1" d="M 248.779,181.143 264.883,181.143 z" id="boundary" inkscape:connector-curvature="0" />
	<path style="fill:none;stroke:red;stroke-width:1px;stroke-linecap:butt;stroke-linejoin:miter;stroke-opacity:1" d="M 264.883,181.143 277.766,192.416 z" id="boundary" inkscape:connector-curvature="0" />
	<path style="fill:none;stroke:red;stroke-width:1px;stroke-linecap:butt;stroke-linejoin:miter;stroke-opacity:1" d="M 277.766,192.416 279.377,208.519 z" id="boundary" inkscape:connector-curvature="0" />
	<path style="fill:none;stroke:red;stroke-width:1px;stroke-linecap:butt;stroke-linejoin:miter;stroke-opacity:1" d="M 279.377,208.519 279.377,224.623 z" id="boundary" inkscape:connector-curvature="0" />
	<path style="fill:none;stroke:red;stroke-width:1px;stroke-linecap:butt;stroke-linejoin:miter;stroke-opacity:1" d="M 279.377,224.623 276.156,243.948 z" id="boundary" inkscape:connector-curvature="0" />
	<path style="fill:none;stroke:red;stroke-width:1px;stroke-linecap:butt;stroke-linejoin:miter;stroke-opacity:1" d="M 276.156,243.948 263.273,255.221 z" id="boundary" inkscape:connector-curvature="0" />
	<path style="fill:none;stroke:red;stroke-width:1px;stroke-linecap:butt;stroke-linejoin:miter;stroke-opacity:1" d="M 263.273,255.221 263.273,271.325 z" id="boundary" inkscape:connector-curvature="0" />
	<path style="fill:none;stroke:red;stroke-width:1px;stroke-linecap:butt;stroke-linejoin:miter;stroke-opacity:1" d="M 263.273,271.325 263.273,287.429 z" id="boundary" inkscape:connector-curvature="0" />
	<path style="fill:none;stroke:red;stroke-width:1px;stroke-linecap:butt;stroke-linejoin:miter;stroke-opacity:1" d="M 263.273,287.429 271.325,301.922 z" id="boundary" inkscape:connector-curvature="0" />
	<path style="fill:none;stroke:red;stroke-width:1px;stroke-linecap:butt;stroke-linejoin:miter;stroke-opacity:1" d="M 271.325,301.922 271.325,318.026 z" id="boundary" inkscape:connector-curvature="0" />
	<path style="fill:none;stroke:red;stroke-width:1px;stroke-linecap:butt;stroke-linejoin:miter;stroke-opacity:1" d="M 271.325,318.026 271.325,334.13 z" id="boundary" inkscape:connector-curvature="0" />
	<path style="fill:none;stroke:red;stroke-width:1px;stroke-linecap:butt;stroke-linejoin:miter;stroke-opacity:1" d="M 271.325,334.13 279.377,348.623 z" id="boundary" inkscape:connector-curvature="0" />
	<path style="fill:none;stroke:red;stroke-width:1px;stroke-linecap:butt;stroke-linejoin:miter;stroke-opacity:1" d="M 279.377,348.623 279.377,364.727 z" id="boundary" inkscape:connector-curvature="0" />
	<path style="fill:none;stroke:red;stroke-width:1px;stroke-linecap:butt;stroke-linejoin:miter;stroke-opacity:1" d="M 279.377,364.727 292.26,374.39 z" id="boundary" inkscape:connector-curvature="0" />
	<path style="fill:none;stroke:red;stroke-width:1px;stroke-linecap:butt;stroke-linejoin:miter;stroke-opacity:1" d="M 116.727,942.857 108.675,967.013 z" id="boundary" inkscape:connector-curvature="0" />
	<path style="fill:none;stroke:red;stroke-width:1px;stroke-linecap:butt;stroke-linejoin:miter;stroke-opacity:1" d="M 108.675,967.013 108.675,983.117 z" id="boundary" inkscape:connector-curvature="0" />
	<path style="fill:none;stroke:red;stroke-width:1px;stroke-linecap:butt;stroke-linejoin:miter;stroke-opacity:1" d="M 108.675,983.117 118.338,996 z" id="boundary" inkscape:connector-curvature="0" />
	<path style="fill:none;stroke:red;stroke-width:1px;stroke-linecap:butt;stroke-linejoin:miter;stroke-opacity:1" d="M 118.338,996 134.442,996 z" id="boundary" inkscape:connector-curvature="0" />
	<path style="fill:none;stroke:red;stroke-width:1px;stroke-linecap:butt;stroke-linejoin:miter;stroke-opacity:1" d="M 134.442,996 150.545,996 z" id="boundary" inkscape:connector-curvature="0" />
	<path style="fill:none;stroke:red;stroke-width:1px;stroke-linecap:butt;stroke-linejoin:miter;stroke-opacity:1" d="M 150.545,996 166.649,996 z" id="boundary" inkscape:connector-curvature="0" />
	<path style="fill:none;stroke:red;stroke-width:1px;stroke-linecap:butt;stroke-linejoin:miter;stroke-opacity:1" d="M 166.649,996 182.753,996 z" id="boundary" inkscape:connector-curvature="0" />
	<path style="fill:none;stroke:red;stroke-width:1px;stroke-linecap:butt;stroke-linejoin:miter;stroke-opacity:1" d="M 182.753,996 198.857,996 z" id="boundary" inkscape:connector-curvature="0" />
	<path style="fill:none;stroke:red;stroke-width:1px;stroke-linecap:butt;stroke-linejoin:miter;stroke-opacity:1" d="M 198.857,996 214.961,996 z" id="boundary" inkscape:connector-curvature="0" />
	<path style="fill:none;stroke:red;stroke-width:1px;stroke-linecap:butt;stroke-linejoin:miter;stroke-opacity:1" d="M 214.961,996 231.065,996 z" id="boundary" inkscape:connector-curvature="0" />
	<path style="fill:none;stroke:red;stroke-width:1px;stroke-linecap:butt;stroke-linejoin:miter;stroke-opacity:1" d="M 231.065,996 247.169,996 z" id="boundary" inkscape:connector-curvature="0" />
	<path style="fill:none;stroke:red;stroke-width:1px;stroke-linecap:butt;stroke-linejoin:miter;stroke-opacity:1" d="M 247.169,996 263.273,996 z" id="boundary" inkscape:connector-curvature="0" />
	<path style="fill:none;stroke:red;stroke-width:1px;stroke-linecap:butt;stroke-linejoin:miter;stroke-opacity:1" d="M 263.273,996 279.377,996 z" id="boundary" inkscape:connector-curvature="0" />
	<path style="fill:none;stroke:red;stroke-width:1px;stroke-linecap:butt;stroke-linejoin:miter;stroke-opacity:1" d="M 279.377,996 295.481,996 z" id="boundary" inkscape:connector-curvature="0" />
	<path style="fill:none;stroke:red;stroke-width:1px;stroke-linecap:butt;stroke-linejoin:miter;stroke-opacity:1" d="M 295.481,996 311.584,996 z" id="boundary" inkscape:connector-curvature="0" />
	<path style="fill:none;stroke:red;stroke-width:1px;stroke-linecap:butt;stroke-linejoin:miter;stroke-opacity:1" d="M 311.584,996 327.688,996 z" id="boundary" inkscape:connector-curvature="0" />
	<path style="fill:none;stroke:red;stroke-width:1px;stroke-linecap:butt;stroke-linejoin:miter;stroke-opacity:1" d="M 327.688,996 343.792,996 z" id="boundary" inkscape:connector-curvature="0" />
	<path style="fill:none;stroke:red;stroke-width:1px;stroke-linecap:butt;stroke-linejoin:miter;stroke-opacity:1" d="M 343.792,996 359.896,996 z" id="boundary" inkscape:connector-curvature="0" />
	<path style="fill:none;stroke:red;stroke-width:1px;stroke-linecap:butt;stroke-linejoin:miter;stroke-opacity:1" d="M 359.896,996 376,996 z" id="boundary" inkscape:connector-curvature="0" />
	<path style="fill:none;stroke:red;stroke-width:1px;stroke-linecap:butt;stroke-linejoin:miter;stroke-opacity:1" d="M 376,996 392.104,996 z" id="boundary" inkscape:connector-curvature="0" />
	<path style="fill:none;stroke:red;stroke-width:1px;stroke-linecap:butt;stroke-linejoin:miter;stroke-opacity:1" d="M 392.104,996 408.208,996 z" id="boundary" inkscape:connector-curvature="0" />
	<path style="fill:none;stroke:red;stroke-width:1px;stroke-linecap:butt;stroke-linejoin:miter;stroke-opacity:1" d="M 408.208,996 424.312,996 z" id="boundary" inkscape:connector-curvature="0" />
	<path style="fill:none;stroke:red;stroke-width:1px;stroke-linecap:butt;stroke-linejoin:miter;stroke-opacity:1" d="M 424.312,996 432.364,979.896 z" id="boundary" inkscape:connector-curvature="0" />
	<path style="fill:none;stroke:red;stroke-width:1px;stroke-linecap:butt;stroke-linejoin:miter;stroke-opacity:1" d="M 432.364,979.896 432.364,963.792 z" id="boundary" inkscape:connector-curvature="0" />
	<path style="fill:none;stroke:red;stroke-width:1px;stroke-linecap:butt;stroke-linejoin:miter;stroke-opacity:1" d="M 432.364,963.792 440.416,947.688 z" id="boundary" inkscape:connector-curvature="0" />
	<path style="fill:none;stroke:red;stroke-width:1px;stroke-linecap:butt;stroke-linejoin:miter;stroke-opacity:1" d="M 440.416,947.688 454.909,939.636 z" id="boundary" inkscape:connector-curvature="0" />
	<path style="fill:none;stroke:red;stroke-width:1px;stroke-linecap:butt;stroke-linejoin:miter;stroke-opacity:1" d="M 454.909,939.636 467.792,929.974 z" id="boundary" inkscape:connector-curvature="0" />
	<path style="fill:none;stroke:red;stroke-width:1px;stroke-linecap:butt;stroke-linejoin:miter;stroke-opacity:1" d="M 467.792,929.974 480.675,915.481 z" id="boundary" inkscape:connector-curvature="0" />
	<path style="fill:none;stroke:red;stroke-width:1px;stroke-linecap:butt;stroke-linejoin:miter;stroke-opacity:1" d="M 480.675,915.481 496.779,915.481 z" id="boundary" inkscape:connector-curvature="0" />
	<path style="fill:none;stroke:red;stroke-width:1px;stroke-linecap:butt;stroke-linejoin:miter;stroke-opacity:1" d="M 496.779,915.481 512.883,907.429 z" id="boundary" inkscape:connector-curvature="0" />
	<path style="fill:none;stroke:red;stroke-width:1px;stroke-linecap:butt;stroke-linejoin:miter;stroke-opacity:1" d="M 512.883,907.429 527.377,899.377 z" id="boundary" inkscape:connector-curvature="0" />
	<path style="fill:none;stroke:red;stroke-width:1px;stroke-linecap:butt;stroke-linejoin:miter;stroke-opacity:1" d="M 527.377,899.377 537.039,883.273 z" id="boundary" inkscape:connector-curvature="0" />
	<path style="fill:none;stroke:red;stroke-width:1px;stroke-linecap:butt;stroke-linejoin:miter;stroke-opacity:1" d="M 537.039,883.273 549.922,872 z" id="boundary" inkscape:connector-curvature="0" />
	<path style="fill:none;stroke:red;stroke-width:1px;stroke-linecap:butt;stroke-linejoin:miter;stroke-opacity:1" d="M 549.922,872 561.195,859.117 z" id="boundary" inkscape:connector-curvature="0" />
	<path style="fill:none;stroke:red;stroke-width:1px;stroke-linecap:butt;stroke-linejoin:miter;stroke-opacity:1" d="M 561.195,859.117 574.078,847.844 z" id="boundary" inkscape:connector-curvature="0" />
	<path style="fill:none;stroke:red;stroke-width:1px;stroke-linecap:butt;stroke-linejoin:miter;stroke-opacity:1" d="M 574.078,847.844 585.351,834.961 z" id="boundary" inkscape:connector-curvature="0" />
	<path style="fill:none;stroke:red;stroke-width:1px;stroke-linecap:butt;stroke-linejoin:miter;stroke-opacity:1" d="M 585.351,834.961 598.234,823.688 z" id="boundary" inkscape:connector-curvature="0" />
	<path style="fill:none;stroke:red;stroke-width:1px;stroke-linecap:butt;stroke-linejoin:miter;stroke-opacity:1" d="M 598.234,823.688 607.896,810.805 z" id="boundary" inkscape:connector-curvature="0" />
	<path style="fill:none;stroke:red;stroke-width:1px;stroke-linecap:butt;stroke-linejoin:miter;stroke-opacity:1" d="M 607.896,810.805 617.558,794.701 z" id="boundary" inkscape:connector-curvature="0" />
	<path style="fill:none;stroke:red;stroke-width:1px;stroke-linecap:butt;stroke-linejoin:miter;stroke-opacity:1" d="M 617.558,794.701 625.61,778.597 z" id="boundary" inkscape:connector-curvature="0" />
	<path style="fill:none;stroke:red;stroke-width:1px;stroke-linecap:butt;stroke-linejoin:miter;stroke-opacity:1" d="M 625.61,778.597 638.494,767.325 z" id="boundary" inkscape:connector-curvature="0" />
	<path style="fill:none;stroke:red;stroke-width:1px;stroke-linecap:butt;stroke-linejoin:miter;stroke-opacity:1" d="M 638.494,767.325 649.766,746.39 z" id="boundary" inkscape:connector-curvature="0" />
	<path style="fill:none;stroke:red;stroke-width:1px;stroke-linecap:butt;stroke-linejoin:miter;stroke-opacity:1" d="M 649.766,746.39 657.818,730.286 z" id="boundary" inkscape:connector-curvature="0" />
	<path style="fill:none;stroke:red;stroke-width:1px;stroke-linecap:butt;stroke-linejoin:miter;stroke-opacity:1" d="M 657.818,730.286 665.87,706.13 z" id="boundary" inkscape:connector-curvature="0" />
	<path style="fill:none;stroke:red;stroke-width:1px;stroke-linecap:butt;stroke-linejoin:miter;stroke-opacity:1" d="M 665.87,706.13 680.364,698.078 z" id="boundary" inkscape:connector-curvature="0" />
	<path style="fill:none;stroke:red;stroke-width:1px;stroke-linecap:butt;stroke-linejoin:miter;stroke-opacity:1" d="M 680.364,698.078 690.026,681.974 z" id="boundary" inkscape:connector-curvature="0" />
	<path style="fill:none;stroke:red;stroke-width:1px;stroke-linecap:butt;stroke-linejoin:miter;stroke-opacity:1" d="M 690.026,681.974 702.909,670.701 z" id="boundary" inkscape:connector-curvature="0" />
	<path style="fill:none;stroke:red;stroke-width:1px;stroke-linecap:butt;stroke-linejoin:miter;stroke-opacity:1" d="M 702.909,670.701 706.13,649.766 z" id="boundary" inkscape:connector-curvature="0" />
	<path style="fill:none;stroke:red;stroke-width:1px;stroke-linecap:butt;stroke-linejoin:miter;stroke-opacity:1" d="M 706.13,649.766 719.013,638.494 z" id="boundary" inkscape:connector-curvature="0" />
	<path style="fill:none;stroke:red;stroke-width:1px;stroke-linecap:butt;stroke-linejoin:miter;stroke-opacity:1" d="M 719.013,638.494 730.286,617.558 z" id="boundary" inkscape:connector-curvature="0" />
	<path style="fill:none;stroke:red;stroke-width:1px;stroke-linecap:butt;stroke-linejoin:miter;stroke-opacity:1" d="M 730.286,617.558 743.169,606.286 z" id="boundary" inkscape:connector-curvature="0" />
	<path style="fill:none;stroke:red;stroke-width:1px;stroke-linecap:butt;stroke-linejoin:miter;stroke-opacity:1" d="M 743.169,606.286 751.221,590.182 z" id="boundary" inkscape:connector-curvature="0" />
	<path style="fill:none;stroke:red;stroke-width:1px;stroke-linecap:butt;stroke-linejoin:miter;stroke-opacity:1" d="M 751.221,590.182 760.883,577.299 z" id="boundary" inkscape:connector-curvature="0" />
	<path style="fill:none;stroke:red;stroke-width:1px;stroke-linecap:butt;stroke-linejoin:miter;stroke-opacity:1" d="M 760.883,577.299 775.377,569.247 z" id="boundary" inkscape:connector-curvature="0" />
	<path style="fill:none;stroke:red;stroke-width:1px;stroke-linecap:butt;stroke-linejoin:miter;stroke-opacity:1" d="M 775.377,569.247 786.649,553.143 z" id="boundary" inkscape:connector-curvature="0" />
	<path style="fill:none;stroke:red;stroke-width:1px;stroke-linecap:butt;stroke-linejoin:miter;stroke-opacity:1" d="M 786.649,553.143 799.532,541.87 z" id="boundary" inkscape:connector-curvature="0" />
	<path style="fill:none;stroke:red;stroke-width:1px;stroke-linecap:butt;stroke-linejoin:miter;stroke-opacity:1" d="M 799.532,541.87 815.636,533.818 z" id="boundary" inkscape:connector-curvature="0" />
	<path style="fill:none;stroke:red;stroke-width:1px;stroke-linecap:butt;stroke-linejoin:miter;stroke-opacity:1" d="M 815.636,533.818 826.909,514.494 z" id="boundary" inkscape:connector-curvature="0" />
	<path style="fill:none;stroke:red;stroke-width:1px;stroke-linecap:butt;stroke-linejoin:miter;stroke-opacity:1" d="M 826.909,514.494 826.909,498.39 z" id="boundary" inkscape:connector-curvature="0" />
	<path style="fill:none;stroke:red;stroke-width:1px;stroke-linecap:butt;stroke-linejoin:miter;stroke-opacity:1" d="M 826.909,498.39 825.299,482.286 z" id="boundary" inkscape:connector-curvature="0" />
	<path style="fill:none;stroke:red;stroke-width:1px;stroke-linecap:butt;stroke-linejoin:miter;stroke-opacity:1" d="M 825.299,482.286 812.416,471.013 z" id="boundary" inkscape:connector-curvature="0" />
	<path style="fill:none;stroke:red;stroke-width:1px;stroke-linecap:butt;stroke-linejoin:miter;stroke-opacity:1" d="M 812.416,471.013 797.922,462.961 z" id="boundary" inkscape:connector-curvature="0" />
	<path style="fill:none;stroke:red;stroke-width:1px;stroke-linecap:butt;stroke-linejoin:miter;stroke-opacity:1" d="M 797.922,462.961 781.818,462.961 z" id="boundary" inkscape:connector-curvature="0" />
	<path style="fill:none;stroke:red;stroke-width:1px;stroke-linecap:butt;stroke-linejoin:miter;stroke-opacity:1" d="M 781.818,462.961 765.714,462.961 z" id="boundary" inkscape:connector-curvature="0" />
	<path style="fill:none;stroke:red;stroke-width:1px;stroke-linecap:butt;stroke-linejoin:miter;stroke-opacity:1" d="M 765.714,462.961 749.61,462.961 z" id="boundary" inkscape:connector-curvature="0" />
	<path style="fill:none;stroke:red;stroke-width:1px;stroke-linecap:butt;stroke-linejoin:miter;stroke-opacity:1" d="M 749.61,462.961 733.506,471.013 z" id="boundary" inkscape:connector-curvature="0" />
	<path style="fill:none;stroke:red;stroke-width:1px;stroke-linecap:butt;stroke-linejoin:miter;stroke-opacity:1" d="M 733.506,471.013 717.403,479.065 z" id="boundary" inkscape:connector-curvature="0" />
	<path style="fill:none;stroke:red;stroke-width:1px;stroke-linecap:butt;stroke-linejoin:miter;stroke-opacity:1" d="M 717.403,479.065 701.299,487.117 z" id="boundary" inkscape:connector-curvature="0" />
	<path style="fill:none;stroke:red;stroke-width:1px;stroke-linecap:butt;stroke-linejoin:miter;stroke-opacity:1" d="M 701.299,487.117 688.416,500 z" id="boundary" inkscape:connector-curvature="0" />
	<path style="fill:none;stroke:red;stroke-width:1px;stroke-linecap:butt;stroke-linejoin:miter;stroke-opacity:1" d="M 688.416,500 673.922,514.494 z" id="boundary" inkscape:connector-curvature="0" />
	<path style="fill:none;stroke:red;stroke-width:1px;stroke-linecap:butt;stroke-linejoin:miter;stroke-opacity:1" d="M 673.922,514.494 662.649,527.377 z" id="boundary" inkscape:connector-curvature="0" />
	<path style="fill:none;stroke:red;stroke-width:1px;stroke-linecap:butt;stroke-linejoin:miter;stroke-opacity:1" d="M 662.649,527.377 649.766,538.649 z" id="boundary" inkscape:connector-curvature="0" />
	<path style="fill:none;stroke:red;stroke-width:1px;stroke-linecap:butt;stroke-linejoin:miter;stroke-opacity:1" d="M 649.766,538.649 638.494,551.532 z" id="boundary" inkscape:connector-curvature="0" />
	<path style="fill:none;stroke:red;stroke-width:1px;stroke-linecap:butt;stroke-linejoin:miter;stroke-opacity:1" d="M 638.494,551.532 625.61,562.805 z" id="boundary" inkscape:connector-curvature="0" />
	<path style="fill:none;stroke:red;stroke-width:1px;stroke-linecap:butt;stroke-linejoin:miter;stroke-opacity:1" d="M 625.61,562.805 617.558,578.909 z" id="boundary" inkscape:connector-curvature="0" />
	<path style="fill:none;stroke:red;stroke-width:1px;stroke-linecap:butt;stroke-linejoin:miter;stroke-opacity:1" d="M 617.558,578.909 604.675,591.792 z" id="boundary" inkscape:connector-curvature="0" />
	<path style="fill:none;stroke:red;stroke-width:1px;stroke-linecap:butt;stroke-linejoin:miter;stroke-opacity:1" d="M 604.675,591.792 591.792,604.675 z" id="boundary" inkscape:connector-curvature="0" />
	<path style="fill:none;stroke:red;stroke-width:1px;stroke-linecap:butt;stroke-linejoin:miter;stroke-opacity:1" d="M 591.792,604.675 577.299,615.948 z" id="boundary" inkscape:connector-curvature="0" />
	<path style="fill:none;stroke:red;stroke-width:1px;stroke-linecap:butt;stroke-linejoin:miter;stroke-opacity:1" d="M 577.299,615.948 561.195,609.506 z" id="boundary" inkscape:connector-curvature="0" />
	<path style="fill:none;stroke:red;stroke-width:1px;stroke-linecap:butt;stroke-linejoin:miter;stroke-opacity:1" d="M 561.195,609.506 553.143,595.013 z" id="boundary" inkscape:connector-curvature="0" />
	<path style="fill:none;stroke:red;stroke-width:1px;stroke-linecap:butt;stroke-linejoin:miter;stroke-opacity:1" d="M 553.143,595.013 551.532,578.909 z" id="boundary" inkscape:connector-curvature="0" />
	<path style="fill:none;stroke:red;stroke-width:1px;stroke-linecap:butt;stroke-linejoin:miter;stroke-opacity:1" d="M 551.532,578.909 537.039,570.857 z" id="boundary" inkscape:connector-curvature="0" />
	<path style="fill:none;stroke:red;stroke-width:1px;stroke-linecap:butt;stroke-linejoin:miter;stroke-opacity:1" d="M 537.039,570.857 533.818,554.753 z" id="boundary" inkscape:connector-curvature="0" />
	<path style="fill:none;stroke:red;stroke-width:1px;stroke-linecap:butt;stroke-linejoin:miter;stroke-opacity:1" d="M 533.818,554.753 520.935,545.091 z" id="boundary" inkscape:connector-curvature="0" />
	<path style="fill:none;stroke:red;stroke-width:1px;stroke-linecap:butt;stroke-linejoin:miter;stroke-opacity:1" d="M 520.935,545.091 520.935,528.987 z" id="boundary" inkscape:connector-curvature="0" />
	<path style="fill:none;stroke:red;stroke-width:1px;stroke-linecap:butt;stroke-linejoin:miter;stroke-opacity:1" d="M 520.935,528.987 520.935,512.883 z" id="boundary" inkscape:connector-curvature="0" />
	<path style="fill:none;stroke:red;stroke-width:1px;stroke-linecap:butt;stroke-linejoin:miter;stroke-opacity:1" d="M 520.935,512.883 537.039,504.831 z" id="boundary" inkscape:connector-curvature="0" />
	<path style="fill:none;stroke:red;stroke-width:1px;stroke-linecap:butt;stroke-linejoin:miter;stroke-opacity:1" d="M 537.039,504.831 537.039,488.727 z" id="boundary" inkscape:connector-curvature="0" />
	<path style="fill:none;stroke:red;stroke-width:1px;stroke-linecap:butt;stroke-linejoin:miter;stroke-opacity:1" d="M 537.039,488.727 537.039,472.623 z" id="boundary" inkscape:connector-curvature="0" />
	<path style="fill:none;stroke:red;stroke-width:1px;stroke-linecap:butt;stroke-linejoin:miter;stroke-opacity:1" d="M 537.039,472.623 537.039,456.519 z" id="boundary" inkscape:connector-curvature="0" />
	<path style="fill:none;stroke:red;stroke-width:1px;stroke-linecap:butt;stroke-linejoin:miter;stroke-opacity:1" d="M 537.039,456.519 537.039,440.416 z" id="boundary" inkscape:connector-curvature="0" />
	<path style="fill:none;stroke:red;stroke-width:1px;stroke-linecap:butt;stroke-linejoin:miter;stroke-opacity:1" d="M 537.039,440.416 537.039,424.312 z" id="boundary" inkscape:connector-curvature="0" />
	<path style="fill:none;stroke:red;stroke-width:1px;stroke-linecap:butt;stroke-linejoin:miter;stroke-opacity:1" d="M 537.039,424.312 537.039,408.208 z" id="boundary" inkscape:connector-curvature="0" />
	<path style="fill:none;stroke:red;stroke-width:1px;stroke-linecap:butt;stroke-linejoin:miter;stroke-opacity:1" d="M 537.039,408.208 537.039,392.104 z" id="boundary" inkscape:connector-curvature="0" />
	<path style="fill:none;stroke:red;stroke-width:1px;stroke-linecap:butt;stroke-linejoin:miter;stroke-opacity:1" d="M 537.039,392.104 537.039,376 z" id="boundary" inkscape:connector-curvature="0" />
	<path style="fill:none;stroke:red;stroke-width:1px;stroke-linecap:butt;stroke-linejoin:miter;stroke-opacity:1" d="M 537.039,376 545.091,351.844 z" id="boundary" inkscape:connector-curvature="0" />
	<path style="fill:none;stroke:red;stroke-width:1px;stroke-linecap:butt;stroke-linejoin:miter;stroke-opacity:1" d="M 545.091,351.844 545.091,335.74 z" id="boundary" inkscape:connector-curvature="0" />
	<path style="fill:none;stroke:red;stroke-width:1px;stroke-linecap:butt;stroke-linejoin:miter;stroke-opacity:1" d="M 545.091,335.74 553.143,311.584 z" id="boundary" inkscape:connector-curvature="0" />
	<path style="fill:none;stroke:red;stroke-width:1px;stroke-linecap:butt;stroke-linejoin:miter;stroke-opacity:1" d="M 553.143,311.584 553.143,295.481 z" id="boundary" inkscape:connector-curvature="0" />
	<path style="fill:none;stroke:red;stroke-width:1px;stroke-linecap:butt;stroke-linejoin:miter;stroke-opacity:1" d="M 553.143,295.481 553.143,279.377 z" id="boundary" inkscape:connector-curvature="0" />
	<path style="fill:none;stroke:red;stroke-width:1px;stroke-linecap:butt;stroke-linejoin:miter;stroke-opacity:1" d="M 553.143,279.377 553.143,263.273 z" id="boundary" inkscape:connector-curvature="0" />
	<path style="fill:none;stroke:red;stroke-width:1px;stroke-linecap:butt;stroke-linejoin:miter;stroke-opacity:1" d="M 553.143,263.273 553.143,247.169 z" id="boundary" inkscape:connector-curvature="0" />
	<path style="fill:none;stroke:red;stroke-width:1px;stroke-linecap:butt;stroke-linejoin:miter;stroke-opacity:1" d="M 553.143,247.169 548.312,231.065 z" id="boundary" inkscape:connector-curvature="0" />
	<path style="fill:none;stroke:red;stroke-width:1px;stroke-linecap:butt;stroke-linejoin:miter;stroke-opacity:1" d="M 548.312,231.065 537.039,218.182 z" id="boundary" inkscape:connector-curvature="0" />
	<path style="fill:none;stroke:red;stroke-width:1px;stroke-linecap:butt;stroke-linejoin:miter;stroke-opacity:1" d="M 537.039,218.182 520.935,213.351 z" id="boundary" inkscape:connector-curvature="0" />
	<path style="fill:none;stroke:red;stroke-width:1px;stroke-linecap:butt;stroke-linejoin:miter;stroke-opacity:1" d="M 520.935,213.351 512.883,198.857 z" id="boundary" inkscape:connector-curvature="0" />
	<path style="fill:none;stroke:red;stroke-width:1px;stroke-linecap:butt;stroke-linejoin:miter;stroke-opacity:1" d="M 512.883,198.857 500,189.195 z" id="boundary" inkscape:connector-curvature="0" />
	<path style="fill:none;stroke:red;stroke-width:1px;stroke-linecap:butt;stroke-linejoin:miter;stroke-opacity:1" d="M 500,189.195 485.506,181.143 z" id="boundary" inkscape:connector-curvature="0" />
	<path style="fill:none;stroke:red;stroke-width:1px;stroke-linecap:butt;stroke-linejoin:miter;stroke-opacity:1" d="M 485.506,181.143 469.403,181.143 z" id="boundary" inkscape:connector-curvature="0" />
	<path style="fill:none;stroke:red;stroke-width:1px;stroke-linecap:butt;stroke-linejoin:miter;stroke-opacity:1" d="M 469.403,181.143 454.909,189.195 z" id="boundary" inkscape:connector-curvature="0" />
	<path style="fill:none;stroke:red;stroke-width:1px;stroke-linecap:butt;stroke-linejoin:miter;stroke-opacity:1" d="M 454.909,189.195 438.805,194.026 z" id="boundary" inkscape:connector-curvature="0" />
	<path style="fill:none;stroke:red;stroke-width:1px;stroke-linecap:butt;stroke-linejoin:miter;stroke-opacity:1" d="M 438.805,194.026 438.805,210.13 z" id="boundary" inkscape:connector-curvature="0" />
	<path style="fill:none;stroke:red;stroke-width:1px;stroke-linecap:butt;stroke-linejoin:miter;stroke-opacity:1" d="M 438.805,210.13 430.753,226.234 z" id="boundary" inkscape:connector-curvature="0" />
	<path style="fill:none;stroke:red;stroke-width:1px;stroke-linecap:butt;stroke-linejoin:miter;stroke-opacity:1" d="M 430.753,226.234 443.636,237.506 z" id="boundary" inkscape:connector-curvature="0" />
	<path style="fill:none;stroke:red;stroke-width:1px;stroke-linecap:butt;stroke-linejoin:miter;stroke-opacity:1" d="M 443.636,237.506 456.519,247.169 z" id="boundary" inkscape:connector-curvature="0" />
	<path style="fill:none;stroke:red;stroke-width:1px;stroke-linecap:butt;stroke-linejoin:miter;stroke-opacity:1" d="M 456.519,247.169 446.857,266.494 z" id="boundary" inkscape:connector-curvature="0" />
	<path style="fill:none;stroke:red;stroke-width:1px;stroke-linecap:butt;stroke-linejoin:miter;stroke-opacity:1" d="M 446.857,266.494 446.857,282.597 z" id="boundary" inkscape:connector-curvature="0" />
	<path style="fill:none;stroke:red;stroke-width:1px;stroke-linecap:butt;stroke-linejoin:miter;stroke-opacity:1" d="M 446.857,282.597 438.805,306.753 z" id="boundary" inkscape:connector-curvature="0" />
	<path style="fill:none;stroke:red;stroke-width:1px;stroke-linecap:butt;stroke-linejoin:miter;stroke-opacity:1" d="M 438.805,306.753 438.805,322.857 z" id="boundary" inkscape:connector-curvature="0" />
	<path style="fill:none;stroke:red;stroke-width:1px;stroke-linecap:butt;stroke-linejoin:miter;stroke-opacity:1" d="M 438.805,322.857 430.753,338.961 z" id="boundary" inkscape:connector-curvature="0" />
	<path style="fill:none;stroke:red;stroke-width:1px;stroke-linecap:butt;stroke-linejoin:miter;stroke-opacity:1" d="M 430.753,338.961 430.753,355.065 z" id="boundary" inkscape:connector-curvature="0" />
	<path style="fill:none;stroke:red;stroke-width:1px;stroke-linecap:butt;stroke-linejoin:miter;stroke-opacity:1" d="M 430.753,355.065 430.753,371.169 z" id="boundary" inkscape:connector-curvature="0" />
	<path style="fill:none;stroke:red;stroke-width:1px;stroke-linecap:butt;stroke-linejoin:miter;stroke-opacity:1" d="M 430.753,371.169 408.208,376 z" id="boundary" inkscape:connector-curvature="0" />
	<path style="fill:none;stroke:red;stroke-width:1px;stroke-linecap:butt;stroke-linejoin:miter;stroke-opacity:1" d="M 408.208,376 408.208,359.896 z" id="boundary" inkscape:connector-curvature="0" />
	<path style="fill:none;stroke:red;stroke-width:1px;stroke-linecap:butt;stroke-linejoin:miter;stroke-opacity:1" d="M 408.208,359.896 408.208,343.792 z" id="boundary" inkscape:connector-curvature="0" />
	<path style="fill:none;stroke:red;stroke-width:1px;stroke-linecap:butt;stroke-linejoin:miter;stroke-opacity:1" d="M 408.208,343.792 408.208,327.688 z" id="boundary" inkscape:connector-curvature="0" />
	<path style="fill:none;stroke:red;stroke-width:1px;stroke-linecap:butt;stroke-linejoin:miter;stroke-opacity:1" d="M 408.208,327.688 408.208,311.584 z" id="boundary" inkscape:connector-curvature="0" />
	<path style="fill:none;stroke:red;stroke-width:1px;stroke-linecap:butt;stroke-linejoin:miter;stroke-opacity:1" d="M 408.208,311.584 408.208,295.481 z" id="boundary" inkscape:connector-curvature="0" />
	<path style="fill:none;stroke:red;stroke-width:1px;stroke-linecap:butt;stroke-linejoin:miter;stroke-opacity:1" d="M 408.208,295.481 408.208,279.377 z" id="boundary" inkscape:connector-curvature="0" />
	<path style="fill:none;stroke:red;stroke-width:1px;stroke-linecap:butt;stroke-linejoin:miter;stroke-opacity:1" d="M 408.208,279.377 408.208,263.273 z" id="boundary" inkscape:connector-curvature="0" />
	<path style="fill:none;stroke:red;stroke-width:1px;stroke-linecap:butt;stroke-linejoin:miter;stroke-opacity:1" d="M 408.208,263.273 408.208,247.169 z" id="boundary" inkscape:connector-curvature="0" />
	<path style="fill:none;stroke:red;stroke-width:1px;stroke-linecap:butt;stroke-linejoin:miter;stroke-opacity:1" d="M 408.208,247.169 408.208,231.065 z" id="boundary" inkscape:connector-curvature="0" />
	<path style="fill:none;stroke:red;stroke-width:1px;stroke-linecap:butt;stroke-linejoin:miter;stroke-opacity:1" d="M 408.208,231.065 403.377,214.961 z" id="boundary" inkscape:connector-curvature="0" />
	<path style="fill:none;stroke:red;stroke-width:1px;stroke-linecap:butt;stroke-linejoin:miter;stroke-opacity:1" d="M 403.377,214.961 400.156,198.857 z" id="boundary" inkscape:connector-curvature="0" />
	<path style="fill:none;stroke:red;stroke-width:1px;stroke-linecap:butt;stroke-linejoin:miter;stroke-opacity:1" d="M 400.156,198.857 400.156,182.753 z" id="boundary" inkscape:connector-curvature="0" />
	<path style="fill:none;stroke:red;stroke-width:1px;stroke-linecap:butt;stroke-linejoin:miter;stroke-opacity:1" d="M 400.156,182.753 408.208,168.26 z" id="boundary" inkscape:connector-curvature="0" />
	<path style="fill:none;stroke:red;stroke-width:1px;stroke-linecap:butt;stroke-linejoin:miter;stroke-opacity:1" d="M 408.208,168.26 408.208,152.156 z" id="boundary" inkscape:connector-curvature="0" />
	<path style="fill:none;stroke:red;stroke-width:1px;stroke-linecap:butt;stroke-linejoin:miter;stroke-opacity:1" d="M 408.208,152.156 408.208,136.052 z" id="boundary" inkscape:connector-curvature="0" />
	<path style="fill:none;stroke:red;stroke-width:1px;stroke-linecap:butt;stroke-linejoin:miter;stroke-opacity:1" d="M 408.208,136.052 408.208,119.948 z" id="boundary" inkscape:connector-curvature="0" />
	<path style="fill:none;stroke:red;stroke-width:1px;stroke-linecap:butt;stroke-linejoin:miter;stroke-opacity:1" d="M 408.208,119.948 408.208,103.844 z" id="boundary" inkscape:connector-curvature="0" />
	<path style="fill:none;stroke:red;stroke-width:1px;stroke-linecap:butt;stroke-linejoin:miter;stroke-opacity:1" d="M 408.208,103.844 408.208,87.7403 z" id="boundary" inkscape:connector-curvature="0" />
	<path style="fill:none;stroke:red;stroke-width:1px;stroke-linecap:butt;stroke-linejoin:miter;stroke-opacity:1" d="M 408.208,87.7403 408.208,71.6364 z" id="boundary" inkscape:connector-curvature="0" />
	<path style="fill:none;stroke:red;stroke-width:1px;stroke-linecap:butt;stroke-linejoin:miter;stroke-opacity:1" d="M 408.208,71.6364 408.208,55.5325 z" id="boundary" inkscape:connector-curvature="0" />
	<path style="fill:none;stroke:red;stroke-width:1px;stroke-linecap:butt;stroke-linejoin:miter;stroke-opacity:1" d="M 408.208,55.5325 404.987,39.4286 z" id="boundary" inkscape:connector-curvature="0" />
	<path style="fill:none;stroke:red;stroke-width:1px;stroke-linecap:butt;stroke-linejoin:miter;stroke-opacity:1" d="M 404.987,39.4286 398.545,23.3247 z" id="boundary" inkscape:connector-curvature="0" />
	<path style="fill:none;stroke:red;stroke-width:1px;stroke-linecap:butt;stroke-linejoin:miter;stroke-opacity:1" d="M 398.545,23.3247 385.662,12.0519 z" id="boundary" inkscape:connector-curvature="0" />
	<path style="fill:none;stroke:red;stroke-width:1px;stroke-linecap:butt;stroke-linejoin:miter;stroke-opacity:1" d="M 385.662,12.0519 371.169,4 z" id="boundary" inkscape:connector-curvature="0" />
	<path style="fill:none;stroke:red;stroke-width:1px;stroke-linecap:butt;stroke-linejoin:miter;stroke-opacity:1" d="M 371.169,4 355.065,4 z" id="boundary" inkscape:connector-curvature="0" />
	<path style="fill:none;stroke:red;stroke-width:1px;stroke-linecap:butt;stroke-linejoin:miter;stroke-opacity:1" d="M 355.065,4 338.961,4 z" id="boundary" inkscape:connector-curvature="0" />
	<path style="fill:none;stroke:red;stroke-width:1px;stroke-linecap:butt;stroke-linejoin:miter;stroke-opacity:1" d="M 338.961,4 322.857,4 z" id="boundary" inkscape:connector-curvature="0" />
	<path style="fill:none;stroke:red;stroke-width:1px;stroke-linecap:butt;stroke-linejoin:miter;stroke-opacity:1" d="M 322.857,4 309.974,16.8831 z" id="boundary" inkscape:connector-curvature="0" />
	<path style="fill:none;stroke:red;stroke-width:1px;stroke-linecap:butt;stroke-linejoin:miter;stroke-opacity:1" d="M 309.974,16.8831 301.922,41.039 z" id="boundary" inkscape:connector-curvature="0" />
	<path style="fill:none;stroke:red;stroke-width:1px;stroke-linecap:butt;stroke-linejoin:miter;stroke-opacity:1" d="M 301.922,41.039 301.922,57.1429 z" id="boundary" inkscape:connector-curvature="0" />
	<path style="fill:none;stroke:red;stroke-width:1px;stroke-linecap:butt;stroke-linejoin:miter;stroke-opacity:1" d="M 301.922,57.1429 301.922,73.2468 z" id="boundary" inkscape:connector-curvature="0" />
	<path style="fill:none;stroke:red;stroke-width:1px;stroke-linecap:butt;stroke-linejoin:miter;stroke-opacity:1" d="M 301.922,73.2468 301.922,89.3506 z" id="boundary" inkscape:connector-curvature="0" />
	<path style="fill:none;stroke:red;stroke-width:1px;stroke-linecap:butt;stroke-linejoin:miter;stroke-opacity:1" d="M 301.922,89.3506 301.922,105.455 z" id="boundary" inkscape:connector-curvature="0" />
	<path style="fill:none;stroke:red;stroke-width:1px;stroke-linecap:butt;stroke-linejoin:miter;stroke-opacity:1" d="M 301.922,105.455 301.922,121.558 z" id="boundary" inkscape:connector-curvature="0" />
	<path style="fill:none;stroke:red;stroke-width:1px;stroke-linecap:butt;stroke-linejoin:miter;stroke-opacity:1" d="M 301.922,121.558 301.922,137.662 z" id="boundary" inkscape:connector-curvature="0" />
	<path style="fill:none;stroke:red;stroke-width:1px;stroke-linecap:butt;stroke-linejoin:miter;stroke-opacity:1" d="M 301.922,137.662 301.922,153.766 z" id="boundary" inkscape:connector-curvature="0" />
	<path style="fill:none;stroke:red;stroke-width:1px;stroke-linecap:butt;stroke-linejoin:miter;stroke-opacity:1" d="M 301.922,153.766 301.922,169.87 z" id="boundary" inkscape:connector-curvature="0" />
	<path style="fill:none;stroke:red;stroke-width:1px;stroke-linecap:butt;stroke-linejoin:miter;stroke-opacity:1" d="M 301.922,169.87 301.922,185.974 z" id="boundary" inkscape:connector-curvature="0" />
	<path style="fill:none;stroke:red;stroke-width:1px;stroke-linecap:butt;stroke-linejoin:miter;stroke-opacity:1" d="M 301.922,185.974 301.922,202.078 z" id="boundary" inkscape:connector-curvature="0" />
	<path style="fill:none;stroke:red;stroke-width:1px;stroke-linecap:butt;stroke-linejoin:miter;stroke-opacity:1" d="M 301.922,202.078 301.922,218.182 z" id="boundary" inkscape:connector-curvature="0" />
	<path style="fill:none;stroke:red;stroke-width:1px;stroke-linecap:butt;stroke-linejoin:miter;stroke-opacity:1" d="M 301.922,218.182 301.922,234.286 z" id="boundary" inkscape:connector-curvature="0" />
	<path style="fill:none;stroke:red;stroke-width:1px;stroke-linecap:butt;stroke-linejoin:miter;stroke-opacity:1" d="M 301.922,234.286 301.922,250.39 z" id="boundary" inkscape:connector-curvature="0" />
	<path style="fill:none;stroke:red;stroke-width:1px;stroke-linecap:butt;stroke-linejoin:miter;stroke-opacity:1" d="M 301.922,250.39 301.922,266.494 z" id="boundary" inkscape:connector-curvature="0" />
	<path style="fill:none;stroke:red;stroke-width:1px;stroke-linecap:butt;stroke-linejoin:miter;stroke-opacity:1" d="M 301.922,266.494 301.922,282.597 z" id="boundary" inkscape:connector-curvature="0" />
	<path style="fill:none;stroke:red;stroke-width:1px;stroke-linecap:butt;stroke-linejoin:miter;stroke-opacity:1" d="M 301.922,282.597 301.922,298.701 z" id="boundary" inkscape:connector-curvature="0" />
	<path style="fill:none;stroke:red;stroke-width:1px;stroke-linecap:butt;stroke-linejoin:miter;stroke-opacity:1" d="M 301.922,298.701 301.922,314.805 z" id="boundary" inkscape:connector-curvature="0" />
	<path style="fill:none;stroke:red;stroke-width:1px;stroke-linecap:butt;stroke-linejoin:miter;stroke-opacity:1" d="M 301.922,314.805 301.922,330.909 z" id="boundary" inkscape:connector-curvature="0" />
	<path style="fill:none;stroke:red;stroke-width:1px;stroke-linecap:butt;stroke-linejoin:miter;stroke-opacity:1" d="M 301.922,330.909 301.922,347.013 z" id="boundary" inkscape:connector-curvature="0" />
	<path style="fill:none;stroke:red;stroke-width:1px;stroke-linecap:butt;stroke-linejoin:miter;stroke-opacity:1" d="M 292.26,374.39 301.922,347.013 z" id="boundary" inkscape:connector-curvature="0" />
	<circle cx="4" cy="226.234" r="4" fill="#0" id="circle0"/>
	<circle cx="4" cy="242.338" r="4" fill="#0" id="circle1"/>
	<circle cx="4" cy="258.442" r="4" fill="#0" id="circle2"/>
	<circle cx="4" cy="274.545" r="4" fill="#0" id="circle3"/>
	<circle cx="4" cy="290.649" r="4" fill="#0" id="circle4"/>
	<circle cx="4" cy="306.753" r="4" fill="#0" id="circle5"/>
	<circle cx="12.0519" cy="321.247" r="4" fill="#0" id="circle6"/>
	<circle cx="12.0519" cy="337.351" r="4" fill="#0" id="circle7"/>
	<circle cx="16.8831" cy="213.351" r="4" fill="#0" id="circle8"/>
	<circle cx="20.1039" cy="351.844" r="4" fill="#0" id="circle9"/>
	<circle cx="24.9351" cy="367.948" r="4" fill="#0" id="circle10"/>
	<circle cx="28.1558" cy="384.052" r="4" fill="#0" id="circle11"/>
	<circle cx="32.987" cy="213.351" r="4" fill="#0" id="circle12"/>
	<circle cx="36.2078" cy="398.545" r="4" fill="#0" id="circle13"/>
	<circle cx="36.2078" cy="414.649" r="4" fill="#0" id="circle14"/>
	<circle cx="44.2597" cy="429.143" r="4" fill="#0" id="circle15"/>
	<circle cx="45.8701" cy="445.247" r="4" fill="#0" id="circle16"/>
	<circle cx="49.0909" cy="213.351" r="4" fill="#0" id="circle17"/>
	<circle cx="53.9221" cy="459.74" r="4" fill="#0" id="circle18"/>
	<circle cx="60.3636" cy="475.844" r="4" fill="#0" id="circle19"/>
	<circle cx="63.5844" cy="221.403" r="4" fill="#0" id="circle20"/>
	<circle cx="76.4675" cy="480.675" r="4" fill="#0" id="circle21"/>
	<circle cx="78.0779" cy="229.455" r="4" fill="#0" id="circle22"/>
	<circle cx="81.2987" cy="496.779" r="4" fill="#0" id="circle23"/>
	<circle cx="84.5195" cy="512.883" r="4" fill="#0" id="circle24"/>
	<circle cx="84.5195" cy="528.987" r="4" fill="#0" id="circle25"/>
	<circle cx="86.1299" cy="243.948" r="4" fill="#0" id="circle26"/>
	<circle cx="92.5714" cy="543.481" r="4" fill="#0" id="circle27"/>
	<circle cx="92.5714" cy="559.584" r="4" fill="#0" id="circle28"/>
	<circle cx="92.5714" cy="575.688" r="4" fill="#0" id="circle29"/>
	<circle cx="92.5714" cy="591.792" r="4" fill="#0" id="circle30"/>
	<circle cx="92.5714" cy="607.896" r="4" fill="#0" id="circle31"/>
	<circle cx="92.5714" cy="624" r="4" fill="#0" id="circle32"/>
	<circle cx="92.5714" cy="640.104" r="4" fill="#0" id="circle33"/>
	<circle cx="92.5714" cy="656.208" r="4" fill="#0" id="circle34"/>
	<circle cx="92.5714" cy="672.312" r="4" fill="#0" id="circle35"/>
	<circle cx="92.5714" cy="688.416" r="4" fill="#0" id="circle36"/>
	<circle cx="94.1818" cy="258.442" r="4" fill="#0" id="circle37"/>
	<circle cx="94.1818" cy="274.545" r="4" fill="#0" id="circle38"/>
	<circle cx="95.7922" cy="704.519" r="4" fill="#0" id="circle39"/>
	<circle cx="100.623" cy="290.649" r="4" fill="#0" id="circle40"/>
	<circle cx="100.623" cy="720.623" r="4" fill="#0" id="circle41"/>
	<circle cx="100.623" cy="736.727" r="4" fill="#0" id="circle42"/>
	<circle cx="102.234" cy="306.753" r="4" fill="#0" id="circle43"/>
	<circle cx="102.234" cy="322.857" r="4" fill="#0" id="circle44"/>
	<circle cx="103.844" cy="752.831" r="4" fill="#0" id="circle45"/>
	<circle cx="108.675" cy="768.935" r="4" fill="#0" id="circle46"/>
	<circle cx="108.675" cy="967.013" r="4" fill="#0" id="circle47"/>
	<circle cx="108.675" cy="983.117" r="4" fill="#0" id="circle48"/>
	<circle cx="110.286" cy="337.351" r="4" fill="#0" id="circle49"/>
	<circle cx="110.286" cy="353.455" r="4" fill="#0" id="circle50"/>
	<circle cx="111.896" cy="785.039" r="4" fill="#0" id="circle51"/>
	<circle cx="116.727" cy="801.143" r="4" fill="#0" id="circle52"/>
	<circle cx="116.727" cy="942.857" r="4" fill="#0" id="circle53"/>
	<circle cx="118.338" cy="996" r="4" fill="#0" id="circle54"/>
	<circle cx="119.948" cy="366.338" r="4" fill="#0" id="circle55"/>
	<circle cx="124.779" cy="815.636" r="4" fill="#0" id="circle56"/>
	<circle cx="124.779" cy="831.74" r="4" fill="#0" id="circle57"/>
	<circle cx="124.779" cy="910.649" r="4" fill="#0" id="circle58"/>
	<circle cx="124.779" cy="926.753" r="4" fill="#0" id="circle59"/>
	<circle cx="126.39" cy="382.442" r="4" fill="#0" id="circle60"/>
	<circle cx="126.39" cy="398.545" r="4" fill="#0" id="circle61"/>
	<circle cx="132.831" cy="846.234" r="4" fill="#0" id="circle62"/>
	<circle cx="132.831" cy="862.338" r="4" fill="#0" id="circle63"/>
	<circle cx="132.831" cy="878.442" r="4" fill="#0" id="circle64"/>
	<circle cx="132.831" cy="894.545" r="4" fill="#0" id="circle65"/>
	<circle cx="134.442" cy="413.039" r="4" fill="#0" id="circle66"/>
	<circle cx="134.442" cy="996" r="4" fill="#0" id="circle67"/>
	<circle cx="150.545" cy="419.481" r="4" fill="#0" id="circle68"/>
	<circle cx="150.545" cy="435.584" r="4" fill="#0" id="circle69"/>
	<circle cx="150.545" cy="996" r="4" fill="#0" id="circle70"/>
	<circle cx="156.987" cy="242.338" r="4" fill="#0" id="circle71"/>
	<circle cx="156.987" cy="258.442" r="4" fill="#0" id="circle72"/>
	<circle cx="161.818" cy="448.468" r="4" fill="#0" id="circle73"/>
	<circle cx="165.039" cy="226.234" r="4" fill="#0" id="circle74"/>
	<circle cx="165.039" cy="272.935" r="4" fill="#0" id="circle75"/>
	<circle cx="165.039" cy="289.039" r="4" fill="#0" id="circle76"/>
	<circle cx="165.039" cy="305.143" r="4" fill="#0" id="circle77"/>
	<circle cx="165.039" cy="321.247" r="4" fill="#0" id="circle78"/>
	<circle cx="165.039" cy="337.351" r="4" fill="#0" id="circle79"/>
	<circle cx="165.039" cy="353.455" r="4" fill="#0" id="circle80"/>
	<circle cx="166.649" cy="996" r="4" fill="#0" id="circle81"/>
	<circle cx="173.091" cy="367.948" r="4" fill="#0" id="circle82"/>
	<circle cx="173.091" cy="384.052" r="4" fill="#0" id="circle83"/>
	<circle cx="177.922" cy="213.351" r="4" fill="#0" id="circle84"/>
	<circle cx="177.922" cy="400.156" r="4" fill="#0" id="circle85"/>
	<circle cx="177.922" cy="454.909" r="4" fill="#0" id="circle86"/>
	<circle cx="181.143" cy="416.26" r="4" fill="#0" id="circle87"/>
	<circle cx="181.143" cy="432.364" r="4" fill="#0" id="circle88"/>
	<circle cx="182.753" cy="996" r="4" fill="#0" id="circle89"/>
	<circle cx="192.416" cy="205.299" r="4" fill="#0" id="circle90"/>
	<circle cx="198.857" cy="996" r="4" fill="#0" id="circle91"/>
	<circle cx="200.468" cy="190.805" r="4" fill="#0" id="circle92"/>
	<circle cx="214.961" cy="996" r="4" fill="#0" id="circle93"/>
	<circle cx="216.571" cy="182.753" r="4" fill="#0" id="circle94"/>
	<circle cx="231.065" cy="996" r="4" fill="#0" id="circle95"/>
	<circle cx="232.675" cy="181.143" r="4" fill="#0" id="circle96"/>
	<circle cx="247.169" cy="996" r="4" fill="#0" id="circle97"/>
	<circle cx="248.779" cy="181.143" r="4" fill="#0" id="circle98"/>
	<circle cx="263.273" cy="255.221" r="4" fill="#0" id="circle99"/>
	<circle cx="263.273" cy="271.325" r="4" fill="#0" id="circle100"/>
	<circle cx="263.273" cy="287.429" r="4" fill="#0" id="circle101"/>
	<circle cx="263.273" cy="996" r="4" fill="#0" id="circle102"/>
	<circle cx="264.883" cy="181.143" r="4" fill="#0" id="circle103"/>
	<circle cx="271.325" cy="301.922" r="4" fill="#0" id="circle104"/>
	<circle cx="271.325" cy="318.026" r="4" fill="#0" id="circle105"/>
	<circle cx="271.325" cy="334.13" r="4" fill="#0" id="circle106"/>
	<circle cx="276.156" cy="243.948" r="4" fill="#0" id="circle107"/>
	<circle cx="277.766" cy="192.416" r="4" fill="#0" id="circle108"/>
	<circle cx="279.377" cy="208.519" r="4" fill="#0" id="circle109"/>
	<circle cx="279.377" cy="224.623" r="4" fill="#0" id="circle110"/>
	<circle cx="279.377" cy="348.623" r="4" fill="#0" id="circle111"/>
	<circle cx="279.377" cy="364.727" r="4" fill="#0" id="circle112"/>
	<circle cx="279.377" cy="996" r="4" fill="#0" id="circle113"/>
	<circle cx="292.26" cy="374.39" r="4" fill="#0" id="circle114"/>
	<circle cx="295.481" cy="996" r="4" fill="#0" id="circle115"/>
	<circle cx="301.922" cy="41.039" r="4" fill="#0" id="circle116"/>
	<circle cx="301.922" cy="57.1429" r="4" fill="#0" id="circle117"/>
	<circle cx="301.922" cy="73.2468" r="4" fill="#0" id="circle118"/>
	<circle cx="301.922" cy="89.3506" r="4" fill="#0" id="circle119"/>
	<circle cx="301.922" cy="105.455" r="4" fill="#0" id="circle120"/>
	<circle cx="301.922" cy="121.558" r="4" fill="#0" id="circle121"/>
	<circle cx="301.922" cy="137.662" r="4" fill="#0" id="circle122"/>
	<circle cx="301.922" cy="153.766" r="4" fill="#0" id="circle123"/>
	<circle cx="301.922" cy="169.87" r="4" fill="#0" id="circle124"/>
	<circle cx="301.922" cy="185.974" r="4" fill="#0" id="circle125"/>
	<circle cx="301.922" cy="202.078" r="4" fill="#0" id="circle126"/>
	<circle cx="301.922" cy="218.182" r="4" fill="#0" id="circle127"/>
	<circle cx="301.922" cy="234.286" r="4" fill="#0" id="circle128"/>
	<circle cx="301.922" cy="250.39" r="4" fill="#0" id="circle129"/>
	<circle cx="301.922" cy="266.494" r="4" fill="#0" id="circle130"/>
	<circle cx="301.922" cy="282.597" r="4" fill="#0" id="circle131"/>
	<circle cx="301.922" cy="298.701" r="4" fill="#0" id="circle132"/>
	<circle cx="301.922" cy="314.805" r="4" fill="#0" id="circle133"/>
	<circle cx="301.922" cy="330.909" r="4" fill="#0" id="circle134"/>
	<circle cx="301.922" cy="347.013" r="4" fill="#0" id="circle135"/>
	<circle cx="309.974" cy="16.8831" r="4" fill="#0" id="circle136"/>
	<circle cx="311.584" cy="996" r="4" fill="#0" id="circle137"/>
	<circle cx="322.857" cy="4" r="4" fill="#0" id="circle138"/>
	<circle cx="327.688" cy="996" r="4" fill="#0" id="circle139"/>
	<circle cx="338.961" cy="4" r="4" fill="#0" id="circle140"/>
	<circle cx="343.792" cy="996" r="4" fill="#0" id="circle141"/>
	<circle cx="355.065" cy="4" r="4" fill="#0" id="circle142"/>
	<circle cx="359.896" cy="996" r="4" fill="#0" id="circle143"/>
	<circle cx="371.169" cy="4" r="4" fill="#0" id="circle144"/>
	<circle cx="376" cy="996" r="4" fill="#0" id="circle145"/>
	<circle cx="385.662" cy="12.0519" r="4" fill="#0" id="circle146"/>
	<circle cx="392.104" cy="996" r="4" fill="#0" id="circle147"/>
	<circle cx="398.545" cy="23.3247" r="4" fill="#0" id="circle148"/>
	<circle cx="400.156" cy="182.753" r="4" fill="#0" id="circle149"/>
	<circle cx="400.156" cy="198.857" r="4" fill="#0" id="circle150"/>
	<circle cx="403.377" cy="214.961" r="4" fill="#0" id="circle151"/>
	<circle cx="404.987" cy="39.4286" r="4" fill="#0" id="circle152"/>
	<circle cx="408.208" cy="55.5325" r="4" fill="#0" id="circle153"/>
	<circle cx="408.208" cy="71.6364" r="4" fill="#0" id="circle154"/>
	<circle cx="408.208" cy="87.7403" r="4" fill="#0" id="circle155"/>
	<circle cx="408.208" cy="103.844" r="4" fill="#0" id="circle156"/>
	<circle cx="408.208" cy="119.948" r="4" fill="#0" id="circle157"/>
	<circle cx="408.208" cy="136.052" r="4" fill="#0" id="circle158"/>
	<circle cx="408.208" cy="152.156" r="4" fill="#0" id="circle159"/>
	<circle cx="408.208" cy="168.26" r="4" fill="#0" id="circle160"/>
	<circle cx="408.208" cy="231.065" r="4" fill="#0" id="circle161"/>
	<circle cx="408.208" cy="247.169" r="4" fill="#0" id="circle162"/>
	<circle cx="408.208" cy="263.273" r="4" fill="#0" id="circle163"/>
	<circle cx="408.208" cy="279.377" r="4" fill="#0" id="circle164"/>
	<circle cx="408.208" cy="295.481" r="4" fill="#0" id="circle165"/>
	<circle cx="408.208" cy="311.584" r="4" fill="#0" id="circle166"/>
	<circle cx="408.208" cy="327.688" r="4" fill="#0" id="circle167"/>
	<circle cx="408.208" cy="343.792" r="4" fill="#0" id="circle168"/>
	<circle cx="408.208" cy="359.896" r="4" fill="#0" id="circle169"/>
	<circle cx="408.208" cy="376" r="4" fill="#0" id="circle170"/>
	<circle cx="408.208" cy="996" r="4" fill="#0" id="circle171"/>
	<circle cx="416.26" cy="390.494" r="4" fill="#0" id="circle172"/>
	<circle cx="424.312" cy="996" r="4" fill="#0" id="circle173"/>
	<circle cx="430.753" cy="226.234" r="4" fill="#0" id="circle174"/>
	<circle cx="430.753" cy="338.961" r="4" fill="#0" id="circle175"/>
	<circle cx="430.753" cy="355.065" r="4" fill="#0" id="circle176"/>
	<circle cx="430.753" cy="371.169" r="4" fill="#0" id="circle177"/>
	<circle cx="432.364" cy="963.792" r="4" fill="#0" id="circle178"/>
	<circle cx="432.364" cy="979.896" r="4" fill="#0" id="circle179"/>
	<circle cx="438.805" cy="194.026" r="4" fill="#0" id="circle180"/>
	<circle cx="438.805" cy="210.13" r="4" fill="#0" id="circle181"/>
	<circle cx="438.805" cy="306.753" r="4" fill="#0" id="circle182"/>
	<circle cx="438.805" cy="322.857" r="4" fill="#0" id="circle183"/>
	<circle cx="440.416" cy="947.688" r="4" fill="#0" id="circle184"/>
	<circle cx="443.636" cy="237.506" r="4" fill="#0" id="circle185"/>
	<circle cx="446.857" cy="266.494" r="4" fill="#0" id="circle186"/>
	<circle cx="446.857" cy="282.597" r="4" fill="#0" id="circle187"/>
	<circle cx="454.909" cy="189.195" r="4" fill="#0" id="circle188"/>
	<circle cx="454.909" cy="939.636" r="4" fill="#0" id="circle189"/>
	<circle cx="456.519" cy="247.169" r="4" fill="#0" id="circle190"/>
	<circle cx="467.792" cy="929.974" r="4" fill="#0" id="circle191"/>
	<circle cx="469.403" cy="181.143" r="4" fill="#0" id="circle192"/>
	<circle cx="480.675" cy="915.481" r="4" fill="#0" id="circle193"/>
	<circle cx="485.506" cy="181.143" r="4" fill="#0" id="circle194"/>
	<circle cx="496.779" cy="915.481" r="4" fill="#0" id="circle195"/>
	<circle cx="500" cy="189.195" r="4" fill="#0" id="circle196"/>
	<circle cx="512.883" cy="198.857" r="4" fill="#0" id="circle197"/>
	<circle cx="512.883" cy="907.429" r="4" fill="#0" id="circle198"/>
	<circle cx="520.935" cy="213.351" r="4" fill="#0" id="circle199"/>
	<circle cx="520.935" cy="512.883" r="4" fill="#0" id="circle200"/>
	<circle cx="520.935" cy="528.987" r="4" fill="#0" id="circle201"/>
	<circle cx="520.935" cy="545.091" r="4" fill="#0" id="circle202"/>
	<circle cx="527.377" cy="899.377" r="4" fill="#0" id="circle203"/>
	<circle cx="533.818" cy="554.753" r="4" fill="#0" id="circle204"/>
	<circle cx="537.039" cy="218.182" r="4" fill="#0" id="circle205"/>
	<circle cx="537.039" cy="376" r="4" fill="#0" id="circle206"/>
	<circle cx="537.039" cy="392.104" r="4" fill="#0" id="circle207"/>
	<circle cx="537.039" cy="408.208" r="4" fill="#0" id="circle208"/>
	<circle cx="537.039" cy="424.312" r="4" fill="#0" id="circle209"/>
	<circle cx="537.039" cy="440.416" r="4" fill="#0" id="circle210"/>
	<circle cx="537.039" cy="456.519" r="4" fill="#0" id="circle211"/>
	<circle cx="537.039" cy="472.623" r="4" fill="#0" id="circle212"/>
	<circle cx="537.039" cy="488.727" r="4" fill="#0" id="circle213"/>
	<circle cx="537.039" cy="504.831" r="4" fill="#0" id="circle214"/>
	<circle cx="537.039" cy="570.857" r="4" fill="#0" id="circle215"/>
	<circle cx="537.039" cy="883.273" r="4" fill="#0" id="circle216"/>
	<circle cx="545.091" cy="335.74" r="4" fill="#0" id="circle217"/>
	<circle cx="545.091" cy="351.844" r="4" fill="#0" id="circle218"/>
	<circle cx="548.312" cy="231.065" r="4" fill="#0" id="circle219"/>
	<circle cx="549.922" cy="872" r="4" fill="#0" id="circle220"/>
	<circle cx="551.532" cy="578.909" r="4" fill="#0" id="circle221"/>
	<circle cx="553.143" cy="247.169" r="4" fill="#0" id="circle222"/>
	<circle cx="553.143" cy="263.273" r="4" fill="#0" id="circle223"/>
	<circle cx="553.143" cy="279.377" r="4" fill="#0" id="circle224"/>
	<circle cx="553.143" cy="295.481" r="4" fill="#0" id="circle225"/>
	<circle cx="553.143" cy="311.584" r="4" fill="#0" id="circle226"/>
	<circle cx="553.143" cy="595.013" r="4" fill="#0" id="circle227"/>
	<circle cx="561.195" cy="609.506" r="4" fill="#0" id="circle228"/>
	<circle cx="561.195" cy="859.117" r="4" fill="#0" id="circle229"/>
	<circle cx="574.078" cy="847.844" r="4" fill="#0" id="circle230"/>
	<circle cx="577.299" cy="615.948" r="4" fill="#0" id="circle231"/>
	<circle cx="585.351" cy="834.961" r="4" fill="#0" id="circle232"/>
	<circle cx="591.792" cy="604.675" r="4" fill="#0" id="circle233"/>
	<circle cx="598.234" cy="823.688" r="4" fill="#0" id="circle234"/>
	<circle cx="604.675" cy="591.792" r="4" fill="#0" id="circle235"/>
	<circle cx="607.896" cy="810.805" r="4" fill="#0" id="circle236"/>
	<circle cx="617.558" cy="578.909" r="4" fill="#0" id="circle237"/>
	<circle cx="617.558" cy="794.701" r="4" fill="#0" id="circle238"/>
	<circle cx="625.61" cy="562.805" r="4" fill="#0" id="circle239"/>
	<circle cx="625.61" cy="778.597" r="4" fill="#0" id="circle240"/>
	<circle cx="638.494" cy="551.532" r="4" fill="#0" id="circle241"/>
	<circle cx="638.494" cy="767.325" r="4" fill="#0" id="circle242"/>
	<circle cx="649.766" cy="538.649" r="4" fill="#0" id="circle243"/>
	<circle cx="649.766" cy="746.39" r="4" fill="#0" id="circle244"/>
	<circle cx="657.818" cy="730.286" r="4" fill="#0" id="circle245"/>
	<circle cx="662.649" cy="527.377" r="4" fill="#0" id="circle246"/>
	<circle cx="665.87" cy="706.13" r="4" fill="#0" id="circle247"/>
	<circle cx="673.922" cy="514.494" r="4" fill="#0" id="circle248"/>
	<circle cx="680.364" cy="698.078" r="4" fill="#0" id="circle249"/>
	<circle cx="688.416" cy="500" r="4" fill="#0" id="circle250"/>
	<circle cx="690.026" cy="681.974" r="4" fill="#0" id="circle251"/>
	<circle cx="701.299" cy="487.117" r="4" fill="#0" id="circle252"/>
	<circle cx="702.909" cy="670.701" r="4" fill="#0" id="circle253"/>
	<circle cx="706.13" cy="649.766" r="4" fill="#0" id="circle254"/>
	<circle cx="717.403" cy="479.065" r="4" fill="#0" id="circle255"/>
	<circle cx="719.013" cy="638.494" r="4" fill="#0" id="circle256"/>
	<circle cx="730.286" cy="617.558" r="4" fill="#0" id="circle257"/>
	<circle cx="733.506" cy="471.013" r="4" fill="#0" id="circle258"/>
	<circle cx="743.169" cy="606.286" r="4" fill="#0" id="circle259"/>
	<circle cx="749.61" cy="462.961" r="4" fill="#0" id="circle260"/>
	<circle cx="751.221" cy="590.182" r="4" fill="#0" id="circle261"/>
	<circle cx="760.883" cy="577.299" r="4" fill="#0" id="circle262"/>
	<circle cx="765.714" cy="462.961" r="4" fill="#0" id="circle263"/>
	<circle cx="775.377" cy="569.247" r="4" fill="#0" id="circle264"/>
	<circle cx="781.818" cy="462.961" r="4" fill="#0" id="circle265"/>
	<circle cx="786.649" cy="553.143" r="4" fill="#0" id="circle266"/>
	<circle cx="797.922" cy="462.961" r="4" fill="#0" id="circle267"/>
	<circle cx="799.532" cy="541.87" r="4" fill="#0" id="circle268"/>
	<circle cx="812.416" cy="471.013" r="4" fill="#0" id="circle269"/>
	<circle cx="815.636" cy="533.818" r="4" fill="#0" id="circle270"/>
	<circle cx="825.299" cy="482.286" r="4" fill="#0" id="circle271"/>
	<circle cx="826.909" cy="498.39" r="4" fill="#0" id="circle272"/>
	<circle cx="826.909" cy="514.494" r="4" fill="#0" id="circle273"/>
	</g>
</svg>