<?xml version="1.0" encoding="UTF-8" standalone="no"?>
<!-- Created with CurveBenchmark -->
<svg
	xmlns:dc="http://purl.org/dc/elements/1.1/"
	xmlns:cc="http://creativecommons.org/ns#"
	xmlns:rdf="http://www.w3.org/1999/02/22-rdf-syntax-ns#"
	xmlns:svg="http://www.w3.org/2000/svg"
	xmlns="http://www.w3.org/2000/svg"
	xmlns:sodipodi="http://sodipodi.sourceforge.net/DTD/sodipodi-0.dtd"
	xmlns:inkscape="http://www.inkscape.org/namespaces/inkscape"
	width="1000"
	height="1000"
	id="svg2"
	version="1.1"
	sodipodi:docname="manifold/crawl-children14.png.txt">
<defs
	id="defs4" />
<metadata
	id="metadata7">
	<rdf:RDF>
		<cc:Work
			rdf:about="">
			<dc:format>image/svg+xml</dc:format>
			<dc:type
				rdf:resource="http://purl.org/dc/dcmitype/StillImage" />
			<dc:title></dc:title>
		</cc:Work>
	</rdf:RDF>
</metadata>
<g
	inkscape:label="Layer 1"
	inkscape:groupmode="layer"
	id="layer1">
	<path style="fill:none;stroke:red;stroke-width:1px;stroke-linecap:butt;stroke-linejoin:miter;stroke-opacity:1" d="M 4,306.057 4,322.562 z" id="boundary" inkscape:connector-curvature="0" />
	<path style="fill:none;stroke:red;stroke-width:1px;stroke-linecap:butt;stroke-linejoin:miter;stroke-opacity:1" d="M 4,322.562 4,339.068 z" id="boundary" inkscape:connector-curvature="0" />
	<path style="fill:none;stroke:red;stroke-width:1px;stroke-linecap:butt;stroke-linejoin:miter;stroke-opacity:1" d="M 4,339.068 4,355.574 z" id="boundary" inkscape:connector-curvature="0" />
	<path style="fill:none;stroke:red;stroke-width:1px;stroke-linecap:butt;stroke-linejoin:miter;stroke-opacity:1" d="M 4,355.574 4,372.08 z" id="boundary" inkscape:connector-curvature="0" />
	<path style="fill:none;stroke:red;stroke-width:1px;stroke-linecap:butt;stroke-linejoin:miter;stroke-opacity:1" d="M 4,372.08 12.2529,386.935 z" id="boundary" inkscape:connector-curvature="0" />
	<path style="fill:none;stroke:red;stroke-width:1px;stroke-linecap:butt;stroke-linejoin:miter;stroke-opacity:1" d="M 12.2529,386.935 20.5058,401.79 z" id="boundary" inkscape:connector-curvature="0" />
	<path style="fill:none;stroke:red;stroke-width:1px;stroke-linecap:butt;stroke-linejoin:miter;stroke-opacity:1" d="M 20.5058,401.79 20.5058,418.296 z" id="boundary" inkscape:connector-curvature="0" />
	<path style="fill:none;stroke:red;stroke-width:1px;stroke-linecap:butt;stroke-linejoin:miter;stroke-opacity:1" d="M 20.5058,418.296 20.5058,434.802 z" id="boundary" inkscape:connector-curvature="0" />
	<path style="fill:none;stroke:red;stroke-width:1px;stroke-linecap:butt;stroke-linejoin:miter;stroke-opacity:1" d="M 20.5058,434.802 20.5058,451.308 z" id="boundary" inkscape:connector-curvature="0" />
	<path style="fill:none;stroke:red;stroke-width:1px;stroke-linecap:butt;stroke-linejoin:miter;stroke-opacity:1" d="M 20.5058,451.308 28.7587,466.163 z" id="boundary" inkscape:connector-curvature="0" />
	<path style="fill:none;stroke:red;stroke-width:1px;stroke-linecap:butt;stroke-linejoin:miter;stroke-opacity:1" d="M 28.7587,466.163 32.0599,482.669 z" id="boundary" inkscape:connector-curvature="0" />
	<path style="fill:none;stroke:red;stroke-width:1px;stroke-linecap:butt;stroke-linejoin:miter;stroke-opacity:1" d="M 32.0599,482.669 37.0116,499.175 z" id="boundary" inkscape:connector-curvature="0" />
	<path style="fill:none;stroke:red;stroke-width:1px;stroke-linecap:butt;stroke-linejoin:miter;stroke-opacity:1" d="M 37.0116,499.175 37.0116,515.681 z" id="boundary" inkscape:connector-curvature="0" />
	<path style="fill:none;stroke:red;stroke-width:1px;stroke-linecap:butt;stroke-linejoin:miter;stroke-opacity:1" d="M 37.0116,515.681 37.0116,532.186 z" id="boundary" inkscape:connector-curvature="0" />
	<path style="fill:none;stroke:red;stroke-width:1px;stroke-linecap:butt;stroke-linejoin:miter;stroke-opacity:1" d="M 37.0116,532.186 37.0116,548.692 z" id="boundary" inkscape:connector-curvature="0" />
	<path style="fill:none;stroke:red;stroke-width:1px;stroke-linecap:butt;stroke-linejoin:miter;stroke-opacity:1" d="M 37.0116,548.692 37.0116,565.198 z" id="boundary" inkscape:connector-curvature="0" />
	<path style="fill:none;stroke:red;stroke-width:1px;stroke-linecap:butt;stroke-linejoin:miter;stroke-opacity:1" d="M 37.0116,565.198 37.0116,581.704 z" id="boundary" inkscape:connector-curvature="0" />
	<path style="fill:none;stroke:red;stroke-width:1px;stroke-linecap:butt;stroke-linejoin:miter;stroke-opacity:1" d="M 37.0116,581.704 37.0116,598.21 z" id="boundary" inkscape:connector-curvature="0" />
	<path style="fill:none;stroke:red;stroke-width:1px;stroke-linecap:butt;stroke-linejoin:miter;stroke-opacity:1" d="M 37.0116,598.21 45.2646,613.065 z" id="boundary" inkscape:connector-curvature="0" />
	<path style="fill:none;stroke:red;stroke-width:1px;stroke-linecap:butt;stroke-linejoin:miter;stroke-opacity:1" d="M 45.2646,613.065 46.9151,629.571 z" id="boundary" inkscape:connector-curvature="0" />
	<path style="fill:none;stroke:red;stroke-width:1px;stroke-linecap:butt;stroke-linejoin:miter;stroke-opacity:1" d="M 46.9151,629.571 55.1681,644.426 z" id="boundary" inkscape:connector-curvature="0" />
	<path style="fill:none;stroke:red;stroke-width:1px;stroke-linecap:butt;stroke-linejoin:miter;stroke-opacity:1" d="M 55.1681,644.426 61.7704,660.932 z" id="boundary" inkscape:connector-curvature="0" />
	<path style="fill:none;stroke:red;stroke-width:1px;stroke-linecap:butt;stroke-linejoin:miter;stroke-opacity:1" d="M 61.7704,660.932 70.0233,675.787 z" id="boundary" inkscape:connector-curvature="0" />
	<path style="fill:none;stroke:red;stroke-width:1px;stroke-linecap:butt;stroke-linejoin:miter;stroke-opacity:1" d="M 70.0233,675.787 81.5774,688.992 z" id="boundary" inkscape:connector-curvature="0" />
	<path style="fill:none;stroke:red;stroke-width:1px;stroke-linecap:butt;stroke-linejoin:miter;stroke-opacity:1" d="M 81.5774,688.992 94.782,698.895 z" id="boundary" inkscape:connector-curvature="0" />
	<path style="fill:none;stroke:red;stroke-width:1px;stroke-linecap:butt;stroke-linejoin:miter;stroke-opacity:1" d="M 94.782,698.895 103.035,713.75 z" id="boundary" inkscape:connector-curvature="0" />
	<path style="fill:none;stroke:red;stroke-width:1px;stroke-linecap:butt;stroke-linejoin:miter;stroke-opacity:1" d="M 4,306.057 12.2529,289.551 z" id="boundary" inkscape:connector-curvature="0" />
	<path style="fill:none;stroke:red;stroke-width:1px;stroke-linecap:butt;stroke-linejoin:miter;stroke-opacity:1" d="M 12.2529,289.551 25.4576,276.346 z" id="boundary" inkscape:connector-curvature="0" />
	<path style="fill:none;stroke:red;stroke-width:1px;stroke-linecap:butt;stroke-linejoin:miter;stroke-opacity:1" d="M 25.4576,276.346 33.7105,259.84 z" id="boundary" inkscape:connector-curvature="0" />
	<path style="fill:none;stroke:red;stroke-width:1px;stroke-linecap:butt;stroke-linejoin:miter;stroke-opacity:1" d="M 33.7105,259.84 48.5657,251.587 z" id="boundary" inkscape:connector-curvature="0" />
	<path style="fill:none;stroke:red;stroke-width:1px;stroke-linecap:butt;stroke-linejoin:miter;stroke-opacity:1" d="M 48.5657,251.587 61.7704,240.033 z" id="boundary" inkscape:connector-curvature="0" />
	<path style="fill:none;stroke:red;stroke-width:1px;stroke-linecap:butt;stroke-linejoin:miter;stroke-opacity:1" d="M 61.7704,240.033 61.7704,223.527 z" id="boundary" inkscape:connector-curvature="0" />
	<path style="fill:none;stroke:red;stroke-width:1px;stroke-linecap:butt;stroke-linejoin:miter;stroke-opacity:1" d="M 61.7704,223.527 70.0233,203.72 z" id="boundary" inkscape:connector-curvature="0" />
	<path style="fill:none;stroke:red;stroke-width:1px;stroke-linecap:butt;stroke-linejoin:miter;stroke-opacity:1" d="M 70.0233,203.72 66.7221,187.215 z" id="boundary" inkscape:connector-curvature="0" />
	<path style="fill:none;stroke:red;stroke-width:1px;stroke-linecap:butt;stroke-linejoin:miter;stroke-opacity:1" d="M 66.7221,187.215 55.1681,174.01 z" id="boundary" inkscape:connector-curvature="0" />
	<path style="fill:none;stroke:red;stroke-width:1px;stroke-linecap:butt;stroke-linejoin:miter;stroke-opacity:1" d="M 55.1681,174.01 45.2646,160.805 z" id="boundary" inkscape:connector-curvature="0" />
	<path style="fill:none;stroke:red;stroke-width:1px;stroke-linecap:butt;stroke-linejoin:miter;stroke-opacity:1" d="M 45.2646,160.805 37.0116,145.95 z" id="boundary" inkscape:connector-curvature="0" />
	<path style="fill:none;stroke:red;stroke-width:1px;stroke-linecap:butt;stroke-linejoin:miter;stroke-opacity:1" d="M 37.0116,145.95 28.7587,131.095 z" id="boundary" inkscape:connector-curvature="0" />
	<path style="fill:none;stroke:red;stroke-width:1px;stroke-linecap:butt;stroke-linejoin:miter;stroke-opacity:1" d="M 28.7587,131.095 20.5058,116.24 z" id="boundary" inkscape:connector-curvature="0" />
	<path style="fill:none;stroke:red;stroke-width:1px;stroke-linecap:butt;stroke-linejoin:miter;stroke-opacity:1" d="M 20.5058,116.24 20.5058,99.7338 z" id="boundary" inkscape:connector-curvature="0" />
	<path style="fill:none;stroke:red;stroke-width:1px;stroke-linecap:butt;stroke-linejoin:miter;stroke-opacity:1" d="M 20.5058,99.7338 20.5058,83.228 z" id="boundary" inkscape:connector-curvature="0" />
	<path style="fill:none;stroke:red;stroke-width:1px;stroke-linecap:butt;stroke-linejoin:miter;stroke-opacity:1" d="M 20.5058,83.228 28.7587,66.7221 z" id="boundary" inkscape:connector-curvature="0" />
	<path style="fill:none;stroke:red;stroke-width:1px;stroke-linecap:butt;stroke-linejoin:miter;stroke-opacity:1" d="M 28.7587,66.7221 37.0116,50.2163 z" id="boundary" inkscape:connector-curvature="0" />
	<path style="fill:none;stroke:red;stroke-width:1px;stroke-linecap:butt;stroke-linejoin:miter;stroke-opacity:1" d="M 37.0116,50.2163 50.2163,37.0116 z" id="boundary" inkscape:connector-curvature="0" />
	<path style="fill:none;stroke:red;stroke-width:1px;stroke-linecap:butt;stroke-linejoin:miter;stroke-opacity:1" d="M 50.2163,37.0116 66.7221,28.7587 z" id="boundary" inkscape:connector-curvature="0" />
	<path style="fill:none;stroke:red;stroke-width:1px;stroke-linecap:butt;stroke-linejoin:miter;stroke-opacity:1" d="M 66.7221,28.7587 79.9268,15.5541 z" id="boundary" inkscape:connector-curvature="0" />
	<path style="fill:none;stroke:red;stroke-width:1px;stroke-linecap:butt;stroke-linejoin:miter;stroke-opacity:1" d="M 79.9268,15.5541 96.4326,7.30116 z" id="boundary" inkscape:connector-curvature="0" />
	<path style="fill:none;stroke:red;stroke-width:1px;stroke-linecap:butt;stroke-linejoin:miter;stroke-opacity:1" d="M 96.4326,7.30116 112.938,4 z" id="boundary" inkscape:connector-curvature="0" />
	<path style="fill:none;stroke:red;stroke-width:1px;stroke-linecap:butt;stroke-linejoin:miter;stroke-opacity:1" d="M 112.938,4 129.444,4 z" id="boundary" inkscape:connector-curvature="0" />
	<path style="fill:none;stroke:red;stroke-width:1px;stroke-linecap:butt;stroke-linejoin:miter;stroke-opacity:1" d="M 129.444,4 145.95,4 z" id="boundary" inkscape:connector-curvature="0" />
	<path style="fill:none;stroke:red;stroke-width:1px;stroke-linecap:butt;stroke-linejoin:miter;stroke-opacity:1" d="M 145.95,4 162.456,4 z" id="boundary" inkscape:connector-curvature="0" />
	<path style="fill:none;stroke:red;stroke-width:1px;stroke-linecap:butt;stroke-linejoin:miter;stroke-opacity:1" d="M 162.456,4 177.311,12.2529 z" id="boundary" inkscape:connector-curvature="0" />
	<path style="fill:none;stroke:red;stroke-width:1px;stroke-linecap:butt;stroke-linejoin:miter;stroke-opacity:1" d="M 177.311,12.2529 193.817,12.2529 z" id="boundary" inkscape:connector-curvature="0" />
	<path style="fill:none;stroke:red;stroke-width:1px;stroke-linecap:butt;stroke-linejoin:miter;stroke-opacity:1" d="M 193.817,12.2529 208.672,20.5058 z" id="boundary" inkscape:connector-curvature="0" />
	<path style="fill:none;stroke:red;stroke-width:1px;stroke-linecap:butt;stroke-linejoin:miter;stroke-opacity:1" d="M 208.672,20.5058 223.527,28.7587 z" id="boundary" inkscape:connector-curvature="0" />
	<path style="fill:none;stroke:red;stroke-width:1px;stroke-linecap:butt;stroke-linejoin:miter;stroke-opacity:1" d="M 223.527,28.7587 238.383,37.0116 z" id="boundary" inkscape:connector-curvature="0" />
	<path style="fill:none;stroke:red;stroke-width:1px;stroke-linecap:butt;stroke-linejoin:miter;stroke-opacity:1" d="M 238.383,37.0116 244.985,53.5175 z" id="boundary" inkscape:connector-curvature="0" />
	<path style="fill:none;stroke:red;stroke-width:1px;stroke-linecap:butt;stroke-linejoin:miter;stroke-opacity:1" d="M 244.985,53.5175 258.19,63.421 z" id="boundary" inkscape:connector-curvature="0" />
	<path style="fill:none;stroke:red;stroke-width:1px;stroke-linecap:butt;stroke-linejoin:miter;stroke-opacity:1" d="M 258.19,63.421 264.792,79.9268 z" id="boundary" inkscape:connector-curvature="0" />
	<path style="fill:none;stroke:red;stroke-width:1px;stroke-linecap:butt;stroke-linejoin:miter;stroke-opacity:1" d="M 264.792,79.9268 269.744,96.4326 z" id="boundary" inkscape:connector-curvature="0" />
	<path style="fill:none;stroke:red;stroke-width:1px;stroke-linecap:butt;stroke-linejoin:miter;stroke-opacity:1" d="M 269.744,96.4326 269.744,112.938 z" id="boundary" inkscape:connector-curvature="0" />
	<path style="fill:none;stroke:red;stroke-width:1px;stroke-linecap:butt;stroke-linejoin:miter;stroke-opacity:1" d="M 269.744,112.938 261.491,137.697 z" id="boundary" inkscape:connector-curvature="0" />
	<path style="fill:none;stroke:red;stroke-width:1px;stroke-linecap:butt;stroke-linejoin:miter;stroke-opacity:1" d="M 261.491,137.697 261.491,154.203 z" id="boundary" inkscape:connector-curvature="0" />
	<path style="fill:none;stroke:red;stroke-width:1px;stroke-linecap:butt;stroke-linejoin:miter;stroke-opacity:1" d="M 261.491,154.203 261.491,170.709 z" id="boundary" inkscape:connector-curvature="0" />
	<path style="fill:none;stroke:red;stroke-width:1px;stroke-linecap:butt;stroke-linejoin:miter;stroke-opacity:1" d="M 261.491,170.709 261.491,187.215 z" id="boundary" inkscape:connector-curvature="0" />
	<path style="fill:none;stroke:red;stroke-width:1px;stroke-linecap:butt;stroke-linejoin:miter;stroke-opacity:1" d="M 261.491,187.215 261.491,203.72 z" id="boundary" inkscape:connector-curvature="0" />
	<path style="fill:none;stroke:red;stroke-width:1px;stroke-linecap:butt;stroke-linejoin:miter;stroke-opacity:1" d="M 261.491,203.72 253.238,220.226 z" id="boundary" inkscape:connector-curvature="0" />
	<path style="fill:none;stroke:red;stroke-width:1px;stroke-linecap:butt;stroke-linejoin:miter;stroke-opacity:1" d="M 253.238,220.226 253.238,236.732 z" id="boundary" inkscape:connector-curvature="0" />
	<path style="fill:none;stroke:red;stroke-width:1px;stroke-linecap:butt;stroke-linejoin:miter;stroke-opacity:1" d="M 253.238,236.732 261.491,251.587 z" id="boundary" inkscape:connector-curvature="0" />
	<path style="fill:none;stroke:red;stroke-width:1px;stroke-linecap:butt;stroke-linejoin:miter;stroke-opacity:1" d="M 261.491,251.587 269.744,266.443 z" id="boundary" inkscape:connector-curvature="0" />
	<path style="fill:none;stroke:red;stroke-width:1px;stroke-linecap:butt;stroke-linejoin:miter;stroke-opacity:1" d="M 269.744,266.443 277.997,281.298 z" id="boundary" inkscape:connector-curvature="0" />
	<path style="fill:none;stroke:red;stroke-width:1px;stroke-linecap:butt;stroke-linejoin:miter;stroke-opacity:1" d="M 277.997,281.298 277.997,297.804 z" id="boundary" inkscape:connector-curvature="0" />
	<path style="fill:none;stroke:red;stroke-width:1px;stroke-linecap:butt;stroke-linejoin:miter;stroke-opacity:1" d="M 277.997,297.804 284.599,314.309 z" id="boundary" inkscape:connector-curvature="0" />
	<path style="fill:none;stroke:red;stroke-width:1px;stroke-linecap:butt;stroke-linejoin:miter;stroke-opacity:1" d="M 284.599,314.309 286.25,330.815 z" id="boundary" inkscape:connector-curvature="0" />
	<path style="fill:none;stroke:red;stroke-width:1px;stroke-linecap:butt;stroke-linejoin:miter;stroke-opacity:1" d="M 286.25,330.815 294.502,345.671 z" id="boundary" inkscape:connector-curvature="0" />
	<path style="fill:none;stroke:red;stroke-width:1px;stroke-linecap:butt;stroke-linejoin:miter;stroke-opacity:1" d="M 294.502,345.671 286.25,368.779 z" id="boundary" inkscape:connector-curvature="0" />
	<path style="fill:none;stroke:red;stroke-width:1px;stroke-linecap:butt;stroke-linejoin:miter;stroke-opacity:1" d="M 286.25,368.779 286.25,385.285 z" id="boundary" inkscape:connector-curvature="0" />
	<path style="fill:none;stroke:red;stroke-width:1px;stroke-linecap:butt;stroke-linejoin:miter;stroke-opacity:1" d="M 286.25,385.285 294.502,400.14 z" id="boundary" inkscape:connector-curvature="0" />
	<path style="fill:none;stroke:red;stroke-width:1px;stroke-linecap:butt;stroke-linejoin:miter;stroke-opacity:1" d="M 294.502,400.14 294.502,416.646 z" id="boundary" inkscape:connector-curvature="0" />
	<path style="fill:none;stroke:red;stroke-width:1px;stroke-linecap:butt;stroke-linejoin:miter;stroke-opacity:1" d="M 294.502,416.646 302.755,431.501 z" id="boundary" inkscape:connector-curvature="0" />
	<path style="fill:none;stroke:red;stroke-width:1px;stroke-linecap:butt;stroke-linejoin:miter;stroke-opacity:1" d="M 302.755,431.501 311.008,446.356 z" id="boundary" inkscape:connector-curvature="0" />
	<path style="fill:none;stroke:red;stroke-width:1px;stroke-linecap:butt;stroke-linejoin:miter;stroke-opacity:1" d="M 311.008,446.356 317.611,462.862 z" id="boundary" inkscape:connector-curvature="0" />
	<path style="fill:none;stroke:red;stroke-width:1px;stroke-linecap:butt;stroke-linejoin:miter;stroke-opacity:1" d="M 317.611,462.862 319.261,479.368 z" id="boundary" inkscape:connector-curvature="0" />
	<path style="fill:none;stroke:red;stroke-width:1px;stroke-linecap:butt;stroke-linejoin:miter;stroke-opacity:1" d="M 319.261,479.368 327.514,494.223 z" id="boundary" inkscape:connector-curvature="0" />
	<path style="fill:none;stroke:red;stroke-width:1px;stroke-linecap:butt;stroke-linejoin:miter;stroke-opacity:1" d="M 327.514,494.223 335.767,509.078 z" id="boundary" inkscape:connector-curvature="0" />
	<path style="fill:none;stroke:red;stroke-width:1px;stroke-linecap:butt;stroke-linejoin:miter;stroke-opacity:1" d="M 335.767,509.078 339.068,525.584 z" id="boundary" inkscape:connector-curvature="0" />
	<path style="fill:none;stroke:red;stroke-width:1px;stroke-linecap:butt;stroke-linejoin:miter;stroke-opacity:1" d="M 339.068,525.584 344.02,542.09 z" id="boundary" inkscape:connector-curvature="0" />
	<path style="fill:none;stroke:red;stroke-width:1px;stroke-linecap:butt;stroke-linejoin:miter;stroke-opacity:1" d="M 344.02,542.09 352.273,556.945 z" id="boundary" inkscape:connector-curvature="0" />
	<path style="fill:none;stroke:red;stroke-width:1px;stroke-linecap:butt;stroke-linejoin:miter;stroke-opacity:1" d="M 352.273,556.945 348.972,580.053 z" id="boundary" inkscape:connector-curvature="0" />
	<path style="fill:none;stroke:red;stroke-width:1px;stroke-linecap:butt;stroke-linejoin:miter;stroke-opacity:1" d="M 348.972,580.053 335.767,591.607 z" id="boundary" inkscape:connector-curvature="0" />
	<path style="fill:none;stroke:red;stroke-width:1px;stroke-linecap:butt;stroke-linejoin:miter;stroke-opacity:1" d="M 335.767,591.607 324.213,604.812 z" id="boundary" inkscape:connector-curvature="0" />
	<path style="fill:none;stroke:red;stroke-width:1px;stroke-linecap:butt;stroke-linejoin:miter;stroke-opacity:1" d="M 324.213,604.812 311.008,616.366 z" id="boundary" inkscape:connector-curvature="0" />
	<path style="fill:none;stroke:red;stroke-width:1px;stroke-linecap:butt;stroke-linejoin:miter;stroke-opacity:1" d="M 311.008,616.366 311.008,632.872 z" id="boundary" inkscape:connector-curvature="0" />
	<path style="fill:none;stroke:red;stroke-width:1px;stroke-linecap:butt;stroke-linejoin:miter;stroke-opacity:1" d="M 311.008,632.872 302.755,657.631 z" id="boundary" inkscape:connector-curvature="0" />
	<path style="fill:none;stroke:red;stroke-width:1px;stroke-linecap:butt;stroke-linejoin:miter;stroke-opacity:1" d="M 302.755,657.631 286.25,665.884 z" id="boundary" inkscape:connector-curvature="0" />
	<path style="fill:none;stroke:red;stroke-width:1px;stroke-linecap:butt;stroke-linejoin:miter;stroke-opacity:1" d="M 286.25,665.884 277.997,682.389 z" id="boundary" inkscape:connector-curvature="0" />
	<path style="fill:none;stroke:red;stroke-width:1px;stroke-linecap:butt;stroke-linejoin:miter;stroke-opacity:1" d="M 277.997,682.389 277.997,698.895 z" id="boundary" inkscape:connector-curvature="0" />
	<path style="fill:none;stroke:red;stroke-width:1px;stroke-linecap:butt;stroke-linejoin:miter;stroke-opacity:1" d="M 277.997,698.895 269.744,723.654 z" id="boundary" inkscape:connector-curvature="0" />
	<path style="fill:none;stroke:red;stroke-width:1px;stroke-linecap:butt;stroke-linejoin:miter;stroke-opacity:1" d="M 269.744,723.654 261.491,748.413 z" id="boundary" inkscape:connector-curvature="0" />
	<path style="fill:none;stroke:red;stroke-width:1px;stroke-linecap:butt;stroke-linejoin:miter;stroke-opacity:1" d="M 261.491,748.413 261.491,764.918 z" id="boundary" inkscape:connector-curvature="0" />
	<path style="fill:none;stroke:red;stroke-width:1px;stroke-linecap:butt;stroke-linejoin:miter;stroke-opacity:1" d="M 261.491,764.918 253.238,789.677 z" id="boundary" inkscape:connector-curvature="0" />
	<path style="fill:none;stroke:red;stroke-width:1px;stroke-linecap:butt;stroke-linejoin:miter;stroke-opacity:1" d="M 253.238,789.677 253.238,806.183 z" id="boundary" inkscape:connector-curvature="0" />
	<path style="fill:none;stroke:red;stroke-width:1px;stroke-linecap:butt;stroke-linejoin:miter;stroke-opacity:1" d="M 253.238,806.183 253.238,822.689 z" id="boundary" inkscape:connector-curvature="0" />
	<path style="fill:none;stroke:red;stroke-width:1px;stroke-linecap:butt;stroke-linejoin:miter;stroke-opacity:1" d="M 253.238,822.689 244.985,839.195 z" id="boundary" inkscape:connector-curvature="0" />
	<path style="fill:none;stroke:red;stroke-width:1px;stroke-linecap:butt;stroke-linejoin:miter;stroke-opacity:1" d="M 244.985,839.195 236.732,855.7 z" id="boundary" inkscape:connector-curvature="0" />
	<path style="fill:none;stroke:red;stroke-width:1px;stroke-linecap:butt;stroke-linejoin:miter;stroke-opacity:1" d="M 236.732,855.7 236.732,872.206 z" id="boundary" inkscape:connector-curvature="0" />
	<path style="fill:none;stroke:red;stroke-width:1px;stroke-linecap:butt;stroke-linejoin:miter;stroke-opacity:1" d="M 236.732,872.206 244.985,887.062 z" id="boundary" inkscape:connector-curvature="0" />
	<path style="fill:none;stroke:red;stroke-width:1px;stroke-linecap:butt;stroke-linejoin:miter;stroke-opacity:1" d="M 244.985,887.062 253.238,901.917 z" id="boundary" inkscape:connector-curvature="0" />
	<path style="fill:none;stroke:red;stroke-width:1px;stroke-linecap:butt;stroke-linejoin:miter;stroke-opacity:1" d="M 253.238,901.917 266.443,911.82 z" id="boundary" inkscape:connector-curvature="0" />
	<path style="fill:none;stroke:red;stroke-width:1px;stroke-linecap:butt;stroke-linejoin:miter;stroke-opacity:1" d="M 266.443,911.82 281.298,920.073 z" id="boundary" inkscape:connector-curvature="0" />
	<path style="fill:none;stroke:red;stroke-width:1px;stroke-linecap:butt;stroke-linejoin:miter;stroke-opacity:1" d="M 281.298,920.073 297.804,920.073 z" id="boundary" inkscape:connector-curvature="0" />
	<path style="fill:none;stroke:red;stroke-width:1px;stroke-linecap:butt;stroke-linejoin:miter;stroke-opacity:1" d="M 297.804,920.073 312.659,928.326 z" id="boundary" inkscape:connector-curvature="0" />
	<path style="fill:none;stroke:red;stroke-width:1px;stroke-linecap:butt;stroke-linejoin:miter;stroke-opacity:1" d="M 312.659,928.326 325.864,939.88 z" id="boundary" inkscape:connector-curvature="0" />
	<path style="fill:none;stroke:red;stroke-width:1px;stroke-linecap:butt;stroke-linejoin:miter;stroke-opacity:1" d="M 325.864,939.88 325.864,958.037 z" id="boundary" inkscape:connector-curvature="0" />
	<path style="fill:none;stroke:red;stroke-width:1px;stroke-linecap:butt;stroke-linejoin:miter;stroke-opacity:1" d="M 325.864,958.037 312.659,971.241 z" id="boundary" inkscape:connector-curvature="0" />
	<path style="fill:none;stroke:red;stroke-width:1px;stroke-linecap:butt;stroke-linejoin:miter;stroke-opacity:1" d="M 312.659,971.241 296.153,971.241 z" id="boundary" inkscape:connector-curvature="0" />
	<path style="fill:none;stroke:red;stroke-width:1px;stroke-linecap:butt;stroke-linejoin:miter;stroke-opacity:1" d="M 296.153,971.241 281.298,979.494 z" id="boundary" inkscape:connector-curvature="0" />
	<path style="fill:none;stroke:red;stroke-width:1px;stroke-linecap:butt;stroke-linejoin:miter;stroke-opacity:1" d="M 281.298,979.494 264.792,986.097 z" id="boundary" inkscape:connector-curvature="0" />
	<path style="fill:none;stroke:red;stroke-width:1px;stroke-linecap:butt;stroke-linejoin:miter;stroke-opacity:1" d="M 264.792,986.097 248.286,994.349 z" id="boundary" inkscape:connector-curvature="0" />
	<path style="fill:none;stroke:red;stroke-width:1px;stroke-linecap:butt;stroke-linejoin:miter;stroke-opacity:1" d="M 248.286,994.349 231.78,996 z" id="boundary" inkscape:connector-curvature="0" />
	<path style="fill:none;stroke:red;stroke-width:1px;stroke-linecap:butt;stroke-linejoin:miter;stroke-opacity:1" d="M 231.78,996 215.275,996 z" id="boundary" inkscape:connector-curvature="0" />
	<path style="fill:none;stroke:red;stroke-width:1px;stroke-linecap:butt;stroke-linejoin:miter;stroke-opacity:1" d="M 215.275,996 198.769,996 z" id="boundary" inkscape:connector-curvature="0" />
	<path style="fill:none;stroke:red;stroke-width:1px;stroke-linecap:butt;stroke-linejoin:miter;stroke-opacity:1" d="M 198.769,996 182.263,994.349 z" id="boundary" inkscape:connector-curvature="0" />
	<path style="fill:none;stroke:red;stroke-width:1px;stroke-linecap:butt;stroke-linejoin:miter;stroke-opacity:1" d="M 182.263,994.349 165.757,987.747 z" id="boundary" inkscape:connector-curvature="0" />
	<path style="fill:none;stroke:red;stroke-width:1px;stroke-linecap:butt;stroke-linejoin:miter;stroke-opacity:1" d="M 165.757,987.747 149.251,987.747 z" id="boundary" inkscape:connector-curvature="0" />
	<path style="fill:none;stroke:red;stroke-width:1px;stroke-linecap:butt;stroke-linejoin:miter;stroke-opacity:1" d="M 149.251,987.747 132.745,987.747 z" id="boundary" inkscape:connector-curvature="0" />
	<path style="fill:none;stroke:red;stroke-width:1px;stroke-linecap:butt;stroke-linejoin:miter;stroke-opacity:1" d="M 132.745,987.747 117.89,979.494 z" id="boundary" inkscape:connector-curvature="0" />
	<path style="fill:none;stroke:red;stroke-width:1px;stroke-linecap:butt;stroke-linejoin:miter;stroke-opacity:1" d="M 117.89,979.494 103.035,971.241 z" id="boundary" inkscape:connector-curvature="0" />
	<path style="fill:none;stroke:red;stroke-width:1px;stroke-linecap:butt;stroke-linejoin:miter;stroke-opacity:1" d="M 103.035,971.241 94.782,956.386 z" id="boundary" inkscape:connector-curvature="0" />
	<path style="fill:none;stroke:red;stroke-width:1px;stroke-linecap:butt;stroke-linejoin:miter;stroke-opacity:1" d="M 94.782,956.386 86.5291,941.531 z" id="boundary" inkscape:connector-curvature="0" />
	<path style="fill:none;stroke:red;stroke-width:1px;stroke-linecap:butt;stroke-linejoin:miter;stroke-opacity:1" d="M 86.5291,941.531 94.782,921.724 z" id="boundary" inkscape:connector-curvature="0" />
	<path style="fill:none;stroke:red;stroke-width:1px;stroke-linecap:butt;stroke-linejoin:miter;stroke-opacity:1" d="M 94.782,921.724 94.782,905.218 z" id="boundary" inkscape:connector-curvature="0" />
	<path style="fill:none;stroke:red;stroke-width:1px;stroke-linecap:butt;stroke-linejoin:miter;stroke-opacity:1" d="M 94.782,905.218 94.782,888.712 z" id="boundary" inkscape:connector-curvature="0" />
	<path style="fill:none;stroke:red;stroke-width:1px;stroke-linecap:butt;stroke-linejoin:miter;stroke-opacity:1" d="M 94.782,888.712 94.782,872.206 z" id="boundary" inkscape:connector-curvature="0" />
	<path style="fill:none;stroke:red;stroke-width:1px;stroke-linecap:butt;stroke-linejoin:miter;stroke-opacity:1" d="M 94.782,872.206 86.5291,857.351 z" id="boundary" inkscape:connector-curvature="0" />
	<path style="fill:none;stroke:red;stroke-width:1px;stroke-linecap:butt;stroke-linejoin:miter;stroke-opacity:1" d="M 86.5291,857.351 86.5291,840.845 z" id="boundary" inkscape:connector-curvature="0" />
	<path style="fill:none;stroke:red;stroke-width:1px;stroke-linecap:butt;stroke-linejoin:miter;stroke-opacity:1" d="M 86.5291,840.845 78.2762,825.99 z" id="boundary" inkscape:connector-curvature="0" />
	<path style="fill:none;stroke:red;stroke-width:1px;stroke-linecap:butt;stroke-linejoin:miter;stroke-opacity:1" d="M 78.2762,825.99 78.2762,809.484 z" id="boundary" inkscape:connector-curvature="0" />
	<path style="fill:none;stroke:red;stroke-width:1px;stroke-linecap:butt;stroke-linejoin:miter;stroke-opacity:1" d="M 78.2762,809.484 78.2762,792.978 z" id="boundary" inkscape:connector-curvature="0" />
	<path style="fill:none;stroke:red;stroke-width:1px;stroke-linecap:butt;stroke-linejoin:miter;stroke-opacity:1" d="M 78.2762,792.978 86.5291,768.22 z" id="boundary" inkscape:connector-curvature="0" />
	<path style="fill:none;stroke:red;stroke-width:1px;stroke-linecap:butt;stroke-linejoin:miter;stroke-opacity:1" d="M 86.5291,768.22 94.782,743.461 z" id="boundary" inkscape:connector-curvature="0" />
	<path style="fill:none;stroke:red;stroke-width:1px;stroke-linecap:butt;stroke-linejoin:miter;stroke-opacity:1" d="M 94.782,743.461 103.035,713.75 z" id="boundary" inkscape:connector-curvature="0" />
	<circle cx="4" cy="306.057" r="4" fill="#0" id="circle0"/>
	<circle cx="4" cy="322.562" r="4" fill="#0" id="circle1"/>
	<circle cx="4" cy="339.068" r="4" fill="#0" id="circle2"/>
	<circle cx="4" cy="355.574" r="4" fill="#0" id="circle3"/>
	<circle cx="4" cy="372.08" r="4" fill="#0" id="circle4"/>
	<circle cx="12.2529" cy="289.551" r="4" fill="#0" id="circle5"/>
	<circle cx="12.2529" cy="386.935" r="4" fill="#0" id="circle6"/>
	<circle cx="20.5058" cy="83.228" r="4" fill="#0" id="circle7"/>
	<circle cx="20.5058" cy="99.7338" r="4" fill="#0" id="circle8"/>
	<circle cx="20.5058" cy="116.24" r="4" fill="#0" id="circle9"/>
	<circle cx="20.5058" cy="401.79" r="4" fill="#0" id="circle10"/>
	<circle cx="20.5058" cy="418.296" r="4" fill="#0" id="circle11"/>
	<circle cx="20.5058" cy="434.802" r="4" fill="#0" id="circle12"/>
	<circle cx="20.5058" cy="451.308" r="4" fill="#0" id="circle13"/>
	<circle cx="25.4576" cy="276.346" r="4" fill="#0" id="circle14"/>
	<circle cx="28.7587" cy="66.7221" r="4" fill="#0" id="circle15"/>
	<circle cx="28.7587" cy="131.095" r="4" fill="#0" id="circle16"/>
	<circle cx="28.7587" cy="466.163" r="4" fill="#0" id="circle17"/>
	<circle cx="32.0599" cy="482.669" r="4" fill="#0" id="circle18"/>
	<circle cx="33.7105" cy="259.84" r="4" fill="#0" id="circle19"/>
	<circle cx="37.0116" cy="50.2163" r="4" fill="#0" id="circle20"/>
	<circle cx="37.0116" cy="145.95" r="4" fill="#0" id="circle21"/>
	<circle cx="37.0116" cy="499.175" r="4" fill="#0" id="circle22"/>
	<circle cx="37.0116" cy="515.681" r="4" fill="#0" id="circle23"/>
	<circle cx="37.0116" cy="532.186" r="4" fill="#0" id="circle24"/>
	<circle cx="37.0116" cy="548.692" r="4" fill="#0" id="circle25"/>
	<circle cx="37.0116" cy="565.198" r="4" fill="#0" id="circle26"/>
	<circle cx="37.0116" cy="581.704" r="4" fill="#0" id="circle27"/>
	<circle cx="37.0116" cy="598.21" r="4" fill="#0" id="circle28"/>
	<circle cx="45.2646" cy="160.805" r="4" fill="#0" id="circle29"/>
	<circle cx="45.2646" cy="613.065" r="4" fill="#0" id="circle30"/>
	<circle cx="46.9151" cy="629.571" r="4" fill="#0" id="circle31"/>
	<circle cx="48.5657" cy="251.587" r="4" fill="#0" id="circle32"/>
	<circle cx="50.2163" cy="37.0116" r="4" fill="#0" id="circle33"/>
	<circle cx="55.1681" cy="174.01" r="4" fill="#0" id="circle34"/>
	<circle cx="55.1681" cy="644.426" r="4" fill="#0" id="circle35"/>
	<circle cx="61.7704" cy="223.527" r="4" fill="#0" id="circle36"/>
	<circle cx="61.7704" cy="240.033" r="4" fill="#0" id="circle37"/>
	<circle cx="61.7704" cy="660.932" r="4" fill="#0" id="circle38"/>
	<circle cx="66.7221" cy="28.7587" r="4" fill="#0" id="circle39"/>
	<circle cx="66.7221" cy="187.215" r="4" fill="#0" id="circle40"/>
	<circle cx="70.0233" cy="203.72" r="4" fill="#0" id="circle41"/>
	<circle cx="70.0233" cy="675.787" r="4" fill="#0" id="circle42"/>
	<circle cx="78.2762" cy="792.978" r="4" fill="#0" id="circle43"/>
	<circle cx="78.2762" cy="809.484" r="4" fill="#0" id="circle44"/>
	<circle cx="78.2762" cy="825.99" r="4" fill="#0" id="circle45"/>
	<circle cx="79.9268" cy="15.5541" r="4" fill="#0" id="circle46"/>
	<circle cx="81.5774" cy="688.992" r="4" fill="#0" id="circle47"/>
	<circle cx="86.5291" cy="768.22" r="4" fill="#0" id="circle48"/>
	<circle cx="86.5291" cy="840.845" r="4" fill="#0" id="circle49"/>
	<circle cx="86.5291" cy="857.351" r="4" fill="#0" id="circle50"/>
	<circle cx="86.5291" cy="941.531" r="4" fill="#0" id="circle51"/>
	<circle cx="94.782" cy="698.895" r="4" fill="#0" id="circle52"/>
	<circle cx="94.782" cy="743.461" r="4" fill="#0" id="circle53"/>
	<circle cx="94.782" cy="872.206" r="4" fill="#0" id="circle54"/>
	<circle cx="94.782" cy="888.712" r="4" fill="#0" id="circle55"/>
	<circle cx="94.782" cy="905.218" r="4" fill="#0" id="circle56"/>
	<circle cx="94.782" cy="921.724" r="4" fill="#0" id="circle57"/>
	<circle cx="94.782" cy="956.386" r="4" fill="#0" id="circle58"/>
	<circle cx="96.4326" cy="7.30116" r="4" fill="#0" id="circle59"/>
	<circle cx="103.035" cy="713.75" r="4" fill="#0" id="circle60"/>
	<circle cx="103.035" cy="971.241" r="4" fill="#0" id="circle61"/>
	<circle cx="112.938" cy="4" r="4" fill="#0" id="circle62"/>
	<circle cx="117.89" cy="979.494" r="4" fill="#0" id="circle63"/>
	<circle cx="129.444" cy="4" r="4" fill="#0" id="circle64"/>
	<circle cx="132.745" cy="987.747" r="4" fill="#0" id="circle65"/>
	<circle cx="145.95" cy="4" r="4" fill="#0" id="circle66"/>
	<circle cx="149.251" cy="987.747" r="4" fill="#0" id="circle67"/>
	<circle cx="162.456" cy="4" r="4" fill="#0" id="circle68"/>
	<circle cx="165.757" cy="987.747" r="4" fill="#0" id="circle69"/>
	<circle cx="177.311" cy="12.2529" r="4" fill="#0" id="circle70"/>
	<circle cx="182.263" cy="994.349" r="4" fill="#0" id="circle71"/>
	<circle cx="193.817" cy="12.2529" r="4" fill="#0" id="circle72"/>
	<circle cx="198.769" cy="996" r="4" fill="#0" id="circle73"/>
	<circle cx="208.672" cy="20.5058" r="4" fill="#0" id="circle74"/>
	<circle cx="215.275" cy="996" r="4" fill="#0" id="circle75"/>
	<circle cx="223.527" cy="28.7587" r="4" fill="#0" id="circle76"/>
	<circle cx="231.78" cy="996" r="4" fill="#0" id="circle77"/>
	<circle cx="236.732" cy="855.7" r="4" fill="#0" id="circle78"/>
	<circle cx="236.732" cy="872.206" r="4" fill="#0" id="circle79"/>
	<circle cx="238.383" cy="37.0116" r="4" fill="#0" id="circle80"/>
	<circle cx="244.985" cy="53.5175" r="4" fill="#0" id="circle81"/>
	<circle cx="244.985" cy="839.195" r="4" fill="#0" id="circle82"/>
	<circle cx="244.985" cy="887.062" r="4" fill="#0" id="circle83"/>
	<circle cx="248.286" cy="994.349" r="4" fill="#0" id="circle84"/>
	<circle cx="253.238" cy="220.226" r="4" fill="#0" id="circle85"/>
	<circle cx="253.238" cy="236.732" r="4" fill="#0" id="circle86"/>
	<circle cx="253.238" cy="789.677" r="4" fill="#0" id="circle87"/>
	<circle cx="253.238" cy="806.183" r="4" fill="#0" id="circle88"/>
	<circle cx="253.238" cy="822.689" r="4" fill="#0" id="circle89"/>
	<circle cx="253.238" cy="901.917" r="4" fill="#0" id="circle90"/>
	<circle cx="258.19" cy="63.421" r="4" fill="#0" id="circle91"/>
	<circle cx="261.491" cy="137.697" r="4" fill="#0" id="circle92"/>
	<circle cx="261.491" cy="154.203" r="4" fill="#0" id="circle93"/>
	<circle cx="261.491" cy="170.709" r="4" fill="#0" id="circle94"/>
	<circle cx="261.491" cy="187.215" r="4" fill="#0" id="circle95"/>
	<circle cx="261.491" cy="203.72" r="4" fill="#0" id="circle96"/>
	<circle cx="261.491" cy="251.587" r="4" fill="#0" id="circle97"/>
	<circle cx="261.491" cy="748.413" r="4" fill="#0" id="circle98"/>
	<circle cx="261.491" cy="764.918" r="4" fill="#0" id="circle99"/>
	<circle cx="264.792" cy="79.9268" r="4" fill="#0" id="circle100"/>
	<circle cx="264.792" cy="986.097" r="4" fill="#0" id="circle101"/>
	<circle cx="266.443" cy="911.82" r="4" fill="#0" id="circle102"/>
	<circle cx="269.744" cy="96.4326" r="4" fill="#0" id="circle103"/>
	<circle cx="269.744" cy="112.938" r="4" fill="#0" id="circle104"/>
	<circle cx="269.744" cy="266.443" r="4" fill="#0" id="circle105"/>
	<circle cx="269.744" cy="723.654" r="4" fill="#0" id="circle106"/>
	<circle cx="277.997" cy="281.298" r="4" fill="#0" id="circle107"/>
	<circle cx="277.997" cy="297.804" r="4" fill="#0" id="circle108"/>
	<circle cx="277.997" cy="682.389" r="4" fill="#0" id="circle109"/>
	<circle cx="277.997" cy="698.895" r="4" fill="#0" id="circle110"/>
	<circle cx="281.298" cy="920.073" r="4" fill="#0" id="circle111"/>
	<circle cx="281.298" cy="979.494" r="4" fill="#0" id="circle112"/>
	<circle cx="284.599" cy="314.309" r="4" fill="#0" id="circle113"/>
	<circle cx="286.25" cy="330.815" r="4" fill="#0" id="circle114"/>
	<circle cx="286.25" cy="368.779" r="4" fill="#0" id="circle115"/>
	<circle cx="286.25" cy="385.285" r="4" fill="#0" id="circle116"/>
	<circle cx="286.25" cy="665.884" r="4" fill="#0" id="circle117"/>
	<circle cx="294.502" cy="345.671" r="4" fill="#0" id="circle118"/>
	<circle cx="294.502" cy="400.14" r="4" fill="#0" id="circle119"/>
	<circle cx="294.502" cy="416.646" r="4" fill="#0" id="circle120"/>
	<circle cx="296.153" cy="971.241" r="4" fill="#0" id="circle121"/>
	<circle cx="297.804" cy="920.073" r="4" fill="#0" id="circle122"/>
	<circle cx="302.755" cy="431.501" r="4" fill="#0" id="circle123"/>
	<circle cx="302.755" cy="657.631" r="4" fill="#0" id="circle124"/>
	<circle cx="311.008" cy="446.356" r="4" fill="#0" id="circle125"/>
	<circle cx="311.008" cy="616.366" r="4" fill="#0" id="circle126"/>
	<circle cx="311.008" cy="632.872" r="4" fill="#0" id="circle127"/>
	<circle cx="312.659" cy="928.326" r="4" fill="#0" id="circle128"/>
	<circle cx="312.659" cy="971.241" r="4" fill="#0" id="circle129"/>
	<circle cx="317.611" cy="462.862" r="4" fill="#0" id="circle130"/>
	<circle cx="319.261" cy="479.368" r="4" fill="#0" id="circle131"/>
	<circle cx="324.213" cy="604.812" r="4" fill="#0" id="circle132"/>
	<circle cx="325.864" cy="939.88" r="4" fill="#0" id="circle133"/>
	<circle cx="325.864" cy="958.037" r="4" fill="#0" id="circle134"/>
	<circle cx="327.514" cy="494.223" r="4" fill="#0" id="circle135"/>
	<circle cx="335.767" cy="509.078" r="4" fill="#0" id="circle136"/>
	<circle cx="335.767" cy="591.607" r="4" fill="#0" id="circle137"/>
	<circle cx="339.068" cy="525.584" r="4" fill="#0" id="circle138"/>
	<circle cx="344.02" cy="542.09" r="4" fill="#0" id="circle139"/>
	<circle cx="348.972" cy="580.053" r="4" fill="#0" id="circle140"/>
	<circle cx="352.273" cy="556.945" r="4" fill="#0" id="circle141"/>
	</g>
</svg>