<?xml version="1.0" encoding="UTF-8" standalone="no"?>
<!-- Created with CurveBenchmark -->
<svg
	xmlns:dc="http://purl.org/dc/elements/1.1/"
	xmlns:cc="http://creativecommons.org/ns#"
	xmlns:rdf="http://www.w3.org/1999/02/22-rdf-syntax-ns#"
	xmlns:svg="http://www.w3.org/2000/svg"
	xmlns="http://www.w3.org/2000/svg"
	xmlns:sodipodi="http://sodipodi.sourceforge.net/DTD/sodipodi-0.dtd"
	xmlns:inkscape="http://www.inkscape.org/namespaces/inkscape"
	width="1000"
	height="1000"
	id="svg2"
	version="1.1"
	sodipodi:docname="manifold/crawl-fish-17.png.txt">
<defs
	id="defs4" />
<metadata
	id="metadata7">
	<rdf:RDF>
		<cc:Work
			rdf:about="">
			<dc:format>image/svg+xml</dc:format>
			<dc:type
				rdf:resource="http://purl.org/dc/dcmitype/StillImage" />
			<dc:title></dc:title>
		</cc:Work>
	</rdf:RDF>
</metadata>
<g
	inkscape:label="Layer 1"
	inkscape:groupmode="layer"
	id="layer1">
	<path style="fill:none;stroke:red;stroke-width:1px;stroke-linecap:butt;stroke-linejoin:miter;stroke-opacity:1" d="M 57.3333,119.556 48.4444,119.556 z" id="boundary" inkscape:connector-curvature="0" />
	<path style="fill:none;stroke:red;stroke-width:1px;stroke-linecap:butt;stroke-linejoin:miter;stroke-opacity:1" d="M 48.4444,119.556 39.5556,119.556 z" id="boundary" inkscape:connector-curvature="0" />
	<path style="fill:none;stroke:red;stroke-width:1px;stroke-linecap:butt;stroke-linejoin:miter;stroke-opacity:1" d="M 57.3333,119.556 65.3333,124 z" id="boundary" inkscape:connector-curvature="0" />
	<path style="fill:none;stroke:red;stroke-width:1px;stroke-linecap:butt;stroke-linejoin:miter;stroke-opacity:1" d="M 65.3333,124 74.2222,124.889 z" id="boundary" inkscape:connector-curvature="0" />
	<path style="fill:none;stroke:red;stroke-width:1px;stroke-linecap:butt;stroke-linejoin:miter;stroke-opacity:1" d="M 74.2222,124.889 82.2222,129.333 z" id="boundary" inkscape:connector-curvature="0" />
	<path style="fill:none;stroke:red;stroke-width:1px;stroke-linecap:butt;stroke-linejoin:miter;stroke-opacity:1" d="M 39.5556,119.556 30.6667,122.222 z" id="boundary" inkscape:connector-curvature="0" />
	<path style="fill:none;stroke:red;stroke-width:1px;stroke-linecap:butt;stroke-linejoin:miter;stroke-opacity:1" d="M 82.2222,129.333 91.1111,132.889 z" id="boundary" inkscape:connector-curvature="0" />
	<path style="fill:none;stroke:red;stroke-width:1px;stroke-linecap:butt;stroke-linejoin:miter;stroke-opacity:1" d="M 91.1111,132.889 99.1111,137.333 z" id="boundary" inkscape:connector-curvature="0" />
	<path style="fill:none;stroke:red;stroke-width:1px;stroke-linecap:butt;stroke-linejoin:miter;stroke-opacity:1" d="M 99.1111,137.333 107.111,141.778 z" id="boundary" inkscape:connector-curvature="0" />
	<path style="fill:none;stroke:red;stroke-width:1px;stroke-linecap:butt;stroke-linejoin:miter;stroke-opacity:1" d="M 107.111,141.778 116,141.778 z" id="boundary" inkscape:connector-curvature="0" />
	<path style="fill:none;stroke:red;stroke-width:1px;stroke-linecap:butt;stroke-linejoin:miter;stroke-opacity:1" d="M 116,141.778 124.889,144.444 z" id="boundary" inkscape:connector-curvature="0" />
	<path style="fill:none;stroke:red;stroke-width:1px;stroke-linecap:butt;stroke-linejoin:miter;stroke-opacity:1" d="M 124.889,144.444 133.778,146.222 z" id="boundary" inkscape:connector-curvature="0" />
	<path style="fill:none;stroke:red;stroke-width:1px;stroke-linecap:butt;stroke-linejoin:miter;stroke-opacity:1" d="M 133.778,146.222 141.778,150.667 z" id="boundary" inkscape:connector-curvature="0" />
	<path style="fill:none;stroke:red;stroke-width:1px;stroke-linecap:butt;stroke-linejoin:miter;stroke-opacity:1" d="M 141.778,150.667 148.889,156 z" id="boundary" inkscape:connector-curvature="0" />
	<path style="fill:none;stroke:red;stroke-width:1px;stroke-linecap:butt;stroke-linejoin:miter;stroke-opacity:1" d="M 148.889,156 157.778,159.556 z" id="boundary" inkscape:connector-curvature="0" />
	<path style="fill:none;stroke:red;stroke-width:1px;stroke-linecap:butt;stroke-linejoin:miter;stroke-opacity:1" d="M 157.778,159.556 166.667,159.556 z" id="boundary" inkscape:connector-curvature="0" />
	<path style="fill:none;stroke:red;stroke-width:1px;stroke-linecap:butt;stroke-linejoin:miter;stroke-opacity:1" d="M 166.667,159.556 174.667,164 z" id="boundary" inkscape:connector-curvature="0" />
	<path style="fill:none;stroke:red;stroke-width:1px;stroke-linecap:butt;stroke-linejoin:miter;stroke-opacity:1" d="M 174.667,164 183.556,164 z" id="boundary" inkscape:connector-curvature="0" />
	<path style="fill:none;stroke:red;stroke-width:1px;stroke-linecap:butt;stroke-linejoin:miter;stroke-opacity:1" d="M 183.556,164 191.556,168.444 z" id="boundary" inkscape:connector-curvature="0" />
	<path style="fill:none;stroke:red;stroke-width:1px;stroke-linecap:butt;stroke-linejoin:miter;stroke-opacity:1" d="M 30.6667,122.222 21.7778,126.667 z" id="boundary" inkscape:connector-curvature="0" />
	<path style="fill:none;stroke:red;stroke-width:1px;stroke-linecap:butt;stroke-linejoin:miter;stroke-opacity:1" d="M 21.7778,126.667 17.3333,135.556 z" id="boundary" inkscape:connector-curvature="0" />
	<path style="fill:none;stroke:red;stroke-width:1px;stroke-linecap:butt;stroke-linejoin:miter;stroke-opacity:1" d="M 17.3333,135.556 12.8889,144.444 z" id="boundary" inkscape:connector-curvature="0" />
	<path style="fill:none;stroke:red;stroke-width:1px;stroke-linecap:butt;stroke-linejoin:miter;stroke-opacity:1" d="M 12.8889,144.444 8.44444,153.333 z" id="boundary" inkscape:connector-curvature="0" />
	<path style="fill:none;stroke:red;stroke-width:1px;stroke-linecap:butt;stroke-linejoin:miter;stroke-opacity:1" d="M 191.556,168.444 190.667,157.778 z" id="boundary" inkscape:connector-curvature="0" />
	<path style="fill:none;stroke:red;stroke-width:1px;stroke-linecap:butt;stroke-linejoin:miter;stroke-opacity:1" d="M 190.667,157.778 190.667,148.889 z" id="boundary" inkscape:connector-curvature="0" />
	<path style="fill:none;stroke:red;stroke-width:1px;stroke-linecap:butt;stroke-linejoin:miter;stroke-opacity:1" d="M 190.667,148.889 190.667,140 z" id="boundary" inkscape:connector-curvature="0" />
	<path style="fill:none;stroke:red;stroke-width:1px;stroke-linecap:butt;stroke-linejoin:miter;stroke-opacity:1" d="M 190.667,140 197.778,132.889 z" id="boundary" inkscape:connector-curvature="0" />
	<path style="fill:none;stroke:red;stroke-width:1px;stroke-linecap:butt;stroke-linejoin:miter;stroke-opacity:1" d="M 197.778,132.889 204.889,125.778 z" id="boundary" inkscape:connector-curvature="0" />
	<path style="fill:none;stroke:red;stroke-width:1px;stroke-linecap:butt;stroke-linejoin:miter;stroke-opacity:1" d="M 204.889,125.778 212,119.556 z" id="boundary" inkscape:connector-curvature="0" />
	<path style="fill:none;stroke:red;stroke-width:1px;stroke-linecap:butt;stroke-linejoin:miter;stroke-opacity:1" d="M 212,119.556 220,115.111 z" id="boundary" inkscape:connector-curvature="0" />
	<path style="fill:none;stroke:red;stroke-width:1px;stroke-linecap:butt;stroke-linejoin:miter;stroke-opacity:1" d="M 220,115.111 228.889,115.111 z" id="boundary" inkscape:connector-curvature="0" />
	<path style="fill:none;stroke:red;stroke-width:1px;stroke-linecap:butt;stroke-linejoin:miter;stroke-opacity:1" d="M 228.889,115.111 236,108 z" id="boundary" inkscape:connector-curvature="0" />
	<path style="fill:none;stroke:red;stroke-width:1px;stroke-linecap:butt;stroke-linejoin:miter;stroke-opacity:1" d="M 236,108 243.111,101.778 z" id="boundary" inkscape:connector-curvature="0" />
	<path style="fill:none;stroke:red;stroke-width:1px;stroke-linecap:butt;stroke-linejoin:miter;stroke-opacity:1" d="M 243.111,101.778 252,101.778 z" id="boundary" inkscape:connector-curvature="0" />
	<path style="fill:none;stroke:red;stroke-width:1px;stroke-linecap:butt;stroke-linejoin:miter;stroke-opacity:1" d="M 252,101.778 260,97.3333 z" id="boundary" inkscape:connector-curvature="0" />
	<path style="fill:none;stroke:red;stroke-width:1px;stroke-linecap:butt;stroke-linejoin:miter;stroke-opacity:1" d="M 260,97.3333 268.889,97.3333 z" id="boundary" inkscape:connector-curvature="0" />
	<path style="fill:none;stroke:red;stroke-width:1px;stroke-linecap:butt;stroke-linejoin:miter;stroke-opacity:1" d="M 268.889,97.3333 276.889,92.8889 z" id="boundary" inkscape:connector-curvature="0" />
	<path style="fill:none;stroke:red;stroke-width:1px;stroke-linecap:butt;stroke-linejoin:miter;stroke-opacity:1" d="M 276.889,92.8889 285.778,92.8889 z" id="boundary" inkscape:connector-curvature="0" />
	<path style="fill:none;stroke:red;stroke-width:1px;stroke-linecap:butt;stroke-linejoin:miter;stroke-opacity:1" d="M 285.778,92.8889 293.778,88.4444 z" id="boundary" inkscape:connector-curvature="0" />
	<path style="fill:none;stroke:red;stroke-width:1px;stroke-linecap:butt;stroke-linejoin:miter;stroke-opacity:1" d="M 293.778,88.4444 301.778,84 z" id="boundary" inkscape:connector-curvature="0" />
	<path style="fill:none;stroke:red;stroke-width:1px;stroke-linecap:butt;stroke-linejoin:miter;stroke-opacity:1" d="M 301.778,84 309.778,79.5556 z" id="boundary" inkscape:connector-curvature="0" />
	<path style="fill:none;stroke:red;stroke-width:1px;stroke-linecap:butt;stroke-linejoin:miter;stroke-opacity:1" d="M 309.778,79.5556 318.667,79.5556 z" id="boundary" inkscape:connector-curvature="0" />
	<path style="fill:none;stroke:red;stroke-width:1px;stroke-linecap:butt;stroke-linejoin:miter;stroke-opacity:1" d="M 318.667,79.5556 327.556,79.5556 z" id="boundary" inkscape:connector-curvature="0" />
	<path style="fill:none;stroke:red;stroke-width:1px;stroke-linecap:butt;stroke-linejoin:miter;stroke-opacity:1" d="M 327.556,79.5556 335.556,75.1111 z" id="boundary" inkscape:connector-curvature="0" />
	<path style="fill:none;stroke:red;stroke-width:1px;stroke-linecap:butt;stroke-linejoin:miter;stroke-opacity:1" d="M 335.556,75.1111 344.444,75.1111 z" id="boundary" inkscape:connector-curvature="0" />
	<path style="fill:none;stroke:red;stroke-width:1px;stroke-linecap:butt;stroke-linejoin:miter;stroke-opacity:1" d="M 344.444,75.1111 353.333,75.1111 z" id="boundary" inkscape:connector-curvature="0" />
	<path style="fill:none;stroke:red;stroke-width:1px;stroke-linecap:butt;stroke-linejoin:miter;stroke-opacity:1" d="M 353.333,75.1111 361.333,70.6667 z" id="boundary" inkscape:connector-curvature="0" />
	<path style="fill:none;stroke:red;stroke-width:1px;stroke-linecap:butt;stroke-linejoin:miter;stroke-opacity:1" d="M 361.333,70.6667 370.222,70.6667 z" id="boundary" inkscape:connector-curvature="0" />
	<path style="fill:none;stroke:red;stroke-width:1px;stroke-linecap:butt;stroke-linejoin:miter;stroke-opacity:1" d="M 370.222,70.6667 379.111,70.6667 z" id="boundary" inkscape:connector-curvature="0" />
	<path style="fill:none;stroke:red;stroke-width:1px;stroke-linecap:butt;stroke-linejoin:miter;stroke-opacity:1" d="M 379.111,70.6667 387.111,66.2222 z" id="boundary" inkscape:connector-curvature="0" />
	<path style="fill:none;stroke:red;stroke-width:1px;stroke-linecap:butt;stroke-linejoin:miter;stroke-opacity:1" d="M 387.111,66.2222 396,66.2222 z" id="boundary" inkscape:connector-curvature="0" />
	<path style="fill:none;stroke:red;stroke-width:1px;stroke-linecap:butt;stroke-linejoin:miter;stroke-opacity:1" d="M 396,66.2222 404,61.7778 z" id="boundary" inkscape:connector-curvature="0" />
	<path style="fill:none;stroke:red;stroke-width:1px;stroke-linecap:butt;stroke-linejoin:miter;stroke-opacity:1" d="M 404,61.7778 412.889,61.7778 z" id="boundary" inkscape:connector-curvature="0" />
	<path style="fill:none;stroke:red;stroke-width:1px;stroke-linecap:butt;stroke-linejoin:miter;stroke-opacity:1" d="M 412.889,61.7778 421.778,61.7778 z" id="boundary" inkscape:connector-curvature="0" />
	<path style="fill:none;stroke:red;stroke-width:1px;stroke-linecap:butt;stroke-linejoin:miter;stroke-opacity:1" d="M 421.778,61.7778 430.667,61.7778 z" id="boundary" inkscape:connector-curvature="0" />
	<path style="fill:none;stroke:red;stroke-width:1px;stroke-linecap:butt;stroke-linejoin:miter;stroke-opacity:1" d="M 430.667,61.7778 439.556,61.7778 z" id="boundary" inkscape:connector-curvature="0" />
	<path style="fill:none;stroke:red;stroke-width:1px;stroke-linecap:butt;stroke-linejoin:miter;stroke-opacity:1" d="M 439.556,61.7778 448.444,61.7778 z" id="boundary" inkscape:connector-curvature="0" />
	<path style="fill:none;stroke:red;stroke-width:1px;stroke-linecap:butt;stroke-linejoin:miter;stroke-opacity:1" d="M 448.444,61.7778 457.333,61.7778 z" id="boundary" inkscape:connector-curvature="0" />
	<path style="fill:none;stroke:red;stroke-width:1px;stroke-linecap:butt;stroke-linejoin:miter;stroke-opacity:1" d="M 457.333,61.7778 466.222,63.5556 z" id="boundary" inkscape:connector-curvature="0" />
	<path style="fill:none;stroke:red;stroke-width:1px;stroke-linecap:butt;stroke-linejoin:miter;stroke-opacity:1" d="M 466.222,63.5556 471.556,70.6667 z" id="boundary" inkscape:connector-curvature="0" />
	<path style="fill:none;stroke:red;stroke-width:1px;stroke-linecap:butt;stroke-linejoin:miter;stroke-opacity:1" d="M 471.556,70.6667 480.444,70.6667 z" id="boundary" inkscape:connector-curvature="0" />
	<path style="fill:none;stroke:red;stroke-width:1px;stroke-linecap:butt;stroke-linejoin:miter;stroke-opacity:1" d="M 480.444,70.6667 488.444,75.1111 z" id="boundary" inkscape:connector-curvature="0" />
	<path style="fill:none;stroke:red;stroke-width:1px;stroke-linecap:butt;stroke-linejoin:miter;stroke-opacity:1" d="M 488.444,75.1111 493.778,68 z" id="boundary" inkscape:connector-curvature="0" />
	<path style="fill:none;stroke:red;stroke-width:1px;stroke-linecap:butt;stroke-linejoin:miter;stroke-opacity:1" d="M 493.778,68 498.222,59.1111 z" id="boundary" inkscape:connector-curvature="0" />
	<path style="fill:none;stroke:red;stroke-width:1px;stroke-linecap:butt;stroke-linejoin:miter;stroke-opacity:1" d="M 498.222,59.1111 505.333,52.8889 z" id="boundary" inkscape:connector-curvature="0" />
	<path style="fill:none;stroke:red;stroke-width:1px;stroke-linecap:butt;stroke-linejoin:miter;stroke-opacity:1" d="M 505.333,52.8889 513.333,48.4444 z" id="boundary" inkscape:connector-curvature="0" />
	<path style="fill:none;stroke:red;stroke-width:1px;stroke-linecap:butt;stroke-linejoin:miter;stroke-opacity:1" d="M 513.333,48.4444 522.222,44 z" id="boundary" inkscape:connector-curvature="0" />
	<path style="fill:none;stroke:red;stroke-width:1px;stroke-linecap:butt;stroke-linejoin:miter;stroke-opacity:1" d="M 522.222,44 531.111,39.5556 z" id="boundary" inkscape:connector-curvature="0" />
	<path style="fill:none;stroke:red;stroke-width:1px;stroke-linecap:butt;stroke-linejoin:miter;stroke-opacity:1" d="M 531.111,39.5556 540,39.5556 z" id="boundary" inkscape:connector-curvature="0" />
	<path style="fill:none;stroke:red;stroke-width:1px;stroke-linecap:butt;stroke-linejoin:miter;stroke-opacity:1" d="M 540,39.5556 548,35.1111 z" id="boundary" inkscape:connector-curvature="0" />
	<path style="fill:none;stroke:red;stroke-width:1px;stroke-linecap:butt;stroke-linejoin:miter;stroke-opacity:1" d="M 548,35.1111 556.889,35.1111 z" id="boundary" inkscape:connector-curvature="0" />
	<path style="fill:none;stroke:red;stroke-width:1px;stroke-linecap:butt;stroke-linejoin:miter;stroke-opacity:1" d="M 556.889,35.1111 565.778,31.5556 z" id="boundary" inkscape:connector-curvature="0" />
	<path style="fill:none;stroke:red;stroke-width:1px;stroke-linecap:butt;stroke-linejoin:miter;stroke-opacity:1" d="M 565.778,31.5556 574.667,30.6667 z" id="boundary" inkscape:connector-curvature="0" />
	<path style="fill:none;stroke:red;stroke-width:1px;stroke-linecap:butt;stroke-linejoin:miter;stroke-opacity:1" d="M 574.667,30.6667 583.556,30.6667 z" id="boundary" inkscape:connector-curvature="0" />
	<path style="fill:none;stroke:red;stroke-width:1px;stroke-linecap:butt;stroke-linejoin:miter;stroke-opacity:1" d="M 583.556,30.6667 592.444,30.6667 z" id="boundary" inkscape:connector-curvature="0" />
	<path style="fill:none;stroke:red;stroke-width:1px;stroke-linecap:butt;stroke-linejoin:miter;stroke-opacity:1" d="M 592.444,30.6667 601.333,27.1111 z" id="boundary" inkscape:connector-curvature="0" />
	<path style="fill:none;stroke:red;stroke-width:1px;stroke-linecap:butt;stroke-linejoin:miter;stroke-opacity:1" d="M 601.333,27.1111 610.222,26.2222 z" id="boundary" inkscape:connector-curvature="0" />
	<path style="fill:none;stroke:red;stroke-width:1px;stroke-linecap:butt;stroke-linejoin:miter;stroke-opacity:1" d="M 610.222,26.2222 619.111,26.2222 z" id="boundary" inkscape:connector-curvature="0" />
	<path style="fill:none;stroke:red;stroke-width:1px;stroke-linecap:butt;stroke-linejoin:miter;stroke-opacity:1" d="M 619.111,26.2222 628,26.2222 z" id="boundary" inkscape:connector-curvature="0" />
	<path style="fill:none;stroke:red;stroke-width:1px;stroke-linecap:butt;stroke-linejoin:miter;stroke-opacity:1" d="M 628,26.2222 636.889,26.2222 z" id="boundary" inkscape:connector-curvature="0" />
	<path style="fill:none;stroke:red;stroke-width:1px;stroke-linecap:butt;stroke-linejoin:miter;stroke-opacity:1" d="M 636.889,26.2222 645.778,22.6667 z" id="boundary" inkscape:connector-curvature="0" />
	<path style="fill:none;stroke:red;stroke-width:1px;stroke-linecap:butt;stroke-linejoin:miter;stroke-opacity:1" d="M 645.778,22.6667 654.667,21.7778 z" id="boundary" inkscape:connector-curvature="0" />
	<path style="fill:none;stroke:red;stroke-width:1px;stroke-linecap:butt;stroke-linejoin:miter;stroke-opacity:1" d="M 654.667,21.7778 663.556,21.7778 z" id="boundary" inkscape:connector-curvature="0" />
	<path style="fill:none;stroke:red;stroke-width:1px;stroke-linecap:butt;stroke-linejoin:miter;stroke-opacity:1" d="M 663.556,21.7778 671.556,17.3333 z" id="boundary" inkscape:connector-curvature="0" />
	<path style="fill:none;stroke:red;stroke-width:1px;stroke-linecap:butt;stroke-linejoin:miter;stroke-opacity:1" d="M 671.556,17.3333 680.444,17.3333 z" id="boundary" inkscape:connector-curvature="0" />
	<path style="fill:none;stroke:red;stroke-width:1px;stroke-linecap:butt;stroke-linejoin:miter;stroke-opacity:1" d="M 680.444,17.3333 688.444,12.8889 z" id="boundary" inkscape:connector-curvature="0" />
	<path style="fill:none;stroke:red;stroke-width:1px;stroke-linecap:butt;stroke-linejoin:miter;stroke-opacity:1" d="M 688.444,12.8889 697.333,12.8889 z" id="boundary" inkscape:connector-curvature="0" />
	<path style="fill:none;stroke:red;stroke-width:1px;stroke-linecap:butt;stroke-linejoin:miter;stroke-opacity:1" d="M 697.333,12.8889 706.222,12.8889 z" id="boundary" inkscape:connector-curvature="0" />
	<path style="fill:none;stroke:red;stroke-width:1px;stroke-linecap:butt;stroke-linejoin:miter;stroke-opacity:1" d="M 706.222,12.8889 715.111,11.1111 z" id="boundary" inkscape:connector-curvature="0" />
	<path style="fill:none;stroke:red;stroke-width:1px;stroke-linecap:butt;stroke-linejoin:miter;stroke-opacity:1" d="M 715.111,11.1111 724,8.44444 z" id="boundary" inkscape:connector-curvature="0" />
	<path style="fill:none;stroke:red;stroke-width:1px;stroke-linecap:butt;stroke-linejoin:miter;stroke-opacity:1" d="M 724,8.44444 732.889,8.44444 z" id="boundary" inkscape:connector-curvature="0" />
	<path style="fill:none;stroke:red;stroke-width:1px;stroke-linecap:butt;stroke-linejoin:miter;stroke-opacity:1" d="M 732.889,8.44444 740.889,4 z" id="boundary" inkscape:connector-curvature="0" />
	<path style="fill:none;stroke:red;stroke-width:1px;stroke-linecap:butt;stroke-linejoin:miter;stroke-opacity:1" d="M 740.889,4 749.778,4 z" id="boundary" inkscape:connector-curvature="0" />
	<path style="fill:none;stroke:red;stroke-width:1px;stroke-linecap:butt;stroke-linejoin:miter;stroke-opacity:1" d="M 749.778,4 758.667,4 z" id="boundary" inkscape:connector-curvature="0" />
	<path style="fill:none;stroke:red;stroke-width:1px;stroke-linecap:butt;stroke-linejoin:miter;stroke-opacity:1" d="M 758.667,4 767.556,4 z" id="boundary" inkscape:connector-curvature="0" />
	<path style="fill:none;stroke:red;stroke-width:1px;stroke-linecap:butt;stroke-linejoin:miter;stroke-opacity:1" d="M 767.556,4 776.444,4 z" id="boundary" inkscape:connector-curvature="0" />
	<path style="fill:none;stroke:red;stroke-width:1px;stroke-linecap:butt;stroke-linejoin:miter;stroke-opacity:1" d="M 776.444,4 785.333,4 z" id="boundary" inkscape:connector-curvature="0" />
	<path style="fill:none;stroke:red;stroke-width:1px;stroke-linecap:butt;stroke-linejoin:miter;stroke-opacity:1" d="M 785.333,4 793.333,8.44444 z" id="boundary" inkscape:connector-curvature="0" />
	<path style="fill:none;stroke:red;stroke-width:1px;stroke-linecap:butt;stroke-linejoin:miter;stroke-opacity:1" d="M 793.333,8.44444 801.333,12.8889 z" id="boundary" inkscape:connector-curvature="0" />
	<path style="fill:none;stroke:red;stroke-width:1px;stroke-linecap:butt;stroke-linejoin:miter;stroke-opacity:1" d="M 801.333,12.8889 810.222,12.8889 z" id="boundary" inkscape:connector-curvature="0" />
	<path style="fill:none;stroke:red;stroke-width:1px;stroke-linecap:butt;stroke-linejoin:miter;stroke-opacity:1" d="M 810.222,12.8889 819.111,12.8889 z" id="boundary" inkscape:connector-curvature="0" />
	<path style="fill:none;stroke:red;stroke-width:1px;stroke-linecap:butt;stroke-linejoin:miter;stroke-opacity:1" d="M 819.111,12.8889 828,12.8889 z" id="boundary" inkscape:connector-curvature="0" />
	<path style="fill:none;stroke:red;stroke-width:1px;stroke-linecap:butt;stroke-linejoin:miter;stroke-opacity:1" d="M 828,12.8889 836,17.3333 z" id="boundary" inkscape:connector-curvature="0" />
	<path style="fill:none;stroke:red;stroke-width:1px;stroke-linecap:butt;stroke-linejoin:miter;stroke-opacity:1" d="M 836,17.3333 840.444,25.3333 z" id="boundary" inkscape:connector-curvature="0" />
	<path style="fill:none;stroke:red;stroke-width:1px;stroke-linecap:butt;stroke-linejoin:miter;stroke-opacity:1" d="M 840.444,25.3333 844.889,33.3333 z" id="boundary" inkscape:connector-curvature="0" />
	<path style="fill:none;stroke:red;stroke-width:1px;stroke-linecap:butt;stroke-linejoin:miter;stroke-opacity:1" d="M 844.889,33.3333 849.333,41.3333 z" id="boundary" inkscape:connector-curvature="0" />
	<path style="fill:none;stroke:red;stroke-width:1px;stroke-linecap:butt;stroke-linejoin:miter;stroke-opacity:1" d="M 849.333,41.3333 853.778,49.3333 z" id="boundary" inkscape:connector-curvature="0" />
	<path style="fill:none;stroke:red;stroke-width:1px;stroke-linecap:butt;stroke-linejoin:miter;stroke-opacity:1" d="M 853.778,49.3333 855.556,58.2222 z" id="boundary" inkscape:connector-curvature="0" />
	<path style="fill:none;stroke:red;stroke-width:1px;stroke-linecap:butt;stroke-linejoin:miter;stroke-opacity:1" d="M 855.556,58.2222 860,66.2222 z" id="boundary" inkscape:connector-curvature="0" />
	<path style="fill:none;stroke:red;stroke-width:1px;stroke-linecap:butt;stroke-linejoin:miter;stroke-opacity:1" d="M 860,66.2222 862.667,75.1111 z" id="boundary" inkscape:connector-curvature="0" />
	<path style="fill:none;stroke:red;stroke-width:1px;stroke-linecap:butt;stroke-linejoin:miter;stroke-opacity:1" d="M 862.667,75.1111 869.778,80.4444 z" id="boundary" inkscape:connector-curvature="0" />
	<path style="fill:none;stroke:red;stroke-width:1px;stroke-linecap:butt;stroke-linejoin:miter;stroke-opacity:1" d="M 869.778,80.4444 878.667,79.5556 z" id="boundary" inkscape:connector-curvature="0" />
	<path style="fill:none;stroke:red;stroke-width:1px;stroke-linecap:butt;stroke-linejoin:miter;stroke-opacity:1" d="M 878.667,79.5556 884.889,86.6667 z" id="boundary" inkscape:connector-curvature="0" />
	<path style="fill:none;stroke:red;stroke-width:1px;stroke-linecap:butt;stroke-linejoin:miter;stroke-opacity:1" d="M 884.889,86.6667 892.889,91.1111 z" id="boundary" inkscape:connector-curvature="0" />
	<path style="fill:none;stroke:red;stroke-width:1px;stroke-linecap:butt;stroke-linejoin:miter;stroke-opacity:1" d="M 892.889,91.1111 901.778,86.6667 z" id="boundary" inkscape:connector-curvature="0" />
	<path style="fill:none;stroke:red;stroke-width:1px;stroke-linecap:butt;stroke-linejoin:miter;stroke-opacity:1" d="M 901.778,86.6667 910.667,85.7778 z" id="boundary" inkscape:connector-curvature="0" />
	<path style="fill:none;stroke:red;stroke-width:1px;stroke-linecap:butt;stroke-linejoin:miter;stroke-opacity:1" d="M 910.667,85.7778 914.222,94.6667 z" id="boundary" inkscape:connector-curvature="0" />
	<path style="fill:none;stroke:red;stroke-width:1px;stroke-linecap:butt;stroke-linejoin:miter;stroke-opacity:1" d="M 914.222,94.6667 923.111,92.8889 z" id="boundary" inkscape:connector-curvature="0" />
	<path style="fill:none;stroke:red;stroke-width:1px;stroke-linecap:butt;stroke-linejoin:miter;stroke-opacity:1" d="M 923.111,92.8889 924.889,101.778 z" id="boundary" inkscape:connector-curvature="0" />
	<path style="fill:none;stroke:red;stroke-width:1px;stroke-linecap:butt;stroke-linejoin:miter;stroke-opacity:1" d="M 924.889,101.778 933.778,101.778 z" id="boundary" inkscape:connector-curvature="0" />
	<path style="fill:none;stroke:red;stroke-width:1px;stroke-linecap:butt;stroke-linejoin:miter;stroke-opacity:1" d="M 933.778,101.778 938.222,109.778 z" id="boundary" inkscape:connector-curvature="0" />
	<path style="fill:none;stroke:red;stroke-width:1px;stroke-linecap:butt;stroke-linejoin:miter;stroke-opacity:1" d="M 938.222,109.778 945.333,115.111 z" id="boundary" inkscape:connector-curvature="0" />
	<path style="fill:none;stroke:red;stroke-width:1px;stroke-linecap:butt;stroke-linejoin:miter;stroke-opacity:1" d="M 945.333,115.111 948.889,106.222 z" id="boundary" inkscape:connector-curvature="0" />
	<path style="fill:none;stroke:red;stroke-width:1px;stroke-linecap:butt;stroke-linejoin:miter;stroke-opacity:1" d="M 948.889,106.222 956,111.556 z" id="boundary" inkscape:connector-curvature="0" />
	<path style="fill:none;stroke:red;stroke-width:1px;stroke-linecap:butt;stroke-linejoin:miter;stroke-opacity:1" d="M 956,111.556 963.111,116.889 z" id="boundary" inkscape:connector-curvature="0" />
	<path style="fill:none;stroke:red;stroke-width:1px;stroke-linecap:butt;stroke-linejoin:miter;stroke-opacity:1" d="M 963.111,116.889 964.889,125.778 z" id="boundary" inkscape:connector-curvature="0" />
	<path style="fill:none;stroke:red;stroke-width:1px;stroke-linecap:butt;stroke-linejoin:miter;stroke-opacity:1" d="M 964.889,125.778 960.444,133.778 z" id="boundary" inkscape:connector-curvature="0" />
	<path style="fill:none;stroke:red;stroke-width:1px;stroke-linecap:butt;stroke-linejoin:miter;stroke-opacity:1" d="M 960.444,133.778 964.889,141.778 z" id="boundary" inkscape:connector-curvature="0" />
	<path style="fill:none;stroke:red;stroke-width:1px;stroke-linecap:butt;stroke-linejoin:miter;stroke-opacity:1" d="M 964.889,141.778 969.333,149.778 z" id="boundary" inkscape:connector-curvature="0" />
	<path style="fill:none;stroke:red;stroke-width:1px;stroke-linecap:butt;stroke-linejoin:miter;stroke-opacity:1" d="M 969.333,149.778 973.778,157.778 z" id="boundary" inkscape:connector-curvature="0" />
	<path style="fill:none;stroke:red;stroke-width:1px;stroke-linecap:butt;stroke-linejoin:miter;stroke-opacity:1" d="M 973.778,157.778 978.222,165.778 z" id="boundary" inkscape:connector-curvature="0" />
	<path style="fill:none;stroke:red;stroke-width:1px;stroke-linecap:butt;stroke-linejoin:miter;stroke-opacity:1" d="M 978.222,165.778 982.667,173.778 z" id="boundary" inkscape:connector-curvature="0" />
	<path style="fill:none;stroke:red;stroke-width:1px;stroke-linecap:butt;stroke-linejoin:miter;stroke-opacity:1" d="M 982.667,173.778 984.444,182.667 z" id="boundary" inkscape:connector-curvature="0" />
	<path style="fill:none;stroke:red;stroke-width:1px;stroke-linecap:butt;stroke-linejoin:miter;stroke-opacity:1" d="M 984.444,182.667 991.556,188.889 z" id="boundary" inkscape:connector-curvature="0" />
	<path style="fill:none;stroke:red;stroke-width:1px;stroke-linecap:butt;stroke-linejoin:miter;stroke-opacity:1" d="M 991.556,188.889 991.556,197.778 z" id="boundary" inkscape:connector-curvature="0" />
	<path style="fill:none;stroke:red;stroke-width:1px;stroke-linecap:butt;stroke-linejoin:miter;stroke-opacity:1" d="M 991.556,197.778 996,205.778 z" id="boundary" inkscape:connector-curvature="0" />
	<path style="fill:none;stroke:red;stroke-width:1px;stroke-linecap:butt;stroke-linejoin:miter;stroke-opacity:1" d="M 996,205.778 996,214.667 z" id="boundary" inkscape:connector-curvature="0" />
	<path style="fill:none;stroke:red;stroke-width:1px;stroke-linecap:butt;stroke-linejoin:miter;stroke-opacity:1" d="M 996,214.667 996,223.556 z" id="boundary" inkscape:connector-curvature="0" />
	<path style="fill:none;stroke:red;stroke-width:1px;stroke-linecap:butt;stroke-linejoin:miter;stroke-opacity:1" d="M 996,223.556 991.556,231.556 z" id="boundary" inkscape:connector-curvature="0" />
	<path style="fill:none;stroke:red;stroke-width:1px;stroke-linecap:butt;stroke-linejoin:miter;stroke-opacity:1" d="M 8.44444,153.333 4,166.667 z" id="boundary" inkscape:connector-curvature="0" />
	<path style="fill:none;stroke:red;stroke-width:1px;stroke-linecap:butt;stroke-linejoin:miter;stroke-opacity:1" d="M 4,166.667 4,175.556 z" id="boundary" inkscape:connector-curvature="0" />
	<path style="fill:none;stroke:red;stroke-width:1px;stroke-linecap:butt;stroke-linejoin:miter;stroke-opacity:1" d="M 4,175.556 4,184.444 z" id="boundary" inkscape:connector-curvature="0" />
	<path style="fill:none;stroke:red;stroke-width:1px;stroke-linecap:butt;stroke-linejoin:miter;stroke-opacity:1" d="M 4,184.444 4,193.333 z" id="boundary" inkscape:connector-curvature="0" />
	<path style="fill:none;stroke:red;stroke-width:1px;stroke-linecap:butt;stroke-linejoin:miter;stroke-opacity:1" d="M 4,193.333 4,202.222 z" id="boundary" inkscape:connector-curvature="0" />
	<path style="fill:none;stroke:red;stroke-width:1px;stroke-linecap:butt;stroke-linejoin:miter;stroke-opacity:1" d="M 4,202.222 4,211.111 z" id="boundary" inkscape:connector-curvature="0" />
	<path style="fill:none;stroke:red;stroke-width:1px;stroke-linecap:butt;stroke-linejoin:miter;stroke-opacity:1" d="M 4,211.111 4,220 z" id="boundary" inkscape:connector-curvature="0" />
	<path style="fill:none;stroke:red;stroke-width:1px;stroke-linecap:butt;stroke-linejoin:miter;stroke-opacity:1" d="M 4,220 4,228.889 z" id="boundary" inkscape:connector-curvature="0" />
	<path style="fill:none;stroke:red;stroke-width:1px;stroke-linecap:butt;stroke-linejoin:miter;stroke-opacity:1" d="M 4,228.889 4,237.778 z" id="boundary" inkscape:connector-curvature="0" />
	<path style="fill:none;stroke:red;stroke-width:1px;stroke-linecap:butt;stroke-linejoin:miter;stroke-opacity:1" d="M 4,237.778 8.44444,245.778 z" id="boundary" inkscape:connector-curvature="0" />
	<path style="fill:none;stroke:red;stroke-width:1px;stroke-linecap:butt;stroke-linejoin:miter;stroke-opacity:1" d="M 8.44444,245.778 8.44444,254.667 z" id="boundary" inkscape:connector-curvature="0" />
	<path style="fill:none;stroke:red;stroke-width:1px;stroke-linecap:butt;stroke-linejoin:miter;stroke-opacity:1" d="M 8.44444,254.667 12.8889,262.667 z" id="boundary" inkscape:connector-curvature="0" />
	<path style="fill:none;stroke:red;stroke-width:1px;stroke-linecap:butt;stroke-linejoin:miter;stroke-opacity:1" d="M 12.8889,262.667 18.2222,269.778 z" id="boundary" inkscape:connector-curvature="0" />
	<path style="fill:none;stroke:red;stroke-width:1px;stroke-linecap:butt;stroke-linejoin:miter;stroke-opacity:1" d="M 18.2222,269.778 22.6667,277.778 z" id="boundary" inkscape:connector-curvature="0" />
	<path style="fill:none;stroke:red;stroke-width:1px;stroke-linecap:butt;stroke-linejoin:miter;stroke-opacity:1" d="M 22.6667,277.778 30.6667,282.222 z" id="boundary" inkscape:connector-curvature="0" />
	<path style="fill:none;stroke:red;stroke-width:1px;stroke-linecap:butt;stroke-linejoin:miter;stroke-opacity:1" d="M 30.6667,282.222 39.5556,284.889 z" id="boundary" inkscape:connector-curvature="0" />
	<path style="fill:none;stroke:red;stroke-width:1px;stroke-linecap:butt;stroke-linejoin:miter;stroke-opacity:1" d="M 39.5556,284.889 47.5556,289.333 z" id="boundary" inkscape:connector-curvature="0" />
	<path style="fill:none;stroke:red;stroke-width:1px;stroke-linecap:butt;stroke-linejoin:miter;stroke-opacity:1" d="M 47.5556,289.333 56.4444,289.333 z" id="boundary" inkscape:connector-curvature="0" />
	<path style="fill:none;stroke:red;stroke-width:1px;stroke-linecap:butt;stroke-linejoin:miter;stroke-opacity:1" d="M 56.4444,289.333 65.3333,289.333 z" id="boundary" inkscape:connector-curvature="0" />
	<path style="fill:none;stroke:red;stroke-width:1px;stroke-linecap:butt;stroke-linejoin:miter;stroke-opacity:1" d="M 65.3333,289.333 74.2222,287.556 z" id="boundary" inkscape:connector-curvature="0" />
	<path style="fill:none;stroke:red;stroke-width:1px;stroke-linecap:butt;stroke-linejoin:miter;stroke-opacity:1" d="M 74.2222,287.556 83.1111,284.889 z" id="boundary" inkscape:connector-curvature="0" />
	<path style="fill:none;stroke:red;stroke-width:1px;stroke-linecap:butt;stroke-linejoin:miter;stroke-opacity:1" d="M 83.1111,284.889 91.1111,280.444 z" id="boundary" inkscape:connector-curvature="0" />
	<path style="fill:none;stroke:red;stroke-width:1px;stroke-linecap:butt;stroke-linejoin:miter;stroke-opacity:1" d="M 91.1111,280.444 100,280.444 z" id="boundary" inkscape:connector-curvature="0" />
	<path style="fill:none;stroke:red;stroke-width:1px;stroke-linecap:butt;stroke-linejoin:miter;stroke-opacity:1" d="M 100,280.444 108.889,279.556 z" id="boundary" inkscape:connector-curvature="0" />
	<path style="fill:none;stroke:red;stroke-width:1px;stroke-linecap:butt;stroke-linejoin:miter;stroke-opacity:1" d="M 108.889,279.556 117.778,276 z" id="boundary" inkscape:connector-curvature="0" />
	<path style="fill:none;stroke:red;stroke-width:1px;stroke-linecap:butt;stroke-linejoin:miter;stroke-opacity:1" d="M 117.778,276 126.667,275.111 z" id="boundary" inkscape:connector-curvature="0" />
	<path style="fill:none;stroke:red;stroke-width:1px;stroke-linecap:butt;stroke-linejoin:miter;stroke-opacity:1" d="M 126.667,275.111 135.556,271.556 z" id="boundary" inkscape:connector-curvature="0" />
	<path style="fill:none;stroke:red;stroke-width:1px;stroke-linecap:butt;stroke-linejoin:miter;stroke-opacity:1" d="M 135.556,271.556 143.556,267.111 z" id="boundary" inkscape:connector-curvature="0" />
	<path style="fill:none;stroke:red;stroke-width:1px;stroke-linecap:butt;stroke-linejoin:miter;stroke-opacity:1" d="M 143.556,267.111 151.556,262.667 z" id="boundary" inkscape:connector-curvature="0" />
	<path style="fill:none;stroke:red;stroke-width:1px;stroke-linecap:butt;stroke-linejoin:miter;stroke-opacity:1" d="M 151.556,262.667 159.556,258.222 z" id="boundary" inkscape:connector-curvature="0" />
	<path style="fill:none;stroke:red;stroke-width:1px;stroke-linecap:butt;stroke-linejoin:miter;stroke-opacity:1" d="M 159.556,258.222 168.444,255.556 z" id="boundary" inkscape:connector-curvature="0" />
	<path style="fill:none;stroke:red;stroke-width:1px;stroke-linecap:butt;stroke-linejoin:miter;stroke-opacity:1" d="M 168.444,255.556 177.333,251.111 z" id="boundary" inkscape:connector-curvature="0" />
	<path style="fill:none;stroke:red;stroke-width:1px;stroke-linecap:butt;stroke-linejoin:miter;stroke-opacity:1" d="M 177.333,251.111 186.222,249.333 z" id="boundary" inkscape:connector-curvature="0" />
	<path style="fill:none;stroke:red;stroke-width:1px;stroke-linecap:butt;stroke-linejoin:miter;stroke-opacity:1" d="M 186.222,249.333 194.222,244.889 z" id="boundary" inkscape:connector-curvature="0" />
	<path style="fill:none;stroke:red;stroke-width:1px;stroke-linecap:butt;stroke-linejoin:miter;stroke-opacity:1" d="M 194.222,244.889 203.111,244.889 z" id="boundary" inkscape:connector-curvature="0" />
	<path style="fill:none;stroke:red;stroke-width:1px;stroke-linecap:butt;stroke-linejoin:miter;stroke-opacity:1" d="M 203.111,244.889 208.444,252 z" id="boundary" inkscape:connector-curvature="0" />
	<path style="fill:none;stroke:red;stroke-width:1px;stroke-linecap:butt;stroke-linejoin:miter;stroke-opacity:1" d="M 208.444,252 212.889,260 z" id="boundary" inkscape:connector-curvature="0" />
	<path style="fill:none;stroke:red;stroke-width:1px;stroke-linecap:butt;stroke-linejoin:miter;stroke-opacity:1" d="M 212.889,260 221.778,262.667 z" id="boundary" inkscape:connector-curvature="0" />
	<path style="fill:none;stroke:red;stroke-width:1px;stroke-linecap:butt;stroke-linejoin:miter;stroke-opacity:1" d="M 221.778,262.667 227.111,269.778 z" id="boundary" inkscape:connector-curvature="0" />
	<path style="fill:none;stroke:red;stroke-width:1px;stroke-linecap:butt;stroke-linejoin:miter;stroke-opacity:1" d="M 227.111,269.778 236,273.333 z" id="boundary" inkscape:connector-curvature="0" />
	<path style="fill:none;stroke:red;stroke-width:1px;stroke-linecap:butt;stroke-linejoin:miter;stroke-opacity:1" d="M 236,273.333 244.889,276 z" id="boundary" inkscape:connector-curvature="0" />
	<path style="fill:none;stroke:red;stroke-width:1px;stroke-linecap:butt;stroke-linejoin:miter;stroke-opacity:1" d="M 244.889,276 253.778,277.778 z" id="boundary" inkscape:connector-curvature="0" />
	<path style="fill:none;stroke:red;stroke-width:1px;stroke-linecap:butt;stroke-linejoin:miter;stroke-opacity:1" d="M 253.778,277.778 262.667,280.444 z" id="boundary" inkscape:connector-curvature="0" />
	<path style="fill:none;stroke:red;stroke-width:1px;stroke-linecap:butt;stroke-linejoin:miter;stroke-opacity:1" d="M 262.667,280.444 271.556,280.444 z" id="boundary" inkscape:connector-curvature="0" />
	<path style="fill:none;stroke:red;stroke-width:1px;stroke-linecap:butt;stroke-linejoin:miter;stroke-opacity:1" d="M 271.556,280.444 279.556,284.889 z" id="boundary" inkscape:connector-curvature="0" />
	<path style="fill:none;stroke:red;stroke-width:1px;stroke-linecap:butt;stroke-linejoin:miter;stroke-opacity:1" d="M 279.556,284.889 288.444,284.889 z" id="boundary" inkscape:connector-curvature="0" />
	<path style="fill:none;stroke:red;stroke-width:1px;stroke-linecap:butt;stroke-linejoin:miter;stroke-opacity:1" d="M 288.444,284.889 296.444,289.333 z" id="boundary" inkscape:connector-curvature="0" />
	<path style="fill:none;stroke:red;stroke-width:1px;stroke-linecap:butt;stroke-linejoin:miter;stroke-opacity:1" d="M 296.444,289.333 305.333,289.333 z" id="boundary" inkscape:connector-curvature="0" />
	<path style="fill:none;stroke:red;stroke-width:1px;stroke-linecap:butt;stroke-linejoin:miter;stroke-opacity:1" d="M 305.333,289.333 314.222,289.333 z" id="boundary" inkscape:connector-curvature="0" />
	<path style="fill:none;stroke:red;stroke-width:1px;stroke-linecap:butt;stroke-linejoin:miter;stroke-opacity:1" d="M 314.222,289.333 322.222,293.778 z" id="boundary" inkscape:connector-curvature="0" />
	<path style="fill:none;stroke:red;stroke-width:1px;stroke-linecap:butt;stroke-linejoin:miter;stroke-opacity:1" d="M 322.222,293.778 331.111,293.778 z" id="boundary" inkscape:connector-curvature="0" />
	<path style="fill:none;stroke:red;stroke-width:1px;stroke-linecap:butt;stroke-linejoin:miter;stroke-opacity:1" d="M 331.111,293.778 339.111,298.222 z" id="boundary" inkscape:connector-curvature="0" />
	<path style="fill:none;stroke:red;stroke-width:1px;stroke-linecap:butt;stroke-linejoin:miter;stroke-opacity:1" d="M 339.111,298.222 348,298.222 z" id="boundary" inkscape:connector-curvature="0" />
	<path style="fill:none;stroke:red;stroke-width:1px;stroke-linecap:butt;stroke-linejoin:miter;stroke-opacity:1" d="M 348,298.222 356.889,300.889 z" id="boundary" inkscape:connector-curvature="0" />
	<path style="fill:none;stroke:red;stroke-width:1px;stroke-linecap:butt;stroke-linejoin:miter;stroke-opacity:1" d="M 356.889,300.889 365.778,302.667 z" id="boundary" inkscape:connector-curvature="0" />
	<path style="fill:none;stroke:red;stroke-width:1px;stroke-linecap:butt;stroke-linejoin:miter;stroke-opacity:1" d="M 365.778,302.667 373.778,307.111 z" id="boundary" inkscape:connector-curvature="0" />
	<path style="fill:none;stroke:red;stroke-width:1px;stroke-linecap:butt;stroke-linejoin:miter;stroke-opacity:1" d="M 373.778,307.111 382.667,308.889 z" id="boundary" inkscape:connector-curvature="0" />
	<path style="fill:none;stroke:red;stroke-width:1px;stroke-linecap:butt;stroke-linejoin:miter;stroke-opacity:1" d="M 382.667,308.889 391.556,311.556 z" id="boundary" inkscape:connector-curvature="0" />
	<path style="fill:none;stroke:red;stroke-width:1px;stroke-linecap:butt;stroke-linejoin:miter;stroke-opacity:1" d="M 391.556,311.556 400.444,313.333 z" id="boundary" inkscape:connector-curvature="0" />
	<path style="fill:none;stroke:red;stroke-width:1px;stroke-linecap:butt;stroke-linejoin:miter;stroke-opacity:1" d="M 400.444,313.333 409.333,316 z" id="boundary" inkscape:connector-curvature="0" />
	<path style="fill:none;stroke:red;stroke-width:1px;stroke-linecap:butt;stroke-linejoin:miter;stroke-opacity:1" d="M 409.333,316 418.222,317.778 z" id="boundary" inkscape:connector-curvature="0" />
	<path style="fill:none;stroke:red;stroke-width:1px;stroke-linecap:butt;stroke-linejoin:miter;stroke-opacity:1" d="M 418.222,317.778 427.111,320.444 z" id="boundary" inkscape:connector-curvature="0" />
	<path style="fill:none;stroke:red;stroke-width:1px;stroke-linecap:butt;stroke-linejoin:miter;stroke-opacity:1" d="M 427.111,320.444 436,322.222 z" id="boundary" inkscape:connector-curvature="0" />
	<path style="fill:none;stroke:red;stroke-width:1px;stroke-linecap:butt;stroke-linejoin:miter;stroke-opacity:1" d="M 436,322.222 444.889,324.889 z" id="boundary" inkscape:connector-curvature="0" />
	<path style="fill:none;stroke:red;stroke-width:1px;stroke-linecap:butt;stroke-linejoin:miter;stroke-opacity:1" d="M 444.889,324.889 452.889,329.333 z" id="boundary" inkscape:connector-curvature="0" />
	<path style="fill:none;stroke:red;stroke-width:1px;stroke-linecap:butt;stroke-linejoin:miter;stroke-opacity:1" d="M 452.889,329.333 461.778,329.333 z" id="boundary" inkscape:connector-curvature="0" />
	<path style="fill:none;stroke:red;stroke-width:1px;stroke-linecap:butt;stroke-linejoin:miter;stroke-opacity:1" d="M 461.778,329.333 469.778,333.778 z" id="boundary" inkscape:connector-curvature="0" />
	<path style="fill:none;stroke:red;stroke-width:1px;stroke-linecap:butt;stroke-linejoin:miter;stroke-opacity:1" d="M 469.778,333.778 478.667,333.778 z" id="boundary" inkscape:connector-curvature="0" />
	<path style="fill:none;stroke:red;stroke-width:1px;stroke-linecap:butt;stroke-linejoin:miter;stroke-opacity:1" d="M 478.667,333.778 487.556,333.778 z" id="boundary" inkscape:connector-curvature="0" />
	<path style="fill:none;stroke:red;stroke-width:1px;stroke-linecap:butt;stroke-linejoin:miter;stroke-opacity:1" d="M 487.556,333.778 496.444,333.778 z" id="boundary" inkscape:connector-curvature="0" />
	<path style="fill:none;stroke:red;stroke-width:1px;stroke-linecap:butt;stroke-linejoin:miter;stroke-opacity:1" d="M 496.444,333.778 505.333,332 z" id="boundary" inkscape:connector-curvature="0" />
	<path style="fill:none;stroke:red;stroke-width:1px;stroke-linecap:butt;stroke-linejoin:miter;stroke-opacity:1" d="M 505.333,332 511.556,324.889 z" id="boundary" inkscape:connector-curvature="0" />
	<path style="fill:none;stroke:red;stroke-width:1px;stroke-linecap:butt;stroke-linejoin:miter;stroke-opacity:1" d="M 511.556,324.889 520.444,320.444 z" id="boundary" inkscape:connector-curvature="0" />
	<path style="fill:none;stroke:red;stroke-width:1px;stroke-linecap:butt;stroke-linejoin:miter;stroke-opacity:1" d="M 520.444,320.444 529.333,316 z" id="boundary" inkscape:connector-curvature="0" />
	<path style="fill:none;stroke:red;stroke-width:1px;stroke-linecap:butt;stroke-linejoin:miter;stroke-opacity:1" d="M 529.333,316 538.222,316 z" id="boundary" inkscape:connector-curvature="0" />
	<path style="fill:none;stroke:red;stroke-width:1px;stroke-linecap:butt;stroke-linejoin:miter;stroke-opacity:1" d="M 538.222,316 547.111,316 z" id="boundary" inkscape:connector-curvature="0" />
	<path style="fill:none;stroke:red;stroke-width:1px;stroke-linecap:butt;stroke-linejoin:miter;stroke-opacity:1" d="M 547.111,316 556,316 z" id="boundary" inkscape:connector-curvature="0" />
	<path style="fill:none;stroke:red;stroke-width:1px;stroke-linecap:butt;stroke-linejoin:miter;stroke-opacity:1" d="M 556,316 564,311.556 z" id="boundary" inkscape:connector-curvature="0" />
	<path style="fill:none;stroke:red;stroke-width:1px;stroke-linecap:butt;stroke-linejoin:miter;stroke-opacity:1" d="M 564,311.556 572.889,308.889 z" id="boundary" inkscape:connector-curvature="0" />
	<path style="fill:none;stroke:red;stroke-width:1px;stroke-linecap:butt;stroke-linejoin:miter;stroke-opacity:1" d="M 572.889,308.889 581.778,304.444 z" id="boundary" inkscape:connector-curvature="0" />
	<path style="fill:none;stroke:red;stroke-width:1px;stroke-linecap:butt;stroke-linejoin:miter;stroke-opacity:1" d="M 581.778,304.444 588.889,298.222 z" id="boundary" inkscape:connector-curvature="0" />
	<path style="fill:none;stroke:red;stroke-width:1px;stroke-linecap:butt;stroke-linejoin:miter;stroke-opacity:1" d="M 588.889,298.222 596.889,293.778 z" id="boundary" inkscape:connector-curvature="0" />
	<path style="fill:none;stroke:red;stroke-width:1px;stroke-linecap:butt;stroke-linejoin:miter;stroke-opacity:1" d="M 596.889,293.778 604.889,289.333 z" id="boundary" inkscape:connector-curvature="0" />
	<path style="fill:none;stroke:red;stroke-width:1px;stroke-linecap:butt;stroke-linejoin:miter;stroke-opacity:1" d="M 604.889,289.333 612.889,293.778 z" id="boundary" inkscape:connector-curvature="0" />
	<path style="fill:none;stroke:red;stroke-width:1px;stroke-linecap:butt;stroke-linejoin:miter;stroke-opacity:1" d="M 612.889,293.778 621.778,293.778 z" id="boundary" inkscape:connector-curvature="0" />
	<path style="fill:none;stroke:red;stroke-width:1px;stroke-linecap:butt;stroke-linejoin:miter;stroke-opacity:1" d="M 621.778,293.778 629.778,298.222 z" id="boundary" inkscape:connector-curvature="0" />
	<path style="fill:none;stroke:red;stroke-width:1px;stroke-linecap:butt;stroke-linejoin:miter;stroke-opacity:1" d="M 629.778,298.222 638.667,298.222 z" id="boundary" inkscape:connector-curvature="0" />
	<path style="fill:none;stroke:red;stroke-width:1px;stroke-linecap:butt;stroke-linejoin:miter;stroke-opacity:1" d="M 638.667,298.222 647.556,298.222 z" id="boundary" inkscape:connector-curvature="0" />
	<path style="fill:none;stroke:red;stroke-width:1px;stroke-linecap:butt;stroke-linejoin:miter;stroke-opacity:1" d="M 647.556,298.222 656.444,298.222 z" id="boundary" inkscape:connector-curvature="0" />
	<path style="fill:none;stroke:red;stroke-width:1px;stroke-linecap:butt;stroke-linejoin:miter;stroke-opacity:1" d="M 656.444,298.222 665.333,298.222 z" id="boundary" inkscape:connector-curvature="0" />
	<path style="fill:none;stroke:red;stroke-width:1px;stroke-linecap:butt;stroke-linejoin:miter;stroke-opacity:1" d="M 665.333,298.222 674.222,298.222 z" id="boundary" inkscape:connector-curvature="0" />
	<path style="fill:none;stroke:red;stroke-width:1px;stroke-linecap:butt;stroke-linejoin:miter;stroke-opacity:1" d="M 674.222,298.222 683.111,298.222 z" id="boundary" inkscape:connector-curvature="0" />
	<path style="fill:none;stroke:red;stroke-width:1px;stroke-linecap:butt;stroke-linejoin:miter;stroke-opacity:1" d="M 683.111,298.222 692,298.222 z" id="boundary" inkscape:connector-curvature="0" />
	<path style="fill:none;stroke:red;stroke-width:1px;stroke-linecap:butt;stroke-linejoin:miter;stroke-opacity:1" d="M 692,298.222 700.889,298.222 z" id="boundary" inkscape:connector-curvature="0" />
	<path style="fill:none;stroke:red;stroke-width:1px;stroke-linecap:butt;stroke-linejoin:miter;stroke-opacity:1" d="M 700.889,298.222 708.889,302.667 z" id="boundary" inkscape:connector-curvature="0" />
	<path style="fill:none;stroke:red;stroke-width:1px;stroke-linecap:butt;stroke-linejoin:miter;stroke-opacity:1" d="M 708.889,302.667 717.778,306.222 z" id="boundary" inkscape:connector-curvature="0" />
	<path style="fill:none;stroke:red;stroke-width:1px;stroke-linecap:butt;stroke-linejoin:miter;stroke-opacity:1" d="M 717.778,306.222 726.667,307.111 z" id="boundary" inkscape:connector-curvature="0" />
	<path style="fill:none;stroke:red;stroke-width:1px;stroke-linecap:butt;stroke-linejoin:miter;stroke-opacity:1" d="M 726.667,307.111 735.556,307.111 z" id="boundary" inkscape:connector-curvature="0" />
	<path style="fill:none;stroke:red;stroke-width:1px;stroke-linecap:butt;stroke-linejoin:miter;stroke-opacity:1" d="M 735.556,307.111 743.556,302.667 z" id="boundary" inkscape:connector-curvature="0" />
	<path style="fill:none;stroke:red;stroke-width:1px;stroke-linecap:butt;stroke-linejoin:miter;stroke-opacity:1" d="M 743.556,302.667 752.444,302.667 z" id="boundary" inkscape:connector-curvature="0" />
	<path style="fill:none;stroke:red;stroke-width:1px;stroke-linecap:butt;stroke-linejoin:miter;stroke-opacity:1" d="M 752.444,302.667 760.444,298.222 z" id="boundary" inkscape:connector-curvature="0" />
	<path style="fill:none;stroke:red;stroke-width:1px;stroke-linecap:butt;stroke-linejoin:miter;stroke-opacity:1" d="M 760.444,298.222 769.333,298.222 z" id="boundary" inkscape:connector-curvature="0" />
	<path style="fill:none;stroke:red;stroke-width:1px;stroke-linecap:butt;stroke-linejoin:miter;stroke-opacity:1" d="M 769.333,298.222 777.333,293.778 z" id="boundary" inkscape:connector-curvature="0" />
	<path style="fill:none;stroke:red;stroke-width:1px;stroke-linecap:butt;stroke-linejoin:miter;stroke-opacity:1" d="M 777.333,293.778 786.222,293.778 z" id="boundary" inkscape:connector-curvature="0" />
	<path style="fill:none;stroke:red;stroke-width:1px;stroke-linecap:butt;stroke-linejoin:miter;stroke-opacity:1" d="M 786.222,293.778 795.111,293.778 z" id="boundary" inkscape:connector-curvature="0" />
	<path style="fill:none;stroke:red;stroke-width:1px;stroke-linecap:butt;stroke-linejoin:miter;stroke-opacity:1" d="M 795.111,293.778 804,293.778 z" id="boundary" inkscape:connector-curvature="0" />
	<path style="fill:none;stroke:red;stroke-width:1px;stroke-linecap:butt;stroke-linejoin:miter;stroke-opacity:1" d="M 804,293.778 812.889,293.778 z" id="boundary" inkscape:connector-curvature="0" />
	<path style="fill:none;stroke:red;stroke-width:1px;stroke-linecap:butt;stroke-linejoin:miter;stroke-opacity:1" d="M 812.889,293.778 813.778,303.556 z" id="boundary" inkscape:connector-curvature="0" />
	<path style="fill:none;stroke:red;stroke-width:1px;stroke-linecap:butt;stroke-linejoin:miter;stroke-opacity:1" d="M 813.778,303.556 809.333,312.444 z" id="boundary" inkscape:connector-curvature="0" />
	<path style="fill:none;stroke:red;stroke-width:1px;stroke-linecap:butt;stroke-linejoin:miter;stroke-opacity:1" d="M 809.333,312.444 802.222,319.556 z" id="boundary" inkscape:connector-curvature="0" />
	<path style="fill:none;stroke:red;stroke-width:1px;stroke-linecap:butt;stroke-linejoin:miter;stroke-opacity:1" d="M 802.222,319.556 795.111,326.667 z" id="boundary" inkscape:connector-curvature="0" />
	<path style="fill:none;stroke:red;stroke-width:1px;stroke-linecap:butt;stroke-linejoin:miter;stroke-opacity:1" d="M 795.111,326.667 787.111,334.667 z" id="boundary" inkscape:connector-curvature="0" />
	<path style="fill:none;stroke:red;stroke-width:1px;stroke-linecap:butt;stroke-linejoin:miter;stroke-opacity:1" d="M 787.111,334.667 778.222,339.111 z" id="boundary" inkscape:connector-curvature="0" />
	<path style="fill:none;stroke:red;stroke-width:1px;stroke-linecap:butt;stroke-linejoin:miter;stroke-opacity:1" d="M 778.222,339.111 784.444,346.222 z" id="boundary" inkscape:connector-curvature="0" />
	<path style="fill:none;stroke:red;stroke-width:1px;stroke-linecap:butt;stroke-linejoin:miter;stroke-opacity:1" d="M 784.444,346.222 793.333,342.667 z" id="boundary" inkscape:connector-curvature="0" />
	<path style="fill:none;stroke:red;stroke-width:1px;stroke-linecap:butt;stroke-linejoin:miter;stroke-opacity:1" d="M 793.333,342.667 795.111,351.556 z" id="boundary" inkscape:connector-curvature="0" />
	<path style="fill:none;stroke:red;stroke-width:1px;stroke-linecap:butt;stroke-linejoin:miter;stroke-opacity:1" d="M 795.111,351.556 804,353.333 z" id="boundary" inkscape:connector-curvature="0" />
	<path style="fill:none;stroke:red;stroke-width:1px;stroke-linecap:butt;stroke-linejoin:miter;stroke-opacity:1" d="M 804,353.333 811.111,346.222 z" id="boundary" inkscape:connector-curvature="0" />
	<path style="fill:none;stroke:red;stroke-width:1px;stroke-linecap:butt;stroke-linejoin:miter;stroke-opacity:1" d="M 811.111,346.222 818.222,338.222 z" id="boundary" inkscape:connector-curvature="0" />
	<path style="fill:none;stroke:red;stroke-width:1px;stroke-linecap:butt;stroke-linejoin:miter;stroke-opacity:1" d="M 818.222,338.222 822.667,329.333 z" id="boundary" inkscape:connector-curvature="0" />
	<path style="fill:none;stroke:red;stroke-width:1px;stroke-linecap:butt;stroke-linejoin:miter;stroke-opacity:1" d="M 822.667,329.333 827.111,320.444 z" id="boundary" inkscape:connector-curvature="0" />
	<path style="fill:none;stroke:red;stroke-width:1px;stroke-linecap:butt;stroke-linejoin:miter;stroke-opacity:1" d="M 827.111,320.444 834.222,314.222 z" id="boundary" inkscape:connector-curvature="0" />
	<path style="fill:none;stroke:red;stroke-width:1px;stroke-linecap:butt;stroke-linejoin:miter;stroke-opacity:1" d="M 834.222,314.222 836,302.667 z" id="boundary" inkscape:connector-curvature="0" />
	<path style="fill:none;stroke:red;stroke-width:1px;stroke-linecap:butt;stroke-linejoin:miter;stroke-opacity:1" d="M 836,302.667 840.444,293.778 z" id="boundary" inkscape:connector-curvature="0" />
	<path style="fill:none;stroke:red;stroke-width:1px;stroke-linecap:butt;stroke-linejoin:miter;stroke-opacity:1" d="M 840.444,293.778 849.333,293.778 z" id="boundary" inkscape:connector-curvature="0" />
	<path style="fill:none;stroke:red;stroke-width:1px;stroke-linecap:butt;stroke-linejoin:miter;stroke-opacity:1" d="M 849.333,293.778 858.222,293.778 z" id="boundary" inkscape:connector-curvature="0" />
	<path style="fill:none;stroke:red;stroke-width:1px;stroke-linecap:butt;stroke-linejoin:miter;stroke-opacity:1" d="M 858.222,293.778 867.111,289.333 z" id="boundary" inkscape:connector-curvature="0" />
	<path style="fill:none;stroke:red;stroke-width:1px;stroke-linecap:butt;stroke-linejoin:miter;stroke-opacity:1" d="M 867.111,289.333 876,289.333 z" id="boundary" inkscape:connector-curvature="0" />
	<path style="fill:none;stroke:red;stroke-width:1px;stroke-linecap:butt;stroke-linejoin:miter;stroke-opacity:1" d="M 876,289.333 884,293.778 z" id="boundary" inkscape:connector-curvature="0" />
	<path style="fill:none;stroke:red;stroke-width:1px;stroke-linecap:butt;stroke-linejoin:miter;stroke-opacity:1" d="M 884,293.778 892,298.222 z" id="boundary" inkscape:connector-curvature="0" />
	<path style="fill:none;stroke:red;stroke-width:1px;stroke-linecap:butt;stroke-linejoin:miter;stroke-opacity:1" d="M 892,298.222 899.111,292.889 z" id="boundary" inkscape:connector-curvature="0" />
	<path style="fill:none;stroke:red;stroke-width:1px;stroke-linecap:butt;stroke-linejoin:miter;stroke-opacity:1" d="M 899.111,292.889 903.556,300.889 z" id="boundary" inkscape:connector-curvature="0" />
	<path style="fill:none;stroke:red;stroke-width:1px;stroke-linecap:butt;stroke-linejoin:miter;stroke-opacity:1" d="M 903.556,300.889 910.667,307.111 z" id="boundary" inkscape:connector-curvature="0" />
	<path style="fill:none;stroke:red;stroke-width:1px;stroke-linecap:butt;stroke-linejoin:miter;stroke-opacity:1" d="M 910.667,307.111 918.667,311.556 z" id="boundary" inkscape:connector-curvature="0" />
	<path style="fill:none;stroke:red;stroke-width:1px;stroke-linecap:butt;stroke-linejoin:miter;stroke-opacity:1" d="M 918.667,311.556 912.444,319.556 z" id="boundary" inkscape:connector-curvature="0" />
	<path style="fill:none;stroke:red;stroke-width:1px;stroke-linecap:butt;stroke-linejoin:miter;stroke-opacity:1" d="M 912.444,319.556 904.444,315.111 z" id="boundary" inkscape:connector-curvature="0" />
	<path style="fill:none;stroke:red;stroke-width:1px;stroke-linecap:butt;stroke-linejoin:miter;stroke-opacity:1" d="M 904.444,315.111 895.556,316 z" id="boundary" inkscape:connector-curvature="0" />
	<path style="fill:none;stroke:red;stroke-width:1px;stroke-linecap:butt;stroke-linejoin:miter;stroke-opacity:1" d="M 895.556,316 900,324 z" id="boundary" inkscape:connector-curvature="0" />
	<path style="fill:none;stroke:red;stroke-width:1px;stroke-linecap:butt;stroke-linejoin:miter;stroke-opacity:1" d="M 991.556,231.556 987.111,244.889 z" id="boundary" inkscape:connector-curvature="0" />
	<path style="fill:none;stroke:red;stroke-width:1px;stroke-linecap:butt;stroke-linejoin:miter;stroke-opacity:1" d="M 987.111,244.889 978.222,249.333 z" id="boundary" inkscape:connector-curvature="0" />
	<path style="fill:none;stroke:red;stroke-width:1px;stroke-linecap:butt;stroke-linejoin:miter;stroke-opacity:1" d="M 978.222,249.333 971.111,257.333 z" id="boundary" inkscape:connector-curvature="0" />
	<path style="fill:none;stroke:red;stroke-width:1px;stroke-linecap:butt;stroke-linejoin:miter;stroke-opacity:1" d="M 971.111,257.333 962.222,261.778 z" id="boundary" inkscape:connector-curvature="0" />
	<path style="fill:none;stroke:red;stroke-width:1px;stroke-linecap:butt;stroke-linejoin:miter;stroke-opacity:1" d="M 962.222,261.778 953.333,266.222 z" id="boundary" inkscape:connector-curvature="0" />
	<path style="fill:none;stroke:red;stroke-width:1px;stroke-linecap:butt;stroke-linejoin:miter;stroke-opacity:1" d="M 953.333,266.222 945.333,271.556 z" id="boundary" inkscape:connector-curvature="0" />
	<path style="fill:none;stroke:red;stroke-width:1px;stroke-linecap:butt;stroke-linejoin:miter;stroke-opacity:1" d="M 945.333,271.556 937.333,276 z" id="boundary" inkscape:connector-curvature="0" />
	<path style="fill:none;stroke:red;stroke-width:1px;stroke-linecap:butt;stroke-linejoin:miter;stroke-opacity:1" d="M 937.333,276 928.444,276 z" id="boundary" inkscape:connector-curvature="0" />
	<path style="fill:none;stroke:red;stroke-width:1px;stroke-linecap:butt;stroke-linejoin:miter;stroke-opacity:1" d="M 928.444,276 920.444,280.444 z" id="boundary" inkscape:connector-curvature="0" />
	<path style="fill:none;stroke:red;stroke-width:1px;stroke-linecap:butt;stroke-linejoin:miter;stroke-opacity:1" d="M 920.444,280.444 911.556,280.444 z" id="boundary" inkscape:connector-curvature="0" />
	<path style="fill:none;stroke:red;stroke-width:1px;stroke-linecap:butt;stroke-linejoin:miter;stroke-opacity:1" d="M 911.556,280.444 903.556,284.889 z" id="boundary" inkscape:connector-curvature="0" />
	<path style="fill:none;stroke:red;stroke-width:1px;stroke-linecap:butt;stroke-linejoin:miter;stroke-opacity:1" d="M 903.556,284.889 893.778,284.889 z" id="boundary" inkscape:connector-curvature="0" />
	<path style="fill:none;stroke:red;stroke-width:1px;stroke-linecap:butt;stroke-linejoin:miter;stroke-opacity:1" d="M 893.778,284.889 871.556,89.3333 z" id="boundary" inkscape:connector-curvature="0" />
	<path style="fill:none;stroke:red;stroke-width:1px;stroke-linecap:butt;stroke-linejoin:miter;stroke-opacity:1" d="M 762.222,364.889 770.222,360.444 z" id="boundary" inkscape:connector-curvature="0" />
	<path style="fill:none;stroke:red;stroke-width:1px;stroke-linecap:butt;stroke-linejoin:miter;stroke-opacity:1" d="M 770.222,360.444 764,353.333 z" id="boundary" inkscape:connector-curvature="0" />
	<path style="fill:none;stroke:red;stroke-width:1px;stroke-linecap:butt;stroke-linejoin:miter;stroke-opacity:1" d="M 762.222,364.889 753.333,368.444 z" id="boundary" inkscape:connector-curvature="0" />
	<path style="fill:none;stroke:red;stroke-width:1px;stroke-linecap:butt;stroke-linejoin:miter;stroke-opacity:1" d="M 753.333,368.444 746.222,362.222 z" id="boundary" inkscape:connector-curvature="0" />
	<path style="fill:none;stroke:red;stroke-width:1px;stroke-linecap:butt;stroke-linejoin:miter;stroke-opacity:1" d="M 764,353.333 755.111,357.778 z" id="boundary" inkscape:connector-curvature="0" />
	<path style="fill:none;stroke:red;stroke-width:1px;stroke-linecap:butt;stroke-linejoin:miter;stroke-opacity:1" d="M 746.222,362.222 755.111,357.778 z" id="boundary" inkscape:connector-curvature="0" />
	<path style="fill:none;stroke:red;stroke-width:1px;stroke-linecap:butt;stroke-linejoin:miter;stroke-opacity:1" d="M 777.333,353.333 771.111,346.222 z" id="boundary" inkscape:connector-curvature="0" />
	<circle cx="4" cy="166.667" r="4" fill="#0" id="circle0"/>
	<circle cx="4" cy="175.556" r="4" fill="#0" id="circle1"/>
	<circle cx="4" cy="184.444" r="4" fill="#0" id="circle2"/>
	<circle cx="4" cy="193.333" r="4" fill="#0" id="circle3"/>
	<circle cx="4" cy="202.222" r="4" fill="#0" id="circle4"/>
	<circle cx="4" cy="211.111" r="4" fill="#0" id="circle5"/>
	<circle cx="4" cy="220" r="4" fill="#0" id="circle6"/>
	<circle cx="4" cy="228.889" r="4" fill="#0" id="circle7"/>
	<circle cx="4" cy="237.778" r="4" fill="#0" id="circle8"/>
	<circle cx="8.44444" cy="153.333" r="4" fill="#0" id="circle9"/>
	<circle cx="8.44444" cy="245.778" r="4" fill="#0" id="circle10"/>
	<circle cx="8.44444" cy="254.667" r="4" fill="#0" id="circle11"/>
	<circle cx="12.8889" cy="144.444" r="4" fill="#0" id="circle12"/>
	<circle cx="12.8889" cy="262.667" r="4" fill="#0" id="circle13"/>
	<circle cx="17.3333" cy="135.556" r="4" fill="#0" id="circle14"/>
	<circle cx="18.2222" cy="269.778" r="4" fill="#0" id="circle15"/>
	<circle cx="21.7778" cy="126.667" r="4" fill="#0" id="circle16"/>
	<circle cx="22.6667" cy="277.778" r="4" fill="#0" id="circle17"/>
	<circle cx="30.6667" cy="122.222" r="4" fill="#0" id="circle18"/>
	<circle cx="30.6667" cy="282.222" r="4" fill="#0" id="circle19"/>
	<circle cx="39.5556" cy="119.556" r="4" fill="#0" id="circle20"/>
	<circle cx="39.5556" cy="284.889" r="4" fill="#0" id="circle21"/>
	<circle cx="47.5556" cy="289.333" r="4" fill="#0" id="circle22"/>
	<circle cx="48.4444" cy="119.556" r="4" fill="#0" id="circle23"/>
	<circle cx="56.4444" cy="289.333" r="4" fill="#0" id="circle24"/>
	<circle cx="57.3333" cy="119.556" r="4" fill="#0" id="circle25"/>
	<circle cx="65.3333" cy="124" r="4" fill="#0" id="circle26"/>
	<circle cx="65.3333" cy="289.333" r="4" fill="#0" id="circle27"/>
	<circle cx="74.2222" cy="124.889" r="4" fill="#0" id="circle28"/>
	<circle cx="74.2222" cy="287.556" r="4" fill="#0" id="circle29"/>
	<circle cx="82.2222" cy="129.333" r="4" fill="#0" id="circle30"/>
	<circle cx="83.1111" cy="284.889" r="4" fill="#0" id="circle31"/>
	<circle cx="91.1111" cy="132.889" r="4" fill="#0" id="circle32"/>
	<circle cx="91.1111" cy="280.444" r="4" fill="#0" id="circle33"/>
	<circle cx="99.1111" cy="137.333" r="4" fill="#0" id="circle34"/>
	<circle cx="100" cy="280.444" r="4" fill="#0" id="circle35"/>
	<circle cx="107.111" cy="141.778" r="4" fill="#0" id="circle36"/>
	<circle cx="108.889" cy="279.556" r="4" fill="#0" id="circle37"/>
	<circle cx="116" cy="141.778" r="4" fill="#0" id="circle38"/>
	<circle cx="117.778" cy="276" r="4" fill="#0" id="circle39"/>
	<circle cx="124.889" cy="144.444" r="4" fill="#0" id="circle40"/>
	<circle cx="126.667" cy="275.111" r="4" fill="#0" id="circle41"/>
	<circle cx="133.778" cy="146.222" r="4" fill="#0" id="circle42"/>
	<circle cx="135.556" cy="271.556" r="4" fill="#0" id="circle43"/>
	<circle cx="141.778" cy="150.667" r="4" fill="#0" id="circle44"/>
	<circle cx="143.556" cy="267.111" r="4" fill="#0" id="circle45"/>
	<circle cx="148.889" cy="156" r="4" fill="#0" id="circle46"/>
	<circle cx="151.556" cy="262.667" r="4" fill="#0" id="circle47"/>
	<circle cx="157.778" cy="159.556" r="4" fill="#0" id="circle48"/>
	<circle cx="159.556" cy="258.222" r="4" fill="#0" id="circle49"/>
	<circle cx="166.667" cy="159.556" r="4" fill="#0" id="circle50"/>
	<circle cx="168.444" cy="255.556" r="4" fill="#0" id="circle51"/>
	<circle cx="174.667" cy="164" r="4" fill="#0" id="circle52"/>
	<circle cx="177.333" cy="251.111" r="4" fill="#0" id="circle53"/>
	<circle cx="183.556" cy="164" r="4" fill="#0" id="circle54"/>
	<circle cx="186.222" cy="249.333" r="4" fill="#0" id="circle55"/>
	<circle cx="190.667" cy="140" r="4" fill="#0" id="circle56"/>
	<circle cx="190.667" cy="148.889" r="4" fill="#0" id="circle57"/>
	<circle cx="190.667" cy="157.778" r="4" fill="#0" id="circle58"/>
	<circle cx="191.556" cy="168.444" r="4" fill="#0" id="circle59"/>
	<circle cx="194.222" cy="244.889" r="4" fill="#0" id="circle60"/>
	<circle cx="197.778" cy="132.889" r="4" fill="#0" id="circle61"/>
	<circle cx="203.111" cy="244.889" r="4" fill="#0" id="circle62"/>
	<circle cx="204.889" cy="125.778" r="4" fill="#0" id="circle63"/>
	<circle cx="208.444" cy="252" r="4" fill="#0" id="circle64"/>
	<circle cx="212" cy="119.556" r="4" fill="#0" id="circle65"/>
	<circle cx="212.889" cy="260" r="4" fill="#0" id="circle66"/>
	<circle cx="220" cy="115.111" r="4" fill="#0" id="circle67"/>
	<circle cx="221.778" cy="262.667" r="4" fill="#0" id="circle68"/>
	<circle cx="227.111" cy="269.778" r="4" fill="#0" id="circle69"/>
	<circle cx="228.889" cy="115.111" r="4" fill="#0" id="circle70"/>
	<circle cx="236" cy="108" r="4" fill="#0" id="circle71"/>
	<circle cx="236" cy="273.333" r="4" fill="#0" id="circle72"/>
	<circle cx="243.111" cy="101.778" r="4" fill="#0" id="circle73"/>
	<circle cx="244.889" cy="276" r="4" fill="#0" id="circle74"/>
	<circle cx="252" cy="101.778" r="4" fill="#0" id="circle75"/>
	<circle cx="253.778" cy="277.778" r="4" fill="#0" id="circle76"/>
	<circle cx="260" cy="97.3333" r="4" fill="#0" id="circle77"/>
	<circle cx="262.667" cy="280.444" r="4" fill="#0" id="circle78"/>
	<circle cx="268.889" cy="97.3333" r="4" fill="#0" id="circle79"/>
	<circle cx="271.556" cy="280.444" r="4" fill="#0" id="circle80"/>
	<circle cx="276.889" cy="92.8889" r="4" fill="#0" id="circle81"/>
	<circle cx="279.556" cy="284.889" r="4" fill="#0" id="circle82"/>
	<circle cx="285.778" cy="92.8889" r="4" fill="#0" id="circle83"/>
	<circle cx="288.444" cy="284.889" r="4" fill="#0" id="circle84"/>
	<circle cx="293.778" cy="88.4444" r="4" fill="#0" id="circle85"/>
	<circle cx="296.444" cy="289.333" r="4" fill="#0" id="circle86"/>
	<circle cx="301.778" cy="84" r="4" fill="#0" id="circle87"/>
	<circle cx="305.333" cy="289.333" r="4" fill="#0" id="circle88"/>
	<circle cx="309.778" cy="79.5556" r="4" fill="#0" id="circle89"/>
	<circle cx="314.222" cy="289.333" r="4" fill="#0" id="circle90"/>
	<circle cx="318.667" cy="79.5556" r="4" fill="#0" id="circle91"/>
	<circle cx="322.222" cy="293.778" r="4" fill="#0" id="circle92"/>
	<circle cx="327.556" cy="79.5556" r="4" fill="#0" id="circle93"/>
	<circle cx="331.111" cy="293.778" r="4" fill="#0" id="circle94"/>
	<circle cx="335.556" cy="75.1111" r="4" fill="#0" id="circle95"/>
	<circle cx="339.111" cy="298.222" r="4" fill="#0" id="circle96"/>
	<circle cx="344.444" cy="75.1111" r="4" fill="#0" id="circle97"/>
	<circle cx="348" cy="298.222" r="4" fill="#0" id="circle98"/>
	<circle cx="353.333" cy="75.1111" r="4" fill="#0" id="circle99"/>
	<circle cx="356.889" cy="300.889" r="4" fill="#0" id="circle100"/>
	<circle cx="361.333" cy="70.6667" r="4" fill="#0" id="circle101"/>
	<circle cx="365.778" cy="302.667" r="4" fill="#0" id="circle102"/>
	<circle cx="370.222" cy="70.6667" r="4" fill="#0" id="circle103"/>
	<circle cx="373.778" cy="307.111" r="4" fill="#0" id="circle104"/>
	<circle cx="379.111" cy="70.6667" r="4" fill="#0" id="circle105"/>
	<circle cx="382.667" cy="308.889" r="4" fill="#0" id="circle106"/>
	<circle cx="387.111" cy="66.2222" r="4" fill="#0" id="circle107"/>
	<circle cx="391.556" cy="311.556" r="4" fill="#0" id="circle108"/>
	<circle cx="396" cy="66.2222" r="4" fill="#0" id="circle109"/>
	<circle cx="400.444" cy="313.333" r="4" fill="#0" id="circle110"/>
	<circle cx="404" cy="61.7778" r="4" fill="#0" id="circle111"/>
	<circle cx="409.333" cy="316" r="4" fill="#0" id="circle112"/>
	<circle cx="412.889" cy="61.7778" r="4" fill="#0" id="circle113"/>
	<circle cx="418.222" cy="317.778" r="4" fill="#0" id="circle114"/>
	<circle cx="421.778" cy="61.7778" r="4" fill="#0" id="circle115"/>
	<circle cx="427.111" cy="320.444" r="4" fill="#0" id="circle116"/>
	<circle cx="430.667" cy="61.7778" r="4" fill="#0" id="circle117"/>
	<circle cx="436" cy="322.222" r="4" fill="#0" id="circle118"/>
	<circle cx="439.556" cy="61.7778" r="4" fill="#0" id="circle119"/>
	<circle cx="444.889" cy="324.889" r="4" fill="#0" id="circle120"/>
	<circle cx="448.444" cy="61.7778" r="4" fill="#0" id="circle121"/>
	<circle cx="452.889" cy="329.333" r="4" fill="#0" id="circle122"/>
	<circle cx="457.333" cy="61.7778" r="4" fill="#0" id="circle123"/>
	<circle cx="461.778" cy="329.333" r="4" fill="#0" id="circle124"/>
	<circle cx="466.222" cy="63.5556" r="4" fill="#0" id="circle125"/>
	<circle cx="469.778" cy="333.778" r="4" fill="#0" id="circle126"/>
	<circle cx="471.556" cy="70.6667" r="4" fill="#0" id="circle127"/>
	<circle cx="478.667" cy="333.778" r="4" fill="#0" id="circle128"/>
	<circle cx="480.444" cy="70.6667" r="4" fill="#0" id="circle129"/>
	<circle cx="487.556" cy="333.778" r="4" fill="#0" id="circle130"/>
	<circle cx="488.444" cy="75.1111" r="4" fill="#0" id="circle131"/>
	<circle cx="493.778" cy="68" r="4" fill="#0" id="circle132"/>
	<circle cx="496.444" cy="333.778" r="4" fill="#0" id="circle133"/>
	<circle cx="498.222" cy="59.1111" r="4" fill="#0" id="circle134"/>
	<circle cx="505.333" cy="52.8889" r="4" fill="#0" id="circle135"/>
	<circle cx="505.333" cy="332" r="4" fill="#0" id="circle136"/>
	<circle cx="511.556" cy="324.889" r="4" fill="#0" id="circle137"/>
	<circle cx="513.333" cy="48.4444" r="4" fill="#0" id="circle138"/>
	<circle cx="520.444" cy="320.444" r="4" fill="#0" id="circle139"/>
	<circle cx="522.222" cy="44" r="4" fill="#0" id="circle140"/>
	<circle cx="529.333" cy="316" r="4" fill="#0" id="circle141"/>
	<circle cx="531.111" cy="39.5556" r="4" fill="#0" id="circle142"/>
	<circle cx="538.222" cy="316" r="4" fill="#0" id="circle143"/>
	<circle cx="540" cy="39.5556" r="4" fill="#0" id="circle144"/>
	<circle cx="547.111" cy="316" r="4" fill="#0" id="circle145"/>
	<circle cx="548" cy="35.1111" r="4" fill="#0" id="circle146"/>
	<circle cx="556" cy="316" r="4" fill="#0" id="circle147"/>
	<circle cx="556.889" cy="35.1111" r="4" fill="#0" id="circle148"/>
	<circle cx="564" cy="311.556" r="4" fill="#0" id="circle149"/>
	<circle cx="565.778" cy="31.5556" r="4" fill="#0" id="circle150"/>
	<circle cx="572.889" cy="308.889" r="4" fill="#0" id="circle151"/>
	<circle cx="574.667" cy="30.6667" r="4" fill="#0" id="circle152"/>
	<circle cx="581.778" cy="304.444" r="4" fill="#0" id="circle153"/>
	<circle cx="583.556" cy="30.6667" r="4" fill="#0" id="circle154"/>
	<circle cx="588.889" cy="298.222" r="4" fill="#0" id="circle155"/>
	<circle cx="592.444" cy="30.6667" r="4" fill="#0" id="circle156"/>
	<circle cx="596.889" cy="293.778" r="4" fill="#0" id="circle157"/>
	<circle cx="601.333" cy="27.1111" r="4" fill="#0" id="circle158"/>
	<circle cx="604.889" cy="289.333" r="4" fill="#0" id="circle159"/>
	<circle cx="610.222" cy="26.2222" r="4" fill="#0" id="circle160"/>
	<circle cx="612.889" cy="293.778" r="4" fill="#0" id="circle161"/>
	<circle cx="619.111" cy="26.2222" r="4" fill="#0" id="circle162"/>
	<circle cx="621.778" cy="293.778" r="4" fill="#0" id="circle163"/>
	<circle cx="628" cy="26.2222" r="4" fill="#0" id="circle164"/>
	<circle cx="629.778" cy="298.222" r="4" fill="#0" id="circle165"/>
	<circle cx="636.889" cy="26.2222" r="4" fill="#0" id="circle166"/>
	<circle cx="638.667" cy="298.222" r="4" fill="#0" id="circle167"/>
	<circle cx="645.778" cy="22.6667" r="4" fill="#0" id="circle168"/>
	<circle cx="647.556" cy="298.222" r="4" fill="#0" id="circle169"/>
	<circle cx="654.667" cy="21.7778" r="4" fill="#0" id="circle170"/>
	<circle cx="656.444" cy="298.222" r="4" fill="#0" id="circle171"/>
	<circle cx="663.556" cy="21.7778" r="4" fill="#0" id="circle172"/>
	<circle cx="665.333" cy="298.222" r="4" fill="#0" id="circle173"/>
	<circle cx="671.556" cy="17.3333" r="4" fill="#0" id="circle174"/>
	<circle cx="674.222" cy="298.222" r="4" fill="#0" id="circle175"/>
	<circle cx="680.444" cy="17.3333" r="4" fill="#0" id="circle176"/>
	<circle cx="683.111" cy="298.222" r="4" fill="#0" id="circle177"/>
	<circle cx="688.444" cy="12.8889" r="4" fill="#0" id="circle178"/>
	<circle cx="692" cy="298.222" r="4" fill="#0" id="circle179"/>
	<circle cx="697.333" cy="12.8889" r="4" fill="#0" id="circle180"/>
	<circle cx="700.889" cy="298.222" r="4" fill="#0" id="circle181"/>
	<circle cx="706.222" cy="12.8889" r="4" fill="#0" id="circle182"/>
	<circle cx="708.889" cy="302.667" r="4" fill="#0" id="circle183"/>
	<circle cx="715.111" cy="11.1111" r="4" fill="#0" id="circle184"/>
	<circle cx="717.778" cy="306.222" r="4" fill="#0" id="circle185"/>
	<circle cx="724" cy="8.44444" r="4" fill="#0" id="circle186"/>
	<circle cx="726.667" cy="307.111" r="4" fill="#0" id="circle187"/>
	<circle cx="732.889" cy="8.44444" r="4" fill="#0" id="circle188"/>
	<circle cx="735.556" cy="307.111" r="4" fill="#0" id="circle189"/>
	<circle cx="740.889" cy="4" r="4" fill="#0" id="circle190"/>
	<circle cx="743.556" cy="302.667" r="4" fill="#0" id="circle191"/>
	<circle cx="746.222" cy="362.222" r="4" fill="#0" id="circle192"/>
	<circle cx="749.778" cy="4" r="4" fill="#0" id="circle193"/>
	<circle cx="752.444" cy="302.667" r="4" fill="#0" id="circle194"/>
	<circle cx="753.333" cy="368.444" r="4" fill="#0" id="circle195"/>
	<circle cx="755.111" cy="357.778" r="4" fill="#0" id="circle196"/>
	<circle cx="758.667" cy="4" r="4" fill="#0" id="circle197"/>
	<circle cx="760.444" cy="298.222" r="4" fill="#0" id="circle198"/>
	<circle cx="762.222" cy="364.889" r="4" fill="#0" id="circle199"/>
	<circle cx="764" cy="353.333" r="4" fill="#0" id="circle200"/>
	<circle cx="767.556" cy="4" r="4" fill="#0" id="circle201"/>
	<circle cx="769.333" cy="298.222" r="4" fill="#0" id="circle202"/>
	<circle cx="770.222" cy="360.444" r="4" fill="#0" id="circle203"/>
	<circle cx="771.111" cy="346.222" r="4" fill="#0" id="circle204"/>
	<circle cx="776.444" cy="4" r="4" fill="#0" id="circle205"/>
	<circle cx="777.333" cy="293.778" r="4" fill="#0" id="circle206"/>
	<circle cx="777.333" cy="353.333" r="4" fill="#0" id="circle207"/>
	<circle cx="778.222" cy="339.111" r="4" fill="#0" id="circle208"/>
	<circle cx="784.444" cy="346.222" r="4" fill="#0" id="circle209"/>
	<circle cx="785.333" cy="4" r="4" fill="#0" id="circle210"/>
	<circle cx="786.222" cy="293.778" r="4" fill="#0" id="circle211"/>
	<circle cx="787.111" cy="334.667" r="4" fill="#0" id="circle212"/>
	<circle cx="793.333" cy="8.44444" r="4" fill="#0" id="circle213"/>
	<circle cx="793.333" cy="342.667" r="4" fill="#0" id="circle214"/>
	<circle cx="795.111" cy="293.778" r="4" fill="#0" id="circle215"/>
	<circle cx="795.111" cy="326.667" r="4" fill="#0" id="circle216"/>
	<circle cx="795.111" cy="351.556" r="4" fill="#0" id="circle217"/>
	<circle cx="801.333" cy="12.8889" r="4" fill="#0" id="circle218"/>
	<circle cx="802.222" cy="319.556" r="4" fill="#0" id="circle219"/>
	<circle cx="804" cy="293.778" r="4" fill="#0" id="circle220"/>
	<circle cx="804" cy="353.333" r="4" fill="#0" id="circle221"/>
	<circle cx="809.333" cy="312.444" r="4" fill="#0" id="circle222"/>
	<circle cx="810.222" cy="12.8889" r="4" fill="#0" id="circle223"/>
	<circle cx="811.111" cy="346.222" r="4" fill="#0" id="circle224"/>
	<circle cx="812.889" cy="293.778" r="4" fill="#0" id="circle225"/>
	<circle cx="813.778" cy="303.556" r="4" fill="#0" id="circle226"/>
	<circle cx="818.222" cy="338.222" r="4" fill="#0" id="circle227"/>
	<circle cx="819.111" cy="12.8889" r="4" fill="#0" id="circle228"/>
	<circle cx="822.667" cy="329.333" r="4" fill="#0" id="circle229"/>
	<circle cx="827.111" cy="320.444" r="4" fill="#0" id="circle230"/>
	<circle cx="828" cy="12.8889" r="4" fill="#0" id="circle231"/>
	<circle cx="834.222" cy="314.222" r="4" fill="#0" id="circle232"/>
	<circle cx="836" cy="17.3333" r="4" fill="#0" id="circle233"/>
	<circle cx="836" cy="302.667" r="4" fill="#0" id="circle234"/>
	<circle cx="840.444" cy="25.3333" r="4" fill="#0" id="circle235"/>
	<circle cx="840.444" cy="293.778" r="4" fill="#0" id="circle236"/>
	<circle cx="844.889" cy="33.3333" r="4" fill="#0" id="circle237"/>
	<circle cx="849.333" cy="41.3333" r="4" fill="#0" id="circle238"/>
	<circle cx="849.333" cy="293.778" r="4" fill="#0" id="circle239"/>
	<circle cx="853.778" cy="49.3333" r="4" fill="#0" id="circle240"/>
	<circle cx="855.556" cy="58.2222" r="4" fill="#0" id="circle241"/>
	<circle cx="858.222" cy="293.778" r="4" fill="#0" id="circle242"/>
	<circle cx="860" cy="66.2222" r="4" fill="#0" id="circle243"/>
	<circle cx="862.667" cy="75.1111" r="4" fill="#0" id="circle244"/>
	<circle cx="867.111" cy="289.333" r="4" fill="#0" id="circle245"/>
	<circle cx="869.778" cy="80.4444" r="4" fill="#0" id="circle246"/>
	<circle cx="871.556" cy="89.3333" r="4" fill="#0" id="circle247"/>
	<circle cx="876" cy="289.333" r="4" fill="#0" id="circle248"/>
	<circle cx="878.667" cy="79.5556" r="4" fill="#0" id="circle249"/>
	<circle cx="884" cy="293.778" r="4" fill="#0" id="circle250"/>
	<circle cx="884.889" cy="86.6667" r="4" fill="#0" id="circle251"/>
	<circle cx="892" cy="298.222" r="4" fill="#0" id="circle252"/>
	<circle cx="892.889" cy="91.1111" r="4" fill="#0" id="circle253"/>
	<circle cx="892.889" cy="307.111" r="4" fill="#0" id="circle254"/>
	<circle cx="893.778" cy="284.889" r="4" fill="#0" id="circle255"/>
	<circle cx="895.556" cy="316" r="4" fill="#0" id="circle256"/>
	<circle cx="899.111" cy="292.889" r="4" fill="#0" id="circle257"/>
	<circle cx="900" cy="324" r="4" fill="#0" id="circle258"/>
	<circle cx="901.778" cy="86.6667" r="4" fill="#0" id="circle259"/>
	<circle cx="903.556" cy="284.889" r="4" fill="#0" id="circle260"/>
	<circle cx="903.556" cy="300.889" r="4" fill="#0" id="circle261"/>
	<circle cx="904.444" cy="315.111" r="4" fill="#0" id="circle262"/>
	<circle cx="910.667" cy="85.7778" r="4" fill="#0" id="circle263"/>
	<circle cx="910.667" cy="307.111" r="4" fill="#0" id="circle264"/>
	<circle cx="911.556" cy="280.444" r="4" fill="#0" id="circle265"/>
	<circle cx="912.444" cy="319.556" r="4" fill="#0" id="circle266"/>
	<circle cx="914.222" cy="94.6667" r="4" fill="#0" id="circle267"/>
	<circle cx="918.667" cy="311.556" r="4" fill="#0" id="circle268"/>
	<circle cx="920.444" cy="280.444" r="4" fill="#0" id="circle269"/>
	<circle cx="923.111" cy="92.8889" r="4" fill="#0" id="circle270"/>
	<circle cx="924.889" cy="101.778" r="4" fill="#0" id="circle271"/>
	<circle cx="928.444" cy="276" r="4" fill="#0" id="circle272"/>
	<circle cx="933.778" cy="101.778" r="4" fill="#0" id="circle273"/>
	<circle cx="937.333" cy="276" r="4" fill="#0" id="circle274"/>
	<circle cx="938.222" cy="109.778" r="4" fill="#0" id="circle275"/>
	<circle cx="945.333" cy="115.111" r="4" fill="#0" id="circle276"/>
	<circle cx="945.333" cy="271.556" r="4" fill="#0" id="circle277"/>
	<circle cx="948.889" cy="106.222" r="4" fill="#0" id="circle278"/>
	<circle cx="953.333" cy="266.222" r="4" fill="#0" id="circle279"/>
	<circle cx="956" cy="111.556" r="4" fill="#0" id="circle280"/>
	<circle cx="960.444" cy="133.778" r="4" fill="#0" id="circle281"/>
	<circle cx="962.222" cy="261.778" r="4" fill="#0" id="circle282"/>
	<circle cx="963.111" cy="116.889" r="4" fill="#0" id="circle283"/>
	<circle cx="964.889" cy="125.778" r="4" fill="#0" id="circle284"/>
	<circle cx="964.889" cy="141.778" r="4" fill="#0" id="circle285"/>
	<circle cx="969.333" cy="149.778" r="4" fill="#0" id="circle286"/>
	<circle cx="971.111" cy="257.333" r="4" fill="#0" id="circle287"/>
	<circle cx="973.778" cy="157.778" r="4" fill="#0" id="circle288"/>
	<circle cx="978.222" cy="165.778" r="4" fill="#0" id="circle289"/>
	<circle cx="978.222" cy="249.333" r="4" fill="#0" id="circle290"/>
	<circle cx="982.667" cy="173.778" r="4" fill="#0" id="circle291"/>
	<circle cx="984.444" cy="182.667" r="4" fill="#0" id="circle292"/>
	<circle cx="987.111" cy="244.889" r="4" fill="#0" id="circle293"/>
	<circle cx="991.556" cy="188.889" r="4" fill="#0" id="circle294"/>
	<circle cx="991.556" cy="197.778" r="4" fill="#0" id="circle295"/>
	<circle cx="991.556" cy="231.556" r="4" fill="#0" id="circle296"/>
	<circle cx="996" cy="205.778" r="4" fill="#0" id="circle297"/>
	<circle cx="996" cy="214.667" r="4" fill="#0" id="circle298"/>
	<circle cx="996" cy="223.556" r="4" fill="#0" id="circle299"/>
	</g>
</svg>