<?xml version="1.0" encoding="UTF-8" standalone="no"?>
<!-- Created with CurveBenchmark -->
<svg
	xmlns:dc="http://purl.org/dc/elements/1.1/"
	xmlns:cc="http://creativecommons.org/ns#"
	xmlns:rdf="http://www.w3.org/1999/02/22-rdf-syntax-ns#"
	xmlns:svg="http://www.w3.org/2000/svg"
	xmlns="http://www.w3.org/2000/svg"
	xmlns:sodipodi="http://sodipodi.sourceforge.net/DTD/sodipodi-0.dtd"
	xmlns:inkscape="http://www.inkscape.org/namespaces/inkscape"
	width="1000"
	height="1000"
	id="svg2"
	version="1.1"
	sodipodi:docname="manifold/crawl-chopper-10.png.txt">
<defs
	id="defs4" />
<metadata
	id="metadata7">
	<rdf:RDF>
		<cc:Work
			rdf:about="">
			<dc:format>image/svg+xml</dc:format>
			<dc:type
				rdf:resource="http://purl.org/dc/dcmitype/StillImage" />
			<dc:title></dc:title>
		</cc:Work>
	</rdf:RDF>
</metadata>
<g
	inkscape:label="Layer 1"
	inkscape:groupmode="layer"
	id="layer1">
	<path style="fill:none;stroke:red;stroke-width:1px;stroke-linecap:butt;stroke-linejoin:miter;stroke-opacity:1" d="M 8.88189,421.89 8.88189,412.126 z" id="boundary" inkscape:connector-curvature="0" />
	<path style="fill:none;stroke:red;stroke-width:1px;stroke-linecap:butt;stroke-linejoin:miter;stroke-opacity:1" d="M 8.88189,412.126 13.7638,402.362 z" id="boundary" inkscape:connector-curvature="0" />
	<path style="fill:none;stroke:red;stroke-width:1px;stroke-linecap:butt;stroke-linejoin:miter;stroke-opacity:1" d="M 13.7638,402.362 13.7638,392.598 z" id="boundary" inkscape:connector-curvature="0" />
	<path style="fill:none;stroke:red;stroke-width:1px;stroke-linecap:butt;stroke-linejoin:miter;stroke-opacity:1" d="M 13.7638,392.598 18.6457,377.953 z" id="boundary" inkscape:connector-curvature="0" />
	<path style="fill:none;stroke:red;stroke-width:1px;stroke-linecap:butt;stroke-linejoin:miter;stroke-opacity:1" d="M 18.6457,377.953 23.5276,363.307 z" id="boundary" inkscape:connector-curvature="0" />
	<path style="fill:none;stroke:red;stroke-width:1px;stroke-linecap:butt;stroke-linejoin:miter;stroke-opacity:1" d="M 23.5276,363.307 28.4094,348.661 z" id="boundary" inkscape:connector-curvature="0" />
	<path style="fill:none;stroke:red;stroke-width:1px;stroke-linecap:butt;stroke-linejoin:miter;stroke-opacity:1" d="M 28.4094,348.661 28.4094,338.898 z" id="boundary" inkscape:connector-curvature="0" />
	<path style="fill:none;stroke:red;stroke-width:1px;stroke-linecap:butt;stroke-linejoin:miter;stroke-opacity:1" d="M 28.4094,338.898 33.2913,329.134 z" id="boundary" inkscape:connector-curvature="0" />
	<path style="fill:none;stroke:red;stroke-width:1px;stroke-linecap:butt;stroke-linejoin:miter;stroke-opacity:1" d="M 33.2913,329.134 38.1732,319.37 z" id="boundary" inkscape:connector-curvature="0" />
	<path style="fill:none;stroke:red;stroke-width:1px;stroke-linecap:butt;stroke-linejoin:miter;stroke-opacity:1" d="M 38.1732,319.37 38.1732,309.606 z" id="boundary" inkscape:connector-curvature="0" />
	<path style="fill:none;stroke:red;stroke-width:1px;stroke-linecap:butt;stroke-linejoin:miter;stroke-opacity:1" d="M 38.1732,309.606 43.0551,299.843 z" id="boundary" inkscape:connector-curvature="0" />
	<path style="fill:none;stroke:red;stroke-width:1px;stroke-linecap:butt;stroke-linejoin:miter;stroke-opacity:1" d="M 43.0551,299.843 47.937,285.197 z" id="boundary" inkscape:connector-curvature="0" />
	<path style="fill:none;stroke:red;stroke-width:1px;stroke-linecap:butt;stroke-linejoin:miter;stroke-opacity:1" d="M 47.937,285.197 52.8189,275.433 z" id="boundary" inkscape:connector-curvature="0" />
	<path style="fill:none;stroke:red;stroke-width:1px;stroke-linecap:butt;stroke-linejoin:miter;stroke-opacity:1" d="M 52.8189,275.433 60.6299,267.622 z" id="boundary" inkscape:connector-curvature="0" />
	<path style="fill:none;stroke:red;stroke-width:1px;stroke-linecap:butt;stroke-linejoin:miter;stroke-opacity:1" d="M 60.6299,267.622 68.4409,259.811 z" id="boundary" inkscape:connector-curvature="0" />
	<path style="fill:none;stroke:red;stroke-width:1px;stroke-linecap:butt;stroke-linejoin:miter;stroke-opacity:1" d="M 68.4409,259.811 76.252,252.976 z" id="boundary" inkscape:connector-curvature="0" />
	<path style="fill:none;stroke:red;stroke-width:1px;stroke-linecap:butt;stroke-linejoin:miter;stroke-opacity:1" d="M 76.252,252.976 82.1102,241.26 z" id="boundary" inkscape:connector-curvature="0" />
	<path style="fill:none;stroke:red;stroke-width:1px;stroke-linecap:butt;stroke-linejoin:miter;stroke-opacity:1" d="M 82.1102,241.26 89.9213,233.449 z" id="boundary" inkscape:connector-curvature="0" />
	<path style="fill:none;stroke:red;stroke-width:1px;stroke-linecap:butt;stroke-linejoin:miter;stroke-opacity:1" d="M 89.9213,233.449 97.7323,225.638 z" id="boundary" inkscape:connector-curvature="0" />
	<path style="fill:none;stroke:red;stroke-width:1px;stroke-linecap:butt;stroke-linejoin:miter;stroke-opacity:1" d="M 97.7323,225.638 105.543,218.803 z" id="boundary" inkscape:connector-curvature="0" />
	<path style="fill:none;stroke:red;stroke-width:1px;stroke-linecap:butt;stroke-linejoin:miter;stroke-opacity:1" d="M 105.543,218.803 112.378,210.992 z" id="boundary" inkscape:connector-curvature="0" />
	<path style="fill:none;stroke:red;stroke-width:1px;stroke-linecap:butt;stroke-linejoin:miter;stroke-opacity:1" d="M 112.378,210.992 120.189,204.157 z" id="boundary" inkscape:connector-curvature="0" />
	<path style="fill:none;stroke:red;stroke-width:1px;stroke-linecap:butt;stroke-linejoin:miter;stroke-opacity:1" d="M 120.189,204.157 127.024,196.346 z" id="boundary" inkscape:connector-curvature="0" />
	<path style="fill:none;stroke:red;stroke-width:1px;stroke-linecap:butt;stroke-linejoin:miter;stroke-opacity:1" d="M 127.024,196.346 134.835,189.512 z" id="boundary" inkscape:connector-curvature="0" />
	<path style="fill:none;stroke:red;stroke-width:1px;stroke-linecap:butt;stroke-linejoin:miter;stroke-opacity:1" d="M 134.835,189.512 143.622,184.63 z" id="boundary" inkscape:connector-curvature="0" />
	<path style="fill:none;stroke:red;stroke-width:1px;stroke-linecap:butt;stroke-linejoin:miter;stroke-opacity:1" d="M 143.622,184.63 151.433,176.819 z" id="boundary" inkscape:connector-curvature="0" />
	<path style="fill:none;stroke:red;stroke-width:1px;stroke-linecap:butt;stroke-linejoin:miter;stroke-opacity:1" d="M 151.433,176.819 159.244,169.984 z" id="boundary" inkscape:connector-curvature="0" />
	<path style="fill:none;stroke:red;stroke-width:1px;stroke-linecap:butt;stroke-linejoin:miter;stroke-opacity:1" d="M 159.244,169.984 168.031,165.102 z" id="boundary" inkscape:connector-curvature="0" />
	<path style="fill:none;stroke:red;stroke-width:1px;stroke-linecap:butt;stroke-linejoin:miter;stroke-opacity:1" d="M 168.031,165.102 176.819,160.22 z" id="boundary" inkscape:connector-curvature="0" />
	<path style="fill:none;stroke:red;stroke-width:1px;stroke-linecap:butt;stroke-linejoin:miter;stroke-opacity:1" d="M 176.819,160.22 185.606,155.339 z" id="boundary" inkscape:connector-curvature="0" />
	<path style="fill:none;stroke:red;stroke-width:1px;stroke-linecap:butt;stroke-linejoin:miter;stroke-opacity:1" d="M 185.606,155.339 195.37,152.409 z" id="boundary" inkscape:connector-curvature="0" />
	<path style="fill:none;stroke:red;stroke-width:1px;stroke-linecap:butt;stroke-linejoin:miter;stroke-opacity:1" d="M 195.37,152.409 205.134,150.457 z" id="boundary" inkscape:connector-curvature="0" />
	<path style="fill:none;stroke:red;stroke-width:1px;stroke-linecap:butt;stroke-linejoin:miter;stroke-opacity:1" d="M 205.134,150.457 214.898,147.528 z" id="boundary" inkscape:connector-curvature="0" />
	<path style="fill:none;stroke:red;stroke-width:1px;stroke-linecap:butt;stroke-linejoin:miter;stroke-opacity:1" d="M 214.898,147.528 224.661,145.575 z" id="boundary" inkscape:connector-curvature="0" />
	<path style="fill:none;stroke:red;stroke-width:1px;stroke-linecap:butt;stroke-linejoin:miter;stroke-opacity:1" d="M 224.661,145.575 234.425,145.575 z" id="boundary" inkscape:connector-curvature="0" />
	<path style="fill:none;stroke:red;stroke-width:1px;stroke-linecap:butt;stroke-linejoin:miter;stroke-opacity:1" d="M 234.425,145.575 244.189,145.575 z" id="boundary" inkscape:connector-curvature="0" />
	<path style="fill:none;stroke:red;stroke-width:1px;stroke-linecap:butt;stroke-linejoin:miter;stroke-opacity:1" d="M 244.189,145.575 253.953,142.646 z" id="boundary" inkscape:connector-curvature="0" />
	<path style="fill:none;stroke:red;stroke-width:1px;stroke-linecap:butt;stroke-linejoin:miter;stroke-opacity:1" d="M 253.953,142.646 263.717,140.693 z" id="boundary" inkscape:connector-curvature="0" />
	<path style="fill:none;stroke:red;stroke-width:1px;stroke-linecap:butt;stroke-linejoin:miter;stroke-opacity:1" d="M 263.717,140.693 273.48,140.693 z" id="boundary" inkscape:connector-curvature="0" />
	<path style="fill:none;stroke:red;stroke-width:1px;stroke-linecap:butt;stroke-linejoin:miter;stroke-opacity:1" d="M 273.48,140.693 283.244,140.693 z" id="boundary" inkscape:connector-curvature="0" />
	<path style="fill:none;stroke:red;stroke-width:1px;stroke-linecap:butt;stroke-linejoin:miter;stroke-opacity:1" d="M 283.244,140.693 293.008,140.693 z" id="boundary" inkscape:connector-curvature="0" />
	<path style="fill:none;stroke:red;stroke-width:1px;stroke-linecap:butt;stroke-linejoin:miter;stroke-opacity:1" d="M 293.008,140.693 302.772,140.693 z" id="boundary" inkscape:connector-curvature="0" />
	<path style="fill:none;stroke:red;stroke-width:1px;stroke-linecap:butt;stroke-linejoin:miter;stroke-opacity:1" d="M 302.772,140.693 312.535,140.693 z" id="boundary" inkscape:connector-curvature="0" />
	<path style="fill:none;stroke:red;stroke-width:1px;stroke-linecap:butt;stroke-linejoin:miter;stroke-opacity:1" d="M 312.535,140.693 322.299,140.693 z" id="boundary" inkscape:connector-curvature="0" />
	<path style="fill:none;stroke:red;stroke-width:1px;stroke-linecap:butt;stroke-linejoin:miter;stroke-opacity:1" d="M 322.299,140.693 332.063,140.693 z" id="boundary" inkscape:connector-curvature="0" />
	<path style="fill:none;stroke:red;stroke-width:1px;stroke-linecap:butt;stroke-linejoin:miter;stroke-opacity:1" d="M 332.063,140.693 341.827,140.693 z" id="boundary" inkscape:connector-curvature="0" />
	<path style="fill:none;stroke:red;stroke-width:1px;stroke-linecap:butt;stroke-linejoin:miter;stroke-opacity:1" d="M 341.827,140.693 350.614,135.811 z" id="boundary" inkscape:connector-curvature="0" />
	<path style="fill:none;stroke:red;stroke-width:1px;stroke-linecap:butt;stroke-linejoin:miter;stroke-opacity:1" d="M 350.614,135.811 360.378,133.858 z" id="boundary" inkscape:connector-curvature="0" />
	<path style="fill:none;stroke:red;stroke-width:1px;stroke-linecap:butt;stroke-linejoin:miter;stroke-opacity:1" d="M 360.378,133.858 370.142,128.976 z" id="boundary" inkscape:connector-curvature="0" />
	<path style="fill:none;stroke:red;stroke-width:1px;stroke-linecap:butt;stroke-linejoin:miter;stroke-opacity:1" d="M 370.142,128.976 379.906,124.094 z" id="boundary" inkscape:connector-curvature="0" />
	<path style="fill:none;stroke:red;stroke-width:1px;stroke-linecap:butt;stroke-linejoin:miter;stroke-opacity:1" d="M 379.906,124.094 384.787,112.378 z" id="boundary" inkscape:connector-curvature="0" />
	<path style="fill:none;stroke:red;stroke-width:1px;stroke-linecap:butt;stroke-linejoin:miter;stroke-opacity:1" d="M 384.787,112.378 384.787,102.614 z" id="boundary" inkscape:connector-curvature="0" />
	<path style="fill:none;stroke:red;stroke-width:1px;stroke-linecap:butt;stroke-linejoin:miter;stroke-opacity:1" d="M 384.787,102.614 384.787,92.8504 z" id="boundary" inkscape:connector-curvature="0" />
	<path style="fill:none;stroke:red;stroke-width:1px;stroke-linecap:butt;stroke-linejoin:miter;stroke-opacity:1" d="M 384.787,92.8504 376,87.9685 z" id="boundary" inkscape:connector-curvature="0" />
	<path style="fill:none;stroke:red;stroke-width:1px;stroke-linecap:butt;stroke-linejoin:miter;stroke-opacity:1" d="M 376,87.9685 366.236,87.9685 z" id="boundary" inkscape:connector-curvature="0" />
	<path style="fill:none;stroke:red;stroke-width:1px;stroke-linecap:butt;stroke-linejoin:miter;stroke-opacity:1" d="M 366.236,87.9685 360.378,80.1575 z" id="boundary" inkscape:connector-curvature="0" />
	<path style="fill:none;stroke:red;stroke-width:1px;stroke-linecap:butt;stroke-linejoin:miter;stroke-opacity:1" d="M 360.378,80.1575 355.496,71.3701 z" id="boundary" inkscape:connector-curvature="0" />
	<path style="fill:none;stroke:red;stroke-width:1px;stroke-linecap:butt;stroke-linejoin:miter;stroke-opacity:1" d="M 355.496,71.3701 355.496,61.6063 z" id="boundary" inkscape:connector-curvature="0" />
	<path style="fill:none;stroke:red;stroke-width:1px;stroke-linecap:butt;stroke-linejoin:miter;stroke-opacity:1" d="M 355.496,61.6063 355.496,51.8425 z" id="boundary" inkscape:connector-curvature="0" />
	<path style="fill:none;stroke:red;stroke-width:1px;stroke-linecap:butt;stroke-linejoin:miter;stroke-opacity:1" d="M 355.496,51.8425 348.661,44.0315 z" id="boundary" inkscape:connector-curvature="0" />
	<path style="fill:none;stroke:red;stroke-width:1px;stroke-linecap:butt;stroke-linejoin:miter;stroke-opacity:1" d="M 348.661,44.0315 338.898,44.0315 z" id="boundary" inkscape:connector-curvature="0" />
	<path style="fill:none;stroke:red;stroke-width:1px;stroke-linecap:butt;stroke-linejoin:miter;stroke-opacity:1" d="M 338.898,44.0315 329.134,44.0315 z" id="boundary" inkscape:connector-curvature="0" />
	<path style="fill:none;stroke:red;stroke-width:1px;stroke-linecap:butt;stroke-linejoin:miter;stroke-opacity:1" d="M 329.134,44.0315 320.346,39.1496 z" id="boundary" inkscape:connector-curvature="0" />
	<path style="fill:none;stroke:red;stroke-width:1px;stroke-linecap:butt;stroke-linejoin:miter;stroke-opacity:1" d="M 320.346,39.1496 311.559,34.2677 z" id="boundary" inkscape:connector-curvature="0" />
	<path style="fill:none;stroke:red;stroke-width:1px;stroke-linecap:butt;stroke-linejoin:miter;stroke-opacity:1" d="M 311.559,34.2677 301.795,30.3622 z" id="boundary" inkscape:connector-curvature="0" />
	<path style="fill:none;stroke:red;stroke-width:1px;stroke-linecap:butt;stroke-linejoin:miter;stroke-opacity:1" d="M 301.795,30.3622 296.913,21.5748 z" id="boundary" inkscape:connector-curvature="0" />
	<path style="fill:none;stroke:red;stroke-width:1px;stroke-linecap:butt;stroke-linejoin:miter;stroke-opacity:1" d="M 296.913,21.5748 304.724,13.7638 z" id="boundary" inkscape:connector-curvature="0" />
	<path style="fill:none;stroke:red;stroke-width:1px;stroke-linecap:butt;stroke-linejoin:miter;stroke-opacity:1" d="M 304.724,13.7638 313.512,8.88189 z" id="boundary" inkscape:connector-curvature="0" />
	<path style="fill:none;stroke:red;stroke-width:1px;stroke-linecap:butt;stroke-linejoin:miter;stroke-opacity:1" d="M 313.512,8.88189 322.299,4 z" id="boundary" inkscape:connector-curvature="0" />
	<path style="fill:none;stroke:red;stroke-width:1px;stroke-linecap:butt;stroke-linejoin:miter;stroke-opacity:1" d="M 322.299,4 332.063,4 z" id="boundary" inkscape:connector-curvature="0" />
	<path style="fill:none;stroke:red;stroke-width:1px;stroke-linecap:butt;stroke-linejoin:miter;stroke-opacity:1" d="M 332.063,4 341.827,4 z" id="boundary" inkscape:connector-curvature="0" />
	<path style="fill:none;stroke:red;stroke-width:1px;stroke-linecap:butt;stroke-linejoin:miter;stroke-opacity:1" d="M 341.827,4 351.591,4 z" id="boundary" inkscape:connector-curvature="0" />
	<path style="fill:none;stroke:red;stroke-width:1px;stroke-linecap:butt;stroke-linejoin:miter;stroke-opacity:1" d="M 351.591,4 361.354,4 z" id="boundary" inkscape:connector-curvature="0" />
	<path style="fill:none;stroke:red;stroke-width:1px;stroke-linecap:butt;stroke-linejoin:miter;stroke-opacity:1" d="M 361.354,4 371.118,4 z" id="boundary" inkscape:connector-curvature="0" />
	<path style="fill:none;stroke:red;stroke-width:1px;stroke-linecap:butt;stroke-linejoin:miter;stroke-opacity:1" d="M 371.118,4 380.882,4 z" id="boundary" inkscape:connector-curvature="0" />
	<path style="fill:none;stroke:red;stroke-width:1px;stroke-linecap:butt;stroke-linejoin:miter;stroke-opacity:1" d="M 380.882,4 390.646,4 z" id="boundary" inkscape:connector-curvature="0" />
	<path style="fill:none;stroke:red;stroke-width:1px;stroke-linecap:butt;stroke-linejoin:miter;stroke-opacity:1" d="M 390.646,4 400.409,4 z" id="boundary" inkscape:connector-curvature="0" />
	<path style="fill:none;stroke:red;stroke-width:1px;stroke-linecap:butt;stroke-linejoin:miter;stroke-opacity:1" d="M 400.409,4 410.173,4 z" id="boundary" inkscape:connector-curvature="0" />
	<path style="fill:none;stroke:red;stroke-width:1px;stroke-linecap:butt;stroke-linejoin:miter;stroke-opacity:1" d="M 410.173,4 419.937,4 z" id="boundary" inkscape:connector-curvature="0" />
	<path style="fill:none;stroke:red;stroke-width:1px;stroke-linecap:butt;stroke-linejoin:miter;stroke-opacity:1" d="M 419.937,4 427.748,9.85827 z" id="boundary" inkscape:connector-curvature="0" />
	<path style="fill:none;stroke:red;stroke-width:1px;stroke-linecap:butt;stroke-linejoin:miter;stroke-opacity:1" d="M 427.748,9.85827 423.843,19.622 z" id="boundary" inkscape:connector-curvature="0" />
	<path style="fill:none;stroke:red;stroke-width:1px;stroke-linecap:butt;stroke-linejoin:miter;stroke-opacity:1" d="M 423.843,19.622 415.055,24.5039 z" id="boundary" inkscape:connector-curvature="0" />
	<path style="fill:none;stroke:red;stroke-width:1px;stroke-linecap:butt;stroke-linejoin:miter;stroke-opacity:1" d="M 415.055,24.5039 415.055,34.2677 z" id="boundary" inkscape:connector-curvature="0" />
	<path style="fill:none;stroke:red;stroke-width:1px;stroke-linecap:butt;stroke-linejoin:miter;stroke-opacity:1" d="M 415.055,34.2677 415.055,44.0315 z" id="boundary" inkscape:connector-curvature="0" />
	<path style="fill:none;stroke:red;stroke-width:1px;stroke-linecap:butt;stroke-linejoin:miter;stroke-opacity:1" d="M 415.055,44.0315 415.055,53.7953 z" id="boundary" inkscape:connector-curvature="0" />
	<path style="fill:none;stroke:red;stroke-width:1px;stroke-linecap:butt;stroke-linejoin:miter;stroke-opacity:1" d="M 415.055,53.7953 419.937,62.5827 z" id="boundary" inkscape:connector-curvature="0" />
	<path style="fill:none;stroke:red;stroke-width:1px;stroke-linecap:butt;stroke-linejoin:miter;stroke-opacity:1" d="M 419.937,62.5827 419.937,72.3465 z" id="boundary" inkscape:connector-curvature="0" />
	<path style="fill:none;stroke:red;stroke-width:1px;stroke-linecap:butt;stroke-linejoin:miter;stroke-opacity:1" d="M 419.937,72.3465 419.937,82.1102 z" id="boundary" inkscape:connector-curvature="0" />
	<path style="fill:none;stroke:red;stroke-width:1px;stroke-linecap:butt;stroke-linejoin:miter;stroke-opacity:1" d="M 419.937,82.1102 419.937,91.874 z" id="boundary" inkscape:connector-curvature="0" />
	<path style="fill:none;stroke:red;stroke-width:1px;stroke-linecap:butt;stroke-linejoin:miter;stroke-opacity:1" d="M 419.937,91.874 419.937,101.638 z" id="boundary" inkscape:connector-curvature="0" />
	<path style="fill:none;stroke:red;stroke-width:1px;stroke-linecap:butt;stroke-linejoin:miter;stroke-opacity:1" d="M 419.937,101.638 419.937,111.402 z" id="boundary" inkscape:connector-curvature="0" />
	<path style="fill:none;stroke:red;stroke-width:1px;stroke-linecap:butt;stroke-linejoin:miter;stroke-opacity:1" d="M 419.937,111.402 428.724,116.283 z" id="boundary" inkscape:connector-curvature="0" />
	<path style="fill:none;stroke:red;stroke-width:1px;stroke-linecap:butt;stroke-linejoin:miter;stroke-opacity:1" d="M 428.724,116.283 438.488,116.283 z" id="boundary" inkscape:connector-curvature="0" />
	<path style="fill:none;stroke:red;stroke-width:1px;stroke-linecap:butt;stroke-linejoin:miter;stroke-opacity:1" d="M 438.488,116.283 448.252,116.283 z" id="boundary" inkscape:connector-curvature="0" />
	<path style="fill:none;stroke:red;stroke-width:1px;stroke-linecap:butt;stroke-linejoin:miter;stroke-opacity:1" d="M 448.252,116.283 458.016,114.331 z" id="boundary" inkscape:connector-curvature="0" />
	<path style="fill:none;stroke:red;stroke-width:1px;stroke-linecap:butt;stroke-linejoin:miter;stroke-opacity:1" d="M 458.016,114.331 467.78,109.449 z" id="boundary" inkscape:connector-curvature="0" />
	<path style="fill:none;stroke:red;stroke-width:1px;stroke-linecap:butt;stroke-linejoin:miter;stroke-opacity:1" d="M 467.78,109.449 477.543,104.567 z" id="boundary" inkscape:connector-curvature="0" />
	<path style="fill:none;stroke:red;stroke-width:1px;stroke-linecap:butt;stroke-linejoin:miter;stroke-opacity:1" d="M 477.543,104.567 487.307,101.638 z" id="boundary" inkscape:connector-curvature="0" />
	<path style="fill:none;stroke:red;stroke-width:1px;stroke-linecap:butt;stroke-linejoin:miter;stroke-opacity:1" d="M 487.307,101.638 497.071,101.638 z" id="boundary" inkscape:connector-curvature="0" />
	<path style="fill:none;stroke:red;stroke-width:1px;stroke-linecap:butt;stroke-linejoin:miter;stroke-opacity:1" d="M 497.071,101.638 506.835,101.638 z" id="boundary" inkscape:connector-curvature="0" />
	<path style="fill:none;stroke:red;stroke-width:1px;stroke-linecap:butt;stroke-linejoin:miter;stroke-opacity:1" d="M 506.835,101.638 516.598,103.591 z" id="boundary" inkscape:connector-curvature="0" />
	<path style="fill:none;stroke:red;stroke-width:1px;stroke-linecap:butt;stroke-linejoin:miter;stroke-opacity:1" d="M 516.598,103.591 525.386,108.472 z" id="boundary" inkscape:connector-curvature="0" />
	<path style="fill:none;stroke:red;stroke-width:1px;stroke-linecap:butt;stroke-linejoin:miter;stroke-opacity:1" d="M 525.386,108.472 530.268,117.26 z" id="boundary" inkscape:connector-curvature="0" />
	<path style="fill:none;stroke:red;stroke-width:1px;stroke-linecap:butt;stroke-linejoin:miter;stroke-opacity:1" d="M 530.268,117.26 532.22,127.024 z" id="boundary" inkscape:connector-curvature="0" />
	<path style="fill:none;stroke:red;stroke-width:1px;stroke-linecap:butt;stroke-linejoin:miter;stroke-opacity:1" d="M 532.22,127.024 532.22,136.787 z" id="boundary" inkscape:connector-curvature="0" />
	<path style="fill:none;stroke:red;stroke-width:1px;stroke-linecap:butt;stroke-linejoin:miter;stroke-opacity:1" d="M 532.22,136.787 541.984,140.693 z" id="boundary" inkscape:connector-curvature="0" />
	<path style="fill:none;stroke:red;stroke-width:1px;stroke-linecap:butt;stroke-linejoin:miter;stroke-opacity:1" d="M 541.984,140.693 551.748,140.693 z" id="boundary" inkscape:connector-curvature="0" />
	<path style="fill:none;stroke:red;stroke-width:1px;stroke-linecap:butt;stroke-linejoin:miter;stroke-opacity:1" d="M 551.748,140.693 560.535,145.575 z" id="boundary" inkscape:connector-curvature="0" />
	<path style="fill:none;stroke:red;stroke-width:1px;stroke-linecap:butt;stroke-linejoin:miter;stroke-opacity:1" d="M 560.535,145.575 570.299,145.575 z" id="boundary" inkscape:connector-curvature="0" />
	<path style="fill:none;stroke:red;stroke-width:1px;stroke-linecap:butt;stroke-linejoin:miter;stroke-opacity:1" d="M 570.299,145.575 580.063,145.575 z" id="boundary" inkscape:connector-curvature="0" />
	<path style="fill:none;stroke:red;stroke-width:1px;stroke-linecap:butt;stroke-linejoin:miter;stroke-opacity:1" d="M 580.063,145.575 589.827,145.575 z" id="boundary" inkscape:connector-curvature="0" />
	<path style="fill:none;stroke:red;stroke-width:1px;stroke-linecap:butt;stroke-linejoin:miter;stroke-opacity:1" d="M 589.827,145.575 599.591,145.575 z" id="boundary" inkscape:connector-curvature="0" />
	<path style="fill:none;stroke:red;stroke-width:1px;stroke-linecap:butt;stroke-linejoin:miter;stroke-opacity:1" d="M 599.591,145.575 609.354,145.575 z" id="boundary" inkscape:connector-curvature="0" />
	<path style="fill:none;stroke:red;stroke-width:1px;stroke-linecap:butt;stroke-linejoin:miter;stroke-opacity:1" d="M 609.354,145.575 619.118,145.575 z" id="boundary" inkscape:connector-curvature="0" />
	<path style="fill:none;stroke:red;stroke-width:1px;stroke-linecap:butt;stroke-linejoin:miter;stroke-opacity:1" d="M 619.118,145.575 628.882,145.575 z" id="boundary" inkscape:connector-curvature="0" />
	<path style="fill:none;stroke:red;stroke-width:1px;stroke-linecap:butt;stroke-linejoin:miter;stroke-opacity:1" d="M 628.882,145.575 638.646,145.575 z" id="boundary" inkscape:connector-curvature="0" />
	<path style="fill:none;stroke:red;stroke-width:1px;stroke-linecap:butt;stroke-linejoin:miter;stroke-opacity:1" d="M 638.646,145.575 646.457,151.433 z" id="boundary" inkscape:connector-curvature="0" />
	<path style="fill:none;stroke:red;stroke-width:1px;stroke-linecap:butt;stroke-linejoin:miter;stroke-opacity:1" d="M 646.457,151.433 649.386,161.197 z" id="boundary" inkscape:connector-curvature="0" />
	<path style="fill:none;stroke:red;stroke-width:1px;stroke-linecap:butt;stroke-linejoin:miter;stroke-opacity:1" d="M 649.386,161.197 649.386,170.961 z" id="boundary" inkscape:connector-curvature="0" />
	<path style="fill:none;stroke:red;stroke-width:1px;stroke-linecap:butt;stroke-linejoin:miter;stroke-opacity:1" d="M 649.386,170.961 644.504,185.606 z" id="boundary" inkscape:connector-curvature="0" />
	<path style="fill:none;stroke:red;stroke-width:1px;stroke-linecap:butt;stroke-linejoin:miter;stroke-opacity:1" d="M 644.504,185.606 638.646,197.323 z" id="boundary" inkscape:connector-curvature="0" />
	<path style="fill:none;stroke:red;stroke-width:1px;stroke-linecap:butt;stroke-linejoin:miter;stroke-opacity:1" d="M 638.646,197.323 628.882,202.205 z" id="boundary" inkscape:connector-curvature="0" />
	<path style="fill:none;stroke:red;stroke-width:1px;stroke-linecap:butt;stroke-linejoin:miter;stroke-opacity:1" d="M 628.882,202.205 619.118,207.087 z" id="boundary" inkscape:connector-curvature="0" />
	<path style="fill:none;stroke:red;stroke-width:1px;stroke-linecap:butt;stroke-linejoin:miter;stroke-opacity:1" d="M 619.118,207.087 609.354,210.016 z" id="boundary" inkscape:connector-curvature="0" />
	<path style="fill:none;stroke:red;stroke-width:1px;stroke-linecap:butt;stroke-linejoin:miter;stroke-opacity:1" d="M 609.354,210.016 600.567,214.898 z" id="boundary" inkscape:connector-curvature="0" />
	<path style="fill:none;stroke:red;stroke-width:1px;stroke-linecap:butt;stroke-linejoin:miter;stroke-opacity:1" d="M 600.567,214.898 590.803,214.898 z" id="boundary" inkscape:connector-curvature="0" />
	<path style="fill:none;stroke:red;stroke-width:1px;stroke-linecap:butt;stroke-linejoin:miter;stroke-opacity:1" d="M 590.803,214.898 581.039,219.78 z" id="boundary" inkscape:connector-curvature="0" />
	<path style="fill:none;stroke:red;stroke-width:1px;stroke-linecap:butt;stroke-linejoin:miter;stroke-opacity:1" d="M 581.039,219.78 582.992,229.543 z" id="boundary" inkscape:connector-curvature="0" />
	<path style="fill:none;stroke:red;stroke-width:1px;stroke-linecap:butt;stroke-linejoin:miter;stroke-opacity:1" d="M 582.992,229.543 590.803,236.378 z" id="boundary" inkscape:connector-curvature="0" />
	<path style="fill:none;stroke:red;stroke-width:1px;stroke-linecap:butt;stroke-linejoin:miter;stroke-opacity:1" d="M 590.803,236.378 597.638,244.189 z" id="boundary" inkscape:connector-curvature="0" />
	<path style="fill:none;stroke:red;stroke-width:1px;stroke-linecap:butt;stroke-linejoin:miter;stroke-opacity:1" d="M 597.638,244.189 602.52,252.976 z" id="boundary" inkscape:connector-curvature="0" />
	<path style="fill:none;stroke:red;stroke-width:1px;stroke-linecap:butt;stroke-linejoin:miter;stroke-opacity:1" d="M 602.52,252.976 611.307,257.858 z" id="boundary" inkscape:connector-curvature="0" />
	<path style="fill:none;stroke:red;stroke-width:1px;stroke-linecap:butt;stroke-linejoin:miter;stroke-opacity:1" d="M 611.307,257.858 621.071,257.858 z" id="boundary" inkscape:connector-curvature="0" />
	<path style="fill:none;stroke:red;stroke-width:1px;stroke-linecap:butt;stroke-linejoin:miter;stroke-opacity:1" d="M 621.071,257.858 630.835,257.858 z" id="boundary" inkscape:connector-curvature="0" />
	<path style="fill:none;stroke:red;stroke-width:1px;stroke-linecap:butt;stroke-linejoin:miter;stroke-opacity:1" d="M 630.835,257.858 640.598,257.858 z" id="boundary" inkscape:connector-curvature="0" />
	<path style="fill:none;stroke:red;stroke-width:1px;stroke-linecap:butt;stroke-linejoin:miter;stroke-opacity:1" d="M 640.598,257.858 650.362,257.858 z" id="boundary" inkscape:connector-curvature="0" />
	<path style="fill:none;stroke:red;stroke-width:1px;stroke-linecap:butt;stroke-linejoin:miter;stroke-opacity:1" d="M 650.362,257.858 660.126,257.858 z" id="boundary" inkscape:connector-curvature="0" />
	<path style="fill:none;stroke:red;stroke-width:1px;stroke-linecap:butt;stroke-linejoin:miter;stroke-opacity:1" d="M 660.126,257.858 669.89,257.858 z" id="boundary" inkscape:connector-curvature="0" />
	<path style="fill:none;stroke:red;stroke-width:1px;stroke-linecap:butt;stroke-linejoin:miter;stroke-opacity:1" d="M 669.89,257.858 679.654,257.858 z" id="boundary" inkscape:connector-curvature="0" />
	<path style="fill:none;stroke:red;stroke-width:1px;stroke-linecap:butt;stroke-linejoin:miter;stroke-opacity:1" d="M 679.654,257.858 689.417,257.858 z" id="boundary" inkscape:connector-curvature="0" />
	<path style="fill:none;stroke:red;stroke-width:1px;stroke-linecap:butt;stroke-linejoin:miter;stroke-opacity:1" d="M 689.417,257.858 699.181,257.858 z" id="boundary" inkscape:connector-curvature="0" />
	<path style="fill:none;stroke:red;stroke-width:1px;stroke-linecap:butt;stroke-linejoin:miter;stroke-opacity:1" d="M 699.181,257.858 708.945,257.858 z" id="boundary" inkscape:connector-curvature="0" />
	<path style="fill:none;stroke:red;stroke-width:1px;stroke-linecap:butt;stroke-linejoin:miter;stroke-opacity:1" d="M 708.945,257.858 718.709,257.858 z" id="boundary" inkscape:connector-curvature="0" />
	<path style="fill:none;stroke:red;stroke-width:1px;stroke-linecap:butt;stroke-linejoin:miter;stroke-opacity:1" d="M 718.709,257.858 728.472,253.953 z" id="boundary" inkscape:connector-curvature="0" />
	<path style="fill:none;stroke:red;stroke-width:1px;stroke-linecap:butt;stroke-linejoin:miter;stroke-opacity:1" d="M 728.472,253.953 738.236,252.976 z" id="boundary" inkscape:connector-curvature="0" />
	<path style="fill:none;stroke:red;stroke-width:1px;stroke-linecap:butt;stroke-linejoin:miter;stroke-opacity:1" d="M 738.236,252.976 748,252.976 z" id="boundary" inkscape:connector-curvature="0" />
	<path style="fill:none;stroke:red;stroke-width:1px;stroke-linecap:butt;stroke-linejoin:miter;stroke-opacity:1" d="M 748,252.976 757.764,249.071 z" id="boundary" inkscape:connector-curvature="0" />
	<path style="fill:none;stroke:red;stroke-width:1px;stroke-linecap:butt;stroke-linejoin:miter;stroke-opacity:1" d="M 757.764,249.071 767.528,248.094 z" id="boundary" inkscape:connector-curvature="0" />
	<path style="fill:none;stroke:red;stroke-width:1px;stroke-linecap:butt;stroke-linejoin:miter;stroke-opacity:1" d="M 767.528,248.094 777.291,248.094 z" id="boundary" inkscape:connector-curvature="0" />
	<path style="fill:none;stroke:red;stroke-width:1px;stroke-linecap:butt;stroke-linejoin:miter;stroke-opacity:1" d="M 777.291,248.094 787.055,248.094 z" id="boundary" inkscape:connector-curvature="0" />
	<path style="fill:none;stroke:red;stroke-width:1px;stroke-linecap:butt;stroke-linejoin:miter;stroke-opacity:1" d="M 787.055,248.094 795.843,243.213 z" id="boundary" inkscape:connector-curvature="0" />
	<path style="fill:none;stroke:red;stroke-width:1px;stroke-linecap:butt;stroke-linejoin:miter;stroke-opacity:1" d="M 795.843,243.213 805.606,243.213 z" id="boundary" inkscape:connector-curvature="0" />
	<path style="fill:none;stroke:red;stroke-width:1px;stroke-linecap:butt;stroke-linejoin:miter;stroke-opacity:1" d="M 805.606,243.213 815.37,243.213 z" id="boundary" inkscape:connector-curvature="0" />
	<path style="fill:none;stroke:red;stroke-width:1px;stroke-linecap:butt;stroke-linejoin:miter;stroke-opacity:1" d="M 815.37,243.213 825.134,240.283 z" id="boundary" inkscape:connector-curvature="0" />
	<path style="fill:none;stroke:red;stroke-width:1px;stroke-linecap:butt;stroke-linejoin:miter;stroke-opacity:1" d="M 825.134,240.283 834.898,238.331 z" id="boundary" inkscape:connector-curvature="0" />
	<path style="fill:none;stroke:red;stroke-width:1px;stroke-linecap:butt;stroke-linejoin:miter;stroke-opacity:1" d="M 834.898,238.331 844.661,238.331 z" id="boundary" inkscape:connector-curvature="0" />
	<path style="fill:none;stroke:red;stroke-width:1px;stroke-linecap:butt;stroke-linejoin:miter;stroke-opacity:1" d="M 844.661,238.331 854.425,238.331 z" id="boundary" inkscape:connector-curvature="0" />
	<path style="fill:none;stroke:red;stroke-width:1px;stroke-linecap:butt;stroke-linejoin:miter;stroke-opacity:1" d="M 854.425,238.331 864.189,235.402 z" id="boundary" inkscape:connector-curvature="0" />
	<path style="fill:none;stroke:red;stroke-width:1px;stroke-linecap:butt;stroke-linejoin:miter;stroke-opacity:1" d="M 864.189,235.402 873.953,233.449 z" id="boundary" inkscape:connector-curvature="0" />
	<path style="fill:none;stroke:red;stroke-width:1px;stroke-linecap:butt;stroke-linejoin:miter;stroke-opacity:1" d="M 873.953,233.449 883.717,233.449 z" id="boundary" inkscape:connector-curvature="0" />
	<path style="fill:none;stroke:red;stroke-width:1px;stroke-linecap:butt;stroke-linejoin:miter;stroke-opacity:1" d="M 883.717,233.449 893.48,233.449 z" id="boundary" inkscape:connector-curvature="0" />
	<path style="fill:none;stroke:red;stroke-width:1px;stroke-linecap:butt;stroke-linejoin:miter;stroke-opacity:1" d="M 893.48,233.449 902.268,228.567 z" id="boundary" inkscape:connector-curvature="0" />
	<path style="fill:none;stroke:red;stroke-width:1px;stroke-linecap:butt;stroke-linejoin:miter;stroke-opacity:1" d="M 902.268,228.567 912.031,228.567 z" id="boundary" inkscape:connector-curvature="0" />
	<path style="fill:none;stroke:red;stroke-width:1px;stroke-linecap:butt;stroke-linejoin:miter;stroke-opacity:1" d="M 912.031,228.567 921.795,228.567 z" id="boundary" inkscape:connector-curvature="0" />
	<path style="fill:none;stroke:red;stroke-width:1px;stroke-linecap:butt;stroke-linejoin:miter;stroke-opacity:1" d="M 921.795,228.567 931.559,228.567 z" id="boundary" inkscape:connector-curvature="0" />
	<path style="fill:none;stroke:red;stroke-width:1px;stroke-linecap:butt;stroke-linejoin:miter;stroke-opacity:1" d="M 931.559,228.567 941.323,228.567 z" id="boundary" inkscape:connector-curvature="0" />
	<path style="fill:none;stroke:red;stroke-width:1px;stroke-linecap:butt;stroke-linejoin:miter;stroke-opacity:1" d="M 941.323,228.567 951.087,228.567 z" id="boundary" inkscape:connector-curvature="0" />
	<path style="fill:none;stroke:red;stroke-width:1px;stroke-linecap:butt;stroke-linejoin:miter;stroke-opacity:1" d="M 951.087,228.567 960.85,228.567 z" id="boundary" inkscape:connector-curvature="0" />
	<path style="fill:none;stroke:red;stroke-width:1px;stroke-linecap:butt;stroke-linejoin:miter;stroke-opacity:1" d="M 960.85,228.567 970.614,228.567 z" id="boundary" inkscape:connector-curvature="0" />
	<path style="fill:none;stroke:red;stroke-width:1px;stroke-linecap:butt;stroke-linejoin:miter;stroke-opacity:1" d="M 970.614,228.567 980.378,228.567 z" id="boundary" inkscape:connector-curvature="0" />
	<path style="fill:none;stroke:red;stroke-width:1px;stroke-linecap:butt;stroke-linejoin:miter;stroke-opacity:1" d="M 980.378,228.567 988.189,234.425 z" id="boundary" inkscape:connector-curvature="0" />
	<path style="fill:none;stroke:red;stroke-width:1px;stroke-linecap:butt;stroke-linejoin:miter;stroke-opacity:1" d="M 988.189,234.425 996,241.26 z" id="boundary" inkscape:connector-curvature="0" />
	<path style="fill:none;stroke:red;stroke-width:1px;stroke-linecap:butt;stroke-linejoin:miter;stroke-opacity:1" d="M 996,241.26 991.118,253.953 z" id="boundary" inkscape:connector-curvature="0" />
	<path style="fill:none;stroke:red;stroke-width:1px;stroke-linecap:butt;stroke-linejoin:miter;stroke-opacity:1" d="M 991.118,253.953 984.283,261.764 z" id="boundary" inkscape:connector-curvature="0" />
	<path style="fill:none;stroke:red;stroke-width:1px;stroke-linecap:butt;stroke-linejoin:miter;stroke-opacity:1" d="M 984.283,261.764 974.52,266.646 z" id="boundary" inkscape:connector-curvature="0" />
	<path style="fill:none;stroke:red;stroke-width:1px;stroke-linecap:butt;stroke-linejoin:miter;stroke-opacity:1" d="M 974.52,266.646 964.756,268.598 z" id="boundary" inkscape:connector-curvature="0" />
	<path style="fill:none;stroke:red;stroke-width:1px;stroke-linecap:butt;stroke-linejoin:miter;stroke-opacity:1" d="M 964.756,268.598 954.992,271.528 z" id="boundary" inkscape:connector-curvature="0" />
	<path style="fill:none;stroke:red;stroke-width:1px;stroke-linecap:butt;stroke-linejoin:miter;stroke-opacity:1" d="M 954.992,271.528 945.228,273.48 z" id="boundary" inkscape:connector-curvature="0" />
	<path style="fill:none;stroke:red;stroke-width:1px;stroke-linecap:butt;stroke-linejoin:miter;stroke-opacity:1" d="M 945.228,273.48 935.465,273.48 z" id="boundary" inkscape:connector-curvature="0" />
	<path style="fill:none;stroke:red;stroke-width:1px;stroke-linecap:butt;stroke-linejoin:miter;stroke-opacity:1" d="M 935.465,273.48 926.677,278.362 z" id="boundary" inkscape:connector-curvature="0" />
	<path style="fill:none;stroke:red;stroke-width:1px;stroke-linecap:butt;stroke-linejoin:miter;stroke-opacity:1" d="M 926.677,278.362 916.913,278.362 z" id="boundary" inkscape:connector-curvature="0" />
	<path style="fill:none;stroke:red;stroke-width:1px;stroke-linecap:butt;stroke-linejoin:miter;stroke-opacity:1" d="M 916.913,278.362 907.15,280.315 z" id="boundary" inkscape:connector-curvature="0" />
	<path style="fill:none;stroke:red;stroke-width:1px;stroke-linecap:butt;stroke-linejoin:miter;stroke-opacity:1" d="M 907.15,280.315 897.386,283.244 z" id="boundary" inkscape:connector-curvature="0" />
	<path style="fill:none;stroke:red;stroke-width:1px;stroke-linecap:butt;stroke-linejoin:miter;stroke-opacity:1" d="M 897.386,283.244 888.598,288.126 z" id="boundary" inkscape:connector-curvature="0" />
	<path style="fill:none;stroke:red;stroke-width:1px;stroke-linecap:butt;stroke-linejoin:miter;stroke-opacity:1" d="M 888.598,288.126 878.835,288.126 z" id="boundary" inkscape:connector-curvature="0" />
	<path style="fill:none;stroke:red;stroke-width:1px;stroke-linecap:butt;stroke-linejoin:miter;stroke-opacity:1" d="M 878.835,288.126 869.071,293.008 z" id="boundary" inkscape:connector-curvature="0" />
	<path style="fill:none;stroke:red;stroke-width:1px;stroke-linecap:butt;stroke-linejoin:miter;stroke-opacity:1" d="M 869.071,293.008 861.26,301.795 z" id="boundary" inkscape:connector-curvature="0" />
	<path style="fill:none;stroke:red;stroke-width:1px;stroke-linecap:butt;stroke-linejoin:miter;stroke-opacity:1" d="M 861.26,301.795 851.496,306.677 z" id="boundary" inkscape:connector-curvature="0" />
	<path style="fill:none;stroke:red;stroke-width:1px;stroke-linecap:butt;stroke-linejoin:miter;stroke-opacity:1" d="M 851.496,306.677 841.732,311.559 z" id="boundary" inkscape:connector-curvature="0" />
	<path style="fill:none;stroke:red;stroke-width:1px;stroke-linecap:butt;stroke-linejoin:miter;stroke-opacity:1" d="M 841.732,311.559 833.921,317.417 z" id="boundary" inkscape:connector-curvature="0" />
	<path style="fill:none;stroke:red;stroke-width:1px;stroke-linecap:butt;stroke-linejoin:miter;stroke-opacity:1" d="M 833.921,317.417 825.134,322.299 z" id="boundary" inkscape:connector-curvature="0" />
	<path style="fill:none;stroke:red;stroke-width:1px;stroke-linecap:butt;stroke-linejoin:miter;stroke-opacity:1" d="M 825.134,322.299 815.37,327.181 z" id="boundary" inkscape:connector-curvature="0" />
	<path style="fill:none;stroke:red;stroke-width:1px;stroke-linecap:butt;stroke-linejoin:miter;stroke-opacity:1" d="M 815.37,327.181 805.606,332.063 z" id="boundary" inkscape:connector-curvature="0" />
	<path style="fill:none;stroke:red;stroke-width:1px;stroke-linecap:butt;stroke-linejoin:miter;stroke-opacity:1" d="M 805.606,332.063 797.795,340.85 z" id="boundary" inkscape:connector-curvature="0" />
	<path style="fill:none;stroke:red;stroke-width:1px;stroke-linecap:butt;stroke-linejoin:miter;stroke-opacity:1" d="M 797.795,340.85 788.031,345.732 z" id="boundary" inkscape:connector-curvature="0" />
	<path style="fill:none;stroke:red;stroke-width:1px;stroke-linecap:butt;stroke-linejoin:miter;stroke-opacity:1" d="M 788.031,345.732 778.268,346.709 z" id="boundary" inkscape:connector-curvature="0" />
	<path style="fill:none;stroke:red;stroke-width:1px;stroke-linecap:butt;stroke-linejoin:miter;stroke-opacity:1" d="M 778.268,346.709 768.504,350.614 z" id="boundary" inkscape:connector-curvature="0" />
	<path style="fill:none;stroke:red;stroke-width:1px;stroke-linecap:butt;stroke-linejoin:miter;stroke-opacity:1" d="M 768.504,350.614 758.74,355.496 z" id="boundary" inkscape:connector-curvature="0" />
	<path style="fill:none;stroke:red;stroke-width:1px;stroke-linecap:butt;stroke-linejoin:miter;stroke-opacity:1" d="M 758.74,355.496 748.976,356.472 z" id="boundary" inkscape:connector-curvature="0" />
	<path style="fill:none;stroke:red;stroke-width:1px;stroke-linecap:butt;stroke-linejoin:miter;stroke-opacity:1" d="M 748.976,356.472 739.213,356.472 z" id="boundary" inkscape:connector-curvature="0" />
	<path style="fill:none;stroke:red;stroke-width:1px;stroke-linecap:butt;stroke-linejoin:miter;stroke-opacity:1" d="M 739.213,356.472 729.449,360.378 z" id="boundary" inkscape:connector-curvature="0" />
	<path style="fill:none;stroke:red;stroke-width:1px;stroke-linecap:butt;stroke-linejoin:miter;stroke-opacity:1" d="M 729.449,360.378 719.685,361.354 z" id="boundary" inkscape:connector-curvature="0" />
	<path style="fill:none;stroke:red;stroke-width:1px;stroke-linecap:butt;stroke-linejoin:miter;stroke-opacity:1" d="M 719.685,361.354 709.921,361.354 z" id="boundary" inkscape:connector-curvature="0" />
	<path style="fill:none;stroke:red;stroke-width:1px;stroke-linecap:butt;stroke-linejoin:miter;stroke-opacity:1" d="M 709.921,361.354 701.134,366.236 z" id="boundary" inkscape:connector-curvature="0" />
	<path style="fill:none;stroke:red;stroke-width:1px;stroke-linecap:butt;stroke-linejoin:miter;stroke-opacity:1" d="M 701.134,366.236 691.37,366.236 z" id="boundary" inkscape:connector-curvature="0" />
	<path style="fill:none;stroke:red;stroke-width:1px;stroke-linecap:butt;stroke-linejoin:miter;stroke-opacity:1" d="M 691.37,366.236 681.606,369.165 z" id="boundary" inkscape:connector-curvature="0" />
	<path style="fill:none;stroke:red;stroke-width:1px;stroke-linecap:butt;stroke-linejoin:miter;stroke-opacity:1" d="M 681.606,369.165 671.843,371.118 z" id="boundary" inkscape:connector-curvature="0" />
	<path style="fill:none;stroke:red;stroke-width:1px;stroke-linecap:butt;stroke-linejoin:miter;stroke-opacity:1" d="M 671.843,371.118 663.055,376 z" id="boundary" inkscape:connector-curvature="0" />
	<path style="fill:none;stroke:red;stroke-width:1px;stroke-linecap:butt;stroke-linejoin:miter;stroke-opacity:1" d="M 663.055,376 654.268,380.882 z" id="boundary" inkscape:connector-curvature="0" />
	<path style="fill:none;stroke:red;stroke-width:1px;stroke-linecap:butt;stroke-linejoin:miter;stroke-opacity:1" d="M 654.268,380.882 654.268,390.646 z" id="boundary" inkscape:connector-curvature="0" />
	<path style="fill:none;stroke:red;stroke-width:1px;stroke-linecap:butt;stroke-linejoin:miter;stroke-opacity:1" d="M 654.268,390.646 654.268,400.409 z" id="boundary" inkscape:connector-curvature="0" />
	<path style="fill:none;stroke:red;stroke-width:1px;stroke-linecap:butt;stroke-linejoin:miter;stroke-opacity:1" d="M 654.268,400.409 654.268,410.173 z" id="boundary" inkscape:connector-curvature="0" />
	<path style="fill:none;stroke:red;stroke-width:1px;stroke-linecap:butt;stroke-linejoin:miter;stroke-opacity:1" d="M 654.268,410.173 664.031,414.079 z" id="boundary" inkscape:connector-curvature="0" />
	<path style="fill:none;stroke:red;stroke-width:1px;stroke-linecap:butt;stroke-linejoin:miter;stroke-opacity:1" d="M 664.031,414.079 673.795,414.079 z" id="boundary" inkscape:connector-curvature="0" />
	<path style="fill:none;stroke:red;stroke-width:1px;stroke-linecap:butt;stroke-linejoin:miter;stroke-opacity:1" d="M 673.795,414.079 682.583,409.197 z" id="boundary" inkscape:connector-curvature="0" />
	<path style="fill:none;stroke:red;stroke-width:1px;stroke-linecap:butt;stroke-linejoin:miter;stroke-opacity:1" d="M 682.583,409.197 692.346,406.268 z" id="boundary" inkscape:connector-curvature="0" />
	<path style="fill:none;stroke:red;stroke-width:1px;stroke-linecap:butt;stroke-linejoin:miter;stroke-opacity:1" d="M 692.346,406.268 698.205,414.079 z" id="boundary" inkscape:connector-curvature="0" />
	<path style="fill:none;stroke:red;stroke-width:1px;stroke-linecap:butt;stroke-linejoin:miter;stroke-opacity:1" d="M 698.205,414.079 703.087,422.866 z" id="boundary" inkscape:connector-curvature="0" />
	<path style="fill:none;stroke:red;stroke-width:1px;stroke-linecap:butt;stroke-linejoin:miter;stroke-opacity:1" d="M 703.087,422.866 703.087,432.63 z" id="boundary" inkscape:connector-curvature="0" />
	<path style="fill:none;stroke:red;stroke-width:1px;stroke-linecap:butt;stroke-linejoin:miter;stroke-opacity:1" d="M 703.087,432.63 703.087,442.394 z" id="boundary" inkscape:connector-curvature="0" />
	<path style="fill:none;stroke:red;stroke-width:1px;stroke-linecap:butt;stroke-linejoin:miter;stroke-opacity:1" d="M 703.087,442.394 703.087,452.157 z" id="boundary" inkscape:connector-curvature="0" />
	<path style="fill:none;stroke:red;stroke-width:1px;stroke-linecap:butt;stroke-linejoin:miter;stroke-opacity:1" d="M 703.087,452.157 703.087,461.921 z" id="boundary" inkscape:connector-curvature="0" />
	<path style="fill:none;stroke:red;stroke-width:1px;stroke-linecap:butt;stroke-linejoin:miter;stroke-opacity:1" d="M 703.087,461.921 710.898,468.756 z" id="boundary" inkscape:connector-curvature="0" />
	<path style="fill:none;stroke:red;stroke-width:1px;stroke-linecap:butt;stroke-linejoin:miter;stroke-opacity:1" d="M 710.898,468.756 710.898,481.449 z" id="boundary" inkscape:connector-curvature="0" />
	<path style="fill:none;stroke:red;stroke-width:1px;stroke-linecap:butt;stroke-linejoin:miter;stroke-opacity:1" d="M 710.898,481.449 703.087,488.283 z" id="boundary" inkscape:connector-curvature="0" />
	<path style="fill:none;stroke:red;stroke-width:1px;stroke-linecap:butt;stroke-linejoin:miter;stroke-opacity:1" d="M 703.087,488.283 693.323,488.283 z" id="boundary" inkscape:connector-curvature="0" />
	<path style="fill:none;stroke:red;stroke-width:1px;stroke-linecap:butt;stroke-linejoin:miter;stroke-opacity:1" d="M 693.323,488.283 683.559,493.165 z" id="boundary" inkscape:connector-curvature="0" />
	<path style="fill:none;stroke:red;stroke-width:1px;stroke-linecap:butt;stroke-linejoin:miter;stroke-opacity:1" d="M 683.559,493.165 673.795,493.165 z" id="boundary" inkscape:connector-curvature="0" />
	<path style="fill:none;stroke:red;stroke-width:1px;stroke-linecap:butt;stroke-linejoin:miter;stroke-opacity:1" d="M 673.795,493.165 664.031,493.165 z" id="boundary" inkscape:connector-curvature="0" />
	<path style="fill:none;stroke:red;stroke-width:1px;stroke-linecap:butt;stroke-linejoin:miter;stroke-opacity:1" d="M 664.031,493.165 654.268,493.165 z" id="boundary" inkscape:connector-curvature="0" />
	<path style="fill:none;stroke:red;stroke-width:1px;stroke-linecap:butt;stroke-linejoin:miter;stroke-opacity:1" d="M 654.268,493.165 644.504,493.165 z" id="boundary" inkscape:connector-curvature="0" />
	<path style="fill:none;stroke:red;stroke-width:1px;stroke-linecap:butt;stroke-linejoin:miter;stroke-opacity:1" d="M 644.504,493.165 634.74,493.165 z" id="boundary" inkscape:connector-curvature="0" />
	<path style="fill:none;stroke:red;stroke-width:1px;stroke-linecap:butt;stroke-linejoin:miter;stroke-opacity:1" d="M 634.74,493.165 624.976,493.165 z" id="boundary" inkscape:connector-curvature="0" />
	<path style="fill:none;stroke:red;stroke-width:1px;stroke-linecap:butt;stroke-linejoin:miter;stroke-opacity:1" d="M 624.976,493.165 615.213,493.165 z" id="boundary" inkscape:connector-curvature="0" />
	<path style="fill:none;stroke:red;stroke-width:1px;stroke-linecap:butt;stroke-linejoin:miter;stroke-opacity:1" d="M 615.213,493.165 605.449,493.165 z" id="boundary" inkscape:connector-curvature="0" />
	<path style="fill:none;stroke:red;stroke-width:1px;stroke-linecap:butt;stroke-linejoin:miter;stroke-opacity:1" d="M 605.449,493.165 595.685,493.165 z" id="boundary" inkscape:connector-curvature="0" />
	<path style="fill:none;stroke:red;stroke-width:1px;stroke-linecap:butt;stroke-linejoin:miter;stroke-opacity:1" d="M 595.685,493.165 585.921,493.165 z" id="boundary" inkscape:connector-curvature="0" />
	<path style="fill:none;stroke:red;stroke-width:1px;stroke-linecap:butt;stroke-linejoin:miter;stroke-opacity:1" d="M 585.921,493.165 576.157,493.165 z" id="boundary" inkscape:connector-curvature="0" />
	<path style="fill:none;stroke:red;stroke-width:1px;stroke-linecap:butt;stroke-linejoin:miter;stroke-opacity:1" d="M 576.157,493.165 567.37,498.047 z" id="boundary" inkscape:connector-curvature="0" />
	<path style="fill:none;stroke:red;stroke-width:1px;stroke-linecap:butt;stroke-linejoin:miter;stroke-opacity:1" d="M 567.37,498.047 557.606,498.047 z" id="boundary" inkscape:connector-curvature="0" />
	<path style="fill:none;stroke:red;stroke-width:1px;stroke-linecap:butt;stroke-linejoin:miter;stroke-opacity:1" d="M 557.606,498.047 547.843,498.047 z" id="boundary" inkscape:connector-curvature="0" />
	<path style="fill:none;stroke:red;stroke-width:1px;stroke-linecap:butt;stroke-linejoin:miter;stroke-opacity:1" d="M 547.843,498.047 539.055,502.929 z" id="boundary" inkscape:connector-curvature="0" />
	<path style="fill:none;stroke:red;stroke-width:1px;stroke-linecap:butt;stroke-linejoin:miter;stroke-opacity:1" d="M 539.055,502.929 529.291,502.929 z" id="boundary" inkscape:connector-curvature="0" />
	<path style="fill:none;stroke:red;stroke-width:1px;stroke-linecap:butt;stroke-linejoin:miter;stroke-opacity:1" d="M 529.291,502.929 519.528,502.929 z" id="boundary" inkscape:connector-curvature="0" />
	<path style="fill:none;stroke:red;stroke-width:1px;stroke-linecap:butt;stroke-linejoin:miter;stroke-opacity:1" d="M 519.528,502.929 509.764,506.835 z" id="boundary" inkscape:connector-curvature="0" />
	<path style="fill:none;stroke:red;stroke-width:1px;stroke-linecap:butt;stroke-linejoin:miter;stroke-opacity:1" d="M 509.764,506.835 500,511.717 z" id="boundary" inkscape:connector-curvature="0" />
	<path style="fill:none;stroke:red;stroke-width:1px;stroke-linecap:butt;stroke-linejoin:miter;stroke-opacity:1" d="M 500,511.717 490.236,512.693 z" id="boundary" inkscape:connector-curvature="0" />
	<path style="fill:none;stroke:red;stroke-width:1px;stroke-linecap:butt;stroke-linejoin:miter;stroke-opacity:1" d="M 490.236,512.693 480.472,512.693 z" id="boundary" inkscape:connector-curvature="0" />
	<path style="fill:none;stroke:red;stroke-width:1px;stroke-linecap:butt;stroke-linejoin:miter;stroke-opacity:1" d="M 480.472,512.693 471.685,517.575 z" id="boundary" inkscape:connector-curvature="0" />
	<path style="fill:none;stroke:red;stroke-width:1px;stroke-linecap:butt;stroke-linejoin:miter;stroke-opacity:1" d="M 471.685,517.575 461.921,517.575 z" id="boundary" inkscape:connector-curvature="0" />
	<path style="fill:none;stroke:red;stroke-width:1px;stroke-linecap:butt;stroke-linejoin:miter;stroke-opacity:1" d="M 461.921,517.575 452.157,517.575 z" id="boundary" inkscape:connector-curvature="0" />
	<path style="fill:none;stroke:red;stroke-width:1px;stroke-linecap:butt;stroke-linejoin:miter;stroke-opacity:1" d="M 452.157,517.575 442.394,520.504 z" id="boundary" inkscape:connector-curvature="0" />
	<path style="fill:none;stroke:red;stroke-width:1px;stroke-linecap:butt;stroke-linejoin:miter;stroke-opacity:1" d="M 442.394,520.504 434.583,527.339 z" id="boundary" inkscape:connector-curvature="0" />
	<path style="fill:none;stroke:red;stroke-width:1px;stroke-linecap:butt;stroke-linejoin:miter;stroke-opacity:1" d="M 434.583,527.339 434.583,537.102 z" id="boundary" inkscape:connector-curvature="0" />
	<path style="fill:none;stroke:red;stroke-width:1px;stroke-linecap:butt;stroke-linejoin:miter;stroke-opacity:1" d="M 434.583,537.102 434.583,546.866 z" id="boundary" inkscape:connector-curvature="0" />
	<path style="fill:none;stroke:red;stroke-width:1px;stroke-linecap:butt;stroke-linejoin:miter;stroke-opacity:1" d="M 434.583,546.866 434.583,556.63 z" id="boundary" inkscape:connector-curvature="0" />
	<path style="fill:none;stroke:red;stroke-width:1px;stroke-linecap:butt;stroke-linejoin:miter;stroke-opacity:1" d="M 8.88189,421.89 4,436.535 z" id="boundary" inkscape:connector-curvature="0" />
	<path style="fill:none;stroke:red;stroke-width:1px;stroke-linecap:butt;stroke-linejoin:miter;stroke-opacity:1" d="M 4,436.535 4,446.299 z" id="boundary" inkscape:connector-curvature="0" />
	<path style="fill:none;stroke:red;stroke-width:1px;stroke-linecap:butt;stroke-linejoin:miter;stroke-opacity:1" d="M 4,446.299 4,456.063 z" id="boundary" inkscape:connector-curvature="0" />
	<path style="fill:none;stroke:red;stroke-width:1px;stroke-linecap:butt;stroke-linejoin:miter;stroke-opacity:1" d="M 4,456.063 8.88189,464.85 z" id="boundary" inkscape:connector-curvature="0" />
	<path style="fill:none;stroke:red;stroke-width:1px;stroke-linecap:butt;stroke-linejoin:miter;stroke-opacity:1" d="M 8.88189,464.85 15.7165,472.661 z" id="boundary" inkscape:connector-curvature="0" />
	<path style="fill:none;stroke:red;stroke-width:1px;stroke-linecap:butt;stroke-linejoin:miter;stroke-opacity:1" d="M 15.7165,472.661 25.4803,476.567 z" id="boundary" inkscape:connector-curvature="0" />
	<path style="fill:none;stroke:red;stroke-width:1px;stroke-linecap:butt;stroke-linejoin:miter;stroke-opacity:1" d="M 25.4803,476.567 35.2441,478.52 z" id="boundary" inkscape:connector-curvature="0" />
	<path style="fill:none;stroke:red;stroke-width:1px;stroke-linecap:butt;stroke-linejoin:miter;stroke-opacity:1" d="M 35.2441,478.52 43.0551,484.378 z" id="boundary" inkscape:connector-curvature="0" />
	<path style="fill:none;stroke:red;stroke-width:1px;stroke-linecap:butt;stroke-linejoin:miter;stroke-opacity:1" d="M 43.0551,484.378 49.8898,492.189 z" id="boundary" inkscape:connector-curvature="0" />
	<path style="fill:none;stroke:red;stroke-width:1px;stroke-linecap:butt;stroke-linejoin:miter;stroke-opacity:1" d="M 49.8898,492.189 59.6535,496.094 z" id="boundary" inkscape:connector-curvature="0" />
	<path style="fill:none;stroke:red;stroke-width:1px;stroke-linecap:butt;stroke-linejoin:miter;stroke-opacity:1" d="M 59.6535,496.094 68.4409,500.976 z" id="boundary" inkscape:connector-curvature="0" />
	<path style="fill:none;stroke:red;stroke-width:1px;stroke-linecap:butt;stroke-linejoin:miter;stroke-opacity:1" d="M 68.4409,500.976 78.2047,502.929 z" id="boundary" inkscape:connector-curvature="0" />
	<path style="fill:none;stroke:red;stroke-width:1px;stroke-linecap:butt;stroke-linejoin:miter;stroke-opacity:1" d="M 78.2047,502.929 87.9685,502.929 z" id="boundary" inkscape:connector-curvature="0" />
	<path style="fill:none;stroke:red;stroke-width:1px;stroke-linecap:butt;stroke-linejoin:miter;stroke-opacity:1" d="M 87.9685,502.929 96.7559,507.811 z" id="boundary" inkscape:connector-curvature="0" />
	<path style="fill:none;stroke:red;stroke-width:1px;stroke-linecap:butt;stroke-linejoin:miter;stroke-opacity:1" d="M 96.7559,507.811 106.52,507.811 z" id="boundary" inkscape:connector-curvature="0" />
	<path style="fill:none;stroke:red;stroke-width:1px;stroke-linecap:butt;stroke-linejoin:miter;stroke-opacity:1" d="M 106.52,507.811 116.283,507.811 z" id="boundary" inkscape:connector-curvature="0" />
	<path style="fill:none;stroke:red;stroke-width:1px;stroke-linecap:butt;stroke-linejoin:miter;stroke-opacity:1" d="M 116.283,507.811 126.047,507.811 z" id="boundary" inkscape:connector-curvature="0" />
	<path style="fill:none;stroke:red;stroke-width:1px;stroke-linecap:butt;stroke-linejoin:miter;stroke-opacity:1" d="M 126.047,507.811 135.811,507.811 z" id="boundary" inkscape:connector-curvature="0" />
	<path style="fill:none;stroke:red;stroke-width:1px;stroke-linecap:butt;stroke-linejoin:miter;stroke-opacity:1" d="M 135.811,507.811 145.575,507.811 z" id="boundary" inkscape:connector-curvature="0" />
	<path style="fill:none;stroke:red;stroke-width:1px;stroke-linecap:butt;stroke-linejoin:miter;stroke-opacity:1" d="M 145.575,507.811 155.339,507.811 z" id="boundary" inkscape:connector-curvature="0" />
	<path style="fill:none;stroke:red;stroke-width:1px;stroke-linecap:butt;stroke-linejoin:miter;stroke-opacity:1" d="M 155.339,507.811 165.102,507.811 z" id="boundary" inkscape:connector-curvature="0" />
	<path style="fill:none;stroke:red;stroke-width:1px;stroke-linecap:butt;stroke-linejoin:miter;stroke-opacity:1" d="M 165.102,507.811 174.866,507.811 z" id="boundary" inkscape:connector-curvature="0" />
	<path style="fill:none;stroke:red;stroke-width:1px;stroke-linecap:butt;stroke-linejoin:miter;stroke-opacity:1" d="M 174.866,507.811 179.748,516.598 z" id="boundary" inkscape:connector-curvature="0" />
	<path style="fill:none;stroke:red;stroke-width:1px;stroke-linecap:butt;stroke-linejoin:miter;stroke-opacity:1" d="M 179.748,516.598 179.748,526.362 z" id="boundary" inkscape:connector-curvature="0" />
	<path style="fill:none;stroke:red;stroke-width:1px;stroke-linecap:butt;stroke-linejoin:miter;stroke-opacity:1" d="M 179.748,526.362 179.748,536.126 z" id="boundary" inkscape:connector-curvature="0" />
	<path style="fill:none;stroke:red;stroke-width:1px;stroke-linecap:butt;stroke-linejoin:miter;stroke-opacity:1" d="M 179.748,536.126 179.748,545.89 z" id="boundary" inkscape:connector-curvature="0" />
	<path style="fill:none;stroke:red;stroke-width:1px;stroke-linecap:butt;stroke-linejoin:miter;stroke-opacity:1" d="M 179.748,545.89 179.748,555.654 z" id="boundary" inkscape:connector-curvature="0" />
	<path style="fill:none;stroke:red;stroke-width:1px;stroke-linecap:butt;stroke-linejoin:miter;stroke-opacity:1" d="M 179.748,555.654 179.748,565.417 z" id="boundary" inkscape:connector-curvature="0" />
	<path style="fill:none;stroke:red;stroke-width:1px;stroke-linecap:butt;stroke-linejoin:miter;stroke-opacity:1" d="M 434.583,556.63 426.772,570.299 z" id="boundary" inkscape:connector-curvature="0" />
	<path style="fill:none;stroke:red;stroke-width:1px;stroke-linecap:butt;stroke-linejoin:miter;stroke-opacity:1" d="M 426.772,570.299 417.984,576.157 z" id="boundary" inkscape:connector-curvature="0" />
	<path style="fill:none;stroke:red;stroke-width:1px;stroke-linecap:butt;stroke-linejoin:miter;stroke-opacity:1" d="M 417.984,576.157 409.197,581.039 z" id="boundary" inkscape:connector-curvature="0" />
	<path style="fill:none;stroke:red;stroke-width:1px;stroke-linecap:butt;stroke-linejoin:miter;stroke-opacity:1" d="M 409.197,581.039 399.433,581.039 z" id="boundary" inkscape:connector-curvature="0" />
	<path style="fill:none;stroke:red;stroke-width:1px;stroke-linecap:butt;stroke-linejoin:miter;stroke-opacity:1" d="M 399.433,581.039 389.669,582.992 z" id="boundary" inkscape:connector-curvature="0" />
	<path style="fill:none;stroke:red;stroke-width:1px;stroke-linecap:butt;stroke-linejoin:miter;stroke-opacity:1" d="M 389.669,582.992 379.906,585.921 z" id="boundary" inkscape:connector-curvature="0" />
	<path style="fill:none;stroke:red;stroke-width:1px;stroke-linecap:butt;stroke-linejoin:miter;stroke-opacity:1" d="M 379.906,585.921 370.142,585.921 z" id="boundary" inkscape:connector-curvature="0" />
	<path style="fill:none;stroke:red;stroke-width:1px;stroke-linecap:butt;stroke-linejoin:miter;stroke-opacity:1" d="M 370.142,585.921 361.354,590.803 z" id="boundary" inkscape:connector-curvature="0" />
	<path style="fill:none;stroke:red;stroke-width:1px;stroke-linecap:butt;stroke-linejoin:miter;stroke-opacity:1" d="M 361.354,590.803 351.591,590.803 z" id="boundary" inkscape:connector-curvature="0" />
	<path style="fill:none;stroke:red;stroke-width:1px;stroke-linecap:butt;stroke-linejoin:miter;stroke-opacity:1" d="M 351.591,590.803 341.827,590.803 z" id="boundary" inkscape:connector-curvature="0" />
	<path style="fill:none;stroke:red;stroke-width:1px;stroke-linecap:butt;stroke-linejoin:miter;stroke-opacity:1" d="M 341.827,590.803 332.063,590.803 z" id="boundary" inkscape:connector-curvature="0" />
	<path style="fill:none;stroke:red;stroke-width:1px;stroke-linecap:butt;stroke-linejoin:miter;stroke-opacity:1" d="M 332.063,590.803 322.299,590.803 z" id="boundary" inkscape:connector-curvature="0" />
	<path style="fill:none;stroke:red;stroke-width:1px;stroke-linecap:butt;stroke-linejoin:miter;stroke-opacity:1" d="M 322.299,590.803 312.535,590.803 z" id="boundary" inkscape:connector-curvature="0" />
	<path style="fill:none;stroke:red;stroke-width:1px;stroke-linecap:butt;stroke-linejoin:miter;stroke-opacity:1" d="M 312.535,590.803 302.772,590.803 z" id="boundary" inkscape:connector-curvature="0" />
	<path style="fill:none;stroke:red;stroke-width:1px;stroke-linecap:butt;stroke-linejoin:miter;stroke-opacity:1" d="M 302.772,590.803 293.008,590.803 z" id="boundary" inkscape:connector-curvature="0" />
	<path style="fill:none;stroke:red;stroke-width:1px;stroke-linecap:butt;stroke-linejoin:miter;stroke-opacity:1" d="M 293.008,590.803 283.244,590.803 z" id="boundary" inkscape:connector-curvature="0" />
	<path style="fill:none;stroke:red;stroke-width:1px;stroke-linecap:butt;stroke-linejoin:miter;stroke-opacity:1" d="M 283.244,590.803 273.48,590.803 z" id="boundary" inkscape:connector-curvature="0" />
	<path style="fill:none;stroke:red;stroke-width:1px;stroke-linecap:butt;stroke-linejoin:miter;stroke-opacity:1" d="M 273.48,590.803 263.717,590.803 z" id="boundary" inkscape:connector-curvature="0" />
	<path style="fill:none;stroke:red;stroke-width:1px;stroke-linecap:butt;stroke-linejoin:miter;stroke-opacity:1" d="M 263.717,590.803 253.953,590.803 z" id="boundary" inkscape:connector-curvature="0" />
	<path style="fill:none;stroke:red;stroke-width:1px;stroke-linecap:butt;stroke-linejoin:miter;stroke-opacity:1" d="M 253.953,590.803 244.189,595.685 z" id="boundary" inkscape:connector-curvature="0" />
	<path style="fill:none;stroke:red;stroke-width:1px;stroke-linecap:butt;stroke-linejoin:miter;stroke-opacity:1" d="M 244.189,595.685 234.425,595.685 z" id="boundary" inkscape:connector-curvature="0" />
	<path style="fill:none;stroke:red;stroke-width:1px;stroke-linecap:butt;stroke-linejoin:miter;stroke-opacity:1" d="M 234.425,595.685 224.661,595.685 z" id="boundary" inkscape:connector-curvature="0" />
	<path style="fill:none;stroke:red;stroke-width:1px;stroke-linecap:butt;stroke-linejoin:miter;stroke-opacity:1" d="M 224.661,595.685 214.898,595.685 z" id="boundary" inkscape:connector-curvature="0" />
	<path style="fill:none;stroke:red;stroke-width:1px;stroke-linecap:butt;stroke-linejoin:miter;stroke-opacity:1" d="M 214.898,595.685 206.11,600.567 z" id="boundary" inkscape:connector-curvature="0" />
	<path style="fill:none;stroke:red;stroke-width:1px;stroke-linecap:butt;stroke-linejoin:miter;stroke-opacity:1" d="M 206.11,600.567 196.346,600.567 z" id="boundary" inkscape:connector-curvature="0" />
	<path style="fill:none;stroke:red;stroke-width:1px;stroke-linecap:butt;stroke-linejoin:miter;stroke-opacity:1" d="M 196.346,600.567 187.559,605.449 z" id="boundary" inkscape:connector-curvature="0" />
	<path style="fill:none;stroke:red;stroke-width:1px;stroke-linecap:butt;stroke-linejoin:miter;stroke-opacity:1" d="M 187.559,605.449 178.772,610.331 z" id="boundary" inkscape:connector-curvature="0" />
	<path style="fill:none;stroke:red;stroke-width:1px;stroke-linecap:butt;stroke-linejoin:miter;stroke-opacity:1" d="M 178.772,610.331 169.008,610.331 z" id="boundary" inkscape:connector-curvature="0" />
	<path style="fill:none;stroke:red;stroke-width:1px;stroke-linecap:butt;stroke-linejoin:miter;stroke-opacity:1" d="M 169.008,610.331 160.22,615.213 z" id="boundary" inkscape:connector-curvature="0" />
	<path style="fill:none;stroke:red;stroke-width:1px;stroke-linecap:butt;stroke-linejoin:miter;stroke-opacity:1" d="M 160.22,615.213 150.457,615.213 z" id="boundary" inkscape:connector-curvature="0" />
	<path style="fill:none;stroke:red;stroke-width:1px;stroke-linecap:butt;stroke-linejoin:miter;stroke-opacity:1" d="M 150.457,615.213 140.693,617.165 z" id="boundary" inkscape:connector-curvature="0" />
	<path style="fill:none;stroke:red;stroke-width:1px;stroke-linecap:butt;stroke-linejoin:miter;stroke-opacity:1" d="M 140.693,617.165 130.929,620.094 z" id="boundary" inkscape:connector-curvature="0" />
	<path style="fill:none;stroke:red;stroke-width:1px;stroke-linecap:butt;stroke-linejoin:miter;stroke-opacity:1" d="M 130.929,620.094 121.165,617.165 z" id="boundary" inkscape:connector-curvature="0" />
	<path style="fill:none;stroke:red;stroke-width:1px;stroke-linecap:butt;stroke-linejoin:miter;stroke-opacity:1" d="M 121.165,617.165 130.929,607.402 z" id="boundary" inkscape:connector-curvature="0" />
	<path style="fill:none;stroke:red;stroke-width:1px;stroke-linecap:butt;stroke-linejoin:miter;stroke-opacity:1" d="M 130.929,607.402 138.74,599.591 z" id="boundary" inkscape:connector-curvature="0" />
	<path style="fill:none;stroke:red;stroke-width:1px;stroke-linecap:butt;stroke-linejoin:miter;stroke-opacity:1" d="M 138.74,599.591 148.504,594.709 z" id="boundary" inkscape:connector-curvature="0" />
	<path style="fill:none;stroke:red;stroke-width:1px;stroke-linecap:butt;stroke-linejoin:miter;stroke-opacity:1" d="M 148.504,594.709 157.291,589.827 z" id="boundary" inkscape:connector-curvature="0" />
	<path style="fill:none;stroke:red;stroke-width:1px;stroke-linecap:butt;stroke-linejoin:miter;stroke-opacity:1" d="M 157.291,589.827 166.079,584.945 z" id="boundary" inkscape:connector-curvature="0" />
	<path style="fill:none;stroke:red;stroke-width:1px;stroke-linecap:butt;stroke-linejoin:miter;stroke-opacity:1" d="M 166.079,584.945 175.843,582.016 z" id="boundary" inkscape:connector-curvature="0" />
	<path style="fill:none;stroke:red;stroke-width:1px;stroke-linecap:butt;stroke-linejoin:miter;stroke-opacity:1" d="M 179.748,565.417 175.843,582.016 z" id="boundary" inkscape:connector-curvature="0" />
	<circle cx="4" cy="436.535" r="4" fill="#0" id="circle0"/>
	<circle cx="4" cy="446.299" r="4" fill="#0" id="circle1"/>
	<circle cx="4" cy="456.063" r="4" fill="#0" id="circle2"/>
	<circle cx="8.88189" cy="412.126" r="4" fill="#0" id="circle3"/>
	<circle cx="8.88189" cy="421.89" r="4" fill="#0" id="circle4"/>
	<circle cx="8.88189" cy="464.85" r="4" fill="#0" id="circle5"/>
	<circle cx="13.7638" cy="392.598" r="4" fill="#0" id="circle6"/>
	<circle cx="13.7638" cy="402.362" r="4" fill="#0" id="circle7"/>
	<circle cx="15.7165" cy="472.661" r="4" fill="#0" id="circle8"/>
	<circle cx="18.6457" cy="377.953" r="4" fill="#0" id="circle9"/>
	<circle cx="23.5276" cy="363.307" r="4" fill="#0" id="circle10"/>
	<circle cx="25.4803" cy="476.567" r="4" fill="#0" id="circle11"/>
	<circle cx="28.4094" cy="338.898" r="4" fill="#0" id="circle12"/>
	<circle cx="28.4094" cy="348.661" r="4" fill="#0" id="circle13"/>
	<circle cx="33.2913" cy="329.134" r="4" fill="#0" id="circle14"/>
	<circle cx="35.2441" cy="478.52" r="4" fill="#0" id="circle15"/>
	<circle cx="38.1732" cy="309.606" r="4" fill="#0" id="circle16"/>
	<circle cx="38.1732" cy="319.37" r="4" fill="#0" id="circle17"/>
	<circle cx="43.0551" cy="299.843" r="4" fill="#0" id="circle18"/>
	<circle cx="43.0551" cy="484.378" r="4" fill="#0" id="circle19"/>
	<circle cx="47.937" cy="285.197" r="4" fill="#0" id="circle20"/>
	<circle cx="49.8898" cy="492.189" r="4" fill="#0" id="circle21"/>
	<circle cx="52.8189" cy="275.433" r="4" fill="#0" id="circle22"/>
	<circle cx="59.6535" cy="496.094" r="4" fill="#0" id="circle23"/>
	<circle cx="60.6299" cy="267.622" r="4" fill="#0" id="circle24"/>
	<circle cx="68.4409" cy="259.811" r="4" fill="#0" id="circle25"/>
	<circle cx="68.4409" cy="500.976" r="4" fill="#0" id="circle26"/>
	<circle cx="76.252" cy="252.976" r="4" fill="#0" id="circle27"/>
	<circle cx="78.2047" cy="502.929" r="4" fill="#0" id="circle28"/>
	<circle cx="82.1102" cy="241.26" r="4" fill="#0" id="circle29"/>
	<circle cx="87.9685" cy="502.929" r="4" fill="#0" id="circle30"/>
	<circle cx="89.9213" cy="233.449" r="4" fill="#0" id="circle31"/>
	<circle cx="96.7559" cy="507.811" r="4" fill="#0" id="circle32"/>
	<circle cx="97.7323" cy="225.638" r="4" fill="#0" id="circle33"/>
	<circle cx="105.543" cy="218.803" r="4" fill="#0" id="circle34"/>
	<circle cx="106.52" cy="507.811" r="4" fill="#0" id="circle35"/>
	<circle cx="112.378" cy="210.992" r="4" fill="#0" id="circle36"/>
	<circle cx="116.283" cy="507.811" r="4" fill="#0" id="circle37"/>
	<circle cx="120.189" cy="204.157" r="4" fill="#0" id="circle38"/>
	<circle cx="121.165" cy="617.165" r="4" fill="#0" id="circle39"/>
	<circle cx="126.047" cy="507.811" r="4" fill="#0" id="circle40"/>
	<circle cx="127.024" cy="196.346" r="4" fill="#0" id="circle41"/>
	<circle cx="130.929" cy="607.402" r="4" fill="#0" id="circle42"/>
	<circle cx="130.929" cy="620.094" r="4" fill="#0" id="circle43"/>
	<circle cx="134.835" cy="189.512" r="4" fill="#0" id="circle44"/>
	<circle cx="135.811" cy="507.811" r="4" fill="#0" id="circle45"/>
	<circle cx="138.74" cy="599.591" r="4" fill="#0" id="circle46"/>
	<circle cx="140.693" cy="617.165" r="4" fill="#0" id="circle47"/>
	<circle cx="143.622" cy="184.63" r="4" fill="#0" id="circle48"/>
	<circle cx="145.575" cy="507.811" r="4" fill="#0" id="circle49"/>
	<circle cx="148.504" cy="594.709" r="4" fill="#0" id="circle50"/>
	<circle cx="150.457" cy="615.213" r="4" fill="#0" id="circle51"/>
	<circle cx="151.433" cy="176.819" r="4" fill="#0" id="circle52"/>
	<circle cx="155.339" cy="507.811" r="4" fill="#0" id="circle53"/>
	<circle cx="157.291" cy="589.827" r="4" fill="#0" id="circle54"/>
	<circle cx="159.244" cy="169.984" r="4" fill="#0" id="circle55"/>
	<circle cx="160.22" cy="615.213" r="4" fill="#0" id="circle56"/>
	<circle cx="165.102" cy="507.811" r="4" fill="#0" id="circle57"/>
	<circle cx="166.079" cy="584.945" r="4" fill="#0" id="circle58"/>
	<circle cx="168.031" cy="165.102" r="4" fill="#0" id="circle59"/>
	<circle cx="169.008" cy="610.331" r="4" fill="#0" id="circle60"/>
	<circle cx="174.866" cy="507.811" r="4" fill="#0" id="circle61"/>
	<circle cx="175.843" cy="582.016" r="4" fill="#0" id="circle62"/>
	<circle cx="176.819" cy="160.22" r="4" fill="#0" id="circle63"/>
	<circle cx="178.772" cy="610.331" r="4" fill="#0" id="circle64"/>
	<circle cx="179.748" cy="516.598" r="4" fill="#0" id="circle65"/>
	<circle cx="179.748" cy="526.362" r="4" fill="#0" id="circle66"/>
	<circle cx="179.748" cy="536.126" r="4" fill="#0" id="circle67"/>
	<circle cx="179.748" cy="545.89" r="4" fill="#0" id="circle68"/>
	<circle cx="179.748" cy="555.654" r="4" fill="#0" id="circle69"/>
	<circle cx="179.748" cy="565.417" r="4" fill="#0" id="circle70"/>
	<circle cx="185.606" cy="155.339" r="4" fill="#0" id="circle71"/>
	<circle cx="187.559" cy="605.449" r="4" fill="#0" id="circle72"/>
	<circle cx="195.37" cy="152.409" r="4" fill="#0" id="circle73"/>
	<circle cx="196.346" cy="600.567" r="4" fill="#0" id="circle74"/>
	<circle cx="205.134" cy="150.457" r="4" fill="#0" id="circle75"/>
	<circle cx="206.11" cy="600.567" r="4" fill="#0" id="circle76"/>
	<circle cx="214.898" cy="147.528" r="4" fill="#0" id="circle77"/>
	<circle cx="214.898" cy="595.685" r="4" fill="#0" id="circle78"/>
	<circle cx="224.661" cy="145.575" r="4" fill="#0" id="circle79"/>
	<circle cx="224.661" cy="595.685" r="4" fill="#0" id="circle80"/>
	<circle cx="234.425" cy="145.575" r="4" fill="#0" id="circle81"/>
	<circle cx="234.425" cy="595.685" r="4" fill="#0" id="circle82"/>
	<circle cx="244.189" cy="145.575" r="4" fill="#0" id="circle83"/>
	<circle cx="244.189" cy="595.685" r="4" fill="#0" id="circle84"/>
	<circle cx="253.953" cy="142.646" r="4" fill="#0" id="circle85"/>
	<circle cx="253.953" cy="590.803" r="4" fill="#0" id="circle86"/>
	<circle cx="263.717" cy="140.693" r="4" fill="#0" id="circle87"/>
	<circle cx="263.717" cy="590.803" r="4" fill="#0" id="circle88"/>
	<circle cx="273.48" cy="140.693" r="4" fill="#0" id="circle89"/>
	<circle cx="273.48" cy="590.803" r="4" fill="#0" id="circle90"/>
	<circle cx="283.244" cy="140.693" r="4" fill="#0" id="circle91"/>
	<circle cx="283.244" cy="590.803" r="4" fill="#0" id="circle92"/>
	<circle cx="293.008" cy="140.693" r="4" fill="#0" id="circle93"/>
	<circle cx="293.008" cy="590.803" r="4" fill="#0" id="circle94"/>
	<circle cx="296.913" cy="21.5748" r="4" fill="#0" id="circle95"/>
	<circle cx="301.795" cy="30.3622" r="4" fill="#0" id="circle96"/>
	<circle cx="302.772" cy="140.693" r="4" fill="#0" id="circle97"/>
	<circle cx="302.772" cy="590.803" r="4" fill="#0" id="circle98"/>
	<circle cx="304.724" cy="13.7638" r="4" fill="#0" id="circle99"/>
	<circle cx="311.559" cy="34.2677" r="4" fill="#0" id="circle100"/>
	<circle cx="312.535" cy="140.693" r="4" fill="#0" id="circle101"/>
	<circle cx="312.535" cy="590.803" r="4" fill="#0" id="circle102"/>
	<circle cx="313.512" cy="8.88189" r="4" fill="#0" id="circle103"/>
	<circle cx="320.346" cy="39.1496" r="4" fill="#0" id="circle104"/>
	<circle cx="322.299" cy="4" r="4" fill="#0" id="circle105"/>
	<circle cx="322.299" cy="140.693" r="4" fill="#0" id="circle106"/>
	<circle cx="322.299" cy="590.803" r="4" fill="#0" id="circle107"/>
	<circle cx="329.134" cy="44.0315" r="4" fill="#0" id="circle108"/>
	<circle cx="332.063" cy="4" r="4" fill="#0" id="circle109"/>
	<circle cx="332.063" cy="140.693" r="4" fill="#0" id="circle110"/>
	<circle cx="332.063" cy="590.803" r="4" fill="#0" id="circle111"/>
	<circle cx="338.898" cy="44.0315" r="4" fill="#0" id="circle112"/>
	<circle cx="341.827" cy="4" r="4" fill="#0" id="circle113"/>
	<circle cx="341.827" cy="140.693" r="4" fill="#0" id="circle114"/>
	<circle cx="341.827" cy="590.803" r="4" fill="#0" id="circle115"/>
	<circle cx="348.661" cy="44.0315" r="4" fill="#0" id="circle116"/>
	<circle cx="350.614" cy="135.811" r="4" fill="#0" id="circle117"/>
	<circle cx="351.591" cy="4" r="4" fill="#0" id="circle118"/>
	<circle cx="351.591" cy="590.803" r="4" fill="#0" id="circle119"/>
	<circle cx="355.496" cy="51.8425" r="4" fill="#0" id="circle120"/>
	<circle cx="355.496" cy="61.6063" r="4" fill="#0" id="circle121"/>
	<circle cx="355.496" cy="71.3701" r="4" fill="#0" id="circle122"/>
	<circle cx="360.378" cy="80.1575" r="4" fill="#0" id="circle123"/>
	<circle cx="360.378" cy="133.858" r="4" fill="#0" id="circle124"/>
	<circle cx="361.354" cy="4" r="4" fill="#0" id="circle125"/>
	<circle cx="361.354" cy="590.803" r="4" fill="#0" id="circle126"/>
	<circle cx="366.236" cy="87.9685" r="4" fill="#0" id="circle127"/>
	<circle cx="370.142" cy="128.976" r="4" fill="#0" id="circle128"/>
	<circle cx="370.142" cy="585.921" r="4" fill="#0" id="circle129"/>
	<circle cx="371.118" cy="4" r="4" fill="#0" id="circle130"/>
	<circle cx="376" cy="87.9685" r="4" fill="#0" id="circle131"/>
	<circle cx="379.906" cy="124.094" r="4" fill="#0" id="circle132"/>
	<circle cx="379.906" cy="585.921" r="4" fill="#0" id="circle133"/>
	<circle cx="380.882" cy="4" r="4" fill="#0" id="circle134"/>
	<circle cx="384.787" cy="92.8504" r="4" fill="#0" id="circle135"/>
	<circle cx="384.787" cy="102.614" r="4" fill="#0" id="circle136"/>
	<circle cx="384.787" cy="112.378" r="4" fill="#0" id="circle137"/>
	<circle cx="389.669" cy="582.992" r="4" fill="#0" id="circle138"/>
	<circle cx="390.646" cy="4" r="4" fill="#0" id="circle139"/>
	<circle cx="399.433" cy="581.039" r="4" fill="#0" id="circle140"/>
	<circle cx="400.409" cy="4" r="4" fill="#0" id="circle141"/>
	<circle cx="409.197" cy="581.039" r="4" fill="#0" id="circle142"/>
	<circle cx="410.173" cy="4" r="4" fill="#0" id="circle143"/>
	<circle cx="415.055" cy="24.5039" r="4" fill="#0" id="circle144"/>
	<circle cx="415.055" cy="34.2677" r="4" fill="#0" id="circle145"/>
	<circle cx="415.055" cy="44.0315" r="4" fill="#0" id="circle146"/>
	<circle cx="415.055" cy="53.7953" r="4" fill="#0" id="circle147"/>
	<circle cx="417.984" cy="576.157" r="4" fill="#0" id="circle148"/>
	<circle cx="419.937" cy="4" r="4" fill="#0" id="circle149"/>
	<circle cx="419.937" cy="62.5827" r="4" fill="#0" id="circle150"/>
	<circle cx="419.937" cy="72.3465" r="4" fill="#0" id="circle151"/>
	<circle cx="419.937" cy="82.1102" r="4" fill="#0" id="circle152"/>
	<circle cx="419.937" cy="91.874" r="4" fill="#0" id="circle153"/>
	<circle cx="419.937" cy="101.638" r="4" fill="#0" id="circle154"/>
	<circle cx="419.937" cy="111.402" r="4" fill="#0" id="circle155"/>
	<circle cx="423.843" cy="19.622" r="4" fill="#0" id="circle156"/>
	<circle cx="426.772" cy="570.299" r="4" fill="#0" id="circle157"/>
	<circle cx="427.748" cy="9.85827" r="4" fill="#0" id="circle158"/>
	<circle cx="428.724" cy="116.283" r="4" fill="#0" id="circle159"/>
	<circle cx="434.583" cy="527.339" r="4" fill="#0" id="circle160"/>
	<circle cx="434.583" cy="537.102" r="4" fill="#0" id="circle161"/>
	<circle cx="434.583" cy="546.866" r="4" fill="#0" id="circle162"/>
	<circle cx="434.583" cy="556.63" r="4" fill="#0" id="circle163"/>
	<circle cx="438.488" cy="116.283" r="4" fill="#0" id="circle164"/>
	<circle cx="442.394" cy="520.504" r="4" fill="#0" id="circle165"/>
	<circle cx="448.252" cy="116.283" r="4" fill="#0" id="circle166"/>
	<circle cx="452.157" cy="517.575" r="4" fill="#0" id="circle167"/>
	<circle cx="458.016" cy="114.331" r="4" fill="#0" id="circle168"/>
	<circle cx="461.921" cy="517.575" r="4" fill="#0" id="circle169"/>
	<circle cx="467.78" cy="109.449" r="4" fill="#0" id="circle170"/>
	<circle cx="471.685" cy="517.575" r="4" fill="#0" id="circle171"/>
	<circle cx="477.543" cy="104.567" r="4" fill="#0" id="circle172"/>
	<circle cx="480.472" cy="512.693" r="4" fill="#0" id="circle173"/>
	<circle cx="487.307" cy="101.638" r="4" fill="#0" id="circle174"/>
	<circle cx="490.236" cy="512.693" r="4" fill="#0" id="circle175"/>
	<circle cx="497.071" cy="101.638" r="4" fill="#0" id="circle176"/>
	<circle cx="500" cy="511.717" r="4" fill="#0" id="circle177"/>
	<circle cx="506.835" cy="101.638" r="4" fill="#0" id="circle178"/>
	<circle cx="509.764" cy="506.835" r="4" fill="#0" id="circle179"/>
	<circle cx="516.598" cy="103.591" r="4" fill="#0" id="circle180"/>
	<circle cx="519.528" cy="502.929" r="4" fill="#0" id="circle181"/>
	<circle cx="525.386" cy="108.472" r="4" fill="#0" id="circle182"/>
	<circle cx="529.291" cy="502.929" r="4" fill="#0" id="circle183"/>
	<circle cx="530.268" cy="117.26" r="4" fill="#0" id="circle184"/>
	<circle cx="532.22" cy="127.024" r="4" fill="#0" id="circle185"/>
	<circle cx="532.22" cy="136.787" r="4" fill="#0" id="circle186"/>
	<circle cx="539.055" cy="502.929" r="4" fill="#0" id="circle187"/>
	<circle cx="541.984" cy="140.693" r="4" fill="#0" id="circle188"/>
	<circle cx="547.843" cy="498.047" r="4" fill="#0" id="circle189"/>
	<circle cx="551.748" cy="140.693" r="4" fill="#0" id="circle190"/>
	<circle cx="557.606" cy="498.047" r="4" fill="#0" id="circle191"/>
	<circle cx="560.535" cy="145.575" r="4" fill="#0" id="circle192"/>
	<circle cx="567.37" cy="498.047" r="4" fill="#0" id="circle193"/>
	<circle cx="570.299" cy="145.575" r="4" fill="#0" id="circle194"/>
	<circle cx="576.157" cy="493.165" r="4" fill="#0" id="circle195"/>
	<circle cx="580.063" cy="145.575" r="4" fill="#0" id="circle196"/>
	<circle cx="581.039" cy="219.78" r="4" fill="#0" id="circle197"/>
	<circle cx="582.992" cy="229.543" r="4" fill="#0" id="circle198"/>
	<circle cx="585.921" cy="493.165" r="4" fill="#0" id="circle199"/>
	<circle cx="589.827" cy="145.575" r="4" fill="#0" id="circle200"/>
	<circle cx="590.803" cy="214.898" r="4" fill="#0" id="circle201"/>
	<circle cx="590.803" cy="236.378" r="4" fill="#0" id="circle202"/>
	<circle cx="595.685" cy="493.165" r="4" fill="#0" id="circle203"/>
	<circle cx="597.638" cy="244.189" r="4" fill="#0" id="circle204"/>
	<circle cx="599.591" cy="145.575" r="4" fill="#0" id="circle205"/>
	<circle cx="600.567" cy="214.898" r="4" fill="#0" id="circle206"/>
	<circle cx="602.52" cy="252.976" r="4" fill="#0" id="circle207"/>
	<circle cx="605.449" cy="493.165" r="4" fill="#0" id="circle208"/>
	<circle cx="609.354" cy="145.575" r="4" fill="#0" id="circle209"/>
	<circle cx="609.354" cy="210.016" r="4" fill="#0" id="circle210"/>
	<circle cx="611.307" cy="257.858" r="4" fill="#0" id="circle211"/>
	<circle cx="615.213" cy="493.165" r="4" fill="#0" id="circle212"/>
	<circle cx="619.118" cy="145.575" r="4" fill="#0" id="circle213"/>
	<circle cx="619.118" cy="207.087" r="4" fill="#0" id="circle214"/>
	<circle cx="621.071" cy="257.858" r="4" fill="#0" id="circle215"/>
	<circle cx="624.976" cy="493.165" r="4" fill="#0" id="circle216"/>
	<circle cx="628.882" cy="145.575" r="4" fill="#0" id="circle217"/>
	<circle cx="628.882" cy="202.205" r="4" fill="#0" id="circle218"/>
	<circle cx="630.835" cy="257.858" r="4" fill="#0" id="circle219"/>
	<circle cx="634.74" cy="493.165" r="4" fill="#0" id="circle220"/>
	<circle cx="638.646" cy="145.575" r="4" fill="#0" id="circle221"/>
	<circle cx="638.646" cy="197.323" r="4" fill="#0" id="circle222"/>
	<circle cx="640.598" cy="257.858" r="4" fill="#0" id="circle223"/>
	<circle cx="644.504" cy="185.606" r="4" fill="#0" id="circle224"/>
	<circle cx="644.504" cy="493.165" r="4" fill="#0" id="circle225"/>
	<circle cx="646.457" cy="151.433" r="4" fill="#0" id="circle226"/>
	<circle cx="649.386" cy="161.197" r="4" fill="#0" id="circle227"/>
	<circle cx="649.386" cy="170.961" r="4" fill="#0" id="circle228"/>
	<circle cx="650.362" cy="257.858" r="4" fill="#0" id="circle229"/>
	<circle cx="654.268" cy="380.882" r="4" fill="#0" id="circle230"/>
	<circle cx="654.268" cy="390.646" r="4" fill="#0" id="circle231"/>
	<circle cx="654.268" cy="400.409" r="4" fill="#0" id="circle232"/>
	<circle cx="654.268" cy="410.173" r="4" fill="#0" id="circle233"/>
	<circle cx="654.268" cy="493.165" r="4" fill="#0" id="circle234"/>
	<circle cx="660.126" cy="257.858" r="4" fill="#0" id="circle235"/>
	<circle cx="663.055" cy="376" r="4" fill="#0" id="circle236"/>
	<circle cx="664.031" cy="414.079" r="4" fill="#0" id="circle237"/>
	<circle cx="664.031" cy="493.165" r="4" fill="#0" id="circle238"/>
	<circle cx="669.89" cy="257.858" r="4" fill="#0" id="circle239"/>
	<circle cx="671.843" cy="371.118" r="4" fill="#0" id="circle240"/>
	<circle cx="673.795" cy="414.079" r="4" fill="#0" id="circle241"/>
	<circle cx="673.795" cy="493.165" r="4" fill="#0" id="circle242"/>
	<circle cx="679.654" cy="257.858" r="4" fill="#0" id="circle243"/>
	<circle cx="681.606" cy="369.165" r="4" fill="#0" id="circle244"/>
	<circle cx="682.583" cy="409.197" r="4" fill="#0" id="circle245"/>
	<circle cx="683.559" cy="493.165" r="4" fill="#0" id="circle246"/>
	<circle cx="689.417" cy="257.858" r="4" fill="#0" id="circle247"/>
	<circle cx="691.37" cy="366.236" r="4" fill="#0" id="circle248"/>
	<circle cx="692.346" cy="406.268" r="4" fill="#0" id="circle249"/>
	<circle cx="693.323" cy="488.283" r="4" fill="#0" id="circle250"/>
	<circle cx="698.205" cy="414.079" r="4" fill="#0" id="circle251"/>
	<circle cx="699.181" cy="257.858" r="4" fill="#0" id="circle252"/>
	<circle cx="701.134" cy="366.236" r="4" fill="#0" id="circle253"/>
	<circle cx="703.087" cy="422.866" r="4" fill="#0" id="circle254"/>
	<circle cx="703.087" cy="432.63" r="4" fill="#0" id="circle255"/>
	<circle cx="703.087" cy="442.394" r="4" fill="#0" id="circle256"/>
	<circle cx="703.087" cy="452.157" r="4" fill="#0" id="circle257"/>
	<circle cx="703.087" cy="461.921" r="4" fill="#0" id="circle258"/>
	<circle cx="703.087" cy="488.283" r="4" fill="#0" id="circle259"/>
	<circle cx="708.945" cy="257.858" r="4" fill="#0" id="circle260"/>
	<circle cx="709.921" cy="361.354" r="4" fill="#0" id="circle261"/>
	<circle cx="710.898" cy="468.756" r="4" fill="#0" id="circle262"/>
	<circle cx="710.898" cy="481.449" r="4" fill="#0" id="circle263"/>
	<circle cx="718.709" cy="257.858" r="4" fill="#0" id="circle264"/>
	<circle cx="719.685" cy="361.354" r="4" fill="#0" id="circle265"/>
	<circle cx="728.472" cy="253.953" r="4" fill="#0" id="circle266"/>
	<circle cx="729.449" cy="360.378" r="4" fill="#0" id="circle267"/>
	<circle cx="738.236" cy="252.976" r="4" fill="#0" id="circle268"/>
	<circle cx="739.213" cy="356.472" r="4" fill="#0" id="circle269"/>
	<circle cx="748" cy="252.976" r="4" fill="#0" id="circle270"/>
	<circle cx="748.976" cy="356.472" r="4" fill="#0" id="circle271"/>
	<circle cx="757.764" cy="249.071" r="4" fill="#0" id="circle272"/>
	<circle cx="758.74" cy="355.496" r="4" fill="#0" id="circle273"/>
	<circle cx="767.528" cy="248.094" r="4" fill="#0" id="circle274"/>
	<circle cx="768.504" cy="350.614" r="4" fill="#0" id="circle275"/>
	<circle cx="777.291" cy="248.094" r="4" fill="#0" id="circle276"/>
	<circle cx="778.268" cy="346.709" r="4" fill="#0" id="circle277"/>
	<circle cx="787.055" cy="248.094" r="4" fill="#0" id="circle278"/>
	<circle cx="788.031" cy="345.732" r="4" fill="#0" id="circle279"/>
	<circle cx="795.843" cy="243.213" r="4" fill="#0" id="circle280"/>
	<circle cx="797.795" cy="340.85" r="4" fill="#0" id="circle281"/>
	<circle cx="805.606" cy="243.213" r="4" fill="#0" id="circle282"/>
	<circle cx="805.606" cy="332.063" r="4" fill="#0" id="circle283"/>
	<circle cx="815.37" cy="243.213" r="4" fill="#0" id="circle284"/>
	<circle cx="815.37" cy="327.181" r="4" fill="#0" id="circle285"/>
	<circle cx="825.134" cy="240.283" r="4" fill="#0" id="circle286"/>
	<circle cx="825.134" cy="322.299" r="4" fill="#0" id="circle287"/>
	<circle cx="833.921" cy="317.417" r="4" fill="#0" id="circle288"/>
	<circle cx="834.898" cy="238.331" r="4" fill="#0" id="circle289"/>
	<circle cx="841.732" cy="311.559" r="4" fill="#0" id="circle290"/>
	<circle cx="844.661" cy="238.331" r="4" fill="#0" id="circle291"/>
	<circle cx="851.496" cy="306.677" r="4" fill="#0" id="circle292"/>
	<circle cx="854.425" cy="238.331" r="4" fill="#0" id="circle293"/>
	<circle cx="861.26" cy="301.795" r="4" fill="#0" id="circle294"/>
	<circle cx="864.189" cy="235.402" r="4" fill="#0" id="circle295"/>
	<circle cx="869.071" cy="293.008" r="4" fill="#0" id="circle296"/>
	<circle cx="873.953" cy="233.449" r="4" fill="#0" id="circle297"/>
	<circle cx="878.835" cy="288.126" r="4" fill="#0" id="circle298"/>
	<circle cx="883.717" cy="233.449" r="4" fill="#0" id="circle299"/>
	<circle cx="888.598" cy="288.126" r="4" fill="#0" id="circle300"/>
	<circle cx="893.48" cy="233.449" r="4" fill="#0" id="circle301"/>
	<circle cx="897.386" cy="283.244" r="4" fill="#0" id="circle302"/>
	<circle cx="902.268" cy="228.567" r="4" fill="#0" id="circle303"/>
	<circle cx="907.15" cy="280.315" r="4" fill="#0" id="circle304"/>
	<circle cx="912.031" cy="228.567" r="4" fill="#0" id="circle305"/>
	<circle cx="916.913" cy="278.362" r="4" fill="#0" id="circle306"/>
	<circle cx="921.795" cy="228.567" r="4" fill="#0" id="circle307"/>
	<circle cx="926.677" cy="278.362" r="4" fill="#0" id="circle308"/>
	<circle cx="931.559" cy="228.567" r="4" fill="#0" id="circle309"/>
	<circle cx="935.465" cy="273.48" r="4" fill="#0" id="circle310"/>
	<circle cx="941.323" cy="228.567" r="4" fill="#0" id="circle311"/>
	<circle cx="945.228" cy="273.48" r="4" fill="#0" id="circle312"/>
	<circle cx="951.087" cy="228.567" r="4" fill="#0" id="circle313"/>
	<circle cx="954.992" cy="271.528" r="4" fill="#0" id="circle314"/>
	<circle cx="960.85" cy="228.567" r="4" fill="#0" id="circle315"/>
	<circle cx="964.756" cy="268.598" r="4" fill="#0" id="circle316"/>
	<circle cx="970.614" cy="228.567" r="4" fill="#0" id="circle317"/>
	<circle cx="974.52" cy="266.646" r="4" fill="#0" id="circle318"/>
	<circle cx="980.378" cy="228.567" r="4" fill="#0" id="circle319"/>
	<circle cx="984.283" cy="261.764" r="4" fill="#0" id="circle320"/>
	<circle cx="988.189" cy="234.425" r="4" fill="#0" id="circle321"/>
	<circle cx="991.118" cy="253.953" r="4" fill="#0" id="circle322"/>
	<circle cx="996" cy="241.26" r="4" fill="#0" id="circle323"/>
	</g>
</svg>