<?xml version="1.0" encoding="UTF-8" standalone="no"?>
<!-- Created with CurveBenchmark -->
<svg
	xmlns:dc="http://purl.org/dc/elements/1.1/"
	xmlns:cc="http://creativecommons.org/ns#"
	xmlns:rdf="http://www.w3.org/1999/02/22-rdf-syntax-ns#"
	xmlns:svg="http://www.w3.org/2000/svg"
	xmlns="http://www.w3.org/2000/svg"
	xmlns:sodipodi="http://sodipodi.sourceforge.net/DTD/sodipodi-0.dtd"
	xmlns:inkscape="http://www.inkscape.org/namespaces/inkscape"
	width="1000"
	height="1000"
	id="svg2"
	version="1.1"
	sodipodi:docname="manifold/crawl-textbox23.png.txt">
<defs
	id="defs4" />
<metadata
	id="metadata7">
	<rdf:RDF>
		<cc:Work
			rdf:about="">
			<dc:format>image/svg+xml</dc:format>
			<dc:type
				rdf:resource="http://purl.org/dc/dcmitype/StillImage" />
			<dc:title></dc:title>
		</cc:Work>
	</rdf:RDF>
</metadata>
<g
	inkscape:label="Layer 1"
	inkscape:groupmode="layer"
	id="layer1">
	<path style="fill:none;stroke:red;stroke-width:1px;stroke-linecap:butt;stroke-linejoin:miter;stroke-opacity:1" d="M 44.4073,38.3462 24.2037,38.3462 z" id="boundary" inkscape:connector-curvature="0" />
	<path style="fill:none;stroke:red;stroke-width:1px;stroke-linecap:butt;stroke-linejoin:miter;stroke-opacity:1" d="M 44.4073,38.3462 64.611,38.3462 z" id="boundary" inkscape:connector-curvature="0" />
	<path style="fill:none;stroke:red;stroke-width:1px;stroke-linecap:butt;stroke-linejoin:miter;stroke-opacity:1" d="M 64.611,38.3462 84.8147,38.3462 z" id="boundary" inkscape:connector-curvature="0" />
	<path style="fill:none;stroke:red;stroke-width:1px;stroke-linecap:butt;stroke-linejoin:miter;stroke-opacity:1" d="M 84.8147,38.3462 105.018,38.3462 z" id="boundary" inkscape:connector-curvature="0" />
	<path style="fill:none;stroke:red;stroke-width:1px;stroke-linecap:butt;stroke-linejoin:miter;stroke-opacity:1" d="M 105.018,38.3462 123.202,28.2444 z" id="boundary" inkscape:connector-curvature="0" />
	<path style="fill:none;stroke:red;stroke-width:1px;stroke-linecap:butt;stroke-linejoin:miter;stroke-opacity:1" d="M 123.202,28.2444 143.405,28.2444 z" id="boundary" inkscape:connector-curvature="0" />
	<path style="fill:none;stroke:red;stroke-width:1px;stroke-linecap:butt;stroke-linejoin:miter;stroke-opacity:1" d="M 143.405,28.2444 163.609,28.2444 z" id="boundary" inkscape:connector-curvature="0" />
	<path style="fill:none;stroke:red;stroke-width:1px;stroke-linecap:butt;stroke-linejoin:miter;stroke-opacity:1" d="M 163.609,28.2444 183.813,28.2444 z" id="boundary" inkscape:connector-curvature="0" />
	<path style="fill:none;stroke:red;stroke-width:1px;stroke-linecap:butt;stroke-linejoin:miter;stroke-opacity:1" d="M 183.813,28.2444 204.016,28.2444 z" id="boundary" inkscape:connector-curvature="0" />
	<path style="fill:none;stroke:red;stroke-width:1px;stroke-linecap:butt;stroke-linejoin:miter;stroke-opacity:1" d="M 204.016,28.2444 224.22,28.2444 z" id="boundary" inkscape:connector-curvature="0" />
	<path style="fill:none;stroke:red;stroke-width:1px;stroke-linecap:butt;stroke-linejoin:miter;stroke-opacity:1" d="M 224.22,28.2444 244.424,28.2444 z" id="boundary" inkscape:connector-curvature="0" />
	<path style="fill:none;stroke:red;stroke-width:1px;stroke-linecap:butt;stroke-linejoin:miter;stroke-opacity:1" d="M 244.424,28.2444 264.627,28.2444 z" id="boundary" inkscape:connector-curvature="0" />
	<path style="fill:none;stroke:red;stroke-width:1px;stroke-linecap:butt;stroke-linejoin:miter;stroke-opacity:1" d="M 264.627,28.2444 284.831,28.2444 z" id="boundary" inkscape:connector-curvature="0" />
	<path style="fill:none;stroke:red;stroke-width:1px;stroke-linecap:butt;stroke-linejoin:miter;stroke-opacity:1" d="M 284.831,28.2444 305.035,28.2444 z" id="boundary" inkscape:connector-curvature="0" />
	<path style="fill:none;stroke:red;stroke-width:1px;stroke-linecap:butt;stroke-linejoin:miter;stroke-opacity:1" d="M 305.035,28.2444 325.238,28.2444 z" id="boundary" inkscape:connector-curvature="0" />
	<path style="fill:none;stroke:red;stroke-width:1px;stroke-linecap:butt;stroke-linejoin:miter;stroke-opacity:1" d="M 325.238,28.2444 345.442,28.2444 z" id="boundary" inkscape:connector-curvature="0" />
	<path style="fill:none;stroke:red;stroke-width:1px;stroke-linecap:butt;stroke-linejoin:miter;stroke-opacity:1" d="M 345.442,28.2444 365.646,28.2444 z" id="boundary" inkscape:connector-curvature="0" />
	<path style="fill:none;stroke:red;stroke-width:1px;stroke-linecap:butt;stroke-linejoin:miter;stroke-opacity:1" d="M 365.646,28.2444 385.849,28.2444 z" id="boundary" inkscape:connector-curvature="0" />
	<path style="fill:none;stroke:red;stroke-width:1px;stroke-linecap:butt;stroke-linejoin:miter;stroke-opacity:1" d="M 385.849,28.2444 406.053,28.2444 z" id="boundary" inkscape:connector-curvature="0" />
	<path style="fill:none;stroke:red;stroke-width:1px;stroke-linecap:butt;stroke-linejoin:miter;stroke-opacity:1" d="M 406.053,28.2444 426.257,28.2444 z" id="boundary" inkscape:connector-curvature="0" />
	<path style="fill:none;stroke:red;stroke-width:1px;stroke-linecap:butt;stroke-linejoin:miter;stroke-opacity:1" d="M 426.257,28.2444 446.46,28.2444 z" id="boundary" inkscape:connector-curvature="0" />
	<path style="fill:none;stroke:red;stroke-width:1px;stroke-linecap:butt;stroke-linejoin:miter;stroke-opacity:1" d="M 446.46,28.2444 466.664,28.2444 z" id="boundary" inkscape:connector-curvature="0" />
	<path style="fill:none;stroke:red;stroke-width:1px;stroke-linecap:butt;stroke-linejoin:miter;stroke-opacity:1" d="M 466.664,28.2444 486.868,28.2444 z" id="boundary" inkscape:connector-curvature="0" />
	<path style="fill:none;stroke:red;stroke-width:1px;stroke-linecap:butt;stroke-linejoin:miter;stroke-opacity:1" d="M 486.868,28.2444 507.071,28.2444 z" id="boundary" inkscape:connector-curvature="0" />
	<path style="fill:none;stroke:red;stroke-width:1px;stroke-linecap:butt;stroke-linejoin:miter;stroke-opacity:1" d="M 24.2037,38.3462 4,44.4073 z" id="boundary" inkscape:connector-curvature="0" />
	<path style="fill:none;stroke:red;stroke-width:1px;stroke-linecap:butt;stroke-linejoin:miter;stroke-opacity:1" d="M 4,44.4073 4,64.611 z" id="boundary" inkscape:connector-curvature="0" />
	<path style="fill:none;stroke:red;stroke-width:1px;stroke-linecap:butt;stroke-linejoin:miter;stroke-opacity:1" d="M 4,64.611 4,84.8147 z" id="boundary" inkscape:connector-curvature="0" />
	<path style="fill:none;stroke:red;stroke-width:1px;stroke-linecap:butt;stroke-linejoin:miter;stroke-opacity:1" d="M 4,84.8147 4,105.018 z" id="boundary" inkscape:connector-curvature="0" />
	<path style="fill:none;stroke:red;stroke-width:1px;stroke-linecap:butt;stroke-linejoin:miter;stroke-opacity:1" d="M 4,105.018 4,125.222 z" id="boundary" inkscape:connector-curvature="0" />
	<path style="fill:none;stroke:red;stroke-width:1px;stroke-linecap:butt;stroke-linejoin:miter;stroke-opacity:1" d="M 4,125.222 4,145.426 z" id="boundary" inkscape:connector-curvature="0" />
	<path style="fill:none;stroke:red;stroke-width:1px;stroke-linecap:butt;stroke-linejoin:miter;stroke-opacity:1" d="M 4,145.426 4,165.629 z" id="boundary" inkscape:connector-curvature="0" />
	<path style="fill:none;stroke:red;stroke-width:1px;stroke-linecap:butt;stroke-linejoin:miter;stroke-opacity:1" d="M 4,165.629 4,185.833 z" id="boundary" inkscape:connector-curvature="0" />
	<path style="fill:none;stroke:red;stroke-width:1px;stroke-linecap:butt;stroke-linejoin:miter;stroke-opacity:1" d="M 4,185.833 4,206.037 z" id="boundary" inkscape:connector-curvature="0" />
	<path style="fill:none;stroke:red;stroke-width:1px;stroke-linecap:butt;stroke-linejoin:miter;stroke-opacity:1" d="M 4,206.037 4,226.24 z" id="boundary" inkscape:connector-curvature="0" />
	<path style="fill:none;stroke:red;stroke-width:1px;stroke-linecap:butt;stroke-linejoin:miter;stroke-opacity:1" d="M 4,226.24 4,246.444 z" id="boundary" inkscape:connector-curvature="0" />
	<path style="fill:none;stroke:red;stroke-width:1px;stroke-linecap:butt;stroke-linejoin:miter;stroke-opacity:1" d="M 4,246.444 4,266.648 z" id="boundary" inkscape:connector-curvature="0" />
	<path style="fill:none;stroke:red;stroke-width:1px;stroke-linecap:butt;stroke-linejoin:miter;stroke-opacity:1" d="M 4,266.648 4,286.851 z" id="boundary" inkscape:connector-curvature="0" />
	<path style="fill:none;stroke:red;stroke-width:1px;stroke-linecap:butt;stroke-linejoin:miter;stroke-opacity:1" d="M 4,286.851 4,307.055 z" id="boundary" inkscape:connector-curvature="0" />
	<path style="fill:none;stroke:red;stroke-width:1px;stroke-linecap:butt;stroke-linejoin:miter;stroke-opacity:1" d="M 4,307.055 4,327.259 z" id="boundary" inkscape:connector-curvature="0" />
	<path style="fill:none;stroke:red;stroke-width:1px;stroke-linecap:butt;stroke-linejoin:miter;stroke-opacity:1" d="M 4,327.259 4,347.462 z" id="boundary" inkscape:connector-curvature="0" />
	<path style="fill:none;stroke:red;stroke-width:1px;stroke-linecap:butt;stroke-linejoin:miter;stroke-opacity:1" d="M 4,347.462 4,367.666 z" id="boundary" inkscape:connector-curvature="0" />
	<path style="fill:none;stroke:red;stroke-width:1px;stroke-linecap:butt;stroke-linejoin:miter;stroke-opacity:1" d="M 4,367.666 4,387.87 z" id="boundary" inkscape:connector-curvature="0" />
	<path style="fill:none;stroke:red;stroke-width:1px;stroke-linecap:butt;stroke-linejoin:miter;stroke-opacity:1" d="M 4,387.87 4,408.073 z" id="boundary" inkscape:connector-curvature="0" />
	<path style="fill:none;stroke:red;stroke-width:1px;stroke-linecap:butt;stroke-linejoin:miter;stroke-opacity:1" d="M 4,408.073 4,428.277 z" id="boundary" inkscape:connector-curvature="0" />
	<path style="fill:none;stroke:red;stroke-width:1px;stroke-linecap:butt;stroke-linejoin:miter;stroke-opacity:1" d="M 4,428.277 4,448.481 z" id="boundary" inkscape:connector-curvature="0" />
	<path style="fill:none;stroke:red;stroke-width:1px;stroke-linecap:butt;stroke-linejoin:miter;stroke-opacity:1" d="M 4,448.481 4,468.684 z" id="boundary" inkscape:connector-curvature="0" />
	<path style="fill:none;stroke:red;stroke-width:1px;stroke-linecap:butt;stroke-linejoin:miter;stroke-opacity:1" d="M 4,468.684 24.2037,474.745 z" id="boundary" inkscape:connector-curvature="0" />
	<path style="fill:none;stroke:red;stroke-width:1px;stroke-linecap:butt;stroke-linejoin:miter;stroke-opacity:1" d="M 24.2037,474.745 24.2037,494.949 z" id="boundary" inkscape:connector-curvature="0" />
	<path style="fill:none;stroke:red;stroke-width:1px;stroke-linecap:butt;stroke-linejoin:miter;stroke-opacity:1" d="M 24.2037,494.949 24.2037,515.153 z" id="boundary" inkscape:connector-curvature="0" />
	<path style="fill:none;stroke:red;stroke-width:1px;stroke-linecap:butt;stroke-linejoin:miter;stroke-opacity:1" d="M 24.2037,515.153 24.2037,535.356 z" id="boundary" inkscape:connector-curvature="0" />
	<path style="fill:none;stroke:red;stroke-width:1px;stroke-linecap:butt;stroke-linejoin:miter;stroke-opacity:1" d="M 24.2037,535.356 24.2037,555.56 z" id="boundary" inkscape:connector-curvature="0" />
	<path style="fill:none;stroke:red;stroke-width:1px;stroke-linecap:butt;stroke-linejoin:miter;stroke-opacity:1" d="M 24.2037,555.56 24.2037,575.764 z" id="boundary" inkscape:connector-curvature="0" />
	<path style="fill:none;stroke:red;stroke-width:1px;stroke-linecap:butt;stroke-linejoin:miter;stroke-opacity:1" d="M 24.2037,575.764 24.2037,595.967 z" id="boundary" inkscape:connector-curvature="0" />
	<path style="fill:none;stroke:red;stroke-width:1px;stroke-linecap:butt;stroke-linejoin:miter;stroke-opacity:1" d="M 24.2037,595.967 24.2037,616.171 z" id="boundary" inkscape:connector-curvature="0" />
	<path style="fill:none;stroke:red;stroke-width:1px;stroke-linecap:butt;stroke-linejoin:miter;stroke-opacity:1" d="M 24.2037,616.171 30.2648,636.375 z" id="boundary" inkscape:connector-curvature="0" />
	<path style="fill:none;stroke:red;stroke-width:1px;stroke-linecap:butt;stroke-linejoin:miter;stroke-opacity:1" d="M 30.2648,636.375 50.4684,636.375 z" id="boundary" inkscape:connector-curvature="0" />
	<path style="fill:none;stroke:red;stroke-width:1px;stroke-linecap:butt;stroke-linejoin:miter;stroke-opacity:1" d="M 50.4684,636.375 70.6721,636.375 z" id="boundary" inkscape:connector-curvature="0" />
	<path style="fill:none;stroke:red;stroke-width:1px;stroke-linecap:butt;stroke-linejoin:miter;stroke-opacity:1" d="M 70.6721,636.375 90.8758,636.375 z" id="boundary" inkscape:connector-curvature="0" />
	<path style="fill:none;stroke:red;stroke-width:1px;stroke-linecap:butt;stroke-linejoin:miter;stroke-opacity:1" d="M 90.8758,636.375 111.079,636.375 z" id="boundary" inkscape:connector-curvature="0" />
	<path style="fill:none;stroke:red;stroke-width:1px;stroke-linecap:butt;stroke-linejoin:miter;stroke-opacity:1" d="M 111.079,636.375 131.283,636.375 z" id="boundary" inkscape:connector-curvature="0" />
	<path style="fill:none;stroke:red;stroke-width:1px;stroke-linecap:butt;stroke-linejoin:miter;stroke-opacity:1" d="M 131.283,636.375 151.487,636.375 z" id="boundary" inkscape:connector-curvature="0" />
	<path style="fill:none;stroke:red;stroke-width:1px;stroke-linecap:butt;stroke-linejoin:miter;stroke-opacity:1" d="M 151.487,636.375 171.69,636.375 z" id="boundary" inkscape:connector-curvature="0" />
	<path style="fill:none;stroke:red;stroke-width:1px;stroke-linecap:butt;stroke-linejoin:miter;stroke-opacity:1" d="M 171.69,636.375 191.894,636.375 z" id="boundary" inkscape:connector-curvature="0" />
	<path style="fill:none;stroke:red;stroke-width:1px;stroke-linecap:butt;stroke-linejoin:miter;stroke-opacity:1" d="M 191.894,636.375 212.098,634.354 z" id="boundary" inkscape:connector-curvature="0" />
	<path style="fill:none;stroke:red;stroke-width:1px;stroke-linecap:butt;stroke-linejoin:miter;stroke-opacity:1" d="M 212.098,634.354 222.2,616.171 z" id="boundary" inkscape:connector-curvature="0" />
	<path style="fill:none;stroke:red;stroke-width:1px;stroke-linecap:butt;stroke-linejoin:miter;stroke-opacity:1" d="M 222.2,616.171 242.403,616.171 z" id="boundary" inkscape:connector-curvature="0" />
	<path style="fill:none;stroke:red;stroke-width:1px;stroke-linecap:butt;stroke-linejoin:miter;stroke-opacity:1" d="M 242.403,616.171 262.607,616.171 z" id="boundary" inkscape:connector-curvature="0" />
	<path style="fill:none;stroke:red;stroke-width:1px;stroke-linecap:butt;stroke-linejoin:miter;stroke-opacity:1" d="M 262.607,616.171 282.811,616.171 z" id="boundary" inkscape:connector-curvature="0" />
	<path style="fill:none;stroke:red;stroke-width:1px;stroke-linecap:butt;stroke-linejoin:miter;stroke-opacity:1" d="M 282.811,616.171 303.014,616.171 z" id="boundary" inkscape:connector-curvature="0" />
	<path style="fill:none;stroke:red;stroke-width:1px;stroke-linecap:butt;stroke-linejoin:miter;stroke-opacity:1" d="M 303.014,616.171 323.218,616.171 z" id="boundary" inkscape:connector-curvature="0" />
	<path style="fill:none;stroke:red;stroke-width:1px;stroke-linecap:butt;stroke-linejoin:miter;stroke-opacity:1" d="M 323.218,616.171 343.422,616.171 z" id="boundary" inkscape:connector-curvature="0" />
	<path style="fill:none;stroke:red;stroke-width:1px;stroke-linecap:butt;stroke-linejoin:miter;stroke-opacity:1" d="M 343.422,616.171 363.625,616.171 z" id="boundary" inkscape:connector-curvature="0" />
	<path style="fill:none;stroke:red;stroke-width:1px;stroke-linecap:butt;stroke-linejoin:miter;stroke-opacity:1" d="M 363.625,616.171 383.829,616.171 z" id="boundary" inkscape:connector-curvature="0" />
	<path style="fill:none;stroke:red;stroke-width:1px;stroke-linecap:butt;stroke-linejoin:miter;stroke-opacity:1" d="M 383.829,616.171 404.033,616.171 z" id="boundary" inkscape:connector-curvature="0" />
	<path style="fill:none;stroke:red;stroke-width:1px;stroke-linecap:butt;stroke-linejoin:miter;stroke-opacity:1" d="M 404.033,616.171 424.236,616.171 z" id="boundary" inkscape:connector-curvature="0" />
	<path style="fill:none;stroke:red;stroke-width:1px;stroke-linecap:butt;stroke-linejoin:miter;stroke-opacity:1" d="M 424.236,616.171 444.44,616.171 z" id="boundary" inkscape:connector-curvature="0" />
	<path style="fill:none;stroke:red;stroke-width:1px;stroke-linecap:butt;stroke-linejoin:miter;stroke-opacity:1" d="M 444.44,616.171 464.644,616.171 z" id="boundary" inkscape:connector-curvature="0" />
	<path style="fill:none;stroke:red;stroke-width:1px;stroke-linecap:butt;stroke-linejoin:miter;stroke-opacity:1" d="M 464.644,616.171 484.847,616.171 z" id="boundary" inkscape:connector-curvature="0" />
	<path style="fill:none;stroke:red;stroke-width:1px;stroke-linecap:butt;stroke-linejoin:miter;stroke-opacity:1" d="M 484.847,616.171 505.051,616.171 z" id="boundary" inkscape:connector-curvature="0" />
	<path style="fill:none;stroke:red;stroke-width:1px;stroke-linecap:butt;stroke-linejoin:miter;stroke-opacity:1" d="M 505.051,616.171 525.255,616.171 z" id="boundary" inkscape:connector-curvature="0" />
	<path style="fill:none;stroke:red;stroke-width:1px;stroke-linecap:butt;stroke-linejoin:miter;stroke-opacity:1" d="M 525.255,616.171 545.458,616.171 z" id="boundary" inkscape:connector-curvature="0" />
	<path style="fill:none;stroke:red;stroke-width:1px;stroke-linecap:butt;stroke-linejoin:miter;stroke-opacity:1" d="M 545.458,616.171 565.662,616.171 z" id="boundary" inkscape:connector-curvature="0" />
	<path style="fill:none;stroke:red;stroke-width:1px;stroke-linecap:butt;stroke-linejoin:miter;stroke-opacity:1" d="M 565.662,616.171 581.825,630.314 z" id="boundary" inkscape:connector-curvature="0" />
	<path style="fill:none;stroke:red;stroke-width:1px;stroke-linecap:butt;stroke-linejoin:miter;stroke-opacity:1" d="M 581.825,630.314 600.008,640.415 z" id="boundary" inkscape:connector-curvature="0" />
	<path style="fill:none;stroke:red;stroke-width:1px;stroke-linecap:butt;stroke-linejoin:miter;stroke-opacity:1" d="M 600.008,640.415 600.008,660.619 z" id="boundary" inkscape:connector-curvature="0" />
	<path style="fill:none;stroke:red;stroke-width:1px;stroke-linecap:butt;stroke-linejoin:miter;stroke-opacity:1" d="M 600.008,660.619 600.008,680.823 z" id="boundary" inkscape:connector-curvature="0" />
	<path style="fill:none;stroke:red;stroke-width:1px;stroke-linecap:butt;stroke-linejoin:miter;stroke-opacity:1" d="M 600.008,680.823 610.11,699.006 z" id="boundary" inkscape:connector-curvature="0" />
	<path style="fill:none;stroke:red;stroke-width:1px;stroke-linecap:butt;stroke-linejoin:miter;stroke-opacity:1" d="M 610.11,699.006 620.212,717.189 z" id="boundary" inkscape:connector-curvature="0" />
	<path style="fill:none;stroke:red;stroke-width:1px;stroke-linecap:butt;stroke-linejoin:miter;stroke-opacity:1" d="M 620.212,717.189 630.314,735.373 z" id="boundary" inkscape:connector-curvature="0" />
	<path style="fill:none;stroke:red;stroke-width:1px;stroke-linecap:butt;stroke-linejoin:miter;stroke-opacity:1" d="M 630.314,735.373 630.314,755.576 z" id="boundary" inkscape:connector-curvature="0" />
	<path style="fill:none;stroke:red;stroke-width:1px;stroke-linecap:butt;stroke-linejoin:miter;stroke-opacity:1" d="M 630.314,755.576 634.354,775.78 z" id="boundary" inkscape:connector-curvature="0" />
	<path style="fill:none;stroke:red;stroke-width:1px;stroke-linecap:butt;stroke-linejoin:miter;stroke-opacity:1" d="M 634.354,775.78 644.456,793.963 z" id="boundary" inkscape:connector-curvature="0" />
	<path style="fill:none;stroke:red;stroke-width:1px;stroke-linecap:butt;stroke-linejoin:miter;stroke-opacity:1" d="M 644.456,793.963 664.66,798.004 z" id="boundary" inkscape:connector-curvature="0" />
	<path style="fill:none;stroke:red;stroke-width:1px;stroke-linecap:butt;stroke-linejoin:miter;stroke-opacity:1" d="M 664.66,798.004 684.864,798.004 z" id="boundary" inkscape:connector-curvature="0" />
	<path style="fill:none;stroke:red;stroke-width:1px;stroke-linecap:butt;stroke-linejoin:miter;stroke-opacity:1" d="M 684.864,798.004 705.067,798.004 z" id="boundary" inkscape:connector-curvature="0" />
	<path style="fill:none;stroke:red;stroke-width:1px;stroke-linecap:butt;stroke-linejoin:miter;stroke-opacity:1" d="M 705.067,798.004 725.271,798.004 z" id="boundary" inkscape:connector-curvature="0" />
	<path style="fill:none;stroke:red;stroke-width:1px;stroke-linecap:butt;stroke-linejoin:miter;stroke-opacity:1" d="M 725.271,798.004 745.475,798.004 z" id="boundary" inkscape:connector-curvature="0" />
	<path style="fill:none;stroke:red;stroke-width:1px;stroke-linecap:butt;stroke-linejoin:miter;stroke-opacity:1" d="M 745.475,798.004 765.678,798.004 z" id="boundary" inkscape:connector-curvature="0" />
	<path style="fill:none;stroke:red;stroke-width:1px;stroke-linecap:butt;stroke-linejoin:miter;stroke-opacity:1" d="M 765.678,798.004 785.882,798.004 z" id="boundary" inkscape:connector-curvature="0" />
	<path style="fill:none;stroke:red;stroke-width:1px;stroke-linecap:butt;stroke-linejoin:miter;stroke-opacity:1" d="M 785.882,798.004 806.086,798.004 z" id="boundary" inkscape:connector-curvature="0" />
	<path style="fill:none;stroke:red;stroke-width:1px;stroke-linecap:butt;stroke-linejoin:miter;stroke-opacity:1" d="M 806.086,798.004 824.269,787.902 z" id="boundary" inkscape:connector-curvature="0" />
	<path style="fill:none;stroke:red;stroke-width:1px;stroke-linecap:butt;stroke-linejoin:miter;stroke-opacity:1" d="M 824.269,787.902 824.269,767.699 z" id="boundary" inkscape:connector-curvature="0" />
	<path style="fill:none;stroke:red;stroke-width:1px;stroke-linecap:butt;stroke-linejoin:miter;stroke-opacity:1" d="M 824.269,767.699 824.269,747.495 z" id="boundary" inkscape:connector-curvature="0" />
	<path style="fill:none;stroke:red;stroke-width:1px;stroke-linecap:butt;stroke-linejoin:miter;stroke-opacity:1" d="M 824.269,747.495 824.269,727.291 z" id="boundary" inkscape:connector-curvature="0" />
	<path style="fill:none;stroke:red;stroke-width:1px;stroke-linecap:butt;stroke-linejoin:miter;stroke-opacity:1" d="M 824.269,727.291 824.269,707.088 z" id="boundary" inkscape:connector-curvature="0" />
	<path style="fill:none;stroke:red;stroke-width:1px;stroke-linecap:butt;stroke-linejoin:miter;stroke-opacity:1" d="M 824.269,707.088 824.269,686.884 z" id="boundary" inkscape:connector-curvature="0" />
	<path style="fill:none;stroke:red;stroke-width:1px;stroke-linecap:butt;stroke-linejoin:miter;stroke-opacity:1" d="M 824.269,686.884 824.269,666.68 z" id="boundary" inkscape:connector-curvature="0" />
	<path style="fill:none;stroke:red;stroke-width:1px;stroke-linecap:butt;stroke-linejoin:miter;stroke-opacity:1" d="M 824.269,666.68 824.269,646.477 z" id="boundary" inkscape:connector-curvature="0" />
	<path style="fill:none;stroke:red;stroke-width:1px;stroke-linecap:butt;stroke-linejoin:miter;stroke-opacity:1" d="M 507.071,28.2444 521.214,12.0815 z" id="boundary" inkscape:connector-curvature="0" />
	<path style="fill:none;stroke:red;stroke-width:1px;stroke-linecap:butt;stroke-linejoin:miter;stroke-opacity:1" d="M 521.214,12.0815 541.418,8.04073 z" id="boundary" inkscape:connector-curvature="0" />
	<path style="fill:none;stroke:red;stroke-width:1px;stroke-linecap:butt;stroke-linejoin:miter;stroke-opacity:1" d="M 541.418,8.04073 561.621,8.04073 z" id="boundary" inkscape:connector-curvature="0" />
	<path style="fill:none;stroke:red;stroke-width:1px;stroke-linecap:butt;stroke-linejoin:miter;stroke-opacity:1" d="M 561.621,8.04073 581.825,8.04073 z" id="boundary" inkscape:connector-curvature="0" />
	<path style="fill:none;stroke:red;stroke-width:1px;stroke-linecap:butt;stroke-linejoin:miter;stroke-opacity:1" d="M 581.825,8.04073 602.029,8.04073 z" id="boundary" inkscape:connector-curvature="0" />
	<path style="fill:none;stroke:red;stroke-width:1px;stroke-linecap:butt;stroke-linejoin:miter;stroke-opacity:1" d="M 602.029,8.04073 622.232,8.04073 z" id="boundary" inkscape:connector-curvature="0" />
	<path style="fill:none;stroke:red;stroke-width:1px;stroke-linecap:butt;stroke-linejoin:miter;stroke-opacity:1" d="M 622.232,8.04073 642.436,8.04073 z" id="boundary" inkscape:connector-curvature="0" />
	<path style="fill:none;stroke:red;stroke-width:1px;stroke-linecap:butt;stroke-linejoin:miter;stroke-opacity:1" d="M 642.436,8.04073 662.64,8.04073 z" id="boundary" inkscape:connector-curvature="0" />
	<path style="fill:none;stroke:red;stroke-width:1px;stroke-linecap:butt;stroke-linejoin:miter;stroke-opacity:1" d="M 662.64,8.04073 682.843,8.04073 z" id="boundary" inkscape:connector-curvature="0" />
	<path style="fill:none;stroke:red;stroke-width:1px;stroke-linecap:butt;stroke-linejoin:miter;stroke-opacity:1" d="M 682.843,8.04073 703.047,8.04073 z" id="boundary" inkscape:connector-curvature="0" />
	<path style="fill:none;stroke:red;stroke-width:1px;stroke-linecap:butt;stroke-linejoin:miter;stroke-opacity:1" d="M 703.047,8.04073 723.251,8.04073 z" id="boundary" inkscape:connector-curvature="0" />
	<path style="fill:none;stroke:red;stroke-width:1px;stroke-linecap:butt;stroke-linejoin:miter;stroke-opacity:1" d="M 723.251,8.04073 743.454,8.04073 z" id="boundary" inkscape:connector-curvature="0" />
	<path style="fill:none;stroke:red;stroke-width:1px;stroke-linecap:butt;stroke-linejoin:miter;stroke-opacity:1" d="M 743.454,8.04073 763.658,8.04073 z" id="boundary" inkscape:connector-curvature="0" />
	<path style="fill:none;stroke:red;stroke-width:1px;stroke-linecap:butt;stroke-linejoin:miter;stroke-opacity:1" d="M 763.658,8.04073 783.862,8.04073 z" id="boundary" inkscape:connector-curvature="0" />
	<path style="fill:none;stroke:red;stroke-width:1px;stroke-linecap:butt;stroke-linejoin:miter;stroke-opacity:1" d="M 783.862,8.04073 804.065,8.04073 z" id="boundary" inkscape:connector-curvature="0" />
	<path style="fill:none;stroke:red;stroke-width:1px;stroke-linecap:butt;stroke-linejoin:miter;stroke-opacity:1" d="M 804.065,8.04073 824.269,8.04073 z" id="boundary" inkscape:connector-curvature="0" />
	<path style="fill:none;stroke:red;stroke-width:1px;stroke-linecap:butt;stroke-linejoin:miter;stroke-opacity:1" d="M 824.269,8.04073 844.473,8.04073 z" id="boundary" inkscape:connector-curvature="0" />
	<path style="fill:none;stroke:red;stroke-width:1px;stroke-linecap:butt;stroke-linejoin:miter;stroke-opacity:1" d="M 844.473,8.04073 864.676,8.04073 z" id="boundary" inkscape:connector-curvature="0" />
	<path style="fill:none;stroke:red;stroke-width:1px;stroke-linecap:butt;stroke-linejoin:miter;stroke-opacity:1" d="M 864.676,8.04073 884.88,8.04073 z" id="boundary" inkscape:connector-curvature="0" />
	<path style="fill:none;stroke:red;stroke-width:1px;stroke-linecap:butt;stroke-linejoin:miter;stroke-opacity:1" d="M 884.88,8.04073 905.084,8.04073 z" id="boundary" inkscape:connector-curvature="0" />
	<path style="fill:none;stroke:red;stroke-width:1px;stroke-linecap:butt;stroke-linejoin:miter;stroke-opacity:1" d="M 905.084,8.04073 925.287,8.04073 z" id="boundary" inkscape:connector-curvature="0" />
	<path style="fill:none;stroke:red;stroke-width:1px;stroke-linecap:butt;stroke-linejoin:miter;stroke-opacity:1" d="M 925.287,8.04073 945.491,8.04073 z" id="boundary" inkscape:connector-curvature="0" />
	<path style="fill:none;stroke:red;stroke-width:1px;stroke-linecap:butt;stroke-linejoin:miter;stroke-opacity:1" d="M 945.491,8.04073 965.695,4 z" id="boundary" inkscape:connector-curvature="0" />
	<path style="fill:none;stroke:red;stroke-width:1px;stroke-linecap:butt;stroke-linejoin:miter;stroke-opacity:1" d="M 965.695,4 983.878,14.1018 z" id="boundary" inkscape:connector-curvature="0" />
	<path style="fill:none;stroke:red;stroke-width:1px;stroke-linecap:butt;stroke-linejoin:miter;stroke-opacity:1" d="M 983.878,14.1018 985.898,34.3055 z" id="boundary" inkscape:connector-curvature="0" />
	<path style="fill:none;stroke:red;stroke-width:1px;stroke-linecap:butt;stroke-linejoin:miter;stroke-opacity:1" d="M 985.898,34.3055 985.898,54.5092 z" id="boundary" inkscape:connector-curvature="0" />
	<path style="fill:none;stroke:red;stroke-width:1px;stroke-linecap:butt;stroke-linejoin:miter;stroke-opacity:1" d="M 985.898,54.5092 985.898,74.7128 z" id="boundary" inkscape:connector-curvature="0" />
	<path style="fill:none;stroke:red;stroke-width:1px;stroke-linecap:butt;stroke-linejoin:miter;stroke-opacity:1" d="M 985.898,74.7128 985.898,94.9165 z" id="boundary" inkscape:connector-curvature="0" />
	<path style="fill:none;stroke:red;stroke-width:1px;stroke-linecap:butt;stroke-linejoin:miter;stroke-opacity:1" d="M 985.898,94.9165 985.898,115.12 z" id="boundary" inkscape:connector-curvature="0" />
	<path style="fill:none;stroke:red;stroke-width:1px;stroke-linecap:butt;stroke-linejoin:miter;stroke-opacity:1" d="M 985.898,115.12 985.898,135.324 z" id="boundary" inkscape:connector-curvature="0" />
	<path style="fill:none;stroke:red;stroke-width:1px;stroke-linecap:butt;stroke-linejoin:miter;stroke-opacity:1" d="M 985.898,135.324 985.898,155.527 z" id="boundary" inkscape:connector-curvature="0" />
	<path style="fill:none;stroke:red;stroke-width:1px;stroke-linecap:butt;stroke-linejoin:miter;stroke-opacity:1" d="M 985.898,155.527 985.898,175.731 z" id="boundary" inkscape:connector-curvature="0" />
	<path style="fill:none;stroke:red;stroke-width:1px;stroke-linecap:butt;stroke-linejoin:miter;stroke-opacity:1" d="M 985.898,175.731 985.898,195.935 z" id="boundary" inkscape:connector-curvature="0" />
	<path style="fill:none;stroke:red;stroke-width:1px;stroke-linecap:butt;stroke-linejoin:miter;stroke-opacity:1" d="M 985.898,195.935 985.898,216.138 z" id="boundary" inkscape:connector-curvature="0" />
	<path style="fill:none;stroke:red;stroke-width:1px;stroke-linecap:butt;stroke-linejoin:miter;stroke-opacity:1" d="M 985.898,216.138 985.898,236.342 z" id="boundary" inkscape:connector-curvature="0" />
	<path style="fill:none;stroke:red;stroke-width:1px;stroke-linecap:butt;stroke-linejoin:miter;stroke-opacity:1" d="M 985.898,236.342 985.898,256.546 z" id="boundary" inkscape:connector-curvature="0" />
	<path style="fill:none;stroke:red;stroke-width:1px;stroke-linecap:butt;stroke-linejoin:miter;stroke-opacity:1" d="M 985.898,256.546 985.898,276.749 z" id="boundary" inkscape:connector-curvature="0" />
	<path style="fill:none;stroke:red;stroke-width:1px;stroke-linecap:butt;stroke-linejoin:miter;stroke-opacity:1" d="M 985.898,276.749 985.898,296.953 z" id="boundary" inkscape:connector-curvature="0" />
	<path style="fill:none;stroke:red;stroke-width:1px;stroke-linecap:butt;stroke-linejoin:miter;stroke-opacity:1" d="M 985.898,296.953 985.898,317.157 z" id="boundary" inkscape:connector-curvature="0" />
	<path style="fill:none;stroke:red;stroke-width:1px;stroke-linecap:butt;stroke-linejoin:miter;stroke-opacity:1" d="M 985.898,317.157 993.98,337.36 z" id="boundary" inkscape:connector-curvature="0" />
	<path style="fill:none;stroke:red;stroke-width:1px;stroke-linecap:butt;stroke-linejoin:miter;stroke-opacity:1" d="M 993.98,337.36 996,357.564 z" id="boundary" inkscape:connector-curvature="0" />
	<path style="fill:none;stroke:red;stroke-width:1px;stroke-linecap:butt;stroke-linejoin:miter;stroke-opacity:1" d="M 996,357.564 996,377.768 z" id="boundary" inkscape:connector-curvature="0" />
	<path style="fill:none;stroke:red;stroke-width:1px;stroke-linecap:butt;stroke-linejoin:miter;stroke-opacity:1" d="M 996,377.768 996,397.971 z" id="boundary" inkscape:connector-curvature="0" />
	<path style="fill:none;stroke:red;stroke-width:1px;stroke-linecap:butt;stroke-linejoin:miter;stroke-opacity:1" d="M 996,397.971 996,418.175 z" id="boundary" inkscape:connector-curvature="0" />
	<path style="fill:none;stroke:red;stroke-width:1px;stroke-linecap:butt;stroke-linejoin:miter;stroke-opacity:1" d="M 996,418.175 996,438.379 z" id="boundary" inkscape:connector-curvature="0" />
	<path style="fill:none;stroke:red;stroke-width:1px;stroke-linecap:butt;stroke-linejoin:miter;stroke-opacity:1" d="M 996,438.379 996,458.582 z" id="boundary" inkscape:connector-curvature="0" />
	<path style="fill:none;stroke:red;stroke-width:1px;stroke-linecap:butt;stroke-linejoin:miter;stroke-opacity:1" d="M 996,458.582 996,478.786 z" id="boundary" inkscape:connector-curvature="0" />
	<path style="fill:none;stroke:red;stroke-width:1px;stroke-linecap:butt;stroke-linejoin:miter;stroke-opacity:1" d="M 996,478.786 996,498.99 z" id="boundary" inkscape:connector-curvature="0" />
	<path style="fill:none;stroke:red;stroke-width:1px;stroke-linecap:butt;stroke-linejoin:miter;stroke-opacity:1" d="M 996,498.99 996,519.193 z" id="boundary" inkscape:connector-curvature="0" />
	<path style="fill:none;stroke:red;stroke-width:1px;stroke-linecap:butt;stroke-linejoin:miter;stroke-opacity:1" d="M 996,519.193 996,539.397 z" id="boundary" inkscape:connector-curvature="0" />
	<path style="fill:none;stroke:red;stroke-width:1px;stroke-linecap:butt;stroke-linejoin:miter;stroke-opacity:1" d="M 996,539.397 996,559.601 z" id="boundary" inkscape:connector-curvature="0" />
	<path style="fill:none;stroke:red;stroke-width:1px;stroke-linecap:butt;stroke-linejoin:miter;stroke-opacity:1" d="M 996,559.601 996,579.804 z" id="boundary" inkscape:connector-curvature="0" />
	<path style="fill:none;stroke:red;stroke-width:1px;stroke-linecap:butt;stroke-linejoin:miter;stroke-opacity:1" d="M 996,579.804 996,600.008 z" id="boundary" inkscape:connector-curvature="0" />
	<path style="fill:none;stroke:red;stroke-width:1px;stroke-linecap:butt;stroke-linejoin:miter;stroke-opacity:1" d="M 996,600.008 975.796,606.069 z" id="boundary" inkscape:connector-curvature="0" />
	<path style="fill:none;stroke:red;stroke-width:1px;stroke-linecap:butt;stroke-linejoin:miter;stroke-opacity:1" d="M 975.796,606.069 955.593,606.069 z" id="boundary" inkscape:connector-curvature="0" />
	<path style="fill:none;stroke:red;stroke-width:1px;stroke-linecap:butt;stroke-linejoin:miter;stroke-opacity:1" d="M 955.593,606.069 935.389,606.069 z" id="boundary" inkscape:connector-curvature="0" />
	<path style="fill:none;stroke:red;stroke-width:1px;stroke-linecap:butt;stroke-linejoin:miter;stroke-opacity:1" d="M 935.389,606.069 915.185,606.069 z" id="boundary" inkscape:connector-curvature="0" />
	<path style="fill:none;stroke:red;stroke-width:1px;stroke-linecap:butt;stroke-linejoin:miter;stroke-opacity:1" d="M 915.185,606.069 894.982,606.069 z" id="boundary" inkscape:connector-curvature="0" />
	<path style="fill:none;stroke:red;stroke-width:1px;stroke-linecap:butt;stroke-linejoin:miter;stroke-opacity:1" d="M 894.982,606.069 874.778,606.069 z" id="boundary" inkscape:connector-curvature="0" />
	<path style="fill:none;stroke:red;stroke-width:1px;stroke-linecap:butt;stroke-linejoin:miter;stroke-opacity:1" d="M 874.778,606.069 854.574,606.069 z" id="boundary" inkscape:connector-curvature="0" />
	<path style="fill:none;stroke:red;stroke-width:1px;stroke-linecap:butt;stroke-linejoin:miter;stroke-opacity:1" d="M 854.574,606.069 834.371,606.069 z" id="boundary" inkscape:connector-curvature="0" />
	<path style="fill:none;stroke:red;stroke-width:1px;stroke-linecap:butt;stroke-linejoin:miter;stroke-opacity:1" d="M 834.371,606.069 834.371,626.273 z" id="boundary" inkscape:connector-curvature="0" />
	<path style="fill:none;stroke:red;stroke-width:1px;stroke-linecap:butt;stroke-linejoin:miter;stroke-opacity:1" d="M 834.371,626.273 824.269,646.477 z" id="boundary" inkscape:connector-curvature="0" />
	<circle cx="4" cy="44.4073" r="4" fill="#0" id="circle0"/>
	<circle cx="4" cy="64.611" r="4" fill="#0" id="circle1"/>
	<circle cx="4" cy="84.8147" r="4" fill="#0" id="circle2"/>
	<circle cx="4" cy="105.018" r="4" fill="#0" id="circle3"/>
	<circle cx="4" cy="125.222" r="4" fill="#0" id="circle4"/>
	<circle cx="4" cy="145.426" r="4" fill="#0" id="circle5"/>
	<circle cx="4" cy="165.629" r="4" fill="#0" id="circle6"/>
	<circle cx="4" cy="185.833" r="4" fill="#0" id="circle7"/>
	<circle cx="4" cy="206.037" r="4" fill="#0" id="circle8"/>
	<circle cx="4" cy="226.24" r="4" fill="#0" id="circle9"/>
	<circle cx="4" cy="246.444" r="4" fill="#0" id="circle10"/>
	<circle cx="4" cy="266.648" r="4" fill="#0" id="circle11"/>
	<circle cx="4" cy="286.851" r="4" fill="#0" id="circle12"/>
	<circle cx="4" cy="307.055" r="4" fill="#0" id="circle13"/>
	<circle cx="4" cy="327.259" r="4" fill="#0" id="circle14"/>
	<circle cx="4" cy="347.462" r="4" fill="#0" id="circle15"/>
	<circle cx="4" cy="367.666" r="4" fill="#0" id="circle16"/>
	<circle cx="4" cy="387.87" r="4" fill="#0" id="circle17"/>
	<circle cx="4" cy="408.073" r="4" fill="#0" id="circle18"/>
	<circle cx="4" cy="428.277" r="4" fill="#0" id="circle19"/>
	<circle cx="4" cy="448.481" r="4" fill="#0" id="circle20"/>
	<circle cx="4" cy="468.684" r="4" fill="#0" id="circle21"/>
	<circle cx="24.2037" cy="38.3462" r="4" fill="#0" id="circle22"/>
	<circle cx="24.2037" cy="474.745" r="4" fill="#0" id="circle23"/>
	<circle cx="24.2037" cy="494.949" r="4" fill="#0" id="circle24"/>
	<circle cx="24.2037" cy="515.153" r="4" fill="#0" id="circle25"/>
	<circle cx="24.2037" cy="535.356" r="4" fill="#0" id="circle26"/>
	<circle cx="24.2037" cy="555.56" r="4" fill="#0" id="circle27"/>
	<circle cx="24.2037" cy="575.764" r="4" fill="#0" id="circle28"/>
	<circle cx="24.2037" cy="595.967" r="4" fill="#0" id="circle29"/>
	<circle cx="24.2037" cy="616.171" r="4" fill="#0" id="circle30"/>
	<circle cx="30.2648" cy="636.375" r="4" fill="#0" id="circle31"/>
	<circle cx="44.4073" cy="38.3462" r="4" fill="#0" id="circle32"/>
	<circle cx="50.4684" cy="636.375" r="4" fill="#0" id="circle33"/>
	<circle cx="64.611" cy="38.3462" r="4" fill="#0" id="circle34"/>
	<circle cx="70.6721" cy="636.375" r="4" fill="#0" id="circle35"/>
	<circle cx="84.8147" cy="38.3462" r="4" fill="#0" id="circle36"/>
	<circle cx="90.8758" cy="636.375" r="4" fill="#0" id="circle37"/>
	<circle cx="105.018" cy="38.3462" r="4" fill="#0" id="circle38"/>
	<circle cx="111.079" cy="636.375" r="4" fill="#0" id="circle39"/>
	<circle cx="123.202" cy="28.2444" r="4" fill="#0" id="circle40"/>
	<circle cx="131.283" cy="636.375" r="4" fill="#0" id="circle41"/>
	<circle cx="143.405" cy="28.2444" r="4" fill="#0" id="circle42"/>
	<circle cx="151.487" cy="636.375" r="4" fill="#0" id="circle43"/>
	<circle cx="163.609" cy="28.2444" r="4" fill="#0" id="circle44"/>
	<circle cx="171.69" cy="636.375" r="4" fill="#0" id="circle45"/>
	<circle cx="183.813" cy="28.2444" r="4" fill="#0" id="circle46"/>
	<circle cx="191.894" cy="636.375" r="4" fill="#0" id="circle47"/>
	<circle cx="204.016" cy="28.2444" r="4" fill="#0" id="circle48"/>
	<circle cx="212.098" cy="634.354" r="4" fill="#0" id="circle49"/>
	<circle cx="222.2" cy="616.171" r="4" fill="#0" id="circle50"/>
	<circle cx="224.22" cy="28.2444" r="4" fill="#0" id="circle51"/>
	<circle cx="242.403" cy="616.171" r="4" fill="#0" id="circle52"/>
	<circle cx="244.424" cy="28.2444" r="4" fill="#0" id="circle53"/>
	<circle cx="262.607" cy="616.171" r="4" fill="#0" id="circle54"/>
	<circle cx="264.627" cy="28.2444" r="4" fill="#0" id="circle55"/>
	<circle cx="282.811" cy="616.171" r="4" fill="#0" id="circle56"/>
	<circle cx="284.831" cy="28.2444" r="4" fill="#0" id="circle57"/>
	<circle cx="303.014" cy="616.171" r="4" fill="#0" id="circle58"/>
	<circle cx="305.035" cy="28.2444" r="4" fill="#0" id="circle59"/>
	<circle cx="323.218" cy="616.171" r="4" fill="#0" id="circle60"/>
	<circle cx="325.238" cy="28.2444" r="4" fill="#0" id="circle61"/>
	<circle cx="343.422" cy="616.171" r="4" fill="#0" id="circle62"/>
	<circle cx="345.442" cy="28.2444" r="4" fill="#0" id="circle63"/>
	<circle cx="363.625" cy="616.171" r="4" fill="#0" id="circle64"/>
	<circle cx="365.646" cy="28.2444" r="4" fill="#0" id="circle65"/>
	<circle cx="383.829" cy="616.171" r="4" fill="#0" id="circle66"/>
	<circle cx="385.849" cy="28.2444" r="4" fill="#0" id="circle67"/>
	<circle cx="404.033" cy="616.171" r="4" fill="#0" id="circle68"/>
	<circle cx="406.053" cy="28.2444" r="4" fill="#0" id="circle69"/>
	<circle cx="424.236" cy="616.171" r="4" fill="#0" id="circle70"/>
	<circle cx="426.257" cy="28.2444" r="4" fill="#0" id="circle71"/>
	<circle cx="444.44" cy="616.171" r="4" fill="#0" id="circle72"/>
	<circle cx="446.46" cy="28.2444" r="4" fill="#0" id="circle73"/>
	<circle cx="464.644" cy="616.171" r="4" fill="#0" id="circle74"/>
	<circle cx="466.664" cy="28.2444" r="4" fill="#0" id="circle75"/>
	<circle cx="484.847" cy="616.171" r="4" fill="#0" id="circle76"/>
	<circle cx="486.868" cy="28.2444" r="4" fill="#0" id="circle77"/>
	<circle cx="505.051" cy="616.171" r="4" fill="#0" id="circle78"/>
	<circle cx="507.071" cy="28.2444" r="4" fill="#0" id="circle79"/>
	<circle cx="521.214" cy="12.0815" r="4" fill="#0" id="circle80"/>
	<circle cx="525.255" cy="616.171" r="4" fill="#0" id="circle81"/>
	<circle cx="541.418" cy="8.04073" r="4" fill="#0" id="circle82"/>
	<circle cx="545.458" cy="616.171" r="4" fill="#0" id="circle83"/>
	<circle cx="561.621" cy="8.04073" r="4" fill="#0" id="circle84"/>
	<circle cx="565.662" cy="616.171" r="4" fill="#0" id="circle85"/>
	<circle cx="581.825" cy="8.04073" r="4" fill="#0" id="circle86"/>
	<circle cx="581.825" cy="630.314" r="4" fill="#0" id="circle87"/>
	<circle cx="600.008" cy="640.415" r="4" fill="#0" id="circle88"/>
	<circle cx="600.008" cy="660.619" r="4" fill="#0" id="circle89"/>
	<circle cx="600.008" cy="680.823" r="4" fill="#0" id="circle90"/>
	<circle cx="602.029" cy="8.04073" r="4" fill="#0" id="circle91"/>
	<circle cx="610.11" cy="699.006" r="4" fill="#0" id="circle92"/>
	<circle cx="620.212" cy="717.189" r="4" fill="#0" id="circle93"/>
	<circle cx="622.232" cy="8.04073" r="4" fill="#0" id="circle94"/>
	<circle cx="630.314" cy="735.373" r="4" fill="#0" id="circle95"/>
	<circle cx="630.314" cy="755.576" r="4" fill="#0" id="circle96"/>
	<circle cx="634.354" cy="775.78" r="4" fill="#0" id="circle97"/>
	<circle cx="642.436" cy="8.04073" r="4" fill="#0" id="circle98"/>
	<circle cx="644.456" cy="793.963" r="4" fill="#0" id="circle99"/>
	<circle cx="662.64" cy="8.04073" r="4" fill="#0" id="circle100"/>
	<circle cx="664.66" cy="798.004" r="4" fill="#0" id="circle101"/>
	<circle cx="682.843" cy="8.04073" r="4" fill="#0" id="circle102"/>
	<circle cx="684.864" cy="798.004" r="4" fill="#0" id="circle103"/>
	<circle cx="703.047" cy="8.04073" r="4" fill="#0" id="circle104"/>
	<circle cx="705.067" cy="798.004" r="4" fill="#0" id="circle105"/>
	<circle cx="723.251" cy="8.04073" r="4" fill="#0" id="circle106"/>
	<circle cx="725.271" cy="798.004" r="4" fill="#0" id="circle107"/>
	<circle cx="743.454" cy="8.04073" r="4" fill="#0" id="circle108"/>
	<circle cx="745.475" cy="798.004" r="4" fill="#0" id="circle109"/>
	<circle cx="763.658" cy="8.04073" r="4" fill="#0" id="circle110"/>
	<circle cx="765.678" cy="798.004" r="4" fill="#0" id="circle111"/>
	<circle cx="783.862" cy="8.04073" r="4" fill="#0" id="circle112"/>
	<circle cx="785.882" cy="798.004" r="4" fill="#0" id="circle113"/>
	<circle cx="804.065" cy="8.04073" r="4" fill="#0" id="circle114"/>
	<circle cx="806.086" cy="798.004" r="4" fill="#0" id="circle115"/>
	<circle cx="824.269" cy="8.04073" r="4" fill="#0" id="circle116"/>
	<circle cx="824.269" cy="646.477" r="4" fill="#0" id="circle117"/>
	<circle cx="824.269" cy="666.68" r="4" fill="#0" id="circle118"/>
	<circle cx="824.269" cy="686.884" r="4" fill="#0" id="circle119"/>
	<circle cx="824.269" cy="707.088" r="4" fill="#0" id="circle120"/>
	<circle cx="824.269" cy="727.291" r="4" fill="#0" id="circle121"/>
	<circle cx="824.269" cy="747.495" r="4" fill="#0" id="circle122"/>
	<circle cx="824.269" cy="767.699" r="4" fill="#0" id="circle123"/>
	<circle cx="824.269" cy="787.902" r="4" fill="#0" id="circle124"/>
	<circle cx="834.371" cy="606.069" r="4" fill="#0" id="circle125"/>
	<circle cx="834.371" cy="626.273" r="4" fill="#0" id="circle126"/>
	<circle cx="844.473" cy="8.04073" r="4" fill="#0" id="circle127"/>
	<circle cx="854.574" cy="606.069" r="4" fill="#0" id="circle128"/>
	<circle cx="864.676" cy="8.04073" r="4" fill="#0" id="circle129"/>
	<circle cx="874.778" cy="606.069" r="4" fill="#0" id="circle130"/>
	<circle cx="884.88" cy="8.04073" r="4" fill="#0" id="circle131"/>
	<circle cx="894.982" cy="606.069" r="4" fill="#0" id="circle132"/>
	<circle cx="905.084" cy="8.04073" r="4" fill="#0" id="circle133"/>
	<circle cx="915.185" cy="606.069" r="4" fill="#0" id="circle134"/>
	<circle cx="925.287" cy="8.04073" r="4" fill="#0" id="circle135"/>
	<circle cx="935.389" cy="606.069" r="4" fill="#0" id="circle136"/>
	<circle cx="945.491" cy="8.04073" r="4" fill="#0" id="circle137"/>
	<circle cx="955.593" cy="606.069" r="4" fill="#0" id="circle138"/>
	<circle cx="965.695" cy="4" r="4" fill="#0" id="circle139"/>
	<circle cx="975.796" cy="606.069" r="4" fill="#0" id="circle140"/>
	<circle cx="983.878" cy="14.1018" r="4" fill="#0" id="circle141"/>
	<circle cx="985.898" cy="34.3055" r="4" fill="#0" id="circle142"/>
	<circle cx="985.898" cy="54.5092" r="4" fill="#0" id="circle143"/>
	<circle cx="985.898" cy="74.7128" r="4" fill="#0" id="circle144"/>
	<circle cx="985.898" cy="94.9165" r="4" fill="#0" id="circle145"/>
	<circle cx="985.898" cy="115.12" r="4" fill="#0" id="circle146"/>
	<circle cx="985.898" cy="135.324" r="4" fill="#0" id="circle147"/>
	<circle cx="985.898" cy="155.527" r="4" fill="#0" id="circle148"/>
	<circle cx="985.898" cy="175.731" r="4" fill="#0" id="circle149"/>
	<circle cx="985.898" cy="195.935" r="4" fill="#0" id="circle150"/>
	<circle cx="985.898" cy="216.138" r="4" fill="#0" id="circle151"/>
	<circle cx="985.898" cy="236.342" r="4" fill="#0" id="circle152"/>
	<circle cx="985.898" cy="256.546" r="4" fill="#0" id="circle153"/>
	<circle cx="985.898" cy="276.749" r="4" fill="#0" id="circle154"/>
	<circle cx="985.898" cy="296.953" r="4" fill="#0" id="circle155"/>
	<circle cx="985.898" cy="317.157" r="4" fill="#0" id="circle156"/>
	<circle cx="993.98" cy="337.36" r="4" fill="#0" id="circle157"/>
	<circle cx="996" cy="357.564" r="4" fill="#0" id="circle158"/>
	<circle cx="996" cy="377.768" r="4" fill="#0" id="circle159"/>
	<circle cx="996" cy="397.971" r="4" fill="#0" id="circle160"/>
	<circle cx="996" cy="418.175" r="4" fill="#0" id="circle161"/>
	<circle cx="996" cy="438.379" r="4" fill="#0" id="circle162"/>
	<circle cx="996" cy="458.582" r="4" fill="#0" id="circle163"/>
	<circle cx="996" cy="478.786" r="4" fill="#0" id="circle164"/>
	<circle cx="996" cy="498.99" r="4" fill="#0" id="circle165"/>
	<circle cx="996" cy="519.193" r="4" fill="#0" id="circle166"/>
	<circle cx="996" cy="539.397" r="4" fill="#0" id="circle167"/>
	<circle cx="996" cy="559.601" r="4" fill="#0" id="circle168"/>
	<circle cx="996" cy="579.804" r="4" fill="#0" id="circle169"/>
	<circle cx="996" cy="600.008" r="4" fill="#0" id="circle170"/>
	</g>
</svg>