<?xml version="1.0" encoding="UTF-8" standalone="no"?>
<!-- Created with CurveBenchmark -->
<svg
	xmlns:dc="http://purl.org/dc/elements/1.1/"
	xmlns:cc="http://creativecommons.org/ns#"
	xmlns:rdf="http://www.w3.org/1999/02/22-rdf-syntax-ns#"
	xmlns:svg="http://www.w3.org/2000/svg"
	xmlns="http://www.w3.org/2000/svg"
	xmlns:sodipodi="http://sodipodi.sourceforge.net/DTD/sodipodi-0.dtd"
	xmlns:inkscape="http://www.inkscape.org/namespaces/inkscape"
	width="1000"
	height="1000"
	id="svg2"
	version="1.1"
	sodipodi:docname="manifold/crawl-c12b.png.txt">
<defs
	id="defs4" />
<metadata
	id="metadata7">
	<rdf:RDF>
		<cc:Work
			rdf:about="">
			<dc:format>image/svg+xml</dc:format>
			<dc:type
				rdf:resource="http://purl.org/dc/dcmitype/StillImage" />
			<dc:title></dc:title>
		</cc:Work>
	</rdf:RDF>
</metadata>
<g
	inkscape:label="Layer 1"
	inkscape:groupmode="layer"
	id="layer1">
	<path style="fill:none;stroke:red;stroke-width:1px;stroke-linecap:butt;stroke-linejoin:miter;stroke-opacity:1" d="M 4,288.094 4,272.57 z" id="boundary" inkscape:connector-curvature="0" />
	<path style="fill:none;stroke:red;stroke-width:1px;stroke-linecap:butt;stroke-linejoin:miter;stroke-opacity:1" d="M 4,288.094 19.5243,292.751 z" id="boundary" inkscape:connector-curvature="0" />
	<path style="fill:none;stroke:red;stroke-width:1px;stroke-linecap:butt;stroke-linejoin:miter;stroke-opacity:1" d="M 19.5243,292.751 27.2864,306.723 z" id="boundary" inkscape:connector-curvature="0" />
	<path style="fill:none;stroke:red;stroke-width:1px;stroke-linecap:butt;stroke-linejoin:miter;stroke-opacity:1" d="M 27.2864,306.723 27.2864,322.247 z" id="boundary" inkscape:connector-curvature="0" />
	<path style="fill:none;stroke:red;stroke-width:1px;stroke-linecap:butt;stroke-linejoin:miter;stroke-opacity:1" d="M 27.2864,322.247 27.2864,337.772 z" id="boundary" inkscape:connector-curvature="0" />
	<path style="fill:none;stroke:red;stroke-width:1px;stroke-linecap:butt;stroke-linejoin:miter;stroke-opacity:1" d="M 4,272.57 16.4194,260.15 z" id="boundary" inkscape:connector-curvature="0" />
	<path style="fill:none;stroke:red;stroke-width:1px;stroke-linecap:butt;stroke-linejoin:miter;stroke-opacity:1" d="M 16.4194,260.15 24.1815,244.626 z" id="boundary" inkscape:connector-curvature="0" />
	<path style="fill:none;stroke:red;stroke-width:1px;stroke-linecap:butt;stroke-linejoin:miter;stroke-opacity:1" d="M 24.1815,244.626 27.2864,225.997 z" id="boundary" inkscape:connector-curvature="0" />
	<path style="fill:none;stroke:red;stroke-width:1px;stroke-linecap:butt;stroke-linejoin:miter;stroke-opacity:1" d="M 27.2864,337.772 19.5243,357.953 z" id="boundary" inkscape:connector-curvature="0" />
	<path style="fill:none;stroke:red;stroke-width:1px;stroke-linecap:butt;stroke-linejoin:miter;stroke-opacity:1" d="M 19.5243,357.953 19.5243,373.477 z" id="boundary" inkscape:connector-curvature="0" />
	<path style="fill:none;stroke:red;stroke-width:1px;stroke-linecap:butt;stroke-linejoin:miter;stroke-opacity:1" d="M 19.5243,373.477 19.5243,389.002 z" id="boundary" inkscape:connector-curvature="0" />
	<path style="fill:none;stroke:red;stroke-width:1px;stroke-linecap:butt;stroke-linejoin:miter;stroke-opacity:1" d="M 19.5243,389.002 19.5243,404.526 z" id="boundary" inkscape:connector-curvature="0" />
	<path style="fill:none;stroke:red;stroke-width:1px;stroke-linecap:butt;stroke-linejoin:miter;stroke-opacity:1" d="M 19.5243,404.526 11.7621,420.05 z" id="boundary" inkscape:connector-curvature="0" />
	<path style="fill:none;stroke:red;stroke-width:1px;stroke-linecap:butt;stroke-linejoin:miter;stroke-opacity:1" d="M 11.7621,420.05 24.1815,430.917 z" id="boundary" inkscape:connector-curvature="0" />
	<path style="fill:none;stroke:red;stroke-width:1px;stroke-linecap:butt;stroke-linejoin:miter;stroke-opacity:1" d="M 24.1815,430.917 39.7058,430.917 z" id="boundary" inkscape:connector-curvature="0" />
	<path style="fill:none;stroke:red;stroke-width:1px;stroke-linecap:butt;stroke-linejoin:miter;stroke-opacity:1" d="M 39.7058,430.917 52.1252,416.945 z" id="boundary" inkscape:connector-curvature="0" />
	<path style="fill:none;stroke:red;stroke-width:1px;stroke-linecap:butt;stroke-linejoin:miter;stroke-opacity:1" d="M 52.1252,416.945 67.6495,409.183 z" id="boundary" inkscape:connector-curvature="0" />
	<path style="fill:none;stroke:red;stroke-width:1px;stroke-linecap:butt;stroke-linejoin:miter;stroke-opacity:1" d="M 67.6495,409.183 80.0689,398.316 z" id="boundary" inkscape:connector-curvature="0" />
	<path style="fill:none;stroke:red;stroke-width:1px;stroke-linecap:butt;stroke-linejoin:miter;stroke-opacity:1" d="M 80.0689,398.316 90.9358,385.897 z" id="boundary" inkscape:connector-curvature="0" />
	<path style="fill:none;stroke:red;stroke-width:1px;stroke-linecap:butt;stroke-linejoin:miter;stroke-opacity:1" d="M 90.9358,385.897 104.908,378.135 z" id="boundary" inkscape:connector-curvature="0" />
	<path style="fill:none;stroke:red;stroke-width:1px;stroke-linecap:butt;stroke-linejoin:miter;stroke-opacity:1" d="M 104.908,378.135 117.327,368.82 z" id="boundary" inkscape:connector-curvature="0" />
	<path style="fill:none;stroke:red;stroke-width:1px;stroke-linecap:butt;stroke-linejoin:miter;stroke-opacity:1" d="M 117.327,368.82 125.089,354.848 z" id="boundary" inkscape:connector-curvature="0" />
	<path style="fill:none;stroke:red;stroke-width:1px;stroke-linecap:butt;stroke-linejoin:miter;stroke-opacity:1" d="M 125.089,354.848 139.061,347.086 z" id="boundary" inkscape:connector-curvature="0" />
	<path style="fill:none;stroke:red;stroke-width:1px;stroke-linecap:butt;stroke-linejoin:miter;stroke-opacity:1" d="M 139.061,347.086 151.48,334.667 z" id="boundary" inkscape:connector-curvature="0" />
	<path style="fill:none;stroke:red;stroke-width:1px;stroke-linecap:butt;stroke-linejoin:miter;stroke-opacity:1" d="M 151.48,334.667 163.9,323.8 z" id="boundary" inkscape:connector-curvature="0" />
	<path style="fill:none;stroke:red;stroke-width:1px;stroke-linecap:butt;stroke-linejoin:miter;stroke-opacity:1" d="M 163.9,323.8 179.424,323.8 z" id="boundary" inkscape:connector-curvature="0" />
	<path style="fill:none;stroke:red;stroke-width:1px;stroke-linecap:butt;stroke-linejoin:miter;stroke-opacity:1" d="M 179.424,323.8 193.396,331.562 z" id="boundary" inkscape:connector-curvature="0" />
	<path style="fill:none;stroke:red;stroke-width:1px;stroke-linecap:butt;stroke-linejoin:miter;stroke-opacity:1" d="M 193.396,331.562 208.92,336.219 z" id="boundary" inkscape:connector-curvature="0" />
	<path style="fill:none;stroke:red;stroke-width:1px;stroke-linecap:butt;stroke-linejoin:miter;stroke-opacity:1" d="M 208.92,336.219 213.577,351.743 z" id="boundary" inkscape:connector-curvature="0" />
	<path style="fill:none;stroke:red;stroke-width:1px;stroke-linecap:butt;stroke-linejoin:miter;stroke-opacity:1" d="M 213.577,351.743 221.34,365.715 z" id="boundary" inkscape:connector-curvature="0" />
	<path style="fill:none;stroke:red;stroke-width:1px;stroke-linecap:butt;stroke-linejoin:miter;stroke-opacity:1" d="M 221.34,365.715 236.864,370.372 z" id="boundary" inkscape:connector-curvature="0" />
	<path style="fill:none;stroke:red;stroke-width:1px;stroke-linecap:butt;stroke-linejoin:miter;stroke-opacity:1" d="M 236.864,370.372 252.388,373.477 z" id="boundary" inkscape:connector-curvature="0" />
	<path style="fill:none;stroke:red;stroke-width:1px;stroke-linecap:butt;stroke-linejoin:miter;stroke-opacity:1" d="M 252.388,373.477 267.912,370.372 z" id="boundary" inkscape:connector-curvature="0" />
	<path style="fill:none;stroke:red;stroke-width:1px;stroke-linecap:butt;stroke-linejoin:miter;stroke-opacity:1" d="M 267.912,370.372 283.437,370.372 z" id="boundary" inkscape:connector-curvature="0" />
	<path style="fill:none;stroke:red;stroke-width:1px;stroke-linecap:butt;stroke-linejoin:miter;stroke-opacity:1" d="M 283.437,370.372 297.408,378.135 z" id="boundary" inkscape:connector-curvature="0" />
	<path style="fill:none;stroke:red;stroke-width:1px;stroke-linecap:butt;stroke-linejoin:miter;stroke-opacity:1" d="M 297.408,378.135 312.933,378.135 z" id="boundary" inkscape:connector-curvature="0" />
	<path style="fill:none;stroke:red;stroke-width:1px;stroke-linecap:butt;stroke-linejoin:miter;stroke-opacity:1" d="M 312.933,378.135 322.247,390.554 z" id="boundary" inkscape:connector-curvature="0" />
	<path style="fill:none;stroke:red;stroke-width:1px;stroke-linecap:butt;stroke-linejoin:miter;stroke-opacity:1" d="M 322.247,390.554 314.485,404.526 z" id="boundary" inkscape:connector-curvature="0" />
	<path style="fill:none;stroke:red;stroke-width:1px;stroke-linecap:butt;stroke-linejoin:miter;stroke-opacity:1" d="M 314.485,404.526 306.723,420.05 z" id="boundary" inkscape:connector-curvature="0" />
	<path style="fill:none;stroke:red;stroke-width:1px;stroke-linecap:butt;stroke-linejoin:miter;stroke-opacity:1" d="M 306.723,420.05 298.961,443.336 z" id="boundary" inkscape:connector-curvature="0" />
	<path style="fill:none;stroke:red;stroke-width:1px;stroke-linecap:butt;stroke-linejoin:miter;stroke-opacity:1" d="M 298.961,443.336 291.199,466.623 z" id="boundary" inkscape:connector-curvature="0" />
	<path style="fill:none;stroke:red;stroke-width:1px;stroke-linecap:butt;stroke-linejoin:miter;stroke-opacity:1" d="M 291.199,466.623 283.437,489.909 z" id="boundary" inkscape:connector-curvature="0" />
	<path style="fill:none;stroke:red;stroke-width:1px;stroke-linecap:butt;stroke-linejoin:miter;stroke-opacity:1" d="M 27.2864,225.997 35.0485,201.158 z" id="boundary" inkscape:connector-curvature="0" />
	<path style="fill:none;stroke:red;stroke-width:1px;stroke-linecap:butt;stroke-linejoin:miter;stroke-opacity:1" d="M 35.0485,201.158 35.0485,185.634 z" id="boundary" inkscape:connector-curvature="0" />
	<path style="fill:none;stroke:red;stroke-width:1px;stroke-linecap:butt;stroke-linejoin:miter;stroke-opacity:1" d="M 35.0485,185.634 27.2864,171.662 z" id="boundary" inkscape:connector-curvature="0" />
	<path style="fill:none;stroke:red;stroke-width:1px;stroke-linecap:butt;stroke-linejoin:miter;stroke-opacity:1" d="M 27.2864,171.662 42.8106,167.005 z" id="boundary" inkscape:connector-curvature="0" />
	<path style="fill:none;stroke:red;stroke-width:1px;stroke-linecap:butt;stroke-linejoin:miter;stroke-opacity:1" d="M 42.8106,167.005 58.3349,170.11 z" id="boundary" inkscape:connector-curvature="0" />
	<path style="fill:none;stroke:red;stroke-width:1px;stroke-linecap:butt;stroke-linejoin:miter;stroke-opacity:1" d="M 58.3349,170.11 72.3067,177.872 z" id="boundary" inkscape:connector-curvature="0" />
	<path style="fill:none;stroke:red;stroke-width:1px;stroke-linecap:butt;stroke-linejoin:miter;stroke-opacity:1" d="M 72.3067,177.872 83.1737,190.291 z" id="boundary" inkscape:connector-curvature="0" />
	<path style="fill:none;stroke:red;stroke-width:1px;stroke-linecap:butt;stroke-linejoin:miter;stroke-opacity:1" d="M 83.1737,190.291 95.5931,199.606 z" id="boundary" inkscape:connector-curvature="0" />
	<path style="fill:none;stroke:red;stroke-width:1px;stroke-linecap:butt;stroke-linejoin:miter;stroke-opacity:1" d="M 95.5931,199.606 109.565,207.368 z" id="boundary" inkscape:connector-curvature="0" />
	<path style="fill:none;stroke:red;stroke-width:1px;stroke-linecap:butt;stroke-linejoin:miter;stroke-opacity:1" d="M 109.565,207.368 121.984,218.235 z" id="boundary" inkscape:connector-curvature="0" />
	<path style="fill:none;stroke:red;stroke-width:1px;stroke-linecap:butt;stroke-linejoin:miter;stroke-opacity:1" d="M 121.984,218.235 132.851,230.654 z" id="boundary" inkscape:connector-curvature="0" />
	<path style="fill:none;stroke:red;stroke-width:1px;stroke-linecap:butt;stroke-linejoin:miter;stroke-opacity:1" d="M 132.851,230.654 145.271,241.521 z" id="boundary" inkscape:connector-curvature="0" />
	<path style="fill:none;stroke:red;stroke-width:1px;stroke-linecap:butt;stroke-linejoin:miter;stroke-opacity:1" d="M 145.271,241.521 156.138,253.941 z" id="boundary" inkscape:connector-curvature="0" />
	<path style="fill:none;stroke:red;stroke-width:1px;stroke-linecap:butt;stroke-linejoin:miter;stroke-opacity:1" d="M 156.138,253.941 168.557,264.808 z" id="boundary" inkscape:connector-curvature="0" />
	<path style="fill:none;stroke:red;stroke-width:1px;stroke-linecap:butt;stroke-linejoin:miter;stroke-opacity:1" d="M 168.557,264.808 184.081,267.912 z" id="boundary" inkscape:connector-curvature="0" />
	<path style="fill:none;stroke:red;stroke-width:1px;stroke-linecap:butt;stroke-linejoin:miter;stroke-opacity:1" d="M 184.081,267.912 199.606,267.912 z" id="boundary" inkscape:connector-curvature="0" />
	<path style="fill:none;stroke:red;stroke-width:1px;stroke-linecap:butt;stroke-linejoin:miter;stroke-opacity:1" d="M 199.606,267.912 215.13,267.912 z" id="boundary" inkscape:connector-curvature="0" />
	<path style="fill:none;stroke:red;stroke-width:1px;stroke-linecap:butt;stroke-linejoin:miter;stroke-opacity:1" d="M 215.13,267.912 229.102,260.15 z" id="boundary" inkscape:connector-curvature="0" />
	<path style="fill:none;stroke:red;stroke-width:1px;stroke-linecap:butt;stroke-linejoin:miter;stroke-opacity:1" d="M 229.102,260.15 243.074,252.388 z" id="boundary" inkscape:connector-curvature="0" />
	<path style="fill:none;stroke:red;stroke-width:1px;stroke-linecap:butt;stroke-linejoin:miter;stroke-opacity:1" d="M 243.074,252.388 258.598,252.388 z" id="boundary" inkscape:connector-curvature="0" />
	<path style="fill:none;stroke:red;stroke-width:1px;stroke-linecap:butt;stroke-linejoin:miter;stroke-opacity:1" d="M 258.598,252.388 274.122,252.388 z" id="boundary" inkscape:connector-curvature="0" />
	<path style="fill:none;stroke:red;stroke-width:1px;stroke-linecap:butt;stroke-linejoin:miter;stroke-opacity:1" d="M 274.122,252.388 289.646,252.388 z" id="boundary" inkscape:connector-curvature="0" />
	<path style="fill:none;stroke:red;stroke-width:1px;stroke-linecap:butt;stroke-linejoin:miter;stroke-opacity:1" d="M 289.646,252.388 305.171,252.388 z" id="boundary" inkscape:connector-curvature="0" />
	<path style="fill:none;stroke:red;stroke-width:1px;stroke-linecap:butt;stroke-linejoin:miter;stroke-opacity:1" d="M 305.171,252.388 320.695,252.388 z" id="boundary" inkscape:connector-curvature="0" />
	<path style="fill:none;stroke:red;stroke-width:1px;stroke-linecap:butt;stroke-linejoin:miter;stroke-opacity:1" d="M 283.437,489.909 280.332,516.3 z" id="boundary" inkscape:connector-curvature="0" />
	<path style="fill:none;stroke:red;stroke-width:1px;stroke-linecap:butt;stroke-linejoin:miter;stroke-opacity:1" d="M 280.332,516.3 267.912,528.72 z" id="boundary" inkscape:connector-curvature="0" />
	<path style="fill:none;stroke:red;stroke-width:1px;stroke-linecap:butt;stroke-linejoin:miter;stroke-opacity:1" d="M 267.912,528.72 267.912,544.244 z" id="boundary" inkscape:connector-curvature="0" />
	<path style="fill:none;stroke:red;stroke-width:1px;stroke-linecap:butt;stroke-linejoin:miter;stroke-opacity:1" d="M 267.912,544.244 260.15,559.768 z" id="boundary" inkscape:connector-curvature="0" />
	<path style="fill:none;stroke:red;stroke-width:1px;stroke-linecap:butt;stroke-linejoin:miter;stroke-opacity:1" d="M 260.15,559.768 252.388,583.055 z" id="boundary" inkscape:connector-curvature="0" />
	<path style="fill:none;stroke:red;stroke-width:1px;stroke-linecap:butt;stroke-linejoin:miter;stroke-opacity:1" d="M 252.388,583.055 252.388,598.579 z" id="boundary" inkscape:connector-curvature="0" />
	<path style="fill:none;stroke:red;stroke-width:1px;stroke-linecap:butt;stroke-linejoin:miter;stroke-opacity:1" d="M 252.388,598.579 244.626,614.103 z" id="boundary" inkscape:connector-curvature="0" />
	<path style="fill:none;stroke:red;stroke-width:1px;stroke-linecap:butt;stroke-linejoin:miter;stroke-opacity:1" d="M 244.626,614.103 253.941,626.523 z" id="boundary" inkscape:connector-curvature="0" />
	<path style="fill:none;stroke:red;stroke-width:1px;stroke-linecap:butt;stroke-linejoin:miter;stroke-opacity:1" d="M 253.941,626.523 269.465,626.523 z" id="boundary" inkscape:connector-curvature="0" />
	<path style="fill:none;stroke:red;stroke-width:1px;stroke-linecap:butt;stroke-linejoin:miter;stroke-opacity:1" d="M 269.465,626.523 284.989,626.523 z" id="boundary" inkscape:connector-curvature="0" />
	<path style="fill:none;stroke:red;stroke-width:1px;stroke-linecap:butt;stroke-linejoin:miter;stroke-opacity:1" d="M 284.989,626.523 300.513,626.523 z" id="boundary" inkscape:connector-curvature="0" />
	<path style="fill:none;stroke:red;stroke-width:1px;stroke-linecap:butt;stroke-linejoin:miter;stroke-opacity:1" d="M 300.513,626.523 316.038,626.523 z" id="boundary" inkscape:connector-curvature="0" />
	<path style="fill:none;stroke:red;stroke-width:1px;stroke-linecap:butt;stroke-linejoin:miter;stroke-opacity:1" d="M 316.038,626.523 331.562,618.761 z" id="boundary" inkscape:connector-curvature="0" />
	<path style="fill:none;stroke:red;stroke-width:1px;stroke-linecap:butt;stroke-linejoin:miter;stroke-opacity:1" d="M 331.562,618.761 347.086,618.761 z" id="boundary" inkscape:connector-curvature="0" />
	<path style="fill:none;stroke:red;stroke-width:1px;stroke-linecap:butt;stroke-linejoin:miter;stroke-opacity:1" d="M 347.086,618.761 361.058,610.998 z" id="boundary" inkscape:connector-curvature="0" />
	<path style="fill:none;stroke:red;stroke-width:1px;stroke-linecap:butt;stroke-linejoin:miter;stroke-opacity:1" d="M 361.058,610.998 375.03,603.236 z" id="boundary" inkscape:connector-curvature="0" />
	<path style="fill:none;stroke:red;stroke-width:1px;stroke-linecap:butt;stroke-linejoin:miter;stroke-opacity:1" d="M 375.03,603.236 389.002,595.474 z" id="boundary" inkscape:connector-curvature="0" />
	<path style="fill:none;stroke:red;stroke-width:1px;stroke-linecap:butt;stroke-linejoin:miter;stroke-opacity:1" d="M 389.002,595.474 402.973,587.712 z" id="boundary" inkscape:connector-curvature="0" />
	<path style="fill:none;stroke:red;stroke-width:1px;stroke-linecap:butt;stroke-linejoin:miter;stroke-opacity:1" d="M 402.973,587.712 416.945,579.95 z" id="boundary" inkscape:connector-curvature="0" />
	<path style="fill:none;stroke:red;stroke-width:1px;stroke-linecap:butt;stroke-linejoin:miter;stroke-opacity:1" d="M 416.945,579.95 432.469,572.188 z" id="boundary" inkscape:connector-curvature="0" />
	<path style="fill:none;stroke:red;stroke-width:1px;stroke-linecap:butt;stroke-linejoin:miter;stroke-opacity:1" d="M 432.469,572.188 446.441,564.426 z" id="boundary" inkscape:connector-curvature="0" />
	<path style="fill:none;stroke:red;stroke-width:1px;stroke-linecap:butt;stroke-linejoin:miter;stroke-opacity:1" d="M 446.441,564.426 460.413,556.664 z" id="boundary" inkscape:connector-curvature="0" />
	<path style="fill:none;stroke:red;stroke-width:1px;stroke-linecap:butt;stroke-linejoin:miter;stroke-opacity:1" d="M 460.413,556.664 455.756,541.139 z" id="boundary" inkscape:connector-curvature="0" />
	<path style="fill:none;stroke:red;stroke-width:1px;stroke-linecap:butt;stroke-linejoin:miter;stroke-opacity:1" d="M 455.756,541.139 469.728,533.377 z" id="boundary" inkscape:connector-curvature="0" />
	<path style="fill:none;stroke:red;stroke-width:1px;stroke-linecap:butt;stroke-linejoin:miter;stroke-opacity:1" d="M 469.728,533.377 483.7,525.615 z" id="boundary" inkscape:connector-curvature="0" />
	<path style="fill:none;stroke:red;stroke-width:1px;stroke-linecap:butt;stroke-linejoin:miter;stroke-opacity:1" d="M 483.7,525.615 497.671,516.3 z" id="boundary" inkscape:connector-curvature="0" />
	<path style="fill:none;stroke:red;stroke-width:1px;stroke-linecap:butt;stroke-linejoin:miter;stroke-opacity:1" d="M 497.671,516.3 513.196,508.538 z" id="boundary" inkscape:connector-curvature="0" />
	<path style="fill:none;stroke:red;stroke-width:1px;stroke-linecap:butt;stroke-linejoin:miter;stroke-opacity:1" d="M 513.196,508.538 525.615,494.567 z" id="boundary" inkscape:connector-curvature="0" />
	<path style="fill:none;stroke:red;stroke-width:1px;stroke-linecap:butt;stroke-linejoin:miter;stroke-opacity:1" d="M 525.615,494.567 541.139,486.804 z" id="boundary" inkscape:connector-curvature="0" />
	<path style="fill:none;stroke:red;stroke-width:1px;stroke-linecap:butt;stroke-linejoin:miter;stroke-opacity:1" d="M 541.139,486.804 555.111,479.042 z" id="boundary" inkscape:connector-curvature="0" />
	<path style="fill:none;stroke:red;stroke-width:1px;stroke-linecap:butt;stroke-linejoin:miter;stroke-opacity:1" d="M 555.111,479.042 556.664,463.518 z" id="boundary" inkscape:connector-curvature="0" />
	<path style="fill:none;stroke:red;stroke-width:1px;stroke-linecap:butt;stroke-linejoin:miter;stroke-opacity:1" d="M 556.664,463.518 569.083,452.651 z" id="boundary" inkscape:connector-curvature="0" />
	<path style="fill:none;stroke:red;stroke-width:1px;stroke-linecap:butt;stroke-linejoin:miter;stroke-opacity:1" d="M 569.083,452.651 578.397,440.232 z" id="boundary" inkscape:connector-curvature="0" />
	<path style="fill:none;stroke:red;stroke-width:1px;stroke-linecap:butt;stroke-linejoin:miter;stroke-opacity:1" d="M 578.397,440.232 593.922,435.574 z" id="boundary" inkscape:connector-curvature="0" />
	<path style="fill:none;stroke:red;stroke-width:1px;stroke-linecap:butt;stroke-linejoin:miter;stroke-opacity:1" d="M 593.922,435.574 593.922,458.861 z" id="boundary" inkscape:connector-curvature="0" />
	<path style="fill:none;stroke:red;stroke-width:1px;stroke-linecap:butt;stroke-linejoin:miter;stroke-opacity:1" d="M 593.922,458.861 593.922,474.385 z" id="boundary" inkscape:connector-curvature="0" />
	<path style="fill:none;stroke:red;stroke-width:1px;stroke-linecap:butt;stroke-linejoin:miter;stroke-opacity:1" d="M 593.922,474.385 603.236,486.804 z" id="boundary" inkscape:connector-curvature="0" />
	<path style="fill:none;stroke:red;stroke-width:1px;stroke-linecap:butt;stroke-linejoin:miter;stroke-opacity:1" d="M 603.236,486.804 618.761,486.804 z" id="boundary" inkscape:connector-curvature="0" />
	<path style="fill:none;stroke:red;stroke-width:1px;stroke-linecap:butt;stroke-linejoin:miter;stroke-opacity:1" d="M 618.761,486.804 634.285,479.042 z" id="boundary" inkscape:connector-curvature="0" />
	<path style="fill:none;stroke:red;stroke-width:1px;stroke-linecap:butt;stroke-linejoin:miter;stroke-opacity:1" d="M 634.285,479.042 646.704,468.175 z" id="boundary" inkscape:connector-curvature="0" />
	<path style="fill:none;stroke:red;stroke-width:1px;stroke-linecap:butt;stroke-linejoin:miter;stroke-opacity:1" d="M 646.704,468.175 657.571,455.756 z" id="boundary" inkscape:connector-curvature="0" />
	<path style="fill:none;stroke:red;stroke-width:1px;stroke-linecap:butt;stroke-linejoin:miter;stroke-opacity:1" d="M 657.571,455.756 669.991,444.889 z" id="boundary" inkscape:connector-curvature="0" />
	<path style="fill:none;stroke:red;stroke-width:1px;stroke-linecap:butt;stroke-linejoin:miter;stroke-opacity:1" d="M 669.991,444.889 680.858,424.707 z" id="boundary" inkscape:connector-curvature="0" />
	<path style="fill:none;stroke:red;stroke-width:1px;stroke-linecap:butt;stroke-linejoin:miter;stroke-opacity:1" d="M 680.858,424.707 694.829,416.945 z" id="boundary" inkscape:connector-curvature="0" />
	<path style="fill:none;stroke:red;stroke-width:1px;stroke-linecap:butt;stroke-linejoin:miter;stroke-opacity:1" d="M 694.829,416.945 710.354,412.288 z" id="boundary" inkscape:connector-curvature="0" />
	<path style="fill:none;stroke:red;stroke-width:1px;stroke-linecap:butt;stroke-linejoin:miter;stroke-opacity:1" d="M 710.354,412.288 719.668,393.659 z" id="boundary" inkscape:connector-curvature="0" />
	<path style="fill:none;stroke:red;stroke-width:1px;stroke-linecap:butt;stroke-linejoin:miter;stroke-opacity:1" d="M 719.668,393.659 735.192,393.659 z" id="boundary" inkscape:connector-curvature="0" />
	<path style="fill:none;stroke:red;stroke-width:1px;stroke-linecap:butt;stroke-linejoin:miter;stroke-opacity:1" d="M 735.192,393.659 749.164,385.897 z" id="boundary" inkscape:connector-curvature="0" />
	<path style="fill:none;stroke:red;stroke-width:1px;stroke-linecap:butt;stroke-linejoin:miter;stroke-opacity:1" d="M 749.164,385.897 764.689,385.897 z" id="boundary" inkscape:connector-curvature="0" />
	<path style="fill:none;stroke:red;stroke-width:1px;stroke-linecap:butt;stroke-linejoin:miter;stroke-opacity:1" d="M 764.689,385.897 780.213,385.897 z" id="boundary" inkscape:connector-curvature="0" />
	<path style="fill:none;stroke:red;stroke-width:1px;stroke-linecap:butt;stroke-linejoin:miter;stroke-opacity:1" d="M 780.213,385.897 795.737,385.897 z" id="boundary" inkscape:connector-curvature="0" />
	<path style="fill:none;stroke:red;stroke-width:1px;stroke-linecap:butt;stroke-linejoin:miter;stroke-opacity:1" d="M 795.737,385.897 811.261,385.897 z" id="boundary" inkscape:connector-curvature="0" />
	<path style="fill:none;stroke:red;stroke-width:1px;stroke-linecap:butt;stroke-linejoin:miter;stroke-opacity:1" d="M 811.261,385.897 826.786,385.897 z" id="boundary" inkscape:connector-curvature="0" />
	<path style="fill:none;stroke:red;stroke-width:1px;stroke-linecap:butt;stroke-linejoin:miter;stroke-opacity:1" d="M 826.786,385.897 842.31,385.897 z" id="boundary" inkscape:connector-curvature="0" />
	<path style="fill:none;stroke:red;stroke-width:1px;stroke-linecap:butt;stroke-linejoin:miter;stroke-opacity:1" d="M 842.31,385.897 857.834,385.897 z" id="boundary" inkscape:connector-curvature="0" />
	<path style="fill:none;stroke:red;stroke-width:1px;stroke-linecap:butt;stroke-linejoin:miter;stroke-opacity:1" d="M 857.834,385.897 873.358,385.897 z" id="boundary" inkscape:connector-curvature="0" />
	<path style="fill:none;stroke:red;stroke-width:1px;stroke-linecap:butt;stroke-linejoin:miter;stroke-opacity:1" d="M 873.358,385.897 888.883,385.897 z" id="boundary" inkscape:connector-curvature="0" />
	<path style="fill:none;stroke:red;stroke-width:1px;stroke-linecap:butt;stroke-linejoin:miter;stroke-opacity:1" d="M 888.883,385.897 904.407,385.897 z" id="boundary" inkscape:connector-curvature="0" />
	<path style="fill:none;stroke:red;stroke-width:1px;stroke-linecap:butt;stroke-linejoin:miter;stroke-opacity:1" d="M 904.407,385.897 919.931,385.897 z" id="boundary" inkscape:connector-curvature="0" />
	<path style="fill:none;stroke:red;stroke-width:1px;stroke-linecap:butt;stroke-linejoin:miter;stroke-opacity:1" d="M 919.931,385.897 935.455,385.897 z" id="boundary" inkscape:connector-curvature="0" />
	<path style="fill:none;stroke:red;stroke-width:1px;stroke-linecap:butt;stroke-linejoin:miter;stroke-opacity:1" d="M 935.455,385.897 950.98,385.897 z" id="boundary" inkscape:connector-curvature="0" />
	<path style="fill:none;stroke:red;stroke-width:1px;stroke-linecap:butt;stroke-linejoin:miter;stroke-opacity:1" d="M 950.98,385.897 966.504,385.897 z" id="boundary" inkscape:connector-curvature="0" />
	<path style="fill:none;stroke:red;stroke-width:1px;stroke-linecap:butt;stroke-linejoin:miter;stroke-opacity:1" d="M 966.504,385.897 982.028,385.897 z" id="boundary" inkscape:connector-curvature="0" />
	<path style="fill:none;stroke:red;stroke-width:1px;stroke-linecap:butt;stroke-linejoin:miter;stroke-opacity:1" d="M 982.028,385.897 996,378.135 z" id="boundary" inkscape:connector-curvature="0" />
	<path style="fill:none;stroke:red;stroke-width:1px;stroke-linecap:butt;stroke-linejoin:miter;stroke-opacity:1" d="M 996,378.135 991.343,361.058 z" id="boundary" inkscape:connector-curvature="0" />
	<path style="fill:none;stroke:red;stroke-width:1px;stroke-linecap:butt;stroke-linejoin:miter;stroke-opacity:1" d="M 991.343,361.058 977.371,353.296 z" id="boundary" inkscape:connector-curvature="0" />
	<path style="fill:none;stroke:red;stroke-width:1px;stroke-linecap:butt;stroke-linejoin:miter;stroke-opacity:1" d="M 977.371,353.296 963.399,345.534 z" id="boundary" inkscape:connector-curvature="0" />
	<path style="fill:none;stroke:red;stroke-width:1px;stroke-linecap:butt;stroke-linejoin:miter;stroke-opacity:1" d="M 963.399,345.534 947.875,345.534 z" id="boundary" inkscape:connector-curvature="0" />
	<path style="fill:none;stroke:red;stroke-width:1px;stroke-linecap:butt;stroke-linejoin:miter;stroke-opacity:1" d="M 947.875,345.534 933.903,337.772 z" id="boundary" inkscape:connector-curvature="0" />
	<path style="fill:none;stroke:red;stroke-width:1px;stroke-linecap:butt;stroke-linejoin:miter;stroke-opacity:1" d="M 933.903,337.772 918.379,337.772 z" id="boundary" inkscape:connector-curvature="0" />
	<path style="fill:none;stroke:red;stroke-width:1px;stroke-linecap:butt;stroke-linejoin:miter;stroke-opacity:1" d="M 918.379,337.772 902.854,337.772 z" id="boundary" inkscape:connector-curvature="0" />
	<path style="fill:none;stroke:red;stroke-width:1px;stroke-linecap:butt;stroke-linejoin:miter;stroke-opacity:1" d="M 902.854,337.772 888.883,330.009 z" id="boundary" inkscape:connector-curvature="0" />
	<path style="fill:none;stroke:red;stroke-width:1px;stroke-linecap:butt;stroke-linejoin:miter;stroke-opacity:1" d="M 888.883,330.009 873.358,330.009 z" id="boundary" inkscape:connector-curvature="0" />
	<path style="fill:none;stroke:red;stroke-width:1px;stroke-linecap:butt;stroke-linejoin:miter;stroke-opacity:1" d="M 873.358,330.009 859.387,322.247 z" id="boundary" inkscape:connector-curvature="0" />
	<path style="fill:none;stroke:red;stroke-width:1px;stroke-linecap:butt;stroke-linejoin:miter;stroke-opacity:1" d="M 859.387,322.247 843.862,322.247 z" id="boundary" inkscape:connector-curvature="0" />
	<path style="fill:none;stroke:red;stroke-width:1px;stroke-linecap:butt;stroke-linejoin:miter;stroke-opacity:1" d="M 843.862,322.247 828.338,322.247 z" id="boundary" inkscape:connector-curvature="0" />
	<path style="fill:none;stroke:red;stroke-width:1px;stroke-linecap:butt;stroke-linejoin:miter;stroke-opacity:1" d="M 828.338,322.247 812.814,319.142 z" id="boundary" inkscape:connector-curvature="0" />
	<path style="fill:none;stroke:red;stroke-width:1px;stroke-linecap:butt;stroke-linejoin:miter;stroke-opacity:1" d="M 812.814,319.142 797.29,314.485 z" id="boundary" inkscape:connector-curvature="0" />
	<path style="fill:none;stroke:red;stroke-width:1px;stroke-linecap:butt;stroke-linejoin:miter;stroke-opacity:1" d="M 797.29,314.485 781.765,314.485 z" id="boundary" inkscape:connector-curvature="0" />
	<path style="fill:none;stroke:red;stroke-width:1px;stroke-linecap:butt;stroke-linejoin:miter;stroke-opacity:1" d="M 781.765,314.485 766.241,311.38 z" id="boundary" inkscape:connector-curvature="0" />
	<path style="fill:none;stroke:red;stroke-width:1px;stroke-linecap:butt;stroke-linejoin:miter;stroke-opacity:1" d="M 766.241,311.38 755.374,298.961 z" id="boundary" inkscape:connector-curvature="0" />
	<path style="fill:none;stroke:red;stroke-width:1px;stroke-linecap:butt;stroke-linejoin:miter;stroke-opacity:1" d="M 755.374,298.961 739.85,292.751 z" id="boundary" inkscape:connector-curvature="0" />
	<path style="fill:none;stroke:red;stroke-width:1px;stroke-linecap:butt;stroke-linejoin:miter;stroke-opacity:1" d="M 739.85,292.751 727.43,283.437 z" id="boundary" inkscape:connector-curvature="0" />
	<path style="fill:none;stroke:red;stroke-width:1px;stroke-linecap:butt;stroke-linejoin:miter;stroke-opacity:1" d="M 727.43,283.437 721.221,267.912 z" id="boundary" inkscape:connector-curvature="0" />
	<path style="fill:none;stroke:red;stroke-width:1px;stroke-linecap:butt;stroke-linejoin:miter;stroke-opacity:1" d="M 721.221,267.912 707.249,260.15 z" id="boundary" inkscape:connector-curvature="0" />
	<path style="fill:none;stroke:red;stroke-width:1px;stroke-linecap:butt;stroke-linejoin:miter;stroke-opacity:1" d="M 707.249,260.15 699.487,246.178 z" id="boundary" inkscape:connector-curvature="0" />
	<path style="fill:none;stroke:red;stroke-width:1px;stroke-linecap:butt;stroke-linejoin:miter;stroke-opacity:1" d="M 699.487,246.178 688.62,233.759 z" id="boundary" inkscape:connector-curvature="0" />
	<path style="fill:none;stroke:red;stroke-width:1px;stroke-linecap:butt;stroke-linejoin:miter;stroke-opacity:1" d="M 688.62,233.759 680.858,219.787 z" id="boundary" inkscape:connector-curvature="0" />
	<path style="fill:none;stroke:red;stroke-width:1px;stroke-linecap:butt;stroke-linejoin:miter;stroke-opacity:1" d="M 680.858,219.787 669.991,207.368 z" id="boundary" inkscape:connector-curvature="0" />
	<path style="fill:none;stroke:red;stroke-width:1px;stroke-linecap:butt;stroke-linejoin:miter;stroke-opacity:1" d="M 669.991,207.368 662.228,193.396 z" id="boundary" inkscape:connector-curvature="0" />
	<path style="fill:none;stroke:red;stroke-width:1px;stroke-linecap:butt;stroke-linejoin:miter;stroke-opacity:1" d="M 662.228,193.396 656.019,177.872 z" id="boundary" inkscape:connector-curvature="0" />
	<path style="fill:none;stroke:red;stroke-width:1px;stroke-linecap:butt;stroke-linejoin:miter;stroke-opacity:1" d="M 656.019,177.872 640.495,174.767 z" id="boundary" inkscape:connector-curvature="0" />
	<path style="fill:none;stroke:red;stroke-width:1px;stroke-linecap:butt;stroke-linejoin:miter;stroke-opacity:1" d="M 640.495,174.767 624.97,174.767 z" id="boundary" inkscape:connector-curvature="0" />
	<path style="fill:none;stroke:red;stroke-width:1px;stroke-linecap:butt;stroke-linejoin:miter;stroke-opacity:1" d="M 624.97,174.767 609.446,179.424 z" id="boundary" inkscape:connector-curvature="0" />
	<path style="fill:none;stroke:red;stroke-width:1px;stroke-linecap:butt;stroke-linejoin:miter;stroke-opacity:1" d="M 609.446,179.424 609.446,194.948 z" id="boundary" inkscape:connector-curvature="0" />
	<path style="fill:none;stroke:red;stroke-width:1px;stroke-linecap:butt;stroke-linejoin:miter;stroke-opacity:1" d="M 609.446,194.948 609.446,210.473 z" id="boundary" inkscape:connector-curvature="0" />
	<path style="fill:none;stroke:red;stroke-width:1px;stroke-linecap:butt;stroke-linejoin:miter;stroke-opacity:1" d="M 609.446,210.473 609.446,225.997 z" id="boundary" inkscape:connector-curvature="0" />
	<path style="fill:none;stroke:red;stroke-width:1px;stroke-linecap:butt;stroke-linejoin:miter;stroke-opacity:1" d="M 609.446,225.997 592.369,230.654 z" id="boundary" inkscape:connector-curvature="0" />
	<path style="fill:none;stroke:red;stroke-width:1px;stroke-linecap:butt;stroke-linejoin:miter;stroke-opacity:1" d="M 592.369,230.654 579.95,221.34 z" id="boundary" inkscape:connector-curvature="0" />
	<path style="fill:none;stroke:red;stroke-width:1px;stroke-linecap:butt;stroke-linejoin:miter;stroke-opacity:1" d="M 579.95,221.34 575.293,205.815 z" id="boundary" inkscape:connector-curvature="0" />
	<path style="fill:none;stroke:red;stroke-width:1px;stroke-linecap:butt;stroke-linejoin:miter;stroke-opacity:1" d="M 575.293,205.815 562.873,194.948 z" id="boundary" inkscape:connector-curvature="0" />
	<path style="fill:none;stroke:red;stroke-width:1px;stroke-linecap:butt;stroke-linejoin:miter;stroke-opacity:1" d="M 562.873,194.948 552.006,182.529 z" id="boundary" inkscape:connector-curvature="0" />
	<path style="fill:none;stroke:red;stroke-width:1px;stroke-linecap:butt;stroke-linejoin:miter;stroke-opacity:1" d="M 552.006,182.529 538.034,174.767 z" id="boundary" inkscape:connector-curvature="0" />
	<path style="fill:none;stroke:red;stroke-width:1px;stroke-linecap:butt;stroke-linejoin:miter;stroke-opacity:1" d="M 538.034,174.767 525.615,165.452 z" id="boundary" inkscape:connector-curvature="0" />
	<path style="fill:none;stroke:red;stroke-width:1px;stroke-linecap:butt;stroke-linejoin:miter;stroke-opacity:1" d="M 525.615,165.452 514.748,153.033 z" id="boundary" inkscape:connector-curvature="0" />
	<path style="fill:none;stroke:red;stroke-width:1px;stroke-linecap:butt;stroke-linejoin:miter;stroke-opacity:1" d="M 514.748,153.033 502.329,143.718 z" id="boundary" inkscape:connector-curvature="0" />
	<path style="fill:none;stroke:red;stroke-width:1px;stroke-linecap:butt;stroke-linejoin:miter;stroke-opacity:1" d="M 502.329,143.718 491.462,131.299 z" id="boundary" inkscape:connector-curvature="0" />
	<path style="fill:none;stroke:red;stroke-width:1px;stroke-linecap:butt;stroke-linejoin:miter;stroke-opacity:1" d="M 491.462,131.299 479.042,121.984 z" id="boundary" inkscape:connector-curvature="0" />
	<path style="fill:none;stroke:red;stroke-width:1px;stroke-linecap:butt;stroke-linejoin:miter;stroke-opacity:1" d="M 479.042,121.984 474.385,97.1455 z" id="boundary" inkscape:connector-curvature="0" />
	<path style="fill:none;stroke:red;stroke-width:1px;stroke-linecap:butt;stroke-linejoin:miter;stroke-opacity:1" d="M 474.385,97.1455 458.861,90.9358 z" id="boundary" inkscape:connector-curvature="0" />
	<path style="fill:none;stroke:red;stroke-width:1px;stroke-linecap:butt;stroke-linejoin:miter;stroke-opacity:1" d="M 458.861,90.9358 447.994,78.5164 z" id="boundary" inkscape:connector-curvature="0" />
	<path style="fill:none;stroke:red;stroke-width:1px;stroke-linecap:butt;stroke-linejoin:miter;stroke-opacity:1" d="M 447.994,78.5164 435.574,67.6495 z" id="boundary" inkscape:connector-curvature="0" />
	<path style="fill:none;stroke:red;stroke-width:1px;stroke-linecap:butt;stroke-linejoin:miter;stroke-opacity:1" d="M 435.574,67.6495 421.603,59.8873 z" id="boundary" inkscape:connector-curvature="0" />
	<path style="fill:none;stroke:red;stroke-width:1px;stroke-linecap:butt;stroke-linejoin:miter;stroke-opacity:1" d="M 421.603,59.8873 409.183,50.5728 z" id="boundary" inkscape:connector-curvature="0" />
	<path style="fill:none;stroke:red;stroke-width:1px;stroke-linecap:butt;stroke-linejoin:miter;stroke-opacity:1" d="M 409.183,50.5728 399.869,38.1534 z" id="boundary" inkscape:connector-curvature="0" />
	<path style="fill:none;stroke:red;stroke-width:1px;stroke-linecap:butt;stroke-linejoin:miter;stroke-opacity:1" d="M 399.869,38.1534 384.344,31.9437 z" id="boundary" inkscape:connector-curvature="0" />
	<path style="fill:none;stroke:red;stroke-width:1px;stroke-linecap:butt;stroke-linejoin:miter;stroke-opacity:1" d="M 384.344,31.9437 370.372,24.1815 z" id="boundary" inkscape:connector-curvature="0" />
	<path style="fill:none;stroke:red;stroke-width:1px;stroke-linecap:butt;stroke-linejoin:miter;stroke-opacity:1" d="M 370.372,24.1815 357.953,13.3146 z" id="boundary" inkscape:connector-curvature="0" />
	<path style="fill:none;stroke:red;stroke-width:1px;stroke-linecap:butt;stroke-linejoin:miter;stroke-opacity:1" d="M 357.953,13.3146 345.534,4 z" id="boundary" inkscape:connector-curvature="0" />
	<path style="fill:none;stroke:red;stroke-width:1px;stroke-linecap:butt;stroke-linejoin:miter;stroke-opacity:1" d="M 345.534,4 330.009,4 z" id="boundary" inkscape:connector-curvature="0" />
	<path style="fill:none;stroke:red;stroke-width:1px;stroke-linecap:butt;stroke-linejoin:miter;stroke-opacity:1" d="M 330.009,4 314.485,4 z" id="boundary" inkscape:connector-curvature="0" />
	<path style="fill:none;stroke:red;stroke-width:1px;stroke-linecap:butt;stroke-linejoin:miter;stroke-opacity:1" d="M 314.485,4 298.961,4 z" id="boundary" inkscape:connector-curvature="0" />
	<path style="fill:none;stroke:red;stroke-width:1px;stroke-linecap:butt;stroke-linejoin:miter;stroke-opacity:1" d="M 298.961,4 283.437,8.65728 z" id="boundary" inkscape:connector-curvature="0" />
	<path style="fill:none;stroke:red;stroke-width:1px;stroke-linecap:butt;stroke-linejoin:miter;stroke-opacity:1" d="M 283.437,8.65728 283.437,24.1815 z" id="boundary" inkscape:connector-curvature="0" />
	<path style="fill:none;stroke:red;stroke-width:1px;stroke-linecap:butt;stroke-linejoin:miter;stroke-opacity:1" d="M 283.437,24.1815 291.199,38.1534 z" id="boundary" inkscape:connector-curvature="0" />
	<path style="fill:none;stroke:red;stroke-width:1px;stroke-linecap:butt;stroke-linejoin:miter;stroke-opacity:1" d="M 291.199,38.1534 291.199,53.6776 z" id="boundary" inkscape:connector-curvature="0" />
	<path style="fill:none;stroke:red;stroke-width:1px;stroke-linecap:butt;stroke-linejoin:miter;stroke-opacity:1" d="M 291.199,53.6776 291.199,69.2019 z" id="boundary" inkscape:connector-curvature="0" />
	<path style="fill:none;stroke:red;stroke-width:1px;stroke-linecap:butt;stroke-linejoin:miter;stroke-opacity:1" d="M 291.199,69.2019 298.961,83.1737 z" id="boundary" inkscape:connector-curvature="0" />
	<path style="fill:none;stroke:red;stroke-width:1px;stroke-linecap:butt;stroke-linejoin:miter;stroke-opacity:1" d="M 298.961,83.1737 298.961,98.698 z" id="boundary" inkscape:connector-curvature="0" />
	<path style="fill:none;stroke:red;stroke-width:1px;stroke-linecap:butt;stroke-linejoin:miter;stroke-opacity:1" d="M 298.961,98.698 298.961,114.222 z" id="boundary" inkscape:connector-curvature="0" />
	<path style="fill:none;stroke:red;stroke-width:1px;stroke-linecap:butt;stroke-linejoin:miter;stroke-opacity:1" d="M 298.961,114.222 303.618,129.746 z" id="boundary" inkscape:connector-curvature="0" />
	<path style="fill:none;stroke:red;stroke-width:1px;stroke-linecap:butt;stroke-linejoin:miter;stroke-opacity:1" d="M 303.618,129.746 306.723,145.271 z" id="boundary" inkscape:connector-curvature="0" />
	<path style="fill:none;stroke:red;stroke-width:1px;stroke-linecap:butt;stroke-linejoin:miter;stroke-opacity:1" d="M 306.723,145.271 311.38,160.795 z" id="boundary" inkscape:connector-curvature="0" />
	<path style="fill:none;stroke:red;stroke-width:1px;stroke-linecap:butt;stroke-linejoin:miter;stroke-opacity:1" d="M 311.38,160.795 314.485,176.319 z" id="boundary" inkscape:connector-curvature="0" />
	<path style="fill:none;stroke:red;stroke-width:1px;stroke-linecap:butt;stroke-linejoin:miter;stroke-opacity:1" d="M 314.485,176.319 314.485,191.844 z" id="boundary" inkscape:connector-curvature="0" />
	<path style="fill:none;stroke:red;stroke-width:1px;stroke-linecap:butt;stroke-linejoin:miter;stroke-opacity:1" d="M 314.485,191.844 319.142,207.368 z" id="boundary" inkscape:connector-curvature="0" />
	<path style="fill:none;stroke:red;stroke-width:1px;stroke-linecap:butt;stroke-linejoin:miter;stroke-opacity:1" d="M 319.142,207.368 322.247,222.892 z" id="boundary" inkscape:connector-curvature="0" />
	<path style="fill:none;stroke:red;stroke-width:1px;stroke-linecap:butt;stroke-linejoin:miter;stroke-opacity:1" d="M 322.247,222.892 320.695,252.388 z" id="boundary" inkscape:connector-curvature="0" />
	<circle cx="4" cy="272.57" r="4" fill="#0" id="circle0"/>
	<circle cx="4" cy="288.094" r="4" fill="#0" id="circle1"/>
	<circle cx="11.7621" cy="420.05" r="4" fill="#0" id="circle2"/>
	<circle cx="16.4194" cy="260.15" r="4" fill="#0" id="circle3"/>
	<circle cx="19.5243" cy="292.751" r="4" fill="#0" id="circle4"/>
	<circle cx="19.5243" cy="357.953" r="4" fill="#0" id="circle5"/>
	<circle cx="19.5243" cy="373.477" r="4" fill="#0" id="circle6"/>
	<circle cx="19.5243" cy="389.002" r="4" fill="#0" id="circle7"/>
	<circle cx="19.5243" cy="404.526" r="4" fill="#0" id="circle8"/>
	<circle cx="24.1815" cy="244.626" r="4" fill="#0" id="circle9"/>
	<circle cx="24.1815" cy="430.917" r="4" fill="#0" id="circle10"/>
	<circle cx="27.2864" cy="171.662" r="4" fill="#0" id="circle11"/>
	<circle cx="27.2864" cy="225.997" r="4" fill="#0" id="circle12"/>
	<circle cx="27.2864" cy="306.723" r="4" fill="#0" id="circle13"/>
	<circle cx="27.2864" cy="322.247" r="4" fill="#0" id="circle14"/>
	<circle cx="27.2864" cy="337.772" r="4" fill="#0" id="circle15"/>
	<circle cx="35.0485" cy="185.634" r="4" fill="#0" id="circle16"/>
	<circle cx="35.0485" cy="201.158" r="4" fill="#0" id="circle17"/>
	<circle cx="39.7058" cy="430.917" r="4" fill="#0" id="circle18"/>
	<circle cx="42.8106" cy="167.005" r="4" fill="#0" id="circle19"/>
	<circle cx="52.1252" cy="416.945" r="4" fill="#0" id="circle20"/>
	<circle cx="58.3349" cy="170.11" r="4" fill="#0" id="circle21"/>
	<circle cx="67.6495" cy="409.183" r="4" fill="#0" id="circle22"/>
	<circle cx="72.3067" cy="177.872" r="4" fill="#0" id="circle23"/>
	<circle cx="80.0689" cy="398.316" r="4" fill="#0" id="circle24"/>
	<circle cx="83.1737" cy="190.291" r="4" fill="#0" id="circle25"/>
	<circle cx="90.9358" cy="385.897" r="4" fill="#0" id="circle26"/>
	<circle cx="95.5931" cy="199.606" r="4" fill="#0" id="circle27"/>
	<circle cx="104.908" cy="378.135" r="4" fill="#0" id="circle28"/>
	<circle cx="109.565" cy="207.368" r="4" fill="#0" id="circle29"/>
	<circle cx="117.327" cy="368.82" r="4" fill="#0" id="circle30"/>
	<circle cx="121.984" cy="218.235" r="4" fill="#0" id="circle31"/>
	<circle cx="125.089" cy="354.848" r="4" fill="#0" id="circle32"/>
	<circle cx="132.851" cy="230.654" r="4" fill="#0" id="circle33"/>
	<circle cx="139.061" cy="347.086" r="4" fill="#0" id="circle34"/>
	<circle cx="145.271" cy="241.521" r="4" fill="#0" id="circle35"/>
	<circle cx="151.48" cy="334.667" r="4" fill="#0" id="circle36"/>
	<circle cx="156.138" cy="253.941" r="4" fill="#0" id="circle37"/>
	<circle cx="163.9" cy="323.8" r="4" fill="#0" id="circle38"/>
	<circle cx="168.557" cy="264.808" r="4" fill="#0" id="circle39"/>
	<circle cx="179.424" cy="323.8" r="4" fill="#0" id="circle40"/>
	<circle cx="184.081" cy="267.912" r="4" fill="#0" id="circle41"/>
	<circle cx="193.396" cy="331.562" r="4" fill="#0" id="circle42"/>
	<circle cx="199.606" cy="267.912" r="4" fill="#0" id="circle43"/>
	<circle cx="208.92" cy="336.219" r="4" fill="#0" id="circle44"/>
	<circle cx="213.577" cy="351.743" r="4" fill="#0" id="circle45"/>
	<circle cx="215.13" cy="267.912" r="4" fill="#0" id="circle46"/>
	<circle cx="221.34" cy="365.715" r="4" fill="#0" id="circle47"/>
	<circle cx="229.102" cy="260.15" r="4" fill="#0" id="circle48"/>
	<circle cx="236.864" cy="370.372" r="4" fill="#0" id="circle49"/>
	<circle cx="243.074" cy="252.388" r="4" fill="#0" id="circle50"/>
	<circle cx="244.626" cy="614.103" r="4" fill="#0" id="circle51"/>
	<circle cx="252.388" cy="373.477" r="4" fill="#0" id="circle52"/>
	<circle cx="252.388" cy="583.055" r="4" fill="#0" id="circle53"/>
	<circle cx="252.388" cy="598.579" r="4" fill="#0" id="circle54"/>
	<circle cx="253.941" cy="626.523" r="4" fill="#0" id="circle55"/>
	<circle cx="258.598" cy="252.388" r="4" fill="#0" id="circle56"/>
	<circle cx="260.15" cy="559.768" r="4" fill="#0" id="circle57"/>
	<circle cx="267.912" cy="370.372" r="4" fill="#0" id="circle58"/>
	<circle cx="267.912" cy="528.72" r="4" fill="#0" id="circle59"/>
	<circle cx="267.912" cy="544.244" r="4" fill="#0" id="circle60"/>
	<circle cx="269.465" cy="626.523" r="4" fill="#0" id="circle61"/>
	<circle cx="274.122" cy="252.388" r="4" fill="#0" id="circle62"/>
	<circle cx="280.332" cy="516.3" r="4" fill="#0" id="circle63"/>
	<circle cx="283.437" cy="8.65728" r="4" fill="#0" id="circle64"/>
	<circle cx="283.437" cy="24.1815" r="4" fill="#0" id="circle65"/>
	<circle cx="283.437" cy="370.372" r="4" fill="#0" id="circle66"/>
	<circle cx="283.437" cy="489.909" r="4" fill="#0" id="circle67"/>
	<circle cx="284.989" cy="626.523" r="4" fill="#0" id="circle68"/>
	<circle cx="289.646" cy="252.388" r="4" fill="#0" id="circle69"/>
	<circle cx="291.199" cy="38.1534" r="4" fill="#0" id="circle70"/>
	<circle cx="291.199" cy="53.6776" r="4" fill="#0" id="circle71"/>
	<circle cx="291.199" cy="69.2019" r="4" fill="#0" id="circle72"/>
	<circle cx="291.199" cy="466.623" r="4" fill="#0" id="circle73"/>
	<circle cx="297.408" cy="378.135" r="4" fill="#0" id="circle74"/>
	<circle cx="298.961" cy="4" r="4" fill="#0" id="circle75"/>
	<circle cx="298.961" cy="83.1737" r="4" fill="#0" id="circle76"/>
	<circle cx="298.961" cy="98.698" r="4" fill="#0" id="circle77"/>
	<circle cx="298.961" cy="114.222" r="4" fill="#0" id="circle78"/>
	<circle cx="298.961" cy="443.336" r="4" fill="#0" id="circle79"/>
	<circle cx="300.513" cy="626.523" r="4" fill="#0" id="circle80"/>
	<circle cx="303.618" cy="129.746" r="4" fill="#0" id="circle81"/>
	<circle cx="305.171" cy="252.388" r="4" fill="#0" id="circle82"/>
	<circle cx="306.723" cy="145.271" r="4" fill="#0" id="circle83"/>
	<circle cx="306.723" cy="420.05" r="4" fill="#0" id="circle84"/>
	<circle cx="311.38" cy="160.795" r="4" fill="#0" id="circle85"/>
	<circle cx="312.933" cy="378.135" r="4" fill="#0" id="circle86"/>
	<circle cx="314.485" cy="4" r="4" fill="#0" id="circle87"/>
	<circle cx="314.485" cy="176.319" r="4" fill="#0" id="circle88"/>
	<circle cx="314.485" cy="191.844" r="4" fill="#0" id="circle89"/>
	<circle cx="314.485" cy="404.526" r="4" fill="#0" id="circle90"/>
	<circle cx="316.038" cy="626.523" r="4" fill="#0" id="circle91"/>
	<circle cx="319.142" cy="207.368" r="4" fill="#0" id="circle92"/>
	<circle cx="320.695" cy="252.388" r="4" fill="#0" id="circle93"/>
	<circle cx="322.247" cy="222.892" r="4" fill="#0" id="circle94"/>
	<circle cx="322.247" cy="390.554" r="4" fill="#0" id="circle95"/>
	<circle cx="330.009" cy="4" r="4" fill="#0" id="circle96"/>
	<circle cx="331.562" cy="618.761" r="4" fill="#0" id="circle97"/>
	<circle cx="345.534" cy="4" r="4" fill="#0" id="circle98"/>
	<circle cx="347.086" cy="618.761" r="4" fill="#0" id="circle99"/>
	<circle cx="357.953" cy="13.3146" r="4" fill="#0" id="circle100"/>
	<circle cx="361.058" cy="610.998" r="4" fill="#0" id="circle101"/>
	<circle cx="370.372" cy="24.1815" r="4" fill="#0" id="circle102"/>
	<circle cx="375.03" cy="603.236" r="4" fill="#0" id="circle103"/>
	<circle cx="384.344" cy="31.9437" r="4" fill="#0" id="circle104"/>
	<circle cx="389.002" cy="595.474" r="4" fill="#0" id="circle105"/>
	<circle cx="399.869" cy="38.1534" r="4" fill="#0" id="circle106"/>
	<circle cx="402.973" cy="587.712" r="4" fill="#0" id="circle107"/>
	<circle cx="409.183" cy="50.5728" r="4" fill="#0" id="circle108"/>
	<circle cx="416.945" cy="579.95" r="4" fill="#0" id="circle109"/>
	<circle cx="421.603" cy="59.8873" r="4" fill="#0" id="circle110"/>
	<circle cx="432.469" cy="572.188" r="4" fill="#0" id="circle111"/>
	<circle cx="435.574" cy="67.6495" r="4" fill="#0" id="circle112"/>
	<circle cx="446.441" cy="564.426" r="4" fill="#0" id="circle113"/>
	<circle cx="447.994" cy="78.5164" r="4" fill="#0" id="circle114"/>
	<circle cx="455.756" cy="541.139" r="4" fill="#0" id="circle115"/>
	<circle cx="458.861" cy="90.9358" r="4" fill="#0" id="circle116"/>
	<circle cx="460.413" cy="556.664" r="4" fill="#0" id="circle117"/>
	<circle cx="469.728" cy="533.377" r="4" fill="#0" id="circle118"/>
	<circle cx="474.385" cy="97.1455" r="4" fill="#0" id="circle119"/>
	<circle cx="479.042" cy="121.984" r="4" fill="#0" id="circle120"/>
	<circle cx="483.7" cy="525.615" r="4" fill="#0" id="circle121"/>
	<circle cx="491.462" cy="131.299" r="4" fill="#0" id="circle122"/>
	<circle cx="497.671" cy="516.3" r="4" fill="#0" id="circle123"/>
	<circle cx="502.329" cy="143.718" r="4" fill="#0" id="circle124"/>
	<circle cx="513.196" cy="508.538" r="4" fill="#0" id="circle125"/>
	<circle cx="514.748" cy="153.033" r="4" fill="#0" id="circle126"/>
	<circle cx="525.615" cy="165.452" r="4" fill="#0" id="circle127"/>
	<circle cx="525.615" cy="494.567" r="4" fill="#0" id="circle128"/>
	<circle cx="538.034" cy="174.767" r="4" fill="#0" id="circle129"/>
	<circle cx="541.139" cy="486.804" r="4" fill="#0" id="circle130"/>
	<circle cx="552.006" cy="182.529" r="4" fill="#0" id="circle131"/>
	<circle cx="555.111" cy="479.042" r="4" fill="#0" id="circle132"/>
	<circle cx="556.664" cy="463.518" r="4" fill="#0" id="circle133"/>
	<circle cx="562.873" cy="194.948" r="4" fill="#0" id="circle134"/>
	<circle cx="569.083" cy="452.651" r="4" fill="#0" id="circle135"/>
	<circle cx="575.293" cy="205.815" r="4" fill="#0" id="circle136"/>
	<circle cx="578.397" cy="440.232" r="4" fill="#0" id="circle137"/>
	<circle cx="579.95" cy="221.34" r="4" fill="#0" id="circle138"/>
	<circle cx="592.369" cy="230.654" r="4" fill="#0" id="circle139"/>
	<circle cx="593.922" cy="435.574" r="4" fill="#0" id="circle140"/>
	<circle cx="593.922" cy="458.861" r="4" fill="#0" id="circle141"/>
	<circle cx="593.922" cy="474.385" r="4" fill="#0" id="circle142"/>
	<circle cx="603.236" cy="243.074" r="4" fill="#0" id="circle143"/>
	<circle cx="603.236" cy="486.804" r="4" fill="#0" id="circle144"/>
	<circle cx="609.446" cy="179.424" r="4" fill="#0" id="circle145"/>
	<circle cx="609.446" cy="194.948" r="4" fill="#0" id="circle146"/>
	<circle cx="609.446" cy="210.473" r="4" fill="#0" id="circle147"/>
	<circle cx="609.446" cy="225.997" r="4" fill="#0" id="circle148"/>
	<circle cx="618.761" cy="486.804" r="4" fill="#0" id="circle149"/>
	<circle cx="624.97" cy="174.767" r="4" fill="#0" id="circle150"/>
	<circle cx="634.285" cy="479.042" r="4" fill="#0" id="circle151"/>
	<circle cx="640.495" cy="174.767" r="4" fill="#0" id="circle152"/>
	<circle cx="646.704" cy="468.175" r="4" fill="#0" id="circle153"/>
	<circle cx="656.019" cy="177.872" r="4" fill="#0" id="circle154"/>
	<circle cx="657.571" cy="455.756" r="4" fill="#0" id="circle155"/>
	<circle cx="662.228" cy="193.396" r="4" fill="#0" id="circle156"/>
	<circle cx="669.991" cy="207.368" r="4" fill="#0" id="circle157"/>
	<circle cx="669.991" cy="444.889" r="4" fill="#0" id="circle158"/>
	<circle cx="680.858" cy="219.787" r="4" fill="#0" id="circle159"/>
	<circle cx="680.858" cy="424.707" r="4" fill="#0" id="circle160"/>
	<circle cx="688.62" cy="233.759" r="4" fill="#0" id="circle161"/>
	<circle cx="694.829" cy="416.945" r="4" fill="#0" id="circle162"/>
	<circle cx="699.487" cy="246.178" r="4" fill="#0" id="circle163"/>
	<circle cx="707.249" cy="260.15" r="4" fill="#0" id="circle164"/>
	<circle cx="710.354" cy="412.288" r="4" fill="#0" id="circle165"/>
	<circle cx="719.668" cy="393.659" r="4" fill="#0" id="circle166"/>
	<circle cx="721.221" cy="267.912" r="4" fill="#0" id="circle167"/>
	<circle cx="727.43" cy="283.437" r="4" fill="#0" id="circle168"/>
	<circle cx="735.192" cy="393.659" r="4" fill="#0" id="circle169"/>
	<circle cx="739.85" cy="292.751" r="4" fill="#0" id="circle170"/>
	<circle cx="749.164" cy="385.897" r="4" fill="#0" id="circle171"/>
	<circle cx="755.374" cy="298.961" r="4" fill="#0" id="circle172"/>
	<circle cx="764.689" cy="385.897" r="4" fill="#0" id="circle173"/>
	<circle cx="766.241" cy="311.38" r="4" fill="#0" id="circle174"/>
	<circle cx="780.213" cy="385.897" r="4" fill="#0" id="circle175"/>
	<circle cx="781.765" cy="314.485" r="4" fill="#0" id="circle176"/>
	<circle cx="795.737" cy="385.897" r="4" fill="#0" id="circle177"/>
	<circle cx="797.29" cy="314.485" r="4" fill="#0" id="circle178"/>
	<circle cx="811.261" cy="385.897" r="4" fill="#0" id="circle179"/>
	<circle cx="812.814" cy="319.142" r="4" fill="#0" id="circle180"/>
	<circle cx="826.786" cy="385.897" r="4" fill="#0" id="circle181"/>
	<circle cx="828.338" cy="322.247" r="4" fill="#0" id="circle182"/>
	<circle cx="842.31" cy="385.897" r="4" fill="#0" id="circle183"/>
	<circle cx="843.862" cy="322.247" r="4" fill="#0" id="circle184"/>
	<circle cx="857.834" cy="385.897" r="4" fill="#0" id="circle185"/>
	<circle cx="859.387" cy="322.247" r="4" fill="#0" id="circle186"/>
	<circle cx="873.358" cy="330.009" r="4" fill="#0" id="circle187"/>
	<circle cx="873.358" cy="385.897" r="4" fill="#0" id="circle188"/>
	<circle cx="888.883" cy="330.009" r="4" fill="#0" id="circle189"/>
	<circle cx="888.883" cy="385.897" r="4" fill="#0" id="circle190"/>
	<circle cx="902.854" cy="337.772" r="4" fill="#0" id="circle191"/>
	<circle cx="904.407" cy="385.897" r="4" fill="#0" id="circle192"/>
	<circle cx="918.379" cy="337.772" r="4" fill="#0" id="circle193"/>
	<circle cx="919.931" cy="385.897" r="4" fill="#0" id="circle194"/>
	<circle cx="933.903" cy="337.772" r="4" fill="#0" id="circle195"/>
	<circle cx="935.455" cy="385.897" r="4" fill="#0" id="circle196"/>
	<circle cx="947.875" cy="345.534" r="4" fill="#0" id="circle197"/>
	<circle cx="950.98" cy="385.897" r="4" fill="#0" id="circle198"/>
	<circle cx="963.399" cy="345.534" r="4" fill="#0" id="circle199"/>
	<circle cx="966.504" cy="385.897" r="4" fill="#0" id="circle200"/>
	<circle cx="977.371" cy="353.296" r="4" fill="#0" id="circle201"/>
	<circle cx="982.028" cy="385.897" r="4" fill="#0" id="circle202"/>
	<circle cx="991.343" cy="361.058" r="4" fill="#0" id="circle203"/>
	<circle cx="996" cy="378.135" r="4" fill="#0" id="circle204"/>
	</g>
</svg>