<?xml version="1.0" encoding="UTF-8" standalone="no"?>
<!-- Created with CurveBenchmark -->
<svg
	xmlns:dc="http://purl.org/dc/elements/1.1/"
	xmlns:cc="http://creativecommons.org/ns#"
	xmlns:rdf="http://www.w3.org/1999/02/22-rdf-syntax-ns#"
	xmlns:svg="http://www.w3.org/2000/svg"
	xmlns="http://www.w3.org/2000/svg"
	xmlns:sodipodi="http://sodipodi.sourceforge.net/DTD/sodipodi-0.dtd"
	xmlns:inkscape="http://www.inkscape.org/namespaces/inkscape"
	width="1000"
	height="1000"
	id="svg2"
	version="1.1"
	sodipodi:docname="manifold/crawl-flatfish04.png.txt">
<defs
	id="defs4" />
<metadata
	id="metadata7">
	<rdf:RDF>
		<cc:Work
			rdf:about="">
			<dc:format>image/svg+xml</dc:format>
			<dc:type
				rdf:resource="http://purl.org/dc/dcmitype/StillImage" />
			<dc:title></dc:title>
		</cc:Work>
	</rdf:RDF>
</metadata>
<g
	inkscape:label="Layer 1"
	inkscape:groupmode="layer"
	id="layer1">
	<path style="fill:none;stroke:red;stroke-width:1px;stroke-linecap:butt;stroke-linejoin:miter;stroke-opacity:1" d="M 4,200.626 4,215.41 z" id="boundary" inkscape:connector-curvature="0" />
	<path style="fill:none;stroke:red;stroke-width:1px;stroke-linecap:butt;stroke-linejoin:miter;stroke-opacity:1" d="M 4,215.41 4,230.194 z" id="boundary" inkscape:connector-curvature="0" />
	<path style="fill:none;stroke:red;stroke-width:1px;stroke-linecap:butt;stroke-linejoin:miter;stroke-opacity:1" d="M 4,230.194 11.392,243.499 z" id="boundary" inkscape:connector-curvature="0" />
	<path style="fill:none;stroke:red;stroke-width:1px;stroke-linecap:butt;stroke-linejoin:miter;stroke-opacity:1" d="M 11.392,243.499 21.7407,255.326 z" id="boundary" inkscape:connector-curvature="0" />
	<path style="fill:none;stroke:red;stroke-width:1px;stroke-linecap:butt;stroke-linejoin:miter;stroke-opacity:1" d="M 21.7407,255.326 33.5678,264.197 z" id="boundary" inkscape:connector-curvature="0" />
	<path style="fill:none;stroke:red;stroke-width:1px;stroke-linecap:butt;stroke-linejoin:miter;stroke-opacity:1" d="M 33.5678,264.197 42.4382,276.024 z" id="boundary" inkscape:connector-curvature="0" />
	<path style="fill:none;stroke:red;stroke-width:1px;stroke-linecap:butt;stroke-linejoin:miter;stroke-opacity:1" d="M 42.4382,276.024 54.2653,286.373 z" id="boundary" inkscape:connector-curvature="0" />
	<path style="fill:none;stroke:red;stroke-width:1px;stroke-linecap:butt;stroke-linejoin:miter;stroke-opacity:1" d="M 54.2653,286.373 64.614,298.2 z" id="boundary" inkscape:connector-curvature="0" />
	<path style="fill:none;stroke:red;stroke-width:1px;stroke-linecap:butt;stroke-linejoin:miter;stroke-opacity:1" d="M 64.614,298.2 79.3979,304.113 z" id="boundary" inkscape:connector-curvature="0" />
	<path style="fill:none;stroke:red;stroke-width:1px;stroke-linecap:butt;stroke-linejoin:miter;stroke-opacity:1" d="M 79.3979,304.113 89.7466,315.94 z" id="boundary" inkscape:connector-curvature="0" />
	<path style="fill:none;stroke:red;stroke-width:1px;stroke-linecap:butt;stroke-linejoin:miter;stroke-opacity:1" d="M 89.7466,315.94 103.052,323.332 z" id="boundary" inkscape:connector-curvature="0" />
	<path style="fill:none;stroke:red;stroke-width:1px;stroke-linecap:butt;stroke-linejoin:miter;stroke-opacity:1" d="M 103.052,323.332 114.879,332.203 z" id="boundary" inkscape:connector-curvature="0" />
	<path style="fill:none;stroke:red;stroke-width:1px;stroke-linecap:butt;stroke-linejoin:miter;stroke-opacity:1" d="M 114.879,332.203 125.228,344.03 z" id="boundary" inkscape:connector-curvature="0" />
	<path style="fill:none;stroke:red;stroke-width:1px;stroke-linecap:butt;stroke-linejoin:miter;stroke-opacity:1" d="M 125.228,344.03 137.055,352.9 z" id="boundary" inkscape:connector-curvature="0" />
	<path style="fill:none;stroke:red;stroke-width:1px;stroke-linecap:butt;stroke-linejoin:miter;stroke-opacity:1" d="M 137.055,352.9 145.925,364.727 z" id="boundary" inkscape:connector-curvature="0" />
	<path style="fill:none;stroke:red;stroke-width:1px;stroke-linecap:butt;stroke-linejoin:miter;stroke-opacity:1" d="M 145.925,364.727 160.709,367.684 z" id="boundary" inkscape:connector-curvature="0" />
	<path style="fill:none;stroke:red;stroke-width:1px;stroke-linecap:butt;stroke-linejoin:miter;stroke-opacity:1" d="M 160.709,367.684 174.015,375.076 z" id="boundary" inkscape:connector-curvature="0" />
	<path style="fill:none;stroke:red;stroke-width:1px;stroke-linecap:butt;stroke-linejoin:miter;stroke-opacity:1" d="M 174.015,375.076 188.799,375.076 z" id="boundary" inkscape:connector-curvature="0" />
	<path style="fill:none;stroke:red;stroke-width:1px;stroke-linecap:butt;stroke-linejoin:miter;stroke-opacity:1" d="M 188.799,375.076 203.583,375.076 z" id="boundary" inkscape:connector-curvature="0" />
	<path style="fill:none;stroke:red;stroke-width:1px;stroke-linecap:butt;stroke-linejoin:miter;stroke-opacity:1" d="M 203.583,375.076 216.888,382.468 z" id="boundary" inkscape:connector-curvature="0" />
	<path style="fill:none;stroke:red;stroke-width:1px;stroke-linecap:butt;stroke-linejoin:miter;stroke-opacity:1" d="M 216.888,382.468 227.237,394.295 z" id="boundary" inkscape:connector-curvature="0" />
	<path style="fill:none;stroke:red;stroke-width:1px;stroke-linecap:butt;stroke-linejoin:miter;stroke-opacity:1" d="M 227.237,394.295 242.021,400.209 z" id="boundary" inkscape:connector-curvature="0" />
	<path style="fill:none;stroke:red;stroke-width:1px;stroke-linecap:butt;stroke-linejoin:miter;stroke-opacity:1" d="M 242.021,400.209 256.805,404.644 z" id="boundary" inkscape:connector-curvature="0" />
	<path style="fill:none;stroke:red;stroke-width:1px;stroke-linecap:butt;stroke-linejoin:miter;stroke-opacity:1" d="M 256.805,404.644 270.11,412.036 z" id="boundary" inkscape:connector-curvature="0" />
	<path style="fill:none;stroke:red;stroke-width:1px;stroke-linecap:butt;stroke-linejoin:miter;stroke-opacity:1" d="M 270.11,412.036 283.416,419.428 z" id="boundary" inkscape:connector-curvature="0" />
	<path style="fill:none;stroke:red;stroke-width:1px;stroke-linecap:butt;stroke-linejoin:miter;stroke-opacity:1" d="M 283.416,419.428 298.2,419.428 z" id="boundary" inkscape:connector-curvature="0" />
	<path style="fill:none;stroke:red;stroke-width:1px;stroke-linecap:butt;stroke-linejoin:miter;stroke-opacity:1" d="M 298.2,419.428 311.505,426.82 z" id="boundary" inkscape:connector-curvature="0" />
	<path style="fill:none;stroke:red;stroke-width:1px;stroke-linecap:butt;stroke-linejoin:miter;stroke-opacity:1" d="M 311.505,426.82 326.289,432.733 z" id="boundary" inkscape:connector-curvature="0" />
	<path style="fill:none;stroke:red;stroke-width:1px;stroke-linecap:butt;stroke-linejoin:miter;stroke-opacity:1" d="M 326.289,432.733 341.073,434.212 z" id="boundary" inkscape:connector-curvature="0" />
	<path style="fill:none;stroke:red;stroke-width:1px;stroke-linecap:butt;stroke-linejoin:miter;stroke-opacity:1" d="M 341.073,434.212 354.379,441.604 z" id="boundary" inkscape:connector-curvature="0" />
	<path style="fill:none;stroke:red;stroke-width:1px;stroke-linecap:butt;stroke-linejoin:miter;stroke-opacity:1" d="M 354.379,441.604 369.162,441.604 z" id="boundary" inkscape:connector-curvature="0" />
	<path style="fill:none;stroke:red;stroke-width:1px;stroke-linecap:butt;stroke-linejoin:miter;stroke-opacity:1" d="M 369.162,441.604 383.946,441.604 z" id="boundary" inkscape:connector-curvature="0" />
	<path style="fill:none;stroke:red;stroke-width:1px;stroke-linecap:butt;stroke-linejoin:miter;stroke-opacity:1" d="M 383.946,441.604 398.73,441.604 z" id="boundary" inkscape:connector-curvature="0" />
	<path style="fill:none;stroke:red;stroke-width:1px;stroke-linecap:butt;stroke-linejoin:miter;stroke-opacity:1" d="M 398.73,441.604 412.036,448.996 z" id="boundary" inkscape:connector-curvature="0" />
	<path style="fill:none;stroke:red;stroke-width:1px;stroke-linecap:butt;stroke-linejoin:miter;stroke-opacity:1" d="M 412.036,448.996 426.82,448.996 z" id="boundary" inkscape:connector-curvature="0" />
	<path style="fill:none;stroke:red;stroke-width:1px;stroke-linecap:butt;stroke-linejoin:miter;stroke-opacity:1" d="M 426.82,448.996 441.604,448.996 z" id="boundary" inkscape:connector-curvature="0" />
	<path style="fill:none;stroke:red;stroke-width:1px;stroke-linecap:butt;stroke-linejoin:miter;stroke-opacity:1" d="M 441.604,448.996 456.387,448.996 z" id="boundary" inkscape:connector-curvature="0" />
	<path style="fill:none;stroke:red;stroke-width:1px;stroke-linecap:butt;stroke-linejoin:miter;stroke-opacity:1" d="M 456.387,448.996 471.171,441.604 z" id="boundary" inkscape:connector-curvature="0" />
	<path style="fill:none;stroke:red;stroke-width:1px;stroke-linecap:butt;stroke-linejoin:miter;stroke-opacity:1" d="M 471.171,441.604 485.955,441.604 z" id="boundary" inkscape:connector-curvature="0" />
	<path style="fill:none;stroke:red;stroke-width:1px;stroke-linecap:butt;stroke-linejoin:miter;stroke-opacity:1" d="M 485.955,441.604 497.782,431.255 z" id="boundary" inkscape:connector-curvature="0" />
	<path style="fill:none;stroke:red;stroke-width:1px;stroke-linecap:butt;stroke-linejoin:miter;stroke-opacity:1" d="M 497.782,431.255 508.131,419.428 z" id="boundary" inkscape:connector-curvature="0" />
	<path style="fill:none;stroke:red;stroke-width:1px;stroke-linecap:butt;stroke-linejoin:miter;stroke-opacity:1" d="M 508.131,419.428 522.915,419.428 z" id="boundary" inkscape:connector-curvature="0" />
	<path style="fill:none;stroke:red;stroke-width:1px;stroke-linecap:butt;stroke-linejoin:miter;stroke-opacity:1" d="M 522.915,419.428 537.699,419.428 z" id="boundary" inkscape:connector-curvature="0" />
	<path style="fill:none;stroke:red;stroke-width:1px;stroke-linecap:butt;stroke-linejoin:miter;stroke-opacity:1" d="M 537.699,419.428 551.004,412.036 z" id="boundary" inkscape:connector-curvature="0" />
	<path style="fill:none;stroke:red;stroke-width:1px;stroke-linecap:butt;stroke-linejoin:miter;stroke-opacity:1" d="M 551.004,412.036 565.788,412.036 z" id="boundary" inkscape:connector-curvature="0" />
	<path style="fill:none;stroke:red;stroke-width:1px;stroke-linecap:butt;stroke-linejoin:miter;stroke-opacity:1" d="M 565.788,412.036 579.094,404.644 z" id="boundary" inkscape:connector-curvature="0" />
	<path style="fill:none;stroke:red;stroke-width:1px;stroke-linecap:butt;stroke-linejoin:miter;stroke-opacity:1" d="M 579.094,404.644 592.399,395.773 z" id="boundary" inkscape:connector-curvature="0" />
	<path style="fill:none;stroke:red;stroke-width:1px;stroke-linecap:butt;stroke-linejoin:miter;stroke-opacity:1" d="M 4,200.626 11.392,185.842 z" id="boundary" inkscape:connector-curvature="0" />
	<path style="fill:none;stroke:red;stroke-width:1px;stroke-linecap:butt;stroke-linejoin:miter;stroke-opacity:1" d="M 11.392,185.842 23.2191,174.015 z" id="boundary" inkscape:connector-curvature="0" />
	<path style="fill:none;stroke:red;stroke-width:1px;stroke-linecap:butt;stroke-linejoin:miter;stroke-opacity:1" d="M 23.2191,174.015 36.5246,166.623 z" id="boundary" inkscape:connector-curvature="0" />
	<path style="fill:none;stroke:red;stroke-width:1px;stroke-linecap:butt;stroke-linejoin:miter;stroke-opacity:1" d="M 36.5246,166.623 51.3085,160.709 z" id="boundary" inkscape:connector-curvature="0" />
	<path style="fill:none;stroke:red;stroke-width:1px;stroke-linecap:butt;stroke-linejoin:miter;stroke-opacity:1" d="M 51.3085,160.709 66.0924,153.317 z" id="boundary" inkscape:connector-curvature="0" />
	<path style="fill:none;stroke:red;stroke-width:1px;stroke-linecap:butt;stroke-linejoin:miter;stroke-opacity:1" d="M 66.0924,153.317 77.9195,141.49 z" id="boundary" inkscape:connector-curvature="0" />
	<path style="fill:none;stroke:red;stroke-width:1px;stroke-linecap:butt;stroke-linejoin:miter;stroke-opacity:1" d="M 77.9195,141.49 89.7466,129.663 z" id="boundary" inkscape:connector-curvature="0" />
	<path style="fill:none;stroke:red;stroke-width:1px;stroke-linecap:butt;stroke-linejoin:miter;stroke-opacity:1" d="M 89.7466,129.663 101.574,117.836 z" id="boundary" inkscape:connector-curvature="0" />
	<path style="fill:none;stroke:red;stroke-width:1px;stroke-linecap:butt;stroke-linejoin:miter;stroke-opacity:1" d="M 101.574,117.836 113.401,107.487 z" id="boundary" inkscape:connector-curvature="0" />
	<path style="fill:none;stroke:red;stroke-width:1px;stroke-linecap:butt;stroke-linejoin:miter;stroke-opacity:1" d="M 113.401,107.487 126.706,100.095 z" id="boundary" inkscape:connector-curvature="0" />
	<path style="fill:none;stroke:red;stroke-width:1px;stroke-linecap:butt;stroke-linejoin:miter;stroke-opacity:1" d="M 126.706,100.095 140.012,92.7034 z" id="boundary" inkscape:connector-curvature="0" />
	<path style="fill:none;stroke:red;stroke-width:1px;stroke-linecap:butt;stroke-linejoin:miter;stroke-opacity:1" d="M 140.012,92.7034 153.317,85.3115 z" id="boundary" inkscape:connector-curvature="0" />
	<path style="fill:none;stroke:red;stroke-width:1px;stroke-linecap:butt;stroke-linejoin:miter;stroke-opacity:1" d="M 153.317,85.3115 168.101,80.8763 z" id="boundary" inkscape:connector-curvature="0" />
	<path style="fill:none;stroke:red;stroke-width:1px;stroke-linecap:butt;stroke-linejoin:miter;stroke-opacity:1" d="M 168.101,80.8763 182.885,73.4844 z" id="boundary" inkscape:connector-curvature="0" />
	<path style="fill:none;stroke:red;stroke-width:1px;stroke-linecap:butt;stroke-linejoin:miter;stroke-opacity:1" d="M 182.885,73.4844 197.669,70.5276 z" id="boundary" inkscape:connector-curvature="0" />
	<path style="fill:none;stroke:red;stroke-width:1px;stroke-linecap:butt;stroke-linejoin:miter;stroke-opacity:1" d="M 197.669,70.5276 210.975,60.1788 z" id="boundary" inkscape:connector-curvature="0" />
	<path style="fill:none;stroke:red;stroke-width:1px;stroke-linecap:butt;stroke-linejoin:miter;stroke-opacity:1" d="M 210.975,60.1788 225.759,52.7869 z" id="boundary" inkscape:connector-curvature="0" />
	<path style="fill:none;stroke:red;stroke-width:1px;stroke-linecap:butt;stroke-linejoin:miter;stroke-opacity:1" d="M 225.759,52.7869 240.542,45.3949 z" id="boundary" inkscape:connector-curvature="0" />
	<path style="fill:none;stroke:red;stroke-width:1px;stroke-linecap:butt;stroke-linejoin:miter;stroke-opacity:1" d="M 240.542,45.3949 255.326,38.003 z" id="boundary" inkscape:connector-curvature="0" />
	<path style="fill:none;stroke:red;stroke-width:1px;stroke-linecap:butt;stroke-linejoin:miter;stroke-opacity:1" d="M 255.326,38.003 270.11,33.5678 z" id="boundary" inkscape:connector-curvature="0" />
	<path style="fill:none;stroke:red;stroke-width:1px;stroke-linecap:butt;stroke-linejoin:miter;stroke-opacity:1" d="M 270.11,33.5678 284.894,33.5678 z" id="boundary" inkscape:connector-curvature="0" />
	<path style="fill:none;stroke:red;stroke-width:1px;stroke-linecap:butt;stroke-linejoin:miter;stroke-opacity:1" d="M 284.894,33.5678 299.678,33.5678 z" id="boundary" inkscape:connector-curvature="0" />
	<path style="fill:none;stroke:red;stroke-width:1px;stroke-linecap:butt;stroke-linejoin:miter;stroke-opacity:1" d="M 299.678,33.5678 314.462,33.5678 z" id="boundary" inkscape:connector-curvature="0" />
	<path style="fill:none;stroke:red;stroke-width:1px;stroke-linecap:butt;stroke-linejoin:miter;stroke-opacity:1" d="M 314.462,33.5678 327.768,26.1759 z" id="boundary" inkscape:connector-curvature="0" />
	<path style="fill:none;stroke:red;stroke-width:1px;stroke-linecap:butt;stroke-linejoin:miter;stroke-opacity:1" d="M 327.768,26.1759 341.073,18.7839 z" id="boundary" inkscape:connector-curvature="0" />
	<path style="fill:none;stroke:red;stroke-width:1px;stroke-linecap:butt;stroke-linejoin:miter;stroke-opacity:1" d="M 341.073,18.7839 354.379,11.392 z" id="boundary" inkscape:connector-curvature="0" />
	<path style="fill:none;stroke:red;stroke-width:1px;stroke-linecap:butt;stroke-linejoin:miter;stroke-opacity:1" d="M 354.379,11.392 369.162,11.392 z" id="boundary" inkscape:connector-curvature="0" />
	<path style="fill:none;stroke:red;stroke-width:1px;stroke-linecap:butt;stroke-linejoin:miter;stroke-opacity:1" d="M 369.162,11.392 383.946,11.392 z" id="boundary" inkscape:connector-curvature="0" />
	<path style="fill:none;stroke:red;stroke-width:1px;stroke-linecap:butt;stroke-linejoin:miter;stroke-opacity:1" d="M 383.946,11.392 398.73,11.392 z" id="boundary" inkscape:connector-curvature="0" />
	<path style="fill:none;stroke:red;stroke-width:1px;stroke-linecap:butt;stroke-linejoin:miter;stroke-opacity:1" d="M 398.73,11.392 413.514,11.392 z" id="boundary" inkscape:connector-curvature="0" />
	<path style="fill:none;stroke:red;stroke-width:1px;stroke-linecap:butt;stroke-linejoin:miter;stroke-opacity:1" d="M 413.514,11.392 426.82,4 z" id="boundary" inkscape:connector-curvature="0" />
	<path style="fill:none;stroke:red;stroke-width:1px;stroke-linecap:butt;stroke-linejoin:miter;stroke-opacity:1" d="M 426.82,4 441.604,4 z" id="boundary" inkscape:connector-curvature="0" />
	<path style="fill:none;stroke:red;stroke-width:1px;stroke-linecap:butt;stroke-linejoin:miter;stroke-opacity:1" d="M 441.604,4 456.387,4 z" id="boundary" inkscape:connector-curvature="0" />
	<path style="fill:none;stroke:red;stroke-width:1px;stroke-linecap:butt;stroke-linejoin:miter;stroke-opacity:1" d="M 456.387,4 471.171,4 z" id="boundary" inkscape:connector-curvature="0" />
	<path style="fill:none;stroke:red;stroke-width:1px;stroke-linecap:butt;stroke-linejoin:miter;stroke-opacity:1" d="M 471.171,4 485.955,4 z" id="boundary" inkscape:connector-curvature="0" />
	<path style="fill:none;stroke:red;stroke-width:1px;stroke-linecap:butt;stroke-linejoin:miter;stroke-opacity:1" d="M 485.955,4 500.739,8.43517 z" id="boundary" inkscape:connector-curvature="0" />
	<path style="fill:none;stroke:red;stroke-width:1px;stroke-linecap:butt;stroke-linejoin:miter;stroke-opacity:1" d="M 500.739,8.43517 511.088,20.2623 z" id="boundary" inkscape:connector-curvature="0" />
	<path style="fill:none;stroke:red;stroke-width:1px;stroke-linecap:butt;stroke-linejoin:miter;stroke-opacity:1" d="M 511.088,20.2623 525.872,18.7839 z" id="boundary" inkscape:connector-curvature="0" />
	<path style="fill:none;stroke:red;stroke-width:1px;stroke-linecap:butt;stroke-linejoin:miter;stroke-opacity:1" d="M 525.872,18.7839 540.656,11.392 z" id="boundary" inkscape:connector-curvature="0" />
	<path style="fill:none;stroke:red;stroke-width:1px;stroke-linecap:butt;stroke-linejoin:miter;stroke-opacity:1" d="M 540.656,11.392 553.961,18.7839 z" id="boundary" inkscape:connector-curvature="0" />
	<path style="fill:none;stroke:red;stroke-width:1px;stroke-linecap:butt;stroke-linejoin:miter;stroke-opacity:1" d="M 553.961,18.7839 565.788,29.1326 z" id="boundary" inkscape:connector-curvature="0" />
	<path style="fill:none;stroke:red;stroke-width:1px;stroke-linecap:butt;stroke-linejoin:miter;stroke-opacity:1" d="M 565.788,29.1326 574.659,40.9598 z" id="boundary" inkscape:connector-curvature="0" />
	<path style="fill:none;stroke:red;stroke-width:1px;stroke-linecap:butt;stroke-linejoin:miter;stroke-opacity:1" d="M 574.659,40.9598 589.443,45.3949 z" id="boundary" inkscape:connector-curvature="0" />
	<path style="fill:none;stroke:red;stroke-width:1px;stroke-linecap:butt;stroke-linejoin:miter;stroke-opacity:1" d="M 589.443,45.3949 601.27,55.7437 z" id="boundary" inkscape:connector-curvature="0" />
	<path style="fill:none;stroke:red;stroke-width:1px;stroke-linecap:butt;stroke-linejoin:miter;stroke-opacity:1" d="M 601.27,55.7437 616.054,57.2221 z" id="boundary" inkscape:connector-curvature="0" />
	<path style="fill:none;stroke:red;stroke-width:1px;stroke-linecap:butt;stroke-linejoin:miter;stroke-opacity:1" d="M 616.054,57.2221 629.359,64.614 z" id="boundary" inkscape:connector-curvature="0" />
	<path style="fill:none;stroke:red;stroke-width:1px;stroke-linecap:butt;stroke-linejoin:miter;stroke-opacity:1" d="M 629.359,64.614 636.751,77.9195 z" id="boundary" inkscape:connector-curvature="0" />
	<path style="fill:none;stroke:red;stroke-width:1px;stroke-linecap:butt;stroke-linejoin:miter;stroke-opacity:1" d="M 636.751,77.9195 650.057,85.3115 z" id="boundary" inkscape:connector-curvature="0" />
	<path style="fill:none;stroke:red;stroke-width:1px;stroke-linecap:butt;stroke-linejoin:miter;stroke-opacity:1" d="M 650.057,85.3115 663.362,92.7034 z" id="boundary" inkscape:connector-curvature="0" />
	<path style="fill:none;stroke:red;stroke-width:1px;stroke-linecap:butt;stroke-linejoin:miter;stroke-opacity:1" d="M 663.362,92.7034 678.146,97.1386 z" id="boundary" inkscape:connector-curvature="0" />
	<path style="fill:none;stroke:red;stroke-width:1px;stroke-linecap:butt;stroke-linejoin:miter;stroke-opacity:1" d="M 678.146,97.1386 688.495,108.966 z" id="boundary" inkscape:connector-curvature="0" />
	<path style="fill:none;stroke:red;stroke-width:1px;stroke-linecap:butt;stroke-linejoin:miter;stroke-opacity:1" d="M 688.495,108.966 703.279,114.879 z" id="boundary" inkscape:connector-curvature="0" />
	<path style="fill:none;stroke:red;stroke-width:1px;stroke-linecap:butt;stroke-linejoin:miter;stroke-opacity:1" d="M 703.279,114.879 713.627,126.706 z" id="boundary" inkscape:connector-curvature="0" />
	<path style="fill:none;stroke:red;stroke-width:1px;stroke-linecap:butt;stroke-linejoin:miter;stroke-opacity:1" d="M 713.627,126.706 728.411,132.62 z" id="boundary" inkscape:connector-curvature="0" />
	<path style="fill:none;stroke:red;stroke-width:1px;stroke-linecap:butt;stroke-linejoin:miter;stroke-opacity:1" d="M 728.411,132.62 737.282,144.447 z" id="boundary" inkscape:connector-curvature="0" />
	<path style="fill:none;stroke:red;stroke-width:1px;stroke-linecap:butt;stroke-linejoin:miter;stroke-opacity:1" d="M 737.282,144.447 744.674,157.753 z" id="boundary" inkscape:connector-curvature="0" />
	<path style="fill:none;stroke:red;stroke-width:1px;stroke-linecap:butt;stroke-linejoin:miter;stroke-opacity:1" d="M 744.674,157.753 756.501,168.101 z" id="boundary" inkscape:connector-curvature="0" />
	<path style="fill:none;stroke:red;stroke-width:1px;stroke-linecap:butt;stroke-linejoin:miter;stroke-opacity:1" d="M 756.501,168.101 766.849,179.928 z" id="boundary" inkscape:connector-curvature="0" />
	<path style="fill:none;stroke:red;stroke-width:1px;stroke-linecap:butt;stroke-linejoin:miter;stroke-opacity:1" d="M 766.849,179.928 778.677,190.277 z" id="boundary" inkscape:connector-curvature="0" />
	<path style="fill:none;stroke:red;stroke-width:1px;stroke-linecap:butt;stroke-linejoin:miter;stroke-opacity:1" d="M 778.677,190.277 793.461,196.191 z" id="boundary" inkscape:connector-curvature="0" />
	<path style="fill:none;stroke:red;stroke-width:1px;stroke-linecap:butt;stroke-linejoin:miter;stroke-opacity:1" d="M 793.461,196.191 808.244,196.191 z" id="boundary" inkscape:connector-curvature="0" />
	<path style="fill:none;stroke:red;stroke-width:1px;stroke-linecap:butt;stroke-linejoin:miter;stroke-opacity:1" d="M 808.244,196.191 823.028,196.191 z" id="boundary" inkscape:connector-curvature="0" />
	<path style="fill:none;stroke:red;stroke-width:1px;stroke-linecap:butt;stroke-linejoin:miter;stroke-opacity:1" d="M 823.028,196.191 837.812,196.191 z" id="boundary" inkscape:connector-curvature="0" />
	<path style="fill:none;stroke:red;stroke-width:1px;stroke-linecap:butt;stroke-linejoin:miter;stroke-opacity:1" d="M 837.812,196.191 851.118,188.799 z" id="boundary" inkscape:connector-curvature="0" />
	<path style="fill:none;stroke:red;stroke-width:1px;stroke-linecap:butt;stroke-linejoin:miter;stroke-opacity:1" d="M 851.118,188.799 865.902,188.799 z" id="boundary" inkscape:connector-curvature="0" />
	<path style="fill:none;stroke:red;stroke-width:1px;stroke-linecap:butt;stroke-linejoin:miter;stroke-opacity:1" d="M 865.902,188.799 880.686,188.799 z" id="boundary" inkscape:connector-curvature="0" />
	<path style="fill:none;stroke:red;stroke-width:1px;stroke-linecap:butt;stroke-linejoin:miter;stroke-opacity:1" d="M 880.686,188.799 895.469,188.799 z" id="boundary" inkscape:connector-curvature="0" />
	<path style="fill:none;stroke:red;stroke-width:1px;stroke-linecap:butt;stroke-linejoin:miter;stroke-opacity:1" d="M 895.469,188.799 910.253,188.799 z" id="boundary" inkscape:connector-curvature="0" />
	<path style="fill:none;stroke:red;stroke-width:1px;stroke-linecap:butt;stroke-linejoin:miter;stroke-opacity:1" d="M 910.253,188.799 925.037,188.799 z" id="boundary" inkscape:connector-curvature="0" />
	<path style="fill:none;stroke:red;stroke-width:1px;stroke-linecap:butt;stroke-linejoin:miter;stroke-opacity:1" d="M 925.037,188.799 938.343,181.407 z" id="boundary" inkscape:connector-curvature="0" />
	<path style="fill:none;stroke:red;stroke-width:1px;stroke-linecap:butt;stroke-linejoin:miter;stroke-opacity:1" d="M 938.343,181.407 953.127,181.407 z" id="boundary" inkscape:connector-curvature="0" />
	<path style="fill:none;stroke:red;stroke-width:1px;stroke-linecap:butt;stroke-linejoin:miter;stroke-opacity:1" d="M 953.127,181.407 966.432,188.799 z" id="boundary" inkscape:connector-curvature="0" />
	<path style="fill:none;stroke:red;stroke-width:1px;stroke-linecap:butt;stroke-linejoin:miter;stroke-opacity:1" d="M 966.432,188.799 978.259,197.669 z" id="boundary" inkscape:connector-curvature="0" />
	<path style="fill:none;stroke:red;stroke-width:1px;stroke-linecap:butt;stroke-linejoin:miter;stroke-opacity:1" d="M 978.259,197.669 984.173,212.453 z" id="boundary" inkscape:connector-curvature="0" />
	<path style="fill:none;stroke:red;stroke-width:1px;stroke-linecap:butt;stroke-linejoin:miter;stroke-opacity:1" d="M 984.173,212.453 991.565,225.759 z" id="boundary" inkscape:connector-curvature="0" />
	<path style="fill:none;stroke:red;stroke-width:1px;stroke-linecap:butt;stroke-linejoin:miter;stroke-opacity:1" d="M 991.565,225.759 996,240.542 z" id="boundary" inkscape:connector-curvature="0" />
	<path style="fill:none;stroke:red;stroke-width:1px;stroke-linecap:butt;stroke-linejoin:miter;stroke-opacity:1" d="M 592.399,395.773 604.227,382.468 z" id="boundary" inkscape:connector-curvature="0" />
	<path style="fill:none;stroke:red;stroke-width:1px;stroke-linecap:butt;stroke-linejoin:miter;stroke-opacity:1" d="M 604.227,382.468 619.01,382.468 z" id="boundary" inkscape:connector-curvature="0" />
	<path style="fill:none;stroke:red;stroke-width:1px;stroke-linecap:butt;stroke-linejoin:miter;stroke-opacity:1" d="M 619.01,382.468 633.794,382.468 z" id="boundary" inkscape:connector-curvature="0" />
	<path style="fill:none;stroke:red;stroke-width:1px;stroke-linecap:butt;stroke-linejoin:miter;stroke-opacity:1" d="M 633.794,382.468 645.621,372.119 z" id="boundary" inkscape:connector-curvature="0" />
	<path style="fill:none;stroke:red;stroke-width:1px;stroke-linecap:butt;stroke-linejoin:miter;stroke-opacity:1" d="M 645.621,372.119 655.97,360.292 z" id="boundary" inkscape:connector-curvature="0" />
	<path style="fill:none;stroke:red;stroke-width:1px;stroke-linecap:butt;stroke-linejoin:miter;stroke-opacity:1" d="M 655.97,360.292 670.754,352.9 z" id="boundary" inkscape:connector-curvature="0" />
	<path style="fill:none;stroke:red;stroke-width:1px;stroke-linecap:butt;stroke-linejoin:miter;stroke-opacity:1" d="M 670.754,352.9 685.538,352.9 z" id="boundary" inkscape:connector-curvature="0" />
	<path style="fill:none;stroke:red;stroke-width:1px;stroke-linecap:butt;stroke-linejoin:miter;stroke-opacity:1" d="M 685.538,352.9 697.365,342.551 z" id="boundary" inkscape:connector-curvature="0" />
	<path style="fill:none;stroke:red;stroke-width:1px;stroke-linecap:butt;stroke-linejoin:miter;stroke-opacity:1" d="M 697.365,342.551 707.714,330.724 z" id="boundary" inkscape:connector-curvature="0" />
	<path style="fill:none;stroke:red;stroke-width:1px;stroke-linecap:butt;stroke-linejoin:miter;stroke-opacity:1" d="M 707.714,330.724 722.498,323.332 z" id="boundary" inkscape:connector-curvature="0" />
	<path style="fill:none;stroke:red;stroke-width:1px;stroke-linecap:butt;stroke-linejoin:miter;stroke-opacity:1" d="M 722.498,323.332 737.282,315.94 z" id="boundary" inkscape:connector-curvature="0" />
	<path style="fill:none;stroke:red;stroke-width:1px;stroke-linecap:butt;stroke-linejoin:miter;stroke-opacity:1" d="M 737.282,315.94 744.674,301.156 z" id="boundary" inkscape:connector-curvature="0" />
	<path style="fill:none;stroke:red;stroke-width:1px;stroke-linecap:butt;stroke-linejoin:miter;stroke-opacity:1" d="M 744.674,301.156 759.458,293.765 z" id="boundary" inkscape:connector-curvature="0" />
	<path style="fill:none;stroke:red;stroke-width:1px;stroke-linecap:butt;stroke-linejoin:miter;stroke-opacity:1" d="M 759.458,293.765 774.241,286.373 z" id="boundary" inkscape:connector-curvature="0" />
	<path style="fill:none;stroke:red;stroke-width:1px;stroke-linecap:butt;stroke-linejoin:miter;stroke-opacity:1" d="M 774.241,286.373 789.025,286.373 z" id="boundary" inkscape:connector-curvature="0" />
	<path style="fill:none;stroke:red;stroke-width:1px;stroke-linecap:butt;stroke-linejoin:miter;stroke-opacity:1" d="M 789.025,286.373 803.809,286.373 z" id="boundary" inkscape:connector-curvature="0" />
	<path style="fill:none;stroke:red;stroke-width:1px;stroke-linecap:butt;stroke-linejoin:miter;stroke-opacity:1" d="M 803.809,286.373 818.593,286.373 z" id="boundary" inkscape:connector-curvature="0" />
	<path style="fill:none;stroke:red;stroke-width:1px;stroke-linecap:butt;stroke-linejoin:miter;stroke-opacity:1" d="M 818.593,286.373 833.377,286.373 z" id="boundary" inkscape:connector-curvature="0" />
	<path style="fill:none;stroke:red;stroke-width:1px;stroke-linecap:butt;stroke-linejoin:miter;stroke-opacity:1" d="M 833.377,286.373 848.161,286.373 z" id="boundary" inkscape:connector-curvature="0" />
	<path style="fill:none;stroke:red;stroke-width:1px;stroke-linecap:butt;stroke-linejoin:miter;stroke-opacity:1" d="M 848.161,286.373 861.466,293.765 z" id="boundary" inkscape:connector-curvature="0" />
	<path style="fill:none;stroke:red;stroke-width:1px;stroke-linecap:butt;stroke-linejoin:miter;stroke-opacity:1" d="M 861.466,293.765 876.25,293.765 z" id="boundary" inkscape:connector-curvature="0" />
	<path style="fill:none;stroke:red;stroke-width:1px;stroke-linecap:butt;stroke-linejoin:miter;stroke-opacity:1" d="M 876.25,293.765 891.034,293.765 z" id="boundary" inkscape:connector-curvature="0" />
	<path style="fill:none;stroke:red;stroke-width:1px;stroke-linecap:butt;stroke-linejoin:miter;stroke-opacity:1" d="M 891.034,293.765 905.818,293.765 z" id="boundary" inkscape:connector-curvature="0" />
	<path style="fill:none;stroke:red;stroke-width:1px;stroke-linecap:butt;stroke-linejoin:miter;stroke-opacity:1" d="M 905.818,293.765 920.602,293.765 z" id="boundary" inkscape:connector-curvature="0" />
	<path style="fill:none;stroke:red;stroke-width:1px;stroke-linecap:butt;stroke-linejoin:miter;stroke-opacity:1" d="M 920.602,293.765 935.386,293.765 z" id="boundary" inkscape:connector-curvature="0" />
	<path style="fill:none;stroke:red;stroke-width:1px;stroke-linecap:butt;stroke-linejoin:miter;stroke-opacity:1" d="M 935.386,293.765 948.692,301.156 z" id="boundary" inkscape:connector-curvature="0" />
	<path style="fill:none;stroke:red;stroke-width:1px;stroke-linecap:butt;stroke-linejoin:miter;stroke-opacity:1" d="M 948.692,301.156 963.475,298.2 z" id="boundary" inkscape:connector-curvature="0" />
	<path style="fill:none;stroke:red;stroke-width:1px;stroke-linecap:butt;stroke-linejoin:miter;stroke-opacity:1" d="M 963.475,298.2 973.824,286.373 z" id="boundary" inkscape:connector-curvature="0" />
	<path style="fill:none;stroke:red;stroke-width:1px;stroke-linecap:butt;stroke-linejoin:miter;stroke-opacity:1" d="M 973.824,286.373 981.216,271.589 z" id="boundary" inkscape:connector-curvature="0" />
	<path style="fill:none;stroke:red;stroke-width:1px;stroke-linecap:butt;stroke-linejoin:miter;stroke-opacity:1" d="M 981.216,271.589 988.608,256.805 z" id="boundary" inkscape:connector-curvature="0" />
	<path style="fill:none;stroke:red;stroke-width:1px;stroke-linecap:butt;stroke-linejoin:miter;stroke-opacity:1" d="M 996,240.542 988.608,256.805 z" id="boundary" inkscape:connector-curvature="0" />
	<circle cx="4" cy="200.626" r="4" fill="#0" id="circle0"/>
	<circle cx="4" cy="215.41" r="4" fill="#0" id="circle1"/>
	<circle cx="4" cy="230.194" r="4" fill="#0" id="circle2"/>
	<circle cx="11.392" cy="185.842" r="4" fill="#0" id="circle3"/>
	<circle cx="11.392" cy="243.499" r="4" fill="#0" id="circle4"/>
	<circle cx="21.7407" cy="255.326" r="4" fill="#0" id="circle5"/>
	<circle cx="23.2191" cy="174.015" r="4" fill="#0" id="circle6"/>
	<circle cx="33.5678" cy="264.197" r="4" fill="#0" id="circle7"/>
	<circle cx="36.5246" cy="166.623" r="4" fill="#0" id="circle8"/>
	<circle cx="42.4382" cy="276.024" r="4" fill="#0" id="circle9"/>
	<circle cx="51.3085" cy="160.709" r="4" fill="#0" id="circle10"/>
	<circle cx="54.2653" cy="286.373" r="4" fill="#0" id="circle11"/>
	<circle cx="64.614" cy="298.2" r="4" fill="#0" id="circle12"/>
	<circle cx="66.0924" cy="153.317" r="4" fill="#0" id="circle13"/>
	<circle cx="77.9195" cy="141.49" r="4" fill="#0" id="circle14"/>
	<circle cx="79.3979" cy="304.113" r="4" fill="#0" id="circle15"/>
	<circle cx="89.7466" cy="129.663" r="4" fill="#0" id="circle16"/>
	<circle cx="89.7466" cy="315.94" r="4" fill="#0" id="circle17"/>
	<circle cx="101.574" cy="117.836" r="4" fill="#0" id="circle18"/>
	<circle cx="103.052" cy="323.332" r="4" fill="#0" id="circle19"/>
	<circle cx="113.401" cy="107.487" r="4" fill="#0" id="circle20"/>
	<circle cx="114.879" cy="332.203" r="4" fill="#0" id="circle21"/>
	<circle cx="125.228" cy="344.03" r="4" fill="#0" id="circle22"/>
	<circle cx="126.706" cy="100.095" r="4" fill="#0" id="circle23"/>
	<circle cx="137.055" cy="352.9" r="4" fill="#0" id="circle24"/>
	<circle cx="140.012" cy="92.7034" r="4" fill="#0" id="circle25"/>
	<circle cx="145.925" cy="364.727" r="4" fill="#0" id="circle26"/>
	<circle cx="153.317" cy="85.3115" r="4" fill="#0" id="circle27"/>
	<circle cx="160.709" cy="367.684" r="4" fill="#0" id="circle28"/>
	<circle cx="168.101" cy="80.8763" r="4" fill="#0" id="circle29"/>
	<circle cx="174.015" cy="375.076" r="4" fill="#0" id="circle30"/>
	<circle cx="182.885" cy="73.4844" r="4" fill="#0" id="circle31"/>
	<circle cx="188.799" cy="375.076" r="4" fill="#0" id="circle32"/>
	<circle cx="197.669" cy="70.5276" r="4" fill="#0" id="circle33"/>
	<circle cx="203.583" cy="375.076" r="4" fill="#0" id="circle34"/>
	<circle cx="210.975" cy="60.1788" r="4" fill="#0" id="circle35"/>
	<circle cx="216.888" cy="382.468" r="4" fill="#0" id="circle36"/>
	<circle cx="225.759" cy="52.7869" r="4" fill="#0" id="circle37"/>
	<circle cx="227.237" cy="394.295" r="4" fill="#0" id="circle38"/>
	<circle cx="240.542" cy="45.3949" r="4" fill="#0" id="circle39"/>
	<circle cx="242.021" cy="400.209" r="4" fill="#0" id="circle40"/>
	<circle cx="255.326" cy="38.003" r="4" fill="#0" id="circle41"/>
	<circle cx="256.805" cy="404.644" r="4" fill="#0" id="circle42"/>
	<circle cx="270.11" cy="33.5678" r="4" fill="#0" id="circle43"/>
	<circle cx="270.11" cy="412.036" r="4" fill="#0" id="circle44"/>
	<circle cx="283.416" cy="419.428" r="4" fill="#0" id="circle45"/>
	<circle cx="284.894" cy="33.5678" r="4" fill="#0" id="circle46"/>
	<circle cx="298.2" cy="419.428" r="4" fill="#0" id="circle47"/>
	<circle cx="299.678" cy="33.5678" r="4" fill="#0" id="circle48"/>
	<circle cx="311.505" cy="426.82" r="4" fill="#0" id="circle49"/>
	<circle cx="314.462" cy="33.5678" r="4" fill="#0" id="circle50"/>
	<circle cx="326.289" cy="432.733" r="4" fill="#0" id="circle51"/>
	<circle cx="327.768" cy="26.1759" r="4" fill="#0" id="circle52"/>
	<circle cx="341.073" cy="18.7839" r="4" fill="#0" id="circle53"/>
	<circle cx="341.073" cy="434.212" r="4" fill="#0" id="circle54"/>
	<circle cx="354.379" cy="11.392" r="4" fill="#0" id="circle55"/>
	<circle cx="354.379" cy="441.604" r="4" fill="#0" id="circle56"/>
	<circle cx="369.162" cy="11.392" r="4" fill="#0" id="circle57"/>
	<circle cx="369.162" cy="441.604" r="4" fill="#0" id="circle58"/>
	<circle cx="383.946" cy="11.392" r="4" fill="#0" id="circle59"/>
	<circle cx="383.946" cy="441.604" r="4" fill="#0" id="circle60"/>
	<circle cx="398.73" cy="11.392" r="4" fill="#0" id="circle61"/>
	<circle cx="398.73" cy="441.604" r="4" fill="#0" id="circle62"/>
	<circle cx="412.036" cy="448.996" r="4" fill="#0" id="circle63"/>
	<circle cx="413.514" cy="11.392" r="4" fill="#0" id="circle64"/>
	<circle cx="426.82" cy="4" r="4" fill="#0" id="circle65"/>
	<circle cx="426.82" cy="448.996" r="4" fill="#0" id="circle66"/>
	<circle cx="441.604" cy="4" r="4" fill="#0" id="circle67"/>
	<circle cx="441.604" cy="448.996" r="4" fill="#0" id="circle68"/>
	<circle cx="456.387" cy="4" r="4" fill="#0" id="circle69"/>
	<circle cx="456.387" cy="448.996" r="4" fill="#0" id="circle70"/>
	<circle cx="471.171" cy="4" r="4" fill="#0" id="circle71"/>
	<circle cx="471.171" cy="441.604" r="4" fill="#0" id="circle72"/>
	<circle cx="485.955" cy="4" r="4" fill="#0" id="circle73"/>
	<circle cx="485.955" cy="441.604" r="4" fill="#0" id="circle74"/>
	<circle cx="497.782" cy="431.255" r="4" fill="#0" id="circle75"/>
	<circle cx="500.739" cy="8.43517" r="4" fill="#0" id="circle76"/>
	<circle cx="508.131" cy="419.428" r="4" fill="#0" id="circle77"/>
	<circle cx="511.088" cy="20.2623" r="4" fill="#0" id="circle78"/>
	<circle cx="522.915" cy="419.428" r="4" fill="#0" id="circle79"/>
	<circle cx="525.872" cy="18.7839" r="4" fill="#0" id="circle80"/>
	<circle cx="537.699" cy="419.428" r="4" fill="#0" id="circle81"/>
	<circle cx="540.656" cy="11.392" r="4" fill="#0" id="circle82"/>
	<circle cx="551.004" cy="412.036" r="4" fill="#0" id="circle83"/>
	<circle cx="553.961" cy="18.7839" r="4" fill="#0" id="circle84"/>
	<circle cx="565.788" cy="29.1326" r="4" fill="#0" id="circle85"/>
	<circle cx="565.788" cy="412.036" r="4" fill="#0" id="circle86"/>
	<circle cx="574.659" cy="40.9598" r="4" fill="#0" id="circle87"/>
	<circle cx="579.094" cy="404.644" r="4" fill="#0" id="circle88"/>
	<circle cx="589.443" cy="45.3949" r="4" fill="#0" id="circle89"/>
	<circle cx="592.399" cy="395.773" r="4" fill="#0" id="circle90"/>
	<circle cx="601.27" cy="55.7437" r="4" fill="#0" id="circle91"/>
	<circle cx="604.227" cy="382.468" r="4" fill="#0" id="circle92"/>
	<circle cx="616.054" cy="57.2221" r="4" fill="#0" id="circle93"/>
	<circle cx="619.01" cy="382.468" r="4" fill="#0" id="circle94"/>
	<circle cx="629.359" cy="64.614" r="4" fill="#0" id="circle95"/>
	<circle cx="633.794" cy="382.468" r="4" fill="#0" id="circle96"/>
	<circle cx="636.751" cy="77.9195" r="4" fill="#0" id="circle97"/>
	<circle cx="645.621" cy="372.119" r="4" fill="#0" id="circle98"/>
	<circle cx="650.057" cy="85.3115" r="4" fill="#0" id="circle99"/>
	<circle cx="655.97" cy="360.292" r="4" fill="#0" id="circle100"/>
	<circle cx="663.362" cy="92.7034" r="4" fill="#0" id="circle101"/>
	<circle cx="670.754" cy="352.9" r="4" fill="#0" id="circle102"/>
	<circle cx="678.146" cy="97.1386" r="4" fill="#0" id="circle103"/>
	<circle cx="685.538" cy="352.9" r="4" fill="#0" id="circle104"/>
	<circle cx="688.495" cy="108.966" r="4" fill="#0" id="circle105"/>
	<circle cx="697.365" cy="342.551" r="4" fill="#0" id="circle106"/>
	<circle cx="703.279" cy="114.879" r="4" fill="#0" id="circle107"/>
	<circle cx="707.714" cy="330.724" r="4" fill="#0" id="circle108"/>
	<circle cx="713.627" cy="126.706" r="4" fill="#0" id="circle109"/>
	<circle cx="722.498" cy="323.332" r="4" fill="#0" id="circle110"/>
	<circle cx="728.411" cy="132.62" r="4" fill="#0" id="circle111"/>
	<circle cx="737.282" cy="144.447" r="4" fill="#0" id="circle112"/>
	<circle cx="737.282" cy="315.94" r="4" fill="#0" id="circle113"/>
	<circle cx="744.674" cy="157.753" r="4" fill="#0" id="circle114"/>
	<circle cx="744.674" cy="301.156" r="4" fill="#0" id="circle115"/>
	<circle cx="756.501" cy="168.101" r="4" fill="#0" id="circle116"/>
	<circle cx="759.458" cy="293.765" r="4" fill="#0" id="circle117"/>
	<circle cx="766.849" cy="179.928" r="4" fill="#0" id="circle118"/>
	<circle cx="774.241" cy="286.373" r="4" fill="#0" id="circle119"/>
	<circle cx="778.677" cy="190.277" r="4" fill="#0" id="circle120"/>
	<circle cx="789.025" cy="286.373" r="4" fill="#0" id="circle121"/>
	<circle cx="793.461" cy="196.191" r="4" fill="#0" id="circle122"/>
	<circle cx="803.809" cy="286.373" r="4" fill="#0" id="circle123"/>
	<circle cx="808.244" cy="196.191" r="4" fill="#0" id="circle124"/>
	<circle cx="818.593" cy="286.373" r="4" fill="#0" id="circle125"/>
	<circle cx="823.028" cy="196.191" r="4" fill="#0" id="circle126"/>
	<circle cx="833.377" cy="286.373" r="4" fill="#0" id="circle127"/>
	<circle cx="837.812" cy="196.191" r="4" fill="#0" id="circle128"/>
	<circle cx="848.161" cy="286.373" r="4" fill="#0" id="circle129"/>
	<circle cx="851.118" cy="188.799" r="4" fill="#0" id="circle130"/>
	<circle cx="861.466" cy="293.765" r="4" fill="#0" id="circle131"/>
	<circle cx="865.902" cy="188.799" r="4" fill="#0" id="circle132"/>
	<circle cx="876.25" cy="293.765" r="4" fill="#0" id="circle133"/>
	<circle cx="880.686" cy="188.799" r="4" fill="#0" id="circle134"/>
	<circle cx="891.034" cy="293.765" r="4" fill="#0" id="circle135"/>
	<circle cx="895.469" cy="188.799" r="4" fill="#0" id="circle136"/>
	<circle cx="905.818" cy="293.765" r="4" fill="#0" id="circle137"/>
	<circle cx="910.253" cy="188.799" r="4" fill="#0" id="circle138"/>
	<circle cx="920.602" cy="293.765" r="4" fill="#0" id="circle139"/>
	<circle cx="925.037" cy="188.799" r="4" fill="#0" id="circle140"/>
	<circle cx="935.386" cy="293.765" r="4" fill="#0" id="circle141"/>
	<circle cx="938.343" cy="181.407" r="4" fill="#0" id="circle142"/>
	<circle cx="948.692" cy="301.156" r="4" fill="#0" id="circle143"/>
	<circle cx="953.127" cy="181.407" r="4" fill="#0" id="circle144"/>
	<circle cx="963.475" cy="298.2" r="4" fill="#0" id="circle145"/>
	<circle cx="966.432" cy="188.799" r="4" fill="#0" id="circle146"/>
	<circle cx="973.824" cy="286.373" r="4" fill="#0" id="circle147"/>
	<circle cx="978.259" cy="197.669" r="4" fill="#0" id="circle148"/>
	<circle cx="981.216" cy="271.589" r="4" fill="#0" id="circle149"/>
	<circle cx="984.173" cy="212.453" r="4" fill="#0" id="circle150"/>
	<circle cx="988.608" cy="256.805" r="4" fill="#0" id="circle151"/>
	<circle cx="991.565" cy="225.759" r="4" fill="#0" id="circle152"/>
	<circle cx="996" cy="240.542" r="4" fill="#0" id="circle153"/>
	</g>
</svg>