<?xml version="1.0" encoding="UTF-8" standalone="no"?>
<!-- Created with CurveBenchmark -->
<svg
	xmlns:dc="http://purl.org/dc/elements/1.1/"
	xmlns:cc="http://creativecommons.org/ns#"
	xmlns:rdf="http://www.w3.org/1999/02/22-rdf-syntax-ns#"
	xmlns:svg="http://www.w3.org/2000/svg"
	xmlns="http://www.w3.org/2000/svg"
	xmlns:sodipodi="http://sodipodi.sourceforge.net/DTD/sodipodi-0.dtd"
	xmlns:inkscape="http://www.inkscape.org/namespaces/inkscape"
	width="1000"
	height="1000"
	id="svg2"
	version="1.1"
	sodipodi:docname="manifold/crawl-Heart04.png.txt">
<defs
	id="defs4" />
<metadata
	id="metadata7">
	<rdf:RDF>
		<cc:Work
			rdf:about="">
			<dc:format>image/svg+xml</dc:format>
			<dc:type
				rdf:resource="http://purl.org/dc/dcmitype/StillImage" />
			<dc:title></dc:title>
		</cc:Work>
	</rdf:RDF>
</metadata>
<g
	inkscape:label="Layer 1"
	inkscape:groupmode="layer"
	id="layer1">
	<path style="fill:none;stroke:red;stroke-width:1px;stroke-linecap:butt;stroke-linejoin:miter;stroke-opacity:1" d="M 4,198.251 4,217.11 z" id="boundary" inkscape:connector-curvature="0" />
	<path style="fill:none;stroke:red;stroke-width:1px;stroke-linecap:butt;stroke-linejoin:miter;stroke-opacity:1" d="M 4,217.11 4,235.97 z" id="boundary" inkscape:connector-curvature="0" />
	<path style="fill:none;stroke:red;stroke-width:1px;stroke-linecap:butt;stroke-linejoin:miter;stroke-opacity:1" d="M 4,235.97 4,254.829 z" id="boundary" inkscape:connector-curvature="0" />
	<path style="fill:none;stroke:red;stroke-width:1px;stroke-linecap:butt;stroke-linejoin:miter;stroke-opacity:1" d="M 4,254.829 4,273.688 z" id="boundary" inkscape:connector-curvature="0" />
	<path style="fill:none;stroke:red;stroke-width:1px;stroke-linecap:butt;stroke-linejoin:miter;stroke-opacity:1" d="M 4,273.688 4,292.548 z" id="boundary" inkscape:connector-curvature="0" />
	<path style="fill:none;stroke:red;stroke-width:1px;stroke-linecap:butt;stroke-linejoin:miter;stroke-opacity:1" d="M 4,198.251 4,179.392 z" id="boundary" inkscape:connector-curvature="0" />
	<path style="fill:none;stroke:red;stroke-width:1px;stroke-linecap:butt;stroke-linejoin:miter;stroke-opacity:1" d="M 4,292.548 13.4297,309.521 z" id="boundary" inkscape:connector-curvature="0" />
	<path style="fill:none;stroke:red;stroke-width:1px;stroke-linecap:butt;stroke-linejoin:miter;stroke-opacity:1" d="M 13.4297,309.521 13.4297,328.38 z" id="boundary" inkscape:connector-curvature="0" />
	<path style="fill:none;stroke:red;stroke-width:1px;stroke-linecap:butt;stroke-linejoin:miter;stroke-opacity:1" d="M 13.4297,328.38 22.8593,345.354 z" id="boundary" inkscape:connector-curvature="0" />
	<path style="fill:none;stroke:red;stroke-width:1px;stroke-linecap:butt;stroke-linejoin:miter;stroke-opacity:1" d="M 22.8593,345.354 28.5171,364.213 z" id="boundary" inkscape:connector-curvature="0" />
	<path style="fill:none;stroke:red;stroke-width:1px;stroke-linecap:butt;stroke-linejoin:miter;stroke-opacity:1" d="M 28.5171,364.213 37.9468,381.186 z" id="boundary" inkscape:connector-curvature="0" />
	<path style="fill:none;stroke:red;stroke-width:1px;stroke-linecap:butt;stroke-linejoin:miter;stroke-opacity:1" d="M 37.9468,381.186 45.4905,400.046 z" id="boundary" inkscape:connector-curvature="0" />
	<path style="fill:none;stroke:red;stroke-width:1px;stroke-linecap:butt;stroke-linejoin:miter;stroke-opacity:1" d="M 45.4905,400.046 54.9202,417.019 z" id="boundary" inkscape:connector-curvature="0" />
	<path style="fill:none;stroke:red;stroke-width:1px;stroke-linecap:butt;stroke-linejoin:miter;stroke-opacity:1" d="M 54.9202,417.019 70.0076,430.221 z" id="boundary" inkscape:connector-curvature="0" />
	<path style="fill:none;stroke:red;stroke-width:1px;stroke-linecap:butt;stroke-linejoin:miter;stroke-opacity:1" d="M 70.0076,430.221 81.3232,445.308 z" id="boundary" inkscape:connector-curvature="0" />
	<path style="fill:none;stroke:red;stroke-width:1px;stroke-linecap:butt;stroke-linejoin:miter;stroke-opacity:1" d="M 81.3232,445.308 96.4106,458.51 z" id="boundary" inkscape:connector-curvature="0" />
	<path style="fill:none;stroke:red;stroke-width:1px;stroke-linecap:butt;stroke-linejoin:miter;stroke-opacity:1" d="M 96.4106,458.51 107.726,473.597 z" id="boundary" inkscape:connector-curvature="0" />
	<path style="fill:none;stroke:red;stroke-width:1px;stroke-linecap:butt;stroke-linejoin:miter;stroke-opacity:1" d="M 107.726,473.597 117.156,490.57 z" id="boundary" inkscape:connector-curvature="0" />
	<path style="fill:none;stroke:red;stroke-width:1px;stroke-linecap:butt;stroke-linejoin:miter;stroke-opacity:1" d="M 117.156,490.57 136.015,496.228 z" id="boundary" inkscape:connector-curvature="0" />
	<path style="fill:none;stroke:red;stroke-width:1px;stroke-linecap:butt;stroke-linejoin:miter;stroke-opacity:1" d="M 136.015,496.228 147.331,511.316 z" id="boundary" inkscape:connector-curvature="0" />
	<path style="fill:none;stroke:red;stroke-width:1px;stroke-linecap:butt;stroke-linejoin:miter;stroke-opacity:1" d="M 147.331,511.316 162.418,524.517 z" id="boundary" inkscape:connector-curvature="0" />
	<path style="fill:none;stroke:red;stroke-width:1px;stroke-linecap:butt;stroke-linejoin:miter;stroke-opacity:1" d="M 162.418,524.517 175.62,539.605 z" id="boundary" inkscape:connector-curvature="0" />
	<path style="fill:none;stroke:red;stroke-width:1px;stroke-linecap:butt;stroke-linejoin:miter;stroke-opacity:1" d="M 175.62,539.605 190.707,552.806 z" id="boundary" inkscape:connector-curvature="0" />
	<path style="fill:none;stroke:red;stroke-width:1px;stroke-linecap:butt;stroke-linejoin:miter;stroke-opacity:1" d="M 190.707,552.806 203.909,567.894 z" id="boundary" inkscape:connector-curvature="0" />
	<path style="fill:none;stroke:red;stroke-width:1px;stroke-linecap:butt;stroke-linejoin:miter;stroke-opacity:1" d="M 203.909,567.894 218.996,581.095 z" id="boundary" inkscape:connector-curvature="0" />
	<path style="fill:none;stroke:red;stroke-width:1px;stroke-linecap:butt;stroke-linejoin:miter;stroke-opacity:1" d="M 218.996,581.095 235.97,590.525 z" id="boundary" inkscape:connector-curvature="0" />
	<path style="fill:none;stroke:red;stroke-width:1px;stroke-linecap:butt;stroke-linejoin:miter;stroke-opacity:1" d="M 235.97,590.525 251.057,603.726 z" id="boundary" inkscape:connector-curvature="0" />
	<path style="fill:none;stroke:red;stroke-width:1px;stroke-linecap:butt;stroke-linejoin:miter;stroke-opacity:1" d="M 251.057,603.726 264.259,618.814 z" id="boundary" inkscape:connector-curvature="0" />
	<path style="fill:none;stroke:red;stroke-width:1px;stroke-linecap:butt;stroke-linejoin:miter;stroke-opacity:1" d="M 264.259,618.814 283.118,626.357 z" id="boundary" inkscape:connector-curvature="0" />
	<path style="fill:none;stroke:red;stroke-width:1px;stroke-linecap:butt;stroke-linejoin:miter;stroke-opacity:1" d="M 283.118,626.357 296.319,641.445 z" id="boundary" inkscape:connector-curvature="0" />
	<path style="fill:none;stroke:red;stroke-width:1px;stroke-linecap:butt;stroke-linejoin:miter;stroke-opacity:1" d="M 296.319,641.445 315.179,647.103 z" id="boundary" inkscape:connector-curvature="0" />
	<path style="fill:none;stroke:red;stroke-width:1px;stroke-linecap:butt;stroke-linejoin:miter;stroke-opacity:1" d="M 315.179,647.103 326.494,662.19 z" id="boundary" inkscape:connector-curvature="0" />
	<path style="fill:none;stroke:red;stroke-width:1px;stroke-linecap:butt;stroke-linejoin:miter;stroke-opacity:1" d="M 326.494,662.19 341.582,675.392 z" id="boundary" inkscape:connector-curvature="0" />
	<path style="fill:none;stroke:red;stroke-width:1px;stroke-linecap:butt;stroke-linejoin:miter;stroke-opacity:1" d="M 341.582,675.392 358.555,684.821 z" id="boundary" inkscape:connector-curvature="0" />
	<path style="fill:none;stroke:red;stroke-width:1px;stroke-linecap:butt;stroke-linejoin:miter;stroke-opacity:1" d="M 358.555,684.821 373.643,698.023 z" id="boundary" inkscape:connector-curvature="0" />
	<path style="fill:none;stroke:red;stroke-width:1px;stroke-linecap:butt;stroke-linejoin:miter;stroke-opacity:1" d="M 373.643,698.023 386.844,713.11 z" id="boundary" inkscape:connector-curvature="0" />
	<path style="fill:none;stroke:red;stroke-width:1px;stroke-linecap:butt;stroke-linejoin:miter;stroke-opacity:1" d="M 386.844,713.11 403.817,722.54 z" id="boundary" inkscape:connector-curvature="0" />
	<path style="fill:none;stroke:red;stroke-width:1px;stroke-linecap:butt;stroke-linejoin:miter;stroke-opacity:1" d="M 403.817,722.54 418.905,733.856 z" id="boundary" inkscape:connector-curvature="0" />
	<path style="fill:none;stroke:red;stroke-width:1px;stroke-linecap:butt;stroke-linejoin:miter;stroke-opacity:1" d="M 418.905,733.856 432.106,748.943 z" id="boundary" inkscape:connector-curvature="0" />
	<path style="fill:none;stroke:red;stroke-width:1px;stroke-linecap:butt;stroke-linejoin:miter;stroke-opacity:1" d="M 432.106,748.943 447.194,760.259 z" id="boundary" inkscape:connector-curvature="0" />
	<path style="fill:none;stroke:red;stroke-width:1px;stroke-linecap:butt;stroke-linejoin:miter;stroke-opacity:1" d="M 447.194,760.259 458.51,775.346 z" id="boundary" inkscape:connector-curvature="0" />
	<path style="fill:none;stroke:red;stroke-width:1px;stroke-linecap:butt;stroke-linejoin:miter;stroke-opacity:1" d="M 458.51,775.346 473.597,788.548 z" id="boundary" inkscape:connector-curvature="0" />
	<path style="fill:none;stroke:red;stroke-width:1px;stroke-linecap:butt;stroke-linejoin:miter;stroke-opacity:1" d="M 473.597,788.548 486.798,803.635 z" id="boundary" inkscape:connector-curvature="0" />
	<path style="fill:none;stroke:red;stroke-width:1px;stroke-linecap:butt;stroke-linejoin:miter;stroke-opacity:1" d="M 486.798,803.635 501.886,816.837 z" id="boundary" inkscape:connector-curvature="0" />
	<path style="fill:none;stroke:red;stroke-width:1px;stroke-linecap:butt;stroke-linejoin:miter;stroke-opacity:1" d="M 501.886,816.837 520.745,816.837 z" id="boundary" inkscape:connector-curvature="0" />
	<path style="fill:none;stroke:red;stroke-width:1px;stroke-linecap:butt;stroke-linejoin:miter;stroke-opacity:1" d="M 520.745,816.837 537.719,805.521 z" id="boundary" inkscape:connector-curvature="0" />
	<path style="fill:none;stroke:red;stroke-width:1px;stroke-linecap:butt;stroke-linejoin:miter;stroke-opacity:1" d="M 4,179.392 13.4297,160.532 z" id="boundary" inkscape:connector-curvature="0" />
	<path style="fill:none;stroke:red;stroke-width:1px;stroke-linecap:butt;stroke-linejoin:miter;stroke-opacity:1" d="M 13.4297,160.532 22.8593,141.673 z" id="boundary" inkscape:connector-curvature="0" />
	<path style="fill:none;stroke:red;stroke-width:1px;stroke-linecap:butt;stroke-linejoin:miter;stroke-opacity:1" d="M 22.8593,141.673 22.8593,122.814 z" id="boundary" inkscape:connector-curvature="0" />
	<path style="fill:none;stroke:red;stroke-width:1px;stroke-linecap:butt;stroke-linejoin:miter;stroke-opacity:1" d="M 22.8593,122.814 32.289,103.954 z" id="boundary" inkscape:connector-curvature="0" />
	<path style="fill:none;stroke:red;stroke-width:1px;stroke-linecap:butt;stroke-linejoin:miter;stroke-opacity:1" d="M 32.289,103.954 47.3764,88.8669 z" id="boundary" inkscape:connector-curvature="0" />
	<path style="fill:none;stroke:red;stroke-width:1px;stroke-linecap:butt;stroke-linejoin:miter;stroke-opacity:1" d="M 537.719,805.521 552.806,788.548 z" id="boundary" inkscape:connector-curvature="0" />
	<path style="fill:none;stroke:red;stroke-width:1px;stroke-linecap:butt;stroke-linejoin:miter;stroke-opacity:1" d="M 552.806,788.548 569.779,779.118 z" id="boundary" inkscape:connector-curvature="0" />
	<path style="fill:none;stroke:red;stroke-width:1px;stroke-linecap:butt;stroke-linejoin:miter;stroke-opacity:1" d="M 569.779,779.118 586.753,769.688 z" id="boundary" inkscape:connector-curvature="0" />
	<path style="fill:none;stroke:red;stroke-width:1px;stroke-linecap:butt;stroke-linejoin:miter;stroke-opacity:1" d="M 586.753,769.688 603.726,760.259 z" id="boundary" inkscape:connector-curvature="0" />
	<path style="fill:none;stroke:red;stroke-width:1px;stroke-linecap:butt;stroke-linejoin:miter;stroke-opacity:1" d="M 603.726,760.259 620.7,750.829 z" id="boundary" inkscape:connector-curvature="0" />
	<path style="fill:none;stroke:red;stroke-width:1px;stroke-linecap:butt;stroke-linejoin:miter;stroke-opacity:1" d="M 620.7,750.829 635.787,735.741 z" id="boundary" inkscape:connector-curvature="0" />
	<path style="fill:none;stroke:red;stroke-width:1px;stroke-linecap:butt;stroke-linejoin:miter;stroke-opacity:1" d="M 635.787,735.741 654.646,726.312 z" id="boundary" inkscape:connector-curvature="0" />
	<path style="fill:none;stroke:red;stroke-width:1px;stroke-linecap:butt;stroke-linejoin:miter;stroke-opacity:1" d="M 654.646,726.312 673.506,716.882 z" id="boundary" inkscape:connector-curvature="0" />
	<path style="fill:none;stroke:red;stroke-width:1px;stroke-linecap:butt;stroke-linejoin:miter;stroke-opacity:1" d="M 673.506,716.882 692.365,707.452 z" id="boundary" inkscape:connector-curvature="0" />
	<path style="fill:none;stroke:red;stroke-width:1px;stroke-linecap:butt;stroke-linejoin:miter;stroke-opacity:1" d="M 692.365,707.452 707.452,694.251 z" id="boundary" inkscape:connector-curvature="0" />
	<path style="fill:none;stroke:red;stroke-width:1px;stroke-linecap:butt;stroke-linejoin:miter;stroke-opacity:1" d="M 707.452,694.251 724.426,684.821 z" id="boundary" inkscape:connector-curvature="0" />
	<path style="fill:none;stroke:red;stroke-width:1px;stroke-linecap:butt;stroke-linejoin:miter;stroke-opacity:1" d="M 724.426,684.821 741.399,675.392 z" id="boundary" inkscape:connector-curvature="0" />
	<path style="fill:none;stroke:red;stroke-width:1px;stroke-linecap:butt;stroke-linejoin:miter;stroke-opacity:1" d="M 741.399,675.392 760.259,665.962 z" id="boundary" inkscape:connector-curvature="0" />
	<path style="fill:none;stroke:red;stroke-width:1px;stroke-linecap:butt;stroke-linejoin:miter;stroke-opacity:1" d="M 760.259,665.962 775.346,652.76 z" id="boundary" inkscape:connector-curvature="0" />
	<path style="fill:none;stroke:red;stroke-width:1px;stroke-linecap:butt;stroke-linejoin:miter;stroke-opacity:1" d="M 775.346,652.76 794.205,643.331 z" id="boundary" inkscape:connector-curvature="0" />
	<path style="fill:none;stroke:red;stroke-width:1px;stroke-linecap:butt;stroke-linejoin:miter;stroke-opacity:1" d="M 47.3764,88.8669 60.5779,66.2357 z" id="boundary" inkscape:connector-curvature="0" />
	<path style="fill:none;stroke:red;stroke-width:1px;stroke-linecap:butt;stroke-linejoin:miter;stroke-opacity:1" d="M 60.5779,66.2357 70.0076,47.3764 z" id="boundary" inkscape:connector-curvature="0" />
	<path style="fill:none;stroke:red;stroke-width:1px;stroke-linecap:butt;stroke-linejoin:miter;stroke-opacity:1" d="M 70.0076,47.3764 88.8669,37.9468 z" id="boundary" inkscape:connector-curvature="0" />
	<path style="fill:none;stroke:red;stroke-width:1px;stroke-linecap:butt;stroke-linejoin:miter;stroke-opacity:1" d="M 88.8669,37.9468 103.954,22.8593 z" id="boundary" inkscape:connector-curvature="0" />
	<path style="fill:none;stroke:red;stroke-width:1px;stroke-linecap:butt;stroke-linejoin:miter;stroke-opacity:1" d="M 103.954,22.8593 120.928,13.4297 z" id="boundary" inkscape:connector-curvature="0" />
	<path style="fill:none;stroke:red;stroke-width:1px;stroke-linecap:butt;stroke-linejoin:miter;stroke-opacity:1" d="M 120.928,13.4297 139.787,13.4297 z" id="boundary" inkscape:connector-curvature="0" />
	<path style="fill:none;stroke:red;stroke-width:1px;stroke-linecap:butt;stroke-linejoin:miter;stroke-opacity:1" d="M 139.787,13.4297 156.76,4 z" id="boundary" inkscape:connector-curvature="0" />
	<path style="fill:none;stroke:red;stroke-width:1px;stroke-linecap:butt;stroke-linejoin:miter;stroke-opacity:1" d="M 156.76,4 175.62,4 z" id="boundary" inkscape:connector-curvature="0" />
	<path style="fill:none;stroke:red;stroke-width:1px;stroke-linecap:butt;stroke-linejoin:miter;stroke-opacity:1" d="M 175.62,4 194.479,4 z" id="boundary" inkscape:connector-curvature="0" />
	<path style="fill:none;stroke:red;stroke-width:1px;stroke-linecap:butt;stroke-linejoin:miter;stroke-opacity:1" d="M 194.479,4 213.338,4 z" id="boundary" inkscape:connector-curvature="0" />
	<path style="fill:none;stroke:red;stroke-width:1px;stroke-linecap:butt;stroke-linejoin:miter;stroke-opacity:1" d="M 213.338,4 232.198,4 z" id="boundary" inkscape:connector-curvature="0" />
	<path style="fill:none;stroke:red;stroke-width:1px;stroke-linecap:butt;stroke-linejoin:miter;stroke-opacity:1" d="M 232.198,4 251.057,4 z" id="boundary" inkscape:connector-curvature="0" />
	<path style="fill:none;stroke:red;stroke-width:1px;stroke-linecap:butt;stroke-linejoin:miter;stroke-opacity:1" d="M 251.057,4 269.916,9.65779 z" id="boundary" inkscape:connector-curvature="0" />
	<path style="fill:none;stroke:red;stroke-width:1px;stroke-linecap:butt;stroke-linejoin:miter;stroke-opacity:1" d="M 269.916,9.65779 286.89,19.0875 z" id="boundary" inkscape:connector-curvature="0" />
	<path style="fill:none;stroke:red;stroke-width:1px;stroke-linecap:butt;stroke-linejoin:miter;stroke-opacity:1" d="M 286.89,19.0875 305.749,26.6312 z" id="boundary" inkscape:connector-curvature="0" />
	<path style="fill:none;stroke:red;stroke-width:1px;stroke-linecap:butt;stroke-linejoin:miter;stroke-opacity:1" d="M 305.749,26.6312 322.722,36.0608 z" id="boundary" inkscape:connector-curvature="0" />
	<path style="fill:none;stroke:red;stroke-width:1px;stroke-linecap:butt;stroke-linejoin:miter;stroke-opacity:1" d="M 322.722,36.0608 341.582,43.6046 z" id="boundary" inkscape:connector-curvature="0" />
	<path style="fill:none;stroke:red;stroke-width:1px;stroke-linecap:butt;stroke-linejoin:miter;stroke-opacity:1" d="M 341.582,43.6046 358.555,53.0342 z" id="boundary" inkscape:connector-curvature="0" />
	<path style="fill:none;stroke:red;stroke-width:1px;stroke-linecap:butt;stroke-linejoin:miter;stroke-opacity:1" d="M 358.555,53.0342 377.414,60.5779 z" id="boundary" inkscape:connector-curvature="0" />
	<path style="fill:none;stroke:red;stroke-width:1px;stroke-linecap:butt;stroke-linejoin:miter;stroke-opacity:1" d="M 377.414,60.5779 394.388,70.0076 z" id="boundary" inkscape:connector-curvature="0" />
	<path style="fill:none;stroke:red;stroke-width:1px;stroke-linecap:butt;stroke-linejoin:miter;stroke-opacity:1" d="M 394.388,70.0076 411.361,79.4373 z" id="boundary" inkscape:connector-curvature="0" />
	<path style="fill:none;stroke:red;stroke-width:1px;stroke-linecap:butt;stroke-linejoin:miter;stroke-opacity:1" d="M 411.361,79.4373 428.335,88.8669 z" id="boundary" inkscape:connector-curvature="0" />
	<path style="fill:none;stroke:red;stroke-width:1px;stroke-linecap:butt;stroke-linejoin:miter;stroke-opacity:1" d="M 428.335,88.8669 447.194,88.8669 z" id="boundary" inkscape:connector-curvature="0" />
	<path style="fill:none;stroke:red;stroke-width:1px;stroke-linecap:butt;stroke-linejoin:miter;stroke-opacity:1" d="M 447.194,88.8669 462.281,100.183 z" id="boundary" inkscape:connector-curvature="0" />
	<path style="fill:none;stroke:red;stroke-width:1px;stroke-linecap:butt;stroke-linejoin:miter;stroke-opacity:1" d="M 462.281,100.183 477.369,113.384 z" id="boundary" inkscape:connector-curvature="0" />
	<path style="fill:none;stroke:red;stroke-width:1px;stroke-linecap:butt;stroke-linejoin:miter;stroke-opacity:1" d="M 477.369,113.384 490.57,128.471 z" id="boundary" inkscape:connector-curvature="0" />
	<path style="fill:none;stroke:red;stroke-width:1px;stroke-linecap:butt;stroke-linejoin:miter;stroke-opacity:1" d="M 490.57,128.471 509.43,136.015 z" id="boundary" inkscape:connector-curvature="0" />
	<path style="fill:none;stroke:red;stroke-width:1px;stroke-linecap:butt;stroke-linejoin:miter;stroke-opacity:1" d="M 509.43,136.015 524.517,120.928 z" id="boundary" inkscape:connector-curvature="0" />
	<path style="fill:none;stroke:red;stroke-width:1px;stroke-linecap:butt;stroke-linejoin:miter;stroke-opacity:1" d="M 524.517,120.928 539.605,107.726 z" id="boundary" inkscape:connector-curvature="0" />
	<path style="fill:none;stroke:red;stroke-width:1px;stroke-linecap:butt;stroke-linejoin:miter;stroke-opacity:1" d="M 539.605,107.726 552.806,92.6388 z" id="boundary" inkscape:connector-curvature="0" />
	<path style="fill:none;stroke:red;stroke-width:1px;stroke-linecap:butt;stroke-linejoin:miter;stroke-opacity:1" d="M 552.806,92.6388 567.894,79.4373 z" id="boundary" inkscape:connector-curvature="0" />
	<path style="fill:none;stroke:red;stroke-width:1px;stroke-linecap:butt;stroke-linejoin:miter;stroke-opacity:1" d="M 567.894,79.4373 584.867,70.0076 z" id="boundary" inkscape:connector-curvature="0" />
	<path style="fill:none;stroke:red;stroke-width:1px;stroke-linecap:butt;stroke-linejoin:miter;stroke-opacity:1" d="M 584.867,70.0076 603.726,70.0076 z" id="boundary" inkscape:connector-curvature="0" />
	<path style="fill:none;stroke:red;stroke-width:1px;stroke-linecap:butt;stroke-linejoin:miter;stroke-opacity:1" d="M 603.726,70.0076 620.7,60.5779 z" id="boundary" inkscape:connector-curvature="0" />
	<path style="fill:none;stroke:red;stroke-width:1px;stroke-linecap:butt;stroke-linejoin:miter;stroke-opacity:1" d="M 620.7,60.5779 639.559,53.0342 z" id="boundary" inkscape:connector-curvature="0" />
	<path style="fill:none;stroke:red;stroke-width:1px;stroke-linecap:butt;stroke-linejoin:miter;stroke-opacity:1" d="M 639.559,53.0342 658.418,51.1483 z" id="boundary" inkscape:connector-curvature="0" />
	<path style="fill:none;stroke:red;stroke-width:1px;stroke-linecap:butt;stroke-linejoin:miter;stroke-opacity:1" d="M 658.418,51.1483 677.278,43.6046 z" id="boundary" inkscape:connector-curvature="0" />
	<path style="fill:none;stroke:red;stroke-width:1px;stroke-linecap:butt;stroke-linejoin:miter;stroke-opacity:1" d="M 677.278,43.6046 696.137,34.1749 z" id="boundary" inkscape:connector-curvature="0" />
	<path style="fill:none;stroke:red;stroke-width:1px;stroke-linecap:butt;stroke-linejoin:miter;stroke-opacity:1" d="M 696.137,34.1749 714.996,24.7452 z" id="boundary" inkscape:connector-curvature="0" />
	<path style="fill:none;stroke:red;stroke-width:1px;stroke-linecap:butt;stroke-linejoin:miter;stroke-opacity:1" d="M 714.996,24.7452 733.856,22.8593 z" id="boundary" inkscape:connector-curvature="0" />
	<path style="fill:none;stroke:red;stroke-width:1px;stroke-linecap:butt;stroke-linejoin:miter;stroke-opacity:1" d="M 733.856,22.8593 752.715,22.8593 z" id="boundary" inkscape:connector-curvature="0" />
	<path style="fill:none;stroke:red;stroke-width:1px;stroke-linecap:butt;stroke-linejoin:miter;stroke-opacity:1" d="M 752.715,22.8593 771.574,22.8593 z" id="boundary" inkscape:connector-curvature="0" />
	<path style="fill:none;stroke:red;stroke-width:1px;stroke-linecap:butt;stroke-linejoin:miter;stroke-opacity:1" d="M 771.574,22.8593 790.433,22.8593 z" id="boundary" inkscape:connector-curvature="0" />
	<path style="fill:none;stroke:red;stroke-width:1px;stroke-linecap:butt;stroke-linejoin:miter;stroke-opacity:1" d="M 790.433,22.8593 807.407,32.289 z" id="boundary" inkscape:connector-curvature="0" />
	<path style="fill:none;stroke:red;stroke-width:1px;stroke-linecap:butt;stroke-linejoin:miter;stroke-opacity:1" d="M 807.407,32.289 826.266,37.9468 z" id="boundary" inkscape:connector-curvature="0" />
	<path style="fill:none;stroke:red;stroke-width:1px;stroke-linecap:butt;stroke-linejoin:miter;stroke-opacity:1" d="M 826.266,37.9468 843.24,47.3764 z" id="boundary" inkscape:connector-curvature="0" />
	<path style="fill:none;stroke:red;stroke-width:1px;stroke-linecap:butt;stroke-linejoin:miter;stroke-opacity:1" d="M 843.24,47.3764 862.099,54.9202 z" id="boundary" inkscape:connector-curvature="0" />
	<path style="fill:none;stroke:red;stroke-width:1px;stroke-linecap:butt;stroke-linejoin:miter;stroke-opacity:1" d="M 862.099,54.9202 879.072,64.3498 z" id="boundary" inkscape:connector-curvature="0" />
	<path style="fill:none;stroke:red;stroke-width:1px;stroke-linecap:butt;stroke-linejoin:miter;stroke-opacity:1" d="M 879.072,64.3498 897.932,71.8935 z" id="boundary" inkscape:connector-curvature="0" />
	<path style="fill:none;stroke:red;stroke-width:1px;stroke-linecap:butt;stroke-linejoin:miter;stroke-opacity:1" d="M 897.932,71.8935 914.905,81.3232 z" id="boundary" inkscape:connector-curvature="0" />
	<path style="fill:none;stroke:red;stroke-width:1px;stroke-linecap:butt;stroke-linejoin:miter;stroke-opacity:1" d="M 914.905,81.3232 924.335,98.2966 z" id="boundary" inkscape:connector-curvature="0" />
	<path style="fill:none;stroke:red;stroke-width:1px;stroke-linecap:butt;stroke-linejoin:miter;stroke-opacity:1" d="M 924.335,98.2966 941.308,107.726 z" id="boundary" inkscape:connector-curvature="0" />
	<path style="fill:none;stroke:red;stroke-width:1px;stroke-linecap:butt;stroke-linejoin:miter;stroke-opacity:1" d="M 941.308,107.726 948.852,126.586 z" id="boundary" inkscape:connector-curvature="0" />
	<path style="fill:none;stroke:red;stroke-width:1px;stroke-linecap:butt;stroke-linejoin:miter;stroke-opacity:1" d="M 948.852,126.586 958.281,143.559 z" id="boundary" inkscape:connector-curvature="0" />
	<path style="fill:none;stroke:red;stroke-width:1px;stroke-linecap:butt;stroke-linejoin:miter;stroke-opacity:1" d="M 958.281,143.559 967.711,160.532 z" id="boundary" inkscape:connector-curvature="0" />
	<path style="fill:none;stroke:red;stroke-width:1px;stroke-linecap:butt;stroke-linejoin:miter;stroke-opacity:1" d="M 967.711,160.532 977.141,177.506 z" id="boundary" inkscape:connector-curvature="0" />
	<path style="fill:none;stroke:red;stroke-width:1px;stroke-linecap:butt;stroke-linejoin:miter;stroke-opacity:1" d="M 977.141,177.506 986.57,194.479 z" id="boundary" inkscape:connector-curvature="0" />
	<path style="fill:none;stroke:red;stroke-width:1px;stroke-linecap:butt;stroke-linejoin:miter;stroke-opacity:1" d="M 986.57,194.479 996,211.452 z" id="boundary" inkscape:connector-curvature="0" />
	<path style="fill:none;stroke:red;stroke-width:1px;stroke-linecap:butt;stroke-linejoin:miter;stroke-opacity:1" d="M 996,211.452 996,230.312 z" id="boundary" inkscape:connector-curvature="0" />
	<path style="fill:none;stroke:red;stroke-width:1px;stroke-linecap:butt;stroke-linejoin:miter;stroke-opacity:1" d="M 996,230.312 996,249.171 z" id="boundary" inkscape:connector-curvature="0" />
	<path style="fill:none;stroke:red;stroke-width:1px;stroke-linecap:butt;stroke-linejoin:miter;stroke-opacity:1" d="M 996,249.171 996,268.03 z" id="boundary" inkscape:connector-curvature="0" />
	<path style="fill:none;stroke:red;stroke-width:1px;stroke-linecap:butt;stroke-linejoin:miter;stroke-opacity:1" d="M 996,268.03 996,286.89 z" id="boundary" inkscape:connector-curvature="0" />
	<path style="fill:none;stroke:red;stroke-width:1px;stroke-linecap:butt;stroke-linejoin:miter;stroke-opacity:1" d="M 996,286.89 996,305.749 z" id="boundary" inkscape:connector-curvature="0" />
	<path style="fill:none;stroke:red;stroke-width:1px;stroke-linecap:butt;stroke-linejoin:miter;stroke-opacity:1" d="M 996,305.749 996,324.608 z" id="boundary" inkscape:connector-curvature="0" />
	<path style="fill:none;stroke:red;stroke-width:1px;stroke-linecap:butt;stroke-linejoin:miter;stroke-opacity:1" d="M 996,324.608 996,343.468 z" id="boundary" inkscape:connector-curvature="0" />
	<path style="fill:none;stroke:red;stroke-width:1px;stroke-linecap:butt;stroke-linejoin:miter;stroke-opacity:1" d="M 996,343.468 986.57,364.213 z" id="boundary" inkscape:connector-curvature="0" />
	<path style="fill:none;stroke:red;stroke-width:1px;stroke-linecap:butt;stroke-linejoin:miter;stroke-opacity:1" d="M 794.205,643.331 807.407,618.814 z" id="boundary" inkscape:connector-curvature="0" />
	<path style="fill:none;stroke:red;stroke-width:1px;stroke-linecap:butt;stroke-linejoin:miter;stroke-opacity:1" d="M 807.407,618.814 826.266,609.384 z" id="boundary" inkscape:connector-curvature="0" />
	<path style="fill:none;stroke:red;stroke-width:1px;stroke-linecap:butt;stroke-linejoin:miter;stroke-opacity:1" d="M 826.266,609.384 841.354,596.183 z" id="boundary" inkscape:connector-curvature="0" />
	<path style="fill:none;stroke:red;stroke-width:1px;stroke-linecap:butt;stroke-linejoin:miter;stroke-opacity:1" d="M 841.354,596.183 854.555,581.095 z" id="boundary" inkscape:connector-curvature="0" />
	<path style="fill:none;stroke:red;stroke-width:1px;stroke-linecap:butt;stroke-linejoin:miter;stroke-opacity:1" d="M 854.555,581.095 869.643,567.894 z" id="boundary" inkscape:connector-curvature="0" />
	<path style="fill:none;stroke:red;stroke-width:1px;stroke-linecap:butt;stroke-linejoin:miter;stroke-opacity:1" d="M 869.643,567.894 882.844,543.376 z" id="boundary" inkscape:connector-curvature="0" />
	<path style="fill:none;stroke:red;stroke-width:1px;stroke-linecap:butt;stroke-linejoin:miter;stroke-opacity:1" d="M 882.844,543.376 901.703,533.947 z" id="boundary" inkscape:connector-curvature="0" />
	<path style="fill:none;stroke:red;stroke-width:1px;stroke-linecap:butt;stroke-linejoin:miter;stroke-opacity:1" d="M 901.703,533.947 911.133,515.087 z" id="boundary" inkscape:connector-curvature="0" />
	<path style="fill:none;stroke:red;stroke-width:1px;stroke-linecap:butt;stroke-linejoin:miter;stroke-opacity:1" d="M 911.133,515.087 926.221,501.886 z" id="boundary" inkscape:connector-curvature="0" />
	<path style="fill:none;stroke:red;stroke-width:1px;stroke-linecap:butt;stroke-linejoin:miter;stroke-opacity:1" d="M 926.221,501.886 939.422,477.369 z" id="boundary" inkscape:connector-curvature="0" />
	<path style="fill:none;stroke:red;stroke-width:1px;stroke-linecap:butt;stroke-linejoin:miter;stroke-opacity:1" d="M 939.422,477.369 954.51,464.167 z" id="boundary" inkscape:connector-curvature="0" />
	<path style="fill:none;stroke:red;stroke-width:1px;stroke-linecap:butt;stroke-linejoin:miter;stroke-opacity:1" d="M 954.51,464.167 963.939,445.308 z" id="boundary" inkscape:connector-curvature="0" />
	<path style="fill:none;stroke:red;stroke-width:1px;stroke-linecap:butt;stroke-linejoin:miter;stroke-opacity:1" d="M 963.939,445.308 973.369,426.449 z" id="boundary" inkscape:connector-curvature="0" />
	<path style="fill:none;stroke:red;stroke-width:1px;stroke-linecap:butt;stroke-linejoin:miter;stroke-opacity:1" d="M 986.57,364.213 977.141,392.502 z" id="boundary" inkscape:connector-curvature="0" />
	<path style="fill:none;stroke:red;stroke-width:1px;stroke-linecap:butt;stroke-linejoin:miter;stroke-opacity:1" d="M 977.141,392.502 973.369,426.449 z" id="boundary" inkscape:connector-curvature="0" />
	<circle cx="4" cy="179.392" r="4" fill="#0" id="circle0"/>
	<circle cx="4" cy="198.251" r="4" fill="#0" id="circle1"/>
	<circle cx="4" cy="217.11" r="4" fill="#0" id="circle2"/>
	<circle cx="4" cy="235.97" r="4" fill="#0" id="circle3"/>
	<circle cx="4" cy="254.829" r="4" fill="#0" id="circle4"/>
	<circle cx="4" cy="273.688" r="4" fill="#0" id="circle5"/>
	<circle cx="4" cy="292.548" r="4" fill="#0" id="circle6"/>
	<circle cx="13.4297" cy="160.532" r="4" fill="#0" id="circle7"/>
	<circle cx="13.4297" cy="309.521" r="4" fill="#0" id="circle8"/>
	<circle cx="13.4297" cy="328.38" r="4" fill="#0" id="circle9"/>
	<circle cx="22.8593" cy="122.814" r="4" fill="#0" id="circle10"/>
	<circle cx="22.8593" cy="141.673" r="4" fill="#0" id="circle11"/>
	<circle cx="22.8593" cy="345.354" r="4" fill="#0" id="circle12"/>
	<circle cx="28.5171" cy="364.213" r="4" fill="#0" id="circle13"/>
	<circle cx="32.289" cy="103.954" r="4" fill="#0" id="circle14"/>
	<circle cx="37.9468" cy="381.186" r="4" fill="#0" id="circle15"/>
	<circle cx="45.4905" cy="400.046" r="4" fill="#0" id="circle16"/>
	<circle cx="47.3764" cy="88.8669" r="4" fill="#0" id="circle17"/>
	<circle cx="54.9202" cy="417.019" r="4" fill="#0" id="circle18"/>
	<circle cx="60.5779" cy="66.2357" r="4" fill="#0" id="circle19"/>
	<circle cx="70.0076" cy="47.3764" r="4" fill="#0" id="circle20"/>
	<circle cx="70.0076" cy="430.221" r="4" fill="#0" id="circle21"/>
	<circle cx="81.3232" cy="445.308" r="4" fill="#0" id="circle22"/>
	<circle cx="88.8669" cy="37.9468" r="4" fill="#0" id="circle23"/>
	<circle cx="96.4106" cy="458.51" r="4" fill="#0" id="circle24"/>
	<circle cx="103.954" cy="22.8593" r="4" fill="#0" id="circle25"/>
	<circle cx="107.726" cy="473.597" r="4" fill="#0" id="circle26"/>
	<circle cx="117.156" cy="490.57" r="4" fill="#0" id="circle27"/>
	<circle cx="120.928" cy="13.4297" r="4" fill="#0" id="circle28"/>
	<circle cx="136.015" cy="496.228" r="4" fill="#0" id="circle29"/>
	<circle cx="139.787" cy="13.4297" r="4" fill="#0" id="circle30"/>
	<circle cx="147.331" cy="511.316" r="4" fill="#0" id="circle31"/>
	<circle cx="156.76" cy="4" r="4" fill="#0" id="circle32"/>
	<circle cx="162.418" cy="524.517" r="4" fill="#0" id="circle33"/>
	<circle cx="175.62" cy="4" r="4" fill="#0" id="circle34"/>
	<circle cx="175.62" cy="539.605" r="4" fill="#0" id="circle35"/>
	<circle cx="190.707" cy="552.806" r="4" fill="#0" id="circle36"/>
	<circle cx="194.479" cy="4" r="4" fill="#0" id="circle37"/>
	<circle cx="203.909" cy="567.894" r="4" fill="#0" id="circle38"/>
	<circle cx="213.338" cy="4" r="4" fill="#0" id="circle39"/>
	<circle cx="218.996" cy="581.095" r="4" fill="#0" id="circle40"/>
	<circle cx="232.198" cy="4" r="4" fill="#0" id="circle41"/>
	<circle cx="235.97" cy="590.525" r="4" fill="#0" id="circle42"/>
	<circle cx="251.057" cy="4" r="4" fill="#0" id="circle43"/>
	<circle cx="251.057" cy="603.726" r="4" fill="#0" id="circle44"/>
	<circle cx="264.259" cy="618.814" r="4" fill="#0" id="circle45"/>
	<circle cx="269.916" cy="9.65779" r="4" fill="#0" id="circle46"/>
	<circle cx="283.118" cy="626.357" r="4" fill="#0" id="circle47"/>
	<circle cx="286.89" cy="19.0875" r="4" fill="#0" id="circle48"/>
	<circle cx="296.319" cy="641.445" r="4" fill="#0" id="circle49"/>
	<circle cx="305.749" cy="26.6312" r="4" fill="#0" id="circle50"/>
	<circle cx="315.179" cy="647.103" r="4" fill="#0" id="circle51"/>
	<circle cx="322.722" cy="36.0608" r="4" fill="#0" id="circle52"/>
	<circle cx="326.494" cy="662.19" r="4" fill="#0" id="circle53"/>
	<circle cx="341.582" cy="43.6046" r="4" fill="#0" id="circle54"/>
	<circle cx="341.582" cy="675.392" r="4" fill="#0" id="circle55"/>
	<circle cx="358.555" cy="53.0342" r="4" fill="#0" id="circle56"/>
	<circle cx="358.555" cy="684.821" r="4" fill="#0" id="circle57"/>
	<circle cx="373.643" cy="698.023" r="4" fill="#0" id="circle58"/>
	<circle cx="377.414" cy="60.5779" r="4" fill="#0" id="circle59"/>
	<circle cx="386.844" cy="713.11" r="4" fill="#0" id="circle60"/>
	<circle cx="394.388" cy="70.0076" r="4" fill="#0" id="circle61"/>
	<circle cx="403.817" cy="722.54" r="4" fill="#0" id="circle62"/>
	<circle cx="411.361" cy="79.4373" r="4" fill="#0" id="circle63"/>
	<circle cx="418.905" cy="733.856" r="4" fill="#0" id="circle64"/>
	<circle cx="428.335" cy="88.8669" r="4" fill="#0" id="circle65"/>
	<circle cx="432.106" cy="748.943" r="4" fill="#0" id="circle66"/>
	<circle cx="447.194" cy="88.8669" r="4" fill="#0" id="circle67"/>
	<circle cx="447.194" cy="760.259" r="4" fill="#0" id="circle68"/>
	<circle cx="458.51" cy="775.346" r="4" fill="#0" id="circle69"/>
	<circle cx="462.281" cy="100.183" r="4" fill="#0" id="circle70"/>
	<circle cx="473.597" cy="788.548" r="4" fill="#0" id="circle71"/>
	<circle cx="477.369" cy="113.384" r="4" fill="#0" id="circle72"/>
	<circle cx="486.798" cy="803.635" r="4" fill="#0" id="circle73"/>
	<circle cx="490.57" cy="128.471" r="4" fill="#0" id="circle74"/>
	<circle cx="501.886" cy="816.837" r="4" fill="#0" id="circle75"/>
	<circle cx="509.43" cy="136.015" r="4" fill="#0" id="circle76"/>
	<circle cx="520.745" cy="816.837" r="4" fill="#0" id="circle77"/>
	<circle cx="524.517" cy="120.928" r="4" fill="#0" id="circle78"/>
	<circle cx="537.719" cy="805.521" r="4" fill="#0" id="circle79"/>
	<circle cx="539.605" cy="107.726" r="4" fill="#0" id="circle80"/>
	<circle cx="552.806" cy="92.6388" r="4" fill="#0" id="circle81"/>
	<circle cx="552.806" cy="788.548" r="4" fill="#0" id="circle82"/>
	<circle cx="567.894" cy="79.4373" r="4" fill="#0" id="circle83"/>
	<circle cx="569.779" cy="779.118" r="4" fill="#0" id="circle84"/>
	<circle cx="584.867" cy="70.0076" r="4" fill="#0" id="circle85"/>
	<circle cx="586.753" cy="769.688" r="4" fill="#0" id="circle86"/>
	<circle cx="603.726" cy="70.0076" r="4" fill="#0" id="circle87"/>
	<circle cx="603.726" cy="760.259" r="4" fill="#0" id="circle88"/>
	<circle cx="620.7" cy="60.5779" r="4" fill="#0" id="circle89"/>
	<circle cx="620.7" cy="750.829" r="4" fill="#0" id="circle90"/>
	<circle cx="635.787" cy="735.741" r="4" fill="#0" id="circle91"/>
	<circle cx="639.559" cy="53.0342" r="4" fill="#0" id="circle92"/>
	<circle cx="654.646" cy="726.312" r="4" fill="#0" id="circle93"/>
	<circle cx="658.418" cy="51.1483" r="4" fill="#0" id="circle94"/>
	<circle cx="673.506" cy="716.882" r="4" fill="#0" id="circle95"/>
	<circle cx="677.278" cy="43.6046" r="4" fill="#0" id="circle96"/>
	<circle cx="692.365" cy="707.452" r="4" fill="#0" id="circle97"/>
	<circle cx="696.137" cy="34.1749" r="4" fill="#0" id="circle98"/>
	<circle cx="707.452" cy="694.251" r="4" fill="#0" id="circle99"/>
	<circle cx="714.996" cy="24.7452" r="4" fill="#0" id="circle100"/>
	<circle cx="724.426" cy="684.821" r="4" fill="#0" id="circle101"/>
	<circle cx="733.856" cy="22.8593" r="4" fill="#0" id="circle102"/>
	<circle cx="741.399" cy="675.392" r="4" fill="#0" id="circle103"/>
	<circle cx="752.715" cy="22.8593" r="4" fill="#0" id="circle104"/>
	<circle cx="760.259" cy="665.962" r="4" fill="#0" id="circle105"/>
	<circle cx="771.574" cy="22.8593" r="4" fill="#0" id="circle106"/>
	<circle cx="775.346" cy="652.76" r="4" fill="#0" id="circle107"/>
	<circle cx="790.433" cy="22.8593" r="4" fill="#0" id="circle108"/>
	<circle cx="794.205" cy="643.331" r="4" fill="#0" id="circle109"/>
	<circle cx="807.407" cy="32.289" r="4" fill="#0" id="circle110"/>
	<circle cx="807.407" cy="618.814" r="4" fill="#0" id="circle111"/>
	<circle cx="826.266" cy="37.9468" r="4" fill="#0" id="circle112"/>
	<circle cx="826.266" cy="609.384" r="4" fill="#0" id="circle113"/>
	<circle cx="841.354" cy="596.183" r="4" fill="#0" id="circle114"/>
	<circle cx="843.24" cy="47.3764" r="4" fill="#0" id="circle115"/>
	<circle cx="854.555" cy="581.095" r="4" fill="#0" id="circle116"/>
	<circle cx="862.099" cy="54.9202" r="4" fill="#0" id="circle117"/>
	<circle cx="869.643" cy="567.894" r="4" fill="#0" id="circle118"/>
	<circle cx="879.072" cy="64.3498" r="4" fill="#0" id="circle119"/>
	<circle cx="882.844" cy="543.376" r="4" fill="#0" id="circle120"/>
	<circle cx="897.932" cy="71.8935" r="4" fill="#0" id="circle121"/>
	<circle cx="901.703" cy="533.947" r="4" fill="#0" id="circle122"/>
	<circle cx="911.133" cy="515.087" r="4" fill="#0" id="circle123"/>
	<circle cx="914.905" cy="81.3232" r="4" fill="#0" id="circle124"/>
	<circle cx="924.335" cy="98.2966" r="4" fill="#0" id="circle125"/>
	<circle cx="926.221" cy="501.886" r="4" fill="#0" id="circle126"/>
	<circle cx="939.422" cy="477.369" r="4" fill="#0" id="circle127"/>
	<circle cx="941.308" cy="107.726" r="4" fill="#0" id="circle128"/>
	<circle cx="948.852" cy="126.586" r="4" fill="#0" id="circle129"/>
	<circle cx="954.51" cy="464.167" r="4" fill="#0" id="circle130"/>
	<circle cx="958.281" cy="143.559" r="4" fill="#0" id="circle131"/>
	<circle cx="963.939" cy="445.308" r="4" fill="#0" id="circle132"/>
	<circle cx="967.711" cy="160.532" r="4" fill="#0" id="circle133"/>
	<circle cx="973.369" cy="426.449" r="4" fill="#0" id="circle134"/>
	<circle cx="977.141" cy="177.506" r="4" fill="#0" id="circle135"/>
	<circle cx="977.141" cy="392.502" r="4" fill="#0" id="circle136"/>
	<circle cx="986.57" cy="194.479" r="4" fill="#0" id="circle137"/>
	<circle cx="986.57" cy="364.213" r="4" fill="#0" id="circle138"/>
	<circle cx="996" cy="211.452" r="4" fill="#0" id="circle139"/>
	<circle cx="996" cy="230.312" r="4" fill="#0" id="circle140"/>
	<circle cx="996" cy="249.171" r="4" fill="#0" id="circle141"/>
	<circle cx="996" cy="268.03" r="4" fill="#0" id="circle142"/>
	<circle cx="996" cy="286.89" r="4" fill="#0" id="circle143"/>
	<circle cx="996" cy="305.749" r="4" fill="#0" id="circle144"/>
	<circle cx="996" cy="324.608" r="4" fill="#0" id="circle145"/>
	<circle cx="996" cy="343.468" r="4" fill="#0" id="circle146"/>
	</g>
</svg>