<?xml version="1.0" encoding="UTF-8" standalone="no"?>
<!-- Created with CurveBenchmark -->
<svg
	xmlns:dc="http://purl.org/dc/elements/1.1/"
	xmlns:cc="http://creativecommons.org/ns#"
	xmlns:rdf="http://www.w3.org/1999/02/22-rdf-syntax-ns#"
	xmlns:svg="http://www.w3.org/2000/svg"
	xmlns="http://www.w3.org/2000/svg"
	xmlns:sodipodi="http://sodipodi.sourceforge.net/DTD/sodipodi-0.dtd"
	xmlns:inkscape="http://www.inkscape.org/namespaces/inkscape"
	width="1000"
	height="1000"
	id="svg2"
	version="1.1"
	sodipodi:docname="manifold/crust-fish-10.png.txt">
<defs
	id="defs4" />
<metadata
	id="metadata7">
	<rdf:RDF>
		<cc:Work
			rdf:about="">
			<dc:format>image/svg+xml</dc:format>
			<dc:type
				rdf:resource="http://purl.org/dc/dcmitype/StillImage" />
			<dc:title></dc:title>
		</cc:Work>
	</rdf:RDF>
</metadata>
<g
	inkscape:label="Layer 1"
	inkscape:groupmode="layer"
	id="layer1">
	<path style="fill:none;stroke:red;stroke-width:1px;stroke-linecap:butt;stroke-linejoin:miter;stroke-opacity:1" d="M 67.3804,90.4279 57.7773,92.3485 z" id="boundary" inkscape:connector-curvature="0" />
	<path style="fill:none;stroke:red;stroke-width:1px;stroke-linecap:butt;stroke-linejoin:miter;stroke-opacity:1" d="M 75.0629,96.1897 67.3804,90.4279 z" id="boundary" inkscape:connector-curvature="0" />
	<path style="fill:none;stroke:red;stroke-width:1px;stroke-linecap:butt;stroke-linejoin:miter;stroke-opacity:1" d="M 172.054,88.5073 179.737,80.8248 z" id="boundary" inkscape:connector-curvature="0" />
	<path style="fill:none;stroke:red;stroke-width:1px;stroke-linecap:butt;stroke-linejoin:miter;stroke-opacity:1" d="M 179.737,80.8248 189.34,76.0232 z" id="boundary" inkscape:connector-curvature="0" />
	<path style="fill:none;stroke:red;stroke-width:1px;stroke-linecap:butt;stroke-linejoin:miter;stroke-opacity:1" d="M 284.41,43.3727 274.807,48.1742 z" id="boundary" inkscape:connector-curvature="0" />
	<path style="fill:none;stroke:red;stroke-width:1px;stroke-linecap:butt;stroke-linejoin:miter;stroke-opacity:1" d="M 274.807,48.1742 265.204,52.9758 z" id="boundary" inkscape:connector-curvature="0" />
	<path style="fill:none;stroke:red;stroke-width:1px;stroke-linecap:butt;stroke-linejoin:miter;stroke-opacity:1" d="M 312.259,37.6108 303.617,42.4124 z" id="boundary" inkscape:connector-curvature="0" />
	<path style="fill:none;stroke:red;stroke-width:1px;stroke-linecap:butt;stroke-linejoin:miter;stroke-opacity:1" d="M 284.41,43.3727 294.014,42.4124 z" id="boundary" inkscape:connector-curvature="0" />
	<path style="fill:none;stroke:red;stroke-width:1px;stroke-linecap:butt;stroke-linejoin:miter;stroke-opacity:1" d="M 303.617,42.4124 294.014,42.4124 z" id="boundary" inkscape:connector-curvature="0" />
	<path style="fill:none;stroke:red;stroke-width:1px;stroke-linecap:butt;stroke-linejoin:miter;stroke-opacity:1" d="M 218.149,66.4201 208.546,71.2217 z" id="boundary" inkscape:connector-curvature="0" />
	<path style="fill:none;stroke:red;stroke-width:1px;stroke-linecap:butt;stroke-linejoin:miter;stroke-opacity:1" d="M 198.943,71.2217 208.546,71.2217 z" id="boundary" inkscape:connector-curvature="0" />
	<path style="fill:none;stroke:red;stroke-width:1px;stroke-linecap:butt;stroke-linejoin:miter;stroke-opacity:1" d="M 189.34,76.0232 198.943,71.2217 z" id="boundary" inkscape:connector-curvature="0" />
	<path style="fill:none;stroke:red;stroke-width:1px;stroke-linecap:butt;stroke-linejoin:miter;stroke-opacity:1" d="M 218.149,66.4201 227.752,66.4201 z" id="boundary" inkscape:connector-curvature="0" />
	<path style="fill:none;stroke:red;stroke-width:1px;stroke-linecap:butt;stroke-linejoin:miter;stroke-opacity:1" d="M 255.601,56.817 245.998,57.7773 z" id="boundary" inkscape:connector-curvature="0" />
	<path style="fill:none;stroke:red;stroke-width:1px;stroke-linecap:butt;stroke-linejoin:miter;stroke-opacity:1" d="M 245.998,57.7773 236.395,61.6186 z" id="boundary" inkscape:connector-curvature="0" />
	<path style="fill:none;stroke:red;stroke-width:1px;stroke-linecap:butt;stroke-linejoin:miter;stroke-opacity:1" d="M 255.601,56.817 265.204,52.9758 z" id="boundary" inkscape:connector-curvature="0" />
	<path style="fill:none;stroke:red;stroke-width:1px;stroke-linecap:butt;stroke-linejoin:miter;stroke-opacity:1" d="M 227.752,66.4201 236.395,61.6186 z" id="boundary" inkscape:connector-curvature="0" />
	<path style="fill:none;stroke:red;stroke-width:1px;stroke-linecap:butt;stroke-linejoin:miter;stroke-opacity:1" d="M 51.0552,100.031 41.4521,100.031 z" id="boundary" inkscape:connector-curvature="0" />
	<path style="fill:none;stroke:red;stroke-width:1px;stroke-linecap:butt;stroke-linejoin:miter;stroke-opacity:1" d="M 57.7773,92.3485 51.0552,100.031 z" id="boundary" inkscape:connector-curvature="0" />
	<path style="fill:none;stroke:red;stroke-width:1px;stroke-linecap:butt;stroke-linejoin:miter;stroke-opacity:1" d="M 33.7696,106.753 41.4521,100.031 z" id="boundary" inkscape:connector-curvature="0" />
	<path style="fill:none;stroke:red;stroke-width:1px;stroke-linecap:butt;stroke-linejoin:miter;stroke-opacity:1" d="M 33.7696,106.753 24.1665,111.555 z" id="boundary" inkscape:connector-curvature="0" />
	<path style="fill:none;stroke:red;stroke-width:1px;stroke-linecap:butt;stroke-linejoin:miter;stroke-opacity:1" d="M 84.666,100.031 75.0629,96.1897 z" id="boundary" inkscape:connector-curvature="0" />
	<path style="fill:none;stroke:red;stroke-width:1px;stroke-linecap:butt;stroke-linejoin:miter;stroke-opacity:1" d="M 94.2691,100.991 84.666,100.031 z" id="boundary" inkscape:connector-curvature="0" />
	<path style="fill:none;stroke:red;stroke-width:1px;stroke-linecap:butt;stroke-linejoin:miter;stroke-opacity:1" d="M 103.872,104.833 94.2691,100.991 z" id="boundary" inkscape:connector-curvature="0" />
	<path style="fill:none;stroke:red;stroke-width:1px;stroke-linecap:butt;stroke-linejoin:miter;stroke-opacity:1" d="M 112.515,109.634 103.872,104.833 z" id="boundary" inkscape:connector-curvature="0" />
	<path style="fill:none;stroke:red;stroke-width:1px;stroke-linecap:butt;stroke-linejoin:miter;stroke-opacity:1" d="M 16.484,119.237 24.1665,111.555 z" id="boundary" inkscape:connector-curvature="0" />
	<path style="fill:none;stroke:red;stroke-width:1px;stroke-linecap:butt;stroke-linejoin:miter;stroke-opacity:1" d="M 4,136.523 8.80155,126.92 z" id="boundary" inkscape:connector-curvature="0" />
	<path style="fill:none;stroke:red;stroke-width:1px;stroke-linecap:butt;stroke-linejoin:miter;stroke-opacity:1" d="M 8.80155,126.92 16.484,119.237 z" id="boundary" inkscape:connector-curvature="0" />
	<path style="fill:none;stroke:red;stroke-width:1px;stroke-linecap:butt;stroke-linejoin:miter;stroke-opacity:1" d="M 122.118,109.634 112.515,109.634 z" id="boundary" inkscape:connector-curvature="0" />
	<path style="fill:none;stroke:red;stroke-width:1px;stroke-linecap:butt;stroke-linejoin:miter;stroke-opacity:1" d="M 122.118,109.634 130.761,114.436 z" id="boundary" inkscape:connector-curvature="0" />
	<path style="fill:none;stroke:red;stroke-width:1px;stroke-linecap:butt;stroke-linejoin:miter;stroke-opacity:1" d="M 172.054,88.5073 167.253,102.912 z" id="boundary" inkscape:connector-curvature="0" />
	<path style="fill:none;stroke:red;stroke-width:1px;stroke-linecap:butt;stroke-linejoin:miter;stroke-opacity:1" d="M 140.364,114.436 130.761,114.436 z" id="boundary" inkscape:connector-curvature="0" />
	<path style="fill:none;stroke:red;stroke-width:1px;stroke-linecap:butt;stroke-linejoin:miter;stroke-opacity:1" d="M 149.967,114.436 140.364,114.436 z" id="boundary" inkscape:connector-curvature="0" />
	<path style="fill:none;stroke:red;stroke-width:1px;stroke-linecap:butt;stroke-linejoin:miter;stroke-opacity:1" d="M 167.253,102.912 159.57,115.396 z" id="boundary" inkscape:connector-curvature="0" />
	<path style="fill:none;stroke:red;stroke-width:1px;stroke-linecap:butt;stroke-linejoin:miter;stroke-opacity:1" d="M 159.57,115.396 149.967,114.436 z" id="boundary" inkscape:connector-curvature="0" />
	<path style="fill:none;stroke:red;stroke-width:1px;stroke-linecap:butt;stroke-linejoin:miter;stroke-opacity:1" d="M 435.179,18.4046 425.576,18.4046 z" id="boundary" inkscape:connector-curvature="0" />
	<path style="fill:none;stroke:red;stroke-width:1px;stroke-linecap:butt;stroke-linejoin:miter;stroke-opacity:1" d="M 416.933,23.2062 425.576,18.4046 z" id="boundary" inkscape:connector-curvature="0" />
	<path style="fill:none;stroke:red;stroke-width:1px;stroke-linecap:butt;stroke-linejoin:miter;stroke-opacity:1" d="M 444.782,18.4046 435.179,18.4046 z" id="boundary" inkscape:connector-curvature="0" />
	<path style="fill:none;stroke:red;stroke-width:1px;stroke-linecap:butt;stroke-linejoin:miter;stroke-opacity:1" d="M 350.672,29.9284 360.275,28.0077 z" id="boundary" inkscape:connector-curvature="0" />
	<path style="fill:none;stroke:red;stroke-width:1px;stroke-linecap:butt;stroke-linejoin:miter;stroke-opacity:1" d="M 369.878,28.0077 360.275,28.0077 z" id="boundary" inkscape:connector-curvature="0" />
	<path style="fill:none;stroke:red;stroke-width:1px;stroke-linecap:butt;stroke-linejoin:miter;stroke-opacity:1" d="M 341.069,32.8093 331.466,34.7299 z" id="boundary" inkscape:connector-curvature="0" />
	<path style="fill:none;stroke:red;stroke-width:1px;stroke-linecap:butt;stroke-linejoin:miter;stroke-opacity:1" d="M 350.672,29.9284 341.069,32.8093 z" id="boundary" inkscape:connector-curvature="0" />
	<path style="fill:none;stroke:red;stroke-width:1px;stroke-linecap:butt;stroke-linejoin:miter;stroke-opacity:1" d="M 397.727,23.2062 388.124,23.2062 z" id="boundary" inkscape:connector-curvature="0" />
	<path style="fill:none;stroke:red;stroke-width:1px;stroke-linecap:butt;stroke-linejoin:miter;stroke-opacity:1" d="M 407.33,23.2062 397.727,23.2062 z" id="boundary" inkscape:connector-curvature="0" />
	<path style="fill:none;stroke:red;stroke-width:1px;stroke-linecap:butt;stroke-linejoin:miter;stroke-opacity:1" d="M 379.481,28.0077 388.124,23.2062 z" id="boundary" inkscape:connector-curvature="0" />
	<path style="fill:none;stroke:red;stroke-width:1px;stroke-linecap:butt;stroke-linejoin:miter;stroke-opacity:1" d="M 416.933,23.2062 407.33,23.2062 z" id="boundary" inkscape:connector-curvature="0" />
	<path style="fill:none;stroke:red;stroke-width:1px;stroke-linecap:butt;stroke-linejoin:miter;stroke-opacity:1" d="M 369.878,28.0077 379.481,28.0077 z" id="boundary" inkscape:connector-curvature="0" />
	<path style="fill:none;stroke:red;stroke-width:1px;stroke-linecap:butt;stroke-linejoin:miter;stroke-opacity:1" d="M 331.466,34.7299 321.863,37.6108 z" id="boundary" inkscape:connector-curvature="0" />
	<path style="fill:none;stroke:red;stroke-width:1px;stroke-linecap:butt;stroke-linejoin:miter;stroke-opacity:1" d="M 520.647,8.80155 511.044,8.80155 z" id="boundary" inkscape:connector-curvature="0" />
	<path style="fill:none;stroke:red;stroke-width:1px;stroke-linecap:butt;stroke-linejoin:miter;stroke-opacity:1" d="M 530.25,8.80155 520.647,8.80155 z" id="boundary" inkscape:connector-curvature="0" />
	<path style="fill:none;stroke:red;stroke-width:1px;stroke-linecap:butt;stroke-linejoin:miter;stroke-opacity:1" d="M 559.059,4 549.456,8.80155 z" id="boundary" inkscape:connector-curvature="0" />
	<path style="fill:none;stroke:red;stroke-width:1px;stroke-linecap:butt;stroke-linejoin:miter;stroke-opacity:1" d="M 511.044,8.80155 501.44,13.6031 z" id="boundary" inkscape:connector-curvature="0" />
	<path style="fill:none;stroke:red;stroke-width:1px;stroke-linecap:butt;stroke-linejoin:miter;stroke-opacity:1" d="M 463.028,13.6031 472.631,13.6031 z" id="boundary" inkscape:connector-curvature="0" />
	<path style="fill:none;stroke:red;stroke-width:1px;stroke-linecap:butt;stroke-linejoin:miter;stroke-opacity:1" d="M 454.385,18.4046 463.028,13.6031 z" id="boundary" inkscape:connector-curvature="0" />
	<path style="fill:none;stroke:red;stroke-width:1px;stroke-linecap:butt;stroke-linejoin:miter;stroke-opacity:1" d="M 472.631,13.6031 482.234,13.6031 z" id="boundary" inkscape:connector-curvature="0" />
	<path style="fill:none;stroke:red;stroke-width:1px;stroke-linecap:butt;stroke-linejoin:miter;stroke-opacity:1" d="M 482.234,13.6031 491.837,13.6031 z" id="boundary" inkscape:connector-curvature="0" />
	<path style="fill:none;stroke:red;stroke-width:1px;stroke-linecap:butt;stroke-linejoin:miter;stroke-opacity:1" d="M 444.782,18.4046 454.385,18.4046 z" id="boundary" inkscape:connector-curvature="0" />
	<path style="fill:none;stroke:red;stroke-width:1px;stroke-linecap:butt;stroke-linejoin:miter;stroke-opacity:1" d="M 530.25,8.80155 539.853,8.80155 z" id="boundary" inkscape:connector-curvature="0" />
	<path style="fill:none;stroke:red;stroke-width:1px;stroke-linecap:butt;stroke-linejoin:miter;stroke-opacity:1" d="M 549.456,8.80155 539.853,8.80155 z" id="boundary" inkscape:connector-curvature="0" />
	<path style="fill:none;stroke:red;stroke-width:1px;stroke-linecap:butt;stroke-linejoin:miter;stroke-opacity:1" d="M 491.837,13.6031 501.44,13.6031 z" id="boundary" inkscape:connector-curvature="0" />
	<path style="fill:none;stroke:red;stroke-width:1px;stroke-linecap:butt;stroke-linejoin:miter;stroke-opacity:1" d="M 312.259,37.6108 321.863,37.6108 z" id="boundary" inkscape:connector-curvature="0" />
	<path style="fill:none;stroke:red;stroke-width:1px;stroke-linecap:butt;stroke-linejoin:miter;stroke-opacity:1" d="M 4,155.729 4,146.126 z" id="boundary" inkscape:connector-curvature="0" />
	<path style="fill:none;stroke:red;stroke-width:1px;stroke-linecap:butt;stroke-linejoin:miter;stroke-opacity:1" d="M 4,146.126 4,136.523 z" id="boundary" inkscape:connector-curvature="0" />
	<path style="fill:none;stroke:red;stroke-width:1px;stroke-linecap:butt;stroke-linejoin:miter;stroke-opacity:1" d="M 4,155.729 8.80155,164.372 z" id="boundary" inkscape:connector-curvature="0" />
	<path style="fill:none;stroke:red;stroke-width:1px;stroke-linecap:butt;stroke-linejoin:miter;stroke-opacity:1" d="M 8.80155,164.372 8.80155,173.975 z" id="boundary" inkscape:connector-curvature="0" />
	<path style="fill:none;stroke:red;stroke-width:1px;stroke-linecap:butt;stroke-linejoin:miter;stroke-opacity:1" d="M 15.5237,181.657 8.80155,173.975 z" id="boundary" inkscape:connector-curvature="0" />
	<path style="fill:none;stroke:red;stroke-width:1px;stroke-linecap:butt;stroke-linejoin:miter;stroke-opacity:1" d="M 20.3253,190.3 15.5237,181.657 z" id="boundary" inkscape:connector-curvature="0" />
	<path style="fill:none;stroke:red;stroke-width:1px;stroke-linecap:butt;stroke-linejoin:miter;stroke-opacity:1" d="M 137.483,185.499 127.88,187.419 z" id="boundary" inkscape:connector-curvature="0" />
	<path style="fill:none;stroke:red;stroke-width:1px;stroke-linecap:butt;stroke-linejoin:miter;stroke-opacity:1" d="M 166.292,177.816 156.689,180.697 z" id="boundary" inkscape:connector-curvature="0" />
	<path style="fill:none;stroke:red;stroke-width:1px;stroke-linecap:butt;stroke-linejoin:miter;stroke-opacity:1" d="M 166.292,177.816 167.253,187.419 z" id="boundary" inkscape:connector-curvature="0" />
	<path style="fill:none;stroke:red;stroke-width:1px;stroke-linecap:butt;stroke-linejoin:miter;stroke-opacity:1" d="M 147.086,182.618 156.689,180.697 z" id="boundary" inkscape:connector-curvature="0" />
	<path style="fill:none;stroke:red;stroke-width:1px;stroke-linecap:butt;stroke-linejoin:miter;stroke-opacity:1" d="M 147.086,182.618 137.483,185.499 z" id="boundary" inkscape:connector-curvature="0" />
	<path style="fill:none;stroke:red;stroke-width:1px;stroke-linecap:butt;stroke-linejoin:miter;stroke-opacity:1" d="M 127.88,187.419 119.237,192.221 z" id="boundary" inkscape:connector-curvature="0" />
	<path style="fill:none;stroke:red;stroke-width:1px;stroke-linecap:butt;stroke-linejoin:miter;stroke-opacity:1" d="M 28.0077,197.022 20.3253,190.3 z" id="boundary" inkscape:connector-curvature="0" />
	<path style="fill:none;stroke:red;stroke-width:1px;stroke-linecap:butt;stroke-linejoin:miter;stroke-opacity:1" d="M 28.0077,197.022 36.6505,201.824 z" id="boundary" inkscape:connector-curvature="0" />
	<path style="fill:none;stroke:red;stroke-width:1px;stroke-linecap:butt;stroke-linejoin:miter;stroke-opacity:1" d="M 45.2933,206.625 36.6505,201.824 z" id="boundary" inkscape:connector-curvature="0" />
	<path style="fill:none;stroke:red;stroke-width:1px;stroke-linecap:butt;stroke-linejoin:miter;stroke-opacity:1" d="M 54.8964,206.625 45.2933,206.625 z" id="boundary" inkscape:connector-curvature="0" />
	<path style="fill:none;stroke:red;stroke-width:1px;stroke-linecap:butt;stroke-linejoin:miter;stroke-opacity:1" d="M 91.3882,197.022 82.7454,201.824 z" id="boundary" inkscape:connector-curvature="0" />
	<path style="fill:none;stroke:red;stroke-width:1px;stroke-linecap:butt;stroke-linejoin:miter;stroke-opacity:1" d="M 109.634,192.221 100.991,197.022 z" id="boundary" inkscape:connector-curvature="0" />
	<path style="fill:none;stroke:red;stroke-width:1px;stroke-linecap:butt;stroke-linejoin:miter;stroke-opacity:1" d="M 100.991,197.022 91.3882,197.022 z" id="boundary" inkscape:connector-curvature="0" />
	<path style="fill:none;stroke:red;stroke-width:1px;stroke-linecap:butt;stroke-linejoin:miter;stroke-opacity:1" d="M 82.7454,201.824 73.1423,201.824 z" id="boundary" inkscape:connector-curvature="0" />
	<path style="fill:none;stroke:red;stroke-width:1px;stroke-linecap:butt;stroke-linejoin:miter;stroke-opacity:1" d="M 73.1423,201.824 64.4995,206.625 z" id="boundary" inkscape:connector-curvature="0" />
	<path style="fill:none;stroke:red;stroke-width:1px;stroke-linecap:butt;stroke-linejoin:miter;stroke-opacity:1" d="M 54.8964,206.625 64.4995,206.625 z" id="boundary" inkscape:connector-curvature="0" />
	<path style="fill:none;stroke:red;stroke-width:1px;stroke-linecap:butt;stroke-linejoin:miter;stroke-opacity:1" d="M 109.634,192.221 119.237,192.221 z" id="boundary" inkscape:connector-curvature="0" />
	<path style="fill:none;stroke:red;stroke-width:1px;stroke-linecap:butt;stroke-linejoin:miter;stroke-opacity:1" d="M 167.253,187.419 170.134,197.022 z" id="boundary" inkscape:connector-curvature="0" />
	<path style="fill:none;stroke:red;stroke-width:1px;stroke-linecap:butt;stroke-linejoin:miter;stroke-opacity:1" d="M 178.776,201.824 170.134,197.022 z" id="boundary" inkscape:connector-curvature="0" />
	<path style="fill:none;stroke:red;stroke-width:1px;stroke-linecap:butt;stroke-linejoin:miter;stroke-opacity:1" d="M 187.419,206.625 178.776,201.824 z" id="boundary" inkscape:connector-curvature="0" />
	<path style="fill:none;stroke:red;stroke-width:1px;stroke-linecap:butt;stroke-linejoin:miter;stroke-opacity:1" d="M 197.022,206.625 187.419,206.625 z" id="boundary" inkscape:connector-curvature="0" />
	<path style="fill:none;stroke:red;stroke-width:1px;stroke-linecap:butt;stroke-linejoin:miter;stroke-opacity:1" d="M 205.665,211.427 197.022,206.625 z" id="boundary" inkscape:connector-curvature="0" />
	<path style="fill:none;stroke:red;stroke-width:1px;stroke-linecap:butt;stroke-linejoin:miter;stroke-opacity:1" d="M 224.871,211.427 215.268,211.427 z" id="boundary" inkscape:connector-curvature="0" />
	<path style="fill:none;stroke:red;stroke-width:1px;stroke-linecap:butt;stroke-linejoin:miter;stroke-opacity:1" d="M 205.665,211.427 215.268,211.427 z" id="boundary" inkscape:connector-curvature="0" />
	<path style="fill:none;stroke:red;stroke-width:1px;stroke-linecap:butt;stroke-linejoin:miter;stroke-opacity:1" d="M 224.871,211.427 233.514,216.228 z" id="boundary" inkscape:connector-curvature="0" />
	<path style="fill:none;stroke:red;stroke-width:1px;stroke-linecap:butt;stroke-linejoin:miter;stroke-opacity:1" d="M 233.514,216.228 243.117,216.228 z" id="boundary" inkscape:connector-curvature="0" />
	<path style="fill:none;stroke:red;stroke-width:1px;stroke-linecap:butt;stroke-linejoin:miter;stroke-opacity:1" d="M 251.76,221.03 243.117,216.228 z" id="boundary" inkscape:connector-curvature="0" />
	<path style="fill:none;stroke:red;stroke-width:1px;stroke-linecap:butt;stroke-linejoin:miter;stroke-opacity:1" d="M 261.363,221.03 270.966,221.03 z" id="boundary" inkscape:connector-curvature="0" />
	<path style="fill:none;stroke:red;stroke-width:1px;stroke-linecap:butt;stroke-linejoin:miter;stroke-opacity:1" d="M 261.363,221.03 251.76,221.03 z" id="boundary" inkscape:connector-curvature="0" />
	<path style="fill:none;stroke:red;stroke-width:1px;stroke-linecap:butt;stroke-linejoin:miter;stroke-opacity:1" d="M 279.609,225.832 270.966,221.03 z" id="boundary" inkscape:connector-curvature="0" />
	<path style="fill:none;stroke:red;stroke-width:1px;stroke-linecap:butt;stroke-linejoin:miter;stroke-opacity:1" d="M 279.609,225.832 289.212,225.832 z" id="boundary" inkscape:connector-curvature="0" />
	<path style="fill:none;stroke:red;stroke-width:1px;stroke-linecap:butt;stroke-linejoin:miter;stroke-opacity:1" d="M 298.815,225.832 289.212,225.832 z" id="boundary" inkscape:connector-curvature="0" />
	<path style="fill:none;stroke:red;stroke-width:1px;stroke-linecap:butt;stroke-linejoin:miter;stroke-opacity:1" d="M 308.418,225.832 298.815,225.832 z" id="boundary" inkscape:connector-curvature="0" />
	<path style="fill:none;stroke:red;stroke-width:1px;stroke-linecap:butt;stroke-linejoin:miter;stroke-opacity:1" d="M 318.021,225.832 308.418,225.832 z" id="boundary" inkscape:connector-curvature="0" />
	<path style="fill:none;stroke:red;stroke-width:1px;stroke-linecap:butt;stroke-linejoin:miter;stroke-opacity:1" d="M 433.258,230.633 423.655,230.633 z" id="boundary" inkscape:connector-curvature="0" />
	<path style="fill:none;stroke:red;stroke-width:1px;stroke-linecap:butt;stroke-linejoin:miter;stroke-opacity:1" d="M 318.021,225.832 327.624,225.832 z" id="boundary" inkscape:connector-curvature="0" />
	<path style="fill:none;stroke:red;stroke-width:1px;stroke-linecap:butt;stroke-linejoin:miter;stroke-opacity:1" d="M 337.227,225.832 327.624,225.832 z" id="boundary" inkscape:connector-curvature="0" />
	<path style="fill:none;stroke:red;stroke-width:1px;stroke-linecap:butt;stroke-linejoin:miter;stroke-opacity:1" d="M 356.434,230.633 346.831,228.712 z" id="boundary" inkscape:connector-curvature="0" />
	<path style="fill:none;stroke:red;stroke-width:1px;stroke-linecap:butt;stroke-linejoin:miter;stroke-opacity:1" d="M 346.831,228.712 337.227,225.832 z" id="boundary" inkscape:connector-curvature="0" />
	<path style="fill:none;stroke:red;stroke-width:1px;stroke-linecap:butt;stroke-linejoin:miter;stroke-opacity:1" d="M 356.434,230.633 366.037,230.633 z" id="boundary" inkscape:connector-curvature="0" />
	<path style="fill:none;stroke:red;stroke-width:1px;stroke-linecap:butt;stroke-linejoin:miter;stroke-opacity:1" d="M 375.64,230.633 385.243,230.633 z" id="boundary" inkscape:connector-curvature="0" />
	<path style="fill:none;stroke:red;stroke-width:1px;stroke-linecap:butt;stroke-linejoin:miter;stroke-opacity:1" d="M 375.64,230.633 366.037,230.633 z" id="boundary" inkscape:connector-curvature="0" />
	<path style="fill:none;stroke:red;stroke-width:1px;stroke-linecap:butt;stroke-linejoin:miter;stroke-opacity:1" d="M 385.243,230.633 394.846,230.633 z" id="boundary" inkscape:connector-curvature="0" />
	<path style="fill:none;stroke:red;stroke-width:1px;stroke-linecap:butt;stroke-linejoin:miter;stroke-opacity:1" d="M 404.449,230.633 414.052,230.633 z" id="boundary" inkscape:connector-curvature="0" />
	<path style="fill:none;stroke:red;stroke-width:1px;stroke-linecap:butt;stroke-linejoin:miter;stroke-opacity:1" d="M 404.449,230.633 394.846,230.633 z" id="boundary" inkscape:connector-curvature="0" />
	<path style="fill:none;stroke:red;stroke-width:1px;stroke-linecap:butt;stroke-linejoin:miter;stroke-opacity:1" d="M 414.052,230.633 423.655,230.633 z" id="boundary" inkscape:connector-curvature="0" />
	<path style="fill:none;stroke:red;stroke-width:1px;stroke-linecap:butt;stroke-linejoin:miter;stroke-opacity:1" d="M 433.258,230.633 442.862,230.633 z" id="boundary" inkscape:connector-curvature="0" />
	<path style="fill:none;stroke:red;stroke-width:1px;stroke-linecap:butt;stroke-linejoin:miter;stroke-opacity:1" d="M 451.504,235.435 461.107,235.435 z" id="boundary" inkscape:connector-curvature="0" />
	<path style="fill:none;stroke:red;stroke-width:1px;stroke-linecap:butt;stroke-linejoin:miter;stroke-opacity:1" d="M 451.504,235.435 442.862,230.633 z" id="boundary" inkscape:connector-curvature="0" />
	<path style="fill:none;stroke:red;stroke-width:1px;stroke-linecap:butt;stroke-linejoin:miter;stroke-opacity:1" d="M 470.711,235.435 480.314,235.435 z" id="boundary" inkscape:connector-curvature="0" />
	<path style="fill:none;stroke:red;stroke-width:1px;stroke-linecap:butt;stroke-linejoin:miter;stroke-opacity:1" d="M 470.711,235.435 461.107,235.435 z" id="boundary" inkscape:connector-curvature="0" />
	<path style="fill:none;stroke:red;stroke-width:1px;stroke-linecap:butt;stroke-linejoin:miter;stroke-opacity:1" d="M 480.314,235.435 489.917,235.435 z" id="boundary" inkscape:connector-curvature="0" />
	<path style="fill:none;stroke:red;stroke-width:1px;stroke-linecap:butt;stroke-linejoin:miter;stroke-opacity:1" d="M 499.52,235.435 509.123,235.435 z" id="boundary" inkscape:connector-curvature="0" />
	<path style="fill:none;stroke:red;stroke-width:1px;stroke-linecap:butt;stroke-linejoin:miter;stroke-opacity:1" d="M 499.52,235.435 489.917,235.435 z" id="boundary" inkscape:connector-curvature="0" />
	<path style="fill:none;stroke:red;stroke-width:1px;stroke-linecap:butt;stroke-linejoin:miter;stroke-opacity:1" d="M 509.123,235.435 518.726,235.435 z" id="boundary" inkscape:connector-curvature="0" />
	<path style="fill:none;stroke:red;stroke-width:1px;stroke-linecap:butt;stroke-linejoin:miter;stroke-opacity:1" d="M 528.329,235.435 518.726,235.435 z" id="boundary" inkscape:connector-curvature="0" />
	<path style="fill:none;stroke:red;stroke-width:1px;stroke-linecap:butt;stroke-linejoin:miter;stroke-opacity:1" d="M 528.329,235.435 537.932,235.435 z" id="boundary" inkscape:connector-curvature="0" />
	<path style="fill:none;stroke:red;stroke-width:1px;stroke-linecap:butt;stroke-linejoin:miter;stroke-opacity:1" d="M 537.932,235.435 547.535,235.435 z" id="boundary" inkscape:connector-curvature="0" />
	<path style="fill:none;stroke:red;stroke-width:1px;stroke-linecap:butt;stroke-linejoin:miter;stroke-opacity:1" d="M 559.059,4 568.662,4 z" id="boundary" inkscape:connector-curvature="0" />
	<path style="fill:none;stroke:red;stroke-width:1px;stroke-linecap:butt;stroke-linejoin:miter;stroke-opacity:1" d="M 578.265,4 587.868,4 z" id="boundary" inkscape:connector-curvature="0" />
	<path style="fill:none;stroke:red;stroke-width:1px;stroke-linecap:butt;stroke-linejoin:miter;stroke-opacity:1" d="M 597.471,4 587.868,4 z" id="boundary" inkscape:connector-curvature="0" />
	<path style="fill:none;stroke:red;stroke-width:1px;stroke-linecap:butt;stroke-linejoin:miter;stroke-opacity:1" d="M 578.265,4 568.662,4 z" id="boundary" inkscape:connector-curvature="0" />
	<path style="fill:none;stroke:red;stroke-width:1px;stroke-linecap:butt;stroke-linejoin:miter;stroke-opacity:1" d="M 607.075,4 597.471,4 z" id="boundary" inkscape:connector-curvature="0" />
	<path style="fill:none;stroke:red;stroke-width:1px;stroke-linecap:butt;stroke-linejoin:miter;stroke-opacity:1" d="M 607.075,4 615.717,8.80155 z" id="boundary" inkscape:connector-curvature="0" />
	<path style="fill:none;stroke:red;stroke-width:1px;stroke-linecap:butt;stroke-linejoin:miter;stroke-opacity:1" d="M 615.717,8.80155 624.36,13.6031 z" id="boundary" inkscape:connector-curvature="0" />
	<path style="fill:none;stroke:red;stroke-width:1px;stroke-linecap:butt;stroke-linejoin:miter;stroke-opacity:1" d="M 633.963,16.484 624.36,13.6031 z" id="boundary" inkscape:connector-curvature="0" />
	<path style="fill:none;stroke:red;stroke-width:1px;stroke-linecap:butt;stroke-linejoin:miter;stroke-opacity:1" d="M 640.685,24.1665 633.963,16.484 z" id="boundary" inkscape:connector-curvature="0" />
	<path style="fill:none;stroke:red;stroke-width:1px;stroke-linecap:butt;stroke-linejoin:miter;stroke-opacity:1" d="M 648.368,30.8887 640.685,24.1665 z" id="boundary" inkscape:connector-curvature="0" />
	<path style="fill:none;stroke:red;stroke-width:1px;stroke-linecap:butt;stroke-linejoin:miter;stroke-opacity:1" d="M 653.169,39.5315 648.368,30.8887 z" id="boundary" inkscape:connector-curvature="0" />
	<path style="fill:none;stroke:red;stroke-width:1px;stroke-linecap:butt;stroke-linejoin:miter;stroke-opacity:1" d="M 815.462,15.5237 805.859,16.484 z" id="boundary" inkscape:connector-curvature="0" />
	<path style="fill:none;stroke:red;stroke-width:1px;stroke-linecap:butt;stroke-linejoin:miter;stroke-opacity:1" d="M 805.859,26.0871 805.859,16.484 z" id="boundary" inkscape:connector-curvature="0" />
	<path style="fill:none;stroke:red;stroke-width:1px;stroke-linecap:butt;stroke-linejoin:miter;stroke-opacity:1" d="M 810.66,34.7299 805.859,26.0871 z" id="boundary" inkscape:connector-curvature="0" />
	<path style="fill:none;stroke:red;stroke-width:1px;stroke-linecap:butt;stroke-linejoin:miter;stroke-opacity:1" d="M 653.169,39.5315 662.773,42.4124 z" id="boundary" inkscape:connector-curvature="0" />
	<path style="fill:none;stroke:red;stroke-width:1px;stroke-linecap:butt;stroke-linejoin:miter;stroke-opacity:1" d="M 672.376,42.4124 662.773,42.4124 z" id="boundary" inkscape:connector-curvature="0" />
	<path style="fill:none;stroke:red;stroke-width:1px;stroke-linecap:butt;stroke-linejoin:miter;stroke-opacity:1" d="M 672.376,42.4124 681.979,42.4124 z" id="boundary" inkscape:connector-curvature="0" />
	<path style="fill:none;stroke:red;stroke-width:1px;stroke-linecap:butt;stroke-linejoin:miter;stroke-opacity:1" d="M 691.582,42.4124 681.979,42.4124 z" id="boundary" inkscape:connector-curvature="0" />
	<path style="fill:none;stroke:red;stroke-width:1px;stroke-linecap:butt;stroke-linejoin:miter;stroke-opacity:1" d="M 701.185,42.4124 691.582,42.4124 z" id="boundary" inkscape:connector-curvature="0" />
	<path style="fill:none;stroke:red;stroke-width:1px;stroke-linecap:butt;stroke-linejoin:miter;stroke-opacity:1" d="M 710.788,42.4124 701.185,42.4124 z" id="boundary" inkscape:connector-curvature="0" />
	<path style="fill:none;stroke:red;stroke-width:1px;stroke-linecap:butt;stroke-linejoin:miter;stroke-opacity:1" d="M 720.391,42.4124 729.994,42.4124 z" id="boundary" inkscape:connector-curvature="0" />
	<path style="fill:none;stroke:red;stroke-width:1px;stroke-linecap:butt;stroke-linejoin:miter;stroke-opacity:1" d="M 720.391,42.4124 710.788,42.4124 z" id="boundary" inkscape:connector-curvature="0" />
	<path style="fill:none;stroke:red;stroke-width:1px;stroke-linecap:butt;stroke-linejoin:miter;stroke-opacity:1" d="M 739.597,42.4124 749.2,42.4124 z" id="boundary" inkscape:connector-curvature="0" />
	<path style="fill:none;stroke:red;stroke-width:1px;stroke-linecap:butt;stroke-linejoin:miter;stroke-opacity:1" d="M 739.597,42.4124 729.994,42.4124 z" id="boundary" inkscape:connector-curvature="0" />
	<path style="fill:none;stroke:red;stroke-width:1px;stroke-linecap:butt;stroke-linejoin:miter;stroke-opacity:1" d="M 749.2,42.4124 758.803,42.4124 z" id="boundary" inkscape:connector-curvature="0" />
	<path style="fill:none;stroke:red;stroke-width:1px;stroke-linecap:butt;stroke-linejoin:miter;stroke-opacity:1" d="M 778.01,45.2933 768.407,42.4124 z" id="boundary" inkscape:connector-curvature="0" />
	<path style="fill:none;stroke:red;stroke-width:1px;stroke-linecap:butt;stroke-linejoin:miter;stroke-opacity:1" d="M 806.819,52.0155 797.216,50.0949 z" id="boundary" inkscape:connector-curvature="0" />
	<path style="fill:none;stroke:red;stroke-width:1px;stroke-linecap:butt;stroke-linejoin:miter;stroke-opacity:1" d="M 778.01,45.2933 787.613,47.2139 z" id="boundary" inkscape:connector-curvature="0" />
	<path style="fill:none;stroke:red;stroke-width:1px;stroke-linecap:butt;stroke-linejoin:miter;stroke-opacity:1" d="M 797.216,50.0949 787.613,47.2139 z" id="boundary" inkscape:connector-curvature="0" />
	<path style="fill:none;stroke:red;stroke-width:1px;stroke-linecap:butt;stroke-linejoin:miter;stroke-opacity:1" d="M 758.803,42.4124 768.407,42.4124 z" id="boundary" inkscape:connector-curvature="0" />
	<path style="fill:none;stroke:red;stroke-width:1px;stroke-linecap:butt;stroke-linejoin:miter;stroke-opacity:1" d="M 821.224,33.7696 816.422,25.1268 z" id="boundary" inkscape:connector-curvature="0" />
	<path style="fill:none;stroke:red;stroke-width:1px;stroke-linecap:butt;stroke-linejoin:miter;stroke-opacity:1" d="M 821.224,33.7696 826.025,42.4124 z" id="boundary" inkscape:connector-curvature="0" />
	<path style="fill:none;stroke:red;stroke-width:1px;stroke-linecap:butt;stroke-linejoin:miter;stroke-opacity:1" d="M 816.422,25.1268 815.462,15.5237 z" id="boundary" inkscape:connector-curvature="0" />
	<path style="fill:none;stroke:red;stroke-width:1px;stroke-linecap:butt;stroke-linejoin:miter;stroke-opacity:1" d="M 826.025,42.4124 826.025,52.0155 z" id="boundary" inkscape:connector-curvature="0" />
	<path style="fill:none;stroke:red;stroke-width:1px;stroke-linecap:butt;stroke-linejoin:miter;stroke-opacity:1" d="M 833.708,57.7773 826.025,52.0155 z" id="boundary" inkscape:connector-curvature="0" />
	<path style="fill:none;stroke:red;stroke-width:1px;stroke-linecap:butt;stroke-linejoin:miter;stroke-opacity:1" d="M 843.311,61.6186 833.708,57.7773 z" id="boundary" inkscape:connector-curvature="0" />
	<path style="fill:none;stroke:red;stroke-width:1px;stroke-linecap:butt;stroke-linejoin:miter;stroke-opacity:1" d="M 806.819,52.0155 826.025,52.0155 z" id="boundary" inkscape:connector-curvature="0" />
	<path style="fill:none;stroke:red;stroke-width:1px;stroke-linecap:butt;stroke-linejoin:miter;stroke-opacity:1" d="M 852.914,61.6186 843.311,61.6186 z" id="boundary" inkscape:connector-curvature="0" />
	<path style="fill:none;stroke:red;stroke-width:1px;stroke-linecap:butt;stroke-linejoin:miter;stroke-opacity:1" d="M 861.557,66.4201 852.914,61.6186 z" id="boundary" inkscape:connector-curvature="0" />
	<path style="fill:none;stroke:red;stroke-width:1px;stroke-linecap:butt;stroke-linejoin:miter;stroke-opacity:1" d="M 871.16,66.4201 861.557,66.4201 z" id="boundary" inkscape:connector-curvature="0" />
	<path style="fill:none;stroke:red;stroke-width:1px;stroke-linecap:butt;stroke-linejoin:miter;stroke-opacity:1" d="M 880.763,66.4201 871.16,66.4201 z" id="boundary" inkscape:connector-curvature="0" />
	<path style="fill:none;stroke:red;stroke-width:1px;stroke-linecap:butt;stroke-linejoin:miter;stroke-opacity:1" d="M 983.516,64.4995 971.032,61.6186 z" id="boundary" inkscape:connector-curvature="0" />
	<path style="fill:none;stroke:red;stroke-width:1px;stroke-linecap:butt;stroke-linejoin:miter;stroke-opacity:1" d="M 971.032,61.6186 962.389,66.4201 z" id="boundary" inkscape:connector-curvature="0" />
	<path style="fill:none;stroke:red;stroke-width:1px;stroke-linecap:butt;stroke-linejoin:miter;stroke-opacity:1" d="M 880.763,66.4201 890.366,66.4201 z" id="boundary" inkscape:connector-curvature="0" />
	<path style="fill:none;stroke:red;stroke-width:1px;stroke-linecap:butt;stroke-linejoin:miter;stroke-opacity:1" d="M 899.009,71.2217 908.612,71.2217 z" id="boundary" inkscape:connector-curvature="0" />
	<path style="fill:none;stroke:red;stroke-width:1px;stroke-linecap:butt;stroke-linejoin:miter;stroke-opacity:1" d="M 899.009,71.2217 890.366,66.4201 z" id="boundary" inkscape:connector-curvature="0" />
	<path style="fill:none;stroke:red;stroke-width:1px;stroke-linecap:butt;stroke-linejoin:miter;stroke-opacity:1" d="M 908.612,71.2217 918.215,71.2217 z" id="boundary" inkscape:connector-curvature="0" />
	<path style="fill:none;stroke:red;stroke-width:1px;stroke-linecap:butt;stroke-linejoin:miter;stroke-opacity:1" d="M 926.858,76.0232 918.215,71.2217 z" id="boundary" inkscape:connector-curvature="0" />
	<path style="fill:none;stroke:red;stroke-width:1px;stroke-linecap:butt;stroke-linejoin:miter;stroke-opacity:1" d="M 962.389,66.4201 954.707,74.1026 z" id="boundary" inkscape:connector-curvature="0" />
	<path style="fill:none;stroke:red;stroke-width:1px;stroke-linecap:butt;stroke-linejoin:miter;stroke-opacity:1" d="M 936.461,76.0232 926.858,76.0232 z" id="boundary" inkscape:connector-curvature="0" />
	<path style="fill:none;stroke:red;stroke-width:1px;stroke-linecap:butt;stroke-linejoin:miter;stroke-opacity:1" d="M 936.461,76.0232 946.064,78.9042 z" id="boundary" inkscape:connector-curvature="0" />
	<path style="fill:none;stroke:red;stroke-width:1px;stroke-linecap:butt;stroke-linejoin:miter;stroke-opacity:1" d="M 946.064,78.9042 954.707,74.1026 z" id="boundary" inkscape:connector-curvature="0" />
	<path style="fill:none;stroke:red;stroke-width:1px;stroke-linecap:butt;stroke-linejoin:miter;stroke-opacity:1" d="M 983.516,64.4995 989.278,72.182 z" id="boundary" inkscape:connector-curvature="0" />
	<path style="fill:none;stroke:red;stroke-width:1px;stroke-linecap:butt;stroke-linejoin:miter;stroke-opacity:1" d="M 989.278,72.182 982.556,79.8645 z" id="boundary" inkscape:connector-curvature="0" />
	<path style="fill:none;stroke:red;stroke-width:1px;stroke-linecap:butt;stroke-linejoin:miter;stroke-opacity:1" d="M 982.556,79.8645 974.873,86.5866 z" id="boundary" inkscape:connector-curvature="0" />
	<path style="fill:none;stroke:red;stroke-width:1px;stroke-linecap:butt;stroke-linejoin:miter;stroke-opacity:1" d="M 974.873,86.5866 974.873,96.1897 z" id="boundary" inkscape:connector-curvature="0" />
	<path style="fill:none;stroke:red;stroke-width:1px;stroke-linecap:butt;stroke-linejoin:miter;stroke-opacity:1" d="M 979.675,104.833 974.873,96.1897 z" id="boundary" inkscape:connector-curvature="0" />
	<path style="fill:none;stroke:red;stroke-width:1px;stroke-linecap:butt;stroke-linejoin:miter;stroke-opacity:1" d="M 979.675,104.833 979.675,114.436 z" id="boundary" inkscape:connector-curvature="0" />
	<path style="fill:none;stroke:red;stroke-width:1px;stroke-linecap:butt;stroke-linejoin:miter;stroke-opacity:1" d="M 979.675,114.436 979.675,124.039 z" id="boundary" inkscape:connector-curvature="0" />
	<path style="fill:none;stroke:red;stroke-width:1px;stroke-linecap:butt;stroke-linejoin:miter;stroke-opacity:1" d="M 599.392,201.824 589.789,201.824 z" id="boundary" inkscape:connector-curvature="0" />
	<path style="fill:none;stroke:red;stroke-width:1px;stroke-linecap:butt;stroke-linejoin:miter;stroke-opacity:1" d="M 589.789,201.824 580.186,201.824 z" id="boundary" inkscape:connector-curvature="0" />
	<path style="fill:none;stroke:red;stroke-width:1px;stroke-linecap:butt;stroke-linejoin:miter;stroke-opacity:1" d="M 608.995,201.824 599.392,201.824 z" id="boundary" inkscape:connector-curvature="0" />
	<path style="fill:none;stroke:red;stroke-width:1px;stroke-linecap:butt;stroke-linejoin:miter;stroke-opacity:1" d="M 618.598,201.824 608.995,201.824 z" id="boundary" inkscape:connector-curvature="0" />
	<path style="fill:none;stroke:red;stroke-width:1px;stroke-linecap:butt;stroke-linejoin:miter;stroke-opacity:1" d="M 580.186,201.824 571.543,206.625 z" id="boundary" inkscape:connector-curvature="0" />
	<path style="fill:none;stroke:red;stroke-width:1px;stroke-linecap:butt;stroke-linejoin:miter;stroke-opacity:1" d="M 571.543,216.228 571.543,206.625 z" id="boundary" inkscape:connector-curvature="0" />
	<path style="fill:none;stroke:red;stroke-width:1px;stroke-linecap:butt;stroke-linejoin:miter;stroke-opacity:1" d="M 565.781,230.633 571.543,216.228 z" id="boundary" inkscape:connector-curvature="0" />
	<path style="fill:none;stroke:red;stroke-width:1px;stroke-linecap:butt;stroke-linejoin:miter;stroke-opacity:1" d="M 636.844,206.625 628.201,201.824 z" id="boundary" inkscape:connector-curvature="0" />
	<path style="fill:none;stroke:red;stroke-width:1px;stroke-linecap:butt;stroke-linejoin:miter;stroke-opacity:1" d="M 646.447,206.625 636.844,206.625 z" id="boundary" inkscape:connector-curvature="0" />
	<path style="fill:none;stroke:red;stroke-width:1px;stroke-linecap:butt;stroke-linejoin:miter;stroke-opacity:1" d="M 618.598,201.824 628.201,201.824 z" id="boundary" inkscape:connector-curvature="0" />
	<path style="fill:none;stroke:red;stroke-width:1px;stroke-linecap:butt;stroke-linejoin:miter;stroke-opacity:1" d="M 646.447,206.625 656.05,206.625 z" id="boundary" inkscape:connector-curvature="0" />
	<path style="fill:none;stroke:red;stroke-width:1px;stroke-linecap:butt;stroke-linejoin:miter;stroke-opacity:1" d="M 665.653,206.625 656.05,206.625 z" id="boundary" inkscape:connector-curvature="0" />
	<path style="fill:none;stroke:red;stroke-width:1px;stroke-linecap:butt;stroke-linejoin:miter;stroke-opacity:1" d="M 675.257,206.625 665.653,206.625 z" id="boundary" inkscape:connector-curvature="0" />
	<path style="fill:none;stroke:red;stroke-width:1px;stroke-linecap:butt;stroke-linejoin:miter;stroke-opacity:1" d="M 684.86,206.625 675.257,206.625 z" id="boundary" inkscape:connector-curvature="0" />
	<path style="fill:none;stroke:red;stroke-width:1px;stroke-linecap:butt;stroke-linejoin:miter;stroke-opacity:1" d="M 684.86,206.625 694.463,206.625 z" id="boundary" inkscape:connector-curvature="0" />
	<path style="fill:none;stroke:red;stroke-width:1px;stroke-linecap:butt;stroke-linejoin:miter;stroke-opacity:1" d="M 704.066,206.625 713.669,206.625 z" id="boundary" inkscape:connector-curvature="0" />
	<path style="fill:none;stroke:red;stroke-width:1px;stroke-linecap:butt;stroke-linejoin:miter;stroke-opacity:1" d="M 723.272,206.625 713.669,206.625 z" id="boundary" inkscape:connector-curvature="0" />
	<path style="fill:none;stroke:red;stroke-width:1px;stroke-linecap:butt;stroke-linejoin:miter;stroke-opacity:1" d="M 704.066,206.625 694.463,206.625 z" id="boundary" inkscape:connector-curvature="0" />
	<path style="fill:none;stroke:red;stroke-width:1px;stroke-linecap:butt;stroke-linejoin:miter;stroke-opacity:1" d="M 731.915,201.824 741.518,201.824 z" id="boundary" inkscape:connector-curvature="0" />
	<path style="fill:none;stroke:red;stroke-width:1px;stroke-linecap:butt;stroke-linejoin:miter;stroke-opacity:1" d="M 751.121,201.824 741.518,201.824 z" id="boundary" inkscape:connector-curvature="0" />
	<path style="fill:none;stroke:red;stroke-width:1px;stroke-linecap:butt;stroke-linejoin:miter;stroke-opacity:1" d="M 760.724,205.665 762.645,215.268 z" id="boundary" inkscape:connector-curvature="0" />
	<path style="fill:none;stroke:red;stroke-width:1px;stroke-linecap:butt;stroke-linejoin:miter;stroke-opacity:1" d="M 751.121,201.824 760.724,205.665 z" id="boundary" inkscape:connector-curvature="0" />
	<path style="fill:none;stroke:red;stroke-width:1px;stroke-linecap:butt;stroke-linejoin:miter;stroke-opacity:1" d="M 723.272,206.625 731.915,201.824 z" id="boundary" inkscape:connector-curvature="0" />
	<path style="fill:none;stroke:red;stroke-width:1px;stroke-linecap:butt;stroke-linejoin:miter;stroke-opacity:1" d="M 762.645,224.871 762.645,215.268 z" id="boundary" inkscape:connector-curvature="0" />
	<path style="fill:none;stroke:red;stroke-width:1px;stroke-linecap:butt;stroke-linejoin:miter;stroke-opacity:1" d="M 557.138,235.435 565.781,230.633 z" id="boundary" inkscape:connector-curvature="0" />
	<path style="fill:none;stroke:red;stroke-width:1px;stroke-linecap:butt;stroke-linejoin:miter;stroke-opacity:1" d="M 557.138,235.435 547.535,235.435 z" id="boundary" inkscape:connector-curvature="0" />
	<path style="fill:none;stroke:red;stroke-width:1px;stroke-linecap:butt;stroke-linejoin:miter;stroke-opacity:1" d="M 762.645,224.871 765.526,239.276 z" id="boundary" inkscape:connector-curvature="0" />
	<path style="fill:none;stroke:red;stroke-width:1px;stroke-linecap:butt;stroke-linejoin:miter;stroke-opacity:1" d="M 760.724,248.879 765.526,239.276 z" id="boundary" inkscape:connector-curvature="0" />
	<path style="fill:none;stroke:red;stroke-width:1px;stroke-linecap:butt;stroke-linejoin:miter;stroke-opacity:1" d="M 760.724,248.879 753.042,256.561 z" id="boundary" inkscape:connector-curvature="0" />
	<path style="fill:none;stroke:red;stroke-width:1px;stroke-linecap:butt;stroke-linejoin:miter;stroke-opacity:1" d="M 748.24,266.165 753.042,256.561 z" id="boundary" inkscape:connector-curvature="0" />
	<path style="fill:none;stroke:red;stroke-width:1px;stroke-linecap:butt;stroke-linejoin:miter;stroke-opacity:1" d="M 748.24,275.768 748.24,266.165 z" id="boundary" inkscape:connector-curvature="0" />
	<path style="fill:none;stroke:red;stroke-width:1px;stroke-linecap:butt;stroke-linejoin:miter;stroke-opacity:1" d="M 757.843,265.204 767.446,261.363 z" id="boundary" inkscape:connector-curvature="0" />
	<path style="fill:none;stroke:red;stroke-width:1px;stroke-linecap:butt;stroke-linejoin:miter;stroke-opacity:1" d="M 767.446,261.363 779.93,258.482 z" id="boundary" inkscape:connector-curvature="0" />
	<path style="fill:none;stroke:red;stroke-width:1px;stroke-linecap:butt;stroke-linejoin:miter;stroke-opacity:1" d="M 936.461,158.61 926.858,163.411 z" id="boundary" inkscape:connector-curvature="0" />
	<path style="fill:none;stroke:red;stroke-width:1px;stroke-linecap:butt;stroke-linejoin:miter;stroke-opacity:1" d="M 861.557,182.618 851.954,182.618 z" id="boundary" inkscape:connector-curvature="0" />
	<path style="fill:none;stroke:red;stroke-width:1px;stroke-linecap:butt;stroke-linejoin:miter;stroke-opacity:1" d="M 878.842,173.015 870.199,177.816 z" id="boundary" inkscape:connector-curvature="0" />
	<path style="fill:none;stroke:red;stroke-width:1px;stroke-linecap:butt;stroke-linejoin:miter;stroke-opacity:1" d="M 870.199,177.816 861.557,182.618 z" id="boundary" inkscape:connector-curvature="0" />
	<path style="fill:none;stroke:red;stroke-width:1px;stroke-linecap:butt;stroke-linejoin:miter;stroke-opacity:1" d="M 898.048,168.213 907.652,163.411 z" id="boundary" inkscape:connector-curvature="0" />
	<path style="fill:none;stroke:red;stroke-width:1px;stroke-linecap:butt;stroke-linejoin:miter;stroke-opacity:1" d="M 917.255,163.411 907.652,163.411 z" id="boundary" inkscape:connector-curvature="0" />
	<path style="fill:none;stroke:red;stroke-width:1px;stroke-linecap:butt;stroke-linejoin:miter;stroke-opacity:1" d="M 926.858,163.411 917.255,163.411 z" id="boundary" inkscape:connector-curvature="0" />
	<path style="fill:none;stroke:red;stroke-width:1px;stroke-linecap:butt;stroke-linejoin:miter;stroke-opacity:1" d="M 888.445,168.213 898.048,168.213 z" id="boundary" inkscape:connector-curvature="0" />
	<path style="fill:none;stroke:red;stroke-width:1px;stroke-linecap:butt;stroke-linejoin:miter;stroke-opacity:1" d="M 878.842,173.015 888.445,168.213 z" id="boundary" inkscape:connector-curvature="0" />
	<path style="fill:none;stroke:red;stroke-width:1px;stroke-linecap:butt;stroke-linejoin:miter;stroke-opacity:1" d="M 936.461,158.61 946.064,158.61 z" id="boundary" inkscape:connector-curvature="0" />
	<path style="fill:none;stroke:red;stroke-width:1px;stroke-linecap:butt;stroke-linejoin:miter;stroke-opacity:1" d="M 851.954,182.618 843.311,187.419 z" id="boundary" inkscape:connector-curvature="0" />
	<path style="fill:none;stroke:red;stroke-width:1px;stroke-linecap:butt;stroke-linejoin:miter;stroke-opacity:1" d="M 974.873,134.602 979.675,143.245 z" id="boundary" inkscape:connector-curvature="0" />
	<path style="fill:none;stroke:red;stroke-width:1px;stroke-linecap:butt;stroke-linejoin:miter;stroke-opacity:1" d="M 988.318,148.046 979.675,143.245 z" id="boundary" inkscape:connector-curvature="0" />
	<path style="fill:none;stroke:red;stroke-width:1px;stroke-linecap:butt;stroke-linejoin:miter;stroke-opacity:1" d="M 996,153.808 988.318,148.046 z" id="boundary" inkscape:connector-curvature="0" />
	<path style="fill:none;stroke:red;stroke-width:1px;stroke-linecap:butt;stroke-linejoin:miter;stroke-opacity:1" d="M 979.675,143.245 973.913,153.808 z" id="boundary" inkscape:connector-curvature="0" />
	<path style="fill:none;stroke:red;stroke-width:1px;stroke-linecap:butt;stroke-linejoin:miter;stroke-opacity:1" d="M 974.873,134.602 979.675,124.039 z" id="boundary" inkscape:connector-curvature="0" />
	<path style="fill:none;stroke:red;stroke-width:1px;stroke-linecap:butt;stroke-linejoin:miter;stroke-opacity:1" d="M 973.913,153.808 964.31,153.808 z" id="boundary" inkscape:connector-curvature="0" />
	<path style="fill:none;stroke:red;stroke-width:1px;stroke-linecap:butt;stroke-linejoin:miter;stroke-opacity:1" d="M 973.913,153.808 982.556,158.61 z" id="boundary" inkscape:connector-curvature="0" />
	<path style="fill:none;stroke:red;stroke-width:1px;stroke-linecap:butt;stroke-linejoin:miter;stroke-opacity:1" d="M 955.667,158.61 946.064,158.61 z" id="boundary" inkscape:connector-curvature="0" />
	<path style="fill:none;stroke:red;stroke-width:1px;stroke-linecap:butt;stroke-linejoin:miter;stroke-opacity:1" d="M 955.667,158.61 964.31,153.808 z" id="boundary" inkscape:connector-curvature="0" />
	<path style="fill:none;stroke:red;stroke-width:1px;stroke-linecap:butt;stroke-linejoin:miter;stroke-opacity:1" d="M 991.198,163.411 982.556,158.61 z" id="boundary" inkscape:connector-curvature="0" />
	<path style="fill:none;stroke:red;stroke-width:1px;stroke-linecap:butt;stroke-linejoin:miter;stroke-opacity:1" d="M 996,153.808 991.198,163.411 z" id="boundary" inkscape:connector-curvature="0" />
	<path style="fill:none;stroke:red;stroke-width:1px;stroke-linecap:butt;stroke-linejoin:miter;stroke-opacity:1" d="M 816.422,197.022 825.065,192.221 z" id="boundary" inkscape:connector-curvature="0" />
	<path style="fill:none;stroke:red;stroke-width:1px;stroke-linecap:butt;stroke-linejoin:miter;stroke-opacity:1" d="M 806.819,221.03 811.621,206.625 z" id="boundary" inkscape:connector-curvature="0" />
	<path style="fill:none;stroke:red;stroke-width:1px;stroke-linecap:butt;stroke-linejoin:miter;stroke-opacity:1" d="M 811.621,206.625 816.422,197.022 z" id="boundary" inkscape:connector-curvature="0" />
	<path style="fill:none;stroke:red;stroke-width:1px;stroke-linecap:butt;stroke-linejoin:miter;stroke-opacity:1" d="M 802.017,230.633 806.819,221.03 z" id="boundary" inkscape:connector-curvature="0" />
	<path style="fill:none;stroke:red;stroke-width:1px;stroke-linecap:butt;stroke-linejoin:miter;stroke-opacity:1" d="M 825.065,192.221 833.708,187.419 z" id="boundary" inkscape:connector-curvature="0" />
	<path style="fill:none;stroke:red;stroke-width:1px;stroke-linecap:butt;stroke-linejoin:miter;stroke-opacity:1" d="M 772.248,251.76 779.93,258.482 z" id="boundary" inkscape:connector-curvature="0" />
	<path style="fill:none;stroke:red;stroke-width:1px;stroke-linecap:butt;stroke-linejoin:miter;stroke-opacity:1" d="M 789.533,253.681 779.93,258.482 z" id="boundary" inkscape:connector-curvature="0" />
	<path style="fill:none;stroke:red;stroke-width:1px;stroke-linecap:butt;stroke-linejoin:miter;stroke-opacity:1" d="M 802.017,230.633 797.216,240.236 z" id="boundary" inkscape:connector-curvature="0" />
	<path style="fill:none;stroke:red;stroke-width:1px;stroke-linecap:butt;stroke-linejoin:miter;stroke-opacity:1" d="M 797.216,240.236 789.533,253.681 z" id="boundary" inkscape:connector-curvature="0" />
	<path style="fill:none;stroke:red;stroke-width:1px;stroke-linecap:butt;stroke-linejoin:miter;stroke-opacity:1" d="M 843.311,187.419 833.708,187.419 z" id="boundary" inkscape:connector-curvature="0" />
	<circle cx="4" cy="136.523" r="4" fill="#0" id="circle0"/>
	<circle cx="4" cy="146.126" r="4" fill="#0" id="circle1"/>
	<circle cx="4" cy="155.729" r="4" fill="#0" id="circle2"/>
	<circle cx="8.80155" cy="126.92" r="4" fill="#0" id="circle3"/>
	<circle cx="8.80155" cy="164.372" r="4" fill="#0" id="circle4"/>
	<circle cx="8.80155" cy="173.975" r="4" fill="#0" id="circle5"/>
	<circle cx="15.5237" cy="181.657" r="4" fill="#0" id="circle6"/>
	<circle cx="16.484" cy="119.237" r="4" fill="#0" id="circle7"/>
	<circle cx="20.3253" cy="190.3" r="4" fill="#0" id="circle8"/>
	<circle cx="24.1665" cy="111.555" r="4" fill="#0" id="circle9"/>
	<circle cx="28.0077" cy="197.022" r="4" fill="#0" id="circle10"/>
	<circle cx="33.7696" cy="106.753" r="4" fill="#0" id="circle11"/>
	<circle cx="36.6505" cy="201.824" r="4" fill="#0" id="circle12"/>
	<circle cx="41.4521" cy="100.031" r="4" fill="#0" id="circle13"/>
	<circle cx="45.2933" cy="206.625" r="4" fill="#0" id="circle14"/>
	<circle cx="51.0552" cy="100.031" r="4" fill="#0" id="circle15"/>
	<circle cx="54.8964" cy="206.625" r="4" fill="#0" id="circle16"/>
	<circle cx="57.7773" cy="92.3485" r="4" fill="#0" id="circle17"/>
	<circle cx="64.4995" cy="206.625" r="4" fill="#0" id="circle18"/>
	<circle cx="67.3804" cy="90.4279" r="4" fill="#0" id="circle19"/>
	<circle cx="73.1423" cy="201.824" r="4" fill="#0" id="circle20"/>
	<circle cx="75.0629" cy="96.1897" r="4" fill="#0" id="circle21"/>
	<circle cx="82.7454" cy="201.824" r="4" fill="#0" id="circle22"/>
	<circle cx="84.666" cy="100.031" r="4" fill="#0" id="circle23"/>
	<circle cx="91.3882" cy="197.022" r="4" fill="#0" id="circle24"/>
	<circle cx="94.2691" cy="100.991" r="4" fill="#0" id="circle25"/>
	<circle cx="100.991" cy="197.022" r="4" fill="#0" id="circle26"/>
	<circle cx="103.872" cy="104.833" r="4" fill="#0" id="circle27"/>
	<circle cx="109.634" cy="192.221" r="4" fill="#0" id="circle28"/>
	<circle cx="112.515" cy="109.634" r="4" fill="#0" id="circle29"/>
	<circle cx="119.237" cy="192.221" r="4" fill="#0" id="circle30"/>
	<circle cx="122.118" cy="109.634" r="4" fill="#0" id="circle31"/>
	<circle cx="127.88" cy="187.419" r="4" fill="#0" id="circle32"/>
	<circle cx="130.761" cy="114.436" r="4" fill="#0" id="circle33"/>
	<circle cx="137.483" cy="185.499" r="4" fill="#0" id="circle34"/>
	<circle cx="140.364" cy="114.436" r="4" fill="#0" id="circle35"/>
	<circle cx="147.086" cy="182.618" r="4" fill="#0" id="circle36"/>
	<circle cx="149.967" cy="114.436" r="4" fill="#0" id="circle37"/>
	<circle cx="156.689" cy="180.697" r="4" fill="#0" id="circle38"/>
	<circle cx="159.57" cy="115.396" r="4" fill="#0" id="circle39"/>
	<circle cx="166.292" cy="177.816" r="4" fill="#0" id="circle40"/>
	<circle cx="167.253" cy="102.912" r="4" fill="#0" id="circle41"/>
	<circle cx="167.253" cy="187.419" r="4" fill="#0" id="circle42"/>
	<circle cx="170.134" cy="197.022" r="4" fill="#0" id="circle43"/>
	<circle cx="172.054" cy="88.5073" r="4" fill="#0" id="circle44"/>
	<circle cx="178.776" cy="201.824" r="4" fill="#0" id="circle45"/>
	<circle cx="179.737" cy="80.8248" r="4" fill="#0" id="circle46"/>
	<circle cx="187.419" cy="206.625" r="4" fill="#0" id="circle47"/>
	<circle cx="189.34" cy="76.0232" r="4" fill="#0" id="circle48"/>
	<circle cx="197.022" cy="206.625" r="4" fill="#0" id="circle49"/>
	<circle cx="198.943" cy="71.2217" r="4" fill="#0" id="circle50"/>
	<circle cx="205.665" cy="211.427" r="4" fill="#0" id="circle51"/>
	<circle cx="208.546" cy="71.2217" r="4" fill="#0" id="circle52"/>
	<circle cx="215.268" cy="211.427" r="4" fill="#0" id="circle53"/>
	<circle cx="218.149" cy="66.4201" r="4" fill="#0" id="circle54"/>
	<circle cx="224.871" cy="211.427" r="4" fill="#0" id="circle55"/>
	<circle cx="227.752" cy="66.4201" r="4" fill="#0" id="circle56"/>
	<circle cx="233.514" cy="216.228" r="4" fill="#0" id="circle57"/>
	<circle cx="236.395" cy="61.6186" r="4" fill="#0" id="circle58"/>
	<circle cx="243.117" cy="216.228" r="4" fill="#0" id="circle59"/>
	<circle cx="245.998" cy="57.7773" r="4" fill="#0" id="circle60"/>
	<circle cx="251.76" cy="221.03" r="4" fill="#0" id="circle61"/>
	<circle cx="255.601" cy="56.817" r="4" fill="#0" id="circle62"/>
	<circle cx="261.363" cy="221.03" r="4" fill="#0" id="circle63"/>
	<circle cx="265.204" cy="52.9758" r="4" fill="#0" id="circle64"/>
	<circle cx="270.966" cy="221.03" r="4" fill="#0" id="circle65"/>
	<circle cx="274.807" cy="48.1742" r="4" fill="#0" id="circle66"/>
	<circle cx="279.609" cy="225.832" r="4" fill="#0" id="circle67"/>
	<circle cx="284.41" cy="43.3727" r="4" fill="#0" id="circle68"/>
	<circle cx="289.212" cy="225.832" r="4" fill="#0" id="circle69"/>
	<circle cx="294.014" cy="42.4124" r="4" fill="#0" id="circle70"/>
	<circle cx="298.815" cy="225.832" r="4" fill="#0" id="circle71"/>
	<circle cx="303.617" cy="42.4124" r="4" fill="#0" id="circle72"/>
	<circle cx="308.418" cy="225.832" r="4" fill="#0" id="circle73"/>
	<circle cx="312.259" cy="37.6108" r="4" fill="#0" id="circle74"/>
	<circle cx="318.021" cy="225.832" r="4" fill="#0" id="circle75"/>
	<circle cx="321.863" cy="37.6108" r="4" fill="#0" id="circle76"/>
	<circle cx="327.624" cy="225.832" r="4" fill="#0" id="circle77"/>
	<circle cx="331.466" cy="34.7299" r="4" fill="#0" id="circle78"/>
	<circle cx="337.227" cy="225.832" r="4" fill="#0" id="circle79"/>
	<circle cx="341.069" cy="32.8093" r="4" fill="#0" id="circle80"/>
	<circle cx="346.831" cy="228.712" r="4" fill="#0" id="circle81"/>
	<circle cx="350.672" cy="29.9284" r="4" fill="#0" id="circle82"/>
	<circle cx="356.434" cy="230.633" r="4" fill="#0" id="circle83"/>
	<circle cx="360.275" cy="28.0077" r="4" fill="#0" id="circle84"/>
	<circle cx="366.037" cy="230.633" r="4" fill="#0" id="circle85"/>
	<circle cx="369.878" cy="28.0077" r="4" fill="#0" id="circle86"/>
	<circle cx="375.64" cy="230.633" r="4" fill="#0" id="circle87"/>
	<circle cx="379.481" cy="28.0077" r="4" fill="#0" id="circle88"/>
	<circle cx="385.243" cy="230.633" r="4" fill="#0" id="circle89"/>
	<circle cx="388.124" cy="23.2062" r="4" fill="#0" id="circle90"/>
	<circle cx="394.846" cy="230.633" r="4" fill="#0" id="circle91"/>
	<circle cx="397.727" cy="23.2062" r="4" fill="#0" id="circle92"/>
	<circle cx="404.449" cy="230.633" r="4" fill="#0" id="circle93"/>
	<circle cx="407.33" cy="23.2062" r="4" fill="#0" id="circle94"/>
	<circle cx="414.052" cy="230.633" r="4" fill="#0" id="circle95"/>
	<circle cx="416.933" cy="23.2062" r="4" fill="#0" id="circle96"/>
	<circle cx="423.655" cy="230.633" r="4" fill="#0" id="circle97"/>
	<circle cx="425.576" cy="18.4046" r="4" fill="#0" id="circle98"/>
	<circle cx="433.258" cy="230.633" r="4" fill="#0" id="circle99"/>
	<circle cx="435.179" cy="18.4046" r="4" fill="#0" id="circle100"/>
	<circle cx="442.862" cy="230.633" r="4" fill="#0" id="circle101"/>
	<circle cx="444.782" cy="18.4046" r="4" fill="#0" id="circle102"/>
	<circle cx="451.504" cy="235.435" r="4" fill="#0" id="circle103"/>
	<circle cx="454.385" cy="18.4046" r="4" fill="#0" id="circle104"/>
	<circle cx="461.107" cy="235.435" r="4" fill="#0" id="circle105"/>
	<circle cx="463.028" cy="13.6031" r="4" fill="#0" id="circle106"/>
	<circle cx="470.711" cy="235.435" r="4" fill="#0" id="circle107"/>
	<circle cx="472.631" cy="13.6031" r="4" fill="#0" id="circle108"/>
	<circle cx="480.314" cy="235.435" r="4" fill="#0" id="circle109"/>
	<circle cx="482.234" cy="13.6031" r="4" fill="#0" id="circle110"/>
	<circle cx="489.917" cy="235.435" r="4" fill="#0" id="circle111"/>
	<circle cx="491.837" cy="13.6031" r="4" fill="#0" id="circle112"/>
	<circle cx="499.52" cy="235.435" r="4" fill="#0" id="circle113"/>
	<circle cx="501.44" cy="13.6031" r="4" fill="#0" id="circle114"/>
	<circle cx="509.123" cy="235.435" r="4" fill="#0" id="circle115"/>
	<circle cx="511.044" cy="8.80155" r="4" fill="#0" id="circle116"/>
	<circle cx="518.726" cy="235.435" r="4" fill="#0" id="circle117"/>
	<circle cx="520.647" cy="8.80155" r="4" fill="#0" id="circle118"/>
	<circle cx="528.329" cy="235.435" r="4" fill="#0" id="circle119"/>
	<circle cx="530.25" cy="8.80155" r="4" fill="#0" id="circle120"/>
	<circle cx="537.932" cy="235.435" r="4" fill="#0" id="circle121"/>
	<circle cx="539.853" cy="8.80155" r="4" fill="#0" id="circle122"/>
	<circle cx="547.535" cy="235.435" r="4" fill="#0" id="circle123"/>
	<circle cx="549.456" cy="8.80155" r="4" fill="#0" id="circle124"/>
	<circle cx="557.138" cy="235.435" r="4" fill="#0" id="circle125"/>
	<circle cx="559.059" cy="4" r="4" fill="#0" id="circle126"/>
	<circle cx="565.781" cy="230.633" r="4" fill="#0" id="circle127"/>
	<circle cx="568.662" cy="4" r="4" fill="#0" id="circle128"/>
	<circle cx="571.543" cy="206.625" r="4" fill="#0" id="circle129"/>
	<circle cx="571.543" cy="216.228" r="4" fill="#0" id="circle130"/>
	<circle cx="578.265" cy="4" r="4" fill="#0" id="circle131"/>
	<circle cx="580.186" cy="201.824" r="4" fill="#0" id="circle132"/>
	<circle cx="587.868" cy="4" r="4" fill="#0" id="circle133"/>
	<circle cx="589.789" cy="201.824" r="4" fill="#0" id="circle134"/>
	<circle cx="597.471" cy="4" r="4" fill="#0" id="circle135"/>
	<circle cx="599.392" cy="201.824" r="4" fill="#0" id="circle136"/>
	<circle cx="607.075" cy="4" r="4" fill="#0" id="circle137"/>
	<circle cx="608.995" cy="201.824" r="4" fill="#0" id="circle138"/>
	<circle cx="615.717" cy="8.80155" r="4" fill="#0" id="circle139"/>
	<circle cx="618.598" cy="201.824" r="4" fill="#0" id="circle140"/>
	<circle cx="624.36" cy="13.6031" r="4" fill="#0" id="circle141"/>
	<circle cx="628.201" cy="201.824" r="4" fill="#0" id="circle142"/>
	<circle cx="633.963" cy="16.484" r="4" fill="#0" id="circle143"/>
	<circle cx="636.844" cy="206.625" r="4" fill="#0" id="circle144"/>
	<circle cx="640.685" cy="24.1665" r="4" fill="#0" id="circle145"/>
	<circle cx="646.447" cy="206.625" r="4" fill="#0" id="circle146"/>
	<circle cx="648.368" cy="30.8887" r="4" fill="#0" id="circle147"/>
	<circle cx="653.169" cy="39.5315" r="4" fill="#0" id="circle148"/>
	<circle cx="656.05" cy="206.625" r="4" fill="#0" id="circle149"/>
	<circle cx="662.773" cy="42.4124" r="4" fill="#0" id="circle150"/>
	<circle cx="665.653" cy="206.625" r="4" fill="#0" id="circle151"/>
	<circle cx="672.376" cy="42.4124" r="4" fill="#0" id="circle152"/>
	<circle cx="675.257" cy="206.625" r="4" fill="#0" id="circle153"/>
	<circle cx="681.979" cy="42.4124" r="4" fill="#0" id="circle154"/>
	<circle cx="684.86" cy="206.625" r="4" fill="#0" id="circle155"/>
	<circle cx="691.582" cy="42.4124" r="4" fill="#0" id="circle156"/>
	<circle cx="694.463" cy="206.625" r="4" fill="#0" id="circle157"/>
	<circle cx="701.185" cy="42.4124" r="4" fill="#0" id="circle158"/>
	<circle cx="704.066" cy="206.625" r="4" fill="#0" id="circle159"/>
	<circle cx="710.788" cy="42.4124" r="4" fill="#0" id="circle160"/>
	<circle cx="713.669" cy="206.625" r="4" fill="#0" id="circle161"/>
	<circle cx="720.391" cy="42.4124" r="4" fill="#0" id="circle162"/>
	<circle cx="723.272" cy="206.625" r="4" fill="#0" id="circle163"/>
	<circle cx="729.994" cy="42.4124" r="4" fill="#0" id="circle164"/>
	<circle cx="731.915" cy="201.824" r="4" fill="#0" id="circle165"/>
	<circle cx="739.597" cy="42.4124" r="4" fill="#0" id="circle166"/>
	<circle cx="741.518" cy="201.824" r="4" fill="#0" id="circle167"/>
	<circle cx="748.24" cy="266.165" r="4" fill="#0" id="circle168"/>
	<circle cx="748.24" cy="275.768" r="4" fill="#0" id="circle169"/>
	<circle cx="749.2" cy="42.4124" r="4" fill="#0" id="circle170"/>
	<circle cx="751.121" cy="201.824" r="4" fill="#0" id="circle171"/>
	<circle cx="753.042" cy="256.561" r="4" fill="#0" id="circle172"/>
	<circle cx="757.843" cy="265.204" r="4" fill="#0" id="circle173"/>
	<circle cx="758.803" cy="42.4124" r="4" fill="#0" id="circle174"/>
	<circle cx="760.724" cy="205.665" r="4" fill="#0" id="circle175"/>
	<circle cx="760.724" cy="248.879" r="4" fill="#0" id="circle176"/>
	<circle cx="762.645" cy="215.268" r="4" fill="#0" id="circle177"/>
	<circle cx="762.645" cy="224.871" r="4" fill="#0" id="circle178"/>
	<circle cx="765.526" cy="239.276" r="4" fill="#0" id="circle179"/>
	<circle cx="767.446" cy="261.363" r="4" fill="#0" id="circle180"/>
	<circle cx="768.407" cy="42.4124" r="4" fill="#0" id="circle181"/>
	<circle cx="772.248" cy="251.76" r="4" fill="#0" id="circle182"/>
	<circle cx="778.01" cy="45.2933" r="4" fill="#0" id="circle183"/>
	<circle cx="779.93" cy="258.482" r="4" fill="#0" id="circle184"/>
	<circle cx="787.613" cy="47.2139" r="4" fill="#0" id="circle185"/>
	<circle cx="789.533" cy="253.681" r="4" fill="#0" id="circle186"/>
	<circle cx="797.216" cy="50.0949" r="4" fill="#0" id="circle187"/>
	<circle cx="797.216" cy="240.236" r="4" fill="#0" id="circle188"/>
	<circle cx="802.017" cy="230.633" r="4" fill="#0" id="circle189"/>
	<circle cx="805.859" cy="16.484" r="4" fill="#0" id="circle190"/>
	<circle cx="805.859" cy="26.0871" r="4" fill="#0" id="circle191"/>
	<circle cx="806.819" cy="52.0155" r="4" fill="#0" id="circle192"/>
	<circle cx="806.819" cy="221.03" r="4" fill="#0" id="circle193"/>
	<circle cx="810.66" cy="34.7299" r="4" fill="#0" id="circle194"/>
	<circle cx="811.621" cy="206.625" r="4" fill="#0" id="circle195"/>
	<circle cx="815.462" cy="15.5237" r="4" fill="#0" id="circle196"/>
	<circle cx="816.422" cy="25.1268" r="4" fill="#0" id="circle197"/>
	<circle cx="816.422" cy="197.022" r="4" fill="#0" id="circle198"/>
	<circle cx="821.224" cy="33.7696" r="4" fill="#0" id="circle199"/>
	<circle cx="825.065" cy="192.221" r="4" fill="#0" id="circle200"/>
	<circle cx="826.025" cy="42.4124" r="4" fill="#0" id="circle201"/>
	<circle cx="826.025" cy="52.0155" r="4" fill="#0" id="circle202"/>
	<circle cx="833.708" cy="57.7773" r="4" fill="#0" id="circle203"/>
	<circle cx="833.708" cy="187.419" r="4" fill="#0" id="circle204"/>
	<circle cx="843.311" cy="61.6186" r="4" fill="#0" id="circle205"/>
	<circle cx="843.311" cy="187.419" r="4" fill="#0" id="circle206"/>
	<circle cx="851.954" cy="182.618" r="4" fill="#0" id="circle207"/>
	<circle cx="852.914" cy="61.6186" r="4" fill="#0" id="circle208"/>
	<circle cx="861.557" cy="66.4201" r="4" fill="#0" id="circle209"/>
	<circle cx="861.557" cy="182.618" r="4" fill="#0" id="circle210"/>
	<circle cx="870.199" cy="177.816" r="4" fill="#0" id="circle211"/>
	<circle cx="871.16" cy="66.4201" r="4" fill="#0" id="circle212"/>
	<circle cx="878.842" cy="173.015" r="4" fill="#0" id="circle213"/>
	<circle cx="880.763" cy="66.4201" r="4" fill="#0" id="circle214"/>
	<circle cx="888.445" cy="168.213" r="4" fill="#0" id="circle215"/>
	<circle cx="890.366" cy="66.4201" r="4" fill="#0" id="circle216"/>
	<circle cx="898.048" cy="168.213" r="4" fill="#0" id="circle217"/>
	<circle cx="899.009" cy="71.2217" r="4" fill="#0" id="circle218"/>
	<circle cx="907.652" cy="163.411" r="4" fill="#0" id="circle219"/>
	<circle cx="908.612" cy="71.2217" r="4" fill="#0" id="circle220"/>
	<circle cx="917.255" cy="163.411" r="4" fill="#0" id="circle221"/>
	<circle cx="918.215" cy="71.2217" r="4" fill="#0" id="circle222"/>
	<circle cx="926.858" cy="76.0232" r="4" fill="#0" id="circle223"/>
	<circle cx="926.858" cy="163.411" r="4" fill="#0" id="circle224"/>
	<circle cx="936.461" cy="76.0232" r="4" fill="#0" id="circle225"/>
	<circle cx="936.461" cy="158.61" r="4" fill="#0" id="circle226"/>
	<circle cx="946.064" cy="78.9042" r="4" fill="#0" id="circle227"/>
	<circle cx="946.064" cy="158.61" r="4" fill="#0" id="circle228"/>
	<circle cx="954.707" cy="74.1026" r="4" fill="#0" id="circle229"/>
	<circle cx="955.667" cy="158.61" r="4" fill="#0" id="circle230"/>
	<circle cx="962.389" cy="66.4201" r="4" fill="#0" id="circle231"/>
	<circle cx="964.31" cy="153.808" r="4" fill="#0" id="circle232"/>
	<circle cx="971.032" cy="61.6186" r="4" fill="#0" id="circle233"/>
	<circle cx="973.913" cy="153.808" r="4" fill="#0" id="circle234"/>
	<circle cx="974.873" cy="71.2217" r="4" fill="#0" id="circle235"/>
	<circle cx="974.873" cy="86.5866" r="4" fill="#0" id="circle236"/>
	<circle cx="974.873" cy="96.1897" r="4" fill="#0" id="circle237"/>
	<circle cx="974.873" cy="134.602" r="4" fill="#0" id="circle238"/>
	<circle cx="979.675" cy="104.833" r="4" fill="#0" id="circle239"/>
	<circle cx="979.675" cy="114.436" r="4" fill="#0" id="circle240"/>
	<circle cx="979.675" cy="124.039" r="4" fill="#0" id="circle241"/>
	<circle cx="979.675" cy="143.245" r="4" fill="#0" id="circle242"/>
	<circle cx="982.556" cy="79.8645" r="4" fill="#0" id="circle243"/>
	<circle cx="982.556" cy="158.61" r="4" fill="#0" id="circle244"/>
	<circle cx="983.516" cy="64.4995" r="4" fill="#0" id="circle245"/>
	<circle cx="988.318" cy="148.046" r="4" fill="#0" id="circle246"/>
	<circle cx="989.278" cy="72.182" r="4" fill="#0" id="circle247"/>
	<circle cx="991.198" cy="163.411" r="4" fill="#0" id="circle248"/>
	<circle cx="996" cy="153.808" r="4" fill="#0" id="circle249"/>
	</g>
</svg>