<?xml version="1.0" encoding="UTF-8" standalone="no"?>
<!-- Created with CurveBenchmark -->
<svg
	xmlns:dc="http://purl.org/dc/elements/1.1/"
	xmlns:cc="http://creativecommons.org/ns#"
	xmlns:rdf="http://www.w3.org/1999/02/22-rdf-syntax-ns#"
	xmlns:svg="http://www.w3.org/2000/svg"
	xmlns="http://www.w3.org/2000/svg"
	xmlns:sodipodi="http://sodipodi.sourceforge.net/DTD/sodipodi-0.dtd"
	xmlns:inkscape="http://www.inkscape.org/namespaces/inkscape"
	width="1000"
	height="1000"
	id="svg2"
	version="1.1"
	sodipodi:docname="manifold/crust-flatfish22.png.txt">
<defs
	id="defs4" />
<metadata
	id="metadata7">
	<rdf:RDF>
		<cc:Work
			rdf:about="">
			<dc:format>image/svg+xml</dc:format>
			<dc:type
				rdf:resource="http://purl.org/dc/dcmitype/StillImage" />
			<dc:title></dc:title>
		</cc:Work>
	</rdf:RDF>
</metadata>
<g
	inkscape:label="Layer 1"
	inkscape:groupmode="layer"
	id="layer1">
	<path style="fill:none;stroke:red;stroke-width:1px;stroke-linecap:butt;stroke-linejoin:miter;stroke-opacity:1" d="M 284.877,12.1178 270.265,20.2357 z" id="boundary" inkscape:connector-curvature="0" />
	<path style="fill:none;stroke:red;stroke-width:1px;stroke-linecap:butt;stroke-linejoin:miter;stroke-opacity:1" d="M 90.0491,174.475 77.0606,187.463 z" id="boundary" inkscape:connector-curvature="0" />
	<path style="fill:none;stroke:red;stroke-width:1px;stroke-linecap:butt;stroke-linejoin:miter;stroke-opacity:1" d="M 103.038,161.486 90.0491,174.475 z" id="boundary" inkscape:connector-curvature="0" />
	<path style="fill:none;stroke:red;stroke-width:1px;stroke-linecap:butt;stroke-linejoin:miter;stroke-opacity:1" d="M 77.0606,187.463 60.8249,195.581 z" id="boundary" inkscape:connector-curvature="0" />
	<path style="fill:none;stroke:red;stroke-width:1px;stroke-linecap:butt;stroke-linejoin:miter;stroke-opacity:1" d="M 130.638,142.003 116.026,150.121 z" id="boundary" inkscape:connector-curvature="0" />
	<path style="fill:none;stroke:red;stroke-width:1px;stroke-linecap:butt;stroke-linejoin:miter;stroke-opacity:1" d="M 143.627,129.015 130.638,142.003 z" id="boundary" inkscape:connector-curvature="0" />
	<path style="fill:none;stroke:red;stroke-width:1px;stroke-linecap:butt;stroke-linejoin:miter;stroke-opacity:1" d="M 103.038,161.486 116.026,150.121 z" id="boundary" inkscape:connector-curvature="0" />
	<path style="fill:none;stroke:red;stroke-width:1px;stroke-linecap:butt;stroke-linejoin:miter;stroke-opacity:1" d="M 184.216,72.1899 197.205,60.8249 z" id="boundary" inkscape:connector-curvature="0" />
	<path style="fill:none;stroke:red;stroke-width:1px;stroke-linecap:butt;stroke-linejoin:miter;stroke-opacity:1" d="M 211.817,52.707 197.205,60.8249 z" id="boundary" inkscape:connector-curvature="0" />
	<path style="fill:none;stroke:red;stroke-width:1px;stroke-linecap:butt;stroke-linejoin:miter;stroke-opacity:1" d="M 241.041,36.4714 255.653,28.3535 z" id="boundary" inkscape:connector-curvature="0" />
	<path style="fill:none;stroke:red;stroke-width:1px;stroke-linecap:butt;stroke-linejoin:miter;stroke-opacity:1" d="M 270.265,20.2357 255.653,28.3535 z" id="boundary" inkscape:connector-curvature="0" />
	<path style="fill:none;stroke:red;stroke-width:1px;stroke-linecap:butt;stroke-linejoin:miter;stroke-opacity:1" d="M 211.817,52.707 226.429,44.5892 z" id="boundary" inkscape:connector-curvature="0" />
	<path style="fill:none;stroke:red;stroke-width:1px;stroke-linecap:butt;stroke-linejoin:miter;stroke-opacity:1" d="M 241.041,36.4714 226.429,44.5892 z" id="boundary" inkscape:connector-curvature="0" />
	<path style="fill:none;stroke:red;stroke-width:1px;stroke-linecap:butt;stroke-linejoin:miter;stroke-opacity:1" d="M 156.615,117.65 163.11,101.414 z" id="boundary" inkscape:connector-curvature="0" />
	<path style="fill:none;stroke:red;stroke-width:1px;stroke-linecap:butt;stroke-linejoin:miter;stroke-opacity:1" d="M 176.098,88.4255 163.11,101.414 z" id="boundary" inkscape:connector-curvature="0" />
	<path style="fill:none;stroke:red;stroke-width:1px;stroke-linecap:butt;stroke-linejoin:miter;stroke-opacity:1" d="M 143.627,129.015 156.615,117.65 z" id="boundary" inkscape:connector-curvature="0" />
	<path style="fill:none;stroke:red;stroke-width:1px;stroke-linecap:butt;stroke-linejoin:miter;stroke-opacity:1" d="M 176.098,88.4255 184.216,72.1899 z" id="boundary" inkscape:connector-curvature="0" />
	<path style="fill:none;stroke:red;stroke-width:1px;stroke-linecap:butt;stroke-linejoin:miter;stroke-opacity:1" d="M 41.3421,239.417 28.3535,252.406 z" id="boundary" inkscape:connector-curvature="0" />
	<path style="fill:none;stroke:red;stroke-width:1px;stroke-linecap:butt;stroke-linejoin:miter;stroke-opacity:1" d="M 28.3535,252.406 25.1064,271.889 z" id="boundary" inkscape:connector-curvature="0" />
	<path style="fill:none;stroke:red;stroke-width:1px;stroke-linecap:butt;stroke-linejoin:miter;stroke-opacity:1" d="M 52.707,219.935 41.3421,239.417 z" id="boundary" inkscape:connector-curvature="0" />
	<path style="fill:none;stroke:red;stroke-width:1px;stroke-linecap:butt;stroke-linejoin:miter;stroke-opacity:1" d="M 60.8249,195.581 52.707,219.935 z" id="boundary" inkscape:connector-curvature="0" />
	<path style="fill:none;stroke:red;stroke-width:1px;stroke-linecap:butt;stroke-linejoin:miter;stroke-opacity:1" d="M 4,309.231 12.1178,284.877 z" id="boundary" inkscape:connector-curvature="0" />
	<path style="fill:none;stroke:red;stroke-width:1px;stroke-linecap:butt;stroke-linejoin:miter;stroke-opacity:1" d="M 25.1064,271.889 12.1178,284.877 z" id="boundary" inkscape:connector-curvature="0" />
	<path style="fill:none;stroke:red;stroke-width:1px;stroke-linecap:butt;stroke-linejoin:miter;stroke-opacity:1" d="M 4,309.231 4,325.466 z" id="boundary" inkscape:connector-curvature="0" />
	<path style="fill:none;stroke:red;stroke-width:1px;stroke-linecap:butt;stroke-linejoin:miter;stroke-opacity:1" d="M 4,341.702 4,325.466 z" id="boundary" inkscape:connector-curvature="0" />
	<path style="fill:none;stroke:red;stroke-width:1px;stroke-linecap:butt;stroke-linejoin:miter;stroke-opacity:1" d="M 299.489,4 315.725,4 z" id="boundary" inkscape:connector-curvature="0" />
	<path style="fill:none;stroke:red;stroke-width:1px;stroke-linecap:butt;stroke-linejoin:miter;stroke-opacity:1" d="M 331.961,4 315.725,4 z" id="boundary" inkscape:connector-curvature="0" />
	<path style="fill:none;stroke:red;stroke-width:1px;stroke-linecap:butt;stroke-linejoin:miter;stroke-opacity:1" d="M 427.751,12.1178 411.516,12.1178 z" id="boundary" inkscape:connector-curvature="0" />
	<path style="fill:none;stroke:red;stroke-width:1px;stroke-linecap:butt;stroke-linejoin:miter;stroke-opacity:1" d="M 380.668,4 364.432,4 z" id="boundary" inkscape:connector-curvature="0" />
	<path style="fill:none;stroke:red;stroke-width:1px;stroke-linecap:butt;stroke-linejoin:miter;stroke-opacity:1" d="M 348.196,4 364.432,4 z" id="boundary" inkscape:connector-curvature="0" />
	<path style="fill:none;stroke:red;stroke-width:1px;stroke-linecap:butt;stroke-linejoin:miter;stroke-opacity:1" d="M 348.196,4 331.961,4 z" id="boundary" inkscape:connector-curvature="0" />
	<path style="fill:none;stroke:red;stroke-width:1px;stroke-linecap:butt;stroke-linejoin:miter;stroke-opacity:1" d="M 284.877,12.1178 299.489,4 z" id="boundary" inkscape:connector-curvature="0" />
	<path style="fill:none;stroke:red;stroke-width:1px;stroke-linecap:butt;stroke-linejoin:miter;stroke-opacity:1" d="M 380.668,4 396.903,4 z" id="boundary" inkscape:connector-curvature="0" />
	<path style="fill:none;stroke:red;stroke-width:1px;stroke-linecap:butt;stroke-linejoin:miter;stroke-opacity:1" d="M 396.903,4 411.516,12.1178 z" id="boundary" inkscape:connector-curvature="0" />
	<path style="fill:none;stroke:red;stroke-width:1px;stroke-linecap:butt;stroke-linejoin:miter;stroke-opacity:1" d="M 460.223,12.1178 443.987,8.8707 z" id="boundary" inkscape:connector-curvature="0" />
	<path style="fill:none;stroke:red;stroke-width:1px;stroke-linecap:butt;stroke-linejoin:miter;stroke-opacity:1" d="M 443.987,8.8707 427.751,12.1178 z" id="boundary" inkscape:connector-curvature="0" />
	<path style="fill:none;stroke:red;stroke-width:1px;stroke-linecap:butt;stroke-linejoin:miter;stroke-opacity:1" d="M 476.458,12.1178 460.223,12.1178 z" id="boundary" inkscape:connector-curvature="0" />
	<path style="fill:none;stroke:red;stroke-width:1px;stroke-linecap:butt;stroke-linejoin:miter;stroke-opacity:1" d="M 476.458,12.1178 492.694,12.1178 z" id="boundary" inkscape:connector-curvature="0" />
	<path style="fill:none;stroke:red;stroke-width:1px;stroke-linecap:butt;stroke-linejoin:miter;stroke-opacity:1" d="M 492.694,12.1178 508.93,12.1178 z" id="boundary" inkscape:connector-curvature="0" />
	<path style="fill:none;stroke:red;stroke-width:1px;stroke-linecap:butt;stroke-linejoin:miter;stroke-opacity:1" d="M 523.542,20.2357 538.154,28.3535 z" id="boundary" inkscape:connector-curvature="0" />
	<path style="fill:none;stroke:red;stroke-width:1px;stroke-linecap:butt;stroke-linejoin:miter;stroke-opacity:1" d="M 523.542,20.2357 508.93,12.1178 z" id="boundary" inkscape:connector-curvature="0" />
	<path style="fill:none;stroke:red;stroke-width:1px;stroke-linecap:butt;stroke-linejoin:miter;stroke-opacity:1" d="M 538.154,28.3535 554.39,28.3535 z" id="boundary" inkscape:connector-curvature="0" />
	<path style="fill:none;stroke:red;stroke-width:1px;stroke-linecap:butt;stroke-linejoin:miter;stroke-opacity:1" d="M 23.4828,369.303 12.1178,356.314 z" id="boundary" inkscape:connector-curvature="0" />
	<path style="fill:none;stroke:red;stroke-width:1px;stroke-linecap:butt;stroke-linejoin:miter;stroke-opacity:1" d="M 12.1178,356.314 4,341.702 z" id="boundary" inkscape:connector-curvature="0" />
	<path style="fill:none;stroke:red;stroke-width:1px;stroke-linecap:butt;stroke-linejoin:miter;stroke-opacity:1" d="M 46.2128,392.033 36.4714,379.044 z" id="boundary" inkscape:connector-curvature="0" />
	<path style="fill:none;stroke:red;stroke-width:1px;stroke-linecap:butt;stroke-linejoin:miter;stroke-opacity:1" d="M 36.4714,379.044 23.4828,369.303 z" id="boundary" inkscape:connector-curvature="0" />
	<path style="fill:none;stroke:red;stroke-width:1px;stroke-linecap:butt;stroke-linejoin:miter;stroke-opacity:1" d="M 46.2128,392.033 62.4484,395.28 z" id="boundary" inkscape:connector-curvature="0" />
	<path style="fill:none;stroke:red;stroke-width:1px;stroke-linecap:butt;stroke-linejoin:miter;stroke-opacity:1" d="M 77.0606,403.398 62.4484,395.28 z" id="boundary" inkscape:connector-curvature="0" />
	<path style="fill:none;stroke:red;stroke-width:1px;stroke-linecap:butt;stroke-linejoin:miter;stroke-opacity:1" d="M 81.9313,419.633 77.0606,403.398 z" id="boundary" inkscape:connector-curvature="0" />
	<path style="fill:none;stroke:red;stroke-width:1px;stroke-linecap:butt;stroke-linejoin:miter;stroke-opacity:1" d="M 81.9313,419.633 98.1669,426.128 z" id="boundary" inkscape:connector-curvature="0" />
	<path style="fill:none;stroke:red;stroke-width:1px;stroke-linecap:butt;stroke-linejoin:miter;stroke-opacity:1" d="M 98.1669,426.128 109.532,439.116 z" id="boundary" inkscape:connector-curvature="0" />
	<path style="fill:none;stroke:red;stroke-width:1px;stroke-linecap:butt;stroke-linejoin:miter;stroke-opacity:1" d="M 109.532,439.116 125.768,443.987 z" id="boundary" inkscape:connector-curvature="0" />
	<path style="fill:none;stroke:red;stroke-width:1px;stroke-linecap:butt;stroke-linejoin:miter;stroke-opacity:1" d="M 135.509,456.975 125.768,443.987 z" id="boundary" inkscape:connector-curvature="0" />
	<path style="fill:none;stroke:red;stroke-width:1px;stroke-linecap:butt;stroke-linejoin:miter;stroke-opacity:1" d="M 135.509,456.975 151.745,463.47 z" id="boundary" inkscape:connector-curvature="0" />
	<path style="fill:none;stroke:red;stroke-width:1px;stroke-linecap:butt;stroke-linejoin:miter;stroke-opacity:1" d="M 151.745,463.47 163.11,476.458 z" id="boundary" inkscape:connector-curvature="0" />
	<path style="fill:none;stroke:red;stroke-width:1px;stroke-linecap:butt;stroke-linejoin:miter;stroke-opacity:1" d="M 192.334,492.694 176.098,487.823 z" id="boundary" inkscape:connector-curvature="0" />
	<path style="fill:none;stroke:red;stroke-width:1px;stroke-linecap:butt;stroke-linejoin:miter;stroke-opacity:1" d="M 176.098,487.823 163.11,476.458 z" id="boundary" inkscape:connector-curvature="0" />
	<path style="fill:none;stroke:red;stroke-width:1px;stroke-linecap:butt;stroke-linejoin:miter;stroke-opacity:1" d="M 202.075,505.682 192.334,492.694 z" id="boundary" inkscape:connector-curvature="0" />
	<path style="fill:none;stroke:red;stroke-width:1px;stroke-linecap:butt;stroke-linejoin:miter;stroke-opacity:1" d="M 202.075,505.682 206.946,521.918 z" id="boundary" inkscape:connector-curvature="0" />
	<path style="fill:none;stroke:red;stroke-width:1px;stroke-linecap:butt;stroke-linejoin:miter;stroke-opacity:1" d="M 206.946,521.918 208.57,538.154 z" id="boundary" inkscape:connector-curvature="0" />
	<path style="fill:none;stroke:red;stroke-width:1px;stroke-linecap:butt;stroke-linejoin:miter;stroke-opacity:1" d="M 215.064,554.39 216.687,570.625 z" id="boundary" inkscape:connector-curvature="0" />
	<path style="fill:none;stroke:red;stroke-width:1px;stroke-linecap:butt;stroke-linejoin:miter;stroke-opacity:1" d="M 215.064,554.39 208.57,538.154 z" id="boundary" inkscape:connector-curvature="0" />
	<path style="fill:none;stroke:red;stroke-width:1px;stroke-linecap:butt;stroke-linejoin:miter;stroke-opacity:1" d="M 224.805,585.237 231.3,601.473 z" id="boundary" inkscape:connector-curvature="0" />
	<path style="fill:none;stroke:red;stroke-width:1px;stroke-linecap:butt;stroke-linejoin:miter;stroke-opacity:1" d="M 231.3,601.473 244.288,612.838 z" id="boundary" inkscape:connector-curvature="0" />
	<path style="fill:none;stroke:red;stroke-width:1px;stroke-linecap:butt;stroke-linejoin:miter;stroke-opacity:1" d="M 224.805,585.237 216.687,570.625 z" id="boundary" inkscape:connector-curvature="0" />
	<path style="fill:none;stroke:red;stroke-width:1px;stroke-linecap:butt;stroke-linejoin:miter;stroke-opacity:1" d="M 294.619,497.565 281.63,508.93 z" id="boundary" inkscape:connector-curvature="0" />
	<path style="fill:none;stroke:red;stroke-width:1px;stroke-linecap:butt;stroke-linejoin:miter;stroke-opacity:1" d="M 310.854,492.694 294.619,497.565 z" id="boundary" inkscape:connector-curvature="0" />
	<path style="fill:none;stroke:red;stroke-width:1px;stroke-linecap:butt;stroke-linejoin:miter;stroke-opacity:1" d="M 310.854,492.694 327.09,492.694 z" id="boundary" inkscape:connector-curvature="0" />
	<path style="fill:none;stroke:red;stroke-width:1px;stroke-linecap:butt;stroke-linejoin:miter;stroke-opacity:1" d="M 327.09,492.694 343.326,492.694 z" id="boundary" inkscape:connector-curvature="0" />
	<path style="fill:none;stroke:red;stroke-width:1px;stroke-linecap:butt;stroke-linejoin:miter;stroke-opacity:1" d="M 354.691,505.682 343.326,492.694 z" id="boundary" inkscape:connector-curvature="0" />
	<path style="fill:none;stroke:red;stroke-width:1px;stroke-linecap:butt;stroke-linejoin:miter;stroke-opacity:1" d="M 284.877,525.165 289.748,541.401 z" id="boundary" inkscape:connector-curvature="0" />
	<path style="fill:none;stroke:red;stroke-width:1px;stroke-linecap:butt;stroke-linejoin:miter;stroke-opacity:1" d="M 281.63,508.93 284.877,525.165 z" id="boundary" inkscape:connector-curvature="0" />
	<path style="fill:none;stroke:red;stroke-width:1px;stroke-linecap:butt;stroke-linejoin:miter;stroke-opacity:1" d="M 354.691,505.682 370.926,512.177 z" id="boundary" inkscape:connector-curvature="0" />
	<path style="fill:none;stroke:red;stroke-width:1px;stroke-linecap:butt;stroke-linejoin:miter;stroke-opacity:1" d="M 370.926,512.177 385.538,520.295 z" id="boundary" inkscape:connector-curvature="0" />
	<path style="fill:none;stroke:red;stroke-width:1px;stroke-linecap:butt;stroke-linejoin:miter;stroke-opacity:1" d="M 398.527,531.66 385.538,520.295 z" id="boundary" inkscape:connector-curvature="0" />
	<path style="fill:none;stroke:red;stroke-width:1px;stroke-linecap:butt;stroke-linejoin:miter;stroke-opacity:1" d="M 409.892,544.648 398.527,531.66 z" id="boundary" inkscape:connector-curvature="0" />
	<path style="fill:none;stroke:red;stroke-width:1px;stroke-linecap:butt;stroke-linejoin:miter;stroke-opacity:1" d="M 547.895,549.519 533.283,557.637 z" id="boundary" inkscape:connector-curvature="0" />
	<path style="fill:none;stroke:red;stroke-width:1px;stroke-linecap:butt;stroke-linejoin:miter;stroke-opacity:1" d="M 273.512,573.872 281.63,557.637 z" id="boundary" inkscape:connector-curvature="0" />
	<path style="fill:none;stroke:red;stroke-width:1px;stroke-linecap:butt;stroke-linejoin:miter;stroke-opacity:1" d="M 273.512,573.872 273.512,590.108 z" id="boundary" inkscape:connector-curvature="0" />
	<path style="fill:none;stroke:red;stroke-width:1px;stroke-linecap:butt;stroke-linejoin:miter;stroke-opacity:1" d="M 281.63,557.637 289.748,541.401 z" id="boundary" inkscape:connector-curvature="0" />
	<path style="fill:none;stroke:red;stroke-width:1px;stroke-linecap:butt;stroke-linejoin:miter;stroke-opacity:1" d="M 260.524,614.462 244.288,612.838 z" id="boundary" inkscape:connector-curvature="0" />
	<path style="fill:none;stroke:red;stroke-width:1px;stroke-linecap:butt;stroke-linejoin:miter;stroke-opacity:1" d="M 273.512,590.108 260.524,614.462 z" id="boundary" inkscape:connector-curvature="0" />
	<path style="fill:none;stroke:red;stroke-width:1px;stroke-linecap:butt;stroke-linejoin:miter;stroke-opacity:1" d="M 422.881,556.013 409.892,544.648 z" id="boundary" inkscape:connector-curvature="0" />
	<path style="fill:none;stroke:red;stroke-width:1px;stroke-linecap:butt;stroke-linejoin:miter;stroke-opacity:1" d="M 439.116,557.637 455.352,557.637 z" id="boundary" inkscape:connector-curvature="0" />
	<path style="fill:none;stroke:red;stroke-width:1px;stroke-linecap:butt;stroke-linejoin:miter;stroke-opacity:1" d="M 439.116,557.637 422.881,556.013 z" id="boundary" inkscape:connector-curvature="0" />
	<path style="fill:none;stroke:red;stroke-width:1px;stroke-linecap:butt;stroke-linejoin:miter;stroke-opacity:1" d="M 469.964,565.755 455.352,557.637 z" id="boundary" inkscape:connector-curvature="0" />
	<path style="fill:none;stroke:red;stroke-width:1px;stroke-linecap:butt;stroke-linejoin:miter;stroke-opacity:1" d="M 486.2,565.755 469.964,565.755 z" id="boundary" inkscape:connector-curvature="0" />
	<path style="fill:none;stroke:red;stroke-width:1px;stroke-linecap:butt;stroke-linejoin:miter;stroke-opacity:1" d="M 486.2,565.755 502.435,565.755 z" id="boundary" inkscape:connector-curvature="0" />
	<path style="fill:none;stroke:red;stroke-width:1px;stroke-linecap:butt;stroke-linejoin:miter;stroke-opacity:1" d="M 518.671,565.755 502.435,565.755 z" id="boundary" inkscape:connector-curvature="0" />
	<path style="fill:none;stroke:red;stroke-width:1px;stroke-linecap:butt;stroke-linejoin:miter;stroke-opacity:1" d="M 533.283,557.637 518.671,565.755 z" id="boundary" inkscape:connector-curvature="0" />
	<path style="fill:none;stroke:red;stroke-width:1px;stroke-linecap:butt;stroke-linejoin:miter;stroke-opacity:1" d="M 569.002,36.4714 554.39,28.3535 z" id="boundary" inkscape:connector-curvature="0" />
	<path style="fill:none;stroke:red;stroke-width:1px;stroke-linecap:butt;stroke-linejoin:miter;stroke-opacity:1" d="M 569.002,36.4714 583.614,44.5892 z" id="boundary" inkscape:connector-curvature="0" />
	<path style="fill:none;stroke:red;stroke-width:1px;stroke-linecap:butt;stroke-linejoin:miter;stroke-opacity:1" d="M 598.226,52.707 583.614,44.5892 z" id="boundary" inkscape:connector-curvature="0" />
	<path style="fill:none;stroke:red;stroke-width:1px;stroke-linecap:butt;stroke-linejoin:miter;stroke-opacity:1" d="M 598.226,52.707 614.462,57.5777 z" id="boundary" inkscape:connector-curvature="0" />
	<path style="fill:none;stroke:red;stroke-width:1px;stroke-linecap:butt;stroke-linejoin:miter;stroke-opacity:1" d="M 625.827,70.5663 614.462,57.5777 z" id="boundary" inkscape:connector-curvature="0" />
	<path style="fill:none;stroke:red;stroke-width:1px;stroke-linecap:butt;stroke-linejoin:miter;stroke-opacity:1" d="M 625.827,70.5663 638.815,81.9313 z" id="boundary" inkscape:connector-curvature="0" />
	<path style="fill:none;stroke:red;stroke-width:1px;stroke-linecap:butt;stroke-linejoin:miter;stroke-opacity:1" d="M 650.18,94.9198 666.416,101.414 z" id="boundary" inkscape:connector-curvature="0" />
	<path style="fill:none;stroke:red;stroke-width:1px;stroke-linecap:butt;stroke-linejoin:miter;stroke-opacity:1" d="M 666.416,101.414 671.286,117.65 z" id="boundary" inkscape:connector-curvature="0" />
	<path style="fill:none;stroke:red;stroke-width:1px;stroke-linecap:butt;stroke-linejoin:miter;stroke-opacity:1" d="M 638.815,81.9313 650.18,94.9198 z" id="boundary" inkscape:connector-curvature="0" />
	<path style="fill:none;stroke:red;stroke-width:1px;stroke-linecap:butt;stroke-linejoin:miter;stroke-opacity:1" d="M 687.522,122.52 671.286,117.65 z" id="boundary" inkscape:connector-curvature="0" />
	<path style="fill:none;stroke:red;stroke-width:1px;stroke-linecap:butt;stroke-linejoin:miter;stroke-opacity:1" d="M 687.522,122.52 698.887,135.509 z" id="boundary" inkscape:connector-curvature="0" />
	<path style="fill:none;stroke:red;stroke-width:1px;stroke-linecap:butt;stroke-linejoin:miter;stroke-opacity:1" d="M 698.887,135.509 707.005,150.121 z" id="boundary" inkscape:connector-curvature="0" />
	<path style="fill:none;stroke:red;stroke-width:1px;stroke-linecap:butt;stroke-linejoin:miter;stroke-opacity:1" d="M 707.005,150.121 719.993,159.863 z" id="boundary" inkscape:connector-curvature="0" />
	<path style="fill:none;stroke:red;stroke-width:1px;stroke-linecap:butt;stroke-linejoin:miter;stroke-opacity:1" d="M 728.111,174.475 719.993,159.863 z" id="boundary" inkscape:connector-curvature="0" />
	<path style="fill:none;stroke:red;stroke-width:1px;stroke-linecap:butt;stroke-linejoin:miter;stroke-opacity:1" d="M 742.723,182.592 728.111,174.475 z" id="boundary" inkscape:connector-curvature="0" />
	<path style="fill:none;stroke:red;stroke-width:1px;stroke-linecap:butt;stroke-linejoin:miter;stroke-opacity:1" d="M 719.993,265.394 723.241,281.63 z" id="boundary" inkscape:connector-curvature="0" />
	<path style="fill:none;stroke:red;stroke-width:1px;stroke-linecap:butt;stroke-linejoin:miter;stroke-opacity:1" d="M 728.111,249.159 719.993,265.394 z" id="boundary" inkscape:connector-curvature="0" />
	<path style="fill:none;stroke:red;stroke-width:1px;stroke-linecap:butt;stroke-linejoin:miter;stroke-opacity:1" d="M 728.111,249.159 736.229,224.805 z" id="boundary" inkscape:connector-curvature="0" />
	<path style="fill:none;stroke:red;stroke-width:1px;stroke-linecap:butt;stroke-linejoin:miter;stroke-opacity:1" d="M 739.476,288.124 723.241,281.63 z" id="boundary" inkscape:connector-curvature="0" />
	<path style="fill:none;stroke:red;stroke-width:1px;stroke-linecap:butt;stroke-linejoin:miter;stroke-opacity:1" d="M 755.712,280.007 739.476,288.124 z" id="boundary" inkscape:connector-curvature="0" />
	<path style="fill:none;stroke:red;stroke-width:1px;stroke-linecap:butt;stroke-linejoin:miter;stroke-opacity:1" d="M 752.465,215.064 736.229,224.805 z" id="boundary" inkscape:connector-curvature="0" />
	<path style="fill:none;stroke:red;stroke-width:1px;stroke-linecap:butt;stroke-linejoin:miter;stroke-opacity:1" d="M 744.347,200.452 752.465,215.064 z" id="boundary" inkscape:connector-curvature="0" />
	<path style="fill:none;stroke:red;stroke-width:1px;stroke-linecap:butt;stroke-linejoin:miter;stroke-opacity:1" d="M 744.347,200.452 742.723,182.592 z" id="boundary" inkscape:connector-curvature="0" />
	<path style="fill:none;stroke:red;stroke-width:1px;stroke-linecap:butt;stroke-linejoin:miter;stroke-opacity:1" d="M 771.948,280.007 784.936,267.018 z" id="boundary" inkscape:connector-curvature="0" />
	<path style="fill:none;stroke:red;stroke-width:1px;stroke-linecap:butt;stroke-linejoin:miter;stroke-opacity:1" d="M 784.936,267.018 797.925,257.277 z" id="boundary" inkscape:connector-curvature="0" />
	<path style="fill:none;stroke:red;stroke-width:1px;stroke-linecap:butt;stroke-linejoin:miter;stroke-opacity:1" d="M 771.948,280.007 755.712,280.007 z" id="boundary" inkscape:connector-curvature="0" />
	<path style="fill:none;stroke:red;stroke-width:1px;stroke-linecap:butt;stroke-linejoin:miter;stroke-opacity:1" d="M 914.822,193.957 901.833,206.946 z" id="boundary" inkscape:connector-curvature="0" />
	<path style="fill:none;stroke:red;stroke-width:1px;stroke-linecap:butt;stroke-linejoin:miter;stroke-opacity:1" d="M 885.597,206.946 901.833,206.946 z" id="boundary" inkscape:connector-curvature="0" />
	<path style="fill:none;stroke:red;stroke-width:1px;stroke-linecap:butt;stroke-linejoin:miter;stroke-opacity:1" d="M 885.597,206.946 869.362,215.064 z" id="boundary" inkscape:connector-curvature="0" />
	<path style="fill:none;stroke:red;stroke-width:1px;stroke-linecap:butt;stroke-linejoin:miter;stroke-opacity:1" d="M 931.057,193.957 914.822,193.957 z" id="boundary" inkscape:connector-curvature="0" />
	<path style="fill:none;stroke:red;stroke-width:1px;stroke-linecap:butt;stroke-linejoin:miter;stroke-opacity:1" d="M 979.764,190.71 963.529,190.71 z" id="boundary" inkscape:connector-curvature="0" />
	<path style="fill:none;stroke:red;stroke-width:1px;stroke-linecap:butt;stroke-linejoin:miter;stroke-opacity:1" d="M 947.293,190.71 963.529,190.71 z" id="boundary" inkscape:connector-curvature="0" />
	<path style="fill:none;stroke:red;stroke-width:1px;stroke-linecap:butt;stroke-linejoin:miter;stroke-opacity:1" d="M 996,190.71 979.764,190.71 z" id="boundary" inkscape:connector-curvature="0" />
	<path style="fill:none;stroke:red;stroke-width:1px;stroke-linecap:butt;stroke-linejoin:miter;stroke-opacity:1" d="M 947.293,190.71 931.057,193.957 z" id="boundary" inkscape:connector-curvature="0" />
	<path style="fill:none;stroke:red;stroke-width:1px;stroke-linecap:butt;stroke-linejoin:miter;stroke-opacity:1" d="M 996,190.71 989.506,208.57 z" id="boundary" inkscape:connector-curvature="0" />
	<path style="fill:none;stroke:red;stroke-width:1px;stroke-linecap:butt;stroke-linejoin:miter;stroke-opacity:1" d="M 989.506,208.57 974.894,216.687 z" id="boundary" inkscape:connector-curvature="0" />
	<path style="fill:none;stroke:red;stroke-width:1px;stroke-linecap:butt;stroke-linejoin:miter;stroke-opacity:1" d="M 836.89,231.3 820.655,239.417 z" id="boundary" inkscape:connector-curvature="0" />
	<path style="fill:none;stroke:red;stroke-width:1px;stroke-linecap:butt;stroke-linejoin:miter;stroke-opacity:1" d="M 820.655,239.417 814.16,255.653 z" id="boundary" inkscape:connector-curvature="0" />
	<path style="fill:none;stroke:red;stroke-width:1px;stroke-linecap:butt;stroke-linejoin:miter;stroke-opacity:1" d="M 853.126,223.182 869.362,215.064 z" id="boundary" inkscape:connector-curvature="0" />
	<path style="fill:none;stroke:red;stroke-width:1px;stroke-linecap:butt;stroke-linejoin:miter;stroke-opacity:1" d="M 853.126,223.182 836.89,231.3 z" id="boundary" inkscape:connector-curvature="0" />
	<path style="fill:none;stroke:red;stroke-width:1px;stroke-linecap:butt;stroke-linejoin:miter;stroke-opacity:1" d="M 797.925,257.277 814.16,255.653 z" id="boundary" inkscape:connector-curvature="0" />
	<path style="fill:none;stroke:red;stroke-width:1px;stroke-linecap:butt;stroke-linejoin:miter;stroke-opacity:1" d="M 974.894,216.687 960.282,224.805 z" id="boundary" inkscape:connector-curvature="0" />
	<path style="fill:none;stroke:red;stroke-width:1px;stroke-linecap:butt;stroke-linejoin:miter;stroke-opacity:1" d="M 944.046,229.676 960.282,224.805 z" id="boundary" inkscape:connector-curvature="0" />
	<path style="fill:none;stroke:red;stroke-width:1px;stroke-linecap:butt;stroke-linejoin:miter;stroke-opacity:1" d="M 944.046,229.676 931.057,241.041 z" id="boundary" inkscape:connector-curvature="0" />
	<path style="fill:none;stroke:red;stroke-width:1px;stroke-linecap:butt;stroke-linejoin:miter;stroke-opacity:1" d="M 922.939,257.277 914.822,273.512 z" id="boundary" inkscape:connector-curvature="0" />
	<path style="fill:none;stroke:red;stroke-width:1px;stroke-linecap:butt;stroke-linejoin:miter;stroke-opacity:1" d="M 931.057,241.041 922.939,257.277 z" id="boundary" inkscape:connector-curvature="0" />
	<path style="fill:none;stroke:red;stroke-width:1px;stroke-linecap:butt;stroke-linejoin:miter;stroke-opacity:1" d="M 906.704,297.866 914.822,273.512 z" id="boundary" inkscape:connector-curvature="0" />
	<path style="fill:none;stroke:red;stroke-width:1px;stroke-linecap:butt;stroke-linejoin:miter;stroke-opacity:1" d="M 724.864,456.975 736.229,443.987 z" id="boundary" inkscape:connector-curvature="0" />
	<path style="fill:none;stroke:red;stroke-width:1px;stroke-linecap:butt;stroke-linejoin:miter;stroke-opacity:1" d="M 724.864,456.975 711.876,468.34 z" id="boundary" inkscape:connector-curvature="0" />
	<path style="fill:none;stroke:red;stroke-width:1px;stroke-linecap:butt;stroke-linejoin:miter;stroke-opacity:1" d="M 700.511,481.329 711.876,468.34 z" id="boundary" inkscape:connector-curvature="0" />
	<path style="fill:none;stroke:red;stroke-width:1px;stroke-linecap:butt;stroke-linejoin:miter;stroke-opacity:1" d="M 700.511,481.329 687.522,492.694 z" id="boundary" inkscape:connector-curvature="0" />
	<path style="fill:none;stroke:red;stroke-width:1px;stroke-linecap:butt;stroke-linejoin:miter;stroke-opacity:1" d="M 750.841,435.869 736.229,443.987 z" id="boundary" inkscape:connector-curvature="0" />
	<path style="fill:none;stroke:red;stroke-width:1px;stroke-linecap:butt;stroke-linejoin:miter;stroke-opacity:1" d="M 750.841,435.869 767.077,435.869 z" id="boundary" inkscape:connector-curvature="0" />
	<path style="fill:none;stroke:red;stroke-width:1px;stroke-linecap:butt;stroke-linejoin:miter;stroke-opacity:1" d="M 783.313,435.869 767.077,435.869 z" id="boundary" inkscape:connector-curvature="0" />
	<path style="fill:none;stroke:red;stroke-width:1px;stroke-linecap:butt;stroke-linejoin:miter;stroke-opacity:1" d="M 783.313,435.869 797.925,443.987 z" id="boundary" inkscape:connector-curvature="0" />
	<path style="fill:none;stroke:red;stroke-width:1px;stroke-linecap:butt;stroke-linejoin:miter;stroke-opacity:1" d="M 797.925,443.987 812.537,452.105 z" id="boundary" inkscape:connector-curvature="0" />
	<path style="fill:none;stroke:red;stroke-width:1px;stroke-linecap:butt;stroke-linejoin:miter;stroke-opacity:1" d="M 812.537,452.105 820.655,466.717 z" id="boundary" inkscape:connector-curvature="0" />
	<path style="fill:none;stroke:red;stroke-width:1px;stroke-linecap:butt;stroke-linejoin:miter;stroke-opacity:1" d="M 606.344,508.93 593.355,525.165 z" id="boundary" inkscape:connector-curvature="0" />
	<path style="fill:none;stroke:red;stroke-width:1px;stroke-linecap:butt;stroke-linejoin:miter;stroke-opacity:1" d="M 593.355,525.165 577.119,531.66 z" id="boundary" inkscape:connector-curvature="0" />
	<path style="fill:none;stroke:red;stroke-width:1px;stroke-linecap:butt;stroke-linejoin:miter;stroke-opacity:1" d="M 638.815,508.93 655.051,500.812 z" id="boundary" inkscape:connector-curvature="0" />
	<path style="fill:none;stroke:red;stroke-width:1px;stroke-linecap:butt;stroke-linejoin:miter;stroke-opacity:1" d="M 622.579,508.93 606.344,508.93 z" id="boundary" inkscape:connector-curvature="0" />
	<path style="fill:none;stroke:red;stroke-width:1px;stroke-linecap:butt;stroke-linejoin:miter;stroke-opacity:1" d="M 638.815,508.93 622.579,508.93 z" id="boundary" inkscape:connector-curvature="0" />
	<path style="fill:none;stroke:red;stroke-width:1px;stroke-linecap:butt;stroke-linejoin:miter;stroke-opacity:1" d="M 671.286,492.694 655.051,500.812 z" id="boundary" inkscape:connector-curvature="0" />
	<path style="fill:none;stroke:red;stroke-width:1px;stroke-linecap:butt;stroke-linejoin:miter;stroke-opacity:1" d="M 547.895,549.519 564.131,544.648 z" id="boundary" inkscape:connector-curvature="0" />
	<path style="fill:none;stroke:red;stroke-width:1px;stroke-linecap:butt;stroke-linejoin:miter;stroke-opacity:1" d="M 564.131,544.648 577.119,531.66 z" id="boundary" inkscape:connector-curvature="0" />
	<path style="fill:none;stroke:red;stroke-width:1px;stroke-linecap:butt;stroke-linejoin:miter;stroke-opacity:1" d="M 671.286,492.694 687.522,492.694 z" id="boundary" inkscape:connector-curvature="0" />
	<path style="fill:none;stroke:red;stroke-width:1px;stroke-linecap:butt;stroke-linejoin:miter;stroke-opacity:1" d="M 906.704,297.866 906.704,314.101 z" id="boundary" inkscape:connector-curvature="0" />
	<path style="fill:none;stroke:red;stroke-width:1px;stroke-linecap:butt;stroke-linejoin:miter;stroke-opacity:1" d="M 906.704,346.573 898.586,362.809 z" id="boundary" inkscape:connector-curvature="0" />
	<path style="fill:none;stroke:red;stroke-width:1px;stroke-linecap:butt;stroke-linejoin:miter;stroke-opacity:1" d="M 890.468,403.398 890.468,387.162 z" id="boundary" inkscape:connector-curvature="0" />
	<path style="fill:none;stroke:red;stroke-width:1px;stroke-linecap:butt;stroke-linejoin:miter;stroke-opacity:1" d="M 890.468,403.398 890.468,419.633 z" id="boundary" inkscape:connector-curvature="0" />
	<path style="fill:none;stroke:red;stroke-width:1px;stroke-linecap:butt;stroke-linejoin:miter;stroke-opacity:1" d="M 890.468,387.162 898.586,362.809 z" id="boundary" inkscape:connector-curvature="0" />
	<path style="fill:none;stroke:red;stroke-width:1px;stroke-linecap:butt;stroke-linejoin:miter;stroke-opacity:1" d="M 906.704,314.101 906.704,330.337 z" id="boundary" inkscape:connector-curvature="0" />
	<path style="fill:none;stroke:red;stroke-width:1px;stroke-linecap:butt;stroke-linejoin:miter;stroke-opacity:1" d="M 906.704,330.337 906.704,346.573 z" id="boundary" inkscape:connector-curvature="0" />
	<path style="fill:none;stroke:red;stroke-width:1px;stroke-linecap:butt;stroke-linejoin:miter;stroke-opacity:1" d="M 893.715,435.869 890.468,419.633 z" id="boundary" inkscape:connector-curvature="0" />
	<path style="fill:none;stroke:red;stroke-width:1px;stroke-linecap:butt;stroke-linejoin:miter;stroke-opacity:1" d="M 833.643,476.458 820.655,466.717 z" id="boundary" inkscape:connector-curvature="0" />
	<path style="fill:none;stroke:red;stroke-width:1px;stroke-linecap:butt;stroke-linejoin:miter;stroke-opacity:1" d="M 833.643,476.458 849.879,479.705 z" id="boundary" inkscape:connector-curvature="0" />
	<path style="fill:none;stroke:red;stroke-width:1px;stroke-linecap:butt;stroke-linejoin:miter;stroke-opacity:1" d="M 849.879,479.705 861.244,492.694 z" id="boundary" inkscape:connector-curvature="0" />
	<path style="fill:none;stroke:red;stroke-width:1px;stroke-linecap:butt;stroke-linejoin:miter;stroke-opacity:1" d="M 861.244,492.694 877.48,499.188 z" id="boundary" inkscape:connector-curvature="0" />
	<path style="fill:none;stroke:red;stroke-width:1px;stroke-linecap:butt;stroke-linejoin:miter;stroke-opacity:1" d="M 877.48,499.188 893.715,500.812 z" id="boundary" inkscape:connector-curvature="0" />
	<path style="fill:none;stroke:red;stroke-width:1px;stroke-linecap:butt;stroke-linejoin:miter;stroke-opacity:1" d="M 906.704,447.234 906.704,463.47 z" id="boundary" inkscape:connector-curvature="0" />
	<path style="fill:none;stroke:red;stroke-width:1px;stroke-linecap:butt;stroke-linejoin:miter;stroke-opacity:1" d="M 906.704,447.234 893.715,435.869 z" id="boundary" inkscape:connector-curvature="0" />
	<path style="fill:none;stroke:red;stroke-width:1px;stroke-linecap:butt;stroke-linejoin:miter;stroke-opacity:1" d="M 906.704,463.47 919.692,474.835 z" id="boundary" inkscape:connector-curvature="0" />
	<path style="fill:none;stroke:red;stroke-width:1px;stroke-linecap:butt;stroke-linejoin:miter;stroke-opacity:1" d="M 931.057,492.694 919.692,474.835 z" id="boundary" inkscape:connector-curvature="0" />
	<path style="fill:none;stroke:red;stroke-width:1px;stroke-linecap:butt;stroke-linejoin:miter;stroke-opacity:1" d="M 908.327,508.93 893.715,500.812 z" id="boundary" inkscape:connector-curvature="0" />
	<path style="fill:none;stroke:red;stroke-width:1px;stroke-linecap:butt;stroke-linejoin:miter;stroke-opacity:1" d="M 908.327,508.93 924.563,508.93 z" id="boundary" inkscape:connector-curvature="0" />
	<path style="fill:none;stroke:red;stroke-width:1px;stroke-linecap:butt;stroke-linejoin:miter;stroke-opacity:1" d="M 924.563,508.93 931.057,492.694 z" id="boundary" inkscape:connector-curvature="0" />
	<circle cx="4" cy="309.231" r="4" fill="#0" id="circle0"/>
	<circle cx="4" cy="325.466" r="4" fill="#0" id="circle1"/>
	<circle cx="4" cy="341.702" r="4" fill="#0" id="circle2"/>
	<circle cx="12.1178" cy="284.877" r="4" fill="#0" id="circle3"/>
	<circle cx="12.1178" cy="356.314" r="4" fill="#0" id="circle4"/>
	<circle cx="23.4828" cy="369.303" r="4" fill="#0" id="circle5"/>
	<circle cx="25.1064" cy="271.889" r="4" fill="#0" id="circle6"/>
	<circle cx="28.3535" cy="252.406" r="4" fill="#0" id="circle7"/>
	<circle cx="36.4714" cy="379.044" r="4" fill="#0" id="circle8"/>
	<circle cx="41.3421" cy="239.417" r="4" fill="#0" id="circle9"/>
	<circle cx="46.2128" cy="392.033" r="4" fill="#0" id="circle10"/>
	<circle cx="52.707" cy="219.935" r="4" fill="#0" id="circle11"/>
	<circle cx="60.8249" cy="195.581" r="4" fill="#0" id="circle12"/>
	<circle cx="62.4484" cy="395.28" r="4" fill="#0" id="circle13"/>
	<circle cx="77.0606" cy="187.463" r="4" fill="#0" id="circle14"/>
	<circle cx="77.0606" cy="403.398" r="4" fill="#0" id="circle15"/>
	<circle cx="81.9313" cy="419.633" r="4" fill="#0" id="circle16"/>
	<circle cx="90.0491" cy="174.475" r="4" fill="#0" id="circle17"/>
	<circle cx="98.1669" cy="426.128" r="4" fill="#0" id="circle18"/>
	<circle cx="103.038" cy="161.486" r="4" fill="#0" id="circle19"/>
	<circle cx="109.532" cy="439.116" r="4" fill="#0" id="circle20"/>
	<circle cx="116.026" cy="150.121" r="4" fill="#0" id="circle21"/>
	<circle cx="125.768" cy="443.987" r="4" fill="#0" id="circle22"/>
	<circle cx="130.638" cy="142.003" r="4" fill="#0" id="circle23"/>
	<circle cx="135.509" cy="456.975" r="4" fill="#0" id="circle24"/>
	<circle cx="143.627" cy="129.015" r="4" fill="#0" id="circle25"/>
	<circle cx="151.745" cy="463.47" r="4" fill="#0" id="circle26"/>
	<circle cx="156.615" cy="117.65" r="4" fill="#0" id="circle27"/>
	<circle cx="163.11" cy="101.414" r="4" fill="#0" id="circle28"/>
	<circle cx="163.11" cy="476.458" r="4" fill="#0" id="circle29"/>
	<circle cx="176.098" cy="88.4255" r="4" fill="#0" id="circle30"/>
	<circle cx="176.098" cy="487.823" r="4" fill="#0" id="circle31"/>
	<circle cx="184.216" cy="72.1899" r="4" fill="#0" id="circle32"/>
	<circle cx="192.334" cy="492.694" r="4" fill="#0" id="circle33"/>
	<circle cx="197.205" cy="60.8249" r="4" fill="#0" id="circle34"/>
	<circle cx="202.075" cy="505.682" r="4" fill="#0" id="circle35"/>
	<circle cx="206.946" cy="521.918" r="4" fill="#0" id="circle36"/>
	<circle cx="208.57" cy="538.154" r="4" fill="#0" id="circle37"/>
	<circle cx="211.817" cy="52.707" r="4" fill="#0" id="circle38"/>
	<circle cx="215.064" cy="554.39" r="4" fill="#0" id="circle39"/>
	<circle cx="216.687" cy="570.625" r="4" fill="#0" id="circle40"/>
	<circle cx="224.805" cy="585.237" r="4" fill="#0" id="circle41"/>
	<circle cx="226.429" cy="44.5892" r="4" fill="#0" id="circle42"/>
	<circle cx="231.3" cy="601.473" r="4" fill="#0" id="circle43"/>
	<circle cx="241.041" cy="36.4714" r="4" fill="#0" id="circle44"/>
	<circle cx="244.288" cy="612.838" r="4" fill="#0" id="circle45"/>
	<circle cx="255.653" cy="28.3535" r="4" fill="#0" id="circle46"/>
	<circle cx="260.524" cy="614.462" r="4" fill="#0" id="circle47"/>
	<circle cx="270.265" cy="20.2357" r="4" fill="#0" id="circle48"/>
	<circle cx="273.512" cy="573.872" r="4" fill="#0" id="circle49"/>
	<circle cx="273.512" cy="590.108" r="4" fill="#0" id="circle50"/>
	<circle cx="281.63" cy="508.93" r="4" fill="#0" id="circle51"/>
	<circle cx="281.63" cy="557.637" r="4" fill="#0" id="circle52"/>
	<circle cx="284.877" cy="12.1178" r="4" fill="#0" id="circle53"/>
	<circle cx="284.877" cy="525.165" r="4" fill="#0" id="circle54"/>
	<circle cx="289.748" cy="541.401" r="4" fill="#0" id="circle55"/>
	<circle cx="294.619" cy="497.565" r="4" fill="#0" id="circle56"/>
	<circle cx="299.489" cy="4" r="4" fill="#0" id="circle57"/>
	<circle cx="310.854" cy="492.694" r="4" fill="#0" id="circle58"/>
	<circle cx="315.725" cy="4" r="4" fill="#0" id="circle59"/>
	<circle cx="327.09" cy="492.694" r="4" fill="#0" id="circle60"/>
	<circle cx="331.961" cy="4" r="4" fill="#0" id="circle61"/>
	<circle cx="343.326" cy="492.694" r="4" fill="#0" id="circle62"/>
	<circle cx="348.196" cy="4" r="4" fill="#0" id="circle63"/>
	<circle cx="354.691" cy="505.682" r="4" fill="#0" id="circle64"/>
	<circle cx="364.432" cy="4" r="4" fill="#0" id="circle65"/>
	<circle cx="370.926" cy="512.177" r="4" fill="#0" id="circle66"/>
	<circle cx="380.668" cy="4" r="4" fill="#0" id="circle67"/>
	<circle cx="385.538" cy="520.295" r="4" fill="#0" id="circle68"/>
	<circle cx="396.903" cy="4" r="4" fill="#0" id="circle69"/>
	<circle cx="398.527" cy="531.66" r="4" fill="#0" id="circle70"/>
	<circle cx="409.892" cy="544.648" r="4" fill="#0" id="circle71"/>
	<circle cx="411.516" cy="12.1178" r="4" fill="#0" id="circle72"/>
	<circle cx="422.881" cy="556.013" r="4" fill="#0" id="circle73"/>
	<circle cx="427.751" cy="12.1178" r="4" fill="#0" id="circle74"/>
	<circle cx="439.116" cy="557.637" r="4" fill="#0" id="circle75"/>
	<circle cx="443.987" cy="8.8707" r="4" fill="#0" id="circle76"/>
	<circle cx="455.352" cy="557.637" r="4" fill="#0" id="circle77"/>
	<circle cx="460.223" cy="12.1178" r="4" fill="#0" id="circle78"/>
	<circle cx="469.964" cy="565.755" r="4" fill="#0" id="circle79"/>
	<circle cx="476.458" cy="12.1178" r="4" fill="#0" id="circle80"/>
	<circle cx="486.2" cy="565.755" r="4" fill="#0" id="circle81"/>
	<circle cx="492.694" cy="12.1178" r="4" fill="#0" id="circle82"/>
	<circle cx="502.435" cy="565.755" r="4" fill="#0" id="circle83"/>
	<circle cx="508.93" cy="12.1178" r="4" fill="#0" id="circle84"/>
	<circle cx="518.671" cy="565.755" r="4" fill="#0" id="circle85"/>
	<circle cx="523.542" cy="20.2357" r="4" fill="#0" id="circle86"/>
	<circle cx="533.283" cy="557.637" r="4" fill="#0" id="circle87"/>
	<circle cx="538.154" cy="28.3535" r="4" fill="#0" id="circle88"/>
	<circle cx="547.895" cy="549.519" r="4" fill="#0" id="circle89"/>
	<circle cx="554.39" cy="28.3535" r="4" fill="#0" id="circle90"/>
	<circle cx="564.131" cy="544.648" r="4" fill="#0" id="circle91"/>
	<circle cx="569.002" cy="36.4714" r="4" fill="#0" id="circle92"/>
	<circle cx="577.119" cy="531.66" r="4" fill="#0" id="circle93"/>
	<circle cx="583.614" cy="44.5892" r="4" fill="#0" id="circle94"/>
	<circle cx="593.355" cy="525.165" r="4" fill="#0" id="circle95"/>
	<circle cx="598.226" cy="52.707" r="4" fill="#0" id="circle96"/>
	<circle cx="606.344" cy="508.93" r="4" fill="#0" id="circle97"/>
	<circle cx="614.462" cy="57.5777" r="4" fill="#0" id="circle98"/>
	<circle cx="622.579" cy="508.93" r="4" fill="#0" id="circle99"/>
	<circle cx="625.827" cy="70.5663" r="4" fill="#0" id="circle100"/>
	<circle cx="638.815" cy="81.9313" r="4" fill="#0" id="circle101"/>
	<circle cx="638.815" cy="508.93" r="4" fill="#0" id="circle102"/>
	<circle cx="650.18" cy="94.9198" r="4" fill="#0" id="circle103"/>
	<circle cx="655.051" cy="500.812" r="4" fill="#0" id="circle104"/>
	<circle cx="666.416" cy="101.414" r="4" fill="#0" id="circle105"/>
	<circle cx="671.286" cy="117.65" r="4" fill="#0" id="circle106"/>
	<circle cx="671.286" cy="492.694" r="4" fill="#0" id="circle107"/>
	<circle cx="687.522" cy="122.52" r="4" fill="#0" id="circle108"/>
	<circle cx="687.522" cy="492.694" r="4" fill="#0" id="circle109"/>
	<circle cx="698.887" cy="135.509" r="4" fill="#0" id="circle110"/>
	<circle cx="700.511" cy="481.329" r="4" fill="#0" id="circle111"/>
	<circle cx="707.005" cy="150.121" r="4" fill="#0" id="circle112"/>
	<circle cx="711.876" cy="468.34" r="4" fill="#0" id="circle113"/>
	<circle cx="719.993" cy="159.863" r="4" fill="#0" id="circle114"/>
	<circle cx="719.993" cy="265.394" r="4" fill="#0" id="circle115"/>
	<circle cx="723.241" cy="281.63" r="4" fill="#0" id="circle116"/>
	<circle cx="724.864" cy="456.975" r="4" fill="#0" id="circle117"/>
	<circle cx="728.111" cy="174.475" r="4" fill="#0" id="circle118"/>
	<circle cx="728.111" cy="249.159" r="4" fill="#0" id="circle119"/>
	<circle cx="736.229" cy="224.805" r="4" fill="#0" id="circle120"/>
	<circle cx="736.229" cy="443.987" r="4" fill="#0" id="circle121"/>
	<circle cx="739.476" cy="288.124" r="4" fill="#0" id="circle122"/>
	<circle cx="742.723" cy="182.592" r="4" fill="#0" id="circle123"/>
	<circle cx="744.347" cy="200.452" r="4" fill="#0" id="circle124"/>
	<circle cx="750.841" cy="435.869" r="4" fill="#0" id="circle125"/>
	<circle cx="752.465" cy="215.064" r="4" fill="#0" id="circle126"/>
	<circle cx="755.712" cy="280.007" r="4" fill="#0" id="circle127"/>
	<circle cx="767.077" cy="435.869" r="4" fill="#0" id="circle128"/>
	<circle cx="771.948" cy="280.007" r="4" fill="#0" id="circle129"/>
	<circle cx="783.313" cy="435.869" r="4" fill="#0" id="circle130"/>
	<circle cx="784.936" cy="267.018" r="4" fill="#0" id="circle131"/>
	<circle cx="797.925" cy="257.277" r="4" fill="#0" id="circle132"/>
	<circle cx="797.925" cy="443.987" r="4" fill="#0" id="circle133"/>
	<circle cx="812.537" cy="452.105" r="4" fill="#0" id="circle134"/>
	<circle cx="814.16" cy="255.653" r="4" fill="#0" id="circle135"/>
	<circle cx="820.655" cy="239.417" r="4" fill="#0" id="circle136"/>
	<circle cx="820.655" cy="466.717" r="4" fill="#0" id="circle137"/>
	<circle cx="833.643" cy="476.458" r="4" fill="#0" id="circle138"/>
	<circle cx="836.89" cy="231.3" r="4" fill="#0" id="circle139"/>
	<circle cx="849.879" cy="479.705" r="4" fill="#0" id="circle140"/>
	<circle cx="853.126" cy="223.182" r="4" fill="#0" id="circle141"/>
	<circle cx="861.244" cy="492.694" r="4" fill="#0" id="circle142"/>
	<circle cx="869.362" cy="215.064" r="4" fill="#0" id="circle143"/>
	<circle cx="877.48" cy="499.188" r="4" fill="#0" id="circle144"/>
	<circle cx="885.597" cy="206.946" r="4" fill="#0" id="circle145"/>
	<circle cx="890.468" cy="387.162" r="4" fill="#0" id="circle146"/>
	<circle cx="890.468" cy="403.398" r="4" fill="#0" id="circle147"/>
	<circle cx="890.468" cy="419.633" r="4" fill="#0" id="circle148"/>
	<circle cx="893.715" cy="435.869" r="4" fill="#0" id="circle149"/>
	<circle cx="893.715" cy="500.812" r="4" fill="#0" id="circle150"/>
	<circle cx="898.586" cy="362.809" r="4" fill="#0" id="circle151"/>
	<circle cx="901.833" cy="206.946" r="4" fill="#0" id="circle152"/>
	<circle cx="906.704" cy="297.866" r="4" fill="#0" id="circle153"/>
	<circle cx="906.704" cy="314.101" r="4" fill="#0" id="circle154"/>
	<circle cx="906.704" cy="330.337" r="4" fill="#0" id="circle155"/>
	<circle cx="906.704" cy="346.573" r="4" fill="#0" id="circle156"/>
	<circle cx="906.704" cy="447.234" r="4" fill="#0" id="circle157"/>
	<circle cx="906.704" cy="463.47" r="4" fill="#0" id="circle158"/>
	<circle cx="908.327" cy="508.93" r="4" fill="#0" id="circle159"/>
	<circle cx="914.822" cy="193.957" r="4" fill="#0" id="circle160"/>
	<circle cx="914.822" cy="273.512" r="4" fill="#0" id="circle161"/>
	<circle cx="919.692" cy="474.835" r="4" fill="#0" id="circle162"/>
	<circle cx="922.939" cy="257.277" r="4" fill="#0" id="circle163"/>
	<circle cx="924.563" cy="508.93" r="4" fill="#0" id="circle164"/>
	<circle cx="931.057" cy="193.957" r="4" fill="#0" id="circle165"/>
	<circle cx="931.057" cy="241.041" r="4" fill="#0" id="circle166"/>
	<circle cx="931.057" cy="492.694" r="4" fill="#0" id="circle167"/>
	<circle cx="944.046" cy="229.676" r="4" fill="#0" id="circle168"/>
	<circle cx="947.293" cy="190.71" r="4" fill="#0" id="circle169"/>
	<circle cx="960.282" cy="224.805" r="4" fill="#0" id="circle170"/>
	<circle cx="963.529" cy="190.71" r="4" fill="#0" id="circle171"/>
	<circle cx="974.894" cy="216.687" r="4" fill="#0" id="circle172"/>
	<circle cx="979.764" cy="190.71" r="4" fill="#0" id="circle173"/>
	<circle cx="989.506" cy="208.57" r="4" fill="#0" id="circle174"/>
	<circle cx="996" cy="190.71" r="4" fill="#0" id="circle175"/>
	</g>
</svg>