<?xml version="1.0" encoding="UTF-8" standalone="no"?>
<!-- Created with CurveBenchmark -->
<svg
	xmlns:dc="http://purl.org/dc/elements/1.1/"
	xmlns:cc="http://creativecommons.org/ns#"
	xmlns:rdf="http://www.w3.org/1999/02/22-rdf-syntax-ns#"
	xmlns:svg="http://www.w3.org/2000/svg"
	xmlns="http://www.w3.org/2000/svg"
	xmlns:sodipodi="http://sodipodi.sourceforge.net/DTD/sodipodi-0.dtd"
	xmlns:inkscape="http://www.inkscape.org/namespaces/inkscape"
	width="1000"
	height="1000"
	id="svg2"
	version="1.1"
	sodipodi:docname="manifold/crust-Heart16.png.txt">
<defs
	id="defs4" />
<metadata
	id="metadata7">
	<rdf:RDF>
		<cc:Work
			rdf:about="">
			<dc:format>image/svg+xml</dc:format>
			<dc:type
				rdf:resource="http://purl.org/dc/dcmitype/StillImage" />
			<dc:title></dc:title>
		</cc:Work>
	</rdf:RDF>
</metadata>
<g
	inkscape:label="Layer 1"
	inkscape:groupmode="layer"
	id="layer1">
	<path style="fill:none;stroke:red;stroke-width:1px;stroke-linecap:butt;stroke-linejoin:miter;stroke-opacity:1" d="M 81.3232,36.0608 66.2357,51.1483 z" id="boundary" inkscape:connector-curvature="0" />
	<path style="fill:none;stroke:red;stroke-width:1px;stroke-linecap:butt;stroke-linejoin:miter;stroke-opacity:1" d="M 66.2357,51.1483 56.8061,70.0076 z" id="boundary" inkscape:connector-curvature="0" />
	<path style="fill:none;stroke:red;stroke-width:1px;stroke-linecap:butt;stroke-linejoin:miter;stroke-opacity:1" d="M 100.183,26.6312 81.3232,36.0608 z" id="boundary" inkscape:connector-curvature="0" />
	<path style="fill:none;stroke:red;stroke-width:1px;stroke-linecap:butt;stroke-linejoin:miter;stroke-opacity:1" d="M 119.042,17.2015 100.183,26.6312 z" id="boundary" inkscape:connector-curvature="0" />
	<path style="fill:none;stroke:red;stroke-width:1px;stroke-linecap:butt;stroke-linejoin:miter;stroke-opacity:1" d="M 137.901,7.77186 119.042,17.2015 z" id="boundary" inkscape:connector-curvature="0" />
	<path style="fill:none;stroke:red;stroke-width:1px;stroke-linecap:butt;stroke-linejoin:miter;stroke-opacity:1" d="M 22.8593,122.814 13.4297,141.673 z" id="boundary" inkscape:connector-curvature="0" />
	<path style="fill:none;stroke:red;stroke-width:1px;stroke-linecap:butt;stroke-linejoin:miter;stroke-opacity:1" d="M 13.4297,141.673 13.4297,160.532 z" id="boundary" inkscape:connector-curvature="0" />
	<path style="fill:none;stroke:red;stroke-width:1px;stroke-linecap:butt;stroke-linejoin:miter;stroke-opacity:1" d="M 47.3764,88.8669 32.289,103.954 z" id="boundary" inkscape:connector-curvature="0" />
	<path style="fill:none;stroke:red;stroke-width:1px;stroke-linecap:butt;stroke-linejoin:miter;stroke-opacity:1" d="M 22.8593,122.814 32.289,103.954 z" id="boundary" inkscape:connector-curvature="0" />
	<path style="fill:none;stroke:red;stroke-width:1px;stroke-linecap:butt;stroke-linejoin:miter;stroke-opacity:1" d="M 47.3764,88.8669 56.8061,70.0076 z" id="boundary" inkscape:connector-curvature="0" />
	<path style="fill:none;stroke:red;stroke-width:1px;stroke-linecap:butt;stroke-linejoin:miter;stroke-opacity:1" d="M 137.901,7.77186 156.76,4 z" id="boundary" inkscape:connector-curvature="0" />
	<path style="fill:none;stroke:red;stroke-width:1px;stroke-linecap:butt;stroke-linejoin:miter;stroke-opacity:1" d="M 175.62,4 156.76,4 z" id="boundary" inkscape:connector-curvature="0" />
	<path style="fill:none;stroke:red;stroke-width:1px;stroke-linecap:butt;stroke-linejoin:miter;stroke-opacity:1" d="M 194.479,4 213.338,4 z" id="boundary" inkscape:connector-curvature="0" />
	<path style="fill:none;stroke:red;stroke-width:1px;stroke-linecap:butt;stroke-linejoin:miter;stroke-opacity:1" d="M 213.338,4 232.198,4 z" id="boundary" inkscape:connector-curvature="0" />
	<path style="fill:none;stroke:red;stroke-width:1px;stroke-linecap:butt;stroke-linejoin:miter;stroke-opacity:1" d="M 232.198,4 251.057,4 z" id="boundary" inkscape:connector-curvature="0" />
	<path style="fill:none;stroke:red;stroke-width:1px;stroke-linecap:butt;stroke-linejoin:miter;stroke-opacity:1" d="M 175.62,4 194.479,4 z" id="boundary" inkscape:connector-curvature="0" />
	<path style="fill:none;stroke:red;stroke-width:1px;stroke-linecap:butt;stroke-linejoin:miter;stroke-opacity:1" d="M 4,198.251 4,179.392 z" id="boundary" inkscape:connector-curvature="0" />
	<path style="fill:none;stroke:red;stroke-width:1px;stroke-linecap:butt;stroke-linejoin:miter;stroke-opacity:1" d="M 13.4297,160.532 4,179.392 z" id="boundary" inkscape:connector-curvature="0" />
	<path style="fill:none;stroke:red;stroke-width:1px;stroke-linecap:butt;stroke-linejoin:miter;stroke-opacity:1" d="M 4,217.11 4,198.251 z" id="boundary" inkscape:connector-curvature="0" />
	<path style="fill:none;stroke:red;stroke-width:1px;stroke-linecap:butt;stroke-linejoin:miter;stroke-opacity:1" d="M 4,217.11 4,235.97 z" id="boundary" inkscape:connector-curvature="0" />
	<path style="fill:none;stroke:red;stroke-width:1px;stroke-linecap:butt;stroke-linejoin:miter;stroke-opacity:1" d="M 4,254.829 4,235.97 z" id="boundary" inkscape:connector-curvature="0" />
	<path style="fill:none;stroke:red;stroke-width:1px;stroke-linecap:butt;stroke-linejoin:miter;stroke-opacity:1" d="M 4,292.548 4,273.688 z" id="boundary" inkscape:connector-curvature="0" />
	<path style="fill:none;stroke:red;stroke-width:1px;stroke-linecap:butt;stroke-linejoin:miter;stroke-opacity:1" d="M 4,273.688 4,254.829 z" id="boundary" inkscape:connector-curvature="0" />
	<path style="fill:none;stroke:red;stroke-width:1px;stroke-linecap:butt;stroke-linejoin:miter;stroke-opacity:1" d="M 269.916,9.65779 286.89,19.0875 z" id="boundary" inkscape:connector-curvature="0" />
	<path style="fill:none;stroke:red;stroke-width:1px;stroke-linecap:butt;stroke-linejoin:miter;stroke-opacity:1" d="M 269.916,9.65779 251.057,4 z" id="boundary" inkscape:connector-curvature="0" />
	<path style="fill:none;stroke:red;stroke-width:1px;stroke-linecap:butt;stroke-linejoin:miter;stroke-opacity:1" d="M 286.89,19.0875 305.749,26.6312 z" id="boundary" inkscape:connector-curvature="0" />
	<path style="fill:none;stroke:red;stroke-width:1px;stroke-linecap:butt;stroke-linejoin:miter;stroke-opacity:1" d="M 322.722,36.0608 305.749,26.6312 z" id="boundary" inkscape:connector-curvature="0" />
	<path style="fill:none;stroke:red;stroke-width:1px;stroke-linecap:butt;stroke-linejoin:miter;stroke-opacity:1" d="M 322.722,36.0608 341.582,43.6046 z" id="boundary" inkscape:connector-curvature="0" />
	<path style="fill:none;stroke:red;stroke-width:1px;stroke-linecap:butt;stroke-linejoin:miter;stroke-opacity:1" d="M 358.555,53.0342 341.582,43.6046 z" id="boundary" inkscape:connector-curvature="0" />
	<path style="fill:none;stroke:red;stroke-width:1px;stroke-linecap:butt;stroke-linejoin:miter;stroke-opacity:1" d="M 358.555,53.0342 373.643,66.2357 z" id="boundary" inkscape:connector-curvature="0" />
	<path style="fill:none;stroke:red;stroke-width:1px;stroke-linecap:butt;stroke-linejoin:miter;stroke-opacity:1" d="M 386.844,81.3232 373.643,66.2357 z" id="boundary" inkscape:connector-curvature="0" />
	<path style="fill:none;stroke:red;stroke-width:1px;stroke-linecap:butt;stroke-linejoin:miter;stroke-opacity:1" d="M 386.844,81.3232 401.932,94.5247 z" id="boundary" inkscape:connector-curvature="0" />
	<path style="fill:none;stroke:red;stroke-width:1px;stroke-linecap:butt;stroke-linejoin:miter;stroke-opacity:1" d="M 415.133,109.612 401.932,94.5247 z" id="boundary" inkscape:connector-curvature="0" />
	<path style="fill:none;stroke:red;stroke-width:1px;stroke-linecap:butt;stroke-linejoin:miter;stroke-opacity:1" d="M 424.563,126.586 415.133,109.612 z" id="boundary" inkscape:connector-curvature="0" />
	<path style="fill:none;stroke:red;stroke-width:1px;stroke-linecap:butt;stroke-linejoin:miter;stroke-opacity:1" d="M 424.563,126.586 430.221,145.445 z" id="boundary" inkscape:connector-curvature="0" />
	<path style="fill:none;stroke:red;stroke-width:1px;stroke-linecap:butt;stroke-linejoin:miter;stroke-opacity:1" d="M 439.65,162.418 430.221,145.445 z" id="boundary" inkscape:connector-curvature="0" />
	<path style="fill:none;stroke:red;stroke-width:1px;stroke-linecap:butt;stroke-linejoin:miter;stroke-opacity:1" d="M 439.65,162.418 449.08,179.392 z" id="boundary" inkscape:connector-curvature="0" />
	<path style="fill:none;stroke:red;stroke-width:1px;stroke-linecap:butt;stroke-linejoin:miter;stroke-opacity:1" d="M 458.51,196.365 467.939,213.338 z" id="boundary" inkscape:connector-curvature="0" />
	<path style="fill:none;stroke:red;stroke-width:1px;stroke-linecap:butt;stroke-linejoin:miter;stroke-opacity:1" d="M 458.51,196.365 449.08,179.392 z" id="boundary" inkscape:connector-curvature="0" />
	<path style="fill:none;stroke:red;stroke-width:1px;stroke-linecap:butt;stroke-linejoin:miter;stroke-opacity:1" d="M 477.369,230.312 467.939,213.338 z" id="boundary" inkscape:connector-curvature="0" />
	<path style="fill:none;stroke:red;stroke-width:1px;stroke-linecap:butt;stroke-linejoin:miter;stroke-opacity:1" d="M 496.228,264.259 486.798,247.285 z" id="boundary" inkscape:connector-curvature="0" />
	<path style="fill:none;stroke:red;stroke-width:1px;stroke-linecap:butt;stroke-linejoin:miter;stroke-opacity:1" d="M 486.798,247.285 477.369,230.312 z" id="boundary" inkscape:connector-curvature="0" />
	<path style="fill:none;stroke:red;stroke-width:1px;stroke-linecap:butt;stroke-linejoin:miter;stroke-opacity:1" d="M 515.087,262.373 496.228,264.259 z" id="boundary" inkscape:connector-curvature="0" />
	<path style="fill:none;stroke:red;stroke-width:1px;stroke-linecap:butt;stroke-linejoin:miter;stroke-opacity:1" d="M 4,292.548 13.4297,309.521 z" id="boundary" inkscape:connector-curvature="0" />
	<path style="fill:none;stroke:red;stroke-width:1px;stroke-linecap:butt;stroke-linejoin:miter;stroke-opacity:1" d="M 13.4297,328.38 13.4297,309.521 z" id="boundary" inkscape:connector-curvature="0" />
	<path style="fill:none;stroke:red;stroke-width:1px;stroke-linecap:butt;stroke-linejoin:miter;stroke-opacity:1" d="M 13.4297,328.38 13.4297,347.24 z" id="boundary" inkscape:connector-curvature="0" />
	<path style="fill:none;stroke:red;stroke-width:1px;stroke-linecap:butt;stroke-linejoin:miter;stroke-opacity:1" d="M 13.4297,347.24 22.8593,364.213 z" id="boundary" inkscape:connector-curvature="0" />
	<path style="fill:none;stroke:red;stroke-width:1px;stroke-linecap:butt;stroke-linejoin:miter;stroke-opacity:1" d="M 32.289,381.186 22.8593,364.213 z" id="boundary" inkscape:connector-curvature="0" />
	<path style="fill:none;stroke:red;stroke-width:1px;stroke-linecap:butt;stroke-linejoin:miter;stroke-opacity:1" d="M 32.289,381.186 41.7186,398.16 z" id="boundary" inkscape:connector-curvature="0" />
	<path style="fill:none;stroke:red;stroke-width:1px;stroke-linecap:butt;stroke-linejoin:miter;stroke-opacity:1" d="M 66.2357,428.335 51.1483,415.133 z" id="boundary" inkscape:connector-curvature="0" />
	<path style="fill:none;stroke:red;stroke-width:1px;stroke-linecap:butt;stroke-linejoin:miter;stroke-opacity:1" d="M 51.1483,415.133 41.7186,398.16 z" id="boundary" inkscape:connector-curvature="0" />
	<path style="fill:none;stroke:red;stroke-width:1px;stroke-linecap:butt;stroke-linejoin:miter;stroke-opacity:1" d="M 79.4373,443.422 66.2357,428.335 z" id="boundary" inkscape:connector-curvature="0" />
	<path style="fill:none;stroke:red;stroke-width:1px;stroke-linecap:butt;stroke-linejoin:miter;stroke-opacity:1" d="M 107.726,467.939 88.8669,460.395 z" id="boundary" inkscape:connector-curvature="0" />
	<path style="fill:none;stroke:red;stroke-width:1px;stroke-linecap:butt;stroke-linejoin:miter;stroke-opacity:1" d="M 88.8669,460.395 79.4373,443.422 z" id="boundary" inkscape:connector-curvature="0" />
	<path style="fill:none;stroke:red;stroke-width:1px;stroke-linecap:butt;stroke-linejoin:miter;stroke-opacity:1" d="M 264.259,524.517 245.399,524.517 z" id="boundary" inkscape:connector-curvature="0" />
	<path style="fill:none;stroke:red;stroke-width:1px;stroke-linecap:butt;stroke-linejoin:miter;stroke-opacity:1" d="M 124.7,477.369 107.726,467.939 z" id="boundary" inkscape:connector-curvature="0" />
	<path style="fill:none;stroke:red;stroke-width:1px;stroke-linecap:butt;stroke-linejoin:miter;stroke-opacity:1" d="M 124.7,477.369 137.901,492.456 z" id="boundary" inkscape:connector-curvature="0" />
	<path style="fill:none;stroke:red;stroke-width:1px;stroke-linecap:butt;stroke-linejoin:miter;stroke-opacity:1" d="M 152.989,505.658 137.901,492.456 z" id="boundary" inkscape:connector-curvature="0" />
	<path style="fill:none;stroke:red;stroke-width:1px;stroke-linecap:butt;stroke-linejoin:miter;stroke-opacity:1" d="M 188.821,515.087 171.848,505.658 z" id="boundary" inkscape:connector-curvature="0" />
	<path style="fill:none;stroke:red;stroke-width:1px;stroke-linecap:butt;stroke-linejoin:miter;stroke-opacity:1" d="M 152.989,505.658 171.848,505.658 z" id="boundary" inkscape:connector-curvature="0" />
	<path style="fill:none;stroke:red;stroke-width:1px;stroke-linecap:butt;stroke-linejoin:miter;stroke-opacity:1" d="M 207.681,515.087 188.821,515.087 z" id="boundary" inkscape:connector-curvature="0" />
	<path style="fill:none;stroke:red;stroke-width:1px;stroke-linecap:butt;stroke-linejoin:miter;stroke-opacity:1" d="M 226.54,522.631 207.681,515.087 z" id="boundary" inkscape:connector-curvature="0" />
	<path style="fill:none;stroke:red;stroke-width:1px;stroke-linecap:butt;stroke-linejoin:miter;stroke-opacity:1" d="M 226.54,522.631 245.399,524.517 z" id="boundary" inkscape:connector-curvature="0" />
	<path style="fill:none;stroke:red;stroke-width:1px;stroke-linecap:butt;stroke-linejoin:miter;stroke-opacity:1" d="M 264.259,524.517 283.118,524.517 z" id="boundary" inkscape:connector-curvature="0" />
	<path style="fill:none;stroke:red;stroke-width:1px;stroke-linecap:butt;stroke-linejoin:miter;stroke-opacity:1" d="M 283.118,524.517 300.091,533.947 z" id="boundary" inkscape:connector-curvature="0" />
	<path style="fill:none;stroke:red;stroke-width:1px;stroke-linecap:butt;stroke-linejoin:miter;stroke-opacity:1" d="M 318.951,533.947 300.091,533.947 z" id="boundary" inkscape:connector-curvature="0" />
	<path style="fill:none;stroke:red;stroke-width:1px;stroke-linecap:butt;stroke-linejoin:miter;stroke-opacity:1" d="M 335.924,543.376 318.951,533.947 z" id="boundary" inkscape:connector-curvature="0" />
	<path style="fill:none;stroke:red;stroke-width:1px;stroke-linecap:butt;stroke-linejoin:miter;stroke-opacity:1" d="M 352.897,552.806 335.924,543.376 z" id="boundary" inkscape:connector-curvature="0" />
	<path style="fill:none;stroke:red;stroke-width:1px;stroke-linecap:butt;stroke-linejoin:miter;stroke-opacity:1" d="M 352.897,552.806 369.871,562.236 z" id="boundary" inkscape:connector-curvature="0" />
	<path style="fill:none;stroke:red;stroke-width:1px;stroke-linecap:butt;stroke-linejoin:miter;stroke-opacity:1" d="M 386.844,571.665 401.932,584.867 z" id="boundary" inkscape:connector-curvature="0" />
	<path style="fill:none;stroke:red;stroke-width:1px;stroke-linecap:butt;stroke-linejoin:miter;stroke-opacity:1" d="M 386.844,571.665 369.871,562.236 z" id="boundary" inkscape:connector-curvature="0" />
	<path style="fill:none;stroke:red;stroke-width:1px;stroke-linecap:butt;stroke-linejoin:miter;stroke-opacity:1" d="M 401.932,584.867 409.475,603.726 z" id="boundary" inkscape:connector-curvature="0" />
	<path style="fill:none;stroke:red;stroke-width:1px;stroke-linecap:butt;stroke-linejoin:miter;stroke-opacity:1" d="M 418.905,620.7 418.905,639.559 z" id="boundary" inkscape:connector-curvature="0" />
	<path style="fill:none;stroke:red;stroke-width:1px;stroke-linecap:butt;stroke-linejoin:miter;stroke-opacity:1" d="M 428.335,656.532 418.905,639.559 z" id="boundary" inkscape:connector-curvature="0" />
	<path style="fill:none;stroke:red;stroke-width:1px;stroke-linecap:butt;stroke-linejoin:miter;stroke-opacity:1" d="M 409.475,603.726 418.905,620.7 z" id="boundary" inkscape:connector-curvature="0" />
	<path style="fill:none;stroke:red;stroke-width:1px;stroke-linecap:butt;stroke-linejoin:miter;stroke-opacity:1" d="M 428.335,656.532 437.764,673.506 z" id="boundary" inkscape:connector-curvature="0" />
	<path style="fill:none;stroke:red;stroke-width:1px;stroke-linecap:butt;stroke-linejoin:miter;stroke-opacity:1" d="M 447.194,709.338 437.764,692.365 z" id="boundary" inkscape:connector-curvature="0" />
	<path style="fill:none;stroke:red;stroke-width:1px;stroke-linecap:butt;stroke-linejoin:miter;stroke-opacity:1" d="M 437.764,692.365 437.764,673.506 z" id="boundary" inkscape:connector-curvature="0" />
	<path style="fill:none;stroke:red;stroke-width:1px;stroke-linecap:butt;stroke-linejoin:miter;stroke-opacity:1" d="M 447.194,709.338 456.624,726.312 z" id="boundary" inkscape:connector-curvature="0" />
	<path style="fill:none;stroke:red;stroke-width:1px;stroke-linecap:butt;stroke-linejoin:miter;stroke-opacity:1" d="M 466.053,762.144 456.624,745.171 z" id="boundary" inkscape:connector-curvature="0" />
	<path style="fill:none;stroke:red;stroke-width:1px;stroke-linecap:butt;stroke-linejoin:miter;stroke-opacity:1" d="M 456.624,745.171 456.624,726.312 z" id="boundary" inkscape:connector-curvature="0" />
	<path style="fill:none;stroke:red;stroke-width:1px;stroke-linecap:butt;stroke-linejoin:miter;stroke-opacity:1" d="M 486.798,794.205 475.483,779.118 z" id="boundary" inkscape:connector-curvature="0" />
	<path style="fill:none;stroke:red;stroke-width:1px;stroke-linecap:butt;stroke-linejoin:miter;stroke-opacity:1" d="M 475.483,779.118 466.053,762.144 z" id="boundary" inkscape:connector-curvature="0" />
	<path style="fill:none;stroke:red;stroke-width:1px;stroke-linecap:butt;stroke-linejoin:miter;stroke-opacity:1" d="M 486.798,794.205 496.228,811.179 z" id="boundary" inkscape:connector-curvature="0" />
	<path style="fill:none;stroke:red;stroke-width:1px;stroke-linecap:butt;stroke-linejoin:miter;stroke-opacity:1" d="M 496.228,811.179 515.087,816.837 z" id="boundary" inkscape:connector-curvature="0" />
	<path style="fill:none;stroke:red;stroke-width:1px;stroke-linecap:butt;stroke-linejoin:miter;stroke-opacity:1" d="M 665.962,45.4905 647.103,54.9202 z" id="boundary" inkscape:connector-curvature="0" />
	<path style="fill:none;stroke:red;stroke-width:1px;stroke-linecap:butt;stroke-linejoin:miter;stroke-opacity:1" d="M 575.437,154.875 584.867,136.015 z" id="boundary" inkscape:connector-curvature="0" />
	<path style="fill:none;stroke:red;stroke-width:1px;stroke-linecap:butt;stroke-linejoin:miter;stroke-opacity:1" d="M 594.297,117.156 584.867,136.015 z" id="boundary" inkscape:connector-curvature="0" />
	<path style="fill:none;stroke:red;stroke-width:1px;stroke-linecap:butt;stroke-linejoin:miter;stroke-opacity:1" d="M 637.673,73.7795 647.103,54.9202 z" id="boundary" inkscape:connector-curvature="0" />
	<path style="fill:none;stroke:red;stroke-width:1px;stroke-linecap:butt;stroke-linejoin:miter;stroke-opacity:1" d="M 637.673,73.7795 624.471,88.8669 z" id="boundary" inkscape:connector-curvature="0" />
	<path style="fill:none;stroke:red;stroke-width:1px;stroke-linecap:butt;stroke-linejoin:miter;stroke-opacity:1" d="M 594.297,117.156 609.384,102.068 z" id="boundary" inkscape:connector-curvature="0" />
	<path style="fill:none;stroke:red;stroke-width:1px;stroke-linecap:butt;stroke-linejoin:miter;stroke-opacity:1" d="M 624.471,88.8669 609.384,102.068 z" id="boundary" inkscape:connector-curvature="0" />
	<path style="fill:none;stroke:red;stroke-width:1px;stroke-linecap:butt;stroke-linejoin:miter;stroke-opacity:1" d="M 684.821,36.0608 703.681,26.6312 z" id="boundary" inkscape:connector-curvature="0" />
	<path style="fill:none;stroke:red;stroke-width:1px;stroke-linecap:butt;stroke-linejoin:miter;stroke-opacity:1" d="M 722.54,22.8593 703.681,26.6312 z" id="boundary" inkscape:connector-curvature="0" />
	<path style="fill:none;stroke:red;stroke-width:1px;stroke-linecap:butt;stroke-linejoin:miter;stroke-opacity:1" d="M 741.399,22.8593 760.259,22.8593 z" id="boundary" inkscape:connector-curvature="0" />
	<path style="fill:none;stroke:red;stroke-width:1px;stroke-linecap:butt;stroke-linejoin:miter;stroke-opacity:1" d="M 722.54,22.8593 741.399,22.8593 z" id="boundary" inkscape:connector-curvature="0" />
	<path style="fill:none;stroke:red;stroke-width:1px;stroke-linecap:butt;stroke-linejoin:miter;stroke-opacity:1" d="M 684.821,36.0608 665.962,45.4905 z" id="boundary" inkscape:connector-curvature="0" />
	<path style="fill:none;stroke:red;stroke-width:1px;stroke-linecap:butt;stroke-linejoin:miter;stroke-opacity:1" d="M 566.008,173.734 575.437,154.875 z" id="boundary" inkscape:connector-curvature="0" />
	<path style="fill:none;stroke:red;stroke-width:1px;stroke-linecap:butt;stroke-linejoin:miter;stroke-opacity:1" d="M 543.376,205.795 533.947,224.654 z" id="boundary" inkscape:connector-curvature="0" />
	<path style="fill:none;stroke:red;stroke-width:1px;stroke-linecap:butt;stroke-linejoin:miter;stroke-opacity:1" d="M 558.464,192.593 543.376,205.795 z" id="boundary" inkscape:connector-curvature="0" />
	<path style="fill:none;stroke:red;stroke-width:1px;stroke-linecap:butt;stroke-linejoin:miter;stroke-opacity:1" d="M 533.947,224.654 524.517,243.513 z" id="boundary" inkscape:connector-curvature="0" />
	<path style="fill:none;stroke:red;stroke-width:1px;stroke-linecap:butt;stroke-linejoin:miter;stroke-opacity:1" d="M 558.464,192.593 566.008,173.734 z" id="boundary" inkscape:connector-curvature="0" />
	<path style="fill:none;stroke:red;stroke-width:1px;stroke-linecap:butt;stroke-linejoin:miter;stroke-opacity:1" d="M 515.087,262.373 524.517,243.513 z" id="boundary" inkscape:connector-curvature="0" />
	<path style="fill:none;stroke:red;stroke-width:1px;stroke-linecap:butt;stroke-linejoin:miter;stroke-opacity:1" d="M 779.118,22.8593 760.259,22.8593 z" id="boundary" inkscape:connector-curvature="0" />
	<path style="fill:none;stroke:red;stroke-width:1px;stroke-linecap:butt;stroke-linejoin:miter;stroke-opacity:1" d="M 797.977,22.8593 779.118,22.8593 z" id="boundary" inkscape:connector-curvature="0" />
	<path style="fill:none;stroke:red;stroke-width:1px;stroke-linecap:butt;stroke-linejoin:miter;stroke-opacity:1" d="M 867.757,51.1483 850.783,41.7186 z" id="boundary" inkscape:connector-curvature="0" />
	<path style="fill:none;stroke:red;stroke-width:1px;stroke-linecap:butt;stroke-linejoin:miter;stroke-opacity:1" d="M 814.951,32.289 797.977,22.8593 z" id="boundary" inkscape:connector-curvature="0" />
	<path style="fill:none;stroke:red;stroke-width:1px;stroke-linecap:butt;stroke-linejoin:miter;stroke-opacity:1" d="M 814.951,32.289 831.924,41.7186 z" id="boundary" inkscape:connector-curvature="0" />
	<path style="fill:none;stroke:red;stroke-width:1px;stroke-linecap:butt;stroke-linejoin:miter;stroke-opacity:1" d="M 831.924,41.7186 850.783,41.7186 z" id="boundary" inkscape:connector-curvature="0" />
	<path style="fill:none;stroke:red;stroke-width:1px;stroke-linecap:butt;stroke-linejoin:miter;stroke-opacity:1" d="M 896.046,79.4373 880.958,66.2357 z" id="boundary" inkscape:connector-curvature="0" />
	<path style="fill:none;stroke:red;stroke-width:1px;stroke-linecap:butt;stroke-linejoin:miter;stroke-opacity:1" d="M 880.958,66.2357 867.757,51.1483 z" id="boundary" inkscape:connector-curvature="0" />
	<path style="fill:none;stroke:red;stroke-width:1px;stroke-linecap:butt;stroke-linejoin:miter;stroke-opacity:1" d="M 913.019,88.8669 896.046,79.4373 z" id="boundary" inkscape:connector-curvature="0" />
	<path style="fill:none;stroke:red;stroke-width:1px;stroke-linecap:butt;stroke-linejoin:miter;stroke-opacity:1" d="M 913.019,88.8669 929.992,98.2966 z" id="boundary" inkscape:connector-curvature="0" />
	<path style="fill:none;stroke:red;stroke-width:1px;stroke-linecap:butt;stroke-linejoin:miter;stroke-opacity:1" d="M 929.992,98.2966 945.08,109.612 z" id="boundary" inkscape:connector-curvature="0" />
	<path style="fill:none;stroke:red;stroke-width:1px;stroke-linecap:butt;stroke-linejoin:miter;stroke-opacity:1" d="M 952.624,128.471 945.08,109.612 z" id="boundary" inkscape:connector-curvature="0" />
	<path style="fill:none;stroke:red;stroke-width:1px;stroke-linecap:butt;stroke-linejoin:miter;stroke-opacity:1" d="M 967.711,141.673 952.624,128.471 z" id="boundary" inkscape:connector-curvature="0" />
	<path style="fill:none;stroke:red;stroke-width:1px;stroke-linecap:butt;stroke-linejoin:miter;stroke-opacity:1" d="M 977.141,177.506 967.711,160.532 z" id="boundary" inkscape:connector-curvature="0" />
	<path style="fill:none;stroke:red;stroke-width:1px;stroke-linecap:butt;stroke-linejoin:miter;stroke-opacity:1" d="M 967.711,160.532 967.711,141.673 z" id="boundary" inkscape:connector-curvature="0" />
	<path style="fill:none;stroke:red;stroke-width:1px;stroke-linecap:butt;stroke-linejoin:miter;stroke-opacity:1" d="M 977.141,177.506 986.57,194.479 z" id="boundary" inkscape:connector-curvature="0" />
	<path style="fill:none;stroke:red;stroke-width:1px;stroke-linecap:butt;stroke-linejoin:miter;stroke-opacity:1" d="M 996,230.312 986.57,213.338 z" id="boundary" inkscape:connector-curvature="0" />
	<path style="fill:none;stroke:red;stroke-width:1px;stroke-linecap:butt;stroke-linejoin:miter;stroke-opacity:1" d="M 986.57,213.338 986.57,194.479 z" id="boundary" inkscape:connector-curvature="0" />
	<path style="fill:none;stroke:red;stroke-width:1px;stroke-linecap:butt;stroke-linejoin:miter;stroke-opacity:1" d="M 996,230.312 996,249.171 z" id="boundary" inkscape:connector-curvature="0" />
	<path style="fill:none;stroke:red;stroke-width:1px;stroke-linecap:butt;stroke-linejoin:miter;stroke-opacity:1" d="M 996,268.03 996,249.171 z" id="boundary" inkscape:connector-curvature="0" />
	<path style="fill:none;stroke:red;stroke-width:1px;stroke-linecap:butt;stroke-linejoin:miter;stroke-opacity:1" d="M 996,286.89 996,305.749 z" id="boundary" inkscape:connector-curvature="0" />
	<path style="fill:none;stroke:red;stroke-width:1px;stroke-linecap:butt;stroke-linejoin:miter;stroke-opacity:1" d="M 996,324.608 996,343.468 z" id="boundary" inkscape:connector-curvature="0" />
	<path style="fill:none;stroke:red;stroke-width:1px;stroke-linecap:butt;stroke-linejoin:miter;stroke-opacity:1" d="M 996,324.608 996,305.749 z" id="boundary" inkscape:connector-curvature="0" />
	<path style="fill:none;stroke:red;stroke-width:1px;stroke-linecap:butt;stroke-linejoin:miter;stroke-opacity:1" d="M 996,286.89 996,268.03 z" id="boundary" inkscape:connector-curvature="0" />
	<path style="fill:none;stroke:red;stroke-width:1px;stroke-linecap:butt;stroke-linejoin:miter;stroke-opacity:1" d="M 996,343.468 986.57,364.213 z" id="boundary" inkscape:connector-curvature="0" />
	<path style="fill:none;stroke:red;stroke-width:1px;stroke-linecap:butt;stroke-linejoin:miter;stroke-opacity:1" d="M 590.525,647.103 599.954,628.243 z" id="boundary" inkscape:connector-curvature="0" />
	<path style="fill:none;stroke:red;stroke-width:1px;stroke-linecap:butt;stroke-linejoin:miter;stroke-opacity:1" d="M 609.384,609.384 599.954,628.243 z" id="boundary" inkscape:connector-curvature="0" />
	<path style="fill:none;stroke:red;stroke-width:1px;stroke-linecap:butt;stroke-linejoin:miter;stroke-opacity:1" d="M 671.62,558.464 652.76,567.894 z" id="boundary" inkscape:connector-curvature="0" />
	<path style="fill:none;stroke:red;stroke-width:1px;stroke-linecap:butt;stroke-linejoin:miter;stroke-opacity:1" d="M 690.479,552.806 671.62,558.464 z" id="boundary" inkscape:connector-curvature="0" />
	<path style="fill:none;stroke:red;stroke-width:1px;stroke-linecap:butt;stroke-linejoin:miter;stroke-opacity:1" d="M 652.76,567.894 633.901,577.323 z" id="boundary" inkscape:connector-curvature="0" />
	<path style="fill:none;stroke:red;stroke-width:1px;stroke-linecap:butt;stroke-linejoin:miter;stroke-opacity:1" d="M 709.338,552.806 690.479,552.806 z" id="boundary" inkscape:connector-curvature="0" />
	<path style="fill:none;stroke:red;stroke-width:1px;stroke-linecap:butt;stroke-linejoin:miter;stroke-opacity:1" d="M 609.384,609.384 618.814,590.525 z" id="boundary" inkscape:connector-curvature="0" />
	<path style="fill:none;stroke:red;stroke-width:1px;stroke-linecap:butt;stroke-linejoin:miter;stroke-opacity:1" d="M 633.901,577.323 618.814,590.525 z" id="boundary" inkscape:connector-curvature="0" />
	<path style="fill:none;stroke:red;stroke-width:1px;stroke-linecap:butt;stroke-linejoin:miter;stroke-opacity:1" d="M 530.175,803.635 515.087,816.837 z" id="boundary" inkscape:connector-curvature="0" />
	<path style="fill:none;stroke:red;stroke-width:1px;stroke-linecap:butt;stroke-linejoin:miter;stroke-opacity:1" d="M 590.525,665.962 581.095,684.821 z" id="boundary" inkscape:connector-curvature="0" />
	<path style="fill:none;stroke:red;stroke-width:1px;stroke-linecap:butt;stroke-linejoin:miter;stroke-opacity:1" d="M 581.095,684.821 581.095,703.681 z" id="boundary" inkscape:connector-curvature="0" />
	<path style="fill:none;stroke:red;stroke-width:1px;stroke-linecap:butt;stroke-linejoin:miter;stroke-opacity:1" d="M 590.525,647.103 590.525,665.962 z" id="boundary" inkscape:connector-curvature="0" />
	<path style="fill:none;stroke:red;stroke-width:1px;stroke-linecap:butt;stroke-linejoin:miter;stroke-opacity:1" d="M 543.376,779.118 530.175,803.635 z" id="boundary" inkscape:connector-curvature="0" />
	<path style="fill:none;stroke:red;stroke-width:1px;stroke-linecap:butt;stroke-linejoin:miter;stroke-opacity:1" d="M 552.806,760.259 543.376,779.118 z" id="boundary" inkscape:connector-curvature="0" />
	<path style="fill:none;stroke:red;stroke-width:1px;stroke-linecap:butt;stroke-linejoin:miter;stroke-opacity:1" d="M 571.665,722.54 581.095,703.681 z" id="boundary" inkscape:connector-curvature="0" />
	<path style="fill:none;stroke:red;stroke-width:1px;stroke-linecap:butt;stroke-linejoin:miter;stroke-opacity:1" d="M 562.236,741.399 571.665,722.54 z" id="boundary" inkscape:connector-curvature="0" />
	<path style="fill:none;stroke:red;stroke-width:1px;stroke-linecap:butt;stroke-linejoin:miter;stroke-opacity:1" d="M 562.236,741.399 552.806,760.259 z" id="boundary" inkscape:connector-curvature="0" />
	<path style="fill:none;stroke:red;stroke-width:1px;stroke-linecap:butt;stroke-linejoin:miter;stroke-opacity:1" d="M 709.338,552.806 728.198,552.806 z" id="boundary" inkscape:connector-curvature="0" />
	<path style="fill:none;stroke:red;stroke-width:1px;stroke-linecap:butt;stroke-linejoin:miter;stroke-opacity:1" d="M 747.057,552.806 728.198,552.806 z" id="boundary" inkscape:connector-curvature="0" />
	<path style="fill:none;stroke:red;stroke-width:1px;stroke-linecap:butt;stroke-linejoin:miter;stroke-opacity:1" d="M 907.361,530.175 892.274,543.376 z" id="boundary" inkscape:connector-curvature="0" />
	<path style="fill:none;stroke:red;stroke-width:1px;stroke-linecap:butt;stroke-linejoin:miter;stroke-opacity:1" d="M 892.274,543.376 875.3,552.806 z" id="boundary" inkscape:connector-curvature="0" />
	<path style="fill:none;stroke:red;stroke-width:1px;stroke-linecap:butt;stroke-linejoin:miter;stroke-opacity:1" d="M 977.141,392.502 973.369,426.449 z" id="boundary" inkscape:connector-curvature="0" />
	<path style="fill:none;stroke:red;stroke-width:1px;stroke-linecap:butt;stroke-linejoin:miter;stroke-opacity:1" d="M 973.369,426.449 963.939,445.308 z" id="boundary" inkscape:connector-curvature="0" />
	<path style="fill:none;stroke:red;stroke-width:1px;stroke-linecap:butt;stroke-linejoin:miter;stroke-opacity:1" d="M 977.141,392.502 986.57,364.213 z" id="boundary" inkscape:connector-curvature="0" />
	<path style="fill:none;stroke:red;stroke-width:1px;stroke-linecap:butt;stroke-linejoin:miter;stroke-opacity:1" d="M 907.361,530.175 916.791,511.316 z" id="boundary" inkscape:connector-curvature="0" />
	<path style="fill:none;stroke:red;stroke-width:1px;stroke-linecap:butt;stroke-linejoin:miter;stroke-opacity:1" d="M 929.992,496.228 916.791,511.316 z" id="boundary" inkscape:connector-curvature="0" />
	<path style="fill:none;stroke:red;stroke-width:1px;stroke-linecap:butt;stroke-linejoin:miter;stroke-opacity:1" d="M 954.51,464.167 963.939,445.308 z" id="boundary" inkscape:connector-curvature="0" />
	<path style="fill:none;stroke:red;stroke-width:1px;stroke-linecap:butt;stroke-linejoin:miter;stroke-opacity:1" d="M 954.51,464.167 939.422,477.369 z" id="boundary" inkscape:connector-curvature="0" />
	<path style="fill:none;stroke:red;stroke-width:1px;stroke-linecap:butt;stroke-linejoin:miter;stroke-opacity:1" d="M 929.992,496.228 939.422,477.369 z" id="boundary" inkscape:connector-curvature="0" />
	<path style="fill:none;stroke:red;stroke-width:1px;stroke-linecap:butt;stroke-linejoin:miter;stroke-opacity:1" d="M 747.057,552.806 765.916,552.806 z" id="boundary" inkscape:connector-curvature="0" />
	<path style="fill:none;stroke:red;stroke-width:1px;stroke-linecap:butt;stroke-linejoin:miter;stroke-opacity:1" d="M 765.916,552.806 782.89,562.236 z" id="boundary" inkscape:connector-curvature="0" />
	<path style="fill:none;stroke:red;stroke-width:1px;stroke-linecap:butt;stroke-linejoin:miter;stroke-opacity:1" d="M 820.608,562.236 801.749,562.236 z" id="boundary" inkscape:connector-curvature="0" />
	<path style="fill:none;stroke:red;stroke-width:1px;stroke-linecap:butt;stroke-linejoin:miter;stroke-opacity:1" d="M 801.749,562.236 782.89,562.236 z" id="boundary" inkscape:connector-curvature="0" />
	<path style="fill:none;stroke:red;stroke-width:1px;stroke-linecap:butt;stroke-linejoin:miter;stroke-opacity:1" d="M 837.582,552.806 856.441,552.806 z" id="boundary" inkscape:connector-curvature="0" />
	<path style="fill:none;stroke:red;stroke-width:1px;stroke-linecap:butt;stroke-linejoin:miter;stroke-opacity:1" d="M 856.441,552.806 875.3,552.806 z" id="boundary" inkscape:connector-curvature="0" />
	<path style="fill:none;stroke:red;stroke-width:1px;stroke-linecap:butt;stroke-linejoin:miter;stroke-opacity:1" d="M 820.608,562.236 837.582,552.806 z" id="boundary" inkscape:connector-curvature="0" />
	<circle cx="4" cy="179.392" r="4" fill="#0" id="circle0"/>
	<circle cx="4" cy="198.251" r="4" fill="#0" id="circle1"/>
	<circle cx="4" cy="217.11" r="4" fill="#0" id="circle2"/>
	<circle cx="4" cy="235.97" r="4" fill="#0" id="circle3"/>
	<circle cx="4" cy="254.829" r="4" fill="#0" id="circle4"/>
	<circle cx="4" cy="273.688" r="4" fill="#0" id="circle5"/>
	<circle cx="4" cy="292.548" r="4" fill="#0" id="circle6"/>
	<circle cx="13.4297" cy="141.673" r="4" fill="#0" id="circle7"/>
	<circle cx="13.4297" cy="160.532" r="4" fill="#0" id="circle8"/>
	<circle cx="13.4297" cy="309.521" r="4" fill="#0" id="circle9"/>
	<circle cx="13.4297" cy="328.38" r="4" fill="#0" id="circle10"/>
	<circle cx="13.4297" cy="347.24" r="4" fill="#0" id="circle11"/>
	<circle cx="22.8593" cy="122.814" r="4" fill="#0" id="circle12"/>
	<circle cx="22.8593" cy="364.213" r="4" fill="#0" id="circle13"/>
	<circle cx="32.289" cy="103.954" r="4" fill="#0" id="circle14"/>
	<circle cx="32.289" cy="381.186" r="4" fill="#0" id="circle15"/>
	<circle cx="41.7186" cy="398.16" r="4" fill="#0" id="circle16"/>
	<circle cx="47.3764" cy="88.8669" r="4" fill="#0" id="circle17"/>
	<circle cx="51.1483" cy="415.133" r="4" fill="#0" id="circle18"/>
	<circle cx="56.8061" cy="70.0076" r="4" fill="#0" id="circle19"/>
	<circle cx="66.2357" cy="51.1483" r="4" fill="#0" id="circle20"/>
	<circle cx="66.2357" cy="428.335" r="4" fill="#0" id="circle21"/>
	<circle cx="79.4373" cy="443.422" r="4" fill="#0" id="circle22"/>
	<circle cx="81.3232" cy="36.0608" r="4" fill="#0" id="circle23"/>
	<circle cx="88.8669" cy="460.395" r="4" fill="#0" id="circle24"/>
	<circle cx="100.183" cy="26.6312" r="4" fill="#0" id="circle25"/>
	<circle cx="107.726" cy="467.939" r="4" fill="#0" id="circle26"/>
	<circle cx="119.042" cy="17.2015" r="4" fill="#0" id="circle27"/>
	<circle cx="124.7" cy="477.369" r="4" fill="#0" id="circle28"/>
	<circle cx="137.901" cy="7.77186" r="4" fill="#0" id="circle29"/>
	<circle cx="137.901" cy="492.456" r="4" fill="#0" id="circle30"/>
	<circle cx="152.989" cy="505.658" r="4" fill="#0" id="circle31"/>
	<circle cx="156.76" cy="4" r="4" fill="#0" id="circle32"/>
	<circle cx="171.848" cy="505.658" r="4" fill="#0" id="circle33"/>
	<circle cx="175.62" cy="4" r="4" fill="#0" id="circle34"/>
	<circle cx="188.821" cy="515.087" r="4" fill="#0" id="circle35"/>
	<circle cx="194.479" cy="4" r="4" fill="#0" id="circle36"/>
	<circle cx="207.681" cy="515.087" r="4" fill="#0" id="circle37"/>
	<circle cx="213.338" cy="4" r="4" fill="#0" id="circle38"/>
	<circle cx="226.54" cy="522.631" r="4" fill="#0" id="circle39"/>
	<circle cx="232.198" cy="4" r="4" fill="#0" id="circle40"/>
	<circle cx="245.399" cy="524.517" r="4" fill="#0" id="circle41"/>
	<circle cx="251.057" cy="4" r="4" fill="#0" id="circle42"/>
	<circle cx="264.259" cy="524.517" r="4" fill="#0" id="circle43"/>
	<circle cx="269.916" cy="9.65779" r="4" fill="#0" id="circle44"/>
	<circle cx="283.118" cy="524.517" r="4" fill="#0" id="circle45"/>
	<circle cx="286.89" cy="19.0875" r="4" fill="#0" id="circle46"/>
	<circle cx="300.091" cy="533.947" r="4" fill="#0" id="circle47"/>
	<circle cx="305.749" cy="26.6312" r="4" fill="#0" id="circle48"/>
	<circle cx="318.951" cy="533.947" r="4" fill="#0" id="circle49"/>
	<circle cx="322.722" cy="36.0608" r="4" fill="#0" id="circle50"/>
	<circle cx="335.924" cy="543.376" r="4" fill="#0" id="circle51"/>
	<circle cx="341.582" cy="43.6046" r="4" fill="#0" id="circle52"/>
	<circle cx="352.897" cy="552.806" r="4" fill="#0" id="circle53"/>
	<circle cx="358.555" cy="53.0342" r="4" fill="#0" id="circle54"/>
	<circle cx="369.871" cy="562.236" r="4" fill="#0" id="circle55"/>
	<circle cx="373.643" cy="66.2357" r="4" fill="#0" id="circle56"/>
	<circle cx="386.844" cy="81.3232" r="4" fill="#0" id="circle57"/>
	<circle cx="386.844" cy="571.665" r="4" fill="#0" id="circle58"/>
	<circle cx="401.932" cy="94.5247" r="4" fill="#0" id="circle59"/>
	<circle cx="401.932" cy="584.867" r="4" fill="#0" id="circle60"/>
	<circle cx="409.475" cy="603.726" r="4" fill="#0" id="circle61"/>
	<circle cx="415.133" cy="109.612" r="4" fill="#0" id="circle62"/>
	<circle cx="418.905" cy="620.7" r="4" fill="#0" id="circle63"/>
	<circle cx="418.905" cy="639.559" r="4" fill="#0" id="circle64"/>
	<circle cx="424.563" cy="126.586" r="4" fill="#0" id="circle65"/>
	<circle cx="428.335" cy="656.532" r="4" fill="#0" id="circle66"/>
	<circle cx="430.221" cy="145.445" r="4" fill="#0" id="circle67"/>
	<circle cx="437.764" cy="673.506" r="4" fill="#0" id="circle68"/>
	<circle cx="437.764" cy="692.365" r="4" fill="#0" id="circle69"/>
	<circle cx="439.65" cy="162.418" r="4" fill="#0" id="circle70"/>
	<circle cx="447.194" cy="709.338" r="4" fill="#0" id="circle71"/>
	<circle cx="449.08" cy="179.392" r="4" fill="#0" id="circle72"/>
	<circle cx="456.624" cy="726.312" r="4" fill="#0" id="circle73"/>
	<circle cx="456.624" cy="745.171" r="4" fill="#0" id="circle74"/>
	<circle cx="458.51" cy="196.365" r="4" fill="#0" id="circle75"/>
	<circle cx="466.053" cy="762.144" r="4" fill="#0" id="circle76"/>
	<circle cx="467.939" cy="213.338" r="4" fill="#0" id="circle77"/>
	<circle cx="475.483" cy="779.118" r="4" fill="#0" id="circle78"/>
	<circle cx="477.369" cy="230.312" r="4" fill="#0" id="circle79"/>
	<circle cx="486.798" cy="247.285" r="4" fill="#0" id="circle80"/>
	<circle cx="486.798" cy="794.205" r="4" fill="#0" id="circle81"/>
	<circle cx="496.228" cy="264.259" r="4" fill="#0" id="circle82"/>
	<circle cx="496.228" cy="811.179" r="4" fill="#0" id="circle83"/>
	<circle cx="515.087" cy="262.373" r="4" fill="#0" id="circle84"/>
	<circle cx="515.087" cy="816.837" r="4" fill="#0" id="circle85"/>
	<circle cx="524.517" cy="243.513" r="4" fill="#0" id="circle86"/>
	<circle cx="530.175" cy="803.635" r="4" fill="#0" id="circle87"/>
	<circle cx="533.947" cy="224.654" r="4" fill="#0" id="circle88"/>
	<circle cx="543.376" cy="205.795" r="4" fill="#0" id="circle89"/>
	<circle cx="543.376" cy="779.118" r="4" fill="#0" id="circle90"/>
	<circle cx="552.806" cy="760.259" r="4" fill="#0" id="circle91"/>
	<circle cx="558.464" cy="192.593" r="4" fill="#0" id="circle92"/>
	<circle cx="562.236" cy="741.399" r="4" fill="#0" id="circle93"/>
	<circle cx="566.008" cy="173.734" r="4" fill="#0" id="circle94"/>
	<circle cx="571.665" cy="722.54" r="4" fill="#0" id="circle95"/>
	<circle cx="575.437" cy="154.875" r="4" fill="#0" id="circle96"/>
	<circle cx="581.095" cy="684.821" r="4" fill="#0" id="circle97"/>
	<circle cx="581.095" cy="703.681" r="4" fill="#0" id="circle98"/>
	<circle cx="584.867" cy="136.015" r="4" fill="#0" id="circle99"/>
	<circle cx="590.525" cy="647.103" r="4" fill="#0" id="circle100"/>
	<circle cx="590.525" cy="665.962" r="4" fill="#0" id="circle101"/>
	<circle cx="594.297" cy="117.156" r="4" fill="#0" id="circle102"/>
	<circle cx="599.954" cy="628.243" r="4" fill="#0" id="circle103"/>
	<circle cx="609.384" cy="102.068" r="4" fill="#0" id="circle104"/>
	<circle cx="609.384" cy="609.384" r="4" fill="#0" id="circle105"/>
	<circle cx="618.814" cy="590.525" r="4" fill="#0" id="circle106"/>
	<circle cx="624.471" cy="88.8669" r="4" fill="#0" id="circle107"/>
	<circle cx="633.901" cy="577.323" r="4" fill="#0" id="circle108"/>
	<circle cx="637.673" cy="73.7795" r="4" fill="#0" id="circle109"/>
	<circle cx="647.103" cy="54.9202" r="4" fill="#0" id="circle110"/>
	<circle cx="652.76" cy="567.894" r="4" fill="#0" id="circle111"/>
	<circle cx="665.962" cy="45.4905" r="4" fill="#0" id="circle112"/>
	<circle cx="671.62" cy="558.464" r="4" fill="#0" id="circle113"/>
	<circle cx="684.821" cy="36.0608" r="4" fill="#0" id="circle114"/>
	<circle cx="690.479" cy="552.806" r="4" fill="#0" id="circle115"/>
	<circle cx="703.681" cy="26.6312" r="4" fill="#0" id="circle116"/>
	<circle cx="709.338" cy="552.806" r="4" fill="#0" id="circle117"/>
	<circle cx="722.54" cy="22.8593" r="4" fill="#0" id="circle118"/>
	<circle cx="728.198" cy="552.806" r="4" fill="#0" id="circle119"/>
	<circle cx="741.399" cy="22.8593" r="4" fill="#0" id="circle120"/>
	<circle cx="747.057" cy="552.806" r="4" fill="#0" id="circle121"/>
	<circle cx="760.259" cy="22.8593" r="4" fill="#0" id="circle122"/>
	<circle cx="765.916" cy="552.806" r="4" fill="#0" id="circle123"/>
	<circle cx="779.118" cy="22.8593" r="4" fill="#0" id="circle124"/>
	<circle cx="782.89" cy="562.236" r="4" fill="#0" id="circle125"/>
	<circle cx="797.977" cy="22.8593" r="4" fill="#0" id="circle126"/>
	<circle cx="801.749" cy="562.236" r="4" fill="#0" id="circle127"/>
	<circle cx="814.951" cy="32.289" r="4" fill="#0" id="circle128"/>
	<circle cx="820.608" cy="562.236" r="4" fill="#0" id="circle129"/>
	<circle cx="831.924" cy="41.7186" r="4" fill="#0" id="circle130"/>
	<circle cx="837.582" cy="552.806" r="4" fill="#0" id="circle131"/>
	<circle cx="850.783" cy="41.7186" r="4" fill="#0" id="circle132"/>
	<circle cx="856.441" cy="552.806" r="4" fill="#0" id="circle133"/>
	<circle cx="867.757" cy="51.1483" r="4" fill="#0" id="circle134"/>
	<circle cx="875.3" cy="552.806" r="4" fill="#0" id="circle135"/>
	<circle cx="880.958" cy="66.2357" r="4" fill="#0" id="circle136"/>
	<circle cx="892.274" cy="543.376" r="4" fill="#0" id="circle137"/>
	<circle cx="896.046" cy="79.4373" r="4" fill="#0" id="circle138"/>
	<circle cx="907.361" cy="530.175" r="4" fill="#0" id="circle139"/>
	<circle cx="913.019" cy="88.8669" r="4" fill="#0" id="circle140"/>
	<circle cx="916.791" cy="511.316" r="4" fill="#0" id="circle141"/>
	<circle cx="929.992" cy="98.2966" r="4" fill="#0" id="circle142"/>
	<circle cx="929.992" cy="496.228" r="4" fill="#0" id="circle143"/>
	<circle cx="939.422" cy="477.369" r="4" fill="#0" id="circle144"/>
	<circle cx="945.08" cy="109.612" r="4" fill="#0" id="circle145"/>
	<circle cx="952.624" cy="128.471" r="4" fill="#0" id="circle146"/>
	<circle cx="954.51" cy="464.167" r="4" fill="#0" id="circle147"/>
	<circle cx="963.939" cy="445.308" r="4" fill="#0" id="circle148"/>
	<circle cx="967.711" cy="141.673" r="4" fill="#0" id="circle149"/>
	<circle cx="967.711" cy="160.532" r="4" fill="#0" id="circle150"/>
	<circle cx="973.369" cy="426.449" r="4" fill="#0" id="circle151"/>
	<circle cx="977.141" cy="177.506" r="4" fill="#0" id="circle152"/>
	<circle cx="977.141" cy="392.502" r="4" fill="#0" id="circle153"/>
	<circle cx="986.57" cy="194.479" r="4" fill="#0" id="circle154"/>
	<circle cx="986.57" cy="213.338" r="4" fill="#0" id="circle155"/>
	<circle cx="986.57" cy="364.213" r="4" fill="#0" id="circle156"/>
	<circle cx="996" cy="230.312" r="4" fill="#0" id="circle157"/>
	<circle cx="996" cy="249.171" r="4" fill="#0" id="circle158"/>
	<circle cx="996" cy="268.03" r="4" fill="#0" id="circle159"/>
	<circle cx="996" cy="286.89" r="4" fill="#0" id="circle160"/>
	<circle cx="996" cy="305.749" r="4" fill="#0" id="circle161"/>
	<circle cx="996" cy="324.608" r="4" fill="#0" id="circle162"/>
	<circle cx="996" cy="343.468" r="4" fill="#0" id="circle163"/>
	</g>
</svg>