<?xml version="1.0" encoding="UTF-8" standalone="no"?>
<!-- Created with CurveBenchmark -->
<svg
	xmlns:dc="http://purl.org/dc/elements/1.1/"
	xmlns:cc="http://creativecommons.org/ns#"
	xmlns:rdf="http://www.w3.org/1999/02/22-rdf-syntax-ns#"
	xmlns:svg="http://www.w3.org/2000/svg"
	xmlns="http://www.w3.org/2000/svg"
	xmlns:sodipodi="http://sodipodi.sourceforge.net/DTD/sodipodi-0.dtd"
	xmlns:inkscape="http://www.inkscape.org/namespaces/inkscape"
	width="1000"
	height="1000"
	id="svg2"
	version="1.1"
	sodipodi:docname="manifold/crust-bird270.png.txt">
<defs
	id="defs4" />
<metadata
	id="metadata7">
	<rdf:RDF>
		<cc:Work
			rdf:about="">
			<dc:format>image/svg+xml</dc:format>
			<dc:type
				rdf:resource="http://purl.org/dc/dcmitype/StillImage" />
			<dc:title></dc:title>
		</cc:Work>
	</rdf:RDF>
</metadata>
<g
	inkscape:label="Layer 1"
	inkscape:groupmode="layer"
	id="layer1">
	<path style="fill:none;stroke:red;stroke-width:1px;stroke-linecap:butt;stroke-linejoin:miter;stroke-opacity:1" d="M 4,159.608 4,120.706 z" id="boundary" inkscape:connector-curvature="0" />
	<path style="fill:none;stroke:red;stroke-width:1px;stroke-linecap:butt;stroke-linejoin:miter;stroke-opacity:1" d="M 11.7804,74.0235 4,120.706 z" id="boundary" inkscape:connector-curvature="0" />
	<path style="fill:none;stroke:red;stroke-width:1px;stroke-linecap:butt;stroke-linejoin:miter;stroke-opacity:1" d="M 4,198.51 4,159.608 z" id="boundary" inkscape:connector-curvature="0" />
	<path style="fill:none;stroke:red;stroke-width:1px;stroke-linecap:butt;stroke-linejoin:miter;stroke-opacity:1" d="M 4,198.51 7.8902,237.412 z" id="boundary" inkscape:connector-curvature="0" />
	<path style="fill:none;stroke:red;stroke-width:1px;stroke-linecap:butt;stroke-linejoin:miter;stroke-opacity:1" d="M 7.8902,237.412 11.7804,276.314 z" id="boundary" inkscape:connector-curvature="0" />
	<path style="fill:none;stroke:red;stroke-width:1px;stroke-linecap:butt;stroke-linejoin:miter;stroke-opacity:1" d="M 42.902,42.902 74.0235,19.5608 z" id="boundary" inkscape:connector-curvature="0" />
	<path style="fill:none;stroke:red;stroke-width:1px;stroke-linecap:butt;stroke-linejoin:miter;stroke-opacity:1" d="M 11.7804,276.314 19.5608,315.216 z" id="boundary" inkscape:connector-curvature="0" />
	<path style="fill:none;stroke:red;stroke-width:1px;stroke-linecap:butt;stroke-linejoin:miter;stroke-opacity:1" d="M 39.0118,350.227 19.5608,315.216 z" id="boundary" inkscape:connector-curvature="0" />
	<path style="fill:none;stroke:red;stroke-width:1px;stroke-linecap:butt;stroke-linejoin:miter;stroke-opacity:1" d="M 39.0118,350.227 50.6824,389.129 z" id="boundary" inkscape:connector-curvature="0" />
	<path style="fill:none;stroke:red;stroke-width:1px;stroke-linecap:butt;stroke-linejoin:miter;stroke-opacity:1" d="M 11.7804,74.0235 42.902,42.902 z" id="boundary" inkscape:connector-curvature="0" />
	<path style="fill:none;stroke:red;stroke-width:1px;stroke-linecap:butt;stroke-linejoin:miter;stroke-opacity:1" d="M 50.6824,389.129 50.6824,428.031 z" id="boundary" inkscape:connector-curvature="0" />
	<path style="fill:none;stroke:red;stroke-width:1px;stroke-linecap:butt;stroke-linejoin:miter;stroke-opacity:1" d="M 58.4627,466.933 58.4627,505.835 z" id="boundary" inkscape:connector-curvature="0" />
	<path style="fill:none;stroke:red;stroke-width:1px;stroke-linecap:butt;stroke-linejoin:miter;stroke-opacity:1" d="M 50.6824,428.031 58.4627,466.933 z" id="boundary" inkscape:connector-curvature="0" />
	<path style="fill:none;stroke:red;stroke-width:1px;stroke-linecap:butt;stroke-linejoin:miter;stroke-opacity:1" d="M 66.2431,544.737 66.2431,583.639 z" id="boundary" inkscape:connector-curvature="0" />
	<path style="fill:none;stroke:red;stroke-width:1px;stroke-linecap:butt;stroke-linejoin:miter;stroke-opacity:1" d="M 66.2431,544.737 58.4627,505.835 z" id="boundary" inkscape:connector-curvature="0" />
	<path style="fill:none;stroke:red;stroke-width:1px;stroke-linecap:butt;stroke-linejoin:miter;stroke-opacity:1" d="M 66.2431,583.639 66.2431,622.541 z" id="boundary" inkscape:connector-curvature="0" />
	<path style="fill:none;stroke:red;stroke-width:1px;stroke-linecap:butt;stroke-linejoin:miter;stroke-opacity:1" d="M 116.816,431.922 116.816,470.824 z" id="boundary" inkscape:connector-curvature="0" />
	<path style="fill:none;stroke:red;stroke-width:1px;stroke-linecap:butt;stroke-linejoin:miter;stroke-opacity:1" d="M 116.816,509.725 116.816,548.627 z" id="boundary" inkscape:connector-curvature="0" />
	<path style="fill:none;stroke:red;stroke-width:1px;stroke-linecap:butt;stroke-linejoin:miter;stroke-opacity:1" d="M 116.816,587.529 116.816,548.627 z" id="boundary" inkscape:connector-curvature="0" />
	<path style="fill:none;stroke:red;stroke-width:1px;stroke-linecap:butt;stroke-linejoin:miter;stroke-opacity:1" d="M 116.816,509.725 116.816,470.824 z" id="boundary" inkscape:connector-curvature="0" />
	<path style="fill:none;stroke:red;stroke-width:1px;stroke-linecap:butt;stroke-linejoin:miter;stroke-opacity:1" d="M 116.816,431.922 155.718,431.922 z" id="boundary" inkscape:connector-curvature="0" />
	<path style="fill:none;stroke:red;stroke-width:1px;stroke-linecap:butt;stroke-linejoin:miter;stroke-opacity:1" d="M 74.0235,19.5608 112.925,11.7804 z" id="boundary" inkscape:connector-curvature="0" />
	<path style="fill:none;stroke:red;stroke-width:1px;stroke-linecap:butt;stroke-linejoin:miter;stroke-opacity:1" d="M 74.0235,661.443 66.2431,622.541 z" id="boundary" inkscape:connector-curvature="0" />
	<path style="fill:none;stroke:red;stroke-width:1px;stroke-linecap:butt;stroke-linejoin:miter;stroke-opacity:1" d="M 74.0235,661.443 74.0235,700.345 z" id="boundary" inkscape:connector-curvature="0" />
	<path style="fill:none;stroke:red;stroke-width:1px;stroke-linecap:butt;stroke-linejoin:miter;stroke-opacity:1" d="M 74.0235,739.247 74.0235,778.149 z" id="boundary" inkscape:connector-curvature="0" />
	<path style="fill:none;stroke:red;stroke-width:1px;stroke-linecap:butt;stroke-linejoin:miter;stroke-opacity:1" d="M 74.0235,739.247 74.0235,700.345 z" id="boundary" inkscape:connector-curvature="0" />
	<path style="fill:none;stroke:red;stroke-width:1px;stroke-linecap:butt;stroke-linejoin:miter;stroke-opacity:1" d="M 74.0235,817.051 74.0235,778.149 z" id="boundary" inkscape:connector-curvature="0" />
	<path style="fill:none;stroke:red;stroke-width:1px;stroke-linecap:butt;stroke-linejoin:miter;stroke-opacity:1" d="M 42.902,960.988 66.2431,914.306 z" id="boundary" inkscape:connector-curvature="0" />
	<path style="fill:none;stroke:red;stroke-width:1px;stroke-linecap:butt;stroke-linejoin:miter;stroke-opacity:1" d="M 42.902,960.988 66.2431,992.11 z" id="boundary" inkscape:connector-curvature="0" />
	<path style="fill:none;stroke:red;stroke-width:1px;stroke-linecap:butt;stroke-linejoin:miter;stroke-opacity:1" d="M 74.0235,855.953 66.2431,914.306 z" id="boundary" inkscape:connector-curvature="0" />
	<path style="fill:none;stroke:red;stroke-width:1px;stroke-linecap:butt;stroke-linejoin:miter;stroke-opacity:1" d="M 74.0235,855.953 74.0235,817.051 z" id="boundary" inkscape:connector-curvature="0" />
	<path style="fill:none;stroke:red;stroke-width:1px;stroke-linecap:butt;stroke-linejoin:miter;stroke-opacity:1" d="M 105.145,996 66.2431,992.11 z" id="boundary" inkscape:connector-curvature="0" />
	<path style="fill:none;stroke:red;stroke-width:1px;stroke-linecap:butt;stroke-linejoin:miter;stroke-opacity:1" d="M 116.816,587.529 116.816,626.431 z" id="boundary" inkscape:connector-curvature="0" />
	<path style="fill:none;stroke:red;stroke-width:1px;stroke-linecap:butt;stroke-linejoin:miter;stroke-opacity:1" d="M 116.816,665.333 116.816,626.431 z" id="boundary" inkscape:connector-curvature="0" />
	<path style="fill:none;stroke:red;stroke-width:1px;stroke-linecap:butt;stroke-linejoin:miter;stroke-opacity:1" d="M 116.816,665.333 116.816,704.235 z" id="boundary" inkscape:connector-curvature="0" />
	<path style="fill:none;stroke:red;stroke-width:1px;stroke-linecap:butt;stroke-linejoin:miter;stroke-opacity:1" d="M 116.816,782.039 116.816,743.137 z" id="boundary" inkscape:connector-curvature="0" />
	<path style="fill:none;stroke:red;stroke-width:1px;stroke-linecap:butt;stroke-linejoin:miter;stroke-opacity:1" d="M 116.816,743.137 116.816,704.235 z" id="boundary" inkscape:connector-curvature="0" />
	<path style="fill:none;stroke:red;stroke-width:1px;stroke-linecap:butt;stroke-linejoin:miter;stroke-opacity:1" d="M 116.816,782.039 116.816,820.941 z" id="boundary" inkscape:connector-curvature="0" />
	<path style="fill:none;stroke:red;stroke-width:1px;stroke-linecap:butt;stroke-linejoin:miter;stroke-opacity:1" d="M 116.816,898.745 116.816,859.843 z" id="boundary" inkscape:connector-curvature="0" />
	<path style="fill:none;stroke:red;stroke-width:1px;stroke-linecap:butt;stroke-linejoin:miter;stroke-opacity:1" d="M 116.816,820.941 116.816,859.843 z" id="boundary" inkscape:connector-curvature="0" />
	<path style="fill:none;stroke:red;stroke-width:1px;stroke-linecap:butt;stroke-linejoin:miter;stroke-opacity:1" d="M 116.816,898.745 116.816,937.647 z" id="boundary" inkscape:connector-curvature="0" />
	<path style="fill:none;stroke:red;stroke-width:1px;stroke-linecap:butt;stroke-linejoin:miter;stroke-opacity:1" d="M 175.169,992.11 105.145,996 z" id="boundary" inkscape:connector-curvature="0" />
	<path style="fill:none;stroke:red;stroke-width:1px;stroke-linecap:butt;stroke-linejoin:miter;stroke-opacity:1" d="M 151.827,4 112.925,11.7804 z" id="boundary" inkscape:connector-curvature="0" />
	<path style="fill:none;stroke:red;stroke-width:1px;stroke-linecap:butt;stroke-linejoin:miter;stroke-opacity:1" d="M 264.643,307.435 241.302,354.118 z" id="boundary" inkscape:connector-curvature="0" />
	<path style="fill:none;stroke:red;stroke-width:1px;stroke-linecap:butt;stroke-linejoin:miter;stroke-opacity:1" d="M 151.827,4 190.729,11.7804 z" id="boundary" inkscape:connector-curvature="0" />
	<path style="fill:none;stroke:red;stroke-width:1px;stroke-linecap:butt;stroke-linejoin:miter;stroke-opacity:1" d="M 167.388,470.824 155.718,431.922 z" id="boundary" inkscape:connector-curvature="0" />
	<path style="fill:none;stroke:red;stroke-width:1px;stroke-linecap:butt;stroke-linejoin:miter;stroke-opacity:1" d="M 167.388,470.824 171.278,509.725 z" id="boundary" inkscape:connector-curvature="0" />
	<path style="fill:none;stroke:red;stroke-width:1px;stroke-linecap:butt;stroke-linejoin:miter;stroke-opacity:1" d="M 167.388,626.431 167.388,665.333 z" id="boundary" inkscape:connector-curvature="0" />
	<path style="fill:none;stroke:red;stroke-width:1px;stroke-linecap:butt;stroke-linejoin:miter;stroke-opacity:1" d="M 175.169,587.529 167.388,626.431 z" id="boundary" inkscape:connector-curvature="0" />
	<path style="fill:none;stroke:red;stroke-width:1px;stroke-linecap:butt;stroke-linejoin:miter;stroke-opacity:1" d="M 171.278,509.725 175.169,548.627 z" id="boundary" inkscape:connector-curvature="0" />
	<path style="fill:none;stroke:red;stroke-width:1px;stroke-linecap:butt;stroke-linejoin:miter;stroke-opacity:1" d="M 175.169,587.529 175.169,548.627 z" id="boundary" inkscape:connector-curvature="0" />
	<path style="fill:none;stroke:red;stroke-width:1px;stroke-linecap:butt;stroke-linejoin:miter;stroke-opacity:1" d="M 225.741,31.2314 256.863,54.5725 z" id="boundary" inkscape:connector-curvature="0" />
	<path style="fill:none;stroke:red;stroke-width:1px;stroke-linecap:butt;stroke-linejoin:miter;stroke-opacity:1" d="M 190.729,11.7804 225.741,31.2314 z" id="boundary" inkscape:connector-curvature="0" />
	<path style="fill:none;stroke:red;stroke-width:1px;stroke-linecap:butt;stroke-linejoin:miter;stroke-opacity:1" d="M 272.424,268.533 264.643,307.435 z" id="boundary" inkscape:connector-curvature="0" />
	<path style="fill:none;stroke:red;stroke-width:1px;stroke-linecap:butt;stroke-linejoin:miter;stroke-opacity:1" d="M 233.522,400.8 233.522,439.702 z" id="boundary" inkscape:connector-curvature="0" />
	<path style="fill:none;stroke:red;stroke-width:1px;stroke-linecap:butt;stroke-linejoin:miter;stroke-opacity:1" d="M 233.522,400.8 241.302,354.118 z" id="boundary" inkscape:connector-curvature="0" />
	<path style="fill:none;stroke:red;stroke-width:1px;stroke-linecap:butt;stroke-linejoin:miter;stroke-opacity:1" d="M 256.863,54.5725 272.424,93.4745 z" id="boundary" inkscape:connector-curvature="0" />
	<path style="fill:none;stroke:red;stroke-width:1px;stroke-linecap:butt;stroke-linejoin:miter;stroke-opacity:1" d="M 280.204,132.376 280.204,171.278 z" id="boundary" inkscape:connector-curvature="0" />
	<path style="fill:none;stroke:red;stroke-width:1px;stroke-linecap:butt;stroke-linejoin:miter;stroke-opacity:1" d="M 280.204,132.376 272.424,93.4745 z" id="boundary" inkscape:connector-curvature="0" />
	<path style="fill:none;stroke:red;stroke-width:1px;stroke-linecap:butt;stroke-linejoin:miter;stroke-opacity:1" d="M 280.204,171.278 280.204,210.18 z" id="boundary" inkscape:connector-curvature="0" />
	<path style="fill:none;stroke:red;stroke-width:1px;stroke-linecap:butt;stroke-linejoin:miter;stroke-opacity:1" d="M 272.424,268.533 280.204,210.18 z" id="boundary" inkscape:connector-curvature="0" />
	<path style="fill:none;stroke:red;stroke-width:1px;stroke-linecap:butt;stroke-linejoin:miter;stroke-opacity:1" d="M 217.961,579.749 217.961,618.651 z" id="boundary" inkscape:connector-curvature="0" />
	<path style="fill:none;stroke:red;stroke-width:1px;stroke-linecap:butt;stroke-linejoin:miter;stroke-opacity:1" d="M 225.741,533.067 217.961,579.749 z" id="boundary" inkscape:connector-curvature="0" />
	<path style="fill:none;stroke:red;stroke-width:1px;stroke-linecap:butt;stroke-linejoin:miter;stroke-opacity:1" d="M 225.741,494.165 233.522,439.702 z" id="boundary" inkscape:connector-curvature="0" />
	<path style="fill:none;stroke:red;stroke-width:1px;stroke-linecap:butt;stroke-linejoin:miter;stroke-opacity:1" d="M 225.741,533.067 225.741,494.165 z" id="boundary" inkscape:connector-curvature="0" />
	<path style="fill:none;stroke:red;stroke-width:1px;stroke-linecap:butt;stroke-linejoin:miter;stroke-opacity:1" d="M 217.961,657.553 217.961,618.651 z" id="boundary" inkscape:connector-curvature="0" />
	<path style="fill:none;stroke:red;stroke-width:1px;stroke-linecap:butt;stroke-linejoin:miter;stroke-opacity:1" d="M 167.388,665.333 167.388,704.235 z" id="boundary" inkscape:connector-curvature="0" />
	<path style="fill:none;stroke:red;stroke-width:1px;stroke-linecap:butt;stroke-linejoin:miter;stroke-opacity:1" d="M 175.169,743.137 167.388,704.235 z" id="boundary" inkscape:connector-curvature="0" />
	<path style="fill:none;stroke:red;stroke-width:1px;stroke-linecap:butt;stroke-linejoin:miter;stroke-opacity:1" d="M 175.169,743.137 175.169,782.039 z" id="boundary" inkscape:connector-curvature="0" />
	<path style="fill:none;stroke:red;stroke-width:1px;stroke-linecap:butt;stroke-linejoin:miter;stroke-opacity:1" d="M 175.169,782.039 175.169,820.941 z" id="boundary" inkscape:connector-curvature="0" />
	<path style="fill:none;stroke:red;stroke-width:1px;stroke-linecap:butt;stroke-linejoin:miter;stroke-opacity:1" d="M 167.388,953.208 175.169,992.11 z" id="boundary" inkscape:connector-curvature="0" />
	<path style="fill:none;stroke:red;stroke-width:1px;stroke-linecap:butt;stroke-linejoin:miter;stroke-opacity:1" d="M 175.169,820.941 175.169,859.843 z" id="boundary" inkscape:connector-curvature="0" />
	<path style="fill:none;stroke:red;stroke-width:1px;stroke-linecap:butt;stroke-linejoin:miter;stroke-opacity:1" d="M 175.169,898.745 175.169,859.843 z" id="boundary" inkscape:connector-curvature="0" />
	<path style="fill:none;stroke:red;stroke-width:1px;stroke-linecap:butt;stroke-linejoin:miter;stroke-opacity:1" d="M 175.169,992.11 214.071,996 z" id="boundary" inkscape:connector-curvature="0" />
	<path style="fill:none;stroke:red;stroke-width:1px;stroke-linecap:butt;stroke-linejoin:miter;stroke-opacity:1" d="M 217.961,696.455 217.961,735.357 z" id="boundary" inkscape:connector-curvature="0" />
	<path style="fill:none;stroke:red;stroke-width:1px;stroke-linecap:butt;stroke-linejoin:miter;stroke-opacity:1" d="M 217.961,696.455 217.961,657.553 z" id="boundary" inkscape:connector-curvature="0" />
	<path style="fill:none;stroke:red;stroke-width:1px;stroke-linecap:butt;stroke-linejoin:miter;stroke-opacity:1" d="M 217.961,774.259 217.961,813.161 z" id="boundary" inkscape:connector-curvature="0" />
	<path style="fill:none;stroke:red;stroke-width:1px;stroke-linecap:butt;stroke-linejoin:miter;stroke-opacity:1" d="M 217.961,735.357 217.961,774.259 z" id="boundary" inkscape:connector-curvature="0" />
	<path style="fill:none;stroke:red;stroke-width:1px;stroke-linecap:butt;stroke-linejoin:miter;stroke-opacity:1" d="M 241.302,960.988 214.071,996 z" id="boundary" inkscape:connector-curvature="0" />
	<path style="fill:none;stroke:red;stroke-width:1px;stroke-linecap:butt;stroke-linejoin:miter;stroke-opacity:1" d="M 217.961,813.161 217.961,852.063 z" id="boundary" inkscape:connector-curvature="0" />
	<path style="fill:none;stroke:red;stroke-width:1px;stroke-linecap:butt;stroke-linejoin:miter;stroke-opacity:1" d="M 217.961,890.965 217.961,929.867 z" id="boundary" inkscape:connector-curvature="0" />
	<path style="fill:none;stroke:red;stroke-width:1px;stroke-linecap:butt;stroke-linejoin:miter;stroke-opacity:1" d="M 241.302,960.988 217.961,929.867 z" id="boundary" inkscape:connector-curvature="0" />
	<path style="fill:none;stroke:red;stroke-width:1px;stroke-linecap:butt;stroke-linejoin:miter;stroke-opacity:1" d="M 217.961,890.965 217.961,852.063 z" id="boundary" inkscape:connector-curvature="0" />
	<circle cx="4" cy="120.706" r="4" fill="#0" id="circle0"/>
	<circle cx="4" cy="159.608" r="4" fill="#0" id="circle1"/>
	<circle cx="4" cy="198.51" r="4" fill="#0" id="circle2"/>
	<circle cx="7.8902" cy="237.412" r="4" fill="#0" id="circle3"/>
	<circle cx="11.7804" cy="74.0235" r="4" fill="#0" id="circle4"/>
	<circle cx="11.7804" cy="276.314" r="4" fill="#0" id="circle5"/>
	<circle cx="19.5608" cy="315.216" r="4" fill="#0" id="circle6"/>
	<circle cx="39.0118" cy="350.227" r="4" fill="#0" id="circle7"/>
	<circle cx="42.902" cy="42.902" r="4" fill="#0" id="circle8"/>
	<circle cx="42.902" cy="960.988" r="4" fill="#0" id="circle9"/>
	<circle cx="50.6824" cy="389.129" r="4" fill="#0" id="circle10"/>
	<circle cx="50.6824" cy="428.031" r="4" fill="#0" id="circle11"/>
	<circle cx="58.4627" cy="466.933" r="4" fill="#0" id="circle12"/>
	<circle cx="58.4627" cy="505.835" r="4" fill="#0" id="circle13"/>
	<circle cx="66.2431" cy="544.737" r="4" fill="#0" id="circle14"/>
	<circle cx="66.2431" cy="583.639" r="4" fill="#0" id="circle15"/>
	<circle cx="66.2431" cy="622.541" r="4" fill="#0" id="circle16"/>
	<circle cx="66.2431" cy="914.306" r="4" fill="#0" id="circle17"/>
	<circle cx="66.2431" cy="992.11" r="4" fill="#0" id="circle18"/>
	<circle cx="74.0235" cy="19.5608" r="4" fill="#0" id="circle19"/>
	<circle cx="74.0235" cy="661.443" r="4" fill="#0" id="circle20"/>
	<circle cx="74.0235" cy="700.345" r="4" fill="#0" id="circle21"/>
	<circle cx="74.0235" cy="739.247" r="4" fill="#0" id="circle22"/>
	<circle cx="74.0235" cy="778.149" r="4" fill="#0" id="circle23"/>
	<circle cx="74.0235" cy="817.051" r="4" fill="#0" id="circle24"/>
	<circle cx="74.0235" cy="855.953" r="4" fill="#0" id="circle25"/>
	<circle cx="105.145" cy="996" r="4" fill="#0" id="circle26"/>
	<circle cx="112.925" cy="11.7804" r="4" fill="#0" id="circle27"/>
	<circle cx="116.816" cy="431.922" r="4" fill="#0" id="circle28"/>
	<circle cx="116.816" cy="470.824" r="4" fill="#0" id="circle29"/>
	<circle cx="116.816" cy="509.725" r="4" fill="#0" id="circle30"/>
	<circle cx="116.816" cy="548.627" r="4" fill="#0" id="circle31"/>
	<circle cx="116.816" cy="587.529" r="4" fill="#0" id="circle32"/>
	<circle cx="116.816" cy="626.431" r="4" fill="#0" id="circle33"/>
	<circle cx="116.816" cy="665.333" r="4" fill="#0" id="circle34"/>
	<circle cx="116.816" cy="704.235" r="4" fill="#0" id="circle35"/>
	<circle cx="116.816" cy="743.137" r="4" fill="#0" id="circle36"/>
	<circle cx="116.816" cy="782.039" r="4" fill="#0" id="circle37"/>
	<circle cx="116.816" cy="820.941" r="4" fill="#0" id="circle38"/>
	<circle cx="116.816" cy="859.843" r="4" fill="#0" id="circle39"/>
	<circle cx="116.816" cy="898.745" r="4" fill="#0" id="circle40"/>
	<circle cx="116.816" cy="937.647" r="4" fill="#0" id="circle41"/>
	<circle cx="151.827" cy="4" r="4" fill="#0" id="circle42"/>
	<circle cx="155.718" cy="431.922" r="4" fill="#0" id="circle43"/>
	<circle cx="167.388" cy="470.824" r="4" fill="#0" id="circle44"/>
	<circle cx="167.388" cy="626.431" r="4" fill="#0" id="circle45"/>
	<circle cx="167.388" cy="665.333" r="4" fill="#0" id="circle46"/>
	<circle cx="167.388" cy="704.235" r="4" fill="#0" id="circle47"/>
	<circle cx="167.388" cy="953.208" r="4" fill="#0" id="circle48"/>
	<circle cx="171.278" cy="509.725" r="4" fill="#0" id="circle49"/>
	<circle cx="175.169" cy="548.627" r="4" fill="#0" id="circle50"/>
	<circle cx="175.169" cy="587.529" r="4" fill="#0" id="circle51"/>
	<circle cx="175.169" cy="743.137" r="4" fill="#0" id="circle52"/>
	<circle cx="175.169" cy="782.039" r="4" fill="#0" id="circle53"/>
	<circle cx="175.169" cy="820.941" r="4" fill="#0" id="circle54"/>
	<circle cx="175.169" cy="859.843" r="4" fill="#0" id="circle55"/>
	<circle cx="175.169" cy="898.745" r="4" fill="#0" id="circle56"/>
	<circle cx="175.169" cy="992.11" r="4" fill="#0" id="circle57"/>
	<circle cx="190.729" cy="11.7804" r="4" fill="#0" id="circle58"/>
	<circle cx="214.071" cy="996" r="4" fill="#0" id="circle59"/>
	<circle cx="217.961" cy="579.749" r="4" fill="#0" id="circle60"/>
	<circle cx="217.961" cy="618.651" r="4" fill="#0" id="circle61"/>
	<circle cx="217.961" cy="657.553" r="4" fill="#0" id="circle62"/>
	<circle cx="217.961" cy="696.455" r="4" fill="#0" id="circle63"/>
	<circle cx="217.961" cy="735.357" r="4" fill="#0" id="circle64"/>
	<circle cx="217.961" cy="774.259" r="4" fill="#0" id="circle65"/>
	<circle cx="217.961" cy="813.161" r="4" fill="#0" id="circle66"/>
	<circle cx="217.961" cy="852.063" r="4" fill="#0" id="circle67"/>
	<circle cx="217.961" cy="890.965" r="4" fill="#0" id="circle68"/>
	<circle cx="217.961" cy="929.867" r="4" fill="#0" id="circle69"/>
	<circle cx="225.741" cy="31.2314" r="4" fill="#0" id="circle70"/>
	<circle cx="225.741" cy="494.165" r="4" fill="#0" id="circle71"/>
	<circle cx="225.741" cy="533.067" r="4" fill="#0" id="circle72"/>
	<circle cx="233.522" cy="400.8" r="4" fill="#0" id="circle73"/>
	<circle cx="233.522" cy="439.702" r="4" fill="#0" id="circle74"/>
	<circle cx="241.302" cy="354.118" r="4" fill="#0" id="circle75"/>
	<circle cx="241.302" cy="960.988" r="4" fill="#0" id="circle76"/>
	<circle cx="256.863" cy="54.5725" r="4" fill="#0" id="circle77"/>
	<circle cx="264.643" cy="307.435" r="4" fill="#0" id="circle78"/>
	<circle cx="272.424" cy="93.4745" r="4" fill="#0" id="circle79"/>
	<circle cx="272.424" cy="268.533" r="4" fill="#0" id="circle80"/>
	<circle cx="280.204" cy="132.376" r="4" fill="#0" id="circle81"/>
	<circle cx="280.204" cy="171.278" r="4" fill="#0" id="circle82"/>
	<circle cx="280.204" cy="210.18" r="4" fill="#0" id="circle83"/>
	</g>
</svg>