<?xml version="1.0" encoding="UTF-8" standalone="no"?>
<!-- Created with CurveBenchmark -->
<svg
	xmlns:dc="http://purl.org/dc/elements/1.1/"
	xmlns:cc="http://creativecommons.org/ns#"
	xmlns:rdf="http://www.w3.org/1999/02/22-rdf-syntax-ns#"
	xmlns:svg="http://www.w3.org/2000/svg"
	xmlns="http://www.w3.org/2000/svg"
	xmlns:sodipodi="http://sodipodi.sourceforge.net/DTD/sodipodi-0.dtd"
	xmlns:inkscape="http://www.inkscape.org/namespaces/inkscape"
	width="1000"
	height="1000"
	id="svg2"
	version="1.1"
	sodipodi:docname="manifold/crust-hammer-2.png.txt">
<defs
	id="defs4" />
<metadata
	id="metadata7">
	<rdf:RDF>
		<cc:Work
			rdf:about="">
			<dc:format>image/svg+xml</dc:format>
			<dc:type
				rdf:resource="http://purl.org/dc/dcmitype/StillImage" />
			<dc:title></dc:title>
		</cc:Work>
	</rdf:RDF>
</metadata>
<g
	inkscape:label="Layer 1"
	inkscape:groupmode="layer"
	id="layer1">
	<path style="fill:none;stroke:red;stroke-width:1px;stroke-linecap:butt;stroke-linejoin:miter;stroke-opacity:1" d="M 26.6047,134.412 35.2989,134.412 z" id="boundary" inkscape:connector-curvature="0" />
	<path style="fill:none;stroke:red;stroke-width:1px;stroke-linecap:butt;stroke-linejoin:miter;stroke-opacity:1" d="M 43.993,134.412 35.2989,134.412 z" id="boundary" inkscape:connector-curvature="0" />
	<path style="fill:none;stroke:red;stroke-width:1px;stroke-linecap:butt;stroke-linejoin:miter;stroke-opacity:1" d="M 52.6871,134.412 61.3812,134.412 z" id="boundary" inkscape:connector-curvature="0" />
	<path style="fill:none;stroke:red;stroke-width:1px;stroke-linecap:butt;stroke-linejoin:miter;stroke-opacity:1" d="M 70.0754,134.412 61.3812,134.412 z" id="boundary" inkscape:connector-curvature="0" />
	<path style="fill:none;stroke:red;stroke-width:1px;stroke-linecap:butt;stroke-linejoin:miter;stroke-opacity:1" d="M 52.6871,134.412 43.993,134.412 z" id="boundary" inkscape:connector-curvature="0" />
	<path style="fill:none;stroke:red;stroke-width:1px;stroke-linecap:butt;stroke-linejoin:miter;stroke-opacity:1" d="M 78.7695,134.412 87.4636,134.412 z" id="boundary" inkscape:connector-curvature="0" />
	<path style="fill:none;stroke:red;stroke-width:1px;stroke-linecap:butt;stroke-linejoin:miter;stroke-opacity:1" d="M 96.1578,134.412 87.4636,134.412 z" id="boundary" inkscape:connector-curvature="0" />
	<path style="fill:none;stroke:red;stroke-width:1px;stroke-linecap:butt;stroke-linejoin:miter;stroke-opacity:1" d="M 104.852,134.412 113.546,134.412 z" id="boundary" inkscape:connector-curvature="0" />
	<path style="fill:none;stroke:red;stroke-width:1px;stroke-linecap:butt;stroke-linejoin:miter;stroke-opacity:1" d="M 122.24,134.412 113.546,134.412 z" id="boundary" inkscape:connector-curvature="0" />
	<path style="fill:none;stroke:red;stroke-width:1px;stroke-linecap:butt;stroke-linejoin:miter;stroke-opacity:1" d="M 104.852,134.412 96.1578,134.412 z" id="boundary" inkscape:connector-curvature="0" />
	<path style="fill:none;stroke:red;stroke-width:1px;stroke-linecap:butt;stroke-linejoin:miter;stroke-opacity:1" d="M 78.7695,134.412 70.0754,134.412 z" id="boundary" inkscape:connector-curvature="0" />
	<path style="fill:none;stroke:red;stroke-width:1px;stroke-linecap:butt;stroke-linejoin:miter;stroke-opacity:1" d="M 26.6047,134.412 17.9106,136.151 z" id="boundary" inkscape:connector-curvature="0" />
	<path style="fill:none;stroke:red;stroke-width:1px;stroke-linecap:butt;stroke-linejoin:miter;stroke-opacity:1" d="M 130.934,134.412 139.628,134.412 z" id="boundary" inkscape:connector-curvature="0" />
	<path style="fill:none;stroke:red;stroke-width:1px;stroke-linecap:butt;stroke-linejoin:miter;stroke-opacity:1" d="M 148.323,134.412 139.628,134.412 z" id="boundary" inkscape:connector-curvature="0" />
	<path style="fill:none;stroke:red;stroke-width:1px;stroke-linecap:butt;stroke-linejoin:miter;stroke-opacity:1" d="M 157.017,134.412 165.711,134.412 z" id="boundary" inkscape:connector-curvature="0" />
	<path style="fill:none;stroke:red;stroke-width:1px;stroke-linecap:butt;stroke-linejoin:miter;stroke-opacity:1" d="M 174.405,134.412 165.711,134.412 z" id="boundary" inkscape:connector-curvature="0" />
	<path style="fill:none;stroke:red;stroke-width:1px;stroke-linecap:butt;stroke-linejoin:miter;stroke-opacity:1" d="M 157.017,134.412 148.323,134.412 z" id="boundary" inkscape:connector-curvature="0" />
	<path style="fill:none;stroke:red;stroke-width:1px;stroke-linecap:butt;stroke-linejoin:miter;stroke-opacity:1" d="M 130.934,134.412 122.24,134.412 z" id="boundary" inkscape:connector-curvature="0" />
	<path style="fill:none;stroke:red;stroke-width:1px;stroke-linecap:butt;stroke-linejoin:miter;stroke-opacity:1" d="M 183.099,134.412 174.405,134.412 z" id="boundary" inkscape:connector-curvature="0" />
	<path style="fill:none;stroke:red;stroke-width:1px;stroke-linecap:butt;stroke-linejoin:miter;stroke-opacity:1" d="M 4,150.061 10.9553,143.106 z" id="boundary" inkscape:connector-curvature="0" />
	<path style="fill:none;stroke:red;stroke-width:1px;stroke-linecap:butt;stroke-linejoin:miter;stroke-opacity:1" d="M 4,167.45 4,158.755 z" id="boundary" inkscape:connector-curvature="0" />
	<path style="fill:none;stroke:red;stroke-width:1px;stroke-linecap:butt;stroke-linejoin:miter;stroke-opacity:1" d="M 4,158.755 4,150.061 z" id="boundary" inkscape:connector-curvature="0" />
	<path style="fill:none;stroke:red;stroke-width:1px;stroke-linecap:butt;stroke-linejoin:miter;stroke-opacity:1" d="M 10.9553,143.106 17.9106,136.151 z" id="boundary" inkscape:connector-curvature="0" />
	<path style="fill:none;stroke:red;stroke-width:1px;stroke-linecap:butt;stroke-linejoin:miter;stroke-opacity:1" d="M 191.793,134.412 183.099,134.412 z" id="boundary" inkscape:connector-curvature="0" />
	<path style="fill:none;stroke:red;stroke-width:1px;stroke-linecap:butt;stroke-linejoin:miter;stroke-opacity:1" d="M 200.487,134.412 191.793,134.412 z" id="boundary" inkscape:connector-curvature="0" />
	<path style="fill:none;stroke:red;stroke-width:1px;stroke-linecap:butt;stroke-linejoin:miter;stroke-opacity:1" d="M 200.487,134.412 209.181,134.412 z" id="boundary" inkscape:connector-curvature="0" />
	<path style="fill:none;stroke:red;stroke-width:1px;stroke-linecap:butt;stroke-linejoin:miter;stroke-opacity:1" d="M 209.181,134.412 217.876,134.412 z" id="boundary" inkscape:connector-curvature="0" />
	<path style="fill:none;stroke:red;stroke-width:1px;stroke-linecap:butt;stroke-linejoin:miter;stroke-opacity:1" d="M 226.57,134.412 217.876,134.412 z" id="boundary" inkscape:connector-curvature="0" />
	<path style="fill:none;stroke:red;stroke-width:1px;stroke-linecap:butt;stroke-linejoin:miter;stroke-opacity:1" d="M 235.264,134.412 226.57,134.412 z" id="boundary" inkscape:connector-curvature="0" />
	<path style="fill:none;stroke:red;stroke-width:1px;stroke-linecap:butt;stroke-linejoin:miter;stroke-opacity:1" d="M 235.264,134.412 243.958,134.412 z" id="boundary" inkscape:connector-curvature="0" />
	<path style="fill:none;stroke:red;stroke-width:1px;stroke-linecap:butt;stroke-linejoin:miter;stroke-opacity:1" d="M 252.652,134.412 243.958,134.412 z" id="boundary" inkscape:connector-curvature="0" />
	<path style="fill:none;stroke:red;stroke-width:1px;stroke-linecap:butt;stroke-linejoin:miter;stroke-opacity:1" d="M 261.346,134.412 252.652,134.412 z" id="boundary" inkscape:connector-curvature="0" />
	<path style="fill:none;stroke:red;stroke-width:1px;stroke-linecap:butt;stroke-linejoin:miter;stroke-opacity:1" d="M 278.734,134.412 270.04,134.412 z" id="boundary" inkscape:connector-curvature="0" />
	<path style="fill:none;stroke:red;stroke-width:1px;stroke-linecap:butt;stroke-linejoin:miter;stroke-opacity:1" d="M 278.734,134.412 287.429,134.412 z" id="boundary" inkscape:connector-curvature="0" />
	<path style="fill:none;stroke:red;stroke-width:1px;stroke-linecap:butt;stroke-linejoin:miter;stroke-opacity:1" d="M 296.123,134.412 287.429,134.412 z" id="boundary" inkscape:connector-curvature="0" />
	<path style="fill:none;stroke:red;stroke-width:1px;stroke-linecap:butt;stroke-linejoin:miter;stroke-opacity:1" d="M 261.346,134.412 270.04,134.412 z" id="boundary" inkscape:connector-curvature="0" />
	<path style="fill:none;stroke:red;stroke-width:1px;stroke-linecap:butt;stroke-linejoin:miter;stroke-opacity:1" d="M 304.817,134.412 296.123,134.412 z" id="boundary" inkscape:connector-curvature="0" />
	<path style="fill:none;stroke:red;stroke-width:1px;stroke-linecap:butt;stroke-linejoin:miter;stroke-opacity:1" d="M 304.817,134.412 313.511,134.412 z" id="boundary" inkscape:connector-curvature="0" />
	<path style="fill:none;stroke:red;stroke-width:1px;stroke-linecap:butt;stroke-linejoin:miter;stroke-opacity:1" d="M 322.205,134.412 330.899,134.412 z" id="boundary" inkscape:connector-curvature="0" />
	<path style="fill:none;stroke:red;stroke-width:1px;stroke-linecap:butt;stroke-linejoin:miter;stroke-opacity:1" d="M 339.593,134.412 330.899,134.412 z" id="boundary" inkscape:connector-curvature="0" />
	<path style="fill:none;stroke:red;stroke-width:1px;stroke-linecap:butt;stroke-linejoin:miter;stroke-opacity:1" d="M 322.205,134.412 313.511,134.412 z" id="boundary" inkscape:connector-curvature="0" />
	<path style="fill:none;stroke:red;stroke-width:1px;stroke-linecap:butt;stroke-linejoin:miter;stroke-opacity:1" d="M 339.593,134.412 348.287,134.412 z" id="boundary" inkscape:connector-curvature="0" />
	<path style="fill:none;stroke:red;stroke-width:1px;stroke-linecap:butt;stroke-linejoin:miter;stroke-opacity:1" d="M 356.982,134.412 348.287,134.412 z" id="boundary" inkscape:connector-curvature="0" />
	<path style="fill:none;stroke:red;stroke-width:1px;stroke-linecap:butt;stroke-linejoin:miter;stroke-opacity:1" d="M 365.676,134.412 356.982,134.412 z" id="boundary" inkscape:connector-curvature="0" />
	<path style="fill:none;stroke:red;stroke-width:1px;stroke-linecap:butt;stroke-linejoin:miter;stroke-opacity:1" d="M 365.676,134.412 374.37,134.412 z" id="boundary" inkscape:connector-curvature="0" />
	<path style="fill:none;stroke:red;stroke-width:1px;stroke-linecap:butt;stroke-linejoin:miter;stroke-opacity:1" d="M 383.064,134.412 374.37,134.412 z" id="boundary" inkscape:connector-curvature="0" />
	<path style="fill:none;stroke:red;stroke-width:1px;stroke-linecap:butt;stroke-linejoin:miter;stroke-opacity:1" d="M 391.758,134.412 383.064,134.412 z" id="boundary" inkscape:connector-curvature="0" />
	<path style="fill:none;stroke:red;stroke-width:1px;stroke-linecap:butt;stroke-linejoin:miter;stroke-opacity:1" d="M 391.758,134.412 400.452,134.412 z" id="boundary" inkscape:connector-curvature="0" />
	<path style="fill:none;stroke:red;stroke-width:1px;stroke-linecap:butt;stroke-linejoin:miter;stroke-opacity:1" d="M 409.146,134.412 400.452,134.412 z" id="boundary" inkscape:connector-curvature="0" />
	<path style="fill:none;stroke:red;stroke-width:1px;stroke-linecap:butt;stroke-linejoin:miter;stroke-opacity:1" d="M 417.84,134.412 409.146,134.412 z" id="boundary" inkscape:connector-curvature="0" />
	<path style="fill:none;stroke:red;stroke-width:1px;stroke-linecap:butt;stroke-linejoin:miter;stroke-opacity:1" d="M 417.84,134.412 426.535,134.412 z" id="boundary" inkscape:connector-curvature="0" />
	<path style="fill:none;stroke:red;stroke-width:1px;stroke-linecap:butt;stroke-linejoin:miter;stroke-opacity:1" d="M 435.229,134.412 426.535,134.412 z" id="boundary" inkscape:connector-curvature="0" />
	<path style="fill:none;stroke:red;stroke-width:1px;stroke-linecap:butt;stroke-linejoin:miter;stroke-opacity:1" d="M 443.923,134.412 435.229,134.412 z" id="boundary" inkscape:connector-curvature="0" />
	<path style="fill:none;stroke:red;stroke-width:1px;stroke-linecap:butt;stroke-linejoin:miter;stroke-opacity:1" d="M 443.923,134.412 452.617,134.412 z" id="boundary" inkscape:connector-curvature="0" />
	<path style="fill:none;stroke:red;stroke-width:1px;stroke-linecap:butt;stroke-linejoin:miter;stroke-opacity:1" d="M 461.311,134.412 452.617,134.412 z" id="boundary" inkscape:connector-curvature="0" />
	<path style="fill:none;stroke:red;stroke-width:1px;stroke-linecap:butt;stroke-linejoin:miter;stroke-opacity:1" d="M 470.005,134.412 461.311,134.412 z" id="boundary" inkscape:connector-curvature="0" />
	<path style="fill:none;stroke:red;stroke-width:1px;stroke-linecap:butt;stroke-linejoin:miter;stroke-opacity:1" d="M 470.005,134.412 478.699,134.412 z" id="boundary" inkscape:connector-curvature="0" />
	<path style="fill:none;stroke:red;stroke-width:1px;stroke-linecap:butt;stroke-linejoin:miter;stroke-opacity:1" d="M 487.394,134.412 478.699,134.412 z" id="boundary" inkscape:connector-curvature="0" />
	<path style="fill:none;stroke:red;stroke-width:1px;stroke-linecap:butt;stroke-linejoin:miter;stroke-opacity:1" d="M 496.088,134.412 487.394,134.412 z" id="boundary" inkscape:connector-curvature="0" />
	<path style="fill:none;stroke:red;stroke-width:1px;stroke-linecap:butt;stroke-linejoin:miter;stroke-opacity:1" d="M 496.088,134.412 504.782,134.412 z" id="boundary" inkscape:connector-curvature="0" />
	<path style="fill:none;stroke:red;stroke-width:1px;stroke-linecap:butt;stroke-linejoin:miter;stroke-opacity:1" d="M 513.476,134.412 504.782,134.412 z" id="boundary" inkscape:connector-curvature="0" />
	<path style="fill:none;stroke:red;stroke-width:1px;stroke-linecap:butt;stroke-linejoin:miter;stroke-opacity:1" d="M 522.17,134.412 513.476,134.412 z" id="boundary" inkscape:connector-curvature="0" />
	<path style="fill:none;stroke:red;stroke-width:1px;stroke-linecap:butt;stroke-linejoin:miter;stroke-opacity:1" d="M 522.17,134.412 530.864,134.412 z" id="boundary" inkscape:connector-curvature="0" />
	<path style="fill:none;stroke:red;stroke-width:1px;stroke-linecap:butt;stroke-linejoin:miter;stroke-opacity:1" d="M 539.558,134.412 530.864,134.412 z" id="boundary" inkscape:connector-curvature="0" />
	<path style="fill:none;stroke:red;stroke-width:1px;stroke-linecap:butt;stroke-linejoin:miter;stroke-opacity:1" d="M 548.252,134.412 539.558,134.412 z" id="boundary" inkscape:connector-curvature="0" />
	<path style="fill:none;stroke:red;stroke-width:1px;stroke-linecap:butt;stroke-linejoin:miter;stroke-opacity:1" d="M 548.252,134.412 556.947,134.412 z" id="boundary" inkscape:connector-curvature="0" />
	<path style="fill:none;stroke:red;stroke-width:1px;stroke-linecap:butt;stroke-linejoin:miter;stroke-opacity:1" d="M 565.641,134.412 556.947,134.412 z" id="boundary" inkscape:connector-curvature="0" />
	<path style="fill:none;stroke:red;stroke-width:1px;stroke-linecap:butt;stroke-linejoin:miter;stroke-opacity:1" d="M 574.335,134.412 565.641,134.412 z" id="boundary" inkscape:connector-curvature="0" />
	<path style="fill:none;stroke:red;stroke-width:1px;stroke-linecap:butt;stroke-linejoin:miter;stroke-opacity:1" d="M 574.335,134.412 583.029,134.412 z" id="boundary" inkscape:connector-curvature="0" />
	<path style="fill:none;stroke:red;stroke-width:1px;stroke-linecap:butt;stroke-linejoin:miter;stroke-opacity:1" d="M 591.723,134.412 583.029,134.412 z" id="boundary" inkscape:connector-curvature="0" />
	<path style="fill:none;stroke:red;stroke-width:1px;stroke-linecap:butt;stroke-linejoin:miter;stroke-opacity:1" d="M 600.417,134.412 591.723,134.412 z" id="boundary" inkscape:connector-curvature="0" />
	<path style="fill:none;stroke:red;stroke-width:1px;stroke-linecap:butt;stroke-linejoin:miter;stroke-opacity:1" d="M 600.417,134.412 609.111,134.412 z" id="boundary" inkscape:connector-curvature="0" />
	<path style="fill:none;stroke:red;stroke-width:1px;stroke-linecap:butt;stroke-linejoin:miter;stroke-opacity:1" d="M 617.805,134.412 609.111,134.412 z" id="boundary" inkscape:connector-curvature="0" />
	<path style="fill:none;stroke:red;stroke-width:1px;stroke-linecap:butt;stroke-linejoin:miter;stroke-opacity:1" d="M 626.5,134.412 617.805,134.412 z" id="boundary" inkscape:connector-curvature="0" />
	<path style="fill:none;stroke:red;stroke-width:1px;stroke-linecap:butt;stroke-linejoin:miter;stroke-opacity:1" d="M 4,184.838 4,176.144 z" id="boundary" inkscape:connector-curvature="0" />
	<path style="fill:none;stroke:red;stroke-width:1px;stroke-linecap:butt;stroke-linejoin:miter;stroke-opacity:1" d="M 10.9553,199.618 4,193.532 z" id="boundary" inkscape:connector-curvature="0" />
	<path style="fill:none;stroke:red;stroke-width:1px;stroke-linecap:butt;stroke-linejoin:miter;stroke-opacity:1" d="M 4,193.532 4,184.838 z" id="boundary" inkscape:connector-curvature="0" />
	<path style="fill:none;stroke:red;stroke-width:1px;stroke-linecap:butt;stroke-linejoin:miter;stroke-opacity:1" d="M 4,176.144 4,167.45 z" id="boundary" inkscape:connector-curvature="0" />
	<path style="fill:none;stroke:red;stroke-width:1px;stroke-linecap:butt;stroke-linejoin:miter;stroke-opacity:1" d="M 17.9106,204.834 10.9553,199.618 z" id="boundary" inkscape:connector-curvature="0" />
	<path style="fill:none;stroke:red;stroke-width:1px;stroke-linecap:butt;stroke-linejoin:miter;stroke-opacity:1" d="M 26.6047,204.834 17.9106,204.834 z" id="boundary" inkscape:connector-curvature="0" />
	<path style="fill:none;stroke:red;stroke-width:1px;stroke-linecap:butt;stroke-linejoin:miter;stroke-opacity:1" d="M 35.2989,204.834 26.6047,204.834 z" id="boundary" inkscape:connector-curvature="0" />
	<path style="fill:none;stroke:red;stroke-width:1px;stroke-linecap:butt;stroke-linejoin:miter;stroke-opacity:1" d="M 43.993,204.834 35.2989,204.834 z" id="boundary" inkscape:connector-curvature="0" />
	<path style="fill:none;stroke:red;stroke-width:1px;stroke-linecap:butt;stroke-linejoin:miter;stroke-opacity:1" d="M 43.993,204.834 52.6871,204.834 z" id="boundary" inkscape:connector-curvature="0" />
	<path style="fill:none;stroke:red;stroke-width:1px;stroke-linecap:butt;stroke-linejoin:miter;stroke-opacity:1" d="M 61.3812,204.834 52.6871,204.834 z" id="boundary" inkscape:connector-curvature="0" />
	<path style="fill:none;stroke:red;stroke-width:1px;stroke-linecap:butt;stroke-linejoin:miter;stroke-opacity:1" d="M 70.0754,204.834 78.7695,204.834 z" id="boundary" inkscape:connector-curvature="0" />
	<path style="fill:none;stroke:red;stroke-width:1px;stroke-linecap:butt;stroke-linejoin:miter;stroke-opacity:1" d="M 87.4636,204.834 78.7695,204.834 z" id="boundary" inkscape:connector-curvature="0" />
	<path style="fill:none;stroke:red;stroke-width:1px;stroke-linecap:butt;stroke-linejoin:miter;stroke-opacity:1" d="M 96.1578,204.834 104.852,204.834 z" id="boundary" inkscape:connector-curvature="0" />
	<path style="fill:none;stroke:red;stroke-width:1px;stroke-linecap:butt;stroke-linejoin:miter;stroke-opacity:1" d="M 113.546,204.834 104.852,204.834 z" id="boundary" inkscape:connector-curvature="0" />
	<path style="fill:none;stroke:red;stroke-width:1px;stroke-linecap:butt;stroke-linejoin:miter;stroke-opacity:1" d="M 96.1578,204.834 87.4636,204.834 z" id="boundary" inkscape:connector-curvature="0" />
	<path style="fill:none;stroke:red;stroke-width:1px;stroke-linecap:butt;stroke-linejoin:miter;stroke-opacity:1" d="M 70.0754,204.834 61.3812,204.834 z" id="boundary" inkscape:connector-curvature="0" />
	<path style="fill:none;stroke:red;stroke-width:1px;stroke-linecap:butt;stroke-linejoin:miter;stroke-opacity:1" d="M 122.24,204.834 113.546,204.834 z" id="boundary" inkscape:connector-curvature="0" />
	<path style="fill:none;stroke:red;stroke-width:1px;stroke-linecap:butt;stroke-linejoin:miter;stroke-opacity:1" d="M 122.24,204.834 130.934,204.834 z" id="boundary" inkscape:connector-curvature="0" />
	<path style="fill:none;stroke:red;stroke-width:1px;stroke-linecap:butt;stroke-linejoin:miter;stroke-opacity:1" d="M 139.628,204.834 148.323,204.834 z" id="boundary" inkscape:connector-curvature="0" />
	<path style="fill:none;stroke:red;stroke-width:1px;stroke-linecap:butt;stroke-linejoin:miter;stroke-opacity:1" d="M 157.017,204.834 148.323,204.834 z" id="boundary" inkscape:connector-curvature="0" />
	<path style="fill:none;stroke:red;stroke-width:1px;stroke-linecap:butt;stroke-linejoin:miter;stroke-opacity:1" d="M 139.628,204.834 130.934,204.834 z" id="boundary" inkscape:connector-curvature="0" />
	<path style="fill:none;stroke:red;stroke-width:1px;stroke-linecap:butt;stroke-linejoin:miter;stroke-opacity:1" d="M 200.487,204.834 191.793,204.834 z" id="boundary" inkscape:connector-curvature="0" />
	<path style="fill:none;stroke:red;stroke-width:1px;stroke-linecap:butt;stroke-linejoin:miter;stroke-opacity:1" d="M 304.817,204.834 296.123,204.834 z" id="boundary" inkscape:connector-curvature="0" />
	<path style="fill:none;stroke:red;stroke-width:1px;stroke-linecap:butt;stroke-linejoin:miter;stroke-opacity:1" d="M 165.711,204.834 174.405,204.834 z" id="boundary" inkscape:connector-curvature="0" />
	<path style="fill:none;stroke:red;stroke-width:1px;stroke-linecap:butt;stroke-linejoin:miter;stroke-opacity:1" d="M 183.099,204.834 174.405,204.834 z" id="boundary" inkscape:connector-curvature="0" />
	<path style="fill:none;stroke:red;stroke-width:1px;stroke-linecap:butt;stroke-linejoin:miter;stroke-opacity:1" d="M 165.711,204.834 157.017,204.834 z" id="boundary" inkscape:connector-curvature="0" />
	<path style="fill:none;stroke:red;stroke-width:1px;stroke-linecap:butt;stroke-linejoin:miter;stroke-opacity:1" d="M 191.793,204.834 183.099,204.834 z" id="boundary" inkscape:connector-curvature="0" />
	<path style="fill:none;stroke:red;stroke-width:1px;stroke-linecap:butt;stroke-linejoin:miter;stroke-opacity:1" d="M 209.181,204.834 200.487,204.834 z" id="boundary" inkscape:connector-curvature="0" />
	<path style="fill:none;stroke:red;stroke-width:1px;stroke-linecap:butt;stroke-linejoin:miter;stroke-opacity:1" d="M 217.876,204.834 209.181,204.834 z" id="boundary" inkscape:connector-curvature="0" />
	<path style="fill:none;stroke:red;stroke-width:1px;stroke-linecap:butt;stroke-linejoin:miter;stroke-opacity:1" d="M 217.876,204.834 226.57,204.834 z" id="boundary" inkscape:connector-curvature="0" />
	<path style="fill:none;stroke:red;stroke-width:1px;stroke-linecap:butt;stroke-linejoin:miter;stroke-opacity:1" d="M 235.264,204.834 226.57,204.834 z" id="boundary" inkscape:connector-curvature="0" />
	<path style="fill:none;stroke:red;stroke-width:1px;stroke-linecap:butt;stroke-linejoin:miter;stroke-opacity:1" d="M 243.958,204.834 235.264,204.834 z" id="boundary" inkscape:connector-curvature="0" />
	<path style="fill:none;stroke:red;stroke-width:1px;stroke-linecap:butt;stroke-linejoin:miter;stroke-opacity:1" d="M 243.958,204.834 252.652,204.834 z" id="boundary" inkscape:connector-curvature="0" />
	<path style="fill:none;stroke:red;stroke-width:1px;stroke-linecap:butt;stroke-linejoin:miter;stroke-opacity:1" d="M 261.346,204.834 252.652,204.834 z" id="boundary" inkscape:connector-curvature="0" />
	<path style="fill:none;stroke:red;stroke-width:1px;stroke-linecap:butt;stroke-linejoin:miter;stroke-opacity:1" d="M 270.04,204.834 261.346,204.834 z" id="boundary" inkscape:connector-curvature="0" />
	<path style="fill:none;stroke:red;stroke-width:1px;stroke-linecap:butt;stroke-linejoin:miter;stroke-opacity:1" d="M 270.04,204.834 278.734,204.834 z" id="boundary" inkscape:connector-curvature="0" />
	<path style="fill:none;stroke:red;stroke-width:1px;stroke-linecap:butt;stroke-linejoin:miter;stroke-opacity:1" d="M 287.429,204.834 278.734,204.834 z" id="boundary" inkscape:connector-curvature="0" />
	<path style="fill:none;stroke:red;stroke-width:1px;stroke-linecap:butt;stroke-linejoin:miter;stroke-opacity:1" d="M 296.123,204.834 287.429,204.834 z" id="boundary" inkscape:connector-curvature="0" />
	<path style="fill:none;stroke:red;stroke-width:1px;stroke-linecap:butt;stroke-linejoin:miter;stroke-opacity:1" d="M 313.511,204.834 304.817,204.834 z" id="boundary" inkscape:connector-curvature="0" />
	<path style="fill:none;stroke:red;stroke-width:1px;stroke-linecap:butt;stroke-linejoin:miter;stroke-opacity:1" d="M 322.205,204.834 313.511,204.834 z" id="boundary" inkscape:connector-curvature="0" />
	<path style="fill:none;stroke:red;stroke-width:1px;stroke-linecap:butt;stroke-linejoin:miter;stroke-opacity:1" d="M 330.899,204.834 322.205,204.834 z" id="boundary" inkscape:connector-curvature="0" />
	<path style="fill:none;stroke:red;stroke-width:1px;stroke-linecap:butt;stroke-linejoin:miter;stroke-opacity:1" d="M 330.899,204.834 339.593,204.834 z" id="boundary" inkscape:connector-curvature="0" />
	<path style="fill:none;stroke:red;stroke-width:1px;stroke-linecap:butt;stroke-linejoin:miter;stroke-opacity:1" d="M 348.287,204.834 339.593,204.834 z" id="boundary" inkscape:connector-curvature="0" />
	<path style="fill:none;stroke:red;stroke-width:1px;stroke-linecap:butt;stroke-linejoin:miter;stroke-opacity:1" d="M 356.982,204.834 348.287,204.834 z" id="boundary" inkscape:connector-curvature="0" />
	<path style="fill:none;stroke:red;stroke-width:1px;stroke-linecap:butt;stroke-linejoin:miter;stroke-opacity:1" d="M 365.676,204.834 356.982,204.834 z" id="boundary" inkscape:connector-curvature="0" />
	<path style="fill:none;stroke:red;stroke-width:1px;stroke-linecap:butt;stroke-linejoin:miter;stroke-opacity:1" d="M 365.676,204.834 374.37,204.834 z" id="boundary" inkscape:connector-curvature="0" />
	<path style="fill:none;stroke:red;stroke-width:1px;stroke-linecap:butt;stroke-linejoin:miter;stroke-opacity:1" d="M 383.064,204.834 374.37,204.834 z" id="boundary" inkscape:connector-curvature="0" />
	<path style="fill:none;stroke:red;stroke-width:1px;stroke-linecap:butt;stroke-linejoin:miter;stroke-opacity:1" d="M 391.758,204.834 400.452,204.834 z" id="boundary" inkscape:connector-curvature="0" />
	<path style="fill:none;stroke:red;stroke-width:1px;stroke-linecap:butt;stroke-linejoin:miter;stroke-opacity:1" d="M 409.146,204.834 400.452,204.834 z" id="boundary" inkscape:connector-curvature="0" />
	<path style="fill:none;stroke:red;stroke-width:1px;stroke-linecap:butt;stroke-linejoin:miter;stroke-opacity:1" d="M 391.758,204.834 383.064,204.834 z" id="boundary" inkscape:connector-curvature="0" />
	<path style="fill:none;stroke:red;stroke-width:1px;stroke-linecap:butt;stroke-linejoin:miter;stroke-opacity:1" d="M 417.84,204.834 426.535,204.834 z" id="boundary" inkscape:connector-curvature="0" />
	<path style="fill:none;stroke:red;stroke-width:1px;stroke-linecap:butt;stroke-linejoin:miter;stroke-opacity:1" d="M 435.229,204.834 426.535,204.834 z" id="boundary" inkscape:connector-curvature="0" />
	<path style="fill:none;stroke:red;stroke-width:1px;stroke-linecap:butt;stroke-linejoin:miter;stroke-opacity:1" d="M 443.923,204.834 452.617,204.834 z" id="boundary" inkscape:connector-curvature="0" />
	<path style="fill:none;stroke:red;stroke-width:1px;stroke-linecap:butt;stroke-linejoin:miter;stroke-opacity:1" d="M 461.311,204.834 452.617,204.834 z" id="boundary" inkscape:connector-curvature="0" />
	<path style="fill:none;stroke:red;stroke-width:1px;stroke-linecap:butt;stroke-linejoin:miter;stroke-opacity:1" d="M 443.923,204.834 435.229,204.834 z" id="boundary" inkscape:connector-curvature="0" />
	<path style="fill:none;stroke:red;stroke-width:1px;stroke-linecap:butt;stroke-linejoin:miter;stroke-opacity:1" d="M 417.84,204.834 409.146,204.834 z" id="boundary" inkscape:connector-curvature="0" />
	<path style="fill:none;stroke:red;stroke-width:1px;stroke-linecap:butt;stroke-linejoin:miter;stroke-opacity:1" d="M 504.782,204.834 496.088,204.834 z" id="boundary" inkscape:connector-curvature="0" />
	<path style="fill:none;stroke:red;stroke-width:1px;stroke-linecap:butt;stroke-linejoin:miter;stroke-opacity:1" d="M 478.699,204.834 470.005,204.834 z" id="boundary" inkscape:connector-curvature="0" />
	<path style="fill:none;stroke:red;stroke-width:1px;stroke-linecap:butt;stroke-linejoin:miter;stroke-opacity:1" d="M 487.394,204.834 478.699,204.834 z" id="boundary" inkscape:connector-curvature="0" />
	<path style="fill:none;stroke:red;stroke-width:1px;stroke-linecap:butt;stroke-linejoin:miter;stroke-opacity:1" d="M 496.088,204.834 487.394,204.834 z" id="boundary" inkscape:connector-curvature="0" />
	<path style="fill:none;stroke:red;stroke-width:1px;stroke-linecap:butt;stroke-linejoin:miter;stroke-opacity:1" d="M 470.005,204.834 461.311,204.834 z" id="boundary" inkscape:connector-curvature="0" />
	<path style="fill:none;stroke:red;stroke-width:1px;stroke-linecap:butt;stroke-linejoin:miter;stroke-opacity:1" d="M 513.476,204.834 504.782,204.834 z" id="boundary" inkscape:connector-curvature="0" />
	<path style="fill:none;stroke:red;stroke-width:1px;stroke-linecap:butt;stroke-linejoin:miter;stroke-opacity:1" d="M 522.17,204.834 513.476,204.834 z" id="boundary" inkscape:connector-curvature="0" />
	<path style="fill:none;stroke:red;stroke-width:1px;stroke-linecap:butt;stroke-linejoin:miter;stroke-opacity:1" d="M 522.17,204.834 530.864,204.834 z" id="boundary" inkscape:connector-curvature="0" />
	<path style="fill:none;stroke:red;stroke-width:1px;stroke-linecap:butt;stroke-linejoin:miter;stroke-opacity:1" d="M 539.558,204.834 530.864,204.834 z" id="boundary" inkscape:connector-curvature="0" />
	<path style="fill:none;stroke:red;stroke-width:1px;stroke-linecap:butt;stroke-linejoin:miter;stroke-opacity:1" d="M 548.252,204.834 539.558,204.834 z" id="boundary" inkscape:connector-curvature="0" />
	<path style="fill:none;stroke:red;stroke-width:1px;stroke-linecap:butt;stroke-linejoin:miter;stroke-opacity:1" d="M 548.252,204.834 556.947,204.834 z" id="boundary" inkscape:connector-curvature="0" />
	<path style="fill:none;stroke:red;stroke-width:1px;stroke-linecap:butt;stroke-linejoin:miter;stroke-opacity:1" d="M 565.641,204.834 556.947,204.834 z" id="boundary" inkscape:connector-curvature="0" />
	<path style="fill:none;stroke:red;stroke-width:1px;stroke-linecap:butt;stroke-linejoin:miter;stroke-opacity:1" d="M 574.335,204.834 565.641,204.834 z" id="boundary" inkscape:connector-curvature="0" />
	<path style="fill:none;stroke:red;stroke-width:1px;stroke-linecap:butt;stroke-linejoin:miter;stroke-opacity:1" d="M 574.335,204.834 583.029,204.834 z" id="boundary" inkscape:connector-curvature="0" />
	<path style="fill:none;stroke:red;stroke-width:1px;stroke-linecap:butt;stroke-linejoin:miter;stroke-opacity:1" d="M 591.723,204.834 583.029,204.834 z" id="boundary" inkscape:connector-curvature="0" />
	<path style="fill:none;stroke:red;stroke-width:1px;stroke-linecap:butt;stroke-linejoin:miter;stroke-opacity:1" d="M 600.417,204.834 591.723,204.834 z" id="boundary" inkscape:connector-curvature="0" />
	<path style="fill:none;stroke:red;stroke-width:1px;stroke-linecap:butt;stroke-linejoin:miter;stroke-opacity:1" d="M 600.417,204.834 609.111,204.834 z" id="boundary" inkscape:connector-curvature="0" />
	<path style="fill:none;stroke:red;stroke-width:1px;stroke-linecap:butt;stroke-linejoin:miter;stroke-opacity:1" d="M 617.805,204.834 609.111,204.834 z" id="boundary" inkscape:connector-curvature="0" />
	<path style="fill:none;stroke:red;stroke-width:1px;stroke-linecap:butt;stroke-linejoin:miter;stroke-opacity:1" d="M 626.5,204.834 617.805,204.834 z" id="boundary" inkscape:connector-curvature="0" />
	<path style="fill:none;stroke:red;stroke-width:1px;stroke-linecap:butt;stroke-linejoin:miter;stroke-opacity:1" d="M 635.194,134.412 626.5,134.412 z" id="boundary" inkscape:connector-curvature="0" />
	<path style="fill:none;stroke:red;stroke-width:1px;stroke-linecap:butt;stroke-linejoin:miter;stroke-opacity:1" d="M 808.207,10.9553 815.162,4 z" id="boundary" inkscape:connector-curvature="0" />
	<path style="fill:none;stroke:red;stroke-width:1px;stroke-linecap:butt;stroke-linejoin:miter;stroke-opacity:1" d="M 812.554,27.4741 808.207,19.6494 z" id="boundary" inkscape:connector-curvature="0" />
	<path style="fill:none;stroke:red;stroke-width:1px;stroke-linecap:butt;stroke-linejoin:miter;stroke-opacity:1" d="M 808.207,19.6494 808.207,10.9553 z" id="boundary" inkscape:connector-curvature="0" />
	<path style="fill:none;stroke:red;stroke-width:1px;stroke-linecap:butt;stroke-linejoin:miter;stroke-opacity:1" d="M 815.162,4 823.856,4 z" id="boundary" inkscape:connector-curvature="0" />
	<path style="fill:none;stroke:red;stroke-width:1px;stroke-linecap:butt;stroke-linejoin:miter;stroke-opacity:1" d="M 831.681,8.34706 823.856,4 z" id="boundary" inkscape:connector-curvature="0" />
	<path style="fill:none;stroke:red;stroke-width:1px;stroke-linecap:butt;stroke-linejoin:miter;stroke-opacity:1" d="M 818.64,34.4294 812.554,27.4741 z" id="boundary" inkscape:connector-curvature="0" />
	<path style="fill:none;stroke:red;stroke-width:1px;stroke-linecap:butt;stroke-linejoin:miter;stroke-opacity:1" d="M 831.681,8.34706 840.375,8.34706 z" id="boundary" inkscape:connector-curvature="0" />
	<path style="fill:none;stroke:red;stroke-width:1px;stroke-linecap:butt;stroke-linejoin:miter;stroke-opacity:1" d="M 818.64,34.4294 822.987,42.2542 z" id="boundary" inkscape:connector-curvature="0" />
	<path style="fill:none;stroke:red;stroke-width:1px;stroke-linecap:butt;stroke-linejoin:miter;stroke-opacity:1" d="M 829.942,48.3401 822.987,42.2542 z" id="boundary" inkscape:connector-curvature="0" />
	<path style="fill:none;stroke:red;stroke-width:1px;stroke-linecap:butt;stroke-linejoin:miter;stroke-opacity:1" d="M 832.55,57.0342 829.942,48.3401 z" id="boundary" inkscape:connector-curvature="0" />
	<path style="fill:none;stroke:red;stroke-width:1px;stroke-linecap:butt;stroke-linejoin:miter;stroke-opacity:1" d="M 832.55,57.0342 838.636,63.9895 z" id="boundary" inkscape:connector-curvature="0" />
	<path style="fill:none;stroke:red;stroke-width:1px;stroke-linecap:butt;stroke-linejoin:miter;stroke-opacity:1" d="M 838.636,63.9895 839.506,72.6836 z" id="boundary" inkscape:connector-curvature="0" />
	<path style="fill:none;stroke:red;stroke-width:1px;stroke-linecap:butt;stroke-linejoin:miter;stroke-opacity:1" d="M 635.194,134.412 643.888,134.412 z" id="boundary" inkscape:connector-curvature="0" />
	<path style="fill:none;stroke:red;stroke-width:1px;stroke-linecap:butt;stroke-linejoin:miter;stroke-opacity:1" d="M 652.582,134.412 661.276,134.412 z" id="boundary" inkscape:connector-curvature="0" />
	<path style="fill:none;stroke:red;stroke-width:1px;stroke-linecap:butt;stroke-linejoin:miter;stroke-opacity:1" d="M 669.97,134.412 661.276,134.412 z" id="boundary" inkscape:connector-curvature="0" />
	<path style="fill:none;stroke:red;stroke-width:1px;stroke-linecap:butt;stroke-linejoin:miter;stroke-opacity:1" d="M 652.582,134.412 643.888,134.412 z" id="boundary" inkscape:connector-curvature="0" />
	<path style="fill:none;stroke:red;stroke-width:1px;stroke-linecap:butt;stroke-linejoin:miter;stroke-opacity:1" d="M 678.664,134.412 687.358,134.412 z" id="boundary" inkscape:connector-curvature="0" />
	<path style="fill:none;stroke:red;stroke-width:1px;stroke-linecap:butt;stroke-linejoin:miter;stroke-opacity:1" d="M 696.053,134.412 687.358,134.412 z" id="boundary" inkscape:connector-curvature="0" />
	<path style="fill:none;stroke:red;stroke-width:1px;stroke-linecap:butt;stroke-linejoin:miter;stroke-opacity:1" d="M 704.747,134.412 713.441,134.412 z" id="boundary" inkscape:connector-curvature="0" />
	<path style="fill:none;stroke:red;stroke-width:1px;stroke-linecap:butt;stroke-linejoin:miter;stroke-opacity:1" d="M 722.135,134.412 713.441,134.412 z" id="boundary" inkscape:connector-curvature="0" />
	<path style="fill:none;stroke:red;stroke-width:1px;stroke-linecap:butt;stroke-linejoin:miter;stroke-opacity:1" d="M 704.747,134.412 696.053,134.412 z" id="boundary" inkscape:connector-curvature="0" />
	<path style="fill:none;stroke:red;stroke-width:1px;stroke-linecap:butt;stroke-linejoin:miter;stroke-opacity:1" d="M 678.664,134.412 669.97,134.412 z" id="boundary" inkscape:connector-curvature="0" />
	<path style="fill:none;stroke:red;stroke-width:1px;stroke-linecap:butt;stroke-linejoin:miter;stroke-opacity:1" d="M 722.135,134.412 730.829,134.412 z" id="boundary" inkscape:connector-curvature="0" />
	<path style="fill:none;stroke:red;stroke-width:1px;stroke-linecap:butt;stroke-linejoin:miter;stroke-opacity:1" d="M 739.523,134.412 730.829,134.412 z" id="boundary" inkscape:connector-curvature="0" />
	<path style="fill:none;stroke:red;stroke-width:1px;stroke-linecap:butt;stroke-linejoin:miter;stroke-opacity:1" d="M 765.606,134.412 756.911,134.412 z" id="boundary" inkscape:connector-curvature="0" />
	<path style="fill:none;stroke:red;stroke-width:1px;stroke-linecap:butt;stroke-linejoin:miter;stroke-opacity:1" d="M 739.523,134.412 748.217,134.412 z" id="boundary" inkscape:connector-curvature="0" />
	<path style="fill:none;stroke:red;stroke-width:1px;stroke-linecap:butt;stroke-linejoin:miter;stroke-opacity:1" d="M 756.911,134.412 748.217,134.412 z" id="boundary" inkscape:connector-curvature="0" />
	<path style="fill:none;stroke:red;stroke-width:1px;stroke-linecap:butt;stroke-linejoin:miter;stroke-opacity:1" d="M 774.3,134.412 765.606,134.412 z" id="boundary" inkscape:connector-curvature="0" />
	<path style="fill:none;stroke:red;stroke-width:1px;stroke-linecap:butt;stroke-linejoin:miter;stroke-opacity:1" d="M 782.994,134.412 774.3,134.412 z" id="boundary" inkscape:connector-curvature="0" />
	<path style="fill:none;stroke:red;stroke-width:1px;stroke-linecap:butt;stroke-linejoin:miter;stroke-opacity:1" d="M 782.994,134.412 791.688,134.412 z" id="boundary" inkscape:connector-curvature="0" />
	<path style="fill:none;stroke:red;stroke-width:1px;stroke-linecap:butt;stroke-linejoin:miter;stroke-opacity:1" d="M 800.382,134.412 791.688,134.412 z" id="boundary" inkscape:connector-curvature="0" />
	<path style="fill:none;stroke:red;stroke-width:1px;stroke-linecap:butt;stroke-linejoin:miter;stroke-opacity:1" d="M 809.076,134.412 800.382,134.412 z" id="boundary" inkscape:connector-curvature="0" />
	<path style="fill:none;stroke:red;stroke-width:1px;stroke-linecap:butt;stroke-linejoin:miter;stroke-opacity:1" d="M 809.076,134.412 817.77,134.412 z" id="boundary" inkscape:connector-curvature="0" />
	<path style="fill:none;stroke:red;stroke-width:1px;stroke-linecap:butt;stroke-linejoin:miter;stroke-opacity:1" d="M 826.465,134.412 817.77,134.412 z" id="boundary" inkscape:connector-curvature="0" />
	<path style="fill:none;stroke:red;stroke-width:1px;stroke-linecap:butt;stroke-linejoin:miter;stroke-opacity:1" d="M 835.159,134.412 826.465,134.412 z" id="boundary" inkscape:connector-curvature="0" />
	<path style="fill:none;stroke:red;stroke-width:1px;stroke-linecap:butt;stroke-linejoin:miter;stroke-opacity:1" d="M 849.069,8.34706 840.375,8.34706 z" id="boundary" inkscape:connector-curvature="0" />
	<path style="fill:none;stroke:red;stroke-width:1px;stroke-linecap:butt;stroke-linejoin:miter;stroke-opacity:1" d="M 857.763,8.34706 849.069,8.34706 z" id="boundary" inkscape:connector-curvature="0" />
	<path style="fill:none;stroke:red;stroke-width:1px;stroke-linecap:butt;stroke-linejoin:miter;stroke-opacity:1" d="M 865.588,12.6941 857.763,8.34706 z" id="boundary" inkscape:connector-curvature="0" />
	<path style="fill:none;stroke:red;stroke-width:1px;stroke-linecap:butt;stroke-linejoin:miter;stroke-opacity:1" d="M 874.282,15.3024 865.588,12.6941 z" id="boundary" inkscape:connector-curvature="0" />
	<path style="fill:none;stroke:red;stroke-width:1px;stroke-linecap:butt;stroke-linejoin:miter;stroke-opacity:1" d="M 842.983,81.3777 839.506,72.6836 z" id="boundary" inkscape:connector-curvature="0" />
	<path style="fill:none;stroke:red;stroke-width:1px;stroke-linecap:butt;stroke-linejoin:miter;stroke-opacity:1" d="M 874.282,15.3024 880.368,22.2577 z" id="boundary" inkscape:connector-curvature="0" />
	<path style="fill:none;stroke:red;stroke-width:1px;stroke-linecap:butt;stroke-linejoin:miter;stroke-opacity:1" d="M 889.062,25.7353 896.887,30.0824 z" id="boundary" inkscape:connector-curvature="0" />
	<path style="fill:none;stroke:red;stroke-width:1px;stroke-linecap:butt;stroke-linejoin:miter;stroke-opacity:1" d="M 889.062,25.7353 880.368,22.2577 z" id="boundary" inkscape:connector-curvature="0" />
	<path style="fill:none;stroke:red;stroke-width:1px;stroke-linecap:butt;stroke-linejoin:miter;stroke-opacity:1" d="M 896.887,30.0824 903.842,36.1683 z" id="boundary" inkscape:connector-curvature="0" />
	<path style="fill:none;stroke:red;stroke-width:1px;stroke-linecap:butt;stroke-linejoin:miter;stroke-opacity:1" d="M 909.059,43.1236 903.842,36.1683 z" id="boundary" inkscape:connector-curvature="0" />
	<path style="fill:none;stroke:red;stroke-width:1px;stroke-linecap:butt;stroke-linejoin:miter;stroke-opacity:1" d="M 909.059,43.1236 916.014,48.3401 z" id="boundary" inkscape:connector-curvature="0" />
	<path style="fill:none;stroke:red;stroke-width:1px;stroke-linecap:butt;stroke-linejoin:miter;stroke-opacity:1" d="M 922.1,55.2954 916.014,48.3401 z" id="boundary" inkscape:connector-curvature="0" />
	<path style="fill:none;stroke:red;stroke-width:1px;stroke-linecap:butt;stroke-linejoin:miter;stroke-opacity:1" d="M 935.141,68.3365 929.055,61.3812 z" id="boundary" inkscape:connector-curvature="0" />
	<path style="fill:none;stroke:red;stroke-width:1px;stroke-linecap:butt;stroke-linejoin:miter;stroke-opacity:1" d="M 948.182,81.3777 942.096,74.4224 z" id="boundary" inkscape:connector-curvature="0" />
	<path style="fill:none;stroke:red;stroke-width:1px;stroke-linecap:butt;stroke-linejoin:miter;stroke-opacity:1" d="M 922.1,55.2954 929.055,61.3812 z" id="boundary" inkscape:connector-curvature="0" />
	<path style="fill:none;stroke:red;stroke-width:1px;stroke-linecap:butt;stroke-linejoin:miter;stroke-opacity:1" d="M 942.096,74.4224 935.141,68.3365 z" id="boundary" inkscape:connector-curvature="0" />
	<path style="fill:none;stroke:red;stroke-width:1px;stroke-linecap:butt;stroke-linejoin:miter;stroke-opacity:1" d="M 847.33,89.2025 851.677,97.0272 z" id="boundary" inkscape:connector-curvature="0" />
	<path style="fill:none;stroke:red;stroke-width:1px;stroke-linecap:butt;stroke-linejoin:miter;stroke-opacity:1" d="M 847.33,89.2025 842.983,81.3777 z" id="boundary" inkscape:connector-curvature="0" />
	<path style="fill:none;stroke:red;stroke-width:1px;stroke-linecap:butt;stroke-linejoin:miter;stroke-opacity:1" d="M 851.677,105.721 851.677,97.0272 z" id="boundary" inkscape:connector-curvature="0" />
	<path style="fill:none;stroke:red;stroke-width:1px;stroke-linecap:butt;stroke-linejoin:miter;stroke-opacity:1" d="M 856.025,113.546 851.677,105.721 z" id="boundary" inkscape:connector-curvature="0" />
	<path style="fill:none;stroke:red;stroke-width:1px;stroke-linecap:butt;stroke-linejoin:miter;stroke-opacity:1" d="M 843.853,134.412 835.159,134.412 z" id="boundary" inkscape:connector-curvature="0" />
	<path style="fill:none;stroke:red;stroke-width:1px;stroke-linecap:butt;stroke-linejoin:miter;stroke-opacity:1" d="M 852.547,134.412 843.853,134.412 z" id="boundary" inkscape:connector-curvature="0" />
	<path style="fill:none;stroke:red;stroke-width:1px;stroke-linecap:butt;stroke-linejoin:miter;stroke-opacity:1" d="M 860.372,130.065 852.547,134.412 z" id="boundary" inkscape:connector-curvature="0" />
	<path style="fill:none;stroke:red;stroke-width:1px;stroke-linecap:butt;stroke-linejoin:miter;stroke-opacity:1" d="M 856.025,113.546 856.025,122.24 z" id="boundary" inkscape:connector-curvature="0" />
	<path style="fill:none;stroke:red;stroke-width:1px;stroke-linecap:butt;stroke-linejoin:miter;stroke-opacity:1" d="M 860.372,130.065 856.025,122.24 z" id="boundary" inkscape:connector-curvature="0" />
	<path style="fill:none;stroke:red;stroke-width:1px;stroke-linecap:butt;stroke-linejoin:miter;stroke-opacity:1" d="M 948.182,81.3777 955.138,87.4636 z" id="boundary" inkscape:connector-curvature="0" />
	<path style="fill:none;stroke:red;stroke-width:1px;stroke-linecap:butt;stroke-linejoin:miter;stroke-opacity:1" d="M 961.223,94.4189 955.138,87.4636 z" id="boundary" inkscape:connector-curvature="0" />
	<path style="fill:none;stroke:red;stroke-width:1px;stroke-linecap:butt;stroke-linejoin:miter;stroke-opacity:1" d="M 961.223,94.4189 961.223,103.113 z" id="boundary" inkscape:connector-curvature="0" />
	<path style="fill:none;stroke:red;stroke-width:1px;stroke-linecap:butt;stroke-linejoin:miter;stroke-opacity:1" d="M 965.571,110.938 961.223,103.113 z" id="boundary" inkscape:connector-curvature="0" />
	<path style="fill:none;stroke:red;stroke-width:1px;stroke-linecap:butt;stroke-linejoin:miter;stroke-opacity:1" d="M 969.048,119.632 965.571,110.938 z" id="boundary" inkscape:connector-curvature="0" />
	<path style="fill:none;stroke:red;stroke-width:1px;stroke-linecap:butt;stroke-linejoin:miter;stroke-opacity:1" d="M 969.918,128.326 969.048,119.632 z" id="boundary" inkscape:connector-curvature="0" />
	<path style="fill:none;stroke:red;stroke-width:1px;stroke-linecap:butt;stroke-linejoin:miter;stroke-opacity:1" d="M 969.918,128.326 969.918,137.02 z" id="boundary" inkscape:connector-curvature="0" />
	<path style="fill:none;stroke:red;stroke-width:1px;stroke-linecap:butt;stroke-linejoin:miter;stroke-opacity:1" d="M 969.918,137.02 969.918,145.714 z" id="boundary" inkscape:connector-curvature="0" />
	<path style="fill:none;stroke:red;stroke-width:1px;stroke-linecap:butt;stroke-linejoin:miter;stroke-opacity:1" d="M 974.265,171.797 974.265,163.103 z" id="boundary" inkscape:connector-curvature="0" />
	<path style="fill:none;stroke:red;stroke-width:1px;stroke-linecap:butt;stroke-linejoin:miter;stroke-opacity:1" d="M 973.395,154.408 969.918,145.714 z" id="boundary" inkscape:connector-curvature="0" />
	<path style="fill:none;stroke:red;stroke-width:1px;stroke-linecap:butt;stroke-linejoin:miter;stroke-opacity:1" d="M 974.265,163.103 973.395,154.408 z" id="boundary" inkscape:connector-curvature="0" />
	<path style="fill:none;stroke:red;stroke-width:1px;stroke-linecap:butt;stroke-linejoin:miter;stroke-opacity:1" d="M 635.194,204.834 643.888,204.834 z" id="boundary" inkscape:connector-curvature="0" />
	<path style="fill:none;stroke:red;stroke-width:1px;stroke-linecap:butt;stroke-linejoin:miter;stroke-opacity:1" d="M 652.582,204.834 661.276,204.834 z" id="boundary" inkscape:connector-curvature="0" />
	<path style="fill:none;stroke:red;stroke-width:1px;stroke-linecap:butt;stroke-linejoin:miter;stroke-opacity:1" d="M 669.97,204.834 661.276,204.834 z" id="boundary" inkscape:connector-curvature="0" />
	<path style="fill:none;stroke:red;stroke-width:1px;stroke-linecap:butt;stroke-linejoin:miter;stroke-opacity:1" d="M 652.582,204.834 643.888,204.834 z" id="boundary" inkscape:connector-curvature="0" />
	<path style="fill:none;stroke:red;stroke-width:1px;stroke-linecap:butt;stroke-linejoin:miter;stroke-opacity:1" d="M 696.053,204.834 687.358,204.834 z" id="boundary" inkscape:connector-curvature="0" />
	<path style="fill:none;stroke:red;stroke-width:1px;stroke-linecap:butt;stroke-linejoin:miter;stroke-opacity:1" d="M 687.358,204.834 678.664,204.834 z" id="boundary" inkscape:connector-curvature="0" />
	<path style="fill:none;stroke:red;stroke-width:1px;stroke-linecap:butt;stroke-linejoin:miter;stroke-opacity:1" d="M 678.664,204.834 669.97,204.834 z" id="boundary" inkscape:connector-curvature="0" />
	<path style="fill:none;stroke:red;stroke-width:1px;stroke-linecap:butt;stroke-linejoin:miter;stroke-opacity:1" d="M 696.053,204.834 704.747,204.834 z" id="boundary" inkscape:connector-curvature="0" />
	<path style="fill:none;stroke:red;stroke-width:1px;stroke-linecap:butt;stroke-linejoin:miter;stroke-opacity:1" d="M 713.441,204.834 704.747,204.834 z" id="boundary" inkscape:connector-curvature="0" />
	<path style="fill:none;stroke:red;stroke-width:1px;stroke-linecap:butt;stroke-linejoin:miter;stroke-opacity:1" d="M 722.135,204.834 730.829,204.834 z" id="boundary" inkscape:connector-curvature="0" />
	<path style="fill:none;stroke:red;stroke-width:1px;stroke-linecap:butt;stroke-linejoin:miter;stroke-opacity:1" d="M 739.523,204.834 730.829,204.834 z" id="boundary" inkscape:connector-curvature="0" />
	<path style="fill:none;stroke:red;stroke-width:1px;stroke-linecap:butt;stroke-linejoin:miter;stroke-opacity:1" d="M 722.135,204.834 713.441,204.834 z" id="boundary" inkscape:connector-curvature="0" />
	<path style="fill:none;stroke:red;stroke-width:1px;stroke-linecap:butt;stroke-linejoin:miter;stroke-opacity:1" d="M 748.217,204.834 756.911,204.834 z" id="boundary" inkscape:connector-curvature="0" />
	<path style="fill:none;stroke:red;stroke-width:1px;stroke-linecap:butt;stroke-linejoin:miter;stroke-opacity:1" d="M 765.606,204.834 756.911,204.834 z" id="boundary" inkscape:connector-curvature="0" />
	<path style="fill:none;stroke:red;stroke-width:1px;stroke-linecap:butt;stroke-linejoin:miter;stroke-opacity:1" d="M 774.3,204.834 782.994,204.834 z" id="boundary" inkscape:connector-curvature="0" />
	<path style="fill:none;stroke:red;stroke-width:1px;stroke-linecap:butt;stroke-linejoin:miter;stroke-opacity:1" d="M 791.688,204.834 782.994,204.834 z" id="boundary" inkscape:connector-curvature="0" />
	<path style="fill:none;stroke:red;stroke-width:1px;stroke-linecap:butt;stroke-linejoin:miter;stroke-opacity:1" d="M 774.3,204.834 765.606,204.834 z" id="boundary" inkscape:connector-curvature="0" />
	<path style="fill:none;stroke:red;stroke-width:1px;stroke-linecap:butt;stroke-linejoin:miter;stroke-opacity:1" d="M 748.217,204.834 739.523,204.834 z" id="boundary" inkscape:connector-curvature="0" />
	<path style="fill:none;stroke:red;stroke-width:1px;stroke-linecap:butt;stroke-linejoin:miter;stroke-opacity:1" d="M 809.076,204.834 800.382,204.834 z" id="boundary" inkscape:connector-curvature="0" />
	<path style="fill:none;stroke:red;stroke-width:1px;stroke-linecap:butt;stroke-linejoin:miter;stroke-opacity:1" d="M 817.77,204.834 809.076,204.834 z" id="boundary" inkscape:connector-curvature="0" />
	<path style="fill:none;stroke:red;stroke-width:1px;stroke-linecap:butt;stroke-linejoin:miter;stroke-opacity:1" d="M 800.382,204.834 791.688,204.834 z" id="boundary" inkscape:connector-curvature="0" />
	<path style="fill:none;stroke:red;stroke-width:1px;stroke-linecap:butt;stroke-linejoin:miter;stroke-opacity:1" d="M 835.159,204.834 826.465,204.834 z" id="boundary" inkscape:connector-curvature="0" />
	<path style="fill:none;stroke:red;stroke-width:1px;stroke-linecap:butt;stroke-linejoin:miter;stroke-opacity:1" d="M 826.465,204.834 817.77,204.834 z" id="boundary" inkscape:connector-curvature="0" />
	<path style="fill:none;stroke:red;stroke-width:1px;stroke-linecap:butt;stroke-linejoin:miter;stroke-opacity:1" d="M 835.159,204.834 843.853,204.834 z" id="boundary" inkscape:connector-curvature="0" />
	<path style="fill:none;stroke:red;stroke-width:1px;stroke-linecap:butt;stroke-linejoin:miter;stroke-opacity:1" d="M 843.853,204.834 852.547,204.834 z" id="boundary" inkscape:connector-curvature="0" />
	<path style="fill:none;stroke:red;stroke-width:1px;stroke-linecap:butt;stroke-linejoin:miter;stroke-opacity:1" d="M 859.502,225.7 852.547,231.786 z" id="boundary" inkscape:connector-curvature="0" />
	<path style="fill:none;stroke:red;stroke-width:1px;stroke-linecap:butt;stroke-linejoin:miter;stroke-opacity:1" d="M 845.592,238.741 852.547,231.786 z" id="boundary" inkscape:connector-curvature="0" />
	<path style="fill:none;stroke:red;stroke-width:1px;stroke-linecap:butt;stroke-linejoin:miter;stroke-opacity:1" d="M 829.942,267.432 834.289,254.391 z" id="boundary" inkscape:connector-curvature="0" />
	<path style="fill:none;stroke:red;stroke-width:1px;stroke-linecap:butt;stroke-linejoin:miter;stroke-opacity:1" d="M 838.636,245.697 834.289,254.391 z" id="boundary" inkscape:connector-curvature="0" />
	<path style="fill:none;stroke:red;stroke-width:1px;stroke-linecap:butt;stroke-linejoin:miter;stroke-opacity:1" d="M 829.942,267.432 829.942,276.126 z" id="boundary" inkscape:connector-curvature="0" />
	<path style="fill:none;stroke:red;stroke-width:1px;stroke-linecap:butt;stroke-linejoin:miter;stroke-opacity:1" d="M 829.942,284.82 829.942,276.126 z" id="boundary" inkscape:connector-curvature="0" />
	<path style="fill:none;stroke:red;stroke-width:1px;stroke-linecap:butt;stroke-linejoin:miter;stroke-opacity:1" d="M 845.592,238.741 838.636,245.697 z" id="boundary" inkscape:connector-curvature="0" />
	<path style="fill:none;stroke:red;stroke-width:1px;stroke-linecap:butt;stroke-linejoin:miter;stroke-opacity:1" d="M 829.942,293.514 834.289,301.339 z" id="boundary" inkscape:connector-curvature="0" />
	<path style="fill:none;stroke:red;stroke-width:1px;stroke-linecap:butt;stroke-linejoin:miter;stroke-opacity:1" d="M 829.942,284.82 829.942,293.514 z" id="boundary" inkscape:connector-curvature="0" />
	<path style="fill:none;stroke:red;stroke-width:1px;stroke-linecap:butt;stroke-linejoin:miter;stroke-opacity:1" d="M 834.289,301.339 834.289,310.033 z" id="boundary" inkscape:connector-curvature="0" />
	<path style="fill:none;stroke:red;stroke-width:1px;stroke-linecap:butt;stroke-linejoin:miter;stroke-opacity:1" d="M 834.289,310.033 838.636,317.858 z" id="boundary" inkscape:connector-curvature="0" />
	<path style="fill:none;stroke:red;stroke-width:1px;stroke-linecap:butt;stroke-linejoin:miter;stroke-opacity:1" d="M 841.245,326.552 838.636,317.858 z" id="boundary" inkscape:connector-curvature="0" />
	<path style="fill:none;stroke:red;stroke-width:1px;stroke-linecap:butt;stroke-linejoin:miter;stroke-opacity:1" d="M 848.2,332.638 854.286,339.593 z" id="boundary" inkscape:connector-curvature="0" />
	<path style="fill:none;stroke:red;stroke-width:1px;stroke-linecap:butt;stroke-linejoin:miter;stroke-opacity:1" d="M 848.2,332.638 841.245,326.552 z" id="boundary" inkscape:connector-curvature="0" />
	<path style="fill:none;stroke:red;stroke-width:1px;stroke-linecap:butt;stroke-linejoin:miter;stroke-opacity:1" d="M 854.286,339.593 862.98,343.071 z" id="boundary" inkscape:connector-curvature="0" />
	<path style="fill:none;stroke:red;stroke-width:1px;stroke-linecap:butt;stroke-linejoin:miter;stroke-opacity:1" d="M 852.547,204.834 860.372,209.181 z" id="boundary" inkscape:connector-curvature="0" />
	<path style="fill:none;stroke:red;stroke-width:1px;stroke-linecap:butt;stroke-linejoin:miter;stroke-opacity:1" d="M 626.5,204.834 635.194,204.834 z" id="boundary" inkscape:connector-curvature="0" />
	<path style="fill:none;stroke:red;stroke-width:1px;stroke-linecap:butt;stroke-linejoin:miter;stroke-opacity:1" d="M 859.502,225.7 860.372,209.181 z" id="boundary" inkscape:connector-curvature="0" />
	<path style="fill:none;stroke:red;stroke-width:1px;stroke-linecap:butt;stroke-linejoin:miter;stroke-opacity:1" d="M 974.265,180.491 974.265,171.797 z" id="boundary" inkscape:connector-curvature="0" />
	<path style="fill:none;stroke:red;stroke-width:1px;stroke-linecap:butt;stroke-linejoin:miter;stroke-opacity:1" d="M 974.265,189.185 974.265,180.491 z" id="boundary" inkscape:connector-curvature="0" />
	<path style="fill:none;stroke:red;stroke-width:1px;stroke-linecap:butt;stroke-linejoin:miter;stroke-opacity:1" d="M 974.265,189.185 974.265,197.879 z" id="boundary" inkscape:connector-curvature="0" />
	<path style="fill:none;stroke:red;stroke-width:1px;stroke-linecap:butt;stroke-linejoin:miter;stroke-opacity:1" d="M 974.265,206.573 974.265,197.879 z" id="boundary" inkscape:connector-curvature="0" />
	<path style="fill:none;stroke:red;stroke-width:1px;stroke-linecap:butt;stroke-linejoin:miter;stroke-opacity:1" d="M 974.265,206.573 974.265,215.267 z" id="boundary" inkscape:connector-curvature="0" />
	<path style="fill:none;stroke:red;stroke-width:1px;stroke-linecap:butt;stroke-linejoin:miter;stroke-opacity:1" d="M 996,279.604 996,270.91 z" id="boundary" inkscape:connector-curvature="0" />
	<path style="fill:none;stroke:red;stroke-width:1px;stroke-linecap:butt;stroke-linejoin:miter;stroke-opacity:1" d="M 984.698,238.741 977.742,232.656 z" id="boundary" inkscape:connector-curvature="0" />
	<path style="fill:none;stroke:red;stroke-width:1px;stroke-linecap:butt;stroke-linejoin:miter;stroke-opacity:1" d="M 977.742,232.656 974.265,223.961 z" id="boundary" inkscape:connector-curvature="0" />
	<path style="fill:none;stroke:red;stroke-width:1px;stroke-linecap:butt;stroke-linejoin:miter;stroke-opacity:1" d="M 984.698,238.741 990.784,245.697 z" id="boundary" inkscape:connector-curvature="0" />
	<path style="fill:none;stroke:red;stroke-width:1px;stroke-linecap:butt;stroke-linejoin:miter;stroke-opacity:1" d="M 974.265,223.961 974.265,215.267 z" id="boundary" inkscape:connector-curvature="0" />
	<path style="fill:none;stroke:red;stroke-width:1px;stroke-linecap:butt;stroke-linejoin:miter;stroke-opacity:1" d="M 995.131,253.521 990.784,245.697 z" id="boundary" inkscape:connector-curvature="0" />
	<path style="fill:none;stroke:red;stroke-width:1px;stroke-linecap:butt;stroke-linejoin:miter;stroke-opacity:1" d="M 996,262.216 996,270.91 z" id="boundary" inkscape:connector-curvature="0" />
	<path style="fill:none;stroke:red;stroke-width:1px;stroke-linecap:butt;stroke-linejoin:miter;stroke-opacity:1" d="M 996,262.216 995.131,253.521 z" id="boundary" inkscape:connector-curvature="0" />
	<path style="fill:none;stroke:red;stroke-width:1px;stroke-linecap:butt;stroke-linejoin:miter;stroke-opacity:1" d="M 871.674,343.94 862.98,343.071 z" id="boundary" inkscape:connector-curvature="0" />
	<path style="fill:none;stroke:red;stroke-width:1px;stroke-linecap:butt;stroke-linejoin:miter;stroke-opacity:1" d="M 880.368,343.94 871.674,343.94 z" id="boundary" inkscape:connector-curvature="0" />
	<path style="fill:none;stroke:red;stroke-width:1px;stroke-linecap:butt;stroke-linejoin:miter;stroke-opacity:1" d="M 880.368,343.94 889.062,343.94 z" id="boundary" inkscape:connector-curvature="0" />
	<path style="fill:none;stroke:red;stroke-width:1px;stroke-linecap:butt;stroke-linejoin:miter;stroke-opacity:1" d="M 897.756,343.94 906.45,343.94 z" id="boundary" inkscape:connector-curvature="0" />
	<path style="fill:none;stroke:red;stroke-width:1px;stroke-linecap:butt;stroke-linejoin:miter;stroke-opacity:1" d="M 897.756,343.94 889.062,343.94 z" id="boundary" inkscape:connector-curvature="0" />
	<path style="fill:none;stroke:red;stroke-width:1px;stroke-linecap:butt;stroke-linejoin:miter;stroke-opacity:1" d="M 906.45,343.94 915.145,343.94 z" id="boundary" inkscape:connector-curvature="0" />
	<path style="fill:none;stroke:red;stroke-width:1px;stroke-linecap:butt;stroke-linejoin:miter;stroke-opacity:1" d="M 923.839,343.94 932.533,343.94 z" id="boundary" inkscape:connector-curvature="0" />
	<path style="fill:none;stroke:red;stroke-width:1px;stroke-linecap:butt;stroke-linejoin:miter;stroke-opacity:1" d="M 923.839,343.94 915.145,343.94 z" id="boundary" inkscape:connector-curvature="0" />
	<path style="fill:none;stroke:red;stroke-width:1px;stroke-linecap:butt;stroke-linejoin:miter;stroke-opacity:1" d="M 932.533,343.94 941.227,343.94 z" id="boundary" inkscape:connector-curvature="0" />
	<path style="fill:none;stroke:red;stroke-width:1px;stroke-linecap:butt;stroke-linejoin:miter;stroke-opacity:1" d="M 996,288.298 996,279.604 z" id="boundary" inkscape:connector-curvature="0" />
	<path style="fill:none;stroke:red;stroke-width:1px;stroke-linecap:butt;stroke-linejoin:miter;stroke-opacity:1" d="M 996,288.298 996,296.992 z" id="boundary" inkscape:connector-curvature="0" />
	<path style="fill:none;stroke:red;stroke-width:1px;stroke-linecap:butt;stroke-linejoin:miter;stroke-opacity:1" d="M 974.265,335.246 966.44,339.593 z" id="boundary" inkscape:connector-curvature="0" />
	<path style="fill:none;stroke:red;stroke-width:1px;stroke-linecap:butt;stroke-linejoin:miter;stroke-opacity:1" d="M 981.22,329.16 974.265,335.246 z" id="boundary" inkscape:connector-curvature="0" />
	<path style="fill:none;stroke:red;stroke-width:1px;stroke-linecap:butt;stroke-linejoin:miter;stroke-opacity:1" d="M 966.44,339.593 958.615,343.94 z" id="boundary" inkscape:connector-curvature="0" />
	<path style="fill:none;stroke:red;stroke-width:1px;stroke-linecap:butt;stroke-linejoin:miter;stroke-opacity:1" d="M 949.921,343.94 958.615,343.94 z" id="boundary" inkscape:connector-curvature="0" />
	<path style="fill:none;stroke:red;stroke-width:1px;stroke-linecap:butt;stroke-linejoin:miter;stroke-opacity:1" d="M 949.921,343.94 941.227,343.94 z" id="boundary" inkscape:connector-curvature="0" />
	<path style="fill:none;stroke:red;stroke-width:1px;stroke-linecap:butt;stroke-linejoin:miter;stroke-opacity:1" d="M 996,305.686 991.653,313.511 z" id="boundary" inkscape:connector-curvature="0" />
	<path style="fill:none;stroke:red;stroke-width:1px;stroke-linecap:butt;stroke-linejoin:miter;stroke-opacity:1" d="M 996,296.992 996,305.686 z" id="boundary" inkscape:connector-curvature="0" />
	<path style="fill:none;stroke:red;stroke-width:1px;stroke-linecap:butt;stroke-linejoin:miter;stroke-opacity:1" d="M 991.653,313.511 987.306,322.205 z" id="boundary" inkscape:connector-curvature="0" />
	<path style="fill:none;stroke:red;stroke-width:1px;stroke-linecap:butt;stroke-linejoin:miter;stroke-opacity:1" d="M 981.22,329.16 987.306,322.205 z" id="boundary" inkscape:connector-curvature="0" />
	<circle cx="4" cy="150.061" r="4" fill="#0" id="circle0"/>
	<circle cx="4" cy="158.755" r="4" fill="#0" id="circle1"/>
	<circle cx="4" cy="167.45" r="4" fill="#0" id="circle2"/>
	<circle cx="4" cy="176.144" r="4" fill="#0" id="circle3"/>
	<circle cx="4" cy="184.838" r="4" fill="#0" id="circle4"/>
	<circle cx="4" cy="193.532" r="4" fill="#0" id="circle5"/>
	<circle cx="10.9553" cy="143.106" r="4" fill="#0" id="circle6"/>
	<circle cx="10.9553" cy="199.618" r="4" fill="#0" id="circle7"/>
	<circle cx="17.9106" cy="136.151" r="4" fill="#0" id="circle8"/>
	<circle cx="17.9106" cy="204.834" r="4" fill="#0" id="circle9"/>
	<circle cx="26.6047" cy="134.412" r="4" fill="#0" id="circle10"/>
	<circle cx="26.6047" cy="204.834" r="4" fill="#0" id="circle11"/>
	<circle cx="35.2989" cy="134.412" r="4" fill="#0" id="circle12"/>
	<circle cx="35.2989" cy="204.834" r="4" fill="#0" id="circle13"/>
	<circle cx="43.993" cy="134.412" r="4" fill="#0" id="circle14"/>
	<circle cx="43.993" cy="204.834" r="4" fill="#0" id="circle15"/>
	<circle cx="52.6871" cy="134.412" r="4" fill="#0" id="circle16"/>
	<circle cx="52.6871" cy="204.834" r="4" fill="#0" id="circle17"/>
	<circle cx="61.3812" cy="134.412" r="4" fill="#0" id="circle18"/>
	<circle cx="61.3812" cy="204.834" r="4" fill="#0" id="circle19"/>
	<circle cx="70.0754" cy="134.412" r="4" fill="#0" id="circle20"/>
	<circle cx="70.0754" cy="204.834" r="4" fill="#0" id="circle21"/>
	<circle cx="78.7695" cy="134.412" r="4" fill="#0" id="circle22"/>
	<circle cx="78.7695" cy="204.834" r="4" fill="#0" id="circle23"/>
	<circle cx="87.4636" cy="134.412" r="4" fill="#0" id="circle24"/>
	<circle cx="87.4636" cy="204.834" r="4" fill="#0" id="circle25"/>
	<circle cx="96.1578" cy="134.412" r="4" fill="#0" id="circle26"/>
	<circle cx="96.1578" cy="204.834" r="4" fill="#0" id="circle27"/>
	<circle cx="104.852" cy="134.412" r="4" fill="#0" id="circle28"/>
	<circle cx="104.852" cy="204.834" r="4" fill="#0" id="circle29"/>
	<circle cx="113.546" cy="134.412" r="4" fill="#0" id="circle30"/>
	<circle cx="113.546" cy="204.834" r="4" fill="#0" id="circle31"/>
	<circle cx="122.24" cy="134.412" r="4" fill="#0" id="circle32"/>
	<circle cx="122.24" cy="204.834" r="4" fill="#0" id="circle33"/>
	<circle cx="130.934" cy="134.412" r="4" fill="#0" id="circle34"/>
	<circle cx="130.934" cy="204.834" r="4" fill="#0" id="circle35"/>
	<circle cx="139.628" cy="134.412" r="4" fill="#0" id="circle36"/>
	<circle cx="139.628" cy="204.834" r="4" fill="#0" id="circle37"/>
	<circle cx="148.323" cy="134.412" r="4" fill="#0" id="circle38"/>
	<circle cx="148.323" cy="204.834" r="4" fill="#0" id="circle39"/>
	<circle cx="157.017" cy="134.412" r="4" fill="#0" id="circle40"/>
	<circle cx="157.017" cy="204.834" r="4" fill="#0" id="circle41"/>
	<circle cx="165.711" cy="134.412" r="4" fill="#0" id="circle42"/>
	<circle cx="165.711" cy="204.834" r="4" fill="#0" id="circle43"/>
	<circle cx="174.405" cy="134.412" r="4" fill="#0" id="circle44"/>
	<circle cx="174.405" cy="204.834" r="4" fill="#0" id="circle45"/>
	<circle cx="183.099" cy="134.412" r="4" fill="#0" id="circle46"/>
	<circle cx="183.099" cy="204.834" r="4" fill="#0" id="circle47"/>
	<circle cx="191.793" cy="134.412" r="4" fill="#0" id="circle48"/>
	<circle cx="191.793" cy="204.834" r="4" fill="#0" id="circle49"/>
	<circle cx="200.487" cy="134.412" r="4" fill="#0" id="circle50"/>
	<circle cx="200.487" cy="204.834" r="4" fill="#0" id="circle51"/>
	<circle cx="209.181" cy="134.412" r="4" fill="#0" id="circle52"/>
	<circle cx="209.181" cy="204.834" r="4" fill="#0" id="circle53"/>
	<circle cx="217.876" cy="134.412" r="4" fill="#0" id="circle54"/>
	<circle cx="217.876" cy="204.834" r="4" fill="#0" id="circle55"/>
	<circle cx="226.57" cy="134.412" r="4" fill="#0" id="circle56"/>
	<circle cx="226.57" cy="204.834" r="4" fill="#0" id="circle57"/>
	<circle cx="235.264" cy="134.412" r="4" fill="#0" id="circle58"/>
	<circle cx="235.264" cy="204.834" r="4" fill="#0" id="circle59"/>
	<circle cx="243.958" cy="134.412" r="4" fill="#0" id="circle60"/>
	<circle cx="243.958" cy="204.834" r="4" fill="#0" id="circle61"/>
	<circle cx="252.652" cy="134.412" r="4" fill="#0" id="circle62"/>
	<circle cx="252.652" cy="204.834" r="4" fill="#0" id="circle63"/>
	<circle cx="261.346" cy="134.412" r="4" fill="#0" id="circle64"/>
	<circle cx="261.346" cy="204.834" r="4" fill="#0" id="circle65"/>
	<circle cx="270.04" cy="134.412" r="4" fill="#0" id="circle66"/>
	<circle cx="270.04" cy="204.834" r="4" fill="#0" id="circle67"/>
	<circle cx="278.734" cy="134.412" r="4" fill="#0" id="circle68"/>
	<circle cx="278.734" cy="204.834" r="4" fill="#0" id="circle69"/>
	<circle cx="287.429" cy="134.412" r="4" fill="#0" id="circle70"/>
	<circle cx="287.429" cy="204.834" r="4" fill="#0" id="circle71"/>
	<circle cx="296.123" cy="134.412" r="4" fill="#0" id="circle72"/>
	<circle cx="296.123" cy="204.834" r="4" fill="#0" id="circle73"/>
	<circle cx="304.817" cy="134.412" r="4" fill="#0" id="circle74"/>
	<circle cx="304.817" cy="204.834" r="4" fill="#0" id="circle75"/>
	<circle cx="313.511" cy="134.412" r="4" fill="#0" id="circle76"/>
	<circle cx="313.511" cy="204.834" r="4" fill="#0" id="circle77"/>
	<circle cx="322.205" cy="134.412" r="4" fill="#0" id="circle78"/>
	<circle cx="322.205" cy="204.834" r="4" fill="#0" id="circle79"/>
	<circle cx="330.899" cy="134.412" r="4" fill="#0" id="circle80"/>
	<circle cx="330.899" cy="204.834" r="4" fill="#0" id="circle81"/>
	<circle cx="339.593" cy="134.412" r="4" fill="#0" id="circle82"/>
	<circle cx="339.593" cy="204.834" r="4" fill="#0" id="circle83"/>
	<circle cx="348.287" cy="134.412" r="4" fill="#0" id="circle84"/>
	<circle cx="348.287" cy="204.834" r="4" fill="#0" id="circle85"/>
	<circle cx="356.982" cy="134.412" r="4" fill="#0" id="circle86"/>
	<circle cx="356.982" cy="204.834" r="4" fill="#0" id="circle87"/>
	<circle cx="365.676" cy="134.412" r="4" fill="#0" id="circle88"/>
	<circle cx="365.676" cy="204.834" r="4" fill="#0" id="circle89"/>
	<circle cx="374.37" cy="134.412" r="4" fill="#0" id="circle90"/>
	<circle cx="374.37" cy="204.834" r="4" fill="#0" id="circle91"/>
	<circle cx="383.064" cy="134.412" r="4" fill="#0" id="circle92"/>
	<circle cx="383.064" cy="204.834" r="4" fill="#0" id="circle93"/>
	<circle cx="391.758" cy="134.412" r="4" fill="#0" id="circle94"/>
	<circle cx="391.758" cy="204.834" r="4" fill="#0" id="circle95"/>
	<circle cx="400.452" cy="134.412" r="4" fill="#0" id="circle96"/>
	<circle cx="400.452" cy="204.834" r="4" fill="#0" id="circle97"/>
	<circle cx="409.146" cy="134.412" r="4" fill="#0" id="circle98"/>
	<circle cx="409.146" cy="204.834" r="4" fill="#0" id="circle99"/>
	<circle cx="417.84" cy="134.412" r="4" fill="#0" id="circle100"/>
	<circle cx="417.84" cy="204.834" r="4" fill="#0" id="circle101"/>
	<circle cx="426.535" cy="134.412" r="4" fill="#0" id="circle102"/>
	<circle cx="426.535" cy="204.834" r="4" fill="#0" id="circle103"/>
	<circle cx="435.229" cy="134.412" r="4" fill="#0" id="circle104"/>
	<circle cx="435.229" cy="204.834" r="4" fill="#0" id="circle105"/>
	<circle cx="443.923" cy="134.412" r="4" fill="#0" id="circle106"/>
	<circle cx="443.923" cy="204.834" r="4" fill="#0" id="circle107"/>
	<circle cx="452.617" cy="134.412" r="4" fill="#0" id="circle108"/>
	<circle cx="452.617" cy="204.834" r="4" fill="#0" id="circle109"/>
	<circle cx="461.311" cy="134.412" r="4" fill="#0" id="circle110"/>
	<circle cx="461.311" cy="204.834" r="4" fill="#0" id="circle111"/>
	<circle cx="470.005" cy="134.412" r="4" fill="#0" id="circle112"/>
	<circle cx="470.005" cy="204.834" r="4" fill="#0" id="circle113"/>
	<circle cx="478.699" cy="134.412" r="4" fill="#0" id="circle114"/>
	<circle cx="478.699" cy="204.834" r="4" fill="#0" id="circle115"/>
	<circle cx="487.394" cy="134.412" r="4" fill="#0" id="circle116"/>
	<circle cx="487.394" cy="204.834" r="4" fill="#0" id="circle117"/>
	<circle cx="496.088" cy="134.412" r="4" fill="#0" id="circle118"/>
	<circle cx="496.088" cy="204.834" r="4" fill="#0" id="circle119"/>
	<circle cx="504.782" cy="134.412" r="4" fill="#0" id="circle120"/>
	<circle cx="504.782" cy="204.834" r="4" fill="#0" id="circle121"/>
	<circle cx="513.476" cy="134.412" r="4" fill="#0" id="circle122"/>
	<circle cx="513.476" cy="204.834" r="4" fill="#0" id="circle123"/>
	<circle cx="522.17" cy="134.412" r="4" fill="#0" id="circle124"/>
	<circle cx="522.17" cy="204.834" r="4" fill="#0" id="circle125"/>
	<circle cx="530.864" cy="134.412" r="4" fill="#0" id="circle126"/>
	<circle cx="530.864" cy="204.834" r="4" fill="#0" id="circle127"/>
	<circle cx="539.558" cy="134.412" r="4" fill="#0" id="circle128"/>
	<circle cx="539.558" cy="204.834" r="4" fill="#0" id="circle129"/>
	<circle cx="548.252" cy="134.412" r="4" fill="#0" id="circle130"/>
	<circle cx="548.252" cy="204.834" r="4" fill="#0" id="circle131"/>
	<circle cx="556.947" cy="134.412" r="4" fill="#0" id="circle132"/>
	<circle cx="556.947" cy="204.834" r="4" fill="#0" id="circle133"/>
	<circle cx="565.641" cy="134.412" r="4" fill="#0" id="circle134"/>
	<circle cx="565.641" cy="204.834" r="4" fill="#0" id="circle135"/>
	<circle cx="574.335" cy="134.412" r="4" fill="#0" id="circle136"/>
	<circle cx="574.335" cy="204.834" r="4" fill="#0" id="circle137"/>
	<circle cx="583.029" cy="134.412" r="4" fill="#0" id="circle138"/>
	<circle cx="583.029" cy="204.834" r="4" fill="#0" id="circle139"/>
	<circle cx="591.723" cy="134.412" r="4" fill="#0" id="circle140"/>
	<circle cx="591.723" cy="204.834" r="4" fill="#0" id="circle141"/>
	<circle cx="600.417" cy="134.412" r="4" fill="#0" id="circle142"/>
	<circle cx="600.417" cy="204.834" r="4" fill="#0" id="circle143"/>
	<circle cx="609.111" cy="134.412" r="4" fill="#0" id="circle144"/>
	<circle cx="609.111" cy="204.834" r="4" fill="#0" id="circle145"/>
	<circle cx="617.805" cy="134.412" r="4" fill="#0" id="circle146"/>
	<circle cx="617.805" cy="204.834" r="4" fill="#0" id="circle147"/>
	<circle cx="626.5" cy="134.412" r="4" fill="#0" id="circle148"/>
	<circle cx="626.5" cy="204.834" r="4" fill="#0" id="circle149"/>
	<circle cx="635.194" cy="134.412" r="4" fill="#0" id="circle150"/>
	<circle cx="635.194" cy="204.834" r="4" fill="#0" id="circle151"/>
	<circle cx="643.888" cy="134.412" r="4" fill="#0" id="circle152"/>
	<circle cx="643.888" cy="204.834" r="4" fill="#0" id="circle153"/>
	<circle cx="652.582" cy="134.412" r="4" fill="#0" id="circle154"/>
	<circle cx="652.582" cy="204.834" r="4" fill="#0" id="circle155"/>
	<circle cx="661.276" cy="134.412" r="4" fill="#0" id="circle156"/>
	<circle cx="661.276" cy="204.834" r="4" fill="#0" id="circle157"/>
	<circle cx="669.97" cy="134.412" r="4" fill="#0" id="circle158"/>
	<circle cx="669.97" cy="204.834" r="4" fill="#0" id="circle159"/>
	<circle cx="678.664" cy="134.412" r="4" fill="#0" id="circle160"/>
	<circle cx="678.664" cy="204.834" r="4" fill="#0" id="circle161"/>
	<circle cx="687.358" cy="134.412" r="4" fill="#0" id="circle162"/>
	<circle cx="687.358" cy="204.834" r="4" fill="#0" id="circle163"/>
	<circle cx="696.053" cy="134.412" r="4" fill="#0" id="circle164"/>
	<circle cx="696.053" cy="204.834" r="4" fill="#0" id="circle165"/>
	<circle cx="704.747" cy="134.412" r="4" fill="#0" id="circle166"/>
	<circle cx="704.747" cy="204.834" r="4" fill="#0" id="circle167"/>
	<circle cx="713.441" cy="134.412" r="4" fill="#0" id="circle168"/>
	<circle cx="713.441" cy="204.834" r="4" fill="#0" id="circle169"/>
	<circle cx="722.135" cy="134.412" r="4" fill="#0" id="circle170"/>
	<circle cx="722.135" cy="204.834" r="4" fill="#0" id="circle171"/>
	<circle cx="730.829" cy="134.412" r="4" fill="#0" id="circle172"/>
	<circle cx="730.829" cy="204.834" r="4" fill="#0" id="circle173"/>
	<circle cx="739.523" cy="134.412" r="4" fill="#0" id="circle174"/>
	<circle cx="739.523" cy="204.834" r="4" fill="#0" id="circle175"/>
	<circle cx="748.217" cy="134.412" r="4" fill="#0" id="circle176"/>
	<circle cx="748.217" cy="204.834" r="4" fill="#0" id="circle177"/>
	<circle cx="756.911" cy="134.412" r="4" fill="#0" id="circle178"/>
	<circle cx="756.911" cy="204.834" r="4" fill="#0" id="circle179"/>
	<circle cx="765.606" cy="134.412" r="4" fill="#0" id="circle180"/>
	<circle cx="765.606" cy="204.834" r="4" fill="#0" id="circle181"/>
	<circle cx="774.3" cy="134.412" r="4" fill="#0" id="circle182"/>
	<circle cx="774.3" cy="204.834" r="4" fill="#0" id="circle183"/>
	<circle cx="782.994" cy="134.412" r="4" fill="#0" id="circle184"/>
	<circle cx="782.994" cy="204.834" r="4" fill="#0" id="circle185"/>
	<circle cx="791.688" cy="134.412" r="4" fill="#0" id="circle186"/>
	<circle cx="791.688" cy="204.834" r="4" fill="#0" id="circle187"/>
	<circle cx="800.382" cy="134.412" r="4" fill="#0" id="circle188"/>
	<circle cx="800.382" cy="204.834" r="4" fill="#0" id="circle189"/>
	<circle cx="808.207" cy="10.9553" r="4" fill="#0" id="circle190"/>
	<circle cx="808.207" cy="19.6494" r="4" fill="#0" id="circle191"/>
	<circle cx="809.076" cy="134.412" r="4" fill="#0" id="circle192"/>
	<circle cx="809.076" cy="204.834" r="4" fill="#0" id="circle193"/>
	<circle cx="812.554" cy="27.4741" r="4" fill="#0" id="circle194"/>
	<circle cx="815.162" cy="4" r="4" fill="#0" id="circle195"/>
	<circle cx="817.77" cy="134.412" r="4" fill="#0" id="circle196"/>
	<circle cx="817.77" cy="204.834" r="4" fill="#0" id="circle197"/>
	<circle cx="818.64" cy="34.4294" r="4" fill="#0" id="circle198"/>
	<circle cx="822.987" cy="42.2542" r="4" fill="#0" id="circle199"/>
	<circle cx="823.856" cy="4" r="4" fill="#0" id="circle200"/>
	<circle cx="826.465" cy="134.412" r="4" fill="#0" id="circle201"/>
	<circle cx="826.465" cy="204.834" r="4" fill="#0" id="circle202"/>
	<circle cx="829.942" cy="48.3401" r="4" fill="#0" id="circle203"/>
	<circle cx="829.942" cy="267.432" r="4" fill="#0" id="circle204"/>
	<circle cx="829.942" cy="276.126" r="4" fill="#0" id="circle205"/>
	<circle cx="829.942" cy="284.82" r="4" fill="#0" id="circle206"/>
	<circle cx="829.942" cy="293.514" r="4" fill="#0" id="circle207"/>
	<circle cx="831.681" cy="8.34706" r="4" fill="#0" id="circle208"/>
	<circle cx="832.55" cy="57.0342" r="4" fill="#0" id="circle209"/>
	<circle cx="834.289" cy="254.391" r="4" fill="#0" id="circle210"/>
	<circle cx="834.289" cy="301.339" r="4" fill="#0" id="circle211"/>
	<circle cx="834.289" cy="310.033" r="4" fill="#0" id="circle212"/>
	<circle cx="835.159" cy="134.412" r="4" fill="#0" id="circle213"/>
	<circle cx="835.159" cy="204.834" r="4" fill="#0" id="circle214"/>
	<circle cx="838.636" cy="63.9895" r="4" fill="#0" id="circle215"/>
	<circle cx="838.636" cy="245.697" r="4" fill="#0" id="circle216"/>
	<circle cx="838.636" cy="317.858" r="4" fill="#0" id="circle217"/>
	<circle cx="839.506" cy="72.6836" r="4" fill="#0" id="circle218"/>
	<circle cx="840.375" cy="8.34706" r="4" fill="#0" id="circle219"/>
	<circle cx="841.245" cy="326.552" r="4" fill="#0" id="circle220"/>
	<circle cx="842.983" cy="81.3777" r="4" fill="#0" id="circle221"/>
	<circle cx="843.853" cy="134.412" r="4" fill="#0" id="circle222"/>
	<circle cx="843.853" cy="204.834" r="4" fill="#0" id="circle223"/>
	<circle cx="845.592" cy="238.741" r="4" fill="#0" id="circle224"/>
	<circle cx="847.33" cy="89.2025" r="4" fill="#0" id="circle225"/>
	<circle cx="848.2" cy="332.638" r="4" fill="#0" id="circle226"/>
	<circle cx="849.069" cy="8.34706" r="4" fill="#0" id="circle227"/>
	<circle cx="851.677" cy="97.0272" r="4" fill="#0" id="circle228"/>
	<circle cx="851.677" cy="105.721" r="4" fill="#0" id="circle229"/>
	<circle cx="852.547" cy="134.412" r="4" fill="#0" id="circle230"/>
	<circle cx="852.547" cy="204.834" r="4" fill="#0" id="circle231"/>
	<circle cx="852.547" cy="231.786" r="4" fill="#0" id="circle232"/>
	<circle cx="854.286" cy="339.593" r="4" fill="#0" id="circle233"/>
	<circle cx="856.025" cy="113.546" r="4" fill="#0" id="circle234"/>
	<circle cx="856.025" cy="122.24" r="4" fill="#0" id="circle235"/>
	<circle cx="857.763" cy="8.34706" r="4" fill="#0" id="circle236"/>
	<circle cx="859.502" cy="225.7" r="4" fill="#0" id="circle237"/>
	<circle cx="860.372" cy="130.065" r="4" fill="#0" id="circle238"/>
	<circle cx="860.372" cy="209.181" r="4" fill="#0" id="circle239"/>
	<circle cx="862.98" cy="343.071" r="4" fill="#0" id="circle240"/>
	<circle cx="865.588" cy="12.6941" r="4" fill="#0" id="circle241"/>
	<circle cx="871.674" cy="343.94" r="4" fill="#0" id="circle242"/>
	<circle cx="874.282" cy="15.3024" r="4" fill="#0" id="circle243"/>
	<circle cx="880.368" cy="22.2577" r="4" fill="#0" id="circle244"/>
	<circle cx="880.368" cy="343.94" r="4" fill="#0" id="circle245"/>
	<circle cx="889.062" cy="25.7353" r="4" fill="#0" id="circle246"/>
	<circle cx="889.062" cy="343.94" r="4" fill="#0" id="circle247"/>
	<circle cx="896.887" cy="30.0824" r="4" fill="#0" id="circle248"/>
	<circle cx="897.756" cy="343.94" r="4" fill="#0" id="circle249"/>
	<circle cx="903.842" cy="36.1683" r="4" fill="#0" id="circle250"/>
	<circle cx="906.45" cy="343.94" r="4" fill="#0" id="circle251"/>
	<circle cx="909.059" cy="43.1236" r="4" fill="#0" id="circle252"/>
	<circle cx="915.145" cy="343.94" r="4" fill="#0" id="circle253"/>
	<circle cx="916.014" cy="48.3401" r="4" fill="#0" id="circle254"/>
	<circle cx="922.1" cy="55.2954" r="4" fill="#0" id="circle255"/>
	<circle cx="923.839" cy="343.94" r="4" fill="#0" id="circle256"/>
	<circle cx="929.055" cy="61.3812" r="4" fill="#0" id="circle257"/>
	<circle cx="932.533" cy="343.94" r="4" fill="#0" id="circle258"/>
	<circle cx="935.141" cy="68.3365" r="4" fill="#0" id="circle259"/>
	<circle cx="941.227" cy="343.94" r="4" fill="#0" id="circle260"/>
	<circle cx="942.096" cy="74.4224" r="4" fill="#0" id="circle261"/>
	<circle cx="948.182" cy="81.3777" r="4" fill="#0" id="circle262"/>
	<circle cx="949.921" cy="343.94" r="4" fill="#0" id="circle263"/>
	<circle cx="955.138" cy="87.4636" r="4" fill="#0" id="circle264"/>
	<circle cx="958.615" cy="343.94" r="4" fill="#0" id="circle265"/>
	<circle cx="961.223" cy="94.4189" r="4" fill="#0" id="circle266"/>
	<circle cx="961.223" cy="103.113" r="4" fill="#0" id="circle267"/>
	<circle cx="965.571" cy="110.938" r="4" fill="#0" id="circle268"/>
	<circle cx="966.44" cy="339.593" r="4" fill="#0" id="circle269"/>
	<circle cx="969.048" cy="119.632" r="4" fill="#0" id="circle270"/>
	<circle cx="969.918" cy="128.326" r="4" fill="#0" id="circle271"/>
	<circle cx="969.918" cy="137.02" r="4" fill="#0" id="circle272"/>
	<circle cx="969.918" cy="145.714" r="4" fill="#0" id="circle273"/>
	<circle cx="973.395" cy="154.408" r="4" fill="#0" id="circle274"/>
	<circle cx="974.265" cy="163.103" r="4" fill="#0" id="circle275"/>
	<circle cx="974.265" cy="171.797" r="4" fill="#0" id="circle276"/>
	<circle cx="974.265" cy="180.491" r="4" fill="#0" id="circle277"/>
	<circle cx="974.265" cy="189.185" r="4" fill="#0" id="circle278"/>
	<circle cx="974.265" cy="197.879" r="4" fill="#0" id="circle279"/>
	<circle cx="974.265" cy="206.573" r="4" fill="#0" id="circle280"/>
	<circle cx="974.265" cy="215.267" r="4" fill="#0" id="circle281"/>
	<circle cx="974.265" cy="223.961" r="4" fill="#0" id="circle282"/>
	<circle cx="974.265" cy="335.246" r="4" fill="#0" id="circle283"/>
	<circle cx="977.742" cy="232.656" r="4" fill="#0" id="circle284"/>
	<circle cx="981.22" cy="329.16" r="4" fill="#0" id="circle285"/>
	<circle cx="984.698" cy="238.741" r="4" fill="#0" id="circle286"/>
	<circle cx="987.306" cy="322.205" r="4" fill="#0" id="circle287"/>
	<circle cx="990.784" cy="245.697" r="4" fill="#0" id="circle288"/>
	<circle cx="991.653" cy="313.511" r="4" fill="#0" id="circle289"/>
	<circle cx="995.131" cy="253.521" r="4" fill="#0" id="circle290"/>
	<circle cx="996" cy="262.216" r="4" fill="#0" id="circle291"/>
	<circle cx="996" cy="270.91" r="4" fill="#0" id="circle292"/>
	<circle cx="996" cy="279.604" r="4" fill="#0" id="circle293"/>
	<circle cx="996" cy="288.298" r="4" fill="#0" id="circle294"/>
	<circle cx="996" cy="296.992" r="4" fill="#0" id="circle295"/>
	<circle cx="996" cy="305.686" r="4" fill="#0" id="circle296"/>
	</g>
</svg>