<?xml version="1.0" encoding="UTF-8" standalone="no"?>
<!-- Created with CurveBenchmark -->
<svg
	xmlns:dc="http://purl.org/dc/elements/1.1/"
	xmlns:cc="http://creativecommons.org/ns#"
	xmlns:rdf="http://www.w3.org/1999/02/22-rdf-syntax-ns#"
	xmlns:svg="http://www.w3.org/2000/svg"
	xmlns="http://www.w3.org/2000/svg"
	xmlns:sodipodi="http://sodipodi.sourceforge.net/DTD/sodipodi-0.dtd"
	xmlns:inkscape="http://www.inkscape.org/namespaces/inkscape"
	width="1000"
	height="1000"
	id="svg2"
	version="1.1"
	sodipodi:docname="manifold/crust-woodenspoonbinary20.png.txt">
<defs
	id="defs4" />
<metadata
	id="metadata7">
	<rdf:RDF>
		<cc:Work
			rdf:about="">
			<dc:format>image/svg+xml</dc:format>
			<dc:type
				rdf:resource="http://purl.org/dc/dcmitype/StillImage" />
			<dc:title></dc:title>
		</cc:Work>
	</rdf:RDF>
</metadata>
<g
	inkscape:label="Layer 1"
	inkscape:groupmode="layer"
	id="layer1">
	<path style="fill:none;stroke:red;stroke-width:1px;stroke-linecap:butt;stroke-linejoin:miter;stroke-opacity:1" d="M 46.2254,92.0192 40.2782,92.0192 z" id="boundary" inkscape:connector-curvature="0" />
	<path style="fill:none;stroke:red;stroke-width:1px;stroke-linecap:butt;stroke-linejoin:miter;stroke-opacity:1" d="M 40.2782,92.0192 34.3309,92.6139 z" id="boundary" inkscape:connector-curvature="0" />
	<path style="fill:none;stroke:red;stroke-width:1px;stroke-linecap:butt;stroke-linejoin:miter;stroke-opacity:1" d="M 58.1199,92.0192 52.1727,91.4245 z" id="boundary" inkscape:connector-curvature="0" />
	<path style="fill:none;stroke:red;stroke-width:1px;stroke-linecap:butt;stroke-linejoin:miter;stroke-opacity:1" d="M 52.1727,91.4245 46.2254,92.0192 z" id="boundary" inkscape:connector-curvature="0" />
	<path style="fill:none;stroke:red;stroke-width:1px;stroke-linecap:butt;stroke-linejoin:miter;stroke-opacity:1" d="M 28.3837,93.2086 22.4365,93.2086 z" id="boundary" inkscape:connector-curvature="0" />
	<path style="fill:none;stroke:red;stroke-width:1px;stroke-linecap:butt;stroke-linejoin:miter;stroke-opacity:1" d="M 34.3309,92.6139 28.3837,93.2086 z" id="boundary" inkscape:connector-curvature="0" />
	<path style="fill:none;stroke:red;stroke-width:1px;stroke-linecap:butt;stroke-linejoin:miter;stroke-opacity:1" d="M 7.56835,104.508 12.3261,100.345 z" id="boundary" inkscape:connector-curvature="0" />
	<path style="fill:none;stroke:red;stroke-width:1px;stroke-linecap:butt;stroke-linejoin:miter;stroke-opacity:1" d="M 12.3261,100.345 17.0839,96.1823 z" id="boundary" inkscape:connector-curvature="0" />
	<path style="fill:none;stroke:red;stroke-width:1px;stroke-linecap:butt;stroke-linejoin:miter;stroke-opacity:1" d="M 17.0839,96.1823 22.4365,93.2086 z" id="boundary" inkscape:connector-curvature="0" />
	<path style="fill:none;stroke:red;stroke-width:1px;stroke-linecap:butt;stroke-linejoin:miter;stroke-opacity:1" d="M 58.1199,92.0192 64.0671,92.0192 z" id="boundary" inkscape:connector-curvature="0" />
	<path style="fill:none;stroke:red;stroke-width:1px;stroke-linecap:butt;stroke-linejoin:miter;stroke-opacity:1" d="M 70.0144,92.0192 64.0671,92.0192 z" id="boundary" inkscape:connector-curvature="0" />
	<path style="fill:none;stroke:red;stroke-width:1px;stroke-linecap:butt;stroke-linejoin:miter;stroke-opacity:1" d="M 70.0144,92.0192 75.9616,92.0192 z" id="boundary" inkscape:connector-curvature="0" />
	<path style="fill:none;stroke:red;stroke-width:1px;stroke-linecap:butt;stroke-linejoin:miter;stroke-opacity:1" d="M 81.9089,92.0192 75.9616,92.0192 z" id="boundary" inkscape:connector-curvature="0" />
	<path style="fill:none;stroke:red;stroke-width:1px;stroke-linecap:butt;stroke-linejoin:miter;stroke-opacity:1" d="M 81.9089,92.0192 87.8561,92.0192 z" id="boundary" inkscape:connector-curvature="0" />
	<path style="fill:none;stroke:red;stroke-width:1px;stroke-linecap:butt;stroke-linejoin:miter;stroke-opacity:1" d="M 93.8034,92.0192 87.8561,92.0192 z" id="boundary" inkscape:connector-curvature="0" />
	<path style="fill:none;stroke:red;stroke-width:1px;stroke-linecap:butt;stroke-linejoin:miter;stroke-opacity:1" d="M 7.56835,104.508 4,110.456 z" id="boundary" inkscape:connector-curvature="0" />
	<path style="fill:none;stroke:red;stroke-width:1px;stroke-linecap:butt;stroke-linejoin:miter;stroke-opacity:1" d="M 99.7506,92.6139 93.8034,92.0192 z" id="boundary" inkscape:connector-curvature="0" />
	<path style="fill:none;stroke:red;stroke-width:1px;stroke-linecap:butt;stroke-linejoin:miter;stroke-opacity:1" d="M 99.7506,92.6139 105.698,92.6139 z" id="boundary" inkscape:connector-curvature="0" />
	<path style="fill:none;stroke:red;stroke-width:1px;stroke-linecap:butt;stroke-linejoin:miter;stroke-opacity:1" d="M 105.698,92.6139 111.645,92.6139 z" id="boundary" inkscape:connector-curvature="0" />
	<path style="fill:none;stroke:red;stroke-width:1px;stroke-linecap:butt;stroke-linejoin:miter;stroke-opacity:1" d="M 117.592,93.2086 111.645,92.6139 z" id="boundary" inkscape:connector-curvature="0" />
	<path style="fill:none;stroke:red;stroke-width:1px;stroke-linecap:butt;stroke-linejoin:miter;stroke-opacity:1" d="M 123.54,93.2086 129.487,93.2086 z" id="boundary" inkscape:connector-curvature="0" />
	<path style="fill:none;stroke:red;stroke-width:1px;stroke-linecap:butt;stroke-linejoin:miter;stroke-opacity:1" d="M 123.54,93.2086 117.592,93.2086 z" id="boundary" inkscape:connector-curvature="0" />
	<path style="fill:none;stroke:red;stroke-width:1px;stroke-linecap:butt;stroke-linejoin:miter;stroke-opacity:1" d="M 135.434,93.2086 141.381,93.2086 z" id="boundary" inkscape:connector-curvature="0" />
	<path style="fill:none;stroke:red;stroke-width:1px;stroke-linecap:butt;stroke-linejoin:miter;stroke-opacity:1" d="M 135.434,93.2086 129.487,93.2086 z" id="boundary" inkscape:connector-curvature="0" />
	<path style="fill:none;stroke:red;stroke-width:1px;stroke-linecap:butt;stroke-linejoin:miter;stroke-opacity:1" d="M 147.329,93.8034 153.276,93.8034 z" id="boundary" inkscape:connector-curvature="0" />
	<path style="fill:none;stroke:red;stroke-width:1px;stroke-linecap:butt;stroke-linejoin:miter;stroke-opacity:1" d="M 147.329,93.8034 141.381,93.2086 z" id="boundary" inkscape:connector-curvature="0" />
	<path style="fill:none;stroke:red;stroke-width:1px;stroke-linecap:butt;stroke-linejoin:miter;stroke-opacity:1" d="M 159.223,93.8034 165.17,93.8034 z" id="boundary" inkscape:connector-curvature="0" />
	<path style="fill:none;stroke:red;stroke-width:1px;stroke-linecap:butt;stroke-linejoin:miter;stroke-opacity:1" d="M 159.223,93.8034 153.276,93.8034 z" id="boundary" inkscape:connector-curvature="0" />
	<path style="fill:none;stroke:red;stroke-width:1px;stroke-linecap:butt;stroke-linejoin:miter;stroke-opacity:1" d="M 165.17,93.8034 171.118,93.8034 z" id="boundary" inkscape:connector-curvature="0" />
	<path style="fill:none;stroke:red;stroke-width:1px;stroke-linecap:butt;stroke-linejoin:miter;stroke-opacity:1" d="M 177.065,94.3981 171.118,93.8034 z" id="boundary" inkscape:connector-curvature="0" />
	<path style="fill:none;stroke:red;stroke-width:1px;stroke-linecap:butt;stroke-linejoin:miter;stroke-opacity:1" d="M 177.065,94.3981 183.012,94.3981 z" id="boundary" inkscape:connector-curvature="0" />
	<path style="fill:none;stroke:red;stroke-width:1px;stroke-linecap:butt;stroke-linejoin:miter;stroke-opacity:1" d="M 188.959,94.3981 183.012,94.3981 z" id="boundary" inkscape:connector-curvature="0" />
	<path style="fill:none;stroke:red;stroke-width:1px;stroke-linecap:butt;stroke-linejoin:miter;stroke-opacity:1" d="M 5.18945,116.403 4,110.456 z" id="boundary" inkscape:connector-curvature="0" />
	<path style="fill:none;stroke:red;stroke-width:1px;stroke-linecap:butt;stroke-linejoin:miter;stroke-opacity:1" d="M 194.906,94.3981 188.959,94.3981 z" id="boundary" inkscape:connector-curvature="0" />
	<path style="fill:none;stroke:red;stroke-width:1px;stroke-linecap:butt;stroke-linejoin:miter;stroke-opacity:1" d="M 492.269,93.8034 486.321,94.3981 z" id="boundary" inkscape:connector-curvature="0" />
	<path style="fill:none;stroke:red;stroke-width:1px;stroke-linecap:butt;stroke-linejoin:miter;stroke-opacity:1" d="M 200.854,94.9928 194.906,94.3981 z" id="boundary" inkscape:connector-curvature="0" />
	<path style="fill:none;stroke:red;stroke-width:1px;stroke-linecap:butt;stroke-linejoin:miter;stroke-opacity:1" d="M 206.801,94.9928 200.854,94.9928 z" id="boundary" inkscape:connector-curvature="0" />
	<path style="fill:none;stroke:red;stroke-width:1px;stroke-linecap:butt;stroke-linejoin:miter;stroke-opacity:1" d="M 212.748,94.9928 218.695,94.9928 z" id="boundary" inkscape:connector-curvature="0" />
	<path style="fill:none;stroke:red;stroke-width:1px;stroke-linecap:butt;stroke-linejoin:miter;stroke-opacity:1" d="M 212.748,94.9928 206.801,94.9928 z" id="boundary" inkscape:connector-curvature="0" />
	<path style="fill:none;stroke:red;stroke-width:1px;stroke-linecap:butt;stroke-linejoin:miter;stroke-opacity:1" d="M 224.643,94.9928 230.59,94.9928 z" id="boundary" inkscape:connector-curvature="0" />
	<path style="fill:none;stroke:red;stroke-width:1px;stroke-linecap:butt;stroke-linejoin:miter;stroke-opacity:1" d="M 224.643,94.9928 218.695,94.9928 z" id="boundary" inkscape:connector-curvature="0" />
	<path style="fill:none;stroke:red;stroke-width:1px;stroke-linecap:butt;stroke-linejoin:miter;stroke-opacity:1" d="M 230.59,94.9928 236.537,94.9928 z" id="boundary" inkscape:connector-curvature="0" />
	<path style="fill:none;stroke:red;stroke-width:1px;stroke-linecap:butt;stroke-linejoin:miter;stroke-opacity:1" d="M 242.484,95.5875 236.537,94.9928 z" id="boundary" inkscape:connector-curvature="0" />
	<path style="fill:none;stroke:red;stroke-width:1px;stroke-linecap:butt;stroke-linejoin:miter;stroke-opacity:1" d="M 242.484,95.5875 248.432,95.5875 z" id="boundary" inkscape:connector-curvature="0" />
	<path style="fill:none;stroke:red;stroke-width:1px;stroke-linecap:butt;stroke-linejoin:miter;stroke-opacity:1" d="M 254.379,95.5875 248.432,95.5875 z" id="boundary" inkscape:connector-curvature="0" />
	<path style="fill:none;stroke:red;stroke-width:1px;stroke-linecap:butt;stroke-linejoin:miter;stroke-opacity:1" d="M 254.379,95.5875 260.326,95.5875 z" id="boundary" inkscape:connector-curvature="0" />
	<path style="fill:none;stroke:red;stroke-width:1px;stroke-linecap:butt;stroke-linejoin:miter;stroke-opacity:1" d="M 284.115,96.1823 290.062,95.5875 z" id="boundary" inkscape:connector-curvature="0" />
	<path style="fill:none;stroke:red;stroke-width:1px;stroke-linecap:butt;stroke-linejoin:miter;stroke-opacity:1" d="M 266.273,95.5875 260.326,95.5875 z" id="boundary" inkscape:connector-curvature="0" />
	<path style="fill:none;stroke:red;stroke-width:1px;stroke-linecap:butt;stroke-linejoin:miter;stroke-opacity:1" d="M 278.168,96.1823 272.221,96.1823 z" id="boundary" inkscape:connector-curvature="0" />
	<path style="fill:none;stroke:red;stroke-width:1px;stroke-linecap:butt;stroke-linejoin:miter;stroke-opacity:1" d="M 296.01,95.5875 290.062,95.5875 z" id="boundary" inkscape:connector-curvature="0" />
	<path style="fill:none;stroke:red;stroke-width:1px;stroke-linecap:butt;stroke-linejoin:miter;stroke-opacity:1" d="M 319.799,95.5875 313.851,95.5875 z" id="boundary" inkscape:connector-curvature="0" />
	<path style="fill:none;stroke:red;stroke-width:1px;stroke-linecap:butt;stroke-linejoin:miter;stroke-opacity:1" d="M 266.273,95.5875 272.221,96.1823 z" id="boundary" inkscape:connector-curvature="0" />
	<path style="fill:none;stroke:red;stroke-width:1px;stroke-linecap:butt;stroke-linejoin:miter;stroke-opacity:1" d="M 278.168,96.1823 284.115,96.1823 z" id="boundary" inkscape:connector-curvature="0" />
	<path style="fill:none;stroke:red;stroke-width:1px;stroke-linecap:butt;stroke-linejoin:miter;stroke-opacity:1" d="M 296.01,95.5875 301.957,95.5875 z" id="boundary" inkscape:connector-curvature="0" />
	<path style="fill:none;stroke:red;stroke-width:1px;stroke-linecap:butt;stroke-linejoin:miter;stroke-opacity:1" d="M 301.957,95.5875 307.904,95.5875 z" id="boundary" inkscape:connector-curvature="0" />
	<path style="fill:none;stroke:red;stroke-width:1px;stroke-linecap:butt;stroke-linejoin:miter;stroke-opacity:1" d="M 325.746,95.5875 319.799,95.5875 z" id="boundary" inkscape:connector-curvature="0" />
	<path style="fill:none;stroke:red;stroke-width:1px;stroke-linecap:butt;stroke-linejoin:miter;stroke-opacity:1" d="M 313.851,95.5875 307.904,95.5875 z" id="boundary" inkscape:connector-curvature="0" />
	<path style="fill:none;stroke:red;stroke-width:1px;stroke-linecap:butt;stroke-linejoin:miter;stroke-opacity:1" d="M 325.746,95.5875 331.693,95.5875 z" id="boundary" inkscape:connector-curvature="0" />
	<path style="fill:none;stroke:red;stroke-width:1px;stroke-linecap:butt;stroke-linejoin:miter;stroke-opacity:1" d="M 337.64,95.5875 331.693,95.5875 z" id="boundary" inkscape:connector-curvature="0" />
	<path style="fill:none;stroke:red;stroke-width:1px;stroke-linecap:butt;stroke-linejoin:miter;stroke-opacity:1" d="M 337.64,95.5875 343.588,95.5875 z" id="boundary" inkscape:connector-curvature="0" />
	<path style="fill:none;stroke:red;stroke-width:1px;stroke-linecap:butt;stroke-linejoin:miter;stroke-opacity:1" d="M 349.535,95.5875 343.588,95.5875 z" id="boundary" inkscape:connector-curvature="0" />
	<path style="fill:none;stroke:red;stroke-width:1px;stroke-linecap:butt;stroke-linejoin:miter;stroke-opacity:1" d="M 397.113,95.5875 403.06,94.9928 z" id="boundary" inkscape:connector-curvature="0" />
	<path style="fill:none;stroke:red;stroke-width:1px;stroke-linecap:butt;stroke-linejoin:miter;stroke-opacity:1" d="M 409.007,94.9928 403.06,94.9928 z" id="boundary" inkscape:connector-curvature="0" />
	<path style="fill:none;stroke:red;stroke-width:1px;stroke-linecap:butt;stroke-linejoin:miter;stroke-opacity:1" d="M 414.954,94.9928 409.007,94.9928 z" id="boundary" inkscape:connector-curvature="0" />
	<path style="fill:none;stroke:red;stroke-width:1px;stroke-linecap:butt;stroke-linejoin:miter;stroke-opacity:1" d="M 420.902,94.9928 426.849,94.9928 z" id="boundary" inkscape:connector-curvature="0" />
	<path style="fill:none;stroke:red;stroke-width:1px;stroke-linecap:butt;stroke-linejoin:miter;stroke-opacity:1" d="M 432.796,94.9928 438.743,94.9928 z" id="boundary" inkscape:connector-curvature="0" />
	<path style="fill:none;stroke:red;stroke-width:1px;stroke-linecap:butt;stroke-linejoin:miter;stroke-opacity:1" d="M 432.796,94.9928 426.849,94.9928 z" id="boundary" inkscape:connector-curvature="0" />
	<path style="fill:none;stroke:red;stroke-width:1px;stroke-linecap:butt;stroke-linejoin:miter;stroke-opacity:1" d="M 420.902,94.9928 414.954,94.9928 z" id="boundary" inkscape:connector-curvature="0" />
	<path style="fill:none;stroke:red;stroke-width:1px;stroke-linecap:butt;stroke-linejoin:miter;stroke-opacity:1" d="M 462.532,94.9928 468.48,94.3981 z" id="boundary" inkscape:connector-curvature="0" />
	<path style="fill:none;stroke:red;stroke-width:1px;stroke-linecap:butt;stroke-linejoin:miter;stroke-opacity:1" d="M 474.427,94.3981 468.48,94.3981 z" id="boundary" inkscape:connector-curvature="0" />
	<path style="fill:none;stroke:red;stroke-width:1px;stroke-linecap:butt;stroke-linejoin:miter;stroke-opacity:1" d="M 474.427,94.3981 480.374,94.3981 z" id="boundary" inkscape:connector-curvature="0" />
	<path style="fill:none;stroke:red;stroke-width:1px;stroke-linecap:butt;stroke-linejoin:miter;stroke-opacity:1" d="M 486.321,94.3981 480.374,94.3981 z" id="boundary" inkscape:connector-curvature="0" />
	<path style="fill:none;stroke:red;stroke-width:1px;stroke-linecap:butt;stroke-linejoin:miter;stroke-opacity:1" d="M 444.691,94.9928 450.638,94.9928 z" id="boundary" inkscape:connector-curvature="0" />
	<path style="fill:none;stroke:red;stroke-width:1px;stroke-linecap:butt;stroke-linejoin:miter;stroke-opacity:1" d="M 456.585,94.9928 462.532,94.9928 z" id="boundary" inkscape:connector-curvature="0" />
	<path style="fill:none;stroke:red;stroke-width:1px;stroke-linecap:butt;stroke-linejoin:miter;stroke-opacity:1" d="M 456.585,94.9928 450.638,94.9928 z" id="boundary" inkscape:connector-curvature="0" />
	<path style="fill:none;stroke:red;stroke-width:1px;stroke-linecap:butt;stroke-linejoin:miter;stroke-opacity:1" d="M 444.691,94.9928 438.743,94.9928 z" id="boundary" inkscape:connector-curvature="0" />
	<path style="fill:none;stroke:red;stroke-width:1px;stroke-linecap:butt;stroke-linejoin:miter;stroke-opacity:1" d="M 355.482,95.5875 361.429,95.5875 z" id="boundary" inkscape:connector-curvature="0" />
	<path style="fill:none;stroke:red;stroke-width:1px;stroke-linecap:butt;stroke-linejoin:miter;stroke-opacity:1" d="M 367.376,95.5875 373.324,95.5875 z" id="boundary" inkscape:connector-curvature="0" />
	<path style="fill:none;stroke:red;stroke-width:1px;stroke-linecap:butt;stroke-linejoin:miter;stroke-opacity:1" d="M 367.376,95.5875 361.429,95.5875 z" id="boundary" inkscape:connector-curvature="0" />
	<path style="fill:none;stroke:red;stroke-width:1px;stroke-linecap:butt;stroke-linejoin:miter;stroke-opacity:1" d="M 379.271,95.5875 385.218,95.5875 z" id="boundary" inkscape:connector-curvature="0" />
	<path style="fill:none;stroke:red;stroke-width:1px;stroke-linecap:butt;stroke-linejoin:miter;stroke-opacity:1" d="M 391.165,95.5875 397.113,95.5875 z" id="boundary" inkscape:connector-curvature="0" />
	<path style="fill:none;stroke:red;stroke-width:1px;stroke-linecap:butt;stroke-linejoin:miter;stroke-opacity:1" d="M 391.165,95.5875 385.218,95.5875 z" id="boundary" inkscape:connector-curvature="0" />
	<path style="fill:none;stroke:red;stroke-width:1px;stroke-linecap:butt;stroke-linejoin:miter;stroke-opacity:1" d="M 379.271,95.5875 373.324,95.5875 z" id="boundary" inkscape:connector-curvature="0" />
	<path style="fill:none;stroke:red;stroke-width:1px;stroke-linecap:butt;stroke-linejoin:miter;stroke-opacity:1" d="M 349.535,95.5875 355.482,95.5875 z" id="boundary" inkscape:connector-curvature="0" />
	<path style="fill:none;stroke:red;stroke-width:1px;stroke-linecap:butt;stroke-linejoin:miter;stroke-opacity:1" d="M 486.916,136.624 480.969,136.624 z" id="boundary" inkscape:connector-curvature="0" />
	<path style="fill:none;stroke:red;stroke-width:1px;stroke-linecap:butt;stroke-linejoin:miter;stroke-opacity:1" d="M 8.75779,121.161 5.18945,116.403 z" id="boundary" inkscape:connector-curvature="0" />
	<path style="fill:none;stroke:red;stroke-width:1px;stroke-linecap:butt;stroke-linejoin:miter;stroke-opacity:1" d="M 12.9209,125.918 8.75779,121.161 z" id="boundary" inkscape:connector-curvature="0" />
	<path style="fill:none;stroke:red;stroke-width:1px;stroke-linecap:butt;stroke-linejoin:miter;stroke-opacity:1" d="M 12.9209,125.918 17.6787,129.487 z" id="boundary" inkscape:connector-curvature="0" />
	<path style="fill:none;stroke:red;stroke-width:1px;stroke-linecap:butt;stroke-linejoin:miter;stroke-opacity:1" d="M 23.0312,132.46 28.9784,133.055 z" id="boundary" inkscape:connector-curvature="0" />
	<path style="fill:none;stroke:red;stroke-width:1px;stroke-linecap:butt;stroke-linejoin:miter;stroke-opacity:1" d="M 23.0312,132.46 17.6787,129.487 z" id="boundary" inkscape:connector-curvature="0" />
	<path style="fill:none;stroke:red;stroke-width:1px;stroke-linecap:butt;stroke-linejoin:miter;stroke-opacity:1" d="M 34.9257,133.65 28.9784,133.055 z" id="boundary" inkscape:connector-curvature="0" />
	<path style="fill:none;stroke:red;stroke-width:1px;stroke-linecap:butt;stroke-linejoin:miter;stroke-opacity:1" d="M 34.9257,133.65 40.8729,134.245 z" id="boundary" inkscape:connector-curvature="0" />
	<path style="fill:none;stroke:red;stroke-width:1px;stroke-linecap:butt;stroke-linejoin:miter;stroke-opacity:1" d="M 46.8201,134.839 40.8729,134.245 z" id="boundary" inkscape:connector-curvature="0" />
	<path style="fill:none;stroke:red;stroke-width:1px;stroke-linecap:butt;stroke-linejoin:miter;stroke-opacity:1" d="M 64.6619,135.434 58.7146,135.434 z" id="boundary" inkscape:connector-curvature="0" />
	<path style="fill:none;stroke:red;stroke-width:1px;stroke-linecap:butt;stroke-linejoin:miter;stroke-opacity:1" d="M 94.3981,136.029 88.4508,136.624 z" id="boundary" inkscape:connector-curvature="0" />
	<path style="fill:none;stroke:red;stroke-width:1px;stroke-linecap:butt;stroke-linejoin:miter;stroke-opacity:1" d="M 46.8201,134.839 52.7674,134.839 z" id="boundary" inkscape:connector-curvature="0" />
	<path style="fill:none;stroke:red;stroke-width:1px;stroke-linecap:butt;stroke-linejoin:miter;stroke-opacity:1" d="M 58.7146,135.434 52.7674,134.839 z" id="boundary" inkscape:connector-curvature="0" />
	<path style="fill:none;stroke:red;stroke-width:1px;stroke-linecap:butt;stroke-linejoin:miter;stroke-opacity:1" d="M 159.818,137.813 153.871,137.218 z" id="boundary" inkscape:connector-curvature="0" />
	<path style="fill:none;stroke:red;stroke-width:1px;stroke-linecap:butt;stroke-linejoin:miter;stroke-opacity:1" d="M 70.6091,135.434 76.5564,135.434 z" id="boundary" inkscape:connector-curvature="0" />
	<path style="fill:none;stroke:red;stroke-width:1px;stroke-linecap:butt;stroke-linejoin:miter;stroke-opacity:1" d="M 70.6091,135.434 64.6619,135.434 z" id="boundary" inkscape:connector-curvature="0" />
	<path style="fill:none;stroke:red;stroke-width:1px;stroke-linecap:butt;stroke-linejoin:miter;stroke-opacity:1" d="M 82.5036,136.029 76.5564,135.434 z" id="boundary" inkscape:connector-curvature="0" />
	<path style="fill:none;stroke:red;stroke-width:1px;stroke-linecap:butt;stroke-linejoin:miter;stroke-opacity:1" d="M 88.4508,136.624 82.5036,136.029 z" id="boundary" inkscape:connector-curvature="0" />
	<path style="fill:none;stroke:red;stroke-width:1px;stroke-linecap:butt;stroke-linejoin:miter;stroke-opacity:1" d="M 100.345,136.624 106.293,136.624 z" id="boundary" inkscape:connector-curvature="0" />
	<path style="fill:none;stroke:red;stroke-width:1px;stroke-linecap:butt;stroke-linejoin:miter;stroke-opacity:1" d="M 100.345,136.624 94.3981,136.029 z" id="boundary" inkscape:connector-curvature="0" />
	<path style="fill:none;stroke:red;stroke-width:1px;stroke-linecap:butt;stroke-linejoin:miter;stroke-opacity:1" d="M 112.24,136.624 118.187,136.624 z" id="boundary" inkscape:connector-curvature="0" />
	<path style="fill:none;stroke:red;stroke-width:1px;stroke-linecap:butt;stroke-linejoin:miter;stroke-opacity:1" d="M 112.24,136.624 106.293,136.624 z" id="boundary" inkscape:connector-curvature="0" />
	<path style="fill:none;stroke:red;stroke-width:1px;stroke-linecap:butt;stroke-linejoin:miter;stroke-opacity:1" d="M 124.134,136.624 130.082,136.624 z" id="boundary" inkscape:connector-curvature="0" />
	<path style="fill:none;stroke:red;stroke-width:1px;stroke-linecap:butt;stroke-linejoin:miter;stroke-opacity:1" d="M 124.134,136.624 118.187,136.624 z" id="boundary" inkscape:connector-curvature="0" />
	<path style="fill:none;stroke:red;stroke-width:1px;stroke-linecap:butt;stroke-linejoin:miter;stroke-opacity:1" d="M 130.082,136.624 136.029,136.624 z" id="boundary" inkscape:connector-curvature="0" />
	<path style="fill:none;stroke:red;stroke-width:1px;stroke-linecap:butt;stroke-linejoin:miter;stroke-opacity:1" d="M 141.976,137.218 136.029,136.624 z" id="boundary" inkscape:connector-curvature="0" />
	<path style="fill:none;stroke:red;stroke-width:1px;stroke-linecap:butt;stroke-linejoin:miter;stroke-opacity:1" d="M 147.923,137.218 153.871,137.218 z" id="boundary" inkscape:connector-curvature="0" />
	<path style="fill:none;stroke:red;stroke-width:1px;stroke-linecap:butt;stroke-linejoin:miter;stroke-opacity:1" d="M 147.923,137.218 141.976,137.218 z" id="boundary" inkscape:connector-curvature="0" />
	<path style="fill:none;stroke:red;stroke-width:1px;stroke-linecap:butt;stroke-linejoin:miter;stroke-opacity:1" d="M 243.079,137.813 237.132,137.218 z" id="boundary" inkscape:connector-curvature="0" />
	<path style="fill:none;stroke:red;stroke-width:1px;stroke-linecap:butt;stroke-linejoin:miter;stroke-opacity:1" d="M 231.185,137.218 237.132,137.218 z" id="boundary" inkscape:connector-curvature="0" />
	<path style="fill:none;stroke:red;stroke-width:1px;stroke-linecap:butt;stroke-linejoin:miter;stroke-opacity:1" d="M 231.185,137.218 225.237,138.408 z" id="boundary" inkscape:connector-curvature="0" />
	<path style="fill:none;stroke:red;stroke-width:1px;stroke-linecap:butt;stroke-linejoin:miter;stroke-opacity:1" d="M 159.818,137.813 165.765,137.813 z" id="boundary" inkscape:connector-curvature="0" />
	<path style="fill:none;stroke:red;stroke-width:1px;stroke-linecap:butt;stroke-linejoin:miter;stroke-opacity:1" d="M 177.659,137.813 171.712,137.813 z" id="boundary" inkscape:connector-curvature="0" />
	<path style="fill:none;stroke:red;stroke-width:1px;stroke-linecap:butt;stroke-linejoin:miter;stroke-opacity:1" d="M 171.712,137.813 165.765,137.813 z" id="boundary" inkscape:connector-curvature="0" />
	<path style="fill:none;stroke:red;stroke-width:1px;stroke-linecap:butt;stroke-linejoin:miter;stroke-opacity:1" d="M 183.607,137.813 177.659,137.813 z" id="boundary" inkscape:connector-curvature="0" />
	<path style="fill:none;stroke:red;stroke-width:1px;stroke-linecap:butt;stroke-linejoin:miter;stroke-opacity:1" d="M 189.554,137.813 195.501,137.813 z" id="boundary" inkscape:connector-curvature="0" />
	<path style="fill:none;stroke:red;stroke-width:1px;stroke-linecap:butt;stroke-linejoin:miter;stroke-opacity:1" d="M 201.448,138.408 195.501,137.813 z" id="boundary" inkscape:connector-curvature="0" />
	<path style="fill:none;stroke:red;stroke-width:1px;stroke-linecap:butt;stroke-linejoin:miter;stroke-opacity:1" d="M 207.396,138.408 213.343,138.408 z" id="boundary" inkscape:connector-curvature="0" />
	<path style="fill:none;stroke:red;stroke-width:1px;stroke-linecap:butt;stroke-linejoin:miter;stroke-opacity:1" d="M 207.396,138.408 201.448,138.408 z" id="boundary" inkscape:connector-curvature="0" />
	<path style="fill:none;stroke:red;stroke-width:1px;stroke-linecap:butt;stroke-linejoin:miter;stroke-opacity:1" d="M 219.29,138.408 225.237,138.408 z" id="boundary" inkscape:connector-curvature="0" />
	<path style="fill:none;stroke:red;stroke-width:1px;stroke-linecap:butt;stroke-linejoin:miter;stroke-opacity:1" d="M 213.343,138.408 219.29,138.408 z" id="boundary" inkscape:connector-curvature="0" />
	<path style="fill:none;stroke:red;stroke-width:1px;stroke-linecap:butt;stroke-linejoin:miter;stroke-opacity:1" d="M 249.026,138.408 243.079,137.813 z" id="boundary" inkscape:connector-curvature="0" />
	<path style="fill:none;stroke:red;stroke-width:1px;stroke-linecap:butt;stroke-linejoin:miter;stroke-opacity:1" d="M 260.921,138.408 254.974,138.408 z" id="boundary" inkscape:connector-curvature="0" />
	<path style="fill:none;stroke:red;stroke-width:1px;stroke-linecap:butt;stroke-linejoin:miter;stroke-opacity:1" d="M 284.71,137.813 278.763,137.813 z" id="boundary" inkscape:connector-curvature="0" />
	<path style="fill:none;stroke:red;stroke-width:1px;stroke-linecap:butt;stroke-linejoin:miter;stroke-opacity:1" d="M 278.763,137.813 272.815,138.408 z" id="boundary" inkscape:connector-curvature="0" />
	<path style="fill:none;stroke:red;stroke-width:1px;stroke-linecap:butt;stroke-linejoin:miter;stroke-opacity:1" d="M 254.974,138.408 249.026,138.408 z" id="boundary" inkscape:connector-curvature="0" />
	<path style="fill:none;stroke:red;stroke-width:1px;stroke-linecap:butt;stroke-linejoin:miter;stroke-opacity:1" d="M 266.868,138.408 272.815,138.408 z" id="boundary" inkscape:connector-curvature="0" />
	<path style="fill:none;stroke:red;stroke-width:1px;stroke-linecap:butt;stroke-linejoin:miter;stroke-opacity:1" d="M 266.868,138.408 260.921,138.408 z" id="boundary" inkscape:connector-curvature="0" />
	<path style="fill:none;stroke:red;stroke-width:1px;stroke-linecap:butt;stroke-linejoin:miter;stroke-opacity:1" d="M 284.71,137.813 290.657,138.408 z" id="boundary" inkscape:connector-curvature="0" />
	<path style="fill:none;stroke:red;stroke-width:1px;stroke-linecap:butt;stroke-linejoin:miter;stroke-opacity:1" d="M 183.607,137.813 189.554,137.813 z" id="boundary" inkscape:connector-curvature="0" />
	<path style="fill:none;stroke:red;stroke-width:1px;stroke-linecap:butt;stroke-linejoin:miter;stroke-opacity:1" d="M 463.127,137.218 469.074,137.218 z" id="boundary" inkscape:connector-curvature="0" />
	<path style="fill:none;stroke:red;stroke-width:1px;stroke-linecap:butt;stroke-linejoin:miter;stroke-opacity:1" d="M 475.022,137.218 480.969,136.624 z" id="boundary" inkscape:connector-curvature="0" />
	<path style="fill:none;stroke:red;stroke-width:1px;stroke-linecap:butt;stroke-linejoin:miter;stroke-opacity:1" d="M 469.074,137.218 475.022,137.218 z" id="boundary" inkscape:connector-curvature="0" />
	<path style="fill:none;stroke:red;stroke-width:1px;stroke-linecap:butt;stroke-linejoin:miter;stroke-opacity:1" d="M 463.127,137.218 457.18,137.813 z" id="boundary" inkscape:connector-curvature="0" />
	<path style="fill:none;stroke:red;stroke-width:1px;stroke-linecap:butt;stroke-linejoin:miter;stroke-opacity:1" d="M 296.604,138.408 290.657,138.408 z" id="boundary" inkscape:connector-curvature="0" />
	<path style="fill:none;stroke:red;stroke-width:1px;stroke-linecap:butt;stroke-linejoin:miter;stroke-opacity:1" d="M 302.552,138.408 296.604,138.408 z" id="boundary" inkscape:connector-curvature="0" />
	<path style="fill:none;stroke:red;stroke-width:1px;stroke-linecap:butt;stroke-linejoin:miter;stroke-opacity:1" d="M 308.499,138.408 314.446,138.408 z" id="boundary" inkscape:connector-curvature="0" />
	<path style="fill:none;stroke:red;stroke-width:1px;stroke-linecap:butt;stroke-linejoin:miter;stroke-opacity:1" d="M 320.393,138.408 326.341,138.408 z" id="boundary" inkscape:connector-curvature="0" />
	<path style="fill:none;stroke:red;stroke-width:1px;stroke-linecap:butt;stroke-linejoin:miter;stroke-opacity:1" d="M 320.393,138.408 314.446,138.408 z" id="boundary" inkscape:connector-curvature="0" />
	<path style="fill:none;stroke:red;stroke-width:1px;stroke-linecap:butt;stroke-linejoin:miter;stroke-opacity:1" d="M 308.499,138.408 302.552,138.408 z" id="boundary" inkscape:connector-curvature="0" />
	<path style="fill:none;stroke:red;stroke-width:1px;stroke-linecap:butt;stroke-linejoin:miter;stroke-opacity:1" d="M 338.235,138.408 332.288,138.408 z" id="boundary" inkscape:connector-curvature="0" />
	<path style="fill:none;stroke:red;stroke-width:1px;stroke-linecap:butt;stroke-linejoin:miter;stroke-opacity:1" d="M 338.235,138.408 344.182,138.408 z" id="boundary" inkscape:connector-curvature="0" />
	<path style="fill:none;stroke:red;stroke-width:1px;stroke-linecap:butt;stroke-linejoin:miter;stroke-opacity:1" d="M 350.129,138.408 344.182,138.408 z" id="boundary" inkscape:connector-curvature="0" />
	<path style="fill:none;stroke:red;stroke-width:1px;stroke-linecap:butt;stroke-linejoin:miter;stroke-opacity:1" d="M 350.129,138.408 356.077,138.408 z" id="boundary" inkscape:connector-curvature="0" />
	<path style="fill:none;stroke:red;stroke-width:1px;stroke-linecap:butt;stroke-linejoin:miter;stroke-opacity:1" d="M 362.024,138.408 356.077,138.408 z" id="boundary" inkscape:connector-curvature="0" />
	<path style="fill:none;stroke:red;stroke-width:1px;stroke-linecap:butt;stroke-linejoin:miter;stroke-opacity:1" d="M 362.024,138.408 367.971,138.408 z" id="boundary" inkscape:connector-curvature="0" />
	<path style="fill:none;stroke:red;stroke-width:1px;stroke-linecap:butt;stroke-linejoin:miter;stroke-opacity:1" d="M 373.918,138.408 367.971,138.408 z" id="boundary" inkscape:connector-curvature="0" />
	<path style="fill:none;stroke:red;stroke-width:1px;stroke-linecap:butt;stroke-linejoin:miter;stroke-opacity:1" d="M 332.288,138.408 326.341,138.408 z" id="boundary" inkscape:connector-curvature="0" />
	<path style="fill:none;stroke:red;stroke-width:1px;stroke-linecap:butt;stroke-linejoin:miter;stroke-opacity:1" d="M 385.813,139.002 379.866,138.408 z" id="boundary" inkscape:connector-curvature="0" />
	<path style="fill:none;stroke:red;stroke-width:1px;stroke-linecap:butt;stroke-linejoin:miter;stroke-opacity:1" d="M 391.76,138.408 385.813,139.002 z" id="boundary" inkscape:connector-curvature="0" />
	<path style="fill:none;stroke:red;stroke-width:1px;stroke-linecap:butt;stroke-linejoin:miter;stroke-opacity:1" d="M 397.707,138.408 391.76,138.408 z" id="boundary" inkscape:connector-curvature="0" />
	<path style="fill:none;stroke:red;stroke-width:1px;stroke-linecap:butt;stroke-linejoin:miter;stroke-opacity:1" d="M 397.707,138.408 403.655,138.408 z" id="boundary" inkscape:connector-curvature="0" />
	<path style="fill:none;stroke:red;stroke-width:1px;stroke-linecap:butt;stroke-linejoin:miter;stroke-opacity:1" d="M 403.655,138.408 409.602,138.408 z" id="boundary" inkscape:connector-curvature="0" />
	<path style="fill:none;stroke:red;stroke-width:1px;stroke-linecap:butt;stroke-linejoin:miter;stroke-opacity:1" d="M 415.549,138.408 409.602,138.408 z" id="boundary" inkscape:connector-curvature="0" />
	<path style="fill:none;stroke:red;stroke-width:1px;stroke-linecap:butt;stroke-linejoin:miter;stroke-opacity:1" d="M 433.391,137.813 439.338,137.813 z" id="boundary" inkscape:connector-curvature="0" />
	<path style="fill:none;stroke:red;stroke-width:1px;stroke-linecap:butt;stroke-linejoin:miter;stroke-opacity:1" d="M 445.285,137.813 451.233,137.813 z" id="boundary" inkscape:connector-curvature="0" />
	<path style="fill:none;stroke:red;stroke-width:1px;stroke-linecap:butt;stroke-linejoin:miter;stroke-opacity:1" d="M 445.285,137.813 439.338,137.813 z" id="boundary" inkscape:connector-curvature="0" />
	<path style="fill:none;stroke:red;stroke-width:1px;stroke-linecap:butt;stroke-linejoin:miter;stroke-opacity:1" d="M 421.496,138.408 427.444,138.408 z" id="boundary" inkscape:connector-curvature="0" />
	<path style="fill:none;stroke:red;stroke-width:1px;stroke-linecap:butt;stroke-linejoin:miter;stroke-opacity:1" d="M 427.444,138.408 433.391,137.813 z" id="boundary" inkscape:connector-curvature="0" />
	<path style="fill:none;stroke:red;stroke-width:1px;stroke-linecap:butt;stroke-linejoin:miter;stroke-opacity:1" d="M 451.233,137.813 457.18,137.813 z" id="boundary" inkscape:connector-curvature="0" />
	<path style="fill:none;stroke:red;stroke-width:1px;stroke-linecap:butt;stroke-linejoin:miter;stroke-opacity:1" d="M 415.549,138.408 421.496,138.408 z" id="boundary" inkscape:connector-curvature="0" />
	<path style="fill:none;stroke:red;stroke-width:1px;stroke-linecap:butt;stroke-linejoin:miter;stroke-opacity:1" d="M 379.866,138.408 373.918,138.408 z" id="boundary" inkscape:connector-curvature="0" />
	<path style="fill:none;stroke:red;stroke-width:1px;stroke-linecap:butt;stroke-linejoin:miter;stroke-opacity:1" d="M 764.652,23.0312 770.6,20.6523 z" id="boundary" inkscape:connector-curvature="0" />
	<path style="fill:none;stroke:red;stroke-width:1px;stroke-linecap:butt;stroke-linejoin:miter;stroke-opacity:1" d="M 788.441,14.705 782.494,16.4892 z" id="boundary" inkscape:connector-curvature="0" />
	<path style="fill:none;stroke:red;stroke-width:1px;stroke-linecap:butt;stroke-linejoin:miter;stroke-opacity:1" d="M 782.494,16.4892 776.547,18.2734 z" id="boundary" inkscape:connector-curvature="0" />
	<path style="fill:none;stroke:red;stroke-width:1px;stroke-linecap:butt;stroke-linejoin:miter;stroke-opacity:1" d="M 753.353,28.3837 758.705,25.4101 z" id="boundary" inkscape:connector-curvature="0" />
	<path style="fill:none;stroke:red;stroke-width:1px;stroke-linecap:butt;stroke-linejoin:miter;stroke-opacity:1" d="M 764.652,23.0312 758.705,25.4101 z" id="boundary" inkscape:connector-curvature="0" />
	<path style="fill:none;stroke:red;stroke-width:1px;stroke-linecap:butt;stroke-linejoin:miter;stroke-opacity:1" d="M 770.6,20.6523 776.547,18.2734 z" id="boundary" inkscape:connector-curvature="0" />
	<path style="fill:none;stroke:red;stroke-width:1px;stroke-linecap:butt;stroke-linejoin:miter;stroke-opacity:1" d="M 715.885,50.3885 710.532,53.9568 z" id="boundary" inkscape:connector-curvature="0" />
	<path style="fill:none;stroke:red;stroke-width:1px;stroke-linecap:butt;stroke-linejoin:miter;stroke-opacity:1" d="M 705.775,57.5252 710.532,53.9568 z" id="boundary" inkscape:connector-curvature="0" />
	<path style="fill:none;stroke:red;stroke-width:1px;stroke-linecap:butt;stroke-linejoin:miter;stroke-opacity:1" d="M 731.348,40.2782 736.7,36.7098 z" id="boundary" inkscape:connector-curvature="0" />
	<path style="fill:none;stroke:red;stroke-width:1px;stroke-linecap:butt;stroke-linejoin:miter;stroke-opacity:1" d="M 742.053,33.7362 747.405,30.7626 z" id="boundary" inkscape:connector-curvature="0" />
	<path style="fill:none;stroke:red;stroke-width:1px;stroke-linecap:butt;stroke-linejoin:miter;stroke-opacity:1" d="M 742.053,33.7362 736.7,36.7098 z" id="boundary" inkscape:connector-curvature="0" />
	<path style="fill:none;stroke:red;stroke-width:1px;stroke-linecap:butt;stroke-linejoin:miter;stroke-opacity:1" d="M 715.885,50.3885 720.643,46.8201 z" id="boundary" inkscape:connector-curvature="0" />
	<path style="fill:none;stroke:red;stroke-width:1px;stroke-linecap:butt;stroke-linejoin:miter;stroke-opacity:1" d="M 720.643,46.8201 725.995,43.2518 z" id="boundary" inkscape:connector-curvature="0" />
	<path style="fill:none;stroke:red;stroke-width:1px;stroke-linecap:butt;stroke-linejoin:miter;stroke-opacity:1" d="M 747.405,30.7626 753.353,28.3837 z" id="boundary" inkscape:connector-curvature="0" />
	<path style="fill:none;stroke:red;stroke-width:1px;stroke-linecap:butt;stroke-linejoin:miter;stroke-opacity:1" d="M 725.995,43.2518 731.348,40.2782 z" id="boundary" inkscape:connector-curvature="0" />
	<path style="fill:none;stroke:red;stroke-width:1px;stroke-linecap:butt;stroke-linejoin:miter;stroke-opacity:1" d="M 705.775,57.5252 701.017,61.6882 z" id="boundary" inkscape:connector-curvature="0" />
	<path style="fill:none;stroke:red;stroke-width:1px;stroke-linecap:butt;stroke-linejoin:miter;stroke-opacity:1" d="M 605.266,90.235 611.213,89.6403 z" id="boundary" inkscape:connector-curvature="0" />
	<path style="fill:none;stroke:red;stroke-width:1px;stroke-linecap:butt;stroke-linejoin:miter;stroke-opacity:1" d="M 629.055,89.0456 623.108,89.6403 z" id="boundary" inkscape:connector-curvature="0" />
	<path style="fill:none;stroke:red;stroke-width:1px;stroke-linecap:butt;stroke-linejoin:miter;stroke-opacity:1" d="M 623.108,89.6403 617.161,89.6403 z" id="boundary" inkscape:connector-curvature="0" />
	<path style="fill:none;stroke:red;stroke-width:1px;stroke-linecap:butt;stroke-linejoin:miter;stroke-opacity:1" d="M 611.213,89.6403 617.161,89.6403 z" id="boundary" inkscape:connector-curvature="0" />
	<path style="fill:none;stroke:red;stroke-width:1px;stroke-linecap:butt;stroke-linejoin:miter;stroke-opacity:1" d="M 587.424,90.8297 581.477,90.8297 z" id="boundary" inkscape:connector-curvature="0" />
	<path style="fill:none;stroke:red;stroke-width:1px;stroke-linecap:butt;stroke-linejoin:miter;stroke-opacity:1" d="M 587.424,90.8297 593.372,90.235 z" id="boundary" inkscape:connector-curvature="0" />
	<path style="fill:none;stroke:red;stroke-width:1px;stroke-linecap:butt;stroke-linejoin:miter;stroke-opacity:1" d="M 605.266,90.235 599.319,90.235 z" id="boundary" inkscape:connector-curvature="0" />
	<path style="fill:none;stroke:red;stroke-width:1px;stroke-linecap:butt;stroke-linejoin:miter;stroke-opacity:1" d="M 599.319,90.235 593.372,90.235 z" id="boundary" inkscape:connector-curvature="0" />
	<path style="fill:none;stroke:red;stroke-width:1px;stroke-linecap:butt;stroke-linejoin:miter;stroke-opacity:1" d="M 652.844,87.2614 658.791,86.0719 z" id="boundary" inkscape:connector-curvature="0" />
	<path style="fill:none;stroke:red;stroke-width:1px;stroke-linecap:butt;stroke-linejoin:miter;stroke-opacity:1" d="M 664.739,84.2878 670.686,82.5036 z" id="boundary" inkscape:connector-curvature="0" />
	<path style="fill:none;stroke:red;stroke-width:1px;stroke-linecap:butt;stroke-linejoin:miter;stroke-opacity:1" d="M 652.844,87.2614 646.897,87.8561 z" id="boundary" inkscape:connector-curvature="0" />
	<path style="fill:none;stroke:red;stroke-width:1px;stroke-linecap:butt;stroke-linejoin:miter;stroke-opacity:1" d="M 658.791,86.0719 664.739,84.2878 z" id="boundary" inkscape:connector-curvature="0" />
	<path style="fill:none;stroke:red;stroke-width:1px;stroke-linecap:butt;stroke-linejoin:miter;stroke-opacity:1" d="M 635.002,89.0456 629.055,89.0456 z" id="boundary" inkscape:connector-curvature="0" />
	<path style="fill:none;stroke:red;stroke-width:1px;stroke-linecap:butt;stroke-linejoin:miter;stroke-opacity:1" d="M 640.95,88.4508 646.897,87.8561 z" id="boundary" inkscape:connector-curvature="0" />
	<path style="fill:none;stroke:red;stroke-width:1px;stroke-linecap:butt;stroke-linejoin:miter;stroke-opacity:1" d="M 635.002,89.0456 640.95,88.4508 z" id="boundary" inkscape:connector-curvature="0" />
	<path style="fill:none;stroke:red;stroke-width:1px;stroke-linecap:butt;stroke-linejoin:miter;stroke-opacity:1" d="M 498.216,93.8034 504.163,93.2086 z" id="boundary" inkscape:connector-curvature="0" />
	<path style="fill:none;stroke:red;stroke-width:1px;stroke-linecap:butt;stroke-linejoin:miter;stroke-opacity:1" d="M 510.11,93.2086 504.163,93.2086 z" id="boundary" inkscape:connector-curvature="0" />
	<path style="fill:none;stroke:red;stroke-width:1px;stroke-linecap:butt;stroke-linejoin:miter;stroke-opacity:1" d="M 522.005,93.2086 516.058,93.2086 z" id="boundary" inkscape:connector-curvature="0" />
	<path style="fill:none;stroke:red;stroke-width:1px;stroke-linecap:butt;stroke-linejoin:miter;stroke-opacity:1" d="M 516.058,93.2086 510.11,93.2086 z" id="boundary" inkscape:connector-curvature="0" />
	<path style="fill:none;stroke:red;stroke-width:1px;stroke-linecap:butt;stroke-linejoin:miter;stroke-opacity:1" d="M 545.794,92.0192 539.847,92.6139 z" id="boundary" inkscape:connector-curvature="0" />
	<path style="fill:none;stroke:red;stroke-width:1px;stroke-linecap:butt;stroke-linejoin:miter;stroke-opacity:1" d="M 492.269,93.8034 498.216,93.8034 z" id="boundary" inkscape:connector-curvature="0" />
	<path style="fill:none;stroke:red;stroke-width:1px;stroke-linecap:butt;stroke-linejoin:miter;stroke-opacity:1" d="M 527.952,93.2086 522.005,93.2086 z" id="boundary" inkscape:connector-curvature="0" />
	<path style="fill:none;stroke:red;stroke-width:1px;stroke-linecap:butt;stroke-linejoin:miter;stroke-opacity:1" d="M 527.952,93.2086 533.899,92.6139 z" id="boundary" inkscape:connector-curvature="0" />
	<path style="fill:none;stroke:red;stroke-width:1px;stroke-linecap:butt;stroke-linejoin:miter;stroke-opacity:1" d="M 551.741,92.0192 557.688,91.4245 z" id="boundary" inkscape:connector-curvature="0" />
	<path style="fill:none;stroke:red;stroke-width:1px;stroke-linecap:butt;stroke-linejoin:miter;stroke-opacity:1" d="M 581.477,90.8297 575.53,91.4245 z" id="boundary" inkscape:connector-curvature="0" />
	<path style="fill:none;stroke:red;stroke-width:1px;stroke-linecap:butt;stroke-linejoin:miter;stroke-opacity:1" d="M 575.53,91.4245 569.583,91.4245 z" id="boundary" inkscape:connector-curvature="0" />
	<path style="fill:none;stroke:red;stroke-width:1px;stroke-linecap:butt;stroke-linejoin:miter;stroke-opacity:1" d="M 569.583,91.4245 563.635,91.4245 z" id="boundary" inkscape:connector-curvature="0" />
	<path style="fill:none;stroke:red;stroke-width:1px;stroke-linecap:butt;stroke-linejoin:miter;stroke-opacity:1" d="M 557.688,91.4245 563.635,91.4245 z" id="boundary" inkscape:connector-curvature="0" />
	<path style="fill:none;stroke:red;stroke-width:1px;stroke-linecap:butt;stroke-linejoin:miter;stroke-opacity:1" d="M 539.847,92.6139 533.899,92.6139 z" id="boundary" inkscape:connector-curvature="0" />
	<path style="fill:none;stroke:red;stroke-width:1px;stroke-linecap:butt;stroke-linejoin:miter;stroke-opacity:1" d="M 545.794,92.0192 551.741,92.0192 z" id="boundary" inkscape:connector-curvature="0" />
	<path style="fill:none;stroke:red;stroke-width:1px;stroke-linecap:butt;stroke-linejoin:miter;stroke-opacity:1" d="M 691.501,69.4197 696.259,65.2566 z" id="boundary" inkscape:connector-curvature="0" />
	<path style="fill:none;stroke:red;stroke-width:1px;stroke-linecap:butt;stroke-linejoin:miter;stroke-opacity:1" d="M 686.743,73.5827 681.986,77.1511 z" id="boundary" inkscape:connector-curvature="0" />
	<path style="fill:none;stroke:red;stroke-width:1px;stroke-linecap:butt;stroke-linejoin:miter;stroke-opacity:1" d="M 696.259,65.2566 701.017,61.6882 z" id="boundary" inkscape:connector-curvature="0" />
	<path style="fill:none;stroke:red;stroke-width:1px;stroke-linecap:butt;stroke-linejoin:miter;stroke-opacity:1" d="M 676.633,80.1247 681.986,77.1511 z" id="boundary" inkscape:connector-curvature="0" />
	<path style="fill:none;stroke:red;stroke-width:1px;stroke-linecap:butt;stroke-linejoin:miter;stroke-opacity:1" d="M 686.743,73.5827 691.501,69.4197 z" id="boundary" inkscape:connector-curvature="0" />
	<path style="fill:none;stroke:red;stroke-width:1px;stroke-linecap:butt;stroke-linejoin:miter;stroke-opacity:1" d="M 676.633,80.1247 670.686,82.5036 z" id="boundary" inkscape:connector-curvature="0" />
	<path style="fill:none;stroke:red;stroke-width:1px;stroke-linecap:butt;stroke-linejoin:miter;stroke-opacity:1" d="M 788.441,14.705 794.388,12.9209 z" id="boundary" inkscape:connector-curvature="0" />
	<path style="fill:none;stroke:red;stroke-width:1px;stroke-linecap:butt;stroke-linejoin:miter;stroke-opacity:1" d="M 847.914,4 841.966,4.59472 z" id="boundary" inkscape:connector-curvature="0" />
	<path style="fill:none;stroke:red;stroke-width:1px;stroke-linecap:butt;stroke-linejoin:miter;stroke-opacity:1" d="M 824.125,5.78417 830.072,5.18945 z" id="boundary" inkscape:connector-curvature="0" />
	<path style="fill:none;stroke:red;stroke-width:1px;stroke-linecap:butt;stroke-linejoin:miter;stroke-opacity:1" d="M 830.072,5.18945 836.019,4.59472 z" id="boundary" inkscape:connector-curvature="0" />
	<path style="fill:none;stroke:red;stroke-width:1px;stroke-linecap:butt;stroke-linejoin:miter;stroke-opacity:1" d="M 841.966,4.59472 836.019,4.59472 z" id="boundary" inkscape:connector-curvature="0" />
	<path style="fill:none;stroke:red;stroke-width:1px;stroke-linecap:butt;stroke-linejoin:miter;stroke-opacity:1" d="M 824.125,5.78417 818.177,6.97362 z" id="boundary" inkscape:connector-curvature="0" />
	<path style="fill:none;stroke:red;stroke-width:1px;stroke-linecap:butt;stroke-linejoin:miter;stroke-opacity:1" d="M 847.914,4 853.861,4 z" id="boundary" inkscape:connector-curvature="0" />
	<path style="fill:none;stroke:red;stroke-width:1px;stroke-linecap:butt;stroke-linejoin:miter;stroke-opacity:1" d="M 859.808,4.59472 853.861,4 z" id="boundary" inkscape:connector-curvature="0" />
	<path style="fill:none;stroke:red;stroke-width:1px;stroke-linecap:butt;stroke-linejoin:miter;stroke-opacity:1" d="M 865.755,4.59472 859.808,4.59472 z" id="boundary" inkscape:connector-curvature="0" />
	<path style="fill:none;stroke:red;stroke-width:1px;stroke-linecap:butt;stroke-linejoin:miter;stroke-opacity:1" d="M 871.703,5.18945 865.755,4.59472 z" id="boundary" inkscape:connector-curvature="0" />
	<path style="fill:none;stroke:red;stroke-width:1px;stroke-linecap:butt;stroke-linejoin:miter;stroke-opacity:1" d="M 871.703,5.18945 877.65,5.18945 z" id="boundary" inkscape:connector-curvature="0" />
	<path style="fill:none;stroke:red;stroke-width:1px;stroke-linecap:butt;stroke-linejoin:miter;stroke-opacity:1" d="M 883.597,5.78417 877.65,5.18945 z" id="boundary" inkscape:connector-curvature="0" />
	<path style="fill:none;stroke:red;stroke-width:1px;stroke-linecap:butt;stroke-linejoin:miter;stroke-opacity:1" d="M 889.544,6.3789 883.597,5.78417 z" id="boundary" inkscape:connector-curvature="0" />
	<path style="fill:none;stroke:red;stroke-width:1px;stroke-linecap:butt;stroke-linejoin:miter;stroke-opacity:1" d="M 800.336,11.1367 806.283,9.94724 z" id="boundary" inkscape:connector-curvature="0" />
	<path style="fill:none;stroke:red;stroke-width:1px;stroke-linecap:butt;stroke-linejoin:miter;stroke-opacity:1" d="M 812.23,8.75779 818.177,6.97362 z" id="boundary" inkscape:connector-curvature="0" />
	<path style="fill:none;stroke:red;stroke-width:1px;stroke-linecap:butt;stroke-linejoin:miter;stroke-opacity:1" d="M 812.23,8.75779 806.283,9.94724 z" id="boundary" inkscape:connector-curvature="0" />
	<path style="fill:none;stroke:red;stroke-width:1px;stroke-linecap:butt;stroke-linejoin:miter;stroke-opacity:1" d="M 794.388,12.9209 800.336,11.1367 z" id="boundary" inkscape:connector-curvature="0" />
	<path style="fill:none;stroke:red;stroke-width:1px;stroke-linecap:butt;stroke-linejoin:miter;stroke-opacity:1" d="M 895.492,7.56835 889.544,6.3789 z" id="boundary" inkscape:connector-curvature="0" />
	<path style="fill:none;stroke:red;stroke-width:1px;stroke-linecap:butt;stroke-linejoin:miter;stroke-opacity:1" d="M 895.492,7.56835 901.439,8.16307 z" id="boundary" inkscape:connector-curvature="0" />
	<path style="fill:none;stroke:red;stroke-width:1px;stroke-linecap:butt;stroke-linejoin:miter;stroke-opacity:1" d="M 907.386,9.35252 901.439,8.16307 z" id="boundary" inkscape:connector-curvature="0" />
	<path style="fill:none;stroke:red;stroke-width:1px;stroke-linecap:butt;stroke-linejoin:miter;stroke-opacity:1" d="M 913.333,10.542 907.386,9.35252 z" id="boundary" inkscape:connector-curvature="0" />
	<path style="fill:none;stroke:red;stroke-width:1px;stroke-linecap:butt;stroke-linejoin:miter;stroke-opacity:1" d="M 913.333,10.542 919.281,11.7314 z" id="boundary" inkscape:connector-curvature="0" />
	<path style="fill:none;stroke:red;stroke-width:1px;stroke-linecap:butt;stroke-linejoin:miter;stroke-opacity:1" d="M 919.281,11.7314 925.228,13.5156 z" id="boundary" inkscape:connector-curvature="0" />
	<path style="fill:none;stroke:red;stroke-width:1px;stroke-linecap:butt;stroke-linejoin:miter;stroke-opacity:1" d="M 931.175,15.2998 925.228,13.5156 z" id="boundary" inkscape:connector-curvature="0" />
	<path style="fill:none;stroke:red;stroke-width:1px;stroke-linecap:butt;stroke-linejoin:miter;stroke-opacity:1" d="M 937.122,17.0839 943.07,19.4628 z" id="boundary" inkscape:connector-curvature="0" />
	<path style="fill:none;stroke:red;stroke-width:1px;stroke-linecap:butt;stroke-linejoin:miter;stroke-opacity:1" d="M 948.422,22.4365 943.07,19.4628 z" id="boundary" inkscape:connector-curvature="0" />
	<path style="fill:none;stroke:red;stroke-width:1px;stroke-linecap:butt;stroke-linejoin:miter;stroke-opacity:1" d="M 937.122,17.0839 931.175,15.2998 z" id="boundary" inkscape:connector-curvature="0" />
	<path style="fill:none;stroke:red;stroke-width:1px;stroke-linecap:butt;stroke-linejoin:miter;stroke-opacity:1" d="M 948.422,22.4365 954.369,24.8153 z" id="boundary" inkscape:connector-curvature="0" />
	<path style="fill:none;stroke:red;stroke-width:1px;stroke-linecap:butt;stroke-linejoin:miter;stroke-opacity:1" d="M 959.127,28.3837 954.369,24.8153 z" id="boundary" inkscape:connector-curvature="0" />
	<path style="fill:none;stroke:red;stroke-width:1px;stroke-linecap:butt;stroke-linejoin:miter;stroke-opacity:1" d="M 964.48,31.3573 959.127,28.3837 z" id="boundary" inkscape:connector-curvature="0" />
	<path style="fill:none;stroke:red;stroke-width:1px;stroke-linecap:butt;stroke-linejoin:miter;stroke-opacity:1" d="M 964.48,31.3573 969.237,34.9257 z" id="boundary" inkscape:connector-curvature="0" />
	<path style="fill:none;stroke:red;stroke-width:1px;stroke-linecap:butt;stroke-linejoin:miter;stroke-opacity:1" d="M 969.237,34.9257 973.995,39.0887 z" id="boundary" inkscape:connector-curvature="0" />
	<path style="fill:none;stroke:red;stroke-width:1px;stroke-linecap:butt;stroke-linejoin:miter;stroke-opacity:1" d="M 978.158,43.8465 973.995,39.0887 z" id="boundary" inkscape:connector-curvature="0" />
	<path style="fill:none;stroke:red;stroke-width:1px;stroke-linecap:butt;stroke-linejoin:miter;stroke-opacity:1" d="M 978.158,43.8465 982.321,48.6043 z" id="boundary" inkscape:connector-curvature="0" />
	<path style="fill:none;stroke:red;stroke-width:1px;stroke-linecap:butt;stroke-linejoin:miter;stroke-opacity:1" d="M 985.295,53.9568 982.321,48.6043 z" id="boundary" inkscape:connector-curvature="0" />
	<path style="fill:none;stroke:red;stroke-width:1px;stroke-linecap:butt;stroke-linejoin:miter;stroke-opacity:1" d="M 988.863,58.7146 990.647,64.6619 z" id="boundary" inkscape:connector-curvature="0" />
	<path style="fill:none;stroke:red;stroke-width:1px;stroke-linecap:butt;stroke-linejoin:miter;stroke-opacity:1" d="M 985.295,53.9568 988.863,58.7146 z" id="boundary" inkscape:connector-curvature="0" />
	<path style="fill:none;stroke:red;stroke-width:1px;stroke-linecap:butt;stroke-linejoin:miter;stroke-opacity:1" d="M 990.647,64.6619 992.432,70.6091 z" id="boundary" inkscape:connector-curvature="0" />
	<path style="fill:none;stroke:red;stroke-width:1px;stroke-linecap:butt;stroke-linejoin:miter;stroke-opacity:1" d="M 994.216,76.5564 992.432,70.6091 z" id="boundary" inkscape:connector-curvature="0" />
	<path style="fill:none;stroke:red;stroke-width:1px;stroke-linecap:butt;stroke-linejoin:miter;stroke-opacity:1" d="M 996,82.5036 994.216,76.5564 z" id="boundary" inkscape:connector-curvature="0" />
	<path style="fill:none;stroke:red;stroke-width:1px;stroke-linecap:butt;stroke-linejoin:miter;stroke-opacity:1" d="M 996,82.5036 996,88.4508 z" id="boundary" inkscape:connector-curvature="0" />
	<path style="fill:none;stroke:red;stroke-width:1px;stroke-linecap:butt;stroke-linejoin:miter;stroke-opacity:1" d="M 996,88.4508 994.811,98.5612 z" id="boundary" inkscape:connector-curvature="0" />
	<path style="fill:none;stroke:red;stroke-width:1px;stroke-linecap:butt;stroke-linejoin:miter;stroke-opacity:1" d="M 994.811,98.5612 994.811,104.508 z" id="boundary" inkscape:connector-curvature="0" />
	<path style="fill:none;stroke:red;stroke-width:1px;stroke-linecap:butt;stroke-linejoin:miter;stroke-opacity:1" d="M 994.811,104.508 993.621,110.456 z" id="boundary" inkscape:connector-curvature="0" />
	<path style="fill:none;stroke:red;stroke-width:1px;stroke-linecap:butt;stroke-linejoin:miter;stroke-opacity:1" d="M 623.703,131.866 629.65,131.866 z" id="boundary" inkscape:connector-curvature="0" />
	<path style="fill:none;stroke:red;stroke-width:1px;stroke-linecap:butt;stroke-linejoin:miter;stroke-opacity:1" d="M 635.597,131.271 629.65,131.866 z" id="boundary" inkscape:connector-curvature="0" />
	<path style="fill:none;stroke:red;stroke-width:1px;stroke-linecap:butt;stroke-linejoin:miter;stroke-opacity:1" d="M 641.544,131.271 635.597,131.271 z" id="boundary" inkscape:connector-curvature="0" />
	<path style="fill:none;stroke:red;stroke-width:1px;stroke-linecap:butt;stroke-linejoin:miter;stroke-opacity:1" d="M 647.492,131.271 641.544,131.271 z" id="boundary" inkscape:connector-curvature="0" />
	<path style="fill:none;stroke:red;stroke-width:1px;stroke-linecap:butt;stroke-linejoin:miter;stroke-opacity:1" d="M 653.439,131.271 647.492,131.271 z" id="boundary" inkscape:connector-curvature="0" />
	<path style="fill:none;stroke:red;stroke-width:1px;stroke-linecap:butt;stroke-linejoin:miter;stroke-opacity:1" d="M 623.703,131.866 617.755,132.46 z" id="boundary" inkscape:connector-curvature="0" />
	<path style="fill:none;stroke:red;stroke-width:1px;stroke-linecap:butt;stroke-linejoin:miter;stroke-opacity:1" d="M 504.758,136.624 510.705,136.029 z" id="boundary" inkscape:connector-curvature="0" />
	<path style="fill:none;stroke:red;stroke-width:1px;stroke-linecap:butt;stroke-linejoin:miter;stroke-opacity:1" d="M 516.652,136.029 510.705,136.029 z" id="boundary" inkscape:connector-curvature="0" />
	<path style="fill:none;stroke:red;stroke-width:1px;stroke-linecap:butt;stroke-linejoin:miter;stroke-opacity:1" d="M 522.6,136.029 516.652,136.029 z" id="boundary" inkscape:connector-curvature="0" />
	<path style="fill:none;stroke:red;stroke-width:1px;stroke-linecap:butt;stroke-linejoin:miter;stroke-opacity:1" d="M 492.863,136.624 498.811,136.624 z" id="boundary" inkscape:connector-curvature="0" />
	<path style="fill:none;stroke:red;stroke-width:1px;stroke-linecap:butt;stroke-linejoin:miter;stroke-opacity:1" d="M 492.863,136.624 486.916,136.624 z" id="boundary" inkscape:connector-curvature="0" />
	<path style="fill:none;stroke:red;stroke-width:1px;stroke-linecap:butt;stroke-linejoin:miter;stroke-opacity:1" d="M 498.811,136.624 504.758,136.624 z" id="boundary" inkscape:connector-curvature="0" />
	<path style="fill:none;stroke:red;stroke-width:1px;stroke-linecap:butt;stroke-linejoin:miter;stroke-opacity:1" d="M 546.388,134.839 552.336,134.839 z" id="boundary" inkscape:connector-curvature="0" />
	<path style="fill:none;stroke:red;stroke-width:1px;stroke-linecap:butt;stroke-linejoin:miter;stroke-opacity:1" d="M 558.283,134.839 552.336,134.839 z" id="boundary" inkscape:connector-curvature="0" />
	<path style="fill:none;stroke:red;stroke-width:1px;stroke-linecap:butt;stroke-linejoin:miter;stroke-opacity:1" d="M 564.23,134.245 558.283,134.839 z" id="boundary" inkscape:connector-curvature="0" />
	<path style="fill:none;stroke:red;stroke-width:1px;stroke-linecap:butt;stroke-linejoin:miter;stroke-opacity:1" d="M 528.547,135.434 534.494,135.434 z" id="boundary" inkscape:connector-curvature="0" />
	<path style="fill:none;stroke:red;stroke-width:1px;stroke-linecap:butt;stroke-linejoin:miter;stroke-opacity:1" d="M 534.494,135.434 540.441,135.434 z" id="boundary" inkscape:connector-curvature="0" />
	<path style="fill:none;stroke:red;stroke-width:1px;stroke-linecap:butt;stroke-linejoin:miter;stroke-opacity:1" d="M 540.441,135.434 546.388,134.839 z" id="boundary" inkscape:connector-curvature="0" />
	<path style="fill:none;stroke:red;stroke-width:1px;stroke-linecap:butt;stroke-linejoin:miter;stroke-opacity:1" d="M 522.6,136.029 528.547,135.434 z" id="boundary" inkscape:connector-curvature="0" />
	<path style="fill:none;stroke:red;stroke-width:1px;stroke-linecap:butt;stroke-linejoin:miter;stroke-opacity:1" d="M 582.072,133.65 576.125,133.65 z" id="boundary" inkscape:connector-curvature="0" />
	<path style="fill:none;stroke:red;stroke-width:1px;stroke-linecap:butt;stroke-linejoin:miter;stroke-opacity:1" d="M 593.966,133.055 588.019,133.65 z" id="boundary" inkscape:connector-curvature="0" />
	<path style="fill:none;stroke:red;stroke-width:1px;stroke-linecap:butt;stroke-linejoin:miter;stroke-opacity:1" d="M 588.019,133.65 582.072,133.65 z" id="boundary" inkscape:connector-curvature="0" />
	<path style="fill:none;stroke:red;stroke-width:1px;stroke-linecap:butt;stroke-linejoin:miter;stroke-opacity:1" d="M 564.23,134.245 570.177,134.245 z" id="boundary" inkscape:connector-curvature="0" />
	<path style="fill:none;stroke:red;stroke-width:1px;stroke-linecap:butt;stroke-linejoin:miter;stroke-opacity:1" d="M 570.177,134.245 576.125,133.65 z" id="boundary" inkscape:connector-curvature="0" />
	<path style="fill:none;stroke:red;stroke-width:1px;stroke-linecap:butt;stroke-linejoin:miter;stroke-opacity:1" d="M 599.914,133.055 605.861,133.055 z" id="boundary" inkscape:connector-curvature="0" />
	<path style="fill:none;stroke:red;stroke-width:1px;stroke-linecap:butt;stroke-linejoin:miter;stroke-opacity:1" d="M 611.808,133.055 617.755,132.46 z" id="boundary" inkscape:connector-curvature="0" />
	<path style="fill:none;stroke:red;stroke-width:1px;stroke-linecap:butt;stroke-linejoin:miter;stroke-opacity:1" d="M 611.808,133.055 605.861,133.055 z" id="boundary" inkscape:connector-curvature="0" />
	<path style="fill:none;stroke:red;stroke-width:1px;stroke-linecap:butt;stroke-linejoin:miter;stroke-opacity:1" d="M 599.914,133.055 593.966,133.055 z" id="boundary" inkscape:connector-curvature="0" />
	<path style="fill:none;stroke:red;stroke-width:1px;stroke-linecap:butt;stroke-linejoin:miter;stroke-opacity:1" d="M 671.281,133.055 665.333,132.46 z" id="boundary" inkscape:connector-curvature="0" />
	<path style="fill:none;stroke:red;stroke-width:1px;stroke-linecap:butt;stroke-linejoin:miter;stroke-opacity:1" d="M 653.439,131.271 659.386,131.271 z" id="boundary" inkscape:connector-curvature="0" />
	<path style="fill:none;stroke:red;stroke-width:1px;stroke-linecap:butt;stroke-linejoin:miter;stroke-opacity:1" d="M 665.333,132.46 659.386,131.271 z" id="boundary" inkscape:connector-curvature="0" />
	<path style="fill:none;stroke:red;stroke-width:1px;stroke-linecap:butt;stroke-linejoin:miter;stroke-opacity:1" d="M 693.285,143.76 687.933,140.787 z" id="boundary" inkscape:connector-curvature="0" />
	<path style="fill:none;stroke:red;stroke-width:1px;stroke-linecap:butt;stroke-linejoin:miter;stroke-opacity:1" d="M 676.633,136.029 671.281,133.055 z" id="boundary" inkscape:connector-curvature="0" />
	<path style="fill:none;stroke:red;stroke-width:1px;stroke-linecap:butt;stroke-linejoin:miter;stroke-opacity:1" d="M 676.633,136.029 682.58,137.813 z" id="boundary" inkscape:connector-curvature="0" />
	<path style="fill:none;stroke:red;stroke-width:1px;stroke-linecap:butt;stroke-linejoin:miter;stroke-opacity:1" d="M 682.58,137.813 687.933,140.787 z" id="boundary" inkscape:connector-curvature="0" />
	<path style="fill:none;stroke:red;stroke-width:1px;stroke-linecap:butt;stroke-linejoin:miter;stroke-opacity:1" d="M 698.043,147.329 703.396,150.302 z" id="boundary" inkscape:connector-curvature="0" />
	<path style="fill:none;stroke:red;stroke-width:1px;stroke-linecap:butt;stroke-linejoin:miter;stroke-opacity:1" d="M 693.285,143.76 698.043,147.329 z" id="boundary" inkscape:connector-curvature="0" />
	<path style="fill:none;stroke:red;stroke-width:1px;stroke-linecap:butt;stroke-linejoin:miter;stroke-opacity:1" d="M 703.396,150.302 708.153,153.871 z" id="boundary" inkscape:connector-curvature="0" />
	<path style="fill:none;stroke:red;stroke-width:1px;stroke-linecap:butt;stroke-linejoin:miter;stroke-opacity:1" d="M 718.859,159.818 713.506,156.844 z" id="boundary" inkscape:connector-curvature="0" />
	<path style="fill:none;stroke:red;stroke-width:1px;stroke-linecap:butt;stroke-linejoin:miter;stroke-opacity:1" d="M 713.506,156.844 708.153,153.871 z" id="boundary" inkscape:connector-curvature="0" />
	<path style="fill:none;stroke:red;stroke-width:1px;stroke-linecap:butt;stroke-linejoin:miter;stroke-opacity:1" d="M 718.859,159.818 724.806,161.602 z" id="boundary" inkscape:connector-curvature="0" />
	<path style="fill:none;stroke:red;stroke-width:1px;stroke-linecap:butt;stroke-linejoin:miter;stroke-opacity:1" d="M 724.806,161.602 730.753,163.981 z" id="boundary" inkscape:connector-curvature="0" />
	<path style="fill:none;stroke:red;stroke-width:1px;stroke-linecap:butt;stroke-linejoin:miter;stroke-opacity:1" d="M 736.106,166.954 730.753,163.981 z" id="boundary" inkscape:connector-curvature="0" />
	<path style="fill:none;stroke:red;stroke-width:1px;stroke-linecap:butt;stroke-linejoin:miter;stroke-opacity:1" d="M 742.053,169.333 736.106,166.954 z" id="boundary" inkscape:connector-curvature="0" />
	<path style="fill:none;stroke:red;stroke-width:1px;stroke-linecap:butt;stroke-linejoin:miter;stroke-opacity:1" d="M 987.674,124.729 984.7,130.082 z" id="boundary" inkscape:connector-curvature="0" />
	<path style="fill:none;stroke:red;stroke-width:1px;stroke-linecap:butt;stroke-linejoin:miter;stroke-opacity:1" d="M 990.647,116.403 987.674,124.729 z" id="boundary" inkscape:connector-curvature="0" />
	<path style="fill:none;stroke:red;stroke-width:1px;stroke-linecap:butt;stroke-linejoin:miter;stroke-opacity:1" d="M 990.647,116.403 993.621,110.456 z" id="boundary" inkscape:connector-curvature="0" />
	<path style="fill:none;stroke:red;stroke-width:1px;stroke-linecap:butt;stroke-linejoin:miter;stroke-opacity:1" d="M 984.7,130.082 981.132,134.839 z" id="boundary" inkscape:connector-curvature="0" />
	<path style="fill:none;stroke:red;stroke-width:1px;stroke-linecap:butt;stroke-linejoin:miter;stroke-opacity:1" d="M 981.132,134.839 976.969,139.597 z" id="boundary" inkscape:connector-curvature="0" />
	<path style="fill:none;stroke:red;stroke-width:1px;stroke-linecap:butt;stroke-linejoin:miter;stroke-opacity:1" d="M 953.775,161.602 948.422,164.576 z" id="boundary" inkscape:connector-curvature="0" />
	<path style="fill:none;stroke:red;stroke-width:1px;stroke-linecap:butt;stroke-linejoin:miter;stroke-opacity:1" d="M 972.211,143.76 976.969,139.597 z" id="boundary" inkscape:connector-curvature="0" />
	<path style="fill:none;stroke:red;stroke-width:1px;stroke-linecap:butt;stroke-linejoin:miter;stroke-opacity:1" d="M 972.211,143.76 967.453,148.518 z" id="boundary" inkscape:connector-curvature="0" />
	<path style="fill:none;stroke:red;stroke-width:1px;stroke-linecap:butt;stroke-linejoin:miter;stroke-opacity:1" d="M 953.775,161.602 958.532,157.439 z" id="boundary" inkscape:connector-curvature="0" />
	<path style="fill:none;stroke:red;stroke-width:1px;stroke-linecap:butt;stroke-linejoin:miter;stroke-opacity:1" d="M 958.532,157.439 962.695,152.681 z" id="boundary" inkscape:connector-curvature="0" />
	<path style="fill:none;stroke:red;stroke-width:1px;stroke-linecap:butt;stroke-linejoin:miter;stroke-opacity:1" d="M 967.453,148.518 962.695,152.681 z" id="boundary" inkscape:connector-curvature="0" />
	<path style="fill:none;stroke:red;stroke-width:1px;stroke-linecap:butt;stroke-linejoin:miter;stroke-opacity:1" d="M 948.422,164.576 942.475,166.954 z" id="boundary" inkscape:connector-curvature="0" />
	<path style="fill:none;stroke:red;stroke-width:1px;stroke-linecap:butt;stroke-linejoin:miter;stroke-opacity:1" d="M 742.053,169.333 748,171.118 z" id="boundary" inkscape:connector-curvature="0" />
	<path style="fill:none;stroke:red;stroke-width:1px;stroke-linecap:butt;stroke-linejoin:miter;stroke-opacity:1" d="M 812.825,188.959 806.878,187.77 z" id="boundary" inkscape:connector-curvature="0" />
	<path style="fill:none;stroke:red;stroke-width:1px;stroke-linecap:butt;stroke-linejoin:miter;stroke-opacity:1" d="M 753.353,174.091 748,171.118 z" id="boundary" inkscape:connector-curvature="0" />
	<path style="fill:none;stroke:red;stroke-width:1px;stroke-linecap:butt;stroke-linejoin:miter;stroke-opacity:1" d="M 753.353,174.091 759.3,176.47 z" id="boundary" inkscape:connector-curvature="0" />
	<path style="fill:none;stroke:red;stroke-width:1px;stroke-linecap:butt;stroke-linejoin:miter;stroke-opacity:1" d="M 759.3,176.47 765.247,178.254 z" id="boundary" inkscape:connector-curvature="0" />
	<path style="fill:none;stroke:red;stroke-width:1px;stroke-linecap:butt;stroke-linejoin:miter;stroke-opacity:1" d="M 771.194,180.038 765.247,178.254 z" id="boundary" inkscape:connector-curvature="0" />
	<path style="fill:none;stroke:red;stroke-width:1px;stroke-linecap:butt;stroke-linejoin:miter;stroke-opacity:1" d="M 777.141,182.417 771.194,180.038 z" id="boundary" inkscape:connector-curvature="0" />
	<path style="fill:none;stroke:red;stroke-width:1px;stroke-linecap:butt;stroke-linejoin:miter;stroke-opacity:1" d="M 777.141,182.417 783.089,183.607 z" id="boundary" inkscape:connector-curvature="0" />
	<path style="fill:none;stroke:red;stroke-width:1px;stroke-linecap:butt;stroke-linejoin:miter;stroke-opacity:1" d="M 800.93,187.175 794.983,186.58 z" id="boundary" inkscape:connector-curvature="0" />
	<path style="fill:none;stroke:red;stroke-width:1px;stroke-linecap:butt;stroke-linejoin:miter;stroke-opacity:1" d="M 789.036,185.391 783.089,183.607 z" id="boundary" inkscape:connector-curvature="0" />
	<path style="fill:none;stroke:red;stroke-width:1px;stroke-linecap:butt;stroke-linejoin:miter;stroke-opacity:1" d="M 794.983,186.58 789.036,185.391 z" id="boundary" inkscape:connector-curvature="0" />
	<path style="fill:none;stroke:red;stroke-width:1px;stroke-linecap:butt;stroke-linejoin:miter;stroke-opacity:1" d="M 800.93,187.175 806.878,187.77 z" id="boundary" inkscape:connector-curvature="0" />
	<path style="fill:none;stroke:red;stroke-width:1px;stroke-linecap:butt;stroke-linejoin:miter;stroke-opacity:1" d="M 818.772,190.149 812.825,188.959 z" id="boundary" inkscape:connector-curvature="0" />
	<path style="fill:none;stroke:red;stroke-width:1px;stroke-linecap:butt;stroke-linejoin:miter;stroke-opacity:1" d="M 830.667,190.743 824.719,190.743 z" id="boundary" inkscape:connector-curvature="0" />
	<path style="fill:none;stroke:red;stroke-width:1px;stroke-linecap:butt;stroke-linejoin:miter;stroke-opacity:1" d="M 842.561,190.149 836.614,190.743 z" id="boundary" inkscape:connector-curvature="0" />
	<path style="fill:none;stroke:red;stroke-width:1px;stroke-linecap:butt;stroke-linejoin:miter;stroke-opacity:1" d="M 824.719,190.743 818.772,190.149 z" id="boundary" inkscape:connector-curvature="0" />
	<path style="fill:none;stroke:red;stroke-width:1px;stroke-linecap:butt;stroke-linejoin:miter;stroke-opacity:1" d="M 830.667,190.743 836.614,190.743 z" id="boundary" inkscape:connector-curvature="0" />
	<path style="fill:none;stroke:red;stroke-width:1px;stroke-linecap:butt;stroke-linejoin:miter;stroke-opacity:1" d="M 896.086,184.796 890.139,186.58 z" id="boundary" inkscape:connector-curvature="0" />
	<path style="fill:none;stroke:red;stroke-width:1px;stroke-linecap:butt;stroke-linejoin:miter;stroke-opacity:1" d="M 902.034,183.607 896.086,184.796 z" id="boundary" inkscape:connector-curvature="0" />
	<path style="fill:none;stroke:red;stroke-width:1px;stroke-linecap:butt;stroke-linejoin:miter;stroke-opacity:1" d="M 884.192,187.175 878.245,188.365 z" id="boundary" inkscape:connector-curvature="0" />
	<path style="fill:none;stroke:red;stroke-width:1px;stroke-linecap:butt;stroke-linejoin:miter;stroke-opacity:1" d="M 872.297,188.959 878.245,188.365 z" id="boundary" inkscape:connector-curvature="0" />
	<path style="fill:none;stroke:red;stroke-width:1px;stroke-linecap:butt;stroke-linejoin:miter;stroke-opacity:1" d="M 890.139,186.58 884.192,187.175 z" id="boundary" inkscape:connector-curvature="0" />
	<path style="fill:none;stroke:red;stroke-width:1px;stroke-linecap:butt;stroke-linejoin:miter;stroke-opacity:1" d="M 872.297,188.959 866.35,189.554 z" id="boundary" inkscape:connector-curvature="0" />
	<path style="fill:none;stroke:red;stroke-width:1px;stroke-linecap:butt;stroke-linejoin:miter;stroke-opacity:1" d="M 925.228,175.281 930.58,172.307 z" id="boundary" inkscape:connector-curvature="0" />
	<path style="fill:none;stroke:red;stroke-width:1px;stroke-linecap:butt;stroke-linejoin:miter;stroke-opacity:1" d="M 907.981,181.823 902.034,183.607 z" id="boundary" inkscape:connector-curvature="0" />
	<path style="fill:none;stroke:red;stroke-width:1px;stroke-linecap:butt;stroke-linejoin:miter;stroke-opacity:1" d="M 936.528,169.928 942.475,166.954 z" id="boundary" inkscape:connector-curvature="0" />
	<path style="fill:none;stroke:red;stroke-width:1px;stroke-linecap:butt;stroke-linejoin:miter;stroke-opacity:1" d="M 936.528,169.928 930.58,172.307 z" id="boundary" inkscape:connector-curvature="0" />
	<path style="fill:none;stroke:red;stroke-width:1px;stroke-linecap:butt;stroke-linejoin:miter;stroke-opacity:1" d="M 925.228,175.281 919.875,178.254 z" id="boundary" inkscape:connector-curvature="0" />
	<path style="fill:none;stroke:red;stroke-width:1px;stroke-linecap:butt;stroke-linejoin:miter;stroke-opacity:1" d="M 907.981,181.823 913.928,180.633 z" id="boundary" inkscape:connector-curvature="0" />
	<path style="fill:none;stroke:red;stroke-width:1px;stroke-linecap:butt;stroke-linejoin:miter;stroke-opacity:1" d="M 913.928,180.633 919.875,178.254 z" id="boundary" inkscape:connector-curvature="0" />
	<path style="fill:none;stroke:red;stroke-width:1px;stroke-linecap:butt;stroke-linejoin:miter;stroke-opacity:1" d="M 848.508,190.743 854.456,189.554 z" id="boundary" inkscape:connector-curvature="0" />
	<path style="fill:none;stroke:red;stroke-width:1px;stroke-linecap:butt;stroke-linejoin:miter;stroke-opacity:1" d="M 854.456,189.554 860.403,189.554 z" id="boundary" inkscape:connector-curvature="0" />
	<path style="fill:none;stroke:red;stroke-width:1px;stroke-linecap:butt;stroke-linejoin:miter;stroke-opacity:1" d="M 866.35,189.554 860.403,189.554 z" id="boundary" inkscape:connector-curvature="0" />
	<path style="fill:none;stroke:red;stroke-width:1px;stroke-linecap:butt;stroke-linejoin:miter;stroke-opacity:1" d="M 842.561,190.149 848.508,190.743 z" id="boundary" inkscape:connector-curvature="0" />
	<circle cx="4" cy="110.456" r="4" fill="#0" id="circle0"/>
	<circle cx="5.18945" cy="116.403" r="4" fill="#0" id="circle1"/>
	<circle cx="7.56835" cy="104.508" r="4" fill="#0" id="circle2"/>
	<circle cx="8.75779" cy="121.161" r="4" fill="#0" id="circle3"/>
	<circle cx="12.3261" cy="100.345" r="4" fill="#0" id="circle4"/>
	<circle cx="12.9209" cy="125.918" r="4" fill="#0" id="circle5"/>
	<circle cx="17.0839" cy="96.1823" r="4" fill="#0" id="circle6"/>
	<circle cx="17.6787" cy="129.487" r="4" fill="#0" id="circle7"/>
	<circle cx="22.4365" cy="93.2086" r="4" fill="#0" id="circle8"/>
	<circle cx="23.0312" cy="132.46" r="4" fill="#0" id="circle9"/>
	<circle cx="28.3837" cy="93.2086" r="4" fill="#0" id="circle10"/>
	<circle cx="28.9784" cy="133.055" r="4" fill="#0" id="circle11"/>
	<circle cx="34.3309" cy="92.6139" r="4" fill="#0" id="circle12"/>
	<circle cx="34.9257" cy="133.65" r="4" fill="#0" id="circle13"/>
	<circle cx="40.2782" cy="92.0192" r="4" fill="#0" id="circle14"/>
	<circle cx="40.8729" cy="134.245" r="4" fill="#0" id="circle15"/>
	<circle cx="46.2254" cy="92.0192" r="4" fill="#0" id="circle16"/>
	<circle cx="46.8201" cy="134.839" r="4" fill="#0" id="circle17"/>
	<circle cx="52.1727" cy="91.4245" r="4" fill="#0" id="circle18"/>
	<circle cx="52.7674" cy="134.839" r="4" fill="#0" id="circle19"/>
	<circle cx="58.1199" cy="92.0192" r="4" fill="#0" id="circle20"/>
	<circle cx="58.7146" cy="135.434" r="4" fill="#0" id="circle21"/>
	<circle cx="64.0671" cy="92.0192" r="4" fill="#0" id="circle22"/>
	<circle cx="64.6619" cy="135.434" r="4" fill="#0" id="circle23"/>
	<circle cx="70.0144" cy="92.0192" r="4" fill="#0" id="circle24"/>
	<circle cx="70.6091" cy="135.434" r="4" fill="#0" id="circle25"/>
	<circle cx="75.9616" cy="92.0192" r="4" fill="#0" id="circle26"/>
	<circle cx="76.5564" cy="135.434" r="4" fill="#0" id="circle27"/>
	<circle cx="81.9089" cy="92.0192" r="4" fill="#0" id="circle28"/>
	<circle cx="82.5036" cy="136.029" r="4" fill="#0" id="circle29"/>
	<circle cx="87.8561" cy="92.0192" r="4" fill="#0" id="circle30"/>
	<circle cx="88.4508" cy="136.624" r="4" fill="#0" id="circle31"/>
	<circle cx="93.8034" cy="92.0192" r="4" fill="#0" id="circle32"/>
	<circle cx="94.3981" cy="136.029" r="4" fill="#0" id="circle33"/>
	<circle cx="99.7506" cy="92.6139" r="4" fill="#0" id="circle34"/>
	<circle cx="100.345" cy="136.624" r="4" fill="#0" id="circle35"/>
	<circle cx="105.698" cy="92.6139" r="4" fill="#0" id="circle36"/>
	<circle cx="106.293" cy="136.624" r="4" fill="#0" id="circle37"/>
	<circle cx="111.645" cy="92.6139" r="4" fill="#0" id="circle38"/>
	<circle cx="112.24" cy="136.624" r="4" fill="#0" id="circle39"/>
	<circle cx="117.592" cy="93.2086" r="4" fill="#0" id="circle40"/>
	<circle cx="118.187" cy="136.624" r="4" fill="#0" id="circle41"/>
	<circle cx="123.54" cy="93.2086" r="4" fill="#0" id="circle42"/>
	<circle cx="124.134" cy="136.624" r="4" fill="#0" id="circle43"/>
	<circle cx="129.487" cy="93.2086" r="4" fill="#0" id="circle44"/>
	<circle cx="130.082" cy="136.624" r="4" fill="#0" id="circle45"/>
	<circle cx="135.434" cy="93.2086" r="4" fill="#0" id="circle46"/>
	<circle cx="136.029" cy="136.624" r="4" fill="#0" id="circle47"/>
	<circle cx="141.381" cy="93.2086" r="4" fill="#0" id="circle48"/>
	<circle cx="141.976" cy="137.218" r="4" fill="#0" id="circle49"/>
	<circle cx="147.329" cy="93.8034" r="4" fill="#0" id="circle50"/>
	<circle cx="147.923" cy="137.218" r="4" fill="#0" id="circle51"/>
	<circle cx="153.276" cy="93.8034" r="4" fill="#0" id="circle52"/>
	<circle cx="153.871" cy="137.218" r="4" fill="#0" id="circle53"/>
	<circle cx="159.223" cy="93.8034" r="4" fill="#0" id="circle54"/>
	<circle cx="159.818" cy="137.813" r="4" fill="#0" id="circle55"/>
	<circle cx="165.17" cy="93.8034" r="4" fill="#0" id="circle56"/>
	<circle cx="165.765" cy="137.813" r="4" fill="#0" id="circle57"/>
	<circle cx="171.118" cy="93.8034" r="4" fill="#0" id="circle58"/>
	<circle cx="171.712" cy="137.813" r="4" fill="#0" id="circle59"/>
	<circle cx="177.065" cy="94.3981" r="4" fill="#0" id="circle60"/>
	<circle cx="177.659" cy="137.813" r="4" fill="#0" id="circle61"/>
	<circle cx="183.012" cy="94.3981" r="4" fill="#0" id="circle62"/>
	<circle cx="183.607" cy="137.813" r="4" fill="#0" id="circle63"/>
	<circle cx="188.959" cy="94.3981" r="4" fill="#0" id="circle64"/>
	<circle cx="189.554" cy="137.813" r="4" fill="#0" id="circle65"/>
	<circle cx="194.906" cy="94.3981" r="4" fill="#0" id="circle66"/>
	<circle cx="195.501" cy="137.813" r="4" fill="#0" id="circle67"/>
	<circle cx="200.854" cy="94.9928" r="4" fill="#0" id="circle68"/>
	<circle cx="201.448" cy="138.408" r="4" fill="#0" id="circle69"/>
	<circle cx="206.801" cy="94.9928" r="4" fill="#0" id="circle70"/>
	<circle cx="207.396" cy="138.408" r="4" fill="#0" id="circle71"/>
	<circle cx="212.748" cy="94.9928" r="4" fill="#0" id="circle72"/>
	<circle cx="213.343" cy="138.408" r="4" fill="#0" id="circle73"/>
	<circle cx="218.695" cy="94.9928" r="4" fill="#0" id="circle74"/>
	<circle cx="219.29" cy="138.408" r="4" fill="#0" id="circle75"/>
	<circle cx="224.643" cy="94.9928" r="4" fill="#0" id="circle76"/>
	<circle cx="225.237" cy="138.408" r="4" fill="#0" id="circle77"/>
	<circle cx="230.59" cy="94.9928" r="4" fill="#0" id="circle78"/>
	<circle cx="231.185" cy="137.218" r="4" fill="#0" id="circle79"/>
	<circle cx="236.537" cy="94.9928" r="4" fill="#0" id="circle80"/>
	<circle cx="237.132" cy="137.218" r="4" fill="#0" id="circle81"/>
	<circle cx="242.484" cy="95.5875" r="4" fill="#0" id="circle82"/>
	<circle cx="243.079" cy="137.813" r="4" fill="#0" id="circle83"/>
	<circle cx="248.432" cy="95.5875" r="4" fill="#0" id="circle84"/>
	<circle cx="249.026" cy="138.408" r="4" fill="#0" id="circle85"/>
	<circle cx="254.379" cy="95.5875" r="4" fill="#0" id="circle86"/>
	<circle cx="254.974" cy="138.408" r="4" fill="#0" id="circle87"/>
	<circle cx="260.326" cy="95.5875" r="4" fill="#0" id="circle88"/>
	<circle cx="260.921" cy="138.408" r="4" fill="#0" id="circle89"/>
	<circle cx="266.273" cy="95.5875" r="4" fill="#0" id="circle90"/>
	<circle cx="266.868" cy="138.408" r="4" fill="#0" id="circle91"/>
	<circle cx="272.221" cy="96.1823" r="4" fill="#0" id="circle92"/>
	<circle cx="272.815" cy="138.408" r="4" fill="#0" id="circle93"/>
	<circle cx="278.168" cy="96.1823" r="4" fill="#0" id="circle94"/>
	<circle cx="278.763" cy="137.813" r="4" fill="#0" id="circle95"/>
	<circle cx="284.115" cy="96.1823" r="4" fill="#0" id="circle96"/>
	<circle cx="284.71" cy="137.813" r="4" fill="#0" id="circle97"/>
	<circle cx="290.062" cy="95.5875" r="4" fill="#0" id="circle98"/>
	<circle cx="290.657" cy="138.408" r="4" fill="#0" id="circle99"/>
	<circle cx="296.01" cy="95.5875" r="4" fill="#0" id="circle100"/>
	<circle cx="296.604" cy="138.408" r="4" fill="#0" id="circle101"/>
	<circle cx="301.957" cy="95.5875" r="4" fill="#0" id="circle102"/>
	<circle cx="302.552" cy="138.408" r="4" fill="#0" id="circle103"/>
	<circle cx="307.904" cy="95.5875" r="4" fill="#0" id="circle104"/>
	<circle cx="308.499" cy="138.408" r="4" fill="#0" id="circle105"/>
	<circle cx="313.851" cy="95.5875" r="4" fill="#0" id="circle106"/>
	<circle cx="314.446" cy="138.408" r="4" fill="#0" id="circle107"/>
	<circle cx="319.799" cy="95.5875" r="4" fill="#0" id="circle108"/>
	<circle cx="320.393" cy="138.408" r="4" fill="#0" id="circle109"/>
	<circle cx="325.746" cy="95.5875" r="4" fill="#0" id="circle110"/>
	<circle cx="326.341" cy="138.408" r="4" fill="#0" id="circle111"/>
	<circle cx="331.693" cy="95.5875" r="4" fill="#0" id="circle112"/>
	<circle cx="332.288" cy="138.408" r="4" fill="#0" id="circle113"/>
	<circle cx="337.64" cy="95.5875" r="4" fill="#0" id="circle114"/>
	<circle cx="338.235" cy="138.408" r="4" fill="#0" id="circle115"/>
	<circle cx="343.588" cy="95.5875" r="4" fill="#0" id="circle116"/>
	<circle cx="344.182" cy="138.408" r="4" fill="#0" id="circle117"/>
	<circle cx="349.535" cy="95.5875" r="4" fill="#0" id="circle118"/>
	<circle cx="350.129" cy="138.408" r="4" fill="#0" id="circle119"/>
	<circle cx="355.482" cy="95.5875" r="4" fill="#0" id="circle120"/>
	<circle cx="356.077" cy="138.408" r="4" fill="#0" id="circle121"/>
	<circle cx="361.429" cy="95.5875" r="4" fill="#0" id="circle122"/>
	<circle cx="362.024" cy="138.408" r="4" fill="#0" id="circle123"/>
	<circle cx="367.376" cy="95.5875" r="4" fill="#0" id="circle124"/>
	<circle cx="367.971" cy="138.408" r="4" fill="#0" id="circle125"/>
	<circle cx="373.324" cy="95.5875" r="4" fill="#0" id="circle126"/>
	<circle cx="373.918" cy="138.408" r="4" fill="#0" id="circle127"/>
	<circle cx="379.271" cy="95.5875" r="4" fill="#0" id="circle128"/>
	<circle cx="379.866" cy="138.408" r="4" fill="#0" id="circle129"/>
	<circle cx="385.218" cy="95.5875" r="4" fill="#0" id="circle130"/>
	<circle cx="385.813" cy="139.002" r="4" fill="#0" id="circle131"/>
	<circle cx="391.165" cy="95.5875" r="4" fill="#0" id="circle132"/>
	<circle cx="391.76" cy="138.408" r="4" fill="#0" id="circle133"/>
	<circle cx="397.113" cy="95.5875" r="4" fill="#0" id="circle134"/>
	<circle cx="397.707" cy="138.408" r="4" fill="#0" id="circle135"/>
	<circle cx="403.06" cy="94.9928" r="4" fill="#0" id="circle136"/>
	<circle cx="403.655" cy="138.408" r="4" fill="#0" id="circle137"/>
	<circle cx="409.007" cy="94.9928" r="4" fill="#0" id="circle138"/>
	<circle cx="409.602" cy="138.408" r="4" fill="#0" id="circle139"/>
	<circle cx="414.954" cy="94.9928" r="4" fill="#0" id="circle140"/>
	<circle cx="415.549" cy="138.408" r="4" fill="#0" id="circle141"/>
	<circle cx="420.902" cy="94.9928" r="4" fill="#0" id="circle142"/>
	<circle cx="421.496" cy="138.408" r="4" fill="#0" id="circle143"/>
	<circle cx="426.849" cy="94.9928" r="4" fill="#0" id="circle144"/>
	<circle cx="427.444" cy="138.408" r="4" fill="#0" id="circle145"/>
	<circle cx="432.796" cy="94.9928" r="4" fill="#0" id="circle146"/>
	<circle cx="433.391" cy="137.813" r="4" fill="#0" id="circle147"/>
	<circle cx="438.743" cy="94.9928" r="4" fill="#0" id="circle148"/>
	<circle cx="439.338" cy="137.813" r="4" fill="#0" id="circle149"/>
	<circle cx="444.691" cy="94.9928" r="4" fill="#0" id="circle150"/>
	<circle cx="445.285" cy="137.813" r="4" fill="#0" id="circle151"/>
	<circle cx="450.638" cy="94.9928" r="4" fill="#0" id="circle152"/>
	<circle cx="451.233" cy="137.813" r="4" fill="#0" id="circle153"/>
	<circle cx="456.585" cy="94.9928" r="4" fill="#0" id="circle154"/>
	<circle cx="457.18" cy="137.813" r="4" fill="#0" id="circle155"/>
	<circle cx="462.532" cy="94.9928" r="4" fill="#0" id="circle156"/>
	<circle cx="463.127" cy="137.218" r="4" fill="#0" id="circle157"/>
	<circle cx="468.48" cy="94.3981" r="4" fill="#0" id="circle158"/>
	<circle cx="469.074" cy="137.218" r="4" fill="#0" id="circle159"/>
	<circle cx="474.427" cy="94.3981" r="4" fill="#0" id="circle160"/>
	<circle cx="475.022" cy="137.218" r="4" fill="#0" id="circle161"/>
	<circle cx="480.374" cy="94.3981" r="4" fill="#0" id="circle162"/>
	<circle cx="480.969" cy="136.624" r="4" fill="#0" id="circle163"/>
	<circle cx="486.321" cy="94.3981" r="4" fill="#0" id="circle164"/>
	<circle cx="486.916" cy="136.624" r="4" fill="#0" id="circle165"/>
	<circle cx="492.269" cy="93.8034" r="4" fill="#0" id="circle166"/>
	<circle cx="492.863" cy="136.624" r="4" fill="#0" id="circle167"/>
	<circle cx="498.216" cy="93.8034" r="4" fill="#0" id="circle168"/>
	<circle cx="498.811" cy="136.624" r="4" fill="#0" id="circle169"/>
	<circle cx="504.163" cy="93.2086" r="4" fill="#0" id="circle170"/>
	<circle cx="504.758" cy="136.624" r="4" fill="#0" id="circle171"/>
	<circle cx="510.11" cy="93.2086" r="4" fill="#0" id="circle172"/>
	<circle cx="510.705" cy="136.029" r="4" fill="#0" id="circle173"/>
	<circle cx="516.058" cy="93.2086" r="4" fill="#0" id="circle174"/>
	<circle cx="516.652" cy="136.029" r="4" fill="#0" id="circle175"/>
	<circle cx="522.005" cy="93.2086" r="4" fill="#0" id="circle176"/>
	<circle cx="522.6" cy="136.029" r="4" fill="#0" id="circle177"/>
	<circle cx="527.952" cy="93.2086" r="4" fill="#0" id="circle178"/>
	<circle cx="528.547" cy="135.434" r="4" fill="#0" id="circle179"/>
	<circle cx="533.899" cy="92.6139" r="4" fill="#0" id="circle180"/>
	<circle cx="534.494" cy="135.434" r="4" fill="#0" id="circle181"/>
	<circle cx="539.847" cy="92.6139" r="4" fill="#0" id="circle182"/>
	<circle cx="540.441" cy="135.434" r="4" fill="#0" id="circle183"/>
	<circle cx="545.794" cy="92.0192" r="4" fill="#0" id="circle184"/>
	<circle cx="546.388" cy="134.839" r="4" fill="#0" id="circle185"/>
	<circle cx="551.741" cy="92.0192" r="4" fill="#0" id="circle186"/>
	<circle cx="552.336" cy="134.839" r="4" fill="#0" id="circle187"/>
	<circle cx="557.688" cy="91.4245" r="4" fill="#0" id="circle188"/>
	<circle cx="558.283" cy="134.839" r="4" fill="#0" id="circle189"/>
	<circle cx="563.635" cy="91.4245" r="4" fill="#0" id="circle190"/>
	<circle cx="564.23" cy="134.245" r="4" fill="#0" id="circle191"/>
	<circle cx="569.583" cy="91.4245" r="4" fill="#0" id="circle192"/>
	<circle cx="570.177" cy="134.245" r="4" fill="#0" id="circle193"/>
	<circle cx="575.53" cy="91.4245" r="4" fill="#0" id="circle194"/>
	<circle cx="576.125" cy="133.65" r="4" fill="#0" id="circle195"/>
	<circle cx="581.477" cy="90.8297" r="4" fill="#0" id="circle196"/>
	<circle cx="582.072" cy="133.65" r="4" fill="#0" id="circle197"/>
	<circle cx="587.424" cy="90.8297" r="4" fill="#0" id="circle198"/>
	<circle cx="588.019" cy="133.65" r="4" fill="#0" id="circle199"/>
	<circle cx="593.372" cy="90.235" r="4" fill="#0" id="circle200"/>
	<circle cx="593.966" cy="133.055" r="4" fill="#0" id="circle201"/>
	<circle cx="599.319" cy="90.235" r="4" fill="#0" id="circle202"/>
	<circle cx="599.914" cy="133.055" r="4" fill="#0" id="circle203"/>
	<circle cx="605.266" cy="90.235" r="4" fill="#0" id="circle204"/>
	<circle cx="605.861" cy="133.055" r="4" fill="#0" id="circle205"/>
	<circle cx="611.213" cy="89.6403" r="4" fill="#0" id="circle206"/>
	<circle cx="611.808" cy="133.055" r="4" fill="#0" id="circle207"/>
	<circle cx="617.161" cy="89.6403" r="4" fill="#0" id="circle208"/>
	<circle cx="617.755" cy="132.46" r="4" fill="#0" id="circle209"/>
	<circle cx="623.108" cy="89.6403" r="4" fill="#0" id="circle210"/>
	<circle cx="623.703" cy="131.866" r="4" fill="#0" id="circle211"/>
	<circle cx="629.055" cy="89.0456" r="4" fill="#0" id="circle212"/>
	<circle cx="629.65" cy="131.866" r="4" fill="#0" id="circle213"/>
	<circle cx="635.002" cy="89.0456" r="4" fill="#0" id="circle214"/>
	<circle cx="635.597" cy="131.271" r="4" fill="#0" id="circle215"/>
	<circle cx="640.95" cy="88.4508" r="4" fill="#0" id="circle216"/>
	<circle cx="641.544" cy="131.271" r="4" fill="#0" id="circle217"/>
	<circle cx="646.897" cy="87.8561" r="4" fill="#0" id="circle218"/>
	<circle cx="647.492" cy="131.271" r="4" fill="#0" id="circle219"/>
	<circle cx="652.844" cy="87.2614" r="4" fill="#0" id="circle220"/>
	<circle cx="653.439" cy="131.271" r="4" fill="#0" id="circle221"/>
	<circle cx="658.791" cy="86.0719" r="4" fill="#0" id="circle222"/>
	<circle cx="659.386" cy="131.271" r="4" fill="#0" id="circle223"/>
	<circle cx="664.739" cy="84.2878" r="4" fill="#0" id="circle224"/>
	<circle cx="665.333" cy="132.46" r="4" fill="#0" id="circle225"/>
	<circle cx="670.686" cy="82.5036" r="4" fill="#0" id="circle226"/>
	<circle cx="671.281" cy="133.055" r="4" fill="#0" id="circle227"/>
	<circle cx="676.633" cy="80.1247" r="4" fill="#0" id="circle228"/>
	<circle cx="676.633" cy="136.029" r="4" fill="#0" id="circle229"/>
	<circle cx="681.986" cy="77.1511" r="4" fill="#0" id="circle230"/>
	<circle cx="682.58" cy="137.813" r="4" fill="#0" id="circle231"/>
	<circle cx="686.743" cy="73.5827" r="4" fill="#0" id="circle232"/>
	<circle cx="687.933" cy="140.787" r="4" fill="#0" id="circle233"/>
	<circle cx="691.501" cy="69.4197" r="4" fill="#0" id="circle234"/>
	<circle cx="693.285" cy="143.76" r="4" fill="#0" id="circle235"/>
	<circle cx="696.259" cy="65.2566" r="4" fill="#0" id="circle236"/>
	<circle cx="698.043" cy="147.329" r="4" fill="#0" id="circle237"/>
	<circle cx="701.017" cy="61.6882" r="4" fill="#0" id="circle238"/>
	<circle cx="703.396" cy="150.302" r="4" fill="#0" id="circle239"/>
	<circle cx="705.775" cy="57.5252" r="4" fill="#0" id="circle240"/>
	<circle cx="708.153" cy="153.871" r="4" fill="#0" id="circle241"/>
	<circle cx="710.532" cy="53.9568" r="4" fill="#0" id="circle242"/>
	<circle cx="713.506" cy="156.844" r="4" fill="#0" id="circle243"/>
	<circle cx="715.885" cy="50.3885" r="4" fill="#0" id="circle244"/>
	<circle cx="718.859" cy="159.818" r="4" fill="#0" id="circle245"/>
	<circle cx="720.643" cy="46.8201" r="4" fill="#0" id="circle246"/>
	<circle cx="724.806" cy="161.602" r="4" fill="#0" id="circle247"/>
	<circle cx="725.995" cy="43.2518" r="4" fill="#0" id="circle248"/>
	<circle cx="730.753" cy="163.981" r="4" fill="#0" id="circle249"/>
	<circle cx="731.348" cy="40.2782" r="4" fill="#0" id="circle250"/>
	<circle cx="736.106" cy="166.954" r="4" fill="#0" id="circle251"/>
	<circle cx="736.7" cy="36.7098" r="4" fill="#0" id="circle252"/>
	<circle cx="742.053" cy="33.7362" r="4" fill="#0" id="circle253"/>
	<circle cx="742.053" cy="169.333" r="4" fill="#0" id="circle254"/>
	<circle cx="747.405" cy="30.7626" r="4" fill="#0" id="circle255"/>
	<circle cx="748" cy="171.118" r="4" fill="#0" id="circle256"/>
	<circle cx="753.353" cy="28.3837" r="4" fill="#0" id="circle257"/>
	<circle cx="753.353" cy="174.091" r="4" fill="#0" id="circle258"/>
	<circle cx="758.705" cy="25.4101" r="4" fill="#0" id="circle259"/>
	<circle cx="759.3" cy="176.47" r="4" fill="#0" id="circle260"/>
	<circle cx="764.652" cy="23.0312" r="4" fill="#0" id="circle261"/>
	<circle cx="765.247" cy="178.254" r="4" fill="#0" id="circle262"/>
	<circle cx="770.6" cy="20.6523" r="4" fill="#0" id="circle263"/>
	<circle cx="771.194" cy="180.038" r="4" fill="#0" id="circle264"/>
	<circle cx="776.547" cy="18.2734" r="4" fill="#0" id="circle265"/>
	<circle cx="777.141" cy="182.417" r="4" fill="#0" id="circle266"/>
	<circle cx="782.494" cy="16.4892" r="4" fill="#0" id="circle267"/>
	<circle cx="783.089" cy="183.607" r="4" fill="#0" id="circle268"/>
	<circle cx="788.441" cy="14.705" r="4" fill="#0" id="circle269"/>
	<circle cx="789.036" cy="185.391" r="4" fill="#0" id="circle270"/>
	<circle cx="794.388" cy="12.9209" r="4" fill="#0" id="circle271"/>
	<circle cx="794.983" cy="186.58" r="4" fill="#0" id="circle272"/>
	<circle cx="800.336" cy="11.1367" r="4" fill="#0" id="circle273"/>
	<circle cx="800.93" cy="187.175" r="4" fill="#0" id="circle274"/>
	<circle cx="806.283" cy="9.94724" r="4" fill="#0" id="circle275"/>
	<circle cx="806.878" cy="187.77" r="4" fill="#0" id="circle276"/>
	<circle cx="812.23" cy="8.75779" r="4" fill="#0" id="circle277"/>
	<circle cx="812.825" cy="188.959" r="4" fill="#0" id="circle278"/>
	<circle cx="818.177" cy="6.97362" r="4" fill="#0" id="circle279"/>
	<circle cx="818.772" cy="190.149" r="4" fill="#0" id="circle280"/>
	<circle cx="824.125" cy="5.78417" r="4" fill="#0" id="circle281"/>
	<circle cx="824.719" cy="190.743" r="4" fill="#0" id="circle282"/>
	<circle cx="830.072" cy="5.18945" r="4" fill="#0" id="circle283"/>
	<circle cx="830.667" cy="190.743" r="4" fill="#0" id="circle284"/>
	<circle cx="836.019" cy="4.59472" r="4" fill="#0" id="circle285"/>
	<circle cx="836.614" cy="190.743" r="4" fill="#0" id="circle286"/>
	<circle cx="841.966" cy="4.59472" r="4" fill="#0" id="circle287"/>
	<circle cx="842.561" cy="190.149" r="4" fill="#0" id="circle288"/>
	<circle cx="847.914" cy="4" r="4" fill="#0" id="circle289"/>
	<circle cx="848.508" cy="190.743" r="4" fill="#0" id="circle290"/>
	<circle cx="853.861" cy="4" r="4" fill="#0" id="circle291"/>
	<circle cx="854.456" cy="189.554" r="4" fill="#0" id="circle292"/>
	<circle cx="859.808" cy="4.59472" r="4" fill="#0" id="circle293"/>
	<circle cx="860.403" cy="189.554" r="4" fill="#0" id="circle294"/>
	<circle cx="865.755" cy="4.59472" r="4" fill="#0" id="circle295"/>
	<circle cx="866.35" cy="189.554" r="4" fill="#0" id="circle296"/>
	<circle cx="871.703" cy="5.18945" r="4" fill="#0" id="circle297"/>
	<circle cx="872.297" cy="188.959" r="4" fill="#0" id="circle298"/>
	<circle cx="877.65" cy="5.18945" r="4" fill="#0" id="circle299"/>
	<circle cx="878.245" cy="188.365" r="4" fill="#0" id="circle300"/>
	<circle cx="883.597" cy="5.78417" r="4" fill="#0" id="circle301"/>
	<circle cx="884.192" cy="187.175" r="4" fill="#0" id="circle302"/>
	<circle cx="889.544" cy="6.3789" r="4" fill="#0" id="circle303"/>
	<circle cx="890.139" cy="186.58" r="4" fill="#0" id="circle304"/>
	<circle cx="895.492" cy="7.56835" r="4" fill="#0" id="circle305"/>
	<circle cx="896.086" cy="184.796" r="4" fill="#0" id="circle306"/>
	<circle cx="901.439" cy="8.16307" r="4" fill="#0" id="circle307"/>
	<circle cx="902.034" cy="183.607" r="4" fill="#0" id="circle308"/>
	<circle cx="907.386" cy="9.35252" r="4" fill="#0" id="circle309"/>
	<circle cx="907.981" cy="181.823" r="4" fill="#0" id="circle310"/>
	<circle cx="913.333" cy="10.542" r="4" fill="#0" id="circle311"/>
	<circle cx="913.928" cy="180.633" r="4" fill="#0" id="circle312"/>
	<circle cx="919.281" cy="11.7314" r="4" fill="#0" id="circle313"/>
	<circle cx="919.875" cy="178.254" r="4" fill="#0" id="circle314"/>
	<circle cx="925.228" cy="13.5156" r="4" fill="#0" id="circle315"/>
	<circle cx="925.228" cy="175.281" r="4" fill="#0" id="circle316"/>
	<circle cx="930.58" cy="172.307" r="4" fill="#0" id="circle317"/>
	<circle cx="931.175" cy="15.2998" r="4" fill="#0" id="circle318"/>
	<circle cx="936.528" cy="169.928" r="4" fill="#0" id="circle319"/>
	<circle cx="937.122" cy="17.0839" r="4" fill="#0" id="circle320"/>
	<circle cx="942.475" cy="166.954" r="4" fill="#0" id="circle321"/>
	<circle cx="943.07" cy="19.4628" r="4" fill="#0" id="circle322"/>
	<circle cx="948.422" cy="22.4365" r="4" fill="#0" id="circle323"/>
	<circle cx="948.422" cy="164.576" r="4" fill="#0" id="circle324"/>
	<circle cx="953.775" cy="161.602" r="4" fill="#0" id="circle325"/>
	<circle cx="954.369" cy="24.8153" r="4" fill="#0" id="circle326"/>
	<circle cx="958.532" cy="157.439" r="4" fill="#0" id="circle327"/>
	<circle cx="959.127" cy="28.3837" r="4" fill="#0" id="circle328"/>
	<circle cx="962.695" cy="152.681" r="4" fill="#0" id="circle329"/>
	<circle cx="964.48" cy="31.3573" r="4" fill="#0" id="circle330"/>
	<circle cx="967.453" cy="148.518" r="4" fill="#0" id="circle331"/>
	<circle cx="969.237" cy="34.9257" r="4" fill="#0" id="circle332"/>
	<circle cx="972.211" cy="143.76" r="4" fill="#0" id="circle333"/>
	<circle cx="973.995" cy="39.0887" r="4" fill="#0" id="circle334"/>
	<circle cx="976.969" cy="139.597" r="4" fill="#0" id="circle335"/>
	<circle cx="978.158" cy="43.8465" r="4" fill="#0" id="circle336"/>
	<circle cx="981.132" cy="134.839" r="4" fill="#0" id="circle337"/>
	<circle cx="982.321" cy="48.6043" r="4" fill="#0" id="circle338"/>
	<circle cx="984.7" cy="130.082" r="4" fill="#0" id="circle339"/>
	<circle cx="985.295" cy="53.9568" r="4" fill="#0" id="circle340"/>
	<circle cx="987.674" cy="124.729" r="4" fill="#0" id="circle341"/>
	<circle cx="988.863" cy="58.7146" r="4" fill="#0" id="circle342"/>
	<circle cx="990.647" cy="64.6619" r="4" fill="#0" id="circle343"/>
	<circle cx="990.647" cy="116.403" r="4" fill="#0" id="circle344"/>
	<circle cx="992.432" cy="70.6091" r="4" fill="#0" id="circle345"/>
	<circle cx="993.621" cy="110.456" r="4" fill="#0" id="circle346"/>
	<circle cx="994.216" cy="76.5564" r="4" fill="#0" id="circle347"/>
	<circle cx="994.811" cy="98.5612" r="4" fill="#0" id="circle348"/>
	<circle cx="994.811" cy="104.508" r="4" fill="#0" id="circle349"/>
	<circle cx="996" cy="82.5036" r="4" fill="#0" id="circle350"/>
	<circle cx="996" cy="88.4508" r="4" fill="#0" id="circle351"/>
	</g>
</svg>