<?xml version="1.0" encoding="UTF-8" standalone="no"?>
<!-- Created with CurveBenchmark -->
<svg
	xmlns:dc="http://purl.org/dc/elements/1.1/"
	xmlns:cc="http://creativecommons.org/ns#"
	xmlns:rdf="http://www.w3.org/1999/02/22-rdf-syntax-ns#"
	xmlns:svg="http://www.w3.org/2000/svg"
	xmlns="http://www.w3.org/2000/svg"
	xmlns:sodipodi="http://sodipodi.sourceforge.net/DTD/sodipodi-0.dtd"
	xmlns:inkscape="http://www.inkscape.org/namespaces/inkscape"
	width="1000"
	height="1000"
	id="svg2"
	version="1.1"
	sodipodi:docname="manifold/crust-hand2.png.txt">
<defs
	id="defs4" />
<metadata
	id="metadata7">
	<rdf:RDF>
		<cc:Work
			rdf:about="">
			<dc:format>image/svg+xml</dc:format>
			<dc:type
				rdf:resource="http://purl.org/dc/dcmitype/StillImage" />
			<dc:title></dc:title>
		</cc:Work>
	</rdf:RDF>
</metadata>
<g
	inkscape:label="Layer 1"
	inkscape:groupmode="layer"
	id="layer1">
	<path style="fill:none;stroke:red;stroke-width:1px;stroke-linecap:butt;stroke-linejoin:miter;stroke-opacity:1" d="M 95.8519,122.387 75.4403,142.798 z" id="boundary" inkscape:connector-curvature="0" />
	<path style="fill:none;stroke:red;stroke-width:1px;stroke-linecap:butt;stroke-linejoin:miter;stroke-opacity:1" d="M 116.263,116.263 95.8519,122.387 z" id="boundary" inkscape:connector-curvature="0" />
	<path style="fill:none;stroke:red;stroke-width:1px;stroke-linecap:butt;stroke-linejoin:miter;stroke-opacity:1" d="M 116.263,116.263 132.593,128.51 z" id="boundary" inkscape:connector-curvature="0" />
	<path style="fill:none;stroke:red;stroke-width:1px;stroke-linecap:butt;stroke-linejoin:miter;stroke-opacity:1" d="M 65.2346,173.416 75.4403,142.798 z" id="boundary" inkscape:connector-curvature="0" />
	<path style="fill:none;stroke:red;stroke-width:1px;stroke-linecap:butt;stroke-linejoin:miter;stroke-opacity:1" d="M 75.4403,191.786 65.2346,173.416 z" id="boundary" inkscape:connector-curvature="0" />
	<path style="fill:none;stroke:red;stroke-width:1px;stroke-linecap:butt;stroke-linejoin:miter;stroke-opacity:1" d="M 75.4403,191.786 75.4403,212.198 z" id="boundary" inkscape:connector-curvature="0" />
	<path style="fill:none;stroke:red;stroke-width:1px;stroke-linecap:butt;stroke-linejoin:miter;stroke-opacity:1" d="M 85.6461,230.568 75.4403,212.198 z" id="boundary" inkscape:connector-curvature="0" />
	<path style="fill:none;stroke:red;stroke-width:1px;stroke-linecap:butt;stroke-linejoin:miter;stroke-opacity:1" d="M 132.593,128.51 148.922,142.798 z" id="boundary" inkscape:connector-curvature="0" />
	<path style="fill:none;stroke:red;stroke-width:1px;stroke-linecap:butt;stroke-linejoin:miter;stroke-opacity:1" d="M 228.527,69.3169 218.321,50.9465 z" id="boundary" inkscape:connector-curvature="0" />
	<path style="fill:none;stroke:red;stroke-width:1px;stroke-linecap:butt;stroke-linejoin:miter;stroke-opacity:1" d="M 218.321,50.9465 218.321,30.535 z" id="boundary" inkscape:connector-curvature="0" />
	<path style="fill:none;stroke:red;stroke-width:1px;stroke-linecap:butt;stroke-linejoin:miter;stroke-opacity:1" d="M 234.65,14.2058 218.321,30.535 z" id="boundary" inkscape:connector-curvature="0" />
	<path style="fill:none;stroke:red;stroke-width:1px;stroke-linecap:butt;stroke-linejoin:miter;stroke-opacity:1" d="M 163.21,159.128 148.922,142.798 z" id="boundary" inkscape:connector-curvature="0" />
	<path style="fill:none;stroke:red;stroke-width:1px;stroke-linecap:butt;stroke-linejoin:miter;stroke-opacity:1" d="M 173.416,177.498 163.21,159.128 z" id="boundary" inkscape:connector-curvature="0" />
	<path style="fill:none;stroke:red;stroke-width:1px;stroke-linecap:butt;stroke-linejoin:miter;stroke-opacity:1" d="M 179.539,197.909 173.416,177.498 z" id="boundary" inkscape:connector-curvature="0" />
	<path style="fill:none;stroke:red;stroke-width:1px;stroke-linecap:butt;stroke-linejoin:miter;stroke-opacity:1" d="M 189.745,216.28 179.539,197.909 z" id="boundary" inkscape:connector-curvature="0" />
	<path style="fill:none;stroke:red;stroke-width:1px;stroke-linecap:butt;stroke-linejoin:miter;stroke-opacity:1" d="M 199.951,234.65 189.745,216.28 z" id="boundary" inkscape:connector-curvature="0" />
	<path style="fill:none;stroke:red;stroke-width:1px;stroke-linecap:butt;stroke-linejoin:miter;stroke-opacity:1" d="M 228.527,69.3169 238.733,87.6872 z" id="boundary" inkscape:connector-curvature="0" />
	<path style="fill:none;stroke:red;stroke-width:1px;stroke-linecap:butt;stroke-linejoin:miter;stroke-opacity:1" d="M 85.6461,230.568 97.893,246.897 z" id="boundary" inkscape:connector-curvature="0" />
	<path style="fill:none;stroke:red;stroke-width:1px;stroke-linecap:butt;stroke-linejoin:miter;stroke-opacity:1" d="M 106.058,267.309 97.893,246.897 z" id="boundary" inkscape:connector-curvature="0" />
	<path style="fill:none;stroke:red;stroke-width:1px;stroke-linecap:butt;stroke-linejoin:miter;stroke-opacity:1" d="M 44.823,330.584 24.4115,330.584 z" id="boundary" inkscape:connector-curvature="0" />
	<path style="fill:none;stroke:red;stroke-width:1px;stroke-linecap:butt;stroke-linejoin:miter;stroke-opacity:1" d="M 4,336.708 24.4115,330.584 z" id="boundary" inkscape:connector-curvature="0" />
	<path style="fill:none;stroke:red;stroke-width:1px;stroke-linecap:butt;stroke-linejoin:miter;stroke-opacity:1" d="M 44.823,330.584 65.2346,334.667 z" id="boundary" inkscape:connector-curvature="0" />
	<path style="fill:none;stroke:red;stroke-width:1px;stroke-linecap:butt;stroke-linejoin:miter;stroke-opacity:1" d="M 77.4815,350.996 65.2346,334.667 z" id="boundary" inkscape:connector-curvature="0" />
	<path style="fill:none;stroke:red;stroke-width:1px;stroke-linecap:butt;stroke-linejoin:miter;stroke-opacity:1" d="M 97.893,357.119 77.4815,350.996 z" id="boundary" inkscape:connector-curvature="0" />
	<path style="fill:none;stroke:red;stroke-width:1px;stroke-linecap:butt;stroke-linejoin:miter;stroke-opacity:1" d="M 106.058,267.309 122.387,281.597 z" id="boundary" inkscape:connector-curvature="0" />
	<path style="fill:none;stroke:red;stroke-width:1px;stroke-linecap:butt;stroke-linejoin:miter;stroke-opacity:1" d="M 199.951,234.65 208.115,255.062 z" id="boundary" inkscape:connector-curvature="0" />
	<path style="fill:none;stroke:red;stroke-width:1px;stroke-linecap:butt;stroke-linejoin:miter;stroke-opacity:1" d="M 208.115,255.062 218.321,273.432 z" id="boundary" inkscape:connector-curvature="0" />
	<path style="fill:none;stroke:red;stroke-width:1px;stroke-linecap:butt;stroke-linejoin:miter;stroke-opacity:1" d="M 126.469,302.008 122.387,281.597 z" id="boundary" inkscape:connector-curvature="0" />
	<path style="fill:none;stroke:red;stroke-width:1px;stroke-linecap:butt;stroke-linejoin:miter;stroke-opacity:1" d="M 136.675,320.379 126.469,302.008 z" id="boundary" inkscape:connector-curvature="0" />
	<path style="fill:none;stroke:red;stroke-width:1px;stroke-linecap:butt;stroke-linejoin:miter;stroke-opacity:1" d="M 136.675,320.379 146.881,338.749 z" id="boundary" inkscape:connector-curvature="0" />
	<path style="fill:none;stroke:red;stroke-width:1px;stroke-linecap:butt;stroke-linejoin:miter;stroke-opacity:1" d="M 146.881,338.749 148.922,359.16 z" id="boundary" inkscape:connector-curvature="0" />
	<path style="fill:none;stroke:red;stroke-width:1px;stroke-linecap:butt;stroke-linejoin:miter;stroke-opacity:1" d="M 226.486,293.844 240.774,310.173 z" id="boundary" inkscape:connector-curvature="0" />
	<path style="fill:none;stroke:red;stroke-width:1px;stroke-linecap:butt;stroke-linejoin:miter;stroke-opacity:1" d="M 218.321,273.432 226.486,293.844 z" id="boundary" inkscape:connector-curvature="0" />
	<path style="fill:none;stroke:red;stroke-width:1px;stroke-linecap:butt;stroke-linejoin:miter;stroke-opacity:1" d="M 4,357.119 4,336.708 z" id="boundary" inkscape:connector-curvature="0" />
	<path style="fill:none;stroke:red;stroke-width:1px;stroke-linecap:butt;stroke-linejoin:miter;stroke-opacity:1" d="M 253.021,4 234.65,14.2058 z" id="boundary" inkscape:connector-curvature="0" />
	<path style="fill:none;stroke:red;stroke-width:1px;stroke-linecap:butt;stroke-linejoin:miter;stroke-opacity:1" d="M 273.432,4 289.761,18.2881 z" id="boundary" inkscape:connector-curvature="0" />
	<path style="fill:none;stroke:red;stroke-width:1px;stroke-linecap:butt;stroke-linejoin:miter;stroke-opacity:1" d="M 289.761,18.2881 308.132,28.4938 z" id="boundary" inkscape:connector-curvature="0" />
	<path style="fill:none;stroke:red;stroke-width:1px;stroke-linecap:butt;stroke-linejoin:miter;stroke-opacity:1" d="M 253.021,4 273.432,4 z" id="boundary" inkscape:connector-curvature="0" />
	<path style="fill:none;stroke:red;stroke-width:1px;stroke-linecap:butt;stroke-linejoin:miter;stroke-opacity:1" d="M 238.733,87.6872 238.733,108.099 z" id="boundary" inkscape:connector-curvature="0" />
	<path style="fill:none;stroke:red;stroke-width:1px;stroke-linecap:butt;stroke-linejoin:miter;stroke-opacity:1" d="M 248.938,126.469 238.733,108.099 z" id="boundary" inkscape:connector-curvature="0" />
	<path style="fill:none;stroke:red;stroke-width:1px;stroke-linecap:butt;stroke-linejoin:miter;stroke-opacity:1" d="M 259.144,167.292 253.021,146.881 z" id="boundary" inkscape:connector-curvature="0" />
	<path style="fill:none;stroke:red;stroke-width:1px;stroke-linecap:butt;stroke-linejoin:miter;stroke-opacity:1" d="M 253.021,146.881 248.938,126.469 z" id="boundary" inkscape:connector-curvature="0" />
	<path style="fill:none;stroke:red;stroke-width:1px;stroke-linecap:butt;stroke-linejoin:miter;stroke-opacity:1" d="M 259.144,167.292 269.35,185.663 z" id="boundary" inkscape:connector-curvature="0" />
	<path style="fill:none;stroke:red;stroke-width:1px;stroke-linecap:butt;stroke-linejoin:miter;stroke-opacity:1" d="M 322.42,44.823 308.132,28.4938 z" id="boundary" inkscape:connector-curvature="0" />
	<path style="fill:none;stroke:red;stroke-width:1px;stroke-linecap:butt;stroke-linejoin:miter;stroke-opacity:1" d="M 322.42,65.2346 322.42,44.823 z" id="boundary" inkscape:connector-curvature="0" />
	<path style="fill:none;stroke:red;stroke-width:1px;stroke-linecap:butt;stroke-linejoin:miter;stroke-opacity:1" d="M 338.749,77.4815 322.42,65.2346 z" id="boundary" inkscape:connector-curvature="0" />
	<path style="fill:none;stroke:red;stroke-width:1px;stroke-linecap:butt;stroke-linejoin:miter;stroke-opacity:1" d="M 346.914,97.893 353.037,118.305 z" id="boundary" inkscape:connector-curvature="0" />
	<path style="fill:none;stroke:red;stroke-width:1px;stroke-linecap:butt;stroke-linejoin:miter;stroke-opacity:1" d="M 346.914,97.893 338.749,77.4815 z" id="boundary" inkscape:connector-curvature="0" />
	<path style="fill:none;stroke:red;stroke-width:1px;stroke-linecap:butt;stroke-linejoin:miter;stroke-opacity:1" d="M 353.037,118.305 363.243,136.675 z" id="boundary" inkscape:connector-curvature="0" />
	<path style="fill:none;stroke:red;stroke-width:1px;stroke-linecap:butt;stroke-linejoin:miter;stroke-opacity:1" d="M 373.449,175.457 363.243,157.086 z" id="boundary" inkscape:connector-curvature="0" />
	<path style="fill:none;stroke:red;stroke-width:1px;stroke-linecap:butt;stroke-linejoin:miter;stroke-opacity:1" d="M 363.243,157.086 363.243,136.675 z" id="boundary" inkscape:connector-curvature="0" />
	<path style="fill:none;stroke:red;stroke-width:1px;stroke-linecap:butt;stroke-linejoin:miter;stroke-opacity:1" d="M 279.556,226.486 271.391,206.074 z" id="boundary" inkscape:connector-curvature="0" />
	<path style="fill:none;stroke:red;stroke-width:1px;stroke-linecap:butt;stroke-linejoin:miter;stroke-opacity:1" d="M 271.391,206.074 269.35,185.663 z" id="boundary" inkscape:connector-curvature="0" />
	<path style="fill:none;stroke:red;stroke-width:1px;stroke-linecap:butt;stroke-linejoin:miter;stroke-opacity:1" d="M 279.556,226.486 279.556,246.897 z" id="boundary" inkscape:connector-curvature="0" />
	<path style="fill:none;stroke:red;stroke-width:1px;stroke-linecap:butt;stroke-linejoin:miter;stroke-opacity:1" d="M 279.556,246.897 279.556,267.309 z" id="boundary" inkscape:connector-curvature="0" />
	<path style="fill:none;stroke:red;stroke-width:1px;stroke-linecap:butt;stroke-linejoin:miter;stroke-opacity:1" d="M 281.597,287.72 279.556,267.309 z" id="boundary" inkscape:connector-curvature="0" />
	<path style="fill:none;stroke:red;stroke-width:1px;stroke-linecap:butt;stroke-linejoin:miter;stroke-opacity:1" d="M 240.774,310.173 250.979,328.543 z" id="boundary" inkscape:connector-curvature="0" />
	<path style="fill:none;stroke:red;stroke-width:1px;stroke-linecap:butt;stroke-linejoin:miter;stroke-opacity:1" d="M 261.185,346.914 250.979,328.543 z" id="boundary" inkscape:connector-curvature="0" />
	<path style="fill:none;stroke:red;stroke-width:1px;stroke-linecap:butt;stroke-linejoin:miter;stroke-opacity:1" d="M 281.597,287.72 289.761,308.132 z" id="boundary" inkscape:connector-curvature="0" />
	<path style="fill:none;stroke:red;stroke-width:1px;stroke-linecap:butt;stroke-linejoin:miter;stroke-opacity:1" d="M 275.473,363.243 261.185,346.914 z" id="boundary" inkscape:connector-curvature="0" />
	<path style="fill:none;stroke:red;stroke-width:1px;stroke-linecap:butt;stroke-linejoin:miter;stroke-opacity:1" d="M 299.967,326.502 289.761,308.132 z" id="boundary" inkscape:connector-curvature="0" />
	<path style="fill:none;stroke:red;stroke-width:1px;stroke-linecap:butt;stroke-linejoin:miter;stroke-opacity:1" d="M 310.173,344.872 299.967,326.502 z" id="boundary" inkscape:connector-curvature="0" />
	<path style="fill:none;stroke:red;stroke-width:1px;stroke-linecap:butt;stroke-linejoin:miter;stroke-opacity:1" d="M 310.173,344.872 310.173,365.284 z" id="boundary" inkscape:connector-curvature="0" />
	<path style="fill:none;stroke:red;stroke-width:1px;stroke-linecap:butt;stroke-linejoin:miter;stroke-opacity:1" d="M 4,357.119 14.2058,375.49 z" id="boundary" inkscape:connector-curvature="0" />
	<path style="fill:none;stroke:red;stroke-width:1px;stroke-linecap:butt;stroke-linejoin:miter;stroke-opacity:1" d="M 24.4115,393.86 14.2058,375.49 z" id="boundary" inkscape:connector-curvature="0" />
	<path style="fill:none;stroke:red;stroke-width:1px;stroke-linecap:butt;stroke-linejoin:miter;stroke-opacity:1" d="M 24.4115,393.86 24.4115,414.272 z" id="boundary" inkscape:connector-curvature="0" />
	<path style="fill:none;stroke:red;stroke-width:1px;stroke-linecap:butt;stroke-linejoin:miter;stroke-opacity:1" d="M 24.4115,414.272 36.6584,430.601 z" id="boundary" inkscape:connector-curvature="0" />
	<path style="fill:none;stroke:red;stroke-width:1px;stroke-linecap:butt;stroke-linejoin:miter;stroke-opacity:1" d="M 52.9877,444.889 36.6584,430.601 z" id="boundary" inkscape:connector-curvature="0" />
	<path style="fill:none;stroke:red;stroke-width:1px;stroke-linecap:butt;stroke-linejoin:miter;stroke-opacity:1" d="M 61.1523,465.3 52.9877,444.889 z" id="boundary" inkscape:connector-curvature="0" />
	<path style="fill:none;stroke:red;stroke-width:1px;stroke-linecap:butt;stroke-linejoin:miter;stroke-opacity:1" d="M 106.058,377.531 97.893,357.119 z" id="boundary" inkscape:connector-curvature="0" />
	<path style="fill:none;stroke:red;stroke-width:1px;stroke-linecap:butt;stroke-linejoin:miter;stroke-opacity:1" d="M 122.387,391.819 106.058,377.531 z" id="boundary" inkscape:connector-curvature="0" />
	<path style="fill:none;stroke:red;stroke-width:1px;stroke-linecap:butt;stroke-linejoin:miter;stroke-opacity:1" d="M 122.387,391.819 128.51,412.23 z" id="boundary" inkscape:connector-curvature="0" />
	<path style="fill:none;stroke:red;stroke-width:1px;stroke-linecap:butt;stroke-linejoin:miter;stroke-opacity:1" d="M 148.922,359.16 159.128,377.531 z" id="boundary" inkscape:connector-curvature="0" />
	<path style="fill:none;stroke:red;stroke-width:1px;stroke-linecap:butt;stroke-linejoin:miter;stroke-opacity:1" d="M 159.128,377.531 167.292,397.942 z" id="boundary" inkscape:connector-curvature="0" />
	<path style="fill:none;stroke:red;stroke-width:1px;stroke-linecap:butt;stroke-linejoin:miter;stroke-opacity:1" d="M 128.51,412.23 138.716,430.601 z" id="boundary" inkscape:connector-curvature="0" />
	<path style="fill:none;stroke:red;stroke-width:1px;stroke-linecap:butt;stroke-linejoin:miter;stroke-opacity:1" d="M 138.716,430.601 148.922,448.971 z" id="boundary" inkscape:connector-curvature="0" />
	<path style="fill:none;stroke:red;stroke-width:1px;stroke-linecap:butt;stroke-linejoin:miter;stroke-opacity:1" d="M 75.4403,481.63 61.1523,465.3 z" id="boundary" inkscape:connector-curvature="0" />
	<path style="fill:none;stroke:red;stroke-width:1px;stroke-linecap:butt;stroke-linejoin:miter;stroke-opacity:1" d="M 163.21,465.3 148.922,448.971 z" id="boundary" inkscape:connector-curvature="0" />
	<path style="fill:none;stroke:red;stroke-width:1px;stroke-linecap:butt;stroke-linejoin:miter;stroke-opacity:1" d="M 167.292,397.942 177.498,416.313 z" id="boundary" inkscape:connector-curvature="0" />
	<path style="fill:none;stroke:red;stroke-width:1px;stroke-linecap:butt;stroke-linejoin:miter;stroke-opacity:1" d="M 75.4403,481.63 85.6461,500 z" id="boundary" inkscape:connector-curvature="0" />
	<path style="fill:none;stroke:red;stroke-width:1px;stroke-linecap:butt;stroke-linejoin:miter;stroke-opacity:1" d="M 85.6461,500 95.8519,518.37 z" id="boundary" inkscape:connector-curvature="0" />
	<path style="fill:none;stroke:red;stroke-width:1px;stroke-linecap:butt;stroke-linejoin:miter;stroke-opacity:1" d="M 106.058,536.741 95.8519,518.37 z" id="boundary" inkscape:connector-curvature="0" />
	<path style="fill:none;stroke:red;stroke-width:1px;stroke-linecap:butt;stroke-linejoin:miter;stroke-opacity:1" d="M 163.21,465.3 179.539,479.588 z" id="boundary" inkscape:connector-curvature="0" />
	<path style="fill:none;stroke:red;stroke-width:1px;stroke-linecap:butt;stroke-linejoin:miter;stroke-opacity:1" d="M 128.51,571.44 112.181,557.152 z" id="boundary" inkscape:connector-curvature="0" />
	<path style="fill:none;stroke:red;stroke-width:1px;stroke-linecap:butt;stroke-linejoin:miter;stroke-opacity:1" d="M 112.181,557.152 106.058,536.741 z" id="boundary" inkscape:connector-curvature="0" />
	<path style="fill:none;stroke:red;stroke-width:1px;stroke-linecap:butt;stroke-linejoin:miter;stroke-opacity:1" d="M 128.51,571.44 136.675,591.852 z" id="boundary" inkscape:connector-curvature="0" />
	<path style="fill:none;stroke:red;stroke-width:1px;stroke-linecap:butt;stroke-linejoin:miter;stroke-opacity:1" d="M 161.169,626.551 146.881,610.222 z" id="boundary" inkscape:connector-curvature="0" />
	<path style="fill:none;stroke:red;stroke-width:1px;stroke-linecap:butt;stroke-linejoin:miter;stroke-opacity:1" d="M 146.881,610.222 136.675,591.852 z" id="boundary" inkscape:connector-curvature="0" />
	<path style="fill:none;stroke:red;stroke-width:1px;stroke-linecap:butt;stroke-linejoin:miter;stroke-opacity:1" d="M 161.169,626.551 171.374,644.922 z" id="boundary" inkscape:connector-curvature="0" />
	<path style="fill:none;stroke:red;stroke-width:1px;stroke-linecap:butt;stroke-linejoin:miter;stroke-opacity:1" d="M 171.374,644.922 179.539,665.333 z" id="boundary" inkscape:connector-curvature="0" />
	<path style="fill:none;stroke:red;stroke-width:1px;stroke-linecap:butt;stroke-linejoin:miter;stroke-opacity:1" d="M 187.704,434.683 193.827,455.095 z" id="boundary" inkscape:connector-curvature="0" />
	<path style="fill:none;stroke:red;stroke-width:1px;stroke-linecap:butt;stroke-linejoin:miter;stroke-opacity:1" d="M 210.156,469.383 193.827,455.095 z" id="boundary" inkscape:connector-curvature="0" />
	<path style="fill:none;stroke:red;stroke-width:1px;stroke-linecap:butt;stroke-linejoin:miter;stroke-opacity:1" d="M 187.704,434.683 177.498,416.313 z" id="boundary" inkscape:connector-curvature="0" />
	<path style="fill:none;stroke:red;stroke-width:1px;stroke-linecap:butt;stroke-linejoin:miter;stroke-opacity:1" d="M 218.321,489.794 210.156,469.383 z" id="boundary" inkscape:connector-curvature="0" />
	<path style="fill:none;stroke:red;stroke-width:1px;stroke-linecap:butt;stroke-linejoin:miter;stroke-opacity:1" d="M 187.704,500 179.539,479.588 z" id="boundary" inkscape:connector-curvature="0" />
	<path style="fill:none;stroke:red;stroke-width:1px;stroke-linecap:butt;stroke-linejoin:miter;stroke-opacity:1" d="M 187.704,500 204.033,514.288 z" id="boundary" inkscape:connector-curvature="0" />
	<path style="fill:none;stroke:red;stroke-width:1px;stroke-linecap:butt;stroke-linejoin:miter;stroke-opacity:1" d="M 218.321,489.794 228.527,508.165 z" id="boundary" inkscape:connector-curvature="0" />
	<path style="fill:none;stroke:red;stroke-width:1px;stroke-linecap:butt;stroke-linejoin:miter;stroke-opacity:1" d="M 210.156,534.7 204.033,514.288 z" id="boundary" inkscape:connector-curvature="0" />
	<path style="fill:none;stroke:red;stroke-width:1px;stroke-linecap:butt;stroke-linejoin:miter;stroke-opacity:1" d="M 285.679,381.613 275.473,363.243 z" id="boundary" inkscape:connector-curvature="0" />
	<path style="fill:none;stroke:red;stroke-width:1px;stroke-linecap:butt;stroke-linejoin:miter;stroke-opacity:1" d="M 291.802,402.025 285.679,381.613 z" id="boundary" inkscape:connector-curvature="0" />
	<path style="fill:none;stroke:red;stroke-width:1px;stroke-linecap:butt;stroke-linejoin:miter;stroke-opacity:1" d="M 310.173,365.284 320.379,383.654 z" id="boundary" inkscape:connector-curvature="0" />
	<path style="fill:none;stroke:red;stroke-width:1px;stroke-linecap:butt;stroke-linejoin:miter;stroke-opacity:1" d="M 320.379,383.654 326.502,404.066 z" id="boundary" inkscape:connector-curvature="0" />
	<path style="fill:none;stroke:red;stroke-width:1px;stroke-linecap:butt;stroke-linejoin:miter;stroke-opacity:1" d="M 308.132,414.272 291.802,402.025 z" id="boundary" inkscape:connector-curvature="0" />
	<path style="fill:none;stroke:red;stroke-width:1px;stroke-linecap:butt;stroke-linejoin:miter;stroke-opacity:1" d="M 326.502,404.066 308.132,414.272 z" id="boundary" inkscape:connector-curvature="0" />
	<path style="fill:none;stroke:red;stroke-width:1px;stroke-linecap:butt;stroke-linejoin:miter;stroke-opacity:1" d="M 308.132,414.272 318.337,432.642 z" id="boundary" inkscape:connector-curvature="0" />
	<path style="fill:none;stroke:red;stroke-width:1px;stroke-linecap:butt;stroke-linejoin:miter;stroke-opacity:1" d="M 238.733,526.535 228.527,508.165 z" id="boundary" inkscape:connector-curvature="0" />
	<path style="fill:none;stroke:red;stroke-width:1px;stroke-linecap:butt;stroke-linejoin:miter;stroke-opacity:1" d="M 210.156,534.7 226.486,546.947 z" id="boundary" inkscape:connector-curvature="0" />
	<path style="fill:none;stroke:red;stroke-width:1px;stroke-linecap:butt;stroke-linejoin:miter;stroke-opacity:1" d="M 226.486,546.947 240.774,563.276 z" id="boundary" inkscape:connector-curvature="0" />
	<path style="fill:none;stroke:red;stroke-width:1px;stroke-linecap:butt;stroke-linejoin:miter;stroke-opacity:1" d="M 197.909,704.115 187.704,685.745 z" id="boundary" inkscape:connector-curvature="0" />
	<path style="fill:none;stroke:red;stroke-width:1px;stroke-linecap:butt;stroke-linejoin:miter;stroke-opacity:1" d="M 208.115,722.486 197.909,704.115 z" id="boundary" inkscape:connector-curvature="0" />
	<path style="fill:none;stroke:red;stroke-width:1px;stroke-linecap:butt;stroke-linejoin:miter;stroke-opacity:1" d="M 208.115,742.897 218.321,761.267 z" id="boundary" inkscape:connector-curvature="0" />
	<path style="fill:none;stroke:red;stroke-width:1px;stroke-linecap:butt;stroke-linejoin:miter;stroke-opacity:1" d="M 208.115,722.486 208.115,742.897 z" id="boundary" inkscape:connector-curvature="0" />
	<path style="fill:none;stroke:red;stroke-width:1px;stroke-linecap:butt;stroke-linejoin:miter;stroke-opacity:1" d="M 218.321,761.267 230.568,777.597 z" id="boundary" inkscape:connector-curvature="0" />
	<path style="fill:none;stroke:red;stroke-width:1px;stroke-linecap:butt;stroke-linejoin:miter;stroke-opacity:1" d="M 187.704,685.745 179.539,665.333 z" id="boundary" inkscape:connector-curvature="0" />
	<path style="fill:none;stroke:red;stroke-width:1px;stroke-linecap:butt;stroke-linejoin:miter;stroke-opacity:1" d="M 238.733,798.008 230.568,777.597 z" id="boundary" inkscape:connector-curvature="0" />
	<path style="fill:none;stroke:red;stroke-width:1px;stroke-linecap:butt;stroke-linejoin:miter;stroke-opacity:1" d="M 238.733,798.008 240.774,818.42 z" id="boundary" inkscape:connector-curvature="0" />
	<path style="fill:none;stroke:red;stroke-width:1px;stroke-linecap:butt;stroke-linejoin:miter;stroke-opacity:1" d="M 240.774,818.42 248.938,838.831 z" id="boundary" inkscape:connector-curvature="0" />
	<path style="fill:none;stroke:red;stroke-width:1px;stroke-linecap:butt;stroke-linejoin:miter;stroke-opacity:1" d="M 250.979,859.243 248.938,838.831 z" id="boundary" inkscape:connector-curvature="0" />
	<path style="fill:none;stroke:red;stroke-width:1px;stroke-linecap:butt;stroke-linejoin:miter;stroke-opacity:1" d="M 269.35,898.025 259.144,879.654 z" id="boundary" inkscape:connector-curvature="0" />
	<path style="fill:none;stroke:red;stroke-width:1px;stroke-linecap:butt;stroke-linejoin:miter;stroke-opacity:1" d="M 279.556,916.395 269.35,898.025 z" id="boundary" inkscape:connector-curvature="0" />
	<path style="fill:none;stroke:red;stroke-width:1px;stroke-linecap:butt;stroke-linejoin:miter;stroke-opacity:1" d="M 250.979,859.243 259.144,879.654 z" id="boundary" inkscape:connector-curvature="0" />
	<path style="fill:none;stroke:red;stroke-width:1px;stroke-linecap:butt;stroke-linejoin:miter;stroke-opacity:1" d="M 302.008,951.095 289.761,934.765 z" id="boundary" inkscape:connector-curvature="0" />
	<path style="fill:none;stroke:red;stroke-width:1px;stroke-linecap:butt;stroke-linejoin:miter;stroke-opacity:1" d="M 279.556,916.395 289.761,934.765 z" id="boundary" inkscape:connector-curvature="0" />
	<path style="fill:none;stroke:red;stroke-width:1px;stroke-linecap:butt;stroke-linejoin:miter;stroke-opacity:1" d="M 318.337,965.383 302.008,951.095 z" id="boundary" inkscape:connector-curvature="0" />
	<path style="fill:none;stroke:red;stroke-width:1px;stroke-linecap:butt;stroke-linejoin:miter;stroke-opacity:1" d="M 387.737,996 367.325,996 z" id="boundary" inkscape:connector-curvature="0" />
	<path style="fill:none;stroke:red;stroke-width:1px;stroke-linecap:butt;stroke-linejoin:miter;stroke-opacity:1" d="M 330.584,981.712 318.337,965.383 z" id="boundary" inkscape:connector-curvature="0" />
	<path style="fill:none;stroke:red;stroke-width:1px;stroke-linecap:butt;stroke-linejoin:miter;stroke-opacity:1" d="M 346.914,996 330.584,981.712 z" id="boundary" inkscape:connector-curvature="0" />
	<path style="fill:none;stroke:red;stroke-width:1px;stroke-linecap:butt;stroke-linejoin:miter;stroke-opacity:1" d="M 367.325,996 346.914,996 z" id="boundary" inkscape:connector-curvature="0" />
	<path style="fill:none;stroke:red;stroke-width:1px;stroke-linecap:butt;stroke-linejoin:miter;stroke-opacity:1" d="M 373.449,175.457 383.654,193.827 z" id="boundary" inkscape:connector-curvature="0" />
	<path style="fill:none;stroke:red;stroke-width:1px;stroke-linecap:butt;stroke-linejoin:miter;stroke-opacity:1" d="M 412.23,30.535 428.56,14.2058 z" id="boundary" inkscape:connector-curvature="0" />
	<path style="fill:none;stroke:red;stroke-width:1px;stroke-linecap:butt;stroke-linejoin:miter;stroke-opacity:1" d="M 412.23,50.9465 412.23,30.535 z" id="boundary" inkscape:connector-curvature="0" />
	<path style="fill:none;stroke:red;stroke-width:1px;stroke-linecap:butt;stroke-linejoin:miter;stroke-opacity:1" d="M 422.436,69.3169 422.436,89.7284 z" id="boundary" inkscape:connector-curvature="0" />
	<path style="fill:none;stroke:red;stroke-width:1px;stroke-linecap:butt;stroke-linejoin:miter;stroke-opacity:1" d="M 422.436,69.3169 412.23,50.9465 z" id="boundary" inkscape:connector-curvature="0" />
	<path style="fill:none;stroke:red;stroke-width:1px;stroke-linecap:butt;stroke-linejoin:miter;stroke-opacity:1" d="M 422.436,110.14 422.436,89.7284 z" id="boundary" inkscape:connector-curvature="0" />
	<path style="fill:none;stroke:red;stroke-width:1px;stroke-linecap:butt;stroke-linejoin:miter;stroke-opacity:1" d="M 422.436,110.14 432.642,128.51 z" id="boundary" inkscape:connector-curvature="0" />
	<path style="fill:none;stroke:red;stroke-width:1px;stroke-linecap:butt;stroke-linejoin:miter;stroke-opacity:1" d="M 432.642,128.51 438.765,148.922 z" id="boundary" inkscape:connector-curvature="0" />
	<path style="fill:none;stroke:red;stroke-width:1px;stroke-linecap:butt;stroke-linejoin:miter;stroke-opacity:1" d="M 446.93,4 465.3,14.2058 z" id="boundary" inkscape:connector-curvature="0" />
	<path style="fill:none;stroke:red;stroke-width:1px;stroke-linecap:butt;stroke-linejoin:miter;stroke-opacity:1" d="M 483.671,24.4115 465.3,14.2058 z" id="boundary" inkscape:connector-curvature="0" />
	<path style="fill:none;stroke:red;stroke-width:1px;stroke-linecap:butt;stroke-linejoin:miter;stroke-opacity:1" d="M 500,36.6584 483.671,24.4115 z" id="boundary" inkscape:connector-curvature="0" />
	<path style="fill:none;stroke:red;stroke-width:1px;stroke-linecap:butt;stroke-linejoin:miter;stroke-opacity:1" d="M 442.848,169.333 442.848,189.745 z" id="boundary" inkscape:connector-curvature="0" />
	<path style="fill:none;stroke:red;stroke-width:1px;stroke-linecap:butt;stroke-linejoin:miter;stroke-opacity:1" d="M 442.848,169.333 438.765,148.922 z" id="boundary" inkscape:connector-curvature="0" />
	<path style="fill:none;stroke:red;stroke-width:1px;stroke-linecap:butt;stroke-linejoin:miter;stroke-opacity:1" d="M 428.56,14.2058 446.93,4 z" id="boundary" inkscape:connector-curvature="0" />
	<path style="fill:none;stroke:red;stroke-width:1px;stroke-linecap:butt;stroke-linejoin:miter;stroke-opacity:1" d="M 391.819,214.239 383.654,193.827 z" id="boundary" inkscape:connector-curvature="0" />
	<path style="fill:none;stroke:red;stroke-width:1px;stroke-linecap:butt;stroke-linejoin:miter;stroke-opacity:1" d="M 393.86,234.65 391.819,214.239 z" id="boundary" inkscape:connector-curvature="0" />
	<path style="fill:none;stroke:red;stroke-width:1px;stroke-linecap:butt;stroke-linejoin:miter;stroke-opacity:1" d="M 402.025,255.062 393.86,234.65 z" id="boundary" inkscape:connector-curvature="0" />
	<path style="fill:none;stroke:red;stroke-width:1px;stroke-linecap:butt;stroke-linejoin:miter;stroke-opacity:1" d="M 402.025,255.062 404.066,275.473 z" id="boundary" inkscape:connector-curvature="0" />
	<path style="fill:none;stroke:red;stroke-width:1px;stroke-linecap:butt;stroke-linejoin:miter;stroke-opacity:1" d="M 414.272,293.844 420.395,314.255 z" id="boundary" inkscape:connector-curvature="0" />
	<path style="fill:none;stroke:red;stroke-width:1px;stroke-linecap:butt;stroke-linejoin:miter;stroke-opacity:1" d="M 414.272,293.844 404.066,275.473 z" id="boundary" inkscape:connector-curvature="0" />
	<path style="fill:none;stroke:red;stroke-width:1px;stroke-linecap:butt;stroke-linejoin:miter;stroke-opacity:1" d="M 420.395,314.255 424.477,334.667 z" id="boundary" inkscape:connector-curvature="0" />
	<path style="fill:none;stroke:red;stroke-width:1px;stroke-linecap:butt;stroke-linejoin:miter;stroke-opacity:1" d="M 430.601,355.078 434.683,375.49 z" id="boundary" inkscape:connector-curvature="0" />
	<path style="fill:none;stroke:red;stroke-width:1px;stroke-linecap:butt;stroke-linejoin:miter;stroke-opacity:1" d="M 430.601,355.078 424.477,334.667 z" id="boundary" inkscape:connector-curvature="0" />
	<path style="fill:none;stroke:red;stroke-width:1px;stroke-linecap:butt;stroke-linejoin:miter;stroke-opacity:1" d="M 434.683,375.49 440.807,395.901 z" id="boundary" inkscape:connector-curvature="0" />
	<path style="fill:none;stroke:red;stroke-width:1px;stroke-linecap:butt;stroke-linejoin:miter;stroke-opacity:1" d="M 442.848,230.568 442.848,250.979 z" id="boundary" inkscape:connector-curvature="0" />
	<path style="fill:none;stroke:red;stroke-width:1px;stroke-linecap:butt;stroke-linejoin:miter;stroke-opacity:1" d="M 442.848,230.568 442.848,210.156 z" id="boundary" inkscape:connector-curvature="0" />
	<path style="fill:none;stroke:red;stroke-width:1px;stroke-linecap:butt;stroke-linejoin:miter;stroke-opacity:1" d="M 442.848,250.979 453.053,269.35 z" id="boundary" inkscape:connector-curvature="0" />
	<path style="fill:none;stroke:red;stroke-width:1px;stroke-linecap:butt;stroke-linejoin:miter;stroke-opacity:1" d="M 467.342,330.584 463.259,310.173 z" id="boundary" inkscape:connector-curvature="0" />
	<path style="fill:none;stroke:red;stroke-width:1px;stroke-linecap:butt;stroke-linejoin:miter;stroke-opacity:1" d="M 457.136,289.761 453.053,269.35 z" id="boundary" inkscape:connector-curvature="0" />
	<path style="fill:none;stroke:red;stroke-width:1px;stroke-linecap:butt;stroke-linejoin:miter;stroke-opacity:1" d="M 463.259,310.173 457.136,289.761 z" id="boundary" inkscape:connector-curvature="0" />
	<path style="fill:none;stroke:red;stroke-width:1px;stroke-linecap:butt;stroke-linejoin:miter;stroke-opacity:1" d="M 442.848,189.745 442.848,210.156 z" id="boundary" inkscape:connector-curvature="0" />
	<path style="fill:none;stroke:red;stroke-width:1px;stroke-linecap:butt;stroke-linejoin:miter;stroke-opacity:1" d="M 473.465,350.996 473.465,371.407 z" id="boundary" inkscape:connector-curvature="0" />
	<path style="fill:none;stroke:red;stroke-width:1px;stroke-linecap:butt;stroke-linejoin:miter;stroke-opacity:1" d="M 473.465,350.996 467.342,330.584 z" id="boundary" inkscape:connector-curvature="0" />
	<path style="fill:none;stroke:red;stroke-width:1px;stroke-linecap:butt;stroke-linejoin:miter;stroke-opacity:1" d="M 461.218,402.025 440.807,395.901 z" id="boundary" inkscape:connector-curvature="0" />
	<path style="fill:none;stroke:red;stroke-width:1px;stroke-linecap:butt;stroke-linejoin:miter;stroke-opacity:1" d="M 473.465,371.407 461.218,402.025 z" id="boundary" inkscape:connector-curvature="0" />
	<path style="fill:none;stroke:red;stroke-width:1px;stroke-linecap:butt;stroke-linejoin:miter;stroke-opacity:1" d="M 500,36.6584 510.206,55.0288 z" id="boundary" inkscape:connector-curvature="0" />
	<path style="fill:none;stroke:red;stroke-width:1px;stroke-linecap:butt;stroke-linejoin:miter;stroke-opacity:1" d="M 532.658,87.6872 516.329,75.4403 z" id="boundary" inkscape:connector-curvature="0" />
	<path style="fill:none;stroke:red;stroke-width:1px;stroke-linecap:butt;stroke-linejoin:miter;stroke-opacity:1" d="M 532.658,87.6872 536.741,108.099 z" id="boundary" inkscape:connector-curvature="0" />
	<path style="fill:none;stroke:red;stroke-width:1px;stroke-linecap:butt;stroke-linejoin:miter;stroke-opacity:1" d="M 516.329,75.4403 510.206,55.0288 z" id="boundary" inkscape:connector-curvature="0" />
	<path style="fill:none;stroke:red;stroke-width:1px;stroke-linecap:butt;stroke-linejoin:miter;stroke-opacity:1" d="M 546.947,126.469 536.741,108.099 z" id="boundary" inkscape:connector-curvature="0" />
	<path style="fill:none;stroke:red;stroke-width:1px;stroke-linecap:butt;stroke-linejoin:miter;stroke-opacity:1" d="M 567.358,204.033 557.152,185.663 z" id="boundary" inkscape:connector-curvature="0" />
	<path style="fill:none;stroke:red;stroke-width:1px;stroke-linecap:butt;stroke-linejoin:miter;stroke-opacity:1" d="M 546.947,126.469 546.947,146.881 z" id="boundary" inkscape:connector-curvature="0" />
	<path style="fill:none;stroke:red;stroke-width:1px;stroke-linecap:butt;stroke-linejoin:miter;stroke-opacity:1" d="M 557.152,185.663 546.947,167.292 z" id="boundary" inkscape:connector-curvature="0" />
	<path style="fill:none;stroke:red;stroke-width:1px;stroke-linecap:butt;stroke-linejoin:miter;stroke-opacity:1" d="M 546.947,167.292 546.947,146.881 z" id="boundary" inkscape:connector-curvature="0" />
	<path style="fill:none;stroke:red;stroke-width:1px;stroke-linecap:butt;stroke-linejoin:miter;stroke-opacity:1" d="M 567.358,204.033 567.358,224.444 z" id="boundary" inkscape:connector-curvature="0" />
	<path style="fill:none;stroke:red;stroke-width:1px;stroke-linecap:butt;stroke-linejoin:miter;stroke-opacity:1" d="M 575.523,244.856 567.358,224.444 z" id="boundary" inkscape:connector-curvature="0" />
	<path style="fill:none;stroke:red;stroke-width:1px;stroke-linecap:butt;stroke-linejoin:miter;stroke-opacity:1" d="M 577.564,265.267 577.564,285.679 z" id="boundary" inkscape:connector-curvature="0" />
	<path style="fill:none;stroke:red;stroke-width:1px;stroke-linecap:butt;stroke-linejoin:miter;stroke-opacity:1" d="M 577.564,265.267 575.523,244.856 z" id="boundary" inkscape:connector-curvature="0" />
	<path style="fill:none;stroke:red;stroke-width:1px;stroke-linecap:butt;stroke-linejoin:miter;stroke-opacity:1" d="M 585.728,306.091 577.564,285.679 z" id="boundary" inkscape:connector-curvature="0" />
	<path style="fill:none;stroke:red;stroke-width:1px;stroke-linecap:butt;stroke-linejoin:miter;stroke-opacity:1" d="M 587.77,326.502 585.728,306.091 z" id="boundary" inkscape:connector-curvature="0" />
	<path style="fill:none;stroke:red;stroke-width:1px;stroke-linecap:butt;stroke-linejoin:miter;stroke-opacity:1" d="M 587.77,326.502 587.77,346.914 z" id="boundary" inkscape:connector-curvature="0" />
	<path style="fill:none;stroke:red;stroke-width:1px;stroke-linecap:butt;stroke-linejoin:miter;stroke-opacity:1" d="M 595.934,367.325 587.77,346.914 z" id="boundary" inkscape:connector-curvature="0" />
	<path style="fill:none;stroke:red;stroke-width:1px;stroke-linecap:butt;stroke-linejoin:miter;stroke-opacity:1" d="M 595.934,367.325 597.975,387.737 z" id="boundary" inkscape:connector-curvature="0" />
	<path style="fill:none;stroke:red;stroke-width:1px;stroke-linecap:butt;stroke-linejoin:miter;stroke-opacity:1" d="M 800.049,377.531 789.844,397.942 z" id="boundary" inkscape:connector-curvature="0" />
	<path style="fill:none;stroke:red;stroke-width:1px;stroke-linecap:butt;stroke-linejoin:miter;stroke-opacity:1" d="M 608.181,406.107 597.975,387.737 z" id="boundary" inkscape:connector-curvature="0" />
	<path style="fill:none;stroke:red;stroke-width:1px;stroke-linecap:butt;stroke-linejoin:miter;stroke-opacity:1" d="M 816.379,361.202 800.049,377.531 z" id="boundary" inkscape:connector-curvature="0" />
	<path style="fill:none;stroke:red;stroke-width:1px;stroke-linecap:butt;stroke-linejoin:miter;stroke-opacity:1" d="M 846.996,320.379 865.366,310.173 z" id="boundary" inkscape:connector-curvature="0" />
	<path style="fill:none;stroke:red;stroke-width:1px;stroke-linecap:butt;stroke-linejoin:miter;stroke-opacity:1" d="M 830.667,336.708 846.996,320.379 z" id="boundary" inkscape:connector-curvature="0" />
	<path style="fill:none;stroke:red;stroke-width:1px;stroke-linecap:butt;stroke-linejoin:miter;stroke-opacity:1" d="M 865.366,310.173 883.737,299.967 z" id="boundary" inkscape:connector-curvature="0" />
	<path style="fill:none;stroke:red;stroke-width:1px;stroke-linecap:butt;stroke-linejoin:miter;stroke-opacity:1" d="M 904.148,299.967 920.477,312.214 z" id="boundary" inkscape:connector-curvature="0" />
	<path style="fill:none;stroke:red;stroke-width:1px;stroke-linecap:butt;stroke-linejoin:miter;stroke-opacity:1" d="M 934.765,328.543 920.477,312.214 z" id="boundary" inkscape:connector-curvature="0" />
	<path style="fill:none;stroke:red;stroke-width:1px;stroke-linecap:butt;stroke-linejoin:miter;stroke-opacity:1" d="M 934.765,328.543 930.683,359.16 z" id="boundary" inkscape:connector-curvature="0" />
	<path style="fill:none;stroke:red;stroke-width:1px;stroke-linecap:butt;stroke-linejoin:miter;stroke-opacity:1" d="M 883.737,299.967 904.148,299.967 z" id="boundary" inkscape:connector-curvature="0" />
	<path style="fill:none;stroke:red;stroke-width:1px;stroke-linecap:butt;stroke-linejoin:miter;stroke-opacity:1" d="M 816.379,361.202 830.667,336.708 z" id="boundary" inkscape:connector-curvature="0" />
	<path style="fill:none;stroke:red;stroke-width:1px;stroke-linecap:butt;stroke-linejoin:miter;stroke-opacity:1" d="M 930.683,359.16 914.354,373.449 z" id="boundary" inkscape:connector-curvature="0" />
	<path style="fill:none;stroke:red;stroke-width:1px;stroke-linecap:butt;stroke-linejoin:miter;stroke-opacity:1" d="M 914.354,373.449 914.354,393.86 z" id="boundary" inkscape:connector-curvature="0" />
	<path style="fill:none;stroke:red;stroke-width:1px;stroke-linecap:butt;stroke-linejoin:miter;stroke-opacity:1" d="M 914.354,414.272 914.354,393.86 z" id="boundary" inkscape:connector-curvature="0" />
	<path style="fill:none;stroke:red;stroke-width:1px;stroke-linecap:butt;stroke-linejoin:miter;stroke-opacity:1" d="M 608.181,406.107 614.305,426.519 z" id="boundary" inkscape:connector-curvature="0" />
	<path style="fill:none;stroke:red;stroke-width:1px;stroke-linecap:butt;stroke-linejoin:miter;stroke-opacity:1" d="M 614.305,426.519 618.387,446.93 z" id="boundary" inkscape:connector-curvature="0" />
	<path style="fill:none;stroke:red;stroke-width:1px;stroke-linecap:butt;stroke-linejoin:miter;stroke-opacity:1" d="M 624.51,467.342 618.387,446.93 z" id="boundary" inkscape:connector-curvature="0" />
	<path style="fill:none;stroke:red;stroke-width:1px;stroke-linecap:butt;stroke-linejoin:miter;stroke-opacity:1" d="M 638.798,483.671 624.51,467.342 z" id="boundary" inkscape:connector-curvature="0" />
	<path style="fill:none;stroke:red;stroke-width:1px;stroke-linecap:butt;stroke-linejoin:miter;stroke-opacity:1" d="M 638.798,483.671 638.798,504.082 z" id="boundary" inkscape:connector-curvature="0" />
	<path style="fill:none;stroke:red;stroke-width:1px;stroke-linecap:butt;stroke-linejoin:miter;stroke-opacity:1" d="M 649.004,522.453 638.798,504.082 z" id="boundary" inkscape:connector-curvature="0" />
	<path style="fill:none;stroke:red;stroke-width:1px;stroke-linecap:butt;stroke-linejoin:miter;stroke-opacity:1" d="M 659.21,540.823 649.004,522.453 z" id="boundary" inkscape:connector-curvature="0" />
	<path style="fill:none;stroke:red;stroke-width:1px;stroke-linecap:butt;stroke-linejoin:miter;stroke-opacity:1" d="M 673.498,557.152 659.21,540.823 z" id="boundary" inkscape:connector-curvature="0" />
	<path style="fill:none;stroke:red;stroke-width:1px;stroke-linecap:butt;stroke-linejoin:miter;stroke-opacity:1" d="M 689.827,571.44 673.498,557.152 z" id="boundary" inkscape:connector-curvature="0" />
	<path style="fill:none;stroke:red;stroke-width:1px;stroke-linecap:butt;stroke-linejoin:miter;stroke-opacity:1" d="M 689.827,571.44 704.115,587.77 z" id="boundary" inkscape:connector-curvature="0" />
	<path style="fill:none;stroke:red;stroke-width:1px;stroke-linecap:butt;stroke-linejoin:miter;stroke-opacity:1" d="M 408.148,996 387.737,996 z" id="boundary" inkscape:connector-curvature="0" />
	<path style="fill:none;stroke:red;stroke-width:1px;stroke-linecap:butt;stroke-linejoin:miter;stroke-opacity:1" d="M 428.56,996 408.148,996 z" id="boundary" inkscape:connector-curvature="0" />
	<path style="fill:none;stroke:red;stroke-width:1px;stroke-linecap:butt;stroke-linejoin:miter;stroke-opacity:1" d="M 448.971,996 469.383,996 z" id="boundary" inkscape:connector-curvature="0" />
	<path style="fill:none;stroke:red;stroke-width:1px;stroke-linecap:butt;stroke-linejoin:miter;stroke-opacity:1" d="M 448.971,996 428.56,996 z" id="boundary" inkscape:connector-curvature="0" />
	<path style="fill:none;stroke:red;stroke-width:1px;stroke-linecap:butt;stroke-linejoin:miter;stroke-opacity:1" d="M 469.383,996 489.794,996 z" id="boundary" inkscape:connector-curvature="0" />
	<path style="fill:none;stroke:red;stroke-width:1px;stroke-linecap:butt;stroke-linejoin:miter;stroke-opacity:1" d="M 510.206,996 530.617,996 z" id="boundary" inkscape:connector-curvature="0" />
	<path style="fill:none;stroke:red;stroke-width:1px;stroke-linecap:butt;stroke-linejoin:miter;stroke-opacity:1" d="M 510.206,996 489.794,996 z" id="boundary" inkscape:connector-curvature="0" />
	<path style="fill:none;stroke:red;stroke-width:1px;stroke-linecap:butt;stroke-linejoin:miter;stroke-opacity:1" d="M 530.617,996 551.029,996 z" id="boundary" inkscape:connector-curvature="0" />
	<path style="fill:none;stroke:red;stroke-width:1px;stroke-linecap:butt;stroke-linejoin:miter;stroke-opacity:1" d="M 571.44,996 591.852,996 z" id="boundary" inkscape:connector-curvature="0" />
	<path style="fill:none;stroke:red;stroke-width:1px;stroke-linecap:butt;stroke-linejoin:miter;stroke-opacity:1" d="M 571.44,996 551.029,996 z" id="boundary" inkscape:connector-curvature="0" />
	<path style="fill:none;stroke:red;stroke-width:1px;stroke-linecap:butt;stroke-linejoin:miter;stroke-opacity:1" d="M 591.852,996 612.263,996 z" id="boundary" inkscape:connector-curvature="0" />
	<path style="fill:none;stroke:red;stroke-width:1px;stroke-linecap:butt;stroke-linejoin:miter;stroke-opacity:1" d="M 632.675,996 653.086,996 z" id="boundary" inkscape:connector-curvature="0" />
	<path style="fill:none;stroke:red;stroke-width:1px;stroke-linecap:butt;stroke-linejoin:miter;stroke-opacity:1" d="M 632.675,996 612.263,996 z" id="boundary" inkscape:connector-curvature="0" />
	<path style="fill:none;stroke:red;stroke-width:1px;stroke-linecap:butt;stroke-linejoin:miter;stroke-opacity:1" d="M 673.498,996 653.086,996 z" id="boundary" inkscape:connector-curvature="0" />
	<path style="fill:none;stroke:red;stroke-width:1px;stroke-linecap:butt;stroke-linejoin:miter;stroke-opacity:1" d="M 673.498,996 693.909,996 z" id="boundary" inkscape:connector-curvature="0" />
	<path style="fill:none;stroke:red;stroke-width:1px;stroke-linecap:butt;stroke-linejoin:miter;stroke-opacity:1" d="M 714.321,996 693.909,996 z" id="boundary" inkscape:connector-curvature="0" />
	<path style="fill:none;stroke:red;stroke-width:1px;stroke-linecap:butt;stroke-linejoin:miter;stroke-opacity:1" d="M 779.638,459.177 779.638,479.588 z" id="boundary" inkscape:connector-curvature="0" />
	<path style="fill:none;stroke:red;stroke-width:1px;stroke-linecap:butt;stroke-linejoin:miter;stroke-opacity:1" d="M 789.844,438.765 779.638,459.177 z" id="boundary" inkscape:connector-curvature="0" />
	<path style="fill:none;stroke:red;stroke-width:1px;stroke-linecap:butt;stroke-linejoin:miter;stroke-opacity:1" d="M 779.638,479.588 769.432,510.206 z" id="boundary" inkscape:connector-curvature="0" />
	<path style="fill:none;stroke:red;stroke-width:1px;stroke-linecap:butt;stroke-linejoin:miter;stroke-opacity:1" d="M 769.432,510.206 765.35,544.905 z" id="boundary" inkscape:connector-curvature="0" />
	<path style="fill:none;stroke:red;stroke-width:1px;stroke-linecap:butt;stroke-linejoin:miter;stroke-opacity:1" d="M 789.844,438.765 789.844,418.354 z" id="boundary" inkscape:connector-curvature="0" />
	<path style="fill:none;stroke:red;stroke-width:1px;stroke-linecap:butt;stroke-linejoin:miter;stroke-opacity:1" d="M 744.938,585.728 724.527,595.934 z" id="boundary" inkscape:connector-curvature="0" />
	<path style="fill:none;stroke:red;stroke-width:1px;stroke-linecap:butt;stroke-linejoin:miter;stroke-opacity:1" d="M 755.144,565.317 744.938,585.728 z" id="boundary" inkscape:connector-curvature="0" />
	<path style="fill:none;stroke:red;stroke-width:1px;stroke-linecap:butt;stroke-linejoin:miter;stroke-opacity:1" d="M 724.527,595.934 704.115,587.77 z" id="boundary" inkscape:connector-curvature="0" />
	<path style="fill:none;stroke:red;stroke-width:1px;stroke-linecap:butt;stroke-linejoin:miter;stroke-opacity:1" d="M 755.144,565.317 765.35,544.905 z" id="boundary" inkscape:connector-curvature="0" />
	<path style="fill:none;stroke:red;stroke-width:1px;stroke-linecap:butt;stroke-linejoin:miter;stroke-opacity:1" d="M 914.354,434.683 914.354,414.272 z" id="boundary" inkscape:connector-curvature="0" />
	<path style="fill:none;stroke:red;stroke-width:1px;stroke-linecap:butt;stroke-linejoin:miter;stroke-opacity:1" d="M 914.354,455.095 914.354,434.683 z" id="boundary" inkscape:connector-curvature="0" />
	<path style="fill:none;stroke:red;stroke-width:1px;stroke-linecap:butt;stroke-linejoin:miter;stroke-opacity:1" d="M 883.737,597.975 883.737,577.564 z" id="boundary" inkscape:connector-curvature="0" />
	<path style="fill:none;stroke:red;stroke-width:1px;stroke-linecap:butt;stroke-linejoin:miter;stroke-opacity:1" d="M 893.942,546.947 883.737,577.564 z" id="boundary" inkscape:connector-curvature="0" />
	<path style="fill:none;stroke:red;stroke-width:1px;stroke-linecap:butt;stroke-linejoin:miter;stroke-opacity:1" d="M 893.942,506.123 893.942,526.535 z" id="boundary" inkscape:connector-curvature="0" />
	<path style="fill:none;stroke:red;stroke-width:1px;stroke-linecap:butt;stroke-linejoin:miter;stroke-opacity:1" d="M 910.272,491.835 893.942,506.123 z" id="boundary" inkscape:connector-curvature="0" />
	<path style="fill:none;stroke:red;stroke-width:1px;stroke-linecap:butt;stroke-linejoin:miter;stroke-opacity:1" d="M 893.942,546.947 893.942,526.535 z" id="boundary" inkscape:connector-curvature="0" />
	<path style="fill:none;stroke:red;stroke-width:1px;stroke-linecap:butt;stroke-linejoin:miter;stroke-opacity:1" d="M 910.272,491.835 914.354,455.095 z" id="boundary" inkscape:connector-curvature="0" />
	<path style="fill:none;stroke:red;stroke-width:1px;stroke-linecap:butt;stroke-linejoin:miter;stroke-opacity:1" d="M 789.844,397.942 789.844,418.354 z" id="boundary" inkscape:connector-curvature="0" />
	<path style="fill:none;stroke:red;stroke-width:1px;stroke-linecap:butt;stroke-linejoin:miter;stroke-opacity:1" d="M 822.502,812.296 818.42,838.831 z" id="boundary" inkscape:connector-curvature="0" />
	<path style="fill:none;stroke:red;stroke-width:1px;stroke-linecap:butt;stroke-linejoin:miter;stroke-opacity:1" d="M 818.42,838.831 802.091,853.119 z" id="boundary" inkscape:connector-curvature="0" />
	<path style="fill:none;stroke:red;stroke-width:1px;stroke-linecap:butt;stroke-linejoin:miter;stroke-opacity:1" d="M 751.062,924.56 740.856,955.177 z" id="boundary" inkscape:connector-curvature="0" />
	<path style="fill:none;stroke:red;stroke-width:1px;stroke-linecap:butt;stroke-linejoin:miter;stroke-opacity:1" d="M 740.856,955.177 734.733,993.959 z" id="boundary" inkscape:connector-curvature="0" />
	<path style="fill:none;stroke:red;stroke-width:1px;stroke-linecap:butt;stroke-linejoin:miter;stroke-opacity:1" d="M 734.733,993.959 714.321,996 z" id="boundary" inkscape:connector-curvature="0" />
	<path style="fill:none;stroke:red;stroke-width:1px;stroke-linecap:butt;stroke-linejoin:miter;stroke-opacity:1" d="M 798.008,879.654 787.802,900.066 z" id="boundary" inkscape:connector-curvature="0" />
	<path style="fill:none;stroke:red;stroke-width:1px;stroke-linecap:butt;stroke-linejoin:miter;stroke-opacity:1" d="M 787.802,900.066 771.473,914.354 z" id="boundary" inkscape:connector-curvature="0" />
	<path style="fill:none;stroke:red;stroke-width:1px;stroke-linecap:butt;stroke-linejoin:miter;stroke-opacity:1" d="M 798.008,879.654 802.091,853.119 z" id="boundary" inkscape:connector-curvature="0" />
	<path style="fill:none;stroke:red;stroke-width:1px;stroke-linecap:butt;stroke-linejoin:miter;stroke-opacity:1" d="M 751.062,924.56 771.473,914.354 z" id="boundary" inkscape:connector-curvature="0" />
	<path style="fill:none;stroke:red;stroke-width:1px;stroke-linecap:butt;stroke-linejoin:miter;stroke-opacity:1" d="M 873.531,659.21 863.325,689.827 z" id="boundary" inkscape:connector-curvature="0" />
	<path style="fill:none;stroke:red;stroke-width:1px;stroke-linecap:butt;stroke-linejoin:miter;stroke-opacity:1" d="M 883.737,618.387 873.531,638.798 z" id="boundary" inkscape:connector-curvature="0" />
	<path style="fill:none;stroke:red;stroke-width:1px;stroke-linecap:butt;stroke-linejoin:miter;stroke-opacity:1" d="M 853.119,720.444 842.914,740.856 z" id="boundary" inkscape:connector-curvature="0" />
	<path style="fill:none;stroke:red;stroke-width:1px;stroke-linecap:butt;stroke-linejoin:miter;stroke-opacity:1" d="M 863.325,689.827 853.119,720.444 z" id="boundary" inkscape:connector-curvature="0" />
	<path style="fill:none;stroke:red;stroke-width:1px;stroke-linecap:butt;stroke-linejoin:miter;stroke-opacity:1" d="M 873.531,638.798 873.531,659.21 z" id="boundary" inkscape:connector-curvature="0" />
	<path style="fill:none;stroke:red;stroke-width:1px;stroke-linecap:butt;stroke-linejoin:miter;stroke-opacity:1" d="M 842.914,740.856 832.708,761.267 z" id="boundary" inkscape:connector-curvature="0" />
	<path style="fill:none;stroke:red;stroke-width:1px;stroke-linecap:butt;stroke-linejoin:miter;stroke-opacity:1" d="M 883.737,618.387 883.737,597.975 z" id="boundary" inkscape:connector-curvature="0" />
	<path style="fill:none;stroke:red;stroke-width:1px;stroke-linecap:butt;stroke-linejoin:miter;stroke-opacity:1" d="M 822.502,812.296 822.502,791.885 z" id="boundary" inkscape:connector-curvature="0" />
	<path style="fill:none;stroke:red;stroke-width:1px;stroke-linecap:butt;stroke-linejoin:miter;stroke-opacity:1" d="M 832.708,761.267 822.502,791.885 z" id="boundary" inkscape:connector-curvature="0" />
	<circle cx="4" cy="336.708" r="4" fill="#0" id="circle0"/>
	<circle cx="4" cy="357.119" r="4" fill="#0" id="circle1"/>
	<circle cx="14.2058" cy="375.49" r="4" fill="#0" id="circle2"/>
	<circle cx="24.4115" cy="330.584" r="4" fill="#0" id="circle3"/>
	<circle cx="24.4115" cy="393.86" r="4" fill="#0" id="circle4"/>
	<circle cx="24.4115" cy="414.272" r="4" fill="#0" id="circle5"/>
	<circle cx="36.6584" cy="430.601" r="4" fill="#0" id="circle6"/>
	<circle cx="44.823" cy="330.584" r="4" fill="#0" id="circle7"/>
	<circle cx="52.9877" cy="444.889" r="4" fill="#0" id="circle8"/>
	<circle cx="61.1523" cy="465.3" r="4" fill="#0" id="circle9"/>
	<circle cx="65.2346" cy="173.416" r="4" fill="#0" id="circle10"/>
	<circle cx="65.2346" cy="334.667" r="4" fill="#0" id="circle11"/>
	<circle cx="75.4403" cy="142.798" r="4" fill="#0" id="circle12"/>
	<circle cx="75.4403" cy="191.786" r="4" fill="#0" id="circle13"/>
	<circle cx="75.4403" cy="212.198" r="4" fill="#0" id="circle14"/>
	<circle cx="75.4403" cy="481.63" r="4" fill="#0" id="circle15"/>
	<circle cx="77.4815" cy="350.996" r="4" fill="#0" id="circle16"/>
	<circle cx="85.6461" cy="230.568" r="4" fill="#0" id="circle17"/>
	<circle cx="85.6461" cy="500" r="4" fill="#0" id="circle18"/>
	<circle cx="95.8519" cy="122.387" r="4" fill="#0" id="circle19"/>
	<circle cx="95.8519" cy="518.37" r="4" fill="#0" id="circle20"/>
	<circle cx="97.893" cy="246.897" r="4" fill="#0" id="circle21"/>
	<circle cx="97.893" cy="357.119" r="4" fill="#0" id="circle22"/>
	<circle cx="106.058" cy="267.309" r="4" fill="#0" id="circle23"/>
	<circle cx="106.058" cy="377.531" r="4" fill="#0" id="circle24"/>
	<circle cx="106.058" cy="536.741" r="4" fill="#0" id="circle25"/>
	<circle cx="112.181" cy="557.152" r="4" fill="#0" id="circle26"/>
	<circle cx="116.263" cy="116.263" r="4" fill="#0" id="circle27"/>
	<circle cx="122.387" cy="281.597" r="4" fill="#0" id="circle28"/>
	<circle cx="122.387" cy="391.819" r="4" fill="#0" id="circle29"/>
	<circle cx="126.469" cy="302.008" r="4" fill="#0" id="circle30"/>
	<circle cx="128.51" cy="412.23" r="4" fill="#0" id="circle31"/>
	<circle cx="128.51" cy="571.44" r="4" fill="#0" id="circle32"/>
	<circle cx="132.593" cy="128.51" r="4" fill="#0" id="circle33"/>
	<circle cx="136.675" cy="320.379" r="4" fill="#0" id="circle34"/>
	<circle cx="136.675" cy="591.852" r="4" fill="#0" id="circle35"/>
	<circle cx="138.716" cy="430.601" r="4" fill="#0" id="circle36"/>
	<circle cx="146.881" cy="338.749" r="4" fill="#0" id="circle37"/>
	<circle cx="146.881" cy="610.222" r="4" fill="#0" id="circle38"/>
	<circle cx="148.922" cy="142.798" r="4" fill="#0" id="circle39"/>
	<circle cx="148.922" cy="359.16" r="4" fill="#0" id="circle40"/>
	<circle cx="148.922" cy="448.971" r="4" fill="#0" id="circle41"/>
	<circle cx="159.128" cy="377.531" r="4" fill="#0" id="circle42"/>
	<circle cx="161.169" cy="626.551" r="4" fill="#0" id="circle43"/>
	<circle cx="163.21" cy="159.128" r="4" fill="#0" id="circle44"/>
	<circle cx="163.21" cy="465.3" r="4" fill="#0" id="circle45"/>
	<circle cx="167.292" cy="397.942" r="4" fill="#0" id="circle46"/>
	<circle cx="171.374" cy="644.922" r="4" fill="#0" id="circle47"/>
	<circle cx="173.416" cy="177.498" r="4" fill="#0" id="circle48"/>
	<circle cx="177.498" cy="416.313" r="4" fill="#0" id="circle49"/>
	<circle cx="179.539" cy="197.909" r="4" fill="#0" id="circle50"/>
	<circle cx="179.539" cy="479.588" r="4" fill="#0" id="circle51"/>
	<circle cx="179.539" cy="665.333" r="4" fill="#0" id="circle52"/>
	<circle cx="187.704" cy="434.683" r="4" fill="#0" id="circle53"/>
	<circle cx="187.704" cy="500" r="4" fill="#0" id="circle54"/>
	<circle cx="187.704" cy="685.745" r="4" fill="#0" id="circle55"/>
	<circle cx="189.745" cy="216.28" r="4" fill="#0" id="circle56"/>
	<circle cx="193.827" cy="455.095" r="4" fill="#0" id="circle57"/>
	<circle cx="197.909" cy="704.115" r="4" fill="#0" id="circle58"/>
	<circle cx="199.951" cy="234.65" r="4" fill="#0" id="circle59"/>
	<circle cx="204.033" cy="514.288" r="4" fill="#0" id="circle60"/>
	<circle cx="208.115" cy="255.062" r="4" fill="#0" id="circle61"/>
	<circle cx="208.115" cy="722.486" r="4" fill="#0" id="circle62"/>
	<circle cx="208.115" cy="742.897" r="4" fill="#0" id="circle63"/>
	<circle cx="210.156" cy="469.383" r="4" fill="#0" id="circle64"/>
	<circle cx="210.156" cy="534.7" r="4" fill="#0" id="circle65"/>
	<circle cx="218.321" cy="30.535" r="4" fill="#0" id="circle66"/>
	<circle cx="218.321" cy="50.9465" r="4" fill="#0" id="circle67"/>
	<circle cx="218.321" cy="273.432" r="4" fill="#0" id="circle68"/>
	<circle cx="218.321" cy="489.794" r="4" fill="#0" id="circle69"/>
	<circle cx="218.321" cy="761.267" r="4" fill="#0" id="circle70"/>
	<circle cx="226.486" cy="293.844" r="4" fill="#0" id="circle71"/>
	<circle cx="226.486" cy="546.947" r="4" fill="#0" id="circle72"/>
	<circle cx="228.527" cy="69.3169" r="4" fill="#0" id="circle73"/>
	<circle cx="228.527" cy="508.165" r="4" fill="#0" id="circle74"/>
	<circle cx="230.568" cy="777.597" r="4" fill="#0" id="circle75"/>
	<circle cx="234.65" cy="14.2058" r="4" fill="#0" id="circle76"/>
	<circle cx="238.733" cy="87.6872" r="4" fill="#0" id="circle77"/>
	<circle cx="238.733" cy="108.099" r="4" fill="#0" id="circle78"/>
	<circle cx="238.733" cy="526.535" r="4" fill="#0" id="circle79"/>
	<circle cx="238.733" cy="798.008" r="4" fill="#0" id="circle80"/>
	<circle cx="240.774" cy="310.173" r="4" fill="#0" id="circle81"/>
	<circle cx="240.774" cy="563.276" r="4" fill="#0" id="circle82"/>
	<circle cx="240.774" cy="818.42" r="4" fill="#0" id="circle83"/>
	<circle cx="248.938" cy="126.469" r="4" fill="#0" id="circle84"/>
	<circle cx="248.938" cy="838.831" r="4" fill="#0" id="circle85"/>
	<circle cx="250.979" cy="328.543" r="4" fill="#0" id="circle86"/>
	<circle cx="250.979" cy="859.243" r="4" fill="#0" id="circle87"/>
	<circle cx="253.021" cy="4" r="4" fill="#0" id="circle88"/>
	<circle cx="253.021" cy="146.881" r="4" fill="#0" id="circle89"/>
	<circle cx="259.144" cy="167.292" r="4" fill="#0" id="circle90"/>
	<circle cx="259.144" cy="879.654" r="4" fill="#0" id="circle91"/>
	<circle cx="261.185" cy="346.914" r="4" fill="#0" id="circle92"/>
	<circle cx="269.35" cy="185.663" r="4" fill="#0" id="circle93"/>
	<circle cx="269.35" cy="898.025" r="4" fill="#0" id="circle94"/>
	<circle cx="271.391" cy="206.074" r="4" fill="#0" id="circle95"/>
	<circle cx="273.432" cy="4" r="4" fill="#0" id="circle96"/>
	<circle cx="275.473" cy="363.243" r="4" fill="#0" id="circle97"/>
	<circle cx="279.556" cy="226.486" r="4" fill="#0" id="circle98"/>
	<circle cx="279.556" cy="246.897" r="4" fill="#0" id="circle99"/>
	<circle cx="279.556" cy="267.309" r="4" fill="#0" id="circle100"/>
	<circle cx="279.556" cy="916.395" r="4" fill="#0" id="circle101"/>
	<circle cx="281.597" cy="287.72" r="4" fill="#0" id="circle102"/>
	<circle cx="285.679" cy="381.613" r="4" fill="#0" id="circle103"/>
	<circle cx="289.761" cy="18.2881" r="4" fill="#0" id="circle104"/>
	<circle cx="289.761" cy="308.132" r="4" fill="#0" id="circle105"/>
	<circle cx="289.761" cy="934.765" r="4" fill="#0" id="circle106"/>
	<circle cx="291.802" cy="402.025" r="4" fill="#0" id="circle107"/>
	<circle cx="299.967" cy="326.502" r="4" fill="#0" id="circle108"/>
	<circle cx="302.008" cy="951.095" r="4" fill="#0" id="circle109"/>
	<circle cx="308.132" cy="28.4938" r="4" fill="#0" id="circle110"/>
	<circle cx="308.132" cy="414.272" r="4" fill="#0" id="circle111"/>
	<circle cx="310.173" cy="344.872" r="4" fill="#0" id="circle112"/>
	<circle cx="310.173" cy="365.284" r="4" fill="#0" id="circle113"/>
	<circle cx="318.337" cy="432.642" r="4" fill="#0" id="circle114"/>
	<circle cx="318.337" cy="965.383" r="4" fill="#0" id="circle115"/>
	<circle cx="320.379" cy="383.654" r="4" fill="#0" id="circle116"/>
	<circle cx="322.42" cy="44.823" r="4" fill="#0" id="circle117"/>
	<circle cx="322.42" cy="65.2346" r="4" fill="#0" id="circle118"/>
	<circle cx="326.502" cy="404.066" r="4" fill="#0" id="circle119"/>
	<circle cx="330.584" cy="981.712" r="4" fill="#0" id="circle120"/>
	<circle cx="338.749" cy="77.4815" r="4" fill="#0" id="circle121"/>
	<circle cx="346.914" cy="97.893" r="4" fill="#0" id="circle122"/>
	<circle cx="346.914" cy="996" r="4" fill="#0" id="circle123"/>
	<circle cx="353.037" cy="118.305" r="4" fill="#0" id="circle124"/>
	<circle cx="363.243" cy="136.675" r="4" fill="#0" id="circle125"/>
	<circle cx="363.243" cy="157.086" r="4" fill="#0" id="circle126"/>
	<circle cx="367.325" cy="996" r="4" fill="#0" id="circle127"/>
	<circle cx="373.449" cy="175.457" r="4" fill="#0" id="circle128"/>
	<circle cx="383.654" cy="193.827" r="4" fill="#0" id="circle129"/>
	<circle cx="387.737" cy="996" r="4" fill="#0" id="circle130"/>
	<circle cx="391.819" cy="214.239" r="4" fill="#0" id="circle131"/>
	<circle cx="393.86" cy="234.65" r="4" fill="#0" id="circle132"/>
	<circle cx="402.025" cy="255.062" r="4" fill="#0" id="circle133"/>
	<circle cx="404.066" cy="275.473" r="4" fill="#0" id="circle134"/>
	<circle cx="408.148" cy="996" r="4" fill="#0" id="circle135"/>
	<circle cx="412.23" cy="30.535" r="4" fill="#0" id="circle136"/>
	<circle cx="412.23" cy="50.9465" r="4" fill="#0" id="circle137"/>
	<circle cx="414.272" cy="293.844" r="4" fill="#0" id="circle138"/>
	<circle cx="420.395" cy="314.255" r="4" fill="#0" id="circle139"/>
	<circle cx="422.436" cy="69.3169" r="4" fill="#0" id="circle140"/>
	<circle cx="422.436" cy="89.7284" r="4" fill="#0" id="circle141"/>
	<circle cx="422.436" cy="110.14" r="4" fill="#0" id="circle142"/>
	<circle cx="424.477" cy="334.667" r="4" fill="#0" id="circle143"/>
	<circle cx="428.56" cy="14.2058" r="4" fill="#0" id="circle144"/>
	<circle cx="428.56" cy="996" r="4" fill="#0" id="circle145"/>
	<circle cx="430.601" cy="355.078" r="4" fill="#0" id="circle146"/>
	<circle cx="432.642" cy="128.51" r="4" fill="#0" id="circle147"/>
	<circle cx="434.683" cy="375.49" r="4" fill="#0" id="circle148"/>
	<circle cx="438.765" cy="148.922" r="4" fill="#0" id="circle149"/>
	<circle cx="440.807" cy="395.901" r="4" fill="#0" id="circle150"/>
	<circle cx="442.848" cy="169.333" r="4" fill="#0" id="circle151"/>
	<circle cx="442.848" cy="189.745" r="4" fill="#0" id="circle152"/>
	<circle cx="442.848" cy="210.156" r="4" fill="#0" id="circle153"/>
	<circle cx="442.848" cy="230.568" r="4" fill="#0" id="circle154"/>
	<circle cx="442.848" cy="250.979" r="4" fill="#0" id="circle155"/>
	<circle cx="446.93" cy="4" r="4" fill="#0" id="circle156"/>
	<circle cx="448.971" cy="996" r="4" fill="#0" id="circle157"/>
	<circle cx="453.053" cy="269.35" r="4" fill="#0" id="circle158"/>
	<circle cx="457.136" cy="289.761" r="4" fill="#0" id="circle159"/>
	<circle cx="461.218" cy="402.025" r="4" fill="#0" id="circle160"/>
	<circle cx="463.259" cy="310.173" r="4" fill="#0" id="circle161"/>
	<circle cx="465.3" cy="14.2058" r="4" fill="#0" id="circle162"/>
	<circle cx="467.342" cy="330.584" r="4" fill="#0" id="circle163"/>
	<circle cx="469.383" cy="996" r="4" fill="#0" id="circle164"/>
	<circle cx="473.465" cy="350.996" r="4" fill="#0" id="circle165"/>
	<circle cx="473.465" cy="371.407" r="4" fill="#0" id="circle166"/>
	<circle cx="483.671" cy="24.4115" r="4" fill="#0" id="circle167"/>
	<circle cx="489.794" cy="996" r="4" fill="#0" id="circle168"/>
	<circle cx="500" cy="36.6584" r="4" fill="#0" id="circle169"/>
	<circle cx="510.206" cy="55.0288" r="4" fill="#0" id="circle170"/>
	<circle cx="510.206" cy="996" r="4" fill="#0" id="circle171"/>
	<circle cx="516.329" cy="75.4403" r="4" fill="#0" id="circle172"/>
	<circle cx="530.617" cy="996" r="4" fill="#0" id="circle173"/>
	<circle cx="532.658" cy="87.6872" r="4" fill="#0" id="circle174"/>
	<circle cx="536.741" cy="108.099" r="4" fill="#0" id="circle175"/>
	<circle cx="546.947" cy="126.469" r="4" fill="#0" id="circle176"/>
	<circle cx="546.947" cy="146.881" r="4" fill="#0" id="circle177"/>
	<circle cx="546.947" cy="167.292" r="4" fill="#0" id="circle178"/>
	<circle cx="551.029" cy="996" r="4" fill="#0" id="circle179"/>
	<circle cx="557.152" cy="185.663" r="4" fill="#0" id="circle180"/>
	<circle cx="567.358" cy="204.033" r="4" fill="#0" id="circle181"/>
	<circle cx="567.358" cy="224.444" r="4" fill="#0" id="circle182"/>
	<circle cx="571.44" cy="996" r="4" fill="#0" id="circle183"/>
	<circle cx="575.523" cy="244.856" r="4" fill="#0" id="circle184"/>
	<circle cx="577.564" cy="265.267" r="4" fill="#0" id="circle185"/>
	<circle cx="577.564" cy="285.679" r="4" fill="#0" id="circle186"/>
	<circle cx="585.728" cy="306.091" r="4" fill="#0" id="circle187"/>
	<circle cx="587.77" cy="326.502" r="4" fill="#0" id="circle188"/>
	<circle cx="587.77" cy="346.914" r="4" fill="#0" id="circle189"/>
	<circle cx="591.852" cy="996" r="4" fill="#0" id="circle190"/>
	<circle cx="595.934" cy="367.325" r="4" fill="#0" id="circle191"/>
	<circle cx="597.975" cy="387.737" r="4" fill="#0" id="circle192"/>
	<circle cx="608.181" cy="406.107" r="4" fill="#0" id="circle193"/>
	<circle cx="612.263" cy="996" r="4" fill="#0" id="circle194"/>
	<circle cx="614.305" cy="426.519" r="4" fill="#0" id="circle195"/>
	<circle cx="618.387" cy="446.93" r="4" fill="#0" id="circle196"/>
	<circle cx="624.51" cy="467.342" r="4" fill="#0" id="circle197"/>
	<circle cx="632.675" cy="996" r="4" fill="#0" id="circle198"/>
	<circle cx="638.798" cy="483.671" r="4" fill="#0" id="circle199"/>
	<circle cx="638.798" cy="504.082" r="4" fill="#0" id="circle200"/>
	<circle cx="649.004" cy="522.453" r="4" fill="#0" id="circle201"/>
	<circle cx="653.086" cy="996" r="4" fill="#0" id="circle202"/>
	<circle cx="659.21" cy="540.823" r="4" fill="#0" id="circle203"/>
	<circle cx="673.498" cy="557.152" r="4" fill="#0" id="circle204"/>
	<circle cx="673.498" cy="996" r="4" fill="#0" id="circle205"/>
	<circle cx="689.827" cy="571.44" r="4" fill="#0" id="circle206"/>
	<circle cx="693.909" cy="996" r="4" fill="#0" id="circle207"/>
	<circle cx="704.115" cy="587.77" r="4" fill="#0" id="circle208"/>
	<circle cx="714.321" cy="996" r="4" fill="#0" id="circle209"/>
	<circle cx="724.527" cy="595.934" r="4" fill="#0" id="circle210"/>
	<circle cx="734.733" cy="993.959" r="4" fill="#0" id="circle211"/>
	<circle cx="740.856" cy="955.177" r="4" fill="#0" id="circle212"/>
	<circle cx="744.938" cy="585.728" r="4" fill="#0" id="circle213"/>
	<circle cx="751.062" cy="924.56" r="4" fill="#0" id="circle214"/>
	<circle cx="755.144" cy="565.317" r="4" fill="#0" id="circle215"/>
	<circle cx="765.35" cy="544.905" r="4" fill="#0" id="circle216"/>
	<circle cx="769.432" cy="510.206" r="4" fill="#0" id="circle217"/>
	<circle cx="771.473" cy="914.354" r="4" fill="#0" id="circle218"/>
	<circle cx="779.638" cy="459.177" r="4" fill="#0" id="circle219"/>
	<circle cx="779.638" cy="479.588" r="4" fill="#0" id="circle220"/>
	<circle cx="787.802" cy="900.066" r="4" fill="#0" id="circle221"/>
	<circle cx="789.844" cy="397.942" r="4" fill="#0" id="circle222"/>
	<circle cx="789.844" cy="418.354" r="4" fill="#0" id="circle223"/>
	<circle cx="789.844" cy="438.765" r="4" fill="#0" id="circle224"/>
	<circle cx="798.008" cy="879.654" r="4" fill="#0" id="circle225"/>
	<circle cx="800.049" cy="377.531" r="4" fill="#0" id="circle226"/>
	<circle cx="802.091" cy="853.119" r="4" fill="#0" id="circle227"/>
	<circle cx="816.379" cy="361.202" r="4" fill="#0" id="circle228"/>
	<circle cx="818.42" cy="838.831" r="4" fill="#0" id="circle229"/>
	<circle cx="822.502" cy="791.885" r="4" fill="#0" id="circle230"/>
	<circle cx="822.502" cy="812.296" r="4" fill="#0" id="circle231"/>
	<circle cx="830.667" cy="336.708" r="4" fill="#0" id="circle232"/>
	<circle cx="832.708" cy="761.267" r="4" fill="#0" id="circle233"/>
	<circle cx="842.914" cy="740.856" r="4" fill="#0" id="circle234"/>
	<circle cx="846.996" cy="320.379" r="4" fill="#0" id="circle235"/>
	<circle cx="853.119" cy="720.444" r="4" fill="#0" id="circle236"/>
	<circle cx="863.325" cy="689.827" r="4" fill="#0" id="circle237"/>
	<circle cx="865.366" cy="310.173" r="4" fill="#0" id="circle238"/>
	<circle cx="873.531" cy="638.798" r="4" fill="#0" id="circle239"/>
	<circle cx="873.531" cy="659.21" r="4" fill="#0" id="circle240"/>
	<circle cx="883.737" cy="299.967" r="4" fill="#0" id="circle241"/>
	<circle cx="883.737" cy="577.564" r="4" fill="#0" id="circle242"/>
	<circle cx="883.737" cy="597.975" r="4" fill="#0" id="circle243"/>
	<circle cx="883.737" cy="618.387" r="4" fill="#0" id="circle244"/>
	<circle cx="893.942" cy="506.123" r="4" fill="#0" id="circle245"/>
	<circle cx="893.942" cy="526.535" r="4" fill="#0" id="circle246"/>
	<circle cx="893.942" cy="546.947" r="4" fill="#0" id="circle247"/>
	<circle cx="904.148" cy="299.967" r="4" fill="#0" id="circle248"/>
	<circle cx="910.272" cy="491.835" r="4" fill="#0" id="circle249"/>
	<circle cx="914.354" cy="373.449" r="4" fill="#0" id="circle250"/>
	<circle cx="914.354" cy="393.86" r="4" fill="#0" id="circle251"/>
	<circle cx="914.354" cy="414.272" r="4" fill="#0" id="circle252"/>
	<circle cx="914.354" cy="434.683" r="4" fill="#0" id="circle253"/>
	<circle cx="914.354" cy="455.095" r="4" fill="#0" id="circle254"/>
	<circle cx="920.477" cy="312.214" r="4" fill="#0" id="circle255"/>
	<circle cx="930.683" cy="359.16" r="4" fill="#0" id="circle256"/>
	<circle cx="934.765" cy="328.543" r="4" fill="#0" id="circle257"/>
	</g>
</svg>