<?xml version="1.0" encoding="UTF-8" standalone="no"?>
<!-- Created with CurveBenchmark -->
<svg
	xmlns:dc="http://purl.org/dc/elements/1.1/"
	xmlns:cc="http://creativecommons.org/ns#"
	xmlns:rdf="http://www.w3.org/1999/02/22-rdf-syntax-ns#"
	xmlns:svg="http://www.w3.org/2000/svg"
	xmlns="http://www.w3.org/2000/svg"
	xmlns:sodipodi="http://sodipodi.sourceforge.net/DTD/sodipodi-0.dtd"
	xmlns:inkscape="http://www.inkscape.org/namespaces/inkscape"
	width="1000"
	height="1000"
	id="svg2"
	version="1.1"
	sodipodi:docname="manifold/crust-Heart09.png.txt">
<defs
	id="defs4" />
<metadata
	id="metadata7">
	<rdf:RDF>
		<cc:Work
			rdf:about="">
			<dc:format>image/svg+xml</dc:format>
			<dc:type
				rdf:resource="http://purl.org/dc/dcmitype/StillImage" />
			<dc:title></dc:title>
		</cc:Work>
	</rdf:RDF>
</metadata>
<g
	inkscape:label="Layer 1"
	inkscape:groupmode="layer"
	id="layer1">
	<path style="fill:none;stroke:red;stroke-width:1px;stroke-linecap:butt;stroke-linejoin:miter;stroke-opacity:1" d="M 217.11,22.8593 200.137,32.289 z" id="boundary" inkscape:connector-curvature="0" />
	<path style="fill:none;stroke:red;stroke-width:1px;stroke-linecap:butt;stroke-linejoin:miter;stroke-opacity:1" d="M 169.962,60.5779 154.875,75.6654 z" id="boundary" inkscape:connector-curvature="0" />
	<path style="fill:none;stroke:red;stroke-width:1px;stroke-linecap:butt;stroke-linejoin:miter;stroke-opacity:1" d="M 169.962,60.5779 185.049,45.4905 z" id="boundary" inkscape:connector-curvature="0" />
	<path style="fill:none;stroke:red;stroke-width:1px;stroke-linecap:butt;stroke-linejoin:miter;stroke-opacity:1" d="M 200.137,32.289 185.049,45.4905 z" id="boundary" inkscape:connector-curvature="0" />
	<path style="fill:none;stroke:red;stroke-width:1px;stroke-linecap:butt;stroke-linejoin:miter;stroke-opacity:1" d="M 117.156,122.814 107.726,141.673 z" id="boundary" inkscape:connector-curvature="0" />
	<path style="fill:none;stroke:red;stroke-width:1px;stroke-linecap:butt;stroke-linejoin:miter;stroke-opacity:1" d="M 136.015,113.384 145.445,94.5247 z" id="boundary" inkscape:connector-curvature="0" />
	<path style="fill:none;stroke:red;stroke-width:1px;stroke-linecap:butt;stroke-linejoin:miter;stroke-opacity:1" d="M 136.015,113.384 117.156,122.814 z" id="boundary" inkscape:connector-curvature="0" />
	<path style="fill:none;stroke:red;stroke-width:1px;stroke-linecap:butt;stroke-linejoin:miter;stroke-opacity:1" d="M 145.445,94.5247 154.875,75.6654 z" id="boundary" inkscape:connector-curvature="0" />
	<path style="fill:none;stroke:red;stroke-width:1px;stroke-linecap:butt;stroke-linejoin:miter;stroke-opacity:1" d="M 217.11,22.8593 234.084,13.4297 z" id="boundary" inkscape:connector-curvature="0" />
	<path style="fill:none;stroke:red;stroke-width:1px;stroke-linecap:butt;stroke-linejoin:miter;stroke-opacity:1" d="M 251.057,4 234.084,13.4297 z" id="boundary" inkscape:connector-curvature="0" />
	<path style="fill:none;stroke:red;stroke-width:1px;stroke-linecap:butt;stroke-linejoin:miter;stroke-opacity:1" d="M 251.057,4 269.916,4 z" id="boundary" inkscape:connector-curvature="0" />
	<path style="fill:none;stroke:red;stroke-width:1px;stroke-linecap:butt;stroke-linejoin:miter;stroke-opacity:1" d="M 269.916,4 286.89,13.4297 z" id="boundary" inkscape:connector-curvature="0" />
	<path style="fill:none;stroke:red;stroke-width:1px;stroke-linecap:butt;stroke-linejoin:miter;stroke-opacity:1" d="M 60.5779,207.681 51.1483,226.54 z" id="boundary" inkscape:connector-curvature="0" />
	<path style="fill:none;stroke:red;stroke-width:1px;stroke-linecap:butt;stroke-linejoin:miter;stroke-opacity:1" d="M 51.1483,226.54 41.7186,245.399 z" id="boundary" inkscape:connector-curvature="0" />
	<path style="fill:none;stroke:red;stroke-width:1px;stroke-linecap:butt;stroke-linejoin:miter;stroke-opacity:1" d="M 70.0076,188.821 60.5779,207.681 z" id="boundary" inkscape:connector-curvature="0" />
	<path style="fill:none;stroke:red;stroke-width:1px;stroke-linecap:butt;stroke-linejoin:miter;stroke-opacity:1" d="M 70.0076,188.821 88.8669,179.392 z" id="boundary" inkscape:connector-curvature="0" />
	<path style="fill:none;stroke:red;stroke-width:1px;stroke-linecap:butt;stroke-linejoin:miter;stroke-opacity:1" d="M 98.2966,160.532 88.8669,179.392 z" id="boundary" inkscape:connector-curvature="0" />
	<path style="fill:none;stroke:red;stroke-width:1px;stroke-linecap:butt;stroke-linejoin:miter;stroke-opacity:1" d="M 4,339.696 4,320.837 z" id="boundary" inkscape:connector-curvature="0" />
	<path style="fill:none;stroke:red;stroke-width:1px;stroke-linecap:butt;stroke-linejoin:miter;stroke-opacity:1" d="M 13.4297,301.977 4,320.837 z" id="boundary" inkscape:connector-curvature="0" />
	<path style="fill:none;stroke:red;stroke-width:1px;stroke-linecap:butt;stroke-linejoin:miter;stroke-opacity:1" d="M 41.7186,245.399 32.289,264.259 z" id="boundary" inkscape:connector-curvature="0" />
	<path style="fill:none;stroke:red;stroke-width:1px;stroke-linecap:butt;stroke-linejoin:miter;stroke-opacity:1" d="M 13.4297,301.977 22.8593,283.118 z" id="boundary" inkscape:connector-curvature="0" />
	<path style="fill:none;stroke:red;stroke-width:1px;stroke-linecap:butt;stroke-linejoin:miter;stroke-opacity:1" d="M 22.8593,283.118 32.289,264.259 z" id="boundary" inkscape:connector-curvature="0" />
	<path style="fill:none;stroke:red;stroke-width:1px;stroke-linecap:butt;stroke-linejoin:miter;stroke-opacity:1" d="M 4,358.555 4,339.696 z" id="boundary" inkscape:connector-curvature="0" />
	<path style="fill:none;stroke:red;stroke-width:1px;stroke-linecap:butt;stroke-linejoin:miter;stroke-opacity:1" d="M 107.726,141.673 98.2966,160.532 z" id="boundary" inkscape:connector-curvature="0" />
	<path style="fill:none;stroke:red;stroke-width:1px;stroke-linecap:butt;stroke-linejoin:miter;stroke-opacity:1" d="M 303.863,22.8593 320.837,32.289 z" id="boundary" inkscape:connector-curvature="0" />
	<path style="fill:none;stroke:red;stroke-width:1px;stroke-linecap:butt;stroke-linejoin:miter;stroke-opacity:1" d="M 320.837,32.289 337.81,41.7186 z" id="boundary" inkscape:connector-curvature="0" />
	<path style="fill:none;stroke:red;stroke-width:1px;stroke-linecap:butt;stroke-linejoin:miter;stroke-opacity:1" d="M 352.897,54.9202 337.81,41.7186 z" id="boundary" inkscape:connector-curvature="0" />
	<path style="fill:none;stroke:red;stroke-width:1px;stroke-linecap:butt;stroke-linejoin:miter;stroke-opacity:1" d="M 364.213,70.0076 352.897,54.9202 z" id="boundary" inkscape:connector-curvature="0" />
	<path style="fill:none;stroke:red;stroke-width:1px;stroke-linecap:butt;stroke-linejoin:miter;stroke-opacity:1" d="M 303.863,22.8593 286.89,13.4297 z" id="boundary" inkscape:connector-curvature="0" />
	<path style="fill:none;stroke:red;stroke-width:1px;stroke-linecap:butt;stroke-linejoin:miter;stroke-opacity:1" d="M 364.213,70.0076 379.3,81.3232 z" id="boundary" inkscape:connector-curvature="0" />
	<path style="fill:none;stroke:red;stroke-width:1px;stroke-linecap:butt;stroke-linejoin:miter;stroke-opacity:1" d="M 396.274,90.7529 405.703,107.726 z" id="boundary" inkscape:connector-curvature="0" />
	<path style="fill:none;stroke:red;stroke-width:1px;stroke-linecap:butt;stroke-linejoin:miter;stroke-opacity:1" d="M 405.703,107.726 411.361,126.586 z" id="boundary" inkscape:connector-curvature="0" />
	<path style="fill:none;stroke:red;stroke-width:1px;stroke-linecap:butt;stroke-linejoin:miter;stroke-opacity:1" d="M 396.274,90.7529 379.3,81.3232 z" id="boundary" inkscape:connector-curvature="0" />
	<path style="fill:none;stroke:red;stroke-width:1px;stroke-linecap:butt;stroke-linejoin:miter;stroke-opacity:1" d="M 426.449,137.901 439.65,152.989 z" id="boundary" inkscape:connector-curvature="0" />
	<path style="fill:none;stroke:red;stroke-width:1px;stroke-linecap:butt;stroke-linejoin:miter;stroke-opacity:1" d="M 449.08,169.962 439.65,152.989 z" id="boundary" inkscape:connector-curvature="0" />
	<path style="fill:none;stroke:red;stroke-width:1px;stroke-linecap:butt;stroke-linejoin:miter;stroke-opacity:1" d="M 411.361,126.586 426.449,137.901 z" id="boundary" inkscape:connector-curvature="0" />
	<path style="fill:none;stroke:red;stroke-width:1px;stroke-linecap:butt;stroke-linejoin:miter;stroke-opacity:1" d="M 458.51,186.935 467.939,203.909 z" id="boundary" inkscape:connector-curvature="0" />
	<path style="fill:none;stroke:red;stroke-width:1px;stroke-linecap:butt;stroke-linejoin:miter;stroke-opacity:1" d="M 449.08,169.962 458.51,186.935 z" id="boundary" inkscape:connector-curvature="0" />
	<path style="fill:none;stroke:red;stroke-width:1px;stroke-linecap:butt;stroke-linejoin:miter;stroke-opacity:1" d="M 467.939,203.909 467.939,222.768 z" id="boundary" inkscape:connector-curvature="0" />
	<path style="fill:none;stroke:red;stroke-width:1px;stroke-linecap:butt;stroke-linejoin:miter;stroke-opacity:1" d="M 477.369,239.741 467.939,222.768 z" id="boundary" inkscape:connector-curvature="0" />
	<path style="fill:none;stroke:red;stroke-width:1px;stroke-linecap:butt;stroke-linejoin:miter;stroke-opacity:1" d="M 477.369,239.741 486.798,256.715 z" id="boundary" inkscape:connector-curvature="0" />
	<path style="fill:none;stroke:red;stroke-width:1px;stroke-linecap:butt;stroke-linejoin:miter;stroke-opacity:1" d="M 496.228,273.688 486.798,256.715 z" id="boundary" inkscape:connector-curvature="0" />
	<path style="fill:none;stroke:red;stroke-width:1px;stroke-linecap:butt;stroke-linejoin:miter;stroke-opacity:1" d="M 511.316,286.89 496.228,273.688 z" id="boundary" inkscape:connector-curvature="0" />
	<path style="fill:none;stroke:red;stroke-width:1px;stroke-linecap:butt;stroke-linejoin:miter;stroke-opacity:1" d="M 524.517,271.802 511.316,286.89 z" id="boundary" inkscape:connector-curvature="0" />
	<path style="fill:none;stroke:red;stroke-width:1px;stroke-linecap:butt;stroke-linejoin:miter;stroke-opacity:1" d="M 4,358.555 4,377.414 z" id="boundary" inkscape:connector-curvature="0" />
	<path style="fill:none;stroke:red;stroke-width:1px;stroke-linecap:butt;stroke-linejoin:miter;stroke-opacity:1" d="M 4,396.274 4,377.414 z" id="boundary" inkscape:connector-curvature="0" />
	<path style="fill:none;stroke:red;stroke-width:1px;stroke-linecap:butt;stroke-linejoin:miter;stroke-opacity:1" d="M 13.4297,432.106 4,415.133 z" id="boundary" inkscape:connector-curvature="0" />
	<path style="fill:none;stroke:red;stroke-width:1px;stroke-linecap:butt;stroke-linejoin:miter;stroke-opacity:1" d="M 4,415.133 4,396.274 z" id="boundary" inkscape:connector-curvature="0" />
	<path style="fill:none;stroke:red;stroke-width:1px;stroke-linecap:butt;stroke-linejoin:miter;stroke-opacity:1" d="M 22.8593,449.08 13.4297,432.106 z" id="boundary" inkscape:connector-curvature="0" />
	<path style="fill:none;stroke:red;stroke-width:1px;stroke-linecap:butt;stroke-linejoin:miter;stroke-opacity:1" d="M 22.8593,449.08 28.5171,467.939 z" id="boundary" inkscape:connector-curvature="0" />
	<path style="fill:none;stroke:red;stroke-width:1px;stroke-linecap:butt;stroke-linejoin:miter;stroke-opacity:1" d="M 28.5171,467.939 43.6046,481.141 z" id="boundary" inkscape:connector-curvature="0" />
	<path style="fill:none;stroke:red;stroke-width:1px;stroke-linecap:butt;stroke-linejoin:miter;stroke-opacity:1" d="M 56.8061,496.228 43.6046,481.141 z" id="boundary" inkscape:connector-curvature="0" />
	<path style="fill:none;stroke:red;stroke-width:1px;stroke-linecap:butt;stroke-linejoin:miter;stroke-opacity:1" d="M 71.8935,509.43 56.8061,496.228 z" id="boundary" inkscape:connector-curvature="0" />
	<path style="fill:none;stroke:red;stroke-width:1px;stroke-linecap:butt;stroke-linejoin:miter;stroke-opacity:1" d="M 100.183,537.719 85.0951,524.517 z" id="boundary" inkscape:connector-curvature="0" />
	<path style="fill:none;stroke:red;stroke-width:1px;stroke-linecap:butt;stroke-linejoin:miter;stroke-opacity:1" d="M 85.0951,524.517 71.8935,509.43 z" id="boundary" inkscape:connector-curvature="0" />
	<path style="fill:none;stroke:red;stroke-width:1px;stroke-linecap:butt;stroke-linejoin:miter;stroke-opacity:1" d="M 128.471,566.008 113.384,552.806 z" id="boundary" inkscape:connector-curvature="0" />
	<path style="fill:none;stroke:red;stroke-width:1px;stroke-linecap:butt;stroke-linejoin:miter;stroke-opacity:1" d="M 113.384,552.806 100.183,537.719 z" id="boundary" inkscape:connector-curvature="0" />
	<path style="fill:none;stroke:red;stroke-width:1px;stroke-linecap:butt;stroke-linejoin:miter;stroke-opacity:1" d="M 128.471,566.008 145.445,575.437 z" id="boundary" inkscape:connector-curvature="0" />
	<path style="fill:none;stroke:red;stroke-width:1px;stroke-linecap:butt;stroke-linejoin:miter;stroke-opacity:1" d="M 145.445,575.437 154.875,592.411 z" id="boundary" inkscape:connector-curvature="0" />
	<path style="fill:none;stroke:red;stroke-width:1px;stroke-linecap:butt;stroke-linejoin:miter;stroke-opacity:1" d="M 173.734,599.954 154.875,592.411 z" id="boundary" inkscape:connector-curvature="0" />
	<path style="fill:none;stroke:red;stroke-width:1px;stroke-linecap:butt;stroke-linejoin:miter;stroke-opacity:1" d="M 185.049,615.042 173.734,599.954 z" id="boundary" inkscape:connector-curvature="0" />
	<path style="fill:none;stroke:red;stroke-width:1px;stroke-linecap:butt;stroke-linejoin:miter;stroke-opacity:1" d="M 185.049,615.042 200.137,628.243 z" id="boundary" inkscape:connector-curvature="0" />
	<path style="fill:none;stroke:red;stroke-width:1px;stroke-linecap:butt;stroke-linejoin:miter;stroke-opacity:1" d="M 200.137,628.243 213.338,643.331 z" id="boundary" inkscape:connector-curvature="0" />
	<path style="fill:none;stroke:red;stroke-width:1px;stroke-linecap:butt;stroke-linejoin:miter;stroke-opacity:1" d="M 228.426,656.532 213.338,643.331 z" id="boundary" inkscape:connector-curvature="0" />
	<path style="fill:none;stroke:red;stroke-width:1px;stroke-linecap:butt;stroke-linejoin:miter;stroke-opacity:1" d="M 264.259,673.506 245.399,665.962 z" id="boundary" inkscape:connector-curvature="0" />
	<path style="fill:none;stroke:red;stroke-width:1px;stroke-linecap:butt;stroke-linejoin:miter;stroke-opacity:1" d="M 245.399,665.962 228.426,656.532 z" id="boundary" inkscape:connector-curvature="0" />
	<path style="fill:none;stroke:red;stroke-width:1px;stroke-linecap:butt;stroke-linejoin:miter;stroke-opacity:1" d="M 264.259,673.506 277.46,688.593 z" id="boundary" inkscape:connector-curvature="0" />
	<path style="fill:none;stroke:red;stroke-width:1px;stroke-linecap:butt;stroke-linejoin:miter;stroke-opacity:1" d="M 309.521,711.224 292.548,701.795 z" id="boundary" inkscape:connector-curvature="0" />
	<path style="fill:none;stroke:red;stroke-width:1px;stroke-linecap:butt;stroke-linejoin:miter;stroke-opacity:1" d="M 277.46,688.593 292.548,701.795 z" id="boundary" inkscape:connector-curvature="0" />
	<path style="fill:none;stroke:red;stroke-width:1px;stroke-linecap:butt;stroke-linejoin:miter;stroke-opacity:1" d="M 341.582,731.97 324.608,722.54 z" id="boundary" inkscape:connector-curvature="0" />
	<path style="fill:none;stroke:red;stroke-width:1px;stroke-linecap:butt;stroke-linejoin:miter;stroke-opacity:1" d="M 324.608,722.54 309.521,711.224 z" id="boundary" inkscape:connector-curvature="0" />
	<path style="fill:none;stroke:red;stroke-width:1px;stroke-linecap:butt;stroke-linejoin:miter;stroke-opacity:1" d="M 341.582,731.97 354.783,747.057 z" id="boundary" inkscape:connector-curvature="0" />
	<path style="fill:none;stroke:red;stroke-width:1px;stroke-linecap:butt;stroke-linejoin:miter;stroke-opacity:1" d="M 386.844,769.688 369.871,760.259 z" id="boundary" inkscape:connector-curvature="0" />
	<path style="fill:none;stroke:red;stroke-width:1px;stroke-linecap:butt;stroke-linejoin:miter;stroke-opacity:1" d="M 369.871,760.259 354.783,747.057 z" id="boundary" inkscape:connector-curvature="0" />
	<path style="fill:none;stroke:red;stroke-width:1px;stroke-linecap:butt;stroke-linejoin:miter;stroke-opacity:1" d="M 386.844,769.688 401.932,782.89 z" id="boundary" inkscape:connector-curvature="0" />
	<path style="fill:none;stroke:red;stroke-width:1px;stroke-linecap:butt;stroke-linejoin:miter;stroke-opacity:1" d="M 415.133,797.977 401.932,782.89 z" id="boundary" inkscape:connector-curvature="0" />
	<path style="fill:none;stroke:red;stroke-width:1px;stroke-linecap:butt;stroke-linejoin:miter;stroke-opacity:1" d="M 415.133,797.977 430.221,811.179 z" id="boundary" inkscape:connector-curvature="0" />
	<path style="fill:none;stroke:red;stroke-width:1px;stroke-linecap:butt;stroke-linejoin:miter;stroke-opacity:1" d="M 443.422,826.266 430.221,811.179 z" id="boundary" inkscape:connector-curvature="0" />
	<path style="fill:none;stroke:red;stroke-width:1px;stroke-linecap:butt;stroke-linejoin:miter;stroke-opacity:1" d="M 458.51,839.468 471.711,854.555 z" id="boundary" inkscape:connector-curvature="0" />
	<path style="fill:none;stroke:red;stroke-width:1px;stroke-linecap:butt;stroke-linejoin:miter;stroke-opacity:1" d="M 443.422,826.266 458.51,839.468 z" id="boundary" inkscape:connector-curvature="0" />
	<path style="fill:none;stroke:red;stroke-width:1px;stroke-linecap:butt;stroke-linejoin:miter;stroke-opacity:1" d="M 486.798,867.757 471.711,854.555 z" id="boundary" inkscape:connector-curvature="0" />
	<path style="fill:none;stroke:red;stroke-width:1px;stroke-linecap:butt;stroke-linejoin:miter;stroke-opacity:1" d="M 486.798,867.757 500,882.844 z" id="boundary" inkscape:connector-curvature="0" />
	<path style="fill:none;stroke:red;stroke-width:1px;stroke-linecap:butt;stroke-linejoin:miter;stroke-opacity:1" d="M 518.859,882.844 500,882.844 z" id="boundary" inkscape:connector-curvature="0" />
	<path style="fill:none;stroke:red;stroke-width:1px;stroke-linecap:butt;stroke-linejoin:miter;stroke-opacity:1" d="M 760.259,22.8593 741.399,22.8593 z" id="boundary" inkscape:connector-curvature="0" />
	<path style="fill:none;stroke:red;stroke-width:1px;stroke-linecap:butt;stroke-linejoin:miter;stroke-opacity:1" d="M 613.156,126.586 598.068,141.673 z" id="boundary" inkscape:connector-curvature="0" />
	<path style="fill:none;stroke:red;stroke-width:1px;stroke-linecap:butt;stroke-linejoin:miter;stroke-opacity:1" d="M 626.357,103.954 613.156,126.586 z" id="boundary" inkscape:connector-curvature="0" />
	<path style="fill:none;stroke:red;stroke-width:1px;stroke-linecap:butt;stroke-linejoin:miter;stroke-opacity:1" d="M 588.639,160.532 598.068,141.673 z" id="boundary" inkscape:connector-curvature="0" />
	<path style="fill:none;stroke:red;stroke-width:1px;stroke-linecap:butt;stroke-linejoin:miter;stroke-opacity:1" d="M 654.646,75.6654 669.734,60.5779 z" id="boundary" inkscape:connector-curvature="0" />
	<path style="fill:none;stroke:red;stroke-width:1px;stroke-linecap:butt;stroke-linejoin:miter;stroke-opacity:1" d="M 654.646,75.6654 635.787,85.0951 z" id="boundary" inkscape:connector-curvature="0" />
	<path style="fill:none;stroke:red;stroke-width:1px;stroke-linecap:butt;stroke-linejoin:miter;stroke-opacity:1" d="M 669.734,60.5779 684.821,45.4905 z" id="boundary" inkscape:connector-curvature="0" />
	<path style="fill:none;stroke:red;stroke-width:1px;stroke-linecap:butt;stroke-linejoin:miter;stroke-opacity:1" d="M 722.54,26.6312 703.681,36.0608 z" id="boundary" inkscape:connector-curvature="0" />
	<path style="fill:none;stroke:red;stroke-width:1px;stroke-linecap:butt;stroke-linejoin:miter;stroke-opacity:1" d="M 741.399,22.8593 722.54,26.6312 z" id="boundary" inkscape:connector-curvature="0" />
	<path style="fill:none;stroke:red;stroke-width:1px;stroke-linecap:butt;stroke-linejoin:miter;stroke-opacity:1" d="M 684.821,45.4905 703.681,36.0608 z" id="boundary" inkscape:connector-curvature="0" />
	<path style="fill:none;stroke:red;stroke-width:1px;stroke-linecap:butt;stroke-linejoin:miter;stroke-opacity:1" d="M 626.357,103.954 635.787,85.0951 z" id="boundary" inkscape:connector-curvature="0" />
	<path style="fill:none;stroke:red;stroke-width:1px;stroke-linecap:butt;stroke-linejoin:miter;stroke-opacity:1" d="M 579.209,179.392 567.894,202.023 z" id="boundary" inkscape:connector-curvature="0" />
	<path style="fill:none;stroke:red;stroke-width:1px;stroke-linecap:butt;stroke-linejoin:miter;stroke-opacity:1" d="M 567.894,202.023 552.806,215.224 z" id="boundary" inkscape:connector-curvature="0" />
	<path style="fill:none;stroke:red;stroke-width:1px;stroke-linecap:butt;stroke-linejoin:miter;stroke-opacity:1" d="M 588.639,160.532 579.209,179.392 z" id="boundary" inkscape:connector-curvature="0" />
	<path style="fill:none;stroke:red;stroke-width:1px;stroke-linecap:butt;stroke-linejoin:miter;stroke-opacity:1" d="M 524.517,271.802 533.947,252.943 z" id="boundary" inkscape:connector-curvature="0" />
	<path style="fill:none;stroke:red;stroke-width:1px;stroke-linecap:butt;stroke-linejoin:miter;stroke-opacity:1" d="M 543.376,234.084 533.947,252.943 z" id="boundary" inkscape:connector-curvature="0" />
	<path style="fill:none;stroke:red;stroke-width:1px;stroke-linecap:butt;stroke-linejoin:miter;stroke-opacity:1" d="M 543.376,234.084 552.806,215.224 z" id="boundary" inkscape:connector-curvature="0" />
	<path style="fill:none;stroke:red;stroke-width:1px;stroke-linecap:butt;stroke-linejoin:miter;stroke-opacity:1" d="M 760.259,22.8593 779.118,28.5171 z" id="boundary" inkscape:connector-curvature="0" />
	<path style="fill:none;stroke:red;stroke-width:1px;stroke-linecap:butt;stroke-linejoin:miter;stroke-opacity:1" d="M 796.091,37.9468 805.521,54.9202 z" id="boundary" inkscape:connector-curvature="0" />
	<path style="fill:none;stroke:red;stroke-width:1px;stroke-linecap:butt;stroke-linejoin:miter;stroke-opacity:1" d="M 796.091,37.9468 779.118,28.5171 z" id="boundary" inkscape:connector-curvature="0" />
	<path style="fill:none;stroke:red;stroke-width:1px;stroke-linecap:butt;stroke-linejoin:miter;stroke-opacity:1" d="M 822.494,64.3498 805.521,54.9202 z" id="boundary" inkscape:connector-curvature="0" />
	<path style="fill:none;stroke:red;stroke-width:1px;stroke-linecap:butt;stroke-linejoin:miter;stroke-opacity:1" d="M 822.494,64.3498 831.924,81.3232 z" id="boundary" inkscape:connector-curvature="0" />
	<path style="fill:none;stroke:red;stroke-width:1px;stroke-linecap:butt;stroke-linejoin:miter;stroke-opacity:1" d="M 845.125,96.4106 854.555,113.384 z" id="boundary" inkscape:connector-curvature="0" />
	<path style="fill:none;stroke:red;stroke-width:1px;stroke-linecap:butt;stroke-linejoin:miter;stroke-opacity:1" d="M 845.125,96.4106 831.924,81.3232 z" id="boundary" inkscape:connector-curvature="0" />
	<path style="fill:none;stroke:red;stroke-width:1px;stroke-linecap:butt;stroke-linejoin:miter;stroke-opacity:1" d="M 854.555,113.384 863.985,130.357 z" id="boundary" inkscape:connector-curvature="0" />
	<path style="fill:none;stroke:red;stroke-width:1px;stroke-linecap:butt;stroke-linejoin:miter;stroke-opacity:1" d="M 873.414,147.331 863.985,130.357 z" id="boundary" inkscape:connector-curvature="0" />
	<path style="fill:none;stroke:red;stroke-width:1px;stroke-linecap:butt;stroke-linejoin:miter;stroke-opacity:1" d="M 873.414,147.331 882.844,164.304 z" id="boundary" inkscape:connector-curvature="0" />
	<path style="fill:none;stroke:red;stroke-width:1px;stroke-linecap:butt;stroke-linejoin:miter;stroke-opacity:1" d="M 882.844,164.304 892.274,181.278 z" id="boundary" inkscape:connector-curvature="0" />
	<path style="fill:none;stroke:red;stroke-width:1px;stroke-linecap:butt;stroke-linejoin:miter;stroke-opacity:1" d="M 892.274,181.278 911.133,188.821 z" id="boundary" inkscape:connector-curvature="0" />
	<path style="fill:none;stroke:red;stroke-width:1px;stroke-linecap:butt;stroke-linejoin:miter;stroke-opacity:1" d="M 918.677,207.681 911.133,188.821 z" id="boundary" inkscape:connector-curvature="0" />
	<path style="fill:none;stroke:red;stroke-width:1px;stroke-linecap:butt;stroke-linejoin:miter;stroke-opacity:1" d="M 928.106,224.654 918.677,207.681 z" id="boundary" inkscape:connector-curvature="0" />
	<path style="fill:none;stroke:red;stroke-width:1px;stroke-linecap:butt;stroke-linejoin:miter;stroke-opacity:1" d="M 935.65,243.513 928.106,224.654 z" id="boundary" inkscape:connector-curvature="0" />
	<path style="fill:none;stroke:red;stroke-width:1px;stroke-linecap:butt;stroke-linejoin:miter;stroke-opacity:1" d="M 935.65,243.513 945.08,260.487 z" id="boundary" inkscape:connector-curvature="0" />
	<path style="fill:none;stroke:red;stroke-width:1px;stroke-linecap:butt;stroke-linejoin:miter;stroke-opacity:1" d="M 962.053,296.319 952.624,279.346 z" id="boundary" inkscape:connector-curvature="0" />
	<path style="fill:none;stroke:red;stroke-width:1px;stroke-linecap:butt;stroke-linejoin:miter;stroke-opacity:1" d="M 952.624,279.346 945.08,260.487 z" id="boundary" inkscape:connector-curvature="0" />
	<path style="fill:none;stroke:red;stroke-width:1px;stroke-linecap:butt;stroke-linejoin:miter;stroke-opacity:1" d="M 962.053,296.319 967.711,315.179 z" id="boundary" inkscape:connector-curvature="0" />
	<path style="fill:none;stroke:red;stroke-width:1px;stroke-linecap:butt;stroke-linejoin:miter;stroke-opacity:1" d="M 967.711,315.179 977.141,332.152 z" id="boundary" inkscape:connector-curvature="0" />
	<path style="fill:none;stroke:red;stroke-width:1px;stroke-linecap:butt;stroke-linejoin:miter;stroke-opacity:1" d="M 977.141,332.152 977.141,351.011 z" id="boundary" inkscape:connector-curvature="0" />
	<path style="fill:none;stroke:red;stroke-width:1px;stroke-linecap:butt;stroke-linejoin:miter;stroke-opacity:1" d="M 977.141,351.011 986.57,367.985 z" id="boundary" inkscape:connector-curvature="0" />
	<path style="fill:none;stroke:red;stroke-width:1px;stroke-linecap:butt;stroke-linejoin:miter;stroke-opacity:1" d="M 986.57,367.985 996,384.958 z" id="boundary" inkscape:connector-curvature="0" />
	<path style="fill:none;stroke:red;stroke-width:1px;stroke-linecap:butt;stroke-linejoin:miter;stroke-opacity:1" d="M 996,403.817 996,384.958 z" id="boundary" inkscape:connector-curvature="0" />
	<path style="fill:none;stroke:red;stroke-width:1px;stroke-linecap:butt;stroke-linejoin:miter;stroke-opacity:1" d="M 777.232,722.54 760.259,731.97 z" id="boundary" inkscape:connector-curvature="0" />
	<path style="fill:none;stroke:red;stroke-width:1px;stroke-linecap:butt;stroke-linejoin:miter;stroke-opacity:1" d="M 760.259,731.97 745.171,748.943 z" id="boundary" inkscape:connector-curvature="0" />
	<path style="fill:none;stroke:red;stroke-width:1px;stroke-linecap:butt;stroke-linejoin:miter;stroke-opacity:1" d="M 624.471,822.494 605.612,831.924 z" id="boundary" inkscape:connector-curvature="0" />
	<path style="fill:none;stroke:red;stroke-width:1px;stroke-linecap:butt;stroke-linejoin:miter;stroke-opacity:1" d="M 605.612,831.924 586.753,841.354 z" id="boundary" inkscape:connector-curvature="0" />
	<path style="fill:none;stroke:red;stroke-width:1px;stroke-linecap:butt;stroke-linejoin:miter;stroke-opacity:1" d="M 537.719,880.958 518.859,882.844 z" id="boundary" inkscape:connector-curvature="0" />
	<path style="fill:none;stroke:red;stroke-width:1px;stroke-linecap:butt;stroke-linejoin:miter;stroke-opacity:1" d="M 552.806,863.985 567.894,850.783 z" id="boundary" inkscape:connector-curvature="0" />
	<path style="fill:none;stroke:red;stroke-width:1px;stroke-linecap:butt;stroke-linejoin:miter;stroke-opacity:1" d="M 537.719,880.958 552.806,863.985 z" id="boundary" inkscape:connector-curvature="0" />
	<path style="fill:none;stroke:red;stroke-width:1px;stroke-linecap:butt;stroke-linejoin:miter;stroke-opacity:1" d="M 567.894,850.783 586.753,841.354 z" id="boundary" inkscape:connector-curvature="0" />
	<path style="fill:none;stroke:red;stroke-width:1px;stroke-linecap:butt;stroke-linejoin:miter;stroke-opacity:1" d="M 637.673,807.407 654.646,797.977 z" id="boundary" inkscape:connector-curvature="0" />
	<path style="fill:none;stroke:red;stroke-width:1px;stroke-linecap:butt;stroke-linejoin:miter;stroke-opacity:1" d="M 671.62,788.548 654.646,797.977 z" id="boundary" inkscape:connector-curvature="0" />
	<path style="fill:none;stroke:red;stroke-width:1px;stroke-linecap:butt;stroke-linejoin:miter;stroke-opacity:1" d="M 726.312,758.373 707.452,767.802 z" id="boundary" inkscape:connector-curvature="0" />
	<path style="fill:none;stroke:red;stroke-width:1px;stroke-linecap:butt;stroke-linejoin:miter;stroke-opacity:1" d="M 671.62,788.548 688.593,777.232 z" id="boundary" inkscape:connector-curvature="0" />
	<path style="fill:none;stroke:red;stroke-width:1px;stroke-linecap:butt;stroke-linejoin:miter;stroke-opacity:1" d="M 688.593,777.232 707.452,767.802 z" id="boundary" inkscape:connector-curvature="0" />
	<path style="fill:none;stroke:red;stroke-width:1px;stroke-linecap:butt;stroke-linejoin:miter;stroke-opacity:1" d="M 726.312,758.373 745.171,748.943 z" id="boundary" inkscape:connector-curvature="0" />
	<path style="fill:none;stroke:red;stroke-width:1px;stroke-linecap:butt;stroke-linejoin:miter;stroke-opacity:1" d="M 624.471,822.494 637.673,807.407 z" id="boundary" inkscape:connector-curvature="0" />
	<path style="fill:none;stroke:red;stroke-width:1px;stroke-linecap:butt;stroke-linejoin:miter;stroke-opacity:1" d="M 996,422.677 996,403.817 z" id="boundary" inkscape:connector-curvature="0" />
	<path style="fill:none;stroke:red;stroke-width:1px;stroke-linecap:butt;stroke-linejoin:miter;stroke-opacity:1" d="M 996,422.677 996,441.536 z" id="boundary" inkscape:connector-curvature="0" />
	<path style="fill:none;stroke:red;stroke-width:1px;stroke-linecap:butt;stroke-linejoin:miter;stroke-opacity:1" d="M 996,441.536 996,460.395 z" id="boundary" inkscape:connector-curvature="0" />
	<path style="fill:none;stroke:red;stroke-width:1px;stroke-linecap:butt;stroke-linejoin:miter;stroke-opacity:1" d="M 996,479.255 996,460.395 z" id="boundary" inkscape:connector-curvature="0" />
	<path style="fill:none;stroke:red;stroke-width:1px;stroke-linecap:butt;stroke-linejoin:miter;stroke-opacity:1" d="M 996,479.255 986.57,496.228 z" id="boundary" inkscape:connector-curvature="0" />
	<path style="fill:none;stroke:red;stroke-width:1px;stroke-linecap:butt;stroke-linejoin:miter;stroke-opacity:1" d="M 926.221,596.183 939.422,571.665 z" id="boundary" inkscape:connector-curvature="0" />
	<path style="fill:none;stroke:red;stroke-width:1px;stroke-linecap:butt;stroke-linejoin:miter;stroke-opacity:1" d="M 954.51,558.464 939.422,571.665 z" id="boundary" inkscape:connector-curvature="0" />
	<path style="fill:none;stroke:red;stroke-width:1px;stroke-linecap:butt;stroke-linejoin:miter;stroke-opacity:1" d="M 977.141,524.517 986.57,496.228 z" id="boundary" inkscape:connector-curvature="0" />
	<path style="fill:none;stroke:red;stroke-width:1px;stroke-linecap:butt;stroke-linejoin:miter;stroke-opacity:1" d="M 967.711,543.376 954.51,558.464 z" id="boundary" inkscape:connector-curvature="0" />
	<path style="fill:none;stroke:red;stroke-width:1px;stroke-linecap:butt;stroke-linejoin:miter;stroke-opacity:1" d="M 967.711,543.376 977.141,524.517 z" id="boundary" inkscape:connector-curvature="0" />
	<path style="fill:none;stroke:red;stroke-width:1px;stroke-linecap:butt;stroke-linejoin:miter;stroke-opacity:1" d="M 926.221,596.183 911.133,609.384 z" id="boundary" inkscape:connector-curvature="0" />
	<path style="fill:none;stroke:red;stroke-width:1px;stroke-linecap:butt;stroke-linejoin:miter;stroke-opacity:1" d="M 835.696,675.392 828.152,694.251 z" id="boundary" inkscape:connector-curvature="0" />
	<path style="fill:none;stroke:red;stroke-width:1px;stroke-linecap:butt;stroke-linejoin:miter;stroke-opacity:1" d="M 828.152,694.251 811.179,703.681 z" id="boundary" inkscape:connector-curvature="0" />
	<path style="fill:none;stroke:red;stroke-width:1px;stroke-linecap:butt;stroke-linejoin:miter;stroke-opacity:1" d="M 854.555,665.962 835.696,675.392 z" id="boundary" inkscape:connector-curvature="0" />
	<path style="fill:none;stroke:red;stroke-width:1px;stroke-linecap:butt;stroke-linejoin:miter;stroke-opacity:1" d="M 869.643,652.76 854.555,665.962 z" id="boundary" inkscape:connector-curvature="0" />
	<path style="fill:none;stroke:red;stroke-width:1px;stroke-linecap:butt;stroke-linejoin:miter;stroke-opacity:1" d="M 794.205,713.11 777.232,722.54 z" id="boundary" inkscape:connector-curvature="0" />
	<path style="fill:none;stroke:red;stroke-width:1px;stroke-linecap:butt;stroke-linejoin:miter;stroke-opacity:1" d="M 794.205,713.11 811.179,703.681 z" id="boundary" inkscape:connector-curvature="0" />
	<path style="fill:none;stroke:red;stroke-width:1px;stroke-linecap:butt;stroke-linejoin:miter;stroke-opacity:1" d="M 869.643,652.76 882.844,637.673 z" id="boundary" inkscape:connector-curvature="0" />
	<path style="fill:none;stroke:red;stroke-width:1px;stroke-linecap:butt;stroke-linejoin:miter;stroke-opacity:1" d="M 897.932,624.471 882.844,637.673 z" id="boundary" inkscape:connector-curvature="0" />
	<path style="fill:none;stroke:red;stroke-width:1px;stroke-linecap:butt;stroke-linejoin:miter;stroke-opacity:1" d="M 897.932,624.471 911.133,609.384 z" id="boundary" inkscape:connector-curvature="0" />
	<circle cx="4" cy="320.837" r="4" fill="#0" id="circle0"/>
	<circle cx="4" cy="339.696" r="4" fill="#0" id="circle1"/>
	<circle cx="4" cy="358.555" r="4" fill="#0" id="circle2"/>
	<circle cx="4" cy="377.414" r="4" fill="#0" id="circle3"/>
	<circle cx="4" cy="396.274" r="4" fill="#0" id="circle4"/>
	<circle cx="4" cy="415.133" r="4" fill="#0" id="circle5"/>
	<circle cx="13.4297" cy="301.977" r="4" fill="#0" id="circle6"/>
	<circle cx="13.4297" cy="432.106" r="4" fill="#0" id="circle7"/>
	<circle cx="22.8593" cy="283.118" r="4" fill="#0" id="circle8"/>
	<circle cx="22.8593" cy="449.08" r="4" fill="#0" id="circle9"/>
	<circle cx="28.5171" cy="467.939" r="4" fill="#0" id="circle10"/>
	<circle cx="32.289" cy="264.259" r="4" fill="#0" id="circle11"/>
	<circle cx="41.7186" cy="245.399" r="4" fill="#0" id="circle12"/>
	<circle cx="43.6046" cy="481.141" r="4" fill="#0" id="circle13"/>
	<circle cx="51.1483" cy="226.54" r="4" fill="#0" id="circle14"/>
	<circle cx="56.8061" cy="496.228" r="4" fill="#0" id="circle15"/>
	<circle cx="60.5779" cy="207.681" r="4" fill="#0" id="circle16"/>
	<circle cx="70.0076" cy="188.821" r="4" fill="#0" id="circle17"/>
	<circle cx="71.8935" cy="509.43" r="4" fill="#0" id="circle18"/>
	<circle cx="85.0951" cy="524.517" r="4" fill="#0" id="circle19"/>
	<circle cx="88.8669" cy="179.392" r="4" fill="#0" id="circle20"/>
	<circle cx="98.2966" cy="160.532" r="4" fill="#0" id="circle21"/>
	<circle cx="100.183" cy="537.719" r="4" fill="#0" id="circle22"/>
	<circle cx="107.726" cy="141.673" r="4" fill="#0" id="circle23"/>
	<circle cx="113.384" cy="552.806" r="4" fill="#0" id="circle24"/>
	<circle cx="117.156" cy="122.814" r="4" fill="#0" id="circle25"/>
	<circle cx="128.471" cy="566.008" r="4" fill="#0" id="circle26"/>
	<circle cx="136.015" cy="113.384" r="4" fill="#0" id="circle27"/>
	<circle cx="145.445" cy="94.5247" r="4" fill="#0" id="circle28"/>
	<circle cx="145.445" cy="575.437" r="4" fill="#0" id="circle29"/>
	<circle cx="154.875" cy="75.6654" r="4" fill="#0" id="circle30"/>
	<circle cx="154.875" cy="592.411" r="4" fill="#0" id="circle31"/>
	<circle cx="169.962" cy="60.5779" r="4" fill="#0" id="circle32"/>
	<circle cx="173.734" cy="599.954" r="4" fill="#0" id="circle33"/>
	<circle cx="185.049" cy="45.4905" r="4" fill="#0" id="circle34"/>
	<circle cx="185.049" cy="615.042" r="4" fill="#0" id="circle35"/>
	<circle cx="200.137" cy="32.289" r="4" fill="#0" id="circle36"/>
	<circle cx="200.137" cy="628.243" r="4" fill="#0" id="circle37"/>
	<circle cx="213.338" cy="643.331" r="4" fill="#0" id="circle38"/>
	<circle cx="217.11" cy="22.8593" r="4" fill="#0" id="circle39"/>
	<circle cx="228.426" cy="656.532" r="4" fill="#0" id="circle40"/>
	<circle cx="234.084" cy="13.4297" r="4" fill="#0" id="circle41"/>
	<circle cx="245.399" cy="665.962" r="4" fill="#0" id="circle42"/>
	<circle cx="251.057" cy="4" r="4" fill="#0" id="circle43"/>
	<circle cx="264.259" cy="673.506" r="4" fill="#0" id="circle44"/>
	<circle cx="269.916" cy="4" r="4" fill="#0" id="circle45"/>
	<circle cx="277.46" cy="688.593" r="4" fill="#0" id="circle46"/>
	<circle cx="286.89" cy="13.4297" r="4" fill="#0" id="circle47"/>
	<circle cx="292.548" cy="701.795" r="4" fill="#0" id="circle48"/>
	<circle cx="303.863" cy="22.8593" r="4" fill="#0" id="circle49"/>
	<circle cx="309.521" cy="711.224" r="4" fill="#0" id="circle50"/>
	<circle cx="320.837" cy="32.289" r="4" fill="#0" id="circle51"/>
	<circle cx="324.608" cy="722.54" r="4" fill="#0" id="circle52"/>
	<circle cx="337.81" cy="41.7186" r="4" fill="#0" id="circle53"/>
	<circle cx="341.582" cy="731.97" r="4" fill="#0" id="circle54"/>
	<circle cx="352.897" cy="54.9202" r="4" fill="#0" id="circle55"/>
	<circle cx="354.783" cy="747.057" r="4" fill="#0" id="circle56"/>
	<circle cx="364.213" cy="70.0076" r="4" fill="#0" id="circle57"/>
	<circle cx="369.871" cy="760.259" r="4" fill="#0" id="circle58"/>
	<circle cx="379.3" cy="81.3232" r="4" fill="#0" id="circle59"/>
	<circle cx="386.844" cy="769.688" r="4" fill="#0" id="circle60"/>
	<circle cx="396.274" cy="90.7529" r="4" fill="#0" id="circle61"/>
	<circle cx="401.932" cy="782.89" r="4" fill="#0" id="circle62"/>
	<circle cx="405.703" cy="107.726" r="4" fill="#0" id="circle63"/>
	<circle cx="411.361" cy="126.586" r="4" fill="#0" id="circle64"/>
	<circle cx="415.133" cy="797.977" r="4" fill="#0" id="circle65"/>
	<circle cx="426.449" cy="137.901" r="4" fill="#0" id="circle66"/>
	<circle cx="430.221" cy="811.179" r="4" fill="#0" id="circle67"/>
	<circle cx="439.65" cy="152.989" r="4" fill="#0" id="circle68"/>
	<circle cx="443.422" cy="826.266" r="4" fill="#0" id="circle69"/>
	<circle cx="449.08" cy="169.962" r="4" fill="#0" id="circle70"/>
	<circle cx="458.51" cy="186.935" r="4" fill="#0" id="circle71"/>
	<circle cx="458.51" cy="839.468" r="4" fill="#0" id="circle72"/>
	<circle cx="467.939" cy="203.909" r="4" fill="#0" id="circle73"/>
	<circle cx="467.939" cy="222.768" r="4" fill="#0" id="circle74"/>
	<circle cx="471.711" cy="854.555" r="4" fill="#0" id="circle75"/>
	<circle cx="477.369" cy="239.741" r="4" fill="#0" id="circle76"/>
	<circle cx="486.798" cy="256.715" r="4" fill="#0" id="circle77"/>
	<circle cx="486.798" cy="867.757" r="4" fill="#0" id="circle78"/>
	<circle cx="496.228" cy="273.688" r="4" fill="#0" id="circle79"/>
	<circle cx="500" cy="882.844" r="4" fill="#0" id="circle80"/>
	<circle cx="511.316" cy="286.89" r="4" fill="#0" id="circle81"/>
	<circle cx="518.859" cy="882.844" r="4" fill="#0" id="circle82"/>
	<circle cx="524.517" cy="271.802" r="4" fill="#0" id="circle83"/>
	<circle cx="533.947" cy="252.943" r="4" fill="#0" id="circle84"/>
	<circle cx="537.719" cy="880.958" r="4" fill="#0" id="circle85"/>
	<circle cx="543.376" cy="234.084" r="4" fill="#0" id="circle86"/>
	<circle cx="552.806" cy="215.224" r="4" fill="#0" id="circle87"/>
	<circle cx="552.806" cy="863.985" r="4" fill="#0" id="circle88"/>
	<circle cx="567.894" cy="202.023" r="4" fill="#0" id="circle89"/>
	<circle cx="567.894" cy="850.783" r="4" fill="#0" id="circle90"/>
	<circle cx="579.209" cy="179.392" r="4" fill="#0" id="circle91"/>
	<circle cx="586.753" cy="841.354" r="4" fill="#0" id="circle92"/>
	<circle cx="588.639" cy="160.532" r="4" fill="#0" id="circle93"/>
	<circle cx="598.068" cy="141.673" r="4" fill="#0" id="circle94"/>
	<circle cx="605.612" cy="831.924" r="4" fill="#0" id="circle95"/>
	<circle cx="613.156" cy="126.586" r="4" fill="#0" id="circle96"/>
	<circle cx="624.471" cy="822.494" r="4" fill="#0" id="circle97"/>
	<circle cx="626.357" cy="103.954" r="4" fill="#0" id="circle98"/>
	<circle cx="635.787" cy="85.0951" r="4" fill="#0" id="circle99"/>
	<circle cx="637.673" cy="807.407" r="4" fill="#0" id="circle100"/>
	<circle cx="654.646" cy="75.6654" r="4" fill="#0" id="circle101"/>
	<circle cx="654.646" cy="797.977" r="4" fill="#0" id="circle102"/>
	<circle cx="669.734" cy="60.5779" r="4" fill="#0" id="circle103"/>
	<circle cx="671.62" cy="788.548" r="4" fill="#0" id="circle104"/>
	<circle cx="684.821" cy="45.4905" r="4" fill="#0" id="circle105"/>
	<circle cx="688.593" cy="777.232" r="4" fill="#0" id="circle106"/>
	<circle cx="703.681" cy="36.0608" r="4" fill="#0" id="circle107"/>
	<circle cx="707.452" cy="767.802" r="4" fill="#0" id="circle108"/>
	<circle cx="722.54" cy="26.6312" r="4" fill="#0" id="circle109"/>
	<circle cx="726.312" cy="758.373" r="4" fill="#0" id="circle110"/>
	<circle cx="741.399" cy="22.8593" r="4" fill="#0" id="circle111"/>
	<circle cx="745.171" cy="748.943" r="4" fill="#0" id="circle112"/>
	<circle cx="760.259" cy="22.8593" r="4" fill="#0" id="circle113"/>
	<circle cx="760.259" cy="731.97" r="4" fill="#0" id="circle114"/>
	<circle cx="777.232" cy="722.54" r="4" fill="#0" id="circle115"/>
	<circle cx="779.118" cy="28.5171" r="4" fill="#0" id="circle116"/>
	<circle cx="794.205" cy="713.11" r="4" fill="#0" id="circle117"/>
	<circle cx="796.091" cy="37.9468" r="4" fill="#0" id="circle118"/>
	<circle cx="805.521" cy="54.9202" r="4" fill="#0" id="circle119"/>
	<circle cx="811.179" cy="703.681" r="4" fill="#0" id="circle120"/>
	<circle cx="822.494" cy="64.3498" r="4" fill="#0" id="circle121"/>
	<circle cx="828.152" cy="694.251" r="4" fill="#0" id="circle122"/>
	<circle cx="831.924" cy="81.3232" r="4" fill="#0" id="circle123"/>
	<circle cx="835.696" cy="675.392" r="4" fill="#0" id="circle124"/>
	<circle cx="845.125" cy="96.4106" r="4" fill="#0" id="circle125"/>
	<circle cx="854.555" cy="113.384" r="4" fill="#0" id="circle126"/>
	<circle cx="854.555" cy="665.962" r="4" fill="#0" id="circle127"/>
	<circle cx="863.985" cy="130.357" r="4" fill="#0" id="circle128"/>
	<circle cx="869.643" cy="652.76" r="4" fill="#0" id="circle129"/>
	<circle cx="873.414" cy="147.331" r="4" fill="#0" id="circle130"/>
	<circle cx="882.844" cy="164.304" r="4" fill="#0" id="circle131"/>
	<circle cx="882.844" cy="637.673" r="4" fill="#0" id="circle132"/>
	<circle cx="892.274" cy="181.278" r="4" fill="#0" id="circle133"/>
	<circle cx="897.932" cy="624.471" r="4" fill="#0" id="circle134"/>
	<circle cx="911.133" cy="188.821" r="4" fill="#0" id="circle135"/>
	<circle cx="911.133" cy="609.384" r="4" fill="#0" id="circle136"/>
	<circle cx="918.677" cy="207.681" r="4" fill="#0" id="circle137"/>
	<circle cx="926.221" cy="596.183" r="4" fill="#0" id="circle138"/>
	<circle cx="928.106" cy="224.654" r="4" fill="#0" id="circle139"/>
	<circle cx="935.65" cy="243.513" r="4" fill="#0" id="circle140"/>
	<circle cx="939.422" cy="571.665" r="4" fill="#0" id="circle141"/>
	<circle cx="945.08" cy="260.487" r="4" fill="#0" id="circle142"/>
	<circle cx="952.624" cy="279.346" r="4" fill="#0" id="circle143"/>
	<circle cx="954.51" cy="558.464" r="4" fill="#0" id="circle144"/>
	<circle cx="962.053" cy="296.319" r="4" fill="#0" id="circle145"/>
	<circle cx="967.711" cy="315.179" r="4" fill="#0" id="circle146"/>
	<circle cx="967.711" cy="543.376" r="4" fill="#0" id="circle147"/>
	<circle cx="977.141" cy="332.152" r="4" fill="#0" id="circle148"/>
	<circle cx="977.141" cy="351.011" r="4" fill="#0" id="circle149"/>
	<circle cx="977.141" cy="524.517" r="4" fill="#0" id="circle150"/>
	<circle cx="986.57" cy="367.985" r="4" fill="#0" id="circle151"/>
	<circle cx="986.57" cy="496.228" r="4" fill="#0" id="circle152"/>
	<circle cx="996" cy="384.958" r="4" fill="#0" id="circle153"/>
	<circle cx="996" cy="403.817" r="4" fill="#0" id="circle154"/>
	<circle cx="996" cy="422.677" r="4" fill="#0" id="circle155"/>
	<circle cx="996" cy="441.536" r="4" fill="#0" id="circle156"/>
	<circle cx="996" cy="460.395" r="4" fill="#0" id="circle157"/>
	<circle cx="996" cy="479.255" r="4" fill="#0" id="circle158"/>
	</g>
</svg>