<?xml version="1.0" encoding="UTF-8" standalone="no"?>
<!-- Created with CurveBenchmark -->
<svg
	xmlns:dc="http://purl.org/dc/elements/1.1/"
	xmlns:cc="http://creativecommons.org/ns#"
	xmlns:rdf="http://www.w3.org/1999/02/22-rdf-syntax-ns#"
	xmlns:svg="http://www.w3.org/2000/svg"
	xmlns="http://www.w3.org/2000/svg"
	xmlns:sodipodi="http://sodipodi.sourceforge.net/DTD/sodipodi-0.dtd"
	xmlns:inkscape="http://www.inkscape.org/namespaces/inkscape"
	width="1000"
	height="1000"
	id="svg2"
	version="1.1"
	sodipodi:docname="manifold/crust-chopper20.png.txt">
<defs
	id="defs4" />
<metadata
	id="metadata7">
	<rdf:RDF>
		<cc:Work
			rdf:about="">
			<dc:format>image/svg+xml</dc:format>
			<dc:type
				rdf:resource="http://purl.org/dc/dcmitype/StillImage" />
			<dc:title></dc:title>
		</cc:Work>
	</rdf:RDF>
</metadata>
<g
	inkscape:label="Layer 1"
	inkscape:groupmode="layer"
	id="layer1">
	<path style="fill:none;stroke:red;stroke-width:1px;stroke-linecap:butt;stroke-linejoin:miter;stroke-opacity:1" d="M 100.868,201.324 117.013,192.354 z" id="boundary" inkscape:connector-curvature="0" />
	<path style="fill:none;stroke:red;stroke-width:1px;stroke-linecap:butt;stroke-linejoin:miter;stroke-opacity:1" d="M 100.868,201.324 86.5172,213.881 z" id="boundary" inkscape:connector-curvature="0" />
	<path style="fill:none;stroke:red;stroke-width:1px;stroke-linecap:butt;stroke-linejoin:miter;stroke-opacity:1" d="M 183.385,161.859 165.447,165.447 z" id="boundary" inkscape:connector-curvature="0" />
	<path style="fill:none;stroke:red;stroke-width:1px;stroke-linecap:butt;stroke-linejoin:miter;stroke-opacity:1" d="M 165.447,165.447 149.302,174.416 z" id="boundary" inkscape:connector-curvature="0" />
	<path style="fill:none;stroke:red;stroke-width:1px;stroke-linecap:butt;stroke-linejoin:miter;stroke-opacity:1" d="M 133.157,183.385 149.302,174.416 z" id="boundary" inkscape:connector-curvature="0" />
	<path style="fill:none;stroke:red;stroke-width:1px;stroke-linecap:butt;stroke-linejoin:miter;stroke-opacity:1" d="M 133.157,183.385 117.013,192.354 z" id="boundary" inkscape:connector-curvature="0" />
	<path style="fill:none;stroke:red;stroke-width:1px;stroke-linecap:butt;stroke-linejoin:miter;stroke-opacity:1" d="M 247.964,124.188 230.025,129.57 z" id="boundary" inkscape:connector-curvature="0" />
	<path style="fill:none;stroke:red;stroke-width:1px;stroke-linecap:butt;stroke-linejoin:miter;stroke-opacity:1" d="M 230.025,129.57 213.881,138.539 z" id="boundary" inkscape:connector-curvature="0" />
	<path style="fill:none;stroke:red;stroke-width:1px;stroke-linecap:butt;stroke-linejoin:miter;stroke-opacity:1" d="M 265.902,125.982 247.964,124.188 z" id="boundary" inkscape:connector-curvature="0" />
	<path style="fill:none;stroke:red;stroke-width:1px;stroke-linecap:butt;stroke-linejoin:miter;stroke-opacity:1" d="M 283.841,129.57 265.902,125.982 z" id="boundary" inkscape:connector-curvature="0" />
	<path style="fill:none;stroke:red;stroke-width:1px;stroke-linecap:butt;stroke-linejoin:miter;stroke-opacity:1" d="M 213.881,138.539 197.736,147.508 z" id="boundary" inkscape:connector-curvature="0" />
	<path style="fill:none;stroke:red;stroke-width:1px;stroke-linecap:butt;stroke-linejoin:miter;stroke-opacity:1" d="M 183.385,161.859 197.736,147.508 z" id="boundary" inkscape:connector-curvature="0" />
	<path style="fill:none;stroke:red;stroke-width:1px;stroke-linecap:butt;stroke-linejoin:miter;stroke-opacity:1" d="M 21.9385,296.398 30.9078,269.49 z" id="boundary" inkscape:connector-curvature="0" />
	<path style="fill:none;stroke:red;stroke-width:1px;stroke-linecap:butt;stroke-linejoin:miter;stroke-opacity:1" d="M 59.6094,240.788 73.9602,228.231 z" id="boundary" inkscape:connector-curvature="0" />
	<path style="fill:none;stroke:red;stroke-width:1px;stroke-linecap:butt;stroke-linejoin:miter;stroke-opacity:1" d="M 45.2586,255.139 59.6094,240.788 z" id="boundary" inkscape:connector-curvature="0" />
	<path style="fill:none;stroke:red;stroke-width:1px;stroke-linecap:butt;stroke-linejoin:miter;stroke-opacity:1" d="M 45.2586,255.139 30.9078,269.49 z" id="boundary" inkscape:connector-curvature="0" />
	<path style="fill:none;stroke:red;stroke-width:1px;stroke-linecap:butt;stroke-linejoin:miter;stroke-opacity:1" d="M 86.5172,213.881 73.9602,228.231 z" id="boundary" inkscape:connector-curvature="0" />
	<path style="fill:none;stroke:red;stroke-width:1px;stroke-linecap:butt;stroke-linejoin:miter;stroke-opacity:1" d="M 21.9385,314.336 12.9693,332.275 z" id="boundary" inkscape:connector-curvature="0" />
	<path style="fill:none;stroke:red;stroke-width:1px;stroke-linecap:butt;stroke-linejoin:miter;stroke-opacity:1" d="M 21.9385,296.398 21.9385,314.336 z" id="boundary" inkscape:connector-curvature="0" />
	<path style="fill:none;stroke:red;stroke-width:1px;stroke-linecap:butt;stroke-linejoin:miter;stroke-opacity:1" d="M 4,350.213 12.9693,332.275 z" id="boundary" inkscape:connector-curvature="0" />
	<path style="fill:none;stroke:red;stroke-width:1px;stroke-linecap:butt;stroke-linejoin:miter;stroke-opacity:1" d="M 4,350.213 4,377.121 z" id="boundary" inkscape:connector-curvature="0" />
	<path style="fill:none;stroke:red;stroke-width:1px;stroke-linecap:butt;stroke-linejoin:miter;stroke-opacity:1" d="M 283.841,129.57 301.779,129.57 z" id="boundary" inkscape:connector-curvature="0" />
	<path style="fill:none;stroke:red;stroke-width:1px;stroke-linecap:butt;stroke-linejoin:miter;stroke-opacity:1" d="M 326.893,27.3201 308.955,45.2586 z" id="boundary" inkscape:connector-curvature="0" />
	<path style="fill:none;stroke:red;stroke-width:1px;stroke-linecap:butt;stroke-linejoin:miter;stroke-opacity:1" d="M 308.955,45.2586 317.924,61.4033 z" id="boundary" inkscape:connector-curvature="0" />
	<path style="fill:none;stroke:red;stroke-width:1px;stroke-linecap:butt;stroke-linejoin:miter;stroke-opacity:1" d="M 344.832,21.9385 362.77,18.3508 z" id="boundary" inkscape:connector-curvature="0" />
	<path style="fill:none;stroke:red;stroke-width:1px;stroke-linecap:butt;stroke-linejoin:miter;stroke-opacity:1" d="M 326.893,27.3201 344.832,21.9385 z" id="boundary" inkscape:connector-curvature="0" />
	<path style="fill:none;stroke:red;stroke-width:1px;stroke-linecap:butt;stroke-linejoin:miter;stroke-opacity:1" d="M 317.924,61.4033 335.863,68.5787 z" id="boundary" inkscape:connector-curvature="0" />
	<path style="fill:none;stroke:red;stroke-width:1px;stroke-linecap:butt;stroke-linejoin:miter;stroke-opacity:1" d="M 335.863,68.5787 341.244,86.5172 z" id="boundary" inkscape:connector-curvature="0" />
	<path style="fill:none;stroke:red;stroke-width:1px;stroke-linecap:butt;stroke-linejoin:miter;stroke-opacity:1" d="M 377.121,4 362.77,18.3508 z" id="boundary" inkscape:connector-curvature="0" />
	<path style="fill:none;stroke:red;stroke-width:1px;stroke-linecap:butt;stroke-linejoin:miter;stroke-opacity:1" d="M 377.121,4 393.266,12.9693 z" id="boundary" inkscape:connector-curvature="0" />
	<path style="fill:none;stroke:red;stroke-width:1px;stroke-linecap:butt;stroke-linejoin:miter;stroke-opacity:1" d="M 393.266,12.9693 396.854,38.0832 z" id="boundary" inkscape:connector-curvature="0" />
	<path style="fill:none;stroke:red;stroke-width:1px;stroke-linecap:butt;stroke-linejoin:miter;stroke-opacity:1" d="M 396.854,38.0832 382.503,50.6401 z" id="boundary" inkscape:connector-curvature="0" />
	<path style="fill:none;stroke:red;stroke-width:1px;stroke-linecap:butt;stroke-linejoin:miter;stroke-opacity:1" d="M 382.503,68.5787 382.503,50.6401 z" id="boundary" inkscape:connector-curvature="0" />
	<path style="fill:none;stroke:red;stroke-width:1px;stroke-linecap:butt;stroke-linejoin:miter;stroke-opacity:1" d="M 382.503,68.5787 382.503,86.5172 z" id="boundary" inkscape:connector-curvature="0" />
	<path style="fill:none;stroke:red;stroke-width:1px;stroke-linecap:butt;stroke-linejoin:miter;stroke-opacity:1" d="M 353.801,118.807 337.656,129.57 z" id="boundary" inkscape:connector-curvature="0" />
	<path style="fill:none;stroke:red;stroke-width:1px;stroke-linecap:butt;stroke-linejoin:miter;stroke-opacity:1" d="M 319.718,129.57 301.779,129.57 z" id="boundary" inkscape:connector-curvature="0" />
	<path style="fill:none;stroke:red;stroke-width:1px;stroke-linecap:butt;stroke-linejoin:miter;stroke-opacity:1" d="M 319.718,129.57 337.656,129.57 z" id="boundary" inkscape:connector-curvature="0" />
	<path style="fill:none;stroke:red;stroke-width:1px;stroke-linecap:butt;stroke-linejoin:miter;stroke-opacity:1" d="M 341.244,86.5172 353.801,100.868 z" id="boundary" inkscape:connector-curvature="0" />
	<path style="fill:none;stroke:red;stroke-width:1px;stroke-linecap:butt;stroke-linejoin:miter;stroke-opacity:1" d="M 353.801,118.807 353.801,100.868 z" id="boundary" inkscape:connector-curvature="0" />
	<path style="fill:none;stroke:red;stroke-width:1px;stroke-linecap:butt;stroke-linejoin:miter;stroke-opacity:1" d="M 382.503,86.5172 391.472,102.662 z" id="boundary" inkscape:connector-curvature="0" />
	<path style="fill:none;stroke:red;stroke-width:1px;stroke-linecap:butt;stroke-linejoin:miter;stroke-opacity:1" d="M 391.472,102.662 391.472,120.6 z" id="boundary" inkscape:connector-curvature="0" />
	<path style="fill:none;stroke:red;stroke-width:1px;stroke-linecap:butt;stroke-linejoin:miter;stroke-opacity:1" d="M 407.617,129.57 391.472,120.6 z" id="boundary" inkscape:connector-curvature="0" />
	<path style="fill:none;stroke:red;stroke-width:1px;stroke-linecap:butt;stroke-linejoin:miter;stroke-opacity:1" d="M 407.617,129.57 423.761,120.6 z" id="boundary" inkscape:connector-curvature="0" />
	<path style="fill:none;stroke:red;stroke-width:1px;stroke-linecap:butt;stroke-linejoin:miter;stroke-opacity:1" d="M 12.9693,411.204 4,395.06 z" id="boundary" inkscape:connector-curvature="0" />
	<path style="fill:none;stroke:red;stroke-width:1px;stroke-linecap:butt;stroke-linejoin:miter;stroke-opacity:1" d="M 4,395.06 4,377.121 z" id="boundary" inkscape:connector-curvature="0" />
	<path style="fill:none;stroke:red;stroke-width:1px;stroke-linecap:butt;stroke-linejoin:miter;stroke-opacity:1" d="M 32.7016,441.7 21.9385,427.349 z" id="boundary" inkscape:connector-curvature="0" />
	<path style="fill:none;stroke:red;stroke-width:1px;stroke-linecap:butt;stroke-linejoin:miter;stroke-opacity:1" d="M 21.9385,427.349 12.9693,411.204 z" id="boundary" inkscape:connector-curvature="0" />
	<path style="fill:none;stroke:red;stroke-width:1px;stroke-linecap:butt;stroke-linejoin:miter;stroke-opacity:1" d="M 32.7016,441.7 50.6401,445.288 z" id="boundary" inkscape:connector-curvature="0" />
	<path style="fill:none;stroke:red;stroke-width:1px;stroke-linecap:butt;stroke-linejoin:miter;stroke-opacity:1" d="M 50.6401,445.288 66.7848,454.257 z" id="boundary" inkscape:connector-curvature="0" />
	<path style="fill:none;stroke:red;stroke-width:1px;stroke-linecap:butt;stroke-linejoin:miter;stroke-opacity:1" d="M 84.7233,454.257 66.7848,454.257 z" id="boundary" inkscape:connector-curvature="0" />
	<path style="fill:none;stroke:red;stroke-width:1px;stroke-linecap:butt;stroke-linejoin:miter;stroke-opacity:1" d="M 102.662,454.257 84.7233,454.257 z" id="boundary" inkscape:connector-curvature="0" />
	<path style="fill:none;stroke:red;stroke-width:1px;stroke-linecap:butt;stroke-linejoin:miter;stroke-opacity:1" d="M 120.6,454.257 102.662,454.257 z" id="boundary" inkscape:connector-curvature="0" />
	<path style="fill:none;stroke:red;stroke-width:1px;stroke-linecap:butt;stroke-linejoin:miter;stroke-opacity:1" d="M 120.6,454.257 138.539,454.257 z" id="boundary" inkscape:connector-curvature="0" />
	<path style="fill:none;stroke:red;stroke-width:1px;stroke-linecap:butt;stroke-linejoin:miter;stroke-opacity:1" d="M 54.2278,497.309 72.1664,497.309 z" id="boundary" inkscape:connector-curvature="0" />
	<path style="fill:none;stroke:red;stroke-width:1px;stroke-linecap:butt;stroke-linejoin:miter;stroke-opacity:1" d="M 39.877,511.66 54.2278,497.309 z" id="boundary" inkscape:connector-curvature="0" />
	<path style="fill:none;stroke:red;stroke-width:1px;stroke-linecap:butt;stroke-linejoin:miter;stroke-opacity:1" d="M 39.877,511.66 48.8463,527.805 z" id="boundary" inkscape:connector-curvature="0" />
	<path style="fill:none;stroke:red;stroke-width:1px;stroke-linecap:butt;stroke-linejoin:miter;stroke-opacity:1" d="M 66.7848,526.011 48.8463,527.805 z" id="boundary" inkscape:connector-curvature="0" />
	<path style="fill:none;stroke:red;stroke-width:1px;stroke-linecap:butt;stroke-linejoin:miter;stroke-opacity:1" d="M 66.7848,526.011 82.9295,534.98 z" id="boundary" inkscape:connector-curvature="0" />
	<path style="fill:none;stroke:red;stroke-width:1px;stroke-linecap:butt;stroke-linejoin:miter;stroke-opacity:1" d="M 72.1664,497.309 88.311,506.278 z" id="boundary" inkscape:connector-curvature="0" />
	<path style="fill:none;stroke:red;stroke-width:1px;stroke-linecap:butt;stroke-linejoin:miter;stroke-opacity:1" d="M 88.311,506.278 104.456,497.309 z" id="boundary" inkscape:connector-curvature="0" />
	<path style="fill:none;stroke:red;stroke-width:1px;stroke-linecap:butt;stroke-linejoin:miter;stroke-opacity:1" d="M 122.394,497.309 140.333,497.309 z" id="boundary" inkscape:connector-curvature="0" />
	<path style="fill:none;stroke:red;stroke-width:1px;stroke-linecap:butt;stroke-linejoin:miter;stroke-opacity:1" d="M 122.394,497.309 104.456,497.309 z" id="boundary" inkscape:connector-curvature="0" />
	<path style="fill:none;stroke:red;stroke-width:1px;stroke-linecap:butt;stroke-linejoin:miter;stroke-opacity:1" d="M 82.9295,534.98 100.868,534.98 z" id="boundary" inkscape:connector-curvature="0" />
	<path style="fill:none;stroke:red;stroke-width:1px;stroke-linecap:butt;stroke-linejoin:miter;stroke-opacity:1" d="M 118.807,534.98 136.745,534.98 z" id="boundary" inkscape:connector-curvature="0" />
	<path style="fill:none;stroke:red;stroke-width:1px;stroke-linecap:butt;stroke-linejoin:miter;stroke-opacity:1" d="M 118.807,534.98 100.868,534.98 z" id="boundary" inkscape:connector-curvature="0" />
	<path style="fill:none;stroke:red;stroke-width:1px;stroke-linecap:butt;stroke-linejoin:miter;stroke-opacity:1" d="M 136.745,534.98 154.684,534.98 z" id="boundary" inkscape:connector-curvature="0" />
	<path style="fill:none;stroke:red;stroke-width:1px;stroke-linecap:butt;stroke-linejoin:miter;stroke-opacity:1" d="M 156.477,454.257 174.416,454.257 z" id="boundary" inkscape:connector-curvature="0" />
	<path style="fill:none;stroke:red;stroke-width:1px;stroke-linecap:butt;stroke-linejoin:miter;stroke-opacity:1" d="M 156.477,454.257 138.539,454.257 z" id="boundary" inkscape:connector-curvature="0" />
	<path style="fill:none;stroke:red;stroke-width:1px;stroke-linecap:butt;stroke-linejoin:miter;stroke-opacity:1" d="M 174.416,454.257 192.354,454.257 z" id="boundary" inkscape:connector-curvature="0" />
	<path style="fill:none;stroke:red;stroke-width:1px;stroke-linecap:butt;stroke-linejoin:miter;stroke-opacity:1" d="M 192.354,454.257 210.293,454.257 z" id="boundary" inkscape:connector-curvature="0" />
	<path style="fill:none;stroke:red;stroke-width:1px;stroke-linecap:butt;stroke-linejoin:miter;stroke-opacity:1" d="M 210.293,454.257 206.705,479.371 z" id="boundary" inkscape:connector-curvature="0" />
	<path style="fill:none;stroke:red;stroke-width:1px;stroke-linecap:butt;stroke-linejoin:miter;stroke-opacity:1" d="M 156.477,506.278 140.333,497.309 z" id="boundary" inkscape:connector-curvature="0" />
	<path style="fill:none;stroke:red;stroke-width:1px;stroke-linecap:butt;stroke-linejoin:miter;stroke-opacity:1" d="M 206.705,479.371 188.767,488.34 z" id="boundary" inkscape:connector-curvature="0" />
	<path style="fill:none;stroke:red;stroke-width:1px;stroke-linecap:butt;stroke-linejoin:miter;stroke-opacity:1" d="M 172.622,497.309 188.767,488.34 z" id="boundary" inkscape:connector-curvature="0" />
	<path style="fill:none;stroke:red;stroke-width:1px;stroke-linecap:butt;stroke-linejoin:miter;stroke-opacity:1" d="M 172.622,497.309 156.477,506.278 z" id="boundary" inkscape:connector-curvature="0" />
	<path style="fill:none;stroke:red;stroke-width:1px;stroke-linecap:butt;stroke-linejoin:miter;stroke-opacity:1" d="M 416.586,490.134 400.441,499.103 z" id="boundary" inkscape:connector-curvature="0" />
	<path style="fill:none;stroke:red;stroke-width:1px;stroke-linecap:butt;stroke-linejoin:miter;stroke-opacity:1" d="M 382.503,499.103 400.441,499.103 z" id="boundary" inkscape:connector-curvature="0" />
	<path style="fill:none;stroke:red;stroke-width:1px;stroke-linecap:butt;stroke-linejoin:miter;stroke-opacity:1" d="M 416.586,490.134 434.524,490.134 z" id="boundary" inkscape:connector-curvature="0" />
	<path style="fill:none;stroke:red;stroke-width:1px;stroke-linecap:butt;stroke-linejoin:miter;stroke-opacity:1" d="M 382.503,499.103 366.358,508.072 z" id="boundary" inkscape:connector-curvature="0" />
	<path style="fill:none;stroke:red;stroke-width:1px;stroke-linecap:butt;stroke-linejoin:miter;stroke-opacity:1" d="M 226.438,534.98 208.499,534.98 z" id="boundary" inkscape:connector-curvature="0" />
	<path style="fill:none;stroke:red;stroke-width:1px;stroke-linecap:butt;stroke-linejoin:miter;stroke-opacity:1" d="M 172.622,534.98 154.684,534.98 z" id="boundary" inkscape:connector-curvature="0" />
	<path style="fill:none;stroke:red;stroke-width:1px;stroke-linecap:butt;stroke-linejoin:miter;stroke-opacity:1" d="M 190.561,534.98 172.622,534.98 z" id="boundary" inkscape:connector-curvature="0" />
	<path style="fill:none;stroke:red;stroke-width:1px;stroke-linecap:butt;stroke-linejoin:miter;stroke-opacity:1" d="M 190.561,534.98 208.499,534.98 z" id="boundary" inkscape:connector-curvature="0" />
	<path style="fill:none;stroke:red;stroke-width:1px;stroke-linecap:butt;stroke-linejoin:miter;stroke-opacity:1" d="M 276.665,517.042 260.521,526.011 z" id="boundary" inkscape:connector-curvature="0" />
	<path style="fill:none;stroke:red;stroke-width:1px;stroke-linecap:butt;stroke-linejoin:miter;stroke-opacity:1" d="M 294.604,517.042 312.542,517.042 z" id="boundary" inkscape:connector-curvature="0" />
	<path style="fill:none;stroke:red;stroke-width:1px;stroke-linecap:butt;stroke-linejoin:miter;stroke-opacity:1" d="M 276.665,517.042 294.604,517.042 z" id="boundary" inkscape:connector-curvature="0" />
	<path style="fill:none;stroke:red;stroke-width:1px;stroke-linecap:butt;stroke-linejoin:miter;stroke-opacity:1" d="M 260.521,526.011 242.582,526.011 z" id="boundary" inkscape:connector-curvature="0" />
	<path style="fill:none;stroke:red;stroke-width:1px;stroke-linecap:butt;stroke-linejoin:miter;stroke-opacity:1" d="M 330.481,513.454 348.42,508.072 z" id="boundary" inkscape:connector-curvature="0" />
	<path style="fill:none;stroke:red;stroke-width:1px;stroke-linecap:butt;stroke-linejoin:miter;stroke-opacity:1" d="M 312.542,517.042 330.481,513.454 z" id="boundary" inkscape:connector-curvature="0" />
	<path style="fill:none;stroke:red;stroke-width:1px;stroke-linecap:butt;stroke-linejoin:miter;stroke-opacity:1" d="M 348.42,508.072 366.358,508.072 z" id="boundary" inkscape:connector-curvature="0" />
	<path style="fill:none;stroke:red;stroke-width:1px;stroke-linecap:butt;stroke-linejoin:miter;stroke-opacity:1" d="M 226.438,534.98 242.582,526.011 z" id="boundary" inkscape:connector-curvature="0" />
	<path style="fill:none;stroke:red;stroke-width:1px;stroke-linecap:butt;stroke-linejoin:miter;stroke-opacity:1" d="M 441.7,120.6 423.761,120.6 z" id="boundary" inkscape:connector-curvature="0" />
	<path style="fill:none;stroke:red;stroke-width:1px;stroke-linecap:butt;stroke-linejoin:miter;stroke-opacity:1" d="M 457.844,111.631 473.989,102.662 z" id="boundary" inkscape:connector-curvature="0" />
	<path style="fill:none;stroke:red;stroke-width:1px;stroke-linecap:butt;stroke-linejoin:miter;stroke-opacity:1" d="M 441.7,120.6 457.844,111.631 z" id="boundary" inkscape:connector-curvature="0" />
	<path style="fill:none;stroke:red;stroke-width:1px;stroke-linecap:butt;stroke-linejoin:miter;stroke-opacity:1" d="M 473.989,102.662 491.928,102.662 z" id="boundary" inkscape:connector-curvature="0" />
	<path style="fill:none;stroke:red;stroke-width:1px;stroke-linecap:butt;stroke-linejoin:miter;stroke-opacity:1" d="M 491.928,102.662 509.866,102.662 z" id="boundary" inkscape:connector-curvature="0" />
	<path style="fill:none;stroke:red;stroke-width:1px;stroke-linecap:butt;stroke-linejoin:miter;stroke-opacity:1" d="M 527.805,102.662 543.949,111.631 z" id="boundary" inkscape:connector-curvature="0" />
	<path style="fill:none;stroke:red;stroke-width:1px;stroke-linecap:butt;stroke-linejoin:miter;stroke-opacity:1" d="M 509.866,102.662 527.805,102.662 z" id="boundary" inkscape:connector-curvature="0" />
	<path style="fill:none;stroke:red;stroke-width:1px;stroke-linecap:butt;stroke-linejoin:miter;stroke-opacity:1" d="M 543.949,111.631 560.094,120.6 z" id="boundary" inkscape:connector-curvature="0" />
	<path style="fill:none;stroke:red;stroke-width:1px;stroke-linecap:butt;stroke-linejoin:miter;stroke-opacity:1" d="M 576.239,129.57 560.094,120.6 z" id="boundary" inkscape:connector-curvature="0" />
	<path style="fill:none;stroke:red;stroke-width:1px;stroke-linecap:butt;stroke-linejoin:miter;stroke-opacity:1" d="M 594.177,129.57 576.239,129.57 z" id="boundary" inkscape:connector-curvature="0" />
	<path style="fill:none;stroke:red;stroke-width:1px;stroke-linecap:butt;stroke-linejoin:miter;stroke-opacity:1" d="M 612.116,129.57 594.177,129.57 z" id="boundary" inkscape:connector-curvature="0" />
	<path style="fill:none;stroke:red;stroke-width:1px;stroke-linecap:butt;stroke-linejoin:miter;stroke-opacity:1" d="M 630.054,131.363 642.611,145.714 z" id="boundary" inkscape:connector-curvature="0" />
	<path style="fill:none;stroke:red;stroke-width:1px;stroke-linecap:butt;stroke-linejoin:miter;stroke-opacity:1" d="M 642.611,145.714 630.054,163.653 z" id="boundary" inkscape:connector-curvature="0" />
	<path style="fill:none;stroke:red;stroke-width:1px;stroke-linecap:butt;stroke-linejoin:miter;stroke-opacity:1" d="M 612.116,129.57 630.054,131.363 z" id="boundary" inkscape:connector-curvature="0" />
	<path style="fill:none;stroke:red;stroke-width:1px;stroke-linecap:butt;stroke-linejoin:miter;stroke-opacity:1" d="M 561.888,176.21 552.919,194.148 z" id="boundary" inkscape:connector-curvature="0" />
	<path style="fill:none;stroke:red;stroke-width:1px;stroke-linecap:butt;stroke-linejoin:miter;stroke-opacity:1" d="M 570.857,201.324 552.919,194.148 z" id="boundary" inkscape:connector-curvature="0" />
	<path style="fill:none;stroke:red;stroke-width:1px;stroke-linecap:butt;stroke-linejoin:miter;stroke-opacity:1" d="M 561.888,176.21 579.826,176.21 z" id="boundary" inkscape:connector-curvature="0" />
	<path style="fill:none;stroke:red;stroke-width:1px;stroke-linecap:butt;stroke-linejoin:miter;stroke-opacity:1" d="M 588.796,201.324 570.857,201.324 z" id="boundary" inkscape:connector-curvature="0" />
	<path style="fill:none;stroke:red;stroke-width:1px;stroke-linecap:butt;stroke-linejoin:miter;stroke-opacity:1" d="M 615.703,176.21 597.765,176.21 z" id="boundary" inkscape:connector-curvature="0" />
	<path style="fill:none;stroke:red;stroke-width:1px;stroke-linecap:butt;stroke-linejoin:miter;stroke-opacity:1" d="M 579.826,176.21 597.765,176.21 z" id="boundary" inkscape:connector-curvature="0" />
	<path style="fill:none;stroke:red;stroke-width:1px;stroke-linecap:butt;stroke-linejoin:miter;stroke-opacity:1" d="M 630.054,163.653 615.703,176.21 z" id="boundary" inkscape:connector-curvature="0" />
	<path style="fill:none;stroke:red;stroke-width:1px;stroke-linecap:butt;stroke-linejoin:miter;stroke-opacity:1" d="M 606.734,201.324 588.796,201.324 z" id="boundary" inkscape:connector-curvature="0" />
	<path style="fill:none;stroke:red;stroke-width:1px;stroke-linecap:butt;stroke-linejoin:miter;stroke-opacity:1" d="M 642.611,195.942 624.673,201.324 z" id="boundary" inkscape:connector-curvature="0" />
	<path style="fill:none;stroke:red;stroke-width:1px;stroke-linecap:butt;stroke-linejoin:miter;stroke-opacity:1" d="M 624.673,201.324 606.734,201.324 z" id="boundary" inkscape:connector-curvature="0" />
	<path style="fill:none;stroke:red;stroke-width:1px;stroke-linecap:butt;stroke-linejoin:miter;stroke-opacity:1" d="M 841.729,156.477 825.584,165.447 z" id="boundary" inkscape:connector-curvature="0" />
	<path style="fill:none;stroke:red;stroke-width:1px;stroke-linecap:butt;stroke-linejoin:miter;stroke-opacity:1" d="M 996,167.241 981.649,156.477 z" id="boundary" inkscape:connector-curvature="0" />
	<path style="fill:none;stroke:red;stroke-width:1px;stroke-linecap:butt;stroke-linejoin:miter;stroke-opacity:1" d="M 981.649,156.477 965.505,147.508 z" id="boundary" inkscape:connector-curvature="0" />
	<path style="fill:none;stroke:red;stroke-width:1px;stroke-linecap:butt;stroke-linejoin:miter;stroke-opacity:1" d="M 859.667,156.477 841.729,156.477 z" id="boundary" inkscape:connector-curvature="0" />
	<path style="fill:none;stroke:red;stroke-width:1px;stroke-linecap:butt;stroke-linejoin:miter;stroke-opacity:1" d="M 877.606,156.477 893.75,147.508 z" id="boundary" inkscape:connector-curvature="0" />
	<path style="fill:none;stroke:red;stroke-width:1px;stroke-linecap:butt;stroke-linejoin:miter;stroke-opacity:1" d="M 911.689,147.508 893.75,147.508 z" id="boundary" inkscape:connector-curvature="0" />
	<path style="fill:none;stroke:red;stroke-width:1px;stroke-linecap:butt;stroke-linejoin:miter;stroke-opacity:1" d="M 877.606,156.477 859.667,156.477 z" id="boundary" inkscape:connector-curvature="0" />
	<path style="fill:none;stroke:red;stroke-width:1px;stroke-linecap:butt;stroke-linejoin:miter;stroke-opacity:1" d="M 929.627,147.508 947.566,147.508 z" id="boundary" inkscape:connector-curvature="0" />
	<path style="fill:none;stroke:red;stroke-width:1px;stroke-linecap:butt;stroke-linejoin:miter;stroke-opacity:1" d="M 947.566,147.508 965.505,147.508 z" id="boundary" inkscape:connector-curvature="0" />
	<path style="fill:none;stroke:red;stroke-width:1px;stroke-linecap:butt;stroke-linejoin:miter;stroke-opacity:1" d="M 911.689,147.508 929.627,147.508 z" id="boundary" inkscape:connector-curvature="0" />
	<path style="fill:none;stroke:red;stroke-width:1px;stroke-linecap:butt;stroke-linejoin:miter;stroke-opacity:1" d="M 719.747,174.416 705.396,186.973 z" id="boundary" inkscape:connector-curvature="0" />
	<path style="fill:none;stroke:red;stroke-width:1px;stroke-linecap:butt;stroke-linejoin:miter;stroke-opacity:1" d="M 773.562,174.416 755.624,174.416 z" id="boundary" inkscape:connector-curvature="0" />
	<path style="fill:none;stroke:red;stroke-width:1px;stroke-linecap:butt;stroke-linejoin:miter;stroke-opacity:1" d="M 789.707,165.447 773.562,174.416 z" id="boundary" inkscape:connector-curvature="0" />
	<path style="fill:none;stroke:red;stroke-width:1px;stroke-linecap:butt;stroke-linejoin:miter;stroke-opacity:1" d="M 737.685,174.416 755.624,174.416 z" id="boundary" inkscape:connector-curvature="0" />
	<path style="fill:none;stroke:red;stroke-width:1px;stroke-linecap:butt;stroke-linejoin:miter;stroke-opacity:1" d="M 789.707,165.447 807.646,165.447 z" id="boundary" inkscape:connector-curvature="0" />
	<path style="fill:none;stroke:red;stroke-width:1px;stroke-linecap:butt;stroke-linejoin:miter;stroke-opacity:1" d="M 737.685,174.416 719.747,174.416 z" id="boundary" inkscape:connector-curvature="0" />
	<path style="fill:none;stroke:red;stroke-width:1px;stroke-linecap:butt;stroke-linejoin:miter;stroke-opacity:1" d="M 676.694,201.324 660.55,192.354 z" id="boundary" inkscape:connector-curvature="0" />
	<path style="fill:none;stroke:red;stroke-width:1px;stroke-linecap:butt;stroke-linejoin:miter;stroke-opacity:1" d="M 687.458,186.973 676.694,201.324 z" id="boundary" inkscape:connector-curvature="0" />
	<path style="fill:none;stroke:red;stroke-width:1px;stroke-linecap:butt;stroke-linejoin:miter;stroke-opacity:1" d="M 660.55,192.354 642.611,195.942 z" id="boundary" inkscape:connector-curvature="0" />
	<path style="fill:none;stroke:red;stroke-width:1px;stroke-linecap:butt;stroke-linejoin:miter;stroke-opacity:1" d="M 705.396,186.973 687.458,186.973 z" id="boundary" inkscape:connector-curvature="0" />
	<path style="fill:none;stroke:red;stroke-width:1px;stroke-linecap:butt;stroke-linejoin:miter;stroke-opacity:1" d="M 807.646,165.447 825.584,165.447 z" id="boundary" inkscape:connector-curvature="0" />
	<path style="fill:none;stroke:red;stroke-width:1px;stroke-linecap:butt;stroke-linejoin:miter;stroke-opacity:1" d="M 996,167.241 983.443,194.148 z" id="boundary" inkscape:connector-curvature="0" />
	<path style="fill:none;stroke:red;stroke-width:1px;stroke-linecap:butt;stroke-linejoin:miter;stroke-opacity:1" d="M 983.443,194.148 972.68,212.087 z" id="boundary" inkscape:connector-curvature="0" />
	<path style="fill:none;stroke:red;stroke-width:1px;stroke-linecap:butt;stroke-linejoin:miter;stroke-opacity:1" d="M 631.848,319.718 615.703,328.687 z" id="boundary" inkscape:connector-curvature="0" />
	<path style="fill:none;stroke:red;stroke-width:1px;stroke-linecap:butt;stroke-linejoin:miter;stroke-opacity:1" d="M 615.703,328.687 606.734,355.595 z" id="boundary" inkscape:connector-curvature="0" />
	<path style="fill:none;stroke:red;stroke-width:1px;stroke-linecap:butt;stroke-linejoin:miter;stroke-opacity:1" d="M 631.848,319.718 649.787,319.718 z" id="boundary" inkscape:connector-curvature="0" />
	<path style="fill:none;stroke:red;stroke-width:1px;stroke-linecap:butt;stroke-linejoin:miter;stroke-opacity:1" d="M 621.085,366.358 606.734,355.595 z" id="boundary" inkscape:connector-curvature="0" />
	<path style="fill:none;stroke:red;stroke-width:1px;stroke-linecap:butt;stroke-linejoin:miter;stroke-opacity:1" d="M 649.787,319.718 667.725,319.718 z" id="boundary" inkscape:connector-curvature="0" />
	<path style="fill:none;stroke:red;stroke-width:1px;stroke-linecap:butt;stroke-linejoin:miter;stroke-opacity:1" d="M 624.673,384.297 621.085,366.358 z" id="boundary" inkscape:connector-curvature="0" />
	<path style="fill:none;stroke:red;stroke-width:1px;stroke-linecap:butt;stroke-linejoin:miter;stroke-opacity:1" d="M 472.195,436.318 472.195,418.38 z" id="boundary" inkscape:connector-curvature="0" />
	<path style="fill:none;stroke:red;stroke-width:1px;stroke-linecap:butt;stroke-linejoin:miter;stroke-opacity:1" d="M 472.195,418.38 490.134,418.38 z" id="boundary" inkscape:connector-curvature="0" />
	<path style="fill:none;stroke:red;stroke-width:1px;stroke-linecap:butt;stroke-linejoin:miter;stroke-opacity:1" d="M 490.134,418.38 508.072,418.38 z" id="boundary" inkscape:connector-curvature="0" />
	<path style="fill:none;stroke:red;stroke-width:1px;stroke-linecap:butt;stroke-linejoin:miter;stroke-opacity:1" d="M 508.072,418.38 526.011,418.38 z" id="boundary" inkscape:connector-curvature="0" />
	<path style="fill:none;stroke:red;stroke-width:1px;stroke-linecap:butt;stroke-linejoin:miter;stroke-opacity:1" d="M 466.814,470.401 472.195,436.318 z" id="boundary" inkscape:connector-curvature="0" />
	<path style="fill:none;stroke:red;stroke-width:1px;stroke-linecap:butt;stroke-linejoin:miter;stroke-opacity:1" d="M 434.524,490.134 452.463,484.752 z" id="boundary" inkscape:connector-curvature="0" />
	<path style="fill:none;stroke:red;stroke-width:1px;stroke-linecap:butt;stroke-linejoin:miter;stroke-opacity:1" d="M 452.463,484.752 466.814,470.401 z" id="boundary" inkscape:connector-curvature="0" />
	<path style="fill:none;stroke:red;stroke-width:1px;stroke-linecap:butt;stroke-linejoin:miter;stroke-opacity:1" d="M 526.011,418.38 543.949,418.38 z" id="boundary" inkscape:connector-curvature="0" />
	<path style="fill:none;stroke:red;stroke-width:1px;stroke-linecap:butt;stroke-linejoin:miter;stroke-opacity:1" d="M 597.765,409.41 579.826,418.38 z" id="boundary" inkscape:connector-curvature="0" />
	<path style="fill:none;stroke:red;stroke-width:1px;stroke-linecap:butt;stroke-linejoin:miter;stroke-opacity:1" d="M 615.703,400.441 624.673,384.297 z" id="boundary" inkscape:connector-curvature="0" />
	<path style="fill:none;stroke:red;stroke-width:1px;stroke-linecap:butt;stroke-linejoin:miter;stroke-opacity:1" d="M 615.703,400.441 597.765,409.41 z" id="boundary" inkscape:connector-curvature="0" />
	<path style="fill:none;stroke:red;stroke-width:1px;stroke-linecap:butt;stroke-linejoin:miter;stroke-opacity:1" d="M 543.949,418.38 561.888,418.38 z" id="boundary" inkscape:connector-curvature="0" />
	<path style="fill:none;stroke:red;stroke-width:1px;stroke-linecap:butt;stroke-linejoin:miter;stroke-opacity:1" d="M 561.888,418.38 579.826,418.38 z" id="boundary" inkscape:connector-curvature="0" />
	<path style="fill:none;stroke:red;stroke-width:1px;stroke-linecap:butt;stroke-linejoin:miter;stroke-opacity:1" d="M 938.597,221.056 922.452,230.025 z" id="boundary" inkscape:connector-curvature="0" />
	<path style="fill:none;stroke:red;stroke-width:1px;stroke-linecap:butt;stroke-linejoin:miter;stroke-opacity:1" d="M 972.68,212.087 956.535,221.056 z" id="boundary" inkscape:connector-curvature="0" />
	<path style="fill:none;stroke:red;stroke-width:1px;stroke-linecap:butt;stroke-linejoin:miter;stroke-opacity:1" d="M 938.597,221.056 956.535,221.056 z" id="boundary" inkscape:connector-curvature="0" />
	<path style="fill:none;stroke:red;stroke-width:1px;stroke-linecap:butt;stroke-linejoin:miter;stroke-opacity:1" d="M 922.452,230.025 906.307,238.995 z" id="boundary" inkscape:connector-curvature="0" />
	<path style="fill:none;stroke:red;stroke-width:1px;stroke-linecap:butt;stroke-linejoin:miter;stroke-opacity:1" d="M 870.43,247.964 854.286,256.933 z" id="boundary" inkscape:connector-curvature="0" />
	<path style="fill:none;stroke:red;stroke-width:1px;stroke-linecap:butt;stroke-linejoin:miter;stroke-opacity:1" d="M 836.347,256.933 854.286,256.933 z" id="boundary" inkscape:connector-curvature="0" />
	<path style="fill:none;stroke:red;stroke-width:1px;stroke-linecap:butt;stroke-linejoin:miter;stroke-opacity:1" d="M 888.369,246.17 870.43,247.964 z" id="boundary" inkscape:connector-curvature="0" />
	<path style="fill:none;stroke:red;stroke-width:1px;stroke-linecap:butt;stroke-linejoin:miter;stroke-opacity:1" d="M 888.369,246.17 906.307,238.995 z" id="boundary" inkscape:connector-curvature="0" />
	<path style="fill:none;stroke:red;stroke-width:1px;stroke-linecap:butt;stroke-linejoin:miter;stroke-opacity:1" d="M 836.347,256.933 820.203,265.902 z" id="boundary" inkscape:connector-curvature="0" />
	<path style="fill:none;stroke:red;stroke-width:1px;stroke-linecap:butt;stroke-linejoin:miter;stroke-opacity:1" d="M 750.242,283.841 734.098,292.81 z" id="boundary" inkscape:connector-curvature="0" />
	<path style="fill:none;stroke:red;stroke-width:1px;stroke-linecap:butt;stroke-linejoin:miter;stroke-opacity:1" d="M 734.098,292.81 717.953,301.779 z" id="boundary" inkscape:connector-curvature="0" />
	<path style="fill:none;stroke:red;stroke-width:1px;stroke-linecap:butt;stroke-linejoin:miter;stroke-opacity:1" d="M 784.325,265.902 802.264,265.902 z" id="boundary" inkscape:connector-curvature="0" />
	<path style="fill:none;stroke:red;stroke-width:1px;stroke-linecap:butt;stroke-linejoin:miter;stroke-opacity:1" d="M 750.242,283.841 768.181,274.872 z" id="boundary" inkscape:connector-curvature="0" />
	<path style="fill:none;stroke:red;stroke-width:1px;stroke-linecap:butt;stroke-linejoin:miter;stroke-opacity:1" d="M 768.181,274.872 784.325,265.902 z" id="boundary" inkscape:connector-curvature="0" />
	<path style="fill:none;stroke:red;stroke-width:1px;stroke-linecap:butt;stroke-linejoin:miter;stroke-opacity:1" d="M 802.264,265.902 820.203,265.902 z" id="boundary" inkscape:connector-curvature="0" />
	<path style="fill:none;stroke:red;stroke-width:1px;stroke-linecap:butt;stroke-linejoin:miter;stroke-opacity:1" d="M 667.725,319.718 683.87,310.749 z" id="boundary" inkscape:connector-curvature="0" />
	<path style="fill:none;stroke:red;stroke-width:1px;stroke-linecap:butt;stroke-linejoin:miter;stroke-opacity:1" d="M 700.014,301.779 683.87,310.749 z" id="boundary" inkscape:connector-curvature="0" />
	<path style="fill:none;stroke:red;stroke-width:1px;stroke-linecap:butt;stroke-linejoin:miter;stroke-opacity:1" d="M 700.014,301.779 717.953,301.779 z" id="boundary" inkscape:connector-curvature="0" />
	<circle cx="4" cy="350.213" r="4" fill="#0" id="circle0"/>
	<circle cx="4" cy="377.121" r="4" fill="#0" id="circle1"/>
	<circle cx="4" cy="395.06" r="4" fill="#0" id="circle2"/>
	<circle cx="12.9693" cy="332.275" r="4" fill="#0" id="circle3"/>
	<circle cx="12.9693" cy="411.204" r="4" fill="#0" id="circle4"/>
	<circle cx="21.9385" cy="296.398" r="4" fill="#0" id="circle5"/>
	<circle cx="21.9385" cy="314.336" r="4" fill="#0" id="circle6"/>
	<circle cx="21.9385" cy="427.349" r="4" fill="#0" id="circle7"/>
	<circle cx="30.9078" cy="269.49" r="4" fill="#0" id="circle8"/>
	<circle cx="32.7016" cy="441.7" r="4" fill="#0" id="circle9"/>
	<circle cx="39.877" cy="511.66" r="4" fill="#0" id="circle10"/>
	<circle cx="45.2586" cy="255.139" r="4" fill="#0" id="circle11"/>
	<circle cx="48.8463" cy="527.805" r="4" fill="#0" id="circle12"/>
	<circle cx="50.6401" cy="445.288" r="4" fill="#0" id="circle13"/>
	<circle cx="54.2278" cy="497.309" r="4" fill="#0" id="circle14"/>
	<circle cx="59.6094" cy="240.788" r="4" fill="#0" id="circle15"/>
	<circle cx="66.7848" cy="454.257" r="4" fill="#0" id="circle16"/>
	<circle cx="66.7848" cy="526.011" r="4" fill="#0" id="circle17"/>
	<circle cx="72.1664" cy="497.309" r="4" fill="#0" id="circle18"/>
	<circle cx="73.9602" cy="228.231" r="4" fill="#0" id="circle19"/>
	<circle cx="82.9295" cy="534.98" r="4" fill="#0" id="circle20"/>
	<circle cx="84.7233" cy="454.257" r="4" fill="#0" id="circle21"/>
	<circle cx="86.5172" cy="213.881" r="4" fill="#0" id="circle22"/>
	<circle cx="88.311" cy="506.278" r="4" fill="#0" id="circle23"/>
	<circle cx="100.868" cy="201.324" r="4" fill="#0" id="circle24"/>
	<circle cx="100.868" cy="534.98" r="4" fill="#0" id="circle25"/>
	<circle cx="102.662" cy="454.257" r="4" fill="#0" id="circle26"/>
	<circle cx="104.456" cy="497.309" r="4" fill="#0" id="circle27"/>
	<circle cx="117.013" cy="192.354" r="4" fill="#0" id="circle28"/>
	<circle cx="118.807" cy="534.98" r="4" fill="#0" id="circle29"/>
	<circle cx="120.6" cy="454.257" r="4" fill="#0" id="circle30"/>
	<circle cx="122.394" cy="497.309" r="4" fill="#0" id="circle31"/>
	<circle cx="133.157" cy="183.385" r="4" fill="#0" id="circle32"/>
	<circle cx="136.745" cy="534.98" r="4" fill="#0" id="circle33"/>
	<circle cx="138.539" cy="454.257" r="4" fill="#0" id="circle34"/>
	<circle cx="140.333" cy="497.309" r="4" fill="#0" id="circle35"/>
	<circle cx="149.302" cy="174.416" r="4" fill="#0" id="circle36"/>
	<circle cx="154.684" cy="534.98" r="4" fill="#0" id="circle37"/>
	<circle cx="156.477" cy="454.257" r="4" fill="#0" id="circle38"/>
	<circle cx="156.477" cy="506.278" r="4" fill="#0" id="circle39"/>
	<circle cx="165.447" cy="165.447" r="4" fill="#0" id="circle40"/>
	<circle cx="172.622" cy="497.309" r="4" fill="#0" id="circle41"/>
	<circle cx="172.622" cy="534.98" r="4" fill="#0" id="circle42"/>
	<circle cx="174.416" cy="454.257" r="4" fill="#0" id="circle43"/>
	<circle cx="183.385" cy="161.859" r="4" fill="#0" id="circle44"/>
	<circle cx="188.767" cy="488.34" r="4" fill="#0" id="circle45"/>
	<circle cx="190.561" cy="534.98" r="4" fill="#0" id="circle46"/>
	<circle cx="192.354" cy="454.257" r="4" fill="#0" id="circle47"/>
	<circle cx="197.736" cy="147.508" r="4" fill="#0" id="circle48"/>
	<circle cx="206.705" cy="479.371" r="4" fill="#0" id="circle49"/>
	<circle cx="208.499" cy="534.98" r="4" fill="#0" id="circle50"/>
	<circle cx="210.293" cy="454.257" r="4" fill="#0" id="circle51"/>
	<circle cx="213.881" cy="138.539" r="4" fill="#0" id="circle52"/>
	<circle cx="226.438" cy="534.98" r="4" fill="#0" id="circle53"/>
	<circle cx="230.025" cy="129.57" r="4" fill="#0" id="circle54"/>
	<circle cx="242.582" cy="526.011" r="4" fill="#0" id="circle55"/>
	<circle cx="247.964" cy="124.188" r="4" fill="#0" id="circle56"/>
	<circle cx="260.521" cy="526.011" r="4" fill="#0" id="circle57"/>
	<circle cx="265.902" cy="125.982" r="4" fill="#0" id="circle58"/>
	<circle cx="276.665" cy="517.042" r="4" fill="#0" id="circle59"/>
	<circle cx="283.841" cy="129.57" r="4" fill="#0" id="circle60"/>
	<circle cx="294.604" cy="517.042" r="4" fill="#0" id="circle61"/>
	<circle cx="301.779" cy="129.57" r="4" fill="#0" id="circle62"/>
	<circle cx="308.955" cy="45.2586" r="4" fill="#0" id="circle63"/>
	<circle cx="312.542" cy="517.042" r="4" fill="#0" id="circle64"/>
	<circle cx="317.924" cy="61.4033" r="4" fill="#0" id="circle65"/>
	<circle cx="319.718" cy="129.57" r="4" fill="#0" id="circle66"/>
	<circle cx="326.893" cy="27.3201" r="4" fill="#0" id="circle67"/>
	<circle cx="330.481" cy="513.454" r="4" fill="#0" id="circle68"/>
	<circle cx="335.863" cy="68.5787" r="4" fill="#0" id="circle69"/>
	<circle cx="337.656" cy="129.57" r="4" fill="#0" id="circle70"/>
	<circle cx="341.244" cy="86.5172" r="4" fill="#0" id="circle71"/>
	<circle cx="344.832" cy="21.9385" r="4" fill="#0" id="circle72"/>
	<circle cx="348.42" cy="508.072" r="4" fill="#0" id="circle73"/>
	<circle cx="353.801" cy="100.868" r="4" fill="#0" id="circle74"/>
	<circle cx="353.801" cy="118.807" r="4" fill="#0" id="circle75"/>
	<circle cx="362.77" cy="18.3508" r="4" fill="#0" id="circle76"/>
	<circle cx="366.358" cy="508.072" r="4" fill="#0" id="circle77"/>
	<circle cx="377.121" cy="4" r="4" fill="#0" id="circle78"/>
	<circle cx="382.503" cy="50.6401" r="4" fill="#0" id="circle79"/>
	<circle cx="382.503" cy="68.5787" r="4" fill="#0" id="circle80"/>
	<circle cx="382.503" cy="86.5172" r="4" fill="#0" id="circle81"/>
	<circle cx="382.503" cy="499.103" r="4" fill="#0" id="circle82"/>
	<circle cx="391.472" cy="102.662" r="4" fill="#0" id="circle83"/>
	<circle cx="391.472" cy="120.6" r="4" fill="#0" id="circle84"/>
	<circle cx="393.266" cy="12.9693" r="4" fill="#0" id="circle85"/>
	<circle cx="396.854" cy="38.0832" r="4" fill="#0" id="circle86"/>
	<circle cx="400.441" cy="499.103" r="4" fill="#0" id="circle87"/>
	<circle cx="407.617" cy="129.57" r="4" fill="#0" id="circle88"/>
	<circle cx="416.586" cy="490.134" r="4" fill="#0" id="circle89"/>
	<circle cx="423.761" cy="120.6" r="4" fill="#0" id="circle90"/>
	<circle cx="434.524" cy="490.134" r="4" fill="#0" id="circle91"/>
	<circle cx="441.7" cy="120.6" r="4" fill="#0" id="circle92"/>
	<circle cx="452.463" cy="484.752" r="4" fill="#0" id="circle93"/>
	<circle cx="457.844" cy="111.631" r="4" fill="#0" id="circle94"/>
	<circle cx="466.814" cy="470.401" r="4" fill="#0" id="circle95"/>
	<circle cx="472.195" cy="418.38" r="4" fill="#0" id="circle96"/>
	<circle cx="472.195" cy="436.318" r="4" fill="#0" id="circle97"/>
	<circle cx="473.989" cy="102.662" r="4" fill="#0" id="circle98"/>
	<circle cx="490.134" cy="418.38" r="4" fill="#0" id="circle99"/>
	<circle cx="491.928" cy="102.662" r="4" fill="#0" id="circle100"/>
	<circle cx="508.072" cy="418.38" r="4" fill="#0" id="circle101"/>
	<circle cx="509.866" cy="102.662" r="4" fill="#0" id="circle102"/>
	<circle cx="526.011" cy="418.38" r="4" fill="#0" id="circle103"/>
	<circle cx="527.805" cy="102.662" r="4" fill="#0" id="circle104"/>
	<circle cx="543.949" cy="111.631" r="4" fill="#0" id="circle105"/>
	<circle cx="543.949" cy="418.38" r="4" fill="#0" id="circle106"/>
	<circle cx="552.919" cy="194.148" r="4" fill="#0" id="circle107"/>
	<circle cx="560.094" cy="120.6" r="4" fill="#0" id="circle108"/>
	<circle cx="561.888" cy="176.21" r="4" fill="#0" id="circle109"/>
	<circle cx="561.888" cy="418.38" r="4" fill="#0" id="circle110"/>
	<circle cx="570.857" cy="201.324" r="4" fill="#0" id="circle111"/>
	<circle cx="576.239" cy="129.57" r="4" fill="#0" id="circle112"/>
	<circle cx="579.826" cy="176.21" r="4" fill="#0" id="circle113"/>
	<circle cx="579.826" cy="418.38" r="4" fill="#0" id="circle114"/>
	<circle cx="588.796" cy="201.324" r="4" fill="#0" id="circle115"/>
	<circle cx="594.177" cy="129.57" r="4" fill="#0" id="circle116"/>
	<circle cx="597.765" cy="176.21" r="4" fill="#0" id="circle117"/>
	<circle cx="597.765" cy="409.41" r="4" fill="#0" id="circle118"/>
	<circle cx="606.734" cy="201.324" r="4" fill="#0" id="circle119"/>
	<circle cx="606.734" cy="355.595" r="4" fill="#0" id="circle120"/>
	<circle cx="612.116" cy="129.57" r="4" fill="#0" id="circle121"/>
	<circle cx="615.703" cy="176.21" r="4" fill="#0" id="circle122"/>
	<circle cx="615.703" cy="328.687" r="4" fill="#0" id="circle123"/>
	<circle cx="615.703" cy="400.441" r="4" fill="#0" id="circle124"/>
	<circle cx="621.085" cy="366.358" r="4" fill="#0" id="circle125"/>
	<circle cx="624.673" cy="201.324" r="4" fill="#0" id="circle126"/>
	<circle cx="624.673" cy="384.297" r="4" fill="#0" id="circle127"/>
	<circle cx="630.054" cy="131.363" r="4" fill="#0" id="circle128"/>
	<circle cx="630.054" cy="163.653" r="4" fill="#0" id="circle129"/>
	<circle cx="631.848" cy="319.718" r="4" fill="#0" id="circle130"/>
	<circle cx="642.611" cy="145.714" r="4" fill="#0" id="circle131"/>
	<circle cx="642.611" cy="195.942" r="4" fill="#0" id="circle132"/>
	<circle cx="649.787" cy="319.718" r="4" fill="#0" id="circle133"/>
	<circle cx="660.55" cy="192.354" r="4" fill="#0" id="circle134"/>
	<circle cx="667.725" cy="319.718" r="4" fill="#0" id="circle135"/>
	<circle cx="676.694" cy="201.324" r="4" fill="#0" id="circle136"/>
	<circle cx="683.87" cy="310.749" r="4" fill="#0" id="circle137"/>
	<circle cx="687.458" cy="186.973" r="4" fill="#0" id="circle138"/>
	<circle cx="700.014" cy="301.779" r="4" fill="#0" id="circle139"/>
	<circle cx="705.396" cy="186.973" r="4" fill="#0" id="circle140"/>
	<circle cx="717.953" cy="301.779" r="4" fill="#0" id="circle141"/>
	<circle cx="719.747" cy="174.416" r="4" fill="#0" id="circle142"/>
	<circle cx="734.098" cy="292.81" r="4" fill="#0" id="circle143"/>
	<circle cx="737.685" cy="174.416" r="4" fill="#0" id="circle144"/>
	<circle cx="750.242" cy="283.841" r="4" fill="#0" id="circle145"/>
	<circle cx="755.624" cy="174.416" r="4" fill="#0" id="circle146"/>
	<circle cx="768.181" cy="274.872" r="4" fill="#0" id="circle147"/>
	<circle cx="773.562" cy="174.416" r="4" fill="#0" id="circle148"/>
	<circle cx="784.325" cy="265.902" r="4" fill="#0" id="circle149"/>
	<circle cx="789.707" cy="165.447" r="4" fill="#0" id="circle150"/>
	<circle cx="802.264" cy="265.902" r="4" fill="#0" id="circle151"/>
	<circle cx="807.646" cy="165.447" r="4" fill="#0" id="circle152"/>
	<circle cx="820.203" cy="265.902" r="4" fill="#0" id="circle153"/>
	<circle cx="825.584" cy="165.447" r="4" fill="#0" id="circle154"/>
	<circle cx="836.347" cy="256.933" r="4" fill="#0" id="circle155"/>
	<circle cx="841.729" cy="156.477" r="4" fill="#0" id="circle156"/>
	<circle cx="854.286" cy="256.933" r="4" fill="#0" id="circle157"/>
	<circle cx="859.667" cy="156.477" r="4" fill="#0" id="circle158"/>
	<circle cx="870.43" cy="247.964" r="4" fill="#0" id="circle159"/>
	<circle cx="877.606" cy="156.477" r="4" fill="#0" id="circle160"/>
	<circle cx="888.369" cy="246.17" r="4" fill="#0" id="circle161"/>
	<circle cx="893.75" cy="147.508" r="4" fill="#0" id="circle162"/>
	<circle cx="906.307" cy="238.995" r="4" fill="#0" id="circle163"/>
	<circle cx="911.689" cy="147.508" r="4" fill="#0" id="circle164"/>
	<circle cx="922.452" cy="230.025" r="4" fill="#0" id="circle165"/>
	<circle cx="929.627" cy="147.508" r="4" fill="#0" id="circle166"/>
	<circle cx="938.597" cy="221.056" r="4" fill="#0" id="circle167"/>
	<circle cx="947.566" cy="147.508" r="4" fill="#0" id="circle168"/>
	<circle cx="956.535" cy="221.056" r="4" fill="#0" id="circle169"/>
	<circle cx="965.505" cy="147.508" r="4" fill="#0" id="circle170"/>
	<circle cx="972.68" cy="212.087" r="4" fill="#0" id="circle171"/>
	<circle cx="981.649" cy="156.477" r="4" fill="#0" id="circle172"/>
	<circle cx="983.443" cy="194.148" r="4" fill="#0" id="circle173"/>
	<circle cx="996" cy="167.241" r="4" fill="#0" id="circle174"/>
	</g>
</svg>