<?xml version="1.0" encoding="UTF-8" standalone="no"?>
<!-- Created with CurveBenchmark -->
<svg
	xmlns:dc="http://purl.org/dc/elements/1.1/"
	xmlns:cc="http://creativecommons.org/ns#"
	xmlns:rdf="http://www.w3.org/1999/02/22-rdf-syntax-ns#"
	xmlns:svg="http://www.w3.org/2000/svg"
	xmlns="http://www.w3.org/2000/svg"
	xmlns:sodipodi="http://sodipodi.sourceforge.net/DTD/sodipodi-0.dtd"
	xmlns:inkscape="http://www.inkscape.org/namespaces/inkscape"
	width="1000"
	height="1000"
	id="svg2"
	version="1.1"
	sodipodi:docname="manifold/crust-car09.png.txt">
<defs
	id="defs4" />
<metadata
	id="metadata7">
	<rdf:RDF>
		<cc:Work
			rdf:about="">
			<dc:format>image/svg+xml</dc:format>
			<dc:type
				rdf:resource="http://purl.org/dc/dcmitype/StillImage" />
			<dc:title></dc:title>
		</cc:Work>
	</rdf:RDF>
</metadata>
<g
	inkscape:label="Layer 1"
	inkscape:groupmode="layer"
	id="layer1">
	<path style="fill:none;stroke:red;stroke-width:1px;stroke-linecap:butt;stroke-linejoin:miter;stroke-opacity:1" d="M 154.684,156.477 138.539,165.447 z" id="boundary" inkscape:connector-curvature="0" />
	<path style="fill:none;stroke:red;stroke-width:1px;stroke-linecap:butt;stroke-linejoin:miter;stroke-opacity:1" d="M 172.622,156.477 154.684,156.477 z" id="boundary" inkscape:connector-curvature="0" />
	<path style="fill:none;stroke:red;stroke-width:1px;stroke-linecap:butt;stroke-linejoin:miter;stroke-opacity:1" d="M 190.561,156.477 172.622,156.477 z" id="boundary" inkscape:connector-curvature="0" />
	<path style="fill:none;stroke:red;stroke-width:1px;stroke-linecap:butt;stroke-linejoin:miter;stroke-opacity:1" d="M 190.561,156.477 206.705,147.508 z" id="boundary" inkscape:connector-curvature="0" />
	<path style="fill:none;stroke:red;stroke-width:1px;stroke-linecap:butt;stroke-linejoin:miter;stroke-opacity:1" d="M 224.644,147.508 206.705,147.508 z" id="boundary" inkscape:connector-curvature="0" />
	<path style="fill:none;stroke:red;stroke-width:1px;stroke-linecap:butt;stroke-linejoin:miter;stroke-opacity:1" d="M 240.788,156.477 256.933,147.508 z" id="boundary" inkscape:connector-curvature="0" />
	<path style="fill:none;stroke:red;stroke-width:1px;stroke-linecap:butt;stroke-linejoin:miter;stroke-opacity:1" d="M 240.788,156.477 224.644,147.508 z" id="boundary" inkscape:connector-curvature="0" />
	<path style="fill:none;stroke:red;stroke-width:1px;stroke-linecap:butt;stroke-linejoin:miter;stroke-opacity:1" d="M 256.933,147.508 273.078,138.539 z" id="boundary" inkscape:connector-curvature="0" />
	<path style="fill:none;stroke:red;stroke-width:1px;stroke-linecap:butt;stroke-linejoin:miter;stroke-opacity:1" d="M 273.078,138.539 289.222,147.508 z" id="boundary" inkscape:connector-curvature="0" />
	<path style="fill:none;stroke:red;stroke-width:1px;stroke-linecap:butt;stroke-linejoin:miter;stroke-opacity:1" d="M 4,242.582 18.3508,228.231 z" id="boundary" inkscape:connector-curvature="0" />
	<path style="fill:none;stroke:red;stroke-width:1px;stroke-linecap:butt;stroke-linejoin:miter;stroke-opacity:1" d="M 34.4955,219.262 18.3508,228.231 z" id="boundary" inkscape:connector-curvature="0" />
	<path style="fill:none;stroke:red;stroke-width:1px;stroke-linecap:butt;stroke-linejoin:miter;stroke-opacity:1" d="M 50.6401,210.293 66.7848,197.736 z" id="boundary" inkscape:connector-curvature="0" />
	<path style="fill:none;stroke:red;stroke-width:1px;stroke-linecap:butt;stroke-linejoin:miter;stroke-opacity:1" d="M 50.6401,210.293 34.4955,219.262 z" id="boundary" inkscape:connector-curvature="0" />
	<path style="fill:none;stroke:red;stroke-width:1px;stroke-linecap:butt;stroke-linejoin:miter;stroke-opacity:1" d="M 84.7233,188.767 66.7848,197.736 z" id="boundary" inkscape:connector-curvature="0" />
	<path style="fill:none;stroke:red;stroke-width:1px;stroke-linecap:butt;stroke-linejoin:miter;stroke-opacity:1" d="M 12.9693,276.665 4,260.521 z" id="boundary" inkscape:connector-curvature="0" />
	<path style="fill:none;stroke:red;stroke-width:1px;stroke-linecap:butt;stroke-linejoin:miter;stroke-opacity:1" d="M 4,260.521 4,242.582 z" id="boundary" inkscape:connector-curvature="0" />
	<path style="fill:none;stroke:red;stroke-width:1px;stroke-linecap:butt;stroke-linejoin:miter;stroke-opacity:1" d="M 12.9693,305.367 12.9693,276.665 z" id="boundary" inkscape:connector-curvature="0" />
	<path style="fill:none;stroke:red;stroke-width:1px;stroke-linecap:butt;stroke-linejoin:miter;stroke-opacity:1" d="M 102.662,179.797 120.6,170.828 z" id="boundary" inkscape:connector-curvature="0" />
	<path style="fill:none;stroke:red;stroke-width:1px;stroke-linecap:butt;stroke-linejoin:miter;stroke-opacity:1" d="M 138.539,165.447 120.6,170.828 z" id="boundary" inkscape:connector-curvature="0" />
	<path style="fill:none;stroke:red;stroke-width:1px;stroke-linecap:butt;stroke-linejoin:miter;stroke-opacity:1" d="M 84.7233,188.767 102.662,179.797 z" id="boundary" inkscape:connector-curvature="0" />
	<path style="fill:none;stroke:red;stroke-width:1px;stroke-linecap:butt;stroke-linejoin:miter;stroke-opacity:1" d="M 371.74,102.662 353.801,108.043 z" id="boundary" inkscape:connector-curvature="0" />
	<path style="fill:none;stroke:red;stroke-width:1px;stroke-linecap:butt;stroke-linejoin:miter;stroke-opacity:1" d="M 353.801,108.043 339.45,120.6 z" id="boundary" inkscape:connector-curvature="0" />
	<path style="fill:none;stroke:red;stroke-width:1px;stroke-linecap:butt;stroke-linejoin:miter;stroke-opacity:1" d="M 371.74,102.662 387.884,93.6926 z" id="boundary" inkscape:connector-curvature="0" />
	<path style="fill:none;stroke:red;stroke-width:1px;stroke-linecap:butt;stroke-linejoin:miter;stroke-opacity:1" d="M 404.029,102.662 387.884,93.6926 z" id="boundary" inkscape:connector-curvature="0" />
	<path style="fill:none;stroke:red;stroke-width:1px;stroke-linecap:butt;stroke-linejoin:miter;stroke-opacity:1" d="M 420.174,111.631 404.029,102.662 z" id="boundary" inkscape:connector-curvature="0" />
	<path style="fill:none;stroke:red;stroke-width:1px;stroke-linecap:butt;stroke-linejoin:miter;stroke-opacity:1" d="M 443.494,81.1356 452.463,63.1971 z" id="boundary" inkscape:connector-curvature="0" />
	<path style="fill:none;stroke:red;stroke-width:1px;stroke-linecap:butt;stroke-linejoin:miter;stroke-opacity:1" d="M 452.463,63.1971 461.432,45.2586 z" id="boundary" inkscape:connector-curvature="0" />
	<path style="fill:none;stroke:red;stroke-width:1px;stroke-linecap:butt;stroke-linejoin:miter;stroke-opacity:1" d="M 461.432,45.2586 470.401,27.3201 z" id="boundary" inkscape:connector-curvature="0" />
	<path style="fill:none;stroke:red;stroke-width:1px;stroke-linecap:butt;stroke-linejoin:miter;stroke-opacity:1" d="M 484.752,12.9693 470.401,27.3201 z" id="boundary" inkscape:connector-curvature="0" />
	<path style="fill:none;stroke:red;stroke-width:1px;stroke-linecap:butt;stroke-linejoin:miter;stroke-opacity:1" d="M 500.897,4 484.752,12.9693 z" id="boundary" inkscape:connector-curvature="0" />
	<path style="fill:none;stroke:red;stroke-width:1px;stroke-linecap:butt;stroke-linejoin:miter;stroke-opacity:1" d="M 443.494,81.1356 452.463,99.0741 z" id="boundary" inkscape:connector-curvature="0" />
	<path style="fill:none;stroke:red;stroke-width:1px;stroke-linecap:butt;stroke-linejoin:miter;stroke-opacity:1" d="M 454.257,117.013 452.463,99.0741 z" id="boundary" inkscape:connector-curvature="0" />
	<path style="fill:none;stroke:red;stroke-width:1px;stroke-linecap:butt;stroke-linejoin:miter;stroke-opacity:1" d="M 436.318,120.6 420.174,111.631 z" id="boundary" inkscape:connector-curvature="0" />
	<path style="fill:none;stroke:red;stroke-width:1px;stroke-linecap:butt;stroke-linejoin:miter;stroke-opacity:1" d="M 305.367,138.539 289.222,147.508 z" id="boundary" inkscape:connector-curvature="0" />
	<path style="fill:none;stroke:red;stroke-width:1px;stroke-linecap:butt;stroke-linejoin:miter;stroke-opacity:1" d="M 323.306,129.57 305.367,138.539 z" id="boundary" inkscape:connector-curvature="0" />
	<path style="fill:none;stroke:red;stroke-width:1px;stroke-linecap:butt;stroke-linejoin:miter;stroke-opacity:1" d="M 323.306,129.57 339.45,120.6 z" id="boundary" inkscape:connector-curvature="0" />
	<path style="fill:none;stroke:red;stroke-width:1px;stroke-linecap:butt;stroke-linejoin:miter;stroke-opacity:1" d="M 454.257,117.013 436.318,120.6 z" id="boundary" inkscape:connector-curvature="0" />
	<path style="fill:none;stroke:red;stroke-width:1px;stroke-linecap:butt;stroke-linejoin:miter;stroke-opacity:1" d="M 12.9693,332.275 12.9693,305.367 z" id="boundary" inkscape:connector-curvature="0" />
	<path style="fill:none;stroke:red;stroke-width:1px;stroke-linecap:butt;stroke-linejoin:miter;stroke-opacity:1" d="M 12.9693,332.275 12.9693,350.213 z" id="boundary" inkscape:connector-curvature="0" />
	<path style="fill:none;stroke:red;stroke-width:1px;stroke-linecap:butt;stroke-linejoin:miter;stroke-opacity:1" d="M 21.9385,366.358 12.9693,350.213 z" id="boundary" inkscape:connector-curvature="0" />
	<path style="fill:none;stroke:red;stroke-width:1px;stroke-linecap:butt;stroke-linejoin:miter;stroke-opacity:1" d="M 30.9078,382.503 21.9385,366.358 z" id="boundary" inkscape:connector-curvature="0" />
	<path style="fill:none;stroke:red;stroke-width:1px;stroke-linecap:butt;stroke-linejoin:miter;stroke-opacity:1" d="M 39.877,398.647 30.9078,382.503 z" id="boundary" inkscape:connector-curvature="0" />
	<path style="fill:none;stroke:red;stroke-width:1px;stroke-linecap:butt;stroke-linejoin:miter;stroke-opacity:1" d="M 57.8156,430.937 50.6401,412.998 z" id="boundary" inkscape:connector-curvature="0" />
	<path style="fill:none;stroke:red;stroke-width:1px;stroke-linecap:butt;stroke-linejoin:miter;stroke-opacity:1" d="M 50.6401,412.998 39.877,398.647 z" id="boundary" inkscape:connector-curvature="0" />
	<path style="fill:none;stroke:red;stroke-width:1px;stroke-linecap:butt;stroke-linejoin:miter;stroke-opacity:1" d="M 75.7541,436.318 57.8156,430.937 z" id="boundary" inkscape:connector-curvature="0" />
	<path style="fill:none;stroke:red;stroke-width:1px;stroke-linecap:butt;stroke-linejoin:miter;stroke-opacity:1" d="M 91.8987,445.288 75.7541,436.318 z" id="boundary" inkscape:connector-curvature="0" />
	<path style="fill:none;stroke:red;stroke-width:1px;stroke-linecap:butt;stroke-linejoin:miter;stroke-opacity:1" d="M 91.8987,445.288 109.837,445.288 z" id="boundary" inkscape:connector-curvature="0" />
	<path style="fill:none;stroke:red;stroke-width:1px;stroke-linecap:butt;stroke-linejoin:miter;stroke-opacity:1" d="M 127.776,445.288 109.837,445.288 z" id="boundary" inkscape:connector-curvature="0" />
	<path style="fill:none;stroke:red;stroke-width:1px;stroke-linecap:butt;stroke-linejoin:miter;stroke-opacity:1" d="M 140.333,427.349 158.271,418.38 z" id="boundary" inkscape:connector-curvature="0" />
	<path style="fill:none;stroke:red;stroke-width:1px;stroke-linecap:butt;stroke-linejoin:miter;stroke-opacity:1" d="M 169.034,432.731 158.271,418.38 z" id="boundary" inkscape:connector-curvature="0" />
	<path style="fill:none;stroke:red;stroke-width:1px;stroke-linecap:butt;stroke-linejoin:miter;stroke-opacity:1" d="M 197.736,418.38 213.881,427.349 z" id="boundary" inkscape:connector-curvature="0" />
	<path style="fill:none;stroke:red;stroke-width:1px;stroke-linecap:butt;stroke-linejoin:miter;stroke-opacity:1" d="M 197.736,418.38 186.973,432.731 z" id="boundary" inkscape:connector-curvature="0" />
	<path style="fill:none;stroke:red;stroke-width:1px;stroke-linecap:butt;stroke-linejoin:miter;stroke-opacity:1" d="M 127.776,445.288 140.333,427.349 z" id="boundary" inkscape:connector-curvature="0" />
	<path style="fill:none;stroke:red;stroke-width:1px;stroke-linecap:butt;stroke-linejoin:miter;stroke-opacity:1" d="M 169.034,432.731 186.973,432.731 z" id="boundary" inkscape:connector-curvature="0" />
	<path style="fill:none;stroke:red;stroke-width:1px;stroke-linecap:butt;stroke-linejoin:miter;stroke-opacity:1" d="M 282.047,427.349 265.902,418.38 z" id="boundary" inkscape:connector-curvature="0" />
	<path style="fill:none;stroke:red;stroke-width:1px;stroke-linecap:butt;stroke-linejoin:miter;stroke-opacity:1" d="M 334.069,418.38 316.13,418.38 z" id="boundary" inkscape:connector-curvature="0" />
	<path style="fill:none;stroke:red;stroke-width:1px;stroke-linecap:butt;stroke-linejoin:miter;stroke-opacity:1" d="M 316.13,418.38 299.986,427.349 z" id="boundary" inkscape:connector-curvature="0" />
	<path style="fill:none;stroke:red;stroke-width:1px;stroke-linecap:butt;stroke-linejoin:miter;stroke-opacity:1" d="M 265.902,418.38 249.758,432.731 z" id="boundary" inkscape:connector-curvature="0" />
	<path style="fill:none;stroke:red;stroke-width:1px;stroke-linecap:butt;stroke-linejoin:miter;stroke-opacity:1" d="M 249.758,432.731 231.819,427.349 z" id="boundary" inkscape:connector-curvature="0" />
	<path style="fill:none;stroke:red;stroke-width:1px;stroke-linecap:butt;stroke-linejoin:miter;stroke-opacity:1" d="M 299.986,427.349 282.047,427.349 z" id="boundary" inkscape:connector-curvature="0" />
	<path style="fill:none;stroke:red;stroke-width:1px;stroke-linecap:butt;stroke-linejoin:miter;stroke-opacity:1" d="M 352.007,418.38 334.069,418.38 z" id="boundary" inkscape:connector-curvature="0" />
	<path style="fill:none;stroke:red;stroke-width:1px;stroke-linecap:butt;stroke-linejoin:miter;stroke-opacity:1" d="M 213.881,427.349 231.819,427.349 z" id="boundary" inkscape:connector-curvature="0" />
	<path style="fill:none;stroke:red;stroke-width:1px;stroke-linecap:butt;stroke-linejoin:miter;stroke-opacity:1" d="M 387.884,418.38 369.946,418.38 z" id="boundary" inkscape:connector-curvature="0" />
	<path style="fill:none;stroke:red;stroke-width:1px;stroke-linecap:butt;stroke-linejoin:miter;stroke-opacity:1" d="M 369.946,418.38 352.007,418.38 z" id="boundary" inkscape:connector-curvature="0" />
	<path style="fill:none;stroke:red;stroke-width:1px;stroke-linecap:butt;stroke-linejoin:miter;stroke-opacity:1" d="M 423.761,418.38 405.823,414.792 z" id="boundary" inkscape:connector-curvature="0" />
	<path style="fill:none;stroke:red;stroke-width:1px;stroke-linecap:butt;stroke-linejoin:miter;stroke-opacity:1" d="M 405.823,414.792 387.884,418.38 z" id="boundary" inkscape:connector-curvature="0" />
	<path style="fill:none;stroke:red;stroke-width:1px;stroke-linecap:butt;stroke-linejoin:miter;stroke-opacity:1" d="M 423.761,418.38 425.555,436.318 z" id="boundary" inkscape:connector-curvature="0" />
	<path style="fill:none;stroke:red;stroke-width:1px;stroke-linecap:butt;stroke-linejoin:miter;stroke-opacity:1" d="M 425.555,436.318 430.937,454.257 z" id="boundary" inkscape:connector-curvature="0" />
	<path style="fill:none;stroke:red;stroke-width:1px;stroke-linecap:butt;stroke-linejoin:miter;stroke-opacity:1" d="M 445.288,466.814 430.937,454.257 z" id="boundary" inkscape:connector-curvature="0" />
	<path style="fill:none;stroke:red;stroke-width:1px;stroke-linecap:butt;stroke-linejoin:miter;stroke-opacity:1" d="M 445.288,466.814 463.226,472.195 z" id="boundary" inkscape:connector-curvature="0" />
	<path style="fill:none;stroke:red;stroke-width:1px;stroke-linecap:butt;stroke-linejoin:miter;stroke-opacity:1" d="M 481.165,475.783 499.103,481.165 z" id="boundary" inkscape:connector-curvature="0" />
	<path style="fill:none;stroke:red;stroke-width:1px;stroke-linecap:butt;stroke-linejoin:miter;stroke-opacity:1" d="M 481.165,475.783 463.226,472.195 z" id="boundary" inkscape:connector-curvature="0" />
	<path style="fill:none;stroke:red;stroke-width:1px;stroke-linecap:butt;stroke-linejoin:miter;stroke-opacity:1" d="M 515.248,472.195 499.103,481.165 z" id="boundary" inkscape:connector-curvature="0" />
	<path style="fill:none;stroke:red;stroke-width:1px;stroke-linecap:butt;stroke-linejoin:miter;stroke-opacity:1" d="M 536.774,4 518.835,5.79385 z" id="boundary" inkscape:connector-curvature="0" />
	<path style="fill:none;stroke:red;stroke-width:1px;stroke-linecap:butt;stroke-linejoin:miter;stroke-opacity:1" d="M 500.897,4 518.835,5.79385 z" id="boundary" inkscape:connector-curvature="0" />
	<path style="fill:none;stroke:red;stroke-width:1px;stroke-linecap:butt;stroke-linejoin:miter;stroke-opacity:1" d="M 554.712,4 536.774,4 z" id="boundary" inkscape:connector-curvature="0" />
	<path style="fill:none;stroke:red;stroke-width:1px;stroke-linecap:butt;stroke-linejoin:miter;stroke-opacity:1" d="M 570.857,12.9693 554.712,4 z" id="boundary" inkscape:connector-curvature="0" />
	<path style="fill:none;stroke:red;stroke-width:1px;stroke-linecap:butt;stroke-linejoin:miter;stroke-opacity:1" d="M 588.796,9.38156 570.857,12.9693 z" id="boundary" inkscape:connector-curvature="0" />
	<path style="fill:none;stroke:red;stroke-width:1px;stroke-linecap:butt;stroke-linejoin:miter;stroke-opacity:1" d="M 606.734,12.9693 624.673,12.9693 z" id="boundary" inkscape:connector-curvature="0" />
	<path style="fill:none;stroke:red;stroke-width:1px;stroke-linecap:butt;stroke-linejoin:miter;stroke-opacity:1" d="M 606.734,12.9693 588.796,9.38156 z" id="boundary" inkscape:connector-curvature="0" />
	<path style="fill:none;stroke:red;stroke-width:1px;stroke-linecap:butt;stroke-linejoin:miter;stroke-opacity:1" d="M 640.817,21.9385 624.673,12.9693 z" id="boundary" inkscape:connector-curvature="0" />
	<path style="fill:none;stroke:red;stroke-width:1px;stroke-linecap:butt;stroke-linejoin:miter;stroke-opacity:1" d="M 710.778,30.9078 726.922,21.9385 z" id="boundary" inkscape:connector-curvature="0" />
	<path style="fill:none;stroke:red;stroke-width:1px;stroke-linecap:butt;stroke-linejoin:miter;stroke-opacity:1" d="M 658.756,21.9385 676.694,21.9385 z" id="boundary" inkscape:connector-curvature="0" />
	<path style="fill:none;stroke:red;stroke-width:1px;stroke-linecap:butt;stroke-linejoin:miter;stroke-opacity:1" d="M 694.633,21.9385 676.694,21.9385 z" id="boundary" inkscape:connector-curvature="0" />
	<path style="fill:none;stroke:red;stroke-width:1px;stroke-linecap:butt;stroke-linejoin:miter;stroke-opacity:1" d="M 744.861,21.9385 726.922,21.9385 z" id="boundary" inkscape:connector-curvature="0" />
	<path style="fill:none;stroke:red;stroke-width:1px;stroke-linecap:butt;stroke-linejoin:miter;stroke-opacity:1" d="M 710.778,30.9078 694.633,21.9385 z" id="boundary" inkscape:connector-curvature="0" />
	<path style="fill:none;stroke:red;stroke-width:1px;stroke-linecap:butt;stroke-linejoin:miter;stroke-opacity:1" d="M 640.817,21.9385 658.756,21.9385 z" id="boundary" inkscape:connector-curvature="0" />
	<path style="fill:none;stroke:red;stroke-width:1px;stroke-linecap:butt;stroke-linejoin:miter;stroke-opacity:1" d="M 744.861,21.9385 761.005,30.9078 z" id="boundary" inkscape:connector-curvature="0" />
	<path style="fill:none;stroke:red;stroke-width:1px;stroke-linecap:butt;stroke-linejoin:miter;stroke-opacity:1" d="M 761.005,30.9078 759.212,50.6401 z" id="boundary" inkscape:connector-curvature="0" />
	<path style="fill:none;stroke:red;stroke-width:1px;stroke-linecap:butt;stroke-linejoin:miter;stroke-opacity:1" d="M 759.212,50.6401 759.212,77.5479 z" id="boundary" inkscape:connector-curvature="0" />
	<path style="fill:none;stroke:red;stroke-width:1px;stroke-linecap:butt;stroke-linejoin:miter;stroke-opacity:1" d="M 768.181,93.6926 777.15,113.425 z" id="boundary" inkscape:connector-curvature="0" />
	<path style="fill:none;stroke:red;stroke-width:1px;stroke-linecap:butt;stroke-linejoin:miter;stroke-opacity:1" d="M 768.181,93.6926 759.212,77.5479 z" id="boundary" inkscape:connector-curvature="0" />
	<path style="fill:none;stroke:red;stroke-width:1px;stroke-linecap:butt;stroke-linejoin:miter;stroke-opacity:1" d="M 786.119,129.57 777.15,113.425 z" id="boundary" inkscape:connector-curvature="0" />
	<path style="fill:none;stroke:red;stroke-width:1px;stroke-linecap:butt;stroke-linejoin:miter;stroke-opacity:1" d="M 786.119,129.57 804.058,134.951 z" id="boundary" inkscape:connector-curvature="0" />
	<path style="fill:none;stroke:red;stroke-width:1px;stroke-linecap:butt;stroke-linejoin:miter;stroke-opacity:1" d="M 872.224,147.508 854.286,147.508 z" id="boundary" inkscape:connector-curvature="0" />
	<path style="fill:none;stroke:red;stroke-width:1px;stroke-linecap:butt;stroke-linejoin:miter;stroke-opacity:1" d="M 818.409,147.508 804.058,134.951 z" id="boundary" inkscape:connector-curvature="0" />
	<path style="fill:none;stroke:red;stroke-width:1px;stroke-linecap:butt;stroke-linejoin:miter;stroke-opacity:1" d="M 836.347,147.508 854.286,147.508 z" id="boundary" inkscape:connector-curvature="0" />
	<path style="fill:none;stroke:red;stroke-width:1px;stroke-linecap:butt;stroke-linejoin:miter;stroke-opacity:1" d="M 836.347,147.508 818.409,147.508 z" id="boundary" inkscape:connector-curvature="0" />
	<path style="fill:none;stroke:red;stroke-width:1px;stroke-linecap:butt;stroke-linejoin:miter;stroke-opacity:1" d="M 872.224,147.508 890.163,147.508 z" id="boundary" inkscape:connector-curvature="0" />
	<path style="fill:none;stroke:red;stroke-width:1px;stroke-linecap:butt;stroke-linejoin:miter;stroke-opacity:1" d="M 890.163,147.508 906.307,156.477 z" id="boundary" inkscape:connector-curvature="0" />
	<path style="fill:none;stroke:red;stroke-width:1px;stroke-linecap:butt;stroke-linejoin:miter;stroke-opacity:1" d="M 906.307,156.477 924.246,156.477 z" id="boundary" inkscape:connector-curvature="0" />
	<path style="fill:none;stroke:red;stroke-width:1px;stroke-linecap:butt;stroke-linejoin:miter;stroke-opacity:1" d="M 940.391,147.508 956.535,156.477 z" id="boundary" inkscape:connector-curvature="0" />
	<path style="fill:none;stroke:red;stroke-width:1px;stroke-linecap:butt;stroke-linejoin:miter;stroke-opacity:1" d="M 956.535,156.477 972.68,165.447 z" id="boundary" inkscape:connector-curvature="0" />
	<path style="fill:none;stroke:red;stroke-width:1px;stroke-linecap:butt;stroke-linejoin:miter;stroke-opacity:1" d="M 924.246,156.477 940.391,147.508 z" id="boundary" inkscape:connector-curvature="0" />
	<path style="fill:none;stroke:red;stroke-width:1px;stroke-linecap:butt;stroke-linejoin:miter;stroke-opacity:1" d="M 983.443,179.797 972.68,165.447 z" id="boundary" inkscape:connector-curvature="0" />
	<path style="fill:none;stroke:red;stroke-width:1px;stroke-linecap:butt;stroke-linejoin:miter;stroke-opacity:1" d="M 996,194.148 983.443,179.797 z" id="boundary" inkscape:connector-curvature="0" />
	<path style="fill:none;stroke:red;stroke-width:1px;stroke-linecap:butt;stroke-linejoin:miter;stroke-opacity:1" d="M 974.474,230.025 988.825,217.468 z" id="boundary" inkscape:connector-curvature="0" />
	<path style="fill:none;stroke:red;stroke-width:1px;stroke-linecap:butt;stroke-linejoin:miter;stroke-opacity:1" d="M 996,194.148 988.825,217.468 z" id="boundary" inkscape:connector-curvature="0" />
	<path style="fill:none;stroke:red;stroke-width:1px;stroke-linecap:butt;stroke-linejoin:miter;stroke-opacity:1" d="M 579.826,418.38 561.888,418.38 z" id="boundary" inkscape:connector-curvature="0" />
	<path style="fill:none;stroke:red;stroke-width:1px;stroke-linecap:butt;stroke-linejoin:miter;stroke-opacity:1" d="M 597.765,418.38 579.826,418.38 z" id="boundary" inkscape:connector-curvature="0" />
	<path style="fill:none;stroke:red;stroke-width:1px;stroke-linecap:butt;stroke-linejoin:miter;stroke-opacity:1" d="M 615.703,418.38 597.765,418.38 z" id="boundary" inkscape:connector-curvature="0" />
	<path style="fill:none;stroke:red;stroke-width:1px;stroke-linecap:butt;stroke-linejoin:miter;stroke-opacity:1" d="M 615.703,418.38 633.642,418.38 z" id="boundary" inkscape:connector-curvature="0" />
	<path style="fill:none;stroke:red;stroke-width:1px;stroke-linecap:butt;stroke-linejoin:miter;stroke-opacity:1" d="M 651.58,418.38 633.642,418.38 z" id="boundary" inkscape:connector-curvature="0" />
	<path style="fill:none;stroke:red;stroke-width:1px;stroke-linecap:butt;stroke-linejoin:miter;stroke-opacity:1" d="M 669.519,418.38 651.58,418.38 z" id="boundary" inkscape:connector-curvature="0" />
	<path style="fill:none;stroke:red;stroke-width:1px;stroke-linecap:butt;stroke-linejoin:miter;stroke-opacity:1" d="M 669.519,418.38 687.458,418.38 z" id="boundary" inkscape:connector-curvature="0" />
	<path style="fill:none;stroke:red;stroke-width:1px;stroke-linecap:butt;stroke-linejoin:miter;stroke-opacity:1" d="M 705.396,418.38 687.458,418.38 z" id="boundary" inkscape:connector-curvature="0" />
	<path style="fill:none;stroke:red;stroke-width:1px;stroke-linecap:butt;stroke-linejoin:miter;stroke-opacity:1" d="M 723.335,418.38 705.396,418.38 z" id="boundary" inkscape:connector-curvature="0" />
	<path style="fill:none;stroke:red;stroke-width:1px;stroke-linecap:butt;stroke-linejoin:miter;stroke-opacity:1" d="M 759.212,409.41 741.273,418.38 z" id="boundary" inkscape:connector-curvature="0" />
	<path style="fill:none;stroke:red;stroke-width:1px;stroke-linecap:butt;stroke-linejoin:miter;stroke-opacity:1" d="M 777.15,409.41 759.212,409.41 z" id="boundary" inkscape:connector-curvature="0" />
	<path style="fill:none;stroke:red;stroke-width:1px;stroke-linecap:butt;stroke-linejoin:miter;stroke-opacity:1" d="M 741.273,418.38 723.335,418.38 z" id="boundary" inkscape:connector-curvature="0" />
	<path style="fill:none;stroke:red;stroke-width:1px;stroke-linecap:butt;stroke-linejoin:miter;stroke-opacity:1" d="M 543.949,436.318 547.537,454.257 z" id="boundary" inkscape:connector-curvature="0" />
	<path style="fill:none;stroke:red;stroke-width:1px;stroke-linecap:butt;stroke-linejoin:miter;stroke-opacity:1" d="M 515.248,472.195 529.599,461.432 z" id="boundary" inkscape:connector-curvature="0" />
	<path style="fill:none;stroke:red;stroke-width:1px;stroke-linecap:butt;stroke-linejoin:miter;stroke-opacity:1" d="M 547.537,454.257 529.599,461.432 z" id="boundary" inkscape:connector-curvature="0" />
	<path style="fill:none;stroke:red;stroke-width:1px;stroke-linecap:butt;stroke-linejoin:miter;stroke-opacity:1" d="M 970.886,271.284 956.535,283.841 z" id="boundary" inkscape:connector-curvature="0" />
	<path style="fill:none;stroke:red;stroke-width:1px;stroke-linecap:butt;stroke-linejoin:miter;stroke-opacity:1" d="M 974.474,247.964 970.886,271.284 z" id="boundary" inkscape:connector-curvature="0" />
	<path style="fill:none;stroke:red;stroke-width:1px;stroke-linecap:butt;stroke-linejoin:miter;stroke-opacity:1" d="M 974.474,230.025 974.474,247.964 z" id="boundary" inkscape:connector-curvature="0" />
	<path style="fill:none;stroke:red;stroke-width:1px;stroke-linecap:butt;stroke-linejoin:miter;stroke-opacity:1" d="M 920.658,355.595 920.658,337.656 z" id="boundary" inkscape:connector-curvature="0" />
	<path style="fill:none;stroke:red;stroke-width:1px;stroke-linecap:butt;stroke-linejoin:miter;stroke-opacity:1" d="M 938.597,328.687 920.658,337.656 z" id="boundary" inkscape:connector-curvature="0" />
	<path style="fill:none;stroke:red;stroke-width:1px;stroke-linecap:butt;stroke-linejoin:miter;stroke-opacity:1" d="M 956.535,283.841 956.535,310.749 z" id="boundary" inkscape:connector-curvature="0" />
	<path style="fill:none;stroke:red;stroke-width:1px;stroke-linecap:butt;stroke-linejoin:miter;stroke-opacity:1" d="M 938.597,328.687 956.535,310.749 z" id="boundary" inkscape:connector-curvature="0" />
	<path style="fill:none;stroke:red;stroke-width:1px;stroke-linecap:butt;stroke-linejoin:miter;stroke-opacity:1" d="M 911.689,382.503 920.658,355.595 z" id="boundary" inkscape:connector-curvature="0" />
	<path style="fill:none;stroke:red;stroke-width:1px;stroke-linecap:butt;stroke-linejoin:miter;stroke-opacity:1" d="M 787.913,423.761 777.15,409.41 z" id="boundary" inkscape:connector-curvature="0" />
	<path style="fill:none;stroke:red;stroke-width:1px;stroke-linecap:butt;stroke-linejoin:miter;stroke-opacity:1" d="M 787.913,423.761 802.264,436.318 z" id="boundary" inkscape:connector-curvature="0" />
	<path style="fill:none;stroke:red;stroke-width:1px;stroke-linecap:butt;stroke-linejoin:miter;stroke-opacity:1" d="M 802.264,436.318 818.409,445.288 z" id="boundary" inkscape:connector-curvature="0" />
	<path style="fill:none;stroke:red;stroke-width:1px;stroke-linecap:butt;stroke-linejoin:miter;stroke-opacity:1" d="M 818.409,445.288 836.347,445.288 z" id="boundary" inkscape:connector-curvature="0" />
	<path style="fill:none;stroke:red;stroke-width:1px;stroke-linecap:butt;stroke-linejoin:miter;stroke-opacity:1" d="M 899.132,405.823 884.781,418.38 z" id="boundary" inkscape:connector-curvature="0" />
	<path style="fill:none;stroke:red;stroke-width:1px;stroke-linecap:butt;stroke-linejoin:miter;stroke-opacity:1" d="M 911.689,382.503 899.132,405.823 z" id="boundary" inkscape:connector-curvature="0" />
	<path style="fill:none;stroke:red;stroke-width:1px;stroke-linecap:butt;stroke-linejoin:miter;stroke-opacity:1" d="M 884.781,418.38 866.843,427.349 z" id="boundary" inkscape:connector-curvature="0" />
	<path style="fill:none;stroke:red;stroke-width:1px;stroke-linecap:butt;stroke-linejoin:miter;stroke-opacity:1" d="M 836.347,445.288 854.286,445.288 z" id="boundary" inkscape:connector-curvature="0" />
	<path style="fill:none;stroke:red;stroke-width:1px;stroke-linecap:butt;stroke-linejoin:miter;stroke-opacity:1" d="M 866.843,427.349 854.286,445.288 z" id="boundary" inkscape:connector-curvature="0" />
	<circle cx="4" cy="242.582" r="4" fill="#0" id="circle0"/>
	<circle cx="4" cy="260.521" r="4" fill="#0" id="circle1"/>
	<circle cx="12.9693" cy="276.665" r="4" fill="#0" id="circle2"/>
	<circle cx="12.9693" cy="305.367" r="4" fill="#0" id="circle3"/>
	<circle cx="12.9693" cy="332.275" r="4" fill="#0" id="circle4"/>
	<circle cx="12.9693" cy="350.213" r="4" fill="#0" id="circle5"/>
	<circle cx="18.3508" cy="228.231" r="4" fill="#0" id="circle6"/>
	<circle cx="21.9385" cy="366.358" r="4" fill="#0" id="circle7"/>
	<circle cx="30.9078" cy="382.503" r="4" fill="#0" id="circle8"/>
	<circle cx="34.4955" cy="219.262" r="4" fill="#0" id="circle9"/>
	<circle cx="39.877" cy="398.647" r="4" fill="#0" id="circle10"/>
	<circle cx="50.6401" cy="210.293" r="4" fill="#0" id="circle11"/>
	<circle cx="50.6401" cy="412.998" r="4" fill="#0" id="circle12"/>
	<circle cx="57.8156" cy="430.937" r="4" fill="#0" id="circle13"/>
	<circle cx="66.7848" cy="197.736" r="4" fill="#0" id="circle14"/>
	<circle cx="75.7541" cy="436.318" r="4" fill="#0" id="circle15"/>
	<circle cx="84.7233" cy="188.767" r="4" fill="#0" id="circle16"/>
	<circle cx="91.8987" cy="445.288" r="4" fill="#0" id="circle17"/>
	<circle cx="102.662" cy="179.797" r="4" fill="#0" id="circle18"/>
	<circle cx="109.837" cy="445.288" r="4" fill="#0" id="circle19"/>
	<circle cx="120.6" cy="170.828" r="4" fill="#0" id="circle20"/>
	<circle cx="127.776" cy="445.288" r="4" fill="#0" id="circle21"/>
	<circle cx="138.539" cy="165.447" r="4" fill="#0" id="circle22"/>
	<circle cx="140.333" cy="427.349" r="4" fill="#0" id="circle23"/>
	<circle cx="154.684" cy="156.477" r="4" fill="#0" id="circle24"/>
	<circle cx="158.271" cy="418.38" r="4" fill="#0" id="circle25"/>
	<circle cx="169.034" cy="432.731" r="4" fill="#0" id="circle26"/>
	<circle cx="172.622" cy="156.477" r="4" fill="#0" id="circle27"/>
	<circle cx="186.973" cy="432.731" r="4" fill="#0" id="circle28"/>
	<circle cx="190.561" cy="156.477" r="4" fill="#0" id="circle29"/>
	<circle cx="197.736" cy="418.38" r="4" fill="#0" id="circle30"/>
	<circle cx="206.705" cy="147.508" r="4" fill="#0" id="circle31"/>
	<circle cx="213.881" cy="427.349" r="4" fill="#0" id="circle32"/>
	<circle cx="224.644" cy="147.508" r="4" fill="#0" id="circle33"/>
	<circle cx="231.819" cy="427.349" r="4" fill="#0" id="circle34"/>
	<circle cx="240.788" cy="156.477" r="4" fill="#0" id="circle35"/>
	<circle cx="249.758" cy="432.731" r="4" fill="#0" id="circle36"/>
	<circle cx="256.933" cy="147.508" r="4" fill="#0" id="circle37"/>
	<circle cx="265.902" cy="418.38" r="4" fill="#0" id="circle38"/>
	<circle cx="273.078" cy="138.539" r="4" fill="#0" id="circle39"/>
	<circle cx="282.047" cy="427.349" r="4" fill="#0" id="circle40"/>
	<circle cx="289.222" cy="147.508" r="4" fill="#0" id="circle41"/>
	<circle cx="299.986" cy="427.349" r="4" fill="#0" id="circle42"/>
	<circle cx="305.367" cy="138.539" r="4" fill="#0" id="circle43"/>
	<circle cx="316.13" cy="418.38" r="4" fill="#0" id="circle44"/>
	<circle cx="323.306" cy="129.57" r="4" fill="#0" id="circle45"/>
	<circle cx="334.069" cy="418.38" r="4" fill="#0" id="circle46"/>
	<circle cx="339.45" cy="120.6" r="4" fill="#0" id="circle47"/>
	<circle cx="352.007" cy="418.38" r="4" fill="#0" id="circle48"/>
	<circle cx="353.801" cy="108.043" r="4" fill="#0" id="circle49"/>
	<circle cx="369.946" cy="418.38" r="4" fill="#0" id="circle50"/>
	<circle cx="371.74" cy="102.662" r="4" fill="#0" id="circle51"/>
	<circle cx="387.884" cy="93.6926" r="4" fill="#0" id="circle52"/>
	<circle cx="387.884" cy="418.38" r="4" fill="#0" id="circle53"/>
	<circle cx="404.029" cy="102.662" r="4" fill="#0" id="circle54"/>
	<circle cx="405.823" cy="414.792" r="4" fill="#0" id="circle55"/>
	<circle cx="420.174" cy="111.631" r="4" fill="#0" id="circle56"/>
	<circle cx="423.761" cy="418.38" r="4" fill="#0" id="circle57"/>
	<circle cx="425.555" cy="436.318" r="4" fill="#0" id="circle58"/>
	<circle cx="430.937" cy="454.257" r="4" fill="#0" id="circle59"/>
	<circle cx="436.318" cy="120.6" r="4" fill="#0" id="circle60"/>
	<circle cx="443.494" cy="81.1356" r="4" fill="#0" id="circle61"/>
	<circle cx="445.288" cy="466.814" r="4" fill="#0" id="circle62"/>
	<circle cx="452.463" cy="63.1971" r="4" fill="#0" id="circle63"/>
	<circle cx="452.463" cy="99.0741" r="4" fill="#0" id="circle64"/>
	<circle cx="454.257" cy="117.013" r="4" fill="#0" id="circle65"/>
	<circle cx="461.432" cy="45.2586" r="4" fill="#0" id="circle66"/>
	<circle cx="463.226" cy="472.195" r="4" fill="#0" id="circle67"/>
	<circle cx="470.401" cy="27.3201" r="4" fill="#0" id="circle68"/>
	<circle cx="481.165" cy="475.783" r="4" fill="#0" id="circle69"/>
	<circle cx="484.752" cy="12.9693" r="4" fill="#0" id="circle70"/>
	<circle cx="499.103" cy="481.165" r="4" fill="#0" id="circle71"/>
	<circle cx="500.897" cy="4" r="4" fill="#0" id="circle72"/>
	<circle cx="515.248" cy="472.195" r="4" fill="#0" id="circle73"/>
	<circle cx="518.835" cy="5.79385" r="4" fill="#0" id="circle74"/>
	<circle cx="529.599" cy="461.432" r="4" fill="#0" id="circle75"/>
	<circle cx="536.774" cy="4" r="4" fill="#0" id="circle76"/>
	<circle cx="543.949" cy="436.318" r="4" fill="#0" id="circle77"/>
	<circle cx="547.537" cy="454.257" r="4" fill="#0" id="circle78"/>
	<circle cx="554.712" cy="4" r="4" fill="#0" id="circle79"/>
	<circle cx="561.888" cy="418.38" r="4" fill="#0" id="circle80"/>
	<circle cx="561.888" cy="436.318" r="4" fill="#0" id="circle81"/>
	<circle cx="570.857" cy="12.9693" r="4" fill="#0" id="circle82"/>
	<circle cx="579.826" cy="418.38" r="4" fill="#0" id="circle83"/>
	<circle cx="588.796" cy="9.38156" r="4" fill="#0" id="circle84"/>
	<circle cx="597.765" cy="418.38" r="4" fill="#0" id="circle85"/>
	<circle cx="606.734" cy="12.9693" r="4" fill="#0" id="circle86"/>
	<circle cx="615.703" cy="418.38" r="4" fill="#0" id="circle87"/>
	<circle cx="624.673" cy="12.9693" r="4" fill="#0" id="circle88"/>
	<circle cx="633.642" cy="418.38" r="4" fill="#0" id="circle89"/>
	<circle cx="640.817" cy="21.9385" r="4" fill="#0" id="circle90"/>
	<circle cx="651.58" cy="418.38" r="4" fill="#0" id="circle91"/>
	<circle cx="658.756" cy="21.9385" r="4" fill="#0" id="circle92"/>
	<circle cx="669.519" cy="418.38" r="4" fill="#0" id="circle93"/>
	<circle cx="676.694" cy="21.9385" r="4" fill="#0" id="circle94"/>
	<circle cx="687.458" cy="418.38" r="4" fill="#0" id="circle95"/>
	<circle cx="694.633" cy="21.9385" r="4" fill="#0" id="circle96"/>
	<circle cx="705.396" cy="418.38" r="4" fill="#0" id="circle97"/>
	<circle cx="710.778" cy="30.9078" r="4" fill="#0" id="circle98"/>
	<circle cx="723.335" cy="418.38" r="4" fill="#0" id="circle99"/>
	<circle cx="726.922" cy="21.9385" r="4" fill="#0" id="circle100"/>
	<circle cx="741.273" cy="418.38" r="4" fill="#0" id="circle101"/>
	<circle cx="744.861" cy="21.9385" r="4" fill="#0" id="circle102"/>
	<circle cx="759.212" cy="50.6401" r="4" fill="#0" id="circle103"/>
	<circle cx="759.212" cy="77.5479" r="4" fill="#0" id="circle104"/>
	<circle cx="759.212" cy="409.41" r="4" fill="#0" id="circle105"/>
	<circle cx="761.005" cy="30.9078" r="4" fill="#0" id="circle106"/>
	<circle cx="768.181" cy="93.6926" r="4" fill="#0" id="circle107"/>
	<circle cx="777.15" cy="113.425" r="4" fill="#0" id="circle108"/>
	<circle cx="777.15" cy="409.41" r="4" fill="#0" id="circle109"/>
	<circle cx="786.119" cy="129.57" r="4" fill="#0" id="circle110"/>
	<circle cx="787.913" cy="423.761" r="4" fill="#0" id="circle111"/>
	<circle cx="802.264" cy="436.318" r="4" fill="#0" id="circle112"/>
	<circle cx="804.058" cy="134.951" r="4" fill="#0" id="circle113"/>
	<circle cx="818.409" cy="147.508" r="4" fill="#0" id="circle114"/>
	<circle cx="818.409" cy="445.288" r="4" fill="#0" id="circle115"/>
	<circle cx="836.347" cy="147.508" r="4" fill="#0" id="circle116"/>
	<circle cx="836.347" cy="445.288" r="4" fill="#0" id="circle117"/>
	<circle cx="854.286" cy="147.508" r="4" fill="#0" id="circle118"/>
	<circle cx="854.286" cy="445.288" r="4" fill="#0" id="circle119"/>
	<circle cx="866.843" cy="427.349" r="4" fill="#0" id="circle120"/>
	<circle cx="872.224" cy="147.508" r="4" fill="#0" id="circle121"/>
	<circle cx="884.781" cy="418.38" r="4" fill="#0" id="circle122"/>
	<circle cx="890.163" cy="147.508" r="4" fill="#0" id="circle123"/>
	<circle cx="899.132" cy="405.823" r="4" fill="#0" id="circle124"/>
	<circle cx="906.307" cy="156.477" r="4" fill="#0" id="circle125"/>
	<circle cx="911.689" cy="382.503" r="4" fill="#0" id="circle126"/>
	<circle cx="920.658" cy="337.656" r="4" fill="#0" id="circle127"/>
	<circle cx="920.658" cy="355.595" r="4" fill="#0" id="circle128"/>
	<circle cx="924.246" cy="156.477" r="4" fill="#0" id="circle129"/>
	<circle cx="938.597" cy="328.687" r="4" fill="#0" id="circle130"/>
	<circle cx="940.391" cy="147.508" r="4" fill="#0" id="circle131"/>
	<circle cx="956.535" cy="156.477" r="4" fill="#0" id="circle132"/>
	<circle cx="956.535" cy="283.841" r="4" fill="#0" id="circle133"/>
	<circle cx="956.535" cy="310.749" r="4" fill="#0" id="circle134"/>
	<circle cx="970.886" cy="271.284" r="4" fill="#0" id="circle135"/>
	<circle cx="972.68" cy="165.447" r="4" fill="#0" id="circle136"/>
	<circle cx="974.474" cy="230.025" r="4" fill="#0" id="circle137"/>
	<circle cx="974.474" cy="247.964" r="4" fill="#0" id="circle138"/>
	<circle cx="983.443" cy="179.797" r="4" fill="#0" id="circle139"/>
	<circle cx="988.825" cy="217.468" r="4" fill="#0" id="circle140"/>
	<circle cx="996" cy="194.148" r="4" fill="#0" id="circle141"/>
	</g>
</svg>