<?xml version="1.0" encoding="UTF-8" standalone="no"?>
<!-- Created with CurveBenchmark -->
<svg
	xmlns:dc="http://purl.org/dc/elements/1.1/"
	xmlns:cc="http://creativecommons.org/ns#"
	xmlns:rdf="http://www.w3.org/1999/02/22-rdf-syntax-ns#"
	xmlns:svg="http://www.w3.org/2000/svg"
	xmlns="http://www.w3.org/2000/svg"
	xmlns:sodipodi="http://sodipodi.sourceforge.net/DTD/sodipodi-0.dtd"
	xmlns:inkscape="http://www.inkscape.org/namespaces/inkscape"
	width="1000"
	height="1000"
	id="svg2"
	version="1.1"
	sodipodi:docname="manifold/crust-mc16.txt">
<defs
	id="defs4" />
<metadata
	id="metadata7">
	<rdf:RDF>
		<cc:Work
			rdf:about="">
			<dc:format>image/svg+xml</dc:format>
			<dc:type
				rdf:resource="http://purl.org/dc/dcmitype/StillImage" />
			<dc:title></dc:title>
		</cc:Work>
	</rdf:RDF>
</metadata>
<g
	inkscape:label="Layer 1"
	inkscape:groupmode="layer"
	id="layer1">
	<path style="fill:none;stroke:red;stroke-width:1px;stroke-linecap:butt;stroke-linejoin:miter;stroke-opacity:1" d="M 74.8571,138.508 56.8426,148.116 z" id="boundary" inkscape:connector-curvature="0" />
	<path style="fill:none;stroke:red;stroke-width:1px;stroke-linecap:butt;stroke-linejoin:miter;stroke-opacity:1" d="M 52.0387,173.337 66.4504,180.542 z" id="boundary" inkscape:connector-curvature="0" />
	<path style="fill:none;stroke:red;stroke-width:1px;stroke-linecap:butt;stroke-linejoin:miter;stroke-opacity:1" d="M 52.0387,173.337 56.8426,148.116 z" id="boundary" inkscape:connector-curvature="0" />
	<path style="fill:none;stroke:red;stroke-width:1px;stroke-linecap:butt;stroke-linejoin:miter;stroke-opacity:1" d="M 116.891,110.886 91.6707,121.695 z" id="boundary" inkscape:connector-curvature="0" />
	<path style="fill:none;stroke:red;stroke-width:1px;stroke-linecap:butt;stroke-linejoin:miter;stroke-opacity:1" d="M 91.6707,121.695 74.8571,138.508 z" id="boundary" inkscape:connector-curvature="0" />
	<path style="fill:none;stroke:red;stroke-width:1px;stroke-linecap:butt;stroke-linejoin:miter;stroke-opacity:1" d="M 66.4504,242.993 66.4504,218.973 z" id="boundary" inkscape:connector-curvature="0" />
	<path style="fill:none;stroke:red;stroke-width:1px;stroke-linecap:butt;stroke-linejoin:miter;stroke-opacity:1" d="M 66.4504,180.542 64.0484,200.959 z" id="boundary" inkscape:connector-curvature="0" />
	<path style="fill:none;stroke:red;stroke-width:1px;stroke-linecap:butt;stroke-linejoin:miter;stroke-opacity:1" d="M 66.4504,218.973 64.0484,200.959 z" id="boundary" inkscape:connector-curvature="0" />
	<path style="fill:none;stroke:red;stroke-width:1px;stroke-linecap:butt;stroke-linejoin:miter;stroke-opacity:1" d="M 64.0484,281.424 64.0484,263.409 z" id="boundary" inkscape:connector-curvature="0" />
	<path style="fill:none;stroke:red;stroke-width:1px;stroke-linecap:butt;stroke-linejoin:miter;stroke-opacity:1" d="M 64.0484,281.424 64.0484,300.639 z" id="boundary" inkscape:connector-curvature="0" />
	<path style="fill:none;stroke:red;stroke-width:1px;stroke-linecap:butt;stroke-linejoin:miter;stroke-opacity:1" d="M 64.0484,263.409 66.4504,242.993 z" id="boundary" inkscape:connector-curvature="0" />
	<path style="fill:none;stroke:red;stroke-width:1px;stroke-linecap:butt;stroke-linejoin:miter;stroke-opacity:1" d="M 116.891,110.886 142.111,94.0726 z" id="boundary" inkscape:connector-curvature="0" />
	<path style="fill:none;stroke:red;stroke-width:1px;stroke-linecap:butt;stroke-linejoin:miter;stroke-opacity:1" d="M 132.504,168.533 131.303,191.351 z" id="boundary" inkscape:connector-curvature="0" />
	<path style="fill:none;stroke:red;stroke-width:1px;stroke-linecap:butt;stroke-linejoin:miter;stroke-opacity:1" d="M 151.719,154.121 132.504,168.533 z" id="boundary" inkscape:connector-curvature="0" />
	<path style="fill:none;stroke:red;stroke-width:1px;stroke-linecap:butt;stroke-linejoin:miter;stroke-opacity:1" d="M 131.303,212.969 131.303,191.351 z" id="boundary" inkscape:connector-curvature="0" />
	<path style="fill:none;stroke:red;stroke-width:1px;stroke-linecap:butt;stroke-linejoin:miter;stroke-opacity:1" d="M 131.303,212.969 128.901,240.591 z" id="boundary" inkscape:connector-curvature="0" />
	<path style="fill:none;stroke:red;stroke-width:1px;stroke-linecap:butt;stroke-linejoin:miter;stroke-opacity:1" d="M 128.901,240.591 128.901,261.007 z" id="boundary" inkscape:connector-curvature="0" />
	<path style="fill:none;stroke:red;stroke-width:1px;stroke-linecap:butt;stroke-linejoin:miter;stroke-opacity:1" d="M 128.901,283.826 128.901,313.85 z" id="boundary" inkscape:connector-curvature="0" />
	<path style="fill:none;stroke:red;stroke-width:1px;stroke-linecap:butt;stroke-linejoin:miter;stroke-opacity:1" d="M 128.901,283.826 128.901,261.007 z" id="boundary" inkscape:connector-curvature="0" />
	<path style="fill:none;stroke:red;stroke-width:1px;stroke-linecap:butt;stroke-linejoin:miter;stroke-opacity:1" d="M 128.901,337.869 128.901,313.85 z" id="boundary" inkscape:connector-curvature="0" />
	<path style="fill:none;stroke:red;stroke-width:1px;stroke-linecap:butt;stroke-linejoin:miter;stroke-opacity:1" d="M 66.4504,316.252 64.0484,300.639 z" id="boundary" inkscape:connector-curvature="0" />
	<path style="fill:none;stroke:red;stroke-width:1px;stroke-linecap:butt;stroke-linejoin:miter;stroke-opacity:1" d="M 163.729,83.2639 142.111,94.0726 z" id="boundary" inkscape:connector-curvature="0" />
	<path style="fill:none;stroke:red;stroke-width:1px;stroke-linecap:butt;stroke-linejoin:miter;stroke-opacity:1" d="M 22.0145,360.688 14.8087,372.697 z" id="boundary" inkscape:connector-curvature="0" />
	<path style="fill:none;stroke:red;stroke-width:1px;stroke-linecap:butt;stroke-linejoin:miter;stroke-opacity:1" d="M 14.8087,372.697 5.20097,383.506 z" id="boundary" inkscape:connector-curvature="0" />
	<path style="fill:none;stroke:red;stroke-width:1px;stroke-linecap:butt;stroke-linejoin:miter;stroke-opacity:1" d="M 5.20097,383.506 5.20097,397.918 z" id="boundary" inkscape:connector-curvature="0" />
	<path style="fill:none;stroke:red;stroke-width:1px;stroke-linecap:butt;stroke-linejoin:miter;stroke-opacity:1" d="M 64.0484,340.271 47.2349,348.678 z" id="boundary" inkscape:connector-curvature="0" />
	<path style="fill:none;stroke:red;stroke-width:1px;stroke-linecap:butt;stroke-linejoin:miter;stroke-opacity:1" d="M 47.2349,348.678 34.0242,351.08 z" id="boundary" inkscape:connector-curvature="0" />
	<path style="fill:none;stroke:red;stroke-width:1px;stroke-linecap:butt;stroke-linejoin:miter;stroke-opacity:1" d="M 22.0145,360.688 34.0242,351.08 z" id="boundary" inkscape:connector-curvature="0" />
	<path style="fill:none;stroke:red;stroke-width:1px;stroke-linecap:butt;stroke-linejoin:miter;stroke-opacity:1" d="M 47.2349,378.702 40.0291,393.114 z" id="boundary" inkscape:connector-curvature="0" />
	<path style="fill:none;stroke:red;stroke-width:1px;stroke-linecap:butt;stroke-linejoin:miter;stroke-opacity:1" d="M 5.20097,397.918 5.20097,411.128 z" id="boundary" inkscape:connector-curvature="0" />
	<path style="fill:none;stroke:red;stroke-width:1px;stroke-linecap:butt;stroke-linejoin:miter;stroke-opacity:1" d="M 5.20097,411.128 4,425.54 z" id="boundary" inkscape:connector-curvature="0" />
	<path style="fill:none;stroke:red;stroke-width:1px;stroke-linecap:butt;stroke-linejoin:miter;stroke-opacity:1" d="M 4,425.54 4,441.153 z" id="boundary" inkscape:connector-curvature="0" />
	<path style="fill:none;stroke:red;stroke-width:1px;stroke-linecap:butt;stroke-linejoin:miter;stroke-opacity:1" d="M 40.0291,393.114 35.2252,411.128 z" id="boundary" inkscape:connector-curvature="0" />
	<path style="fill:none;stroke:red;stroke-width:1px;stroke-linecap:butt;stroke-linejoin:miter;stroke-opacity:1" d="M 35.2252,411.128 35.2252,435.148 z" id="boundary" inkscape:connector-curvature="0" />
	<path style="fill:none;stroke:red;stroke-width:1px;stroke-linecap:butt;stroke-linejoin:miter;stroke-opacity:1" d="M 64.0484,340.271 66.4504,316.252 z" id="boundary" inkscape:connector-curvature="0" />
	<path style="fill:none;stroke:red;stroke-width:1px;stroke-linecap:butt;stroke-linejoin:miter;stroke-opacity:1" d="M 128.901,337.869 128.901,363.09 z" id="boundary" inkscape:connector-curvature="0" />
	<path style="fill:none;stroke:red;stroke-width:1px;stroke-linecap:butt;stroke-linejoin:miter;stroke-opacity:1" d="M 128.901,363.09 128.901,385.908 z" id="boundary" inkscape:connector-curvature="0" />
	<path style="fill:none;stroke:red;stroke-width:1px;stroke-linecap:butt;stroke-linejoin:miter;stroke-opacity:1" d="M 66.4504,388.31 64.0484,378.702 z" id="boundary" inkscape:connector-curvature="0" />
	<path style="fill:none;stroke:red;stroke-width:1px;stroke-linecap:butt;stroke-linejoin:miter;stroke-opacity:1" d="M 66.4504,388.31 66.4504,406.324 z" id="boundary" inkscape:connector-curvature="0" />
	<path style="fill:none;stroke:red;stroke-width:1px;stroke-linecap:butt;stroke-linejoin:miter;stroke-opacity:1" d="M 66.4504,406.324 66.4504,425.54 z" id="boundary" inkscape:connector-curvature="0" />
	<path style="fill:none;stroke:red;stroke-width:1px;stroke-linecap:butt;stroke-linejoin:miter;stroke-opacity:1" d="M 64.0484,438.751 66.4504,425.54 z" id="boundary" inkscape:connector-curvature="0" />
	<path style="fill:none;stroke:red;stroke-width:1px;stroke-linecap:butt;stroke-linejoin:miter;stroke-opacity:1" d="M 47.2349,378.702 64.0484,378.702 z" id="boundary" inkscape:connector-curvature="0" />
	<path style="fill:none;stroke:red;stroke-width:1px;stroke-linecap:butt;stroke-linejoin:miter;stroke-opacity:1" d="M 151.719,378.702 128.901,385.908 z" id="boundary" inkscape:connector-curvature="0" />
	<path style="fill:none;stroke:red;stroke-width:1px;stroke-linecap:butt;stroke-linejoin:miter;stroke-opacity:1" d="M 193.753,68.8523 163.729,83.2639 z" id="boundary" inkscape:connector-curvature="0" />
	<path style="fill:none;stroke:red;stroke-width:1px;stroke-linecap:butt;stroke-linejoin:miter;stroke-opacity:1" d="M 227.38,53.2397 193.753,68.8523 z" id="boundary" inkscape:connector-curvature="0" />
	<path style="fill:none;stroke:red;stroke-width:1px;stroke-linecap:butt;stroke-linejoin:miter;stroke-opacity:1" d="M 227.38,53.2397 259.806,41.23 z" id="boundary" inkscape:connector-curvature="0" />
	<path style="fill:none;stroke:red;stroke-width:1px;stroke-linecap:butt;stroke-linejoin:miter;stroke-opacity:1" d="M 251.4,108.484 221.375,119.293 z" id="boundary" inkscape:connector-curvature="0" />
	<path style="fill:none;stroke:red;stroke-width:1px;stroke-linecap:butt;stroke-linejoin:miter;stroke-opacity:1" d="M 258.605,131.303 251.4,108.484 z" id="boundary" inkscape:connector-curvature="0" />
	<path style="fill:none;stroke:red;stroke-width:1px;stroke-linecap:butt;stroke-linejoin:miter;stroke-opacity:1" d="M 221.375,119.293 197.356,128.901 z" id="boundary" inkscape:connector-curvature="0" />
	<path style="fill:none;stroke:red;stroke-width:1px;stroke-linecap:butt;stroke-linejoin:miter;stroke-opacity:1" d="M 174.538,143.312 151.719,154.121 z" id="boundary" inkscape:connector-curvature="0" />
	<path style="fill:none;stroke:red;stroke-width:1px;stroke-linecap:butt;stroke-linejoin:miter;stroke-opacity:1" d="M 197.356,128.901 174.538,143.312 z" id="boundary" inkscape:connector-curvature="0" />
	<path style="fill:none;stroke:red;stroke-width:1px;stroke-linecap:butt;stroke-linejoin:miter;stroke-opacity:1" d="M 258.605,131.303 258.605,156.523 z" id="boundary" inkscape:connector-curvature="0" />
	<path style="fill:none;stroke:red;stroke-width:1px;stroke-linecap:butt;stroke-linejoin:miter;stroke-opacity:1" d="M 329.462,22.0145 292.232,34.0242 z" id="boundary" inkscape:connector-curvature="0" />
	<path style="fill:none;stroke:red;stroke-width:1px;stroke-linecap:butt;stroke-linejoin:miter;stroke-opacity:1" d="M 292.232,34.0242 259.806,41.23 z" id="boundary" inkscape:connector-curvature="0" />
	<path style="fill:none;stroke:red;stroke-width:1px;stroke-linecap:butt;stroke-linejoin:miter;stroke-opacity:1" d="M 366.692,16.0097 329.462,22.0145 z" id="boundary" inkscape:connector-curvature="0" />
	<path style="fill:none;stroke:red;stroke-width:1px;stroke-linecap:butt;stroke-linejoin:miter;stroke-opacity:1" d="M 510.809,4 480.785,6.40194 z" id="boundary" inkscape:connector-curvature="0" />
	<path style="fill:none;stroke:red;stroke-width:1px;stroke-linecap:butt;stroke-linejoin:miter;stroke-opacity:1" d="M 450.76,8.80387 411.128,11.2058 z" id="boundary" inkscape:connector-curvature="0" />
	<path style="fill:none;stroke:red;stroke-width:1px;stroke-linecap:butt;stroke-linejoin:miter;stroke-opacity:1" d="M 480.785,6.40194 450.76,8.80387 z" id="boundary" inkscape:connector-curvature="0" />
	<path style="fill:none;stroke:red;stroke-width:1px;stroke-linecap:butt;stroke-linejoin:miter;stroke-opacity:1" d="M 366.692,16.0097 411.128,11.2058 z" id="boundary" inkscape:connector-curvature="0" />
	<path style="fill:none;stroke:red;stroke-width:1px;stroke-linecap:butt;stroke-linejoin:miter;stroke-opacity:1" d="M 258.605,178.14 262.208,208.165 z" id="boundary" inkscape:connector-curvature="0" />
	<path style="fill:none;stroke:red;stroke-width:1px;stroke-linecap:butt;stroke-linejoin:miter;stroke-opacity:1" d="M 258.605,178.14 258.605,156.523 z" id="boundary" inkscape:connector-curvature="0" />
	<path style="fill:none;stroke:red;stroke-width:1px;stroke-linecap:butt;stroke-linejoin:miter;stroke-opacity:1" d="M 506.005,251.4 471.177,253.801 z" id="boundary" inkscape:connector-curvature="0" />
	<path style="fill:none;stroke:red;stroke-width:1px;stroke-linecap:butt;stroke-linejoin:miter;stroke-opacity:1" d="M 151.719,378.702 169.734,370.295 z" id="boundary" inkscape:connector-curvature="0" />
	<path style="fill:none;stroke:red;stroke-width:1px;stroke-linecap:butt;stroke-linejoin:miter;stroke-opacity:1" d="M 191.351,363.09 169.734,370.295 z" id="boundary" inkscape:connector-curvature="0" />
	<path style="fill:none;stroke:red;stroke-width:1px;stroke-linecap:butt;stroke-linejoin:miter;stroke-opacity:1" d="M 209.366,355.884 191.351,363.09 z" id="boundary" inkscape:connector-curvature="0" />
	<path style="fill:none;stroke:red;stroke-width:1px;stroke-linecap:butt;stroke-linejoin:miter;stroke-opacity:1" d="M 209.366,355.884 227.38,343.874 z" id="boundary" inkscape:connector-curvature="0" />
	<path style="fill:none;stroke:red;stroke-width:1px;stroke-linecap:butt;stroke-linejoin:miter;stroke-opacity:1" d="M 246.596,340.271 227.38,343.874 z" id="boundary" inkscape:connector-curvature="0" />
	<path style="fill:none;stroke:red;stroke-width:1px;stroke-linecap:butt;stroke-linejoin:miter;stroke-opacity:1" d="M 259.806,273.017 258.605,240.591 z" id="boundary" inkscape:connector-curvature="0" />
	<path style="fill:none;stroke:red;stroke-width:1px;stroke-linecap:butt;stroke-linejoin:miter;stroke-opacity:1" d="M 259.806,273.017 259.806,300.639 z" id="boundary" inkscape:connector-curvature="0" />
	<path style="fill:none;stroke:red;stroke-width:1px;stroke-linecap:butt;stroke-linejoin:miter;stroke-opacity:1" d="M 259.806,300.639 256.203,325.86 z" id="boundary" inkscape:connector-curvature="0" />
	<path style="fill:none;stroke:red;stroke-width:1px;stroke-linecap:butt;stroke-linejoin:miter;stroke-opacity:1" d="M 443.554,263.409 418.334,268.213 z" id="boundary" inkscape:connector-curvature="0" />
	<path style="fill:none;stroke:red;stroke-width:1px;stroke-linecap:butt;stroke-linejoin:miter;stroke-opacity:1" d="M 471.177,253.801 443.554,263.409 z" id="boundary" inkscape:connector-curvature="0" />
	<path style="fill:none;stroke:red;stroke-width:1px;stroke-linecap:butt;stroke-linejoin:miter;stroke-opacity:1" d="M 418.334,268.213 388.31,277.821 z" id="boundary" inkscape:connector-curvature="0" />
	<path style="fill:none;stroke:red;stroke-width:1px;stroke-linecap:butt;stroke-linejoin:miter;stroke-opacity:1" d="M 329.462,307.845 355.884,291.031 z" id="boundary" inkscape:connector-curvature="0" />
	<path style="fill:none;stroke:red;stroke-width:1px;stroke-linecap:butt;stroke-linejoin:miter;stroke-opacity:1" d="M 388.31,277.821 355.884,291.031 z" id="boundary" inkscape:connector-curvature="0" />
	<path style="fill:none;stroke:red;stroke-width:1px;stroke-linecap:butt;stroke-linejoin:miter;stroke-opacity:1" d="M 262.208,208.165 258.605,240.591 z" id="boundary" inkscape:connector-curvature="0" />
	<path style="fill:none;stroke:red;stroke-width:1px;stroke-linecap:butt;stroke-linejoin:miter;stroke-opacity:1" d="M 329.462,307.845 301.84,325.86 z" id="boundary" inkscape:connector-curvature="0" />
	<path style="fill:none;stroke:red;stroke-width:1px;stroke-linecap:butt;stroke-linejoin:miter;stroke-opacity:1" d="M 256.203,325.86 246.596,340.271 z" id="boundary" inkscape:connector-curvature="0" />
	<path style="fill:none;stroke:red;stroke-width:1px;stroke-linecap:butt;stroke-linejoin:miter;stroke-opacity:1" d="M 244.194,405.123 262.208,376.3 z" id="boundary" inkscape:connector-curvature="0" />
	<path style="fill:none;stroke:red;stroke-width:1px;stroke-linecap:butt;stroke-linejoin:miter;stroke-opacity:1" d="M 281.424,353.482 262.208,376.3 z" id="boundary" inkscape:connector-curvature="0" />
	<path style="fill:none;stroke:red;stroke-width:1px;stroke-linecap:butt;stroke-linejoin:miter;stroke-opacity:1" d="M 301.84,325.86 281.424,353.482 z" id="boundary" inkscape:connector-curvature="0" />
	<path style="fill:none;stroke:red;stroke-width:1px;stroke-linecap:butt;stroke-linejoin:miter;stroke-opacity:1" d="M 229.782,435.148 244.194,405.123 z" id="boundary" inkscape:connector-curvature="0" />
	<path style="fill:none;stroke:red;stroke-width:1px;stroke-linecap:butt;stroke-linejoin:miter;stroke-opacity:1" d="M 4,455.564 4,441.153 z" id="boundary" inkscape:connector-curvature="0" />
	<path style="fill:none;stroke:red;stroke-width:1px;stroke-linecap:butt;stroke-linejoin:miter;stroke-opacity:1" d="M 4,469.976 4,455.564 z" id="boundary" inkscape:connector-curvature="0" />
	<path style="fill:none;stroke:red;stroke-width:1px;stroke-linecap:butt;stroke-linejoin:miter;stroke-opacity:1" d="M 4,480.785 4,469.976 z" id="boundary" inkscape:connector-curvature="0" />
	<path style="fill:none;stroke:red;stroke-width:1px;stroke-linecap:butt;stroke-linejoin:miter;stroke-opacity:1" d="M 4,480.785 4,500 z" id="boundary" inkscape:connector-curvature="0" />
	<path style="fill:none;stroke:red;stroke-width:1px;stroke-linecap:butt;stroke-linejoin:miter;stroke-opacity:1" d="M 35.2252,435.148 35.2252,453.162 z" id="boundary" inkscape:connector-curvature="0" />
	<path style="fill:none;stroke:red;stroke-width:1px;stroke-linecap:butt;stroke-linejoin:miter;stroke-opacity:1" d="M 31.6223,483.186 34.0242,467.574 z" id="boundary" inkscape:connector-curvature="0" />
	<path style="fill:none;stroke:red;stroke-width:1px;stroke-linecap:butt;stroke-linejoin:miter;stroke-opacity:1" d="M 35.2252,453.162 34.0242,467.574 z" id="boundary" inkscape:connector-curvature="0" />
	<path style="fill:none;stroke:red;stroke-width:1px;stroke-linecap:butt;stroke-linejoin:miter;stroke-opacity:1" d="M 4,510.809 5.20097,527.622 z" id="boundary" inkscape:connector-curvature="0" />
	<path style="fill:none;stroke:red;stroke-width:1px;stroke-linecap:butt;stroke-linejoin:miter;stroke-opacity:1" d="M 19.6126,538.431 5.20097,527.622 z" id="boundary" inkscape:connector-curvature="0" />
	<path style="fill:none;stroke:red;stroke-width:1px;stroke-linecap:butt;stroke-linejoin:miter;stroke-opacity:1" d="M 4,510.809 4,500 z" id="boundary" inkscape:connector-curvature="0" />
	<path style="fill:none;stroke:red;stroke-width:1px;stroke-linecap:butt;stroke-linejoin:miter;stroke-opacity:1" d="M 31.6223,483.186 31.6223,502.402 z" id="boundary" inkscape:connector-curvature="0" />
	<path style="fill:none;stroke:red;stroke-width:1px;stroke-linecap:butt;stroke-linejoin:miter;stroke-opacity:1" d="M 31.6223,540.833 19.6126,538.431 z" id="boundary" inkscape:connector-curvature="0" />
	<path style="fill:none;stroke:red;stroke-width:1px;stroke-linecap:butt;stroke-linejoin:miter;stroke-opacity:1" d="M 31.6223,502.402 42.431,515.613 z" id="boundary" inkscape:connector-curvature="0" />
	<path style="fill:none;stroke:red;stroke-width:1px;stroke-linecap:butt;stroke-linejoin:miter;stroke-opacity:1" d="M 64.0484,438.751 64.0484,462.77 z" id="boundary" inkscape:connector-curvature="0" />
	<path style="fill:none;stroke:red;stroke-width:1px;stroke-linecap:butt;stroke-linejoin:miter;stroke-opacity:1" d="M 64.0484,475.981 61.6465,492.794 z" id="boundary" inkscape:connector-curvature="0" />
	<path style="fill:none;stroke:red;stroke-width:1px;stroke-linecap:butt;stroke-linejoin:miter;stroke-opacity:1" d="M 64.0484,462.77 64.0484,475.981 z" id="boundary" inkscape:connector-curvature="0" />
	<path style="fill:none;stroke:red;stroke-width:1px;stroke-linecap:butt;stroke-linejoin:miter;stroke-opacity:1" d="M 42.431,515.613 56.8426,518.015 z" id="boundary" inkscape:connector-curvature="0" />
	<path style="fill:none;stroke:red;stroke-width:1px;stroke-linecap:butt;stroke-linejoin:miter;stroke-opacity:1" d="M 44.8329,543.235 31.6223,540.833 z" id="boundary" inkscape:connector-curvature="0" />
	<path style="fill:none;stroke:red;stroke-width:1px;stroke-linecap:butt;stroke-linejoin:miter;stroke-opacity:1" d="M 56.8426,543.235 44.8329,543.235 z" id="boundary" inkscape:connector-curvature="0" />
	<path style="fill:none;stroke:red;stroke-width:1px;stroke-linecap:butt;stroke-linejoin:miter;stroke-opacity:1" d="M 61.6465,492.794 56.8426,518.015 z" id="boundary" inkscape:connector-curvature="0" />
	<path style="fill:none;stroke:red;stroke-width:1px;stroke-linecap:butt;stroke-linejoin:miter;stroke-opacity:1" d="M 56.8426,543.235 56.8426,518.015 z" id="boundary" inkscape:connector-curvature="0" />
	<path style="fill:none;stroke:red;stroke-width:1px;stroke-linecap:butt;stroke-linejoin:miter;stroke-opacity:1" d="M 59.2446,654.925 56.8426,680.145 z" id="boundary" inkscape:connector-curvature="0" />
	<path style="fill:none;stroke:red;stroke-width:1px;stroke-linecap:butt;stroke-linejoin:miter;stroke-opacity:1" d="M 56.8426,543.235 61.6465,557.646 z" id="boundary" inkscape:connector-curvature="0" />
	<path style="fill:none;stroke:red;stroke-width:1px;stroke-linecap:butt;stroke-linejoin:miter;stroke-opacity:1" d="M 56.8426,680.145 56.8426,702.964 z" id="boundary" inkscape:connector-curvature="0" />
	<path style="fill:none;stroke:red;stroke-width:1px;stroke-linecap:butt;stroke-linejoin:miter;stroke-opacity:1" d="M 56.8426,730.586 56.8426,752.203 z" id="boundary" inkscape:connector-curvature="0" />
	<path style="fill:none;stroke:red;stroke-width:1px;stroke-linecap:butt;stroke-linejoin:miter;stroke-opacity:1" d="M 56.8426,702.964 56.8426,730.586 z" id="boundary" inkscape:connector-curvature="0" />
	<path style="fill:none;stroke:red;stroke-width:1px;stroke-linecap:butt;stroke-linejoin:miter;stroke-opacity:1" d="M 56.8426,752.203 56.8426,775.022 z" id="boundary" inkscape:connector-curvature="0" />
	<path style="fill:none;stroke:red;stroke-width:1px;stroke-linecap:butt;stroke-linejoin:miter;stroke-opacity:1" d="M 56.8426,775.022 56.8426,795.438 z" id="boundary" inkscape:connector-curvature="0" />
	<path style="fill:none;stroke:red;stroke-width:1px;stroke-linecap:butt;stroke-linejoin:miter;stroke-opacity:1" d="M 61.6465,592.475 59.2446,573.259 z" id="boundary" inkscape:connector-curvature="0" />
	<path style="fill:none;stroke:red;stroke-width:1px;stroke-linecap:butt;stroke-linejoin:miter;stroke-opacity:1" d="M 61.6465,557.646 59.2446,573.259 z" id="boundary" inkscape:connector-curvature="0" />
	<path style="fill:none;stroke:red;stroke-width:1px;stroke-linecap:butt;stroke-linejoin:miter;stroke-opacity:1" d="M 61.6465,592.475 59.2446,612.891 z" id="boundary" inkscape:connector-curvature="0" />
	<path style="fill:none;stroke:red;stroke-width:1px;stroke-linecap:butt;stroke-linejoin:miter;stroke-opacity:1" d="M 59.2446,633.308 59.2446,654.925 z" id="boundary" inkscape:connector-curvature="0" />
	<path style="fill:none;stroke:red;stroke-width:1px;stroke-linecap:butt;stroke-linejoin:miter;stroke-opacity:1" d="M 59.2446,612.891 59.2446,633.308 z" id="boundary" inkscape:connector-curvature="0" />
	<path style="fill:none;stroke:red;stroke-width:1px;stroke-linecap:butt;stroke-linejoin:miter;stroke-opacity:1" d="M 56.8426,817.056 56.8426,795.438 z" id="boundary" inkscape:connector-curvature="0" />
	<path style="fill:none;stroke:red;stroke-width:1px;stroke-linecap:butt;stroke-linejoin:miter;stroke-opacity:1" d="M 56.8426,817.056 56.8426,835.07 z" id="boundary" inkscape:connector-curvature="0" />
	<path style="fill:none;stroke:red;stroke-width:1px;stroke-linecap:butt;stroke-linejoin:miter;stroke-opacity:1" d="M 56.8426,881.908 56.8426,860.291 z" id="boundary" inkscape:connector-curvature="0" />
	<path style="fill:none;stroke:red;stroke-width:1px;stroke-linecap:butt;stroke-linejoin:miter;stroke-opacity:1" d="M 56.8426,835.07 56.8426,860.291 z" id="boundary" inkscape:connector-curvature="0" />
	<path style="fill:none;stroke:red;stroke-width:1px;stroke-linecap:butt;stroke-linejoin:miter;stroke-opacity:1" d="M 59.2446,904.726 61.6465,922.741 z" id="boundary" inkscape:connector-curvature="0" />
	<path style="fill:none;stroke:red;stroke-width:1px;stroke-linecap:butt;stroke-linejoin:miter;stroke-opacity:1" d="M 59.2446,904.726 56.8426,881.908 z" id="boundary" inkscape:connector-curvature="0" />
	<path style="fill:none;stroke:red;stroke-width:1px;stroke-linecap:butt;stroke-linejoin:miter;stroke-opacity:1" d="M 61.6465,922.741 72.4552,946.76 z" id="boundary" inkscape:connector-curvature="0" />
	<path style="fill:none;stroke:red;stroke-width:1px;stroke-linecap:butt;stroke-linejoin:miter;stroke-opacity:1" d="M 144.513,967.177 112.087,964.775 z" id="boundary" inkscape:connector-curvature="0" />
	<path style="fill:none;stroke:red;stroke-width:1px;stroke-linecap:butt;stroke-linejoin:miter;stroke-opacity:1" d="M 72.4552,946.76 86.8668,964.775 z" id="boundary" inkscape:connector-curvature="0" />
	<path style="fill:none;stroke:red;stroke-width:1px;stroke-linecap:butt;stroke-linejoin:miter;stroke-opacity:1" d="M 86.8668,964.775 112.087,964.775 z" id="boundary" inkscape:connector-curvature="0" />
	<path style="fill:none;stroke:red;stroke-width:1px;stroke-linecap:butt;stroke-linejoin:miter;stroke-opacity:1" d="M 197.356,527.622 197.356,557.646 z" id="boundary" inkscape:connector-curvature="0" />
	<path style="fill:none;stroke:red;stroke-width:1px;stroke-linecap:butt;stroke-linejoin:miter;stroke-opacity:1" d="M 204.562,495.196 197.356,527.622 z" id="boundary" inkscape:connector-curvature="0" />
	<path style="fill:none;stroke:red;stroke-width:1px;stroke-linecap:butt;stroke-linejoin:miter;stroke-opacity:1" d="M 197.356,557.646 197.356,590.073 z" id="boundary" inkscape:connector-curvature="0" />
	<path style="fill:none;stroke:red;stroke-width:1px;stroke-linecap:butt;stroke-linejoin:miter;stroke-opacity:1" d="M 218.973,462.77 204.562,495.196 z" id="boundary" inkscape:connector-curvature="0" />
	<path style="fill:none;stroke:red;stroke-width:1px;stroke-linecap:butt;stroke-linejoin:miter;stroke-opacity:1" d="M 218.973,462.77 229.782,435.148 z" id="boundary" inkscape:connector-curvature="0" />
	<path style="fill:none;stroke:red;stroke-width:1px;stroke-linecap:butt;stroke-linejoin:miter;stroke-opacity:1" d="M 197.356,590.073 204.562,622.499 z" id="boundary" inkscape:connector-curvature="0" />
	<path style="fill:none;stroke:red;stroke-width:1px;stroke-linecap:butt;stroke-linejoin:miter;stroke-opacity:1" d="M 211.768,652.523 204.562,622.499 z" id="boundary" inkscape:connector-curvature="0" />
	<path style="fill:none;stroke:red;stroke-width:1px;stroke-linecap:butt;stroke-linejoin:miter;stroke-opacity:1" d="M 227.38,680.145 211.768,652.523 z" id="boundary" inkscape:connector-curvature="0" />
	<path style="fill:none;stroke:red;stroke-width:1px;stroke-linecap:butt;stroke-linejoin:miter;stroke-opacity:1" d="M 239.39,705.366 227.38,680.145 z" id="boundary" inkscape:connector-curvature="0" />
	<path style="fill:none;stroke:red;stroke-width:1px;stroke-linecap:butt;stroke-linejoin:miter;stroke-opacity:1" d="M 239.39,705.366 253.801,724.581 z" id="boundary" inkscape:connector-curvature="0" />
	<path style="fill:none;stroke:red;stroke-width:1px;stroke-linecap:butt;stroke-linejoin:miter;stroke-opacity:1" d="M 271.816,749.801 253.801,724.581 z" id="boundary" inkscape:connector-curvature="0" />
	<path style="fill:none;stroke:red;stroke-width:1px;stroke-linecap:butt;stroke-linejoin:miter;stroke-opacity:1" d="M 291.031,765.414 271.816,749.801 z" id="boundary" inkscape:connector-curvature="0" />
	<path style="fill:none;stroke:red;stroke-width:1px;stroke-linecap:butt;stroke-linejoin:miter;stroke-opacity:1" d="M 516.814,857.889 496.397,857.889 z" id="boundary" inkscape:connector-curvature="0" />
	<path style="fill:none;stroke:red;stroke-width:1px;stroke-linecap:butt;stroke-linejoin:miter;stroke-opacity:1" d="M 174.538,969.579 209.366,969.579 z" id="boundary" inkscape:connector-curvature="0" />
	<path style="fill:none;stroke:red;stroke-width:1px;stroke-linecap:butt;stroke-linejoin:miter;stroke-opacity:1" d="M 174.538,969.579 144.513,967.177 z" id="boundary" inkscape:connector-curvature="0" />
	<path style="fill:none;stroke:red;stroke-width:1px;stroke-linecap:butt;stroke-linejoin:miter;stroke-opacity:1" d="M 244.194,971.981 286.228,971.981 z" id="boundary" inkscape:connector-curvature="0" />
	<path style="fill:none;stroke:red;stroke-width:1px;stroke-linecap:butt;stroke-linejoin:miter;stroke-opacity:1" d="M 209.366,969.579 244.194,971.981 z" id="boundary" inkscape:connector-curvature="0" />
	<path style="fill:none;stroke:red;stroke-width:1px;stroke-linecap:butt;stroke-linejoin:miter;stroke-opacity:1" d="M 286.228,971.981 327.061,971.981 z" id="boundary" inkscape:connector-curvature="0" />
	<path style="fill:none;stroke:red;stroke-width:1px;stroke-linecap:butt;stroke-linejoin:miter;stroke-opacity:1" d="M 327.061,971.981 369.094,971.981 z" id="boundary" inkscape:connector-curvature="0" />
	<path style="fill:none;stroke:red;stroke-width:1px;stroke-linecap:butt;stroke-linejoin:miter;stroke-opacity:1" d="M 291.031,765.414 309.046,784.63 z" id="boundary" inkscape:connector-curvature="0" />
	<path style="fill:none;stroke:red;stroke-width:1px;stroke-linecap:butt;stroke-linejoin:miter;stroke-opacity:1" d="M 378.702,830.266 351.08,814.654 z" id="boundary" inkscape:connector-curvature="0" />
	<path style="fill:none;stroke:red;stroke-width:1px;stroke-linecap:butt;stroke-linejoin:miter;stroke-opacity:1" d="M 329.462,800.242 309.046,784.63 z" id="boundary" inkscape:connector-curvature="0" />
	<path style="fill:none;stroke:red;stroke-width:1px;stroke-linecap:butt;stroke-linejoin:miter;stroke-opacity:1" d="M 329.462,800.242 351.08,814.654 z" id="boundary" inkscape:connector-curvature="0" />
	<path style="fill:none;stroke:red;stroke-width:1px;stroke-linecap:butt;stroke-linejoin:miter;stroke-opacity:1" d="M 378.702,830.266 403.923,842.276 z" id="boundary" inkscape:connector-curvature="0" />
	<path style="fill:none;stroke:red;stroke-width:1px;stroke-linecap:butt;stroke-linejoin:miter;stroke-opacity:1" d="M 433.947,849.482 403.923,842.276 z" id="boundary" inkscape:connector-curvature="0" />
	<path style="fill:none;stroke:red;stroke-width:1px;stroke-linecap:butt;stroke-linejoin:miter;stroke-opacity:1" d="M 433.947,849.482 466.373,855.487 z" id="boundary" inkscape:connector-curvature="0" />
	<path style="fill:none;stroke:red;stroke-width:1px;stroke-linecap:butt;stroke-linejoin:miter;stroke-opacity:1" d="M 466.373,855.487 496.397,857.889 z" id="boundary" inkscape:connector-curvature="0" />
	<path style="fill:none;stroke:red;stroke-width:1px;stroke-linecap:butt;stroke-linejoin:miter;stroke-opacity:1" d="M 403.923,971.981 369.094,971.981 z" id="boundary" inkscape:connector-curvature="0" />
	<path style="fill:none;stroke:red;stroke-width:1px;stroke-linecap:butt;stroke-linejoin:miter;stroke-opacity:1" d="M 445.956,969.579 403.923,971.981 z" id="boundary" inkscape:connector-curvature="0" />
	<path style="fill:none;stroke:red;stroke-width:1px;stroke-linecap:butt;stroke-linejoin:miter;stroke-opacity:1" d="M 484.387,969.579 445.956,969.579 z" id="boundary" inkscape:connector-curvature="0" />
	<path style="fill:none;stroke:red;stroke-width:1px;stroke-linecap:butt;stroke-linejoin:miter;stroke-opacity:1" d="M 545.637,4 510.809,4 z" id="boundary" inkscape:connector-curvature="0" />
	<path style="fill:none;stroke:red;stroke-width:1px;stroke-linecap:butt;stroke-linejoin:miter;stroke-opacity:1" d="M 626.102,18.4116 581.666,11.2058 z" id="boundary" inkscape:connector-curvature="0" />
	<path style="fill:none;stroke:red;stroke-width:1px;stroke-linecap:butt;stroke-linejoin:miter;stroke-opacity:1" d="M 545.637,4 581.666,11.2058 z" id="boundary" inkscape:connector-curvature="0" />
	<path style="fill:none;stroke:red;stroke-width:1px;stroke-linecap:butt;stroke-linejoin:miter;stroke-opacity:1" d="M 663.332,24.4165 626.102,18.4116 z" id="boundary" inkscape:connector-curvature="0" />
	<path style="fill:none;stroke:red;stroke-width:1px;stroke-linecap:butt;stroke-linejoin:miter;stroke-opacity:1" d="M 728.184,38.8281 693.356,31.6223 z" id="boundary" inkscape:connector-curvature="0" />
	<path style="fill:none;stroke:red;stroke-width:1px;stroke-linecap:butt;stroke-linejoin:miter;stroke-opacity:1" d="M 693.356,31.6223 663.332,24.4165 z" id="boundary" inkscape:connector-curvature="0" />
	<path style="fill:none;stroke:red;stroke-width:1px;stroke-linecap:butt;stroke-linejoin:miter;stroke-opacity:1" d="M 728.184,38.8281 753.404,50.8378 z" id="boundary" inkscape:connector-curvature="0" />
	<path style="fill:none;stroke:red;stroke-width:1px;stroke-linecap:butt;stroke-linejoin:miter;stroke-opacity:1" d="M 788.232,61.6465 753.404,50.8378 z" id="boundary" inkscape:connector-curvature="0" />
	<path style="fill:none;stroke:red;stroke-width:1px;stroke-linecap:butt;stroke-linejoin:miter;stroke-opacity:1" d="M 753.404,110.886 776.223,119.293 z" id="boundary" inkscape:connector-curvature="0" />
	<path style="fill:none;stroke:red;stroke-width:1px;stroke-linecap:butt;stroke-linejoin:miter;stroke-opacity:1" d="M 753.404,140.91 753.404,110.886 z" id="boundary" inkscape:connector-curvature="0" />
	<path style="fill:none;stroke:red;stroke-width:1px;stroke-linecap:butt;stroke-linejoin:miter;stroke-opacity:1" d="M 788.232,61.6465 818.257,76.0581 z" id="boundary" inkscape:connector-curvature="0" />
	<path style="fill:none;stroke:red;stroke-width:1px;stroke-linecap:butt;stroke-linejoin:miter;stroke-opacity:1" d="M 790.634,128.901 776.223,119.293 z" id="boundary" inkscape:connector-curvature="0" />
	<path style="fill:none;stroke:red;stroke-width:1px;stroke-linecap:butt;stroke-linejoin:miter;stroke-opacity:1" d="M 811.051,138.508 790.634,128.901 z" id="boundary" inkscape:connector-curvature="0" />
	<path style="fill:none;stroke:red;stroke-width:1px;stroke-linecap:butt;stroke-linejoin:miter;stroke-opacity:1" d="M 818.257,76.0581 843.477,86.8668 z" id="boundary" inkscape:connector-curvature="0" />
	<path style="fill:none;stroke:red;stroke-width:1px;stroke-linecap:butt;stroke-linejoin:miter;stroke-opacity:1" d="M 753.404,163.729 753.404,140.91 z" id="boundary" inkscape:connector-curvature="0" />
	<path style="fill:none;stroke:red;stroke-width:1px;stroke-linecap:butt;stroke-linejoin:miter;stroke-opacity:1" d="M 753.404,163.729 755.806,186.547 z" id="boundary" inkscape:connector-curvature="0" />
	<path style="fill:none;stroke:red;stroke-width:1px;stroke-linecap:butt;stroke-linejoin:miter;stroke-opacity:1" d="M 755.806,186.547 753.404,210.567 z" id="boundary" inkscape:connector-curvature="0" />
	<path style="fill:none;stroke:red;stroke-width:1px;stroke-linecap:butt;stroke-linejoin:miter;stroke-opacity:1" d="M 753.404,228.581 753.404,210.567 z" id="boundary" inkscape:connector-curvature="0" />
	<path style="fill:none;stroke:red;stroke-width:1px;stroke-linecap:butt;stroke-linejoin:miter;stroke-opacity:1" d="M 811.051,138.508 835.07,150.518 z" id="boundary" inkscape:connector-curvature="0" />
	<path style="fill:none;stroke:red;stroke-width:1px;stroke-linecap:butt;stroke-linejoin:miter;stroke-opacity:1" d="M 536.029,253.801 506.005,251.4 z" id="boundary" inkscape:connector-curvature="0" />
	<path style="fill:none;stroke:red;stroke-width:1px;stroke-linecap:butt;stroke-linejoin:miter;stroke-opacity:1" d="M 563.651,258.605 536.029,253.801 z" id="boundary" inkscape:connector-curvature="0" />
	<path style="fill:none;stroke:red;stroke-width:1px;stroke-linecap:butt;stroke-linejoin:miter;stroke-opacity:1" d="M 563.651,258.605 593.676,268.213 z" id="boundary" inkscape:connector-curvature="0" />
	<path style="fill:none;stroke:red;stroke-width:1px;stroke-linecap:butt;stroke-linejoin:miter;stroke-opacity:1" d="M 621.298,281.424 593.676,268.213 z" id="boundary" inkscape:connector-curvature="0" />
	<path style="fill:none;stroke:red;stroke-width:1px;stroke-linecap:butt;stroke-linejoin:miter;stroke-opacity:1" d="M 646.518,288.63 621.298,281.424 z" id="boundary" inkscape:connector-curvature="0" />
	<path style="fill:none;stroke:red;stroke-width:1px;stroke-linecap:butt;stroke-linejoin:miter;stroke-opacity:1" d="M 753.404,228.581 751.002,251.4 z" id="boundary" inkscape:connector-curvature="0" />
	<path style="fill:none;stroke:red;stroke-width:1px;stroke-linecap:butt;stroke-linejoin:miter;stroke-opacity:1" d="M 751.002,251.4 751.002,273.017 z" id="boundary" inkscape:connector-curvature="0" />
	<path style="fill:none;stroke:red;stroke-width:1px;stroke-linecap:butt;stroke-linejoin:miter;stroke-opacity:1" d="M 646.518,288.63 668.136,303.041 z" id="boundary" inkscape:connector-curvature="0" />
	<path style="fill:none;stroke:red;stroke-width:1px;stroke-linecap:butt;stroke-linejoin:miter;stroke-opacity:1" d="M 683.748,313.85 668.136,303.041 z" id="boundary" inkscape:connector-curvature="0" />
	<path style="fill:none;stroke:red;stroke-width:1px;stroke-linecap:butt;stroke-linejoin:miter;stroke-opacity:1" d="M 695.758,323.458 713.772,340.271 z" id="boundary" inkscape:connector-curvature="0" />
	<path style="fill:none;stroke:red;stroke-width:1px;stroke-linecap:butt;stroke-linejoin:miter;stroke-opacity:1" d="M 683.748,313.85 695.758,323.458 z" id="boundary" inkscape:connector-curvature="0" />
	<path style="fill:none;stroke:red;stroke-width:1px;stroke-linecap:butt;stroke-linejoin:miter;stroke-opacity:1" d="M 713.772,340.271 730.586,353.482 z" id="boundary" inkscape:connector-curvature="0" />
	<path style="fill:none;stroke:red;stroke-width:1px;stroke-linecap:butt;stroke-linejoin:miter;stroke-opacity:1" d="M 730.586,353.482 751.002,337.869 z" id="boundary" inkscape:connector-curvature="0" />
	<path style="fill:none;stroke:red;stroke-width:1px;stroke-linecap:butt;stroke-linejoin:miter;stroke-opacity:1" d="M 741.395,372.697 730.586,353.482 z" id="boundary" inkscape:connector-curvature="0" />
	<path style="fill:none;stroke:red;stroke-width:1px;stroke-linecap:butt;stroke-linejoin:miter;stroke-opacity:1" d="M 741.395,372.697 753.404,393.114 z" id="boundary" inkscape:connector-curvature="0" />
	<path style="fill:none;stroke:red;stroke-width:1px;stroke-linecap:butt;stroke-linejoin:miter;stroke-opacity:1" d="M 751.002,273.017 753.404,293.433 z" id="boundary" inkscape:connector-curvature="0" />
	<path style="fill:none;stroke:red;stroke-width:1px;stroke-linecap:butt;stroke-linejoin:miter;stroke-opacity:1" d="M 753.404,313.85 753.404,293.433 z" id="boundary" inkscape:connector-curvature="0" />
	<path style="fill:none;stroke:red;stroke-width:1px;stroke-linecap:butt;stroke-linejoin:miter;stroke-opacity:1" d="M 751.002,337.869 753.404,313.85 z" id="boundary" inkscape:connector-curvature="0" />
	<path style="fill:none;stroke:red;stroke-width:1px;stroke-linecap:butt;stroke-linejoin:miter;stroke-opacity:1" d="M 751.002,337.869 767.816,343.874 z" id="boundary" inkscape:connector-curvature="0" />
	<path style="fill:none;stroke:red;stroke-width:1px;stroke-linecap:butt;stroke-linejoin:miter;stroke-opacity:1" d="M 788.232,355.884 767.816,343.874 z" id="boundary" inkscape:connector-curvature="0" />
	<path style="fill:none;stroke:red;stroke-width:1px;stroke-linecap:butt;stroke-linejoin:miter;stroke-opacity:1" d="M 788.232,355.884 811.051,367.893 z" id="boundary" inkscape:connector-curvature="0" />
	<path style="fill:none;stroke:red;stroke-width:1px;stroke-linecap:butt;stroke-linejoin:miter;stroke-opacity:1" d="M 767.816,418.334 753.404,393.114 z" id="boundary" inkscape:connector-curvature="0" />
	<path style="fill:none;stroke:red;stroke-width:1px;stroke-linecap:butt;stroke-linejoin:miter;stroke-opacity:1" d="M 811.051,367.893 827.864,376.3 z" id="boundary" inkscape:connector-curvature="0" />
	<path style="fill:none;stroke:red;stroke-width:1px;stroke-linecap:butt;stroke-linejoin:miter;stroke-opacity:1" d="M 843.477,86.8668 867.496,103.68 z" id="boundary" inkscape:connector-curvature="0" />
	<path style="fill:none;stroke:red;stroke-width:1px;stroke-linecap:butt;stroke-linejoin:miter;stroke-opacity:1" d="M 865.094,166.131 835.07,150.518 z" id="boundary" inkscape:connector-curvature="0" />
	<path style="fill:none;stroke:red;stroke-width:1px;stroke-linecap:butt;stroke-linejoin:miter;stroke-opacity:1" d="M 867.496,103.68 895.119,118.092 z" id="boundary" inkscape:connector-curvature="0" />
	<path style="fill:none;stroke:red;stroke-width:1px;stroke-linecap:butt;stroke-linejoin:miter;stroke-opacity:1" d="M 887.913,180.542 865.094,166.131 z" id="boundary" inkscape:connector-curvature="0" />
	<path style="fill:none;stroke:red;stroke-width:1px;stroke-linecap:butt;stroke-linejoin:miter;stroke-opacity:1" d="M 895.119,118.092 917.937,133.705 z" id="boundary" inkscape:connector-curvature="0" />
	<path style="fill:none;stroke:red;stroke-width:1px;stroke-linecap:butt;stroke-linejoin:miter;stroke-opacity:1" d="M 887.913,180.542 883.109,208.165 z" id="boundary" inkscape:connector-curvature="0" />
	<path style="fill:none;stroke:red;stroke-width:1px;stroke-linecap:butt;stroke-linejoin:miter;stroke-opacity:1" d="M 880.707,230.983 883.109,208.165 z" id="boundary" inkscape:connector-curvature="0" />
	<path style="fill:none;stroke:red;stroke-width:1px;stroke-linecap:butt;stroke-linejoin:miter;stroke-opacity:1" d="M 883.109,248.998 883.109,270.615 z" id="boundary" inkscape:connector-curvature="0" />
	<path style="fill:none;stroke:red;stroke-width:1px;stroke-linecap:butt;stroke-linejoin:miter;stroke-opacity:1" d="M 883.109,291.031 883.109,270.615 z" id="boundary" inkscape:connector-curvature="0" />
	<path style="fill:none;stroke:red;stroke-width:1px;stroke-linecap:butt;stroke-linejoin:miter;stroke-opacity:1" d="M 883.109,248.998 880.707,230.983 z" id="boundary" inkscape:connector-curvature="0" />
	<path style="fill:none;stroke:red;stroke-width:1px;stroke-linecap:butt;stroke-linejoin:miter;stroke-opacity:1" d="M 938.354,148.116 917.937,133.705 z" id="boundary" inkscape:connector-curvature="0" />
	<path style="fill:none;stroke:red;stroke-width:1px;stroke-linecap:butt;stroke-linejoin:miter;stroke-opacity:1" d="M 938.354,148.116 959.971,161.327 z" id="boundary" inkscape:connector-curvature="0" />
	<path style="fill:none;stroke:red;stroke-width:1px;stroke-linecap:butt;stroke-linejoin:miter;stroke-opacity:1" d="M 959.971,161.327 959.971,182.944 z" id="boundary" inkscape:connector-curvature="0" />
	<path style="fill:none;stroke:red;stroke-width:1px;stroke-linecap:butt;stroke-linejoin:miter;stroke-opacity:1" d="M 945.559,203.361 945.559,186.547 z" id="boundary" inkscape:connector-curvature="0" />
	<path style="fill:none;stroke:red;stroke-width:1px;stroke-linecap:butt;stroke-linejoin:miter;stroke-opacity:1" d="M 945.559,186.547 959.971,182.944 z" id="boundary" inkscape:connector-curvature="0" />
	<path style="fill:none;stroke:red;stroke-width:1px;stroke-linecap:butt;stroke-linejoin:miter;stroke-opacity:1" d="M 945.559,228.581 945.559,203.361 z" id="boundary" inkscape:connector-curvature="0" />
	<path style="fill:none;stroke:red;stroke-width:1px;stroke-linecap:butt;stroke-linejoin:miter;stroke-opacity:1" d="M 945.559,258.605 940.755,283.826 z" id="boundary" inkscape:connector-curvature="0" />
	<path style="fill:none;stroke:red;stroke-width:1px;stroke-linecap:butt;stroke-linejoin:miter;stroke-opacity:1" d="M 945.559,228.581 945.559,258.605 z" id="boundary" inkscape:connector-curvature="0" />
	<path style="fill:none;stroke:red;stroke-width:1px;stroke-linecap:butt;stroke-linejoin:miter;stroke-opacity:1" d="M 996,423.138 996,406.324 z" id="boundary" inkscape:connector-curvature="0" />
	<path style="fill:none;stroke:red;stroke-width:1px;stroke-linecap:butt;stroke-linejoin:miter;stroke-opacity:1" d="M 883.109,313.85 883.109,291.031 z" id="boundary" inkscape:connector-curvature="0" />
	<path style="fill:none;stroke:red;stroke-width:1px;stroke-linecap:butt;stroke-linejoin:miter;stroke-opacity:1" d="M 883.109,313.85 883.109,333.065 z" id="boundary" inkscape:connector-curvature="0" />
	<path style="fill:none;stroke:red;stroke-width:1px;stroke-linecap:butt;stroke-linejoin:miter;stroke-opacity:1" d="M 940.755,283.826 943.157,307.845 z" id="boundary" inkscape:connector-curvature="0" />
	<path style="fill:none;stroke:red;stroke-width:1px;stroke-linecap:butt;stroke-linejoin:miter;stroke-opacity:1" d="M 883.109,333.065 880.707,353.482 z" id="boundary" inkscape:connector-curvature="0" />
	<path style="fill:none;stroke:red;stroke-width:1px;stroke-linecap:butt;stroke-linejoin:miter;stroke-opacity:1" d="M 827.864,376.3 853.085,390.712 z" id="boundary" inkscape:connector-curvature="0" />
	<path style="fill:none;stroke:red;stroke-width:1px;stroke-linecap:butt;stroke-linejoin:miter;stroke-opacity:1" d="M 878.305,408.726 853.085,390.712 z" id="boundary" inkscape:connector-curvature="0" />
	<path style="fill:none;stroke:red;stroke-width:1px;stroke-linecap:butt;stroke-linejoin:miter;stroke-opacity:1" d="M 880.707,353.482 880.707,375.099 z" id="boundary" inkscape:connector-curvature="0" />
	<path style="fill:none;stroke:red;stroke-width:1px;stroke-linecap:butt;stroke-linejoin:miter;stroke-opacity:1" d="M 943.157,307.845 943.157,330.663 z" id="boundary" inkscape:connector-curvature="0" />
	<path style="fill:none;stroke:red;stroke-width:1px;stroke-linecap:butt;stroke-linejoin:miter;stroke-opacity:1" d="M 943.157,351.08 943.157,330.663 z" id="boundary" inkscape:connector-curvature="0" />
	<path style="fill:none;stroke:red;stroke-width:1px;stroke-linecap:butt;stroke-linejoin:miter;stroke-opacity:1" d="M 959.971,360.688 943.157,351.08 z" id="boundary" inkscape:connector-curvature="0" />
	<path style="fill:none;stroke:red;stroke-width:1px;stroke-linecap:butt;stroke-linejoin:miter;stroke-opacity:1" d="M 959.971,360.688 973.182,367.893 z" id="boundary" inkscape:connector-curvature="0" />
	<path style="fill:none;stroke:red;stroke-width:1px;stroke-linecap:butt;stroke-linejoin:miter;stroke-opacity:1" d="M 992.397,388.31 985.191,375.099 z" id="boundary" inkscape:connector-curvature="0" />
	<path style="fill:none;stroke:red;stroke-width:1px;stroke-linecap:butt;stroke-linejoin:miter;stroke-opacity:1" d="M 973.182,367.893 985.191,375.099 z" id="boundary" inkscape:connector-curvature="0" />
	<path style="fill:none;stroke:red;stroke-width:1px;stroke-linecap:butt;stroke-linejoin:miter;stroke-opacity:1" d="M 943.157,393.114 957.569,388.31 z" id="boundary" inkscape:connector-curvature="0" />
	<path style="fill:none;stroke:red;stroke-width:1px;stroke-linecap:butt;stroke-linejoin:miter;stroke-opacity:1" d="M 968.378,390.712 957.569,388.31 z" id="boundary" inkscape:connector-curvature="0" />
	<path style="fill:none;stroke:red;stroke-width:1px;stroke-linecap:butt;stroke-linejoin:miter;stroke-opacity:1" d="M 943.157,415.932 943.157,393.114 z" id="boundary" inkscape:connector-curvature="0" />
	<path style="fill:none;stroke:red;stroke-width:1px;stroke-linecap:butt;stroke-linejoin:miter;stroke-opacity:1" d="M 968.378,390.712 975.584,400.32 z" id="boundary" inkscape:connector-curvature="0" />
	<path style="fill:none;stroke:red;stroke-width:1px;stroke-linecap:butt;stroke-linejoin:miter;stroke-opacity:1" d="M 975.584,400.32 975.584,411.128 z" id="boundary" inkscape:connector-curvature="0" />
	<path style="fill:none;stroke:red;stroke-width:1px;stroke-linecap:butt;stroke-linejoin:miter;stroke-opacity:1" d="M 992.397,388.31 996,406.324 z" id="boundary" inkscape:connector-curvature="0" />
	<path style="fill:none;stroke:red;stroke-width:1px;stroke-linecap:butt;stroke-linejoin:miter;stroke-opacity:1" d="M 767.816,418.334 781.027,438.751 z" id="boundary" inkscape:connector-curvature="0" />
	<path style="fill:none;stroke:red;stroke-width:1px;stroke-linecap:butt;stroke-linejoin:miter;stroke-opacity:1" d="M 793.036,469.976 781.027,438.751 z" id="boundary" inkscape:connector-curvature="0" />
	<path style="fill:none;stroke:red;stroke-width:1px;stroke-linecap:butt;stroke-linejoin:miter;stroke-opacity:1" d="M 793.036,469.976 797.84,487.99 z" id="boundary" inkscape:connector-curvature="0" />
	<path style="fill:none;stroke:red;stroke-width:1px;stroke-linecap:butt;stroke-linejoin:miter;stroke-opacity:1" d="M 797.84,487.99 806.247,520.416 z" id="boundary" inkscape:connector-curvature="0" />
	<path style="fill:none;stroke:red;stroke-width:1px;stroke-linecap:butt;stroke-linejoin:miter;stroke-opacity:1" d="M 803.845,555.245 803.845,590.073 z" id="boundary" inkscape:connector-curvature="0" />
	<path style="fill:none;stroke:red;stroke-width:1px;stroke-linecap:butt;stroke-linejoin:miter;stroke-opacity:1" d="M 806.247,520.416 803.845,555.245 z" id="boundary" inkscape:connector-curvature="0" />
	<path style="fill:none;stroke:red;stroke-width:1px;stroke-linecap:butt;stroke-linejoin:miter;stroke-opacity:1" d="M 797.84,615.293 790.634,638.111 z" id="boundary" inkscape:connector-curvature="0" />
	<path style="fill:none;stroke:red;stroke-width:1px;stroke-linecap:butt;stroke-linejoin:miter;stroke-opacity:1" d="M 803.845,590.073 797.84,615.293 z" id="boundary" inkscape:connector-curvature="0" />
	<path style="fill:none;stroke:red;stroke-width:1px;stroke-linecap:butt;stroke-linejoin:miter;stroke-opacity:1" d="M 785.831,668.136 790.634,638.111 z" id="boundary" inkscape:connector-curvature="0" />
	<path style="fill:none;stroke:red;stroke-width:1px;stroke-linecap:butt;stroke-linejoin:miter;stroke-opacity:1" d="M 758.208,714.973 770.218,692.155 z" id="boundary" inkscape:connector-curvature="0" />
	<path style="fill:none;stroke:red;stroke-width:1px;stroke-linecap:butt;stroke-linejoin:miter;stroke-opacity:1" d="M 770.218,692.155 785.831,668.136 z" id="boundary" inkscape:connector-curvature="0" />
	<path style="fill:none;stroke:red;stroke-width:1px;stroke-linecap:butt;stroke-linejoin:miter;stroke-opacity:1" d="M 758.208,714.973 746.199,737.792 z" id="boundary" inkscape:connector-curvature="0" />
	<path style="fill:none;stroke:red;stroke-width:1px;stroke-linecap:butt;stroke-linejoin:miter;stroke-opacity:1" d="M 573.259,849.482 543.235,855.487 z" id="boundary" inkscape:connector-curvature="0" />
	<path style="fill:none;stroke:red;stroke-width:1px;stroke-linecap:butt;stroke-linejoin:miter;stroke-opacity:1" d="M 543.235,855.487 516.814,857.889 z" id="boundary" inkscape:connector-curvature="0" />
	<path style="fill:none;stroke:red;stroke-width:1px;stroke-linecap:butt;stroke-linejoin:miter;stroke-opacity:1" d="M 573.259,849.482 603.283,839.874 z" id="boundary" inkscape:connector-curvature="0" />
	<path style="fill:none;stroke:red;stroke-width:1px;stroke-linecap:butt;stroke-linejoin:miter;stroke-opacity:1" d="M 683.748,797.84 656.126,819.458 z" id="boundary" inkscape:connector-curvature="0" />
	<path style="fill:none;stroke:red;stroke-width:1px;stroke-linecap:butt;stroke-linejoin:miter;stroke-opacity:1" d="M 656.126,819.458 628.504,830.266 z" id="boundary" inkscape:connector-curvature="0" />
	<path style="fill:none;stroke:red;stroke-width:1px;stroke-linecap:butt;stroke-linejoin:miter;stroke-opacity:1" d="M 628.504,830.266 603.283,839.874 z" id="boundary" inkscape:connector-curvature="0" />
	<path style="fill:none;stroke:red;stroke-width:1px;stroke-linecap:butt;stroke-linejoin:miter;stroke-opacity:1" d="M 531.225,971.981 484.387,969.579 z" id="boundary" inkscape:connector-curvature="0" />
	<path style="fill:none;stroke:red;stroke-width:1px;stroke-linecap:butt;stroke-linejoin:miter;stroke-opacity:1" d="M 531.225,971.981 573.259,969.579 z" id="boundary" inkscape:connector-curvature="0" />
	<path style="fill:none;stroke:red;stroke-width:1px;stroke-linecap:butt;stroke-linejoin:miter;stroke-opacity:1" d="M 621.298,969.579 573.259,969.579 z" id="boundary" inkscape:connector-curvature="0" />
	<path style="fill:none;stroke:red;stroke-width:1px;stroke-linecap:butt;stroke-linejoin:miter;stroke-opacity:1" d="M 663.332,969.579 621.298,969.579 z" id="boundary" inkscape:connector-curvature="0" />
	<path style="fill:none;stroke:red;stroke-width:1px;stroke-linecap:butt;stroke-linejoin:miter;stroke-opacity:1" d="M 663.332,969.579 698.16,971.981 z" id="boundary" inkscape:connector-curvature="0" />
	<path style="fill:none;stroke:red;stroke-width:1px;stroke-linecap:butt;stroke-linejoin:miter;stroke-opacity:1" d="M 728.184,763.012 705.366,779.826 z" id="boundary" inkscape:connector-curvature="0" />
	<path style="fill:none;stroke:red;stroke-width:1px;stroke-linecap:butt;stroke-linejoin:miter;stroke-opacity:1" d="M 705.366,779.826 683.748,797.84 z" id="boundary" inkscape:connector-curvature="0" />
	<path style="fill:none;stroke:red;stroke-width:1px;stroke-linecap:butt;stroke-linejoin:miter;stroke-opacity:1" d="M 728.184,763.012 746.199,737.792 z" id="boundary" inkscape:connector-curvature="0" />
	<path style="fill:none;stroke:red;stroke-width:1px;stroke-linecap:butt;stroke-linejoin:miter;stroke-opacity:1" d="M 802.644,974.383 771.419,974.383 z" id="boundary" inkscape:connector-curvature="0" />
	<path style="fill:none;stroke:red;stroke-width:1px;stroke-linecap:butt;stroke-linejoin:miter;stroke-opacity:1" d="M 732.988,974.383 771.419,974.383 z" id="boundary" inkscape:connector-curvature="0" />
	<path style="fill:none;stroke:red;stroke-width:1px;stroke-linecap:butt;stroke-linejoin:miter;stroke-opacity:1" d="M 732.988,974.383 698.16,971.981 z" id="boundary" inkscape:connector-curvature="0" />
	<path style="fill:none;stroke:red;stroke-width:1px;stroke-linecap:butt;stroke-linejoin:miter;stroke-opacity:1" d="M 802.644,974.383 841.075,971.981 z" id="boundary" inkscape:connector-curvature="0" />
	<path style="fill:none;stroke:red;stroke-width:1px;stroke-linecap:butt;stroke-linejoin:miter;stroke-opacity:1" d="M 841.075,971.981 873.501,971.981 z" id="boundary" inkscape:connector-curvature="0" />
	<path style="fill:none;stroke:red;stroke-width:1px;stroke-linecap:butt;stroke-linejoin:miter;stroke-opacity:1" d="M 943.157,432.746 940.755,455.564 z" id="boundary" inkscape:connector-curvature="0" />
	<path style="fill:none;stroke:red;stroke-width:1px;stroke-linecap:butt;stroke-linejoin:miter;stroke-opacity:1" d="M 940.755,455.564 940.755,475.981 z" id="boundary" inkscape:connector-curvature="0" />
	<path style="fill:none;stroke:red;stroke-width:1px;stroke-linecap:butt;stroke-linejoin:miter;stroke-opacity:1" d="M 940.755,475.981 940.755,500 z" id="boundary" inkscape:connector-curvature="0" />
	<path style="fill:none;stroke:red;stroke-width:1px;stroke-linecap:butt;stroke-linejoin:miter;stroke-opacity:1" d="M 943.157,415.932 943.157,432.746 z" id="boundary" inkscape:connector-curvature="0" />
	<path style="fill:none;stroke:red;stroke-width:1px;stroke-linecap:butt;stroke-linejoin:miter;stroke-opacity:1" d="M 940.755,500 940.755,527.622 z" id="boundary" inkscape:connector-curvature="0" />
	<path style="fill:none;stroke:red;stroke-width:1px;stroke-linecap:butt;stroke-linejoin:miter;stroke-opacity:1" d="M 957.569,532.426 940.755,527.622 z" id="boundary" inkscape:connector-curvature="0" />
	<path style="fill:none;stroke:red;stroke-width:1px;stroke-linecap:butt;stroke-linejoin:miter;stroke-opacity:1" d="M 973.182,485.588 970.78,503.603 z" id="boundary" inkscape:connector-curvature="0" />
	<path style="fill:none;stroke:red;stroke-width:1px;stroke-linecap:butt;stroke-linejoin:miter;stroke-opacity:1" d="M 970.78,503.603 970.78,525.22 z" id="boundary" inkscape:connector-curvature="0" />
	<path style="fill:none;stroke:red;stroke-width:1px;stroke-linecap:butt;stroke-linejoin:miter;stroke-opacity:1" d="M 970.78,525.22 957.569,532.426 z" id="boundary" inkscape:connector-curvature="0" />
	<path style="fill:none;stroke:red;stroke-width:1px;stroke-linecap:butt;stroke-linejoin:miter;stroke-opacity:1" d="M 975.584,435.148 973.182,453.162 z" id="boundary" inkscape:connector-curvature="0" />
	<path style="fill:none;stroke:red;stroke-width:1px;stroke-linecap:butt;stroke-linejoin:miter;stroke-opacity:1" d="M 973.182,467.574 973.182,453.162 z" id="boundary" inkscape:connector-curvature="0" />
	<path style="fill:none;stroke:red;stroke-width:1px;stroke-linecap:butt;stroke-linejoin:miter;stroke-opacity:1" d="M 996,423.138 996,438.751 z" id="boundary" inkscape:connector-curvature="0" />
	<path style="fill:none;stroke:red;stroke-width:1px;stroke-linecap:butt;stroke-linejoin:miter;stroke-opacity:1" d="M 996,438.751 996,457.966 z" id="boundary" inkscape:connector-curvature="0" />
	<path style="fill:none;stroke:red;stroke-width:1px;stroke-linecap:butt;stroke-linejoin:miter;stroke-opacity:1" d="M 996,457.966 996,475.981 z" id="boundary" inkscape:connector-curvature="0" />
	<path style="fill:none;stroke:red;stroke-width:1px;stroke-linecap:butt;stroke-linejoin:miter;stroke-opacity:1" d="M 973.182,485.588 973.182,467.574 z" id="boundary" inkscape:connector-curvature="0" />
	<path style="fill:none;stroke:red;stroke-width:1px;stroke-linecap:butt;stroke-linejoin:miter;stroke-opacity:1" d="M 996,475.981 996,490.392 z" id="boundary" inkscape:connector-curvature="0" />
	<path style="fill:none;stroke:red;stroke-width:1px;stroke-linecap:butt;stroke-linejoin:miter;stroke-opacity:1" d="M 992.397,525.22 996,508.407 z" id="boundary" inkscape:connector-curvature="0" />
	<path style="fill:none;stroke:red;stroke-width:1px;stroke-linecap:butt;stroke-linejoin:miter;stroke-opacity:1" d="M 996,490.392 996,508.407 z" id="boundary" inkscape:connector-curvature="0" />
	<path style="fill:none;stroke:red;stroke-width:1px;stroke-linecap:butt;stroke-linejoin:miter;stroke-opacity:1" d="M 992.397,525.22 989.995,543.235 z" id="boundary" inkscape:connector-curvature="0" />
	<path style="fill:none;stroke:red;stroke-width:1px;stroke-linecap:butt;stroke-linejoin:miter;stroke-opacity:1" d="M 943.157,570.857 943.157,555.245 z" id="boundary" inkscape:connector-curvature="0" />
	<path style="fill:none;stroke:red;stroke-width:1px;stroke-linecap:butt;stroke-linejoin:miter;stroke-opacity:1" d="M 940.755,527.622 943.157,555.245 z" id="boundary" inkscape:connector-curvature="0" />
	<path style="fill:none;stroke:red;stroke-width:1px;stroke-linecap:butt;stroke-linejoin:miter;stroke-opacity:1" d="M 940.755,587.671 943.157,570.857 z" id="boundary" inkscape:connector-curvature="0" />
	<path style="fill:none;stroke:red;stroke-width:1px;stroke-linecap:butt;stroke-linejoin:miter;stroke-opacity:1" d="M 938.354,612.891 940.755,638.111 z" id="boundary" inkscape:connector-curvature="0" />
	<path style="fill:none;stroke:red;stroke-width:1px;stroke-linecap:butt;stroke-linejoin:miter;stroke-opacity:1" d="M 940.755,638.111 938.354,665.734 z" id="boundary" inkscape:connector-curvature="0" />
	<path style="fill:none;stroke:red;stroke-width:1px;stroke-linecap:butt;stroke-linejoin:miter;stroke-opacity:1" d="M 938.354,612.891 940.755,587.671 z" id="boundary" inkscape:connector-curvature="0" />
	<path style="fill:none;stroke:red;stroke-width:1px;stroke-linecap:butt;stroke-linejoin:miter;stroke-opacity:1" d="M 938.354,695.758 938.354,665.734 z" id="boundary" inkscape:connector-curvature="0" />
	<path style="fill:none;stroke:red;stroke-width:1px;stroke-linecap:butt;stroke-linejoin:miter;stroke-opacity:1" d="M 929.947,895.119 927.545,925.143 z" id="boundary" inkscape:connector-curvature="0" />
	<path style="fill:none;stroke:red;stroke-width:1px;stroke-linecap:butt;stroke-linejoin:miter;stroke-opacity:1" d="M 903.525,974.383 873.501,971.981 z" id="boundary" inkscape:connector-curvature="0" />
	<path style="fill:none;stroke:red;stroke-width:1px;stroke-linecap:butt;stroke-linejoin:miter;stroke-opacity:1" d="M 920.339,955.167 903.525,974.383 z" id="boundary" inkscape:connector-curvature="0" />
	<path style="fill:none;stroke:red;stroke-width:1px;stroke-linecap:butt;stroke-linejoin:miter;stroke-opacity:1" d="M 927.545,925.143 920.339,955.167 z" id="boundary" inkscape:connector-curvature="0" />
	<path style="fill:none;stroke:red;stroke-width:1px;stroke-linecap:butt;stroke-linejoin:miter;stroke-opacity:1" d="M 935.952,757.007 935.952,724.581 z" id="boundary" inkscape:connector-curvature="0" />
	<path style="fill:none;stroke:red;stroke-width:1px;stroke-linecap:butt;stroke-linejoin:miter;stroke-opacity:1" d="M 933.55,784.63 935.952,757.007 z" id="boundary" inkscape:connector-curvature="0" />
	<path style="fill:none;stroke:red;stroke-width:1px;stroke-linecap:butt;stroke-linejoin:miter;stroke-opacity:1" d="M 933.55,844.678 932.349,872.3 z" id="boundary" inkscape:connector-curvature="0" />
	<path style="fill:none;stroke:red;stroke-width:1px;stroke-linecap:butt;stroke-linejoin:miter;stroke-opacity:1" d="M 933.55,817.056 933.55,844.678 z" id="boundary" inkscape:connector-curvature="0" />
	<path style="fill:none;stroke:red;stroke-width:1px;stroke-linecap:butt;stroke-linejoin:miter;stroke-opacity:1" d="M 932.349,872.3 929.947,895.119 z" id="boundary" inkscape:connector-curvature="0" />
	<path style="fill:none;stroke:red;stroke-width:1px;stroke-linecap:butt;stroke-linejoin:miter;stroke-opacity:1" d="M 933.55,817.056 933.55,784.63 z" id="boundary" inkscape:connector-curvature="0" />
	<path style="fill:none;stroke:red;stroke-width:1px;stroke-linecap:butt;stroke-linejoin:miter;stroke-opacity:1" d="M 935.952,724.581 938.354,695.758 z" id="boundary" inkscape:connector-curvature="0" />
	<path style="fill:none;stroke:red;stroke-width:1px;stroke-linecap:butt;stroke-linejoin:miter;stroke-opacity:1" d="M 968.378,562.45 955.167,557.646 z" id="boundary" inkscape:connector-curvature="0" />
	<path style="fill:none;stroke:red;stroke-width:1px;stroke-linecap:butt;stroke-linejoin:miter;stroke-opacity:1" d="M 943.157,555.245 955.167,557.646 z" id="boundary" inkscape:connector-curvature="0" />
	<path style="fill:none;stroke:red;stroke-width:1px;stroke-linecap:butt;stroke-linejoin:miter;stroke-opacity:1" d="M 968.378,562.45 982.789,557.646 z" id="boundary" inkscape:connector-curvature="0" />
	<path style="fill:none;stroke:red;stroke-width:1px;stroke-linecap:butt;stroke-linejoin:miter;stroke-opacity:1" d="M 989.995,543.235 982.789,557.646 z" id="boundary" inkscape:connector-curvature="0" />
	<circle cx="229.782" cy="435.148" r="4" fill="#0" id="circle0"/>
	<circle cx="244.194" cy="405.123" r="4" fill="#0" id="circle1"/>
	<circle cx="262.208" cy="376.3" r="4" fill="#0" id="circle2"/>
	<circle cx="281.424" cy="353.482" r="4" fill="#0" id="circle3"/>
	<circle cx="301.84" cy="325.86" r="4" fill="#0" id="circle4"/>
	<circle cx="329.462" cy="307.845" r="4" fill="#0" id="circle5"/>
	<circle cx="355.884" cy="291.031" r="4" fill="#0" id="circle6"/>
	<circle cx="388.31" cy="277.821" r="4" fill="#0" id="circle7"/>
	<circle cx="418.334" cy="268.213" r="4" fill="#0" id="circle8"/>
	<circle cx="443.554" cy="263.409" r="4" fill="#0" id="circle9"/>
	<circle cx="218.973" cy="462.77" r="4" fill="#0" id="circle10"/>
	<circle cx="204.562" cy="495.196" r="4" fill="#0" id="circle11"/>
	<circle cx="197.356" cy="527.622" r="4" fill="#0" id="circle12"/>
	<circle cx="197.356" cy="557.646" r="4" fill="#0" id="circle13"/>
	<circle cx="197.356" cy="590.073" r="4" fill="#0" id="circle14"/>
	<circle cx="204.562" cy="622.499" r="4" fill="#0" id="circle15"/>
	<circle cx="211.768" cy="652.523" r="4" fill="#0" id="circle16"/>
	<circle cx="227.38" cy="680.145" r="4" fill="#0" id="circle17"/>
	<circle cx="239.39" cy="705.366" r="4" fill="#0" id="circle18"/>
	<circle cx="253.801" cy="724.581" r="4" fill="#0" id="circle19"/>
	<circle cx="271.816" cy="749.801" r="4" fill="#0" id="circle20"/>
	<circle cx="291.031" cy="765.414" r="4" fill="#0" id="circle21"/>
	<circle cx="309.046" cy="784.63" r="4" fill="#0" id="circle22"/>
	<circle cx="329.462" cy="800.242" r="4" fill="#0" id="circle23"/>
	<circle cx="351.08" cy="814.654" r="4" fill="#0" id="circle24"/>
	<circle cx="378.702" cy="830.266" r="4" fill="#0" id="circle25"/>
	<circle cx="403.923" cy="842.276" r="4" fill="#0" id="circle26"/>
	<circle cx="433.947" cy="849.482" r="4" fill="#0" id="circle27"/>
	<circle cx="466.373" cy="855.487" r="4" fill="#0" id="circle28"/>
	<circle cx="496.397" cy="857.889" r="4" fill="#0" id="circle29"/>
	<circle cx="516.814" cy="857.889" r="4" fill="#0" id="circle30"/>
	<circle cx="543.235" cy="855.487" r="4" fill="#0" id="circle31"/>
	<circle cx="573.259" cy="849.482" r="4" fill="#0" id="circle32"/>
	<circle cx="603.283" cy="839.874" r="4" fill="#0" id="circle33"/>
	<circle cx="628.504" cy="830.266" r="4" fill="#0" id="circle34"/>
	<circle cx="656.126" cy="819.458" r="4" fill="#0" id="circle35"/>
	<circle cx="683.748" cy="797.84" r="4" fill="#0" id="circle36"/>
	<circle cx="705.366" cy="779.826" r="4" fill="#0" id="circle37"/>
	<circle cx="728.184" cy="763.012" r="4" fill="#0" id="circle38"/>
	<circle cx="471.177" cy="253.801" r="4" fill="#0" id="circle39"/>
	<circle cx="506.005" cy="251.4" r="4" fill="#0" id="circle40"/>
	<circle cx="536.029" cy="253.801" r="4" fill="#0" id="circle41"/>
	<circle cx="563.651" cy="258.605" r="4" fill="#0" id="circle42"/>
	<circle cx="593.676" cy="268.213" r="4" fill="#0" id="circle43"/>
	<circle cx="621.298" cy="281.424" r="4" fill="#0" id="circle44"/>
	<circle cx="646.518" cy="288.63" r="4" fill="#0" id="circle45"/>
	<circle cx="668.136" cy="303.041" r="4" fill="#0" id="circle46"/>
	<circle cx="683.748" cy="313.85" r="4" fill="#0" id="circle47"/>
	<circle cx="713.772" cy="340.271" r="4" fill="#0" id="circle48"/>
	<circle cx="695.758" cy="323.458" r="4" fill="#0" id="circle49"/>
	<circle cx="730.586" cy="353.482" r="4" fill="#0" id="circle50"/>
	<circle cx="741.395" cy="372.697" r="4" fill="#0" id="circle51"/>
	<circle cx="753.404" cy="393.114" r="4" fill="#0" id="circle52"/>
	<circle cx="767.816" cy="418.334" r="4" fill="#0" id="circle53"/>
	<circle cx="781.027" cy="438.751" r="4" fill="#0" id="circle54"/>
	<circle cx="793.036" cy="469.976" r="4" fill="#0" id="circle55"/>
	<circle cx="746.199" cy="737.792" r="4" fill="#0" id="circle56"/>
	<circle cx="758.208" cy="714.973" r="4" fill="#0" id="circle57"/>
	<circle cx="770.218" cy="692.155" r="4" fill="#0" id="circle58"/>
	<circle cx="785.831" cy="668.136" r="4" fill="#0" id="circle59"/>
	<circle cx="790.634" cy="638.111" r="4" fill="#0" id="circle60"/>
	<circle cx="797.84" cy="615.293" r="4" fill="#0" id="circle61"/>
	<circle cx="803.845" cy="590.073" r="4" fill="#0" id="circle62"/>
	<circle cx="803.845" cy="555.245" r="4" fill="#0" id="circle63"/>
	<circle cx="806.247" cy="520.416" r="4" fill="#0" id="circle64"/>
	<circle cx="797.84" cy="487.99" r="4" fill="#0" id="circle65"/>
	<circle cx="132.504" cy="168.533" r="4" fill="#0" id="circle66"/>
	<circle cx="131.303" cy="191.351" r="4" fill="#0" id="circle67"/>
	<circle cx="151.719" cy="154.121" r="4" fill="#0" id="circle68"/>
	<circle cx="174.538" cy="143.312" r="4" fill="#0" id="circle69"/>
	<circle cx="197.356" cy="128.901" r="4" fill="#0" id="circle70"/>
	<circle cx="221.375" cy="119.293" r="4" fill="#0" id="circle71"/>
	<circle cx="251.4" cy="108.484" r="4" fill="#0" id="circle72"/>
	<circle cx="258.605" cy="131.303" r="4" fill="#0" id="circle73"/>
	<circle cx="258.605" cy="156.523" r="4" fill="#0" id="circle74"/>
	<circle cx="258.605" cy="178.14" r="4" fill="#0" id="circle75"/>
	<circle cx="262.208" cy="208.165" r="4" fill="#0" id="circle76"/>
	<circle cx="258.605" cy="240.591" r="4" fill="#0" id="circle77"/>
	<circle cx="259.806" cy="273.017" r="4" fill="#0" id="circle78"/>
	<circle cx="259.806" cy="300.639" r="4" fill="#0" id="circle79"/>
	<circle cx="256.203" cy="325.86" r="4" fill="#0" id="circle80"/>
	<circle cx="131.303" cy="212.969" r="4" fill="#0" id="circle81"/>
	<circle cx="128.901" cy="240.591" r="4" fill="#0" id="circle82"/>
	<circle cx="128.901" cy="261.007" r="4" fill="#0" id="circle83"/>
	<circle cx="128.901" cy="283.826" r="4" fill="#0" id="circle84"/>
	<circle cx="128.901" cy="313.85" r="4" fill="#0" id="circle85"/>
	<circle cx="128.901" cy="337.869" r="4" fill="#0" id="circle86"/>
	<circle cx="128.901" cy="363.09" r="4" fill="#0" id="circle87"/>
	<circle cx="128.901" cy="385.908" r="4" fill="#0" id="circle88"/>
	<circle cx="151.719" cy="378.702" r="4" fill="#0" id="circle89"/>
	<circle cx="169.734" cy="370.295" r="4" fill="#0" id="circle90"/>
	<circle cx="191.351" cy="363.09" r="4" fill="#0" id="circle91"/>
	<circle cx="209.366" cy="355.884" r="4" fill="#0" id="circle92"/>
	<circle cx="227.38" cy="343.874" r="4" fill="#0" id="circle93"/>
	<circle cx="246.596" cy="340.271" r="4" fill="#0" id="circle94"/>
	<circle cx="753.404" cy="110.886" r="4" fill="#0" id="circle95"/>
	<circle cx="753.404" cy="140.91" r="4" fill="#0" id="circle96"/>
	<circle cx="753.404" cy="163.729" r="4" fill="#0" id="circle97"/>
	<circle cx="755.806" cy="186.547" r="4" fill="#0" id="circle98"/>
	<circle cx="753.404" cy="210.567" r="4" fill="#0" id="circle99"/>
	<circle cx="753.404" cy="228.581" r="4" fill="#0" id="circle100"/>
	<circle cx="751.002" cy="251.4" r="4" fill="#0" id="circle101"/>
	<circle cx="751.002" cy="273.017" r="4" fill="#0" id="circle102"/>
	<circle cx="753.404" cy="293.433" r="4" fill="#0" id="circle103"/>
	<circle cx="753.404" cy="313.85" r="4" fill="#0" id="circle104"/>
	<circle cx="751.002" cy="337.869" r="4" fill="#0" id="circle105"/>
	<circle cx="767.816" cy="343.874" r="4" fill="#0" id="circle106"/>
	<circle cx="788.232" cy="355.884" r="4" fill="#0" id="circle107"/>
	<circle cx="811.051" cy="367.893" r="4" fill="#0" id="circle108"/>
	<circle cx="827.864" cy="376.3" r="4" fill="#0" id="circle109"/>
	<circle cx="853.085" cy="390.712" r="4" fill="#0" id="circle110"/>
	<circle cx="878.305" cy="408.726" r="4" fill="#0" id="circle111"/>
	<circle cx="887.913" cy="180.542" r="4" fill="#0" id="circle112"/>
	<circle cx="883.109" cy="208.165" r="4" fill="#0" id="circle113"/>
	<circle cx="880.707" cy="230.983" r="4" fill="#0" id="circle114"/>
	<circle cx="883.109" cy="248.998" r="4" fill="#0" id="circle115"/>
	<circle cx="883.109" cy="270.615" r="4" fill="#0" id="circle116"/>
	<circle cx="883.109" cy="291.031" r="4" fill="#0" id="circle117"/>
	<circle cx="883.109" cy="313.85" r="4" fill="#0" id="circle118"/>
	<circle cx="883.109" cy="333.065" r="4" fill="#0" id="circle119"/>
	<circle cx="880.707" cy="353.482" r="4" fill="#0" id="circle120"/>
	<circle cx="880.707" cy="375.099" r="4" fill="#0" id="circle121"/>
	<circle cx="776.223" cy="119.293" r="4" fill="#0" id="circle122"/>
	<circle cx="790.634" cy="128.901" r="4" fill="#0" id="circle123"/>
	<circle cx="811.051" cy="138.508" r="4" fill="#0" id="circle124"/>
	<circle cx="835.07" cy="150.518" r="4" fill="#0" id="circle125"/>
	<circle cx="865.094" cy="166.131" r="4" fill="#0" id="circle126"/>
	<circle cx="64.0484" cy="378.702" r="4" fill="#0" id="circle127"/>
	<circle cx="47.2349" cy="378.702" r="4" fill="#0" id="circle128"/>
	<circle cx="40.0291" cy="393.114" r="4" fill="#0" id="circle129"/>
	<circle cx="35.2252" cy="411.128" r="4" fill="#0" id="circle130"/>
	<circle cx="35.2252" cy="435.148" r="4" fill="#0" id="circle131"/>
	<circle cx="35.2252" cy="453.162" r="4" fill="#0" id="circle132"/>
	<circle cx="34.0242" cy="467.574" r="4" fill="#0" id="circle133"/>
	<circle cx="31.6223" cy="483.186" r="4" fill="#0" id="circle134"/>
	<circle cx="31.6223" cy="502.402" r="4" fill="#0" id="circle135"/>
	<circle cx="42.431" cy="515.613" r="4" fill="#0" id="circle136"/>
	<circle cx="56.8426" cy="518.015" r="4" fill="#0" id="circle137"/>
	<circle cx="66.4504" cy="388.31" r="4" fill="#0" id="circle138"/>
	<circle cx="66.4504" cy="406.324" r="4" fill="#0" id="circle139"/>
	<circle cx="66.4504" cy="425.54" r="4" fill="#0" id="circle140"/>
	<circle cx="64.0484" cy="438.751" r="4" fill="#0" id="circle141"/>
	<circle cx="64.0484" cy="462.77" r="4" fill="#0" id="circle142"/>
	<circle cx="64.0484" cy="475.981" r="4" fill="#0" id="circle143"/>
	<circle cx="61.6465" cy="492.794" r="4" fill="#0" id="circle144"/>
	<circle cx="943.157" cy="393.114" r="4" fill="#0" id="circle145"/>
	<circle cx="943.157" cy="415.932" r="4" fill="#0" id="circle146"/>
	<circle cx="943.157" cy="432.746" r="4" fill="#0" id="circle147"/>
	<circle cx="940.755" cy="455.564" r="4" fill="#0" id="circle148"/>
	<circle cx="940.755" cy="475.981" r="4" fill="#0" id="circle149"/>
	<circle cx="940.755" cy="500" r="4" fill="#0" id="circle150"/>
	<circle cx="940.755" cy="527.622" r="4" fill="#0" id="circle151"/>
	<circle cx="957.569" cy="532.426" r="4" fill="#0" id="circle152"/>
	<circle cx="970.78" cy="525.22" r="4" fill="#0" id="circle153"/>
	<circle cx="970.78" cy="503.603" r="4" fill="#0" id="circle154"/>
	<circle cx="973.182" cy="485.588" r="4" fill="#0" id="circle155"/>
	<circle cx="973.182" cy="467.574" r="4" fill="#0" id="circle156"/>
	<circle cx="973.182" cy="453.162" r="4" fill="#0" id="circle157"/>
	<circle cx="975.584" cy="435.148" r="4" fill="#0" id="circle158"/>
	<circle cx="957.569" cy="388.31" r="4" fill="#0" id="circle159"/>
	<circle cx="968.378" cy="390.712" r="4" fill="#0" id="circle160"/>
	<circle cx="975.584" cy="400.32" r="4" fill="#0" id="circle161"/>
	<circle cx="975.584" cy="411.128" r="4" fill="#0" id="circle162"/>
	<circle cx="56.8426" cy="148.116" r="4" fill="#0" id="circle163"/>
	<circle cx="74.8571" cy="138.508" r="4" fill="#0" id="circle164"/>
	<circle cx="91.6707" cy="121.695" r="4" fill="#0" id="circle165"/>
	<circle cx="116.891" cy="110.886" r="4" fill="#0" id="circle166"/>
	<circle cx="142.111" cy="94.0726" r="4" fill="#0" id="circle167"/>
	<circle cx="163.729" cy="83.2639" r="4" fill="#0" id="circle168"/>
	<circle cx="193.753" cy="68.8523" r="4" fill="#0" id="circle169"/>
	<circle cx="227.38" cy="53.2397" r="4" fill="#0" id="circle170"/>
	<circle cx="259.806" cy="41.23" r="4" fill="#0" id="circle171"/>
	<circle cx="292.232" cy="34.0242" r="4" fill="#0" id="circle172"/>
	<circle cx="329.462" cy="22.0145" r="4" fill="#0" id="circle173"/>
	<circle cx="366.692" cy="16.0097" r="4" fill="#0" id="circle174"/>
	<circle cx="411.128" cy="11.2058" r="4" fill="#0" id="circle175"/>
	<circle cx="450.76" cy="8.80387" r="4" fill="#0" id="circle176"/>
	<circle cx="480.785" cy="6.40194" r="4" fill="#0" id="circle177"/>
	<circle cx="510.809" cy="4" r="4" fill="#0" id="circle178"/>
	<circle cx="545.637" cy="4" r="4" fill="#0" id="circle179"/>
	<circle cx="581.666" cy="11.2058" r="4" fill="#0" id="circle180"/>
	<circle cx="626.102" cy="18.4116" r="4" fill="#0" id="circle181"/>
	<circle cx="663.332" cy="24.4165" r="4" fill="#0" id="circle182"/>
	<circle cx="693.356" cy="31.6223" r="4" fill="#0" id="circle183"/>
	<circle cx="728.184" cy="38.8281" r="4" fill="#0" id="circle184"/>
	<circle cx="753.404" cy="50.8378" r="4" fill="#0" id="circle185"/>
	<circle cx="788.232" cy="61.6465" r="4" fill="#0" id="circle186"/>
	<circle cx="818.257" cy="76.0581" r="4" fill="#0" id="circle187"/>
	<circle cx="843.477" cy="86.8668" r="4" fill="#0" id="circle188"/>
	<circle cx="867.496" cy="103.68" r="4" fill="#0" id="circle189"/>
	<circle cx="895.119" cy="118.092" r="4" fill="#0" id="circle190"/>
	<circle cx="917.937" cy="133.705" r="4" fill="#0" id="circle191"/>
	<circle cx="938.354" cy="148.116" r="4" fill="#0" id="circle192"/>
	<circle cx="959.971" cy="161.327" r="4" fill="#0" id="circle193"/>
	<circle cx="959.971" cy="182.944" r="4" fill="#0" id="circle194"/>
	<circle cx="945.559" cy="186.547" r="4" fill="#0" id="circle195"/>
	<circle cx="945.559" cy="203.361" r="4" fill="#0" id="circle196"/>
	<circle cx="52.0387" cy="173.337" r="4" fill="#0" id="circle197"/>
	<circle cx="66.4504" cy="180.542" r="4" fill="#0" id="circle198"/>
	<circle cx="64.0484" cy="200.959" r="4" fill="#0" id="circle199"/>
	<circle cx="66.4504" cy="218.973" r="4" fill="#0" id="circle200"/>
	<circle cx="66.4504" cy="242.993" r="4" fill="#0" id="circle201"/>
	<circle cx="64.0484" cy="263.409" r="4" fill="#0" id="circle202"/>
	<circle cx="64.0484" cy="281.424" r="4" fill="#0" id="circle203"/>
	<circle cx="64.0484" cy="300.639" r="4" fill="#0" id="circle204"/>
	<circle cx="66.4504" cy="316.252" r="4" fill="#0" id="circle205"/>
	<circle cx="64.0484" cy="340.271" r="4" fill="#0" id="circle206"/>
	<circle cx="945.559" cy="228.581" r="4" fill="#0" id="circle207"/>
	<circle cx="945.559" cy="258.605" r="4" fill="#0" id="circle208"/>
	<circle cx="940.755" cy="283.826" r="4" fill="#0" id="circle209"/>
	<circle cx="943.157" cy="307.845" r="4" fill="#0" id="circle210"/>
	<circle cx="943.157" cy="330.663" r="4" fill="#0" id="circle211"/>
	<circle cx="943.157" cy="351.08" r="4" fill="#0" id="circle212"/>
	<circle cx="47.2349" cy="348.678" r="4" fill="#0" id="circle213"/>
	<circle cx="34.0242" cy="351.08" r="4" fill="#0" id="circle214"/>
	<circle cx="22.0145" cy="360.688" r="4" fill="#0" id="circle215"/>
	<circle cx="14.8087" cy="372.697" r="4" fill="#0" id="circle216"/>
	<circle cx="5.20097" cy="383.506" r="4" fill="#0" id="circle217"/>
	<circle cx="5.20097" cy="397.918" r="4" fill="#0" id="circle218"/>
	<circle cx="5.20097" cy="411.128" r="4" fill="#0" id="circle219"/>
	<circle cx="4" cy="425.54" r="4" fill="#0" id="circle220"/>
	<circle cx="4" cy="441.153" r="4" fill="#0" id="circle221"/>
	<circle cx="4" cy="455.564" r="4" fill="#0" id="circle222"/>
	<circle cx="4" cy="469.976" r="4" fill="#0" id="circle223"/>
	<circle cx="4" cy="480.785" r="4" fill="#0" id="circle224"/>
	<circle cx="4" cy="500" r="4" fill="#0" id="circle225"/>
	<circle cx="4" cy="510.809" r="4" fill="#0" id="circle226"/>
	<circle cx="5.20097" cy="527.622" r="4" fill="#0" id="circle227"/>
	<circle cx="19.6126" cy="538.431" r="4" fill="#0" id="circle228"/>
	<circle cx="31.6223" cy="540.833" r="4" fill="#0" id="circle229"/>
	<circle cx="44.8329" cy="543.235" r="4" fill="#0" id="circle230"/>
	<circle cx="56.8426" cy="543.235" r="4" fill="#0" id="circle231"/>
	<circle cx="943.157" cy="555.245" r="4" fill="#0" id="circle232"/>
	<circle cx="955.167" cy="557.646" r="4" fill="#0" id="circle233"/>
	<circle cx="968.378" cy="562.45" r="4" fill="#0" id="circle234"/>
	<circle cx="982.789" cy="557.646" r="4" fill="#0" id="circle235"/>
	<circle cx="989.995" cy="543.235" r="4" fill="#0" id="circle236"/>
	<circle cx="992.397" cy="525.22" r="4" fill="#0" id="circle237"/>
	<circle cx="996" cy="508.407" r="4" fill="#0" id="circle238"/>
	<circle cx="996" cy="490.392" r="4" fill="#0" id="circle239"/>
	<circle cx="996" cy="475.981" r="4" fill="#0" id="circle240"/>
	<circle cx="996" cy="457.966" r="4" fill="#0" id="circle241"/>
	<circle cx="996" cy="438.751" r="4" fill="#0" id="circle242"/>
	<circle cx="996" cy="423.138" r="4" fill="#0" id="circle243"/>
	<circle cx="996" cy="406.324" r="4" fill="#0" id="circle244"/>
	<circle cx="992.397" cy="388.31" r="4" fill="#0" id="circle245"/>
	<circle cx="985.191" cy="375.099" r="4" fill="#0" id="circle246"/>
	<circle cx="973.182" cy="367.893" r="4" fill="#0" id="circle247"/>
	<circle cx="959.971" cy="360.688" r="4" fill="#0" id="circle248"/>
	<circle cx="61.6465" cy="557.646" r="4" fill="#0" id="circle249"/>
	<circle cx="59.2446" cy="573.259" r="4" fill="#0" id="circle250"/>
	<circle cx="61.6465" cy="592.475" r="4" fill="#0" id="circle251"/>
	<circle cx="59.2446" cy="612.891" r="4" fill="#0" id="circle252"/>
	<circle cx="59.2446" cy="633.308" r="4" fill="#0" id="circle253"/>
	<circle cx="59.2446" cy="654.925" r="4" fill="#0" id="circle254"/>
	<circle cx="56.8426" cy="680.145" r="4" fill="#0" id="circle255"/>
	<circle cx="56.8426" cy="702.964" r="4" fill="#0" id="circle256"/>
	<circle cx="56.8426" cy="730.586" r="4" fill="#0" id="circle257"/>
	<circle cx="56.8426" cy="752.203" r="4" fill="#0" id="circle258"/>
	<circle cx="56.8426" cy="775.022" r="4" fill="#0" id="circle259"/>
	<circle cx="56.8426" cy="795.438" r="4" fill="#0" id="circle260"/>
	<circle cx="56.8426" cy="817.056" r="4" fill="#0" id="circle261"/>
	<circle cx="56.8426" cy="835.07" r="4" fill="#0" id="circle262"/>
	<circle cx="56.8426" cy="860.291" r="4" fill="#0" id="circle263"/>
	<circle cx="56.8426" cy="881.908" r="4" fill="#0" id="circle264"/>
	<circle cx="59.2446" cy="904.726" r="4" fill="#0" id="circle265"/>
	<circle cx="61.6465" cy="922.741" r="4" fill="#0" id="circle266"/>
	<circle cx="72.4552" cy="946.76" r="4" fill="#0" id="circle267"/>
	<circle cx="86.8668" cy="964.775" r="4" fill="#0" id="circle268"/>
	<circle cx="112.087" cy="964.775" r="4" fill="#0" id="circle269"/>
	<circle cx="144.513" cy="967.177" r="4" fill="#0" id="circle270"/>
	<circle cx="174.538" cy="969.579" r="4" fill="#0" id="circle271"/>
	<circle cx="209.366" cy="969.579" r="4" fill="#0" id="circle272"/>
	<circle cx="244.194" cy="971.981" r="4" fill="#0" id="circle273"/>
	<circle cx="286.228" cy="971.981" r="4" fill="#0" id="circle274"/>
	<circle cx="327.061" cy="971.981" r="4" fill="#0" id="circle275"/>
	<circle cx="369.094" cy="971.981" r="4" fill="#0" id="circle276"/>
	<circle cx="403.923" cy="971.981" r="4" fill="#0" id="circle277"/>
	<circle cx="445.956" cy="969.579" r="4" fill="#0" id="circle278"/>
	<circle cx="484.387" cy="969.579" r="4" fill="#0" id="circle279"/>
	<circle cx="531.225" cy="971.981" r="4" fill="#0" id="circle280"/>
	<circle cx="573.259" cy="969.579" r="4" fill="#0" id="circle281"/>
	<circle cx="621.298" cy="969.579" r="4" fill="#0" id="circle282"/>
	<circle cx="663.332" cy="969.579" r="4" fill="#0" id="circle283"/>
	<circle cx="698.16" cy="971.981" r="4" fill="#0" id="circle284"/>
	<circle cx="732.988" cy="974.383" r="4" fill="#0" id="circle285"/>
	<circle cx="771.419" cy="974.383" r="4" fill="#0" id="circle286"/>
	<circle cx="802.644" cy="974.383" r="4" fill="#0" id="circle287"/>
	<circle cx="841.075" cy="971.981" r="4" fill="#0" id="circle288"/>
	<circle cx="873.501" cy="971.981" r="4" fill="#0" id="circle289"/>
	<circle cx="903.525" cy="974.383" r="4" fill="#0" id="circle290"/>
	<circle cx="943.157" cy="570.857" r="4" fill="#0" id="circle291"/>
	<circle cx="940.755" cy="587.671" r="4" fill="#0" id="circle292"/>
	<circle cx="938.354" cy="612.891" r="4" fill="#0" id="circle293"/>
	<circle cx="940.755" cy="638.111" r="4" fill="#0" id="circle294"/>
	<circle cx="938.354" cy="665.734" r="4" fill="#0" id="circle295"/>
	<circle cx="938.354" cy="695.758" r="4" fill="#0" id="circle296"/>
	<circle cx="935.952" cy="724.581" r="4" fill="#0" id="circle297"/>
	<circle cx="935.952" cy="757.007" r="4" fill="#0" id="circle298"/>
	<circle cx="933.55" cy="784.63" r="4" fill="#0" id="circle299"/>
	<circle cx="933.55" cy="817.056" r="4" fill="#0" id="circle300"/>
	<circle cx="933.55" cy="844.678" r="4" fill="#0" id="circle301"/>
	<circle cx="932.349" cy="872.3" r="4" fill="#0" id="circle302"/>
	<circle cx="929.947" cy="895.119" r="4" fill="#0" id="circle303"/>
	<circle cx="927.545" cy="925.143" r="4" fill="#0" id="circle304"/>
	<circle cx="920.339" cy="955.167" r="4" fill="#0" id="circle305"/>
	</g>
</svg>